(module Autotransformer_Toroid_1Tap_Horizontal_D9.0mm_Amidon-T30 (layer F.Cu) (tedit 5A030845)
  (descr "Autotransformer, Toroid, horizontal, laying, 1 Tap, Diameter 9mm, Amidon T30,")
  (tags "Autotransformer Toroid horizontal laying 1 Tap Diameter 9mm Amidon T30 ")
  (fp_text reference REF** (at 6.5 -5.3) (layer F.SilkS)
    (effects (font (size 1 1) (thickness 0.15)))
  )
  (fp_text value Autotransformer_Toroid_1Tap_Horizontal_D9.0mm_Amidon-T30 (at 6.5 9.1) (layer F.Fab)
    (effects (font (size 1 1) (thickness 0.15)))
  )
  (fp_text user End (at 14.7 -2.9) (layer F.Fab)
    (effects (font (size 1 1) (thickness 0.15)))
  )
  (fp_text user Start (at -2.1 -2.9) (layer F.Fab)
    (effects (font (size 1 1) (thickness 0.15)))
  )
  (fp_text user %R (at 6.5 -2.75) (layer F.Fab)
    (effects (font (size 1 1) (thickness 0.15)))
  )
  (fp_line (start 2.2 0) (end 4.9 0) (layer F.Fab) (width 0.1))
  (fp_line (start 4.9 0) (end 2.7 2) (layer F.Fab) (width 0.1))
  (fp_line (start 2.7 2) (end 5.3 1.1) (layer F.Fab) (width 0.1))
  (fp_line (start 5.3 1.1) (end 4.2 3.7) (layer F.Fab) (width 0.1))
  (fp_line (start 4.2 3.7) (end 6.2 1.5) (layer F.Fab) (width 0.1))
  (fp_line (start 6.2 1.5) (end 6.7 4.3) (layer F.Fab) (width 0.1))
  (fp_line (start 6.7 4.3) (end 7 1.4) (layer F.Fab) (width 0.1))
  (fp_line (start 7 1.4) (end 8.8 3.6) (layer F.Fab) (width 0.1))
  (fp_line (start 8.8 3.6) (end 7.8 0.9) (layer F.Fab) (width 0.1))
  (fp_line (start 7.8 0.9) (end 10.3 2) (layer F.Fab) (width 0.1))
  (fp_line (start 10.3 2) (end 8 -0.1) (layer F.Fab) (width 0.1))
  (fp_line (start 8 -0.1) (end 10.9 -0.1) (layer F.Fab) (width 0.1))
  (fp_line (start -1.75 -4.75) (end 14.75 -4.75) (layer F.CrtYd) (width 0.05))
  (fp_line (start -1.75 -4.75) (end -1.75 8.25) (layer F.CrtYd) (width 0.05))
  (fp_line (start 14.75 8.25) (end 14.75 -4.75) (layer F.CrtYd) (width 0.05))
  (fp_line (start 14.75 8.25) (end -1.75 8.25) (layer F.CrtYd) (width 0.05))
  (fp_circle (center 6.5 0) (end 9.8 3.2) (layer F.SilkS) (width 0.12))
  (fp_circle (center 6.5 0) (end 7.6 0.8) (layer F.SilkS) (width 0.12))
  (fp_circle (center 6.5 0) (end 8 0) (layer F.Fab) (width 0.1))
  (fp_circle (center 6.5 0) (end 11 0) (layer F.Fab) (width 0.1))
  (pad 1 thru_hole circle (at 0 0) (size 3 3) (drill 1.2) (layers *.Cu *.Mask))
  (pad 3 thru_hole circle (at 13 0) (size 3 3) (drill 1.2) (layers *.Cu *.Mask))
  (pad 2 thru_hole circle (at 6.5 6.5) (size 3 3) (drill 1.2) (layers *.Cu *.Mask))
  (model ${KICAD6_3DMODEL_DIR}/Transformer_THT.3dshapes/Autotransformer_Toroid_1Tap_Horizontal_D9.0mm_Amidon-T30.wrl
    (at (xyz 0 0 0))
    (scale (xyz 1 1 1))
    (rotate (xyz 0 0 0))
  )
)
