(module Autotransformer_Toroid_1Tap_Horizontal_D10.5mm_Amidon-T37 (layer F.Cu) (tedit 5A030845)
  (descr "Autotransformer, Toroid, horizontal, laying, 1 Tap, Diameter 10,5mm, Amidon T37,")
  (tags "Autotransformer Toroid horizontal laying 1 Tap Diameter 10 5mm Amidon T37 ")
  (fp_text reference REF** (at 7.4 -6.2) (layer F.SilkS)
    (effects (font (size 1 1) (thickness 0.15)))
  )
  (fp_text value Autotransformer_Toroid_1Tap_Horizontal_D10.5mm_Amidon-T37 (at 7.5 10.2) (layer F.Fab)
    (effects (font (size 1 1) (thickness 0.15)))
  )
  (fp_text user Tap1 (at 11.2 6) (layer F.Fab)
    (effects (font (size 1 1) (thickness 0.15)))
  )
  (fp_text user End (at 15.7 -2.9) (layer F.Fab)
    (effects (font (size 1 1) (thickness 0.15)))
  )
  (fp_text user Start (at -1.1 -2.9) (layer F.Fab)
    (effects (font (size 1 1) (thickness 0.15)))
  )
  (fp_text user %R (at 7.5 -3.5) (layer F.Fab)
    (effects (font (size 1 1) (thickness 0.15)))
  )
  (fp_line (start 2.1 0) (end 5.3 0) (layer F.Fab) (width 0.1))
  (fp_line (start 5.3 0) (end 2.5 1.6) (layer F.Fab) (width 0.1))
  (fp_line (start 2.5 1.6) (end 5.6 1) (layer F.Fab) (width 0.1))
  (fp_line (start 5.6 1) (end 3.5 3.4) (layer F.Fab) (width 0.1))
  (fp_line (start 3.5 3.4) (end 6.1 1.7) (layer F.Fab) (width 0.1))
  (fp_line (start 6.1 1.7) (end 5.4 4.9) (layer F.Fab) (width 0.1))
  (fp_line (start 5.4 4.9) (end 7.2 2.1) (layer F.Fab) (width 0.1))
  (fp_line (start 7.2 2.1) (end 7.9 5.2) (layer F.Fab) (width 0.1))
  (fp_line (start 7.9 5.2) (end 8.4 1.9) (layer F.Fab) (width 0.1))
  (fp_line (start 8.4 1.9) (end 9.8 4.7) (layer F.Fab) (width 0.1))
  (fp_line (start 9.8 4.7) (end 9.3 1.2) (layer F.Fab) (width 0.1))
  (fp_line (start 9.3 1.2) (end 12.3 2.1) (layer F.Fab) (width 0.1))
  (fp_line (start 12.3 2.1) (end 9.6 0) (layer F.Fab) (width 0.1))
  (fp_line (start 9.6 0) (end 12.8 0) (layer F.Fab) (width 0.1))
  (fp_line (start -1.75 -5.55) (end 16.75 -5.55) (layer F.CrtYd) (width 0.05))
  (fp_line (start -1.75 -5.55) (end -1.75 9.25) (layer F.CrtYd) (width 0.05))
  (fp_line (start 16.75 9.25) (end 16.75 -5.55) (layer F.CrtYd) (width 0.05))
  (fp_line (start 16.75 9.25) (end -1.75 9.25) (layer F.CrtYd) (width 0.05))
  (fp_circle (center 7.5 0) (end 12.9 0) (layer F.SilkS) (width 0.12))
  (fp_circle (center 7.5 0) (end 9.5 0) (layer F.SilkS) (width 0.12))
  (fp_circle (center 7.5 0) (end 9.6 0) (layer F.Fab) (width 0.1))
  (fp_circle (center 7.5 0) (end 12.8 0) (layer F.Fab) (width 0.1))
  (pad 1 thru_hole circle (at 0 0) (size 3 3) (drill 1.2) (layers *.Cu *.Mask))
  (pad 3 thru_hole circle (at 15 0) (size 3 3) (drill 1.2) (layers *.Cu *.Mask))
  (pad 2 thru_hole circle (at 7.5 7.5) (size 3 3) (drill 1.2) (layers *.Cu *.Mask))
  (model ${KICAD6_3DMODEL_DIR}/Transformer_THT.3dshapes/Autotransformer_Toroid_1Tap_Horizontal_D10.5mm_Amidon-T37.wrl
    (at (xyz 0 0 0))
    (scale (xyz 1 1 1))
    (rotate (xyz 0 0 0))
  )
)
