(module Autotransformer_Toroid_1Tap_Horizontal_D14.0mm_Amidon-T50 (layer F.Cu) (tedit 5A030845)
  (descr "Choke, Inductance, Autotransformer, Toroid, horizontal, laying, 1 Tap, Diameter 14mm, Amidon T50,")
  (tags "Choke Inductance Autotransformer Toroid horizontal laying 1 Tap Diameter 14mm Amidon T50 ")
  (fp_text reference REF** (at 10.1 -8.5) (layer F.SilkS)
    (effects (font (size 1 1) (thickness 0.15)))
  )
  (fp_text value Autotransformer_Toroid_1Tap_Horizontal_D14.0mm_Amidon-T50 (at 10.1 13.97) (layer F.Fab)
    (effects (font (size 1 1) (thickness 0.15)))
  )
  (fp_text user Tap1 (at 15.1 10) (layer F.Fab)
    (effects (font (size 1 1) (thickness 0.15)))
  )
  (fp_text user End (at 20 -3.4) (layer F.Fab)
    (effects (font (size 1 1) (thickness 0.15)))
  )
  (fp_text user Start (at -0.8 -3.2) (layer F.Fab)
    (effects (font (size 1 1) (thickness 0.15)))
  )
  (fp_text user %R (at 10 -5.5) (layer F.Fab)
    (effects (font (size 1 1) (thickness 0.15)))
  )
  (fp_line (start 2.6 0) (end 6.6 0) (layer F.Fab) (width 0.1))
  (fp_line (start 6.6 0) (end 3.1 2.2) (layer F.Fab) (width 0.1))
  (fp_line (start 3.1 2.2) (end 6.9 1.3) (layer F.Fab) (width 0.1))
  (fp_line (start 6.9 1.3) (end 4.3 4.6) (layer F.Fab) (width 0.1))
  (fp_line (start 4.3 4.6) (end 8 2.6) (layer F.Fab) (width 0.1))
  (fp_line (start 8 2.6) (end 6.9 6.6) (layer F.Fab) (width 0.1))
  (fp_line (start 6.9 6.6) (end 9.3 3.3) (layer F.Fab) (width 0.1))
  (fp_line (start 9.3 3.3) (end 10 7.4) (layer F.Fab) (width 0.1))
  (fp_line (start 10 7.4) (end 11.5 3.1) (layer F.Fab) (width 0.1))
  (fp_line (start 11.5 3.1) (end 13.8 6.4) (layer F.Fab) (width 0.1))
  (fp_line (start 13.8 6.4) (end 12.8 2) (layer F.Fab) (width 0.1))
  (fp_line (start 12.8 2) (end 16.6 3.7) (layer F.Fab) (width 0.1))
  (fp_line (start 16.6 3.7) (end 13.4 0.8) (layer F.Fab) (width 0.1))
  (fp_line (start 13.4 0.8) (end 17.5 1.1) (layer F.Fab) (width 0.1))
  (fp_line (start 17.5 1.1) (end 13.5 -0.1) (layer F.Fab) (width 0.1))
  (fp_line (start 13.5 -0.1) (end 17.6 0) (layer F.Fab) (width 0.1))
  (fp_line (start -1.75 -7.75) (end 21.85 -7.75) (layer F.CrtYd) (width 0.05))
  (fp_line (start -1.75 -7.75) (end -1.75 11.75) (layer F.CrtYd) (width 0.05))
  (fp_line (start 21.85 11.75) (end 21.85 -7.75) (layer F.CrtYd) (width 0.05))
  (fp_line (start 21.85 11.75) (end -1.75 11.75) (layer F.CrtYd) (width 0.05))
  (fp_circle (center 10.1 0) (end 17.7 0) (layer F.SilkS) (width 0.12))
  (fp_circle (center 10.1 0) (end 13.4 0) (layer F.SilkS) (width 0.12))
  (fp_circle (center 10.1 0) (end 13.5 0) (layer F.Fab) (width 0.1))
  (fp_circle (center 10.1 0) (end 17.6 0) (layer F.Fab) (width 0.1))
  (pad 1 thru_hole circle (at 0 0) (size 3 3) (drill 1.2) (layers *.Cu *.Mask))
  (pad 2 thru_hole circle (at 10.1 10) (size 3 3) (drill 1.2) (layers *.Cu *.Mask))
  (pad 3 thru_hole circle (at 20.1 0) (size 3 3) (drill 1.2) (layers *.Cu *.Mask))
  (model ${KICAD6_3DMODEL_DIR}/Transformer_THT.3dshapes/Autotransformer_Toroid_1Tap_Horizontal_D14.0mm_Amidon-T50.wrl
    (at (xyz 0 0 0))
    (scale (xyz 1 1 1))
    (rotate (xyz 0 0 0))
  )
)
