(module Autotransformer_ZS1052-AC (layer F.Cu) (tedit 5C323B69)
  (descr "Ignition coil for xenon flash, http://www.excelitas.com/downloads/ZS1052ACH.pdf")
  (tags "ignition coil autotransformer")
  (fp_text reference REF** (at 19 3.77 90) (layer F.SilkS)
    (effects (font (size 1 1) (thickness 0.15)))
  )
  (fp_text value Autotransformer_ZS1052-AC (at 10 7.5) (layer F.Fab)
    (effects (font (size 1 1) (thickness 0.15)))
  )
  (fp_line (start 1.9 6.6) (end 18.1 6.6) (layer F.SilkS) (width 0.15))
  (fp_line (start 18.1 6.6) (end 18.1 -1.6) (layer F.SilkS) (width 0.15))
  (fp_line (start 18.1 -1.6) (end 1.9 -1.6) (layer F.SilkS) (width 0.15))
  (fp_line (start 1.9 -1.6) (end 1.9 6.6) (layer F.SilkS) (width 0.15))
  (fp_line (start 19.2 0) (end 18.1 0) (layer F.SilkS) (width 0.15))
  (fp_line (start 0.9 0) (end 1.9 0) (layer F.SilkS) (width 0.15))
  (fp_line (start 0.8 5) (end 1.9 5) (layer F.SilkS) (width 0.15))
  (fp_line (start -0.85 -1.85) (end -0.85 6.85) (layer F.CrtYd) (width 0.05))
  (fp_line (start -0.85 6.85) (end 20.85 6.85) (layer F.CrtYd) (width 0.05))
  (fp_line (start 20.85 6.85) (end 20.85 -1.85) (layer F.CrtYd) (width 0.05))
  (fp_line (start 20.85 -1.85) (end -0.85 -1.85) (layer F.CrtYd) (width 0.05))
  (fp_line (start 2 -0.5) (end 2 6.5) (layer F.Fab) (width 0.15))
  (fp_line (start 2 6.5) (end 18 6.5) (layer F.Fab) (width 0.15))
  (fp_line (start 18 6.5) (end 18 -1.5) (layer F.Fab) (width 0.15))
  (fp_line (start 18 -1.5) (end 3 -1.5) (layer F.Fab) (width 0.15))
  (fp_line (start 0 0) (end 2 0) (layer F.Fab) (width 0.15))
  (fp_line (start 0 5) (end 2 5) (layer F.Fab) (width 0.15))
  (fp_line (start 20 0) (end 18 0) (layer F.Fab) (width 0.15))
  (fp_text user %R (at 10 2.5) (layer F.Fab)
    (effects (font (size 1 1) (thickness 0.15)))
  )
  (fp_line (start 2 -0.5) (end 3 -1.5) (layer F.Fab) (width 0.15))
  (fp_arc (start 0 0) (end 0 0.9) (angle -180) (layer F.SilkS) (width 0.15))
  (pad 2 thru_hole circle (at 20 0 270) (size 1.2 1.2) (drill 0.7) (layers *.Cu *.Mask))
  (pad 3 thru_hole circle (at 0 5 270) (size 1.2 1.2) (drill 0.7) (layers *.Cu *.Mask))
  (pad 1 thru_hole circle (at 0 0 270) (size 1.2 1.2) (drill 0.7) (layers *.Cu *.Mask))
  (model ${KICAD6_3DMODEL_DIR}/Transformer_THT.3dshapes/Autotransformer_ZS1052-AC.wrl
    (at (xyz 0 0 0))
    (scale (xyz 1 1 1))
    (rotate (xyz 0 0 0))
  )
)
