(module Transformer_CHK_EI38-3VA_1xSec (layer F.Cu) (tedit 5BEAECCC)
  (descr "Trafo, Printtrafo, CHK, EI38, 3VA, 1x Sec, http://www.eratransformers.com/product-detail/20")
  (tags "Trafo Printtrafo CHK EI38 3VA 1x Sec ")
  (fp_text reference REF** (at 12.5 -34.13) (layer F.SilkS)
    (effects (font (size 1 1) (thickness 0.15)))
  )
  (fp_text value Transformer_CHK_EI38-3VA_1xSec (at 14 -10 90) (layer F.Fab)
    (effects (font (size 1 1) (thickness 0.15)))
  )
  (fp_text user Sec (at 28.5 -10 90) (layer F.SilkS)
    (effects (font (size 1 1) (thickness 0.15)))
  )
  (fp_text user Pri (at -3.5 -10 90) (layer F.SilkS)
    (effects (font (size 1 1) (thickness 0.15)))
  )
  (fp_text user 8 (at 20.5 -3) (layer F.Fab)
    (effects (font (size 1 1) (thickness 0.15)))
  )
  (fp_text user 7 (at 20.5 -17) (layer F.Fab)
    (effects (font (size 1 1) (thickness 0.15)))
  )
  (fp_text user 5 (at 0 -23) (layer F.Fab)
    (effects (font (size 1 1) (thickness 0.15)))
  )
  (fp_text user 1 (at 0 4) (layer F.SilkS)
    (effects (font (size 1 1) (thickness 0.15)))
  )
  (fp_text user %R (at 11 -10 90) (layer F.Fab)
    (effects (font (size 1 1) (thickness 0.15)))
  )
  (fp_line (start -5 10.25) (end 30 10.25) (layer F.Fab) (width 0.1))
  (fp_line (start 30 10.25) (end 30 -30.25) (layer F.Fab) (width 0.1))
  (fp_line (start 30 -30.25) (end -5 -30.25) (layer F.Fab) (width 0.1))
  (fp_line (start -5 -30.25) (end -5 10.25) (layer F.Fab) (width 0.1))
  (fp_line (start 15.5 -6) (end 19.5 -6) (layer F.Fab) (width 0.1))
  (fp_line (start 19.5 -7) (end 15.5 -7) (layer F.Fab) (width 0.1))
  (fp_line (start 15.5 -8) (end 19.5 -8) (layer F.Fab) (width 0.1))
  (fp_line (start 19.5 -9) (end 15.5 -9) (layer F.Fab) (width 0.1))
  (fp_line (start 15.5 -10) (end 19.5 -10) (layer F.Fab) (width 0.1))
  (fp_line (start 19.5 -11) (end 15.5 -11) (layer F.Fab) (width 0.1))
  (fp_line (start 15.5 -12) (end 19.5 -12) (layer F.Fab) (width 0.1))
  (fp_line (start 19.5 -13) (end 15.5 -13) (layer F.Fab) (width 0.1))
  (fp_line (start 15.5 -14) (end 19.5 -14) (layer F.Fab) (width 0.1))
  (fp_line (start 16.5 -15) (end 15.5 -15) (layer F.Fab) (width 0.1))
  (fp_line (start 15.5 -15) (end 15.5 -5) (layer F.Fab) (width 0.1))
  (fp_line (start 15.5 -5) (end 16.5 -5) (layer F.Fab) (width 0.1))
  (fp_line (start 17.5 -15) (end 16.5 -15) (layer F.Fab) (width 0.1))
  (fp_line (start 16.5 -15) (end 16.5 -5) (layer F.Fab) (width 0.1))
  (fp_line (start 16.5 -5) (end 17.5 -5) (layer F.Fab) (width 0.1))
  (fp_line (start 18.5 -15) (end 17.5 -15) (layer F.Fab) (width 0.1))
  (fp_line (start 17.5 -15) (end 17.5 -5) (layer F.Fab) (width 0.1))
  (fp_line (start 17.5 -5) (end 18.5 -5) (layer F.Fab) (width 0.1))
  (fp_line (start 19.5 -15) (end 18.5 -15) (layer F.Fab) (width 0.1))
  (fp_line (start 18.5 -15) (end 18.5 -5) (layer F.Fab) (width 0.1))
  (fp_line (start 18.5 -5) (end 19.5 -5) (layer F.Fab) (width 0.1))
  (fp_line (start 22.5 -15) (end 19.5 -15) (layer F.Fab) (width 0.1))
  (fp_line (start 19.5 -15) (end 19.5 -5) (layer F.Fab) (width 0.1))
  (fp_line (start 19.5 -5) (end 22.5 -5) (layer F.Fab) (width 0.1))
  (fp_line (start 5.5 -1) (end 9.5 -1) (layer F.Fab) (width 0.1))
  (fp_line (start 5.5 -2) (end 9.5 -2) (layer F.Fab) (width 0.1))
  (fp_line (start 5.5 -3) (end 9.5 -3) (layer F.Fab) (width 0.1))
  (fp_line (start 5.5 -4) (end 9.5 -4) (layer F.Fab) (width 0.1))
  (fp_line (start 5.5 -5) (end 9.5 -5) (layer F.Fab) (width 0.1))
  (fp_line (start 5.5 -6) (end 9.5 -6) (layer F.Fab) (width 0.1))
  (fp_line (start 5.5 -7) (end 9.5 -7) (layer F.Fab) (width 0.1))
  (fp_line (start 5.5 -8) (end 9.5 -8) (layer F.Fab) (width 0.1))
  (fp_line (start 5.5 -9) (end 9.5 -9) (layer F.Fab) (width 0.1))
  (fp_line (start 5.5 -10) (end 9.5 -10) (layer F.Fab) (width 0.1))
  (fp_line (start 5.5 -11) (end 9.5 -11) (layer F.Fab) (width 0.1))
  (fp_line (start 5.5 -12) (end 9.5 -12) (layer F.Fab) (width 0.1))
  (fp_line (start 5.5 -13) (end 9.5 -13) (layer F.Fab) (width 0.1))
  (fp_line (start 5.5 -14) (end 9.5 -14) (layer F.Fab) (width 0.1))
  (fp_line (start 5.5 -15) (end 9.5 -15) (layer F.Fab) (width 0.1))
  (fp_line (start 5.5 -16) (end 9.5 -16) (layer F.Fab) (width 0.1))
  (fp_line (start 5.5 -17) (end 9.5 -17) (layer F.Fab) (width 0.1))
  (fp_line (start 5.5 -18) (end 9.5 -18) (layer F.Fab) (width 0.1))
  (fp_line (start 5.5 -19) (end 9.5 -19) (layer F.Fab) (width 0.1))
  (fp_line (start 8.5 -20) (end 9.5 -20) (layer F.Fab) (width 0.1))
  (fp_line (start 9.5 -20) (end 9.5 0) (layer F.Fab) (width 0.1))
  (fp_line (start 9.5 0) (end 8.5 0) (layer F.Fab) (width 0.1))
  (fp_line (start 7.5 -20) (end 8.5 -20) (layer F.Fab) (width 0.1))
  (fp_line (start 8.5 -20) (end 8.5 0) (layer F.Fab) (width 0.1))
  (fp_line (start 8.5 0) (end 7.5 0) (layer F.Fab) (width 0.1))
  (fp_line (start 6.5 -20) (end 7.5 -20) (layer F.Fab) (width 0.1))
  (fp_line (start 7.5 -20) (end 7.5 0) (layer F.Fab) (width 0.1))
  (fp_line (start 7.5 0) (end 6.5 0) (layer F.Fab) (width 0.1))
  (fp_line (start 5.5 -20) (end 6.5 -20) (layer F.Fab) (width 0.1))
  (fp_line (start 6.5 -20) (end 6.5 0) (layer F.Fab) (width 0.1))
  (fp_line (start 6.5 0) (end 5.5 0) (layer F.Fab) (width 0.1))
  (fp_line (start 2.5 -20) (end 5.5 -20) (layer F.Fab) (width 0.1))
  (fp_line (start 5.5 -20) (end 5.5 0) (layer F.Fab) (width 0.1))
  (fp_line (start 5.5 0) (end 2.5 0) (layer F.Fab) (width 0.1))
  (fp_line (start -5.25 -30.5) (end 30.25 -30.5) (layer F.CrtYd) (width 0.05))
  (fp_line (start -5.25 -30.5) (end -5.25 10.5) (layer F.CrtYd) (width 0.05))
  (fp_line (start 30.25 10.5) (end 30.25 -30.5) (layer F.CrtYd) (width 0.05))
  (fp_line (start 30.25 10.5) (end -5.25 10.5) (layer F.CrtYd) (width 0.05))
  (fp_line (start -5.12 -30.37) (end 30.12 -30.37) (layer F.SilkS) (width 0.12))
  (fp_line (start -5.12 -30.37) (end -5.12 10.37) (layer F.SilkS) (width 0.12))
  (fp_line (start 30.12 10.37) (end 30.12 -30.37) (layer F.SilkS) (width 0.12))
  (fp_line (start 30.12 10.37) (end -5.12 10.37) (layer F.SilkS) (width 0.12))
  (pad 1 thru_hole circle (at 0 0) (size 3 3) (drill 1.5) (layers *.Cu *.Mask))
  (pad 2 thru_hole circle (at 0 -5) (size 3 3) (drill 1.5) (layers *.Cu *.Mask))
  (pad 3 thru_hole circle (at 0 -10) (size 3 3) (drill 1.5) (layers *.Cu *.Mask))
  (pad 4 thru_hole circle (at 0 -15) (size 3 3) (drill 1.5) (layers *.Cu *.Mask))
  (pad 5 thru_hole circle (at 0 -20) (size 3 3) (drill 1.5) (layers *.Cu *.Mask))
  (pad 6 thru_hole circle (at 25 -20) (size 3 3) (drill 1.5) (layers *.Cu *.Mask))
  (pad 7 thru_hole circle (at 25 -15) (size 3 3) (drill 1.5) (layers *.Cu *.Mask))
  (pad 8 thru_hole circle (at 25 -10) (size 3 3) (drill 1.5) (layers *.Cu *.Mask))
  (pad 9 thru_hole circle (at 25 -5) (size 3 3) (drill 1.5) (layers *.Cu *.Mask))
  (pad 10 thru_hole circle (at 25 0) (size 3 3) (drill 1.5) (layers *.Cu *.Mask))
  (model ${KICAD6_3DMODEL_DIR}/Transformer_THT.3dshapes/Transformer_CHK_EI38-3VA_1xSec.wrl
    (at (xyz 0 0 0))
    (scale (xyz 1 1 1))
    (rotate (xyz 0 0 0))
  )
)
