(module Transformer_CHK_EI38-3VA_Neutral (layer F.Cu) (tedit 5BEAECE8)
  (descr "Trafo, Printtrafo, CHK, EI38, 3VA, neutral, http://www.eratransformers.com/product-detail/20")
  (tags "Trafo Printtrafo CHK EI42 3VA neutral ")
  (fp_text reference REF** (at 12.5 -31.5) (layer F.SilkS)
    (effects (font (size 1 1) (thickness 0.15)))
  )
  (fp_text value Transformer_CHK_EI38-3VA_Neutral (at 12.5 -10 90) (layer F.Fab)
    (effects (font (size 1 1) (thickness 0.15)))
  )
  (fp_text user 10 (at 25 4) (layer F.Fab)
    (effects (font (size 1 1) (thickness 0.15)))
  )
  (fp_text user 6 (at 25 -23) (layer F.Fab)
    (effects (font (size 1 1) (thickness 0.15)))
  )
  (fp_text user 5 (at 0 -23) (layer F.Fab)
    (effects (font (size 1 1) (thickness 0.15)))
  )
  (fp_text user 1 (at 0 4) (layer F.SilkS)
    (effects (font (size 1 1) (thickness 0.15)))
  )
  (fp_text user %R (at 10.5 -10 90) (layer F.Fab)
    (effects (font (size 1 1) (thickness 0.15)))
  )
  (fp_line (start -5 10.25) (end 30 10.25) (layer F.Fab) (width 0.1))
  (fp_line (start 30 10.25) (end 30 -30.25) (layer F.Fab) (width 0.1))
  (fp_line (start 30 -30.25) (end -5 -30.25) (layer F.Fab) (width 0.1))
  (fp_line (start -5 -30.25) (end -5 10.25) (layer F.Fab) (width 0.1))
  (fp_line (start -5.25 -30.5) (end 30.25 -30.5) (layer F.CrtYd) (width 0.05))
  (fp_line (start -5.25 -30.5) (end -5.25 10.5) (layer F.CrtYd) (width 0.05))
  (fp_line (start 30.25 10.5) (end 30.25 -30.5) (layer F.CrtYd) (width 0.05))
  (fp_line (start 30.25 10.5) (end -5.25 10.5) (layer F.CrtYd) (width 0.05))
  (fp_line (start -5.12 -30.37) (end 30.12 -30.37) (layer F.SilkS) (width 0.12))
  (fp_line (start -5.12 -30.37) (end -5.12 10.37) (layer F.SilkS) (width 0.12))
  (fp_line (start 30.12 10.37) (end 30.12 -30.37) (layer F.SilkS) (width 0.12))
  (fp_line (start 30.12 10.37) (end -5.12 10.37) (layer F.SilkS) (width 0.12))
  (pad 1 thru_hole circle (at 0 0) (size 3 3) (drill 1.5) (layers *.Cu *.Mask))
  (pad 2 thru_hole circle (at 0 -5) (size 3 3) (drill 1.5) (layers *.Cu *.Mask))
  (pad 3 thru_hole circle (at 0 -10) (size 3 3) (drill 1.5) (layers *.Cu *.Mask))
  (pad 4 thru_hole circle (at 0 -15) (size 3 3) (drill 1.5) (layers *.Cu *.Mask))
  (pad 5 thru_hole circle (at 0 -20) (size 3 3) (drill 1.5) (layers *.Cu *.Mask))
  (pad 6 thru_hole circle (at 25 -20) (size 3 3) (drill 1.5) (layers *.Cu *.Mask))
  (pad 7 thru_hole circle (at 25 -15) (size 3 3) (drill 1.5) (layers *.Cu *.Mask))
  (pad 8 thru_hole circle (at 25 -10) (size 3 3) (drill 1.5) (layers *.Cu *.Mask))
  (pad 9 thru_hole circle (at 25 -5) (size 3 3) (drill 1.5) (layers *.Cu *.Mask))
  (pad 10 thru_hole circle (at 25 0) (size 3 3) (drill 1.5) (layers *.Cu *.Mask))
  (model ${KICAD6_3DMODEL_DIR}/Transformer_THT.3dshapes/Transformer_CHK_EI38-3VA_Neutral.wrl
    (at (xyz 0 0 0))
    (scale (xyz 1 1 1))
    (rotate (xyz 0 0 0))
  )
)
