(module Transformer_CHK_EI48-8VA_2xSec (layer F.Cu) (tedit 5BEAF2F8)
  (descr "Trafo, Printtrafo, CHK, EI48, 8VA, 2x Sec, http://www.eratransformers.com/product-detail/18")
  (tags "Trafo Printtrafo CHK EI48 8VA 2x Sec ")
  (fp_text reference REF** (at 14.5 -39) (layer F.SilkS)
    (effects (font (size 1 1) (thickness 0.15)))
  )
  (fp_text value Transformer_CHK_EI48-8VA_2xSec (at 14.3 -12.6 90) (layer F.Fab)
    (effects (font (size 1 1) (thickness 0.15)))
  )
  (fp_text user Sec-II (at 31.75 -2.5 90) (layer F.Fab)
    (effects (font (size 1 1) (thickness 0.15)))
  )
  (fp_text user Sec-I (at 31.75 -22.5 90) (layer F.Fab)
    (effects (font (size 1 1) (thickness 0.15)))
  )
  (fp_text user Pri (at -5.25 -12.5 90) (layer F.SilkS)
    (effects (font (size 1 1) (thickness 0.15)))
  )
  (fp_text user 8 (at 23.75 -17.5) (layer F.Fab)
    (effects (font (size 1 1) (thickness 0.15)))
  )
  (fp_text user 11 (at 23.75 -6.5) (layer F.Fab)
    (effects (font (size 1 1) (thickness 0.15)))
  )
  (fp_text user 12 (at 23.75 2.5) (layer F.Fab)
    (effects (font (size 1 1) (thickness 0.15)))
  )
  (fp_text user 7 (at 23.75 -26.5) (layer F.Fab)
    (effects (font (size 1 1) (thickness 0.15)))
  )
  (fp_text user 6 (at 3.75 -27.5) (layer F.Fab)
    (effects (font (size 1 1) (thickness 0.15)))
  )
  (fp_text user 1 (at 2.75 2.5) (layer F.SilkS)
    (effects (font (size 1 1) (thickness 0.15)))
  )
  (fp_text user %R (at 12.5 -12.5 90) (layer F.Fab)
    (effects (font (size 1 1) (thickness 0.15)))
  )
  (fp_line (start 21.75 0.5) (end 24.75 0.5) (layer F.Fab) (width 0.1))
  (fp_line (start 21.75 -5.5) (end 21.75 0.5) (layer F.Fab) (width 0.1))
  (fp_line (start 24.75 -5.5) (end 21.75 -5.5) (layer F.Fab) (width 0.1))
  (fp_line (start 20.75 0.5) (end 21.75 0.5) (layer F.Fab) (width 0.1))
  (fp_line (start 20.75 -5.5) (end 20.75 0.5) (layer F.Fab) (width 0.1))
  (fp_line (start 21.75 -5.5) (end 20.75 -5.5) (layer F.Fab) (width 0.1))
  (fp_line (start 19.75 0.5) (end 20.75 0.5) (layer F.Fab) (width 0.1))
  (fp_line (start 19.75 -5.5) (end 19.75 0.5) (layer F.Fab) (width 0.1))
  (fp_line (start 20.75 -5.5) (end 19.75 -5.5) (layer F.Fab) (width 0.1))
  (fp_line (start 18.75 0.5) (end 19.75 0.5) (layer F.Fab) (width 0.1))
  (fp_line (start 18.75 -5.5) (end 18.75 0.5) (layer F.Fab) (width 0.1))
  (fp_line (start 19.75 -5.5) (end 18.75 -5.5) (layer F.Fab) (width 0.1))
  (fp_line (start 17.75 0.5) (end 18.75 0.5) (layer F.Fab) (width 0.1))
  (fp_line (start 17.75 -5.5) (end 17.75 0.5) (layer F.Fab) (width 0.1))
  (fp_line (start 18.75 -5.5) (end 17.75 -5.5) (layer F.Fab) (width 0.1))
  (fp_line (start 17.75 -4.5) (end 21.75 -4.5) (layer F.Fab) (width 0.1))
  (fp_line (start 17.75 -3.5) (end 21.75 -3.5) (layer F.Fab) (width 0.1))
  (fp_line (start 17.75 -2.5) (end 21.75 -2.5) (layer F.Fab) (width 0.1))
  (fp_line (start 17.75 -1.5) (end 21.75 -1.5) (layer F.Fab) (width 0.1))
  (fp_line (start 17.75 -0.5) (end 21.75 -0.5) (layer F.Fab) (width 0.1))
  (fp_line (start 17.75 -20.5) (end 21.75 -20.5) (layer F.Fab) (width 0.1))
  (fp_line (start 17.75 -21.5) (end 21.75 -21.5) (layer F.Fab) (width 0.1))
  (fp_line (start 17.75 -22.5) (end 21.75 -22.5) (layer F.Fab) (width 0.1))
  (fp_line (start 17.75 -23.5) (end 21.75 -23.5) (layer F.Fab) (width 0.1))
  (fp_line (start 17.75 -24.5) (end 21.75 -24.5) (layer F.Fab) (width 0.1))
  (fp_line (start 18.75 -25.5) (end 17.75 -25.5) (layer F.Fab) (width 0.1))
  (fp_line (start 17.75 -25.5) (end 17.75 -19.5) (layer F.Fab) (width 0.1))
  (fp_line (start 17.75 -19.5) (end 18.75 -19.5) (layer F.Fab) (width 0.1))
  (fp_line (start 19.75 -25.5) (end 18.75 -25.5) (layer F.Fab) (width 0.1))
  (fp_line (start 18.75 -25.5) (end 18.75 -19.5) (layer F.Fab) (width 0.1))
  (fp_line (start 18.75 -19.5) (end 19.75 -19.5) (layer F.Fab) (width 0.1))
  (fp_line (start 20.75 -25.5) (end 19.75 -25.5) (layer F.Fab) (width 0.1))
  (fp_line (start 19.75 -25.5) (end 19.75 -19.5) (layer F.Fab) (width 0.1))
  (fp_line (start 19.75 -19.5) (end 20.75 -19.5) (layer F.Fab) (width 0.1))
  (fp_line (start 21.75 -25.5) (end 20.75 -25.5) (layer F.Fab) (width 0.1))
  (fp_line (start 20.75 -25.5) (end 20.75 -19.5) (layer F.Fab) (width 0.1))
  (fp_line (start 20.75 -19.5) (end 21.75 -19.5) (layer F.Fab) (width 0.1))
  (fp_line (start 24.75 -25.5) (end 21.75 -25.5) (layer F.Fab) (width 0.1))
  (fp_line (start 21.75 -25.5) (end 21.75 -19.5) (layer F.Fab) (width 0.1))
  (fp_line (start 21.75 -19.5) (end 24.75 -19.5) (layer F.Fab) (width 0.1))
  (fp_line (start 5.75 -0.5) (end 9.75 -0.5) (layer F.Fab) (width 0.1))
  (fp_line (start 9.75 -1.5) (end 5.75 -1.5) (layer F.Fab) (width 0.1))
  (fp_line (start 5.75 -2.5) (end 9.75 -2.5) (layer F.Fab) (width 0.1))
  (fp_line (start 9.75 -3.5) (end 5.75 -3.5) (layer F.Fab) (width 0.1))
  (fp_line (start 5.75 -4.5) (end 9.75 -4.5) (layer F.Fab) (width 0.1))
  (fp_line (start 9.75 -5.5) (end 5.75 -5.5) (layer F.Fab) (width 0.1))
  (fp_line (start 5.75 -6.5) (end 9.75 -6.5) (layer F.Fab) (width 0.1))
  (fp_line (start 9.75 -7.5) (end 5.75 -7.5) (layer F.Fab) (width 0.1))
  (fp_line (start 5.75 -8.5) (end 9.75 -8.5) (layer F.Fab) (width 0.1))
  (fp_line (start 9.75 -9.5) (end 5.75 -9.5) (layer F.Fab) (width 0.1))
  (fp_line (start 5.75 -10.5) (end 9.75 -10.5) (layer F.Fab) (width 0.1))
  (fp_line (start 9.75 -11.5) (end 5.75 -11.5) (layer F.Fab) (width 0.1))
  (fp_line (start 5.75 -12.5) (end 9.75 -12.5) (layer F.Fab) (width 0.1))
  (fp_line (start 5.75 -13.5) (end 9.75 -13.5) (layer F.Fab) (width 0.1))
  (fp_line (start 9.75 -14.5) (end 5.75 -14.5) (layer F.Fab) (width 0.1))
  (fp_line (start 5.75 -15.5) (end 9.75 -15.5) (layer F.Fab) (width 0.1))
  (fp_line (start 5.75 -16.5) (end 9.75 -16.5) (layer F.Fab) (width 0.1))
  (fp_line (start 5.75 -17.5) (end 9.75 -17.5) (layer F.Fab) (width 0.1))
  (fp_line (start 5.75 -18.5) (end 9.75 -18.5) (layer F.Fab) (width 0.1))
  (fp_line (start 5.75 -19.5) (end 9.75 -19.5) (layer F.Fab) (width 0.1))
  (fp_line (start 5.75 -20.5) (end 9.75 -20.5) (layer F.Fab) (width 0.1))
  (fp_line (start 5.75 -21.5) (end 9.75 -21.5) (layer F.Fab) (width 0.1))
  (fp_line (start 5.75 -22.5) (end 9.75 -22.5) (layer F.Fab) (width 0.1))
  (fp_line (start 5.75 -23.5) (end 9.75 -23.5) (layer F.Fab) (width 0.1))
  (fp_line (start 5.75 -24.5) (end 9.75 -24.5) (layer F.Fab) (width 0.1))
  (fp_line (start 8.75 -25.5) (end 9.75 -25.5) (layer F.Fab) (width 0.1))
  (fp_line (start 9.75 -25.5) (end 9.75 0.5) (layer F.Fab) (width 0.1))
  (fp_line (start 9.75 0.5) (end 8.75 0.5) (layer F.Fab) (width 0.1))
  (fp_line (start 7.75 -25.5) (end 8.75 -25.5) (layer F.Fab) (width 0.1))
  (fp_line (start 8.75 -25.5) (end 8.75 0.5) (layer F.Fab) (width 0.1))
  (fp_line (start 8.75 0.5) (end 7.75 0.5) (layer F.Fab) (width 0.1))
  (fp_line (start 6.75 -25.5) (end 7.75 -25.5) (layer F.Fab) (width 0.1))
  (fp_line (start 7.75 -25.5) (end 7.75 0.5) (layer F.Fab) (width 0.1))
  (fp_line (start 7.75 0.5) (end 6.75 0.5) (layer F.Fab) (width 0.1))
  (fp_line (start 5.75 -25.5) (end 6.75 -25.5) (layer F.Fab) (width 0.1))
  (fp_line (start 6.75 -25.5) (end 6.75 0.5) (layer F.Fab) (width 0.1))
  (fp_line (start 6.75 0.5) (end 5.75 0.5) (layer F.Fab) (width 0.1))
  (fp_line (start 2.75 -25.5) (end 5.75 -25.5) (layer F.Fab) (width 0.1))
  (fp_line (start 5.75 -25.5) (end 5.75 0.5) (layer F.Fab) (width 0.1))
  (fp_line (start 5.75 0.5) (end 2.75 0.5) (layer F.Fab) (width 0.1))
  (fp_line (start -7.3 12.45) (end -7.3 -37.45) (layer F.Fab) (width 0.1))
  (fp_line (start -7.3 -37.45) (end 34.8 -37.45) (layer F.Fab) (width 0.1))
  (fp_line (start 34.8 -37.45) (end 34.8 12.45) (layer F.Fab) (width 0.1))
  (fp_line (start 34.8 12.45) (end -7.3 12.45) (layer F.Fab) (width 0.1))
  (fp_line (start -7.55 -37.7) (end 35.05 -37.7) (layer F.CrtYd) (width 0.05))
  (fp_line (start -7.55 -37.7) (end -7.55 12.7) (layer F.CrtYd) (width 0.05))
  (fp_line (start 35.05 12.7) (end 35.05 -37.7) (layer F.CrtYd) (width 0.05))
  (fp_line (start 35.05 12.7) (end -7.55 12.7) (layer F.CrtYd) (width 0.05))
  (fp_line (start -7.42 -37.57) (end 34.92 -37.57) (layer F.SilkS) (width 0.12))
  (fp_line (start -7.42 -37.57) (end -7.42 12.57) (layer F.SilkS) (width 0.12))
  (fp_line (start 34.92 12.57) (end 34.92 -37.57) (layer F.SilkS) (width 0.12))
  (fp_line (start 34.92 12.57) (end -7.42 12.57) (layer F.SilkS) (width 0.12))
  (pad 1 thru_hole circle (at 0 0) (size 3 3) (drill 1.2) (layers *.Cu *.Mask))
  (pad 6 thru_hole circle (at 0 -25.05) (size 3 3) (drill 1.2) (layers *.Cu *.Mask))
  (pad 7 thru_hole circle (at 27.5 -25) (size 3 3) (drill 1.2) (layers *.Cu *.Mask))
  (pad 12 thru_hole circle (at 27.5 0) (size 3 3) (drill 1.2) (layers *.Cu *.Mask))
  (pad 2 thru_hole circle (at 0 -5) (size 3 3) (drill 1.2) (layers *.Cu *.Mask))
  (pad 3 thru_hole circle (at 0 -10) (size 3 3) (drill 1.2) (layers *.Cu *.Mask))
  (pad 4 thru_hole circle (at 0 -15) (size 3 3) (drill 1.2) (layers *.Cu *.Mask))
  (pad 5 thru_hole circle (at 0 -20) (size 3 3) (drill 1.2) (layers *.Cu *.Mask))
  (pad 11 thru_hole circle (at 27.5 -5) (size 3 3) (drill 1.2) (layers *.Cu *.Mask))
  (pad 10 thru_hole circle (at 27.5 -10) (size 3 3) (drill 1.2) (layers *.Cu *.Mask))
  (pad 9 thru_hole circle (at 27.5 -15) (size 3 3) (drill 1.2) (layers *.Cu *.Mask))
  (pad 8 thru_hole circle (at 27.5 -20) (size 3 3) (drill 1.2) (layers *.Cu *.Mask))
  (model ${KICAD6_3DMODEL_DIR}/Transformer_THT.3dshapes/Transformer_CHK_EI48-8VA_2xSec.wrl
    (at (xyz 0 0 0))
    (scale (xyz 1 1 1))
    (rotate (xyz 0 0 0))
  )
)
