(module Transformer_Toroid_Tapped_Horizontal_D14.0mm_Amidon-T50 (layer F.Cu) (tedit 5A030845)
  (descr "Transformer, Toroid, tapped, horizontal, laying, Diameter 14mm, Amidon T50,")
  (tags "Transformer Toroid tapped horizontal laying Diameter 14mm Amidon T50 ")
  (fp_text reference REF** (at 12.6 -14.5) (layer F.SilkS)
    (effects (font (size 1 1) (thickness 0.15)))
  )
  (fp_text value Transformer_Toroid_Tapped_Horizontal_D14.0mm_Amidon-T50 (at 8 7.2) (layer F.Fab)
    (effects (font (size 1 1) (thickness 0.15)))
  )
  (fp_text user %R (at 8 -5) (layer F.Fab)
    (effects (font (size 1 1) (thickness 0.15)))
  )
  (fp_line (start 1.6 -1.1) (end 5 -3.1) (layer F.Fab) (width 0.1))
  (fp_line (start 5 -3.1) (end 2.9 0.4) (layer F.Fab) (width 0.1))
  (fp_line (start 2.9 0.4) (end 6.3 -1.9) (layer F.Fab) (width 0.1))
  (fp_line (start 6.3 -1.9) (end 6 2.2) (layer F.Fab) (width 0.1))
  (fp_line (start 6 2.2) (end 8.3 -1.6) (layer F.Fab) (width 0.1))
  (fp_line (start 8.3 -1.6) (end 10.2 2) (layer F.Fab) (width 0.1))
  (fp_line (start 10.2 2) (end 10.2 -2.3) (layer F.Fab) (width 0.1))
  (fp_line (start 10.2 -2.3) (end 13.9 -1) (layer F.Fab) (width 0.1))
  (fp_line (start 13.9 -1) (end 14.2 -0.9) (layer F.Fab) (width 0.1))
  (fp_line (start 1.6 -8.9) (end 5.2 -7) (layer F.Fab) (width 0.1))
  (fp_line (start 5.2 -7) (end 3.5 -11) (layer F.Fab) (width 0.1))
  (fp_line (start 3.5 -11) (end 6.9 -8.2) (layer F.Fab) (width 0.1))
  (fp_line (start 6.9 -8.2) (end 6.4 -12.3) (layer F.Fab) (width 0.1))
  (fp_line (start 6.4 -12.3) (end 8.6 -8.5) (layer F.Fab) (width 0.1))
  (fp_line (start 8.6 -8.5) (end 9.8 -12.1) (layer F.Fab) (width 0.1))
  (fp_line (start 9.8 -12.1) (end 10.3 -7.6) (layer F.Fab) (width 0.1))
  (fp_line (start 10.3 -7.6) (end 12.8 -10.6) (layer F.Fab) (width 0.1))
  (fp_line (start 12.8 -10.6) (end 11 -6.7) (layer F.Fab) (width 0.1))
  (fp_line (start 11 -6.7) (end 14.3 -8.7) (layer F.Fab) (width 0.1))
  (fp_circle (center 8 -4.9) (end 18.3 0.2) (layer F.CrtYd) (width 0.05))
  (fp_circle (center 8 -5) (end 15.6 -5.1) (layer F.SilkS) (width 0.12))
  (fp_circle (center 8 -5) (end 11.3 -5.1) (layer F.SilkS) (width 0.12))
  (fp_circle (center 8 -5) (end 11.4 -5) (layer F.Fab) (width 0.1))
  (fp_circle (center 8 -5) (end 15.5 -5) (layer F.Fab) (width 0.1))
  (pad 1 thru_hole circle (at 0 0) (size 3 3) (drill 1.2) (layers *.Cu *.Mask))
  (pad 3 thru_hole circle (at 16 0) (size 3 3) (drill 1.2) (layers *.Cu *.Mask))
  (pad 4 thru_hole circle (at 0 -10) (size 3 3) (drill 1.2) (layers *.Cu *.Mask))
  (pad 6 thru_hole circle (at 16 -10) (size 3 3) (drill 1.2) (layers *.Cu *.Mask))
  (pad 5 thru_hole circle (at 8 -14.5) (size 3 3) (drill 1.2) (layers *.Cu *.Mask))
  (pad 2 thru_hole circle (at 8 4.5) (size 3 3) (drill 1.2) (layers *.Cu *.Mask))
  (model ${KICAD6_3DMODEL_DIR}/Transformer_THT.3dshapes/Transformer_Toroid_Tapped_Horizontal_D14.0mm_Amidon-T50.wrl
    (at (xyz 0 0 0))
    (scale (xyz 1 1 1))
    (rotate (xyz 0 0 0))
  )
)
