(module Transformer_Toroid_Tapped_Horizontal_D12.5mm_Amidon-T44 (layer F.Cu) (tedit 5A030845)
  (descr "Transformer, Toroid, tapped, horizontal, laying, Diameter 12,5mm, Amidon, T44,")
  (tags "Transformer Toroid tapped horizontal laying Diameter 12 5mm Amidon T44 ")
  (fp_text reference REF** (at 12.2 -11.8) (layer F.SilkS)
    (effects (font (size 1 1) (thickness 0.15)))
  )
  (fp_text value Transformer_Toroid_Tapped_Horizontal_D12.5mm_Amidon-T44 (at 7.5 7.2) (layer F.Fab)
    (effects (font (size 1 1) (thickness 0.15)))
  )
  (fp_text user %R (at 7.5 -3.5) (layer F.Fab)
    (effects (font (size 1 1) (thickness 0.15)))
  )
  (fp_line (start 11.2 -4.9) (end 13.1 -5.8) (layer F.Fab) (width 0.1))
  (fp_line (start 1.8 -6.2) (end 4 -5.3) (layer F.Fab) (width 0.1))
  (fp_line (start 4 -5.3) (end 2.7 -7.4) (layer F.Fab) (width 0.1))
  (fp_line (start 2.7 -7.4) (end 4.9 -6.5) (layer F.Fab) (width 0.1))
  (fp_line (start 4.9 -6.5) (end 3.8 -8.5) (layer F.Fab) (width 0.1))
  (fp_line (start 3.8 -8.5) (end 5.9 -7.1) (layer F.Fab) (width 0.1))
  (fp_line (start 5.9 -7.1) (end 6 -9.5) (layer F.Fab) (width 0.1))
  (fp_line (start 6 -9.5) (end 7.1 -7.5) (layer F.Fab) (width 0.1))
  (fp_line (start 7.1 -7.5) (end 8 -9.6) (layer F.Fab) (width 0.1))
  (fp_line (start 8 -9.6) (end 8.5 -7.4) (layer F.Fab) (width 0.1))
  (fp_line (start 8.5 -7.4) (end 9.8 -9.1) (layer F.Fab) (width 0.1))
  (fp_line (start 9.8 -9.1) (end 9.6 -6.8) (layer F.Fab) (width 0.1))
  (fp_line (start 9.6 -6.8) (end 11.3 -8.2) (layer F.Fab) (width 0.1))
  (fp_line (start 11.3 -8.2) (end 10.5 -6) (layer F.Fab) (width 0.1))
  (fp_line (start 10.5 -6) (end 12.5 -7) (layer F.Fab) (width 0.1))
  (fp_line (start 12.5 -7) (end 11.2 -5) (layer F.Fab) (width 0.1))
  (fp_line (start 1.9 -0.7) (end 4.2 -1.3) (layer F.Fab) (width 0.1))
  (fp_line (start 4.2 -1.3) (end 3.3 1) (layer F.Fab) (width 0.1))
  (fp_line (start 3.3 1) (end 4.9 -0.5) (layer F.Fab) (width 0.1))
  (fp_line (start 4.9 -0.5) (end 4.9 2) (layer F.Fab) (width 0.1))
  (fp_line (start 4.9 2) (end 6.2 0.3) (layer F.Fab) (width 0.1))
  (fp_line (start 6.2 0.3) (end 6.3 2.5) (layer F.Fab) (width 0.1))
  (fp_line (start 6.3 2.5) (end 7.3 0.4) (layer F.Fab) (width 0.1))
  (fp_line (start 7.3 0.4) (end 7.8 2.7) (layer F.Fab) (width 0.1))
  (fp_line (start 7.8 2.7) (end 8.5 0.3) (layer F.Fab) (width 0.1))
  (fp_line (start 8.5 0.3) (end 9.7 2.2) (layer F.Fab) (width 0.1))
  (fp_line (start 9.7 2.2) (end 9.2 0.1) (layer F.Fab) (width 0.1))
  (fp_line (start 9.2 0.1) (end 11.2 1.3) (layer F.Fab) (width 0.1))
  (fp_line (start 11.2 1.3) (end 10.2 -0.7) (layer F.Fab) (width 0.1))
  (fp_line (start 10.2 -0.7) (end 12.4 0.3) (layer F.Fab) (width 0.1))
  (fp_line (start 12.4 0.3) (end 11 -1.8) (layer F.Fab) (width 0.1))
  (fp_line (start 11 -1.8) (end 13.1 -0.9) (layer F.Fab) (width 0.1))
  (fp_circle (center 7.5 -3.5) (end 16.2 1.7) (layer F.CrtYd) (width 0.05))
  (fp_circle (center 7.5 -3.5) (end 13.9 -3.4) (layer F.SilkS) (width 0.12))
  (fp_circle (center 7.5 -3.5) (end 11.3 -3.5) (layer F.SilkS) (width 0.12))
  (fp_circle (center 7.5 -3.5) (end 11.4 -3.5) (layer F.Fab) (width 0.1))
  (fp_circle (center 7.5 -3.5) (end 13.8 -3.5) (layer F.Fab) (width 0.1))
  (pad 1 thru_hole circle (at 0 0) (size 3 3) (drill 1.2) (layers *.Cu *.Mask))
  (pad 3 thru_hole circle (at 15 0) (size 3 3) (drill 1.2) (layers *.Cu *.Mask))
  (pad 4 thru_hole circle (at 0 -7) (size 3 3) (drill 1.2) (layers *.Cu *.Mask))
  (pad 6 thru_hole circle (at 15 -7) (size 3 3) (drill 1.2) (layers *.Cu *.Mask))
  (pad 2 thru_hole circle (at 7.5 4.7) (size 3 3) (drill 1.2) (layers *.Cu *.Mask))
  (pad 5 thru_hole circle (at 7.5 -11.8) (size 3 3) (drill 1.2) (layers *.Cu *.Mask))
  (model ${KICAD6_3DMODEL_DIR}/Transformer_THT.3dshapes/Transformer_Toroid_Tapped_Horizontal_D12.5mm_Amidon-T44.wrl
    (at (xyz 0 0 0))
    (scale (xyz 1 1 1))
    (rotate (xyz 0 0 0))
  )
)
