(module Transformer_37x44 (layer F.Cu) (tedit 5A030845)
  (descr "transformer 37x44mm²")
  (tags "transformer 37x44mm²")
  (fp_text reference REF** (at 7.75 -7.5) (layer F.SilkS)
    (effects (font (size 1 1) (thickness 0.15)))
  )
  (fp_text value Transformer_37x44 (at 7.25 14.5) (layer F.Fab)
    (effects (font (size 1 1) (thickness 0.15)))
  )
  (fp_text user %R (at 7.62 12.7) (layer F.Fab)
    (effects (font (size 1 1) (thickness 0.15)))
  )
  (fp_line (start -6.99 1.27) (end 22.23 1.27) (layer F.Fab) (width 0.1))
  (fp_line (start 22.23 1.27) (end 22.23 24.13) (layer F.Fab) (width 0.1))
  (fp_line (start 22.23 24.13) (end -6.99 24.13) (layer F.Fab) (width 0.1))
  (fp_line (start -6.99 24.13) (end -6.99 1.27) (layer F.Fab) (width 0.1))
  (fp_line (start -13.97 -6.35) (end 29.21 -6.35) (layer F.Fab) (width 0.1))
  (fp_line (start 29.21 -6.35) (end 29.21 31.75) (layer F.Fab) (width 0.1))
  (fp_line (start 29.21 31.75) (end -13.97 31.75) (layer F.Fab) (width 0.1))
  (fp_line (start -13.97 31.75) (end -13.97 -6.35) (layer F.Fab) (width 0.1))
  (fp_line (start -14.22 -6.6) (end 29.46 -6.6) (layer F.CrtYd) (width 0.05))
  (fp_line (start -14.22 -6.6) (end -14.22 32) (layer F.CrtYd) (width 0.05))
  (fp_line (start 29.46 32) (end 29.46 -6.6) (layer F.CrtYd) (width 0.05))
  (fp_line (start 29.46 32) (end -14.22 32) (layer F.CrtYd) (width 0.05))
  (fp_line (start -14.09 -6.47) (end 29.33 -6.47) (layer F.SilkS) (width 0.12))
  (fp_line (start -14.09 -6.47) (end -14.09 31.87) (layer F.SilkS) (width 0.12))
  (fp_line (start 29.33 31.87) (end 29.33 -6.47) (layer F.SilkS) (width 0.12))
  (fp_line (start 29.33 31.87) (end -14.09 31.87) (layer F.SilkS) (width 0.12))
  (pad 2 thru_hole circle (at 20.32 0) (size 3 3) (drill 1.5) (layers *.Cu *.Mask))
  (pad 4 thru_hole circle (at -5.08 25.4) (size 3 3) (drill 1.5) (layers *.Cu *.Mask))
  (pad 3 thru_hole circle (at 5.08 25.4) (size 3 3) (drill 1.5) (layers *.Cu *.Mask))
  (pad 1 thru_hole circle (at 0 0) (size 3 3) (drill 1.5) (layers *.Cu *.Mask))
  (pad "" thru_hole circle (at -5.08 0) (size 3 3) (drill 1.5) (layers *.Cu *.Mask))
  (pad "" thru_hole circle (at 5.08 0) (size 3 3) (drill 1.5) (layers *.Cu *.Mask))
  (pad "" thru_hole circle (at 10.16 0) (size 3 3) (drill 1.5) (layers *.Cu *.Mask))
  (pad "" thru_hole circle (at 15.24 0) (size 3 3) (drill 1.5) (layers *.Cu *.Mask))
  (pad "" thru_hole circle (at 0 25.4) (size 3 3) (drill 1.5) (layers *.Cu *.Mask))
  (pad "" thru_hole circle (at 10.16 25.4) (size 3 3) (drill 1.5) (layers *.Cu *.Mask))
  (pad "" thru_hole circle (at 15.24 25.4) (size 3 3) (drill 1.5) (layers *.Cu *.Mask))
  (pad "" thru_hole circle (at 20.32 25.4) (size 3 3) (drill 1.5) (layers *.Cu *.Mask))
  (model ${KICAD6_3DMODEL_DIR}/Transformer_THT.3dshapes/Transformer_37x44.wrl
    (at (xyz 0 0 0))
    (scale (xyz 1 1 1))
    (rotate (xyz 0 0 0))
  )
)
