(module Transformer_NF_ETAL_P3324 (layer F.Cu) (tedit 5BEAF8A2)
  (descr "NF-Transformer, ETAL P3324,http://www.etalgroup.com/sites/default/files/products/P3324_April_2005.pdf")
  (tags "NF-Transformer ETAL P3324 ")
  (fp_text reference REF** (at -6.35 -6.1) (layer F.SilkS)
    (effects (font (size 1 1) (thickness 0.15)))
  )
  (fp_text value Transformer_NF_ETAL_P3324 (at -6.35 13.95) (layer F.Fab)
    (effects (font (size 1 1) (thickness 0.15)))
  )
  (fp_text user %R (at -6 11.5) (layer F.Fab)
    (effects (font (size 1 1) (thickness 0.15)))
  )
  (fp_line (start -15.4 -5.25) (end 2.7 -5.25) (layer F.SilkS) (width 0.12))
  (fp_line (start 2.7 -5.25) (end 2.7 12.9) (layer F.SilkS) (width 0.12))
  (fp_line (start 2.7 12.9) (end -15.4 12.85) (layer F.SilkS) (width 0.12))
  (fp_line (start -15.4 12.85) (end -15.4 -5.25) (layer F.SilkS) (width 0.12))
  (fp_line (start -0.55 4.26) (end 0.44 4.26) (layer F.Fab) (width 0.1))
  (fp_line (start 0.44 4.26) (end -0.05 4.87) (layer F.Fab) (width 0.1))
  (fp_line (start -0.05 4.87) (end 0.26 4.89) (layer F.Fab) (width 0.1))
  (fp_line (start 0.26 4.89) (end 0.43 5.08) (layer F.Fab) (width 0.1))
  (fp_line (start 0.43 5.08) (end 0.47 5.36) (layer F.Fab) (width 0.1))
  (fp_line (start 0.47 5.36) (end 0.4 5.64) (layer F.Fab) (width 0.1))
  (fp_line (start 0.4 5.64) (end 0.24 5.79) (layer F.Fab) (width 0.1))
  (fp_line (start 0.24 5.79) (end 0.02 5.82) (layer F.Fab) (width 0.1))
  (fp_line (start 0.02 5.82) (end -0.16 5.8) (layer F.Fab) (width 0.1))
  (fp_line (start -0.16 5.8) (end -0.32 5.78) (layer F.Fab) (width 0.1))
  (fp_line (start -0.32 5.78) (end -0.47 5.67) (layer F.Fab) (width 0.1))
  (fp_line (start -12.58 4.83) (end -12.6 5.85) (layer F.Fab) (width 0.1))
  (fp_line (start -12.97 4.13) (end -13.39 5.34) (layer F.Fab) (width 0.1))
  (fp_line (start -13.39 5.34) (end -12.32 5.32) (layer F.Fab) (width 0.1))
  (fp_line (start -11.94 -1.77) (end -11.93 -1.81) (layer F.Fab) (width 0.1))
  (fp_line (start -11.93 -1.81) (end -11.93 -1.8) (layer F.Fab) (width 0.1))
  (fp_line (start -12.45 -3.4) (end -12.75 -3.39) (layer F.Fab) (width 0.1))
  (fp_line (start -12.75 -3.39) (end -12.96 -3.36) (layer F.Fab) (width 0.1))
  (fp_line (start -12.96 -3.36) (end -13.09 -3.24) (layer F.Fab) (width 0.1))
  (fp_line (start -13.09 -3.24) (end -13.3 -3.01) (layer F.Fab) (width 0.1))
  (fp_line (start -13.3 -3.01) (end -13.33 -2.72) (layer F.Fab) (width 0.1))
  (fp_line (start -13.33 -2.72) (end -13.36 -2.31) (layer F.Fab) (width 0.1))
  (fp_line (start -13.36 -2.31) (end -13.27 -1.99) (layer F.Fab) (width 0.1))
  (fp_line (start -13.27 -1.99) (end -13.11 -1.86) (layer F.Fab) (width 0.1))
  (fp_line (start -13.11 -1.86) (end -12.82 -1.8) (layer F.Fab) (width 0.1))
  (fp_line (start -12.82 -1.8) (end -12.63 -1.84) (layer F.Fab) (width 0.1))
  (fp_line (start -12.63 -1.84) (end -12.49 -2.04) (layer F.Fab) (width 0.1))
  (fp_line (start -12.49 -2.04) (end -12.47 -2.31) (layer F.Fab) (width 0.1))
  (fp_line (start -12.47 -2.31) (end -12.54 -2.54) (layer F.Fab) (width 0.1))
  (fp_line (start -12.54 -2.54) (end -12.74 -2.72) (layer F.Fab) (width 0.1))
  (fp_line (start -12.74 -2.72) (end -13.05 -2.73) (layer F.Fab) (width 0.1))
  (fp_line (start -13.05 -2.73) (end -13.23 -2.66) (layer F.Fab) (width 0.1))
  (fp_line (start -0.36 -1.79) (end 0.63 -1.79) (layer F.Fab) (width 0.1))
  (fp_line (start -0.4 -2.75) (end 0.13 -3.24) (layer F.Fab) (width 0.1))
  (fp_line (start 0.13 -3.24) (end 0.13 -1.77) (layer F.Fab) (width 0.1))
  (fp_line (start -7.76 -2.97) (end -7.14 -2.99) (layer F.Fab) (width 0.1))
  (fp_line (start -5.53 -3.04) (end -4.89 -3.04) (layer F.Fab) (width 0.1))
  (fp_line (start -6.25 -3.11) (end -6.33 -3.11) (layer F.Fab) (width 0.1))
  (fp_line (start -6.32 -3.91) (end -6.37 -3.89) (layer F.Fab) (width 0.1))
  (fp_line (start -5.68 -4.07) (end -5.18 -4.49) (layer F.Fab) (width 0.1))
  (fp_line (start -5.18 -4.49) (end -5.18 -3.04) (layer F.Fab) (width 0.1))
  (fp_line (start -7.92 -4.01) (end -7.38 -4.49) (layer F.Fab) (width 0.1))
  (fp_line (start -7.38 -4.49) (end -7.38 -2.98) (layer F.Fab) (width 0.1))
  (fp_line (start -1.53 -0.19) (end -3.29 -0.23) (layer F.Fab) (width 0.1))
  (fp_line (start -3.29 -0.23) (end -3.6 -0.17) (layer F.Fab) (width 0.1))
  (fp_line (start -3.6 -0.17) (end -3.93 0.02) (layer F.Fab) (width 0.1))
  (fp_line (start -3.93 0.02) (end -4.24 0.31) (layer F.Fab) (width 0.1))
  (fp_line (start -4.24 0.31) (end -4.36 0.7) (layer F.Fab) (width 0.1))
  (fp_line (start -4.36 0.7) (end -4.33 1.07) (layer F.Fab) (width 0.1))
  (fp_line (start -4.33 1.07) (end -4.18 1.45) (layer F.Fab) (width 0.1))
  (fp_line (start -4.18 1.45) (end -3.93 1.64) (layer F.Fab) (width 0.1))
  (fp_line (start -3.93 1.64) (end -3.47 1.85) (layer F.Fab) (width 0.1))
  (fp_line (start -3.47 1.85) (end -3.22 1.85) (layer F.Fab) (width 0.1))
  (fp_line (start -3.22 1.85) (end -3.7 1.94) (layer F.Fab) (width 0.1))
  (fp_line (start -3.7 1.94) (end -4.2 2.26) (layer F.Fab) (width 0.1))
  (fp_line (start -4.2 2.26) (end -4.34 2.57) (layer F.Fab) (width 0.1))
  (fp_line (start -4.34 2.57) (end -4.36 2.92) (layer F.Fab) (width 0.1))
  (fp_line (start -4.36 2.92) (end -4.24 3.29) (layer F.Fab) (width 0.1))
  (fp_line (start -4.24 3.29) (end -3.95 3.6) (layer F.Fab) (width 0.1))
  (fp_line (start -3.95 3.6) (end -3.63 3.79) (layer F.Fab) (width 0.1))
  (fp_line (start -3.63 3.79) (end -3.19 3.81) (layer F.Fab) (width 0.1))
  (fp_line (start -3.19 3.81) (end -3.67 3.88) (layer F.Fab) (width 0.1))
  (fp_line (start -3.67 3.88) (end -4.02 4.08) (layer F.Fab) (width 0.1))
  (fp_line (start -4.02 4.08) (end -4.24 4.36) (layer F.Fab) (width 0.1))
  (fp_line (start -4.24 4.36) (end -4.34 4.68) (layer F.Fab) (width 0.1))
  (fp_line (start -4.34 4.68) (end -4.33 5.04) (layer F.Fab) (width 0.1))
  (fp_line (start -4.33 5.04) (end -4.18 5.39) (layer F.Fab) (width 0.1))
  (fp_line (start -4.18 5.39) (end -3.92 5.62) (layer F.Fab) (width 0.1))
  (fp_line (start -3.92 5.62) (end -3.61 5.78) (layer F.Fab) (width 0.1))
  (fp_line (start -3.61 5.78) (end -3.37 5.84) (layer F.Fab) (width 0.1))
  (fp_line (start -3.37 5.84) (end -3.15 5.84) (layer F.Fab) (width 0.1))
  (fp_line (start -3.15 5.84) (end -3.88 5.96) (layer F.Fab) (width 0.1))
  (fp_line (start -3.88 5.96) (end -4.17 6.21) (layer F.Fab) (width 0.1))
  (fp_line (start -4.17 6.21) (end -4.31 6.57) (layer F.Fab) (width 0.1))
  (fp_line (start -4.31 6.57) (end -4.34 6.89) (layer F.Fab) (width 0.1))
  (fp_line (start -4.34 6.89) (end -4.24 7.26) (layer F.Fab) (width 0.1))
  (fp_line (start -4.24 7.26) (end -4.04 7.49) (layer F.Fab) (width 0.1))
  (fp_line (start -4.04 7.49) (end -3.76 7.74) (layer F.Fab) (width 0.1))
  (fp_line (start -3.76 7.74) (end -3.38 7.81) (layer F.Fab) (width 0.1))
  (fp_line (start -3.38 7.81) (end -1.45 7.81) (layer F.Fab) (width 0.1))
  (fp_line (start -11.35 -0.19) (end -9.35 -0.19) (layer F.Fab) (width 0.1))
  (fp_line (start -9.35 -0.19) (end -8.97 -0.14) (layer F.Fab) (width 0.1))
  (fp_line (start -8.97 -0.14) (end -8.68 0.08) (layer F.Fab) (width 0.1))
  (fp_line (start -8.68 0.08) (end -8.45 0.31) (layer F.Fab) (width 0.1))
  (fp_line (start -8.45 0.31) (end -8.4 0.52) (layer F.Fab) (width 0.1))
  (fp_line (start -8.4 0.52) (end -8.34 0.86) (layer F.Fab) (width 0.1))
  (fp_line (start -8.34 0.86) (end -8.4 1.29) (layer F.Fab) (width 0.1))
  (fp_line (start -8.4 1.29) (end -8.58 1.48) (layer F.Fab) (width 0.1))
  (fp_line (start -8.58 1.48) (end -8.79 1.62) (layer F.Fab) (width 0.1))
  (fp_line (start -8.79 1.62) (end -9.2 1.8) (layer F.Fab) (width 0.1))
  (fp_line (start -9.2 1.8) (end -9.36 1.8) (layer F.Fab) (width 0.1))
  (fp_line (start -9.36 1.8) (end -9.07 1.89) (layer F.Fab) (width 0.1))
  (fp_line (start -9.07 1.89) (end -8.75 2) (layer F.Fab) (width 0.1))
  (fp_line (start -8.75 2) (end -8.49 2.19) (layer F.Fab) (width 0.1))
  (fp_line (start -8.49 2.19) (end -8.42 2.49) (layer F.Fab) (width 0.1))
  (fp_line (start -8.42 2.49) (end -8.38 2.83) (layer F.Fab) (width 0.1))
  (fp_line (start -8.38 2.83) (end -8.42 3.15) (layer F.Fab) (width 0.1))
  (fp_line (start -8.42 3.15) (end -8.56 3.38) (layer F.Fab) (width 0.1))
  (fp_line (start -8.56 3.38) (end -8.66 3.53) (layer F.Fab) (width 0.1))
  (fp_line (start -8.66 3.53) (end -8.9 3.69) (layer F.Fab) (width 0.1))
  (fp_line (start -8.9 3.69) (end -9.14 3.79) (layer F.Fab) (width 0.1))
  (fp_line (start -9.14 3.79) (end -9.29 3.79) (layer F.Fab) (width 0.1))
  (fp_line (start -9.29 3.79) (end -9.02 3.88) (layer F.Fab) (width 0.1))
  (fp_line (start -9.02 3.88) (end -8.77 4.01) (layer F.Fab) (width 0.1))
  (fp_line (start -8.77 4.01) (end -8.52 4.25) (layer F.Fab) (width 0.1))
  (fp_line (start -8.52 4.25) (end -8.42 4.47) (layer F.Fab) (width 0.1))
  (fp_line (start -8.42 4.47) (end -8.36 4.75) (layer F.Fab) (width 0.1))
  (fp_line (start -8.36 4.75) (end -8.38 5.02) (layer F.Fab) (width 0.1))
  (fp_line (start -8.38 5.02) (end -8.45 5.29) (layer F.Fab) (width 0.1))
  (fp_line (start -8.45 5.29) (end -8.63 5.5) (layer F.Fab) (width 0.1))
  (fp_line (start -8.63 5.5) (end -8.79 5.64) (layer F.Fab) (width 0.1))
  (fp_line (start -8.79 5.64) (end -8.97 5.73) (layer F.Fab) (width 0.1))
  (fp_line (start -8.97 5.73) (end -9.3 5.77) (layer F.Fab) (width 0.1))
  (fp_line (start -9.3 5.77) (end -9.04 5.85) (layer F.Fab) (width 0.1))
  (fp_line (start -9.04 5.85) (end -8.77 6.01) (layer F.Fab) (width 0.1))
  (fp_line (start -8.77 6.01) (end -8.58 6.25) (layer F.Fab) (width 0.1))
  (fp_line (start -8.58 6.25) (end -8.45 6.46) (layer F.Fab) (width 0.1))
  (fp_line (start -8.45 6.46) (end -8.4 6.69) (layer F.Fab) (width 0.1))
  (fp_line (start -8.4 6.69) (end -8.4 6.96) (layer F.Fab) (width 0.1))
  (fp_line (start -8.4 6.96) (end -8.49 7.28) (layer F.Fab) (width 0.1))
  (fp_line (start -8.49 7.28) (end -8.61 7.49) (layer F.Fab) (width 0.1))
  (fp_line (start -8.61 7.49) (end -8.82 7.69) (layer F.Fab) (width 0.1))
  (fp_line (start -8.82 7.69) (end -9.09 7.74) (layer F.Fab) (width 0.1))
  (fp_line (start -9.09 7.74) (end -9.3 7.79) (layer F.Fab) (width 0.1))
  (fp_line (start -9.3 7.79) (end -9.36 7.77) (layer F.Fab) (width 0.1))
  (fp_line (start -9.36 7.77) (end -11.28 7.76) (layer F.Fab) (width 0.1))
  (fp_line (start -6.35 -2.19) (end -6.35 9.81) (layer F.Fab) (width 0.1))
  (fp_line (start 2.65 -5.19) (end -15.35 -5.19) (layer F.Fab) (width 0.1))
  (fp_line (start -15.35 -5.19) (end -15.35 12.81) (layer F.Fab) (width 0.1))
  (fp_line (start -15.35 12.81) (end 2.65 12.81) (layer F.Fab) (width 0.1))
  (fp_line (start 2.65 12.81) (end 2.65 -5.19) (layer F.Fab) (width 0.1))
  (fp_line (start -15.6 -5.44) (end 2.9 -5.44) (layer F.CrtYd) (width 0.05))
  (fp_line (start -15.6 -5.44) (end -15.6 13.06) (layer F.CrtYd) (width 0.05))
  (fp_line (start 2.9 13.06) (end 2.9 -5.44) (layer F.CrtYd) (width 0.05))
  (fp_line (start 2.9 13.06) (end -15.6 13.06) (layer F.CrtYd) (width 0.05))
  (pad 6 thru_hole circle (at -12.7 0) (size 1.52 1.52) (drill 0.81) (layers *.Cu *.Mask))
  (pad 4 thru_hole circle (at -12.7 7.62) (size 1.52 1.52) (drill 0.81) (layers *.Cu *.Mask))
  (pad 1 thru_hole rect (at 0 0) (size 1.52 1.52) (drill 0.81) (layers *.Cu *.Mask))
  (pad 3 thru_hole circle (at 0 7.62) (size 1.52 1.52) (drill 0.81) (layers *.Cu *.Mask))
  (model ${KICAD6_3DMODEL_DIR}/Transformer_THT.3dshapes/Transformer_NF_ETAL_P3324.wrl
    (at (xyz 0 0 0))
    (scale (xyz 1 1 1))
    (rotate (xyz 0 0 0))
  )
)
