(module Transformer_Toroid_Horizontal_D9.0mm_Amidon-T30 (layer F.Cu) (tedit 5A030845)
  (descr "Transformer, Toroid, horizontal, laying, Diameter 9mm, Amidon, T30,")
  (tags "Transformer Toroid horizontal laying Diameter 9mm Amidon T30 ")
  (fp_text reference REF** (at 5.5 -8.5) (layer F.SilkS)
    (effects (font (size 1 1) (thickness 0.15)))
  )
  (fp_text value Transformer_Toroid_Horizontal_D9.0mm_Amidon-T30 (at 5.5 3.2) (layer F.Fab)
    (effects (font (size 1 1) (thickness 0.15)))
  )
  (fp_text user %R (at 5.5 -8.5) (layer F.Fab)
    (effects (font (size 1 1) (thickness 0.15)))
  )
  (fp_line (start 1.6 -0.7) (end 4.3 -2.2) (layer F.Fab) (width 0.1))
  (fp_line (start 4.3 -2.2) (end 2.6 0.2) (layer F.Fab) (width 0.1))
  (fp_line (start 2.6 0.2) (end 4.7 -1.7) (layer F.Fab) (width 0.1))
  (fp_line (start 4.7 -1.7) (end 4.2 1.2) (layer F.Fab) (width 0.1))
  (fp_line (start 4.2 1.2) (end 5.4 -1.4) (layer F.Fab) (width 0.1))
  (fp_line (start 5.4 -1.4) (end 5.9 1.3) (layer F.Fab) (width 0.1))
  (fp_line (start 5.9 1.3) (end 6.1 -1.6) (layer F.Fab) (width 0.1))
  (fp_line (start 6.1 -1.6) (end 7.6 0.8) (layer F.Fab) (width 0.1))
  (fp_line (start 7.6 0.8) (end 6.7 -2) (layer F.Fab) (width 0.1))
  (fp_line (start 6.7 -2) (end 8.6 0.1) (layer F.Fab) (width 0.1))
  (fp_line (start 8.6 0.1) (end 7 -2.5) (layer F.Fab) (width 0.1))
  (fp_line (start 7 -2.5) (end 9.4 -1.1) (layer F.Fab) (width 0.1))
  (fp_line (start 1.5 -5.1) (end 4.1 -3.7) (layer F.Fab) (width 0.1))
  (fp_line (start 4.1 -3.7) (end 2.8 -6.5) (layer F.Fab) (width 0.1))
  (fp_line (start 2.8 -6.5) (end 4.7 -4.3) (layer F.Fab) (width 0.1))
  (fp_line (start 4.7 -4.3) (end 4.5 -7.4) (layer F.Fab) (width 0.1))
  (fp_line (start 4.5 -7.4) (end 5.3 -4.6) (layer F.Fab) (width 0.1))
  (fp_line (start 5.3 -4.6) (end 5.9 -7.4) (layer F.Fab) (width 0.1))
  (fp_line (start 5.9 -7.4) (end 6 -4.5) (layer F.Fab) (width 0.1))
  (fp_line (start 6 -4.5) (end 7.2 -7) (layer F.Fab) (width 0.1))
  (fp_line (start 7.2 -7) (end 6.5 -4.2) (layer F.Fab) (width 0.1))
  (fp_line (start 6.5 -4.2) (end 8.5 -6.1) (layer F.Fab) (width 0.1))
  (fp_line (start 8.5 -6.1) (end 7 -3.5) (layer F.Fab) (width 0.1))
  (fp_line (start 7 -3.5) (end 9.4 -4.8) (layer F.Fab) (width 0.1))
  (fp_line (start -1.25 -7.75) (end 12.25 -7.75) (layer F.CrtYd) (width 0.05))
  (fp_line (start -1.25 -7.75) (end -1.25 1.75) (layer F.CrtYd) (width 0.05))
  (fp_line (start 12.25 1.75) (end 12.25 -7.75) (layer F.CrtYd) (width 0.05))
  (fp_line (start 12.25 1.75) (end -1.25 1.75) (layer F.CrtYd) (width 0.05))
  (fp_circle (center 5.5 -3) (end 6.9 -3.1) (layer F.SilkS) (width 0.12))
  (fp_circle (center 5.5 -3) (end 10.1 -3.1) (layer F.SilkS) (width 0.12))
  (fp_circle (center 5.5 -3) (end 7 -3) (layer F.Fab) (width 0.1))
  (fp_circle (center 5.5 -3) (end 10 -3) (layer F.Fab) (width 0.1))
  (pad 1 thru_hole circle (at 0 0) (size 2 2) (drill 1) (layers *.Cu *.Mask))
  (pad 2 thru_hole circle (at 11 0) (size 2 2) (drill 1) (layers *.Cu *.Mask))
  (pad 3 thru_hole circle (at 0 -6) (size 2 2) (drill 1) (layers *.Cu *.Mask))
  (pad 4 thru_hole circle (at 11 -6) (size 2 2) (drill 1) (layers *.Cu *.Mask))
  (model ${KICAD6_3DMODEL_DIR}/Transformer_THT.3dshapes/Transformer_Toroid_Horizontal_D9.0mm_Amidon-T30.wrl
    (at (xyz 0 0 0))
    (scale (xyz 1 1 1))
    (rotate (xyz 0 0 0))
  )
)
