(module DIP_Socket-28_W11.9_W12.7_W15.24_W17.78_W18.5_3M_228-1277-00-0602J (layer F.Cu) (tedit 5AF5D4CC)
  (descr "3M 28-pin zero insertion force socket, through-hole, row spacing 15.24 mm (600 mils), http://multimedia.3m.com/mws/media/494546O/3mtm-dip-sockets-100-2-54-mm-ts0365.pdf")
  (tags "THT DIP DIL ZIF 15.24mm 600mil Socket")
  (fp_text reference REF** (at 7.62 -11.56) (layer F.SilkS)
    (effects (font (size 1 1) (thickness 0.15)))
  )
  (fp_text value DIP_Socket-28_W11.9_W12.7_W15.24_W17.78_W18.5_3M_228-1277-00-0602J (at 7.62 40.84) (layer F.Fab)
    (effects (font (size 0.6 0.6) (thickness 0.09)))
  )
  (fp_circle (center -3.2 -6.35) (end -0.65 -6.35) (layer F.SilkS) (width 0.12))
  (fp_circle (center -3.2 -6.35) (end -2.3 -6.35) (layer F.SilkS) (width 0.12))
  (fp_line (start -5.5 -23.36) (end 0.1 -23.36) (layer F.CrtYd) (width 0.05))
  (fp_line (start 0.1 -23.36) (end 0.1 -11.06) (layer F.CrtYd) (width 0.05))
  (fp_line (start 0.1 -11.06) (end 19.57 -11.06) (layer F.CrtYd) (width 0.05))
  (fp_line (start 19.57 -11.06) (end 19.57 40.34) (layer F.CrtYd) (width 0.05))
  (fp_line (start 19.57 40.34) (end -4.33 40.34) (layer F.CrtYd) (width 0.05))
  (fp_line (start -4.33 40.34) (end -4.33 -3.4) (layer F.CrtYd) (width 0.05))
  (fp_line (start -4.33 -3.4) (end -5.5 -3.4) (layer F.CrtYd) (width 0.05))
  (fp_line (start -5.5 -3.4) (end -5.5 -23.36) (layer F.CrtYd) (width 0.05))
  (fp_line (start -5 -21.46) (end -3.7 -22.86) (layer F.Fab) (width 0.1))
  (fp_line (start -3.7 -22.86) (end -1.7 -22.86) (layer F.Fab) (width 0.1))
  (fp_line (start -1.7 -22.86) (end -0.4 -21.46) (layer F.Fab) (width 0.1))
  (fp_line (start -0.4 -21.46) (end -5 -21.46) (layer F.Fab) (width 0.1))
  (fp_line (start -5 -21.46) (end -5 -17.86) (layer F.Fab) (width 0.1))
  (fp_line (start -5 -17.86) (end -0.4 -17.86) (layer F.Fab) (width 0.1))
  (fp_line (start -0.4 -17.86) (end -0.4 -21.46) (layer F.Fab) (width 0.1))
  (fp_line (start -5 -17.86) (end -3.5 -15.86) (layer F.Fab) (width 0.1))
  (fp_line (start -0.4 -17.86) (end -1.9 -15.86) (layer F.Fab) (width 0.1))
  (fp_line (start -3.5 -9.75) (end -3.5 -15.86) (layer F.Fab) (width 0.1))
  (fp_line (start -3.5 -15.86) (end -1.9 -15.86) (layer F.Fab) (width 0.1))
  (fp_line (start -1.9 -15.86) (end -1.9 -10.56) (layer F.Fab) (width 0.1))
  (fp_line (start 19.07 39.84) (end -3.83 39.84) (layer F.Fab) (width 0.1))
  (fp_line (start -3.83 39.84) (end -3.83 -9.4) (layer F.Fab) (width 0.1))
  (fp_line (start -3.83 -9.4) (end -2.85 -10.56) (layer F.Fab) (width 0.1))
  (fp_line (start -2.85 -10.56) (end 19.07 -10.56) (layer F.Fab) (width 0.1))
  (fp_line (start 19.07 -10.56) (end 19.07 39.84) (layer F.Fab) (width 0.1))
  (fp_line (start -3.93 -3.9) (end -3.93 39.94) (layer F.SilkS) (width 0.12))
  (fp_line (start -3.93 39.94) (end 19.17 39.94) (layer F.SilkS) (width 0.12))
  (fp_line (start 19.17 39.94) (end 19.17 -10.66) (layer F.SilkS) (width 0.12))
  (fp_line (start 19.17 -10.66) (end -3.93 -10.66) (layer F.SilkS) (width 0.12))
  (fp_line (start -3.93 -10.66) (end -3.93 -8.8) (layer F.SilkS) (width 0.12))
  (fp_line (start -1.65 -10.66) (end -1.65 -8.4) (layer F.SilkS) (width 0.12))
  (fp_line (start -4.95 1.27) (end -4.95 -1.27) (layer F.SilkS) (width 0.12))
  (pad 1 thru_hole rect (at 0 0) (size 2 1.44) (drill 1) (layers *.Cu *.Mask))
  (pad 28 thru_hole oval (at 15.24 0) (size 2 1.44) (drill 1) (layers *.Cu *.Mask))
  (pad 2 thru_hole oval (at 0 2.54) (size 2 1.44) (drill 1) (layers *.Cu *.Mask))
  (pad 27 thru_hole oval (at 15.24 2.54) (size 2 1.44) (drill 1) (layers *.Cu *.Mask))
  (pad 3 thru_hole oval (at 0 5.08) (size 2 1.44) (drill 1) (layers *.Cu *.Mask))
  (pad 26 thru_hole oval (at 15.24 5.08) (size 2 1.44) (drill 1) (layers *.Cu *.Mask))
  (pad 4 thru_hole oval (at 0 7.62) (size 2 1.44) (drill 1) (layers *.Cu *.Mask))
  (pad 25 thru_hole oval (at 15.24 7.62) (size 2 1.44) (drill 1) (layers *.Cu *.Mask))
  (pad 5 thru_hole oval (at 0 10.16) (size 2 1.44) (drill 1) (layers *.Cu *.Mask))
  (pad 24 thru_hole oval (at 15.24 10.16) (size 2 1.44) (drill 1) (layers *.Cu *.Mask))
  (pad 6 thru_hole oval (at 0 12.7) (size 2 1.44) (drill 1) (layers *.Cu *.Mask))
  (pad 23 thru_hole oval (at 15.24 12.7) (size 2 1.44) (drill 1) (layers *.Cu *.Mask))
  (pad 7 thru_hole oval (at 0 15.24) (size 2 1.44) (drill 1) (layers *.Cu *.Mask))
  (pad 22 thru_hole oval (at 15.24 15.24) (size 2 1.44) (drill 1) (layers *.Cu *.Mask))
  (pad 8 thru_hole oval (at 0 17.78) (size 2 1.44) (drill 1) (layers *.Cu *.Mask))
  (pad 21 thru_hole oval (at 15.24 17.78) (size 2 1.44) (drill 1) (layers *.Cu *.Mask))
  (pad 9 thru_hole oval (at 0 20.32) (size 2 1.44) (drill 1) (layers *.Cu *.Mask))
  (pad 20 thru_hole oval (at 15.24 20.32) (size 2 1.44) (drill 1) (layers *.Cu *.Mask))
  (pad 10 thru_hole oval (at 0 22.86) (size 2 1.44) (drill 1) (layers *.Cu *.Mask))
  (pad 19 thru_hole oval (at 15.24 22.86) (size 2 1.44) (drill 1) (layers *.Cu *.Mask))
  (pad 11 thru_hole oval (at 0 25.4) (size 2 1.44) (drill 1) (layers *.Cu *.Mask))
  (pad 18 thru_hole oval (at 15.24 25.4) (size 2 1.44) (drill 1) (layers *.Cu *.Mask))
  (pad 12 thru_hole oval (at 0 27.94) (size 2 1.44) (drill 1) (layers *.Cu *.Mask))
  (pad 17 thru_hole oval (at 15.24 27.94) (size 2 1.44) (drill 1) (layers *.Cu *.Mask))
  (pad 13 thru_hole oval (at 0 30.48) (size 2 1.44) (drill 1) (layers *.Cu *.Mask))
  (pad 16 thru_hole oval (at 15.24 30.48) (size 2 1.44) (drill 1) (layers *.Cu *.Mask))
  (pad 14 thru_hole oval (at 0 33.02) (size 2 1.44) (drill 1) (layers *.Cu *.Mask))
  (pad 15 thru_hole oval (at 15.24 33.02) (size 2 1.44) (drill 1) (layers *.Cu *.Mask))
  (fp_text user %R (at 7.62 14.64) (layer F.Fab)
    (effects (font (size 1 1) (thickness 0.15)))
  )
  (model ${KICAD6_3DMODEL_DIR}/Socket.3dshapes/DIP_Socket-28_W11.9_W12.7_W15.24_W17.78_W18.5_3M_228-1277-00-0602J.wrl
    (at (xyz 0 0 0))
    (scale (xyz 1 1 1))
    (rotate (xyz 0 0 0))
  )
)