(module DIP_Socket-40_W22.1_W22.86_W25.4_W27.94_W28.7_3M_240-3639-00-0602J (layer F.Cu) (tedit 5AF5D4CC)
  (descr "3M 40-pin zero insertion force socket, through-hole, row spacing 25.4 mm (1000 mils), http://multimedia.3m.com/mws/media/494546O/3mtm-dip-sockets-100-2-54-mm-ts0365.pdf")
  (tags "THT DIP DIL ZIF 25.4mm 1000mil Socket")
  (fp_text reference REF** (at 12.7 -11.56) (layer F.SilkS)
    (effects (font (size 1 1) (thickness 0.15)))
  )
  (fp_text value DIP_Socket-40_W22.1_W22.86_W25.4_W27.94_W28.7_3M_240-3639-00-0602J (at 12.7 55.94) (layer F.Fab)
    (effects (font (size 0.6 0.6) (thickness 0.09)))
  )
  (fp_circle (center -3.2 -6.35) (end -0.65 -6.35) (layer F.SilkS) (width 0.12))
  (fp_circle (center -3.2 -6.35) (end -2.3 -6.35) (layer F.SilkS) (width 0.12))
  (fp_line (start -5.5 -23.36) (end 0.1 -23.36) (layer F.CrtYd) (width 0.05))
  (fp_line (start 0.1 -23.36) (end 0.1 -11.06) (layer F.CrtYd) (width 0.05))
  (fp_line (start 0.1 -11.06) (end 29.7 -11.06) (layer F.CrtYd) (width 0.05))
  (fp_line (start 29.7 -11.06) (end 29.7 55.44) (layer F.CrtYd) (width 0.05))
  (fp_line (start 29.7 55.44) (end -4.3 55.44) (layer F.CrtYd) (width 0.05))
  (fp_line (start -4.3 55.44) (end -4.3 -3.4) (layer F.CrtYd) (width 0.05))
  (fp_line (start -4.3 -3.4) (end -5.5 -3.4) (layer F.CrtYd) (width 0.05))
  (fp_line (start -5.5 -3.4) (end -5.5 -23.36) (layer F.CrtYd) (width 0.05))
  (fp_line (start -5 -21.46) (end -3.7 -22.86) (layer F.Fab) (width 0.1))
  (fp_line (start -3.7 -22.86) (end -1.7 -22.86) (layer F.Fab) (width 0.1))
  (fp_line (start -1.7 -22.86) (end -0.4 -21.46) (layer F.Fab) (width 0.1))
  (fp_line (start -0.4 -21.46) (end -5 -21.46) (layer F.Fab) (width 0.1))
  (fp_line (start -5 -21.46) (end -5 -17.86) (layer F.Fab) (width 0.1))
  (fp_line (start -5 -17.86) (end -0.4 -17.86) (layer F.Fab) (width 0.1))
  (fp_line (start -0.4 -17.86) (end -0.4 -21.46) (layer F.Fab) (width 0.1))
  (fp_line (start -5 -17.86) (end -3.5 -15.86) (layer F.Fab) (width 0.1))
  (fp_line (start -0.4 -17.86) (end -1.9 -15.86) (layer F.Fab) (width 0.1))
  (fp_line (start -3.5 -9.75) (end -3.5 -15.86) (layer F.Fab) (width 0.1))
  (fp_line (start -3.5 -15.86) (end -1.9 -15.86) (layer F.Fab) (width 0.1))
  (fp_line (start -1.9 -15.86) (end -1.9 -10.56) (layer F.Fab) (width 0.1))
  (fp_line (start 29.2 54.94) (end -3.8 54.94) (layer F.Fab) (width 0.1))
  (fp_line (start -3.8 54.94) (end -3.8 -9.4) (layer F.Fab) (width 0.1))
  (fp_line (start -3.8 -9.4) (end -2.85 -10.56) (layer F.Fab) (width 0.1))
  (fp_line (start -2.85 -10.56) (end 29.2 -10.56) (layer F.Fab) (width 0.1))
  (fp_line (start 29.2 -10.56) (end 29.2 54.94) (layer F.Fab) (width 0.1))
  (fp_line (start -3.9 -3.9) (end -3.9 55.04) (layer F.SilkS) (width 0.12))
  (fp_line (start -3.9 55.04) (end 29.3 55.04) (layer F.SilkS) (width 0.12))
  (fp_line (start 29.3 55.04) (end 29.3 -10.66) (layer F.SilkS) (width 0.12))
  (fp_line (start 29.3 -10.66) (end -3.9 -10.66) (layer F.SilkS) (width 0.12))
  (fp_line (start -3.9 -10.66) (end -3.9 -8.8) (layer F.SilkS) (width 0.12))
  (fp_line (start -1.65 -10.66) (end -1.65 -8.4) (layer F.SilkS) (width 0.12))
  (fp_line (start -4.95 1.27) (end -4.95 -1.27) (layer F.SilkS) (width 0.12))
  (pad 1 thru_hole rect (at 0 0) (size 2 1.44) (drill 1) (layers *.Cu *.Mask))
  (pad 40 thru_hole oval (at 25.4 0) (size 2 1.44) (drill 1) (layers *.Cu *.Mask))
  (pad 2 thru_hole oval (at 0 2.54) (size 2 1.44) (drill 1) (layers *.Cu *.Mask))
  (pad 39 thru_hole oval (at 25.4 2.54) (size 2 1.44) (drill 1) (layers *.Cu *.Mask))
  (pad 3 thru_hole oval (at 0 5.08) (size 2 1.44) (drill 1) (layers *.Cu *.Mask))
  (pad 38 thru_hole oval (at 25.4 5.08) (size 2 1.44) (drill 1) (layers *.Cu *.Mask))
  (pad 4 thru_hole oval (at 0 7.62) (size 2 1.44) (drill 1) (layers *.Cu *.Mask))
  (pad 37 thru_hole oval (at 25.4 7.62) (size 2 1.44) (drill 1) (layers *.Cu *.Mask))
  (pad 5 thru_hole oval (at 0 10.16) (size 2 1.44) (drill 1) (layers *.Cu *.Mask))
  (pad 36 thru_hole oval (at 25.4 10.16) (size 2 1.44) (drill 1) (layers *.Cu *.Mask))
  (pad 6 thru_hole oval (at 0 12.7) (size 2 1.44) (drill 1) (layers *.Cu *.Mask))
  (pad 35 thru_hole oval (at 25.4 12.7) (size 2 1.44) (drill 1) (layers *.Cu *.Mask))
  (pad 7 thru_hole oval (at 0 15.24) (size 2 1.44) (drill 1) (layers *.Cu *.Mask))
  (pad 34 thru_hole oval (at 25.4 15.24) (size 2 1.44) (drill 1) (layers *.Cu *.Mask))
  (pad 8 thru_hole oval (at 0 17.78) (size 2 1.44) (drill 1) (layers *.Cu *.Mask))
  (pad 33 thru_hole oval (at 25.4 17.78) (size 2 1.44) (drill 1) (layers *.Cu *.Mask))
  (pad 9 thru_hole oval (at 0 20.32) (size 2 1.44) (drill 1) (layers *.Cu *.Mask))
  (pad 32 thru_hole oval (at 25.4 20.32) (size 2 1.44) (drill 1) (layers *.Cu *.Mask))
  (pad 10 thru_hole oval (at 0 22.86) (size 2 1.44) (drill 1) (layers *.Cu *.Mask))
  (pad 31 thru_hole oval (at 25.4 22.86) (size 2 1.44) (drill 1) (layers *.Cu *.Mask))
  (pad 11 thru_hole oval (at 0 25.4) (size 2 1.44) (drill 1) (layers *.Cu *.Mask))
  (pad 30 thru_hole oval (at 25.4 25.4) (size 2 1.44) (drill 1) (layers *.Cu *.Mask))
  (pad 12 thru_hole oval (at 0 27.94) (size 2 1.44) (drill 1) (layers *.Cu *.Mask))
  (pad 29 thru_hole oval (at 25.4 27.94) (size 2 1.44) (drill 1) (layers *.Cu *.Mask))
  (pad 13 thru_hole oval (at 0 30.48) (size 2 1.44) (drill 1) (layers *.Cu *.Mask))
  (pad 28 thru_hole oval (at 25.4 30.48) (size 2 1.44) (drill 1) (layers *.Cu *.Mask))
  (pad 14 thru_hole oval (at 0 33.02) (size 2 1.44) (drill 1) (layers *.Cu *.Mask))
  (pad 27 thru_hole oval (at 25.4 33.02) (size 2 1.44) (drill 1) (layers *.Cu *.Mask))
  (pad 15 thru_hole oval (at 0 35.56) (size 2 1.44) (drill 1) (layers *.Cu *.Mask))
  (pad 26 thru_hole oval (at 25.4 35.56) (size 2 1.44) (drill 1) (layers *.Cu *.Mask))
  (pad 16 thru_hole oval (at 0 38.1) (size 2 1.44) (drill 1) (layers *.Cu *.Mask))
  (pad 25 thru_hole oval (at 25.4 38.1) (size 2 1.44) (drill 1) (layers *.Cu *.Mask))
  (pad 17 thru_hole oval (at 0 40.64) (size 2 1.44) (drill 1) (layers *.Cu *.Mask))
  (pad 24 thru_hole oval (at 25.4 40.64) (size 2 1.44) (drill 1) (layers *.Cu *.Mask))
  (pad 18 thru_hole oval (at 0 43.18) (size 2 1.44) (drill 1) (layers *.Cu *.Mask))
  (pad 23 thru_hole oval (at 25.4 43.18) (size 2 1.44) (drill 1) (layers *.Cu *.Mask))
  (pad 19 thru_hole oval (at 0 45.72) (size 2 1.44) (drill 1) (layers *.Cu *.Mask))
  (pad 22 thru_hole oval (at 25.4 45.72) (size 2 1.44) (drill 1) (layers *.Cu *.Mask))
  (pad 20 thru_hole oval (at 0 48.26) (size 2 1.44) (drill 1) (layers *.Cu *.Mask))
  (pad 21 thru_hole oval (at 25.4 48.26) (size 2 1.44) (drill 1) (layers *.Cu *.Mask))
  (fp_text user %R (at 12.7 22.19) (layer F.Fab)
    (effects (font (size 1 1) (thickness 0.15)))
  )
  (model ${KICAD6_3DMODEL_DIR}/Socket.3dshapes/DIP_Socket-40_W22.1_W22.86_W25.4_W27.94_W28.7_3M_240-3639-00-0602J.wrl
    (at (xyz 0 0 0))
    (scale (xyz 1 1 1))
    (rotate (xyz 0 0 0))
  )
)