(module Wells_648-0482211SA01 (layer F.Cu) (tedit 5B3B557B)
  (descr https://www.farnell.com/cad/316865.pdf?_ga=2.37208032.177107060.1530611323-249019997.1498114824)
  (tags "48pin TSOP Socket")
  (fp_text reference REF** (at 15.47 16) (layer F.SilkS)
    (effects (font (size 1 1) (thickness 0.15)))
  )
  (fp_text value Wells_648-0482211SA01 (at 15.47 -4.5) (layer F.Fab)
    (effects (font (size 1 1) (thickness 0.15)))
  )
  (fp_line (start -4.78 -3.5) (end -2.03 -3.5) (layer F.SilkS) (width 0.12))
  (fp_line (start -4.78 -3.5) (end -4.78 -1.25) (layer F.SilkS) (width 0.12))
  (fp_line (start -4.64 -3.36) (end -4.64 14.86) (layer F.SilkS) (width 0.12))
  (fp_line (start -4.64 14.86) (end 35.58 14.86) (layer F.SilkS) (width 0.12))
  (fp_line (start 35.58 14.86) (end 35.58 -3.36) (layer F.SilkS) (width 0.12))
  (fp_line (start 35.58 -3.36) (end -4.64 -3.36) (layer F.SilkS) (width 0.12))
  (fp_line (start -4.78 -3.5) (end -4.78 15) (layer F.CrtYd) (width 0.05))
  (fp_line (start -4.78 15) (end 35.72 15) (layer F.CrtYd) (width 0.05))
  (fp_line (start 35.72 15) (end 35.72 -3.5) (layer F.CrtYd) (width 0.05))
  (fp_line (start 35.72 -3.5) (end -4.78 -3.5) (layer F.CrtYd) (width 0.05))
  (fp_line (start -4.53 14.75) (end 35.47 14.75) (layer F.Fab) (width 0.1))
  (fp_line (start 35.47 14.75) (end 35.47 -3.25) (layer F.Fab) (width 0.1))
  (fp_line (start -4.53 -3.25) (end 35.47 -3.25) (layer F.Fab) (width 0.1))
  (fp_line (start -4.53 14.75) (end -4.53 -3.25) (layer F.Fab) (width 0.1))
  (fp_text user %R (at 15.47 16) (layer F.Fab)
    (effects (font (size 1 1) (thickness 0.15)))
  )
  (pad 20 thru_hole roundrect (at -3.3 9.5) (size 1.5 1.1) (drill 0.75) (layers *.Cu *.Mask) (roundrect_rratio 0.25))
  (pad 17 thru_hole roundrect (at -3.3 8) (size 1.5 1.1) (drill 0.75) (layers *.Cu *.Mask) (roundrect_rratio 0.25))
  (pad 14 thru_hole roundrect (at -3.3 6.5) (size 1.5 1.1) (drill 0.75) (layers *.Cu *.Mask) (roundrect_rratio 0.25))
  (pad 11 thru_hole roundrect (at -3.3 5) (size 1.5 1.1) (drill 0.75) (layers *.Cu *.Mask) (roundrect_rratio 0.25))
  (pad 22 thru_hole roundrect (at 0 10.5) (size 1.5 1.1) (drill 0.75) (layers *.Cu *.Mask) (roundrect_rratio 0.25))
  (pad 19 thru_hole roundrect (at 0 9) (size 1.5 1.1) (drill 0.75) (layers *.Cu *.Mask) (roundrect_rratio 0.25))
  (pad 16 thru_hole roundrect (at 0 7.5) (size 1.5 1.1) (drill 0.75) (layers *.Cu *.Mask) (roundrect_rratio 0.25))
  (pad 13 thru_hole roundrect (at 0 6) (size 1.5 1.1) (drill 0.75) (layers *.Cu *.Mask) (roundrect_rratio 0.25))
  (pad 15 thru_hole roundrect (at 3.3 7) (size 1.5 1.1) (drill 0.75) (layers *.Cu *.Mask) (roundrect_rratio 0.25))
  (pad 18 thru_hole roundrect (at 3.3 8.5) (size 1.5 1.1) (drill 0.75) (layers *.Cu *.Mask) (roundrect_rratio 0.25))
  (pad 21 thru_hole roundrect (at 3.3 10) (size 1.5 1.1) (drill 0.75) (layers *.Cu *.Mask) (roundrect_rratio 0.25))
  (pad 24 thru_hole roundrect (at 3.3 11.5) (size 1.5 1.1) (drill 0.75) (layers *.Cu *.Mask) (roundrect_rratio 0.25))
  (pad 12 thru_hole roundrect (at 3.3 5.5) (size 1.5 1.1) (drill 0.75) (layers *.Cu *.Mask) (roundrect_rratio 0.25))
  (pad 9 thru_hole roundrect (at 3.3 4) (size 1.5 1.1) (drill 0.75) (layers *.Cu *.Mask) (roundrect_rratio 0.25))
  (pad 6 thru_hole roundrect (at 3.3 2.5) (size 1.5 1.1) (drill 0.75) (layers *.Cu *.Mask) (roundrect_rratio 0.25))
  (pad 3 thru_hole roundrect (at 3.3 1) (size 1.5 1.1) (drill 0.75) (layers *.Cu *.Mask) (roundrect_rratio 0.25))
  (pad 1 thru_hole rect (at 0 0) (size 1.5 1.1) (drill 0.75) (layers *.Cu *.Mask))
  (pad 4 thru_hole roundrect (at 0 1.5) (size 1.5 1.1) (drill 0.75) (layers *.Cu *.Mask) (roundrect_rratio 0.25))
  (pad 7 thru_hole roundrect (at 0 3) (size 1.5 1.1) (drill 0.75) (layers *.Cu *.Mask) (roundrect_rratio 0.25))
  (pad 10 thru_hole roundrect (at 0 4.5) (size 1.5 1.1) (drill 0.75) (layers *.Cu *.Mask) (roundrect_rratio 0.25))
  (pad 23 thru_hole roundrect (at -3.3 11) (size 1.5 1.1) (drill 0.75) (layers *.Cu *.Mask) (roundrect_rratio 0.25))
  (pad 2 thru_hole roundrect (at -3.3 0.5) (size 1.5 1.1) (drill 0.75) (layers *.Cu *.Mask) (roundrect_rratio 0.25))
  (pad 5 thru_hole roundrect (at -3.3 2) (size 1.5 1.1) (drill 0.75) (layers *.Cu *.Mask) (roundrect_rratio 0.25))
  (pad 8 thru_hole roundrect (at -3.3 3.5) (size 1.5 1.1) (drill 0.75) (layers *.Cu *.Mask) (roundrect_rratio 0.25))
  (pad 40 thru_hole roundrect (at 27.64 4) (size 1.5 1.1) (drill 0.75) (layers *.Cu *.Mask) (roundrect_rratio 0.25))
  (pad 43 thru_hole roundrect (at 27.64 2.5) (size 1.5 1.1) (drill 0.75) (layers *.Cu *.Mask) (roundrect_rratio 0.25))
  (pad 46 thru_hole roundrect (at 27.64 1) (size 1.5 1.1) (drill 0.75) (layers *.Cu *.Mask) (roundrect_rratio 0.25))
  (pad 25 thru_hole roundrect (at 27.64 11.5) (size 1.5 1.1) (drill 0.75) (layers *.Cu *.Mask) (roundrect_rratio 0.25))
  (pad 39 thru_hole roundrect (at 30.94 4.5) (size 1.5 1.1) (drill 0.75) (layers *.Cu *.Mask) (roundrect_rratio 0.25))
  (pad 42 thru_hole roundrect (at 30.94 3) (size 1.5 1.1) (drill 0.75) (layers *.Cu *.Mask) (roundrect_rratio 0.25))
  (pad 45 thru_hole roundrect (at 30.94 1.5) (size 1.5 1.1) (drill 0.75) (layers *.Cu *.Mask) (roundrect_rratio 0.25))
  (pad 48 thru_hole roundrect (at 30.94 0) (size 1.5 1.1) (drill 0.75) (layers *.Cu *.Mask) (roundrect_rratio 0.25))
  (pad 47 thru_hole roundrect (at 34.24 0.5) (size 1.5 1.1) (drill 0.75) (layers *.Cu *.Mask) (roundrect_rratio 0.25))
  (pad 44 thru_hole roundrect (at 34.24 2) (size 1.5 1.1) (drill 0.75) (layers *.Cu *.Mask) (roundrect_rratio 0.25))
  (pad 41 thru_hole roundrect (at 34.24 3.5) (size 1.5 1.1) (drill 0.75) (layers *.Cu *.Mask) (roundrect_rratio 0.25))
  (pad 38 thru_hole roundrect (at 34.24 5) (size 1.5 1.1) (drill 0.75) (layers *.Cu *.Mask) (roundrect_rratio 0.25))
  (pad 26 thru_hole roundrect (at 34.24 11) (size 1.5 1.1) (drill 0.75) (layers *.Cu *.Mask) (roundrect_rratio 0.25))
  (pad 29 thru_hole roundrect (at 34.24 9.5) (size 1.5 1.1) (drill 0.75) (layers *.Cu *.Mask) (roundrect_rratio 0.25))
  (pad 32 thru_hole roundrect (at 34.24 8) (size 1.5 1.1) (drill 0.75) (layers *.Cu *.Mask) (roundrect_rratio 0.25))
  (pad 35 thru_hole roundrect (at 34.24 6.5) (size 1.5 1.1) (drill 0.75) (layers *.Cu *.Mask) (roundrect_rratio 0.25))
  (pad 36 thru_hole roundrect (at 30.94 6) (size 1.5 1.1) (drill 0.75) (layers *.Cu *.Mask) (roundrect_rratio 0.25))
  (pad 33 thru_hole roundrect (at 30.94 7.5) (size 1.5 1.1) (drill 0.75) (layers *.Cu *.Mask) (roundrect_rratio 0.25))
  (pad 30 thru_hole roundrect (at 30.94 9) (size 1.5 1.1) (drill 0.75) (layers *.Cu *.Mask) (roundrect_rratio 0.25))
  (pad 27 thru_hole roundrect (at 30.94 10.5) (size 1.5 1.1) (drill 0.75) (layers *.Cu *.Mask) (roundrect_rratio 0.25))
  (pad 37 thru_hole roundrect (at 27.64 5.5) (size 1.5 1.1) (drill 0.75) (layers *.Cu *.Mask) (roundrect_rratio 0.25))
  (pad 34 thru_hole roundrect (at 27.64 7) (size 1.5 1.1) (drill 0.75) (layers *.Cu *.Mask) (roundrect_rratio 0.25))
  (pad 31 thru_hole roundrect (at 27.64 8.5) (size 1.5 1.1) (drill 0.75) (layers *.Cu *.Mask) (roundrect_rratio 0.25))
  (pad 28 thru_hole roundrect (at 27.64 10) (size 1.5 1.1) (drill 0.75) (layers *.Cu *.Mask) (roundrect_rratio 0.25))
  (pad "" np_thru_hole circle (at 34.47 13.25) (size 2 2) (drill 1.7) (layers *.Cu *.Mask))
  (pad "" np_thru_hole circle (at -3.53 -1.75) (size 2 2) (drill 1.7) (layers *.Cu *.Mask))
  (model ${KICAD6_3DMODEL_DIR}/Socket.3dshapes/Wells_648-0482211SA01.wrl
    (at (xyz 0 0 0))
    (scale (xyz 1 1 1))
    (rotate (xyz 0 0 0))
  )
)
