(module Oscillator_SMD_EuroQuartz_XO91-4Pin_7.0x5.0mm (layer F.Cu) (tedit 58CD3345)
  (descr "Miniature Crystal Clock Oscillator EuroQuartz XO91 series, http://cdn-reichelt.de/documents/datenblatt/B400/XO91.pdf, 7.0x5.0mm^2 package")
  (tags "SMD SMT crystal oscillator")
  (attr smd)
  (fp_text reference REF** (at 0 -4.1) (layer F.SilkS)
    (effects (font (size 1 1) (thickness 0.15)))
  )
  (fp_text value Oscillator_SMD_EuroQuartz_XO91-4Pin_7.0x5.0mm (at 0 4.1) (layer F.Fab)
    (effects (font (size 1 1) (thickness 0.15)))
  )
  (fp_text user %R (at 0 0) (layer F.Fab)
    (effects (font (size 1 1) (thickness 0.15)))
  )
  (fp_line (start -3.4 -2.5) (end 3.4 -2.5) (layer F.Fab) (width 0.1))
  (fp_line (start 3.4 -2.5) (end 3.5 -2.4) (layer F.Fab) (width 0.1))
  (fp_line (start 3.5 -2.4) (end 3.5 2.4) (layer F.Fab) (width 0.1))
  (fp_line (start 3.5 2.4) (end 3.4 2.5) (layer F.Fab) (width 0.1))
  (fp_line (start 3.4 2.5) (end -3.4 2.5) (layer F.Fab) (width 0.1))
  (fp_line (start -3.4 2.5) (end -3.5 2.4) (layer F.Fab) (width 0.1))
  (fp_line (start -3.5 2.4) (end -3.5 -2.4) (layer F.Fab) (width 0.1))
  (fp_line (start -3.5 -2.4) (end -3.4 -2.5) (layer F.Fab) (width 0.1))
  (fp_line (start -3.5 1.5) (end -2.5 2.5) (layer F.Fab) (width 0.1))
  (fp_line (start -3.8 -3.4) (end -3.8 3.4) (layer F.CrtYd) (width 0.05))
  (fp_line (start -3.8 3.4) (end 3.8 3.4) (layer F.CrtYd) (width 0.05))
  (fp_line (start 3.8 3.4) (end 3.8 -3.4) (layer F.CrtYd) (width 0.05))
  (fp_line (start 3.8 -3.4) (end -3.8 -3.4) (layer F.CrtYd) (width 0.05))
  (fp_circle (center 0 0) (end 1 0) (layer F.Adhes) (width 0.1))
  (fp_circle (center 0 0) (end 0.833333 0) (layer F.Adhes) (width 0.3333333333))
  (fp_circle (center 0 0) (end 0.533333 0) (layer F.Adhes) (width 0.3333333333))
  (fp_circle (center 0 0) (end 0.233333 0) (layer F.Adhes) (width 0.4666666667))
  (pad 1 smd rect (at -2.5 2.1) (size 2 2) (layers F.Cu F.Paste F.Mask))
  (pad 2 smd rect (at 2.5 2.1) (size 2 2) (layers F.Cu F.Paste F.Mask))
  (pad 3 smd rect (at 2.5 -2.1) (size 2 2) (layers F.Cu F.Paste F.Mask))
  (pad 4 smd rect (at -2.5 -2.1) (size 2 2) (layers F.Cu F.Paste F.Mask))
  (model ${KICAD6_3DMODEL_DIR}/Oscillator.3dshapes/Oscillator_SMD_EuroQuartz_XO91-4Pin_7.0x5.0mm.wrl
    (at (xyz 0 0 0))
    (scale (xyz 1 1 1))
    (rotate (xyz 0 0 0))
  )
)
