(module Oscillator_SMD_EuroQuartz_XO32-4Pin_3.2x2.5mm (layer F.Cu) (tedit 5F426860)
  (descr "Miniature Crystal Clock Oscillator EuroQuartz XO32 series, http://cdn-reichelt.de/documents/datenblatt/B400/XO32.pdf, 3.2x2.5mm^2 package")
  (tags "SMD SMT crystal oscillator")
  (attr smd)
  (fp_text reference REF** (at 0 -2.45) (layer F.SilkS)
    (effects (font (size 1 1) (thickness 0.15)))
  )
  (fp_text value Oscillator_SMD_EuroQuartz_XO32-4Pin_3.2x2.5mm (at 0 2.45) (layer F.Fab)
    (effects (font (size 1 1) (thickness 0.15)))
  )
  (fp_circle (center 0 0) (end 0 0.058333) (layer F.Adhes) (width 0.116667))
  (fp_circle (center 0 0) (end 0 0.133333) (layer F.Adhes) (width 0.083333))
  (fp_circle (center 0 0) (end 0 0.208333) (layer F.Adhes) (width 0.083333))
  (fp_circle (center 0 0) (end 0 0.25) (layer F.Adhes) (width 0.1))
  (fp_line (start 1.5 1.9) (end 1.5 -1.9) (layer F.CrtYd) (width 0.05))
  (fp_line (start -1.5 1.9) (end 1.5 1.9) (layer F.CrtYd) (width 0.05))
  (fp_line (start -1.5 -1.9) (end -1.5 1.9) (layer F.CrtYd) (width 0.05))
  (fp_line (start 1.5 -1.9) (end -1.5 -1.9) (layer F.CrtYd) (width 0.05))
  (fp_line (start -0.25 -1.6) (end -1.25 -0.6) (layer F.Fab) (width 0.1))
  (fp_line (start 1.15 -1.6) (end 1.25 -1.5) (layer F.Fab) (width 0.1))
  (fp_line (start -1.15 -1.6) (end 1.15 -1.6) (layer F.Fab) (width 0.1))
  (fp_line (start -1.25 -1.5) (end -1.15 -1.6) (layer F.Fab) (width 0.1))
  (fp_line (start -1.25 1.5) (end -1.25 -1.5) (layer F.Fab) (width 0.1))
  (fp_line (start -1.15 1.6) (end -1.25 1.5) (layer F.Fab) (width 0.1))
  (fp_line (start 1.15 1.6) (end -1.15 1.6) (layer F.Fab) (width 0.1))
  (fp_line (start 1.25 1.5) (end 1.15 1.6) (layer F.Fab) (width 0.1))
  (fp_line (start 1.25 -1.5) (end 1.25 1.5) (layer F.Fab) (width 0.1))
  (fp_line (start -1.485 -1.635) (end -1.485 -1.835) (layer F.SilkS) (width 0.12))
  (fp_line (start -1.485 -1.835) (end 1.3 -1.835) (layer F.SilkS) (width 0.12))
  (fp_line (start 1.3 1.835) (end -1.3 1.835) (layer F.SilkS) (width 0.12))
  (fp_text user %R (at 0 0 270) (layer F.Fab)
    (effects (font (size 0.7 0.7) (thickness 0.105)))
  )
  (pad 1 smd rect (at -0.775 -1.075 270) (size 1 0.9) (layers F.Cu F.Paste F.Mask))
  (pad 2 smd rect (at -0.775 1.075 270) (size 1 0.9) (layers F.Cu F.Paste F.Mask))
  (pad 3 smd rect (at 0.775 1.075 270) (size 1 0.9) (layers F.Cu F.Paste F.Mask))
  (pad 4 smd rect (at 0.775 -1.075 270) (size 1 0.9) (layers F.Cu F.Paste F.Mask))
  (model ${KICAD6_3DMODEL_DIR}/Oscillator.3dshapes/Oscillator_SMD_EuroQuartz_XO32-4Pin_3.2x2.5mm.wrl
    (at (xyz 0 0 0))
    (scale (xyz 1 1 1))
    (rotate (xyz 0 0 0))
  )
)
