(module Oscillator_SMD_Kyocera_2520-6Pin_2.5x2.0mm (layer F.Cu) (tedit 5C43AC3C)
  (descr https://global.kyocera.com/prdct/electro/product/pdf/kt2520_e.pdf)
  (tags "2.5mm 2mm SMD")
  (attr smd)
  (fp_text reference REF** (at 0 -2.7) (layer F.SilkS)
    (effects (font (size 1 1) (thickness 0.15)))
  )
  (fp_text value Oscillator_SMD_Kyocera_2520-6Pin_2.5x2.0mm (at 0 2.9) (layer F.Fab)
    (effects (font (size 1 1) (thickness 0.15)))
  )
  (fp_line (start -0.5 -1.25) (end 1 -1.25) (layer F.Fab) (width 0.1))
  (fp_line (start 1 -1.25) (end 1 1.25) (layer F.Fab) (width 0.1))
  (fp_line (start 1 1.25) (end -1 1.25) (layer F.Fab) (width 0.1))
  (fp_line (start -1 1.25) (end -1 -0.75) (layer F.Fab) (width 0.1))
  (fp_line (start -1 -0.75) (end -0.5 -1.25) (layer F.Fab) (width 0.1))
  (fp_text user %R (at 0 0 90) (layer F.Fab)
    (effects (font (size 0.5 0.5) (thickness 0.075)))
  )
  (fp_line (start 1.4 -1.65) (end 1.4 1.65) (layer F.CrtYd) (width 0.05))
  (fp_line (start 1.4 1.65) (end -1.4 1.65) (layer F.CrtYd) (width 0.05))
  (fp_line (start -1.4 1.65) (end -1.4 -1.65) (layer F.CrtYd) (width 0.05))
  (fp_line (start -1.4 -1.65) (end 1.4 -1.65) (layer F.CrtYd) (width 0.05))
  (fp_line (start 1.15 -1.5) (end -1.25 -1.5) (layer F.SilkS) (width 0.12))
  (fp_line (start -1.25 -1.5) (end -1.25 -0.9) (layer F.SilkS) (width 0.12))
  (fp_line (start -1.15 1.5) (end 1.15 1.5) (layer F.SilkS) (width 0.12))
  (pad 1 smd rect (at -0.7375 -1.15) (size 0.825 0.5) (layers F.Cu F.Paste F.Mask))
  (pad 2 smd rect (at -0.935 0) (size 0.43 0.7) (layers F.Cu F.Paste F.Mask))
  (pad 3 smd rect (at -0.7375 1.15) (size 0.825 0.5) (layers F.Cu F.Paste F.Mask))
  (pad 4 smd rect (at 0.7375 1.15) (size 0.825 0.5) (layers F.Cu F.Paste F.Mask))
  (pad 5 smd rect (at 0.935 0) (size 0.43 0.7) (layers F.Cu F.Paste F.Mask))
  (pad 6 smd rect (at 0.7375 -1.15) (size 0.825 0.5) (layers F.Cu F.Paste F.Mask))
  (model ${KICAD6_3DMODEL_DIR}/Oscillator.3dshapes/Oscillator_SMD_Kyocera_2520-6Pin_2.5x2.0mm.wrl
    (at (xyz 0 0 0))
    (scale (xyz 1 1 1))
    (rotate (xyz 0 0 0))
  )
)
