(module Oscillator_SMD_IQD_IQXO70-4Pin_7.5x5.0mm_HandSoldering (layer F.Cu) (tedit 58CD3345)
  (descr "IQD Crystal Clock Oscillator IQXO-70, http://www.iqdfrequencyproducts.com/products/details/iqxo-70-11-30.pdf, hand-soldering, 7.5x5.0mm^2 package")
  (tags "SMD SMT crystal oscillator hand-soldering")
  (attr smd)
  (fp_text reference REF** (at 0 -5.1) (layer F.SilkS)
    (effects (font (size 1 1) (thickness 0.15)))
  )
  (fp_text value Oscillator_SMD_IQD_IQXO70-4Pin_7.5x5.0mm_HandSoldering (at 0 5.1) (layer F.Fab)
    (effects (font (size 1 1) (thickness 0.15)))
  )
  (fp_text user %R (at 0 0) (layer F.Fab)
    (effects (font (size 1 1) (thickness 0.15)))
  )
  (fp_line (start -3.35 -2.5) (end 3.35 -2.5) (layer F.Fab) (width 0.1))
  (fp_line (start 3.35 -2.5) (end 3.75 -2.1) (layer F.Fab) (width 0.1))
  (fp_line (start 3.75 -2.1) (end 3.75 2.1) (layer F.Fab) (width 0.1))
  (fp_line (start 3.75 2.1) (end 3.35 2.5) (layer F.Fab) (width 0.1))
  (fp_line (start 3.35 2.5) (end -3.35 2.5) (layer F.Fab) (width 0.1))
  (fp_line (start -3.35 2.5) (end -3.75 2.1) (layer F.Fab) (width 0.1))
  (fp_line (start -3.75 2.1) (end -3.75 -2.1) (layer F.Fab) (width 0.1))
  (fp_line (start -3.75 -2.1) (end -3.35 -2.5) (layer F.Fab) (width 0.1))
  (fp_line (start -3.75 1.5) (end -2.75 2.5) (layer F.Fab) (width 0.1))
  (fp_line (start 3.82 -2.7) (end 3.95 -2.7) (layer F.SilkS) (width 0.12))
  (fp_line (start 3.95 -2.7) (end 3.95 2.7) (layer F.SilkS) (width 0.12))
  (fp_line (start 3.95 2.7) (end 3.82 2.7) (layer F.SilkS) (width 0.12))
  (fp_line (start -1.44 -2.7) (end 1.44 -2.7) (layer F.SilkS) (width 0.12))
  (fp_line (start -3.82 4.3) (end -3.82 2.7) (layer F.SilkS) (width 0.12))
  (fp_line (start -3.82 2.7) (end -3.95 2.7) (layer F.SilkS) (width 0.12))
  (fp_line (start -3.95 2.7) (end -3.95 -2.7) (layer F.SilkS) (width 0.12))
  (fp_line (start -3.95 -2.7) (end -3.82 -2.7) (layer F.SilkS) (width 0.12))
  (fp_line (start 1.44 2.7) (end -1.44 2.7) (layer F.SilkS) (width 0.12))
  (fp_line (start -1.44 2.7) (end -1.44 4.3) (layer F.SilkS) (width 0.12))
  (fp_line (start -4 -4.4) (end -4 4.4) (layer F.CrtYd) (width 0.05))
  (fp_line (start -4 4.4) (end 4 4.4) (layer F.CrtYd) (width 0.05))
  (fp_line (start 4 4.4) (end 4 -4.4) (layer F.CrtYd) (width 0.05))
  (fp_line (start 4 -4.4) (end -4 -4.4) (layer F.CrtYd) (width 0.05))
  (fp_circle (center 0 0) (end 1 0) (layer F.Adhes) (width 0.1))
  (fp_circle (center 0 0) (end 0.833333 0) (layer F.Adhes) (width 0.3333333333))
  (fp_circle (center 0 0) (end 0.533333 0) (layer F.Adhes) (width 0.3333333333))
  (fp_circle (center 0 0) (end 0.233333 0) (layer F.Adhes) (width 0.4666666667))
  (pad 1 smd rect (at -2.63 2.6) (size 1.98 3) (layers F.Cu F.Paste F.Mask))
  (pad 2 smd rect (at 2.63 2.6) (size 1.98 3) (layers F.Cu F.Paste F.Mask))
  (pad 3 smd rect (at 2.63 -2.6) (size 1.98 3) (layers F.Cu F.Paste F.Mask))
  (pad 4 smd rect (at -2.63 -2.6) (size 1.98 3) (layers F.Cu F.Paste F.Mask))
  (model ${KICAD6_3DMODEL_DIR}/Oscillator.3dshapes/Oscillator_SMD_IQD_IQXO70-4Pin_7.5x5.0mm_HandSoldering.wrl
    (at (xyz 0 0 0))
    (scale (xyz 1 1 1))
    (rotate (xyz 0 0 0))
  )
)
