(module Oscillator_SMD_Silicon_Labs_LGA-6_2.5x3.2mm_P1.25mm (layer F.Cu) (tedit 5CF9440C)
  (descr "Silicon_Labs  LGA, 6 Pin (https://www.silabs.com/documents/public/data-sheets/si512-13.pdf), generated with kicad-footprint-generator ipc_noLead_generator.py")
  (tags "Silicon_Labs LGA NoLead")
  (attr smd)
  (fp_text reference REF** (at 0 -2.55) (layer F.SilkS)
    (effects (font (size 1 1) (thickness 0.15)))
  )
  (fp_text value Oscillator_SMD_Silicon_Labs_LGA-6_2.5x3.2mm_P1.25mm (at 0 2.55) (layer F.Fab)
    (effects (font (size 1 1) (thickness 0.15)))
  )
  (fp_line (start 0 -1.71) (end 1.25 -1.71) (layer F.SilkS) (width 0.12))
  (fp_line (start -1.25 1.71) (end 1.25 1.71) (layer F.SilkS) (width 0.12))
  (fp_line (start -0.625 -1.6) (end 1.25 -1.6) (layer F.Fab) (width 0.1))
  (fp_line (start 1.25 -1.6) (end 1.25 1.6) (layer F.Fab) (width 0.1))
  (fp_line (start 1.25 1.6) (end -1.25 1.6) (layer F.Fab) (width 0.1))
  (fp_line (start -1.25 1.6) (end -1.25 -0.975) (layer F.Fab) (width 0.1))
  (fp_line (start -1.25 -0.975) (end -0.625 -1.6) (layer F.Fab) (width 0.1))
  (fp_line (start -1.5 -1.85) (end -1.5 1.85) (layer F.CrtYd) (width 0.05))
  (fp_line (start -1.5 1.85) (end 1.5 1.85) (layer F.CrtYd) (width 0.05))
  (fp_line (start 1.5 1.85) (end 1.5 -1.85) (layer F.CrtYd) (width 0.05))
  (fp_line (start 1.5 -1.85) (end -1.5 -1.85) (layer F.CrtYd) (width 0.05))
  (pad 1 smd roundrect (at -0.825 -1.25) (size 0.8 0.6) (layers F.Cu F.Mask F.Paste) (roundrect_rratio 0.25))
  (pad 2 smd roundrect (at -0.825 0) (size 0.8 0.6) (layers F.Cu F.Mask F.Paste) (roundrect_rratio 0.25))
  (pad 3 smd roundrect (at -0.825 1.25) (size 0.8 0.6) (layers F.Cu F.Mask F.Paste) (roundrect_rratio 0.25))
  (pad 4 smd roundrect (at 0.825 1.25) (size 0.8 0.6) (layers F.Cu F.Mask F.Paste) (roundrect_rratio 0.25))
  (pad 5 smd roundrect (at 0.825 0) (size 0.8 0.6) (layers F.Cu F.Mask F.Paste) (roundrect_rratio 0.25))
  (pad 6 smd roundrect (at 0.825 -1.25) (size 0.8 0.6) (layers F.Cu F.Mask F.Paste) (roundrect_rratio 0.25))
  (fp_text user %R (at 0 0) (layer F.Fab)
    (effects (font (size 0.62 0.62) (thickness 0.09)))
  )
  (model ${KICAD6_3DMODEL_DIR}/Oscillator.3dshapes/Oscillator_SMD_Silicon_Labs_LGA-6_2.5x3.2mm_P1.25mm.wrl
    (at (xyz 0 0 0))
    (scale (xyz 1 1 1))
    (rotate (xyz 0 0 0))
  )
)