(module Oscillator_SMD_Fordahl_DFAS2-4Pin_7.3x5.1mm_HandSoldering (layer F.Cu) (tedit 58CD3345)
  (descr "Mminiature Crystal Clock Oscillator TXCO Fordahl DFA S2-KS/LS/US, http://www.iqdfrequencyproducts.com/products/details/iqxo-70-11-30.pdf, hand-soldering, 7.3x5.1mm^2 package")
  (tags "SMD SMT crystal oscillator hand-soldering")
  (attr smd)
  (fp_text reference REF** (at 0 -5.2) (layer F.SilkS)
    (effects (font (size 1 1) (thickness 0.15)))
  )
  (fp_text value Oscillator_SMD_Fordahl_DFAS2-4Pin_7.3x5.1mm_HandSoldering (at 0 5.2) (layer F.Fab)
    (effects (font (size 1 1) (thickness 0.15)))
  )
  (fp_text user %R (at 0 0) (layer F.Fab)
    (effects (font (size 1 1) (thickness 0.15)))
  )
  (fp_line (start -3.55 -2.54) (end 3.55 -2.54) (layer F.Fab) (width 0.1))
  (fp_line (start 3.55 -2.54) (end 3.65 -2.44) (layer F.Fab) (width 0.1))
  (fp_line (start 3.65 -2.44) (end 3.65 2.44) (layer F.Fab) (width 0.1))
  (fp_line (start 3.65 2.44) (end 3.55 2.54) (layer F.Fab) (width 0.1))
  (fp_line (start 3.55 2.54) (end -3.55 2.54) (layer F.Fab) (width 0.1))
  (fp_line (start -3.55 2.54) (end -3.65 2.44) (layer F.Fab) (width 0.1))
  (fp_line (start -3.65 2.44) (end -3.65 -2.44) (layer F.Fab) (width 0.1))
  (fp_line (start -3.65 -2.44) (end -3.55 -2.54) (layer F.Fab) (width 0.1))
  (fp_line (start -3.65 1.54) (end -2.65 2.54) (layer F.Fab) (width 0.1))
  (fp_line (start 3.58 -2.74) (end 3.85 -2.74) (layer F.SilkS) (width 0.12))
  (fp_line (start 3.85 -2.74) (end 3.85 2.74) (layer F.SilkS) (width 0.12))
  (fp_line (start 3.85 2.74) (end 3.58 2.74) (layer F.SilkS) (width 0.12))
  (fp_line (start -1.64 -2.74) (end 1.64 -2.74) (layer F.SilkS) (width 0.12))
  (fp_line (start -3.58 4.4) (end -3.58 2.74) (layer F.SilkS) (width 0.12))
  (fp_line (start -3.58 2.74) (end -3.85 2.74) (layer F.SilkS) (width 0.12))
  (fp_line (start -3.85 2.74) (end -3.85 -2.74) (layer F.SilkS) (width 0.12))
  (fp_line (start -3.85 -2.74) (end -3.58 -2.74) (layer F.SilkS) (width 0.12))
  (fp_line (start 1.64 2.74) (end -1.64 2.74) (layer F.SilkS) (width 0.12))
  (fp_line (start -1.64 2.74) (end -1.64 4.4) (layer F.SilkS) (width 0.12))
  (fp_line (start -3.9 -4.5) (end -3.9 4.5) (layer F.CrtYd) (width 0.05))
  (fp_line (start -3.9 4.5) (end 3.9 4.5) (layer F.CrtYd) (width 0.05))
  (fp_line (start 3.9 4.5) (end 3.9 -4.5) (layer F.CrtYd) (width 0.05))
  (fp_line (start 3.9 -4.5) (end -3.9 -4.5) (layer F.CrtYd) (width 0.05))
  (fp_circle (center 0 0) (end 1 0) (layer F.Adhes) (width 0.1))
  (fp_circle (center 0 0) (end 0.833333 0) (layer F.Adhes) (width 0.3333333333))
  (fp_circle (center 0 0) (end 0.533333 0) (layer F.Adhes) (width 0.3333333333))
  (fp_circle (center 0 0) (end 0.233333 0) (layer F.Adhes) (width 0.4666666667))
  (pad 1 smd rect (at -2.61 2.7) (size 1.54 3) (layers F.Cu F.Paste F.Mask))
  (pad 2 smd rect (at 2.61 2.7) (size 1.54 3) (layers F.Cu F.Paste F.Mask))
  (pad 3 smd rect (at 2.61 -2.7) (size 1.54 3) (layers F.Cu F.Paste F.Mask))
  (pad 4 smd rect (at -2.61 -2.7) (size 1.54 3) (layers F.Cu F.Paste F.Mask))
  (model ${KICAD6_3DMODEL_DIR}/Oscillator.3dshapes/Oscillator_SMD_Fordahl_DFAS2-4Pin_7.3x5.1mm_HandSoldering.wrl
    (at (xyz 0 0 0))
    (scale (xyz 1 1 1))
    (rotate (xyz 0 0 0))
  )
)
