(module Oscillator_SMD_TXC_7C-4Pin_5.0x3.2mm_HandSoldering (layer F.Cu) (tedit 58CD3345)
  (descr "Miniature Crystal Clock Oscillator TXC 7C series, http://www.txccorp.com/download/products/osc/7C_o.pdf, hand-soldering, 5.0x3.2mm^2 package")
  (tags "SMD SMT crystal oscillator hand-soldering")
  (attr smd)
  (fp_text reference REF** (at 0 -3.3) (layer F.SilkS)
    (effects (font (size 1 1) (thickness 0.15)))
  )
  (fp_text value Oscillator_SMD_TXC_7C-4Pin_5.0x3.2mm_HandSoldering (at 0 3.3) (layer F.Fab)
    (effects (font (size 1 1) (thickness 0.15)))
  )
  (fp_text user %R (at 0 0) (layer F.Fab)
    (effects (font (size 1 1) (thickness 0.15)))
  )
  (fp_line (start -2.3 -1.6) (end 2.3 -1.6) (layer F.Fab) (width 0.1))
  (fp_line (start 2.3 -1.6) (end 2.5 -1.4) (layer F.Fab) (width 0.1))
  (fp_line (start 2.5 -1.4) (end 2.5 1.4) (layer F.Fab) (width 0.1))
  (fp_line (start 2.5 1.4) (end 2.3 1.6) (layer F.Fab) (width 0.1))
  (fp_line (start 2.3 1.6) (end -2.3 1.6) (layer F.Fab) (width 0.1))
  (fp_line (start -2.3 1.6) (end -2.5 1.4) (layer F.Fab) (width 0.1))
  (fp_line (start -2.5 1.4) (end -2.5 -1.4) (layer F.Fab) (width 0.1))
  (fp_line (start -2.5 -1.4) (end -2.3 -1.6) (layer F.Fab) (width 0.1))
  (fp_line (start -2.5 0.6) (end -1.5 1.6) (layer F.Fab) (width 0.1))
  (fp_line (start 2.31 -1.8) (end 2.7 -1.8) (layer F.SilkS) (width 0.12))
  (fp_line (start 2.7 -1.8) (end 2.7 1.8) (layer F.SilkS) (width 0.12))
  (fp_line (start 2.7 1.8) (end 2.31 1.8) (layer F.SilkS) (width 0.12))
  (fp_line (start -0.37 -1.8) (end 0.37 -1.8) (layer F.SilkS) (width 0.12))
  (fp_line (start -2.31 2.5) (end -2.31 1.8) (layer F.SilkS) (width 0.12))
  (fp_line (start -2.31 1.8) (end -2.7 1.8) (layer F.SilkS) (width 0.12))
  (fp_line (start -2.7 1.8) (end -2.7 -1.8) (layer F.SilkS) (width 0.12))
  (fp_line (start -2.7 -1.8) (end -2.31 -1.8) (layer F.SilkS) (width 0.12))
  (fp_line (start 0.37 1.8) (end -0.37 1.8) (layer F.SilkS) (width 0.12))
  (fp_line (start -0.37 1.8) (end -0.37 2.5) (layer F.SilkS) (width 0.12))
  (fp_line (start -2.8 -2.6) (end -2.8 2.6) (layer F.CrtYd) (width 0.05))
  (fp_line (start -2.8 2.6) (end 2.8 2.6) (layer F.CrtYd) (width 0.05))
  (fp_line (start 2.8 2.6) (end 2.8 -2.6) (layer F.CrtYd) (width 0.05))
  (fp_line (start 2.8 -2.6) (end -2.8 -2.6) (layer F.CrtYd) (width 0.05))
  (fp_circle (center 0 0) (end 0.5 0) (layer F.Adhes) (width 0.1))
  (fp_circle (center 0 0) (end 0.416667 0) (layer F.Adhes) (width 0.1666666667))
  (fp_circle (center 0 0) (end 0.266667 0) (layer F.Adhes) (width 0.1666666667))
  (fp_circle (center 0 0) (end 0.116667 0) (layer F.Adhes) (width 0.2333333333))
  (pad 1 smd rect (at -1.34 1.4) (size 1.54 1.8) (layers F.Cu F.Paste F.Mask))
  (pad 2 smd rect (at 1.34 1.4) (size 1.54 1.8) (layers F.Cu F.Paste F.Mask))
  (pad 3 smd rect (at 1.34 -1.4) (size 1.54 1.8) (layers F.Cu F.Paste F.Mask))
  (pad 4 smd rect (at -1.34 -1.4) (size 1.54 1.8) (layers F.Cu F.Paste F.Mask))
  (model ${KICAD6_3DMODEL_DIR}/Oscillator.3dshapes/Oscillator_SMD_TXC_7C-4Pin_5.0x3.2mm_HandSoldering.wrl
    (at (xyz 0 0 0))
    (scale (xyz 1 1 1))
    (rotate (xyz 0 0 0))
  )
)
