(module Heatsink_62x40mm_2xFixation3mm (layer F.Cu) (tedit 5A1FFA20)
  (descr "Heatsink, 62 x 40mm, 2x 3mm Drills,")
  (tags heatsink)
  (fp_text reference REF** (at 27.686 -34.417) (layer F.SilkS)
    (effects (font (size 1 1) (thickness 0.15)))
  )
  (fp_text value Heatsink_62x40mm_2xFixation3mm (at 30.607 -3.937) (layer F.Fab)
    (effects (font (size 1 1) (thickness 0.15)))
  )
  (fp_text user %R (at 31.052 -20.002) (layer F.Fab)
    (effects (font (size 1 1) (thickness 0.15)))
  )
  (fp_line (start 67.056 -12.359) (end 62.106 -12.359) (layer F.SilkS) (width 0.12))
  (fp_line (start 67.056 -4.659) (end 62.106 -4.659) (layer F.SilkS) (width 0.12))
  (fp_line (start 67.056 -4.759) (end 62.006 -4.759) (layer F.Fab) (width 0.1))
  (fp_line (start 67.056 -12.259) (end 62.006 -12.259) (layer F.Fab) (width 0.1))
  (fp_line (start -4.953 -27.746) (end 0 -27.753) (layer F.Fab) (width 0.1))
  (fp_line (start -4.953 -35.246) (end 0 -35.246) (layer F.Fab) (width 0.1))
  (fp_line (start -0.103 -27.646) (end -4.953 -27.646) (layer F.SilkS) (width 0.12))
  (fp_line (start -4.953 -35.346) (end -0.103 -35.346) (layer F.SilkS) (width 0.12))
  (fp_line (start -0.1 0.1) (end 62.1 0.1) (layer F.SilkS) (width 0.12))
  (fp_line (start 62.1 0.1) (end 62.1 -40.1) (layer F.SilkS) (width 0.12))
  (fp_line (start 62.1 -40.1) (end -0.1 -40.1) (layer F.SilkS) (width 0.12))
  (fp_line (start -0.1 -40.1) (end -0.1 0.1) (layer F.SilkS) (width 0.12))
  (fp_line (start -8.95 -40.25) (end 71.06 -40.25) (layer F.CrtYd) (width 0.05))
  (fp_line (start -8.95 -40.25) (end -8.95 0.25) (layer F.CrtYd) (width 0.05))
  (fp_line (start 71.06 0.25) (end 71.06 -40.25) (layer F.CrtYd) (width 0.05))
  (fp_line (start 71.06 0.25) (end -8.95 0.25) (layer F.CrtYd) (width 0.05))
  (fp_line (start 62 -40) (end 62 0) (layer F.Fab) (width 0.1))
  (fp_line (start 62 0) (end 0 0) (layer F.Fab) (width 0.1))
  (fp_line (start 0 0) (end 0 -40) (layer F.Fab) (width 0.1))
  (fp_line (start 0 -40) (end 62 -40) (layer F.Fab) (width 0.1))
  (fp_arc (start 67.056 -8.509) (end 67.056 -4.759) (angle -180) (layer F.Fab) (width 0.1))
  (fp_arc (start -4.953 -31.496) (end -4.953 -35.346) (angle -180) (layer F.SilkS) (width 0.12))
  (fp_arc (start -4.953 -31.496) (end -4.953 -35.246) (angle -180) (layer F.Fab) (width 0.1))
  (fp_arc (start 67.056 -8.509) (end 67.056 -4.659) (angle -180) (layer F.SilkS) (width 0.12))
  (pad 1 thru_hole circle (at 67.056 -8.509) (size 6.49732 6.49732) (drill 3.0988) (layers *.Cu *.Mask))
  (pad 1 thru_hole circle (at -4.953 -31.496) (size 6.49732 6.49732) (drill 3.0988) (layers *.Cu *.Mask))
  (model ${KICAD6_3DMODEL_DIR}/Heatsink.3dshapes/Heatsink_62x40mm_2xFixation3mm.wrl
    (at (xyz 0 0 0))
    (scale (xyz 1 1 1))
    (rotate (xyz 0 0 0))
  )
)
