(module Potentiometer_Bourns_TC33X_Vertical (layer F.Cu) (tedit 5C165D15)
  (descr "Potentiometer, Bourns, TC33X, Vertical, https://www.bourns.com/pdfs/TC33.pdf")
  (tags "Potentiometer Bourns TC33X Vertical")
  (attr smd)
  (fp_text reference REF** (at 0 -2.5) (layer F.SilkS)
    (effects (font (size 1 1) (thickness 0.15)))
  )
  (fp_text value Potentiometer_Bourns_TC33X_Vertical (at 0 2.5) (layer F.Fab)
    (effects (font (size 1 1) (thickness 0.15)))
  )
  (fp_circle (center 0 0) (end 1.5 0) (layer F.Fab) (width 0.1))
  (fp_line (start -2 -0.75) (end -2 1.5) (layer F.Fab) (width 0.1))
  (fp_line (start -2 1.5) (end 1.8 1.5) (layer F.Fab) (width 0.1))
  (fp_line (start 1.8 1.5) (end 1.8 -1.5) (layer F.Fab) (width 0.1))
  (fp_line (start 1.8 -1.5) (end -1.25 -1.5) (layer F.Fab) (width 0.1))
  (fp_line (start -1.25 -1.5) (end -2 -0.75) (layer F.Fab) (width 0.1))
  (fp_text user %R (at 0 0) (layer F.Fab)
    (effects (font (size 0.7 0.7) (thickness 0.105)))
  )
  (fp_line (start -2.1 -0.2) (end -2.1 0.2) (layer F.SilkS) (width 0.12))
  (fp_line (start -1 -1.6) (end 1.9 -1.6) (layer F.SilkS) (width 0.12))
  (fp_line (start 1.9 -1.6) (end 1.9 -1) (layer F.SilkS) (width 0.12))
  (fp_line (start -1 1.6) (end 1.9 1.6) (layer F.SilkS) (width 0.12))
  (fp_line (start 1.9 1.6) (end 1.9 1) (layer F.SilkS) (width 0.12))
  (fp_line (start -1.9 -1.8) (end -2.6 -1.8) (layer F.SilkS) (width 0.12))
  (fp_line (start -2.6 -1.8) (end -2.6 -1.1) (layer F.SilkS) (width 0.12))
  (fp_line (start -2.65 -1.85) (end 2.45 -1.85) (layer F.CrtYd) (width 0.05))
  (fp_line (start 2.45 -1.85) (end 2.45 1.85) (layer F.CrtYd) (width 0.05))
  (fp_line (start 2.45 1.85) (end -2.65 1.85) (layer F.CrtYd) (width 0.05))
  (fp_line (start -2.65 1.85) (end -2.65 -1.85) (layer F.CrtYd) (width 0.05))
  (fp_circle (center 0 0) (end 1.8 0) (layer Dwgs.User) (width 0.05))
  (fp_text user "Wiper may be\nanywhere within\ncircle shown" (at -0.15 -0.8) (layer Cmts.User)
    (effects (font (size 0.15 0.15) (thickness 0.02)))
  )
  (pad 1 smd rect (at -1.8 -1) (size 1.2 1.2) (layers F.Cu F.Paste F.Mask))
  (pad 3 smd rect (at -1.8 1) (size 1.2 1.2) (layers F.Cu F.Paste F.Mask))
  (pad 2 smd rect (at 1.45 0) (size 1.5 1.6) (layers F.Cu F.Paste F.Mask))
  (model ${KICAD6_3DMODEL_DIR}/Potentiometer_SMD.3dshapes/Potentiometer_Bourns_TC33X_Vertical.wrl
    (at (xyz 0 0 0))
    (scale (xyz 1 1 1))
    (rotate (xyz 0 0 0))
  )
)
