(module Potentiometer_Bourns_3314G_Vertical (layer F.Cu) (tedit 5A81E1D7)
  (descr "Potentiometer, vertical, Bourns 3314G, http://www.bourns.com/docs/Product-Datasheets/3314.pdf")
  (tags "Potentiometer vertical Bourns 3314G")
  (attr smd)
  (fp_text reference REF** (at 0 -4.65) (layer F.SilkS)
    (effects (font (size 1 1) (thickness 0.15)))
  )
  (fp_text value Potentiometer_Bourns_3314G_Vertical (at 0 4.65) (layer F.Fab)
    (effects (font (size 1 1) (thickness 0.15)))
  )
  (fp_circle (center 0 0) (end 1 0) (layer F.Fab) (width 0.1))
  (fp_line (start -2.25 -2.25) (end -2.25 2.25) (layer F.Fab) (width 0.1))
  (fp_line (start -2.25 2.25) (end 2.25 2.25) (layer F.Fab) (width 0.1))
  (fp_line (start 2.25 2.25) (end 2.25 -2.25) (layer F.Fab) (width 0.1))
  (fp_line (start 2.25 -2.25) (end -2.25 -2.25) (layer F.Fab) (width 0.1))
  (fp_line (start 0 0.99) (end 0.001 -0.989) (layer F.Fab) (width 0.1))
  (fp_line (start 0 0.99) (end 0.001 -0.989) (layer F.Fab) (width 0.1))
  (fp_line (start 2.04 -2.37) (end 2.37 -2.37) (layer F.SilkS) (width 0.12))
  (fp_line (start -2.37 -2.37) (end -2.039 -2.37) (layer F.SilkS) (width 0.12))
  (fp_line (start -0.259 -2.37) (end 0.26 -2.37) (layer F.SilkS) (width 0.12))
  (fp_line (start -2.37 2.37) (end -1.24 2.37) (layer F.SilkS) (width 0.12))
  (fp_line (start 1.24 2.37) (end 2.37 2.37) (layer F.SilkS) (width 0.12))
  (fp_line (start -2.37 -2.37) (end -2.37 2.37) (layer F.SilkS) (width 0.12))
  (fp_line (start 2.37 -2.37) (end 2.37 2.37) (layer F.SilkS) (width 0.12))
  (fp_line (start -2.5 -3.65) (end -2.5 3.65) (layer F.CrtYd) (width 0.05))
  (fp_line (start -2.5 3.65) (end 2.5 3.65) (layer F.CrtYd) (width 0.05))
  (fp_line (start 2.5 3.65) (end 2.5 -3.65) (layer F.CrtYd) (width 0.05))
  (fp_line (start 2.5 -3.65) (end -2.5 -3.65) (layer F.CrtYd) (width 0.05))
  (pad 1 smd rect (at 1.15 -2.75) (size 1.3 1.3) (layers F.Cu F.Paste F.Mask))
  (pad 2 smd rect (at 0 2.75) (size 2 1.3) (layers F.Cu F.Paste F.Mask))
  (pad 3 smd rect (at -1.15 -2.75) (size 1.3 1.3) (layers F.Cu F.Paste F.Mask))
  (fp_text user %R (at 0 -1.7) (layer F.Fab)
    (effects (font (size 0.63 0.63) (thickness 0.15)))
  )
  (model ${KICAD6_3DMODEL_DIR}/Potentiometer_SMD.3dshapes/Potentiometer_Bourns_3314G_Vertical.wrl
    (at (xyz 0 0 0))
    (scale (xyz 1 1 1))
    (rotate (xyz 0 0 0))
  )
)