(module Potentiometer_Bourns_3314S_Horizontal (layer F.Cu) (tedit 5A81E1D7)
  (descr "Potentiometer, horizontal, Bourns 3314S, http://www.bourns.com/docs/Product-Datasheets/3314.pdf")
  (tags "Potentiometer horizontal Bourns 3314S")
  (attr smd)
  (fp_text reference REF** (at 0 -4.15) (layer F.SilkS)
    (effects (font (size 1 1) (thickness 0.15)))
  )
  (fp_text value Potentiometer_Bourns_3314S_Horizontal (at 0 4.15) (layer F.Fab)
    (effects (font (size 1 1) (thickness 0.15)))
  )
  (fp_line (start -2.505 -2.25) (end -2.505 2.25) (layer F.Fab) (width 0.1))
  (fp_line (start -2.505 2.25) (end 2.505 2.25) (layer F.Fab) (width 0.1))
  (fp_line (start 2.505 2.25) (end 2.505 -2.25) (layer F.Fab) (width 0.1))
  (fp_line (start 2.505 -2.25) (end -2.505 -2.25) (layer F.Fab) (width 0.1))
  (fp_line (start 1.99 -2.37) (end 2.625 -2.37) (layer F.SilkS) (width 0.12))
  (fp_line (start -2.625 -2.37) (end -1.99 -2.37) (layer F.SilkS) (width 0.12))
  (fp_line (start -0.31 -2.37) (end 0.31 -2.37) (layer F.SilkS) (width 0.12))
  (fp_line (start -2.625 2.37) (end -1.04 2.37) (layer F.SilkS) (width 0.12))
  (fp_line (start 1.04 2.37) (end 2.625 2.37) (layer F.SilkS) (width 0.12))
  (fp_line (start -2.625 -2.37) (end -2.625 2.37) (layer F.SilkS) (width 0.12))
  (fp_line (start 2.625 -2.37) (end 2.625 2.37) (layer F.SilkS) (width 0.12))
  (fp_line (start -2.8 -3.15) (end -2.8 3.2) (layer F.CrtYd) (width 0.05))
  (fp_line (start -2.8 3.2) (end 2.8 3.2) (layer F.CrtYd) (width 0.05))
  (fp_line (start 2.8 3.2) (end 2.8 -3.15) (layer F.CrtYd) (width 0.05))
  (fp_line (start 2.8 -3.15) (end -2.8 -3.15) (layer F.CrtYd) (width 0.05))
  (pad 1 smd rect (at 1.15 -2.025) (size 1.2 1.75) (layers F.Cu F.Paste F.Mask))
  (pad 2 smd rect (at 0 2.025) (size 1.6 1.75) (layers F.Cu F.Paste F.Mask))
  (pad 3 smd rect (at -1.15 -2.025) (size 1.2 1.75) (layers F.Cu F.Paste F.Mask))
  (fp_text user %R (at 0 0) (layer F.Fab)
    (effects (font (size 1 1) (thickness 0.15)))
  )
  (model ${KICAD6_3DMODEL_DIR}/Potentiometer_SMD.3dshapes/Potentiometer_Bourns_3314S_Horizontal.wrl
    (at (xyz 0 0 0))
    (scale (xyz 1 1 1))
    (rotate (xyz 0 0 0))
  )
)