(module Potentiometer_ACP_CA9-VSMD_Vertical (layer F.Cu) (tedit 5A3D7171)
  (descr "Potentiometer, vertical, ACP CA9-VSMD, http://www.acptechnologies.com/wp-content/uploads/2017/05/02-ACP-CA9-CE9.pdf")
  (tags "Potentiometer vertical ACP CA9-VSMD")
  (attr smd)
  (fp_text reference REF** (at 0 -6.15) (layer F.SilkS)
    (effects (font (size 1 1) (thickness 0.15)))
  )
  (fp_text value Potentiometer_ACP_CA9-VSMD_Vertical (at 0 6.15) (layer F.Fab)
    (effects (font (size 1 1) (thickness 0.15)))
  )
  (fp_circle (center 0.125 0) (end 1.175 0) (layer F.Fab) (width 0.1))
  (fp_line (start -5 -4.9) (end -5 4.9) (layer F.Fab) (width 0.1))
  (fp_line (start -5 4.9) (end 5 4.9) (layer F.Fab) (width 0.1))
  (fp_line (start 5 4.9) (end 5 -4.9) (layer F.Fab) (width 0.1))
  (fp_line (start 5 -4.9) (end -5 -4.9) (layer F.Fab) (width 0.1))
  (fp_line (start -5.12 -5.021) (end 5.12 -5.021) (layer F.SilkS) (width 0.12))
  (fp_line (start -5.12 5.02) (end 5.12 5.02) (layer F.SilkS) (width 0.12))
  (fp_line (start -5.12 -5.021) (end -5.12 -3.991) (layer F.SilkS) (width 0.12))
  (fp_line (start -5.12 -1.009) (end -5.12 1.01) (layer F.SilkS) (width 0.12))
  (fp_line (start -5.12 3.99) (end -5.12 5.02) (layer F.SilkS) (width 0.12))
  (fp_line (start 5.12 -5.021) (end 5.12 -1.49) (layer F.SilkS) (width 0.12))
  (fp_line (start 5.12 1.49) (end 5.12 5.02) (layer F.SilkS) (width 0.12))
  (fp_line (start -6.15 -5.15) (end -6.15 5.15) (layer F.CrtYd) (width 0.05))
  (fp_line (start -6.15 5.15) (end 6.15 5.15) (layer F.CrtYd) (width 0.05))
  (fp_line (start 6.15 5.15) (end 6.15 -5.15) (layer F.CrtYd) (width 0.05))
  (fp_line (start 6.15 -5.15) (end -6.15 -5.15) (layer F.CrtYd) (width 0.05))
  (pad 3 smd rect (at -4.625 -2.5) (size 2.5 2.5) (layers F.Cu F.Paste F.Mask))
  (pad 2 smd rect (at 4.625 0) (size 2.5 2.5) (layers F.Cu F.Paste F.Mask))
  (pad 1 smd rect (at -4.625 2.5) (size 2.5 2.5) (layers F.Cu F.Paste F.Mask))
  (fp_text user %R (at -4 0 90) (layer F.Fab)
    (effects (font (size 1 1) (thickness 0.15)))
  )
  (model ${KICAD6_3DMODEL_DIR}/Potentiometer_SMD.3dshapes/Potentiometer_ACP_CA9-VSMD_Vertical.wrl
    (at (xyz 0 0 0))
    (scale (xyz 1 1 1))
    (rotate (xyz 0 0 0))
  )
)