(module Potentiometer_ACP_CA6-VSMD_Vertical (layer F.Cu) (tedit 5A3D7171)
  (descr "Potentiometer, vertical, ACP CA6-VSMD, http://www.acptechnologies.com/wp-content/uploads/2017/06/01-ACP-CA6.pdf")
  (tags "Potentiometer vertical ACP CA6-VSMD")
  (attr smd)
  (fp_text reference REF** (at 0 -4.5) (layer F.SilkS)
    (effects (font (size 1 1) (thickness 0.15)))
  )
  (fp_text value Potentiometer_ACP_CA6-VSMD_Vertical (at 0 4.5) (layer F.Fab)
    (effects (font (size 1 1) (thickness 0.15)))
  )
  (fp_circle (center 0.275 0) (end 1.175 0) (layer F.Fab) (width 0.1))
  (fp_line (start -3.25 -3.25) (end -3.25 3.25) (layer F.Fab) (width 0.1))
  (fp_line (start -3.25 3.25) (end 3.25 3.25) (layer F.Fab) (width 0.1))
  (fp_line (start 3.25 3.25) (end 3.25 -3.25) (layer F.Fab) (width 0.1))
  (fp_line (start 3.25 -3.25) (end -3.25 -3.25) (layer F.Fab) (width 0.1))
  (fp_line (start -2.834 -3.371) (end 3.37 -3.371) (layer F.SilkS) (width 0.12))
  (fp_line (start -2.834 3.37) (end 3.37 3.37) (layer F.SilkS) (width 0.12))
  (fp_line (start -3.37 -0.909) (end -3.37 0.91) (layer F.SilkS) (width 0.12))
  (fp_line (start 3.37 -3.371) (end 3.37 -1.24) (layer F.SilkS) (width 0.12))
  (fp_line (start 3.37 1.24) (end 3.37 3.37) (layer F.SilkS) (width 0.12))
  (fp_line (start -5.85 -3.5) (end -5.85 3.5) (layer F.CrtYd) (width 0.05))
  (fp_line (start -5.85 3.5) (end 5.85 3.5) (layer F.CrtYd) (width 0.05))
  (fp_line (start 5.85 3.5) (end 5.85 -3.5) (layer F.CrtYd) (width 0.05))
  (fp_line (start 5.85 -3.5) (end -5.85 -3.5) (layer F.CrtYd) (width 0.05))
  (pad 3 smd rect (at -4.325 -2.15) (size 2.5 2) (layers F.Cu F.Paste F.Mask))
  (pad 2 smd rect (at 4.325 0) (size 2.5 2) (layers F.Cu F.Paste F.Mask))
  (pad 1 smd rect (at -4.325 2.15) (size 2.5 2) (layers F.Cu F.Paste F.Mask))
  (fp_text user %R (at -2.25 0 90) (layer F.Fab)
    (effects (font (size 1 1) (thickness 0.15)))
  )
  (model ${KICAD6_3DMODEL_DIR}/Potentiometer_SMD.3dshapes/Potentiometer_ACP_CA6-VSMD_Vertical.wrl
    (at (xyz 0 0 0))
    (scale (xyz 1 1 1))
    (rotate (xyz 0 0 0))
  )
)