(module C_Axial_L3.8mm_D2.6mm_P10.00mm_Horizontal (layer F.Cu) (tedit 5AE50EF0)
  (descr "C, Axial series, Axial, Horizontal, pin pitch=10mm, , length*diameter=3.8*2.6mm^2, http://www.vishay.com/docs/45231/arseries.pdf")
  (tags "C Axial series Axial Horizontal pin pitch 10mm  length 3.8mm diameter 2.6mm")
  (fp_text reference REF** (at 5 -2.42) (layer F.SilkS)
    (effects (font (size 1 1) (thickness 0.15)))
  )
  (fp_text value C_Axial_L3.8mm_D2.6mm_P10.00mm_Horizontal (at 5 2.42) (layer F.Fab)
    (effects (font (size 1 1) (thickness 0.15)))
  )
  (fp_line (start 3.1 -1.3) (end 3.1 1.3) (layer F.Fab) (width 0.1))
  (fp_line (start 3.1 1.3) (end 6.9 1.3) (layer F.Fab) (width 0.1))
  (fp_line (start 6.9 1.3) (end 6.9 -1.3) (layer F.Fab) (width 0.1))
  (fp_line (start 6.9 -1.3) (end 3.1 -1.3) (layer F.Fab) (width 0.1))
  (fp_line (start 0 0) (end 3.1 0) (layer F.Fab) (width 0.1))
  (fp_line (start 10 0) (end 6.9 0) (layer F.Fab) (width 0.1))
  (fp_line (start 2.98 -1.42) (end 2.98 1.42) (layer F.SilkS) (width 0.12))
  (fp_line (start 2.98 1.42) (end 7.02 1.42) (layer F.SilkS) (width 0.12))
  (fp_line (start 7.02 1.42) (end 7.02 -1.42) (layer F.SilkS) (width 0.12))
  (fp_line (start 7.02 -1.42) (end 2.98 -1.42) (layer F.SilkS) (width 0.12))
  (fp_line (start 1.04 0) (end 2.98 0) (layer F.SilkS) (width 0.12))
  (fp_line (start 8.96 0) (end 7.02 0) (layer F.SilkS) (width 0.12))
  (fp_line (start -1.05 -1.55) (end -1.05 1.55) (layer F.CrtYd) (width 0.05))
  (fp_line (start -1.05 1.55) (end 11.05 1.55) (layer F.CrtYd) (width 0.05))
  (fp_line (start 11.05 1.55) (end 11.05 -1.55) (layer F.CrtYd) (width 0.05))
  (fp_line (start 11.05 -1.55) (end -1.05 -1.55) (layer F.CrtYd) (width 0.05))
  (pad 1 thru_hole circle (at 0 0) (size 1.6 1.6) (drill 0.8) (layers *.Cu *.Mask))
  (pad 2 thru_hole oval (at 10 0) (size 1.6 1.6) (drill 0.8) (layers *.Cu *.Mask))
  (fp_text user %R (at 5 0) (layer F.Fab)
    (effects (font (size 0.76 0.76) (thickness 0.114)))
  )
  (model ${KICAD6_3DMODEL_DIR}/Capacitor_THT.3dshapes/C_Axial_L3.8mm_D2.6mm_P10.00mm_Horizontal.wrl
    (at (xyz 0 0 0))
    (scale (xyz 1 1 1))
    (rotate (xyz 0 0 0))
  )
)