(module C_Axial_L19.0mm_D9.5mm_P25.00mm_Horizontal (layer F.Cu) (tedit 5AE50EF0)
  (descr "C, Axial series, Axial, Horizontal, pin pitch=25mm, , length*diameter=19*9.5mm^2, http://cdn-reichelt.de/documents/datenblatt/B300/STYROFLEX.pdf")
  (tags "C Axial series Axial Horizontal pin pitch 25mm  length 19mm diameter 9.5mm")
  (fp_text reference REF** (at 12.5 -5.87) (layer F.SilkS)
    (effects (font (size 1 1) (thickness 0.15)))
  )
  (fp_text value C_Axial_L19.0mm_D9.5mm_P25.00mm_Horizontal (at 12.5 5.87) (layer F.Fab)
    (effects (font (size 1 1) (thickness 0.15)))
  )
  (fp_line (start 3 -4.75) (end 3 4.75) (layer F.Fab) (width 0.1))
  (fp_line (start 3 4.75) (end 22 4.75) (layer F.Fab) (width 0.1))
  (fp_line (start 22 4.75) (end 22 -4.75) (layer F.Fab) (width 0.1))
  (fp_line (start 22 -4.75) (end 3 -4.75) (layer F.Fab) (width 0.1))
  (fp_line (start 0 0) (end 3 0) (layer F.Fab) (width 0.1))
  (fp_line (start 25 0) (end 22 0) (layer F.Fab) (width 0.1))
  (fp_line (start 2.88 -4.87) (end 2.88 4.87) (layer F.SilkS) (width 0.12))
  (fp_line (start 2.88 4.87) (end 22.12 4.87) (layer F.SilkS) (width 0.12))
  (fp_line (start 22.12 4.87) (end 22.12 -4.87) (layer F.SilkS) (width 0.12))
  (fp_line (start 22.12 -4.87) (end 2.88 -4.87) (layer F.SilkS) (width 0.12))
  (fp_line (start 1.04 0) (end 2.88 0) (layer F.SilkS) (width 0.12))
  (fp_line (start 23.96 0) (end 22.12 0) (layer F.SilkS) (width 0.12))
  (fp_line (start -1.05 -5) (end -1.05 5) (layer F.CrtYd) (width 0.05))
  (fp_line (start -1.05 5) (end 26.05 5) (layer F.CrtYd) (width 0.05))
  (fp_line (start 26.05 5) (end 26.05 -5) (layer F.CrtYd) (width 0.05))
  (fp_line (start 26.05 -5) (end -1.05 -5) (layer F.CrtYd) (width 0.05))
  (pad 1 thru_hole circle (at 0 0) (size 1.6 1.6) (drill 0.8) (layers *.Cu *.Mask))
  (pad 2 thru_hole oval (at 25 0) (size 1.6 1.6) (drill 0.8) (layers *.Cu *.Mask))
  (fp_text user %R (at 12.5 0) (layer F.Fab)
    (effects (font (size 1 1) (thickness 0.15)))
  )
  (model ${KICAD6_3DMODEL_DIR}/Capacitor_THT.3dshapes/C_Axial_L19.0mm_D9.5mm_P25.00mm_Horizontal.wrl
    (at (xyz 0 0 0))
    (scale (xyz 1 1 1))
    (rotate (xyz 0 0 0))
  )
)