(module C_Axial_L17.0mm_D6.5mm_P20.00mm_Horizontal (layer F.Cu) (tedit 5AE50EF0)
  (descr "C, Axial series, Axial, Horizontal, pin pitch=20mm, , length*diameter=17*6.5mm^2, http://cdn-reichelt.de/documents/datenblatt/B300/STYROFLEX.pdf")
  (tags "C Axial series Axial Horizontal pin pitch 20mm  length 17mm diameter 6.5mm")
  (fp_text reference REF** (at 10 -4.37) (layer F.SilkS)
    (effects (font (size 1 1) (thickness 0.15)))
  )
  (fp_text value C_Axial_L17.0mm_D6.5mm_P20.00mm_Horizontal (at 10 4.37) (layer F.Fab)
    (effects (font (size 1 1) (thickness 0.15)))
  )
  (fp_line (start 1.5 -3.25) (end 1.5 3.25) (layer F.Fab) (width 0.1))
  (fp_line (start 1.5 3.25) (end 18.5 3.25) (layer F.Fab) (width 0.1))
  (fp_line (start 18.5 3.25) (end 18.5 -3.25) (layer F.Fab) (width 0.1))
  (fp_line (start 18.5 -3.25) (end 1.5 -3.25) (layer F.Fab) (width 0.1))
  (fp_line (start 0 0) (end 1.5 0) (layer F.Fab) (width 0.1))
  (fp_line (start 20 0) (end 18.5 0) (layer F.Fab) (width 0.1))
  (fp_line (start 1.38 -3.37) (end 1.38 3.37) (layer F.SilkS) (width 0.12))
  (fp_line (start 1.38 3.37) (end 18.62 3.37) (layer F.SilkS) (width 0.12))
  (fp_line (start 18.62 3.37) (end 18.62 -3.37) (layer F.SilkS) (width 0.12))
  (fp_line (start 18.62 -3.37) (end 1.38 -3.37) (layer F.SilkS) (width 0.12))
  (fp_line (start 1.04 0) (end 1.38 0) (layer F.SilkS) (width 0.12))
  (fp_line (start 18.96 0) (end 18.62 0) (layer F.SilkS) (width 0.12))
  (fp_line (start -1.05 -3.5) (end -1.05 3.5) (layer F.CrtYd) (width 0.05))
  (fp_line (start -1.05 3.5) (end 21.05 3.5) (layer F.CrtYd) (width 0.05))
  (fp_line (start 21.05 3.5) (end 21.05 -3.5) (layer F.CrtYd) (width 0.05))
  (fp_line (start 21.05 -3.5) (end -1.05 -3.5) (layer F.CrtYd) (width 0.05))
  (pad 1 thru_hole circle (at 0 0) (size 1.6 1.6) (drill 0.8) (layers *.Cu *.Mask))
  (pad 2 thru_hole oval (at 20 0) (size 1.6 1.6) (drill 0.8) (layers *.Cu *.Mask))
  (fp_text user %R (at 10 0) (layer F.Fab)
    (effects (font (size 1 1) (thickness 0.15)))
  )
  (model ${KICAD6_3DMODEL_DIR}/Capacitor_THT.3dshapes/C_Axial_L17.0mm_D6.5mm_P20.00mm_Horizontal.wrl
    (at (xyz 0 0 0))
    (scale (xyz 1 1 1))
    (rotate (xyz 0 0 0))
  )
)