(module C_Disc_D7.5mm_W4.4mm_P5.00mm (layer F.Cu) (tedit 5AE50EF0)
  (descr "C, Disc series, Radial, pin pitch=5.00mm, , diameter*width=7.5*4.4mm^2, Capacitor")
  (tags "C Disc series Radial pin pitch 5.00mm  diameter 7.5mm width 4.4mm Capacitor")
  (fp_text reference REF** (at 2.5 -3.45) (layer F.SilkS)
    (effects (font (size 1 1) (thickness 0.15)))
  )
  (fp_text value C_Disc_D7.5mm_W4.4mm_P5.00mm (at 2.5 3.45) (layer F.Fab)
    (effects (font (size 1 1) (thickness 0.15)))
  )
  (fp_line (start -1.25 -2.2) (end -1.25 2.2) (layer F.Fab) (width 0.1))
  (fp_line (start -1.25 2.2) (end 6.25 2.2) (layer F.Fab) (width 0.1))
  (fp_line (start 6.25 2.2) (end 6.25 -2.2) (layer F.Fab) (width 0.1))
  (fp_line (start 6.25 -2.2) (end -1.25 -2.2) (layer F.Fab) (width 0.1))
  (fp_line (start -1.37 -2.321) (end 6.37 -2.321) (layer F.SilkS) (width 0.12))
  (fp_line (start -1.37 2.321) (end 6.37 2.321) (layer F.SilkS) (width 0.12))
  (fp_line (start -1.37 -2.321) (end -1.37 2.321) (layer F.SilkS) (width 0.12))
  (fp_line (start 6.37 -2.321) (end 6.37 2.321) (layer F.SilkS) (width 0.12))
  (fp_line (start -1.5 -2.45) (end -1.5 2.45) (layer F.CrtYd) (width 0.05))
  (fp_line (start -1.5 2.45) (end 6.5 2.45) (layer F.CrtYd) (width 0.05))
  (fp_line (start 6.5 2.45) (end 6.5 -2.45) (layer F.CrtYd) (width 0.05))
  (fp_line (start 6.5 -2.45) (end -1.5 -2.45) (layer F.CrtYd) (width 0.05))
  (pad 1 thru_hole circle (at 0 0) (size 1.6 1.6) (drill 0.8) (layers *.Cu *.Mask))
  (pad 2 thru_hole circle (at 5 0) (size 1.6 1.6) (drill 0.8) (layers *.Cu *.Mask))
  (fp_text user %R (at 2.5 0) (layer F.Fab)
    (effects (font (size 1 1) (thickness 0.15)))
  )
  (model ${KICAD6_3DMODEL_DIR}/Capacitor_THT.3dshapes/C_Disc_D7.5mm_W4.4mm_P5.00mm.wrl
    (at (xyz 0 0 0))
    (scale (xyz 1 1 1))
    (rotate (xyz 0 0 0))
  )
)