(module C_Disc_D11.0mm_W5.0mm_P10.00mm (layer F.Cu) (tedit 5AE50EF0)
  (descr "C, Disc series, Radial, pin pitch=10.00mm, , diameter*width=11*5.0mm^2, Capacitor, http://www.vishay.com/docs/28535/vy2series.pdf")
  (tags "C Disc series Radial pin pitch 10.00mm  diameter 11mm width 5.0mm Capacitor")
  (fp_text reference REF** (at 5 -3.75) (layer F.SilkS)
    (effects (font (size 1 1) (thickness 0.15)))
  )
  (fp_text value C_Disc_D11.0mm_W5.0mm_P10.00mm (at 5 3.75) (layer F.Fab)
    (effects (font (size 1 1) (thickness 0.15)))
  )
  (fp_line (start -0.5 -2.5) (end -0.5 2.5) (layer F.Fab) (width 0.1))
  (fp_line (start -0.5 2.5) (end 10.5 2.5) (layer F.Fab) (width 0.1))
  (fp_line (start 10.5 2.5) (end 10.5 -2.5) (layer F.Fab) (width 0.1))
  (fp_line (start 10.5 -2.5) (end -0.5 -2.5) (layer F.Fab) (width 0.1))
  (fp_line (start -0.62 -2.62) (end 10.62 -2.62) (layer F.SilkS) (width 0.12))
  (fp_line (start -0.62 2.62) (end 10.62 2.62) (layer F.SilkS) (width 0.12))
  (fp_line (start -0.62 -2.62) (end -0.62 -1.101) (layer F.SilkS) (width 0.12))
  (fp_line (start -0.62 1.101) (end -0.62 2.62) (layer F.SilkS) (width 0.12))
  (fp_line (start 10.62 -2.62) (end 10.62 -1.101) (layer F.SilkS) (width 0.12))
  (fp_line (start 10.62 1.101) (end 10.62 2.62) (layer F.SilkS) (width 0.12))
  (fp_line (start -1.25 -2.75) (end -1.25 2.75) (layer F.CrtYd) (width 0.05))
  (fp_line (start -1.25 2.75) (end 11.25 2.75) (layer F.CrtYd) (width 0.05))
  (fp_line (start 11.25 2.75) (end 11.25 -2.75) (layer F.CrtYd) (width 0.05))
  (fp_line (start 11.25 -2.75) (end -1.25 -2.75) (layer F.CrtYd) (width 0.05))
  (pad 1 thru_hole circle (at 0 0) (size 2 2) (drill 1) (layers *.Cu *.Mask))
  (pad 2 thru_hole circle (at 10 0) (size 2 2) (drill 1) (layers *.Cu *.Mask))
  (fp_text user %R (at 5 0) (layer F.Fab)
    (effects (font (size 1 1) (thickness 0.15)))
  )
  (model ${KICAD6_3DMODEL_DIR}/Capacitor_THT.3dshapes/C_Disc_D11.0mm_W5.0mm_P10.00mm.wrl
    (at (xyz 0 0 0))
    (scale (xyz 1 1 1))
    (rotate (xyz 0 0 0))
  )
)