(module C_Radial_D16.0mm_H31.5mm_P7.50mm (layer F.Cu) (tedit 5BC5C9BA)
  (descr "C, Radial series, Radial, pin pitch=7.50mm, diameter=16mm, height=31.5mm, Non-Polar Electrolytic Capacitor")
  (tags "C Radial series Radial pin pitch 7.50mm diameter 16mm height 31.5mm Non-Polar Electrolytic Capacitor")
  (fp_text reference REF** (at 3.75 -9.25) (layer F.SilkS)
    (effects (font (size 1 1) (thickness 0.15)))
  )
  (fp_text value C_Radial_D16.0mm_H31.5mm_P7.50mm (at 3.75 9.25) (layer F.Fab)
    (effects (font (size 1 1) (thickness 0.15)))
  )
  (fp_circle (center 3.75 0) (end 11.75 0) (layer F.Fab) (width 0.1))
  (fp_circle (center 3.75 0) (end 11.87 0) (layer F.SilkS) (width 0.12))
  (fp_circle (center 3.75 0) (end 12 0) (layer F.CrtYd) (width 0.05))
  (pad 1 thru_hole circle (at 0 0) (size 2 2) (drill 1) (layers *.Cu *.Mask))
  (pad 2 thru_hole circle (at 7.5 0) (size 2 2) (drill 1) (layers *.Cu *.Mask))
  (fp_text user %R (at 3.75 0) (layer F.Fab)
    (effects (font (size 1 1) (thickness 0.15)))
  )
  (model ${KICAD6_3DMODEL_DIR}/Capacitor_THT.3dshapes/C_Radial_D16.0mm_H31.5mm_P7.50mm.wrl
    (at (xyz 0 0 0))
    (scale (xyz 1 1 1))
    (rotate (xyz 0 0 0))
  )
)