(module C_Radial_D4.0mm_H5.0mm_P1.50mm (layer F.Cu) (tedit 5BC5C9B9)
  (descr "C, Radial series, Radial, pin pitch=1.50mm, diameter=4mm, height=5mm, Non-Polar Electrolytic Capacitor")
  (tags "C Radial series Radial pin pitch 1.50mm diameter 4mm height 5mm Non-Polar Electrolytic Capacitor")
  (fp_text reference REF** (at 0.75 -3.25) (layer F.SilkS)
    (effects (font (size 1 1) (thickness 0.15)))
  )
  (fp_text value C_Radial_D4.0mm_H5.0mm_P1.50mm (at 0.75 3.25) (layer F.Fab)
    (effects (font (size 1 1) (thickness 0.15)))
  )
  (fp_circle (center 0.75 0) (end 2.75 0) (layer F.Fab) (width 0.1))
  (fp_circle (center 0.75 0) (end 2.87 0) (layer F.SilkS) (width 0.12))
  (fp_circle (center 0.75 0) (end 3 0) (layer F.CrtYd) (width 0.05))
  (pad 1 thru_hole circle (at 0 0) (size 1.2 1.2) (drill 0.6) (layers *.Cu *.Mask))
  (pad 2 thru_hole circle (at 1.5 0) (size 1.2 1.2) (drill 0.6) (layers *.Cu *.Mask))
  (fp_text user %R (at 0.75 0) (layer F.Fab)
    (effects (font (size 0.8 0.8) (thickness 0.12)))
  )
  (model ${KICAD6_3DMODEL_DIR}/Capacitor_THT.3dshapes/C_Radial_D4.0mm_H5.0mm_P1.50mm.wrl
    (at (xyz 0 0 0))
    (scale (xyz 1 1 1))
    (rotate (xyz 0 0 0))
  )
)