(module C_Radial_D10.0mm_H20.0mm_P5.00mm (layer F.Cu) (tedit 5BC5C9BA)
  (descr "C, Radial series, Radial, pin pitch=5.00mm, diameter=10mm, height=20mm, Non-Polar Electrolytic Capacitor")
  (tags "C Radial series Radial pin pitch 5.00mm diameter 10mm height 20mm Non-Polar Electrolytic Capacitor")
  (fp_text reference REF** (at 2.5 -6.25) (layer F.SilkS)
    (effects (font (size 1 1) (thickness 0.15)))
  )
  (fp_text value C_Radial_D10.0mm_H20.0mm_P5.00mm (at 2.5 6.25) (layer F.Fab)
    (effects (font (size 1 1) (thickness 0.15)))
  )
  (fp_circle (center 2.5 0) (end 7.5 0) (layer F.Fab) (width 0.1))
  (fp_circle (center 2.5 0) (end 7.62 0) (layer F.SilkS) (width 0.12))
  (fp_circle (center 2.5 0) (end 7.75 0) (layer F.CrtYd) (width 0.05))
  (pad 1 thru_hole circle (at 0 0) (size 1.6 1.6) (drill 0.8) (layers *.Cu *.Mask))
  (pad 2 thru_hole circle (at 5 0) (size 1.6 1.6) (drill 0.8) (layers *.Cu *.Mask))
  (fp_text user %R (at 2.5 0) (layer F.Fab)
    (effects (font (size 1 1) (thickness 0.15)))
  )
  (model ${KICAD6_3DMODEL_DIR}/Capacitor_THT.3dshapes/C_Radial_D10.0mm_H20.0mm_P5.00mm.wrl
    (at (xyz 0 0 0))
    (scale (xyz 1 1 1))
    (rotate (xyz 0 0 0))
  )
)