(module C_Rect_L29.0mm_W13.8mm_P27.50mm_MKT (layer F.Cu) (tedit 5AE50EF0)
  (descr "C, Rect series, Radial, pin pitch=27.50mm, , length*width=29*13.8mm^2, Capacitor, https://en.tdk.eu/inf/20/20/db/fc_2009/MKT_B32560_564.pdf")
  (tags "C Rect series Radial pin pitch 27.50mm  length 29mm width 13.8mm Capacitor")
  (fp_text reference REF** (at 13.75 -8.15) (layer F.SilkS)
    (effects (font (size 1 1) (thickness 0.15)))
  )
  (fp_text value C_Rect_L29.0mm_W13.8mm_P27.50mm_MKT (at 13.75 8.15) (layer F.Fab)
    (effects (font (size 1 1) (thickness 0.15)))
  )
  (fp_line (start -0.75 -6.9) (end -0.75 6.9) (layer F.Fab) (width 0.1))
  (fp_line (start -0.75 6.9) (end 28.25 6.9) (layer F.Fab) (width 0.1))
  (fp_line (start 28.25 6.9) (end 28.25 -6.9) (layer F.Fab) (width 0.1))
  (fp_line (start 28.25 -6.9) (end -0.75 -6.9) (layer F.Fab) (width 0.1))
  (fp_line (start -0.87 -7.02) (end 28.37 -7.02) (layer F.SilkS) (width 0.12))
  (fp_line (start -0.87 7.02) (end 28.37 7.02) (layer F.SilkS) (width 0.12))
  (fp_line (start -0.87 -7.02) (end -0.87 -1.185) (layer F.SilkS) (width 0.12))
  (fp_line (start -0.87 1.185) (end -0.87 7.02) (layer F.SilkS) (width 0.12))
  (fp_line (start 28.37 -7.02) (end 28.37 -1.185) (layer F.SilkS) (width 0.12))
  (fp_line (start 28.37 1.185) (end 28.37 7.02) (layer F.SilkS) (width 0.12))
  (fp_line (start -1.45 -7.15) (end -1.45 7.15) (layer F.CrtYd) (width 0.05))
  (fp_line (start -1.45 7.15) (end 28.95 7.15) (layer F.CrtYd) (width 0.05))
  (fp_line (start 28.95 7.15) (end 28.95 -7.15) (layer F.CrtYd) (width 0.05))
  (fp_line (start 28.95 -7.15) (end -1.45 -7.15) (layer F.CrtYd) (width 0.05))
  (pad 1 thru_hole circle (at 0 0) (size 2.4 2.4) (drill 1.2) (layers *.Cu *.Mask))
  (pad 2 thru_hole circle (at 27.5 0) (size 2.4 2.4) (drill 1.2) (layers *.Cu *.Mask))
  (fp_text user %R (at 13.75 0) (layer F.Fab)
    (effects (font (size 1 1) (thickness 0.15)))
  )
  (model ${KICAD6_3DMODEL_DIR}/Capacitor_THT.3dshapes/C_Rect_L29.0mm_W13.8mm_P27.50mm_MKT.wrl
    (at (xyz 0 0 0))
    (scale (xyz 1 1 1))
    (rotate (xyz 0 0 0))
  )
)