(module C_Rect_L24.0mm_W7.0mm_P22.50mm_MKT (layer F.Cu) (tedit 5AE50EF0)
  (descr "C, Rect series, Radial, pin pitch=22.50mm, , length*width=24*7mm^2, Capacitor, https://en.tdk.eu/inf/20/20/db/fc_2009/MKT_B32560_564.pdf")
  (tags "C Rect series Radial pin pitch 22.50mm  length 24mm width 7mm Capacitor")
  (fp_text reference REF** (at 11.25 -4.75) (layer F.SilkS)
    (effects (font (size 1 1) (thickness 0.15)))
  )
  (fp_text value C_Rect_L24.0mm_W7.0mm_P22.50mm_MKT (at 11.25 4.75) (layer F.Fab)
    (effects (font (size 1 1) (thickness 0.15)))
  )
  (fp_line (start -0.75 -3.5) (end -0.75 3.5) (layer F.Fab) (width 0.1))
  (fp_line (start -0.75 3.5) (end 23.25 3.5) (layer F.Fab) (width 0.1))
  (fp_line (start 23.25 3.5) (end 23.25 -3.5) (layer F.Fab) (width 0.1))
  (fp_line (start 23.25 -3.5) (end -0.75 -3.5) (layer F.Fab) (width 0.1))
  (fp_line (start -0.87 -3.62) (end 23.37 -3.62) (layer F.SilkS) (width 0.12))
  (fp_line (start -0.87 3.62) (end 23.37 3.62) (layer F.SilkS) (width 0.12))
  (fp_line (start -0.87 -3.62) (end -0.87 -1.185) (layer F.SilkS) (width 0.12))
  (fp_line (start -0.87 1.185) (end -0.87 3.62) (layer F.SilkS) (width 0.12))
  (fp_line (start 23.37 -3.62) (end 23.37 -1.185) (layer F.SilkS) (width 0.12))
  (fp_line (start 23.37 1.185) (end 23.37 3.62) (layer F.SilkS) (width 0.12))
  (fp_line (start -1.45 -3.75) (end -1.45 3.75) (layer F.CrtYd) (width 0.05))
  (fp_line (start -1.45 3.75) (end 23.95 3.75) (layer F.CrtYd) (width 0.05))
  (fp_line (start 23.95 3.75) (end 23.95 -3.75) (layer F.CrtYd) (width 0.05))
  (fp_line (start 23.95 -3.75) (end -1.45 -3.75) (layer F.CrtYd) (width 0.05))
  (pad 1 thru_hole circle (at 0 0) (size 2.4 2.4) (drill 1.2) (layers *.Cu *.Mask))
  (pad 2 thru_hole circle (at 22.5 0) (size 2.4 2.4) (drill 1.2) (layers *.Cu *.Mask))
  (fp_text user %R (at 11.25 0) (layer F.Fab)
    (effects (font (size 1 1) (thickness 0.15)))
  )
  (model ${KICAD6_3DMODEL_DIR}/Capacitor_THT.3dshapes/C_Rect_L24.0mm_W7.0mm_P22.50mm_MKT.wrl
    (at (xyz 0 0 0))
    (scale (xyz 1 1 1))
    (rotate (xyz 0 0 0))
  )
)