(module C_Rect_L13.0mm_W8.0mm_P10.00mm_FKS3_FKP3_MKS4 (layer F.Cu) (tedit 5AE50EF0)
  (descr "C, Rect series, Radial, pin pitch=10.00mm, , length*width=13*8mm^2, Capacitor, http://www.wima.com/EN/WIMA_FKS_3.pdf, http://www.wima.com/EN/WIMA_MKS_4.pdf")
  (tags "C Rect series Radial pin pitch 10.00mm  length 13mm width 8mm Capacitor")
  (fp_text reference REF** (at 5 -5.25) (layer F.SilkS)
    (effects (font (size 1 1) (thickness 0.15)))
  )
  (fp_text value C_Rect_L13.0mm_W8.0mm_P10.00mm_FKS3_FKP3_MKS4 (at 5 5.25) (layer F.Fab)
    (effects (font (size 1 1) (thickness 0.15)))
  )
  (fp_line (start -1.5 -4) (end -1.5 4) (layer F.Fab) (width 0.1))
  (fp_line (start -1.5 4) (end 11.5 4) (layer F.Fab) (width 0.1))
  (fp_line (start 11.5 4) (end 11.5 -4) (layer F.Fab) (width 0.1))
  (fp_line (start 11.5 -4) (end -1.5 -4) (layer F.Fab) (width 0.1))
  (fp_line (start -1.62 -4.12) (end 11.62 -4.12) (layer F.SilkS) (width 0.12))
  (fp_line (start -1.62 4.12) (end 11.62 4.12) (layer F.SilkS) (width 0.12))
  (fp_line (start -1.62 -4.12) (end -1.62 4.12) (layer F.SilkS) (width 0.12))
  (fp_line (start 11.62 -4.12) (end 11.62 4.12) (layer F.SilkS) (width 0.12))
  (fp_line (start -1.75 -4.25) (end -1.75 4.25) (layer F.CrtYd) (width 0.05))
  (fp_line (start -1.75 4.25) (end 11.75 4.25) (layer F.CrtYd) (width 0.05))
  (fp_line (start 11.75 4.25) (end 11.75 -4.25) (layer F.CrtYd) (width 0.05))
  (fp_line (start 11.75 -4.25) (end -1.75 -4.25) (layer F.CrtYd) (width 0.05))
  (pad 1 thru_hole circle (at 0 0) (size 2 2) (drill 1) (layers *.Cu *.Mask))
  (pad 2 thru_hole circle (at 10 0) (size 2 2) (drill 1) (layers *.Cu *.Mask))
  (fp_text user %R (at 5 0) (layer F.Fab)
    (effects (font (size 1 1) (thickness 0.15)))
  )
  (model ${KICAD6_3DMODEL_DIR}/Capacitor_THT.3dshapes/C_Rect_L13.0mm_W8.0mm_P10.00mm_FKS3_FKP3_MKS4.wrl
    (at (xyz 0 0 0))
    (scale (xyz 1 1 1))
    (rotate (xyz 0 0 0))
  )
)