(module C_Rect_L16.5mm_W9.2mm_P15.00mm_MKT (layer F.Cu) (tedit 5AE50EF0)
  (descr "C, Rect series, Radial, pin pitch=15.00mm, , length*width=16.5*9.2mm^2, Capacitor, https://en.tdk.eu/inf/20/20/db/fc_2009/MKT_B32560_564.pdf")
  (tags "C Rect series Radial pin pitch 15.00mm  length 16.5mm width 9.2mm Capacitor")
  (fp_text reference REF** (at 7.5 -5.85) (layer F.SilkS)
    (effects (font (size 1 1) (thickness 0.15)))
  )
  (fp_text value C_Rect_L16.5mm_W9.2mm_P15.00mm_MKT (at 7.5 5.85) (layer F.Fab)
    (effects (font (size 1 1) (thickness 0.15)))
  )
  (fp_line (start -0.75 -4.6) (end -0.75 4.6) (layer F.Fab) (width 0.1))
  (fp_line (start -0.75 4.6) (end 15.75 4.6) (layer F.Fab) (width 0.1))
  (fp_line (start 15.75 4.6) (end 15.75 -4.6) (layer F.Fab) (width 0.1))
  (fp_line (start 15.75 -4.6) (end -0.75 -4.6) (layer F.Fab) (width 0.1))
  (fp_line (start -0.87 -4.72) (end 15.87 -4.72) (layer F.SilkS) (width 0.12))
  (fp_line (start -0.87 4.72) (end 15.87 4.72) (layer F.SilkS) (width 0.12))
  (fp_line (start -0.87 -4.72) (end -0.87 -1.104) (layer F.SilkS) (width 0.12))
  (fp_line (start -0.87 1.104) (end -0.87 4.72) (layer F.SilkS) (width 0.12))
  (fp_line (start 15.87 -4.72) (end 15.87 -1.104) (layer F.SilkS) (width 0.12))
  (fp_line (start 15.87 1.104) (end 15.87 4.72) (layer F.SilkS) (width 0.12))
  (fp_line (start -1.35 -4.85) (end -1.35 4.85) (layer F.CrtYd) (width 0.05))
  (fp_line (start -1.35 4.85) (end 16.35 4.85) (layer F.CrtYd) (width 0.05))
  (fp_line (start 16.35 4.85) (end 16.35 -4.85) (layer F.CrtYd) (width 0.05))
  (fp_line (start 16.35 -4.85) (end -1.35 -4.85) (layer F.CrtYd) (width 0.05))
  (pad 1 thru_hole circle (at 0 0) (size 2.2 2.2) (drill 1.1) (layers *.Cu *.Mask))
  (pad 2 thru_hole circle (at 15 0) (size 2.2 2.2) (drill 1.1) (layers *.Cu *.Mask))
  (fp_text user %R (at 7.5 0) (layer F.Fab)
    (effects (font (size 1 1) (thickness 0.15)))
  )
  (model ${KICAD6_3DMODEL_DIR}/Capacitor_THT.3dshapes/C_Rect_L16.5mm_W9.2mm_P15.00mm_MKT.wrl
    (at (xyz 0 0 0))
    (scale (xyz 1 1 1))
    (rotate (xyz 0 0 0))
  )
)