(module C_Rect_L11.5mm_W5.2mm_P10.00mm_MKT (layer F.Cu) (tedit 5AE50EF0)
  (descr "C, Rect series, Radial, pin pitch=10.00mm, , length*width=11.5*5.2mm^2, Capacitor, https://en.tdk.eu/inf/20/20/db/fc_2009/MKT_B32560_564.pdf")
  (tags "C Rect series Radial pin pitch 10.00mm  length 11.5mm width 5.2mm Capacitor")
  (fp_text reference REF** (at 5 -3.85) (layer F.SilkS)
    (effects (font (size 1 1) (thickness 0.15)))
  )
  (fp_text value C_Rect_L11.5mm_W5.2mm_P10.00mm_MKT (at 5 3.85) (layer F.Fab)
    (effects (font (size 1 1) (thickness 0.15)))
  )
  (fp_line (start -0.75 -2.6) (end -0.75 2.6) (layer F.Fab) (width 0.1))
  (fp_line (start -0.75 2.6) (end 10.75 2.6) (layer F.Fab) (width 0.1))
  (fp_line (start 10.75 2.6) (end 10.75 -2.6) (layer F.Fab) (width 0.1))
  (fp_line (start 10.75 -2.6) (end -0.75 -2.6) (layer F.Fab) (width 0.1))
  (fp_line (start -0.87 -2.72) (end 10.87 -2.72) (layer F.SilkS) (width 0.12))
  (fp_line (start -0.87 2.72) (end 10.87 2.72) (layer F.SilkS) (width 0.12))
  (fp_line (start -0.87 -2.72) (end -0.87 -0.665) (layer F.SilkS) (width 0.12))
  (fp_line (start -0.87 0.665) (end -0.87 2.72) (layer F.SilkS) (width 0.12))
  (fp_line (start 10.87 -2.72) (end 10.87 -0.665) (layer F.SilkS) (width 0.12))
  (fp_line (start 10.87 0.665) (end 10.87 2.72) (layer F.SilkS) (width 0.12))
  (fp_line (start -1.05 -2.85) (end -1.05 2.85) (layer F.CrtYd) (width 0.05))
  (fp_line (start -1.05 2.85) (end 11.05 2.85) (layer F.CrtYd) (width 0.05))
  (fp_line (start 11.05 2.85) (end 11.05 -2.85) (layer F.CrtYd) (width 0.05))
  (fp_line (start 11.05 -2.85) (end -1.05 -2.85) (layer F.CrtYd) (width 0.05))
  (pad 1 thru_hole circle (at 0 0) (size 1.6 1.6) (drill 0.8) (layers *.Cu *.Mask))
  (pad 2 thru_hole circle (at 10 0) (size 1.6 1.6) (drill 0.8) (layers *.Cu *.Mask))
  (fp_text user %R (at 5 0) (layer F.Fab)
    (effects (font (size 1 1) (thickness 0.15)))
  )
  (model ${KICAD6_3DMODEL_DIR}/Capacitor_THT.3dshapes/C_Rect_L11.5mm_W5.2mm_P10.00mm_MKT.wrl
    (at (xyz 0 0 0))
    (scale (xyz 1 1 1))
    (rotate (xyz 0 0 0))
  )
)