(module C_Rect_L18.0mm_W5.0mm_P15.00mm_FKS3_FKP3 (layer F.Cu) (tedit 5AE50EF0)
  (descr "C, Rect series, Radial, pin pitch=15.00mm, , length*width=18*5mm^2, Capacitor, http://www.wima.com/EN/WIMA_FKS_3.pdf")
  (tags "C Rect series Radial pin pitch 15.00mm  length 18mm width 5mm Capacitor")
  (fp_text reference REF** (at 7.5 -3.75) (layer F.SilkS)
    (effects (font (size 1 1) (thickness 0.15)))
  )
  (fp_text value C_Rect_L18.0mm_W5.0mm_P15.00mm_FKS3_FKP3 (at 7.5 3.75) (layer F.Fab)
    (effects (font (size 1 1) (thickness 0.15)))
  )
  (fp_line (start -1.5 -2.5) (end -1.5 2.5) (layer F.Fab) (width 0.1))
  (fp_line (start -1.5 2.5) (end 16.5 2.5) (layer F.Fab) (width 0.1))
  (fp_line (start 16.5 2.5) (end 16.5 -2.5) (layer F.Fab) (width 0.1))
  (fp_line (start 16.5 -2.5) (end -1.5 -2.5) (layer F.Fab) (width 0.1))
  (fp_line (start -1.62 -2.62) (end 16.62 -2.62) (layer F.SilkS) (width 0.12))
  (fp_line (start -1.62 2.62) (end 16.62 2.62) (layer F.SilkS) (width 0.12))
  (fp_line (start -1.62 -2.62) (end -1.62 2.62) (layer F.SilkS) (width 0.12))
  (fp_line (start 16.62 -2.62) (end 16.62 2.62) (layer F.SilkS) (width 0.12))
  (fp_line (start -1.75 -2.75) (end -1.75 2.75) (layer F.CrtYd) (width 0.05))
  (fp_line (start -1.75 2.75) (end 16.75 2.75) (layer F.CrtYd) (width 0.05))
  (fp_line (start 16.75 2.75) (end 16.75 -2.75) (layer F.CrtYd) (width 0.05))
  (fp_line (start 16.75 -2.75) (end -1.75 -2.75) (layer F.CrtYd) (width 0.05))
  (pad 1 thru_hole circle (at 0 0) (size 2.4 2.4) (drill 1.2) (layers *.Cu *.Mask))
  (pad 2 thru_hole circle (at 15 0) (size 2.4 2.4) (drill 1.2) (layers *.Cu *.Mask))
  (fp_text user %R (at 7.5 0) (layer F.Fab)
    (effects (font (size 1 1) (thickness 0.15)))
  )
  (model ${KICAD6_3DMODEL_DIR}/Capacitor_THT.3dshapes/C_Rect_L18.0mm_W5.0mm_P15.00mm_FKS3_FKP3.wrl
    (at (xyz 0 0 0))
    (scale (xyz 1 1 1))
    (rotate (xyz 0 0 0))
  )
)