(module C_Rect_L31.5mm_W15.0mm_P27.50mm_MKS4 (layer F.Cu) (tedit 5AE50EF0)
  (descr "C, Rect series, Radial, pin pitch=27.50mm, , length*width=31.5*15mm^2, Capacitor, http://www.wima.com/EN/WIMA_MKS_4.pdf")
  (tags "C Rect series Radial pin pitch 27.50mm  length 31.5mm width 15mm Capacitor")
  (fp_text reference REF** (at 13.75 -8.75) (layer F.SilkS)
    (effects (font (size 1 1) (thickness 0.15)))
  )
  (fp_text value C_Rect_L31.5mm_W15.0mm_P27.50mm_MKS4 (at 13.75 8.75) (layer F.Fab)
    (effects (font (size 1 1) (thickness 0.15)))
  )
  (fp_line (start -2 -7.5) (end -2 7.5) (layer F.Fab) (width 0.1))
  (fp_line (start -2 7.5) (end 29.5 7.5) (layer F.Fab) (width 0.1))
  (fp_line (start 29.5 7.5) (end 29.5 -7.5) (layer F.Fab) (width 0.1))
  (fp_line (start 29.5 -7.5) (end -2 -7.5) (layer F.Fab) (width 0.1))
  (fp_line (start -2.12 -7.62) (end 29.62 -7.62) (layer F.SilkS) (width 0.12))
  (fp_line (start -2.12 7.62) (end 29.62 7.62) (layer F.SilkS) (width 0.12))
  (fp_line (start -2.12 -7.62) (end -2.12 7.62) (layer F.SilkS) (width 0.12))
  (fp_line (start 29.62 -7.62) (end 29.62 7.62) (layer F.SilkS) (width 0.12))
  (fp_line (start -2.25 -7.75) (end -2.25 7.75) (layer F.CrtYd) (width 0.05))
  (fp_line (start -2.25 7.75) (end 29.75 7.75) (layer F.CrtYd) (width 0.05))
  (fp_line (start 29.75 7.75) (end 29.75 -7.75) (layer F.CrtYd) (width 0.05))
  (fp_line (start 29.75 -7.75) (end -2.25 -7.75) (layer F.CrtYd) (width 0.05))
  (pad 1 thru_hole circle (at 0 0) (size 2.4 2.4) (drill 1.2) (layers *.Cu *.Mask))
  (pad 2 thru_hole circle (at 27.5 0) (size 2.4 2.4) (drill 1.2) (layers *.Cu *.Mask))
  (fp_text user %R (at 13.75 0) (layer F.Fab)
    (effects (font (size 1 1) (thickness 0.15)))
  )
  (model ${KICAD6_3DMODEL_DIR}/Capacitor_THT.3dshapes/C_Rect_L31.5mm_W15.0mm_P27.50mm_MKS4.wrl
    (at (xyz 0 0 0))
    (scale (xyz 1 1 1))
    (rotate (xyz 0 0 0))
  )
)