(module C_Rect_L4.6mm_W2.0mm_P2.50mm_MKS02_FKP02 (layer F.Cu) (tedit 5AE50EF0)
  (descr "C, Rect series, Radial, pin pitch=2.50mm, , length*width=4.6*2mm^2, Capacitor, http://www.wima.de/DE/WIMA_MKS_02.pdf")
  (tags "C Rect series Radial pin pitch 2.50mm  length 4.6mm width 2mm Capacitor")
  (fp_text reference REF** (at 1.25 -2.25) (layer F.SilkS)
    (effects (font (size 1 1) (thickness 0.15)))
  )
  (fp_text value C_Rect_L4.6mm_W2.0mm_P2.50mm_MKS02_FKP02 (at 1.25 2.25) (layer F.Fab)
    (effects (font (size 1 1) (thickness 0.15)))
  )
  (fp_line (start -1.05 -1) (end -1.05 1) (layer F.Fab) (width 0.1))
  (fp_line (start -1.05 1) (end 3.55 1) (layer F.Fab) (width 0.1))
  (fp_line (start 3.55 1) (end 3.55 -1) (layer F.Fab) (width 0.1))
  (fp_line (start 3.55 -1) (end -1.05 -1) (layer F.Fab) (width 0.1))
  (fp_line (start -1.17 -1.12) (end 3.67 -1.12) (layer F.SilkS) (width 0.12))
  (fp_line (start -1.17 1.12) (end 3.67 1.12) (layer F.SilkS) (width 0.12))
  (fp_line (start -1.17 -1.12) (end -1.17 1.12) (layer F.SilkS) (width 0.12))
  (fp_line (start 3.67 -1.12) (end 3.67 1.12) (layer F.SilkS) (width 0.12))
  (fp_line (start -1.3 -1.25) (end -1.3 1.25) (layer F.CrtYd) (width 0.05))
  (fp_line (start -1.3 1.25) (end 3.8 1.25) (layer F.CrtYd) (width 0.05))
  (fp_line (start 3.8 1.25) (end 3.8 -1.25) (layer F.CrtYd) (width 0.05))
  (fp_line (start 3.8 -1.25) (end -1.3 -1.25) (layer F.CrtYd) (width 0.05))
  (pad 1 thru_hole circle (at 0 0) (size 1.4 1.4) (drill 0.7) (layers *.Cu *.Mask))
  (pad 2 thru_hole circle (at 2.5 0) (size 1.4 1.4) (drill 0.7) (layers *.Cu *.Mask))
  (fp_text user %R (at 1.25 0) (layer F.Fab)
    (effects (font (size 0.92 0.92) (thickness 0.138)))
  )
  (model ${KICAD6_3DMODEL_DIR}/Capacitor_THT.3dshapes/C_Rect_L4.6mm_W2.0mm_P2.50mm_MKS02_FKP02.wrl
    (at (xyz 0 0 0))
    (scale (xyz 1 1 1))
    (rotate (xyz 0 0 0))
  )
)