(module CP_Radial_D25.0mm_P10.00mm_SnapIn (layer F.Cu) (tedit 5AE50EF1)
  (descr "CP, Radial series, Radial, pin pitch=10.00mm, , diameter=25mm, Electrolytic Capacitor, , http://www.vishay.com/docs/28342/058059pll-si.pdf")
  (tags "CP Radial series Radial pin pitch 10.00mm  diameter 25mm Electrolytic Capacitor")
  (fp_text reference REF** (at 5 -13.75) (layer F.SilkS)
    (effects (font (size 1 1) (thickness 0.15)))
  )
  (fp_text value CP_Radial_D25.0mm_P10.00mm_SnapIn (at 5 13.75) (layer F.Fab)
    (effects (font (size 1 1) (thickness 0.15)))
  )
  (fp_circle (center 5 0) (end 17.5 0) (layer F.Fab) (width 0.1))
  (fp_circle (center 5 0) (end 17.62 0) (layer F.SilkS) (width 0.12))
  (fp_circle (center 5 0) (end 17.75 0) (layer F.CrtYd) (width 0.05))
  (fp_line (start -5.754629 -5.4875) (end -3.254629 -5.4875) (layer F.Fab) (width 0.1))
  (fp_line (start -4.504629 -6.7375) (end -4.504629 -4.2375) (layer F.Fab) (width 0.1))
  (fp_line (start 5 -12.581) (end 5 12.581) (layer F.SilkS) (width 0.12))
  (fp_line (start 5.04 -12.58) (end 5.04 12.58) (layer F.SilkS) (width 0.12))
  (fp_line (start 5.08 -12.58) (end 5.08 12.58) (layer F.SilkS) (width 0.12))
  (fp_line (start 5.12 -12.58) (end 5.12 12.58) (layer F.SilkS) (width 0.12))
  (fp_line (start 5.16 -12.579) (end 5.16 12.579) (layer F.SilkS) (width 0.12))
  (fp_line (start 5.2 -12.579) (end 5.2 12.579) (layer F.SilkS) (width 0.12))
  (fp_line (start 5.24 -12.578) (end 5.24 12.578) (layer F.SilkS) (width 0.12))
  (fp_line (start 5.28 -12.577) (end 5.28 12.577) (layer F.SilkS) (width 0.12))
  (fp_line (start 5.32 -12.576) (end 5.32 12.576) (layer F.SilkS) (width 0.12))
  (fp_line (start 5.36 -12.575) (end 5.36 12.575) (layer F.SilkS) (width 0.12))
  (fp_line (start 5.4 -12.574) (end 5.4 12.574) (layer F.SilkS) (width 0.12))
  (fp_line (start 5.44 -12.573) (end 5.44 12.573) (layer F.SilkS) (width 0.12))
  (fp_line (start 5.48 -12.571) (end 5.48 12.571) (layer F.SilkS) (width 0.12))
  (fp_line (start 5.52 -12.57) (end 5.52 12.57) (layer F.SilkS) (width 0.12))
  (fp_line (start 5.56 -12.568) (end 5.56 12.568) (layer F.SilkS) (width 0.12))
  (fp_line (start 5.6 -12.566) (end 5.6 12.566) (layer F.SilkS) (width 0.12))
  (fp_line (start 5.64 -12.564) (end 5.64 12.564) (layer F.SilkS) (width 0.12))
  (fp_line (start 5.68 -12.562) (end 5.68 12.562) (layer F.SilkS) (width 0.12))
  (fp_line (start 5.721 -12.56) (end 5.721 12.56) (layer F.SilkS) (width 0.12))
  (fp_line (start 5.761 -12.558) (end 5.761 12.558) (layer F.SilkS) (width 0.12))
  (fp_line (start 5.801 -12.555) (end 5.801 12.555) (layer F.SilkS) (width 0.12))
  (fp_line (start 5.841 -12.553) (end 5.841 12.553) (layer F.SilkS) (width 0.12))
  (fp_line (start 5.881 -12.55) (end 5.881 12.55) (layer F.SilkS) (width 0.12))
  (fp_line (start 5.921 -12.547) (end 5.921 12.547) (layer F.SilkS) (width 0.12))
  (fp_line (start 5.961 -12.544) (end 5.961 12.544) (layer F.SilkS) (width 0.12))
  (fp_line (start 6.001 -12.541) (end 6.001 12.541) (layer F.SilkS) (width 0.12))
  (fp_line (start 6.041 -12.538) (end 6.041 12.538) (layer F.SilkS) (width 0.12))
  (fp_line (start 6.081 -12.534) (end 6.081 12.534) (layer F.SilkS) (width 0.12))
  (fp_line (start 6.121 -12.531) (end 6.121 12.531) (layer F.SilkS) (width 0.12))
  (fp_line (start 6.161 -12.527) (end 6.161 12.527) (layer F.SilkS) (width 0.12))
  (fp_line (start 6.201 -12.523) (end 6.201 12.523) (layer F.SilkS) (width 0.12))
  (fp_line (start 6.241 -12.519) (end 6.241 12.519) (layer F.SilkS) (width 0.12))
  (fp_line (start 6.281 -12.515) (end 6.281 12.515) (layer F.SilkS) (width 0.12))
  (fp_line (start 6.321 -12.511) (end 6.321 12.511) (layer F.SilkS) (width 0.12))
  (fp_line (start 6.361 -12.507) (end 6.361 12.507) (layer F.SilkS) (width 0.12))
  (fp_line (start 6.401 -12.503) (end 6.401 12.503) (layer F.SilkS) (width 0.12))
  (fp_line (start 6.441 -12.498) (end 6.441 12.498) (layer F.SilkS) (width 0.12))
  (fp_line (start 6.481 -12.493) (end 6.481 12.493) (layer F.SilkS) (width 0.12))
  (fp_line (start 6.521 -12.489) (end 6.521 12.489) (layer F.SilkS) (width 0.12))
  (fp_line (start 6.561 -12.484) (end 6.561 12.484) (layer F.SilkS) (width 0.12))
  (fp_line (start 6.601 -12.479) (end 6.601 12.479) (layer F.SilkS) (width 0.12))
  (fp_line (start 6.641 -12.473) (end 6.641 12.473) (layer F.SilkS) (width 0.12))
  (fp_line (start 6.681 -12.468) (end 6.681 12.468) (layer F.SilkS) (width 0.12))
  (fp_line (start 6.721 -12.463) (end 6.721 12.463) (layer F.SilkS) (width 0.12))
  (fp_line (start 6.761 -12.457) (end 6.761 12.457) (layer F.SilkS) (width 0.12))
  (fp_line (start 6.801 -12.451) (end 6.801 12.451) (layer F.SilkS) (width 0.12))
  (fp_line (start 6.841 -12.446) (end 6.841 12.446) (layer F.SilkS) (width 0.12))
  (fp_line (start 6.881 -12.44) (end 6.881 12.44) (layer F.SilkS) (width 0.12))
  (fp_line (start 6.921 -12.434) (end 6.921 12.434) (layer F.SilkS) (width 0.12))
  (fp_line (start 6.961 -12.427) (end 6.961 12.427) (layer F.SilkS) (width 0.12))
  (fp_line (start 7.001 -12.421) (end 7.001 12.421) (layer F.SilkS) (width 0.12))
  (fp_line (start 7.041 -12.415) (end 7.041 12.415) (layer F.SilkS) (width 0.12))
  (fp_line (start 7.081 -12.408) (end 7.081 12.408) (layer F.SilkS) (width 0.12))
  (fp_line (start 7.121 -12.401) (end 7.121 12.401) (layer F.SilkS) (width 0.12))
  (fp_line (start 7.161 -12.394) (end 7.161 12.394) (layer F.SilkS) (width 0.12))
  (fp_line (start 7.201 -12.387) (end 7.201 12.387) (layer F.SilkS) (width 0.12))
  (fp_line (start 7.241 -12.38) (end 7.241 12.38) (layer F.SilkS) (width 0.12))
  (fp_line (start 7.281 -12.373) (end 7.281 12.373) (layer F.SilkS) (width 0.12))
  (fp_line (start 7.321 -12.365) (end 7.321 12.365) (layer F.SilkS) (width 0.12))
  (fp_line (start 7.361 -12.358) (end 7.361 12.358) (layer F.SilkS) (width 0.12))
  (fp_line (start 7.401 -12.35) (end 7.401 12.35) (layer F.SilkS) (width 0.12))
  (fp_line (start 7.441 -12.342) (end 7.441 12.342) (layer F.SilkS) (width 0.12))
  (fp_line (start 7.481 -12.334) (end 7.481 12.334) (layer F.SilkS) (width 0.12))
  (fp_line (start 7.521 -12.326) (end 7.521 12.326) (layer F.SilkS) (width 0.12))
  (fp_line (start 7.561 -12.318) (end 7.561 12.318) (layer F.SilkS) (width 0.12))
  (fp_line (start 7.601 -12.31) (end 7.601 12.31) (layer F.SilkS) (width 0.12))
  (fp_line (start 7.641 -12.301) (end 7.641 12.301) (layer F.SilkS) (width 0.12))
  (fp_line (start 7.681 -12.293) (end 7.681 12.293) (layer F.SilkS) (width 0.12))
  (fp_line (start 7.721 -12.284) (end 7.721 12.284) (layer F.SilkS) (width 0.12))
  (fp_line (start 7.761 -12.275) (end 7.761 -2.24) (layer F.SilkS) (width 0.12))
  (fp_line (start 7.761 2.24) (end 7.761 12.275) (layer F.SilkS) (width 0.12))
  (fp_line (start 7.801 -12.266) (end 7.801 -2.24) (layer F.SilkS) (width 0.12))
  (fp_line (start 7.801 2.24) (end 7.801 12.266) (layer F.SilkS) (width 0.12))
  (fp_line (start 7.841 -12.257) (end 7.841 -2.24) (layer F.SilkS) (width 0.12))
  (fp_line (start 7.841 2.24) (end 7.841 12.257) (layer F.SilkS) (width 0.12))
  (fp_line (start 7.881 -12.247) (end 7.881 -2.24) (layer F.SilkS) (width 0.12))
  (fp_line (start 7.881 2.24) (end 7.881 12.247) (layer F.SilkS) (width 0.12))
  (fp_line (start 7.921 -12.238) (end 7.921 -2.24) (layer F.SilkS) (width 0.12))
  (fp_line (start 7.921 2.24) (end 7.921 12.238) (layer F.SilkS) (width 0.12))
  (fp_line (start 7.961 -12.228) (end 7.961 -2.24) (layer F.SilkS) (width 0.12))
  (fp_line (start 7.961 2.24) (end 7.961 12.228) (layer F.SilkS) (width 0.12))
  (fp_line (start 8.001 -12.219) (end 8.001 -2.24) (layer F.SilkS) (width 0.12))
  (fp_line (start 8.001 2.24) (end 8.001 12.219) (layer F.SilkS) (width 0.12))
  (fp_line (start 8.041 -12.209) (end 8.041 -2.24) (layer F.SilkS) (width 0.12))
  (fp_line (start 8.041 2.24) (end 8.041 12.209) (layer F.SilkS) (width 0.12))
  (fp_line (start 8.081 -12.199) (end 8.081 -2.24) (layer F.SilkS) (width 0.12))
  (fp_line (start 8.081 2.24) (end 8.081 12.199) (layer F.SilkS) (width 0.12))
  (fp_line (start 8.121 -12.189) (end 8.121 -2.24) (layer F.SilkS) (width 0.12))
  (fp_line (start 8.121 2.24) (end 8.121 12.189) (layer F.SilkS) (width 0.12))
  (fp_line (start 8.161 -12.178) (end 8.161 -2.24) (layer F.SilkS) (width 0.12))
  (fp_line (start 8.161 2.24) (end 8.161 12.178) (layer F.SilkS) (width 0.12))
  (fp_line (start 8.201 -12.168) (end 8.201 -2.24) (layer F.SilkS) (width 0.12))
  (fp_line (start 8.201 2.24) (end 8.201 12.168) (layer F.SilkS) (width 0.12))
  (fp_line (start 8.241 -12.157) (end 8.241 -2.24) (layer F.SilkS) (width 0.12))
  (fp_line (start 8.241 2.24) (end 8.241 12.157) (layer F.SilkS) (width 0.12))
  (fp_line (start 8.281 -12.147) (end 8.281 -2.24) (layer F.SilkS) (width 0.12))
  (fp_line (start 8.281 2.24) (end 8.281 12.147) (layer F.SilkS) (width 0.12))
  (fp_line (start 8.321 -12.136) (end 8.321 -2.24) (layer F.SilkS) (width 0.12))
  (fp_line (start 8.321 2.24) (end 8.321 12.136) (layer F.SilkS) (width 0.12))
  (fp_line (start 8.361 -12.125) (end 8.361 -2.24) (layer F.SilkS) (width 0.12))
  (fp_line (start 8.361 2.24) (end 8.361 12.125) (layer F.SilkS) (width 0.12))
  (fp_line (start 8.401 -12.114) (end 8.401 -2.24) (layer F.SilkS) (width 0.12))
  (fp_line (start 8.401 2.24) (end 8.401 12.114) (layer F.SilkS) (width 0.12))
  (fp_line (start 8.441 -12.103) (end 8.441 -2.24) (layer F.SilkS) (width 0.12))
  (fp_line (start 8.441 2.24) (end 8.441 12.103) (layer F.SilkS) (width 0.12))
  (fp_line (start 8.481 -12.091) (end 8.481 -2.24) (layer F.SilkS) (width 0.12))
  (fp_line (start 8.481 2.24) (end 8.481 12.091) (layer F.SilkS) (width 0.12))
  (fp_line (start 8.521 -12.08) (end 8.521 -2.24) (layer F.SilkS) (width 0.12))
  (fp_line (start 8.521 2.24) (end 8.521 12.08) (layer F.SilkS) (width 0.12))
  (fp_line (start 8.561 -12.068) (end 8.561 -2.24) (layer F.SilkS) (width 0.12))
  (fp_line (start 8.561 2.24) (end 8.561 12.068) (layer F.SilkS) (width 0.12))
  (fp_line (start 8.601 -12.056) (end 8.601 -2.24) (layer F.SilkS) (width 0.12))
  (fp_line (start 8.601 2.24) (end 8.601 12.056) (layer F.SilkS) (width 0.12))
  (fp_line (start 8.641 -12.044) (end 8.641 -2.24) (layer F.SilkS) (width 0.12))
  (fp_line (start 8.641 2.24) (end 8.641 12.044) (layer F.SilkS) (width 0.12))
  (fp_line (start 8.681 -12.032) (end 8.681 -2.24) (layer F.SilkS) (width 0.12))
  (fp_line (start 8.681 2.24) (end 8.681 12.032) (layer F.SilkS) (width 0.12))
  (fp_line (start 8.721 -12.02) (end 8.721 -2.24) (layer F.SilkS) (width 0.12))
  (fp_line (start 8.721 2.24) (end 8.721 12.02) (layer F.SilkS) (width 0.12))
  (fp_line (start 8.761 -12.007) (end 8.761 -2.24) (layer F.SilkS) (width 0.12))
  (fp_line (start 8.761 2.24) (end 8.761 12.007) (layer F.SilkS) (width 0.12))
  (fp_line (start 8.801 -11.995) (end 8.801 -2.24) (layer F.SilkS) (width 0.12))
  (fp_line (start 8.801 2.24) (end 8.801 11.995) (layer F.SilkS) (width 0.12))
  (fp_line (start 8.841 -11.982) (end 8.841 -2.24) (layer F.SilkS) (width 0.12))
  (fp_line (start 8.841 2.24) (end 8.841 11.982) (layer F.SilkS) (width 0.12))
  (fp_line (start 8.881 -11.969) (end 8.881 -2.24) (layer F.SilkS) (width 0.12))
  (fp_line (start 8.881 2.24) (end 8.881 11.969) (layer F.SilkS) (width 0.12))
  (fp_line (start 8.921 -11.956) (end 8.921 -2.24) (layer F.SilkS) (width 0.12))
  (fp_line (start 8.921 2.24) (end 8.921 11.956) (layer F.SilkS) (width 0.12))
  (fp_line (start 8.961 -11.943) (end 8.961 -2.24) (layer F.SilkS) (width 0.12))
  (fp_line (start 8.961 2.24) (end 8.961 11.943) (layer F.SilkS) (width 0.12))
  (fp_line (start 9.001 -11.93) (end 9.001 -2.24) (layer F.SilkS) (width 0.12))
  (fp_line (start 9.001 2.24) (end 9.001 11.93) (layer F.SilkS) (width 0.12))
  (fp_line (start 9.041 -11.916) (end 9.041 -2.24) (layer F.SilkS) (width 0.12))
  (fp_line (start 9.041 2.24) (end 9.041 11.916) (layer F.SilkS) (width 0.12))
  (fp_line (start 9.081 -11.903) (end 9.081 -2.24) (layer F.SilkS) (width 0.12))
  (fp_line (start 9.081 2.24) (end 9.081 11.903) (layer F.SilkS) (width 0.12))
  (fp_line (start 9.121 -11.889) (end 9.121 -2.24) (layer F.SilkS) (width 0.12))
  (fp_line (start 9.121 2.24) (end 9.121 11.889) (layer F.SilkS) (width 0.12))
  (fp_line (start 9.161 -11.875) (end 9.161 -2.24) (layer F.SilkS) (width 0.12))
  (fp_line (start 9.161 2.24) (end 9.161 11.875) (layer F.SilkS) (width 0.12))
  (fp_line (start 9.201 -11.861) (end 9.201 -2.24) (layer F.SilkS) (width 0.12))
  (fp_line (start 9.201 2.24) (end 9.201 11.861) (layer F.SilkS) (width 0.12))
  (fp_line (start 9.241 -11.847) (end 9.241 -2.24) (layer F.SilkS) (width 0.12))
  (fp_line (start 9.241 2.24) (end 9.241 11.847) (layer F.SilkS) (width 0.12))
  (fp_line (start 9.281 -11.833) (end 9.281 -2.24) (layer F.SilkS) (width 0.12))
  (fp_line (start 9.281 2.24) (end 9.281 11.833) (layer F.SilkS) (width 0.12))
  (fp_line (start 9.321 -11.818) (end 9.321 -2.24) (layer F.SilkS) (width 0.12))
  (fp_line (start 9.321 2.24) (end 9.321 11.818) (layer F.SilkS) (width 0.12))
  (fp_line (start 9.361 -11.803) (end 9.361 -2.24) (layer F.SilkS) (width 0.12))
  (fp_line (start 9.361 2.24) (end 9.361 11.803) (layer F.SilkS) (width 0.12))
  (fp_line (start 9.401 -11.789) (end 9.401 -2.24) (layer F.SilkS) (width 0.12))
  (fp_line (start 9.401 2.24) (end 9.401 11.789) (layer F.SilkS) (width 0.12))
  (fp_line (start 9.441 -11.774) (end 9.441 -2.24) (layer F.SilkS) (width 0.12))
  (fp_line (start 9.441 2.24) (end 9.441 11.774) (layer F.SilkS) (width 0.12))
  (fp_line (start 9.481 -11.759) (end 9.481 -2.24) (layer F.SilkS) (width 0.12))
  (fp_line (start 9.481 2.24) (end 9.481 11.759) (layer F.SilkS) (width 0.12))
  (fp_line (start 9.521 -11.743) (end 9.521 -2.24) (layer F.SilkS) (width 0.12))
  (fp_line (start 9.521 2.24) (end 9.521 11.743) (layer F.SilkS) (width 0.12))
  (fp_line (start 9.561 -11.728) (end 9.561 -2.24) (layer F.SilkS) (width 0.12))
  (fp_line (start 9.561 2.24) (end 9.561 11.728) (layer F.SilkS) (width 0.12))
  (fp_line (start 9.601 -11.712) (end 9.601 -2.24) (layer F.SilkS) (width 0.12))
  (fp_line (start 9.601 2.24) (end 9.601 11.712) (layer F.SilkS) (width 0.12))
  (fp_line (start 9.641 -11.697) (end 9.641 -2.24) (layer F.SilkS) (width 0.12))
  (fp_line (start 9.641 2.24) (end 9.641 11.697) (layer F.SilkS) (width 0.12))
  (fp_line (start 9.681 -11.681) (end 9.681 -2.24) (layer F.SilkS) (width 0.12))
  (fp_line (start 9.681 2.24) (end 9.681 11.681) (layer F.SilkS) (width 0.12))
  (fp_line (start 9.721 -11.665) (end 9.721 -2.24) (layer F.SilkS) (width 0.12))
  (fp_line (start 9.721 2.24) (end 9.721 11.665) (layer F.SilkS) (width 0.12))
  (fp_line (start 9.761 -11.648) (end 9.761 -2.24) (layer F.SilkS) (width 0.12))
  (fp_line (start 9.761 2.24) (end 9.761 11.648) (layer F.SilkS) (width 0.12))
  (fp_line (start 9.801 -11.632) (end 9.801 -2.24) (layer F.SilkS) (width 0.12))
  (fp_line (start 9.801 2.24) (end 9.801 11.632) (layer F.SilkS) (width 0.12))
  (fp_line (start 9.841 -11.615) (end 9.841 -2.24) (layer F.SilkS) (width 0.12))
  (fp_line (start 9.841 2.24) (end 9.841 11.615) (layer F.SilkS) (width 0.12))
  (fp_line (start 9.881 -11.599) (end 9.881 -2.24) (layer F.SilkS) (width 0.12))
  (fp_line (start 9.881 2.24) (end 9.881 11.599) (layer F.SilkS) (width 0.12))
  (fp_line (start 9.921 -11.582) (end 9.921 -2.24) (layer F.SilkS) (width 0.12))
  (fp_line (start 9.921 2.24) (end 9.921 11.582) (layer F.SilkS) (width 0.12))
  (fp_line (start 9.961 -11.565) (end 9.961 -2.24) (layer F.SilkS) (width 0.12))
  (fp_line (start 9.961 2.24) (end 9.961 11.565) (layer F.SilkS) (width 0.12))
  (fp_line (start 10.001 -11.548) (end 10.001 -2.24) (layer F.SilkS) (width 0.12))
  (fp_line (start 10.001 2.24) (end 10.001 11.548) (layer F.SilkS) (width 0.12))
  (fp_line (start 10.041 -11.53) (end 10.041 -2.24) (layer F.SilkS) (width 0.12))
  (fp_line (start 10.041 2.24) (end 10.041 11.53) (layer F.SilkS) (width 0.12))
  (fp_line (start 10.081 -11.513) (end 10.081 -2.24) (layer F.SilkS) (width 0.12))
  (fp_line (start 10.081 2.24) (end 10.081 11.513) (layer F.SilkS) (width 0.12))
  (fp_line (start 10.121 -11.495) (end 10.121 -2.24) (layer F.SilkS) (width 0.12))
  (fp_line (start 10.121 2.24) (end 10.121 11.495) (layer F.SilkS) (width 0.12))
  (fp_line (start 10.161 -11.477) (end 10.161 -2.24) (layer F.SilkS) (width 0.12))
  (fp_line (start 10.161 2.24) (end 10.161 11.477) (layer F.SilkS) (width 0.12))
  (fp_line (start 10.201 -11.459) (end 10.201 -2.24) (layer F.SilkS) (width 0.12))
  (fp_line (start 10.201 2.24) (end 10.201 11.459) (layer F.SilkS) (width 0.12))
  (fp_line (start 10.241 -11.441) (end 10.241 -2.24) (layer F.SilkS) (width 0.12))
  (fp_line (start 10.241 2.24) (end 10.241 11.441) (layer F.SilkS) (width 0.12))
  (fp_line (start 10.281 -11.423) (end 10.281 -2.24) (layer F.SilkS) (width 0.12))
  (fp_line (start 10.281 2.24) (end 10.281 11.423) (layer F.SilkS) (width 0.12))
  (fp_line (start 10.321 -11.404) (end 10.321 -2.24) (layer F.SilkS) (width 0.12))
  (fp_line (start 10.321 2.24) (end 10.321 11.404) (layer F.SilkS) (width 0.12))
  (fp_line (start 10.361 -11.386) (end 10.361 -2.24) (layer F.SilkS) (width 0.12))
  (fp_line (start 10.361 2.24) (end 10.361 11.386) (layer F.SilkS) (width 0.12))
  (fp_line (start 10.401 -11.367) (end 10.401 -2.24) (layer F.SilkS) (width 0.12))
  (fp_line (start 10.401 2.24) (end 10.401 11.367) (layer F.SilkS) (width 0.12))
  (fp_line (start 10.441 -11.348) (end 10.441 -2.24) (layer F.SilkS) (width 0.12))
  (fp_line (start 10.441 2.24) (end 10.441 11.348) (layer F.SilkS) (width 0.12))
  (fp_line (start 10.481 -11.329) (end 10.481 -2.24) (layer F.SilkS) (width 0.12))
  (fp_line (start 10.481 2.24) (end 10.481 11.329) (layer F.SilkS) (width 0.12))
  (fp_line (start 10.521 -11.309) (end 10.521 -2.24) (layer F.SilkS) (width 0.12))
  (fp_line (start 10.521 2.24) (end 10.521 11.309) (layer F.SilkS) (width 0.12))
  (fp_line (start 10.561 -11.29) (end 10.561 -2.24) (layer F.SilkS) (width 0.12))
  (fp_line (start 10.561 2.24) (end 10.561 11.29) (layer F.SilkS) (width 0.12))
  (fp_line (start 10.601 -11.27) (end 10.601 -2.24) (layer F.SilkS) (width 0.12))
  (fp_line (start 10.601 2.24) (end 10.601 11.27) (layer F.SilkS) (width 0.12))
  (fp_line (start 10.641 -11.25) (end 10.641 -2.24) (layer F.SilkS) (width 0.12))
  (fp_line (start 10.641 2.24) (end 10.641 11.25) (layer F.SilkS) (width 0.12))
  (fp_line (start 10.681 -11.23) (end 10.681 -2.24) (layer F.SilkS) (width 0.12))
  (fp_line (start 10.681 2.24) (end 10.681 11.23) (layer F.SilkS) (width 0.12))
  (fp_line (start 10.721 -11.21) (end 10.721 -2.24) (layer F.SilkS) (width 0.12))
  (fp_line (start 10.721 2.24) (end 10.721 11.21) (layer F.SilkS) (width 0.12))
  (fp_line (start 10.761 -11.189) (end 10.761 -2.24) (layer F.SilkS) (width 0.12))
  (fp_line (start 10.761 2.24) (end 10.761 11.189) (layer F.SilkS) (width 0.12))
  (fp_line (start 10.801 -11.169) (end 10.801 -2.24) (layer F.SilkS) (width 0.12))
  (fp_line (start 10.801 2.24) (end 10.801 11.169) (layer F.SilkS) (width 0.12))
  (fp_line (start 10.841 -11.148) (end 10.841 -2.24) (layer F.SilkS) (width 0.12))
  (fp_line (start 10.841 2.24) (end 10.841 11.148) (layer F.SilkS) (width 0.12))
  (fp_line (start 10.881 -11.127) (end 10.881 -2.24) (layer F.SilkS) (width 0.12))
  (fp_line (start 10.881 2.24) (end 10.881 11.127) (layer F.SilkS) (width 0.12))
  (fp_line (start 10.921 -11.106) (end 10.921 -2.24) (layer F.SilkS) (width 0.12))
  (fp_line (start 10.921 2.24) (end 10.921 11.106) (layer F.SilkS) (width 0.12))
  (fp_line (start 10.961 -11.084) (end 10.961 -2.24) (layer F.SilkS) (width 0.12))
  (fp_line (start 10.961 2.24) (end 10.961 11.084) (layer F.SilkS) (width 0.12))
  (fp_line (start 11.001 -11.063) (end 11.001 -2.24) (layer F.SilkS) (width 0.12))
  (fp_line (start 11.001 2.24) (end 11.001 11.063) (layer F.SilkS) (width 0.12))
  (fp_line (start 11.041 -11.041) (end 11.041 -2.24) (layer F.SilkS) (width 0.12))
  (fp_line (start 11.041 2.24) (end 11.041 11.041) (layer F.SilkS) (width 0.12))
  (fp_line (start 11.081 -11.019) (end 11.081 -2.24) (layer F.SilkS) (width 0.12))
  (fp_line (start 11.081 2.24) (end 11.081 11.019) (layer F.SilkS) (width 0.12))
  (fp_line (start 11.121 -10.997) (end 11.121 -2.24) (layer F.SilkS) (width 0.12))
  (fp_line (start 11.121 2.24) (end 11.121 10.997) (layer F.SilkS) (width 0.12))
  (fp_line (start 11.161 -10.975) (end 11.161 -2.24) (layer F.SilkS) (width 0.12))
  (fp_line (start 11.161 2.24) (end 11.161 10.975) (layer F.SilkS) (width 0.12))
  (fp_line (start 11.201 -10.953) (end 11.201 -2.24) (layer F.SilkS) (width 0.12))
  (fp_line (start 11.201 2.24) (end 11.201 10.953) (layer F.SilkS) (width 0.12))
  (fp_line (start 11.241 -10.93) (end 11.241 -2.24) (layer F.SilkS) (width 0.12))
  (fp_line (start 11.241 2.24) (end 11.241 10.93) (layer F.SilkS) (width 0.12))
  (fp_line (start 11.281 -10.907) (end 11.281 -2.24) (layer F.SilkS) (width 0.12))
  (fp_line (start 11.281 2.24) (end 11.281 10.907) (layer F.SilkS) (width 0.12))
  (fp_line (start 11.321 -10.884) (end 11.321 -2.24) (layer F.SilkS) (width 0.12))
  (fp_line (start 11.321 2.24) (end 11.321 10.884) (layer F.SilkS) (width 0.12))
  (fp_line (start 11.361 -10.861) (end 11.361 -2.24) (layer F.SilkS) (width 0.12))
  (fp_line (start 11.361 2.24) (end 11.361 10.861) (layer F.SilkS) (width 0.12))
  (fp_line (start 11.401 -10.837) (end 11.401 -2.24) (layer F.SilkS) (width 0.12))
  (fp_line (start 11.401 2.24) (end 11.401 10.837) (layer F.SilkS) (width 0.12))
  (fp_line (start 11.441 -10.814) (end 11.441 -2.24) (layer F.SilkS) (width 0.12))
  (fp_line (start 11.441 2.24) (end 11.441 10.814) (layer F.SilkS) (width 0.12))
  (fp_line (start 11.481 -10.79) (end 11.481 -2.24) (layer F.SilkS) (width 0.12))
  (fp_line (start 11.481 2.24) (end 11.481 10.79) (layer F.SilkS) (width 0.12))
  (fp_line (start 11.521 -10.766) (end 11.521 -2.24) (layer F.SilkS) (width 0.12))
  (fp_line (start 11.521 2.24) (end 11.521 10.766) (layer F.SilkS) (width 0.12))
  (fp_line (start 11.561 -10.742) (end 11.561 -2.24) (layer F.SilkS) (width 0.12))
  (fp_line (start 11.561 2.24) (end 11.561 10.742) (layer F.SilkS) (width 0.12))
  (fp_line (start 11.601 -10.717) (end 11.601 -2.24) (layer F.SilkS) (width 0.12))
  (fp_line (start 11.601 2.24) (end 11.601 10.717) (layer F.SilkS) (width 0.12))
  (fp_line (start 11.641 -10.692) (end 11.641 -2.24) (layer F.SilkS) (width 0.12))
  (fp_line (start 11.641 2.24) (end 11.641 10.692) (layer F.SilkS) (width 0.12))
  (fp_line (start 11.681 -10.668) (end 11.681 -2.24) (layer F.SilkS) (width 0.12))
  (fp_line (start 11.681 2.24) (end 11.681 10.668) (layer F.SilkS) (width 0.12))
  (fp_line (start 11.721 -10.643) (end 11.721 -2.24) (layer F.SilkS) (width 0.12))
  (fp_line (start 11.721 2.24) (end 11.721 10.643) (layer F.SilkS) (width 0.12))
  (fp_line (start 11.761 -10.617) (end 11.761 -2.24) (layer F.SilkS) (width 0.12))
  (fp_line (start 11.761 2.24) (end 11.761 10.617) (layer F.SilkS) (width 0.12))
  (fp_line (start 11.801 -10.592) (end 11.801 -2.24) (layer F.SilkS) (width 0.12))
  (fp_line (start 11.801 2.24) (end 11.801 10.592) (layer F.SilkS) (width 0.12))
  (fp_line (start 11.841 -10.566) (end 11.841 -2.24) (layer F.SilkS) (width 0.12))
  (fp_line (start 11.841 2.24) (end 11.841 10.566) (layer F.SilkS) (width 0.12))
  (fp_line (start 11.881 -10.54) (end 11.881 -2.24) (layer F.SilkS) (width 0.12))
  (fp_line (start 11.881 2.24) (end 11.881 10.54) (layer F.SilkS) (width 0.12))
  (fp_line (start 11.921 -10.514) (end 11.921 -2.24) (layer F.SilkS) (width 0.12))
  (fp_line (start 11.921 2.24) (end 11.921 10.514) (layer F.SilkS) (width 0.12))
  (fp_line (start 11.961 -10.488) (end 11.961 -2.24) (layer F.SilkS) (width 0.12))
  (fp_line (start 11.961 2.24) (end 11.961 10.488) (layer F.SilkS) (width 0.12))
  (fp_line (start 12.001 -10.461) (end 12.001 -2.24) (layer F.SilkS) (width 0.12))
  (fp_line (start 12.001 2.24) (end 12.001 10.461) (layer F.SilkS) (width 0.12))
  (fp_line (start 12.041 -10.434) (end 12.041 -2.24) (layer F.SilkS) (width 0.12))
  (fp_line (start 12.041 2.24) (end 12.041 10.434) (layer F.SilkS) (width 0.12))
  (fp_line (start 12.081 -10.407) (end 12.081 -2.24) (layer F.SilkS) (width 0.12))
  (fp_line (start 12.081 2.24) (end 12.081 10.407) (layer F.SilkS) (width 0.12))
  (fp_line (start 12.121 -10.38) (end 12.121 -2.24) (layer F.SilkS) (width 0.12))
  (fp_line (start 12.121 2.24) (end 12.121 10.38) (layer F.SilkS) (width 0.12))
  (fp_line (start 12.161 -10.353) (end 12.161 -2.24) (layer F.SilkS) (width 0.12))
  (fp_line (start 12.161 2.24) (end 12.161 10.353) (layer F.SilkS) (width 0.12))
  (fp_line (start 12.201 -10.325) (end 12.201 -2.24) (layer F.SilkS) (width 0.12))
  (fp_line (start 12.201 2.24) (end 12.201 10.325) (layer F.SilkS) (width 0.12))
  (fp_line (start 12.241 -10.297) (end 12.241 10.297) (layer F.SilkS) (width 0.12))
  (fp_line (start 12.281 -10.269) (end 12.281 10.269) (layer F.SilkS) (width 0.12))
  (fp_line (start 12.321 -10.241) (end 12.321 10.241) (layer F.SilkS) (width 0.12))
  (fp_line (start 12.361 -10.212) (end 12.361 10.212) (layer F.SilkS) (width 0.12))
  (fp_line (start 12.401 -10.183) (end 12.401 10.183) (layer F.SilkS) (width 0.12))
  (fp_line (start 12.441 -10.154) (end 12.441 10.154) (layer F.SilkS) (width 0.12))
  (fp_line (start 12.481 -10.125) (end 12.481 10.125) (layer F.SilkS) (width 0.12))
  (fp_line (start 12.521 -10.095) (end 12.521 10.095) (layer F.SilkS) (width 0.12))
  (fp_line (start 12.561 -10.065) (end 12.561 10.065) (layer F.SilkS) (width 0.12))
  (fp_line (start 12.601 -10.035) (end 12.601 10.035) (layer F.SilkS) (width 0.12))
  (fp_line (start 12.641 -10.005) (end 12.641 10.005) (layer F.SilkS) (width 0.12))
  (fp_line (start 12.681 -9.975) (end 12.681 9.975) (layer F.SilkS) (width 0.12))
  (fp_line (start 12.721 -9.944) (end 12.721 9.944) (layer F.SilkS) (width 0.12))
  (fp_line (start 12.761 -9.913) (end 12.761 9.913) (layer F.SilkS) (width 0.12))
  (fp_line (start 12.801 -9.881) (end 12.801 9.881) (layer F.SilkS) (width 0.12))
  (fp_line (start 12.841 -9.85) (end 12.841 9.85) (layer F.SilkS) (width 0.12))
  (fp_line (start 12.881 -9.818) (end 12.881 9.818) (layer F.SilkS) (width 0.12))
  (fp_line (start 12.921 -9.786) (end 12.921 9.786) (layer F.SilkS) (width 0.12))
  (fp_line (start 12.961 -9.753) (end 12.961 9.753) (layer F.SilkS) (width 0.12))
  (fp_line (start 13.001 -9.721) (end 13.001 9.721) (layer F.SilkS) (width 0.12))
  (fp_line (start 13.041 -9.688) (end 13.041 9.688) (layer F.SilkS) (width 0.12))
  (fp_line (start 13.081 -9.655) (end 13.081 9.655) (layer F.SilkS) (width 0.12))
  (fp_line (start 13.121 -9.621) (end 13.121 9.621) (layer F.SilkS) (width 0.12))
  (fp_line (start 13.161 -9.587) (end 13.161 9.587) (layer F.SilkS) (width 0.12))
  (fp_line (start 13.2 -9.553) (end 13.2 9.553) (layer F.SilkS) (width 0.12))
  (fp_line (start 13.24 -9.519) (end 13.24 9.519) (layer F.SilkS) (width 0.12))
  (fp_line (start 13.28 -9.484) (end 13.28 9.484) (layer F.SilkS) (width 0.12))
  (fp_line (start 13.32 -9.45) (end 13.32 9.45) (layer F.SilkS) (width 0.12))
  (fp_line (start 13.36 -9.414) (end 13.36 9.414) (layer F.SilkS) (width 0.12))
  (fp_line (start 13.4 -9.379) (end 13.4 9.379) (layer F.SilkS) (width 0.12))
  (fp_line (start 13.44 -9.343) (end 13.44 9.343) (layer F.SilkS) (width 0.12))
  (fp_line (start 13.48 -9.307) (end 13.48 9.307) (layer F.SilkS) (width 0.12))
  (fp_line (start 13.52 -9.27) (end 13.52 9.27) (layer F.SilkS) (width 0.12))
  (fp_line (start 13.56 -9.234) (end 13.56 9.234) (layer F.SilkS) (width 0.12))
  (fp_line (start 13.6 -9.197) (end 13.6 9.197) (layer F.SilkS) (width 0.12))
  (fp_line (start 13.64 -9.159) (end 13.64 9.159) (layer F.SilkS) (width 0.12))
  (fp_line (start 13.68 -9.121) (end 13.68 9.121) (layer F.SilkS) (width 0.12))
  (fp_line (start 13.72 -9.083) (end 13.72 9.083) (layer F.SilkS) (width 0.12))
  (fp_line (start 13.76 -9.045) (end 13.76 9.045) (layer F.SilkS) (width 0.12))
  (fp_line (start 13.8 -9.006) (end 13.8 9.006) (layer F.SilkS) (width 0.12))
  (fp_line (start 13.84 -8.967) (end 13.84 8.967) (layer F.SilkS) (width 0.12))
  (fp_line (start 13.88 -8.928) (end 13.88 8.928) (layer F.SilkS) (width 0.12))
  (fp_line (start 13.92 -8.888) (end 13.92 8.888) (layer F.SilkS) (width 0.12))
  (fp_line (start 13.96 -8.848) (end 13.96 8.848) (layer F.SilkS) (width 0.12))
  (fp_line (start 14 -8.807) (end 14 8.807) (layer F.SilkS) (width 0.12))
  (fp_line (start 14.04 -8.766) (end 14.04 8.766) (layer F.SilkS) (width 0.12))
  (fp_line (start 14.08 -8.725) (end 14.08 8.725) (layer F.SilkS) (width 0.12))
  (fp_line (start 14.12 -8.683) (end 14.12 8.683) (layer F.SilkS) (width 0.12))
  (fp_line (start 14.16 -8.641) (end 14.16 8.641) (layer F.SilkS) (width 0.12))
  (fp_line (start 14.2 -8.599) (end 14.2 8.599) (layer F.SilkS) (width 0.12))
  (fp_line (start 14.24 -8.556) (end 14.24 8.556) (layer F.SilkS) (width 0.12))
  (fp_line (start 14.28 -8.513) (end 14.28 8.513) (layer F.SilkS) (width 0.12))
  (fp_line (start 14.32 -8.469) (end 14.32 8.469) (layer F.SilkS) (width 0.12))
  (fp_line (start 14.36 -8.425) (end 14.36 8.425) (layer F.SilkS) (width 0.12))
  (fp_line (start 14.4 -8.381) (end 14.4 8.381) (layer F.SilkS) (width 0.12))
  (fp_line (start 14.44 -8.336) (end 14.44 8.336) (layer F.SilkS) (width 0.12))
  (fp_line (start 14.48 -8.291) (end 14.48 8.291) (layer F.SilkS) (width 0.12))
  (fp_line (start 14.52 -8.245) (end 14.52 8.245) (layer F.SilkS) (width 0.12))
  (fp_line (start 14.56 -8.199) (end 14.56 8.199) (layer F.SilkS) (width 0.12))
  (fp_line (start 14.6 -8.152) (end 14.6 8.152) (layer F.SilkS) (width 0.12))
  (fp_line (start 14.64 -8.105) (end 14.64 8.105) (layer F.SilkS) (width 0.12))
  (fp_line (start 14.68 -8.058) (end 14.68 8.058) (layer F.SilkS) (width 0.12))
  (fp_line (start 14.72 -8.009) (end 14.72 8.009) (layer F.SilkS) (width 0.12))
  (fp_line (start 14.76 -7.961) (end 14.76 7.961) (layer F.SilkS) (width 0.12))
  (fp_line (start 14.8 -7.912) (end 14.8 7.912) (layer F.SilkS) (width 0.12))
  (fp_line (start 14.84 -7.862) (end 14.84 7.862) (layer F.SilkS) (width 0.12))
  (fp_line (start 14.88 -7.812) (end 14.88 7.812) (layer F.SilkS) (width 0.12))
  (fp_line (start 14.92 -7.762) (end 14.92 7.762) (layer F.SilkS) (width 0.12))
  (fp_line (start 14.96 -7.711) (end 14.96 7.711) (layer F.SilkS) (width 0.12))
  (fp_line (start 15 -7.659) (end 15 7.659) (layer F.SilkS) (width 0.12))
  (fp_line (start 15.04 -7.607) (end 15.04 7.607) (layer F.SilkS) (width 0.12))
  (fp_line (start 15.08 -7.554) (end 15.08 7.554) (layer F.SilkS) (width 0.12))
  (fp_line (start 15.12 -7.5) (end 15.12 7.5) (layer F.SilkS) (width 0.12))
  (fp_line (start 15.16 -7.446) (end 15.16 7.446) (layer F.SilkS) (width 0.12))
  (fp_line (start 15.2 -7.392) (end 15.2 7.392) (layer F.SilkS) (width 0.12))
  (fp_line (start 15.24 -7.337) (end 15.24 7.337) (layer F.SilkS) (width 0.12))
  (fp_line (start 15.28 -7.281) (end 15.28 7.281) (layer F.SilkS) (width 0.12))
  (fp_line (start 15.32 -7.224) (end 15.32 7.224) (layer F.SilkS) (width 0.12))
  (fp_line (start 15.36 -7.167) (end 15.36 7.167) (layer F.SilkS) (width 0.12))
  (fp_line (start 15.4 -7.109) (end 15.4 7.109) (layer F.SilkS) (width 0.12))
  (fp_line (start 15.44 -7.051) (end 15.44 7.051) (layer F.SilkS) (width 0.12))
  (fp_line (start 15.48 -6.991) (end 15.48 6.991) (layer F.SilkS) (width 0.12))
  (fp_line (start 15.52 -6.931) (end 15.52 6.931) (layer F.SilkS) (width 0.12))
  (fp_line (start 15.56 -6.871) (end 15.56 6.871) (layer F.SilkS) (width 0.12))
  (fp_line (start 15.6 -6.809) (end 15.6 6.809) (layer F.SilkS) (width 0.12))
  (fp_line (start 15.64 -6.747) (end 15.64 6.747) (layer F.SilkS) (width 0.12))
  (fp_line (start 15.68 -6.684) (end 15.68 6.684) (layer F.SilkS) (width 0.12))
  (fp_line (start 15.72 -6.62) (end 15.72 6.62) (layer F.SilkS) (width 0.12))
  (fp_line (start 15.76 -6.555) (end 15.76 6.555) (layer F.SilkS) (width 0.12))
  (fp_line (start 15.8 -6.489) (end 15.8 6.489) (layer F.SilkS) (width 0.12))
  (fp_line (start 15.84 -6.423) (end 15.84 6.423) (layer F.SilkS) (width 0.12))
  (fp_line (start 15.88 -6.355) (end 15.88 6.355) (layer F.SilkS) (width 0.12))
  (fp_line (start 15.92 -6.286) (end 15.92 6.286) (layer F.SilkS) (width 0.12))
  (fp_line (start 15.96 -6.217) (end 15.96 6.217) (layer F.SilkS) (width 0.12))
  (fp_line (start 16 -6.146) (end 16 6.146) (layer F.SilkS) (width 0.12))
  (fp_line (start 16.04 -6.075) (end 16.04 6.075) (layer F.SilkS) (width 0.12))
  (fp_line (start 16.08 -6.002) (end 16.08 6.002) (layer F.SilkS) (width 0.12))
  (fp_line (start 16.12 -5.928) (end 16.12 5.928) (layer F.SilkS) (width 0.12))
  (fp_line (start 16.16 -5.853) (end 16.16 5.853) (layer F.SilkS) (width 0.12))
  (fp_line (start 16.2 -5.776) (end 16.2 5.776) (layer F.SilkS) (width 0.12))
  (fp_line (start 16.24 -5.699) (end 16.24 5.699) (layer F.SilkS) (width 0.12))
  (fp_line (start 16.28 -5.62) (end 16.28 5.62) (layer F.SilkS) (width 0.12))
  (fp_line (start 16.32 -5.539) (end 16.32 5.539) (layer F.SilkS) (width 0.12))
  (fp_line (start 16.36 -5.457) (end 16.36 5.457) (layer F.SilkS) (width 0.12))
  (fp_line (start 16.4 -5.374) (end 16.4 5.374) (layer F.SilkS) (width 0.12))
  (fp_line (start 16.44 -5.289) (end 16.44 5.289) (layer F.SilkS) (width 0.12))
  (fp_line (start 16.48 -5.202) (end 16.48 5.202) (layer F.SilkS) (width 0.12))
  (fp_line (start 16.52 -5.114) (end 16.52 5.114) (layer F.SilkS) (width 0.12))
  (fp_line (start 16.56 -5.023) (end 16.56 5.023) (layer F.SilkS) (width 0.12))
  (fp_line (start 16.6 -4.931) (end 16.6 4.931) (layer F.SilkS) (width 0.12))
  (fp_line (start 16.64 -4.836) (end 16.64 4.836) (layer F.SilkS) (width 0.12))
  (fp_line (start 16.68 -4.74) (end 16.68 4.74) (layer F.SilkS) (width 0.12))
  (fp_line (start 16.72 -4.641) (end 16.72 4.641) (layer F.SilkS) (width 0.12))
  (fp_line (start 16.76 -4.539) (end 16.76 4.539) (layer F.SilkS) (width 0.12))
  (fp_line (start 16.8 -4.435) (end 16.8 4.435) (layer F.SilkS) (width 0.12))
  (fp_line (start 16.84 -4.328) (end 16.84 4.328) (layer F.SilkS) (width 0.12))
  (fp_line (start 16.88 -4.218) (end 16.88 4.218) (layer F.SilkS) (width 0.12))
  (fp_line (start 16.92 -4.105) (end 16.92 4.105) (layer F.SilkS) (width 0.12))
  (fp_line (start 16.96 -3.988) (end 16.96 3.988) (layer F.SilkS) (width 0.12))
  (fp_line (start 17 -3.867) (end 17 3.867) (layer F.SilkS) (width 0.12))
  (fp_line (start 17.04 -3.742) (end 17.04 3.742) (layer F.SilkS) (width 0.12))
  (fp_line (start 17.08 -3.613) (end 17.08 3.613) (layer F.SilkS) (width 0.12))
  (fp_line (start 17.12 -3.478) (end 17.12 3.478) (layer F.SilkS) (width 0.12))
  (fp_line (start 17.16 -3.337) (end 17.16 3.337) (layer F.SilkS) (width 0.12))
  (fp_line (start 17.2 -3.189) (end 17.2 3.189) (layer F.SilkS) (width 0.12))
  (fp_line (start 17.24 -3.034) (end 17.24 3.034) (layer F.SilkS) (width 0.12))
  (fp_line (start 17.28 -2.87) (end 17.28 2.87) (layer F.SilkS) (width 0.12))
  (fp_line (start 17.32 -2.696) (end 17.32 2.696) (layer F.SilkS) (width 0.12))
  (fp_line (start 17.36 -2.509) (end 17.36 2.509) (layer F.SilkS) (width 0.12))
  (fp_line (start 17.4 -2.307) (end 17.4 2.307) (layer F.SilkS) (width 0.12))
  (fp_line (start 17.44 -2.084) (end 17.44 2.084) (layer F.SilkS) (width 0.12))
  (fp_line (start 17.48 -1.835) (end 17.48 1.835) (layer F.SilkS) (width 0.12))
  (fp_line (start 17.52 -1.546) (end 17.52 1.546) (layer F.SilkS) (width 0.12))
  (fp_line (start 17.56 -1.19) (end 17.56 1.19) (layer F.SilkS) (width 0.12))
  (fp_line (start 17.6 -0.671) (end 17.6 0.671) (layer F.SilkS) (width 0.12))
  (fp_line (start -8.504259 -7.075) (end -6.004259 -7.075) (layer F.SilkS) (width 0.12))
  (fp_line (start -7.254259 -8.325) (end -7.254259 -5.825) (layer F.SilkS) (width 0.12))
  (pad 1 thru_hole rect (at 0 0) (size 4 4) (drill 2) (layers *.Cu *.Mask))
  (pad 2 thru_hole circle (at 10 0) (size 4 4) (drill 2) (layers *.Cu *.Mask))
  (fp_text user %R (at 5 0) (layer F.Fab)
    (effects (font (size 1 1) (thickness 0.15)))
  )
  (model ${KICAD6_3DMODEL_DIR}/Capacitor_THT.3dshapes/CP_Radial_D25.0mm_P10.00mm_SnapIn.wrl
    (at (xyz 0 0 0))
    (scale (xyz 1 1 1))
    (rotate (xyz 0 0 0))
  )
)