(module CP_Radial_D10.0mm_P3.50mm (layer F.Cu) (tedit 5AE50EF0)
  (descr "CP, Radial series, Radial, pin pitch=3.50mm, , diameter=10mm, Electrolytic Capacitor")
  (tags "CP Radial series Radial pin pitch 3.50mm  diameter 10mm Electrolytic Capacitor")
  (fp_text reference REF** (at 1.75 -6.25) (layer F.SilkS)
    (effects (font (size 1 1) (thickness 0.15)))
  )
  (fp_text value CP_Radial_D10.0mm_P3.50mm (at 1.75 6.25) (layer F.Fab)
    (effects (font (size 1 1) (thickness 0.15)))
  )
  (fp_circle (center 1.75 0) (end 6.75 0) (layer F.Fab) (width 0.1))
  (fp_circle (center 1.75 0) (end 6.87 0) (layer F.SilkS) (width 0.12))
  (fp_circle (center 1.75 0) (end 7 0) (layer F.CrtYd) (width 0.05))
  (fp_line (start -2.538861 -2.1875) (end -1.538861 -2.1875) (layer F.Fab) (width 0.1))
  (fp_line (start -2.038861 -2.6875) (end -2.038861 -1.6875) (layer F.Fab) (width 0.1))
  (fp_line (start 1.75 -5.08) (end 1.75 5.08) (layer F.SilkS) (width 0.12))
  (fp_line (start 1.79 -5.08) (end 1.79 5.08) (layer F.SilkS) (width 0.12))
  (fp_line (start 1.83 -5.08) (end 1.83 5.08) (layer F.SilkS) (width 0.12))
  (fp_line (start 1.87 -5.079) (end 1.87 5.079) (layer F.SilkS) (width 0.12))
  (fp_line (start 1.91 -5.078) (end 1.91 5.078) (layer F.SilkS) (width 0.12))
  (fp_line (start 1.95 -5.077) (end 1.95 5.077) (layer F.SilkS) (width 0.12))
  (fp_line (start 1.99 -5.075) (end 1.99 5.075) (layer F.SilkS) (width 0.12))
  (fp_line (start 2.03 -5.073) (end 2.03 5.073) (layer F.SilkS) (width 0.12))
  (fp_line (start 2.07 -5.07) (end 2.07 5.07) (layer F.SilkS) (width 0.12))
  (fp_line (start 2.11 -5.068) (end 2.11 5.068) (layer F.SilkS) (width 0.12))
  (fp_line (start 2.15 -5.065) (end 2.15 5.065) (layer F.SilkS) (width 0.12))
  (fp_line (start 2.19 -5.062) (end 2.19 5.062) (layer F.SilkS) (width 0.12))
  (fp_line (start 2.23 -5.058) (end 2.23 5.058) (layer F.SilkS) (width 0.12))
  (fp_line (start 2.27 -5.054) (end 2.27 -1.241) (layer F.SilkS) (width 0.12))
  (fp_line (start 2.27 1.241) (end 2.27 5.054) (layer F.SilkS) (width 0.12))
  (fp_line (start 2.31 -5.05) (end 2.31 -1.241) (layer F.SilkS) (width 0.12))
  (fp_line (start 2.31 1.241) (end 2.31 5.05) (layer F.SilkS) (width 0.12))
  (fp_line (start 2.35 -5.045) (end 2.35 -1.241) (layer F.SilkS) (width 0.12))
  (fp_line (start 2.35 1.241) (end 2.35 5.045) (layer F.SilkS) (width 0.12))
  (fp_line (start 2.39 -5.04) (end 2.39 -1.241) (layer F.SilkS) (width 0.12))
  (fp_line (start 2.39 1.241) (end 2.39 5.04) (layer F.SilkS) (width 0.12))
  (fp_line (start 2.43 -5.035) (end 2.43 -1.241) (layer F.SilkS) (width 0.12))
  (fp_line (start 2.43 1.241) (end 2.43 5.035) (layer F.SilkS) (width 0.12))
  (fp_line (start 2.471 -5.03) (end 2.471 -1.241) (layer F.SilkS) (width 0.12))
  (fp_line (start 2.471 1.241) (end 2.471 5.03) (layer F.SilkS) (width 0.12))
  (fp_line (start 2.511 -5.024) (end 2.511 -1.241) (layer F.SilkS) (width 0.12))
  (fp_line (start 2.511 1.241) (end 2.511 5.024) (layer F.SilkS) (width 0.12))
  (fp_line (start 2.551 -5.018) (end 2.551 -1.241) (layer F.SilkS) (width 0.12))
  (fp_line (start 2.551 1.241) (end 2.551 5.018) (layer F.SilkS) (width 0.12))
  (fp_line (start 2.591 -5.011) (end 2.591 -1.241) (layer F.SilkS) (width 0.12))
  (fp_line (start 2.591 1.241) (end 2.591 5.011) (layer F.SilkS) (width 0.12))
  (fp_line (start 2.631 -5.004) (end 2.631 -1.241) (layer F.SilkS) (width 0.12))
  (fp_line (start 2.631 1.241) (end 2.631 5.004) (layer F.SilkS) (width 0.12))
  (fp_line (start 2.671 -4.997) (end 2.671 -1.241) (layer F.SilkS) (width 0.12))
  (fp_line (start 2.671 1.241) (end 2.671 4.997) (layer F.SilkS) (width 0.12))
  (fp_line (start 2.711 -4.99) (end 2.711 -1.241) (layer F.SilkS) (width 0.12))
  (fp_line (start 2.711 1.241) (end 2.711 4.99) (layer F.SilkS) (width 0.12))
  (fp_line (start 2.751 -4.982) (end 2.751 -1.241) (layer F.SilkS) (width 0.12))
  (fp_line (start 2.751 1.241) (end 2.751 4.982) (layer F.SilkS) (width 0.12))
  (fp_line (start 2.791 -4.974) (end 2.791 -1.241) (layer F.SilkS) (width 0.12))
  (fp_line (start 2.791 1.241) (end 2.791 4.974) (layer F.SilkS) (width 0.12))
  (fp_line (start 2.831 -4.965) (end 2.831 -1.241) (layer F.SilkS) (width 0.12))
  (fp_line (start 2.831 1.241) (end 2.831 4.965) (layer F.SilkS) (width 0.12))
  (fp_line (start 2.871 -4.956) (end 2.871 -1.241) (layer F.SilkS) (width 0.12))
  (fp_line (start 2.871 1.241) (end 2.871 4.956) (layer F.SilkS) (width 0.12))
  (fp_line (start 2.911 -4.947) (end 2.911 -1.241) (layer F.SilkS) (width 0.12))
  (fp_line (start 2.911 1.241) (end 2.911 4.947) (layer F.SilkS) (width 0.12))
  (fp_line (start 2.951 -4.938) (end 2.951 -1.241) (layer F.SilkS) (width 0.12))
  (fp_line (start 2.951 1.241) (end 2.951 4.938) (layer F.SilkS) (width 0.12))
  (fp_line (start 2.991 -4.928) (end 2.991 -1.241) (layer F.SilkS) (width 0.12))
  (fp_line (start 2.991 1.241) (end 2.991 4.928) (layer F.SilkS) (width 0.12))
  (fp_line (start 3.031 -4.918) (end 3.031 -1.241) (layer F.SilkS) (width 0.12))
  (fp_line (start 3.031 1.241) (end 3.031 4.918) (layer F.SilkS) (width 0.12))
  (fp_line (start 3.071 -4.907) (end 3.071 -1.241) (layer F.SilkS) (width 0.12))
  (fp_line (start 3.071 1.241) (end 3.071 4.907) (layer F.SilkS) (width 0.12))
  (fp_line (start 3.111 -4.897) (end 3.111 -1.241) (layer F.SilkS) (width 0.12))
  (fp_line (start 3.111 1.241) (end 3.111 4.897) (layer F.SilkS) (width 0.12))
  (fp_line (start 3.151 -4.885) (end 3.151 -1.241) (layer F.SilkS) (width 0.12))
  (fp_line (start 3.151 1.241) (end 3.151 4.885) (layer F.SilkS) (width 0.12))
  (fp_line (start 3.191 -4.874) (end 3.191 -1.241) (layer F.SilkS) (width 0.12))
  (fp_line (start 3.191 1.241) (end 3.191 4.874) (layer F.SilkS) (width 0.12))
  (fp_line (start 3.231 -4.862) (end 3.231 -1.241) (layer F.SilkS) (width 0.12))
  (fp_line (start 3.231 1.241) (end 3.231 4.862) (layer F.SilkS) (width 0.12))
  (fp_line (start 3.271 -4.85) (end 3.271 -1.241) (layer F.SilkS) (width 0.12))
  (fp_line (start 3.271 1.241) (end 3.271 4.85) (layer F.SilkS) (width 0.12))
  (fp_line (start 3.311 -4.837) (end 3.311 -1.241) (layer F.SilkS) (width 0.12))
  (fp_line (start 3.311 1.241) (end 3.311 4.837) (layer F.SilkS) (width 0.12))
  (fp_line (start 3.351 -4.824) (end 3.351 -1.241) (layer F.SilkS) (width 0.12))
  (fp_line (start 3.351 1.241) (end 3.351 4.824) (layer F.SilkS) (width 0.12))
  (fp_line (start 3.391 -4.811) (end 3.391 -1.241) (layer F.SilkS) (width 0.12))
  (fp_line (start 3.391 1.241) (end 3.391 4.811) (layer F.SilkS) (width 0.12))
  (fp_line (start 3.431 -4.797) (end 3.431 -1.241) (layer F.SilkS) (width 0.12))
  (fp_line (start 3.431 1.241) (end 3.431 4.797) (layer F.SilkS) (width 0.12))
  (fp_line (start 3.471 -4.783) (end 3.471 -1.241) (layer F.SilkS) (width 0.12))
  (fp_line (start 3.471 1.241) (end 3.471 4.783) (layer F.SilkS) (width 0.12))
  (fp_line (start 3.511 -4.768) (end 3.511 -1.241) (layer F.SilkS) (width 0.12))
  (fp_line (start 3.511 1.241) (end 3.511 4.768) (layer F.SilkS) (width 0.12))
  (fp_line (start 3.551 -4.754) (end 3.551 -1.241) (layer F.SilkS) (width 0.12))
  (fp_line (start 3.551 1.241) (end 3.551 4.754) (layer F.SilkS) (width 0.12))
  (fp_line (start 3.591 -4.738) (end 3.591 -1.241) (layer F.SilkS) (width 0.12))
  (fp_line (start 3.591 1.241) (end 3.591 4.738) (layer F.SilkS) (width 0.12))
  (fp_line (start 3.631 -4.723) (end 3.631 -1.241) (layer F.SilkS) (width 0.12))
  (fp_line (start 3.631 1.241) (end 3.631 4.723) (layer F.SilkS) (width 0.12))
  (fp_line (start 3.671 -4.707) (end 3.671 -1.241) (layer F.SilkS) (width 0.12))
  (fp_line (start 3.671 1.241) (end 3.671 4.707) (layer F.SilkS) (width 0.12))
  (fp_line (start 3.711 -4.69) (end 3.711 -1.241) (layer F.SilkS) (width 0.12))
  (fp_line (start 3.711 1.241) (end 3.711 4.69) (layer F.SilkS) (width 0.12))
  (fp_line (start 3.751 -4.674) (end 3.751 -1.241) (layer F.SilkS) (width 0.12))
  (fp_line (start 3.751 1.241) (end 3.751 4.674) (layer F.SilkS) (width 0.12))
  (fp_line (start 3.791 -4.657) (end 3.791 -1.241) (layer F.SilkS) (width 0.12))
  (fp_line (start 3.791 1.241) (end 3.791 4.657) (layer F.SilkS) (width 0.12))
  (fp_line (start 3.831 -4.639) (end 3.831 -1.241) (layer F.SilkS) (width 0.12))
  (fp_line (start 3.831 1.241) (end 3.831 4.639) (layer F.SilkS) (width 0.12))
  (fp_line (start 3.871 -4.621) (end 3.871 -1.241) (layer F.SilkS) (width 0.12))
  (fp_line (start 3.871 1.241) (end 3.871 4.621) (layer F.SilkS) (width 0.12))
  (fp_line (start 3.911 -4.603) (end 3.911 -1.241) (layer F.SilkS) (width 0.12))
  (fp_line (start 3.911 1.241) (end 3.911 4.603) (layer F.SilkS) (width 0.12))
  (fp_line (start 3.951 -4.584) (end 3.951 -1.241) (layer F.SilkS) (width 0.12))
  (fp_line (start 3.951 1.241) (end 3.951 4.584) (layer F.SilkS) (width 0.12))
  (fp_line (start 3.991 -4.564) (end 3.991 -1.241) (layer F.SilkS) (width 0.12))
  (fp_line (start 3.991 1.241) (end 3.991 4.564) (layer F.SilkS) (width 0.12))
  (fp_line (start 4.031 -4.545) (end 4.031 -1.241) (layer F.SilkS) (width 0.12))
  (fp_line (start 4.031 1.241) (end 4.031 4.545) (layer F.SilkS) (width 0.12))
  (fp_line (start 4.071 -4.525) (end 4.071 -1.241) (layer F.SilkS) (width 0.12))
  (fp_line (start 4.071 1.241) (end 4.071 4.525) (layer F.SilkS) (width 0.12))
  (fp_line (start 4.111 -4.504) (end 4.111 -1.241) (layer F.SilkS) (width 0.12))
  (fp_line (start 4.111 1.241) (end 4.111 4.504) (layer F.SilkS) (width 0.12))
  (fp_line (start 4.151 -4.483) (end 4.151 -1.241) (layer F.SilkS) (width 0.12))
  (fp_line (start 4.151 1.241) (end 4.151 4.483) (layer F.SilkS) (width 0.12))
  (fp_line (start 4.191 -4.462) (end 4.191 -1.241) (layer F.SilkS) (width 0.12))
  (fp_line (start 4.191 1.241) (end 4.191 4.462) (layer F.SilkS) (width 0.12))
  (fp_line (start 4.231 -4.44) (end 4.231 -1.241) (layer F.SilkS) (width 0.12))
  (fp_line (start 4.231 1.241) (end 4.231 4.44) (layer F.SilkS) (width 0.12))
  (fp_line (start 4.271 -4.417) (end 4.271 -1.241) (layer F.SilkS) (width 0.12))
  (fp_line (start 4.271 1.241) (end 4.271 4.417) (layer F.SilkS) (width 0.12))
  (fp_line (start 4.311 -4.395) (end 4.311 -1.241) (layer F.SilkS) (width 0.12))
  (fp_line (start 4.311 1.241) (end 4.311 4.395) (layer F.SilkS) (width 0.12))
  (fp_line (start 4.351 -4.371) (end 4.351 -1.241) (layer F.SilkS) (width 0.12))
  (fp_line (start 4.351 1.241) (end 4.351 4.371) (layer F.SilkS) (width 0.12))
  (fp_line (start 4.391 -4.347) (end 4.391 -1.241) (layer F.SilkS) (width 0.12))
  (fp_line (start 4.391 1.241) (end 4.391 4.347) (layer F.SilkS) (width 0.12))
  (fp_line (start 4.431 -4.323) (end 4.431 -1.241) (layer F.SilkS) (width 0.12))
  (fp_line (start 4.431 1.241) (end 4.431 4.323) (layer F.SilkS) (width 0.12))
  (fp_line (start 4.471 -4.298) (end 4.471 -1.241) (layer F.SilkS) (width 0.12))
  (fp_line (start 4.471 1.241) (end 4.471 4.298) (layer F.SilkS) (width 0.12))
  (fp_line (start 4.511 -4.273) (end 4.511 -1.241) (layer F.SilkS) (width 0.12))
  (fp_line (start 4.511 1.241) (end 4.511 4.273) (layer F.SilkS) (width 0.12))
  (fp_line (start 4.551 -4.247) (end 4.551 -1.241) (layer F.SilkS) (width 0.12))
  (fp_line (start 4.551 1.241) (end 4.551 4.247) (layer F.SilkS) (width 0.12))
  (fp_line (start 4.591 -4.221) (end 4.591 -1.241) (layer F.SilkS) (width 0.12))
  (fp_line (start 4.591 1.241) (end 4.591 4.221) (layer F.SilkS) (width 0.12))
  (fp_line (start 4.631 -4.194) (end 4.631 -1.241) (layer F.SilkS) (width 0.12))
  (fp_line (start 4.631 1.241) (end 4.631 4.194) (layer F.SilkS) (width 0.12))
  (fp_line (start 4.671 -4.166) (end 4.671 -1.241) (layer F.SilkS) (width 0.12))
  (fp_line (start 4.671 1.241) (end 4.671 4.166) (layer F.SilkS) (width 0.12))
  (fp_line (start 4.711 -4.138) (end 4.711 -1.241) (layer F.SilkS) (width 0.12))
  (fp_line (start 4.711 1.241) (end 4.711 4.138) (layer F.SilkS) (width 0.12))
  (fp_line (start 4.751 -4.11) (end 4.751 4.11) (layer F.SilkS) (width 0.12))
  (fp_line (start 4.791 -4.08) (end 4.791 4.08) (layer F.SilkS) (width 0.12))
  (fp_line (start 4.831 -4.05) (end 4.831 4.05) (layer F.SilkS) (width 0.12))
  (fp_line (start 4.871 -4.02) (end 4.871 4.02) (layer F.SilkS) (width 0.12))
  (fp_line (start 4.911 -3.989) (end 4.911 3.989) (layer F.SilkS) (width 0.12))
  (fp_line (start 4.951 -3.957) (end 4.951 3.957) (layer F.SilkS) (width 0.12))
  (fp_line (start 4.991 -3.925) (end 4.991 3.925) (layer F.SilkS) (width 0.12))
  (fp_line (start 5.031 -3.892) (end 5.031 3.892) (layer F.SilkS) (width 0.12))
  (fp_line (start 5.071 -3.858) (end 5.071 3.858) (layer F.SilkS) (width 0.12))
  (fp_line (start 5.111 -3.824) (end 5.111 3.824) (layer F.SilkS) (width 0.12))
  (fp_line (start 5.151 -3.789) (end 5.151 3.789) (layer F.SilkS) (width 0.12))
  (fp_line (start 5.191 -3.753) (end 5.191 3.753) (layer F.SilkS) (width 0.12))
  (fp_line (start 5.231 -3.716) (end 5.231 3.716) (layer F.SilkS) (width 0.12))
  (fp_line (start 5.271 -3.679) (end 5.271 3.679) (layer F.SilkS) (width 0.12))
  (fp_line (start 5.311 -3.64) (end 5.311 3.64) (layer F.SilkS) (width 0.12))
  (fp_line (start 5.351 -3.601) (end 5.351 3.601) (layer F.SilkS) (width 0.12))
  (fp_line (start 5.391 -3.561) (end 5.391 3.561) (layer F.SilkS) (width 0.12))
  (fp_line (start 5.431 -3.52) (end 5.431 3.52) (layer F.SilkS) (width 0.12))
  (fp_line (start 5.471 -3.478) (end 5.471 3.478) (layer F.SilkS) (width 0.12))
  (fp_line (start 5.511 -3.436) (end 5.511 3.436) (layer F.SilkS) (width 0.12))
  (fp_line (start 5.551 -3.392) (end 5.551 3.392) (layer F.SilkS) (width 0.12))
  (fp_line (start 5.591 -3.347) (end 5.591 3.347) (layer F.SilkS) (width 0.12))
  (fp_line (start 5.631 -3.301) (end 5.631 3.301) (layer F.SilkS) (width 0.12))
  (fp_line (start 5.671 -3.254) (end 5.671 3.254) (layer F.SilkS) (width 0.12))
  (fp_line (start 5.711 -3.206) (end 5.711 3.206) (layer F.SilkS) (width 0.12))
  (fp_line (start 5.751 -3.156) (end 5.751 3.156) (layer F.SilkS) (width 0.12))
  (fp_line (start 5.791 -3.106) (end 5.791 3.106) (layer F.SilkS) (width 0.12))
  (fp_line (start 5.831 -3.054) (end 5.831 3.054) (layer F.SilkS) (width 0.12))
  (fp_line (start 5.871 -3) (end 5.871 3) (layer F.SilkS) (width 0.12))
  (fp_line (start 5.911 -2.945) (end 5.911 2.945) (layer F.SilkS) (width 0.12))
  (fp_line (start 5.951 -2.889) (end 5.951 2.889) (layer F.SilkS) (width 0.12))
  (fp_line (start 5.991 -2.83) (end 5.991 2.83) (layer F.SilkS) (width 0.12))
  (fp_line (start 6.031 -2.77) (end 6.031 2.77) (layer F.SilkS) (width 0.12))
  (fp_line (start 6.071 -2.709) (end 6.071 2.709) (layer F.SilkS) (width 0.12))
  (fp_line (start 6.111 -2.645) (end 6.111 2.645) (layer F.SilkS) (width 0.12))
  (fp_line (start 6.151 -2.579) (end 6.151 2.579) (layer F.SilkS) (width 0.12))
  (fp_line (start 6.191 -2.51) (end 6.191 2.51) (layer F.SilkS) (width 0.12))
  (fp_line (start 6.231 -2.439) (end 6.231 2.439) (layer F.SilkS) (width 0.12))
  (fp_line (start 6.271 -2.365) (end 6.271 2.365) (layer F.SilkS) (width 0.12))
  (fp_line (start 6.311 -2.289) (end 6.311 2.289) (layer F.SilkS) (width 0.12))
  (fp_line (start 6.351 -2.209) (end 6.351 2.209) (layer F.SilkS) (width 0.12))
  (fp_line (start 6.391 -2.125) (end 6.391 2.125) (layer F.SilkS) (width 0.12))
  (fp_line (start 6.431 -2.037) (end 6.431 2.037) (layer F.SilkS) (width 0.12))
  (fp_line (start 6.471 -1.944) (end 6.471 1.944) (layer F.SilkS) (width 0.12))
  (fp_line (start 6.511 -1.846) (end 6.511 1.846) (layer F.SilkS) (width 0.12))
  (fp_line (start 6.551 -1.742) (end 6.551 1.742) (layer F.SilkS) (width 0.12))
  (fp_line (start 6.591 -1.63) (end 6.591 1.63) (layer F.SilkS) (width 0.12))
  (fp_line (start 6.631 -1.51) (end 6.631 1.51) (layer F.SilkS) (width 0.12))
  (fp_line (start 6.671 -1.378) (end 6.671 1.378) (layer F.SilkS) (width 0.12))
  (fp_line (start 6.711 -1.23) (end 6.711 1.23) (layer F.SilkS) (width 0.12))
  (fp_line (start 6.751 -1.062) (end 6.751 1.062) (layer F.SilkS) (width 0.12))
  (fp_line (start 6.791 -0.862) (end 6.791 0.862) (layer F.SilkS) (width 0.12))
  (fp_line (start 6.831 -0.599) (end 6.831 0.599) (layer F.SilkS) (width 0.12))
  (fp_line (start -3.729646 -2.875) (end -2.729646 -2.875) (layer F.SilkS) (width 0.12))
  (fp_line (start -3.229646 -3.375) (end -3.229646 -2.375) (layer F.SilkS) (width 0.12))
  (pad 1 thru_hole rect (at 0 0) (size 2 2) (drill 1) (layers *.Cu *.Mask))
  (pad 2 thru_hole circle (at 3.5 0) (size 2 2) (drill 1) (layers *.Cu *.Mask))
  (fp_text user %R (at 1.75 0) (layer F.Fab)
    (effects (font (size 1 1) (thickness 0.15)))
  )
  (model ${KICAD6_3DMODEL_DIR}/Capacitor_THT.3dshapes/CP_Radial_D10.0mm_P3.50mm.wrl
    (at (xyz 0 0 0))
    (scale (xyz 1 1 1))
    (rotate (xyz 0 0 0))
  )
)