(module CP_Radial_D14.0mm_P5.00mm (layer F.Cu) (tedit 5AE50EF1)
  (descr "CP, Radial series, Radial, pin pitch=5.00mm, , diameter=14mm, Electrolytic Capacitor")
  (tags "CP Radial series Radial pin pitch 5.00mm  diameter 14mm Electrolytic Capacitor")
  (fp_text reference REF** (at 2.5 -8.25) (layer F.SilkS)
    (effects (font (size 1 1) (thickness 0.15)))
  )
  (fp_text value CP_Radial_D14.0mm_P5.00mm (at 2.5 8.25) (layer F.Fab)
    (effects (font (size 1 1) (thickness 0.15)))
  )
  (fp_circle (center 2.5 0) (end 9.5 0) (layer F.Fab) (width 0.1))
  (fp_circle (center 2.5 0) (end 9.62 0) (layer F.SilkS) (width 0.12))
  (fp_circle (center 2.5 0) (end 9.75 0) (layer F.CrtYd) (width 0.05))
  (fp_line (start -3.513066 -3.0675) (end -2.113066 -3.0675) (layer F.Fab) (width 0.1))
  (fp_line (start -2.813066 -3.7675) (end -2.813066 -2.3675) (layer F.Fab) (width 0.1))
  (fp_line (start 2.5 -7.08) (end 2.5 7.08) (layer F.SilkS) (width 0.12))
  (fp_line (start 2.54 -7.08) (end 2.54 7.08) (layer F.SilkS) (width 0.12))
  (fp_line (start 2.58 -7.08) (end 2.58 7.08) (layer F.SilkS) (width 0.12))
  (fp_line (start 2.62 -7.079) (end 2.62 7.079) (layer F.SilkS) (width 0.12))
  (fp_line (start 2.66 -7.079) (end 2.66 7.079) (layer F.SilkS) (width 0.12))
  (fp_line (start 2.7 -7.078) (end 2.7 7.078) (layer F.SilkS) (width 0.12))
  (fp_line (start 2.74 -7.076) (end 2.74 7.076) (layer F.SilkS) (width 0.12))
  (fp_line (start 2.78 -7.075) (end 2.78 7.075) (layer F.SilkS) (width 0.12))
  (fp_line (start 2.82 -7.073) (end 2.82 7.073) (layer F.SilkS) (width 0.12))
  (fp_line (start 2.86 -7.071) (end 2.86 7.071) (layer F.SilkS) (width 0.12))
  (fp_line (start 2.9 -7.069) (end 2.9 7.069) (layer F.SilkS) (width 0.12))
  (fp_line (start 2.94 -7.067) (end 2.94 7.067) (layer F.SilkS) (width 0.12))
  (fp_line (start 2.98 -7.064) (end 2.98 7.064) (layer F.SilkS) (width 0.12))
  (fp_line (start 3.02 -7.061) (end 3.02 7.061) (layer F.SilkS) (width 0.12))
  (fp_line (start 3.06 -7.058) (end 3.06 7.058) (layer F.SilkS) (width 0.12))
  (fp_line (start 3.1 -7.055) (end 3.1 7.055) (layer F.SilkS) (width 0.12))
  (fp_line (start 3.14 -7.052) (end 3.14 7.052) (layer F.SilkS) (width 0.12))
  (fp_line (start 3.18 -7.048) (end 3.18 7.048) (layer F.SilkS) (width 0.12))
  (fp_line (start 3.221 -7.044) (end 3.221 7.044) (layer F.SilkS) (width 0.12))
  (fp_line (start 3.261 -7.04) (end 3.261 7.04) (layer F.SilkS) (width 0.12))
  (fp_line (start 3.301 -7.035) (end 3.301 7.035) (layer F.SilkS) (width 0.12))
  (fp_line (start 3.341 -7.031) (end 3.341 7.031) (layer F.SilkS) (width 0.12))
  (fp_line (start 3.381 -7.026) (end 3.381 7.026) (layer F.SilkS) (width 0.12))
  (fp_line (start 3.421 -7.021) (end 3.421 7.021) (layer F.SilkS) (width 0.12))
  (fp_line (start 3.461 -7.015) (end 3.461 7.015) (layer F.SilkS) (width 0.12))
  (fp_line (start 3.501 -7.01) (end 3.501 7.01) (layer F.SilkS) (width 0.12))
  (fp_line (start 3.541 -7.004) (end 3.541 7.004) (layer F.SilkS) (width 0.12))
  (fp_line (start 3.581 -6.998) (end 3.581 -1.44) (layer F.SilkS) (width 0.12))
  (fp_line (start 3.581 1.44) (end 3.581 6.998) (layer F.SilkS) (width 0.12))
  (fp_line (start 3.621 -6.992) (end 3.621 -1.44) (layer F.SilkS) (width 0.12))
  (fp_line (start 3.621 1.44) (end 3.621 6.992) (layer F.SilkS) (width 0.12))
  (fp_line (start 3.661 -6.985) (end 3.661 -1.44) (layer F.SilkS) (width 0.12))
  (fp_line (start 3.661 1.44) (end 3.661 6.985) (layer F.SilkS) (width 0.12))
  (fp_line (start 3.701 -6.979) (end 3.701 -1.44) (layer F.SilkS) (width 0.12))
  (fp_line (start 3.701 1.44) (end 3.701 6.979) (layer F.SilkS) (width 0.12))
  (fp_line (start 3.741 -6.972) (end 3.741 -1.44) (layer F.SilkS) (width 0.12))
  (fp_line (start 3.741 1.44) (end 3.741 6.972) (layer F.SilkS) (width 0.12))
  (fp_line (start 3.781 -6.964) (end 3.781 -1.44) (layer F.SilkS) (width 0.12))
  (fp_line (start 3.781 1.44) (end 3.781 6.964) (layer F.SilkS) (width 0.12))
  (fp_line (start 3.821 -6.957) (end 3.821 -1.44) (layer F.SilkS) (width 0.12))
  (fp_line (start 3.821 1.44) (end 3.821 6.957) (layer F.SilkS) (width 0.12))
  (fp_line (start 3.861 -6.949) (end 3.861 -1.44) (layer F.SilkS) (width 0.12))
  (fp_line (start 3.861 1.44) (end 3.861 6.949) (layer F.SilkS) (width 0.12))
  (fp_line (start 3.901 -6.942) (end 3.901 -1.44) (layer F.SilkS) (width 0.12))
  (fp_line (start 3.901 1.44) (end 3.901 6.942) (layer F.SilkS) (width 0.12))
  (fp_line (start 3.941 -6.933) (end 3.941 -1.44) (layer F.SilkS) (width 0.12))
  (fp_line (start 3.941 1.44) (end 3.941 6.933) (layer F.SilkS) (width 0.12))
  (fp_line (start 3.981 -6.925) (end 3.981 -1.44) (layer F.SilkS) (width 0.12))
  (fp_line (start 3.981 1.44) (end 3.981 6.925) (layer F.SilkS) (width 0.12))
  (fp_line (start 4.021 -6.916) (end 4.021 -1.44) (layer F.SilkS) (width 0.12))
  (fp_line (start 4.021 1.44) (end 4.021 6.916) (layer F.SilkS) (width 0.12))
  (fp_line (start 4.061 -6.907) (end 4.061 -1.44) (layer F.SilkS) (width 0.12))
  (fp_line (start 4.061 1.44) (end 4.061 6.907) (layer F.SilkS) (width 0.12))
  (fp_line (start 4.101 -6.898) (end 4.101 -1.44) (layer F.SilkS) (width 0.12))
  (fp_line (start 4.101 1.44) (end 4.101 6.898) (layer F.SilkS) (width 0.12))
  (fp_line (start 4.141 -6.889) (end 4.141 -1.44) (layer F.SilkS) (width 0.12))
  (fp_line (start 4.141 1.44) (end 4.141 6.889) (layer F.SilkS) (width 0.12))
  (fp_line (start 4.181 -6.879) (end 4.181 -1.44) (layer F.SilkS) (width 0.12))
  (fp_line (start 4.181 1.44) (end 4.181 6.879) (layer F.SilkS) (width 0.12))
  (fp_line (start 4.221 -6.87) (end 4.221 -1.44) (layer F.SilkS) (width 0.12))
  (fp_line (start 4.221 1.44) (end 4.221 6.87) (layer F.SilkS) (width 0.12))
  (fp_line (start 4.261 -6.86) (end 4.261 -1.44) (layer F.SilkS) (width 0.12))
  (fp_line (start 4.261 1.44) (end 4.261 6.86) (layer F.SilkS) (width 0.12))
  (fp_line (start 4.301 -6.849) (end 4.301 -1.44) (layer F.SilkS) (width 0.12))
  (fp_line (start 4.301 1.44) (end 4.301 6.849) (layer F.SilkS) (width 0.12))
  (fp_line (start 4.341 -6.839) (end 4.341 -1.44) (layer F.SilkS) (width 0.12))
  (fp_line (start 4.341 1.44) (end 4.341 6.839) (layer F.SilkS) (width 0.12))
  (fp_line (start 4.381 -6.828) (end 4.381 -1.44) (layer F.SilkS) (width 0.12))
  (fp_line (start 4.381 1.44) (end 4.381 6.828) (layer F.SilkS) (width 0.12))
  (fp_line (start 4.421 -6.817) (end 4.421 -1.44) (layer F.SilkS) (width 0.12))
  (fp_line (start 4.421 1.44) (end 4.421 6.817) (layer F.SilkS) (width 0.12))
  (fp_line (start 4.461 -6.805) (end 4.461 -1.44) (layer F.SilkS) (width 0.12))
  (fp_line (start 4.461 1.44) (end 4.461 6.805) (layer F.SilkS) (width 0.12))
  (fp_line (start 4.501 -6.794) (end 4.501 -1.44) (layer F.SilkS) (width 0.12))
  (fp_line (start 4.501 1.44) (end 4.501 6.794) (layer F.SilkS) (width 0.12))
  (fp_line (start 4.541 -6.782) (end 4.541 -1.44) (layer F.SilkS) (width 0.12))
  (fp_line (start 4.541 1.44) (end 4.541 6.782) (layer F.SilkS) (width 0.12))
  (fp_line (start 4.581 -6.77) (end 4.581 -1.44) (layer F.SilkS) (width 0.12))
  (fp_line (start 4.581 1.44) (end 4.581 6.77) (layer F.SilkS) (width 0.12))
  (fp_line (start 4.621 -6.758) (end 4.621 -1.44) (layer F.SilkS) (width 0.12))
  (fp_line (start 4.621 1.44) (end 4.621 6.758) (layer F.SilkS) (width 0.12))
  (fp_line (start 4.661 -6.745) (end 4.661 -1.44) (layer F.SilkS) (width 0.12))
  (fp_line (start 4.661 1.44) (end 4.661 6.745) (layer F.SilkS) (width 0.12))
  (fp_line (start 4.701 -6.732) (end 4.701 -1.44) (layer F.SilkS) (width 0.12))
  (fp_line (start 4.701 1.44) (end 4.701 6.732) (layer F.SilkS) (width 0.12))
  (fp_line (start 4.741 -6.719) (end 4.741 -1.44) (layer F.SilkS) (width 0.12))
  (fp_line (start 4.741 1.44) (end 4.741 6.719) (layer F.SilkS) (width 0.12))
  (fp_line (start 4.781 -6.706) (end 4.781 -1.44) (layer F.SilkS) (width 0.12))
  (fp_line (start 4.781 1.44) (end 4.781 6.706) (layer F.SilkS) (width 0.12))
  (fp_line (start 4.821 -6.692) (end 4.821 -1.44) (layer F.SilkS) (width 0.12))
  (fp_line (start 4.821 1.44) (end 4.821 6.692) (layer F.SilkS) (width 0.12))
  (fp_line (start 4.861 -6.678) (end 4.861 -1.44) (layer F.SilkS) (width 0.12))
  (fp_line (start 4.861 1.44) (end 4.861 6.678) (layer F.SilkS) (width 0.12))
  (fp_line (start 4.901 -6.664) (end 4.901 -1.44) (layer F.SilkS) (width 0.12))
  (fp_line (start 4.901 1.44) (end 4.901 6.664) (layer F.SilkS) (width 0.12))
  (fp_line (start 4.941 -6.649) (end 4.941 -1.44) (layer F.SilkS) (width 0.12))
  (fp_line (start 4.941 1.44) (end 4.941 6.649) (layer F.SilkS) (width 0.12))
  (fp_line (start 4.981 -6.635) (end 4.981 -1.44) (layer F.SilkS) (width 0.12))
  (fp_line (start 4.981 1.44) (end 4.981 6.635) (layer F.SilkS) (width 0.12))
  (fp_line (start 5.021 -6.62) (end 5.021 -1.44) (layer F.SilkS) (width 0.12))
  (fp_line (start 5.021 1.44) (end 5.021 6.62) (layer F.SilkS) (width 0.12))
  (fp_line (start 5.061 -6.604) (end 5.061 -1.44) (layer F.SilkS) (width 0.12))
  (fp_line (start 5.061 1.44) (end 5.061 6.604) (layer F.SilkS) (width 0.12))
  (fp_line (start 5.101 -6.589) (end 5.101 -1.44) (layer F.SilkS) (width 0.12))
  (fp_line (start 5.101 1.44) (end 5.101 6.589) (layer F.SilkS) (width 0.12))
  (fp_line (start 5.141 -6.573) (end 5.141 -1.44) (layer F.SilkS) (width 0.12))
  (fp_line (start 5.141 1.44) (end 5.141 6.573) (layer F.SilkS) (width 0.12))
  (fp_line (start 5.181 -6.557) (end 5.181 -1.44) (layer F.SilkS) (width 0.12))
  (fp_line (start 5.181 1.44) (end 5.181 6.557) (layer F.SilkS) (width 0.12))
  (fp_line (start 5.221 -6.54) (end 5.221 -1.44) (layer F.SilkS) (width 0.12))
  (fp_line (start 5.221 1.44) (end 5.221 6.54) (layer F.SilkS) (width 0.12))
  (fp_line (start 5.261 -6.524) (end 5.261 -1.44) (layer F.SilkS) (width 0.12))
  (fp_line (start 5.261 1.44) (end 5.261 6.524) (layer F.SilkS) (width 0.12))
  (fp_line (start 5.301 -6.507) (end 5.301 -1.44) (layer F.SilkS) (width 0.12))
  (fp_line (start 5.301 1.44) (end 5.301 6.507) (layer F.SilkS) (width 0.12))
  (fp_line (start 5.341 -6.49) (end 5.341 -1.44) (layer F.SilkS) (width 0.12))
  (fp_line (start 5.341 1.44) (end 5.341 6.49) (layer F.SilkS) (width 0.12))
  (fp_line (start 5.381 -6.472) (end 5.381 -1.44) (layer F.SilkS) (width 0.12))
  (fp_line (start 5.381 1.44) (end 5.381 6.472) (layer F.SilkS) (width 0.12))
  (fp_line (start 5.421 -6.454) (end 5.421 -1.44) (layer F.SilkS) (width 0.12))
  (fp_line (start 5.421 1.44) (end 5.421 6.454) (layer F.SilkS) (width 0.12))
  (fp_line (start 5.461 -6.436) (end 5.461 -1.44) (layer F.SilkS) (width 0.12))
  (fp_line (start 5.461 1.44) (end 5.461 6.436) (layer F.SilkS) (width 0.12))
  (fp_line (start 5.501 -6.418) (end 5.501 -1.44) (layer F.SilkS) (width 0.12))
  (fp_line (start 5.501 1.44) (end 5.501 6.418) (layer F.SilkS) (width 0.12))
  (fp_line (start 5.541 -6.399) (end 5.541 -1.44) (layer F.SilkS) (width 0.12))
  (fp_line (start 5.541 1.44) (end 5.541 6.399) (layer F.SilkS) (width 0.12))
  (fp_line (start 5.581 -6.38) (end 5.581 -1.44) (layer F.SilkS) (width 0.12))
  (fp_line (start 5.581 1.44) (end 5.581 6.38) (layer F.SilkS) (width 0.12))
  (fp_line (start 5.621 -6.36) (end 5.621 -1.44) (layer F.SilkS) (width 0.12))
  (fp_line (start 5.621 1.44) (end 5.621 6.36) (layer F.SilkS) (width 0.12))
  (fp_line (start 5.661 -6.341) (end 5.661 -1.44) (layer F.SilkS) (width 0.12))
  (fp_line (start 5.661 1.44) (end 5.661 6.341) (layer F.SilkS) (width 0.12))
  (fp_line (start 5.701 -6.321) (end 5.701 -1.44) (layer F.SilkS) (width 0.12))
  (fp_line (start 5.701 1.44) (end 5.701 6.321) (layer F.SilkS) (width 0.12))
  (fp_line (start 5.741 -6.301) (end 5.741 -1.44) (layer F.SilkS) (width 0.12))
  (fp_line (start 5.741 1.44) (end 5.741 6.301) (layer F.SilkS) (width 0.12))
  (fp_line (start 5.781 -6.28) (end 5.781 -1.44) (layer F.SilkS) (width 0.12))
  (fp_line (start 5.781 1.44) (end 5.781 6.28) (layer F.SilkS) (width 0.12))
  (fp_line (start 5.821 -6.259) (end 5.821 -1.44) (layer F.SilkS) (width 0.12))
  (fp_line (start 5.821 1.44) (end 5.821 6.259) (layer F.SilkS) (width 0.12))
  (fp_line (start 5.861 -6.238) (end 5.861 -1.44) (layer F.SilkS) (width 0.12))
  (fp_line (start 5.861 1.44) (end 5.861 6.238) (layer F.SilkS) (width 0.12))
  (fp_line (start 5.901 -6.216) (end 5.901 -1.44) (layer F.SilkS) (width 0.12))
  (fp_line (start 5.901 1.44) (end 5.901 6.216) (layer F.SilkS) (width 0.12))
  (fp_line (start 5.941 -6.194) (end 5.941 -1.44) (layer F.SilkS) (width 0.12))
  (fp_line (start 5.941 1.44) (end 5.941 6.194) (layer F.SilkS) (width 0.12))
  (fp_line (start 5.981 -6.172) (end 5.981 -1.44) (layer F.SilkS) (width 0.12))
  (fp_line (start 5.981 1.44) (end 5.981 6.172) (layer F.SilkS) (width 0.12))
  (fp_line (start 6.021 -6.15) (end 6.021 -1.44) (layer F.SilkS) (width 0.12))
  (fp_line (start 6.021 1.44) (end 6.021 6.15) (layer F.SilkS) (width 0.12))
  (fp_line (start 6.061 -6.127) (end 6.061 -1.44) (layer F.SilkS) (width 0.12))
  (fp_line (start 6.061 1.44) (end 6.061 6.127) (layer F.SilkS) (width 0.12))
  (fp_line (start 6.101 -6.103) (end 6.101 -1.44) (layer F.SilkS) (width 0.12))
  (fp_line (start 6.101 1.44) (end 6.101 6.103) (layer F.SilkS) (width 0.12))
  (fp_line (start 6.141 -6.08) (end 6.141 -1.44) (layer F.SilkS) (width 0.12))
  (fp_line (start 6.141 1.44) (end 6.141 6.08) (layer F.SilkS) (width 0.12))
  (fp_line (start 6.181 -6.056) (end 6.181 -1.44) (layer F.SilkS) (width 0.12))
  (fp_line (start 6.181 1.44) (end 6.181 6.056) (layer F.SilkS) (width 0.12))
  (fp_line (start 6.221 -6.031) (end 6.221 -1.44) (layer F.SilkS) (width 0.12))
  (fp_line (start 6.221 1.44) (end 6.221 6.031) (layer F.SilkS) (width 0.12))
  (fp_line (start 6.261 -6.007) (end 6.261 -1.44) (layer F.SilkS) (width 0.12))
  (fp_line (start 6.261 1.44) (end 6.261 6.007) (layer F.SilkS) (width 0.12))
  (fp_line (start 6.301 -5.982) (end 6.301 -1.44) (layer F.SilkS) (width 0.12))
  (fp_line (start 6.301 1.44) (end 6.301 5.982) (layer F.SilkS) (width 0.12))
  (fp_line (start 6.341 -5.956) (end 6.341 -1.44) (layer F.SilkS) (width 0.12))
  (fp_line (start 6.341 1.44) (end 6.341 5.956) (layer F.SilkS) (width 0.12))
  (fp_line (start 6.381 -5.93) (end 6.381 -1.44) (layer F.SilkS) (width 0.12))
  (fp_line (start 6.381 1.44) (end 6.381 5.93) (layer F.SilkS) (width 0.12))
  (fp_line (start 6.421 -5.904) (end 6.421 -1.44) (layer F.SilkS) (width 0.12))
  (fp_line (start 6.421 1.44) (end 6.421 5.904) (layer F.SilkS) (width 0.12))
  (fp_line (start 6.461 -5.878) (end 6.461 5.878) (layer F.SilkS) (width 0.12))
  (fp_line (start 6.501 -5.851) (end 6.501 5.851) (layer F.SilkS) (width 0.12))
  (fp_line (start 6.541 -5.823) (end 6.541 5.823) (layer F.SilkS) (width 0.12))
  (fp_line (start 6.581 -5.796) (end 6.581 5.796) (layer F.SilkS) (width 0.12))
  (fp_line (start 6.621 -5.767) (end 6.621 5.767) (layer F.SilkS) (width 0.12))
  (fp_line (start 6.661 -5.739) (end 6.661 5.739) (layer F.SilkS) (width 0.12))
  (fp_line (start 6.701 -5.71) (end 6.701 5.71) (layer F.SilkS) (width 0.12))
  (fp_line (start 6.741 -5.68) (end 6.741 5.68) (layer F.SilkS) (width 0.12))
  (fp_line (start 6.781 -5.65) (end 6.781 5.65) (layer F.SilkS) (width 0.12))
  (fp_line (start 6.821 -5.62) (end 6.821 5.62) (layer F.SilkS) (width 0.12))
  (fp_line (start 6.861 -5.589) (end 6.861 5.589) (layer F.SilkS) (width 0.12))
  (fp_line (start 6.901 -5.558) (end 6.901 5.558) (layer F.SilkS) (width 0.12))
  (fp_line (start 6.941 -5.527) (end 6.941 5.527) (layer F.SilkS) (width 0.12))
  (fp_line (start 6.981 -5.494) (end 6.981 5.494) (layer F.SilkS) (width 0.12))
  (fp_line (start 7.021 -5.462) (end 7.021 5.462) (layer F.SilkS) (width 0.12))
  (fp_line (start 7.061 -5.429) (end 7.061 5.429) (layer F.SilkS) (width 0.12))
  (fp_line (start 7.101 -5.395) (end 7.101 5.395) (layer F.SilkS) (width 0.12))
  (fp_line (start 7.141 -5.361) (end 7.141 5.361) (layer F.SilkS) (width 0.12))
  (fp_line (start 7.181 -5.326) (end 7.181 5.326) (layer F.SilkS) (width 0.12))
  (fp_line (start 7.221 -5.291) (end 7.221 5.291) (layer F.SilkS) (width 0.12))
  (fp_line (start 7.261 -5.255) (end 7.261 5.255) (layer F.SilkS) (width 0.12))
  (fp_line (start 7.301 -5.219) (end 7.301 5.219) (layer F.SilkS) (width 0.12))
  (fp_line (start 7.341 -5.182) (end 7.341 5.182) (layer F.SilkS) (width 0.12))
  (fp_line (start 7.381 -5.145) (end 7.381 5.145) (layer F.SilkS) (width 0.12))
  (fp_line (start 7.421 -5.107) (end 7.421 5.107) (layer F.SilkS) (width 0.12))
  (fp_line (start 7.461 -5.069) (end 7.461 5.069) (layer F.SilkS) (width 0.12))
  (fp_line (start 7.501 -5.029) (end 7.501 5.029) (layer F.SilkS) (width 0.12))
  (fp_line (start 7.541 -4.99) (end 7.541 4.99) (layer F.SilkS) (width 0.12))
  (fp_line (start 7.581 -4.949) (end 7.581 4.949) (layer F.SilkS) (width 0.12))
  (fp_line (start 7.621 -4.908) (end 7.621 4.908) (layer F.SilkS) (width 0.12))
  (fp_line (start 7.661 -4.866) (end 7.661 4.866) (layer F.SilkS) (width 0.12))
  (fp_line (start 7.701 -4.824) (end 7.701 4.824) (layer F.SilkS) (width 0.12))
  (fp_line (start 7.741 -4.781) (end 7.741 4.781) (layer F.SilkS) (width 0.12))
  (fp_line (start 7.781 -4.737) (end 7.781 4.737) (layer F.SilkS) (width 0.12))
  (fp_line (start 7.821 -4.693) (end 7.821 4.693) (layer F.SilkS) (width 0.12))
  (fp_line (start 7.861 -4.647) (end 7.861 4.647) (layer F.SilkS) (width 0.12))
  (fp_line (start 7.901 -4.601) (end 7.901 4.601) (layer F.SilkS) (width 0.12))
  (fp_line (start 7.941 -4.554) (end 7.941 4.554) (layer F.SilkS) (width 0.12))
  (fp_line (start 7.981 -4.506) (end 7.981 4.506) (layer F.SilkS) (width 0.12))
  (fp_line (start 8.021 -4.458) (end 8.021 4.458) (layer F.SilkS) (width 0.12))
  (fp_line (start 8.061 -4.408) (end 8.061 4.408) (layer F.SilkS) (width 0.12))
  (fp_line (start 8.101 -4.358) (end 8.101 4.358) (layer F.SilkS) (width 0.12))
  (fp_line (start 8.141 -4.306) (end 8.141 4.306) (layer F.SilkS) (width 0.12))
  (fp_line (start 8.181 -4.254) (end 8.181 4.254) (layer F.SilkS) (width 0.12))
  (fp_line (start 8.221 -4.2) (end 8.221 4.2) (layer F.SilkS) (width 0.12))
  (fp_line (start 8.261 -4.146) (end 8.261 4.146) (layer F.SilkS) (width 0.12))
  (fp_line (start 8.301 -4.09) (end 8.301 4.09) (layer F.SilkS) (width 0.12))
  (fp_line (start 8.341 -4.033) (end 8.341 4.033) (layer F.SilkS) (width 0.12))
  (fp_line (start 8.381 -3.975) (end 8.381 3.975) (layer F.SilkS) (width 0.12))
  (fp_line (start 8.421 -3.916) (end 8.421 3.916) (layer F.SilkS) (width 0.12))
  (fp_line (start 8.461 -3.856) (end 8.461 3.856) (layer F.SilkS) (width 0.12))
  (fp_line (start 8.501 -3.794) (end 8.501 3.794) (layer F.SilkS) (width 0.12))
  (fp_line (start 8.541 -3.73) (end 8.541 3.73) (layer F.SilkS) (width 0.12))
  (fp_line (start 8.581 -3.666) (end 8.581 3.666) (layer F.SilkS) (width 0.12))
  (fp_line (start 8.621 -3.599) (end 8.621 3.599) (layer F.SilkS) (width 0.12))
  (fp_line (start 8.661 -3.531) (end 8.661 3.531) (layer F.SilkS) (width 0.12))
  (fp_line (start 8.701 -3.461) (end 8.701 3.461) (layer F.SilkS) (width 0.12))
  (fp_line (start 8.741 -3.389) (end 8.741 3.389) (layer F.SilkS) (width 0.12))
  (fp_line (start 8.781 -3.315) (end 8.781 3.315) (layer F.SilkS) (width 0.12))
  (fp_line (start 8.821 -3.24) (end 8.821 3.24) (layer F.SilkS) (width 0.12))
  (fp_line (start 8.861 -3.161) (end 8.861 3.161) (layer F.SilkS) (width 0.12))
  (fp_line (start 8.901 -3.08) (end 8.901 3.08) (layer F.SilkS) (width 0.12))
  (fp_line (start 8.941 -2.997) (end 8.941 2.997) (layer F.SilkS) (width 0.12))
  (fp_line (start 8.981 -2.911) (end 8.981 2.911) (layer F.SilkS) (width 0.12))
  (fp_line (start 9.021 -2.821) (end 9.021 2.821) (layer F.SilkS) (width 0.12))
  (fp_line (start 9.061 -2.728) (end 9.061 2.728) (layer F.SilkS) (width 0.12))
  (fp_line (start 9.101 -2.632) (end 9.101 2.632) (layer F.SilkS) (width 0.12))
  (fp_line (start 9.141 -2.53) (end 9.141 2.53) (layer F.SilkS) (width 0.12))
  (fp_line (start 9.181 -2.425) (end 9.181 2.425) (layer F.SilkS) (width 0.12))
  (fp_line (start 9.221 -2.313) (end 9.221 2.313) (layer F.SilkS) (width 0.12))
  (fp_line (start 9.261 -2.196) (end 9.261 2.196) (layer F.SilkS) (width 0.12))
  (fp_line (start 9.301 -2.071) (end 9.301 2.071) (layer F.SilkS) (width 0.12))
  (fp_line (start 9.341 -1.938) (end 9.341 1.938) (layer F.SilkS) (width 0.12))
  (fp_line (start 9.381 -1.794) (end 9.381 1.794) (layer F.SilkS) (width 0.12))
  (fp_line (start 9.421 -1.636) (end 9.421 1.636) (layer F.SilkS) (width 0.12))
  (fp_line (start 9.461 -1.461) (end 9.461 1.461) (layer F.SilkS) (width 0.12))
  (fp_line (start 9.501 -1.262) (end 9.501 1.262) (layer F.SilkS) (width 0.12))
  (fp_line (start 9.541 -1.025) (end 9.541 1.025) (layer F.SilkS) (width 0.12))
  (fp_line (start 9.581 -0.714) (end 9.581 0.714) (layer F.SilkS) (width 0.12))
  (fp_line (start -5.119543 -3.995) (end -3.719543 -3.995) (layer F.SilkS) (width 0.12))
  (fp_line (start -4.419543 -4.695) (end -4.419543 -3.295) (layer F.SilkS) (width 0.12))
  (pad 1 thru_hole rect (at 0 0) (size 2.4 2.4) (drill 1.2) (layers *.Cu *.Mask))
  (pad 2 thru_hole circle (at 5 0) (size 2.4 2.4) (drill 1.2) (layers *.Cu *.Mask))
  (fp_text user %R (at 2.5 0) (layer F.Fab)
    (effects (font (size 1 1) (thickness 0.15)))
  )
  (model ${KICAD6_3DMODEL_DIR}/Capacitor_THT.3dshapes/CP_Radial_D14.0mm_P5.00mm.wrl
    (at (xyz 0 0 0))
    (scale (xyz 1 1 1))
    (rotate (xyz 0 0 0))
  )
)