(module CP_Radial_Tantal_D9.0mm_P2.50mm (layer F.Cu) (tedit 5AE50EF0)
  (descr "CP, Radial_Tantal series, Radial, pin pitch=2.50mm, , diameter=9.0mm, Tantal Electrolytic Capacitor, http://cdn-reichelt.de/documents/datenblatt/B300/TANTAL-TB-Serie%23.pdf")
  (tags "CP Radial_Tantal series Radial pin pitch 2.50mm  diameter 9.0mm Tantal Electrolytic Capacitor")
  (fp_text reference REF** (at 1.25 -5.75) (layer F.SilkS)
    (effects (font (size 1 1) (thickness 0.15)))
  )
  (fp_text value CP_Radial_Tantal_D9.0mm_P2.50mm (at 1.25 5.75) (layer F.Fab)
    (effects (font (size 1 1) (thickness 0.15)))
  )
  (fp_circle (center 1.25 0) (end 5.75 0) (layer F.Fab) (width 0.1))
  (fp_circle (center 1.25 0) (end 5.87 0) (layer F.SilkS) (width 0.12))
  (fp_circle (center 1.25 0) (end 6 0) (layer F.CrtYd) (width 0.05))
  (fp_line (start -2.60781 -1.9675) (end -1.70781 -1.9675) (layer F.Fab) (width 0.1))
  (fp_line (start -2.15781 -2.4175) (end -2.15781 -1.5175) (layer F.Fab) (width 0.1))
  (fp_line (start -3.694672 -2.595) (end -2.794672 -2.595) (layer F.SilkS) (width 0.12))
  (fp_line (start -3.244672 -3.045) (end -3.244672 -2.145) (layer F.SilkS) (width 0.12))
  (pad 1 thru_hole rect (at 0 0) (size 1.6 1.6) (drill 0.8) (layers *.Cu *.Mask))
  (pad 2 thru_hole circle (at 2.5 0) (size 1.6 1.6) (drill 0.8) (layers *.Cu *.Mask))
  (fp_text user %R (at 1.25 0) (layer F.Fab)
    (effects (font (size 1 1) (thickness 0.15)))
  )
  (model ${KICAD6_3DMODEL_DIR}/Capacitor_THT.3dshapes/CP_Radial_Tantal_D9.0mm_P2.50mm.wrl
    (at (xyz 0 0 0))
    (scale (xyz 1 1 1))
    (rotate (xyz 0 0 0))
  )
)