(module CP_Radial_D10.0mm_P7.50mm (layer F.Cu) (tedit 5AE50EF1)
  (descr "CP, Radial series, Radial, pin pitch=7.50mm, , diameter=10mm, Electrolytic Capacitor")
  (tags "CP Radial series Radial pin pitch 7.50mm  diameter 10mm Electrolytic Capacitor")
  (fp_text reference REF** (at 3.75 -6.25) (layer F.SilkS)
    (effects (font (size 1 1) (thickness 0.15)))
  )
  (fp_text value CP_Radial_D10.0mm_P7.50mm (at 3.75 6.25) (layer F.Fab)
    (effects (font (size 1 1) (thickness 0.15)))
  )
  (fp_arc (start 3.75 0) (end -1.21254 -1.26) (angle 331.50704) (layer F.SilkS) (width 0.12))
  (fp_circle (center 3.75 0) (end 8.75 0) (layer F.Fab) (width 0.1))
  (fp_circle (center 3.75 0) (end 9 0) (layer F.CrtYd) (width 0.05))
  (fp_line (start -0.538861 -2.1875) (end 0.461139 -2.1875) (layer F.Fab) (width 0.1))
  (fp_line (start -0.038861 -2.6875) (end -0.038861 -1.6875) (layer F.Fab) (width 0.1))
  (fp_line (start 3.75 -5.08) (end 3.75 5.08) (layer F.SilkS) (width 0.12))
  (fp_line (start 3.79 -5.08) (end 3.79 5.08) (layer F.SilkS) (width 0.12))
  (fp_line (start 3.83 -5.08) (end 3.83 5.08) (layer F.SilkS) (width 0.12))
  (fp_line (start 3.87 -5.079) (end 3.87 5.079) (layer F.SilkS) (width 0.12))
  (fp_line (start 3.91 -5.078) (end 3.91 5.078) (layer F.SilkS) (width 0.12))
  (fp_line (start 3.95 -5.077) (end 3.95 5.077) (layer F.SilkS) (width 0.12))
  (fp_line (start 3.99 -5.075) (end 3.99 5.075) (layer F.SilkS) (width 0.12))
  (fp_line (start 4.03 -5.073) (end 4.03 5.073) (layer F.SilkS) (width 0.12))
  (fp_line (start 4.07 -5.07) (end 4.07 5.07) (layer F.SilkS) (width 0.12))
  (fp_line (start 4.11 -5.068) (end 4.11 5.068) (layer F.SilkS) (width 0.12))
  (fp_line (start 4.15 -5.065) (end 4.15 5.065) (layer F.SilkS) (width 0.12))
  (fp_line (start 4.19 -5.062) (end 4.19 5.062) (layer F.SilkS) (width 0.12))
  (fp_line (start 4.23 -5.058) (end 4.23 5.058) (layer F.SilkS) (width 0.12))
  (fp_line (start 4.27 -5.054) (end 4.27 5.054) (layer F.SilkS) (width 0.12))
  (fp_line (start 4.31 -5.05) (end 4.31 5.05) (layer F.SilkS) (width 0.12))
  (fp_line (start 4.35 -5.045) (end 4.35 5.045) (layer F.SilkS) (width 0.12))
  (fp_line (start 4.39 -5.04) (end 4.39 5.04) (layer F.SilkS) (width 0.12))
  (fp_line (start 4.43 -5.035) (end 4.43 5.035) (layer F.SilkS) (width 0.12))
  (fp_line (start 4.471 -5.03) (end 4.471 5.03) (layer F.SilkS) (width 0.12))
  (fp_line (start 4.511 -5.024) (end 4.511 5.024) (layer F.SilkS) (width 0.12))
  (fp_line (start 4.551 -5.018) (end 4.551 5.018) (layer F.SilkS) (width 0.12))
  (fp_line (start 4.591 -5.011) (end 4.591 5.011) (layer F.SilkS) (width 0.12))
  (fp_line (start 4.631 -5.004) (end 4.631 5.004) (layer F.SilkS) (width 0.12))
  (fp_line (start 4.671 -4.997) (end 4.671 4.997) (layer F.SilkS) (width 0.12))
  (fp_line (start 4.711 -4.99) (end 4.711 4.99) (layer F.SilkS) (width 0.12))
  (fp_line (start 4.751 -4.982) (end 4.751 4.982) (layer F.SilkS) (width 0.12))
  (fp_line (start 4.791 -4.974) (end 4.791 4.974) (layer F.SilkS) (width 0.12))
  (fp_line (start 4.831 -4.965) (end 4.831 4.965) (layer F.SilkS) (width 0.12))
  (fp_line (start 4.871 -4.956) (end 4.871 4.956) (layer F.SilkS) (width 0.12))
  (fp_line (start 4.911 -4.947) (end 4.911 4.947) (layer F.SilkS) (width 0.12))
  (fp_line (start 4.951 -4.938) (end 4.951 4.938) (layer F.SilkS) (width 0.12))
  (fp_line (start 4.991 -4.928) (end 4.991 4.928) (layer F.SilkS) (width 0.12))
  (fp_line (start 5.031 -4.918) (end 5.031 4.918) (layer F.SilkS) (width 0.12))
  (fp_line (start 5.071 -4.907) (end 5.071 4.907) (layer F.SilkS) (width 0.12))
  (fp_line (start 5.111 -4.897) (end 5.111 4.897) (layer F.SilkS) (width 0.12))
  (fp_line (start 5.151 -4.885) (end 5.151 4.885) (layer F.SilkS) (width 0.12))
  (fp_line (start 5.191 -4.874) (end 5.191 4.874) (layer F.SilkS) (width 0.12))
  (fp_line (start 5.231 -4.862) (end 5.231 4.862) (layer F.SilkS) (width 0.12))
  (fp_line (start 5.271 -4.85) (end 5.271 4.85) (layer F.SilkS) (width 0.12))
  (fp_line (start 5.311 -4.837) (end 5.311 4.837) (layer F.SilkS) (width 0.12))
  (fp_line (start 5.351 -4.824) (end 5.351 4.824) (layer F.SilkS) (width 0.12))
  (fp_line (start 5.391 -4.811) (end 5.391 4.811) (layer F.SilkS) (width 0.12))
  (fp_line (start 5.431 -4.797) (end 5.431 4.797) (layer F.SilkS) (width 0.12))
  (fp_line (start 5.471 -4.783) (end 5.471 4.783) (layer F.SilkS) (width 0.12))
  (fp_line (start 5.511 -4.768) (end 5.511 4.768) (layer F.SilkS) (width 0.12))
  (fp_line (start 5.551 -4.754) (end 5.551 4.754) (layer F.SilkS) (width 0.12))
  (fp_line (start 5.591 -4.738) (end 5.591 4.738) (layer F.SilkS) (width 0.12))
  (fp_line (start 5.631 -4.723) (end 5.631 4.723) (layer F.SilkS) (width 0.12))
  (fp_line (start 5.671 -4.707) (end 5.671 4.707) (layer F.SilkS) (width 0.12))
  (fp_line (start 5.711 -4.69) (end 5.711 4.69) (layer F.SilkS) (width 0.12))
  (fp_line (start 5.751 -4.674) (end 5.751 4.674) (layer F.SilkS) (width 0.12))
  (fp_line (start 5.791 -4.657) (end 5.791 4.657) (layer F.SilkS) (width 0.12))
  (fp_line (start 5.831 -4.639) (end 5.831 4.639) (layer F.SilkS) (width 0.12))
  (fp_line (start 5.871 -4.621) (end 5.871 4.621) (layer F.SilkS) (width 0.12))
  (fp_line (start 5.911 -4.603) (end 5.911 4.603) (layer F.SilkS) (width 0.12))
  (fp_line (start 5.951 -4.584) (end 5.951 4.584) (layer F.SilkS) (width 0.12))
  (fp_line (start 5.991 -4.564) (end 5.991 4.564) (layer F.SilkS) (width 0.12))
  (fp_line (start 6.031 -4.545) (end 6.031 4.545) (layer F.SilkS) (width 0.12))
  (fp_line (start 6.071 -4.525) (end 6.071 4.525) (layer F.SilkS) (width 0.12))
  (fp_line (start 6.111 -4.504) (end 6.111 4.504) (layer F.SilkS) (width 0.12))
  (fp_line (start 6.151 -4.483) (end 6.151 4.483) (layer F.SilkS) (width 0.12))
  (fp_line (start 6.191 -4.462) (end 6.191 4.462) (layer F.SilkS) (width 0.12))
  (fp_line (start 6.231 -4.44) (end 6.231 4.44) (layer F.SilkS) (width 0.12))
  (fp_line (start 6.271 -4.417) (end 6.271 -1.241) (layer F.SilkS) (width 0.12))
  (fp_line (start 6.271 1.241) (end 6.271 4.417) (layer F.SilkS) (width 0.12))
  (fp_line (start 6.311 -4.395) (end 6.311 -1.241) (layer F.SilkS) (width 0.12))
  (fp_line (start 6.311 1.241) (end 6.311 4.395) (layer F.SilkS) (width 0.12))
  (fp_line (start 6.351 -4.371) (end 6.351 -1.241) (layer F.SilkS) (width 0.12))
  (fp_line (start 6.351 1.241) (end 6.351 4.371) (layer F.SilkS) (width 0.12))
  (fp_line (start 6.391 -4.347) (end 6.391 -1.241) (layer F.SilkS) (width 0.12))
  (fp_line (start 6.391 1.241) (end 6.391 4.347) (layer F.SilkS) (width 0.12))
  (fp_line (start 6.431 -4.323) (end 6.431 -1.241) (layer F.SilkS) (width 0.12))
  (fp_line (start 6.431 1.241) (end 6.431 4.323) (layer F.SilkS) (width 0.12))
  (fp_line (start 6.471 -4.298) (end 6.471 -1.241) (layer F.SilkS) (width 0.12))
  (fp_line (start 6.471 1.241) (end 6.471 4.298) (layer F.SilkS) (width 0.12))
  (fp_line (start 6.511 -4.273) (end 6.511 -1.241) (layer F.SilkS) (width 0.12))
  (fp_line (start 6.511 1.241) (end 6.511 4.273) (layer F.SilkS) (width 0.12))
  (fp_line (start 6.551 -4.247) (end 6.551 -1.241) (layer F.SilkS) (width 0.12))
  (fp_line (start 6.551 1.241) (end 6.551 4.247) (layer F.SilkS) (width 0.12))
  (fp_line (start 6.591 -4.221) (end 6.591 -1.241) (layer F.SilkS) (width 0.12))
  (fp_line (start 6.591 1.241) (end 6.591 4.221) (layer F.SilkS) (width 0.12))
  (fp_line (start 6.631 -4.194) (end 6.631 -1.241) (layer F.SilkS) (width 0.12))
  (fp_line (start 6.631 1.241) (end 6.631 4.194) (layer F.SilkS) (width 0.12))
  (fp_line (start 6.671 -4.166) (end 6.671 -1.241) (layer F.SilkS) (width 0.12))
  (fp_line (start 6.671 1.241) (end 6.671 4.166) (layer F.SilkS) (width 0.12))
  (fp_line (start 6.711 -4.138) (end 6.711 -1.241) (layer F.SilkS) (width 0.12))
  (fp_line (start 6.711 1.241) (end 6.711 4.138) (layer F.SilkS) (width 0.12))
  (fp_line (start 6.751 -4.11) (end 6.751 -1.241) (layer F.SilkS) (width 0.12))
  (fp_line (start 6.751 1.241) (end 6.751 4.11) (layer F.SilkS) (width 0.12))
  (fp_line (start 6.791 -4.08) (end 6.791 -1.241) (layer F.SilkS) (width 0.12))
  (fp_line (start 6.791 1.241) (end 6.791 4.08) (layer F.SilkS) (width 0.12))
  (fp_line (start 6.831 -4.05) (end 6.831 -1.241) (layer F.SilkS) (width 0.12))
  (fp_line (start 6.831 1.241) (end 6.831 4.05) (layer F.SilkS) (width 0.12))
  (fp_line (start 6.871 -4.02) (end 6.871 -1.241) (layer F.SilkS) (width 0.12))
  (fp_line (start 6.871 1.241) (end 6.871 4.02) (layer F.SilkS) (width 0.12))
  (fp_line (start 6.911 -3.989) (end 6.911 -1.241) (layer F.SilkS) (width 0.12))
  (fp_line (start 6.911 1.241) (end 6.911 3.989) (layer F.SilkS) (width 0.12))
  (fp_line (start 6.951 -3.957) (end 6.951 -1.241) (layer F.SilkS) (width 0.12))
  (fp_line (start 6.951 1.241) (end 6.951 3.957) (layer F.SilkS) (width 0.12))
  (fp_line (start 6.991 -3.925) (end 6.991 -1.241) (layer F.SilkS) (width 0.12))
  (fp_line (start 6.991 1.241) (end 6.991 3.925) (layer F.SilkS) (width 0.12))
  (fp_line (start 7.031 -3.892) (end 7.031 -1.241) (layer F.SilkS) (width 0.12))
  (fp_line (start 7.031 1.241) (end 7.031 3.892) (layer F.SilkS) (width 0.12))
  (fp_line (start 7.071 -3.858) (end 7.071 -1.241) (layer F.SilkS) (width 0.12))
  (fp_line (start 7.071 1.241) (end 7.071 3.858) (layer F.SilkS) (width 0.12))
  (fp_line (start 7.111 -3.824) (end 7.111 -1.241) (layer F.SilkS) (width 0.12))
  (fp_line (start 7.111 1.241) (end 7.111 3.824) (layer F.SilkS) (width 0.12))
  (fp_line (start 7.151 -3.789) (end 7.151 -1.241) (layer F.SilkS) (width 0.12))
  (fp_line (start 7.151 1.241) (end 7.151 3.789) (layer F.SilkS) (width 0.12))
  (fp_line (start 7.191 -3.753) (end 7.191 -1.241) (layer F.SilkS) (width 0.12))
  (fp_line (start 7.191 1.241) (end 7.191 3.753) (layer F.SilkS) (width 0.12))
  (fp_line (start 7.231 -3.716) (end 7.231 -1.241) (layer F.SilkS) (width 0.12))
  (fp_line (start 7.231 1.241) (end 7.231 3.716) (layer F.SilkS) (width 0.12))
  (fp_line (start 7.271 -3.679) (end 7.271 -1.241) (layer F.SilkS) (width 0.12))
  (fp_line (start 7.271 1.241) (end 7.271 3.679) (layer F.SilkS) (width 0.12))
  (fp_line (start 7.311 -3.64) (end 7.311 -1.241) (layer F.SilkS) (width 0.12))
  (fp_line (start 7.311 1.241) (end 7.311 3.64) (layer F.SilkS) (width 0.12))
  (fp_line (start 7.351 -3.601) (end 7.351 -1.241) (layer F.SilkS) (width 0.12))
  (fp_line (start 7.351 1.241) (end 7.351 3.601) (layer F.SilkS) (width 0.12))
  (fp_line (start 7.391 -3.561) (end 7.391 -1.241) (layer F.SilkS) (width 0.12))
  (fp_line (start 7.391 1.241) (end 7.391 3.561) (layer F.SilkS) (width 0.12))
  (fp_line (start 7.431 -3.52) (end 7.431 -1.241) (layer F.SilkS) (width 0.12))
  (fp_line (start 7.431 1.241) (end 7.431 3.52) (layer F.SilkS) (width 0.12))
  (fp_line (start 7.471 -3.478) (end 7.471 -1.241) (layer F.SilkS) (width 0.12))
  (fp_line (start 7.471 1.241) (end 7.471 3.478) (layer F.SilkS) (width 0.12))
  (fp_line (start 7.511 -3.436) (end 7.511 -1.241) (layer F.SilkS) (width 0.12))
  (fp_line (start 7.511 1.241) (end 7.511 3.436) (layer F.SilkS) (width 0.12))
  (fp_line (start 7.551 -3.392) (end 7.551 -1.241) (layer F.SilkS) (width 0.12))
  (fp_line (start 7.551 1.241) (end 7.551 3.392) (layer F.SilkS) (width 0.12))
  (fp_line (start 7.591 -3.347) (end 7.591 -1.241) (layer F.SilkS) (width 0.12))
  (fp_line (start 7.591 1.241) (end 7.591 3.347) (layer F.SilkS) (width 0.12))
  (fp_line (start 7.631 -3.301) (end 7.631 -1.241) (layer F.SilkS) (width 0.12))
  (fp_line (start 7.631 1.241) (end 7.631 3.301) (layer F.SilkS) (width 0.12))
  (fp_line (start 7.671 -3.254) (end 7.671 -1.241) (layer F.SilkS) (width 0.12))
  (fp_line (start 7.671 1.241) (end 7.671 3.254) (layer F.SilkS) (width 0.12))
  (fp_line (start 7.711 -3.206) (end 7.711 -1.241) (layer F.SilkS) (width 0.12))
  (fp_line (start 7.711 1.241) (end 7.711 3.206) (layer F.SilkS) (width 0.12))
  (fp_line (start 7.751 -3.156) (end 7.751 -1.241) (layer F.SilkS) (width 0.12))
  (fp_line (start 7.751 1.241) (end 7.751 3.156) (layer F.SilkS) (width 0.12))
  (fp_line (start 7.791 -3.106) (end 7.791 -1.241) (layer F.SilkS) (width 0.12))
  (fp_line (start 7.791 1.241) (end 7.791 3.106) (layer F.SilkS) (width 0.12))
  (fp_line (start 7.831 -3.054) (end 7.831 -1.241) (layer F.SilkS) (width 0.12))
  (fp_line (start 7.831 1.241) (end 7.831 3.054) (layer F.SilkS) (width 0.12))
  (fp_line (start 7.871 -3) (end 7.871 -1.241) (layer F.SilkS) (width 0.12))
  (fp_line (start 7.871 1.241) (end 7.871 3) (layer F.SilkS) (width 0.12))
  (fp_line (start 7.911 -2.945) (end 7.911 -1.241) (layer F.SilkS) (width 0.12))
  (fp_line (start 7.911 1.241) (end 7.911 2.945) (layer F.SilkS) (width 0.12))
  (fp_line (start 7.951 -2.889) (end 7.951 -1.241) (layer F.SilkS) (width 0.12))
  (fp_line (start 7.951 1.241) (end 7.951 2.889) (layer F.SilkS) (width 0.12))
  (fp_line (start 7.991 -2.83) (end 7.991 -1.241) (layer F.SilkS) (width 0.12))
  (fp_line (start 7.991 1.241) (end 7.991 2.83) (layer F.SilkS) (width 0.12))
  (fp_line (start 8.031 -2.77) (end 8.031 -1.241) (layer F.SilkS) (width 0.12))
  (fp_line (start 8.031 1.241) (end 8.031 2.77) (layer F.SilkS) (width 0.12))
  (fp_line (start 8.071 -2.709) (end 8.071 -1.241) (layer F.SilkS) (width 0.12))
  (fp_line (start 8.071 1.241) (end 8.071 2.709) (layer F.SilkS) (width 0.12))
  (fp_line (start 8.111 -2.645) (end 8.111 -1.241) (layer F.SilkS) (width 0.12))
  (fp_line (start 8.111 1.241) (end 8.111 2.645) (layer F.SilkS) (width 0.12))
  (fp_line (start 8.151 -2.579) (end 8.151 -1.241) (layer F.SilkS) (width 0.12))
  (fp_line (start 8.151 1.241) (end 8.151 2.579) (layer F.SilkS) (width 0.12))
  (fp_line (start 8.191 -2.51) (end 8.191 -1.241) (layer F.SilkS) (width 0.12))
  (fp_line (start 8.191 1.241) (end 8.191 2.51) (layer F.SilkS) (width 0.12))
  (fp_line (start 8.231 -2.439) (end 8.231 -1.241) (layer F.SilkS) (width 0.12))
  (fp_line (start 8.231 1.241) (end 8.231 2.439) (layer F.SilkS) (width 0.12))
  (fp_line (start 8.271 -2.365) (end 8.271 -1.241) (layer F.SilkS) (width 0.12))
  (fp_line (start 8.271 1.241) (end 8.271 2.365) (layer F.SilkS) (width 0.12))
  (fp_line (start 8.311 -2.289) (end 8.311 -1.241) (layer F.SilkS) (width 0.12))
  (fp_line (start 8.311 1.241) (end 8.311 2.289) (layer F.SilkS) (width 0.12))
  (fp_line (start 8.351 -2.209) (end 8.351 -1.241) (layer F.SilkS) (width 0.12))
  (fp_line (start 8.351 1.241) (end 8.351 2.209) (layer F.SilkS) (width 0.12))
  (fp_line (start 8.391 -2.125) (end 8.391 -1.241) (layer F.SilkS) (width 0.12))
  (fp_line (start 8.391 1.241) (end 8.391 2.125) (layer F.SilkS) (width 0.12))
  (fp_line (start 8.431 -2.037) (end 8.431 -1.241) (layer F.SilkS) (width 0.12))
  (fp_line (start 8.431 1.241) (end 8.431 2.037) (layer F.SilkS) (width 0.12))
  (fp_line (start 8.471 -1.944) (end 8.471 -1.241) (layer F.SilkS) (width 0.12))
  (fp_line (start 8.471 1.241) (end 8.471 1.944) (layer F.SilkS) (width 0.12))
  (fp_line (start 8.511 -1.846) (end 8.511 -1.241) (layer F.SilkS) (width 0.12))
  (fp_line (start 8.511 1.241) (end 8.511 1.846) (layer F.SilkS) (width 0.12))
  (fp_line (start 8.551 -1.742) (end 8.551 -1.241) (layer F.SilkS) (width 0.12))
  (fp_line (start 8.551 1.241) (end 8.551 1.742) (layer F.SilkS) (width 0.12))
  (fp_line (start 8.591 -1.63) (end 8.591 -1.241) (layer F.SilkS) (width 0.12))
  (fp_line (start 8.591 1.241) (end 8.591 1.63) (layer F.SilkS) (width 0.12))
  (fp_line (start 8.631 -1.51) (end 8.631 -1.241) (layer F.SilkS) (width 0.12))
  (fp_line (start 8.631 1.241) (end 8.631 1.51) (layer F.SilkS) (width 0.12))
  (fp_line (start 8.671 -1.378) (end 8.671 -1.241) (layer F.SilkS) (width 0.12))
  (fp_line (start 8.671 1.241) (end 8.671 1.378) (layer F.SilkS) (width 0.12))
  (fp_line (start 8.751 -1.062) (end 8.751 1.062) (layer F.SilkS) (width 0.12))
  (fp_line (start 8.791 -0.862) (end 8.791 0.862) (layer F.SilkS) (width 0.12))
  (fp_line (start 8.831 -0.599) (end 8.831 0.599) (layer F.SilkS) (width 0.12))
  (fp_line (start -1.729646 -2.875) (end -0.729646 -2.875) (layer F.SilkS) (width 0.12))
  (fp_line (start -1.229646 -3.375) (end -1.229646 -2.375) (layer F.SilkS) (width 0.12))
  (pad 1 thru_hole rect (at 0 0) (size 2 2) (drill 1) (layers *.Cu *.Mask))
  (pad 2 thru_hole circle (at 7.5 0) (size 2 2) (drill 1) (layers *.Cu *.Mask))
  (fp_text user %R (at 3.75 0) (layer F.Fab)
    (effects (font (size 1 1) (thickness 0.15)))
  )
  (model ${KICAD6_3DMODEL_DIR}/Capacitor_THT.3dshapes/CP_Radial_D10.0mm_P7.50mm.wrl
    (at (xyz 0 0 0))
    (scale (xyz 1 1 1))
    (rotate (xyz 0 0 0))
  )
)