(footprint "LED_CSP_Samsung_LH181B_2.36x2.36mm" (version 20210424) (generator pcbnew) (layer "F.Cu")
  (tedit 60B0A715)
  (descr "High Power CSP LED, 2.36mm x 2.36mm, 1.4A max, https://cdn.samsung.com/led/file/resource/2021/01/Data_Sheet_LH181B_Rev.4.0.pdf")
  (tags "LED Samsung LH181B")
  (attr smd)
  (fp_text reference "REF**" (at 0 -2) (layer "F.SilkS")
    (effects (font (size 1 1) (thickness 0.15)))
    (tstamp 7e1d6f84-4e47-45a2-a919-acd57f4dbde4)
  )
  (fp_text value "LED_CSP_Samsung_LH181B_2.36x2.36mm" (at 0 2) (layer "F.Fab")
    (effects (font (size 1 1) (thickness 0.15)))
    (tstamp 10eccb04-ce80-4098-b791-61274f33fee1)
  )
  (fp_text user "${REFERENCE}" (at 0 0) (layer "F.Fab")
    (effects (font (size 0.5 0.5) (thickness 0.075)))
    (tstamp 587938d4-70e2-4c21-a234-0e773997dc8a)
  )
  (fp_line (start -1.3 -1.3) (end 1.3 -1.3) (layer "F.SilkS") (width 0.12) (tstamp 045e3507-2403-4c86-bb84-ef035ec61a81))
  (fp_line (start 1.3 1.3) (end -1.3 1.3) (layer "F.SilkS") (width 0.12) (tstamp 5a0c9746-48b0-4a45-b50b-d06c615aea93))
  (fp_line (start -1.3 1.3) (end -1.3 -1.3) (layer "F.SilkS") (width 0.12) (tstamp 8454489c-0069-4079-bd5e-e2b20d053ccc))
  (fp_line (start -1.43 -1.43) (end 1.43 -1.43) (layer "F.CrtYd") (width 0.05) (tstamp 0dd62360-9b36-4163-b7f2-7f5f0c1b49d9))
  (fp_line (start 1.43 1.43) (end -1.43 1.43) (layer "F.CrtYd") (width 0.05) (tstamp 82343603-2664-418d-9cc8-0c39b2dc3cfe))
  (fp_line (start -1.43 1.43) (end -1.43 -1.43) (layer "F.CrtYd") (width 0.05) (tstamp 8368345a-d297-4c67-9e74-0e9151646ef4))
  (fp_line (start 1.43 -1.43) (end 1.43 1.43) (layer "F.CrtYd") (width 0.05) (tstamp d2bf07bc-c9ac-46a6-b040-39298eb786bc))
  (fp_line (start 1.18 1.18) (end -1.18 1.18) (layer "F.Fab") (width 0.1) (tstamp 8dbdbb4b-448d-4a77-8628-6f702072cf88))
  (fp_line (start -1.18 1.18) (end -1.18 -1.18) (layer "F.Fab") (width 0.1) (tstamp a868988e-f827-4b50-a0fa-8c9e4fa8bab9))
  (fp_line (start 1.18 -1.18) (end 1.18 1.18) (layer "F.Fab") (width 0.1) (tstamp ae90b4bc-5037-40c9-8411-5dd2207cca66))
  (fp_line (start -1.18 -1.18) (end 1.18 -1.18) (layer "F.Fab") (width 0.1) (tstamp d29f917a-355e-4965-bee3-9545660d7b69))
  (fp_line (start -1.18 -0.5) (end -0.5 -1.18) (layer "F.Fab") (width 0.1) (tstamp df8e5591-d733-4276-a283-96682e41ccaf))
  (pad "1" smd rect (at -0.39 0 90) (size 1.3 0.53) (layers "F.Cu" "F.Paste" "F.Mask") (tstamp a332ed8f-4928-4bb1-a813-feaff2169779))
  (pad "2" smd rect (at 0.39 0 90) (size 1.3 0.53) (layers "F.Cu" "F.Paste" "F.Mask") (tstamp 47a86def-f547-4269-9d41-e68b3da473b7))
  (model "${KICAD6_3DMODEL_DIR}/LED_SMD.3dshapes/LED_CSP_Samsung_LH181B_2.36x2.36mm.wrl"
    (offset (xyz 0 0 0))
    (scale (xyz 1 1 1))
    (rotate (xyz 0 0 0))
  )
)
