(module LED_miniPLCC_2315 (layer F.Cu) (tedit 587A7551)
  (descr https://docs.broadcom.com/cs/Satellite?blobcol=urldata&blobheader=application%2Fpdf&blobheadername1=Content-Disposition&blobheadername2=Content-Type&blobheadername3=MDT-Type&blobheadervalue1=attachment%3Bfilename%3DAV02-2205EN_DS_ASMT-TxBM_2014-05-09.pdf&blobheadervalue2=application%2Fx-download&blobheadervalue3=abinary%253B%2Bcharset%253DUTF-8&blobkey=id&blobnocache=true&blobtable=MungoBlobs&blobwhere=1430858274704&ssbinary=true)
  (tags LED)
  (attr smd)
  (fp_text reference REF** (at 0 1.75) (layer F.SilkS)
    (effects (font (size 1 1) (thickness 0.15)))
  )
  (fp_text value LED_miniPLCC_2315 (at 0 -1.75) (layer F.Fab)
    (effects (font (size 1 1) (thickness 0.15)))
  )
  (fp_line (start -1.65 -0.95) (end 1.65 -0.95) (layer F.CrtYd) (width 0.05))
  (fp_line (start 1.65 -0.95) (end 1.65 0.95) (layer F.CrtYd) (width 0.05))
  (fp_line (start 1.65 0.95) (end -1.65 0.95) (layer F.CrtYd) (width 0.05))
  (fp_line (start -1.65 0.95) (end -1.65 -0.95) (layer F.CrtYd) (width 0.05))
  (fp_line (start 1.15 -0.75) (end -1.4 -0.75) (layer F.SilkS) (width 0.12))
  (fp_line (start -1.4 0.8) (end 1.15 0.8) (layer F.SilkS) (width 0.12))
  (fp_line (start -0.25 0) (end 0.1 0.3) (layer F.Fab) (width 0.1))
  (fp_line (start 0.1 0.3) (end 0.1 -0.35) (layer F.Fab) (width 0.1))
  (fp_line (start 0.1 -0.35) (end -0.25 0) (layer F.Fab) (width 0.1))
  (fp_line (start -0.25 -0.35) (end -0.25 0.3) (layer F.Fab) (width 0.1))
  (fp_line (start 1.15 -0.7) (end 1.15 0.7) (layer F.Fab) (width 0.1))
  (fp_line (start -1.15 -0.7) (end 1.15 -0.7) (layer F.Fab) (width 0.1))
  (fp_line (start -1.15 0.7) (end -1.15 -0.7) (layer F.Fab) (width 0.1))
  (fp_line (start 1.15 0.7) (end -1.15 0.7) (layer F.Fab) (width 0.1))
  (pad 1 smd rect (at -1 0 180) (size 0.8 1) (layers F.Cu F.Paste F.Mask))
  (pad 2 smd rect (at 1 0 180) (size 0.8 1) (layers F.Cu F.Paste F.Mask))
  (model ${KICAD6_3DMODEL_DIR}/LED_SMD.3dshapes/LED_miniPLCC_2315.wrl
    (at (xyz 0 0 0))
    (scale (xyz 1 1 1))
    (rotate (xyz 0 0 0))
  )
)
