(module LED_ROHM_SMLVN6 (layer F.Cu) (tedit 5BAD5C2D)
  (descr https://www.rohm.com/datasheet/SMLVN6RGB1U)
  (tags "LED ROHM SMLVN6")
  (attr smd)
  (fp_text reference REF** (at 0 -2.65) (layer F.SilkS)
    (effects (font (size 1 1) (thickness 0.15)))
  )
  (fp_text value LED_ROHM_SMLVN6 (at 0 2.65) (layer F.Fab)
    (effects (font (size 1 1) (thickness 0.15)))
  )
  (fp_line (start -2.55 -1.8) (end -2.55 1.8) (layer F.CrtYd) (width 0.05))
  (fp_line (start -2.55 1.8) (end 2.55 1.8) (layer F.CrtYd) (width 0.05))
  (fp_line (start 2.55 1.8) (end 2.55 -1.8) (layer F.CrtYd) (width 0.05))
  (fp_line (start 2.55 -1.8) (end -2.55 -1.8) (layer F.CrtYd) (width 0.05))
  (fp_line (start -1.55 -0.4) (end -0.55 -1.4) (layer F.Fab) (width 0.1))
  (fp_line (start -0.55 -1.4) (end 1.55 -1.4) (layer F.Fab) (width 0.1))
  (fp_line (start 1.55 -1.4) (end 1.55 1.4) (layer F.Fab) (width 0.1))
  (fp_line (start 1.55 1.4) (end -1.55 1.4) (layer F.Fab) (width 0.1))
  (fp_line (start -1.55 1.4) (end -1.55 -0.4) (layer F.Fab) (width 0.1))
  (fp_line (start -2.19 -1.7) (end 1.525 -1.7) (layer F.SilkS) (width 0.12))
  (fp_line (start -1.525 1.7) (end 1.525 1.7) (layer F.SilkS) (width 0.12))
  (fp_text user %R (at 0 0) (layer F.Fab)
    (effects (font (size 0.7 0.7) (thickness 0.1)))
  )
  (pad 1 smd roundrect (at -1.525 -1.05) (size 1.45 0.8) (layers F.Cu F.Paste F.Mask) (roundrect_rratio 0.2))
  (pad 6 smd roundrect (at 1.525 -1.05) (size 1.45 0.8) (layers F.Cu F.Paste F.Mask) (roundrect_rratio 0.2))
  (pad 2 smd roundrect (at -1.525 0) (size 1.45 0.6) (layers F.Cu F.Paste F.Mask) (roundrect_rratio 0.2))
  (pad 5 smd roundrect (at 1.525 0) (size 1.45 0.6) (layers F.Cu F.Paste F.Mask) (roundrect_rratio 0.2))
  (pad 3 smd roundrect (at -1.525 1.05) (size 1.45 0.8) (layers F.Cu F.Paste F.Mask) (roundrect_rratio 0.2))
  (pad 4 smd roundrect (at 1.525 1.05) (size 1.45 0.8) (layers F.Cu F.Paste F.Mask) (roundrect_rratio 0.2))
  (model ${KICAD6_3DMODEL_DIR}/LED_SMD.3dshapes/LED_ROHM_SMLVN6.wrl
    (at (xyz 0 0 0))
    (scale (xyz 1 1 1))
    (rotate (xyz 0 0 0))
  )
)
