(module LED_1210_3225Metric_Pad1.42x2.65mm_HandSolder (layer F.Cu) (tedit 5F68FEF1)
  (descr "LED SMD 1210 (3225 Metric), square (rectangular) end terminal, IPC_7351 nominal, (Body size source: http://www.tortai-tech.com/upload/download/2011102023233369053.pdf), generated with kicad-footprint-generator")
  (tags "LED handsolder")
  (attr smd)
  (fp_text reference REF** (at 0 -2.28) (layer F.SilkS)
    (effects (font (size 1 1) (thickness 0.15)))
  )
  (fp_text value LED_1210_3225Metric_Pad1.42x2.65mm_HandSolder (at 0 2.28) (layer F.Fab)
    (effects (font (size 1 1) (thickness 0.15)))
  )
  (fp_line (start 1.6 -1.25) (end -0.975 -1.25) (layer F.Fab) (width 0.1))
  (fp_line (start -0.975 -1.25) (end -1.6 -0.625) (layer F.Fab) (width 0.1))
  (fp_line (start -1.6 -0.625) (end -1.6 1.25) (layer F.Fab) (width 0.1))
  (fp_line (start -1.6 1.25) (end 1.6 1.25) (layer F.Fab) (width 0.1))
  (fp_line (start 1.6 1.25) (end 1.6 -1.25) (layer F.Fab) (width 0.1))
  (fp_line (start 1.6 -1.585) (end -2.46 -1.585) (layer F.SilkS) (width 0.12))
  (fp_line (start -2.46 -1.585) (end -2.46 1.585) (layer F.SilkS) (width 0.12))
  (fp_line (start -2.46 1.585) (end 1.6 1.585) (layer F.SilkS) (width 0.12))
  (fp_line (start -2.45 1.58) (end -2.45 -1.58) (layer F.CrtYd) (width 0.05))
  (fp_line (start -2.45 -1.58) (end 2.45 -1.58) (layer F.CrtYd) (width 0.05))
  (fp_line (start 2.45 -1.58) (end 2.45 1.58) (layer F.CrtYd) (width 0.05))
  (fp_line (start 2.45 1.58) (end -2.45 1.58) (layer F.CrtYd) (width 0.05))
  (pad 1 smd roundrect (at -1.4875 0) (size 1.425 2.65) (layers F.Cu F.Mask F.Paste) (roundrect_rratio 0.175439))
  (pad 2 smd roundrect (at 1.4875 0) (size 1.425 2.65) (layers F.Cu F.Mask F.Paste) (roundrect_rratio 0.175439))
  (fp_text user %R (at 0 0) (layer F.Fab)
    (effects (font (size 0.8 0.8) (thickness 0.12)))
  )
  (model ${KICAD6_3DMODEL_DIR}/LED_SMD.3dshapes/LED_1210_3225Metric.wrl
    (at (xyz 0 0 0))
    (scale (xyz 1 1 1))
    (rotate (xyz 0 0 0))
  )
)