(module LED_1812_4532Metric_Pad1.30x3.40mm_HandSolder (layer F.Cu) (tedit 5F68FEF1)
  (descr "LED SMD 1812 (4532 Metric), square (rectangular) end terminal, IPC_7351 nominal, (Body size source: https://www.nikhef.nl/pub/departments/mt/projects/detectorR_D/dtddice/ERJ2G.pdf), generated with kicad-footprint-generator")
  (tags "LED handsolder")
  (attr smd)
  (fp_text reference REF** (at 0 -2.65) (layer F.SilkS)
    (effects (font (size 1 1) (thickness 0.15)))
  )
  (fp_text value LED_1812_4532Metric_Pad1.30x3.40mm_HandSolder (at 0 2.65) (layer F.Fab)
    (effects (font (size 1 1) (thickness 0.15)))
  )
  (fp_line (start 2.25 -1.6) (end -1.45 -1.6) (layer F.Fab) (width 0.1))
  (fp_line (start -1.45 -1.6) (end -2.25 -0.8) (layer F.Fab) (width 0.1))
  (fp_line (start -2.25 -0.8) (end -2.25 1.6) (layer F.Fab) (width 0.1))
  (fp_line (start -2.25 1.6) (end 2.25 1.6) (layer F.Fab) (width 0.1))
  (fp_line (start 2.25 1.6) (end 2.25 -1.6) (layer F.Fab) (width 0.1))
  (fp_line (start 2.25 -1.96) (end -3.135 -1.96) (layer F.SilkS) (width 0.12))
  (fp_line (start -3.135 -1.96) (end -3.135 1.96) (layer F.SilkS) (width 0.12))
  (fp_line (start -3.135 1.96) (end 2.25 1.96) (layer F.SilkS) (width 0.12))
  (fp_line (start -3.12 1.95) (end -3.12 -1.95) (layer F.CrtYd) (width 0.05))
  (fp_line (start -3.12 -1.95) (end 3.12 -1.95) (layer F.CrtYd) (width 0.05))
  (fp_line (start 3.12 -1.95) (end 3.12 1.95) (layer F.CrtYd) (width 0.05))
  (fp_line (start 3.12 1.95) (end -3.12 1.95) (layer F.CrtYd) (width 0.05))
  (pad 1 smd roundrect (at -2.225 0) (size 1.3 3.4) (layers F.Cu F.Mask F.Paste) (roundrect_rratio 0.192308))
  (pad 2 smd roundrect (at 2.225 0) (size 1.3 3.4) (layers F.Cu F.Mask F.Paste) (roundrect_rratio 0.192308))
  (fp_text user %R (at 0 0) (layer F.Fab)
    (effects (font (size 1 1) (thickness 0.15)))
  )
  (model ${KICAD6_3DMODEL_DIR}/LED_SMD.3dshapes/LED_1812_4532Metric.wrl
    (at (xyz 0 0 0))
    (scale (xyz 1 1 1))
    (rotate (xyz 0 0 0))
  )
)