(module LED_ASMB-KTF0-0A306 (layer F.Cu) (tedit 5E73B69F)
  (descr "2220 Tricolor PLCC-4 LED, https://docs.broadcom.com/docs/ASMB-KTF0-0A306-DS100")
  (tags "Tricolor LED")
  (attr smd)
  (fp_text reference REF** (at 0 2.25) (layer F.SilkS)
    (effects (font (size 1 1) (thickness 0.15)))
  )
  (fp_text value LED_ASMB-KTF0-0A306 (at 0 -2) (layer F.Fab)
    (effects (font (size 1 1) (thickness 0.15)))
  )
  (fp_line (start -1.1 -0.5) (end -0.6 -1) (layer F.Fab) (width 0.1))
  (fp_line (start -1.1 -1) (end -1.1 1) (layer F.Fab) (width 0.1))
  (fp_line (start -1.1 1) (end 1.1 1) (layer F.Fab) (width 0.1))
  (fp_line (start 1.1 1) (end 1.1 -1) (layer F.Fab) (width 0.1))
  (fp_line (start 1.1 -1) (end -1.1 -1) (layer F.Fab) (width 0.1))
  (fp_line (start -1.55 -1.2) (end -1.55 -0.54) (layer F.SilkS) (width 0.12))
  (fp_line (start -1.55 -1.2) (end 1.43 -1.2) (layer F.SilkS) (width 0.12))
  (fp_line (start -1.45 1.2) (end 1.45 1.2) (layer F.SilkS) (width 0.12))
  (fp_line (start -1.6 -1.25) (end 1.6 -1.25) (layer F.CrtYd) (width 0.05))
  (fp_line (start -1.6 -1.25) (end -1.6 1.25) (layer F.CrtYd) (width 0.05))
  (fp_line (start 1.6 1.25) (end 1.6 -1.25) (layer F.CrtYd) (width 0.05))
  (fp_line (start 1.6 1.25) (end -1.6 1.25) (layer F.CrtYd) (width 0.05))
  (fp_text user %R (at 0 2.25) (layer F.Fab)
    (effects (font (size 1 1) (thickness 0.15)))
  )
  (pad 1 smd rect (at -0.9 -0.6) (size 0.9 0.8) (layers F.Cu F.Paste F.Mask))
  (pad 2 smd rect (at -0.9 0.6) (size 0.9 0.8) (layers F.Cu F.Paste F.Mask))
  (pad 3 smd rect (at 0.9 0.6) (size 0.9 0.8) (layers F.Cu F.Paste F.Mask))
  (pad 4 smd rect (at 0.9 -0.6) (size 0.9 0.8) (layers F.Cu F.Paste F.Mask))
  (model ${KICAD6_3DMODEL_DIR}/LED_SMD.3dshapes/LED_ASMB-KTF0-0A306.wrl
    (at (xyz 0 0 0))
    (scale (xyz 1 1 1))
    (rotate (xyz 0 0 0))
  )
)
