(module LED_Cree-PLCC6_4.7x1.5mm (layer F.Cu) (tedit 5B7DC870)
  (descr "4.7mm x 1.5mm PLCC6 LED, http://www.cree.com/led-components/media/documents/1381-QLS6AFKW.pdf")
  (tags "LED Cree PLCC-6")
  (attr smd)
  (fp_text reference REF** (at 0 1.8) (layer F.SilkS)
    (effects (font (size 1 1) (thickness 0.15)))
  )
  (fp_text value LED_Cree-PLCC6_4.7x1.5mm (at 0 3.1) (layer F.Fab)
    (effects (font (size 1 1) (thickness 0.15)))
  )
  (fp_text user %R (at 0 1.8) (layer F.Fab)
    (effects (font (size 1 1) (thickness 0.15)))
  )
  (fp_line (start -2.35 -0.75) (end -2.35 0.75) (layer F.Fab) (width 0.1))
  (fp_line (start -2.35 0.75) (end 2.35 0.75) (layer F.Fab) (width 0.1))
  (fp_line (start 2.35 -0.75) (end 2.35 0.75) (layer F.Fab) (width 0.1))
  (fp_line (start -2.35 -0.75) (end 2.35 -0.75) (layer F.Fab) (width 0.1))
  (fp_line (start -2.6 -1) (end 2.6 -1) (layer F.CrtYd) (width 0.05))
  (fp_line (start -2.6 -1) (end -2.6 1) (layer F.CrtYd) (width 0.05))
  (fp_line (start 2.6 -1) (end 2.6 1) (layer F.CrtYd) (width 0.05))
  (fp_line (start 2.6 1) (end -2.6 1) (layer F.CrtYd) (width 0.05))
  (fp_line (start -2.46 0.4) (end -2.46 0.86) (layer F.SilkS) (width 0.12))
  (fp_line (start -2.46 0.86) (end 2.46 0.86) (layer F.SilkS) (width 0.12))
  (fp_line (start -2.35 -0.86) (end 2.46 -0.86) (layer F.SilkS) (width 0.12))
  (fp_line (start 2.46 -0.86) (end 2.46 0.86) (layer F.SilkS) (width 0.12))
  (pad 1 smd rect (at -2.02 0.335) (size 0.66 0.63) (layers F.Cu F.Paste F.Mask))
  (pad 2 smd rect (at -1.21 -0.25) (size 0.4 0.8) (layers F.Cu F.Paste F.Mask))
  (pad 3 smd rect (at -0.53 -0.25) (size 0.4 0.8) (layers F.Cu F.Paste F.Mask))
  (pad 4 smd rect (at 0.53 -0.25) (size 0.4 0.8) (layers F.Cu F.Paste F.Mask))
  (pad 5 smd rect (at 1.21 -0.25) (size 0.4 0.8) (layers F.Cu F.Paste F.Mask))
  (pad 6 smd rect (at 2.02 0.335) (size 0.66 0.63) (layers F.Cu F.Paste F.Mask))
  (model ${KICAD6_3DMODEL_DIR}/LED_SMD.3dshapes/LED_Cree-PLCC6_4.7x1.5mm.wrl
    (at (xyz 0 0 0))
    (scale (xyz 1 1 1))
    (rotate (xyz 0 0 0))
  )
)
