(module Atmel_ATSAMR21G18-MR210UA_NoRFPads (layer F.Cu) (tedit 5D3F050E)
  (descr http://ww1.microchip.com/downloads/en/devicedoc/atmel-42475-atsamr21g18-mr210ua_datasheet.pdf)
  (tags "module wireless zigbee 802.15.4 flash crypto ATSAMR21G18 AT45DB041E  TECC508A U.Fi")
  (solder_mask_margin 0.1)
  (solder_paste_margin -0.05)
  (attr smd)
  (fp_text reference REF** (at -7 10.55) (layer F.SilkS)
    (effects (font (size 1 1) (thickness 0.15)))
  )
  (fp_text value Atmel_ATSAMR21G18-MR210UA_NoRFPads (at 0 12) (layer F.Fab)
    (effects (font (size 1.2 1.2) (thickness 0.15)))
  )
  (fp_line (start -10.15 -9.65) (end -10.15 -8.125) (layer F.SilkS) (width 0.12))
  (fp_line (start 10.15 9.65) (end 4.225 9.65) (layer F.SilkS) (width 0.12))
  (fp_line (start 10.15 9.325) (end 10.15 9.65) (layer F.SilkS) (width 0.12))
  (fp_line (start -10.15 -9.65) (end 10.15 -9.65) (layer F.SilkS) (width 0.12))
  (fp_line (start 8 -5.5) (end 8.75 -6.25) (layer Dwgs.User) (width 0.1))
  (fp_line (start 8.75 -7.25) (end 7 -5.5) (layer Dwgs.User) (width 0.1))
  (fp_line (start 5 -9.5) (end 1 -5.5) (layer Dwgs.User) (width 0.1))
  (fp_line (start 4 -9.5) (end 0 -5.5) (layer Dwgs.User) (width 0.1))
  (fp_line (start 1 -9.5) (end 0 -8.5) (layer Dwgs.User) (width 0.1))
  (fp_line (start 3 -9.5) (end 0 -6.5) (layer Dwgs.User) (width 0.1))
  (fp_line (start 2 -9.5) (end 0 -7.5) (layer Dwgs.User) (width 0.1))
  (fp_line (start 0 -5.5) (end 8.75 -5.5) (layer Dwgs.User) (width 0.1))
  (fp_line (start 0 -9.5) (end 0 -5.5) (layer Dwgs.User) (width 0.1))
  (fp_line (start -10 -8.75) (end -10 9.5) (layer F.Fab) (width 0.1))
  (fp_line (start -10 9.5) (end 10 9.5) (layer F.Fab) (width 0.1))
  (fp_line (start 10 9.5) (end 10 -9.5) (layer F.Fab) (width 0.1))
  (fp_line (start 10 -9.5) (end -9.25 -9.5) (layer F.Fab) (width 0.1))
  (fp_line (start 6 -9.5) (end 2 -5.5) (layer Dwgs.User) (width 0.1))
  (fp_line (start 7 -9.5) (end 3 -5.5) (layer Dwgs.User) (width 0.1))
  (fp_line (start 8 -9.5) (end 4 -5.5) (layer Dwgs.User) (width 0.1))
  (fp_line (start 9 -9.5) (end 5 -5.5) (layer Dwgs.User) (width 0.1))
  (fp_line (start 10 -9.5) (end 6 -5.5) (layer Dwgs.User) (width 0.1))
  (fp_line (start -10.65 -8.125) (end -10.15 -8.125) (layer F.SilkS) (width 0.12))
  (fp_line (start 10.15 -9.65) (end 10.15 -8.125) (layer F.SilkS) (width 0.12))
  (fp_line (start -10.15 9.325) (end -10.15 9.65) (layer F.SilkS) (width 0.12))
  (fp_line (start -10.15 9.65) (end -4.225 9.65) (layer F.SilkS) (width 0.12))
  (fp_line (start 10 -9.5) (end 10 -8) (layer Dwgs.User) (width 0.1))
  (fp_line (start 0 -9.5) (end 10 -9.5) (layer Dwgs.User) (width 0.1))
  (fp_line (start 10 -8) (end 8.75 -8) (layer Dwgs.User) (width 0.1))
  (fp_line (start 8.75 -8) (end 8.75 -5.5) (layer Dwgs.User) (width 0.1))
  (fp_line (start 9.5 -8) (end 10 -8.5) (layer Dwgs.User) (width 0.1))
  (fp_text user "KEEP-OUT Zone" (at 4.5 -8.5) (layer Cmts.User)
    (effects (font (size 0.5 0.5) (thickness 0.1)))
  )
  (fp_text user "Layers with less than" (at 4.5 -7.75) (layer Cmts.User)
    (effects (font (size 0.4 0.4) (thickness 0.08)))
  )
  (fp_text user "0.5mm distance from top" (at 4.5 -7) (layer Cmts.User)
    (effects (font (size 0.4 0.4) (thickness 0.08)))
  )
  (fp_text user "shall not be filled" (at 4.5 -6.25) (layer Cmts.User)
    (effects (font (size 0.4 0.4) (thickness 0.08)))
  )
  (fp_line (start -10 -8.75) (end -9.25 -9.5) (layer F.Fab) (width 0.1))
  (fp_text user %R (at 0 0) (layer F.Fab)
    (effects (font (size 1 1) (thickness 0.15)))
  )
  (fp_line (start -10.25 -8) (end -10.25 -9.75) (layer F.CrtYd) (width 0.05))
  (fp_line (start -10.25 -9.75) (end 10.25 -9.75) (layer F.CrtYd) (width 0.05))
  (fp_line (start 10.25 -9.75) (end 10.25 -8) (layer F.CrtYd) (width 0.05))
  (fp_line (start 10.25 -8) (end 11.1 -8) (layer F.CrtYd) (width 0.05))
  (fp_line (start 11.1 -8) (end 11.1 9.2) (layer F.CrtYd) (width 0.05))
  (fp_line (start 10.25 9.2) (end 11.1 9.2) (layer F.CrtYd) (width 0.05))
  (fp_line (start 10.25 9.2) (end 10.25 9.75) (layer F.CrtYd) (width 0.05))
  (fp_line (start 10.25 9.75) (end 4.1 9.75) (layer F.CrtYd) (width 0.05))
  (fp_line (start 0 10.68) (end 4.1 10.68) (layer F.CrtYd) (width 0.05))
  (fp_line (start 4.1 10.68) (end 4.1 9.75) (layer F.CrtYd) (width 0.05))
  (fp_line (start -10.25 -8) (end -11.1 -8) (layer F.CrtYd) (width 0.05))
  (fp_line (start -11.1 -8) (end -11.1 9.2) (layer F.CrtYd) (width 0.05))
  (fp_line (start -10.25 9.2) (end -11.1 9.2) (layer F.CrtYd) (width 0.05))
  (fp_line (start -10.25 9.2) (end -10.25 9.75) (layer F.CrtYd) (width 0.05))
  (fp_line (start -4.1 10.68) (end -4.1 9.75) (layer F.CrtYd) (width 0.05))
  (fp_line (start 0 10.68) (end -4.1 10.68) (layer F.CrtYd) (width 0.05))
  (fp_line (start -10.25 9.75) (end -4.1 9.75) (layer F.CrtYd) (width 0.05))
  (pad 1 smd rect (at -10 -7.4) (size 1.7 0.7) (layers F.Cu F.Paste F.Mask))
  (pad 2 smd rect (at -10 -6.4) (size 1.7 0.7) (layers F.Cu F.Paste F.Mask))
  (pad 3 smd rect (at -10 -5.4) (size 1.7 0.7) (layers F.Cu F.Paste F.Mask))
  (pad 4 smd rect (at -10 -4.4) (size 1.7 0.7) (layers F.Cu F.Paste F.Mask))
  (pad 5 smd rect (at -10 -3.4) (size 1.7 0.7) (layers F.Cu F.Paste F.Mask))
  (pad 6 smd rect (at -10 -2.4) (size 1.7 0.7) (layers F.Cu F.Paste F.Mask))
  (pad 7 smd rect (at -10 -1.4) (size 1.7 0.7) (layers F.Cu F.Paste F.Mask))
  (pad 8 smd rect (at -10 -0.4) (size 1.7 0.7) (layers F.Cu F.Paste F.Mask))
  (pad 9 smd rect (at -10 0.6) (size 1.7 0.7) (layers F.Cu F.Paste F.Mask))
  (pad 10 smd rect (at -10 1.6) (size 1.7 0.7) (layers F.Cu F.Paste F.Mask))
  (pad 11 smd rect (at -10 2.6) (size 1.7 0.7) (layers F.Cu F.Paste F.Mask))
  (pad 12 smd rect (at -10 3.6) (size 1.7 0.7) (layers F.Cu F.Paste F.Mask))
  (pad 13 smd rect (at -10 4.6) (size 1.7 0.7) (layers F.Cu F.Paste F.Mask))
  (pad 14 smd rect (at -10 5.6) (size 1.7 0.7) (layers F.Cu F.Paste F.Mask))
  (pad 15 smd rect (at -10 6.6) (size 1.7 0.7) (layers F.Cu F.Paste F.Mask))
  (pad 16 smd rect (at -10 7.6) (size 1.7 0.7) (layers F.Cu F.Paste F.Mask))
  (pad 17 smd rect (at -10 8.6) (size 1.7 0.7) (layers F.Cu F.Paste F.Mask))
  (pad 18 smd rect (at -3.5 9.575) (size 0.7 1.7) (layers F.Cu F.Paste F.Mask))
  (pad 19 smd rect (at -2.5 9.575) (size 0.7 1.7) (layers F.Cu F.Paste F.Mask))
  (pad 20 smd rect (at -1.5 9.575) (size 0.7 1.7) (layers F.Cu F.Paste F.Mask))
  (pad 21 smd rect (at -0.5 9.575) (size 0.7 1.7) (layers F.Cu F.Paste F.Mask))
  (pad 22 smd rect (at 0.5 9.575) (size 0.7 1.7) (layers F.Cu F.Paste F.Mask))
  (pad 23 smd rect (at 1.5 9.575) (size 0.7 1.7) (layers F.Cu F.Paste F.Mask))
  (pad 24 smd rect (at 2.5 9.575) (size 0.7 1.7) (layers F.Cu F.Paste F.Mask))
  (pad 25 smd rect (at 3.5 9.575) (size 0.7 1.7) (layers F.Cu F.Paste F.Mask))
  (pad 26 smd rect (at 10 8.6) (size 1.7 0.7) (layers F.Cu F.Paste F.Mask))
  (pad 27 smd rect (at 10 7.6) (size 1.7 0.7) (layers F.Cu F.Paste F.Mask))
  (pad 28 smd rect (at 10 6.6) (size 1.7 0.7) (layers F.Cu F.Paste F.Mask))
  (pad 29 smd rect (at 10 5.6) (size 1.7 0.7) (layers F.Cu F.Paste F.Mask))
  (pad 30 smd rect (at 10 4.6) (size 1.7 0.7) (layers F.Cu F.Paste F.Mask))
  (pad 31 smd rect (at 10 3.6) (size 1.7 0.7) (layers F.Cu F.Paste F.Mask))
  (pad 32 smd rect (at 10 2.6) (size 1.7 0.7) (layers F.Cu F.Paste F.Mask))
  (pad 33 smd rect (at 10 1.6) (size 1.7 0.7) (layers F.Cu F.Paste F.Mask))
  (pad 34 smd rect (at 10 0.6) (size 1.7 0.7) (layers F.Cu F.Paste F.Mask))
  (pad 35 smd rect (at 10 -0.4) (size 1.7 0.7) (layers F.Cu F.Paste F.Mask))
  (pad 36 smd rect (at 10 -1.4) (size 1.7 0.7) (layers F.Cu F.Paste F.Mask))
  (pad 37 smd rect (at 10 -2.4) (size 1.7 0.7) (layers F.Cu F.Paste F.Mask))
  (pad 38 smd rect (at 10 -3.4) (size 1.7 0.7) (layers F.Cu F.Paste F.Mask))
  (pad 39 smd rect (at 10 -4.4) (size 1.7 0.7) (layers F.Cu F.Paste F.Mask))
  (pad 40 smd rect (at 10 -5.4) (size 1.7 0.7) (layers F.Cu F.Paste F.Mask))
  (pad 41 smd rect (at 10 -6.4) (size 1.7 0.7) (layers F.Cu F.Paste F.Mask))
  (pad 42 smd rect (at 10 -7.4) (size 1.7 0.7) (layers F.Cu F.Paste F.Mask))
  (model ${KICAD6_3DMODEL_DIR}/RF_Module.3dshapes/Atmel_ATSAMR21G18-MR210UA_NoRFPads.wrl
    (at (xyz 0 0 0))
    (scale (xyz 1 1 1))
    (rotate (xyz 0 0 0))
  )
)
