(module E18-MS1-PCB (layer F.Cu) (tedit 5ACF9A19)
  (descr http://www.cdebyte.com/en/downpdf.aspx?id=122)
  (tags Zigbee)
  (attr smd)
  (fp_text reference REF** (at 0 13.5 180) (layer F.SilkS)
    (effects (font (size 1 1) (thickness 0.15)))
  )
  (fp_text value E18-MS1-PCB (at 0 -12.5 180) (layer F.Fab)
    (effects (font (size 1 1) (thickness 0.15)))
  )
  (fp_line (start 7.05 11.5) (end -7.05 11.5) (layer F.Fab) (width 0.1))
  (fp_line (start -7.05 -11.5) (end 7.05 -11.5) (layer F.Fab) (width 0.1))
  (fp_line (start 7.05 -11.5) (end 7.05 11.5) (layer F.Fab) (width 0.1))
  (fp_line (start 7.05 -6) (end -7.05 -6) (layer F.Fab) (width 0.1))
  (fp_text user %R (at 0 0 180) (layer F.Fab)
    (effects (font (size 1 1) (thickness 0.15)))
  )
  (fp_line (start -8.3 12.75) (end -8.3 -11.75) (layer F.CrtYd) (width 0.05))
  (fp_line (start -8.3 -11.75) (end 8.3 -11.75) (layer F.CrtYd) (width 0.05))
  (fp_line (start 8.3 -11.75) (end 8.3 12.75) (layer F.CrtYd) (width 0.05))
  (fp_line (start 8.3 12.75) (end -8.3 12.75) (layer F.CrtYd) (width 0.05))
  (fp_line (start -7.17 11.62) (end -7.17 10.05) (layer F.SilkS) (width 0.12))
  (fp_line (start -7.17 11.62) (end -5.28 11.62) (layer F.SilkS) (width 0.12))
  (fp_line (start 5.28 11.62) (end 7.17 11.62) (layer F.SilkS) (width 0.12))
  (fp_line (start 7.17 11.62) (end 7.17 10.05) (layer F.SilkS) (width 0.12))
  (fp_line (start 7.17 -0.46) (end 7.17 -11.62) (layer F.SilkS) (width 0.12))
  (fp_line (start 7.17 -11.62) (end -7.17 -11.62) (layer F.SilkS) (width 0.12))
  (fp_line (start -7.17 -11.62) (end -7.17 -0.46) (layer F.SilkS) (width 0.12))
  (fp_line (start -7.05 -6) (end -7.05 -11.5) (layer Dwgs.User) (width 0.1))
  (fp_line (start -7.05 -11.5) (end 7.05 -11.5) (layer Dwgs.User) (width 0.1))
  (fp_line (start 7.05 -11.5) (end 7.05 -6) (layer Dwgs.User) (width 0.1))
  (fp_line (start 7.05 -6) (end -7.05 -6) (layer Dwgs.User) (width 0.1))
  (fp_line (start -6 -6) (end -7.05 -7.05) (layer Dwgs.User) (width 0.1))
  (fp_line (start -5 -6) (end -7.05 -8.05) (layer Dwgs.User) (width 0.1))
  (fp_line (start -4 -6) (end -7.05 -9.05) (layer Dwgs.User) (width 0.1))
  (fp_line (start -3 -6) (end -7.05 -10.05) (layer Dwgs.User) (width 0.1))
  (fp_line (start -2 -6) (end -7.05 -11.05) (layer Dwgs.User) (width 0.1))
  (fp_line (start -1 -6) (end -6.5 -11.5) (layer Dwgs.User) (width 0.1))
  (fp_line (start 0 -6) (end -5.5 -11.5) (layer Dwgs.User) (width 0.1))
  (fp_line (start 1 -6) (end -4.5 -11.5) (layer Dwgs.User) (width 0.1))
  (fp_line (start 2 -6) (end -3.5 -11.5) (layer Dwgs.User) (width 0.1))
  (fp_line (start 3 -6) (end -2.5 -11.5) (layer Dwgs.User) (width 0.1))
  (fp_line (start 4 -6) (end -1.5 -11.5) (layer Dwgs.User) (width 0.1))
  (fp_line (start 5 -6) (end -0.5 -11.5) (layer Dwgs.User) (width 0.1))
  (fp_line (start 6 -6) (end 0.5 -11.5) (layer Dwgs.User) (width 0.1))
  (fp_line (start 7 -6) (end 1.5 -11.5) (layer Dwgs.User) (width 0.1))
  (fp_line (start 2.5 -11.5) (end 7.05 -6.95) (layer Dwgs.User) (width 0.1))
  (fp_line (start 7.05 -7.95) (end 3.5 -11.5) (layer Dwgs.User) (width 0.1))
  (fp_line (start 4.5 -11.5) (end 7.05 -8.95) (layer Dwgs.User) (width 0.1))
  (fp_line (start 7.05 -9.95) (end 5.5 -11.5) (layer Dwgs.User) (width 0.1))
  (fp_line (start 6.5 -11.5) (end 7.05 -10.95) (layer Dwgs.User) (width 0.1))
  (fp_text user "KEEP-OUT ZONE" (at 0 -10 180) (layer Cmts.User)
    (effects (font (size 1 1) (thickness 0.15)))
  )
  (fp_text user "No metal, traces, or components" (at 0 -8 180) (layer Cmts.User)
    (effects (font (size 0.4 0.4) (thickness 0.06)))
  )
  (fp_text user "on any PCB layer." (at 0 -7 180) (layer Cmts.User)
    (effects (font (size 0.4 0.4) (thickness 0.06)))
  )
  (fp_line (start -7.17 -0.46) (end -7.77 -0.46) (layer F.SilkS) (width 0.12))
  (fp_line (start -7.05 0) (end -6.7 0.35) (layer F.Fab) (width 0.1))
  (fp_line (start -6.7 0.35) (end -7.05 0.7) (layer F.Fab) (width 0.1))
  (fp_line (start -7.05 -11.5) (end -7.05 0) (layer F.Fab) (width 0.1))
  (fp_line (start -7.05 0.7) (end -7.05 11.5) (layer F.Fab) (width 0.1))
  (pad 17 smd rect (at 7.05 9.24 90) (size 0.7 2) (layers F.Cu F.Paste F.Mask))
  (pad 18 smd rect (at 7.05 7.97 90) (size 0.7 2) (layers F.Cu F.Paste F.Mask))
  (pad 19 smd rect (at 7.05 6.7 90) (size 0.7 2) (layers F.Cu F.Paste F.Mask))
  (pad 20 smd rect (at 7.05 5.43 90) (size 0.7 2) (layers F.Cu F.Paste F.Mask))
  (pad 21 smd rect (at 7.05 4.16 90) (size 0.7 2) (layers F.Cu F.Paste F.Mask))
  (pad 22 smd rect (at 7.05 2.89 90) (size 0.7 2) (layers F.Cu F.Paste F.Mask))
  (pad 23 smd rect (at 7.05 1.62 90) (size 0.7 2) (layers F.Cu F.Paste F.Mask))
  (pad 24 smd rect (at 7.05 0.35 90) (size 0.7 2) (layers F.Cu F.Paste F.Mask))
  (pad 9 smd rect (at -4.46 11.5 180) (size 0.7 2) (layers F.Cu F.Paste F.Mask))
  (pad 10 smd rect (at -3.19 11.5 180) (size 0.7 2) (layers F.Cu F.Paste F.Mask))
  (pad 11 smd rect (at -1.92 11.5 180) (size 0.7 2) (layers F.Cu F.Paste F.Mask))
  (pad 12 smd rect (at -0.65 11.5 180) (size 0.7 2) (layers F.Cu F.Paste F.Mask))
  (pad 13 smd rect (at 0.62 11.5 180) (size 0.7 2) (layers F.Cu F.Paste F.Mask))
  (pad 14 smd rect (at 1.89 11.5 180) (size 0.7 2) (layers F.Cu F.Paste F.Mask))
  (pad 15 smd rect (at 3.16 11.5 180) (size 0.7 2) (layers F.Cu F.Paste F.Mask))
  (pad 16 smd rect (at 4.43 11.5 180) (size 0.7 2) (layers F.Cu F.Paste F.Mask))
  (pad 1 smd rect (at -7.05 0.35 270) (size 0.7 2) (layers F.Cu F.Paste F.Mask))
  (pad 2 smd rect (at -7.05 1.62 270) (size 0.7 2) (layers F.Cu F.Paste F.Mask))
  (pad 3 smd rect (at -7.05 2.89 270) (size 0.7 2) (layers F.Cu F.Paste F.Mask))
  (pad 4 smd rect (at -7.05 4.16 270) (size 0.7 2) (layers F.Cu F.Paste F.Mask))
  (pad 5 smd rect (at -7.05 5.43 270) (size 0.7 2) (layers F.Cu F.Paste F.Mask))
  (pad 6 smd rect (at -7.05 6.7 270) (size 0.7 2) (layers F.Cu F.Paste F.Mask))
  (pad 7 smd rect (at -7.05 7.97 270) (size 0.7 2) (layers F.Cu F.Paste F.Mask))
  (pad 8 smd rect (at -7.05 9.24 270) (size 0.7 2) (layers F.Cu F.Paste F.Mask))
  (model ${KICAD6_3DMODEL_DIR}/RF_Module.3dshapes/E18-MS1-PCB.wrl
    (at (xyz 0 0 0))
    (scale (xyz 1 1 1))
    (rotate (xyz 0 0 0))
  )
)
