(module E73-2G4M04S (layer F.Cu) (tedit 5AFF5B3A)
  (descr http://www.cdebyte.com/en/downpdf.aspx?id=243)
  (tags "BLE BLE5 nRF52832")
  (attr smd)
  (fp_text reference REF** (at 0 16.4) (layer F.SilkS)
    (effects (font (size 1 1) (thickness 0.15)))
  )
  (fp_text value E73-2G4M04S (at 0 -15.35) (layer F.Fab)
    (effects (font (size 1 1) (thickness 0.15)))
  )
  (fp_line (start -8.75 14.35) (end 8.75 14.35) (layer F.Fab) (width 0.1))
  (fp_line (start 8.75 14.35) (end 8.75 -14.35) (layer F.Fab) (width 0.1))
  (fp_line (start 8.75 -14.35) (end -8.75 -14.35) (layer F.Fab) (width 0.1))
  (fp_line (start -8.75 -8.07) (end -8.4 -7.72) (layer F.Fab) (width 0.1))
  (fp_line (start -8.4 -7.72) (end -8.75 -7.37) (layer F.Fab) (width 0.1))
  (fp_line (start -8.75 -8.07) (end -8.75 -14.35) (layer F.Fab) (width 0.1))
  (fp_line (start -8.75 -7.37) (end -8.75 14.35) (layer F.Fab) (width 0.1))
  (fp_line (start -8.87 14.47) (end -8.87 13.35) (layer F.SilkS) (width 0.12))
  (fp_line (start -8.87 14.47) (end -7.72 14.47) (layer F.SilkS) (width 0.12))
  (fp_line (start 8.87 14.47) (end 8.87 13.35) (layer F.SilkS) (width 0.12))
  (fp_line (start 8.87 14.47) (end 7.72 14.47) (layer F.SilkS) (width 0.12))
  (fp_line (start 8.87 -5.7) (end 8.87 -4.66) (layer F.SilkS) (width 0.12))
  (fp_line (start -8.87 -5.7) (end -8.87 -4.66) (layer F.SilkS) (width 0.12))
  (fp_line (start 8.87 -14.47) (end 8.87 -8.49) (layer F.SilkS) (width 0.12))
  (fp_line (start 8.87 -14.47) (end -8.87 -14.47) (layer F.SilkS) (width 0.12))
  (fp_line (start -8.87 -14.47) (end -8.87 -8.49) (layer F.SilkS) (width 0.12))
  (fp_line (start -8.87 -8.49) (end -9.37 -8.49) (layer F.SilkS) (width 0.12))
  (fp_line (start -8.75 -14.35) (end 8.75 -14.35) (layer Dwgs.User) (width 0.1))
  (fp_line (start 8.75 -14.35) (end 8.75 -8.85) (layer Dwgs.User) (width 0.1))
  (fp_line (start 8.75 -8.85) (end -8.75 -8.85) (layer Dwgs.User) (width 0.1))
  (fp_line (start -8.75 -8.85) (end -8.75 -14.35) (layer Dwgs.User) (width 0.1))
  (fp_line (start -8.75 -9.85) (end -7.75 -8.85) (layer Dwgs.User) (width 0.1))
  (fp_line (start -8.75 -10.85) (end -6.75 -8.85) (layer Dwgs.User) (width 0.1))
  (fp_line (start -8.75 -11.85) (end -5.75 -8.85) (layer Dwgs.User) (width 0.1))
  (fp_line (start -4.75 -8.85) (end -8.75 -12.85) (layer Dwgs.User) (width 0.1))
  (fp_line (start -8.75 -13.85) (end -3.75 -8.85) (layer Dwgs.User) (width 0.1))
  (fp_line (start -2.75 -8.85) (end -8.25 -14.35) (layer Dwgs.User) (width 0.1))
  (fp_line (start -7.25 -14.35) (end -1.75 -8.85) (layer Dwgs.User) (width 0.1))
  (fp_line (start -0.75 -8.85) (end -6.25 -14.35) (layer Dwgs.User) (width 0.1))
  (fp_line (start -5.25 -14.35) (end 0.25 -8.85) (layer Dwgs.User) (width 0.1))
  (fp_line (start 1.25 -8.85) (end -4.25 -14.35) (layer Dwgs.User) (width 0.1))
  (fp_line (start -3.25 -14.35) (end 2.25 -8.85) (layer Dwgs.User) (width 0.1))
  (fp_line (start 3.25 -8.85) (end -2.25 -14.35) (layer Dwgs.User) (width 0.1))
  (fp_line (start -1.25 -14.35) (end 4.25 -8.85) (layer Dwgs.User) (width 0.1))
  (fp_line (start 5.25 -8.85) (end -0.25 -14.35) (layer Dwgs.User) (width 0.1))
  (fp_line (start 0.75 -14.35) (end 6.25 -8.85) (layer Dwgs.User) (width 0.1))
  (fp_line (start 7.25 -8.85) (end 1.75 -14.35) (layer Dwgs.User) (width 0.1))
  (fp_line (start 2.75 -14.35) (end 8.25 -8.85) (layer Dwgs.User) (width 0.1))
  (fp_line (start 8.75 -9.35) (end 3.75 -14.35) (layer Dwgs.User) (width 0.1))
  (fp_line (start 4.75 -14.35) (end 8.75 -10.35) (layer Dwgs.User) (width 0.1))
  (fp_line (start 8.75 -11.35) (end 5.75 -14.35) (layer Dwgs.User) (width 0.1))
  (fp_line (start 6.75 -14.35) (end 8.75 -12.35) (layer Dwgs.User) (width 0.1))
  (fp_line (start 8.75 -13.35) (end 7.75 -14.35) (layer Dwgs.User) (width 0.1))
  (fp_text user "KEEP-OUT ZONE" (at 0 -12.85) (layer Cmts.User)
    (effects (font (size 1 1) (thickness 0.15)))
  )
  (fp_text user "No metal, traces, or components" (at 0 -11.1) (layer Cmts.User)
    (effects (font (size 0.4 0.4) (thickness 0.06)))
  )
  (fp_text user "on any PCB layer." (at 0 -10.1) (layer Cmts.User)
    (effects (font (size 0.4 0.4) (thickness 0.06)))
  )
  (fp_line (start -9.9 15.5) (end 9.9 15.5) (layer F.CrtYd) (width 0.05))
  (fp_line (start 9.9 15.5) (end 9.9 -14.6) (layer F.CrtYd) (width 0.05))
  (fp_line (start 9.9 -14.6) (end -9.9 -14.6) (layer F.CrtYd) (width 0.05))
  (fp_line (start -9.9 -14.6) (end -9.9 15.5) (layer F.CrtYd) (width 0.05))
  (fp_text user %R (at 0 0) (layer F.Fab)
    (effects (font (size 1 1) (thickness 0.15)))
  )
  (pad 0 smd rect (at -8.75 -7.72) (size 1.8 0.7) (layers F.Cu F.Paste F.Mask))
  (pad 1 smd rect (at -8.75 -6.45) (size 1.8 0.7) (layers F.Cu F.Paste F.Mask))
  (pad 2 smd rect (at -8.75 -3.91) (size 1.8 0.7) (layers F.Cu F.Paste F.Mask))
  (pad 3 smd rect (at -8.75 -2.64) (size 1.8 0.7) (layers F.Cu F.Paste F.Mask))
  (pad 4 smd rect (at -8.75 -1.37) (size 1.8 0.7) (layers F.Cu F.Paste F.Mask))
  (pad 5 smd rect (at -8.75 -0.1) (size 1.8 0.7) (layers F.Cu F.Paste F.Mask))
  (pad 6 smd rect (at -8.75 1.17) (size 1.8 0.7) (layers F.Cu F.Paste F.Mask))
  (pad 7 smd rect (at -8.75 2.44) (size 1.8 0.7) (layers F.Cu F.Paste F.Mask))
  (pad 8 smd rect (at -8.75 3.71) (size 1.8 0.7) (layers F.Cu F.Paste F.Mask))
  (pad 9 smd rect (at -8.75 4.98) (size 1.8 0.7) (layers F.Cu F.Paste F.Mask))
  (pad 10 smd rect (at -8.75 6.25) (size 1.8 0.7) (layers F.Cu F.Paste F.Mask))
  (pad 11 smd rect (at -8.75 7.52) (size 1.8 0.7) (layers F.Cu F.Paste F.Mask))
  (pad 12 smd rect (at -8.75 8.79) (size 1.8 0.7) (layers F.Cu F.Paste F.Mask))
  (pad 13 smd rect (at -8.75 10.06) (size 1.8 0.7) (layers F.Cu F.Paste F.Mask))
  (pad 14 smd rect (at -8.75 11.33) (size 1.8 0.7) (layers F.Cu F.Paste F.Mask))
  (pad 15 smd rect (at -8.75 12.6) (size 1.8 0.7) (layers F.Cu F.Paste F.Mask))
  (pad 16 smd rect (at -6.985 14.35) (size 0.7 1.8) (layers F.Cu F.Paste F.Mask))
  (pad 17 smd rect (at -5.715 14.35) (size 0.7 1.8) (layers F.Cu F.Paste F.Mask))
  (pad 18 smd rect (at -4.445 14.35) (size 0.7 1.8) (layers F.Cu F.Paste F.Mask))
  (pad 19 smd rect (at -3.175 14.35) (size 0.7 1.8) (layers F.Cu F.Paste F.Mask))
  (pad 20 smd rect (at -1.905 14.35) (size 0.7 1.8) (layers F.Cu F.Paste F.Mask))
  (pad 21 smd rect (at -0.635 14.35) (size 0.7 1.8) (layers F.Cu F.Paste F.Mask))
  (pad 22 smd rect (at 0.635 14.35) (size 0.7 1.8) (layers F.Cu F.Paste F.Mask))
  (pad 23 smd rect (at 1.905 14.35) (size 0.7 1.8) (layers F.Cu F.Paste F.Mask))
  (pad 24 smd rect (at 3.175 14.35) (size 0.7 1.8) (layers F.Cu F.Paste F.Mask))
  (pad 25 smd rect (at 4.445 14.35) (size 0.7 1.8) (layers F.Cu F.Paste F.Mask))
  (pad 26 smd rect (at 5.715 14.35) (size 0.7 1.8) (layers F.Cu F.Paste F.Mask))
  (pad 27 smd rect (at 6.985 14.35) (size 0.7 1.8) (layers F.Cu F.Paste F.Mask))
  (pad 28 smd rect (at 8.75 12.6) (size 1.8 0.7) (layers F.Cu F.Paste F.Mask))
  (pad 29 smd rect (at 8.75 11.33) (size 1.8 0.7) (layers F.Cu F.Paste F.Mask))
  (pad 30 smd rect (at 8.75 10.06) (size 1.8 0.7) (layers F.Cu F.Paste F.Mask))
  (pad 31 smd rect (at 8.75 8.79) (size 1.8 0.7) (layers F.Cu F.Paste F.Mask))
  (pad 32 smd rect (at 8.75 7.52) (size 1.8 0.7) (layers F.Cu F.Paste F.Mask))
  (pad 33 smd rect (at 8.75 6.25) (size 1.8 0.7) (layers F.Cu F.Paste F.Mask))
  (pad 34 smd rect (at 8.75 4.98) (size 1.8 0.7) (layers F.Cu F.Paste F.Mask))
  (pad 35 smd rect (at 8.75 3.71) (size 1.8 0.7) (layers F.Cu F.Paste F.Mask))
  (pad 36 smd rect (at 8.75 2.44) (size 1.8 0.7) (layers F.Cu F.Paste F.Mask))
  (pad 37 smd rect (at 8.75 1.17) (size 1.8 0.7) (layers F.Cu F.Paste F.Mask))
  (pad 38 smd rect (at 8.75 -0.1) (size 1.8 0.7) (layers F.Cu F.Paste F.Mask))
  (pad 39 smd rect (at 8.75 -1.37) (size 1.8 0.7) (layers F.Cu F.Paste F.Mask))
  (pad 40 smd rect (at 8.75 -2.64) (size 1.8 0.7) (layers F.Cu F.Paste F.Mask))
  (pad 41 smd rect (at 8.75 -3.91) (size 1.8 0.7) (layers F.Cu F.Paste F.Mask))
  (pad 42 smd rect (at 8.75 -6.45) (size 1.8 0.7) (layers F.Cu F.Paste F.Mask))
  (pad 43 smd rect (at 8.75 -7.72) (size 1.8 0.7) (layers F.Cu F.Paste F.Mask))
  (model ${KICAD6_3DMODEL_DIR}/RF_Module.3dshapes/E73-2G4M04S.wrl
    (at (xyz 0 0 0))
    (scale (xyz 1 1 1))
    (rotate (xyz 0 0 0))
  )
)
