(module ESP-07 (layer F.Cu) (tedit 5B1D6972)
  (descr "Wi-Fi Module, http://wiki.ai-thinker.com/_media/esp8266/docs/a007ps01a2_esp-07_product_specification_v1.2.pdf")
  (tags "Wi-Fi Module")
  (attr smd)
  (fp_text reference REF** (at 0 11.6) (layer F.SilkS)
    (effects (font (size 1 1) (thickness 0.15)))
  )
  (fp_text value ESP-07 (at 0 9.6) (layer F.Fab)
    (effects (font (size 1 1) (thickness 0.15)))
  )
  (fp_line (start 8.12 -3.7) (end 8.12 -4.1) (layer F.SilkS) (width 0.12))
  (fp_line (start -8.12 -3.7) (end -8.12 -4.1) (layer F.SilkS) (width 0.12))
  (fp_line (start 8.12 -1.7) (end 8.12 -2.1) (layer F.SilkS) (width 0.12))
  (fp_line (start -8.12 -1.7) (end -8.12 -2.1) (layer F.SilkS) (width 0.12))
  (fp_line (start 8.12 0.3) (end 8.12 -0.1) (layer F.SilkS) (width 0.12))
  (fp_line (start -8.12 0.3) (end -8.12 -0.1) (layer F.SilkS) (width 0.12))
  (fp_line (start 8.12 2.3) (end 8.12 1.9) (layer F.SilkS) (width 0.12))
  (fp_line (start -8.12 2.3) (end -8.12 1.9) (layer F.SilkS) (width 0.12))
  (fp_line (start 8.12 4.3) (end 8.12 3.9) (layer F.SilkS) (width 0.12))
  (fp_line (start -8.12 4.3) (end -8.12 3.9) (layer F.SilkS) (width 0.12))
  (fp_line (start 8.12 6.3) (end 8.12 5.9) (layer F.SilkS) (width 0.12))
  (fp_line (start -8.12 6.3) (end -8.12 5.9) (layer F.SilkS) (width 0.12))
  (fp_line (start 8.12 8.3) (end 8.12 7.9) (layer F.SilkS) (width 0.12))
  (fp_line (start -8.12 8.3) (end -8.12 7.9) (layer F.SilkS) (width 0.12))
  (fp_line (start 23 -8.6) (end 20.4 -6) (layer Dwgs.User) (width 0.12))
  (fp_line (start 23 -11.6) (end 17.4 -6) (layer Dwgs.User) (width 0.12))
  (fp_line (start 23 -14.6) (end 14.4 -6) (layer Dwgs.User) (width 0.12))
  (fp_line (start 23 -17.6) (end 11.4 -6) (layer Dwgs.User) (width 0.12))
  (fp_line (start 23 -20.6) (end 8.4 -6) (layer Dwgs.User) (width 0.12))
  (fp_line (start 5.4 -6) (end 23 -23.6) (layer Dwgs.User) (width 0.12))
  (fp_line (start 19 -25.6) (end -0.6 -6) (layer Dwgs.User) (width 0.12))
  (fp_line (start 16 -25.6) (end -3.6 -6) (layer Dwgs.User) (width 0.12))
  (fp_line (start 2.4 -6) (end 22 -25.6) (layer Dwgs.User) (width 0.12))
  (fp_line (start 7 -25.6) (end -12.6 -6) (layer Dwgs.User) (width 0.12))
  (fp_line (start 10 -25.6) (end -9.6 -6) (layer Dwgs.User) (width 0.12))
  (fp_line (start -6.6 -6) (end 13 -25.6) (layer Dwgs.User) (width 0.12))
  (fp_line (start -15.6 -6) (end 4 -25.6) (layer Dwgs.User) (width 0.12))
  (fp_line (start 1 -25.6) (end -18.6 -6) (layer Dwgs.User) (width 0.12))
  (fp_line (start -2 -25.6) (end -21.6 -6) (layer Dwgs.User) (width 0.12))
  (fp_line (start -5 -25.6) (end -23 -7.6) (layer Dwgs.User) (width 0.12))
  (fp_line (start -8 -25.6) (end -23 -10.6) (layer Dwgs.User) (width 0.12))
  (fp_line (start -11 -25.6) (end -23 -13.6) (layer Dwgs.User) (width 0.12))
  (fp_line (start -14 -25.6) (end -23 -16.6) (layer Dwgs.User) (width 0.12))
  (fp_line (start -17 -25.6) (end -23 -19.6) (layer Dwgs.User) (width 0.12))
  (fp_line (start -20 -25.6) (end -23 -22.6) (layer Dwgs.User) (width 0.12))
  (fp_line (start 23 -6) (end 23 -25.6) (layer Dwgs.User) (width 0.12))
  (fp_line (start 23 -6) (end -23 -6) (layer Dwgs.User) (width 0.12))
  (fp_line (start -23 -25.6) (end -23 -6) (layer Dwgs.User) (width 0.12))
  (fp_line (start -23 -25.6) (end 23 -25.6) (layer Dwgs.User) (width 0.12))
  (fp_line (start -9.15 -5.4) (end -9.15 -4.4) (layer F.SilkS) (width 0.12))
  (fp_line (start -8.12 10.72) (end -8.12 9.9) (layer F.SilkS) (width 0.12))
  (fp_line (start 8.12 10.72) (end -8.12 10.72) (layer F.SilkS) (width 0.12))
  (fp_line (start 8.12 9.9) (end 8.12 10.72) (layer F.SilkS) (width 0.12))
  (fp_line (start -9.1 10.85) (end -9.1 -10.85) (layer F.CrtYd) (width 0.05))
  (fp_line (start 9.1 10.85) (end -9.1 10.85) (layer F.CrtYd) (width 0.05))
  (fp_line (start 9.1 -10.85) (end 9.1 10.85) (layer F.CrtYd) (width 0.05))
  (fp_line (start -9.1 -10.85) (end 9.1 -10.85) (layer F.CrtYd) (width 0.05))
  (fp_line (start -8 -5.4) (end -8 -10.6) (layer F.Fab) (width 0.1))
  (fp_line (start -7.5 -4.9) (end -8 -5.4) (layer F.Fab) (width 0.1))
  (fp_line (start -8 -4.4) (end -7.5 -4.9) (layer F.Fab) (width 0.1))
  (fp_line (start -8 10.6) (end -8 -4.4) (layer F.Fab) (width 0.1))
  (fp_line (start 8 10.6) (end -8 10.6) (layer F.Fab) (width 0.1))
  (fp_line (start 8 -10.6) (end 8 10.6) (layer F.Fab) (width 0.1))
  (fp_line (start -8 -10.6) (end 8 -10.6) (layer F.Fab) (width 0.1))
  (fp_text user %R (at 0 0) (layer F.Fab)
    (effects (font (size 1 1) (thickness 0.15)))
  )
  (fp_text user "KEEP-OUT ZONE" (at 0 -17.3 180) (layer Cmts.User)
    (effects (font (size 1 1) (thickness 0.15)))
  )
  (fp_text user "No metal, traces, or components\non any PCB layer if using on-board antenna" (at 0 -14.3 180) (layer Cmts.User)
    (effects (font (size 0.8 0.8) (thickness 0.12)))
  )
  (pad 16 smd rect (at 7.6 -4.9) (size 2.5 1) (layers F.Cu F.Paste F.Mask))
  (pad 15 smd rect (at 7.6 -2.9) (size 2.5 1) (layers F.Cu F.Paste F.Mask))
  (pad 14 smd rect (at 7.6 -0.9) (size 2.5 1) (layers F.Cu F.Paste F.Mask))
  (pad 13 smd rect (at 7.6 1.1) (size 2.5 1) (layers F.Cu F.Paste F.Mask))
  (pad 12 smd rect (at 7.6 3.1) (size 2.5 1) (layers F.Cu F.Paste F.Mask))
  (pad 11 smd rect (at 7.6 5.1) (size 2.5 1) (layers F.Cu F.Paste F.Mask))
  (pad 10 smd rect (at 7.6 7.1) (size 2.5 1) (layers F.Cu F.Paste F.Mask))
  (pad 9 smd rect (at 7.6 9.1) (size 2.5 1) (layers F.Cu F.Paste F.Mask))
  (pad 8 smd rect (at -7.6 9.1) (size 2.5 1) (layers F.Cu F.Paste F.Mask))
  (pad 7 smd rect (at -7.6 7.1) (size 2.5 1) (layers F.Cu F.Paste F.Mask))
  (pad 6 smd rect (at -7.6 5.1) (size 2.5 1) (layers F.Cu F.Paste F.Mask))
  (pad 5 smd rect (at -7.6 3.1) (size 2.5 1) (layers F.Cu F.Paste F.Mask))
  (pad 4 smd rect (at -7.6 1.1) (size 2.5 1) (layers F.Cu F.Paste F.Mask))
  (pad 3 smd rect (at -7.6 -0.9) (size 2.5 1) (layers F.Cu F.Paste F.Mask))
  (pad 2 smd rect (at -7.6 -2.9) (size 2.5 1) (layers F.Cu F.Paste F.Mask))
  (pad 1 smd rect (at -7.6 -4.9) (size 2.5 1) (layers F.Cu F.Paste F.Mask))
  (model ${KICAD6_3DMODEL_DIR}/RF_Module.3dshapes/ESP-07.wrl
    (at (xyz 0 0 0))
    (scale (xyz 1 1 1))
    (rotate (xyz 0 0 0))
  )
)
