(module ESP32-WROOM-32U (layer F.Cu) (tedit 5B5B4734)
  (descr "Single 2.4 GHz Wi-Fi and Bluetooth combo chip with U.FL connector, https://www.espressif.com/sites/default/files/documentation/esp32-wroom-32d_esp32-wroom-32u_datasheet_en.pdf")
  (tags "Single 2.4 GHz Wi-Fi and Bluetooth combo  chip")
  (attr smd)
  (fp_text reference REF** (at -7.58 -10.5 180) (layer F.SilkS)
    (effects (font (size 1 1) (thickness 0.15)))
  )
  (fp_text value ESP32-WROOM-32U (at 0 11.5) (layer F.Fab)
    (effects (font (size 1 1) (thickness 0.15)))
  )
  (fp_text user %R (at 0 0) (layer F.Fab)
    (effects (font (size 1 1) (thickness 0.15)))
  )
  (fp_line (start 9 9.6) (end 9 -9.6) (layer F.Fab) (width 0.1))
  (fp_line (start -9 9.6) (end 9 9.6) (layer F.Fab) (width 0.1))
  (fp_line (start -9 -9.6) (end -9 -9) (layer F.Fab) (width 0.1))
  (fp_line (start -9 -9.6) (end 9 -9.6) (layer F.Fab) (width 0.1))
  (fp_line (start -9.75 10.5) (end -9.75 -9.85) (layer F.CrtYd) (width 0.05))
  (fp_line (start -9.75 10.5) (end 9.75 10.5) (layer F.CrtYd) (width 0.05))
  (fp_line (start 9.75 -9.85) (end 9.75 10.5) (layer F.CrtYd) (width 0.05))
  (fp_line (start -9 -8) (end -9 9.6) (layer F.Fab) (width 0.1))
  (fp_line (start -8.5 -8.5) (end -9 -9) (layer F.Fab) (width 0.1))
  (fp_line (start -9 -8) (end -8.5 -8.5) (layer F.Fab) (width 0.1))
  (fp_line (start 9.75 -9.85) (end -9.75 -9.85) (layer F.CrtYd) (width 0.05))
  (fp_line (start -9.12 9.1) (end -9.12 9.72) (layer F.SilkS) (width 0.12))
  (fp_line (start -9.12 9.72) (end -8.12 9.72) (layer F.SilkS) (width 0.12))
  (fp_line (start 9.12 9.1) (end 9.12 9.72) (layer F.SilkS) (width 0.12))
  (fp_line (start 9.12 9.72) (end 8.12 9.72) (layer F.SilkS) (width 0.12))
  (fp_line (start -9.12 -9.72) (end 9.12 -9.72) (layer F.SilkS) (width 0.12))
  (fp_line (start 9.12 -9.72) (end 9.12 -9.3) (layer F.SilkS) (width 0.12))
  (fp_line (start -9.12 -9.72) (end -9.12 -9.3) (layer F.SilkS) (width 0.12))
  (fp_line (start -9.12 -9.3) (end -9.5 -9.3) (layer F.SilkS) (width 0.12))
  (pad 39 smd rect (at -1 -0.755) (size 5 5) (layers F.Cu F.Paste F.Mask))
  (pad 1 smd rect (at -8.5 -8.255) (size 2 0.9) (layers F.Cu F.Paste F.Mask))
  (pad 2 smd rect (at -8.5 -6.985) (size 2 0.9) (layers F.Cu F.Paste F.Mask))
  (pad 3 smd rect (at -8.5 -5.715) (size 2 0.9) (layers F.Cu F.Paste F.Mask))
  (pad 4 smd rect (at -8.5 -4.445) (size 2 0.9) (layers F.Cu F.Paste F.Mask))
  (pad 5 smd rect (at -8.5 -3.175) (size 2 0.9) (layers F.Cu F.Paste F.Mask))
  (pad 6 smd rect (at -8.5 -1.905) (size 2 0.9) (layers F.Cu F.Paste F.Mask))
  (pad 7 smd rect (at -8.5 -0.635) (size 2 0.9) (layers F.Cu F.Paste F.Mask))
  (pad 8 smd rect (at -8.5 0.635) (size 2 0.9) (layers F.Cu F.Paste F.Mask))
  (pad 9 smd rect (at -8.5 1.905) (size 2 0.9) (layers F.Cu F.Paste F.Mask))
  (pad 10 smd rect (at -8.5 3.175) (size 2 0.9) (layers F.Cu F.Paste F.Mask))
  (pad 11 smd rect (at -8.5 4.445) (size 2 0.9) (layers F.Cu F.Paste F.Mask))
  (pad 12 smd rect (at -8.5 5.715) (size 2 0.9) (layers F.Cu F.Paste F.Mask))
  (pad 13 smd rect (at -8.5 6.985) (size 2 0.9) (layers F.Cu F.Paste F.Mask))
  (pad 14 smd rect (at -8.5 8.255) (size 2 0.9) (layers F.Cu F.Paste F.Mask))
  (pad 15 smd rect (at -5.715 9.255 270) (size 2 0.9) (layers F.Cu F.Paste F.Mask))
  (pad 16 smd rect (at -4.445 9.255 90) (size 2 0.9) (layers F.Cu F.Paste F.Mask))
  (pad 17 smd rect (at -3.175 9.255 90) (size 2 0.9) (layers F.Cu F.Paste F.Mask))
  (pad 18 smd rect (at -1.905 9.255 90) (size 2 0.9) (layers F.Cu F.Paste F.Mask))
  (pad 19 smd rect (at -0.635 9.255 90) (size 2 0.9) (layers F.Cu F.Paste F.Mask))
  (pad 20 smd rect (at 0.635 9.255 90) (size 2 0.9) (layers F.Cu F.Paste F.Mask))
  (pad 21 smd rect (at 1.905 9.255 90) (size 2 0.9) (layers F.Cu F.Paste F.Mask))
  (pad 22 smd rect (at 3.175 9.255 90) (size 2 0.9) (layers F.Cu F.Paste F.Mask))
  (pad 23 smd rect (at 4.445 9.255 90) (size 2 0.9) (layers F.Cu F.Paste F.Mask))
  (pad 24 smd rect (at 5.715 9.255 90) (size 2 0.9) (layers F.Cu F.Paste F.Mask))
  (pad 25 smd rect (at 8.5 8.255) (size 2 0.9) (layers F.Cu F.Paste F.Mask))
  (pad 26 smd rect (at 8.5 6.985) (size 2 0.9) (layers F.Cu F.Paste F.Mask))
  (pad 27 smd rect (at 8.5 5.715) (size 2 0.9) (layers F.Cu F.Paste F.Mask))
  (pad 28 smd rect (at 8.5 4.445) (size 2 0.9) (layers F.Cu F.Paste F.Mask))
  (pad 29 smd rect (at 8.5 3.175) (size 2 0.9) (layers F.Cu F.Paste F.Mask))
  (pad 30 smd rect (at 8.5 1.905) (size 2 0.9) (layers F.Cu F.Paste F.Mask))
  (pad 31 smd rect (at 8.5 0.635) (size 2 0.9) (layers F.Cu F.Paste F.Mask))
  (pad 32 smd rect (at 8.5 -0.635) (size 2 0.9) (layers F.Cu F.Paste F.Mask))
  (pad 33 smd rect (at 8.5 -1.905) (size 2 0.9) (layers F.Cu F.Paste F.Mask))
  (pad 34 smd rect (at 8.5 -3.175) (size 2 0.9) (layers F.Cu F.Paste F.Mask))
  (pad 35 smd rect (at 8.5 -4.445) (size 2 0.9) (layers F.Cu F.Paste F.Mask))
  (pad 36 smd rect (at 8.5 -5.715) (size 2 0.9) (layers F.Cu F.Paste F.Mask))
  (pad 37 smd rect (at 8.5 -6.985) (size 2 0.9) (layers F.Cu F.Paste F.Mask))
  (pad 38 smd rect (at 8.5 -8.255) (size 2 0.9) (layers F.Cu F.Paste F.Mask))
  (model ${KICAD6_3DMODEL_DIR}/RF_Module.3dshapes/ESP32-WROOM-32U.wrl
    (at (xyz 0 0 0))
    (scale (xyz 1 1 1))
    (rotate (xyz 0 0 0))
  )
)
