(module TD1205 (layer F.Cu) (tedit 5AE07EEE)
  (descr https://github.com/Telecom-Design/Documentation_TD_RF_Module/blob/master/TD1205%20Datasheet.pdf)
  (tags "SIGFOX Module")
  (fp_text reference REF** (at 7 25.5 180) (layer F.SilkS)
    (effects (font (size 1 1) (thickness 0.15)))
  )
  (fp_text value TD1205 (at 13.97 17.78 90) (layer F.Fab)
    (effects (font (size 1 1) (thickness 0.15)))
  )
  (fp_text user %R (at 11.43 17.78 90) (layer F.Fab)
    (effects (font (size 1 1) (thickness 0.15)))
  )
  (fp_line (start -0.75 -1.5) (end 28.25 -1.5) (layer F.Fab) (width 0.127))
  (fp_line (start 28.25 -1.5) (end 28.25 24.5) (layer F.Fab) (width 0.127))
  (fp_line (start 28.25 24.5) (end -1.75 24.5) (layer F.Fab) (width 0.127))
  (fp_line (start -1.75 24.5) (end -1.75 -0.5) (layer F.Fab) (width 0.127))
  (fp_line (start 27.5 10) (end 26 10) (layer F.SilkS) (width 0.15))
  (fp_line (start 26 10) (end 26 35) (layer F.SilkS) (width 0.15))
  (fp_line (start 26 35) (end 1 35) (layer F.SilkS) (width 0.15))
  (fp_line (start 1 35) (end 1 6) (layer F.SilkS) (width 0.15))
  (fp_line (start -0.48 36.5) (end 27.46 36.5) (layer F.SilkS) (width 0.15))
  (fp_line (start 27.5 36.5) (end 27.5 10) (layer F.SilkS) (width 0.15))
  (fp_line (start -0.5 6) (end -0.5 36.5) (layer F.SilkS) (width 0.15))
  (fp_line (start -0.5 6) (end 1 6) (layer F.SilkS) (width 0.15))
  (fp_line (start 28.4 -1.65) (end 28.4 24.65) (layer F.SilkS) (width 0.15))
  (fp_line (start 28.4 24.65) (end -1.9 24.65) (layer F.SilkS) (width 0.15))
  (fp_line (start -1.9 24.65) (end -1.9 -1.65) (layer F.SilkS) (width 0.15))
  (fp_line (start 28.4 -1.65) (end -1.9 -1.65) (layer F.SilkS) (width 0.15))
  (fp_line (start -1.75 -0.5) (end -0.75 -1.5) (layer F.Fab) (width 0.127))
  (fp_line (start -2 -1.75) (end 28.5 -1.75) (layer F.CrtYd) (width 0.05))
  (fp_line (start 28.5 -1.75) (end 28.5 36.75) (layer F.CrtYd) (width 0.05))
  (fp_line (start 28.5 36.75) (end -2 36.75) (layer F.CrtYd) (width 0.05))
  (fp_line (start -2 36.75) (end -2 -1.75) (layer F.CrtYd) (width 0.05))
  (fp_line (start 0 -2) (end -2.25 -2) (layer F.SilkS) (width 0.15))
  (fp_line (start -2.25 -2) (end -2.25 0) (layer F.SilkS) (width 0.15))
  (pad 2 thru_hole circle (at 26.5 0 90) (size 1.905 1.905) (drill 0.89) (layers *.Cu *.Mask))
  (pad 1 thru_hole rect (at 0 0 90) (size 1.905 1.905) (drill 0.89) (layers *.Cu *.Mask))
  (pad 9 thru_hole circle (at 20.87 23.21 90) (size 1.905 1.905) (drill 0.89) (layers *.Cu *.Mask))
  (pad 8 thru_hole circle (at 18.33 23.21 90) (size 1.905 1.905) (drill 0.89) (layers *.Cu *.Mask))
  (pad 7 thru_hole circle (at 15.79 23.21 90) (size 1.905 1.905) (drill 0.89) (layers *.Cu *.Mask))
  (pad 6 thru_hole circle (at 13.25 23.21 90) (size 1.905 1.905) (drill 0.89) (layers *.Cu *.Mask))
  (pad 5 thru_hole circle (at 10.71 23.21 90) (size 1.905 1.905) (drill 0.89) (layers *.Cu *.Mask))
  (pad 4 thru_hole circle (at 8.17 23.21 90) (size 1.905 1.905) (drill 0.89) (layers *.Cu *.Mask))
  (pad 3 thru_hole circle (at 5.63 23.21 90) (size 1.905 1.905) (drill 0.89) (layers *.Cu *.Mask))
  (model ${KICAD6_3DMODEL_DIR}/RF_Module.3dshapes/TD1205.wrl
    (at (xyz 0 0 0))
    (scale (xyz 1 1 1))
    (rotate (xyz 0 0 0))
  )
)
