(module HDMI_Micro-D_Molex_46765-0x01 (layer F.Cu) (tedit 5A16B616)
  (descr "HDMI, Micro, Type D, SMD, 0.4mm pitch, 19 ckt, right angle (http://www.molex.com/pdm_docs/sd/467651301_sd.pdf)")
  (tags "hdmi micro type d right angle smd")
  (attr smd)
  (fp_text reference REF** (at 0 -6.3) (layer F.SilkS)
    (effects (font (size 1 1) (thickness 0.15)))
  )
  (fp_text value HDMI_Micro-D_Molex_46765-0x01 (at 0 3.6) (layer F.Fab)
    (effects (font (size 1 1) (thickness 0.15)))
  )
  (fp_text user KEEPOUT (at 0 -0.47) (layer Cmts.User)
    (effects (font (size 0.7 0.7) (thickness 0.1)))
  )
  (fp_line (start 1.8 -4.6) (end 1.3 -5.1) (layer F.Fab) (width 0.1))
  (fp_line (start 1.8 -4.6) (end 2.3 -5.1) (layer F.Fab) (width 0.1))
  (fp_line (start -3.31 2.46) (end 3.31 2.46) (layer F.SilkS) (width 0.12))
  (fp_line (start 2.35 -2.46) (end 2.35 1.7) (layer Dwgs.User) (width 0.1))
  (fp_line (start -2.35 -2.46) (end 2.35 -2.46) (layer Dwgs.User) (width 0.1))
  (fp_line (start -2.35 1.7) (end -2.35 -2.46) (layer Dwgs.User) (width 0.1))
  (fp_line (start -3 1.7) (end 3 1.7) (layer Dwgs.User) (width 0.1))
  (fp_line (start 4.3 -5.7) (end -4.3 -5.7) (layer F.CrtYd) (width 0.05))
  (fp_line (start 4.3 2.9) (end 4.3 -5.7) (layer F.CrtYd) (width 0.05))
  (fp_line (start -4.3 2.9) (end 4.3 2.9) (layer F.CrtYd) (width 0.05))
  (fp_line (start -4.3 -5.7) (end -4.3 2.9) (layer F.CrtYd) (width 0.05))
  (fp_line (start 3.31 1.3) (end 3.31 2.46) (layer F.SilkS) (width 0.12))
  (fp_line (start 3.31 -2.4) (end 3.31 -1.3) (layer F.SilkS) (width 0.15))
  (fp_line (start 3.31 -5.16) (end 3.31 -4.35) (layer F.SilkS) (width 0.12))
  (fp_line (start -3.31 -5.16) (end -2.15 -5.16) (layer F.SilkS) (width 0.12))
  (fp_line (start -3.31 -4.35) (end -3.31 -5.16) (layer F.SilkS) (width 0.12))
  (fp_line (start -3.31 -1.3) (end -3.31 -2.4) (layer F.SilkS) (width 0.12))
  (fp_line (start -3.31 2.46) (end -3.31 1.3) (layer F.SilkS) (width 0.12))
  (fp_line (start 3.25 2.4) (end -3.25 2.4) (layer F.Fab) (width 0.1))
  (fp_line (start 2.3 -5.1) (end 3.25 -5.1) (layer F.Fab) (width 0.1))
  (fp_text user %R (at 0 -3.3) (layer F.Fab)
    (effects (font (size 1 1) (thickness 0.15)))
  )
  (fp_line (start 2.15 -5.16) (end 3.31 -5.16) (layer F.SilkS) (width 0.12))
  (fp_line (start 1.65 1.7) (end 2.35 1) (layer Dwgs.User) (width 0.1))
  (fp_line (start 0.65 1.7) (end 2.35 0) (layer Dwgs.User) (width 0.1))
  (fp_line (start -2.35 -0.3) (end -0.19 -2.46) (layer Dwgs.User) (width 0.1))
  (fp_line (start -0.35 1.7) (end 2.35 -1) (layer Dwgs.User) (width 0.1))
  (fp_line (start -1.35 1.7) (end 2.35 -2) (layer Dwgs.User) (width 0.1))
  (fp_line (start -2.35 1.7) (end 1.81 -2.46) (layer Dwgs.User) (width 0.1))
  (fp_line (start 3.25 -5.1) (end 3.25 2.4) (layer F.Fab) (width 0.1))
  (fp_line (start -3.25 2.4) (end -3.25 -5.1) (layer F.Fab) (width 0.1))
  (fp_line (start -2.35 -1.3) (end -1.19 -2.46) (layer Dwgs.User) (width 0.1))
  (fp_line (start -2.35 0.7) (end 0.81 -2.46) (layer Dwgs.User) (width 0.1))
  (fp_line (start 2.15 -5.16) (end 2.15 -5.36) (layer F.SilkS) (width 0.12))
  (fp_line (start -3.25 -5.1) (end 1.3 -5.1) (layer F.Fab) (width 0.1))
  (pad SH smd rect (at -2.85 0) (size 1.7 2) (layers F.Cu F.Paste F.Mask))
  (pad SH smd rect (at 2.85 0) (size 1.7 2) (layers F.Cu F.Paste F.Mask))
  (pad SH smd rect (at -2.85 -3.36) (size 1.8 1.38) (layers F.Cu F.Paste F.Mask))
  (pad SH smd rect (at 2.85 -3.36) (size 1.8 1.38) (layers F.Cu F.Paste F.Mask))
  (pad 1 smd rect (at 1.8 -4.775) (size 0.23 0.85) (layers F.Cu F.Paste F.Mask))
  (pad 3 smd rect (at 1.4 -4.775) (size 0.23 0.85) (layers F.Cu F.Paste F.Mask))
  (pad 5 smd rect (at 1 -4.775) (size 0.23 0.85) (layers F.Cu F.Paste F.Mask))
  (pad 7 smd rect (at 0.6 -4.775) (size 0.23 0.85) (layers F.Cu F.Paste F.Mask))
  (pad 9 smd rect (at 0.2 -4.775) (size 0.23 0.85) (layers F.Cu F.Paste F.Mask))
  (pad 11 smd rect (at -0.2 -4.775) (size 0.23 0.85) (layers F.Cu F.Paste F.Mask))
  (pad 13 smd rect (at -0.6 -4.775) (size 0.23 0.85) (layers F.Cu F.Paste F.Mask))
  (pad 15 smd rect (at -1 -4.775) (size 0.23 0.85) (layers F.Cu F.Paste F.Mask))
  (pad 17 smd rect (at -1.4 -4.775) (size 0.23 0.85) (layers F.Cu F.Paste F.Mask))
  (pad 19 smd rect (at -1.8 -4.775) (size 0.23 0.85) (layers F.Cu F.Paste F.Mask))
  (pad 2 smd rect (at 1.6 -3.55) (size 0.23 1) (layers F.Cu F.Paste F.Mask))
  (pad 4 smd rect (at 1.2 -3.55) (size 0.23 1) (layers F.Cu F.Paste F.Mask))
  (pad 6 smd rect (at 0.8 -3.55) (size 0.23 1) (layers F.Cu F.Paste F.Mask))
  (pad 8 smd rect (at 0.4 -3.55) (size 0.23 1) (layers F.Cu F.Paste F.Mask))
  (pad 10 smd rect (at 0 -3.55) (size 0.23 1) (layers F.Cu F.Paste F.Mask))
  (pad 12 smd rect (at -0.4 -3.55) (size 0.23 1) (layers F.Cu F.Paste F.Mask))
  (pad 14 smd rect (at -0.8 -3.55) (size 0.23 1) (layers F.Cu F.Paste F.Mask))
  (pad 16 smd rect (at -1.2 -3.55) (size 0.23 1) (layers F.Cu F.Paste F.Mask))
  (pad 18 smd rect (at -1.6 -3.55) (size 0.23 1) (layers F.Cu F.Paste F.Mask))
  (model ${KICAD6_3DMODEL_DIR}/Connector_HDMI.3dshapes/HDMI_Micro-D_Molex_46765-0x01.wrl
    (at (xyz 0 0 0))
    (scale (xyz 1 1 1))
    (rotate (xyz 0 0 0))
  )
)
