(module L_0805_2012Metric (layer F.Cu) (tedit 5F68FEF0)
  (descr "Inductor SMD 0805 (2012 Metric), square (rectangular) end terminal, IPC_7351 nominal, (Body size source: IPC-SM-782 page 80, https://www.pcb-3d.com/wordpress/wp-content/uploads/ipc-sm-782a_amendment_1_and_2.pdf), generated with kicad-footprint-generator")
  (tags inductor)
  (attr smd)
  (fp_text reference REF** (at 0 -1.55) (layer F.SilkS)
    (effects (font (size 1 1) (thickness 0.15)))
  )
  (fp_text value L_0805_2012Metric (at 0 1.55) (layer F.Fab)
    (effects (font (size 1 1) (thickness 0.15)))
  )
  (fp_line (start -1 0.45) (end -1 -0.45) (layer F.Fab) (width 0.1))
  (fp_line (start -1 -0.45) (end 1 -0.45) (layer F.Fab) (width 0.1))
  (fp_line (start 1 -0.45) (end 1 0.45) (layer F.Fab) (width 0.1))
  (fp_line (start 1 0.45) (end -1 0.45) (layer F.Fab) (width 0.1))
  (fp_line (start -0.399622 -0.56) (end 0.399622 -0.56) (layer F.SilkS) (width 0.12))
  (fp_line (start -0.399622 0.56) (end 0.399622 0.56) (layer F.SilkS) (width 0.12))
  (fp_line (start -1.75 0.85) (end -1.75 -0.85) (layer F.CrtYd) (width 0.05))
  (fp_line (start -1.75 -0.85) (end 1.75 -0.85) (layer F.CrtYd) (width 0.05))
  (fp_line (start 1.75 -0.85) (end 1.75 0.85) (layer F.CrtYd) (width 0.05))
  (fp_line (start 1.75 0.85) (end -1.75 0.85) (layer F.CrtYd) (width 0.05))
  (pad 1 smd roundrect (at -1.0625 0) (size 0.875 1.2) (layers F.Cu F.Mask F.Paste) (roundrect_rratio 0.25))
  (pad 2 smd roundrect (at 1.0625 0) (size 0.875 1.2) (layers F.Cu F.Mask F.Paste) (roundrect_rratio 0.25))
  (fp_text user %R (at 0 0) (layer F.Fab)
    (effects (font (size 0.5 0.5) (thickness 0.08)))
  )
  (model ${KICAD6_3DMODEL_DIR}/Inductor_SMD.3dshapes/L_0805_2012Metric.wrl
    (at (xyz 0 0 0))
    (scale (xyz 1 1 1))
    (rotate (xyz 0 0 0))
  )
)