(module L_10.4x10.4_H4.8 (layer F.Cu) (tedit 5990349B)
  (descr "Choke, SMD, 10.4x10.4mm 4.8mm height")
  (tags "Choke SMD")
  (attr smd)
  (fp_text reference REF** (at 0 -6.35) (layer F.SilkS)
    (effects (font (size 1 1) (thickness 0.15)))
  )
  (fp_text value L_10.4x10.4_H4.8 (at 0 6.35) (layer F.Fab)
    (effects (font (size 1 1) (thickness 0.15)))
  )
  (fp_text user %R (at 0 0) (layer F.Fab)
    (effects (font (size 1 1) (thickness 0.15)))
  )
  (fp_line (start 5.3 2.1) (end 5.3 5.3) (layer F.SilkS) (width 0.12))
  (fp_line (start 5.3 5.3) (end -5.3 5.3) (layer F.SilkS) (width 0.12))
  (fp_line (start -5.3 5.3) (end -5.3 2.1) (layer F.SilkS) (width 0.12))
  (fp_line (start -5.3 -2.1) (end -5.3 -5.3) (layer F.SilkS) (width 0.12))
  (fp_line (start -5.3 -5.3) (end 5.3 -5.3) (layer F.SilkS) (width 0.12))
  (fp_line (start 5.3 -5.3) (end 5.3 -2.1) (layer F.SilkS) (width 0.12))
  (fp_line (start -5.75 -5.45) (end -5.75 5.45) (layer F.CrtYd) (width 0.05))
  (fp_line (start -5.75 5.45) (end 5.75 5.45) (layer F.CrtYd) (width 0.05))
  (fp_line (start 5.75 5.45) (end 5.75 -5.45) (layer F.CrtYd) (width 0.05))
  (fp_line (start 5.75 -5.45) (end -5.75 -5.45) (layer F.CrtYd) (width 0.05))
  (fp_line (start 5.2 -5.2) (end 5.2 -2.1) (layer F.Fab) (width 0.1))
  (fp_line (start -5.2 -5.2) (end -5.2 -2.1) (layer F.Fab) (width 0.1))
  (fp_line (start 5.2 5.2) (end 5.2 2.1) (layer F.Fab) (width 0.1))
  (fp_line (start -5.2 5.2) (end -5.2 2.1) (layer F.Fab) (width 0.1))
  (fp_line (start -5.2 -5.2) (end 5.2 -5.2) (layer F.Fab) (width 0.1))
  (fp_line (start -5.2 5.2) (end 5.2 5.2) (layer F.Fab) (width 0.1))
  (fp_arc (start 0 0) (end 3.17 3.17) (angle 90) (layer F.Fab) (width 0.1))
  (fp_arc (start 0 0) (end -3.17 -3.17) (angle 90) (layer F.Fab) (width 0.1))
  (pad 1 smd rect (at -4.15 0) (size 2.7 3.6) (layers F.Cu F.Paste F.Mask))
  (pad 2 smd rect (at 4.15 0) (size 2.7 3.6) (layers F.Cu F.Paste F.Mask))
  (model ${KICAD6_3DMODEL_DIR}/Inductor_SMD.3dshapes/L_10.4x10.4_H4.8.wrl
    (at (xyz 0 0 0))
    (scale (xyz 1 1 1))
    (rotate (xyz 0 0 0))
  )
)
