(module L_1206_3216Metric_Pad1.22x1.90mm_HandSolder (layer F.Cu) (tedit 5F68FEF0)
  (descr "Inductor SMD 1206 (3216 Metric), square (rectangular) end terminal, IPC_7351 nominal with elongated pad for handsoldering. (Body size source: IPC-SM-782 page 80, https://www.pcb-3d.com/wordpress/wp-content/uploads/ipc-sm-782a_amendment_1_and_2.pdf), generated with kicad-footprint-generator")
  (tags "inductor handsolder")
  (attr smd)
  (fp_text reference REF** (at 0 -1.9) (layer F.SilkS)
    (effects (font (size 1 1) (thickness 0.15)))
  )
  (fp_text value L_1206_3216Metric_Pad1.22x1.90mm_HandSolder (at 0 1.9) (layer F.Fab)
    (effects (font (size 1 1) (thickness 0.15)))
  )
  (fp_line (start -1.6 0.8) (end -1.6 -0.8) (layer F.Fab) (width 0.1))
  (fp_line (start -1.6 -0.8) (end 1.6 -0.8) (layer F.Fab) (width 0.1))
  (fp_line (start 1.6 -0.8) (end 1.6 0.8) (layer F.Fab) (width 0.1))
  (fp_line (start 1.6 0.8) (end -1.6 0.8) (layer F.Fab) (width 0.1))
  (fp_line (start -0.835242 -0.91) (end 0.835242 -0.91) (layer F.SilkS) (width 0.12))
  (fp_line (start -0.835242 0.91) (end 0.835242 0.91) (layer F.SilkS) (width 0.12))
  (fp_line (start -2.52 1.2) (end -2.52 -1.2) (layer F.CrtYd) (width 0.05))
  (fp_line (start -2.52 -1.2) (end 2.52 -1.2) (layer F.CrtYd) (width 0.05))
  (fp_line (start 2.52 -1.2) (end 2.52 1.2) (layer F.CrtYd) (width 0.05))
  (fp_line (start 2.52 1.2) (end -2.52 1.2) (layer F.CrtYd) (width 0.05))
  (pad 1 smd roundrect (at -1.6625 0) (size 1.225 1.9) (layers F.Cu F.Mask F.Paste) (roundrect_rratio 0.204082))
  (pad 2 smd roundrect (at 1.6625 0) (size 1.225 1.9) (layers F.Cu F.Mask F.Paste) (roundrect_rratio 0.204082))
  (fp_text user %R (at 0 0) (layer F.Fab)
    (effects (font (size 0.8 0.8) (thickness 0.12)))
  )
  (model ${KICAD6_3DMODEL_DIR}/Inductor_SMD.3dshapes/L_1206_3216Metric.wrl
    (at (xyz 0 0 0))
    (scale (xyz 1 1 1))
    (rotate (xyz 0 0 0))
  )
)