(module L_1806_4516Metric (layer F.Cu) (tedit 5F6C3B0D)
  (descr "Inductor SMD 1806 (4516 Metric), square (rectangular) end terminal, IPC_7351 nominal, (Body size source: IPC-SM-782 page 80, https://www.pcb-3d.com/wordpress/wp-content/uploads/ipc-sm-782a_amendment_1_and_2.pdf), generated with kicad-footprint-generator")
  (tags inductor)
  (attr smd)
  (fp_text reference REF** (at 0 -1.9) (layer F.SilkS)
    (effects (font (size 1 1) (thickness 0.15)))
  )
  (fp_text value L_1806_4516Metric (at 0 1.9) (layer F.Fab)
    (effects (font (size 1 1) (thickness 0.15)))
  )
  (fp_line (start -2.25 0.8) (end -2.25 -0.8) (layer F.Fab) (width 0.1))
  (fp_line (start -2.25 -0.8) (end 2.25 -0.8) (layer F.Fab) (width 0.1))
  (fp_line (start 2.25 -0.8) (end 2.25 0.8) (layer F.Fab) (width 0.1))
  (fp_line (start 2.25 0.8) (end -2.25 0.8) (layer F.Fab) (width 0.1))
  (fp_line (start -1.260242 -0.91) (end 1.260242 -0.91) (layer F.SilkS) (width 0.12))
  (fp_line (start -1.260242 0.91) (end 1.260242 0.91) (layer F.SilkS) (width 0.12))
  (fp_line (start -3 1.2) (end -3 -1.2) (layer F.CrtYd) (width 0.05))
  (fp_line (start -3 -1.2) (end 3 -1.2) (layer F.CrtYd) (width 0.05))
  (fp_line (start 3 -1.2) (end 3 1.2) (layer F.CrtYd) (width 0.05))
  (fp_line (start 3 1.2) (end -3 1.2) (layer F.CrtYd) (width 0.05))
  (pad 1 smd roundrect (at -2.1125 0) (size 1.275 1.9) (layers F.Cu F.Mask F.Paste) (roundrect_rratio 0.196078))
  (pad 2 smd roundrect (at 2.1125 0) (size 1.275 1.9) (layers F.Cu F.Mask F.Paste) (roundrect_rratio 0.196078))
  (fp_text user %R (at 0 0) (layer F.Fab)
    (effects (font (size 1 1) (thickness 0.15)))
  )
  (model ${KICAD6_3DMODEL_DIR}/Inductor_SMD.3dshapes/L_1806_4516Metric.wrl
    (at (xyz 0 0 0))
    (scale (xyz 1 1 1))
    (rotate (xyz 0 0 0))
  )
)