(module L_Bourns_SRR1210A (layer F.Cu) (tedit 5B853E9E)
  (descr "Bourns SRR1210A series SMD inductor https://www.bourns.com/docs/Product-Datasheets/SRR1210A.pdf")
  (tags "Bourns SRR1210A SMD inductor")
  (attr smd)
  (fp_text reference REF** (at 0 -7.25) (layer F.SilkS)
    (effects (font (size 1 1) (thickness 0.15)))
  )
  (fp_text value L_Bourns_SRR1210A (at 0 7.4) (layer F.Fab)
    (effects (font (size 1 1) (thickness 0.15)))
  )
  (fp_circle (center 0 0) (end 0 -5.6) (layer F.Fab) (width 0.1))
  (fp_line (start -5.75 -6) (end 5.75 -6) (layer F.Fab) (width 0.1))
  (fp_line (start -4 2) (end -4 -2) (layer F.Fab) (width 0.1))
  (fp_line (start -6 -5.75) (end -6 5.75) (layer F.Fab) (width 0.1))
  (fp_line (start 5.75 6) (end -5.75 6) (layer F.Fab) (width 0.1))
  (fp_line (start 6 -5.75) (end 6 5.75) (layer F.Fab) (width 0.1))
  (fp_line (start 4 -2) (end 4 2) (layer F.Fab) (width 0.1))
  (fp_line (start -5.75 -6.15) (end 5.75 -6.15) (layer F.SilkS) (width 0.12))
  (fp_line (start -6.15 -5.75) (end -6.15 -3) (layer F.SilkS) (width 0.12))
  (fp_line (start 5.75 6.15) (end -5.75 6.15) (layer F.SilkS) (width 0.12))
  (fp_line (start 6.15 -5.75) (end 6.15 -3) (layer F.SilkS) (width 0.12))
  (fp_line (start -5.75 -6.25) (end 5.75 -6.25) (layer F.CrtYd) (width 0.05))
  (fp_line (start -6.25 5.75) (end -6.25 2.9) (layer F.CrtYd) (width 0.05))
  (fp_line (start 5.75 6.25) (end -5.75 6.25) (layer F.CrtYd) (width 0.05))
  (fp_line (start 6.25 2.9) (end 6.25 5.75) (layer F.CrtYd) (width 0.05))
  (fp_text user %R (at 0 0) (layer F.Fab)
    (effects (font (size 1 1) (thickness 0.15)))
  )
  (fp_arc (start -5.75 -5.75) (end -5.75 -6) (angle -90) (layer F.Fab) (width 0.1))
  (fp_arc (start 5.75 -5.75) (end 6 -5.75) (angle -90) (layer F.Fab) (width 0.1))
  (fp_arc (start 5.75 5.75) (end 5.75 6) (angle -90) (layer F.Fab) (width 0.1))
  (fp_arc (start -5.75 5.75) (end -6 5.75) (angle -90) (layer F.Fab) (width 0.1))
  (fp_line (start -6.15 3) (end -6.15 5.75) (layer F.SilkS) (width 0.12))
  (fp_line (start 6.15 3) (end 6.15 5.75) (layer F.SilkS) (width 0.12))
  (fp_arc (start -5.75 -5.75) (end -5.75 -6.15) (angle -90) (layer F.SilkS) (width 0.12))
  (fp_arc (start -5.75 5.75) (end -6.15 5.75) (angle -90) (layer F.SilkS) (width 0.12))
  (fp_arc (start 5.75 5.75) (end 5.75 6.15) (angle -90) (layer F.SilkS) (width 0.12))
  (fp_arc (start 5.75 -5.75) (end 6.15 -5.75) (angle -90) (layer F.SilkS) (width 0.12))
  (fp_arc (start -5.75 -5.75) (end -5.75 -6.25) (angle -90) (layer F.CrtYd) (width 0.05))
  (fp_arc (start -5.75 5.75) (end -6.25 5.75) (angle -90) (layer F.CrtYd) (width 0.05))
  (fp_arc (start 5.75 5.75) (end 5.75 6.25) (angle -90) (layer F.CrtYd) (width 0.05))
  (fp_arc (start 5.75 -5.75) (end 6.25 -5.75) (angle -90) (layer F.CrtYd) (width 0.05))
  (fp_line (start 6.7 -2.9) (end 6.25 -2.9) (layer F.CrtYd) (width 0.05))
  (fp_line (start 6.7 -2.9) (end 6.7 2.9) (layer F.CrtYd) (width 0.05))
  (fp_line (start 6.7 2.9) (end 6.25 2.9) (layer F.CrtYd) (width 0.05))
  (fp_line (start 6.25 -5.75) (end 6.25 -2.9) (layer F.CrtYd) (width 0.05))
  (fp_line (start -6.7 -2.9) (end -6.25 -2.9) (layer F.CrtYd) (width 0.05))
  (fp_line (start -6.25 2.9) (end -6.7 2.9) (layer F.CrtYd) (width 0.05))
  (fp_line (start -6.7 -2.9) (end -6.7 2.9) (layer F.CrtYd) (width 0.05))
  (fp_line (start -6.25 -5.75) (end -6.25 -2.9) (layer F.CrtYd) (width 0.05))
  (pad 2 smd rect (at 5.05 0) (size 2.8 5.3) (layers F.Cu F.Paste F.Mask))
  (pad 1 smd rect (at -5.05 0) (size 2.8 5.3) (layers F.Cu F.Paste F.Mask))
  (model ${KICAD6_3DMODEL_DIR}/Inductor_SMD.3dshapes/L_Bourns_SRR1210A.wrl
    (at (xyz 0 0 0))
    (scale (xyz 1 1 1))
    (rotate (xyz 0 0 0))
  )
)
