(module L_Bourns_SRP1245A (layer F.Cu) (tedit 5AD32382)
  (descr "Bourns SRP1245A series SMD inductor http://www.bourns.com/docs/Product-Datasheets/SRP1245A.pdf")
  (tags "Bourns SRP1245A SMD inductor")
  (attr smd)
  (fp_text reference REF** (at 0 -7.25) (layer F.SilkS)
    (effects (font (size 1 1) (thickness 0.15)))
  )
  (fp_text value L_Bourns_SRP1245A (at 0 7.4) (layer F.Fab)
    (effects (font (size 1 1) (thickness 0.15)))
  )
  (fp_arc (start 5.75 -5.7) (end 6.55 -5.7) (angle -90) (layer F.CrtYd) (width 0.05))
  (fp_arc (start 5.75 5.7) (end 5.75 6.5) (angle -90) (layer F.CrtYd) (width 0.05))
  (fp_arc (start -5.75 5.7) (end -6.55 5.7) (angle -90) (layer F.CrtYd) (width 0.05))
  (fp_arc (start -5.75 -5.7) (end -5.75 -6.5) (angle -90) (layer F.CrtYd) (width 0.05))
  (fp_arc (start 5.75 -5.7) (end 6.45 -5.7) (angle -90) (layer F.SilkS) (width 0.12))
  (fp_arc (start 5.75 5.7) (end 5.75 6.4) (angle -90) (layer F.SilkS) (width 0.12))
  (fp_arc (start -5.75 5.7) (end -6.45 5.7) (angle -90) (layer F.SilkS) (width 0.12))
  (fp_arc (start -5.75 -5.7) (end -5.75 -6.4) (angle -90) (layer F.SilkS) (width 0.12))
  (fp_line (start 6.45 2.8) (end 6.45 5.7) (layer F.SilkS) (width 0.12))
  (fp_line (start -6.45 2.8) (end -6.45 5.7) (layer F.SilkS) (width 0.12))
  (fp_arc (start -5.75 5.7) (end -6.3 5.7) (angle -90) (layer F.Fab) (width 0.1))
  (fp_arc (start 5.75 5.7) (end 5.75 6.25) (angle -90) (layer F.Fab) (width 0.1))
  (fp_arc (start 5.75 -5.7) (end 6.3 -5.7) (angle -90) (layer F.Fab) (width 0.1))
  (fp_arc (start -5.75 -5.7) (end -5.75 -6.25) (angle -90) (layer F.Fab) (width 0.1))
  (fp_text user %R (at 0 0) (layer F.Fab)
    (effects (font (size 1 1) (thickness 0.15)))
  )
  (fp_line (start 5.75 6.5) (end -5.75 6.5) (layer F.CrtYd) (width 0.05))
  (fp_line (start -5.75 -6.5) (end 5.75 -6.5) (layer F.CrtYd) (width 0.05))
  (fp_line (start 6.45 -5.7) (end 6.45 -2.8) (layer F.SilkS) (width 0.12))
  (fp_line (start 5.75 6.4) (end -5.75 6.4) (layer F.SilkS) (width 0.12))
  (fp_line (start -6.45 -5.75) (end -6.45 -2.8) (layer F.SilkS) (width 0.12))
  (fp_line (start -5.75 -6.4) (end 5.75 -6.4) (layer F.SilkS) (width 0.12))
  (fp_line (start 6.3 -5.7) (end 6.3 5.7) (layer F.Fab) (width 0.1))
  (fp_line (start 5.75 6.25) (end -5.75 6.25) (layer F.Fab) (width 0.1))
  (fp_line (start -6.3 -5.75) (end -6.3 5.7) (layer F.Fab) (width 0.1))
  (fp_line (start -5.75 -6.25) (end 5.75 -6.25) (layer F.Fab) (width 0.1))
  (fp_line (start 7.35 2.75) (end 6.55 2.75) (layer F.CrtYd) (width 0.05))
  (fp_line (start 7.35 -2.75) (end 6.55 -2.75) (layer F.CrtYd) (width 0.05))
  (fp_line (start 7.35 -2.75) (end 7.35 2.75) (layer F.CrtYd) (width 0.05))
  (fp_line (start 6.55 -5.7) (end 6.55 -2.75) (layer F.CrtYd) (width 0.05))
  (fp_line (start 6.55 2.75) (end 6.55 5.7) (layer F.CrtYd) (width 0.05))
  (fp_line (start -7.35 2.75) (end -7.35 -2.75) (layer F.CrtYd) (width 0.05))
  (fp_line (start -7.35 2.75) (end -6.55 2.75) (layer F.CrtYd) (width 0.05))
  (fp_line (start -6.55 -2.75) (end -6.55 -5.7) (layer F.CrtYd) (width 0.05))
  (fp_line (start -6.55 5.7) (end -6.55 2.75) (layer F.CrtYd) (width 0.05))
  (fp_line (start -7.35 -2.75) (end -6.55 -2.75) (layer F.CrtYd) (width 0.05))
  (pad 1 smd rect (at -5.55 0) (size 3.1 5) (layers F.Cu F.Paste F.Mask))
  (pad 2 smd rect (at 5.55 0) (size 3.1 5) (layers F.Cu F.Paste F.Mask))
  (model ${KICAD6_3DMODEL_DIR}/Inductor_SMD.3dshapes/L_Bourns_SRP1245A.wrl
    (at (xyz 0 0 0))
    (scale (xyz 1 1 1))
    (rotate (xyz 0 0 0))
  )
)
