(module L_Bourns-SRN8040_8x8.15mm (layer F.Cu) (tedit 5D866CC7)
  (descr "Bourns SRN8040 series SMD inductor 8x8.15mm, https://www.bourns.com/docs/Product-Datasheets/SRN8040.pdf")
  (tags "Bourns SRN8040 SMD inductor")
  (attr smd)
  (fp_text reference REF** (at 0.09 -5.23) (layer F.SilkS)
    (effects (font (size 1 1) (thickness 0.15)))
  )
  (fp_text value L_Bourns-SRN8040_8x8.15mm (at 0.17 5.23) (layer F.Fab)
    (effects (font (size 1 1) (thickness 0.15)))
  )
  (fp_arc (start 0 0) (end 4 -1.96) (angle -40.06324546) (layer F.Fab) (width 0.1))
  (fp_arc (start 0 0) (end -4 1.96) (angle -40) (layer F.Fab) (width 0.1))
  (fp_arc (start 0 0) (end -1.8 -4.075) (angle -40) (layer F.Fab) (width 0.1))
  (fp_line (start -4.35 4.35) (end 4.35 4.35) (layer F.CrtYd) (width 0.05))
  (fp_line (start 1.25 -4.2) (end -1.25 -4.2) (layer F.SilkS) (width 0.12))
  (fp_line (start -1.8 -4.075) (end 1.8 -4.075) (layer F.Fab) (width 0.1))
  (fp_line (start -4 -1.96) (end -4 1.96) (layer F.Fab) (width 0.1))
  (fp_line (start 4 -1.96) (end 4 1.96) (layer F.Fab) (width 0.1))
  (fp_line (start -1.25 4.2) (end 1.25 4.2) (layer F.SilkS) (width 0.12))
  (fp_line (start 4.35 -4.35) (end 4.35 4.35) (layer F.CrtYd) (width 0.05))
  (fp_line (start 1.8 4.075) (end -1.8 4.075) (layer F.Fab) (width 0.1))
  (fp_line (start -4.35 -4.35) (end 4.35 -4.35) (layer F.CrtYd) (width 0.05))
  (fp_line (start -4.35 -4.35) (end -4.35 4.35) (layer F.CrtYd) (width 0.05))
  (fp_text user %R (at 0.127 0) (layer F.Fab)
    (effects (font (size 1 1) (thickness 0.15)))
  )
  (fp_arc (start 0 0) (end 1.8 4.075) (angle -40) (layer F.Fab) (width 0.1))
  (pad 1 smd rect (at -2.8 0) (size 2.6 8.2) (layers F.Cu F.Paste F.Mask))
  (pad 2 smd rect (at 2.8 0) (size 2.6 8.2) (layers F.Cu F.Paste F.Mask))
  (model ${KICAD6_3DMODEL_DIR}/Inductor_SMD.3dshapes/L_Bourns-SRN8040_8x8.15mm.wrl
    (at (xyz 0 0 0))
    (scale (xyz 1 1 1))
    (rotate (xyz 0 0 0))
  )
)
