(module L_Neosid_SM-PIC0602H (layer F.Cu) (tedit 5D8BD8DF)
  (descr "Neosid, Power Inductor, SM-PIC0602H, Fixed inductor, SMD, https://neosid.de/import-data/product-pdf/neoFestind_SMPIC0602H.pdf")
  (tags "Neosid Power Inductor SM-PIC0602H Fixed inductor SMD")
  (attr smd)
  (fp_text reference REF** (at 0 -4.4) (layer F.SilkS)
    (effects (font (size 1 1) (thickness 0.15)))
  )
  (fp_text value L_Neosid_SM-PIC0602H (at 0 4.5) (layer F.Fab)
    (effects (font (size 1 1) (thickness 0.15)))
  )
  (fp_text user %R (at 0 0) (layer F.Fab)
    (effects (font (size 1 1) (thickness 0.15)))
  )
  (fp_line (start -3.7 -3.3) (end -3.7 3.3) (layer F.Fab) (width 0.1))
  (fp_line (start -3.7 3.3) (end 3.7 3.3) (layer F.Fab) (width 0.1))
  (fp_line (start 3.7 3.3) (end 3.7 -3.3) (layer F.Fab) (width 0.1))
  (fp_line (start 3.7 -3.3) (end -3.7 -3.3) (layer F.Fab) (width 0.1))
  (fp_line (start 3.8 -2.4) (end 3.8 -3.3) (layer F.SilkS) (width 0.12))
  (fp_line (start -3.8 2.4) (end -3.8 3.3) (layer F.SilkS) (width 0.12))
  (fp_line (start -3.8 3.4) (end 3.8 3.4) (layer F.SilkS) (width 0.12))
  (fp_line (start 3.8 3.3) (end 3.8 2.4) (layer F.SilkS) (width 0.12))
  (fp_line (start 3.8 -3.4) (end -3.8 -3.4) (layer F.SilkS) (width 0.12))
  (fp_line (start -3.8 -3.3) (end -3.8 -2.4) (layer F.SilkS) (width 0.12))
  (fp_line (start -4.46 -3.55) (end 4.46 -3.55) (layer F.CrtYd) (width 0.05))
  (fp_line (start -4.46 -3.55) (end -4.46 3.55) (layer F.CrtYd) (width 0.05))
  (fp_line (start 4.46 3.55) (end 4.46 -3.55) (layer F.CrtYd) (width 0.05))
  (fp_line (start 4.46 3.55) (end -4.46 3.55) (layer F.CrtYd) (width 0.05))
  (pad 1 smd rect (at -3.03 0) (size 2.35 3.5) (layers F.Cu F.Paste F.Mask))
  (pad 2 smd rect (at 3.03 0) (size 2.35 3.5) (layers F.Cu F.Paste F.Mask))
  (model ${KICAD6_3DMODEL_DIR}/Inductor_SMD.3dshapes/L_Neosid_SM-PIC0602H.wrl
    (at (xyz 0 0 0))
    (scale (xyz 1 1 1))
    (rotate (xyz 0 0 0))
  )
)
