(module L_Neosid_SM-PIC1004H (layer F.Cu) (tedit 5D8BD8FA)
  (descr "Neosid, Inductor, SM-PIC1004H, Fixed inductor, SMD, https://neosid.de/import-data/product-pdf/neoFestind_SMPIC1004H.pdf")
  (tags "Neosid Inductor SM-PIC1004H Fixed inductor SMD")
  (attr smd)
  (fp_text reference REF** (at 0 -6) (layer F.SilkS)
    (effects (font (size 1 1) (thickness 0.15)))
  )
  (fp_text value L_Neosid_SM-PIC1004H (at 0 6.2) (layer F.Fab)
    (effects (font (size 1 1) (thickness 0.15)))
  )
  (fp_text user %R (at 0 0) (layer F.Fab)
    (effects (font (size 1 1) (thickness 0.15)))
  )
  (fp_line (start -5.7 -5) (end 5.7 -5) (layer F.Fab) (width 0.1))
  (fp_line (start 5.7 -5) (end 5.7 5) (layer F.Fab) (width 0.1))
  (fp_line (start 5.7 5) (end -5.7 5) (layer F.Fab) (width 0.1))
  (fp_line (start -5.7 5) (end -5.7 -5) (layer F.Fab) (width 0.1))
  (fp_line (start 6 -2.6) (end 6 -5.15) (layer F.SilkS) (width 0.12))
  (fp_line (start -6 2.6) (end -6 5.15) (layer F.SilkS) (width 0.12))
  (fp_line (start -6 5.15) (end 6 5.15) (layer F.SilkS) (width 0.12))
  (fp_line (start 6 5.15) (end 6 2.6) (layer F.SilkS) (width 0.12))
  (fp_line (start 6 -5.15) (end -6 -5.15) (layer F.SilkS) (width 0.12))
  (fp_line (start -6 -5.15) (end -6 -2.6) (layer F.SilkS) (width 0.12))
  (fp_line (start -6.8 -5.25) (end 6.8 -5.25) (layer F.CrtYd) (width 0.05))
  (fp_line (start -6.8 -5.25) (end -6.8 5.25) (layer F.CrtYd) (width 0.05))
  (fp_line (start 6.8 5.25) (end 6.8 -5.25) (layer F.CrtYd) (width 0.05))
  (fp_line (start 6.8 5.25) (end -6.8 5.25) (layer F.CrtYd) (width 0.05))
  (pad 1 smd rect (at -4.75 0) (size 3.6 4.1) (layers F.Cu F.Paste F.Mask))
  (pad 2 smd rect (at 4.75 0) (size 3.6 4.1) (layers F.Cu F.Paste F.Mask))
  (model ${KICAD6_3DMODEL_DIR}/Inductor_SMD.3dshapes/L_Neosid_SM-PIC1004H.wrl
    (at (xyz 0 0 0))
    (scale (xyz 1 1 1))
    (rotate (xyz 0 0 0))
  )
)
