(module L_Neosid_Ms42 (layer F.Cu) (tedit 5D8BD71C)
  (descr "Neosid, Inductor, SMs42, Fixed inductor, SMD, magneticaly shielded, https://neosid.de/import-data/product-pdf/neoFestind_Ms42.pdf")
  (tags "Neosid Inductor SMs42 Fixed inductor SMD magneticaly shielded")
  (attr smd)
  (fp_text reference REF** (at 0 -3) (layer F.SilkS)
    (effects (font (size 1 1) (thickness 0.15)))
  )
  (fp_text value L_Neosid_Ms42 (at 0 3.1) (layer F.Fab)
    (effects (font (size 1 1) (thickness 0.15)))
  )
  (fp_text user %R (at 0 0) (layer F.Fab)
    (effects (font (size 1 1) (thickness 0.15)))
  )
  (fp_line (start -2 1) (end -2.8 1) (layer F.Fab) (width 0.1))
  (fp_line (start -2.8 1) (end -2.8 -1) (layer F.Fab) (width 0.1))
  (fp_line (start 2 -1) (end 2.8 -1) (layer F.Fab) (width 0.1))
  (fp_line (start 2.8 -1) (end 2.8 1) (layer F.Fab) (width 0.1))
  (fp_line (start 2.8 1) (end 2 1) (layer F.Fab) (width 0.1))
  (fp_line (start -2.8 -1) (end -2 -1) (layer F.Fab) (width 0.1))
  (fp_line (start -2 -2) (end 2 -2) (layer F.Fab) (width 0.1))
  (fp_line (start 2 -2) (end 2 2) (layer F.Fab) (width 0.1))
  (fp_line (start 2 2) (end -2 2) (layer F.Fab) (width 0.1))
  (fp_line (start -2 2) (end -2 -2) (layer F.Fab) (width 0.1))
  (fp_line (start 2.8 2.2) (end -2.8 2.2) (layer F.SilkS) (width 0.12))
  (fp_line (start -2.8 2.2) (end -2.8 1.5) (layer F.SilkS) (width 0.12))
  (fp_line (start 2.8 1.5) (end 2.8 2.2) (layer F.SilkS) (width 0.12))
  (fp_line (start 2.8 -2.2) (end 2.8 -1.5) (layer F.SilkS) (width 0.12))
  (fp_line (start 2.8 -2.2) (end -2.8 -2.2) (layer F.SilkS) (width 0.12))
  (fp_line (start -2.8 -2.2) (end -2.8 -1.5) (layer F.SilkS) (width 0.12))
  (fp_line (start -3.05 -2.25) (end 3.05 -2.25) (layer F.CrtYd) (width 0.05))
  (fp_line (start -3.05 -2.25) (end -3.05 2.25) (layer F.CrtYd) (width 0.05))
  (fp_line (start 3.05 2.25) (end 3.05 -2.25) (layer F.CrtYd) (width 0.05))
  (fp_line (start 3.05 2.25) (end -3.05 2.25) (layer F.CrtYd) (width 0.05))
  (pad 1 smd rect (at -2.3 0) (size 1 2.4) (layers F.Cu F.Paste F.Mask))
  (pad 2 smd rect (at 2.3 0) (size 1 2.4) (layers F.Cu F.Paste F.Mask))
  (model ${KICAD6_3DMODEL_DIR}/Inductor_SMD.3dshapes/L_Neosid_Ms42.wrl
    (at (xyz 0 0 0))
    (scale (xyz 1 1 1))
    (rotate (xyz 0 0 0))
  )
)
