(module L_Neosid_Ms85T (layer F.Cu) (tedit 5D8D1DD7)
  (descr "Neosid, Ms85, Ms85T, SMD Inductor, Fixed inductor, SMD, https://neosid.de/import-data/product-pdf/neoFestind_Ms85T.pdf")
  (tags "Neosid Ms85 Ms85T SMD Inductor Fixed inductor SMD")
  (attr smd)
  (fp_text reference REF** (at -0.1 -5.1) (layer F.SilkS)
    (effects (font (size 1 1) (thickness 0.15)))
  )
  (fp_text value L_Neosid_Ms85T (at 0 5.1) (layer F.Fab)
    (effects (font (size 1 1) (thickness 0.15)))
  )
  (fp_text user %R (at 0 0) (layer F.Fab)
    (effects (font (size 1 1) (thickness 0.15)))
  )
  (fp_line (start 3.2 -2.6) (end 3.2 -4.2) (layer F.SilkS) (width 0.12))
  (fp_line (start 3.2 -4.2) (end -3.2 -4.2) (layer F.SilkS) (width 0.12))
  (fp_line (start -3.2 -4.2) (end -3.2 -2.6) (layer F.SilkS) (width 0.12))
  (fp_line (start -3.2 2.6) (end -3.2 4.2) (layer F.SilkS) (width 0.12))
  (fp_line (start -3.2 4.2) (end 3.2 4.2) (layer F.SilkS) (width 0.12))
  (fp_line (start 3.2 4.2) (end 3.2 2.6) (layer F.SilkS) (width 0.12))
  (fp_line (start 3 1.8) (end 4.3 1.8) (layer F.Fab) (width 0.1))
  (fp_line (start 4.3 1.8) (end 4.3 -1.8) (layer F.Fab) (width 0.1))
  (fp_line (start 4.3 -1.8) (end 3 -1.8) (layer F.Fab) (width 0.1))
  (fp_line (start -4.3 -1.8) (end -4.3 1.8) (layer F.Fab) (width 0.1))
  (fp_line (start -4.3 1.8) (end -3 1.8) (layer F.Fab) (width 0.1))
  (fp_line (start -4.3 -1.8) (end -3 -1.8) (layer F.Fab) (width 0.1))
  (fp_line (start -3 -4) (end 3 -4) (layer F.Fab) (width 0.1))
  (fp_line (start 3 -4) (end 3 4) (layer F.Fab) (width 0.1))
  (fp_line (start 3 4) (end -3 4) (layer F.Fab) (width 0.1))
  (fp_line (start -3 4) (end -3 -4) (layer F.Fab) (width 0.1))
  (fp_line (start -4.78 -4.25) (end 4.78 -4.25) (layer F.CrtYd) (width 0.05))
  (fp_line (start -4.78 -4.25) (end -4.78 4.25) (layer F.CrtYd) (width 0.05))
  (fp_line (start 4.78 4.25) (end 4.78 -4.25) (layer F.CrtYd) (width 0.05))
  (fp_line (start 4.78 4.25) (end -4.78 4.25) (layer F.CrtYd) (width 0.05))
  (pad 1 smd rect (at -3.4 0) (size 2.25 4.5) (layers F.Cu F.Paste F.Mask))
  (pad 2 smd rect (at 3.4 0) (size 2.25 4.5) (layers F.Cu F.Paste F.Mask))
  (model ${KICAD6_3DMODEL_DIR}/Inductor_SMD.3dshapes/L_Neosid_Ms85T.wrl
    (at (xyz 0 0 0))
    (scale (xyz 1 1 1))
    (rotate (xyz 0 0 0))
  )
)
