(module L_Neosid_SMs50 (layer F.Cu) (tedit 5D8BD975)
  (descr "Neosid, Inductor, SMs50, Fixed inductor, SMD, magneticaly shielded, https://neosid.de/import-data/product-pdf/neoFestind_ma_SMs50.pdf")
  (tags "Neosid Inductor SMs50 Fixed inductor SMD magneticaly shielded")
  (attr smd)
  (fp_text reference REF** (at 0 -4.1) (layer F.SilkS)
    (effects (font (size 1 1) (thickness 0.15)))
  )
  (fp_text value L_Neosid_SMs50 (at 0 4.1) (layer F.Fab)
    (effects (font (size 1 1) (thickness 0.15)))
  )
  (fp_text user %R (at 0 0) (layer F.Fab)
    (effects (font (size 1 1) (thickness 0.15)))
  )
  (fp_line (start 2.6 1.4) (end 2.6 3.2) (layer F.SilkS) (width 0.12))
  (fp_line (start 2.6 3.2) (end -2.6 3.2) (layer F.SilkS) (width 0.12))
  (fp_line (start -2.6 3.2) (end -2.6 1.4) (layer F.SilkS) (width 0.12))
  (fp_line (start -2.6 -1.4) (end -2.6 -3.2) (layer F.SilkS) (width 0.12))
  (fp_line (start -2.6 -3.2) (end 2.6 -3.2) (layer F.SilkS) (width 0.12))
  (fp_line (start 2.6 -3.2) (end 2.6 -1.4) (layer F.SilkS) (width 0.12))
  (fp_line (start -2.5 -3.1) (end 2.5 -3.1) (layer F.Fab) (width 0.1))
  (fp_line (start 2.5 -3.1) (end 2.5 3.1) (layer F.Fab) (width 0.1))
  (fp_line (start 2.5 3.1) (end -2.5 3.1) (layer F.Fab) (width 0.1))
  (fp_line (start -2.5 3.1) (end -2.5 -3.1) (layer F.Fab) (width 0.1))
  (fp_line (start -2.75 -3.35) (end 2.75 -3.35) (layer F.CrtYd) (width 0.05))
  (fp_line (start -2.75 -3.35) (end -2.75 3.35) (layer F.CrtYd) (width 0.05))
  (fp_line (start 2.75 3.35) (end 2.75 -3.35) (layer F.CrtYd) (width 0.05))
  (fp_line (start 2.75 3.35) (end -2.75 3.35) (layer F.CrtYd) (width 0.05))
  (pad 1 smd rect (at -1.7 0) (size 1.4 2.4) (layers F.Cu F.Paste F.Mask))
  (pad 2 smd rect (at 1.7 0) (size 1.4 2.4) (layers F.Cu F.Paste F.Mask))
  (model ${KICAD6_3DMODEL_DIR}/Inductor_SMD.3dshapes/L_Neosid_SMs50.wrl
    (at (xyz 0 0 0))
    (scale (xyz 1 1 1))
    (rotate (xyz 0 0 0))
  )
)
