(module L_Neosid_Air-Coil_SML_3turn_HDM0331A (layer F.Cu) (tedit 5990349C)
  (descr "Neosid, Air-Coil, SML, 3turn, HDM0331A,")
  (tags "Neosid Air-Coil SML 3turn HDM0331A")
  (attr smd)
  (fp_text reference REF** (at 0 -5.5) (layer F.SilkS)
    (effects (font (size 1 1) (thickness 0.15)))
  )
  (fp_text value L_Neosid_Air-Coil_SML_3turn_HDM0331A (at 0 5.5) (layer F.Fab)
    (effects (font (size 1 1) (thickness 0.15)))
  )
  (fp_text user %R (at 0 0) (layer F.Fab)
    (effects (font (size 0.7 0.7) (thickness 0.105)))
  )
  (fp_line (start -1.5 3.5) (end -1.5 -1.4) (layer F.Fab) (width 0.1))
  (fp_line (start -1.5 -1.4) (end -0.5 1.4) (layer F.Fab) (width 0.1))
  (fp_line (start -0.5 1.4) (end -0.5 -1.4) (layer F.Fab) (width 0.1))
  (fp_line (start -0.5 -1.4) (end 0.5 1.4) (layer F.Fab) (width 0.1))
  (fp_line (start 0.5 1.4) (end 0.5 -1.4) (layer F.Fab) (width 0.1))
  (fp_line (start 0.5 -1.4) (end 1.5 1.4) (layer F.Fab) (width 0.1))
  (fp_line (start 1.5 1.4) (end 1.5 -3.5) (layer F.Fab) (width 0.1))
  (fp_line (start -2 4.45) (end -0.9 4.45) (layer F.CrtYd) (width 0.05))
  (fp_line (start -0.9 4.45) (end -0.9 1.9) (layer F.CrtYd) (width 0.05))
  (fp_line (start -0.9 1.9) (end 2 1.9) (layer F.CrtYd) (width 0.05))
  (fp_line (start 2 1.9) (end 2 -4.45) (layer F.CrtYd) (width 0.05))
  (fp_line (start 2 -4.45) (end 0.9 -4.45) (layer F.CrtYd) (width 0.05))
  (fp_line (start 0.9 -4.45) (end 0.9 -1.9) (layer F.CrtYd) (width 0.05))
  (fp_line (start 0.9 -1.9) (end -2 -1.9) (layer F.CrtYd) (width 0.05))
  (fp_line (start -2 -1.9) (end -2 4.45) (layer F.CrtYd) (width 0.05))
  (fp_line (start 0.5 -1.4) (end 1.45 1.4) (layer F.SilkS) (width 0.12))
  (fp_line (start -0.5 -1.4) (end 0.5 1.4) (layer F.SilkS) (width 0.12))
  (fp_line (start -1.45 -1.4) (end -0.5 1.4) (layer F.SilkS) (width 0.12))
  (fp_line (start 0.5 -1.4) (end 0.5 1.4) (layer F.SilkS) (width 0.12))
  (fp_line (start -0.5 -1.4) (end -0.5 1.4) (layer F.SilkS) (width 0.12))
  (fp_line (start -1.45 -1.4) (end -1.45 2.25) (layer F.SilkS) (width 0.12))
  (fp_line (start 1.45 1.4) (end 1.45 -2.25) (layer F.SilkS) (width 0.12))
  (pad 1 smd rect (at -1.45 3.45) (size 0.6 1.5) (layers F.Cu F.Paste F.Mask))
  (pad 2 smd rect (at 1.45 -3.45) (size 0.6 1.5) (layers F.Cu F.Paste F.Mask))
  (model ${KICAD6_3DMODEL_DIR}/Inductor_SMD.3dshapes/L_Neosid_Air-Coil_SML_3turn_HDM0331A.wrl
    (at (xyz 0 0 0))
    (scale (xyz 1 1 1))
    (rotate (xyz 0 0 0))
  )
)
