(module L_Neosid_SM-NE150 (layer F.Cu) (tedit 5D8BD89F)
  (descr "Neosid, Inductor, SM-NE150, Fixed inductor, SMD, https://neosid.de/import-data/product-pdf/neoFestind_SMNE150.pdf")
  (tags "Neosid Inductor SM-NE150 Fixed inductor SMD")
  (attr smd)
  (fp_text reference REF** (at -0.1 -8.7) (layer F.SilkS)
    (effects (font (size 1 1) (thickness 0.15)))
  )
  (fp_text value L_Neosid_SM-NE150 (at -0.1 8.9) (layer F.Fab)
    (effects (font (size 1 1) (thickness 0.15)))
  )
  (fp_text user %R (at 0 0) (layer F.Fab)
    (effects (font (size 1 1) (thickness 0.15)))
  )
  (fp_line (start -8.9 1.9) (end -3.9 7.8) (layer F.SilkS) (width 0.12))
  (fp_line (start -3.9 7.8) (end 3.9 7.8) (layer F.SilkS) (width 0.12))
  (fp_line (start 3.9 7.8) (end 8.9 1.9) (layer F.SilkS) (width 0.12))
  (fp_line (start -3.9 -7.8) (end -8.9 -1.9) (layer F.SilkS) (width 0.12))
  (fp_line (start -3.9 -7.8) (end 3.9 -7.8) (layer F.SilkS) (width 0.12))
  (fp_line (start 3.9 -7.8) (end 8.9 -1.9) (layer F.SilkS) (width 0.12))
  (fp_line (start -3.9 -7.7) (end 3.9 -7.7) (layer F.Fab) (width 0.1))
  (fp_line (start 3.9 -7.7) (end 9.3 -1.3) (layer F.Fab) (width 0.1))
  (fp_line (start 9.3 -1.3) (end 9.3 1.3) (layer F.Fab) (width 0.1))
  (fp_line (start 9.3 1.3) (end 3.9 7.7) (layer F.Fab) (width 0.1))
  (fp_line (start 3.9 7.7) (end -3.9 7.7) (layer F.Fab) (width 0.1))
  (fp_line (start -3.9 7.7) (end -9.3 1.3) (layer F.Fab) (width 0.1))
  (fp_line (start -9.3 1.3) (end -9.3 -1.3) (layer F.Fab) (width 0.1))
  (fp_line (start -9.3 -1.3) (end -3.9 -7.7) (layer F.Fab) (width 0.1))
  (fp_line (start -9.95 -7.95) (end 9.95 -7.95) (layer F.CrtYd) (width 0.05))
  (fp_line (start -9.95 -7.95) (end -9.95 7.95) (layer F.CrtYd) (width 0.05))
  (fp_line (start 9.95 7.95) (end 9.95 -7.95) (layer F.CrtYd) (width 0.05))
  (fp_line (start 9.95 7.95) (end -9.95 7.95) (layer F.CrtYd) (width 0.05))
  (fp_circle (center 0 0) (end -6.4 0) (layer F.Fab) (width 0.1))
  (pad 2 smd rect (at 8.2 0) (size 3 3.2) (layers F.Cu F.Paste F.Mask))
  (pad 1 smd rect (at -8.2 0 180) (size 3 3.2) (layers F.Cu F.Paste F.Mask))
  (model ${KICAD6_3DMODEL_DIR}/Inductor_SMD.3dshapes/L_Neosid_SM-NE150.wrl
    (at (xyz 0 0 0))
    (scale (xyz 1 1 1))
    (rotate (xyz 0 0 0))
  )
)
