(module L_SigTra_SC3316F (layer F.Cu) (tedit 5990349C)
  (descr http://www.signaltransformer.com/sites/all/pdf/smd/P080_SC3316F.pdf)
  (tags "Choke ")
  (attr smd)
  (fp_text reference REF** (at 0 6.2) (layer F.SilkS)
    (effects (font (size 1 1) (thickness 0.15)))
  )
  (fp_text value L_SigTra_SC3316F (at 0 -6.4) (layer F.Fab)
    (effects (font (size 1 1) (thickness 0.15)))
  )
  (fp_text user %R (at 0 0) (layer F.Fab)
    (effects (font (size 1 1) (thickness 0.15)))
  )
  (fp_line (start -1 -5.25) (end -6.75 -2) (layer F.CrtYd) (width 0.05))
  (fp_line (start -6.75 -2) (end -6.75 2) (layer F.CrtYd) (width 0.05))
  (fp_line (start -6.75 2) (end -1 5.25) (layer F.CrtYd) (width 0.05))
  (fp_line (start 6.75 2) (end 6.75 -2) (layer F.CrtYd) (width 0.05))
  (fp_line (start -1 5.25) (end 1 5.25) (layer F.CrtYd) (width 0.05))
  (fp_line (start 1 5.25) (end 6.75 2) (layer F.CrtYd) (width 0.05))
  (fp_line (start -1 -5.25) (end 1 -5.25) (layer F.CrtYd) (width 0.05))
  (fp_line (start 1 -5.25) (end 6.75 -2) (layer F.CrtYd) (width 0.05))
  (fp_line (start 6.1 -1.9) (end 6.1 -2.2) (layer F.SilkS) (width 0.12))
  (fp_line (start 6.1 -2.2) (end 1 -5.1) (layer F.SilkS) (width 0.12))
  (fp_line (start 6.1 1.9) (end 6.1 2.2) (layer F.SilkS) (width 0.12))
  (fp_line (start 6.1 2.2) (end 1 5.1) (layer F.SilkS) (width 0.12))
  (fp_line (start -6.1 1.9) (end -6.1 2.2) (layer F.SilkS) (width 0.12))
  (fp_line (start -6.1 2.2) (end -1 5.1) (layer F.SilkS) (width 0.12))
  (fp_line (start -6.1 -1.9) (end -6.1 -2.2) (layer F.SilkS) (width 0.12))
  (fp_line (start -6.1 -2.2) (end -1 -5.1) (layer F.SilkS) (width 0.12))
  (fp_line (start 1 5.1) (end -1 5.1) (layer F.SilkS) (width 0.12))
  (fp_line (start 1 -5.1) (end -1 -5.1) (layer F.SilkS) (width 0.12))
  (fp_line (start -1 4.9) (end -6.1 1.3) (layer F.Fab) (width 0.1))
  (fp_line (start 6.1 1.3) (end 1 4.9) (layer F.Fab) (width 0.1))
  (fp_line (start 1 -4.9) (end 6.1 -1.3) (layer F.Fab) (width 0.1))
  (fp_line (start 1 -4.9) (end -1 -4.9) (layer F.Fab) (width 0.1))
  (fp_line (start -1 -4.9) (end -6.1 -1.2) (layer F.Fab) (width 0.1))
  (fp_line (start 3.6 1.3) (end 3.6 -1.3) (layer F.Fab) (width 0.1))
  (fp_line (start 3.6 -1.3) (end 6.1 -1.3) (layer F.Fab) (width 0.1))
  (fp_line (start 6.1 -1.3) (end 6.1 1.3) (layer F.Fab) (width 0.1))
  (fp_line (start 6.1 1.3) (end 3.6 1.3) (layer F.Fab) (width 0.1))
  (fp_line (start -3.6 0) (end -3.6 1.3) (layer F.Fab) (width 0.1))
  (fp_line (start -3.6 1.3) (end -6.1 1.3) (layer F.Fab) (width 0.1))
  (fp_line (start -6.1 1.3) (end -6.1 -1.2) (layer F.Fab) (width 0.1))
  (fp_line (start -6.1 -1.2) (end -3.6 -1.2) (layer F.Fab) (width 0.1))
  (fp_line (start -3.6 -1.2) (end -3.6 0) (layer F.Fab) (width 0.1))
  (fp_line (start 1 4.9) (end -1 4.9) (layer F.Fab) (width 0.1))
  (fp_circle (center 0 0) (end 0.5 0) (layer F.Adhes) (width 1))
  (fp_circle (center 0 0) (end 4.2 0) (layer F.Fab) (width 0.1))
  (pad 1 smd rect (at -5 0) (size 3 3) (layers F.Cu F.Paste F.Mask))
  (pad 2 smd rect (at 5 0) (size 3 3) (layers F.Cu F.Paste F.Mask))
  (model ${KICAD6_3DMODEL_DIR}/Inductor_SMD.3dshapes/L_SigTra_SC3316F.wrl
    (at (xyz 0 0 0))
    (scale (xyz 1 1 1))
    (rotate (xyz 0 0 0))
  )
)
