(module L_Sunlord_MWSA0518_5.4x5.2mm (layer F.Cu) (tedit 5DB5FB51)
  (descr "Inductor, Sunlord, MWSA0518, 5.4mmx5.2mm")
  (tags "inductor Sunlord smd")
  (attr smd)
  (fp_text reference REF** (at 0 -3.6) (layer F.SilkS)
    (effects (font (size 1 1) (thickness 0.15)))
  )
  (fp_text value L_Sunlord_MWSA0518_5.4x5.2mm (at 0 4.1) (layer F.Fab)
    (effects (font (size 1 1) (thickness 0.15)))
  )
  (fp_text user %R (at 0 0) (layer F.Fab)
    (effects (font (size 1 1) (thickness 0.15)))
  )
  (fp_line (start -2.7 -2.6) (end 2.7 -2.6) (layer F.Fab) (width 0.1))
  (fp_line (start 2.7 -2.6) (end 2.7 2.6) (layer F.Fab) (width 0.1))
  (fp_line (start 2.7 2.6) (end -2.7 2.6) (layer F.Fab) (width 0.1))
  (fp_line (start -2.7 2.6) (end -2.7 -2.6) (layer F.Fab) (width 0.1))
  (fp_line (start -3.25 -2.85) (end 3.25 -2.85) (layer F.CrtYd) (width 0.05))
  (fp_line (start 3.25 -2.85) (end 3.25 2.85) (layer F.CrtYd) (width 0.05))
  (fp_line (start 3.25 2.85) (end -3.25 2.85) (layer F.CrtYd) (width 0.05))
  (fp_line (start -3.25 2.85) (end -3.25 -2.85) (layer F.CrtYd) (width 0.05))
  (fp_line (start -2.8 -2.7) (end 2.8 -2.7) (layer F.SilkS) (width 0.12))
  (fp_line (start -2.8 2.7) (end 2.8 2.7) (layer F.SilkS) (width 0.12))
  (fp_line (start -2.8 -2.7) (end -2.8 -1.55) (layer F.SilkS) (width 0.12))
  (fp_line (start -2.8 2.7) (end -2.8 1.55) (layer F.SilkS) (width 0.12))
  (fp_line (start 2.8 -2.7) (end 2.8 -1.55) (layer F.SilkS) (width 0.12))
  (fp_line (start 2.8 2.7) (end 2.8 1.55) (layer F.SilkS) (width 0.12))
  (pad 1 smd rect (at -2.05 0) (size 1.9 2.5) (layers F.Cu F.Paste F.Mask))
  (pad 2 smd rect (at 2.05 0) (size 1.9 2.5) (layers F.Cu F.Paste F.Mask))
  (model ${KICAD6_3DMODEL_DIR}/Inductor_SMD.3dshapes/L_Sunlord_MWSA0518.wrl
    (at (xyz 0 0 0))
    (scale (xyz 1 1 1))
    (rotate (xyz 0 0 0))
  )
)
