(module L_Taiyo-Yuden_NR-50xx_HandSoldering (layer F.Cu) (tedit 5990349D)
  (descr "Inductor, Taiyo Yuden, NR series, Taiyo-Yuden_NR-50xx, 4.9mmx4.9mm")
  (tags "inductor taiyo-yuden nr smd")
  (attr smd)
  (fp_text reference REF** (at 0 -3.45) (layer F.SilkS)
    (effects (font (size 1 1) (thickness 0.15)))
  )
  (fp_text value L_Taiyo-Yuden_NR-50xx_HandSoldering (at 0 3.95) (layer F.Fab)
    (effects (font (size 1 1) (thickness 0.15)))
  )
  (fp_text user %R (at 0 0) (layer F.Fab)
    (effects (font (size 1 1) (thickness 0.15)))
  )
  (fp_line (start -2.45 0) (end -2.45 -1.65) (layer F.Fab) (width 0.1))
  (fp_line (start -2.45 -1.65) (end -1.65 -2.45) (layer F.Fab) (width 0.1))
  (fp_line (start -1.65 -2.45) (end 0 -2.45) (layer F.Fab) (width 0.1))
  (fp_line (start 2.45 0) (end 2.45 -1.65) (layer F.Fab) (width 0.1))
  (fp_line (start 2.45 -1.65) (end 1.65 -2.45) (layer F.Fab) (width 0.1))
  (fp_line (start 1.65 -2.45) (end 0 -2.45) (layer F.Fab) (width 0.1))
  (fp_line (start 2.45 0) (end 2.45 1.65) (layer F.Fab) (width 0.1))
  (fp_line (start 2.45 1.65) (end 1.65 2.45) (layer F.Fab) (width 0.1))
  (fp_line (start 1.65 2.45) (end 0 2.45) (layer F.Fab) (width 0.1))
  (fp_line (start -2.45 0) (end -2.45 1.65) (layer F.Fab) (width 0.1))
  (fp_line (start -2.45 1.65) (end -1.65 2.45) (layer F.Fab) (width 0.1))
  (fp_line (start -1.65 2.45) (end 0 2.45) (layer F.Fab) (width 0.1))
  (fp_line (start -3.45 -2.55) (end 3.45 -2.55) (layer F.SilkS) (width 0.12))
  (fp_line (start -3.45 2.55) (end 3.45 2.55) (layer F.SilkS) (width 0.12))
  (fp_line (start -3.75 -2.75) (end -3.75 2.75) (layer F.CrtYd) (width 0.05))
  (fp_line (start -3.75 2.75) (end 3.75 2.75) (layer F.CrtYd) (width 0.05))
  (fp_line (start 3.75 2.75) (end 3.75 -2.75) (layer F.CrtYd) (width 0.05))
  (fp_line (start 3.75 -2.75) (end -3.75 -2.75) (layer F.CrtYd) (width 0.05))
  (pad 1 smd rect (at -2.25 0) (size 2.4 4.2) (layers F.Cu F.Paste F.Mask))
  (pad 2 smd rect (at 2.25 0) (size 2.4 4.2) (layers F.Cu F.Paste F.Mask))
  (model ${KICAD6_3DMODEL_DIR}/Inductor_SMD.3dshapes/L_Taiyo-Yuden_NR-50xx.wrl
    (at (xyz 0 0 0))
    (scale (xyz 1 1 1))
    (rotate (xyz 0 0 0))
  )
)
