(module L_TDK_SLF12555 (layer F.Cu) (tedit 5C2392AD)
  (descr "Inductor, TDK, SLF12555, 12.5mmx12.5mm (Script generated with StandardBox.py) (https://product.tdk.com/info/en/catalog/datasheets/inductor_commercial_power_slf12555_en.pdf)")
  (tags "Inductor SLF12555")
  (attr smd)
  (fp_text reference REF** (at -3.75 -7.45) (layer F.SilkS)
    (effects (font (size 1 1) (thickness 0.15)))
  )
  (fp_text value L_TDK_SLF12555 (at 0 7.25) (layer F.Fab)
    (effects (font (size 1 1) (thickness 0.15)))
  )
  (fp_line (start -5.75 -6.25) (end 6.25 -6.25) (layer F.Fab) (width 0.1))
  (fp_line (start 6.25 -6.25) (end 6.25 6.25) (layer F.Fab) (width 0.1))
  (fp_line (start 6.25 6.25) (end -6.25 6.25) (layer F.Fab) (width 0.1))
  (fp_line (start -6.25 6.25) (end -6.25 -5.75) (layer F.Fab) (width 0.1))
  (fp_line (start -6.25 -5.75) (end -5.75 -6.25) (layer F.Fab) (width 0.1))
  (fp_line (start -6.75 -3.75) (end -6.75 -6.75) (layer F.SilkS) (width 0.12))
  (fp_line (start -6.75 -6.75) (end -3.75 -6.75) (layer F.SilkS) (width 0.12))
  (fp_line (start -6.37 -6.37) (end 6.37 -6.37) (layer F.SilkS) (width 0.12))
  (fp_line (start 6.37 -6.37) (end 6.37 -1.85) (layer F.SilkS) (width 0.12))
  (fp_line (start 6.37 1.85) (end 6.37 6.37) (layer F.SilkS) (width 0.12))
  (fp_line (start -6.37 6.37) (end 6.37 6.37) (layer F.SilkS) (width 0.12))
  (fp_line (start -6.37 -6.37) (end -6.37 -1.85) (layer F.SilkS) (width 0.12))
  (fp_line (start -6.37 1.85) (end -6.37 6.37) (layer F.SilkS) (width 0.12))
  (fp_line (start -6.5 -6.5) (end 6.5 -6.5) (layer F.CrtYd) (width 0.05))
  (fp_line (start 6.5 -6.5) (end 6.5 -1.86) (layer F.CrtYd) (width 0.05))
  (fp_line (start 6.5 -1.86) (end 7.11 -1.86) (layer F.CrtYd) (width 0.05))
  (fp_line (start 7.11 -1.86) (end 7.11 1.86) (layer F.CrtYd) (width 0.05))
  (fp_line (start 7.11 1.86) (end 6.5 1.86) (layer F.CrtYd) (width 0.05))
  (fp_line (start 6.5 1.86) (end 6.5 6.5) (layer F.CrtYd) (width 0.05))
  (fp_line (start -6.5 6.5) (end 6.5 6.5) (layer F.CrtYd) (width 0.05))
  (fp_line (start -6.5 -6.5) (end -6.5 -1.86) (layer F.CrtYd) (width 0.05))
  (fp_line (start -6.5 -1.86) (end -7.11 -1.86) (layer F.CrtYd) (width 0.05))
  (fp_line (start -7.11 -1.86) (end -7.11 1.86) (layer F.CrtYd) (width 0.05))
  (fp_line (start -7.11 1.86) (end -6.5 1.86) (layer F.CrtYd) (width 0.05))
  (fp_line (start -6.5 1.86) (end -6.5 6.5) (layer F.CrtYd) (width 0.05))
  (pad 1 smd roundrect (at -5.55 0) (size 2.6 3.2) (layers F.Cu F.Mask F.Paste) (roundrect_rratio 0.25))
  (pad 2 smd roundrect (at 5.55 0) (size 2.6 3.2) (layers F.Cu F.Mask F.Paste) (roundrect_rratio 0.25))
  (fp_text user %R (at 0 0) (layer F.Fab)
    (effects (font (size 1 1) (thickness 0.15)))
  )
  (fp_text user "" (at -49 0.05) (layer F.SilkS)
    (effects (font (size 3 3) (thickness 0.15)))
  )
  (model ${KICAD6_3DMODEL_DIR}/Inductor_SMD.3dshapes/L_TDK_SLF12555.wrl
    (at (xyz 0 0 0))
    (scale (xyz 1 1 1))
    (rotate (xyz 0 0 0))
  )
)