(module L_TDK_SLF10165 (layer F.Cu) (tedit 5C2392AD)
  (descr "Inductor, TDK, SLF10165, 10.1mmx10.1mm (Script generated with StandardBox.py) (https://product.tdk.com/info/en/catalog/datasheets/inductor_commercial_power_slf10165_en.pdf)")
  (tags "Inductor TDK_SLF10165")
  (attr smd)
  (fp_text reference REF** (at -2.55 -6.25) (layer F.SilkS)
    (effects (font (size 1 1) (thickness 0.15)))
  )
  (fp_text value L_TDK_SLF10165 (at 0 6.05) (layer F.Fab)
    (effects (font (size 1 1) (thickness 0.15)))
  )
  (fp_line (start -4.55 -5.05) (end 5.05 -5.05) (layer F.Fab) (width 0.1))
  (fp_line (start 5.05 -5.05) (end 5.05 5.05) (layer F.Fab) (width 0.1))
  (fp_line (start 5.05 5.05) (end -5.05 5.05) (layer F.Fab) (width 0.1))
  (fp_line (start -5.05 5.05) (end -5.05 -4.55) (layer F.Fab) (width 0.1))
  (fp_line (start -5.05 -4.55) (end -4.55 -5.05) (layer F.Fab) (width 0.1))
  (fp_line (start -5.55 -2.55) (end -5.55 -5.55) (layer F.SilkS) (width 0.12))
  (fp_line (start -5.55 -5.55) (end -2.55 -5.55) (layer F.SilkS) (width 0.12))
  (fp_line (start -5.17 -5.17) (end 5.17 -5.17) (layer F.SilkS) (width 0.12))
  (fp_line (start 5.17 -5.17) (end 5.17 -1.85) (layer F.SilkS) (width 0.12))
  (fp_line (start 5.17 1.85) (end 5.17 5.17) (layer F.SilkS) (width 0.12))
  (fp_line (start -5.17 5.17) (end 5.17 5.17) (layer F.SilkS) (width 0.12))
  (fp_line (start -5.17 -5.17) (end -5.17 -1.85) (layer F.SilkS) (width 0.12))
  (fp_line (start -5.17 1.85) (end -5.17 5.17) (layer F.SilkS) (width 0.12))
  (fp_line (start -5.3 -5.3) (end 5.3 -5.3) (layer F.CrtYd) (width 0.05))
  (fp_line (start 5.3 -5.3) (end 5.3 -1.86) (layer F.CrtYd) (width 0.05))
  (fp_line (start 5.3 -1.86) (end 5.56 -1.86) (layer F.CrtYd) (width 0.05))
  (fp_line (start 5.56 -1.86) (end 5.56 1.86) (layer F.CrtYd) (width 0.05))
  (fp_line (start 5.56 1.86) (end 5.3 1.86) (layer F.CrtYd) (width 0.05))
  (fp_line (start 5.3 1.86) (end 5.3 5.3) (layer F.CrtYd) (width 0.05))
  (fp_line (start -5.3 5.3) (end 5.3 5.3) (layer F.CrtYd) (width 0.05))
  (fp_line (start -5.3 -5.3) (end -5.3 -1.86) (layer F.CrtYd) (width 0.05))
  (fp_line (start -5.3 -1.86) (end -5.56 -1.86) (layer F.CrtYd) (width 0.05))
  (fp_line (start -5.56 -1.86) (end -5.56 1.86) (layer F.CrtYd) (width 0.05))
  (fp_line (start -5.56 1.86) (end -5.3 1.86) (layer F.CrtYd) (width 0.05))
  (fp_line (start -5.3 1.86) (end -5.3 5.3) (layer F.CrtYd) (width 0.05))
  (pad 1 smd roundrect (at -4.05 0) (size 2.5 3.2) (layers F.Cu F.Mask F.Paste) (roundrect_rratio 0.25))
  (pad 2 smd roundrect (at 4.05 0) (size 2.5 3.2) (layers F.Cu F.Mask F.Paste) (roundrect_rratio 0.25))
  (fp_text user %R (at 0 0) (layer F.Fab)
    (effects (font (size 1 1) (thickness 0.15)))
  )
  (fp_text user "" (at -49 0.05) (layer F.SilkS)
    (effects (font (size 3 3) (thickness 0.15)))
  )
  (model ${KICAD6_3DMODEL_DIR}/Inductor_SMD.3dshapes/L_TDK_SLF10165.wrl
    (at (xyz 0 0 0))
    (scale (xyz 1 1 1))
    (rotate (xyz 0 0 0))
  )
)