(module L_Wuerth_WE-PD2-Typ-MS (layer F.Cu) (tedit 5D8BC861)
  (descr "Power Inductor, Wuerth Elektronik, WE-PD2, SMD, Typ MS, https://katalog.we-online.com/pbs/datasheet/744774022.pdf")
  (tags "Choke Power Inductor WE-PD2 TypMS Wuerth")
  (attr smd)
  (fp_text reference REF** (at 0 -3.75) (layer F.SilkS)
    (effects (font (size 1 1) (thickness 0.15)))
  )
  (fp_text value L_Wuerth_WE-PD2-Typ-MS (at 0 4) (layer F.Fab)
    (effects (font (size 1 1) (thickness 0.15)))
  )
  (fp_text user %R (at 0 0) (layer F.Fab)
    (effects (font (size 1 1) (thickness 0.15)))
  )
  (fp_line (start -2.2 -2.6) (end 2.2 -2.6) (layer F.Fab) (width 0.1))
  (fp_line (start 2.2 2.6) (end -2.2 2.6) (layer F.Fab) (width 0.1))
  (fp_line (start 3.25 -3) (end 3.25 3) (layer F.CrtYd) (width 0.05))
  (fp_line (start 3.25 3) (end -3.25 3) (layer F.CrtYd) (width 0.05))
  (fp_line (start -3.25 3) (end -3.25 -3) (layer F.CrtYd) (width 0.05))
  (fp_line (start -3.25 -3) (end 3.25 -3) (layer F.CrtYd) (width 0.05))
  (fp_line (start -0.4 2.8) (end 0.4 2.8) (layer F.SilkS) (width 0.12))
  (fp_line (start -0.4 -2.8) (end 0.4 -2.8) (layer F.SilkS) (width 0.12))
  (fp_arc (start -2.9 0) (end 2.2 -2.6) (angle 54) (layer F.Fab) (width 0.1))
  (fp_arc (start 2.9 0) (end -2.2 2.6) (angle 54) (layer F.Fab) (width 0.1))
  (pad 1 smd rect (at -1.93 0) (size 2.15 5.5) (layers F.Cu F.Paste F.Mask))
  (pad 2 smd rect (at 1.93 0) (size 2.15 5.5) (layers F.Cu F.Paste F.Mask))
  (model ${KICAD6_3DMODEL_DIR}/Inductor_SMD.3dshapes/L_Wuerth_WE-PD2-Typ-MS.wrl
    (at (xyz 0 0 0))
    (scale (xyz 1 1 1))
    (rotate (xyz 0 0 0))
  )
)
