(module L_Wuerth_WE-PD2-Typ-XL (layer F.Cu) (tedit 5D8D166B)
  (descr "Power Inductor, Wuerth Elektronik, WE-PD2, SMT, Typ XL, https://katalog.we-online.com/pbs/datasheet/744776012.pdf")
  (tags "Choke Power Inductor WE-PD2 TypXL Wuerth")
  (attr smd)
  (fp_text reference REF** (at 0 -5.8) (layer F.SilkS)
    (effects (font (size 1 1) (thickness 0.15)))
  )
  (fp_text value L_Wuerth_WE-PD2-Typ-XL (at 0 5.9) (layer F.Fab)
    (effects (font (size 1 1) (thickness 0.15)))
  )
  (fp_text user %R (at 0.045 0) (layer F.Fab)
    (effects (font (size 1 1) (thickness 0.15)))
  )
  (fp_line (start -5.3 5) (end 5.3 5) (layer F.CrtYd) (width 0.05))
  (fp_line (start 5.3 5) (end 5.3 -5) (layer F.CrtYd) (width 0.05))
  (fp_line (start 5.3 -5) (end -5.3 -5) (layer F.CrtYd) (width 0.05))
  (fp_line (start -5.3 -5) (end -5.3 5) (layer F.CrtYd) (width 0.05))
  (fp_line (start -1.75 4.5) (end 1.75 4.5) (layer F.Fab) (width 0.1))
  (fp_line (start 1.75 -4.5) (end -1.75 -4.5) (layer F.Fab) (width 0.1))
  (fp_line (start -0.7 4.7) (end 0.7 4.7) (layer F.SilkS) (width 0.12))
  (fp_line (start -0.7 -4.7) (end 0.7 -4.7) (layer F.SilkS) (width 0.12))
  (fp_circle (center 0 2.6) (end 0.5 2.7) (layer F.Adhes) (width 0.38))
  (fp_circle (center 0 2.6) (end 0.1 2.8) (layer F.Adhes) (width 0.38))
  (fp_circle (center 0 -2.6) (end 0.5 -2.5) (layer F.Adhes) (width 0.38))
  (fp_circle (center 0 -2.6) (end 0.2 -2.6) (layer F.Adhes) (width 0.38))
  (fp_circle (center 0 0) (end 0.5 0) (layer F.Adhes) (width 0.38))
  (fp_circle (center 0 0) (end 0.2 0) (layer F.Adhes) (width 0.38))
  (fp_arc (start -0.25 0) (end -1.75 -4.5) (angle -143) (layer F.Fab) (width 0.1))
  (fp_arc (start 0.25 0) (end 1.75 4.5) (angle -143) (layer F.Fab) (width 0.1))
  (pad 1 smd rect (at -3.18 0) (size 3.75 9.5) (layers F.Cu F.Paste F.Mask))
  (pad 2 smd rect (at 3.18 0) (size 3.75 9.5) (layers F.Cu F.Paste F.Mask))
  (model ${KICAD6_3DMODEL_DIR}/Inductor_SMD.3dshapes/L_Wuerth_WE-PD2-Typ-XL.wrl
    (at (xyz 0 0 0))
    (scale (xyz 1 1 1))
    (rotate (xyz 0 0 0))
  )
)
