(module L_Wuerth_MAPI-4020 (layer F.Cu) (tedit 59912BEE)
  (descr "Inductor, Wuerth Elektronik, Wuerth_MAPI-4020, 4.0mmx4.0mm")
  (tags "inductor Wuerth smd")
  (attr smd)
  (fp_text reference REF** (at 0 -2.85) (layer F.SilkS)
    (effects (font (size 1 1) (thickness 0.15)))
  )
  (fp_text value L_Wuerth_MAPI-4020 (at 0 3.35) (layer F.Fab)
    (effects (font (size 1 1) (thickness 0.15)))
  )
  (fp_text user %R (at 0 0) (layer F.Fab)
    (effects (font (size 0.8 0.8) (thickness 0.15)))
  )
  (fp_line (start -2 -2) (end -2 2) (layer F.Fab) (width 0.1))
  (fp_line (start -2 2) (end 2 2) (layer F.Fab) (width 0.1))
  (fp_line (start 2 2) (end 2 -2) (layer F.Fab) (width 0.1))
  (fp_line (start 2 -2) (end -2 -2) (layer F.Fab) (width 0.1))
  (fp_line (start -2 -2.2) (end -2 2.2) (layer F.CrtYd) (width 0.05))
  (fp_line (start -2 2.2) (end 2 2.2) (layer F.CrtYd) (width 0.05))
  (fp_line (start 2 2.2) (end 2 -2.2) (layer F.CrtYd) (width 0.05))
  (fp_line (start 2 -2.2) (end -2 -2.2) (layer F.CrtYd) (width 0.05))
  (fp_line (start -0.495 -2.1) (end 0.495 -2.1) (layer F.SilkS) (width 0.12))
  (fp_line (start -0.495 2.1) (end 0.495 2.1) (layer F.SilkS) (width 0.12))
  (pad 1 smd rect (at -1.185 0) (size 0.98 3.7) (layers F.Cu F.Paste F.Mask))
  (pad 2 smd rect (at 1.185 0) (size 0.98 3.7) (layers F.Cu F.Paste F.Mask))
  (model ${KICAD6_3DMODEL_DIR}/Inductor_SMD.3dshapes/L_Wuerth_MAPI-4020.wrl
    (at (xyz 0 0 0))
    (scale (xyz 1 1 1))
    (rotate (xyz 0 0 0))
  )
)
