(module L_Wuerth_HCI-1335 (layer F.Cu) (tedit 5990349D)
  (descr "Inductor, Wuerth Elektronik, Wuerth_HCI-1335, 12.8mmx12.8mm")
  (tags "inductor Wuerth hci smd")
  (attr smd)
  (fp_text reference REF** (at 0 -7.4) (layer F.SilkS)
    (effects (font (size 1 1) (thickness 0.15)))
  )
  (fp_text value L_Wuerth_HCI-1335 (at 0 7.9) (layer F.Fab)
    (effects (font (size 1 1) (thickness 0.15)))
  )
  (fp_text user %R (at 0 0) (layer F.Fab)
    (effects (font (size 1 1) (thickness 0.15)))
  )
  (fp_line (start -6.4 -6.4) (end -6.4 6.4) (layer F.Fab) (width 0.1))
  (fp_line (start -6.4 6.4) (end 6.4 6.4) (layer F.Fab) (width 0.1))
  (fp_line (start 6.4 6.4) (end 6.4 -6.4) (layer F.Fab) (width 0.1))
  (fp_line (start 6.4 -6.4) (end -6.4 -6.4) (layer F.Fab) (width 0.1))
  (fp_line (start -7.3 -6.7) (end -7.3 6.7) (layer F.CrtYd) (width 0.05))
  (fp_line (start -7.3 6.7) (end 7.3 6.7) (layer F.CrtYd) (width 0.05))
  (fp_line (start 7.3 6.7) (end 7.3 -6.7) (layer F.CrtYd) (width 0.05))
  (fp_line (start 7.3 -6.7) (end -7.3 -6.7) (layer F.CrtYd) (width 0.05))
  (fp_line (start -6.5 2.9) (end -6.5 6.5) (layer F.SilkS) (width 0.12))
  (fp_line (start -6.5 6.5) (end 6.5 6.5) (layer F.SilkS) (width 0.12))
  (fp_line (start 6.5 6.5) (end 6.5 2.9) (layer F.SilkS) (width 0.12))
  (fp_line (start -6.5 -2.9) (end -6.5 -6.5) (layer F.SilkS) (width 0.12))
  (fp_line (start -6.5 -6.5) (end 6.5 -6.5) (layer F.SilkS) (width 0.12))
  (fp_line (start 6.5 -6.5) (end 6.5 -2.9) (layer F.SilkS) (width 0.12))
  (pad 1 smd rect (at -5.075 0) (size 3.85 5) (layers F.Cu F.Paste F.Mask))
  (pad 2 smd rect (at 5.075 0) (size 3.85 5) (layers F.Cu F.Paste F.Mask))
  (model ${KICAD6_3DMODEL_DIR}/Inductor_SMD.3dshapes/L_Wuerth_HCI-1335.wrl
    (at (xyz 0 0 0))
    (scale (xyz 1 1 1))
    (rotate (xyz 0 0 0))
  )
)
