(module L_Wuerth_MAPI-2508 (layer F.Cu) (tedit 5990349D)
  (descr "Inductor, Wuerth Elektronik, Wuerth_MAPI-2508, 2.5mmx2.0mm")
  (tags "inductor Wuerth smd")
  (attr smd)
  (fp_text reference REF** (at 0 -2.15) (layer F.SilkS)
    (effects (font (size 1 1) (thickness 0.15)))
  )
  (fp_text value L_Wuerth_MAPI-2508 (at 0 2.65) (layer F.Fab)
    (effects (font (size 1 1) (thickness 0.15)))
  )
  (fp_text user %R (at 0 0) (layer F.Fab)
    (effects (font (size 0.6 0.6) (thickness 0.09)))
  )
  (fp_line (start -1.25 -1) (end -1.25 1) (layer F.Fab) (width 0.1))
  (fp_line (start -1.25 1) (end 1.25 1) (layer F.Fab) (width 0.1))
  (fp_line (start 1.25 1) (end 1.25 -1) (layer F.Fab) (width 0.1))
  (fp_line (start 1.25 -1) (end -1.25 -1) (layer F.Fab) (width 0.1))
  (fp_line (start -1.75 -1.5) (end -1.75 1.5) (layer F.CrtYd) (width 0.05))
  (fp_line (start -1.75 1.5) (end 1.75 1.5) (layer F.CrtYd) (width 0.05))
  (fp_line (start 1.75 1.5) (end 1.75 -1.5) (layer F.CrtYd) (width 0.05))
  (fp_line (start 1.75 -1.5) (end -1.75 -1.5) (layer F.CrtYd) (width 0.05))
  (fp_line (start -0.35 -1.1) (end 0.35 -1.1) (layer F.SilkS) (width 0.12))
  (fp_line (start -0.35 1.1) (end 0.35 1.1) (layer F.SilkS) (width 0.12))
  (pad 1 smd rect (at -0.975 0) (size 0.85 2.3) (layers F.Cu F.Paste F.Mask))
  (pad 2 smd rect (at 0.975 0) (size 0.85 2.3) (layers F.Cu F.Paste F.Mask))
  (model ${KICAD6_3DMODEL_DIR}/Inductor_SMD.3dshapes/L_Wuerth_MAPI-2508.wrl
    (at (xyz 0 0 0))
    (scale (xyz 1 1 1))
    (rotate (xyz 0 0 0))
  )
)
