(module Valve_Mini_Pentode_Linear (layer F.Cu) (tedit 5A030096)
  (descr "Mini-Pentode, 5-pin, e.g. JAN6418")
  (tags "Valve Mini-Pentode 5-pin JAN6418")
  (fp_text reference REF** (at 5.08 -1.71) (layer F.SilkS)
    (effects (font (size 1 1) (thickness 0.15)))
  )
  (fp_text value Valve_Mini_Pentode_Linear (at 5 3.75) (layer F.Fab)
    (effects (font (size 1 1) (thickness 0.15)))
  )
  (fp_text user %R (at 5.08 -1.71) (layer F.Fab)
    (effects (font (size 1 1) (thickness 0.15)))
  )
  (fp_line (start 11.5 -3.25) (end 11.5 3.25) (layer F.CrtYd) (width 0.05))
  (fp_line (start 11.5 3.25) (end -1.25 3.25) (layer F.CrtYd) (width 0.05))
  (fp_line (start -1.25 3.25) (end -1.25 -3.25) (layer F.CrtYd) (width 0.05))
  (fp_line (start -1.25 -3.25) (end 11.5 -3.25) (layer F.CrtYd) (width 0.05))
  (fp_line (start 7.81 2.73) (end 2.35 2.73) (layer F.SilkS) (width 0.12))
  (fp_line (start 9.08 -1.46) (end 9.08 1.46) (layer F.SilkS) (width 0.12))
  (fp_line (start 2.35 -2.73) (end 7.81 -2.73) (layer F.SilkS) (width 0.12))
  (fp_line (start 1.08 1.46) (end 1.08 -1.52) (layer F.SilkS) (width 0.12))
  (fp_line (start 8.89 0) (end 10.16 0) (layer F.Fab) (width 0.1))
  (fp_line (start 0 0) (end 1.27 0) (layer F.Fab) (width 0.1))
  (fp_line (start 1.27 -1.27) (end 1.27 1.27) (layer F.Fab) (width 0.1))
  (fp_line (start 7.62 -2.54) (end 2.54 -2.54) (layer F.Fab) (width 0.1))
  (fp_line (start 8.89 1.27) (end 8.89 -1.27) (layer F.Fab) (width 0.1))
  (fp_line (start 2.54 2.54) (end 7.62 2.54) (layer F.Fab) (width 0.1))
  (fp_circle (center 1.97 1.52) (end 2.22 1.71) (layer F.SilkS) (width 0.12))
  (fp_circle (center 1.97 1.52) (end 2.22 1.71) (layer F.Fab) (width 0.1))
  (fp_arc (start 2.34 1.47) (end 2.34 2.74) (angle 90) (layer F.SilkS) (width 0.12))
  (fp_arc (start 7.82 1.47) (end 9.09 1.47) (angle 90) (layer F.SilkS) (width 0.12))
  (fp_arc (start 7.82 -1.47) (end 7.82 -2.74) (angle 90) (layer F.SilkS) (width 0.12))
  (fp_arc (start 2.34 -1.47) (end 1.07 -1.47) (angle 90) (layer F.SilkS) (width 0.12))
  (fp_arc (start 2.54 1.27) (end 2.54 2.54) (angle 90) (layer F.Fab) (width 0.1))
  (fp_arc (start 7.62 1.27) (end 8.89 1.27) (angle 90) (layer F.Fab) (width 0.1))
  (fp_arc (start 7.62 -1.27) (end 7.62 -2.54) (angle 90) (layer F.Fab) (width 0.1))
  (fp_arc (start 2.54 -1.27) (end 1.27 -1.27) (angle 90) (layer F.Fab) (width 0.1))
  (pad 1 thru_hole rect (at 0 0) (size 1.8 1.8) (drill 0.8) (layers *.Cu *.Mask))
  (pad 2 thru_hole circle (at 2.54 0) (size 1.8 1.8) (drill 0.8) (layers *.Cu *.Mask))
  (pad 3 thru_hole circle (at 5.08 0) (size 1.8 1.8) (drill 0.8) (layers *.Cu *.Mask))
  (pad 4 thru_hole circle (at 7.62 0) (size 1.8 1.8) (drill 0.8) (layers *.Cu *.Mask))
  (pad 5 thru_hole circle (at 10.16 0) (size 1.8 1.8) (drill 0.8) (layers *.Cu *.Mask))
  (model ${KICAD6_3DMODEL_DIR}/Valve.3dshapes/Valve_Mini_Pentode_Linear.wrl
    (at (xyz 0 0 0))
    (scale (xyz 1 1 1))
    (rotate (xyz 0 0 0))
  )
)
