(module Samtec_HLE-120-02-xx-DV-TE_2x20_P2.54mm_Horizontal (layer F.Cu) (tedit 5B786F78)
  (descr "Samtec HLE .100\" Tiger Beam Cost-effective Single Beam Socket Strip, HLE-120-02-xx-DV-TE, 20 Pins per row (http://suddendocs.samtec.com/prints/hle-1xx-02-xx-dv-xe-xx-mkt.pdf, http://suddendocs.samtec.com/prints/hle-thru.pdf), generated with kicad-footprint-generator")
  (tags "connector Samtec HLE top entry")
  (fp_text reference REF** (at 24.13 -2.47) (layer F.SilkS)
    (effects (font (size 1 1) (thickness 0.15)))
  )
  (fp_text value Samtec_HLE-120-02-xx-DV-TE_2x20_P2.54mm_Horizontal (at 24.13 5.01) (layer F.Fab)
    (effects (font (size 1 1) (thickness 0.15)))
  )
  (fp_line (start -1.27 -1.27) (end 49.53 -1.27) (layer F.Fab) (width 0.1))
  (fp_line (start 49.53 -1.27) (end 49.53 3.81) (layer F.Fab) (width 0.1))
  (fp_line (start 49.53 3.81) (end -1.27 3.81) (layer F.Fab) (width 0.1))
  (fp_line (start -1.27 3.81) (end -1.27 -1.27) (layer F.Fab) (width 0.1))
  (fp_line (start -0.5 -1.27) (end 0 -0.562893) (layer F.Fab) (width 0.1))
  (fp_line (start 0 -0.562893) (end 0.5 -1.27) (layer F.Fab) (width 0.1))
  (fp_line (start -1.38 -1.38) (end 49.64 -1.38) (layer F.SilkS) (width 0.12))
  (fp_line (start 49.64 -1.38) (end 49.64 3.92) (layer F.SilkS) (width 0.12))
  (fp_line (start 49.64 3.92) (end -1.38 3.92) (layer F.SilkS) (width 0.12))
  (fp_line (start -1.38 3.92) (end -1.38 -1.38) (layer F.SilkS) (width 0.12))
  (fp_line (start -1.77 -1.77) (end 50.03 -1.77) (layer F.CrtYd) (width 0.05))
  (fp_line (start 50.03 -1.77) (end 50.03 4.31) (layer F.CrtYd) (width 0.05))
  (fp_line (start 50.03 4.31) (end -1.77 4.31) (layer F.CrtYd) (width 0.05))
  (fp_line (start -1.77 4.31) (end -1.77 -1.77) (layer F.CrtYd) (width 0.05))
  (pad 1 thru_hole roundrect (at 0 0) (size 1.31 1.31) (drill 0.71) (layers *.Cu *.Mask) (roundrect_rratio 0.19084))
  (pad 3 thru_hole circle (at 2.54 0) (size 1.31 1.31) (drill 0.71) (layers *.Cu *.Mask))
  (pad 5 thru_hole circle (at 5.08 0) (size 1.31 1.31) (drill 0.71) (layers *.Cu *.Mask))
  (pad 7 thru_hole circle (at 7.62 0) (size 1.31 1.31) (drill 0.71) (layers *.Cu *.Mask))
  (pad 9 thru_hole circle (at 10.16 0) (size 1.31 1.31) (drill 0.71) (layers *.Cu *.Mask))
  (pad 11 thru_hole circle (at 12.7 0) (size 1.31 1.31) (drill 0.71) (layers *.Cu *.Mask))
  (pad 13 thru_hole circle (at 15.24 0) (size 1.31 1.31) (drill 0.71) (layers *.Cu *.Mask))
  (pad 15 thru_hole circle (at 17.78 0) (size 1.31 1.31) (drill 0.71) (layers *.Cu *.Mask))
  (pad 17 thru_hole circle (at 20.32 0) (size 1.31 1.31) (drill 0.71) (layers *.Cu *.Mask))
  (pad 19 thru_hole circle (at 22.86 0) (size 1.31 1.31) (drill 0.71) (layers *.Cu *.Mask))
  (pad 21 thru_hole circle (at 25.4 0) (size 1.31 1.31) (drill 0.71) (layers *.Cu *.Mask))
  (pad 23 thru_hole circle (at 27.94 0) (size 1.31 1.31) (drill 0.71) (layers *.Cu *.Mask))
  (pad 25 thru_hole circle (at 30.48 0) (size 1.31 1.31) (drill 0.71) (layers *.Cu *.Mask))
  (pad 27 thru_hole circle (at 33.02 0) (size 1.31 1.31) (drill 0.71) (layers *.Cu *.Mask))
  (pad 29 thru_hole circle (at 35.56 0) (size 1.31 1.31) (drill 0.71) (layers *.Cu *.Mask))
  (pad 31 thru_hole circle (at 38.1 0) (size 1.31 1.31) (drill 0.71) (layers *.Cu *.Mask))
  (pad 33 thru_hole circle (at 40.64 0) (size 1.31 1.31) (drill 0.71) (layers *.Cu *.Mask))
  (pad 35 thru_hole circle (at 43.18 0) (size 1.31 1.31) (drill 0.71) (layers *.Cu *.Mask))
  (pad 37 thru_hole circle (at 45.72 0) (size 1.31 1.31) (drill 0.71) (layers *.Cu *.Mask))
  (pad 39 thru_hole circle (at 48.26 0) (size 1.31 1.31) (drill 0.71) (layers *.Cu *.Mask))
  (pad 2 thru_hole circle (at 0 2.54) (size 1.31 1.31) (drill 0.71) (layers *.Cu *.Mask))
  (pad 4 thru_hole circle (at 2.54 2.54) (size 1.31 1.31) (drill 0.71) (layers *.Cu *.Mask))
  (pad 6 thru_hole circle (at 5.08 2.54) (size 1.31 1.31) (drill 0.71) (layers *.Cu *.Mask))
  (pad 8 thru_hole circle (at 7.62 2.54) (size 1.31 1.31) (drill 0.71) (layers *.Cu *.Mask))
  (pad 10 thru_hole circle (at 10.16 2.54) (size 1.31 1.31) (drill 0.71) (layers *.Cu *.Mask))
  (pad 12 thru_hole circle (at 12.7 2.54) (size 1.31 1.31) (drill 0.71) (layers *.Cu *.Mask))
  (pad 14 thru_hole circle (at 15.24 2.54) (size 1.31 1.31) (drill 0.71) (layers *.Cu *.Mask))
  (pad 16 thru_hole circle (at 17.78 2.54) (size 1.31 1.31) (drill 0.71) (layers *.Cu *.Mask))
  (pad 18 thru_hole circle (at 20.32 2.54) (size 1.31 1.31) (drill 0.71) (layers *.Cu *.Mask))
  (pad 20 thru_hole circle (at 22.86 2.54) (size 1.31 1.31) (drill 0.71) (layers *.Cu *.Mask))
  (pad 22 thru_hole circle (at 25.4 2.54) (size 1.31 1.31) (drill 0.71) (layers *.Cu *.Mask))
  (pad 24 thru_hole circle (at 27.94 2.54) (size 1.31 1.31) (drill 0.71) (layers *.Cu *.Mask))
  (pad 26 thru_hole circle (at 30.48 2.54) (size 1.31 1.31) (drill 0.71) (layers *.Cu *.Mask))
  (pad 28 thru_hole circle (at 33.02 2.54) (size 1.31 1.31) (drill 0.71) (layers *.Cu *.Mask))
  (pad 30 thru_hole circle (at 35.56 2.54) (size 1.31 1.31) (drill 0.71) (layers *.Cu *.Mask))
  (pad 32 thru_hole circle (at 38.1 2.54) (size 1.31 1.31) (drill 0.71) (layers *.Cu *.Mask))
  (pad 34 thru_hole circle (at 40.64 2.54) (size 1.31 1.31) (drill 0.71) (layers *.Cu *.Mask))
  (pad 36 thru_hole circle (at 43.18 2.54) (size 1.31 1.31) (drill 0.71) (layers *.Cu *.Mask))
  (pad 38 thru_hole circle (at 45.72 2.54) (size 1.31 1.31) (drill 0.71) (layers *.Cu *.Mask))
  (pad 40 thru_hole circle (at 48.26 2.54) (size 1.31 1.31) (drill 0.71) (layers *.Cu *.Mask))
  (fp_text user %R (at 24.13 3.11) (layer F.Fab)
    (effects (font (size 1 1) (thickness 0.15)))
  )
  (model ${KICAD6_3DMODEL_DIR}/Connector_Samtec_HLE_THT.3dshapes/Samtec_HLE-120-02-xx-DV-TE_2x20_P2.54mm_Horizontal.wrl
    (at (xyz 0 0 0))
    (scale (xyz 1 1 1))
    (rotate (xyz 0 0 0))
  )
)