(module PinSocket_1x15_P1.27mm_Vertical_SMD_Pin1Right (layer F.Cu) (tedit 5A19A425)
  (descr "surface-mounted straight socket strip, 1x15, 1.27mm pitch, single row, style 2 (pin 1 right) (https://gct.co/pdfjs/web/viewer.html?file=/Files/Drawings/BD075.pdf&t=1511594726925), script generated")
  (tags "Surface mounted socket strip SMD 1x15 1.27mm single row style2 pin1 right")
  (attr smd)
  (fp_text reference REF** (at 0 -11.2) (layer F.SilkS)
    (effects (font (size 1 1) (thickness 0.15)))
  )
  (fp_text value PinSocket_1x15_P1.27mm_Vertical_SMD_Pin1Right (at 0 11.2) (layer F.Fab)
    (effects (font (size 1 1) (thickness 0.15)))
  )
  (fp_line (start -0.96 -9.76) (end 0.96 -9.76) (layer F.SilkS) (width 0.12))
  (fp_line (start 0.96 -9.76) (end 0.96 -9.475) (layer F.SilkS) (width 0.12))
  (fp_line (start 0.96 -8.305) (end 0.96 -6.935) (layer F.SilkS) (width 0.12))
  (fp_line (start 0.96 -5.765) (end 0.96 -4.395) (layer F.SilkS) (width 0.12))
  (fp_line (start 0.96 -3.225) (end 0.96 -1.855) (layer F.SilkS) (width 0.12))
  (fp_line (start 0.96 -0.685) (end 0.96 0.685) (layer F.SilkS) (width 0.12))
  (fp_line (start 0.96 1.855) (end 0.96 3.225) (layer F.SilkS) (width 0.12))
  (fp_line (start 0.96 4.395) (end 0.96 5.765) (layer F.SilkS) (width 0.12))
  (fp_line (start 0.96 6.935) (end 0.96 8.305) (layer F.SilkS) (width 0.12))
  (fp_line (start 0.96 9.475) (end 0.96 9.76) (layer F.SilkS) (width 0.12))
  (fp_line (start -0.96 9.76) (end 0.96 9.76) (layer F.SilkS) (width 0.12))
  (fp_line (start -0.96 -9.76) (end -0.96 -8.205) (layer F.SilkS) (width 0.12))
  (fp_line (start -0.96 -7.035) (end -0.96 -5.665) (layer F.SilkS) (width 0.12))
  (fp_line (start -0.96 -4.495) (end -0.96 -3.125) (layer F.SilkS) (width 0.12))
  (fp_line (start -0.96 -1.955) (end -0.96 -0.585) (layer F.SilkS) (width 0.12))
  (fp_line (start -0.96 0.585) (end -0.96 1.955) (layer F.SilkS) (width 0.12))
  (fp_line (start -0.96 3.125) (end -0.96 4.495) (layer F.SilkS) (width 0.12))
  (fp_line (start -0.96 5.665) (end -0.96 7.035) (layer F.SilkS) (width 0.12))
  (fp_line (start -0.96 8.205) (end -0.96 9.76) (layer F.SilkS) (width 0.12))
  (fp_line (start 0.96 -9.475) (end 2.19 -9.475) (layer F.SilkS) (width 0.12))
  (fp_line (start -0.9 -9.7) (end 0.45 -9.7) (layer F.Fab) (width 0.1))
  (fp_line (start 0.45 -9.7) (end 0.9 -9.25) (layer F.Fab) (width 0.1))
  (fp_line (start 0.9 -9.25) (end 0.9 9.7) (layer F.Fab) (width 0.1))
  (fp_line (start 0.9 9.7) (end -0.9 9.7) (layer F.Fab) (width 0.1))
  (fp_line (start -0.9 9.7) (end -0.9 -9.7) (layer F.Fab) (width 0.1))
  (fp_line (start 0.9 -9.1) (end 1.75 -9.1) (layer F.Fab) (width 0.1))
  (fp_line (start 1.75 -9.1) (end 1.75 -8.68) (layer F.Fab) (width 0.1))
  (fp_line (start 1.75 -8.68) (end 0.9 -8.68) (layer F.Fab) (width 0.1))
  (fp_line (start -1.75 -7.83) (end -0.9 -7.83) (layer F.Fab) (width 0.1))
  (fp_line (start -0.9 -7.41) (end -1.75 -7.41) (layer F.Fab) (width 0.1))
  (fp_line (start -1.75 -7.41) (end -1.75 -7.83) (layer F.Fab) (width 0.1))
  (fp_line (start 0.9 -6.56) (end 1.75 -6.56) (layer F.Fab) (width 0.1))
  (fp_line (start 1.75 -6.56) (end 1.75 -6.14) (layer F.Fab) (width 0.1))
  (fp_line (start 1.75 -6.14) (end 0.9 -6.14) (layer F.Fab) (width 0.1))
  (fp_line (start -1.75 -5.29) (end -0.9 -5.29) (layer F.Fab) (width 0.1))
  (fp_line (start -0.9 -4.87) (end -1.75 -4.87) (layer F.Fab) (width 0.1))
  (fp_line (start -1.75 -4.87) (end -1.75 -5.29) (layer F.Fab) (width 0.1))
  (fp_line (start 0.9 -4.02) (end 1.75 -4.02) (layer F.Fab) (width 0.1))
  (fp_line (start 1.75 -4.02) (end 1.75 -3.6) (layer F.Fab) (width 0.1))
  (fp_line (start 1.75 -3.6) (end 0.9 -3.6) (layer F.Fab) (width 0.1))
  (fp_line (start -1.75 -2.75) (end -0.9 -2.75) (layer F.Fab) (width 0.1))
  (fp_line (start -0.9 -2.33) (end -1.75 -2.33) (layer F.Fab) (width 0.1))
  (fp_line (start -1.75 -2.33) (end -1.75 -2.75) (layer F.Fab) (width 0.1))
  (fp_line (start 0.9 -1.48) (end 1.75 -1.48) (layer F.Fab) (width 0.1))
  (fp_line (start 1.75 -1.48) (end 1.75 -1.06) (layer F.Fab) (width 0.1))
  (fp_line (start 1.75 -1.06) (end 0.9 -1.06) (layer F.Fab) (width 0.1))
  (fp_line (start -1.75 -0.21) (end -0.9 -0.21) (layer F.Fab) (width 0.1))
  (fp_line (start -0.9 0.21) (end -1.75 0.21) (layer F.Fab) (width 0.1))
  (fp_line (start -1.75 0.21) (end -1.75 -0.21) (layer F.Fab) (width 0.1))
  (fp_line (start 0.9 1.06) (end 1.75 1.06) (layer F.Fab) (width 0.1))
  (fp_line (start 1.75 1.06) (end 1.75 1.48) (layer F.Fab) (width 0.1))
  (fp_line (start 1.75 1.48) (end 0.9 1.48) (layer F.Fab) (width 0.1))
  (fp_line (start -1.75 2.33) (end -0.9 2.33) (layer F.Fab) (width 0.1))
  (fp_line (start -0.9 2.75) (end -1.75 2.75) (layer F.Fab) (width 0.1))
  (fp_line (start -1.75 2.75) (end -1.75 2.33) (layer F.Fab) (width 0.1))
  (fp_line (start 0.9 3.6) (end 1.75 3.6) (layer F.Fab) (width 0.1))
  (fp_line (start 1.75 3.6) (end 1.75 4.02) (layer F.Fab) (width 0.1))
  (fp_line (start 1.75 4.02) (end 0.9 4.02) (layer F.Fab) (width 0.1))
  (fp_line (start -1.75 4.87) (end -0.9 4.87) (layer F.Fab) (width 0.1))
  (fp_line (start -0.9 5.29) (end -1.75 5.29) (layer F.Fab) (width 0.1))
  (fp_line (start -1.75 5.29) (end -1.75 4.87) (layer F.Fab) (width 0.1))
  (fp_line (start 0.9 6.14) (end 1.75 6.14) (layer F.Fab) (width 0.1))
  (fp_line (start 1.75 6.14) (end 1.75 6.56) (layer F.Fab) (width 0.1))
  (fp_line (start 1.75 6.56) (end 0.9 6.56) (layer F.Fab) (width 0.1))
  (fp_line (start -1.75 7.41) (end -0.9 7.41) (layer F.Fab) (width 0.1))
  (fp_line (start -0.9 7.83) (end -1.75 7.83) (layer F.Fab) (width 0.1))
  (fp_line (start -1.75 7.83) (end -1.75 7.41) (layer F.Fab) (width 0.1))
  (fp_line (start 0.9 8.68) (end 1.75 8.68) (layer F.Fab) (width 0.1))
  (fp_line (start 1.75 8.68) (end 1.75 9.1) (layer F.Fab) (width 0.1))
  (fp_line (start 1.75 9.1) (end 0.9 9.1) (layer F.Fab) (width 0.1))
  (fp_line (start -2.75 -10.2) (end 2.75 -10.2) (layer F.CrtYd) (width 0.05))
  (fp_line (start 2.75 -10.2) (end 2.75 10.2) (layer F.CrtYd) (width 0.05))
  (fp_line (start 2.75 10.2) (end -2.75 10.2) (layer F.CrtYd) (width 0.05))
  (fp_line (start -2.75 10.2) (end -2.75 -10.2) (layer F.CrtYd) (width 0.05))
  (pad 2 smd rect (at -1.35 -7.62) (size 1.8 0.65) (layers F.Cu F.Mask F.Paste))
  (pad 4 smd rect (at -1.35 -5.08) (size 1.8 0.65) (layers F.Cu F.Mask F.Paste))
  (pad 6 smd rect (at -1.35 -2.54) (size 1.8 0.65) (layers F.Cu F.Mask F.Paste))
  (pad 8 smd rect (at -1.35 0) (size 1.8 0.65) (layers F.Cu F.Mask F.Paste))
  (pad 10 smd rect (at -1.35 2.54) (size 1.8 0.65) (layers F.Cu F.Mask F.Paste))
  (pad 12 smd rect (at -1.35 5.08) (size 1.8 0.65) (layers F.Cu F.Mask F.Paste))
  (pad 14 smd rect (at -1.35 7.62) (size 1.8 0.65) (layers F.Cu F.Mask F.Paste))
  (pad 1 smd rect (at 1.35 -8.89) (size 1.8 0.65) (layers F.Cu F.Mask F.Paste))
  (pad 3 smd rect (at 1.35 -6.35) (size 1.8 0.65) (layers F.Cu F.Mask F.Paste))
  (pad 5 smd rect (at 1.35 -3.81) (size 1.8 0.65) (layers F.Cu F.Mask F.Paste))
  (pad 7 smd rect (at 1.35 -1.27) (size 1.8 0.65) (layers F.Cu F.Mask F.Paste))
  (pad 9 smd rect (at 1.35 1.27) (size 1.8 0.65) (layers F.Cu F.Mask F.Paste))
  (pad 11 smd rect (at 1.35 3.81) (size 1.8 0.65) (layers F.Cu F.Mask F.Paste))
  (pad 13 smd rect (at 1.35 6.35) (size 1.8 0.65) (layers F.Cu F.Mask F.Paste))
  (pad 15 smd rect (at 1.35 8.89) (size 1.8 0.65) (layers F.Cu F.Mask F.Paste))
  (fp_text user %R (at 0 0 90) (layer F.Fab)
    (effects (font (size 1 1) (thickness 0.15)))
  )
  (model ${KICAD6_3DMODEL_DIR}/Connector_PinSocket_1.27mm.3dshapes/PinSocket_1x15_P1.27mm_Vertical_SMD_Pin1Right.wrl
    (at (xyz 0 0 0))
    (scale (xyz 1 1 1))
    (rotate (xyz 0 0 0))
  )
)