(module PinSocket_1x13_P1.27mm_Vertical (layer F.Cu) (tedit 5A19A41F)
  (descr "Through hole straight socket strip, 1x13, 1.27mm pitch, single row (from Kicad 4.0.7), script generated")
  (tags "Through hole socket strip THT 1x13 1.27mm single row")
  (fp_text reference REF** (at 0 -2.135) (layer F.SilkS)
    (effects (font (size 1 1) (thickness 0.15)))
  )
  (fp_text value PinSocket_1x13_P1.27mm_Vertical (at 0 17.375) (layer F.Fab)
    (effects (font (size 1 1) (thickness 0.15)))
  )
  (fp_line (start -1.27 -0.635) (end 0.635 -0.635) (layer F.Fab) (width 0.1))
  (fp_line (start 0.635 -0.635) (end 1.27 0) (layer F.Fab) (width 0.1))
  (fp_line (start 1.27 0) (end 1.27 15.875) (layer F.Fab) (width 0.1))
  (fp_line (start 1.27 15.875) (end -1.27 15.875) (layer F.Fab) (width 0.1))
  (fp_line (start -1.27 15.875) (end -1.27 -0.635) (layer F.Fab) (width 0.1))
  (fp_line (start -1.33 0.635) (end -0.76 0.635) (layer F.SilkS) (width 0.12))
  (fp_line (start 0.76 0.635) (end 1.33 0.635) (layer F.SilkS) (width 0.12))
  (fp_line (start -1.33 0.635) (end -1.33 15.935) (layer F.SilkS) (width 0.12))
  (fp_line (start -1.33 15.935) (end -0.30753 15.935) (layer F.SilkS) (width 0.12))
  (fp_line (start 0.30753 15.935) (end 1.33 15.935) (layer F.SilkS) (width 0.12))
  (fp_line (start 1.33 0.635) (end 1.33 15.935) (layer F.SilkS) (width 0.12))
  (fp_line (start 1.33 -0.76) (end 1.33 0) (layer F.SilkS) (width 0.12))
  (fp_line (start 0 -0.76) (end 1.33 -0.76) (layer F.SilkS) (width 0.12))
  (fp_line (start -1.8 -1.15) (end 1.75 -1.15) (layer F.CrtYd) (width 0.05))
  (fp_line (start 1.75 -1.15) (end 1.75 16.4) (layer F.CrtYd) (width 0.05))
  (fp_line (start 1.75 16.4) (end -1.8 16.4) (layer F.CrtYd) (width 0.05))
  (fp_line (start -1.8 16.4) (end -1.8 -1.15) (layer F.CrtYd) (width 0.05))
  (pad 1 thru_hole rect (at 0 0) (size 1 1) (drill 0.7) (layers *.Cu *.Mask))
  (pad 2 thru_hole oval (at 0 1.27) (size 1 1) (drill 0.7) (layers *.Cu *.Mask))
  (pad 3 thru_hole oval (at 0 2.54) (size 1 1) (drill 0.7) (layers *.Cu *.Mask))
  (pad 4 thru_hole oval (at 0 3.81) (size 1 1) (drill 0.7) (layers *.Cu *.Mask))
  (pad 5 thru_hole oval (at 0 5.08) (size 1 1) (drill 0.7) (layers *.Cu *.Mask))
  (pad 6 thru_hole oval (at 0 6.35) (size 1 1) (drill 0.7) (layers *.Cu *.Mask))
  (pad 7 thru_hole oval (at 0 7.62) (size 1 1) (drill 0.7) (layers *.Cu *.Mask))
  (pad 8 thru_hole oval (at 0 8.89) (size 1 1) (drill 0.7) (layers *.Cu *.Mask))
  (pad 9 thru_hole oval (at 0 10.16) (size 1 1) (drill 0.7) (layers *.Cu *.Mask))
  (pad 10 thru_hole oval (at 0 11.43) (size 1 1) (drill 0.7) (layers *.Cu *.Mask))
  (pad 11 thru_hole oval (at 0 12.7) (size 1 1) (drill 0.7) (layers *.Cu *.Mask))
  (pad 12 thru_hole oval (at 0 13.97) (size 1 1) (drill 0.7) (layers *.Cu *.Mask))
  (pad 13 thru_hole oval (at 0 15.24) (size 1 1) (drill 0.7) (layers *.Cu *.Mask))
  (fp_text user %R (at 0 7.62 90) (layer F.Fab)
    (effects (font (size 1 1) (thickness 0.15)))
  )
  (model ${KICAD6_3DMODEL_DIR}/Connector_PinSocket_1.27mm.3dshapes/PinSocket_1x13_P1.27mm_Vertical.wrl
    (at (xyz 0 0 0))
    (scale (xyz 1 1 1))
    (rotate (xyz 0 0 0))
  )
)