(module PinSocket_2x01_P1.27mm_Vertical_SMD (layer F.Cu) (tedit 5A19A427)
  (descr "surface-mounted straight socket strip, 2x01, 1.27mm pitch, double cols (from Kicad 4.0.7!), script generated")
  (tags "Surface mounted socket strip SMD 2x01 1.27mm double row")
  (attr smd)
  (fp_text reference REF** (at 0 -2.135) (layer F.SilkS)
    (effects (font (size 1 1) (thickness 0.15)))
  )
  (fp_text value PinSocket_2x01_P1.27mm_Vertical_SMD (at 0 2.135) (layer F.Fab)
    (effects (font (size 1 1) (thickness 0.15)))
  )
  (fp_line (start -1.33 -0.695) (end 1.33 -0.695) (layer F.SilkS) (width 0.12))
  (fp_line (start 1.33 -0.695) (end 1.33 -0.635) (layer F.SilkS) (width 0.12))
  (fp_line (start 1.33 0.635) (end 1.33 0.695) (layer F.SilkS) (width 0.12))
  (fp_line (start -1.33 0.695) (end 1.33 0.695) (layer F.SilkS) (width 0.12))
  (fp_line (start -1.33 -0.695) (end -1.33 -0.635) (layer F.SilkS) (width 0.12))
  (fp_line (start -1.33 0.635) (end -1.33 0.695) (layer F.SilkS) (width 0.12))
  (fp_line (start 1.33 -0.635) (end 2.79 -0.635) (layer F.SilkS) (width 0.12))
  (fp_line (start -1.27 -0.635) (end 0.9525 -0.635) (layer F.Fab) (width 0.1))
  (fp_line (start 0.9525 -0.635) (end 1.27 -0.3175) (layer F.Fab) (width 0.1))
  (fp_line (start 1.27 -0.3175) (end 1.27 0.635) (layer F.Fab) (width 0.1))
  (fp_line (start 1.27 0.635) (end -1.27 0.635) (layer F.Fab) (width 0.1))
  (fp_line (start -1.27 0.635) (end -1.27 -0.635) (layer F.Fab) (width 0.1))
  (fp_line (start -2.555 -0.2) (end -1.27 -0.2) (layer F.Fab) (width 0.1))
  (fp_line (start -1.27 0.2) (end -2.555 0.2) (layer F.Fab) (width 0.1))
  (fp_line (start -2.555 0.2) (end -2.555 -0.2) (layer F.Fab) (width 0.1))
  (fp_line (start 1.27 -0.2) (end 2.555 -0.2) (layer F.Fab) (width 0.1))
  (fp_line (start 2.555 -0.2) (end 2.555 0.2) (layer F.Fab) (width 0.1))
  (fp_line (start 2.555 0.2) (end 1.27 0.2) (layer F.Fab) (width 0.1))
  (fp_line (start -3.35 -1.15) (end 3.35 -1.15) (layer F.CrtYd) (width 0.05))
  (fp_line (start 3.35 -1.15) (end 3.35 1.15) (layer F.CrtYd) (width 0.05))
  (fp_line (start 3.35 1.15) (end -3.35 1.15) (layer F.CrtYd) (width 0.05))
  (fp_line (start -3.35 1.15) (end -3.35 -1.15) (layer F.CrtYd) (width 0.05))
  (pad 1 smd rect (at 1.8 0) (size 2.1 0.75) (layers F.Cu F.Mask F.Paste))
  (pad 2 smd rect (at -1.8 0) (size 2.1 0.75) (layers F.Cu F.Mask F.Paste))
  (fp_text user %R (at 0 0) (layer F.Fab)
    (effects (font (size 0.76 0.76) (thickness 0.11)))
  )
  (model ${KICAD6_3DMODEL_DIR}/Connector_PinSocket_1.27mm.3dshapes/PinSocket_2x01_P1.27mm_Vertical_SMD.wrl
    (at (xyz 0 0 0))
    (scale (xyz 1 1 1))
    (rotate (xyz 0 0 0))
  )
)