(module PinSocket_2x07_P1.27mm_Vertical (layer F.Cu) (tedit 5A19A41F)
  (descr "Through hole straight socket strip, 2x07, 1.27mm pitch, double cols (from Kicad 4.0.7), script generated")
  (tags "Through hole socket strip THT 2x07 1.27mm double row")
  (fp_text reference REF** (at -0.635 -2.135) (layer F.SilkS)
    (effects (font (size 1 1) (thickness 0.15)))
  )
  (fp_text value PinSocket_2x07_P1.27mm_Vertical (at -0.635 9.755) (layer F.Fab)
    (effects (font (size 1 1) (thickness 0.15)))
  )
  (fp_line (start -2.16 -0.635) (end 0.1275 -0.635) (layer F.Fab) (width 0.1))
  (fp_line (start 0.1275 -0.635) (end 0.89 0.1275) (layer F.Fab) (width 0.1))
  (fp_line (start 0.89 0.1275) (end 0.89 8.255) (layer F.Fab) (width 0.1))
  (fp_line (start 0.89 8.255) (end -2.16 8.255) (layer F.Fab) (width 0.1))
  (fp_line (start -2.16 8.255) (end -2.16 -0.635) (layer F.Fab) (width 0.1))
  (fp_line (start -2.22 -0.695) (end -1.57753 -0.695) (layer F.SilkS) (width 0.12))
  (fp_line (start -0.96247 -0.695) (end -0.76 -0.695) (layer F.SilkS) (width 0.12))
  (fp_line (start -2.22 -0.695) (end -2.22 8.315) (layer F.SilkS) (width 0.12))
  (fp_line (start 0.30753 8.315) (end 0.95 8.315) (layer F.SilkS) (width 0.12))
  (fp_line (start -2.22 8.315) (end -1.57753 8.315) (layer F.SilkS) (width 0.12))
  (fp_line (start -0.96247 8.315) (end -0.30753 8.315) (layer F.SilkS) (width 0.12))
  (fp_line (start 0.95 0.635) (end 0.95 8.315) (layer F.SilkS) (width 0.12))
  (fp_line (start 0.76 0.635) (end 0.95 0.635) (layer F.SilkS) (width 0.12))
  (fp_line (start 0.95 -0.76) (end 0.95 0) (layer F.SilkS) (width 0.12))
  (fp_line (start 0 -0.76) (end 0.95 -0.76) (layer F.SilkS) (width 0.12))
  (fp_line (start -2.67 -1.15) (end 1.38 -1.15) (layer F.CrtYd) (width 0.05))
  (fp_line (start 1.38 -1.15) (end 1.38 8.75) (layer F.CrtYd) (width 0.05))
  (fp_line (start 1.38 8.75) (end -2.67 8.75) (layer F.CrtYd) (width 0.05))
  (fp_line (start -2.67 8.75) (end -2.67 -1.15) (layer F.CrtYd) (width 0.05))
  (pad 1 thru_hole rect (at 0 0) (size 1 1) (drill 0.7) (layers *.Cu *.Mask))
  (pad 2 thru_hole oval (at -1.27 0) (size 1 1) (drill 0.7) (layers *.Cu *.Mask))
  (pad 3 thru_hole oval (at 0 1.27) (size 1 1) (drill 0.7) (layers *.Cu *.Mask))
  (pad 4 thru_hole oval (at -1.27 1.27) (size 1 1) (drill 0.7) (layers *.Cu *.Mask))
  (pad 5 thru_hole oval (at 0 2.54) (size 1 1) (drill 0.7) (layers *.Cu *.Mask))
  (pad 6 thru_hole oval (at -1.27 2.54) (size 1 1) (drill 0.7) (layers *.Cu *.Mask))
  (pad 7 thru_hole oval (at 0 3.81) (size 1 1) (drill 0.7) (layers *.Cu *.Mask))
  (pad 8 thru_hole oval (at -1.27 3.81) (size 1 1) (drill 0.7) (layers *.Cu *.Mask))
  (pad 9 thru_hole oval (at 0 5.08) (size 1 1) (drill 0.7) (layers *.Cu *.Mask))
  (pad 10 thru_hole oval (at -1.27 5.08) (size 1 1) (drill 0.7) (layers *.Cu *.Mask))
  (pad 11 thru_hole oval (at 0 6.35) (size 1 1) (drill 0.7) (layers *.Cu *.Mask))
  (pad 12 thru_hole oval (at -1.27 6.35) (size 1 1) (drill 0.7) (layers *.Cu *.Mask))
  (pad 13 thru_hole oval (at 0 7.62) (size 1 1) (drill 0.7) (layers *.Cu *.Mask))
  (pad 14 thru_hole oval (at -1.27 7.62) (size 1 1) (drill 0.7) (layers *.Cu *.Mask))
  (fp_text user %R (at -0.635 3.81 90) (layer F.Fab)
    (effects (font (size 1 1) (thickness 0.15)))
  )
  (model ${KICAD6_3DMODEL_DIR}/Connector_PinSocket_1.27mm.3dshapes/PinSocket_2x07_P1.27mm_Vertical.wrl
    (at (xyz 0 0 0))
    (scale (xyz 1 1 1))
    (rotate (xyz 0 0 0))
  )
)