(module PinSocket_2x19_P1.27mm_Vertical (layer F.Cu) (tedit 5A19A420)
  (descr "Through hole straight socket strip, 2x19, 1.27mm pitch, double cols (from Kicad 4.0.7), script generated")
  (tags "Through hole socket strip THT 2x19 1.27mm double row")
  (fp_text reference REF** (at -0.635 -2.135) (layer F.SilkS)
    (effects (font (size 1 1) (thickness 0.15)))
  )
  (fp_text value PinSocket_2x19_P1.27mm_Vertical (at -0.635 24.995) (layer F.Fab)
    (effects (font (size 1 1) (thickness 0.15)))
  )
  (fp_line (start -2.16 -0.635) (end 0.1275 -0.635) (layer F.Fab) (width 0.1))
  (fp_line (start 0.1275 -0.635) (end 0.89 0.1275) (layer F.Fab) (width 0.1))
  (fp_line (start 0.89 0.1275) (end 0.89 23.495) (layer F.Fab) (width 0.1))
  (fp_line (start 0.89 23.495) (end -2.16 23.495) (layer F.Fab) (width 0.1))
  (fp_line (start -2.16 23.495) (end -2.16 -0.635) (layer F.Fab) (width 0.1))
  (fp_line (start -2.22 -0.695) (end -1.57753 -0.695) (layer F.SilkS) (width 0.12))
  (fp_line (start -0.96247 -0.695) (end -0.76 -0.695) (layer F.SilkS) (width 0.12))
  (fp_line (start -2.22 -0.695) (end -2.22 23.555) (layer F.SilkS) (width 0.12))
  (fp_line (start 0.30753 23.555) (end 0.95 23.555) (layer F.SilkS) (width 0.12))
  (fp_line (start -2.22 23.555) (end -1.57753 23.555) (layer F.SilkS) (width 0.12))
  (fp_line (start -0.96247 23.555) (end -0.30753 23.555) (layer F.SilkS) (width 0.12))
  (fp_line (start 0.95 0.635) (end 0.95 23.555) (layer F.SilkS) (width 0.12))
  (fp_line (start 0.76 0.635) (end 0.95 0.635) (layer F.SilkS) (width 0.12))
  (fp_line (start 0.95 -0.76) (end 0.95 0) (layer F.SilkS) (width 0.12))
  (fp_line (start 0 -0.76) (end 0.95 -0.76) (layer F.SilkS) (width 0.12))
  (fp_line (start -2.67 -1.15) (end 1.38 -1.15) (layer F.CrtYd) (width 0.05))
  (fp_line (start 1.38 -1.15) (end 1.38 24) (layer F.CrtYd) (width 0.05))
  (fp_line (start 1.38 24) (end -2.67 24) (layer F.CrtYd) (width 0.05))
  (fp_line (start -2.67 24) (end -2.67 -1.15) (layer F.CrtYd) (width 0.05))
  (pad 1 thru_hole rect (at 0 0) (size 1 1) (drill 0.7) (layers *.Cu *.Mask))
  (pad 2 thru_hole oval (at -1.27 0) (size 1 1) (drill 0.7) (layers *.Cu *.Mask))
  (pad 3 thru_hole oval (at 0 1.27) (size 1 1) (drill 0.7) (layers *.Cu *.Mask))
  (pad 4 thru_hole oval (at -1.27 1.27) (size 1 1) (drill 0.7) (layers *.Cu *.Mask))
  (pad 5 thru_hole oval (at 0 2.54) (size 1 1) (drill 0.7) (layers *.Cu *.Mask))
  (pad 6 thru_hole oval (at -1.27 2.54) (size 1 1) (drill 0.7) (layers *.Cu *.Mask))
  (pad 7 thru_hole oval (at 0 3.81) (size 1 1) (drill 0.7) (layers *.Cu *.Mask))
  (pad 8 thru_hole oval (at -1.27 3.81) (size 1 1) (drill 0.7) (layers *.Cu *.Mask))
  (pad 9 thru_hole oval (at 0 5.08) (size 1 1) (drill 0.7) (layers *.Cu *.Mask))
  (pad 10 thru_hole oval (at -1.27 5.08) (size 1 1) (drill 0.7) (layers *.Cu *.Mask))
  (pad 11 thru_hole oval (at 0 6.35) (size 1 1) (drill 0.7) (layers *.Cu *.Mask))
  (pad 12 thru_hole oval (at -1.27 6.35) (size 1 1) (drill 0.7) (layers *.Cu *.Mask))
  (pad 13 thru_hole oval (at 0 7.62) (size 1 1) (drill 0.7) (layers *.Cu *.Mask))
  (pad 14 thru_hole oval (at -1.27 7.62) (size 1 1) (drill 0.7) (layers *.Cu *.Mask))
  (pad 15 thru_hole oval (at 0 8.89) (size 1 1) (drill 0.7) (layers *.Cu *.Mask))
  (pad 16 thru_hole oval (at -1.27 8.89) (size 1 1) (drill 0.7) (layers *.Cu *.Mask))
  (pad 17 thru_hole oval (at 0 10.16) (size 1 1) (drill 0.7) (layers *.Cu *.Mask))
  (pad 18 thru_hole oval (at -1.27 10.16) (size 1 1) (drill 0.7) (layers *.Cu *.Mask))
  (pad 19 thru_hole oval (at 0 11.43) (size 1 1) (drill 0.7) (layers *.Cu *.Mask))
  (pad 20 thru_hole oval (at -1.27 11.43) (size 1 1) (drill 0.7) (layers *.Cu *.Mask))
  (pad 21 thru_hole oval (at 0 12.7) (size 1 1) (drill 0.7) (layers *.Cu *.Mask))
  (pad 22 thru_hole oval (at -1.27 12.7) (size 1 1) (drill 0.7) (layers *.Cu *.Mask))
  (pad 23 thru_hole oval (at 0 13.97) (size 1 1) (drill 0.7) (layers *.Cu *.Mask))
  (pad 24 thru_hole oval (at -1.27 13.97) (size 1 1) (drill 0.7) (layers *.Cu *.Mask))
  (pad 25 thru_hole oval (at 0 15.24) (size 1 1) (drill 0.7) (layers *.Cu *.Mask))
  (pad 26 thru_hole oval (at -1.27 15.24) (size 1 1) (drill 0.7) (layers *.Cu *.Mask))
  (pad 27 thru_hole oval (at 0 16.51) (size 1 1) (drill 0.7) (layers *.Cu *.Mask))
  (pad 28 thru_hole oval (at -1.27 16.51) (size 1 1) (drill 0.7) (layers *.Cu *.Mask))
  (pad 29 thru_hole oval (at 0 17.78) (size 1 1) (drill 0.7) (layers *.Cu *.Mask))
  (pad 30 thru_hole oval (at -1.27 17.78) (size 1 1) (drill 0.7) (layers *.Cu *.Mask))
  (pad 31 thru_hole oval (at 0 19.05) (size 1 1) (drill 0.7) (layers *.Cu *.Mask))
  (pad 32 thru_hole oval (at -1.27 19.05) (size 1 1) (drill 0.7) (layers *.Cu *.Mask))
  (pad 33 thru_hole oval (at 0 20.32) (size 1 1) (drill 0.7) (layers *.Cu *.Mask))
  (pad 34 thru_hole oval (at -1.27 20.32) (size 1 1) (drill 0.7) (layers *.Cu *.Mask))
  (pad 35 thru_hole oval (at 0 21.59) (size 1 1) (drill 0.7) (layers *.Cu *.Mask))
  (pad 36 thru_hole oval (at -1.27 21.59) (size 1 1) (drill 0.7) (layers *.Cu *.Mask))
  (pad 37 thru_hole oval (at 0 22.86) (size 1 1) (drill 0.7) (layers *.Cu *.Mask))
  (pad 38 thru_hole oval (at -1.27 22.86) (size 1 1) (drill 0.7) (layers *.Cu *.Mask))
  (fp_text user %R (at -0.635 11.43 90) (layer F.Fab)
    (effects (font (size 1 1) (thickness 0.15)))
  )
  (model ${KICAD6_3DMODEL_DIR}/Connector_PinSocket_1.27mm.3dshapes/PinSocket_2x19_P1.27mm_Vertical.wrl
    (at (xyz 0 0 0))
    (scale (xyz 1 1 1))
    (rotate (xyz 0 0 0))
  )
)