(module PinSocket_1x03_P1.27mm_Vertical_SMD_Pin1Right (layer F.Cu) (tedit 5A19A42C)
  (descr "surface-mounted straight socket strip, 1x03, 1.27mm pitch, single row, style 2 (pin 1 right) (https://gct.co/pdfjs/web/viewer.html?file=/Files/Drawings/BD075.pdf&t=1511594726925), script generated")
  (tags "Surface mounted socket strip SMD 1x03 1.27mm single row style2 pin1 right")
  (attr smd)
  (fp_text reference REF** (at 0 -3.58) (layer F.SilkS)
    (effects (font (size 1 1) (thickness 0.15)))
  )
  (fp_text value PinSocket_1x03_P1.27mm_Vertical_SMD_Pin1Right (at 0 3.58) (layer F.Fab)
    (effects (font (size 1 1) (thickness 0.15)))
  )
  (fp_line (start -0.96 -2.14) (end 0.96 -2.14) (layer F.SilkS) (width 0.12))
  (fp_line (start 0.96 -2.14) (end 0.96 -1.855) (layer F.SilkS) (width 0.12))
  (fp_line (start 0.96 -0.685) (end 0.96 0.685) (layer F.SilkS) (width 0.12))
  (fp_line (start 0.96 1.855) (end 0.96 2.14) (layer F.SilkS) (width 0.12))
  (fp_line (start -0.96 2.14) (end 0.96 2.14) (layer F.SilkS) (width 0.12))
  (fp_line (start -0.96 -2.14) (end -0.96 -0.585) (layer F.SilkS) (width 0.12))
  (fp_line (start -0.96 0.585) (end -0.96 2.14) (layer F.SilkS) (width 0.12))
  (fp_line (start 0.96 -1.855) (end 2.19 -1.855) (layer F.SilkS) (width 0.12))
  (fp_line (start -0.9 -2.08) (end 0.45 -2.08) (layer F.Fab) (width 0.1))
  (fp_line (start 0.45 -2.08) (end 0.9 -1.63) (layer F.Fab) (width 0.1))
  (fp_line (start 0.9 -1.63) (end 0.9 2.08) (layer F.Fab) (width 0.1))
  (fp_line (start 0.9 2.08) (end -0.9 2.08) (layer F.Fab) (width 0.1))
  (fp_line (start -0.9 2.08) (end -0.9 -2.08) (layer F.Fab) (width 0.1))
  (fp_line (start 0.9 -1.48) (end 1.75 -1.48) (layer F.Fab) (width 0.1))
  (fp_line (start 1.75 -1.48) (end 1.75 -1.06) (layer F.Fab) (width 0.1))
  (fp_line (start 1.75 -1.06) (end 0.9 -1.06) (layer F.Fab) (width 0.1))
  (fp_line (start -1.75 -0.21) (end -0.9 -0.21) (layer F.Fab) (width 0.1))
  (fp_line (start -0.9 0.21) (end -1.75 0.21) (layer F.Fab) (width 0.1))
  (fp_line (start -1.75 0.21) (end -1.75 -0.21) (layer F.Fab) (width 0.1))
  (fp_line (start 0.9 1.06) (end 1.75 1.06) (layer F.Fab) (width 0.1))
  (fp_line (start 1.75 1.06) (end 1.75 1.48) (layer F.Fab) (width 0.1))
  (fp_line (start 1.75 1.48) (end 0.9 1.48) (layer F.Fab) (width 0.1))
  (fp_line (start -2.75 -2.6) (end 2.75 -2.6) (layer F.CrtYd) (width 0.05))
  (fp_line (start 2.75 -2.6) (end 2.75 2.6) (layer F.CrtYd) (width 0.05))
  (fp_line (start 2.75 2.6) (end -2.75 2.6) (layer F.CrtYd) (width 0.05))
  (fp_line (start -2.75 2.6) (end -2.75 -2.6) (layer F.CrtYd) (width 0.05))
  (pad 2 smd rect (at -1.35 0) (size 1.8 0.65) (layers F.Cu F.Mask F.Paste))
  (pad 1 smd rect (at 1.35 -1.27) (size 1.8 0.65) (layers F.Cu F.Mask F.Paste))
  (pad 3 smd rect (at 1.35 1.27) (size 1.8 0.65) (layers F.Cu F.Mask F.Paste))
  (fp_text user %R (at 0 0 90) (layer F.Fab)
    (effects (font (size 1 1) (thickness 0.15)))
  )
  (model ${KICAD6_3DMODEL_DIR}/Connector_PinSocket_1.27mm.3dshapes/PinSocket_1x03_P1.27mm_Vertical_SMD_Pin1Right.wrl
    (at (xyz 0 0 0))
    (scale (xyz 1 1 1))
    (rotate (xyz 0 0 0))
  )
)