(module PinSocket_1x01_P1.27mm_Vertical (layer F.Cu) (tedit 5A19A430)
  (descr "Through hole straight socket strip, 1x01, 1.27mm pitch, single row (from Kicad 4.0.7), script generated")
  (tags "Through hole socket strip THT 1x01 1.27mm single row")
  (fp_text reference REF** (at 0 -2.135) (layer F.SilkS)
    (effects (font (size 1 1) (thickness 0.15)))
  )
  (fp_text value PinSocket_1x01_P1.27mm_Vertical (at 0 2.135) (layer F.Fab)
    (effects (font (size 1 1) (thickness 0.15)))
  )
  (fp_line (start -1.27 -0.635) (end 0.9525 -0.635) (layer F.Fab) (width 0.1))
  (fp_line (start 0.9525 -0.635) (end 1.27 -0.3175) (layer F.Fab) (width 0.1))
  (fp_line (start 1.27 -0.3175) (end 1.27 0.635) (layer F.Fab) (width 0.1))
  (fp_line (start 1.27 0.635) (end -1.27 0.635) (layer F.Fab) (width 0.1))
  (fp_line (start -1.27 0.635) (end -1.27 -0.635) (layer F.Fab) (width 0.1))
  (fp_line (start -1.33 0.695) (end -0.76 0.695) (layer F.SilkS) (width 0.12))
  (fp_line (start 0.76 0.695) (end 1.33 0.695) (layer F.SilkS) (width 0.12))
  (fp_line (start -1.33 0.575) (end -1.33 0.695) (layer F.SilkS) (width 0.12))
  (fp_line (start 1.33 0.575) (end 1.33 0.695) (layer F.SilkS) (width 0.12))
  (fp_line (start 1.33 -0.76) (end 1.33 0) (layer F.SilkS) (width 0.12))
  (fp_line (start 0 -0.76) (end 1.33 -0.76) (layer F.SilkS) (width 0.12))
  (fp_line (start -1.8 -1.15) (end 1.75 -1.15) (layer F.CrtYd) (width 0.05))
  (fp_line (start 1.75 -1.15) (end 1.75 1.15) (layer F.CrtYd) (width 0.05))
  (fp_line (start 1.75 1.15) (end -1.8 1.15) (layer F.CrtYd) (width 0.05))
  (fp_line (start -1.8 1.15) (end -1.8 -1.15) (layer F.CrtYd) (width 0.05))
  (pad 1 thru_hole rect (at 0 0) (size 1 1) (drill 0.7) (layers *.Cu *.Mask))
  (fp_text user %R (at 0 0) (layer F.Fab)
    (effects (font (size 0.76 0.76) (thickness 0.11)))
  )
  (model ${KICAD6_3DMODEL_DIR}/Connector_PinSocket_1.27mm.3dshapes/PinSocket_1x01_P1.27mm_Vertical.wrl
    (at (xyz 0 0 0))
    (scale (xyz 1 1 1))
    (rotate (xyz 0 0 0))
  )
)