(module PinSocket_1x05_P1.27mm_Vertical_SMD_Pin1Left (layer F.Cu) (tedit 5A19A429)
  (descr "surface-mounted straight socket strip, 1x05, 1.27mm pitch, single row, style 1 (pin 1 left) (https://gct.co/pdfjs/web/viewer.html?file=/Files/Drawings/BD075.pdf&t=1511594726925), script generated")
  (tags "Surface mounted socket strip SMD 1x05 1.27mm single row style1 pin1 left")
  (attr smd)
  (fp_text reference REF** (at 0 -4.85) (layer F.SilkS)
    (effects (font (size 1 1) (thickness 0.15)))
  )
  (fp_text value PinSocket_1x05_P1.27mm_Vertical_SMD_Pin1Left (at 0 4.85) (layer F.Fab)
    (effects (font (size 1 1) (thickness 0.15)))
  )
  (fp_line (start -0.96 -3.41) (end 0.96 -3.41) (layer F.SilkS) (width 0.12))
  (fp_line (start 0.96 -3.41) (end 0.96 -1.855) (layer F.SilkS) (width 0.12))
  (fp_line (start 0.96 -0.685) (end 0.96 0.685) (layer F.SilkS) (width 0.12))
  (fp_line (start 0.96 1.855) (end 0.96 3.41) (layer F.SilkS) (width 0.12))
  (fp_line (start -0.96 3.41) (end 0.96 3.41) (layer F.SilkS) (width 0.12))
  (fp_line (start -0.96 -3.41) (end -0.96 -3.125) (layer F.SilkS) (width 0.12))
  (fp_line (start -0.96 -1.955) (end -0.96 -0.585) (layer F.SilkS) (width 0.12))
  (fp_line (start -0.96 0.585) (end -0.96 1.955) (layer F.SilkS) (width 0.12))
  (fp_line (start -0.96 3.125) (end -0.96 3.41) (layer F.SilkS) (width 0.12))
  (fp_line (start -2.19 -3.125) (end -0.96 -3.125) (layer F.SilkS) (width 0.12))
  (fp_line (start -0.45 -3.35) (end 0.9 -3.35) (layer F.Fab) (width 0.1))
  (fp_line (start 0.9 -3.35) (end 0.9 3.35) (layer F.Fab) (width 0.1))
  (fp_line (start 0.9 3.35) (end -0.9 3.35) (layer F.Fab) (width 0.1))
  (fp_line (start -0.9 3.35) (end -0.9 -2.9) (layer F.Fab) (width 0.1))
  (fp_line (start -0.9 -2.9) (end -0.45 -3.35) (layer F.Fab) (width 0.1))
  (fp_line (start -1.75 -2.75) (end -0.9 -2.75) (layer F.Fab) (width 0.1))
  (fp_line (start -0.9 -2.33) (end -1.75 -2.33) (layer F.Fab) (width 0.1))
  (fp_line (start -1.75 -2.33) (end -1.75 -2.75) (layer F.Fab) (width 0.1))
  (fp_line (start 0.9 -1.48) (end 1.75 -1.48) (layer F.Fab) (width 0.1))
  (fp_line (start 1.75 -1.48) (end 1.75 -1.06) (layer F.Fab) (width 0.1))
  (fp_line (start 1.75 -1.06) (end 0.9 -1.06) (layer F.Fab) (width 0.1))
  (fp_line (start -1.75 -0.21) (end -0.9 -0.21) (layer F.Fab) (width 0.1))
  (fp_line (start -0.9 0.21) (end -1.75 0.21) (layer F.Fab) (width 0.1))
  (fp_line (start -1.75 0.21) (end -1.75 -0.21) (layer F.Fab) (width 0.1))
  (fp_line (start 0.9 1.06) (end 1.75 1.06) (layer F.Fab) (width 0.1))
  (fp_line (start 1.75 1.06) (end 1.75 1.48) (layer F.Fab) (width 0.1))
  (fp_line (start 1.75 1.48) (end 0.9 1.48) (layer F.Fab) (width 0.1))
  (fp_line (start -1.75 2.33) (end -0.9 2.33) (layer F.Fab) (width 0.1))
  (fp_line (start -0.9 2.75) (end -1.75 2.75) (layer F.Fab) (width 0.1))
  (fp_line (start -1.75 2.75) (end -1.75 2.33) (layer F.Fab) (width 0.1))
  (fp_line (start -2.75 -3.85) (end 2.75 -3.85) (layer F.CrtYd) (width 0.05))
  (fp_line (start 2.75 -3.85) (end 2.75 3.85) (layer F.CrtYd) (width 0.05))
  (fp_line (start 2.75 3.85) (end -2.75 3.85) (layer F.CrtYd) (width 0.05))
  (fp_line (start -2.75 3.85) (end -2.75 -3.85) (layer F.CrtYd) (width 0.05))
  (pad 1 smd rect (at -1.35 -2.54) (size 1.8 0.65) (layers F.Cu F.Mask F.Paste))
  (pad 3 smd rect (at -1.35 0) (size 1.8 0.65) (layers F.Cu F.Mask F.Paste))
  (pad 5 smd rect (at -1.35 2.54) (size 1.8 0.65) (layers F.Cu F.Mask F.Paste))
  (pad 2 smd rect (at 1.35 -1.27) (size 1.8 0.65) (layers F.Cu F.Mask F.Paste))
  (pad 4 smd rect (at 1.35 1.27) (size 1.8 0.65) (layers F.Cu F.Mask F.Paste))
  (fp_text user %R (at 0 0 90) (layer F.Fab)
    (effects (font (size 1 1) (thickness 0.15)))
  )
  (model ${KICAD6_3DMODEL_DIR}/Connector_PinSocket_1.27mm.3dshapes/PinSocket_1x05_P1.27mm_Vertical_SMD_Pin1Left.wrl
    (at (xyz 0 0 0))
    (scale (xyz 1 1 1))
    (rotate (xyz 0 0 0))
  )
)