(module PinSocket_2x10_P1.27mm_Vertical_SMD (layer F.Cu) (tedit 5A19A42F)
  (descr "surface-mounted straight socket strip, 2x10, 1.27mm pitch, double cols (from Kicad 4.0.7!), script generated")
  (tags "Surface mounted socket strip SMD 2x10 1.27mm double row")
  (attr smd)
  (fp_text reference REF** (at 0 -7.85) (layer F.SilkS)
    (effects (font (size 1 1) (thickness 0.15)))
  )
  (fp_text value PinSocket_2x10_P1.27mm_Vertical_SMD (at 0 7.85) (layer F.Fab)
    (effects (font (size 1 1) (thickness 0.15)))
  )
  (fp_line (start -1.33 -6.41) (end 1.33 -6.41) (layer F.SilkS) (width 0.12))
  (fp_line (start 1.33 -6.41) (end 1.33 -6.35) (layer F.SilkS) (width 0.12))
  (fp_line (start 1.33 6.35) (end 1.33 6.41) (layer F.SilkS) (width 0.12))
  (fp_line (start -1.33 6.41) (end 1.33 6.41) (layer F.SilkS) (width 0.12))
  (fp_line (start -1.33 -6.41) (end -1.33 -6.35) (layer F.SilkS) (width 0.12))
  (fp_line (start -1.33 6.35) (end -1.33 6.41) (layer F.SilkS) (width 0.12))
  (fp_line (start 1.33 -6.35) (end 2.79 -6.35) (layer F.SilkS) (width 0.12))
  (fp_line (start -1.27 -6.35) (end 0.635 -6.35) (layer F.Fab) (width 0.1))
  (fp_line (start 0.635 -6.35) (end 1.27 -5.715) (layer F.Fab) (width 0.1))
  (fp_line (start 1.27 -5.715) (end 1.27 6.35) (layer F.Fab) (width 0.1))
  (fp_line (start 1.27 6.35) (end -1.27 6.35) (layer F.Fab) (width 0.1))
  (fp_line (start -1.27 6.35) (end -1.27 -6.35) (layer F.Fab) (width 0.1))
  (fp_line (start -2.555 -5.915) (end -1.27 -5.915) (layer F.Fab) (width 0.1))
  (fp_line (start -1.27 -5.515) (end -2.555 -5.515) (layer F.Fab) (width 0.1))
  (fp_line (start -2.555 -5.515) (end -2.555 -5.915) (layer F.Fab) (width 0.1))
  (fp_line (start 1.27 -5.915) (end 2.555 -5.915) (layer F.Fab) (width 0.1))
  (fp_line (start 2.555 -5.915) (end 2.555 -5.515) (layer F.Fab) (width 0.1))
  (fp_line (start 2.555 -5.515) (end 1.27 -5.515) (layer F.Fab) (width 0.1))
  (fp_line (start -2.555 -4.645) (end -1.27 -4.645) (layer F.Fab) (width 0.1))
  (fp_line (start -1.27 -4.245) (end -2.555 -4.245) (layer F.Fab) (width 0.1))
  (fp_line (start -2.555 -4.245) (end -2.555 -4.645) (layer F.Fab) (width 0.1))
  (fp_line (start 1.27 -4.645) (end 2.555 -4.645) (layer F.Fab) (width 0.1))
  (fp_line (start 2.555 -4.645) (end 2.555 -4.245) (layer F.Fab) (width 0.1))
  (fp_line (start 2.555 -4.245) (end 1.27 -4.245) (layer F.Fab) (width 0.1))
  (fp_line (start -2.555 -3.375) (end -1.27 -3.375) (layer F.Fab) (width 0.1))
  (fp_line (start -1.27 -2.975) (end -2.555 -2.975) (layer F.Fab) (width 0.1))
  (fp_line (start -2.555 -2.975) (end -2.555 -3.375) (layer F.Fab) (width 0.1))
  (fp_line (start 1.27 -3.375) (end 2.555 -3.375) (layer F.Fab) (width 0.1))
  (fp_line (start 2.555 -3.375) (end 2.555 -2.975) (layer F.Fab) (width 0.1))
  (fp_line (start 2.555 -2.975) (end 1.27 -2.975) (layer F.Fab) (width 0.1))
  (fp_line (start -2.555 -2.105) (end -1.27 -2.105) (layer F.Fab) (width 0.1))
  (fp_line (start -1.27 -1.705) (end -2.555 -1.705) (layer F.Fab) (width 0.1))
  (fp_line (start -2.555 -1.705) (end -2.555 -2.105) (layer F.Fab) (width 0.1))
  (fp_line (start 1.27 -2.105) (end 2.555 -2.105) (layer F.Fab) (width 0.1))
  (fp_line (start 2.555 -2.105) (end 2.555 -1.705) (layer F.Fab) (width 0.1))
  (fp_line (start 2.555 -1.705) (end 1.27 -1.705) (layer F.Fab) (width 0.1))
  (fp_line (start -2.555 -0.835) (end -1.27 -0.835) (layer F.Fab) (width 0.1))
  (fp_line (start -1.27 -0.435) (end -2.555 -0.435) (layer F.Fab) (width 0.1))
  (fp_line (start -2.555 -0.435) (end -2.555 -0.835) (layer F.Fab) (width 0.1))
  (fp_line (start 1.27 -0.835) (end 2.555 -0.835) (layer F.Fab) (width 0.1))
  (fp_line (start 2.555 -0.835) (end 2.555 -0.435) (layer F.Fab) (width 0.1))
  (fp_line (start 2.555 -0.435) (end 1.27 -0.435) (layer F.Fab) (width 0.1))
  (fp_line (start -2.555 0.435) (end -1.27 0.435) (layer F.Fab) (width 0.1))
  (fp_line (start -1.27 0.835) (end -2.555 0.835) (layer F.Fab) (width 0.1))
  (fp_line (start -2.555 0.835) (end -2.555 0.435) (layer F.Fab) (width 0.1))
  (fp_line (start 1.27 0.435) (end 2.555 0.435) (layer F.Fab) (width 0.1))
  (fp_line (start 2.555 0.435) (end 2.555 0.835) (layer F.Fab) (width 0.1))
  (fp_line (start 2.555 0.835) (end 1.27 0.835) (layer F.Fab) (width 0.1))
  (fp_line (start -2.555 1.705) (end -1.27 1.705) (layer F.Fab) (width 0.1))
  (fp_line (start -1.27 2.105) (end -2.555 2.105) (layer F.Fab) (width 0.1))
  (fp_line (start -2.555 2.105) (end -2.555 1.705) (layer F.Fab) (width 0.1))
  (fp_line (start 1.27 1.705) (end 2.555 1.705) (layer F.Fab) (width 0.1))
  (fp_line (start 2.555 1.705) (end 2.555 2.105) (layer F.Fab) (width 0.1))
  (fp_line (start 2.555 2.105) (end 1.27 2.105) (layer F.Fab) (width 0.1))
  (fp_line (start -2.555 2.975) (end -1.27 2.975) (layer F.Fab) (width 0.1))
  (fp_line (start -1.27 3.375) (end -2.555 3.375) (layer F.Fab) (width 0.1))
  (fp_line (start -2.555 3.375) (end -2.555 2.975) (layer F.Fab) (width 0.1))
  (fp_line (start 1.27 2.975) (end 2.555 2.975) (layer F.Fab) (width 0.1))
  (fp_line (start 2.555 2.975) (end 2.555 3.375) (layer F.Fab) (width 0.1))
  (fp_line (start 2.555 3.375) (end 1.27 3.375) (layer F.Fab) (width 0.1))
  (fp_line (start -2.555 4.245) (end -1.27 4.245) (layer F.Fab) (width 0.1))
  (fp_line (start -1.27 4.645) (end -2.555 4.645) (layer F.Fab) (width 0.1))
  (fp_line (start -2.555 4.645) (end -2.555 4.245) (layer F.Fab) (width 0.1))
  (fp_line (start 1.27 4.245) (end 2.555 4.245) (layer F.Fab) (width 0.1))
  (fp_line (start 2.555 4.245) (end 2.555 4.645) (layer F.Fab) (width 0.1))
  (fp_line (start 2.555 4.645) (end 1.27 4.645) (layer F.Fab) (width 0.1))
  (fp_line (start -2.555 5.515) (end -1.27 5.515) (layer F.Fab) (width 0.1))
  (fp_line (start -1.27 5.915) (end -2.555 5.915) (layer F.Fab) (width 0.1))
  (fp_line (start -2.555 5.915) (end -2.555 5.515) (layer F.Fab) (width 0.1))
  (fp_line (start 1.27 5.515) (end 2.555 5.515) (layer F.Fab) (width 0.1))
  (fp_line (start 2.555 5.515) (end 2.555 5.915) (layer F.Fab) (width 0.1))
  (fp_line (start 2.555 5.915) (end 1.27 5.915) (layer F.Fab) (width 0.1))
  (fp_line (start -3.35 -6.85) (end 3.35 -6.85) (layer F.CrtYd) (width 0.05))
  (fp_line (start 3.35 -6.85) (end 3.35 6.85) (layer F.CrtYd) (width 0.05))
  (fp_line (start 3.35 6.85) (end -3.35 6.85) (layer F.CrtYd) (width 0.05))
  (fp_line (start -3.35 6.85) (end -3.35 -6.85) (layer F.CrtYd) (width 0.05))
  (pad 1 smd rect (at 1.8 -5.715) (size 2.1 0.75) (layers F.Cu F.Mask F.Paste))
  (pad 2 smd rect (at -1.8 -5.715) (size 2.1 0.75) (layers F.Cu F.Mask F.Paste))
  (pad 3 smd rect (at 1.8 -4.445) (size 2.1 0.75) (layers F.Cu F.Mask F.Paste))
  (pad 4 smd rect (at -1.8 -4.445) (size 2.1 0.75) (layers F.Cu F.Mask F.Paste))
  (pad 5 smd rect (at 1.8 -3.175) (size 2.1 0.75) (layers F.Cu F.Mask F.Paste))
  (pad 6 smd rect (at -1.8 -3.175) (size 2.1 0.75) (layers F.Cu F.Mask F.Paste))
  (pad 7 smd rect (at 1.8 -1.905) (size 2.1 0.75) (layers F.Cu F.Mask F.Paste))
  (pad 8 smd rect (at -1.8 -1.905) (size 2.1 0.75) (layers F.Cu F.Mask F.Paste))
  (pad 9 smd rect (at 1.8 -0.635) (size 2.1 0.75) (layers F.Cu F.Mask F.Paste))
  (pad 10 smd rect (at -1.8 -0.635) (size 2.1 0.75) (layers F.Cu F.Mask F.Paste))
  (pad 11 smd rect (at 1.8 0.635) (size 2.1 0.75) (layers F.Cu F.Mask F.Paste))
  (pad 12 smd rect (at -1.8 0.635) (size 2.1 0.75) (layers F.Cu F.Mask F.Paste))
  (pad 13 smd rect (at 1.8 1.905) (size 2.1 0.75) (layers F.Cu F.Mask F.Paste))
  (pad 14 smd rect (at -1.8 1.905) (size 2.1 0.75) (layers F.Cu F.Mask F.Paste))
  (pad 15 smd rect (at 1.8 3.175) (size 2.1 0.75) (layers F.Cu F.Mask F.Paste))
  (pad 16 smd rect (at -1.8 3.175) (size 2.1 0.75) (layers F.Cu F.Mask F.Paste))
  (pad 17 smd rect (at 1.8 4.445) (size 2.1 0.75) (layers F.Cu F.Mask F.Paste))
  (pad 18 smd rect (at -1.8 4.445) (size 2.1 0.75) (layers F.Cu F.Mask F.Paste))
  (pad 19 smd rect (at 1.8 5.715) (size 2.1 0.75) (layers F.Cu F.Mask F.Paste))
  (pad 20 smd rect (at -1.8 5.715) (size 2.1 0.75) (layers F.Cu F.Mask F.Paste))
  (fp_text user %R (at 0 0 90) (layer F.Fab)
    (effects (font (size 1 1) (thickness 0.15)))
  )
  (model ${KICAD6_3DMODEL_DIR}/Connector_PinSocket_1.27mm.3dshapes/PinSocket_2x10_P1.27mm_Vertical_SMD.wrl
    (at (xyz 0 0 0))
    (scale (xyz 1 1 1))
    (rotate (xyz 0 0 0))
  )
)