(module PinSocket_1x04_P1.27mm_Vertical_SMD_Pin1Left (layer F.Cu) (tedit 5A19A433)
  (descr "surface-mounted straight socket strip, 1x04, 1.27mm pitch, single row, style 1 (pin 1 left) (https://gct.co/pdfjs/web/viewer.html?file=/Files/Drawings/BD075.pdf&t=1511594726925), script generated")
  (tags "Surface mounted socket strip SMD 1x04 1.27mm single row style1 pin1 left")
  (attr smd)
  (fp_text reference REF** (at 0 -4.215) (layer F.SilkS)
    (effects (font (size 1 1) (thickness 0.15)))
  )
  (fp_text value PinSocket_1x04_P1.27mm_Vertical_SMD_Pin1Left (at 0 4.215) (layer F.Fab)
    (effects (font (size 1 1) (thickness 0.15)))
  )
  (fp_line (start -0.96 -2.775) (end 0.96 -2.775) (layer F.SilkS) (width 0.12))
  (fp_line (start 0.96 -2.775) (end 0.96 -1.22) (layer F.SilkS) (width 0.12))
  (fp_line (start 0.96 -0.05) (end 0.96 1.32) (layer F.SilkS) (width 0.12))
  (fp_line (start 0.96 2.49) (end 0.96 2.775) (layer F.SilkS) (width 0.12))
  (fp_line (start -0.96 2.775) (end 0.96 2.775) (layer F.SilkS) (width 0.12))
  (fp_line (start -0.96 -2.775) (end -0.96 -2.49) (layer F.SilkS) (width 0.12))
  (fp_line (start -0.96 -1.32) (end -0.96 0.05) (layer F.SilkS) (width 0.12))
  (fp_line (start -0.96 1.22) (end -0.96 2.775) (layer F.SilkS) (width 0.12))
  (fp_line (start -2.19 -2.49) (end -0.96 -2.49) (layer F.SilkS) (width 0.12))
  (fp_line (start -0.45 -2.715) (end 0.9 -2.715) (layer F.Fab) (width 0.1))
  (fp_line (start 0.9 -2.715) (end 0.9 2.715) (layer F.Fab) (width 0.1))
  (fp_line (start 0.9 2.715) (end -0.9 2.715) (layer F.Fab) (width 0.1))
  (fp_line (start -0.9 2.715) (end -0.9 -2.265) (layer F.Fab) (width 0.1))
  (fp_line (start -0.9 -2.265) (end -0.45 -2.715) (layer F.Fab) (width 0.1))
  (fp_line (start -1.75 -2.115) (end -0.9 -2.115) (layer F.Fab) (width 0.1))
  (fp_line (start -0.9 -1.695) (end -1.75 -1.695) (layer F.Fab) (width 0.1))
  (fp_line (start -1.75 -1.695) (end -1.75 -2.115) (layer F.Fab) (width 0.1))
  (fp_line (start 0.9 -0.845) (end 1.75 -0.845) (layer F.Fab) (width 0.1))
  (fp_line (start 1.75 -0.845) (end 1.75 -0.425) (layer F.Fab) (width 0.1))
  (fp_line (start 1.75 -0.425) (end 0.9 -0.425) (layer F.Fab) (width 0.1))
  (fp_line (start -1.75 0.425) (end -0.9 0.425) (layer F.Fab) (width 0.1))
  (fp_line (start -0.9 0.845) (end -1.75 0.845) (layer F.Fab) (width 0.1))
  (fp_line (start -1.75 0.845) (end -1.75 0.425) (layer F.Fab) (width 0.1))
  (fp_line (start 0.9 1.695) (end 1.75 1.695) (layer F.Fab) (width 0.1))
  (fp_line (start 1.75 1.695) (end 1.75 2.115) (layer F.Fab) (width 0.1))
  (fp_line (start 1.75 2.115) (end 0.9 2.115) (layer F.Fab) (width 0.1))
  (fp_line (start -2.75 -3.25) (end 2.75 -3.25) (layer F.CrtYd) (width 0.05))
  (fp_line (start 2.75 -3.25) (end 2.75 3.2) (layer F.CrtYd) (width 0.05))
  (fp_line (start 2.75 3.2) (end -2.75 3.2) (layer F.CrtYd) (width 0.05))
  (fp_line (start -2.75 3.2) (end -2.75 -3.25) (layer F.CrtYd) (width 0.05))
  (pad 1 smd rect (at -1.35 -1.905) (size 1.8 0.65) (layers F.Cu F.Mask F.Paste))
  (pad 3 smd rect (at -1.35 0.635) (size 1.8 0.65) (layers F.Cu F.Mask F.Paste))
  (pad 2 smd rect (at 1.35 -0.635) (size 1.8 0.65) (layers F.Cu F.Mask F.Paste))
  (pad 4 smd rect (at 1.35 1.905) (size 1.8 0.65) (layers F.Cu F.Mask F.Paste))
  (fp_text user %R (at 0 0 90) (layer F.Fab)
    (effects (font (size 1 1) (thickness 0.15)))
  )
  (model ${KICAD6_3DMODEL_DIR}/Connector_PinSocket_1.27mm.3dshapes/PinSocket_1x04_P1.27mm_Vertical_SMD_Pin1Left.wrl
    (at (xyz 0 0 0))
    (scale (xyz 1 1 1))
    (rotate (xyz 0 0 0))
  )
)