(module PinSocket_2x05_P2.54mm_Vertical_SMD (layer F.Cu) (tedit 5A19A425)
  (descr "surface-mounted straight socket strip, 2x05, 2.54mm pitch, double cols (from Kicad 4.0.7), script generated")
  (tags "Surface mounted socket strip SMD 2x05 2.54mm double row")
  (attr smd)
  (fp_text reference REF** (at 0 -7.85) (layer F.SilkS)
    (effects (font (size 1 1) (thickness 0.15)))
  )
  (fp_text value PinSocket_2x05_P2.54mm_Vertical_SMD (at 0 7.85) (layer F.Fab)
    (effects (font (size 1 1) (thickness 0.15)))
  )
  (fp_line (start -2.6 -6.41) (end 2.6 -6.41) (layer F.SilkS) (width 0.12))
  (fp_line (start 2.6 -6.41) (end 2.6 -5.84) (layer F.SilkS) (width 0.12))
  (fp_line (start 2.6 -4.32) (end 2.6 -3.3) (layer F.SilkS) (width 0.12))
  (fp_line (start 2.6 -1.78) (end 2.6 -0.76) (layer F.SilkS) (width 0.12))
  (fp_line (start 2.6 0.76) (end 2.6 1.78) (layer F.SilkS) (width 0.12))
  (fp_line (start 2.6 3.3) (end 2.6 4.32) (layer F.SilkS) (width 0.12))
  (fp_line (start 2.6 5.84) (end 2.6 6.41) (layer F.SilkS) (width 0.12))
  (fp_line (start -2.6 6.41) (end 2.6 6.41) (layer F.SilkS) (width 0.12))
  (fp_line (start -2.6 -6.41) (end -2.6 -5.84) (layer F.SilkS) (width 0.12))
  (fp_line (start -2.6 -4.32) (end -2.6 -3.3) (layer F.SilkS) (width 0.12))
  (fp_line (start -2.6 -1.78) (end -2.6 -0.76) (layer F.SilkS) (width 0.12))
  (fp_line (start -2.6 0.76) (end -2.6 1.78) (layer F.SilkS) (width 0.12))
  (fp_line (start -2.6 3.3) (end -2.6 4.32) (layer F.SilkS) (width 0.12))
  (fp_line (start -2.6 5.84) (end -2.6 6.41) (layer F.SilkS) (width 0.12))
  (fp_line (start 2.6 -5.84) (end 3.96 -5.84) (layer F.SilkS) (width 0.12))
  (fp_line (start -2.54 -6.35) (end 1.54 -6.35) (layer F.Fab) (width 0.1))
  (fp_line (start 1.54 -6.35) (end 2.54 -5.35) (layer F.Fab) (width 0.1))
  (fp_line (start 2.54 -5.35) (end 2.54 6.35) (layer F.Fab) (width 0.1))
  (fp_line (start 2.54 6.35) (end -2.54 6.35) (layer F.Fab) (width 0.1))
  (fp_line (start -2.54 6.35) (end -2.54 -6.35) (layer F.Fab) (width 0.1))
  (fp_line (start -3.92 -5.4) (end -2.54 -5.4) (layer F.Fab) (width 0.1))
  (fp_line (start -2.54 -4.76) (end -3.92 -4.76) (layer F.Fab) (width 0.1))
  (fp_line (start -3.92 -4.76) (end -3.92 -5.4) (layer F.Fab) (width 0.1))
  (fp_line (start 2.54 -5.4) (end 3.92 -5.4) (layer F.Fab) (width 0.1))
  (fp_line (start 3.92 -5.4) (end 3.92 -4.76) (layer F.Fab) (width 0.1))
  (fp_line (start 3.92 -4.76) (end 2.54 -4.76) (layer F.Fab) (width 0.1))
  (fp_line (start -3.92 -2.86) (end -2.54 -2.86) (layer F.Fab) (width 0.1))
  (fp_line (start -2.54 -2.22) (end -3.92 -2.22) (layer F.Fab) (width 0.1))
  (fp_line (start -3.92 -2.22) (end -3.92 -2.86) (layer F.Fab) (width 0.1))
  (fp_line (start 2.54 -2.86) (end 3.92 -2.86) (layer F.Fab) (width 0.1))
  (fp_line (start 3.92 -2.86) (end 3.92 -2.22) (layer F.Fab) (width 0.1))
  (fp_line (start 3.92 -2.22) (end 2.54 -2.22) (layer F.Fab) (width 0.1))
  (fp_line (start -3.92 -0.32) (end -2.54 -0.32) (layer F.Fab) (width 0.1))
  (fp_line (start -2.54 0.32) (end -3.92 0.32) (layer F.Fab) (width 0.1))
  (fp_line (start -3.92 0.32) (end -3.92 -0.32) (layer F.Fab) (width 0.1))
  (fp_line (start 2.54 -0.32) (end 3.92 -0.32) (layer F.Fab) (width 0.1))
  (fp_line (start 3.92 -0.32) (end 3.92 0.32) (layer F.Fab) (width 0.1))
  (fp_line (start 3.92 0.32) (end 2.54 0.32) (layer F.Fab) (width 0.1))
  (fp_line (start -3.92 2.22) (end -2.54 2.22) (layer F.Fab) (width 0.1))
  (fp_line (start -2.54 2.86) (end -3.92 2.86) (layer F.Fab) (width 0.1))
  (fp_line (start -3.92 2.86) (end -3.92 2.22) (layer F.Fab) (width 0.1))
  (fp_line (start 2.54 2.22) (end 3.92 2.22) (layer F.Fab) (width 0.1))
  (fp_line (start 3.92 2.22) (end 3.92 2.86) (layer F.Fab) (width 0.1))
  (fp_line (start 3.92 2.86) (end 2.54 2.86) (layer F.Fab) (width 0.1))
  (fp_line (start -3.92 4.76) (end -2.54 4.76) (layer F.Fab) (width 0.1))
  (fp_line (start -2.54 5.4) (end -3.92 5.4) (layer F.Fab) (width 0.1))
  (fp_line (start -3.92 5.4) (end -3.92 4.76) (layer F.Fab) (width 0.1))
  (fp_line (start 2.54 4.76) (end 3.92 4.76) (layer F.Fab) (width 0.1))
  (fp_line (start 3.92 4.76) (end 3.92 5.4) (layer F.Fab) (width 0.1))
  (fp_line (start 3.92 5.4) (end 2.54 5.4) (layer F.Fab) (width 0.1))
  (fp_line (start -4.55 -6.85) (end 4.5 -6.85) (layer F.CrtYd) (width 0.05))
  (fp_line (start 4.5 -6.85) (end 4.5 6.85) (layer F.CrtYd) (width 0.05))
  (fp_line (start 4.5 6.85) (end -4.55 6.85) (layer F.CrtYd) (width 0.05))
  (fp_line (start -4.55 6.85) (end -4.55 -6.85) (layer F.CrtYd) (width 0.05))
  (pad 1 smd rect (at 2.52 -5.08) (size 3 1) (layers F.Cu F.Mask F.Paste))
  (pad 2 smd rect (at -2.52 -5.08) (size 3 1) (layers F.Cu F.Mask F.Paste))
  (pad 3 smd rect (at 2.52 -2.54) (size 3 1) (layers F.Cu F.Mask F.Paste))
  (pad 4 smd rect (at -2.52 -2.54) (size 3 1) (layers F.Cu F.Mask F.Paste))
  (pad 5 smd rect (at 2.52 0) (size 3 1) (layers F.Cu F.Mask F.Paste))
  (pad 6 smd rect (at -2.52 0) (size 3 1) (layers F.Cu F.Mask F.Paste))
  (pad 7 smd rect (at 2.52 2.54) (size 3 1) (layers F.Cu F.Mask F.Paste))
  (pad 8 smd rect (at -2.52 2.54) (size 3 1) (layers F.Cu F.Mask F.Paste))
  (pad 9 smd rect (at 2.52 5.08) (size 3 1) (layers F.Cu F.Mask F.Paste))
  (pad 10 smd rect (at -2.52 5.08) (size 3 1) (layers F.Cu F.Mask F.Paste))
  (fp_text user %R (at 0 0 90) (layer F.Fab)
    (effects (font (size 1 1) (thickness 0.15)))
  )
  (model ${KICAD6_3DMODEL_DIR}/Connector_PinSocket_2.54mm.3dshapes/PinSocket_2x05_P2.54mm_Vertical_SMD.wrl
    (at (xyz 0 0 0))
    (scale (xyz 1 1 1))
    (rotate (xyz 0 0 0))
  )
)