(module PinSocket_1x38_P2.54mm_Horizontal (layer F.Cu) (tedit 5A19A432)
  (descr "Through hole angled socket strip, 1x38, 2.54mm pitch, 8.51mm socket length, single row (from Kicad 4.0.7), script generated")
  (tags "Through hole angled socket strip THT 1x38 2.54mm single row")
  (fp_text reference REF** (at -4.38 -2.77) (layer F.SilkS)
    (effects (font (size 1 1) (thickness 0.15)))
  )
  (fp_text value PinSocket_1x38_P2.54mm_Horizontal (at -4.38 96.75) (layer F.Fab)
    (effects (font (size 1 1) (thickness 0.15)))
  )
  (fp_line (start -10.03 -1.27) (end -2.49 -1.27) (layer F.Fab) (width 0.1))
  (fp_line (start -2.49 -1.27) (end -1.52 -0.3) (layer F.Fab) (width 0.1))
  (fp_line (start -1.52 -0.3) (end -1.52 95.25) (layer F.Fab) (width 0.1))
  (fp_line (start -1.52 95.25) (end -10.03 95.25) (layer F.Fab) (width 0.1))
  (fp_line (start -10.03 95.25) (end -10.03 -1.27) (layer F.Fab) (width 0.1))
  (fp_line (start 0 -0.3) (end -1.52 -0.3) (layer F.Fab) (width 0.1))
  (fp_line (start -1.52 0.3) (end 0 0.3) (layer F.Fab) (width 0.1))
  (fp_line (start 0 0.3) (end 0 -0.3) (layer F.Fab) (width 0.1))
  (fp_line (start 0 2.24) (end -1.52 2.24) (layer F.Fab) (width 0.1))
  (fp_line (start -1.52 2.84) (end 0 2.84) (layer F.Fab) (width 0.1))
  (fp_line (start 0 2.84) (end 0 2.24) (layer F.Fab) (width 0.1))
  (fp_line (start 0 4.78) (end -1.52 4.78) (layer F.Fab) (width 0.1))
  (fp_line (start -1.52 5.38) (end 0 5.38) (layer F.Fab) (width 0.1))
  (fp_line (start 0 5.38) (end 0 4.78) (layer F.Fab) (width 0.1))
  (fp_line (start 0 7.32) (end -1.52 7.32) (layer F.Fab) (width 0.1))
  (fp_line (start -1.52 7.92) (end 0 7.92) (layer F.Fab) (width 0.1))
  (fp_line (start 0 7.92) (end 0 7.32) (layer F.Fab) (width 0.1))
  (fp_line (start 0 9.86) (end -1.52 9.86) (layer F.Fab) (width 0.1))
  (fp_line (start -1.52 10.46) (end 0 10.46) (layer F.Fab) (width 0.1))
  (fp_line (start 0 10.46) (end 0 9.86) (layer F.Fab) (width 0.1))
  (fp_line (start 0 12.4) (end -1.52 12.4) (layer F.Fab) (width 0.1))
  (fp_line (start -1.52 13) (end 0 13) (layer F.Fab) (width 0.1))
  (fp_line (start 0 13) (end 0 12.4) (layer F.Fab) (width 0.1))
  (fp_line (start 0 14.94) (end -1.52 14.94) (layer F.Fab) (width 0.1))
  (fp_line (start -1.52 15.54) (end 0 15.54) (layer F.Fab) (width 0.1))
  (fp_line (start 0 15.54) (end 0 14.94) (layer F.Fab) (width 0.1))
  (fp_line (start 0 17.48) (end -1.52 17.48) (layer F.Fab) (width 0.1))
  (fp_line (start -1.52 18.08) (end 0 18.08) (layer F.Fab) (width 0.1))
  (fp_line (start 0 18.08) (end 0 17.48) (layer F.Fab) (width 0.1))
  (fp_line (start 0 20.02) (end -1.52 20.02) (layer F.Fab) (width 0.1))
  (fp_line (start -1.52 20.62) (end 0 20.62) (layer F.Fab) (width 0.1))
  (fp_line (start 0 20.62) (end 0 20.02) (layer F.Fab) (width 0.1))
  (fp_line (start 0 22.56) (end -1.52 22.56) (layer F.Fab) (width 0.1))
  (fp_line (start -1.52 23.16) (end 0 23.16) (layer F.Fab) (width 0.1))
  (fp_line (start 0 23.16) (end 0 22.56) (layer F.Fab) (width 0.1))
  (fp_line (start 0 25.1) (end -1.52 25.1) (layer F.Fab) (width 0.1))
  (fp_line (start -1.52 25.7) (end 0 25.7) (layer F.Fab) (width 0.1))
  (fp_line (start 0 25.7) (end 0 25.1) (layer F.Fab) (width 0.1))
  (fp_line (start 0 27.64) (end -1.52 27.64) (layer F.Fab) (width 0.1))
  (fp_line (start -1.52 28.24) (end 0 28.24) (layer F.Fab) (width 0.1))
  (fp_line (start 0 28.24) (end 0 27.64) (layer F.Fab) (width 0.1))
  (fp_line (start 0 30.18) (end -1.52 30.18) (layer F.Fab) (width 0.1))
  (fp_line (start -1.52 30.78) (end 0 30.78) (layer F.Fab) (width 0.1))
  (fp_line (start 0 30.78) (end 0 30.18) (layer F.Fab) (width 0.1))
  (fp_line (start 0 32.72) (end -1.52 32.72) (layer F.Fab) (width 0.1))
  (fp_line (start -1.52 33.32) (end 0 33.32) (layer F.Fab) (width 0.1))
  (fp_line (start 0 33.32) (end 0 32.72) (layer F.Fab) (width 0.1))
  (fp_line (start 0 35.26) (end -1.52 35.26) (layer F.Fab) (width 0.1))
  (fp_line (start -1.52 35.86) (end 0 35.86) (layer F.Fab) (width 0.1))
  (fp_line (start 0 35.86) (end 0 35.26) (layer F.Fab) (width 0.1))
  (fp_line (start 0 37.8) (end -1.52 37.8) (layer F.Fab) (width 0.1))
  (fp_line (start -1.52 38.4) (end 0 38.4) (layer F.Fab) (width 0.1))
  (fp_line (start 0 38.4) (end 0 37.8) (layer F.Fab) (width 0.1))
  (fp_line (start 0 40.34) (end -1.52 40.34) (layer F.Fab) (width 0.1))
  (fp_line (start -1.52 40.94) (end 0 40.94) (layer F.Fab) (width 0.1))
  (fp_line (start 0 40.94) (end 0 40.34) (layer F.Fab) (width 0.1))
  (fp_line (start 0 42.88) (end -1.52 42.88) (layer F.Fab) (width 0.1))
  (fp_line (start -1.52 43.48) (end 0 43.48) (layer F.Fab) (width 0.1))
  (fp_line (start 0 43.48) (end 0 42.88) (layer F.Fab) (width 0.1))
  (fp_line (start 0 45.42) (end -1.52 45.42) (layer F.Fab) (width 0.1))
  (fp_line (start -1.52 46.02) (end 0 46.02) (layer F.Fab) (width 0.1))
  (fp_line (start 0 46.02) (end 0 45.42) (layer F.Fab) (width 0.1))
  (fp_line (start 0 47.96) (end -1.52 47.96) (layer F.Fab) (width 0.1))
  (fp_line (start -1.52 48.56) (end 0 48.56) (layer F.Fab) (width 0.1))
  (fp_line (start 0 48.56) (end 0 47.96) (layer F.Fab) (width 0.1))
  (fp_line (start 0 50.5) (end -1.52 50.5) (layer F.Fab) (width 0.1))
  (fp_line (start -1.52 51.1) (end 0 51.1) (layer F.Fab) (width 0.1))
  (fp_line (start 0 51.1) (end 0 50.5) (layer F.Fab) (width 0.1))
  (fp_line (start 0 53.04) (end -1.52 53.04) (layer F.Fab) (width 0.1))
  (fp_line (start -1.52 53.64) (end 0 53.64) (layer F.Fab) (width 0.1))
  (fp_line (start 0 53.64) (end 0 53.04) (layer F.Fab) (width 0.1))
  (fp_line (start 0 55.58) (end -1.52 55.58) (layer F.Fab) (width 0.1))
  (fp_line (start -1.52 56.18) (end 0 56.18) (layer F.Fab) (width 0.1))
  (fp_line (start 0 56.18) (end 0 55.58) (layer F.Fab) (width 0.1))
  (fp_line (start 0 58.12) (end -1.52 58.12) (layer F.Fab) (width 0.1))
  (fp_line (start -1.52 58.72) (end 0 58.72) (layer F.Fab) (width 0.1))
  (fp_line (start 0 58.72) (end 0 58.12) (layer F.Fab) (width 0.1))
  (fp_line (start 0 60.66) (end -1.52 60.66) (layer F.Fab) (width 0.1))
  (fp_line (start -1.52 61.26) (end 0 61.26) (layer F.Fab) (width 0.1))
  (fp_line (start 0 61.26) (end 0 60.66) (layer F.Fab) (width 0.1))
  (fp_line (start 0 63.2) (end -1.52 63.2) (layer F.Fab) (width 0.1))
  (fp_line (start -1.52 63.8) (end 0 63.8) (layer F.Fab) (width 0.1))
  (fp_line (start 0 63.8) (end 0 63.2) (layer F.Fab) (width 0.1))
  (fp_line (start 0 65.74) (end -1.52 65.74) (layer F.Fab) (width 0.1))
  (fp_line (start -1.52 66.34) (end 0 66.34) (layer F.Fab) (width 0.1))
  (fp_line (start 0 66.34) (end 0 65.74) (layer F.Fab) (width 0.1))
  (fp_line (start 0 68.28) (end -1.52 68.28) (layer F.Fab) (width 0.1))
  (fp_line (start -1.52 68.88) (end 0 68.88) (layer F.Fab) (width 0.1))
  (fp_line (start 0 68.88) (end 0 68.28) (layer F.Fab) (width 0.1))
  (fp_line (start 0 70.82) (end -1.52 70.82) (layer F.Fab) (width 0.1))
  (fp_line (start -1.52 71.42) (end 0 71.42) (layer F.Fab) (width 0.1))
  (fp_line (start 0 71.42) (end 0 70.82) (layer F.Fab) (width 0.1))
  (fp_line (start 0 73.36) (end -1.52 73.36) (layer F.Fab) (width 0.1))
  (fp_line (start -1.52 73.96) (end 0 73.96) (layer F.Fab) (width 0.1))
  (fp_line (start 0 73.96) (end 0 73.36) (layer F.Fab) (width 0.1))
  (fp_line (start 0 75.9) (end -1.52 75.9) (layer F.Fab) (width 0.1))
  (fp_line (start -1.52 76.5) (end 0 76.5) (layer F.Fab) (width 0.1))
  (fp_line (start 0 76.5) (end 0 75.9) (layer F.Fab) (width 0.1))
  (fp_line (start 0 78.44) (end -1.52 78.44) (layer F.Fab) (width 0.1))
  (fp_line (start -1.52 79.04) (end 0 79.04) (layer F.Fab) (width 0.1))
  (fp_line (start 0 79.04) (end 0 78.44) (layer F.Fab) (width 0.1))
  (fp_line (start 0 80.98) (end -1.52 80.98) (layer F.Fab) (width 0.1))
  (fp_line (start -1.52 81.58) (end 0 81.58) (layer F.Fab) (width 0.1))
  (fp_line (start 0 81.58) (end 0 80.98) (layer F.Fab) (width 0.1))
  (fp_line (start 0 83.52) (end -1.52 83.52) (layer F.Fab) (width 0.1))
  (fp_line (start -1.52 84.12) (end 0 84.12) (layer F.Fab) (width 0.1))
  (fp_line (start 0 84.12) (end 0 83.52) (layer F.Fab) (width 0.1))
  (fp_line (start 0 86.06) (end -1.52 86.06) (layer F.Fab) (width 0.1))
  (fp_line (start -1.52 86.66) (end 0 86.66) (layer F.Fab) (width 0.1))
  (fp_line (start 0 86.66) (end 0 86.06) (layer F.Fab) (width 0.1))
  (fp_line (start 0 88.6) (end -1.52 88.6) (layer F.Fab) (width 0.1))
  (fp_line (start -1.52 89.2) (end 0 89.2) (layer F.Fab) (width 0.1))
  (fp_line (start 0 89.2) (end 0 88.6) (layer F.Fab) (width 0.1))
  (fp_line (start 0 91.14) (end -1.52 91.14) (layer F.Fab) (width 0.1))
  (fp_line (start -1.52 91.74) (end 0 91.74) (layer F.Fab) (width 0.1))
  (fp_line (start 0 91.74) (end 0 91.14) (layer F.Fab) (width 0.1))
  (fp_line (start 0 93.68) (end -1.52 93.68) (layer F.Fab) (width 0.1))
  (fp_line (start -1.52 94.28) (end 0 94.28) (layer F.Fab) (width 0.1))
  (fp_line (start 0 94.28) (end 0 93.68) (layer F.Fab) (width 0.1))
  (fp_line (start -10.09 -1.21) (end -1.46 -1.21) (layer F.SilkS) (width 0.12))
  (fp_line (start -10.09 -1.091905) (end -1.46 -1.091905) (layer F.SilkS) (width 0.12))
  (fp_line (start -10.09 -0.97381) (end -1.46 -0.97381) (layer F.SilkS) (width 0.12))
  (fp_line (start -10.09 -0.855715) (end -1.46 -0.855715) (layer F.SilkS) (width 0.12))
  (fp_line (start -10.09 -0.73762) (end -1.46 -0.73762) (layer F.SilkS) (width 0.12))
  (fp_line (start -10.09 -0.619525) (end -1.46 -0.619525) (layer F.SilkS) (width 0.12))
  (fp_line (start -10.09 -0.50143) (end -1.46 -0.50143) (layer F.SilkS) (width 0.12))
  (fp_line (start -10.09 -0.383335) (end -1.46 -0.383335) (layer F.SilkS) (width 0.12))
  (fp_line (start -10.09 -0.26524) (end -1.46 -0.26524) (layer F.SilkS) (width 0.12))
  (fp_line (start -10.09 -0.147145) (end -1.46 -0.147145) (layer F.SilkS) (width 0.12))
  (fp_line (start -10.09 -0.02905) (end -1.46 -0.02905) (layer F.SilkS) (width 0.12))
  (fp_line (start -10.09 0.089045) (end -1.46 0.089045) (layer F.SilkS) (width 0.12))
  (fp_line (start -10.09 0.20714) (end -1.46 0.20714) (layer F.SilkS) (width 0.12))
  (fp_line (start -10.09 0.325235) (end -1.46 0.325235) (layer F.SilkS) (width 0.12))
  (fp_line (start -10.09 0.44333) (end -1.46 0.44333) (layer F.SilkS) (width 0.12))
  (fp_line (start -10.09 0.561425) (end -1.46 0.561425) (layer F.SilkS) (width 0.12))
  (fp_line (start -10.09 0.67952) (end -1.46 0.67952) (layer F.SilkS) (width 0.12))
  (fp_line (start -10.09 0.797615) (end -1.46 0.797615) (layer F.SilkS) (width 0.12))
  (fp_line (start -10.09 0.91571) (end -1.46 0.91571) (layer F.SilkS) (width 0.12))
  (fp_line (start -10.09 1.033805) (end -1.46 1.033805) (layer F.SilkS) (width 0.12))
  (fp_line (start -10.09 1.1519) (end -1.46 1.1519) (layer F.SilkS) (width 0.12))
  (fp_line (start -1.46 -0.36) (end -1.11 -0.36) (layer F.SilkS) (width 0.12))
  (fp_line (start -1.46 0.36) (end -1.11 0.36) (layer F.SilkS) (width 0.12))
  (fp_line (start -1.46 2.18) (end -1.05 2.18) (layer F.SilkS) (width 0.12))
  (fp_line (start -1.46 2.9) (end -1.05 2.9) (layer F.SilkS) (width 0.12))
  (fp_line (start -1.46 4.72) (end -1.05 4.72) (layer F.SilkS) (width 0.12))
  (fp_line (start -1.46 5.44) (end -1.05 5.44) (layer F.SilkS) (width 0.12))
  (fp_line (start -1.46 7.26) (end -1.05 7.26) (layer F.SilkS) (width 0.12))
  (fp_line (start -1.46 7.98) (end -1.05 7.98) (layer F.SilkS) (width 0.12))
  (fp_line (start -1.46 9.8) (end -1.05 9.8) (layer F.SilkS) (width 0.12))
  (fp_line (start -1.46 10.52) (end -1.05 10.52) (layer F.SilkS) (width 0.12))
  (fp_line (start -1.46 12.34) (end -1.05 12.34) (layer F.SilkS) (width 0.12))
  (fp_line (start -1.46 13.06) (end -1.05 13.06) (layer F.SilkS) (width 0.12))
  (fp_line (start -1.46 14.88) (end -1.05 14.88) (layer F.SilkS) (width 0.12))
  (fp_line (start -1.46 15.6) (end -1.05 15.6) (layer F.SilkS) (width 0.12))
  (fp_line (start -1.46 17.42) (end -1.05 17.42) (layer F.SilkS) (width 0.12))
  (fp_line (start -1.46 18.14) (end -1.05 18.14) (layer F.SilkS) (width 0.12))
  (fp_line (start -1.46 19.96) (end -1.05 19.96) (layer F.SilkS) (width 0.12))
  (fp_line (start -1.46 20.68) (end -1.05 20.68) (layer F.SilkS) (width 0.12))
  (fp_line (start -1.46 22.5) (end -1.05 22.5) (layer F.SilkS) (width 0.12))
  (fp_line (start -1.46 23.22) (end -1.05 23.22) (layer F.SilkS) (width 0.12))
  (fp_line (start -1.46 25.04) (end -1.05 25.04) (layer F.SilkS) (width 0.12))
  (fp_line (start -1.46 25.76) (end -1.05 25.76) (layer F.SilkS) (width 0.12))
  (fp_line (start -1.46 27.58) (end -1.05 27.58) (layer F.SilkS) (width 0.12))
  (fp_line (start -1.46 28.3) (end -1.05 28.3) (layer F.SilkS) (width 0.12))
  (fp_line (start -1.46 30.12) (end -1.05 30.12) (layer F.SilkS) (width 0.12))
  (fp_line (start -1.46 30.84) (end -1.05 30.84) (layer F.SilkS) (width 0.12))
  (fp_line (start -1.46 32.66) (end -1.05 32.66) (layer F.SilkS) (width 0.12))
  (fp_line (start -1.46 33.38) (end -1.05 33.38) (layer F.SilkS) (width 0.12))
  (fp_line (start -1.46 35.2) (end -1.05 35.2) (layer F.SilkS) (width 0.12))
  (fp_line (start -1.46 35.92) (end -1.05 35.92) (layer F.SilkS) (width 0.12))
  (fp_line (start -1.46 37.74) (end -1.05 37.74) (layer F.SilkS) (width 0.12))
  (fp_line (start -1.46 38.46) (end -1.05 38.46) (layer F.SilkS) (width 0.12))
  (fp_line (start -1.46 40.28) (end -1.05 40.28) (layer F.SilkS) (width 0.12))
  (fp_line (start -1.46 41) (end -1.05 41) (layer F.SilkS) (width 0.12))
  (fp_line (start -1.46 42.82) (end -1.05 42.82) (layer F.SilkS) (width 0.12))
  (fp_line (start -1.46 43.54) (end -1.05 43.54) (layer F.SilkS) (width 0.12))
  (fp_line (start -1.46 45.36) (end -1.05 45.36) (layer F.SilkS) (width 0.12))
  (fp_line (start -1.46 46.08) (end -1.05 46.08) (layer F.SilkS) (width 0.12))
  (fp_line (start -1.46 47.9) (end -1.05 47.9) (layer F.SilkS) (width 0.12))
  (fp_line (start -1.46 48.62) (end -1.05 48.62) (layer F.SilkS) (width 0.12))
  (fp_line (start -1.46 50.44) (end -1.05 50.44) (layer F.SilkS) (width 0.12))
  (fp_line (start -1.46 51.16) (end -1.05 51.16) (layer F.SilkS) (width 0.12))
  (fp_line (start -1.46 52.98) (end -1.05 52.98) (layer F.SilkS) (width 0.12))
  (fp_line (start -1.46 53.7) (end -1.05 53.7) (layer F.SilkS) (width 0.12))
  (fp_line (start -1.46 55.52) (end -1.05 55.52) (layer F.SilkS) (width 0.12))
  (fp_line (start -1.46 56.24) (end -1.05 56.24) (layer F.SilkS) (width 0.12))
  (fp_line (start -1.46 58.06) (end -1.05 58.06) (layer F.SilkS) (width 0.12))
  (fp_line (start -1.46 58.78) (end -1.05 58.78) (layer F.SilkS) (width 0.12))
  (fp_line (start -1.46 60.6) (end -1.05 60.6) (layer F.SilkS) (width 0.12))
  (fp_line (start -1.46 61.32) (end -1.05 61.32) (layer F.SilkS) (width 0.12))
  (fp_line (start -1.46 63.14) (end -1.05 63.14) (layer F.SilkS) (width 0.12))
  (fp_line (start -1.46 63.86) (end -1.05 63.86) (layer F.SilkS) (width 0.12))
  (fp_line (start -1.46 65.68) (end -1.05 65.68) (layer F.SilkS) (width 0.12))
  (fp_line (start -1.46 66.4) (end -1.05 66.4) (layer F.SilkS) (width 0.12))
  (fp_line (start -1.46 68.22) (end -1.05 68.22) (layer F.SilkS) (width 0.12))
  (fp_line (start -1.46 68.94) (end -1.05 68.94) (layer F.SilkS) (width 0.12))
  (fp_line (start -1.46 70.76) (end -1.05 70.76) (layer F.SilkS) (width 0.12))
  (fp_line (start -1.46 71.48) (end -1.05 71.48) (layer F.SilkS) (width 0.12))
  (fp_line (start -1.46 73.3) (end -1.05 73.3) (layer F.SilkS) (width 0.12))
  (fp_line (start -1.46 74.02) (end -1.05 74.02) (layer F.SilkS) (width 0.12))
  (fp_line (start -1.46 75.84) (end -1.05 75.84) (layer F.SilkS) (width 0.12))
  (fp_line (start -1.46 76.56) (end -1.05 76.56) (layer F.SilkS) (width 0.12))
  (fp_line (start -1.46 78.38) (end -1.05 78.38) (layer F.SilkS) (width 0.12))
  (fp_line (start -1.46 79.1) (end -1.05 79.1) (layer F.SilkS) (width 0.12))
  (fp_line (start -1.46 80.92) (end -1.05 80.92) (layer F.SilkS) (width 0.12))
  (fp_line (start -1.46 81.64) (end -1.05 81.64) (layer F.SilkS) (width 0.12))
  (fp_line (start -1.46 83.46) (end -1.05 83.46) (layer F.SilkS) (width 0.12))
  (fp_line (start -1.46 84.18) (end -1.05 84.18) (layer F.SilkS) (width 0.12))
  (fp_line (start -1.46 86) (end -1.05 86) (layer F.SilkS) (width 0.12))
  (fp_line (start -1.46 86.72) (end -1.05 86.72) (layer F.SilkS) (width 0.12))
  (fp_line (start -1.46 88.54) (end -1.05 88.54) (layer F.SilkS) (width 0.12))
  (fp_line (start -1.46 89.26) (end -1.05 89.26) (layer F.SilkS) (width 0.12))
  (fp_line (start -1.46 91.08) (end -1.05 91.08) (layer F.SilkS) (width 0.12))
  (fp_line (start -1.46 91.8) (end -1.05 91.8) (layer F.SilkS) (width 0.12))
  (fp_line (start -1.46 93.62) (end -1.05 93.62) (layer F.SilkS) (width 0.12))
  (fp_line (start -1.46 94.34) (end -1.05 94.34) (layer F.SilkS) (width 0.12))
  (fp_line (start -10.09 1.27) (end -1.46 1.27) (layer F.SilkS) (width 0.12))
  (fp_line (start -10.09 3.81) (end -1.46 3.81) (layer F.SilkS) (width 0.12))
  (fp_line (start -10.09 6.35) (end -1.46 6.35) (layer F.SilkS) (width 0.12))
  (fp_line (start -10.09 8.89) (end -1.46 8.89) (layer F.SilkS) (width 0.12))
  (fp_line (start -10.09 11.43) (end -1.46 11.43) (layer F.SilkS) (width 0.12))
  (fp_line (start -10.09 13.97) (end -1.46 13.97) (layer F.SilkS) (width 0.12))
  (fp_line (start -10.09 16.51) (end -1.46 16.51) (layer F.SilkS) (width 0.12))
  (fp_line (start -10.09 19.05) (end -1.46 19.05) (layer F.SilkS) (width 0.12))
  (fp_line (start -10.09 21.59) (end -1.46 21.59) (layer F.SilkS) (width 0.12))
  (fp_line (start -10.09 24.13) (end -1.46 24.13) (layer F.SilkS) (width 0.12))
  (fp_line (start -10.09 26.67) (end -1.46 26.67) (layer F.SilkS) (width 0.12))
  (fp_line (start -10.09 29.21) (end -1.46 29.21) (layer F.SilkS) (width 0.12))
  (fp_line (start -10.09 31.75) (end -1.46 31.75) (layer F.SilkS) (width 0.12))
  (fp_line (start -10.09 34.29) (end -1.46 34.29) (layer F.SilkS) (width 0.12))
  (fp_line (start -10.09 36.83) (end -1.46 36.83) (layer F.SilkS) (width 0.12))
  (fp_line (start -10.09 39.37) (end -1.46 39.37) (layer F.SilkS) (width 0.12))
  (fp_line (start -10.09 41.91) (end -1.46 41.91) (layer F.SilkS) (width 0.12))
  (fp_line (start -10.09 44.45) (end -1.46 44.45) (layer F.SilkS) (width 0.12))
  (fp_line (start -10.09 46.99) (end -1.46 46.99) (layer F.SilkS) (width 0.12))
  (fp_line (start -10.09 49.53) (end -1.46 49.53) (layer F.SilkS) (width 0.12))
  (fp_line (start -10.09 52.07) (end -1.46 52.07) (layer F.SilkS) (width 0.12))
  (fp_line (start -10.09 54.61) (end -1.46 54.61) (layer F.SilkS) (width 0.12))
  (fp_line (start -10.09 57.15) (end -1.46 57.15) (layer F.SilkS) (width 0.12))
  (fp_line (start -10.09 59.69) (end -1.46 59.69) (layer F.SilkS) (width 0.12))
  (fp_line (start -10.09 62.23) (end -1.46 62.23) (layer F.SilkS) (width 0.12))
  (fp_line (start -10.09 64.77) (end -1.46 64.77) (layer F.SilkS) (width 0.12))
  (fp_line (start -10.09 67.31) (end -1.46 67.31) (layer F.SilkS) (width 0.12))
  (fp_line (start -10.09 69.85) (end -1.46 69.85) (layer F.SilkS) (width 0.12))
  (fp_line (start -10.09 72.39) (end -1.46 72.39) (layer F.SilkS) (width 0.12))
  (fp_line (start -10.09 74.93) (end -1.46 74.93) (layer F.SilkS) (width 0.12))
  (fp_line (start -10.09 77.47) (end -1.46 77.47) (layer F.SilkS) (width 0.12))
  (fp_line (start -10.09 80.01) (end -1.46 80.01) (layer F.SilkS) (width 0.12))
  (fp_line (start -10.09 82.55) (end -1.46 82.55) (layer F.SilkS) (width 0.12))
  (fp_line (start -10.09 85.09) (end -1.46 85.09) (layer F.SilkS) (width 0.12))
  (fp_line (start -10.09 87.63) (end -1.46 87.63) (layer F.SilkS) (width 0.12))
  (fp_line (start -10.09 90.17) (end -1.46 90.17) (layer F.SilkS) (width 0.12))
  (fp_line (start -10.09 92.71) (end -1.46 92.71) (layer F.SilkS) (width 0.12))
  (fp_line (start -10.09 -1.33) (end -1.46 -1.33) (layer F.SilkS) (width 0.12))
  (fp_line (start -1.46 -1.33) (end -1.46 95.31) (layer F.SilkS) (width 0.12))
  (fp_line (start -10.09 95.31) (end -1.46 95.31) (layer F.SilkS) (width 0.12))
  (fp_line (start -10.09 -1.33) (end -10.09 95.31) (layer F.SilkS) (width 0.12))
  (fp_line (start 1.11 -1.33) (end 1.11 0) (layer F.SilkS) (width 0.12))
  (fp_line (start 0 -1.33) (end 1.11 -1.33) (layer F.SilkS) (width 0.12))
  (fp_line (start 1.75 -1.8) (end -10.55 -1.8) (layer F.CrtYd) (width 0.05))
  (fp_line (start -10.55 -1.8) (end -10.55 95.8) (layer F.CrtYd) (width 0.05))
  (fp_line (start -10.55 95.8) (end 1.75 95.8) (layer F.CrtYd) (width 0.05))
  (fp_line (start 1.75 95.8) (end 1.75 -1.8) (layer F.CrtYd) (width 0.05))
  (pad 1 thru_hole rect (at 0 0) (size 1.7 1.7) (drill 1) (layers *.Cu *.Mask))
  (pad 2 thru_hole oval (at 0 2.54) (size 1.7 1.7) (drill 1) (layers *.Cu *.Mask))
  (pad 3 thru_hole oval (at 0 5.08) (size 1.7 1.7) (drill 1) (layers *.Cu *.Mask))
  (pad 4 thru_hole oval (at 0 7.62) (size 1.7 1.7) (drill 1) (layers *.Cu *.Mask))
  (pad 5 thru_hole oval (at 0 10.16) (size 1.7 1.7) (drill 1) (layers *.Cu *.Mask))
  (pad 6 thru_hole oval (at 0 12.7) (size 1.7 1.7) (drill 1) (layers *.Cu *.Mask))
  (pad 7 thru_hole oval (at 0 15.24) (size 1.7 1.7) (drill 1) (layers *.Cu *.Mask))
  (pad 8 thru_hole oval (at 0 17.78) (size 1.7 1.7) (drill 1) (layers *.Cu *.Mask))
  (pad 9 thru_hole oval (at 0 20.32) (size 1.7 1.7) (drill 1) (layers *.Cu *.Mask))
  (pad 10 thru_hole oval (at 0 22.86) (size 1.7 1.7) (drill 1) (layers *.Cu *.Mask))
  (pad 11 thru_hole oval (at 0 25.4) (size 1.7 1.7) (drill 1) (layers *.Cu *.Mask))
  (pad 12 thru_hole oval (at 0 27.94) (size 1.7 1.7) (drill 1) (layers *.Cu *.Mask))
  (pad 13 thru_hole oval (at 0 30.48) (size 1.7 1.7) (drill 1) (layers *.Cu *.Mask))
  (pad 14 thru_hole oval (at 0 33.02) (size 1.7 1.7) (drill 1) (layers *.Cu *.Mask))
  (pad 15 thru_hole oval (at 0 35.56) (size 1.7 1.7) (drill 1) (layers *.Cu *.Mask))
  (pad 16 thru_hole oval (at 0 38.1) (size 1.7 1.7) (drill 1) (layers *.Cu *.Mask))
  (pad 17 thru_hole oval (at 0 40.64) (size 1.7 1.7) (drill 1) (layers *.Cu *.Mask))
  (pad 18 thru_hole oval (at 0 43.18) (size 1.7 1.7) (drill 1) (layers *.Cu *.Mask))
  (pad 19 thru_hole oval (at 0 45.72) (size 1.7 1.7) (drill 1) (layers *.Cu *.Mask))
  (pad 20 thru_hole oval (at 0 48.26) (size 1.7 1.7) (drill 1) (layers *.Cu *.Mask))
  (pad 21 thru_hole oval (at 0 50.8) (size 1.7 1.7) (drill 1) (layers *.Cu *.Mask))
  (pad 22 thru_hole oval (at 0 53.34) (size 1.7 1.7) (drill 1) (layers *.Cu *.Mask))
  (pad 23 thru_hole oval (at 0 55.88) (size 1.7 1.7) (drill 1) (layers *.Cu *.Mask))
  (pad 24 thru_hole oval (at 0 58.42) (size 1.7 1.7) (drill 1) (layers *.Cu *.Mask))
  (pad 25 thru_hole oval (at 0 60.96) (size 1.7 1.7) (drill 1) (layers *.Cu *.Mask))
  (pad 26 thru_hole oval (at 0 63.5) (size 1.7 1.7) (drill 1) (layers *.Cu *.Mask))
  (pad 27 thru_hole oval (at 0 66.04) (size 1.7 1.7) (drill 1) (layers *.Cu *.Mask))
  (pad 28 thru_hole oval (at 0 68.58) (size 1.7 1.7) (drill 1) (layers *.Cu *.Mask))
  (pad 29 thru_hole oval (at 0 71.12) (size 1.7 1.7) (drill 1) (layers *.Cu *.Mask))
  (pad 30 thru_hole oval (at 0 73.66) (size 1.7 1.7) (drill 1) (layers *.Cu *.Mask))
  (pad 31 thru_hole oval (at 0 76.2) (size 1.7 1.7) (drill 1) (layers *.Cu *.Mask))
  (pad 32 thru_hole oval (at 0 78.74) (size 1.7 1.7) (drill 1) (layers *.Cu *.Mask))
  (pad 33 thru_hole oval (at 0 81.28) (size 1.7 1.7) (drill 1) (layers *.Cu *.Mask))
  (pad 34 thru_hole oval (at 0 83.82) (size 1.7 1.7) (drill 1) (layers *.Cu *.Mask))
  (pad 35 thru_hole oval (at 0 86.36) (size 1.7 1.7) (drill 1) (layers *.Cu *.Mask))
  (pad 36 thru_hole oval (at 0 88.9) (size 1.7 1.7) (drill 1) (layers *.Cu *.Mask))
  (pad 37 thru_hole oval (at 0 91.44) (size 1.7 1.7) (drill 1) (layers *.Cu *.Mask))
  (pad 38 thru_hole oval (at 0 93.98) (size 1.7 1.7) (drill 1) (layers *.Cu *.Mask))
  (fp_text user %R (at -5.775 46.99 90) (layer F.Fab)
    (effects (font (size 1 1) (thickness 0.15)))
  )
  (model ${KICAD6_3DMODEL_DIR}/Connector_PinSocket_2.54mm.3dshapes/PinSocket_1x38_P2.54mm_Horizontal.wrl
    (at (xyz 0 0 0))
    (scale (xyz 1 1 1))
    (rotate (xyz 0 0 0))
  )
)