(module PinSocket_1x05_P2.54mm_Vertical_SMD_Pin1Left (layer F.Cu) (tedit 5A19A420)
  (descr "surface-mounted straight socket strip, 1x05, 2.54mm pitch, single row, style 1 (pin 1 left) (https://cdn.harwin.com/pdfs/M20-786.pdf), script generated")
  (tags "Surface mounted socket strip SMD 1x05 2.54mm single row style1 pin1 left")
  (attr smd)
  (fp_text reference REF** (at 0 -7.95) (layer F.SilkS)
    (effects (font (size 1 1) (thickness 0.15)))
  )
  (fp_text value PinSocket_1x05_P2.54mm_Vertical_SMD_Pin1Left (at 0 7.95) (layer F.Fab)
    (effects (font (size 1 1) (thickness 0.15)))
  )
  (fp_line (start -1.33 -6.51) (end 1.33 -6.51) (layer F.SilkS) (width 0.12))
  (fp_line (start 1.33 -6.51) (end 1.33 -3.3) (layer F.SilkS) (width 0.12))
  (fp_line (start 1.33 -1.78) (end 1.33 1.78) (layer F.SilkS) (width 0.12))
  (fp_line (start 1.33 3.3) (end 1.33 6.51) (layer F.SilkS) (width 0.12))
  (fp_line (start -1.33 6.51) (end 1.33 6.51) (layer F.SilkS) (width 0.12))
  (fp_line (start -1.33 -6.51) (end -1.33 -5.84) (layer F.SilkS) (width 0.12))
  (fp_line (start -1.33 -4.32) (end -1.33 -0.76) (layer F.SilkS) (width 0.12))
  (fp_line (start -1.33 0.76) (end -1.33 4.32) (layer F.SilkS) (width 0.12))
  (fp_line (start -1.33 5.84) (end -1.33 6.51) (layer F.SilkS) (width 0.12))
  (fp_line (start -2.54 -5.84) (end -1.33 -5.84) (layer F.SilkS) (width 0.12))
  (fp_line (start -0.635 -6.45) (end 1.27 -6.45) (layer F.Fab) (width 0.1))
  (fp_line (start 1.27 -6.45) (end 1.27 6.45) (layer F.Fab) (width 0.1))
  (fp_line (start 1.27 6.45) (end -1.27 6.45) (layer F.Fab) (width 0.1))
  (fp_line (start -1.27 6.45) (end -1.27 -5.815) (layer F.Fab) (width 0.1))
  (fp_line (start -1.27 -5.815) (end -0.635 -6.45) (layer F.Fab) (width 0.1))
  (fp_line (start -2.27 -5.38) (end -1.27 -5.38) (layer F.Fab) (width 0.1))
  (fp_line (start -1.27 -4.78) (end -2.27 -4.78) (layer F.Fab) (width 0.1))
  (fp_line (start -2.27 -4.78) (end -2.27 -5.38) (layer F.Fab) (width 0.1))
  (fp_line (start 1.27 -2.84) (end 2.27 -2.84) (layer F.Fab) (width 0.1))
  (fp_line (start 2.27 -2.84) (end 2.27 -2.24) (layer F.Fab) (width 0.1))
  (fp_line (start 2.27 -2.24) (end 1.27 -2.24) (layer F.Fab) (width 0.1))
  (fp_line (start -2.27 -0.3) (end -1.27 -0.3) (layer F.Fab) (width 0.1))
  (fp_line (start -1.27 0.3) (end -2.27 0.3) (layer F.Fab) (width 0.1))
  (fp_line (start -2.27 0.3) (end -2.27 -0.3) (layer F.Fab) (width 0.1))
  (fp_line (start 1.27 2.24) (end 2.27 2.24) (layer F.Fab) (width 0.1))
  (fp_line (start 2.27 2.24) (end 2.27 2.84) (layer F.Fab) (width 0.1))
  (fp_line (start 2.27 2.84) (end 1.27 2.84) (layer F.Fab) (width 0.1))
  (fp_line (start -2.27 4.78) (end -1.27 4.78) (layer F.Fab) (width 0.1))
  (fp_line (start -1.27 5.38) (end -2.27 5.38) (layer F.Fab) (width 0.1))
  (fp_line (start -2.27 5.38) (end -2.27 4.78) (layer F.Fab) (width 0.1))
  (fp_line (start -3.1 -6.95) (end 3.1 -6.95) (layer F.CrtYd) (width 0.05))
  (fp_line (start 3.1 -6.95) (end 3.1 6.95) (layer F.CrtYd) (width 0.05))
  (fp_line (start 3.1 6.95) (end -3.1 6.95) (layer F.CrtYd) (width 0.05))
  (fp_line (start -3.1 6.95) (end -3.1 -6.95) (layer F.CrtYd) (width 0.05))
  (pad 1 smd rect (at -1.65 -5.08) (size 1.9 1) (layers F.Cu F.Mask F.Paste))
  (pad 3 smd rect (at -1.65 0) (size 1.9 1) (layers F.Cu F.Mask F.Paste))
  (pad 5 smd rect (at -1.65 5.08) (size 1.9 1) (layers F.Cu F.Mask F.Paste))
  (pad 2 smd rect (at 1.65 -2.54) (size 1.9 1) (layers F.Cu F.Mask F.Paste))
  (pad 4 smd rect (at 1.65 2.54) (size 1.9 1) (layers F.Cu F.Mask F.Paste))
  (fp_text user %R (at 0 0 90) (layer F.Fab)
    (effects (font (size 1 1) (thickness 0.15)))
  )
  (model ${KICAD6_3DMODEL_DIR}/Connector_PinSocket_2.54mm.3dshapes/PinSocket_1x05_P2.54mm_Vertical_SMD_Pin1Left.wrl
    (at (xyz 0 0 0))
    (scale (xyz 1 1 1))
    (rotate (xyz 0 0 0))
  )
)