(module PinSocket_1x28_P2.54mm_Vertical_SMD_Pin1Left (layer F.Cu) (tedit 5A19A427)
  (descr "surface-mounted straight socket strip, 1x28, 2.54mm pitch, single row, style 1 (pin 1 left) (https://cdn.harwin.com/pdfs/M20-786.pdf), script generated")
  (tags "Surface mounted socket strip SMD 1x28 2.54mm single row style1 pin1 left")
  (attr smd)
  (fp_text reference REF** (at 0 -37.16) (layer F.SilkS)
    (effects (font (size 1 1) (thickness 0.15)))
  )
  (fp_text value PinSocket_1x28_P2.54mm_Vertical_SMD_Pin1Left (at 0 37.16) (layer F.Fab)
    (effects (font (size 1 1) (thickness 0.15)))
  )
  (fp_line (start -1.33 -35.72) (end 1.33 -35.72) (layer F.SilkS) (width 0.12))
  (fp_line (start 1.33 -35.72) (end 1.33 -32.51) (layer F.SilkS) (width 0.12))
  (fp_line (start 1.33 -30.99) (end 1.33 -27.43) (layer F.SilkS) (width 0.12))
  (fp_line (start 1.33 -25.91) (end 1.33 -22.35) (layer F.SilkS) (width 0.12))
  (fp_line (start 1.33 -20.83) (end 1.33 -17.27) (layer F.SilkS) (width 0.12))
  (fp_line (start 1.33 -15.75) (end 1.33 -12.19) (layer F.SilkS) (width 0.12))
  (fp_line (start 1.33 -10.67) (end 1.33 -7.11) (layer F.SilkS) (width 0.12))
  (fp_line (start 1.33 -5.59) (end 1.33 -2.03) (layer F.SilkS) (width 0.12))
  (fp_line (start 1.33 -0.51) (end 1.33 3.05) (layer F.SilkS) (width 0.12))
  (fp_line (start 1.33 4.57) (end 1.33 8.13) (layer F.SilkS) (width 0.12))
  (fp_line (start 1.33 9.65) (end 1.33 13.21) (layer F.SilkS) (width 0.12))
  (fp_line (start 1.33 14.73) (end 1.33 18.29) (layer F.SilkS) (width 0.12))
  (fp_line (start 1.33 19.81) (end 1.33 23.37) (layer F.SilkS) (width 0.12))
  (fp_line (start 1.33 24.89) (end 1.33 28.45) (layer F.SilkS) (width 0.12))
  (fp_line (start 1.33 29.97) (end 1.33 33.53) (layer F.SilkS) (width 0.12))
  (fp_line (start 1.33 35.05) (end 1.33 35.72) (layer F.SilkS) (width 0.12))
  (fp_line (start -1.33 35.72) (end 1.33 35.72) (layer F.SilkS) (width 0.12))
  (fp_line (start -1.33 -35.72) (end -1.33 -35.05) (layer F.SilkS) (width 0.12))
  (fp_line (start -1.33 -33.53) (end -1.33 -29.97) (layer F.SilkS) (width 0.12))
  (fp_line (start -1.33 -28.45) (end -1.33 -24.89) (layer F.SilkS) (width 0.12))
  (fp_line (start -1.33 -23.37) (end -1.33 -19.81) (layer F.SilkS) (width 0.12))
  (fp_line (start -1.33 -18.29) (end -1.33 -14.73) (layer F.SilkS) (width 0.12))
  (fp_line (start -1.33 -13.21) (end -1.33 -9.65) (layer F.SilkS) (width 0.12))
  (fp_line (start -1.33 -8.13) (end -1.33 -4.57) (layer F.SilkS) (width 0.12))
  (fp_line (start -1.33 -3.05) (end -1.33 0.51) (layer F.SilkS) (width 0.12))
  (fp_line (start -1.33 2.03) (end -1.33 5.59) (layer F.SilkS) (width 0.12))
  (fp_line (start -1.33 7.11) (end -1.33 10.67) (layer F.SilkS) (width 0.12))
  (fp_line (start -1.33 12.19) (end -1.33 15.75) (layer F.SilkS) (width 0.12))
  (fp_line (start -1.33 17.27) (end -1.33 20.83) (layer F.SilkS) (width 0.12))
  (fp_line (start -1.33 22.35) (end -1.33 25.91) (layer F.SilkS) (width 0.12))
  (fp_line (start -1.33 27.43) (end -1.33 30.99) (layer F.SilkS) (width 0.12))
  (fp_line (start -1.33 32.51) (end -1.33 35.72) (layer F.SilkS) (width 0.12))
  (fp_line (start -2.54 -35.05) (end -1.33 -35.05) (layer F.SilkS) (width 0.12))
  (fp_line (start -0.635 -35.66) (end 1.27 -35.66) (layer F.Fab) (width 0.1))
  (fp_line (start 1.27 -35.66) (end 1.27 35.66) (layer F.Fab) (width 0.1))
  (fp_line (start 1.27 35.66) (end -1.27 35.66) (layer F.Fab) (width 0.1))
  (fp_line (start -1.27 35.66) (end -1.27 -35.025) (layer F.Fab) (width 0.1))
  (fp_line (start -1.27 -35.025) (end -0.635 -35.66) (layer F.Fab) (width 0.1))
  (fp_line (start -2.27 -34.59) (end -1.27 -34.59) (layer F.Fab) (width 0.1))
  (fp_line (start -1.27 -33.99) (end -2.27 -33.99) (layer F.Fab) (width 0.1))
  (fp_line (start -2.27 -33.99) (end -2.27 -34.59) (layer F.Fab) (width 0.1))
  (fp_line (start 1.27 -32.05) (end 2.27 -32.05) (layer F.Fab) (width 0.1))
  (fp_line (start 2.27 -32.05) (end 2.27 -31.45) (layer F.Fab) (width 0.1))
  (fp_line (start 2.27 -31.45) (end 1.27 -31.45) (layer F.Fab) (width 0.1))
  (fp_line (start -2.27 -29.51) (end -1.27 -29.51) (layer F.Fab) (width 0.1))
  (fp_line (start -1.27 -28.91) (end -2.27 -28.91) (layer F.Fab) (width 0.1))
  (fp_line (start -2.27 -28.91) (end -2.27 -29.51) (layer F.Fab) (width 0.1))
  (fp_line (start 1.27 -26.97) (end 2.27 -26.97) (layer F.Fab) (width 0.1))
  (fp_line (start 2.27 -26.97) (end 2.27 -26.37) (layer F.Fab) (width 0.1))
  (fp_line (start 2.27 -26.37) (end 1.27 -26.37) (layer F.Fab) (width 0.1))
  (fp_line (start -2.27 -24.43) (end -1.27 -24.43) (layer F.Fab) (width 0.1))
  (fp_line (start -1.27 -23.83) (end -2.27 -23.83) (layer F.Fab) (width 0.1))
  (fp_line (start -2.27 -23.83) (end -2.27 -24.43) (layer F.Fab) (width 0.1))
  (fp_line (start 1.27 -21.89) (end 2.27 -21.89) (layer F.Fab) (width 0.1))
  (fp_line (start 2.27 -21.89) (end 2.27 -21.29) (layer F.Fab) (width 0.1))
  (fp_line (start 2.27 -21.29) (end 1.27 -21.29) (layer F.Fab) (width 0.1))
  (fp_line (start -2.27 -19.35) (end -1.27 -19.35) (layer F.Fab) (width 0.1))
  (fp_line (start -1.27 -18.75) (end -2.27 -18.75) (layer F.Fab) (width 0.1))
  (fp_line (start -2.27 -18.75) (end -2.27 -19.35) (layer F.Fab) (width 0.1))
  (fp_line (start 1.27 -16.81) (end 2.27 -16.81) (layer F.Fab) (width 0.1))
  (fp_line (start 2.27 -16.81) (end 2.27 -16.21) (layer F.Fab) (width 0.1))
  (fp_line (start 2.27 -16.21) (end 1.27 -16.21) (layer F.Fab) (width 0.1))
  (fp_line (start -2.27 -14.27) (end -1.27 -14.27) (layer F.Fab) (width 0.1))
  (fp_line (start -1.27 -13.67) (end -2.27 -13.67) (layer F.Fab) (width 0.1))
  (fp_line (start -2.27 -13.67) (end -2.27 -14.27) (layer F.Fab) (width 0.1))
  (fp_line (start 1.27 -11.73) (end 2.27 -11.73) (layer F.Fab) (width 0.1))
  (fp_line (start 2.27 -11.73) (end 2.27 -11.13) (layer F.Fab) (width 0.1))
  (fp_line (start 2.27 -11.13) (end 1.27 -11.13) (layer F.Fab) (width 0.1))
  (fp_line (start -2.27 -9.19) (end -1.27 -9.19) (layer F.Fab) (width 0.1))
  (fp_line (start -1.27 -8.59) (end -2.27 -8.59) (layer F.Fab) (width 0.1))
  (fp_line (start -2.27 -8.59) (end -2.27 -9.19) (layer F.Fab) (width 0.1))
  (fp_line (start 1.27 -6.65) (end 2.27 -6.65) (layer F.Fab) (width 0.1))
  (fp_line (start 2.27 -6.65) (end 2.27 -6.05) (layer F.Fab) (width 0.1))
  (fp_line (start 2.27 -6.05) (end 1.27 -6.05) (layer F.Fab) (width 0.1))
  (fp_line (start -2.27 -4.11) (end -1.27 -4.11) (layer F.Fab) (width 0.1))
  (fp_line (start -1.27 -3.51) (end -2.27 -3.51) (layer F.Fab) (width 0.1))
  (fp_line (start -2.27 -3.51) (end -2.27 -4.11) (layer F.Fab) (width 0.1))
  (fp_line (start 1.27 -1.57) (end 2.27 -1.57) (layer F.Fab) (width 0.1))
  (fp_line (start 2.27 -1.57) (end 2.27 -0.97) (layer F.Fab) (width 0.1))
  (fp_line (start 2.27 -0.97) (end 1.27 -0.97) (layer F.Fab) (width 0.1))
  (fp_line (start -2.27 0.97) (end -1.27 0.97) (layer F.Fab) (width 0.1))
  (fp_line (start -1.27 1.57) (end -2.27 1.57) (layer F.Fab) (width 0.1))
  (fp_line (start -2.27 1.57) (end -2.27 0.97) (layer F.Fab) (width 0.1))
  (fp_line (start 1.27 3.51) (end 2.27 3.51) (layer F.Fab) (width 0.1))
  (fp_line (start 2.27 3.51) (end 2.27 4.11) (layer F.Fab) (width 0.1))
  (fp_line (start 2.27 4.11) (end 1.27 4.11) (layer F.Fab) (width 0.1))
  (fp_line (start -2.27 6.05) (end -1.27 6.05) (layer F.Fab) (width 0.1))
  (fp_line (start -1.27 6.65) (end -2.27 6.65) (layer F.Fab) (width 0.1))
  (fp_line (start -2.27 6.65) (end -2.27 6.05) (layer F.Fab) (width 0.1))
  (fp_line (start 1.27 8.59) (end 2.27 8.59) (layer F.Fab) (width 0.1))
  (fp_line (start 2.27 8.59) (end 2.27 9.19) (layer F.Fab) (width 0.1))
  (fp_line (start 2.27 9.19) (end 1.27 9.19) (layer F.Fab) (width 0.1))
  (fp_line (start -2.27 11.13) (end -1.27 11.13) (layer F.Fab) (width 0.1))
  (fp_line (start -1.27 11.73) (end -2.27 11.73) (layer F.Fab) (width 0.1))
  (fp_line (start -2.27 11.73) (end -2.27 11.13) (layer F.Fab) (width 0.1))
  (fp_line (start 1.27 13.67) (end 2.27 13.67) (layer F.Fab) (width 0.1))
  (fp_line (start 2.27 13.67) (end 2.27 14.27) (layer F.Fab) (width 0.1))
  (fp_line (start 2.27 14.27) (end 1.27 14.27) (layer F.Fab) (width 0.1))
  (fp_line (start -2.27 16.21) (end -1.27 16.21) (layer F.Fab) (width 0.1))
  (fp_line (start -1.27 16.81) (end -2.27 16.81) (layer F.Fab) (width 0.1))
  (fp_line (start -2.27 16.81) (end -2.27 16.21) (layer F.Fab) (width 0.1))
  (fp_line (start 1.27 18.75) (end 2.27 18.75) (layer F.Fab) (width 0.1))
  (fp_line (start 2.27 18.75) (end 2.27 19.35) (layer F.Fab) (width 0.1))
  (fp_line (start 2.27 19.35) (end 1.27 19.35) (layer F.Fab) (width 0.1))
  (fp_line (start -2.27 21.29) (end -1.27 21.29) (layer F.Fab) (width 0.1))
  (fp_line (start -1.27 21.89) (end -2.27 21.89) (layer F.Fab) (width 0.1))
  (fp_line (start -2.27 21.89) (end -2.27 21.29) (layer F.Fab) (width 0.1))
  (fp_line (start 1.27 23.83) (end 2.27 23.83) (layer F.Fab) (width 0.1))
  (fp_line (start 2.27 23.83) (end 2.27 24.43) (layer F.Fab) (width 0.1))
  (fp_line (start 2.27 24.43) (end 1.27 24.43) (layer F.Fab) (width 0.1))
  (fp_line (start -2.27 26.37) (end -1.27 26.37) (layer F.Fab) (width 0.1))
  (fp_line (start -1.27 26.97) (end -2.27 26.97) (layer F.Fab) (width 0.1))
  (fp_line (start -2.27 26.97) (end -2.27 26.37) (layer F.Fab) (width 0.1))
  (fp_line (start 1.27 28.91) (end 2.27 28.91) (layer F.Fab) (width 0.1))
  (fp_line (start 2.27 28.91) (end 2.27 29.51) (layer F.Fab) (width 0.1))
  (fp_line (start 2.27 29.51) (end 1.27 29.51) (layer F.Fab) (width 0.1))
  (fp_line (start -2.27 31.45) (end -1.27 31.45) (layer F.Fab) (width 0.1))
  (fp_line (start -1.27 32.05) (end -2.27 32.05) (layer F.Fab) (width 0.1))
  (fp_line (start -2.27 32.05) (end -2.27 31.45) (layer F.Fab) (width 0.1))
  (fp_line (start 1.27 33.99) (end 2.27 33.99) (layer F.Fab) (width 0.1))
  (fp_line (start 2.27 33.99) (end 2.27 34.59) (layer F.Fab) (width 0.1))
  (fp_line (start 2.27 34.59) (end 1.27 34.59) (layer F.Fab) (width 0.1))
  (fp_line (start -3.1 -36.2) (end 3.1 -36.2) (layer F.CrtYd) (width 0.05))
  (fp_line (start 3.1 -36.2) (end 3.1 36.15) (layer F.CrtYd) (width 0.05))
  (fp_line (start 3.1 36.15) (end -3.1 36.15) (layer F.CrtYd) (width 0.05))
  (fp_line (start -3.1 36.15) (end -3.1 -36.2) (layer F.CrtYd) (width 0.05))
  (pad 1 smd rect (at -1.65 -34.29) (size 1.9 1) (layers F.Cu F.Mask F.Paste))
  (pad 3 smd rect (at -1.65 -29.21) (size 1.9 1) (layers F.Cu F.Mask F.Paste))
  (pad 5 smd rect (at -1.65 -24.13) (size 1.9 1) (layers F.Cu F.Mask F.Paste))
  (pad 7 smd rect (at -1.65 -19.05) (size 1.9 1) (layers F.Cu F.Mask F.Paste))
  (pad 9 smd rect (at -1.65 -13.97) (size 1.9 1) (layers F.Cu F.Mask F.Paste))
  (pad 11 smd rect (at -1.65 -8.89) (size 1.9 1) (layers F.Cu F.Mask F.Paste))
  (pad 13 smd rect (at -1.65 -3.81) (size 1.9 1) (layers F.Cu F.Mask F.Paste))
  (pad 15 smd rect (at -1.65 1.27) (size 1.9 1) (layers F.Cu F.Mask F.Paste))
  (pad 17 smd rect (at -1.65 6.35) (size 1.9 1) (layers F.Cu F.Mask F.Paste))
  (pad 19 smd rect (at -1.65 11.43) (size 1.9 1) (layers F.Cu F.Mask F.Paste))
  (pad 21 smd rect (at -1.65 16.51) (size 1.9 1) (layers F.Cu F.Mask F.Paste))
  (pad 23 smd rect (at -1.65 21.59) (size 1.9 1) (layers F.Cu F.Mask F.Paste))
  (pad 25 smd rect (at -1.65 26.67) (size 1.9 1) (layers F.Cu F.Mask F.Paste))
  (pad 27 smd rect (at -1.65 31.75) (size 1.9 1) (layers F.Cu F.Mask F.Paste))
  (pad 2 smd rect (at 1.65 -31.75) (size 1.9 1) (layers F.Cu F.Mask F.Paste))
  (pad 4 smd rect (at 1.65 -26.67) (size 1.9 1) (layers F.Cu F.Mask F.Paste))
  (pad 6 smd rect (at 1.65 -21.59) (size 1.9 1) (layers F.Cu F.Mask F.Paste))
  (pad 8 smd rect (at 1.65 -16.51) (size 1.9 1) (layers F.Cu F.Mask F.Paste))
  (pad 10 smd rect (at 1.65 -11.43) (size 1.9 1) (layers F.Cu F.Mask F.Paste))
  (pad 12 smd rect (at 1.65 -6.35) (size 1.9 1) (layers F.Cu F.Mask F.Paste))
  (pad 14 smd rect (at 1.65 -1.27) (size 1.9 1) (layers F.Cu F.Mask F.Paste))
  (pad 16 smd rect (at 1.65 3.81) (size 1.9 1) (layers F.Cu F.Mask F.Paste))
  (pad 18 smd rect (at 1.65 8.89) (size 1.9 1) (layers F.Cu F.Mask F.Paste))
  (pad 20 smd rect (at 1.65 13.97) (size 1.9 1) (layers F.Cu F.Mask F.Paste))
  (pad 22 smd rect (at 1.65 19.05) (size 1.9 1) (layers F.Cu F.Mask F.Paste))
  (pad 24 smd rect (at 1.65 24.13) (size 1.9 1) (layers F.Cu F.Mask F.Paste))
  (pad 26 smd rect (at 1.65 29.21) (size 1.9 1) (layers F.Cu F.Mask F.Paste))
  (pad 28 smd rect (at 1.65 34.29) (size 1.9 1) (layers F.Cu F.Mask F.Paste))
  (fp_text user %R (at 0 0 90) (layer F.Fab)
    (effects (font (size 1 1) (thickness 0.15)))
  )
  (model ${KICAD6_3DMODEL_DIR}/Connector_PinSocket_2.54mm.3dshapes/PinSocket_1x28_P2.54mm_Vertical_SMD_Pin1Left.wrl
    (at (xyz 0 0 0))
    (scale (xyz 1 1 1))
    (rotate (xyz 0 0 0))
  )
)