(module PinSocket_1x01_P2.54mm_Horizontal (layer F.Cu) (tedit 5A19A42A)
  (descr "Through hole angled socket strip, 1x01, 2.54mm pitch, 8.51mm socket length, single row (from Kicad 4.0.7), script generated")
  (tags "Through hole angled socket strip THT 1x01 2.54mm single row")
  (fp_text reference REF** (at -4.38 -2.77) (layer F.SilkS)
    (effects (font (size 1 1) (thickness 0.15)))
  )
  (fp_text value PinSocket_1x01_P2.54mm_Horizontal (at -4.38 2.77) (layer F.Fab)
    (effects (font (size 1 1) (thickness 0.15)))
  )
  (fp_line (start -10.03 -1.27) (end -2.155 -1.27) (layer F.Fab) (width 0.1))
  (fp_line (start -2.155 -1.27) (end -1.52 -0.635) (layer F.Fab) (width 0.1))
  (fp_line (start -1.52 -0.635) (end -1.52 1.27) (layer F.Fab) (width 0.1))
  (fp_line (start -1.52 1.27) (end -10.03 1.27) (layer F.Fab) (width 0.1))
  (fp_line (start -10.03 1.27) (end -10.03 -1.27) (layer F.Fab) (width 0.1))
  (fp_line (start 0 -0.3) (end -1.52 -0.3) (layer F.Fab) (width 0.1))
  (fp_line (start -1.52 0.3) (end 0 0.3) (layer F.Fab) (width 0.1))
  (fp_line (start 0 0.3) (end 0 -0.3) (layer F.Fab) (width 0.1))
  (fp_line (start -10.09 -1.21) (end -1.46 -1.21) (layer F.SilkS) (width 0.12))
  (fp_line (start -10.09 -1.094545) (end -1.46 -1.094545) (layer F.SilkS) (width 0.12))
  (fp_line (start -10.09 -0.97909) (end -1.46 -0.97909) (layer F.SilkS) (width 0.12))
  (fp_line (start -10.09 -0.863635) (end -1.46 -0.863635) (layer F.SilkS) (width 0.12))
  (fp_line (start -10.09 -0.74818) (end -1.46 -0.74818) (layer F.SilkS) (width 0.12))
  (fp_line (start -10.09 -0.632725) (end -1.46 -0.632725) (layer F.SilkS) (width 0.12))
  (fp_line (start -10.09 -0.51727) (end -1.46 -0.51727) (layer F.SilkS) (width 0.12))
  (fp_line (start -10.09 -0.401815) (end -1.46 -0.401815) (layer F.SilkS) (width 0.12))
  (fp_line (start -10.09 -0.28636) (end -1.46 -0.28636) (layer F.SilkS) (width 0.12))
  (fp_line (start -10.09 -0.170905) (end -1.46 -0.170905) (layer F.SilkS) (width 0.12))
  (fp_line (start -10.09 -0.05545) (end -1.46 -0.05545) (layer F.SilkS) (width 0.12))
  (fp_line (start -10.09 0.060005) (end -1.46 0.060005) (layer F.SilkS) (width 0.12))
  (fp_line (start -10.09 0.17546) (end -1.46 0.17546) (layer F.SilkS) (width 0.12))
  (fp_line (start -10.09 0.290915) (end -1.46 0.290915) (layer F.SilkS) (width 0.12))
  (fp_line (start -10.09 0.40637) (end -1.46 0.40637) (layer F.SilkS) (width 0.12))
  (fp_line (start -10.09 0.521825) (end -1.46 0.521825) (layer F.SilkS) (width 0.12))
  (fp_line (start -10.09 0.63728) (end -1.46 0.63728) (layer F.SilkS) (width 0.12))
  (fp_line (start -10.09 0.752735) (end -1.46 0.752735) (layer F.SilkS) (width 0.12))
  (fp_line (start -10.09 0.86819) (end -1.46 0.86819) (layer F.SilkS) (width 0.12))
  (fp_line (start -10.09 0.983645) (end -1.46 0.983645) (layer F.SilkS) (width 0.12))
  (fp_line (start -10.09 1.0991) (end -1.46 1.0991) (layer F.SilkS) (width 0.12))
  (fp_line (start -10.09 1.214555) (end -1.46 1.214555) (layer F.SilkS) (width 0.12))
  (fp_line (start -1.46 -0.36) (end -1.11 -0.36) (layer F.SilkS) (width 0.12))
  (fp_line (start -1.46 0.36) (end -1.11 0.36) (layer F.SilkS) (width 0.12))
  (fp_line (start -10.09 -1.33) (end -1.46 -1.33) (layer F.SilkS) (width 0.12))
  (fp_line (start -1.46 -1.33) (end -1.46 1.33) (layer F.SilkS) (width 0.12))
  (fp_line (start -10.09 1.33) (end -1.46 1.33) (layer F.SilkS) (width 0.12))
  (fp_line (start -10.09 -1.33) (end -10.09 1.33) (layer F.SilkS) (width 0.12))
  (fp_line (start 1.11 -1.33) (end 1.11 0) (layer F.SilkS) (width 0.12))
  (fp_line (start 0 -1.33) (end 1.11 -1.33) (layer F.SilkS) (width 0.12))
  (fp_line (start 1.75 -1.8) (end -10.55 -1.8) (layer F.CrtYd) (width 0.05))
  (fp_line (start -10.55 -1.8) (end -10.55 1.75) (layer F.CrtYd) (width 0.05))
  (fp_line (start -10.55 1.75) (end 1.75 1.75) (layer F.CrtYd) (width 0.05))
  (fp_line (start 1.75 1.75) (end 1.75 -1.8) (layer F.CrtYd) (width 0.05))
  (pad 1 thru_hole rect (at 0 0) (size 1.7 1.7) (drill 1) (layers *.Cu *.Mask))
  (fp_text user %R (at -5.775 0) (layer F.Fab)
    (effects (font (size 1 1) (thickness 0.15)))
  )
  (model ${KICAD6_3DMODEL_DIR}/Connector_PinSocket_2.54mm.3dshapes/PinSocket_1x01_P2.54mm_Horizontal.wrl
    (at (xyz 0 0 0))
    (scale (xyz 1 1 1))
    (rotate (xyz 0 0 0))
  )
)