(module PinSocket_1x08_P2.54mm_Vertical_SMD_Pin1Right (layer F.Cu) (tedit 5A19A424)
  (descr "surface-mounted straight socket strip, 1x08, 2.54mm pitch, single row, style 2 (pin 1 right) (https://cdn.harwin.com/pdfs/M20-786.pdf), script generated")
  (tags "Surface mounted socket strip SMD 1x08 2.54mm single row style2 pin1 right")
  (attr smd)
  (fp_text reference REF** (at 0 -11.76) (layer F.SilkS)
    (effects (font (size 1 1) (thickness 0.15)))
  )
  (fp_text value PinSocket_1x08_P2.54mm_Vertical_SMD_Pin1Right (at 0 11.76) (layer F.Fab)
    (effects (font (size 1 1) (thickness 0.15)))
  )
  (fp_line (start -1.33 -10.32) (end 1.33 -10.32) (layer F.SilkS) (width 0.12))
  (fp_line (start 1.33 -10.32) (end 1.33 -9.65) (layer F.SilkS) (width 0.12))
  (fp_line (start 1.33 -8.13) (end 1.33 -4.57) (layer F.SilkS) (width 0.12))
  (fp_line (start 1.33 -3.05) (end 1.33 0.51) (layer F.SilkS) (width 0.12))
  (fp_line (start 1.33 2.03) (end 1.33 5.59) (layer F.SilkS) (width 0.12))
  (fp_line (start 1.33 7.11) (end 1.33 10.32) (layer F.SilkS) (width 0.12))
  (fp_line (start -1.33 10.32) (end 1.33 10.32) (layer F.SilkS) (width 0.12))
  (fp_line (start -1.33 -10.32) (end -1.33 -7.11) (layer F.SilkS) (width 0.12))
  (fp_line (start -1.33 -5.59) (end -1.33 -2.03) (layer F.SilkS) (width 0.12))
  (fp_line (start -1.33 -0.51) (end -1.33 3.05) (layer F.SilkS) (width 0.12))
  (fp_line (start -1.33 4.57) (end -1.33 8.13) (layer F.SilkS) (width 0.12))
  (fp_line (start -1.33 9.65) (end -1.33 10.32) (layer F.SilkS) (width 0.12))
  (fp_line (start 1.33 -9.65) (end 2.54 -9.65) (layer F.SilkS) (width 0.12))
  (fp_line (start -1.27 -10.26) (end 0.635 -10.26) (layer F.Fab) (width 0.1))
  (fp_line (start 0.635 -10.26) (end 1.27 -9.625) (layer F.Fab) (width 0.1))
  (fp_line (start 1.27 -9.625) (end 1.27 10.26) (layer F.Fab) (width 0.1))
  (fp_line (start 1.27 10.26) (end -1.27 10.26) (layer F.Fab) (width 0.1))
  (fp_line (start -1.27 10.26) (end -1.27 -10.26) (layer F.Fab) (width 0.1))
  (fp_line (start 1.27 -9.19) (end 2.27 -9.19) (layer F.Fab) (width 0.1))
  (fp_line (start 2.27 -9.19) (end 2.27 -8.59) (layer F.Fab) (width 0.1))
  (fp_line (start 2.27 -8.59) (end 1.27 -8.59) (layer F.Fab) (width 0.1))
  (fp_line (start -2.27 -6.65) (end -1.27 -6.65) (layer F.Fab) (width 0.1))
  (fp_line (start -1.27 -6.05) (end -2.27 -6.05) (layer F.Fab) (width 0.1))
  (fp_line (start -2.27 -6.05) (end -2.27 -6.65) (layer F.Fab) (width 0.1))
  (fp_line (start 1.27 -4.11) (end 2.27 -4.11) (layer F.Fab) (width 0.1))
  (fp_line (start 2.27 -4.11) (end 2.27 -3.51) (layer F.Fab) (width 0.1))
  (fp_line (start 2.27 -3.51) (end 1.27 -3.51) (layer F.Fab) (width 0.1))
  (fp_line (start -2.27 -1.57) (end -1.27 -1.57) (layer F.Fab) (width 0.1))
  (fp_line (start -1.27 -0.97) (end -2.27 -0.97) (layer F.Fab) (width 0.1))
  (fp_line (start -2.27 -0.97) (end -2.27 -1.57) (layer F.Fab) (width 0.1))
  (fp_line (start 1.27 0.97) (end 2.27 0.97) (layer F.Fab) (width 0.1))
  (fp_line (start 2.27 0.97) (end 2.27 1.57) (layer F.Fab) (width 0.1))
  (fp_line (start 2.27 1.57) (end 1.27 1.57) (layer F.Fab) (width 0.1))
  (fp_line (start -2.27 3.51) (end -1.27 3.51) (layer F.Fab) (width 0.1))
  (fp_line (start -1.27 4.11) (end -2.27 4.11) (layer F.Fab) (width 0.1))
  (fp_line (start -2.27 4.11) (end -2.27 3.51) (layer F.Fab) (width 0.1))
  (fp_line (start 1.27 6.05) (end 2.27 6.05) (layer F.Fab) (width 0.1))
  (fp_line (start 2.27 6.05) (end 2.27 6.65) (layer F.Fab) (width 0.1))
  (fp_line (start 2.27 6.65) (end 1.27 6.65) (layer F.Fab) (width 0.1))
  (fp_line (start -2.27 8.59) (end -1.27 8.59) (layer F.Fab) (width 0.1))
  (fp_line (start -1.27 9.19) (end -2.27 9.19) (layer F.Fab) (width 0.1))
  (fp_line (start -2.27 9.19) (end -2.27 8.59) (layer F.Fab) (width 0.1))
  (fp_line (start -3.1 -10.8) (end 3.1 -10.8) (layer F.CrtYd) (width 0.05))
  (fp_line (start 3.1 -10.8) (end 3.1 10.75) (layer F.CrtYd) (width 0.05))
  (fp_line (start 3.1 10.75) (end -3.1 10.75) (layer F.CrtYd) (width 0.05))
  (fp_line (start -3.1 10.75) (end -3.1 -10.8) (layer F.CrtYd) (width 0.05))
  (pad 2 smd rect (at -1.65 -6.35) (size 1.9 1) (layers F.Cu F.Mask F.Paste))
  (pad 4 smd rect (at -1.65 -1.27) (size 1.9 1) (layers F.Cu F.Mask F.Paste))
  (pad 6 smd rect (at -1.65 3.81) (size 1.9 1) (layers F.Cu F.Mask F.Paste))
  (pad 8 smd rect (at -1.65 8.89) (size 1.9 1) (layers F.Cu F.Mask F.Paste))
  (pad 1 smd rect (at 1.65 -8.89) (size 1.9 1) (layers F.Cu F.Mask F.Paste))
  (pad 3 smd rect (at 1.65 -3.81) (size 1.9 1) (layers F.Cu F.Mask F.Paste))
  (pad 5 smd rect (at 1.65 1.27) (size 1.9 1) (layers F.Cu F.Mask F.Paste))
  (pad 7 smd rect (at 1.65 6.35) (size 1.9 1) (layers F.Cu F.Mask F.Paste))
  (fp_text user %R (at 0 0 90) (layer F.Fab)
    (effects (font (size 1 1) (thickness 0.15)))
  )
  (model ${KICAD6_3DMODEL_DIR}/Connector_PinSocket_2.54mm.3dshapes/PinSocket_1x08_P2.54mm_Vertical_SMD_Pin1Right.wrl
    (at (xyz 0 0 0))
    (scale (xyz 1 1 1))
    (rotate (xyz 0 0 0))
  )
)