(module PinSocket_2x39_P2.54mm_Vertical_SMD (layer F.Cu) (tedit 5A19A426)
  (descr "surface-mounted straight socket strip, 2x39, 2.54mm pitch, double cols (from Kicad 4.0.7), script generated")
  (tags "Surface mounted socket strip SMD 2x39 2.54mm double row")
  (attr smd)
  (fp_text reference REF** (at 0 -51.03) (layer F.SilkS)
    (effects (font (size 1 1) (thickness 0.15)))
  )
  (fp_text value PinSocket_2x39_P2.54mm_Vertical_SMD (at 0 51.03) (layer F.Fab)
    (effects (font (size 1 1) (thickness 0.15)))
  )
  (fp_line (start -2.6 -49.59) (end 2.6 -49.59) (layer F.SilkS) (width 0.12))
  (fp_line (start 2.6 -49.59) (end 2.6 -49.02) (layer F.SilkS) (width 0.12))
  (fp_line (start 2.6 -47.5) (end 2.6 -46.48) (layer F.SilkS) (width 0.12))
  (fp_line (start 2.6 -44.96) (end 2.6 -43.94) (layer F.SilkS) (width 0.12))
  (fp_line (start 2.6 -42.42) (end 2.6 -41.4) (layer F.SilkS) (width 0.12))
  (fp_line (start 2.6 -39.88) (end 2.6 -38.86) (layer F.SilkS) (width 0.12))
  (fp_line (start 2.6 -37.34) (end 2.6 -36.32) (layer F.SilkS) (width 0.12))
  (fp_line (start 2.6 -34.8) (end 2.6 -33.78) (layer F.SilkS) (width 0.12))
  (fp_line (start 2.6 -32.26) (end 2.6 -31.24) (layer F.SilkS) (width 0.12))
  (fp_line (start 2.6 -29.72) (end 2.6 -28.7) (layer F.SilkS) (width 0.12))
  (fp_line (start 2.6 -27.18) (end 2.6 -26.16) (layer F.SilkS) (width 0.12))
  (fp_line (start 2.6 -24.64) (end 2.6 -23.62) (layer F.SilkS) (width 0.12))
  (fp_line (start 2.6 -22.1) (end 2.6 -21.08) (layer F.SilkS) (width 0.12))
  (fp_line (start 2.6 -19.56) (end 2.6 -18.54) (layer F.SilkS) (width 0.12))
  (fp_line (start 2.6 -17.02) (end 2.6 -16) (layer F.SilkS) (width 0.12))
  (fp_line (start 2.6 -14.48) (end 2.6 -13.46) (layer F.SilkS) (width 0.12))
  (fp_line (start 2.6 -11.94) (end 2.6 -10.92) (layer F.SilkS) (width 0.12))
  (fp_line (start 2.6 -9.4) (end 2.6 -8.38) (layer F.SilkS) (width 0.12))
  (fp_line (start 2.6 -6.86) (end 2.6 -5.84) (layer F.SilkS) (width 0.12))
  (fp_line (start 2.6 -4.32) (end 2.6 -3.3) (layer F.SilkS) (width 0.12))
  (fp_line (start 2.6 -1.78) (end 2.6 -0.76) (layer F.SilkS) (width 0.12))
  (fp_line (start 2.6 0.76) (end 2.6 1.78) (layer F.SilkS) (width 0.12))
  (fp_line (start 2.6 3.3) (end 2.6 4.32) (layer F.SilkS) (width 0.12))
  (fp_line (start 2.6 5.84) (end 2.6 6.86) (layer F.SilkS) (width 0.12))
  (fp_line (start 2.6 8.38) (end 2.6 9.4) (layer F.SilkS) (width 0.12))
  (fp_line (start 2.6 10.92) (end 2.6 11.94) (layer F.SilkS) (width 0.12))
  (fp_line (start 2.6 13.46) (end 2.6 14.48) (layer F.SilkS) (width 0.12))
  (fp_line (start 2.6 16) (end 2.6 17.02) (layer F.SilkS) (width 0.12))
  (fp_line (start 2.6 18.54) (end 2.6 19.56) (layer F.SilkS) (width 0.12))
  (fp_line (start 2.6 21.08) (end 2.6 22.1) (layer F.SilkS) (width 0.12))
  (fp_line (start 2.6 23.62) (end 2.6 24.64) (layer F.SilkS) (width 0.12))
  (fp_line (start 2.6 26.16) (end 2.6 27.18) (layer F.SilkS) (width 0.12))
  (fp_line (start 2.6 28.7) (end 2.6 29.72) (layer F.SilkS) (width 0.12))
  (fp_line (start 2.6 31.24) (end 2.6 32.26) (layer F.SilkS) (width 0.12))
  (fp_line (start 2.6 33.78) (end 2.6 34.8) (layer F.SilkS) (width 0.12))
  (fp_line (start 2.6 36.32) (end 2.6 37.34) (layer F.SilkS) (width 0.12))
  (fp_line (start 2.6 38.86) (end 2.6 39.88) (layer F.SilkS) (width 0.12))
  (fp_line (start 2.6 41.4) (end 2.6 42.42) (layer F.SilkS) (width 0.12))
  (fp_line (start 2.6 43.94) (end 2.6 44.96) (layer F.SilkS) (width 0.12))
  (fp_line (start 2.6 46.48) (end 2.6 47.5) (layer F.SilkS) (width 0.12))
  (fp_line (start 2.6 49.02) (end 2.6 49.59) (layer F.SilkS) (width 0.12))
  (fp_line (start -2.6 49.59) (end 2.6 49.59) (layer F.SilkS) (width 0.12))
  (fp_line (start -2.6 -49.59) (end -2.6 -49.02) (layer F.SilkS) (width 0.12))
  (fp_line (start -2.6 -47.5) (end -2.6 -46.48) (layer F.SilkS) (width 0.12))
  (fp_line (start -2.6 -44.96) (end -2.6 -43.94) (layer F.SilkS) (width 0.12))
  (fp_line (start -2.6 -42.42) (end -2.6 -41.4) (layer F.SilkS) (width 0.12))
  (fp_line (start -2.6 -39.88) (end -2.6 -38.86) (layer F.SilkS) (width 0.12))
  (fp_line (start -2.6 -37.34) (end -2.6 -36.32) (layer F.SilkS) (width 0.12))
  (fp_line (start -2.6 -34.8) (end -2.6 -33.78) (layer F.SilkS) (width 0.12))
  (fp_line (start -2.6 -32.26) (end -2.6 -31.24) (layer F.SilkS) (width 0.12))
  (fp_line (start -2.6 -29.72) (end -2.6 -28.7) (layer F.SilkS) (width 0.12))
  (fp_line (start -2.6 -27.18) (end -2.6 -26.16) (layer F.SilkS) (width 0.12))
  (fp_line (start -2.6 -24.64) (end -2.6 -23.62) (layer F.SilkS) (width 0.12))
  (fp_line (start -2.6 -22.1) (end -2.6 -21.08) (layer F.SilkS) (width 0.12))
  (fp_line (start -2.6 -19.56) (end -2.6 -18.54) (layer F.SilkS) (width 0.12))
  (fp_line (start -2.6 -17.02) (end -2.6 -16) (layer F.SilkS) (width 0.12))
  (fp_line (start -2.6 -14.48) (end -2.6 -13.46) (layer F.SilkS) (width 0.12))
  (fp_line (start -2.6 -11.94) (end -2.6 -10.92) (layer F.SilkS) (width 0.12))
  (fp_line (start -2.6 -9.4) (end -2.6 -8.38) (layer F.SilkS) (width 0.12))
  (fp_line (start -2.6 -6.86) (end -2.6 -5.84) (layer F.SilkS) (width 0.12))
  (fp_line (start -2.6 -4.32) (end -2.6 -3.3) (layer F.SilkS) (width 0.12))
  (fp_line (start -2.6 -1.78) (end -2.6 -0.76) (layer F.SilkS) (width 0.12))
  (fp_line (start -2.6 0.76) (end -2.6 1.78) (layer F.SilkS) (width 0.12))
  (fp_line (start -2.6 3.3) (end -2.6 4.32) (layer F.SilkS) (width 0.12))
  (fp_line (start -2.6 5.84) (end -2.6 6.86) (layer F.SilkS) (width 0.12))
  (fp_line (start -2.6 8.38) (end -2.6 9.4) (layer F.SilkS) (width 0.12))
  (fp_line (start -2.6 10.92) (end -2.6 11.94) (layer F.SilkS) (width 0.12))
  (fp_line (start -2.6 13.46) (end -2.6 14.48) (layer F.SilkS) (width 0.12))
  (fp_line (start -2.6 16) (end -2.6 17.02) (layer F.SilkS) (width 0.12))
  (fp_line (start -2.6 18.54) (end -2.6 19.56) (layer F.SilkS) (width 0.12))
  (fp_line (start -2.6 21.08) (end -2.6 22.1) (layer F.SilkS) (width 0.12))
  (fp_line (start -2.6 23.62) (end -2.6 24.64) (layer F.SilkS) (width 0.12))
  (fp_line (start -2.6 26.16) (end -2.6 27.18) (layer F.SilkS) (width 0.12))
  (fp_line (start -2.6 28.7) (end -2.6 29.72) (layer F.SilkS) (width 0.12))
  (fp_line (start -2.6 31.24) (end -2.6 32.26) (layer F.SilkS) (width 0.12))
  (fp_line (start -2.6 33.78) (end -2.6 34.8) (layer F.SilkS) (width 0.12))
  (fp_line (start -2.6 36.32) (end -2.6 37.34) (layer F.SilkS) (width 0.12))
  (fp_line (start -2.6 38.86) (end -2.6 39.88) (layer F.SilkS) (width 0.12))
  (fp_line (start -2.6 41.4) (end -2.6 42.42) (layer F.SilkS) (width 0.12))
  (fp_line (start -2.6 43.94) (end -2.6 44.96) (layer F.SilkS) (width 0.12))
  (fp_line (start -2.6 46.48) (end -2.6 47.5) (layer F.SilkS) (width 0.12))
  (fp_line (start -2.6 49.02) (end -2.6 49.59) (layer F.SilkS) (width 0.12))
  (fp_line (start 2.6 -49.02) (end 3.96 -49.02) (layer F.SilkS) (width 0.12))
  (fp_line (start -2.54 -49.53) (end 1.54 -49.53) (layer F.Fab) (width 0.1))
  (fp_line (start 1.54 -49.53) (end 2.54 -48.53) (layer F.Fab) (width 0.1))
  (fp_line (start 2.54 -48.53) (end 2.54 49.53) (layer F.Fab) (width 0.1))
  (fp_line (start 2.54 49.53) (end -2.54 49.53) (layer F.Fab) (width 0.1))
  (fp_line (start -2.54 49.53) (end -2.54 -49.53) (layer F.Fab) (width 0.1))
  (fp_line (start -3.92 -48.58) (end -2.54 -48.58) (layer F.Fab) (width 0.1))
  (fp_line (start -2.54 -47.94) (end -3.92 -47.94) (layer F.Fab) (width 0.1))
  (fp_line (start -3.92 -47.94) (end -3.92 -48.58) (layer F.Fab) (width 0.1))
  (fp_line (start 2.54 -48.58) (end 3.92 -48.58) (layer F.Fab) (width 0.1))
  (fp_line (start 3.92 -48.58) (end 3.92 -47.94) (layer F.Fab) (width 0.1))
  (fp_line (start 3.92 -47.94) (end 2.54 -47.94) (layer F.Fab) (width 0.1))
  (fp_line (start -3.92 -46.04) (end -2.54 -46.04) (layer F.Fab) (width 0.1))
  (fp_line (start -2.54 -45.4) (end -3.92 -45.4) (layer F.Fab) (width 0.1))
  (fp_line (start -3.92 -45.4) (end -3.92 -46.04) (layer F.Fab) (width 0.1))
  (fp_line (start 2.54 -46.04) (end 3.92 -46.04) (layer F.Fab) (width 0.1))
  (fp_line (start 3.92 -46.04) (end 3.92 -45.4) (layer F.Fab) (width 0.1))
  (fp_line (start 3.92 -45.4) (end 2.54 -45.4) (layer F.Fab) (width 0.1))
  (fp_line (start -3.92 -43.5) (end -2.54 -43.5) (layer F.Fab) (width 0.1))
  (fp_line (start -2.54 -42.86) (end -3.92 -42.86) (layer F.Fab) (width 0.1))
  (fp_line (start -3.92 -42.86) (end -3.92 -43.5) (layer F.Fab) (width 0.1))
  (fp_line (start 2.54 -43.5) (end 3.92 -43.5) (layer F.Fab) (width 0.1))
  (fp_line (start 3.92 -43.5) (end 3.92 -42.86) (layer F.Fab) (width 0.1))
  (fp_line (start 3.92 -42.86) (end 2.54 -42.86) (layer F.Fab) (width 0.1))
  (fp_line (start -3.92 -40.96) (end -2.54 -40.96) (layer F.Fab) (width 0.1))
  (fp_line (start -2.54 -40.32) (end -3.92 -40.32) (layer F.Fab) (width 0.1))
  (fp_line (start -3.92 -40.32) (end -3.92 -40.96) (layer F.Fab) (width 0.1))
  (fp_line (start 2.54 -40.96) (end 3.92 -40.96) (layer F.Fab) (width 0.1))
  (fp_line (start 3.92 -40.96) (end 3.92 -40.32) (layer F.Fab) (width 0.1))
  (fp_line (start 3.92 -40.32) (end 2.54 -40.32) (layer F.Fab) (width 0.1))
  (fp_line (start -3.92 -38.42) (end -2.54 -38.42) (layer F.Fab) (width 0.1))
  (fp_line (start -2.54 -37.78) (end -3.92 -37.78) (layer F.Fab) (width 0.1))
  (fp_line (start -3.92 -37.78) (end -3.92 -38.42) (layer F.Fab) (width 0.1))
  (fp_line (start 2.54 -38.42) (end 3.92 -38.42) (layer F.Fab) (width 0.1))
  (fp_line (start 3.92 -38.42) (end 3.92 -37.78) (layer F.Fab) (width 0.1))
  (fp_line (start 3.92 -37.78) (end 2.54 -37.78) (layer F.Fab) (width 0.1))
  (fp_line (start -3.92 -35.88) (end -2.54 -35.88) (layer F.Fab) (width 0.1))
  (fp_line (start -2.54 -35.24) (end -3.92 -35.24) (layer F.Fab) (width 0.1))
  (fp_line (start -3.92 -35.24) (end -3.92 -35.88) (layer F.Fab) (width 0.1))
  (fp_line (start 2.54 -35.88) (end 3.92 -35.88) (layer F.Fab) (width 0.1))
  (fp_line (start 3.92 -35.88) (end 3.92 -35.24) (layer F.Fab) (width 0.1))
  (fp_line (start 3.92 -35.24) (end 2.54 -35.24) (layer F.Fab) (width 0.1))
  (fp_line (start -3.92 -33.34) (end -2.54 -33.34) (layer F.Fab) (width 0.1))
  (fp_line (start -2.54 -32.7) (end -3.92 -32.7) (layer F.Fab) (width 0.1))
  (fp_line (start -3.92 -32.7) (end -3.92 -33.34) (layer F.Fab) (width 0.1))
  (fp_line (start 2.54 -33.34) (end 3.92 -33.34) (layer F.Fab) (width 0.1))
  (fp_line (start 3.92 -33.34) (end 3.92 -32.7) (layer F.Fab) (width 0.1))
  (fp_line (start 3.92 -32.7) (end 2.54 -32.7) (layer F.Fab) (width 0.1))
  (fp_line (start -3.92 -30.8) (end -2.54 -30.8) (layer F.Fab) (width 0.1))
  (fp_line (start -2.54 -30.16) (end -3.92 -30.16) (layer F.Fab) (width 0.1))
  (fp_line (start -3.92 -30.16) (end -3.92 -30.8) (layer F.Fab) (width 0.1))
  (fp_line (start 2.54 -30.8) (end 3.92 -30.8) (layer F.Fab) (width 0.1))
  (fp_line (start 3.92 -30.8) (end 3.92 -30.16) (layer F.Fab) (width 0.1))
  (fp_line (start 3.92 -30.16) (end 2.54 -30.16) (layer F.Fab) (width 0.1))
  (fp_line (start -3.92 -28.26) (end -2.54 -28.26) (layer F.Fab) (width 0.1))
  (fp_line (start -2.54 -27.62) (end -3.92 -27.62) (layer F.Fab) (width 0.1))
  (fp_line (start -3.92 -27.62) (end -3.92 -28.26) (layer F.Fab) (width 0.1))
  (fp_line (start 2.54 -28.26) (end 3.92 -28.26) (layer F.Fab) (width 0.1))
  (fp_line (start 3.92 -28.26) (end 3.92 -27.62) (layer F.Fab) (width 0.1))
  (fp_line (start 3.92 -27.62) (end 2.54 -27.62) (layer F.Fab) (width 0.1))
  (fp_line (start -3.92 -25.72) (end -2.54 -25.72) (layer F.Fab) (width 0.1))
  (fp_line (start -2.54 -25.08) (end -3.92 -25.08) (layer F.Fab) (width 0.1))
  (fp_line (start -3.92 -25.08) (end -3.92 -25.72) (layer F.Fab) (width 0.1))
  (fp_line (start 2.54 -25.72) (end 3.92 -25.72) (layer F.Fab) (width 0.1))
  (fp_line (start 3.92 -25.72) (end 3.92 -25.08) (layer F.Fab) (width 0.1))
  (fp_line (start 3.92 -25.08) (end 2.54 -25.08) (layer F.Fab) (width 0.1))
  (fp_line (start -3.92 -23.18) (end -2.54 -23.18) (layer F.Fab) (width 0.1))
  (fp_line (start -2.54 -22.54) (end -3.92 -22.54) (layer F.Fab) (width 0.1))
  (fp_line (start -3.92 -22.54) (end -3.92 -23.18) (layer F.Fab) (width 0.1))
  (fp_line (start 2.54 -23.18) (end 3.92 -23.18) (layer F.Fab) (width 0.1))
  (fp_line (start 3.92 -23.18) (end 3.92 -22.54) (layer F.Fab) (width 0.1))
  (fp_line (start 3.92 -22.54) (end 2.54 -22.54) (layer F.Fab) (width 0.1))
  (fp_line (start -3.92 -20.64) (end -2.54 -20.64) (layer F.Fab) (width 0.1))
  (fp_line (start -2.54 -20) (end -3.92 -20) (layer F.Fab) (width 0.1))
  (fp_line (start -3.92 -20) (end -3.92 -20.64) (layer F.Fab) (width 0.1))
  (fp_line (start 2.54 -20.64) (end 3.92 -20.64) (layer F.Fab) (width 0.1))
  (fp_line (start 3.92 -20.64) (end 3.92 -20) (layer F.Fab) (width 0.1))
  (fp_line (start 3.92 -20) (end 2.54 -20) (layer F.Fab) (width 0.1))
  (fp_line (start -3.92 -18.1) (end -2.54 -18.1) (layer F.Fab) (width 0.1))
  (fp_line (start -2.54 -17.46) (end -3.92 -17.46) (layer F.Fab) (width 0.1))
  (fp_line (start -3.92 -17.46) (end -3.92 -18.1) (layer F.Fab) (width 0.1))
  (fp_line (start 2.54 -18.1) (end 3.92 -18.1) (layer F.Fab) (width 0.1))
  (fp_line (start 3.92 -18.1) (end 3.92 -17.46) (layer F.Fab) (width 0.1))
  (fp_line (start 3.92 -17.46) (end 2.54 -17.46) (layer F.Fab) (width 0.1))
  (fp_line (start -3.92 -15.56) (end -2.54 -15.56) (layer F.Fab) (width 0.1))
  (fp_line (start -2.54 -14.92) (end -3.92 -14.92) (layer F.Fab) (width 0.1))
  (fp_line (start -3.92 -14.92) (end -3.92 -15.56) (layer F.Fab) (width 0.1))
  (fp_line (start 2.54 -15.56) (end 3.92 -15.56) (layer F.Fab) (width 0.1))
  (fp_line (start 3.92 -15.56) (end 3.92 -14.92) (layer F.Fab) (width 0.1))
  (fp_line (start 3.92 -14.92) (end 2.54 -14.92) (layer F.Fab) (width 0.1))
  (fp_line (start -3.92 -13.02) (end -2.54 -13.02) (layer F.Fab) (width 0.1))
  (fp_line (start -2.54 -12.38) (end -3.92 -12.38) (layer F.Fab) (width 0.1))
  (fp_line (start -3.92 -12.38) (end -3.92 -13.02) (layer F.Fab) (width 0.1))
  (fp_line (start 2.54 -13.02) (end 3.92 -13.02) (layer F.Fab) (width 0.1))
  (fp_line (start 3.92 -13.02) (end 3.92 -12.38) (layer F.Fab) (width 0.1))
  (fp_line (start 3.92 -12.38) (end 2.54 -12.38) (layer F.Fab) (width 0.1))
  (fp_line (start -3.92 -10.48) (end -2.54 -10.48) (layer F.Fab) (width 0.1))
  (fp_line (start -2.54 -9.84) (end -3.92 -9.84) (layer F.Fab) (width 0.1))
  (fp_line (start -3.92 -9.84) (end -3.92 -10.48) (layer F.Fab) (width 0.1))
  (fp_line (start 2.54 -10.48) (end 3.92 -10.48) (layer F.Fab) (width 0.1))
  (fp_line (start 3.92 -10.48) (end 3.92 -9.84) (layer F.Fab) (width 0.1))
  (fp_line (start 3.92 -9.84) (end 2.54 -9.84) (layer F.Fab) (width 0.1))
  (fp_line (start -3.92 -7.94) (end -2.54 -7.94) (layer F.Fab) (width 0.1))
  (fp_line (start -2.54 -7.3) (end -3.92 -7.3) (layer F.Fab) (width 0.1))
  (fp_line (start -3.92 -7.3) (end -3.92 -7.94) (layer F.Fab) (width 0.1))
  (fp_line (start 2.54 -7.94) (end 3.92 -7.94) (layer F.Fab) (width 0.1))
  (fp_line (start 3.92 -7.94) (end 3.92 -7.3) (layer F.Fab) (width 0.1))
  (fp_line (start 3.92 -7.3) (end 2.54 -7.3) (layer F.Fab) (width 0.1))
  (fp_line (start -3.92 -5.4) (end -2.54 -5.4) (layer F.Fab) (width 0.1))
  (fp_line (start -2.54 -4.76) (end -3.92 -4.76) (layer F.Fab) (width 0.1))
  (fp_line (start -3.92 -4.76) (end -3.92 -5.4) (layer F.Fab) (width 0.1))
  (fp_line (start 2.54 -5.4) (end 3.92 -5.4) (layer F.Fab) (width 0.1))
  (fp_line (start 3.92 -5.4) (end 3.92 -4.76) (layer F.Fab) (width 0.1))
  (fp_line (start 3.92 -4.76) (end 2.54 -4.76) (layer F.Fab) (width 0.1))
  (fp_line (start -3.92 -2.86) (end -2.54 -2.86) (layer F.Fab) (width 0.1))
  (fp_line (start -2.54 -2.22) (end -3.92 -2.22) (layer F.Fab) (width 0.1))
  (fp_line (start -3.92 -2.22) (end -3.92 -2.86) (layer F.Fab) (width 0.1))
  (fp_line (start 2.54 -2.86) (end 3.92 -2.86) (layer F.Fab) (width 0.1))
  (fp_line (start 3.92 -2.86) (end 3.92 -2.22) (layer F.Fab) (width 0.1))
  (fp_line (start 3.92 -2.22) (end 2.54 -2.22) (layer F.Fab) (width 0.1))
  (fp_line (start -3.92 -0.32) (end -2.54 -0.32) (layer F.Fab) (width 0.1))
  (fp_line (start -2.54 0.32) (end -3.92 0.32) (layer F.Fab) (width 0.1))
  (fp_line (start -3.92 0.32) (end -3.92 -0.32) (layer F.Fab) (width 0.1))
  (fp_line (start 2.54 -0.32) (end 3.92 -0.32) (layer F.Fab) (width 0.1))
  (fp_line (start 3.92 -0.32) (end 3.92 0.32) (layer F.Fab) (width 0.1))
  (fp_line (start 3.92 0.32) (end 2.54 0.32) (layer F.Fab) (width 0.1))
  (fp_line (start -3.92 2.22) (end -2.54 2.22) (layer F.Fab) (width 0.1))
  (fp_line (start -2.54 2.86) (end -3.92 2.86) (layer F.Fab) (width 0.1))
  (fp_line (start -3.92 2.86) (end -3.92 2.22) (layer F.Fab) (width 0.1))
  (fp_line (start 2.54 2.22) (end 3.92 2.22) (layer F.Fab) (width 0.1))
  (fp_line (start 3.92 2.22) (end 3.92 2.86) (layer F.Fab) (width 0.1))
  (fp_line (start 3.92 2.86) (end 2.54 2.86) (layer F.Fab) (width 0.1))
  (fp_line (start -3.92 4.76) (end -2.54 4.76) (layer F.Fab) (width 0.1))
  (fp_line (start -2.54 5.4) (end -3.92 5.4) (layer F.Fab) (width 0.1))
  (fp_line (start -3.92 5.4) (end -3.92 4.76) (layer F.Fab) (width 0.1))
  (fp_line (start 2.54 4.76) (end 3.92 4.76) (layer F.Fab) (width 0.1))
  (fp_line (start 3.92 4.76) (end 3.92 5.4) (layer F.Fab) (width 0.1))
  (fp_line (start 3.92 5.4) (end 2.54 5.4) (layer F.Fab) (width 0.1))
  (fp_line (start -3.92 7.3) (end -2.54 7.3) (layer F.Fab) (width 0.1))
  (fp_line (start -2.54 7.94) (end -3.92 7.94) (layer F.Fab) (width 0.1))
  (fp_line (start -3.92 7.94) (end -3.92 7.3) (layer F.Fab) (width 0.1))
  (fp_line (start 2.54 7.3) (end 3.92 7.3) (layer F.Fab) (width 0.1))
  (fp_line (start 3.92 7.3) (end 3.92 7.94) (layer F.Fab) (width 0.1))
  (fp_line (start 3.92 7.94) (end 2.54 7.94) (layer F.Fab) (width 0.1))
  (fp_line (start -3.92 9.84) (end -2.54 9.84) (layer F.Fab) (width 0.1))
  (fp_line (start -2.54 10.48) (end -3.92 10.48) (layer F.Fab) (width 0.1))
  (fp_line (start -3.92 10.48) (end -3.92 9.84) (layer F.Fab) (width 0.1))
  (fp_line (start 2.54 9.84) (end 3.92 9.84) (layer F.Fab) (width 0.1))
  (fp_line (start 3.92 9.84) (end 3.92 10.48) (layer F.Fab) (width 0.1))
  (fp_line (start 3.92 10.48) (end 2.54 10.48) (layer F.Fab) (width 0.1))
  (fp_line (start -3.92 12.38) (end -2.54 12.38) (layer F.Fab) (width 0.1))
  (fp_line (start -2.54 13.02) (end -3.92 13.02) (layer F.Fab) (width 0.1))
  (fp_line (start -3.92 13.02) (end -3.92 12.38) (layer F.Fab) (width 0.1))
  (fp_line (start 2.54 12.38) (end 3.92 12.38) (layer F.Fab) (width 0.1))
  (fp_line (start 3.92 12.38) (end 3.92 13.02) (layer F.Fab) (width 0.1))
  (fp_line (start 3.92 13.02) (end 2.54 13.02) (layer F.Fab) (width 0.1))
  (fp_line (start -3.92 14.92) (end -2.54 14.92) (layer F.Fab) (width 0.1))
  (fp_line (start -2.54 15.56) (end -3.92 15.56) (layer F.Fab) (width 0.1))
  (fp_line (start -3.92 15.56) (end -3.92 14.92) (layer F.Fab) (width 0.1))
  (fp_line (start 2.54 14.92) (end 3.92 14.92) (layer F.Fab) (width 0.1))
  (fp_line (start 3.92 14.92) (end 3.92 15.56) (layer F.Fab) (width 0.1))
  (fp_line (start 3.92 15.56) (end 2.54 15.56) (layer F.Fab) (width 0.1))
  (fp_line (start -3.92 17.46) (end -2.54 17.46) (layer F.Fab) (width 0.1))
  (fp_line (start -2.54 18.1) (end -3.92 18.1) (layer F.Fab) (width 0.1))
  (fp_line (start -3.92 18.1) (end -3.92 17.46) (layer F.Fab) (width 0.1))
  (fp_line (start 2.54 17.46) (end 3.92 17.46) (layer F.Fab) (width 0.1))
  (fp_line (start 3.92 17.46) (end 3.92 18.1) (layer F.Fab) (width 0.1))
  (fp_line (start 3.92 18.1) (end 2.54 18.1) (layer F.Fab) (width 0.1))
  (fp_line (start -3.92 20) (end -2.54 20) (layer F.Fab) (width 0.1))
  (fp_line (start -2.54 20.64) (end -3.92 20.64) (layer F.Fab) (width 0.1))
  (fp_line (start -3.92 20.64) (end -3.92 20) (layer F.Fab) (width 0.1))
  (fp_line (start 2.54 20) (end 3.92 20) (layer F.Fab) (width 0.1))
  (fp_line (start 3.92 20) (end 3.92 20.64) (layer F.Fab) (width 0.1))
  (fp_line (start 3.92 20.64) (end 2.54 20.64) (layer F.Fab) (width 0.1))
  (fp_line (start -3.92 22.54) (end -2.54 22.54) (layer F.Fab) (width 0.1))
  (fp_line (start -2.54 23.18) (end -3.92 23.18) (layer F.Fab) (width 0.1))
  (fp_line (start -3.92 23.18) (end -3.92 22.54) (layer F.Fab) (width 0.1))
  (fp_line (start 2.54 22.54) (end 3.92 22.54) (layer F.Fab) (width 0.1))
  (fp_line (start 3.92 22.54) (end 3.92 23.18) (layer F.Fab) (width 0.1))
  (fp_line (start 3.92 23.18) (end 2.54 23.18) (layer F.Fab) (width 0.1))
  (fp_line (start -3.92 25.08) (end -2.54 25.08) (layer F.Fab) (width 0.1))
  (fp_line (start -2.54 25.72) (end -3.92 25.72) (layer F.Fab) (width 0.1))
  (fp_line (start -3.92 25.72) (end -3.92 25.08) (layer F.Fab) (width 0.1))
  (fp_line (start 2.54 25.08) (end 3.92 25.08) (layer F.Fab) (width 0.1))
  (fp_line (start 3.92 25.08) (end 3.92 25.72) (layer F.Fab) (width 0.1))
  (fp_line (start 3.92 25.72) (end 2.54 25.72) (layer F.Fab) (width 0.1))
  (fp_line (start -3.92 27.62) (end -2.54 27.62) (layer F.Fab) (width 0.1))
  (fp_line (start -2.54 28.26) (end -3.92 28.26) (layer F.Fab) (width 0.1))
  (fp_line (start -3.92 28.26) (end -3.92 27.62) (layer F.Fab) (width 0.1))
  (fp_line (start 2.54 27.62) (end 3.92 27.62) (layer F.Fab) (width 0.1))
  (fp_line (start 3.92 27.62) (end 3.92 28.26) (layer F.Fab) (width 0.1))
  (fp_line (start 3.92 28.26) (end 2.54 28.26) (layer F.Fab) (width 0.1))
  (fp_line (start -3.92 30.16) (end -2.54 30.16) (layer F.Fab) (width 0.1))
  (fp_line (start -2.54 30.8) (end -3.92 30.8) (layer F.Fab) (width 0.1))
  (fp_line (start -3.92 30.8) (end -3.92 30.16) (layer F.Fab) (width 0.1))
  (fp_line (start 2.54 30.16) (end 3.92 30.16) (layer F.Fab) (width 0.1))
  (fp_line (start 3.92 30.16) (end 3.92 30.8) (layer F.Fab) (width 0.1))
  (fp_line (start 3.92 30.8) (end 2.54 30.8) (layer F.Fab) (width 0.1))
  (fp_line (start -3.92 32.7) (end -2.54 32.7) (layer F.Fab) (width 0.1))
  (fp_line (start -2.54 33.34) (end -3.92 33.34) (layer F.Fab) (width 0.1))
  (fp_line (start -3.92 33.34) (end -3.92 32.7) (layer F.Fab) (width 0.1))
  (fp_line (start 2.54 32.7) (end 3.92 32.7) (layer F.Fab) (width 0.1))
  (fp_line (start 3.92 32.7) (end 3.92 33.34) (layer F.Fab) (width 0.1))
  (fp_line (start 3.92 33.34) (end 2.54 33.34) (layer F.Fab) (width 0.1))
  (fp_line (start -3.92 35.24) (end -2.54 35.24) (layer F.Fab) (width 0.1))
  (fp_line (start -2.54 35.88) (end -3.92 35.88) (layer F.Fab) (width 0.1))
  (fp_line (start -3.92 35.88) (end -3.92 35.24) (layer F.Fab) (width 0.1))
  (fp_line (start 2.54 35.24) (end 3.92 35.24) (layer F.Fab) (width 0.1))
  (fp_line (start 3.92 35.24) (end 3.92 35.88) (layer F.Fab) (width 0.1))
  (fp_line (start 3.92 35.88) (end 2.54 35.88) (layer F.Fab) (width 0.1))
  (fp_line (start -3.92 37.78) (end -2.54 37.78) (layer F.Fab) (width 0.1))
  (fp_line (start -2.54 38.42) (end -3.92 38.42) (layer F.Fab) (width 0.1))
  (fp_line (start -3.92 38.42) (end -3.92 37.78) (layer F.Fab) (width 0.1))
  (fp_line (start 2.54 37.78) (end 3.92 37.78) (layer F.Fab) (width 0.1))
  (fp_line (start 3.92 37.78) (end 3.92 38.42) (layer F.Fab) (width 0.1))
  (fp_line (start 3.92 38.42) (end 2.54 38.42) (layer F.Fab) (width 0.1))
  (fp_line (start -3.92 40.32) (end -2.54 40.32) (layer F.Fab) (width 0.1))
  (fp_line (start -2.54 40.96) (end -3.92 40.96) (layer F.Fab) (width 0.1))
  (fp_line (start -3.92 40.96) (end -3.92 40.32) (layer F.Fab) (width 0.1))
  (fp_line (start 2.54 40.32) (end 3.92 40.32) (layer F.Fab) (width 0.1))
  (fp_line (start 3.92 40.32) (end 3.92 40.96) (layer F.Fab) (width 0.1))
  (fp_line (start 3.92 40.96) (end 2.54 40.96) (layer F.Fab) (width 0.1))
  (fp_line (start -3.92 42.86) (end -2.54 42.86) (layer F.Fab) (width 0.1))
  (fp_line (start -2.54 43.5) (end -3.92 43.5) (layer F.Fab) (width 0.1))
  (fp_line (start -3.92 43.5) (end -3.92 42.86) (layer F.Fab) (width 0.1))
  (fp_line (start 2.54 42.86) (end 3.92 42.86) (layer F.Fab) (width 0.1))
  (fp_line (start 3.92 42.86) (end 3.92 43.5) (layer F.Fab) (width 0.1))
  (fp_line (start 3.92 43.5) (end 2.54 43.5) (layer F.Fab) (width 0.1))
  (fp_line (start -3.92 45.4) (end -2.54 45.4) (layer F.Fab) (width 0.1))
  (fp_line (start -2.54 46.04) (end -3.92 46.04) (layer F.Fab) (width 0.1))
  (fp_line (start -3.92 46.04) (end -3.92 45.4) (layer F.Fab) (width 0.1))
  (fp_line (start 2.54 45.4) (end 3.92 45.4) (layer F.Fab) (width 0.1))
  (fp_line (start 3.92 45.4) (end 3.92 46.04) (layer F.Fab) (width 0.1))
  (fp_line (start 3.92 46.04) (end 2.54 46.04) (layer F.Fab) (width 0.1))
  (fp_line (start -3.92 47.94) (end -2.54 47.94) (layer F.Fab) (width 0.1))
  (fp_line (start -2.54 48.58) (end -3.92 48.58) (layer F.Fab) (width 0.1))
  (fp_line (start -3.92 48.58) (end -3.92 47.94) (layer F.Fab) (width 0.1))
  (fp_line (start 2.54 47.94) (end 3.92 47.94) (layer F.Fab) (width 0.1))
  (fp_line (start 3.92 47.94) (end 3.92 48.58) (layer F.Fab) (width 0.1))
  (fp_line (start 3.92 48.58) (end 2.54 48.58) (layer F.Fab) (width 0.1))
  (fp_line (start -4.55 -50.05) (end 4.5 -50.05) (layer F.CrtYd) (width 0.05))
  (fp_line (start 4.5 -50.05) (end 4.5 50.05) (layer F.CrtYd) (width 0.05))
  (fp_line (start 4.5 50.05) (end -4.55 50.05) (layer F.CrtYd) (width 0.05))
  (fp_line (start -4.55 50.05) (end -4.55 -50.05) (layer F.CrtYd) (width 0.05))
  (pad 1 smd rect (at 2.52 -48.26) (size 3 1) (layers F.Cu F.Mask F.Paste))
  (pad 2 smd rect (at -2.52 -48.26) (size 3 1) (layers F.Cu F.Mask F.Paste))
  (pad 3 smd rect (at 2.52 -45.72) (size 3 1) (layers F.Cu F.Mask F.Paste))
  (pad 4 smd rect (at -2.52 -45.72) (size 3 1) (layers F.Cu F.Mask F.Paste))
  (pad 5 smd rect (at 2.52 -43.18) (size 3 1) (layers F.Cu F.Mask F.Paste))
  (pad 6 smd rect (at -2.52 -43.18) (size 3 1) (layers F.Cu F.Mask F.Paste))
  (pad 7 smd rect (at 2.52 -40.64) (size 3 1) (layers F.Cu F.Mask F.Paste))
  (pad 8 smd rect (at -2.52 -40.64) (size 3 1) (layers F.Cu F.Mask F.Paste))
  (pad 9 smd rect (at 2.52 -38.1) (size 3 1) (layers F.Cu F.Mask F.Paste))
  (pad 10 smd rect (at -2.52 -38.1) (size 3 1) (layers F.Cu F.Mask F.Paste))
  (pad 11 smd rect (at 2.52 -35.56) (size 3 1) (layers F.Cu F.Mask F.Paste))
  (pad 12 smd rect (at -2.52 -35.56) (size 3 1) (layers F.Cu F.Mask F.Paste))
  (pad 13 smd rect (at 2.52 -33.02) (size 3 1) (layers F.Cu F.Mask F.Paste))
  (pad 14 smd rect (at -2.52 -33.02) (size 3 1) (layers F.Cu F.Mask F.Paste))
  (pad 15 smd rect (at 2.52 -30.48) (size 3 1) (layers F.Cu F.Mask F.Paste))
  (pad 16 smd rect (at -2.52 -30.48) (size 3 1) (layers F.Cu F.Mask F.Paste))
  (pad 17 smd rect (at 2.52 -27.94) (size 3 1) (layers F.Cu F.Mask F.Paste))
  (pad 18 smd rect (at -2.52 -27.94) (size 3 1) (layers F.Cu F.Mask F.Paste))
  (pad 19 smd rect (at 2.52 -25.4) (size 3 1) (layers F.Cu F.Mask F.Paste))
  (pad 20 smd rect (at -2.52 -25.4) (size 3 1) (layers F.Cu F.Mask F.Paste))
  (pad 21 smd rect (at 2.52 -22.86) (size 3 1) (layers F.Cu F.Mask F.Paste))
  (pad 22 smd rect (at -2.52 -22.86) (size 3 1) (layers F.Cu F.Mask F.Paste))
  (pad 23 smd rect (at 2.52 -20.32) (size 3 1) (layers F.Cu F.Mask F.Paste))
  (pad 24 smd rect (at -2.52 -20.32) (size 3 1) (layers F.Cu F.Mask F.Paste))
  (pad 25 smd rect (at 2.52 -17.78) (size 3 1) (layers F.Cu F.Mask F.Paste))
  (pad 26 smd rect (at -2.52 -17.78) (size 3 1) (layers F.Cu F.Mask F.Paste))
  (pad 27 smd rect (at 2.52 -15.24) (size 3 1) (layers F.Cu F.Mask F.Paste))
  (pad 28 smd rect (at -2.52 -15.24) (size 3 1) (layers F.Cu F.Mask F.Paste))
  (pad 29 smd rect (at 2.52 -12.7) (size 3 1) (layers F.Cu F.Mask F.Paste))
  (pad 30 smd rect (at -2.52 -12.7) (size 3 1) (layers F.Cu F.Mask F.Paste))
  (pad 31 smd rect (at 2.52 -10.16) (size 3 1) (layers F.Cu F.Mask F.Paste))
  (pad 32 smd rect (at -2.52 -10.16) (size 3 1) (layers F.Cu F.Mask F.Paste))
  (pad 33 smd rect (at 2.52 -7.62) (size 3 1) (layers F.Cu F.Mask F.Paste))
  (pad 34 smd rect (at -2.52 -7.62) (size 3 1) (layers F.Cu F.Mask F.Paste))
  (pad 35 smd rect (at 2.52 -5.08) (size 3 1) (layers F.Cu F.Mask F.Paste))
  (pad 36 smd rect (at -2.52 -5.08) (size 3 1) (layers F.Cu F.Mask F.Paste))
  (pad 37 smd rect (at 2.52 -2.54) (size 3 1) (layers F.Cu F.Mask F.Paste))
  (pad 38 smd rect (at -2.52 -2.54) (size 3 1) (layers F.Cu F.Mask F.Paste))
  (pad 39 smd rect (at 2.52 0) (size 3 1) (layers F.Cu F.Mask F.Paste))
  (pad 40 smd rect (at -2.52 0) (size 3 1) (layers F.Cu F.Mask F.Paste))
  (pad 41 smd rect (at 2.52 2.54) (size 3 1) (layers F.Cu F.Mask F.Paste))
  (pad 42 smd rect (at -2.52 2.54) (size 3 1) (layers F.Cu F.Mask F.Paste))
  (pad 43 smd rect (at 2.52 5.08) (size 3 1) (layers F.Cu F.Mask F.Paste))
  (pad 44 smd rect (at -2.52 5.08) (size 3 1) (layers F.Cu F.Mask F.Paste))
  (pad 45 smd rect (at 2.52 7.62) (size 3 1) (layers F.Cu F.Mask F.Paste))
  (pad 46 smd rect (at -2.52 7.62) (size 3 1) (layers F.Cu F.Mask F.Paste))
  (pad 47 smd rect (at 2.52 10.16) (size 3 1) (layers F.Cu F.Mask F.Paste))
  (pad 48 smd rect (at -2.52 10.16) (size 3 1) (layers F.Cu F.Mask F.Paste))
  (pad 49 smd rect (at 2.52 12.7) (size 3 1) (layers F.Cu F.Mask F.Paste))
  (pad 50 smd rect (at -2.52 12.7) (size 3 1) (layers F.Cu F.Mask F.Paste))
  (pad 51 smd rect (at 2.52 15.24) (size 3 1) (layers F.Cu F.Mask F.Paste))
  (pad 52 smd rect (at -2.52 15.24) (size 3 1) (layers F.Cu F.Mask F.Paste))
  (pad 53 smd rect (at 2.52 17.78) (size 3 1) (layers F.Cu F.Mask F.Paste))
  (pad 54 smd rect (at -2.52 17.78) (size 3 1) (layers F.Cu F.Mask F.Paste))
  (pad 55 smd rect (at 2.52 20.32) (size 3 1) (layers F.Cu F.Mask F.Paste))
  (pad 56 smd rect (at -2.52 20.32) (size 3 1) (layers F.Cu F.Mask F.Paste))
  (pad 57 smd rect (at 2.52 22.86) (size 3 1) (layers F.Cu F.Mask F.Paste))
  (pad 58 smd rect (at -2.52 22.86) (size 3 1) (layers F.Cu F.Mask F.Paste))
  (pad 59 smd rect (at 2.52 25.4) (size 3 1) (layers F.Cu F.Mask F.Paste))
  (pad 60 smd rect (at -2.52 25.4) (size 3 1) (layers F.Cu F.Mask F.Paste))
  (pad 61 smd rect (at 2.52 27.94) (size 3 1) (layers F.Cu F.Mask F.Paste))
  (pad 62 smd rect (at -2.52 27.94) (size 3 1) (layers F.Cu F.Mask F.Paste))
  (pad 63 smd rect (at 2.52 30.48) (size 3 1) (layers F.Cu F.Mask F.Paste))
  (pad 64 smd rect (at -2.52 30.48) (size 3 1) (layers F.Cu F.Mask F.Paste))
  (pad 65 smd rect (at 2.52 33.02) (size 3 1) (layers F.Cu F.Mask F.Paste))
  (pad 66 smd rect (at -2.52 33.02) (size 3 1) (layers F.Cu F.Mask F.Paste))
  (pad 67 smd rect (at 2.52 35.56) (size 3 1) (layers F.Cu F.Mask F.Paste))
  (pad 68 smd rect (at -2.52 35.56) (size 3 1) (layers F.Cu F.Mask F.Paste))
  (pad 69 smd rect (at 2.52 38.1) (size 3 1) (layers F.Cu F.Mask F.Paste))
  (pad 70 smd rect (at -2.52 38.1) (size 3 1) (layers F.Cu F.Mask F.Paste))
  (pad 71 smd rect (at 2.52 40.64) (size 3 1) (layers F.Cu F.Mask F.Paste))
  (pad 72 smd rect (at -2.52 40.64) (size 3 1) (layers F.Cu F.Mask F.Paste))
  (pad 73 smd rect (at 2.52 43.18) (size 3 1) (layers F.Cu F.Mask F.Paste))
  (pad 74 smd rect (at -2.52 43.18) (size 3 1) (layers F.Cu F.Mask F.Paste))
  (pad 75 smd rect (at 2.52 45.72) (size 3 1) (layers F.Cu F.Mask F.Paste))
  (pad 76 smd rect (at -2.52 45.72) (size 3 1) (layers F.Cu F.Mask F.Paste))
  (pad 77 smd rect (at 2.52 48.26) (size 3 1) (layers F.Cu F.Mask F.Paste))
  (pad 78 smd rect (at -2.52 48.26) (size 3 1) (layers F.Cu F.Mask F.Paste))
  (fp_text user %R (at 0 0 90) (layer F.Fab)
    (effects (font (size 1 1) (thickness 0.15)))
  )
  (model ${KICAD6_3DMODEL_DIR}/Connector_PinSocket_2.54mm.3dshapes/PinSocket_2x39_P2.54mm_Vertical_SMD.wrl
    (at (xyz 0 0 0))
    (scale (xyz 1 1 1))
    (rotate (xyz 0 0 0))
  )
)