(module PinSocket_1x12_P2.54mm_Horizontal (layer F.Cu) (tedit 5A19A41E)
  (descr "Through hole angled socket strip, 1x12, 2.54mm pitch, 8.51mm socket length, single row (from Kicad 4.0.7), script generated")
  (tags "Through hole angled socket strip THT 1x12 2.54mm single row")
  (fp_text reference REF** (at -4.38 -2.77) (layer F.SilkS)
    (effects (font (size 1 1) (thickness 0.15)))
  )
  (fp_text value PinSocket_1x12_P2.54mm_Horizontal (at -4.38 30.71) (layer F.Fab)
    (effects (font (size 1 1) (thickness 0.15)))
  )
  (fp_line (start -10.03 -1.27) (end -2.49 -1.27) (layer F.Fab) (width 0.1))
  (fp_line (start -2.49 -1.27) (end -1.52 -0.3) (layer F.Fab) (width 0.1))
  (fp_line (start -1.52 -0.3) (end -1.52 29.21) (layer F.Fab) (width 0.1))
  (fp_line (start -1.52 29.21) (end -10.03 29.21) (layer F.Fab) (width 0.1))
  (fp_line (start -10.03 29.21) (end -10.03 -1.27) (layer F.Fab) (width 0.1))
  (fp_line (start 0 -0.3) (end -1.52 -0.3) (layer F.Fab) (width 0.1))
  (fp_line (start -1.52 0.3) (end 0 0.3) (layer F.Fab) (width 0.1))
  (fp_line (start 0 0.3) (end 0 -0.3) (layer F.Fab) (width 0.1))
  (fp_line (start 0 2.24) (end -1.52 2.24) (layer F.Fab) (width 0.1))
  (fp_line (start -1.52 2.84) (end 0 2.84) (layer F.Fab) (width 0.1))
  (fp_line (start 0 2.84) (end 0 2.24) (layer F.Fab) (width 0.1))
  (fp_line (start 0 4.78) (end -1.52 4.78) (layer F.Fab) (width 0.1))
  (fp_line (start -1.52 5.38) (end 0 5.38) (layer F.Fab) (width 0.1))
  (fp_line (start 0 5.38) (end 0 4.78) (layer F.Fab) (width 0.1))
  (fp_line (start 0 7.32) (end -1.52 7.32) (layer F.Fab) (width 0.1))
  (fp_line (start -1.52 7.92) (end 0 7.92) (layer F.Fab) (width 0.1))
  (fp_line (start 0 7.92) (end 0 7.32) (layer F.Fab) (width 0.1))
  (fp_line (start 0 9.86) (end -1.52 9.86) (layer F.Fab) (width 0.1))
  (fp_line (start -1.52 10.46) (end 0 10.46) (layer F.Fab) (width 0.1))
  (fp_line (start 0 10.46) (end 0 9.86) (layer F.Fab) (width 0.1))
  (fp_line (start 0 12.4) (end -1.52 12.4) (layer F.Fab) (width 0.1))
  (fp_line (start -1.52 13) (end 0 13) (layer F.Fab) (width 0.1))
  (fp_line (start 0 13) (end 0 12.4) (layer F.Fab) (width 0.1))
  (fp_line (start 0 14.94) (end -1.52 14.94) (layer F.Fab) (width 0.1))
  (fp_line (start -1.52 15.54) (end 0 15.54) (layer F.Fab) (width 0.1))
  (fp_line (start 0 15.54) (end 0 14.94) (layer F.Fab) (width 0.1))
  (fp_line (start 0 17.48) (end -1.52 17.48) (layer F.Fab) (width 0.1))
  (fp_line (start -1.52 18.08) (end 0 18.08) (layer F.Fab) (width 0.1))
  (fp_line (start 0 18.08) (end 0 17.48) (layer F.Fab) (width 0.1))
  (fp_line (start 0 20.02) (end -1.52 20.02) (layer F.Fab) (width 0.1))
  (fp_line (start -1.52 20.62) (end 0 20.62) (layer F.Fab) (width 0.1))
  (fp_line (start 0 20.62) (end 0 20.02) (layer F.Fab) (width 0.1))
  (fp_line (start 0 22.56) (end -1.52 22.56) (layer F.Fab) (width 0.1))
  (fp_line (start -1.52 23.16) (end 0 23.16) (layer F.Fab) (width 0.1))
  (fp_line (start 0 23.16) (end 0 22.56) (layer F.Fab) (width 0.1))
  (fp_line (start 0 25.1) (end -1.52 25.1) (layer F.Fab) (width 0.1))
  (fp_line (start -1.52 25.7) (end 0 25.7) (layer F.Fab) (width 0.1))
  (fp_line (start 0 25.7) (end 0 25.1) (layer F.Fab) (width 0.1))
  (fp_line (start 0 27.64) (end -1.52 27.64) (layer F.Fab) (width 0.1))
  (fp_line (start -1.52 28.24) (end 0 28.24) (layer F.Fab) (width 0.1))
  (fp_line (start 0 28.24) (end 0 27.64) (layer F.Fab) (width 0.1))
  (fp_line (start -10.09 -1.21) (end -1.46 -1.21) (layer F.SilkS) (width 0.12))
  (fp_line (start -10.09 -1.091905) (end -1.46 -1.091905) (layer F.SilkS) (width 0.12))
  (fp_line (start -10.09 -0.97381) (end -1.46 -0.97381) (layer F.SilkS) (width 0.12))
  (fp_line (start -10.09 -0.855715) (end -1.46 -0.855715) (layer F.SilkS) (width 0.12))
  (fp_line (start -10.09 -0.73762) (end -1.46 -0.73762) (layer F.SilkS) (width 0.12))
  (fp_line (start -10.09 -0.619525) (end -1.46 -0.619525) (layer F.SilkS) (width 0.12))
  (fp_line (start -10.09 -0.50143) (end -1.46 -0.50143) (layer F.SilkS) (width 0.12))
  (fp_line (start -10.09 -0.383335) (end -1.46 -0.383335) (layer F.SilkS) (width 0.12))
  (fp_line (start -10.09 -0.26524) (end -1.46 -0.26524) (layer F.SilkS) (width 0.12))
  (fp_line (start -10.09 -0.147145) (end -1.46 -0.147145) (layer F.SilkS) (width 0.12))
  (fp_line (start -10.09 -0.02905) (end -1.46 -0.02905) (layer F.SilkS) (width 0.12))
  (fp_line (start -10.09 0.089045) (end -1.46 0.089045) (layer F.SilkS) (width 0.12))
  (fp_line (start -10.09 0.20714) (end -1.46 0.20714) (layer F.SilkS) (width 0.12))
  (fp_line (start -10.09 0.325235) (end -1.46 0.325235) (layer F.SilkS) (width 0.12))
  (fp_line (start -10.09 0.44333) (end -1.46 0.44333) (layer F.SilkS) (width 0.12))
  (fp_line (start -10.09 0.561425) (end -1.46 0.561425) (layer F.SilkS) (width 0.12))
  (fp_line (start -10.09 0.67952) (end -1.46 0.67952) (layer F.SilkS) (width 0.12))
  (fp_line (start -10.09 0.797615) (end -1.46 0.797615) (layer F.SilkS) (width 0.12))
  (fp_line (start -10.09 0.91571) (end -1.46 0.91571) (layer F.SilkS) (width 0.12))
  (fp_line (start -10.09 1.033805) (end -1.46 1.033805) (layer F.SilkS) (width 0.12))
  (fp_line (start -10.09 1.1519) (end -1.46 1.1519) (layer F.SilkS) (width 0.12))
  (fp_line (start -1.46 -0.36) (end -1.11 -0.36) (layer F.SilkS) (width 0.12))
  (fp_line (start -1.46 0.36) (end -1.11 0.36) (layer F.SilkS) (width 0.12))
  (fp_line (start -1.46 2.18) (end -1.05 2.18) (layer F.SilkS) (width 0.12))
  (fp_line (start -1.46 2.9) (end -1.05 2.9) (layer F.SilkS) (width 0.12))
  (fp_line (start -1.46 4.72) (end -1.05 4.72) (layer F.SilkS) (width 0.12))
  (fp_line (start -1.46 5.44) (end -1.05 5.44) (layer F.SilkS) (width 0.12))
  (fp_line (start -1.46 7.26) (end -1.05 7.26) (layer F.SilkS) (width 0.12))
  (fp_line (start -1.46 7.98) (end -1.05 7.98) (layer F.SilkS) (width 0.12))
  (fp_line (start -1.46 9.8) (end -1.05 9.8) (layer F.SilkS) (width 0.12))
  (fp_line (start -1.46 10.52) (end -1.05 10.52) (layer F.SilkS) (width 0.12))
  (fp_line (start -1.46 12.34) (end -1.05 12.34) (layer F.SilkS) (width 0.12))
  (fp_line (start -1.46 13.06) (end -1.05 13.06) (layer F.SilkS) (width 0.12))
  (fp_line (start -1.46 14.88) (end -1.05 14.88) (layer F.SilkS) (width 0.12))
  (fp_line (start -1.46 15.6) (end -1.05 15.6) (layer F.SilkS) (width 0.12))
  (fp_line (start -1.46 17.42) (end -1.05 17.42) (layer F.SilkS) (width 0.12))
  (fp_line (start -1.46 18.14) (end -1.05 18.14) (layer F.SilkS) (width 0.12))
  (fp_line (start -1.46 19.96) (end -1.05 19.96) (layer F.SilkS) (width 0.12))
  (fp_line (start -1.46 20.68) (end -1.05 20.68) (layer F.SilkS) (width 0.12))
  (fp_line (start -1.46 22.5) (end -1.05 22.5) (layer F.SilkS) (width 0.12))
  (fp_line (start -1.46 23.22) (end -1.05 23.22) (layer F.SilkS) (width 0.12))
  (fp_line (start -1.46 25.04) (end -1.05 25.04) (layer F.SilkS) (width 0.12))
  (fp_line (start -1.46 25.76) (end -1.05 25.76) (layer F.SilkS) (width 0.12))
  (fp_line (start -1.46 27.58) (end -1.05 27.58) (layer F.SilkS) (width 0.12))
  (fp_line (start -1.46 28.3) (end -1.05 28.3) (layer F.SilkS) (width 0.12))
  (fp_line (start -10.09 1.27) (end -1.46 1.27) (layer F.SilkS) (width 0.12))
  (fp_line (start -10.09 3.81) (end -1.46 3.81) (layer F.SilkS) (width 0.12))
  (fp_line (start -10.09 6.35) (end -1.46 6.35) (layer F.SilkS) (width 0.12))
  (fp_line (start -10.09 8.89) (end -1.46 8.89) (layer F.SilkS) (width 0.12))
  (fp_line (start -10.09 11.43) (end -1.46 11.43) (layer F.SilkS) (width 0.12))
  (fp_line (start -10.09 13.97) (end -1.46 13.97) (layer F.SilkS) (width 0.12))
  (fp_line (start -10.09 16.51) (end -1.46 16.51) (layer F.SilkS) (width 0.12))
  (fp_line (start -10.09 19.05) (end -1.46 19.05) (layer F.SilkS) (width 0.12))
  (fp_line (start -10.09 21.59) (end -1.46 21.59) (layer F.SilkS) (width 0.12))
  (fp_line (start -10.09 24.13) (end -1.46 24.13) (layer F.SilkS) (width 0.12))
  (fp_line (start -10.09 26.67) (end -1.46 26.67) (layer F.SilkS) (width 0.12))
  (fp_line (start -10.09 -1.33) (end -1.46 -1.33) (layer F.SilkS) (width 0.12))
  (fp_line (start -1.46 -1.33) (end -1.46 29.27) (layer F.SilkS) (width 0.12))
  (fp_line (start -10.09 29.27) (end -1.46 29.27) (layer F.SilkS) (width 0.12))
  (fp_line (start -10.09 -1.33) (end -10.09 29.27) (layer F.SilkS) (width 0.12))
  (fp_line (start 1.11 -1.33) (end 1.11 0) (layer F.SilkS) (width 0.12))
  (fp_line (start 0 -1.33) (end 1.11 -1.33) (layer F.SilkS) (width 0.12))
  (fp_line (start 1.75 -1.75) (end -10.55 -1.75) (layer F.CrtYd) (width 0.05))
  (fp_line (start -10.55 -1.75) (end -10.55 29.75) (layer F.CrtYd) (width 0.05))
  (fp_line (start -10.55 29.75) (end 1.75 29.75) (layer F.CrtYd) (width 0.05))
  (fp_line (start 1.75 29.75) (end 1.75 -1.75) (layer F.CrtYd) (width 0.05))
  (pad 1 thru_hole rect (at 0 0) (size 1.7 1.7) (drill 1) (layers *.Cu *.Mask))
  (pad 2 thru_hole oval (at 0 2.54) (size 1.7 1.7) (drill 1) (layers *.Cu *.Mask))
  (pad 3 thru_hole oval (at 0 5.08) (size 1.7 1.7) (drill 1) (layers *.Cu *.Mask))
  (pad 4 thru_hole oval (at 0 7.62) (size 1.7 1.7) (drill 1) (layers *.Cu *.Mask))
  (pad 5 thru_hole oval (at 0 10.16) (size 1.7 1.7) (drill 1) (layers *.Cu *.Mask))
  (pad 6 thru_hole oval (at 0 12.7) (size 1.7 1.7) (drill 1) (layers *.Cu *.Mask))
  (pad 7 thru_hole oval (at 0 15.24) (size 1.7 1.7) (drill 1) (layers *.Cu *.Mask))
  (pad 8 thru_hole oval (at 0 17.78) (size 1.7 1.7) (drill 1) (layers *.Cu *.Mask))
  (pad 9 thru_hole oval (at 0 20.32) (size 1.7 1.7) (drill 1) (layers *.Cu *.Mask))
  (pad 10 thru_hole oval (at 0 22.86) (size 1.7 1.7) (drill 1) (layers *.Cu *.Mask))
  (pad 11 thru_hole oval (at 0 25.4) (size 1.7 1.7) (drill 1) (layers *.Cu *.Mask))
  (pad 12 thru_hole oval (at 0 27.94) (size 1.7 1.7) (drill 1) (layers *.Cu *.Mask))
  (fp_text user %R (at -5.775 13.97 90) (layer F.Fab)
    (effects (font (size 1 1) (thickness 0.15)))
  )
  (model ${KICAD6_3DMODEL_DIR}/Connector_PinSocket_2.54mm.3dshapes/PinSocket_1x12_P2.54mm_Horizontal.wrl
    (at (xyz 0 0 0))
    (scale (xyz 1 1 1))
    (rotate (xyz 0 0 0))
  )
)