(module PinSocket_2x01_P2.54mm_Vertical (layer F.Cu) (tedit 5A19A420)
  (descr "Through hole straight socket strip, 2x01, 2.54mm pitch, double cols (from Kicad 4.0.7), script generated")
  (tags "Through hole socket strip THT 2x01 2.54mm double row")
  (fp_text reference REF** (at -1.27 -2.77) (layer F.SilkS)
    (effects (font (size 1 1) (thickness 0.15)))
  )
  (fp_text value PinSocket_2x01_P2.54mm_Vertical (at -1.27 2.77) (layer F.Fab)
    (effects (font (size 1 1) (thickness 0.15)))
  )
  (fp_line (start -3.81 -1.27) (end 0.635 -1.27) (layer F.Fab) (width 0.1))
  (fp_line (start 0.635 -1.27) (end 1.27 -0.635) (layer F.Fab) (width 0.1))
  (fp_line (start 1.27 -0.635) (end 1.27 1.27) (layer F.Fab) (width 0.1))
  (fp_line (start 1.27 1.27) (end -3.81 1.27) (layer F.Fab) (width 0.1))
  (fp_line (start -3.81 1.27) (end -3.81 -1.27) (layer F.Fab) (width 0.1))
  (fp_line (start -3.87 -1.33) (end -1.27 -1.33) (layer F.SilkS) (width 0.12))
  (fp_line (start -3.87 -1.33) (end -3.87 1.33) (layer F.SilkS) (width 0.12))
  (fp_line (start -3.87 1.33) (end 1.33 1.33) (layer F.SilkS) (width 0.12))
  (fp_line (start 1.33 1.27) (end 1.33 1.33) (layer F.SilkS) (width 0.12))
  (fp_line (start -1.27 1.27) (end 1.33 1.27) (layer F.SilkS) (width 0.12))
  (fp_line (start -1.27 -1.33) (end -1.27 1.27) (layer F.SilkS) (width 0.12))
  (fp_line (start 1.33 -1.33) (end 1.33 0) (layer F.SilkS) (width 0.12))
  (fp_line (start 0 -1.33) (end 1.33 -1.33) (layer F.SilkS) (width 0.12))
  (fp_line (start -4.34 -1.8) (end 1.76 -1.8) (layer F.CrtYd) (width 0.05))
  (fp_line (start 1.76 -1.8) (end 1.76 1.75) (layer F.CrtYd) (width 0.05))
  (fp_line (start 1.76 1.75) (end -4.34 1.75) (layer F.CrtYd) (width 0.05))
  (fp_line (start -4.34 1.75) (end -4.34 -1.8) (layer F.CrtYd) (width 0.05))
  (pad 1 thru_hole rect (at 0 0) (size 1.7 1.7) (drill 1) (layers *.Cu *.Mask))
  (pad 2 thru_hole oval (at -2.54 0) (size 1.7 1.7) (drill 1) (layers *.Cu *.Mask))
  (fp_text user %R (at -1.27 0) (layer F.Fab)
    (effects (font (size 1 1) (thickness 0.15)))
  )
  (model ${KICAD6_3DMODEL_DIR}/Connector_PinSocket_2.54mm.3dshapes/PinSocket_2x01_P2.54mm_Vertical.wrl
    (at (xyz 0 0 0))
    (scale (xyz 1 1 1))
    (rotate (xyz 0 0 0))
  )
)