(module PinSocket_1x37_P2.54mm_Vertical_SMD_Pin1Left (layer F.Cu) (tedit 5A19A427)
  (descr "surface-mounted straight socket strip, 1x37, 2.54mm pitch, single row, style 1 (pin 1 left) (https://cdn.harwin.com/pdfs/M20-786.pdf), script generated")
  (tags "Surface mounted socket strip SMD 1x37 2.54mm single row style1 pin1 left")
  (attr smd)
  (fp_text reference REF** (at 0 -48.59) (layer F.SilkS)
    (effects (font (size 1 1) (thickness 0.15)))
  )
  (fp_text value PinSocket_1x37_P2.54mm_Vertical_SMD_Pin1Left (at 0 48.59) (layer F.Fab)
    (effects (font (size 1 1) (thickness 0.15)))
  )
  (fp_line (start -1.33 -47.15) (end 1.33 -47.15) (layer F.SilkS) (width 0.12))
  (fp_line (start 1.33 -47.15) (end 1.33 -43.94) (layer F.SilkS) (width 0.12))
  (fp_line (start 1.33 -42.42) (end 1.33 -38.86) (layer F.SilkS) (width 0.12))
  (fp_line (start 1.33 -37.34) (end 1.33 -33.78) (layer F.SilkS) (width 0.12))
  (fp_line (start 1.33 -32.26) (end 1.33 -28.7) (layer F.SilkS) (width 0.12))
  (fp_line (start 1.33 -27.18) (end 1.33 -23.62) (layer F.SilkS) (width 0.12))
  (fp_line (start 1.33 -22.1) (end 1.33 -18.54) (layer F.SilkS) (width 0.12))
  (fp_line (start 1.33 -17.02) (end 1.33 -13.46) (layer F.SilkS) (width 0.12))
  (fp_line (start 1.33 -11.94) (end 1.33 -8.38) (layer F.SilkS) (width 0.12))
  (fp_line (start 1.33 -6.86) (end 1.33 -3.3) (layer F.SilkS) (width 0.12))
  (fp_line (start 1.33 -1.78) (end 1.33 1.78) (layer F.SilkS) (width 0.12))
  (fp_line (start 1.33 3.3) (end 1.33 6.86) (layer F.SilkS) (width 0.12))
  (fp_line (start 1.33 8.38) (end 1.33 11.94) (layer F.SilkS) (width 0.12))
  (fp_line (start 1.33 13.46) (end 1.33 17.02) (layer F.SilkS) (width 0.12))
  (fp_line (start 1.33 18.54) (end 1.33 22.1) (layer F.SilkS) (width 0.12))
  (fp_line (start 1.33 23.62) (end 1.33 27.18) (layer F.SilkS) (width 0.12))
  (fp_line (start 1.33 28.7) (end 1.33 32.26) (layer F.SilkS) (width 0.12))
  (fp_line (start 1.33 33.78) (end 1.33 37.34) (layer F.SilkS) (width 0.12))
  (fp_line (start 1.33 38.86) (end 1.33 42.42) (layer F.SilkS) (width 0.12))
  (fp_line (start 1.33 43.94) (end 1.33 47.15) (layer F.SilkS) (width 0.12))
  (fp_line (start -1.33 47.15) (end 1.33 47.15) (layer F.SilkS) (width 0.12))
  (fp_line (start -1.33 -47.15) (end -1.33 -46.48) (layer F.SilkS) (width 0.12))
  (fp_line (start -1.33 -44.96) (end -1.33 -41.4) (layer F.SilkS) (width 0.12))
  (fp_line (start -1.33 -39.88) (end -1.33 -36.32) (layer F.SilkS) (width 0.12))
  (fp_line (start -1.33 -34.8) (end -1.33 -31.24) (layer F.SilkS) (width 0.12))
  (fp_line (start -1.33 -29.72) (end -1.33 -26.16) (layer F.SilkS) (width 0.12))
  (fp_line (start -1.33 -24.64) (end -1.33 -21.08) (layer F.SilkS) (width 0.12))
  (fp_line (start -1.33 -19.56) (end -1.33 -16) (layer F.SilkS) (width 0.12))
  (fp_line (start -1.33 -14.48) (end -1.33 -10.92) (layer F.SilkS) (width 0.12))
  (fp_line (start -1.33 -9.4) (end -1.33 -5.84) (layer F.SilkS) (width 0.12))
  (fp_line (start -1.33 -4.32) (end -1.33 -0.76) (layer F.SilkS) (width 0.12))
  (fp_line (start -1.33 0.76) (end -1.33 4.32) (layer F.SilkS) (width 0.12))
  (fp_line (start -1.33 5.84) (end -1.33 9.4) (layer F.SilkS) (width 0.12))
  (fp_line (start -1.33 10.92) (end -1.33 14.48) (layer F.SilkS) (width 0.12))
  (fp_line (start -1.33 16) (end -1.33 19.56) (layer F.SilkS) (width 0.12))
  (fp_line (start -1.33 21.08) (end -1.33 24.64) (layer F.SilkS) (width 0.12))
  (fp_line (start -1.33 26.16) (end -1.33 29.72) (layer F.SilkS) (width 0.12))
  (fp_line (start -1.33 31.24) (end -1.33 34.8) (layer F.SilkS) (width 0.12))
  (fp_line (start -1.33 36.32) (end -1.33 39.88) (layer F.SilkS) (width 0.12))
  (fp_line (start -1.33 41.4) (end -1.33 44.96) (layer F.SilkS) (width 0.12))
  (fp_line (start -1.33 46.48) (end -1.33 47.15) (layer F.SilkS) (width 0.12))
  (fp_line (start -2.54 -46.48) (end -1.33 -46.48) (layer F.SilkS) (width 0.12))
  (fp_line (start -0.635 -47.09) (end 1.27 -47.09) (layer F.Fab) (width 0.1))
  (fp_line (start 1.27 -47.09) (end 1.27 47.09) (layer F.Fab) (width 0.1))
  (fp_line (start 1.27 47.09) (end -1.27 47.09) (layer F.Fab) (width 0.1))
  (fp_line (start -1.27 47.09) (end -1.27 -46.455) (layer F.Fab) (width 0.1))
  (fp_line (start -1.27 -46.455) (end -0.635 -47.09) (layer F.Fab) (width 0.1))
  (fp_line (start -2.27 -46.02) (end -1.27 -46.02) (layer F.Fab) (width 0.1))
  (fp_line (start -1.27 -45.42) (end -2.27 -45.42) (layer F.Fab) (width 0.1))
  (fp_line (start -2.27 -45.42) (end -2.27 -46.02) (layer F.Fab) (width 0.1))
  (fp_line (start 1.27 -43.48) (end 2.27 -43.48) (layer F.Fab) (width 0.1))
  (fp_line (start 2.27 -43.48) (end 2.27 -42.88) (layer F.Fab) (width 0.1))
  (fp_line (start 2.27 -42.88) (end 1.27 -42.88) (layer F.Fab) (width 0.1))
  (fp_line (start -2.27 -40.94) (end -1.27 -40.94) (layer F.Fab) (width 0.1))
  (fp_line (start -1.27 -40.34) (end -2.27 -40.34) (layer F.Fab) (width 0.1))
  (fp_line (start -2.27 -40.34) (end -2.27 -40.94) (layer F.Fab) (width 0.1))
  (fp_line (start 1.27 -38.4) (end 2.27 -38.4) (layer F.Fab) (width 0.1))
  (fp_line (start 2.27 -38.4) (end 2.27 -37.8) (layer F.Fab) (width 0.1))
  (fp_line (start 2.27 -37.8) (end 1.27 -37.8) (layer F.Fab) (width 0.1))
  (fp_line (start -2.27 -35.86) (end -1.27 -35.86) (layer F.Fab) (width 0.1))
  (fp_line (start -1.27 -35.26) (end -2.27 -35.26) (layer F.Fab) (width 0.1))
  (fp_line (start -2.27 -35.26) (end -2.27 -35.86) (layer F.Fab) (width 0.1))
  (fp_line (start 1.27 -33.32) (end 2.27 -33.32) (layer F.Fab) (width 0.1))
  (fp_line (start 2.27 -33.32) (end 2.27 -32.72) (layer F.Fab) (width 0.1))
  (fp_line (start 2.27 -32.72) (end 1.27 -32.72) (layer F.Fab) (width 0.1))
  (fp_line (start -2.27 -30.78) (end -1.27 -30.78) (layer F.Fab) (width 0.1))
  (fp_line (start -1.27 -30.18) (end -2.27 -30.18) (layer F.Fab) (width 0.1))
  (fp_line (start -2.27 -30.18) (end -2.27 -30.78) (layer F.Fab) (width 0.1))
  (fp_line (start 1.27 -28.24) (end 2.27 -28.24) (layer F.Fab) (width 0.1))
  (fp_line (start 2.27 -28.24) (end 2.27 -27.64) (layer F.Fab) (width 0.1))
  (fp_line (start 2.27 -27.64) (end 1.27 -27.64) (layer F.Fab) (width 0.1))
  (fp_line (start -2.27 -25.7) (end -1.27 -25.7) (layer F.Fab) (width 0.1))
  (fp_line (start -1.27 -25.1) (end -2.27 -25.1) (layer F.Fab) (width 0.1))
  (fp_line (start -2.27 -25.1) (end -2.27 -25.7) (layer F.Fab) (width 0.1))
  (fp_line (start 1.27 -23.16) (end 2.27 -23.16) (layer F.Fab) (width 0.1))
  (fp_line (start 2.27 -23.16) (end 2.27 -22.56) (layer F.Fab) (width 0.1))
  (fp_line (start 2.27 -22.56) (end 1.27 -22.56) (layer F.Fab) (width 0.1))
  (fp_line (start -2.27 -20.62) (end -1.27 -20.62) (layer F.Fab) (width 0.1))
  (fp_line (start -1.27 -20.02) (end -2.27 -20.02) (layer F.Fab) (width 0.1))
  (fp_line (start -2.27 -20.02) (end -2.27 -20.62) (layer F.Fab) (width 0.1))
  (fp_line (start 1.27 -18.08) (end 2.27 -18.08) (layer F.Fab) (width 0.1))
  (fp_line (start 2.27 -18.08) (end 2.27 -17.48) (layer F.Fab) (width 0.1))
  (fp_line (start 2.27 -17.48) (end 1.27 -17.48) (layer F.Fab) (width 0.1))
  (fp_line (start -2.27 -15.54) (end -1.27 -15.54) (layer F.Fab) (width 0.1))
  (fp_line (start -1.27 -14.94) (end -2.27 -14.94) (layer F.Fab) (width 0.1))
  (fp_line (start -2.27 -14.94) (end -2.27 -15.54) (layer F.Fab) (width 0.1))
  (fp_line (start 1.27 -13) (end 2.27 -13) (layer F.Fab) (width 0.1))
  (fp_line (start 2.27 -13) (end 2.27 -12.4) (layer F.Fab) (width 0.1))
  (fp_line (start 2.27 -12.4) (end 1.27 -12.4) (layer F.Fab) (width 0.1))
  (fp_line (start -2.27 -10.46) (end -1.27 -10.46) (layer F.Fab) (width 0.1))
  (fp_line (start -1.27 -9.86) (end -2.27 -9.86) (layer F.Fab) (width 0.1))
  (fp_line (start -2.27 -9.86) (end -2.27 -10.46) (layer F.Fab) (width 0.1))
  (fp_line (start 1.27 -7.92) (end 2.27 -7.92) (layer F.Fab) (width 0.1))
  (fp_line (start 2.27 -7.92) (end 2.27 -7.32) (layer F.Fab) (width 0.1))
  (fp_line (start 2.27 -7.32) (end 1.27 -7.32) (layer F.Fab) (width 0.1))
  (fp_line (start -2.27 -5.38) (end -1.27 -5.38) (layer F.Fab) (width 0.1))
  (fp_line (start -1.27 -4.78) (end -2.27 -4.78) (layer F.Fab) (width 0.1))
  (fp_line (start -2.27 -4.78) (end -2.27 -5.38) (layer F.Fab) (width 0.1))
  (fp_line (start 1.27 -2.84) (end 2.27 -2.84) (layer F.Fab) (width 0.1))
  (fp_line (start 2.27 -2.84) (end 2.27 -2.24) (layer F.Fab) (width 0.1))
  (fp_line (start 2.27 -2.24) (end 1.27 -2.24) (layer F.Fab) (width 0.1))
  (fp_line (start -2.27 -0.3) (end -1.27 -0.3) (layer F.Fab) (width 0.1))
  (fp_line (start -1.27 0.3) (end -2.27 0.3) (layer F.Fab) (width 0.1))
  (fp_line (start -2.27 0.3) (end -2.27 -0.3) (layer F.Fab) (width 0.1))
  (fp_line (start 1.27 2.24) (end 2.27 2.24) (layer F.Fab) (width 0.1))
  (fp_line (start 2.27 2.24) (end 2.27 2.84) (layer F.Fab) (width 0.1))
  (fp_line (start 2.27 2.84) (end 1.27 2.84) (layer F.Fab) (width 0.1))
  (fp_line (start -2.27 4.78) (end -1.27 4.78) (layer F.Fab) (width 0.1))
  (fp_line (start -1.27 5.38) (end -2.27 5.38) (layer F.Fab) (width 0.1))
  (fp_line (start -2.27 5.38) (end -2.27 4.78) (layer F.Fab) (width 0.1))
  (fp_line (start 1.27 7.32) (end 2.27 7.32) (layer F.Fab) (width 0.1))
  (fp_line (start 2.27 7.32) (end 2.27 7.92) (layer F.Fab) (width 0.1))
  (fp_line (start 2.27 7.92) (end 1.27 7.92) (layer F.Fab) (width 0.1))
  (fp_line (start -2.27 9.86) (end -1.27 9.86) (layer F.Fab) (width 0.1))
  (fp_line (start -1.27 10.46) (end -2.27 10.46) (layer F.Fab) (width 0.1))
  (fp_line (start -2.27 10.46) (end -2.27 9.86) (layer F.Fab) (width 0.1))
  (fp_line (start 1.27 12.4) (end 2.27 12.4) (layer F.Fab) (width 0.1))
  (fp_line (start 2.27 12.4) (end 2.27 13) (layer F.Fab) (width 0.1))
  (fp_line (start 2.27 13) (end 1.27 13) (layer F.Fab) (width 0.1))
  (fp_line (start -2.27 14.94) (end -1.27 14.94) (layer F.Fab) (width 0.1))
  (fp_line (start -1.27 15.54) (end -2.27 15.54) (layer F.Fab) (width 0.1))
  (fp_line (start -2.27 15.54) (end -2.27 14.94) (layer F.Fab) (width 0.1))
  (fp_line (start 1.27 17.48) (end 2.27 17.48) (layer F.Fab) (width 0.1))
  (fp_line (start 2.27 17.48) (end 2.27 18.08) (layer F.Fab) (width 0.1))
  (fp_line (start 2.27 18.08) (end 1.27 18.08) (layer F.Fab) (width 0.1))
  (fp_line (start -2.27 20.02) (end -1.27 20.02) (layer F.Fab) (width 0.1))
  (fp_line (start -1.27 20.62) (end -2.27 20.62) (layer F.Fab) (width 0.1))
  (fp_line (start -2.27 20.62) (end -2.27 20.02) (layer F.Fab) (width 0.1))
  (fp_line (start 1.27 22.56) (end 2.27 22.56) (layer F.Fab) (width 0.1))
  (fp_line (start 2.27 22.56) (end 2.27 23.16) (layer F.Fab) (width 0.1))
  (fp_line (start 2.27 23.16) (end 1.27 23.16) (layer F.Fab) (width 0.1))
  (fp_line (start -2.27 25.1) (end -1.27 25.1) (layer F.Fab) (width 0.1))
  (fp_line (start -1.27 25.7) (end -2.27 25.7) (layer F.Fab) (width 0.1))
  (fp_line (start -2.27 25.7) (end -2.27 25.1) (layer F.Fab) (width 0.1))
  (fp_line (start 1.27 27.64) (end 2.27 27.64) (layer F.Fab) (width 0.1))
  (fp_line (start 2.27 27.64) (end 2.27 28.24) (layer F.Fab) (width 0.1))
  (fp_line (start 2.27 28.24) (end 1.27 28.24) (layer F.Fab) (width 0.1))
  (fp_line (start -2.27 30.18) (end -1.27 30.18) (layer F.Fab) (width 0.1))
  (fp_line (start -1.27 30.78) (end -2.27 30.78) (layer F.Fab) (width 0.1))
  (fp_line (start -2.27 30.78) (end -2.27 30.18) (layer F.Fab) (width 0.1))
  (fp_line (start 1.27 32.72) (end 2.27 32.72) (layer F.Fab) (width 0.1))
  (fp_line (start 2.27 32.72) (end 2.27 33.32) (layer F.Fab) (width 0.1))
  (fp_line (start 2.27 33.32) (end 1.27 33.32) (layer F.Fab) (width 0.1))
  (fp_line (start -2.27 35.26) (end -1.27 35.26) (layer F.Fab) (width 0.1))
  (fp_line (start -1.27 35.86) (end -2.27 35.86) (layer F.Fab) (width 0.1))
  (fp_line (start -2.27 35.86) (end -2.27 35.26) (layer F.Fab) (width 0.1))
  (fp_line (start 1.27 37.8) (end 2.27 37.8) (layer F.Fab) (width 0.1))
  (fp_line (start 2.27 37.8) (end 2.27 38.4) (layer F.Fab) (width 0.1))
  (fp_line (start 2.27 38.4) (end 1.27 38.4) (layer F.Fab) (width 0.1))
  (fp_line (start -2.27 40.34) (end -1.27 40.34) (layer F.Fab) (width 0.1))
  (fp_line (start -1.27 40.94) (end -2.27 40.94) (layer F.Fab) (width 0.1))
  (fp_line (start -2.27 40.94) (end -2.27 40.34) (layer F.Fab) (width 0.1))
  (fp_line (start 1.27 42.88) (end 2.27 42.88) (layer F.Fab) (width 0.1))
  (fp_line (start 2.27 42.88) (end 2.27 43.48) (layer F.Fab) (width 0.1))
  (fp_line (start 2.27 43.48) (end 1.27 43.48) (layer F.Fab) (width 0.1))
  (fp_line (start -2.27 45.42) (end -1.27 45.42) (layer F.Fab) (width 0.1))
  (fp_line (start -1.27 46.02) (end -2.27 46.02) (layer F.Fab) (width 0.1))
  (fp_line (start -2.27 46.02) (end -2.27 45.42) (layer F.Fab) (width 0.1))
  (fp_line (start -3.1 -47.6) (end 3.1 -47.6) (layer F.CrtYd) (width 0.05))
  (fp_line (start 3.1 -47.6) (end 3.1 47.6) (layer F.CrtYd) (width 0.05))
  (fp_line (start 3.1 47.6) (end -3.1 47.6) (layer F.CrtYd) (width 0.05))
  (fp_line (start -3.1 47.6) (end -3.1 -47.6) (layer F.CrtYd) (width 0.05))
  (pad 1 smd rect (at -1.65 -45.72) (size 1.9 1) (layers F.Cu F.Mask F.Paste))
  (pad 3 smd rect (at -1.65 -40.64) (size 1.9 1) (layers F.Cu F.Mask F.Paste))
  (pad 5 smd rect (at -1.65 -35.56) (size 1.9 1) (layers F.Cu F.Mask F.Paste))
  (pad 7 smd rect (at -1.65 -30.48) (size 1.9 1) (layers F.Cu F.Mask F.Paste))
  (pad 9 smd rect (at -1.65 -25.4) (size 1.9 1) (layers F.Cu F.Mask F.Paste))
  (pad 11 smd rect (at -1.65 -20.32) (size 1.9 1) (layers F.Cu F.Mask F.Paste))
  (pad 13 smd rect (at -1.65 -15.24) (size 1.9 1) (layers F.Cu F.Mask F.Paste))
  (pad 15 smd rect (at -1.65 -10.16) (size 1.9 1) (layers F.Cu F.Mask F.Paste))
  (pad 17 smd rect (at -1.65 -5.08) (size 1.9 1) (layers F.Cu F.Mask F.Paste))
  (pad 19 smd rect (at -1.65 0) (size 1.9 1) (layers F.Cu F.Mask F.Paste))
  (pad 21 smd rect (at -1.65 5.08) (size 1.9 1) (layers F.Cu F.Mask F.Paste))
  (pad 23 smd rect (at -1.65 10.16) (size 1.9 1) (layers F.Cu F.Mask F.Paste))
  (pad 25 smd rect (at -1.65 15.24) (size 1.9 1) (layers F.Cu F.Mask F.Paste))
  (pad 27 smd rect (at -1.65 20.32) (size 1.9 1) (layers F.Cu F.Mask F.Paste))
  (pad 29 smd rect (at -1.65 25.4) (size 1.9 1) (layers F.Cu F.Mask F.Paste))
  (pad 31 smd rect (at -1.65 30.48) (size 1.9 1) (layers F.Cu F.Mask F.Paste))
  (pad 33 smd rect (at -1.65 35.56) (size 1.9 1) (layers F.Cu F.Mask F.Paste))
  (pad 35 smd rect (at -1.65 40.64) (size 1.9 1) (layers F.Cu F.Mask F.Paste))
  (pad 37 smd rect (at -1.65 45.72) (size 1.9 1) (layers F.Cu F.Mask F.Paste))
  (pad 2 smd rect (at 1.65 -43.18) (size 1.9 1) (layers F.Cu F.Mask F.Paste))
  (pad 4 smd rect (at 1.65 -38.1) (size 1.9 1) (layers F.Cu F.Mask F.Paste))
  (pad 6 smd rect (at 1.65 -33.02) (size 1.9 1) (layers F.Cu F.Mask F.Paste))
  (pad 8 smd rect (at 1.65 -27.94) (size 1.9 1) (layers F.Cu F.Mask F.Paste))
  (pad 10 smd rect (at 1.65 -22.86) (size 1.9 1) (layers F.Cu F.Mask F.Paste))
  (pad 12 smd rect (at 1.65 -17.78) (size 1.9 1) (layers F.Cu F.Mask F.Paste))
  (pad 14 smd rect (at 1.65 -12.7) (size 1.9 1) (layers F.Cu F.Mask F.Paste))
  (pad 16 smd rect (at 1.65 -7.62) (size 1.9 1) (layers F.Cu F.Mask F.Paste))
  (pad 18 smd rect (at 1.65 -2.54) (size 1.9 1) (layers F.Cu F.Mask F.Paste))
  (pad 20 smd rect (at 1.65 2.54) (size 1.9 1) (layers F.Cu F.Mask F.Paste))
  (pad 22 smd rect (at 1.65 7.62) (size 1.9 1) (layers F.Cu F.Mask F.Paste))
  (pad 24 smd rect (at 1.65 12.7) (size 1.9 1) (layers F.Cu F.Mask F.Paste))
  (pad 26 smd rect (at 1.65 17.78) (size 1.9 1) (layers F.Cu F.Mask F.Paste))
  (pad 28 smd rect (at 1.65 22.86) (size 1.9 1) (layers F.Cu F.Mask F.Paste))
  (pad 30 smd rect (at 1.65 27.94) (size 1.9 1) (layers F.Cu F.Mask F.Paste))
  (pad 32 smd rect (at 1.65 33.02) (size 1.9 1) (layers F.Cu F.Mask F.Paste))
  (pad 34 smd rect (at 1.65 38.1) (size 1.9 1) (layers F.Cu F.Mask F.Paste))
  (pad 36 smd rect (at 1.65 43.18) (size 1.9 1) (layers F.Cu F.Mask F.Paste))
  (fp_text user %R (at 0 0 90) (layer F.Fab)
    (effects (font (size 1 1) (thickness 0.15)))
  )
  (model ${KICAD6_3DMODEL_DIR}/Connector_PinSocket_2.54mm.3dshapes/PinSocket_1x37_P2.54mm_Vertical_SMD_Pin1Left.wrl
    (at (xyz 0 0 0))
    (scale (xyz 1 1 1))
    (rotate (xyz 0 0 0))
  )
)