(module BUS_PCIexpress_x8 (layer F.Cu) (tedit 5DBD33FF)
  (descr "PCIexpress Bus Edge Connector x1 http://www.ritrontek.com/uploadfile/2016/1026/20161026105231124.pdf#page=70")
  (tags PCIe)
  (attr virtual)
  (fp_text reference REF** (at 5 -3.5) (layer F.SilkS)
    (effects (font (size 1 1) (thickness 0.15)))
  )
  (fp_text value BUS_PCIexpress_x8 (at 10.33 -8.01) (layer F.Fab)
    (effects (font (size 1 1) (thickness 0.15)))
  )
  (fp_text user %R (at 16 -3.5) (layer F.Fab)
    (effects (font (size 1 1) (thickness 0.15)))
  )
  (fp_line (start -1.15 -5.45) (end 51.15 -5.45) (layer F.CrtYd) (width 0.05))
  (fp_line (start -1.15 -5.45) (end -1.15 3.95) (layer F.CrtYd) (width 0.05))
  (fp_line (start 51.15 3.95) (end 51.15 -5.45) (layer F.CrtYd) (width 0.05))
  (fp_line (start 51.15 3.95) (end -1.15 3.95) (layer F.CrtYd) (width 0.05))
  (fp_line (start 10.55 -4) (end 10.55 2.95) (layer Edge.Cuts) (width 0.1))
  (fp_line (start 12.45 -4) (end 12.45 2.95) (layer Edge.Cuts) (width 0.1))
  (fp_line (start -0.65 -4.95) (end -0.65 2.95) (layer Edge.Cuts) (width 0.1))
  (fp_line (start -0.15 3.45) (end 10.05 3.45) (layer Edge.Cuts) (width 0.1))
  (fp_line (start 50.65 -4.95) (end 50.65 2.95) (layer Edge.Cuts) (width 0.1))
  (fp_line (start 12.95 3.45) (end 50.15 3.45) (layer Edge.Cuts) (width 0.1))
  (fp_line (start -0.65 2.95) (end -0.15 3.45) (layer Edge.Cuts) (width 0.1))
  (fp_line (start 10.55 2.95) (end 10.05 3.45) (layer Edge.Cuts) (width 0.1))
  (fp_line (start 12.45 2.95) (end 12.95 3.45) (layer Edge.Cuts) (width 0.1))
  (fp_line (start 50.65 2.95) (end 50.15 3.45) (layer Edge.Cuts) (width 0.1))
  (fp_text user "PCB Thickness 1.57 mm" (at 5 2.8 180) (layer Cmts.User)
    (effects (font (size 0.5 0.5) (thickness 0.1)))
  )
  (fp_arc (start 11.5 -4) (end 12.45 -4) (angle -180) (layer Edge.Cuts) (width 0.1))
  (pad A41 connect rect (at 42 0) (size 0.7 4.3) (layers B.Cu B.Mask))
  (pad A40 connect rect (at 41 0) (size 0.7 4.3) (layers B.Cu B.Mask))
  (pad A39 connect rect (at 40 0) (size 0.7 4.3) (layers B.Cu B.Mask))
  (pad A38 connect rect (at 39 0) (size 0.7 4.3) (layers B.Cu B.Mask))
  (pad A37 connect rect (at 38 0) (size 0.7 4.3) (layers B.Cu B.Mask))
  (pad A36 connect rect (at 37 0) (size 0.7 4.3) (layers B.Cu B.Mask))
  (pad A35 connect rect (at 36 0) (size 0.7 4.3) (layers B.Cu B.Mask))
  (pad A34 connect rect (at 35 0) (size 0.7 4.3) (layers B.Cu B.Mask))
  (pad A33 connect rect (at 34 0) (size 0.7 4.3) (layers B.Cu B.Mask))
  (pad B49 connect rect (at 50 0) (size 0.7 4.3) (layers F.Cu F.Mask))
  (pad B48 connect rect (at 49 -0.55) (size 0.7 3.2) (layers F.Cu F.Mask))
  (pad B47 connect rect (at 48 0) (size 0.7 4.3) (layers F.Cu F.Mask))
  (pad B46 connect rect (at 47 0) (size 0.7 4.3) (layers F.Cu F.Mask))
  (pad B45 connect rect (at 46 0) (size 0.7 4.3) (layers F.Cu F.Mask))
  (pad B44 connect rect (at 45 0) (size 0.7 4.3) (layers F.Cu F.Mask))
  (pad B43 connect rect (at 44 0) (size 0.7 4.3) (layers F.Cu F.Mask))
  (pad B42 connect rect (at 43 0) (size 0.7 4.3) (layers F.Cu F.Mask))
  (pad B41 connect rect (at 42 0) (size 0.7 4.3) (layers F.Cu F.Mask))
  (pad B40 connect rect (at 41 0) (size 0.7 4.3) (layers F.Cu F.Mask))
  (pad B39 connect rect (at 40 0) (size 0.7 4.3) (layers F.Cu F.Mask))
  (pad B38 connect rect (at 39 0) (size 0.7 4.3) (layers F.Cu F.Mask))
  (pad B37 connect rect (at 38 0) (size 0.7 4.3) (layers F.Cu F.Mask))
  (pad B36 connect rect (at 37 0) (size 0.7 4.3) (layers F.Cu F.Mask))
  (pad B35 connect rect (at 36 0) (size 0.7 4.3) (layers F.Cu F.Mask))
  (pad B34 connect rect (at 35 0) (size 0.7 4.3) (layers F.Cu F.Mask))
  (pad B33 connect rect (at 34 0) (size 0.7 4.3) (layers F.Cu F.Mask))
  (pad A32 connect rect (at 33 0) (size 0.7 4.3) (layers B.Cu B.Mask))
  (pad A31 connect rect (at 32 0) (size 0.7 4.3) (layers B.Cu B.Mask))
  (pad A30 connect rect (at 31 0) (size 0.7 4.3) (layers B.Cu B.Mask))
  (pad A29 connect rect (at 30 0) (size 0.7 4.3) (layers B.Cu B.Mask))
  (pad A28 connect rect (at 29 0) (size 0.7 4.3) (layers B.Cu B.Mask))
  (pad A27 connect rect (at 28 0) (size 0.7 4.3) (layers B.Cu B.Mask))
  (pad A26 connect rect (at 27 0) (size 0.7 4.3) (layers B.Cu B.Mask))
  (pad A25 connect rect (at 26 0) (size 0.7 4.3) (layers B.Cu B.Mask))
  (pad A24 connect rect (at 25 0) (size 0.7 4.3) (layers B.Cu B.Mask))
  (pad A23 connect rect (at 24 0) (size 0.7 4.3) (layers B.Cu B.Mask))
  (pad A22 connect rect (at 23 0) (size 0.7 4.3) (layers B.Cu B.Mask))
  (pad A21 connect rect (at 22 0) (size 0.7 4.3) (layers B.Cu B.Mask))
  (pad A20 connect rect (at 21 0) (size 0.7 4.3) (layers B.Cu B.Mask))
  (pad A19 connect rect (at 20 0) (size 0.7 4.3) (layers B.Cu B.Mask))
  (pad B32 connect rect (at 33 0) (size 0.7 4.3) (layers F.Cu F.Mask))
  (pad B31 connect rect (at 32 0) (size 0.7 4.3) (layers F.Cu F.Mask))
  (pad B30 connect rect (at 31 0) (size 0.7 4.3) (layers F.Cu F.Mask))
  (pad B29 connect rect (at 30 0) (size 0.7 4.3) (layers F.Cu F.Mask))
  (pad B28 connect rect (at 29 0) (size 0.7 4.3) (layers F.Cu F.Mask))
  (pad B27 connect rect (at 28 0) (size 0.7 4.3) (layers F.Cu F.Mask))
  (pad B26 connect rect (at 27 0) (size 0.7 4.3) (layers F.Cu F.Mask))
  (pad B25 connect rect (at 26 0) (size 0.7 4.3) (layers F.Cu F.Mask))
  (pad B24 connect rect (at 25 0) (size 0.7 4.3) (layers F.Cu F.Mask))
  (pad B23 connect rect (at 24 0) (size 0.7 4.3) (layers F.Cu F.Mask))
  (pad B22 connect rect (at 23 0) (size 0.7 4.3) (layers F.Cu F.Mask))
  (pad B21 connect rect (at 22 0) (size 0.7 4.3) (layers F.Cu F.Mask))
  (pad B20 connect rect (at 21 0) (size 0.7 4.3) (layers F.Cu F.Mask))
  (pad B19 connect rect (at 20 0) (size 0.7 4.3) (layers F.Cu F.Mask))
  (pad B1 connect rect (at 0 0) (size 0.7 4.3) (layers F.Cu F.Mask))
  (pad B2 connect rect (at 1 0) (size 0.7 4.3) (layers F.Cu F.Mask))
  (pad B3 connect rect (at 2 0) (size 0.7 4.3) (layers F.Cu F.Mask))
  (pad B4 connect rect (at 3 0) (size 0.7 4.3) (layers F.Cu F.Mask))
  (pad B5 connect rect (at 4 0) (size 0.7 4.3) (layers F.Cu F.Mask))
  (pad B6 connect rect (at 5 0) (size 0.7 4.3) (layers F.Cu F.Mask))
  (pad B7 connect rect (at 6 0) (size 0.7 4.3) (layers F.Cu F.Mask))
  (pad B8 connect rect (at 7 0) (size 0.7 4.3) (layers F.Cu F.Mask))
  (pad B9 connect rect (at 8 0) (size 0.7 4.3) (layers F.Cu F.Mask))
  (pad B10 connect rect (at 9 0) (size 0.7 4.3) (layers F.Cu F.Mask))
  (pad B11 connect rect (at 10 0) (size 0.7 4.3) (layers F.Cu F.Mask))
  (pad B14 connect rect (at 15 0) (size 0.7 4.3) (layers F.Cu F.Mask))
  (pad B15 connect rect (at 16 0) (size 0.7 4.3) (layers F.Cu F.Mask))
  (pad B16 connect rect (at 17 0) (size 0.7 4.3) (layers F.Cu F.Mask))
  (pad B17 connect rect (at 18 0) (size 0.7 4.3) (layers F.Cu F.Mask))
  (pad B18 connect rect (at 19 0) (size 0.7 4.3) (layers F.Cu F.Mask))
  (pad B12 connect rect (at 13 0) (size 0.7 4.3) (layers F.Cu F.Mask))
  (pad B13 connect rect (at 14 0) (size 0.7 4.3) (layers F.Cu F.Mask))
  (pad A1 connect rect (at 0 -0.55) (size 0.7 3.2) (layers B.Cu B.Mask))
  (pad A2 connect rect (at 1 0) (size 0.7 4.3) (layers B.Cu B.Mask))
  (pad A3 connect rect (at 2 0) (size 0.7 4.3) (layers B.Cu B.Mask))
  (pad A4 connect rect (at 3 0) (size 0.7 4.3) (layers B.Cu B.Mask))
  (pad A5 connect rect (at 4 0) (size 0.7 4.3) (layers B.Cu B.Mask))
  (pad A6 connect rect (at 5 0) (size 0.7 4.3) (layers B.Cu B.Mask))
  (pad A7 connect rect (at 6 0) (size 0.7 4.3) (layers B.Cu B.Mask))
  (pad A8 connect rect (at 7 0) (size 0.7 4.3) (layers B.Cu B.Mask))
  (pad A9 connect rect (at 8 0) (size 0.7 4.3) (layers B.Cu B.Mask))
  (pad A10 connect rect (at 9 0) (size 0.7 4.3) (layers B.Cu B.Mask))
  (pad A11 connect rect (at 10 0) (size 0.7 4.3) (layers B.Cu B.Mask))
  (pad A14 connect rect (at 15 0) (size 0.7 4.3) (layers B.Cu B.Mask))
  (pad A15 connect rect (at 16 0) (size 0.7 4.3) (layers B.Cu B.Mask))
  (pad A16 connect rect (at 17 0) (size 0.7 4.3) (layers B.Cu B.Mask))
  (pad A17 connect rect (at 18 0) (size 0.7 4.3) (layers B.Cu B.Mask))
  (pad A18 connect rect (at 19 0) (size 0.7 4.3) (layers B.Cu B.Mask))
  (pad A12 connect rect (at 13 0) (size 0.7 4.3) (layers B.Cu B.Mask))
  (pad A13 connect rect (at 14 0) (size 0.7 4.3) (layers B.Cu B.Mask))
  (pad A42 connect rect (at 43 0) (size 0.7 4.3) (layers B.Cu B.Mask))
  (pad A43 connect rect (at 44 0) (size 0.7 4.3) (layers B.Cu B.Mask))
  (pad A44 connect rect (at 45 0) (size 0.7 4.3) (layers B.Cu B.Mask))
  (pad A45 connect rect (at 46 0) (size 0.7 4.3) (layers B.Cu B.Mask))
  (pad A46 connect rect (at 47 0) (size 0.7 4.3) (layers B.Cu B.Mask))
  (pad A47 connect rect (at 48 0) (size 0.7 4.3) (layers B.Cu B.Mask))
  (pad A48 connect rect (at 49 0) (size 0.7 4.3) (layers B.Cu B.Mask))
  (pad A49 connect rect (at 50 0) (size 0.7 4.3) (layers B.Cu B.Mask))
)
