(module Samtec_MECF-30-0_-L-DV_2x30_P1.27mm_Polarized_Edge (layer F.Cu) (tedit 5A1FF4BD)
  (descr "Highspeed card edge connector for PCB's with 30 contacts (polarized)")
  (tags "conn samtec card-edge high-speed")
  (attr virtual)
  (fp_text reference REF** (at 0 -5.95) (layer F.SilkS)
    (effects (font (size 1 1) (thickness 0.15)))
  )
  (fp_text value Samtec_MECF-30-0_-L-DV_2x30_P1.27mm_Polarized_Edge (at 0 5.7) (layer F.Fab)
    (effects (font (size 1 1) (thickness 0.15)))
  )
  (fp_line (start -18.655 5) (end 19.925 5) (layer F.Fab) (width 0.1))
  (fp_line (start -19.925 -5) (end 19.925 -5) (layer F.Fab) (width 0.1))
  (fp_line (start -19.925 3.73) (end -19.925 -5) (layer F.Fab) (width 0.1))
  (fp_line (start 19.925 5) (end 19.925 -5) (layer F.Fab) (width 0.1))
  (fp_line (start -19.925 3.73) (end -18.655 5) (layer F.Fab) (width 0.1))
  (fp_line (start -19.925 5) (end 19.925 5) (layer B.Fab) (width 0.1))
  (fp_line (start -19.925 -5) (end 19.925 -5) (layer B.Fab) (width 0.1))
  (fp_line (start -19.925 5) (end -19.925 -5) (layer B.Fab) (width 0.1))
  (fp_line (start 19.925 5) (end 19.925 -5) (layer B.Fab) (width 0.1))
  (fp_line (start -18.77 5) (end 20.04 5) (layer F.SilkS) (width 0.12))
  (fp_line (start -20.04 -5.11) (end 20.04 -5.11) (layer F.SilkS) (width 0.12))
  (fp_line (start -20.04 3.73) (end -20.04 -5.11) (layer F.SilkS) (width 0.12))
  (fp_line (start 20.04 5) (end 20.04 -5.11) (layer F.SilkS) (width 0.12))
  (fp_line (start -18.77 5) (end -20.04 3.73) (layer F.SilkS) (width 0.12))
  (fp_line (start -20.04 5) (end 20.04 5) (layer B.SilkS) (width 0.12))
  (fp_line (start -20.04 -5.11) (end 20.04 -5.11) (layer B.SilkS) (width 0.12))
  (fp_line (start -20.04 5) (end -20.04 -5.11) (layer B.SilkS) (width 0.12))
  (fp_line (start 20.04 5) (end 20.04 -5.11) (layer B.SilkS) (width 0.12))
  (fp_line (start -20.18 -5.25) (end -20.18 5) (layer F.CrtYd) (width 0.05))
  (fp_line (start -20.18 5) (end 20.18 5) (layer F.CrtYd) (width 0.05))
  (fp_line (start 20.18 5) (end 20.18 -5.25) (layer F.CrtYd) (width 0.05))
  (fp_line (start 20.18 -5.25) (end -20.18 -5.25) (layer F.CrtYd) (width 0.05))
  (fp_line (start -20.18 -5.25) (end -20.18 5) (layer B.CrtYd) (width 0.05))
  (fp_line (start -20.18 5) (end 20.18 5) (layer B.CrtYd) (width 0.05))
  (fp_line (start 20.18 5) (end 20.18 -5.25) (layer B.CrtYd) (width 0.05))
  (fp_line (start 20.18 -5.25) (end -20.18 -5.25) (layer B.CrtYd) (width 0.05))
  (fp_line (start -19.925 5) (end -19.925 -5) (layer Edge.Cuts) (width 0.12))
  (fp_line (start 19.925 5) (end 19.925 -5) (layer Edge.Cuts) (width 0.12))
  (fp_line (start -20.25 -5) (end -19.925 -5) (layer Edge.Cuts) (width 0.12))
  (fp_line (start 20.25 -5) (end 19.925 -5) (layer Edge.Cuts) (width 0.12))
  (fp_line (start -19.925 5) (end -6.325 5) (layer Edge.Cuts) (width 0.12))
  (fp_line (start -6.325 5) (end -6.325 -2) (layer Edge.Cuts) (width 0.12))
  (fp_line (start -5.085 5) (end -5.085 -2) (layer Edge.Cuts) (width 0.12))
  (fp_line (start -6.325 -2) (end -5.085 -2) (layer Edge.Cuts) (width 0.12))
  (fp_line (start -5.085 5) (end 19.925 5) (layer Edge.Cuts) (width 0.12))
  (pad 1 connect rect (at -18.405 2.5) (size 0.56 4) (layers F.Cu F.Mask))
  (pad 2 connect rect (at -18.405 2.5) (size 0.56 4) (layers B.Cu B.Mask))
  (pad 3 connect rect (at -17.135 2.5) (size 0.56 4) (layers F.Cu F.Mask))
  (pad 4 connect rect (at -17.135 2.5) (size 0.56 4) (layers B.Cu B.Mask))
  (pad 5 connect rect (at -15.865 2.5) (size 0.56 4) (layers F.Cu F.Mask))
  (pad 6 connect rect (at -15.865 2.5) (size 0.56 4) (layers B.Cu B.Mask))
  (pad 7 connect rect (at -14.595 2.5) (size 0.56 4) (layers F.Cu F.Mask))
  (pad 8 connect rect (at -14.595 2.5) (size 0.56 4) (layers B.Cu B.Mask))
  (pad 9 connect rect (at -13.325 2.5) (size 0.56 4) (layers F.Cu F.Mask))
  (pad 10 connect rect (at -13.325 2.5) (size 0.56 4) (layers B.Cu B.Mask))
  (pad 11 connect rect (at -12.055 2.5) (size 0.56 4) (layers F.Cu F.Mask))
  (pad 12 connect rect (at -12.055 2.5) (size 0.56 4) (layers B.Cu B.Mask))
  (pad 13 connect rect (at -10.785 2.5) (size 0.56 4) (layers F.Cu F.Mask))
  (pad 14 connect rect (at -10.785 2.5) (size 0.56 4) (layers B.Cu B.Mask))
  (pad 15 connect rect (at -9.515 2.5) (size 0.56 4) (layers F.Cu F.Mask))
  (pad 16 connect rect (at -9.515 2.5) (size 0.56 4) (layers B.Cu B.Mask))
  (pad 17 connect rect (at -8.245 2.5) (size 0.56 4) (layers F.Cu F.Mask))
  (pad 18 connect rect (at -8.245 2.5) (size 0.56 4) (layers B.Cu B.Mask))
  (pad 19 connect rect (at -6.975 2.5) (size 0.56 4) (layers F.Cu F.Mask))
  (pad 20 connect rect (at -6.975 2.5) (size 0.56 4) (layers B.Cu B.Mask))
  (pad 23 connect rect (at -4.435 2.5) (size 0.56 4) (layers F.Cu F.Mask))
  (pad 24 connect rect (at -4.435 2.5) (size 0.56 4) (layers B.Cu B.Mask))
  (pad 25 connect rect (at -3.165 2.5) (size 0.56 4) (layers F.Cu F.Mask))
  (pad 26 connect rect (at -3.165 2.5) (size 0.56 4) (layers B.Cu B.Mask))
  (pad 27 connect rect (at -1.895 2.5) (size 0.56 4) (layers F.Cu F.Mask))
  (pad 28 connect rect (at -1.895 2.5) (size 0.56 4) (layers B.Cu B.Mask))
  (pad 29 connect rect (at -0.625 2.5) (size 0.56 4) (layers F.Cu F.Mask))
  (pad 30 connect rect (at -0.625 2.5) (size 0.56 4) (layers B.Cu B.Mask))
  (pad 31 connect rect (at 0.645 2.5) (size 0.56 4) (layers F.Cu F.Mask))
  (pad 32 connect rect (at 0.645 2.5) (size 0.56 4) (layers B.Cu B.Mask))
  (pad 33 connect rect (at 1.915 2.5) (size 0.56 4) (layers F.Cu F.Mask))
  (pad 34 connect rect (at 1.915 2.5) (size 0.56 4) (layers B.Cu B.Mask))
  (pad 35 connect rect (at 3.185 2.5) (size 0.56 4) (layers F.Cu F.Mask))
  (pad 36 connect rect (at 3.185 2.5) (size 0.56 4) (layers B.Cu B.Mask))
  (pad 37 connect rect (at 4.455 2.5) (size 0.56 4) (layers F.Cu F.Mask))
  (pad 38 connect rect (at 4.455 2.5) (size 0.56 4) (layers B.Cu B.Mask))
  (pad 39 connect rect (at 5.725 2.5) (size 0.56 4) (layers F.Cu F.Mask))
  (pad 40 connect rect (at 5.725 2.5) (size 0.56 4) (layers B.Cu B.Mask))
  (pad 41 connect rect (at 6.995 2.5) (size 0.56 4) (layers F.Cu F.Mask))
  (pad 42 connect rect (at 6.995 2.5) (size 0.56 4) (layers B.Cu B.Mask))
  (pad 43 connect rect (at 8.265 2.5) (size 0.56 4) (layers F.Cu F.Mask))
  (pad 44 connect rect (at 8.265 2.5) (size 0.56 4) (layers B.Cu B.Mask))
  (pad 45 connect rect (at 9.535 2.5) (size 0.56 4) (layers F.Cu F.Mask))
  (pad 46 connect rect (at 9.535 2.5) (size 0.56 4) (layers B.Cu B.Mask))
  (pad 47 connect rect (at 10.805 2.5) (size 0.56 4) (layers F.Cu F.Mask))
  (pad 48 connect rect (at 10.805 2.5) (size 0.56 4) (layers B.Cu B.Mask))
  (pad 49 connect rect (at 12.075 2.5) (size 0.56 4) (layers F.Cu F.Mask))
  (pad 50 connect rect (at 12.075 2.5) (size 0.56 4) (layers B.Cu B.Mask))
  (pad 51 connect rect (at 13.345 2.5) (size 0.56 4) (layers F.Cu F.Mask))
  (pad 52 connect rect (at 13.345 2.5) (size 0.56 4) (layers B.Cu B.Mask))
  (pad 53 connect rect (at 14.615 2.5) (size 0.56 4) (layers F.Cu F.Mask))
  (pad 54 connect rect (at 14.615 2.5) (size 0.56 4) (layers B.Cu B.Mask))
  (pad 55 connect rect (at 15.885 2.5) (size 0.56 4) (layers F.Cu F.Mask))
  (pad 56 connect rect (at 15.885 2.5) (size 0.56 4) (layers B.Cu B.Mask))
  (pad 57 connect rect (at 17.155 2.5) (size 0.56 4) (layers F.Cu F.Mask))
  (pad 58 connect rect (at 17.155 2.5) (size 0.56 4) (layers B.Cu B.Mask))
  (pad 59 connect rect (at 18.425 2.5) (size 0.56 4) (layers F.Cu F.Mask))
  (pad 60 connect rect (at 18.425 2.5) (size 0.56 4) (layers B.Cu B.Mask))
  (fp_text user %R (at 0 -2.54) (layer F.Fab)
    (effects (font (size 1 1) (thickness 0.15)))
  )
)