(module Samtec_MECF-05-02-NP-L-DV-WT_2x05_P1.27mm_Socket_Horizontal (layer F.Cu) (tedit 5A1FF529)
  (descr "Highspeed card edge connector for 2.4mm PCB's with 05 contacts (not polarized)")
  (tags "conn samtec card-edge high-speed")
  (attr smd)
  (fp_text reference REF** (at 0 -4.4) (layer F.SilkS)
    (effects (font (size 1 1) (thickness 0.15)))
  )
  (fp_text value Samtec_MECF-05-02-NP-L-DV-WT_2x05_P1.27mm_Socket_Horizontal (at 0 4.4) (layer F.Fab)
    (effects (font (size 1 1) (thickness 0.15)))
  )
  (fp_line (start -5.865 3.2) (end 7.135 3.2) (layer F.Fab) (width 0.1))
  (fp_line (start -7.135 -3.2) (end 7.135 -3.2) (layer F.Fab) (width 0.1))
  (fp_line (start -7.135 1.93) (end -7.135 -3.2) (layer F.Fab) (width 0.1))
  (fp_line (start 7.135 3.2) (end 7.135 -3.2) (layer F.Fab) (width 0.1))
  (fp_line (start -7.135 1.93) (end -5.865 3.2) (layer F.Fab) (width 0.1))
  (fp_line (start -5.98 3.31) (end 7.25 3.31) (layer F.SilkS) (width 0.12))
  (fp_line (start -7.25 -3.31) (end 7.25 -3.31) (layer F.SilkS) (width 0.12))
  (fp_line (start -7.25 2.04) (end -7.25 -3.31) (layer F.SilkS) (width 0.12))
  (fp_line (start 7.25 3.31) (end 7.25 -3.31) (layer F.SilkS) (width 0.12))
  (fp_line (start -5.98 3.31) (end -7.25 2.04) (layer F.SilkS) (width 0.12))
  (fp_line (start -7.64 -3.7) (end -7.64 3.7) (layer F.CrtYd) (width 0.05))
  (fp_line (start -7.64 3.7) (end 7.64 3.7) (layer F.CrtYd) (width 0.05))
  (fp_line (start 7.64 3.7) (end 7.64 -3.7) (layer F.CrtYd) (width 0.05))
  (fp_line (start 7.64 -3.7) (end -7.64 -3.7) (layer F.CrtYd) (width 0.05))
  (pad 1 smd rect (at -2.54 2.3) (size 0.66 1.35) (layers F.Cu F.Mask F.Paste))
  (pad 2 smd rect (at -2.54 -2.3) (size 0.66 1.35) (layers F.Cu F.Mask F.Paste))
  (pad 3 smd rect (at -1.27 2.3) (size 0.66 1.35) (layers F.Cu F.Mask F.Paste))
  (pad 4 smd rect (at -1.27 -2.3) (size 0.66 1.35) (layers F.Cu F.Mask F.Paste))
  (pad 5 smd rect (at 0 2.3) (size 0.66 1.35) (layers F.Cu F.Mask F.Paste))
  (pad 6 smd rect (at 0 -2.3) (size 0.66 1.35) (layers F.Cu F.Mask F.Paste))
  (pad 7 smd rect (at 1.27 2.3) (size 0.66 1.35) (layers F.Cu F.Mask F.Paste))
  (pad 8 smd rect (at 1.27 -2.3) (size 0.66 1.35) (layers F.Cu F.Mask F.Paste))
  (pad 9 smd rect (at 2.54 2.3) (size 0.66 1.35) (layers F.Cu F.Mask F.Paste))
  (pad 10 smd rect (at 2.54 -2.3) (size 0.66 1.35) (layers F.Cu F.Mask F.Paste))
  (pad "" np_thru_hole circle (at -4.32 0) (size 1.45 1.45) (drill 1.45) (layers *.Cu *.Mask))
  (pad "" np_thru_hole circle (at 4.32 1) (size 1.45 1.45) (drill 1.45) (layers *.Cu *.Mask))
  (pad "" thru_hole circle (at -6.225 0) (size 1.5 1.5) (drill 1) (layers *.Cu *.Mask))
  (pad "" thru_hole circle (at 6.225 0) (size 1.5 1.5) (drill 1) (layers *.Cu *.Mask))
  (fp_text user %R (at 0 0) (layer F.Fab)
    (effects (font (size 1 1) (thickness 0.15)))
  )
  (model ${KICAD6_3DMODEL_DIR}/Connector_PCBEdge.3dshapes/Samtec_MECF-05-02-NP-L-DV-WT_2x05_P1.27mm_Socket_Horizontal.wrl
    (at (xyz 0 0 0))
    (scale (xyz 1 1 1))
    (rotate (xyz 0 0 0))
  )
)