(module Samtec_MECF-50-0_-L-DV_2x50_P1.27mm_Polarized_Edge (layer F.Cu) (tedit 5A1FF4BD)
  (descr "Highspeed card edge connector for PCB's with 50 contacts (polarized)")
  (tags "conn samtec card-edge high-speed")
  (attr virtual)
  (fp_text reference REF** (at 0 -5.95) (layer F.SilkS)
    (effects (font (size 1 1) (thickness 0.15)))
  )
  (fp_text value Samtec_MECF-50-0_-L-DV_2x50_P1.27mm_Polarized_Edge (at 0 5.7) (layer F.Fab)
    (effects (font (size 1 1) (thickness 0.15)))
  )
  (fp_line (start -31.355 5) (end 32.625 5) (layer F.Fab) (width 0.1))
  (fp_line (start -32.625 -5) (end 32.625 -5) (layer F.Fab) (width 0.1))
  (fp_line (start -32.625 3.73) (end -32.625 -5) (layer F.Fab) (width 0.1))
  (fp_line (start 32.625 5) (end 32.625 -5) (layer F.Fab) (width 0.1))
  (fp_line (start -32.625 3.73) (end -31.355 5) (layer F.Fab) (width 0.1))
  (fp_line (start -32.625 5) (end 32.625 5) (layer B.Fab) (width 0.1))
  (fp_line (start -32.625 -5) (end 32.625 -5) (layer B.Fab) (width 0.1))
  (fp_line (start -32.625 5) (end -32.625 -5) (layer B.Fab) (width 0.1))
  (fp_line (start 32.625 5) (end 32.625 -5) (layer B.Fab) (width 0.1))
  (fp_line (start -31.46 5) (end 32.73 5) (layer F.SilkS) (width 0.12))
  (fp_line (start -32.73 -5.11) (end 32.73 -5.11) (layer F.SilkS) (width 0.12))
  (fp_line (start -32.73 3.73) (end -32.73 -5.11) (layer F.SilkS) (width 0.12))
  (fp_line (start 32.73 5) (end 32.73 -5.11) (layer F.SilkS) (width 0.12))
  (fp_line (start -31.46 5) (end -32.73 3.73) (layer F.SilkS) (width 0.12))
  (fp_line (start -32.73 5) (end 32.73 5) (layer B.SilkS) (width 0.12))
  (fp_line (start -32.73 -5.11) (end 32.73 -5.11) (layer B.SilkS) (width 0.12))
  (fp_line (start -32.73 5) (end -32.73 -5.11) (layer B.SilkS) (width 0.12))
  (fp_line (start 32.73 5) (end 32.73 -5.11) (layer B.SilkS) (width 0.12))
  (fp_line (start -32.88 -5.25) (end -32.88 5) (layer F.CrtYd) (width 0.05))
  (fp_line (start -32.88 5) (end 32.88 5) (layer F.CrtYd) (width 0.05))
  (fp_line (start 32.88 5) (end 32.88 -5.25) (layer F.CrtYd) (width 0.05))
  (fp_line (start 32.88 -5.25) (end -32.88 -5.25) (layer F.CrtYd) (width 0.05))
  (fp_line (start -32.88 -5.25) (end -32.88 5) (layer B.CrtYd) (width 0.05))
  (fp_line (start -32.88 5) (end 32.88 5) (layer B.CrtYd) (width 0.05))
  (fp_line (start 32.88 5) (end 32.88 -5.25) (layer B.CrtYd) (width 0.05))
  (fp_line (start 32.88 -5.25) (end -32.88 -5.25) (layer B.CrtYd) (width 0.05))
  (fp_line (start -32.625 5) (end -32.625 -5) (layer Edge.Cuts) (width 0.12))
  (fp_line (start 32.625 5) (end 32.625 -5) (layer Edge.Cuts) (width 0.12))
  (fp_line (start -33 -5) (end -32.625 -5) (layer Edge.Cuts) (width 0.12))
  (fp_line (start 33 -5) (end 32.625 -5) (layer Edge.Cuts) (width 0.12))
  (fp_line (start -32.625 5) (end -6.325 5) (layer Edge.Cuts) (width 0.12))
  (fp_line (start -6.325 5) (end -6.325 -2) (layer Edge.Cuts) (width 0.12))
  (fp_line (start -5.085 5) (end -5.085 -2) (layer Edge.Cuts) (width 0.12))
  (fp_line (start -6.325 -2) (end -5.085 -2) (layer Edge.Cuts) (width 0.12))
  (fp_line (start -5.085 5) (end 32.625 5) (layer Edge.Cuts) (width 0.12))
  (pad 1 connect rect (at -31.105 2.5) (size 0.56 4) (layers F.Cu F.Mask))
  (pad 2 connect rect (at -31.105 2.5) (size 0.56 4) (layers B.Cu B.Mask))
  (pad 3 connect rect (at -29.835 2.5) (size 0.56 4) (layers F.Cu F.Mask))
  (pad 4 connect rect (at -29.835 2.5) (size 0.56 4) (layers B.Cu B.Mask))
  (pad 5 connect rect (at -28.565 2.5) (size 0.56 4) (layers F.Cu F.Mask))
  (pad 6 connect rect (at -28.565 2.5) (size 0.56 4) (layers B.Cu B.Mask))
  (pad 7 connect rect (at -27.295 2.5) (size 0.56 4) (layers F.Cu F.Mask))
  (pad 8 connect rect (at -27.295 2.5) (size 0.56 4) (layers B.Cu B.Mask))
  (pad 9 connect rect (at -26.025 2.5) (size 0.56 4) (layers F.Cu F.Mask))
  (pad 10 connect rect (at -26.025 2.5) (size 0.56 4) (layers B.Cu B.Mask))
  (pad 11 connect rect (at -24.755 2.5) (size 0.56 4) (layers F.Cu F.Mask))
  (pad 12 connect rect (at -24.755 2.5) (size 0.56 4) (layers B.Cu B.Mask))
  (pad 13 connect rect (at -23.485 2.5) (size 0.56 4) (layers F.Cu F.Mask))
  (pad 14 connect rect (at -23.485 2.5) (size 0.56 4) (layers B.Cu B.Mask))
  (pad 15 connect rect (at -22.215 2.5) (size 0.56 4) (layers F.Cu F.Mask))
  (pad 16 connect rect (at -22.215 2.5) (size 0.56 4) (layers B.Cu B.Mask))
  (pad 17 connect rect (at -20.945 2.5) (size 0.56 4) (layers F.Cu F.Mask))
  (pad 18 connect rect (at -20.945 2.5) (size 0.56 4) (layers B.Cu B.Mask))
  (pad 19 connect rect (at -19.675 2.5) (size 0.56 4) (layers F.Cu F.Mask))
  (pad 20 connect rect (at -19.675 2.5) (size 0.56 4) (layers B.Cu B.Mask))
  (pad 21 connect rect (at -18.405 2.5) (size 0.56 4) (layers F.Cu F.Mask))
  (pad 22 connect rect (at -18.405 2.5) (size 0.56 4) (layers B.Cu B.Mask))
  (pad 23 connect rect (at -17.135 2.5) (size 0.56 4) (layers F.Cu F.Mask))
  (pad 24 connect rect (at -17.135 2.5) (size 0.56 4) (layers B.Cu B.Mask))
  (pad 25 connect rect (at -15.865 2.5) (size 0.56 4) (layers F.Cu F.Mask))
  (pad 26 connect rect (at -15.865 2.5) (size 0.56 4) (layers B.Cu B.Mask))
  (pad 27 connect rect (at -14.595 2.5) (size 0.56 4) (layers F.Cu F.Mask))
  (pad 28 connect rect (at -14.595 2.5) (size 0.56 4) (layers B.Cu B.Mask))
  (pad 29 connect rect (at -13.325 2.5) (size 0.56 4) (layers F.Cu F.Mask))
  (pad 30 connect rect (at -13.325 2.5) (size 0.56 4) (layers B.Cu B.Mask))
  (pad 31 connect rect (at -12.055 2.5) (size 0.56 4) (layers F.Cu F.Mask))
  (pad 32 connect rect (at -12.055 2.5) (size 0.56 4) (layers B.Cu B.Mask))
  (pad 33 connect rect (at -10.785 2.5) (size 0.56 4) (layers F.Cu F.Mask))
  (pad 34 connect rect (at -10.785 2.5) (size 0.56 4) (layers B.Cu B.Mask))
  (pad 35 connect rect (at -9.515 2.5) (size 0.56 4) (layers F.Cu F.Mask))
  (pad 36 connect rect (at -9.515 2.5) (size 0.56 4) (layers B.Cu B.Mask))
  (pad 37 connect rect (at -8.245 2.5) (size 0.56 4) (layers F.Cu F.Mask))
  (pad 38 connect rect (at -8.245 2.5) (size 0.56 4) (layers B.Cu B.Mask))
  (pad 39 connect rect (at -6.975 2.5) (size 0.56 4) (layers F.Cu F.Mask))
  (pad 40 connect rect (at -6.975 2.5) (size 0.56 4) (layers B.Cu B.Mask))
  (pad 43 connect rect (at -4.435 2.5) (size 0.56 4) (layers F.Cu F.Mask))
  (pad 44 connect rect (at -4.435 2.5) (size 0.56 4) (layers B.Cu B.Mask))
  (pad 45 connect rect (at -3.165 2.5) (size 0.56 4) (layers F.Cu F.Mask))
  (pad 46 connect rect (at -3.165 2.5) (size 0.56 4) (layers B.Cu B.Mask))
  (pad 47 connect rect (at -1.895 2.5) (size 0.56 4) (layers F.Cu F.Mask))
  (pad 48 connect rect (at -1.895 2.5) (size 0.56 4) (layers B.Cu B.Mask))
  (pad 49 connect rect (at -0.625 2.5) (size 0.56 4) (layers F.Cu F.Mask))
  (pad 50 connect rect (at -0.625 2.5) (size 0.56 4) (layers B.Cu B.Mask))
  (pad 51 connect rect (at 0.645 2.5) (size 0.56 4) (layers F.Cu F.Mask))
  (pad 52 connect rect (at 0.645 2.5) (size 0.56 4) (layers B.Cu B.Mask))
  (pad 53 connect rect (at 1.915 2.5) (size 0.56 4) (layers F.Cu F.Mask))
  (pad 54 connect rect (at 1.915 2.5) (size 0.56 4) (layers B.Cu B.Mask))
  (pad 55 connect rect (at 3.185 2.5) (size 0.56 4) (layers F.Cu F.Mask))
  (pad 56 connect rect (at 3.185 2.5) (size 0.56 4) (layers B.Cu B.Mask))
  (pad 57 connect rect (at 4.455 2.5) (size 0.56 4) (layers F.Cu F.Mask))
  (pad 58 connect rect (at 4.455 2.5) (size 0.56 4) (layers B.Cu B.Mask))
  (pad 59 connect rect (at 5.725 2.5) (size 0.56 4) (layers F.Cu F.Mask))
  (pad 60 connect rect (at 5.725 2.5) (size 0.56 4) (layers B.Cu B.Mask))
  (pad 61 connect rect (at 6.995 2.5) (size 0.56 4) (layers F.Cu F.Mask))
  (pad 62 connect rect (at 6.995 2.5) (size 0.56 4) (layers B.Cu B.Mask))
  (pad 63 connect rect (at 8.265 2.5) (size 0.56 4) (layers F.Cu F.Mask))
  (pad 64 connect rect (at 8.265 2.5) (size 0.56 4) (layers B.Cu B.Mask))
  (pad 65 connect rect (at 9.535 2.5) (size 0.56 4) (layers F.Cu F.Mask))
  (pad 66 connect rect (at 9.535 2.5) (size 0.56 4) (layers B.Cu B.Mask))
  (pad 67 connect rect (at 10.805 2.5) (size 0.56 4) (layers F.Cu F.Mask))
  (pad 68 connect rect (at 10.805 2.5) (size 0.56 4) (layers B.Cu B.Mask))
  (pad 69 connect rect (at 12.075 2.5) (size 0.56 4) (layers F.Cu F.Mask))
  (pad 70 connect rect (at 12.075 2.5) (size 0.56 4) (layers B.Cu B.Mask))
  (pad 71 connect rect (at 13.345 2.5) (size 0.56 4) (layers F.Cu F.Mask))
  (pad 72 connect rect (at 13.345 2.5) (size 0.56 4) (layers B.Cu B.Mask))
  (pad 73 connect rect (at 14.615 2.5) (size 0.56 4) (layers F.Cu F.Mask))
  (pad 74 connect rect (at 14.615 2.5) (size 0.56 4) (layers B.Cu B.Mask))
  (pad 75 connect rect (at 15.885 2.5) (size 0.56 4) (layers F.Cu F.Mask))
  (pad 76 connect rect (at 15.885 2.5) (size 0.56 4) (layers B.Cu B.Mask))
  (pad 77 connect rect (at 17.155 2.5) (size 0.56 4) (layers F.Cu F.Mask))
  (pad 78 connect rect (at 17.155 2.5) (size 0.56 4) (layers B.Cu B.Mask))
  (pad 79 connect rect (at 18.425 2.5) (size 0.56 4) (layers F.Cu F.Mask))
  (pad 80 connect rect (at 18.425 2.5) (size 0.56 4) (layers B.Cu B.Mask))
  (pad 81 connect rect (at 19.695 2.5) (size 0.56 4) (layers F.Cu F.Mask))
  (pad 82 connect rect (at 19.695 2.5) (size 0.56 4) (layers B.Cu B.Mask))
  (pad 83 connect rect (at 20.965 2.5) (size 0.56 4) (layers F.Cu F.Mask))
  (pad 84 connect rect (at 20.965 2.5) (size 0.56 4) (layers B.Cu B.Mask))
  (pad 85 connect rect (at 22.235 2.5) (size 0.56 4) (layers F.Cu F.Mask))
  (pad 86 connect rect (at 22.235 2.5) (size 0.56 4) (layers B.Cu B.Mask))
  (pad 87 connect rect (at 23.505 2.5) (size 0.56 4) (layers F.Cu F.Mask))
  (pad 88 connect rect (at 23.505 2.5) (size 0.56 4) (layers B.Cu B.Mask))
  (pad 89 connect rect (at 24.775 2.5) (size 0.56 4) (layers F.Cu F.Mask))
  (pad 90 connect rect (at 24.775 2.5) (size 0.56 4) (layers B.Cu B.Mask))
  (pad 91 connect rect (at 26.045 2.5) (size 0.56 4) (layers F.Cu F.Mask))
  (pad 92 connect rect (at 26.045 2.5) (size 0.56 4) (layers B.Cu B.Mask))
  (pad 93 connect rect (at 27.315 2.5) (size 0.56 4) (layers F.Cu F.Mask))
  (pad 94 connect rect (at 27.315 2.5) (size 0.56 4) (layers B.Cu B.Mask))
  (pad 95 connect rect (at 28.585 2.5) (size 0.56 4) (layers F.Cu F.Mask))
  (pad 96 connect rect (at 28.585 2.5) (size 0.56 4) (layers B.Cu B.Mask))
  (pad 97 connect rect (at 29.855 2.5) (size 0.56 4) (layers F.Cu F.Mask))
  (pad 98 connect rect (at 29.855 2.5) (size 0.56 4) (layers B.Cu B.Mask))
  (pad 99 connect rect (at 31.125 2.5) (size 0.56 4) (layers F.Cu F.Mask))
  (pad 100 connect rect (at 31.125 2.5) (size 0.56 4) (layers B.Cu B.Mask))
  (fp_text user %R (at 0 -2.54) (layer F.Fab)
    (effects (font (size 1 1) (thickness 0.15)))
  )
)