(module DSUB-25_Female_Horizontal_P2.77x2.54mm_EdgePinOffset9.40mm (layer F.Cu) (tedit 59FEDEE2)
  (descr "25-pin D-Sub connector, horizontal/angled (90 deg), THT-mount, female, pitch 2.77x2.54mm, pin-PCB-offset 9.4mm, see http://docs-europe.electrocomponents.com/webdocs/1585/0900766b81585df2.pdf")
  (tags "25-pin D-Sub connector horizontal angled 90deg THT female pitch 2.77x2.54mm pin-PCB-offset 9.4mm")
  (fp_text reference REF** (at -16.62 -1.8) (layer F.SilkS)
    (effects (font (size 1 1) (thickness 0.15)))
  )
  (fp_text value DSUB-25_Female_Horizontal_P2.77x2.54mm_EdgePinOffset9.40mm (at -16.62 20.01) (layer F.Fab)
    (effects (font (size 1 1) (thickness 0.15)))
  )
  (fp_line (start -0.1 0) (end -0.1 7.84) (layer F.Fab) (width 0.1))
  (fp_line (start 0 0) (end 0 7.84) (layer F.Fab) (width 0.1))
  (fp_line (start 0.1 0) (end 0.1 7.84) (layer F.Fab) (width 0.1))
  (fp_line (start -2.87 0) (end -2.87 7.84) (layer F.Fab) (width 0.1))
  (fp_line (start -2.77 0) (end -2.77 7.84) (layer F.Fab) (width 0.1))
  (fp_line (start -2.67 0) (end -2.67 7.84) (layer F.Fab) (width 0.1))
  (fp_line (start -5.64 0) (end -5.64 7.84) (layer F.Fab) (width 0.1))
  (fp_line (start -5.54 0) (end -5.54 7.84) (layer F.Fab) (width 0.1))
  (fp_line (start -5.44 0) (end -5.44 7.84) (layer F.Fab) (width 0.1))
  (fp_line (start -8.41 0) (end -8.41 7.84) (layer F.Fab) (width 0.1))
  (fp_line (start -8.31 0) (end -8.31 7.84) (layer F.Fab) (width 0.1))
  (fp_line (start -8.21 0) (end -8.21 7.84) (layer F.Fab) (width 0.1))
  (fp_line (start -11.18 0) (end -11.18 7.84) (layer F.Fab) (width 0.1))
  (fp_line (start -11.08 0) (end -11.08 7.84) (layer F.Fab) (width 0.1))
  (fp_line (start -10.98 0) (end -10.98 7.84) (layer F.Fab) (width 0.1))
  (fp_line (start -13.95 0) (end -13.95 7.84) (layer F.Fab) (width 0.1))
  (fp_line (start -13.85 0) (end -13.85 7.84) (layer F.Fab) (width 0.1))
  (fp_line (start -13.75 0) (end -13.75 7.84) (layer F.Fab) (width 0.1))
  (fp_line (start -16.72 0) (end -16.72 7.84) (layer F.Fab) (width 0.1))
  (fp_line (start -16.62 0) (end -16.62 7.84) (layer F.Fab) (width 0.1))
  (fp_line (start -16.52 0) (end -16.52 7.84) (layer F.Fab) (width 0.1))
  (fp_line (start -19.49 0) (end -19.49 7.84) (layer F.Fab) (width 0.1))
  (fp_line (start -19.39 0) (end -19.39 7.84) (layer F.Fab) (width 0.1))
  (fp_line (start -19.29 0) (end -19.29 7.84) (layer F.Fab) (width 0.1))
  (fp_line (start -22.26 0) (end -22.26 7.84) (layer F.Fab) (width 0.1))
  (fp_line (start -22.16 0) (end -22.16 7.84) (layer F.Fab) (width 0.1))
  (fp_line (start -22.06 0) (end -22.06 7.84) (layer F.Fab) (width 0.1))
  (fp_line (start -25.03 0) (end -25.03 7.84) (layer F.Fab) (width 0.1))
  (fp_line (start -24.93 0) (end -24.93 7.84) (layer F.Fab) (width 0.1))
  (fp_line (start -24.83 0) (end -24.83 7.84) (layer F.Fab) (width 0.1))
  (fp_line (start -27.8 0) (end -27.8 7.84) (layer F.Fab) (width 0.1))
  (fp_line (start -27.7 0) (end -27.7 7.84) (layer F.Fab) (width 0.1))
  (fp_line (start -27.6 0) (end -27.6 7.84) (layer F.Fab) (width 0.1))
  (fp_line (start -30.57 0) (end -30.57 7.84) (layer F.Fab) (width 0.1))
  (fp_line (start -30.47 0) (end -30.47 7.84) (layer F.Fab) (width 0.1))
  (fp_line (start -30.37 0) (end -30.37 7.84) (layer F.Fab) (width 0.1))
  (fp_line (start -33.34 0) (end -33.34 7.84) (layer F.Fab) (width 0.1))
  (fp_line (start -33.24 0) (end -33.24 7.84) (layer F.Fab) (width 0.1))
  (fp_line (start -33.14 0) (end -33.14 7.84) (layer F.Fab) (width 0.1))
  (fp_line (start -1.485 2.54) (end -1.485 7.84) (layer F.Fab) (width 0.1))
  (fp_line (start -1.385 2.54) (end -1.385 7.84) (layer F.Fab) (width 0.1))
  (fp_line (start -1.285 2.54) (end -1.285 7.84) (layer F.Fab) (width 0.1))
  (fp_line (start -4.255 2.54) (end -4.255 7.84) (layer F.Fab) (width 0.1))
  (fp_line (start -4.155 2.54) (end -4.155 7.84) (layer F.Fab) (width 0.1))
  (fp_line (start -4.055 2.54) (end -4.055 7.84) (layer F.Fab) (width 0.1))
  (fp_line (start -7.025 2.54) (end -7.025 7.84) (layer F.Fab) (width 0.1))
  (fp_line (start -6.925 2.54) (end -6.925 7.84) (layer F.Fab) (width 0.1))
  (fp_line (start -6.825 2.54) (end -6.825 7.84) (layer F.Fab) (width 0.1))
  (fp_line (start -9.795 2.54) (end -9.795 7.84) (layer F.Fab) (width 0.1))
  (fp_line (start -9.695 2.54) (end -9.695 7.84) (layer F.Fab) (width 0.1))
  (fp_line (start -9.595 2.54) (end -9.595 7.84) (layer F.Fab) (width 0.1))
  (fp_line (start -12.565 2.54) (end -12.565 7.84) (layer F.Fab) (width 0.1))
  (fp_line (start -12.465 2.54) (end -12.465 7.84) (layer F.Fab) (width 0.1))
  (fp_line (start -12.365 2.54) (end -12.365 7.84) (layer F.Fab) (width 0.1))
  (fp_line (start -15.335 2.54) (end -15.335 7.84) (layer F.Fab) (width 0.1))
  (fp_line (start -15.235 2.54) (end -15.235 7.84) (layer F.Fab) (width 0.1))
  (fp_line (start -15.135 2.54) (end -15.135 7.84) (layer F.Fab) (width 0.1))
  (fp_line (start -18.105 2.54) (end -18.105 7.84) (layer F.Fab) (width 0.1))
  (fp_line (start -18.005 2.54) (end -18.005 7.84) (layer F.Fab) (width 0.1))
  (fp_line (start -17.905 2.54) (end -17.905 7.84) (layer F.Fab) (width 0.1))
  (fp_line (start -20.875 2.54) (end -20.875 7.84) (layer F.Fab) (width 0.1))
  (fp_line (start -20.775 2.54) (end -20.775 7.84) (layer F.Fab) (width 0.1))
  (fp_line (start -20.675 2.54) (end -20.675 7.84) (layer F.Fab) (width 0.1))
  (fp_line (start -23.645 2.54) (end -23.645 7.84) (layer F.Fab) (width 0.1))
  (fp_line (start -23.545 2.54) (end -23.545 7.84) (layer F.Fab) (width 0.1))
  (fp_line (start -23.445 2.54) (end -23.445 7.84) (layer F.Fab) (width 0.1))
  (fp_line (start -26.415 2.54) (end -26.415 7.84) (layer F.Fab) (width 0.1))
  (fp_line (start -26.315 2.54) (end -26.315 7.84) (layer F.Fab) (width 0.1))
  (fp_line (start -26.215 2.54) (end -26.215 7.84) (layer F.Fab) (width 0.1))
  (fp_line (start -29.185 2.54) (end -29.185 7.84) (layer F.Fab) (width 0.1))
  (fp_line (start -29.085 2.54) (end -29.085 7.84) (layer F.Fab) (width 0.1))
  (fp_line (start -28.985 2.54) (end -28.985 7.84) (layer F.Fab) (width 0.1))
  (fp_line (start -31.955 2.54) (end -31.955 7.84) (layer F.Fab) (width 0.1))
  (fp_line (start -31.855 2.54) (end -31.855 7.84) (layer F.Fab) (width 0.1))
  (fp_line (start -31.755 2.54) (end -31.755 7.84) (layer F.Fab) (width 0.1))
  (fp_line (start -36.17 7.84) (end -36.17 11.94) (layer F.Fab) (width 0.1))
  (fp_line (start -36.17 11.94) (end 2.93 11.94) (layer F.Fab) (width 0.1))
  (fp_line (start 2.93 11.94) (end 2.93 7.84) (layer F.Fab) (width 0.1))
  (fp_line (start 2.93 7.84) (end -36.17 7.84) (layer F.Fab) (width 0.1))
  (fp_line (start -43.17 11.94) (end -43.17 12.34) (layer F.Fab) (width 0.1))
  (fp_line (start -43.17 12.34) (end 9.93 12.34) (layer F.Fab) (width 0.1))
  (fp_line (start 9.93 12.34) (end 9.93 11.94) (layer F.Fab) (width 0.1))
  (fp_line (start 9.93 11.94) (end -43.17 11.94) (layer F.Fab) (width 0.1))
  (fp_line (start -35.77 12.34) (end -35.77 18.51) (layer F.Fab) (width 0.1))
  (fp_line (start -35.77 18.51) (end 2.53 18.51) (layer F.Fab) (width 0.1))
  (fp_line (start 2.53 18.51) (end 2.53 12.34) (layer F.Fab) (width 0.1))
  (fp_line (start 2.53 12.34) (end -35.77 12.34) (layer F.Fab) (width 0.1))
  (fp_line (start -36.23 11.88) (end -36.23 7.78) (layer F.SilkS) (width 0.12))
  (fp_line (start -36.23 7.78) (end -34.3 7.78) (layer F.SilkS) (width 0.12))
  (fp_line (start -34.3 7.78) (end -34.3 -1.06) (layer F.SilkS) (width 0.12))
  (fp_line (start -34.3 -1.06) (end 1.06 -1.06) (layer F.SilkS) (width 0.12))
  (fp_line (start 1.06 -1.06) (end 1.06 7.78) (layer F.SilkS) (width 0.12))
  (fp_line (start 1.06 7.78) (end 2.99 7.78) (layer F.SilkS) (width 0.12))
  (fp_line (start 2.99 7.78) (end 2.99 11.88) (layer F.SilkS) (width 0.12))
  (fp_line (start -0.25 -1.754338) (end 0.25 -1.754338) (layer F.SilkS) (width 0.12))
  (fp_line (start 0.25 -1.754338) (end 0 -1.321325) (layer F.SilkS) (width 0.12))
  (fp_line (start 0 -1.321325) (end -0.25 -1.754338) (layer F.SilkS) (width 0.12))
  (fp_line (start -36.3 19.05) (end -36.3 12.85) (layer F.CrtYd) (width 0.05))
  (fp_line (start -36.3 12.85) (end -43.7 12.85) (layer F.CrtYd) (width 0.05))
  (fp_line (start -43.7 12.85) (end -43.7 11.45) (layer F.CrtYd) (width 0.05))
  (fp_line (start -43.7 11.45) (end -36.7 11.45) (layer F.CrtYd) (width 0.05))
  (fp_line (start -36.7 11.45) (end -36.7 7.35) (layer F.CrtYd) (width 0.05))
  (fp_line (start -36.7 7.35) (end -34.55 7.35) (layer F.CrtYd) (width 0.05))
  (fp_line (start -34.55 7.35) (end -34.55 -1.35) (layer F.CrtYd) (width 0.05))
  (fp_line (start -34.55 -1.35) (end 1.3 -1.35) (layer F.CrtYd) (width 0.05))
  (fp_line (start 1.3 -1.35) (end 1.3 7.35) (layer F.CrtYd) (width 0.05))
  (fp_line (start 1.3 7.35) (end 3.45 7.35) (layer F.CrtYd) (width 0.05))
  (fp_line (start 3.45 7.35) (end 3.45 11.45) (layer F.CrtYd) (width 0.05))
  (fp_line (start 3.45 11.45) (end 10.45 11.45) (layer F.CrtYd) (width 0.05))
  (fp_line (start 10.45 11.45) (end 10.45 12.85) (layer F.CrtYd) (width 0.05))
  (fp_line (start 10.45 12.85) (end 3.05 12.85) (layer F.CrtYd) (width 0.05))
  (fp_line (start 3.05 12.85) (end 3.05 19.05) (layer F.CrtYd) (width 0.05))
  (fp_line (start 3.05 19.05) (end -36.3 19.05) (layer F.CrtYd) (width 0.05))
  (pad 1 thru_hole rect (at 0 0) (size 1.6 1.6) (drill 1) (layers *.Cu *.Mask))
  (pad 2 thru_hole circle (at -2.77 0) (size 1.6 1.6) (drill 1) (layers *.Cu *.Mask))
  (pad 3 thru_hole circle (at -5.54 0) (size 1.6 1.6) (drill 1) (layers *.Cu *.Mask))
  (pad 4 thru_hole circle (at -8.31 0) (size 1.6 1.6) (drill 1) (layers *.Cu *.Mask))
  (pad 5 thru_hole circle (at -11.08 0) (size 1.6 1.6) (drill 1) (layers *.Cu *.Mask))
  (pad 6 thru_hole circle (at -13.85 0) (size 1.6 1.6) (drill 1) (layers *.Cu *.Mask))
  (pad 7 thru_hole circle (at -16.62 0) (size 1.6 1.6) (drill 1) (layers *.Cu *.Mask))
  (pad 8 thru_hole circle (at -19.39 0) (size 1.6 1.6) (drill 1) (layers *.Cu *.Mask))
  (pad 9 thru_hole circle (at -22.16 0) (size 1.6 1.6) (drill 1) (layers *.Cu *.Mask))
  (pad 10 thru_hole circle (at -24.93 0) (size 1.6 1.6) (drill 1) (layers *.Cu *.Mask))
  (pad 11 thru_hole circle (at -27.7 0) (size 1.6 1.6) (drill 1) (layers *.Cu *.Mask))
  (pad 12 thru_hole circle (at -30.47 0) (size 1.6 1.6) (drill 1) (layers *.Cu *.Mask))
  (pad 13 thru_hole circle (at -33.24 0) (size 1.6 1.6) (drill 1) (layers *.Cu *.Mask))
  (pad 14 thru_hole circle (at -1.385 2.54) (size 1.6 1.6) (drill 1) (layers *.Cu *.Mask))
  (pad 15 thru_hole circle (at -4.155 2.54) (size 1.6 1.6) (drill 1) (layers *.Cu *.Mask))
  (pad 16 thru_hole circle (at -6.925 2.54) (size 1.6 1.6) (drill 1) (layers *.Cu *.Mask))
  (pad 17 thru_hole circle (at -9.695 2.54) (size 1.6 1.6) (drill 1) (layers *.Cu *.Mask))
  (pad 18 thru_hole circle (at -12.465 2.54) (size 1.6 1.6) (drill 1) (layers *.Cu *.Mask))
  (pad 19 thru_hole circle (at -15.235 2.54) (size 1.6 1.6) (drill 1) (layers *.Cu *.Mask))
  (pad 20 thru_hole circle (at -18.005 2.54) (size 1.6 1.6) (drill 1) (layers *.Cu *.Mask))
  (pad 21 thru_hole circle (at -20.775 2.54) (size 1.6 1.6) (drill 1) (layers *.Cu *.Mask))
  (pad 22 thru_hole circle (at -23.545 2.54) (size 1.6 1.6) (drill 1) (layers *.Cu *.Mask))
  (pad 23 thru_hole circle (at -26.315 2.54) (size 1.6 1.6) (drill 1) (layers *.Cu *.Mask))
  (pad 24 thru_hole circle (at -29.085 2.54) (size 1.6 1.6) (drill 1) (layers *.Cu *.Mask))
  (pad 25 thru_hole circle (at -31.855 2.54) (size 1.6 1.6) (drill 1) (layers *.Cu *.Mask))
  (fp_text user %R (at -16.62 15.425) (layer F.Fab)
    (effects (font (size 1 1) (thickness 0.15)))
  )
  (model ${KICAD6_3DMODEL_DIR}/Connector_Dsub.3dshapes/DSUB-25_Female_Horizontal_P2.77x2.54mm_EdgePinOffset9.40mm.wrl
    (at (xyz 0 0 0))
    (scale (xyz 1 1 1))
    (rotate (xyz 0 0 0))
  )
)