(module DSUB-15_Male_Horizontal_P2.77x2.84mm_EdgePinOffset7.70mm_Housed_MountingHolesOffset9.12mm (layer F.Cu) (tedit 59FEDEE2)
  (descr "15-pin D-Sub connector, horizontal/angled (90 deg), THT-mount, male, pitch 2.77x2.84mm, pin-PCB-offset 7.699999999999999mm, distance of mounting holes 33.3mm, distance of mounting holes to PCB edge 9.12mm, see https://disti-assets.s3.amazonaws.com/tonar/files/datasheets/16730.pdf")
  (tags "15-pin D-Sub connector horizontal angled 90deg THT male pitch 2.77x2.84mm pin-PCB-offset 7.699999999999999mm mounting-holes-distance 33.3mm mounting-hole-offset 33.3mm")
  (fp_text reference REF** (at 9.695 -2.8) (layer F.SilkS)
    (effects (font (size 1 1) (thickness 0.15)))
  )
  (fp_text value DSUB-15_Male_Horizontal_P2.77x2.84mm_EdgePinOffset7.70mm_Housed_MountingHolesOffset9.12mm (at 9.695 18.44) (layer F.Fab)
    (effects (font (size 1 1) (thickness 0.15)))
  )
  (fp_arc (start -6.955 1.42) (end -8.555 1.42) (angle 180.000000) (layer F.Fab) (width 0.1))
  (fp_arc (start 26.345 1.42) (end 24.745 1.42) (angle 180.000000) (layer F.Fab) (width 0.1))
  (fp_line (start -9.905 -1.8) (end -9.905 10.54) (layer F.Fab) (width 0.1))
  (fp_line (start -9.905 10.54) (end 29.295 10.54) (layer F.Fab) (width 0.1))
  (fp_line (start 29.295 10.54) (end 29.295 -1.8) (layer F.Fab) (width 0.1))
  (fp_line (start 29.295 -1.8) (end -9.905 -1.8) (layer F.Fab) (width 0.1))
  (fp_line (start -9.905 10.54) (end -9.905 10.94) (layer F.Fab) (width 0.1))
  (fp_line (start -9.905 10.94) (end 29.295 10.94) (layer F.Fab) (width 0.1))
  (fp_line (start 29.295 10.94) (end 29.295 10.54) (layer F.Fab) (width 0.1))
  (fp_line (start 29.295 10.54) (end -9.905 10.54) (layer F.Fab) (width 0.1))
  (fp_line (start -2.605 10.94) (end -2.605 16.94) (layer F.Fab) (width 0.1))
  (fp_line (start -2.605 16.94) (end 21.995 16.94) (layer F.Fab) (width 0.1))
  (fp_line (start 21.995 16.94) (end 21.995 10.94) (layer F.Fab) (width 0.1))
  (fp_line (start 21.995 10.94) (end -2.605 10.94) (layer F.Fab) (width 0.1))
  (fp_line (start -9.455 10.94) (end -9.455 15.94) (layer F.Fab) (width 0.1))
  (fp_line (start -9.455 15.94) (end -4.455 15.94) (layer F.Fab) (width 0.1))
  (fp_line (start -4.455 15.94) (end -4.455 10.94) (layer F.Fab) (width 0.1))
  (fp_line (start -4.455 10.94) (end -9.455 10.94) (layer F.Fab) (width 0.1))
  (fp_line (start 23.845 10.94) (end 23.845 15.94) (layer F.Fab) (width 0.1))
  (fp_line (start 23.845 15.94) (end 28.845 15.94) (layer F.Fab) (width 0.1))
  (fp_line (start 28.845 15.94) (end 28.845 10.94) (layer F.Fab) (width 0.1))
  (fp_line (start 28.845 10.94) (end 23.845 10.94) (layer F.Fab) (width 0.1))
  (fp_line (start -8.555 10.54) (end -8.555 1.42) (layer F.Fab) (width 0.1))
  (fp_line (start -5.355 10.54) (end -5.355 1.42) (layer F.Fab) (width 0.1))
  (fp_line (start 24.745 10.54) (end 24.745 1.42) (layer F.Fab) (width 0.1))
  (fp_line (start 27.945 10.54) (end 27.945 1.42) (layer F.Fab) (width 0.1))
  (fp_line (start -9.965 10.48) (end -9.965 -1.86) (layer F.SilkS) (width 0.12))
  (fp_line (start -9.965 -1.86) (end 29.355 -1.86) (layer F.SilkS) (width 0.12))
  (fp_line (start 29.355 -1.86) (end 29.355 10.48) (layer F.SilkS) (width 0.12))
  (fp_line (start -0.25 -2.754338) (end 0.25 -2.754338) (layer F.SilkS) (width 0.12))
  (fp_line (start 0.25 -2.754338) (end 0 -2.321325) (layer F.SilkS) (width 0.12))
  (fp_line (start 0 -2.321325) (end -0.25 -2.754338) (layer F.SilkS) (width 0.12))
  (fp_line (start -10.45 -2.35) (end -10.45 17.45) (layer F.CrtYd) (width 0.05))
  (fp_line (start -10.45 17.45) (end 29.8 17.45) (layer F.CrtYd) (width 0.05))
  (fp_line (start 29.8 17.45) (end 29.8 -2.35) (layer F.CrtYd) (width 0.05))
  (fp_line (start 29.8 -2.35) (end -10.45 -2.35) (layer F.CrtYd) (width 0.05))
  (pad 1 thru_hole rect (at 0 0) (size 1.6 1.6) (drill 1) (layers *.Cu *.Mask))
  (pad 2 thru_hole circle (at 2.77 0) (size 1.6 1.6) (drill 1) (layers *.Cu *.Mask))
  (pad 3 thru_hole circle (at 5.54 0) (size 1.6 1.6) (drill 1) (layers *.Cu *.Mask))
  (pad 4 thru_hole circle (at 8.31 0) (size 1.6 1.6) (drill 1) (layers *.Cu *.Mask))
  (pad 5 thru_hole circle (at 11.08 0) (size 1.6 1.6) (drill 1) (layers *.Cu *.Mask))
  (pad 6 thru_hole circle (at 13.85 0) (size 1.6 1.6) (drill 1) (layers *.Cu *.Mask))
  (pad 7 thru_hole circle (at 16.62 0) (size 1.6 1.6) (drill 1) (layers *.Cu *.Mask))
  (pad 8 thru_hole circle (at 19.39 0) (size 1.6 1.6) (drill 1) (layers *.Cu *.Mask))
  (pad 9 thru_hole circle (at 1.385 2.84) (size 1.6 1.6) (drill 1) (layers *.Cu *.Mask))
  (pad 10 thru_hole circle (at 4.155 2.84) (size 1.6 1.6) (drill 1) (layers *.Cu *.Mask))
  (pad 11 thru_hole circle (at 6.925 2.84) (size 1.6 1.6) (drill 1) (layers *.Cu *.Mask))
  (pad 12 thru_hole circle (at 9.695 2.84) (size 1.6 1.6) (drill 1) (layers *.Cu *.Mask))
  (pad 13 thru_hole circle (at 12.465 2.84) (size 1.6 1.6) (drill 1) (layers *.Cu *.Mask))
  (pad 14 thru_hole circle (at 15.235 2.84) (size 1.6 1.6) (drill 1) (layers *.Cu *.Mask))
  (pad 15 thru_hole circle (at 18.005 2.84) (size 1.6 1.6) (drill 1) (layers *.Cu *.Mask))
  (pad 0 thru_hole circle (at -6.955 1.42) (size 4 4) (drill 3.2) (layers *.Cu *.Mask))
  (pad 0 thru_hole circle (at 26.345 1.42) (size 4 4) (drill 3.2) (layers *.Cu *.Mask))
  (fp_text user %R (at 9.695 13.94) (layer F.Fab)
    (effects (font (size 1 1) (thickness 0.15)))
  )
  (model ${KICAD6_3DMODEL_DIR}/Connector_Dsub.3dshapes/DSUB-15_Male_Horizontal_P2.77x2.84mm_EdgePinOffset7.70mm_Housed_MountingHolesOffset9.12mm.wrl
    (at (xyz 0 0 0))
    (scale (xyz 1 1 1))
    (rotate (xyz 0 0 0))
  )
)