(module DSUB-37_Female_EdgeMount_P2.77mm (layer F.Cu) (tedit 59FEDEE2)
  (descr "37-pin D-Sub connector, solder-cups edge-mounted, female, x-pin-pitch 2.77mm, distance of mounting holes 63.5mm, see https://disti-assets.s3.amazonaws.com/tonar/files/datasheets/16730.pdf")
  (tags "37-pin D-Sub connector edge mount solder cup female x-pin-pitch 2.77mm mounting holes distance 63.5mm")
  (attr smd)
  (fp_text reference REF** (at -28.853333 0) (layer F.SilkS)
    (effects (font (size 1 1) (thickness 0.15)))
  )
  (fp_text value DSUB-37_Female_EdgeMount_P2.77mm (at 0 16.86) (layer F.Fab)
    (effects (font (size 1 1) (thickness 0.15)))
  )
  (fp_line (start 24.33 -0.91) (end 24.33 1.99) (layer F.Fab) (width 0.1))
  (fp_line (start 24.33 1.99) (end 25.53 1.99) (layer F.Fab) (width 0.1))
  (fp_line (start 25.53 1.99) (end 25.53 -0.91) (layer F.Fab) (width 0.1))
  (fp_line (start 25.53 -0.91) (end 24.33 -0.91) (layer F.Fab) (width 0.1))
  (fp_line (start 21.56 -0.91) (end 21.56 1.99) (layer F.Fab) (width 0.1))
  (fp_line (start 21.56 1.99) (end 22.76 1.99) (layer F.Fab) (width 0.1))
  (fp_line (start 22.76 1.99) (end 22.76 -0.91) (layer F.Fab) (width 0.1))
  (fp_line (start 22.76 -0.91) (end 21.56 -0.91) (layer F.Fab) (width 0.1))
  (fp_line (start 18.79 -0.91) (end 18.79 1.99) (layer F.Fab) (width 0.1))
  (fp_line (start 18.79 1.99) (end 19.99 1.99) (layer F.Fab) (width 0.1))
  (fp_line (start 19.99 1.99) (end 19.99 -0.91) (layer F.Fab) (width 0.1))
  (fp_line (start 19.99 -0.91) (end 18.79 -0.91) (layer F.Fab) (width 0.1))
  (fp_line (start 16.02 -0.91) (end 16.02 1.99) (layer F.Fab) (width 0.1))
  (fp_line (start 16.02 1.99) (end 17.22 1.99) (layer F.Fab) (width 0.1))
  (fp_line (start 17.22 1.99) (end 17.22 -0.91) (layer F.Fab) (width 0.1))
  (fp_line (start 17.22 -0.91) (end 16.02 -0.91) (layer F.Fab) (width 0.1))
  (fp_line (start 13.25 -0.91) (end 13.25 1.99) (layer F.Fab) (width 0.1))
  (fp_line (start 13.25 1.99) (end 14.45 1.99) (layer F.Fab) (width 0.1))
  (fp_line (start 14.45 1.99) (end 14.45 -0.91) (layer F.Fab) (width 0.1))
  (fp_line (start 14.45 -0.91) (end 13.25 -0.91) (layer F.Fab) (width 0.1))
  (fp_line (start 10.48 -0.91) (end 10.48 1.99) (layer F.Fab) (width 0.1))
  (fp_line (start 10.48 1.99) (end 11.68 1.99) (layer F.Fab) (width 0.1))
  (fp_line (start 11.68 1.99) (end 11.68 -0.91) (layer F.Fab) (width 0.1))
  (fp_line (start 11.68 -0.91) (end 10.48 -0.91) (layer F.Fab) (width 0.1))
  (fp_line (start 7.71 -0.91) (end 7.71 1.99) (layer F.Fab) (width 0.1))
  (fp_line (start 7.71 1.99) (end 8.91 1.99) (layer F.Fab) (width 0.1))
  (fp_line (start 8.91 1.99) (end 8.91 -0.91) (layer F.Fab) (width 0.1))
  (fp_line (start 8.91 -0.91) (end 7.71 -0.91) (layer F.Fab) (width 0.1))
  (fp_line (start 4.94 -0.91) (end 4.94 1.99) (layer F.Fab) (width 0.1))
  (fp_line (start 4.94 1.99) (end 6.14 1.99) (layer F.Fab) (width 0.1))
  (fp_line (start 6.14 1.99) (end 6.14 -0.91) (layer F.Fab) (width 0.1))
  (fp_line (start 6.14 -0.91) (end 4.94 -0.91) (layer F.Fab) (width 0.1))
  (fp_line (start 2.17 -0.91) (end 2.17 1.99) (layer F.Fab) (width 0.1))
  (fp_line (start 2.17 1.99) (end 3.37 1.99) (layer F.Fab) (width 0.1))
  (fp_line (start 3.37 1.99) (end 3.37 -0.91) (layer F.Fab) (width 0.1))
  (fp_line (start 3.37 -0.91) (end 2.17 -0.91) (layer F.Fab) (width 0.1))
  (fp_line (start -0.6 -0.91) (end -0.6 1.99) (layer F.Fab) (width 0.1))
  (fp_line (start -0.6 1.99) (end 0.6 1.99) (layer F.Fab) (width 0.1))
  (fp_line (start 0.6 1.99) (end 0.6 -0.91) (layer F.Fab) (width 0.1))
  (fp_line (start 0.6 -0.91) (end -0.6 -0.91) (layer F.Fab) (width 0.1))
  (fp_line (start -3.37 -0.91) (end -3.37 1.99) (layer F.Fab) (width 0.1))
  (fp_line (start -3.37 1.99) (end -2.17 1.99) (layer F.Fab) (width 0.1))
  (fp_line (start -2.17 1.99) (end -2.17 -0.91) (layer F.Fab) (width 0.1))
  (fp_line (start -2.17 -0.91) (end -3.37 -0.91) (layer F.Fab) (width 0.1))
  (fp_line (start -6.14 -0.91) (end -6.14 1.99) (layer F.Fab) (width 0.1))
  (fp_line (start -6.14 1.99) (end -4.94 1.99) (layer F.Fab) (width 0.1))
  (fp_line (start -4.94 1.99) (end -4.94 -0.91) (layer F.Fab) (width 0.1))
  (fp_line (start -4.94 -0.91) (end -6.14 -0.91) (layer F.Fab) (width 0.1))
  (fp_line (start -8.91 -0.91) (end -8.91 1.99) (layer F.Fab) (width 0.1))
  (fp_line (start -8.91 1.99) (end -7.71 1.99) (layer F.Fab) (width 0.1))
  (fp_line (start -7.71 1.99) (end -7.71 -0.91) (layer F.Fab) (width 0.1))
  (fp_line (start -7.71 -0.91) (end -8.91 -0.91) (layer F.Fab) (width 0.1))
  (fp_line (start -11.68 -0.91) (end -11.68 1.99) (layer F.Fab) (width 0.1))
  (fp_line (start -11.68 1.99) (end -10.48 1.99) (layer F.Fab) (width 0.1))
  (fp_line (start -10.48 1.99) (end -10.48 -0.91) (layer F.Fab) (width 0.1))
  (fp_line (start -10.48 -0.91) (end -11.68 -0.91) (layer F.Fab) (width 0.1))
  (fp_line (start -14.45 -0.91) (end -14.45 1.99) (layer F.Fab) (width 0.1))
  (fp_line (start -14.45 1.99) (end -13.25 1.99) (layer F.Fab) (width 0.1))
  (fp_line (start -13.25 1.99) (end -13.25 -0.91) (layer F.Fab) (width 0.1))
  (fp_line (start -13.25 -0.91) (end -14.45 -0.91) (layer F.Fab) (width 0.1))
  (fp_line (start -17.22 -0.91) (end -17.22 1.99) (layer F.Fab) (width 0.1))
  (fp_line (start -17.22 1.99) (end -16.02 1.99) (layer F.Fab) (width 0.1))
  (fp_line (start -16.02 1.99) (end -16.02 -0.91) (layer F.Fab) (width 0.1))
  (fp_line (start -16.02 -0.91) (end -17.22 -0.91) (layer F.Fab) (width 0.1))
  (fp_line (start -19.99 -0.91) (end -19.99 1.99) (layer F.Fab) (width 0.1))
  (fp_line (start -19.99 1.99) (end -18.79 1.99) (layer F.Fab) (width 0.1))
  (fp_line (start -18.79 1.99) (end -18.79 -0.91) (layer F.Fab) (width 0.1))
  (fp_line (start -18.79 -0.91) (end -19.99 -0.91) (layer F.Fab) (width 0.1))
  (fp_line (start -22.76 -0.91) (end -22.76 1.99) (layer F.Fab) (width 0.1))
  (fp_line (start -22.76 1.99) (end -21.56 1.99) (layer F.Fab) (width 0.1))
  (fp_line (start -21.56 1.99) (end -21.56 -0.91) (layer F.Fab) (width 0.1))
  (fp_line (start -21.56 -0.91) (end -22.76 -0.91) (layer F.Fab) (width 0.1))
  (fp_line (start -25.53 -0.91) (end -25.53 1.99) (layer F.Fab) (width 0.1))
  (fp_line (start -25.53 1.99) (end -24.33 1.99) (layer F.Fab) (width 0.1))
  (fp_line (start -24.33 1.99) (end -24.33 -0.91) (layer F.Fab) (width 0.1))
  (fp_line (start -24.33 -0.91) (end -25.53 -0.91) (layer F.Fab) (width 0.1))
  (fp_line (start 22.945 -0.91) (end 22.945 1.99) (layer B.Fab) (width 0.1))
  (fp_line (start 22.945 1.99) (end 24.145 1.99) (layer B.Fab) (width 0.1))
  (fp_line (start 24.145 1.99) (end 24.145 -0.91) (layer B.Fab) (width 0.1))
  (fp_line (start 24.145 -0.91) (end 22.945 -0.91) (layer B.Fab) (width 0.1))
  (fp_line (start 20.175 -0.91) (end 20.175 1.99) (layer B.Fab) (width 0.1))
  (fp_line (start 20.175 1.99) (end 21.375 1.99) (layer B.Fab) (width 0.1))
  (fp_line (start 21.375 1.99) (end 21.375 -0.91) (layer B.Fab) (width 0.1))
  (fp_line (start 21.375 -0.91) (end 20.175 -0.91) (layer B.Fab) (width 0.1))
  (fp_line (start 17.405 -0.91) (end 17.405 1.99) (layer B.Fab) (width 0.1))
  (fp_line (start 17.405 1.99) (end 18.605 1.99) (layer B.Fab) (width 0.1))
  (fp_line (start 18.605 1.99) (end 18.605 -0.91) (layer B.Fab) (width 0.1))
  (fp_line (start 18.605 -0.91) (end 17.405 -0.91) (layer B.Fab) (width 0.1))
  (fp_line (start 14.635 -0.91) (end 14.635 1.99) (layer B.Fab) (width 0.1))
  (fp_line (start 14.635 1.99) (end 15.835 1.99) (layer B.Fab) (width 0.1))
  (fp_line (start 15.835 1.99) (end 15.835 -0.91) (layer B.Fab) (width 0.1))
  (fp_line (start 15.835 -0.91) (end 14.635 -0.91) (layer B.Fab) (width 0.1))
  (fp_line (start 11.865 -0.91) (end 11.865 1.99) (layer B.Fab) (width 0.1))
  (fp_line (start 11.865 1.99) (end 13.065 1.99) (layer B.Fab) (width 0.1))
  (fp_line (start 13.065 1.99) (end 13.065 -0.91) (layer B.Fab) (width 0.1))
  (fp_line (start 13.065 -0.91) (end 11.865 -0.91) (layer B.Fab) (width 0.1))
  (fp_line (start 9.095 -0.91) (end 9.095 1.99) (layer B.Fab) (width 0.1))
  (fp_line (start 9.095 1.99) (end 10.295 1.99) (layer B.Fab) (width 0.1))
  (fp_line (start 10.295 1.99) (end 10.295 -0.91) (layer B.Fab) (width 0.1))
  (fp_line (start 10.295 -0.91) (end 9.095 -0.91) (layer B.Fab) (width 0.1))
  (fp_line (start 6.325 -0.91) (end 6.325 1.99) (layer B.Fab) (width 0.1))
  (fp_line (start 6.325 1.99) (end 7.525 1.99) (layer B.Fab) (width 0.1))
  (fp_line (start 7.525 1.99) (end 7.525 -0.91) (layer B.Fab) (width 0.1))
  (fp_line (start 7.525 -0.91) (end 6.325 -0.91) (layer B.Fab) (width 0.1))
  (fp_line (start 3.555 -0.91) (end 3.555 1.99) (layer B.Fab) (width 0.1))
  (fp_line (start 3.555 1.99) (end 4.755 1.99) (layer B.Fab) (width 0.1))
  (fp_line (start 4.755 1.99) (end 4.755 -0.91) (layer B.Fab) (width 0.1))
  (fp_line (start 4.755 -0.91) (end 3.555 -0.91) (layer B.Fab) (width 0.1))
  (fp_line (start 0.785 -0.91) (end 0.785 1.99) (layer B.Fab) (width 0.1))
  (fp_line (start 0.785 1.99) (end 1.985 1.99) (layer B.Fab) (width 0.1))
  (fp_line (start 1.985 1.99) (end 1.985 -0.91) (layer B.Fab) (width 0.1))
  (fp_line (start 1.985 -0.91) (end 0.785 -0.91) (layer B.Fab) (width 0.1))
  (fp_line (start -1.985 -0.91) (end -1.985 1.99) (layer B.Fab) (width 0.1))
  (fp_line (start -1.985 1.99) (end -0.785 1.99) (layer B.Fab) (width 0.1))
  (fp_line (start -0.785 1.99) (end -0.785 -0.91) (layer B.Fab) (width 0.1))
  (fp_line (start -0.785 -0.91) (end -1.985 -0.91) (layer B.Fab) (width 0.1))
  (fp_line (start -4.755 -0.91) (end -4.755 1.99) (layer B.Fab) (width 0.1))
  (fp_line (start -4.755 1.99) (end -3.555 1.99) (layer B.Fab) (width 0.1))
  (fp_line (start -3.555 1.99) (end -3.555 -0.91) (layer B.Fab) (width 0.1))
  (fp_line (start -3.555 -0.91) (end -4.755 -0.91) (layer B.Fab) (width 0.1))
  (fp_line (start -7.525 -0.91) (end -7.525 1.99) (layer B.Fab) (width 0.1))
  (fp_line (start -7.525 1.99) (end -6.325 1.99) (layer B.Fab) (width 0.1))
  (fp_line (start -6.325 1.99) (end -6.325 -0.91) (layer B.Fab) (width 0.1))
  (fp_line (start -6.325 -0.91) (end -7.525 -0.91) (layer B.Fab) (width 0.1))
  (fp_line (start -10.295 -0.91) (end -10.295 1.99) (layer B.Fab) (width 0.1))
  (fp_line (start -10.295 1.99) (end -9.095 1.99) (layer B.Fab) (width 0.1))
  (fp_line (start -9.095 1.99) (end -9.095 -0.91) (layer B.Fab) (width 0.1))
  (fp_line (start -9.095 -0.91) (end -10.295 -0.91) (layer B.Fab) (width 0.1))
  (fp_line (start -13.065 -0.91) (end -13.065 1.99) (layer B.Fab) (width 0.1))
  (fp_line (start -13.065 1.99) (end -11.865 1.99) (layer B.Fab) (width 0.1))
  (fp_line (start -11.865 1.99) (end -11.865 -0.91) (layer B.Fab) (width 0.1))
  (fp_line (start -11.865 -0.91) (end -13.065 -0.91) (layer B.Fab) (width 0.1))
  (fp_line (start -15.835 -0.91) (end -15.835 1.99) (layer B.Fab) (width 0.1))
  (fp_line (start -15.835 1.99) (end -14.635 1.99) (layer B.Fab) (width 0.1))
  (fp_line (start -14.635 1.99) (end -14.635 -0.91) (layer B.Fab) (width 0.1))
  (fp_line (start -14.635 -0.91) (end -15.835 -0.91) (layer B.Fab) (width 0.1))
  (fp_line (start -18.605 -0.91) (end -18.605 1.99) (layer B.Fab) (width 0.1))
  (fp_line (start -18.605 1.99) (end -17.405 1.99) (layer B.Fab) (width 0.1))
  (fp_line (start -17.405 1.99) (end -17.405 -0.91) (layer B.Fab) (width 0.1))
  (fp_line (start -17.405 -0.91) (end -18.605 -0.91) (layer B.Fab) (width 0.1))
  (fp_line (start -21.375 -0.91) (end -21.375 1.99) (layer B.Fab) (width 0.1))
  (fp_line (start -21.375 1.99) (end -20.175 1.99) (layer B.Fab) (width 0.1))
  (fp_line (start -20.175 1.99) (end -20.175 -0.91) (layer B.Fab) (width 0.1))
  (fp_line (start -20.175 -0.91) (end -21.375 -0.91) (layer B.Fab) (width 0.1))
  (fp_line (start -24.145 -0.91) (end -24.145 1.99) (layer B.Fab) (width 0.1))
  (fp_line (start -24.145 1.99) (end -22.945 1.99) (layer B.Fab) (width 0.1))
  (fp_line (start -22.945 1.99) (end -22.945 -0.91) (layer B.Fab) (width 0.1))
  (fp_line (start -22.945 -0.91) (end -24.145 -0.91) (layer B.Fab) (width 0.1))
  (fp_line (start -26.8 1.99) (end -26.8 4.79) (layer F.Fab) (width 0.1))
  (fp_line (start -26.8 4.79) (end 26.8 4.79) (layer F.Fab) (width 0.1))
  (fp_line (start 26.8 4.79) (end 26.8 1.99) (layer F.Fab) (width 0.1))
  (fp_line (start 26.8 1.99) (end -26.8 1.99) (layer F.Fab) (width 0.1))
  (fp_line (start -27.8 4.79) (end -27.8 9.29) (layer F.Fab) (width 0.1))
  (fp_line (start -27.8 9.29) (end 27.8 9.29) (layer F.Fab) (width 0.1))
  (fp_line (start 27.8 9.29) (end 27.8 4.79) (layer F.Fab) (width 0.1))
  (fp_line (start 27.8 4.79) (end -27.8 4.79) (layer F.Fab) (width 0.1))
  (fp_line (start -34.7 9.29) (end -34.7 9.69) (layer F.Fab) (width 0.1))
  (fp_line (start -34.7 9.69) (end 34.7 9.69) (layer F.Fab) (width 0.1))
  (fp_line (start 34.7 9.69) (end 34.7 9.29) (layer F.Fab) (width 0.1))
  (fp_line (start 34.7 9.29) (end -34.7 9.29) (layer F.Fab) (width 0.1))
  (fp_line (start -27.4 9.69) (end -27.4 15.86) (layer F.Fab) (width 0.1))
  (fp_line (start -27.4 15.86) (end 27.4 15.86) (layer F.Fab) (width 0.1))
  (fp_line (start 27.4 15.86) (end 27.4 9.69) (layer F.Fab) (width 0.1))
  (fp_line (start 27.4 9.69) (end -27.4 9.69) (layer F.Fab) (width 0.1))
  (fp_line (start -26.4 -2.25) (end 26.4 -2.25) (layer F.CrtYd) (width 0.05))
  (fp_line (start 26.4 -2.25) (end 26.4 1.5) (layer F.CrtYd) (width 0.05))
  (fp_line (start 26.4 1.5) (end 27.3 1.5) (layer F.CrtYd) (width 0.05))
  (fp_line (start 27.3 1.5) (end 27.3 4.3) (layer F.CrtYd) (width 0.05))
  (fp_line (start 27.3 4.3) (end 28.3 4.3) (layer F.CrtYd) (width 0.05))
  (fp_line (start 28.3 4.3) (end 28.3 8.8) (layer F.CrtYd) (width 0.05))
  (fp_line (start 28.3 8.8) (end 35.2 8.8) (layer F.CrtYd) (width 0.05))
  (fp_line (start 35.2 8.8) (end 35.2 10.2) (layer F.CrtYd) (width 0.05))
  (fp_line (start 35.2 10.2) (end 27.9 10.2) (layer F.CrtYd) (width 0.05))
  (fp_line (start 27.9 10.2) (end 27.9 16.4) (layer F.CrtYd) (width 0.05))
  (fp_line (start 27.9 16.4) (end -27.9 16.4) (layer F.CrtYd) (width 0.05))
  (fp_line (start -27.9 16.4) (end -27.9 10.2) (layer F.CrtYd) (width 0.05))
  (fp_line (start -27.9 10.2) (end -35.2 10.2) (layer F.CrtYd) (width 0.05))
  (fp_line (start -35.2 10.2) (end -35.2 8.8) (layer F.CrtYd) (width 0.05))
  (fp_line (start -35.2 8.8) (end -28.3 8.8) (layer F.CrtYd) (width 0.05))
  (fp_line (start -28.3 8.8) (end -28.3 4.3) (layer F.CrtYd) (width 0.05))
  (fp_line (start -28.3 4.3) (end -27.3 4.3) (layer F.CrtYd) (width 0.05))
  (fp_line (start -27.3 4.3) (end -27.3 1.5) (layer F.CrtYd) (width 0.05))
  (fp_line (start -27.3 1.5) (end -26.4 1.5) (layer F.CrtYd) (width 0.05))
  (fp_line (start -26.4 1.5) (end -26.4 -2.25) (layer F.CrtYd) (width 0.05))
  (fp_line (start 26.113333 1.74) (end 26.113333 -2) (layer F.SilkS) (width 0.12))
  (fp_line (start 26.113333 -2) (end -26.113333 -2) (layer F.SilkS) (width 0.12))
  (fp_line (start -26.113333 -2) (end -26.113333 1.74) (layer F.SilkS) (width 0.12))
  (fp_line (start 26.353333 0) (end 26.353333 -2.24) (layer F.SilkS) (width 0.12))
  (fp_line (start 26.353333 -2.24) (end 22.16 -2.24) (layer F.SilkS) (width 0.12))
  (fp_line (start -34.7 1.99) (end 34.7 1.99) (layer Dwgs.User) (width 0.05))
  (pad 1 smd rect (at 24.93 0) (size 1.846667 3.48) (layers F.Cu F.Mask F.Paste))
  (pad 2 smd rect (at 22.16 0) (size 1.846667 3.48) (layers F.Cu F.Mask F.Paste))
  (pad 3 smd rect (at 19.39 0) (size 1.846667 3.48) (layers F.Cu F.Mask F.Paste))
  (pad 4 smd rect (at 16.62 0) (size 1.846667 3.48) (layers F.Cu F.Mask F.Paste))
  (pad 5 smd rect (at 13.85 0) (size 1.846667 3.48) (layers F.Cu F.Mask F.Paste))
  (pad 6 smd rect (at 11.08 0) (size 1.846667 3.48) (layers F.Cu F.Mask F.Paste))
  (pad 7 smd rect (at 8.31 0) (size 1.846667 3.48) (layers F.Cu F.Mask F.Paste))
  (pad 8 smd rect (at 5.54 0) (size 1.846667 3.48) (layers F.Cu F.Mask F.Paste))
  (pad 9 smd rect (at 2.77 0) (size 1.846667 3.48) (layers F.Cu F.Mask F.Paste))
  (pad 10 smd rect (at 0 0) (size 1.846667 3.48) (layers F.Cu F.Mask F.Paste))
  (pad 11 smd rect (at -2.77 0) (size 1.846667 3.48) (layers F.Cu F.Mask F.Paste))
  (pad 12 smd rect (at -5.54 0) (size 1.846667 3.48) (layers F.Cu F.Mask F.Paste))
  (pad 13 smd rect (at -8.31 0) (size 1.846667 3.48) (layers F.Cu F.Mask F.Paste))
  (pad 14 smd rect (at -11.08 0) (size 1.846667 3.48) (layers F.Cu F.Mask F.Paste))
  (pad 15 smd rect (at -13.85 0) (size 1.846667 3.48) (layers F.Cu F.Mask F.Paste))
  (pad 16 smd rect (at -16.62 0) (size 1.846667 3.48) (layers F.Cu F.Mask F.Paste))
  (pad 17 smd rect (at -19.39 0) (size 1.846667 3.48) (layers F.Cu F.Mask F.Paste))
  (pad 18 smd rect (at -22.16 0) (size 1.846667 3.48) (layers F.Cu F.Mask F.Paste))
  (pad 19 smd rect (at -24.93 0) (size 1.846667 3.48) (layers F.Cu F.Mask F.Paste))
  (pad 20 smd rect (at 23.545 0) (size 1.846667 3.48) (layers B.Cu B.Mask B.Paste))
  (pad 21 smd rect (at 20.775 0) (size 1.846667 3.48) (layers B.Cu B.Mask B.Paste))
  (pad 22 smd rect (at 18.005 0) (size 1.846667 3.48) (layers B.Cu B.Mask B.Paste))
  (pad 23 smd rect (at 15.235 0) (size 1.846667 3.48) (layers B.Cu B.Mask B.Paste))
  (pad 24 smd rect (at 12.465 0) (size 1.846667 3.48) (layers B.Cu B.Mask B.Paste))
  (pad 25 smd rect (at 9.695 0) (size 1.846667 3.48) (layers B.Cu B.Mask B.Paste))
  (pad 26 smd rect (at 6.925 0) (size 1.846667 3.48) (layers B.Cu B.Mask B.Paste))
  (pad 27 smd rect (at 4.155 0) (size 1.846667 3.48) (layers B.Cu B.Mask B.Paste))
  (pad 28 smd rect (at 1.385 0) (size 1.846667 3.48) (layers B.Cu B.Mask B.Paste))
  (pad 29 smd rect (at -1.385 0) (size 1.846667 3.48) (layers B.Cu B.Mask B.Paste))
  (pad 30 smd rect (at -4.155 0) (size 1.846667 3.48) (layers B.Cu B.Mask B.Paste))
  (pad 31 smd rect (at -6.925 0) (size 1.846667 3.48) (layers B.Cu B.Mask B.Paste))
  (pad 32 smd rect (at -9.695 0) (size 1.846667 3.48) (layers B.Cu B.Mask B.Paste))
  (pad 33 smd rect (at -12.465 0) (size 1.846667 3.48) (layers B.Cu B.Mask B.Paste))
  (pad 34 smd rect (at -15.235 0) (size 1.846667 3.48) (layers B.Cu B.Mask B.Paste))
  (pad 35 smd rect (at -18.005 0) (size 1.846667 3.48) (layers B.Cu B.Mask B.Paste))
  (pad 36 smd rect (at -20.775 0) (size 1.846667 3.48) (layers B.Cu B.Mask B.Paste))
  (pad 37 smd rect (at -23.545 0) (size 1.846667 3.48) (layers B.Cu B.Mask B.Paste))
  (fp_text user %R (at 0 3.39) (layer F.Fab)
    (effects (font (size 1 1) (thickness 0.15)))
  )
  (fp_text user "PCB edge" (at -29.7 1.323333) (layer Dwgs.User)
    (effects (font (size 0.5 0.5) (thickness 0.075)))
  )
  (model ${KICAD6_3DMODEL_DIR}/Connector_Dsub.3dshapes/DSUB-37_Female_EdgeMount_P2.77mm.wrl
    (at (xyz 0 0 0))
    (scale (xyz 1 1 1))
    (rotate (xyz 0 0 0))
  )
)