(module DSUB-9_Female_Horizontal_P2.77x2.84mm_EdgePinOffset9.40mm (layer F.Cu) (tedit 59FEDEE2)
  (descr "9-pin D-Sub connector, horizontal/angled (90 deg), THT-mount, female, pitch 2.77x2.84mm, pin-PCB-offset 9.4mm, see http://docs-europe.electrocomponents.com/webdocs/1585/0900766b81585df2.pdf")
  (tags "9-pin D-Sub connector horizontal angled 90deg THT female pitch 2.77x2.84mm pin-PCB-offset 9.4mm")
  (fp_text reference REF** (at -5.54 -1.8) (layer F.SilkS)
    (effects (font (size 1 1) (thickness 0.15)))
  )
  (fp_text value DSUB-9_Female_Horizontal_P2.77x2.84mm_EdgePinOffset9.40mm (at -5.54 20.31) (layer F.Fab)
    (effects (font (size 1 1) (thickness 0.15)))
  )
  (fp_line (start -0.1 0) (end -0.1 8.14) (layer F.Fab) (width 0.1))
  (fp_line (start 0 0) (end 0 8.14) (layer F.Fab) (width 0.1))
  (fp_line (start 0.1 0) (end 0.1 8.14) (layer F.Fab) (width 0.1))
  (fp_line (start -2.87 0) (end -2.87 8.14) (layer F.Fab) (width 0.1))
  (fp_line (start -2.77 0) (end -2.77 8.14) (layer F.Fab) (width 0.1))
  (fp_line (start -2.67 0) (end -2.67 8.14) (layer F.Fab) (width 0.1))
  (fp_line (start -5.64 0) (end -5.64 8.14) (layer F.Fab) (width 0.1))
  (fp_line (start -5.54 0) (end -5.54 8.14) (layer F.Fab) (width 0.1))
  (fp_line (start -5.44 0) (end -5.44 8.14) (layer F.Fab) (width 0.1))
  (fp_line (start -8.41 0) (end -8.41 8.14) (layer F.Fab) (width 0.1))
  (fp_line (start -8.31 0) (end -8.31 8.14) (layer F.Fab) (width 0.1))
  (fp_line (start -8.21 0) (end -8.21 8.14) (layer F.Fab) (width 0.1))
  (fp_line (start -11.18 0) (end -11.18 8.14) (layer F.Fab) (width 0.1))
  (fp_line (start -11.08 0) (end -11.08 8.14) (layer F.Fab) (width 0.1))
  (fp_line (start -10.98 0) (end -10.98 8.14) (layer F.Fab) (width 0.1))
  (fp_line (start -1.485 2.84) (end -1.485 8.14) (layer F.Fab) (width 0.1))
  (fp_line (start -1.385 2.84) (end -1.385 8.14) (layer F.Fab) (width 0.1))
  (fp_line (start -1.285 2.84) (end -1.285 8.14) (layer F.Fab) (width 0.1))
  (fp_line (start -4.255 2.84) (end -4.255 8.14) (layer F.Fab) (width 0.1))
  (fp_line (start -4.155 2.84) (end -4.155 8.14) (layer F.Fab) (width 0.1))
  (fp_line (start -4.055 2.84) (end -4.055 8.14) (layer F.Fab) (width 0.1))
  (fp_line (start -7.025 2.84) (end -7.025 8.14) (layer F.Fab) (width 0.1))
  (fp_line (start -6.925 2.84) (end -6.925 8.14) (layer F.Fab) (width 0.1))
  (fp_line (start -6.825 2.84) (end -6.825 8.14) (layer F.Fab) (width 0.1))
  (fp_line (start -9.795 2.84) (end -9.795 8.14) (layer F.Fab) (width 0.1))
  (fp_line (start -9.695 2.84) (end -9.695 8.14) (layer F.Fab) (width 0.1))
  (fp_line (start -9.595 2.84) (end -9.595 8.14) (layer F.Fab) (width 0.1))
  (fp_line (start -14.09 8.14) (end -14.09 12.24) (layer F.Fab) (width 0.1))
  (fp_line (start -14.09 12.24) (end 3.01 12.24) (layer F.Fab) (width 0.1))
  (fp_line (start 3.01 12.24) (end 3.01 8.14) (layer F.Fab) (width 0.1))
  (fp_line (start 3.01 8.14) (end -14.09 8.14) (layer F.Fab) (width 0.1))
  (fp_line (start -20.965 12.24) (end -20.965 12.64) (layer F.Fab) (width 0.1))
  (fp_line (start -20.965 12.64) (end 9.885 12.64) (layer F.Fab) (width 0.1))
  (fp_line (start 9.885 12.64) (end 9.885 12.24) (layer F.Fab) (width 0.1))
  (fp_line (start 9.885 12.24) (end -20.965 12.24) (layer F.Fab) (width 0.1))
  (fp_line (start -13.69 12.64) (end -13.69 18.81) (layer F.Fab) (width 0.1))
  (fp_line (start -13.69 18.81) (end 2.61 18.81) (layer F.Fab) (width 0.1))
  (fp_line (start 2.61 18.81) (end 2.61 12.64) (layer F.Fab) (width 0.1))
  (fp_line (start 2.61 12.64) (end -13.69 12.64) (layer F.Fab) (width 0.1))
  (fp_line (start -14.15 12.18) (end -14.15 8.08) (layer F.SilkS) (width 0.12))
  (fp_line (start -14.15 8.08) (end -12.14 8.08) (layer F.SilkS) (width 0.12))
  (fp_line (start -12.14 8.08) (end -12.14 -1.06) (layer F.SilkS) (width 0.12))
  (fp_line (start -12.14 -1.06) (end 1.06 -1.06) (layer F.SilkS) (width 0.12))
  (fp_line (start 1.06 -1.06) (end 1.06 8.08) (layer F.SilkS) (width 0.12))
  (fp_line (start 1.06 8.08) (end 3.07 8.08) (layer F.SilkS) (width 0.12))
  (fp_line (start 3.07 8.08) (end 3.07 12.18) (layer F.SilkS) (width 0.12))
  (fp_line (start -0.25 -1.754338) (end 0.25 -1.754338) (layer F.SilkS) (width 0.12))
  (fp_line (start 0.25 -1.754338) (end 0 -1.321325) (layer F.SilkS) (width 0.12))
  (fp_line (start 0 -1.321325) (end -0.25 -1.754338) (layer F.SilkS) (width 0.12))
  (fp_line (start -14.2 19.35) (end -14.2 13.15) (layer F.CrtYd) (width 0.05))
  (fp_line (start -14.2 13.15) (end -21.5 13.15) (layer F.CrtYd) (width 0.05))
  (fp_line (start -21.5 13.15) (end -21.5 11.75) (layer F.CrtYd) (width 0.05))
  (fp_line (start -21.5 11.75) (end -14.6 11.75) (layer F.CrtYd) (width 0.05))
  (fp_line (start -14.6 11.75) (end -14.6 7.65) (layer F.CrtYd) (width 0.05))
  (fp_line (start -14.6 7.65) (end -12.4 7.65) (layer F.CrtYd) (width 0.05))
  (fp_line (start -12.4 7.65) (end -12.4 -1.35) (layer F.CrtYd) (width 0.05))
  (fp_line (start -12.4 -1.35) (end 1.3 -1.35) (layer F.CrtYd) (width 0.05))
  (fp_line (start 1.3 -1.35) (end 1.3 7.65) (layer F.CrtYd) (width 0.05))
  (fp_line (start 1.3 7.65) (end 3.55 7.65) (layer F.CrtYd) (width 0.05))
  (fp_line (start 3.55 7.65) (end 3.55 11.75) (layer F.CrtYd) (width 0.05))
  (fp_line (start 3.55 11.75) (end 10.4 11.75) (layer F.CrtYd) (width 0.05))
  (fp_line (start 10.4 11.75) (end 10.4 13.15) (layer F.CrtYd) (width 0.05))
  (fp_line (start 10.4 13.15) (end 3.15 13.15) (layer F.CrtYd) (width 0.05))
  (fp_line (start 3.15 13.15) (end 3.15 19.35) (layer F.CrtYd) (width 0.05))
  (fp_line (start 3.15 19.35) (end -14.2 19.35) (layer F.CrtYd) (width 0.05))
  (pad 1 thru_hole rect (at 0 0) (size 1.6 1.6) (drill 1) (layers *.Cu *.Mask))
  (pad 2 thru_hole circle (at -2.77 0) (size 1.6 1.6) (drill 1) (layers *.Cu *.Mask))
  (pad 3 thru_hole circle (at -5.54 0) (size 1.6 1.6) (drill 1) (layers *.Cu *.Mask))
  (pad 4 thru_hole circle (at -8.31 0) (size 1.6 1.6) (drill 1) (layers *.Cu *.Mask))
  (pad 5 thru_hole circle (at -11.08 0) (size 1.6 1.6) (drill 1) (layers *.Cu *.Mask))
  (pad 6 thru_hole circle (at -1.385 2.84) (size 1.6 1.6) (drill 1) (layers *.Cu *.Mask))
  (pad 7 thru_hole circle (at -4.155 2.84) (size 1.6 1.6) (drill 1) (layers *.Cu *.Mask))
  (pad 8 thru_hole circle (at -6.925 2.84) (size 1.6 1.6) (drill 1) (layers *.Cu *.Mask))
  (pad 9 thru_hole circle (at -9.695 2.84) (size 1.6 1.6) (drill 1) (layers *.Cu *.Mask))
  (fp_text user %R (at -5.54 15.725) (layer F.Fab)
    (effects (font (size 1 1) (thickness 0.15)))
  )
  (model ${KICAD6_3DMODEL_DIR}/Connector_Dsub.3dshapes/DSUB-9_Female_Horizontal_P2.77x2.84mm_EdgePinOffset9.40mm.wrl
    (at (xyz 0 0 0))
    (scale (xyz 1 1 1))
    (rotate (xyz 0 0 0))
  )
)