(module DSUB-15_Male_EdgeMount_P2.77mm (layer F.Cu) (tedit 59FEDEE2)
  (descr "15-pin D-Sub connector, solder-cups edge-mounted, male, x-pin-pitch 2.77mm, distance of mounting holes 33.3mm, see https://disti-assets.s3.amazonaws.com/tonar/files/datasheets/16730.pdf")
  (tags "15-pin D-Sub connector edge mount solder cup male x-pin-pitch 2.77mm mounting holes distance 33.3mm")
  (attr smd)
  (fp_text reference REF** (at -13.618333 0) (layer F.SilkS)
    (effects (font (size 1 1) (thickness 0.15)))
  )
  (fp_text value DSUB-15_Male_EdgeMount_P2.77mm (at 0 16.69) (layer F.Fab)
    (effects (font (size 1 1) (thickness 0.15)))
  )
  (fp_line (start -10.295 -0.91) (end -10.295 1.99) (layer F.Fab) (width 0.1))
  (fp_line (start -10.295 1.99) (end -9.095 1.99) (layer F.Fab) (width 0.1))
  (fp_line (start -9.095 1.99) (end -9.095 -0.91) (layer F.Fab) (width 0.1))
  (fp_line (start -9.095 -0.91) (end -10.295 -0.91) (layer F.Fab) (width 0.1))
  (fp_line (start -7.525 -0.91) (end -7.525 1.99) (layer F.Fab) (width 0.1))
  (fp_line (start -7.525 1.99) (end -6.325 1.99) (layer F.Fab) (width 0.1))
  (fp_line (start -6.325 1.99) (end -6.325 -0.91) (layer F.Fab) (width 0.1))
  (fp_line (start -6.325 -0.91) (end -7.525 -0.91) (layer F.Fab) (width 0.1))
  (fp_line (start -4.755 -0.91) (end -4.755 1.99) (layer F.Fab) (width 0.1))
  (fp_line (start -4.755 1.99) (end -3.555 1.99) (layer F.Fab) (width 0.1))
  (fp_line (start -3.555 1.99) (end -3.555 -0.91) (layer F.Fab) (width 0.1))
  (fp_line (start -3.555 -0.91) (end -4.755 -0.91) (layer F.Fab) (width 0.1))
  (fp_line (start -1.985 -0.91) (end -1.985 1.99) (layer F.Fab) (width 0.1))
  (fp_line (start -1.985 1.99) (end -0.785 1.99) (layer F.Fab) (width 0.1))
  (fp_line (start -0.785 1.99) (end -0.785 -0.91) (layer F.Fab) (width 0.1))
  (fp_line (start -0.785 -0.91) (end -1.985 -0.91) (layer F.Fab) (width 0.1))
  (fp_line (start 0.785 -0.91) (end 0.785 1.99) (layer F.Fab) (width 0.1))
  (fp_line (start 0.785 1.99) (end 1.985 1.99) (layer F.Fab) (width 0.1))
  (fp_line (start 1.985 1.99) (end 1.985 -0.91) (layer F.Fab) (width 0.1))
  (fp_line (start 1.985 -0.91) (end 0.785 -0.91) (layer F.Fab) (width 0.1))
  (fp_line (start 3.555 -0.91) (end 3.555 1.99) (layer F.Fab) (width 0.1))
  (fp_line (start 3.555 1.99) (end 4.755 1.99) (layer F.Fab) (width 0.1))
  (fp_line (start 4.755 1.99) (end 4.755 -0.91) (layer F.Fab) (width 0.1))
  (fp_line (start 4.755 -0.91) (end 3.555 -0.91) (layer F.Fab) (width 0.1))
  (fp_line (start 6.325 -0.91) (end 6.325 1.99) (layer F.Fab) (width 0.1))
  (fp_line (start 6.325 1.99) (end 7.525 1.99) (layer F.Fab) (width 0.1))
  (fp_line (start 7.525 1.99) (end 7.525 -0.91) (layer F.Fab) (width 0.1))
  (fp_line (start 7.525 -0.91) (end 6.325 -0.91) (layer F.Fab) (width 0.1))
  (fp_line (start 9.095 -0.91) (end 9.095 1.99) (layer F.Fab) (width 0.1))
  (fp_line (start 9.095 1.99) (end 10.295 1.99) (layer F.Fab) (width 0.1))
  (fp_line (start 10.295 1.99) (end 10.295 -0.91) (layer F.Fab) (width 0.1))
  (fp_line (start 10.295 -0.91) (end 9.095 -0.91) (layer F.Fab) (width 0.1))
  (fp_line (start -8.91 -0.91) (end -8.91 1.99) (layer B.Fab) (width 0.1))
  (fp_line (start -8.91 1.99) (end -7.71 1.99) (layer B.Fab) (width 0.1))
  (fp_line (start -7.71 1.99) (end -7.71 -0.91) (layer B.Fab) (width 0.1))
  (fp_line (start -7.71 -0.91) (end -8.91 -0.91) (layer B.Fab) (width 0.1))
  (fp_line (start -6.14 -0.91) (end -6.14 1.99) (layer B.Fab) (width 0.1))
  (fp_line (start -6.14 1.99) (end -4.94 1.99) (layer B.Fab) (width 0.1))
  (fp_line (start -4.94 1.99) (end -4.94 -0.91) (layer B.Fab) (width 0.1))
  (fp_line (start -4.94 -0.91) (end -6.14 -0.91) (layer B.Fab) (width 0.1))
  (fp_line (start -3.37 -0.91) (end -3.37 1.99) (layer B.Fab) (width 0.1))
  (fp_line (start -3.37 1.99) (end -2.17 1.99) (layer B.Fab) (width 0.1))
  (fp_line (start -2.17 1.99) (end -2.17 -0.91) (layer B.Fab) (width 0.1))
  (fp_line (start -2.17 -0.91) (end -3.37 -0.91) (layer B.Fab) (width 0.1))
  (fp_line (start -0.6 -0.91) (end -0.6 1.99) (layer B.Fab) (width 0.1))
  (fp_line (start -0.6 1.99) (end 0.6 1.99) (layer B.Fab) (width 0.1))
  (fp_line (start 0.6 1.99) (end 0.6 -0.91) (layer B.Fab) (width 0.1))
  (fp_line (start 0.6 -0.91) (end -0.6 -0.91) (layer B.Fab) (width 0.1))
  (fp_line (start 2.17 -0.91) (end 2.17 1.99) (layer B.Fab) (width 0.1))
  (fp_line (start 2.17 1.99) (end 3.37 1.99) (layer B.Fab) (width 0.1))
  (fp_line (start 3.37 1.99) (end 3.37 -0.91) (layer B.Fab) (width 0.1))
  (fp_line (start 3.37 -0.91) (end 2.17 -0.91) (layer B.Fab) (width 0.1))
  (fp_line (start 4.94 -0.91) (end 4.94 1.99) (layer B.Fab) (width 0.1))
  (fp_line (start 4.94 1.99) (end 6.14 1.99) (layer B.Fab) (width 0.1))
  (fp_line (start 6.14 1.99) (end 6.14 -0.91) (layer B.Fab) (width 0.1))
  (fp_line (start 6.14 -0.91) (end 4.94 -0.91) (layer B.Fab) (width 0.1))
  (fp_line (start 7.71 -0.91) (end 7.71 1.99) (layer B.Fab) (width 0.1))
  (fp_line (start 7.71 1.99) (end 8.91 1.99) (layer B.Fab) (width 0.1))
  (fp_line (start 8.91 1.99) (end 8.91 -0.91) (layer B.Fab) (width 0.1))
  (fp_line (start 8.91 -0.91) (end 7.71 -0.91) (layer B.Fab) (width 0.1))
  (fp_line (start -11.7 1.99) (end -11.7 4.79) (layer F.Fab) (width 0.1))
  (fp_line (start -11.7 4.79) (end 11.7 4.79) (layer F.Fab) (width 0.1))
  (fp_line (start 11.7 4.79) (end 11.7 1.99) (layer F.Fab) (width 0.1))
  (fp_line (start 11.7 1.99) (end -11.7 1.99) (layer F.Fab) (width 0.1))
  (fp_line (start -12.7 4.79) (end -12.7 9.29) (layer F.Fab) (width 0.1))
  (fp_line (start -12.7 9.29) (end 12.7 9.29) (layer F.Fab) (width 0.1))
  (fp_line (start 12.7 9.29) (end 12.7 4.79) (layer F.Fab) (width 0.1))
  (fp_line (start 12.7 4.79) (end -12.7 4.79) (layer F.Fab) (width 0.1))
  (fp_line (start -19.6 9.29) (end -19.6 9.69) (layer F.Fab) (width 0.1))
  (fp_line (start -19.6 9.69) (end 19.6 9.69) (layer F.Fab) (width 0.1))
  (fp_line (start 19.6 9.69) (end 19.6 9.29) (layer F.Fab) (width 0.1))
  (fp_line (start 19.6 9.29) (end -19.6 9.29) (layer F.Fab) (width 0.1))
  (fp_line (start -12.3 9.69) (end -12.3 15.69) (layer F.Fab) (width 0.1))
  (fp_line (start -12.3 15.69) (end 12.3 15.69) (layer F.Fab) (width 0.1))
  (fp_line (start 12.3 15.69) (end 12.3 9.69) (layer F.Fab) (width 0.1))
  (fp_line (start 12.3 9.69) (end -12.3 9.69) (layer F.Fab) (width 0.1))
  (fp_line (start -11.15 -2.25) (end 11.15 -2.25) (layer F.CrtYd) (width 0.05))
  (fp_line (start 11.15 -2.25) (end 11.15 1.5) (layer F.CrtYd) (width 0.05))
  (fp_line (start 11.15 1.5) (end 12.2 1.5) (layer F.CrtYd) (width 0.05))
  (fp_line (start 12.2 1.5) (end 12.2 4.3) (layer F.CrtYd) (width 0.05))
  (fp_line (start 12.2 4.3) (end 13.2 4.3) (layer F.CrtYd) (width 0.05))
  (fp_line (start 13.2 4.3) (end 13.2 8.8) (layer F.CrtYd) (width 0.05))
  (fp_line (start 13.2 8.8) (end 20.1 8.8) (layer F.CrtYd) (width 0.05))
  (fp_line (start 20.1 8.8) (end 20.1 10.2) (layer F.CrtYd) (width 0.05))
  (fp_line (start 20.1 10.2) (end 12.8 10.2) (layer F.CrtYd) (width 0.05))
  (fp_line (start 12.8 10.2) (end 12.8 16.2) (layer F.CrtYd) (width 0.05))
  (fp_line (start 12.8 16.2) (end -12.8 16.2) (layer F.CrtYd) (width 0.05))
  (fp_line (start -12.8 16.2) (end -12.8 10.2) (layer F.CrtYd) (width 0.05))
  (fp_line (start -12.8 10.2) (end -20.1 10.2) (layer F.CrtYd) (width 0.05))
  (fp_line (start -20.1 10.2) (end -20.1 8.8) (layer F.CrtYd) (width 0.05))
  (fp_line (start -20.1 8.8) (end -13.2 8.8) (layer F.CrtYd) (width 0.05))
  (fp_line (start -13.2 8.8) (end -13.2 4.3) (layer F.CrtYd) (width 0.05))
  (fp_line (start -13.2 4.3) (end -12.2 4.3) (layer F.CrtYd) (width 0.05))
  (fp_line (start -12.2 4.3) (end -12.2 1.5) (layer F.CrtYd) (width 0.05))
  (fp_line (start -12.2 1.5) (end -11.15 1.5) (layer F.CrtYd) (width 0.05))
  (fp_line (start -11.15 1.5) (end -11.15 -2.25) (layer F.CrtYd) (width 0.05))
  (fp_line (start 10.878333 1.74) (end 10.878333 -2) (layer F.SilkS) (width 0.12))
  (fp_line (start 10.878333 -2) (end -10.878333 -2) (layer F.SilkS) (width 0.12))
  (fp_line (start -10.878333 -2) (end -10.878333 1.74) (layer F.SilkS) (width 0.12))
  (fp_line (start -11.118333 0) (end -11.118333 -2.24) (layer F.SilkS) (width 0.12))
  (fp_line (start -11.118333 -2.24) (end -6.925 -2.24) (layer F.SilkS) (width 0.12))
  (fp_line (start -19.6 1.99) (end 19.6 1.99) (layer Dwgs.User) (width 0.05))
  (pad 1 smd rect (at -9.695 0) (size 1.846667 3.48) (layers F.Cu F.Mask F.Paste))
  (pad 2 smd rect (at -6.925 0) (size 1.846667 3.48) (layers F.Cu F.Mask F.Paste))
  (pad 3 smd rect (at -4.155 0) (size 1.846667 3.48) (layers F.Cu F.Mask F.Paste))
  (pad 4 smd rect (at -1.385 0) (size 1.846667 3.48) (layers F.Cu F.Mask F.Paste))
  (pad 5 smd rect (at 1.385 0) (size 1.846667 3.48) (layers F.Cu F.Mask F.Paste))
  (pad 6 smd rect (at 4.155 0) (size 1.846667 3.48) (layers F.Cu F.Mask F.Paste))
  (pad 7 smd rect (at 6.925 0) (size 1.846667 3.48) (layers F.Cu F.Mask F.Paste))
  (pad 8 smd rect (at 9.695 0) (size 1.846667 3.48) (layers F.Cu F.Mask F.Paste))
  (pad 9 smd rect (at -8.31 0) (size 1.846667 3.48) (layers B.Cu B.Mask B.Paste))
  (pad 10 smd rect (at -5.54 0) (size 1.846667 3.48) (layers B.Cu B.Mask B.Paste))
  (pad 11 smd rect (at -2.77 0) (size 1.846667 3.48) (layers B.Cu B.Mask B.Paste))
  (pad 12 smd rect (at -0 0) (size 1.846667 3.48) (layers B.Cu B.Mask B.Paste))
  (pad 13 smd rect (at 2.77 0) (size 1.846667 3.48) (layers B.Cu B.Mask B.Paste))
  (pad 14 smd rect (at 5.54 0) (size 1.846667 3.48) (layers B.Cu B.Mask B.Paste))
  (pad 15 smd rect (at 8.31 0) (size 1.846667 3.48) (layers B.Cu B.Mask B.Paste))
  (fp_text user %R (at 0 3.39) (layer F.Fab)
    (effects (font (size 1 1) (thickness 0.15)))
  )
  (fp_text user "PCB edge" (at -14.6 1.323333) (layer Dwgs.User)
    (effects (font (size 0.5 0.5) (thickness 0.075)))
  )
  (model ${KICAD6_3DMODEL_DIR}/Connector_Dsub.3dshapes/DSUB-15_Male_EdgeMount_P2.77mm.wrl
    (at (xyz 0 0 0))
    (scale (xyz 1 1 1))
    (rotate (xyz 0 0 0))
  )
)