(module DSUB-9_Female_Horizontal_P2.77x2.54mm_EdgePinOffset9.40mm (layer F.Cu) (tedit 59FEDEE2)
  (descr "9-pin D-Sub connector, horizontal/angled (90 deg), THT-mount, female, pitch 2.77x2.54mm, pin-PCB-offset 9.4mm, see http://docs-europe.electrocomponents.com/webdocs/1585/0900766b81585df2.pdf")
  (tags "9-pin D-Sub connector horizontal angled 90deg THT female pitch 2.77x2.54mm pin-PCB-offset 9.4mm")
  (fp_text reference REF** (at -5.54 -1.8) (layer F.SilkS)
    (effects (font (size 1 1) (thickness 0.15)))
  )
  (fp_text value DSUB-9_Female_Horizontal_P2.77x2.54mm_EdgePinOffset9.40mm (at -5.54 20.01) (layer F.Fab)
    (effects (font (size 1 1) (thickness 0.15)))
  )
  (fp_line (start -0.1 0) (end -0.1 7.84) (layer F.Fab) (width 0.1))
  (fp_line (start 0 0) (end 0 7.84) (layer F.Fab) (width 0.1))
  (fp_line (start 0.1 0) (end 0.1 7.84) (layer F.Fab) (width 0.1))
  (fp_line (start -2.87 0) (end -2.87 7.84) (layer F.Fab) (width 0.1))
  (fp_line (start -2.77 0) (end -2.77 7.84) (layer F.Fab) (width 0.1))
  (fp_line (start -2.67 0) (end -2.67 7.84) (layer F.Fab) (width 0.1))
  (fp_line (start -5.64 0) (end -5.64 7.84) (layer F.Fab) (width 0.1))
  (fp_line (start -5.54 0) (end -5.54 7.84) (layer F.Fab) (width 0.1))
  (fp_line (start -5.44 0) (end -5.44 7.84) (layer F.Fab) (width 0.1))
  (fp_line (start -8.41 0) (end -8.41 7.84) (layer F.Fab) (width 0.1))
  (fp_line (start -8.31 0) (end -8.31 7.84) (layer F.Fab) (width 0.1))
  (fp_line (start -8.21 0) (end -8.21 7.84) (layer F.Fab) (width 0.1))
  (fp_line (start -11.18 0) (end -11.18 7.84) (layer F.Fab) (width 0.1))
  (fp_line (start -11.08 0) (end -11.08 7.84) (layer F.Fab) (width 0.1))
  (fp_line (start -10.98 0) (end -10.98 7.84) (layer F.Fab) (width 0.1))
  (fp_line (start -1.485 2.54) (end -1.485 7.84) (layer F.Fab) (width 0.1))
  (fp_line (start -1.385 2.54) (end -1.385 7.84) (layer F.Fab) (width 0.1))
  (fp_line (start -1.285 2.54) (end -1.285 7.84) (layer F.Fab) (width 0.1))
  (fp_line (start -4.255 2.54) (end -4.255 7.84) (layer F.Fab) (width 0.1))
  (fp_line (start -4.155 2.54) (end -4.155 7.84) (layer F.Fab) (width 0.1))
  (fp_line (start -4.055 2.54) (end -4.055 7.84) (layer F.Fab) (width 0.1))
  (fp_line (start -7.025 2.54) (end -7.025 7.84) (layer F.Fab) (width 0.1))
  (fp_line (start -6.925 2.54) (end -6.925 7.84) (layer F.Fab) (width 0.1))
  (fp_line (start -6.825 2.54) (end -6.825 7.84) (layer F.Fab) (width 0.1))
  (fp_line (start -9.795 2.54) (end -9.795 7.84) (layer F.Fab) (width 0.1))
  (fp_line (start -9.695 2.54) (end -9.695 7.84) (layer F.Fab) (width 0.1))
  (fp_line (start -9.595 2.54) (end -9.595 7.84) (layer F.Fab) (width 0.1))
  (fp_line (start -14.09 7.84) (end -14.09 11.94) (layer F.Fab) (width 0.1))
  (fp_line (start -14.09 11.94) (end 3.01 11.94) (layer F.Fab) (width 0.1))
  (fp_line (start 3.01 11.94) (end 3.01 7.84) (layer F.Fab) (width 0.1))
  (fp_line (start 3.01 7.84) (end -14.09 7.84) (layer F.Fab) (width 0.1))
  (fp_line (start -20.965 11.94) (end -20.965 12.34) (layer F.Fab) (width 0.1))
  (fp_line (start -20.965 12.34) (end 9.885 12.34) (layer F.Fab) (width 0.1))
  (fp_line (start 9.885 12.34) (end 9.885 11.94) (layer F.Fab) (width 0.1))
  (fp_line (start 9.885 11.94) (end -20.965 11.94) (layer F.Fab) (width 0.1))
  (fp_line (start -13.69 12.34) (end -13.69 18.51) (layer F.Fab) (width 0.1))
  (fp_line (start -13.69 18.51) (end 2.61 18.51) (layer F.Fab) (width 0.1))
  (fp_line (start 2.61 18.51) (end 2.61 12.34) (layer F.Fab) (width 0.1))
  (fp_line (start 2.61 12.34) (end -13.69 12.34) (layer F.Fab) (width 0.1))
  (fp_line (start -14.15 11.88) (end -14.15 7.78) (layer F.SilkS) (width 0.12))
  (fp_line (start -14.15 7.78) (end -12.14 7.78) (layer F.SilkS) (width 0.12))
  (fp_line (start -12.14 7.78) (end -12.14 -1.06) (layer F.SilkS) (width 0.12))
  (fp_line (start -12.14 -1.06) (end 1.06 -1.06) (layer F.SilkS) (width 0.12))
  (fp_line (start 1.06 -1.06) (end 1.06 7.78) (layer F.SilkS) (width 0.12))
  (fp_line (start 1.06 7.78) (end 3.07 7.78) (layer F.SilkS) (width 0.12))
  (fp_line (start 3.07 7.78) (end 3.07 11.88) (layer F.SilkS) (width 0.12))
  (fp_line (start -0.25 -1.754338) (end 0.25 -1.754338) (layer F.SilkS) (width 0.12))
  (fp_line (start 0.25 -1.754338) (end 0 -1.321325) (layer F.SilkS) (width 0.12))
  (fp_line (start 0 -1.321325) (end -0.25 -1.754338) (layer F.SilkS) (width 0.12))
  (fp_line (start -14.2 19.05) (end -14.2 12.85) (layer F.CrtYd) (width 0.05))
  (fp_line (start -14.2 12.85) (end -21.5 12.85) (layer F.CrtYd) (width 0.05))
  (fp_line (start -21.5 12.85) (end -21.5 11.45) (layer F.CrtYd) (width 0.05))
  (fp_line (start -21.5 11.45) (end -14.6 11.45) (layer F.CrtYd) (width 0.05))
  (fp_line (start -14.6 11.45) (end -14.6 7.35) (layer F.CrtYd) (width 0.05))
  (fp_line (start -14.6 7.35) (end -12.4 7.35) (layer F.CrtYd) (width 0.05))
  (fp_line (start -12.4 7.35) (end -12.4 -1.35) (layer F.CrtYd) (width 0.05))
  (fp_line (start -12.4 -1.35) (end 1.3 -1.35) (layer F.CrtYd) (width 0.05))
  (fp_line (start 1.3 -1.35) (end 1.3 7.35) (layer F.CrtYd) (width 0.05))
  (fp_line (start 1.3 7.35) (end 3.55 7.35) (layer F.CrtYd) (width 0.05))
  (fp_line (start 3.55 7.35) (end 3.55 11.45) (layer F.CrtYd) (width 0.05))
  (fp_line (start 3.55 11.45) (end 10.4 11.45) (layer F.CrtYd) (width 0.05))
  (fp_line (start 10.4 11.45) (end 10.4 12.85) (layer F.CrtYd) (width 0.05))
  (fp_line (start 10.4 12.85) (end 3.15 12.85) (layer F.CrtYd) (width 0.05))
  (fp_line (start 3.15 12.85) (end 3.15 19.05) (layer F.CrtYd) (width 0.05))
  (fp_line (start 3.15 19.05) (end -14.2 19.05) (layer F.CrtYd) (width 0.05))
  (pad 1 thru_hole rect (at 0 0) (size 1.6 1.6) (drill 1) (layers *.Cu *.Mask))
  (pad 2 thru_hole circle (at -2.77 0) (size 1.6 1.6) (drill 1) (layers *.Cu *.Mask))
  (pad 3 thru_hole circle (at -5.54 0) (size 1.6 1.6) (drill 1) (layers *.Cu *.Mask))
  (pad 4 thru_hole circle (at -8.31 0) (size 1.6 1.6) (drill 1) (layers *.Cu *.Mask))
  (pad 5 thru_hole circle (at -11.08 0) (size 1.6 1.6) (drill 1) (layers *.Cu *.Mask))
  (pad 6 thru_hole circle (at -1.385 2.54) (size 1.6 1.6) (drill 1) (layers *.Cu *.Mask))
  (pad 7 thru_hole circle (at -4.155 2.54) (size 1.6 1.6) (drill 1) (layers *.Cu *.Mask))
  (pad 8 thru_hole circle (at -6.925 2.54) (size 1.6 1.6) (drill 1) (layers *.Cu *.Mask))
  (pad 9 thru_hole circle (at -9.695 2.54) (size 1.6 1.6) (drill 1) (layers *.Cu *.Mask))
  (fp_text user %R (at -5.54 15.425) (layer F.Fab)
    (effects (font (size 1 1) (thickness 0.15)))
  )
  (model ${KICAD6_3DMODEL_DIR}/Connector_Dsub.3dshapes/DSUB-9_Female_Horizontal_P2.77x2.54mm_EdgePinOffset9.40mm.wrl
    (at (xyz 0 0 0))
    (scale (xyz 1 1 1))
    (rotate (xyz 0 0 0))
  )
)