(module DSUB-44-HD_Female_Horizontal_P2.29x1.98mm_EdgePinOffset9.40mm (layer F.Cu) (tedit 59FEDEE2)
  (descr "44-pin D-Sub connector, horizontal/angled (90 deg), THT-mount, female, pitch 2.29x1.98mm, pin-PCB-offset 9.4mm, see http://docs-europe.electrocomponents.com/webdocs/1585/0900766b81585df2.pdf")
  (tags "44-pin D-Sub connector horizontal angled 90deg THT female pitch 2.29x1.98mm pin-PCB-offset 9.4mm")
  (fp_text reference REF** (at -15.525 -1.8) (layer F.SilkS)
    (effects (font (size 1 1) (thickness 0.15)))
  )
  (fp_text value DSUB-44-HD_Female_Horizontal_P2.29x1.98mm_EdgePinOffset9.40mm (at -15.525 21.43) (layer F.Fab)
    (effects (font (size 1 1) (thickness 0.15)))
  )
  (fp_line (start -0.1 0) (end -0.1 9.26) (layer F.Fab) (width 0.1))
  (fp_line (start 0 0) (end 0 9.26) (layer F.Fab) (width 0.1))
  (fp_line (start 0.1 0) (end 0.1 9.26) (layer F.Fab) (width 0.1))
  (fp_line (start -2.39 0) (end -2.39 9.26) (layer F.Fab) (width 0.1))
  (fp_line (start -2.29 0) (end -2.29 9.26) (layer F.Fab) (width 0.1))
  (fp_line (start -2.19 0) (end -2.19 9.26) (layer F.Fab) (width 0.1))
  (fp_line (start -4.68 0) (end -4.68 9.26) (layer F.Fab) (width 0.1))
  (fp_line (start -4.58 0) (end -4.58 9.26) (layer F.Fab) (width 0.1))
  (fp_line (start -4.48 0) (end -4.48 9.26) (layer F.Fab) (width 0.1))
  (fp_line (start -6.97 0) (end -6.97 9.26) (layer F.Fab) (width 0.1))
  (fp_line (start -6.87 0) (end -6.87 9.26) (layer F.Fab) (width 0.1))
  (fp_line (start -6.77 0) (end -6.77 9.26) (layer F.Fab) (width 0.1))
  (fp_line (start -9.26 0) (end -9.26 9.26) (layer F.Fab) (width 0.1))
  (fp_line (start -9.16 0) (end -9.16 9.26) (layer F.Fab) (width 0.1))
  (fp_line (start -9.06 0) (end -9.06 9.26) (layer F.Fab) (width 0.1))
  (fp_line (start -11.55 0) (end -11.55 9.26) (layer F.Fab) (width 0.1))
  (fp_line (start -11.45 0) (end -11.45 9.26) (layer F.Fab) (width 0.1))
  (fp_line (start -11.35 0) (end -11.35 9.26) (layer F.Fab) (width 0.1))
  (fp_line (start -13.84 0) (end -13.84 9.26) (layer F.Fab) (width 0.1))
  (fp_line (start -13.74 0) (end -13.74 9.26) (layer F.Fab) (width 0.1))
  (fp_line (start -13.64 0) (end -13.64 9.26) (layer F.Fab) (width 0.1))
  (fp_line (start -16.13 0) (end -16.13 9.26) (layer F.Fab) (width 0.1))
  (fp_line (start -16.03 0) (end -16.03 9.26) (layer F.Fab) (width 0.1))
  (fp_line (start -15.93 0) (end -15.93 9.26) (layer F.Fab) (width 0.1))
  (fp_line (start -18.42 0) (end -18.42 9.26) (layer F.Fab) (width 0.1))
  (fp_line (start -18.32 0) (end -18.32 9.26) (layer F.Fab) (width 0.1))
  (fp_line (start -18.22 0) (end -18.22 9.26) (layer F.Fab) (width 0.1))
  (fp_line (start -20.71 0) (end -20.71 9.26) (layer F.Fab) (width 0.1))
  (fp_line (start -20.61 0) (end -20.61 9.26) (layer F.Fab) (width 0.1))
  (fp_line (start -20.51 0) (end -20.51 9.26) (layer F.Fab) (width 0.1))
  (fp_line (start -23 0) (end -23 9.26) (layer F.Fab) (width 0.1))
  (fp_line (start -22.9 0) (end -22.9 9.26) (layer F.Fab) (width 0.1))
  (fp_line (start -22.8 0) (end -22.8 9.26) (layer F.Fab) (width 0.1))
  (fp_line (start -25.29 0) (end -25.29 9.26) (layer F.Fab) (width 0.1))
  (fp_line (start -25.19 0) (end -25.19 9.26) (layer F.Fab) (width 0.1))
  (fp_line (start -25.09 0) (end -25.09 9.26) (layer F.Fab) (width 0.1))
  (fp_line (start -27.58 0) (end -27.58 9.26) (layer F.Fab) (width 0.1))
  (fp_line (start -27.48 0) (end -27.48 9.26) (layer F.Fab) (width 0.1))
  (fp_line (start -27.38 0) (end -27.38 9.26) (layer F.Fab) (width 0.1))
  (fp_line (start -29.87 0) (end -29.87 9.26) (layer F.Fab) (width 0.1))
  (fp_line (start -29.77 0) (end -29.77 9.26) (layer F.Fab) (width 0.1))
  (fp_line (start -29.67 0) (end -29.67 9.26) (layer F.Fab) (width 0.1))
  (fp_line (start -32.16 0) (end -32.16 9.26) (layer F.Fab) (width 0.1))
  (fp_line (start -32.06 0) (end -32.06 9.26) (layer F.Fab) (width 0.1))
  (fp_line (start -31.96 0) (end -31.96 9.26) (layer F.Fab) (width 0.1))
  (fp_line (start 1.045 1.98) (end 1.045 9.26) (layer F.Fab) (width 0.1))
  (fp_line (start 1.145 1.98) (end 1.145 9.26) (layer F.Fab) (width 0.1))
  (fp_line (start 1.245 1.98) (end 1.245 9.26) (layer F.Fab) (width 0.1))
  (fp_line (start -1.245 1.98) (end -1.245 9.26) (layer F.Fab) (width 0.1))
  (fp_line (start -1.145 1.98) (end -1.145 9.26) (layer F.Fab) (width 0.1))
  (fp_line (start -1.045 1.98) (end -1.045 9.26) (layer F.Fab) (width 0.1))
  (fp_line (start -3.535 1.98) (end -3.535 9.26) (layer F.Fab) (width 0.1))
  (fp_line (start -3.435 1.98) (end -3.435 9.26) (layer F.Fab) (width 0.1))
  (fp_line (start -3.335 1.98) (end -3.335 9.26) (layer F.Fab) (width 0.1))
  (fp_line (start -5.825 1.98) (end -5.825 9.26) (layer F.Fab) (width 0.1))
  (fp_line (start -5.725 1.98) (end -5.725 9.26) (layer F.Fab) (width 0.1))
  (fp_line (start -5.625 1.98) (end -5.625 9.26) (layer F.Fab) (width 0.1))
  (fp_line (start -8.115 1.98) (end -8.115 9.26) (layer F.Fab) (width 0.1))
  (fp_line (start -8.015 1.98) (end -8.015 9.26) (layer F.Fab) (width 0.1))
  (fp_line (start -7.915 1.98) (end -7.915 9.26) (layer F.Fab) (width 0.1))
  (fp_line (start -10.405 1.98) (end -10.405 9.26) (layer F.Fab) (width 0.1))
  (fp_line (start -10.305 1.98) (end -10.305 9.26) (layer F.Fab) (width 0.1))
  (fp_line (start -10.205 1.98) (end -10.205 9.26) (layer F.Fab) (width 0.1))
  (fp_line (start -12.695 1.98) (end -12.695 9.26) (layer F.Fab) (width 0.1))
  (fp_line (start -12.595 1.98) (end -12.595 9.26) (layer F.Fab) (width 0.1))
  (fp_line (start -12.495 1.98) (end -12.495 9.26) (layer F.Fab) (width 0.1))
  (fp_line (start -14.985 1.98) (end -14.985 9.26) (layer F.Fab) (width 0.1))
  (fp_line (start -14.885 1.98) (end -14.885 9.26) (layer F.Fab) (width 0.1))
  (fp_line (start -14.785 1.98) (end -14.785 9.26) (layer F.Fab) (width 0.1))
  (fp_line (start -17.275 1.98) (end -17.275 9.26) (layer F.Fab) (width 0.1))
  (fp_line (start -17.175 1.98) (end -17.175 9.26) (layer F.Fab) (width 0.1))
  (fp_line (start -17.075 1.98) (end -17.075 9.26) (layer F.Fab) (width 0.1))
  (fp_line (start -19.565 1.98) (end -19.565 9.26) (layer F.Fab) (width 0.1))
  (fp_line (start -19.465 1.98) (end -19.465 9.26) (layer F.Fab) (width 0.1))
  (fp_line (start -19.365 1.98) (end -19.365 9.26) (layer F.Fab) (width 0.1))
  (fp_line (start -21.855 1.98) (end -21.855 9.26) (layer F.Fab) (width 0.1))
  (fp_line (start -21.755 1.98) (end -21.755 9.26) (layer F.Fab) (width 0.1))
  (fp_line (start -21.655 1.98) (end -21.655 9.26) (layer F.Fab) (width 0.1))
  (fp_line (start -24.145 1.98) (end -24.145 9.26) (layer F.Fab) (width 0.1))
  (fp_line (start -24.045 1.98) (end -24.045 9.26) (layer F.Fab) (width 0.1))
  (fp_line (start -23.945 1.98) (end -23.945 9.26) (layer F.Fab) (width 0.1))
  (fp_line (start -26.435 1.98) (end -26.435 9.26) (layer F.Fab) (width 0.1))
  (fp_line (start -26.335 1.98) (end -26.335 9.26) (layer F.Fab) (width 0.1))
  (fp_line (start -26.235 1.98) (end -26.235 9.26) (layer F.Fab) (width 0.1))
  (fp_line (start -28.725 1.98) (end -28.725 9.26) (layer F.Fab) (width 0.1))
  (fp_line (start -28.625 1.98) (end -28.625 9.26) (layer F.Fab) (width 0.1))
  (fp_line (start -28.525 1.98) (end -28.525 9.26) (layer F.Fab) (width 0.1))
  (fp_line (start -31.015 1.98) (end -31.015 9.26) (layer F.Fab) (width 0.1))
  (fp_line (start -30.915 1.98) (end -30.915 9.26) (layer F.Fab) (width 0.1))
  (fp_line (start -30.815 1.98) (end -30.815 9.26) (layer F.Fab) (width 0.1))
  (fp_line (start -0.1 3.96) (end -0.1 9.26) (layer F.Fab) (width 0.1))
  (fp_line (start 0 3.96) (end 0 9.26) (layer F.Fab) (width 0.1))
  (fp_line (start 0.1 3.96) (end 0.1 9.26) (layer F.Fab) (width 0.1))
  (fp_line (start -2.39 3.96) (end -2.39 9.26) (layer F.Fab) (width 0.1))
  (fp_line (start -2.29 3.96) (end -2.29 9.26) (layer F.Fab) (width 0.1))
  (fp_line (start -2.19 3.96) (end -2.19 9.26) (layer F.Fab) (width 0.1))
  (fp_line (start -4.68 3.96) (end -4.68 9.26) (layer F.Fab) (width 0.1))
  (fp_line (start -4.58 3.96) (end -4.58 9.26) (layer F.Fab) (width 0.1))
  (fp_line (start -4.48 3.96) (end -4.48 9.26) (layer F.Fab) (width 0.1))
  (fp_line (start -6.97 3.96) (end -6.97 9.26) (layer F.Fab) (width 0.1))
  (fp_line (start -6.87 3.96) (end -6.87 9.26) (layer F.Fab) (width 0.1))
  (fp_line (start -6.77 3.96) (end -6.77 9.26) (layer F.Fab) (width 0.1))
  (fp_line (start -9.26 3.96) (end -9.26 9.26) (layer F.Fab) (width 0.1))
  (fp_line (start -9.16 3.96) (end -9.16 9.26) (layer F.Fab) (width 0.1))
  (fp_line (start -9.06 3.96) (end -9.06 9.26) (layer F.Fab) (width 0.1))
  (fp_line (start -11.55 3.96) (end -11.55 9.26) (layer F.Fab) (width 0.1))
  (fp_line (start -11.45 3.96) (end -11.45 9.26) (layer F.Fab) (width 0.1))
  (fp_line (start -11.35 3.96) (end -11.35 9.26) (layer F.Fab) (width 0.1))
  (fp_line (start -13.84 3.96) (end -13.84 9.26) (layer F.Fab) (width 0.1))
  (fp_line (start -13.74 3.96) (end -13.74 9.26) (layer F.Fab) (width 0.1))
  (fp_line (start -13.64 3.96) (end -13.64 9.26) (layer F.Fab) (width 0.1))
  (fp_line (start -16.13 3.96) (end -16.13 9.26) (layer F.Fab) (width 0.1))
  (fp_line (start -16.03 3.96) (end -16.03 9.26) (layer F.Fab) (width 0.1))
  (fp_line (start -15.93 3.96) (end -15.93 9.26) (layer F.Fab) (width 0.1))
  (fp_line (start -18.42 3.96) (end -18.42 9.26) (layer F.Fab) (width 0.1))
  (fp_line (start -18.32 3.96) (end -18.32 9.26) (layer F.Fab) (width 0.1))
  (fp_line (start -18.22 3.96) (end -18.22 9.26) (layer F.Fab) (width 0.1))
  (fp_line (start -20.71 3.96) (end -20.71 9.26) (layer F.Fab) (width 0.1))
  (fp_line (start -20.61 3.96) (end -20.61 9.26) (layer F.Fab) (width 0.1))
  (fp_line (start -20.51 3.96) (end -20.51 9.26) (layer F.Fab) (width 0.1))
  (fp_line (start -23 3.96) (end -23 9.26) (layer F.Fab) (width 0.1))
  (fp_line (start -22.9 3.96) (end -22.9 9.26) (layer F.Fab) (width 0.1))
  (fp_line (start -22.8 3.96) (end -22.8 9.26) (layer F.Fab) (width 0.1))
  (fp_line (start -25.29 3.96) (end -25.29 9.26) (layer F.Fab) (width 0.1))
  (fp_line (start -25.19 3.96) (end -25.19 9.26) (layer F.Fab) (width 0.1))
  (fp_line (start -25.09 3.96) (end -25.09 9.26) (layer F.Fab) (width 0.1))
  (fp_line (start -27.58 3.96) (end -27.58 9.26) (layer F.Fab) (width 0.1))
  (fp_line (start -27.48 3.96) (end -27.48 9.26) (layer F.Fab) (width 0.1))
  (fp_line (start -27.38 3.96) (end -27.38 9.26) (layer F.Fab) (width 0.1))
  (fp_line (start -29.87 3.96) (end -29.87 9.26) (layer F.Fab) (width 0.1))
  (fp_line (start -29.77 3.96) (end -29.77 9.26) (layer F.Fab) (width 0.1))
  (fp_line (start -29.67 3.96) (end -29.67 9.26) (layer F.Fab) (width 0.1))
  (fp_line (start -35.075 9.26) (end -35.075 13.36) (layer F.Fab) (width 0.1))
  (fp_line (start -35.075 13.36) (end 4.025 13.36) (layer F.Fab) (width 0.1))
  (fp_line (start 4.025 13.36) (end 4.025 9.26) (layer F.Fab) (width 0.1))
  (fp_line (start 4.025 9.26) (end -35.075 9.26) (layer F.Fab) (width 0.1))
  (fp_line (start -42.075 13.36) (end -42.075 13.76) (layer F.Fab) (width 0.1))
  (fp_line (start -42.075 13.76) (end 11.025 13.76) (layer F.Fab) (width 0.1))
  (fp_line (start 11.025 13.76) (end 11.025 13.36) (layer F.Fab) (width 0.1))
  (fp_line (start 11.025 13.36) (end -42.075 13.36) (layer F.Fab) (width 0.1))
  (fp_line (start -34.675 13.76) (end -34.675 19.93) (layer F.Fab) (width 0.1))
  (fp_line (start -34.675 19.93) (end 3.625 19.93) (layer F.Fab) (width 0.1))
  (fp_line (start 3.625 19.93) (end 3.625 13.76) (layer F.Fab) (width 0.1))
  (fp_line (start 3.625 13.76) (end -34.675 13.76) (layer F.Fab) (width 0.1))
  (fp_line (start -35.135 13.3) (end -35.135 9.2) (layer F.SilkS) (width 0.12))
  (fp_line (start -35.135 9.2) (end -33.12 9.2) (layer F.SilkS) (width 0.12))
  (fp_line (start -33.12 9.2) (end -33.12 -1.06) (layer F.SilkS) (width 0.12))
  (fp_line (start -33.12 -1.06) (end 2.205 -1.06) (layer F.SilkS) (width 0.12))
  (fp_line (start 2.205 -1.06) (end 2.205 9.2) (layer F.SilkS) (width 0.12))
  (fp_line (start 2.205 9.2) (end 4.085 9.2) (layer F.SilkS) (width 0.12))
  (fp_line (start 4.085 9.2) (end 4.085 13.3) (layer F.SilkS) (width 0.12))
  (fp_line (start -0.25 -1.754338) (end 0.25 -1.754338) (layer F.SilkS) (width 0.12))
  (fp_line (start 0.25 -1.754338) (end 0 -1.321325) (layer F.SilkS) (width 0.12))
  (fp_line (start 0 -1.321325) (end -0.25 -1.754338) (layer F.SilkS) (width 0.12))
  (fp_line (start -35.2 20.45) (end -35.2 14.3) (layer F.CrtYd) (width 0.05))
  (fp_line (start -35.2 14.3) (end -42.6 14.3) (layer F.CrtYd) (width 0.05))
  (fp_line (start -42.6 14.3) (end -42.6 12.9) (layer F.CrtYd) (width 0.05))
  (fp_line (start -42.6 12.9) (end -35.6 12.9) (layer F.CrtYd) (width 0.05))
  (fp_line (start -35.6 12.9) (end -35.6 8.8) (layer F.CrtYd) (width 0.05))
  (fp_line (start -35.6 8.8) (end -33.4 8.8) (layer F.CrtYd) (width 0.05))
  (fp_line (start -33.4 8.8) (end -33.4 -1.3) (layer F.CrtYd) (width 0.05))
  (fp_line (start -33.4 -1.3) (end 2.45 -1.3) (layer F.CrtYd) (width 0.05))
  (fp_line (start 2.45 -1.3) (end 2.45 8.8) (layer F.CrtYd) (width 0.05))
  (fp_line (start 2.45 8.8) (end 4.55 8.8) (layer F.CrtYd) (width 0.05))
  (fp_line (start 4.55 8.8) (end 4.55 12.9) (layer F.CrtYd) (width 0.05))
  (fp_line (start 4.55 12.9) (end 11.55 12.9) (layer F.CrtYd) (width 0.05))
  (fp_line (start 11.55 12.9) (end 11.55 14.3) (layer F.CrtYd) (width 0.05))
  (fp_line (start 11.55 14.3) (end 4.15 14.3) (layer F.CrtYd) (width 0.05))
  (fp_line (start 4.15 14.3) (end 4.15 20.45) (layer F.CrtYd) (width 0.05))
  (fp_line (start 4.15 20.45) (end -35.2 20.45) (layer F.CrtYd) (width 0.05))
  (pad 1 thru_hole rect (at 0 0) (size 1.6 1.6) (drill 1) (layers *.Cu *.Mask))
  (pad 2 thru_hole circle (at -2.29 0) (size 1.6 1.6) (drill 1) (layers *.Cu *.Mask))
  (pad 3 thru_hole circle (at -4.58 0) (size 1.6 1.6) (drill 1) (layers *.Cu *.Mask))
  (pad 4 thru_hole circle (at -6.87 0) (size 1.6 1.6) (drill 1) (layers *.Cu *.Mask))
  (pad 5 thru_hole circle (at -9.16 0) (size 1.6 1.6) (drill 1) (layers *.Cu *.Mask))
  (pad 6 thru_hole circle (at -11.45 0) (size 1.6 1.6) (drill 1) (layers *.Cu *.Mask))
  (pad 7 thru_hole circle (at -13.74 0) (size 1.6 1.6) (drill 1) (layers *.Cu *.Mask))
  (pad 8 thru_hole circle (at -16.03 0) (size 1.6 1.6) (drill 1) (layers *.Cu *.Mask))
  (pad 9 thru_hole circle (at -18.32 0) (size 1.6 1.6) (drill 1) (layers *.Cu *.Mask))
  (pad 10 thru_hole circle (at -20.61 0) (size 1.6 1.6) (drill 1) (layers *.Cu *.Mask))
  (pad 11 thru_hole circle (at -22.9 0) (size 1.6 1.6) (drill 1) (layers *.Cu *.Mask))
  (pad 12 thru_hole circle (at -25.19 0) (size 1.6 1.6) (drill 1) (layers *.Cu *.Mask))
  (pad 13 thru_hole circle (at -27.48 0) (size 1.6 1.6) (drill 1) (layers *.Cu *.Mask))
  (pad 14 thru_hole circle (at -29.77 0) (size 1.6 1.6) (drill 1) (layers *.Cu *.Mask))
  (pad 15 thru_hole circle (at -32.06 0) (size 1.6 1.6) (drill 1) (layers *.Cu *.Mask))
  (pad 16 thru_hole circle (at 1.145 1.98) (size 1.6 1.6) (drill 1) (layers *.Cu *.Mask))
  (pad 17 thru_hole circle (at -1.145 1.98) (size 1.6 1.6) (drill 1) (layers *.Cu *.Mask))
  (pad 18 thru_hole circle (at -3.435 1.98) (size 1.6 1.6) (drill 1) (layers *.Cu *.Mask))
  (pad 19 thru_hole circle (at -5.725 1.98) (size 1.6 1.6) (drill 1) (layers *.Cu *.Mask))
  (pad 20 thru_hole circle (at -8.015 1.98) (size 1.6 1.6) (drill 1) (layers *.Cu *.Mask))
  (pad 21 thru_hole circle (at -10.305 1.98) (size 1.6 1.6) (drill 1) (layers *.Cu *.Mask))
  (pad 22 thru_hole circle (at -12.595 1.98) (size 1.6 1.6) (drill 1) (layers *.Cu *.Mask))
  (pad 23 thru_hole circle (at -14.885 1.98) (size 1.6 1.6) (drill 1) (layers *.Cu *.Mask))
  (pad 24 thru_hole circle (at -17.175 1.98) (size 1.6 1.6) (drill 1) (layers *.Cu *.Mask))
  (pad 25 thru_hole circle (at -19.465 1.98) (size 1.6 1.6) (drill 1) (layers *.Cu *.Mask))
  (pad 26 thru_hole circle (at -21.755 1.98) (size 1.6 1.6) (drill 1) (layers *.Cu *.Mask))
  (pad 27 thru_hole circle (at -24.045 1.98) (size 1.6 1.6) (drill 1) (layers *.Cu *.Mask))
  (pad 28 thru_hole circle (at -26.335 1.98) (size 1.6 1.6) (drill 1) (layers *.Cu *.Mask))
  (pad 29 thru_hole circle (at -28.625 1.98) (size 1.6 1.6) (drill 1) (layers *.Cu *.Mask))
  (pad 30 thru_hole circle (at -30.915 1.98) (size 1.6 1.6) (drill 1) (layers *.Cu *.Mask))
  (pad 31 thru_hole circle (at 0 3.96) (size 1.6 1.6) (drill 1) (layers *.Cu *.Mask))
  (pad 32 thru_hole circle (at -2.29 3.96) (size 1.6 1.6) (drill 1) (layers *.Cu *.Mask))
  (pad 33 thru_hole circle (at -4.58 3.96) (size 1.6 1.6) (drill 1) (layers *.Cu *.Mask))
  (pad 34 thru_hole circle (at -6.87 3.96) (size 1.6 1.6) (drill 1) (layers *.Cu *.Mask))
  (pad 35 thru_hole circle (at -9.16 3.96) (size 1.6 1.6) (drill 1) (layers *.Cu *.Mask))
  (pad 36 thru_hole circle (at -11.45 3.96) (size 1.6 1.6) (drill 1) (layers *.Cu *.Mask))
  (pad 37 thru_hole circle (at -13.74 3.96) (size 1.6 1.6) (drill 1) (layers *.Cu *.Mask))
  (pad 38 thru_hole circle (at -16.03 3.96) (size 1.6 1.6) (drill 1) (layers *.Cu *.Mask))
  (pad 39 thru_hole circle (at -18.32 3.96) (size 1.6 1.6) (drill 1) (layers *.Cu *.Mask))
  (pad 40 thru_hole circle (at -20.61 3.96) (size 1.6 1.6) (drill 1) (layers *.Cu *.Mask))
  (pad 41 thru_hole circle (at -22.9 3.96) (size 1.6 1.6) (drill 1) (layers *.Cu *.Mask))
  (pad 42 thru_hole circle (at -25.19 3.96) (size 1.6 1.6) (drill 1) (layers *.Cu *.Mask))
  (pad 43 thru_hole circle (at -27.48 3.96) (size 1.6 1.6) (drill 1) (layers *.Cu *.Mask))
  (pad 44 thru_hole circle (at -29.77 3.96) (size 1.6 1.6) (drill 1) (layers *.Cu *.Mask))
  (fp_text user %R (at -15.525 16.845) (layer F.Fab)
    (effects (font (size 1 1) (thickness 0.15)))
  )
  (model ${KICAD6_3DMODEL_DIR}/Connector_Dsub.3dshapes/DSUB-44-HD_Female_Horizontal_P2.29x1.98mm_EdgePinOffset9.40mm.wrl
    (at (xyz 0 0 0))
    (scale (xyz 1 1 1))
    (rotate (xyz 0 0 0))
  )
)