(module DSUB-9_Male_Vertical_P2.77x2.84mm_MountingHoles (layer F.Cu) (tedit 59FEDEE2)
  (descr "9-pin D-Sub connector, straight/vertical, THT-mount, male, pitch 2.77x2.84mm, distance of mounting holes 25mm, see https://disti-assets.s3.amazonaws.com/tonar/files/datasheets/16730.pdf")
  (tags "9-pin D-Sub connector straight vertical THT male pitch 2.77x2.84mm mounting holes distance 25mm")
  (fp_text reference REF** (at 5.54 -5.89) (layer F.SilkS)
    (effects (font (size 1 1) (thickness 0.15)))
  )
  (fp_text value DSUB-9_Male_Vertical_P2.77x2.84mm_MountingHoles (at 5.54 8.73) (layer F.Fab)
    (effects (font (size 1 1) (thickness 0.15)))
  )
  (fp_arc (start -8.885 -3.83) (end -9.885 -3.83) (angle 90.000000) (layer F.Fab) (width 0.1))
  (fp_arc (start 19.965 -3.83) (end 19.965 -4.83) (angle 90.000000) (layer F.Fab) (width 0.1))
  (fp_arc (start -8.885 6.67) (end -9.885 6.67) (angle -90.000000) (layer F.Fab) (width 0.1))
  (fp_arc (start 19.965 6.67) (end 20.965 6.67) (angle 90.000000) (layer F.Fab) (width 0.1))
  (fp_arc (start -8.885 -3.83) (end -9.945 -3.83) (angle 90.000000) (layer F.SilkS) (width 0.12))
  (fp_arc (start 19.965 -3.83) (end 19.965 -4.89) (angle 90.000000) (layer F.SilkS) (width 0.12))
  (fp_arc (start -8.885 6.67) (end -9.945 6.67) (angle -90.000000) (layer F.SilkS) (width 0.12))
  (fp_arc (start 19.965 6.67) (end 21.025 6.67) (angle 90.000000) (layer F.SilkS) (width 0.12))
  (fp_arc (start -0.703194 -1.13) (end -0.703194 -2.73) (angle -100.000000) (layer F.Fab) (width 0.1))
  (fp_arc (start 11.783194 -1.13) (end 11.783194 -2.73) (angle 100.000000) (layer F.Fab) (width 0.1))
  (fp_arc (start 0.196073 3.97) (end 0.196073 5.57) (angle 80.000000) (layer F.Fab) (width 0.1))
  (fp_arc (start 10.883927 3.97) (end 10.883927 5.57) (angle -80.000000) (layer F.Fab) (width 0.1))
  (fp_arc (start -0.691689 -1.13) (end -0.691689 -2.79) (angle -100.000000) (layer F.SilkS) (width 0.12))
  (fp_arc (start 11.771689 -1.13) (end 11.771689 -2.79) (angle 100.000000) (layer F.SilkS) (width 0.12))
  (fp_arc (start 0.207579 3.97) (end 0.207579 5.63) (angle 80.000000) (layer F.SilkS) (width 0.12))
  (fp_arc (start 10.872421 3.97) (end 10.872421 5.63) (angle -80.000000) (layer F.SilkS) (width 0.12))
  (fp_line (start -8.885 -4.83) (end 19.965 -4.83) (layer F.Fab) (width 0.1))
  (fp_line (start 20.965 -3.83) (end 20.965 6.67) (layer F.Fab) (width 0.1))
  (fp_line (start 19.965 7.67) (end -8.885 7.67) (layer F.Fab) (width 0.1))
  (fp_line (start -9.885 6.67) (end -9.885 -3.83) (layer F.Fab) (width 0.1))
  (fp_line (start -8.885 -4.89) (end 19.965 -4.89) (layer F.SilkS) (width 0.12))
  (fp_line (start 21.025 -3.83) (end 21.025 6.67) (layer F.SilkS) (width 0.12))
  (fp_line (start 19.965 7.73) (end -8.885 7.73) (layer F.SilkS) (width 0.12))
  (fp_line (start -9.945 6.67) (end -9.945 -3.83) (layer F.SilkS) (width 0.12))
  (fp_line (start -0.25 -5.784338) (end 0.25 -5.784338) (layer F.SilkS) (width 0.12))
  (fp_line (start 0.25 -5.784338) (end 0 -5.351325) (layer F.SilkS) (width 0.12))
  (fp_line (start 0 -5.351325) (end -0.25 -5.784338) (layer F.SilkS) (width 0.12))
  (fp_line (start -0.703194 -2.73) (end 11.783194 -2.73) (layer F.Fab) (width 0.1))
  (fp_line (start 0.196073 5.57) (end 10.883927 5.57) (layer F.Fab) (width 0.1))
  (fp_line (start 13.358887 -0.852163) (end 12.459619 4.247837) (layer F.Fab) (width 0.1))
  (fp_line (start -2.278887 -0.852163) (end -1.379619 4.247837) (layer F.Fab) (width 0.1))
  (fp_line (start -0.691689 -2.79) (end 11.771689 -2.79) (layer F.SilkS) (width 0.12))
  (fp_line (start 0.207579 5.63) (end 10.872421 5.63) (layer F.SilkS) (width 0.12))
  (fp_line (start 13.40647 -0.841744) (end 12.507202 4.258256) (layer F.SilkS) (width 0.12))
  (fp_line (start -2.32647 -0.841744) (end -1.427202 4.258256) (layer F.SilkS) (width 0.12))
  (fp_line (start -10.4 -5.35) (end -10.4 8.2) (layer F.CrtYd) (width 0.05))
  (fp_line (start -10.4 8.2) (end 21.5 8.2) (layer F.CrtYd) (width 0.05))
  (fp_line (start 21.5 8.2) (end 21.5 -5.35) (layer F.CrtYd) (width 0.05))
  (fp_line (start 21.5 -5.35) (end -10.4 -5.35) (layer F.CrtYd) (width 0.05))
  (pad 1 thru_hole rect (at 0 0) (size 1.6 1.6) (drill 1) (layers *.Cu *.Mask))
  (pad 2 thru_hole circle (at 2.77 0) (size 1.6 1.6) (drill 1) (layers *.Cu *.Mask))
  (pad 3 thru_hole circle (at 5.54 0) (size 1.6 1.6) (drill 1) (layers *.Cu *.Mask))
  (pad 4 thru_hole circle (at 8.31 0) (size 1.6 1.6) (drill 1) (layers *.Cu *.Mask))
  (pad 5 thru_hole circle (at 11.08 0) (size 1.6 1.6) (drill 1) (layers *.Cu *.Mask))
  (pad 6 thru_hole circle (at 1.385 2.84) (size 1.6 1.6) (drill 1) (layers *.Cu *.Mask))
  (pad 7 thru_hole circle (at 4.155 2.84) (size 1.6 1.6) (drill 1) (layers *.Cu *.Mask))
  (pad 8 thru_hole circle (at 6.925 2.84) (size 1.6 1.6) (drill 1) (layers *.Cu *.Mask))
  (pad 9 thru_hole circle (at 9.695 2.84) (size 1.6 1.6) (drill 1) (layers *.Cu *.Mask))
  (pad 0 thru_hole circle (at -6.96 1.42) (size 4 4) (drill 3.2) (layers *.Cu *.Mask))
  (pad 0 thru_hole circle (at 18.04 1.42) (size 4 4) (drill 3.2) (layers *.Cu *.Mask))
  (fp_text user %R (at 5.54 1.42) (layer F.Fab)
    (effects (font (size 1 1) (thickness 0.15)))
  )
  (model ${KICAD6_3DMODEL_DIR}/Connector_Dsub.3dshapes/DSUB-9_Male_Vertical_P2.77x2.84mm_MountingHoles.wrl
    (at (xyz 0 0 0))
    (scale (xyz 1 1 1))
    (rotate (xyz 0 0 0))
  )
)