(module DSUB-44-HD_Male_Horizontal_P2.29x2.54mm_EdgePinOffset9.40mm (layer F.Cu) (tedit 59FEDEE2)
  (descr "44-pin D-Sub connector, horizontal/angled (90 deg), THT-mount, male, pitch 2.29x2.54mm, pin-PCB-offset 9.4mm, see http://docs-europe.electrocomponents.com/webdocs/1585/0900766b81585df2.pdf")
  (tags "44-pin D-Sub connector horizontal angled 90deg THT male pitch 2.29x2.54mm pin-PCB-offset 9.4mm")
  (fp_text reference REF** (at 15.525 -1.8) (layer F.SilkS)
    (effects (font (size 1 1) (thickness 0.15)))
  )
  (fp_text value DSUB-44-HD_Male_Horizontal_P2.29x2.54mm_EdgePinOffset9.40mm (at 15.525 22.38) (layer F.Fab)
    (effects (font (size 1 1) (thickness 0.15)))
  )
  (fp_line (start -0.1 0) (end -0.1 10.38) (layer F.Fab) (width 0.1))
  (fp_line (start 0 0) (end 0 10.38) (layer F.Fab) (width 0.1))
  (fp_line (start 0.1 0) (end 0.1 10.38) (layer F.Fab) (width 0.1))
  (fp_line (start 2.19 0) (end 2.19 10.38) (layer F.Fab) (width 0.1))
  (fp_line (start 2.29 0) (end 2.29 10.38) (layer F.Fab) (width 0.1))
  (fp_line (start 2.39 0) (end 2.39 10.38) (layer F.Fab) (width 0.1))
  (fp_line (start 4.48 0) (end 4.48 10.38) (layer F.Fab) (width 0.1))
  (fp_line (start 4.58 0) (end 4.58 10.38) (layer F.Fab) (width 0.1))
  (fp_line (start 4.68 0) (end 4.68 10.38) (layer F.Fab) (width 0.1))
  (fp_line (start 6.77 0) (end 6.77 10.38) (layer F.Fab) (width 0.1))
  (fp_line (start 6.87 0) (end 6.87 10.38) (layer F.Fab) (width 0.1))
  (fp_line (start 6.97 0) (end 6.97 10.38) (layer F.Fab) (width 0.1))
  (fp_line (start 9.06 0) (end 9.06 10.38) (layer F.Fab) (width 0.1))
  (fp_line (start 9.16 0) (end 9.16 10.38) (layer F.Fab) (width 0.1))
  (fp_line (start 9.26 0) (end 9.26 10.38) (layer F.Fab) (width 0.1))
  (fp_line (start 11.35 0) (end 11.35 10.38) (layer F.Fab) (width 0.1))
  (fp_line (start 11.45 0) (end 11.45 10.38) (layer F.Fab) (width 0.1))
  (fp_line (start 11.55 0) (end 11.55 10.38) (layer F.Fab) (width 0.1))
  (fp_line (start 13.64 0) (end 13.64 10.38) (layer F.Fab) (width 0.1))
  (fp_line (start 13.74 0) (end 13.74 10.38) (layer F.Fab) (width 0.1))
  (fp_line (start 13.84 0) (end 13.84 10.38) (layer F.Fab) (width 0.1))
  (fp_line (start 15.93 0) (end 15.93 10.38) (layer F.Fab) (width 0.1))
  (fp_line (start 16.03 0) (end 16.03 10.38) (layer F.Fab) (width 0.1))
  (fp_line (start 16.13 0) (end 16.13 10.38) (layer F.Fab) (width 0.1))
  (fp_line (start 18.22 0) (end 18.22 10.38) (layer F.Fab) (width 0.1))
  (fp_line (start 18.32 0) (end 18.32 10.38) (layer F.Fab) (width 0.1))
  (fp_line (start 18.42 0) (end 18.42 10.38) (layer F.Fab) (width 0.1))
  (fp_line (start 20.51 0) (end 20.51 10.38) (layer F.Fab) (width 0.1))
  (fp_line (start 20.61 0) (end 20.61 10.38) (layer F.Fab) (width 0.1))
  (fp_line (start 20.71 0) (end 20.71 10.38) (layer F.Fab) (width 0.1))
  (fp_line (start 22.8 0) (end 22.8 10.38) (layer F.Fab) (width 0.1))
  (fp_line (start 22.9 0) (end 22.9 10.38) (layer F.Fab) (width 0.1))
  (fp_line (start 23 0) (end 23 10.38) (layer F.Fab) (width 0.1))
  (fp_line (start 25.09 0) (end 25.09 10.38) (layer F.Fab) (width 0.1))
  (fp_line (start 25.19 0) (end 25.19 10.38) (layer F.Fab) (width 0.1))
  (fp_line (start 25.29 0) (end 25.29 10.38) (layer F.Fab) (width 0.1))
  (fp_line (start 27.38 0) (end 27.38 10.38) (layer F.Fab) (width 0.1))
  (fp_line (start 27.48 0) (end 27.48 10.38) (layer F.Fab) (width 0.1))
  (fp_line (start 27.58 0) (end 27.58 10.38) (layer F.Fab) (width 0.1))
  (fp_line (start 29.67 0) (end 29.67 10.38) (layer F.Fab) (width 0.1))
  (fp_line (start 29.77 0) (end 29.77 10.38) (layer F.Fab) (width 0.1))
  (fp_line (start 29.87 0) (end 29.87 10.38) (layer F.Fab) (width 0.1))
  (fp_line (start 31.96 0) (end 31.96 10.38) (layer F.Fab) (width 0.1))
  (fp_line (start 32.06 0) (end 32.06 10.38) (layer F.Fab) (width 0.1))
  (fp_line (start 32.16 0) (end 32.16 10.38) (layer F.Fab) (width 0.1))
  (fp_line (start -1.245 2.54) (end -1.245 10.38) (layer F.Fab) (width 0.1))
  (fp_line (start -1.145 2.54) (end -1.145 10.38) (layer F.Fab) (width 0.1))
  (fp_line (start -1.045 2.54) (end -1.045 10.38) (layer F.Fab) (width 0.1))
  (fp_line (start 1.045 2.54) (end 1.045 10.38) (layer F.Fab) (width 0.1))
  (fp_line (start 1.145 2.54) (end 1.145 10.38) (layer F.Fab) (width 0.1))
  (fp_line (start 1.245 2.54) (end 1.245 10.38) (layer F.Fab) (width 0.1))
  (fp_line (start 3.335 2.54) (end 3.335 10.38) (layer F.Fab) (width 0.1))
  (fp_line (start 3.435 2.54) (end 3.435 10.38) (layer F.Fab) (width 0.1))
  (fp_line (start 3.535 2.54) (end 3.535 10.38) (layer F.Fab) (width 0.1))
  (fp_line (start 5.625 2.54) (end 5.625 10.38) (layer F.Fab) (width 0.1))
  (fp_line (start 5.725 2.54) (end 5.725 10.38) (layer F.Fab) (width 0.1))
  (fp_line (start 5.825 2.54) (end 5.825 10.38) (layer F.Fab) (width 0.1))
  (fp_line (start 7.915 2.54) (end 7.915 10.38) (layer F.Fab) (width 0.1))
  (fp_line (start 8.015 2.54) (end 8.015 10.38) (layer F.Fab) (width 0.1))
  (fp_line (start 8.115 2.54) (end 8.115 10.38) (layer F.Fab) (width 0.1))
  (fp_line (start 10.205 2.54) (end 10.205 10.38) (layer F.Fab) (width 0.1))
  (fp_line (start 10.305 2.54) (end 10.305 10.38) (layer F.Fab) (width 0.1))
  (fp_line (start 10.405 2.54) (end 10.405 10.38) (layer F.Fab) (width 0.1))
  (fp_line (start 12.495 2.54) (end 12.495 10.38) (layer F.Fab) (width 0.1))
  (fp_line (start 12.595 2.54) (end 12.595 10.38) (layer F.Fab) (width 0.1))
  (fp_line (start 12.695 2.54) (end 12.695 10.38) (layer F.Fab) (width 0.1))
  (fp_line (start 14.785 2.54) (end 14.785 10.38) (layer F.Fab) (width 0.1))
  (fp_line (start 14.885 2.54) (end 14.885 10.38) (layer F.Fab) (width 0.1))
  (fp_line (start 14.985 2.54) (end 14.985 10.38) (layer F.Fab) (width 0.1))
  (fp_line (start 17.075 2.54) (end 17.075 10.38) (layer F.Fab) (width 0.1))
  (fp_line (start 17.175 2.54) (end 17.175 10.38) (layer F.Fab) (width 0.1))
  (fp_line (start 17.275 2.54) (end 17.275 10.38) (layer F.Fab) (width 0.1))
  (fp_line (start 19.365 2.54) (end 19.365 10.38) (layer F.Fab) (width 0.1))
  (fp_line (start 19.465 2.54) (end 19.465 10.38) (layer F.Fab) (width 0.1))
  (fp_line (start 19.565 2.54) (end 19.565 10.38) (layer F.Fab) (width 0.1))
  (fp_line (start 21.655 2.54) (end 21.655 10.38) (layer F.Fab) (width 0.1))
  (fp_line (start 21.755 2.54) (end 21.755 10.38) (layer F.Fab) (width 0.1))
  (fp_line (start 21.855 2.54) (end 21.855 10.38) (layer F.Fab) (width 0.1))
  (fp_line (start 23.945 2.54) (end 23.945 10.38) (layer F.Fab) (width 0.1))
  (fp_line (start 24.045 2.54) (end 24.045 10.38) (layer F.Fab) (width 0.1))
  (fp_line (start 24.145 2.54) (end 24.145 10.38) (layer F.Fab) (width 0.1))
  (fp_line (start 26.235 2.54) (end 26.235 10.38) (layer F.Fab) (width 0.1))
  (fp_line (start 26.335 2.54) (end 26.335 10.38) (layer F.Fab) (width 0.1))
  (fp_line (start 26.435 2.54) (end 26.435 10.38) (layer F.Fab) (width 0.1))
  (fp_line (start 28.525 2.54) (end 28.525 10.38) (layer F.Fab) (width 0.1))
  (fp_line (start 28.625 2.54) (end 28.625 10.38) (layer F.Fab) (width 0.1))
  (fp_line (start 28.725 2.54) (end 28.725 10.38) (layer F.Fab) (width 0.1))
  (fp_line (start 30.815 2.54) (end 30.815 10.38) (layer F.Fab) (width 0.1))
  (fp_line (start 30.915 2.54) (end 30.915 10.38) (layer F.Fab) (width 0.1))
  (fp_line (start 31.015 2.54) (end 31.015 10.38) (layer F.Fab) (width 0.1))
  (fp_line (start -0.1 5.08) (end -0.1 10.38) (layer F.Fab) (width 0.1))
  (fp_line (start 0 5.08) (end 0 10.38) (layer F.Fab) (width 0.1))
  (fp_line (start 0.1 5.08) (end 0.1 10.38) (layer F.Fab) (width 0.1))
  (fp_line (start 2.19 5.08) (end 2.19 10.38) (layer F.Fab) (width 0.1))
  (fp_line (start 2.29 5.08) (end 2.29 10.38) (layer F.Fab) (width 0.1))
  (fp_line (start 2.39 5.08) (end 2.39 10.38) (layer F.Fab) (width 0.1))
  (fp_line (start 4.48 5.08) (end 4.48 10.38) (layer F.Fab) (width 0.1))
  (fp_line (start 4.58 5.08) (end 4.58 10.38) (layer F.Fab) (width 0.1))
  (fp_line (start 4.68 5.08) (end 4.68 10.38) (layer F.Fab) (width 0.1))
  (fp_line (start 6.77 5.08) (end 6.77 10.38) (layer F.Fab) (width 0.1))
  (fp_line (start 6.87 5.08) (end 6.87 10.38) (layer F.Fab) (width 0.1))
  (fp_line (start 6.97 5.08) (end 6.97 10.38) (layer F.Fab) (width 0.1))
  (fp_line (start 9.06 5.08) (end 9.06 10.38) (layer F.Fab) (width 0.1))
  (fp_line (start 9.16 5.08) (end 9.16 10.38) (layer F.Fab) (width 0.1))
  (fp_line (start 9.26 5.08) (end 9.26 10.38) (layer F.Fab) (width 0.1))
  (fp_line (start 11.35 5.08) (end 11.35 10.38) (layer F.Fab) (width 0.1))
  (fp_line (start 11.45 5.08) (end 11.45 10.38) (layer F.Fab) (width 0.1))
  (fp_line (start 11.55 5.08) (end 11.55 10.38) (layer F.Fab) (width 0.1))
  (fp_line (start 13.64 5.08) (end 13.64 10.38) (layer F.Fab) (width 0.1))
  (fp_line (start 13.74 5.08) (end 13.74 10.38) (layer F.Fab) (width 0.1))
  (fp_line (start 13.84 5.08) (end 13.84 10.38) (layer F.Fab) (width 0.1))
  (fp_line (start 15.93 5.08) (end 15.93 10.38) (layer F.Fab) (width 0.1))
  (fp_line (start 16.03 5.08) (end 16.03 10.38) (layer F.Fab) (width 0.1))
  (fp_line (start 16.13 5.08) (end 16.13 10.38) (layer F.Fab) (width 0.1))
  (fp_line (start 18.22 5.08) (end 18.22 10.38) (layer F.Fab) (width 0.1))
  (fp_line (start 18.32 5.08) (end 18.32 10.38) (layer F.Fab) (width 0.1))
  (fp_line (start 18.42 5.08) (end 18.42 10.38) (layer F.Fab) (width 0.1))
  (fp_line (start 20.51 5.08) (end 20.51 10.38) (layer F.Fab) (width 0.1))
  (fp_line (start 20.61 5.08) (end 20.61 10.38) (layer F.Fab) (width 0.1))
  (fp_line (start 20.71 5.08) (end 20.71 10.38) (layer F.Fab) (width 0.1))
  (fp_line (start 22.8 5.08) (end 22.8 10.38) (layer F.Fab) (width 0.1))
  (fp_line (start 22.9 5.08) (end 22.9 10.38) (layer F.Fab) (width 0.1))
  (fp_line (start 23 5.08) (end 23 10.38) (layer F.Fab) (width 0.1))
  (fp_line (start 25.09 5.08) (end 25.09 10.38) (layer F.Fab) (width 0.1))
  (fp_line (start 25.19 5.08) (end 25.19 10.38) (layer F.Fab) (width 0.1))
  (fp_line (start 25.29 5.08) (end 25.29 10.38) (layer F.Fab) (width 0.1))
  (fp_line (start 27.38 5.08) (end 27.38 10.38) (layer F.Fab) (width 0.1))
  (fp_line (start 27.48 5.08) (end 27.48 10.38) (layer F.Fab) (width 0.1))
  (fp_line (start 27.58 5.08) (end 27.58 10.38) (layer F.Fab) (width 0.1))
  (fp_line (start 29.67 5.08) (end 29.67 10.38) (layer F.Fab) (width 0.1))
  (fp_line (start 29.77 5.08) (end 29.77 10.38) (layer F.Fab) (width 0.1))
  (fp_line (start 29.87 5.08) (end 29.87 10.38) (layer F.Fab) (width 0.1))
  (fp_line (start -4.025 10.38) (end -4.025 14.48) (layer F.Fab) (width 0.1))
  (fp_line (start -4.025 14.48) (end 35.075 14.48) (layer F.Fab) (width 0.1))
  (fp_line (start 35.075 14.48) (end 35.075 10.38) (layer F.Fab) (width 0.1))
  (fp_line (start 35.075 10.38) (end -4.025 10.38) (layer F.Fab) (width 0.1))
  (fp_line (start -11.025 14.48) (end -11.025 14.88) (layer F.Fab) (width 0.1))
  (fp_line (start -11.025 14.88) (end 42.075 14.88) (layer F.Fab) (width 0.1))
  (fp_line (start 42.075 14.88) (end 42.075 14.48) (layer F.Fab) (width 0.1))
  (fp_line (start 42.075 14.48) (end -11.025 14.48) (layer F.Fab) (width 0.1))
  (fp_line (start -3.625 14.88) (end -3.625 20.88) (layer F.Fab) (width 0.1))
  (fp_line (start -3.625 20.88) (end 34.675 20.88) (layer F.Fab) (width 0.1))
  (fp_line (start 34.675 20.88) (end 34.675 14.88) (layer F.Fab) (width 0.1))
  (fp_line (start 34.675 14.88) (end -3.625 14.88) (layer F.Fab) (width 0.1))
  (fp_line (start -4.085 14.42) (end -4.085 10.32) (layer F.SilkS) (width 0.12))
  (fp_line (start -4.085 10.32) (end -2.205 10.32) (layer F.SilkS) (width 0.12))
  (fp_line (start -2.205 10.32) (end -2.205 -1.06) (layer F.SilkS) (width 0.12))
  (fp_line (start -2.205 -1.06) (end 33.12 -1.06) (layer F.SilkS) (width 0.12))
  (fp_line (start 33.12 -1.06) (end 33.12 10.32) (layer F.SilkS) (width 0.12))
  (fp_line (start 33.12 10.32) (end 35.135 10.32) (layer F.SilkS) (width 0.12))
  (fp_line (start 35.135 10.32) (end 35.135 14.42) (layer F.SilkS) (width 0.12))
  (fp_line (start -0.25 -1.754338) (end 0.25 -1.754338) (layer F.SilkS) (width 0.12))
  (fp_line (start 0.25 -1.754338) (end 0 -1.321325) (layer F.SilkS) (width 0.12))
  (fp_line (start 0 -1.321325) (end -0.25 -1.754338) (layer F.SilkS) (width 0.12))
  (fp_line (start -4.15 21.4) (end -4.15 15.4) (layer F.CrtYd) (width 0.05))
  (fp_line (start -4.15 15.4) (end -11.55 15.4) (layer F.CrtYd) (width 0.05))
  (fp_line (start -11.55 15.4) (end -11.55 14) (layer F.CrtYd) (width 0.05))
  (fp_line (start -11.55 14) (end -4.55 14) (layer F.CrtYd) (width 0.05))
  (fp_line (start -4.55 14) (end -4.55 9.9) (layer F.CrtYd) (width 0.05))
  (fp_line (start -4.55 9.9) (end -2.45 9.9) (layer F.CrtYd) (width 0.05))
  (fp_line (start -2.45 9.9) (end -2.45 -1.35) (layer F.CrtYd) (width 0.05))
  (fp_line (start -2.45 -1.35) (end 33.4 -1.35) (layer F.CrtYd) (width 0.05))
  (fp_line (start 33.4 -1.35) (end 33.4 9.9) (layer F.CrtYd) (width 0.05))
  (fp_line (start 33.4 9.9) (end 35.6 9.9) (layer F.CrtYd) (width 0.05))
  (fp_line (start 35.6 9.9) (end 35.6 14) (layer F.CrtYd) (width 0.05))
  (fp_line (start 35.6 14) (end 42.6 14) (layer F.CrtYd) (width 0.05))
  (fp_line (start 42.6 14) (end 42.6 15.4) (layer F.CrtYd) (width 0.05))
  (fp_line (start 42.6 15.4) (end 35.2 15.4) (layer F.CrtYd) (width 0.05))
  (fp_line (start 35.2 15.4) (end 35.2 21.4) (layer F.CrtYd) (width 0.05))
  (fp_line (start 35.2 21.4) (end -4.15 21.4) (layer F.CrtYd) (width 0.05))
  (pad 1 thru_hole rect (at 0 0) (size 1.6 1.6) (drill 1) (layers *.Cu *.Mask))
  (pad 2 thru_hole circle (at 2.29 0) (size 1.6 1.6) (drill 1) (layers *.Cu *.Mask))
  (pad 3 thru_hole circle (at 4.58 0) (size 1.6 1.6) (drill 1) (layers *.Cu *.Mask))
  (pad 4 thru_hole circle (at 6.87 0) (size 1.6 1.6) (drill 1) (layers *.Cu *.Mask))
  (pad 5 thru_hole circle (at 9.16 0) (size 1.6 1.6) (drill 1) (layers *.Cu *.Mask))
  (pad 6 thru_hole circle (at 11.45 0) (size 1.6 1.6) (drill 1) (layers *.Cu *.Mask))
  (pad 7 thru_hole circle (at 13.74 0) (size 1.6 1.6) (drill 1) (layers *.Cu *.Mask))
  (pad 8 thru_hole circle (at 16.03 0) (size 1.6 1.6) (drill 1) (layers *.Cu *.Mask))
  (pad 9 thru_hole circle (at 18.32 0) (size 1.6 1.6) (drill 1) (layers *.Cu *.Mask))
  (pad 10 thru_hole circle (at 20.61 0) (size 1.6 1.6) (drill 1) (layers *.Cu *.Mask))
  (pad 11 thru_hole circle (at 22.9 0) (size 1.6 1.6) (drill 1) (layers *.Cu *.Mask))
  (pad 12 thru_hole circle (at 25.19 0) (size 1.6 1.6) (drill 1) (layers *.Cu *.Mask))
  (pad 13 thru_hole circle (at 27.48 0) (size 1.6 1.6) (drill 1) (layers *.Cu *.Mask))
  (pad 14 thru_hole circle (at 29.77 0) (size 1.6 1.6) (drill 1) (layers *.Cu *.Mask))
  (pad 15 thru_hole circle (at 32.06 0) (size 1.6 1.6) (drill 1) (layers *.Cu *.Mask))
  (pad 16 thru_hole circle (at -1.145 2.54) (size 1.6 1.6) (drill 1) (layers *.Cu *.Mask))
  (pad 17 thru_hole circle (at 1.145 2.54) (size 1.6 1.6) (drill 1) (layers *.Cu *.Mask))
  (pad 18 thru_hole circle (at 3.435 2.54) (size 1.6 1.6) (drill 1) (layers *.Cu *.Mask))
  (pad 19 thru_hole circle (at 5.725 2.54) (size 1.6 1.6) (drill 1) (layers *.Cu *.Mask))
  (pad 20 thru_hole circle (at 8.015 2.54) (size 1.6 1.6) (drill 1) (layers *.Cu *.Mask))
  (pad 21 thru_hole circle (at 10.305 2.54) (size 1.6 1.6) (drill 1) (layers *.Cu *.Mask))
  (pad 22 thru_hole circle (at 12.595 2.54) (size 1.6 1.6) (drill 1) (layers *.Cu *.Mask))
  (pad 23 thru_hole circle (at 14.885 2.54) (size 1.6 1.6) (drill 1) (layers *.Cu *.Mask))
  (pad 24 thru_hole circle (at 17.175 2.54) (size 1.6 1.6) (drill 1) (layers *.Cu *.Mask))
  (pad 25 thru_hole circle (at 19.465 2.54) (size 1.6 1.6) (drill 1) (layers *.Cu *.Mask))
  (pad 26 thru_hole circle (at 21.755 2.54) (size 1.6 1.6) (drill 1) (layers *.Cu *.Mask))
  (pad 27 thru_hole circle (at 24.045 2.54) (size 1.6 1.6) (drill 1) (layers *.Cu *.Mask))
  (pad 28 thru_hole circle (at 26.335 2.54) (size 1.6 1.6) (drill 1) (layers *.Cu *.Mask))
  (pad 29 thru_hole circle (at 28.625 2.54) (size 1.6 1.6) (drill 1) (layers *.Cu *.Mask))
  (pad 30 thru_hole circle (at 30.915 2.54) (size 1.6 1.6) (drill 1) (layers *.Cu *.Mask))
  (pad 31 thru_hole circle (at 0 5.08) (size 1.6 1.6) (drill 1) (layers *.Cu *.Mask))
  (pad 32 thru_hole circle (at 2.29 5.08) (size 1.6 1.6) (drill 1) (layers *.Cu *.Mask))
  (pad 33 thru_hole circle (at 4.58 5.08) (size 1.6 1.6) (drill 1) (layers *.Cu *.Mask))
  (pad 34 thru_hole circle (at 6.87 5.08) (size 1.6 1.6) (drill 1) (layers *.Cu *.Mask))
  (pad 35 thru_hole circle (at 9.16 5.08) (size 1.6 1.6) (drill 1) (layers *.Cu *.Mask))
  (pad 36 thru_hole circle (at 11.45 5.08) (size 1.6 1.6) (drill 1) (layers *.Cu *.Mask))
  (pad 37 thru_hole circle (at 13.74 5.08) (size 1.6 1.6) (drill 1) (layers *.Cu *.Mask))
  (pad 38 thru_hole circle (at 16.03 5.08) (size 1.6 1.6) (drill 1) (layers *.Cu *.Mask))
  (pad 39 thru_hole circle (at 18.32 5.08) (size 1.6 1.6) (drill 1) (layers *.Cu *.Mask))
  (pad 40 thru_hole circle (at 20.61 5.08) (size 1.6 1.6) (drill 1) (layers *.Cu *.Mask))
  (pad 41 thru_hole circle (at 22.9 5.08) (size 1.6 1.6) (drill 1) (layers *.Cu *.Mask))
  (pad 42 thru_hole circle (at 25.19 5.08) (size 1.6 1.6) (drill 1) (layers *.Cu *.Mask))
  (pad 43 thru_hole circle (at 27.48 5.08) (size 1.6 1.6) (drill 1) (layers *.Cu *.Mask))
  (pad 44 thru_hole circle (at 29.77 5.08) (size 1.6 1.6) (drill 1) (layers *.Cu *.Mask))
  (fp_text user %R (at 15.525 17.88) (layer F.Fab)
    (effects (font (size 1 1) (thickness 0.15)))
  )
  (model ${KICAD6_3DMODEL_DIR}/Connector_Dsub.3dshapes/DSUB-44-HD_Male_Horizontal_P2.29x2.54mm_EdgePinOffset9.40mm.wrl
    (at (xyz 0 0 0))
    (scale (xyz 1 1 1))
    (rotate (xyz 0 0 0))
  )
)