(module DSUB-15_Female_Horizontal_P2.77x2.84mm_EdgePinOffset9.40mm (layer F.Cu) (tedit 59FEDEE2)
  (descr "15-pin D-Sub connector, horizontal/angled (90 deg), THT-mount, female, pitch 2.77x2.84mm, pin-PCB-offset 9.4mm, see http://docs-europe.electrocomponents.com/webdocs/1585/0900766b81585df2.pdf")
  (tags "15-pin D-Sub connector horizontal angled 90deg THT female pitch 2.77x2.84mm pin-PCB-offset 9.4mm")
  (fp_text reference REF** (at -9.695 -1.8) (layer F.SilkS)
    (effects (font (size 1 1) (thickness 0.15)))
  )
  (fp_text value DSUB-15_Female_Horizontal_P2.77x2.84mm_EdgePinOffset9.40mm (at -9.695 20.31) (layer F.Fab)
    (effects (font (size 1 1) (thickness 0.15)))
  )
  (fp_line (start -0.1 0) (end -0.1 8.14) (layer F.Fab) (width 0.1))
  (fp_line (start 0 0) (end 0 8.14) (layer F.Fab) (width 0.1))
  (fp_line (start 0.1 0) (end 0.1 8.14) (layer F.Fab) (width 0.1))
  (fp_line (start -2.87 0) (end -2.87 8.14) (layer F.Fab) (width 0.1))
  (fp_line (start -2.77 0) (end -2.77 8.14) (layer F.Fab) (width 0.1))
  (fp_line (start -2.67 0) (end -2.67 8.14) (layer F.Fab) (width 0.1))
  (fp_line (start -5.64 0) (end -5.64 8.14) (layer F.Fab) (width 0.1))
  (fp_line (start -5.54 0) (end -5.54 8.14) (layer F.Fab) (width 0.1))
  (fp_line (start -5.44 0) (end -5.44 8.14) (layer F.Fab) (width 0.1))
  (fp_line (start -8.41 0) (end -8.41 8.14) (layer F.Fab) (width 0.1))
  (fp_line (start -8.31 0) (end -8.31 8.14) (layer F.Fab) (width 0.1))
  (fp_line (start -8.21 0) (end -8.21 8.14) (layer F.Fab) (width 0.1))
  (fp_line (start -11.18 0) (end -11.18 8.14) (layer F.Fab) (width 0.1))
  (fp_line (start -11.08 0) (end -11.08 8.14) (layer F.Fab) (width 0.1))
  (fp_line (start -10.98 0) (end -10.98 8.14) (layer F.Fab) (width 0.1))
  (fp_line (start -13.95 0) (end -13.95 8.14) (layer F.Fab) (width 0.1))
  (fp_line (start -13.85 0) (end -13.85 8.14) (layer F.Fab) (width 0.1))
  (fp_line (start -13.75 0) (end -13.75 8.14) (layer F.Fab) (width 0.1))
  (fp_line (start -16.72 0) (end -16.72 8.14) (layer F.Fab) (width 0.1))
  (fp_line (start -16.62 0) (end -16.62 8.14) (layer F.Fab) (width 0.1))
  (fp_line (start -16.52 0) (end -16.52 8.14) (layer F.Fab) (width 0.1))
  (fp_line (start -19.49 0) (end -19.49 8.14) (layer F.Fab) (width 0.1))
  (fp_line (start -19.39 0) (end -19.39 8.14) (layer F.Fab) (width 0.1))
  (fp_line (start -19.29 0) (end -19.29 8.14) (layer F.Fab) (width 0.1))
  (fp_line (start -1.485 2.84) (end -1.485 8.14) (layer F.Fab) (width 0.1))
  (fp_line (start -1.385 2.84) (end -1.385 8.14) (layer F.Fab) (width 0.1))
  (fp_line (start -1.285 2.84) (end -1.285 8.14) (layer F.Fab) (width 0.1))
  (fp_line (start -4.255 2.84) (end -4.255 8.14) (layer F.Fab) (width 0.1))
  (fp_line (start -4.155 2.84) (end -4.155 8.14) (layer F.Fab) (width 0.1))
  (fp_line (start -4.055 2.84) (end -4.055 8.14) (layer F.Fab) (width 0.1))
  (fp_line (start -7.025 2.84) (end -7.025 8.14) (layer F.Fab) (width 0.1))
  (fp_line (start -6.925 2.84) (end -6.925 8.14) (layer F.Fab) (width 0.1))
  (fp_line (start -6.825 2.84) (end -6.825 8.14) (layer F.Fab) (width 0.1))
  (fp_line (start -9.795 2.84) (end -9.795 8.14) (layer F.Fab) (width 0.1))
  (fp_line (start -9.695 2.84) (end -9.695 8.14) (layer F.Fab) (width 0.1))
  (fp_line (start -9.595 2.84) (end -9.595 8.14) (layer F.Fab) (width 0.1))
  (fp_line (start -12.565 2.84) (end -12.565 8.14) (layer F.Fab) (width 0.1))
  (fp_line (start -12.465 2.84) (end -12.465 8.14) (layer F.Fab) (width 0.1))
  (fp_line (start -12.365 2.84) (end -12.365 8.14) (layer F.Fab) (width 0.1))
  (fp_line (start -15.335 2.84) (end -15.335 8.14) (layer F.Fab) (width 0.1))
  (fp_line (start -15.235 2.84) (end -15.235 8.14) (layer F.Fab) (width 0.1))
  (fp_line (start -15.135 2.84) (end -15.135 8.14) (layer F.Fab) (width 0.1))
  (fp_line (start -18.105 2.84) (end -18.105 8.14) (layer F.Fab) (width 0.1))
  (fp_line (start -18.005 2.84) (end -18.005 8.14) (layer F.Fab) (width 0.1))
  (fp_line (start -17.905 2.84) (end -17.905 8.14) (layer F.Fab) (width 0.1))
  (fp_line (start -22.395 8.14) (end -22.395 12.24) (layer F.Fab) (width 0.1))
  (fp_line (start -22.395 12.24) (end 3.005 12.24) (layer F.Fab) (width 0.1))
  (fp_line (start 3.005 12.24) (end 3.005 8.14) (layer F.Fab) (width 0.1))
  (fp_line (start 3.005 8.14) (end -22.395 8.14) (layer F.Fab) (width 0.1))
  (fp_line (start -29.295 12.24) (end -29.295 12.64) (layer F.Fab) (width 0.1))
  (fp_line (start -29.295 12.64) (end 9.905 12.64) (layer F.Fab) (width 0.1))
  (fp_line (start 9.905 12.64) (end 9.905 12.24) (layer F.Fab) (width 0.1))
  (fp_line (start 9.905 12.24) (end -29.295 12.24) (layer F.Fab) (width 0.1))
  (fp_line (start -21.995 12.64) (end -21.995 18.81) (layer F.Fab) (width 0.1))
  (fp_line (start -21.995 18.81) (end 2.605 18.81) (layer F.Fab) (width 0.1))
  (fp_line (start 2.605 18.81) (end 2.605 12.64) (layer F.Fab) (width 0.1))
  (fp_line (start 2.605 12.64) (end -21.995 12.64) (layer F.Fab) (width 0.1))
  (fp_line (start -22.455 12.18) (end -22.455 8.08) (layer F.SilkS) (width 0.12))
  (fp_line (start -22.455 8.08) (end -20.45 8.08) (layer F.SilkS) (width 0.12))
  (fp_line (start -20.45 8.08) (end -20.45 -1.06) (layer F.SilkS) (width 0.12))
  (fp_line (start -20.45 -1.06) (end 1.06 -1.06) (layer F.SilkS) (width 0.12))
  (fp_line (start 1.06 -1.06) (end 1.06 8.08) (layer F.SilkS) (width 0.12))
  (fp_line (start 1.06 8.08) (end 3.065 8.08) (layer F.SilkS) (width 0.12))
  (fp_line (start 3.065 8.08) (end 3.065 12.18) (layer F.SilkS) (width 0.12))
  (fp_line (start -0.25 -1.754338) (end 0.25 -1.754338) (layer F.SilkS) (width 0.12))
  (fp_line (start 0.25 -1.754338) (end 0 -1.321325) (layer F.SilkS) (width 0.12))
  (fp_line (start 0 -1.321325) (end -0.25 -1.754338) (layer F.SilkS) (width 0.12))
  (fp_line (start -22.5 19.35) (end -22.5 13.15) (layer F.CrtYd) (width 0.05))
  (fp_line (start -22.5 13.15) (end -29.8 13.15) (layer F.CrtYd) (width 0.05))
  (fp_line (start -29.8 13.15) (end -29.8 11.75) (layer F.CrtYd) (width 0.05))
  (fp_line (start -29.8 11.75) (end -22.9 11.75) (layer F.CrtYd) (width 0.05))
  (fp_line (start -22.9 11.75) (end -22.9 7.65) (layer F.CrtYd) (width 0.05))
  (fp_line (start -22.9 7.65) (end -20.7 7.65) (layer F.CrtYd) (width 0.05))
  (fp_line (start -20.7 7.65) (end -20.7 -1.35) (layer F.CrtYd) (width 0.05))
  (fp_line (start -20.7 -1.35) (end 1.3 -1.35) (layer F.CrtYd) (width 0.05))
  (fp_line (start 1.3 -1.35) (end 1.3 7.65) (layer F.CrtYd) (width 0.05))
  (fp_line (start 1.3 7.65) (end 3.55 7.65) (layer F.CrtYd) (width 0.05))
  (fp_line (start 3.55 7.65) (end 3.55 11.75) (layer F.CrtYd) (width 0.05))
  (fp_line (start 3.55 11.75) (end 10.45 11.75) (layer F.CrtYd) (width 0.05))
  (fp_line (start 10.45 11.75) (end 10.45 13.15) (layer F.CrtYd) (width 0.05))
  (fp_line (start 10.45 13.15) (end 3.15 13.15) (layer F.CrtYd) (width 0.05))
  (fp_line (start 3.15 13.15) (end 3.15 19.35) (layer F.CrtYd) (width 0.05))
  (fp_line (start 3.15 19.35) (end -22.5 19.35) (layer F.CrtYd) (width 0.05))
  (pad 1 thru_hole rect (at 0 0) (size 1.6 1.6) (drill 1) (layers *.Cu *.Mask))
  (pad 2 thru_hole circle (at -2.77 0) (size 1.6 1.6) (drill 1) (layers *.Cu *.Mask))
  (pad 3 thru_hole circle (at -5.54 0) (size 1.6 1.6) (drill 1) (layers *.Cu *.Mask))
  (pad 4 thru_hole circle (at -8.31 0) (size 1.6 1.6) (drill 1) (layers *.Cu *.Mask))
  (pad 5 thru_hole circle (at -11.08 0) (size 1.6 1.6) (drill 1) (layers *.Cu *.Mask))
  (pad 6 thru_hole circle (at -13.85 0) (size 1.6 1.6) (drill 1) (layers *.Cu *.Mask))
  (pad 7 thru_hole circle (at -16.62 0) (size 1.6 1.6) (drill 1) (layers *.Cu *.Mask))
  (pad 8 thru_hole circle (at -19.39 0) (size 1.6 1.6) (drill 1) (layers *.Cu *.Mask))
  (pad 9 thru_hole circle (at -1.385 2.84) (size 1.6 1.6) (drill 1) (layers *.Cu *.Mask))
  (pad 10 thru_hole circle (at -4.155 2.84) (size 1.6 1.6) (drill 1) (layers *.Cu *.Mask))
  (pad 11 thru_hole circle (at -6.925 2.84) (size 1.6 1.6) (drill 1) (layers *.Cu *.Mask))
  (pad 12 thru_hole circle (at -9.695 2.84) (size 1.6 1.6) (drill 1) (layers *.Cu *.Mask))
  (pad 13 thru_hole circle (at -12.465 2.84) (size 1.6 1.6) (drill 1) (layers *.Cu *.Mask))
  (pad 14 thru_hole circle (at -15.235 2.84) (size 1.6 1.6) (drill 1) (layers *.Cu *.Mask))
  (pad 15 thru_hole circle (at -18.005 2.84) (size 1.6 1.6) (drill 1) (layers *.Cu *.Mask))
  (fp_text user %R (at -9.695 15.725) (layer F.Fab)
    (effects (font (size 1 1) (thickness 0.15)))
  )
  (model ${KICAD6_3DMODEL_DIR}/Connector_Dsub.3dshapes/DSUB-15_Female_Horizontal_P2.77x2.84mm_EdgePinOffset9.40mm.wrl
    (at (xyz 0 0 0))
    (scale (xyz 1 1 1))
    (rotate (xyz 0 0 0))
  )
)