(module Mounting_Wuerth_WA-SMST-3.3mm_H12mm_9774120960 (layer F.Cu) (tedit 5E1DC565)
  (descr "Mounting Hardware, inside through hole 3.3mm, height 12, Wuerth electronics 9774120960 (https://katalog.we-online.de/em/datasheet/9774120960.pdf,), generated with kicad-footprint-generator")
  (tags "Mounting 3.3mm 9774120960")
  (attr smd)
  (fp_text reference REF** (at 0 -4.65) (layer F.SilkS)
    (effects (font (size 1 1) (thickness 0.15)))
  )
  (fp_text value Mounting_Wuerth_WA-SMST-3.3mm_H12mm_9774120960 (at 0 4.65) (layer F.Fab)
    (effects (font (size 1 1) (thickness 0.15)))
  )
  (fp_circle (center 0 0) (end 3 0) (layer F.Fab) (width 0.1))
  (fp_circle (center 0 0) (end 3.95 0) (layer F.CrtYd) (width 0.05))
  (pad "" smd custom (at 2.057681 2.057681) (size 0.7 0.7) (layers F.Paste)
    (options (clearance outline) (anchor circle))
    (primitives
      (gr_arc (start -2.057681 -2.057681) (end 0.377294 -1.707681) (angle 73.640811) (width 0.2))
      (gr_arc (start -2.057681 -2.057681) (end 0.478281 -1.707681) (angle 74.283963) (width 0.2))
      (gr_arc (start -2.057681 -2.057681) (end 0.579192 -1.707681) (angle 74.878314) (width 0.2))
      (gr_arc (start -2.057681 -2.057681) (end 0.680037 -1.707681) (angle 75.42923) (width 0.2))
      (gr_arc (start -2.057681 -2.057681) (end 0.780822 -1.707681) (angle 75.941316) (width 0.2))
      (gr_arc (start -2.057681 -2.057681) (end 0.881554 -1.707681) (angle 76.418548) (width 0.2))
      (gr_arc (start -2.057681 -2.057681) (end 0.982237 -1.707681) (angle 76.864374) (width 0.2))
      (gr_arc (start -2.057681 -2.057681) (end 1.082877 -1.707681) (angle 77.281802) (width 0.2))
      (gr_arc (start -2.057681 -2.057681) (end 1.183476 -1.707681) (angle 77.673467) (width 0.2))
      (gr_arc (start -2.057681 -2.057681) (end 1.28404 -1.707681) (angle 78.041686) (width 0.2))
      (gr_line (start -1.707681 0.377294) (end -1.707681 1.28404) (width 0.2))
      (gr_line (start 0.377294 -1.707681) (end 1.28404 -1.707681) (width 0.2))
    ))
  (pad "" smd custom (at -2.057681 2.057681) (size 0.7 0.7) (layers F.Paste)
    (options (clearance outline) (anchor circle))
    (primitives
      (gr_arc (start 2.057681 -2.057681) (end 1.707681 0.377294) (angle 73.640811) (width 0.2))
      (gr_arc (start 2.057681 -2.057681) (end 1.707681 0.478281) (angle 74.283963) (width 0.2))
      (gr_arc (start 2.057681 -2.057681) (end 1.707681 0.579192) (angle 74.878314) (width 0.2))
      (gr_arc (start 2.057681 -2.057681) (end 1.707681 0.680037) (angle 75.42923) (width 0.2))
      (gr_arc (start 2.057681 -2.057681) (end 1.707681 0.780822) (angle 75.941316) (width 0.2))
      (gr_arc (start 2.057681 -2.057681) (end 1.707681 0.881554) (angle 76.418548) (width 0.2))
      (gr_arc (start 2.057681 -2.057681) (end 1.707681 0.982237) (angle 76.864374) (width 0.2))
      (gr_arc (start 2.057681 -2.057681) (end 1.707681 1.082877) (angle 77.281802) (width 0.2))
      (gr_arc (start 2.057681 -2.057681) (end 1.707681 1.183476) (angle 77.673467) (width 0.2))
      (gr_arc (start 2.057681 -2.057681) (end 1.707681 1.28404) (angle 78.041686) (width 0.2))
      (gr_line (start -0.377294 -1.707681) (end -1.28404 -1.707681) (width 0.2))
      (gr_line (start 1.707681 0.377294) (end 1.707681 1.28404) (width 0.2))
    ))
  (pad "" smd custom (at -2.057681 -2.057681) (size 0.7 0.7) (layers F.Paste)
    (options (clearance outline) (anchor circle))
    (primitives
      (gr_arc (start 2.057681 2.057681) (end -0.377294 1.707681) (angle 73.640811) (width 0.2))
      (gr_arc (start 2.057681 2.057681) (end -0.478281 1.707681) (angle 74.283963) (width 0.2))
      (gr_arc (start 2.057681 2.057681) (end -0.579192 1.707681) (angle 74.878314) (width 0.2))
      (gr_arc (start 2.057681 2.057681) (end -0.680037 1.707681) (angle 75.42923) (width 0.2))
      (gr_arc (start 2.057681 2.057681) (end -0.780822 1.707681) (angle 75.941316) (width 0.2))
      (gr_arc (start 2.057681 2.057681) (end -0.881554 1.707681) (angle 76.418548) (width 0.2))
      (gr_arc (start 2.057681 2.057681) (end -0.982237 1.707681) (angle 76.864374) (width 0.2))
      (gr_arc (start 2.057681 2.057681) (end -1.082877 1.707681) (angle 77.281802) (width 0.2))
      (gr_arc (start 2.057681 2.057681) (end -1.183476 1.707681) (angle 77.673467) (width 0.2))
      (gr_arc (start 2.057681 2.057681) (end -1.28404 1.707681) (angle 78.041686) (width 0.2))
      (gr_line (start 1.707681 -0.377294) (end 1.707681 -1.28404) (width 0.2))
      (gr_line (start -0.377294 1.707681) (end -1.28404 1.707681) (width 0.2))
    ))
  (pad "" smd custom (at 2.057681 -2.057681) (size 0.7 0.7) (layers F.Paste)
    (options (clearance outline) (anchor circle))
    (primitives
      (gr_arc (start -2.057681 2.057681) (end -1.707681 -0.377294) (angle 73.640811) (width 0.2))
      (gr_arc (start -2.057681 2.057681) (end -1.707681 -0.478281) (angle 74.283963) (width 0.2))
      (gr_arc (start -2.057681 2.057681) (end -1.707681 -0.579192) (angle 74.878314) (width 0.2))
      (gr_arc (start -2.057681 2.057681) (end -1.707681 -0.680037) (angle 75.42923) (width 0.2))
      (gr_arc (start -2.057681 2.057681) (end -1.707681 -0.780822) (angle 75.941316) (width 0.2))
      (gr_arc (start -2.057681 2.057681) (end -1.707681 -0.881554) (angle 76.418548) (width 0.2))
      (gr_arc (start -2.057681 2.057681) (end -1.707681 -0.982237) (angle 76.864374) (width 0.2))
      (gr_arc (start -2.057681 2.057681) (end -1.707681 -1.082877) (angle 77.281802) (width 0.2))
      (gr_arc (start -2.057681 2.057681) (end -1.707681 -1.183476) (angle 77.673467) (width 0.2))
      (gr_arc (start -2.057681 2.057681) (end -1.707681 -1.28404) (angle 78.041686) (width 0.2))
      (gr_line (start 0.377294 1.707681) (end 1.28404 1.707681) (width 0.2))
      (gr_line (start -1.707681 -0.377294) (end -1.707681 -1.28404) (width 0.2))
    ))
  (pad 1 smd custom (at 2.95 0) (size 1.1 1.1) (layers F.Cu F.Mask)
    (options (clearance outline) (anchor circle))
    (primitives
      (gr_circle (center -2.95 0) (end 0 0) (width 1.5))
    ))
  (pad 1 smd circle (at 0 2.95) (size 1.1 1.1) (layers F.Cu))
  (pad 1 smd circle (at -2.95 0) (size 1.1 1.1) (layers F.Cu))
  (pad 1 smd circle (at 0 -2.95) (size 1.1 1.1) (layers F.Cu))
  (pad "" np_thru_hole circle (at 0 0) (size 4.4 4.4) (drill 4.4) (layers *.Cu *.Mask))
  (fp_text user %R (at 0 0) (layer F.Fab)
    (effects (font (size 1 1) (thickness 0.15)))
  )
  (model ${KICAD6_3DMODEL_DIR}/Mounting_Wuerth.3dshapes/Mounting_Wuerth_WA-SMST-3.3mm_H12mm_9774120960.wrl
    (at (xyz 0 0 0))
    (scale (xyz 1 1 1))
    (rotate (xyz 0 0 0))
  )
)