(module Mounting_Wuerth_WA-SMSI-M1.6_H3.5mm_ThreadDepth2mm_NoNPTH_97730356330 (layer F.Cu) (tedit 5E1DC566)
  (descr "Mounting Hardware, inside blind hole M1.6, height 3.5, Wuerth electronics 97730356330 (https://katalog.we-online.com/em/datasheet/97730356330.pdf), generated with kicad-footprint-generator")
  (tags "Mounting M1.6 97730356330")
  (attr smd)
  (fp_text reference REF** (at 0 -2.95) (layer F.SilkS)
    (effects (font (size 1 1) (thickness 0.15)))
  )
  (fp_text value Mounting_Wuerth_WA-SMSI-M1.6_H3.5mm_ThreadDepth2mm_NoNPTH_97730356330 (at 0 2.95) (layer F.Fab)
    (effects (font (size 1 1) (thickness 0.15)))
  )
  (fp_circle (center 0 0) (end 1.65 0) (layer F.Fab) (width 0.1))
  (fp_circle (center 0 0) (end 2.25 0) (layer F.CrtYd) (width 0.05))
  (pad "" smd custom (at 0.777817 0.777817) (size 1.2 1.2) (layers F.Paste)
    (options (clearance outline) (anchor circle))
    (primitives
      (gr_arc (start -0.777817 -0.777817) (end -0.465568 -0.527817) (angle 12.635625) (width 0.2))
      (gr_arc (start -0.777817 -0.777817) (end -0.344805 -0.527817) (angle 30) (width 0.2))
      (gr_arc (start -0.777817 -0.777817) (end -0.232382 -0.527817) (angle 40.751363) (width 0.2))
      (gr_arc (start -0.777817 -0.777817) (end -0.123983 -0.527817) (angle 48.150335) (width 0.2))
      (gr_arc (start -0.777817 -0.777817) (end -0.017883 -0.527817) (angle 53.580086) (width 0.2))
      (gr_arc (start -0.777817 -0.777817) (end 0.086763 -0.527817) (angle 57.74476) (width 0.2))
      (gr_arc (start -0.777817 -0.777817) (end 0.190428 -0.527817) (angle 61.044976) (width 0.2))
      (gr_arc (start -0.777817 -0.777817) (end 0.293397 -0.527817) (angle 63.726882) (width 0.2))
      (gr_arc (start -0.777817 -0.777817) (end 0.395852 -0.527817) (angle 65.950602) (width 0.2))
      (gr_arc (start -0.777817 -0.777817) (end 0.497918 -0.527817) (angle 67.825022) (width 0.2))
      (gr_arc (start -0.777817 -0.777817) (end 0.59968 -0.527817) (angle 69.426879) (width 0.2))
      (gr_arc (start -0.777817 -0.777817) (end 0.701202 -0.527817) (angle 70.811864) (width 0.2))
      (gr_arc (start -0.777817 -0.777817) (end 0.802531 -0.527817) (angle 72.021401) (width 0.2))
      (gr_arc (start -0.777817 -0.777817) (end 0.9037 -0.527817) (angle 73.086961) (width 0.2))
      (gr_arc (start -0.777817 -0.777817) (end 1.004737 -0.527817) (angle 74.032888) (width 0.2))
      (gr_line (start -0.527817 -0.465568) (end -0.527817 1.004737) (width 0.2))
      (gr_line (start -0.465568 -0.527817) (end 1.004737 -0.527817) (width 0.2))
    ))
  (pad "" smd custom (at -0.777817 0.777817) (size 1.2 1.2) (layers F.Paste)
    (options (clearance outline) (anchor circle))
    (primitives
      (gr_arc (start 0.777817 -0.777817) (end 0.527817 -0.465568) (angle 12.635625) (width 0.2))
      (gr_arc (start 0.777817 -0.777817) (end 0.527817 -0.344805) (angle 30) (width 0.2))
      (gr_arc (start 0.777817 -0.777817) (end 0.527817 -0.232382) (angle 40.751363) (width 0.2))
      (gr_arc (start 0.777817 -0.777817) (end 0.527817 -0.123983) (angle 48.150335) (width 0.2))
      (gr_arc (start 0.777817 -0.777817) (end 0.527817 -0.017883) (angle 53.580086) (width 0.2))
      (gr_arc (start 0.777817 -0.777817) (end 0.527817 0.086763) (angle 57.74476) (width 0.2))
      (gr_arc (start 0.777817 -0.777817) (end 0.527817 0.190428) (angle 61.044976) (width 0.2))
      (gr_arc (start 0.777817 -0.777817) (end 0.527817 0.293397) (angle 63.726882) (width 0.2))
      (gr_arc (start 0.777817 -0.777817) (end 0.527817 0.395852) (angle 65.950602) (width 0.2))
      (gr_arc (start 0.777817 -0.777817) (end 0.527817 0.497918) (angle 67.825022) (width 0.2))
      (gr_arc (start 0.777817 -0.777817) (end 0.527817 0.59968) (angle 69.426879) (width 0.2))
      (gr_arc (start 0.777817 -0.777817) (end 0.527817 0.701202) (angle 70.811864) (width 0.2))
      (gr_arc (start 0.777817 -0.777817) (end 0.527817 0.802531) (angle 72.021401) (width 0.2))
      (gr_arc (start 0.777817 -0.777817) (end 0.527817 0.9037) (angle 73.086961) (width 0.2))
      (gr_arc (start 0.777817 -0.777817) (end 0.527817 1.004737) (angle 74.032888) (width 0.2))
      (gr_line (start 0.465568 -0.527817) (end -1.004737 -0.527817) (width 0.2))
      (gr_line (start 0.527817 -0.465568) (end 0.527817 1.004737) (width 0.2))
    ))
  (pad "" smd custom (at -0.777817 -0.777817) (size 1.2 1.2) (layers F.Paste)
    (options (clearance outline) (anchor circle))
    (primitives
      (gr_arc (start 0.777817 0.777817) (end 0.465568 0.527817) (angle 12.635625) (width 0.2))
      (gr_arc (start 0.777817 0.777817) (end 0.344805 0.527817) (angle 30) (width 0.2))
      (gr_arc (start 0.777817 0.777817) (end 0.232382 0.527817) (angle 40.751363) (width 0.2))
      (gr_arc (start 0.777817 0.777817) (end 0.123983 0.527817) (angle 48.150335) (width 0.2))
      (gr_arc (start 0.777817 0.777817) (end 0.017883 0.527817) (angle 53.580086) (width 0.2))
      (gr_arc (start 0.777817 0.777817) (end -0.086763 0.527817) (angle 57.74476) (width 0.2))
      (gr_arc (start 0.777817 0.777817) (end -0.190428 0.527817) (angle 61.044976) (width 0.2))
      (gr_arc (start 0.777817 0.777817) (end -0.293397 0.527817) (angle 63.726882) (width 0.2))
      (gr_arc (start 0.777817 0.777817) (end -0.395852 0.527817) (angle 65.950602) (width 0.2))
      (gr_arc (start 0.777817 0.777817) (end -0.497918 0.527817) (angle 67.825022) (width 0.2))
      (gr_arc (start 0.777817 0.777817) (end -0.59968 0.527817) (angle 69.426879) (width 0.2))
      (gr_arc (start 0.777817 0.777817) (end -0.701202 0.527817) (angle 70.811864) (width 0.2))
      (gr_arc (start 0.777817 0.777817) (end -0.802531 0.527817) (angle 72.021401) (width 0.2))
      (gr_arc (start 0.777817 0.777817) (end -0.9037 0.527817) (angle 73.086961) (width 0.2))
      (gr_arc (start 0.777817 0.777817) (end -1.004737 0.527817) (angle 74.032888) (width 0.2))
      (gr_line (start 0.527817 0.465568) (end 0.527817 -1.004737) (width 0.2))
      (gr_line (start 0.465568 0.527817) (end -1.004737 0.527817) (width 0.2))
    ))
  (pad "" smd custom (at 0.777817 -0.777817) (size 1.2 1.2) (layers F.Paste)
    (options (clearance outline) (anchor circle))
    (primitives
      (gr_arc (start -0.777817 0.777817) (end -0.527817 0.465568) (angle 12.635625) (width 0.2))
      (gr_arc (start -0.777817 0.777817) (end -0.527817 0.344805) (angle 30) (width 0.2))
      (gr_arc (start -0.777817 0.777817) (end -0.527817 0.232382) (angle 40.751363) (width 0.2))
      (gr_arc (start -0.777817 0.777817) (end -0.527817 0.123983) (angle 48.150335) (width 0.2))
      (gr_arc (start -0.777817 0.777817) (end -0.527817 0.017883) (angle 53.580086) (width 0.2))
      (gr_arc (start -0.777817 0.777817) (end -0.527817 -0.086763) (angle 57.74476) (width 0.2))
      (gr_arc (start -0.777817 0.777817) (end -0.527817 -0.190428) (angle 61.044976) (width 0.2))
      (gr_arc (start -0.777817 0.777817) (end -0.527817 -0.293397) (angle 63.726882) (width 0.2))
      (gr_arc (start -0.777817 0.777817) (end -0.527817 -0.395852) (angle 65.950602) (width 0.2))
      (gr_arc (start -0.777817 0.777817) (end -0.527817 -0.497918) (angle 67.825022) (width 0.2))
      (gr_arc (start -0.777817 0.777817) (end -0.527817 -0.59968) (angle 69.426879) (width 0.2))
      (gr_arc (start -0.777817 0.777817) (end -0.527817 -0.701202) (angle 70.811864) (width 0.2))
      (gr_arc (start -0.777817 0.777817) (end -0.527817 -0.802531) (angle 72.021401) (width 0.2))
      (gr_arc (start -0.777817 0.777817) (end -0.527817 -0.9037) (angle 73.086961) (width 0.2))
      (gr_arc (start -0.777817 0.777817) (end -0.527817 -1.004737) (angle 74.032888) (width 0.2))
      (gr_line (start -0.465568 0.527817) (end 1.004737 0.527817) (width 0.2))
      (gr_line (start -0.527817 0.465568) (end -0.527817 -1.004737) (width 0.2))
    ))
  (pad 1 smd circle (at 0 0) (size 4 4) (layers F.Cu F.Mask))
  (fp_text user %R (at 0 0) (layer F.Fab)
    (effects (font (size 0.82 0.82) (thickness 0.12)))
  )
  (model ${KICAD6_3DMODEL_DIR}/Mounting_Wuerth.3dshapes/Mounting_Wuerth_WA-SMSI-M1.6_H3.5mm_ThreadDepth2mm_NoNPTH_97730356330.wrl
    (at (xyz 0 0 0))
    (scale (xyz 1 1 1))
    (rotate (xyz 0 0 0))
  )
)