(module Mounting_Wuerth_WA-SMSR-M3_H8.6mm_ReverseMount_9775086360 (layer F.Cu) (tedit 5E1DC568)
  (descr "Mounting Hardware, inside through hole M3, height 8.6, Wuerth electronics 9775086360 (https://katalog.we-online.com/em/datasheet/9775086360.pdf), generated with kicad-footprint-generator")
  (tags "Mounting M3 9775086360")
  (attr smd)
  (fp_text reference REF** (at 0 -4.65) (layer F.SilkS)
    (effects (font (size 1 1) (thickness 0.15)))
  )
  (fp_text value Mounting_Wuerth_WA-SMSR-M3_H8.6mm_ReverseMount_9775086360 (at 0 4.65) (layer F.Fab)
    (effects (font (size 1 1) (thickness 0.15)))
  )
  (fp_circle (center 0 0) (end 3 0) (layer F.Fab) (width 0.1))
  (fp_circle (center 0 0) (end 3.95 0) (layer F.CrtYd) (width 0.05))
  (pad "" smd custom (at 2.094804 2.094804) (size 0.945 0.945) (layers F.Paste)
    (options (clearance outline) (anchor circle))
    (primitives
      (gr_arc (start -2.094804 -2.094804) (end 0.24231 -1.594804) (angle 65.848463) (width 0.2))
      (gr_arc (start -2.094804 -2.094804) (end 0.3398 -1.594804) (angle 66.788818) (width 0.2))
      (gr_arc (start -2.094804 -2.094804) (end 0.437132 -1.594804) (angle 67.658227) (width 0.2))
      (gr_arc (start -2.094804 -2.094804) (end 0.534324 -1.594804) (angle 68.464477) (width 0.2))
      (gr_arc (start -2.094804 -2.094804) (end 0.631391 -1.594804) (angle 69.214245) (width 0.2))
      (gr_arc (start -2.094804 -2.094804) (end 0.728345 -1.594804) (angle 69.913297) (width 0.2))
      (gr_arc (start -2.094804 -2.094804) (end 0.825197 -1.594804) (angle 70.566635) (width 0.2))
      (gr_arc (start -2.094804 -2.094804) (end 0.921958 -1.594804) (angle 71.178622) (width 0.2))
      (gr_arc (start -2.094804 -2.094804) (end 1.018637 -1.594804) (angle 71.753078) (width 0.2))
      (gr_arc (start -2.094804 -2.094804) (end 1.115239 -1.594804) (angle 72.293369) (width 0.2))
      (gr_arc (start -2.094804 -2.094804) (end 1.211773 -1.594804) (angle 72.802464) (width 0.2))
      (gr_arc (start -2.094804 -2.094804) (end 1.308244 -1.594804) (angle 73.283) (width 0.2))
      (gr_arc (start -2.094804 -2.094804) (end 1.404657 -1.594804) (angle 73.737323) (width 0.2))
      (gr_arc (start -2.094804 -2.094804) (end 1.404657 -1.594804) (angle 73.737323) (width 0.2))
      (gr_line (start -1.594804 0.24231) (end -1.594804 1.404657) (width 0.2))
      (gr_line (start 0.24231 -1.594804) (end 1.404657 -1.594804) (width 0.2))
    ))
  (pad "" smd custom (at -2.094804 2.094804) (size 0.945 0.945) (layers F.Paste)
    (options (clearance outline) (anchor circle))
    (primitives
      (gr_arc (start 2.094804 -2.094804) (end 1.594804 0.24231) (angle 65.848463) (width 0.2))
      (gr_arc (start 2.094804 -2.094804) (end 1.594804 0.3398) (angle 66.788818) (width 0.2))
      (gr_arc (start 2.094804 -2.094804) (end 1.594804 0.437132) (angle 67.658227) (width 0.2))
      (gr_arc (start 2.094804 -2.094804) (end 1.594804 0.534324) (angle 68.464477) (width 0.2))
      (gr_arc (start 2.094804 -2.094804) (end 1.594804 0.631391) (angle 69.214245) (width 0.2))
      (gr_arc (start 2.094804 -2.094804) (end 1.594804 0.728345) (angle 69.913297) (width 0.2))
      (gr_arc (start 2.094804 -2.094804) (end 1.594804 0.825197) (angle 70.566635) (width 0.2))
      (gr_arc (start 2.094804 -2.094804) (end 1.594804 0.921958) (angle 71.178622) (width 0.2))
      (gr_arc (start 2.094804 -2.094804) (end 1.594804 1.018637) (angle 71.753078) (width 0.2))
      (gr_arc (start 2.094804 -2.094804) (end 1.594804 1.115239) (angle 72.293369) (width 0.2))
      (gr_arc (start 2.094804 -2.094804) (end 1.594804 1.211773) (angle 72.802464) (width 0.2))
      (gr_arc (start 2.094804 -2.094804) (end 1.594804 1.308244) (angle 73.283) (width 0.2))
      (gr_arc (start 2.094804 -2.094804) (end 1.594804 1.404657) (angle 73.737323) (width 0.2))
      (gr_arc (start 2.094804 -2.094804) (end 1.594804 1.404657) (angle 73.737323) (width 0.2))
      (gr_line (start -0.24231 -1.594804) (end -1.404657 -1.594804) (width 0.2))
      (gr_line (start 1.594804 0.24231) (end 1.594804 1.404657) (width 0.2))
    ))
  (pad "" smd custom (at -2.094804 -2.094804) (size 0.945 0.945) (layers F.Paste)
    (options (clearance outline) (anchor circle))
    (primitives
      (gr_arc (start 2.094804 2.094804) (end -0.24231 1.594804) (angle 65.848463) (width 0.2))
      (gr_arc (start 2.094804 2.094804) (end -0.3398 1.594804) (angle 66.788818) (width 0.2))
      (gr_arc (start 2.094804 2.094804) (end -0.437132 1.594804) (angle 67.658227) (width 0.2))
      (gr_arc (start 2.094804 2.094804) (end -0.534324 1.594804) (angle 68.464477) (width 0.2))
      (gr_arc (start 2.094804 2.094804) (end -0.631391 1.594804) (angle 69.214245) (width 0.2))
      (gr_arc (start 2.094804 2.094804) (end -0.728345 1.594804) (angle 69.913297) (width 0.2))
      (gr_arc (start 2.094804 2.094804) (end -0.825197 1.594804) (angle 70.566635) (width 0.2))
      (gr_arc (start 2.094804 2.094804) (end -0.921958 1.594804) (angle 71.178622) (width 0.2))
      (gr_arc (start 2.094804 2.094804) (end -1.018637 1.594804) (angle 71.753078) (width 0.2))
      (gr_arc (start 2.094804 2.094804) (end -1.115239 1.594804) (angle 72.293369) (width 0.2))
      (gr_arc (start 2.094804 2.094804) (end -1.211773 1.594804) (angle 72.802464) (width 0.2))
      (gr_arc (start 2.094804 2.094804) (end -1.308244 1.594804) (angle 73.283) (width 0.2))
      (gr_arc (start 2.094804 2.094804) (end -1.404657 1.594804) (angle 73.737323) (width 0.2))
      (gr_arc (start 2.094804 2.094804) (end -1.404657 1.594804) (angle 73.737323) (width 0.2))
      (gr_line (start 1.594804 -0.24231) (end 1.594804 -1.404657) (width 0.2))
      (gr_line (start -0.24231 1.594804) (end -1.404657 1.594804) (width 0.2))
    ))
  (pad "" smd custom (at 2.094804 -2.094804) (size 0.945 0.945) (layers F.Paste)
    (options (clearance outline) (anchor circle))
    (primitives
      (gr_arc (start -2.094804 2.094804) (end -1.594804 -0.24231) (angle 65.848463) (width 0.2))
      (gr_arc (start -2.094804 2.094804) (end -1.594804 -0.3398) (angle 66.788818) (width 0.2))
      (gr_arc (start -2.094804 2.094804) (end -1.594804 -0.437132) (angle 67.658227) (width 0.2))
      (gr_arc (start -2.094804 2.094804) (end -1.594804 -0.534324) (angle 68.464477) (width 0.2))
      (gr_arc (start -2.094804 2.094804) (end -1.594804 -0.631391) (angle 69.214245) (width 0.2))
      (gr_arc (start -2.094804 2.094804) (end -1.594804 -0.728345) (angle 69.913297) (width 0.2))
      (gr_arc (start -2.094804 2.094804) (end -1.594804 -0.825197) (angle 70.566635) (width 0.2))
      (gr_arc (start -2.094804 2.094804) (end -1.594804 -0.921958) (angle 71.178622) (width 0.2))
      (gr_arc (start -2.094804 2.094804) (end -1.594804 -1.018637) (angle 71.753078) (width 0.2))
      (gr_arc (start -2.094804 2.094804) (end -1.594804 -1.115239) (angle 72.293369) (width 0.2))
      (gr_arc (start -2.094804 2.094804) (end -1.594804 -1.211773) (angle 72.802464) (width 0.2))
      (gr_arc (start -2.094804 2.094804) (end -1.594804 -1.308244) (angle 73.283) (width 0.2))
      (gr_arc (start -2.094804 2.094804) (end -1.594804 -1.404657) (angle 73.737323) (width 0.2))
      (gr_arc (start -2.094804 2.094804) (end -1.594804 -1.404657) (angle 73.737323) (width 0.2))
      (gr_line (start 0.24231 1.594804) (end 1.404657 1.594804) (width 0.2))
      (gr_line (start -1.594804 -0.24231) (end -1.594804 -1.404657) (width 0.2))
    ))
  (pad 1 smd custom (at 2.975 0) (size 1.05 1.05) (layers F.Cu F.Mask)
    (options (clearance outline) (anchor circle))
    (primitives
      (gr_circle (center -2.975 0) (end 0 0) (width 1.45))
    ))
  (pad 1 smd circle (at 0 2.975) (size 1.05 1.05) (layers F.Cu))
  (pad 1 smd circle (at -2.975 0) (size 1.05 1.05) (layers F.Cu))
  (pad 1 smd circle (at 0 -2.975) (size 1.05 1.05) (layers F.Cu))
  (pad "" np_thru_hole circle (at 0 0) (size 4.4 4.4) (drill 4.4) (layers *.Cu *.Mask))
  (fp_text user %R (at 0 0) (layer F.Fab)
    (effects (font (size 1 1) (thickness 0.15)))
  )
  (model ${KICAD6_3DMODEL_DIR}/Mounting_Wuerth.3dshapes/Mounting_Wuerth_WA-SMSR-M3_H8.6mm_ReverseMount_9775086360.wrl
    (at (xyz 0 0 0))
    (scale (xyz 1 1 1))
    (rotate (xyz 0 0 0))
  )
)