(module Mounting_Wuerth_WA-SMSI-M1.6_H3mm_ThreadDepth1.8mm_97730306332 (layer F.Cu) (tedit 5E1DC566)
  (descr "Mounting Hardware, inside blind hole M1.6, height 3, Wuerth electronics 97730306332 (https://katalog.we-online.com/em/datasheet/97730306332.pdf), generated with kicad-footprint-generator")
  (tags "Mounting M1.6 97730306332")
  (attr smd)
  (fp_text reference REF** (at 0 -2.95) (layer F.SilkS)
    (effects (font (size 1 1) (thickness 0.15)))
  )
  (fp_text value Mounting_Wuerth_WA-SMSI-M1.6_H3mm_ThreadDepth1.8mm_97730306332 (at 0 2.95) (layer F.Fab)
    (effects (font (size 1 1) (thickness 0.15)))
  )
  (fp_circle (center 0 0) (end 1.65 0) (layer F.Fab) (width 0.1))
  (fp_circle (center 0 0) (end 2.25 0) (layer F.CrtYd) (width 0.05))
  (pad "" smd custom (at 0 1.25) (size 0.9 0.9) (layers F.Paste)
    (options (clearance outline) (anchor circle))
    (primitives
      (gr_arc (start 0 -1.25) (end 0.259808 -0.6) (angle 43.573579) (width 0.2))
      (gr_arc (start 0 -1.25) (end 0.466369 -0.6) (angle 71.318175) (width 0.2))
      (gr_arc (start 0 -1.25) (end 0.622495 -0.6) (angle 87.523485) (width 0.2))
      (gr_arc (start 0 -1.25) (end 0.759934 -0.6) (angle 98.916796) (width 0.2))
      (gr_arc (start 0 -1.25) (end 0.887412 -0.6) (angle 107.556907) (width 0.2))
      (gr_arc (start 0 -1.25) (end 1.008712 -0.6) (angle 114.405663) (width 0.2))
      (gr_arc (start 0 -1.25) (end 1.125833 -0.6) (angle 120) (width 0.2))
      (gr_arc (start 0 -1.25) (end 1.23996 -0.6) (angle 124.671991) (width 0.2))
      (gr_arc (start 0 -1.25) (end 1.351851 -0.6) (angle 128.641423) (width 0.2))
      (gr_arc (start 0 -1.25) (end 1.462019 -0.6) (angle 132.061035) (width 0.2))
      (gr_arc (start 0 -1.25) (end 1.570828 -0.6) (angle 135.040989) (width 0.2))
      (gr_arc (start 0 -1.25) (end 1.678541 -0.6) (angle 137.663102) (width 0.2))
      (gr_line (start -0.259808 -0.6) (end -1.678541 -0.6) (width 0.2))
      (gr_line (start 0.259808 -0.6) (end 1.678541 -0.6) (width 0.2))
    ))
  (pad "" smd custom (at 0 -1.25) (size 0.9 0.9) (layers F.Paste)
    (options (clearance outline) (anchor circle))
    (primitives
      (gr_arc (start 0 1.25) (end -0.259808 0.6) (angle 43.573579) (width 0.2))
      (gr_arc (start 0 1.25) (end -0.466369 0.6) (angle 71.318175) (width 0.2))
      (gr_arc (start 0 1.25) (end -0.622495 0.6) (angle 87.523485) (width 0.2))
      (gr_arc (start 0 1.25) (end -0.759934 0.6) (angle 98.916796) (width 0.2))
      (gr_arc (start 0 1.25) (end -0.887412 0.6) (angle 107.556907) (width 0.2))
      (gr_arc (start 0 1.25) (end -1.008712 0.6) (angle 114.405663) (width 0.2))
      (gr_arc (start 0 1.25) (end -1.125833 0.6) (angle 120) (width 0.2))
      (gr_arc (start 0 1.25) (end -1.23996 0.6) (angle 124.671991) (width 0.2))
      (gr_arc (start 0 1.25) (end -1.351851 0.6) (angle 128.641423) (width 0.2))
      (gr_arc (start 0 1.25) (end -1.462019 0.6) (angle 132.061035) (width 0.2))
      (gr_arc (start 0 1.25) (end -1.570828 0.6) (angle 135.040989) (width 0.2))
      (gr_arc (start 0 1.25) (end -1.678541 0.6) (angle 137.663102) (width 0.2))
      (gr_line (start 0.259808 0.6) (end 1.678541 0.6) (width 0.2))
      (gr_line (start -0.259808 0.6) (end -1.678541 0.6) (width 0.2))
    ))
  (pad 1 smd custom (at 1.25 0) (size 1.1 1.1) (layers F.Cu F.Mask)
    (options (clearance outline) (anchor circle))
    (primitives
      (gr_circle (center -1.25 0) (end 0 0) (width 1.5))
    ))
  (pad 1 smd circle (at 0 1.25) (size 1.1 1.1) (layers F.Cu))
  (pad 1 smd circle (at -1.25 0) (size 1.1 1.1) (layers F.Cu))
  (pad 1 smd circle (at 0 -1.25) (size 1.1 1.1) (layers F.Cu))
  (pad "" np_thru_hole circle (at 0 0) (size 1 1) (drill 1) (layers *.Cu *.Mask))
  (fp_text user %R (at 0 0) (layer F.Fab)
    (effects (font (size 0.82 0.82) (thickness 0.12)))
  )
  (model ${KICAD6_3DMODEL_DIR}/Mounting_Wuerth.3dshapes/Mounting_Wuerth_WA-SMSI-M1.6_H3mm_ThreadDepth1.8mm_97730306332.wrl
    (at (xyz 0 0 0))
    (scale (xyz 1 1 1))
    (rotate (xyz 0 0 0))
  )
)