(module Mounting_Wuerth_WA-SMSI-M1.6_H4mm_ThreadDepth2mm_97730406334 (layer F.Cu) (tedit 5E1DC566)
  (descr "Mounting Hardware, inside blind hole M1.6, height 4, Wuerth electronics 97730406334 (https://katalog.we-online.com/em/datasheet/97730406334.pdf), generated with kicad-footprint-generator")
  (tags "Mounting M1.6 97730406334")
  (attr smd)
  (fp_text reference REF** (at 0 -2.95) (layer F.SilkS)
    (effects (font (size 1 1) (thickness 0.15)))
  )
  (fp_text value Mounting_Wuerth_WA-SMSI-M1.6_H4mm_ThreadDepth2mm_97730406334 (at 0 2.95) (layer F.Fab)
    (effects (font (size 1 1) (thickness 0.15)))
  )
  (fp_circle (center 0 0) (end 1.65 0) (layer F.Fab) (width 0.1))
  (fp_circle (center 0 0) (end 2.25 0) (layer F.CrtYd) (width 0.05))
  (pad "" smd custom (at 1.06066 1.06066) (size 0.4 0.4) (layers F.Paste)
    (options (clearance outline) (anchor circle))
    (primitives
      (gr_arc (start -1.06066 -1.06066) (end 0.101235 -0.76066) (angle 61.044976) (width 0.2))
      (gr_arc (start -1.06066 -1.06066) (end 0.204251 -0.76066) (angle 63.315272) (width 0.2))
      (gr_arc (start -1.06066 -1.06066) (end 0.306819 -0.76066) (angle 65.25275) (width 0.2))
      (gr_arc (start -1.06066 -1.06066) (end 0.409034 -0.76066) (angle 66.926082) (width 0.2))
      (gr_arc (start -1.06066 -1.06066) (end 0.510963 -0.76066) (angle 68.386154) (width 0.2))
      (gr_arc (start -1.06066 -1.06066) (end 0.61266 -0.76066) (angle 69.671503) (width 0.2))
      (gr_arc (start -1.06066 -1.06066) (end 0.714164 -0.76066) (angle 70.811864) (width 0.2))
      (gr_line (start -0.76066 0.101235) (end -0.76066 0.714164) (width 0.2))
      (gr_line (start 0.101235 -0.76066) (end 0.714164 -0.76066) (width 0.2))
    ))
  (pad "" smd custom (at -1.06066 1.06066) (size 0.4 0.4) (layers F.Paste)
    (options (clearance outline) (anchor circle))
    (primitives
      (gr_arc (start 1.06066 -1.06066) (end 0.76066 0.101235) (angle 61.044976) (width 0.2))
      (gr_arc (start 1.06066 -1.06066) (end 0.76066 0.204251) (angle 63.315272) (width 0.2))
      (gr_arc (start 1.06066 -1.06066) (end 0.76066 0.306819) (angle 65.25275) (width 0.2))
      (gr_arc (start 1.06066 -1.06066) (end 0.76066 0.409034) (angle 66.926082) (width 0.2))
      (gr_arc (start 1.06066 -1.06066) (end 0.76066 0.510963) (angle 68.386154) (width 0.2))
      (gr_arc (start 1.06066 -1.06066) (end 0.76066 0.61266) (angle 69.671503) (width 0.2))
      (gr_arc (start 1.06066 -1.06066) (end 0.76066 0.714164) (angle 70.811864) (width 0.2))
      (gr_line (start -0.101235 -0.76066) (end -0.714164 -0.76066) (width 0.2))
      (gr_line (start 0.76066 0.101235) (end 0.76066 0.714164) (width 0.2))
    ))
  (pad "" smd custom (at -1.06066 -1.06066) (size 0.4 0.4) (layers F.Paste)
    (options (clearance outline) (anchor circle))
    (primitives
      (gr_arc (start 1.06066 1.06066) (end -0.101235 0.76066) (angle 61.044976) (width 0.2))
      (gr_arc (start 1.06066 1.06066) (end -0.204251 0.76066) (angle 63.315272) (width 0.2))
      (gr_arc (start 1.06066 1.06066) (end -0.306819 0.76066) (angle 65.25275) (width 0.2))
      (gr_arc (start 1.06066 1.06066) (end -0.409034 0.76066) (angle 66.926082) (width 0.2))
      (gr_arc (start 1.06066 1.06066) (end -0.510963 0.76066) (angle 68.386154) (width 0.2))
      (gr_arc (start 1.06066 1.06066) (end -0.61266 0.76066) (angle 69.671503) (width 0.2))
      (gr_arc (start 1.06066 1.06066) (end -0.714164 0.76066) (angle 70.811864) (width 0.2))
      (gr_line (start 0.76066 -0.101235) (end 0.76066 -0.714164) (width 0.2))
      (gr_line (start -0.101235 0.76066) (end -0.714164 0.76066) (width 0.2))
    ))
  (pad "" smd custom (at 1.06066 -1.06066) (size 0.4 0.4) (layers F.Paste)
    (options (clearance outline) (anchor circle))
    (primitives
      (gr_arc (start -1.06066 1.06066) (end -0.76066 -0.101235) (angle 61.044976) (width 0.2))
      (gr_arc (start -1.06066 1.06066) (end -0.76066 -0.204251) (angle 63.315272) (width 0.2))
      (gr_arc (start -1.06066 1.06066) (end -0.76066 -0.306819) (angle 65.25275) (width 0.2))
      (gr_arc (start -1.06066 1.06066) (end -0.76066 -0.409034) (angle 66.926082) (width 0.2))
      (gr_arc (start -1.06066 1.06066) (end -0.76066 -0.510963) (angle 68.386154) (width 0.2))
      (gr_arc (start -1.06066 1.06066) (end -0.76066 -0.61266) (angle 69.671503) (width 0.2))
      (gr_arc (start -1.06066 1.06066) (end -0.76066 -0.714164) (angle 70.811864) (width 0.2))
      (gr_line (start 0.101235 0.76066) (end 0.714164 0.76066) (width 0.2))
      (gr_line (start -0.76066 -0.101235) (end -0.76066 -0.714164) (width 0.2))
    ))
  (pad 1 smd custom (at 1.525 0) (size 0.55 0.55) (layers F.Cu F.Mask)
    (options (clearance outline) (anchor circle))
    (primitives
      (gr_circle (center -1.525 0) (end 0 0) (width 0.95))
    ))
  (pad 1 smd circle (at 0 1.525) (size 0.55 0.55) (layers F.Cu))
  (pad 1 smd circle (at -1.525 0) (size 0.55 0.55) (layers F.Cu))
  (pad 1 smd circle (at 0 -1.525) (size 0.55 0.55) (layers F.Cu))
  (pad "" np_thru_hole circle (at 0 0) (size 2.1 2.1) (drill 2.1) (layers *.Cu *.Mask))
  (fp_text user %R (at 0 0) (layer F.Fab)
    (effects (font (size 0.82 0.82) (thickness 0.12)))
  )
  (model ${KICAD6_3DMODEL_DIR}/Mounting_Wuerth.3dshapes/Mounting_Wuerth_WA-SMSI-M1.6_H4mm_ThreadDepth2mm_97730406334.wrl
    (at (xyz 0 0 0))
    (scale (xyz 1 1 1))
    (rotate (xyz 0 0 0))
  )
)