(module Mounting_Wuerth_WA-SMSI-M2_H6mm_9774060243 (layer F.Cu) (tedit 5E1DC567)
  (descr "Mounting Hardware, inside through hole M2, height 6, Wuerth electronics 9774060243 (https://katalog.we-online.de/em/datasheet/9774060243.pdf), generated with kicad-footprint-generator")
  (tags "Mounting M2 9774060243")
  (attr smd)
  (fp_text reference REF** (at 0 -3.6) (layer F.SilkS)
    (effects (font (size 1 1) (thickness 0.15)))
  )
  (fp_text value Mounting_Wuerth_WA-SMSI-M2_H6mm_9774060243 (at 0 3.6) (layer F.Fab)
    (effects (font (size 1 1) (thickness 0.15)))
  )
  (fp_circle (center 0 0) (end 2.175 0) (layer F.Fab) (width 0.1))
  (fp_circle (center 0 0) (end 2.9 0) (layer F.CrtYd) (width 0.05))
  (pad "" smd custom (at 1.453104 1.453104) (size 0.61 0.61) (layers F.Paste)
    (options (clearance outline) (anchor circle))
    (primitives
      (gr_arc (start -1.453104 -1.453104) (end 0.147677 -1.053104) (angle 61.940669) (width 0.2))
      (gr_arc (start -1.453104 -1.453104) (end 0.240295 -1.053104) (angle 63.419391) (width 0.2))
      (gr_arc (start -1.453104 -1.453104) (end 0.332645 -1.053104) (angle 64.748803) (width 0.2))
      (gr_arc (start -1.453104 -1.453104) (end 0.424767 -1.053104) (angle 65.950602) (width 0.2))
      (gr_arc (start -1.453104 -1.453104) (end 0.516693 -1.053104) (angle 67.042443) (width 0.2))
      (gr_arc (start -1.453104 -1.453104) (end 0.608448 -1.053104) (angle 68.038849) (width 0.2))
      (gr_arc (start -1.453104 -1.453104) (end 0.700056 -1.053104) (angle 68.95188) (width 0.2))
      (gr_arc (start -1.453104 -1.453104) (end 0.791534 -1.053104) (angle 69.791635) (width 0.2))
      (gr_arc (start -1.453104 -1.453104) (end 0.882896 -1.053104) (angle 70.566635) (width 0.2))
      (gr_arc (start -1.453104 -1.453104) (end 0.974157 -1.053104) (angle 71.284127) (width 0.2))
      (gr_line (start -1.053104 0.147677) (end -1.053104 0.974157) (width 0.2))
      (gr_line (start 0.147677 -1.053104) (end 0.974157 -1.053104) (width 0.2))
    ))
  (pad "" smd custom (at -1.453104 1.453104) (size 0.61 0.61) (layers F.Paste)
    (options (clearance outline) (anchor circle))
    (primitives
      (gr_arc (start 1.453104 -1.453104) (end 1.053104 0.147677) (angle 61.940669) (width 0.2))
      (gr_arc (start 1.453104 -1.453104) (end 1.053104 0.240295) (angle 63.419391) (width 0.2))
      (gr_arc (start 1.453104 -1.453104) (end 1.053104 0.332645) (angle 64.748803) (width 0.2))
      (gr_arc (start 1.453104 -1.453104) (end 1.053104 0.424767) (angle 65.950602) (width 0.2))
      (gr_arc (start 1.453104 -1.453104) (end 1.053104 0.516693) (angle 67.042443) (width 0.2))
      (gr_arc (start 1.453104 -1.453104) (end 1.053104 0.608448) (angle 68.038849) (width 0.2))
      (gr_arc (start 1.453104 -1.453104) (end 1.053104 0.700056) (angle 68.95188) (width 0.2))
      (gr_arc (start 1.453104 -1.453104) (end 1.053104 0.791534) (angle 69.791635) (width 0.2))
      (gr_arc (start 1.453104 -1.453104) (end 1.053104 0.882896) (angle 70.566635) (width 0.2))
      (gr_arc (start 1.453104 -1.453104) (end 1.053104 0.974157) (angle 71.284127) (width 0.2))
      (gr_line (start -0.147677 -1.053104) (end -0.974157 -1.053104) (width 0.2))
      (gr_line (start 1.053104 0.147677) (end 1.053104 0.974157) (width 0.2))
    ))
  (pad "" smd custom (at -1.453104 -1.453104) (size 0.61 0.61) (layers F.Paste)
    (options (clearance outline) (anchor circle))
    (primitives
      (gr_arc (start 1.453104 1.453104) (end -0.147677 1.053104) (angle 61.940669) (width 0.2))
      (gr_arc (start 1.453104 1.453104) (end -0.240295 1.053104) (angle 63.419391) (width 0.2))
      (gr_arc (start 1.453104 1.453104) (end -0.332645 1.053104) (angle 64.748803) (width 0.2))
      (gr_arc (start 1.453104 1.453104) (end -0.424767 1.053104) (angle 65.950602) (width 0.2))
      (gr_arc (start 1.453104 1.453104) (end -0.516693 1.053104) (angle 67.042443) (width 0.2))
      (gr_arc (start 1.453104 1.453104) (end -0.608448 1.053104) (angle 68.038849) (width 0.2))
      (gr_arc (start 1.453104 1.453104) (end -0.700056 1.053104) (angle 68.95188) (width 0.2))
      (gr_arc (start 1.453104 1.453104) (end -0.791534 1.053104) (angle 69.791635) (width 0.2))
      (gr_arc (start 1.453104 1.453104) (end -0.882896 1.053104) (angle 70.566635) (width 0.2))
      (gr_arc (start 1.453104 1.453104) (end -0.974157 1.053104) (angle 71.284127) (width 0.2))
      (gr_line (start 1.053104 -0.147677) (end 1.053104 -0.974157) (width 0.2))
      (gr_line (start -0.147677 1.053104) (end -0.974157 1.053104) (width 0.2))
    ))
  (pad "" smd custom (at 1.453104 -1.453104) (size 0.61 0.61) (layers F.Paste)
    (options (clearance outline) (anchor circle))
    (primitives
      (gr_arc (start -1.453104 1.453104) (end -1.053104 -0.147677) (angle 61.940669) (width 0.2))
      (gr_arc (start -1.453104 1.453104) (end -1.053104 -0.240295) (angle 63.419391) (width 0.2))
      (gr_arc (start -1.453104 1.453104) (end -1.053104 -0.332645) (angle 64.748803) (width 0.2))
      (gr_arc (start -1.453104 1.453104) (end -1.053104 -0.424767) (angle 65.950602) (width 0.2))
      (gr_arc (start -1.453104 1.453104) (end -1.053104 -0.516693) (angle 67.042443) (width 0.2))
      (gr_arc (start -1.453104 1.453104) (end -1.053104 -0.608448) (angle 68.038849) (width 0.2))
      (gr_arc (start -1.453104 1.453104) (end -1.053104 -0.700056) (angle 68.95188) (width 0.2))
      (gr_arc (start -1.453104 1.453104) (end -1.053104 -0.791534) (angle 69.791635) (width 0.2))
      (gr_arc (start -1.453104 1.453104) (end -1.053104 -0.882896) (angle 70.566635) (width 0.2))
      (gr_arc (start -1.453104 1.453104) (end -1.053104 -0.974157) (angle 71.284127) (width 0.2))
      (gr_line (start 0.147677 1.053104) (end 0.974157 1.053104) (width 0.2))
      (gr_line (start -1.053104 -0.147677) (end -1.053104 -0.974157) (width 0.2))
    ))
  (pad 1 smd custom (at 2.075 0) (size 0.75 0.75) (layers F.Cu F.Mask)
    (options (clearance outline) (anchor circle))
    (primitives
      (gr_circle (center -2.075 0) (end 0 0) (width 1.15))
    ))
  (pad 1 smd circle (at 0 2.075) (size 0.75 0.75) (layers F.Cu))
  (pad 1 smd circle (at -2.075 0) (size 0.75 0.75) (layers F.Cu))
  (pad 1 smd circle (at 0 -2.075) (size 0.75 0.75) (layers F.Cu))
  (pad "" np_thru_hole circle (at 0 0) (size 3 3) (drill 3) (layers *.Cu *.Mask))
  (fp_text user %R (at 0 0) (layer F.Fab)
    (effects (font (size 1 1) (thickness 0.15)))
  )
  (model ${KICAD6_3DMODEL_DIR}/Mounting_Wuerth.3dshapes/Mounting_Wuerth_WA-SMSI-M2_H6mm_9774060243.wrl
    (at (xyz 0 0 0))
    (scale (xyz 1 1 1))
    (rotate (xyz 0 0 0))
  )
)