(module Mounting_Wuerth_WA-SMST-2.7mm_H8mm_9774080951 (layer F.Cu) (tedit 5E1DC565)
  (descr "Mounting Hardware, inside through hole 2.7mm, height 8, Wuerth electronics 9774080951 (https://katalog.we-online.de/em/datasheet/9774080951.pdf), generated with kicad-footprint-generator")
  (tags "Mounting 2.7mm 9774080951")
  (attr smd)
  (fp_text reference REF** (at 0 -3.95) (layer F.SilkS)
    (effects (font (size 1 1) (thickness 0.15)))
  )
  (fp_text value Mounting_Wuerth_WA-SMST-2.7mm_H8mm_9774080951 (at 0 3.95) (layer F.Fab)
    (effects (font (size 1 1) (thickness 0.15)))
  )
  (fp_circle (center 0 0) (end 2.55 0) (layer F.Fab) (width 0.1))
  (fp_circle (center 0 0) (end 3.25 0) (layer F.CrtYd) (width 0.05))
  (pad "" smd custom (at 1.704127 1.704127) (size 0.62 0.62) (layers F.Paste)
    (options (clearance outline) (anchor circle))
    (primitives
      (gr_arc (start -1.704127 -1.704127) (end 0.250195 -1.279127) (angle 65.462202) (width 0.2))
      (gr_arc (start -1.704127 -1.704127) (end 0.34334 -1.279127) (angle 66.546876) (width 0.2))
      (gr_arc (start -1.704127 -1.704127) (end 0.436309 -1.279127) (angle 67.539106) (width 0.2))
      (gr_arc (start -1.704127 -1.704127) (end 0.529126 -1.279127) (angle 68.450297) (width 0.2))
      (gr_arc (start -1.704127 -1.704127) (end 0.621807 -1.279127) (angle 69.290041) (width 0.2))
      (gr_arc (start -1.704127 -1.704127) (end 0.71437 -1.279127) (angle 70.066467) (width 0.2))
      (gr_arc (start -1.704127 -1.704127) (end 0.806826 -1.279127) (angle 70.78651) (width 0.2))
      (gr_arc (start -1.704127 -1.704127) (end 0.899187 -1.279127) (angle 71.456123) (width 0.2))
      (gr_arc (start -1.704127 -1.704127) (end 0.991463 -1.279127) (angle 72.080446) (width 0.2))
      (gr_arc (start -1.704127 -1.704127) (end 1.083663 -1.279127) (angle 72.663942) (width 0.2))
      (gr_line (start -1.279127 0.250195) (end -1.279127 1.083663) (width 0.2))
      (gr_line (start 0.250195 -1.279127) (end 1.083663 -1.279127) (width 0.2))
    ))
  (pad "" smd custom (at -1.704127 1.704127) (size 0.62 0.62) (layers F.Paste)
    (options (clearance outline) (anchor circle))
    (primitives
      (gr_arc (start 1.704127 -1.704127) (end 1.279127 0.250195) (angle 65.462202) (width 0.2))
      (gr_arc (start 1.704127 -1.704127) (end 1.279127 0.34334) (angle 66.546876) (width 0.2))
      (gr_arc (start 1.704127 -1.704127) (end 1.279127 0.436309) (angle 67.539106) (width 0.2))
      (gr_arc (start 1.704127 -1.704127) (end 1.279127 0.529126) (angle 68.450297) (width 0.2))
      (gr_arc (start 1.704127 -1.704127) (end 1.279127 0.621807) (angle 69.290041) (width 0.2))
      (gr_arc (start 1.704127 -1.704127) (end 1.279127 0.71437) (angle 70.066467) (width 0.2))
      (gr_arc (start 1.704127 -1.704127) (end 1.279127 0.806826) (angle 70.78651) (width 0.2))
      (gr_arc (start 1.704127 -1.704127) (end 1.279127 0.899187) (angle 71.456123) (width 0.2))
      (gr_arc (start 1.704127 -1.704127) (end 1.279127 0.991463) (angle 72.080446) (width 0.2))
      (gr_arc (start 1.704127 -1.704127) (end 1.279127 1.083663) (angle 72.663942) (width 0.2))
      (gr_line (start -0.250195 -1.279127) (end -1.083663 -1.279127) (width 0.2))
      (gr_line (start 1.279127 0.250195) (end 1.279127 1.083663) (width 0.2))
    ))
  (pad "" smd custom (at -1.704127 -1.704127) (size 0.62 0.62) (layers F.Paste)
    (options (clearance outline) (anchor circle))
    (primitives
      (gr_arc (start 1.704127 1.704127) (end -0.250195 1.279127) (angle 65.462202) (width 0.2))
      (gr_arc (start 1.704127 1.704127) (end -0.34334 1.279127) (angle 66.546876) (width 0.2))
      (gr_arc (start 1.704127 1.704127) (end -0.436309 1.279127) (angle 67.539106) (width 0.2))
      (gr_arc (start 1.704127 1.704127) (end -0.529126 1.279127) (angle 68.450297) (width 0.2))
      (gr_arc (start 1.704127 1.704127) (end -0.621807 1.279127) (angle 69.290041) (width 0.2))
      (gr_arc (start 1.704127 1.704127) (end -0.71437 1.279127) (angle 70.066467) (width 0.2))
      (gr_arc (start 1.704127 1.704127) (end -0.806826 1.279127) (angle 70.78651) (width 0.2))
      (gr_arc (start 1.704127 1.704127) (end -0.899187 1.279127) (angle 71.456123) (width 0.2))
      (gr_arc (start 1.704127 1.704127) (end -0.991463 1.279127) (angle 72.080446) (width 0.2))
      (gr_arc (start 1.704127 1.704127) (end -1.083663 1.279127) (angle 72.663942) (width 0.2))
      (gr_line (start 1.279127 -0.250195) (end 1.279127 -1.083663) (width 0.2))
      (gr_line (start -0.250195 1.279127) (end -1.083663 1.279127) (width 0.2))
    ))
  (pad "" smd custom (at 1.704127 -1.704127) (size 0.62 0.62) (layers F.Paste)
    (options (clearance outline) (anchor circle))
    (primitives
      (gr_arc (start -1.704127 1.704127) (end -1.279127 -0.250195) (angle 65.462202) (width 0.2))
      (gr_arc (start -1.704127 1.704127) (end -1.279127 -0.34334) (angle 66.546876) (width 0.2))
      (gr_arc (start -1.704127 1.704127) (end -1.279127 -0.436309) (angle 67.539106) (width 0.2))
      (gr_arc (start -1.704127 1.704127) (end -1.279127 -0.529126) (angle 68.450297) (width 0.2))
      (gr_arc (start -1.704127 1.704127) (end -1.279127 -0.621807) (angle 69.290041) (width 0.2))
      (gr_arc (start -1.704127 1.704127) (end -1.279127 -0.71437) (angle 70.066467) (width 0.2))
      (gr_arc (start -1.704127 1.704127) (end -1.279127 -0.806826) (angle 70.78651) (width 0.2))
      (gr_arc (start -1.704127 1.704127) (end -1.279127 -0.899187) (angle 71.456123) (width 0.2))
      (gr_arc (start -1.704127 1.704127) (end -1.279127 -0.991463) (angle 72.080446) (width 0.2))
      (gr_arc (start -1.704127 1.704127) (end -1.279127 -1.083663) (angle 72.663942) (width 0.2))
      (gr_line (start 0.250195 1.279127) (end 1.083663 1.279127) (width 0.2))
      (gr_line (start -1.279127 -0.250195) (end -1.279127 -1.083663) (width 0.2))
    ))
  (pad 1 smd custom (at 2.425 0) (size 0.75 0.75) (layers F.Cu F.Mask)
    (options (clearance outline) (anchor circle))
    (primitives
      (gr_circle (center -2.425 0) (end 0 0) (width 1.15))
    ))
  (pad 1 smd circle (at 0 2.425) (size 0.75 0.75) (layers F.Cu))
  (pad 1 smd circle (at -2.425 0) (size 0.75 0.75) (layers F.Cu))
  (pad 1 smd circle (at 0 -2.425) (size 0.75 0.75) (layers F.Cu))
  (pad "" np_thru_hole circle (at 0 0) (size 3.7 3.7) (drill 3.7) (layers *.Cu *.Mask))
  (fp_text user %R (at 0 0) (layer F.Fab)
    (effects (font (size 1 1) (thickness 0.15)))
  )
  (model ${KICAD6_3DMODEL_DIR}/Mounting_Wuerth.3dshapes/Mounting_Wuerth_WA-SMST-2.7mm_H8mm_9774080951.wrl
    (at (xyz 0 0 0))
    (scale (xyz 1 1 1))
    (rotate (xyz 0 0 0))
  )
)