(module Mounting_Wuerth_WA-SMSE-ExternalM3_H5mm_9771050360 (layer F.Cu) (tedit 5E1DC569)
  (descr "Mounting Hardware, external M3, height 5, Wuerth electronics 9771050360 (https://katalog.we-online.com/em/datasheet/9771050360.pdf), generated with kicad-footprint-generator")
  (tags "Mounting M3 9771050360")
  (attr smd)
  (fp_text reference REF** (at 0 -4.65) (layer F.SilkS)
    (effects (font (size 1 1) (thickness 0.15)))
  )
  (fp_text value Mounting_Wuerth_WA-SMSE-ExternalM3_H5mm_9771050360 (at 0 4.65) (layer F.Fab)
    (effects (font (size 1 1) (thickness 0.15)))
  )
  (fp_circle (center 0 0) (end 3 0) (layer F.Fab) (width 0.1))
  (fp_circle (center 0 0) (end 3.95 0) (layer F.CrtYd) (width 0.05))
  (pad "" smd custom (at 0 2.1) (size 2.6 2.6) (layers F.Paste)
    (options (clearance outline) (anchor circle))
    (primitives
      (gr_arc (start 0 -2.1) (end 0.305123 -1.47) (angle 51.683866) (width 0.2))
      (gr_arc (start 0 -2.1) (end 0.493052 -1.47) (angle 76.095015) (width 0.2))
      (gr_arc (start 0 -2.1) (end 0.642729 -1.47) (angle 91.145992) (width 0.2))
      (gr_arc (start 0 -2.1) (end 0.776595 -1.47) (angle 101.899755) (width 0.2))
      (gr_arc (start 0 -2.1) (end 0.901721 -1.47) (angle 110.118747) (width 0.2))
      (gr_arc (start 0 -2.1) (end 1.021323 -1.47) (angle 116.663513) (width 0.2))
      (gr_arc (start 0 -2.1) (end 1.137146 -1.47) (angle 122.025447) (width 0.2))
      (gr_arc (start 0 -2.1) (end 1.25024 -1.47) (angle 126.512632) (width 0.2))
      (gr_arc (start 0 -2.1) (end 1.361286 -1.47) (angle 130.330825) (width 0.2))
      (gr_arc (start 0 -2.1) (end 1.470748 -1.47) (angle 133.623925) (width 0.2))
      (gr_arc (start 0 -2.1) (end 1.578955 -1.47) (angle 136.4962) (width 0.2))
      (gr_arc (start 0 -2.1) (end 1.686149 -1.47) (angle 139.02537) (width 0.2))
      (gr_arc (start 0 -2.1) (end 1.792512 -1.47) (angle 141.270722) (width 0.2))
      (gr_arc (start 0 -2.1) (end 1.898183 -1.47) (angle 143.278372) (width 0.2))
      (gr_arc (start 0 -2.1) (end 2.003272 -1.47) (angle 145.084794) (width 0.2))
      (gr_arc (start 0 -2.1) (end 2.107866 -1.47) (angle 146.719246) (width 0.2))
      (gr_arc (start 0 -2.1) (end 2.212035 -1.47) (angle 148.205502) (width 0.2))
      (gr_arc (start 0 -2.1) (end 2.315837 -1.47) (angle 149.56309) (width 0.2))
      (gr_arc (start 0 -2.1) (end 2.419318 -1.47) (angle 150.808213) (width 0.2))
      (gr_arc (start 0 -2.1) (end 2.522519 -1.47) (angle 151.954435) (width 0.2))
      (gr_arc (start 0 -2.1) (end 2.625471 -1.47) (angle 153.013202) (width 0.2))
      (gr_arc (start 0 -2.1) (end 2.728205 -1.47) (angle 153.994244) (width 0.2))
      (gr_arc (start 0 -2.1) (end 2.830742 -1.47) (angle 154.905885) (width 0.2))
      (gr_arc (start 0 -2.1) (end 2.933104 -1.47) (angle 155.755296) (width 0.2))
      (gr_arc (start 0 -2.1) (end 3.035309 -1.47) (angle 156.548682) (width 0.2))
      (gr_arc (start 0 -2.1) (end 3.137372 -1.47) (angle 157.291447) (width 0.2))
      (gr_arc (start 0 -2.1) (end 3.239305 -1.47) (angle 157.988315) (width 0.2))
      (gr_arc (start 0 -2.1) (end 3.341123 -1.47) (angle 158.643439) (width 0.2))
      (gr_arc (start 0 -2.1) (end 3.442833 -1.47) (angle 159.26048) (width 0.2))
      (gr_line (start -0.305123 -1.47) (end -3.442833 -1.47) (width 0.2))
      (gr_line (start 0.305123 -1.47) (end 3.442833 -1.47) (width 0.2))
    ))
  (pad "" smd custom (at 0 -2.1) (size 2.6 2.6) (layers F.Paste)
    (options (clearance outline) (anchor circle))
    (primitives
      (gr_arc (start 0 2.1) (end -0.305123 1.47) (angle 51.683866) (width 0.2))
      (gr_arc (start 0 2.1) (end -0.493052 1.47) (angle 76.095015) (width 0.2))
      (gr_arc (start 0 2.1) (end -0.642729 1.47) (angle 91.145992) (width 0.2))
      (gr_arc (start 0 2.1) (end -0.776595 1.47) (angle 101.899755) (width 0.2))
      (gr_arc (start 0 2.1) (end -0.901721 1.47) (angle 110.118747) (width 0.2))
      (gr_arc (start 0 2.1) (end -1.021323 1.47) (angle 116.663513) (width 0.2))
      (gr_arc (start 0 2.1) (end -1.137146 1.47) (angle 122.025447) (width 0.2))
      (gr_arc (start 0 2.1) (end -1.25024 1.47) (angle 126.512632) (width 0.2))
      (gr_arc (start 0 2.1) (end -1.361286 1.47) (angle 130.330825) (width 0.2))
      (gr_arc (start 0 2.1) (end -1.470748 1.47) (angle 133.623925) (width 0.2))
      (gr_arc (start 0 2.1) (end -1.578955 1.47) (angle 136.4962) (width 0.2))
      (gr_arc (start 0 2.1) (end -1.686149 1.47) (angle 139.02537) (width 0.2))
      (gr_arc (start 0 2.1) (end -1.792512 1.47) (angle 141.270722) (width 0.2))
      (gr_arc (start 0 2.1) (end -1.898183 1.47) (angle 143.278372) (width 0.2))
      (gr_arc (start 0 2.1) (end -2.003272 1.47) (angle 145.084794) (width 0.2))
      (gr_arc (start 0 2.1) (end -2.107866 1.47) (angle 146.719246) (width 0.2))
      (gr_arc (start 0 2.1) (end -2.212035 1.47) (angle 148.205502) (width 0.2))
      (gr_arc (start 0 2.1) (end -2.315837 1.47) (angle 149.56309) (width 0.2))
      (gr_arc (start 0 2.1) (end -2.419318 1.47) (angle 150.808213) (width 0.2))
      (gr_arc (start 0 2.1) (end -2.522519 1.47) (angle 151.954435) (width 0.2))
      (gr_arc (start 0 2.1) (end -2.625471 1.47) (angle 153.013202) (width 0.2))
      (gr_arc (start 0 2.1) (end -2.728205 1.47) (angle 153.994244) (width 0.2))
      (gr_arc (start 0 2.1) (end -2.830742 1.47) (angle 154.905885) (width 0.2))
      (gr_arc (start 0 2.1) (end -2.933104 1.47) (angle 155.755296) (width 0.2))
      (gr_arc (start 0 2.1) (end -3.035309 1.47) (angle 156.548682) (width 0.2))
      (gr_arc (start 0 2.1) (end -3.137372 1.47) (angle 157.291447) (width 0.2))
      (gr_arc (start 0 2.1) (end -3.239305 1.47) (angle 157.988315) (width 0.2))
      (gr_arc (start 0 2.1) (end -3.341123 1.47) (angle 158.643439) (width 0.2))
      (gr_arc (start 0 2.1) (end -3.442833 1.47) (angle 159.26048) (width 0.2))
      (gr_line (start 0.305123 1.47) (end 3.442833 1.47) (width 0.2))
      (gr_line (start -0.305123 1.47) (end -3.442833 1.47) (width 0.2))
    ))
  (pad 1 smd custom (at 2.1 0) (size 2.8 2.8) (layers F.Cu F.Mask)
    (options (clearance outline) (anchor circle))
    (primitives
      (gr_circle (center -2.1 0) (end 0 0) (width 3.2))
    ))
  (pad 1 smd circle (at 0 2.1) (size 2.8 2.8) (layers F.Cu))
  (pad 1 smd circle (at -2.1 0) (size 2.8 2.8) (layers F.Cu))
  (pad 1 smd circle (at 0 -2.1) (size 2.8 2.8) (layers F.Cu))
  (pad "" np_thru_hole circle (at 0 0) (size 1 1) (drill 1) (layers *.Cu *.Mask))
  (fp_text user %R (at 0 0) (layer F.Fab)
    (effects (font (size 1 1) (thickness 0.15)))
  )
  (model ${KICAD6_3DMODEL_DIR}/Mounting_Wuerth.3dshapes/Mounting_Wuerth_WA-SMSE-ExternalM3_H5mm_9771050360.wrl
    (at (xyz 0 0 0))
    (scale (xyz 1 1 1))
    (rotate (xyz 0 0 0))
  )
)