(module Mounting_Wuerth_WA-SMSI-4.5mm_H2mm_9774020482 (layer F.Cu) (tedit 5E1DC567)
  (descr "Mounting Hardware, inside through hole 4.5mm, height 2, Wuerth electronics 9774020482 (https://katalog.we-online.de/em/datasheet/9774020482.pdf), generated with kicad-footprint-generator")
  (tags "Mounting 4.5mm 9774020482")
  (attr smd)
  (fp_text reference REF** (at 0 -5.65) (layer F.SilkS)
    (effects (font (size 1 1) (thickness 0.15)))
  )
  (fp_text value Mounting_Wuerth_WA-SMSI-4.5mm_H2mm_9774020482 (at 0 5.65) (layer F.Fab)
    (effects (font (size 1 1) (thickness 0.15)))
  )
  (fp_circle (center 0 0) (end 4.1 0) (layer F.Fab) (width 0.1))
  (fp_circle (center 0 0) (end 4.95 0) (layer F.CrtYd) (width 0.05))
  (pad "" smd custom (at 2.607456 2.607456) (size 1.495 1.495) (layers F.Paste)
    (options (clearance outline) (anchor circle))
    (primitives
      (gr_arc (start -2.607456 -2.607456) (end 0.188183 -2.107456) (angle 69.719727) (width 0.2))
      (gr_arc (start -2.607456 -2.607456) (end 0.289416 -2.107456) (angle 70.414473) (width 0.2))
      (gr_arc (start -2.607456 -2.607456) (end 0.390547 -2.107456) (angle 71.06298) (width 0.2))
      (gr_arc (start -2.607456 -2.607456) (end 0.491585 -2.107456) (angle 71.669736) (width 0.2))
      (gr_arc (start -2.607456 -2.607456) (end 0.59254 -2.107456) (angle 72.238663) (width 0.2))
      (gr_arc (start -2.607456 -2.607456) (end 0.693419 -2.107456) (angle 72.773205) (width 0.2))
      (gr_arc (start -2.607456 -2.607456) (end 0.794229 -2.107456) (angle 73.276399) (width 0.2))
      (gr_arc (start -2.607456 -2.607456) (end 0.894975 -2.107456) (angle 73.750934) (width 0.2))
      (gr_arc (start -2.607456 -2.607456) (end 0.995664 -2.107456) (angle 74.199197) (width 0.2))
      (gr_arc (start -2.607456 -2.607456) (end 1.0963 -2.107456) (angle 74.623318) (width 0.2))
      (gr_arc (start -2.607456 -2.607456) (end 1.196886 -2.107456) (angle 75.025202) (width 0.2))
      (gr_arc (start -2.607456 -2.607456) (end 1.297427 -2.107456) (angle 75.406558) (width 0.2))
      (gr_arc (start -2.607456 -2.607456) (end 1.397927 -2.107456) (angle 75.768923) (width 0.2))
      (gr_arc (start -2.607456 -2.607456) (end 1.498388 -2.107456) (angle 76.113685) (width 0.2))
      (gr_arc (start -2.607456 -2.607456) (end 1.598813 -2.107456) (angle 76.442099) (width 0.2))
      (gr_arc (start -2.607456 -2.607456) (end 1.699204 -2.107456) (angle 76.755304) (width 0.2))
      (gr_arc (start -2.607456 -2.607456) (end 1.799565 -2.107456) (angle 77.054334) (width 0.2))
      (gr_arc (start -2.607456 -2.607456) (end 1.899896 -2.107456) (angle 77.340133) (width 0.2))
      (gr_arc (start -2.607456 -2.607456) (end 1.899896 -2.107456) (angle 77.340133) (width 0.2))
      (gr_line (start -2.107456 0.188183) (end -2.107456 1.899896) (width 0.2))
      (gr_line (start 0.188183 -2.107456) (end 1.899896 -2.107456) (width 0.2))
    ))
  (pad "" smd custom (at -2.607456 2.607456) (size 1.495 1.495) (layers F.Paste)
    (options (clearance outline) (anchor circle))
    (primitives
      (gr_arc (start 2.607456 -2.607456) (end 2.107456 0.188183) (angle 69.719727) (width 0.2))
      (gr_arc (start 2.607456 -2.607456) (end 2.107456 0.289416) (angle 70.414473) (width 0.2))
      (gr_arc (start 2.607456 -2.607456) (end 2.107456 0.390547) (angle 71.06298) (width 0.2))
      (gr_arc (start 2.607456 -2.607456) (end 2.107456 0.491585) (angle 71.669736) (width 0.2))
      (gr_arc (start 2.607456 -2.607456) (end 2.107456 0.59254) (angle 72.238663) (width 0.2))
      (gr_arc (start 2.607456 -2.607456) (end 2.107456 0.693419) (angle 72.773205) (width 0.2))
      (gr_arc (start 2.607456 -2.607456) (end 2.107456 0.794229) (angle 73.276399) (width 0.2))
      (gr_arc (start 2.607456 -2.607456) (end 2.107456 0.894975) (angle 73.750934) (width 0.2))
      (gr_arc (start 2.607456 -2.607456) (end 2.107456 0.995664) (angle 74.199197) (width 0.2))
      (gr_arc (start 2.607456 -2.607456) (end 2.107456 1.0963) (angle 74.623318) (width 0.2))
      (gr_arc (start 2.607456 -2.607456) (end 2.107456 1.196886) (angle 75.025202) (width 0.2))
      (gr_arc (start 2.607456 -2.607456) (end 2.107456 1.297427) (angle 75.406558) (width 0.2))
      (gr_arc (start 2.607456 -2.607456) (end 2.107456 1.397927) (angle 75.768923) (width 0.2))
      (gr_arc (start 2.607456 -2.607456) (end 2.107456 1.498388) (angle 76.113685) (width 0.2))
      (gr_arc (start 2.607456 -2.607456) (end 2.107456 1.598813) (angle 76.442099) (width 0.2))
      (gr_arc (start 2.607456 -2.607456) (end 2.107456 1.699204) (angle 76.755304) (width 0.2))
      (gr_arc (start 2.607456 -2.607456) (end 2.107456 1.799565) (angle 77.054334) (width 0.2))
      (gr_arc (start 2.607456 -2.607456) (end 2.107456 1.899896) (angle 77.340133) (width 0.2))
      (gr_arc (start 2.607456 -2.607456) (end 2.107456 1.899896) (angle 77.340133) (width 0.2))
      (gr_line (start -0.188183 -2.107456) (end -1.899896 -2.107456) (width 0.2))
      (gr_line (start 2.107456 0.188183) (end 2.107456 1.899896) (width 0.2))
    ))
  (pad "" smd custom (at -2.607456 -2.607456) (size 1.495 1.495) (layers F.Paste)
    (options (clearance outline) (anchor circle))
    (primitives
      (gr_arc (start 2.607456 2.607456) (end -0.188183 2.107456) (angle 69.719727) (width 0.2))
      (gr_arc (start 2.607456 2.607456) (end -0.289416 2.107456) (angle 70.414473) (width 0.2))
      (gr_arc (start 2.607456 2.607456) (end -0.390547 2.107456) (angle 71.06298) (width 0.2))
      (gr_arc (start 2.607456 2.607456) (end -0.491585 2.107456) (angle 71.669736) (width 0.2))
      (gr_arc (start 2.607456 2.607456) (end -0.59254 2.107456) (angle 72.238663) (width 0.2))
      (gr_arc (start 2.607456 2.607456) (end -0.693419 2.107456) (angle 72.773205) (width 0.2))
      (gr_arc (start 2.607456 2.607456) (end -0.794229 2.107456) (angle 73.276399) (width 0.2))
      (gr_arc (start 2.607456 2.607456) (end -0.894975 2.107456) (angle 73.750934) (width 0.2))
      (gr_arc (start 2.607456 2.607456) (end -0.995664 2.107456) (angle 74.199197) (width 0.2))
      (gr_arc (start 2.607456 2.607456) (end -1.0963 2.107456) (angle 74.623318) (width 0.2))
      (gr_arc (start 2.607456 2.607456) (end -1.196886 2.107456) (angle 75.025202) (width 0.2))
      (gr_arc (start 2.607456 2.607456) (end -1.297427 2.107456) (angle 75.406558) (width 0.2))
      (gr_arc (start 2.607456 2.607456) (end -1.397927 2.107456) (angle 75.768923) (width 0.2))
      (gr_arc (start 2.607456 2.607456) (end -1.498388 2.107456) (angle 76.113685) (width 0.2))
      (gr_arc (start 2.607456 2.607456) (end -1.598813 2.107456) (angle 76.442099) (width 0.2))
      (gr_arc (start 2.607456 2.607456) (end -1.699204 2.107456) (angle 76.755304) (width 0.2))
      (gr_arc (start 2.607456 2.607456) (end -1.799565 2.107456) (angle 77.054334) (width 0.2))
      (gr_arc (start 2.607456 2.607456) (end -1.899896 2.107456) (angle 77.340133) (width 0.2))
      (gr_arc (start 2.607456 2.607456) (end -1.899896 2.107456) (angle 77.340133) (width 0.2))
      (gr_line (start 2.107456 -0.188183) (end 2.107456 -1.899896) (width 0.2))
      (gr_line (start -0.188183 2.107456) (end -1.899896 2.107456) (width 0.2))
    ))
  (pad "" smd custom (at 2.607456 -2.607456) (size 1.495 1.495) (layers F.Paste)
    (options (clearance outline) (anchor circle))
    (primitives
      (gr_arc (start -2.607456 2.607456) (end -2.107456 -0.188183) (angle 69.719727) (width 0.2))
      (gr_arc (start -2.607456 2.607456) (end -2.107456 -0.289416) (angle 70.414473) (width 0.2))
      (gr_arc (start -2.607456 2.607456) (end -2.107456 -0.390547) (angle 71.06298) (width 0.2))
      (gr_arc (start -2.607456 2.607456) (end -2.107456 -0.491585) (angle 71.669736) (width 0.2))
      (gr_arc (start -2.607456 2.607456) (end -2.107456 -0.59254) (angle 72.238663) (width 0.2))
      (gr_arc (start -2.607456 2.607456) (end -2.107456 -0.693419) (angle 72.773205) (width 0.2))
      (gr_arc (start -2.607456 2.607456) (end -2.107456 -0.794229) (angle 73.276399) (width 0.2))
      (gr_arc (start -2.607456 2.607456) (end -2.107456 -0.894975) (angle 73.750934) (width 0.2))
      (gr_arc (start -2.607456 2.607456) (end -2.107456 -0.995664) (angle 74.199197) (width 0.2))
      (gr_arc (start -2.607456 2.607456) (end -2.107456 -1.0963) (angle 74.623318) (width 0.2))
      (gr_arc (start -2.607456 2.607456) (end -2.107456 -1.196886) (angle 75.025202) (width 0.2))
      (gr_arc (start -2.607456 2.607456) (end -2.107456 -1.297427) (angle 75.406558) (width 0.2))
      (gr_arc (start -2.607456 2.607456) (end -2.107456 -1.397927) (angle 75.768923) (width 0.2))
      (gr_arc (start -2.607456 2.607456) (end -2.107456 -1.498388) (angle 76.113685) (width 0.2))
      (gr_arc (start -2.607456 2.607456) (end -2.107456 -1.598813) (angle 76.442099) (width 0.2))
      (gr_arc (start -2.607456 2.607456) (end -2.107456 -1.699204) (angle 76.755304) (width 0.2))
      (gr_arc (start -2.607456 2.607456) (end -2.107456 -1.799565) (angle 77.054334) (width 0.2))
      (gr_arc (start -2.607456 2.607456) (end -2.107456 -1.899896) (angle 77.340133) (width 0.2))
      (gr_arc (start -2.607456 2.607456) (end -2.107456 -1.899896) (angle 77.340133) (width 0.2))
      (gr_line (start 0.188183 2.107456) (end 1.899896 2.107456) (width 0.2))
      (gr_line (start -2.107456 -0.188183) (end -2.107456 -1.899896) (width 0.2))
    ))
  (pad 1 smd custom (at 3.7 0) (size 1.6 1.6) (layers F.Cu F.Mask)
    (options (clearance outline) (anchor circle))
    (primitives
      (gr_circle (center -3.7 0) (end 0 0) (width 2))
    ))
  (pad 1 smd circle (at 0 3.7) (size 1.6 1.6) (layers F.Cu))
  (pad 1 smd circle (at -3.7 0) (size 1.6 1.6) (layers F.Cu))
  (pad 1 smd circle (at 0 -3.7) (size 1.6 1.6) (layers F.Cu))
  (pad "" np_thru_hole circle (at 0 0) (size 5.4 5.4) (drill 5.4) (layers *.Cu *.Mask))
  (fp_text user %R (at 0 0) (layer F.Fab)
    (effects (font (size 1 1) (thickness 0.15)))
  )
  (model ${KICAD6_3DMODEL_DIR}/Mounting_Wuerth.3dshapes/Mounting_Wuerth_WA-SMSI-4.5mm_H2mm_9774020482.wrl
    (at (xyz 0 0 0))
    (scale (xyz 1 1 1))
    (rotate (xyz 0 0 0))
  )
)