(module Wago_734-133_1x03_P3.50mm_Vertical (layer F.Cu) (tedit 5B788E68)
  (descr "Molex 734 Male header (for PCBs); Straight solder pin 1 x 1 mm, 734-133 , 3 Pins (http://www.farnell.com/datasheets/2157639.pdf), generated with kicad-footprint-generator")
  (tags "connector Wago  side entry")
  (fp_text reference REF** (at 3.65 -5.35) (layer F.SilkS)
    (effects (font (size 1 1) (thickness 0.15)))
  )
  (fp_text value Wago_734-133_1x03_P3.50mm_Vertical (at 3.65 5.55) (layer F.Fab)
    (effects (font (size 1 1) (thickness 0.15)))
  )
  (fp_line (start -2.8 -4.15) (end -2.8 4.35) (layer F.Fab) (width 0.1))
  (fp_line (start -2.8 4.35) (end 10.1 4.35) (layer F.Fab) (width 0.1))
  (fp_line (start 10.1 4.35) (end 10.1 -4.15) (layer F.Fab) (width 0.1))
  (fp_line (start 10.1 -4.15) (end -2.8 -4.15) (layer F.Fab) (width 0.1))
  (fp_line (start -2.91 -4.26) (end -2.91 4.46) (layer F.SilkS) (width 0.12))
  (fp_line (start -2.91 4.46) (end 10.21 4.46) (layer F.SilkS) (width 0.12))
  (fp_line (start 10.21 4.46) (end 10.21 -4.26) (layer F.SilkS) (width 0.12))
  (fp_line (start 10.21 -4.26) (end -2.91 -4.26) (layer F.SilkS) (width 0.12))
  (fp_line (start -2.3 -2.65) (end -2.3 2.85) (layer F.SilkS) (width 0.12))
  (fp_line (start -2.3 2.85) (end 0 2.85) (layer F.SilkS) (width 0.12))
  (fp_line (start 0 2.85) (end 0 3.85) (layer F.SilkS) (width 0.12))
  (fp_line (start 0 3.85) (end 2.6 3.85) (layer F.SilkS) (width 0.12))
  (fp_line (start 2.6 3.85) (end 2.6 2.85) (layer F.SilkS) (width 0.12))
  (fp_line (start 2.6 2.85) (end 7 2.85) (layer F.SilkS) (width 0.12))
  (fp_line (start 7 2.85) (end 7 3.85) (layer F.SilkS) (width 0.12))
  (fp_line (start 7 3.85) (end 9.6 3.85) (layer F.SilkS) (width 0.12))
  (fp_line (start 9.6 3.85) (end 9.6 -2.65) (layer F.SilkS) (width 0.12))
  (fp_line (start 9.6 -2.65) (end -2.3 -2.65) (layer F.SilkS) (width 0.12))
  (fp_line (start -3.21 -2.15) (end -3.21 -4.56) (layer F.SilkS) (width 0.12))
  (fp_line (start -3.21 -4.56) (end -0.8 -4.56) (layer F.SilkS) (width 0.12))
  (fp_line (start -0.5 -4.15) (end 0 -3.442893) (layer F.Fab) (width 0.1))
  (fp_line (start 0 -3.442893) (end 0.5 -4.15) (layer F.Fab) (width 0.1))
  (fp_line (start -3.3 -4.65) (end -3.3 4.85) (layer F.CrtYd) (width 0.05))
  (fp_line (start -3.3 4.85) (end 10.6 4.85) (layer F.CrtYd) (width 0.05))
  (fp_line (start 10.6 4.85) (end 10.6 -4.65) (layer F.CrtYd) (width 0.05))
  (fp_line (start 10.6 -4.65) (end -3.3 -4.65) (layer F.CrtYd) (width 0.05))
  (pad 1 thru_hole roundrect (at 0 0) (size 2 2.6) (drill 1.6) (layers *.Cu *.Mask) (roundrect_rratio 0.125))
  (pad 2 thru_hole oval (at 3.5 0) (size 2 2.6) (drill 1.6) (layers *.Cu *.Mask))
  (pad 3 thru_hole oval (at 7 0) (size 2 2.6) (drill 1.6) (layers *.Cu *.Mask))
  (fp_text user %R (at 3.65 3.65) (layer F.Fab)
    (effects (font (size 1 1) (thickness 0.15)))
  )
  (model ${KICAD6_3DMODEL_DIR}/Connector_Wago.3dshapes/Wago_734-133_1x03_P3.50mm_Vertical.wrl
    (at (xyz 0 0 0))
    (scale (xyz 1 1 1))
    (rotate (xyz 0 0 0))
  )
)