(module Quectel_BC95 (layer F.Cu) (tedit 5F70A0EC)
  (descr "GSM NB-IoT module, 19.9x23.6x2.2mm, https://www.quectel.com/UploadImage/Downlad/Quectel_BC95_Hardware_Design_V1.3.pdf")
  (tags "GSM NB-IoT module BC95")
  (attr smd)
  (fp_text reference REF** (at 0 -16.6 unlocked) (layer F.SilkS)
    (effects (font (size 1 1) (thickness 0.15)))
  )
  (fp_text value Quectel_BC95 (at 0 16.6 unlocked) (layer F.Fab)
    (effects (font (size 1 1) (thickness 0.15)))
  )
  (fp_line (start -9.95 -8.975) (end -8.95 -8.6) (layer F.Fab) (width 0.1))
  (fp_line (start -8.95 -8.6) (end -9.95 -8.225) (layer F.Fab) (width 0.1))
  (fp_line (start -9.95 -11.8) (end 9.95 -11.8) (layer F.Fab) (width 0.1))
  (fp_line (start 9.95 -11.8) (end 9.95 11.8) (layer F.Fab) (width 0.1))
  (fp_line (start -9.95 -11.8) (end -9.95 11.8) (layer F.Fab) (width 0.1))
  (fp_line (start -9.95 11.8) (end 9.95 11.8) (layer F.Fab) (width 0.1))
  (fp_line (start -10.06 -11.91) (end -10.06 -9.235) (layer F.SilkS) (width 0.12))
  (fp_line (start -10.94 -9.235) (end -10.06 -9.235) (layer F.SilkS) (width 0.12))
  (fp_line (start -10.06 -11.91) (end -6.985 -11.91) (layer F.SilkS) (width 0.12))
  (fp_line (start 6.685 -11.91) (end 10.06 -11.91) (layer F.SilkS) (width 0.12))
  (fp_line (start 10.06 -11.91) (end 10.06 -9.235) (layer F.SilkS) (width 0.12))
  (fp_line (start -10.06 9.135) (end -10.06 11.91) (layer F.SilkS) (width 0.12))
  (fp_line (start -10.06 11.91) (end -6.985 11.91) (layer F.SilkS) (width 0.12))
  (fp_line (start 6.685 11.91) (end 10.06 11.91) (layer F.SilkS) (width 0.12))
  (fp_line (start 10.06 11.91) (end 10.06 9.135) (layer F.SilkS) (width 0.12))
  (fp_line (start -14 -15.85) (end -14 15.85) (layer F.CrtYd) (width 0.05))
  (fp_line (start -14 15.85) (end 14 15.85) (layer F.CrtYd) (width 0.05))
  (fp_line (start -14 -15.85) (end 14 -15.85) (layer F.CrtYd) (width 0.05))
  (fp_line (start 14 -15.85) (end 14 15.85) (layer F.CrtYd) (width 0.05))
  (fp_text user %R (at 0 0) (layer F.Fab)
    (effects (font (size 1 1) (thickness 0.15)))
  )
  (pad 1 smd roundrect (at -9.8 -8.6) (size 2.4 0.75) (layers F.Cu F.Mask) (roundrect_rratio 0.25))
  (pad 2 smd roundrect (at -9.8 -7.5) (size 2.4 0.75) (layers F.Cu F.Mask) (roundrect_rratio 0.25))
  (pad 3 smd roundrect (at -9.8 -6.4) (size 2.4 0.75) (layers F.Cu F.Mask) (roundrect_rratio 0.25))
  (pad 4 smd roundrect (at -9.8 -5.3) (size 2.4 0.75) (layers F.Cu F.Mask) (roundrect_rratio 0.25))
  (pad 5 smd roundrect (at -9.8 -4.2) (size 2.4 0.75) (layers F.Cu F.Mask) (roundrect_rratio 0.25))
  (pad 6 smd roundrect (at -9.8 -3.1) (size 2.4 0.75) (layers F.Cu F.Mask) (roundrect_rratio 0.25))
  (pad 7 smd roundrect (at -9.8 -2) (size 2.4 0.75) (layers F.Cu F.Mask) (roundrect_rratio 0.25))
  (pad 8 smd roundrect (at -9.8 -0.9) (size 2.4 0.75) (layers F.Cu F.Mask) (roundrect_rratio 0.25))
  (pad 9 smd roundrect (at -9.8 0.2) (size 2.4 0.75) (layers F.Cu F.Mask) (roundrect_rratio 0.25))
  (pad 10 smd roundrect (at -9.8 1.9) (size 2.4 0.75) (layers F.Cu F.Mask) (roundrect_rratio 0.25))
  (pad 11 smd roundrect (at -9.8 3) (size 2.4 0.75) (layers F.Cu F.Mask) (roundrect_rratio 0.25))
  (pad 12 smd roundrect (at -9.8 4.1) (size 2.4 0.75) (layers F.Cu F.Mask) (roundrect_rratio 0.25))
  (pad 13 smd roundrect (at -9.8 5.2) (size 2.4 0.75) (layers F.Cu F.Mask) (roundrect_rratio 0.25))
  (pad 14 smd roundrect (at -9.8 6.3) (size 2.4 0.75) (layers F.Cu F.Mask) (roundrect_rratio 0.25))
  (pad 15 smd roundrect (at -9.8 7.4) (size 2.4 0.75) (layers F.Cu F.Mask) (roundrect_rratio 0.25))
  (pad 16 smd roundrect (at -9.8 8.5) (size 2.4 0.75) (layers F.Cu F.Mask) (roundrect_rratio 0.25))
  (pad 17 smd roundrect (at -6.35 11.65) (size 0.75 2.4) (layers F.Cu F.Mask) (roundrect_rratio 0.25))
  (pad 18 smd roundrect (at -5.25 11.65) (size 0.75 2.4) (layers F.Cu F.Mask) (roundrect_rratio 0.25))
  (pad 19 smd roundrect (at -4.15 11.65) (size 0.75 2.4) (layers F.Cu F.Mask) (roundrect_rratio 0.25))
  (pad 20 smd roundrect (at -3.05 11.65) (size 0.75 2.4) (layers F.Cu F.Mask) (roundrect_rratio 0.25))
  (pad 21 smd roundrect (at -1.95 11.65) (size 0.75 2.4) (layers F.Cu F.Mask) (roundrect_rratio 0.25))
  (pad 22 smd roundrect (at 0.55 11.65) (size 0.75 2.4) (layers F.Cu F.Mask) (roundrect_rratio 0.25))
  (pad 23 smd roundrect (at 1.65 11.65) (size 0.75 2.4) (layers F.Cu F.Mask) (roundrect_rratio 0.25))
  (pad 24 smd roundrect (at 2.75 11.65) (size 0.75 2.4) (layers F.Cu F.Mask) (roundrect_rratio 0.25))
  (pad 25 smd roundrect (at 3.85 11.65) (size 0.75 2.4) (layers F.Cu F.Mask) (roundrect_rratio 0.25))
  (pad 26 smd roundrect (at 4.95 11.65) (size 0.75 2.4) (layers F.Cu F.Mask) (roundrect_rratio 0.25))
  (pad 27 smd roundrect (at 6.05 11.65) (size 0.75 2.4) (layers F.Cu F.Mask) (roundrect_rratio 0.25))
  (pad 28 smd roundrect (at 9.8 8.5) (size 2.4 0.75) (layers F.Cu F.Mask) (roundrect_rratio 0.25))
  (pad 29 smd roundrect (at 9.8 7.4) (size 2.4 0.75) (layers F.Cu F.Mask) (roundrect_rratio 0.25))
  (pad 30 smd roundrect (at 9.8 6.3) (size 2.4 0.75) (layers F.Cu F.Mask) (roundrect_rratio 0.25))
  (pad 31 smd roundrect (at 9.8 5.2) (size 2.4 0.75) (layers F.Cu F.Mask) (roundrect_rratio 0.25))
  (pad 32 smd roundrect (at 9.8 4.1) (size 2.4 0.75) (layers F.Cu F.Mask) (roundrect_rratio 0.25))
  (pad 33 smd roundrect (at 9.8 3) (size 2.4 0.75) (layers F.Cu F.Mask) (roundrect_rratio 0.25))
  (pad 34 smd roundrect (at 9.8 1.9) (size 2.4 0.75) (layers F.Cu F.Mask) (roundrect_rratio 0.25))
  (pad 35 smd roundrect (at 9.8 0.2) (size 2.4 0.75) (layers F.Cu F.Mask) (roundrect_rratio 0.25))
  (pad 36 smd roundrect (at 9.8 -0.9) (size 2.4 0.75) (layers F.Cu F.Mask) (roundrect_rratio 0.25))
  (pad 37 smd roundrect (at 9.8 -2) (size 2.4 0.75) (layers F.Cu F.Mask) (roundrect_rratio 0.25))
  (pad 38 smd roundrect (at 9.8 -3.1) (size 2.4 0.75) (layers F.Cu F.Mask) (roundrect_rratio 0.25))
  (pad 39 smd roundrect (at 9.8 -4.2) (size 2.4 0.75) (layers F.Cu F.Mask) (roundrect_rratio 0.25))
  (pad 40 smd roundrect (at 9.8 -5.3) (size 2.4 0.75) (layers F.Cu F.Mask) (roundrect_rratio 0.25))
  (pad 41 smd roundrect (at 9.8 -6.4) (size 2.4 0.75) (layers F.Cu F.Mask) (roundrect_rratio 0.25))
  (pad 42 smd roundrect (at 9.8 -7.5) (size 2.4 0.75) (layers F.Cu F.Mask) (roundrect_rratio 0.25))
  (pad 43 smd roundrect (at 9.8 -8.6) (size 2.4 0.75) (layers F.Cu F.Mask) (roundrect_rratio 0.25))
  (pad 44 smd roundrect (at 6.05 -11.65) (size 0.75 2.4) (layers F.Cu F.Mask) (roundrect_rratio 0.25))
  (pad 45 smd roundrect (at 4.95 -11.65) (size 0.75 2.4) (layers F.Cu F.Mask) (roundrect_rratio 0.25))
  (pad 46 smd roundrect (at 3.85 -11.65) (size 0.75 2.4) (layers F.Cu F.Mask) (roundrect_rratio 0.25))
  (pad 47 smd roundrect (at 2.75 -11.65) (size 0.75 2.4) (layers F.Cu F.Mask) (roundrect_rratio 0.25))
  (pad 48 smd roundrect (at 1.65 -11.65) (size 0.75 2.4) (layers F.Cu F.Mask) (roundrect_rratio 0.25))
  (pad 49 smd roundrect (at 0.55 -11.65) (size 0.75 2.4) (layers F.Cu F.Mask) (roundrect_rratio 0.25))
  (pad 50 smd roundrect (at -1.95 -11.65) (size 0.75 2.4) (layers F.Cu F.Mask) (roundrect_rratio 0.25))
  (pad 51 smd roundrect (at -3.05 -11.65) (size 0.75 2.4) (layers F.Cu F.Mask) (roundrect_rratio 0.25))
  (pad 52 smd roundrect (at -4.15 -11.65) (size 0.75 2.4) (layers F.Cu F.Mask) (roundrect_rratio 0.25))
  (pad 53 smd roundrect (at -5.25 -11.65) (size 0.75 2.4) (layers F.Cu F.Mask) (roundrect_rratio 0.25))
  (pad 54 smd roundrect (at -6.35 -11.65) (size 0.75 2.4) (layers F.Cu F.Mask) (roundrect_rratio 0.25))
  (pad 55 smd rect (at -5.95 -4.25) (size 1 1) (layers F.Cu F.Mask))
  (pad 56 smd rect (at -5.95 -2.55) (size 1 1) (layers F.Cu F.Mask))
  (pad 57 smd rect (at -5.95 -0.85) (size 1 1) (layers F.Cu F.Mask))
  (pad 58 smd rect (at -5.95 0.85) (size 1 1) (layers F.Cu F.Mask))
  (pad 59 smd rect (at -5.95 2.55) (size 1 1) (layers F.Cu F.Mask))
  (pad 60 smd rect (at -5.95 4.25) (size 1 1) (layers F.Cu F.Mask))
  (pad 61 smd rect (at -2.55 7.65) (size 1 1) (layers F.Cu F.Mask))
  (pad 62 smd rect (at -0.85 7.65) (size 1 1) (layers F.Cu F.Mask))
  (pad 63 smd rect (at 0.85 7.65) (size 1 1) (layers F.Cu F.Mask))
  (pad 64 smd rect (at 2.55 7.65) (size 1 1) (layers F.Cu F.Mask))
  (pad 65 smd rect (at 5.95 4.25) (size 1 1) (layers F.Cu F.Mask))
  (pad 66 smd rect (at 5.95 2.55) (size 1 1) (layers F.Cu F.Mask))
  (pad 67 smd rect (at 5.95 0.85) (size 1 1) (layers F.Cu F.Mask))
  (pad 68 smd rect (at 5.95 -0.85) (size 1 1) (layers F.Cu F.Mask))
  (pad 69 smd rect (at 5.95 -2.55) (size 1 1) (layers F.Cu F.Mask))
  (pad 70 smd rect (at 5.95 -4.25) (size 1 1) (layers F.Cu F.Mask))
  (pad 71 smd rect (at 2.55 -7.65) (size 1 1) (layers F.Cu F.Mask))
  (pad 72 smd rect (at 0.85 -7.65) (size 1 1) (layers F.Cu F.Mask))
  (pad 73 smd rect (at -0.85 -7.65) (size 1 1) (layers F.Cu F.Mask))
  (pad 74 smd rect (at -2.55 -7.65) (size 1 1) (layers F.Cu F.Mask))
  (pad 75 smd rect (at -4.25 -4.25) (size 1 1) (layers F.Cu F.Mask))
  (pad 76 smd rect (at -4.25 -2.55) (size 1 1) (layers F.Cu F.Mask))
  (pad 77 smd rect (at -4.25 -0.85) (size 1 1) (layers F.Cu F.Mask))
  (pad 78 smd rect (at -4.25 0.85) (size 1 1) (layers F.Cu F.Mask))
  (pad 79 smd rect (at -4.25 2.55) (size 1 1) (layers F.Cu F.Mask))
  (pad 80 smd rect (at -4.25 4.25) (size 1 1) (layers F.Cu F.Mask))
  (pad 81 smd rect (at -2.55 5.95) (size 1 1) (layers F.Cu F.Mask))
  (pad 82 smd rect (at -0.85 5.95) (size 1 1) (layers F.Cu F.Mask))
  (pad 83 smd rect (at 0.85 5.95) (size 1 1) (layers F.Cu F.Mask))
  (pad 84 smd rect (at 2.55 5.95) (size 1 1) (layers F.Cu F.Mask))
  (pad 85 smd rect (at 4.25 4.25) (size 1 1) (layers F.Cu F.Mask))
  (pad 86 smd rect (at 4.25 2.55) (size 1 1) (layers F.Cu F.Mask))
  (pad 87 smd rect (at 4.25 0.85) (size 1 1) (layers F.Cu F.Mask))
  (pad 88 smd rect (at 4.25 -0.85) (size 1 1) (layers F.Cu F.Mask))
  (pad 89 smd rect (at 4.25 -2.55) (size 1 1) (layers F.Cu F.Mask))
  (pad 90 smd rect (at 4.25 -4.25) (size 1 1) (layers F.Cu F.Mask))
  (pad 91 smd rect (at 2.55 -5.95) (size 1 1) (layers F.Cu F.Mask))
  (pad 92 smd rect (at 0.85 -5.95) (size 1 1) (layers F.Cu F.Mask))
  (pad 93 smd rect (at -0.85 -5.95) (size 1 1) (layers F.Cu F.Mask))
  (pad 94 smd rect (at -2.55 -5.95) (size 1 1) (layers F.Cu F.Mask))
  (pad "" smd circle (at -5.95 -4.25) (size 0.9 0.9) (layers F.Paste))
  (pad "" smd circle (at -5.95 -2.55) (size 0.9 0.9) (layers F.Paste))
  (pad "" smd circle (at -5.95 0.85) (size 0.9 0.9) (layers F.Paste))
  (pad "" smd circle (at -5.95 -0.85) (size 0.9 0.9) (layers F.Paste))
  (pad "" smd circle (at -5.95 4.25) (size 0.9 0.9) (layers F.Paste))
  (pad "" smd circle (at -5.95 2.55) (size 0.9 0.9) (layers F.Paste))
  (pad "" smd circle (at -2.55 7.65) (size 0.9 0.9) (layers F.Paste))
  (pad "" smd circle (at -0.85 7.65) (size 0.9 0.9) (layers F.Paste))
  (pad "" smd circle (at 0.85 7.65) (size 0.9 0.9) (layers F.Paste))
  (pad "" smd circle (at 2.55 7.65) (size 0.9 0.9) (layers F.Paste))
  (pad "" smd circle (at 5.95 -4.25) (size 0.9 0.9) (layers F.Paste))
  (pad "" smd circle (at 5.95 -0.85) (size 0.9 0.9) (layers F.Paste))
  (pad "" smd circle (at 5.95 -2.55) (size 0.9 0.9) (layers F.Paste))
  (pad "" smd circle (at 5.95 0.85) (size 0.9 0.9) (layers F.Paste))
  (pad "" smd circle (at 5.95 2.55) (size 0.9 0.9) (layers F.Paste))
  (pad "" smd circle (at 5.95 4.25) (size 0.9 0.9) (layers F.Paste))
  (pad "" smd circle (at 2.55 -7.65) (size 0.9 0.9) (layers F.Paste))
  (pad "" smd circle (at -2.55 -7.65) (size 0.9 0.9) (layers F.Paste))
  (pad "" smd circle (at -0.85 -7.65) (size 0.9 0.9) (layers F.Paste))
  (pad "" smd circle (at 0.85 -7.65) (size 0.9 0.9) (layers F.Paste))
  (pad "" smd circle (at -4.25 -4.25) (size 0.9 0.9) (layers F.Paste))
  (pad "" smd circle (at -4.25 -0.85) (size 0.9 0.9) (layers F.Paste))
  (pad "" smd circle (at -4.25 -2.55) (size 0.9 0.9) (layers F.Paste))
  (pad "" smd circle (at -4.25 0.85) (size 0.9 0.9) (layers F.Paste))
  (pad "" smd circle (at -4.25 2.55) (size 0.9 0.9) (layers F.Paste))
  (pad "" smd circle (at -4.25 4.25) (size 0.9 0.9) (layers F.Paste))
  (pad "" smd circle (at 2.55 5.95) (size 0.9 0.9) (layers F.Paste))
  (pad "" smd circle (at -2.55 5.95) (size 0.9 0.9) (layers F.Paste))
  (pad "" smd circle (at -0.85 5.95) (size 0.9 0.9) (layers F.Paste))
  (pad "" smd circle (at 0.85 5.95) (size 0.9 0.9) (layers F.Paste))
  (pad "" smd circle (at 4.25 0.85) (size 0.9 0.9) (layers F.Paste))
  (pad "" smd circle (at 4.25 2.55) (size 0.9 0.9) (layers F.Paste))
  (pad "" smd circle (at 4.25 4.25) (size 0.9 0.9) (layers F.Paste))
  (pad "" smd circle (at 4.25 -4.25) (size 0.9 0.9) (layers F.Paste))
  (pad "" smd circle (at 4.25 -0.85) (size 0.9 0.9) (layers F.Paste))
  (pad "" smd circle (at 4.25 -2.55) (size 0.9 0.9) (layers F.Paste))
  (pad "" smd circle (at -2.55 -5.95) (size 0.9 0.9) (layers F.Paste))
  (pad "" smd circle (at -0.85 -5.95) (size 0.9 0.9) (layers F.Paste))
  (pad "" smd circle (at 0.85 -5.95) (size 0.9 0.9) (layers F.Paste))
  (pad "" smd circle (at 2.55 -5.95) (size 0.9 0.9) (layers F.Paste))
  (pad "" smd roundrect (at -10.1 -8.6) (size 2.6 0.6375) (layers F.Paste) (roundrect_rratio 0.25))
  (pad "" smd roundrect (at -10.1 -7.5) (size 2.6 0.6375) (layers F.Paste) (roundrect_rratio 0.25))
  (pad "" smd roundrect (at -10.1 -6.4) (size 2.6 0.6375) (layers F.Paste) (roundrect_rratio 0.25))
  (pad "" smd roundrect (at -10.1 -5.3) (size 2.6 0.6375) (layers F.Paste) (roundrect_rratio 0.25))
  (pad "" smd roundrect (at -10.1 -4.2) (size 2.6 0.6375) (layers F.Paste) (roundrect_rratio 0.25))
  (pad "" smd roundrect (at -10.1 -3.1) (size 2.6 0.6375) (layers F.Paste) (roundrect_rratio 0.25))
  (pad "" smd roundrect (at -10.1 0.2) (size 2.6 0.6375) (layers F.Paste) (roundrect_rratio 0.25))
  (pad "" smd roundrect (at -10.1 -2) (size 2.6 0.6375) (layers F.Paste) (roundrect_rratio 0.25))
  (pad "" smd roundrect (at -10.1 -0.9) (size 2.6 0.6375) (layers F.Paste) (roundrect_rratio 0.25))
  (pad "" smd roundrect (at -10.1 5.2) (size 2.6 0.6375) (layers F.Paste) (roundrect_rratio 0.25))
  (pad "" smd roundrect (at -10.1 7.4) (size 2.6 0.6375) (layers F.Paste) (roundrect_rratio 0.25))
  (pad "" smd roundrect (at -10.1 4.1) (size 2.6 0.6375) (layers F.Paste) (roundrect_rratio 0.25))
  (pad "" smd roundrect (at -10.1 1.9) (size 2.6 0.6375) (layers F.Paste) (roundrect_rratio 0.25))
  (pad "" smd roundrect (at -10.1 3) (size 2.6 0.6375) (layers F.Paste) (roundrect_rratio 0.25))
  (pad "" smd roundrect (at -10.1 6.3) (size 2.6 0.6375) (layers F.Paste) (roundrect_rratio 0.25))
  (pad "" smd roundrect (at -10.1 8.5) (size 2.6 0.6375) (layers F.Paste) (roundrect_rratio 0.25))
  (pad "" smd roundrect (at -6.35 11.95 90) (size 2.6 0.6375) (layers F.Paste) (roundrect_rratio 0.25))
  (pad "" smd roundrect (at -5.25 11.95 90) (size 2.6 0.6375) (layers F.Paste) (roundrect_rratio 0.25))
  (pad "" smd roundrect (at -4.15 11.95 90) (size 2.6 0.6375) (layers F.Paste) (roundrect_rratio 0.25))
  (pad "" smd roundrect (at -3.05 11.95 90) (size 2.6 0.6375) (layers F.Paste) (roundrect_rratio 0.25))
  (pad "" smd roundrect (at -1.95 11.95 90) (size 2.6 0.6375) (layers F.Paste) (roundrect_rratio 0.25))
  (pad "" smd roundrect (at 1.65 11.95 90) (size 2.6 0.6375) (layers F.Paste) (roundrect_rratio 0.25))
  (pad "" smd roundrect (at 4.95 11.95 90) (size 2.6 0.6375) (layers F.Paste) (roundrect_rratio 0.25))
  (pad "" smd roundrect (at 2.75 11.95 90) (size 2.6 0.6375) (layers F.Paste) (roundrect_rratio 0.25))
  (pad "" smd roundrect (at 3.85 11.95 90) (size 2.6 0.6375) (layers F.Paste) (roundrect_rratio 0.25))
  (pad "" smd roundrect (at 0.55 11.95 90) (size 2.6 0.6375) (layers F.Paste) (roundrect_rratio 0.25))
  (pad "" smd roundrect (at 6.05 11.95 90) (size 2.6 0.6375) (layers F.Paste) (roundrect_rratio 0.25))
  (pad "" smd roundrect (at 10.1 -2) (size 2.6 0.6375) (layers F.Paste) (roundrect_rratio 0.25))
  (pad "" smd roundrect (at 10.1 0.2) (size 2.6 0.6375) (layers F.Paste) (roundrect_rratio 0.25))
  (pad "" smd roundrect (at 10.1 1.9) (size 2.6 0.6375) (layers F.Paste) (roundrect_rratio 0.25))
  (pad "" smd roundrect (at 10.1 -3.1) (size 2.6 0.6375) (layers F.Paste) (roundrect_rratio 0.25))
  (pad "" smd roundrect (at 10.1 3) (size 2.6 0.6375) (layers F.Paste) (roundrect_rratio 0.25))
  (pad "" smd roundrect (at 10.1 -5.3) (size 2.6 0.6375) (layers F.Paste) (roundrect_rratio 0.25))
  (pad "" smd roundrect (at 10.1 4.1) (size 2.6 0.6375) (layers F.Paste) (roundrect_rratio 0.25))
  (pad "" smd roundrect (at 10.1 6.3) (size 2.6 0.6375) (layers F.Paste) (roundrect_rratio 0.25))
  (pad "" smd roundrect (at 10.1 -4.2) (size 2.6 0.6375) (layers F.Paste) (roundrect_rratio 0.25))
  (pad "" smd roundrect (at 10.1 8.5) (size 2.6 0.6375) (layers F.Paste) (roundrect_rratio 0.25))
  (pad "" smd roundrect (at 10.1 -0.9) (size 2.6 0.6375) (layers F.Paste) (roundrect_rratio 0.25))
  (pad "" smd roundrect (at 10.1 5.2) (size 2.6 0.6375) (layers F.Paste) (roundrect_rratio 0.25))
  (pad "" smd roundrect (at 10.1 7.4) (size 2.6 0.6375) (layers F.Paste) (roundrect_rratio 0.25))
  (pad "" smd roundrect (at 10.1 -8.6) (size 2.6 0.6375) (layers F.Paste) (roundrect_rratio 0.25))
  (pad "" smd roundrect (at 10.1 -7.5) (size 2.6 0.6375) (layers F.Paste) (roundrect_rratio 0.25))
  (pad "" smd roundrect (at 10.1 -6.4) (size 2.6 0.6375) (layers F.Paste) (roundrect_rratio 0.25))
  (pad "" smd roundrect (at -5.25 -11.95 90) (size 2.6 0.6375) (layers F.Paste) (roundrect_rratio 0.25))
  (pad "" smd roundrect (at 0.55 -11.95 90) (size 2.6 0.6375) (layers F.Paste) (roundrect_rratio 0.25))
  (pad "" smd roundrect (at 2.75 -11.95 90) (size 2.6 0.6375) (layers F.Paste) (roundrect_rratio 0.25))
  (pad "" smd roundrect (at -1.95 -11.95 90) (size 2.6 0.6375) (layers F.Paste) (roundrect_rratio 0.25))
  (pad "" smd roundrect (at 4.95 -11.95 90) (size 2.6 0.6375) (layers F.Paste) (roundrect_rratio 0.25))
  (pad "" smd roundrect (at 3.85 -11.95 90) (size 2.6 0.6375) (layers F.Paste) (roundrect_rratio 0.25))
  (pad "" smd roundrect (at 1.65 -11.95 90) (size 2.6 0.6375) (layers F.Paste) (roundrect_rratio 0.25))
  (pad "" smd roundrect (at -4.15 -11.95 90) (size 2.6 0.6375) (layers F.Paste) (roundrect_rratio 0.25))
  (pad "" smd roundrect (at 6.05 -11.95 90) (size 2.6 0.6375) (layers F.Paste) (roundrect_rratio 0.25))
  (pad "" smd roundrect (at -3.05 -11.95 90) (size 2.6 0.6375) (layers F.Paste) (roundrect_rratio 0.25))
  (pad "" smd roundrect (at -6.35 -11.95 90) (size 2.6 0.6375) (layers F.Paste) (roundrect_rratio 0.25))
  (model ${KICAD6_3DMODEL_DIR}/RF_GSM.3dshapes/Quectel_BC95.wrl
    (at (xyz 0 0 0))
    (scale (xyz 1 1 1))
    (rotate (xyz 0 0 0))
  )
)
