(module Telit_xL865 (layer F.Cu) (tedit 5C33505F)
  (descr "Telit xL865 familly footprint, http://www.telit.com/fileadmin/user_upload/products/Downloads/3G/Telit_UL865_Hardware_User_Guide_r8.pdf ")
  (tags "xL865 gsm umts")
  (attr smd)
  (fp_text reference REF** (at -13 -16) (layer F.SilkS)
    (effects (font (size 1 1) (thickness 0.15)))
  )
  (fp_text value Telit_xL865 (at 0 -3) (layer F.Fab)
    (effects (font (size 1 1) (thickness 0.15)))
  )
  (fp_line (start 12.2 11.45) (end 12.2 -11.45) (layer F.Fab) (width 0.1))
  (fp_line (start -12.2 11.45) (end -12.2 -12.2) (layer F.Fab) (width 0.1))
  (fp_line (start -12.2 -12.2) (end 11.45 -12.2) (layer F.Fab) (width 0.1))
  (fp_line (start -11.45 12.2) (end 11.45 12.2) (layer F.Fab) (width 0.1))
  (fp_arc (start -12.2 12.2) (end -11.45 12.2) (angle -90) (layer F.Fab) (width 0.1))
  (fp_arc (start 12.2 12.2) (end 12.2 11.45) (angle -90) (layer F.Fab) (width 0.1))
  (fp_arc (start 12.2 -12.2) (end 11.45 -12.2) (angle -90) (layer F.Fab) (width 0.1))
  (fp_line (start -1.5 -12.3) (end 1.5 -12.3) (layer F.SilkS) (width 0.12))
  (fp_line (start 10.6 -12.3) (end 12.3 -12.3) (layer F.SilkS) (width 0.12))
  (fp_line (start 12.3 -12.3) (end 12.3 -10.6) (layer F.SilkS) (width 0.12))
  (fp_line (start 12.3 10.6) (end 12.3 12.3) (layer F.SilkS) (width 0.12))
  (fp_line (start 12.3 12.3) (end 10.6 12.3) (layer F.SilkS) (width 0.12))
  (fp_line (start 1.5 12.3) (end -1.5 12.3) (layer F.SilkS) (width 0.12))
  (fp_line (start -10.6 12.3) (end -12.3 12.3) (layer F.SilkS) (width 0.12))
  (fp_line (start -12.3 12.3) (end -12.3 10.6) (layer F.SilkS) (width 0.12))
  (fp_line (start -12.3 -1.5) (end -12.3 1.5) (layer F.SilkS) (width 0.12))
  (fp_line (start -10.6 -12.3) (end -12.3 -12.3) (layer F.SilkS) (width 0.12))
  (fp_line (start -12.3 -12.3) (end -12.3 -10.6) (layer F.SilkS) (width 0.12))
  (fp_line (start -15 -15) (end 15 -15) (layer F.CrtYd) (width 0.05))
  (fp_line (start 15 -15) (end 15 15) (layer F.CrtYd) (width 0.05))
  (fp_line (start 15 15) (end -15 15) (layer F.CrtYd) (width 0.05))
  (fp_line (start -15 15) (end -15 -15) (layer F.CrtYd) (width 0.05))
  (fp_line (start -15 -15) (end -15 -15) (layer F.CrtYd) (width 0.05))
  (fp_text user %R (at 0 0) (layer F.Fab)
    (effects (font (size 2 2) (thickness 0.2)))
  )
  (fp_line (start 12.4 -1.5) (end 12.4 1.5) (layer F.SilkS) (width 0.12))
  (fp_line (start -12.3 -10.6) (end -13.4 -10.6) (layer F.SilkS) (width 0.12))
  (fp_line (start -13.5 -10.6) (end -13.4 -10.6) (layer F.SilkS) (width 0.12))
  (pad 42 smd oval (at 2.3 -12) (size 1 3) (layers F.Cu F.Paste F.Mask))
  (pad 41 smd oval (at 3.8 -12) (size 1 3) (layers F.Cu F.Paste F.Mask))
  (pad 40 smd oval (at 5.3 -12) (size 1 3) (layers F.Cu F.Paste F.Mask))
  (pad 39 smd oval (at 6.8 -12) (size 1 3) (layers F.Cu F.Paste F.Mask))
  (pad 38 smd oval (at 8.3 -12) (size 1 3) (layers F.Cu F.Paste F.Mask))
  (pad 37 smd oval (at 9.8 -12) (size 1 3) (layers F.Cu F.Paste F.Mask))
  (pad 47 smd oval (at -8.3 -12) (size 1 3) (layers F.Cu F.Paste F.Mask))
  (pad 43 smd oval (at -2.3 -12) (size 1 3) (layers F.Cu F.Paste F.Mask))
  (pad 46 smd oval (at -6.8 -12) (size 1 3) (layers F.Cu F.Paste F.Mask))
  (pad 48 smd oval (at -9.8 -12) (size 1 3) (layers F.Cu F.Paste F.Mask))
  (pad 45 smd oval (at -5.3 -12) (size 1 3) (layers F.Cu F.Paste F.Mask))
  (pad 44 smd oval (at -3.8 -12) (size 1 3) (layers F.Cu F.Paste F.Mask))
  (pad 17 smd oval (at -3.8 12) (size 1 3) (layers F.Cu F.Paste F.Mask))
  (pad 18 smd oval (at -2.3 12) (size 1 3) (layers F.Cu F.Paste F.Mask))
  (pad 15 smd oval (at -6.8 12) (size 1 3) (layers F.Cu F.Paste F.Mask))
  (pad 13 smd oval (at -9.8 12) (size 1 3) (layers F.Cu F.Paste F.Mask))
  (pad 16 smd oval (at -5.3 12) (size 1 3) (layers F.Cu F.Paste F.Mask))
  (pad 14 smd oval (at -8.3 12) (size 1 3) (layers F.Cu F.Paste F.Mask))
  (pad 20 smd oval (at 3.8 12) (size 1 3) (layers F.Cu F.Paste F.Mask))
  (pad 24 smd oval (at 9.8 12) (size 1 3) (layers F.Cu F.Paste F.Mask))
  (pad 21 smd oval (at 5.3 12) (size 1 3) (layers F.Cu F.Paste F.Mask))
  (pad 19 smd oval (at 2.3 12) (size 1 3) (layers F.Cu F.Paste F.Mask))
  (pad 22 smd oval (at 6.8 12) (size 1 3) (layers F.Cu F.Paste F.Mask))
  (pad 23 smd oval (at 8.3 12) (size 1 3) (layers F.Cu F.Paste F.Mask))
  (pad 30 smd oval (at 12 2.3 90) (size 1 3) (layers F.Cu F.Paste F.Mask))
  (pad 29 smd oval (at 12 3.8 90) (size 1 3) (layers F.Cu F.Paste F.Mask))
  (pad 28 smd oval (at 12 5.3 90) (size 1 3) (layers F.Cu F.Paste F.Mask))
  (pad 27 smd oval (at 12 6.8 90) (size 1 3) (layers F.Cu F.Paste F.Mask))
  (pad 26 smd oval (at 12 8.3 90) (size 1 3) (layers F.Cu F.Paste F.Mask))
  (pad 25 smd oval (at 12 9.8 90) (size 1 3) (layers F.Cu F.Paste F.Mask))
  (pad 36 smd oval (at 12 -9.8 90) (size 1 3) (layers F.Cu F.Paste F.Mask))
  (pad 33 smd oval (at 12 -5.3 90) (size 1 3) (layers F.Cu F.Paste F.Mask))
  (pad 32 smd oval (at 12 -3.8 90) (size 1 3) (layers F.Cu F.Paste F.Mask))
  (pad 31 smd oval (at 12 -2.3 90) (size 1 3) (layers F.Cu F.Paste F.Mask))
  (pad 35 smd oval (at 12 -8.3 90) (size 1 3) (layers F.Cu F.Paste F.Mask))
  (pad 34 smd oval (at 12 -6.8 90) (size 1 3) (layers F.Cu F.Paste F.Mask))
  (pad 7 smd oval (at -12 2.3 90) (size 1 3) (layers F.Cu F.Paste F.Mask))
  (pad 10 smd oval (at -12 6.8 90) (size 1 3) (layers F.Cu F.Paste F.Mask))
  (pad 11 smd oval (at -12 8.3 90) (size 1 3) (layers F.Cu F.Paste F.Mask))
  (pad 12 smd oval (at -12 9.8 90) (size 1 3) (layers F.Cu F.Paste F.Mask))
  (pad 8 smd oval (at -12 3.8 90) (size 1 3) (layers F.Cu F.Paste F.Mask))
  (pad 9 smd oval (at -12 5.3 90) (size 1 3) (layers F.Cu F.Paste F.Mask))
  (pad 3 smd oval (at -12 -6.8 90) (size 1 3) (layers F.Cu F.Paste F.Mask))
  (pad 5 smd oval (at -12 -3.8 90) (size 1 3) (layers F.Cu F.Paste F.Mask))
  (pad 4 smd oval (at -12 -5.3 90) (size 1 3) (layers F.Cu F.Paste F.Mask))
  (pad 6 smd oval (at -12 -2.3 90) (size 1 3) (layers F.Cu F.Paste F.Mask))
  (pad 1 smd oval (at -12 -9.8 90) (size 1 3) (layers F.Cu F.Paste F.Mask))
  (pad 2 smd oval (at -12 -8.3 90) (size 1 3) (layers F.Cu F.Paste F.Mask))
  (pad "" smd circle (at 0 10 90) (size 2 2) (layers F.Cu F.Paste F.Mask))
  (pad "" smd circle (at -10 0 90) (size 2 2) (layers F.Cu F.Paste F.Mask))
  (pad "" smd circle (at 10 0 90) (size 2 2) (layers F.Cu F.Paste F.Mask))
  (pad "" smd circle (at 0 -10 90) (size 2 2) (layers F.Cu F.Paste F.Mask))
  (model ${KICAD6_3DMODEL_DIR}/RF_GSM.3dshapes/Telit_xL865.wrl
    (at (xyz 0 0 0))
    (scale (xyz 1 1 1))
    (rotate (xyz 0 0 0))
  )
)
