(module RotaryEncoder_Alps_EC11E_Vertical_H20mm (layer F.Cu) (tedit 5A64F74E)
  (descr "Alps rotary encoder, EC12E... without switch (pins are dummy), vertical shaft, http://www.alps.com/prod/info/E/HTML/Encoder/Incremental/EC11/EC11E15204A3.html")
  (tags "rotary encoder")
  (fp_text reference REF** (at 2.8 -4.7) (layer F.SilkS)
    (effects (font (size 1 1) (thickness 0.15)))
  )
  (fp_text value RotaryEncoder_Alps_EC11E_Vertical_H20mm (at 7.5 10.4) (layer F.Fab)
    (effects (font (size 1 1) (thickness 0.15)))
  )
  (fp_text user %R (at 11.1 6.3) (layer F.Fab)
    (effects (font (size 1 1) (thickness 0.15)))
  )
  (fp_line (start 7 2.5) (end 8 2.5) (layer F.SilkS) (width 0.12))
  (fp_line (start 7.5 2) (end 7.5 3) (layer F.SilkS) (width 0.12))
  (fp_line (start 13.6 5.8) (end 13.6 8.4) (layer F.SilkS) (width 0.12))
  (fp_line (start 13.6 1.2) (end 13.6 3.8) (layer F.SilkS) (width 0.12))
  (fp_line (start 13.6 -3.4) (end 13.6 -0.8) (layer F.SilkS) (width 0.12))
  (fp_line (start 4.5 2.5) (end 10.5 2.5) (layer F.Fab) (width 0.12))
  (fp_line (start 7.5 -0.5) (end 7.5 5.5) (layer F.Fab) (width 0.12))
  (fp_line (start 0.3 -1.6) (end 0 -1.3) (layer F.SilkS) (width 0.12))
  (fp_line (start -0.3 -1.6) (end 0.3 -1.6) (layer F.SilkS) (width 0.12))
  (fp_line (start 0 -1.3) (end -0.3 -1.6) (layer F.SilkS) (width 0.12))
  (fp_line (start 1.4 -3.3) (end 1.4 8.4) (layer F.SilkS) (width 0.12))
  (fp_line (start 5.5 -3.3) (end 1.4 -3.3) (layer F.SilkS) (width 0.12))
  (fp_line (start 5.5 8.4) (end 1.4 8.4) (layer F.SilkS) (width 0.12))
  (fp_line (start 13.6 8.4) (end 9.5 8.4) (layer F.SilkS) (width 0.12))
  (fp_line (start 9.5 -3.4) (end 13.6 -3.4) (layer F.SilkS) (width 0.12))
  (fp_line (start 1.5 -2.2) (end 2.5 -3.3) (layer F.Fab) (width 0.12))
  (fp_line (start 1.5 8.3) (end 1.5 -2.2) (layer F.Fab) (width 0.12))
  (fp_line (start 13.5 8.3) (end 1.5 8.3) (layer F.Fab) (width 0.12))
  (fp_line (start 13.5 -3.3) (end 13.5 8.3) (layer F.Fab) (width 0.12))
  (fp_line (start 2.5 -3.3) (end 13.5 -3.3) (layer F.Fab) (width 0.12))
  (fp_line (start -1.25 -4.35) (end 15.5 -4.35) (layer F.CrtYd) (width 0.05))
  (fp_line (start -1.25 -4.35) (end -1.25 9.35) (layer F.CrtYd) (width 0.05))
  (fp_line (start 15.5 9.35) (end 15.5 -4.35) (layer F.CrtYd) (width 0.05))
  (fp_line (start 15.5 9.35) (end -1.25 9.35) (layer F.CrtYd) (width 0.05))
  (fp_circle (center 7.5 2.5) (end 10.5 2.5) (layer F.SilkS) (width 0.12))
  (fp_circle (center 7.5 2.5) (end 10.5 2.5) (layer F.Fab) (width 0.12))
  (pad "" thru_hole circle (at 14.5 5) (size 1.5 1.5) (drill 1) (layers *.Cu *.Mask))
  (pad "" thru_hole circle (at 14.5 0) (size 1.5 1.5) (drill 1) (layers *.Cu *.Mask))
  (pad MP thru_hole rect (at 7.5 8.1) (size 3.2 2) (drill oval 2.8 1.5) (layers *.Cu *.Mask))
  (pad MP thru_hole rect (at 7.5 -3.1) (size 3.2 2) (drill oval 2.8 1.5) (layers *.Cu *.Mask))
  (pad B thru_hole circle (at 0 5) (size 2 2) (drill 1) (layers *.Cu *.Mask))
  (pad C thru_hole circle (at 0 2.5) (size 2 2) (drill 1) (layers *.Cu *.Mask))
  (pad A thru_hole rect (at 0 0) (size 2 2) (drill 1) (layers *.Cu *.Mask))
  (model ${KICAD6_3DMODEL_DIR}/Rotary_Encoder.3dshapes/RotaryEncoder_Alps_EC11E_Vertical_H20mm.wrl
    (at (xyz 0 0 0))
    (scale (xyz 1 1 1))
    (rotate (xyz 0 0 0))
  )
)
