(module Jack_speakON_Neutrik_NL4MD-H_Horizontal (layer F.Cu) (tedit 5D9E6994)
  (descr "speakON Chassis Connectors, 4 pole chassis connector, grey D-size flange, self tapping screw holes (A-screw), horizontal PCB mount, https://www.neutrik.com/en/product/nl4md-h")
  (tags "neutrik speakon")
  (fp_text reference REF** (at 17.5 -11) (layer F.SilkS)
    (effects (font (size 1 1) (thickness 0.15)))
  )
  (fp_text value Jack_speakON_Neutrik_NL4MD-H_Horizontal (at 15 17.5) (layer F.Fab)
    (effects (font (size 1 1) (thickness 0.15)))
  )
  (fp_text user %R (at 17.5 4.765) (layer F.Fab)
    (effects (font (size 1 1) (thickness 0.15)))
  )
  (fp_line (start -2 16.68) (end -2 -10.32) (layer F.CrtYd) (width 0.05))
  (fp_line (start -2 16.68) (end 32.21 16.68) (layer F.CrtYd) (width 0.05))
  (fp_line (start 32.21 -10.32) (end -2 -10.32) (layer F.CrtYd) (width 0.05))
  (fp_line (start 32.21 -10.32) (end 32.21 16.68) (layer F.CrtYd) (width 0.05))
  (fp_line (start 29.21 16.18) (end 29.21 -9.82) (layer Dwgs.User) (width 0.1))
  (fp_line (start 24.71 -9.82) (end 29.21 -9.82) (layer F.Fab) (width 0.1))
  (fp_line (start 5.44 15.08) (end 5.44 -8.72) (layer F.Fab) (width 0.1))
  (fp_line (start 31.71 15.18) (end 31.71 -8.82) (layer F.Fab) (width 0.1))
  (fp_line (start 31.71 15.18) (end 29.21 15.18) (layer F.Fab) (width 0.1))
  (fp_line (start 5.44 15.08) (end 24.71 15.08) (layer F.Fab) (width 0.1))
  (fp_line (start 5.44 -8.72) (end 24.71 -8.72) (layer F.Fab) (width 0.1))
  (fp_line (start 31.71 -8.82) (end 29.21 -8.82) (layer F.Fab) (width 0.1))
  (fp_line (start 24.71 16.18) (end 29.21 16.18) (layer F.Fab) (width 0.1))
  (fp_line (start 31.83 15.3) (end 31.83 -8.94) (layer F.SilkS) (width 0.12))
  (fp_line (start 24.59 16.3) (end 29.33 16.3) (layer F.SilkS) (width 0.12))
  (fp_line (start 31.83 15.3) (end 29.33 15.3) (layer F.SilkS) (width 0.12))
  (fp_line (start 5.32 15.2) (end 24.6 15.2) (layer F.SilkS) (width 0.12))
  (fp_line (start 31.83 -8.94) (end 29.33 -8.94) (layer F.SilkS) (width 0.12))
  (fp_line (start 24.59 -9.94) (end 29.33 -9.94) (layer F.SilkS) (width 0.12))
  (fp_line (start 5.32 -8.84) (end 24.59 -8.84) (layer F.SilkS) (width 0.12))
  (fp_line (start 5.32 -4.77) (end 5.32 -8.84) (layer F.SilkS) (width 0.12))
  (fp_line (start 5.32 15.2) (end 5.32 11.13) (layer F.SilkS) (width 0.12))
  (fp_line (start 24.59 16.3) (end 24.59 15.2) (layer F.SilkS) (width 0.12))
  (fp_line (start 24.59 -9.94) (end 24.59 -8.84) (layer F.SilkS) (width 0.12))
  (fp_line (start 29.33 16.3) (end 29.33 15.3) (layer F.SilkS) (width 0.12))
  (fp_line (start 29.33 -9.94) (end 29.33 -8.94) (layer F.SilkS) (width 0.12))
  (fp_line (start 24.71 16.18) (end 24.71 -9.82) (layer F.Fab) (width 0.1))
  (fp_line (start 29.21 16.18) (end 29.21 -9.82) (layer F.Fab) (width 0.1))
  (fp_line (start 24.71 -7.92) (end 29.21 -7.92) (layer F.Fab) (width 0.1))
  (fp_line (start 24.71 -4.72) (end 29.21 -4.72) (layer F.Fab) (width 0.1))
  (fp_line (start 24.71 14.28) (end 29.21 14.28) (layer F.Fab) (width 0.1))
  (fp_line (start 24.71 11.08) (end 29.21 11.08) (layer F.Fab) (width 0.1))
  (fp_line (start 5.32 7.93) (end 5.32 4.78) (layer F.SilkS) (width 0.12))
  (fp_line (start 5.32 1.58) (end 5.32 -1.57) (layer F.SilkS) (width 0.12))
  (pad 1+ thru_hole circle (at 0 0) (size 3 3) (drill 1.2) (layers *.Cu *.Mask))
  (pad 1- thru_hole circle (at 4.44 9.53) (size 3 3) (drill 1.2) (layers *.Cu *.Mask))
  (pad 2+ thru_hole circle (at 4.44 3.18) (size 3 3) (drill 1.2) (layers *.Cu *.Mask))
  (pad 2- thru_hole circle (at 4.44 -3.17) (size 3 3) (drill 1.2) (layers *.Cu *.Mask))
  (model ${KICAD6_3DMODEL_DIR}/Connector_Audio.3dshapes/Jack_speakON_Neutrik_NL4MD-H_Horizontal.wrl
    (at (xyz 0 0 0))
    (scale (xyz 1 1 1))
    (rotate (xyz 0 0 0))
  )
)
