(module Jack_XLR-6.35mm_Neutrik_NCJ9FI-H-0_Horizontal (layer F.Cu) (tedit 5BF4772A)
  (descr "Combo I series, 3 pole XLR female receptacle with 6.35mm (1/4in) switching stereo jack, horizontal PCB mount, https://www.neutrik.com/en/product/ncj9fi-h-0")
  (tags "neutrik jack combo i")
  (fp_text reference REF** (at 8.65 -9) (layer F.SilkS)
    (effects (font (size 1 1) (thickness 0.15)))
  )
  (fp_text value Jack_XLR-6.35mm_Neutrik_NCJ9FI-H-0_Horizontal (at 8.65 21) (layer F.Fab)
    (effects (font (size 1 1) (thickness 0.15)))
  )
  (fp_text user %R (at 14.9 6.1) (layer F.Fab)
    (effects (font (size 1 1) (thickness 0.15)))
  )
  (fp_line (start -5.6 18.1) (end 2.4 18.1) (layer F.Fab) (width 0.1))
  (fp_line (start -5.6 -5.9) (end -5.6 18.1) (layer F.Fab) (width 0.1))
  (fp_line (start 2.4 -5.9) (end -5.6 -5.9) (layer F.Fab) (width 0.1))
  (fp_line (start 25.4 17.8) (end 18.4 17.8) (layer F.Fab) (width 0.1))
  (fp_line (start 25.4 -5.6) (end 25.4 17.8) (layer F.Fab) (width 0.1))
  (fp_line (start 18.4 -5.6) (end 25.4 -5.6) (layer F.Fab) (width 0.1))
  (fp_line (start 11.4 -7.4) (end 18.4 -7.4) (layer F.Fab) (width 0.1))
  (fp_line (start 11.4 19.6) (end 11.4 -7.4) (layer F.Fab) (width 0.1))
  (fp_line (start 18.4 19.6) (end 11.4 19.6) (layer F.Fab) (width 0.1))
  (fp_line (start 18.4 -7.4) (end 18.4 19.6) (layer F.Fab) (width 0.1))
  (fp_line (start 2.4 19.1) (end 11.4 19.1) (layer F.Fab) (width 0.1))
  (fp_line (start 2.4 18.1) (end 2.4 19.1) (layer F.Fab) (width 0.1))
  (fp_line (start 11.4 -6.9) (end 2.4 -6.9) (layer F.Fab) (width 0.1))
  (fp_line (start 18.4 -7.4) (end 18.4 19.6) (layer Dwgs.User) (width 0.1))
  (fp_line (start 2.4 -6.9) (end 2.4 -5.9) (layer F.Fab) (width 0.1))
  (fp_line (start 18.52 19.72) (end 11.28 19.72) (layer F.SilkS) (width 0.12))
  (fp_line (start 18.52 -7.52) (end 11.28 -7.52) (layer F.SilkS) (width 0.12))
  (fp_line (start 11.28 -7.02) (end 2.28 -7.02) (layer F.SilkS) (width 0.12))
  (fp_line (start 11.28 19.22) (end 2.28 19.22) (layer F.SilkS) (width 0.12))
  (fp_line (start -5.72 16.9) (end -5.72 18.22) (layer F.SilkS) (width 0.12))
  (fp_line (start 2.28 -6.02) (end -5.72 -6.02) (layer F.SilkS) (width 0.12))
  (fp_line (start 2.28 18.22) (end -5.72 18.22) (layer F.SilkS) (width 0.12))
  (fp_line (start 2.28 -7.02) (end 2.28 -6.02) (layer F.SilkS) (width 0.12))
  (fp_line (start 2.28 19.22) (end 2.28 18.22) (layer F.SilkS) (width 0.12))
  (fp_line (start 11.28 -7.02) (end 11.28 -7.52) (layer F.SilkS) (width 0.12))
  (fp_line (start 11.28 19.72) (end 11.28 19.22) (layer F.SilkS) (width 0.12))
  (fp_line (start 18.52 -5.72) (end 25.52 -5.72) (layer F.SilkS) (width 0.12))
  (fp_line (start 18.52 17.92) (end 25.52 17.92) (layer F.SilkS) (width 0.12))
  (fp_line (start 18.52 17.92) (end 18.52 19.72) (layer F.SilkS) (width 0.12))
  (fp_line (start 18.52 -7.52) (end 18.52 -5.72) (layer F.SilkS) (width 0.12))
  (fp_line (start 25.52 -5.72) (end 25.52 17.92) (layer F.SilkS) (width 0.12))
  (fp_line (start 25.9 20.1) (end -8.6 20.1) (layer F.CrtYd) (width 0.05))
  (fp_line (start 25.9 -7.9) (end -8.6 -7.9) (layer F.CrtYd) (width 0.05))
  (fp_line (start -8.6 -7.9) (end -8.6 20.1) (layer F.CrtYd) (width 0.05))
  (fp_line (start 25.9 -7.9) (end 25.9 20.1) (layer F.CrtYd) (width 0.05))
  (fp_line (start -5.72 -6.02) (end -5.72 1.5) (layer F.SilkS) (width 0.12))
  (fp_line (start -5.72 10.7) (end -5.72 13.7) (layer F.SilkS) (width 0.12))
  (fp_line (start -5.72 4.7) (end -5.72 7.5) (layer F.SilkS) (width 0.12))
  (pad 1 thru_hole circle (at 0 0) (size 2.9 2.9) (drill 1.2) (layers *.Cu *.Mask))
  (pad 2 thru_hole circle (at 0 12.2) (size 2.9 2.9) (drill 1.2) (layers *.Cu *.Mask))
  (pad 3 thru_hole circle (at 0 6.1) (size 2.9 2.9) (drill 1.2) (layers *.Cu *.Mask))
  (pad S thru_hole circle (at 7.3 11.3) (size 2.9 2.9) (drill 1.2) (layers *.Cu *.Mask))
  (pad T thru_hole circle (at -6.6 15.3) (size 2.9 2.9) (drill 1.2) (layers *.Cu *.Mask))
  (pad G thru_hole circle (at 7.3 6.1) (size 2.9 2.9) (drill 1.2) (layers *.Cu *.Mask))
  (pad "" np_thru_hole circle (at 11.4 2.1) (size 2.1 2.1) (drill 2.1) (layers *.Cu *.Mask))
  (pad R thru_hole circle (at 3.9 0.9) (size 2.9 2.9) (drill 1.2) (layers *.Cu *.Mask))
  (pad TN thru_hole circle (at -6.6 9.1) (size 2.9 2.9) (drill 1.2) (layers *.Cu *.Mask))
  (pad RN thru_hole circle (at -6.6 3.1) (size 2.9 2.9) (drill 1.2) (layers *.Cu *.Mask))
  (pad SN thru_hole circle (at 3.9 9.1) (size 2.9 2.9) (drill 1.2) (layers *.Cu *.Mask))
  (model ${KICAD6_3DMODEL_DIR}/Connector_Audio.3dshapes/Jack_XLR-6.35mm_Neutrik_NCJ9FI-H-0_Horizontal.wrl
    (at (xyz 0 0 0))
    (scale (xyz 1 1 1))
    (rotate (xyz 0 0 0))
  )
)
