(module Jack_XLR-6.35mm_Neutrik_NCJ6FA-V-DA_Vertical (layer F.Cu) (tedit 5C7D5805)
  (descr "Combo A series, 3 pole XLR female receptacle with 6.35mm (1/4in) stereo jack, vertical PCB mount, asymmetric push, https://www.neutrik.com/en/product/ncj6fa-v-da")
  (tags "neutrik jack combo a")
  (fp_text reference REF** (at -7.62 -13.6) (layer F.SilkS)
    (effects (font (size 1 1) (thickness 0.15)))
  )
  (fp_text value Jack_XLR-6.35mm_Neutrik_NCJ6FA-V-DA_Vertical (at -7.62 15.5) (layer F.Fab)
    (effects (font (size 1 1) (thickness 0.15)))
  )
  (fp_text user %R (at -7.62 -4.5) (layer F.Fab)
    (effects (font (size 1 1) (thickness 0.15)))
  )
  (fp_line (start -20.62 14.5) (end -20.62 -13) (layer F.CrtYd) (width 0.05))
  (fp_line (start 5.38 14.5) (end -20.62 14.5) (layer F.CrtYd) (width 0.05))
  (fp_line (start 5.38 -13) (end 5.38 14.5) (layer F.CrtYd) (width 0.05))
  (fp_line (start -20.62 -13) (end 5.38 -13) (layer F.CrtYd) (width 0.05))
  (fp_circle (center -17.52 -9.9) (end -16.32 -9.9) (layer F.Fab) (width 0.1))
  (fp_circle (center -7.62 0) (end 3.28 0) (layer F.Fab) (width 0.1))
  (fp_circle (center 2.28 9.9) (end 3.48 9.9) (layer F.Fab) (width 0.1))
  (fp_arc (start 2.28 9.9) (end 2.3 11.1) (angle -195.9) (layer F.SilkS) (width 0.12))
  (fp_arc (start -7.62 0) (end -1.45 -8.99) (angle 118.2) (layer F.SilkS) (width 0.12))
  (fp_arc (start -7.62 0) (end -12.1 -9.94) (angle 48.3) (layer F.SilkS) (width 0.12))
  (fp_arc (start -7.62 0) (end -12.6 9.7) (angle 118.1) (layer F.SilkS) (width 0.12))
  (fp_arc (start -7.62 0) (end -9.17 10.79) (angle 5.6) (layer F.SilkS) (width 0.12))
  (fp_arc (start -7.62 0) (end -5 10.58) (angle 5.7) (layer F.SilkS) (width 0.12))
  (fp_arc (start -16.92 12.3) (end -17.12 12.3) (angle -90) (layer F.Fab) (width 0.1))
  (fp_arc (start -20.56 -5.21) (end -17.79 -4.08) (angle -79.2) (layer F.Fab) (width 0.1))
  (fp_arc (start -11.73 0) (end -10.95 -1.36) (angle -239.5) (layer F.Fab) (width 0.1))
  (fp_arc (start -13.89 -14.15) (end -15.84 -11.88) (angle -59.7) (layer F.Fab) (width 0.1))
  (fp_arc (start -17.52 -9.9) (end -15.84 -11.88) (angle -187.3) (layer F.Fab) (width 0.1))
  (fp_arc (start 5.31 5.21) (end 2.55 4.08) (angle -79.3) (layer F.Fab) (width 0.1))
  (fp_arc (start 2.28 9.9) (end 2.28 12.5) (angle -147) (layer F.Fab) (width 0.1))
  (fp_arc (start -7.62 0) (end -2.75 -11.51) (angle -48) (layer F.Fab) (width 0.1))
  (fp_arc (start -7.62 0) (end -17.79 -4.08) (angle -51.5) (layer F.Fab) (width 0.1))
  (fp_arc (start -7.62 0) (end 2.55 4.08) (angle -82.7) (layer F.Fab) (width 0.1))
  (fp_arc (start -7.62 0) (end -10.95 1.36) (angle -44.6) (layer F.Fab) (width 0.1))
  (fp_arc (start -7.62 0) (end -6.21 3.31) (angle -44.6) (layer F.Fab) (width 0.1))
  (fp_arc (start -7.62 0) (end -4.29 -1.36) (angle -135.4) (layer F.Fab) (width 0.1))
  (fp_arc (start -3.51271 0) (end -4.3 1.36) (angle -239.5) (layer F.Fab) (width 0.1))
  (fp_arc (start -3.16 -10.58) (end -2.21 -10.22) (angle -87.1) (layer F.Fab) (width 0.1))
  (fp_arc (start -1.92 -10.27) (end -2.37 -9.68) (angle -240.1) (layer F.Fab) (width 0.1))
  (fp_arc (start -2.17 -9.75) (end -2.37 -9.82) (angle -82.8) (layer F.Fab) (width 0.1))
  (fp_line (start -13.68 14) (end -14.08 13.6) (layer F.Fab) (width 0.1))
  (fp_line (start -1.56 14) (end -2.26 14) (layer F.Fab) (width 0.1))
  (fp_line (start -12.98 14) (end -13.68 14) (layer F.Fab) (width 0.1))
  (fp_line (start 2.28 12.5) (end -1.16 12.5) (layer F.Fab) (width 0.1))
  (fp_line (start -14.08 12.5) (end -16.92 12.5) (layer F.Fab) (width 0.1))
  (fp_line (start -12.58 12.5) (end -2.66 12.5) (layer F.Fab) (width 0.1))
  (fp_line (start -17.12 5.51) (end -17.12 12.3) (layer F.Fab) (width 0.1))
  (fp_line (start -14.08 12.5) (end -14.08 13.6) (layer F.Fab) (width 0.1))
  (fp_line (start -12.58 12.5) (end -12.58 13.6) (layer F.Fab) (width 0.1))
  (fp_line (start -2.26 14) (end -2.66 13.6) (layer F.Fab) (width 0.1))
  (fp_line (start -2.66 12.5) (end -2.66 13.6) (layer F.Fab) (width 0.1))
  (fp_line (start -12.98 14) (end -12.58 13.6) (layer F.Fab) (width 0.1))
  (fp_line (start -1.16 12.5) (end -1.16 13.6) (layer F.Fab) (width 0.1))
  (fp_line (start -1.56 14) (end -1.16 13.6) (layer F.Fab) (width 0.1))
  (fp_arc (start -7.62 4.01) (end -9.03 3.31) (angle -232.7) (layer F.Fab) (width 0.1))
  (fp_arc (start -17.35 5.52) (end -17.12 5.51) (angle -29.6) (layer F.Fab) (width 0.1))
  (fp_circle (center -7.62 0) (end 0.28 0) (layer F.Fab) (width 0.1))
  (fp_circle (center -7.62 0) (end 1.98 0) (layer F.Fab) (width 0.1))
  (fp_line (start -2.37 -9.82) (end -2.21 -10.22) (layer F.Fab) (width 0.1))
  (fp_circle (center -17.52 -9.9) (end -16.32 -9.9) (layer F.SilkS) (width 0.12))
  (fp_arc (start -16.92 12.3) (end -17.12 12.3) (angle -90) (layer F.SilkS) (width 0.12))
  (fp_arc (start -20.56 -5.21) (end -17.79 -4.08) (angle -79.2) (layer F.SilkS) (width 0.12))
  (fp_arc (start -13.89 -14.15) (end -15.84 -11.88) (angle -35.7) (layer F.SilkS) (width 0.12))
  (fp_arc (start -17.52 -9.9) (end -15.84 -11.88) (angle -187.3) (layer F.SilkS) (width 0.12))
  (fp_arc (start 5.31 5.21) (end 2.55 4.08) (angle -79.3) (layer F.SilkS) (width 0.12))
  (fp_arc (start 2.28 9.9) (end 2.28 12.5) (angle -147) (layer F.SilkS) (width 0.12))
  (fp_arc (start -7.62 0) (end -2.75 -11.51) (angle -47.6) (layer F.SilkS) (width 0.12))
  (fp_arc (start -7.62 0) (end -17.79 -4.08) (angle -51.5) (layer F.SilkS) (width 0.12))
  (fp_arc (start -7.62 0) (end 2.55 4.08) (angle -77.1) (layer F.SilkS) (width 0.12))
  (fp_arc (start -3.15 -10.58) (end -2.45 -11.31) (angle -22.9) (layer F.SilkS) (width 0.12))
  (fp_line (start -13.68 14) (end -14.08 13.6) (layer F.SilkS) (width 0.12))
  (fp_line (start -1.56 14) (end -2.26 14) (layer F.SilkS) (width 0.12))
  (fp_line (start -12.98 14) (end -13.68 14) (layer F.SilkS) (width 0.12))
  (fp_line (start 2.28 12.5) (end -1.16 12.5) (layer F.SilkS) (width 0.12))
  (fp_line (start -14.08 12.5) (end -16.92 12.5) (layer F.SilkS) (width 0.12))
  (fp_line (start -12.58 12.5) (end -2.66 12.5) (layer F.SilkS) (width 0.12))
  (fp_line (start -17.12 5.51) (end -17.12 12.3) (layer F.SilkS) (width 0.12))
  (fp_line (start -14.08 12.5) (end -14.08 13.6) (layer F.SilkS) (width 0.12))
  (fp_line (start -12.58 12.5) (end -12.58 13.6) (layer F.SilkS) (width 0.12))
  (fp_line (start -2.26 14) (end -2.66 13.6) (layer F.SilkS) (width 0.12))
  (fp_line (start -2.66 12.5) (end -2.66 13.6) (layer F.SilkS) (width 0.12))
  (fp_line (start -12.98 14) (end -12.58 13.6) (layer F.SilkS) (width 0.12))
  (fp_line (start -1.16 12.5) (end -1.16 13.6) (layer F.SilkS) (width 0.12))
  (fp_line (start -1.56 14) (end -1.16 13.6) (layer F.SilkS) (width 0.12))
  (fp_arc (start -17.35 5.52) (end -17.12 5.51) (angle -29.6) (layer F.SilkS) (width 0.12))
  (fp_arc (start -7.62 0) (end -9.2 9.47) (angle 341) (layer F.SilkS) (width 0.12))
  (fp_arc (start -7.62 0) (end -8.3 7.87) (angle 32.2) (layer F.SilkS) (width 0.12))
  (fp_arc (start -7.62 0) (end -6.94 7.87) (angle -32.2) (layer F.SilkS) (width 0.12))
  (fp_arc (start -7.62 0) (end -15.31 -1.8) (angle 154.1) (layer F.SilkS) (width 0.12))
  (fp_arc (start -7.62 0) (end -1.33 4.78) (angle -24.9) (layer F.SilkS) (width 0.12))
  (pad "" np_thru_hole circle (at -7.62 0) (size 4 4) (drill 4) (layers *.Cu *.Mask))
  (pad 1 thru_hole circle (at 0 0) (size 2.9 2.9) (drill 1.2) (layers *.Cu *.Mask))
  (pad 2 thru_hole circle (at -15.24 0) (size 2.9 2.9) (drill 1.2) (layers *.Cu *.Mask))
  (pad 3 thru_hole circle (at -7.62 6.35) (size 2.9 2.9) (drill 1.2) (layers *.Cu *.Mask))
  (pad S thru_hole circle (at -3.175 0) (size 2.9 2.9) (drill 1.2) (layers *.Cu *.Mask))
  (pad R thru_hole circle (at -12.065 0) (size 2.9 2.9) (drill 1.2) (layers *.Cu *.Mask))
  (pad T thru_hole circle (at -3.175 4.445) (size 3.4 3.4) (drill 1.6) (layers *.Cu *.Mask))
  (pad T thru_hole circle (at -12.065 4.445) (size 3.4 3.4) (drill 1.6) (layers *.Cu *.Mask))
  (pad "" np_thru_hole circle (at -7.62 10.16) (size 3 3) (drill 3) (layers *.Cu *.Mask))
  (pad "" np_thru_hole circle (at -3.81 10.16) (size 2.2 2.2) (drill 2.2) (layers *.Cu *.Mask))
  (pad "" np_thru_hole circle (at -11.43 10.16) (size 2.2 2.2) (drill 2.2) (layers *.Cu *.Mask))
  (pad G thru_hole circle (at 0.635 10.16) (size 3.4 3.4) (drill 1.6) (layers *.Cu *.Mask))
  (pad "" np_thru_hole circle (at -13.335 -10.16) (size 2.2 2.2) (drill 2.2) (layers *.Cu *.Mask))
  (pad "" np_thru_hole circle (at -1.905 -10.16) (size 2.2 2.2) (drill 2.2) (layers *.Cu *.Mask))
  (model ${KICAD6_3DMODEL_DIR}/Connector_Audio.3dshapes/Jack_XLR-6.35mm_Neutrik_NCJ6FA-V-DA_Vertical.wrl
    (at (xyz 0 0 0))
    (scale (xyz 1 1 1))
    (rotate (xyz 0 0 0))
  )
)
