(module Jack_XLR_Neutrik_NC5MBV_Vertical (layer F.Cu) (tedit 5D2D041D)
  (descr "B Series, 5 pole male XLR receptacle, grounding: separate ground contact to mating connector shell and front panel, vertical PCB mount, https://www.neutrik.com/en/product/nc5mbv")
  (tags "neutrik xlr b")
  (fp_text reference REF** (at 4.445 -12.865) (layer F.SilkS)
    (effects (font (size 1 1) (thickness 0.15)))
  )
  (fp_text value Jack_XLR_Neutrik_NC5MBV_Vertical (at 4.445 16) (layer F.Fab)
    (effects (font (size 1 1) (thickness 0.15)))
  )
  (fp_arc (start 14.35 10.53) (end 14.34 13.13) (angle -121.8) (layer F.Fab) (width 0.1))
  (fp_text user %R (at 4.445 -0.365) (layer F.Fab)
    (effects (font (size 1 1) (thickness 0.15)))
  )
  (fp_line (start -8.55 15.13) (end -8.55 -12.35) (layer F.CrtYd) (width 0.05))
  (fp_line (start 17.45 15.13) (end -8.55 15.13) (layer F.CrtYd) (width 0.05))
  (fp_line (start 17.45 -12.35) (end 17.45 15.13) (layer F.CrtYd) (width 0.05))
  (fp_line (start -8.55 -12.35) (end 17.45 -12.35) (layer F.CrtYd) (width 0.05))
  (fp_circle (center 4.445 0.635) (end 15.345 0.635) (layer F.Fab) (width 0.1))
  (fp_circle (center -5.455 -9.265) (end -4.255 -9.265) (layer F.Fab) (width 0.1))
  (fp_circle (center 14.345 10.535) (end 15.545 10.535) (layer F.Fab) (width 0.1))
  (fp_circle (center -5.455 -9.265) (end -4.255 -9.265) (layer F.SilkS) (width 0.12))
  (fp_circle (center 14.345 10.535) (end 15.545 10.535) (layer F.SilkS) (width 0.12))
  (fp_line (start 8.7 14.63) (end 7.8 14.63) (layer F.Fab) (width 0.1))
  (fp_line (start 0.19 14.63) (end 1.09 14.63) (layer F.Fab) (width 0.1))
  (fp_line (start -0.11 14.33) (end 0.19 14.63) (layer F.Fab) (width 0.1))
  (fp_line (start -7.05 -5.5) (end -7.05 5.53) (layer F.Fab) (width 0.1))
  (fp_line (start 14.34 13.13) (end -4.3 13.13) (layer F.Fab) (width 0.1))
  (fp_line (start -4.3 9.97) (end -4.3 13.13) (layer F.Fab) (width 0.1))
  (fp_line (start 7.5 14.33) (end 7.8 14.63) (layer F.Fab) (width 0.1))
  (fp_line (start -0.11 13.13) (end -0.11 14.33) (layer F.Fab) (width 0.1))
  (fp_line (start 1.39 13.13) (end 1.39 14.33) (layer F.Fab) (width 0.1))
  (fp_line (start 7.5 13.13) (end 7.5 14.33) (layer F.Fab) (width 0.1))
  (fp_line (start 9 13.13) (end 9 14.33) (layer F.Fab) (width 0.1))
  (fp_line (start 1.39 14.33) (end 1.09 14.63) (layer F.Fab) (width 0.1))
  (fp_line (start 15.94 6.77) (end 15.94 -4.26) (layer F.Fab) (width 0.1))
  (fp_line (start 9 14.33) (end 8.7 14.63) (layer F.Fab) (width 0.1))
  (fp_arc (start -5.3 9.97) (end -4.3 9.97) (angle -43.7) (layer F.Fab) (width 0.1))
  (fp_arc (start -13.04 -5.23) (end -7.05 -5.5) (angle -24.6) (layer F.Fab) (width 0.1))
  (fp_arc (start -5.45 -9.26) (end -4.13 -11.5) (angle -150.5) (layer F.Fab) (width 0.1))
  (fp_arc (start -1.46 -16.94) (end -4.13 -11.5) (angle -41.6) (layer F.Fab) (width 0.1))
  (fp_arc (start 4.445 0.635) (end -7.05 5.53) (angle -20.7) (layer F.Fab) (width 0.1))
  (fp_arc (start 4.445 0.635) (end 15.94 -4.26) (angle -87) (layer F.Fab) (width 0.1))
  (fp_arc (start 21.95 6.51) (end 15.95 6.77) (angle -24) (layer F.Fab) (width 0.1))
  (fp_circle (center 4.445 0.635) (end 12.745 0.635) (layer F.Fab) (width 0.1))
  (fp_circle (center 4.445 0.635) (end 15.345 0.635) (layer F.SilkS) (width 0.12))
  (fp_line (start 8.7 14.63) (end 7.8 14.63) (layer F.SilkS) (width 0.12))
  (fp_line (start 0.19 14.63) (end 1.09 14.63) (layer F.SilkS) (width 0.12))
  (fp_line (start -0.11 14.33) (end 0.19 14.63) (layer F.SilkS) (width 0.12))
  (fp_line (start -7.05 -5.5) (end -7.05 5.53) (layer F.SilkS) (width 0.12))
  (fp_line (start 14.34 13.13) (end -4.3 13.13) (layer F.SilkS) (width 0.12))
  (fp_line (start -4.3 9.97) (end -4.3 13.13) (layer F.SilkS) (width 0.12))
  (fp_line (start 7.5 14.33) (end 7.8 14.63) (layer F.SilkS) (width 0.12))
  (fp_line (start -0.11 13.13) (end -0.11 14.33) (layer F.SilkS) (width 0.12))
  (fp_line (start 1.39 13.13) (end 1.39 14.33) (layer F.SilkS) (width 0.12))
  (fp_line (start 7.5 13.13) (end 7.5 14.33) (layer F.SilkS) (width 0.12))
  (fp_line (start 9 13.13) (end 9 14.33) (layer F.SilkS) (width 0.12))
  (fp_line (start 1.39 14.33) (end 1.09 14.63) (layer F.SilkS) (width 0.12))
  (fp_line (start 15.94 6.77) (end 15.94 -4.26) (layer F.SilkS) (width 0.12))
  (fp_line (start 9 14.33) (end 8.7 14.63) (layer F.SilkS) (width 0.12))
  (fp_arc (start -5.3 9.97) (end -4.3 9.97) (angle -43.7) (layer F.SilkS) (width 0.12))
  (fp_arc (start -13.04 -5.23) (end -7.05 -5.5) (angle -24.6) (layer F.SilkS) (width 0.12))
  (fp_arc (start -5.45 -9.26) (end -4.13 -11.5) (angle -150.5) (layer F.SilkS) (width 0.12))
  (fp_arc (start -1.46 -16.94) (end -4.13 -11.5) (angle -41.6) (layer F.SilkS) (width 0.12))
  (fp_arc (start 4.445 0.635) (end -7.05 5.53) (angle -20.7) (layer F.SilkS) (width 0.12))
  (fp_arc (start 4.445 0.635) (end 15.94 -4.26) (angle -87) (layer F.SilkS) (width 0.12))
  (fp_arc (start 21.95 6.51) (end 15.95 6.77) (angle -24.7) (layer F.SilkS) (width 0.12))
  (fp_arc (start 14.34 10.53) (end 15.56 12.83) (angle -91.7) (layer F.SilkS) (width 0.12))
  (fp_arc (start 14.34 10.53) (end 14.34 13.13) (angle -27.7) (layer F.SilkS) (width 0.12))
  (fp_arc (start 4.445 0.635) (end 2.7 8.75) (angle 335.9) (layer F.SilkS) (width 0.12))
  (pad 1 thru_hole circle (at 0 0) (size 2.9 2.9) (drill 1.2) (layers *.Cu *.Mask))
  (pad 2 thru_hole circle (at 1.27 3.175) (size 3.4 3.4) (drill 1.6) (layers *.Cu *.Mask))
  (pad G thru_hole circle (at 4.445 8.89) (size 2.9 2.9) (drill 1.2) (layers *.Cu *.Mask))
  (pad 3 thru_hole circle (at 4.445 5.08) (size 2.9 2.9) (drill 1.2) (layers *.Cu *.Mask))
  (pad 4 thru_hole circle (at 7.62 3.175) (size 3.4 3.4) (drill 1.6) (layers *.Cu *.Mask))
  (pad 5 thru_hole circle (at 8.255 -0.635) (size 2.9 2.9) (drill 1.2) (layers *.Cu *.Mask))
  (model ${KICAD6_3DMODEL_DIR}/Connector_Audio.3dshapes/Jack_XLR_Neutrik_NC5MBV_Vertical.wrl
    (at (xyz 0 0 0))
    (scale (xyz 1 1 1))
    (rotate (xyz 0 0 0))
  )
)
