(module Jack_XLR_Neutrik_NC3FAH1-DA_Horizontal (layer F.Cu) (tedit 5E696EBA)
  (descr "A Series, 3 pole female XLR receptacle, grounding: mating connector shell to pin1 and front panel, horizontal PCB mount, asymmetric push, https://www.neutrik.com/en/product/nc3fah1-da")
  (tags "neutrik xlr a")
  (fp_text reference REF** (at 4.3 -10) (layer F.SilkS)
    (effects (font (size 1 1) (thickness 0.15)))
  )
  (fp_text value Jack_XLR_Neutrik_NC3FAH1-DA_Horizontal (at 4.3 18) (layer F.Fab)
    (effects (font (size 1 1) (thickness 0.15)))
  )
  (fp_text user %R (at 10.35 3.81) (layer F.Fab)
    (effects (font (size 1 1) (thickness 0.15)))
  )
  (fp_line (start 15.4 14.81) (end 12.7 14.81) (layer F.Fab) (width 0.1))
  (fp_line (start 15.4 -7.19) (end 15.4 14.81) (layer F.Fab) (width 0.1))
  (fp_line (start 12.7 -7.19) (end 15.4 -7.19) (layer F.Fab) (width 0.1))
  (fp_line (start 6.2 -8.69) (end 12.7 -8.69) (layer F.Fab) (width 0.1))
  (fp_line (start 6.2 16.61) (end 6.2 -8.69) (layer F.Fab) (width 0.1))
  (fp_line (start 12.7 16.61) (end 6.2 16.61) (layer F.Fab) (width 0.1))
  (fp_line (start 12.7 -8.69) (end 12.7 16.61) (layer F.Fab) (width 0.1))
  (fp_line (start 12.7 -8.69) (end 12.7 16.61) (layer Dwgs.User) (width 0.1))
  (fp_line (start 12.82 16.73) (end 6.08 16.73) (layer F.SilkS) (width 0.12))
  (fp_line (start 12.82 -8.81) (end 6.08 -8.81) (layer F.SilkS) (width 0.12))
  (fp_line (start 6.08 -7.06) (end 6.08 -8.81) (layer F.SilkS) (width 0.12))
  (fp_line (start 6.08 16.73) (end 6.08 14.68) (layer F.SilkS) (width 0.12))
  (fp_line (start 12.82 -7.31) (end 15.52 -7.31) (layer F.SilkS) (width 0.12))
  (fp_line (start 12.82 14.93) (end 15.52 14.93) (layer F.SilkS) (width 0.12))
  (fp_line (start 12.82 14.93) (end 12.82 16.73) (layer F.SilkS) (width 0.12))
  (fp_line (start 12.82 -8.81) (end 12.82 -7.31) (layer F.SilkS) (width 0.12))
  (fp_line (start 15.52 -7.31) (end 15.52 14.93) (layer F.SilkS) (width 0.12))
  (fp_line (start 15.9 17.11) (end -7.3 17.11) (layer F.CrtYd) (width 0.05))
  (fp_line (start 15.9 -9.19) (end -7.3 -9.19) (layer F.CrtYd) (width 0.05))
  (fp_line (start -7.3 -9.19) (end -7.3 17.11) (layer F.CrtYd) (width 0.05))
  (fp_line (start 15.9 -9.19) (end 15.9 17.11) (layer F.CrtYd) (width 0.05))
  (fp_line (start 0.58 -4.31) (end -6.92 -4.31) (layer F.SilkS) (width 0.12))
  (fp_line (start 6.2 -6.94) (end 0.7 -6.94) (layer F.Fab) (width 0.1))
  (fp_line (start 0.7 -4.19) (end -6.8 -4.19) (layer F.Fab) (width 0.1))
  (fp_line (start -6.8 -4.19) (end -6.8 11.81) (layer F.Fab) (width 0.1))
  (fp_line (start 6.08 -7.06) (end 0.58 -7.06) (layer F.SilkS) (width 0.12))
  (fp_line (start -6.92 -4.31) (end -6.92 11.93) (layer F.SilkS) (width 0.12))
  (fp_line (start 0.58 -7.06) (end 0.58 -4.31) (layer F.SilkS) (width 0.12))
  (fp_line (start -6.8 11.81) (end 0.7 11.81) (layer F.Fab) (width 0.1))
  (fp_line (start 0.58 11.93) (end -6.92 11.93) (layer F.SilkS) (width 0.12))
  (fp_line (start 0.7 -6.94) (end 0.7 14.56) (layer F.Fab) (width 0.1))
  (fp_line (start 0.58 11.93) (end 0.58 14.68) (layer F.SilkS) (width 0.12))
  (fp_line (start 6.08 14.68) (end 0.58 14.68) (layer F.SilkS) (width 0.12))
  (fp_line (start 0.7 14.56) (end 6.2 14.56) (layer F.Fab) (width 0.1))
  (pad 1 thru_hole circle (at 0 0) (size 3.4 3.4) (drill 1.6) (layers *.Cu *.Mask))
  (pad 2 thru_hole circle (at -0.635 7.62) (size 3.4 3.4) (drill 1.6) (layers *.Cu *.Mask))
  (pad 3 thru_hole circle (at -4.45 3.81) (size 2.9 2.9) (drill 1.2) (layers *.Cu *.Mask))
  (pad "" np_thru_hole circle (at 8.89 0) (size 1.6 1.6) (drill 1.6) (layers *.Cu *.Mask))
  (pad "" np_thru_hole circle (at 3.81 7.62) (size 1.6 1.6) (drill 1.6) (layers *.Cu *.Mask))
  (model ${KICAD6_3DMODEL_DIR}/Connector_Audio.3dshapes/Jack_XLR_Neutrik_NC3FAH1-DA_Horizontal.wrl
    (at (xyz 0 0 0))
    (scale (xyz 1 1 1))
    (rotate (xyz 0 0 0))
  )
)
