(module Jack_XLR_Neutrik_NC5FAV_Vertical (layer F.Cu) (tedit 5C09AD38)
  (descr "A Series, 5 pole female XLR receptacle, grounding: separate ground contact to mating connector shell and front panel, vertical PCB mount, https://www.neutrik.com/en/product/nc5fav")
  (tags "neutrik xlr a")
  (fp_text reference REF** (at -3.81 -12.865) (layer F.SilkS)
    (effects (font (size 1 1) (thickness 0.15)))
  )
  (fp_text value Jack_XLR_Neutrik_NC5FAV_Vertical (at -3.81 16) (layer F.Fab)
    (effects (font (size 1 1) (thickness 0.15)))
  )
  (fp_text user %R (at -3.81 -0.365) (layer F.Fab)
    (effects (font (size 1 1) (thickness 0.15)))
  )
  (fp_line (start -17.1 15.13) (end -17.1 -12.65) (layer F.CrtYd) (width 0.05))
  (fp_line (start 9.2 15.13) (end -17.1 15.13) (layer F.CrtYd) (width 0.05))
  (fp_line (start 9.2 -12.65) (end 9.2 15.13) (layer F.CrtYd) (width 0.05))
  (fp_line (start -17.1 -12.65) (end 9.2 -12.65) (layer F.CrtYd) (width 0.05))
  (fp_circle (center 6.09 10.535) (end 7.29 10.535) (layer F.Fab) (width 0.1))
  (fp_arc (start -3.81 0.635) (end 7.06 -5.53) (angle -79.8) (layer F.Fab) (width 0.1))
  (fp_arc (start 12.11 5.86) (end 7.09 5.87) (angle -37.9) (layer F.Fab) (width 0.1))
  (fp_arc (start 6.09 10.53) (end 6.09 13.13) (angle -127.5) (layer F.Fab) (width 0.1))
  (fp_arc (start -14.53 6.7) (end -14.71 6.7) (angle -32) (layer F.Fab) (width 0.1))
  (fp_arc (start -14.27 7.15) (end -14.43 7.24) (angle -97.4) (layer F.Fab) (width 0.1))
  (fp_arc (start -14.515 6.01) (end -14.61 5.84) (angle -60.7) (layer F.Fab) (width 0.1))
  (fp_arc (start -12.4 7.62) (end -12.23 7.62) (angle -39) (layer F.Fab) (width 0.1))
  (fp_arc (start -14.3 5.09) (end -14 5.5) (angle -65) (layer F.Fab) (width 0.1))
  (fp_arc (start -13.08 7.27) (end -13.27 6.8) (angle 66.9) (layer F.Fab) (width 0.1))
  (fp_line (start 7.09 -5.43) (end 7.09 5.87) (layer F.Fab) (width 0.1))
  (fp_line (start 0.62 14.63) (end 0.62 13.13) (layer F.Fab) (width 0.1))
  (fp_line (start -0.63 11.76) (end -0.63 14.63) (layer F.Fab) (width 0.1))
  (fp_line (start -14.16 7.3) (end -13.27 6.8) (layer F.Fab) (width 0.1))
  (fp_line (start -14.61 5.84) (end -14 5.5) (layer F.Fab) (width 0.1))
  (fp_line (start -6.99 14.63) (end -6.99 11.71) (layer F.Fab) (width 0.1))
  (fp_line (start -8.24 11.71) (end -8.24 14.63) (layer F.Fab) (width 0.1))
  (fp_line (start -12.23 11.76) (end -12.23 7.62) (layer F.Fab) (width 0.1))
  (fp_line (start -14.71 0.635) (end -14.71 -4.13) (layer F.Fab) (width 0.1))
  (fp_line (start -14.71 6.01) (end -14.71 6.7) (layer F.Fab) (width 0.1))
  (fp_line (start -2.89 11.76) (end -3.73 11.71) (layer F.Fab) (width 0.1))
  (fp_line (start -8.24 11.71) (end -9.89 11.71) (layer F.Fab) (width 0.1))
  (fp_line (start -3.73 11.71) (end -6.99 11.71) (layer F.Fab) (width 0.1))
  (fp_line (start -10.73 11.76) (end -12.23 11.76) (layer F.Fab) (width 0.1))
  (fp_line (start -0.63 11.76) (end -2.89 11.76) (layer F.Fab) (width 0.1))
  (fp_line (start -9.89 11.71) (end -10.73 11.76) (layer F.Fab) (width 0.1))
  (fp_line (start -14.68 6.8) (end -14.43 7.24) (layer F.Fab) (width 0.1))
  (fp_line (start 6.09 13.13) (end 0.62 13.13) (layer F.Fab) (width 0.1))
  (fp_line (start -6.99 14.63) (end -8.24 14.63) (layer F.Fab) (width 0.1))
  (fp_line (start 0.62 14.63) (end -0.63 14.63) (layer F.Fab) (width 0.1))
  (fp_arc (start -3.81 0.635) (end -5.38 -7.11) (angle -28.1) (layer F.Fab) (width 0.1))
  (fp_arc (start -3.81 0.635) (end -1.16 -6.81) (angle -8.1) (layer F.Fab) (width 0.1))
  (fp_arc (start -3.81 0.635) (end -5.38 -7.11) (angle -8.1) (layer F.Fab) (width 0.1))
  (fp_arc (start -19.72 -4.11) (end -14.71 -4.13) (angle -40.6) (layer F.Fab) (width 0.1))
  (fp_arc (start -13.71 -9.26) (end -12.15 -11.71) (angle -163) (layer F.Fab) (width 0.1))
  (fp_circle (center -13.71 -9.265) (end -12.51 -9.265) (layer F.Fab) (width 0.1))
  (fp_arc (start -9.46 -15.93) (end -12.15 -11.71) (angle -16.1) (layer F.Fab) (width 0.1))
  (fp_arc (start -9.46 -15.93) (end -10.88 -11.13) (angle -24.2) (layer F.Fab) (width 0.1))
  (fp_arc (start -9.46 -15.99) (end -8.79 -10.97) (angle -9.7) (layer F.Fab) (width 0.1))
  (fp_arc (start 6.87 -5.42) (end 7.09 -5.43) (angle -29.6) (layer F.Fab) (width 0.1))
  (fp_circle (center -3.81 0.635) (end 7.09 0.635) (layer F.Fab) (width 0.1))
  (fp_circle (center -3.81 0.635) (end 4.09 0.635) (layer F.Fab) (width 0.1))
  (fp_arc (start -3.81 0.635) (end 7.06 -5.53) (angle -79.8) (layer F.SilkS) (width 0.12))
  (fp_arc (start 12.11 5.86) (end 7.09 5.87) (angle -37.9) (layer F.SilkS) (width 0.12))
  (fp_arc (start 6.09 10.53) (end 6.09 13.13) (angle -127.5) (layer F.SilkS) (width 0.12))
  (fp_arc (start -14.53 6.7) (end -14.71 6.7) (angle -32) (layer F.SilkS) (width 0.12))
  (fp_arc (start -14.27 7.15) (end -14.43 7.24) (angle -97.4) (layer F.SilkS) (width 0.12))
  (fp_arc (start -14.515 6.01) (end -14.61 5.84) (angle -60.7) (layer F.SilkS) (width 0.12))
  (fp_arc (start -12.4 7.62) (end -12.23 7.62) (angle -39) (layer F.SilkS) (width 0.12))
  (fp_arc (start -14.3 5.09) (end -14 5.5) (angle -65) (layer F.SilkS) (width 0.12))
  (fp_arc (start -13.08 7.27) (end -13.27 6.8) (angle 66.9) (layer F.SilkS) (width 0.12))
  (fp_line (start 7.09 -5.43) (end 7.09 5.87) (layer F.SilkS) (width 0.12))
  (fp_line (start 0.62 14.63) (end 0.62 13.13) (layer F.SilkS) (width 0.12))
  (fp_line (start -0.63 11.76) (end -0.63 14.63) (layer F.SilkS) (width 0.12))
  (fp_line (start -14.16 7.3) (end -13.27 6.8) (layer F.SilkS) (width 0.12))
  (fp_line (start -14.61 5.84) (end -14 5.5) (layer F.SilkS) (width 0.12))
  (fp_line (start -6.99 14.63) (end -6.99 11.71) (layer F.SilkS) (width 0.12))
  (fp_line (start -8.24 11.71) (end -8.24 14.63) (layer F.SilkS) (width 0.12))
  (fp_line (start -12.23 11.76) (end -12.23 7.62) (layer F.SilkS) (width 0.12))
  (fp_line (start -14.71 0.635) (end -14.71 -4.13) (layer F.SilkS) (width 0.12))
  (fp_line (start -14.71 6.01) (end -14.71 6.7) (layer F.SilkS) (width 0.12))
  (fp_line (start -2.89 11.76) (end -3.73 11.71) (layer F.SilkS) (width 0.12))
  (fp_line (start -8.24 11.71) (end -9.89 11.71) (layer F.SilkS) (width 0.12))
  (fp_line (start -3.73 11.71) (end -6.99 11.71) (layer F.SilkS) (width 0.12))
  (fp_line (start -10.73 11.76) (end -12.23 11.76) (layer F.SilkS) (width 0.12))
  (fp_line (start -0.63 11.76) (end -2.89 11.76) (layer F.SilkS) (width 0.12))
  (fp_line (start -9.89 11.71) (end -10.73 11.76) (layer F.SilkS) (width 0.12))
  (fp_line (start -14.68 6.8) (end -14.43 7.24) (layer F.SilkS) (width 0.12))
  (fp_line (start 6.09 13.13) (end 0.62 13.13) (layer F.SilkS) (width 0.12))
  (fp_line (start -6.99 14.63) (end -8.24 14.63) (layer F.SilkS) (width 0.12))
  (fp_line (start 0.62 14.63) (end -0.63 14.63) (layer F.SilkS) (width 0.12))
  (fp_arc (start -3.81 0.635) (end -5.38 -7.11) (angle -28.1) (layer F.SilkS) (width 0.12))
  (fp_arc (start -3.81 0.635) (end -1.16 -6.81) (angle -8.1) (layer F.SilkS) (width 0.12))
  (fp_arc (start -3.81 0.635) (end -5.38 -7.11) (angle -8.1) (layer F.SilkS) (width 0.12))
  (fp_arc (start -19.72 -4.11) (end -14.71 -4.13) (angle -40.6) (layer F.SilkS) (width 0.12))
  (fp_arc (start -13.71 -9.26) (end -12.15 -11.71) (angle -163) (layer F.SilkS) (width 0.12))
  (fp_circle (center -13.71 -9.265) (end -12.51 -9.265) (layer F.SilkS) (width 0.12))
  (fp_arc (start -9.46 -15.93) (end -12.15 -11.71) (angle -16.1) (layer F.SilkS) (width 0.12))
  (fp_arc (start -9.46 -15.93) (end -10.88 -11.13) (angle -24.2) (layer F.SilkS) (width 0.12))
  (fp_arc (start -9.46 -15.99) (end -8.79 -10.97) (angle -9.7) (layer F.SilkS) (width 0.12))
  (fp_arc (start 6.87 -5.42) (end 7.09 -5.43) (angle -29.6) (layer F.SilkS) (width 0.12))
  (fp_circle (center -3.81 0.635) (end 7.09 0.635) (layer F.SilkS) (width 0.12))
  (fp_circle (center -3.81 0.635) (end 4.09 0.635) (layer F.SilkS) (width 0.12))
  (fp_arc (start 6.09 10.535) (end 5.86 11.715) (angle -220) (layer F.SilkS) (width 0.12))
  (pad 3 thru_hole circle (at -3.81 5.08) (size 2.9 2.9) (drill 1.2) (layers *.Cu *.Mask))
  (pad 4 thru_hole circle (at -6.985 3.175) (size 2.9 2.9) (drill 1.2) (layers *.Cu *.Mask))
  (pad 5 thru_hole circle (at -7.62 -0.635) (size 2.9 2.9) (drill 1.2) (layers *.Cu *.Mask))
  (pad G thru_hole circle (at 4.445 10.795) (size 2.9 2.9) (drill 1.2) (layers *.Cu *.Mask))
  (pad 1 thru_hole circle (at 0 0) (size 2.9 2.9) (drill 1.2) (layers *.Cu *.Mask))
  (pad 2 thru_hole circle (at -0.635 3.175) (size 2.9 2.9) (drill 1.2) (layers *.Cu *.Mask))
  (model ${KICAD6_3DMODEL_DIR}/Connector_Audio.3dshapes/Jack_XLR_Neutrik_NC5FAV_Vertical.wrl
    (at (xyz 0 0 0))
    (scale (xyz 1 1 1))
    (rotate (xyz 0 0 0))
  )
)
