(module Jack_XLR_Neutrik_NC5FAH-0_Horizontal (layer F.Cu) (tedit 5E7C390E)
  (descr "A Series, 5 pole female XLR receptacle, grounding: separate ground contact to mating connector shell and front panel, horizontal PCB mount, retention spring instead of latch, https://www.neutrik.com/en/product/nc5fah-0")
  (tags "neutrik xlr a")
  (fp_text reference REF** (at 8.75 -10) (layer F.SilkS)
    (effects (font (size 1 1) (thickness 0.15)))
  )
  (fp_text value Jack_XLR_Neutrik_NC5FAH-0_Horizontal (at 8.75 18) (layer F.Fab)
    (effects (font (size 1 1) (thickness 0.15)))
  )
  (fp_text user %R (at 14.8 3.81) (layer F.Fab)
    (effects (font (size 1 1) (thickness 0.15)))
  )
  (fp_line (start 19.85 14.81) (end 17.15 14.81) (layer F.Fab) (width 0.1))
  (fp_line (start 19.85 -7.19) (end 19.85 14.81) (layer F.Fab) (width 0.1))
  (fp_line (start 17.15 -7.19) (end 19.85 -7.19) (layer F.Fab) (width 0.1))
  (fp_line (start 10.65 -8.69) (end 17.15 -8.69) (layer F.Fab) (width 0.1))
  (fp_line (start 10.65 16.61) (end 10.65 -8.69) (layer F.Fab) (width 0.1))
  (fp_line (start 17.15 16.61) (end 10.65 16.61) (layer F.Fab) (width 0.1))
  (fp_line (start 17.15 -8.69) (end 17.15 16.61) (layer F.Fab) (width 0.1))
  (fp_line (start 17.15 -8.69) (end 17.15 16.61) (layer Dwgs.User) (width 0.1))
  (fp_line (start 17.27 16.73) (end 10.53 16.73) (layer F.SilkS) (width 0.12))
  (fp_line (start 17.27 -8.81) (end 10.53 -8.81) (layer F.SilkS) (width 0.12))
  (fp_line (start 10.53 -7.16) (end 10.53 -8.81) (layer F.SilkS) (width 0.12))
  (fp_line (start 10.53 16.73) (end 10.53 14.78) (layer F.SilkS) (width 0.12))
  (fp_line (start 17.27 -7.31) (end 19.97 -7.31) (layer F.SilkS) (width 0.12))
  (fp_line (start 17.27 14.93) (end 19.97 14.93) (layer F.SilkS) (width 0.12))
  (fp_line (start 17.27 14.93) (end 17.27 16.73) (layer F.SilkS) (width 0.12))
  (fp_line (start 17.27 -8.81) (end 17.27 -7.31) (layer F.SilkS) (width 0.12))
  (fp_line (start 19.97 -7.31) (end 19.97 14.93) (layer F.SilkS) (width 0.12))
  (fp_line (start 20.35 17.11) (end -2.85 17.11) (layer F.CrtYd) (width 0.05))
  (fp_line (start 20.35 -9.19) (end -2.85 -9.19) (layer F.CrtYd) (width 0.05))
  (fp_line (start -2.85 -9.19) (end -2.85 17.11) (layer F.CrtYd) (width 0.05))
  (fp_line (start 20.35 -9.19) (end 20.35 17.11) (layer F.CrtYd) (width 0.05))
  (fp_line (start 10.53 14.78) (end 5.03 14.78) (layer F.SilkS) (width 0.12))
  (fp_line (start 5.03 12.73) (end 5.03 14.78) (layer F.SilkS) (width 0.12))
  (fp_line (start 5.15 12.61) (end -2.35 12.61) (layer F.Fab) (width 0.1))
  (fp_line (start 5.03 12.73) (end -2.47 12.73) (layer F.SilkS) (width 0.12))
  (fp_line (start -2.47 -5.11) (end -2.47 12.73) (layer F.SilkS) (width 0.12))
  (fp_line (start 10.53 -7.16) (end 5.03 -7.16) (layer F.SilkS) (width 0.12))
  (fp_line (start 5.03 -5.11) (end 5.03 -7.16) (layer F.SilkS) (width 0.12))
  (fp_line (start 5.15 -4.99) (end -2.35 -4.99) (layer F.Fab) (width 0.1))
  (fp_line (start 5.03 -5.11) (end -2.47 -5.11) (layer F.SilkS) (width 0.12))
  (fp_line (start -2.35 -4.99) (end -2.35 12.61) (layer F.Fab) (width 0.1))
  (fp_line (start 5.15 14.66) (end 5.15 -7.04) (layer F.Fab) (width 0.1))
  (fp_line (start 10.65 -7.04) (end 5.15 -7.04) (layer F.Fab) (width 0.1))
  (fp_line (start 5.15 14.66) (end 10.65 14.66) (layer F.Fab) (width 0.1))
  (pad 1 thru_hole circle (at 0 0) (size 3.4 3.4) (drill 1.6) (layers *.Cu *.Mask))
  (pad 2 thru_hole circle (at 3.815 3.81) (size 2.9 2.9) (drill 1.2) (layers *.Cu *.Mask))
  (pad 4 thru_hole circle (at 3.815 10.79) (size 2.9 2.9) (drill 1.2) (layers *.Cu *.Mask))
  (pad "" np_thru_hole circle (at 13.34 0) (size 1.6 1.6) (drill 1.6) (layers *.Cu *.Mask))
  (pad "" np_thru_hole circle (at 8.26 7.62) (size 1.6 1.6) (drill 1.6) (layers *.Cu *.Mask))
  (pad 5 thru_hole circle (at 0 7.62) (size 3.4 3.4) (drill 1.6) (layers *.Cu *.Mask))
  (pad G thru_hole circle (at 10.17 -4.44) (size 2.9 2.9) (drill 1.2) (layers *.Cu *.Mask))
  (pad 3 thru_hole circle (at 0 3.81) (size 2.9 2.9) (drill 1.2) (layers *.Cu *.Mask))
  (model ${KICAD6_3DMODEL_DIR}/Connector_Audio.3dshapes/Jack_XLR_Neutrik_NC5FAH-0_Horizontal.wrl
    (at (xyz 0 0 0))
    (scale (xyz 1 1 1))
    (rotate (xyz 0 0 0))
  )
)
