(module Jack_3.5mm_CUI_SJ1-3533NG_Horizontal (layer F.Cu) (tedit 5BAD3514)
  (descr "TRS 3.5mm, horizontal, through-hole, https://www.cui.com/product/resource/sj1-353xng.pdf")
  (tags "TRS audio jack stereo horizontal")
  (fp_text reference REF** (at 0.1 -6.45) (layer F.SilkS)
    (effects (font (size 1 1) (thickness 0.15)))
  )
  (fp_text value Jack_3.5mm_CUI_SJ1-3533NG_Horizontal (at 0.1 14.05) (layer F.Fab)
    (effects (font (size 1 1) (thickness 0.15)))
  )
  (fp_line (start -2.1 -5.2) (end 3.9 -5.2) (layer F.Fab) (width 0.1))
  (fp_line (start 3.9 -5.2) (end 3.9 -1.2) (layer F.Fab) (width 0.1))
  (fp_line (start 3.9 -1.2) (end 4.2 -1.2) (layer F.Fab) (width 0.1))
  (fp_line (start 4.2 -1.2) (end 4.2 12.8) (layer F.Fab) (width 0.1))
  (fp_line (start 4.2 12.8) (end -4 12.8) (layer F.Fab) (width 0.1))
  (fp_line (start -4 12.8) (end -4 -1.2) (layer F.Fab) (width 0.1))
  (fp_line (start -4 -1.2) (end -2.1 -1.2) (layer F.Fab) (width 0.1))
  (fp_line (start -2.1 -1.2) (end -2.1 -5.2) (layer F.Fab) (width 0.1))
  (fp_line (start -2.22 -5.32) (end 4.02 -5.32) (layer F.SilkS) (width 0.12))
  (fp_line (start 4.02 -5.32) (end 4.02 -1.32) (layer F.SilkS) (width 0.12))
  (fp_line (start 4.02 -1.32) (end 4.32 -1.32) (layer F.SilkS) (width 0.12))
  (fp_line (start 4.32 -1.32) (end 4.32 12.92) (layer F.SilkS) (width 0.12))
  (fp_line (start 4.32 12.92) (end -4.12 12.92) (layer F.SilkS) (width 0.12))
  (fp_line (start -4.12 12.92) (end -4.12 -1.32) (layer F.SilkS) (width 0.12))
  (fp_line (start -4.12 -1.32) (end -2.22 -1.32) (layer F.SilkS) (width 0.12))
  (fp_line (start -2.22 -1.32) (end -2.22 -5.32) (layer F.SilkS) (width 0.12))
  (fp_line (start -4.5 -5.7) (end -4.5 13.3) (layer F.CrtYd) (width 0.05))
  (fp_line (start -4.5 13.3) (end 4.7 13.3) (layer F.CrtYd) (width 0.05))
  (fp_line (start 4.7 13.3) (end 4.7 -5.7) (layer F.CrtYd) (width 0.05))
  (fp_line (start 4.7 -5.7) (end -4.5 -5.7) (layer F.CrtYd) (width 0.05))
  (pad S thru_hole oval (at 0 0) (size 2.8 1.8) (drill oval 2 1) (layers *.Cu *.Mask))
  (pad T thru_hole oval (at 2 2.4) (size 2.8 1.8) (drill oval 2 1) (layers *.Cu *.Mask))
  (pad R thru_hole oval (at 2 7.9) (size 2.8 1.8) (drill oval 2 1) (layers *.Cu *.Mask))
  (fp_text user %R (at 0.1 3.8) (layer F.Fab)
    (effects (font (size 1 1) (thickness 0.15)))
  )
  (model ${KICAD6_3DMODEL_DIR}/Connector_Audio.3dshapes/Jack_3.5mm_CUI_SJ1-3533NG_Horizontal.wrl
    (at (xyz 0 0 0))
    (scale (xyz 1 1 1))
    (rotate (xyz 0 0 0))
  )
)