(module Jack_XLR_Neutrik_NC3FAHL1_Horizontal (layer F.Cu) (tedit 5E73E251)
  (descr "A Series, 3 pole female XLR receptacle, grounding: mating connector shell to pin1 and front panel, lateral left PCB mount, https://www.neutrik.com/en/product/nc3fahl1")
  (tags "neutrik xlr a")
  (fp_text reference REF** (at 3.81 -6) (layer F.SilkS)
    (effects (font (size 1 1) (thickness 0.15)))
  )
  (fp_text value Jack_XLR_Neutrik_NC3FAHL1_Horizontal (at 3.81 20) (layer F.Fab)
    (effects (font (size 1 1) (thickness 0.15)))
  )
  (fp_text user %R (at 3.81 13.52) (layer F.Fab)
    (effects (font (size 1 1) (thickness 0.15)))
  )
  (fp_line (start -8.89 10.79) (end -8.89 15.87) (layer Edge.Cuts) (width 0.1))
  (fp_line (start -2.54 10.79) (end -8.89 10.79) (layer Edge.Cuts) (width 0.1))
  (fp_line (start -2.54 15.87) (end -2.54 10.79) (layer Edge.Cuts) (width 0.1))
  (fp_line (start -7.19 18.57) (end -7.19 15.87) (layer F.Fab) (width 0.1))
  (fp_line (start 14.81 18.57) (end -7.19 18.57) (layer F.Fab) (width 0.1))
  (fp_line (start 14.81 15.87) (end 14.81 18.57) (layer F.Fab) (width 0.1))
  (fp_line (start 16.61 10.87) (end 16.61 15.87) (layer F.Fab) (width 0.1))
  (fp_line (start -8.99 10.87) (end 16.61 10.87) (layer F.Fab) (width 0.1))
  (fp_line (start -8.99 15.87) (end -8.99 10.87) (layer F.Fab) (width 0.1))
  (fp_line (start 16.61 15.87) (end -8.99 15.87) (layer F.Fab) (width 0.1))
  (fp_line (start 16.61 15.87) (end -8.99 15.87) (layer Edge.Cuts) (width 0.1))
  (fp_line (start -9.11 15.99) (end -9.11 10.75) (layer F.SilkS) (width 0.12))
  (fp_line (start 16.73 15.99) (end 16.73 10.75) (layer F.SilkS) (width 0.12))
  (fp_line (start 15.03 10.75) (end 16.73 10.75) (layer F.SilkS) (width 0.12))
  (fp_line (start 14.93 15.99) (end 14.93 18.69) (layer F.SilkS) (width 0.12))
  (fp_line (start -7.31 15.99) (end -7.31 18.69) (layer F.SilkS) (width 0.12))
  (fp_line (start -7.31 15.99) (end -9.11 15.99) (layer F.SilkS) (width 0.12))
  (fp_line (start 16.73 15.99) (end 14.93 15.99) (layer F.SilkS) (width 0.12))
  (fp_line (start 14.93 18.69) (end -7.31 18.69) (layer F.SilkS) (width 0.12))
  (fp_line (start -9.49 19.07) (end -9.49 -5.18) (layer F.CrtYd) (width 0.05))
  (fp_line (start 17.11 19.07) (end 17.11 -5.18) (layer F.CrtYd) (width 0.05))
  (fp_line (start 17.11 -5.18) (end -9.49 -5.18) (layer F.CrtYd) (width 0.05))
  (fp_line (start 17.11 19.07) (end -9.49 19.07) (layer F.CrtYd) (width 0.05))
  (fp_line (start -2.02 -2.55) (end -2.02 -1.25) (layer F.SilkS) (width 0.12))
  (fp_line (start -8.49 -2.43) (end -2.14 -2.43) (layer F.Fab) (width 0.1))
  (fp_line (start 2.51 -4.43) (end 5.11 -4.43) (layer F.Fab) (width 0.1))
  (fp_line (start 9.15 -1.25) (end 10.38 -1.25) (layer F.SilkS) (width 0.12))
  (fp_line (start -8.49 -2.43) (end -8.99 10.87) (layer F.Fab) (width 0.1))
  (fp_line (start 15.03 10.75) (end 15.03 3.75) (layer F.SilkS) (width 0.12))
  (fp_line (start 5.11 -4.43) (end 5.11 -1.13) (layer F.Fab) (width 0.1))
  (fp_line (start -9.11 10.75) (end -8.61 -2.55) (layer F.SilkS) (width 0.12))
  (fp_line (start 5.23 -1.25) (end 5.23 -2.2) (layer F.SilkS) (width 0.12))
  (fp_line (start 2.39 -1.25) (end 2.39 -2.2) (layer F.SilkS) (width 0.12))
  (fp_line (start -2.02 -1.25) (end -1.5 -1.25) (layer F.SilkS) (width 0.12))
  (fp_line (start -2.14 -1.13) (end -2.14 -2.43) (layer F.Fab) (width 0.1))
  (fp_line (start 1.5 -1.25) (end 2.39 -1.25) (layer F.SilkS) (width 0.12))
  (fp_line (start 2.51 -4.43) (end 2.51 -1.13) (layer F.Fab) (width 0.1))
  (fp_line (start -8.61 -2.55) (end -2.02 -2.55) (layer F.SilkS) (width 0.12))
  (fp_line (start -2.14 -1.13) (end 10.26 -1.13) (layer F.Fab) (width 0.1))
  (fp_line (start 5.23 -1.25) (end 6.1 -1.25) (layer F.SilkS) (width 0.12))
  (fp_line (start 14.91 3.87) (end 14.91 10.87) (layer F.Fab) (width 0.1))
  (fp_line (start 10.26 0.07) (end 12.16 0.07) (layer F.Fab) (width 0.1))
  (fp_line (start 10.38 -0.05) (end 12.28 -0.05) (layer F.SilkS) (width 0.12))
  (fp_line (start 12.16 0.07) (end 12.16 3.87) (layer F.Fab) (width 0.1))
  (fp_line (start 12.28 3.75) (end 12.28 -0.05) (layer F.SilkS) (width 0.12))
  (fp_line (start 10.38 -0.05) (end 10.38 -1.25) (layer F.SilkS) (width 0.12))
  (fp_line (start 10.26 -1.13) (end 10.26 0.07) (layer F.Fab) (width 0.1))
  (fp_line (start 12.28 3.75) (end 15.03 3.75) (layer F.SilkS) (width 0.12))
  (fp_line (start 12.16 3.87) (end 14.91 3.87) (layer F.Fab) (width 0.1))
  (pad 3 thru_hole circle (at 7.62 0) (size 3.4 3.4) (drill 1.6) (layers *.Cu *.Mask))
  (pad 1 thru_hole circle (at 0 0) (size 3.4 3.4) (drill 1.6) (layers *.Cu *.Mask))
  (pad 2 thru_hole circle (at 3.81 -3.18) (size 2.9 2.9) (drill 1.2) (layers *.Cu *.Mask))
  (pad "" np_thru_hole circle (at 9.52 7.61) (size 1.2 1.2) (drill 1.2) (layers *.Cu *.Mask))
  (model ${KICAD6_3DMODEL_DIR}/Connector_Audio.3dshapes/Jack_XLR_Neutrik_NC3FAHL1_Horizontal.wrl
    (at (xyz 0 0 0))
    (scale (xyz 1 1 1))
    (rotate (xyz 0 0 0))
  )
)
