(module Jack_6.35mm_Neutrik_NMJ4HFD2_Horizontal (layer F.Cu) (tedit 5C194A94)
  (descr "M Series, 6.35mm (1/4in) mono jack, switched, with full threaded nose and straight PCB pins, https://www.neutrik.com/en/product/nmj4hfd2")
  (tags "neutrik jack m")
  (fp_text reference REF** (at 6.35 -3) (layer F.SilkS)
    (effects (font (size 1 1) (thickness 0.15)))
  )
  (fp_text value Jack_6.35mm_Neutrik_NMJ4HFD2_Horizontal (at 6.35 19) (layer F.Fab)
    (effects (font (size 1 1) (thickness 0.15)))
  )
  (fp_text user %R (at 6.35 8.115) (layer F.Fab)
    (effects (font (size 1 1) (thickness 0.15)))
  )
  (fp_line (start -7.45 18.23) (end 26.4 18.23) (layer F.CrtYd) (width 0.05))
  (fp_line (start 26.4 18.23) (end 26.4 -2) (layer F.CrtYd) (width 0.05))
  (fp_line (start 26.4 -2) (end -7.45 -2) (layer F.CrtYd) (width 0.05))
  (fp_line (start -7.45 18.23) (end -7.45 -2) (layer F.CrtYd) (width 0.05))
  (fp_line (start 17.17 2.495) (end 26.02 2.495) (layer F.SilkS) (width 0.12))
  (fp_line (start 26.02 13.735) (end 26.02 2.495) (layer F.SilkS) (width 0.12))
  (fp_line (start 17.17 13.735) (end 26.02 13.735) (layer F.SilkS) (width 0.12))
  (fp_line (start -7.07 12.585) (end -4.07 12.585) (layer F.SilkS) (width 0.12))
  (fp_line (start 17.17 17.335) (end 17.17 13.735) (layer F.SilkS) (width 0.12))
  (fp_line (start 17.17 -1.105) (end 14.05 -1.105) (layer F.SilkS) (width 0.12))
  (fp_line (start 17.17 17.335) (end 14.05 17.335) (layer F.SilkS) (width 0.12))
  (fp_line (start -1.35 17.335) (end -4.07 17.335) (layer F.SilkS) (width 0.12))
  (fp_line (start 11.3 17.335) (end 1.4 17.335) (layer F.SilkS) (width 0.12))
  (fp_line (start 1.4 -1.105) (end 11.3 -1.105) (layer F.SilkS) (width 0.12))
  (fp_line (start -4.07 -1.105) (end -1.35 -1.105) (layer F.SilkS) (width 0.12))
  (fp_line (start -4.07 17.335) (end -4.07 12.585) (layer F.SilkS) (width 0.12))
  (fp_line (start 17.05 17.215) (end -3.95 17.215) (layer F.Fab) (width 0.1))
  (fp_line (start 17.05 17.215) (end 17.05 -0.985) (layer F.Fab) (width 0.1))
  (fp_line (start 17.05 -0.985) (end -3.95 -0.985) (layer F.Fab) (width 0.1))
  (fp_line (start -6.95 12.465) (end -6.95 3.765) (layer F.Fab) (width 0.1))
  (fp_line (start -3.95 17.215) (end -3.95 -0.985) (layer F.Fab) (width 0.1))
  (fp_line (start 25.9 13.615) (end 25.9 2.615) (layer F.Fab) (width 0.1))
  (fp_line (start 25.9 13.615) (end 17.05 13.615) (layer F.Fab) (width 0.1))
  (fp_line (start 25.9 2.615) (end 17.05 2.615) (layer F.Fab) (width 0.1))
  (fp_line (start -6.95 12.465) (end -3.95 12.465) (layer F.Fab) (width 0.1))
  (fp_line (start -6.95 3.765) (end -3.95 3.765) (layer F.Fab) (width 0.1))
  (fp_line (start -7.07 12.545) (end -7.07 3.645) (layer F.SilkS) (width 0.12))
  (fp_line (start -7.07 3.645) (end -4.07 3.645) (layer F.SilkS) (width 0.12))
  (fp_line (start -4.07 3.645) (end -4.07 -1.105) (layer F.SilkS) (width 0.12))
  (fp_line (start 17.17 2.495) (end 17.17 -1.105) (layer F.SilkS) (width 0.12))
  (pad S thru_hole circle (at 12.7 0) (size 3 3) (drill 1.4) (layers *.Cu *.Mask))
  (pad T thru_hole circle (at 0 0) (size 3 3) (drill 1.4) (layers *.Cu *.Mask))
  (pad SN thru_hole circle (at 12.7 16.23) (size 3 3) (drill 1.4) (layers *.Cu *.Mask))
  (pad TN thru_hole circle (at 0 16.23) (size 3 3) (drill 1.4) (layers *.Cu *.Mask))
  (model ${KICAD6_3DMODEL_DIR}/Connector_Audio.3dshapes/Jack_6.35mm_Neutrik_NMJ4HFD2_Horizontal.wrl
    (at (xyz 0 0 0))
    (scale (xyz 1 1 1))
    (rotate (xyz 0 0 0))
  )
)
