(module Jack_XLR_Neutrik_NC3FAHR1-0_Horizontal (layer F.Cu) (tedit 5E73E379)
  (descr "A Series, 3 pole female XLR receptacle, grounding: mating connector shell to pin1 and front panel, lateral right PCB mount, retention spring instead of latch, https://www.neutrik.com/en/product/nc3fahr1-0")
  (tags "neutrik xlr a")
  (fp_text reference REF** (at 7 -10) (layer F.SilkS)
    (effects (font (size 1 1) (thickness 0.15)))
  )
  (fp_text value Jack_XLR_Neutrik_NC3FAHR1-0_Horizontal (at 7 18) (layer F.Fab)
    (effects (font (size 1 1) (thickness 0.15)))
  )
  (fp_text user %R (at 13.52 3.81) (layer F.Fab)
    (effects (font (size 1 1) (thickness 0.15)))
  )
  (fp_line (start 10.79 16.51) (end 15.87 16.51) (layer Edge.Cuts) (width 0.1))
  (fp_line (start 10.79 10.16) (end 10.79 16.51) (layer Edge.Cuts) (width 0.1))
  (fp_line (start 15.87 10.16) (end 10.79 10.16) (layer Edge.Cuts) (width 0.1))
  (fp_line (start 18.57 14.81) (end 15.87 14.81) (layer F.Fab) (width 0.1))
  (fp_line (start 18.57 -7.19) (end 18.57 14.81) (layer F.Fab) (width 0.1))
  (fp_line (start 15.87 -7.19) (end 18.57 -7.19) (layer F.Fab) (width 0.1))
  (fp_line (start 10.87 -8.99) (end 15.87 -8.99) (layer F.Fab) (width 0.1))
  (fp_line (start 10.87 16.61) (end 10.87 -8.99) (layer F.Fab) (width 0.1))
  (fp_line (start 15.87 16.61) (end 10.87 16.61) (layer F.Fab) (width 0.1))
  (fp_line (start 15.87 -8.99) (end 15.87 16.61) (layer F.Fab) (width 0.1))
  (fp_line (start 15.87 -8.99) (end 15.87 16.61) (layer Edge.Cuts) (width 0.1))
  (fp_line (start 15.99 16.73) (end 10.75 16.73) (layer F.SilkS) (width 0.12))
  (fp_line (start 15.99 -9.11) (end 10.75 -9.11) (layer F.SilkS) (width 0.12))
  (fp_line (start 10.75 16.73) (end 10.75 15.03) (layer F.SilkS) (width 0.12))
  (fp_line (start 15.99 -7.31) (end 18.69 -7.31) (layer F.SilkS) (width 0.12))
  (fp_line (start 15.99 14.93) (end 18.69 14.93) (layer F.SilkS) (width 0.12))
  (fp_line (start 15.99 14.93) (end 15.99 16.73) (layer F.SilkS) (width 0.12))
  (fp_line (start 15.99 -9.11) (end 15.99 -7.31) (layer F.SilkS) (width 0.12))
  (fp_line (start 18.69 -7.31) (end 18.69 14.93) (layer F.SilkS) (width 0.12))
  (fp_line (start 19.07 17.11) (end -5.18 17.11) (layer F.CrtYd) (width 0.05))
  (fp_line (start 19.07 -9.49) (end -5.18 -9.49) (layer F.CrtYd) (width 0.05))
  (fp_line (start -5.18 -9.49) (end -5.18 17.11) (layer F.CrtYd) (width 0.05))
  (fp_line (start 19.07 -9.49) (end 19.07 17.11) (layer F.CrtYd) (width 0.05))
  (fp_line (start -2.55 -2.02) (end -1.25 -2.02) (layer F.SilkS) (width 0.12))
  (fp_line (start 10.75 -9.11) (end -2.55 -8.61) (layer F.SilkS) (width 0.12))
  (fp_line (start -1.25 5.23) (end -1.25 6.1) (layer F.SilkS) (width 0.12))
  (fp_line (start -4.43 2.51) (end -1.13 2.51) (layer F.Fab) (width 0.1))
  (fp_line (start -4.43 5.11) (end -1.13 5.11) (layer F.Fab) (width 0.1))
  (fp_line (start -1.13 -2.14) (end -2.43 -2.14) (layer F.Fab) (width 0.1))
  (fp_line (start -2.43 -8.49) (end -2.43 -2.14) (layer F.Fab) (width 0.1))
  (fp_line (start -1.25 2.39) (end -2.2 2.39) (layer F.SilkS) (width 0.12))
  (fp_line (start -1.25 1.5) (end -1.25 2.39) (layer F.SilkS) (width 0.12))
  (fp_line (start -1.25 9.15) (end -1.25 10.38) (layer F.SilkS) (width 0.12))
  (fp_line (start -4.43 2.51) (end -4.43 5.11) (layer F.Fab) (width 0.1))
  (fp_line (start -2.43 -8.49) (end 10.87 -8.99) (layer F.Fab) (width 0.1))
  (fp_line (start -1.25 -2.02) (end -1.25 -1.5) (layer F.SilkS) (width 0.12))
  (fp_line (start -1.25 5.23) (end -2.2 5.23) (layer F.SilkS) (width 0.12))
  (fp_line (start -1.13 -2.14) (end -1.13 10.26) (layer F.Fab) (width 0.1))
  (fp_line (start -2.55 -8.61) (end -2.55 -2.02) (layer F.SilkS) (width 0.12))
  (fp_line (start 10.75 15.03) (end 3.75 15.03) (layer F.SilkS) (width 0.12))
  (fp_line (start 3.87 14.91) (end 10.87 14.91) (layer F.Fab) (width 0.1))
  (fp_line (start 0.07 10.26) (end 0.07 12.16) (layer F.Fab) (width 0.1))
  (fp_line (start -1.13 10.26) (end 0.07 10.26) (layer F.Fab) (width 0.1))
  (fp_line (start 3.75 12.28) (end -0.05 12.28) (layer F.SilkS) (width 0.12))
  (fp_line (start 3.75 12.28) (end 3.75 15.03) (layer F.SilkS) (width 0.12))
  (fp_line (start -0.05 10.38) (end -0.05 12.28) (layer F.SilkS) (width 0.12))
  (fp_line (start -0.05 10.38) (end -1.25 10.38) (layer F.SilkS) (width 0.12))
  (fp_line (start 0.07 12.16) (end 3.87 12.16) (layer F.Fab) (width 0.1))
  (fp_line (start 3.87 12.16) (end 3.87 14.91) (layer F.Fab) (width 0.1))
  (pad 1 thru_hole circle (at 0 0) (size 3.4 3.4) (drill 1.6) (layers *.Cu *.Mask))
  (pad 3 thru_hole circle (at 0 7.62) (size 3.4 3.4) (drill 1.6) (layers *.Cu *.Mask))
  (pad 2 thru_hole circle (at -3.18 3.81) (size 2.9 2.9) (drill 1.2) (layers *.Cu *.Mask))
  (pad "" np_thru_hole circle (at 11.42 5.08) (size 1.6 1.6) (drill 1.6) (layers *.Cu *.Mask))
  (model ${KICAD6_3DMODEL_DIR}/Connector_Audio.3dshapes/Jack_XLR_Neutrik_NC3FAHR1-0_Horizontal.wrl
    (at (xyz 0 0 0))
    (scale (xyz 1 1 1))
    (rotate (xyz 0 0 0))
  )
)
