(module Jack_speakON-6.35mm_Neutrik_NLJ2MD-V_Vertical (layer F.Cu) (tedit 5D9E3883)
  (descr "speakON Combo, 2 pole combination of speakON socket and 6.35mm (1/4in) jack receptacle, vertical pcb mount, https://www.neutrik.com/en/product/nlj2md-v")
  (tags "neutrik speakon combo")
  (fp_text reference REF** (at 0.7 -13) (layer F.SilkS)
    (effects (font (size 1 1) (thickness 0.15)))
  )
  (fp_text value Jack_speakON-6.35mm_Neutrik_NLJ2MD-V_Vertical (at 0.7 20.5) (layer F.Fab)
    (effects (font (size 1 1) (thickness 0.15)))
  )
  (fp_text user %R (at 0.7 3.6) (layer F.Fab)
    (effects (font (size 1 1) (thickness 0.15)))
  )
  (fp_line (start -8.8 19.1) (end 10.2 19.1) (layer F.Fab) (width 0.1))
  (fp_line (start -12.8 -12.4) (end 14.2 -12.4) (layer F.CrtYd) (width 0.05))
  (fp_line (start 14.2 19.6) (end 14.2 -12.4) (layer F.CrtYd) (width 0.05))
  (fp_line (start -12.3 15.6) (end -12.3 -8.4) (layer F.Fab) (width 0.1))
  (fp_line (start -8.8 -11.9) (end 10.2 -11.9) (layer F.Fab) (width 0.1))
  (fp_line (start 13.7 15.6) (end 13.7 -8.4) (layer F.Fab) (width 0.1))
  (fp_line (start -12.8 19.6) (end -12.8 -12.4) (layer F.CrtYd) (width 0.05))
  (fp_line (start -12.8 19.6) (end 14.2 19.6) (layer F.CrtYd) (width 0.05))
  (fp_line (start 13.82 15.72) (end 13.82 -8.52) (layer F.SilkS) (width 0.12))
  (fp_line (start -12.42 15.72) (end -12.42 -8.52) (layer F.SilkS) (width 0.12))
  (fp_line (start -8.92 -12.02) (end 10.32 -12.02) (layer F.SilkS) (width 0.12))
  (fp_line (start -8.92 19.22) (end 10.32 19.22) (layer F.SilkS) (width 0.12))
  (fp_circle (center -8.8 -8.4) (end -7.7 -8.4) (layer F.Fab) (width 0.1))
  (fp_circle (center 0.7 3.6) (end 12.5 3.6) (layer F.Fab) (width 0.1))
  (fp_circle (center 10.2 15.6) (end 9.1 15.6) (layer F.Fab) (width 0.1))
  (fp_circle (center -8.8 -8.4) (end -7.7 -8.4) (layer F.SilkS) (width 0.12))
  (fp_circle (center 10.2 15.6) (end 11.3 15.6) (layer F.SilkS) (width 0.12))
  (fp_circle (center 0.7 3.6) (end 12.5 3.6) (layer F.SilkS) (width 0.12))
  (fp_arc (start 10.2 15.6) (end 13.7 15.6) (angle 90) (layer F.Fab) (width 0.1))
  (fp_arc (start 10.2 -8.4) (end 10.2 -11.9) (angle 90) (layer F.Fab) (width 0.1))
  (fp_arc (start -8.8 -8.4) (end -12.3 -8.4) (angle 90) (layer F.Fab) (width 0.1))
  (fp_arc (start -8.8 15.6) (end -8.8 19.1) (angle 90) (layer F.Fab) (width 0.1))
  (fp_arc (start 10.2 -8.4) (end 10.32 -12.02) (angle 90) (layer F.SilkS) (width 0.12))
  (fp_arc (start -8.8 -8.4) (end -12.42 -8.52) (angle 90) (layer F.SilkS) (width 0.12))
  (fp_arc (start -8.8 15.6) (end -8.92 19.22) (angle 90) (layer F.SilkS) (width 0.12))
  (fp_arc (start 10.2 15.6) (end 13.82 15.72) (angle 90) (layer F.SilkS) (width 0.12))
  (pad 1- thru_hole circle (at -4.7 2.9) (size 3.4 3.4) (drill 1.6) (layers *.Cu *.Mask))
  (pad 1+ thru_hole circle (at 0 0) (size 3.4 3.4) (drill 1.6) (layers *.Cu *.Mask))
  (pad "" np_thru_hole circle (at 0 7.2) (size 1.6 1.6) (drill 1.6) (layers *.Cu *.Mask))
  (pad "" np_thru_hole circle (at 6.1 4.3) (size 1.6 1.6) (drill 1.6) (layers *.Cu *.Mask))
  (model ${KICAD6_3DMODEL_DIR}/Connector_Audio.3dshapes/Jack_speakON-6.35mm_Neutrik_NLJ2MD-V_Vertical.wrl
    (at (xyz 0 0 0))
    (scale (xyz 1 1 1))
    (rotate (xyz 0 0 0))
  )
)
