(module Jack_6.35mm_Neutrik_NRJ6HF-AU_Horizontal (layer F.Cu) (tedit 5BF4713E)
  (descr "Slim Jacks, 6.35mm (1/4in) stereo jack, switched, gold plated contacts, fully threaded nose, https://www.neutrik.com/en/product/nrj6hf-au")
  (tags "neutrik jack slim")
  (fp_text reference REF** (at 6.35 -3.5) (layer F.SilkS)
    (effects (font (size 1 1) (thickness 0.15)))
  )
  (fp_text value Jack_6.35mm_Neutrik_NRJ6HF-AU_Horizontal (at 6.35 15) (layer F.Fab)
    (effects (font (size 1 1) (thickness 0.15)))
  )
  (fp_text user %R (at 6.35 5.715) (layer F.Fab)
    (effects (font (size 1 1) (thickness 0.15)))
  )
  (fp_line (start 25.85 1.73) (end 16.95 1.73) (layer F.Fab) (width 0.1))
  (fp_line (start 25.85 12.73) (end 25.85 1.73) (layer F.Fab) (width 0.1))
  (fp_line (start 16.95 12.73) (end 25.85 12.73) (layer F.Fab) (width 0.1))
  (fp_line (start -7.35 -2.09) (end 16.95 -2.09) (layer F.Fab) (width 0.1))
  (fp_line (start -7.35 13.66) (end -7.35 -2.09) (layer F.Fab) (width 0.1))
  (fp_line (start 16.95 13.66) (end -7.35 13.66) (layer F.Fab) (width 0.1))
  (fp_line (start 16.95 -2.09) (end 16.95 13.66) (layer F.Fab) (width 0.1))
  (fp_line (start -7.85 14.16) (end 26.35 14.16) (layer F.CrtYd) (width 0.05))
  (fp_line (start 26.35 14.16) (end 26.35 -2.59) (layer F.CrtYd) (width 0.05))
  (fp_line (start 26.35 -2.59) (end -7.85 -2.59) (layer F.CrtYd) (width 0.05))
  (fp_line (start -7.85 14.16) (end -7.85 -2.59) (layer F.CrtYd) (width 0.05))
  (fp_line (start 16.95 -2.09) (end 16.95 13.66) (layer Dwgs.User) (width 0.1))
  (fp_line (start -7.47 13.78) (end 17.07 13.78) (layer F.SilkS) (width 0.12))
  (fp_line (start -7.47 13.78) (end -7.47 -2.21) (layer F.SilkS) (width 0.12))
  (fp_line (start 25.97 12.85) (end 17.07 12.85) (layer F.SilkS) (width 0.12))
  (fp_line (start 25.97 12.85) (end 25.97 1.61) (layer F.SilkS) (width 0.12))
  (fp_line (start 25.97 1.61) (end 17.07 1.61) (layer F.SilkS) (width 0.12))
  (fp_line (start 17.07 -2.21) (end 17.07 13.78) (layer F.SilkS) (width 0.12))
  (fp_line (start -7.47 -2.21) (end 17.07 -2.21) (layer F.SilkS) (width 0.12))
  (pad T thru_hole circle (at 0 0) (size 3 3) (drill 1.5) (layers *.Cu *.Mask))
  (pad S thru_hole circle (at 12.7 0) (size 3 3) (drill 1.5) (layers *.Cu *.Mask))
  (pad SN thru_hole circle (at 12.7 11.43) (size 3 3) (drill 1.5) (layers *.Cu *.Mask))
  (pad "" np_thru_hole circle (at 3.15 2.13) (size 3 3) (drill 3) (layers *.Cu *.Mask))
  (pad "" np_thru_hole circle (at 9.5 11.43) (size 2 2) (drill 2) (layers *.Cu *.Mask))
  (pad "" np_thru_hole circle (at 9.5 0) (size 2 2) (drill 2) (layers *.Cu *.Mask))
  (pad TN thru_hole circle (at 0 11.43) (size 3 3) (drill 1.5) (layers *.Cu *.Mask))
  (pad R thru_hole circle (at 6.35 0) (size 3 3) (drill 1.5) (layers *.Cu *.Mask))
  (pad RN thru_hole circle (at 6.35 11.43) (size 3 3) (drill 1.5) (layers *.Cu *.Mask))
  (model ${KICAD6_3DMODEL_DIR}/Connector_Audio.3dshapes/Jack_6.35mm_Neutrik_NRJ6HF-AU_Horizontal.wrl
    (at (xyz 0 0 0))
    (scale (xyz 1 1 1))
    (rotate (xyz 0 0 0))
  )
)
