(module Jack_XLR_Neutrik_NC3MBHL-B_Horizontal (layer F.Cu) (tedit 5E69437F)
  (descr "B Series, 3 pole male XLR receptacle, grounding: separate ground contact to mating connector shell and front panel, steel retention lug, lateral left PCB mount, black chrome shell, https://www.neutrik.com/en/product/nc3mbhl-b")
  (tags "neutrik xlr b")
  (fp_text reference REF** (at 3.81 -3) (layer F.SilkS)
    (effects (font (size 1 1) (thickness 0.15)))
  )
  (fp_text value Jack_XLR_Neutrik_NC3MBHL-B_Horizontal (at 3.81 22) (layer F.Fab)
    (effects (font (size 1 1) (thickness 0.15)))
  )
  (fp_text user %R (at 3.81 15.43) (layer F.Fab)
    (effects (font (size 1 1) (thickness 0.15)))
  )
  (fp_line (start -8.89 12.7) (end -8.89 17.78) (layer Edge.Cuts) (width 0.1))
  (fp_line (start -2.54 12.7) (end -8.89 12.7) (layer Edge.Cuts) (width 0.1))
  (fp_line (start -2.54 17.78) (end -2.54 12.7) (layer Edge.Cuts) (width 0.1))
  (fp_line (start -7.19 20.48) (end -7.19 17.78) (layer F.Fab) (width 0.1))
  (fp_line (start 14.81 20.48) (end -7.19 20.48) (layer F.Fab) (width 0.1))
  (fp_line (start 14.81 17.78) (end 14.81 20.48) (layer F.Fab) (width 0.1))
  (fp_line (start 16.61 12.78) (end 16.61 17.78) (layer F.Fab) (width 0.1))
  (fp_line (start -8.99 12.78) (end 16.61 12.78) (layer F.Fab) (width 0.1))
  (fp_line (start -8.99 17.78) (end -8.99 12.78) (layer F.Fab) (width 0.1))
  (fp_line (start 16.61 17.78) (end -8.99 17.78) (layer F.Fab) (width 0.1))
  (fp_line (start 16.61 17.78) (end -8.99 17.78) (layer Edge.Cuts) (width 0.1))
  (fp_line (start -9.11 17.9) (end -9.11 12.66) (layer F.SilkS) (width 0.12))
  (fp_line (start 16.73 17.9) (end 16.73 12.66) (layer F.SilkS) (width 0.12))
  (fp_line (start 13.03 12.66) (end 16.73 12.66) (layer F.SilkS) (width 0.12))
  (fp_line (start -9.11 12.66) (end -5.41 12.66) (layer F.SilkS) (width 0.12))
  (fp_line (start 14.93 17.9) (end 14.93 20.6) (layer F.SilkS) (width 0.12))
  (fp_line (start -7.31 17.9) (end -7.31 20.6) (layer F.SilkS) (width 0.12))
  (fp_line (start -7.31 17.9) (end -9.11 17.9) (layer F.SilkS) (width 0.12))
  (fp_line (start 16.73 17.9) (end 14.93 17.9) (layer F.SilkS) (width 0.12))
  (fp_line (start 14.93 20.6) (end -7.31 20.6) (layer F.SilkS) (width 0.12))
  (fp_line (start -9.49 20.98) (end -9.49 -2.2) (layer F.CrtYd) (width 0.05))
  (fp_line (start 17.11 20.98) (end 17.11 -2.2) (layer F.CrtYd) (width 0.05))
  (fp_line (start 17.11 -2.2) (end -9.49 -2.2) (layer F.CrtYd) (width 0.05))
  (fp_line (start 17.11 20.98) (end -9.49 20.98) (layer F.CrtYd) (width 0.05))
  (fp_line (start 3.11 -1.54) (end 1.21 -1.54) (layer F.SilkS) (width 0.12))
  (fp_line (start 4.51 -1.54) (end 6.41 -1.54) (layer F.SilkS) (width 0.12))
  (fp_line (start 10.46 5.78) (end 10.46 -1.42) (layer F.Fab) (width 0.1))
  (fp_line (start -2.96 5.66) (end -5.41 5.66) (layer F.SilkS) (width 0.12))
  (fp_line (start -5.29 5.78) (end 12.91 5.78) (layer F.Fab) (width 0.1))
  (fp_line (start 10.58 5.66) (end 10.58 -1.54) (layer F.SilkS) (width 0.12))
  (fp_line (start -2.96 5.66) (end -2.96 -1.54) (layer F.SilkS) (width 0.12))
  (fp_line (start 3.11 -1.54) (end 1.21 -1.54) (layer F.SilkS) (width 0.12))
  (fp_line (start -2.84 5.78) (end -2.84 -1.42) (layer F.Fab) (width 0.1))
  (fp_line (start 10.58 5.66) (end 13.03 5.66) (layer F.SilkS) (width 0.12))
  (fp_line (start 10.46 -1.42) (end -2.84 -1.42) (layer F.Fab) (width 0.1))
  (fp_line (start 12.91 12.78) (end 12.91 5.78) (layer F.Fab) (width 0.1))
  (fp_line (start 13.03 12.66) (end 13.03 5.66) (layer F.SilkS) (width 0.12))
  (fp_line (start -5.29 5.78) (end -5.29 12.78) (layer F.Fab) (width 0.1))
  (fp_line (start -1.19 -1.54) (end -2.96 -1.54) (layer F.SilkS) (width 0.12))
  (fp_line (start 4.51 -1.54) (end 6.41 -1.54) (layer F.SilkS) (width 0.12))
  (fp_line (start -5.41 12.66) (end -5.41 5.66) (layer F.SilkS) (width 0.12))
  (fp_line (start 10.58 -1.54) (end 8.81 -1.54) (layer F.SilkS) (width 0.12))
  (pad 3 thru_hole circle (at 7.62 0) (size 3.4 3.4) (drill 1.6) (layers *.Cu *.Mask))
  (pad 1 thru_hole circle (at 0 0) (size 3.4 3.4) (drill 1.6) (layers *.Cu *.Mask))
  (pad 2 thru_hole circle (at 3.81 0) (size 2.9 2.9) (drill 1.2) (layers *.Cu *.Mask))
  (pad "" np_thru_hole circle (at 3.81 9.52) (size 1.2 1.2) (drill 1.2) (layers *.Cu *.Mask))
  (pad G thru_hole circle (at 3.81 3.81) (size 2.9 2.9) (drill 1.2) (layers *.Cu *.Mask))
  (model ${KICAD6_3DMODEL_DIR}/Connector_Audio.3dshapes/Jack_XLR_Neutrik_NC3MBHL-B_Horizontal.wrl
    (at (xyz 0 0 0))
    (scale (xyz 1 1 1))
    (rotate (xyz 0 0 0))
  )
)
