(module Jack_XLR_Neutrik_NC3MAAV_Vertical (layer F.Cu) (tedit 5D960EC5)
  (descr "AA Series, 3 pole male XLR receptacle, grounding: separate ground contact to mating connector shell and front panel, vertical PCB mount, https://www.neutrik.com/en/product/nc3maav")
  (tags "neutrik xlr aa")
  (fp_text reference REF** (at 3.81 -12) (layer F.SilkS)
    (effects (font (size 1 1) (thickness 0.15)))
  )
  (fp_text value Jack_XLR_Neutrik_NC3MAAV_Vertical (at 3.81 16) (layer F.Fab)
    (effects (font (size 1 1) (thickness 0.15)))
  )
  (fp_text user %R (at 3.81 -1) (layer F.Fab)
    (effects (font (size 1 1) (thickness 0.15)))
  )
  (fp_line (start -9.5 15.3) (end -9.5 -13.3) (layer F.CrtYd) (width 0.05))
  (fp_line (start 16.8 15.3) (end -9.5 15.3) (layer F.CrtYd) (width 0.05))
  (fp_line (start 16.8 -13.3) (end 16.8 15.3) (layer F.CrtYd) (width 0.05))
  (fp_line (start -9.5 -13.3) (end 16.8 -13.3) (layer F.CrtYd) (width 0.05))
  (fp_arc (start -1.44 11.18) (end -2.06 11.6) (angle -111.7) (layer F.Fab) (width 0.1))
  (fp_arc (start -0.53 -22.2) (end -0.53 -11.3) (angle 18.2) (layer F.Fab) (width 0.1))
  (fp_arc (start -12.09 -5.24) (end -7.09 -5.24) (angle -25.7) (layer F.Fab) (width 0.1))
  (fp_arc (start -6.09 -9.9) (end -3.94 -11.85) (angle -196.7) (layer F.Fab) (width 0.1))
  (fp_circle (center -6.09 -9.9) (end -4.89 -9.9) (layer F.Fab) (width 0.1))
  (fp_arc (start 20.56 4.95) (end 14.71 4.95) (angle -35.8) (layer F.Fab) (width 0.1))
  (fp_arc (start 13.71 9.9) (end 11.74 11.6) (angle -175.2) (layer F.Fab) (width 0.1))
  (fp_arc (start 9.06 11.18) (end 8.44 11.6) (angle -111.7) (layer F.Fab) (width 0.1))
  (fp_arc (start 6.92 -10.56) (end 7.21 -10.55) (angle -75.1) (layer F.Fab) (width 0.1))
  (fp_line (start 8.37 14.8) (end 6.87 14.8) (layer F.Fab) (width 0.1))
  (fp_line (start 0.75 14.8) (end -0.75 14.8) (layer F.Fab) (width 0.1))
  (fp_line (start -2.74 11.53) (end -2.24 11.6) (layer F.Fab) (width 0.1))
  (fp_line (start -7.09 -5.24) (end -7.09 0) (layer F.Fab) (width 0.1))
  (fp_line (start 0.75 11.6) (end 6.87 11.6) (layer F.Fab) (width 0.1))
  (fp_line (start 8.37 11.6) (end 8.44 11.6) (layer F.Fab) (width 0.1))
  (fp_line (start 9.68 11.6) (end 11.74 11.6) (layer F.Fab) (width 0.1))
  (fp_line (start -2.24 11.6) (end -2.06 11.6) (layer F.Fab) (width 0.1))
  (fp_line (start -0.43 10.25) (end -2.74 10.25) (layer F.Fab) (width 0.1))
  (fp_line (start -2.74 11.53) (end -2.74 10.25) (layer F.Fab) (width 0.1))
  (fp_line (start -0.75 11.6) (end -0.75 14.8) (layer F.Fab) (width 0.1))
  (fp_line (start -0.43 10.25) (end -0.43 10.05) (layer F.Fab) (width 0.1))
  (fp_line (start 0.75 11.6) (end 0.75 14.8) (layer F.Fab) (width 0.1))
  (fp_line (start 6.87 11.6) (end 6.87 14.8) (layer F.Fab) (width 0.1))
  (fp_line (start 7.21 -10.36) (end 7.21 -10.55) (layer F.Fab) (width 0.1))
  (fp_line (start 8.37 11.6) (end 8.37 14.8) (layer F.Fab) (width 0.1))
  (fp_line (start 14.71 4.95) (end 14.71 0) (layer F.Fab) (width 0.1))
  (fp_line (start 3.81 -11.3) (end -0.53 -11.3) (layer F.Fab) (width 0.1))
  (fp_arc (start 3.81 0) (end 3.81 -11.3) (angle 16.4) (layer F.Fab) (width 0.1))
  (fp_circle (center 3.81 0) (end 14.71 0) (layer F.Fab) (width 0.1))
  (fp_circle (center 3.81 0) (end 12.11 0) (layer F.Fab) (width 0.1))
  (fp_circle (center 13.71 9.9) (end 14.91 9.9) (layer F.Fab) (width 0.1))
  (fp_line (start -0.75 11.6) (end -0.82 11.6) (layer F.Fab) (width 0.1))
  (fp_arc (start -1.44 11.18) (end -2.06 11.6) (angle -111.7) (layer F.SilkS) (width 0.12))
  (fp_arc (start -0.53 -22.2) (end -0.53 -11.3) (angle 18.2) (layer F.SilkS) (width 0.12))
  (fp_arc (start -12.09 -5.24) (end -7.09 -5.24) (angle -25.7) (layer F.SilkS) (width 0.12))
  (fp_arc (start -6.09 -9.9) (end -3.94 -11.85) (angle -196.7) (layer F.SilkS) (width 0.12))
  (fp_circle (center -6.09 -9.9) (end -4.89 -9.9) (layer F.SilkS) (width 0.12))
  (fp_arc (start 20.56 4.95) (end 14.71 4.95) (angle -35.8) (layer F.SilkS) (width 0.12))
  (fp_arc (start 13.71 9.9) (end 11.74 11.6) (angle -175.2) (layer F.SilkS) (width 0.12))
  (fp_arc (start 9.06 11.18) (end 8.44 11.6) (angle -111.7) (layer F.SilkS) (width 0.12))
  (fp_arc (start 6.92 -10.56) (end 7.21 -10.55) (angle -75.1) (layer F.SilkS) (width 0.12))
  (fp_line (start 8.37 14.8) (end 6.87 14.8) (layer F.SilkS) (width 0.12))
  (fp_line (start 0.75 14.8) (end -0.75 14.8) (layer F.SilkS) (width 0.12))
  (fp_line (start -2.74 11.53) (end -2.24 11.6) (layer F.SilkS) (width 0.12))
  (fp_line (start -7.09 -5.24) (end -7.09 0) (layer F.SilkS) (width 0.12))
  (fp_line (start 0.75 11.6) (end 6.87 11.6) (layer F.SilkS) (width 0.12))
  (fp_line (start 8.37 11.6) (end 8.44 11.6) (layer F.SilkS) (width 0.12))
  (fp_line (start 9.68 11.6) (end 11.74 11.6) (layer F.SilkS) (width 0.12))
  (fp_line (start -2.24 11.6) (end -2.06 11.6) (layer F.SilkS) (width 0.12))
  (fp_line (start -0.43 10.25) (end -2.74 10.25) (layer F.SilkS) (width 0.12))
  (fp_line (start -2.74 11.53) (end -2.74 10.25) (layer F.SilkS) (width 0.12))
  (fp_line (start -0.75 11.6) (end -0.75 14.8) (layer F.SilkS) (width 0.12))
  (fp_line (start -0.43 10.25) (end -0.43 10.05) (layer F.SilkS) (width 0.12))
  (fp_line (start 0.75 11.6) (end 0.75 14.8) (layer F.SilkS) (width 0.12))
  (fp_line (start 6.87 11.6) (end 6.87 14.8) (layer F.SilkS) (width 0.12))
  (fp_line (start 7.21 -10.36) (end 7.21 -10.55) (layer F.SilkS) (width 0.12))
  (fp_line (start 8.37 11.6) (end 8.37 14.8) (layer F.SilkS) (width 0.12))
  (fp_line (start 14.71 4.95) (end 14.71 0) (layer F.SilkS) (width 0.12))
  (fp_line (start 3.81 -11.3) (end -0.53 -11.3) (layer F.SilkS) (width 0.12))
  (fp_arc (start 3.81 0) (end 3.81 -11.3) (angle 16.4) (layer F.SilkS) (width 0.12))
  (fp_circle (center 3.81 0) (end 14.71 0) (layer F.SilkS) (width 0.12))
  (fp_circle (center 13.71 9.9) (end 14.91 9.9) (layer F.SilkS) (width 0.12))
  (fp_line (start -0.75 11.6) (end -0.82 11.6) (layer F.SilkS) (width 0.12))
  (fp_arc (start 3.81 0) (end 2 8.1) (angle 334.7) (layer F.SilkS) (width 0.12))
  (pad 1 thru_hole circle (at 0 0) (size 3.4 3.4) (drill 1.6) (layers *.Cu *.Mask))
  (pad G thru_hole circle (at 3.81 8.255) (size 2.9 2.9) (drill 1.2) (layers *.Cu *.Mask))
  (pad 2 thru_hole circle (at 7.62 0) (size 3.4 3.4) (drill 1.6) (layers *.Cu *.Mask))
  (pad 3 thru_hole circle (at 3.81 3.81) (size 3.4 3.4) (drill 1.6) (layers *.Cu *.Mask))
  (model ${KICAD6_3DMODEL_DIR}/Connector_Audio.3dshapes/Jack_XLR_Neutrik_NC3MAAV_Vertical.wrl
    (at (xyz 0 0 0))
    (scale (xyz 1 1 1))
    (rotate (xyz 0 0 0))
  )
)
