(module Jack_6.35mm_Neutrik_NSJ12HF-1_Horizontal (layer F.Cu) (tedit 5C490833)
  (descr "Stacking Jacks, Stereo dual jack, full threaded nose, https://www.neutrik.com/en/product/nsj12hf-1")
  (tags "neutrik jack stacking")
  (fp_text reference REF** (at 9.53 -3) (layer F.SilkS)
    (effects (font (size 1 1) (thickness 0.15)))
  )
  (fp_text value Jack_6.35mm_Neutrik_NSJ12HF-1_Horizontal (at 9.53 17) (layer F.Fab)
    (effects (font (size 1 1) (thickness 0.15)))
  )
  (fp_text user %R (at 9.53 7) (layer F.Fab)
    (effects (font (size 1 1) (thickness 0.15)))
  )
  (fp_line (start 29.08 4.025) (end 20.48 4.025) (layer F.Fab) (width 0.1))
  (fp_line (start 29.08 12.975) (end 29.08 4.025) (layer F.Fab) (width 0.1))
  (fp_line (start 20.48 12.975) (end 29.08 12.975) (layer F.Fab) (width 0.1))
  (fp_line (start -3.82 -1.3) (end 20.48 -1.3) (layer F.Fab) (width 0.1))
  (fp_line (start -3.82 15.7) (end -3.82 -1.3) (layer F.Fab) (width 0.1))
  (fp_line (start 20.48 15.7) (end -3.82 15.7) (layer F.Fab) (width 0.1))
  (fp_line (start 20.48 -1.3) (end 20.48 15.7) (layer F.Fab) (width 0.1))
  (fp_line (start -4.32 16.2) (end 29.58 16.2) (layer F.CrtYd) (width 0.05))
  (fp_line (start 29.58 16.2) (end 29.58 -2) (layer F.CrtYd) (width 0.05))
  (fp_line (start 29.58 -2) (end -4.32 -2) (layer F.CrtYd) (width 0.05))
  (fp_line (start -4.32 16.2) (end -4.32 -2) (layer F.CrtYd) (width 0.05))
  (fp_line (start 20.48 -1.3) (end 20.48 15.7) (layer Dwgs.User) (width 0.1))
  (fp_line (start -3.94 15.82) (end 20.6 15.82) (layer F.SilkS) (width 0.12))
  (fp_line (start -3.94 15.82) (end -3.94 -1.42) (layer F.SilkS) (width 0.12))
  (fp_line (start 0.98 -1.42) (end 5.38 -1.42) (layer F.SilkS) (width 0.12))
  (fp_line (start 29.2 13.095) (end 20.6 13.095) (layer F.SilkS) (width 0.12))
  (fp_line (start 29.2 13.095) (end 29.2 3.905) (layer F.SilkS) (width 0.12))
  (fp_line (start 29.2 3.905) (end 20.6 3.905) (layer F.SilkS) (width 0.12))
  (fp_line (start 20.6 -1.42) (end 20.6 15.82) (layer F.SilkS) (width 0.12))
  (fp_line (start -3.94 -1.42) (end -1.02 -1.42) (layer F.SilkS) (width 0.12))
  (fp_line (start 13.68 -1.42) (end 20.6 -1.42) (layer F.SilkS) (width 0.12))
  (fp_line (start 7.38 -1.42) (end 11.68 -1.42) (layer F.SilkS) (width 0.12))
  (pad G thru_hole circle (at 18.75 2.54) (size 2.9 2.9) (drill 1.5) (layers *.Cu *.Mask))
  (pad T1 thru_hole circle (at 0 0) (size 3 3) (drill 1.5) (layers *.Cu *.Mask))
  (pad T2 thru_hole circle (at 3.18 1.27) (size 3 3) (drill 1.5) (layers *.Cu *.Mask))
  (pad S1 thru_hole circle (at 12.7 0) (size 3 3) (drill 1.5) (layers *.Cu *.Mask))
  (pad S2 thru_hole circle (at 15.87 1.27) (size 3 3) (drill 1.5) (layers *.Cu *.Mask))
  (pad TN1 thru_hole circle (at 0 12.7) (size 3 3) (drill 1.5) (layers *.Cu *.Mask))
  (pad TN2 thru_hole circle (at 3.18 13.97) (size 3 3) (drill 1.5) (layers *.Cu *.Mask))
  (pad SN1 thru_hole circle (at 12.7 12.7) (size 3 3) (drill 1.5) (layers *.Cu *.Mask))
  (pad SN2 thru_hole circle (at 15.87 13.97) (size 3 3) (drill 1.5) (layers *.Cu *.Mask))
  (pad R1 thru_hole circle (at 6.35 0) (size 3 3) (drill 1.5) (layers *.Cu *.Mask))
  (pad R2 thru_hole circle (at 9.53 1.27) (size 3 3) (drill 1.5) (layers *.Cu *.Mask))
  (pad RN1 thru_hole circle (at 6.35 12.7) (size 3 3) (drill 1.5) (layers *.Cu *.Mask))
  (pad RN2 thru_hole circle (at 9.53 13.97) (size 3 3) (drill 1.5) (layers *.Cu *.Mask))
  (model ${KICAD6_3DMODEL_DIR}/Connector_Audio.3dshapes/Jack_6.35mm_Neutrik_NSJ12HF-1_Horizontal.wrl
    (at (xyz 0 0 0))
    (scale (xyz 1 1 1))
    (rotate (xyz 0 0 0))
  )
)
