(module Jack_XLR_Neutrik_NC3FAAV1-DA_Vertical (layer F.Cu) (tedit 5BEF60C8)
  (descr "AA Series, 3 pole female receptacle, grounding: mating connector shell to pin1 and front panel, vertical PCB mount, asymmetric push, https://www.neutrik.com/en/product/nc3faav1-da")
  (tags "neutrik xlr aa")
  (fp_text reference REF** (at -3.81 -13.5) (layer F.SilkS)
    (effects (font (size 1 1) (thickness 0.15)))
  )
  (fp_text value Jack_XLR_Neutrik_NC3FAAV1-DA_Vertical (at -3.81 16) (layer F.Fab)
    (effects (font (size 1 1) (thickness 0.15)))
  )
  (fp_circle (center 6.09 9.9) (end 7.29 9.9) (layer F.Fab) (width 0.1))
  (fp_circle (center -3.81 0) (end 4.09 0) (layer F.Fab) (width 0.1))
  (fp_circle (center -3.81 0) (end 5.79 0) (layer F.Fab) (width 0.1))
  (fp_circle (center -3.81 0) (end 7.09 0) (layer F.Fab) (width 0.1))
  (fp_line (start -3.87 10.9) (end -3.87 12.3) (layer F.Fab) (width 0.1))
  (fp_line (start -4.75 11.04) (end -4.75 12.3) (layer F.Fab) (width 0.1))
  (fp_line (start -6.87 14.8) (end -6.87 10.73) (layer F.Fab) (width 0.1))
  (fp_line (start -8.37 10.03) (end -8.37 14.8) (layer F.Fab) (width 0.1))
  (fp_line (start -14.71 0) (end -14.71 -5.24) (layer F.Fab) (width 0.1))
  (fp_line (start -14.71 6.12) (end -14.71 5.26) (layer F.Fab) (width 0.1))
  (fp_line (start 0.75 12.5) (end 6.09 12.5) (layer F.Fab) (width 0.1))
  (fp_line (start -4.07 12.5) (end -4.55 12.5) (layer F.Fab) (width 0.1))
  (fp_line (start 0.75 14.8) (end -0.75 14.8) (layer F.Fab) (width 0.1))
  (fp_line (start -6.87 14.8) (end -8.37 14.8) (layer F.Fab) (width 0.1))
  (fp_arc (start 12.08 5.24) (end 7.09 5.24) (angle -37.9) (layer F.Fab) (width 0.1))
  (fp_arc (start 6.09 9.9) (end 6.09 12.5) (angle -127.9) (layer F.Fab) (width 0.1))
  (fp_arc (start -9.83 -16.44) (end -12.38 -12.13) (angle -50.6) (layer F.Fab) (width 0.1))
  (fp_circle (center -13.71 -9.9) (end -12.51 -9.9) (layer F.Fab) (width 0.1))
  (fp_arc (start -13.71 -9.9) (end -12.38 -12.13) (angle -158.6) (layer F.Fab) (width 0.1))
  (fp_arc (start -19.72 -5.24) (end -14.71 -5.24) (angle -37.9) (layer F.Fab) (width 0.1))
  (fp_arc (start -3.81 0) (end 7.09 -6.12) (angle -80.9) (layer F.Fab) (width 0.1))
  (fp_arc (start -14.92 4.24) (end -14.44 5.11) (angle -78) (layer F.Fab) (width 0.1))
  (fp_arc (start -6.66 10.73) (end -6.87 10.73) (angle 85) (layer F.Fab) (width 0.1))
  (fp_arc (start -0.96 10.73) (end -0.75 10.73) (angle -87) (layer F.Fab) (width 0.1))
  (fp_arc (start -4.07 12.3) (end -4.07 12.5) (angle -90) (layer F.Fab) (width 0.1))
  (fp_arc (start -4.55 12.3) (end -4.75 12.3) (angle -90) (layer F.Fab) (width 0.1))
  (fp_arc (start -4.95 11.04) (end -4.75 11.04) (angle -78) (layer F.Fab) (width 0.1))
  (fp_arc (start -13.22 7.31) (end -13.71 6.42) (angle 81.5) (layer F.Fab) (width 0.1))
  (fp_arc (start -8.57 10.02) (end -8.37 10.03) (angle -51) (layer F.Fab) (width 0.1))
  (fp_line (start -0.75 10.73) (end -0.75 10.73) (layer F.Fab) (width 0.1))
  (fp_line (start 7.09 5.24) (end 7.09 -6.12) (layer F.Fab) (width 0.1))
  (fp_line (start 0.75 14.8) (end 0.75 12.5) (layer F.Fab) (width 0.1))
  (fp_line (start -0.75 14.8) (end -0.75 10.73) (layer F.Fab) (width 0.1))
  (fp_line (start -13.71 6.42) (end -14.32 6.76) (layer F.Fab) (width 0.1))
  (fp_line (start -14.71 5.26) (end -14.44 5.11) (layer F.Fab) (width 0.1))
  (fp_line (start -16.8 -13.2) (end 9.2 -13.2) (layer F.CrtYd) (width 0.05))
  (fp_line (start 9.2 -13.2) (end 9.2 15.3) (layer F.CrtYd) (width 0.05))
  (fp_line (start 9.2 15.3) (end -16.8 15.3) (layer F.CrtYd) (width 0.05))
  (fp_line (start -16.8 15.3) (end -16.8 -13.2) (layer F.CrtYd) (width 0.05))
  (fp_text user %R (at -3.81 -1) (layer F.Fab)
    (effects (font (size 1 1) (thickness 0.15)))
  )
  (fp_line (start -14.32 6.76) (end -14.71 6.12) (layer F.Fab) (width 0.1))
  (fp_circle (center 6.09 9.9) (end 7.29 9.9) (layer F.SilkS) (width 0.12))
  (fp_circle (center -3.81 0) (end 5.79 0) (layer F.SilkS) (width 0.12))
  (fp_circle (center -3.81 0) (end 7.09 0) (layer F.SilkS) (width 0.12))
  (fp_line (start -3.87 10.9) (end -3.87 12.3) (layer F.SilkS) (width 0.12))
  (fp_line (start -4.75 11.04) (end -4.75 12.3) (layer F.SilkS) (width 0.12))
  (fp_line (start -6.87 14.8) (end -6.87 10.73) (layer F.SilkS) (width 0.12))
  (fp_line (start -8.37 10.03) (end -8.37 14.8) (layer F.SilkS) (width 0.12))
  (fp_line (start -14.71 0) (end -14.71 -5.24) (layer F.SilkS) (width 0.12))
  (fp_line (start -14.71 6.12) (end -14.71 5.26) (layer F.SilkS) (width 0.12))
  (fp_line (start 0.75 12.5) (end 6.09 12.5) (layer F.SilkS) (width 0.12))
  (fp_line (start -4.07 12.5) (end -4.55 12.5) (layer F.SilkS) (width 0.12))
  (fp_line (start 0.75 14.8) (end -0.75 14.8) (layer F.SilkS) (width 0.12))
  (fp_line (start -6.87 14.8) (end -8.37 14.8) (layer F.SilkS) (width 0.12))
  (fp_arc (start 12.08 5.24) (end 7.09 5.24) (angle -37.9) (layer F.SilkS) (width 0.12))
  (fp_arc (start 6.09 9.9) (end 6.09 12.5) (angle -127.9) (layer F.SilkS) (width 0.12))
  (fp_arc (start -9.83 -16.44) (end -12.38 -12.13) (angle -50.6) (layer F.SilkS) (width 0.12))
  (fp_circle (center -13.71 -9.9) (end -12.51 -9.9) (layer F.SilkS) (width 0.12))
  (fp_arc (start -13.71 -9.9) (end -12.38 -12.13) (angle -158.6) (layer F.SilkS) (width 0.12))
  (fp_arc (start -19.72 -5.24) (end -14.71 -5.24) (angle -37.9) (layer F.SilkS) (width 0.12))
  (fp_arc (start -3.81 0) (end 7.09 -6.12) (angle -80.9) (layer F.SilkS) (width 0.12))
  (fp_arc (start -14.92 4.24) (end -14.44 5.11) (angle -78) (layer F.SilkS) (width 0.12))
  (fp_arc (start -6.66 10.73) (end -6.87 10.73) (angle 85) (layer F.SilkS) (width 0.12))
  (fp_arc (start -0.96 10.73) (end -0.75 10.73) (angle -87) (layer F.SilkS) (width 0.12))
  (fp_arc (start -4.07 12.3) (end -4.07 12.5) (angle -90) (layer F.SilkS) (width 0.12))
  (fp_arc (start -4.55 12.3) (end -4.75 12.3) (angle -90) (layer F.SilkS) (width 0.12))
  (fp_arc (start -4.95 11.04) (end -4.75 11.04) (angle -78) (layer F.SilkS) (width 0.12))
  (fp_arc (start -13.22 7.31) (end -13.71 6.42) (angle 81.5) (layer F.SilkS) (width 0.12))
  (fp_arc (start -8.57 10.02) (end -8.37 10.03) (angle -51) (layer F.SilkS) (width 0.12))
  (fp_line (start -0.75 10.73) (end -0.75 10.73) (layer F.SilkS) (width 0.12))
  (fp_line (start 7.09 5.24) (end 7.09 -6.12) (layer F.SilkS) (width 0.12))
  (fp_line (start 0.75 14.8) (end 0.75 12.5) (layer F.SilkS) (width 0.12))
  (fp_line (start -0.75 14.8) (end -0.75 10.73) (layer F.SilkS) (width 0.12))
  (fp_line (start -13.71 6.42) (end -14.32 6.76) (layer F.SilkS) (width 0.12))
  (fp_line (start -14.71 5.26) (end -14.44 5.11) (layer F.SilkS) (width 0.12))
  (fp_line (start -14.32 6.76) (end -14.71 6.12) (layer F.SilkS) (width 0.12))
  (fp_circle (center -3.81 0) (end 4.09 0) (layer F.SilkS) (width 0.12))
  (pad 2 thru_hole circle (at -7.62 0) (size 3.4 3.4) (drill 1.6) (layers *.Cu *.Mask))
  (pad 1 thru_hole circle (at 0 0) (size 3.4 3.4) (drill 1.6) (layers *.Cu *.Mask))
  (pad 3 thru_hole circle (at -3.81 4.45) (size 2.9 2.9) (drill 1.2) (layers *.Cu *.Mask))
  (model ${KICAD6_3DMODEL_DIR}/Connector_Audio.3dshapes/Jack_XLR_Neutrik_NC3FAAV1-DA_Vertical.wrl
    (at (xyz 0 0 0))
    (scale (xyz 1 1 1))
    (rotate (xyz 0 0 0))
  )
)
