(module Jack_XLR_Neutrik_NC5MAH_Horizontal (layer F.Cu) (tedit 5E7C3B81)
  (descr "A Series, 5 pole male XLR receptacle, grounding: separate ground contact to mating connector shell and front panel, horizontal PCB mount, https://www.neutrik.com/en/product/nc5mah")
  (tags "neutrik xlr a")
  (fp_text reference REF** (at 6.98 -3) (layer F.SilkS)
    (effects (font (size 1 1) (thickness 0.15)))
  )
  (fp_text value Jack_XLR_Neutrik_NC5MAH_Horizontal (at 6.98 22) (layer F.Fab)
    (effects (font (size 1 1) (thickness 0.15)))
  )
  (fp_line (start -1.94 -1.34) (end -1.94 -0.3) (layer F.SilkS) (width 0.12))
  (fp_line (start -1.94 5.66) (end -2.39 5.66) (layer F.SilkS) (width 0.12))
  (fp_line (start -2.27 5.78) (end -2.27 11.48) (layer F.Fab) (width 0.1))
  (fp_line (start 5.9 -1.34) (end 1.4 -1.34) (layer F.SilkS) (width 0.12))
  (fp_line (start 15.78 -1.22) (end -1.82 -1.22) (layer F.Fab) (width 0.1))
  (fp_line (start 15.9 -1.34) (end 15.9 -0.3) (layer F.SilkS) (width 0.12))
  (fp_line (start 15.9 5.66) (end 15.9 0.3) (layer F.SilkS) (width 0.12))
  (fp_line (start -2.27 5.78) (end 16.23 5.78) (layer F.Fab) (width 0.1))
  (fp_line (start 16.35 11.36) (end 16.35 5.66) (layer F.SilkS) (width 0.12))
  (fp_line (start -1.94 5.66) (end -1.94 0.3) (layer F.SilkS) (width 0.12))
  (fp_line (start 15.9 5.66) (end 16.35 5.66) (layer F.SilkS) (width 0.12))
  (fp_line (start -2.39 11.36) (end -2.39 5.66) (layer F.SilkS) (width 0.12))
  (fp_line (start 16.23 11.48) (end 16.23 5.78) (layer F.Fab) (width 0.1))
  (fp_line (start -1.82 5.78) (end -1.82 -1.22) (layer F.Fab) (width 0.1))
  (fp_line (start 15.78 5.78) (end 15.78 -1.22) (layer F.Fab) (width 0.1))
  (fp_line (start 19.98 20.98) (end -6.32 20.98) (layer F.CrtYd) (width 0.05))
  (fp_line (start 19.98 -2.22) (end -6.32 -2.22) (layer F.CrtYd) (width 0.05))
  (fp_line (start 19.98 20.98) (end 19.98 -2.22) (layer F.CrtYd) (width 0.05))
  (fp_line (start -6.32 20.98) (end -6.32 -2.22) (layer F.CrtYd) (width 0.05))
  (fp_line (start 18.1 20.6) (end -4.14 20.6) (layer F.SilkS) (width 0.12))
  (fp_line (start 19.6 17.9) (end 18.1 17.9) (layer F.SilkS) (width 0.12))
  (fp_line (start -4.14 17.9) (end -5.94 17.9) (layer F.SilkS) (width 0.12))
  (fp_line (start -4.14 17.9) (end -4.14 20.6) (layer F.SilkS) (width 0.12))
  (fp_line (start 18.1 17.9) (end 18.1 20.6) (layer F.SilkS) (width 0.12))
  (fp_line (start -5.94 11.36) (end -2.39 11.36) (layer F.SilkS) (width 0.12))
  (fp_line (start 16.35 11.36) (end 19.6 11.36) (layer F.SilkS) (width 0.12))
  (fp_line (start 19.6 17.9) (end 19.6 11.36) (layer F.SilkS) (width 0.12))
  (fp_line (start -5.94 17.9) (end -5.94 11.36) (layer F.SilkS) (width 0.12))
  (fp_line (start 19.48 17.78) (end -5.82 17.78) (layer Dwgs.User) (width 0.1))
  (fp_line (start 19.48 17.78) (end -5.82 17.78) (layer F.Fab) (width 0.1))
  (fp_line (start -5.82 17.78) (end -5.82 11.48) (layer F.Fab) (width 0.1))
  (fp_line (start -5.82 11.48) (end 19.48 11.48) (layer F.Fab) (width 0.1))
  (fp_line (start 19.48 11.48) (end 19.48 17.78) (layer F.Fab) (width 0.1))
  (fp_line (start 17.98 17.78) (end 17.98 20.48) (layer F.Fab) (width 0.1))
  (fp_line (start 17.98 20.48) (end -4.02 20.48) (layer F.Fab) (width 0.1))
  (fp_line (start -4.02 20.48) (end -4.02 17.78) (layer F.Fab) (width 0.1))
  (fp_text user %R (at 6.98 15.43) (layer F.Fab)
    (effects (font (size 1 1) (thickness 0.15)))
  )
  (fp_line (start 12.5 -1.34) (end 8.1 -1.34) (layer F.SilkS) (width 0.12))
  (fp_line (start -1.94 -1.34) (end -1.45 -1.34) (layer F.SilkS) (width 0.12))
  (fp_line (start 15.4 -1.34) (end 15.9 -1.34) (layer F.SilkS) (width 0.12))
  (pad 3 thru_hole circle (at 6.98 0) (size 2.9 2.9) (drill 1.2) (layers *.Cu *.Mask))
  (pad G thru_hole circle (at 6.98 5.08) (size 2.9 2.9) (drill 1.2) (layers *.Cu *.Mask))
  (pad 2 thru_hole circle (at 3.17 5.08) (size 2.9 2.9) (drill 1.2) (layers *.Cu *.Mask))
  (pad "" np_thru_hole circle (at 3.17 8.89) (size 1.6 1.6) (drill 1.6) (layers *.Cu *.Mask))
  (pad "" np_thru_hole circle (at 10.79 13.97) (size 1.6 1.6) (drill 1.6) (layers *.Cu *.Mask))
  (pad 1 thru_hole circle (at 0 0) (size 3.4 3.4) (drill 1.6) (layers *.Cu *.Mask))
  (pad 5 thru_hole circle (at 13.96 0) (size 3.4 3.4) (drill 1.6) (layers *.Cu *.Mask))
  (pad 4 thru_hole circle (at 10.79 5.08) (size 2.9 2.9) (drill 1.2) (layers *.Cu *.Mask))
  (model ${KICAD6_3DMODEL_DIR}/Connector_Audio.3dshapes/Jack_XLR_Neutrik_NC5MAH_Horizontal.wrl
    (at (xyz 0 0 0))
    (scale (xyz 1 1 1))
    (rotate (xyz 0 0 0))
  )
)
