(module Jack_XLR_Neutrik_NC5FAV-SW_Vertical (layer F.Cu) (tedit 5D2D03AC)
  (descr "A Series, 5 pole female XLR receptacle, switching contacts, grounding: separate ground contact to mating connector shell and front panel, vertical PCB mount, color coding possible, https://www.neutrik.com/en/product/nc5fav-sw")
  (tags "neutrik xlr a")
  (fp_text reference REF** (at -3.81 -12.865) (layer F.SilkS)
    (effects (font (size 1 1) (thickness 0.15)))
  )
  (fp_text value Jack_XLR_Neutrik_NC5FAV-SW_Vertical (at -3.81 16) (layer F.Fab)
    (effects (font (size 1 1) (thickness 0.15)))
  )
  (fp_text user %R (at -3.81 -0.365) (layer F.Fab)
    (effects (font (size 1 1) (thickness 0.15)))
  )
  (fp_line (start -16.8 15.13) (end -16.8 -12.35) (layer F.CrtYd) (width 0.05))
  (fp_line (start 9.2 15.13) (end -16.8 15.13) (layer F.CrtYd) (width 0.05))
  (fp_line (start 9.2 -12.35) (end 9.2 15.13) (layer F.CrtYd) (width 0.05))
  (fp_line (start -16.8 -12.35) (end 9.2 -12.35) (layer F.CrtYd) (width 0.05))
  (fp_arc (start 8.31 -6.84) (end 8.45 -6.62) (angle -105) (layer F.Fab) (width 0.1))
  (fp_line (start 8.48 -7.04) (end 5.66 -10.41) (layer F.Fab) (width 0.1))
  (fp_line (start 8.45 -6.62) (end 7.09 -5.47) (layer F.Fab) (width 0.1))
  (fp_arc (start 5.43 -10.26) (end 5.66 -10.41) (angle -102) (layer F.Fab) (width 0.1))
  (fp_line (start 3.82 -9.26) (end 5.23 -10.45) (layer F.Fab) (width 0.1))
  (fp_arc (start -3.81 0.635) (end 7.69 -4.26) (angle -87) (layer F.Fab) (width 0.1))
  (fp_line (start 7.69 6.77) (end 7.69 -4.26) (layer F.Fab) (width 0.1))
  (fp_arc (start 12.69 6.76) (end 7.69 6.77) (angle -29.7) (layer F.Fab) (width 0.1))
  (fp_line (start -4.81 12.83) (end -2.81 12.83) (layer F.Fab) (width 0.1))
  (fp_line (start -12.81 9.31) (end -12.81 13.13) (layer F.Fab) (width 0.1))
  (fp_arc (start -3.81 0.635) (end -15.31 5.53) (angle -20.8) (layer F.Fab) (width 0.1))
  (fp_line (start -15.31 -5.5) (end -15.31 5.53) (layer F.Fab) (width 0.1))
  (fp_arc (start -20.32 -5.48) (end -15.31 -5.5) (angle -29.7) (layer F.Fab) (width 0.1))
  (fp_arc (start -13.71 -9.26) (end -12.38 -11.5) (angle -150.1) (layer F.Fab) (width 0.1))
  (fp_arc (start -9.82 -15.84) (end -12.38 -11.5) (angle -50.6) (layer F.Fab) (width 0.1))
  (fp_line (start -0.75 14.33) (end -0.45 14.63) (layer F.Fab) (width 0.1))
  (fp_line (start 0.75 14.33) (end 0.45 14.63) (layer F.Fab) (width 0.1))
  (fp_line (start -8.37 14.33) (end -8.07 14.63) (layer F.Fab) (width 0.1))
  (fp_line (start -6.87 14.33) (end -7.17 14.63) (layer F.Fab) (width 0.1))
  (fp_line (start -6.87 13.13) (end -6.87 14.33) (layer F.Fab) (width 0.1))
  (fp_line (start -8.37 13.13) (end -8.37 14.33) (layer F.Fab) (width 0.1))
  (fp_line (start -0.75 13.13) (end -0.75 14.33) (layer F.Fab) (width 0.1))
  (fp_line (start 0.75 13.13) (end 0.75 14.33) (layer F.Fab) (width 0.1))
  (fp_line (start 2.09 12.83) (end 2.09 13.13) (layer F.Fab) (width 0.1))
  (fp_line (start -4.81 12.83) (end -4.81 13.13) (layer F.Fab) (width 0.1))
  (fp_line (start 2.09 13.13) (end 0.75 13.13) (layer F.Fab) (width 0.1))
  (fp_line (start -0.75 13.13) (end -2.81 13.13) (layer F.Fab) (width 0.1))
  (fp_line (start -4.81 13.13) (end -6.87 13.13) (layer F.Fab) (width 0.1))
  (fp_line (start -8.37 13.13) (end -9.8 13.13) (layer F.Fab) (width 0.1))
  (fp_line (start -11.81 13.13) (end -12.81 13.13) (layer F.Fab) (width 0.1))
  (fp_line (start -0.45 14.63) (end 0.45 14.63) (layer F.Fab) (width 0.1))
  (fp_line (start -8.07 14.63) (end -7.17 14.63) (layer F.Fab) (width 0.1))
  (fp_line (start 3.49 12.83) (end 3.49 13.13) (layer F.Fab) (width 0.1))
  (fp_line (start -9.8 12.83) (end -9.8 13.13) (layer F.Fab) (width 0.1))
  (fp_line (start -2.81 12.83) (end -2.81 13.13) (layer F.Fab) (width 0.1))
  (fp_line (start -11.81 12.83) (end -11.81 13.13) (layer F.Fab) (width 0.1))
  (fp_arc (start 6.09 10.53) (end 6.09 13.13) (angle -119.6) (layer F.Fab) (width 0.1))
  (fp_arc (start 6.09 10.53) (end 7.25 12.86) (angle -1.2) (layer F.Fab) (width 0.1))
  (fp_line (start 6.09 13.13) (end 3.49 13.13) (layer F.Fab) (width 0.1))
  (fp_circle (center -13.71 -9.265) (end -12.51 -9.265) (layer F.Fab) (width 0.1))
  (fp_circle (center 6.09 10.535) (end 7.29 10.535) (layer F.Fab) (width 0.1))
  (fp_circle (center -3.81 0.635) (end 7.09 0.635) (layer F.Fab) (width 0.1))
  (fp_circle (center -3.81 0.635) (end 4.09 0.635) (layer F.Fab) (width 0.1))
  (fp_arc (start 6.09 10.535) (end 5.86 11.715) (angle -220) (layer F.SilkS) (width 0.12))
  (fp_line (start 2.09 12.83) (end 3.49 12.83) (layer F.Fab) (width 0.1))
  (fp_line (start -11.81 12.83) (end -9.8 12.83) (layer F.Fab) (width 0.1))
  (fp_arc (start 8.31 -6.84) (end 8.45 -6.62) (angle -105) (layer F.SilkS) (width 0.12))
  (fp_line (start 8.48 -7.04) (end 5.66 -10.41) (layer F.SilkS) (width 0.12))
  (fp_line (start 8.45 -6.62) (end 7.09 -5.47) (layer F.SilkS) (width 0.12))
  (fp_arc (start 5.43 -10.26) (end 5.66 -10.41) (angle -102) (layer F.SilkS) (width 0.12))
  (fp_line (start 3.82 -9.26) (end 5.23 -10.45) (layer F.SilkS) (width 0.12))
  (fp_arc (start -3.81 0.635) (end 3.82 -9.26) (angle -57.6) (layer F.SilkS) (width 0.12))
  (fp_line (start 7.69 6.77) (end 7.69 -4.26) (layer F.SilkS) (width 0.12))
  (fp_arc (start 12.69 6.76) (end 7.69 6.77) (angle -29.7) (layer F.SilkS) (width 0.12))
  (fp_line (start -4.81 12.83) (end -2.81 12.83) (layer F.SilkS) (width 0.12))
  (fp_line (start -12.81 9.31) (end -12.81 13.13) (layer F.SilkS) (width 0.12))
  (fp_arc (start -3.81 0.635) (end -15.31 5.53) (angle -20.8) (layer F.SilkS) (width 0.12))
  (fp_line (start -15.31 -5.5) (end -15.31 5.53) (layer F.SilkS) (width 0.12))
  (fp_arc (start -20.32 -5.48) (end -15.31 -5.5) (angle -29.7) (layer F.SilkS) (width 0.12))
  (fp_arc (start -13.71 -9.26) (end -12.38 -11.5) (angle -150.1) (layer F.SilkS) (width 0.12))
  (fp_arc (start -9.82 -15.84) (end -12.38 -11.5) (angle -50.6) (layer F.SilkS) (width 0.12))
  (fp_line (start -0.75 14.33) (end -0.45 14.63) (layer F.SilkS) (width 0.12))
  (fp_line (start 0.75 14.33) (end 0.45 14.63) (layer F.SilkS) (width 0.12))
  (fp_line (start -8.37 14.33) (end -8.07 14.63) (layer F.SilkS) (width 0.12))
  (fp_line (start -6.87 14.33) (end -7.17 14.63) (layer F.SilkS) (width 0.12))
  (fp_line (start -6.87 13.13) (end -6.87 14.33) (layer F.SilkS) (width 0.12))
  (fp_line (start -8.37 13.13) (end -8.37 14.33) (layer F.SilkS) (width 0.12))
  (fp_line (start -0.75 13.13) (end -0.75 14.33) (layer F.SilkS) (width 0.12))
  (fp_line (start 0.75 13.13) (end 0.75 14.33) (layer F.SilkS) (width 0.12))
  (fp_line (start 2.09 12.83) (end 2.09 13.13) (layer F.SilkS) (width 0.12))
  (fp_line (start -4.81 12.83) (end -4.81 13.13) (layer F.SilkS) (width 0.12))
  (fp_line (start 2.09 13.13) (end 0.75 13.13) (layer F.SilkS) (width 0.12))
  (fp_line (start -0.75 13.13) (end -2.81 13.13) (layer F.SilkS) (width 0.12))
  (fp_line (start -4.81 13.13) (end -6.87 13.13) (layer F.SilkS) (width 0.12))
  (fp_line (start -8.37 13.13) (end -9.8 13.13) (layer F.SilkS) (width 0.12))
  (fp_line (start -11.81 13.13) (end -12.81 13.13) (layer F.SilkS) (width 0.12))
  (fp_line (start -0.45 14.63) (end 0.45 14.63) (layer F.SilkS) (width 0.12))
  (fp_line (start -8.07 14.63) (end -7.17 14.63) (layer F.SilkS) (width 0.12))
  (fp_line (start 3.49 12.83) (end 3.49 13.13) (layer F.SilkS) (width 0.12))
  (fp_line (start -9.8 12.83) (end -9.8 13.13) (layer F.SilkS) (width 0.12))
  (fp_line (start -2.81 12.83) (end -2.81 13.13) (layer F.SilkS) (width 0.12))
  (fp_line (start -11.81 12.83) (end -11.81 13.13) (layer F.SilkS) (width 0.12))
  (fp_arc (start 6.09 10.53) (end 6.09 13.13) (angle -119.6) (layer F.SilkS) (width 0.12))
  (fp_arc (start 6.09 10.53) (end 7.25 12.86) (angle -1.2) (layer F.SilkS) (width 0.12))
  (fp_line (start 6.09 13.13) (end 3.49 13.13) (layer F.SilkS) (width 0.12))
  (fp_circle (center -13.71 -9.265) (end -12.51 -9.265) (layer F.SilkS) (width 0.12))
  (fp_circle (center -3.81 0.635) (end 4.09 0.635) (layer F.SilkS) (width 0.12))
  (fp_line (start 2.09 12.83) (end 3.49 12.83) (layer F.SilkS) (width 0.12))
  (fp_line (start -11.81 12.83) (end -9.8 12.83) (layer F.SilkS) (width 0.12))
  (fp_arc (start -3.81 0.635) (end 7.69 -4.26) (angle -6.2) (layer F.SilkS) (width 0.12))
  (fp_arc (start -3.81 0.635) (end 3.74 -7.23) (angle -348.1) (layer F.SilkS) (width 0.12))
  (pad 1 thru_hole circle (at 0 0) (size 2.9 2.9) (drill 1.2) (layers *.Cu *.Mask))
  (pad 2 thru_hole circle (at -0.635 3.175) (size 2.9 2.9) (drill 1.2) (layers *.Cu *.Mask))
  (pad G thru_hole circle (at 4.445 10.795) (size 2.9 2.9) (drill 1.2) (layers *.Cu *.Mask))
  (pad 3 thru_hole circle (at -3.81 5.08) (size 2.9 2.9) (drill 1.2) (layers *.Cu *.Mask))
  (pad 4 thru_hole circle (at -6.985 3.175) (size 2.9 2.9) (drill 1.2) (layers *.Cu *.Mask))
  (pad 5 thru_hole circle (at -7.62 -0.635) (size 2.9 2.9) (drill 1.2) (layers *.Cu *.Mask))
  (pad NC thru_hole circle (at 2.54 -5.715) (size 1.8 1.8) (drill 1.2) (layers *.Cu *.Mask))
  (pad N thru_hole circle (at 4.445 -6.35) (size 1.8 1.8) (drill 1.2) (layers *.Cu *.Mask))
  (pad NO thru_hole circle (at 6.35 -6.985) (size 1.8 1.8) (drill 1.2) (layers *.Cu *.Mask))
  (model ${KICAD6_3DMODEL_DIR}/Connector_Audio.3dshapes/Jack_XLR_Neutrik_NC5FAV-SW_Vertical.wrl
    (at (xyz 0 0 0))
    (scale (xyz 1 1 1))
    (rotate (xyz 0 0 0))
  )
)
