(module Jack_XLR_Neutrik_NC5MBV-SW_Vertical (layer F.Cu) (tedit 5C144095)
  (descr "B Series, 5 pole male XLR receptacle, switching contacts, grounding: separate ground contact to mating connector shell and front panel, vertical PCB mount, https://www.neutrik.com/en/product/nc5mbv-sw")
  (tags "neutrik xlr b")
  (fp_text reference REF** (at 4.445 -12.865) (layer F.SilkS)
    (effects (font (size 1 1) (thickness 0.15)))
  )
  (fp_text value Jack_XLR_Neutrik_NC5MBV-SW_Vertical (at 4.445 16) (layer F.Fab)
    (effects (font (size 1 1) (thickness 0.15)))
  )
  (fp_text user %R (at 4.445 -0.365) (layer F.Fab)
    (effects (font (size 1 1) (thickness 0.15)))
  )
  (fp_line (start -8.55 15.13) (end -8.55 -12.35) (layer F.CrtYd) (width 0.05))
  (fp_line (start 17.45 15.13) (end -8.55 15.13) (layer F.CrtYd) (width 0.05))
  (fp_line (start 17.45 -12.35) (end 17.45 15.13) (layer F.CrtYd) (width 0.05))
  (fp_line (start -8.55 -12.35) (end 17.45 -12.35) (layer F.CrtYd) (width 0.05))
  (fp_line (start -8.05 -1.74) (end -8.05 2.66) (layer F.Fab) (width 0.1))
  (fp_arc (start -7.75 -1.74) (end -7.75 -2.04) (angle -90) (layer F.Fab) (width 0.1))
  (fp_line (start -7.05 -2.04) (end -7.75 -2.04) (layer F.Fab) (width 0.1))
  (fp_arc (start -7.75 2.66) (end -8.05 2.66) (angle -90) (layer F.Fab) (width 0.1))
  (fp_line (start -7.75 2.96) (end -7.05 2.96) (layer F.Fab) (width 0.1))
  (fp_arc (start 14.34 10.53) (end 14.34 13.13) (angle -119.7) (layer F.Fab) (width 0.1))
  (fp_line (start -7.05 -5.5) (end -7.05 5.53) (layer F.Fab) (width 0.1))
  (fp_arc (start -5.45 -9.26) (end -4.13 -11.51) (angle -150.5) (layer F.Fab) (width 0.1))
  (fp_arc (start 4.445 0.635) (end 15.94 -4.26) (angle -87) (layer F.Fab) (width 0.1))
  (fp_line (start 15.94 6.7) (end 15.94 -4.26) (layer F.Fab) (width 0.1))
  (fp_line (start -0.11 14.33) (end 0.19 14.63) (layer F.Fab) (width 0.1))
  (fp_line (start 1.39 14.33) (end 1.09 14.63) (layer F.Fab) (width 0.1))
  (fp_line (start 7.57 14.33) (end 7.87 14.63) (layer F.Fab) (width 0.1))
  (fp_line (start 8.77 14.63) (end 7.87 14.63) (layer F.Fab) (width 0.1))
  (fp_line (start 9.07 14.33) (end 8.77 14.63) (layer F.Fab) (width 0.1))
  (fp_line (start 7.57 13.13) (end 7.57 14.33) (layer F.Fab) (width 0.1))
  (fp_line (start 9.07 13.13) (end 9.07 14.33) (layer F.Fab) (width 0.1))
  (fp_line (start -0.11 13.13) (end -0.11 14.33) (layer F.Fab) (width 0.1))
  (fp_line (start 1.39 13.13) (end 1.39 14.33) (layer F.Fab) (width 0.1))
  (fp_line (start 0.19 14.63) (end 1.09 14.63) (layer F.Fab) (width 0.1))
  (fp_arc (start -1.46 -16.81) (end -4.13 -11.51) (angle -42.5) (layer F.Fab) (width 0.1))
  (fp_arc (start -13 -5.22) (end -7.05 -5.5) (angle -24.6) (layer F.Fab) (width 0.1))
  (fp_arc (start 4.445 0.635) (end -7.05 5.53) (angle -22) (layer F.Fab) (width 0.1))
  (fp_line (start -4.37 13.13) (end -4.37 9.49) (layer F.Fab) (width 0.1))
  (fp_line (start 14.34 13.13) (end -4.37 13.13) (layer F.Fab) (width 0.1))
  (fp_arc (start 21.91 6.51) (end 15.94 6.7) (angle -25.4) (layer F.Fab) (width 0.1))
  (fp_circle (center 14.345 10.535) (end 15.545 10.535) (layer F.Fab) (width 0.1))
  (fp_circle (center -5.455 -9.265) (end -4.255 -9.265) (layer F.Fab) (width 0.1))
  (fp_circle (center 4.445 0.635) (end 15.345 0.635) (layer F.Fab) (width 0.1))
  (fp_circle (center 4.445 0.635) (end 12.745 0.635) (layer F.Fab) (width 0.1))
  (fp_line (start -8.05 -1.74) (end -8.05 2.66) (layer F.SilkS) (width 0.12))
  (fp_arc (start -7.75 -1.74) (end -7.75 -2.04) (angle -90) (layer F.SilkS) (width 0.12))
  (fp_line (start -7.05 -2.04) (end -7.75 -2.04) (layer F.SilkS) (width 0.12))
  (fp_arc (start -7.75 2.66) (end -8.05 2.66) (angle -90) (layer F.SilkS) (width 0.12))
  (fp_line (start -7.75 2.96) (end -7.05 2.96) (layer F.SilkS) (width 0.12))
  (fp_arc (start 14.34 10.53) (end 14.34 13.13) (angle -119.7) (layer F.SilkS) (width 0.12))
  (fp_line (start -7.05 -5.5) (end -7.05 -2.04) (layer F.SilkS) (width 0.12))
  (fp_arc (start -5.45 -9.26) (end -4.13 -11.51) (angle -150.5) (layer F.SilkS) (width 0.12))
  (fp_arc (start 4.445 0.635) (end 15.94 -4.26) (angle -87) (layer F.SilkS) (width 0.12))
  (fp_line (start 15.94 6.7) (end 15.94 -4.26) (layer F.SilkS) (width 0.12))
  (fp_line (start -0.11 14.33) (end 0.19 14.63) (layer F.SilkS) (width 0.12))
  (fp_line (start 1.39 14.33) (end 1.09 14.63) (layer F.SilkS) (width 0.12))
  (fp_line (start 7.57 14.33) (end 7.87 14.63) (layer F.SilkS) (width 0.12))
  (fp_line (start 8.77 14.63) (end 7.87 14.63) (layer F.SilkS) (width 0.12))
  (fp_line (start 9.07 14.33) (end 8.77 14.63) (layer F.SilkS) (width 0.12))
  (fp_line (start 7.57 13.13) (end 7.57 14.33) (layer F.SilkS) (width 0.12))
  (fp_line (start 9.07 13.13) (end 9.07 14.33) (layer F.SilkS) (width 0.12))
  (fp_line (start -0.11 13.13) (end -0.11 14.33) (layer F.SilkS) (width 0.12))
  (fp_line (start 1.39 13.13) (end 1.39 14.33) (layer F.SilkS) (width 0.12))
  (fp_line (start 0.19 14.63) (end 1.09 14.63) (layer F.SilkS) (width 0.12))
  (fp_arc (start -1.46 -16.81) (end -4.13 -11.51) (angle -42.5) (layer F.SilkS) (width 0.12))
  (fp_arc (start -13 -5.22) (end -7.05 -5.5) (angle -24.6) (layer F.SilkS) (width 0.12))
  (fp_arc (start 4.445 0.635) (end -7.05 5.53) (angle -22) (layer F.SilkS) (width 0.12))
  (fp_line (start -4.37 13.13) (end -4.37 9.49) (layer F.SilkS) (width 0.12))
  (fp_line (start 14.34 13.13) (end -4.37 13.13) (layer F.SilkS) (width 0.12))
  (fp_arc (start 21.91 6.51) (end 15.94 6.7) (angle -25.4) (layer F.SilkS) (width 0.12))
  (fp_circle (center 14.345 10.535) (end 15.545 10.535) (layer F.SilkS) (width 0.12))
  (fp_circle (center -5.455 -9.265) (end -4.255 -9.265) (layer F.SilkS) (width 0.12))
  (fp_arc (start 4.445 0.635) (end -6.31 -1.14) (angle 347.8) (layer F.SilkS) (width 0.12))
  (fp_arc (start 4.445 0.635) (end -3.8 -0.3) (angle 251.3) (layer F.SilkS) (width 0.12))
  (fp_arc (start 4.445 0.635) (end 2.62 8.73) (angle 71) (layer F.SilkS) (width 0.12))
  (fp_line (start -7.05 2.96) (end -7.05 5.53) (layer F.SilkS) (width 0.12))
  (pad 1 thru_hole circle (at 0 0) (size 2.9 2.9) (drill 1.2) (layers *.Cu *.Mask))
  (pad 2 thru_hole circle (at 1.27 3.175) (size 3.4 3.4) (drill 1.6) (layers *.Cu *.Mask))
  (pad G thru_hole circle (at 4.445 8.89) (size 2.9 2.9) (drill 1.2) (layers *.Cu *.Mask))
  (pad 3 thru_hole circle (at 4.445 5.08) (size 2.9 2.9) (drill 1.2) (layers *.Cu *.Mask))
  (pad 4 thru_hole circle (at 7.62 3.175) (size 3.4 3.4) (drill 1.6) (layers *.Cu *.Mask))
  (pad 5 thru_hole circle (at 8.255 -0.635) (size 2.9 2.9) (drill 1.2) (layers *.Cu *.Mask))
  (pad NC thru_hole circle (at -2.54 1.27) (size 1.8 1.8) (drill 1.2) (layers *.Cu *.Mask))
  (pad N thru_hole circle (at -4.445 0.635) (size 1.8 1.8) (drill 1.2) (layers *.Cu *.Mask))
  (pad NO thru_hole circle (at -6.35 0) (size 1.8 1.8) (drill 1.2) (layers *.Cu *.Mask))
  (model ${KICAD6_3DMODEL_DIR}/Connector_Audio.3dshapes/Jack_XLR_Neutrik_NC5MBV-SW_Vertical.wrl
    (at (xyz 0 0 0))
    (scale (xyz 1 1 1))
    (rotate (xyz 0 0 0))
  )
)
