(module Jack_XLR_Neutrik_NC4FAV-0_Vertical (layer F.Cu) (tedit 5C144022)
  (descr "A Series, 4 pole female XLR receptacle, grounding: separate ground contact to mating connector shell and front panel, vertical PCB mount, retention spring instead of latch, https://www.neutrik.com/en/product/nc4fav-0")
  (tags "neutrik xlr a")
  (fp_text reference REF** (at -4.45 -13.5) (layer F.SilkS)
    (effects (font (size 1 1) (thickness 0.15)))
  )
  (fp_text value Jack_XLR_Neutrik_NC4FAV-0_Vertical (at -4.45 15.5) (layer F.Fab)
    (effects (font (size 1 1) (thickness 0.15)))
  )
  (fp_text user %R (at -4.45 -1) (layer F.Fab)
    (effects (font (size 1 1) (thickness 0.15)))
  )
  (fp_line (start -17.45 14.5) (end -17.45 -13) (layer F.CrtYd) (width 0.05))
  (fp_line (start 8.55 14.5) (end -17.45 14.5) (layer F.CrtYd) (width 0.05))
  (fp_line (start 8.55 -13) (end 8.55 14.5) (layer F.CrtYd) (width 0.05))
  (fp_line (start -17.45 -13) (end 8.55 -13) (layer F.CrtYd) (width 0.05))
  (fp_circle (center 5.45 9.9) (end 6.65 9.9) (layer F.Fab) (width 0.1))
  (fp_arc (start 12.05 6.13) (end 7.05 6.13) (angle -29.7) (layer F.Fab) (width 0.1))
  (fp_arc (start -4.45 0) (end 7.05 -4.9) (angle -87.2) (layer F.Fab) (width 0.1))
  (fp_line (start 0.11 13.7) (end -0.19 14) (layer F.Fab) (width 0.1))
  (fp_line (start 7.05 6.13) (end 7.05 -4.9) (layer F.Fab) (width 0.1))
  (fp_line (start -7.5 13.7) (end -7.81 14) (layer F.Fab) (width 0.1))
  (fp_line (start 2.85 12.2) (end 2.85 12.5) (layer F.Fab) (width 0.1))
  (fp_line (start 0.11 12.2) (end 0.11 13.7) (layer F.Fab) (width 0.1))
  (fp_line (start -1.39 12.2) (end -1.39 13.7) (layer F.Fab) (width 0.1))
  (fp_line (start -2.5 12.2) (end -2.5 12.5) (layer F.Fab) (width 0.1))
  (fp_line (start -7.41 12.2) (end -7.41 12.5) (layer F.Fab) (width 0.1))
  (fp_line (start -7.5 12.2) (end -7.5 13.7) (layer F.Fab) (width 0.1))
  (fp_line (start -9 12.2) (end -9 13.7) (layer F.Fab) (width 0.1))
  (fp_line (start -1.39 13.7) (end -1.1 14) (layer F.Fab) (width 0.1))
  (fp_line (start -12.45 12.2) (end -12.45 12.5) (layer F.Fab) (width 0.1))
  (fp_line (start -13.45 8.68) (end -13.45 12.5) (layer F.Fab) (width 0.1))
  (fp_line (start -15.95 -6.13) (end -15.95 4.9) (layer F.Fab) (width 0.1))
  (fp_line (start -9 13.7) (end -8.71 14) (layer F.Fab) (width 0.1))
  (fp_line (start 0.11 12.2) (end 2.85 12.2) (layer F.Fab) (width 0.1))
  (fp_line (start -12.45 12.5) (end -13.45 12.5) (layer F.Fab) (width 0.1))
  (fp_line (start -2.5 12.5) (end -7.41 12.5) (layer F.Fab) (width 0.1))
  (fp_line (start 5.45 12.5) (end 2.85 12.5) (layer F.Fab) (width 0.1))
  (fp_line (start -1.1 14) (end -0.19 14) (layer F.Fab) (width 0.1))
  (fp_line (start -8.71 14) (end -7.81 14) (layer F.Fab) (width 0.1))
  (fp_arc (start -4.45 0) (end -15.95 4.9) (angle -20.8) (layer F.Fab) (width 0.1))
  (fp_arc (start -20.95 -6.14) (end -15.95 -6.13) (angle -29.7) (layer F.Fab) (width 0.1))
  (fp_arc (start -14.35 -9.9) (end -13.02 -12.13) (angle -150.5) (layer F.Fab) (width 0.1))
  (fp_arc (start -10.47 -16.43) (end -13.02 -12.13) (angle -50.6) (layer F.Fab) (width 0.1))
  (fp_circle (center -14.35 -9.9) (end -13.15 -9.9) (layer F.Fab) (width 0.1))
  (fp_arc (start 5.45 9.9) (end 5.45 12.5) (angle -119.7) (layer F.Fab) (width 0.1))
  (fp_circle (center -4.45 0) (end 3.45 0) (layer F.Fab) (width 0.1))
  (fp_circle (center -4.45 0) (end 6.45 0) (layer F.Fab) (width 0.1))
  (fp_line (start -2.5 12.2) (end -1.39 12.2) (layer F.Fab) (width 0.1))
  (fp_line (start -7.41 12.2) (end -7.5 12.2) (layer F.Fab) (width 0.1))
  (fp_line (start -9 12.2) (end -12.45 12.2) (layer F.Fab) (width 0.1))
  (fp_arc (start 12.05 6.13) (end 7.05 6.13) (angle -29.7) (layer F.SilkS) (width 0.12))
  (fp_arc (start -4.45 0) (end 7.05 -4.9) (angle -87.2) (layer F.SilkS) (width 0.12))
  (fp_arc (start 5.45 9.9) (end 5.22 11.08) (angle -220) (layer F.SilkS) (width 0.12))
  (fp_line (start 0.11 13.7) (end -0.19 14) (layer F.SilkS) (width 0.12))
  (fp_line (start 7.05 6.13) (end 7.05 -4.9) (layer F.SilkS) (width 0.12))
  (fp_line (start -7.5 13.7) (end -7.81 14) (layer F.SilkS) (width 0.12))
  (fp_line (start 2.85 12.2) (end 2.85 12.5) (layer F.SilkS) (width 0.12))
  (fp_line (start 0.11 12.2) (end 0.11 13.7) (layer F.SilkS) (width 0.12))
  (fp_line (start -1.39 12.2) (end -1.39 13.7) (layer F.SilkS) (width 0.12))
  (fp_line (start -2.5 12.2) (end -2.5 12.5) (layer F.SilkS) (width 0.12))
  (fp_line (start -7.41 12.2) (end -7.41 12.5) (layer F.SilkS) (width 0.12))
  (fp_line (start -7.5 12.2) (end -7.5 13.7) (layer F.SilkS) (width 0.12))
  (fp_line (start -9 12.2) (end -9 13.7) (layer F.SilkS) (width 0.12))
  (fp_line (start -1.39 13.7) (end -1.1 14) (layer F.SilkS) (width 0.12))
  (fp_line (start -12.45 12.2) (end -12.45 12.5) (layer F.SilkS) (width 0.12))
  (fp_line (start -13.45 8.68) (end -13.45 12.5) (layer F.SilkS) (width 0.12))
  (fp_line (start -15.95 -6.13) (end -15.95 4.9) (layer F.SilkS) (width 0.12))
  (fp_line (start -9 13.7) (end -8.71 14) (layer F.SilkS) (width 0.12))
  (fp_line (start 0.11 12.2) (end 2.85 12.2) (layer F.SilkS) (width 0.12))
  (fp_line (start -12.45 12.5) (end -13.45 12.5) (layer F.SilkS) (width 0.12))
  (fp_line (start -2.5 12.5) (end -7.41 12.5) (layer F.SilkS) (width 0.12))
  (fp_line (start 5.45 12.5) (end 2.85 12.5) (layer F.SilkS) (width 0.12))
  (fp_line (start -1.1 14) (end -0.19 14) (layer F.SilkS) (width 0.12))
  (fp_line (start -8.71 14) (end -7.81 14) (layer F.SilkS) (width 0.12))
  (fp_arc (start -4.45 0) (end -15.95 4.9) (angle -20.8) (layer F.SilkS) (width 0.12))
  (fp_arc (start -20.95 -6.14) (end -15.95 -6.13) (angle -29.7) (layer F.SilkS) (width 0.12))
  (fp_arc (start -14.35 -9.9) (end -13.02 -12.13) (angle -150.5) (layer F.SilkS) (width 0.12))
  (fp_arc (start -10.47 -16.43) (end -13.02 -12.13) (angle -50.6) (layer F.SilkS) (width 0.12))
  (fp_circle (center -14.35 -9.9) (end -13.15 -9.9) (layer F.SilkS) (width 0.12))
  (fp_arc (start 5.45 9.9) (end 5.45 12.5) (angle -119.7) (layer F.SilkS) (width 0.12))
  (fp_circle (center -4.45 0) (end 3.45 0) (layer F.SilkS) (width 0.12))
  (fp_circle (center -4.45 0) (end 6.45 0) (layer F.SilkS) (width 0.12))
  (fp_line (start -2.5 12.2) (end -1.39 12.2) (layer F.SilkS) (width 0.12))
  (fp_line (start -7.41 12.2) (end -7.5 12.2) (layer F.SilkS) (width 0.12))
  (fp_line (start -9 12.2) (end -12.45 12.2) (layer F.SilkS) (width 0.12))
  (pad 1 thru_hole circle (at 0 0) (size 2.9 2.9) (drill 1.2) (layers *.Cu *.Mask))
  (pad 2 thru_hole circle (at -1.91 3.81) (size 2.9 2.9) (drill 1.2) (layers *.Cu *.Mask))
  (pad G thru_hole circle (at 3.805 10.16) (size 2.9 2.9) (drill 1.2) (layers *.Cu *.Mask))
  (pad 3 thru_hole circle (at -6.355 2.54) (size 3.4 3.4) (drill 1.6) (layers *.Cu *.Mask))
  (pad 4 thru_hole circle (at -8.9 -1.27) (size 2.9 2.9) (drill 1.2) (layers *.Cu *.Mask))
  (model ${KICAD6_3DMODEL_DIR}/Connector_Audio.3dshapes/Jack_XLR_Neutrik_NC4FAV-0_Vertical.wrl
    (at (xyz 0 0 0))
    (scale (xyz 1 1 1))
    (rotate (xyz 0 0 0))
  )
)
