(module Pin_D0.9mm_L10.0mm_W2.4mm_FlatFork (layer F.Cu) (tedit 5A1DC084)
  (descr "solder Pin_ with flat fork, hole diameter 0.9mm, length 10.0mm, width 2.4mm")
  (tags "solder Pin_ with flat fork")
  (fp_text reference REF** (at 0 1.95) (layer F.SilkS)
    (effects (font (size 1 1) (thickness 0.15)))
  )
  (fp_text value Pin_D0.9mm_L10.0mm_W2.4mm_FlatFork (at 0 -2.05) (layer F.Fab)
    (effects (font (size 1 1) (thickness 0.15)))
  )
  (fp_text user %R (at 0 1.95) (layer F.Fab)
    (effects (font (size 1 1) (thickness 0.15)))
  )
  (fp_line (start -1.3 -1.1) (end -1.3 0.6) (layer F.SilkS) (width 0.12))
  (fp_line (start -1.3 0.6) (end -1.3 1.1) (layer F.SilkS) (width 0.12))
  (fp_line (start -1.3 1.1) (end 1.3 1.1) (layer F.SilkS) (width 0.12))
  (fp_line (start 1.3 1.1) (end 1.3 -1.1) (layer F.SilkS) (width 0.12))
  (fp_line (start 1.3 -1.1) (end -1.3 -1.1) (layer F.SilkS) (width 0.12))
  (fp_line (start -1.2 -0.25) (end -1.2 0.25) (layer F.Fab) (width 0.12))
  (fp_line (start -1.2 0.25) (end 1.2 0.25) (layer F.Fab) (width 0.12))
  (fp_line (start 1.2 0.25) (end 1.2 -0.25) (layer F.Fab) (width 0.12))
  (fp_line (start 1.2 -0.25) (end -1.2 -0.25) (layer F.Fab) (width 0.12))
  (fp_line (start -1.7 -1.4) (end 1.7 -1.4) (layer F.CrtYd) (width 0.05))
  (fp_line (start -1.7 -1.4) (end -1.7 1.4) (layer F.CrtYd) (width 0.05))
  (fp_line (start 1.7 1.4) (end 1.7 -1.4) (layer F.CrtYd) (width 0.05))
  (fp_line (start 1.7 1.4) (end -1.7 1.4) (layer F.CrtYd) (width 0.05))
  (pad 1 thru_hole circle (at 0 0) (size 1.8 1.8) (drill 0.9) (layers *.Cu *.Mask))
  (model ${KICAD6_3DMODEL_DIR}/Connector_Pin.3dshapes/Pin_D0.9mm_L10.0mm_W2.4mm_FlatFork.wrl
    (at (xyz 0 0 0))
    (scale (xyz 1 1 1))
    (rotate (xyz 0 0 0))
  )
)
