(module BarrelJack_CUI_PJ-102AH_Horizontal (layer F.Cu) (tedit 5A1DBF38)
  (descr "Thin-pin DC Barrel Jack, https://cdn-shop.adafruit.com/datasheets/21mmdcjackDatasheet.pdf")
  (tags "Power Jack")
  (fp_text reference REF** (at 5.75 8.45 90) (layer F.SilkS)
    (effects (font (size 1 1) (thickness 0.15)))
  )
  (fp_text value BarrelJack_CUI_PJ-102AH_Horizontal (at -5.5 6.2 90) (layer F.Fab)
    (effects (font (size 1 1) (thickness 0.15)))
  )
  (fp_text user %R (at 0 6.5) (layer F.Fab)
    (effects (font (size 1 1) (thickness 0.15)))
  )
  (fp_line (start 1.8 -1.8) (end 1.8 -1.2) (layer F.CrtYd) (width 0.05))
  (fp_line (start 1.8 -1.2) (end 5 -1.2) (layer F.CrtYd) (width 0.05))
  (fp_line (start 5 -1.2) (end 5 1.2) (layer F.CrtYd) (width 0.05))
  (fp_line (start 5 1.2) (end 6.5 1.2) (layer F.CrtYd) (width 0.05))
  (fp_line (start 6.5 1.2) (end 6.5 4.8) (layer F.CrtYd) (width 0.05))
  (fp_line (start 6.5 4.8) (end 5 4.8) (layer F.CrtYd) (width 0.05))
  (fp_line (start 5 4.8) (end 5 14.2) (layer F.CrtYd) (width 0.05))
  (fp_line (start 5 14.2) (end -5 14.2) (layer F.CrtYd) (width 0.05))
  (fp_line (start -5 14.2) (end -5 -1.2) (layer F.CrtYd) (width 0.05))
  (fp_line (start -5 -1.2) (end -1.8 -1.2) (layer F.CrtYd) (width 0.05))
  (fp_line (start -1.8 -1.2) (end -1.8 -1.8) (layer F.CrtYd) (width 0.05))
  (fp_line (start -1.8 -1.8) (end 1.8 -1.8) (layer F.CrtYd) (width 0.05))
  (fp_line (start 4.6 4.8) (end 4.6 13.8) (layer F.SilkS) (width 0.12))
  (fp_line (start 4.6 13.8) (end -4.6 13.8) (layer F.SilkS) (width 0.12))
  (fp_line (start -4.6 13.8) (end -4.6 -0.8) (layer F.SilkS) (width 0.12))
  (fp_line (start -4.6 -0.8) (end -1.8 -0.8) (layer F.SilkS) (width 0.12))
  (fp_line (start 1.8 -0.8) (end 4.6 -0.8) (layer F.SilkS) (width 0.12))
  (fp_line (start 4.6 -0.8) (end 4.6 1.2) (layer F.SilkS) (width 0.12))
  (fp_line (start -4.84 0.7) (end -4.84 -1.04) (layer F.SilkS) (width 0.12))
  (fp_line (start -4.84 -1.04) (end -3.1 -1.04) (layer F.SilkS) (width 0.12))
  (fp_line (start 4.5 -0.7) (end 4.5 13.7) (layer F.Fab) (width 0.1))
  (fp_line (start 4.5 13.7) (end -4.5 13.7) (layer F.Fab) (width 0.1))
  (fp_line (start -4.5 13.7) (end -4.5 0.3) (layer F.Fab) (width 0.1))
  (fp_line (start -4.5 0.3) (end -3.5 -0.7) (layer F.Fab) (width 0.1))
  (fp_line (start -3.5 -0.7) (end 4.5 -0.7) (layer F.Fab) (width 0.1))
  (fp_line (start -4.5 10.2) (end 4.5 10.2) (layer F.Fab) (width 0.1))
  (pad 1 thru_hole rect (at 0 0) (size 2.6 2.6) (drill 1.6) (layers *.Cu *.Mask))
  (pad 2 thru_hole circle (at 0 6) (size 2.6 2.6) (drill 1.6) (layers *.Cu *.Mask))
  (pad 3 thru_hole circle (at 4.7 3) (size 2.6 2.6) (drill 1.6) (layers *.Cu *.Mask))
  (model ${KICAD6_3DMODEL_DIR}/Connector_BarrelJack.3dshapes/BarrelJack_CUI_PJ-102AH_Horizontal.wrl
    (at (xyz 0 0 0))
    (scale (xyz 1 1 1))
    (rotate (xyz 0 0 0))
  )
)
