(footprint "BarrelJack_SwitchcraftConxall_RAPC10U_Horizontal" (version 20210424) (generator pcbnew) (layer "F.Cu")
  (tedit 60B0A41D)
  (descr "DC Power Jack, 13A, 24V, Panel Mount,Through-hole, https://www.switchcraft.com/Drawings/RAPC10U_CD.pdf")
  (tags "barreljack switchcraftconxall dc power")
  (attr through_hole)
  (fp_text reference "REF**" (at -10.8 -7) (layer "F.SilkS")
    (effects (font (size 1 1) (thickness 0.15)))
    (tstamp 093dd9d7-2ca7-4b0b-b6f7-ebd78a3cbd56)
  )
  (fp_text value "BarrelJack_SwitchcraftConxall_RAPC10U_Horizontal" (at -11 9.9) (layer "F.Fab")
    (effects (font (size 1 1) (thickness 0.15)))
    (tstamp 36006df4-699e-4b0e-a950-a727f9125e63)
  )
  (fp_text user "${REFERENCE}" (at -10.4 0) (layer "F.Fab")
    (effects (font (size 1 1) (thickness 0.15)))
    (tstamp 3c04f526-07e5-4ea2-85b1-9f5a1ab3f9a4)
  )
  (fp_line (start -4.55 3.74) (end 1.22 3.74) (layer "F.SilkS") (width 0.12) (tstamp 1981c83c-b823-4774-ab70-e8b16e403111))
  (fp_line (start -4.55 -4.945) (end -18.55 -4.945) (layer "F.SilkS") (width 0.12) (tstamp 506354e3-1471-4895-b78b-780dd3105feb))
  (fp_line (start -18.55 4.945) (end -4.55 4.945) (layer "F.SilkS") (width 0.12) (tstamp a4103464-b6ed-4a42-a466-5faf904dc296))
  (fp_line (start 1.22 -3.74) (end -4.55 -3.74) (layer "F.SilkS") (width 0.12) (tstamp a65226f6-2505-419d-a841-d9ca8c32aaed))
  (fp_line (start -4.55 4.945) (end -4.55 3.74) (layer "F.SilkS") (width 0.12) (tstamp aae5a24e-026c-4fbe-b649-7391bf498c1a))
  (fp_line (start -4.55 -3.74) (end -4.55 -4.945) (layer "F.SilkS") (width 0.12) (tstamp ac30d356-20bd-4908-8594-ee2aa63384ac))
  (fp_line (start 1.22 3.74) (end 1.22 -3.74) (layer "F.SilkS") (width 0.12) (tstamp dd7417d0-9052-49cf-960d-6efc58d7b33d))
  (fp_line (start -18.67 -9) (end -18.67 9) (layer "Edge.Cuts") (width 0.12) (tstamp 071cbded-541e-416c-865e-083607858433))
  (fp_line (start -28.93 -6.47) (end 1.51 -6.47) (layer "F.CrtYd") (width 0.05) (tstamp 269bc94e-2e07-4fee-8f3b-bc8ad15b00db))
  (fp_line (start 1.51 6.47) (end -28.93 6.47) (layer "F.CrtYd") (width 0.05) (tstamp 94fe272b-7f6b-4288-8610-c2a680fd4b88))
  (fp_line (start -28.93 6.47) (end -28.93 -6.47) (layer "F.CrtYd") (width 0.05) (tstamp acbaec20-4ae1-4355-8762-ddfdc09ad8e3))
  (fp_line (start 1.51 -6.47) (end 1.51 6.47) (layer "F.CrtYd") (width 0.05) (tstamp c3ed7077-4c47-4682-ac93-313741739b8f))
  (fp_line (start -20.17 -5.97) (end -18.77 -5.97) (layer "F.Fab") (width 0.1) (tstamp 07190bb0-b235-436e-98ee-9b917074c5e6))
  (fp_line (start -4.67 -3.62) (end -4.67 -4.8) (layer "F.Fab") (width 0.1) (tstamp 44de68a9-14aa-4923-9384-4b102c49c7b8))
  (fp_line (start -20.17 5.97) (end -18.77 5.97) (layer "F.Fab") (width 0.1) (tstamp 491af6a5-84dc-4528-8f4a-148520040147))
  (fp_line (start -28.43 -4.065) (end -28.43 3.175) (layer "F.Fab") (width 0.1) (tstamp 4dd66626-28cb-4a44-9fee-f5e2f5cd2f48))
  (fp_line (start -4.67 3.62) (end 0 3.62) (layer "F.Fab") (width 0.1) (tstamp 5f387150-3fdf-459e-b070-41fe732ccd4a))
  (fp_line (start -20.17 -4.065) (end -28.43 -4.065) (layer "F.Fab") (width 0.1) (tstamp 653056e4-ac57-40a6-a3a7-f3d73f2ed217))
  (fp_line (start 0 3.62) (end 0 -3.62) (layer "F.Fab") (width 0.1) (tstamp b79c9ff6-e7b1-4cdb-bafd-eee7628624e3))
  (fp_line (start -4.67 4.8) (end -4.67 3.62) (layer "F.Fab") (width 0.1) (tstamp b9653e41-f5ca-4a5d-8611-fa076b10e2ba))
  (fp_line (start -18.77 -4.825) (end -4.67 -4.825) (layer "F.Fab") (width 0.1) (tstamp ba0d323a-a89a-45f1-99e0-fcf449759fce))
  (fp_line (start -28.43 3.175) (end -20.17 3.175) (layer "F.Fab") (width 0.1) (tstamp be4aa684-3af1-4e41-97eb-0d2e7cd0ccdb))
  (fp_line (start -18.77 4.825) (end -4.67 4.825) (layer "F.Fab") (width 0.1) (tstamp ce0a156c-76a1-4fb9-b4c2-9973fc6197cb))
  (fp_line (start 0 -3.62) (end -4.67 -3.62) (layer "F.Fab") (width 0.1) (tstamp d561a4f3-26f3-4f6b-a23c-da1cfadd9414))
  (fp_line (start -20.17 -5.97) (end -20.17 5.97) (layer "F.Fab") (width 0.1) (tstamp e218e4e7-4b47-4fd0-8ecc-7f8f16208865))
  (fp_line (start -18.77 -5.97) (end -18.77 5.97) (layer "F.Fab") (width 0.1) (tstamp e6806605-8b4d-4c21-9f35-71d619e4db27))
  (pad "1" thru_hole rect (at 0 0) (size 2.02 5.02) (drill oval 1.02 4.02) (layers *.Cu *.Mask) (tstamp 75471c56-27d0-4bf8-a8fa-4ae8e133ea90))
  (pad "2" thru_hole oval (at -5.18 0) (size 2.02 5.02) (drill oval 1.02 4.02) (layers *.Cu *.Mask) (tstamp 32dbae5a-f987-4145-b22b-29f10538fa13))
  (model "${KICAD6_3DMODEL_DIR}/Connector_BarrelJack.3dshapes/BarrelJack_SwitchcraftConxall_RAPC10U_Horizontal.wrl"
    (offset (xyz 0 0 0))
    (scale (xyz 1 1 1))
    (rotate (xyz 0 0 0))
  )
)
