(module BarrelJack_Horizontal (layer F.Cu) (tedit 5A1DBF6A)
  (descr "DC Barrel Jack")
  (tags "Power Jack")
  (fp_text reference REF** (at -8.45 5.75) (layer F.SilkS)
    (effects (font (size 1 1) (thickness 0.15)))
  )
  (fp_text value BarrelJack_Horizontal (at -6.2 -5.5) (layer F.Fab)
    (effects (font (size 1 1) (thickness 0.15)))
  )
  (fp_text user %R (at -3 -2.95) (layer F.Fab)
    (effects (font (size 1 1) (thickness 0.15)))
  )
  (fp_line (start -0.003213 -4.505425) (end 0.8 -3.75) (layer F.Fab) (width 0.1))
  (fp_line (start 1.1 -3.75) (end 1.1 -4.8) (layer F.SilkS) (width 0.12))
  (fp_line (start 0.05 -4.8) (end 1.1 -4.8) (layer F.SilkS) (width 0.12))
  (fp_line (start 1 -4.5) (end 1 -4.75) (layer F.CrtYd) (width 0.05))
  (fp_line (start 1 -4.75) (end -14 -4.75) (layer F.CrtYd) (width 0.05))
  (fp_line (start 1 -4.5) (end 1 -2) (layer F.CrtYd) (width 0.05))
  (fp_line (start 1 -2) (end 2 -2) (layer F.CrtYd) (width 0.05))
  (fp_line (start 2 -2) (end 2 2) (layer F.CrtYd) (width 0.05))
  (fp_line (start 2 2) (end 1 2) (layer F.CrtYd) (width 0.05))
  (fp_line (start 1 2) (end 1 4.75) (layer F.CrtYd) (width 0.05))
  (fp_line (start 1 4.75) (end -1 4.75) (layer F.CrtYd) (width 0.05))
  (fp_line (start -1 4.75) (end -1 6.75) (layer F.CrtYd) (width 0.05))
  (fp_line (start -1 6.75) (end -5 6.75) (layer F.CrtYd) (width 0.05))
  (fp_line (start -5 6.75) (end -5 4.75) (layer F.CrtYd) (width 0.05))
  (fp_line (start -5 4.75) (end -14 4.75) (layer F.CrtYd) (width 0.05))
  (fp_line (start -14 4.75) (end -14 -4.75) (layer F.CrtYd) (width 0.05))
  (fp_line (start -5 4.6) (end -13.8 4.6) (layer F.SilkS) (width 0.12))
  (fp_line (start -13.8 4.6) (end -13.8 -4.6) (layer F.SilkS) (width 0.12))
  (fp_line (start 0.9 1.9) (end 0.9 4.6) (layer F.SilkS) (width 0.12))
  (fp_line (start 0.9 4.6) (end -1 4.6) (layer F.SilkS) (width 0.12))
  (fp_line (start -13.8 -4.6) (end 0.9 -4.6) (layer F.SilkS) (width 0.12))
  (fp_line (start 0.9 -4.6) (end 0.9 -2) (layer F.SilkS) (width 0.12))
  (fp_line (start -10.2 -4.5) (end -10.2 4.5) (layer F.Fab) (width 0.1))
  (fp_line (start -13.7 -4.5) (end -13.7 4.5) (layer F.Fab) (width 0.1))
  (fp_line (start -13.7 4.5) (end 0.8 4.5) (layer F.Fab) (width 0.1))
  (fp_line (start 0.8 4.5) (end 0.8 -3.75) (layer F.Fab) (width 0.1))
  (fp_line (start 0 -4.5) (end -13.7 -4.5) (layer F.Fab) (width 0.1))
  (pad 1 thru_hole rect (at 0 0) (size 3.5 3.5) (drill oval 1 3) (layers *.Cu *.Mask))
  (pad 2 thru_hole roundrect (at -6 0) (size 3 3.5) (drill oval 1 3) (layers *.Cu *.Mask)(roundrect_rratio 0.25))
  (pad 3 thru_hole roundrect (at -3 4.7) (size 3.5 3.5) (drill oval 3 1) (layers *.Cu *.Mask)(roundrect_rratio 0.25))
  (model ${KICAD6_3DMODEL_DIR}/Connector_BarrelJack.3dshapes/BarrelJack_Horizontal.wrl
    (at (xyz 0 0 0))
    (scale (xyz 1 1 1))
    (rotate (xyz 0 0 0))
  )
)
