(module Broadcom_AFBR-16xxZ_Vertical (layer F.Cu) (tedit 5B8AFCCB)
  (descr "Fiber Optic Transmitter and Receiver, https://docs.broadcom.com/docs/AV02-4369EN")
  (tags "Fiber Optic Transmitter and Receiver")
  (fp_text reference REF** (at -6.87 -4.11) (layer F.SilkS)
    (effects (font (size 1 1) (thickness 0.15)))
  )
  (fp_text value Broadcom_AFBR-16xxZ_Vertical (at 0 10.93) (layer F.Fab)
    (effects (font (size 1 1) (thickness 0.15)))
  )
  (fp_text user %R (at -4 3.81) (layer F.Fab)
    (effects (font (size 1 1) (thickness 0.15)))
  )
  (fp_line (start -8.78 -3.13) (end -8.78 -2.13) (layer F.Fab) (width 0.1))
  (fp_line (start 0 9.25) (end 9.32 8.9) (layer F.Fab) (width 0.1))
  (fp_line (start 9.32 8.9) (end 9.32 -1.28) (layer F.Fab) (width 0.1))
  (fp_line (start 9.32 -1.28) (end 1 -1.59) (layer F.Fab) (width 0.1))
  (fp_line (start -8.78 -2.13) (end -8.5 -2.13) (layer F.Fab) (width 0.1))
  (fp_line (start -8.5 -2.13) (end -8.5 8.25) (layer F.Fab) (width 0.1))
  (fp_line (start -8.5 8.25) (end -8.78 8.25) (layer F.Fab) (width 0.1))
  (fp_line (start -8.78 8.25) (end -8.78 9.25) (layer F.Fab) (width 0.1))
  (fp_line (start 0 9.25) (end -8.78 9.25) (layer F.Fab) (width 0.1))
  (fp_line (start -8.78 -3.13) (end 0 -3.13) (layer F.Fab) (width 0.1))
  (fp_line (start 0 -1.63) (end 0 -3.13) (layer F.Fab) (width 0.1))
  (fp_line (start -8.9 -3.25) (end 0.12 -3.25) (layer F.SilkS) (width 0.12))
  (fp_line (start 0.12 -3.25) (end 0.12 -1.75) (layer F.SilkS) (width 0.12))
  (fp_line (start 0.12 -1.75) (end 9.44 -1.4) (layer F.SilkS) (width 0.12))
  (fp_line (start 9.44 -1.4) (end 9.44 9.02) (layer F.SilkS) (width 0.12))
  (fp_line (start 9.44 9.02) (end 0 9.37) (layer F.SilkS) (width 0.12))
  (fp_line (start 0 9.37) (end -8.9 9.37) (layer F.SilkS) (width 0.12))
  (fp_line (start -8.9 9.37) (end -8.9 8.13) (layer F.SilkS) (width 0.12))
  (fp_line (start -8.9 8.13) (end -8.62 8.13) (layer F.SilkS) (width 0.12))
  (fp_line (start -8.62 8.13) (end -8.62 -2.01) (layer F.SilkS) (width 0.12))
  (fp_line (start -8.62 -2.01) (end -8.9 -2.01) (layer F.SilkS) (width 0.12))
  (fp_line (start -8.9 -2.01) (end -8.9 -3.25) (layer F.SilkS) (width 0.12))
  (fp_line (start -9.03 -3.38) (end -9.03 -1.88) (layer F.CrtYd) (width 0.05))
  (fp_line (start -9.03 -1.88) (end -8.75 -1.88) (layer F.CrtYd) (width 0.05))
  (fp_line (start -8.75 -1.88) (end -8.75 8) (layer F.CrtYd) (width 0.05))
  (fp_line (start -8.75 8) (end -9.03 8) (layer F.CrtYd) (width 0.05))
  (fp_line (start -9.03 8) (end -9.03 9.5) (layer F.CrtYd) (width 0.05))
  (fp_line (start -9.03 9.5) (end 0 9.5) (layer F.CrtYd) (width 0.05))
  (fp_line (start 0 9.5) (end 9.57 9.15) (layer F.CrtYd) (width 0.05))
  (fp_line (start 9.57 9.15) (end 9.57 -1.53) (layer F.CrtYd) (width 0.05))
  (fp_line (start 9.57 -1.53) (end 0.25 -1.88) (layer F.CrtYd) (width 0.05))
  (fp_line (start 0.25 -1.88) (end 0.25 -3.38) (layer F.CrtYd) (width 0.05))
  (fp_line (start 0.25 -3.38) (end -9.03 -3.38) (layer F.CrtYd) (width 0.05))
  (fp_line (start 0 -1.62) (end 0.5 -1.12) (layer F.Fab) (width 0.1))
  (fp_line (start 0.5 -1.12) (end 1 -1.59) (layer F.Fab) (width 0.1))
  (fp_line (start 0.38 -3) (end 0.38 -1.99) (layer F.SilkS) (width 0.12))
  (fp_line (start 0.38 -1.99) (end 2.1 -1.92) (layer F.SilkS) (width 0.12))
  (pad 1 thru_hole roundrect (at 0 0) (size 2.2 1.6) (drill 1.2) (layers *.Cu *.Mask) (roundrect_rratio 0.156))
  (pad 2 thru_hole oval (at 0 2.54) (size 2.2 1.6) (drill 1.2) (layers *.Cu *.Mask))
  (pad 3 thru_hole oval (at 0 5.08) (size 2.2 1.6) (drill 1.2) (layers *.Cu *.Mask))
  (pad 4 thru_hole oval (at 0 7.62) (size 2.2 1.6) (drill 1.2) (layers *.Cu *.Mask))
  (pad 5 thru_hole circle (at 7.62 7.62) (size 2 2) (drill 1.2) (layers *.Cu *.Mask))
  (pad 8 thru_hole circle (at 7.62 0) (size 2 2) (drill 1.2) (layers *.Cu *.Mask))
  (pad "" np_thru_hole circle (at 3.82 3.81) (size 2.5 2.5) (drill 2.5) (layers *.Cu *.Mask))
  (model ${KICAD6_3DMODEL_DIR}/OptoDevice.3dshapes/Broadcom_AFBR-16xxZ_Vertical.wrl
    (at (xyz 0 0 0))
    (scale (xyz 1 1 1))
    (rotate (xyz 0 0 0))
  )
)
