(module Broadcom_APDS-9301 (layer F.Cu) (tedit 5B85F282)
  (descr "ambient light sensor, i2c interface, 6-pin chipled package, https://docs.broadcom.com/docs/AV02-2315EN")
  (tags "ambient light sensor chipled")
  (attr smd)
  (fp_text reference REF** (at 0 -2.65) (layer F.SilkS)
    (effects (font (size 1 1) (thickness 0.15)))
  )
  (fp_text value Broadcom_APDS-9301 (at 0 2.65) (layer F.Fab)
    (effects (font (size 1 1) (thickness 0.15)))
  )
  (fp_text user %R (at 0 0) (layer F.Fab)
    (effects (font (size 0.5 0.5) (thickness 0.08)))
  )
  (fp_line (start 1.1 1.3) (end 1.1 -1.3) (layer F.Fab) (width 0.1))
  (fp_line (start 1.1 -1.3) (end -0.55 -1.3) (layer F.Fab) (width 0.1))
  (fp_line (start -0.55 -1.3) (end -1.1 -0.75) (layer F.Fab) (width 0.1))
  (fp_line (start -1.1 -0.75) (end -1.1 1.3) (layer F.Fab) (width 0.1))
  (fp_line (start -1.1 1.3) (end 1.1 1.3) (layer F.Fab) (width 0.1))
  (fp_line (start 1.55 -1.9) (end 1.55 1.9) (layer F.CrtYd) (width 0.05))
  (fp_line (start 1.55 1.9) (end -1.55 1.9) (layer F.CrtYd) (width 0.05))
  (fp_line (start -1.55 1.9) (end -1.55 -1.9) (layer F.CrtYd) (width 0.05))
  (fp_line (start -1.55 -1.9) (end 1.55 -1.9) (layer F.CrtYd) (width 0.05))
  (fp_line (start -1.21 0) (end -1.21 0.29) (layer F.SilkS) (width 0.12))
  (fp_line (start 1.21 -0.29) (end 1.21 0.29) (layer F.SilkS) (width 0.12))
  (pad 5 smd roundrect (at 1 -1.1) (size 0.6 1.1) (layers F.Cu F.Paste F.Mask) (roundrect_rratio 0.25))
  (pad 6 smd roundrect (at 0 -1.1) (size 0.7 1.1) (layers F.Cu F.Paste F.Mask) (roundrect_rratio 0.25))
  (pad 1 smd roundrect (at -1 -1.1) (size 0.6 1.1) (layers F.Cu F.Paste F.Mask) (roundrect_rratio 0.25))
  (pad 2 smd roundrect (at -1 1.1) (size 0.6 1.1) (layers F.Cu F.Paste F.Mask) (roundrect_rratio 0.25))
  (pad 3 smd roundrect (at 0 1.1) (size 0.7 1.1) (layers F.Cu F.Paste F.Mask) (roundrect_rratio 0.25))
  (pad 4 smd roundrect (at 1 1.1) (size 0.6 1.1) (layers F.Cu F.Paste F.Mask) (roundrect_rratio 0.25))
  (model ${KICAD6_3DMODEL_DIR}/OptoDevice.3dshapes/Broadcom_APDS-9301.wrl
    (at (xyz 0 0 0))
    (scale (xyz 1 1 1))
    (rotate (xyz 0 0 0))
  )
)
