(module Broadcom_AFBR-16xxZ_Horizontal (layer F.Cu) (tedit 5B887104)
  (descr "Fiber Optic Transmitter and Receiver, https://docs.broadcom.com/docs/AV02-4369EN")
  (tags "Fiber Optic Transmitter and Receiver")
  (fp_text reference REF** (at -0.96 -2.5) (layer F.SilkS)
    (effects (font (size 1 1) (thickness 0.15)))
  )
  (fp_text value Broadcom_AFBR-16xxZ_Horizontal (at 4.064 10.16) (layer F.Fab)
    (effects (font (size 1 1) (thickness 0.15)))
  )
  (fp_text user %R (at 3.85 3.81) (layer F.Fab)
    (effects (font (size 1 1) (thickness 0.15)))
  )
  (fp_line (start -2.8 -1.29) (end -1 -1.29) (layer F.Fab) (width 0.1))
  (fp_line (start 4.58 -1.29) (end 4.58 -2.79) (layer F.Fab) (width 0.1))
  (fp_line (start 4.58 -2.79) (end 5.85 -2.79) (layer F.Fab) (width 0.1))
  (fp_line (start 5.85 -2.79) (end 5.85 -2.04) (layer F.Fab) (width 0.1))
  (fp_line (start 5.19 -1.29) (end 9.4 -1.29) (layer F.Fab) (width 0.1))
  (fp_line (start 10.81 0.11) (end 14.16 1.02) (layer F.Fab) (width 0.1))
  (fp_line (start 10.81 0.11) (end 10.81 7.73) (layer F.Fab) (width 0.1))
  (fp_line (start 9.4 8.91) (end 5.19 8.91) (layer F.Fab) (width 0.1))
  (fp_line (start 4.58 8.91) (end -2.8 8.91) (layer F.Fab) (width 0.1))
  (fp_line (start -2.8 7.91) (end -2.3 7.91) (layer F.Fab) (width 0.1))
  (fp_line (start -2.8 8.91) (end -2.8 7.91) (layer F.Fab) (width 0.1))
  (fp_line (start -2.3 4.31) (end -2.8 4.31) (layer F.Fab) (width 0.1))
  (fp_line (start -2.8 3.31) (end -2.8 4.31) (layer F.Fab) (width 0.1))
  (fp_line (start -2.3 7.9) (end -2.3 4.31) (layer F.Fab) (width 0.1))
  (fp_line (start -2.3 3.31) (end -2.8 3.31) (layer F.Fab) (width 0.1))
  (fp_line (start -2.3 3.31) (end -2.3 -0.29) (layer F.Fab) (width 0.1))
  (fp_line (start -2.8 -0.29) (end -2.3 -0.29) (layer F.Fab) (width 0.1))
  (fp_line (start -2.8 -1.29) (end -2.8 -0.29) (layer F.Fab) (width 0.1))
  (fp_arc (start 5.72 -2.04) (end 5.63 -1.95) (angle -135) (layer F.Fab) (width 0.1))
  (fp_line (start 5.63 -1.95) (end 5.47 -2.12) (layer F.Fab) (width 0.1))
  (fp_arc (start 5.34 -2.05) (end 5.47 -2.12) (angle -153.4) (layer F.Fab) (width 0.1))
  (fp_line (start 5.19 -2.05) (end 5.19 -1.29) (layer F.Fab) (width 0.1))
  (fp_line (start 4.58 7.41) (end 5.85 7.41) (layer F.Fab) (width 0.1))
  (fp_line (start 5.85 7.41) (end 5.85 8.16) (layer F.Fab) (width 0.1))
  (fp_line (start 5.19 8.15) (end 5.19 8.91) (layer F.Fab) (width 0.1))
  (fp_arc (start 5.34 8.15) (end 5.47 8.08) (angle -153.4) (layer F.Fab) (width 0.1))
  (fp_line (start 5.63 8.25) (end 5.47 8.08) (layer F.Fab) (width 0.1))
  (fp_arc (start 5.72 8.16) (end 5.63 8.25) (angle -135) (layer F.Fab) (width 0.1))
  (fp_line (start 4.58 8.91) (end 4.58 7.41) (layer F.Fab) (width 0.1))
  (fp_line (start 9.4 8.91) (end 13.87 7.37) (layer F.Fab) (width 0.1))
  (fp_arc (start 14.35 7.11) (end 13.87 7.37) (angle -261.7) (layer F.Fab) (width 0.1))
  (fp_line (start 14.16 6.6) (end 10.81 7.73) (layer F.Fab) (width 0.1))
  (fp_arc (start 14.35 0.51) (end 13.87094 0.25146) (angle 261.9) (layer F.Fab) (width 0.1))
  (fp_line (start 9.4 -1.29) (end 13.87 0.25) (layer F.Fab) (width 0.1))
  (fp_line (start -2.92 -1.41) (end 4.46 -1.41) (layer F.SilkS) (width 0.12))
  (fp_line (start -2.92 -1.397) (end -2.92 -0.17) (layer F.SilkS) (width 0.12))
  (fp_line (start -2.92 -0.17) (end -2.42 -0.17) (layer F.SilkS) (width 0.12))
  (fp_line (start -2.42 -0.17) (end -2.42 3.19) (layer F.SilkS) (width 0.12))
  (fp_line (start -2.42 3.19) (end -2.92 3.19) (layer F.SilkS) (width 0.12))
  (fp_line (start -2.92 3.19) (end -2.92 4.43) (layer F.SilkS) (width 0.12))
  (fp_line (start -2.92 4.43) (end -2.42 4.43) (layer F.SilkS) (width 0.12))
  (fp_line (start -2.42 4.43) (end -2.42 7.79) (layer F.SilkS) (width 0.12))
  (fp_line (start -2.42 7.79) (end -2.92 7.79) (layer F.SilkS) (width 0.12))
  (fp_line (start -2.92 7.79) (end -2.92 9.03) (layer F.SilkS) (width 0.12))
  (fp_line (start -2.92 9.03) (end 9.4 9.03) (layer F.SilkS) (width 0.12))
  (fp_line (start 14.14 6.49) (end 10.93 7.58) (layer F.SilkS) (width 0.12))
  (fp_line (start 10.93 7.58) (end 10.93 0.26) (layer F.SilkS) (width 0.12))
  (fp_line (start 10.93 0.26) (end 14.13 1.12) (layer F.SilkS) (width 0.12))
  (fp_line (start 13.84 0.11) (end 9.41 -1.41) (layer F.SilkS) (width 0.12))
  (fp_line (start 9.4 -1.41) (end 5.33 -1.41) (layer F.SilkS) (width 0.12))
  (fp_line (start 5.31 -1.41) (end 5.31 -1.77) (layer F.SilkS) (width 0.12))
  (fp_line (start 5.97 -1.77) (end 5.97 -2.91) (layer F.SilkS) (width 0.12))
  (fp_line (start 5.97 -2.91) (end 4.46 -2.91) (layer F.SilkS) (width 0.12))
  (fp_line (start 4.46 -2.91) (end 4.46 -1.41) (layer F.SilkS) (width 0.12))
  (fp_line (start 5.31 -1.77) (end 5.97 -1.77) (layer F.SilkS) (width 0.12))
  (fp_line (start 9.4 9.03) (end 13.83 7.51) (layer F.SilkS) (width 0.12))
  (fp_arc (start 14.35 7.11) (end 13.83 7.51) (angle -251.9120211) (layer F.SilkS) (width 0.12))
  (fp_arc (start 14.35 0.51) (end 14.13 1.12) (angle -251.7246089) (layer F.SilkS) (width 0.12))
  (fp_line (start -3.05 -1.54) (end 4.33 -1.54) (layer F.CrtYd) (width 0.05))
  (fp_line (start 4.33 -1.54) (end 4.33 -3.04) (layer F.CrtYd) (width 0.05))
  (fp_line (start 4.33 -3.04) (end 6.1 -3.04) (layer F.CrtYd) (width 0.05))
  (fp_line (start 6.1 -3.04) (end 6.1 -1.54) (layer F.CrtYd) (width 0.05))
  (fp_line (start 6.1 -1.54) (end 9.4 -1.54) (layer F.CrtYd) (width 0.05))
  (fp_line (start 9.4 -1.54) (end 13.8 -0.05) (layer F.CrtYd) (width 0.05))
  (fp_line (start 14.28 1.28) (end 11.06 0.41) (layer F.CrtYd) (width 0.05))
  (fp_line (start 11.06 0.41) (end 11.06 7.4) (layer F.CrtYd) (width 0.05))
  (fp_line (start 11.06 7.4) (end 13.99 6.42) (layer F.CrtYd) (width 0.05))
  (fp_line (start 13.8 7.66) (end 9.4 9.16) (layer F.CrtYd) (width 0.05))
  (fp_line (start 9.4 9.16) (end -3.05 9.16) (layer F.CrtYd) (width 0.05))
  (fp_line (start -3.05 9.16) (end -3.05 7.66) (layer F.CrtYd) (width 0.05))
  (fp_line (start -3.05 7.66) (end -2.55 7.66) (layer F.CrtYd) (width 0.05))
  (fp_line (start -2.55 7.66) (end -2.55 4.56) (layer F.CrtYd) (width 0.05))
  (fp_line (start -2.55 4.56) (end -3.05 4.56) (layer F.CrtYd) (width 0.05))
  (fp_line (start -3.05 4.56) (end -3.05 3.06) (layer F.CrtYd) (width 0.05))
  (fp_line (start -3.05 3.06) (end -2.55 3.06) (layer F.CrtYd) (width 0.05))
  (fp_line (start -2.55 3.06) (end -2.55 -0.04) (layer F.CrtYd) (width 0.05))
  (fp_line (start -2.55 -0.04) (end -3.05 -0.04) (layer F.CrtYd) (width 0.05))
  (fp_line (start -3.05 -0.04) (end -3.05 -1.54) (layer F.CrtYd) (width 0.05))
  (fp_line (start 1 -1.29) (end 4.58 -1.29) (layer F.Fab) (width 0.1))
  (fp_line (start -1 -1.29) (end 0 -0.29) (layer F.Fab) (width 0.1))
  (fp_line (start 0 -0.29) (end 1 -1.29) (layer F.Fab) (width 0.1))
  (fp_line (start -1 -1.67) (end 1 -1.67) (layer F.SilkS) (width 0.12))
  (fp_line (start 13.99 6.42) (end 14.24 6.34) (layer F.CrtYd) (width 0.05))
  (fp_line (start 14.24 6.34) (end 14.52 6.34) (layer F.CrtYd) (width 0.05))
  (fp_line (start 14.52 6.34) (end 14.7 6.4) (layer F.CrtYd) (width 0.05))
  (fp_line (start 14.7 6.4) (end 14.95 6.6) (layer F.CrtYd) (width 0.05))
  (fp_line (start 14.95 6.6) (end 15.1 6.8) (layer F.CrtYd) (width 0.05))
  (fp_line (start 15.1 6.8) (end 15.14 7) (layer F.CrtYd) (width 0.05))
  (fp_line (start 15.14 7) (end 15.14 7.3) (layer F.CrtYd) (width 0.05))
  (fp_line (start 15.14 7.3) (end 15.05 7.5) (layer F.CrtYd) (width 0.05))
  (fp_line (start 15.05 7.5) (end 14.9 7.7) (layer F.CrtYd) (width 0.05))
  (fp_line (start 14.9 7.7) (end 14.65 7.84) (layer F.CrtYd) (width 0.05))
  (fp_line (start 14.65 7.84) (end 14.4 7.9) (layer F.CrtYd) (width 0.05))
  (fp_line (start 14.4 7.9) (end 14.2 7.9) (layer F.CrtYd) (width 0.05))
  (fp_line (start 14.2 7.9) (end 13.95 7.8) (layer F.CrtYd) (width 0.05))
  (fp_line (start 13.95 7.8) (end 13.8 7.66) (layer F.CrtYd) (width 0.05))
  (fp_line (start 13.8 -0.05) (end 14.05 -0.2) (layer F.CrtYd) (width 0.05))
  (fp_line (start 14.05 -0.2) (end 14.25 -0.25) (layer F.CrtYd) (width 0.05))
  (fp_line (start 14.25 -0.25) (end 14.5 -0.25) (layer F.CrtYd) (width 0.05))
  (fp_line (start 14.5 -0.25) (end 14.75 -0.15) (layer F.CrtYd) (width 0.05))
  (fp_line (start 14.75 -0.15) (end 14.95 0) (layer F.CrtYd) (width 0.05))
  (fp_line (start 14.95 0) (end 15.05 0.2) (layer F.CrtYd) (width 0.05))
  (fp_line (start 15.05 0.2) (end 15.1 0.4) (layer F.CrtYd) (width 0.05))
  (fp_line (start 15.1 0.4) (end 15.1 0.75) (layer F.CrtYd) (width 0.05))
  (fp_line (start 15.1 0.75) (end 14.95 1) (layer F.CrtYd) (width 0.05))
  (fp_line (start 14.95 1) (end 14.85 1.1) (layer F.CrtYd) (width 0.05))
  (fp_line (start 14.85 1.1) (end 14.7 1.2) (layer F.CrtYd) (width 0.05))
  (fp_line (start 14.7 1.2) (end 14.55 1.25) (layer F.CrtYd) (width 0.05))
  (fp_line (start 14.55 1.25) (end 14.28 1.28) (layer F.CrtYd) (width 0.05))
  (pad 1 thru_hole roundrect (at 0 0) (size 2.2 1.6) (drill 1.2) (layers *.Cu *.Mask) (roundrect_rratio 0.156))
  (pad 2 thru_hole oval (at 0 2.54) (size 2.2 1.6) (drill 1.2) (layers *.Cu *.Mask))
  (pad 3 thru_hole oval (at 0 5.08) (size 2.2 1.6) (drill 1.2) (layers *.Cu *.Mask))
  (pad 4 thru_hole oval (at 0 7.62) (size 2.2 1.6) (drill 1.2) (layers *.Cu *.Mask))
  (pad 5 thru_hole circle (at 7.7 7.62) (size 2 2) (drill 1.2) (layers *.Cu *.Mask))
  (pad 8 thru_hole circle (at 7.7 0) (size 2 2) (drill 1.2) (layers *.Cu *.Mask))
  (model ${KICAD6_3DMODEL_DIR}/OptoDevice.3dshapes/Broadcom_AFBR-16xxZ_Horizontal.wrl
    (at (xyz 0 0 0))
    (scale (xyz 1 1 1))
    (rotate (xyz 0 0 0))
  )
)
