(module Finder_34.81 (layer F.Cu) (tedit 5B887491)
  (descr "Relay SPST, Finder Type 34.81 (opto relays/coupler), vertical/standing form, see https://gfinder.findernet.com/public/attachments/34/EN/S34USAEN.pdf")
  (tags "Relay SPST Finder")
  (fp_text reference REF** (at 10.25 -2.2) (layer F.SilkS)
    (effects (font (size 1 1) (thickness 0.15)))
  )
  (fp_text value Finder_34.81 (at 9.15 4.8) (layer F.Fab)
    (effects (font (size 1 1) (thickness 0.15)))
  )
  (fp_line (start -4.95 -1.4) (end -4.95 -1) (layer F.SilkS) (width 0.12))
  (fp_text user %R (at 10.25 2.4) (layer F.Fab)
    (effects (font (size 1 1) (thickness 0.15)))
  )
  (fp_line (start -4.95 3.8) (end -4.95 1) (layer F.SilkS) (width 0.12))
  (fp_line (start 23.25 3.8) (end -4.95 3.8) (layer F.SilkS) (width 0.12))
  (fp_line (start 23.25 -1.4) (end 23.25 3.8) (layer F.SilkS) (width 0.12))
  (fp_line (start -4.95 -1.4) (end 23.25 -1.4) (layer F.SilkS) (width 0.12))
  (fp_line (start 23.15 -1.3) (end 23.15 3.7) (layer F.Fab) (width 0.1))
  (fp_line (start 1 -1.3) (end 23.15 -1.3) (layer F.Fab) (width 0.1))
  (fp_line (start -4.85 3.7) (end -4.85 -1.3) (layer F.Fab) (width 0.1))
  (fp_line (start 23.15 3.7) (end -4.85 3.7) (layer F.Fab) (width 0.1))
  (fp_line (start -5.1 -1.55) (end 23.4 -1.55) (layer F.CrtYd) (width 0.05))
  (fp_line (start -5.1 -1.55) (end -5.1 3.95) (layer F.CrtYd) (width 0.05))
  (fp_line (start 23.4 3.95) (end 23.4 -1.55) (layer F.CrtYd) (width 0.05))
  (fp_line (start 23.4 3.95) (end -5.1 3.95) (layer F.CrtYd) (width 0.05))
  (fp_line (start -4.85 -1.3) (end -1 -1.3) (layer F.Fab) (width 0.1))
  (fp_line (start 0 -0.3) (end -1 -1.3) (layer F.Fab) (width 0.1))
  (fp_line (start 0 -0.3) (end 1 -1.3) (layer F.Fab) (width 0.1))
  (fp_line (start 1 -1.6) (end -1 -1.6) (layer F.SilkS) (width 0.12))
  (pad 14 thru_hole circle (at 21.25 0) (size 2.4 2.4) (drill 1.3) (layers *.Cu *.Mask))
  (pad 11 thru_hole circle (at 16.25 0) (size 2.4 2.4) (drill 1.3) (layers *.Cu *.Mask))
  (pad A2 thru_hole circle (at -3.75 0) (size 2.4 2.4) (drill 1.3) (layers *.Cu *.Mask))
  (pad A1 thru_hole roundrect (at 0 0) (size 2.4 2.4) (drill 1.3) (layers *.Cu *.Mask) (roundrect_rratio 0.104))
  (model ${KICAD6_3DMODEL_DIR}/OptoDevice.3dshapes/Finder_34.81.wrl
    (at (xyz 0 0 0))
    (scale (xyz 1 1 1))
    (rotate (xyz 0 0 0))
  )
)
