(module Kingbright_KPS-5130 (layer F.Cu) (tedit 5B8708DA)
  (descr "http://www.kingbright.com/attachments/file/psearch/000/00/00/KPS-5130PD7C(Ver.14).pdf")
  (tags "KPS-5130 photodiode RGB sensor")
  (attr smd)
  (fp_text reference REF** (at -1.25 -2.45) (layer F.SilkS)
    (effects (font (size 1 1) (thickness 0.15)))
  )
  (fp_text value Kingbright_KPS-5130 (at 0.6 2.6) (layer F.Fab)
    (effects (font (size 1 1) (thickness 0.15)))
  )
  (fp_text user %R (at -1.25 -2.45) (layer F.Fab)
    (effects (font (size 1 1) (thickness 0.15)))
  )
  (fp_text user B (at 0 0.7) (layer F.Fab)
    (effects (font (size 0.3 0.3) (thickness 0.07)))
  )
  (fp_text user G (at 0.5 -0.3) (layer F.Fab)
    (effects (font (size 0.3 0.3) (thickness 0.07)))
  )
  (fp_text user R (at -0.6 -0.3) (layer F.Fab)
    (effects (font (size 0.3 0.3) (thickness 0.07)))
  )
  (fp_line (start 2.5 1.62) (end -2.5 1.62) (layer F.SilkS) (width 0.12))
  (fp_line (start -3.3 -1.62) (end 2.5 -1.62) (layer F.SilkS) (width 0.12))
  (fp_line (start -2.56 1.5) (end 2.56 1.5) (layer F.Fab) (width 0.1))
  (fp_line (start 2.56 1.5) (end 2.56 -1.5) (layer F.Fab) (width 0.1))
  (fp_line (start 2.56 -1.5) (end -1.81 -1.5) (layer F.Fab) (width 0.1))
  (fp_line (start -2.56 -0.75) (end -1.81 -1.5) (layer F.Fab) (width 0.1))
  (fp_line (start -2.56 -0.75) (end -2.56 1.5) (layer F.Fab) (width 0.1))
  (fp_line (start 0 0) (end -0.8 0.8) (layer F.Fab) (width 0.1))
  (fp_line (start 0 0) (end 0.8 0.8) (layer F.Fab) (width 0.1))
  (fp_line (start 0 0) (end 0 -1.1) (layer F.Fab) (width 0.1))
  (fp_line (start -3.56 -1.75) (end 3.56 -1.75) (layer F.CrtYd) (width 0.05))
  (fp_line (start -3.56 -1.75) (end -3.56 1.75) (layer F.CrtYd) (width 0.05))
  (fp_line (start 3.56 1.75) (end 3.56 -1.75) (layer F.CrtYd) (width 0.05))
  (fp_line (start 3.56 1.75) (end -3.56 1.75) (layer F.CrtYd) (width 0.05))
  (fp_circle (center 0 0) (end 1 0.5) (layer F.Fab) (width 0.1))
  (pad 3 smd roundrect (at -2.56 0.85) (size 1.5 1) (layers F.Cu F.Paste F.Mask) (roundrect_rratio 0.25))
  (pad 4 smd roundrect (at 2.56 0.85) (size 1.5 1) (layers F.Cu F.Paste F.Mask) (roundrect_rratio 0.25))
  (pad 1 smd roundrect (at -2.56 -0.85) (size 1.5 1) (layers F.Cu F.Paste F.Mask) (roundrect_rratio 0.25))
  (pad 2 smd roundrect (at 2.56 -0.85) (size 1.5 1) (layers F.Cu F.Paste F.Mask) (roundrect_rratio 0.25))
  (model ${KICAD6_3DMODEL_DIR}/OptoDevice.3dshapes/Kingbright_KPS-5130.wrl
    (at (xyz 0 0 0))
    (scale (xyz 1 1 1))
    (rotate (xyz 0 0 0))
  )
)
