(module Kodenshi_SG105F (layer F.Cu) (tedit 5B887776)
  (descr "package for Kodenshi SG-105F, see http://www.kodenshi.co.jp/products/pdf/sensor/photointerrupter_ref/SG-105F.pdf")
  (tags "refective opto couple photo coupler")
  (fp_text reference REF** (at -1.5 2 90) (layer F.SilkS)
    (effects (font (size 1 1) (thickness 0.15)))
  )
  (fp_text value Kodenshi_SG105F (at 0.8 5.5) (layer F.Fab)
    (effects (font (size 1 1) (thickness 0.15)))
  )
  (fp_text user %R (at 0.9 2.2) (layer F.Fab)
    (effects (font (size 0.75 0.75) (thickness 0.11)))
  )
  (fp_line (start 2.6 3.3) (end 2.6 0.71) (layer F.SilkS) (width 0.12))
  (fp_line (start -0.8 1.92) (end -0.8 3.3) (layer F.SilkS) (width 0.12))
  (fp_line (start -0.7 1.2) (end -0.2 0.7) (layer F.Fab) (width 0.1))
  (fp_line (start -0.2 0.7) (end 2.5 0.7) (layer F.Fab) (width 0.1))
  (fp_line (start -0.7 3.3) (end -0.7 1.2) (layer F.Fab) (width 0.1))
  (fp_line (start 2.5 3.3) (end -0.7 3.3) (layer F.Fab) (width 0.1))
  (fp_line (start 2.5 0.7) (end 2.5 3.3) (layer F.Fab) (width 0.1))
  (fp_line (start -0.95 -1) (end 2.75 -1) (layer F.CrtYd) (width 0.05))
  (fp_line (start -0.95 -1) (end -0.95 5) (layer F.CrtYd) (width 0.05))
  (fp_line (start 2.75 5) (end 2.75 -1) (layer F.CrtYd) (width 0.05))
  (fp_line (start 2.75 5) (end -0.95 5) (layer F.CrtYd) (width 0.05))
  (pad 3 thru_hole oval (at 1.8 4) (size 1.1 1.5) (drill 0.7) (layers *.Cu *.Mask))
  (pad 2 thru_hole oval (at 0 4) (size 1.1 1.5) (drill 0.7) (layers *.Cu *.Mask))
  (pad 1 thru_hole roundrect (at 0 0) (size 1.1 1.5) (drill 0.7) (layers *.Cu *.Mask) (roundrect_rratio 0.227))
  (pad 4 thru_hole oval (at 1.8 0) (size 1.1 1.5) (drill 0.7) (layers *.Cu *.Mask))
  (model ${KICAD6_3DMODEL_DIR}/OptoDevice.3dshapes/Kodenshi_SG105F.wrl
    (at (xyz 0 0 0))
    (scale (xyz 1 1 1))
    (rotate (xyz 0 0 0))
  )
)
