(module ONSemi_QSE15x (layer F.Cu) (tedit 5B887C76)
  (descr "3 Lead Plastic Package")
  (tags "ONSemi QSE158 QSE159")
  (fp_text reference REF** (at 1.9 -1.71) (layer F.SilkS)
    (effects (font (size 1 1) (thickness 0.15)))
  )
  (fp_text value ONSemi_QSE15x (at 1.905 2.413) (layer F.Fab)
    (effects (font (size 1 1) (thickness 0.15)))
  )
  (fp_text user %R (at 1.9 -1.71) (layer F.Fab)
    (effects (font (size 1 1) (thickness 0.15)))
  )
  (fp_line (start -1.02 -1.14) (end 4.82 -1.14) (layer F.CrtYd) (width 0.05))
  (fp_line (start 4.82 -1.14) (end 4.82 1.9) (layer F.CrtYd) (width 0.05))
  (fp_line (start 4.82 1.9) (end -1.02 1.9) (layer F.CrtYd) (width 0.05))
  (fp_line (start -1.02 1.9) (end -1.02 -1.14) (layer F.CrtYd) (width 0.05))
  (fp_line (start 0.695 1.65) (end 0.695 0.825) (layer F.Fab) (width 0.1))
  (fp_line (start 0.695 0.825) (end 3.105 0.825) (layer F.Fab) (width 0.1))
  (fp_line (start 3.105 1.65) (end 3.105 0.825) (layer F.Fab) (width 0.1))
  (fp_line (start -0.32 1.65) (end 4.12 1.65) (layer F.Fab) (width 0.1))
  (fp_line (start 4.12 1.65) (end 4.12 -0.89) (layer F.Fab) (width 0.1))
  (fp_line (start -0.32 -0.255) (end -0.32 1.65) (layer F.Fab) (width 0.1))
  (fp_line (start 0.315 -0.89) (end 4.12 -0.89) (layer F.Fab) (width 0.1))
  (fp_line (start -0.32 1.76) (end 4.23 1.76) (layer F.SilkS) (width 0.12))
  (fp_line (start 4.23 1.76) (end 4.23 1.05) (layer F.SilkS) (width 0.12))
  (fp_line (start 0.72 -1) (end 1.4 -1) (layer F.SilkS) (width 0.12))
  (fp_arc (start 1.9 0.825) (end 2.725 0.825) (angle 90) (layer F.Fab) (width 0.1))
  (fp_arc (start 1.9 0.825) (end 1.9 1.65) (angle 90) (layer F.Fab) (width 0.1))
  (fp_line (start 2.4 -1) (end 3.3 -1) (layer F.SilkS) (width 0.12))
  (fp_line (start -0.32 -0.255) (end 0.315 -0.89) (layer F.Fab) (width 0.1))
  (pad 1 thru_hole roundrect (at 0 0) (size 1.2 1.8) (drill 0.85) (layers *.Cu *.Mask) (roundrect_rratio 0.208))
  (pad 2 thru_hole oval (at 1.9 0) (size 1.2 1.8) (drill 0.85) (layers *.Cu *.Mask))
  (pad 3 thru_hole oval (at 3.8 0) (size 1.2 1.8) (drill 0.85) (layers *.Cu *.Mask))
  (model ${KICAD6_3DMODEL_DIR}/OptoDevice.3dshapes/ONSemi_QSE15x.wrl
    (at (xyz 0 0 0))
    (scale (xyz 1 1 1))
    (rotate (xyz 0 0 0))
  )
)
