(module OnSemi_CASE100CY (layer F.Cu) (tedit 5B870A92)
  (descr "OnSemi CASE 100CY, light-direction upwards, see http://www.onsemi.com/pub/Collateral/QRE1113-D.PDF")
  (tags "refective opto couple photo coupler")
  (attr smd)
  (fp_text reference REF** (at -2.5 0 90) (layer F.SilkS)
    (effects (font (size 1 1) (thickness 0.15)))
  )
  (fp_text value OnSemi_CASE100CY (at 0 3.9) (layer F.Fab)
    (effects (font (size 1 1) (thickness 0.15)))
  )
  (fp_text user %R (at 0 0.2) (layer F.Fab)
    (effects (font (size 0.75 0.75) (thickness 0.15)))
  )
  (fp_line (start 1.7 1.4) (end 1.7 -1.4) (layer F.SilkS) (width 0.12))
  (fp_line (start -1.7 1.4) (end -1.7 -2.8) (layer F.SilkS) (width 0.12))
  (fp_line (start -1.6 -0.8) (end -1.1 -1.3) (layer F.Fab) (width 0.1))
  (fp_line (start -1.1 -1.3) (end 1.6 -1.3) (layer F.Fab) (width 0.1))
  (fp_line (start -1.6 1.3) (end -1.6 -0.8) (layer F.Fab) (width 0.1))
  (fp_line (start 1.6 1.3) (end -1.6 1.3) (layer F.Fab) (width 0.1))
  (fp_line (start 1.6 -1.3) (end 1.6 1.3) (layer F.Fab) (width 0.1))
  (fp_line (start -1.85 -3.08) (end 1.85 -3.08) (layer F.CrtYd) (width 0.05))
  (fp_line (start -1.85 -3.08) (end -1.85 3.08) (layer F.CrtYd) (width 0.05))
  (fp_line (start 1.85 3.08) (end 1.85 -3.08) (layer F.CrtYd) (width 0.05))
  (fp_line (start 1.85 3.08) (end -1.85 3.08) (layer F.CrtYd) (width 0.05))
  (pad 3 smd roundrect (at 0.9 2) (size 0.79 1.66) (layers F.Cu F.Paste F.Mask) (roundrect_rratio 0.25))
  (pad 2 smd roundrect (at -0.9 2) (size 0.79 1.66) (layers F.Cu F.Paste F.Mask) (roundrect_rratio 0.25))
  (pad 1 smd roundrect (at -0.9 -2) (size 0.79 1.66) (layers F.Cu F.Paste F.Mask) (roundrect_rratio 0.25))
  (pad 4 smd roundrect (at 0.9 -2) (size 0.79 1.66) (layers F.Cu F.Paste F.Mask) (roundrect_rratio 0.25))
  (model ${KICAD6_3DMODEL_DIR}/OptoDevice.3dshapes/OnSemi_CASE100CY.wrl
    (at (xyz 0 0 0))
    (scale (xyz 1 1 1))
    (rotate (xyz 0 0 0))
  )
)
