(module Osram_SFH9x0x (layer F.Cu) (tedit 5B870B54)
  (descr "package for Osram SFH9x0x series of reflective photo interrupters/couplers, see http://www.osram-os.com/Graphics/XPic6/00200860_0.pdf")
  (tags "reflective photo interrupter SMD")
  (attr smd)
  (fp_text reference REF** (at 0 -2.9) (layer F.SilkS)
    (effects (font (size 1 1) (thickness 0.15)))
  )
  (fp_text value Osram_SFH9x0x (at 0 3) (layer F.Fab)
    (effects (font (size 1 1) (thickness 0.15)))
  )
  (fp_text user %R (at 0 0.1) (layer F.Fab)
    (effects (font (size 0.75 0.75) (thickness 0.11)))
  )
  (fp_line (start -1.6 2.1) (end 1.6 2.1) (layer F.SilkS) (width 0.12))
  (fp_line (start 1.6 -2.1) (end -3.1 -2.1) (layer F.SilkS) (width 0.12))
  (fp_line (start -1 -2) (end -1.6 -1.3) (layer F.Fab) (width 0.1))
  (fp_line (start 1.6 -2) (end -1 -2) (layer F.Fab) (width 0.1))
  (fp_line (start 1.6 2) (end 1.6 -2) (layer F.Fab) (width 0.1))
  (fp_line (start -1.6 2) (end 1.6 2) (layer F.Fab) (width 0.1))
  (fp_line (start -1.6 -1.3) (end -1.6 2) (layer F.Fab) (width 0.1))
  (fp_line (start -3.4 -2.25) (end 3.4 -2.25) (layer F.CrtYd) (width 0.05))
  (fp_line (start -3.4 -2.25) (end -3.4 2.25) (layer F.CrtYd) (width 0.05))
  (fp_line (start 3.4 2.25) (end 3.4 -2.25) (layer F.CrtYd) (width 0.05))
  (fp_line (start 3.4 2.25) (end -3.4 2.25) (layer F.CrtYd) (width 0.05))
  (pad 4 smd roundrect (at 2.55 1.27) (size 1.2 0.6) (layers F.Cu F.Paste F.Mask) (roundrect_rratio 0.25))
  (pad 3 smd roundrect (at -2.55 1.27) (size 1.2 0.6) (layers F.Cu F.Paste F.Mask) (roundrect_rratio 0.25))
  (pad 5 smd roundrect (at 2.55 0) (size 1.2 0.6) (layers F.Cu F.Paste F.Mask) (roundrect_rratio 0.25))
  (pad 2 smd roundrect (at -2.55 0) (size 1.2 0.6) (layers F.Cu F.Paste F.Mask) (roundrect_rratio 0.25))
  (pad 6 smd roundrect (at 2.55 -1.27) (size 1.2 0.6) (layers F.Cu F.Paste F.Mask) (roundrect_rratio 0.25))
  (pad 1 smd roundrect (at -2.55 -1.27) (size 1.2 0.6) (layers F.Cu F.Paste F.Mask) (roundrect_rratio 0.25))
  (model ${KICAD6_3DMODEL_DIR}/OptoDevice.3dshapes/Osram_SFH9x0x.wrl
    (at (xyz 0 0 0))
    (scale (xyz 1 1 1))
    (rotate (xyz 0 0 0))
  )
)
