(module R_LDR_D20mm_P17.5mm_Vertical (layer F.Cu) (tedit 5B8604B8)
  (descr "Resistor, LDR 20mm diameter, pin pitch 17.5mm, see http://yourduino.com/docs/Photoresistor-5516-datasheet.pdf")
  (tags "Resistor LDR")
  (fp_text reference REF** (at 8.6 -11.1) (layer F.SilkS)
    (effects (font (size 1 1) (thickness 0.15)))
  )
  (fp_text value R_LDR_D20mm_P17.5mm_Vertical (at 8.6 11.4) (layer F.Fab)
    (effects (font (size 1 1) (thickness 0.15)))
  )
  (fp_circle (center 8.75 0) (end -1.5 0) (layer F.CrtYd) (width 0.05))
  (fp_circle (center 8.75 0) (end -1.4 0) (layer F.SilkS) (width 0.12))
  (fp_circle (center 8.75 0) (end -1.25 0) (layer F.Fab) (width 0.1))
  (fp_text user %R (at 8.75 -2.75) (layer F.Fab)
    (effects (font (size 1 1) (thickness 0.15)))
  )
  (fp_line (start 7.7 -1.8) (end 9.5 -1.8) (layer F.Fab) (width 0.1))
  (fp_line (start 9.5 -1.8) (end 9.5 -1.2) (layer F.Fab) (width 0.1))
  (fp_line (start 9.5 -1.2) (end 7.7 -1.2) (layer F.Fab) (width 0.1))
  (fp_line (start 7.7 -1.2) (end 7.7 -0.6) (layer F.Fab) (width 0.1))
  (fp_line (start 7.7 -0.6) (end 9.5 -0.6) (layer F.Fab) (width 0.1))
  (fp_line (start 9.5 -0.6) (end 9.5 0) (layer F.Fab) (width 0.1))
  (fp_line (start 9.5 0) (end 7.7 0) (layer F.Fab) (width 0.1))
  (fp_line (start 7.7 0) (end 7.7 0.6) (layer F.Fab) (width 0.1))
  (fp_line (start 7.7 0.6) (end 9.5 0.6) (layer F.Fab) (width 0.1))
  (fp_line (start 9.5 0.6) (end 9.5 1.2) (layer F.Fab) (width 0.1))
  (fp_line (start 9.5 1.2) (end 7.7 1.2) (layer F.Fab) (width 0.1))
  (fp_line (start 7.7 1.2) (end 7.7 1.8) (layer F.Fab) (width 0.1))
  (fp_line (start 7.7 1.8) (end 9.5 1.8) (layer F.Fab) (width 0.1))
  (pad 1 thru_hole circle (at 0 0) (size 1.6 1.6) (drill 0.8) (layers *.Cu *.Mask))
  (pad 2 thru_hole circle (at 17.5 0) (size 1.6 1.6) (drill 0.8) (layers *.Cu *.Mask))
  (model ${KICAD6_3DMODEL_DIR}/OptoDevice.3dshapes/R_LDR_D20mm_P17.5mm_Vertical.wrl
    (at (xyz 0 0 0))
    (scale (xyz 1 1 1))
    (rotate (xyz 0 0 0))
  )
)
