(module Vishay_MOLD-3Pin (layer F.Cu) (tedit 5B888673)
  (descr "IR Receiver Vishay TSOP-xxxx, MOLD package, see https://www.vishay.com/docs/82669/tsop32s40f.pdf")
  (tags "IR Receiver Vishay TSOP-xxxx MOLD")
  (fp_text reference REF** (at 2.5 -2.25 180) (layer F.SilkS)
    (effects (font (size 1 1) (thickness 0.15)))
  )
  (fp_text value Vishay_MOLD-3Pin (at 2.5 5 180) (layer F.Fab)
    (effects (font (size 1 1) (thickness 0.15)))
  )
  (fp_text user %R (at 2.675 1.316) (layer F.Fab)
    (effects (font (size 1 1) (thickness 0.15)))
  )
  (fp_line (start 5.6 2.2) (end -0.2 2.2) (layer F.Fab) (width 0.1))
  (fp_line (start -0.2 2.2) (end -0.2 -0.5) (layer F.Fab) (width 0.1))
  (fp_line (start 0.55 -1.25) (end 5.6 -1.25) (layer F.Fab) (width 0.1))
  (fp_line (start 5.6 -1.25) (end 5.6 2.2) (layer F.Fab) (width 0.1))
  (fp_line (start 5.7 2.3) (end 5.7 1.1) (layer F.SilkS) (width 0.12))
  (fp_line (start 5.7 2.3) (end 5.24 2.3) (layer F.SilkS) (width 0.12))
  (fp_line (start 5.62 -1.36) (end 2.54 -1.36) (layer F.SilkS) (width 0.12))
  (fp_line (start 6.23 4.13) (end -1.15 4.13) (layer F.CrtYd) (width 0.05))
  (fp_line (start 6.23 4.13) (end 6.23 -1.5) (layer F.CrtYd) (width 0.05))
  (fp_line (start -1.15 -1.5) (end -1.15 4.13) (layer F.CrtYd) (width 0.05))
  (fp_line (start -1.15 -1.5) (end 6.23 -1.5) (layer F.CrtYd) (width 0.05))
  (fp_arc (start 2.64 1.2) (end 5.24 2.3) (angle 134.1358099) (layer F.SilkS) (width 0.12))
  (fp_arc (start 2.64 1.15) (end 5.14 2.25) (angle 132) (layer F.Fab) (width 0.1))
  (fp_line (start 0.04 2.3) (end -0.18 2.3) (layer F.SilkS) (width 0.12))
  (fp_line (start 0.55 -1.25) (end -0.2 -0.5) (layer F.Fab) (width 0.1))
  (pad 1 thru_hole roundrect (at 0 0) (size 1.8 1.8) (drill 0.9) (layers *.Cu *.Mask) (roundrect_rratio 0.138))
  (pad 2 thru_hole circle (at 2.54 0) (size 1.8 1.8) (drill 0.9) (layers *.Cu *.Mask))
  (pad 3 thru_hole circle (at 5.08 0) (size 1.8 1.8) (drill 0.9) (layers *.Cu *.Mask))
  (model ${KICAD6_3DMODEL_DIR}/OptoDevice.3dshapes/Vishay_MOLD-3Pin.wrl
    (at (xyz 0 0 0))
    (scale (xyz 1 1 1))
    (rotate (xyz 0 0 0))
  )
)
