(module Panasonic_EVQPUL_EVQPUC (layer F.Cu) (tedit 5A02FC95)
  (descr http://industrial.panasonic.com/cdbs/www-data/pdf/ATV0000/ATV0000CE5.pdf)
  (tags "SMD SMT SPST EVQPUL EVQPUC")
  (attr smd)
  (fp_text reference REF** (at 0 -4.5) (layer F.SilkS)
    (effects (font (size 1 1) (thickness 0.15)))
  )
  (fp_text value Panasonic_EVQPUL_EVQPUC (at 0 3.5) (layer F.Fab)
    (effects (font (size 1 1) (thickness 0.15)))
  )
  (fp_text user %R (at 0 0) (layer F.Fab)
    (effects (font (size 1 1) (thickness 0.15)))
  )
  (fp_line (start 3.9 2.25) (end 3.9 -3.25) (layer F.CrtYd) (width 0.05))
  (fp_line (start 2.35 -1.85) (end 1.425 -1.85) (layer F.SilkS) (width 0.12))
  (fp_line (start 2.35 1.85) (end -2.35 1.85) (layer F.SilkS) (width 0.12))
  (fp_line (start -2.45 0.275) (end -2.45 -0.275) (layer F.SilkS) (width 0.12))
  (fp_line (start -1.3 -2.75) (end -1.3 -1.75) (layer F.Fab) (width 0.1))
  (fp_line (start 1.3 -2.75) (end 1.3 -1.75) (layer F.Fab) (width 0.1))
  (fp_line (start 1.3 -2.75) (end -1.3 -2.75) (layer F.Fab) (width 0.1))
  (fp_line (start 2.35 1.75) (end 2.35 -1.75) (layer F.Fab) (width 0.1))
  (fp_line (start -2.35 1.75) (end -2.35 -1.75) (layer F.Fab) (width 0.1))
  (fp_line (start 2.35 -1.75) (end -2.35 -1.75) (layer F.Fab) (width 0.1))
  (fp_line (start 2.35 1.75) (end -2.35 1.75) (layer F.Fab) (width 0.1))
  (fp_line (start 2.45 0.275) (end 2.45 -0.275) (layer F.SilkS) (width 0.12))
  (fp_line (start -1.425 -1.85) (end -2.35 -1.85) (layer F.SilkS) (width 0.12))
  (fp_line (start -3.9 2.25) (end -3.9 -3.25) (layer F.CrtYd) (width 0.05))
  (fp_line (start 3.9 2.25) (end -3.9 2.25) (layer F.CrtYd) (width 0.05))
  (fp_line (start 3.9 -3.25) (end -3.9 -3.25) (layer F.CrtYd) (width 0.05))
  (pad 2 smd rect (at 2.625 0.85 180) (size 1.55 1) (layers F.Cu F.Paste F.Mask))
  (pad 2 smd rect (at -2.625 0.85 180) (size 1.55 1) (layers F.Cu F.Paste F.Mask))
  (pad 1 smd rect (at -2.625 -0.85 180) (size 1.55 1) (layers F.Cu F.Paste F.Mask))
  (pad 1 smd rect (at 2.625 -0.85 180) (size 1.55 1) (layers F.Cu F.Paste F.Mask))
  (pad "" np_thru_hole circle (at 0 1.375 180) (size 0.75 0.75) (drill 0.75) (layers *.Cu *.Mask))
  (pad "" np_thru_hole circle (at 0 -1.375 180) (size 0.75 0.75) (drill 0.75) (layers *.Cu *.Mask))
  (model ${KICAD6_3DMODEL_DIR}/Button_Switch_SMD.3dshapes/Panasonic_EVQPUL_EVQPUC.wrl
    (at (xyz 0 0 0))
    (scale (xyz 1 1 1))
    (rotate (xyz 0 0 0))
  )
)
