(module SW_DIP_SPSTx04_Slide_KingTek_DSHP04TJ_W5.25mm_P1.27mm_JPin (layer F.Cu) (tedit 5A508D3F)
  (descr "SMD 4x-dip-switch SPST KingTek_DSHP04TJ, Slide, row spacing 5.25 mm (206 mils), body size  (see http://www.kingtek.net.cn/pic/201601201446313350.pdf), JPin")
  (tags "SMD DIP Switch SPST Slide 5.25mm 206mil JPin")
  (attr smd)
  (fp_text reference REF** (at 0 -4.5) (layer F.SilkS)
    (effects (font (size 1 1) (thickness 0.15)))
  )
  (fp_text value SW_DIP_SPSTx04_Slide_KingTek_DSHP04TJ_W5.25mm_P1.27mm_JPin (at 0 4.5) (layer F.Fab)
    (effects (font (size 1 1) (thickness 0.15)))
  )
  (fp_line (start -1.7 -3.44) (end 2.7 -3.44) (layer F.Fab) (width 0.1))
  (fp_line (start 2.7 -3.44) (end 2.7 3.44) (layer F.Fab) (width 0.1))
  (fp_line (start 2.7 3.44) (end -2.7 3.44) (layer F.Fab) (width 0.1))
  (fp_line (start -2.7 3.44) (end -2.7 -2.44) (layer F.Fab) (width 0.1))
  (fp_line (start -2.7 -2.44) (end -1.7 -3.44) (layer F.Fab) (width 0.1))
  (fp_line (start -1 -2.305) (end -1 -1.505) (layer F.Fab) (width 0.1))
  (fp_line (start -1 -1.505) (end 1 -1.505) (layer F.Fab) (width 0.1))
  (fp_line (start 1 -1.505) (end 1 -2.305) (layer F.Fab) (width 0.1))
  (fp_line (start 1 -2.305) (end -1 -2.305) (layer F.Fab) (width 0.1))
  (fp_line (start -1 -2.205) (end -0.333333 -2.205) (layer F.Fab) (width 0.1))
  (fp_line (start -1 -2.105) (end -0.333333 -2.105) (layer F.Fab) (width 0.1))
  (fp_line (start -1 -2.005) (end -0.333333 -2.005) (layer F.Fab) (width 0.1))
  (fp_line (start -1 -1.905) (end -0.333333 -1.905) (layer F.Fab) (width 0.1))
  (fp_line (start -1 -1.805) (end -0.333333 -1.805) (layer F.Fab) (width 0.1))
  (fp_line (start -1 -1.705) (end -0.333333 -1.705) (layer F.Fab) (width 0.1))
  (fp_line (start -1 -1.605) (end -0.333333 -1.605) (layer F.Fab) (width 0.1))
  (fp_line (start -0.333333 -2.305) (end -0.333333 -1.505) (layer F.Fab) (width 0.1))
  (fp_line (start -1 -1.035) (end -1 -0.235) (layer F.Fab) (width 0.1))
  (fp_line (start -1 -0.235) (end 1 -0.235) (layer F.Fab) (width 0.1))
  (fp_line (start 1 -0.235) (end 1 -1.035) (layer F.Fab) (width 0.1))
  (fp_line (start 1 -1.035) (end -1 -1.035) (layer F.Fab) (width 0.1))
  (fp_line (start -1 -0.935) (end -0.333333 -0.935) (layer F.Fab) (width 0.1))
  (fp_line (start -1 -0.835) (end -0.333333 -0.835) (layer F.Fab) (width 0.1))
  (fp_line (start -1 -0.735) (end -0.333333 -0.735) (layer F.Fab) (width 0.1))
  (fp_line (start -1 -0.635) (end -0.333333 -0.635) (layer F.Fab) (width 0.1))
  (fp_line (start -1 -0.535) (end -0.333333 -0.535) (layer F.Fab) (width 0.1))
  (fp_line (start -1 -0.435) (end -0.333333 -0.435) (layer F.Fab) (width 0.1))
  (fp_line (start -1 -0.335) (end -0.333333 -0.335) (layer F.Fab) (width 0.1))
  (fp_line (start -0.333333 -1.035) (end -0.333333 -0.235) (layer F.Fab) (width 0.1))
  (fp_line (start -1 0.235) (end -1 1.035) (layer F.Fab) (width 0.1))
  (fp_line (start -1 1.035) (end 1 1.035) (layer F.Fab) (width 0.1))
  (fp_line (start 1 1.035) (end 1 0.235) (layer F.Fab) (width 0.1))
  (fp_line (start 1 0.235) (end -1 0.235) (layer F.Fab) (width 0.1))
  (fp_line (start -1 0.335) (end -0.333333 0.335) (layer F.Fab) (width 0.1))
  (fp_line (start -1 0.435) (end -0.333333 0.435) (layer F.Fab) (width 0.1))
  (fp_line (start -1 0.535) (end -0.333333 0.535) (layer F.Fab) (width 0.1))
  (fp_line (start -1 0.635) (end -0.333333 0.635) (layer F.Fab) (width 0.1))
  (fp_line (start -1 0.735) (end -0.333333 0.735) (layer F.Fab) (width 0.1))
  (fp_line (start -1 0.835) (end -0.333333 0.835) (layer F.Fab) (width 0.1))
  (fp_line (start -1 0.935) (end -0.333333 0.935) (layer F.Fab) (width 0.1))
  (fp_line (start -0.333333 0.235) (end -0.333333 1.035) (layer F.Fab) (width 0.1))
  (fp_line (start -1 1.505) (end -1 2.305) (layer F.Fab) (width 0.1))
  (fp_line (start -1 2.305) (end 1 2.305) (layer F.Fab) (width 0.1))
  (fp_line (start 1 2.305) (end 1 1.505) (layer F.Fab) (width 0.1))
  (fp_line (start 1 1.505) (end -1 1.505) (layer F.Fab) (width 0.1))
  (fp_line (start -1 1.605) (end -0.333333 1.605) (layer F.Fab) (width 0.1))
  (fp_line (start -1 1.705) (end -0.333333 1.705) (layer F.Fab) (width 0.1))
  (fp_line (start -1 1.805) (end -0.333333 1.805) (layer F.Fab) (width 0.1))
  (fp_line (start -1 1.905) (end -0.333333 1.905) (layer F.Fab) (width 0.1))
  (fp_line (start -1 2.005) (end -0.333333 2.005) (layer F.Fab) (width 0.1))
  (fp_line (start -1 2.105) (end -0.333333 2.105) (layer F.Fab) (width 0.1))
  (fp_line (start -1 2.205) (end -0.333333 2.205) (layer F.Fab) (width 0.1))
  (fp_line (start -0.333333 1.505) (end -0.333333 2.305) (layer F.Fab) (width 0.1))
  (fp_line (start -2.761 3.5) (end 2.76 3.5) (layer F.SilkS) (width 0.12))
  (fp_line (start -3.951 -2.585) (end -2.761 -2.585) (layer F.SilkS) (width 0.12))
  (fp_line (start -2.761 -3.5) (end -2.761 -2.585) (layer F.SilkS) (width 0.12))
  (fp_line (start -2.761 -3.5) (end 2.76 -3.5) (layer F.SilkS) (width 0.12))
  (fp_line (start 2.76 -3.5) (end 2.76 -2.525) (layer F.SilkS) (width 0.12))
  (fp_line (start -2.761 2.525) (end -2.761 3.5) (layer F.SilkS) (width 0.12))
  (fp_line (start 2.76 2.525) (end 2.76 3.5) (layer F.SilkS) (width 0.12))
  (fp_line (start -4.2 -3.75) (end -4.2 3.75) (layer F.CrtYd) (width 0.05))
  (fp_line (start -4.2 3.75) (end 4.2 3.75) (layer F.CrtYd) (width 0.05))
  (fp_line (start 4.2 3.75) (end 4.2 -3.75) (layer F.CrtYd) (width 0.05))
  (fp_line (start 4.2 -3.75) (end -4.2 -3.75) (layer F.CrtYd) (width 0.05))
  (pad 1 smd rect (at -2.625 -1.905) (size 2.65 0.76) (layers F.Cu F.Mask F.Paste))
  (pad 5 smd rect (at 2.625 1.905) (size 2.65 0.76) (layers F.Cu F.Mask F.Paste))
  (pad 2 smd rect (at -2.625 -0.635) (size 2.65 0.76) (layers F.Cu F.Mask F.Paste))
  (pad 6 smd rect (at 2.625 0.635) (size 2.65 0.76) (layers F.Cu F.Mask F.Paste))
  (pad 3 smd rect (at -2.625 0.635) (size 2.65 0.76) (layers F.Cu F.Mask F.Paste))
  (pad 7 smd rect (at 2.625 -0.635) (size 2.65 0.76) (layers F.Cu F.Mask F.Paste))
  (pad 4 smd rect (at -2.625 1.905) (size 2.65 0.76) (layers F.Cu F.Mask F.Paste))
  (pad 8 smd rect (at 2.625 -1.905) (size 2.65 0.76) (layers F.Cu F.Mask F.Paste))
  (fp_text user %R (at 1.85 0 90) (layer F.Fab)
    (effects (font (size 0.8 0.8) (thickness 0.12)))
  )
  (fp_text user on (at 0.5375 -2.8725) (layer F.Fab)
    (effects (font (size 0.8 0.8) (thickness 0.12)))
  )
  (model ${KICAD6_3DMODEL_DIR}/Button_Switch_SMD.3dshapes/SW_DIP_SPSTx04_Slide_KingTek_DSHP04TJ_W5.25mm_P1.27mm_JPin.wrl
    (at (xyz 0 0 0))
    (scale (xyz 1 1 1))
    (rotate (xyz 0 0 0))
  )
)