(module SW_DIP_SPSTx07_Slide_9.78x19.96mm_W8.61mm_P2.54mm (layer F.Cu) (tedit 5A4E1405)
  (descr "SMD 7x-dip-switch SPST , Slide, row spacing 8.61 mm (338 mils), body size 9.78x19.96mm (see e.g. https://www.ctscorp.com/wp-content/uploads/204.pdf), SMD")
  (tags "SMD DIP Switch SPST Slide 8.61mm 338mil SMD")
  (attr smd)
  (fp_text reference REF** (at 0 -11.04) (layer F.SilkS)
    (effects (font (size 1 1) (thickness 0.15)))
  )
  (fp_text value SW_DIP_SPSTx07_Slide_9.78x19.96mm_W8.61mm_P2.54mm (at 0 11.04) (layer F.Fab)
    (effects (font (size 1 1) (thickness 0.15)))
  )
  (fp_line (start -3.89 -9.98) (end 4.89 -9.98) (layer F.Fab) (width 0.1))
  (fp_line (start 4.89 -9.98) (end 4.89 9.98) (layer F.Fab) (width 0.1))
  (fp_line (start 4.89 9.98) (end -4.89 9.98) (layer F.Fab) (width 0.1))
  (fp_line (start -4.89 9.98) (end -4.89 -8.98) (layer F.Fab) (width 0.1))
  (fp_line (start -4.89 -8.98) (end -3.89 -9.98) (layer F.Fab) (width 0.1))
  (fp_line (start -2.03 -8.255) (end -2.03 -6.985) (layer F.Fab) (width 0.1))
  (fp_line (start -2.03 -6.985) (end 2.03 -6.985) (layer F.Fab) (width 0.1))
  (fp_line (start 2.03 -6.985) (end 2.03 -8.255) (layer F.Fab) (width 0.1))
  (fp_line (start 2.03 -8.255) (end -2.03 -8.255) (layer F.Fab) (width 0.1))
  (fp_line (start -2.03 -8.155) (end -0.676667 -8.155) (layer F.Fab) (width 0.1))
  (fp_line (start -2.03 -8.055) (end -0.676667 -8.055) (layer F.Fab) (width 0.1))
  (fp_line (start -2.03 -7.955) (end -0.676667 -7.955) (layer F.Fab) (width 0.1))
  (fp_line (start -2.03 -7.855) (end -0.676667 -7.855) (layer F.Fab) (width 0.1))
  (fp_line (start -2.03 -7.755) (end -0.676667 -7.755) (layer F.Fab) (width 0.1))
  (fp_line (start -2.03 -7.655) (end -0.676667 -7.655) (layer F.Fab) (width 0.1))
  (fp_line (start -2.03 -7.555) (end -0.676667 -7.555) (layer F.Fab) (width 0.1))
  (fp_line (start -2.03 -7.455) (end -0.676667 -7.455) (layer F.Fab) (width 0.1))
  (fp_line (start -2.03 -7.355) (end -0.676667 -7.355) (layer F.Fab) (width 0.1))
  (fp_line (start -2.03 -7.255) (end -0.676667 -7.255) (layer F.Fab) (width 0.1))
  (fp_line (start -2.03 -7.155) (end -0.676667 -7.155) (layer F.Fab) (width 0.1))
  (fp_line (start -2.03 -7.055) (end -0.676667 -7.055) (layer F.Fab) (width 0.1))
  (fp_line (start -0.676667 -8.255) (end -0.676667 -6.985) (layer F.Fab) (width 0.1))
  (fp_line (start -2.03 -5.715) (end -2.03 -4.445) (layer F.Fab) (width 0.1))
  (fp_line (start -2.03 -4.445) (end 2.03 -4.445) (layer F.Fab) (width 0.1))
  (fp_line (start 2.03 -4.445) (end 2.03 -5.715) (layer F.Fab) (width 0.1))
  (fp_line (start 2.03 -5.715) (end -2.03 -5.715) (layer F.Fab) (width 0.1))
  (fp_line (start -2.03 -5.615) (end -0.676667 -5.615) (layer F.Fab) (width 0.1))
  (fp_line (start -2.03 -5.515) (end -0.676667 -5.515) (layer F.Fab) (width 0.1))
  (fp_line (start -2.03 -5.415) (end -0.676667 -5.415) (layer F.Fab) (width 0.1))
  (fp_line (start -2.03 -5.315) (end -0.676667 -5.315) (layer F.Fab) (width 0.1))
  (fp_line (start -2.03 -5.215) (end -0.676667 -5.215) (layer F.Fab) (width 0.1))
  (fp_line (start -2.03 -5.115) (end -0.676667 -5.115) (layer F.Fab) (width 0.1))
  (fp_line (start -2.03 -5.015) (end -0.676667 -5.015) (layer F.Fab) (width 0.1))
  (fp_line (start -2.03 -4.915) (end -0.676667 -4.915) (layer F.Fab) (width 0.1))
  (fp_line (start -2.03 -4.815) (end -0.676667 -4.815) (layer F.Fab) (width 0.1))
  (fp_line (start -2.03 -4.715) (end -0.676667 -4.715) (layer F.Fab) (width 0.1))
  (fp_line (start -2.03 -4.615) (end -0.676667 -4.615) (layer F.Fab) (width 0.1))
  (fp_line (start -2.03 -4.515) (end -0.676667 -4.515) (layer F.Fab) (width 0.1))
  (fp_line (start -0.676667 -5.715) (end -0.676667 -4.445) (layer F.Fab) (width 0.1))
  (fp_line (start -2.03 -3.175) (end -2.03 -1.905) (layer F.Fab) (width 0.1))
  (fp_line (start -2.03 -1.905) (end 2.03 -1.905) (layer F.Fab) (width 0.1))
  (fp_line (start 2.03 -1.905) (end 2.03 -3.175) (layer F.Fab) (width 0.1))
  (fp_line (start 2.03 -3.175) (end -2.03 -3.175) (layer F.Fab) (width 0.1))
  (fp_line (start -2.03 -3.075) (end -0.676667 -3.075) (layer F.Fab) (width 0.1))
  (fp_line (start -2.03 -2.975) (end -0.676667 -2.975) (layer F.Fab) (width 0.1))
  (fp_line (start -2.03 -2.875) (end -0.676667 -2.875) (layer F.Fab) (width 0.1))
  (fp_line (start -2.03 -2.775) (end -0.676667 -2.775) (layer F.Fab) (width 0.1))
  (fp_line (start -2.03 -2.675) (end -0.676667 -2.675) (layer F.Fab) (width 0.1))
  (fp_line (start -2.03 -2.575) (end -0.676667 -2.575) (layer F.Fab) (width 0.1))
  (fp_line (start -2.03 -2.475) (end -0.676667 -2.475) (layer F.Fab) (width 0.1))
  (fp_line (start -2.03 -2.375) (end -0.676667 -2.375) (layer F.Fab) (width 0.1))
  (fp_line (start -2.03 -2.275) (end -0.676667 -2.275) (layer F.Fab) (width 0.1))
  (fp_line (start -2.03 -2.175) (end -0.676667 -2.175) (layer F.Fab) (width 0.1))
  (fp_line (start -2.03 -2.075) (end -0.676667 -2.075) (layer F.Fab) (width 0.1))
  (fp_line (start -2.03 -1.975) (end -0.676667 -1.975) (layer F.Fab) (width 0.1))
  (fp_line (start -0.676667 -3.175) (end -0.676667 -1.905) (layer F.Fab) (width 0.1))
  (fp_line (start -2.03 -0.635) (end -2.03 0.635) (layer F.Fab) (width 0.1))
  (fp_line (start -2.03 0.635) (end 2.03 0.635) (layer F.Fab) (width 0.1))
  (fp_line (start 2.03 0.635) (end 2.03 -0.635) (layer F.Fab) (width 0.1))
  (fp_line (start 2.03 -0.635) (end -2.03 -0.635) (layer F.Fab) (width 0.1))
  (fp_line (start -2.03 -0.535) (end -0.676667 -0.535) (layer F.Fab) (width 0.1))
  (fp_line (start -2.03 -0.435) (end -0.676667 -0.435) (layer F.Fab) (width 0.1))
  (fp_line (start -2.03 -0.335) (end -0.676667 -0.335) (layer F.Fab) (width 0.1))
  (fp_line (start -2.03 -0.235) (end -0.676667 -0.235) (layer F.Fab) (width 0.1))
  (fp_line (start -2.03 -0.135) (end -0.676667 -0.135) (layer F.Fab) (width 0.1))
  (fp_line (start -2.03 -0.035) (end -0.676667 -0.035) (layer F.Fab) (width 0.1))
  (fp_line (start -2.03 0.065) (end -0.676667 0.065) (layer F.Fab) (width 0.1))
  (fp_line (start -2.03 0.165) (end -0.676667 0.165) (layer F.Fab) (width 0.1))
  (fp_line (start -2.03 0.265) (end -0.676667 0.265) (layer F.Fab) (width 0.1))
  (fp_line (start -2.03 0.365) (end -0.676667 0.365) (layer F.Fab) (width 0.1))
  (fp_line (start -2.03 0.465) (end -0.676667 0.465) (layer F.Fab) (width 0.1))
  (fp_line (start -2.03 0.565) (end -0.676667 0.565) (layer F.Fab) (width 0.1))
  (fp_line (start -0.676667 -0.635) (end -0.676667 0.635) (layer F.Fab) (width 0.1))
  (fp_line (start -2.03 1.905) (end -2.03 3.175) (layer F.Fab) (width 0.1))
  (fp_line (start -2.03 3.175) (end 2.03 3.175) (layer F.Fab) (width 0.1))
  (fp_line (start 2.03 3.175) (end 2.03 1.905) (layer F.Fab) (width 0.1))
  (fp_line (start 2.03 1.905) (end -2.03 1.905) (layer F.Fab) (width 0.1))
  (fp_line (start -2.03 2.005) (end -0.676667 2.005) (layer F.Fab) (width 0.1))
  (fp_line (start -2.03 2.105) (end -0.676667 2.105) (layer F.Fab) (width 0.1))
  (fp_line (start -2.03 2.205) (end -0.676667 2.205) (layer F.Fab) (width 0.1))
  (fp_line (start -2.03 2.305) (end -0.676667 2.305) (layer F.Fab) (width 0.1))
  (fp_line (start -2.03 2.405) (end -0.676667 2.405) (layer F.Fab) (width 0.1))
  (fp_line (start -2.03 2.505) (end -0.676667 2.505) (layer F.Fab) (width 0.1))
  (fp_line (start -2.03 2.605) (end -0.676667 2.605) (layer F.Fab) (width 0.1))
  (fp_line (start -2.03 2.705) (end -0.676667 2.705) (layer F.Fab) (width 0.1))
  (fp_line (start -2.03 2.805) (end -0.676667 2.805) (layer F.Fab) (width 0.1))
  (fp_line (start -2.03 2.905) (end -0.676667 2.905) (layer F.Fab) (width 0.1))
  (fp_line (start -2.03 3.005) (end -0.676667 3.005) (layer F.Fab) (width 0.1))
  (fp_line (start -2.03 3.105) (end -0.676667 3.105) (layer F.Fab) (width 0.1))
  (fp_line (start -0.676667 1.905) (end -0.676667 3.175) (layer F.Fab) (width 0.1))
  (fp_line (start -2.03 4.445) (end -2.03 5.715) (layer F.Fab) (width 0.1))
  (fp_line (start -2.03 5.715) (end 2.03 5.715) (layer F.Fab) (width 0.1))
  (fp_line (start 2.03 5.715) (end 2.03 4.445) (layer F.Fab) (width 0.1))
  (fp_line (start 2.03 4.445) (end -2.03 4.445) (layer F.Fab) (width 0.1))
  (fp_line (start -2.03 4.545) (end -0.676667 4.545) (layer F.Fab) (width 0.1))
  (fp_line (start -2.03 4.645) (end -0.676667 4.645) (layer F.Fab) (width 0.1))
  (fp_line (start -2.03 4.745) (end -0.676667 4.745) (layer F.Fab) (width 0.1))
  (fp_line (start -2.03 4.845) (end -0.676667 4.845) (layer F.Fab) (width 0.1))
  (fp_line (start -2.03 4.945) (end -0.676667 4.945) (layer F.Fab) (width 0.1))
  (fp_line (start -2.03 5.045) (end -0.676667 5.045) (layer F.Fab) (width 0.1))
  (fp_line (start -2.03 5.145) (end -0.676667 5.145) (layer F.Fab) (width 0.1))
  (fp_line (start -2.03 5.245) (end -0.676667 5.245) (layer F.Fab) (width 0.1))
  (fp_line (start -2.03 5.345) (end -0.676667 5.345) (layer F.Fab) (width 0.1))
  (fp_line (start -2.03 5.445) (end -0.676667 5.445) (layer F.Fab) (width 0.1))
  (fp_line (start -2.03 5.545) (end -0.676667 5.545) (layer F.Fab) (width 0.1))
  (fp_line (start -2.03 5.645) (end -0.676667 5.645) (layer F.Fab) (width 0.1))
  (fp_line (start -0.676667 4.445) (end -0.676667 5.715) (layer F.Fab) (width 0.1))
  (fp_line (start -2.03 6.985) (end -2.03 8.255) (layer F.Fab) (width 0.1))
  (fp_line (start -2.03 8.255) (end 2.03 8.255) (layer F.Fab) (width 0.1))
  (fp_line (start 2.03 8.255) (end 2.03 6.985) (layer F.Fab) (width 0.1))
  (fp_line (start 2.03 6.985) (end -2.03 6.985) (layer F.Fab) (width 0.1))
  (fp_line (start -2.03 7.085) (end -0.676667 7.085) (layer F.Fab) (width 0.1))
  (fp_line (start -2.03 7.185) (end -0.676667 7.185) (layer F.Fab) (width 0.1))
  (fp_line (start -2.03 7.285) (end -0.676667 7.285) (layer F.Fab) (width 0.1))
  (fp_line (start -2.03 7.385) (end -0.676667 7.385) (layer F.Fab) (width 0.1))
  (fp_line (start -2.03 7.485) (end -0.676667 7.485) (layer F.Fab) (width 0.1))
  (fp_line (start -2.03 7.585) (end -0.676667 7.585) (layer F.Fab) (width 0.1))
  (fp_line (start -2.03 7.685) (end -0.676667 7.685) (layer F.Fab) (width 0.1))
  (fp_line (start -2.03 7.785) (end -0.676667 7.785) (layer F.Fab) (width 0.1))
  (fp_line (start -2.03 7.885) (end -0.676667 7.885) (layer F.Fab) (width 0.1))
  (fp_line (start -2.03 7.985) (end -0.676667 7.985) (layer F.Fab) (width 0.1))
  (fp_line (start -2.03 8.085) (end -0.676667 8.085) (layer F.Fab) (width 0.1))
  (fp_line (start -2.03 8.185) (end -0.676667 8.185) (layer F.Fab) (width 0.1))
  (fp_line (start -0.676667 6.985) (end -0.676667 8.255) (layer F.Fab) (width 0.1))
  (fp_line (start -4.95 -10.04) (end 4.95 -10.04) (layer F.SilkS) (width 0.12))
  (fp_line (start -4.95 10.041) (end 4.95 10.041) (layer F.SilkS) (width 0.12))
  (fp_line (start -4.95 -10.04) (end -4.95 -8.42) (layer F.SilkS) (width 0.12))
  (fp_line (start -4.95 -6.82) (end -4.95 -5.88) (layer F.SilkS) (width 0.12))
  (fp_line (start -4.95 -4.28) (end -4.95 -3.34) (layer F.SilkS) (width 0.12))
  (fp_line (start -4.95 -1.74) (end -4.95 -0.8) (layer F.SilkS) (width 0.12))
  (fp_line (start -4.95 0.8) (end -4.95 1.74) (layer F.SilkS) (width 0.12))
  (fp_line (start -4.95 3.34) (end -4.95 4.28) (layer F.SilkS) (width 0.12))
  (fp_line (start -4.95 5.88) (end -4.95 6.82) (layer F.SilkS) (width 0.12))
  (fp_line (start -4.95 8.42) (end -4.95 10.041) (layer F.SilkS) (width 0.12))
  (fp_line (start 4.95 8.42) (end 4.95 10.041) (layer F.SilkS) (width 0.12))
  (fp_line (start 4.95 5.88) (end 4.95 6.82) (layer F.SilkS) (width 0.12))
  (fp_line (start 4.95 3.34) (end 4.95 4.28) (layer F.SilkS) (width 0.12))
  (fp_line (start 4.95 0.8) (end 4.95 1.74) (layer F.SilkS) (width 0.12))
  (fp_line (start 4.95 -1.74) (end 4.95 -0.8) (layer F.SilkS) (width 0.12))
  (fp_line (start 4.95 -4.28) (end 4.95 -3.34) (layer F.SilkS) (width 0.12))
  (fp_line (start 4.95 -10.04) (end 4.95 -8.42) (layer F.SilkS) (width 0.12))
  (fp_line (start 4.95 -6.82) (end 4.95 -5.88) (layer F.SilkS) (width 0.12))
  (fp_line (start -5.19 -10.28) (end -3.806 -10.28) (layer F.SilkS) (width 0.12))
  (fp_line (start -5.19 -10.28) (end -5.19 -8.897) (layer F.SilkS) (width 0.12))
  (fp_line (start -2.03 -8.255) (end -2.03 -6.985) (layer F.SilkS) (width 0.12))
  (fp_line (start -2.03 -6.985) (end 2.03 -6.985) (layer F.SilkS) (width 0.12))
  (fp_line (start 2.03 -6.985) (end 2.03 -8.255) (layer F.SilkS) (width 0.12))
  (fp_line (start 2.03 -8.255) (end -2.03 -8.255) (layer F.SilkS) (width 0.12))
  (fp_line (start -2.03 -8.135) (end -0.676667 -8.135) (layer F.SilkS) (width 0.12))
  (fp_line (start -2.03 -8.015) (end -0.676667 -8.015) (layer F.SilkS) (width 0.12))
  (fp_line (start -2.03 -7.895) (end -0.676667 -7.895) (layer F.SilkS) (width 0.12))
  (fp_line (start -2.03 -7.775) (end -0.676667 -7.775) (layer F.SilkS) (width 0.12))
  (fp_line (start -2.03 -7.655) (end -0.676667 -7.655) (layer F.SilkS) (width 0.12))
  (fp_line (start -2.03 -7.535) (end -0.676667 -7.535) (layer F.SilkS) (width 0.12))
  (fp_line (start -2.03 -7.415) (end -0.676667 -7.415) (layer F.SilkS) (width 0.12))
  (fp_line (start -2.03 -7.295) (end -0.676667 -7.295) (layer F.SilkS) (width 0.12))
  (fp_line (start -2.03 -7.175) (end -0.676667 -7.175) (layer F.SilkS) (width 0.12))
  (fp_line (start -2.03 -7.055) (end -0.676667 -7.055) (layer F.SilkS) (width 0.12))
  (fp_line (start -0.676667 -8.255) (end -0.676667 -6.985) (layer F.SilkS) (width 0.12))
  (fp_line (start -2.03 -5.715) (end -2.03 -4.445) (layer F.SilkS) (width 0.12))
  (fp_line (start -2.03 -4.445) (end 2.03 -4.445) (layer F.SilkS) (width 0.12))
  (fp_line (start 2.03 -4.445) (end 2.03 -5.715) (layer F.SilkS) (width 0.12))
  (fp_line (start 2.03 -5.715) (end -2.03 -5.715) (layer F.SilkS) (width 0.12))
  (fp_line (start -2.03 -5.595) (end -0.676667 -5.595) (layer F.SilkS) (width 0.12))
  (fp_line (start -2.03 -5.475) (end -0.676667 -5.475) (layer F.SilkS) (width 0.12))
  (fp_line (start -2.03 -5.355) (end -0.676667 -5.355) (layer F.SilkS) (width 0.12))
  (fp_line (start -2.03 -5.235) (end -0.676667 -5.235) (layer F.SilkS) (width 0.12))
  (fp_line (start -2.03 -5.115) (end -0.676667 -5.115) (layer F.SilkS) (width 0.12))
  (fp_line (start -2.03 -4.995) (end -0.676667 -4.995) (layer F.SilkS) (width 0.12))
  (fp_line (start -2.03 -4.875) (end -0.676667 -4.875) (layer F.SilkS) (width 0.12))
  (fp_line (start -2.03 -4.755) (end -0.676667 -4.755) (layer F.SilkS) (width 0.12))
  (fp_line (start -2.03 -4.635) (end -0.676667 -4.635) (layer F.SilkS) (width 0.12))
  (fp_line (start -2.03 -4.515) (end -0.676667 -4.515) (layer F.SilkS) (width 0.12))
  (fp_line (start -0.676667 -5.715) (end -0.676667 -4.445) (layer F.SilkS) (width 0.12))
  (fp_line (start -2.03 -3.175) (end -2.03 -1.905) (layer F.SilkS) (width 0.12))
  (fp_line (start -2.03 -1.905) (end 2.03 -1.905) (layer F.SilkS) (width 0.12))
  (fp_line (start 2.03 -1.905) (end 2.03 -3.175) (layer F.SilkS) (width 0.12))
  (fp_line (start 2.03 -3.175) (end -2.03 -3.175) (layer F.SilkS) (width 0.12))
  (fp_line (start -2.03 -3.055) (end -0.676667 -3.055) (layer F.SilkS) (width 0.12))
  (fp_line (start -2.03 -2.935) (end -0.676667 -2.935) (layer F.SilkS) (width 0.12))
  (fp_line (start -2.03 -2.815) (end -0.676667 -2.815) (layer F.SilkS) (width 0.12))
  (fp_line (start -2.03 -2.695) (end -0.676667 -2.695) (layer F.SilkS) (width 0.12))
  (fp_line (start -2.03 -2.575) (end -0.676667 -2.575) (layer F.SilkS) (width 0.12))
  (fp_line (start -2.03 -2.455) (end -0.676667 -2.455) (layer F.SilkS) (width 0.12))
  (fp_line (start -2.03 -2.335) (end -0.676667 -2.335) (layer F.SilkS) (width 0.12))
  (fp_line (start -2.03 -2.215) (end -0.676667 -2.215) (layer F.SilkS) (width 0.12))
  (fp_line (start -2.03 -2.095) (end -0.676667 -2.095) (layer F.SilkS) (width 0.12))
  (fp_line (start -2.03 -1.975) (end -0.676667 -1.975) (layer F.SilkS) (width 0.12))
  (fp_line (start -0.676667 -3.175) (end -0.676667 -1.905) (layer F.SilkS) (width 0.12))
  (fp_line (start -2.03 -0.635) (end -2.03 0.635) (layer F.SilkS) (width 0.12))
  (fp_line (start -2.03 0.635) (end 2.03 0.635) (layer F.SilkS) (width 0.12))
  (fp_line (start 2.03 0.635) (end 2.03 -0.635) (layer F.SilkS) (width 0.12))
  (fp_line (start 2.03 -0.635) (end -2.03 -0.635) (layer F.SilkS) (width 0.12))
  (fp_line (start -2.03 -0.515) (end -0.676667 -0.515) (layer F.SilkS) (width 0.12))
  (fp_line (start -2.03 -0.395) (end -0.676667 -0.395) (layer F.SilkS) (width 0.12))
  (fp_line (start -2.03 -0.275) (end -0.676667 -0.275) (layer F.SilkS) (width 0.12))
  (fp_line (start -2.03 -0.155) (end -0.676667 -0.155) (layer F.SilkS) (width 0.12))
  (fp_line (start -2.03 -0.035) (end -0.676667 -0.035) (layer F.SilkS) (width 0.12))
  (fp_line (start -2.03 0.085) (end -0.676667 0.085) (layer F.SilkS) (width 0.12))
  (fp_line (start -2.03 0.205) (end -0.676667 0.205) (layer F.SilkS) (width 0.12))
  (fp_line (start -2.03 0.325) (end -0.676667 0.325) (layer F.SilkS) (width 0.12))
  (fp_line (start -2.03 0.445) (end -0.676667 0.445) (layer F.SilkS) (width 0.12))
  (fp_line (start -2.03 0.565) (end -0.676667 0.565) (layer F.SilkS) (width 0.12))
  (fp_line (start -0.676667 -0.635) (end -0.676667 0.635) (layer F.SilkS) (width 0.12))
  (fp_line (start -2.03 1.905) (end -2.03 3.175) (layer F.SilkS) (width 0.12))
  (fp_line (start -2.03 3.175) (end 2.03 3.175) (layer F.SilkS) (width 0.12))
  (fp_line (start 2.03 3.175) (end 2.03 1.905) (layer F.SilkS) (width 0.12))
  (fp_line (start 2.03 1.905) (end -2.03 1.905) (layer F.SilkS) (width 0.12))
  (fp_line (start -2.03 2.025) (end -0.676667 2.025) (layer F.SilkS) (width 0.12))
  (fp_line (start -2.03 2.145) (end -0.676667 2.145) (layer F.SilkS) (width 0.12))
  (fp_line (start -2.03 2.265) (end -0.676667 2.265) (layer F.SilkS) (width 0.12))
  (fp_line (start -2.03 2.385) (end -0.676667 2.385) (layer F.SilkS) (width 0.12))
  (fp_line (start -2.03 2.505) (end -0.676667 2.505) (layer F.SilkS) (width 0.12))
  (fp_line (start -2.03 2.625) (end -0.676667 2.625) (layer F.SilkS) (width 0.12))
  (fp_line (start -2.03 2.745) (end -0.676667 2.745) (layer F.SilkS) (width 0.12))
  (fp_line (start -2.03 2.865) (end -0.676667 2.865) (layer F.SilkS) (width 0.12))
  (fp_line (start -2.03 2.985) (end -0.676667 2.985) (layer F.SilkS) (width 0.12))
  (fp_line (start -2.03 3.105) (end -0.676667 3.105) (layer F.SilkS) (width 0.12))
  (fp_line (start -0.676667 1.905) (end -0.676667 3.175) (layer F.SilkS) (width 0.12))
  (fp_line (start -2.03 4.445) (end -2.03 5.715) (layer F.SilkS) (width 0.12))
  (fp_line (start -2.03 5.715) (end 2.03 5.715) (layer F.SilkS) (width 0.12))
  (fp_line (start 2.03 5.715) (end 2.03 4.445) (layer F.SilkS) (width 0.12))
  (fp_line (start 2.03 4.445) (end -2.03 4.445) (layer F.SilkS) (width 0.12))
  (fp_line (start -2.03 4.565) (end -0.676667 4.565) (layer F.SilkS) (width 0.12))
  (fp_line (start -2.03 4.685) (end -0.676667 4.685) (layer F.SilkS) (width 0.12))
  (fp_line (start -2.03 4.805) (end -0.676667 4.805) (layer F.SilkS) (width 0.12))
  (fp_line (start -2.03 4.925) (end -0.676667 4.925) (layer F.SilkS) (width 0.12))
  (fp_line (start -2.03 5.045) (end -0.676667 5.045) (layer F.SilkS) (width 0.12))
  (fp_line (start -2.03 5.165) (end -0.676667 5.165) (layer F.SilkS) (width 0.12))
  (fp_line (start -2.03 5.285) (end -0.676667 5.285) (layer F.SilkS) (width 0.12))
  (fp_line (start -2.03 5.405) (end -0.676667 5.405) (layer F.SilkS) (width 0.12))
  (fp_line (start -2.03 5.525) (end -0.676667 5.525) (layer F.SilkS) (width 0.12))
  (fp_line (start -2.03 5.645) (end -0.676667 5.645) (layer F.SilkS) (width 0.12))
  (fp_line (start -0.676667 4.445) (end -0.676667 5.715) (layer F.SilkS) (width 0.12))
  (fp_line (start -2.03 6.985) (end -2.03 8.255) (layer F.SilkS) (width 0.12))
  (fp_line (start -2.03 8.255) (end 2.03 8.255) (layer F.SilkS) (width 0.12))
  (fp_line (start 2.03 8.255) (end 2.03 6.985) (layer F.SilkS) (width 0.12))
  (fp_line (start 2.03 6.985) (end -2.03 6.985) (layer F.SilkS) (width 0.12))
  (fp_line (start -2.03 7.105) (end -0.676667 7.105) (layer F.SilkS) (width 0.12))
  (fp_line (start -2.03 7.225) (end -0.676667 7.225) (layer F.SilkS) (width 0.12))
  (fp_line (start -2.03 7.345) (end -0.676667 7.345) (layer F.SilkS) (width 0.12))
  (fp_line (start -2.03 7.465) (end -0.676667 7.465) (layer F.SilkS) (width 0.12))
  (fp_line (start -2.03 7.585) (end -0.676667 7.585) (layer F.SilkS) (width 0.12))
  (fp_line (start -2.03 7.705) (end -0.676667 7.705) (layer F.SilkS) (width 0.12))
  (fp_line (start -2.03 7.825) (end -0.676667 7.825) (layer F.SilkS) (width 0.12))
  (fp_line (start -2.03 7.945) (end -0.676667 7.945) (layer F.SilkS) (width 0.12))
  (fp_line (start -2.03 8.065) (end -0.676667 8.065) (layer F.SilkS) (width 0.12))
  (fp_line (start -2.03 8.185) (end -0.676667 8.185) (layer F.SilkS) (width 0.12))
  (fp_line (start -0.676667 6.985) (end -0.676667 8.255) (layer F.SilkS) (width 0.12))
  (fp_line (start -5.8 -10.3) (end -5.8 10.3) (layer F.CrtYd) (width 0.05))
  (fp_line (start -5.8 10.3) (end 5.8 10.3) (layer F.CrtYd) (width 0.05))
  (fp_line (start 5.8 10.3) (end 5.8 -10.3) (layer F.CrtYd) (width 0.05))
  (fp_line (start 5.8 -10.3) (end -5.8 -10.3) (layer F.CrtYd) (width 0.05))
  (pad 1 smd rect (at -4.305 -7.62) (size 2.44 1.12) (layers F.Cu F.Mask F.Paste))
  (pad 8 smd rect (at 4.305 7.62) (size 2.44 1.12) (layers F.Cu F.Mask F.Paste))
  (pad 2 smd rect (at -4.305 -5.08) (size 2.44 1.12) (layers F.Cu F.Mask F.Paste))
  (pad 9 smd rect (at 4.305 5.08) (size 2.44 1.12) (layers F.Cu F.Mask F.Paste))
  (pad 3 smd rect (at -4.305 -2.54) (size 2.44 1.12) (layers F.Cu F.Mask F.Paste))
  (pad 10 smd rect (at 4.305 2.54) (size 2.44 1.12) (layers F.Cu F.Mask F.Paste))
  (pad 4 smd rect (at -4.305 0) (size 2.44 1.12) (layers F.Cu F.Mask F.Paste))
  (pad 11 smd rect (at 4.305 0) (size 2.44 1.12) (layers F.Cu F.Mask F.Paste))
  (pad 5 smd rect (at -4.305 2.54) (size 2.44 1.12) (layers F.Cu F.Mask F.Paste))
  (pad 12 smd rect (at 4.305 -2.54) (size 2.44 1.12) (layers F.Cu F.Mask F.Paste))
  (pad 6 smd rect (at -4.305 5.08) (size 2.44 1.12) (layers F.Cu F.Mask F.Paste))
  (pad 13 smd rect (at 4.305 -5.08) (size 2.44 1.12) (layers F.Cu F.Mask F.Paste))
  (pad 7 smd rect (at -4.305 7.62) (size 2.44 1.12) (layers F.Cu F.Mask F.Paste))
  (pad 14 smd rect (at 4.305 -7.62) (size 2.44 1.12) (layers F.Cu F.Mask F.Paste))
  (fp_text user %R (at 3.46 0 90) (layer F.Fab)
    (effects (font (size 0.8 0.8) (thickness 0.12)))
  )
  (fp_text user on (at 1.3075 -9.1175) (layer F.Fab)
    (effects (font (size 0.8 0.8) (thickness 0.12)))
  )
  (model ${KICAD6_3DMODEL_DIR}/Button_Switch_SMD.3dshapes/SW_DIP_SPSTx07_Slide_9.78x19.96mm_W8.61mm_P2.54mm.wrl
    (at (xyz 0 0 0))
    (scale (xyz 1 1 1))
    (rotate (xyz 0 0 90))
  )
)