(module SW_DIP_SPSTx02_Slide_Omron_A6H-2101_W6.15mm_P1.27mm (layer F.Cu) (tedit 5A4E1407)
  (descr "SMD 2x-dip-switch SPST Omron_A6H-2101, Slide, row spacing 6.15 mm (242 mils), body size  (see https://www.omron.com/ecb/products/pdf/en-a6h.pdf)")
  (tags "SMD DIP Switch SPST Slide 6.15mm 242mil")
  (attr smd)
  (fp_text reference REF** (at 0 -2.965) (layer F.SilkS)
    (effects (font (size 1 1) (thickness 0.15)))
  )
  (fp_text value SW_DIP_SPSTx02_Slide_Omron_A6H-2101_W6.15mm_P1.27mm (at 0 2.965) (layer F.Fab)
    (effects (font (size 1 1) (thickness 0.15)))
  )
  (fp_line (start -1.25 -1.905) (end 2.25 -1.905) (layer F.Fab) (width 0.1))
  (fp_line (start 2.25 -1.905) (end 2.25 1.905) (layer F.Fab) (width 0.1))
  (fp_line (start 2.25 1.905) (end -2.25 1.905) (layer F.Fab) (width 0.1))
  (fp_line (start -2.25 1.905) (end -2.25 -0.905) (layer F.Fab) (width 0.1))
  (fp_line (start -2.25 -0.905) (end -1.25 -1.905) (layer F.Fab) (width 0.1))
  (fp_line (start -1.6 -0.885) (end -1.6 -0.385) (layer F.Fab) (width 0.1))
  (fp_line (start -1.6 -0.385) (end 1.6 -0.385) (layer F.Fab) (width 0.1))
  (fp_line (start 1.6 -0.385) (end 1.6 -0.885) (layer F.Fab) (width 0.1))
  (fp_line (start 1.6 -0.885) (end -1.6 -0.885) (layer F.Fab) (width 0.1))
  (fp_line (start -1.6 -0.785) (end -0.533333 -0.785) (layer F.Fab) (width 0.1))
  (fp_line (start -1.6 -0.685) (end -0.533333 -0.685) (layer F.Fab) (width 0.1))
  (fp_line (start -1.6 -0.585) (end -0.533333 -0.585) (layer F.Fab) (width 0.1))
  (fp_line (start -1.6 -0.485) (end -0.533333 -0.485) (layer F.Fab) (width 0.1))
  (fp_line (start -0.533333 -0.885) (end -0.533333 -0.385) (layer F.Fab) (width 0.1))
  (fp_line (start -1.6 0.385) (end -1.6 0.885) (layer F.Fab) (width 0.1))
  (fp_line (start -1.6 0.885) (end 1.6 0.885) (layer F.Fab) (width 0.1))
  (fp_line (start 1.6 0.885) (end 1.6 0.385) (layer F.Fab) (width 0.1))
  (fp_line (start 1.6 0.385) (end -1.6 0.385) (layer F.Fab) (width 0.1))
  (fp_line (start -1.6 0.485) (end -0.533333 0.485) (layer F.Fab) (width 0.1))
  (fp_line (start -1.6 0.585) (end -0.533333 0.585) (layer F.Fab) (width 0.1))
  (fp_line (start -1.6 0.685) (end -0.533333 0.685) (layer F.Fab) (width 0.1))
  (fp_line (start -1.6 0.785) (end -0.533333 0.785) (layer F.Fab) (width 0.1))
  (fp_line (start -0.533333 0.385) (end -0.533333 0.885) (layer F.Fab) (width 0.1))
  (fp_line (start -2.309 1.965) (end 2.31 1.965) (layer F.SilkS) (width 0.12))
  (fp_line (start -3.7 -1.315) (end -2.309 -1.315) (layer F.SilkS) (width 0.12))
  (fp_line (start -2.309 -1.965) (end -2.309 -1.315) (layer F.SilkS) (width 0.12))
  (fp_line (start -2.309 -1.965) (end 2.31 -1.965) (layer F.SilkS) (width 0.12))
  (fp_line (start 2.31 -1.965) (end 2.31 -1.255) (layer F.SilkS) (width 0.12))
  (fp_line (start -2.309 1.255) (end -2.309 1.965) (layer F.SilkS) (width 0.12))
  (fp_line (start 2.31 1.255) (end 2.31 1.965) (layer F.SilkS) (width 0.12))
  (fp_line (start -3.95 -2.25) (end -3.95 2.25) (layer F.CrtYd) (width 0.05))
  (fp_line (start -3.95 2.25) (end 3.95 2.25) (layer F.CrtYd) (width 0.05))
  (fp_line (start 3.95 2.25) (end 3.95 -2.25) (layer F.CrtYd) (width 0.05))
  (fp_line (start 3.95 -2.25) (end -3.95 -2.25) (layer F.CrtYd) (width 0.05))
  (pad 1 smd rect (at -3.075 -0.635) (size 1.25 0.76) (layers F.Cu F.Mask F.Paste))
  (pad 3 smd rect (at 3.075 0.635) (size 1.25 0.76) (layers F.Cu F.Mask F.Paste))
  (pad 2 smd rect (at -3.075 0.635) (size 1.25 0.76) (layers F.Cu F.Mask F.Paste))
  (pad 4 smd rect (at 3.075 -0.635) (size 1.25 0.76) (layers F.Cu F.Mask F.Paste))
  (fp_text user %R (at 1.925 0 90) (layer F.Fab)
    (effects (font (size 0.455 0.455) (thickness 0.06825)))
  )
  (fp_text user on (at 0.3875 -1.395) (layer F.Fab)
    (effects (font (size 0.455 0.455) (thickness 0.06825)))
  )
  (model ${KICAD6_3DMODEL_DIR}/Button_Switch_SMD.3dshapes/SW_DIP_SPSTx02_Slide_Omron_A6H-2101_W6.15mm_P1.27mm.wrl
    (at (xyz 0 0 0))
    (scale (xyz 1 1 1))
    (rotate (xyz 0 0 0))
  )
)