(module SW_DIP_SPSTx02_Slide_KingTek_DSHP02TJ_W5.25mm_P1.27mm_JPin (layer F.Cu) (tedit 5A508D3E)
  (descr "SMD 2x-dip-switch SPST KingTek_DSHP02TJ, Slide, row spacing 5.25 mm (206 mils), body size  (see http://www.kingtek.net.cn/pic/201601201446313350.pdf), JPin")
  (tags "SMD DIP Switch SPST Slide 5.25mm 206mil JPin")
  (attr smd)
  (fp_text reference REF** (at 0 -3.23) (layer F.SilkS)
    (effects (font (size 1 1) (thickness 0.15)))
  )
  (fp_text value SW_DIP_SPSTx02_Slide_KingTek_DSHP02TJ_W5.25mm_P1.27mm_JPin (at 0 3.23) (layer F.Fab)
    (effects (font (size 1 1) (thickness 0.15)))
  )
  (fp_line (start -1.7 -2.17) (end 2.7 -2.17) (layer F.Fab) (width 0.1))
  (fp_line (start 2.7 -2.17) (end 2.7 2.17) (layer F.Fab) (width 0.1))
  (fp_line (start 2.7 2.17) (end -2.7 2.17) (layer F.Fab) (width 0.1))
  (fp_line (start -2.7 2.17) (end -2.7 -1.17) (layer F.Fab) (width 0.1))
  (fp_line (start -2.7 -1.17) (end -1.7 -2.17) (layer F.Fab) (width 0.1))
  (fp_line (start -1 -1.035) (end -1 -0.235) (layer F.Fab) (width 0.1))
  (fp_line (start -1 -0.235) (end 1 -0.235) (layer F.Fab) (width 0.1))
  (fp_line (start 1 -0.235) (end 1 -1.035) (layer F.Fab) (width 0.1))
  (fp_line (start 1 -1.035) (end -1 -1.035) (layer F.Fab) (width 0.1))
  (fp_line (start -1 -0.935) (end -0.333333 -0.935) (layer F.Fab) (width 0.1))
  (fp_line (start -1 -0.835) (end -0.333333 -0.835) (layer F.Fab) (width 0.1))
  (fp_line (start -1 -0.735) (end -0.333333 -0.735) (layer F.Fab) (width 0.1))
  (fp_line (start -1 -0.635) (end -0.333333 -0.635) (layer F.Fab) (width 0.1))
  (fp_line (start -1 -0.535) (end -0.333333 -0.535) (layer F.Fab) (width 0.1))
  (fp_line (start -1 -0.435) (end -0.333333 -0.435) (layer F.Fab) (width 0.1))
  (fp_line (start -1 -0.335) (end -0.333333 -0.335) (layer F.Fab) (width 0.1))
  (fp_line (start -0.333333 -1.035) (end -0.333333 -0.235) (layer F.Fab) (width 0.1))
  (fp_line (start -1 0.235) (end -1 1.035) (layer F.Fab) (width 0.1))
  (fp_line (start -1 1.035) (end 1 1.035) (layer F.Fab) (width 0.1))
  (fp_line (start 1 1.035) (end 1 0.235) (layer F.Fab) (width 0.1))
  (fp_line (start 1 0.235) (end -1 0.235) (layer F.Fab) (width 0.1))
  (fp_line (start -1 0.335) (end -0.333333 0.335) (layer F.Fab) (width 0.1))
  (fp_line (start -1 0.435) (end -0.333333 0.435) (layer F.Fab) (width 0.1))
  (fp_line (start -1 0.535) (end -0.333333 0.535) (layer F.Fab) (width 0.1))
  (fp_line (start -1 0.635) (end -0.333333 0.635) (layer F.Fab) (width 0.1))
  (fp_line (start -1 0.735) (end -0.333333 0.735) (layer F.Fab) (width 0.1))
  (fp_line (start -1 0.835) (end -0.333333 0.835) (layer F.Fab) (width 0.1))
  (fp_line (start -1 0.935) (end -0.333333 0.935) (layer F.Fab) (width 0.1))
  (fp_line (start -0.333333 0.235) (end -0.333333 1.035) (layer F.Fab) (width 0.1))
  (fp_line (start -2.761 2.23) (end 2.76 2.23) (layer F.SilkS) (width 0.12))
  (fp_line (start -3.951 -1.315) (end -2.761 -1.315) (layer F.SilkS) (width 0.12))
  (fp_line (start -2.761 -2.23) (end -2.761 -1.315) (layer F.SilkS) (width 0.12))
  (fp_line (start -2.761 -2.23) (end 2.76 -2.23) (layer F.SilkS) (width 0.12))
  (fp_line (start 2.76 -2.23) (end 2.76 -1.255) (layer F.SilkS) (width 0.12))
  (fp_line (start -2.761 1.255) (end -2.761 2.23) (layer F.SilkS) (width 0.12))
  (fp_line (start 2.76 1.255) (end 2.76 2.23) (layer F.SilkS) (width 0.12))
  (fp_line (start -4.2 -2.5) (end -4.2 2.5) (layer F.CrtYd) (width 0.05))
  (fp_line (start -4.2 2.5) (end 4.2 2.5) (layer F.CrtYd) (width 0.05))
  (fp_line (start 4.2 2.5) (end 4.2 -2.5) (layer F.CrtYd) (width 0.05))
  (fp_line (start 4.2 -2.5) (end -4.2 -2.5) (layer F.CrtYd) (width 0.05))
  (pad 1 smd rect (at -2.625 -0.635) (size 2.65 0.76) (layers F.Cu F.Mask F.Paste))
  (pad 3 smd rect (at 2.625 0.635) (size 2.65 0.76) (layers F.Cu F.Mask F.Paste))
  (pad 2 smd rect (at -2.625 0.635) (size 2.65 0.76) (layers F.Cu F.Mask F.Paste))
  (pad 4 smd rect (at 2.625 -0.635) (size 2.65 0.76) (layers F.Cu F.Mask F.Paste))
  (fp_text user %R (at 1.85 0 90) (layer F.Fab)
    (effects (font (size 0.8 0.8) (thickness 0.12)))
  )
  (fp_text user on (at 0.5375 -1.6025) (layer F.Fab)
    (effects (font (size 0.8 0.8) (thickness 0.12)))
  )
  (model ${KICAD6_3DMODEL_DIR}/Button_Switch_SMD.3dshapes/SW_DIP_SPSTx02_Slide_KingTek_DSHP02TJ_W5.25mm_P1.27mm_JPin.wrl
    (at (xyz 0 0 0))
    (scale (xyz 1 1 1))
    (rotate (xyz 0 0 0))
  )
)