(module SW_DIP_SPSTx08_Slide_Copal_CHS-08B_W7.62mm_P1.27mm (layer F.Cu) (tedit 5A4E1407)
  (descr "SMD 8x-dip-switch SPST Copal_CHS-08B, Slide, row spacing 7.62 mm (300 mils), body size  (see http://www.nidec-copal-electronics.com/e/catalog/switch/chs.pdf), SMD")
  (tags "SMD DIP Switch SPST Slide 7.62mm 300mil SMD")
  (attr smd)
  (fp_text reference REF** (at 0 -6.775) (layer F.SilkS)
    (effects (font (size 1 1) (thickness 0.15)))
  )
  (fp_text value SW_DIP_SPSTx08_Slide_Copal_CHS-08B_W7.62mm_P1.27mm (at 0 6.775) (layer F.Fab)
    (effects (font (size 1 1) (thickness 0.15)))
  )
  (fp_line (start -1.7 -5.715) (end 2.7 -5.715) (layer F.Fab) (width 0.1))
  (fp_line (start 2.7 -5.715) (end 2.7 5.715) (layer F.Fab) (width 0.1))
  (fp_line (start 2.7 5.715) (end -2.7 5.715) (layer F.Fab) (width 0.1))
  (fp_line (start -2.7 5.715) (end -2.7 -4.715) (layer F.Fab) (width 0.1))
  (fp_line (start -2.7 -4.715) (end -1.7 -5.715) (layer F.Fab) (width 0.1))
  (fp_line (start -1.5 -4.695) (end -1.5 -4.195) (layer F.Fab) (width 0.1))
  (fp_line (start -1.5 -4.195) (end 1.5 -4.195) (layer F.Fab) (width 0.1))
  (fp_line (start 1.5 -4.195) (end 1.5 -4.695) (layer F.Fab) (width 0.1))
  (fp_line (start 1.5 -4.695) (end -1.5 -4.695) (layer F.Fab) (width 0.1))
  (fp_line (start -1.5 -4.595) (end -0.5 -4.595) (layer F.Fab) (width 0.1))
  (fp_line (start -1.5 -4.495) (end -0.5 -4.495) (layer F.Fab) (width 0.1))
  (fp_line (start -1.5 -4.395) (end -0.5 -4.395) (layer F.Fab) (width 0.1))
  (fp_line (start -1.5 -4.295) (end -0.5 -4.295) (layer F.Fab) (width 0.1))
  (fp_line (start -0.5 -4.695) (end -0.5 -4.195) (layer F.Fab) (width 0.1))
  (fp_line (start -1.5 -3.425) (end -1.5 -2.925) (layer F.Fab) (width 0.1))
  (fp_line (start -1.5 -2.925) (end 1.5 -2.925) (layer F.Fab) (width 0.1))
  (fp_line (start 1.5 -2.925) (end 1.5 -3.425) (layer F.Fab) (width 0.1))
  (fp_line (start 1.5 -3.425) (end -1.5 -3.425) (layer F.Fab) (width 0.1))
  (fp_line (start -1.5 -3.325) (end -0.5 -3.325) (layer F.Fab) (width 0.1))
  (fp_line (start -1.5 -3.225) (end -0.5 -3.225) (layer F.Fab) (width 0.1))
  (fp_line (start -1.5 -3.125) (end -0.5 -3.125) (layer F.Fab) (width 0.1))
  (fp_line (start -1.5 -3.025) (end -0.5 -3.025) (layer F.Fab) (width 0.1))
  (fp_line (start -0.5 -3.425) (end -0.5 -2.925) (layer F.Fab) (width 0.1))
  (fp_line (start -1.5 -2.155) (end -1.5 -1.655) (layer F.Fab) (width 0.1))
  (fp_line (start -1.5 -1.655) (end 1.5 -1.655) (layer F.Fab) (width 0.1))
  (fp_line (start 1.5 -1.655) (end 1.5 -2.155) (layer F.Fab) (width 0.1))
  (fp_line (start 1.5 -2.155) (end -1.5 -2.155) (layer F.Fab) (width 0.1))
  (fp_line (start -1.5 -2.055) (end -0.5 -2.055) (layer F.Fab) (width 0.1))
  (fp_line (start -1.5 -1.955) (end -0.5 -1.955) (layer F.Fab) (width 0.1))
  (fp_line (start -1.5 -1.855) (end -0.5 -1.855) (layer F.Fab) (width 0.1))
  (fp_line (start -1.5 -1.755) (end -0.5 -1.755) (layer F.Fab) (width 0.1))
  (fp_line (start -0.5 -2.155) (end -0.5 -1.655) (layer F.Fab) (width 0.1))
  (fp_line (start -1.5 -0.885) (end -1.5 -0.385) (layer F.Fab) (width 0.1))
  (fp_line (start -1.5 -0.385) (end 1.5 -0.385) (layer F.Fab) (width 0.1))
  (fp_line (start 1.5 -0.385) (end 1.5 -0.885) (layer F.Fab) (width 0.1))
  (fp_line (start 1.5 -0.885) (end -1.5 -0.885) (layer F.Fab) (width 0.1))
  (fp_line (start -1.5 -0.785) (end -0.5 -0.785) (layer F.Fab) (width 0.1))
  (fp_line (start -1.5 -0.685) (end -0.5 -0.685) (layer F.Fab) (width 0.1))
  (fp_line (start -1.5 -0.585) (end -0.5 -0.585) (layer F.Fab) (width 0.1))
  (fp_line (start -1.5 -0.485) (end -0.5 -0.485) (layer F.Fab) (width 0.1))
  (fp_line (start -0.5 -0.885) (end -0.5 -0.385) (layer F.Fab) (width 0.1))
  (fp_line (start -1.5 0.385) (end -1.5 0.885) (layer F.Fab) (width 0.1))
  (fp_line (start -1.5 0.885) (end 1.5 0.885) (layer F.Fab) (width 0.1))
  (fp_line (start 1.5 0.885) (end 1.5 0.385) (layer F.Fab) (width 0.1))
  (fp_line (start 1.5 0.385) (end -1.5 0.385) (layer F.Fab) (width 0.1))
  (fp_line (start -1.5 0.485) (end -0.5 0.485) (layer F.Fab) (width 0.1))
  (fp_line (start -1.5 0.585) (end -0.5 0.585) (layer F.Fab) (width 0.1))
  (fp_line (start -1.5 0.685) (end -0.5 0.685) (layer F.Fab) (width 0.1))
  (fp_line (start -1.5 0.785) (end -0.5 0.785) (layer F.Fab) (width 0.1))
  (fp_line (start -1.5 0.885) (end -0.5 0.885) (layer F.Fab) (width 0.1))
  (fp_line (start -0.5 0.385) (end -0.5 0.885) (layer F.Fab) (width 0.1))
  (fp_line (start -1.5 1.655) (end -1.5 2.155) (layer F.Fab) (width 0.1))
  (fp_line (start -1.5 2.155) (end 1.5 2.155) (layer F.Fab) (width 0.1))
  (fp_line (start 1.5 2.155) (end 1.5 1.655) (layer F.Fab) (width 0.1))
  (fp_line (start 1.5 1.655) (end -1.5 1.655) (layer F.Fab) (width 0.1))
  (fp_line (start -1.5 1.755) (end -0.5 1.755) (layer F.Fab) (width 0.1))
  (fp_line (start -1.5 1.855) (end -0.5 1.855) (layer F.Fab) (width 0.1))
  (fp_line (start -1.5 1.955) (end -0.5 1.955) (layer F.Fab) (width 0.1))
  (fp_line (start -1.5 2.055) (end -0.5 2.055) (layer F.Fab) (width 0.1))
  (fp_line (start -1.5 2.155) (end -0.5 2.155) (layer F.Fab) (width 0.1))
  (fp_line (start -0.5 1.655) (end -0.5 2.155) (layer F.Fab) (width 0.1))
  (fp_line (start -1.5 2.925) (end -1.5 3.425) (layer F.Fab) (width 0.1))
  (fp_line (start -1.5 3.425) (end 1.5 3.425) (layer F.Fab) (width 0.1))
  (fp_line (start 1.5 3.425) (end 1.5 2.925) (layer F.Fab) (width 0.1))
  (fp_line (start 1.5 2.925) (end -1.5 2.925) (layer F.Fab) (width 0.1))
  (fp_line (start -1.5 3.025) (end -0.5 3.025) (layer F.Fab) (width 0.1))
  (fp_line (start -1.5 3.125) (end -0.5 3.125) (layer F.Fab) (width 0.1))
  (fp_line (start -1.5 3.225) (end -0.5 3.225) (layer F.Fab) (width 0.1))
  (fp_line (start -1.5 3.325) (end -0.5 3.325) (layer F.Fab) (width 0.1))
  (fp_line (start -1.5 3.425) (end -0.5 3.425) (layer F.Fab) (width 0.1))
  (fp_line (start -0.5 2.925) (end -0.5 3.425) (layer F.Fab) (width 0.1))
  (fp_line (start -1.5 4.195) (end -1.5 4.695) (layer F.Fab) (width 0.1))
  (fp_line (start -1.5 4.695) (end 1.5 4.695) (layer F.Fab) (width 0.1))
  (fp_line (start 1.5 4.695) (end 1.5 4.195) (layer F.Fab) (width 0.1))
  (fp_line (start 1.5 4.195) (end -1.5 4.195) (layer F.Fab) (width 0.1))
  (fp_line (start -1.5 4.295) (end -0.5 4.295) (layer F.Fab) (width 0.1))
  (fp_line (start -1.5 4.395) (end -0.5 4.395) (layer F.Fab) (width 0.1))
  (fp_line (start -1.5 4.495) (end -0.5 4.495) (layer F.Fab) (width 0.1))
  (fp_line (start -1.5 4.595) (end -0.5 4.595) (layer F.Fab) (width 0.1))
  (fp_line (start -1.5 4.695) (end -0.5 4.695) (layer F.Fab) (width 0.1))
  (fp_line (start -0.5 4.195) (end -0.5 4.695) (layer F.Fab) (width 0.1))
  (fp_line (start -2.76 5.775) (end 2.76 5.775) (layer F.SilkS) (width 0.12))
  (fp_line (start -4.61 -5.125) (end -2.76 -5.125) (layer F.SilkS) (width 0.12))
  (fp_line (start -2.76 -5.775) (end -2.76 -5.125) (layer F.SilkS) (width 0.12))
  (fp_line (start -2.76 -5.775) (end 2.76 -5.775) (layer F.SilkS) (width 0.12))
  (fp_line (start 2.76 -5.775) (end 2.76 -4.506) (layer F.SilkS) (width 0.12))
  (fp_line (start -2.76 4.505) (end -2.76 5.775) (layer F.SilkS) (width 0.12))
  (fp_line (start 2.76 4.505) (end 2.76 5.775) (layer F.SilkS) (width 0.12))
  (fp_line (start -4.9 -6.05) (end -4.9 6.05) (layer F.CrtYd) (width 0.05))
  (fp_line (start -4.9 6.05) (end 4.9 6.05) (layer F.CrtYd) (width 0.05))
  (fp_line (start 4.9 6.05) (end 4.9 -6.05) (layer F.CrtYd) (width 0.05))
  (fp_line (start 4.9 -6.05) (end -4.9 -6.05) (layer F.CrtYd) (width 0.05))
  (pad 1 smd rect (at -3.81 -4.445) (size 1.6 0.76) (layers F.Cu F.Mask F.Paste))
  (pad 9 smd rect (at 3.81 4.445) (size 1.6 0.76) (layers F.Cu F.Mask F.Paste))
  (pad 2 smd rect (at -3.81 -3.175) (size 1.6 0.76) (layers F.Cu F.Mask F.Paste))
  (pad 10 smd rect (at 3.81 3.175) (size 1.6 0.76) (layers F.Cu F.Mask F.Paste))
  (pad 3 smd rect (at -3.81 -1.905) (size 1.6 0.76) (layers F.Cu F.Mask F.Paste))
  (pad 11 smd rect (at 3.81 1.905) (size 1.6 0.76) (layers F.Cu F.Mask F.Paste))
  (pad 4 smd rect (at -3.81 -0.635) (size 1.6 0.76) (layers F.Cu F.Mask F.Paste))
  (pad 12 smd rect (at 3.81 0.635) (size 1.6 0.76) (layers F.Cu F.Mask F.Paste))
  (pad 5 smd rect (at -3.81 0.635) (size 1.6 0.76) (layers F.Cu F.Mask F.Paste))
  (pad 13 smd rect (at 3.81 -0.635) (size 1.6 0.76) (layers F.Cu F.Mask F.Paste))
  (pad 6 smd rect (at -3.81 1.905) (size 1.6 0.76) (layers F.Cu F.Mask F.Paste))
  (pad 14 smd rect (at 3.81 -1.905) (size 1.6 0.76) (layers F.Cu F.Mask F.Paste))
  (pad 7 smd rect (at -3.81 3.175) (size 1.6 0.76) (layers F.Cu F.Mask F.Paste))
  (pad 15 smd rect (at 3.81 -3.175) (size 1.6 0.76) (layers F.Cu F.Mask F.Paste))
  (pad 8 smd rect (at -3.81 4.445) (size 1.6 0.76) (layers F.Cu F.Mask F.Paste))
  (pad 16 smd rect (at 3.81 -4.445) (size 1.6 0.76) (layers F.Cu F.Mask F.Paste))
  (fp_text user %R (at 2.1 0 90) (layer F.Fab)
    (effects (font (size 0.8 0.8) (thickness 0.12)))
  )
  (fp_text user on (at 0.195 -5.205) (layer F.Fab)
    (effects (font (size 0.8 0.8) (thickness 0.12)))
  )
  (model ${KICAD6_3DMODEL_DIR}/Button_Switch_SMD.3dshapes/SW_DIP_SPSTx08_Slide_Copal_CHS-08B_W7.62mm_P1.27mm.wrl
    (at (xyz 0 0 0))
    (scale (xyz 1 1 1))
    (rotate (xyz 0 0 0))
  )
)