(module SW_DIP_SPSTx01_Slide_9.78x4.72mm_W8.61mm_P2.54mm (layer F.Cu) (tedit 5A4E1404)
  (descr "SMD 1x-dip-switch SPST , Slide, row spacing 8.61 mm (338 mils), body size 9.78x4.72mm (see e.g. https://www.ctscorp.com/wp-content/uploads/204.pdf), SMD")
  (tags "SMD DIP Switch SPST Slide 8.61mm 338mil SMD")
  (attr smd)
  (fp_text reference REF** (at 0 -3.42) (layer F.SilkS)
    (effects (font (size 1 1) (thickness 0.15)))
  )
  (fp_text value SW_DIP_SPSTx01_Slide_9.78x4.72mm_W8.61mm_P2.54mm (at 0 3.42) (layer F.Fab)
    (effects (font (size 1 1) (thickness 0.15)))
  )
  (fp_line (start -3.89 -2.36) (end 4.89 -2.36) (layer F.Fab) (width 0.1))
  (fp_line (start 4.89 -2.36) (end 4.89 2.36) (layer F.Fab) (width 0.1))
  (fp_line (start 4.89 2.36) (end -4.89 2.36) (layer F.Fab) (width 0.1))
  (fp_line (start -4.89 2.36) (end -4.89 -1.36) (layer F.Fab) (width 0.1))
  (fp_line (start -4.89 -1.36) (end -3.89 -2.36) (layer F.Fab) (width 0.1))
  (fp_line (start -2.03 -0.635) (end -2.03 0.635) (layer F.Fab) (width 0.1))
  (fp_line (start -2.03 0.635) (end 2.03 0.635) (layer F.Fab) (width 0.1))
  (fp_line (start 2.03 0.635) (end 2.03 -0.635) (layer F.Fab) (width 0.1))
  (fp_line (start 2.03 -0.635) (end -2.03 -0.635) (layer F.Fab) (width 0.1))
  (fp_line (start -2.03 -0.535) (end -0.676667 -0.535) (layer F.Fab) (width 0.1))
  (fp_line (start -2.03 -0.435) (end -0.676667 -0.435) (layer F.Fab) (width 0.1))
  (fp_line (start -2.03 -0.335) (end -0.676667 -0.335) (layer F.Fab) (width 0.1))
  (fp_line (start -2.03 -0.235) (end -0.676667 -0.235) (layer F.Fab) (width 0.1))
  (fp_line (start -2.03 -0.135) (end -0.676667 -0.135) (layer F.Fab) (width 0.1))
  (fp_line (start -2.03 -0.035) (end -0.676667 -0.035) (layer F.Fab) (width 0.1))
  (fp_line (start -2.03 0.065) (end -0.676667 0.065) (layer F.Fab) (width 0.1))
  (fp_line (start -2.03 0.165) (end -0.676667 0.165) (layer F.Fab) (width 0.1))
  (fp_line (start -2.03 0.265) (end -0.676667 0.265) (layer F.Fab) (width 0.1))
  (fp_line (start -2.03 0.365) (end -0.676667 0.365) (layer F.Fab) (width 0.1))
  (fp_line (start -2.03 0.465) (end -0.676667 0.465) (layer F.Fab) (width 0.1))
  (fp_line (start -2.03 0.565) (end -0.676667 0.565) (layer F.Fab) (width 0.1))
  (fp_line (start -0.676667 -0.635) (end -0.676667 0.635) (layer F.Fab) (width 0.1))
  (fp_line (start -4.95 -2.42) (end 4.95 -2.42) (layer F.SilkS) (width 0.12))
  (fp_line (start -4.95 2.42) (end 4.95 2.42) (layer F.SilkS) (width 0.12))
  (fp_line (start -4.95 -2.42) (end -4.95 -0.8) (layer F.SilkS) (width 0.12))
  (fp_line (start -4.95 0.8) (end -4.95 2.42) (layer F.SilkS) (width 0.12))
  (fp_line (start 4.95 -2.42) (end 4.95 -0.8) (layer F.SilkS) (width 0.12))
  (fp_line (start 4.95 0.8) (end 4.95 2.42) (layer F.SilkS) (width 0.12))
  (fp_line (start -5.19 -2.66) (end -3.806 -2.66) (layer F.SilkS) (width 0.12))
  (fp_line (start -5.19 -2.66) (end -5.19 -1.277) (layer F.SilkS) (width 0.12))
  (fp_line (start -2.03 -0.635) (end -2.03 0.635) (layer F.SilkS) (width 0.12))
  (fp_line (start -2.03 0.635) (end 2.03 0.635) (layer F.SilkS) (width 0.12))
  (fp_line (start 2.03 0.635) (end 2.03 -0.635) (layer F.SilkS) (width 0.12))
  (fp_line (start 2.03 -0.635) (end -2.03 -0.635) (layer F.SilkS) (width 0.12))
  (fp_line (start -2.03 -0.515) (end -0.676667 -0.515) (layer F.SilkS) (width 0.12))
  (fp_line (start -2.03 -0.395) (end -0.676667 -0.395) (layer F.SilkS) (width 0.12))
  (fp_line (start -2.03 -0.275) (end -0.676667 -0.275) (layer F.SilkS) (width 0.12))
  (fp_line (start -2.03 -0.155) (end -0.676667 -0.155) (layer F.SilkS) (width 0.12))
  (fp_line (start -2.03 -0.035) (end -0.676667 -0.035) (layer F.SilkS) (width 0.12))
  (fp_line (start -2.03 0.085) (end -0.676667 0.085) (layer F.SilkS) (width 0.12))
  (fp_line (start -2.03 0.205) (end -0.676667 0.205) (layer F.SilkS) (width 0.12))
  (fp_line (start -2.03 0.325) (end -0.676667 0.325) (layer F.SilkS) (width 0.12))
  (fp_line (start -2.03 0.445) (end -0.676667 0.445) (layer F.SilkS) (width 0.12))
  (fp_line (start -2.03 0.565) (end -0.676667 0.565) (layer F.SilkS) (width 0.12))
  (fp_line (start -0.676667 -0.635) (end -0.676667 0.635) (layer F.SilkS) (width 0.12))
  (fp_line (start -5.8 -2.7) (end -5.8 2.7) (layer F.CrtYd) (width 0.05))
  (fp_line (start -5.8 2.7) (end 5.8 2.7) (layer F.CrtYd) (width 0.05))
  (fp_line (start 5.8 2.7) (end 5.8 -2.7) (layer F.CrtYd) (width 0.05))
  (fp_line (start 5.8 -2.7) (end -5.8 -2.7) (layer F.CrtYd) (width 0.05))
  (pad 1 smd rect (at -4.305 0) (size 2.44 1.12) (layers F.Cu F.Mask F.Paste))
  (pad 2 smd rect (at 4.305 0) (size 2.44 1.12) (layers F.Cu F.Mask F.Paste))
  (fp_text user %R (at 3.46 0 90) (layer F.Fab)
    (effects (font (size 0.6 0.6) (thickness 0.09)))
  )
  (fp_text user on (at 1.3075 -1.4975) (layer F.Fab)
    (effects (font (size 0.6 0.6) (thickness 0.09)))
  )
  (model ${KICAD6_3DMODEL_DIR}/Button_Switch_SMD.3dshapes/SW_DIP_SPSTx01_Slide_9.78x4.72mm_W8.61mm_P2.54mm.wrl
    (at (xyz 0 0 0))
    (scale (xyz 1 1 1))
    (rotate (xyz 0 0 90))
  )
)