(module SW_DIP_SPSTx08_Slide_9.78x22.5mm_W8.61mm_P2.54mm (layer F.Cu) (tedit 5A4E1405)
  (descr "SMD 8x-dip-switch SPST , Slide, row spacing 8.61 mm (338 mils), body size 9.78x22.5mm (see e.g. https://www.ctscorp.com/wp-content/uploads/204.pdf), SMD")
  (tags "SMD DIP Switch SPST Slide 8.61mm 338mil SMD")
  (attr smd)
  (fp_text reference REF** (at 0 -12.31) (layer F.SilkS)
    (effects (font (size 1 1) (thickness 0.15)))
  )
  (fp_text value SW_DIP_SPSTx08_Slide_9.78x22.5mm_W8.61mm_P2.54mm (at 0 12.31) (layer F.Fab)
    (effects (font (size 1 1) (thickness 0.15)))
  )
  (fp_line (start -3.89 -11.25) (end 4.89 -11.25) (layer F.Fab) (width 0.1))
  (fp_line (start 4.89 -11.25) (end 4.89 11.25) (layer F.Fab) (width 0.1))
  (fp_line (start 4.89 11.25) (end -4.89 11.25) (layer F.Fab) (width 0.1))
  (fp_line (start -4.89 11.25) (end -4.89 -10.25) (layer F.Fab) (width 0.1))
  (fp_line (start -4.89 -10.25) (end -3.89 -11.25) (layer F.Fab) (width 0.1))
  (fp_line (start -2.03 -9.525) (end -2.03 -8.255) (layer F.Fab) (width 0.1))
  (fp_line (start -2.03 -8.255) (end 2.03 -8.255) (layer F.Fab) (width 0.1))
  (fp_line (start 2.03 -8.255) (end 2.03 -9.525) (layer F.Fab) (width 0.1))
  (fp_line (start 2.03 -9.525) (end -2.03 -9.525) (layer F.Fab) (width 0.1))
  (fp_line (start -2.03 -9.425) (end -0.676667 -9.425) (layer F.Fab) (width 0.1))
  (fp_line (start -2.03 -9.325) (end -0.676667 -9.325) (layer F.Fab) (width 0.1))
  (fp_line (start -2.03 -9.225) (end -0.676667 -9.225) (layer F.Fab) (width 0.1))
  (fp_line (start -2.03 -9.125) (end -0.676667 -9.125) (layer F.Fab) (width 0.1))
  (fp_line (start -2.03 -9.025) (end -0.676667 -9.025) (layer F.Fab) (width 0.1))
  (fp_line (start -2.03 -8.925) (end -0.676667 -8.925) (layer F.Fab) (width 0.1))
  (fp_line (start -2.03 -8.825) (end -0.676667 -8.825) (layer F.Fab) (width 0.1))
  (fp_line (start -2.03 -8.725) (end -0.676667 -8.725) (layer F.Fab) (width 0.1))
  (fp_line (start -2.03 -8.625) (end -0.676667 -8.625) (layer F.Fab) (width 0.1))
  (fp_line (start -2.03 -8.525) (end -0.676667 -8.525) (layer F.Fab) (width 0.1))
  (fp_line (start -2.03 -8.425) (end -0.676667 -8.425) (layer F.Fab) (width 0.1))
  (fp_line (start -2.03 -8.325) (end -0.676667 -8.325) (layer F.Fab) (width 0.1))
  (fp_line (start -0.676667 -9.525) (end -0.676667 -8.255) (layer F.Fab) (width 0.1))
  (fp_line (start -2.03 -6.985) (end -2.03 -5.715) (layer F.Fab) (width 0.1))
  (fp_line (start -2.03 -5.715) (end 2.03 -5.715) (layer F.Fab) (width 0.1))
  (fp_line (start 2.03 -5.715) (end 2.03 -6.985) (layer F.Fab) (width 0.1))
  (fp_line (start 2.03 -6.985) (end -2.03 -6.985) (layer F.Fab) (width 0.1))
  (fp_line (start -2.03 -6.885) (end -0.676667 -6.885) (layer F.Fab) (width 0.1))
  (fp_line (start -2.03 -6.785) (end -0.676667 -6.785) (layer F.Fab) (width 0.1))
  (fp_line (start -2.03 -6.685) (end -0.676667 -6.685) (layer F.Fab) (width 0.1))
  (fp_line (start -2.03 -6.585) (end -0.676667 -6.585) (layer F.Fab) (width 0.1))
  (fp_line (start -2.03 -6.485) (end -0.676667 -6.485) (layer F.Fab) (width 0.1))
  (fp_line (start -2.03 -6.385) (end -0.676667 -6.385) (layer F.Fab) (width 0.1))
  (fp_line (start -2.03 -6.285) (end -0.676667 -6.285) (layer F.Fab) (width 0.1))
  (fp_line (start -2.03 -6.185) (end -0.676667 -6.185) (layer F.Fab) (width 0.1))
  (fp_line (start -2.03 -6.085) (end -0.676667 -6.085) (layer F.Fab) (width 0.1))
  (fp_line (start -2.03 -5.985) (end -0.676667 -5.985) (layer F.Fab) (width 0.1))
  (fp_line (start -2.03 -5.885) (end -0.676667 -5.885) (layer F.Fab) (width 0.1))
  (fp_line (start -2.03 -5.785) (end -0.676667 -5.785) (layer F.Fab) (width 0.1))
  (fp_line (start -0.676667 -6.985) (end -0.676667 -5.715) (layer F.Fab) (width 0.1))
  (fp_line (start -2.03 -4.445) (end -2.03 -3.175) (layer F.Fab) (width 0.1))
  (fp_line (start -2.03 -3.175) (end 2.03 -3.175) (layer F.Fab) (width 0.1))
  (fp_line (start 2.03 -3.175) (end 2.03 -4.445) (layer F.Fab) (width 0.1))
  (fp_line (start 2.03 -4.445) (end -2.03 -4.445) (layer F.Fab) (width 0.1))
  (fp_line (start -2.03 -4.345) (end -0.676667 -4.345) (layer F.Fab) (width 0.1))
  (fp_line (start -2.03 -4.245) (end -0.676667 -4.245) (layer F.Fab) (width 0.1))
  (fp_line (start -2.03 -4.145) (end -0.676667 -4.145) (layer F.Fab) (width 0.1))
  (fp_line (start -2.03 -4.045) (end -0.676667 -4.045) (layer F.Fab) (width 0.1))
  (fp_line (start -2.03 -3.945) (end -0.676667 -3.945) (layer F.Fab) (width 0.1))
  (fp_line (start -2.03 -3.845) (end -0.676667 -3.845) (layer F.Fab) (width 0.1))
  (fp_line (start -2.03 -3.745) (end -0.676667 -3.745) (layer F.Fab) (width 0.1))
  (fp_line (start -2.03 -3.645) (end -0.676667 -3.645) (layer F.Fab) (width 0.1))
  (fp_line (start -2.03 -3.545) (end -0.676667 -3.545) (layer F.Fab) (width 0.1))
  (fp_line (start -2.03 -3.445) (end -0.676667 -3.445) (layer F.Fab) (width 0.1))
  (fp_line (start -2.03 -3.345) (end -0.676667 -3.345) (layer F.Fab) (width 0.1))
  (fp_line (start -2.03 -3.245) (end -0.676667 -3.245) (layer F.Fab) (width 0.1))
  (fp_line (start -0.676667 -4.445) (end -0.676667 -3.175) (layer F.Fab) (width 0.1))
  (fp_line (start -2.03 -1.905) (end -2.03 -0.635) (layer F.Fab) (width 0.1))
  (fp_line (start -2.03 -0.635) (end 2.03 -0.635) (layer F.Fab) (width 0.1))
  (fp_line (start 2.03 -0.635) (end 2.03 -1.905) (layer F.Fab) (width 0.1))
  (fp_line (start 2.03 -1.905) (end -2.03 -1.905) (layer F.Fab) (width 0.1))
  (fp_line (start -2.03 -1.805) (end -0.676667 -1.805) (layer F.Fab) (width 0.1))
  (fp_line (start -2.03 -1.705) (end -0.676667 -1.705) (layer F.Fab) (width 0.1))
  (fp_line (start -2.03 -1.605) (end -0.676667 -1.605) (layer F.Fab) (width 0.1))
  (fp_line (start -2.03 -1.505) (end -0.676667 -1.505) (layer F.Fab) (width 0.1))
  (fp_line (start -2.03 -1.405) (end -0.676667 -1.405) (layer F.Fab) (width 0.1))
  (fp_line (start -2.03 -1.305) (end -0.676667 -1.305) (layer F.Fab) (width 0.1))
  (fp_line (start -2.03 -1.205) (end -0.676667 -1.205) (layer F.Fab) (width 0.1))
  (fp_line (start -2.03 -1.105) (end -0.676667 -1.105) (layer F.Fab) (width 0.1))
  (fp_line (start -2.03 -1.005) (end -0.676667 -1.005) (layer F.Fab) (width 0.1))
  (fp_line (start -2.03 -0.905) (end -0.676667 -0.905) (layer F.Fab) (width 0.1))
  (fp_line (start -2.03 -0.805) (end -0.676667 -0.805) (layer F.Fab) (width 0.1))
  (fp_line (start -2.03 -0.705) (end -0.676667 -0.705) (layer F.Fab) (width 0.1))
  (fp_line (start -0.676667 -1.905) (end -0.676667 -0.635) (layer F.Fab) (width 0.1))
  (fp_line (start -2.03 0.635) (end -2.03 1.905) (layer F.Fab) (width 0.1))
  (fp_line (start -2.03 1.905) (end 2.03 1.905) (layer F.Fab) (width 0.1))
  (fp_line (start 2.03 1.905) (end 2.03 0.635) (layer F.Fab) (width 0.1))
  (fp_line (start 2.03 0.635) (end -2.03 0.635) (layer F.Fab) (width 0.1))
  (fp_line (start -2.03 0.735) (end -0.676667 0.735) (layer F.Fab) (width 0.1))
  (fp_line (start -2.03 0.835) (end -0.676667 0.835) (layer F.Fab) (width 0.1))
  (fp_line (start -2.03 0.935) (end -0.676667 0.935) (layer F.Fab) (width 0.1))
  (fp_line (start -2.03 1.035) (end -0.676667 1.035) (layer F.Fab) (width 0.1))
  (fp_line (start -2.03 1.135) (end -0.676667 1.135) (layer F.Fab) (width 0.1))
  (fp_line (start -2.03 1.235) (end -0.676667 1.235) (layer F.Fab) (width 0.1))
  (fp_line (start -2.03 1.335) (end -0.676667 1.335) (layer F.Fab) (width 0.1))
  (fp_line (start -2.03 1.435) (end -0.676667 1.435) (layer F.Fab) (width 0.1))
  (fp_line (start -2.03 1.535) (end -0.676667 1.535) (layer F.Fab) (width 0.1))
  (fp_line (start -2.03 1.635) (end -0.676667 1.635) (layer F.Fab) (width 0.1))
  (fp_line (start -2.03 1.735) (end -0.676667 1.735) (layer F.Fab) (width 0.1))
  (fp_line (start -2.03 1.835) (end -0.676667 1.835) (layer F.Fab) (width 0.1))
  (fp_line (start -0.676667 0.635) (end -0.676667 1.905) (layer F.Fab) (width 0.1))
  (fp_line (start -2.03 3.175) (end -2.03 4.445) (layer F.Fab) (width 0.1))
  (fp_line (start -2.03 4.445) (end 2.03 4.445) (layer F.Fab) (width 0.1))
  (fp_line (start 2.03 4.445) (end 2.03 3.175) (layer F.Fab) (width 0.1))
  (fp_line (start 2.03 3.175) (end -2.03 3.175) (layer F.Fab) (width 0.1))
  (fp_line (start -2.03 3.275) (end -0.676667 3.275) (layer F.Fab) (width 0.1))
  (fp_line (start -2.03 3.375) (end -0.676667 3.375) (layer F.Fab) (width 0.1))
  (fp_line (start -2.03 3.475) (end -0.676667 3.475) (layer F.Fab) (width 0.1))
  (fp_line (start -2.03 3.575) (end -0.676667 3.575) (layer F.Fab) (width 0.1))
  (fp_line (start -2.03 3.675) (end -0.676667 3.675) (layer F.Fab) (width 0.1))
  (fp_line (start -2.03 3.775) (end -0.676667 3.775) (layer F.Fab) (width 0.1))
  (fp_line (start -2.03 3.875) (end -0.676667 3.875) (layer F.Fab) (width 0.1))
  (fp_line (start -2.03 3.975) (end -0.676667 3.975) (layer F.Fab) (width 0.1))
  (fp_line (start -2.03 4.075) (end -0.676667 4.075) (layer F.Fab) (width 0.1))
  (fp_line (start -2.03 4.175) (end -0.676667 4.175) (layer F.Fab) (width 0.1))
  (fp_line (start -2.03 4.275) (end -0.676667 4.275) (layer F.Fab) (width 0.1))
  (fp_line (start -2.03 4.375) (end -0.676667 4.375) (layer F.Fab) (width 0.1))
  (fp_line (start -0.676667 3.175) (end -0.676667 4.445) (layer F.Fab) (width 0.1))
  (fp_line (start -2.03 5.715) (end -2.03 6.985) (layer F.Fab) (width 0.1))
  (fp_line (start -2.03 6.985) (end 2.03 6.985) (layer F.Fab) (width 0.1))
  (fp_line (start 2.03 6.985) (end 2.03 5.715) (layer F.Fab) (width 0.1))
  (fp_line (start 2.03 5.715) (end -2.03 5.715) (layer F.Fab) (width 0.1))
  (fp_line (start -2.03 5.815) (end -0.676667 5.815) (layer F.Fab) (width 0.1))
  (fp_line (start -2.03 5.915) (end -0.676667 5.915) (layer F.Fab) (width 0.1))
  (fp_line (start -2.03 6.015) (end -0.676667 6.015) (layer F.Fab) (width 0.1))
  (fp_line (start -2.03 6.115) (end -0.676667 6.115) (layer F.Fab) (width 0.1))
  (fp_line (start -2.03 6.215) (end -0.676667 6.215) (layer F.Fab) (width 0.1))
  (fp_line (start -2.03 6.315) (end -0.676667 6.315) (layer F.Fab) (width 0.1))
  (fp_line (start -2.03 6.415) (end -0.676667 6.415) (layer F.Fab) (width 0.1))
  (fp_line (start -2.03 6.515) (end -0.676667 6.515) (layer F.Fab) (width 0.1))
  (fp_line (start -2.03 6.615) (end -0.676667 6.615) (layer F.Fab) (width 0.1))
  (fp_line (start -2.03 6.715) (end -0.676667 6.715) (layer F.Fab) (width 0.1))
  (fp_line (start -2.03 6.815) (end -0.676667 6.815) (layer F.Fab) (width 0.1))
  (fp_line (start -2.03 6.915) (end -0.676667 6.915) (layer F.Fab) (width 0.1))
  (fp_line (start -0.676667 5.715) (end -0.676667 6.985) (layer F.Fab) (width 0.1))
  (fp_line (start -2.03 8.255) (end -2.03 9.525) (layer F.Fab) (width 0.1))
  (fp_line (start -2.03 9.525) (end 2.03 9.525) (layer F.Fab) (width 0.1))
  (fp_line (start 2.03 9.525) (end 2.03 8.255) (layer F.Fab) (width 0.1))
  (fp_line (start 2.03 8.255) (end -2.03 8.255) (layer F.Fab) (width 0.1))
  (fp_line (start -2.03 8.355) (end -0.676667 8.355) (layer F.Fab) (width 0.1))
  (fp_line (start -2.03 8.455) (end -0.676667 8.455) (layer F.Fab) (width 0.1))
  (fp_line (start -2.03 8.555) (end -0.676667 8.555) (layer F.Fab) (width 0.1))
  (fp_line (start -2.03 8.655) (end -0.676667 8.655) (layer F.Fab) (width 0.1))
  (fp_line (start -2.03 8.755) (end -0.676667 8.755) (layer F.Fab) (width 0.1))
  (fp_line (start -2.03 8.855) (end -0.676667 8.855) (layer F.Fab) (width 0.1))
  (fp_line (start -2.03 8.955) (end -0.676667 8.955) (layer F.Fab) (width 0.1))
  (fp_line (start -2.03 9.055) (end -0.676667 9.055) (layer F.Fab) (width 0.1))
  (fp_line (start -2.03 9.155) (end -0.676667 9.155) (layer F.Fab) (width 0.1))
  (fp_line (start -2.03 9.255) (end -0.676667 9.255) (layer F.Fab) (width 0.1))
  (fp_line (start -2.03 9.355) (end -0.676667 9.355) (layer F.Fab) (width 0.1))
  (fp_line (start -2.03 9.455) (end -0.676667 9.455) (layer F.Fab) (width 0.1))
  (fp_line (start -0.676667 8.255) (end -0.676667 9.525) (layer F.Fab) (width 0.1))
  (fp_line (start -4.95 -11.31) (end 4.95 -11.31) (layer F.SilkS) (width 0.12))
  (fp_line (start -4.95 11.311) (end 4.95 11.311) (layer F.SilkS) (width 0.12))
  (fp_line (start -4.95 -11.31) (end -4.95 -9.69) (layer F.SilkS) (width 0.12))
  (fp_line (start -4.95 -8.09) (end -4.95 -7.15) (layer F.SilkS) (width 0.12))
  (fp_line (start -4.95 -5.55) (end -4.95 -4.61) (layer F.SilkS) (width 0.12))
  (fp_line (start -4.95 -3.01) (end -4.95 -2.07) (layer F.SilkS) (width 0.12))
  (fp_line (start -4.95 -0.47) (end -4.95 0.47) (layer F.SilkS) (width 0.12))
  (fp_line (start -4.95 2.07) (end -4.95 3.01) (layer F.SilkS) (width 0.12))
  (fp_line (start -4.95 4.61) (end -4.95 5.55) (layer F.SilkS) (width 0.12))
  (fp_line (start -4.95 7.15) (end -4.95 8.09) (layer F.SilkS) (width 0.12))
  (fp_line (start -4.95 9.69) (end -4.95 11.311) (layer F.SilkS) (width 0.12))
  (fp_line (start 4.95 9.69) (end 4.95 11.311) (layer F.SilkS) (width 0.12))
  (fp_line (start 4.95 7.151) (end 4.95 8.09) (layer F.SilkS) (width 0.12))
  (fp_line (start 4.95 4.611) (end 4.95 5.551) (layer F.SilkS) (width 0.12))
  (fp_line (start 4.95 2.071) (end 4.95 3.011) (layer F.SilkS) (width 0.12))
  (fp_line (start 4.95 -0.469) (end 4.95 0.471) (layer F.SilkS) (width 0.12))
  (fp_line (start 4.95 -3.009) (end 4.95 -2.069) (layer F.SilkS) (width 0.12))
  (fp_line (start 4.95 -5.549) (end 4.95 -4.609) (layer F.SilkS) (width 0.12))
  (fp_line (start 4.95 -11.31) (end 4.95 -9.69) (layer F.SilkS) (width 0.12))
  (fp_line (start 4.95 -8.089) (end 4.95 -7.149) (layer F.SilkS) (width 0.12))
  (fp_line (start -5.19 -11.55) (end -3.806 -11.55) (layer F.SilkS) (width 0.12))
  (fp_line (start -5.19 -11.55) (end -5.19 -10.167) (layer F.SilkS) (width 0.12))
  (fp_line (start -2.03 -9.525) (end -2.03 -8.255) (layer F.SilkS) (width 0.12))
  (fp_line (start -2.03 -8.255) (end 2.03 -8.255) (layer F.SilkS) (width 0.12))
  (fp_line (start 2.03 -8.255) (end 2.03 -9.525) (layer F.SilkS) (width 0.12))
  (fp_line (start 2.03 -9.525) (end -2.03 -9.525) (layer F.SilkS) (width 0.12))
  (fp_line (start -2.03 -9.405) (end -0.676667 -9.405) (layer F.SilkS) (width 0.12))
  (fp_line (start -2.03 -9.285) (end -0.676667 -9.285) (layer F.SilkS) (width 0.12))
  (fp_line (start -2.03 -9.165) (end -0.676667 -9.165) (layer F.SilkS) (width 0.12))
  (fp_line (start -2.03 -9.045) (end -0.676667 -9.045) (layer F.SilkS) (width 0.12))
  (fp_line (start -2.03 -8.925) (end -0.676667 -8.925) (layer F.SilkS) (width 0.12))
  (fp_line (start -2.03 -8.805) (end -0.676667 -8.805) (layer F.SilkS) (width 0.12))
  (fp_line (start -2.03 -8.685) (end -0.676667 -8.685) (layer F.SilkS) (width 0.12))
  (fp_line (start -2.03 -8.565) (end -0.676667 -8.565) (layer F.SilkS) (width 0.12))
  (fp_line (start -2.03 -8.445) (end -0.676667 -8.445) (layer F.SilkS) (width 0.12))
  (fp_line (start -2.03 -8.325) (end -0.676667 -8.325) (layer F.SilkS) (width 0.12))
  (fp_line (start -0.676667 -9.525) (end -0.676667 -8.255) (layer F.SilkS) (width 0.12))
  (fp_line (start -2.03 -6.985) (end -2.03 -5.715) (layer F.SilkS) (width 0.12))
  (fp_line (start -2.03 -5.715) (end 2.03 -5.715) (layer F.SilkS) (width 0.12))
  (fp_line (start 2.03 -5.715) (end 2.03 -6.985) (layer F.SilkS) (width 0.12))
  (fp_line (start 2.03 -6.985) (end -2.03 -6.985) (layer F.SilkS) (width 0.12))
  (fp_line (start -2.03 -6.865) (end -0.676667 -6.865) (layer F.SilkS) (width 0.12))
  (fp_line (start -2.03 -6.745) (end -0.676667 -6.745) (layer F.SilkS) (width 0.12))
  (fp_line (start -2.03 -6.625) (end -0.676667 -6.625) (layer F.SilkS) (width 0.12))
  (fp_line (start -2.03 -6.505) (end -0.676667 -6.505) (layer F.SilkS) (width 0.12))
  (fp_line (start -2.03 -6.385) (end -0.676667 -6.385) (layer F.SilkS) (width 0.12))
  (fp_line (start -2.03 -6.265) (end -0.676667 -6.265) (layer F.SilkS) (width 0.12))
  (fp_line (start -2.03 -6.145) (end -0.676667 -6.145) (layer F.SilkS) (width 0.12))
  (fp_line (start -2.03 -6.025) (end -0.676667 -6.025) (layer F.SilkS) (width 0.12))
  (fp_line (start -2.03 -5.905) (end -0.676667 -5.905) (layer F.SilkS) (width 0.12))
  (fp_line (start -2.03 -5.785) (end -0.676667 -5.785) (layer F.SilkS) (width 0.12))
  (fp_line (start -0.676667 -6.985) (end -0.676667 -5.715) (layer F.SilkS) (width 0.12))
  (fp_line (start -2.03 -4.445) (end -2.03 -3.175) (layer F.SilkS) (width 0.12))
  (fp_line (start -2.03 -3.175) (end 2.03 -3.175) (layer F.SilkS) (width 0.12))
  (fp_line (start 2.03 -3.175) (end 2.03 -4.445) (layer F.SilkS) (width 0.12))
  (fp_line (start 2.03 -4.445) (end -2.03 -4.445) (layer F.SilkS) (width 0.12))
  (fp_line (start -2.03 -4.325) (end -0.676667 -4.325) (layer F.SilkS) (width 0.12))
  (fp_line (start -2.03 -4.205) (end -0.676667 -4.205) (layer F.SilkS) (width 0.12))
  (fp_line (start -2.03 -4.085) (end -0.676667 -4.085) (layer F.SilkS) (width 0.12))
  (fp_line (start -2.03 -3.965) (end -0.676667 -3.965) (layer F.SilkS) (width 0.12))
  (fp_line (start -2.03 -3.845) (end -0.676667 -3.845) (layer F.SilkS) (width 0.12))
  (fp_line (start -2.03 -3.725) (end -0.676667 -3.725) (layer F.SilkS) (width 0.12))
  (fp_line (start -2.03 -3.605) (end -0.676667 -3.605) (layer F.SilkS) (width 0.12))
  (fp_line (start -2.03 -3.485) (end -0.676667 -3.485) (layer F.SilkS) (width 0.12))
  (fp_line (start -2.03 -3.365) (end -0.676667 -3.365) (layer F.SilkS) (width 0.12))
  (fp_line (start -2.03 -3.245) (end -0.676667 -3.245) (layer F.SilkS) (width 0.12))
  (fp_line (start -0.676667 -4.445) (end -0.676667 -3.175) (layer F.SilkS) (width 0.12))
  (fp_line (start -2.03 -1.905) (end -2.03 -0.635) (layer F.SilkS) (width 0.12))
  (fp_line (start -2.03 -0.635) (end 2.03 -0.635) (layer F.SilkS) (width 0.12))
  (fp_line (start 2.03 -0.635) (end 2.03 -1.905) (layer F.SilkS) (width 0.12))
  (fp_line (start 2.03 -1.905) (end -2.03 -1.905) (layer F.SilkS) (width 0.12))
  (fp_line (start -2.03 -1.785) (end -0.676667 -1.785) (layer F.SilkS) (width 0.12))
  (fp_line (start -2.03 -1.665) (end -0.676667 -1.665) (layer F.SilkS) (width 0.12))
  (fp_line (start -2.03 -1.545) (end -0.676667 -1.545) (layer F.SilkS) (width 0.12))
  (fp_line (start -2.03 -1.425) (end -0.676667 -1.425) (layer F.SilkS) (width 0.12))
  (fp_line (start -2.03 -1.305) (end -0.676667 -1.305) (layer F.SilkS) (width 0.12))
  (fp_line (start -2.03 -1.185) (end -0.676667 -1.185) (layer F.SilkS) (width 0.12))
  (fp_line (start -2.03 -1.065) (end -0.676667 -1.065) (layer F.SilkS) (width 0.12))
  (fp_line (start -2.03 -0.945) (end -0.676667 -0.945) (layer F.SilkS) (width 0.12))
  (fp_line (start -2.03 -0.825) (end -0.676667 -0.825) (layer F.SilkS) (width 0.12))
  (fp_line (start -2.03 -0.705) (end -0.676667 -0.705) (layer F.SilkS) (width 0.12))
  (fp_line (start -0.676667 -1.905) (end -0.676667 -0.635) (layer F.SilkS) (width 0.12))
  (fp_line (start -2.03 0.635) (end -2.03 1.905) (layer F.SilkS) (width 0.12))
  (fp_line (start -2.03 1.905) (end 2.03 1.905) (layer F.SilkS) (width 0.12))
  (fp_line (start 2.03 1.905) (end 2.03 0.635) (layer F.SilkS) (width 0.12))
  (fp_line (start 2.03 0.635) (end -2.03 0.635) (layer F.SilkS) (width 0.12))
  (fp_line (start -2.03 0.755) (end -0.676667 0.755) (layer F.SilkS) (width 0.12))
  (fp_line (start -2.03 0.875) (end -0.676667 0.875) (layer F.SilkS) (width 0.12))
  (fp_line (start -2.03 0.995) (end -0.676667 0.995) (layer F.SilkS) (width 0.12))
  (fp_line (start -2.03 1.115) (end -0.676667 1.115) (layer F.SilkS) (width 0.12))
  (fp_line (start -2.03 1.235) (end -0.676667 1.235) (layer F.SilkS) (width 0.12))
  (fp_line (start -2.03 1.355) (end -0.676667 1.355) (layer F.SilkS) (width 0.12))
  (fp_line (start -2.03 1.475) (end -0.676667 1.475) (layer F.SilkS) (width 0.12))
  (fp_line (start -2.03 1.595) (end -0.676667 1.595) (layer F.SilkS) (width 0.12))
  (fp_line (start -2.03 1.715) (end -0.676667 1.715) (layer F.SilkS) (width 0.12))
  (fp_line (start -2.03 1.835) (end -0.676667 1.835) (layer F.SilkS) (width 0.12))
  (fp_line (start -0.676667 0.635) (end -0.676667 1.905) (layer F.SilkS) (width 0.12))
  (fp_line (start -2.03 3.175) (end -2.03 4.445) (layer F.SilkS) (width 0.12))
  (fp_line (start -2.03 4.445) (end 2.03 4.445) (layer F.SilkS) (width 0.12))
  (fp_line (start 2.03 4.445) (end 2.03 3.175) (layer F.SilkS) (width 0.12))
  (fp_line (start 2.03 3.175) (end -2.03 3.175) (layer F.SilkS) (width 0.12))
  (fp_line (start -2.03 3.295) (end -0.676667 3.295) (layer F.SilkS) (width 0.12))
  (fp_line (start -2.03 3.415) (end -0.676667 3.415) (layer F.SilkS) (width 0.12))
  (fp_line (start -2.03 3.535) (end -0.676667 3.535) (layer F.SilkS) (width 0.12))
  (fp_line (start -2.03 3.655) (end -0.676667 3.655) (layer F.SilkS) (width 0.12))
  (fp_line (start -2.03 3.775) (end -0.676667 3.775) (layer F.SilkS) (width 0.12))
  (fp_line (start -2.03 3.895) (end -0.676667 3.895) (layer F.SilkS) (width 0.12))
  (fp_line (start -2.03 4.015) (end -0.676667 4.015) (layer F.SilkS) (width 0.12))
  (fp_line (start -2.03 4.135) (end -0.676667 4.135) (layer F.SilkS) (width 0.12))
  (fp_line (start -2.03 4.255) (end -0.676667 4.255) (layer F.SilkS) (width 0.12))
  (fp_line (start -2.03 4.375) (end -0.676667 4.375) (layer F.SilkS) (width 0.12))
  (fp_line (start -0.676667 3.175) (end -0.676667 4.445) (layer F.SilkS) (width 0.12))
  (fp_line (start -2.03 5.715) (end -2.03 6.985) (layer F.SilkS) (width 0.12))
  (fp_line (start -2.03 6.985) (end 2.03 6.985) (layer F.SilkS) (width 0.12))
  (fp_line (start 2.03 6.985) (end 2.03 5.715) (layer F.SilkS) (width 0.12))
  (fp_line (start 2.03 5.715) (end -2.03 5.715) (layer F.SilkS) (width 0.12))
  (fp_line (start -2.03 5.835) (end -0.676667 5.835) (layer F.SilkS) (width 0.12))
  (fp_line (start -2.03 5.955) (end -0.676667 5.955) (layer F.SilkS) (width 0.12))
  (fp_line (start -2.03 6.075) (end -0.676667 6.075) (layer F.SilkS) (width 0.12))
  (fp_line (start -2.03 6.195) (end -0.676667 6.195) (layer F.SilkS) (width 0.12))
  (fp_line (start -2.03 6.315) (end -0.676667 6.315) (layer F.SilkS) (width 0.12))
  (fp_line (start -2.03 6.435) (end -0.676667 6.435) (layer F.SilkS) (width 0.12))
  (fp_line (start -2.03 6.555) (end -0.676667 6.555) (layer F.SilkS) (width 0.12))
  (fp_line (start -2.03 6.675) (end -0.676667 6.675) (layer F.SilkS) (width 0.12))
  (fp_line (start -2.03 6.795) (end -0.676667 6.795) (layer F.SilkS) (width 0.12))
  (fp_line (start -2.03 6.915) (end -0.676667 6.915) (layer F.SilkS) (width 0.12))
  (fp_line (start -0.676667 5.715) (end -0.676667 6.985) (layer F.SilkS) (width 0.12))
  (fp_line (start -2.03 8.255) (end -2.03 9.525) (layer F.SilkS) (width 0.12))
  (fp_line (start -2.03 9.525) (end 2.03 9.525) (layer F.SilkS) (width 0.12))
  (fp_line (start 2.03 9.525) (end 2.03 8.255) (layer F.SilkS) (width 0.12))
  (fp_line (start 2.03 8.255) (end -2.03 8.255) (layer F.SilkS) (width 0.12))
  (fp_line (start -2.03 8.375) (end -0.676667 8.375) (layer F.SilkS) (width 0.12))
  (fp_line (start -2.03 8.495) (end -0.676667 8.495) (layer F.SilkS) (width 0.12))
  (fp_line (start -2.03 8.615) (end -0.676667 8.615) (layer F.SilkS) (width 0.12))
  (fp_line (start -2.03 8.735) (end -0.676667 8.735) (layer F.SilkS) (width 0.12))
  (fp_line (start -2.03 8.855) (end -0.676667 8.855) (layer F.SilkS) (width 0.12))
  (fp_line (start -2.03 8.975) (end -0.676667 8.975) (layer F.SilkS) (width 0.12))
  (fp_line (start -2.03 9.095) (end -0.676667 9.095) (layer F.SilkS) (width 0.12))
  (fp_line (start -2.03 9.215) (end -0.676667 9.215) (layer F.SilkS) (width 0.12))
  (fp_line (start -2.03 9.335) (end -0.676667 9.335) (layer F.SilkS) (width 0.12))
  (fp_line (start -2.03 9.455) (end -0.676667 9.455) (layer F.SilkS) (width 0.12))
  (fp_line (start -0.676667 8.255) (end -0.676667 9.525) (layer F.SilkS) (width 0.12))
  (fp_line (start -5.8 -11.6) (end -5.8 11.6) (layer F.CrtYd) (width 0.05))
  (fp_line (start -5.8 11.6) (end 5.8 11.6) (layer F.CrtYd) (width 0.05))
  (fp_line (start 5.8 11.6) (end 5.8 -11.6) (layer F.CrtYd) (width 0.05))
  (fp_line (start 5.8 -11.6) (end -5.8 -11.6) (layer F.CrtYd) (width 0.05))
  (pad 1 smd rect (at -4.305 -8.89) (size 2.44 1.12) (layers F.Cu F.Mask F.Paste))
  (pad 9 smd rect (at 4.305 8.89) (size 2.44 1.12) (layers F.Cu F.Mask F.Paste))
  (pad 2 smd rect (at -4.305 -6.35) (size 2.44 1.12) (layers F.Cu F.Mask F.Paste))
  (pad 10 smd rect (at 4.305 6.35) (size 2.44 1.12) (layers F.Cu F.Mask F.Paste))
  (pad 3 smd rect (at -4.305 -3.81) (size 2.44 1.12) (layers F.Cu F.Mask F.Paste))
  (pad 11 smd rect (at 4.305 3.81) (size 2.44 1.12) (layers F.Cu F.Mask F.Paste))
  (pad 4 smd rect (at -4.305 -1.27) (size 2.44 1.12) (layers F.Cu F.Mask F.Paste))
  (pad 12 smd rect (at 4.305 1.27) (size 2.44 1.12) (layers F.Cu F.Mask F.Paste))
  (pad 5 smd rect (at -4.305 1.27) (size 2.44 1.12) (layers F.Cu F.Mask F.Paste))
  (pad 13 smd rect (at 4.305 -1.27) (size 2.44 1.12) (layers F.Cu F.Mask F.Paste))
  (pad 6 smd rect (at -4.305 3.81) (size 2.44 1.12) (layers F.Cu F.Mask F.Paste))
  (pad 14 smd rect (at 4.305 -3.81) (size 2.44 1.12) (layers F.Cu F.Mask F.Paste))
  (pad 7 smd rect (at -4.305 6.35) (size 2.44 1.12) (layers F.Cu F.Mask F.Paste))
  (pad 15 smd rect (at 4.305 -6.35) (size 2.44 1.12) (layers F.Cu F.Mask F.Paste))
  (pad 8 smd rect (at -4.305 8.89) (size 2.44 1.12) (layers F.Cu F.Mask F.Paste))
  (pad 16 smd rect (at 4.305 -8.89) (size 2.44 1.12) (layers F.Cu F.Mask F.Paste))
  (fp_text user %R (at 3.46 0 90) (layer F.Fab)
    (effects (font (size 0.8 0.8) (thickness 0.12)))
  )
  (fp_text user on (at 1.3075 -10.3875) (layer F.Fab)
    (effects (font (size 0.8 0.8) (thickness 0.12)))
  )
  (model ${KICAD6_3DMODEL_DIR}/Button_Switch_SMD.3dshapes/SW_DIP_SPSTx08_Slide_9.78x22.5mm_W8.61mm_P2.54mm.wrl
    (at (xyz 0 0 0))
    (scale (xyz 1 1 1))
    (rotate (xyz 0 0 90))
  )
)