(module SW_DIP_SPSTx07_Slide_KingTek_DSHP07TJ_W5.25mm_P1.27mm_JPin (layer F.Cu) (tedit 5A508D3F)
  (descr "SMD 7x-dip-switch SPST KingTek_DSHP07TJ, Slide, row spacing 5.25 mm (206 mils), body size  (see http://www.kingtek.net.cn/pic/201601201446313350.pdf), JPin")
  (tags "SMD DIP Switch SPST Slide 5.25mm 206mil JPin")
  (attr smd)
  (fp_text reference REF** (at 0 -6.405) (layer F.SilkS)
    (effects (font (size 1 1) (thickness 0.15)))
  )
  (fp_text value SW_DIP_SPSTx07_Slide_KingTek_DSHP07TJ_W5.25mm_P1.27mm_JPin (at 0 6.405) (layer F.Fab)
    (effects (font (size 1 1) (thickness 0.15)))
  )
  (fp_line (start -1.7 -5.345) (end 2.7 -5.345) (layer F.Fab) (width 0.1))
  (fp_line (start 2.7 -5.345) (end 2.7 5.345) (layer F.Fab) (width 0.1))
  (fp_line (start 2.7 5.345) (end -2.7 5.345) (layer F.Fab) (width 0.1))
  (fp_line (start -2.7 5.345) (end -2.7 -4.345) (layer F.Fab) (width 0.1))
  (fp_line (start -2.7 -4.345) (end -1.7 -5.345) (layer F.Fab) (width 0.1))
  (fp_line (start -1 -4.21) (end -1 -3.41) (layer F.Fab) (width 0.1))
  (fp_line (start -1 -3.41) (end 1 -3.41) (layer F.Fab) (width 0.1))
  (fp_line (start 1 -3.41) (end 1 -4.21) (layer F.Fab) (width 0.1))
  (fp_line (start 1 -4.21) (end -1 -4.21) (layer F.Fab) (width 0.1))
  (fp_line (start -1 -4.11) (end -0.333333 -4.11) (layer F.Fab) (width 0.1))
  (fp_line (start -1 -4.01) (end -0.333333 -4.01) (layer F.Fab) (width 0.1))
  (fp_line (start -1 -3.91) (end -0.333333 -3.91) (layer F.Fab) (width 0.1))
  (fp_line (start -1 -3.81) (end -0.333333 -3.81) (layer F.Fab) (width 0.1))
  (fp_line (start -1 -3.71) (end -0.333333 -3.71) (layer F.Fab) (width 0.1))
  (fp_line (start -1 -3.61) (end -0.333333 -3.61) (layer F.Fab) (width 0.1))
  (fp_line (start -1 -3.51) (end -0.333333 -3.51) (layer F.Fab) (width 0.1))
  (fp_line (start -0.333333 -4.21) (end -0.333333 -3.41) (layer F.Fab) (width 0.1))
  (fp_line (start -1 -2.94) (end -1 -2.14) (layer F.Fab) (width 0.1))
  (fp_line (start -1 -2.14) (end 1 -2.14) (layer F.Fab) (width 0.1))
  (fp_line (start 1 -2.14) (end 1 -2.94) (layer F.Fab) (width 0.1))
  (fp_line (start 1 -2.94) (end -1 -2.94) (layer F.Fab) (width 0.1))
  (fp_line (start -1 -2.84) (end -0.333333 -2.84) (layer F.Fab) (width 0.1))
  (fp_line (start -1 -2.74) (end -0.333333 -2.74) (layer F.Fab) (width 0.1))
  (fp_line (start -1 -2.64) (end -0.333333 -2.64) (layer F.Fab) (width 0.1))
  (fp_line (start -1 -2.54) (end -0.333333 -2.54) (layer F.Fab) (width 0.1))
  (fp_line (start -1 -2.44) (end -0.333333 -2.44) (layer F.Fab) (width 0.1))
  (fp_line (start -1 -2.34) (end -0.333333 -2.34) (layer F.Fab) (width 0.1))
  (fp_line (start -1 -2.24) (end -0.333333 -2.24) (layer F.Fab) (width 0.1))
  (fp_line (start -0.333333 -2.94) (end -0.333333 -2.14) (layer F.Fab) (width 0.1))
  (fp_line (start -1 -1.67) (end -1 -0.87) (layer F.Fab) (width 0.1))
  (fp_line (start -1 -0.87) (end 1 -0.87) (layer F.Fab) (width 0.1))
  (fp_line (start 1 -0.87) (end 1 -1.67) (layer F.Fab) (width 0.1))
  (fp_line (start 1 -1.67) (end -1 -1.67) (layer F.Fab) (width 0.1))
  (fp_line (start -1 -1.57) (end -0.333333 -1.57) (layer F.Fab) (width 0.1))
  (fp_line (start -1 -1.47) (end -0.333333 -1.47) (layer F.Fab) (width 0.1))
  (fp_line (start -1 -1.37) (end -0.333333 -1.37) (layer F.Fab) (width 0.1))
  (fp_line (start -1 -1.27) (end -0.333333 -1.27) (layer F.Fab) (width 0.1))
  (fp_line (start -1 -1.17) (end -0.333333 -1.17) (layer F.Fab) (width 0.1))
  (fp_line (start -1 -1.07) (end -0.333333 -1.07) (layer F.Fab) (width 0.1))
  (fp_line (start -1 -0.97) (end -0.333333 -0.97) (layer F.Fab) (width 0.1))
  (fp_line (start -0.333333 -1.67) (end -0.333333 -0.87) (layer F.Fab) (width 0.1))
  (fp_line (start -1 -0.4) (end -1 0.4) (layer F.Fab) (width 0.1))
  (fp_line (start -1 0.4) (end 1 0.4) (layer F.Fab) (width 0.1))
  (fp_line (start 1 0.4) (end 1 -0.4) (layer F.Fab) (width 0.1))
  (fp_line (start 1 -0.4) (end -1 -0.4) (layer F.Fab) (width 0.1))
  (fp_line (start -1 -0.3) (end -0.333333 -0.3) (layer F.Fab) (width 0.1))
  (fp_line (start -1 -0.2) (end -0.333333 -0.2) (layer F.Fab) (width 0.1))
  (fp_line (start -1 -0.1) (end -0.333333 -0.1) (layer F.Fab) (width 0.1))
  (fp_line (start -1 0) (end -0.333333 0) (layer F.Fab) (width 0.1))
  (fp_line (start -1 0.1) (end -0.333333 0.1) (layer F.Fab) (width 0.1))
  (fp_line (start -1 0.2) (end -0.333333 0.2) (layer F.Fab) (width 0.1))
  (fp_line (start -1 0.3) (end -0.333333 0.3) (layer F.Fab) (width 0.1))
  (fp_line (start -0.333333 -0.4) (end -0.333333 0.4) (layer F.Fab) (width 0.1))
  (fp_line (start -1 0.87) (end -1 1.67) (layer F.Fab) (width 0.1))
  (fp_line (start -1 1.67) (end 1 1.67) (layer F.Fab) (width 0.1))
  (fp_line (start 1 1.67) (end 1 0.87) (layer F.Fab) (width 0.1))
  (fp_line (start 1 0.87) (end -1 0.87) (layer F.Fab) (width 0.1))
  (fp_line (start -1 0.97) (end -0.333333 0.97) (layer F.Fab) (width 0.1))
  (fp_line (start -1 1.07) (end -0.333333 1.07) (layer F.Fab) (width 0.1))
  (fp_line (start -1 1.17) (end -0.333333 1.17) (layer F.Fab) (width 0.1))
  (fp_line (start -1 1.27) (end -0.333333 1.27) (layer F.Fab) (width 0.1))
  (fp_line (start -1 1.37) (end -0.333333 1.37) (layer F.Fab) (width 0.1))
  (fp_line (start -1 1.47) (end -0.333333 1.47) (layer F.Fab) (width 0.1))
  (fp_line (start -1 1.57) (end -0.333333 1.57) (layer F.Fab) (width 0.1))
  (fp_line (start -1 1.67) (end -0.333333 1.67) (layer F.Fab) (width 0.1))
  (fp_line (start -0.333333 0.87) (end -0.333333 1.67) (layer F.Fab) (width 0.1))
  (fp_line (start -1 2.14) (end -1 2.94) (layer F.Fab) (width 0.1))
  (fp_line (start -1 2.94) (end 1 2.94) (layer F.Fab) (width 0.1))
  (fp_line (start 1 2.94) (end 1 2.14) (layer F.Fab) (width 0.1))
  (fp_line (start 1 2.14) (end -1 2.14) (layer F.Fab) (width 0.1))
  (fp_line (start -1 2.24) (end -0.333333 2.24) (layer F.Fab) (width 0.1))
  (fp_line (start -1 2.34) (end -0.333333 2.34) (layer F.Fab) (width 0.1))
  (fp_line (start -1 2.44) (end -0.333333 2.44) (layer F.Fab) (width 0.1))
  (fp_line (start -1 2.54) (end -0.333333 2.54) (layer F.Fab) (width 0.1))
  (fp_line (start -1 2.64) (end -0.333333 2.64) (layer F.Fab) (width 0.1))
  (fp_line (start -1 2.74) (end -0.333333 2.74) (layer F.Fab) (width 0.1))
  (fp_line (start -1 2.84) (end -0.333333 2.84) (layer F.Fab) (width 0.1))
  (fp_line (start -1 2.94) (end -0.333333 2.94) (layer F.Fab) (width 0.1))
  (fp_line (start -0.333333 2.14) (end -0.333333 2.94) (layer F.Fab) (width 0.1))
  (fp_line (start -1 3.41) (end -1 4.21) (layer F.Fab) (width 0.1))
  (fp_line (start -1 4.21) (end 1 4.21) (layer F.Fab) (width 0.1))
  (fp_line (start 1 4.21) (end 1 3.41) (layer F.Fab) (width 0.1))
  (fp_line (start 1 3.41) (end -1 3.41) (layer F.Fab) (width 0.1))
  (fp_line (start -1 3.51) (end -0.333333 3.51) (layer F.Fab) (width 0.1))
  (fp_line (start -1 3.61) (end -0.333333 3.61) (layer F.Fab) (width 0.1))
  (fp_line (start -1 3.71) (end -0.333333 3.71) (layer F.Fab) (width 0.1))
  (fp_line (start -1 3.81) (end -0.333333 3.81) (layer F.Fab) (width 0.1))
  (fp_line (start -1 3.91) (end -0.333333 3.91) (layer F.Fab) (width 0.1))
  (fp_line (start -1 4.01) (end -0.333333 4.01) (layer F.Fab) (width 0.1))
  (fp_line (start -1 4.11) (end -0.333333 4.11) (layer F.Fab) (width 0.1))
  (fp_line (start -1 4.21) (end -0.333333 4.21) (layer F.Fab) (width 0.1))
  (fp_line (start -0.333333 3.41) (end -0.333333 4.21) (layer F.Fab) (width 0.1))
  (fp_line (start -2.761 5.405) (end 2.76 5.405) (layer F.SilkS) (width 0.12))
  (fp_line (start -3.951 -4.49) (end -2.761 -4.49) (layer F.SilkS) (width 0.12))
  (fp_line (start -2.761 -5.405) (end -2.761 -4.49) (layer F.SilkS) (width 0.12))
  (fp_line (start -2.761 -5.405) (end 2.76 -5.405) (layer F.SilkS) (width 0.12))
  (fp_line (start 2.76 -5.405) (end 2.76 -4.43) (layer F.SilkS) (width 0.12))
  (fp_line (start -2.761 4.43) (end -2.761 5.405) (layer F.SilkS) (width 0.12))
  (fp_line (start 2.76 4.43) (end 2.76 5.405) (layer F.SilkS) (width 0.12))
  (fp_line (start -4.2 -5.7) (end -4.2 5.7) (layer F.CrtYd) (width 0.05))
  (fp_line (start -4.2 5.7) (end 4.2 5.7) (layer F.CrtYd) (width 0.05))
  (fp_line (start 4.2 5.7) (end 4.2 -5.7) (layer F.CrtYd) (width 0.05))
  (fp_line (start 4.2 -5.7) (end -4.2 -5.7) (layer F.CrtYd) (width 0.05))
  (pad 1 smd rect (at -2.625 -3.81) (size 2.65 0.76) (layers F.Cu F.Mask F.Paste))
  (pad 8 smd rect (at 2.625 3.81) (size 2.65 0.76) (layers F.Cu F.Mask F.Paste))
  (pad 2 smd rect (at -2.625 -2.54) (size 2.65 0.76) (layers F.Cu F.Mask F.Paste))
  (pad 9 smd rect (at 2.625 2.54) (size 2.65 0.76) (layers F.Cu F.Mask F.Paste))
  (pad 3 smd rect (at -2.625 -1.27) (size 2.65 0.76) (layers F.Cu F.Mask F.Paste))
  (pad 10 smd rect (at 2.625 1.27) (size 2.65 0.76) (layers F.Cu F.Mask F.Paste))
  (pad 4 smd rect (at -2.625 0) (size 2.65 0.76) (layers F.Cu F.Mask F.Paste))
  (pad 11 smd rect (at 2.625 0) (size 2.65 0.76) (layers F.Cu F.Mask F.Paste))
  (pad 5 smd rect (at -2.625 1.27) (size 2.65 0.76) (layers F.Cu F.Mask F.Paste))
  (pad 12 smd rect (at 2.625 -1.27) (size 2.65 0.76) (layers F.Cu F.Mask F.Paste))
  (pad 6 smd rect (at -2.625 2.54) (size 2.65 0.76) (layers F.Cu F.Mask F.Paste))
  (pad 13 smd rect (at 2.625 -2.54) (size 2.65 0.76) (layers F.Cu F.Mask F.Paste))
  (pad 7 smd rect (at -2.625 3.81) (size 2.65 0.76) (layers F.Cu F.Mask F.Paste))
  (pad 14 smd rect (at 2.625 -3.81) (size 2.65 0.76) (layers F.Cu F.Mask F.Paste))
  (fp_text user %R (at 1.85 -0 90) (layer F.Fab)
    (effects (font (size 0.8 0.8) (thickness 0.12)))
  )
  (fp_text user on (at 0.5375 -4.7775) (layer F.Fab)
    (effects (font (size 0.8 0.8) (thickness 0.12)))
  )
  (model ${KICAD6_3DMODEL_DIR}/Button_Switch_SMD.3dshapes/SW_DIP_SPSTx07_Slide_KingTek_DSHP07TJ_W5.25mm_P1.27mm_JPin.wrl
    (at (xyz 0 0 0))
    (scale (xyz 1 1 1))
    (rotate (xyz 0 0 0))
  )
)