(module SW_DIP_SPSTx03_Slide_KingTek_DSHP03TS_W7.62mm_P1.27mm (layer F.Cu) (tedit 5A508D3E)
  (descr "SMD 3x-dip-switch SPST KingTek_DSHP03TS, Slide, row spacing 7.62 mm (300 mils), body size  (see http://www.kingtek.net.cn/pic/201601201417455112.pdf)")
  (tags "SMD DIP Switch SPST Slide 7.62mm 300mil")
  (attr smd)
  (fp_text reference REF** (at 0 -3.765) (layer F.SilkS)
    (effects (font (size 1 1) (thickness 0.15)))
  )
  (fp_text value SW_DIP_SPSTx03_Slide_KingTek_DSHP03TS_W7.62mm_P1.27mm (at 0 3.765) (layer F.Fab)
    (effects (font (size 1 1) (thickness 0.15)))
  )
  (fp_line (start -1.7 -2.705) (end 2.7 -2.705) (layer F.Fab) (width 0.1))
  (fp_line (start 2.7 -2.705) (end 2.7 2.705) (layer F.Fab) (width 0.1))
  (fp_line (start 2.7 2.705) (end -2.7 2.705) (layer F.Fab) (width 0.1))
  (fp_line (start -2.7 2.705) (end -2.7 -1.705) (layer F.Fab) (width 0.1))
  (fp_line (start -2.7 -1.705) (end -1.7 -2.705) (layer F.Fab) (width 0.1))
  (fp_line (start -1 -1.67) (end -1 -0.87) (layer F.Fab) (width 0.1))
  (fp_line (start -1 -0.87) (end 1 -0.87) (layer F.Fab) (width 0.1))
  (fp_line (start 1 -0.87) (end 1 -1.67) (layer F.Fab) (width 0.1))
  (fp_line (start 1 -1.67) (end -1 -1.67) (layer F.Fab) (width 0.1))
  (fp_line (start -1 -1.57) (end -0.333333 -1.57) (layer F.Fab) (width 0.1))
  (fp_line (start -1 -1.47) (end -0.333333 -1.47) (layer F.Fab) (width 0.1))
  (fp_line (start -1 -1.37) (end -0.333333 -1.37) (layer F.Fab) (width 0.1))
  (fp_line (start -1 -1.27) (end -0.333333 -1.27) (layer F.Fab) (width 0.1))
  (fp_line (start -1 -1.17) (end -0.333333 -1.17) (layer F.Fab) (width 0.1))
  (fp_line (start -1 -1.07) (end -0.333333 -1.07) (layer F.Fab) (width 0.1))
  (fp_line (start -1 -0.97) (end -0.333333 -0.97) (layer F.Fab) (width 0.1))
  (fp_line (start -0.333333 -1.67) (end -0.333333 -0.87) (layer F.Fab) (width 0.1))
  (fp_line (start -1 -0.4) (end -1 0.4) (layer F.Fab) (width 0.1))
  (fp_line (start -1 0.4) (end 1 0.4) (layer F.Fab) (width 0.1))
  (fp_line (start 1 0.4) (end 1 -0.4) (layer F.Fab) (width 0.1))
  (fp_line (start 1 -0.4) (end -1 -0.4) (layer F.Fab) (width 0.1))
  (fp_line (start -1 -0.3) (end -0.333333 -0.3) (layer F.Fab) (width 0.1))
  (fp_line (start -1 -0.2) (end -0.333333 -0.2) (layer F.Fab) (width 0.1))
  (fp_line (start -1 -0.1) (end -0.333333 -0.1) (layer F.Fab) (width 0.1))
  (fp_line (start -1 0) (end -0.333333 0) (layer F.Fab) (width 0.1))
  (fp_line (start -1 0.1) (end -0.333333 0.1) (layer F.Fab) (width 0.1))
  (fp_line (start -1 0.2) (end -0.333333 0.2) (layer F.Fab) (width 0.1))
  (fp_line (start -1 0.3) (end -0.333333 0.3) (layer F.Fab) (width 0.1))
  (fp_line (start -0.333333 -0.4) (end -0.333333 0.4) (layer F.Fab) (width 0.1))
  (fp_line (start -1 0.87) (end -1 1.67) (layer F.Fab) (width 0.1))
  (fp_line (start -1 1.67) (end 1 1.67) (layer F.Fab) (width 0.1))
  (fp_line (start 1 1.67) (end 1 0.87) (layer F.Fab) (width 0.1))
  (fp_line (start 1 0.87) (end -1 0.87) (layer F.Fab) (width 0.1))
  (fp_line (start -1 0.97) (end -0.333333 0.97) (layer F.Fab) (width 0.1))
  (fp_line (start -1 1.07) (end -0.333333 1.07) (layer F.Fab) (width 0.1))
  (fp_line (start -1 1.17) (end -0.333333 1.17) (layer F.Fab) (width 0.1))
  (fp_line (start -1 1.27) (end -0.333333 1.27) (layer F.Fab) (width 0.1))
  (fp_line (start -1 1.37) (end -0.333333 1.37) (layer F.Fab) (width 0.1))
  (fp_line (start -1 1.47) (end -0.333333 1.47) (layer F.Fab) (width 0.1))
  (fp_line (start -1 1.57) (end -0.333333 1.57) (layer F.Fab) (width 0.1))
  (fp_line (start -0.333333 0.87) (end -0.333333 1.67) (layer F.Fab) (width 0.1))
  (fp_line (start -2.76 2.765) (end 2.76 2.765) (layer F.SilkS) (width 0.12))
  (fp_line (start -4.446 -1.95) (end -2.76 -1.95) (layer F.SilkS) (width 0.12))
  (fp_line (start -2.76 -2.766) (end -2.76 -1.95) (layer F.SilkS) (width 0.12))
  (fp_line (start -2.76 -2.766) (end 2.76 -2.766) (layer F.SilkS) (width 0.12))
  (fp_line (start 2.76 -2.766) (end 2.76 -1.331) (layer F.SilkS) (width 0.12))
  (fp_line (start -2.76 1.33) (end -2.76 2.765) (layer F.SilkS) (width 0.12))
  (fp_line (start 2.76 1.33) (end 2.76 2.765) (layer F.SilkS) (width 0.12))
  (fp_line (start -4.7 -3.05) (end -4.7 3.05) (layer F.CrtYd) (width 0.05))
  (fp_line (start -4.7 3.05) (end 4.7 3.05) (layer F.CrtYd) (width 0.05))
  (fp_line (start 4.7 3.05) (end 4.7 -3.05) (layer F.CrtYd) (width 0.05))
  (fp_line (start 4.7 -3.05) (end -4.7 -3.05) (layer F.CrtYd) (width 0.05))
  (pad 1 smd rect (at -3.81 -1.27) (size 1.27 0.76) (layers F.Cu F.Mask F.Paste))
  (pad 4 smd rect (at 3.81 1.27) (size 1.27 0.76) (layers F.Cu F.Mask F.Paste))
  (pad 2 smd rect (at -3.81 0) (size 1.27 0.76) (layers F.Cu F.Mask F.Paste))
  (pad 5 smd rect (at 3.81 0) (size 1.27 0.76) (layers F.Cu F.Mask F.Paste))
  (pad 3 smd rect (at -3.81 1.27) (size 1.27 0.76) (layers F.Cu F.Mask F.Paste))
  (pad 6 smd rect (at 3.81 -1.27) (size 1.27 0.76) (layers F.Cu F.Mask F.Paste))
  (fp_text user %R (at 1.85 0 90) (layer F.Fab)
    (effects (font (size 0.8 0.8) (thickness 0.12)))
  )
  (fp_text user on (at -0.055 -2.1875) (layer F.Fab)
    (effects (font (size 0.8 0.8) (thickness 0.12)))
  )
  (model ${KICAD6_3DMODEL_DIR}/Button_Switch_SMD.3dshapes/SW_DIP_SPSTx03_Slide_KingTek_DSHP03TS_W7.62mm_P1.27mm.wrl
    (at (xyz 0 0 0))
    (scale (xyz 1 1 1))
    (rotate (xyz 0 0 0))
  )
)