(module SW_MEC_5GSH9 (layer F.Cu) (tedit 5A02FC95)
  (descr "MEC 5G single pole normally-open tactile switch")
  (tags "switch normally-open pushbutton push-button")
  (attr smd)
  (fp_text reference REF** (at -3.325 -8.575 180) (layer F.SilkS)
    (effects (font (size 1 1) (thickness 0.15)))
  )
  (fp_text value SW_MEC_5GSH9 (at 0.475 8.825 180) (layer F.Fab)
    (effects (font (size 1 1) (thickness 0.15)))
  )
  (fp_line (start -5.3 -7.8) (end 5.3 -7.8) (layer F.CrtYd) (width 0.05))
  (fp_line (start 5.3 -7.8) (end 5.3 7.8) (layer F.CrtYd) (width 0.05))
  (fp_line (start 5.3 7.8) (end -5.3 7.8) (layer F.CrtYd) (width 0.05))
  (fp_line (start -5.3 7.8) (end -5.3 -7.8) (layer F.CrtYd) (width 0.05))
  (fp_line (start 4.7 -5.25) (end 5.25 -5.25) (layer F.SilkS) (width 0.12))
  (fp_line (start 5.25 -5.25) (end 5.25 -4) (layer F.SilkS) (width 0.12))
  (fp_line (start 4.7 5.25) (end 5.25 5.25) (layer F.SilkS) (width 0.12))
  (fp_line (start 5.25 5.25) (end 5.25 4) (layer F.SilkS) (width 0.12))
  (fp_line (start -4.7 -5.25) (end -5.25 -5.25) (layer F.SilkS) (width 0.12))
  (fp_line (start -5.25 -5.25) (end -5.25 0) (layer F.SilkS) (width 0.12))
  (fp_line (start -4.7 5.25) (end -5.25 5.25) (layer F.SilkS) (width 0.12))
  (fp_line (start -5.25 5.25) (end -5.25 4) (layer F.SilkS) (width 0.12))
  (fp_text user %R (at 0 0) (layer F.Fab)
    (effects (font (size 1 1) (thickness 0.15)))
  )
  (fp_circle (center -3.85 -4.3) (end -3.85 -4.7) (layer F.Fab) (width 0.1))
  (fp_line (start -5 5) (end -5 -5) (layer F.Fab) (width 0.1))
  (fp_line (start -5 -5) (end 5 -5) (layer F.Fab) (width 0.1))
  (fp_line (start 5 -5) (end 5 5) (layer F.Fab) (width 0.1))
  (fp_line (start 5 5) (end -5 5) (layer F.Fab) (width 0.1))
  (pad 3 smd rect (at 3.81 -6.25 90) (size 2.5 1.2) (layers F.Cu F.Paste F.Mask))
  (pad 4 smd rect (at 3.81 6.25 90) (size 2.5 1.2) (layers F.Cu F.Paste F.Mask))
  (pad 1 smd rect (at -3.81 -6.25 90) (size 2.5 1.2) (layers F.Cu F.Paste F.Mask))
  (pad 2 smd rect (at -3.81 6.25 90) (size 2.5 1.2) (layers F.Cu F.Paste F.Mask))
  (model ${KICAD6_3DMODEL_DIR}/Button_Switch_SMD.3dshapes/SW_MEC_5GSH9.wrl
    (at (xyz 0 0 0))
    (scale (xyz 1 1 1))
    (rotate (xyz 0 0 0))
  )
)
