(module SW_Push_1P1T_NO_6x6mm_H9.5mm (layer F.Cu) (tedit 5CA1CA7F)
  (descr "tactile push button, 6x6mm e.g. PTS645xx series, height=9.5mm")
  (tags "tact sw push 6mm smd")
  (attr smd)
  (fp_text reference REF** (at 0 -4.05) (layer F.SilkS)
    (effects (font (size 1 1) (thickness 0.15)))
  )
  (fp_text value SW_Push_1P1T_NO_6x6mm_H9.5mm (at 0 4.15) (layer F.Fab)
    (effects (font (size 1 1) (thickness 0.15)))
  )
  (fp_text user %R (at 0 -4.05) (layer F.Fab)
    (effects (font (size 1 1) (thickness 0.15)))
  )
  (fp_line (start -3 -3) (end -3 3) (layer F.Fab) (width 0.1))
  (fp_line (start -3 3) (end 3 3) (layer F.Fab) (width 0.1))
  (fp_line (start 3 3) (end 3 -3) (layer F.Fab) (width 0.1))
  (fp_line (start 3 -3) (end -3 -3) (layer F.Fab) (width 0.1))
  (fp_line (start 5 3.25) (end 5 -3.25) (layer F.CrtYd) (width 0.05))
  (fp_line (start -5 -3.25) (end -5 3.25) (layer F.CrtYd) (width 0.05))
  (fp_line (start -5 3.25) (end 5 3.25) (layer F.CrtYd) (width 0.05))
  (fp_line (start -5 -3.25) (end 5 -3.25) (layer F.CrtYd) (width 0.05))
  (fp_line (start 3.23 -3.23) (end 3.23 -3.2) (layer F.SilkS) (width 0.12))
  (fp_line (start 3.23 3.23) (end 3.23 3.2) (layer F.SilkS) (width 0.12))
  (fp_line (start -3.23 3.23) (end -3.23 3.2) (layer F.SilkS) (width 0.12))
  (fp_line (start -3.23 -3.2) (end -3.23 -3.23) (layer F.SilkS) (width 0.12))
  (fp_line (start 3.23 -1.3) (end 3.23 1.3) (layer F.SilkS) (width 0.12))
  (fp_line (start -3.23 -3.23) (end 3.23 -3.23) (layer F.SilkS) (width 0.12))
  (fp_line (start -3.23 -1.3) (end -3.23 1.3) (layer F.SilkS) (width 0.12))
  (fp_line (start -3.23 3.23) (end 3.23 3.23) (layer F.SilkS) (width 0.12))
  (fp_circle (center 0 0) (end 1.75 -0.05) (layer F.Fab) (width 0.1))
  (pad 2 smd rect (at -3.975 2.25) (size 1.55 1.3) (layers F.Cu F.Paste F.Mask))
  (pad 1 smd rect (at -3.975 -2.25) (size 1.55 1.3) (layers F.Cu F.Paste F.Mask))
  (pad 1 smd rect (at 3.975 -2.25) (size 1.55 1.3) (layers F.Cu F.Paste F.Mask))
  (pad 2 smd rect (at 3.975 2.25) (size 1.55 1.3) (layers F.Cu F.Paste F.Mask))
  (model ${KICAD6_3DMODEL_DIR}/Button_Switch_SMD.3dshapes/SW_PUSH_6mm_H9.5mm.wrl
    (at (xyz 0 0 0))
    (scale (xyz 1 1 1))
    (rotate (xyz 0 0 0))
  )
)
