(module SW_SPST_PTS810 (layer F.Cu) (tedit 5B0610A8)
  (descr "C&K Components, PTS 810 Series, Microminiature SMT Top Actuated, http://www.ckswitches.com/media/1476/pts810.pdf")
  (tags "SPST Button Switch")
  (attr smd)
  (fp_text reference REF** (at 0 -2.6) (layer F.SilkS)
    (effects (font (size 1 1) (thickness 0.15)))
  )
  (fp_text value SW_SPST_PTS810 (at 0 2.6) (layer F.Fab)
    (effects (font (size 1 1) (thickness 0.15)))
  )
  (fp_line (start -2.85 -1.85) (end 2.85 -1.85) (layer F.CrtYd) (width 0.05))
  (fp_line (start -2.85 1.85) (end -2.85 -1.85) (layer F.CrtYd) (width 0.05))
  (fp_line (start 2.85 1.85) (end -2.85 1.85) (layer F.CrtYd) (width 0.05))
  (fp_line (start 2.85 -1.85) (end 2.85 1.85) (layer F.CrtYd) (width 0.05))
  (fp_text user %R (at 0 0) (layer F.Fab)
    (effects (font (size 0.6 0.6) (thickness 0.09)))
  )
  (fp_line (start 2.2 -1.58) (end 2.2 -1.7) (layer F.SilkS) (width 0.12))
  (fp_line (start 2.2 0.57) (end 2.2 -0.57) (layer F.SilkS) (width 0.12))
  (fp_line (start 2.2 1.7) (end 2.2 1.58) (layer F.SilkS) (width 0.12))
  (fp_line (start -2.2 1.7) (end 2.2 1.7) (layer F.SilkS) (width 0.12))
  (fp_line (start -2.2 1.58) (end -2.2 1.7) (layer F.SilkS) (width 0.12))
  (fp_line (start -2.2 -0.57) (end -2.2 0.57) (layer F.SilkS) (width 0.12))
  (fp_line (start -2.2 -1.7) (end -2.2 -1.58) (layer F.SilkS) (width 0.12))
  (fp_line (start 2.2 -1.7) (end -2.2 -1.7) (layer F.SilkS) (width 0.12))
  (fp_line (start 0.4 1.1) (end -0.4 1.1) (layer F.Fab) (width 0.1))
  (fp_line (start -0.4 -1.1) (end 0.4 -1.1) (layer F.Fab) (width 0.1))
  (fp_arc (start -0.4 0) (end -0.4 1.1) (angle 180) (layer F.Fab) (width 0.1))
  (fp_line (start -2.1 1.6) (end 2.1 1.6) (layer F.Fab) (width 0.1))
  (fp_line (start -2.1 -1.6) (end -2.1 1.6) (layer F.Fab) (width 0.1))
  (fp_line (start 2.1 -1.6) (end -2.1 -1.6) (layer F.Fab) (width 0.1))
  (fp_line (start 2.1 1.6) (end 2.1 -1.6) (layer F.Fab) (width 0.1))
  (fp_arc (start 0.4 0) (end 0.4 -1.1) (angle 180) (layer F.Fab) (width 0.1))
  (pad 1 smd rect (at -2.075 -1.075) (size 1.05 0.65) (layers F.Cu F.Paste F.Mask))
  (pad 1 smd rect (at 2.075 -1.075) (size 1.05 0.65) (layers F.Cu F.Paste F.Mask))
  (pad 2 smd rect (at -2.075 1.075) (size 1.05 0.65) (layers F.Cu F.Paste F.Mask))
  (pad 2 smd rect (at 2.075 1.075) (size 1.05 0.65) (layers F.Cu F.Paste F.Mask))
  (model ${KICAD6_3DMODEL_DIR}/Button_Switch_SMD.3dshapes/SW_SPST_PTS810.wrl
    (at (xyz 0 0 0))
    (scale (xyz 1 1 1))
    (rotate (xyz 0 0 0))
  )
)
