(module SW_SP3T_PCM13 (layer F.Cu) (tedit 5A02FC95)
  (descr "Ultraminiature Surface Mount Slide Switch, right-angle, https://www.ckswitches.com/media/1424/pcm.pdf")
  (attr smd)
  (fp_text reference REF** (at 0 -3.2) (layer F.SilkS)
    (effects (font (size 1 1) (thickness 0.15)))
  )
  (fp_text value SW_SP3T_PCM13 (at 0 4.25) (layer F.Fab)
    (effects (font (size 1 1) (thickness 0.15)))
  )
  (fp_text user %R (at 0 -3.2) (layer F.Fab)
    (effects (font (size 1 1) (thickness 0.15)))
  )
  (fp_line (start -0.65 1.6) (end -0.65 2.9) (layer F.Fab) (width 0.1))
  (fp_line (start -0.65 2.9) (end -0.45 3.1) (layer F.Fab) (width 0.1))
  (fp_line (start -0.45 3.1) (end 0.4 3.1) (layer F.Fab) (width 0.1))
  (fp_line (start 0.4 3.1) (end 0.55 2.95) (layer F.Fab) (width 0.1))
  (fp_line (start 0.55 2.95) (end 0.65 2.85) (layer F.Fab) (width 0.1))
  (fp_line (start 0.65 2.85) (end 0.65 1.6) (layer F.Fab) (width 0.1))
  (fp_line (start -4.85 1.6) (end -4.85 -0.95) (layer F.Fab) (width 0.1))
  (fp_line (start -4.85 -0.95) (end 4.85 -0.95) (layer F.Fab) (width 0.1))
  (fp_line (start 4.85 -0.95) (end 4.85 1.6) (layer F.Fab) (width 0.1))
  (fp_line (start 4.85 1.6) (end -4.8 1.6) (layer F.Fab) (width 0.1))
  (fp_line (start -4.35 -1.07) (end -3.65 -1.07) (layer F.SilkS) (width 0.12))
  (fp_line (start 3.65 -1.07) (end 4.35 -1.07) (layer F.SilkS) (width 0.12))
  (fp_line (start -2.35 -1.07) (end -2.15 -1.07) (layer F.SilkS) (width 0.12))
  (fp_line (start 2.15 -1.07) (end 2.35 -1.07) (layer F.SilkS) (width 0.12))
  (fp_line (start -5.9 -2.45) (end 5.9 -2.45) (layer F.CrtYd) (width 0.05))
  (fp_line (start 5.9 -2.45) (end 5.9 2.1) (layer F.CrtYd) (width 0.05))
  (fp_line (start 5.9 2.1) (end 2.4 2.1) (layer F.CrtYd) (width 0.05))
  (fp_line (start 2.4 2.1) (end 2.4 3.4) (layer F.CrtYd) (width 0.05))
  (fp_line (start 2.4 3.4) (end -2.4 3.4) (layer F.CrtYd) (width 0.05))
  (fp_line (start -2.4 3.4) (end -2.4 2.1) (layer F.CrtYd) (width 0.05))
  (fp_line (start -2.4 2.1) (end -5.9 2.1) (layer F.CrtYd) (width 0.05))
  (fp_line (start -5.9 2.1) (end -5.9 -2.45) (layer F.CrtYd) (width 0.05))
  (fp_line (start -0.65 3.02) (end -0.45 3.22) (layer F.SilkS) (width 0.12))
  (fp_line (start 0.65 3.02) (end 0.45 3.22) (layer F.SilkS) (width 0.12))
  (fp_line (start -0.65 1.72) (end -0.65 3.02) (layer F.SilkS) (width 0.12))
  (fp_line (start 0.45 3.22) (end -0.45 3.22) (layer F.SilkS) (width 0.12))
  (fp_line (start 0.65 3.02) (end 0.65 1.72) (layer F.SilkS) (width 0.12))
  (fp_line (start -4.35 1.72) (end 4.35 1.72) (layer F.SilkS) (width 0.12))
  (fp_line (start -0.85 -1.07) (end 0.85 -1.07) (layer F.SilkS) (width 0.12))
  (fp_line (start -4.95 -0.07) (end -4.95 0.72) (layer F.SilkS) (width 0.12))
  (fp_line (start 4.95 0.72) (end 4.95 -0.07) (layer F.SilkS) (width 0.12))
  (pad "" np_thru_hole circle (at -2.5 0.33) (size 0.9 0.9) (drill 0.9) (layers *.Cu *.Mask))
  (pad "" np_thru_hole circle (at 2.5 0.33) (size 0.9 0.9) (drill 0.9) (layers *.Cu *.Mask))
  (pad 1 smd rect (at -3 -1.43) (size 0.7 1.5) (layers F.Cu F.Paste F.Mask))
  (pad 2 smd rect (at -1.5 -1.43) (size 0.7 1.5) (layers F.Cu F.Paste F.Mask))
  (pad 3 smd rect (at 1.5 -1.43) (size 0.7 1.5) (layers F.Cu F.Paste F.Mask))
  (pad 4 smd rect (at 3 -1.43) (size 0.7 1.5) (layers F.Cu F.Paste F.Mask))
  (pad "" smd rect (at -5.15 1.43) (size 1 0.8) (layers F.Cu F.Paste F.Mask))
  (pad "" smd rect (at 5.15 1.43) (size 1 0.8) (layers F.Cu F.Paste F.Mask))
  (pad "" smd rect (at 5.15 -0.78) (size 1 0.8) (layers F.Cu F.Paste F.Mask))
  (pad "" smd rect (at -5.15 -0.78) (size 1 0.8) (layers F.Cu F.Paste F.Mask))
  (model ${KICAD6_3DMODEL_DIR}/Button_Switch_SMD.3dshapes/SW_SP3T_PCM13.wrl
    (at (xyz 0 0 0))
    (scale (xyz 1 1 1))
    (rotate (xyz 0 0 0))
  )
)
