(module SW_SPST_Panasonic_EVQPL_3PL_5PL_PT_A08 (layer F.Cu) (tedit 5A02FC95)
  (descr "Light Touch Switch, http://industrial.panasonic.com/cdbs/www-data/pdf/ATK0000/ATK0000CE3.pdf")
  (tags "SMD SMT SPST EVQPL EVQPT")
  (attr smd)
  (fp_text reference REF** (at 0 -4) (layer F.SilkS)
    (effects (font (size 1 1) (thickness 0.15)))
  )
  (fp_text value SW_SPST_Panasonic_EVQPL_3PL_5PL_PT_A08 (at 0 4) (layer F.Fab)
    (effects (font (size 1 1) (thickness 0.15)))
  )
  (fp_text user %R (at 0 -4) (layer F.Fab)
    (effects (font (size 1 1) (thickness 0.15)))
  )
  (fp_line (start -2.55 -1.7) (end -2.55 -0.675) (layer F.SilkS) (width 0.12))
  (fp_line (start -1.375 -2.55) (end 1.375 -2.55) (layer F.SilkS) (width 0.12))
  (fp_line (start -3.25 -3.2) (end 3.25 -3.2) (layer F.CrtYd) (width 0.05))
  (fp_circle (center 0 0) (end 1.2 0) (layer F.Fab) (width 0.1))
  (fp_line (start 2.45 2.45) (end -2.45 2.45) (layer F.Fab) (width 0.1))
  (fp_line (start 2.45 -2.45) (end 2.45 2.45) (layer F.Fab) (width 0.1))
  (fp_line (start -2.45 -2.45) (end 2.45 -2.45) (layer F.Fab) (width 0.1))
  (fp_line (start -2.45 -2.45) (end -2.45 2.45) (layer F.Fab) (width 0.1))
  (fp_line (start -3.25 3.2) (end 3.25 3.2) (layer F.CrtYd) (width 0.05))
  (fp_line (start -3.25 3.2) (end -3.25 -3.2) (layer F.CrtYd) (width 0.05))
  (fp_line (start 3.25 3.2) (end 3.25 -3.2) (layer F.CrtYd) (width 0.05))
  (fp_line (start -1.375 2.55) (end 1.375 2.55) (layer F.SilkS) (width 0.12))
  (fp_line (start -2.55 0.675) (end -2.55 1.7) (layer F.SilkS) (width 0.12))
  (fp_line (start 2.55 -1.7) (end 2.55 -0.675) (layer F.SilkS) (width 0.12))
  (fp_line (start 2.55 0.675) (end 2.55 1.7) (layer F.SilkS) (width 0.12))
  (pad 1 smd rect (at -1.85 2.2) (size 0.6 1) (layers F.Cu F.Paste F.Mask))
  (pad 1 smd rect (at -1.85 -2.2) (size 0.6 1) (layers F.Cu F.Paste F.Mask))
  (pad 2 smd rect (at 1.85 -2.2) (size 0.6 1) (layers F.Cu F.Paste F.Mask))
  (pad 2 smd rect (at 1.85 2.2) (size 0.6 1) (layers F.Cu F.Paste F.Mask))
  (pad 0 smd rect (at -2.525 0) (size 0.45 1) (layers F.Cu F.Paste F.Mask))
  (pad 0 smd rect (at 2.525 0) (size 0.45 1) (layers F.Cu F.Paste F.Mask))
  (model ${KICAD6_3DMODEL_DIR}/Button_Switch_SMD.3dshapes/SW_SPST_Panasonic_EVQPL_3PL_5PL_PT_A08.wrl
    (at (xyz 0 0 0))
    (scale (xyz 1 1 1))
    (rotate (xyz 0 0 0))
  )
)
