(module MMCX_Molex_73415-0961_Horizontal_0.8mm-PCB (layer F.Cu) (tedit 5B958ADD)
  (descr "Molex MMCX Horizontal Coaxial https://www.molex.com/pdm_docs/sd/734150961_sd.pdf")
  (tags "Molex MMCX Horizontal Coaxial")
  (attr smd)
  (fp_text reference REF** (at 0 -3.5) (layer F.SilkS)
    (effects (font (size 1 1) (thickness 0.15)))
  )
  (fp_text value MMCX_Molex_73415-0961_Horizontal_0.8mm-PCB (at 0 3.5) (layer F.Fab)
    (effects (font (size 1 1) (thickness 0.15)))
  )
  (fp_text user %R (at -1.55 0) (layer F.Fab)
    (effects (font (size 1 1) (thickness 0.15)))
  )
  (fp_line (start 0.75 -1.75) (end -3.75 -1.75) (layer Edge.Cuts) (width 0.1))
  (fp_line (start 0.75 1.75) (end 0.75 -1.75) (layer Edge.Cuts) (width 0.1))
  (fp_line (start -3.75 1.75) (end 0.75 1.75) (layer Edge.Cuts) (width 0.1))
  (fp_line (start 3.18 0) (end 3.68 -0.5) (layer F.Fab) (width 0.1))
  (fp_line (start -3.75 -2.25) (end 3.68 -2.25) (layer F.Fab) (width 0.1))
  (fp_line (start -3.75 -2.25) (end -3.75 2.25) (layer F.Fab) (width 0.1))
  (fp_line (start 3.18 0) (end 3.68 0.5) (layer F.Fab) (width 0.1))
  (fp_line (start 3.68 2.25) (end 3.68 0.5) (layer F.Fab) (width 0.1))
  (fp_line (start -3.75 2.25) (end 3.68 2.25) (layer F.Fab) (width 0.1))
  (fp_line (start -3.75 1.75) (end -3.75 -1.75) (layer Dwgs.User) (width 0.1))
  (fp_text user "PCB edge" (at -3.35 0 90) (layer Dwgs.User)
    (effects (font (size 0.4 0.4) (thickness 0.06)))
  )
  (fp_line (start -3.69 -2.56) (end 4.01 -2.56) (layer F.SilkS) (width 0.12))
  (fp_line (start 4.01 2.56) (end 4.01 -2.56) (layer F.SilkS) (width 0.12))
  (fp_line (start -3.69 2.56) (end 4.01 2.56) (layer F.SilkS) (width 0.12))
  (fp_line (start 3.68 -0.5) (end 3.68 -2.25) (layer F.Fab) (width 0.1))
  (fp_line (start 4.21 -0.55) (end 4.21 0.55) (layer F.SilkS) (width 0.12))
  (fp_line (start -4.25 -2.8) (end -4.25 2.8) (layer F.CrtYd) (width 0.05))
  (fp_line (start 4.25 -2.8) (end 4.25 2.8) (layer F.CrtYd) (width 0.05))
  (fp_line (start -4.25 2.8) (end 4.25 2.8) (layer F.CrtYd) (width 0.05))
  (fp_line (start -4.25 -2.8) (end 4.25 -2.8) (layer F.CrtYd) (width 0.05))
  (pad 1 smd rect (at 2.75 0) (size 2 1.1) (layers F.Cu F.Paste F.Mask))
  (pad 2 smd custom (at 2.25 -1.6) (size 3 1.4) (layers F.Cu F.Paste F.Mask)
    (options (clearance outline) (anchor rect))
    (primitives
      (gr_poly (pts
         (xy -6 -0.7) (xy -6 -0.15) (xy -1.5 -0.15) (xy -1.5 -0.7)) (width 0))
    ))
  (pad 2 smd custom (at 2.25 1.6) (size 3 1.4) (layers F.Cu F.Paste F.Mask)
    (options (clearance outline) (anchor rect))
    (primitives
      (gr_poly (pts
         (xy -6 0.15) (xy -6 0.7) (xy -1.5 0.7) (xy -1.5 0.15)) (width 0))
    ))
  (model ${KICAD6_3DMODEL_DIR}/Connector_Coaxial.3dshapes/MMCX_Molex_73415-0961_Horizontal.wrl
    (at (xyz 0 0 0))
    (scale (xyz 1 1 1))
    (rotate (xyz 0 0 0))
  )
)
