(module SMA_Molex_73251-1153_EdgeMount_Horizontal (layer F.Cu) (tedit 5A1B666F)
  (descr "Molex SMA RF Connectors, Edge Mount, (http://www.molex.com/pdm_docs/sd/732511150_sd.pdf)")
  (tags "sma edge")
  (attr smd)
  (fp_text reference REF** (at -1.5 7) (layer F.SilkS)
    (effects (font (size 1 1) (thickness 0.15)))
  )
  (fp_text value SMA_Molex_73251-1153_EdgeMount_Horizontal (at -1.72 -7.11) (layer F.Fab)
    (effects (font (size 1 1) (thickness 0.15)))
  )
  (fp_text user %R (at -1.5 7) (layer F.Fab)
    (effects (font (size 1 1) (thickness 0.15)))
  )
  (fp_line (start 2.5 0.25) (end 2.5 -0.25) (layer F.Fab) (width 0.1))
  (fp_line (start 2 0) (end 2.5 0.25) (layer F.Fab) (width 0.1))
  (fp_line (start 2.5 -0.25) (end 2 0) (layer F.Fab) (width 0.1))
  (fp_line (start 2.5 0.25) (end 2 0) (layer F.SilkS) (width 0.12))
  (fp_line (start 2.5 -0.25) (end 2.5 0.25) (layer F.SilkS) (width 0.12))
  (fp_line (start 2 0) (end 2.5 -0.25) (layer F.SilkS) (width 0.12))
  (fp_line (start -4.76 -0.38) (end 0.49 -0.38) (layer F.Fab) (width 0.1))
  (fp_line (start -4.76 0.38) (end 0.49 0.38) (layer F.Fab) (width 0.1))
  (fp_line (start 0.49 -0.38) (end 0.49 0.38) (layer F.Fab) (width 0.1))
  (fp_line (start 0.49 3.75) (end 0.49 4.76) (layer F.Fab) (width 0.1))
  (fp_line (start 0.49 -4.76) (end 0.49 -3.75) (layer F.Fab) (width 0.1))
  (fp_line (start -14.29 -6.09) (end -14.29 6.09) (layer F.CrtYd) (width 0.05))
  (fp_line (start -14.29 6.09) (end 2.71 6.09) (layer F.CrtYd) (width 0.05))
  (fp_line (start 2.71 -6.09) (end 2.71 6.09) (layer B.CrtYd) (width 0.05))
  (fp_line (start -14.29 -6.09) (end 2.71 -6.09) (layer B.CrtYd) (width 0.05))
  (fp_line (start -14.29 -6.09) (end -14.29 6.09) (layer B.CrtYd) (width 0.05))
  (fp_line (start -14.29 6.09) (end 2.71 6.09) (layer B.CrtYd) (width 0.05))
  (fp_line (start 2.71 -6.09) (end 2.71 6.09) (layer F.CrtYd) (width 0.05))
  (fp_line (start 2.71 -6.09) (end -14.29 -6.09) (layer F.CrtYd) (width 0.05))
  (fp_line (start -4.76 -3.75) (end 0.49 -3.75) (layer F.Fab) (width 0.1))
  (fp_line (start -4.76 3.75) (end 0.49 3.75) (layer F.Fab) (width 0.1))
  (fp_line (start -13.79 -2.65) (end -5.91 -2.65) (layer F.Fab) (width 0.1))
  (fp_line (start -13.79 -2.65) (end -13.79 2.65) (layer F.Fab) (width 0.1))
  (fp_line (start -13.79 2.65) (end -5.91 2.65) (layer F.Fab) (width 0.1))
  (fp_line (start -4.76 -3.75) (end -4.76 3.75) (layer F.Fab) (width 0.1))
  (fp_line (start 0.49 -4.76) (end -5.91 -4.76) (layer F.Fab) (width 0.1))
  (fp_line (start -5.91 -4.76) (end -5.91 4.76) (layer F.Fab) (width 0.1))
  (fp_line (start -5.91 4.76) (end 0.49 4.76) (layer F.Fab) (width 0.1))
  (pad 1 smd rect (at -1.72 0) (size 5.08 2.29) (layers F.Cu F.Paste F.Mask))
  (pad 2 smd rect (at -1.72 -4.38) (size 5.08 2.42) (layers F.Cu F.Paste F.Mask))
  (pad 2 smd rect (at -1.72 4.38) (size 5.08 2.42) (layers F.Cu F.Paste F.Mask))
  (pad 2 smd rect (at -1.72 -4.38) (size 5.08 2.42) (layers B.Cu B.Paste B.Mask))
  (pad 2 smd rect (at -1.72 4.38) (size 5.08 2.42) (layers B.Cu B.Paste B.Mask))
  (pad 2 thru_hole circle (at 1.72 -4.38) (size 0.97 0.97) (drill 0.46) (layers *.Cu))
  (pad 2 thru_hole circle (at 1.72 4.38) (size 0.97 0.97) (drill 0.46) (layers *.Cu))
  (pad 2 smd rect (at 1.27 -4.38) (size 0.95 0.46) (layers F.Cu))
  (pad 2 smd rect (at 1.27 4.38) (size 0.95 0.46) (layers F.Cu))
  (pad 2 smd rect (at 1.27 -4.38) (size 0.95 0.46) (layers B.Cu))
  (pad 2 smd rect (at 1.27 4.38) (size 0.95 0.46) (layers B.Cu))
  (model ${KICAD6_3DMODEL_DIR}/Connector_Coaxial.3dshapes/SMA_Molex_73251-1153_EdgeMount_Horizontal.wrl
    (at (xyz 0 0 0))
    (scale (xyz 1 1 1))
    (rotate (xyz 0 0 0))
  )
)
