(module SMA_Molex_73251-2120_EdgeMount_Horizontal (layer F.Cu) (tedit 5EBD110B)
  (descr "Molex SMA RF Connector, Edge Mount, (http://www.molex.com/pdm_docs/sd/732512120_sd.pdf)")
  (tags "sma edge")
  (attr smd)
  (fp_text reference REF** (at -0.705 6.1) (layer F.SilkS)
    (effects (font (size 1 1) (thickness 0.15)))
  )
  (fp_text value SMA_Molex_73251-2120_EdgeMount_Horizontal (at -0.1 -6.2) (layer F.Fab)
    (effects (font (size 1 1) (thickness 0.15)))
  )
  (fp_line (start 3.115 3.175) (end -1.715 3.175) (layer F.Fab) (width 0.1))
  (fp_line (start 3.115 -3.175) (end 3.115 3.175) (layer F.Fab) (width 0.1))
  (fp_line (start -1.715 -3.175) (end 3.115 -3.175) (layer F.Fab) (width 0.1))
  (fp_line (start 2.095 -2.155) (end 2.095 2.155) (layer F.Fab) (width 0.1))
  (fp_line (start 14.545 2.64) (end 3.115 2.64) (layer F.Fab) (width 0.1))
  (fp_line (start 14.545 -2.64) (end 14.545 2.64) (layer F.Fab) (width 0.1))
  (fp_line (start 14.545 -2.64) (end 3.115 -2.64) (layer F.Fab) (width 0.1))
  (fp_line (start 2.095 2.155) (end -1.715 2.155) (layer F.Fab) (width 0.1))
  (fp_line (start 2.095 -2.155) (end -1.715 -2.155) (layer F.Fab) (width 0.1))
  (fp_line (start -3.975 -5.33) (end 15.045 -5.33) (layer F.CrtYd) (width 0.05))
  (fp_line (start -3.975 -5.33) (end -3.975 5.33) (layer F.CrtYd) (width 0.05))
  (fp_line (start 15.045 5.33) (end -3.975 5.33) (layer F.CrtYd) (width 0.05))
  (fp_line (start 15.045 -5.33) (end 15.045 5.33) (layer F.CrtYd) (width 0.05))
  (fp_line (start -1.715 -3.175) (end -1.715 -2.155) (layer F.Fab) (width 0.1))
  (fp_line (start -1.715 -0.635) (end -1.715 0.635) (layer F.Fab) (width 0.1))
  (fp_line (start 2.095 0.635) (end -1.715 0.635) (layer F.Fab) (width 0.1))
  (fp_line (start 2.095 -0.635) (end -1.715 -0.635) (layer F.Fab) (width 0.1))
  (fp_line (start -2.4 0) (end -2.9 -0.25) (layer F.SilkS) (width 0.12))
  (fp_line (start -2.9 -0.25) (end -2.9 0.25) (layer F.SilkS) (width 0.12))
  (fp_line (start -2.9 0.25) (end -2.4 0) (layer F.SilkS) (width 0.12))
  (fp_line (start -2.9 -0.25) (end -2.4 0) (layer F.Fab) (width 0.1))
  (fp_line (start -2.4 0) (end -2.9 0.25) (layer F.Fab) (width 0.1))
  (fp_line (start -2.9 0.25) (end -2.9 -0.25) (layer F.Fab) (width 0.1))
  (fp_text user %R (at 9.095 0) (layer F.Fab)
    (effects (font (size 1 1) (thickness 0.15)))
  )
  (fp_line (start -1.715 3.175) (end -1.715 2.155) (layer F.Fab) (width 0.1))
  (fp_line (start -3.975 -5.33) (end -3.975 5.33) (layer B.CrtYd) (width 0.05))
  (fp_line (start 15.045 5.33) (end -3.975 5.33) (layer B.CrtYd) (width 0.05))
  (fp_line (start 15.045 -5.33) (end 15.045 5.33) (layer B.CrtYd) (width 0.05))
  (fp_line (start -3.975 -5.33) (end 15.045 -5.33) (layer B.CrtYd) (width 0.05))
  (fp_line (start 2.095 -0.635) (end 2.9 0) (layer F.Fab) (width 0.1))
  (fp_line (start 2.9 0) (end 2.095 0.635) (layer F.Fab) (width 0.1))
  (fp_text user "PCB Edge" (at 2.155 0 270) (layer Dwgs.User)
    (effects (font (size 0.5 0.5) (thickness 0.08)))
  )
  (pad 2 smd rect (at -2.54 -3.4925) (size 0.89 0.46) (layers B.Cu))
  (pad 2 smd rect (at -2.54 -3.4925) (size 0.89 0.46) (layers F.Cu))
  (pad 2 thru_hole circle (at -2.985 -3.4925) (size 0.97 0.97) (drill 0.46) (layers *.Cu))
  (pad 2 smd rect (at 0 3.4925) (size 4.19 2.665) (layers F.Cu F.Paste F.Mask))
  (pad 1 smd rect (at 0 0) (size 4.19 1.78) (layers F.Cu F.Paste F.Mask))
  (pad 2 smd rect (at 0 3.4925) (size 4.19 2.665) (layers B.Cu B.Paste B.Mask))
  (pad 2 smd rect (at 0 -3.4925) (size 4.19 2.665) (layers F.Cu F.Paste F.Mask))
  (pad 2 smd rect (at 0 -3.4925) (size 4.19 2.665) (layers B.Cu B.Paste B.Mask))
  (pad 2 smd rect (at -2.54 3.4925) (size 0.89 0.46) (layers F.Cu))
  (pad 2 thru_hole circle (at -2.985 3.4925) (size 0.97 0.97) (drill 0.46) (layers *.Cu))
  (pad 2 smd rect (at -2.54 3.4925) (size 0.89 0.46) (layers B.Cu))
  (model ${KICAD6_3DMODEL_DIR}/Connector_Coaxial.3dshapes/SMA_Molex_73251-2120_EdgeMount_Horizontal.wrl
    (at (xyz 0 0 0))
    (scale (xyz 1 1 1))
    (rotate (xyz 0 0 0))
  )
)
