(module U.FL_Hirose_U.FL-R-SMT-1_Vertical (layer F.Cu) (tedit 5A1DBFC3)
  (descr "Hirose U.FL Coaxial https://www.hirose.com/product/en/products/U.FL/U.FL-R-SMT-1%2810%29/")
  (tags "Hirose U.FL Coaxial")
  (attr smd)
  (fp_text reference REF** (at 0.475 -3.2) (layer F.SilkS)
    (effects (font (size 1 1) (thickness 0.15)))
  )
  (fp_text value U.FL_Hirose_U.FL-R-SMT-1_Vertical (at 0.475 3.2) (layer F.Fab)
    (effects (font (size 1 1) (thickness 0.15)))
  )
  (fp_text user %R (at 0.475 0 90) (layer F.Fab)
    (effects (font (size 0.6 0.6) (thickness 0.09)))
  )
  (fp_line (start -2.02 1) (end -2.02 -1) (layer F.CrtYd) (width 0.05))
  (fp_line (start -1.32 1) (end -2.02 1) (layer F.CrtYd) (width 0.05))
  (fp_line (start 2.08 1.8) (end 2.28 1.8) (layer F.CrtYd) (width 0.05))
  (fp_line (start 2.08 2.5) (end 2.08 1.8) (layer F.CrtYd) (width 0.05))
  (fp_line (start 2.28 1.8) (end 2.28 -1.8) (layer F.CrtYd) (width 0.05))
  (fp_line (start -1.32 1.8) (end -1.12 1.8) (layer F.CrtYd) (width 0.05))
  (fp_line (start -1.12 2.5) (end -1.12 1.8) (layer F.CrtYd) (width 0.05))
  (fp_line (start 2.08 2.5) (end -1.12 2.5) (layer F.CrtYd) (width 0.05))
  (fp_line (start 1.835 -1.35) (end 1.835 1.35) (layer F.SilkS) (width 0.12))
  (fp_line (start -0.885 -0.76) (end -1.515 -0.76) (layer F.SilkS) (width 0.12))
  (fp_line (start -0.885 1.4) (end -0.885 0.76) (layer F.SilkS) (width 0.12))
  (fp_line (start -0.925 -0.3) (end -1.075 -0.15) (layer F.Fab) (width 0.1))
  (fp_line (start 1.775 -1.3) (end 1.375 -1.3) (layer F.Fab) (width 0.1))
  (fp_line (start 1.375 -1.5) (end 1.375 -1.3) (layer F.Fab) (width 0.1))
  (fp_line (start -0.425 -1.5) (end 1.375 -1.5) (layer F.Fab) (width 0.1))
  (fp_line (start 1.775 -1.3) (end 1.775 1.3) (layer F.Fab) (width 0.1))
  (fp_line (start 1.775 1.3) (end 1.375 1.3) (layer F.Fab) (width 0.1))
  (fp_line (start 1.375 1.5) (end 1.375 1.3) (layer F.Fab) (width 0.1))
  (fp_line (start -0.425 1.5) (end 1.375 1.5) (layer F.Fab) (width 0.1))
  (fp_line (start -0.425 -1.3) (end -0.825 -1.3) (layer F.Fab) (width 0.1))
  (fp_line (start -0.425 -1.5) (end -0.425 -1.3) (layer F.Fab) (width 0.1))
  (fp_line (start -0.825 -0.3) (end -0.825 -1.3) (layer F.Fab) (width 0.1))
  (fp_line (start -0.925 -0.3) (end -0.825 -0.3) (layer F.Fab) (width 0.1))
  (fp_line (start -1.075 0.3) (end -1.075 -0.15) (layer F.Fab) (width 0.1))
  (fp_line (start -1.075 0.3) (end -0.825 0.3) (layer F.Fab) (width 0.1))
  (fp_line (start -0.825 0.3) (end -0.825 1.3) (layer F.Fab) (width 0.1))
  (fp_line (start -0.425 1.3) (end -0.825 1.3) (layer F.Fab) (width 0.1))
  (fp_line (start -0.425 1.5) (end -0.425 1.3) (layer F.Fab) (width 0.1))
  (fp_line (start -0.885 -1.4) (end -0.885 -0.76) (layer F.SilkS) (width 0.12))
  (fp_line (start 2.08 -1.8) (end 2.28 -1.8) (layer F.CrtYd) (width 0.05))
  (fp_line (start 2.08 -1.8) (end 2.08 -2.5) (layer F.CrtYd) (width 0.05))
  (fp_line (start -1.32 -1) (end -1.32 -1.8) (layer F.CrtYd) (width 0.05))
  (fp_line (start 2.08 -2.5) (end -1.12 -2.5) (layer F.CrtYd) (width 0.05))
  (fp_line (start -1.12 -1.8) (end -1.12 -2.5) (layer F.CrtYd) (width 0.05))
  (fp_line (start -1.32 -1.8) (end -1.12 -1.8) (layer F.CrtYd) (width 0.05))
  (fp_line (start -1.32 1.8) (end -1.32 1) (layer F.CrtYd) (width 0.05))
  (fp_line (start -1.32 -1) (end -2.02 -1) (layer F.CrtYd) (width 0.05))
  (pad 2 smd rect (at 0.475 1.475) (size 2.2 1.05) (layers F.Cu F.Paste F.Mask))
  (pad 1 smd rect (at -1.05 0) (size 1.05 1) (layers F.Cu F.Paste F.Mask))
  (pad 2 smd rect (at 0.475 -1.475) (size 2.2 1.05) (layers F.Cu F.Paste F.Mask))
  (model ${KICAD6_3DMODEL_DIR}/Connector_Coaxial.3dshapes/U.FL_Hirose_U.FL-R-SMT-1_Vertical.wrl
    (at (xyz 0.0187007874 0 0))
    (scale (xyz 1 1 1))
    (rotate (xyz 0 0 0))
  )
)
