(module PhoenixContact_MC_1,5_11-G-5.08_1x11_P5.08mm_Horizontal (layer F.Cu) (tedit 5B784ED2)
  (descr "Generic Phoenix Contact connector footprint for: MC_1,5/11-G-5.08; number of pins: 11; pin pitch: 5.08mm; Angled || order number: 1836273 8A 320V")
  (tags "phoenix_contact connector MC_01x11_G_5.08mm")
  (fp_text reference REF** (at 25.4 -3) (layer F.SilkS)
    (effects (font (size 1 1) (thickness 0.15)))
  )
  (fp_text value PhoenixContact_MC_1,5_11-G-5.08_1x11_P5.08mm_Horizontal (at 25.4 9.2) (layer F.Fab)
    (effects (font (size 1 1) (thickness 0.15)))
  )
  (fp_line (start -2.65 -1.31) (end -2.65 8.11) (layer F.SilkS) (width 0.12))
  (fp_line (start -2.65 8.11) (end 53.45 8.11) (layer F.SilkS) (width 0.12))
  (fp_line (start 53.45 8.11) (end 53.45 -1.31) (layer F.SilkS) (width 0.12))
  (fp_line (start -2.65 -1.31) (end -1.05 -1.31) (layer F.SilkS) (width 0.12))
  (fp_line (start 53.45 -1.31) (end 51.85 -1.31) (layer F.SilkS) (width 0.12))
  (fp_line (start 1.05 -1.31) (end 4.03 -1.31) (layer F.SilkS) (width 0.12))
  (fp_line (start 6.13 -1.31) (end 9.11 -1.31) (layer F.SilkS) (width 0.12))
  (fp_line (start 11.21 -1.31) (end 14.19 -1.31) (layer F.SilkS) (width 0.12))
  (fp_line (start 16.29 -1.31) (end 19.27 -1.31) (layer F.SilkS) (width 0.12))
  (fp_line (start 21.37 -1.31) (end 24.35 -1.31) (layer F.SilkS) (width 0.12))
  (fp_line (start 26.45 -1.31) (end 29.43 -1.31) (layer F.SilkS) (width 0.12))
  (fp_line (start 31.53 -1.31) (end 34.51 -1.31) (layer F.SilkS) (width 0.12))
  (fp_line (start 36.61 -1.31) (end 39.59 -1.31) (layer F.SilkS) (width 0.12))
  (fp_line (start 41.69 -1.31) (end 44.67 -1.31) (layer F.SilkS) (width 0.12))
  (fp_line (start 46.77 -1.31) (end 49.75 -1.31) (layer F.SilkS) (width 0.12))
  (fp_line (start -2.54 -1.2) (end -2.54 8) (layer F.Fab) (width 0.1))
  (fp_line (start -2.54 8) (end 53.34 8) (layer F.Fab) (width 0.1))
  (fp_line (start 53.34 8) (end 53.34 -1.2) (layer F.Fab) (width 0.1))
  (fp_line (start 53.34 -1.2) (end -2.54 -1.2) (layer F.Fab) (width 0.1))
  (fp_line (start -2.65 4.8) (end 53.45 4.8) (layer F.SilkS) (width 0.12))
  (fp_line (start -3.15 -2.3) (end -3.15 8.5) (layer F.CrtYd) (width 0.05))
  (fp_line (start -3.15 8.5) (end 53.84 8.5) (layer F.CrtYd) (width 0.05))
  (fp_line (start 53.84 8.5) (end 53.84 -2.3) (layer F.CrtYd) (width 0.05))
  (fp_line (start 53.84 -2.3) (end -3.15 -2.3) (layer F.CrtYd) (width 0.05))
  (fp_line (start 0.3 -2.6) (end 0 -2) (layer F.SilkS) (width 0.12))
  (fp_line (start 0 -2) (end -0.3 -2.6) (layer F.SilkS) (width 0.12))
  (fp_line (start -0.3 -2.6) (end 0.3 -2.6) (layer F.SilkS) (width 0.12))
  (fp_line (start 0.8 -1.2) (end 0 0) (layer F.Fab) (width 0.1))
  (fp_line (start 0 0) (end -0.8 -1.2) (layer F.Fab) (width 0.1))
  (pad 1 thru_hole roundrect (at 0 0) (size 1.8 3.6) (drill 1.2) (layers *.Cu *.Mask) (roundrect_rratio 0.138889))
  (pad 2 thru_hole oval (at 5.08 0) (size 1.8 3.6) (drill 1.2) (layers *.Cu *.Mask))
  (pad 3 thru_hole oval (at 10.16 0) (size 1.8 3.6) (drill 1.2) (layers *.Cu *.Mask))
  (pad 4 thru_hole oval (at 15.24 0) (size 1.8 3.6) (drill 1.2) (layers *.Cu *.Mask))
  (pad 5 thru_hole oval (at 20.32 0) (size 1.8 3.6) (drill 1.2) (layers *.Cu *.Mask))
  (pad 6 thru_hole oval (at 25.4 0) (size 1.8 3.6) (drill 1.2) (layers *.Cu *.Mask))
  (pad 7 thru_hole oval (at 30.48 0) (size 1.8 3.6) (drill 1.2) (layers *.Cu *.Mask))
  (pad 8 thru_hole oval (at 35.56 0) (size 1.8 3.6) (drill 1.2) (layers *.Cu *.Mask))
  (pad 9 thru_hole oval (at 40.64 0) (size 1.8 3.6) (drill 1.2) (layers *.Cu *.Mask))
  (pad 10 thru_hole oval (at 45.72 0) (size 1.8 3.6) (drill 1.2) (layers *.Cu *.Mask))
  (pad 11 thru_hole oval (at 50.8 0) (size 1.8 3.6) (drill 1.2) (layers *.Cu *.Mask))
  (fp_text user %R (at 25.4 -0.5) (layer F.Fab)
    (effects (font (size 1 1) (thickness 0.15)))
  )
  (model ${KICAD6_3DMODEL_DIR}/Connector_Phoenix_MC_HighVoltage.3dshapes/PhoenixContact_MC_1,5_11-G-5.08_1x11_P5.08mm_Horizontal.wrl
    (at (xyz 0 0 0))
    (scale (xyz 1 1 1))
    (rotate (xyz 0 0 0))
  )
)