(module PhoenixContact_MCV_1,5_6-G-5.08_1x06_P5.08mm_Vertical (layer F.Cu) (tedit 5B784ED3)
  (descr "Generic Phoenix Contact connector footprint for: MCV_1,5/6-G-5.08; number of pins: 06; pin pitch: 5.08mm; Vertical || order number: 1836338 8A 320V")
  (tags "phoenix_contact connector MCV_01x06_G_5.08mm")
  (fp_text reference REF** (at 12.7 -5.55) (layer F.SilkS)
    (effects (font (size 1 1) (thickness 0.15)))
  )
  (fp_text value PhoenixContact_MCV_1,5_6-G-5.08_1x06_P5.08mm_Vertical (at 12.7 4.1) (layer F.Fab)
    (effects (font (size 1 1) (thickness 0.15)))
  )
  (fp_arc (start 0 3.85) (end -0.75 2.15) (angle 47.6) (layer F.SilkS) (width 0.12))
  (fp_arc (start 5.08 3.85) (end 4.33 2.15) (angle 47.6) (layer F.SilkS) (width 0.12))
  (fp_arc (start 10.16 3.85) (end 9.41 2.15) (angle 47.6) (layer F.SilkS) (width 0.12))
  (fp_arc (start 15.24 3.85) (end 14.49 2.15) (angle 47.6) (layer F.SilkS) (width 0.12))
  (fp_arc (start 20.32 3.85) (end 19.57 2.15) (angle 47.6) (layer F.SilkS) (width 0.12))
  (fp_arc (start 25.4 3.85) (end 24.65 2.15) (angle 47.6) (layer F.SilkS) (width 0.12))
  (fp_line (start -2.65 -4.46) (end -2.65 3.01) (layer F.SilkS) (width 0.12))
  (fp_line (start -2.65 3.01) (end 28.05 3.01) (layer F.SilkS) (width 0.12))
  (fp_line (start 28.05 3.01) (end 28.05 -4.46) (layer F.SilkS) (width 0.12))
  (fp_line (start 28.05 -4.46) (end -2.65 -4.46) (layer F.SilkS) (width 0.12))
  (fp_line (start -2.54 -4.35) (end -2.54 2.9) (layer F.Fab) (width 0.1))
  (fp_line (start -2.54 2.9) (end 27.94 2.9) (layer F.Fab) (width 0.1))
  (fp_line (start 27.94 2.9) (end 27.94 -4.35) (layer F.Fab) (width 0.1))
  (fp_line (start 27.94 -4.35) (end -2.54 -4.35) (layer F.Fab) (width 0.1))
  (fp_line (start -0.75 2.15) (end -1.5 2.15) (layer F.SilkS) (width 0.12))
  (fp_line (start -1.5 2.15) (end -1.5 -2.15) (layer F.SilkS) (width 0.12))
  (fp_line (start -1.5 -2.15) (end -0.75 -2.15) (layer F.SilkS) (width 0.12))
  (fp_line (start -0.75 -2.15) (end -0.75 -2.5) (layer F.SilkS) (width 0.12))
  (fp_line (start -0.75 -2.5) (end -1.25 -2.5) (layer F.SilkS) (width 0.12))
  (fp_line (start -1.25 -2.5) (end -1.5 -3.5) (layer F.SilkS) (width 0.12))
  (fp_line (start -1.5 -3.5) (end 1.5 -3.5) (layer F.SilkS) (width 0.12))
  (fp_line (start 1.5 -3.5) (end 1.25 -2.5) (layer F.SilkS) (width 0.12))
  (fp_line (start 1.25 -2.5) (end 0.75 -2.5) (layer F.SilkS) (width 0.12))
  (fp_line (start 0.75 -2.5) (end 0.75 -2.15) (layer F.SilkS) (width 0.12))
  (fp_line (start 0.75 -2.15) (end 1.5 -2.15) (layer F.SilkS) (width 0.12))
  (fp_line (start 1.5 -2.15) (end 1.5 2.15) (layer F.SilkS) (width 0.12))
  (fp_line (start 1.5 2.15) (end 0.75 2.15) (layer F.SilkS) (width 0.12))
  (fp_line (start 4.33 2.15) (end 3.58 2.15) (layer F.SilkS) (width 0.12))
  (fp_line (start 3.58 2.15) (end 3.58 -2.15) (layer F.SilkS) (width 0.12))
  (fp_line (start 3.58 -2.15) (end 4.33 -2.15) (layer F.SilkS) (width 0.12))
  (fp_line (start 4.33 -2.15) (end 4.33 -2.5) (layer F.SilkS) (width 0.12))
  (fp_line (start 4.33 -2.5) (end 3.83 -2.5) (layer F.SilkS) (width 0.12))
  (fp_line (start 3.83 -2.5) (end 3.58 -3.5) (layer F.SilkS) (width 0.12))
  (fp_line (start 3.58 -3.5) (end 6.58 -3.5) (layer F.SilkS) (width 0.12))
  (fp_line (start 6.58 -3.5) (end 6.33 -2.5) (layer F.SilkS) (width 0.12))
  (fp_line (start 6.33 -2.5) (end 5.83 -2.5) (layer F.SilkS) (width 0.12))
  (fp_line (start 5.83 -2.5) (end 5.83 -2.15) (layer F.SilkS) (width 0.12))
  (fp_line (start 5.83 -2.15) (end 6.58 -2.15) (layer F.SilkS) (width 0.12))
  (fp_line (start 6.58 -2.15) (end 6.58 2.15) (layer F.SilkS) (width 0.12))
  (fp_line (start 6.58 2.15) (end 5.83 2.15) (layer F.SilkS) (width 0.12))
  (fp_line (start 9.41 2.15) (end 8.66 2.15) (layer F.SilkS) (width 0.12))
  (fp_line (start 8.66 2.15) (end 8.66 -2.15) (layer F.SilkS) (width 0.12))
  (fp_line (start 8.66 -2.15) (end 9.41 -2.15) (layer F.SilkS) (width 0.12))
  (fp_line (start 9.41 -2.15) (end 9.41 -2.5) (layer F.SilkS) (width 0.12))
  (fp_line (start 9.41 -2.5) (end 8.91 -2.5) (layer F.SilkS) (width 0.12))
  (fp_line (start 8.91 -2.5) (end 8.66 -3.5) (layer F.SilkS) (width 0.12))
  (fp_line (start 8.66 -3.5) (end 11.66 -3.5) (layer F.SilkS) (width 0.12))
  (fp_line (start 11.66 -3.5) (end 11.41 -2.5) (layer F.SilkS) (width 0.12))
  (fp_line (start 11.41 -2.5) (end 10.91 -2.5) (layer F.SilkS) (width 0.12))
  (fp_line (start 10.91 -2.5) (end 10.91 -2.15) (layer F.SilkS) (width 0.12))
  (fp_line (start 10.91 -2.15) (end 11.66 -2.15) (layer F.SilkS) (width 0.12))
  (fp_line (start 11.66 -2.15) (end 11.66 2.15) (layer F.SilkS) (width 0.12))
  (fp_line (start 11.66 2.15) (end 10.91 2.15) (layer F.SilkS) (width 0.12))
  (fp_line (start 14.49 2.15) (end 13.74 2.15) (layer F.SilkS) (width 0.12))
  (fp_line (start 13.74 2.15) (end 13.74 -2.15) (layer F.SilkS) (width 0.12))
  (fp_line (start 13.74 -2.15) (end 14.49 -2.15) (layer F.SilkS) (width 0.12))
  (fp_line (start 14.49 -2.15) (end 14.49 -2.5) (layer F.SilkS) (width 0.12))
  (fp_line (start 14.49 -2.5) (end 13.99 -2.5) (layer F.SilkS) (width 0.12))
  (fp_line (start 13.99 -2.5) (end 13.74 -3.5) (layer F.SilkS) (width 0.12))
  (fp_line (start 13.74 -3.5) (end 16.74 -3.5) (layer F.SilkS) (width 0.12))
  (fp_line (start 16.74 -3.5) (end 16.49 -2.5) (layer F.SilkS) (width 0.12))
  (fp_line (start 16.49 -2.5) (end 15.99 -2.5) (layer F.SilkS) (width 0.12))
  (fp_line (start 15.99 -2.5) (end 15.99 -2.15) (layer F.SilkS) (width 0.12))
  (fp_line (start 15.99 -2.15) (end 16.74 -2.15) (layer F.SilkS) (width 0.12))
  (fp_line (start 16.74 -2.15) (end 16.74 2.15) (layer F.SilkS) (width 0.12))
  (fp_line (start 16.74 2.15) (end 15.99 2.15) (layer F.SilkS) (width 0.12))
  (fp_line (start 19.57 2.15) (end 18.82 2.15) (layer F.SilkS) (width 0.12))
  (fp_line (start 18.82 2.15) (end 18.82 -2.15) (layer F.SilkS) (width 0.12))
  (fp_line (start 18.82 -2.15) (end 19.57 -2.15) (layer F.SilkS) (width 0.12))
  (fp_line (start 19.57 -2.15) (end 19.57 -2.5) (layer F.SilkS) (width 0.12))
  (fp_line (start 19.57 -2.5) (end 19.07 -2.5) (layer F.SilkS) (width 0.12))
  (fp_line (start 19.07 -2.5) (end 18.82 -3.5) (layer F.SilkS) (width 0.12))
  (fp_line (start 18.82 -3.5) (end 21.82 -3.5) (layer F.SilkS) (width 0.12))
  (fp_line (start 21.82 -3.5) (end 21.57 -2.5) (layer F.SilkS) (width 0.12))
  (fp_line (start 21.57 -2.5) (end 21.07 -2.5) (layer F.SilkS) (width 0.12))
  (fp_line (start 21.07 -2.5) (end 21.07 -2.15) (layer F.SilkS) (width 0.12))
  (fp_line (start 21.07 -2.15) (end 21.82 -2.15) (layer F.SilkS) (width 0.12))
  (fp_line (start 21.82 -2.15) (end 21.82 2.15) (layer F.SilkS) (width 0.12))
  (fp_line (start 21.82 2.15) (end 21.07 2.15) (layer F.SilkS) (width 0.12))
  (fp_line (start 24.65 2.15) (end 23.9 2.15) (layer F.SilkS) (width 0.12))
  (fp_line (start 23.9 2.15) (end 23.9 -2.15) (layer F.SilkS) (width 0.12))
  (fp_line (start 23.9 -2.15) (end 24.65 -2.15) (layer F.SilkS) (width 0.12))
  (fp_line (start 24.65 -2.15) (end 24.65 -2.5) (layer F.SilkS) (width 0.12))
  (fp_line (start 24.65 -2.5) (end 24.15 -2.5) (layer F.SilkS) (width 0.12))
  (fp_line (start 24.15 -2.5) (end 23.9 -3.5) (layer F.SilkS) (width 0.12))
  (fp_line (start 23.9 -3.5) (end 26.9 -3.5) (layer F.SilkS) (width 0.12))
  (fp_line (start 26.9 -3.5) (end 26.65 -2.5) (layer F.SilkS) (width 0.12))
  (fp_line (start 26.65 -2.5) (end 26.15 -2.5) (layer F.SilkS) (width 0.12))
  (fp_line (start 26.15 -2.5) (end 26.15 -2.15) (layer F.SilkS) (width 0.12))
  (fp_line (start 26.15 -2.15) (end 26.9 -2.15) (layer F.SilkS) (width 0.12))
  (fp_line (start 26.9 -2.15) (end 26.9 2.15) (layer F.SilkS) (width 0.12))
  (fp_line (start 26.9 2.15) (end 26.15 2.15) (layer F.SilkS) (width 0.12))
  (fp_line (start -3.04 -4.85) (end -3.04 3.4) (layer F.CrtYd) (width 0.05))
  (fp_line (start -3.04 3.4) (end 28.44 3.4) (layer F.CrtYd) (width 0.05))
  (fp_line (start 28.44 3.4) (end 28.44 -4.85) (layer F.CrtYd) (width 0.05))
  (fp_line (start 28.44 -4.85) (end -3.04 -4.85) (layer F.CrtYd) (width 0.05))
  (fp_line (start -3.04 -3.6) (end -3.04 -4.85) (layer F.SilkS) (width 0.12))
  (fp_line (start -3.04 -4.85) (end -1.04 -4.85) (layer F.SilkS) (width 0.12))
  (fp_line (start -3.04 -3.6) (end -3.04 -4.85) (layer F.Fab) (width 0.1))
  (fp_line (start -3.04 -4.85) (end -1.04 -4.85) (layer F.Fab) (width 0.1))
  (pad 1 thru_hole roundrect (at 0 0) (size 1.8 3.6) (drill 1.2) (layers *.Cu *.Mask) (roundrect_rratio 0.138889))
  (pad 2 thru_hole oval (at 5.08 0) (size 1.8 3.6) (drill 1.2) (layers *.Cu *.Mask))
  (pad 3 thru_hole oval (at 10.16 0) (size 1.8 3.6) (drill 1.2) (layers *.Cu *.Mask))
  (pad 4 thru_hole oval (at 15.24 0) (size 1.8 3.6) (drill 1.2) (layers *.Cu *.Mask))
  (pad 5 thru_hole oval (at 20.32 0) (size 1.8 3.6) (drill 1.2) (layers *.Cu *.Mask))
  (pad 6 thru_hole oval (at 25.4 0) (size 1.8 3.6) (drill 1.2) (layers *.Cu *.Mask))
  (fp_text user %R (at 12.7 -3.65) (layer F.Fab)
    (effects (font (size 1 1) (thickness 0.15)))
  )
  (model ${KICAD6_3DMODEL_DIR}/Connector_Phoenix_MC_HighVoltage.3dshapes/PhoenixContact_MCV_1,5_6-G-5.08_1x06_P5.08mm_Vertical.wrl
    (at (xyz 0 0 0))
    (scale (xyz 1 1 1))
    (rotate (xyz 0 0 0))
  )
)