(module PhoenixContact_MC_1,5_7-GF-5.08_1x07_P5.08mm_Horizontal_ThreadedFlange_MountHole (layer F.Cu) (tedit 5B784ED3)
  (descr "Generic Phoenix Contact connector footprint for: MC_1,5/7-GF-5.08; number of pins: 07; pin pitch: 5.08mm; Angled; threaded flange; footprint includes mount hole for mounting screw: ISO 1481-ST 2.2x4.5 C or ISO 7049-ST 2.2x4.5 C (http://www.fasteners.eu/standards/ISO/7049/) || order number: 1847518 8A 320V")
  (tags "phoenix_contact connector MC_01x07_GF_5.08mm_MH")
  (fp_text reference REF** (at 15.24 -3) (layer F.SilkS)
    (effects (font (size 1 1) (thickness 0.15)))
  )
  (fp_text value PhoenixContact_MC_1,5_7-GF-5.08_1x07_P5.08mm_Horizontal_ThreadedFlange_MountHole (at 15.24 9.2) (layer F.Fab)
    (effects (font (size 1 1) (thickness 0.15)))
  )
  (fp_circle (center -4.5 0.9) (end -2.29 0.9) (layer B.SilkS) (width 0.12))
  (fp_circle (center 34.98 0.9) (end 37.19 0.9) (layer B.SilkS) (width 0.12))
  (fp_circle (center 34.98 0.9) (end 37.08 0.9) (layer B.Fab) (width 0.1))
  (fp_circle (center -4.5 0.9) (end -2.4 0.9) (layer B.Fab) (width 0.1))
  (fp_circle (center 34.98 0.9) (end 37.58 0.9) (layer B.CrtYd) (width 0.05))
  (fp_circle (center -4.5 0.9) (end -1.9 0.9) (layer B.CrtYd) (width 0.05))
  (fp_line (start -7.21 -1.31) (end -7.21 8.11) (layer F.SilkS) (width 0.12))
  (fp_line (start -7.21 8.11) (end 37.69 8.11) (layer F.SilkS) (width 0.12))
  (fp_line (start 37.69 8.11) (end 37.69 -1.31) (layer F.SilkS) (width 0.12))
  (fp_line (start -7.21 -1.31) (end -1.05 -1.31) (layer F.SilkS) (width 0.12))
  (fp_line (start 37.69 -1.31) (end 31.53 -1.31) (layer F.SilkS) (width 0.12))
  (fp_line (start 1.05 -1.31) (end 4.03 -1.31) (layer F.SilkS) (width 0.12))
  (fp_line (start 6.13 -1.31) (end 9.11 -1.31) (layer F.SilkS) (width 0.12))
  (fp_line (start 11.21 -1.31) (end 14.19 -1.31) (layer F.SilkS) (width 0.12))
  (fp_line (start 16.29 -1.31) (end 19.27 -1.31) (layer F.SilkS) (width 0.12))
  (fp_line (start 21.37 -1.31) (end 24.35 -1.31) (layer F.SilkS) (width 0.12))
  (fp_line (start 26.45 -1.31) (end 29.43 -1.31) (layer F.SilkS) (width 0.12))
  (fp_line (start -7.1 -1.2) (end -7.1 8) (layer F.Fab) (width 0.1))
  (fp_line (start -7.1 8) (end 37.58 8) (layer F.Fab) (width 0.1))
  (fp_line (start 37.58 8) (end 37.58 -1.2) (layer F.Fab) (width 0.1))
  (fp_line (start 37.58 -1.2) (end -7.1 -1.2) (layer F.Fab) (width 0.1))
  (fp_line (start -2.41 4.8) (end 32.89 4.8) (layer F.SilkS) (width 0.12))
  (fp_line (start -2.41 -1.31) (end -2.41 8.11) (layer F.SilkS) (width 0.12))
  (fp_line (start 32.89 -1.31) (end 32.89 8.11) (layer F.SilkS) (width 0.12))
  (fp_line (start -7.71 -2.3) (end -7.71 8.5) (layer F.CrtYd) (width 0.05))
  (fp_line (start -7.71 8.5) (end 38.08 8.5) (layer F.CrtYd) (width 0.05))
  (fp_line (start 38.08 8.5) (end 38.08 -2.3) (layer F.CrtYd) (width 0.05))
  (fp_line (start 38.08 -2.3) (end -7.71 -2.3) (layer F.CrtYd) (width 0.05))
  (fp_line (start 0.3 -2.6) (end 0 -2) (layer F.SilkS) (width 0.12))
  (fp_line (start 0 -2) (end -0.3 -2.6) (layer F.SilkS) (width 0.12))
  (fp_line (start -0.3 -2.6) (end 0.3 -2.6) (layer F.SilkS) (width 0.12))
  (fp_line (start 0.8 -1.2) (end 0 0) (layer F.Fab) (width 0.1))
  (fp_line (start 0 0) (end -0.8 -1.2) (layer F.Fab) (width 0.1))
  (pad 1 thru_hole roundrect (at 0 0) (size 1.8 3.6) (drill 1.2) (layers *.Cu *.Mask) (roundrect_rratio 0.138889))
  (pad 2 thru_hole oval (at 5.08 0) (size 1.8 3.6) (drill 1.2) (layers *.Cu *.Mask))
  (pad 3 thru_hole oval (at 10.16 0) (size 1.8 3.6) (drill 1.2) (layers *.Cu *.Mask))
  (pad 4 thru_hole oval (at 15.24 0) (size 1.8 3.6) (drill 1.2) (layers *.Cu *.Mask))
  (pad 5 thru_hole oval (at 20.32 0) (size 1.8 3.6) (drill 1.2) (layers *.Cu *.Mask))
  (pad 6 thru_hole oval (at 25.4 0) (size 1.8 3.6) (drill 1.2) (layers *.Cu *.Mask))
  (pad 7 thru_hole oval (at 30.48 0) (size 1.8 3.6) (drill 1.2) (layers *.Cu *.Mask))
  (pad "" np_thru_hole circle (at -4.5 0.9) (size 2.4 2.4) (drill 2.4) (layers *.Cu *.Mask))
  (pad "" np_thru_hole circle (at 34.98 0.9) (size 2.4 2.4) (drill 2.4) (layers *.Cu *.Mask))
  (fp_text user %R (at 15.24 -0.5) (layer F.Fab)
    (effects (font (size 1 1) (thickness 0.15)))
  )
  (model ${KICAD6_3DMODEL_DIR}/Connector_Phoenix_MC_HighVoltage.3dshapes/PhoenixContact_MC_1,5_7-GF-5.08_1x07_P5.08mm_Horizontal_ThreadedFlange_MountHole.wrl
    (at (xyz 0 0 0))
    (scale (xyz 1 1 1))
    (rotate (xyz 0 0 0))
  )
)