(module TerminalBlock_4Ucon_1x05_P3.50mm_Vertical (layer F.Cu) (tedit 5B294E80)
  (descr "Terminal Block 4Ucon ItemNo. 10696, vertical (cable from top), 5 pins, pitch 3.5mm, size 18.5x8.3mm^2, drill diamater 1.3mm, pad diameter 2.6mm, see http://www.4uconnector.com/online/object/4udrawing/10696.pdf, script-generated with , script-generated using https://github.com/pointhi/kicad-footprint-generator/scripts/TerminalBlock_4Ucon")
  (tags "THT Terminal Block 4Ucon ItemNo. 10696 vertical pitch 3.5mm size 18.5x8.3mm^2 drill 1.3mm pad 2.6mm")
  (fp_text reference REF** (at 7 -4.76) (layer F.SilkS)
    (effects (font (size 1 1) (thickness 0.15)))
  )
  (fp_text value TerminalBlock_4Ucon_1x05_P3.50mm_Vertical (at 7 5.66) (layer F.Fab)
    (effects (font (size 1 1) (thickness 0.15)))
  )
  (fp_arc (start 0 -1.6) (end 0.998 -1.531) (angle -188) (layer F.SilkS) (width 0.12))
  (fp_arc (start 3.5 -1.6) (end 4.44 -1.258) (angle -220) (layer F.SilkS) (width 0.12))
  (fp_arc (start 7 -1.6) (end 7.94 -1.258) (angle -220) (layer F.SilkS) (width 0.12))
  (fp_arc (start 10.5 -1.6) (end 11.44 -1.258) (angle -220) (layer F.SilkS) (width 0.12))
  (fp_arc (start 14 -1.6) (end 14.94 -1.258) (angle -220) (layer F.SilkS) (width 0.12))
  (fp_circle (center 0 -1.6) (end 1 -1.6) (layer F.Fab) (width 0.1))
  (fp_circle (center 3.5 -1.6) (end 4.5 -1.6) (layer F.Fab) (width 0.1))
  (fp_circle (center 7 -1.6) (end 8 -1.6) (layer F.Fab) (width 0.1))
  (fp_circle (center 10.5 -1.6) (end 11.5 -1.6) (layer F.Fab) (width 0.1))
  (fp_circle (center 14 -1.6) (end 15 -1.6) (layer F.Fab) (width 0.1))
  (fp_line (start -2.25 -3.7) (end 16.25 -3.7) (layer F.Fab) (width 0.1))
  (fp_line (start 16.25 -3.7) (end 16.25 4.6) (layer F.Fab) (width 0.1))
  (fp_line (start 16.25 4.6) (end -0.25 4.6) (layer F.Fab) (width 0.1))
  (fp_line (start -0.25 4.6) (end -2.25 2.6) (layer F.Fab) (width 0.1))
  (fp_line (start -2.25 2.6) (end -2.25 -3.7) (layer F.Fab) (width 0.1))
  (fp_line (start -2.25 1.1) (end 16.25 1.1) (layer F.Fab) (width 0.1))
  (fp_line (start -2.31 1.101) (end -1.54 1.101) (layer F.SilkS) (width 0.12))
  (fp_line (start 1.54 1.101) (end 2.367 1.101) (layer F.SilkS) (width 0.12))
  (fp_line (start 4.634 1.101) (end 5.867 1.101) (layer F.SilkS) (width 0.12))
  (fp_line (start 8.134 1.101) (end 9.367 1.101) (layer F.SilkS) (width 0.12))
  (fp_line (start 11.634 1.101) (end 12.867 1.101) (layer F.SilkS) (width 0.12))
  (fp_line (start 15.134 1.101) (end 16.311 1.101) (layer F.SilkS) (width 0.12))
  (fp_line (start -2.31 -3.76) (end 16.311 -3.76) (layer F.SilkS) (width 0.12))
  (fp_line (start -2.31 4.66) (end 16.311 4.66) (layer F.SilkS) (width 0.12))
  (fp_line (start -2.31 -3.76) (end -2.31 4.66) (layer F.SilkS) (width 0.12))
  (fp_line (start 16.311 -3.76) (end 16.311 4.66) (layer F.SilkS) (width 0.12))
  (fp_line (start -1.4 -3) (end 1.4 -3) (layer F.SilkS) (width 0.12))
  (fp_line (start -1.4 -3) (end -1.4 -1.54) (layer F.SilkS) (width 0.12))
  (fp_line (start 1.4 -3) (end 1.4 -1.54) (layer F.SilkS) (width 0.12))
  (fp_line (start -1.4 -3) (end -1.4 0.75) (layer F.Fab) (width 0.1))
  (fp_line (start -1.4 0.75) (end 1.4 0.75) (layer F.Fab) (width 0.1))
  (fp_line (start 1.4 0.75) (end 1.4 -3) (layer F.Fab) (width 0.1))
  (fp_line (start 1.4 -3) (end -1.4 -3) (layer F.Fab) (width 0.1))
  (fp_line (start 2.1 -3) (end 4.9 -3) (layer F.SilkS) (width 0.12))
  (fp_line (start 2.1 0.75) (end 2.101 0.75) (layer F.SilkS) (width 0.12))
  (fp_line (start 4.9 0.75) (end 4.9 0.75) (layer F.SilkS) (width 0.12))
  (fp_line (start 2.1 -3) (end 2.1 -0.689) (layer F.SilkS) (width 0.12))
  (fp_line (start 2.1 0.689) (end 2.1 0.75) (layer F.SilkS) (width 0.12))
  (fp_line (start 4.9 -3) (end 4.9 -0.689) (layer F.SilkS) (width 0.12))
  (fp_line (start 4.9 0.689) (end 4.9 0.75) (layer F.SilkS) (width 0.12))
  (fp_line (start 2.1 -3) (end 2.1 0.75) (layer F.Fab) (width 0.1))
  (fp_line (start 2.1 0.75) (end 4.9 0.75) (layer F.Fab) (width 0.1))
  (fp_line (start 4.9 0.75) (end 4.9 -3) (layer F.Fab) (width 0.1))
  (fp_line (start 4.9 -3) (end 2.1 -3) (layer F.Fab) (width 0.1))
  (fp_line (start 5.6 -3) (end 8.4 -3) (layer F.SilkS) (width 0.12))
  (fp_line (start 5.6 0.75) (end 5.601 0.75) (layer F.SilkS) (width 0.12))
  (fp_line (start 8.4 0.75) (end 8.4 0.75) (layer F.SilkS) (width 0.12))
  (fp_line (start 5.6 -3) (end 5.6 -0.689) (layer F.SilkS) (width 0.12))
  (fp_line (start 5.6 0.689) (end 5.6 0.75) (layer F.SilkS) (width 0.12))
  (fp_line (start 8.4 -3) (end 8.4 -0.689) (layer F.SilkS) (width 0.12))
  (fp_line (start 8.4 0.689) (end 8.4 0.75) (layer F.SilkS) (width 0.12))
  (fp_line (start 5.6 -3) (end 5.6 0.75) (layer F.Fab) (width 0.1))
  (fp_line (start 5.6 0.75) (end 8.4 0.75) (layer F.Fab) (width 0.1))
  (fp_line (start 8.4 0.75) (end 8.4 -3) (layer F.Fab) (width 0.1))
  (fp_line (start 8.4 -3) (end 5.6 -3) (layer F.Fab) (width 0.1))
  (fp_line (start 9.1 -3) (end 11.9 -3) (layer F.SilkS) (width 0.12))
  (fp_line (start 9.1 0.75) (end 9.101 0.75) (layer F.SilkS) (width 0.12))
  (fp_line (start 11.9 0.75) (end 11.9 0.75) (layer F.SilkS) (width 0.12))
  (fp_line (start 9.1 -3) (end 9.1 -0.689) (layer F.SilkS) (width 0.12))
  (fp_line (start 9.1 0.689) (end 9.1 0.75) (layer F.SilkS) (width 0.12))
  (fp_line (start 11.9 -3) (end 11.9 -0.689) (layer F.SilkS) (width 0.12))
  (fp_line (start 11.9 0.689) (end 11.9 0.75) (layer F.SilkS) (width 0.12))
  (fp_line (start 9.1 -3) (end 9.1 0.75) (layer F.Fab) (width 0.1))
  (fp_line (start 9.1 0.75) (end 11.9 0.75) (layer F.Fab) (width 0.1))
  (fp_line (start 11.9 0.75) (end 11.9 -3) (layer F.Fab) (width 0.1))
  (fp_line (start 11.9 -3) (end 9.1 -3) (layer F.Fab) (width 0.1))
  (fp_line (start 12.6 -3) (end 15.4 -3) (layer F.SilkS) (width 0.12))
  (fp_line (start 12.6 0.75) (end 12.601 0.75) (layer F.SilkS) (width 0.12))
  (fp_line (start 15.4 0.75) (end 15.4 0.75) (layer F.SilkS) (width 0.12))
  (fp_line (start 12.6 -3) (end 12.6 -0.689) (layer F.SilkS) (width 0.12))
  (fp_line (start 12.6 0.689) (end 12.6 0.75) (layer F.SilkS) (width 0.12))
  (fp_line (start 15.4 -3) (end 15.4 -0.689) (layer F.SilkS) (width 0.12))
  (fp_line (start 15.4 0.689) (end 15.4 0.75) (layer F.SilkS) (width 0.12))
  (fp_line (start 12.6 -3) (end 12.6 0.75) (layer F.Fab) (width 0.1))
  (fp_line (start 12.6 0.75) (end 15.4 0.75) (layer F.Fab) (width 0.1))
  (fp_line (start 15.4 0.75) (end 15.4 -3) (layer F.Fab) (width 0.1))
  (fp_line (start 15.4 -3) (end 12.6 -3) (layer F.Fab) (width 0.1))
  (fp_line (start -2.55 2.66) (end -2.55 4.9) (layer F.SilkS) (width 0.12))
  (fp_line (start -2.55 4.9) (end -0.55 4.9) (layer F.SilkS) (width 0.12))
  (fp_line (start -2.75 -4.2) (end -2.75 5.11) (layer F.CrtYd) (width 0.05))
  (fp_line (start -2.75 5.11) (end 16.75 5.11) (layer F.CrtYd) (width 0.05))
  (fp_line (start 16.75 5.11) (end 16.75 -4.2) (layer F.CrtYd) (width 0.05))
  (fp_line (start 16.75 -4.2) (end -2.75 -4.2) (layer F.CrtYd) (width 0.05))
  (pad 1 thru_hole rect (at 0 0) (size 2.6 2.6) (drill 1.3) (layers *.Cu *.Mask))
  (pad 2 thru_hole circle (at 3.5 0) (size 2.6 2.6) (drill 1.3) (layers *.Cu *.Mask))
  (pad 3 thru_hole circle (at 7 0) (size 2.6 2.6) (drill 1.3) (layers *.Cu *.Mask))
  (pad 4 thru_hole circle (at 10.5 0) (size 2.6 2.6) (drill 1.3) (layers *.Cu *.Mask))
  (pad 5 thru_hole circle (at 14 0) (size 2.6 2.6) (drill 1.3) (layers *.Cu *.Mask))
  (fp_text user %R (at 7 3.45) (layer F.Fab)
    (effects (font (size 1 1) (thickness 0.15)))
  )
  (model ${KICAD6_3DMODEL_DIR}/TerminalBlock_4Ucon.3dshapes/TerminalBlock_4Ucon_1x05_P3.50mm_Vertical.wrl
    (at (xyz 0 0 0))
    (scale (xyz 1 1 1))
    (rotate (xyz 0 0 0))
  )
)