(module TerminalBlock_4Ucon_1x08_P3.50mm_Horizontal (layer F.Cu) (tedit 5B294E94)
  (descr "Terminal Block 4Ucon ItemNo. 19965, 8 pins, pitch 3.5mm, size 28.7x7mm^2, drill diamater 1.2mm, pad diameter 2.4mm, see http://www.4uconnector.com/online/object/4udrawing/19965.pdf, script-generated using https://github.com/pointhi/kicad-footprint-generator/scripts/TerminalBlock_4Ucon")
  (tags "THT Terminal Block 4Ucon ItemNo. 19965 pitch 3.5mm size 28.7x7mm^2 drill 1.2mm pad 2.4mm")
  (fp_text reference REF** (at 12.25 -4.46) (layer F.SilkS)
    (effects (font (size 1 1) (thickness 0.15)))
  )
  (fp_text value TerminalBlock_4Ucon_1x08_P3.50mm_Horizontal (at 12.25 4.66) (layer F.Fab)
    (effects (font (size 1 1) (thickness 0.15)))
  )
  (fp_arc (start 0 0) (end 0 1.555) (angle -23) (layer F.SilkS) (width 0.12))
  (fp_arc (start 0 0) (end 1.432 0.608) (angle -46) (layer F.SilkS) (width 0.12))
  (fp_arc (start 0 0) (end 0.608 -1.432) (angle -46) (layer F.SilkS) (width 0.12))
  (fp_arc (start 0 0) (end -1.432 -0.608) (angle -46) (layer F.SilkS) (width 0.12))
  (fp_arc (start 0 0) (end -0.608 1.432) (angle -24) (layer F.SilkS) (width 0.12))
  (fp_circle (center 0 0) (end 1.375 0) (layer F.Fab) (width 0.1))
  (fp_circle (center 3.5 0) (end 4.875 0) (layer F.Fab) (width 0.1))
  (fp_circle (center 3.5 0) (end 5.055 0) (layer F.SilkS) (width 0.12))
  (fp_circle (center 7 0) (end 8.375 0) (layer F.Fab) (width 0.1))
  (fp_circle (center 7 0) (end 8.555 0) (layer F.SilkS) (width 0.12))
  (fp_circle (center 10.5 0) (end 11.875 0) (layer F.Fab) (width 0.1))
  (fp_circle (center 10.5 0) (end 12.055 0) (layer F.SilkS) (width 0.12))
  (fp_circle (center 14 0) (end 15.375 0) (layer F.Fab) (width 0.1))
  (fp_circle (center 14 0) (end 15.555 0) (layer F.SilkS) (width 0.12))
  (fp_circle (center 17.5 0) (end 18.875 0) (layer F.Fab) (width 0.1))
  (fp_circle (center 17.5 0) (end 19.055 0) (layer F.SilkS) (width 0.12))
  (fp_circle (center 21 0) (end 22.375 0) (layer F.Fab) (width 0.1))
  (fp_circle (center 21 0) (end 22.555 0) (layer F.SilkS) (width 0.12))
  (fp_circle (center 24.5 0) (end 25.875 0) (layer F.Fab) (width 0.1))
  (fp_circle (center 24.5 0) (end 26.055 0) (layer F.SilkS) (width 0.12))
  (fp_line (start -2.1 -3.4) (end 26.6 -3.4) (layer F.Fab) (width 0.1))
  (fp_line (start 26.6 -3.4) (end 26.6 3.6) (layer F.Fab) (width 0.1))
  (fp_line (start 26.6 3.6) (end -0.6 3.6) (layer F.Fab) (width 0.1))
  (fp_line (start -0.6 3.6) (end -2.1 2.1) (layer F.Fab) (width 0.1))
  (fp_line (start -2.1 2.1) (end -2.1 -3.4) (layer F.Fab) (width 0.1))
  (fp_line (start -2.1 2.1) (end 26.6 2.1) (layer F.Fab) (width 0.1))
  (fp_line (start -2.16 2.1) (end 26.66 2.1) (layer F.SilkS) (width 0.12))
  (fp_line (start -2.16 -3.46) (end 26.66 -3.46) (layer F.SilkS) (width 0.12))
  (fp_line (start -2.16 3.66) (end 26.66 3.66) (layer F.SilkS) (width 0.12))
  (fp_line (start -2.16 -3.46) (end -2.16 3.66) (layer F.SilkS) (width 0.12))
  (fp_line (start 26.66 -3.46) (end 26.66 3.66) (layer F.SilkS) (width 0.12))
  (fp_line (start -1.1 -0.069) (end -0.069 -0.069) (layer F.Fab) (width 0.1))
  (fp_line (start -0.069 -0.069) (end -0.069 -1.1) (layer F.Fab) (width 0.1))
  (fp_line (start -0.069 -1.1) (end 0.069 -1.1) (layer F.Fab) (width 0.1))
  (fp_line (start 0.069 -1.1) (end 0.069 -0.069) (layer F.Fab) (width 0.1))
  (fp_line (start 0.069 -0.069) (end 1.1 -0.069) (layer F.Fab) (width 0.1))
  (fp_line (start 1.1 -0.069) (end 1.1 0.069) (layer F.Fab) (width 0.1))
  (fp_line (start 1.1 0.069) (end 0.069 0.069) (layer F.Fab) (width 0.1))
  (fp_line (start 0.069 0.069) (end 0.069 1.1) (layer F.Fab) (width 0.1))
  (fp_line (start 0.069 1.1) (end -0.069 1.1) (layer F.Fab) (width 0.1))
  (fp_line (start -0.069 1.1) (end -0.069 0.069) (layer F.Fab) (width 0.1))
  (fp_line (start -0.069 0.069) (end -1.1 0.069) (layer F.Fab) (width 0.1))
  (fp_line (start -1.1 0.069) (end -1.1 -0.069) (layer F.Fab) (width 0.1))
  (fp_line (start 2.4 -0.069) (end 3.431 -0.069) (layer F.Fab) (width 0.1))
  (fp_line (start 3.431 -0.069) (end 3.431 -1.1) (layer F.Fab) (width 0.1))
  (fp_line (start 3.431 -1.1) (end 3.569 -1.1) (layer F.Fab) (width 0.1))
  (fp_line (start 3.569 -1.1) (end 3.569 -0.069) (layer F.Fab) (width 0.1))
  (fp_line (start 3.569 -0.069) (end 4.6 -0.069) (layer F.Fab) (width 0.1))
  (fp_line (start 4.6 -0.069) (end 4.6 0.069) (layer F.Fab) (width 0.1))
  (fp_line (start 4.6 0.069) (end 3.569 0.069) (layer F.Fab) (width 0.1))
  (fp_line (start 3.569 0.069) (end 3.569 1.1) (layer F.Fab) (width 0.1))
  (fp_line (start 3.569 1.1) (end 3.431 1.1) (layer F.Fab) (width 0.1))
  (fp_line (start 3.431 1.1) (end 3.431 0.069) (layer F.Fab) (width 0.1))
  (fp_line (start 3.431 0.069) (end 2.4 0.069) (layer F.Fab) (width 0.1))
  (fp_line (start 2.4 0.069) (end 2.4 -0.069) (layer F.Fab) (width 0.1))
  (fp_line (start 5.9 -0.069) (end 6.931 -0.069) (layer F.Fab) (width 0.1))
  (fp_line (start 6.931 -0.069) (end 6.931 -1.1) (layer F.Fab) (width 0.1))
  (fp_line (start 6.931 -1.1) (end 7.069 -1.1) (layer F.Fab) (width 0.1))
  (fp_line (start 7.069 -1.1) (end 7.069 -0.069) (layer F.Fab) (width 0.1))
  (fp_line (start 7.069 -0.069) (end 8.1 -0.069) (layer F.Fab) (width 0.1))
  (fp_line (start 8.1 -0.069) (end 8.1 0.069) (layer F.Fab) (width 0.1))
  (fp_line (start 8.1 0.069) (end 7.069 0.069) (layer F.Fab) (width 0.1))
  (fp_line (start 7.069 0.069) (end 7.069 1.1) (layer F.Fab) (width 0.1))
  (fp_line (start 7.069 1.1) (end 6.931 1.1) (layer F.Fab) (width 0.1))
  (fp_line (start 6.931 1.1) (end 6.931 0.069) (layer F.Fab) (width 0.1))
  (fp_line (start 6.931 0.069) (end 5.9 0.069) (layer F.Fab) (width 0.1))
  (fp_line (start 5.9 0.069) (end 5.9 -0.069) (layer F.Fab) (width 0.1))
  (fp_line (start 9.4 -0.069) (end 10.431 -0.069) (layer F.Fab) (width 0.1))
  (fp_line (start 10.431 -0.069) (end 10.431 -1.1) (layer F.Fab) (width 0.1))
  (fp_line (start 10.431 -1.1) (end 10.569 -1.1) (layer F.Fab) (width 0.1))
  (fp_line (start 10.569 -1.1) (end 10.569 -0.069) (layer F.Fab) (width 0.1))
  (fp_line (start 10.569 -0.069) (end 11.6 -0.069) (layer F.Fab) (width 0.1))
  (fp_line (start 11.6 -0.069) (end 11.6 0.069) (layer F.Fab) (width 0.1))
  (fp_line (start 11.6 0.069) (end 10.569 0.069) (layer F.Fab) (width 0.1))
  (fp_line (start 10.569 0.069) (end 10.569 1.1) (layer F.Fab) (width 0.1))
  (fp_line (start 10.569 1.1) (end 10.431 1.1) (layer F.Fab) (width 0.1))
  (fp_line (start 10.431 1.1) (end 10.431 0.069) (layer F.Fab) (width 0.1))
  (fp_line (start 10.431 0.069) (end 9.4 0.069) (layer F.Fab) (width 0.1))
  (fp_line (start 9.4 0.069) (end 9.4 -0.069) (layer F.Fab) (width 0.1))
  (fp_line (start 12.9 -0.069) (end 13.931 -0.069) (layer F.Fab) (width 0.1))
  (fp_line (start 13.931 -0.069) (end 13.931 -1.1) (layer F.Fab) (width 0.1))
  (fp_line (start 13.931 -1.1) (end 14.069 -1.1) (layer F.Fab) (width 0.1))
  (fp_line (start 14.069 -1.1) (end 14.069 -0.069) (layer F.Fab) (width 0.1))
  (fp_line (start 14.069 -0.069) (end 15.1 -0.069) (layer F.Fab) (width 0.1))
  (fp_line (start 15.1 -0.069) (end 15.1 0.069) (layer F.Fab) (width 0.1))
  (fp_line (start 15.1 0.069) (end 14.069 0.069) (layer F.Fab) (width 0.1))
  (fp_line (start 14.069 0.069) (end 14.069 1.1) (layer F.Fab) (width 0.1))
  (fp_line (start 14.069 1.1) (end 13.931 1.1) (layer F.Fab) (width 0.1))
  (fp_line (start 13.931 1.1) (end 13.931 0.069) (layer F.Fab) (width 0.1))
  (fp_line (start 13.931 0.069) (end 12.9 0.069) (layer F.Fab) (width 0.1))
  (fp_line (start 12.9 0.069) (end 12.9 -0.069) (layer F.Fab) (width 0.1))
  (fp_line (start 16.4 -0.069) (end 17.431 -0.069) (layer F.Fab) (width 0.1))
  (fp_line (start 17.431 -0.069) (end 17.431 -1.1) (layer F.Fab) (width 0.1))
  (fp_line (start 17.431 -1.1) (end 17.569 -1.1) (layer F.Fab) (width 0.1))
  (fp_line (start 17.569 -1.1) (end 17.569 -0.069) (layer F.Fab) (width 0.1))
  (fp_line (start 17.569 -0.069) (end 18.6 -0.069) (layer F.Fab) (width 0.1))
  (fp_line (start 18.6 -0.069) (end 18.6 0.069) (layer F.Fab) (width 0.1))
  (fp_line (start 18.6 0.069) (end 17.569 0.069) (layer F.Fab) (width 0.1))
  (fp_line (start 17.569 0.069) (end 17.569 1.1) (layer F.Fab) (width 0.1))
  (fp_line (start 17.569 1.1) (end 17.431 1.1) (layer F.Fab) (width 0.1))
  (fp_line (start 17.431 1.1) (end 17.431 0.069) (layer F.Fab) (width 0.1))
  (fp_line (start 17.431 0.069) (end 16.4 0.069) (layer F.Fab) (width 0.1))
  (fp_line (start 16.4 0.069) (end 16.4 -0.069) (layer F.Fab) (width 0.1))
  (fp_line (start 19.9 -0.069) (end 20.931 -0.069) (layer F.Fab) (width 0.1))
  (fp_line (start 20.931 -0.069) (end 20.931 -1.1) (layer F.Fab) (width 0.1))
  (fp_line (start 20.931 -1.1) (end 21.069 -1.1) (layer F.Fab) (width 0.1))
  (fp_line (start 21.069 -1.1) (end 21.069 -0.069) (layer F.Fab) (width 0.1))
  (fp_line (start 21.069 -0.069) (end 22.1 -0.069) (layer F.Fab) (width 0.1))
  (fp_line (start 22.1 -0.069) (end 22.1 0.069) (layer F.Fab) (width 0.1))
  (fp_line (start 22.1 0.069) (end 21.069 0.069) (layer F.Fab) (width 0.1))
  (fp_line (start 21.069 0.069) (end 21.069 1.1) (layer F.Fab) (width 0.1))
  (fp_line (start 21.069 1.1) (end 20.931 1.1) (layer F.Fab) (width 0.1))
  (fp_line (start 20.931 1.1) (end 20.931 0.069) (layer F.Fab) (width 0.1))
  (fp_line (start 20.931 0.069) (end 19.9 0.069) (layer F.Fab) (width 0.1))
  (fp_line (start 19.9 0.069) (end 19.9 -0.069) (layer F.Fab) (width 0.1))
  (fp_line (start 23.4 -0.069) (end 24.431 -0.069) (layer F.Fab) (width 0.1))
  (fp_line (start 24.431 -0.069) (end 24.431 -1.1) (layer F.Fab) (width 0.1))
  (fp_line (start 24.431 -1.1) (end 24.569 -1.1) (layer F.Fab) (width 0.1))
  (fp_line (start 24.569 -1.1) (end 24.569 -0.069) (layer F.Fab) (width 0.1))
  (fp_line (start 24.569 -0.069) (end 25.6 -0.069) (layer F.Fab) (width 0.1))
  (fp_line (start 25.6 -0.069) (end 25.6 0.069) (layer F.Fab) (width 0.1))
  (fp_line (start 25.6 0.069) (end 24.569 0.069) (layer F.Fab) (width 0.1))
  (fp_line (start 24.569 0.069) (end 24.569 1.1) (layer F.Fab) (width 0.1))
  (fp_line (start 24.569 1.1) (end 24.431 1.1) (layer F.Fab) (width 0.1))
  (fp_line (start 24.431 1.1) (end 24.431 0.069) (layer F.Fab) (width 0.1))
  (fp_line (start 24.431 0.069) (end 23.4 0.069) (layer F.Fab) (width 0.1))
  (fp_line (start 23.4 0.069) (end 23.4 -0.069) (layer F.Fab) (width 0.1))
  (fp_line (start -2.4 2.16) (end -2.4 3.9) (layer F.SilkS) (width 0.12))
  (fp_line (start -2.4 3.9) (end -0.9 3.9) (layer F.SilkS) (width 0.12))
  (fp_line (start -2.6 -3.9) (end -2.6 4.1) (layer F.CrtYd) (width 0.05))
  (fp_line (start -2.6 4.1) (end 27.1 4.1) (layer F.CrtYd) (width 0.05))
  (fp_line (start 27.1 4.1) (end 27.1 -3.9) (layer F.CrtYd) (width 0.05))
  (fp_line (start 27.1 -3.9) (end -2.6 -3.9) (layer F.CrtYd) (width 0.05))
  (pad 1 thru_hole rect (at 0 0) (size 2.4 2.4) (drill 1.2) (layers *.Cu *.Mask))
  (pad 2 thru_hole circle (at 3.5 0) (size 2.4 2.4) (drill 1.2) (layers *.Cu *.Mask))
  (pad 3 thru_hole circle (at 7 0) (size 2.4 2.4) (drill 1.2) (layers *.Cu *.Mask))
  (pad 4 thru_hole circle (at 10.5 0) (size 2.4 2.4) (drill 1.2) (layers *.Cu *.Mask))
  (pad 5 thru_hole circle (at 14 0) (size 2.4 2.4) (drill 1.2) (layers *.Cu *.Mask))
  (pad 6 thru_hole circle (at 17.5 0) (size 2.4 2.4) (drill 1.2) (layers *.Cu *.Mask))
  (pad 7 thru_hole circle (at 21 0) (size 2.4 2.4) (drill 1.2) (layers *.Cu *.Mask))
  (pad 8 thru_hole circle (at 24.5 0) (size 2.4 2.4) (drill 1.2) (layers *.Cu *.Mask))
  (fp_text user %R (at 12.25 2.9) (layer F.Fab)
    (effects (font (size 1 1) (thickness 0.15)))
  )
  (model ${KICAD6_3DMODEL_DIR}/TerminalBlock_4Ucon.3dshapes/TerminalBlock_4Ucon_1x08_P3.50mm_Horizontal.wrl
    (at (xyz 0 0 0))
    (scale (xyz 1 1 1))
    (rotate (xyz 0 0 0))
  )
)