(module JST_PH_B10B-PH-SM4-TB_1x10-1MP_P2.00mm_Vertical (layer F.Cu) (tedit 5B78AD87)
  (descr "JST PH series connector, B10B-PH-SM4-TB (http://www.jst-mfg.com/product/pdf/eng/ePH.pdf), generated with kicad-footprint-generator")
  (tags "connector JST PH side entry")
  (attr smd)
  (fp_text reference REF** (at 0 -5.45) (layer F.SilkS)
    (effects (font (size 1 1) (thickness 0.15)))
  )
  (fp_text value JST_PH_B10B-PH-SM4-TB_1x10-1MP_P2.00mm_Vertical (at 0 4.45) (layer F.Fab)
    (effects (font (size 1 1) (thickness 0.15)))
  )
  (fp_line (start -11.975 0.75) (end 11.975 0.75) (layer F.Fab) (width 0.1))
  (fp_line (start -12.085 0.01) (end -12.085 0.86) (layer F.SilkS) (width 0.12))
  (fp_line (start -12.085 0.86) (end -9.76 0.86) (layer F.SilkS) (width 0.12))
  (fp_line (start -9.76 0.86) (end -9.76 3.25) (layer F.SilkS) (width 0.12))
  (fp_line (start 12.085 0.01) (end 12.085 0.86) (layer F.SilkS) (width 0.12))
  (fp_line (start 12.085 0.86) (end 9.76 0.86) (layer F.SilkS) (width 0.12))
  (fp_line (start -12.085 -3.51) (end -12.085 -4.36) (layer F.SilkS) (width 0.12))
  (fp_line (start -12.085 -4.36) (end 12.085 -4.36) (layer F.SilkS) (width 0.12))
  (fp_line (start 12.085 -4.36) (end 12.085 -3.51) (layer F.SilkS) (width 0.12))
  (fp_line (start -11.975 -4.25) (end 11.975 -4.25) (layer F.Fab) (width 0.1))
  (fp_line (start -11.975 0.75) (end -11.975 -4.25) (layer F.Fab) (width 0.1))
  (fp_line (start 11.975 0.75) (end 11.975 -4.25) (layer F.Fab) (width 0.1))
  (fp_line (start -9.25 -2.75) (end -9.25 -2.25) (layer F.Fab) (width 0.1))
  (fp_line (start -9.25 -2.25) (end -8.75 -2.25) (layer F.Fab) (width 0.1))
  (fp_line (start -8.75 -2.25) (end -8.75 -2.75) (layer F.Fab) (width 0.1))
  (fp_line (start -8.75 -2.75) (end -9.25 -2.75) (layer F.Fab) (width 0.1))
  (fp_line (start -7.25 -2.75) (end -7.25 -2.25) (layer F.Fab) (width 0.1))
  (fp_line (start -7.25 -2.25) (end -6.75 -2.25) (layer F.Fab) (width 0.1))
  (fp_line (start -6.75 -2.25) (end -6.75 -2.75) (layer F.Fab) (width 0.1))
  (fp_line (start -6.75 -2.75) (end -7.25 -2.75) (layer F.Fab) (width 0.1))
  (fp_line (start -5.25 -2.75) (end -5.25 -2.25) (layer F.Fab) (width 0.1))
  (fp_line (start -5.25 -2.25) (end -4.75 -2.25) (layer F.Fab) (width 0.1))
  (fp_line (start -4.75 -2.25) (end -4.75 -2.75) (layer F.Fab) (width 0.1))
  (fp_line (start -4.75 -2.75) (end -5.25 -2.75) (layer F.Fab) (width 0.1))
  (fp_line (start -3.25 -2.75) (end -3.25 -2.25) (layer F.Fab) (width 0.1))
  (fp_line (start -3.25 -2.25) (end -2.75 -2.25) (layer F.Fab) (width 0.1))
  (fp_line (start -2.75 -2.25) (end -2.75 -2.75) (layer F.Fab) (width 0.1))
  (fp_line (start -2.75 -2.75) (end -3.25 -2.75) (layer F.Fab) (width 0.1))
  (fp_line (start -1.25 -2.75) (end -1.25 -2.25) (layer F.Fab) (width 0.1))
  (fp_line (start -1.25 -2.25) (end -0.75 -2.25) (layer F.Fab) (width 0.1))
  (fp_line (start -0.75 -2.25) (end -0.75 -2.75) (layer F.Fab) (width 0.1))
  (fp_line (start -0.75 -2.75) (end -1.25 -2.75) (layer F.Fab) (width 0.1))
  (fp_line (start 0.75 -2.75) (end 0.75 -2.25) (layer F.Fab) (width 0.1))
  (fp_line (start 0.75 -2.25) (end 1.25 -2.25) (layer F.Fab) (width 0.1))
  (fp_line (start 1.25 -2.25) (end 1.25 -2.75) (layer F.Fab) (width 0.1))
  (fp_line (start 1.25 -2.75) (end 0.75 -2.75) (layer F.Fab) (width 0.1))
  (fp_line (start 2.75 -2.75) (end 2.75 -2.25) (layer F.Fab) (width 0.1))
  (fp_line (start 2.75 -2.25) (end 3.25 -2.25) (layer F.Fab) (width 0.1))
  (fp_line (start 3.25 -2.25) (end 3.25 -2.75) (layer F.Fab) (width 0.1))
  (fp_line (start 3.25 -2.75) (end 2.75 -2.75) (layer F.Fab) (width 0.1))
  (fp_line (start 4.75 -2.75) (end 4.75 -2.25) (layer F.Fab) (width 0.1))
  (fp_line (start 4.75 -2.25) (end 5.25 -2.25) (layer F.Fab) (width 0.1))
  (fp_line (start 5.25 -2.25) (end 5.25 -2.75) (layer F.Fab) (width 0.1))
  (fp_line (start 5.25 -2.75) (end 4.75 -2.75) (layer F.Fab) (width 0.1))
  (fp_line (start 6.75 -2.75) (end 6.75 -2.25) (layer F.Fab) (width 0.1))
  (fp_line (start 6.75 -2.25) (end 7.25 -2.25) (layer F.Fab) (width 0.1))
  (fp_line (start 7.25 -2.25) (end 7.25 -2.75) (layer F.Fab) (width 0.1))
  (fp_line (start 7.25 -2.75) (end 6.75 -2.75) (layer F.Fab) (width 0.1))
  (fp_line (start 8.75 -2.75) (end 8.75 -2.25) (layer F.Fab) (width 0.1))
  (fp_line (start 8.75 -2.25) (end 9.25 -2.25) (layer F.Fab) (width 0.1))
  (fp_line (start 9.25 -2.25) (end 9.25 -2.75) (layer F.Fab) (width 0.1))
  (fp_line (start 9.25 -2.75) (end 8.75 -2.75) (layer F.Fab) (width 0.1))
  (fp_line (start -12.7 -4.75) (end -12.7 3.75) (layer F.CrtYd) (width 0.05))
  (fp_line (start -12.7 3.75) (end 12.7 3.75) (layer F.CrtYd) (width 0.05))
  (fp_line (start 12.7 3.75) (end 12.7 -4.75) (layer F.CrtYd) (width 0.05))
  (fp_line (start 12.7 -4.75) (end -12.7 -4.75) (layer F.CrtYd) (width 0.05))
  (fp_line (start -9.5 0.75) (end -9 0.042893) (layer F.Fab) (width 0.1))
  (fp_line (start -9 0.042893) (end -8.5 0.75) (layer F.Fab) (width 0.1))
  (pad 1 smd roundrect (at -9 0.5) (size 1 5.5) (layers F.Cu F.Mask F.Paste) (roundrect_rratio 0.25))
  (pad 2 smd roundrect (at -7 0.5) (size 1 5.5) (layers F.Cu F.Mask F.Paste) (roundrect_rratio 0.25))
  (pad 3 smd roundrect (at -5 0.5) (size 1 5.5) (layers F.Cu F.Mask F.Paste) (roundrect_rratio 0.25))
  (pad 4 smd roundrect (at -3 0.5) (size 1 5.5) (layers F.Cu F.Mask F.Paste) (roundrect_rratio 0.25))
  (pad 5 smd roundrect (at -1 0.5) (size 1 5.5) (layers F.Cu F.Mask F.Paste) (roundrect_rratio 0.25))
  (pad 6 smd roundrect (at 1 0.5) (size 1 5.5) (layers F.Cu F.Mask F.Paste) (roundrect_rratio 0.25))
  (pad 7 smd roundrect (at 3 0.5) (size 1 5.5) (layers F.Cu F.Mask F.Paste) (roundrect_rratio 0.25))
  (pad 8 smd roundrect (at 5 0.5) (size 1 5.5) (layers F.Cu F.Mask F.Paste) (roundrect_rratio 0.25))
  (pad 9 smd roundrect (at 7 0.5) (size 1 5.5) (layers F.Cu F.Mask F.Paste) (roundrect_rratio 0.25))
  (pad 10 smd roundrect (at 9 0.5) (size 1 5.5) (layers F.Cu F.Mask F.Paste) (roundrect_rratio 0.25))
  (pad MP smd roundrect (at -11.4 -1.75) (size 1.6 3) (layers F.Cu F.Mask F.Paste) (roundrect_rratio 0.15625))
  (pad MP smd roundrect (at 11.4 -1.75) (size 1.6 3) (layers F.Cu F.Mask F.Paste) (roundrect_rratio 0.15625))
  (fp_text user %R (at 0 -1) (layer F.Fab)
    (effects (font (size 1 1) (thickness 0.15)))
  )
  (model ${KICAD6_3DMODEL_DIR}/Connector_JST.3dshapes/JST_PH_B10B-PH-SM4-TB_1x10-1MP_P2.00mm_Vertical.wrl
    (at (xyz 0 0 0))
    (scale (xyz 1 1 1))
    (rotate (xyz 0 0 0))
  )
)