(module JST_SH_BM11B-SRSS-TB_1x11-1MP_P1.00mm_Vertical (layer F.Cu) (tedit 5B78AD88)
  (descr "JST SH series connector, BM11B-SRSS-TB (http://www.jst-mfg.com/product/pdf/eng/eSH.pdf), generated with kicad-footprint-generator")
  (tags "connector JST SH side entry")
  (attr smd)
  (fp_text reference REF** (at 0 -3.3) (layer F.SilkS)
    (effects (font (size 1 1) (thickness 0.15)))
  )
  (fp_text value JST_SH_BM11B-SRSS-TB_1x11-1MP_P1.00mm_Vertical (at 0 3.3) (layer F.Fab)
    (effects (font (size 1 1) (thickness 0.15)))
  )
  (fp_line (start -6.5 1) (end 6.5 1) (layer F.Fab) (width 0.1))
  (fp_line (start -6.61 -0.04) (end -6.61 1.11) (layer F.SilkS) (width 0.12))
  (fp_line (start -6.61 1.11) (end -5.56 1.11) (layer F.SilkS) (width 0.12))
  (fp_line (start -5.56 1.11) (end -5.56 2.1) (layer F.SilkS) (width 0.12))
  (fp_line (start 6.61 -0.04) (end 6.61 1.11) (layer F.SilkS) (width 0.12))
  (fp_line (start 6.61 1.11) (end 5.56 1.11) (layer F.SilkS) (width 0.12))
  (fp_line (start -5.44 -2.01) (end 5.44 -2.01) (layer F.SilkS) (width 0.12))
  (fp_line (start -6.5 -1.9) (end 6.5 -1.9) (layer F.Fab) (width 0.1))
  (fp_line (start -6.5 1) (end -6.5 -1.9) (layer F.Fab) (width 0.1))
  (fp_line (start 6.5 1) (end 6.5 -1.9) (layer F.Fab) (width 0.1))
  (fp_line (start -5.15 -1.55) (end -5.15 -0.95) (layer F.Fab) (width 0.1))
  (fp_line (start -5.15 -0.95) (end -4.85 -0.95) (layer F.Fab) (width 0.1))
  (fp_line (start -4.85 -0.95) (end -4.85 -1.55) (layer F.Fab) (width 0.1))
  (fp_line (start -4.85 -1.55) (end -5.15 -1.55) (layer F.Fab) (width 0.1))
  (fp_line (start -4.15 -1.55) (end -4.15 -0.95) (layer F.Fab) (width 0.1))
  (fp_line (start -4.15 -0.95) (end -3.85 -0.95) (layer F.Fab) (width 0.1))
  (fp_line (start -3.85 -0.95) (end -3.85 -1.55) (layer F.Fab) (width 0.1))
  (fp_line (start -3.85 -1.55) (end -4.15 -1.55) (layer F.Fab) (width 0.1))
  (fp_line (start -3.15 -1.55) (end -3.15 -0.95) (layer F.Fab) (width 0.1))
  (fp_line (start -3.15 -0.95) (end -2.85 -0.95) (layer F.Fab) (width 0.1))
  (fp_line (start -2.85 -0.95) (end -2.85 -1.55) (layer F.Fab) (width 0.1))
  (fp_line (start -2.85 -1.55) (end -3.15 -1.55) (layer F.Fab) (width 0.1))
  (fp_line (start -2.15 -1.55) (end -2.15 -0.95) (layer F.Fab) (width 0.1))
  (fp_line (start -2.15 -0.95) (end -1.85 -0.95) (layer F.Fab) (width 0.1))
  (fp_line (start -1.85 -0.95) (end -1.85 -1.55) (layer F.Fab) (width 0.1))
  (fp_line (start -1.85 -1.55) (end -2.15 -1.55) (layer F.Fab) (width 0.1))
  (fp_line (start -1.15 -1.55) (end -1.15 -0.95) (layer F.Fab) (width 0.1))
  (fp_line (start -1.15 -0.95) (end -0.85 -0.95) (layer F.Fab) (width 0.1))
  (fp_line (start -0.85 -0.95) (end -0.85 -1.55) (layer F.Fab) (width 0.1))
  (fp_line (start -0.85 -1.55) (end -1.15 -1.55) (layer F.Fab) (width 0.1))
  (fp_line (start -0.15 -1.55) (end -0.15 -0.95) (layer F.Fab) (width 0.1))
  (fp_line (start -0.15 -0.95) (end 0.15 -0.95) (layer F.Fab) (width 0.1))
  (fp_line (start 0.15 -0.95) (end 0.15 -1.55) (layer F.Fab) (width 0.1))
  (fp_line (start 0.15 -1.55) (end -0.15 -1.55) (layer F.Fab) (width 0.1))
  (fp_line (start 0.85 -1.55) (end 0.85 -0.95) (layer F.Fab) (width 0.1))
  (fp_line (start 0.85 -0.95) (end 1.15 -0.95) (layer F.Fab) (width 0.1))
  (fp_line (start 1.15 -0.95) (end 1.15 -1.55) (layer F.Fab) (width 0.1))
  (fp_line (start 1.15 -1.55) (end 0.85 -1.55) (layer F.Fab) (width 0.1))
  (fp_line (start 1.85 -1.55) (end 1.85 -0.95) (layer F.Fab) (width 0.1))
  (fp_line (start 1.85 -0.95) (end 2.15 -0.95) (layer F.Fab) (width 0.1))
  (fp_line (start 2.15 -0.95) (end 2.15 -1.55) (layer F.Fab) (width 0.1))
  (fp_line (start 2.15 -1.55) (end 1.85 -1.55) (layer F.Fab) (width 0.1))
  (fp_line (start 2.85 -1.55) (end 2.85 -0.95) (layer F.Fab) (width 0.1))
  (fp_line (start 2.85 -0.95) (end 3.15 -0.95) (layer F.Fab) (width 0.1))
  (fp_line (start 3.15 -0.95) (end 3.15 -1.55) (layer F.Fab) (width 0.1))
  (fp_line (start 3.15 -1.55) (end 2.85 -1.55) (layer F.Fab) (width 0.1))
  (fp_line (start 3.85 -1.55) (end 3.85 -0.95) (layer F.Fab) (width 0.1))
  (fp_line (start 3.85 -0.95) (end 4.15 -0.95) (layer F.Fab) (width 0.1))
  (fp_line (start 4.15 -0.95) (end 4.15 -1.55) (layer F.Fab) (width 0.1))
  (fp_line (start 4.15 -1.55) (end 3.85 -1.55) (layer F.Fab) (width 0.1))
  (fp_line (start 4.85 -1.55) (end 4.85 -0.95) (layer F.Fab) (width 0.1))
  (fp_line (start 4.85 -0.95) (end 5.15 -0.95) (layer F.Fab) (width 0.1))
  (fp_line (start 5.15 -0.95) (end 5.15 -1.55) (layer F.Fab) (width 0.1))
  (fp_line (start 5.15 -1.55) (end 4.85 -1.55) (layer F.Fab) (width 0.1))
  (fp_line (start -7.4 -2.6) (end -7.4 2.6) (layer F.CrtYd) (width 0.05))
  (fp_line (start -7.4 2.6) (end 7.4 2.6) (layer F.CrtYd) (width 0.05))
  (fp_line (start 7.4 2.6) (end 7.4 -2.6) (layer F.CrtYd) (width 0.05))
  (fp_line (start 7.4 -2.6) (end -7.4 -2.6) (layer F.CrtYd) (width 0.05))
  (fp_line (start -5.5 1) (end -5 0.292893) (layer F.Fab) (width 0.1))
  (fp_line (start -5 0.292893) (end -4.5 1) (layer F.Fab) (width 0.1))
  (pad 1 smd roundrect (at -5 1.325) (size 0.6 1.55) (layers F.Cu F.Mask F.Paste) (roundrect_rratio 0.25))
  (pad 2 smd roundrect (at -4 1.325) (size 0.6 1.55) (layers F.Cu F.Mask F.Paste) (roundrect_rratio 0.25))
  (pad 3 smd roundrect (at -3 1.325) (size 0.6 1.55) (layers F.Cu F.Mask F.Paste) (roundrect_rratio 0.25))
  (pad 4 smd roundrect (at -2 1.325) (size 0.6 1.55) (layers F.Cu F.Mask F.Paste) (roundrect_rratio 0.25))
  (pad 5 smd roundrect (at -1 1.325) (size 0.6 1.55) (layers F.Cu F.Mask F.Paste) (roundrect_rratio 0.25))
  (pad 6 smd roundrect (at 0 1.325) (size 0.6 1.55) (layers F.Cu F.Mask F.Paste) (roundrect_rratio 0.25))
  (pad 7 smd roundrect (at 1 1.325) (size 0.6 1.55) (layers F.Cu F.Mask F.Paste) (roundrect_rratio 0.25))
  (pad 8 smd roundrect (at 2 1.325) (size 0.6 1.55) (layers F.Cu F.Mask F.Paste) (roundrect_rratio 0.25))
  (pad 9 smd roundrect (at 3 1.325) (size 0.6 1.55) (layers F.Cu F.Mask F.Paste) (roundrect_rratio 0.25))
  (pad 10 smd roundrect (at 4 1.325) (size 0.6 1.55) (layers F.Cu F.Mask F.Paste) (roundrect_rratio 0.25))
  (pad 11 smd roundrect (at 5 1.325) (size 0.6 1.55) (layers F.Cu F.Mask F.Paste) (roundrect_rratio 0.25))
  (pad MP smd roundrect (at -6.3 -1.2) (size 1.2 1.8) (layers F.Cu F.Mask F.Paste) (roundrect_rratio 0.208333))
  (pad MP smd roundrect (at 6.3 -1.2) (size 1.2 1.8) (layers F.Cu F.Mask F.Paste) (roundrect_rratio 0.208333))
  (fp_text user %R (at 0 -0.25) (layer F.Fab)
    (effects (font (size 1 1) (thickness 0.15)))
  )
  (model ${KICAD6_3DMODEL_DIR}/Connector_JST.3dshapes/JST_SH_BM11B-SRSS-TB_1x11-1MP_P1.00mm_Vertical.wrl
    (at (xyz 0 0 0))
    (scale (xyz 1 1 1))
    (rotate (xyz 0 0 0))
  )
)