(module JST_SH_BM06B-SRSS-TB_1x06-1MP_P1.00mm_Vertical (layer F.Cu) (tedit 5B78AD87)
  (descr "JST SH series connector, BM06B-SRSS-TB (http://www.jst-mfg.com/product/pdf/eng/eSH.pdf), generated with kicad-footprint-generator")
  (tags "connector JST SH side entry")
  (attr smd)
  (fp_text reference REF** (at 0 -3.3) (layer F.SilkS)
    (effects (font (size 1 1) (thickness 0.15)))
  )
  (fp_text value JST_SH_BM06B-SRSS-TB_1x06-1MP_P1.00mm_Vertical (at 0 3.3) (layer F.Fab)
    (effects (font (size 1 1) (thickness 0.15)))
  )
  (fp_line (start -4 1) (end 4 1) (layer F.Fab) (width 0.1))
  (fp_line (start -4.11 -0.04) (end -4.11 1.11) (layer F.SilkS) (width 0.12))
  (fp_line (start -4.11 1.11) (end -3.06 1.11) (layer F.SilkS) (width 0.12))
  (fp_line (start -3.06 1.11) (end -3.06 2.1) (layer F.SilkS) (width 0.12))
  (fp_line (start 4.11 -0.04) (end 4.11 1.11) (layer F.SilkS) (width 0.12))
  (fp_line (start 4.11 1.11) (end 3.06 1.11) (layer F.SilkS) (width 0.12))
  (fp_line (start -2.94 -2.01) (end 2.94 -2.01) (layer F.SilkS) (width 0.12))
  (fp_line (start -4 -1.9) (end 4 -1.9) (layer F.Fab) (width 0.1))
  (fp_line (start -4 1) (end -4 -1.9) (layer F.Fab) (width 0.1))
  (fp_line (start 4 1) (end 4 -1.9) (layer F.Fab) (width 0.1))
  (fp_line (start -2.65 -1.55) (end -2.65 -0.95) (layer F.Fab) (width 0.1))
  (fp_line (start -2.65 -0.95) (end -2.35 -0.95) (layer F.Fab) (width 0.1))
  (fp_line (start -2.35 -0.95) (end -2.35 -1.55) (layer F.Fab) (width 0.1))
  (fp_line (start -2.35 -1.55) (end -2.65 -1.55) (layer F.Fab) (width 0.1))
  (fp_line (start -1.65 -1.55) (end -1.65 -0.95) (layer F.Fab) (width 0.1))
  (fp_line (start -1.65 -0.95) (end -1.35 -0.95) (layer F.Fab) (width 0.1))
  (fp_line (start -1.35 -0.95) (end -1.35 -1.55) (layer F.Fab) (width 0.1))
  (fp_line (start -1.35 -1.55) (end -1.65 -1.55) (layer F.Fab) (width 0.1))
  (fp_line (start -0.65 -1.55) (end -0.65 -0.95) (layer F.Fab) (width 0.1))
  (fp_line (start -0.65 -0.95) (end -0.35 -0.95) (layer F.Fab) (width 0.1))
  (fp_line (start -0.35 -0.95) (end -0.35 -1.55) (layer F.Fab) (width 0.1))
  (fp_line (start -0.35 -1.55) (end -0.65 -1.55) (layer F.Fab) (width 0.1))
  (fp_line (start 0.35 -1.55) (end 0.35 -0.95) (layer F.Fab) (width 0.1))
  (fp_line (start 0.35 -0.95) (end 0.65 -0.95) (layer F.Fab) (width 0.1))
  (fp_line (start 0.65 -0.95) (end 0.65 -1.55) (layer F.Fab) (width 0.1))
  (fp_line (start 0.65 -1.55) (end 0.35 -1.55) (layer F.Fab) (width 0.1))
  (fp_line (start 1.35 -1.55) (end 1.35 -0.95) (layer F.Fab) (width 0.1))
  (fp_line (start 1.35 -0.95) (end 1.65 -0.95) (layer F.Fab) (width 0.1))
  (fp_line (start 1.65 -0.95) (end 1.65 -1.55) (layer F.Fab) (width 0.1))
  (fp_line (start 1.65 -1.55) (end 1.35 -1.55) (layer F.Fab) (width 0.1))
  (fp_line (start 2.35 -1.55) (end 2.35 -0.95) (layer F.Fab) (width 0.1))
  (fp_line (start 2.35 -0.95) (end 2.65 -0.95) (layer F.Fab) (width 0.1))
  (fp_line (start 2.65 -0.95) (end 2.65 -1.55) (layer F.Fab) (width 0.1))
  (fp_line (start 2.65 -1.55) (end 2.35 -1.55) (layer F.Fab) (width 0.1))
  (fp_line (start -4.9 -2.6) (end -4.9 2.6) (layer F.CrtYd) (width 0.05))
  (fp_line (start -4.9 2.6) (end 4.9 2.6) (layer F.CrtYd) (width 0.05))
  (fp_line (start 4.9 2.6) (end 4.9 -2.6) (layer F.CrtYd) (width 0.05))
  (fp_line (start 4.9 -2.6) (end -4.9 -2.6) (layer F.CrtYd) (width 0.05))
  (fp_line (start -3 1) (end -2.5 0.292893) (layer F.Fab) (width 0.1))
  (fp_line (start -2.5 0.292893) (end -2 1) (layer F.Fab) (width 0.1))
  (pad 1 smd roundrect (at -2.5 1.325) (size 0.6 1.55) (layers F.Cu F.Mask F.Paste) (roundrect_rratio 0.25))
  (pad 2 smd roundrect (at -1.5 1.325) (size 0.6 1.55) (layers F.Cu F.Mask F.Paste) (roundrect_rratio 0.25))
  (pad 3 smd roundrect (at -0.5 1.325) (size 0.6 1.55) (layers F.Cu F.Mask F.Paste) (roundrect_rratio 0.25))
  (pad 4 smd roundrect (at 0.5 1.325) (size 0.6 1.55) (layers F.Cu F.Mask F.Paste) (roundrect_rratio 0.25))
  (pad 5 smd roundrect (at 1.5 1.325) (size 0.6 1.55) (layers F.Cu F.Mask F.Paste) (roundrect_rratio 0.25))
  (pad 6 smd roundrect (at 2.5 1.325) (size 0.6 1.55) (layers F.Cu F.Mask F.Paste) (roundrect_rratio 0.25))
  (pad MP smd roundrect (at -3.8 -1.2) (size 1.2 1.8) (layers F.Cu F.Mask F.Paste) (roundrect_rratio 0.208333))
  (pad MP smd roundrect (at 3.8 -1.2) (size 1.2 1.8) (layers F.Cu F.Mask F.Paste) (roundrect_rratio 0.208333))
  (fp_text user %R (at 0 -0.25) (layer F.Fab)
    (effects (font (size 1 1) (thickness 0.15)))
  )
  (model ${KICAD6_3DMODEL_DIR}/Connector_JST.3dshapes/JST_SH_BM06B-SRSS-TB_1x06-1MP_P1.00mm_Vertical.wrl
    (at (xyz 0 0 0))
    (scale (xyz 1 1 1))
    (rotate (xyz 0 0 0))
  )
)