(module JST_PUD_B14B-PUDSS_2x07_P2.00mm_Vertical (layer F.Cu) (tedit 5B774931)
  (descr "JST PUD series connector, B14B-PUDSS (http://www.jst-mfg.com/product/pdf/eng/ePUD.pdf), generated with kicad-footprint-generator")
  (tags "connector JST PUD side entry")
  (fp_text reference REF** (at 6 -5.1) (layer F.SilkS)
    (effects (font (size 1 1) (thickness 0.15)))
  )
  (fp_text value JST_PUD_B14B-PUDSS_2x07_P2.00mm_Vertical (at 6 5.6) (layer F.Fab)
    (effects (font (size 1 1) (thickness 0.15)))
  )
  (fp_line (start -2 -3.9) (end -2 4.4) (layer F.Fab) (width 0.1))
  (fp_line (start -2 4.4) (end 14 4.4) (layer F.Fab) (width 0.1))
  (fp_line (start 14 4.4) (end 14 -3.9) (layer F.Fab) (width 0.1))
  (fp_line (start 14 -3.9) (end -2 -3.9) (layer F.Fab) (width 0.1))
  (fp_line (start 2.75 -3.15) (end 2.75 -2.4) (layer F.SilkS) (width 0.12))
  (fp_line (start 2.75 -2.4) (end 9.25 -2.4) (layer F.SilkS) (width 0.12))
  (fp_line (start 9.25 -2.4) (end 9.25 -3.15) (layer F.SilkS) (width 0.12))
  (fp_line (start 9.25 -3.15) (end 2.75 -3.15) (layer F.SilkS) (width 0.12))
  (fp_line (start -2.5 -4.4) (end -2.5 4.9) (layer F.CrtYd) (width 0.05))
  (fp_line (start -2.5 4.9) (end 14.5 4.9) (layer F.CrtYd) (width 0.05))
  (fp_line (start 14.5 4.9) (end 14.5 -4.4) (layer F.CrtYd) (width 0.05))
  (fp_line (start 14.5 -4.4) (end -2.5 -4.4) (layer F.CrtYd) (width 0.05))
  (fp_line (start 2 -4.01) (end 2 -2.4) (layer F.SilkS) (width 0.12))
  (fp_line (start 2 -2.4) (end 1.25 -2.4) (layer F.SilkS) (width 0.12))
  (fp_line (start 1.25 -2.4) (end 1.25 -3.15) (layer F.SilkS) (width 0.12))
  (fp_line (start 1.25 -3.15) (end -1.25 -3.15) (layer F.SilkS) (width 0.12))
  (fp_line (start -1.25 -3.15) (end -1.25 3.65) (layer F.SilkS) (width 0.12))
  (fp_line (start -1.25 3.65) (end 6 3.65) (layer F.SilkS) (width 0.12))
  (fp_line (start 10 -4.01) (end 10 -2.4) (layer F.SilkS) (width 0.12))
  (fp_line (start 10 -2.4) (end 10.75 -2.4) (layer F.SilkS) (width 0.12))
  (fp_line (start 10.75 -2.4) (end 10.75 -3.15) (layer F.SilkS) (width 0.12))
  (fp_line (start 10.75 -3.15) (end 13.25 -3.15) (layer F.SilkS) (width 0.12))
  (fp_line (start 13.25 -3.15) (end 13.25 3.65) (layer F.SilkS) (width 0.12))
  (fp_line (start 13.25 3.65) (end 6 3.65) (layer F.SilkS) (width 0.12))
  (fp_line (start -2.11 -4.01) (end -2.11 4.51) (layer F.SilkS) (width 0.12))
  (fp_line (start -2.11 4.51) (end 14.11 4.51) (layer F.SilkS) (width 0.12))
  (fp_line (start 14.11 4.51) (end 14.11 -4.01) (layer F.SilkS) (width 0.12))
  (fp_line (start 14.11 -4.01) (end -2.11 -4.01) (layer F.SilkS) (width 0.12))
  (fp_line (start -2.31 0) (end -2.91 0.3) (layer F.SilkS) (width 0.12))
  (fp_line (start -2.91 0.3) (end -2.91 -0.3) (layer F.SilkS) (width 0.12))
  (fp_line (start -2.91 -0.3) (end -2.31 0) (layer F.SilkS) (width 0.12))
  (fp_line (start -2 0.5) (end -1.292893 0) (layer F.Fab) (width 0.1))
  (fp_line (start -1.292893 0) (end -2 -0.5) (layer F.Fab) (width 0.1))
  (pad 1 thru_hole roundrect (at 0 0) (size 1.2 1.2) (drill 0.75) (layers *.Cu *.Mask) (roundrect_rratio 0.208333))
  (pad 3 thru_hole circle (at 2 0) (size 1.2 1.2) (drill 0.75) (layers *.Cu *.Mask))
  (pad 5 thru_hole circle (at 4 0) (size 1.2 1.2) (drill 0.75) (layers *.Cu *.Mask))
  (pad 7 thru_hole circle (at 6 0) (size 1.2 1.2) (drill 0.75) (layers *.Cu *.Mask))
  (pad 9 thru_hole circle (at 8 0) (size 1.2 1.2) (drill 0.75) (layers *.Cu *.Mask))
  (pad 11 thru_hole circle (at 10 0) (size 1.2 1.2) (drill 0.75) (layers *.Cu *.Mask))
  (pad 13 thru_hole circle (at 12 0) (size 1.2 1.2) (drill 0.75) (layers *.Cu *.Mask))
  (pad 2 thru_hole circle (at 0 2) (size 1.2 1.2) (drill 0.75) (layers *.Cu *.Mask))
  (pad 4 thru_hole circle (at 2 2) (size 1.2 1.2) (drill 0.75) (layers *.Cu *.Mask))
  (pad 6 thru_hole circle (at 4 2) (size 1.2 1.2) (drill 0.75) (layers *.Cu *.Mask))
  (pad 8 thru_hole circle (at 6 2) (size 1.2 1.2) (drill 0.75) (layers *.Cu *.Mask))
  (pad 10 thru_hole circle (at 8 2) (size 1.2 1.2) (drill 0.75) (layers *.Cu *.Mask))
  (pad 12 thru_hole circle (at 10 2) (size 1.2 1.2) (drill 0.75) (layers *.Cu *.Mask))
  (pad 14 thru_hole circle (at 12 2) (size 1.2 1.2) (drill 0.75) (layers *.Cu *.Mask))
  (fp_text user %R (at 6 -3.2) (layer F.Fab)
    (effects (font (size 1 1) (thickness 0.15)))
  )
  (model ${KICAD6_3DMODEL_DIR}/Connector_JST.3dshapes/JST_PUD_B14B-PUDSS_2x07_P2.00mm_Vertical.wrl
    (at (xyz 0 0 0))
    (scale (xyz 1 1 1))
    (rotate (xyz 0 0 0))
  )
)