(module JST_GH_SM06B-GHS-TB_1x06-1MP_P1.25mm_Horizontal (layer F.Cu) (tedit 5B78AD87)
  (descr "JST GH series connector, SM06B-GHS-TB (http://www.jst-mfg.com/product/pdf/eng/eGH.pdf), generated with kicad-footprint-generator")
  (tags "connector JST GH top entry")
  (attr smd)
  (fp_text reference REF** (at 0 -3.9) (layer F.SilkS)
    (effects (font (size 1 1) (thickness 0.15)))
  )
  (fp_text value JST_GH_SM06B-GHS-TB_1x06-1MP_P1.25mm_Horizontal (at 0 3.9) (layer F.Fab)
    (effects (font (size 1 1) (thickness 0.15)))
  )
  (fp_line (start -5.375 -1.6) (end 5.375 -1.6) (layer F.Fab) (width 0.1))
  (fp_line (start -5.485 -0.26) (end -5.485 -1.71) (layer F.SilkS) (width 0.12))
  (fp_line (start -5.485 -1.71) (end -3.685 -1.71) (layer F.SilkS) (width 0.12))
  (fp_line (start -3.685 -1.71) (end -3.685 -2.7) (layer F.SilkS) (width 0.12))
  (fp_line (start 5.485 -0.26) (end 5.485 -1.71) (layer F.SilkS) (width 0.12))
  (fp_line (start 5.485 -1.71) (end 3.685 -1.71) (layer F.SilkS) (width 0.12))
  (fp_line (start -4.215 2.56) (end 4.215 2.56) (layer F.SilkS) (width 0.12))
  (fp_line (start -5.375 2.45) (end 5.375 2.45) (layer F.Fab) (width 0.1))
  (fp_line (start -5.375 -1.6) (end -5.375 2.45) (layer F.Fab) (width 0.1))
  (fp_line (start 5.375 -1.6) (end 5.375 2.45) (layer F.Fab) (width 0.1))
  (fp_line (start -5.98 -3.2) (end -5.98 3.2) (layer F.CrtYd) (width 0.05))
  (fp_line (start -5.98 3.2) (end 5.98 3.2) (layer F.CrtYd) (width 0.05))
  (fp_line (start 5.98 3.2) (end 5.98 -3.2) (layer F.CrtYd) (width 0.05))
  (fp_line (start 5.98 -3.2) (end -5.98 -3.2) (layer F.CrtYd) (width 0.05))
  (fp_line (start -3.625 -1.6) (end -3.125 -0.892893) (layer F.Fab) (width 0.1))
  (fp_line (start -3.125 -0.892893) (end -2.625 -1.6) (layer F.Fab) (width 0.1))
  (pad 1 smd roundrect (at -3.125 -1.85) (size 0.6 1.7) (layers F.Cu F.Mask F.Paste) (roundrect_rratio 0.25))
  (pad 2 smd roundrect (at -1.875 -1.85) (size 0.6 1.7) (layers F.Cu F.Mask F.Paste) (roundrect_rratio 0.25))
  (pad 3 smd roundrect (at -0.625 -1.85) (size 0.6 1.7) (layers F.Cu F.Mask F.Paste) (roundrect_rratio 0.25))
  (pad 4 smd roundrect (at 0.625 -1.85) (size 0.6 1.7) (layers F.Cu F.Mask F.Paste) (roundrect_rratio 0.25))
  (pad 5 smd roundrect (at 1.875 -1.85) (size 0.6 1.7) (layers F.Cu F.Mask F.Paste) (roundrect_rratio 0.25))
  (pad 6 smd roundrect (at 3.125 -1.85) (size 0.6 1.7) (layers F.Cu F.Mask F.Paste) (roundrect_rratio 0.25))
  (pad MP smd roundrect (at -4.975 1.35) (size 1 2.7) (layers F.Cu F.Mask F.Paste) (roundrect_rratio 0.25))
  (pad MP smd roundrect (at 4.975 1.35) (size 1 2.7) (layers F.Cu F.Mask F.Paste) (roundrect_rratio 0.25))
  (fp_text user %R (at 0 0) (layer F.Fab)
    (effects (font (size 1 1) (thickness 0.15)))
  )
  (model ${KICAD6_3DMODEL_DIR}/Connector_JST.3dshapes/JST_GH_SM06B-GHS-TB_1x06-1MP_P1.25mm_Horizontal.wrl
    (at (xyz 0 0 0))
    (scale (xyz 1 1 1))
    (rotate (xyz 0 0 0))
  )
)