(module JST_ZE_BM13B-ZESS-TBT_1x13-1MP_P1.50mm_Vertical (layer F.Cu) (tedit 5C2814BD)
  (descr "JST ZE series connector, BM13B-ZESS-TBT (http://www.jst-mfg.com/product/pdf/eng/eZE.pdf), generated with kicad-footprint-generator")
  (tags "connector JST ZE vertical")
  (attr smd)
  (fp_text reference REF** (at 0 -5.15) (layer F.SilkS)
    (effects (font (size 1 1) (thickness 0.15)))
  )
  (fp_text value JST_ZE_BM13B-ZESS-TBT_1x13-1MP_P1.50mm_Vertical (at 0 5.15) (layer F.Fab)
    (effects (font (size 1 1) (thickness 0.15)))
  )
  (fp_line (start -12 2.25) (end 12 2.25) (layer F.Fab) (width 0.1))
  (fp_line (start -12.11 -0.39) (end -12.11 2.36) (layer F.SilkS) (width 0.12))
  (fp_line (start -12.11 2.36) (end -9.66 2.36) (layer F.SilkS) (width 0.12))
  (fp_line (start -9.66 2.36) (end -9.66 3.95) (layer F.SilkS) (width 0.12))
  (fp_line (start 12.11 -0.39) (end 12.11 2.36) (layer F.SilkS) (width 0.12))
  (fp_line (start 12.11 2.36) (end 9.66 2.36) (layer F.SilkS) (width 0.12))
  (fp_line (start -10.44 -3.66) (end 10.44 -3.66) (layer F.SilkS) (width 0.12))
  (fp_line (start -12 -3.55) (end 12 -3.55) (layer F.Fab) (width 0.1))
  (fp_line (start -12 2.25) (end -12 -3.55) (layer F.Fab) (width 0.1))
  (fp_line (start 12 2.25) (end 12 -3.55) (layer F.Fab) (width 0.1))
  (fp_line (start -9.25 -0.5) (end -9.25 0) (layer F.Fab) (width 0.1))
  (fp_line (start -9.25 0) (end -8.75 0) (layer F.Fab) (width 0.1))
  (fp_line (start -8.75 0) (end -8.75 -0.5) (layer F.Fab) (width 0.1))
  (fp_line (start -8.75 -0.5) (end -9.25 -0.5) (layer F.Fab) (width 0.1))
  (fp_line (start -7.75 -0.5) (end -7.75 0) (layer F.Fab) (width 0.1))
  (fp_line (start -7.75 0) (end -7.25 0) (layer F.Fab) (width 0.1))
  (fp_line (start -7.25 0) (end -7.25 -0.5) (layer F.Fab) (width 0.1))
  (fp_line (start -7.25 -0.5) (end -7.75 -0.5) (layer F.Fab) (width 0.1))
  (fp_line (start -6.25 -0.5) (end -6.25 0) (layer F.Fab) (width 0.1))
  (fp_line (start -6.25 0) (end -5.75 0) (layer F.Fab) (width 0.1))
  (fp_line (start -5.75 0) (end -5.75 -0.5) (layer F.Fab) (width 0.1))
  (fp_line (start -5.75 -0.5) (end -6.25 -0.5) (layer F.Fab) (width 0.1))
  (fp_line (start -4.75 -0.5) (end -4.75 0) (layer F.Fab) (width 0.1))
  (fp_line (start -4.75 0) (end -4.25 0) (layer F.Fab) (width 0.1))
  (fp_line (start -4.25 0) (end -4.25 -0.5) (layer F.Fab) (width 0.1))
  (fp_line (start -4.25 -0.5) (end -4.75 -0.5) (layer F.Fab) (width 0.1))
  (fp_line (start -3.25 -0.5) (end -3.25 0) (layer F.Fab) (width 0.1))
  (fp_line (start -3.25 0) (end -2.75 0) (layer F.Fab) (width 0.1))
  (fp_line (start -2.75 0) (end -2.75 -0.5) (layer F.Fab) (width 0.1))
  (fp_line (start -2.75 -0.5) (end -3.25 -0.5) (layer F.Fab) (width 0.1))
  (fp_line (start -1.75 -0.5) (end -1.75 0) (layer F.Fab) (width 0.1))
  (fp_line (start -1.75 0) (end -1.25 0) (layer F.Fab) (width 0.1))
  (fp_line (start -1.25 0) (end -1.25 -0.5) (layer F.Fab) (width 0.1))
  (fp_line (start -1.25 -0.5) (end -1.75 -0.5) (layer F.Fab) (width 0.1))
  (fp_line (start -0.25 -0.5) (end -0.25 0) (layer F.Fab) (width 0.1))
  (fp_line (start -0.25 0) (end 0.25 0) (layer F.Fab) (width 0.1))
  (fp_line (start 0.25 0) (end 0.25 -0.5) (layer F.Fab) (width 0.1))
  (fp_line (start 0.25 -0.5) (end -0.25 -0.5) (layer F.Fab) (width 0.1))
  (fp_line (start 1.25 -0.5) (end 1.25 0) (layer F.Fab) (width 0.1))
  (fp_line (start 1.25 0) (end 1.75 0) (layer F.Fab) (width 0.1))
  (fp_line (start 1.75 0) (end 1.75 -0.5) (layer F.Fab) (width 0.1))
  (fp_line (start 1.75 -0.5) (end 1.25 -0.5) (layer F.Fab) (width 0.1))
  (fp_line (start 2.75 -0.5) (end 2.75 0) (layer F.Fab) (width 0.1))
  (fp_line (start 2.75 0) (end 3.25 0) (layer F.Fab) (width 0.1))
  (fp_line (start 3.25 0) (end 3.25 -0.5) (layer F.Fab) (width 0.1))
  (fp_line (start 3.25 -0.5) (end 2.75 -0.5) (layer F.Fab) (width 0.1))
  (fp_line (start 4.25 -0.5) (end 4.25 0) (layer F.Fab) (width 0.1))
  (fp_line (start 4.25 0) (end 4.75 0) (layer F.Fab) (width 0.1))
  (fp_line (start 4.75 0) (end 4.75 -0.5) (layer F.Fab) (width 0.1))
  (fp_line (start 4.75 -0.5) (end 4.25 -0.5) (layer F.Fab) (width 0.1))
  (fp_line (start 5.75 -0.5) (end 5.75 0) (layer F.Fab) (width 0.1))
  (fp_line (start 5.75 0) (end 6.25 0) (layer F.Fab) (width 0.1))
  (fp_line (start 6.25 0) (end 6.25 -0.5) (layer F.Fab) (width 0.1))
  (fp_line (start 6.25 -0.5) (end 5.75 -0.5) (layer F.Fab) (width 0.1))
  (fp_line (start 7.25 -0.5) (end 7.25 0) (layer F.Fab) (width 0.1))
  (fp_line (start 7.25 0) (end 7.75 0) (layer F.Fab) (width 0.1))
  (fp_line (start 7.75 0) (end 7.75 -0.5) (layer F.Fab) (width 0.1))
  (fp_line (start 7.75 -0.5) (end 7.25 -0.5) (layer F.Fab) (width 0.1))
  (fp_line (start 8.75 -0.5) (end 8.75 0) (layer F.Fab) (width 0.1))
  (fp_line (start 8.75 0) (end 9.25 0) (layer F.Fab) (width 0.1))
  (fp_line (start 9.25 0) (end 9.25 -0.5) (layer F.Fab) (width 0.1))
  (fp_line (start 9.25 -0.5) (end 8.75 -0.5) (layer F.Fab) (width 0.1))
  (fp_line (start -13 -4.45) (end -13 4.45) (layer F.CrtYd) (width 0.05))
  (fp_line (start -13 4.45) (end 13 4.45) (layer F.CrtYd) (width 0.05))
  (fp_line (start 13 4.45) (end 13 -4.45) (layer F.CrtYd) (width 0.05))
  (fp_line (start 13 -4.45) (end -13 -4.45) (layer F.CrtYd) (width 0.05))
  (fp_line (start -9.5 2.25) (end -9 1.542893) (layer F.Fab) (width 0.1))
  (fp_line (start -9 1.542893) (end -8.5 2.25) (layer F.Fab) (width 0.1))
  (pad 1 smd roundrect (at -9 2.75) (size 0.8 2.4) (layers F.Cu F.Mask F.Paste) (roundrect_rratio 0.25))
  (pad 2 smd roundrect (at -7.5 2.75) (size 0.8 2.4) (layers F.Cu F.Mask F.Paste) (roundrect_rratio 0.25))
  (pad 3 smd roundrect (at -6 2.75) (size 0.8 2.4) (layers F.Cu F.Mask F.Paste) (roundrect_rratio 0.25))
  (pad 4 smd roundrect (at -4.5 2.75) (size 0.8 2.4) (layers F.Cu F.Mask F.Paste) (roundrect_rratio 0.25))
  (pad 5 smd roundrect (at -3 2.75) (size 0.8 2.4) (layers F.Cu F.Mask F.Paste) (roundrect_rratio 0.25))
  (pad 6 smd roundrect (at -1.5 2.75) (size 0.8 2.4) (layers F.Cu F.Mask F.Paste) (roundrect_rratio 0.25))
  (pad 7 smd roundrect (at 0 2.75) (size 0.8 2.4) (layers F.Cu F.Mask F.Paste) (roundrect_rratio 0.25))
  (pad 8 smd roundrect (at 1.5 2.75) (size 0.8 2.4) (layers F.Cu F.Mask F.Paste) (roundrect_rratio 0.25))
  (pad 9 smd roundrect (at 3 2.75) (size 0.8 2.4) (layers F.Cu F.Mask F.Paste) (roundrect_rratio 0.25))
  (pad 10 smd roundrect (at 4.5 2.75) (size 0.8 2.4) (layers F.Cu F.Mask F.Paste) (roundrect_rratio 0.25))
  (pad 11 smd roundrect (at 6 2.75) (size 0.8 2.4) (layers F.Cu F.Mask F.Paste) (roundrect_rratio 0.25))
  (pad 12 smd roundrect (at 7.5 2.75) (size 0.8 2.4) (layers F.Cu F.Mask F.Paste) (roundrect_rratio 0.25))
  (pad 13 smd roundrect (at 9 2.75) (size 0.8 2.4) (layers F.Cu F.Mask F.Paste) (roundrect_rratio 0.25))
  (pad MP smd roundrect (at -11.6 -2.3) (size 1.8 3.3) (layers F.Cu F.Mask F.Paste) (roundrect_rratio 0.138889))
  (pad MP smd roundrect (at 11.6 -2.3) (size 1.8 3.3) (layers F.Cu F.Mask F.Paste) (roundrect_rratio 0.138889))
  (fp_text user %R (at 0 -1.5) (layer F.Fab)
    (effects (font (size 1 1) (thickness 0.15)))
  )
  (model ${KICAD6_3DMODEL_DIR}/Connector_JST.3dshapes/JST_ZE_BM13B-ZESS-TBT_1x13-1MP_P1.50mm_Vertical.wrl
    (at (xyz 0 0 0))
    (scale (xyz 1 1 1))
    (rotate (xyz 0 0 0))
  )
)