(module JST_SUR_SM05B-SURS-TF_1x05-1MP_P0.80mm_Horizontal (layer F.Cu) (tedit 5B78AD88)
  (descr "JST SUR series connector, SM05B-SURS-TF (http://www.jst-mfg.com/product/pdf/eng/eSUR.pdf), generated with kicad-footprint-generator")
  (tags "connector JST SUR top entry")
  (attr smd)
  (fp_text reference REF** (at 0 -2.85) (layer F.SilkS)
    (effects (font (size 1 1) (thickness 0.15)))
  )
  (fp_text value JST_SUR_SM05B-SURS-TF_1x05-1MP_P0.80mm_Horizontal (at 0 2.85) (layer F.Fab)
    (effects (font (size 1 1) (thickness 0.15)))
  )
  (fp_line (start -3.1 -1.1) (end -2.25 -1.1) (layer F.Fab) (width 0.1))
  (fp_line (start -2.25 -1.1) (end -2.25 -1.4) (layer F.Fab) (width 0.1))
  (fp_line (start -2.25 -1.4) (end 2.25 -1.4) (layer F.Fab) (width 0.1))
  (fp_line (start 2.25 -1.4) (end 2.25 -1.1) (layer F.Fab) (width 0.1))
  (fp_line (start 2.25 -1.1) (end 3.1 -1.1) (layer F.Fab) (width 0.1))
  (fp_line (start -3.21 -0.31) (end -3.21 -1.21) (layer F.SilkS) (width 0.12))
  (fp_line (start -3.21 -1.21) (end -2.36 -1.21) (layer F.SilkS) (width 0.12))
  (fp_line (start -2.36 -1.21) (end -2.36 -1.51) (layer F.SilkS) (width 0.12))
  (fp_line (start -2.36 -1.51) (end -2.11 -1.51) (layer F.SilkS) (width 0.12))
  (fp_line (start -2.11 -1.51) (end -2.11 -1.65) (layer F.SilkS) (width 0.12))
  (fp_line (start 3.21 -0.31) (end 3.21 -1.21) (layer F.SilkS) (width 0.12))
  (fp_line (start 3.21 -1.21) (end 2.36 -1.21) (layer F.SilkS) (width 0.12))
  (fp_line (start 2.36 -1.21) (end 2.36 -1.51) (layer F.SilkS) (width 0.12))
  (fp_line (start 2.36 -1.51) (end 2.11 -1.51) (layer F.SilkS) (width 0.12))
  (fp_line (start -2.04 1.41) (end 2.04 1.41) (layer F.SilkS) (width 0.12))
  (fp_line (start -3.1 1.3) (end 3.1 1.3) (layer F.Fab) (width 0.1))
  (fp_line (start -3.1 -1.1) (end -3.1 1.3) (layer F.Fab) (width 0.1))
  (fp_line (start 3.1 -1.1) (end 3.1 1.3) (layer F.Fab) (width 0.1))
  (fp_line (start -4 -2.15) (end -4 2.15) (layer F.CrtYd) (width 0.05))
  (fp_line (start -4 2.15) (end 4 2.15) (layer F.CrtYd) (width 0.05))
  (fp_line (start 4 2.15) (end 4 -2.15) (layer F.CrtYd) (width 0.05))
  (fp_line (start 4 -2.15) (end -4 -2.15) (layer F.CrtYd) (width 0.05))
  (fp_line (start -2.1 -1.4) (end -1.6 -0.692893) (layer F.Fab) (width 0.1))
  (fp_line (start -1.6 -0.692893) (end -1.1 -1.4) (layer F.Fab) (width 0.1))
  (fp_line (start -1.85 -2.503553) (end -1.6 -2.15) (layer F.SilkS) (width 0.12))
  (fp_line (start -1.6 -2.15) (end -1.35 -2.503553) (layer F.SilkS) (width 0.12))
  (fp_line (start -1.35 -2.503553) (end -1.85 -2.503553) (layer F.SilkS) (width 0.12))
  (pad 1 smd roundrect (at -1.6 -1.15) (size 0.5 1) (layers F.Cu F.Mask F.Paste) (roundrect_rratio 0.25))
  (pad 2 smd roundrect (at -0.8 -1.15) (size 0.5 1) (layers F.Cu F.Mask F.Paste) (roundrect_rratio 0.25))
  (pad 3 smd roundrect (at 0 -1.15) (size 0.5 1) (layers F.Cu F.Mask F.Paste) (roundrect_rratio 0.25))
  (pad 4 smd roundrect (at 0.8 -1.15) (size 0.5 1) (layers F.Cu F.Mask F.Paste) (roundrect_rratio 0.25))
  (pad 5 smd roundrect (at 1.6 -1.15) (size 0.5 1) (layers F.Cu F.Mask F.Paste) (roundrect_rratio 0.25))
  (pad MP smd roundrect (at -2.9 0.8) (size 1.2 1.7) (layers F.Cu F.Mask F.Paste) (roundrect_rratio 0.208333))
  (pad MP smd roundrect (at 2.9 0.8) (size 1.2 1.7) (layers F.Cu F.Mask F.Paste) (roundrect_rratio 0.208333))
  (fp_text user %R (at 0 0) (layer F.Fab)
    (effects (font (size 1 1) (thickness 0.15)))
  )
  (model ${KICAD6_3DMODEL_DIR}/Connector_JST.3dshapes/JST_SUR_SM05B-SURS-TF_1x05-1MP_P0.80mm_Horizontal.wrl
    (at (xyz 0 0 0))
    (scale (xyz 1 1 1))
    (rotate (xyz 0 0 0))
  )
)