(module JST_XA_S03B-XASK-1N-BN_1x03_P2.50mm_Horizontal (layer F.Cu) (tedit 5E8E654E)
  (descr "JST XA series connector, S03B-XASK-1N-BN (http://www.jst-mfg.com/product/pdf/eng/eXA1.pdf), generated with kicad-footprint-generator")
  (tags "connector JST XA horizontal")
  (fp_text reference REF** (at 2.5 -4.6) (layer F.SilkS)
    (effects (font (size 1 1) (thickness 0.15)))
  )
  (fp_text value JST_XA_S03B-XASK-1N-BN_1x03_P2.50mm_Horizontal (at 2.5 10.4) (layer F.Fab)
    (effects (font (size 1 1) (thickness 0.15)))
  )
  (fp_line (start -1.11 -0.61) (end -1.39 -0.61) (layer F.SilkS) (width 0.12))
  (fp_line (start -1.39 -0.61) (end -1.39 -3.51) (layer F.SilkS) (width 0.12))
  (fp_line (start -1.39 -3.51) (end -2.61 -3.51) (layer F.SilkS) (width 0.12))
  (fp_line (start -2.61 -3.51) (end -2.61 9.31) (layer F.SilkS) (width 0.12))
  (fp_line (start -2.61 9.31) (end 7.61 9.31) (layer F.SilkS) (width 0.12))
  (fp_line (start 7.61 9.31) (end 7.61 -3.51) (layer F.SilkS) (width 0.12))
  (fp_line (start 7.61 -3.51) (end 6.39 -3.51) (layer F.SilkS) (width 0.12))
  (fp_line (start 6.39 -3.51) (end 6.39 -0.61) (layer F.SilkS) (width 0.12))
  (fp_line (start 6.39 -0.61) (end 6.11 -0.61) (layer F.SilkS) (width 0.12))
  (fp_line (start -1.5 9.31) (end -1.5 7.01) (layer F.SilkS) (width 0.12))
  (fp_line (start -1.5 7.01) (end 6.5 7.01) (layer F.SilkS) (width 0.12))
  (fp_line (start 6.5 7.01) (end 6.5 9.31) (layer F.SilkS) (width 0.12))
  (fp_line (start 1.7 5.2) (end 1.7 3.4) (layer F.SilkS) (width 0.12))
  (fp_line (start 1.7 3.4) (end 3.3 3.4) (layer F.SilkS) (width 0.12))
  (fp_line (start 3.3 3.4) (end 3.3 5.2) (layer F.SilkS) (width 0.12))
  (fp_line (start 3.3 5.2) (end 1.7 5.2) (layer F.SilkS) (width 0.12))
  (fp_line (start 4.9 7.01) (end 4.9 2) (layer F.SilkS) (width 0.12))
  (fp_line (start 4.9 2) (end 5.4 2) (layer F.SilkS) (width 0.12))
  (fp_line (start 5.4 2) (end 5.4 5.41) (layer F.SilkS) (width 0.12))
  (fp_line (start 5.4 5.41) (end 6.5 5.41) (layer F.SilkS) (width 0.12))
  (fp_line (start 6.5 5.41) (end 6.5 2) (layer F.SilkS) (width 0.12))
  (fp_line (start 6.5 2) (end 7.61 2) (layer F.SilkS) (width 0.12))
  (fp_line (start 0.1 7.01) (end 0.1 2) (layer F.SilkS) (width 0.12))
  (fp_line (start 0.1 2) (end -0.4 2) (layer F.SilkS) (width 0.12))
  (fp_line (start -0.4 2) (end -0.4 5.41) (layer F.SilkS) (width 0.12))
  (fp_line (start -0.4 5.41) (end -1.5 5.41) (layer F.SilkS) (width 0.12))
  (fp_line (start -1.5 5.41) (end -1.5 2) (layer F.SilkS) (width 0.12))
  (fp_line (start -1.5 2) (end -2.61 2) (layer F.SilkS) (width 0.12))
  (fp_line (start -3 -3.9) (end -3 9.7) (layer F.CrtYd) (width 0.05))
  (fp_line (start -3 9.7) (end 8 9.7) (layer F.CrtYd) (width 0.05))
  (fp_line (start 8 9.7) (end 8 -3.9) (layer F.CrtYd) (width 0.05))
  (fp_line (start 8 -3.9) (end 6 -3.9) (layer F.CrtYd) (width 0.05))
  (fp_line (start 6 -3.9) (end 6 -1.48) (layer F.CrtYd) (width 0.05))
  (fp_line (start 6 -1.48) (end -1 -1.48) (layer F.CrtYd) (width 0.05))
  (fp_line (start -1 -1.48) (end -1 -3.9) (layer F.CrtYd) (width 0.05))
  (fp_line (start -1 -3.9) (end -3 -3.9) (layer F.CrtYd) (width 0.05))
  (fp_line (start -1.5 -0.5) (end -1.5 -3.4) (layer F.Fab) (width 0.1))
  (fp_line (start -1.5 -3.4) (end -2.5 -3.4) (layer F.Fab) (width 0.1))
  (fp_line (start -2.5 -3.4) (end -2.5 9.2) (layer F.Fab) (width 0.1))
  (fp_line (start -2.5 9.2) (end 7.5 9.2) (layer F.Fab) (width 0.1))
  (fp_line (start 7.5 9.2) (end 7.5 -3.4) (layer F.Fab) (width 0.1))
  (fp_line (start 7.5 -3.4) (end 6.5 -3.4) (layer F.Fab) (width 0.1))
  (fp_line (start 6.5 -3.4) (end 6.5 -0.5) (layer F.Fab) (width 0.1))
  (fp_line (start 6.5 -0.5) (end -1.5 -0.5) (layer F.Fab) (width 0.1))
  (fp_line (start 0 -1.2) (end -0.4 -1.6) (layer F.SilkS) (width 0.12))
  (fp_line (start -0.4 -1.6) (end 0.4 -1.6) (layer F.SilkS) (width 0.12))
  (fp_line (start 0.4 -1.6) (end 0 -1.2) (layer F.SilkS) (width 0.12))
  (fp_line (start 0 0.975) (end -0.5 1.475) (layer F.Fab) (width 0.1))
  (fp_line (start -0.5 1.475) (end 0.5 1.475) (layer F.Fab) (width 0.1))
  (fp_line (start 0.5 1.475) (end 0 0.975) (layer F.Fab) (width 0.1))
  (pad 1 thru_hole roundrect (at 0 0) (size 1.7 1.95) (drill 0.95) (layers *.Cu *.Mask) (roundrect_rratio 0.147059))
  (pad 2 thru_hole oval (at 2.5 0) (size 1.7 1.95) (drill 0.95) (layers *.Cu *.Mask))
  (pad 3 thru_hole oval (at 5 0) (size 1.7 1.95) (drill 0.95) (layers *.Cu *.Mask))
  (fp_text user %R (at 2.5 2.5) (layer F.Fab)
    (effects (font (size 1 1) (thickness 0.15)))
  )
  (model ${KICAD6_3DMODEL_DIR}/Connector_JST.3dshapes/JST_XA_S03B-XASK-1N-BN_1x03_P2.50mm_Horizontal.wrl
    (at (xyz 0 0 0))
    (scale (xyz 1 1 1))
    (rotate (xyz 0 0 0))
  )
)