(module JST_SHL_SM16B-SHLS-TF_1x16-1MP_P1.00mm_Horizontal (layer F.Cu) (tedit 5B78AD87)
  (descr "JST SHL series connector, SM16B-SHLS-TF (http://www.jst-mfg.com/product/pdf/eng/eSHL.pdf), generated with kicad-footprint-generator")
  (tags "connector JST SHL top entry")
  (attr smd)
  (fp_text reference REF** (at 0 -3.5) (layer F.SilkS)
    (effects (font (size 1 1) (thickness 0.15)))
  )
  (fp_text value JST_SHL_SM16B-SHLS-TF_1x16-1MP_P1.00mm_Horizontal (at 0 4.2) (layer F.Fab)
    (effects (font (size 1 1) (thickness 0.15)))
  )
  (fp_line (start -9.4 -1.3) (end 9.4 -1.3) (layer F.Fab) (width 0.1))
  (fp_line (start -9.51 0.34) (end -9.51 -1.41) (layer F.SilkS) (width 0.12))
  (fp_line (start -9.51 -1.41) (end -8.06 -1.41) (layer F.SilkS) (width 0.12))
  (fp_line (start -8.06 -1.41) (end -8.06 -2.3) (layer F.SilkS) (width 0.12))
  (fp_line (start 9.51 0.34) (end 9.51 -1.41) (layer F.SilkS) (width 0.12))
  (fp_line (start 9.51 -1.41) (end 8.06 -1.41) (layer F.SilkS) (width 0.12))
  (fp_line (start -9.51 2.56) (end -9.51 3.11) (layer F.SilkS) (width 0.12))
  (fp_line (start -9.51 3.11) (end 9.51 3.11) (layer F.SilkS) (width 0.12))
  (fp_line (start 9.51 3.11) (end 9.51 2.56) (layer F.SilkS) (width 0.12))
  (fp_line (start -9.4 3) (end 9.4 3) (layer F.Fab) (width 0.1))
  (fp_line (start -9.4 -1.3) (end -9.4 3) (layer F.Fab) (width 0.1))
  (fp_line (start 9.4 -1.3) (end 9.4 3) (layer F.Fab) (width 0.1))
  (fp_line (start -9.9 -2.8) (end -9.9 3.5) (layer F.CrtYd) (width 0.05))
  (fp_line (start -9.9 3.5) (end 9.9 3.5) (layer F.CrtYd) (width 0.05))
  (fp_line (start 9.9 3.5) (end 9.9 -2.8) (layer F.CrtYd) (width 0.05))
  (fp_line (start 9.9 -2.8) (end -9.9 -2.8) (layer F.CrtYd) (width 0.05))
  (fp_line (start -8 -1.3) (end -7.5 -0.592893) (layer F.Fab) (width 0.1))
  (fp_line (start -7.5 -0.592893) (end -7 -1.3) (layer F.Fab) (width 0.1))
  (pad 1 smd roundrect (at -7.5 -1.675) (size 0.6 1.25) (layers F.Cu F.Mask F.Paste) (roundrect_rratio 0.25))
  (pad 2 smd roundrect (at -6.5 -1.675) (size 0.6 1.25) (layers F.Cu F.Mask F.Paste) (roundrect_rratio 0.25))
  (pad 3 smd roundrect (at -5.5 -1.675) (size 0.6 1.25) (layers F.Cu F.Mask F.Paste) (roundrect_rratio 0.25))
  (pad 4 smd roundrect (at -4.5 -1.675) (size 0.6 1.25) (layers F.Cu F.Mask F.Paste) (roundrect_rratio 0.25))
  (pad 5 smd roundrect (at -3.5 -1.675) (size 0.6 1.25) (layers F.Cu F.Mask F.Paste) (roundrect_rratio 0.25))
  (pad 6 smd roundrect (at -2.5 -1.675) (size 0.6 1.25) (layers F.Cu F.Mask F.Paste) (roundrect_rratio 0.25))
  (pad 7 smd roundrect (at -1.5 -1.675) (size 0.6 1.25) (layers F.Cu F.Mask F.Paste) (roundrect_rratio 0.25))
  (pad 8 smd roundrect (at -0.5 -1.675) (size 0.6 1.25) (layers F.Cu F.Mask F.Paste) (roundrect_rratio 0.25))
  (pad 9 smd roundrect (at 0.5 -1.675) (size 0.6 1.25) (layers F.Cu F.Mask F.Paste) (roundrect_rratio 0.25))
  (pad 10 smd roundrect (at 1.5 -1.675) (size 0.6 1.25) (layers F.Cu F.Mask F.Paste) (roundrect_rratio 0.25))
  (pad 11 smd roundrect (at 2.5 -1.675) (size 0.6 1.25) (layers F.Cu F.Mask F.Paste) (roundrect_rratio 0.25))
  (pad 12 smd roundrect (at 3.5 -1.675) (size 0.6 1.25) (layers F.Cu F.Mask F.Paste) (roundrect_rratio 0.25))
  (pad 13 smd roundrect (at 4.5 -1.675) (size 0.6 1.25) (layers F.Cu F.Mask F.Paste) (roundrect_rratio 0.25))
  (pad 14 smd roundrect (at 5.5 -1.675) (size 0.6 1.25) (layers F.Cu F.Mask F.Paste) (roundrect_rratio 0.25))
  (pad 15 smd roundrect (at 6.5 -1.675) (size 0.6 1.25) (layers F.Cu F.Mask F.Paste) (roundrect_rratio 0.25))
  (pad 16 smd roundrect (at 7.5 -1.675) (size 0.6 1.25) (layers F.Cu F.Mask F.Paste) (roundrect_rratio 0.25))
  (pad MP smd roundrect (at -8.95 1.45) (size 0.9 1.7) (layers F.Cu F.Mask F.Paste) (roundrect_rratio 0.25))
  (pad MP smd roundrect (at 8.95 1.45) (size 0.9 1.7) (layers F.Cu F.Mask F.Paste) (roundrect_rratio 0.25))
  (fp_text user %R (at 0 0.5) (layer F.Fab)
    (effects (font (size 1 1) (thickness 0.15)))
  )
  (model ${KICAD6_3DMODEL_DIR}/Connector_JST.3dshapes/JST_SHL_SM16B-SHLS-TF_1x16-1MP_P1.00mm_Horizontal.wrl
    (at (xyz 0 0 0))
    (scale (xyz 1 1 1))
    (rotate (xyz 0 0 0))
  )
)