(module JST_XH_S14B-XH-A_1x14_P2.50mm_Horizontal (layer F.Cu) (tedit 5B77520A)
  (descr "JST XH series connector, S14B-XH-A (http://www.jst-mfg.com/product/pdf/eng/eXH.pdf), generated with kicad-footprint-generator")
  (tags "connector JST XH top entry")
  (fp_text reference REF** (at 16.25 -3.5) (layer F.SilkS)
    (effects (font (size 1 1) (thickness 0.15)))
  )
  (fp_text value JST_XH_S14B-XH-A_1x14_P2.50mm_Horizontal (at 16.25 10.4) (layer F.Fab)
    (effects (font (size 1 1) (thickness 0.15)))
  )
  (fp_line (start -2.95 -2.8) (end -2.95 9.7) (layer F.CrtYd) (width 0.05))
  (fp_line (start -2.95 9.7) (end 35.45 9.7) (layer F.CrtYd) (width 0.05))
  (fp_line (start 35.45 9.7) (end 35.45 -2.8) (layer F.CrtYd) (width 0.05))
  (fp_line (start 35.45 -2.8) (end -2.95 -2.8) (layer F.CrtYd) (width 0.05))
  (fp_line (start 16.25 9.31) (end -2.56 9.31) (layer F.SilkS) (width 0.12))
  (fp_line (start -2.56 9.31) (end -2.56 -2.41) (layer F.SilkS) (width 0.12))
  (fp_line (start -2.56 -2.41) (end -1.14 -2.41) (layer F.SilkS) (width 0.12))
  (fp_line (start -1.14 -2.41) (end -1.14 2.09) (layer F.SilkS) (width 0.12))
  (fp_line (start -1.14 2.09) (end 16.25 2.09) (layer F.SilkS) (width 0.12))
  (fp_line (start 16.25 9.31) (end 35.06 9.31) (layer F.SilkS) (width 0.12))
  (fp_line (start 35.06 9.31) (end 35.06 -2.41) (layer F.SilkS) (width 0.12))
  (fp_line (start 35.06 -2.41) (end 33.64 -2.41) (layer F.SilkS) (width 0.12))
  (fp_line (start 33.64 -2.41) (end 33.64 2.09) (layer F.SilkS) (width 0.12))
  (fp_line (start 33.64 2.09) (end 16.25 2.09) (layer F.SilkS) (width 0.12))
  (fp_line (start 16.25 9.2) (end -2.45 9.2) (layer F.Fab) (width 0.1))
  (fp_line (start -2.45 9.2) (end -2.45 -2.3) (layer F.Fab) (width 0.1))
  (fp_line (start -2.45 -2.3) (end -1.25 -2.3) (layer F.Fab) (width 0.1))
  (fp_line (start -1.25 -2.3) (end -1.25 2.2) (layer F.Fab) (width 0.1))
  (fp_line (start -1.25 2.2) (end 16.25 2.2) (layer F.Fab) (width 0.1))
  (fp_line (start 16.25 9.2) (end 34.95 9.2) (layer F.Fab) (width 0.1))
  (fp_line (start 34.95 9.2) (end 34.95 -2.3) (layer F.Fab) (width 0.1))
  (fp_line (start 34.95 -2.3) (end 33.75 -2.3) (layer F.Fab) (width 0.1))
  (fp_line (start 33.75 -2.3) (end 33.75 2.2) (layer F.Fab) (width 0.1))
  (fp_line (start 33.75 2.2) (end 16.25 2.2) (layer F.Fab) (width 0.1))
  (fp_line (start -0.25 3.2) (end -0.25 8.7) (layer F.SilkS) (width 0.12))
  (fp_line (start -0.25 8.7) (end 0.25 8.7) (layer F.SilkS) (width 0.12))
  (fp_line (start 0.25 8.7) (end 0.25 3.2) (layer F.SilkS) (width 0.12))
  (fp_line (start 0.25 3.2) (end -0.25 3.2) (layer F.SilkS) (width 0.12))
  (fp_line (start 2.25 3.2) (end 2.25 8.7) (layer F.SilkS) (width 0.12))
  (fp_line (start 2.25 8.7) (end 2.75 8.7) (layer F.SilkS) (width 0.12))
  (fp_line (start 2.75 8.7) (end 2.75 3.2) (layer F.SilkS) (width 0.12))
  (fp_line (start 2.75 3.2) (end 2.25 3.2) (layer F.SilkS) (width 0.12))
  (fp_line (start 4.75 3.2) (end 4.75 8.7) (layer F.SilkS) (width 0.12))
  (fp_line (start 4.75 8.7) (end 5.25 8.7) (layer F.SilkS) (width 0.12))
  (fp_line (start 5.25 8.7) (end 5.25 3.2) (layer F.SilkS) (width 0.12))
  (fp_line (start 5.25 3.2) (end 4.75 3.2) (layer F.SilkS) (width 0.12))
  (fp_line (start 7.25 3.2) (end 7.25 8.7) (layer F.SilkS) (width 0.12))
  (fp_line (start 7.25 8.7) (end 7.75 8.7) (layer F.SilkS) (width 0.12))
  (fp_line (start 7.75 8.7) (end 7.75 3.2) (layer F.SilkS) (width 0.12))
  (fp_line (start 7.75 3.2) (end 7.25 3.2) (layer F.SilkS) (width 0.12))
  (fp_line (start 9.75 3.2) (end 9.75 8.7) (layer F.SilkS) (width 0.12))
  (fp_line (start 9.75 8.7) (end 10.25 8.7) (layer F.SilkS) (width 0.12))
  (fp_line (start 10.25 8.7) (end 10.25 3.2) (layer F.SilkS) (width 0.12))
  (fp_line (start 10.25 3.2) (end 9.75 3.2) (layer F.SilkS) (width 0.12))
  (fp_line (start 12.25 3.2) (end 12.25 8.7) (layer F.SilkS) (width 0.12))
  (fp_line (start 12.25 8.7) (end 12.75 8.7) (layer F.SilkS) (width 0.12))
  (fp_line (start 12.75 8.7) (end 12.75 3.2) (layer F.SilkS) (width 0.12))
  (fp_line (start 12.75 3.2) (end 12.25 3.2) (layer F.SilkS) (width 0.12))
  (fp_line (start 14.75 3.2) (end 14.75 8.7) (layer F.SilkS) (width 0.12))
  (fp_line (start 14.75 8.7) (end 15.25 8.7) (layer F.SilkS) (width 0.12))
  (fp_line (start 15.25 8.7) (end 15.25 3.2) (layer F.SilkS) (width 0.12))
  (fp_line (start 15.25 3.2) (end 14.75 3.2) (layer F.SilkS) (width 0.12))
  (fp_line (start 17.25 3.2) (end 17.25 8.7) (layer F.SilkS) (width 0.12))
  (fp_line (start 17.25 8.7) (end 17.75 8.7) (layer F.SilkS) (width 0.12))
  (fp_line (start 17.75 8.7) (end 17.75 3.2) (layer F.SilkS) (width 0.12))
  (fp_line (start 17.75 3.2) (end 17.25 3.2) (layer F.SilkS) (width 0.12))
  (fp_line (start 19.75 3.2) (end 19.75 8.7) (layer F.SilkS) (width 0.12))
  (fp_line (start 19.75 8.7) (end 20.25 8.7) (layer F.SilkS) (width 0.12))
  (fp_line (start 20.25 8.7) (end 20.25 3.2) (layer F.SilkS) (width 0.12))
  (fp_line (start 20.25 3.2) (end 19.75 3.2) (layer F.SilkS) (width 0.12))
  (fp_line (start 22.25 3.2) (end 22.25 8.7) (layer F.SilkS) (width 0.12))
  (fp_line (start 22.25 8.7) (end 22.75 8.7) (layer F.SilkS) (width 0.12))
  (fp_line (start 22.75 8.7) (end 22.75 3.2) (layer F.SilkS) (width 0.12))
  (fp_line (start 22.75 3.2) (end 22.25 3.2) (layer F.SilkS) (width 0.12))
  (fp_line (start 24.75 3.2) (end 24.75 8.7) (layer F.SilkS) (width 0.12))
  (fp_line (start 24.75 8.7) (end 25.25 8.7) (layer F.SilkS) (width 0.12))
  (fp_line (start 25.25 8.7) (end 25.25 3.2) (layer F.SilkS) (width 0.12))
  (fp_line (start 25.25 3.2) (end 24.75 3.2) (layer F.SilkS) (width 0.12))
  (fp_line (start 27.25 3.2) (end 27.25 8.7) (layer F.SilkS) (width 0.12))
  (fp_line (start 27.25 8.7) (end 27.75 8.7) (layer F.SilkS) (width 0.12))
  (fp_line (start 27.75 8.7) (end 27.75 3.2) (layer F.SilkS) (width 0.12))
  (fp_line (start 27.75 3.2) (end 27.25 3.2) (layer F.SilkS) (width 0.12))
  (fp_line (start 29.75 3.2) (end 29.75 8.7) (layer F.SilkS) (width 0.12))
  (fp_line (start 29.75 8.7) (end 30.25 8.7) (layer F.SilkS) (width 0.12))
  (fp_line (start 30.25 8.7) (end 30.25 3.2) (layer F.SilkS) (width 0.12))
  (fp_line (start 30.25 3.2) (end 29.75 3.2) (layer F.SilkS) (width 0.12))
  (fp_line (start 32.25 3.2) (end 32.25 8.7) (layer F.SilkS) (width 0.12))
  (fp_line (start 32.25 8.7) (end 32.75 8.7) (layer F.SilkS) (width 0.12))
  (fp_line (start 32.75 8.7) (end 32.75 3.2) (layer F.SilkS) (width 0.12))
  (fp_line (start 32.75 3.2) (end 32.25 3.2) (layer F.SilkS) (width 0.12))
  (fp_line (start 0 -1.5) (end -0.3 -2.1) (layer F.SilkS) (width 0.12))
  (fp_line (start -0.3 -2.1) (end 0.3 -2.1) (layer F.SilkS) (width 0.12))
  (fp_line (start 0.3 -2.1) (end 0 -1.5) (layer F.SilkS) (width 0.12))
  (fp_line (start -0.625 2.2) (end 0 1.2) (layer F.Fab) (width 0.1))
  (fp_line (start 0 1.2) (end 0.625 2.2) (layer F.Fab) (width 0.1))
  (pad 1 thru_hole roundrect (at 0 0) (size 1.7 1.95) (drill 0.95) (layers *.Cu *.Mask) (roundrect_rratio 0.147059))
  (pad 2 thru_hole oval (at 2.5 0) (size 1.7 1.95) (drill 0.95) (layers *.Cu *.Mask))
  (pad 3 thru_hole oval (at 5 0) (size 1.7 1.95) (drill 0.95) (layers *.Cu *.Mask))
  (pad 4 thru_hole oval (at 7.5 0) (size 1.7 1.95) (drill 0.95) (layers *.Cu *.Mask))
  (pad 5 thru_hole oval (at 10 0) (size 1.7 1.95) (drill 0.95) (layers *.Cu *.Mask))
  (pad 6 thru_hole oval (at 12.5 0) (size 1.7 1.95) (drill 0.95) (layers *.Cu *.Mask))
  (pad 7 thru_hole oval (at 15 0) (size 1.7 1.95) (drill 0.95) (layers *.Cu *.Mask))
  (pad 8 thru_hole oval (at 17.5 0) (size 1.7 1.95) (drill 0.95) (layers *.Cu *.Mask))
  (pad 9 thru_hole oval (at 20 0) (size 1.7 1.95) (drill 0.95) (layers *.Cu *.Mask))
  (pad 10 thru_hole oval (at 22.5 0) (size 1.7 1.95) (drill 0.95) (layers *.Cu *.Mask))
  (pad 11 thru_hole oval (at 25 0) (size 1.7 1.95) (drill 0.95) (layers *.Cu *.Mask))
  (pad 12 thru_hole oval (at 27.5 0) (size 1.7 1.95) (drill 0.95) (layers *.Cu *.Mask))
  (pad 13 thru_hole oval (at 30 0) (size 1.7 1.95) (drill 0.95) (layers *.Cu *.Mask))
  (pad 14 thru_hole oval (at 32.5 0) (size 1.7 1.95) (drill 0.95) (layers *.Cu *.Mask))
  (fp_text user %R (at 16.25 3.45) (layer F.Fab)
    (effects (font (size 1 1) (thickness 0.15)))
  )
  (model ${KICAD6_3DMODEL_DIR}/Connector_JST.3dshapes/JST_XH_S14B-XH-A_1x14_P2.50mm_Horizontal.wrl
    (at (xyz 0 0 0))
    (scale (xyz 1 1 1))
    (rotate (xyz 0 0 0))
  )
)