(module JST_VH_B7PS-VH_1x07_P3.96mm_Horizontal (layer F.Cu) (tedit 5B774C02)
  (descr "JST VH series connector, B7PS-VH (http://www.jst-mfg.com/product/pdf/eng/eVH.pdf), generated with kicad-footprint-generator")
  (tags "connector JST VH top entry")
  (fp_text reference REF** (at 11.88 -2.55) (layer F.SilkS)
    (effects (font (size 1 1) (thickness 0.15)))
  )
  (fp_text value JST_VH_B7PS-VH_1x07_P3.96mm_Horizontal (at 11.88 16.1) (layer F.Fab)
    (effects (font (size 1 1) (thickness 0.15)))
  )
  (fp_line (start -0.9 4) (end -0.9 13.4) (layer F.Fab) (width 0.1))
  (fp_line (start -0.9 13.4) (end 24.66 13.4) (layer F.Fab) (width 0.1))
  (fp_line (start 24.66 13.4) (end 24.66 4) (layer F.Fab) (width 0.1))
  (fp_line (start 24.66 4) (end -0.9 4) (layer F.Fab) (width 0.1))
  (fp_line (start 24.66 4) (end 25.71 4) (layer F.Fab) (width 0.1))
  (fp_line (start 25.71 4) (end 25.71 7.2) (layer F.Fab) (width 0.1))
  (fp_line (start 25.71 7.2) (end 24.66 7.2) (layer F.Fab) (width 0.1))
  (fp_line (start -0.9 7.2) (end -1.95 7.2) (layer F.Fab) (width 0.1))
  (fp_line (start -1.95 7.2) (end -1.95 4) (layer F.Fab) (width 0.1))
  (fp_line (start -1.95 4) (end -0.9 4) (layer F.Fab) (width 0.1))
  (fp_line (start -0.8 4) (end 0 4.8) (layer F.Fab) (width 0.1))
  (fp_line (start 0 4.8) (end 0.8 4) (layer F.Fab) (width 0.1))
  (fp_line (start -0.7 4) (end -0.7 0) (layer F.Fab) (width 0.1))
  (fp_line (start -0.7 0) (end 0.7 0) (layer F.Fab) (width 0.1))
  (fp_line (start 0.7 0) (end 0.7 4) (layer F.Fab) (width 0.1))
  (fp_line (start -0.7 13.4) (end -0.7 14.9) (layer F.Fab) (width 0.1))
  (fp_line (start -0.7 14.9) (end 0.7 14.9) (layer F.Fab) (width 0.1))
  (fp_line (start 0.7 14.9) (end 0.7 13.4) (layer F.Fab) (width 0.1))
  (fp_line (start 3.26 4) (end 3.26 0) (layer F.Fab) (width 0.1))
  (fp_line (start 3.26 0) (end 4.66 0) (layer F.Fab) (width 0.1))
  (fp_line (start 4.66 0) (end 4.66 4) (layer F.Fab) (width 0.1))
  (fp_line (start 3.26 13.4) (end 3.26 14.9) (layer F.Fab) (width 0.1))
  (fp_line (start 3.26 14.9) (end 4.66 14.9) (layer F.Fab) (width 0.1))
  (fp_line (start 4.66 14.9) (end 4.66 13.4) (layer F.Fab) (width 0.1))
  (fp_line (start 7.22 4) (end 7.22 0) (layer F.Fab) (width 0.1))
  (fp_line (start 7.22 0) (end 8.62 0) (layer F.Fab) (width 0.1))
  (fp_line (start 8.62 0) (end 8.62 4) (layer F.Fab) (width 0.1))
  (fp_line (start 7.22 13.4) (end 7.22 14.9) (layer F.Fab) (width 0.1))
  (fp_line (start 7.22 14.9) (end 8.62 14.9) (layer F.Fab) (width 0.1))
  (fp_line (start 8.62 14.9) (end 8.62 13.4) (layer F.Fab) (width 0.1))
  (fp_line (start 11.18 4) (end 11.18 0) (layer F.Fab) (width 0.1))
  (fp_line (start 11.18 0) (end 12.58 0) (layer F.Fab) (width 0.1))
  (fp_line (start 12.58 0) (end 12.58 4) (layer F.Fab) (width 0.1))
  (fp_line (start 11.18 13.4) (end 11.18 14.9) (layer F.Fab) (width 0.1))
  (fp_line (start 11.18 14.9) (end 12.58 14.9) (layer F.Fab) (width 0.1))
  (fp_line (start 12.58 14.9) (end 12.58 13.4) (layer F.Fab) (width 0.1))
  (fp_line (start 15.14 4) (end 15.14 0) (layer F.Fab) (width 0.1))
  (fp_line (start 15.14 0) (end 16.54 0) (layer F.Fab) (width 0.1))
  (fp_line (start 16.54 0) (end 16.54 4) (layer F.Fab) (width 0.1))
  (fp_line (start 15.14 13.4) (end 15.14 14.9) (layer F.Fab) (width 0.1))
  (fp_line (start 15.14 14.9) (end 16.54 14.9) (layer F.Fab) (width 0.1))
  (fp_line (start 16.54 14.9) (end 16.54 13.4) (layer F.Fab) (width 0.1))
  (fp_line (start 19.1 4) (end 19.1 0) (layer F.Fab) (width 0.1))
  (fp_line (start 19.1 0) (end 20.5 0) (layer F.Fab) (width 0.1))
  (fp_line (start 20.5 0) (end 20.5 4) (layer F.Fab) (width 0.1))
  (fp_line (start 19.1 13.4) (end 19.1 14.9) (layer F.Fab) (width 0.1))
  (fp_line (start 19.1 14.9) (end 20.5 14.9) (layer F.Fab) (width 0.1))
  (fp_line (start 20.5 14.9) (end 20.5 13.4) (layer F.Fab) (width 0.1))
  (fp_line (start 23.06 4) (end 23.06 0) (layer F.Fab) (width 0.1))
  (fp_line (start 23.06 0) (end 24.46 0) (layer F.Fab) (width 0.1))
  (fp_line (start 24.46 0) (end 24.46 4) (layer F.Fab) (width 0.1))
  (fp_line (start 23.06 13.4) (end 23.06 14.9) (layer F.Fab) (width 0.1))
  (fp_line (start 23.06 14.9) (end 24.46 14.9) (layer F.Fab) (width 0.1))
  (fp_line (start 24.46 14.9) (end 24.46 13.4) (layer F.Fab) (width 0.1))
  (fp_line (start -2.45 -1.85) (end -2.45 15.4) (layer F.CrtYd) (width 0.05))
  (fp_line (start -2.45 15.4) (end 26.21 15.4) (layer F.CrtYd) (width 0.05))
  (fp_line (start 26.21 15.4) (end 26.21 -1.85) (layer F.CrtYd) (width 0.05))
  (fp_line (start 26.21 -1.85) (end -2.45 -1.85) (layer F.CrtYd) (width 0.05))
  (fp_line (start -2.06 3.89) (end 25.82 3.89) (layer F.SilkS) (width 0.12))
  (fp_line (start 25.82 3.89) (end 25.82 7.31) (layer F.SilkS) (width 0.12))
  (fp_line (start 25.82 7.31) (end 24.77 7.31) (layer F.SilkS) (width 0.12))
  (fp_line (start 24.77 7.31) (end 24.77 13.51) (layer F.SilkS) (width 0.12))
  (fp_line (start 24.77 13.51) (end -1.01 13.51) (layer F.SilkS) (width 0.12))
  (fp_line (start -1.01 13.51) (end -1.01 7.31) (layer F.SilkS) (width 0.12))
  (fp_line (start -1.01 7.31) (end -2.06 7.31) (layer F.SilkS) (width 0.12))
  (fp_line (start -2.06 7.31) (end -2.06 3.89) (layer F.SilkS) (width 0.12))
  (fp_line (start -0.82 13.51) (end -0.82 15.01) (layer F.SilkS) (width 0.12))
  (fp_line (start -0.82 15.01) (end 0.82 15.01) (layer F.SilkS) (width 0.12))
  (fp_line (start 0.82 15.01) (end 0.82 13.51) (layer F.SilkS) (width 0.12))
  (fp_line (start 3.14 13.51) (end 3.14 15.01) (layer F.SilkS) (width 0.12))
  (fp_line (start 3.14 15.01) (end 4.78 15.01) (layer F.SilkS) (width 0.12))
  (fp_line (start 4.78 15.01) (end 4.78 13.51) (layer F.SilkS) (width 0.12))
  (fp_line (start 7.1 13.51) (end 7.1 15.01) (layer F.SilkS) (width 0.12))
  (fp_line (start 7.1 15.01) (end 8.74 15.01) (layer F.SilkS) (width 0.12))
  (fp_line (start 8.74 15.01) (end 8.74 13.51) (layer F.SilkS) (width 0.12))
  (fp_line (start 11.06 13.51) (end 11.06 15.01) (layer F.SilkS) (width 0.12))
  (fp_line (start 11.06 15.01) (end 12.7 15.01) (layer F.SilkS) (width 0.12))
  (fp_line (start 12.7 15.01) (end 12.7 13.51) (layer F.SilkS) (width 0.12))
  (fp_line (start 15.02 13.51) (end 15.02 15.01) (layer F.SilkS) (width 0.12))
  (fp_line (start 15.02 15.01) (end 16.66 15.01) (layer F.SilkS) (width 0.12))
  (fp_line (start 16.66 15.01) (end 16.66 13.51) (layer F.SilkS) (width 0.12))
  (fp_line (start 18.98 13.51) (end 18.98 15.01) (layer F.SilkS) (width 0.12))
  (fp_line (start 18.98 15.01) (end 20.62 15.01) (layer F.SilkS) (width 0.12))
  (fp_line (start 20.62 15.01) (end 20.62 13.51) (layer F.SilkS) (width 0.12))
  (fp_line (start 22.94 13.51) (end 22.94 15.01) (layer F.SilkS) (width 0.12))
  (fp_line (start 22.94 15.01) (end 24.58 15.01) (layer F.SilkS) (width 0.12))
  (fp_line (start 24.58 15.01) (end 24.58 13.51) (layer F.SilkS) (width 0.12))
  (fp_line (start 0 -1.61) (end -1.61 -1.61) (layer F.SilkS) (width 0.12))
  (fp_line (start -1.61 -1.61) (end -1.61 0) (layer F.SilkS) (width 0.12))
  (pad 1 thru_hole roundrect (at 0 0) (size 2.7 2.7) (drill 1.7) (layers *.Cu *.Mask) (roundrect_rratio 0.092593))
  (pad 2 thru_hole circle (at 3.96 0) (size 2.7 2.7) (drill 1.7) (layers *.Cu *.Mask))
  (pad 3 thru_hole circle (at 7.92 0) (size 2.7 2.7) (drill 1.7) (layers *.Cu *.Mask))
  (pad 4 thru_hole circle (at 11.88 0) (size 2.7 2.7) (drill 1.7) (layers *.Cu *.Mask))
  (pad 5 thru_hole circle (at 15.84 0) (size 2.7 2.7) (drill 1.7) (layers *.Cu *.Mask))
  (pad 6 thru_hole circle (at 19.8 0) (size 2.7 2.7) (drill 1.7) (layers *.Cu *.Mask))
  (pad 7 thru_hole circle (at 23.76 0) (size 2.7 2.7) (drill 1.7) (layers *.Cu *.Mask))
  (fp_text user %R (at 11.88 9.45) (layer F.Fab)
    (effects (font (size 1 1) (thickness 0.15)))
  )
  (model ${KICAD6_3DMODEL_DIR}/Connector_JST.3dshapes/JST_VH_B7PS-VH_1x07_P3.96mm_Horizontal.wrl
    (at (xyz 0 0 0))
    (scale (xyz 1 1 1))
    (rotate (xyz 0 0 0))
  )
)