(module JST_GH_BM14B-GHS-TBT_1x14-1MP_P1.25mm_Vertical (layer F.Cu) (tedit 5B78AD87)
  (descr "JST GH series connector, BM14B-GHS-TBT (http://www.jst-mfg.com/product/pdf/eng/eGH.pdf), generated with kicad-footprint-generator")
  (tags "connector JST GH side entry")
  (attr smd)
  (fp_text reference REF** (at 0 -4) (layer F.SilkS)
    (effects (font (size 1 1) (thickness 0.15)))
  )
  (fp_text value JST_GH_BM14B-GHS-TBT_1x14-1MP_P1.25mm_Vertical (at 0 4) (layer F.Fab)
    (effects (font (size 1 1) (thickness 0.15)))
  )
  (fp_line (start -10.375 1.75) (end 10.375 1.75) (layer F.Fab) (width 0.1))
  (fp_line (start -10.485 0.26) (end -10.485 1.86) (layer F.SilkS) (width 0.12))
  (fp_line (start -10.485 1.86) (end -8.685 1.86) (layer F.SilkS) (width 0.12))
  (fp_line (start -8.685 1.86) (end -8.685 2.8) (layer F.SilkS) (width 0.12))
  (fp_line (start 10.485 0.26) (end 10.485 1.86) (layer F.SilkS) (width 0.12))
  (fp_line (start 10.485 1.86) (end 8.685 1.86) (layer F.SilkS) (width 0.12))
  (fp_line (start -9.215 -2.61) (end 9.215 -2.61) (layer F.SilkS) (width 0.12))
  (fp_line (start -10.375 -2.5) (end 10.375 -2.5) (layer F.Fab) (width 0.1))
  (fp_line (start -10.375 1.75) (end -10.375 -2.5) (layer F.Fab) (width 0.1))
  (fp_line (start 10.375 1.75) (end 10.375 -2.5) (layer F.Fab) (width 0.1))
  (fp_line (start -8.375 -0.5) (end -8.375 0) (layer F.Fab) (width 0.1))
  (fp_line (start -8.375 0) (end -7.875 0) (layer F.Fab) (width 0.1))
  (fp_line (start -7.875 0) (end -7.875 -0.5) (layer F.Fab) (width 0.1))
  (fp_line (start -7.875 -0.5) (end -8.375 -0.5) (layer F.Fab) (width 0.1))
  (fp_line (start -7.125 -0.5) (end -7.125 0) (layer F.Fab) (width 0.1))
  (fp_line (start -7.125 0) (end -6.625 0) (layer F.Fab) (width 0.1))
  (fp_line (start -6.625 0) (end -6.625 -0.5) (layer F.Fab) (width 0.1))
  (fp_line (start -6.625 -0.5) (end -7.125 -0.5) (layer F.Fab) (width 0.1))
  (fp_line (start -5.875 -0.5) (end -5.875 0) (layer F.Fab) (width 0.1))
  (fp_line (start -5.875 0) (end -5.375 0) (layer F.Fab) (width 0.1))
  (fp_line (start -5.375 0) (end -5.375 -0.5) (layer F.Fab) (width 0.1))
  (fp_line (start -5.375 -0.5) (end -5.875 -0.5) (layer F.Fab) (width 0.1))
  (fp_line (start -4.625 -0.5) (end -4.625 0) (layer F.Fab) (width 0.1))
  (fp_line (start -4.625 0) (end -4.125 0) (layer F.Fab) (width 0.1))
  (fp_line (start -4.125 0) (end -4.125 -0.5) (layer F.Fab) (width 0.1))
  (fp_line (start -4.125 -0.5) (end -4.625 -0.5) (layer F.Fab) (width 0.1))
  (fp_line (start -3.375 -0.5) (end -3.375 0) (layer F.Fab) (width 0.1))
  (fp_line (start -3.375 0) (end -2.875 0) (layer F.Fab) (width 0.1))
  (fp_line (start -2.875 0) (end -2.875 -0.5) (layer F.Fab) (width 0.1))
  (fp_line (start -2.875 -0.5) (end -3.375 -0.5) (layer F.Fab) (width 0.1))
  (fp_line (start -2.125 -0.5) (end -2.125 0) (layer F.Fab) (width 0.1))
  (fp_line (start -2.125 0) (end -1.625 0) (layer F.Fab) (width 0.1))
  (fp_line (start -1.625 0) (end -1.625 -0.5) (layer F.Fab) (width 0.1))
  (fp_line (start -1.625 -0.5) (end -2.125 -0.5) (layer F.Fab) (width 0.1))
  (fp_line (start -0.875 -0.5) (end -0.875 0) (layer F.Fab) (width 0.1))
  (fp_line (start -0.875 0) (end -0.375 0) (layer F.Fab) (width 0.1))
  (fp_line (start -0.375 0) (end -0.375 -0.5) (layer F.Fab) (width 0.1))
  (fp_line (start -0.375 -0.5) (end -0.875 -0.5) (layer F.Fab) (width 0.1))
  (fp_line (start 0.375 -0.5) (end 0.375 0) (layer F.Fab) (width 0.1))
  (fp_line (start 0.375 0) (end 0.875 0) (layer F.Fab) (width 0.1))
  (fp_line (start 0.875 0) (end 0.875 -0.5) (layer F.Fab) (width 0.1))
  (fp_line (start 0.875 -0.5) (end 0.375 -0.5) (layer F.Fab) (width 0.1))
  (fp_line (start 1.625 -0.5) (end 1.625 0) (layer F.Fab) (width 0.1))
  (fp_line (start 1.625 0) (end 2.125 0) (layer F.Fab) (width 0.1))
  (fp_line (start 2.125 0) (end 2.125 -0.5) (layer F.Fab) (width 0.1))
  (fp_line (start 2.125 -0.5) (end 1.625 -0.5) (layer F.Fab) (width 0.1))
  (fp_line (start 2.875 -0.5) (end 2.875 0) (layer F.Fab) (width 0.1))
  (fp_line (start 2.875 0) (end 3.375 0) (layer F.Fab) (width 0.1))
  (fp_line (start 3.375 0) (end 3.375 -0.5) (layer F.Fab) (width 0.1))
  (fp_line (start 3.375 -0.5) (end 2.875 -0.5) (layer F.Fab) (width 0.1))
  (fp_line (start 4.125 -0.5) (end 4.125 0) (layer F.Fab) (width 0.1))
  (fp_line (start 4.125 0) (end 4.625 0) (layer F.Fab) (width 0.1))
  (fp_line (start 4.625 0) (end 4.625 -0.5) (layer F.Fab) (width 0.1))
  (fp_line (start 4.625 -0.5) (end 4.125 -0.5) (layer F.Fab) (width 0.1))
  (fp_line (start 5.375 -0.5) (end 5.375 0) (layer F.Fab) (width 0.1))
  (fp_line (start 5.375 0) (end 5.875 0) (layer F.Fab) (width 0.1))
  (fp_line (start 5.875 0) (end 5.875 -0.5) (layer F.Fab) (width 0.1))
  (fp_line (start 5.875 -0.5) (end 5.375 -0.5) (layer F.Fab) (width 0.1))
  (fp_line (start 6.625 -0.5) (end 6.625 0) (layer F.Fab) (width 0.1))
  (fp_line (start 6.625 0) (end 7.125 0) (layer F.Fab) (width 0.1))
  (fp_line (start 7.125 0) (end 7.125 -0.5) (layer F.Fab) (width 0.1))
  (fp_line (start 7.125 -0.5) (end 6.625 -0.5) (layer F.Fab) (width 0.1))
  (fp_line (start 7.875 -0.5) (end 7.875 0) (layer F.Fab) (width 0.1))
  (fp_line (start 7.875 0) (end 8.375 0) (layer F.Fab) (width 0.1))
  (fp_line (start 8.375 0) (end 8.375 -0.5) (layer F.Fab) (width 0.1))
  (fp_line (start 8.375 -0.5) (end 7.875 -0.5) (layer F.Fab) (width 0.1))
  (fp_line (start -10.98 -3.3) (end -10.98 3.3) (layer F.CrtYd) (width 0.05))
  (fp_line (start -10.98 3.3) (end 10.98 3.3) (layer F.CrtYd) (width 0.05))
  (fp_line (start 10.98 3.3) (end 10.98 -3.3) (layer F.CrtYd) (width 0.05))
  (fp_line (start 10.98 -3.3) (end -10.98 -3.3) (layer F.CrtYd) (width 0.05))
  (fp_line (start -8.625 1.75) (end -8.125 1.042893) (layer F.Fab) (width 0.1))
  (fp_line (start -8.125 1.042893) (end -7.625 1.75) (layer F.Fab) (width 0.1))
  (pad 1 smd roundrect (at -8.125 1.95) (size 0.6 1.7) (layers F.Cu F.Mask F.Paste) (roundrect_rratio 0.25))
  (pad 2 smd roundrect (at -6.875 1.95) (size 0.6 1.7) (layers F.Cu F.Mask F.Paste) (roundrect_rratio 0.25))
  (pad 3 smd roundrect (at -5.625 1.95) (size 0.6 1.7) (layers F.Cu F.Mask F.Paste) (roundrect_rratio 0.25))
  (pad 4 smd roundrect (at -4.375 1.95) (size 0.6 1.7) (layers F.Cu F.Mask F.Paste) (roundrect_rratio 0.25))
  (pad 5 smd roundrect (at -3.125 1.95) (size 0.6 1.7) (layers F.Cu F.Mask F.Paste) (roundrect_rratio 0.25))
  (pad 6 smd roundrect (at -1.875 1.95) (size 0.6 1.7) (layers F.Cu F.Mask F.Paste) (roundrect_rratio 0.25))
  (pad 7 smd roundrect (at -0.625 1.95) (size 0.6 1.7) (layers F.Cu F.Mask F.Paste) (roundrect_rratio 0.25))
  (pad 8 smd roundrect (at 0.625 1.95) (size 0.6 1.7) (layers F.Cu F.Mask F.Paste) (roundrect_rratio 0.25))
  (pad 9 smd roundrect (at 1.875 1.95) (size 0.6 1.7) (layers F.Cu F.Mask F.Paste) (roundrect_rratio 0.25))
  (pad 10 smd roundrect (at 3.125 1.95) (size 0.6 1.7) (layers F.Cu F.Mask F.Paste) (roundrect_rratio 0.25))
  (pad 11 smd roundrect (at 4.375 1.95) (size 0.6 1.7) (layers F.Cu F.Mask F.Paste) (roundrect_rratio 0.25))
  (pad 12 smd roundrect (at 5.625 1.95) (size 0.6 1.7) (layers F.Cu F.Mask F.Paste) (roundrect_rratio 0.25))
  (pad 13 smd roundrect (at 6.875 1.95) (size 0.6 1.7) (layers F.Cu F.Mask F.Paste) (roundrect_rratio 0.25))
  (pad 14 smd roundrect (at 8.125 1.95) (size 0.6 1.7) (layers F.Cu F.Mask F.Paste) (roundrect_rratio 0.25))
  (pad MP smd roundrect (at -9.975 -1.4) (size 1 2.8) (layers F.Cu F.Mask F.Paste) (roundrect_rratio 0.25))
  (pad MP smd roundrect (at 9.975 -1.4) (size 1 2.8) (layers F.Cu F.Mask F.Paste) (roundrect_rratio 0.25))
  (fp_text user %R (at 0 -1.5) (layer F.Fab)
    (effects (font (size 1 1) (thickness 0.15)))
  )
  (model ${KICAD6_3DMODEL_DIR}/Connector_JST.3dshapes/JST_GH_BM14B-GHS-TBT_1x14-1MP_P1.25mm_Vertical.wrl
    (at (xyz 0 0 0))
    (scale (xyz 1 1 1))
    (rotate (xyz 0 0 0))
  )
)