(module JST_J2100_S08B-J21DK-GGXR_2x04_P2.50mm_Horizontal (layer F.Cu) (tedit 5C2813F6)
  (descr "JST J2100 series connector, S08B-J21DK-GGXR (http://www.jst-mfg.com/product/pdf/eng/eJFA-J2000.pdf), generated with kicad-footprint-generator")
  (tags "connector JST J2100 horizontal")
  (fp_text reference REF** (at 3.75 -4.55) (layer F.SilkS)
    (effects (font (size 1 1) (thickness 0.15)))
  )
  (fp_text value JST_J2100_S08B-J21DK-GGXR_2x04_P2.50mm_Horizontal (at 3.75 15.88) (layer F.Fab)
    (effects (font (size 1 1) (thickness 0.15)))
  )
  (fp_line (start -2.6 -3.12) (end -2.6 14.68) (layer F.Fab) (width 0.1))
  (fp_line (start -2.6 14.68) (end 10.1 14.68) (layer F.Fab) (width 0.1))
  (fp_line (start 10.1 14.68) (end 10.1 -3.12) (layer F.Fab) (width 0.1))
  (fp_line (start 10.1 -3.12) (end -2.6 -3.12) (layer F.Fab) (width 0.1))
  (fp_line (start -3.1 -3.85) (end -3.1 15.18) (layer F.CrtYd) (width 0.05))
  (fp_line (start -3.1 15.18) (end 10.6 15.18) (layer F.CrtYd) (width 0.05))
  (fp_line (start 10.6 15.18) (end 10.6 -3.85) (layer F.CrtYd) (width 0.05))
  (fp_line (start 10.6 -3.85) (end -3.1 -3.85) (layer F.CrtYd) (width 0.05))
  (fp_line (start -1 -3.23) (end -2.71 -3.23) (layer F.SilkS) (width 0.12))
  (fp_line (start -2.71 -3.23) (end -2.71 14.79) (layer F.SilkS) (width 0.12))
  (fp_line (start -2.71 14.79) (end 3.75 14.79) (layer F.SilkS) (width 0.12))
  (fp_line (start 8.5 -3.23) (end 10.21 -3.23) (layer F.SilkS) (width 0.12))
  (fp_line (start 10.21 -3.23) (end 10.21 14.79) (layer F.SilkS) (width 0.12))
  (fp_line (start 10.21 14.79) (end 3.75 14.79) (layer F.SilkS) (width 0.12))
  (fp_line (start -3 0) (end -3.6 0.3) (layer F.SilkS) (width 0.12))
  (fp_line (start -3.6 0.3) (end -3.6 -0.3) (layer F.SilkS) (width 0.12))
  (fp_line (start -3.6 -0.3) (end -3 0) (layer F.SilkS) (width 0.12))
  (fp_line (start -2.6 0.5) (end -1.892893 0) (layer F.Fab) (width 0.1))
  (fp_line (start -1.892893 0) (end -2.6 -0.5) (layer F.Fab) (width 0.1))
  (pad 1 thru_hole roundrect (at 0 0) (size 1.7 1.7) (drill 0.86) (layers *.Cu *.Mask) (roundrect_rratio 0.147059))
  (pad 2 thru_hole circle (at 2.5 0) (size 1.7 1.7) (drill 0.86) (layers *.Cu *.Mask))
  (pad 3 thru_hole circle (at 5 0) (size 1.7 1.7) (drill 0.86) (layers *.Cu *.Mask))
  (pad 4 thru_hole circle (at 7.5 0) (size 1.7 1.7) (drill 0.86) (layers *.Cu *.Mask))
  (pad 5 thru_hole circle (at 0 -2.5) (size 1.7 1.7) (drill 0.86) (layers *.Cu *.Mask))
  (pad 6 thru_hole circle (at 2.5 -2.5) (size 1.7 1.7) (drill 0.86) (layers *.Cu *.Mask))
  (pad 7 thru_hole circle (at 5 -2.5) (size 1.7 1.7) (drill 0.86) (layers *.Cu *.Mask))
  (pad 8 thru_hole circle (at 7.5 -2.5) (size 1.7 1.7) (drill 0.86) (layers *.Cu *.Mask))
  (pad "" thru_hole circle (at 0 7) (size 3.4 3.4) (drill 2) (layers *.Cu *.Mask))
  (pad "" thru_hole circle (at 7.5 7) (size 3.4 3.4) (drill 2) (layers *.Cu *.Mask))
  (fp_text user %R (at 3.75 5.78) (layer F.Fab)
    (effects (font (size 1 1) (thickness 0.15)))
  )
  (model ${KICAD6_3DMODEL_DIR}/Connector_JST.3dshapes/JST_J2100_S08B-J21DK-GGXR_2x04_P2.50mm_Horizontal.wrl
    (at (xyz 0 0 0))
    (scale (xyz 1 1 1))
    (rotate (xyz 0 0 0))
  )
)