(module JST_PH_B8B-PH-K_1x08_P2.00mm_Vertical (layer F.Cu) (tedit 5B7745C2)
  (descr "JST PH series connector, B8B-PH-K (http://www.jst-mfg.com/product/pdf/eng/ePH.pdf), generated with kicad-footprint-generator")
  (tags "connector JST PH side entry")
  (fp_text reference REF** (at 7 -2.9) (layer F.SilkS)
    (effects (font (size 1 1) (thickness 0.15)))
  )
  (fp_text value JST_PH_B8B-PH-K_1x08_P2.00mm_Vertical (at 7 4) (layer F.Fab)
    (effects (font (size 1 1) (thickness 0.15)))
  )
  (fp_line (start -2.06 -1.81) (end -2.06 2.91) (layer F.SilkS) (width 0.12))
  (fp_line (start -2.06 2.91) (end 16.06 2.91) (layer F.SilkS) (width 0.12))
  (fp_line (start 16.06 2.91) (end 16.06 -1.81) (layer F.SilkS) (width 0.12))
  (fp_line (start 16.06 -1.81) (end -2.06 -1.81) (layer F.SilkS) (width 0.12))
  (fp_line (start -0.3 -1.81) (end -0.3 -2.01) (layer F.SilkS) (width 0.12))
  (fp_line (start -0.3 -2.01) (end -0.6 -2.01) (layer F.SilkS) (width 0.12))
  (fp_line (start -0.6 -2.01) (end -0.6 -1.81) (layer F.SilkS) (width 0.12))
  (fp_line (start -0.3 -1.91) (end -0.6 -1.91) (layer F.SilkS) (width 0.12))
  (fp_line (start 0.5 -1.81) (end 0.5 -1.2) (layer F.SilkS) (width 0.12))
  (fp_line (start 0.5 -1.2) (end -1.45 -1.2) (layer F.SilkS) (width 0.12))
  (fp_line (start -1.45 -1.2) (end -1.45 2.3) (layer F.SilkS) (width 0.12))
  (fp_line (start -1.45 2.3) (end 15.45 2.3) (layer F.SilkS) (width 0.12))
  (fp_line (start 15.45 2.3) (end 15.45 -1.2) (layer F.SilkS) (width 0.12))
  (fp_line (start 15.45 -1.2) (end 13.5 -1.2) (layer F.SilkS) (width 0.12))
  (fp_line (start 13.5 -1.2) (end 13.5 -1.81) (layer F.SilkS) (width 0.12))
  (fp_line (start -2.06 -0.5) (end -1.45 -0.5) (layer F.SilkS) (width 0.12))
  (fp_line (start -2.06 0.8) (end -1.45 0.8) (layer F.SilkS) (width 0.12))
  (fp_line (start 16.06 -0.5) (end 15.45 -0.5) (layer F.SilkS) (width 0.12))
  (fp_line (start 16.06 0.8) (end 15.45 0.8) (layer F.SilkS) (width 0.12))
  (fp_line (start 0.9 2.3) (end 0.9 1.8) (layer F.SilkS) (width 0.12))
  (fp_line (start 0.9 1.8) (end 1.1 1.8) (layer F.SilkS) (width 0.12))
  (fp_line (start 1.1 1.8) (end 1.1 2.3) (layer F.SilkS) (width 0.12))
  (fp_line (start 1 2.3) (end 1 1.8) (layer F.SilkS) (width 0.12))
  (fp_line (start 2.9 2.3) (end 2.9 1.8) (layer F.SilkS) (width 0.12))
  (fp_line (start 2.9 1.8) (end 3.1 1.8) (layer F.SilkS) (width 0.12))
  (fp_line (start 3.1 1.8) (end 3.1 2.3) (layer F.SilkS) (width 0.12))
  (fp_line (start 3 2.3) (end 3 1.8) (layer F.SilkS) (width 0.12))
  (fp_line (start 4.9 2.3) (end 4.9 1.8) (layer F.SilkS) (width 0.12))
  (fp_line (start 4.9 1.8) (end 5.1 1.8) (layer F.SilkS) (width 0.12))
  (fp_line (start 5.1 1.8) (end 5.1 2.3) (layer F.SilkS) (width 0.12))
  (fp_line (start 5 2.3) (end 5 1.8) (layer F.SilkS) (width 0.12))
  (fp_line (start 6.9 2.3) (end 6.9 1.8) (layer F.SilkS) (width 0.12))
  (fp_line (start 6.9 1.8) (end 7.1 1.8) (layer F.SilkS) (width 0.12))
  (fp_line (start 7.1 1.8) (end 7.1 2.3) (layer F.SilkS) (width 0.12))
  (fp_line (start 7 2.3) (end 7 1.8) (layer F.SilkS) (width 0.12))
  (fp_line (start 8.9 2.3) (end 8.9 1.8) (layer F.SilkS) (width 0.12))
  (fp_line (start 8.9 1.8) (end 9.1 1.8) (layer F.SilkS) (width 0.12))
  (fp_line (start 9.1 1.8) (end 9.1 2.3) (layer F.SilkS) (width 0.12))
  (fp_line (start 9 2.3) (end 9 1.8) (layer F.SilkS) (width 0.12))
  (fp_line (start 10.9 2.3) (end 10.9 1.8) (layer F.SilkS) (width 0.12))
  (fp_line (start 10.9 1.8) (end 11.1 1.8) (layer F.SilkS) (width 0.12))
  (fp_line (start 11.1 1.8) (end 11.1 2.3) (layer F.SilkS) (width 0.12))
  (fp_line (start 11 2.3) (end 11 1.8) (layer F.SilkS) (width 0.12))
  (fp_line (start 12.9 2.3) (end 12.9 1.8) (layer F.SilkS) (width 0.12))
  (fp_line (start 12.9 1.8) (end 13.1 1.8) (layer F.SilkS) (width 0.12))
  (fp_line (start 13.1 1.8) (end 13.1 2.3) (layer F.SilkS) (width 0.12))
  (fp_line (start 13 2.3) (end 13 1.8) (layer F.SilkS) (width 0.12))
  (fp_line (start -1.11 -2.11) (end -2.36 -2.11) (layer F.SilkS) (width 0.12))
  (fp_line (start -2.36 -2.11) (end -2.36 -0.86) (layer F.SilkS) (width 0.12))
  (fp_line (start -1.11 -2.11) (end -2.36 -2.11) (layer F.Fab) (width 0.1))
  (fp_line (start -2.36 -2.11) (end -2.36 -0.86) (layer F.Fab) (width 0.1))
  (fp_line (start -1.95 -1.7) (end -1.95 2.8) (layer F.Fab) (width 0.1))
  (fp_line (start -1.95 2.8) (end 15.95 2.8) (layer F.Fab) (width 0.1))
  (fp_line (start 15.95 2.8) (end 15.95 -1.7) (layer F.Fab) (width 0.1))
  (fp_line (start 15.95 -1.7) (end -1.95 -1.7) (layer F.Fab) (width 0.1))
  (fp_line (start -2.45 -2.2) (end -2.45 3.3) (layer F.CrtYd) (width 0.05))
  (fp_line (start -2.45 3.3) (end 16.45 3.3) (layer F.CrtYd) (width 0.05))
  (fp_line (start 16.45 3.3) (end 16.45 -2.2) (layer F.CrtYd) (width 0.05))
  (fp_line (start 16.45 -2.2) (end -2.45 -2.2) (layer F.CrtYd) (width 0.05))
  (pad 1 thru_hole roundrect (at 0 0) (size 1.2 1.75) (drill 0.75) (layers *.Cu *.Mask) (roundrect_rratio 0.208333))
  (pad 2 thru_hole oval (at 2 0) (size 1.2 1.75) (drill 0.75) (layers *.Cu *.Mask))
  (pad 3 thru_hole oval (at 4 0) (size 1.2 1.75) (drill 0.75) (layers *.Cu *.Mask))
  (pad 4 thru_hole oval (at 6 0) (size 1.2 1.75) (drill 0.75) (layers *.Cu *.Mask))
  (pad 5 thru_hole oval (at 8 0) (size 1.2 1.75) (drill 0.75) (layers *.Cu *.Mask))
  (pad 6 thru_hole oval (at 10 0) (size 1.2 1.75) (drill 0.75) (layers *.Cu *.Mask))
  (pad 7 thru_hole oval (at 12 0) (size 1.2 1.75) (drill 0.75) (layers *.Cu *.Mask))
  (pad 8 thru_hole oval (at 14 0) (size 1.2 1.75) (drill 0.75) (layers *.Cu *.Mask))
  (fp_text user %R (at 7 1.5) (layer F.Fab)
    (effects (font (size 1 1) (thickness 0.15)))
  )
  (model ${KICAD6_3DMODEL_DIR}/Connector_JST.3dshapes/JST_PH_B8B-PH-K_1x08_P2.00mm_Vertical.wrl
    (at (xyz 0 0 0))
    (scale (xyz 1 1 1))
    (rotate (xyz 0 0 0))
  )
)