(module JST_XH_S6B-XH-A-1_1x06_P2.50mm_Horizontal (layer F.Cu) (tedit 5C281476)
  (descr "JST XH series connector, S6B-XH-A-1 (http://www.jst-mfg.com/product/pdf/eng/eXH.pdf), generated with kicad-footprint-generator")
  (tags "connector JST XH horizontal")
  (fp_text reference REF** (at 6.25 -5.1) (layer F.SilkS)
    (effects (font (size 1 1) (thickness 0.15)))
  )
  (fp_text value JST_XH_S6B-XH-A-1_1x06_P2.50mm_Horizontal (at 6.25 8.8) (layer F.Fab)
    (effects (font (size 1 1) (thickness 0.15)))
  )
  (fp_line (start -2.95 -4.4) (end -2.95 8.1) (layer F.CrtYd) (width 0.05))
  (fp_line (start -2.95 8.1) (end 15.45 8.1) (layer F.CrtYd) (width 0.05))
  (fp_line (start 15.45 8.1) (end 15.45 -4.4) (layer F.CrtYd) (width 0.05))
  (fp_line (start 15.45 -4.4) (end -2.95 -4.4) (layer F.CrtYd) (width 0.05))
  (fp_line (start 6.25 7.71) (end -2.56 7.71) (layer F.SilkS) (width 0.12))
  (fp_line (start -2.56 7.71) (end -2.56 -4.01) (layer F.SilkS) (width 0.12))
  (fp_line (start -2.56 -4.01) (end -1.14 -4.01) (layer F.SilkS) (width 0.12))
  (fp_line (start -1.14 -4.01) (end -1.14 0.49) (layer F.SilkS) (width 0.12))
  (fp_line (start 6.25 7.71) (end 15.06 7.71) (layer F.SilkS) (width 0.12))
  (fp_line (start 15.06 7.71) (end 15.06 -4.01) (layer F.SilkS) (width 0.12))
  (fp_line (start 15.06 -4.01) (end 13.64 -4.01) (layer F.SilkS) (width 0.12))
  (fp_line (start 13.64 -4.01) (end 13.64 0.49) (layer F.SilkS) (width 0.12))
  (fp_line (start 6.25 7.6) (end -2.45 7.6) (layer F.Fab) (width 0.1))
  (fp_line (start -2.45 7.6) (end -2.45 -3.9) (layer F.Fab) (width 0.1))
  (fp_line (start -2.45 -3.9) (end -1.25 -3.9) (layer F.Fab) (width 0.1))
  (fp_line (start -1.25 -3.9) (end -1.25 0.6) (layer F.Fab) (width 0.1))
  (fp_line (start -1.25 0.6) (end 6.25 0.6) (layer F.Fab) (width 0.1))
  (fp_line (start 6.25 7.6) (end 14.95 7.6) (layer F.Fab) (width 0.1))
  (fp_line (start 14.95 7.6) (end 14.95 -3.9) (layer F.Fab) (width 0.1))
  (fp_line (start 14.95 -3.9) (end 13.75 -3.9) (layer F.Fab) (width 0.1))
  (fp_line (start 13.75 -3.9) (end 13.75 0.6) (layer F.Fab) (width 0.1))
  (fp_line (start 13.75 0.6) (end 6.25 0.6) (layer F.Fab) (width 0.1))
  (fp_line (start -0.25 1.6) (end -0.25 7.1) (layer F.SilkS) (width 0.12))
  (fp_line (start -0.25 7.1) (end 0.25 7.1) (layer F.SilkS) (width 0.12))
  (fp_line (start 0.25 7.1) (end 0.25 1.6) (layer F.SilkS) (width 0.12))
  (fp_line (start 0.25 1.6) (end -0.25 1.6) (layer F.SilkS) (width 0.12))
  (fp_line (start 2.25 1.6) (end 2.25 7.1) (layer F.SilkS) (width 0.12))
  (fp_line (start 2.25 7.1) (end 2.75 7.1) (layer F.SilkS) (width 0.12))
  (fp_line (start 2.75 7.1) (end 2.75 1.6) (layer F.SilkS) (width 0.12))
  (fp_line (start 2.75 1.6) (end 2.25 1.6) (layer F.SilkS) (width 0.12))
  (fp_line (start 4.75 1.6) (end 4.75 7.1) (layer F.SilkS) (width 0.12))
  (fp_line (start 4.75 7.1) (end 5.25 7.1) (layer F.SilkS) (width 0.12))
  (fp_line (start 5.25 7.1) (end 5.25 1.6) (layer F.SilkS) (width 0.12))
  (fp_line (start 5.25 1.6) (end 4.75 1.6) (layer F.SilkS) (width 0.12))
  (fp_line (start 7.25 1.6) (end 7.25 7.1) (layer F.SilkS) (width 0.12))
  (fp_line (start 7.25 7.1) (end 7.75 7.1) (layer F.SilkS) (width 0.12))
  (fp_line (start 7.75 7.1) (end 7.75 1.6) (layer F.SilkS) (width 0.12))
  (fp_line (start 7.75 1.6) (end 7.25 1.6) (layer F.SilkS) (width 0.12))
  (fp_line (start 9.75 1.6) (end 9.75 7.1) (layer F.SilkS) (width 0.12))
  (fp_line (start 9.75 7.1) (end 10.25 7.1) (layer F.SilkS) (width 0.12))
  (fp_line (start 10.25 7.1) (end 10.25 1.6) (layer F.SilkS) (width 0.12))
  (fp_line (start 10.25 1.6) (end 9.75 1.6) (layer F.SilkS) (width 0.12))
  (fp_line (start 12.25 1.6) (end 12.25 7.1) (layer F.SilkS) (width 0.12))
  (fp_line (start 12.25 7.1) (end 12.75 7.1) (layer F.SilkS) (width 0.12))
  (fp_line (start 12.75 7.1) (end 12.75 1.6) (layer F.SilkS) (width 0.12))
  (fp_line (start 12.75 1.6) (end 12.25 1.6) (layer F.SilkS) (width 0.12))
  (fp_line (start 0 -1.5) (end -0.3 -2.1) (layer F.SilkS) (width 0.12))
  (fp_line (start -0.3 -2.1) (end 0.3 -2.1) (layer F.SilkS) (width 0.12))
  (fp_line (start 0.3 -2.1) (end 0 -1.5) (layer F.SilkS) (width 0.12))
  (fp_line (start -0.625 0.6) (end 0 -0.4) (layer F.Fab) (width 0.1))
  (fp_line (start 0 -0.4) (end 0.625 0.6) (layer F.Fab) (width 0.1))
  (pad 1 thru_hole roundrect (at 0 0) (size 1.7 1.95) (drill 0.95) (layers *.Cu *.Mask) (roundrect_rratio 0.147059))
  (pad 2 thru_hole oval (at 2.5 0) (size 1.7 1.95) (drill 0.95) (layers *.Cu *.Mask))
  (pad 3 thru_hole oval (at 5 0) (size 1.7 1.95) (drill 0.95) (layers *.Cu *.Mask))
  (pad 4 thru_hole oval (at 7.5 0) (size 1.7 1.95) (drill 0.95) (layers *.Cu *.Mask))
  (pad 5 thru_hole oval (at 10 0) (size 1.7 1.95) (drill 0.95) (layers *.Cu *.Mask))
  (pad 6 thru_hole oval (at 12.5 0) (size 1.7 1.95) (drill 0.95) (layers *.Cu *.Mask))
  (fp_text user %R (at 6.25 1.85) (layer F.Fab)
    (effects (font (size 1 1) (thickness 0.15)))
  )
  (model ${KICAD6_3DMODEL_DIR}/Connector_JST.3dshapes/JST_XH_S6B-XH-A-1_1x06_P2.50mm_Horizontal.wrl
    (at (xyz 0 0 0))
    (scale (xyz 1 1 1))
    (rotate (xyz 0 0 0))
  )
)