(module JST_VH_B2P-VH_1x02_P3.96mm_Vertical (layer F.Cu) (tedit 5D12549B)
  (descr "JST VH series connector, B2P-VH (http://www.jst-mfg.com/product/pdf/eng/eVH.pdf), generated with kicad-footprint-generator")
  (tags "connector JST VH vertical")
  (fp_text reference REF** (at 1.98 -4.9) (layer F.SilkS)
    (effects (font (size 1 1) (thickness 0.15)))
  )
  (fp_text value JST_VH_B2P-VH_1x02_P3.96mm_Vertical (at 1.98 6) (layer F.Fab)
    (effects (font (size 1 1) (thickness 0.15)))
  )
  (fp_line (start -1.95 -2) (end -1.95 4.8) (layer F.Fab) (width 0.1))
  (fp_line (start -1.95 4.8) (end 5.91 4.8) (layer F.Fab) (width 0.1))
  (fp_line (start 5.91 4.8) (end 5.91 -2) (layer F.Fab) (width 0.1))
  (fp_line (start 5.91 -2) (end -1.95 -2) (layer F.Fab) (width 0.1))
  (fp_line (start -0.75 -2) (end -0.75 -3.7) (layer F.Fab) (width 0.1))
  (fp_line (start -0.75 -3.7) (end 4.71 -3.7) (layer F.Fab) (width 0.1))
  (fp_line (start 4.71 -3.7) (end 4.71 -2) (layer F.Fab) (width 0.1))
  (fp_line (start -1.95 -1) (end -0.95 0) (layer F.Fab) (width 0.1))
  (fp_line (start -1.95 1) (end -0.95 0) (layer F.Fab) (width 0.1))
  (fp_line (start -2.45 -4.2) (end -2.45 5.3) (layer F.CrtYd) (width 0.05))
  (fp_line (start -2.45 5.3) (end 6.41 5.3) (layer F.CrtYd) (width 0.05))
  (fp_line (start 6.41 5.3) (end 6.41 -4.2) (layer F.CrtYd) (width 0.05))
  (fp_line (start 6.41 -4.2) (end -2.45 -4.2) (layer F.CrtYd) (width 0.05))
  (fp_line (start -2.06 4.91) (end -2.06 -2.11) (layer F.SilkS) (width 0.12))
  (fp_line (start -2.06 -2.11) (end -0.86 -2.11) (layer F.SilkS) (width 0.12))
  (fp_line (start -0.86 -2.11) (end -0.86 -3.81) (layer F.SilkS) (width 0.12))
  (fp_line (start -0.86 -3.81) (end 4.82 -3.81) (layer F.SilkS) (width 0.12))
  (fp_line (start 4.82 -3.81) (end 4.82 -2.11) (layer F.SilkS) (width 0.12))
  (fp_line (start 4.82 -2.11) (end 6.02 -2.11) (layer F.SilkS) (width 0.12))
  (fp_line (start 6.02 -2.11) (end 6.02 4.91) (layer F.SilkS) (width 0.12))
  (fp_line (start 6.02 4.91) (end -2.06 4.91) (layer F.SilkS) (width 0.12))
  (fp_line (start -2.26 0) (end -2.86 0.3) (layer F.SilkS) (width 0.12))
  (fp_line (start -2.86 0.3) (end -2.86 -0.3) (layer F.SilkS) (width 0.12))
  (fp_line (start -2.86 -0.3) (end -2.26 0) (layer F.SilkS) (width 0.12))
  (pad 1 thru_hole roundrect (at 0 0) (size 2.7 2.7) (drill 1.7) (layers *.Cu *.Mask) (roundrect_rratio 0.092593))
  (pad 2 thru_hole circle (at 3.96 0) (size 2.7 2.7) (drill 1.7) (layers *.Cu *.Mask))
  (fp_text user %R (at 1.98 4.1) (layer F.Fab)
    (effects (font (size 1 1) (thickness 0.15)))
  )
  (model ${KICAD6_3DMODEL_DIR}/Connector_JST.3dshapes/JST_VH_B2P-VH_1x02_P3.96mm_Vertical.wrl
    (at (xyz 0 0 0))
    (scale (xyz 1 1 1))
    (rotate (xyz 0 0 0))
  )
)