(module JST_XH_B9B-XH-AM_1x09_P2.50mm_Vertical (layer F.Cu) (tedit 5C28146E)
  (descr "JST XH series connector, B9B-XH-AM, with boss (http://www.jst-mfg.com/product/pdf/eng/eXH.pdf), generated with kicad-footprint-generator")
  (tags "connector JST XH vertical boss")
  (fp_text reference REF** (at 10 -3.55) (layer F.SilkS)
    (effects (font (size 1 1) (thickness 0.15)))
  )
  (fp_text value JST_XH_B9B-XH-AM_1x09_P2.50mm_Vertical (at 10 4.6) (layer F.Fab)
    (effects (font (size 1 1) (thickness 0.15)))
  )
  (fp_line (start -2.45 -2.35) (end -2.45 3.4) (layer F.Fab) (width 0.1))
  (fp_line (start -2.45 3.4) (end 22.45 3.4) (layer F.Fab) (width 0.1))
  (fp_line (start 22.45 3.4) (end 22.45 -2.35) (layer F.Fab) (width 0.1))
  (fp_line (start 22.45 -2.35) (end -2.45 -2.35) (layer F.Fab) (width 0.1))
  (fp_line (start -2.56 -2.46) (end -2.56 3.51) (layer F.SilkS) (width 0.12))
  (fp_line (start -2.56 3.51) (end 22.56 3.51) (layer F.SilkS) (width 0.12))
  (fp_line (start 22.56 3.51) (end 22.56 -2.46) (layer F.SilkS) (width 0.12))
  (fp_line (start 22.56 -2.46) (end -2.56 -2.46) (layer F.SilkS) (width 0.12))
  (fp_line (start -2.95 -2.85) (end -2.95 3.9) (layer F.CrtYd) (width 0.05))
  (fp_line (start -2.95 3.9) (end 22.95 3.9) (layer F.CrtYd) (width 0.05))
  (fp_line (start 22.95 3.9) (end 22.95 -2.85) (layer F.CrtYd) (width 0.05))
  (fp_line (start 22.95 -2.85) (end -2.95 -2.85) (layer F.CrtYd) (width 0.05))
  (fp_line (start -0.625 -2.35) (end 0 -1.35) (layer F.Fab) (width 0.1))
  (fp_line (start 0 -1.35) (end 0.625 -2.35) (layer F.Fab) (width 0.1))
  (fp_line (start 0.75 -2.45) (end 0.75 -1.7) (layer F.SilkS) (width 0.12))
  (fp_line (start 0.75 -1.7) (end 19.25 -1.7) (layer F.SilkS) (width 0.12))
  (fp_line (start 19.25 -1.7) (end 19.25 -2.45) (layer F.SilkS) (width 0.12))
  (fp_line (start 19.25 -2.45) (end 0.75 -2.45) (layer F.SilkS) (width 0.12))
  (fp_line (start -2.55 -2.45) (end -2.55 -1.7) (layer F.SilkS) (width 0.12))
  (fp_line (start -2.55 -1.7) (end -0.75 -1.7) (layer F.SilkS) (width 0.12))
  (fp_line (start -0.75 -1.7) (end -0.75 -2.45) (layer F.SilkS) (width 0.12))
  (fp_line (start -0.75 -2.45) (end -2.55 -2.45) (layer F.SilkS) (width 0.12))
  (fp_line (start 20.75 -2.45) (end 20.75 -1.7) (layer F.SilkS) (width 0.12))
  (fp_line (start 20.75 -1.7) (end 22.55 -1.7) (layer F.SilkS) (width 0.12))
  (fp_line (start 22.55 -1.7) (end 22.55 -2.45) (layer F.SilkS) (width 0.12))
  (fp_line (start 22.55 -2.45) (end 20.75 -2.45) (layer F.SilkS) (width 0.12))
  (fp_line (start -2.55 -0.2) (end -1.8 -0.2) (layer F.SilkS) (width 0.12))
  (fp_line (start -1.8 -0.2) (end -1.8 1.14) (layer F.SilkS) (width 0.12))
  (fp_line (start 10 2.75) (end -0.74 2.75) (layer F.SilkS) (width 0.12))
  (fp_line (start 22.55 -0.2) (end 21.8 -0.2) (layer F.SilkS) (width 0.12))
  (fp_line (start 21.8 -0.2) (end 21.8 2.75) (layer F.SilkS) (width 0.12))
  (fp_line (start 21.8 2.75) (end 10 2.75) (layer F.SilkS) (width 0.12))
  (fp_line (start -1.6 -2.75) (end -2.85 -2.75) (layer F.SilkS) (width 0.12))
  (fp_line (start -2.85 -2.75) (end -2.85 -1.5) (layer F.SilkS) (width 0.12))
  (pad 1 thru_hole roundrect (at 0 0) (size 1.7 1.95) (drill 0.95) (layers *.Cu *.Mask) (roundrect_rratio 0.147059))
  (pad 2 thru_hole oval (at 2.5 0) (size 1.7 1.95) (drill 0.95) (layers *.Cu *.Mask))
  (pad 3 thru_hole oval (at 5 0) (size 1.7 1.95) (drill 0.95) (layers *.Cu *.Mask))
  (pad 4 thru_hole oval (at 7.5 0) (size 1.7 1.95) (drill 0.95) (layers *.Cu *.Mask))
  (pad 5 thru_hole oval (at 10 0) (size 1.7 1.95) (drill 0.95) (layers *.Cu *.Mask))
  (pad 6 thru_hole oval (at 12.5 0) (size 1.7 1.95) (drill 0.95) (layers *.Cu *.Mask))
  (pad 7 thru_hole oval (at 15 0) (size 1.7 1.95) (drill 0.95) (layers *.Cu *.Mask))
  (pad 8 thru_hole oval (at 17.5 0) (size 1.7 1.95) (drill 0.95) (layers *.Cu *.Mask))
  (pad 9 thru_hole oval (at 20 0) (size 1.7 1.95) (drill 0.95) (layers *.Cu *.Mask))
  (pad "" np_thru_hole circle (at -1.6 2) (size 1.2 1.2) (drill 1.2) (layers *.Cu *.Mask))
  (fp_text user %R (at 10 2.7) (layer F.Fab)
    (effects (font (size 1 1) (thickness 0.15)))
  )
  (model ${KICAD6_3DMODEL_DIR}/Connector_JST.3dshapes/JST_XH_B9B-XH-AM_1x09_P2.50mm_Vertical.wrl
    (at (xyz 0 0 0))
    (scale (xyz 1 1 1))
    (rotate (xyz 0 0 0))
  )
)