(module JST_PHD_S32B-PHDSS_2x16_P2.00mm_Horizontal (layer F.Cu) (tedit 5B8F1C64)
  (descr "JST PHD series connector, S32B-PHDSS (http://www.jst-mfg.com/product/pdf/eng/ePHD.pdf), generated with kicad-footprint-generator")
  (tags "connector JST PHD horizontal")
  (fp_text reference REF** (at 15 -1.8) (layer F.SilkS)
    (effects (font (size 1 1) (thickness 0.15)))
  )
  (fp_text value JST_PHD_S32B-PHDSS_2x16_P2.00mm_Horizontal (at 15 10.2) (layer F.Fab)
    (effects (font (size 1 1) (thickness 0.15)))
  )
  (fp_line (start -1.95 -0.5) (end -0.95 -0.5) (layer F.Fab) (width 0.1))
  (fp_line (start -0.95 -0.5) (end -0.95 2.5) (layer F.Fab) (width 0.1))
  (fp_line (start -0.95 2.5) (end 30.95 2.5) (layer F.Fab) (width 0.1))
  (fp_line (start 30.95 2.5) (end 30.95 -0.5) (layer F.Fab) (width 0.1))
  (fp_line (start 30.95 -0.5) (end 31.95 -0.5) (layer F.Fab) (width 0.1))
  (fp_line (start 31.95 -0.5) (end 31.95 9) (layer F.Fab) (width 0.1))
  (fp_line (start 31.95 9) (end -1.95 9) (layer F.Fab) (width 0.1))
  (fp_line (start -1.95 9) (end -1.95 -0.5) (layer F.Fab) (width 0.1))
  (fp_line (start -2.45 -1.1) (end -2.45 9.5) (layer F.CrtYd) (width 0.05))
  (fp_line (start -2.45 9.5) (end 32.45 9.5) (layer F.CrtYd) (width 0.05))
  (fp_line (start 32.45 9.5) (end 32.45 -1.1) (layer F.CrtYd) (width 0.05))
  (fp_line (start 32.45 -1.1) (end -2.45 -1.1) (layer F.CrtYd) (width 0.05))
  (fp_line (start -0.84 2.39) (end -0.84 -0.61) (layer F.SilkS) (width 0.12))
  (fp_line (start -0.84 -0.61) (end -2.06 -0.61) (layer F.SilkS) (width 0.12))
  (fp_line (start -2.06 -0.61) (end -2.06 9.11) (layer F.SilkS) (width 0.12))
  (fp_line (start -2.06 9.11) (end 15 9.11) (layer F.SilkS) (width 0.12))
  (fp_line (start 30.84 2.39) (end 30.84 -0.61) (layer F.SilkS) (width 0.12))
  (fp_line (start 30.84 -0.61) (end 32.06 -0.61) (layer F.SilkS) (width 0.12))
  (fp_line (start 32.06 -0.61) (end 32.06 9.11) (layer F.SilkS) (width 0.12))
  (fp_line (start 32.06 9.11) (end 15 9.11) (layer F.SilkS) (width 0.12))
  (fp_line (start 1 -0.66) (end 1 -0.91) (layer F.SilkS) (width 0.12))
  (fp_line (start 1 -0.91) (end -2.36 -0.91) (layer F.SilkS) (width 0.12))
  (fp_line (start -2.36 -0.91) (end -2.36 1.59) (layer F.SilkS) (width 0.12))
  (fp_line (start -0.95 -0.5) (end -0.242893 0) (layer F.Fab) (width 0.1))
  (fp_line (start -0.242893 0) (end -0.95 0.5) (layer F.Fab) (width 0.1))
  (pad 1 thru_hole roundrect (at 0 0) (size 1.2 1.2) (drill 0.75) (layers *.Cu *.Mask) (roundrect_rratio 0.208333))
  (pad 3 thru_hole circle (at 2 0) (size 1.2 1.2) (drill 0.75) (layers *.Cu *.Mask))
  (pad 5 thru_hole circle (at 4 0) (size 1.2 1.2) (drill 0.75) (layers *.Cu *.Mask))
  (pad 7 thru_hole circle (at 6 0) (size 1.2 1.2) (drill 0.75) (layers *.Cu *.Mask))
  (pad 9 thru_hole circle (at 8 0) (size 1.2 1.2) (drill 0.75) (layers *.Cu *.Mask))
  (pad 11 thru_hole circle (at 10 0) (size 1.2 1.2) (drill 0.75) (layers *.Cu *.Mask))
  (pad 13 thru_hole circle (at 12 0) (size 1.2 1.2) (drill 0.75) (layers *.Cu *.Mask))
  (pad 15 thru_hole circle (at 14 0) (size 1.2 1.2) (drill 0.75) (layers *.Cu *.Mask))
  (pad 17 thru_hole circle (at 16 0) (size 1.2 1.2) (drill 0.75) (layers *.Cu *.Mask))
  (pad 19 thru_hole circle (at 18 0) (size 1.2 1.2) (drill 0.75) (layers *.Cu *.Mask))
  (pad 21 thru_hole circle (at 20 0) (size 1.2 1.2) (drill 0.75) (layers *.Cu *.Mask))
  (pad 23 thru_hole circle (at 22 0) (size 1.2 1.2) (drill 0.75) (layers *.Cu *.Mask))
  (pad 25 thru_hole circle (at 24 0) (size 1.2 1.2) (drill 0.75) (layers *.Cu *.Mask))
  (pad 27 thru_hole circle (at 26 0) (size 1.2 1.2) (drill 0.75) (layers *.Cu *.Mask))
  (pad 29 thru_hole circle (at 28 0) (size 1.2 1.2) (drill 0.75) (layers *.Cu *.Mask))
  (pad 31 thru_hole circle (at 30 0) (size 1.2 1.2) (drill 0.75) (layers *.Cu *.Mask))
  (pad 2 thru_hole circle (at 0 2) (size 1.2 1.2) (drill 0.75) (layers *.Cu *.Mask))
  (pad 4 thru_hole circle (at 2 2) (size 1.2 1.2) (drill 0.75) (layers *.Cu *.Mask))
  (pad 6 thru_hole circle (at 4 2) (size 1.2 1.2) (drill 0.75) (layers *.Cu *.Mask))
  (pad 8 thru_hole circle (at 6 2) (size 1.2 1.2) (drill 0.75) (layers *.Cu *.Mask))
  (pad 10 thru_hole circle (at 8 2) (size 1.2 1.2) (drill 0.75) (layers *.Cu *.Mask))
  (pad 12 thru_hole circle (at 10 2) (size 1.2 1.2) (drill 0.75) (layers *.Cu *.Mask))
  (pad 14 thru_hole circle (at 12 2) (size 1.2 1.2) (drill 0.75) (layers *.Cu *.Mask))
  (pad 16 thru_hole circle (at 14 2) (size 1.2 1.2) (drill 0.75) (layers *.Cu *.Mask))
  (pad 18 thru_hole circle (at 16 2) (size 1.2 1.2) (drill 0.75) (layers *.Cu *.Mask))
  (pad 20 thru_hole circle (at 18 2) (size 1.2 1.2) (drill 0.75) (layers *.Cu *.Mask))
  (pad 22 thru_hole circle (at 20 2) (size 1.2 1.2) (drill 0.75) (layers *.Cu *.Mask))
  (pad 24 thru_hole circle (at 22 2) (size 1.2 1.2) (drill 0.75) (layers *.Cu *.Mask))
  (pad 26 thru_hole circle (at 24 2) (size 1.2 1.2) (drill 0.75) (layers *.Cu *.Mask))
  (pad 28 thru_hole circle (at 26 2) (size 1.2 1.2) (drill 0.75) (layers *.Cu *.Mask))
  (pad 30 thru_hole circle (at 28 2) (size 1.2 1.2) (drill 0.75) (layers *.Cu *.Mask))
  (pad 32 thru_hole circle (at 30 2) (size 1.2 1.2) (drill 0.75) (layers *.Cu *.Mask))
  (fp_text user %R (at 15 4.25) (layer F.Fab)
    (effects (font (size 1 1) (thickness 0.15)))
  )
  (model ${KICAD6_3DMODEL_DIR}/Connector_JST.3dshapes/JST_PHD_S32B-PHDSS_2x16_P2.00mm_Horizontal.wrl
    (at (xyz 0 0 0))
    (scale (xyz 1 1 1))
    (rotate (xyz 0 0 0))
  )
)