(module JST_SHL_SM07B-SHLS-TF_1x07-1MP_P1.00mm_Horizontal (layer F.Cu) (tedit 5B78AD87)
  (descr "JST SHL series connector, SM07B-SHLS-TF (http://www.jst-mfg.com/product/pdf/eng/eSHL.pdf), generated with kicad-footprint-generator")
  (tags "connector JST SHL top entry")
  (attr smd)
  (fp_text reference REF** (at 0 -3.5) (layer F.SilkS)
    (effects (font (size 1 1) (thickness 0.15)))
  )
  (fp_text value JST_SHL_SM07B-SHLS-TF_1x07-1MP_P1.00mm_Horizontal (at 0 4.2) (layer F.Fab)
    (effects (font (size 1 1) (thickness 0.15)))
  )
  (fp_line (start -4.9 -1.3) (end 4.9 -1.3) (layer F.Fab) (width 0.1))
  (fp_line (start -5.01 0.34) (end -5.01 -1.41) (layer F.SilkS) (width 0.12))
  (fp_line (start -5.01 -1.41) (end -3.56 -1.41) (layer F.SilkS) (width 0.12))
  (fp_line (start -3.56 -1.41) (end -3.56 -2.3) (layer F.SilkS) (width 0.12))
  (fp_line (start 5.01 0.34) (end 5.01 -1.41) (layer F.SilkS) (width 0.12))
  (fp_line (start 5.01 -1.41) (end 3.56 -1.41) (layer F.SilkS) (width 0.12))
  (fp_line (start -5.01 2.56) (end -5.01 3.11) (layer F.SilkS) (width 0.12))
  (fp_line (start -5.01 3.11) (end 5.01 3.11) (layer F.SilkS) (width 0.12))
  (fp_line (start 5.01 3.11) (end 5.01 2.56) (layer F.SilkS) (width 0.12))
  (fp_line (start -4.9 3) (end 4.9 3) (layer F.Fab) (width 0.1))
  (fp_line (start -4.9 -1.3) (end -4.9 3) (layer F.Fab) (width 0.1))
  (fp_line (start 4.9 -1.3) (end 4.9 3) (layer F.Fab) (width 0.1))
  (fp_line (start -5.4 -2.8) (end -5.4 3.5) (layer F.CrtYd) (width 0.05))
  (fp_line (start -5.4 3.5) (end 5.4 3.5) (layer F.CrtYd) (width 0.05))
  (fp_line (start 5.4 3.5) (end 5.4 -2.8) (layer F.CrtYd) (width 0.05))
  (fp_line (start 5.4 -2.8) (end -5.4 -2.8) (layer F.CrtYd) (width 0.05))
  (fp_line (start -3.5 -1.3) (end -3 -0.592893) (layer F.Fab) (width 0.1))
  (fp_line (start -3 -0.592893) (end -2.5 -1.3) (layer F.Fab) (width 0.1))
  (pad 1 smd roundrect (at -3 -1.675) (size 0.6 1.25) (layers F.Cu F.Mask F.Paste) (roundrect_rratio 0.25))
  (pad 2 smd roundrect (at -2 -1.675) (size 0.6 1.25) (layers F.Cu F.Mask F.Paste) (roundrect_rratio 0.25))
  (pad 3 smd roundrect (at -1 -1.675) (size 0.6 1.25) (layers F.Cu F.Mask F.Paste) (roundrect_rratio 0.25))
  (pad 4 smd roundrect (at 0 -1.675) (size 0.6 1.25) (layers F.Cu F.Mask F.Paste) (roundrect_rratio 0.25))
  (pad 5 smd roundrect (at 1 -1.675) (size 0.6 1.25) (layers F.Cu F.Mask F.Paste) (roundrect_rratio 0.25))
  (pad 6 smd roundrect (at 2 -1.675) (size 0.6 1.25) (layers F.Cu F.Mask F.Paste) (roundrect_rratio 0.25))
  (pad 7 smd roundrect (at 3 -1.675) (size 0.6 1.25) (layers F.Cu F.Mask F.Paste) (roundrect_rratio 0.25))
  (pad MP smd roundrect (at -4.45 1.45) (size 0.9 1.7) (layers F.Cu F.Mask F.Paste) (roundrect_rratio 0.25))
  (pad MP smd roundrect (at 4.45 1.45) (size 0.9 1.7) (layers F.Cu F.Mask F.Paste) (roundrect_rratio 0.25))
  (fp_text user %R (at 0 0.5) (layer F.Fab)
    (effects (font (size 1 1) (thickness 0.15)))
  )
  (model ${KICAD6_3DMODEL_DIR}/Connector_JST.3dshapes/JST_SHL_SM07B-SHLS-TF_1x07-1MP_P1.00mm_Horizontal.wrl
    (at (xyz 0 0 0))
    (scale (xyz 1 1 1))
    (rotate (xyz 0 0 0))
  )
)