(module JST_SUR_BM12B-SURS-TF_1x12-1MP_P0.80mm_Vertical (layer F.Cu) (tedit 5B78AD88)
  (descr "JST SUR series connector, BM12B-SURS-TF (http://www.jst-mfg.com/product/pdf/eng/eSUR.pdf), generated with kicad-footprint-generator")
  (tags "connector JST SUR side entry")
  (attr smd)
  (fp_text reference REF** (at 0 -2.6) (layer F.SilkS)
    (effects (font (size 1 1) (thickness 0.15)))
  )
  (fp_text value JST_SUR_BM12B-SURS-TF_1x12-1MP_P0.80mm_Vertical (at 0 2.6) (layer F.Fab)
    (effects (font (size 1 1) (thickness 0.15)))
  )
  (fp_line (start -5.9 0.9) (end 5.9 0.9) (layer F.Fab) (width 0.1))
  (fp_line (start -6.01 0.56) (end -6.01 1.01) (layer F.SilkS) (width 0.12))
  (fp_line (start -6.01 1.01) (end -4.91 1.01) (layer F.SilkS) (width 0.12))
  (fp_line (start -4.91 1.01) (end -4.91 1.4) (layer F.SilkS) (width 0.12))
  (fp_line (start 6.01 0.56) (end 6.01 1.01) (layer F.SilkS) (width 0.12))
  (fp_line (start 6.01 1.01) (end 4.91 1.01) (layer F.SilkS) (width 0.12))
  (fp_line (start -4.84 -1.21) (end 4.84 -1.21) (layer F.SilkS) (width 0.12))
  (fp_line (start -5.9 -1.1) (end 5.9 -1.1) (layer F.Fab) (width 0.1))
  (fp_line (start -5.9 0.9) (end -5.9 -1.1) (layer F.Fab) (width 0.1))
  (fp_line (start 5.9 0.9) (end 5.9 -1.1) (layer F.Fab) (width 0.1))
  (fp_line (start -6.8 -1.9) (end -6.8 1.9) (layer F.CrtYd) (width 0.05))
  (fp_line (start -6.8 1.9) (end 6.8 1.9) (layer F.CrtYd) (width 0.05))
  (fp_line (start 6.8 1.9) (end 6.8 -1.9) (layer F.CrtYd) (width 0.05))
  (fp_line (start 6.8 -1.9) (end -6.8 -1.9) (layer F.CrtYd) (width 0.05))
  (fp_line (start -4.9 0.9) (end -4.4 0.192893) (layer F.Fab) (width 0.1))
  (fp_line (start -4.4 0.192893) (end -3.9 0.9) (layer F.Fab) (width 0.1))
  (pad 1 smd roundrect (at -4.4 0.85) (size 0.5 1.1) (layers F.Cu F.Mask F.Paste) (roundrect_rratio 0.25))
  (pad 2 smd roundrect (at -3.6 0.85) (size 0.5 1.1) (layers F.Cu F.Mask F.Paste) (roundrect_rratio 0.25))
  (pad 3 smd roundrect (at -2.8 0.85) (size 0.5 1.1) (layers F.Cu F.Mask F.Paste) (roundrect_rratio 0.25))
  (pad 4 smd roundrect (at -2 0.85) (size 0.5 1.1) (layers F.Cu F.Mask F.Paste) (roundrect_rratio 0.25))
  (pad 5 smd roundrect (at -1.2 0.85) (size 0.5 1.1) (layers F.Cu F.Mask F.Paste) (roundrect_rratio 0.25))
  (pad 6 smd roundrect (at -0.4 0.85) (size 0.5 1.1) (layers F.Cu F.Mask F.Paste) (roundrect_rratio 0.25))
  (pad 7 smd roundrect (at 0.4 0.85) (size 0.5 1.1) (layers F.Cu F.Mask F.Paste) (roundrect_rratio 0.25))
  (pad 8 smd roundrect (at 1.2 0.85) (size 0.5 1.1) (layers F.Cu F.Mask F.Paste) (roundrect_rratio 0.25))
  (pad 9 smd roundrect (at 2 0.85) (size 0.5 1.1) (layers F.Cu F.Mask F.Paste) (roundrect_rratio 0.25))
  (pad 10 smd roundrect (at 2.8 0.85) (size 0.5 1.1) (layers F.Cu F.Mask F.Paste) (roundrect_rratio 0.25))
  (pad 11 smd roundrect (at 3.6 0.85) (size 0.5 1.1) (layers F.Cu F.Mask F.Paste) (roundrect_rratio 0.25))
  (pad 12 smd roundrect (at 4.4 0.85) (size 0.5 1.1) (layers F.Cu F.Mask F.Paste) (roundrect_rratio 0.25))
  (pad MP smd roundrect (at -5.7 -0.55) (size 1.2 1.7) (layers F.Cu F.Mask F.Paste) (roundrect_rratio 0.208333))
  (pad MP smd roundrect (at 5.7 -0.55) (size 1.2 1.7) (layers F.Cu F.Mask F.Paste) (roundrect_rratio 0.208333))
  (fp_text user %R (at 0 -0.4) (layer F.Fab)
    (effects (font (size 1 1) (thickness 0.15)))
  )
  (model ${KICAD6_3DMODEL_DIR}/Connector_JST.3dshapes/JST_SUR_BM12B-SURS-TF_1x12-1MP_P0.80mm_Vertical.wrl
    (at (xyz 0 0 0))
    (scale (xyz 1 1 1))
    (rotate (xyz 0 0 0))
  )
)