(module JST_PHD_B14B-PHDSS_2x07_P2.00mm_Vertical (layer F.Cu) (tedit 5B8F1A74)
  (descr "JST PHD series connector, B14B-PHDSS (http://www.jst-mfg.com/product/pdf/eng/ePHD.pdf), generated with kicad-footprint-generator")
  (tags "connector JST PHD vertical")
  (fp_text reference REF** (at 6 -2.7) (layer F.SilkS)
    (effects (font (size 1 1) (thickness 0.15)))
  )
  (fp_text value JST_PHD_B14B-PHDSS_2x07_P2.00mm_Vertical (at 6 4.7) (layer F.Fab)
    (effects (font (size 1 1) (thickness 0.15)))
  )
  (fp_line (start -1.95 -1.5) (end -1.95 3.5) (layer F.Fab) (width 0.1))
  (fp_line (start -1.95 3.5) (end 13.95 3.5) (layer F.Fab) (width 0.1))
  (fp_line (start 13.95 3.5) (end 13.95 -1.5) (layer F.Fab) (width 0.1))
  (fp_line (start 13.95 -1.5) (end -1.95 -1.5) (layer F.Fab) (width 0.1))
  (fp_line (start -2.45 -2) (end -2.45 4) (layer F.CrtYd) (width 0.05))
  (fp_line (start -2.45 4) (end 14.45 4) (layer F.CrtYd) (width 0.05))
  (fp_line (start 14.45 4) (end 14.45 -2) (layer F.CrtYd) (width 0.05))
  (fp_line (start 14.45 -2) (end -2.45 -2) (layer F.CrtYd) (width 0.05))
  (fp_line (start -1.2 -1.1) (end -1.2 3.1) (layer F.SilkS) (width 0.12))
  (fp_line (start -1.2 3.1) (end 13.2 3.1) (layer F.SilkS) (width 0.12))
  (fp_line (start 13.2 3.1) (end 13.2 -1.1) (layer F.SilkS) (width 0.12))
  (fp_line (start 13.2 -1.1) (end -1.2 -1.1) (layer F.SilkS) (width 0.12))
  (fp_line (start -2.06 1.1) (end -1.2 1.1) (layer F.SilkS) (width 0.12))
  (fp_line (start 14.06 1.1) (end 13.2 1.1) (layer F.SilkS) (width 0.12))
  (fp_line (start -2.06 1.9) (end -1.2 1.9) (layer F.SilkS) (width 0.12))
  (fp_line (start 14.06 1.9) (end 13.2 1.9) (layer F.SilkS) (width 0.12))
  (fp_line (start 1.47 -1.61) (end 1.47 -1.1) (layer F.SilkS) (width 0.12))
  (fp_line (start 0.53 -1.61) (end 0.53 -1.1) (layer F.SilkS) (width 0.12))
  (fp_line (start 10.53 -1.61) (end 10.53 -1.1) (layer F.SilkS) (width 0.12))
  (fp_line (start 11.47 -1.61) (end 11.47 -1.1) (layer F.SilkS) (width 0.12))
  (fp_line (start 1.47 3.61) (end 1.47 3.1) (layer F.SilkS) (width 0.12))
  (fp_line (start -0.03 3.61) (end -0.03 3.1) (layer F.SilkS) (width 0.12))
  (fp_line (start 10.53 3.61) (end 10.53 3.1) (layer F.SilkS) (width 0.12))
  (fp_line (start 12.03 3.61) (end 12.03 3.1) (layer F.SilkS) (width 0.12))
  (fp_line (start -2.06 -1.61) (end -2.06 3.61) (layer F.SilkS) (width 0.12))
  (fp_line (start -2.06 3.61) (end 14.06 3.61) (layer F.SilkS) (width 0.12))
  (fp_line (start 14.06 3.61) (end 14.06 -1.61) (layer F.SilkS) (width 0.12))
  (fp_line (start 14.06 -1.61) (end -2.06 -1.61) (layer F.SilkS) (width 0.12))
  (fp_line (start -2.26 0) (end -2.86 0.3) (layer F.SilkS) (width 0.12))
  (fp_line (start -2.86 0.3) (end -2.86 -0.3) (layer F.SilkS) (width 0.12))
  (fp_line (start -2.86 -0.3) (end -2.26 0) (layer F.SilkS) (width 0.12))
  (fp_line (start -1.95 0.5) (end -1.242893 0) (layer F.Fab) (width 0.1))
  (fp_line (start -1.242893 0) (end -1.95 -0.5) (layer F.Fab) (width 0.1))
  (pad 1 thru_hole roundrect (at 0 0) (size 1.2 1.2) (drill 0.75) (layers *.Cu *.Mask) (roundrect_rratio 0.208333))
  (pad 3 thru_hole circle (at 2 0) (size 1.2 1.2) (drill 0.75) (layers *.Cu *.Mask))
  (pad 5 thru_hole circle (at 4 0) (size 1.2 1.2) (drill 0.75) (layers *.Cu *.Mask))
  (pad 7 thru_hole circle (at 6 0) (size 1.2 1.2) (drill 0.75) (layers *.Cu *.Mask))
  (pad 9 thru_hole circle (at 8 0) (size 1.2 1.2) (drill 0.75) (layers *.Cu *.Mask))
  (pad 11 thru_hole circle (at 10 0) (size 1.2 1.2) (drill 0.75) (layers *.Cu *.Mask))
  (pad 13 thru_hole circle (at 12 0) (size 1.2 1.2) (drill 0.75) (layers *.Cu *.Mask))
  (pad 2 thru_hole circle (at 0 2) (size 1.2 1.2) (drill 0.75) (layers *.Cu *.Mask))
  (pad 4 thru_hole circle (at 2 2) (size 1.2 1.2) (drill 0.75) (layers *.Cu *.Mask))
  (pad 6 thru_hole circle (at 4 2) (size 1.2 1.2) (drill 0.75) (layers *.Cu *.Mask))
  (pad 8 thru_hole circle (at 6 2) (size 1.2 1.2) (drill 0.75) (layers *.Cu *.Mask))
  (pad 10 thru_hole circle (at 8 2) (size 1.2 1.2) (drill 0.75) (layers *.Cu *.Mask))
  (pad 12 thru_hole circle (at 10 2) (size 1.2 1.2) (drill 0.75) (layers *.Cu *.Mask))
  (pad 14 thru_hole circle (at 12 2) (size 1.2 1.2) (drill 0.75) (layers *.Cu *.Mask))
  (fp_text user %R (at 6 -0.8) (layer F.Fab)
    (effects (font (size 1 1) (thickness 0.15)))
  )
  (model ${KICAD6_3DMODEL_DIR}/Connector_JST.3dshapes/JST_PHD_B14B-PHDSS_2x07_P2.00mm_Vertical.wrl
    (at (xyz 0 0 0))
    (scale (xyz 1 1 1))
    (rotate (xyz 0 0 0))
  )
)