(module JST_PH_S6B-PH-SM4-TB_1x06-1MP_P2.00mm_Horizontal (layer F.Cu) (tedit 5B78AD87)
  (descr "JST PH series connector, S6B-PH-SM4-TB (http://www.jst-mfg.com/product/pdf/eng/ePH.pdf), generated with kicad-footprint-generator")
  (tags "connector JST PH top entry")
  (attr smd)
  (fp_text reference REF** (at 0 -5.8) (layer F.SilkS)
    (effects (font (size 1 1) (thickness 0.15)))
  )
  (fp_text value JST_PH_S6B-PH-SM4-TB_1x06-1MP_P2.00mm_Horizontal (at 0 5.8) (layer F.Fab)
    (effects (font (size 1 1) (thickness 0.15)))
  )
  (fp_line (start -7.95 -3.2) (end -7.15 -3.2) (layer F.Fab) (width 0.1))
  (fp_line (start -7.15 -3.2) (end -7.15 -1.6) (layer F.Fab) (width 0.1))
  (fp_line (start -7.15 -1.6) (end 7.15 -1.6) (layer F.Fab) (width 0.1))
  (fp_line (start 7.15 -1.6) (end 7.15 -3.2) (layer F.Fab) (width 0.1))
  (fp_line (start 7.15 -3.2) (end 7.95 -3.2) (layer F.Fab) (width 0.1))
  (fp_line (start -8.06 0.94) (end -8.06 -3.31) (layer F.SilkS) (width 0.12))
  (fp_line (start -8.06 -3.31) (end -7.04 -3.31) (layer F.SilkS) (width 0.12))
  (fp_line (start -7.04 -3.31) (end -7.04 -1.71) (layer F.SilkS) (width 0.12))
  (fp_line (start -7.04 -1.71) (end -5.76 -1.71) (layer F.SilkS) (width 0.12))
  (fp_line (start -5.76 -1.71) (end -5.76 -4.6) (layer F.SilkS) (width 0.12))
  (fp_line (start 8.06 0.94) (end 8.06 -3.31) (layer F.SilkS) (width 0.12))
  (fp_line (start 8.06 -3.31) (end 7.04 -3.31) (layer F.SilkS) (width 0.12))
  (fp_line (start 7.04 -3.31) (end 7.04 -1.71) (layer F.SilkS) (width 0.12))
  (fp_line (start 7.04 -1.71) (end 5.76 -1.71) (layer F.SilkS) (width 0.12))
  (fp_line (start -6.34 4.51) (end 6.34 4.51) (layer F.SilkS) (width 0.12))
  (fp_line (start -7.95 4.4) (end 7.95 4.4) (layer F.Fab) (width 0.1))
  (fp_line (start -7.95 -3.2) (end -7.95 4.4) (layer F.Fab) (width 0.1))
  (fp_line (start 7.95 -3.2) (end 7.95 4.4) (layer F.Fab) (width 0.1))
  (fp_line (start -8.6 -5.1) (end -8.6 5.1) (layer F.CrtYd) (width 0.05))
  (fp_line (start -8.6 5.1) (end 8.6 5.1) (layer F.CrtYd) (width 0.05))
  (fp_line (start 8.6 5.1) (end 8.6 -5.1) (layer F.CrtYd) (width 0.05))
  (fp_line (start 8.6 -5.1) (end -8.6 -5.1) (layer F.CrtYd) (width 0.05))
  (fp_line (start -5.5 -1.6) (end -5 -0.892893) (layer F.Fab) (width 0.1))
  (fp_line (start -5 -0.892893) (end -4.5 -1.6) (layer F.Fab) (width 0.1))
  (pad 1 smd roundrect (at -5 -2.85) (size 1 3.5) (layers F.Cu F.Mask F.Paste) (roundrect_rratio 0.25))
  (pad 2 smd roundrect (at -3 -2.85) (size 1 3.5) (layers F.Cu F.Mask F.Paste) (roundrect_rratio 0.25))
  (pad 3 smd roundrect (at -1 -2.85) (size 1 3.5) (layers F.Cu F.Mask F.Paste) (roundrect_rratio 0.25))
  (pad 4 smd roundrect (at 1 -2.85) (size 1 3.5) (layers F.Cu F.Mask F.Paste) (roundrect_rratio 0.25))
  (pad 5 smd roundrect (at 3 -2.85) (size 1 3.5) (layers F.Cu F.Mask F.Paste) (roundrect_rratio 0.25))
  (pad 6 smd roundrect (at 5 -2.85) (size 1 3.5) (layers F.Cu F.Mask F.Paste) (roundrect_rratio 0.25))
  (pad MP smd roundrect (at -7.35 2.9) (size 1.5 3.4) (layers F.Cu F.Mask F.Paste) (roundrect_rratio 0.166667))
  (pad MP smd roundrect (at 7.35 2.9) (size 1.5 3.4) (layers F.Cu F.Mask F.Paste) (roundrect_rratio 0.166667))
  (fp_text user %R (at 0 1.5) (layer F.Fab)
    (effects (font (size 1 1) (thickness 0.15)))
  )
  (model ${KICAD6_3DMODEL_DIR}/Connector_JST.3dshapes/JST_PH_S6B-PH-SM4-TB_1x06-1MP_P2.00mm_Horizontal.wrl
    (at (xyz 0 0 0))
    (scale (xyz 1 1 1))
    (rotate (xyz 0 0 0))
  )
)