(module JST_J2100_B08B-J21DK-GGXR_2x04_P2.50x4.00mm_Vertical (layer F.Cu) (tedit 5C2813F2)
  (descr "JST J2100 series connector, B08B-J21DK-GGXR (http://www.jst-mfg.com/product/pdf/eng/eJFA-J2000.pdf), generated with kicad-footprint-generator")
  (tags "connector JST J2100 vertical")
  (fp_text reference REF** (at 3.75 -5.68) (layer F.SilkS)
    (effects (font (size 1 1) (thickness 0.15)))
  )
  (fp_text value JST_J2100_B08B-J21DK-GGXR_2x04_P2.50x4.00mm_Vertical (at 3.75 11.12) (layer F.Fab)
    (effects (font (size 1 1) (thickness 0.15)))
  )
  (fp_line (start -2.6 -4.48) (end -2.6 9.92) (layer F.Fab) (width 0.1))
  (fp_line (start -2.6 9.92) (end 10.1 9.92) (layer F.Fab) (width 0.1))
  (fp_line (start 10.1 9.92) (end 10.1 -4.48) (layer F.Fab) (width 0.1))
  (fp_line (start 10.1 -4.48) (end -2.6 -4.48) (layer F.Fab) (width 0.1))
  (fp_line (start -3.1 -4.98) (end -3.1 10.42) (layer F.CrtYd) (width 0.05))
  (fp_line (start -3.1 10.42) (end 10.6 10.42) (layer F.CrtYd) (width 0.05))
  (fp_line (start 10.6 10.42) (end 10.6 -4.98) (layer F.CrtYd) (width 0.05))
  (fp_line (start 10.6 -4.98) (end -3.1 -4.98) (layer F.CrtYd) (width 0.05))
  (fp_line (start -2.71 -4.59) (end -2.71 10.03) (layer F.SilkS) (width 0.12))
  (fp_line (start -2.71 10.03) (end 10.21 10.03) (layer F.SilkS) (width 0.12))
  (fp_line (start 10.21 10.03) (end 10.21 -4.59) (layer F.SilkS) (width 0.12))
  (fp_line (start 10.21 -4.59) (end -2.71 -4.59) (layer F.SilkS) (width 0.12))
  (fp_line (start -3 0) (end -3.6 0.3) (layer F.SilkS) (width 0.12))
  (fp_line (start -3.6 0.3) (end -3.6 -0.3) (layer F.SilkS) (width 0.12))
  (fp_line (start -3.6 -0.3) (end -3 0) (layer F.SilkS) (width 0.12))
  (fp_line (start -2.6 0.5) (end -1.892893 0) (layer F.Fab) (width 0.1))
  (fp_line (start -1.892893 0) (end -2.6 -0.5) (layer F.Fab) (width 0.1))
  (fp_line (start 1.25 5) (end 1.25 -1) (layer F.Fab) (width 0.1))
  (fp_line (start 3.75 5) (end 3.75 -1) (layer F.Fab) (width 0.1))
  (fp_line (start 6.25 5) (end 6.25 -1) (layer F.Fab) (width 0.1))
  (fp_line (start 3.15 -4.59) (end 3.15 -4.14) (layer F.SilkS) (width 0.12))
  (fp_line (start 3.15 -4.14) (end -2.26 -4.14) (layer F.SilkS) (width 0.12))
  (fp_line (start -2.26 -4.14) (end -2.26 9.58) (layer F.SilkS) (width 0.12))
  (fp_line (start -2.26 9.58) (end -1.06 9.58) (layer F.SilkS) (width 0.12))
  (fp_line (start -1.06 9.58) (end -1.06 9.13) (layer F.SilkS) (width 0.12))
  (fp_line (start -1.06 9.13) (end 3.75 9.13) (layer F.SilkS) (width 0.12))
  (fp_line (start 4.35 -4.59) (end 4.35 -4.14) (layer F.SilkS) (width 0.12))
  (fp_line (start 4.35 -4.14) (end 9.76 -4.14) (layer F.SilkS) (width 0.12))
  (fp_line (start 9.76 -4.14) (end 9.76 9.58) (layer F.SilkS) (width 0.12))
  (fp_line (start 9.76 9.58) (end 8.56 9.58) (layer F.SilkS) (width 0.12))
  (fp_line (start 8.56 9.58) (end 8.56 9.13) (layer F.SilkS) (width 0.12))
  (fp_line (start 8.56 9.13) (end 3.75 9.13) (layer F.SilkS) (width 0.12))
  (pad 1 thru_hole roundrect (at 0 0) (size 1.7 1.86) (drill 0.86) (layers *.Cu *.Mask) (roundrect_rratio 0.147059))
  (pad 2 thru_hole oval (at 2.5 0) (size 1.7 1.86) (drill 0.86) (layers *.Cu *.Mask))
  (pad 3 thru_hole oval (at 5 0) (size 1.7 1.86) (drill 0.86) (layers *.Cu *.Mask))
  (pad 4 thru_hole oval (at 7.5 0) (size 1.7 1.86) (drill 0.86) (layers *.Cu *.Mask))
  (pad 5 thru_hole oval (at 0 4) (size 1.7 1.86) (drill 0.86) (layers *.Cu *.Mask))
  (pad 6 thru_hole oval (at 2.5 4) (size 1.7 1.86) (drill 0.86) (layers *.Cu *.Mask))
  (pad 7 thru_hole oval (at 5 4) (size 1.7 1.86) (drill 0.86) (layers *.Cu *.Mask))
  (pad 8 thru_hole oval (at 7.5 4) (size 1.7 1.86) (drill 0.86) (layers *.Cu *.Mask))
  (pad "" thru_hole circle (at 0 7.3) (size 3 3) (drill 2) (layers *.Cu *.Mask))
  (pad "" thru_hole circle (at 7.5 7.3) (size 3 3) (drill 2) (layers *.Cu *.Mask))
  (fp_text user %R (at 3.75 -3.78) (layer F.Fab)
    (effects (font (size 1 1) (thickness 0.15)))
  )
  (model ${KICAD6_3DMODEL_DIR}/Connector_JST.3dshapes/JST_J2100_B08B-J21DK-GGXR_2x04_P2.50x4.00mm_Vertical.wrl
    (at (xyz 0 0 0))
    (scale (xyz 1 1 1))
    (rotate (xyz 0 0 0))
  )
)