(module JST_ZE_B02B-ZESK-1D_1x02_P1.50mm_Vertical (layer F.Cu) (tedit 5B77636A)
  (descr "JST ZE series connector, B02B-ZESK-1D, with boss (http://www.jst-mfg.com/product/pdf/eng/eZE.pdf), generated with kicad-footprint-generator")
  (tags "connector JST ZE side entry boss")
  (fp_text reference REF** (at 0.75 -6.3) (layer F.SilkS)
    (effects (font (size 1 1) (thickness 0.15)))
  )
  (fp_text value JST_ZE_B02B-ZESK-1D_1x02_P1.50mm_Vertical (at 0.75 1.85) (layer F.Fab)
    (effects (font (size 1 1) (thickness 0.15)))
  )
  (fp_line (start -2.25 -5.1) (end -2.25 0.65) (layer F.Fab) (width 0.1))
  (fp_line (start -2.25 0.65) (end 3.75 0.65) (layer F.Fab) (width 0.1))
  (fp_line (start 3.75 0.65) (end 3.75 -5.1) (layer F.Fab) (width 0.1))
  (fp_line (start 3.75 -5.1) (end -2.25 -5.1) (layer F.Fab) (width 0.1))
  (fp_line (start -2.75 -5.6) (end -2.75 1.15) (layer F.CrtYd) (width 0.05))
  (fp_line (start -2.75 1.15) (end 4.25 1.15) (layer F.CrtYd) (width 0.05))
  (fp_line (start 4.25 1.15) (end 4.25 -5.6) (layer F.CrtYd) (width 0.05))
  (fp_line (start 4.25 -5.6) (end -2.75 -5.6) (layer F.CrtYd) (width 0.05))
  (fp_line (start -0.96 0.76) (end -2.36 0.76) (layer F.SilkS) (width 0.12))
  (fp_line (start -2.36 0.76) (end -2.36 -5.21) (layer F.SilkS) (width 0.12))
  (fp_line (start -2.36 -5.21) (end 3.86 -5.21) (layer F.SilkS) (width 0.12))
  (fp_line (start 3.86 -5.21) (end 3.86 0.76) (layer F.SilkS) (width 0.12))
  (fp_line (start 3.86 0.76) (end 0.96 0.76) (layer F.SilkS) (width 0.12))
  (fp_line (start -0.14 -5.21) (end -0.14 -3.51) (layer F.SilkS) (width 0.12))
  (fp_line (start -0.14 -3.51) (end 1.64 -3.51) (layer F.SilkS) (width 0.12))
  (fp_line (start 1.64 -3.51) (end 1.64 -5.21) (layer F.SilkS) (width 0.12))
  (fp_line (start 1.64 -5.21) (end -0.14 -5.21) (layer F.SilkS) (width 0.12))
  (fp_line (start 0.26 -4.81) (end 0.26 -3.91) (layer F.SilkS) (width 0.12))
  (fp_line (start 0.26 -3.91) (end 1.24 -3.91) (layer F.SilkS) (width 0.12))
  (fp_line (start 1.24 -3.91) (end 1.24 -4.81) (layer F.SilkS) (width 0.12))
  (fp_line (start 1.24 -4.81) (end 0.26 -4.81) (layer F.SilkS) (width 0.12))
  (fp_line (start -0.14 -3.51) (end -0.9 -3.51) (layer F.SilkS) (width 0.12))
  (fp_line (start -1.56 -3) (end -1.56 -0.04) (layer F.SilkS) (width 0.12))
  (fp_line (start -1.56 -0.04) (end -1 -0.04) (layer F.SilkS) (width 0.12))
  (fp_line (start 1.64 -3.51) (end 3.06 -3.51) (layer F.SilkS) (width 0.12))
  (fp_line (start 3.06 -3.51) (end 3.06 -0.04) (layer F.SilkS) (width 0.12))
  (fp_line (start 3.06 -0.04) (end 1 -0.04) (layer F.SilkS) (width 0.12))
  (fp_line (start -2.66 -0.44) (end -2.66 1.06) (layer F.SilkS) (width 0.12))
  (fp_line (start -2.66 1.06) (end -1.16 1.06) (layer F.SilkS) (width 0.12))
  (fp_line (start -2.66 -0.44) (end -2.66 1.06) (layer F.Fab) (width 0.1))
  (fp_line (start -2.66 1.06) (end -1.16 1.06) (layer F.Fab) (width 0.1))
  (pad 1 thru_hole custom (at 0 0) (size 1.117157 1.117157) (drill 0.75) (layers *.Cu *.Mask)
    (options (clearance outline) (anchor circle))
    (primitives
      (gr_poly (pts
         (xy -0.45 -0.625) (xy 0.05 -0.625) (xy 0.45 -0.225) (xy 0.45 0.625)
         (xy -0.45 0.625)) (width 0.5))
    ))
  (pad 2 thru_hole oval (at 1.5 -2) (size 1.4 1.75) (drill 0.75) (layers *.Cu *.Mask))
  (pad "" np_thru_hole circle (at -1.65 -3.8) (size 0.85 0.85) (drill 0.85) (layers *.Cu *.Mask))
  (fp_text user %R (at 0.75 -4.4) (layer F.Fab)
    (effects (font (size 1 1) (thickness 0.15)))
  )
  (model ${KICAD6_3DMODEL_DIR}/Connector_JST.3dshapes/JST_ZE_B02B-ZESK-1D_1x02_P1.50mm_Vertical.wrl
    (at (xyz 0 0 0))
    (scale (xyz 1 1 1))
    (rotate (xyz 0 0 0))
  )
)