(module JST_XA_S04B-XASK-1_1x04_P2.50mm_Horizontal (layer F.Cu) (tedit 5E8E654E)
  (descr "JST XA series connector, S04B-XASK-1 (http://www.jst-mfg.com/product/pdf/eng/eXA1.pdf), generated with kicad-footprint-generator")
  (tags "connector JST XA horizontal hook")
  (fp_text reference REF** (at 3.75 -4.6) (layer F.SilkS)
    (effects (font (size 1 1) (thickness 0.15)))
  )
  (fp_text value JST_XA_S04B-XASK-1_1x04_P2.50mm_Horizontal (at 3.75 10.4) (layer F.Fab)
    (effects (font (size 1 1) (thickness 0.15)))
  )
  (fp_line (start -1.11 -0.61) (end -1.39 -0.61) (layer F.SilkS) (width 0.12))
  (fp_line (start -1.39 -0.61) (end -1.39 -3.51) (layer F.SilkS) (width 0.12))
  (fp_line (start -1.39 -3.51) (end -2.61 -3.51) (layer F.SilkS) (width 0.12))
  (fp_line (start -2.61 -3.51) (end -2.61 9.31) (layer F.SilkS) (width 0.12))
  (fp_line (start -2.61 9.31) (end 10.11 9.31) (layer F.SilkS) (width 0.12))
  (fp_line (start 10.11 9.31) (end 10.11 -3.51) (layer F.SilkS) (width 0.12))
  (fp_line (start 10.11 -3.51) (end 8.89 -3.51) (layer F.SilkS) (width 0.12))
  (fp_line (start 8.89 -3.51) (end 8.89 -0.61) (layer F.SilkS) (width 0.12))
  (fp_line (start 8.89 -0.61) (end 8.61 -0.61) (layer F.SilkS) (width 0.12))
  (fp_line (start -1.5 9.31) (end -1.5 7.01) (layer F.SilkS) (width 0.12))
  (fp_line (start -1.5 7.01) (end 2.15 7.01) (layer F.SilkS) (width 0.12))
  (fp_line (start 5.35 7.01) (end 9 7.01) (layer F.SilkS) (width 0.12))
  (fp_line (start 9 7.01) (end 9 9.31) (layer F.SilkS) (width 0.12))
  (fp_line (start 2.95 5.2) (end 2.95 3.4) (layer F.SilkS) (width 0.12))
  (fp_line (start 2.95 3.4) (end 4.55 3.4) (layer F.SilkS) (width 0.12))
  (fp_line (start 4.55 3.4) (end 4.55 5.2) (layer F.SilkS) (width 0.12))
  (fp_line (start 4.55 5.2) (end 2.95 5.2) (layer F.SilkS) (width 0.12))
  (fp_line (start 6.45 7.01) (end 6.45 2) (layer F.SilkS) (width 0.12))
  (fp_line (start 6.45 2) (end 6.95 2) (layer F.SilkS) (width 0.12))
  (fp_line (start 6.95 2) (end 6.95 5.41) (layer F.SilkS) (width 0.12))
  (fp_line (start 6.95 5.41) (end 8.05 5.41) (layer F.SilkS) (width 0.12))
  (fp_line (start 8.05 5.41) (end 8.05 2) (layer F.SilkS) (width 0.12))
  (fp_line (start 8.05 2) (end 10.11 2) (layer F.SilkS) (width 0.12))
  (fp_line (start 1.05 7.01) (end 1.05 2) (layer F.SilkS) (width 0.12))
  (fp_line (start 1.05 2) (end 0.55 2) (layer F.SilkS) (width 0.12))
  (fp_line (start 0.55 2) (end 0.55 5.41) (layer F.SilkS) (width 0.12))
  (fp_line (start 0.55 5.41) (end -0.55 5.41) (layer F.SilkS) (width 0.12))
  (fp_line (start -0.55 5.41) (end -0.55 2) (layer F.SilkS) (width 0.12))
  (fp_line (start -0.55 2) (end -2.61 2) (layer F.SilkS) (width 0.12))
  (fp_line (start -3 -3.9) (end -3 9.7) (layer F.CrtYd) (width 0.05))
  (fp_line (start -3 9.7) (end 10.5 9.7) (layer F.CrtYd) (width 0.05))
  (fp_line (start 10.5 9.7) (end 10.5 -3.9) (layer F.CrtYd) (width 0.05))
  (fp_line (start 10.5 -3.9) (end 8.5 -3.9) (layer F.CrtYd) (width 0.05))
  (fp_line (start 8.5 -3.9) (end 8.5 -1.48) (layer F.CrtYd) (width 0.05))
  (fp_line (start 8.5 -1.48) (end -1 -1.48) (layer F.CrtYd) (width 0.05))
  (fp_line (start -1 -1.48) (end -1 -3.9) (layer F.CrtYd) (width 0.05))
  (fp_line (start -1 -3.9) (end -3 -3.9) (layer F.CrtYd) (width 0.05))
  (fp_line (start -1.5 -0.5) (end -1.5 -3.4) (layer F.Fab) (width 0.1))
  (fp_line (start -1.5 -3.4) (end -2.5 -3.4) (layer F.Fab) (width 0.1))
  (fp_line (start -2.5 -3.4) (end -2.5 9.2) (layer F.Fab) (width 0.1))
  (fp_line (start -2.5 9.2) (end 10 9.2) (layer F.Fab) (width 0.1))
  (fp_line (start 10 9.2) (end 10 -3.4) (layer F.Fab) (width 0.1))
  (fp_line (start 10 -3.4) (end 9 -3.4) (layer F.Fab) (width 0.1))
  (fp_line (start 9 -3.4) (end 9 -0.5) (layer F.Fab) (width 0.1))
  (fp_line (start 9 -0.5) (end -1.5 -0.5) (layer F.Fab) (width 0.1))
  (fp_line (start 0 -1.2) (end -0.4 -1.6) (layer F.SilkS) (width 0.12))
  (fp_line (start -0.4 -1.6) (end 0.4 -1.6) (layer F.SilkS) (width 0.12))
  (fp_line (start 0.4 -1.6) (end 0 -1.2) (layer F.SilkS) (width 0.12))
  (fp_line (start 0 0.975) (end -0.5 1.475) (layer F.Fab) (width 0.1))
  (fp_line (start -0.5 1.475) (end 0.5 1.475) (layer F.Fab) (width 0.1))
  (fp_line (start 0.5 1.475) (end 0 0.975) (layer F.Fab) (width 0.1))
  (pad 1 thru_hole roundrect (at 0 0) (size 1.7 1.95) (drill 0.95) (layers *.Cu *.Mask) (roundrect_rratio 0.147059))
  (pad 2 thru_hole oval (at 2.5 0) (size 1.7 1.95) (drill 0.95) (layers *.Cu *.Mask))
  (pad 3 thru_hole oval (at 5 0) (size 1.7 1.95) (drill 0.95) (layers *.Cu *.Mask))
  (pad 4 thru_hole oval (at 7.5 0) (size 1.7 1.95) (drill 0.95) (layers *.Cu *.Mask))
  (pad "" np_thru_hole oval (at 3.75 6.5) (size 2.8 2) (drill oval 2.8 2) (layers *.Cu *.Mask))
  (fp_text user %R (at 3.75 2.5) (layer F.Fab)
    (effects (font (size 1 1) (thickness 0.15)))
  )
  (model ${KICAD6_3DMODEL_DIR}/Connector_JST.3dshapes/JST_XA_S04B-XASK-1_1x04_P2.50mm_Horizontal.wrl
    (at (xyz 0 0 0))
    (scale (xyz 1 1 1))
    (rotate (xyz 0 0 0))
  )
)