(module JST_XA_S13B-XASK-1_1x13_P2.50mm_Horizontal (layer F.Cu) (tedit 5E8E654E)
  (descr "JST XA series connector, S13B-XASK-1 (http://www.jst-mfg.com/product/pdf/eng/eXA1.pdf), generated with kicad-footprint-generator")
  (tags "connector JST XA horizontal hook")
  (fp_text reference REF** (at 15 -4.6) (layer F.SilkS)
    (effects (font (size 1 1) (thickness 0.15)))
  )
  (fp_text value JST_XA_S13B-XASK-1_1x13_P2.50mm_Horizontal (at 15 10.4) (layer F.Fab)
    (effects (font (size 1 1) (thickness 0.15)))
  )
  (fp_line (start -1.11 -0.61) (end -1.39 -0.61) (layer F.SilkS) (width 0.12))
  (fp_line (start -1.39 -0.61) (end -1.39 -3.51) (layer F.SilkS) (width 0.12))
  (fp_line (start -1.39 -3.51) (end -2.61 -3.51) (layer F.SilkS) (width 0.12))
  (fp_line (start -2.61 -3.51) (end -2.61 9.31) (layer F.SilkS) (width 0.12))
  (fp_line (start -2.61 9.31) (end 32.61 9.31) (layer F.SilkS) (width 0.12))
  (fp_line (start 32.61 9.31) (end 32.61 -3.51) (layer F.SilkS) (width 0.12))
  (fp_line (start 32.61 -3.51) (end 31.39 -3.51) (layer F.SilkS) (width 0.12))
  (fp_line (start 31.39 -3.51) (end 31.39 -0.61) (layer F.SilkS) (width 0.12))
  (fp_line (start 31.39 -0.61) (end 31.11 -0.61) (layer F.SilkS) (width 0.12))
  (fp_line (start -1.5 9.31) (end -1.5 7.01) (layer F.SilkS) (width 0.12))
  (fp_line (start -1.5 7.01) (end 13.4 7.01) (layer F.SilkS) (width 0.12))
  (fp_line (start 16.6 7.01) (end 31.5 7.01) (layer F.SilkS) (width 0.12))
  (fp_line (start 31.5 7.01) (end 31.5 9.31) (layer F.SilkS) (width 0.12))
  (fp_line (start 14.2 5.2) (end 14.2 3.4) (layer F.SilkS) (width 0.12))
  (fp_line (start 14.2 3.4) (end 15.8 3.4) (layer F.SilkS) (width 0.12))
  (fp_line (start 15.8 3.4) (end 15.8 5.2) (layer F.SilkS) (width 0.12))
  (fp_line (start 15.8 5.2) (end 14.2 5.2) (layer F.SilkS) (width 0.12))
  (fp_line (start 17.7 7.01) (end 17.7 2) (layer F.SilkS) (width 0.12))
  (fp_line (start 17.7 2) (end 18.2 2) (layer F.SilkS) (width 0.12))
  (fp_line (start 18.2 2) (end 18.2 5.41) (layer F.SilkS) (width 0.12))
  (fp_line (start 18.2 5.41) (end 19.3 5.41) (layer F.SilkS) (width 0.12))
  (fp_line (start 19.3 5.41) (end 19.3 2) (layer F.SilkS) (width 0.12))
  (fp_line (start 19.3 2) (end 19.8 2) (layer F.SilkS) (width 0.12))
  (fp_line (start 19.8 2) (end 19.8 7.01) (layer F.SilkS) (width 0.12))
  (fp_line (start 12.3 7.01) (end 12.3 2) (layer F.SilkS) (width 0.12))
  (fp_line (start 12.3 2) (end 11.8 2) (layer F.SilkS) (width 0.12))
  (fp_line (start 11.8 2) (end 11.8 5.41) (layer F.SilkS) (width 0.12))
  (fp_line (start 11.8 5.41) (end 10.7 5.41) (layer F.SilkS) (width 0.12))
  (fp_line (start 10.7 5.41) (end 10.7 2) (layer F.SilkS) (width 0.12))
  (fp_line (start 10.7 2) (end 10.2 2) (layer F.SilkS) (width 0.12))
  (fp_line (start 10.2 2) (end 10.2 7.01) (layer F.SilkS) (width 0.12))
  (fp_line (start 30.2 7.01) (end 30.2 2) (layer F.SilkS) (width 0.12))
  (fp_line (start 30.2 2) (end 32.61 2) (layer F.SilkS) (width 0.12))
  (fp_line (start -0.2 7.01) (end -0.2 2) (layer F.SilkS) (width 0.12))
  (fp_line (start -0.2 2) (end -2.61 2) (layer F.SilkS) (width 0.12))
  (fp_line (start -3 -3.9) (end -3 9.7) (layer F.CrtYd) (width 0.05))
  (fp_line (start -3 9.7) (end 33 9.7) (layer F.CrtYd) (width 0.05))
  (fp_line (start 33 9.7) (end 33 -3.9) (layer F.CrtYd) (width 0.05))
  (fp_line (start 33 -3.9) (end 31 -3.9) (layer F.CrtYd) (width 0.05))
  (fp_line (start 31 -3.9) (end 31 -1.48) (layer F.CrtYd) (width 0.05))
  (fp_line (start 31 -1.48) (end -1 -1.48) (layer F.CrtYd) (width 0.05))
  (fp_line (start -1 -1.48) (end -1 -3.9) (layer F.CrtYd) (width 0.05))
  (fp_line (start -1 -3.9) (end -3 -3.9) (layer F.CrtYd) (width 0.05))
  (fp_line (start -1.5 -0.5) (end -1.5 -3.4) (layer F.Fab) (width 0.1))
  (fp_line (start -1.5 -3.4) (end -2.5 -3.4) (layer F.Fab) (width 0.1))
  (fp_line (start -2.5 -3.4) (end -2.5 9.2) (layer F.Fab) (width 0.1))
  (fp_line (start -2.5 9.2) (end 32.5 9.2) (layer F.Fab) (width 0.1))
  (fp_line (start 32.5 9.2) (end 32.5 -3.4) (layer F.Fab) (width 0.1))
  (fp_line (start 32.5 -3.4) (end 31.5 -3.4) (layer F.Fab) (width 0.1))
  (fp_line (start 31.5 -3.4) (end 31.5 -0.5) (layer F.Fab) (width 0.1))
  (fp_line (start 31.5 -0.5) (end -1.5 -0.5) (layer F.Fab) (width 0.1))
  (fp_line (start 0 -1.2) (end -0.4 -1.6) (layer F.SilkS) (width 0.12))
  (fp_line (start -0.4 -1.6) (end 0.4 -1.6) (layer F.SilkS) (width 0.12))
  (fp_line (start 0.4 -1.6) (end 0 -1.2) (layer F.SilkS) (width 0.12))
  (fp_line (start 0 0.975) (end -0.5 1.475) (layer F.Fab) (width 0.1))
  (fp_line (start -0.5 1.475) (end 0.5 1.475) (layer F.Fab) (width 0.1))
  (fp_line (start 0.5 1.475) (end 0 0.975) (layer F.Fab) (width 0.1))
  (pad 1 thru_hole roundrect (at 0 0) (size 1.7 1.95) (drill 0.95) (layers *.Cu *.Mask) (roundrect_rratio 0.147059))
  (pad 2 thru_hole oval (at 2.5 0) (size 1.7 1.95) (drill 0.95) (layers *.Cu *.Mask))
  (pad 3 thru_hole oval (at 5 0) (size 1.7 1.95) (drill 0.95) (layers *.Cu *.Mask))
  (pad 4 thru_hole oval (at 7.5 0) (size 1.7 1.95) (drill 0.95) (layers *.Cu *.Mask))
  (pad 5 thru_hole oval (at 10 0) (size 1.7 1.95) (drill 0.95) (layers *.Cu *.Mask))
  (pad 6 thru_hole oval (at 12.5 0) (size 1.7 1.95) (drill 0.95) (layers *.Cu *.Mask))
  (pad 7 thru_hole oval (at 15 0) (size 1.7 1.95) (drill 0.95) (layers *.Cu *.Mask))
  (pad 8 thru_hole oval (at 17.5 0) (size 1.7 1.95) (drill 0.95) (layers *.Cu *.Mask))
  (pad 9 thru_hole oval (at 20 0) (size 1.7 1.95) (drill 0.95) (layers *.Cu *.Mask))
  (pad 10 thru_hole oval (at 22.5 0) (size 1.7 1.95) (drill 0.95) (layers *.Cu *.Mask))
  (pad 11 thru_hole oval (at 25 0) (size 1.7 1.95) (drill 0.95) (layers *.Cu *.Mask))
  (pad 12 thru_hole oval (at 27.5 0) (size 1.7 1.95) (drill 0.95) (layers *.Cu *.Mask))
  (pad 13 thru_hole oval (at 30 0) (size 1.7 1.95) (drill 0.95) (layers *.Cu *.Mask))
  (pad "" np_thru_hole oval (at 15 6.5) (size 2.8 2) (drill oval 2.8 2) (layers *.Cu *.Mask))
  (fp_text user %R (at 15 2.5) (layer F.Fab)
    (effects (font (size 1 1) (thickness 0.15)))
  )
  (model ${KICAD6_3DMODEL_DIR}/Connector_JST.3dshapes/JST_XA_S13B-XASK-1_1x13_P2.50mm_Horizontal.wrl
    (at (xyz 0 0 0))
    (scale (xyz 1 1 1))
    (rotate (xyz 0 0 0))
  )
)