(module JST_ZE_BM05B-ZESS-TBT_1x05-1MP_P1.50mm_Vertical (layer F.Cu) (tedit 5C2814BD)
  (descr "JST ZE series connector, BM05B-ZESS-TBT (http://www.jst-mfg.com/product/pdf/eng/eZE.pdf), generated with kicad-footprint-generator")
  (tags "connector JST ZE vertical")
  (attr smd)
  (fp_text reference REF** (at 0 -5.15) (layer F.SilkS)
    (effects (font (size 1 1) (thickness 0.15)))
  )
  (fp_text value JST_ZE_BM05B-ZESS-TBT_1x05-1MP_P1.50mm_Vertical (at 0 5.15) (layer F.Fab)
    (effects (font (size 1 1) (thickness 0.15)))
  )
  (fp_line (start -6 2.25) (end 6 2.25) (layer F.Fab) (width 0.1))
  (fp_line (start -6.11 -0.39) (end -6.11 2.36) (layer F.SilkS) (width 0.12))
  (fp_line (start -6.11 2.36) (end -3.66 2.36) (layer F.SilkS) (width 0.12))
  (fp_line (start -3.66 2.36) (end -3.66 3.95) (layer F.SilkS) (width 0.12))
  (fp_line (start 6.11 -0.39) (end 6.11 2.36) (layer F.SilkS) (width 0.12))
  (fp_line (start 6.11 2.36) (end 3.66 2.36) (layer F.SilkS) (width 0.12))
  (fp_line (start -4.44 -3.66) (end 4.44 -3.66) (layer F.SilkS) (width 0.12))
  (fp_line (start -6 -3.55) (end 6 -3.55) (layer F.Fab) (width 0.1))
  (fp_line (start -6 2.25) (end -6 -3.55) (layer F.Fab) (width 0.1))
  (fp_line (start 6 2.25) (end 6 -3.55) (layer F.Fab) (width 0.1))
  (fp_line (start -3.25 -0.5) (end -3.25 0) (layer F.Fab) (width 0.1))
  (fp_line (start -3.25 0) (end -2.75 0) (layer F.Fab) (width 0.1))
  (fp_line (start -2.75 0) (end -2.75 -0.5) (layer F.Fab) (width 0.1))
  (fp_line (start -2.75 -0.5) (end -3.25 -0.5) (layer F.Fab) (width 0.1))
  (fp_line (start -1.75 -0.5) (end -1.75 0) (layer F.Fab) (width 0.1))
  (fp_line (start -1.75 0) (end -1.25 0) (layer F.Fab) (width 0.1))
  (fp_line (start -1.25 0) (end -1.25 -0.5) (layer F.Fab) (width 0.1))
  (fp_line (start -1.25 -0.5) (end -1.75 -0.5) (layer F.Fab) (width 0.1))
  (fp_line (start -0.25 -0.5) (end -0.25 0) (layer F.Fab) (width 0.1))
  (fp_line (start -0.25 0) (end 0.25 0) (layer F.Fab) (width 0.1))
  (fp_line (start 0.25 0) (end 0.25 -0.5) (layer F.Fab) (width 0.1))
  (fp_line (start 0.25 -0.5) (end -0.25 -0.5) (layer F.Fab) (width 0.1))
  (fp_line (start 1.25 -0.5) (end 1.25 0) (layer F.Fab) (width 0.1))
  (fp_line (start 1.25 0) (end 1.75 0) (layer F.Fab) (width 0.1))
  (fp_line (start 1.75 0) (end 1.75 -0.5) (layer F.Fab) (width 0.1))
  (fp_line (start 1.75 -0.5) (end 1.25 -0.5) (layer F.Fab) (width 0.1))
  (fp_line (start 2.75 -0.5) (end 2.75 0) (layer F.Fab) (width 0.1))
  (fp_line (start 2.75 0) (end 3.25 0) (layer F.Fab) (width 0.1))
  (fp_line (start 3.25 0) (end 3.25 -0.5) (layer F.Fab) (width 0.1))
  (fp_line (start 3.25 -0.5) (end 2.75 -0.5) (layer F.Fab) (width 0.1))
  (fp_line (start -7 -4.45) (end -7 4.45) (layer F.CrtYd) (width 0.05))
  (fp_line (start -7 4.45) (end 7 4.45) (layer F.CrtYd) (width 0.05))
  (fp_line (start 7 4.45) (end 7 -4.45) (layer F.CrtYd) (width 0.05))
  (fp_line (start 7 -4.45) (end -7 -4.45) (layer F.CrtYd) (width 0.05))
  (fp_line (start -3.5 2.25) (end -3 1.542893) (layer F.Fab) (width 0.1))
  (fp_line (start -3 1.542893) (end -2.5 2.25) (layer F.Fab) (width 0.1))
  (pad 1 smd roundrect (at -3 2.75) (size 0.8 2.4) (layers F.Cu F.Mask F.Paste) (roundrect_rratio 0.25))
  (pad 2 smd roundrect (at -1.5 2.75) (size 0.8 2.4) (layers F.Cu F.Mask F.Paste) (roundrect_rratio 0.25))
  (pad 3 smd roundrect (at 0 2.75) (size 0.8 2.4) (layers F.Cu F.Mask F.Paste) (roundrect_rratio 0.25))
  (pad 4 smd roundrect (at 1.5 2.75) (size 0.8 2.4) (layers F.Cu F.Mask F.Paste) (roundrect_rratio 0.25))
  (pad 5 smd roundrect (at 3 2.75) (size 0.8 2.4) (layers F.Cu F.Mask F.Paste) (roundrect_rratio 0.25))
  (pad MP smd roundrect (at -5.6 -2.3) (size 1.8 3.3) (layers F.Cu F.Mask F.Paste) (roundrect_rratio 0.138889))
  (pad MP smd roundrect (at 5.6 -2.3) (size 1.8 3.3) (layers F.Cu F.Mask F.Paste) (roundrect_rratio 0.138889))
  (fp_text user %R (at 0 -1.5) (layer F.Fab)
    (effects (font (size 1 1) (thickness 0.15)))
  )
  (model ${KICAD6_3DMODEL_DIR}/Connector_JST.3dshapes/JST_ZE_BM05B-ZESS-TBT_1x05-1MP_P1.50mm_Vertical.wrl
    (at (xyz 0 0 0))
    (scale (xyz 1 1 1))
    (rotate (xyz 0 0 0))
  )
)