(module JST_XA_B14B-XASK-1_1x14_P2.50mm_Vertical (layer F.Cu) (tedit 5E8E6554)
  (descr "JST XA series connector, B14B-XASK-1 (http://www.jst-mfg.com/product/pdf/eng/eXA1.pdf), generated with kicad-footprint-generator")
  (tags "connector JST XA vertical")
  (fp_text reference REF** (at 16.25 -4.4) (layer F.SilkS)
    (effects (font (size 1 1) (thickness 0.15)))
  )
  (fp_text value JST_XA_B14B-XASK-1_1x14_P2.50mm_Vertical (at 16.25 4.4) (layer F.Fab)
    (effects (font (size 1 1) (thickness 0.15)))
  )
  (fp_line (start -2.61 -3.31) (end -2.61 3.31) (layer F.SilkS) (width 0.12))
  (fp_line (start -2.61 3.31) (end 35.11 3.31) (layer F.SilkS) (width 0.12))
  (fp_line (start 35.11 3.31) (end 35.11 -3.31) (layer F.SilkS) (width 0.12))
  (fp_line (start 35.11 -3.31) (end 32.81 -3.31) (layer F.SilkS) (width 0.12))
  (fp_line (start 32.81 -3.31) (end 32.81 -2.31) (layer F.SilkS) (width 0.12))
  (fp_line (start 32.81 -2.31) (end 21.05 -2.31) (layer F.SilkS) (width 0.12))
  (fp_line (start 21.05 -2.31) (end 21.05 -3.31) (layer F.SilkS) (width 0.12))
  (fp_line (start 21.05 -3.31) (end 18.95 -3.31) (layer F.SilkS) (width 0.12))
  (fp_line (start 18.95 -3.31) (end 18.95 -2.31) (layer F.SilkS) (width 0.12))
  (fp_line (start 18.95 -2.31) (end 17.05 -2.31) (layer F.SilkS) (width 0.12))
  (fp_line (start 17.05 -2.31) (end 17.05 -2.91) (layer F.SilkS) (width 0.12))
  (fp_line (start 17.05 -2.91) (end 15.45 -2.91) (layer F.SilkS) (width 0.12))
  (fp_line (start 15.45 -2.91) (end 15.45 -2.31) (layer F.SilkS) (width 0.12))
  (fp_line (start 15.45 -2.31) (end 13.55 -2.31) (layer F.SilkS) (width 0.12))
  (fp_line (start 13.55 -2.31) (end 13.55 -3.31) (layer F.SilkS) (width 0.12))
  (fp_line (start 13.55 -3.31) (end 11.45 -3.31) (layer F.SilkS) (width 0.12))
  (fp_line (start 11.45 -3.31) (end 11.45 -2.31) (layer F.SilkS) (width 0.12))
  (fp_line (start 11.45 -2.31) (end -0.31 -2.31) (layer F.SilkS) (width 0.12))
  (fp_line (start -0.31 -2.31) (end -0.31 -3.31) (layer F.SilkS) (width 0.12))
  (fp_line (start -0.31 -3.31) (end -2.61 -3.31) (layer F.SilkS) (width 0.12))
  (fp_line (start -1.6 -1.7) (end -1.6 2.6) (layer F.SilkS) (width 0.12))
  (fp_line (start -1.6 2.6) (end 34.1 2.6) (layer F.SilkS) (width 0.12))
  (fp_line (start 34.1 2.6) (end 34.1 -1.7) (layer F.SilkS) (width 0.12))
  (fp_line (start 34.1 -1.7) (end -1.6 -1.7) (layer F.SilkS) (width 0.12))
  (fp_line (start -2.61 0) (end -1.6 0) (layer F.SilkS) (width 0.12))
  (fp_line (start 35.11 0) (end 34.1 0) (layer F.SilkS) (width 0.12))
  (fp_line (start -1.66 -3.61) (end -2.91 -3.61) (layer F.SilkS) (width 0.12))
  (fp_line (start -2.91 -3.61) (end -2.91 -2.36) (layer F.SilkS) (width 0.12))
  (fp_line (start -1.66 -3.61) (end -2.91 -3.61) (layer F.Fab) (width 0.1))
  (fp_line (start -2.91 -3.61) (end -2.91 -2.36) (layer F.Fab) (width 0.1))
  (fp_line (start -2.5 -3.2) (end -2.5 3.2) (layer F.Fab) (width 0.1))
  (fp_line (start -2.5 3.2) (end 35 3.2) (layer F.Fab) (width 0.1))
  (fp_line (start 35 3.2) (end 35 -3.2) (layer F.Fab) (width 0.1))
  (fp_line (start 35 -3.2) (end -2.5 -3.2) (layer F.Fab) (width 0.1))
  (fp_line (start -3 -3.7) (end -3 3.7) (layer F.CrtYd) (width 0.05))
  (fp_line (start -3 3.7) (end 35.5 3.7) (layer F.CrtYd) (width 0.05))
  (fp_line (start 35.5 3.7) (end 35.5 -3.7) (layer F.CrtYd) (width 0.05))
  (fp_line (start 35.5 -3.7) (end -3 -3.7) (layer F.CrtYd) (width 0.05))
  (pad 1 thru_hole roundrect (at 0 0) (size 1.7 1.95) (drill 0.95) (layers *.Cu *.Mask) (roundrect_rratio 0.147059))
  (pad 2 thru_hole oval (at 2.5 0) (size 1.7 1.95) (drill 0.95) (layers *.Cu *.Mask))
  (pad 3 thru_hole oval (at 5 0) (size 1.7 1.95) (drill 0.95) (layers *.Cu *.Mask))
  (pad 4 thru_hole oval (at 7.5 0) (size 1.7 1.95) (drill 0.95) (layers *.Cu *.Mask))
  (pad 5 thru_hole oval (at 10 0) (size 1.7 1.95) (drill 0.95) (layers *.Cu *.Mask))
  (pad 6 thru_hole oval (at 12.5 0) (size 1.7 1.95) (drill 0.95) (layers *.Cu *.Mask))
  (pad 7 thru_hole oval (at 15 0) (size 1.7 1.95) (drill 0.95) (layers *.Cu *.Mask))
  (pad 8 thru_hole oval (at 17.5 0) (size 1.7 1.95) (drill 0.95) (layers *.Cu *.Mask))
  (pad 9 thru_hole oval (at 20 0) (size 1.7 1.95) (drill 0.95) (layers *.Cu *.Mask))
  (pad 10 thru_hole oval (at 22.5 0) (size 1.7 1.95) (drill 0.95) (layers *.Cu *.Mask))
  (pad 11 thru_hole oval (at 25 0) (size 1.7 1.95) (drill 0.95) (layers *.Cu *.Mask))
  (pad 12 thru_hole oval (at 27.5 0) (size 1.7 1.95) (drill 0.95) (layers *.Cu *.Mask))
  (pad 13 thru_hole oval (at 30 0) (size 1.7 1.95) (drill 0.95) (layers *.Cu *.Mask))
  (pad 14 thru_hole oval (at 32.5 0) (size 1.7 1.95) (drill 0.95) (layers *.Cu *.Mask))
  (fp_text user %R (at 16.25 1.5) (layer F.Fab)
    (effects (font (size 1 1) (thickness 0.15)))
  )
  (model ${KICAD6_3DMODEL_DIR}/Connector_JST.3dshapes/JST_XA_B14B-XASK-1_1x14_P2.50mm_Vertical.wrl
    (at (xyz 0 0 0))
    (scale (xyz 1 1 1))
    (rotate (xyz 0 0 0))
  )
)