(module JST_ZE_S13B-ZESK-2D_1x13_P1.50mm_Horizontal (layer F.Cu) (tedit 5B775643)
  (descr "JST ZE series connector, S13B-ZESK-2D (http://www.jst-mfg.com/product/pdf/eng/eZE.pdf), generated with kicad-footprint-generator")
  (tags "connector JST ZE top entry")
  (fp_text reference REF** (at 9 -2.08) (layer F.SilkS)
    (effects (font (size 1 1) (thickness 0.15)))
  )
  (fp_text value JST_ZE_S13B-ZESK-2D_1x13_P1.50mm_Horizontal (at 9 8.55) (layer F.Fab)
    (effects (font (size 1 1) (thickness 0.15)))
  )
  (fp_line (start -2.25 -0.45) (end -2.25 7.35) (layer F.Fab) (width 0.1))
  (fp_line (start -2.25 7.35) (end 20.25 7.35) (layer F.Fab) (width 0.1))
  (fp_line (start 20.25 7.35) (end 20.25 -0.45) (layer F.Fab) (width 0.1))
  (fp_line (start 20.25 -0.45) (end -2.25 -0.45) (layer F.Fab) (width 0.1))
  (fp_line (start -2.75 -1.38) (end -2.75 7.85) (layer F.CrtYd) (width 0.05))
  (fp_line (start -2.75 7.85) (end 20.75 7.85) (layer F.CrtYd) (width 0.05))
  (fp_line (start 20.75 7.85) (end 20.75 -1.38) (layer F.CrtYd) (width 0.05))
  (fp_line (start 20.75 -1.38) (end -2.75 -1.38) (layer F.CrtYd) (width 0.05))
  (fp_line (start -0.96 -0.56) (end -2.36 -0.56) (layer F.SilkS) (width 0.12))
  (fp_line (start -2.36 -0.56) (end -2.36 7.46) (layer F.SilkS) (width 0.12))
  (fp_line (start -2.36 7.46) (end 20.36 7.46) (layer F.SilkS) (width 0.12))
  (fp_line (start 20.36 7.46) (end 20.36 -0.56) (layer F.SilkS) (width 0.12))
  (fp_line (start 20.36 -0.56) (end 18.96 -0.56) (layer F.SilkS) (width 0.12))
  (fp_line (start 0.96 -0.56) (end 2.04 -0.56) (layer F.SilkS) (width 0.12))
  (fp_line (start 3.96 -0.56) (end 5.04 -0.56) (layer F.SilkS) (width 0.12))
  (fp_line (start 6.96 -0.56) (end 8.04 -0.56) (layer F.SilkS) (width 0.12))
  (fp_line (start 9.96 -0.56) (end 11.04 -0.56) (layer F.SilkS) (width 0.12))
  (fp_line (start 12.96 -0.56) (end 14.04 -0.56) (layer F.SilkS) (width 0.12))
  (fp_line (start 15.96 -0.56) (end 17.04 -0.56) (layer F.SilkS) (width 0.12))
  (fp_line (start 0.11 7.46) (end 0.11 6.46) (layer F.SilkS) (width 0.12))
  (fp_line (start 0.11 6.46) (end 17.89 6.46) (layer F.SilkS) (width 0.12))
  (fp_line (start 17.89 6.46) (end 17.89 7.46) (layer F.SilkS) (width 0.12))
  (fp_line (start -2.66 0.64) (end -2.66 -0.86) (layer F.SilkS) (width 0.12))
  (fp_line (start -2.66 -0.86) (end -1.16 -0.86) (layer F.SilkS) (width 0.12))
  (fp_line (start -2.66 0.64) (end -2.66 -0.86) (layer F.Fab) (width 0.1))
  (fp_line (start -2.66 -0.86) (end -1.16 -0.86) (layer F.Fab) (width 0.1))
  (pad 1 thru_hole roundrect (at 0 0) (size 1.4 1.75) (drill 0.75) (layers *.Cu *.Mask) (roundrect_rratio 0.178571))
  (pad 3 thru_hole oval (at 3 0) (size 1.4 1.75) (drill 0.75) (layers *.Cu *.Mask))
  (pad 5 thru_hole oval (at 6 0) (size 1.4 1.75) (drill 0.75) (layers *.Cu *.Mask))
  (pad 7 thru_hole oval (at 9 0) (size 1.4 1.75) (drill 0.75) (layers *.Cu *.Mask))
  (pad 9 thru_hole oval (at 12 0) (size 1.4 1.75) (drill 0.75) (layers *.Cu *.Mask))
  (pad 11 thru_hole oval (at 15 0) (size 1.4 1.75) (drill 0.75) (layers *.Cu *.Mask))
  (pad 13 thru_hole oval (at 18 0) (size 1.4 1.75) (drill 0.75) (layers *.Cu *.Mask))
  (pad 2 thru_hole oval (at 1.5 3.7) (size 1.4 1.75) (drill 0.75) (layers *.Cu *.Mask))
  (pad 4 thru_hole oval (at 4.5 3.7) (size 1.4 1.75) (drill 0.75) (layers *.Cu *.Mask))
  (pad 6 thru_hole oval (at 7.5 3.7) (size 1.4 1.75) (drill 0.75) (layers *.Cu *.Mask))
  (pad 8 thru_hole oval (at 10.5 3.7) (size 1.4 1.75) (drill 0.75) (layers *.Cu *.Mask))
  (pad 10 thru_hole oval (at 13.5 3.7) (size 1.4 1.75) (drill 0.75) (layers *.Cu *.Mask))
  (pad 12 thru_hole oval (at 16.5 3.7) (size 1.4 1.75) (drill 0.75) (layers *.Cu *.Mask))
  (pad "" np_thru_hole circle (at -1.55 1.85) (size 1.15 1.15) (drill 1.15) (layers *.Cu *.Mask))
  (pad "" np_thru_hole circle (at 19.55 1.85) (size 1.15 1.15) (drill 1.15) (layers *.Cu *.Mask))
  (fp_text user %R (at 9 3.45) (layer F.Fab)
    (effects (font (size 1 1) (thickness 0.15)))
  )
  (model ${KICAD6_3DMODEL_DIR}/Connector_JST.3dshapes/JST_ZE_S13B-ZESK-2D_1x13_P1.50mm_Horizontal.wrl
    (at (xyz 0 0 0))
    (scale (xyz 1 1 1))
    (rotate (xyz 0 0 0))
  )
)