(module JST_XA_B07B-XASK-1-A_1x07_P2.50mm_Vertical (layer F.Cu) (tedit 5E8E6554)
  (descr "JST XA series connector, B07B-XASK-1-A (http://www.jst-mfg.com/product/pdf/eng/eXA1.pdf), generated with kicad-footprint-generator")
  (tags "connector JST XA vertical boss")
  (fp_text reference REF** (at 7.5 -4.4) (layer F.SilkS)
    (effects (font (size 1 1) (thickness 0.15)))
  )
  (fp_text value JST_XA_B07B-XASK-1-A_1x07_P2.50mm_Vertical (at 7.5 4.4) (layer F.Fab)
    (effects (font (size 1 1) (thickness 0.15)))
  )
  (fp_line (start -2.61 -3.31) (end -2.61 3.31) (layer F.SilkS) (width 0.12))
  (fp_line (start -2.61 3.31) (end 17.61 3.31) (layer F.SilkS) (width 0.12))
  (fp_line (start 17.61 3.31) (end 17.61 -3.31) (layer F.SilkS) (width 0.12))
  (fp_line (start 17.61 -3.31) (end 15.31 -3.31) (layer F.SilkS) (width 0.12))
  (fp_line (start 15.31 -3.31) (end 15.31 -2.31) (layer F.SilkS) (width 0.12))
  (fp_line (start 15.31 -2.31) (end 12.3 -2.31) (layer F.SilkS) (width 0.12))
  (fp_line (start 12.3 -2.31) (end 12.3 -3.31) (layer F.SilkS) (width 0.12))
  (fp_line (start 12.3 -3.31) (end 10.2 -3.31) (layer F.SilkS) (width 0.12))
  (fp_line (start 10.2 -3.31) (end 10.2 -2.31) (layer F.SilkS) (width 0.12))
  (fp_line (start 10.2 -2.31) (end 8.3 -2.31) (layer F.SilkS) (width 0.12))
  (fp_line (start 8.3 -2.31) (end 8.3 -2.91) (layer F.SilkS) (width 0.12))
  (fp_line (start 8.3 -2.91) (end 6.7 -2.91) (layer F.SilkS) (width 0.12))
  (fp_line (start 6.7 -2.91) (end 6.7 -2.31) (layer F.SilkS) (width 0.12))
  (fp_line (start 6.7 -2.31) (end 4.8 -2.31) (layer F.SilkS) (width 0.12))
  (fp_line (start 4.8 -2.31) (end 4.8 -3.31) (layer F.SilkS) (width 0.12))
  (fp_line (start 4.8 -3.31) (end 2.7 -3.31) (layer F.SilkS) (width 0.12))
  (fp_line (start 2.7 -3.31) (end 2.7 -2.31) (layer F.SilkS) (width 0.12))
  (fp_line (start 2.7 -2.31) (end -0.31 -2.31) (layer F.SilkS) (width 0.12))
  (fp_line (start -0.31 -2.31) (end -0.31 -3.31) (layer F.SilkS) (width 0.12))
  (fp_line (start -0.31 -3.31) (end -2.61 -3.31) (layer F.SilkS) (width 0.12))
  (fp_line (start -1.6 0.6) (end -1.6 -1.7) (layer F.SilkS) (width 0.12))
  (fp_line (start -1.6 -1.7) (end 16.6 -1.7) (layer F.SilkS) (width 0.12))
  (fp_line (start 16.6 -1.7) (end 16.6 2.6) (layer F.SilkS) (width 0.12))
  (fp_line (start 16.6 2.6) (end -1.6 2.6) (layer F.SilkS) (width 0.12))
  (fp_line (start -2.61 0) (end -1.6 0) (layer F.SilkS) (width 0.12))
  (fp_line (start 17.61 0) (end 16.6 0) (layer F.SilkS) (width 0.12))
  (fp_line (start -1.66 -3.61) (end -2.91 -3.61) (layer F.SilkS) (width 0.12))
  (fp_line (start -2.91 -3.61) (end -2.91 -2.36) (layer F.SilkS) (width 0.12))
  (fp_line (start -1.66 -3.61) (end -2.91 -3.61) (layer F.Fab) (width 0.1))
  (fp_line (start -2.91 -3.61) (end -2.91 -2.36) (layer F.Fab) (width 0.1))
  (fp_line (start -2.5 -3.2) (end -2.5 3.2) (layer F.Fab) (width 0.1))
  (fp_line (start -2.5 3.2) (end 17.5 3.2) (layer F.Fab) (width 0.1))
  (fp_line (start 17.5 3.2) (end 17.5 -3.2) (layer F.Fab) (width 0.1))
  (fp_line (start 17.5 -3.2) (end -2.5 -3.2) (layer F.Fab) (width 0.1))
  (fp_line (start -3 -3.7) (end -3 3.7) (layer F.CrtYd) (width 0.05))
  (fp_line (start -3 3.7) (end 18 3.7) (layer F.CrtYd) (width 0.05))
  (fp_line (start 18 3.7) (end 18 -3.7) (layer F.CrtYd) (width 0.05))
  (fp_line (start 18 -3.7) (end -3 -3.7) (layer F.CrtYd) (width 0.05))
  (pad 1 thru_hole roundrect (at 0 0) (size 1.7 1.95) (drill 0.95) (layers *.Cu *.Mask) (roundrect_rratio 0.147059))
  (pad 2 thru_hole oval (at 2.5 0) (size 1.7 1.95) (drill 0.95) (layers *.Cu *.Mask))
  (pad 3 thru_hole oval (at 5 0) (size 1.7 1.95) (drill 0.95) (layers *.Cu *.Mask))
  (pad 4 thru_hole oval (at 7.5 0) (size 1.7 1.95) (drill 0.95) (layers *.Cu *.Mask))
  (pad 5 thru_hole oval (at 10 0) (size 1.7 1.95) (drill 0.95) (layers *.Cu *.Mask))
  (pad 6 thru_hole oval (at 12.5 0) (size 1.7 1.95) (drill 0.95) (layers *.Cu *.Mask))
  (pad 7 thru_hole oval (at 15 0) (size 1.7 1.95) (drill 0.95) (layers *.Cu *.Mask))
  (pad "" np_thru_hole circle (at -1.6 1.6) (size 1.25 1.25) (drill 1.25) (layers *.Cu *.Mask))
  (fp_text user %R (at 7.5 1.5) (layer F.Fab)
    (effects (font (size 1 1) (thickness 0.15)))
  )
  (model ${KICAD6_3DMODEL_DIR}/Connector_JST.3dshapes/JST_XA_B07B-XASK-1-A_1x07_P2.50mm_Vertical.wrl
    (at (xyz 0 0 0))
    (scale (xyz 1 1 1))
    (rotate (xyz 0 0 0))
  )
)