(module JST_ZE_SM10B-ZESS-TB_1x10-1MP_P1.50mm_Horizontal (layer F.Cu) (tedit 5C2814BC)
  (descr "JST ZE series connector, SM10B-ZESS-TB (http://www.jst-mfg.com/product/pdf/eng/eZE.pdf), generated with kicad-footprint-generator")
  (tags "connector JST ZE horizontal")
  (attr smd)
  (fp_text reference REF** (at 0 -5.22) (layer F.SilkS)
    (effects (font (size 1 1) (thickness 0.15)))
  )
  (fp_text value JST_ZE_SM10B-ZESS-TB_1x10-1MP_P1.50mm_Horizontal (at 0 6.68) (layer F.Fab)
    (effects (font (size 1 1) (thickness 0.15)))
  )
  (fp_line (start -9.75 -2.025) (end 9.75 -2.025) (layer F.Fab) (width 0.1))
  (fp_line (start -9.86 -0.035) (end -9.86 -2.135) (layer F.SilkS) (width 0.12))
  (fp_line (start -9.86 -2.135) (end -7.41 -2.135) (layer F.SilkS) (width 0.12))
  (fp_line (start -7.41 -2.135) (end -7.41 -4.025) (layer F.SilkS) (width 0.12))
  (fp_line (start 9.86 -0.035) (end 9.86 -2.135) (layer F.SilkS) (width 0.12))
  (fp_line (start 9.86 -2.135) (end 7.41 -2.135) (layer F.SilkS) (width 0.12))
  (fp_line (start -9.86 4.285) (end -9.86 5.585) (layer F.SilkS) (width 0.12))
  (fp_line (start -9.86 5.585) (end 9.86 5.585) (layer F.SilkS) (width 0.12))
  (fp_line (start 9.86 5.585) (end 9.86 4.285) (layer F.SilkS) (width 0.12))
  (fp_line (start -9.75 5.475) (end 9.75 5.475) (layer F.Fab) (width 0.1))
  (fp_line (start -9.75 -2.025) (end -9.75 5.475) (layer F.Fab) (width 0.1))
  (fp_line (start 9.75 -2.025) (end 9.75 5.475) (layer F.Fab) (width 0.1))
  (fp_line (start -10.75 -4.52) (end -10.75 5.98) (layer F.CrtYd) (width 0.05))
  (fp_line (start -10.75 5.98) (end 10.75 5.98) (layer F.CrtYd) (width 0.05))
  (fp_line (start 10.75 5.98) (end 10.75 -4.52) (layer F.CrtYd) (width 0.05))
  (fp_line (start 10.75 -4.52) (end -10.75 -4.52) (layer F.CrtYd) (width 0.05))
  (fp_line (start -7.25 -2.025) (end -6.75 -1.317893) (layer F.Fab) (width 0.1))
  (fp_line (start -6.75 -1.317893) (end -6.25 -2.025) (layer F.Fab) (width 0.1))
  (pad 1 smd roundrect (at -6.75 -2.575) (size 0.8 2.9) (layers F.Cu F.Mask F.Paste) (roundrect_rratio 0.25))
  (pad 2 smd roundrect (at -5.25 -2.575) (size 0.8 2.9) (layers F.Cu F.Mask F.Paste) (roundrect_rratio 0.25))
  (pad 3 smd roundrect (at -3.75 -2.575) (size 0.8 2.9) (layers F.Cu F.Mask F.Paste) (roundrect_rratio 0.25))
  (pad 4 smd roundrect (at -2.25 -2.575) (size 0.8 2.9) (layers F.Cu F.Mask F.Paste) (roundrect_rratio 0.25))
  (pad 5 smd roundrect (at -0.75 -2.575) (size 0.8 2.9) (layers F.Cu F.Mask F.Paste) (roundrect_rratio 0.25))
  (pad 6 smd roundrect (at 0.75 -2.575) (size 0.8 2.9) (layers F.Cu F.Mask F.Paste) (roundrect_rratio 0.25))
  (pad 7 smd roundrect (at 2.25 -2.575) (size 0.8 2.9) (layers F.Cu F.Mask F.Paste) (roundrect_rratio 0.25))
  (pad 8 smd roundrect (at 3.75 -2.575) (size 0.8 2.9) (layers F.Cu F.Mask F.Paste) (roundrect_rratio 0.25))
  (pad 9 smd roundrect (at 5.25 -2.575) (size 0.8 2.9) (layers F.Cu F.Mask F.Paste) (roundrect_rratio 0.25))
  (pad 10 smd roundrect (at 6.75 -2.575) (size 0.8 2.9) (layers F.Cu F.Mask F.Paste) (roundrect_rratio 0.25))
  (pad MP smd roundrect (at -9.35 2.125) (size 1.8 3.8) (layers F.Cu F.Mask F.Paste) (roundrect_rratio 0.138889))
  (pad MP smd roundrect (at 9.35 2.125) (size 1.8 3.8) (layers F.Cu F.Mask F.Paste) (roundrect_rratio 0.138889))
  (fp_text user %R (at 0 0) (layer F.Fab)
    (effects (font (size 1 1) (thickness 0.15)))
  )
  (model ${KICAD6_3DMODEL_DIR}/Connector_JST.3dshapes/JST_ZE_SM10B-ZESS-TB_1x10-1MP_P1.50mm_Horizontal.wrl
    (at (xyz 0 0 0))
    (scale (xyz 1 1 1))
    (rotate (xyz 0 0 0))
  )
)