(module JST_ZE_S02B-ZESK-2D_1x02_P1.50mm_Horizontal (layer F.Cu) (tedit 5B775643)
  (descr "JST ZE series connector, S02B-ZESK-2D (http://www.jst-mfg.com/product/pdf/eng/eZE.pdf), generated with kicad-footprint-generator")
  (tags "connector JST ZE top entry")
  (fp_text reference REF** (at 0.75 -2.08) (layer F.SilkS)
    (effects (font (size 1 1) (thickness 0.15)))
  )
  (fp_text value JST_ZE_S02B-ZESK-2D_1x02_P1.50mm_Horizontal (at 0.75 8.55) (layer F.Fab)
    (effects (font (size 1 1) (thickness 0.15)))
  )
  (fp_line (start -2.25 -0.45) (end -2.25 7.35) (layer F.Fab) (width 0.1))
  (fp_line (start -2.25 7.35) (end 3.75 7.35) (layer F.Fab) (width 0.1))
  (fp_line (start 3.75 7.35) (end 3.75 -0.45) (layer F.Fab) (width 0.1))
  (fp_line (start 3.75 -0.45) (end -2.25 -0.45) (layer F.Fab) (width 0.1))
  (fp_line (start -2.75 -1.38) (end -2.75 7.85) (layer F.CrtYd) (width 0.05))
  (fp_line (start -2.75 7.85) (end 4.25 7.85) (layer F.CrtYd) (width 0.05))
  (fp_line (start 4.25 7.85) (end 4.25 -1.38) (layer F.CrtYd) (width 0.05))
  (fp_line (start 4.25 -1.38) (end -2.75 -1.38) (layer F.CrtYd) (width 0.05))
  (fp_line (start -0.96 -0.56) (end -2.36 -0.56) (layer F.SilkS) (width 0.12))
  (fp_line (start -2.36 -0.56) (end -2.36 7.46) (layer F.SilkS) (width 0.12))
  (fp_line (start -2.36 7.46) (end 3.86 7.46) (layer F.SilkS) (width 0.12))
  (fp_line (start 3.86 7.46) (end 3.86 -0.56) (layer F.SilkS) (width 0.12))
  (fp_line (start 3.86 -0.56) (end 0.96 -0.56) (layer F.SilkS) (width 0.12))
  (fp_line (start 0.11 7.46) (end 0.11 6.46) (layer F.SilkS) (width 0.12))
  (fp_line (start 0.11 6.46) (end 1.39 6.46) (layer F.SilkS) (width 0.12))
  (fp_line (start 1.39 6.46) (end 1.39 7.46) (layer F.SilkS) (width 0.12))
  (fp_line (start -2.66 0.64) (end -2.66 -0.86) (layer F.SilkS) (width 0.12))
  (fp_line (start -2.66 -0.86) (end -1.16 -0.86) (layer F.SilkS) (width 0.12))
  (fp_line (start -2.66 0.64) (end -2.66 -0.86) (layer F.Fab) (width 0.1))
  (fp_line (start -2.66 -0.86) (end -1.16 -0.86) (layer F.Fab) (width 0.1))
  (pad 1 thru_hole roundrect (at 0 0) (size 1.4 1.75) (drill 0.75) (layers *.Cu *.Mask) (roundrect_rratio 0.178571))
  (pad 2 thru_hole oval (at 1.5 3.7) (size 1.4 1.75) (drill 0.75) (layers *.Cu *.Mask))
  (pad "" np_thru_hole circle (at -1.55 1.85) (size 1.15 1.15) (drill 1.15) (layers *.Cu *.Mask))
  (pad "" np_thru_hole circle (at 3.05 1.85) (size 1.15 1.15) (drill 1.15) (layers *.Cu *.Mask))
  (fp_text user %R (at 0.75 3.45) (layer F.Fab)
    (effects (font (size 1 1) (thickness 0.15)))
  )
  (model ${KICAD6_3DMODEL_DIR}/Connector_JST.3dshapes/JST_ZE_S02B-ZESK-2D_1x02_P1.50mm_Horizontal.wrl
    (at (xyz 0 0 0))
    (scale (xyz 1 1 1))
    (rotate (xyz 0 0 0))
  )
)