(module JST_PH_S13B-PH-SM4-TB_1x13-1MP_P2.00mm_Horizontal (layer F.Cu) (tedit 5B78AD87)
  (descr "JST PH series connector, S13B-PH-SM4-TB (http://www.jst-mfg.com/product/pdf/eng/ePH.pdf), generated with kicad-footprint-generator")
  (tags "connector JST PH top entry")
  (attr smd)
  (fp_text reference REF** (at 0 -5.8) (layer F.SilkS)
    (effects (font (size 1 1) (thickness 0.15)))
  )
  (fp_text value JST_PH_S13B-PH-SM4-TB_1x13-1MP_P2.00mm_Horizontal (at 0 5.8) (layer F.Fab)
    (effects (font (size 1 1) (thickness 0.15)))
  )
  (fp_line (start -14.95 -3.2) (end -14.15 -3.2) (layer F.Fab) (width 0.1))
  (fp_line (start -14.15 -3.2) (end -14.15 -1.6) (layer F.Fab) (width 0.1))
  (fp_line (start -14.15 -1.6) (end 14.15 -1.6) (layer F.Fab) (width 0.1))
  (fp_line (start 14.15 -1.6) (end 14.15 -3.2) (layer F.Fab) (width 0.1))
  (fp_line (start 14.15 -3.2) (end 14.95 -3.2) (layer F.Fab) (width 0.1))
  (fp_line (start -15.06 0.94) (end -15.06 -3.31) (layer F.SilkS) (width 0.12))
  (fp_line (start -15.06 -3.31) (end -14.04 -3.31) (layer F.SilkS) (width 0.12))
  (fp_line (start -14.04 -3.31) (end -14.04 -1.71) (layer F.SilkS) (width 0.12))
  (fp_line (start -14.04 -1.71) (end -12.76 -1.71) (layer F.SilkS) (width 0.12))
  (fp_line (start -12.76 -1.71) (end -12.76 -4.6) (layer F.SilkS) (width 0.12))
  (fp_line (start 15.06 0.94) (end 15.06 -3.31) (layer F.SilkS) (width 0.12))
  (fp_line (start 15.06 -3.31) (end 14.04 -3.31) (layer F.SilkS) (width 0.12))
  (fp_line (start 14.04 -3.31) (end 14.04 -1.71) (layer F.SilkS) (width 0.12))
  (fp_line (start 14.04 -1.71) (end 12.76 -1.71) (layer F.SilkS) (width 0.12))
  (fp_line (start -13.34 4.51) (end 13.34 4.51) (layer F.SilkS) (width 0.12))
  (fp_line (start -14.95 4.4) (end 14.95 4.4) (layer F.Fab) (width 0.1))
  (fp_line (start -14.95 -3.2) (end -14.95 4.4) (layer F.Fab) (width 0.1))
  (fp_line (start 14.95 -3.2) (end 14.95 4.4) (layer F.Fab) (width 0.1))
  (fp_line (start -15.6 -5.1) (end -15.6 5.1) (layer F.CrtYd) (width 0.05))
  (fp_line (start -15.6 5.1) (end 15.6 5.1) (layer F.CrtYd) (width 0.05))
  (fp_line (start 15.6 5.1) (end 15.6 -5.1) (layer F.CrtYd) (width 0.05))
  (fp_line (start 15.6 -5.1) (end -15.6 -5.1) (layer F.CrtYd) (width 0.05))
  (fp_line (start -12.5 -1.6) (end -12 -0.892893) (layer F.Fab) (width 0.1))
  (fp_line (start -12 -0.892893) (end -11.5 -1.6) (layer F.Fab) (width 0.1))
  (pad 1 smd roundrect (at -12 -2.85) (size 1 3.5) (layers F.Cu F.Mask F.Paste) (roundrect_rratio 0.25))
  (pad 2 smd roundrect (at -10 -2.85) (size 1 3.5) (layers F.Cu F.Mask F.Paste) (roundrect_rratio 0.25))
  (pad 3 smd roundrect (at -8 -2.85) (size 1 3.5) (layers F.Cu F.Mask F.Paste) (roundrect_rratio 0.25))
  (pad 4 smd roundrect (at -6 -2.85) (size 1 3.5) (layers F.Cu F.Mask F.Paste) (roundrect_rratio 0.25))
  (pad 5 smd roundrect (at -4 -2.85) (size 1 3.5) (layers F.Cu F.Mask F.Paste) (roundrect_rratio 0.25))
  (pad 6 smd roundrect (at -2 -2.85) (size 1 3.5) (layers F.Cu F.Mask F.Paste) (roundrect_rratio 0.25))
  (pad 7 smd roundrect (at 0 -2.85) (size 1 3.5) (layers F.Cu F.Mask F.Paste) (roundrect_rratio 0.25))
  (pad 8 smd roundrect (at 2 -2.85) (size 1 3.5) (layers F.Cu F.Mask F.Paste) (roundrect_rratio 0.25))
  (pad 9 smd roundrect (at 4 -2.85) (size 1 3.5) (layers F.Cu F.Mask F.Paste) (roundrect_rratio 0.25))
  (pad 10 smd roundrect (at 6 -2.85) (size 1 3.5) (layers F.Cu F.Mask F.Paste) (roundrect_rratio 0.25))
  (pad 11 smd roundrect (at 8 -2.85) (size 1 3.5) (layers F.Cu F.Mask F.Paste) (roundrect_rratio 0.25))
  (pad 12 smd roundrect (at 10 -2.85) (size 1 3.5) (layers F.Cu F.Mask F.Paste) (roundrect_rratio 0.25))
  (pad 13 smd roundrect (at 12 -2.85) (size 1 3.5) (layers F.Cu F.Mask F.Paste) (roundrect_rratio 0.25))
  (pad MP smd roundrect (at -14.35 2.9) (size 1.5 3.4) (layers F.Cu F.Mask F.Paste) (roundrect_rratio 0.166667))
  (pad MP smd roundrect (at 14.35 2.9) (size 1.5 3.4) (layers F.Cu F.Mask F.Paste) (roundrect_rratio 0.166667))
  (fp_text user %R (at 0 1.5) (layer F.Fab)
    (effects (font (size 1 1) (thickness 0.15)))
  )
  (model ${KICAD6_3DMODEL_DIR}/Connector_JST.3dshapes/JST_PH_S13B-PH-SM4-TB_1x13-1MP_P2.00mm_Horizontal.wrl
    (at (xyz 0 0 0))
    (scale (xyz 1 1 1))
    (rotate (xyz 0 0 0))
  )
)