(module JST_PUD_B24B-PUDSS_2x12_P2.00mm_Vertical (layer F.Cu) (tedit 5B774931)
  (descr "JST PUD series connector, B24B-PUDSS (http://www.jst-mfg.com/product/pdf/eng/ePUD.pdf), generated with kicad-footprint-generator")
  (tags "connector JST PUD side entry")
  (fp_text reference REF** (at 11 -5.1) (layer F.SilkS)
    (effects (font (size 1 1) (thickness 0.15)))
  )
  (fp_text value JST_PUD_B24B-PUDSS_2x12_P2.00mm_Vertical (at 11 5.6) (layer F.Fab)
    (effects (font (size 1 1) (thickness 0.15)))
  )
  (fp_line (start -2 -3.9) (end -2 4.4) (layer F.Fab) (width 0.1))
  (fp_line (start -2 4.4) (end 24 4.4) (layer F.Fab) (width 0.1))
  (fp_line (start 24 4.4) (end 24 -3.9) (layer F.Fab) (width 0.1))
  (fp_line (start 24 -3.9) (end -2 -3.9) (layer F.Fab) (width 0.1))
  (fp_line (start 5.25 -3.15) (end 5.25 -2.4) (layer F.SilkS) (width 0.12))
  (fp_line (start 5.25 -2.4) (end 16.75 -2.4) (layer F.SilkS) (width 0.12))
  (fp_line (start 16.75 -2.4) (end 16.75 -3.15) (layer F.SilkS) (width 0.12))
  (fp_line (start 16.75 -3.15) (end 5.25 -3.15) (layer F.SilkS) (width 0.12))
  (fp_line (start -2.5 -4.4) (end -2.5 4.9) (layer F.CrtYd) (width 0.05))
  (fp_line (start -2.5 4.9) (end 24.5 4.9) (layer F.CrtYd) (width 0.05))
  (fp_line (start 24.5 4.9) (end 24.5 -4.4) (layer F.CrtYd) (width 0.05))
  (fp_line (start 24.5 -4.4) (end -2.5 -4.4) (layer F.CrtYd) (width 0.05))
  (fp_line (start 4.5 -4.01) (end 4.5 -2.4) (layer F.SilkS) (width 0.12))
  (fp_line (start 4.5 -2.4) (end 3.75 -2.4) (layer F.SilkS) (width 0.12))
  (fp_line (start 3.75 -2.4) (end 3.75 -3.15) (layer F.SilkS) (width 0.12))
  (fp_line (start 3.75 -3.15) (end -1.25 -3.15) (layer F.SilkS) (width 0.12))
  (fp_line (start -1.25 -3.15) (end -1.25 3.65) (layer F.SilkS) (width 0.12))
  (fp_line (start -1.25 3.65) (end 11 3.65) (layer F.SilkS) (width 0.12))
  (fp_line (start 17.5 -4.01) (end 17.5 -2.4) (layer F.SilkS) (width 0.12))
  (fp_line (start 17.5 -2.4) (end 18.25 -2.4) (layer F.SilkS) (width 0.12))
  (fp_line (start 18.25 -2.4) (end 18.25 -3.15) (layer F.SilkS) (width 0.12))
  (fp_line (start 18.25 -3.15) (end 23.25 -3.15) (layer F.SilkS) (width 0.12))
  (fp_line (start 23.25 -3.15) (end 23.25 3.65) (layer F.SilkS) (width 0.12))
  (fp_line (start 23.25 3.65) (end 11 3.65) (layer F.SilkS) (width 0.12))
  (fp_line (start -2.11 -4.01) (end -2.11 4.51) (layer F.SilkS) (width 0.12))
  (fp_line (start -2.11 4.51) (end 24.11 4.51) (layer F.SilkS) (width 0.12))
  (fp_line (start 24.11 4.51) (end 24.11 -4.01) (layer F.SilkS) (width 0.12))
  (fp_line (start 24.11 -4.01) (end -2.11 -4.01) (layer F.SilkS) (width 0.12))
  (fp_line (start -2.31 0) (end -2.91 0.3) (layer F.SilkS) (width 0.12))
  (fp_line (start -2.91 0.3) (end -2.91 -0.3) (layer F.SilkS) (width 0.12))
  (fp_line (start -2.91 -0.3) (end -2.31 0) (layer F.SilkS) (width 0.12))
  (fp_line (start -2 0.5) (end -1.292893 0) (layer F.Fab) (width 0.1))
  (fp_line (start -1.292893 0) (end -2 -0.5) (layer F.Fab) (width 0.1))
  (pad 1 thru_hole roundrect (at 0 0) (size 1.2 1.2) (drill 0.75) (layers *.Cu *.Mask) (roundrect_rratio 0.208333))
  (pad 3 thru_hole circle (at 2 0) (size 1.2 1.2) (drill 0.75) (layers *.Cu *.Mask))
  (pad 5 thru_hole circle (at 4 0) (size 1.2 1.2) (drill 0.75) (layers *.Cu *.Mask))
  (pad 7 thru_hole circle (at 6 0) (size 1.2 1.2) (drill 0.75) (layers *.Cu *.Mask))
  (pad 9 thru_hole circle (at 8 0) (size 1.2 1.2) (drill 0.75) (layers *.Cu *.Mask))
  (pad 11 thru_hole circle (at 10 0) (size 1.2 1.2) (drill 0.75) (layers *.Cu *.Mask))
  (pad 13 thru_hole circle (at 12 0) (size 1.2 1.2) (drill 0.75) (layers *.Cu *.Mask))
  (pad 15 thru_hole circle (at 14 0) (size 1.2 1.2) (drill 0.75) (layers *.Cu *.Mask))
  (pad 17 thru_hole circle (at 16 0) (size 1.2 1.2) (drill 0.75) (layers *.Cu *.Mask))
  (pad 19 thru_hole circle (at 18 0) (size 1.2 1.2) (drill 0.75) (layers *.Cu *.Mask))
  (pad 21 thru_hole circle (at 20 0) (size 1.2 1.2) (drill 0.75) (layers *.Cu *.Mask))
  (pad 23 thru_hole circle (at 22 0) (size 1.2 1.2) (drill 0.75) (layers *.Cu *.Mask))
  (pad 2 thru_hole circle (at 0 2) (size 1.2 1.2) (drill 0.75) (layers *.Cu *.Mask))
  (pad 4 thru_hole circle (at 2 2) (size 1.2 1.2) (drill 0.75) (layers *.Cu *.Mask))
  (pad 6 thru_hole circle (at 4 2) (size 1.2 1.2) (drill 0.75) (layers *.Cu *.Mask))
  (pad 8 thru_hole circle (at 6 2) (size 1.2 1.2) (drill 0.75) (layers *.Cu *.Mask))
  (pad 10 thru_hole circle (at 8 2) (size 1.2 1.2) (drill 0.75) (layers *.Cu *.Mask))
  (pad 12 thru_hole circle (at 10 2) (size 1.2 1.2) (drill 0.75) (layers *.Cu *.Mask))
  (pad 14 thru_hole circle (at 12 2) (size 1.2 1.2) (drill 0.75) (layers *.Cu *.Mask))
  (pad 16 thru_hole circle (at 14 2) (size 1.2 1.2) (drill 0.75) (layers *.Cu *.Mask))
  (pad 18 thru_hole circle (at 16 2) (size 1.2 1.2) (drill 0.75) (layers *.Cu *.Mask))
  (pad 20 thru_hole circle (at 18 2) (size 1.2 1.2) (drill 0.75) (layers *.Cu *.Mask))
  (pad 22 thru_hole circle (at 20 2) (size 1.2 1.2) (drill 0.75) (layers *.Cu *.Mask))
  (pad 24 thru_hole circle (at 22 2) (size 1.2 1.2) (drill 0.75) (layers *.Cu *.Mask))
  (fp_text user %R (at 11 -3.2) (layer F.Fab)
    (effects (font (size 1 1) (thickness 0.15)))
  )
  (model ${KICAD6_3DMODEL_DIR}/Connector_JST.3dshapes/JST_PUD_B24B-PUDSS_2x12_P2.00mm_Vertical.wrl
    (at (xyz 0 0 0))
    (scale (xyz 1 1 1))
    (rotate (xyz 0 0 0))
  )
)