(module JST_EH_S7B-EH_1x07_P2.50mm_Horizontal (layer F.Cu) (tedit 5C281425)
  (descr "JST EH series connector, S7B-EH (http://www.jst-mfg.com/product/pdf/eng/eEH.pdf), generated with kicad-footprint-generator")
  (tags "connector JST EH horizontal")
  (fp_text reference REF** (at 7.5 -7.9) (layer F.SilkS)
    (effects (font (size 1 1) (thickness 0.15)))
  )
  (fp_text value JST_EH_S7B-EH_1x07_P2.50mm_Horizontal (at 7.5 2.7) (layer F.Fab)
    (effects (font (size 1 1) (thickness 0.15)))
  )
  (fp_line (start -1.5 -0.7) (end -1.5 1.5) (layer F.Fab) (width 0.1))
  (fp_line (start -1.5 1.5) (end -2.5 1.5) (layer F.Fab) (width 0.1))
  (fp_line (start -2.5 1.5) (end -2.5 -6.7) (layer F.Fab) (width 0.1))
  (fp_line (start -2.5 -6.7) (end 17.5 -6.7) (layer F.Fab) (width 0.1))
  (fp_line (start 17.5 -6.7) (end 17.5 1.5) (layer F.Fab) (width 0.1))
  (fp_line (start 17.5 1.5) (end 16.5 1.5) (layer F.Fab) (width 0.1))
  (fp_line (start 16.5 1.5) (end 16.5 -0.7) (layer F.Fab) (width 0.1))
  (fp_line (start 16.5 -0.7) (end -1.5 -0.7) (layer F.Fab) (width 0.1))
  (fp_line (start -3 -7.2) (end -3 2) (layer F.CrtYd) (width 0.05))
  (fp_line (start -3 2) (end 18 2) (layer F.CrtYd) (width 0.05))
  (fp_line (start 18 2) (end 18 -7.2) (layer F.CrtYd) (width 0.05))
  (fp_line (start 18 -7.2) (end -3 -7.2) (layer F.CrtYd) (width 0.05))
  (fp_line (start -1.39 -0.59) (end -1.39 1.61) (layer F.SilkS) (width 0.12))
  (fp_line (start -1.39 1.61) (end -2.61 1.61) (layer F.SilkS) (width 0.12))
  (fp_line (start -2.61 1.61) (end -2.61 -6.81) (layer F.SilkS) (width 0.12))
  (fp_line (start -2.61 -6.81) (end 17.61 -6.81) (layer F.SilkS) (width 0.12))
  (fp_line (start 17.61 -6.81) (end 17.61 1.61) (layer F.SilkS) (width 0.12))
  (fp_line (start 17.61 1.61) (end 16.39 1.61) (layer F.SilkS) (width 0.12))
  (fp_line (start 16.39 1.61) (end 16.39 -0.59) (layer F.SilkS) (width 0.12))
  (fp_line (start -2.61 -5.59) (end -1.39 -5.59) (layer F.SilkS) (width 0.12))
  (fp_line (start -1.39 -5.59) (end -1.39 -0.59) (layer F.SilkS) (width 0.12))
  (fp_line (start -1.39 -0.59) (end -2.61 -0.59) (layer F.SilkS) (width 0.12))
  (fp_line (start 17.61 -5.59) (end 16.39 -5.59) (layer F.SilkS) (width 0.12))
  (fp_line (start 16.39 -5.59) (end 16.39 -0.59) (layer F.SilkS) (width 0.12))
  (fp_line (start 16.39 -0.59) (end 17.61 -0.59) (layer F.SilkS) (width 0.12))
  (fp_line (start -1.39 -1.59) (end 16.39 -1.59) (layer F.SilkS) (width 0.12))
  (fp_line (start 0 -1.59) (end -0.32 -1.59) (layer F.SilkS) (width 0.12))
  (fp_line (start -0.32 -1.59) (end -0.32 -5.01) (layer F.SilkS) (width 0.12))
  (fp_line (start -0.32 -5.01) (end 0 -5.09) (layer F.SilkS) (width 0.12))
  (fp_line (start 0 -5.09) (end 0.32 -5.01) (layer F.SilkS) (width 0.12))
  (fp_line (start 0.32 -5.01) (end 0.32 -1.59) (layer F.SilkS) (width 0.12))
  (fp_line (start 0.32 -1.59) (end 0 -1.59) (layer F.SilkS) (width 0.12))
  (fp_line (start 1.17 -0.59) (end 1.33 -0.59) (layer F.SilkS) (width 0.12))
  (fp_line (start 2.5 -1.59) (end 2.18 -1.59) (layer F.SilkS) (width 0.12))
  (fp_line (start 2.18 -1.59) (end 2.18 -5.01) (layer F.SilkS) (width 0.12))
  (fp_line (start 2.18 -5.01) (end 2.5 -5.09) (layer F.SilkS) (width 0.12))
  (fp_line (start 2.5 -5.09) (end 2.82 -5.01) (layer F.SilkS) (width 0.12))
  (fp_line (start 2.82 -5.01) (end 2.82 -1.59) (layer F.SilkS) (width 0.12))
  (fp_line (start 2.82 -1.59) (end 2.5 -1.59) (layer F.SilkS) (width 0.12))
  (fp_line (start 3.67 -0.59) (end 3.83 -0.59) (layer F.SilkS) (width 0.12))
  (fp_line (start 5 -1.59) (end 4.68 -1.59) (layer F.SilkS) (width 0.12))
  (fp_line (start 4.68 -1.59) (end 4.68 -5.01) (layer F.SilkS) (width 0.12))
  (fp_line (start 4.68 -5.01) (end 5 -5.09) (layer F.SilkS) (width 0.12))
  (fp_line (start 5 -5.09) (end 5.32 -5.01) (layer F.SilkS) (width 0.12))
  (fp_line (start 5.32 -5.01) (end 5.32 -1.59) (layer F.SilkS) (width 0.12))
  (fp_line (start 5.32 -1.59) (end 5 -1.59) (layer F.SilkS) (width 0.12))
  (fp_line (start 6.17 -0.59) (end 6.33 -0.59) (layer F.SilkS) (width 0.12))
  (fp_line (start 7.5 -1.59) (end 7.18 -1.59) (layer F.SilkS) (width 0.12))
  (fp_line (start 7.18 -1.59) (end 7.18 -5.01) (layer F.SilkS) (width 0.12))
  (fp_line (start 7.18 -5.01) (end 7.5 -5.09) (layer F.SilkS) (width 0.12))
  (fp_line (start 7.5 -5.09) (end 7.82 -5.01) (layer F.SilkS) (width 0.12))
  (fp_line (start 7.82 -5.01) (end 7.82 -1.59) (layer F.SilkS) (width 0.12))
  (fp_line (start 7.82 -1.59) (end 7.5 -1.59) (layer F.SilkS) (width 0.12))
  (fp_line (start 8.67 -0.59) (end 8.83 -0.59) (layer F.SilkS) (width 0.12))
  (fp_line (start 10 -1.59) (end 9.68 -1.59) (layer F.SilkS) (width 0.12))
  (fp_line (start 9.68 -1.59) (end 9.68 -5.01) (layer F.SilkS) (width 0.12))
  (fp_line (start 9.68 -5.01) (end 10 -5.09) (layer F.SilkS) (width 0.12))
  (fp_line (start 10 -5.09) (end 10.32 -5.01) (layer F.SilkS) (width 0.12))
  (fp_line (start 10.32 -5.01) (end 10.32 -1.59) (layer F.SilkS) (width 0.12))
  (fp_line (start 10.32 -1.59) (end 10 -1.59) (layer F.SilkS) (width 0.12))
  (fp_line (start 11.17 -0.59) (end 11.33 -0.59) (layer F.SilkS) (width 0.12))
  (fp_line (start 12.5 -1.59) (end 12.18 -1.59) (layer F.SilkS) (width 0.12))
  (fp_line (start 12.18 -1.59) (end 12.18 -5.01) (layer F.SilkS) (width 0.12))
  (fp_line (start 12.18 -5.01) (end 12.5 -5.09) (layer F.SilkS) (width 0.12))
  (fp_line (start 12.5 -5.09) (end 12.82 -5.01) (layer F.SilkS) (width 0.12))
  (fp_line (start 12.82 -5.01) (end 12.82 -1.59) (layer F.SilkS) (width 0.12))
  (fp_line (start 12.82 -1.59) (end 12.5 -1.59) (layer F.SilkS) (width 0.12))
  (fp_line (start 13.67 -0.59) (end 13.83 -0.59) (layer F.SilkS) (width 0.12))
  (fp_line (start 15 -1.59) (end 14.68 -1.59) (layer F.SilkS) (width 0.12))
  (fp_line (start 14.68 -1.59) (end 14.68 -5.01) (layer F.SilkS) (width 0.12))
  (fp_line (start 14.68 -5.01) (end 15 -5.09) (layer F.SilkS) (width 0.12))
  (fp_line (start 15 -5.09) (end 15.32 -5.01) (layer F.SilkS) (width 0.12))
  (fp_line (start 15.32 -5.01) (end 15.32 -1.59) (layer F.SilkS) (width 0.12))
  (fp_line (start 15.32 -1.59) (end 15 -1.59) (layer F.SilkS) (width 0.12))
  (fp_line (start 0 1.5) (end -0.3 2.1) (layer F.SilkS) (width 0.12))
  (fp_line (start -0.3 2.1) (end 0.3 2.1) (layer F.SilkS) (width 0.12))
  (fp_line (start 0.3 2.1) (end 0 1.5) (layer F.SilkS) (width 0.12))
  (fp_line (start -0.5 -0.7) (end 0 -1.407107) (layer F.Fab) (width 0.1))
  (fp_line (start 0 -1.407107) (end 0.5 -0.7) (layer F.Fab) (width 0.1))
  (pad 1 thru_hole roundrect (at 0 0) (size 1.7 1.95) (drill 0.95) (layers *.Cu *.Mask) (roundrect_rratio 0.147059))
  (pad 2 thru_hole oval (at 2.5 0) (size 1.7 1.95) (drill 0.95) (layers *.Cu *.Mask))
  (pad 3 thru_hole oval (at 5 0) (size 1.7 1.95) (drill 0.95) (layers *.Cu *.Mask))
  (pad 4 thru_hole oval (at 7.5 0) (size 1.7 1.95) (drill 0.95) (layers *.Cu *.Mask))
  (pad 5 thru_hole oval (at 10 0) (size 1.7 1.95) (drill 0.95) (layers *.Cu *.Mask))
  (pad 6 thru_hole oval (at 12.5 0) (size 1.7 1.95) (drill 0.95) (layers *.Cu *.Mask))
  (pad 7 thru_hole oval (at 15 0) (size 1.7 1.95) (drill 0.95) (layers *.Cu *.Mask))
  (fp_text user %R (at 7.5 -2.6) (layer F.Fab)
    (effects (font (size 1 1) (thickness 0.15)))
  )
  (model ${KICAD6_3DMODEL_DIR}/Connector_JST.3dshapes/JST_EH_S7B-EH_1x07_P2.50mm_Horizontal.wrl
    (at (xyz 0 0 0))
    (scale (xyz 1 1 1))
    (rotate (xyz 0 0 0))
  )
)