(module JST_SUR_SM17B-SURS-TF_1x17-1MP_P0.80mm_Horizontal (layer F.Cu) (tedit 5B78AD88)
  (descr "JST SUR series connector, SM17B-SURS-TF (http://www.jst-mfg.com/product/pdf/eng/eSUR.pdf), generated with kicad-footprint-generator")
  (tags "connector JST SUR top entry")
  (attr smd)
  (fp_text reference REF** (at 0 -2.85) (layer F.SilkS)
    (effects (font (size 1 1) (thickness 0.15)))
  )
  (fp_text value JST_SUR_SM17B-SURS-TF_1x17-1MP_P0.80mm_Horizontal (at 0 2.85) (layer F.Fab)
    (effects (font (size 1 1) (thickness 0.15)))
  )
  (fp_line (start -7.9 -1.1) (end -7.05 -1.1) (layer F.Fab) (width 0.1))
  (fp_line (start -7.05 -1.1) (end -7.05 -1.4) (layer F.Fab) (width 0.1))
  (fp_line (start -7.05 -1.4) (end 7.05 -1.4) (layer F.Fab) (width 0.1))
  (fp_line (start 7.05 -1.4) (end 7.05 -1.1) (layer F.Fab) (width 0.1))
  (fp_line (start 7.05 -1.1) (end 7.9 -1.1) (layer F.Fab) (width 0.1))
  (fp_line (start -8.01 -0.31) (end -8.01 -1.21) (layer F.SilkS) (width 0.12))
  (fp_line (start -8.01 -1.21) (end -7.16 -1.21) (layer F.SilkS) (width 0.12))
  (fp_line (start -7.16 -1.21) (end -7.16 -1.51) (layer F.SilkS) (width 0.12))
  (fp_line (start -7.16 -1.51) (end -6.91 -1.51) (layer F.SilkS) (width 0.12))
  (fp_line (start -6.91 -1.51) (end -6.91 -1.65) (layer F.SilkS) (width 0.12))
  (fp_line (start 8.01 -0.31) (end 8.01 -1.21) (layer F.SilkS) (width 0.12))
  (fp_line (start 8.01 -1.21) (end 7.16 -1.21) (layer F.SilkS) (width 0.12))
  (fp_line (start 7.16 -1.21) (end 7.16 -1.51) (layer F.SilkS) (width 0.12))
  (fp_line (start 7.16 -1.51) (end 6.91 -1.51) (layer F.SilkS) (width 0.12))
  (fp_line (start -6.84 1.41) (end 6.84 1.41) (layer F.SilkS) (width 0.12))
  (fp_line (start -7.9 1.3) (end 7.9 1.3) (layer F.Fab) (width 0.1))
  (fp_line (start -7.9 -1.1) (end -7.9 1.3) (layer F.Fab) (width 0.1))
  (fp_line (start 7.9 -1.1) (end 7.9 1.3) (layer F.Fab) (width 0.1))
  (fp_line (start -8.8 -2.15) (end -8.8 2.15) (layer F.CrtYd) (width 0.05))
  (fp_line (start -8.8 2.15) (end 8.8 2.15) (layer F.CrtYd) (width 0.05))
  (fp_line (start 8.8 2.15) (end 8.8 -2.15) (layer F.CrtYd) (width 0.05))
  (fp_line (start 8.8 -2.15) (end -8.8 -2.15) (layer F.CrtYd) (width 0.05))
  (fp_line (start -6.9 -1.4) (end -6.4 -0.692893) (layer F.Fab) (width 0.1))
  (fp_line (start -6.4 -0.692893) (end -5.9 -1.4) (layer F.Fab) (width 0.1))
  (fp_line (start -6.65 -2.503553) (end -6.4 -2.15) (layer F.SilkS) (width 0.12))
  (fp_line (start -6.4 -2.15) (end -6.15 -2.503553) (layer F.SilkS) (width 0.12))
  (fp_line (start -6.15 -2.503553) (end -6.65 -2.503553) (layer F.SilkS) (width 0.12))
  (pad 1 smd roundrect (at -6.4 -1.15) (size 0.5 1) (layers F.Cu F.Mask F.Paste) (roundrect_rratio 0.25))
  (pad 2 smd roundrect (at -5.6 -1.15) (size 0.5 1) (layers F.Cu F.Mask F.Paste) (roundrect_rratio 0.25))
  (pad 3 smd roundrect (at -4.8 -1.15) (size 0.5 1) (layers F.Cu F.Mask F.Paste) (roundrect_rratio 0.25))
  (pad 4 smd roundrect (at -4 -1.15) (size 0.5 1) (layers F.Cu F.Mask F.Paste) (roundrect_rratio 0.25))
  (pad 5 smd roundrect (at -3.2 -1.15) (size 0.5 1) (layers F.Cu F.Mask F.Paste) (roundrect_rratio 0.25))
  (pad 6 smd roundrect (at -2.4 -1.15) (size 0.5 1) (layers F.Cu F.Mask F.Paste) (roundrect_rratio 0.25))
  (pad 7 smd roundrect (at -1.6 -1.15) (size 0.5 1) (layers F.Cu F.Mask F.Paste) (roundrect_rratio 0.25))
  (pad 8 smd roundrect (at -0.8 -1.15) (size 0.5 1) (layers F.Cu F.Mask F.Paste) (roundrect_rratio 0.25))
  (pad 9 smd roundrect (at 0 -1.15) (size 0.5 1) (layers F.Cu F.Mask F.Paste) (roundrect_rratio 0.25))
  (pad 10 smd roundrect (at 0.8 -1.15) (size 0.5 1) (layers F.Cu F.Mask F.Paste) (roundrect_rratio 0.25))
  (pad 11 smd roundrect (at 1.6 -1.15) (size 0.5 1) (layers F.Cu F.Mask F.Paste) (roundrect_rratio 0.25))
  (pad 12 smd roundrect (at 2.4 -1.15) (size 0.5 1) (layers F.Cu F.Mask F.Paste) (roundrect_rratio 0.25))
  (pad 13 smd roundrect (at 3.2 -1.15) (size 0.5 1) (layers F.Cu F.Mask F.Paste) (roundrect_rratio 0.25))
  (pad 14 smd roundrect (at 4 -1.15) (size 0.5 1) (layers F.Cu F.Mask F.Paste) (roundrect_rratio 0.25))
  (pad 15 smd roundrect (at 4.8 -1.15) (size 0.5 1) (layers F.Cu F.Mask F.Paste) (roundrect_rratio 0.25))
  (pad 16 smd roundrect (at 5.6 -1.15) (size 0.5 1) (layers F.Cu F.Mask F.Paste) (roundrect_rratio 0.25))
  (pad 17 smd roundrect (at 6.4 -1.15) (size 0.5 1) (layers F.Cu F.Mask F.Paste) (roundrect_rratio 0.25))
  (pad MP smd roundrect (at -7.7 0.8) (size 1.2 1.7) (layers F.Cu F.Mask F.Paste) (roundrect_rratio 0.208333))
  (pad MP smd roundrect (at 7.7 0.8) (size 1.2 1.7) (layers F.Cu F.Mask F.Paste) (roundrect_rratio 0.208333))
  (fp_text user %R (at 0 0) (layer F.Fab)
    (effects (font (size 1 1) (thickness 0.15)))
  )
  (model ${KICAD6_3DMODEL_DIR}/Connector_JST.3dshapes/JST_SUR_SM17B-SURS-TF_1x17-1MP_P0.80mm_Horizontal.wrl
    (at (xyz 0 0 0))
    (scale (xyz 1 1 1))
    (rotate (xyz 0 0 0))
  )
)