(module JST_VH_S5P-VH_1x05_P3.96mm_Horizontal (layer F.Cu) (tedit 5B774B79)
  (descr "JST VH series connector, S5P-VH (http://www.jst-mfg.com/product/pdf/eng/eVH.pdf), generated with kicad-footprint-generator")
  (tags "connector JST VH top entry")
  (fp_text reference REF** (at 7.92 -3.2) (layer F.SilkS)
    (effects (font (size 1 1) (thickness 0.15)))
  )
  (fp_text value JST_VH_S5P-VH_1x05_P3.96mm_Horizontal (at 7.92 14.6) (layer F.Fab)
    (effects (font (size 1 1) (thickness 0.15)))
  )
  (fp_line (start -0.9 2.5) (end -0.9 11.9) (layer F.Fab) (width 0.1))
  (fp_line (start -0.9 11.9) (end 16.74 11.9) (layer F.Fab) (width 0.1))
  (fp_line (start 16.74 11.9) (end 16.74 2.5) (layer F.Fab) (width 0.1))
  (fp_line (start 16.74 2.5) (end -0.9 2.5) (layer F.Fab) (width 0.1))
  (fp_line (start 16.54 2.5) (end 16.54 -2) (layer F.Fab) (width 0.1))
  (fp_line (start 16.54 -2) (end 17.79 -2) (layer F.Fab) (width 0.1))
  (fp_line (start 17.79 -2) (end 17.79 5.7) (layer F.Fab) (width 0.1))
  (fp_line (start 17.79 5.7) (end 16.74 5.7) (layer F.Fab) (width 0.1))
  (fp_line (start -0.9 5.7) (end -1.95 5.7) (layer F.Fab) (width 0.1))
  (fp_line (start -1.95 5.7) (end -1.95 -2) (layer F.Fab) (width 0.1))
  (fp_line (start -1.95 -2) (end -0.7 -2) (layer F.Fab) (width 0.1))
  (fp_line (start -0.7 -2) (end -0.7 2.5) (layer F.Fab) (width 0.1))
  (fp_line (start -2.45 -2.5) (end -2.45 13.9) (layer F.CrtYd) (width 0.05))
  (fp_line (start -2.45 13.9) (end 18.29 13.9) (layer F.CrtYd) (width 0.05))
  (fp_line (start 18.29 13.9) (end 18.29 -2.5) (layer F.CrtYd) (width 0.05))
  (fp_line (start 18.29 -2.5) (end -2.45 -2.5) (layer F.CrtYd) (width 0.05))
  (fp_line (start -0.7 11.9) (end -0.7 13.4) (layer F.Fab) (width 0.1))
  (fp_line (start -0.7 13.4) (end 0.7 13.4) (layer F.Fab) (width 0.1))
  (fp_line (start 0.7 13.4) (end 0.7 11.9) (layer F.Fab) (width 0.1))
  (fp_line (start 1.38 2.5) (end 1.38 0) (layer F.Fab) (width 0.1))
  (fp_line (start 1.38 0) (end 2.58 0) (layer F.Fab) (width 0.1))
  (fp_line (start 2.58 0) (end 2.58 2.5) (layer F.Fab) (width 0.1))
  (fp_line (start 3.26 11.9) (end 3.26 13.4) (layer F.Fab) (width 0.1))
  (fp_line (start 3.26 13.4) (end 4.66 13.4) (layer F.Fab) (width 0.1))
  (fp_line (start 4.66 13.4) (end 4.66 11.9) (layer F.Fab) (width 0.1))
  (fp_line (start 5.34 2.5) (end 5.34 0) (layer F.Fab) (width 0.1))
  (fp_line (start 5.34 0) (end 6.54 0) (layer F.Fab) (width 0.1))
  (fp_line (start 6.54 0) (end 6.54 2.5) (layer F.Fab) (width 0.1))
  (fp_line (start 7.22 11.9) (end 7.22 13.4) (layer F.Fab) (width 0.1))
  (fp_line (start 7.22 13.4) (end 8.62 13.4) (layer F.Fab) (width 0.1))
  (fp_line (start 8.62 13.4) (end 8.62 11.9) (layer F.Fab) (width 0.1))
  (fp_line (start 9.3 2.5) (end 9.3 0) (layer F.Fab) (width 0.1))
  (fp_line (start 9.3 0) (end 10.5 0) (layer F.Fab) (width 0.1))
  (fp_line (start 10.5 0) (end 10.5 2.5) (layer F.Fab) (width 0.1))
  (fp_line (start 11.18 11.9) (end 11.18 13.4) (layer F.Fab) (width 0.1))
  (fp_line (start 11.18 13.4) (end 12.58 13.4) (layer F.Fab) (width 0.1))
  (fp_line (start 12.58 13.4) (end 12.58 11.9) (layer F.Fab) (width 0.1))
  (fp_line (start 13.26 2.5) (end 13.26 0) (layer F.Fab) (width 0.1))
  (fp_line (start 13.26 0) (end 14.46 0) (layer F.Fab) (width 0.1))
  (fp_line (start 14.46 0) (end 14.46 2.5) (layer F.Fab) (width 0.1))
  (fp_line (start 15.14 11.9) (end 15.14 13.4) (layer F.Fab) (width 0.1))
  (fp_line (start 15.14 13.4) (end 16.54 13.4) (layer F.Fab) (width 0.1))
  (fp_line (start 16.54 13.4) (end 16.54 11.9) (layer F.Fab) (width 0.1))
  (fp_line (start -0.8 2.5) (end 0 3.3) (layer F.Fab) (width 0.1))
  (fp_line (start 0 3.3) (end 0.8 2.5) (layer F.Fab) (width 0.1))
  (fp_line (start -1.01 5.81) (end -1.01 12.01) (layer F.SilkS) (width 0.12))
  (fp_line (start -1.01 12.01) (end -0.82 12.01) (layer F.SilkS) (width 0.12))
  (fp_line (start 16.41 -1.6) (end 16.41 -2.11) (layer F.SilkS) (width 0.12))
  (fp_line (start 16.41 -2.11) (end 17.9 -2.11) (layer F.SilkS) (width 0.12))
  (fp_line (start 17.9 -2.11) (end 17.9 5.81) (layer F.SilkS) (width 0.12))
  (fp_line (start 17.9 5.81) (end 16.85 5.81) (layer F.SilkS) (width 0.12))
  (fp_line (start 16.41 2.39) (end 16.41 1.6) (layer F.SilkS) (width 0.12))
  (fp_line (start -1.01 5.81) (end -2.06 5.81) (layer F.SilkS) (width 0.12))
  (fp_line (start -2.06 5.81) (end -2.06 -2.11) (layer F.SilkS) (width 0.12))
  (fp_line (start -2.06 -2.11) (end -0.57 -2.11) (layer F.SilkS) (width 0.12))
  (fp_line (start -0.57 -2.11) (end -0.57 -1.61) (layer F.SilkS) (width 0.12))
  (fp_line (start -0.57 1.7) (end -0.57 2.39) (layer F.SilkS) (width 0.12))
  (fp_line (start 16.66 12.01) (end 16.85 12.01) (layer F.SilkS) (width 0.12))
  (fp_line (start 16.85 12.01) (end 16.85 5.81) (layer F.SilkS) (width 0.12))
  (fp_line (start -0.58 2.39) (end 1.26 2.39) (layer F.SilkS) (width 0.12))
  (fp_line (start 14.58 2.39) (end 16.42 2.39) (layer F.SilkS) (width 0.12))
  (fp_line (start -0.82 12.01) (end -0.82 13.51) (layer F.SilkS) (width 0.12))
  (fp_line (start -0.82 13.51) (end 0.82 13.51) (layer F.SilkS) (width 0.12))
  (fp_line (start 0.82 13.51) (end 0.82 12.01) (layer F.SilkS) (width 0.12))
  (fp_line (start 1.26 2.39) (end 1.26 1.7) (layer F.SilkS) (width 0.12))
  (fp_line (start 1.61 -0.11) (end 2.35 -0.11) (layer F.SilkS) (width 0.12))
  (fp_line (start 2.7 1) (end 2.7 2.39) (layer F.SilkS) (width 0.12))
  (fp_line (start 3.14 12.01) (end 3.14 13.51) (layer F.SilkS) (width 0.12))
  (fp_line (start 3.14 13.51) (end 4.78 13.51) (layer F.SilkS) (width 0.12))
  (fp_line (start 4.78 13.51) (end 4.78 12.01) (layer F.SilkS) (width 0.12))
  (fp_line (start 5.22 2.39) (end 5.22 1) (layer F.SilkS) (width 0.12))
  (fp_line (start 5.57 -0.11) (end 6.31 -0.11) (layer F.SilkS) (width 0.12))
  (fp_line (start 6.66 1) (end 6.66 2.39) (layer F.SilkS) (width 0.12))
  (fp_line (start 2.7 2.39) (end 5.22 2.39) (layer F.SilkS) (width 0.12))
  (fp_line (start 0.82 12.01) (end 3.14 12.01) (layer F.SilkS) (width 0.12))
  (fp_line (start 7.1 12.01) (end 7.1 13.51) (layer F.SilkS) (width 0.12))
  (fp_line (start 7.1 13.51) (end 8.74 13.51) (layer F.SilkS) (width 0.12))
  (fp_line (start 8.74 13.51) (end 8.74 12.01) (layer F.SilkS) (width 0.12))
  (fp_line (start 9.18 2.39) (end 9.18 1) (layer F.SilkS) (width 0.12))
  (fp_line (start 9.53 -0.11) (end 10.27 -0.11) (layer F.SilkS) (width 0.12))
  (fp_line (start 10.62 1) (end 10.62 2.39) (layer F.SilkS) (width 0.12))
  (fp_line (start 6.66 2.39) (end 9.18 2.39) (layer F.SilkS) (width 0.12))
  (fp_line (start 4.78 12.01) (end 7.1 12.01) (layer F.SilkS) (width 0.12))
  (fp_line (start 11.06 12.01) (end 11.06 13.51) (layer F.SilkS) (width 0.12))
  (fp_line (start 11.06 13.51) (end 12.7 13.51) (layer F.SilkS) (width 0.12))
  (fp_line (start 12.7 13.51) (end 12.7 12.01) (layer F.SilkS) (width 0.12))
  (fp_line (start 13.14 2.39) (end 13.14 1) (layer F.SilkS) (width 0.12))
  (fp_line (start 13.49 -0.11) (end 14.23 -0.11) (layer F.SilkS) (width 0.12))
  (fp_line (start 14.58 1) (end 14.58 2.39) (layer F.SilkS) (width 0.12))
  (fp_line (start 10.62 2.39) (end 13.14 2.39) (layer F.SilkS) (width 0.12))
  (fp_line (start 8.74 12.01) (end 11.06 12.01) (layer F.SilkS) (width 0.12))
  (fp_line (start 15.02 12.01) (end 15.02 13.51) (layer F.SilkS) (width 0.12))
  (fp_line (start 15.02 13.51) (end 16.66 13.51) (layer F.SilkS) (width 0.12))
  (fp_line (start 16.66 13.51) (end 16.66 12.01) (layer F.SilkS) (width 0.12))
  (fp_line (start 12.7 12.01) (end 15.02 12.01) (layer F.SilkS) (width 0.12))
  (fp_line (start 0 -1.61) (end -1.61 -1.61) (layer F.SilkS) (width 0.12))
  (fp_line (start -1.61 -1.61) (end -1.61 0) (layer F.SilkS) (width 0.12))
  (pad 1 thru_hole roundrect (at 0 0) (size 2.7 2.7) (drill 1.7) (layers *.Cu *.Mask) (roundrect_rratio 0.092593))
  (pad 2 thru_hole circle (at 3.96 0) (size 2.7 2.7) (drill 1.7) (layers *.Cu *.Mask))
  (pad 3 thru_hole circle (at 7.92 0) (size 2.7 2.7) (drill 1.7) (layers *.Cu *.Mask))
  (pad 4 thru_hole circle (at 11.88 0) (size 2.7 2.7) (drill 1.7) (layers *.Cu *.Mask))
  (pad 5 thru_hole circle (at 15.84 0) (size 2.7 2.7) (drill 1.7) (layers *.Cu *.Mask))
  (fp_text user %R (at 7.92 11.2) (layer F.Fab)
    (effects (font (size 1 1) (thickness 0.15)))
  )
  (model ${KICAD6_3DMODEL_DIR}/Connector_JST.3dshapes/JST_VH_S5P-VH_1x05_P3.96mm_Horizontal.wrl
    (at (xyz 0 0 0))
    (scale (xyz 1 1 1))
    (rotate (xyz 0 0 0))
  )
)