(module JST_ACH_BM02B-ACHSS-GAN-ETF_1x02-1MP_P1.20mm_Vertical (layer F.Cu) (tedit 5C2814B0)
  (descr "JST ACH series connector, BM02B-ACHSS-GAN-ETF (http://www.jst-mfg.com/product/pdf/eng/eACH.pdf), generated with kicad-footprint-generator")
  (tags "connector JST ACH vertical")
  (attr smd)
  (fp_text reference REF** (at 0 -3.5) (layer F.SilkS)
    (effects (font (size 1 1) (thickness 0.15)))
  )
  (fp_text value JST_ACH_BM02B-ACHSS-GAN-ETF_1x02-1MP_P1.20mm_Vertical (at 0 3.5) (layer F.Fab)
    (effects (font (size 1 1) (thickness 0.15)))
  )
  (fp_line (start -2.1 -2) (end 2.1 -2) (layer F.Fab) (width 0.1))
  (fp_line (start -2.21 1.24) (end -2.21 -2.11) (layer F.SilkS) (width 0.12))
  (fp_line (start -2.21 -2.11) (end -1.16 -2.11) (layer F.SilkS) (width 0.12))
  (fp_line (start -1.16 -2.11) (end -1.16 -2.3) (layer F.SilkS) (width 0.12))
  (fp_line (start 2.21 1.24) (end 2.21 -2.11) (layer F.SilkS) (width 0.12))
  (fp_line (start 2.21 -2.11) (end 1.16 -2.11) (layer F.SilkS) (width 0.12))
  (fp_line (start -1.14 2.41) (end -0.79 2.41) (layer F.SilkS) (width 0.12))
  (fp_line (start -0.79 2.41) (end -0.39 1.91) (layer F.SilkS) (width 0.12))
  (fp_line (start -0.39 1.91) (end 0.39 1.91) (layer F.SilkS) (width 0.12))
  (fp_line (start 0.39 1.91) (end 0.79 2.41) (layer F.SilkS) (width 0.12))
  (fp_line (start 0.79 2.41) (end 1.14 2.41) (layer F.SilkS) (width 0.12))
  (fp_line (start -2.1 2.3) (end -0.9 2.3) (layer F.Fab) (width 0.1))
  (fp_line (start -0.9 2.3) (end -0.5 1.8) (layer F.Fab) (width 0.1))
  (fp_line (start -0.5 1.8) (end 0.5 1.8) (layer F.Fab) (width 0.1))
  (fp_line (start 0.5 1.8) (end 0.9 2.3) (layer F.Fab) (width 0.1))
  (fp_line (start 0.9 2.3) (end 2.1 2.3) (layer F.Fab) (width 0.1))
  (fp_line (start -2.1 -2) (end -2.1 2.3) (layer F.Fab) (width 0.1))
  (fp_line (start 2.1 -2) (end 2.1 2.3) (layer F.Fab) (width 0.1))
  (fp_line (start -2.6 -2.8) (end -2.6 2.8) (layer F.CrtYd) (width 0.05))
  (fp_line (start -2.6 2.8) (end 2.6 2.8) (layer F.CrtYd) (width 0.05))
  (fp_line (start 2.6 2.8) (end 2.6 -2.8) (layer F.CrtYd) (width 0.05))
  (fp_line (start 2.6 -2.8) (end -2.6 -2.8) (layer F.CrtYd) (width 0.05))
  (fp_line (start -1.1 -2) (end -0.6 -1.292893) (layer F.Fab) (width 0.1))
  (fp_line (start -0.6 -1.292893) (end -0.1 -2) (layer F.Fab) (width 0.1))
  (fp_line (start -0.85 -3.153553) (end -0.6 -2.8) (layer F.SilkS) (width 0.12))
  (fp_line (start -0.6 -2.8) (end -0.35 -3.153553) (layer F.SilkS) (width 0.12))
  (fp_line (start -0.35 -3.153553) (end -0.85 -3.153553) (layer F.SilkS) (width 0.12))
  (pad 1 smd roundrect (at -0.6 -1.875) (size 0.6 0.85) (layers F.Cu F.Mask F.Paste) (roundrect_rratio 0.25))
  (pad 2 smd roundrect (at 0.6 -1.875) (size 0.6 0.85) (layers F.Cu F.Mask F.Paste) (roundrect_rratio 0.25))
  (pad MP smd roundrect (at -1.75 1.9) (size 0.7 0.8) (layers F.Cu F.Mask F.Paste) (roundrect_rratio 0.25))
  (pad MP smd roundrect (at 1.75 1.9) (size 0.7 0.8) (layers F.Cu F.Mask F.Paste) (roundrect_rratio 0.25))
  (fp_text user %R (at 0 0) (layer F.Fab)
    (effects (font (size 1 1) (thickness 0.15)))
  )
  (model ${KICAD6_3DMODEL_DIR}/Connector_JST.3dshapes/JST_ACH_BM02B-ACHSS-GAN-ETF_1x02-1MP_P1.20mm_Vertical.wrl
    (at (xyz 0 0 0))
    (scale (xyz 1 1 1))
    (rotate (xyz 0 0 0))
  )
)