(module JST_XH_B13B-XH-A_1x13_P2.50mm_Vertical (layer F.Cu) (tedit 5B7754C5)
  (descr "JST XH series connector, B13B-XH-A (http://www.jst-mfg.com/product/pdf/eng/eXH.pdf), generated with kicad-footprint-generator")
  (tags "connector JST XH side entry")
  (fp_text reference REF** (at 15 -3.55) (layer F.SilkS)
    (effects (font (size 1 1) (thickness 0.15)))
  )
  (fp_text value JST_XH_B13B-XH-A_1x13_P2.50mm_Vertical (at 15 4.6) (layer F.Fab)
    (effects (font (size 1 1) (thickness 0.15)))
  )
  (fp_line (start -2.45 -2.35) (end -2.45 3.4) (layer F.Fab) (width 0.1))
  (fp_line (start -2.45 3.4) (end 32.45 3.4) (layer F.Fab) (width 0.1))
  (fp_line (start 32.45 3.4) (end 32.45 -2.35) (layer F.Fab) (width 0.1))
  (fp_line (start 32.45 -2.35) (end -2.45 -2.35) (layer F.Fab) (width 0.1))
  (fp_line (start -2.56 -2.46) (end -2.56 3.51) (layer F.SilkS) (width 0.12))
  (fp_line (start -2.56 3.51) (end 32.56 3.51) (layer F.SilkS) (width 0.12))
  (fp_line (start 32.56 3.51) (end 32.56 -2.46) (layer F.SilkS) (width 0.12))
  (fp_line (start 32.56 -2.46) (end -2.56 -2.46) (layer F.SilkS) (width 0.12))
  (fp_line (start -2.95 -2.85) (end -2.95 3.9) (layer F.CrtYd) (width 0.05))
  (fp_line (start -2.95 3.9) (end 32.95 3.9) (layer F.CrtYd) (width 0.05))
  (fp_line (start 32.95 3.9) (end 32.95 -2.85) (layer F.CrtYd) (width 0.05))
  (fp_line (start 32.95 -2.85) (end -2.95 -2.85) (layer F.CrtYd) (width 0.05))
  (fp_line (start -0.625 -2.35) (end 0 -1.35) (layer F.Fab) (width 0.1))
  (fp_line (start 0 -1.35) (end 0.625 -2.35) (layer F.Fab) (width 0.1))
  (fp_line (start 0.75 -2.45) (end 0.75 -1.7) (layer F.SilkS) (width 0.12))
  (fp_line (start 0.75 -1.7) (end 29.25 -1.7) (layer F.SilkS) (width 0.12))
  (fp_line (start 29.25 -1.7) (end 29.25 -2.45) (layer F.SilkS) (width 0.12))
  (fp_line (start 29.25 -2.45) (end 0.75 -2.45) (layer F.SilkS) (width 0.12))
  (fp_line (start -2.55 -2.45) (end -2.55 -1.7) (layer F.SilkS) (width 0.12))
  (fp_line (start -2.55 -1.7) (end -0.75 -1.7) (layer F.SilkS) (width 0.12))
  (fp_line (start -0.75 -1.7) (end -0.75 -2.45) (layer F.SilkS) (width 0.12))
  (fp_line (start -0.75 -2.45) (end -2.55 -2.45) (layer F.SilkS) (width 0.12))
  (fp_line (start 30.75 -2.45) (end 30.75 -1.7) (layer F.SilkS) (width 0.12))
  (fp_line (start 30.75 -1.7) (end 32.55 -1.7) (layer F.SilkS) (width 0.12))
  (fp_line (start 32.55 -1.7) (end 32.55 -2.45) (layer F.SilkS) (width 0.12))
  (fp_line (start 32.55 -2.45) (end 30.75 -2.45) (layer F.SilkS) (width 0.12))
  (fp_line (start -2.55 -0.2) (end -1.8 -0.2) (layer F.SilkS) (width 0.12))
  (fp_line (start -1.8 -0.2) (end -1.8 2.75) (layer F.SilkS) (width 0.12))
  (fp_line (start -1.8 2.75) (end 15 2.75) (layer F.SilkS) (width 0.12))
  (fp_line (start 32.55 -0.2) (end 31.8 -0.2) (layer F.SilkS) (width 0.12))
  (fp_line (start 31.8 -0.2) (end 31.8 2.75) (layer F.SilkS) (width 0.12))
  (fp_line (start 31.8 2.75) (end 15 2.75) (layer F.SilkS) (width 0.12))
  (fp_line (start -1.6 -2.75) (end -2.85 -2.75) (layer F.SilkS) (width 0.12))
  (fp_line (start -2.85 -2.75) (end -2.85 -1.5) (layer F.SilkS) (width 0.12))
  (pad 1 thru_hole roundrect (at 0 0) (size 1.7 1.95) (drill 0.95) (layers *.Cu *.Mask) (roundrect_rratio 0.147059))
  (pad 2 thru_hole oval (at 2.5 0) (size 1.7 1.95) (drill 0.95) (layers *.Cu *.Mask))
  (pad 3 thru_hole oval (at 5 0) (size 1.7 1.95) (drill 0.95) (layers *.Cu *.Mask))
  (pad 4 thru_hole oval (at 7.5 0) (size 1.7 1.95) (drill 0.95) (layers *.Cu *.Mask))
  (pad 5 thru_hole oval (at 10 0) (size 1.7 1.95) (drill 0.95) (layers *.Cu *.Mask))
  (pad 6 thru_hole oval (at 12.5 0) (size 1.7 1.95) (drill 0.95) (layers *.Cu *.Mask))
  (pad 7 thru_hole oval (at 15 0) (size 1.7 1.95) (drill 0.95) (layers *.Cu *.Mask))
  (pad 8 thru_hole oval (at 17.5 0) (size 1.7 1.95) (drill 0.95) (layers *.Cu *.Mask))
  (pad 9 thru_hole oval (at 20 0) (size 1.7 1.95) (drill 0.95) (layers *.Cu *.Mask))
  (pad 10 thru_hole oval (at 22.5 0) (size 1.7 1.95) (drill 0.95) (layers *.Cu *.Mask))
  (pad 11 thru_hole oval (at 25 0) (size 1.7 1.95) (drill 0.95) (layers *.Cu *.Mask))
  (pad 12 thru_hole oval (at 27.5 0) (size 1.7 1.95) (drill 0.95) (layers *.Cu *.Mask))
  (pad 13 thru_hole oval (at 30 0) (size 1.7 1.95) (drill 0.95) (layers *.Cu *.Mask))
  (fp_text user %R (at 15 2.7) (layer F.Fab)
    (effects (font (size 1 1) (thickness 0.15)))
  )
  (model ${KICAD6_3DMODEL_DIR}/Connector_JST.3dshapes/JST_XH_B13B-XH-A_1x13_P2.50mm_Vertical.wrl
    (at (xyz 0 0 0))
    (scale (xyz 1 1 1))
    (rotate (xyz 0 0 0))
  )
)