(module JST_GH_BM05B-GHS-TBT_1x05-1MP_P1.25mm_Vertical (layer F.Cu) (tedit 5B78AD87)
  (descr "JST GH series connector, BM05B-GHS-TBT (http://www.jst-mfg.com/product/pdf/eng/eGH.pdf), generated with kicad-footprint-generator")
  (tags "connector JST GH side entry")
  (attr smd)
  (fp_text reference REF** (at 0 -4) (layer F.SilkS)
    (effects (font (size 1 1) (thickness 0.15)))
  )
  (fp_text value JST_GH_BM05B-GHS-TBT_1x05-1MP_P1.25mm_Vertical (at 0 4) (layer F.Fab)
    (effects (font (size 1 1) (thickness 0.15)))
  )
  (fp_line (start -4.75 1.75) (end 4.75 1.75) (layer F.Fab) (width 0.1))
  (fp_line (start -4.86 0.26) (end -4.86 1.86) (layer F.SilkS) (width 0.12))
  (fp_line (start -4.86 1.86) (end -3.06 1.86) (layer F.SilkS) (width 0.12))
  (fp_line (start -3.06 1.86) (end -3.06 2.8) (layer F.SilkS) (width 0.12))
  (fp_line (start 4.86 0.26) (end 4.86 1.86) (layer F.SilkS) (width 0.12))
  (fp_line (start 4.86 1.86) (end 3.06 1.86) (layer F.SilkS) (width 0.12))
  (fp_line (start -3.59 -2.61) (end 3.59 -2.61) (layer F.SilkS) (width 0.12))
  (fp_line (start -4.75 -2.5) (end 4.75 -2.5) (layer F.Fab) (width 0.1))
  (fp_line (start -4.75 1.75) (end -4.75 -2.5) (layer F.Fab) (width 0.1))
  (fp_line (start 4.75 1.75) (end 4.75 -2.5) (layer F.Fab) (width 0.1))
  (fp_line (start -2.75 -0.5) (end -2.75 0) (layer F.Fab) (width 0.1))
  (fp_line (start -2.75 0) (end -2.25 0) (layer F.Fab) (width 0.1))
  (fp_line (start -2.25 0) (end -2.25 -0.5) (layer F.Fab) (width 0.1))
  (fp_line (start -2.25 -0.5) (end -2.75 -0.5) (layer F.Fab) (width 0.1))
  (fp_line (start -1.5 -0.5) (end -1.5 0) (layer F.Fab) (width 0.1))
  (fp_line (start -1.5 0) (end -1 0) (layer F.Fab) (width 0.1))
  (fp_line (start -1 0) (end -1 -0.5) (layer F.Fab) (width 0.1))
  (fp_line (start -1 -0.5) (end -1.5 -0.5) (layer F.Fab) (width 0.1))
  (fp_line (start -0.25 -0.5) (end -0.25 0) (layer F.Fab) (width 0.1))
  (fp_line (start -0.25 0) (end 0.25 0) (layer F.Fab) (width 0.1))
  (fp_line (start 0.25 0) (end 0.25 -0.5) (layer F.Fab) (width 0.1))
  (fp_line (start 0.25 -0.5) (end -0.25 -0.5) (layer F.Fab) (width 0.1))
  (fp_line (start 1 -0.5) (end 1 0) (layer F.Fab) (width 0.1))
  (fp_line (start 1 0) (end 1.5 0) (layer F.Fab) (width 0.1))
  (fp_line (start 1.5 0) (end 1.5 -0.5) (layer F.Fab) (width 0.1))
  (fp_line (start 1.5 -0.5) (end 1 -0.5) (layer F.Fab) (width 0.1))
  (fp_line (start 2.25 -0.5) (end 2.25 0) (layer F.Fab) (width 0.1))
  (fp_line (start 2.25 0) (end 2.75 0) (layer F.Fab) (width 0.1))
  (fp_line (start 2.75 0) (end 2.75 -0.5) (layer F.Fab) (width 0.1))
  (fp_line (start 2.75 -0.5) (end 2.25 -0.5) (layer F.Fab) (width 0.1))
  (fp_line (start -5.35 -3.3) (end -5.35 3.3) (layer F.CrtYd) (width 0.05))
  (fp_line (start -5.35 3.3) (end 5.35 3.3) (layer F.CrtYd) (width 0.05))
  (fp_line (start 5.35 3.3) (end 5.35 -3.3) (layer F.CrtYd) (width 0.05))
  (fp_line (start 5.35 -3.3) (end -5.35 -3.3) (layer F.CrtYd) (width 0.05))
  (fp_line (start -3 1.75) (end -2.5 1.042893) (layer F.Fab) (width 0.1))
  (fp_line (start -2.5 1.042893) (end -2 1.75) (layer F.Fab) (width 0.1))
  (pad 1 smd roundrect (at -2.5 1.95) (size 0.6 1.7) (layers F.Cu F.Mask F.Paste) (roundrect_rratio 0.25))
  (pad 2 smd roundrect (at -1.25 1.95) (size 0.6 1.7) (layers F.Cu F.Mask F.Paste) (roundrect_rratio 0.25))
  (pad 3 smd roundrect (at 0 1.95) (size 0.6 1.7) (layers F.Cu F.Mask F.Paste) (roundrect_rratio 0.25))
  (pad 4 smd roundrect (at 1.25 1.95) (size 0.6 1.7) (layers F.Cu F.Mask F.Paste) (roundrect_rratio 0.25))
  (pad 5 smd roundrect (at 2.5 1.95) (size 0.6 1.7) (layers F.Cu F.Mask F.Paste) (roundrect_rratio 0.25))
  (pad MP smd roundrect (at -4.35 -1.4) (size 1 2.8) (layers F.Cu F.Mask F.Paste) (roundrect_rratio 0.25))
  (pad MP smd roundrect (at 4.35 -1.4) (size 1 2.8) (layers F.Cu F.Mask F.Paste) (roundrect_rratio 0.25))
  (fp_text user %R (at 0 -1.5) (layer F.Fab)
    (effects (font (size 1 1) (thickness 0.15)))
  )
  (model ${KICAD6_3DMODEL_DIR}/Connector_JST.3dshapes/JST_GH_BM05B-GHS-TBT_1x05-1MP_P1.25mm_Vertical.wrl
    (at (xyz 0 0 0))
    (scale (xyz 1 1 1))
    (rotate (xyz 0 0 0))
  )
)