(module JST_PH_S6B-PH-K_1x06_P2.00mm_Horizontal (layer F.Cu) (tedit 5B7745C6)
  (descr "JST PH series connector, S6B-PH-K (http://www.jst-mfg.com/product/pdf/eng/ePH.pdf), generated with kicad-footprint-generator")
  (tags "connector JST PH top entry")
  (fp_text reference REF** (at 5 -2.55) (layer F.SilkS)
    (effects (font (size 1 1) (thickness 0.15)))
  )
  (fp_text value JST_PH_S6B-PH-K_1x06_P2.00mm_Horizontal (at 5 7.45) (layer F.Fab)
    (effects (font (size 1 1) (thickness 0.15)))
  )
  (fp_line (start -0.86 0.14) (end -1.14 0.14) (layer F.SilkS) (width 0.12))
  (fp_line (start -1.14 0.14) (end -1.14 -1.46) (layer F.SilkS) (width 0.12))
  (fp_line (start -1.14 -1.46) (end -2.06 -1.46) (layer F.SilkS) (width 0.12))
  (fp_line (start -2.06 -1.46) (end -2.06 6.36) (layer F.SilkS) (width 0.12))
  (fp_line (start -2.06 6.36) (end 12.06 6.36) (layer F.SilkS) (width 0.12))
  (fp_line (start 12.06 6.36) (end 12.06 -1.46) (layer F.SilkS) (width 0.12))
  (fp_line (start 12.06 -1.46) (end 11.14 -1.46) (layer F.SilkS) (width 0.12))
  (fp_line (start 11.14 -1.46) (end 11.14 0.14) (layer F.SilkS) (width 0.12))
  (fp_line (start 11.14 0.14) (end 10.86 0.14) (layer F.SilkS) (width 0.12))
  (fp_line (start 0.5 6.36) (end 0.5 2) (layer F.SilkS) (width 0.12))
  (fp_line (start 0.5 2) (end 9.5 2) (layer F.SilkS) (width 0.12))
  (fp_line (start 9.5 2) (end 9.5 6.36) (layer F.SilkS) (width 0.12))
  (fp_line (start -2.06 0.14) (end -1.14 0.14) (layer F.SilkS) (width 0.12))
  (fp_line (start 12.06 0.14) (end 11.14 0.14) (layer F.SilkS) (width 0.12))
  (fp_line (start -1.3 2.5) (end -1.3 4.1) (layer F.SilkS) (width 0.12))
  (fp_line (start -1.3 4.1) (end -0.3 4.1) (layer F.SilkS) (width 0.12))
  (fp_line (start -0.3 4.1) (end -0.3 2.5) (layer F.SilkS) (width 0.12))
  (fp_line (start -0.3 2.5) (end -1.3 2.5) (layer F.SilkS) (width 0.12))
  (fp_line (start 11.3 2.5) (end 11.3 4.1) (layer F.SilkS) (width 0.12))
  (fp_line (start 11.3 4.1) (end 10.3 4.1) (layer F.SilkS) (width 0.12))
  (fp_line (start 10.3 4.1) (end 10.3 2.5) (layer F.SilkS) (width 0.12))
  (fp_line (start 10.3 2.5) (end 11.3 2.5) (layer F.SilkS) (width 0.12))
  (fp_line (start -0.3 4.1) (end -0.3 6.36) (layer F.SilkS) (width 0.12))
  (fp_line (start -0.8 4.1) (end -0.8 6.36) (layer F.SilkS) (width 0.12))
  (fp_line (start -2.45 -1.85) (end -2.45 6.75) (layer F.CrtYd) (width 0.05))
  (fp_line (start -2.45 6.75) (end 12.45 6.75) (layer F.CrtYd) (width 0.05))
  (fp_line (start 12.45 6.75) (end 12.45 -1.85) (layer F.CrtYd) (width 0.05))
  (fp_line (start 12.45 -1.85) (end -2.45 -1.85) (layer F.CrtYd) (width 0.05))
  (fp_line (start -1.25 0.25) (end -1.25 -1.35) (layer F.Fab) (width 0.1))
  (fp_line (start -1.25 -1.35) (end -1.95 -1.35) (layer F.Fab) (width 0.1))
  (fp_line (start -1.95 -1.35) (end -1.95 6.25) (layer F.Fab) (width 0.1))
  (fp_line (start -1.95 6.25) (end 11.95 6.25) (layer F.Fab) (width 0.1))
  (fp_line (start 11.95 6.25) (end 11.95 -1.35) (layer F.Fab) (width 0.1))
  (fp_line (start 11.95 -1.35) (end 11.25 -1.35) (layer F.Fab) (width 0.1))
  (fp_line (start 11.25 -1.35) (end 11.25 0.25) (layer F.Fab) (width 0.1))
  (fp_line (start 11.25 0.25) (end -1.25 0.25) (layer F.Fab) (width 0.1))
  (fp_line (start -0.86 0.14) (end -0.86 -1.075) (layer F.SilkS) (width 0.12))
  (fp_line (start 0 0.875) (end -0.5 1.375) (layer F.Fab) (width 0.1))
  (fp_line (start -0.5 1.375) (end 0.5 1.375) (layer F.Fab) (width 0.1))
  (fp_line (start 0.5 1.375) (end 0 0.875) (layer F.Fab) (width 0.1))
  (pad 1 thru_hole roundrect (at 0 0) (size 1.2 1.75) (drill 0.75) (layers *.Cu *.Mask) (roundrect_rratio 0.208333))
  (pad 2 thru_hole oval (at 2 0) (size 1.2 1.75) (drill 0.75) (layers *.Cu *.Mask))
  (pad 3 thru_hole oval (at 4 0) (size 1.2 1.75) (drill 0.75) (layers *.Cu *.Mask))
  (pad 4 thru_hole oval (at 6 0) (size 1.2 1.75) (drill 0.75) (layers *.Cu *.Mask))
  (pad 5 thru_hole oval (at 8 0) (size 1.2 1.75) (drill 0.75) (layers *.Cu *.Mask))
  (pad 6 thru_hole oval (at 10 0) (size 1.2 1.75) (drill 0.75) (layers *.Cu *.Mask))
  (fp_text user %R (at 5 2.5) (layer F.Fab)
    (effects (font (size 1 1) (thickness 0.15)))
  )
  (model ${KICAD6_3DMODEL_DIR}/Connector_JST.3dshapes/JST_PH_S6B-PH-K_1x06_P2.00mm_Horizontal.wrl
    (at (xyz 0 0 0))
    (scale (xyz 1 1 1))
    (rotate (xyz 0 0 0))
  )
)