(module JST_SH_SM14B-SRSS-TB_1x14-1MP_P1.00mm_Horizontal (layer F.Cu) (tedit 5B78AD87)
  (descr "JST SH series connector, SM14B-SRSS-TB (http://www.jst-mfg.com/product/pdf/eng/eSH.pdf), generated with kicad-footprint-generator")
  (tags "connector JST SH top entry")
  (attr smd)
  (fp_text reference REF** (at 0 -3.98) (layer F.SilkS)
    (effects (font (size 1 1) (thickness 0.15)))
  )
  (fp_text value JST_SH_SM14B-SRSS-TB_1x14-1MP_P1.00mm_Horizontal (at 0 3.98) (layer F.Fab)
    (effects (font (size 1 1) (thickness 0.15)))
  )
  (fp_line (start -8 -1.675) (end 8 -1.675) (layer F.Fab) (width 0.1))
  (fp_line (start -8.11 0.715) (end -8.11 -1.785) (layer F.SilkS) (width 0.12))
  (fp_line (start -8.11 -1.785) (end -7.06 -1.785) (layer F.SilkS) (width 0.12))
  (fp_line (start -7.06 -1.785) (end -7.06 -2.775) (layer F.SilkS) (width 0.12))
  (fp_line (start 8.11 0.715) (end 8.11 -1.785) (layer F.SilkS) (width 0.12))
  (fp_line (start 8.11 -1.785) (end 7.06 -1.785) (layer F.SilkS) (width 0.12))
  (fp_line (start -6.94 2.685) (end 6.94 2.685) (layer F.SilkS) (width 0.12))
  (fp_line (start -8 2.575) (end 8 2.575) (layer F.Fab) (width 0.1))
  (fp_line (start -8 -1.675) (end -8 2.575) (layer F.Fab) (width 0.1))
  (fp_line (start 8 -1.675) (end 8 2.575) (layer F.Fab) (width 0.1))
  (fp_line (start -8.9 -3.28) (end -8.9 3.28) (layer F.CrtYd) (width 0.05))
  (fp_line (start -8.9 3.28) (end 8.9 3.28) (layer F.CrtYd) (width 0.05))
  (fp_line (start 8.9 3.28) (end 8.9 -3.28) (layer F.CrtYd) (width 0.05))
  (fp_line (start 8.9 -3.28) (end -8.9 -3.28) (layer F.CrtYd) (width 0.05))
  (fp_line (start -7 -1.675) (end -6.5 -0.967893) (layer F.Fab) (width 0.1))
  (fp_line (start -6.5 -0.967893) (end -6 -1.675) (layer F.Fab) (width 0.1))
  (pad 1 smd roundrect (at -6.5 -2) (size 0.6 1.55) (layers F.Cu F.Mask F.Paste) (roundrect_rratio 0.25))
  (pad 2 smd roundrect (at -5.5 -2) (size 0.6 1.55) (layers F.Cu F.Mask F.Paste) (roundrect_rratio 0.25))
  (pad 3 smd roundrect (at -4.5 -2) (size 0.6 1.55) (layers F.Cu F.Mask F.Paste) (roundrect_rratio 0.25))
  (pad 4 smd roundrect (at -3.5 -2) (size 0.6 1.55) (layers F.Cu F.Mask F.Paste) (roundrect_rratio 0.25))
  (pad 5 smd roundrect (at -2.5 -2) (size 0.6 1.55) (layers F.Cu F.Mask F.Paste) (roundrect_rratio 0.25))
  (pad 6 smd roundrect (at -1.5 -2) (size 0.6 1.55) (layers F.Cu F.Mask F.Paste) (roundrect_rratio 0.25))
  (pad 7 smd roundrect (at -0.5 -2) (size 0.6 1.55) (layers F.Cu F.Mask F.Paste) (roundrect_rratio 0.25))
  (pad 8 smd roundrect (at 0.5 -2) (size 0.6 1.55) (layers F.Cu F.Mask F.Paste) (roundrect_rratio 0.25))
  (pad 9 smd roundrect (at 1.5 -2) (size 0.6 1.55) (layers F.Cu F.Mask F.Paste) (roundrect_rratio 0.25))
  (pad 10 smd roundrect (at 2.5 -2) (size 0.6 1.55) (layers F.Cu F.Mask F.Paste) (roundrect_rratio 0.25))
  (pad 11 smd roundrect (at 3.5 -2) (size 0.6 1.55) (layers F.Cu F.Mask F.Paste) (roundrect_rratio 0.25))
  (pad 12 smd roundrect (at 4.5 -2) (size 0.6 1.55) (layers F.Cu F.Mask F.Paste) (roundrect_rratio 0.25))
  (pad 13 smd roundrect (at 5.5 -2) (size 0.6 1.55) (layers F.Cu F.Mask F.Paste) (roundrect_rratio 0.25))
  (pad 14 smd roundrect (at 6.5 -2) (size 0.6 1.55) (layers F.Cu F.Mask F.Paste) (roundrect_rratio 0.25))
  (pad MP smd roundrect (at -7.8 1.875) (size 1.2 1.8) (layers F.Cu F.Mask F.Paste) (roundrect_rratio 0.208333))
  (pad MP smd roundrect (at 7.8 1.875) (size 1.2 1.8) (layers F.Cu F.Mask F.Paste) (roundrect_rratio 0.208333))
  (fp_text user %R (at 0 0) (layer F.Fab)
    (effects (font (size 1 1) (thickness 0.15)))
  )
  (model ${KICAD6_3DMODEL_DIR}/Connector_JST.3dshapes/JST_SH_SM14B-SRSS-TB_1x14-1MP_P1.00mm_Horizontal.wrl
    (at (xyz 0 0 0))
    (scale (xyz 1 1 1))
    (rotate (xyz 0 0 0))
  )
)