(module Laird_Technologies_BMI-S-105_38.10x25.40mm (layer F.Cu) (tedit 5B85E396)
  (descr "Laird Technologies BMI-S-105 Shielding Cabinet One Piece SMD 38.10x25.40mm (https://assets.lairdtech.com/home/brandworld/files/Board%20Level%20Shields%20Catalog%20Download.pdf)")
  (tags "Shielding Cabinet")
  (attr smd)
  (fp_text reference REF** (at 0 -14.1) (layer F.SilkS)
    (effects (font (size 1 1) (thickness 0.15)))
  )
  (fp_text value Laird_Technologies_BMI-S-105_38.10x25.40mm (at 0 14.1) (layer F.Fab)
    (effects (font (size 1 1) (thickness 0.15)))
  )
  (fp_text user %R (at 0 0) (layer F.Fab)
    (effects (font (size 1 1) (thickness 0.15)))
  )
  (fp_line (start -18.2 -11.85) (end -18.2 11.85) (layer F.CrtYd) (width 0.05))
  (fp_line (start 18.2 -11.85) (end -18.2 -11.85) (layer F.CrtYd) (width 0.05))
  (fp_line (start -19.7 -13.35) (end -19.7 13.35) (layer F.CrtYd) (width 0.05))
  (fp_line (start -19.7 13.35) (end 19.7 13.35) (layer F.CrtYd) (width 0.05))
  (fp_line (start 19.7 13.35) (end 19.7 -13.35) (layer F.CrtYd) (width 0.05))
  (fp_line (start 19.7 -13.35) (end -19.7 -13.35) (layer F.CrtYd) (width 0.05))
  (fp_line (start -19.05 -12.7) (end -19.05 12.7) (layer F.Fab) (width 0.1))
  (fp_line (start -19.05 12.7) (end 19.05 12.7) (layer F.Fab) (width 0.1))
  (fp_line (start 19.05 12.7) (end 19.05 -12.7) (layer F.Fab) (width 0.1))
  (fp_line (start 19.05 -12.7) (end -19.05 -12.7) (layer F.Fab) (width 0.1))
  (fp_line (start -16.05 -12.85) (end -13.95 -12.85) (layer F.SilkS) (width 0.12))
  (fp_line (start -16.05 12.85) (end -13.95 12.85) (layer F.SilkS) (width 0.12))
  (fp_line (start -10.05 -12.85) (end -7.95 -12.85) (layer F.SilkS) (width 0.12))
  (fp_line (start -10.05 12.85) (end -7.95 12.85) (layer F.SilkS) (width 0.12))
  (fp_line (start -4.05 -12.85) (end -1.95 -12.85) (layer F.SilkS) (width 0.12))
  (fp_line (start -4.05 12.85) (end -1.95 12.85) (layer F.SilkS) (width 0.12))
  (fp_line (start 1.95 -12.85) (end 4.05 -12.85) (layer F.SilkS) (width 0.12))
  (fp_line (start 1.95 12.85) (end 4.05 12.85) (layer F.SilkS) (width 0.12))
  (fp_line (start 7.95 -12.85) (end 10.05 -12.85) (layer F.SilkS) (width 0.12))
  (fp_line (start 7.95 12.85) (end 10.05 12.85) (layer F.SilkS) (width 0.12))
  (fp_line (start 13.95 -12.85) (end 16.05 -12.85) (layer F.SilkS) (width 0.12))
  (fp_line (start 13.95 12.85) (end 16.05 12.85) (layer F.SilkS) (width 0.12))
  (fp_line (start -19.2 -10.05) (end -19.2 -7.95) (layer F.SilkS) (width 0.12))
  (fp_line (start 19.2 -10.05) (end 19.2 -7.95) (layer F.SilkS) (width 0.12))
  (fp_line (start -19.2 -4.05) (end -19.2 -1.95) (layer F.SilkS) (width 0.12))
  (fp_line (start 19.2 -4.05) (end 19.2 -1.95) (layer F.SilkS) (width 0.12))
  (fp_line (start -19.2 1.95) (end -19.2 4.05) (layer F.SilkS) (width 0.12))
  (fp_line (start 19.2 1.95) (end 19.2 4.05) (layer F.SilkS) (width 0.12))
  (fp_line (start -19.2 7.95) (end -19.2 10.05) (layer F.SilkS) (width 0.12))
  (fp_line (start 19.2 7.95) (end 19.2 10.05) (layer F.SilkS) (width 0.12))
  (fp_line (start 18.2 -11.85) (end 18.2 11.85) (layer F.CrtYd) (width 0.05))
  (fp_line (start 18.2 11.85) (end -18.2 11.85) (layer F.CrtYd) (width 0.05))
  (pad 1 smd rect (at -18.95 -12.6) (size 1 1) (layers F.Cu F.Paste F.Mask))
  (pad 1 smd rect (at 18.95 -12.6) (size 1 1) (layers F.Cu F.Paste F.Mask))
  (pad 1 smd rect (at 18.95 12.6) (size 1 1) (layers F.Cu F.Paste F.Mask))
  (pad 1 smd rect (at -18.95 12.6) (size 1 1) (layers F.Cu F.Paste F.Mask))
  (pad 1 smd rect (at -17.4 -12.6) (size 2.1 1) (layers F.Cu F.Paste F.Mask))
  (pad 1 smd rect (at -17.4 12.6) (size 2.1 1) (layers F.Cu F.Paste F.Mask))
  (pad 1 smd rect (at -12 -12.6) (size 3.3 1) (layers F.Cu F.Paste F.Mask))
  (pad 1 smd rect (at -12 12.6) (size 3.3 1) (layers F.Cu F.Paste F.Mask))
  (pad 1 smd rect (at -6 -12.6) (size 3.3 1) (layers F.Cu F.Paste F.Mask))
  (pad 1 smd rect (at -6 12.6) (size 3.3 1) (layers F.Cu F.Paste F.Mask))
  (pad 1 smd rect (at 0 -12.6) (size 3.3 1) (layers F.Cu F.Paste F.Mask))
  (pad 1 smd rect (at 0 12.6) (size 3.3 1) (layers F.Cu F.Paste F.Mask))
  (pad 1 smd rect (at 6 -12.6) (size 3.3 1) (layers F.Cu F.Paste F.Mask))
  (pad 1 smd rect (at 6 12.6) (size 3.3 1) (layers F.Cu F.Paste F.Mask))
  (pad 1 smd rect (at 12 -12.6) (size 3.3 1) (layers F.Cu F.Paste F.Mask))
  (pad 1 smd rect (at 12 12.6) (size 3.3 1) (layers F.Cu F.Paste F.Mask))
  (pad 1 smd rect (at 17.4 -12.6) (size 2.1 1) (layers F.Cu F.Paste F.Mask))
  (pad 1 smd rect (at 17.4 12.6) (size 2.1 1) (layers F.Cu F.Paste F.Mask))
  (pad 1 smd rect (at -18.95 -11.225) (size 1 1.75) (layers F.Cu F.Paste F.Mask))
  (pad 1 smd rect (at 18.95 -11.225) (size 1 1.75) (layers F.Cu F.Paste F.Mask))
  (pad 1 smd rect (at -18.95 -6) (size 1 3.3) (layers F.Cu F.Paste F.Mask))
  (pad 1 smd rect (at 18.95 -6) (size 1 3.3) (layers F.Cu F.Paste F.Mask))
  (pad 1 smd rect (at -18.95 0) (size 1 3.3) (layers F.Cu F.Paste F.Mask))
  (pad 1 smd rect (at 18.95 0) (size 1 3.3) (layers F.Cu F.Paste F.Mask))
  (pad 1 smd rect (at -18.95 6) (size 1 3.3) (layers F.Cu F.Paste F.Mask))
  (pad 1 smd rect (at 18.95 6) (size 1 3.3) (layers F.Cu F.Paste F.Mask))
  (pad 1 smd rect (at -18.95 11.225) (size 1 1.75) (layers F.Cu F.Paste F.Mask))
  (pad 1 smd rect (at 18.95 11.225) (size 1 1.75) (layers F.Cu F.Paste F.Mask))
  (model ${KICAD6_3DMODEL_DIR}/RF_Shielding.3dshapes/Laird_Technologies_BMI-S-105_38.10x25.40mm.wrl
    (at (xyz 0 0 0))
    (scale (xyz 1 1 1))
    (rotate (xyz 0 0 0))
  )
)
