(module Laird_Technologies_BMI-S-202-F_16.50x16.50mm (layer F.Cu) (tedit 5B85E4BD)
  (descr "Laird Technologies BMI-S-202-F Shielding Cabinet Two Piece SMD 16.50x16.50mm (https://assets.lairdtech.com/home/brandworld/files/Board%20Level%20Shields%20Catalog%20Download.pdf)")
  (tags "Shielding Cabinet")
  (attr smd)
  (fp_text reference REF** (at 0 -9.65) (layer F.SilkS)
    (effects (font (size 1 1) (thickness 0.15)))
  )
  (fp_text value Laird_Technologies_BMI-S-202-F_16.50x16.50mm (at 0 9.65) (layer F.Fab)
    (effects (font (size 1 1) (thickness 0.15)))
  )
  (fp_text user %R (at 0 0) (layer F.Fab)
    (effects (font (size 1 1) (thickness 0.15)))
  )
  (fp_line (start -7.4 -7.4) (end -7.4 7.4) (layer F.CrtYd) (width 0.05))
  (fp_line (start 7.4 -7.4) (end -7.4 -7.4) (layer F.CrtYd) (width 0.05))
  (fp_line (start -8.9 -8.9) (end -8.9 8.9) (layer F.CrtYd) (width 0.05))
  (fp_line (start -8.9 8.9) (end 8.9 8.9) (layer F.CrtYd) (width 0.05))
  (fp_line (start 8.9 8.9) (end 8.9 -8.9) (layer F.CrtYd) (width 0.05))
  (fp_line (start 8.9 -8.9) (end -8.9 -8.9) (layer F.CrtYd) (width 0.05))
  (fp_line (start -8.25 -8.25) (end -8.25 8.25) (layer F.Fab) (width 0.1))
  (fp_line (start -8.25 8.25) (end 8.25 8.25) (layer F.Fab) (width 0.1))
  (fp_line (start 8.25 8.25) (end 8.25 -8.25) (layer F.Fab) (width 0.1))
  (fp_line (start 8.25 -8.25) (end -8.25 -8.25) (layer F.Fab) (width 0.1))
  (fp_line (start -3.8 -8.4) (end -2.2 -8.4) (layer F.SilkS) (width 0.12))
  (fp_line (start -3.8 8.4) (end -2.2 8.4) (layer F.SilkS) (width 0.12))
  (fp_line (start 2.2 -8.4) (end 3.8 -8.4) (layer F.SilkS) (width 0.12))
  (fp_line (start 2.2 8.4) (end 3.8 8.4) (layer F.SilkS) (width 0.12))
  (fp_line (start -8.4 -3.8) (end -8.4 -2.2) (layer F.SilkS) (width 0.12))
  (fp_line (start 8.4 -3.8) (end 8.4 -2.2) (layer F.SilkS) (width 0.12))
  (fp_line (start -8.4 2.2) (end -8.4 3.8) (layer F.SilkS) (width 0.12))
  (fp_line (start 8.4 2.2) (end 8.4 3.8) (layer F.SilkS) (width 0.12))
  (fp_line (start 7.4 -7.4) (end 7.4 7.4) (layer F.CrtYd) (width 0.05))
  (fp_line (start 7.4 7.4) (end -7.4 7.4) (layer F.CrtYd) (width 0.05))
  (pad 1 smd rect (at -8.15 -8.15) (size 1 1) (layers F.Cu F.Paste F.Mask))
  (pad 1 smd rect (at 8.15 -8.15) (size 1 1) (layers F.Cu F.Paste F.Mask))
  (pad 1 smd rect (at 8.15 8.15) (size 1 1) (layers F.Cu F.Paste F.Mask))
  (pad 1 smd rect (at -8.15 8.15) (size 1 1) (layers F.Cu F.Paste F.Mask))
  (pad 1 smd rect (at -5.875 -8.15) (size 3.55 1) (layers F.Cu F.Paste F.Mask))
  (pad 1 smd rect (at -5.875 8.15) (size 3.55 1) (layers F.Cu F.Paste F.Mask))
  (pad 1 smd rect (at 0 -8.15) (size 3.8 1) (layers F.Cu F.Paste F.Mask))
  (pad 1 smd rect (at 0 8.15) (size 3.8 1) (layers F.Cu F.Paste F.Mask))
  (pad 1 smd rect (at 5.875 -8.15) (size 3.55 1) (layers F.Cu F.Paste F.Mask))
  (pad 1 smd rect (at 5.875 8.15) (size 3.55 1) (layers F.Cu F.Paste F.Mask))
  (pad 1 smd rect (at -8.15 -5.875) (size 1 3.55) (layers F.Cu F.Paste F.Mask))
  (pad 1 smd rect (at 8.15 -5.875) (size 1 3.55) (layers F.Cu F.Paste F.Mask))
  (pad 1 smd rect (at -8.15 0) (size 1 3.8) (layers F.Cu F.Paste F.Mask))
  (pad 1 smd rect (at 8.15 0) (size 1 3.8) (layers F.Cu F.Paste F.Mask))
  (pad 1 smd rect (at -8.15 5.875) (size 1 3.55) (layers F.Cu F.Paste F.Mask))
  (pad 1 smd rect (at 8.15 5.875) (size 1 3.55) (layers F.Cu F.Paste F.Mask))
  (model ${KICAD6_3DMODEL_DIR}/RF_Shielding.3dshapes/Laird_Technologies_BMI-S-202-F_16.50x16.50mm.wrl
    (at (xyz 0 0 0))
    (scale (xyz 1 1 1))
    (rotate (xyz 0 0 0))
  )
)
