(module Laird_Technologies_97-2003_12.70x13.37mm (layer F.Cu) (tedit 5B85DCD3)
  (descr "Laird Technologies 97-2003 EZ PEEL Shielding Cabinet One Piece SMD 12.70x13.37mm (https://assets.lairdtech.com/home/brandworld/files/Board%20Level%20Shields%20Catalog%20Download.pdf)")
  (tags "Shielding Cabinet")
  (attr smd)
  (fp_text reference REF** (at 0 -7.96) (layer F.SilkS)
    (effects (font (size 1 1) (thickness 0.15)))
  )
  (fp_text value Laird_Technologies_97-2003_12.70x13.37mm (at 0 7.96) (layer F.Fab)
    (effects (font (size 1 1) (thickness 0.15)))
  )
  (fp_text user %R (at 0 0) (layer F.Fab)
    (effects (font (size 1 1) (thickness 0.15)))
  )
  (fp_line (start 5.84 -6.33) (end 5.84 6.33) (layer F.CrtYd) (width 0.05))
  (fp_line (start 5.84 -6.33) (end -5.84 -6.33) (layer F.CrtYd) (width 0.05))
  (fp_line (start -6.7 -7.2) (end -6.7 7.2) (layer F.CrtYd) (width 0.05))
  (fp_line (start -6.7 7.2) (end 6.7 7.2) (layer F.CrtYd) (width 0.05))
  (fp_line (start 6.7 7.2) (end 6.7 -7.2) (layer F.CrtYd) (width 0.05))
  (fp_line (start 6.7 -7.2) (end -6.7 -7.2) (layer F.CrtYd) (width 0.05))
  (fp_line (start -6.35 -6.685) (end -6.35 6.685) (layer F.Fab) (width 0.1))
  (fp_line (start -6.35 6.685) (end 6.35 6.685) (layer F.Fab) (width 0.1))
  (fp_line (start 6.35 6.685) (end 6.35 -6.685) (layer F.Fab) (width 0.1))
  (fp_line (start 6.35 -6.685) (end -6.35 -6.685) (layer F.Fab) (width 0.1))
  (fp_line (start -5.84 -6.33) (end -5.84 6.33) (layer F.CrtYd) (width 0.05))
  (fp_line (start 5.84 6.33) (end -5.84 6.33) (layer F.CrtYd) (width 0.05))
  (pad 1 smd rect (at -6.285 -6.77) (size 0.38 0.38) (layers F.Cu F.Paste F.Mask))
  (pad 1 smd rect (at 6.285 -6.77) (size 0.38 0.38) (layers F.Cu F.Paste F.Mask))
  (pad 1 smd rect (at 6.285 6.77) (size 0.38 0.38) (layers F.Cu F.Paste F.Mask))
  (pad 1 smd rect (at -6.285 6.77) (size 0.38 0.38) (layers F.Cu F.Paste F.Mask))
  (pad 1 smd rect (at 0 -6.77) (size 12.19 0.38) (layers F.Cu F.Paste F.Mask))
  (pad 1 smd rect (at 0 6.77) (size 12.19 0.38) (layers F.Cu F.Paste F.Mask))
  (pad 1 smd rect (at -6.285 0) (size 0.38 13.16) (layers F.Cu F.Paste F.Mask))
  (pad 1 smd rect (at 6.285 0) (size 0.38 13.16) (layers F.Cu F.Paste F.Mask))
  (model ${KICAD6_3DMODEL_DIR}/RF_Shielding.3dshapes/Laird_Technologies_97-2003_12.70x13.37mm.wrl
    (at (xyz 0 0 0))
    (scale (xyz 1 1 1))
    (rotate (xyz 0 0 0))
  )
)
