(module Laird_Technologies_BMI-S-103_26.21x26.21mm (layer F.Cu) (tedit 5B85E1A5)
  (descr "Laird Technologies BMI-S-103 Shielding Cabinet One Piece SMD 26.21x26.21mm (https://assets.lairdtech.com/home/brandworld/files/Board%20Level%20Shields%20Catalog%20Download.pdf)")
  (tags "Shielding Cabinet")
  (attr smd)
  (fp_text reference REF** (at 0 -14.505) (layer F.SilkS)
    (effects (font (size 1 1) (thickness 0.15)))
  )
  (fp_text value Laird_Technologies_BMI-S-103_26.21x26.21mm (at 0 14.505) (layer F.Fab)
    (effects (font (size 1 1) (thickness 0.15)))
  )
  (fp_text user %R (at 0 0) (layer F.Fab)
    (effects (font (size 1 1) (thickness 0.15)))
  )
  (fp_line (start 12.25 -12.25) (end 12.25 12.25) (layer F.CrtYd) (width 0.05))
  (fp_line (start 12.25 -12.25) (end -12.25 -12.25) (layer F.CrtYd) (width 0.05))
  (fp_line (start -13.75 -13.75) (end -13.75 13.75) (layer F.CrtYd) (width 0.05))
  (fp_line (start -13.75 13.75) (end 13.75 13.75) (layer F.CrtYd) (width 0.05))
  (fp_line (start 13.75 13.75) (end 13.75 -13.75) (layer F.CrtYd) (width 0.05))
  (fp_line (start 13.75 -13.75) (end -13.75 -13.75) (layer F.CrtYd) (width 0.05))
  (fp_line (start -13.105 -13.105) (end -13.105 13.105) (layer F.Fab) (width 0.1))
  (fp_line (start -13.105 13.105) (end 13.105 13.105) (layer F.Fab) (width 0.1))
  (fp_line (start 13.105 13.105) (end 13.105 -13.105) (layer F.Fab) (width 0.1))
  (fp_line (start 13.105 -13.105) (end -13.105 -13.105) (layer F.Fab) (width 0.1))
  (fp_line (start -9.635 -13.255) (end -8.035 -13.255) (layer F.SilkS) (width 0.12))
  (fp_line (start -9.635 13.255) (end -8.035 13.255) (layer F.SilkS) (width 0.12))
  (fp_line (start -3.635 -13.255) (end -2.035 -13.255) (layer F.SilkS) (width 0.12))
  (fp_line (start -3.635 13.255) (end -2.035 13.255) (layer F.SilkS) (width 0.12))
  (fp_line (start 2.035 -13.255) (end 3.635 -13.255) (layer F.SilkS) (width 0.12))
  (fp_line (start 2.035 13.255) (end 3.635 13.255) (layer F.SilkS) (width 0.12))
  (fp_line (start 8.035 -13.255) (end 9.635 -13.255) (layer F.SilkS) (width 0.12))
  (fp_line (start 8.035 13.255) (end 9.635 13.255) (layer F.SilkS) (width 0.12))
  (fp_line (start -13.255 -9.635) (end -13.255 -8.035) (layer F.SilkS) (width 0.12))
  (fp_line (start 13.255 -9.635) (end 13.255 -8.035) (layer F.SilkS) (width 0.12))
  (fp_line (start -13.255 -3.635) (end -13.255 -2.035) (layer F.SilkS) (width 0.12))
  (fp_line (start 13.255 -3.635) (end 13.255 -2.035) (layer F.SilkS) (width 0.12))
  (fp_line (start -13.255 2.035) (end -13.255 3.635) (layer F.SilkS) (width 0.12))
  (fp_line (start 13.255 2.035) (end 13.255 3.635) (layer F.SilkS) (width 0.12))
  (fp_line (start -13.255 8.035) (end -13.255 9.635) (layer F.SilkS) (width 0.12))
  (fp_line (start 13.255 8.035) (end 13.255 9.635) (layer F.SilkS) (width 0.12))
  (fp_line (start 12.25 12.25) (end -12.25 12.25) (layer F.CrtYd) (width 0.05))
  (fp_line (start -12.25 -12.25) (end -12.25 12.25) (layer F.CrtYd) (width 0.05))
  (pad 1 smd rect (at -13.005 -13.005) (size 1 1) (layers F.Cu F.Paste F.Mask))
  (pad 1 smd rect (at 13.005 -13.005) (size 1 1) (layers F.Cu F.Paste F.Mask))
  (pad 1 smd rect (at 13.005 13.005) (size 1 1) (layers F.Cu F.Paste F.Mask))
  (pad 1 smd rect (at -13.005 13.005) (size 1 1) (layers F.Cu F.Paste F.Mask))
  (pad 1 smd rect (at -11.22 -13.005) (size 2.57 1) (layers F.Cu F.Paste F.Mask))
  (pad 1 smd rect (at -11.22 13.005) (size 2.57 1) (layers F.Cu F.Paste F.Mask))
  (pad 1 smd rect (at -5.835 -13.005) (size 3.8 1) (layers F.Cu F.Paste F.Mask))
  (pad 1 smd rect (at -5.835 13.005) (size 3.8 1) (layers F.Cu F.Paste F.Mask))
  (pad 1 smd rect (at 0 -13.005) (size 3.47 1) (layers F.Cu F.Paste F.Mask))
  (pad 1 smd rect (at 0 13.005) (size 3.47 1) (layers F.Cu F.Paste F.Mask))
  (pad 1 smd rect (at 5.835 -13.005) (size 3.8 1) (layers F.Cu F.Paste F.Mask))
  (pad 1 smd rect (at 5.835 13.005) (size 3.8 1) (layers F.Cu F.Paste F.Mask))
  (pad 1 smd rect (at 11.22 -13.005) (size 2.57 1) (layers F.Cu F.Paste F.Mask))
  (pad 1 smd rect (at 11.22 13.005) (size 2.57 1) (layers F.Cu F.Paste F.Mask))
  (pad 1 smd rect (at -13.005 -11.22) (size 1 2.57) (layers F.Cu F.Paste F.Mask))
  (pad 1 smd rect (at 13.005 -11.22) (size 1 2.57) (layers F.Cu F.Paste F.Mask))
  (pad 1 smd rect (at -13.005 -5.835) (size 1 3.8) (layers F.Cu F.Paste F.Mask))
  (pad 1 smd rect (at 13.005 -5.835) (size 1 3.8) (layers F.Cu F.Paste F.Mask))
  (pad 1 smd rect (at -13.005 0) (size 1 3.47) (layers F.Cu F.Paste F.Mask))
  (pad 1 smd rect (at 13.005 0) (size 1 3.47) (layers F.Cu F.Paste F.Mask))
  (pad 1 smd rect (at -13.005 5.835) (size 1 3.8) (layers F.Cu F.Paste F.Mask))
  (pad 1 smd rect (at 13.005 5.835) (size 1 3.8) (layers F.Cu F.Paste F.Mask))
  (pad 1 smd rect (at -13.005 11.22) (size 1 2.57) (layers F.Cu F.Paste F.Mask))
  (pad 1 smd rect (at 13.005 11.22) (size 1 2.57) (layers F.Cu F.Paste F.Mask))
  (model ${KICAD6_3DMODEL_DIR}/RF_Shielding.3dshapes/Laird_Technologies_BMI-S-103_26.21x26.21mm.wrl
    (at (xyz 0 0 0))
    (scale (xyz 1 1 1))
    (rotate (xyz 0 0 0))
  )
)
