(module Wuerth_36103305_30x30mm (layer F.Cu) (tedit 5A143358)
  (descr "WE-SHC Shielding Cabinet SMD 30x30mm")
  (tags "Shielding Cabinet")
  (attr smd)
  (fp_text reference REF** (at 0 -16.75) (layer F.SilkS)
    (effects (font (size 1 1) (thickness 0.15)))
  )
  (fp_text value Wuerth_36103305_30x30mm (at 0 16.75) (layer F.Fab)
    (effects (font (size 1 1) (thickness 0.15)))
  )
  (fp_text user %R (at 0 0) (layer F.Fab)
    (effects (font (size 1 1) (thickness 0.15)))
  )
  (fp_line (start -16 -16) (end -16 16) (layer F.CrtYd) (width 0.05))
  (fp_line (start -16 16) (end 16 16) (layer F.CrtYd) (width 0.05))
  (fp_line (start 16 16) (end 16 -16) (layer F.CrtYd) (width 0.05))
  (fp_line (start 16 -16) (end -16 -16) (layer F.CrtYd) (width 0.05))
  (fp_line (start -14.5 -14.5) (end -14.5 14.5) (layer F.CrtYd) (width 0.05))
  (fp_line (start -14.5 14.5) (end 14.5 14.5) (layer F.CrtYd) (width 0.05))
  (fp_line (start 14.5 14.5) (end 14.5 -14.5) (layer F.CrtYd) (width 0.05))
  (fp_line (start 14.5 -14.5) (end -14.5 -14.5) (layer F.CrtYd) (width 0.05))
  (fp_line (start -15.5 -15.5) (end -15.5 15.5) (layer F.Fab) (width 0.1))
  (fp_line (start -15.5 15.5) (end 15.5 15.5) (layer F.Fab) (width 0.1))
  (fp_line (start 15.5 15.5) (end 15.5 -15.5) (layer F.Fab) (width 0.1))
  (fp_line (start 15.5 -15.5) (end -15.5 -15.5) (layer F.Fab) (width 0.1))
  (fp_line (start -12.15 -15.65) (end -10.35 -15.65) (layer F.SilkS) (width 0.12))
  (fp_line (start -12.15 15.65) (end -10.35 15.65) (layer F.SilkS) (width 0.12))
  (fp_line (start -7.15 -15.65) (end -5.35 -15.65) (layer F.SilkS) (width 0.12))
  (fp_line (start -7.15 15.65) (end -5.35 15.65) (layer F.SilkS) (width 0.12))
  (fp_line (start -2.15 -15.65) (end 2.15 -15.65) (layer F.SilkS) (width 0.12))
  (fp_line (start -2.15 15.65) (end 2.15 15.65) (layer F.SilkS) (width 0.12))
  (fp_line (start 5.35 -15.65) (end 7.15 -15.65) (layer F.SilkS) (width 0.12))
  (fp_line (start 5.35 15.65) (end 7.15 15.65) (layer F.SilkS) (width 0.12))
  (fp_line (start 10.35 -15.65) (end 12.15 -15.65) (layer F.SilkS) (width 0.12))
  (fp_line (start 10.35 15.65) (end 12.15 15.65) (layer F.SilkS) (width 0.12))
  (fp_line (start -15.65 -12.15) (end -15.65 -10.35) (layer F.SilkS) (width 0.12))
  (fp_line (start 15.65 -12.15) (end 15.65 -10.35) (layer F.SilkS) (width 0.12))
  (fp_line (start -15.65 -7.15) (end -15.65 -5.35) (layer F.SilkS) (width 0.12))
  (fp_line (start 15.65 -7.15) (end 15.65 -5.35) (layer F.SilkS) (width 0.12))
  (fp_line (start -15.65 -2.15) (end -15.65 2.15) (layer F.SilkS) (width 0.12))
  (fp_line (start 15.65 -2.15) (end 15.65 2.15) (layer F.SilkS) (width 0.12))
  (fp_line (start -15.65 5.35) (end -15.65 7.15) (layer F.SilkS) (width 0.12))
  (fp_line (start 15.65 5.35) (end 15.65 7.15) (layer F.SilkS) (width 0.12))
  (fp_line (start -15.65 10.35) (end -15.65 12.15) (layer F.SilkS) (width 0.12))
  (fp_line (start 15.65 10.35) (end 15.65 12.15) (layer F.SilkS) (width 0.12))
  (pad 1 smd rect (at -15.25 -15.25) (size 1 1) (layers F.Cu F.Paste F.Mask))
  (pad 1 smd rect (at 15.25 -15.25) (size 1 1) (layers F.Cu F.Paste F.Mask))
  (pad 1 smd rect (at 15.25 15.25) (size 1 1) (layers F.Cu F.Paste F.Mask))
  (pad 1 smd rect (at -15.25 15.25) (size 1 1) (layers F.Cu F.Paste F.Mask))
  (pad 1 smd rect (at -13.6 -15.25) (size 2.3 1) (layers F.Cu F.Paste F.Mask))
  (pad 1 smd rect (at -13.6 15.25) (size 2.3 1) (layers F.Cu F.Paste F.Mask))
  (pad 1 smd rect (at -8.75 -15.25) (size 2.6 1) (layers F.Cu F.Paste F.Mask))
  (pad 1 smd rect (at -8.75 15.25) (size 2.6 1) (layers F.Cu F.Paste F.Mask))
  (pad 1 smd rect (at -3.75 -15.25) (size 2.6 1) (layers F.Cu F.Paste F.Mask))
  (pad 1 smd rect (at -3.75 15.25) (size 2.6 1) (layers F.Cu F.Paste F.Mask))
  (pad 1 smd rect (at 3.75 -15.25) (size 2.6 1) (layers F.Cu F.Paste F.Mask))
  (pad 1 smd rect (at 3.75 15.25) (size 2.6 1) (layers F.Cu F.Paste F.Mask))
  (pad 1 smd rect (at 8.75 -15.25) (size 2.6 1) (layers F.Cu F.Paste F.Mask))
  (pad 1 smd rect (at 8.75 15.25) (size 2.6 1) (layers F.Cu F.Paste F.Mask))
  (pad 1 smd rect (at 13.6 -15.25) (size 2.3 1) (layers F.Cu F.Paste F.Mask))
  (pad 1 smd rect (at 13.6 15.25) (size 2.3 1) (layers F.Cu F.Paste F.Mask))
  (pad 1 smd rect (at -15.25 -13.6) (size 1 2.3) (layers F.Cu F.Paste F.Mask))
  (pad 1 smd rect (at 15.25 -13.6) (size 1 2.3) (layers F.Cu F.Paste F.Mask))
  (pad 1 smd rect (at -15.25 -8.75) (size 1 2.6) (layers F.Cu F.Paste F.Mask))
  (pad 1 smd rect (at 15.25 -8.75) (size 1 2.6) (layers F.Cu F.Paste F.Mask))
  (pad 1 smd rect (at -15.25 -3.75) (size 1 2.6) (layers F.Cu F.Paste F.Mask))
  (pad 1 smd rect (at 15.25 -3.75) (size 1 2.6) (layers F.Cu F.Paste F.Mask))
  (pad 1 smd rect (at -15.25 3.75) (size 1 2.6) (layers F.Cu F.Paste F.Mask))
  (pad 1 smd rect (at 15.25 3.75) (size 1 2.6) (layers F.Cu F.Paste F.Mask))
  (pad 1 smd rect (at -15.25 8.75) (size 1 2.6) (layers F.Cu F.Paste F.Mask))
  (pad 1 smd rect (at 15.25 8.75) (size 1 2.6) (layers F.Cu F.Paste F.Mask))
  (pad 1 smd rect (at -15.25 13.6) (size 1 2.3) (layers F.Cu F.Paste F.Mask))
  (pad 1 smd rect (at 15.25 13.6) (size 1 2.3) (layers F.Cu F.Paste F.Mask))
  (model ${KICAD6_3DMODEL_DIR}/RF_Shielding.3dshapes/Wuerth_36103305_30x30mm.wrl
    (at (xyz 0 0 0))
    (scale (xyz 1 1 1))
    (rotate (xyz 0 0 0))
  )
)
