(module TerminalBlock_TE_1-282834-0_1x10_P2.54mm_Horizontal (layer F.Cu) (tedit 5B1EC515)
  (descr "Terminal Block TE 1-282834-0, 10 pins, pitch 2.54mm, size 25.86x6.5mm^2, drill diamater 1.1mm, pad diameter 2.1mm, see http://www.te.com/commerce/DocumentDelivery/DDEController?Action=showdoc&DocId=Customer+Drawing%7F282834%7FC1%7Fpdf%7FEnglish%7FENG_CD_282834_C1.pdf, script-generated using https://github.com/pointhi/kicad-footprint-generator/scripts/TerminalBlock_TE-Connectivity")
  (tags "THT Terminal Block TE 1-282834-0 pitch 2.54mm size 25.86x6.5mm^2 drill 1.1mm pad 2.1mm")
  (fp_text reference REF** (at 11.43 -4.37) (layer F.SilkS)
    (effects (font (size 1 1) (thickness 0.15)))
  )
  (fp_text value TerminalBlock_TE_1-282834-0_1x10_P2.54mm_Horizontal (at 11.43 4.37) (layer F.Fab)
    (effects (font (size 1 1) (thickness 0.15)))
  )
  (fp_circle (center 0 0) (end 1.1 0) (layer F.Fab) (width 0.1))
  (fp_circle (center 2.54 0) (end 3.64 0) (layer F.Fab) (width 0.1))
  (fp_circle (center 5.08 0) (end 6.18 0) (layer F.Fab) (width 0.1))
  (fp_circle (center 7.62 0) (end 8.72 0) (layer F.Fab) (width 0.1))
  (fp_circle (center 10.16 0) (end 11.26 0) (layer F.Fab) (width 0.1))
  (fp_circle (center 12.7 0) (end 13.8 0) (layer F.Fab) (width 0.1))
  (fp_circle (center 15.24 0) (end 16.34 0) (layer F.Fab) (width 0.1))
  (fp_circle (center 17.78 0) (end 18.88 0) (layer F.Fab) (width 0.1))
  (fp_circle (center 20.32 0) (end 21.42 0) (layer F.Fab) (width 0.1))
  (fp_circle (center 22.86 0) (end 23.96 0) (layer F.Fab) (width 0.1))
  (fp_line (start -1.5 -3.25) (end 24.36 -3.25) (layer F.Fab) (width 0.1))
  (fp_line (start 24.36 -3.25) (end 24.36 3.25) (layer F.Fab) (width 0.1))
  (fp_line (start 24.36 3.25) (end -1.1 3.25) (layer F.Fab) (width 0.1))
  (fp_line (start -1.1 3.25) (end -1.5 2.85) (layer F.Fab) (width 0.1))
  (fp_line (start -1.5 2.85) (end -1.5 -3.25) (layer F.Fab) (width 0.1))
  (fp_line (start -1.5 2.85) (end 24.36 2.85) (layer F.Fab) (width 0.1))
  (fp_line (start -1.62 2.85) (end 24.48 2.85) (layer F.SilkS) (width 0.12))
  (fp_line (start -1.5 -2.25) (end 24.36 -2.25) (layer F.Fab) (width 0.1))
  (fp_line (start -1.62 -2.25) (end 24.48 -2.25) (layer F.SilkS) (width 0.12))
  (fp_line (start -1.62 -3.37) (end 24.48 -3.37) (layer F.SilkS) (width 0.12))
  (fp_line (start -1.62 3.37) (end 24.48 3.37) (layer F.SilkS) (width 0.12))
  (fp_line (start -1.62 -3.37) (end -1.62 3.37) (layer F.SilkS) (width 0.12))
  (fp_line (start 24.48 -3.37) (end 24.48 3.37) (layer F.SilkS) (width 0.12))
  (fp_line (start 0.835 -0.7) (end -0.701 0.835) (layer F.Fab) (width 0.1))
  (fp_line (start 0.701 -0.835) (end -0.835 0.7) (layer F.Fab) (width 0.1))
  (fp_line (start 3.375 -0.7) (end 1.84 0.835) (layer F.Fab) (width 0.1))
  (fp_line (start 3.241 -0.835) (end 1.706 0.7) (layer F.Fab) (width 0.1))
  (fp_line (start 5.915 -0.7) (end 4.38 0.835) (layer F.Fab) (width 0.1))
  (fp_line (start 5.781 -0.835) (end 4.246 0.7) (layer F.Fab) (width 0.1))
  (fp_line (start 8.455 -0.7) (end 6.92 0.835) (layer F.Fab) (width 0.1))
  (fp_line (start 8.321 -0.835) (end 6.786 0.7) (layer F.Fab) (width 0.1))
  (fp_line (start 10.995 -0.7) (end 9.46 0.835) (layer F.Fab) (width 0.1))
  (fp_line (start 10.861 -0.835) (end 9.326 0.7) (layer F.Fab) (width 0.1))
  (fp_line (start 13.535 -0.7) (end 12 0.835) (layer F.Fab) (width 0.1))
  (fp_line (start 13.401 -0.835) (end 11.866 0.7) (layer F.Fab) (width 0.1))
  (fp_line (start 16.075 -0.7) (end 14.54 0.835) (layer F.Fab) (width 0.1))
  (fp_line (start 15.941 -0.835) (end 14.406 0.7) (layer F.Fab) (width 0.1))
  (fp_line (start 18.615 -0.7) (end 17.08 0.835) (layer F.Fab) (width 0.1))
  (fp_line (start 18.481 -0.835) (end 16.946 0.7) (layer F.Fab) (width 0.1))
  (fp_line (start 21.155 -0.7) (end 19.62 0.835) (layer F.Fab) (width 0.1))
  (fp_line (start 21.021 -0.835) (end 19.486 0.7) (layer F.Fab) (width 0.1))
  (fp_line (start 23.695 -0.7) (end 22.16 0.835) (layer F.Fab) (width 0.1))
  (fp_line (start 23.561 -0.835) (end 22.026 0.7) (layer F.Fab) (width 0.1))
  (fp_line (start -1.86 2.97) (end -1.86 3.61) (layer F.SilkS) (width 0.12))
  (fp_line (start -1.86 3.61) (end -1.46 3.61) (layer F.SilkS) (width 0.12))
  (fp_line (start -2 -3.75) (end -2 3.75) (layer F.CrtYd) (width 0.05))
  (fp_line (start -2 3.75) (end 24.86 3.75) (layer F.CrtYd) (width 0.05))
  (fp_line (start 24.86 3.75) (end 24.86 -3.75) (layer F.CrtYd) (width 0.05))
  (fp_line (start 24.86 -3.75) (end -2 -3.75) (layer F.CrtYd) (width 0.05))
  (pad 1 thru_hole rect (at 0 0) (size 2.1 2.1) (drill 1.1) (layers *.Cu *.Mask))
  (pad 2 thru_hole circle (at 2.54 0) (size 2.1 2.1) (drill 1.1) (layers *.Cu *.Mask))
  (pad 3 thru_hole circle (at 5.08 0) (size 2.1 2.1) (drill 1.1) (layers *.Cu *.Mask))
  (pad 4 thru_hole circle (at 7.62 0) (size 2.1 2.1) (drill 1.1) (layers *.Cu *.Mask))
  (pad 5 thru_hole circle (at 10.16 0) (size 2.1 2.1) (drill 1.1) (layers *.Cu *.Mask))
  (pad 6 thru_hole circle (at 12.7 0) (size 2.1 2.1) (drill 1.1) (layers *.Cu *.Mask))
  (pad 7 thru_hole circle (at 15.24 0) (size 2.1 2.1) (drill 1.1) (layers *.Cu *.Mask))
  (pad 8 thru_hole circle (at 17.78 0) (size 2.1 2.1) (drill 1.1) (layers *.Cu *.Mask))
  (pad 9 thru_hole circle (at 20.32 0) (size 2.1 2.1) (drill 1.1) (layers *.Cu *.Mask))
  (pad 10 thru_hole circle (at 22.86 0) (size 2.1 2.1) (drill 1.1) (layers *.Cu *.Mask))
  (fp_text user %R (at 11.43 2) (layer F.Fab)
    (effects (font (size 1 1) (thickness 0.15)))
  )
  (model ${KICAD6_3DMODEL_DIR}/TerminalBlock_TE-Connectivity.3dshapes/TerminalBlock_TE_1-282834-0_1x10_P2.54mm_Horizontal.wrl
    (at (xyz 0 0 0))
    (scale (xyz 1 1 1))
    (rotate (xyz 0 0 0))
  )
)