(module Arduino_UNO_R3 (layer F.Cu) (tedit 58AB60FC)
  (descr "Arduino UNO R3, http://www.mouser.com/pdfdocs/Gravitech_Arduino_Nano3_0.pdf")
  (tags "Arduino UNO R3")
  (fp_text reference REF** (at 1.27 -3.81 180) (layer F.SilkS)
    (effects (font (size 1 1) (thickness 0.15)))
  )
  (fp_text value Arduino_UNO_R3 (at 0 22.86) (layer F.Fab)
    (effects (font (size 1 1) (thickness 0.15)))
  )
  (fp_text user %R (at 0 20.32 180) (layer F.Fab)
    (effects (font (size 1 1) (thickness 0.15)))
  )
  (fp_line (start 38.35 -2.79) (end 38.35 0) (layer F.CrtYd) (width 0.05))
  (fp_line (start 38.35 0) (end 40.89 2.54) (layer F.CrtYd) (width 0.05))
  (fp_line (start 40.89 2.54) (end 40.89 35.31) (layer F.CrtYd) (width 0.05))
  (fp_line (start 40.89 35.31) (end 38.35 37.85) (layer F.CrtYd) (width 0.05))
  (fp_line (start 38.35 37.85) (end 38.35 49.28) (layer F.CrtYd) (width 0.05))
  (fp_line (start 38.35 49.28) (end 36.58 51.05) (layer F.CrtYd) (width 0.05))
  (fp_line (start 36.58 51.05) (end -28.19 51.05) (layer F.CrtYd) (width 0.05))
  (fp_line (start -28.19 51.05) (end -28.19 41.53) (layer F.CrtYd) (width 0.05))
  (fp_line (start -28.19 41.53) (end -34.54 41.53) (layer F.CrtYd) (width 0.05))
  (fp_line (start -34.54 41.53) (end -34.54 29.59) (layer F.CrtYd) (width 0.05))
  (fp_line (start -34.54 29.59) (end -28.19 29.59) (layer F.CrtYd) (width 0.05))
  (fp_line (start -28.19 29.59) (end -28.19 9.78) (layer F.CrtYd) (width 0.05))
  (fp_line (start -28.19 9.78) (end -30.1 9.78) (layer F.CrtYd) (width 0.05))
  (fp_line (start -30.1 9.78) (end -30.1 0.38) (layer F.CrtYd) (width 0.05))
  (fp_line (start -30.1 0.38) (end -28.19 0.38) (layer F.CrtYd) (width 0.05))
  (fp_line (start -28.19 0.38) (end -28.19 -2.79) (layer F.CrtYd) (width 0.05))
  (fp_line (start -28.19 -2.79) (end 38.35 -2.79) (layer F.CrtYd) (width 0.05))
  (fp_line (start 40.77 35.31) (end 40.77 2.54) (layer F.SilkS) (width 0.12))
  (fp_line (start 40.77 2.54) (end 38.23 0) (layer F.SilkS) (width 0.12))
  (fp_line (start 38.23 0) (end 38.23 -2.67) (layer F.SilkS) (width 0.12))
  (fp_line (start 38.23 -2.67) (end -28.07 -2.67) (layer F.SilkS) (width 0.12))
  (fp_line (start -28.07 -2.67) (end -28.07 0.51) (layer F.SilkS) (width 0.12))
  (fp_line (start -28.07 0.51) (end -29.97 0.51) (layer F.SilkS) (width 0.12))
  (fp_line (start -29.97 0.51) (end -29.97 9.65) (layer F.SilkS) (width 0.12))
  (fp_line (start -29.97 9.65) (end -28.07 9.65) (layer F.SilkS) (width 0.12))
  (fp_line (start -28.07 9.65) (end -28.07 29.72) (layer F.SilkS) (width 0.12))
  (fp_line (start -28.07 29.72) (end -34.42 29.72) (layer F.SilkS) (width 0.12))
  (fp_line (start -34.42 29.72) (end -34.42 41.4) (layer F.SilkS) (width 0.12))
  (fp_line (start -34.42 41.4) (end -28.07 41.4) (layer F.SilkS) (width 0.12))
  (fp_line (start -28.07 41.4) (end -28.07 50.93) (layer F.SilkS) (width 0.12))
  (fp_line (start -28.07 50.93) (end 36.58 50.93) (layer F.SilkS) (width 0.12))
  (fp_line (start 36.58 50.93) (end 38.23 49.28) (layer F.SilkS) (width 0.12))
  (fp_line (start 38.23 49.28) (end 38.23 37.85) (layer F.SilkS) (width 0.12))
  (fp_line (start 38.23 37.85) (end 40.77 35.31) (layer F.SilkS) (width 0.12))
  (fp_line (start -34.29 29.84) (end -18.41 29.84) (layer F.Fab) (width 0.1))
  (fp_line (start -18.41 29.84) (end -18.41 41.27) (layer F.Fab) (width 0.1))
  (fp_line (start -18.41 41.27) (end -34.29 41.27) (layer F.Fab) (width 0.1))
  (fp_line (start -34.29 41.27) (end -34.29 29.84) (layer F.Fab) (width 0.1))
  (fp_line (start -29.84 0.64) (end -16.51 0.64) (layer F.Fab) (width 0.1))
  (fp_line (start -16.51 0.64) (end -16.51 9.53) (layer F.Fab) (width 0.1))
  (fp_line (start -16.51 9.53) (end -29.84 9.53) (layer F.Fab) (width 0.1))
  (fp_line (start -29.84 9.53) (end -29.84 0.64) (layer F.Fab) (width 0.1))
  (fp_line (start 38.1 37.85) (end 38.1 49.28) (layer F.Fab) (width 0.1))
  (fp_line (start 40.64 2.54) (end 40.64 35.31) (layer F.Fab) (width 0.1))
  (fp_line (start 40.64 35.31) (end 38.1 37.85) (layer F.Fab) (width 0.1))
  (fp_line (start 38.1 -2.54) (end 38.1 0) (layer F.Fab) (width 0.1))
  (fp_line (start 38.1 0) (end 40.64 2.54) (layer F.Fab) (width 0.1))
  (fp_line (start 38.1 49.28) (end 36.58 50.8) (layer F.Fab) (width 0.1))
  (fp_line (start 36.58 50.8) (end -27.94 50.8) (layer F.Fab) (width 0.1))
  (fp_line (start -27.94 50.8) (end -27.94 -2.54) (layer F.Fab) (width 0.1))
  (fp_line (start -27.94 -2.54) (end 38.1 -2.54) (layer F.Fab) (width 0.1))
  (pad 32 thru_hole oval (at -9.14 48.26 90) (size 1.6 1.6) (drill 1.0) (layers *.Cu *.Mask))
  (pad 31 thru_hole oval (at -6.6 48.26 90) (size 1.6 1.6) (drill 1.0) (layers *.Cu *.Mask))
  (pad 1 thru_hole rect (at 0 0 90) (size 1.6 1.6) (drill 1.0) (layers *.Cu *.Mask))
  (pad 17 thru_hole oval (at 30.48 48.26 90) (size 1.6 1.6) (drill 1.0) (layers *.Cu *.Mask))
  (pad 2 thru_hole oval (at 2.54 0 90) (size 1.6 1.6) (drill 1.0) (layers *.Cu *.Mask))
  (pad 18 thru_hole oval (at 27.94 48.26 90) (size 1.6 1.6) (drill 1.0) (layers *.Cu *.Mask))
  (pad 3 thru_hole oval (at 5.08 0 90) (size 1.6 1.6) (drill 1.0) (layers *.Cu *.Mask))
  (pad 19 thru_hole oval (at 25.4 48.26 90) (size 1.6 1.6) (drill 1.0) (layers *.Cu *.Mask))
  (pad 4 thru_hole oval (at 7.62 0 90) (size 1.6 1.6) (drill 1.0) (layers *.Cu *.Mask))
  (pad 20 thru_hole oval (at 22.86 48.26 90) (size 1.6 1.6) (drill 1.0) (layers *.Cu *.Mask))
  (pad 5 thru_hole oval (at 10.16 0 90) (size 1.6 1.6) (drill 1.0) (layers *.Cu *.Mask))
  (pad 21 thru_hole oval (at 20.32 48.26 90) (size 1.6 1.6) (drill 1.0) (layers *.Cu *.Mask))
  (pad 6 thru_hole oval (at 12.7 0 90) (size 1.6 1.6) (drill 1.0) (layers *.Cu *.Mask))
  (pad 22 thru_hole oval (at 17.78 48.26 90) (size 1.6 1.6) (drill 1.0) (layers *.Cu *.Mask))
  (pad 7 thru_hole oval (at 15.24 0 90) (size 1.6 1.6) (drill 1.0) (layers *.Cu *.Mask))
  (pad 23 thru_hole oval (at 13.72 48.26 90) (size 1.6 1.6) (drill 1.0) (layers *.Cu *.Mask))
  (pad 8 thru_hole oval (at 17.78 0 90) (size 1.6 1.6) (drill 1.0) (layers *.Cu *.Mask))
  (pad 24 thru_hole oval (at 11.18 48.26 90) (size 1.6 1.6) (drill 1.0) (layers *.Cu *.Mask))
  (pad 9 thru_hole oval (at 22.86 0 90) (size 1.6 1.6) (drill 1.0) (layers *.Cu *.Mask))
  (pad 25 thru_hole oval (at 8.64 48.26 90) (size 1.6 1.6) (drill 1.0) (layers *.Cu *.Mask))
  (pad 10 thru_hole oval (at 25.4 0 90) (size 1.6 1.6) (drill 1.0) (layers *.Cu *.Mask))
  (pad 26 thru_hole oval (at 6.1 48.26 90) (size 1.6 1.6) (drill 1.0) (layers *.Cu *.Mask))
  (pad 11 thru_hole oval (at 27.94 0 90) (size 1.6 1.6) (drill 1.0) (layers *.Cu *.Mask))
  (pad 27 thru_hole oval (at 3.56 48.26 90) (size 1.6 1.6) (drill 1.0) (layers *.Cu *.Mask))
  (pad 12 thru_hole oval (at 30.48 0 90) (size 1.6 1.6) (drill 1.0) (layers *.Cu *.Mask))
  (pad 28 thru_hole oval (at 1.02 48.26 90) (size 1.6 1.6) (drill 1.0) (layers *.Cu *.Mask))
  (pad 13 thru_hole oval (at 33.02 0 90) (size 1.6 1.6) (drill 1.0) (layers *.Cu *.Mask))
  (pad 29 thru_hole oval (at -1.52 48.26 90) (size 1.6 1.6) (drill 1.0) (layers *.Cu *.Mask))
  (pad 14 thru_hole oval (at 35.56 0 90) (size 1.6 1.6) (drill 1.0) (layers *.Cu *.Mask))
  (pad 30 thru_hole oval (at -4.06 48.26 90) (size 1.6 1.6) (drill 1.0) (layers *.Cu *.Mask))
  (pad 15 thru_hole oval (at 35.56 48.26 90) (size 1.6 1.6) (drill 1.0) (layers *.Cu *.Mask))
  (pad 16 thru_hole oval (at 33.02 48.26 90) (size 1.6 1.6) (drill 1.0) (layers *.Cu *.Mask))
  (model ${KICAD6_3DMODEL_DIR}/Module.3dshapes/Arduino_UNO_R3.wrl
    (at (xyz 0 0 0))
    (scale (xyz 1 1 1))
    (rotate (xyz 0 0 0))
  )
)
