(module Arduino_Nano_WithMountingHoles (layer F.Cu) (tedit 58ACAF99)
  (descr "Arduino Nano, http://www.mouser.com/pdfdocs/Gravitech_Arduino_Nano3_0.pdf")
  (tags "Arduino Nano")
  (fp_text reference REF** (at 7.62 -5.08) (layer F.SilkS)
    (effects (font (size 1 1) (thickness 0.15)))
  )
  (fp_text value Arduino_Nano_WithMountingHoles (at 8.89 15.24 90) (layer F.Fab)
    (effects (font (size 1 1) (thickness 0.15)))
  )
  (fp_text user %R (at 6.35 16.51 90) (layer F.Fab)
    (effects (font (size 1 1) (thickness 0.15)))
  )
  (fp_line (start 1.27 1.27) (end 1.27 -1.27) (layer F.SilkS) (width 0.12))
  (fp_line (start 1.27 -1.27) (end -1.4 -1.27) (layer F.SilkS) (width 0.12))
  (fp_line (start -1.4 1.27) (end -1.4 39.5) (layer F.SilkS) (width 0.12))
  (fp_line (start -1.4 -3.94) (end -1.4 -1.27) (layer F.SilkS) (width 0.12))
  (fp_line (start 13.97 -1.27) (end 16.64 -1.27) (layer F.SilkS) (width 0.12))
  (fp_line (start 13.97 -1.27) (end 13.97 36.83) (layer F.SilkS) (width 0.12))
  (fp_line (start 13.97 36.83) (end 16.64 36.83) (layer F.SilkS) (width 0.12))
  (fp_line (start 1.27 1.27) (end -1.4 1.27) (layer F.SilkS) (width 0.12))
  (fp_line (start 1.27 1.27) (end 1.27 36.83) (layer F.SilkS) (width 0.12))
  (fp_line (start 1.27 36.83) (end -1.4 36.83) (layer F.SilkS) (width 0.12))
  (fp_line (start 3.81 31.75) (end 11.43 31.75) (layer F.Fab) (width 0.1))
  (fp_line (start 11.43 31.75) (end 11.43 41.91) (layer F.Fab) (width 0.1))
  (fp_line (start 11.43 41.91) (end 3.81 41.91) (layer F.Fab) (width 0.1))
  (fp_line (start 3.81 41.91) (end 3.81 31.75) (layer F.Fab) (width 0.1))
  (fp_line (start -1.4 39.5) (end 16.64 39.5) (layer F.SilkS) (width 0.12))
  (fp_line (start 16.64 39.5) (end 16.64 -3.94) (layer F.SilkS) (width 0.12))
  (fp_line (start 16.64 -3.94) (end -1.4 -3.94) (layer F.SilkS) (width 0.12))
  (fp_line (start 16.51 39.37) (end -1.27 39.37) (layer F.Fab) (width 0.1))
  (fp_line (start -1.27 39.37) (end -1.27 -2.54) (layer F.Fab) (width 0.1))
  (fp_line (start -1.27 -2.54) (end 0 -3.81) (layer F.Fab) (width 0.1))
  (fp_line (start 0 -3.81) (end 16.51 -3.81) (layer F.Fab) (width 0.1))
  (fp_line (start 16.51 -3.81) (end 16.51 39.37) (layer F.Fab) (width 0.1))
  (fp_line (start -1.53 -4.06) (end 16.75 -4.06) (layer F.CrtYd) (width 0.05))
  (fp_line (start -1.53 -4.06) (end -1.53 42.16) (layer F.CrtYd) (width 0.05))
  (fp_line (start 16.75 42.16) (end 16.75 -4.06) (layer F.CrtYd) (width 0.05))
  (fp_line (start 16.75 42.16) (end -1.53 42.16) (layer F.CrtYd) (width 0.05))
  (pad 1 thru_hole rect (at 0 0) (size 1.6 1.6) (drill 1.0) (layers *.Cu *.Mask))
  (pad 17 thru_hole oval (at 15.24 33.02) (size 1.6 1.6) (drill 1.0) (layers *.Cu *.Mask))
  (pad 2 thru_hole oval (at 0 2.54) (size 1.6 1.6) (drill 1.0) (layers *.Cu *.Mask))
  (pad 18 thru_hole oval (at 15.24 30.48) (size 1.6 1.6) (drill 1.0) (layers *.Cu *.Mask))
  (pad 3 thru_hole oval (at 0 5.08) (size 1.6 1.6) (drill 1.0) (layers *.Cu *.Mask))
  (pad 19 thru_hole oval (at 15.24 27.94) (size 1.6 1.6) (drill 1.0) (layers *.Cu *.Mask))
  (pad 4 thru_hole oval (at 0 7.62) (size 1.6 1.6) (drill 1.0) (layers *.Cu *.Mask))
  (pad 20 thru_hole oval (at 15.24 25.4) (size 1.6 1.6) (drill 1.0) (layers *.Cu *.Mask))
  (pad 5 thru_hole oval (at 0 10.16) (size 1.6 1.6) (drill 1.0) (layers *.Cu *.Mask))
  (pad 21 thru_hole oval (at 15.24 22.86) (size 1.6 1.6) (drill 1.0) (layers *.Cu *.Mask))
  (pad 6 thru_hole oval (at 0 12.7) (size 1.6 1.6) (drill 1.0) (layers *.Cu *.Mask))
  (pad 22 thru_hole oval (at 15.24 20.32) (size 1.6 1.6) (drill 1.0) (layers *.Cu *.Mask))
  (pad 7 thru_hole oval (at 0 15.24) (size 1.6 1.6) (drill 1.0) (layers *.Cu *.Mask))
  (pad 23 thru_hole oval (at 15.24 17.78) (size 1.6 1.6) (drill 1.0) (layers *.Cu *.Mask))
  (pad 8 thru_hole oval (at 0 17.78) (size 1.6 1.6) (drill 1.0) (layers *.Cu *.Mask))
  (pad 24 thru_hole oval (at 15.24 15.24) (size 1.6 1.6) (drill 1.0) (layers *.Cu *.Mask))
  (pad 9 thru_hole oval (at 0 20.32) (size 1.6 1.6) (drill 1.0) (layers *.Cu *.Mask))
  (pad 25 thru_hole oval (at 15.24 12.7) (size 1.6 1.6) (drill 1.0) (layers *.Cu *.Mask))
  (pad 10 thru_hole oval (at 0 22.86) (size 1.6 1.6) (drill 1.0) (layers *.Cu *.Mask))
  (pad 26 thru_hole oval (at 15.24 10.16) (size 1.6 1.6) (drill 1.0) (layers *.Cu *.Mask))
  (pad 11 thru_hole oval (at 0 25.4) (size 1.6 1.6) (drill 1.0) (layers *.Cu *.Mask))
  (pad 27 thru_hole oval (at 15.24 7.62) (size 1.6 1.6) (drill 1.0) (layers *.Cu *.Mask))
  (pad 12 thru_hole oval (at 0 27.94) (size 1.6 1.6) (drill 1.0) (layers *.Cu *.Mask))
  (pad 28 thru_hole oval (at 15.24 5.08) (size 1.6 1.6) (drill 1.0) (layers *.Cu *.Mask))
  (pad 13 thru_hole oval (at 0 30.48) (size 1.6 1.6) (drill 1.0) (layers *.Cu *.Mask))
  (pad 29 thru_hole oval (at 15.24 2.54) (size 1.6 1.6) (drill 1.0) (layers *.Cu *.Mask))
  (pad 14 thru_hole oval (at 0 33.02) (size 1.6 1.6) (drill 1.0) (layers *.Cu *.Mask))
  (pad 30 thru_hole oval (at 15.24 0) (size 1.6 1.6) (drill 1.0) (layers *.Cu *.Mask))
  (pad 15 thru_hole oval (at 0 35.56) (size 1.6 1.6) (drill 1.0) (layers *.Cu *.Mask))
  (pad 16 thru_hole oval (at 15.24 35.56) (size 1.6 1.6) (drill 1.0) (layers *.Cu *.Mask))
  (pad "" np_thru_hole circle (at 0 -2.54) (size 1.78 1.78) (drill 1.78) (layers *.Cu *.Mask))
  (pad "" np_thru_hole circle (at 15.24 -2.54) (size 1.78 1.78) (drill 1.78) (layers *.Cu *.Mask))
  (pad "" np_thru_hole circle (at 15.24 38.1) (size 1.78 1.78) (drill 1.78) (layers *.Cu *.Mask))
  (pad "" np_thru_hole circle (at 0 38.1) (size 1.78 1.78) (drill 1.78) (layers *.Cu *.Mask))
  (model ${KICAD6_3DMODEL_DIR}/Module.3dshapes/Arduino_Nano_WithMountingHoles.wrl
    (at (xyz 0 0 0))
    (scale (xyz 1 1 1))
    (rotate (xyz 0 0 0))
  )
)
