(module Raspberry_Pi_Zero_Socketed_THT_FaceDown_MountingHoles (layer F.Cu) (tedit 5C6350CC)
  (descr "Raspberry Pi Zero using through hole straight pin socket, 2x20, 2.54mm pitch, https://www.raspberrypi.org/documentation/hardware/raspberrypi/mechanical/rpi_MECH_Zero_1p2.pdf")
  (tags "raspberry pi zero through hole")
  (fp_text reference REF** (at -6.27 24.13 90) (layer F.SilkS)
    (effects (font (size 1 1) (thickness 0.15)))
  )
  (fp_text value Raspberry_Pi_Zero_Socketed_THT_FaceDown_MountingHoles (at 10.23 24.13 270) (layer F.Fab)
    (effects (font (size 1 1) (thickness 0.15)))
  )
  (fp_line (start 27.03 41.63) (end 25.23 41.63) (layer F.Fab) (width 0.1))
  (fp_line (start 27.03 49.63) (end 27.03 41.63) (layer F.Fab) (width 0.1))
  (fp_line (start 25.23 49.63) (end 27.03 49.63) (layer F.Fab) (width 0.1))
  (fp_line (start 25.23 -1.62) (end 25.23 -5.37) (layer F.Fab) (width 0.1))
  (fp_line (start 25.93 9.68) (end 25.93 -1.62) (layer F.Fab) (width 0.1))
  (fp_line (start 25.23 9.68) (end 25.93 9.68) (layer F.Fab) (width 0.1))
  (fp_line (start 25.23 -1.62) (end 25.93 -1.62) (layer F.Fab) (width 0.1))
  (fp_line (start 19.23 56.88) (end 25.48 56.88) (layer F.CrtYd) (width 0.05))
  (fp_line (start -5.02 56.88) (end 1.23 56.88) (layer F.CrtYd) (width 0.05))
  (fp_line (start 25.48 50.13) (end 25.48 56.88) (layer F.CrtYd) (width 0.05))
  (fp_line (start 25.48 37.53) (end 25.48 41.13) (layer F.CrtYd) (width 0.05))
  (fp_line (start 25.48 -2.12) (end 25.48 -8.62) (layer F.CrtYd) (width 0.05))
  (fp_line (start -5.02 -8.62) (end 25.48 -8.62) (layer F.CrtYd) (width 0.05))
  (fp_arc (start 22.23 -5.37) (end 22.23 -8.43) (angle 90) (layer F.SilkS) (width 0.12))
  (fp_line (start 25.48 28.53) (end 25.48 10.18) (layer F.CrtYd) (width 0.05))
  (fp_line (start -5.02 56.88) (end -5.02 -8.62) (layer F.CrtYd) (width 0.05))
  (fp_line (start 19.23 58.33) (end 1.23 58.33) (layer F.CrtYd) (width 0.05))
  (fp_line (start 19.23 58.33) (end 19.23 56.88) (layer F.CrtYd) (width 0.05))
  (fp_line (start 1.23 58.33) (end 1.23 56.88) (layer F.CrtYd) (width 0.05))
  (fp_line (start 26.43 -2.12) (end 26.43 10.18) (layer F.CrtYd) (width 0.05))
  (fp_line (start 26.43 -2.12) (end 25.48 -2.12) (layer F.CrtYd) (width 0.05))
  (fp_line (start 26.43 10.18) (end 25.48 10.18) (layer F.CrtYd) (width 0.05))
  (fp_line (start 27.53 28.53) (end 25.48 28.53) (layer F.CrtYd) (width 0.05))
  (fp_line (start 27.53 37.53) (end 27.53 28.53) (layer F.CrtYd) (width 0.05))
  (fp_line (start 27.53 37.53) (end 25.48 37.53) (layer F.CrtYd) (width 0.05))
  (fp_line (start 27.53 50.13) (end 27.53 41.13) (layer F.CrtYd) (width 0.05))
  (fp_line (start 27.53 41.13) (end 25.48 41.13) (layer F.CrtYd) (width 0.05))
  (fp_line (start 27.53 50.13) (end 25.48 50.13) (layer F.CrtYd) (width 0.05))
  (fp_arc (start 22.23 53.63) (end 25.23 53.63) (angle 90) (layer F.Fab) (width 0.1))
  (fp_arc (start -1.77 -5.37) (end -4.83 -5.37) (angle 90) (layer F.SilkS) (width 0.12))
  (fp_arc (start -1.77 53.63) (end -1.77 56.69) (angle 90) (layer F.SilkS) (width 0.12))
  (fp_line (start -4.83 53.63) (end -4.83 -5.37) (layer F.SilkS) (width 0.12))
  (fp_line (start -1.77 -8.43) (end 22.23 -8.43) (layer F.SilkS) (width 0.12))
  (fp_line (start 25.29 53.63) (end 25.29 49.69) (layer F.SilkS) (width 0.12))
  (fp_line (start 18.79 56.69) (end 22.23 56.69) (layer F.SilkS) (width 0.12))
  (fp_arc (start 22.23 53.63) (end 25.29 53.63) (angle 90) (layer F.SilkS) (width 0.12))
  (fp_arc (start 22.23 -5.37) (end 22.23 -8.37) (angle 90) (layer F.Fab) (width 0.1))
  (fp_arc (start -1.77 -5.37) (end -4.77 -5.37) (angle 90) (layer F.Fab) (width 0.1))
  (fp_arc (start -1.77 53.63) (end -1.77 56.63) (angle 90) (layer F.Fab) (width 0.1))
  (fp_line (start 1.27 -0.27) (end 1.27 49.53) (layer F.Fab) (width 0.1))
  (fp_line (start -3.81 -1.27) (end 0.27 -1.27) (layer F.Fab) (width 0.1))
  (fp_line (start 0.27 -1.27) (end 1.27 -0.27) (layer F.Fab) (width 0.1))
  (fp_line (start -3.87 49.59) (end 1.33 49.59) (layer F.SilkS) (width 0.12))
  (fp_line (start 1.33 1.27) (end 1.33 49.59) (layer F.SilkS) (width 0.12))
  (fp_line (start 1.33 -1.33) (end 1.33 0) (layer F.SilkS) (width 0.12))
  (fp_line (start 0 -1.33) (end 1.33 -1.33) (layer F.SilkS) (width 0.12))
  (fp_line (start -1.27 1.27) (end 1.33 1.27) (layer F.SilkS) (width 0.12))
  (fp_line (start -1.27 -1.33) (end -1.27 1.27) (layer F.SilkS) (width 0.12))
  (fp_line (start 1.76 50) (end -4.34 50) (layer F.CrtYd) (width 0.05))
  (fp_line (start -4.34 50) (end -4.34 -1.8) (layer F.CrtYd) (width 0.05))
  (fp_line (start -4.34 -1.8) (end 1.76 -1.8) (layer F.CrtYd) (width 0.05))
  (fp_line (start 1.76 -1.8) (end 1.76 50) (layer F.CrtYd) (width 0.05))
  (fp_line (start -3.87 -1.33) (end -1.27 -1.33) (layer F.SilkS) (width 0.12))
  (fp_line (start -3.87 -1.33) (end -3.87 49.59) (layer F.SilkS) (width 0.12))
  (fp_line (start 1.27 49.53) (end -3.81 49.53) (layer F.Fab) (width 0.1))
  (fp_line (start -3.81 49.53) (end -3.81 -1.27) (layer F.Fab) (width 0.1))
  (fp_text user %R (at -1.27 24.13 90) (layer F.Fab)
    (effects (font (size 1 1) (thickness 0.15)))
  )
  (fp_line (start -1.77 56.63) (end 1.73 56.63) (layer F.Fab) (width 0.1))
  (fp_line (start -1.77 -8.37) (end 22.23 -8.37) (layer F.Fab) (width 0.1))
  (fp_line (start -4.77 53.63) (end -4.77 -5.37) (layer F.Fab) (width 0.1))
  (fp_line (start 27.03 29.03) (end 25.23 29.03) (layer F.Fab) (width 0.1))
  (fp_line (start 25.23 37.03) (end 27.03 37.03) (layer F.Fab) (width 0.1))
  (fp_line (start 27.03 37.03) (end 27.03 29.03) (layer F.Fab) (width 0.1))
  (fp_line (start 25.23 49.63) (end 25.23 53.63) (layer F.Fab) (width 0.1))
  (fp_line (start 25.23 41.63) (end 25.23 37.03) (layer F.Fab) (width 0.1))
  (fp_line (start 25.23 29.03) (end 25.23 9.68) (layer F.Fab) (width 0.1))
  (fp_line (start 1.73 56.63) (end 1.73 57.83) (layer F.Fab) (width 0.1))
  (fp_line (start 1.73 57.83) (end 18.73 57.83) (layer F.Fab) (width 0.1))
  (fp_line (start 18.73 56.63) (end 18.73 57.83) (layer F.Fab) (width 0.1))
  (fp_line (start 22.23 56.63) (end 18.73 56.63) (layer F.Fab) (width 0.1))
  (fp_line (start 1.67 56.69) (end 1.67 57.89) (layer F.SilkS) (width 0.12))
  (fp_line (start 1.67 57.89) (end 18.79 57.89) (layer F.SilkS) (width 0.12))
  (fp_line (start 18.79 57.89) (end 18.79 56.69) (layer F.SilkS) (width 0.12))
  (fp_line (start 1.67 56.69) (end -1.77 56.69) (layer F.SilkS) (width 0.12))
  (fp_line (start 25.29 49.69) (end 27.09 49.69) (layer F.SilkS) (width 0.12))
  (fp_line (start 27.09 49.69) (end 27.09 41.57) (layer F.SilkS) (width 0.12))
  (fp_line (start 27.09 41.57) (end 25.29 41.57) (layer F.SilkS) (width 0.12))
  (fp_line (start 25.29 37.09) (end 27.09 37.09) (layer F.SilkS) (width 0.12))
  (fp_line (start 27.09 28.97) (end 25.29 28.97) (layer F.SilkS) (width 0.12))
  (fp_line (start 27.09 37.09) (end 27.09 28.97) (layer F.SilkS) (width 0.12))
  (fp_line (start 25.29 41.57) (end 25.29 37.09) (layer F.SilkS) (width 0.12))
  (fp_line (start 25.29 28.97) (end 25.29 9.74) (layer F.SilkS) (width 0.12))
  (fp_line (start 25.29 9.74) (end 25.99 9.74) (layer F.SilkS) (width 0.12))
  (fp_line (start 25.99 9.74) (end 25.99 -1.68) (layer F.SilkS) (width 0.12))
  (fp_line (start 25.99 -1.68) (end 25.29 -1.68) (layer F.SilkS) (width 0.12))
  (fp_line (start 25.29 -1.68) (end 25.29 -5.37) (layer F.SilkS) (width 0.12))
  (pad 6 thru_hole oval (at -2.54 5.08) (size 1.7 1.7) (drill 1) (layers *.Cu *.Mask))
  (pad 3 thru_hole oval (at 0 2.54) (size 1.7 1.7) (drill 1) (layers *.Cu *.Mask))
  (pad 15 thru_hole oval (at 0 17.78) (size 1.7 1.7) (drill 1) (layers *.Cu *.Mask))
  (pad 16 thru_hole oval (at -2.54 17.78) (size 1.7 1.7) (drill 1) (layers *.Cu *.Mask))
  (pad 4 thru_hole oval (at -2.54 2.54) (size 1.7 1.7) (drill 1) (layers *.Cu *.Mask))
  (pad 5 thru_hole oval (at 0 5.08) (size 1.7 1.7) (drill 1) (layers *.Cu *.Mask))
  (pad 2 thru_hole oval (at -2.54 0) (size 1.7 1.7) (drill 1) (layers *.Cu *.Mask))
  (pad 1 thru_hole rect (at 0 0) (size 1.7 1.7) (drill 1) (layers *.Cu *.Mask))
  (pad 23 thru_hole oval (at 0 27.94) (size 1.7 1.7) (drill 1) (layers *.Cu *.Mask))
  (pad 24 thru_hole oval (at -2.54 27.94) (size 1.7 1.7) (drill 1) (layers *.Cu *.Mask))
  (pad 11 thru_hole oval (at 0 12.7) (size 1.7 1.7) (drill 1) (layers *.Cu *.Mask))
  (pad 12 thru_hole oval (at -2.54 12.7) (size 1.7 1.7) (drill 1) (layers *.Cu *.Mask))
  (pad 27 thru_hole oval (at 0 33.02) (size 1.7 1.7) (drill 1) (layers *.Cu *.Mask))
  (pad 28 thru_hole oval (at -2.54 33.02) (size 1.7 1.7) (drill 1) (layers *.Cu *.Mask))
  (pad 13 thru_hole oval (at 0 15.24) (size 1.7 1.7) (drill 1) (layers *.Cu *.Mask))
  (pad 14 thru_hole oval (at -2.54 15.24) (size 1.7 1.7) (drill 1) (layers *.Cu *.Mask))
  (pad 9 thru_hole oval (at 0 10.16) (size 1.7 1.7) (drill 1) (layers *.Cu *.Mask))
  (pad 10 thru_hole oval (at -2.54 10.16) (size 1.7 1.7) (drill 1) (layers *.Cu *.Mask))
  (pad 19 thru_hole oval (at 0 22.86) (size 1.7 1.7) (drill 1) (layers *.Cu *.Mask))
  (pad 20 thru_hole oval (at -2.54 22.86) (size 1.7 1.7) (drill 1) (layers *.Cu *.Mask))
  (pad 37 thru_hole oval (at 0 45.72) (size 1.7 1.7) (drill 1) (layers *.Cu *.Mask))
  (pad 38 thru_hole oval (at -2.54 45.72) (size 1.7 1.7) (drill 1) (layers *.Cu *.Mask))
  (pad 33 thru_hole oval (at 0 40.64) (size 1.7 1.7) (drill 1) (layers *.Cu *.Mask))
  (pad 34 thru_hole oval (at -2.54 40.64) (size 1.7 1.7) (drill 1) (layers *.Cu *.Mask))
  (pad 35 thru_hole oval (at 0 43.18) (size 1.7 1.7) (drill 1) (layers *.Cu *.Mask))
  (pad 36 thru_hole oval (at -2.54 43.18) (size 1.7 1.7) (drill 1) (layers *.Cu *.Mask))
  (pad 17 thru_hole oval (at 0 20.32) (size 1.7 1.7) (drill 1) (layers *.Cu *.Mask))
  (pad 18 thru_hole oval (at -2.54 20.32) (size 1.7 1.7) (drill 1) (layers *.Cu *.Mask))
  (pad 31 thru_hole oval (at 0 38.1) (size 1.7 1.7) (drill 1) (layers *.Cu *.Mask))
  (pad 32 thru_hole oval (at -2.54 38.1) (size 1.7 1.7) (drill 1) (layers *.Cu *.Mask))
  (pad 7 thru_hole oval (at 0 7.62) (size 1.7 1.7) (drill 1) (layers *.Cu *.Mask))
  (pad 8 thru_hole oval (at -2.54 7.62) (size 1.7 1.7) (drill 1) (layers *.Cu *.Mask))
  (pad 29 thru_hole oval (at 0 35.56) (size 1.7 1.7) (drill 1) (layers *.Cu *.Mask))
  (pad 30 thru_hole oval (at -2.54 35.56) (size 1.7 1.7) (drill 1) (layers *.Cu *.Mask))
  (pad 21 thru_hole oval (at 0 25.4) (size 1.7 1.7) (drill 1) (layers *.Cu *.Mask))
  (pad 22 thru_hole oval (at -2.54 25.4) (size 1.7 1.7) (drill 1) (layers *.Cu *.Mask))
  (pad 25 thru_hole oval (at 0 30.48) (size 1.7 1.7) (drill 1) (layers *.Cu *.Mask))
  (pad 26 thru_hole oval (at -2.54 30.48) (size 1.7 1.7) (drill 1) (layers *.Cu *.Mask))
  (pad 39 thru_hole oval (at 0 48.26) (size 1.7 1.7) (drill 1) (layers *.Cu *.Mask))
  (pad 40 thru_hole oval (at -2.54 48.26) (size 1.7 1.7) (drill 1) (layers *.Cu *.Mask))
  (pad "" np_thru_hole circle (at -1.27 -4.87 90) (size 2.75 2.75) (drill 2.75) (layers *.Cu *.Mask)
    (solder_mask_margin 1.625))
  (pad "" np_thru_hole circle (at 21.73 53.13 90) (size 2.75 2.75) (drill 2.75) (layers *.Cu *.Mask)
    (solder_mask_margin 1.625))
  (pad "" np_thru_hole circle (at 21.73 -4.87 90) (size 2.75 2.75) (drill 2.75) (layers *.Cu *.Mask)
    (solder_mask_margin 1.625))
  (pad "" np_thru_hole circle (at -1.27 53.13 90) (size 2.75 2.75) (drill 2.75) (layers *.Cu *.Mask)
    (solder_mask_margin 1.625))
  (model ${KICAD6_3DMODEL_DIR}/Module.3dshapes/Raspberry_Pi_Zero_Socketed_THT_FaceDown_MountingHoles.wrl
    (at (xyz 0 0 0))
    (scale (xyz 1 1 1))
    (rotate (xyz 0 0 0))
  )
)
