(module Mini-Circuits_GP731_LandPatternPL-176 (layer F.Cu) (tedit 5C1B336A)
  (descr "Footprint for Mini-Circuits case GP731 (https://ww2.minicircuits.com/case_style/GP731.pdf) following land pattern PL-176, including GND vias (https://www.minicircuits.com/pcb/98-pl176.pdf)")
  (tags "mini-circuits PL-176")
  (attr smd)
  (fp_text reference REF** (at 0 -5.969) (layer F.SilkS)
    (effects (font (size 1 1) (thickness 0.15)))
  )
  (fp_text value Mini-Circuits_GP731_LandPatternPL-176 (at 0 6.096) (layer F.Fab)
    (effects (font (size 1 1) (thickness 0.15)))
  )
  (fp_text user %R (at 0 0) (layer F.Fab)
    (effects (font (size 1 1) (thickness 0.15)))
  )
  (fp_line (start -3.175 -4.445) (end 4.445 -4.445) (layer F.Fab) (width 0.1))
  (fp_line (start -4.445 4.445) (end -4.445 -3.175) (layer F.Fab) (width 0.1))
  (fp_line (start 4.445 4.445) (end -4.445 4.445) (layer F.Fab) (width 0.1))
  (fp_line (start 4.445 -4.445) (end 4.445 4.445) (layer F.Fab) (width 0.1))
  (fp_line (start -5.2 -5.2) (end 5.2 -5.2) (layer F.SilkS) (width 0.12))
  (fp_line (start 5.2 -4) (end 5.2 -5.2) (layer F.SilkS) (width 0.12))
  (fp_line (start 5.2 5.2) (end 5.2 4) (layer F.SilkS) (width 0.12))
  (fp_line (start 5.2 5.2) (end -5.2 5.2) (layer F.SilkS) (width 0.12))
  (fp_line (start -5.2 4) (end -5.2 5.2) (layer F.SilkS) (width 0.12))
  (fp_line (start -5.2 -5.2) (end -5.2 -1.4) (layer F.SilkS) (width 0.12))
  (fp_line (start -4.445 -3.175) (end -3.175 -4.445) (layer F.Fab) (width 0.1))
  (fp_line (start -5.2 -5.2) (end 5.2 -5.2) (layer F.CrtYd) (width 0.05))
  (fp_line (start -5.2 -5.2) (end -5.2 5.2) (layer F.CrtYd) (width 0.05))
  (fp_line (start 5.2 5.2) (end 5.2 -5.2) (layer F.CrtYd) (width 0.05))
  (fp_line (start 5.2 5.2) (end -5.2 5.2) (layer F.CrtYd) (width 0.05))
  (pad 8 smd rect (at 0 -4.064 270) (size 1.778 1.016) (layers F.Cu F.Paste F.Mask)
    (zone_connect 2))
  (pad 4 smd rect (at 0 4.064 270) (size 1.778 1.016) (layers F.Cu F.Paste F.Mask)
    (zone_connect 2))
  (pad 1 smd rect (at -4.064 -1.905 180) (size 1.778 1.016) (layers F.Cu F.Paste F.Mask)
    (zone_connect 2))
  (pad 2 smd rect (at -4.064 0 180) (size 1.778 1.016) (layers F.Cu F.Paste F.Mask)
    (clearance 0.762))
  (pad 3 smd rect (at -4.064 1.905 180) (size 1.778 1.016) (layers F.Cu F.Paste F.Mask)
    (zone_connect 2))
  (pad 5 smd rect (at 4.064 1.905) (size 1.778 1.016) (layers F.Cu F.Paste F.Mask)
    (zone_connect 2))
  (pad 6 smd rect (at 4.064 0) (size 1.778 1.016) (layers F.Cu F.Paste F.Mask)
    (clearance 0.762))
  (pad 7 smd rect (at 4.064 -1.905) (size 1.778 1.016) (layers F.Cu F.Paste F.Mask)
    (zone_connect 2))
  (pad 1 thru_hole circle (at -1.27 1.27) (size 1.016 1.016) (drill 0.508) (layers *.Cu)
    (zone_connect 2))
  (pad 1 thru_hole circle (at 1.27 1.27) (size 1.016 1.016) (drill 0.508) (layers *.Cu)
    (zone_connect 2))
  (pad 1 thru_hole circle (at 1.27 -1.27) (size 1.016 1.016) (drill 0.508) (layers *.Cu)
    (zone_connect 2))
  (pad 1 thru_hole circle (at -1.27 -1.27) (size 1.016 1.016) (drill 0.508) (layers *.Cu)
    (zone_connect 2))
  (pad 1 thru_hole circle (at -4.445 -4.445) (size 1.016 1.016) (drill 0.508) (layers *.Cu)
    (zone_connect 2))
  (pad 1 thru_hole circle (at 4.445 -4.445) (size 1.016 1.016) (drill 0.508) (layers *.Cu)
    (zone_connect 2))
  (pad 1 thru_hole circle (at 4.445 4.445) (size 1.016 1.016) (drill 0.508) (layers *.Cu)
    (zone_connect 2))
  (pad 1 thru_hole circle (at -4.445 4.445) (size 1.016 1.016) (drill 0.508) (layers *.Cu)
    (zone_connect 2))
  (pad 1 smd rect (at 0 0) (size 4.826 9.906) (layers F.Cu)
    (zone_connect 2))
  (pad 1 smd rect (at -3.683 3.175) (size 2.54 3.556) (layers F.Cu)
    (zone_connect 2))
  (pad 1 smd rect (at 3.683 3.175) (size 2.54 3.556) (layers F.Cu)
    (zone_connect 2))
  (pad 1 smd rect (at 3.683 -3.175) (size 2.54 3.556) (layers F.Cu)
    (zone_connect 2))
  (pad 1 smd rect (at -3.683 -3.175) (size 2.54 3.556) (layers F.Cu)
    (zone_connect 2))
  (model ${KICAD6_3DMODEL_DIR}/RF_Mini-Circuits.3dshapes/Mini-Circuits_GP731.wrl
    (at (xyz 0 0 0))
    (scale (xyz 1 1 1))
    (rotate (xyz 0 0 0))
  )
)
