(module Mini-Circuits_HQ1157 (layer F.Cu) (tedit 5EAC42CA)
  (descr "Footprint for Mini-Circuits case HQ1157 (https://www.minicircuits.com/case_style/HQ1157.pdf)")
  (tags "Mini-Circuits HQ1157")
  (attr smd)
  (fp_text reference REF** (at 8.128 0 270) (layer F.SilkS)
    (effects (font (size 1 1) (thickness 0.15)))
  )
  (fp_text value Mini-Circuits_HQ1157 (at -8 -0.1 270) (layer F.Fab)
    (effects (font (size 1 1) (thickness 0.15)))
  )
  (fp_text user %R (at -0.2 0 270) (layer F.Fab)
    (effects (font (size 1 1) (thickness 0.15)))
  )
  (fp_line (start 4.6355 -17.272) (end 4.6355 17.272) (layer F.Fab) (width 0.1))
  (fp_line (start 4.6355 17.272) (end -4.6355 17.272) (layer F.Fab) (width 0.1))
  (fp_line (start -4.6355 17.272) (end -4.6355 -17.272) (layer F.Fab) (width 0.1))
  (fp_line (start -4.6355 -17.272) (end 4.6355 -17.272) (layer F.Fab) (width 0.1))
  (fp_line (start 1.778 -17.78) (end 5.588 -17.78) (layer F.SilkS) (width 0.12))
  (fp_line (start 5.588 -17.78) (end 5.588 17.78) (layer F.SilkS) (width 0.12))
  (fp_line (start -5.588 -17.78) (end -5.588 17.78) (layer F.SilkS) (width 0.12))
  (fp_line (start -5.588 -17.78) (end -1.778 -17.78) (layer F.SilkS) (width 0.12))
  (fp_line (start 5.39 -18.03) (end 5.39 18.03) (layer F.CrtYd) (width 0.05))
  (fp_line (start 5.39 -18.03) (end -5.39 -18.03) (layer F.CrtYd) (width 0.05))
  (fp_line (start -5.39 18.03) (end 5.39 18.03) (layer F.CrtYd) (width 0.05))
  (fp_line (start -5.39 18.03) (end -5.39 -18.03) (layer F.CrtYd) (width 0.05))
  (pad 14 smd rect (at 3.6195 -9.525 270) (size 2.54 3.048) (layers F.Cu F.Paste F.Mask))
  (pad 8 smd rect (at 0 16.256 270) (size 3.048 2.54) (layers F.Cu F.Paste F.Mask))
  (pad 1 smd rect (at 0 -16.256 270) (size 3.048 2.54) (layers F.Cu F.Paste F.Mask))
  (pad 13 smd rect (at 3.6195 -5.715 270) (size 2.54 3.048) (layers F.Cu F.Paste F.Mask))
  (pad 12 smd rect (at 3.6195 -1.905 270) (size 2.54 3.048) (layers F.Cu F.Paste F.Mask))
  (pad 11 smd rect (at 3.6195 1.905 270) (size 2.54 3.048) (layers F.Cu F.Paste F.Mask))
  (pad 10 smd rect (at 3.6195 5.715 270) (size 2.54 3.048) (layers F.Cu F.Paste F.Mask))
  (pad 9 smd rect (at 3.6195 9.525 270) (size 2.54 3.048) (layers F.Cu F.Paste F.Mask))
  (pad 2 smd rect (at -3.6195 -9.525 90) (size 2.54 3.048) (layers F.Cu F.Paste F.Mask))
  (pad 4 smd rect (at -3.6195 -1.905 90) (size 2.54 3.048) (layers F.Cu F.Paste F.Mask))
  (pad 3 smd rect (at -3.6195 -5.715 90) (size 2.54 3.048) (layers F.Cu F.Paste F.Mask))
  (pad 6 smd rect (at -3.6195 5.715 90) (size 2.54 3.048) (layers F.Cu F.Paste F.Mask))
  (pad 7 smd rect (at -3.6195 9.525 90) (size 2.54 3.048) (layers F.Cu F.Paste F.Mask))
  (pad 5 smd rect (at -3.6195 1.905 90) (size 2.54 3.048) (layers F.Cu F.Paste F.Mask))
  (model ${KICAD6_3DMODEL_DIR}/RF_Mini-Circuits.3dshapes/Mini-Circuits_HQ1157.wrl
    (at (xyz 0 0 0))
    (scale (xyz 1 1 1))
    (rotate (xyz 0 0 0))
  )
)
