(module Mini-Circuits_CD636_LandPatternPL-035 (layer F.Cu) (tedit 5C1A98FF)
  (descr "Footprint for Mini-Circuits case CD636 (https://ww2.minicircuits.com/case_style/CD636.pdf) following land pattern PL-035, including GND-vias (https://ww2.minicircuits.com/pcb/98-pl035.pdf)")
  (tags "mini-circuits pl-035 CD636")
  (attr smd)
  (fp_text reference REF** (at 0.004446 -4.953) (layer F.SilkS)
    (effects (font (size 1 1) (thickness 0.15)))
  )
  (fp_text value Mini-Circuits_CD636_LandPatternPL-035 (at 0 4.953) (layer F.Fab)
    (effects (font (size 1 1) (thickness 0.15)))
  )
  (fp_text user %R (at 0 0) (layer F.Fab)
    (effects (font (size 1 1) (thickness 0.15)))
  )
  (fp_line (start 2.921 -3.556) (end 2.921 -4.064) (layer F.SilkS) (width 0.12))
  (fp_line (start 2.921 -4.064) (end -2.921 -4.064) (layer F.SilkS) (width 0.12))
  (fp_line (start -2.921 -4.064) (end -2.921 -3.556) (layer F.SilkS) (width 0.12))
  (fp_line (start -2.921 -3.556) (end -3.81 -3.556) (layer F.SilkS) (width 0.12))
  (fp_line (start -2.921 3.556) (end -2.921 4.064) (layer F.SilkS) (width 0.12))
  (fp_line (start -2.921 4.064) (end 2.921 4.064) (layer F.SilkS) (width 0.12))
  (fp_line (start 2.921 4.064) (end 2.921 3.556) (layer F.SilkS) (width 0.12))
  (fp_line (start -2.794 -2.667) (end -2.794 3.937) (layer F.Fab) (width 0.1))
  (fp_line (start 2.794 -3.937) (end 2.794 3.937) (layer F.Fab) (width 0.1))
  (fp_line (start 2.794 -3.937) (end -1.524 -3.937) (layer F.Fab) (width 0.1))
  (fp_line (start -2.794 3.937) (end 2.794 3.937) (layer F.Fab) (width 0.1))
  (fp_line (start -1.524 -3.937) (end -2.794 -2.667) (layer F.Fab) (width 0.1))
  (fp_line (start -4.06 -4.19) (end 4.06 -4.19) (layer F.CrtYd) (width 0.05))
  (fp_line (start -4.06 -4.19) (end -4.06 4.19) (layer F.CrtYd) (width 0.05))
  (fp_line (start 4.06 4.19) (end 4.06 -4.19) (layer F.CrtYd) (width 0.05))
  (fp_line (start 4.06 4.19) (end -4.06 4.19) (layer F.CrtYd) (width 0.05))
  (pad 1 smd rect (at -2.54 -2.54 270) (size 1.651 2.54) (layers F.Cu F.Paste F.Mask)
    (clearance 0.635))
  (pad 2 smd rect (at -2.54 0 270) (size 1.651 2.54) (layers F.Cu F.Paste F.Mask)
    (clearance 0.635))
  (pad 3 smd rect (at -2.54 2.54 270) (size 1.651 2.54) (layers F.Cu F.Paste F.Mask)
    (clearance 0.635))
  (pad 4 smd rect (at 2.54 2.54 270) (size 1.651 2.54) (layers F.Cu F.Paste F.Mask)
    (clearance 0.635))
  (pad 5 smd rect (at 2.54 0 270) (size 1.651 2.54) (layers F.Cu F.Paste F.Mask)
    (clearance 0.635))
  (pad 6 smd rect (at 2.54 -2.54 270) (size 1.651 2.54) (layers F.Cu F.Paste F.Mask)
    (zone_connect 2))
  (pad 6 thru_hole circle (at 0 -2.54 270) (size 1.016 1.016) (drill 0.508) (layers *.Cu)
    (zone_connect 2))
  (pad 6 thru_hole circle (at 0 -1.27 270) (size 1.016 1.016) (drill 0.508) (layers *.Cu)
    (zone_connect 2))
  (pad 6 thru_hole circle (at 0 0 270) (size 1.016 1.016) (drill 0.508) (layers *.Cu)
    (zone_connect 2))
  (pad 6 thru_hole circle (at 0 1.27 270) (size 1.016 1.016) (drill 0.508) (layers *.Cu)
    (zone_connect 2))
  (pad 6 thru_hole circle (at 0 2.54 270) (size 1.016 1.016) (drill 0.508) (layers *.Cu)
    (zone_connect 2))
  (pad 6 smd rect (at 0 0 270) (size 6.731 1.27) (layers F.Cu)
    (zone_connect 2))
  (pad 6 smd rect (at 0.9525 -2.54 270) (size 1.651 0.635) (layers F.Cu)
    (zone_connect 2))
  (model ${KICAD6_3DMODEL_DIR}/RF_Mini-Circuits.3dshapes/Mini-Circuits_CD636.wrl
    (at (xyz 0 0 0))
    (scale (xyz 1 1 1))
    (rotate (xyz 0 0 0))
  )
)
