(module Mini-Circuits_QQQ130_LandPattern_PL-236_ClockwisePinNumbering (layer F.Cu) (tedit 5C2CF151)
  (descr "Footprint for Mini-Circuits case QQQ130 (https://ww2.minicircuits.com/case_style/QQQ130.pdf) following land pattern PL-236, including GND vias (https://ww2.minicircuits.com/pcb/98-pl236.pdf)")
  (tags "Mini-Circuits PL-236")
  (attr smd)
  (fp_text reference REF** (at -5.207 0 90) (layer F.SilkS)
    (effects (font (size 1 1) (thickness 0.15)))
  )
  (fp_text value Mini-Circuits_QQQ130_LandPattern_PL-236_ClockwisePinNumbering (at 0 7) (layer F.Fab)
    (effects (font (size 1 1) (thickness 0.15)))
  )
  (fp_text user %R (at 0 0 180) (layer F.Fab)
    (effects (font (size 1 1) (thickness 0.15)))
  )
  (fp_line (start -4.191 -3.81) (end -4.191 3.302) (layer F.SilkS) (width 0.12))
  (fp_line (start 4.191 -3.302) (end 4.191 3.302) (layer F.SilkS) (width 0.12))
  (fp_line (start -3.556 -3.81) (end -4.191 -3.81) (layer F.SilkS) (width 0.12))
  (fp_line (start -3.937 3.302) (end -3.937 -2.032) (layer F.Fab) (width 0.1))
  (fp_line (start -3.937 3.302) (end 3.937 3.302) (layer F.Fab) (width 0.1))
  (fp_line (start 3.937 -3.302) (end 3.937 3.302) (layer F.Fab) (width 0.1))
  (fp_line (start 3.937 -3.302) (end -2.667 -3.302) (layer F.Fab) (width 0.1))
  (fp_line (start -3.556 -3.81) (end -3.556 -5.334) (layer F.SilkS) (width 0.12))
  (fp_line (start -2.667 -3.302) (end -3.937 -2.032) (layer F.Fab) (width 0.1))
  (fp_line (start -4.19 5.58) (end -4.19 -5.58) (layer F.CrtYd) (width 0.05))
  (fp_line (start -4.19 5.58) (end 4.19 5.58) (layer F.CrtYd) (width 0.05))
  (fp_line (start 4.19 -5.58) (end -4.19 -5.58) (layer F.CrtYd) (width 0.05))
  (fp_line (start 4.19 -5.58) (end 4.19 5.58) (layer F.CrtYd) (width 0.05))
  (pad 1 smd rect (at -2.54 -3.81) (size 1.524 3.048) (layers F.Cu F.Paste F.Mask)
    (zone_connect 2))
  (pad 2 smd rect (at 0 -3.81) (size 1.524 3.048) (layers F.Cu F.Paste F.Mask)
    (clearance 0.635))
  (pad 3 smd rect (at 2.54 -3.81) (size 1.524 3.048) (layers F.Cu F.Paste F.Mask)
    (clearance 0.635))
  (pad 4 smd rect (at 2.54 3.81) (size 1.524 3.048) (layers F.Cu F.Paste F.Mask)
    (clearance 0.635))
  (pad 5 smd rect (at 0 3.81) (size 1.524 3.048) (layers F.Cu F.Paste F.Mask)
    (clearance 0.635))
  (pad 6 smd rect (at -2.54 3.81) (size 1.524 3.048) (layers F.Cu F.Paste F.Mask)
    (clearance 0.635))
  (pad 1 thru_hole circle (at 0 -0.8255) (size 1.016 1.016) (drill 0.508) (layers *.Cu)
    (zone_connect 2))
  (pad 1 thru_hole circle (at 0 0.8255) (size 1.016 1.016) (drill 0.508) (layers *.Cu)
    (zone_connect 2))
  (pad 1 thru_hole circle (at -2.54 0.8255) (size 1.016 1.016) (drill 0.508) (layers *.Cu)
    (zone_connect 2))
  (pad 1 thru_hole circle (at -2.54 -0.8255) (size 1.016 1.016) (drill 0.508) (layers *.Cu)
    (zone_connect 2))
  (pad 1 thru_hole circle (at 2.54 0.8255) (size 1.016 1.016) (drill 0.508) (layers *.Cu)
    (zone_connect 2))
  (pad 1 thru_hole circle (at 2.54 -0.8255) (size 1.016 1.016) (drill 0.508) (layers *.Cu)
    (zone_connect 2))
  (pad 1 smd rect (at 0 0 90) (size 3.3274 6.604) (layers F.Cu)
    (zone_connect 2))
  (pad 1 smd rect (at -2.54 -1.9685 90) (size 0.635 1.524) (layers F.Cu)
    (zone_connect 2))
  (model ${KICAD6_3DMODEL_DIR}/RF_Mini-Circuits.3dshapes/Mini-Circuits_QQQ130.wrl
    (at (xyz 0 0 0))
    (scale (xyz 1 1 1))
    (rotate (xyz 0 0 0))
  )
)
