(module Mini-Circuits_HF1139_LandPatternPL-230 (layer F.Cu) (tedit 5C1BF4FB)
  (descr "Footprint for Mini-Circuits case HF1139 (https://ww2.minicircuits.com/case_style/HF1139.pdf) following land pattern PL-230, including GND vias (https://ww2.minicircuits.com/pcb/98-pl230.pdf)")
  (tags "Mini-Circuits PL-230")
  (attr smd)
  (fp_text reference REF** (at 0 -10.922) (layer F.SilkS)
    (effects (font (size 1 1) (thickness 0.15)))
  )
  (fp_text value Mini-Circuits_HF1139_LandPatternPL-230 (at 0 10.922) (layer F.Fab)
    (effects (font (size 1 1) (thickness 0.15)))
  )
  (fp_text user %R (at -0.1905 0 180) (layer F.Fab)
    (effects (font (size 1 1) (thickness 0.15)))
  )
  (fp_line (start 5.588 -9.652) (end -5.842 -9.652) (layer F.SilkS) (width 0.12))
  (fp_line (start -5.842 -9.652) (end -5.842 -8.636) (layer F.SilkS) (width 0.12))
  (fp_line (start 5.588 9.652) (end -5.588 9.652) (layer F.SilkS) (width 0.12))
  (fp_line (start 5.588 -9.398) (end -4.318 -9.398) (layer F.Fab) (width 0.1))
  (fp_line (start 5.588 9.398) (end -5.588 9.398) (layer F.Fab) (width 0.1))
  (fp_line (start 5.588 9.398) (end 5.588 -9.398) (layer F.Fab) (width 0.1))
  (fp_line (start -5.588 -8.001) (end -5.588 9.398) (layer F.Fab) (width 0.1))
  (fp_line (start -5.842 -8.636) (end -6.35 -8.636) (layer F.SilkS) (width 0.12))
  (fp_line (start -4.318 -9.398) (end -5.588 -8.001) (layer F.Fab) (width 0.1))
  (fp_line (start -7.11 -9.65) (end 7.11 -9.65) (layer F.CrtYd) (width 0.05))
  (fp_line (start -7.11 -9.65) (end -7.11 9.65) (layer F.CrtYd) (width 0.05))
  (fp_line (start 7.11 9.65) (end 7.11 -9.65) (layer F.CrtYd) (width 0.05))
  (fp_line (start 7.11 9.65) (end -7.11 9.65) (layer F.CrtYd) (width 0.05))
  (pad 1 smd rect (at -5.2705 -7.62 270) (size 1.524 1.397) (layers F.Cu F.Paste F.Mask)
    (clearance 3.3782))
  (pad 2 smd rect (at 5.2705 -7.62 270) (size 1.524 1.397) (layers F.Cu F.Paste F.Mask)
    (zone_connect 2))
  (pad 3 smd rect (at -5.2705 -2.54 270) (size 1.524 1.397) (layers F.Cu F.Paste F.Mask)
    (zone_connect 2))
  (pad 4 smd rect (at 5.2705 -2.54 270) (size 1.524 1.397) (layers F.Cu F.Paste F.Mask)
    (zone_connect 2))
  (pad 5 smd rect (at -5.2705 2.54 270) (size 1.524 1.397) (layers F.Cu F.Paste F.Mask)
    (zone_connect 2))
  (pad 6 smd rect (at 5.2705 2.54 270) (size 1.524 1.397) (layers F.Cu F.Paste F.Mask)
    (zone_connect 2))
  (pad 7 smd rect (at -5.2705 7.62 270) (size 1.524 1.397) (layers F.Cu F.Paste F.Mask)
    (zone_connect 2))
  (pad 8 smd rect (at 5.2705 7.62 270) (size 1.524 1.397) (layers F.Cu F.Paste F.Mask)
    (clearance 3.3782))
  (pad 7 thru_hole circle (at -6.35 6.858 270) (size 1.016 1.016) (drill 0.508) (layers *.Cu)
    (zone_connect 2))
  (pad 7 thru_hole circle (at -6.35 8.382 270) (size 1.016 1.016) (drill 0.508) (layers *.Cu)
    (zone_connect 2))
  (pad 5 thru_hole circle (at -6.35 3.302 270) (size 1.016 1.016) (drill 0.508) (layers *.Cu)
    (zone_connect 2))
  (pad 5 thru_hole circle (at -6.35 1.778 270) (size 1.016 1.016) (drill 0.508) (layers *.Cu)
    (zone_connect 2))
  (pad 6 thru_hole circle (at 6.35 1.778 270) (size 1.016 1.016) (drill 0.508) (layers *.Cu)
    (zone_connect 2))
  (pad 6 thru_hole circle (at 6.35 3.302 270) (size 1.016 1.016) (drill 0.508) (layers *.Cu)
    (zone_connect 2))
  (pad 4 thru_hole circle (at 6.35 -1.778 270) (size 1.016 1.016) (drill 0.508) (layers *.Cu)
    (zone_connect 2))
  (pad 4 thru_hole circle (at 6.35 -3.302 270) (size 1.016 1.016) (drill 0.508) (layers *.Cu)
    (zone_connect 2))
  (pad 2 thru_hole circle (at 6.35 -6.858 270) (size 1.016 1.016) (drill 0.508) (layers *.Cu)
    (zone_connect 2))
  (pad 2 thru_hole circle (at 6.35 -8.382 270) (size 1.016 1.016) (drill 0.508) (layers *.Cu)
    (zone_connect 2))
  (pad 3 thru_hole circle (at -6.35 -3.302 270) (size 1.016 1.016) (drill 0.508) (layers *.Cu)
    (zone_connect 2))
  (pad 3 thru_hole circle (at -6.35 -1.778 270) (size 1.016 1.016) (drill 0.508) (layers *.Cu)
    (zone_connect 2))
  (pad 7 thru_hole circle (at -0.635 0 270) (size 1.016 1.016) (drill 0.508) (layers *.Cu)
    (zone_connect 2))
  (pad 7 thru_hole circle (at 0.635 0 270) (size 1.016 1.016) (drill 0.508) (layers *.Cu)
    (zone_connect 2))
  (pad 7 thru_hole circle (at 0.635 2.54 270) (size 1.016 1.016) (drill 0.508) (layers *.Cu)
    (zone_connect 2))
  (pad 7 thru_hole circle (at -0.635 2.54 270) (size 1.016 1.016) (drill 0.508) (layers *.Cu)
    (zone_connect 2))
  (pad 7 thru_hole circle (at -0.635 5.08 270) (size 1.016 1.016) (drill 0.508) (layers *.Cu)
    (zone_connect 2))
  (pad 7 thru_hole circle (at 0.635 5.08 270) (size 1.016 1.016) (drill 0.508) (layers *.Cu)
    (zone_connect 2))
  (pad 7 thru_hole circle (at 0.635 7.62 270) (size 1.016 1.016) (drill 0.508) (layers *.Cu)
    (zone_connect 2))
  (pad 7 thru_hole circle (at -0.635 7.62 270) (size 1.016 1.016) (drill 0.508) (layers *.Cu)
    (zone_connect 2))
  (pad 7 thru_hole circle (at 0.635 -2.54 270) (size 1.016 1.016) (drill 0.508) (layers *.Cu)
    (zone_connect 2))
  (pad 7 thru_hole circle (at -0.635 -2.54 270) (size 1.016 1.016) (drill 0.508) (layers *.Cu)
    (zone_connect 2))
  (pad 7 thru_hole circle (at -0.635 -5.08 270) (size 1.016 1.016) (drill 0.508) (layers *.Cu)
    (zone_connect 2))
  (pad 7 thru_hole circle (at 0.635 -5.08 270) (size 1.016 1.016) (drill 0.508) (layers *.Cu)
    (zone_connect 2))
  (pad 7 thru_hole circle (at 0.635 -7.62 270) (size 1.016 1.016) (drill 0.508) (layers *.Cu)
    (zone_connect 2))
  (pad 7 thru_hole circle (at -0.635 -7.62 270) (size 1.016 1.016) (drill 0.508) (layers *.Cu)
    (zone_connect 2))
  (pad 7 smd rect (at 0 0 270) (size 18.796 2.3876) (layers F.Cu)
    (zone_connect 2))
  (pad 7 smd rect (at -4.0259 2.794 270) (size 13.208 5.6642) (layers F.Cu)
    (zone_connect 2))
  (pad 7 smd rect (at 4.0259 -2.794 270) (size 13.208 5.6642) (layers F.Cu)
    (zone_connect 2))
  (model ${KICAD6_3DMODEL_DIR}/RF_Mini-Circuits.3dshapes/Mini-Circuits_HF1139.wrl
    (at (xyz 0 0 0))
    (scale (xyz 1 1 1))
    (rotate (xyz 0 0 0))
  )
)
