(module Pulse_PA2006NL (layer F.Cu) (tedit 5B308140)
  (descr "SMT Gate Drive Transformer, 1:1, 11.8x8.8x4.0mm (https://productfinder.pulseeng.com/products/datasheets/P663.pdf)")
  (tags "pulse pa2006nl pa0186nl")
  (attr smd)
  (fp_text reference REF** (at 0 -5.5) (layer F.SilkS)
    (effects (font (size 1 1) (thickness 0.15)))
  )
  (fp_text value Pulse_PA2006NL (at 0 5.5) (layer F.Fab)
    (effects (font (size 1 1) (thickness 0.15)))
  )
  (fp_line (start -3.19 -4.32) (end 4.19 -4.32) (layer F.Fab) (width 0.1))
  (fp_line (start 4.19 -4.32) (end 4.19 4.32) (layer F.Fab) (width 0.1))
  (fp_line (start 4.19 4.32) (end -4.19 4.32) (layer F.Fab) (width 0.1))
  (fp_line (start -4.19 4.32) (end -4.19 -3.32) (layer F.Fab) (width 0.1))
  (fp_line (start -5.71 -4.57) (end 5.71 -4.57) (layer F.CrtYd) (width 0.05))
  (fp_line (start 5.71 -4.57) (end 5.71 4.57) (layer F.CrtYd) (width 0.05))
  (fp_line (start 5.71 4.57) (end -5.71 4.57) (layer F.CrtYd) (width 0.05))
  (fp_line (start -5.71 4.57) (end -5.71 -4.57) (layer F.CrtYd) (width 0.05))
  (fp_text user %R (at 0 0) (layer F.Fab)
    (effects (font (size 1 1) (thickness 0.15)))
  )
  (fp_line (start -4.3 2.105) (end -4.3 -2.105) (layer F.SilkS) (width 0.12))
  (fp_line (start -5.46 -4.43) (end 4.3 -4.43) (layer F.SilkS) (width 0.12))
  (fp_line (start -4.3 4.43) (end 4.3 4.43) (layer F.SilkS) (width 0.12))
  (fp_line (start 4.3 -2.105) (end 4.3 2.105) (layer F.SilkS) (width 0.12))
  (fp_line (start 4.3 -4.43) (end 4.3 -4.245) (layer F.SilkS) (width 0.12))
  (fp_line (start 4.3 4.43) (end 4.3 4.245) (layer F.SilkS) (width 0.12))
  (fp_line (start -4.3 4.43) (end -4.3 4.245) (layer F.SilkS) (width 0.12))
  (fp_line (start -3.19 -4.32) (end -4.19 -3.32) (layer F.Fab) (width 0.1))
  (pad 1 smd rect (at -4.825 -3.175) (size 1.27 1.78) (layers F.Cu F.Paste F.Mask))
  (pad 3 smd rect (at -4.825 3.175) (size 1.27 1.78) (layers F.Cu F.Paste F.Mask))
  (pad 4 smd rect (at 4.825 3.175) (size 1.27 1.78) (layers F.Cu F.Paste F.Mask))
  (pad 6 smd rect (at 4.825 -3.175) (size 1.27 1.78) (layers F.Cu F.Paste F.Mask))
  (model ${KICAD6_3DMODEL_DIR}/Transformer_SMD.3dshapes/Pulse_PA2006NL.wrl
    (at (xyz 0 0 0))
    (scale (xyz 1 1 1))
    (rotate (xyz 0 0 0))
  )
)
