(module Pulse_PA2777NL (layer F.Cu) (tedit 5B985D6D)
  (descr "SMT Gate Drive Transformer, 1:1, 7.1x6.1x5.5mm (https://productfinder.pulseeng.com/products/datasheets/SPM2007_61.pdf)")
  (tags "pulse pa2777nl")
  (attr smd)
  (fp_text reference REF** (at 0 -4) (layer F.SilkS)
    (effects (font (size 1 1) (thickness 0.15)))
  )
  (fp_text value Pulse_PA2777NL (at 0 4) (layer F.Fab)
    (effects (font (size 1 1) (thickness 0.15)))
  )
  (fp_line (start -2.7 -3.15) (end 3.7 -3.15) (layer F.Fab) (width 0.1))
  (fp_line (start 3.7 -3.15) (end 3.7 3.15) (layer F.Fab) (width 0.1))
  (fp_line (start 3.7 3.15) (end -3.7 3.15) (layer F.Fab) (width 0.1))
  (fp_line (start -3.7 3.15) (end -3.7 -2.15) (layer F.Fab) (width 0.1))
  (fp_line (start -4.12 -3.4) (end 4.12 -3.4) (layer F.CrtYd) (width 0.05))
  (fp_line (start -4.12 3.4) (end -4.12 -3.4) (layer F.CrtYd) (width 0.05))
  (fp_text user %R (at 0 0) (layer F.Fab)
    (effects (font (size 1 1) (thickness 0.15)))
  )
  (fp_line (start -3.81 -3.26) (end 3.81 -3.26) (layer F.SilkS) (width 0.12))
  (fp_line (start -3.81 3.26) (end 3.81 3.26) (layer F.SilkS) (width 0.12))
  (fp_line (start 3.81 2.465) (end 3.81 3.26) (layer F.SilkS) (width 0.12))
  (fp_line (start -3.81 2.465) (end -3.81 3.26) (layer F.SilkS) (width 0.12))
  (fp_line (start 3.81 -2.465) (end 3.81 -3.26) (layer F.SilkS) (width 0.12))
  (fp_line (start -4.12 3.4) (end 4.12 3.4) (layer F.CrtYd) (width 0.05))
  (fp_line (start 4.12 3.4) (end 4.12 -3.4) (layer F.CrtYd) (width 0.05))
  (fp_line (start -2.7 -3.15) (end -3.7 -2.15) (layer F.Fab) (width 0.1))
  (pad 1 smd rect (at -3.11 -1.905) (size 1.52 0.76) (layers F.Cu F.Paste F.Mask))
  (pad 3 smd rect (at -3.11 0.635) (size 1.52 0.76) (layers F.Cu F.Paste F.Mask))
  (pad 4 smd rect (at -3.11 1.905) (size 1.52 0.76) (layers F.Cu F.Paste F.Mask))
  (pad 5 smd rect (at 3.11 1.905) (size 1.52 0.76) (layers F.Cu F.Paste F.Mask))
  (pad 7 smd rect (at 3.11 -0.635) (size 1.52 0.76) (layers F.Cu F.Paste F.Mask))
  (pad 8 smd rect (at 3.11 -1.905) (size 1.52 0.76) (layers F.Cu F.Paste F.Mask))
  (pad 2 smd rect (at -3.11 -0.635) (size 1.52 0.76) (layers F.Cu F.Paste F.Mask))
  (pad 6 smd rect (at 3.11 0.635) (size 1.52 0.76) (layers F.Cu F.Paste F.Mask))
  (model ${KICAD6_3DMODEL_DIR}/Transformer_SMD.3dshapes/Pulse_PA2777NL.wrl
    (at (xyz 0 0 0))
    (scale (xyz 1 1 1))
    (rotate (xyz 0 0 0))
  )
)
