(module Pulse_PA2002NL-PA2008NL-PA2009NL (layer F.Cu) (tedit 5B30802A)
  (descr "SMT Gate Drive Transformer, 1:1:1 or 2:1:1 or 2.5:1:1 or 1:1, 9.0x8.6x7.6mm (https://productfinder.pulseeng.com/products/datasheets/P663.pdf)")
  (tags "pulse pa2002nl pa2008nl pa2009nl p0544nl pa0184nl pa0297nl pa0510nl")
  (attr smd)
  (fp_text reference REF** (at 0 -5.5) (layer F.SilkS)
    (effects (font (size 1 1) (thickness 0.15)))
  )
  (fp_text value Pulse_PA2002NL-PA2008NL-PA2009NL (at 0 5.5) (layer F.Fab)
    (effects (font (size 1 1) (thickness 0.15)))
  )
  (fp_line (start -3.32 -4.51) (end 4.32 -4.51) (layer F.Fab) (width 0.1))
  (fp_line (start 4.32 -4.51) (end 4.32 4.51) (layer F.Fab) (width 0.1))
  (fp_line (start 4.32 4.51) (end -4.32 4.51) (layer F.Fab) (width 0.1))
  (fp_line (start -4.32 4.51) (end -4.32 -3.51) (layer F.Fab) (width 0.1))
  (fp_line (start -4.57 -4.82) (end 4.57 -4.82) (layer F.CrtYd) (width 0.05))
  (fp_line (start 4.57 -4.82) (end 4.57 4.82) (layer F.CrtYd) (width 0.05))
  (fp_line (start 4.57 4.82) (end -4.57 4.82) (layer F.CrtYd) (width 0.05))
  (fp_line (start -4.57 4.82) (end -4.57 -4.82) (layer F.CrtYd) (width 0.05))
  (fp_text user %R (at 0 0) (layer F.Fab)
    (effects (font (size 1 1) (thickness 0.15)))
  )
  (fp_line (start 4.43 4.62) (end 4.43 -4.62) (layer F.SilkS) (width 0.12))
  (fp_line (start -2.675 -4.62) (end 2.675 -4.62) (layer F.SilkS) (width 0.12))
  (fp_line (start -2.675 4.62) (end 2.675 4.62) (layer F.SilkS) (width 0.12))
  (fp_line (start -4.43 -3.05) (end -4.43 4.62) (layer F.SilkS) (width 0.12))
  (fp_line (start -3.32 -4.51) (end -4.32 -3.51) (layer F.Fab) (width 0.1))
  (pad 1 smd rect (at -4.125 -2.54) (size 1.27 1.27) (layers F.Cu F.Paste F.Mask))
  (pad 2 smd rect (at -4.125 0) (size 1.27 1.27) (layers F.Cu F.Paste F.Mask))
  (pad 5 smd rect (at 4.125 0) (size 1.27 1.27) (layers F.Cu F.Paste F.Mask))
  (pad 4 smd rect (at 4.125 2.54) (size 1.27 1.27) (layers F.Cu F.Paste F.Mask))
  (pad 3 smd rect (at -4.125 2.54) (size 1.27 1.27) (layers F.Cu F.Paste F.Mask))
  (pad 6 smd rect (at 4.125 2.54) (size 1.27 1.27) (layers F.Cu F.Paste F.Mask))
  (model ${KICAD6_3DMODEL_DIR}/Transformer_SMD.3dshapes/Pulse_PA2002NL-PA2008NL-PA2009NL.wrl
    (at (xyz 0 0 0))
    (scale (xyz 1 1 1))
    (rotate (xyz 0 0 0))
  )
)
