(module Transformer_NF_ETAL_P3188_HandSoldering (layer F.Cu) (tedit 5A030813)
  (descr "NF-Transformer, ETAL, P3188, SMD, Handsoldering,")
  (tags "NF-Transformer ETAL P3188 SMD Handsoldering ")
  (attr smd)
  (fp_text reference REF** (at 0.05 -5.55) (layer F.SilkS)
    (effects (font (size 1 1) (thickness 0.15)))
  )
  (fp_text value Transformer_NF_ETAL_P3188_HandSoldering (at 0.1 5.7) (layer F.Fab)
    (effects (font (size 1 1) (thickness 0.15)))
  )
  (fp_text user %R (at 0.025 0) (layer F.Fab)
    (effects (font (size 1 1) (thickness 0.15)))
  )
  (fp_line (start -3.95 -4.45) (end -3.95 4.45) (layer F.Fab) (width 0.1))
  (fp_line (start -6.4 -4.45) (end 6.45 -4.45) (layer F.Fab) (width 0.1))
  (fp_line (start 6.45 -4.45) (end 6.45 4.45) (layer F.Fab) (width 0.1))
  (fp_line (start 6.45 4.45) (end -6.4 4.45) (layer F.Fab) (width 0.1))
  (fp_line (start -6.4 4.45) (end -6.4 -4.45) (layer F.Fab) (width 0.1))
  (fp_line (start -4 -4.04) (end -6.44 -4.04) (layer F.SilkS) (width 0.12))
  (fp_line (start -4 4.5) (end -4 4) (layer F.SilkS) (width 0.12))
  (fp_line (start -4 -4.5) (end -4 -4) (layer F.SilkS) (width 0.12))
  (fp_line (start -6.5 -4.5) (end -6.5 -3.8) (layer F.SilkS) (width 0.12))
  (fp_line (start -6.5 3.8) (end -6.5 4.5) (layer F.SilkS) (width 0.12))
  (fp_line (start 6.5 3.8) (end 6.5 4.5) (layer F.SilkS) (width 0.12))
  (fp_line (start 6.5 -4.5) (end 6.5 -3.8) (layer F.SilkS) (width 0.12))
  (fp_line (start 6.5 -4.5) (end -6.5 -4.5) (layer F.SilkS) (width 0.12))
  (fp_line (start -6.5 4.5) (end 6.5 4.5) (layer F.SilkS) (width 0.12))
  (fp_line (start -8.09 -4.75) (end 8.09 -4.75) (layer F.CrtYd) (width 0.05))
  (fp_line (start -8.09 -4.75) (end -8.09 4.75) (layer F.CrtYd) (width 0.05))
  (fp_line (start 8.09 4.75) (end 8.09 -4.75) (layer F.CrtYd) (width 0.05))
  (fp_line (start 8.09 4.75) (end -8.09 4.75) (layer F.CrtYd) (width 0.05))
  (pad 1 smd rect (at -6.09 -2.54) (size 3.5 1.5) (layers F.Cu F.Paste F.Mask))
  (pad 2 smd rect (at -6.09 2.54) (size 3.5 1.5) (layers F.Cu F.Paste F.Mask))
  (pad 3 smd rect (at 6.09 2.54) (size 3.5 1.5) (layers F.Cu F.Paste F.Mask))
  (pad 4 smd rect (at 6.09 0) (size 3.5 1.5) (layers F.Cu F.Paste F.Mask))
  (pad 5 smd rect (at 6.09 -2.54) (size 3.5 1.5) (layers F.Cu F.Paste F.Mask))
  (pad 7 smd oval (at 2 0 90) (size 3.5 1.5) (layers F.Cu F.Paste F.Mask))
  (pad 7 smd oval (at -2 0 90) (size 3.5 1.5) (layers F.Cu F.Paste F.Mask))
  (pad 2 smd rect (at -6.09 0) (size 3.5 1.5) (layers F.Cu F.Paste F.Mask))
  (model ${KICAD6_3DMODEL_DIR}/Transformer_SMD.3dshapes/Transformer_NF_ETAL_P3188_HandSoldering.wrl
    (at (xyz 0 0 0))
    (scale (xyz 1 1 1))
    (rotate (xyz 0 0 0))
  )
)
