(module Transformer_NF_ETAL_P3188 (layer F.Cu) (tedit 5A030813)
  (descr "NF-Transformer, ETAL, P3188, SMD,")
  (tags "NF-Transformer ETAL P3188 SMD ")
  (attr smd)
  (fp_text reference REF** (at 0 -5.5) (layer F.SilkS)
    (effects (font (size 1 1) (thickness 0.15)))
  )
  (fp_text value Transformer_NF_ETAL_P3188 (at 0.05 5.6) (layer F.Fab)
    (effects (font (size 1 1) (thickness 0.15)))
  )
  (fp_text user %R (at 0.025 0) (layer F.Fab)
    (effects (font (size 1 1) (thickness 0.15)))
  )
  (fp_line (start -3.95 -4.45) (end -3.95 4.45) (layer F.Fab) (width 0.1))
  (fp_line (start -6.4 -4.45) (end 6.45 -4.45) (layer F.Fab) (width 0.1))
  (fp_line (start 6.45 -4.45) (end 6.45 4.45) (layer F.Fab) (width 0.1))
  (fp_line (start 6.45 4.45) (end -6.4 4.45) (layer F.Fab) (width 0.1))
  (fp_line (start -6.4 4.45) (end -6.4 -4.45) (layer F.Fab) (width 0.1))
  (fp_line (start -3.96 -4) (end -6.39 -4) (layer F.SilkS) (width 0.12))
  (fp_line (start -3.97 4.5) (end -3.97 4) (layer F.SilkS) (width 0.12))
  (fp_line (start -3.97 -4.5) (end -3.97 -4) (layer F.SilkS) (width 0.12))
  (fp_line (start -6.47 -4.5) (end -6.47 -3.8) (layer F.SilkS) (width 0.12))
  (fp_line (start -6.47 3.8) (end -6.47 4.5) (layer F.SilkS) (width 0.12))
  (fp_line (start 6.53 3.8) (end 6.53 4.5) (layer F.SilkS) (width 0.12))
  (fp_line (start 6.53 -4.5) (end 6.53 -3.8) (layer F.SilkS) (width 0.12))
  (fp_line (start 6.53 -4.5) (end -6.47 -4.5) (layer F.SilkS) (width 0.12))
  (fp_line (start -6.47 4.5) (end 6.53 4.5) (layer F.SilkS) (width 0.12))
  (fp_line (start -6.72 -4.75) (end 6.78 -4.75) (layer F.CrtYd) (width 0.05))
  (fp_line (start -6.72 -4.75) (end -6.72 4.75) (layer F.CrtYd) (width 0.05))
  (fp_line (start 6.78 4.75) (end 6.78 -4.75) (layer F.CrtYd) (width 0.05))
  (fp_line (start 6.78 4.75) (end -6.72 4.75) (layer F.CrtYd) (width 0.05))
  (pad 1 smd rect (at -5.31 -2.54) (size 2 1.5) (layers F.Cu F.Paste F.Mask))
  (pad 2 smd rect (at -5.31 2.54) (size 2 1.5) (layers F.Cu F.Paste F.Mask))
  (pad 3 smd rect (at 5.37 2.54) (size 2 1.5) (layers F.Cu F.Paste F.Mask))
  (pad 4 smd rect (at 5.37 0) (size 2 1.5) (layers F.Cu F.Paste F.Mask))
  (pad 5 smd rect (at 5.37 -2.54) (size 2 1.5) (layers F.Cu F.Paste F.Mask))
  (pad 7 smd oval (at 2.03 0 90) (size 3.5 1.5) (layers F.Cu F.Paste F.Mask))
  (pad 7 smd oval (at -1.97 0 90) (size 3.5 1.5) (layers F.Cu F.Paste F.Mask))
  (pad 2 smd rect (at -5.37 0) (size 2 1.5) (layers F.Cu F.Paste F.Mask))
  (model ${KICAD6_3DMODEL_DIR}/Transformer_SMD.3dshapes/Transformer_NF_ETAL_P3188.wrl
    (at (xyz 0 0 0))
    (scale (xyz 1 1 1))
    (rotate (xyz 0 0 0))
  )
)
