(module Transformer_Coilcraft_CST2 (layer F.Cu) (tedit 5AECBA41)
  (descr "Current sense transformer, SMD, 8.0x8.13x5.3mm (https://www.coilcraft.com/pdfs/cst.pdf)")
  (tags "Transformer current sense SMD")
  (attr smd)
  (fp_text reference REF** (at 0 -5) (layer F.SilkS)
    (effects (font (size 1 1) (thickness 0.15)))
  )
  (fp_text value Transformer_Coilcraft_CST2 (at 0 5) (layer F.Fab)
    (effects (font (size 1 1) (thickness 0.15)))
  )
  (fp_line (start 1.68 -3.095) (end 3.22 -3.095) (layer F.SilkS) (width 0.12))
  (fp_line (start 3.22 -3.095) (end 3.22 -2.63) (layer F.SilkS) (width 0.12))
  (fp_line (start -1.68 3.095) (end -3.22 3.095) (layer F.SilkS) (width 0.12))
  (fp_line (start -3.22 3.0955) (end -3.22 2.63) (layer F.SilkS) (width 0.12))
  (fp_line (start 1.68 3.095) (end 3.22 3.095) (layer F.SilkS) (width 0.12))
  (fp_line (start 3.22 3.095) (end 3.22 2.63) (layer F.SilkS) (width 0.12))
  (fp_line (start -4.4 -3.095) (end -1.68 -3.095) (layer F.SilkS) (width 0.12))
  (fp_line (start -4.65 -4.1) (end -4.65 4.1) (layer F.CrtYd) (width 0.05))
  (fp_line (start -4.65 4.1) (end 4.65 4.1) (layer F.CrtYd) (width 0.05))
  (fp_line (start 4.65 4.1) (end 4.65 -4.1) (layer F.CrtYd) (width 0.05))
  (fp_line (start 4.65 -4.1) (end -4.65 -4.1) (layer F.CrtYd) (width 0.05))
  (fp_line (start -3.11 2.985) (end 3.11 2.985) (layer F.Fab) (width 0.1))
  (fp_line (start -3.11 2.985) (end -3.11 -1.985) (layer F.Fab) (width 0.1))
  (fp_line (start 3.11 2.985) (end 3.11 -2.985) (layer F.Fab) (width 0.1))
  (fp_line (start -2.11 -2.985) (end 3.11 -2.985) (layer F.Fab) (width 0.1))
  (fp_line (start -2.11 -2.985) (end -3.11 -1.985) (layer F.Fab) (width 0.1))
  (fp_text user %R (at 0 0) (layer F.Fab)
    (effects (font (size 1 1) (thickness 0.15)))
  )
  (pad 8 smd rect (at 0 -2.6) (size 3 2.5) (layers F.Cu F.Paste F.Mask))
  (pad 7 smd rect (at 0 2.6) (size 3 2.5) (layers F.Cu F.Paste F.Mask))
  (pad 6 smd rect (at 3.6 -1.85) (size 1.6 1.2) (layers F.Cu F.Paste F.Mask))
  (pad 5 smd rect (at 3.6 0) (size 1.6 1.2) (layers F.Cu F.Paste F.Mask))
  (pad 4 smd rect (at 3.6 1.85) (size 1.6 1.2) (layers F.Cu F.Paste F.Mask))
  (pad 2 smd rect (at -3.6 0) (size 1.6 1.2) (layers F.Cu F.Paste F.Mask))
  (pad 3 smd rect (at -3.6 1.85) (size 1.6 1.2) (layers F.Cu F.Paste F.Mask))
  (pad 1 smd rect (at -3.6 -1.85) (size 1.6 1.2) (layers F.Cu F.Paste F.Mask))
  (model ${KICAD6_3DMODEL_DIR}/Transformer_SMD.3dshapes/Transformer_Coilcraft_CST.wrl
    (at (xyz 0 0 0))
    (scale (xyz 1 1 1))
    (rotate (xyz 0 0 0))
  )
)
