(module BatteryHolder_Keystone_3001_1x12mm (layer F.Cu) (tedit 5D9CBE05)
  (descr http://www.keyelco.com/product-pdf.cfm?p=778)
  (tags "Keystone type 3001 coin cell retainer")
  (fp_text reference REF** (at 0 -8) (layer F.SilkS)
    (effects (font (size 1 1) (thickness 0.15)))
  )
  (fp_text value BatteryHolder_Keystone_3001_1x12mm (at 0 7.5) (layer F.Fab)
    (effects (font (size 1 1) (thickness 0.15)))
  )
  (fp_text user %R (at 0 0) (layer F.Fab)
    (effects (font (size 1 1) (thickness 0.15)))
  )
  (fp_arc (start 0 0) (end 0 6.75) (angle 36.6) (layer F.CrtYd) (width 0.05))
  (fp_arc (start 0.11 9.15) (end 4.22 5.65) (angle -3.1) (layer F.CrtYd) (width 0.05))
  (fp_arc (start 0.11 9.15) (end -4.22 5.65) (angle 3.1) (layer F.CrtYd) (width 0.05))
  (fp_arc (start 0 0) (end 0 6.75) (angle -36.6) (layer F.CrtYd) (width 0.05))
  (fp_arc (start 5.25 4.1) (end 5.3 6.1) (angle -90) (layer F.CrtYd) (width 0.05))
  (fp_arc (start 5.29 4.6) (end 4.22 5.65) (angle -54.1) (layer F.CrtYd) (width 0.05))
  (fp_arc (start -5.29 4.6) (end -4.22 5.65) (angle 54.1) (layer F.CrtYd) (width 0.05))
  (fp_arc (start 6.6 0) (end 7.25 1.95) (angle -143) (layer F.CrtYd) (width 0.05))
  (fp_arc (start -6.6 0) (end -7.25 1.95) (angle 143) (layer F.CrtYd) (width 0.05))
  (fp_circle (center 0 0) (end 0 6.25) (layer Dwgs.User) (width 0.15))
  (fp_arc (start 5.29 4.6) (end 4.5 5.2) (angle -60) (layer F.SilkS) (width 0.12))
  (fp_arc (start -5.29 4.6) (end -4.5 5.2) (angle 60) (layer F.SilkS) (width 0.12))
  (fp_arc (start 5.29 4.6) (end 4.6 5.1) (angle -60) (layer F.Fab) (width 0.1))
  (fp_arc (start -5.29 4.6) (end -4.6 5.1) (angle 60) (layer F.Fab) (width 0.1))
  (fp_arc (start 0 8.9) (end -4.6 5.1) (angle 101) (layer F.Fab) (width 0.1))
  (fp_arc (start 5.25 4.1) (end 5.3 5.6) (angle -90) (layer F.SilkS) (width 0.12))
  (fp_arc (start -5.25 4.1) (end -5.3 5.6) (angle 90) (layer F.SilkS) (width 0.12))
  (fp_arc (start -5.25 4.1) (end -5.3 6.1) (angle 90) (layer F.CrtYd) (width 0.05))
  (fp_line (start -7.25 1.95) (end -7.25 4.1) (layer F.CrtYd) (width 0.05))
  (fp_line (start 7.25 1.95) (end 7.25 4.1) (layer F.CrtYd) (width 0.05))
  (fp_line (start 6.75 1.8) (end 6.75 4.1) (layer F.SilkS) (width 0.12))
  (fp_line (start -6.75 1.8) (end -6.75 4.1) (layer F.SilkS) (width 0.12))
  (fp_arc (start 5.25 4.1) (end 5.3 5.45) (angle -90) (layer F.Fab) (width 0.1))
  (fp_line (start 7.25 -1.95) (end 7.25 -3.8) (layer F.CrtYd) (width 0.05))
  (fp_line (start 7.25 -3.8) (end 4.65 -6.4) (layer F.CrtYd) (width 0.05))
  (fp_line (start 4.65 -6.4) (end 4.65 -7.35) (layer F.CrtYd) (width 0.05))
  (fp_line (start -4.65 -7.35) (end 4.65 -7.35) (layer F.CrtYd) (width 0.05))
  (fp_line (start -4.65 -6.4) (end -4.65 -7.35) (layer F.CrtYd) (width 0.05))
  (fp_line (start -7.25 -3.8) (end -4.65 -6.4) (layer F.CrtYd) (width 0.05))
  (fp_line (start -7.25 -1.95) (end -7.25 -3.8) (layer F.CrtYd) (width 0.05))
  (fp_line (start -6.75 -1.8) (end -6.75 -3.45) (layer F.SilkS) (width 0.12))
  (fp_line (start -6.75 -3.45) (end -4.15 -6.05) (layer F.SilkS) (width 0.12))
  (fp_line (start -4.15 -6.05) (end -4.15 -6.85) (layer F.SilkS) (width 0.12))
  (fp_line (start -4.15 -6.85) (end 4.15 -6.85) (layer F.SilkS) (width 0.12))
  (fp_line (start 4.15 -6.85) (end 4.15 -6.05) (layer F.SilkS) (width 0.12))
  (fp_line (start 4.15 -6.05) (end 6.75 -3.45) (layer F.SilkS) (width 0.12))
  (fp_line (start 6.75 -3.45) (end 6.75 -1.8) (layer F.SilkS) (width 0.12))
  (fp_arc (start -5.25 4.1) (end -5.3 5.45) (angle 90) (layer F.Fab) (width 0.1))
  (fp_line (start 6.6 -3.4) (end 6.6 4.1) (layer F.Fab) (width 0.1))
  (fp_line (start -6.6 -3.4) (end -6.6 4.1) (layer F.Fab) (width 0.1))
  (fp_line (start 4 -6) (end 6.6 -3.4) (layer F.Fab) (width 0.1))
  (fp_line (start -4 -6) (end -6.6 -3.4) (layer F.Fab) (width 0.1))
  (fp_line (start 4 -6.7) (end 4 -6) (layer F.Fab) (width 0.1))
  (fp_line (start -4 -6.7) (end -4 -6) (layer F.Fab) (width 0.1))
  (fp_line (start -4 -6.7) (end 4 -6.7) (layer F.Fab) (width 0.1))
  (pad 1 thru_hole circle (at -6.6 0) (size 3 3) (drill 1.9) (layers *.Cu *.Mask))
  (pad 1 thru_hole circle (at 6.6 0) (size 3 3) (drill 1.9) (layers *.Cu *.Mask))
  (pad 2 smd circle (at 0 0) (size 9 9) (layers F.Cu F.Mask))
  (model ${KICAD6_3DMODEL_DIR}/Battery.3dshapes/BatteryHolder_Keystone_3001_1x12mm.wrl
    (at (xyz 0 0 0))
    (scale (xyz 1 1 1))
    (rotate (xyz 0 0 0))
  )
)
