(module Battery_Panasonic_CR3032-VCN_Vertical_CircularHoles (layer F.Cu) (tedit 5C857898)
  (descr "Panasonic CR-3032/VCN battery, https://industrial.panasonic.com/cdbs/www-data/pdf2/AAA4000/AAA4000D508.PDF")
  (tags "battery CR-3032 coin cell vertical")
  (fp_text reference REF** (at 4.325 -6.1) (layer F.SilkS)
    (effects (font (size 1 1) (thickness 0.15)))
  )
  (fp_text value Battery_Panasonic_CR3032-VCN_Vertical_CircularHoles (at 4.325 2.8) (layer F.Fab)
    (effects (font (size 1 1) (thickness 0.15)))
  )
  (fp_text user %R (at 4.325 -1.95 180) (layer F.Fab)
    (effects (font (size 1 1) (thickness 0.15)))
  )
  (fp_line (start -10.725 -4) (end 19.375 -4) (layer F.Fab) (width 0.1))
  (fp_line (start 19.375 -4) (end 19.375 0.1) (layer F.Fab) (width 0.1))
  (fp_line (start -10.725 -4) (end -10.725 0.1) (layer F.Fab) (width 0.1))
  (fp_line (start -10.725 0.1) (end 19.375 0.1) (layer F.Fab) (width 0.1))
  (fp_line (start -10.98 -5.35) (end -10.98 1.95) (layer F.CrtYd) (width 0.05))
  (fp_line (start -10.98 1.95) (end 19.63 1.95) (layer F.CrtYd) (width 0.05))
  (fp_line (start -10.98 -5.35) (end 19.63 -5.35) (layer F.CrtYd) (width 0.05))
  (fp_line (start 19.63 -5.35) (end 19.63 1.95) (layer F.CrtYd) (width 0.05))
  (fp_line (start -10.835 -4.11) (end -10.835 0.21) (layer F.SilkS) (width 0.12))
  (fp_line (start -10.835 0.21) (end -2.11 0.21) (layer F.SilkS) (width 0.12))
  (fp_line (start -10.835 -4.11) (end 7.54 -4.11) (layer F.SilkS) (width 0.12))
  (fp_line (start 10.76 -4.11) (end 19.485 -4.11) (layer F.SilkS) (width 0.12))
  (fp_line (start 19.485 -4.11) (end 19.485 0.21) (layer F.SilkS) (width 0.12))
  (fp_line (start 2.11 0.21) (end 19.485 0.21) (layer F.SilkS) (width 0.12))
  (fp_text user + (at -2.7 -0.75) (layer F.SilkS)
    (effects (font (size 1.5 1.5) (thickness 0.15)))
  )
  (pad 1 thru_hole rect (at 0 0) (size 3.7 3.7) (drill 3.12) (layers *.Cu *.Mask))
  (pad 2 thru_hole circle (at 9.15 -3.9) (size 2.7 2.7) (drill 2.12) (layers *.Cu *.Mask))
  (model ${KICAD6_3DMODEL_DIR}/Battery.3dshapes/Battery_Panasonic_CR3032-VCN_Vertical_CircularHoles.wrl
    (at (xyz 0 0 0))
    (scale (xyz 1 1 1))
    (rotate (xyz 0 0 0))
  )
)
