(module Battery_Panasonic_CR2354-VCN_Vertical_CircularHoles (layer F.Cu) (tedit 5C857853)
  (descr "Panasonic CR-2354/VCN battery, https://industrial.panasonic.com/cdbs/www-data/pdf2/AAA4000/AAA4000D486.PDF")
  (tags "battery CR-2354/VCN coin cell vertical")
  (fp_text reference REF** (at 4.325 -8.2) (layer F.SilkS)
    (effects (font (size 1 1) (thickness 0.15)))
  )
  (fp_text value Battery_Panasonic_CR2354-VCN_Vertical_CircularHoles (at 4.325 2.8) (layer F.Fab)
    (effects (font (size 1 1) (thickness 0.15)))
  )
  (fp_text user %R (at 4.325 -3 180) (layer F.Fab)
    (effects (font (size 1 1) (thickness 0.15)))
  )
  (fp_line (start -7.225 -6.1) (end -7.225 0.1) (layer F.Fab) (width 0.1))
  (fp_line (start -7.225 0.1) (end 15.875 0.1) (layer F.Fab) (width 0.1))
  (fp_line (start -7.225 -6.1) (end 15.875 -6.1) (layer F.Fab) (width 0.1))
  (fp_line (start 15.875 -6.1) (end 15.875 0.1) (layer F.Fab) (width 0.1))
  (fp_line (start -7.335 -6.21) (end 7.54 -6.21) (layer F.SilkS) (width 0.12))
  (fp_line (start -7.335 -6.21) (end -7.335 0.21) (layer F.SilkS) (width 0.12))
  (fp_line (start -7.335 0.21) (end -2.11 0.21) (layer F.SilkS) (width 0.12))
  (fp_line (start 2.11 0.21) (end 15.99184 0.21) (layer F.SilkS) (width 0.12))
  (fp_line (start 10.76 -6.21) (end 15.985 -6.21) (layer F.SilkS) (width 0.12))
  (fp_line (start 15.985 -6.21) (end 15.985 0.21) (layer F.SilkS) (width 0.12))
  (fp_line (start -7.48 -7.45) (end 16.13 -7.45) (layer F.CrtYd) (width 0.05))
  (fp_line (start 16.13 -7.45) (end 16.13 1.95) (layer F.CrtYd) (width 0.05))
  (fp_line (start -7.48 -7.45) (end -7.48 1.95) (layer F.CrtYd) (width 0.05))
  (fp_line (start -7.48 1.95) (end 16.13 1.95) (layer F.CrtYd) (width 0.05))
  (fp_text user + (at -2.7 -0.75) (layer F.SilkS)
    (effects (font (size 1.5 1.5) (thickness 0.15)))
  )
  (pad 1 thru_hole rect (at 0 0) (size 3.7 3.7) (drill 3.12) (layers *.Cu *.Mask))
  (pad 2 thru_hole circle (at 9.15 -6) (size 2.7 2.7) (drill 2.12) (layers *.Cu *.Mask))
  (model ${KICAD6_3DMODEL_DIR}/Battery.3dshapes/Battery_Panasonic_CR2354-VCN_Vertical_CircularHoles.wrl
    (at (xyz 0 0 0))
    (scale (xyz 1 1 1))
    (rotate (xyz 0 0 0))
  )
)
