(module BatteryHolder_Keystone_104_1x23mm (layer F.Cu) (tedit 5787C34F)
  (descr http://www.keyelco.com/product-pdf.cfm?p=744)
  (tags "Keystone type 104 battery holder")
  (fp_text reference REF** (at 0 -4) (layer F.SilkS)
    (effects (font (size 1 1) (thickness 0.15)))
  )
  (fp_text value BatteryHolder_Keystone_104_1x23mm (at 15 14) (layer F.Fab)
    (effects (font (size 1 1) (thickness 0.15)))
  )
  (fp_text user + (at 2.75 0) (layer F.SilkS)
    (effects (font (size 1.5 1.5) (thickness 0.15)))
  )
  (fp_text user %R (at 0 0) (layer F.Fab)
    (effects (font (size 1 1) (thickness 0.15)))
  )
  (fp_line (start -1.45 1.8) (end -1.45 3) (layer F.SilkS) (width 0.12))
  (fp_arc (start 15.2 0) (end 2.61 3.6) (angle -164) (layer F.CrtYd) (width 0.05))
  (fp_arc (start 15.2 0) (end 2.61 -3.6) (angle 164) (layer F.CrtYd) (width 0.05))
  (fp_arc (start 2.1 3.8) (end 2.1 3.25) (angle 70) (layer F.CrtYd) (width 0.05))
  (fp_arc (start 2.1 -3.8) (end 2.1 -3.25) (angle -70) (layer F.CrtYd) (width 0.05))
  (fp_arc (start 15.2 0) (end 2.85 3.5) (angle -164.5) (layer F.SilkS) (width 0.12))
  (fp_arc (start 2.1 3.8) (end 2.1 3) (angle 70) (layer F.SilkS) (width 0.12))
  (fp_arc (start 15.2 0) (end 2.85 -3.5) (angle 164.5) (layer F.SilkS) (width 0.12))
  (fp_arc (start 2.1 -3.8) (end 2.1 -3) (angle -70) (layer F.SilkS) (width 0.12))
  (fp_arc (start 2.15 3.8) (end 2.15 2.9) (angle 70) (layer F.Fab) (width 0.10))
  (fp_arc (start 15.2 0) (end 3 3.5) (angle -164) (layer F.Fab) (width 0.10))
  (fp_arc (start 15.2 0) (end 3 -3.5) (angle 164) (layer F.Fab) (width 0.10))
  (fp_arc (start 15.2 0) (end 3.72 1.3) (angle -180) (layer F.Fab) (width 0.10))
  (fp_line (start -1.75 -3.25) (end 2.15 -3.25) (layer F.CrtYd) (width 0.05))
  (fp_line (start -1.75 3.25) (end 2.15 3.25) (layer F.CrtYd) (width 0.05))
  (fp_line (start -1.75 3.25) (end -1.75 -3.25) (layer F.CrtYd) (width 0.05))
  (fp_line (start -1.45 -3) (end 2.15 -3) (layer F.SilkS) (width 0.12))
  (fp_line (start -1.45 -1.8) (end -1.45 -3) (layer F.SilkS) (width 0.12))
  (fp_line (start -1.45 3) (end 2.15 3) (layer F.SilkS) (width 0.12))
  (fp_arc (start 15.2 0) (end 9 1.3) (angle -170) (layer F.Fab) (width 0.10))
  (fp_arc (start 15.2 0) (end 13.3 1.3) (angle -150) (layer F.Fab) (width 0.10))
  (fp_arc (start 15.2 0) (end 13.3 -1.3) (angle 150) (layer F.Fab) (width 0.10))
  (fp_arc (start 15.2 0) (end 9 -1.3) (angle 170) (layer F.Fab) (width 0.10))
  (fp_arc (start 15.2 0) (end 3.72 -1.3) (angle 180) (layer F.Fab) (width 0.10))
  (fp_line (start 2.15 -2.9) (end -0.9 -2.9) (layer F.Fab) (width 0.10))
  (fp_line (start -0.9 2.9) (end 2.15 2.9) (layer F.Fab) (width 0.10))
  (fp_line (start -1.3 -2.5) (end -1.3 2.5) (layer F.Fab) (width 0.10))
  (fp_line (start 0 1.3) (end 16.2 1.3) (layer F.Fab) (width 0.10))
  (fp_line (start 16.2 -1.3) (end 0 -1.3) (layer F.Fab) (width 0.10))
  (fp_arc (start 2.15 -3.8) (end 2.15 -2.9) (angle -70) (layer F.Fab) (width 0.10))
  (fp_arc (start 16.2 0) (end 16.2 -1.3) (angle 180) (layer F.Fab) (width 0.10))
  (fp_line (start 0 -1.3) (end 0 1.3) (layer F.Fab) (width 0.10))
  (fp_arc (start -0.9 2.5) (end -1.3 2.5) (angle -90) (layer F.Fab) (width 0.10))
  (fp_arc (start -0.9 -2.5) (end -1.3 -2.5) (angle 90) (layer F.Fab) (width 0.10))
  (fp_line (start 23.7 7.85) (end 24.5 8.61) (layer F.Fab) (width 0.10))
  (fp_line (start 23.7 -7.85) (end 24.5 -8.61) (layer F.Fab) (width 0.10))
  (pad 2 thru_hole circle (at 20.49 0) (size 3 3) (drill 1.5) (layers *.Cu *.Mask))
  (pad 1 thru_hole rect (at 0 0) (size 3 3) (drill 1.5) (layers *.Cu *.Mask))
  (model ${KICAD6_3DMODEL_DIR}/Battery.3dshapes/BatteryHolder_Keystone_104_1x23mm.wrl
    (at (xyz 0 0 0))
    (scale (xyz 1 1 1))
    (rotate (xyz 0 0 0))
  )
)
