(module Battery_Panasonic_CR1632-V1AN_Vertical_CircularHoles (layer F.Cu) (tedit 5C857808)
  (descr "Panasonic CR-1632-V1AN battery, https://industrial.panasonic.com/cdbs/www-data/pdf2/AAA4000/AAA4000D464.PDF")
  (tags "battery CR-1632 coin cell vertical")
  (fp_text reference REF** (at 0 -5.3) (layer F.SilkS)
    (effects (font (size 1 1) (thickness 0.15)))
  )
  (fp_text value Battery_Panasonic_CR1632-V1AN_Vertical_CircularHoles (at 1.25 2.2) (layer F.Fab)
    (effects (font (size 1 1) (thickness 0.15)))
  )
  (fp_text user %R (at 1.25 -1.8 180) (layer F.Fab)
    (effects (font (size 1 1) (thickness 0.15)))
  )
  (fp_line (start -6.8 0.1) (end 9.3 0.1) (layer F.Fab) (width 0.1))
  (fp_line (start -6.8 -3.75) (end 9.3 -3.75) (layer F.Fab) (width 0.1))
  (fp_line (start -6.8 0.1) (end -6.8 -3.75) (layer F.Fab) (width 0.1))
  (fp_line (start 9.3 0.1) (end 9.3 -3.75) (layer F.Fab) (width 0.1))
  (fp_line (start -7.05 1.3) (end -7.05 -4.58) (layer F.CrtYd) (width 0.05))
  (fp_line (start 9.55 1.3) (end 9.55 -4.58) (layer F.CrtYd) (width 0.05))
  (fp_line (start -7.05 1.3) (end 9.55 1.3) (layer F.CrtYd) (width 0.05))
  (fp_line (start -7.05 -4.58) (end 9.55 -4.58) (layer F.CrtYd) (width 0.05))
  (fp_line (start -6.91 0.21) (end -1.43 0.21) (layer F.SilkS) (width 0.12))
  (fp_line (start 1.44 0.21) (end 9.41 0.21) (layer F.SilkS) (width 0.12))
  (fp_line (start 9.41 0.21) (end 9.41 -3.86) (layer F.SilkS) (width 0.12))
  (fp_line (start -6.91 0.21) (end -6.91 -3.86) (layer F.SilkS) (width 0.12))
  (fp_line (start -6.91 -3.86) (end 1.81 -3.86) (layer F.SilkS) (width 0.12))
  (fp_line (start 3.94 -3.86) (end 9.41 -3.86) (layer F.SilkS) (width 0.12))
  (fp_text user + (at -2.01 -0.75) (layer F.SilkS)
    (effects (font (size 1.5 1.5) (thickness 0.15)))
  )
  (pad 1 thru_hole rect (at 0 0 90) (size 2.35 2.35) (drill 1.82) (layers *.Cu *.Mask))
  (pad 2 thru_hole circle (at 2.875 -3.65) (size 1.6 1.6) (drill 1.09) (layers *.Cu *.Mask))
  (model ${KICAD6_3DMODEL_DIR}/Battery.3dshapes/Battery_Panasonic_CR1632-V1AN_Vertical_CircularHoles.wrl
    (at (xyz 0 0 0))
    (scale (xyz 1 1 1))
    (rotate (xyz 0 0 0))
  )
)
