(module BatteryHolder_MPD_BH-18650-PC2 (layer F.Cu) (tedit 5C1007C1)
  (descr "18650 Battery Holder (http://www.memoryprotectiondevices.com/datasheets/BK-18650-PC2-datasheet.pdf)")
  (tags "18650 Battery Holder")
  (fp_text reference REF** (at 36 1) (layer F.SilkS)
    (effects (font (size 1 1) (thickness 0.15)))
  )
  (fp_text value BatteryHolder_MPD_BH-18650-PC2 (at 36 -0.8) (layer F.Fab)
    (effects (font (size 1 1) (thickness 0.15)))
  )
  (fp_line (start -3 10.05) (end -3 -10.05) (layer F.SilkS) (width 0.12))
  (fp_line (start 75 10.05) (end -3 10.05) (layer F.SilkS) (width 0.12))
  (fp_line (start 75 -10.05) (end 75 10.05) (layer F.SilkS) (width 0.12))
  (fp_line (start -3 -10.05) (end 75 -10.05) (layer F.SilkS) (width 0.12))
  (fp_line (start -2.8 9.85) (end -2.8 -9.85) (layer F.Fab) (width 0.1))
  (fp_line (start 74.8 9.85) (end -2.8 9.85) (layer F.Fab) (width 0.1))
  (fp_line (start 74.8 -9.85) (end 74.8 9.85) (layer F.Fab) (width 0.1))
  (fp_line (start -2.8 -9.85) (end 74.8 -9.85) (layer F.Fab) (width 0.1))
  (fp_line (start -3.2 10.25) (end -3.2 -10.25) (layer F.CrtYd) (width 0.05))
  (fp_line (start 75.2 10.25) (end -3.2 10.25) (layer F.CrtYd) (width 0.05))
  (fp_line (start 75.2 -10.25) (end 75.2 10.25) (layer F.CrtYd) (width 0.05))
  (fp_line (start -3.2 -10.25) (end 75.2 -10.25) (layer F.CrtYd) (width 0.05))
  (fp_text user %R (at 36 -2.4) (layer F.Fab)
    (effects (font (size 1 1) (thickness 0.15)))
  )
  (pad 2 thru_hole circle (at 72 0) (size 3.5 3.5) (drill 2) (layers *.Cu *.Mask))
  (pad 1 thru_hole rect (at 0 0) (size 3.5 3.5) (drill 2) (layers *.Cu *.Mask))
  (pad "" np_thru_hole circle (at 8.645 0) (size 3.2 3.2) (drill 3.2) (layers *.Cu *.Mask))
  (pad "" np_thru_hole circle (at 64.255 0) (size 3.2 3.2) (drill 3.2) (layers *.Cu *.Mask))
  (model ${KICAD6_3DMODEL_DIR}/Battery.3dshapes/BatteryHolder_MPD_BH-18650-PC2.wrl
    (at (xyz 0 0 0))
    (scale (xyz 1 1 1))
    (rotate (xyz 0 0 0))
  )
)
