(module Battery_Panasonic_CR2450-VAN_Vertical_CircularHoles (layer F.Cu) (tedit 5C85786E)
  (descr "Panasonic CR-2450/VAN battery, https://industrial.panasonic.com/cdbs/www-data/pdf2/AAA4000/AAA4000D492.PDF")
  (tags "battery CR-2450 coin cell")
  (fp_text reference REF** (at 4.325 -7.8) (layer F.SilkS)
    (effects (font (size 1 1) (thickness 0.15)))
  )
  (fp_text value Battery_Panasonic_CR2450-VAN_Vertical_CircularHoles (at 4.325 2.8) (layer F.Fab)
    (effects (font (size 1 1) (thickness 0.15)))
  )
  (fp_text user %R (at 4.325 -2.8 180) (layer F.Fab)
    (effects (font (size 1 1) (thickness 0.15)))
  )
  (fp_line (start -7.975 -5.7) (end -7.975 0.1) (layer F.Fab) (width 0.1))
  (fp_line (start -7.975 0.1) (end 16.625 0.1) (layer F.Fab) (width 0.1))
  (fp_line (start -7.975 -5.7) (end 16.625 -5.7) (layer F.Fab) (width 0.1))
  (fp_line (start 16.625 -5.7) (end 16.625 0.1) (layer F.Fab) (width 0.1))
  (fp_line (start -8.23 -7.05) (end -8.23 1.95) (layer F.CrtYd) (width 0.05))
  (fp_line (start -8.23 1.95) (end 16.88 1.95) (layer F.CrtYd) (width 0.05))
  (fp_line (start -8.23 -7.05) (end 16.88 -7.05) (layer F.CrtYd) (width 0.05))
  (fp_line (start 16.88 -7.05) (end 16.88 1.95) (layer F.CrtYd) (width 0.05))
  (fp_line (start -8.085 -5.81) (end 7.54 -5.81) (layer F.SilkS) (width 0.12))
  (fp_line (start -8.085 -5.81) (end -8.085 0.21) (layer F.SilkS) (width 0.12))
  (fp_line (start -8.085 0.21) (end -2.11 0.21) (layer F.SilkS) (width 0.12))
  (fp_line (start 2.11 0.21) (end 16.735 0.21) (layer F.SilkS) (width 0.12))
  (fp_line (start 10.76 -5.81) (end 16.735 -5.81) (layer F.SilkS) (width 0.12))
  (fp_line (start 16.735 -5.81) (end 16.735 0.21) (layer F.SilkS) (width 0.12))
  (fp_text user + (at -2.7 -0.75) (layer F.SilkS)
    (effects (font (size 1.5 1.5) (thickness 0.15)))
  )
  (pad 1 thru_hole rect (at 0 0) (size 3.7 3.7) (drill 3.12) (layers *.Cu *.Mask))
  (pad 2 thru_hole circle (at 9.15 -5.6) (size 2.7 2.7) (drill 2.12) (layers *.Cu *.Mask))
  (model ${KICAD6_3DMODEL_DIR}/Battery.3dshapes/Battery_Panasonic_CR2450-VAN_Vertical_CircularHoles.wrl
    (at (xyz 0 0 0))
    (scale (xyz 1 1 1))
    (rotate (xyz 0 0 0))
  )
)
