(module BatteryHolder_MPD_BC12AAPC_2xAA (layer F.Cu) (tedit 5AC7C3FF)
  (descr "2xAA cell battery holder, Memory Protection Devices P/N BC12AAPC, http://www.memoryprotectiondevices.com/datasheets/BC12AAPC-datasheet.pdf")
  (tags "AA battery cell holder")
  (fp_text reference REF** (at 51 -9.6) (layer F.SilkS)
    (effects (font (size 1 1) (thickness 0.15)))
  )
  (fp_text value BatteryHolder_MPD_BC12AAPC_2xAA (at 51 9.6) (layer F.Fab)
    (effects (font (size 1 1) (thickness 0.15)))
  )
  (fp_line (start -2.9 -8.1) (end -2.9 8.1) (layer F.Fab) (width 0.1))
  (fp_line (start -2.9 8.1) (end 104.9 8.1) (layer F.Fab) (width 0.1))
  (fp_line (start 104.9 8.1) (end 104.9 -8.1) (layer F.Fab) (width 0.1))
  (fp_line (start 104.9 -8.1) (end -2.9 -8.1) (layer F.Fab) (width 0.1))
  (fp_line (start -3 -8.2) (end -3 8.2) (layer F.SilkS) (width 0.12))
  (fp_line (start -3 8.2) (end 105 8.2) (layer F.SilkS) (width 0.12))
  (fp_line (start 105 8.2) (end 105 -8.2) (layer F.SilkS) (width 0.12))
  (fp_line (start 105 -8.2) (end -3 -8.2) (layer F.SilkS) (width 0.12))
  (fp_line (start -3.4 -8.6) (end -3.4 8.6) (layer F.CrtYd) (width 0.05))
  (fp_line (start -3.4 8.6) (end 105.4 8.6) (layer F.CrtYd) (width 0.05))
  (fp_line (start 105.4 8.6) (end 105.4 -8.6) (layer F.CrtYd) (width 0.05))
  (fp_line (start 105.4 -8.6) (end -3.4 -8.6) (layer F.CrtYd) (width 0.05))
  (fp_line (start 35.025 2.54) (end 17.245 2.54) (layer F.SilkS) (width 0.12))
  (fp_line (start 17.245 2.54) (end 17.245 1.27) (layer F.SilkS) (width 0.12))
  (fp_line (start 17.245 1.27) (end 15.975 1.27) (layer F.SilkS) (width 0.12))
  (fp_line (start 15.975 1.27) (end 15.975 -1.27) (layer F.SilkS) (width 0.12))
  (fp_line (start 15.975 -1.27) (end 17.245 -1.27) (layer F.SilkS) (width 0.12))
  (fp_line (start 17.245 -1.27) (end 17.245 -2.54) (layer F.SilkS) (width 0.12))
  (fp_line (start 17.245 -2.54) (end 35.025 -2.54) (layer F.SilkS) (width 0.12))
  (fp_line (start 35.025 -2.54) (end 35.025 2.54) (layer F.SilkS) (width 0.12))
  (fp_line (start 86.025 2.54) (end 68.245 2.54) (layer F.SilkS) (width 0.12))
  (fp_line (start 68.245 2.54) (end 68.245 1.27) (layer F.SilkS) (width 0.12))
  (fp_line (start 68.245 1.27) (end 66.975 1.27) (layer F.SilkS) (width 0.12))
  (fp_line (start 66.975 1.27) (end 66.975 -1.27) (layer F.SilkS) (width 0.12))
  (fp_line (start 66.975 -1.27) (end 68.245 -1.27) (layer F.SilkS) (width 0.12))
  (fp_line (start 68.245 -1.27) (end 68.245 -2.54) (layer F.SilkS) (width 0.12))
  (fp_line (start 68.245 -2.54) (end 86.025 -2.54) (layer F.SilkS) (width 0.12))
  (fp_line (start 86.025 -2.54) (end 86.025 2.54) (layer F.SilkS) (width 0.12))
  (pad 1 thru_hole rect (at 0 0) (size 2.23 2.23) (drill 1.23) (layers *.Cu *.Mask))
  (pad 2 thru_hole circle (at 102 0) (size 2.23 2.23) (drill 1.23) (layers *.Cu *.Mask))
  (pad "" np_thru_hole circle (at 26.15 -4.75) (size 2.5 2.5) (drill 2.5) (layers *.Cu *.Mask))
  (pad "" np_thru_hole circle (at 26.15 4.75) (size 2.5 2.5) (drill 2.5) (layers *.Cu *.Mask))
  (pad "" np_thru_hole circle (at 75.85 -4.75) (size 2.5 2.5) (drill 2.5) (layers *.Cu *.Mask))
  (pad "" np_thru_hole circle (at 75.85 4.75) (size 2.5 2.5) (drill 2.5) (layers *.Cu *.Mask))
  (fp_text user %R (at 51 0) (layer F.Fab)
    (effects (font (size 1 1) (thickness 0.15)))
  )
  (fp_text user - (at 36.295 0) (layer F.SilkS)
    (effects (font (size 1.5 1.5) (thickness 0.15)))
  )
  (fp_text user + (at 14.705 0) (layer F.SilkS)
    (effects (font (size 1.5 1.5) (thickness 0.15)))
  )
  (fp_text user - (at 87.295 0) (layer F.SilkS)
    (effects (font (size 1.5 1.5) (thickness 0.15)))
  )
  (fp_text user + (at 65.705 0) (layer F.SilkS)
    (effects (font (size 1.5 1.5) (thickness 0.15)))
  )
  (fp_text user + (at -4.4 0) (layer F.SilkS)
    (effects (font (size 1.5 1.5) (thickness 0.15)))
  )
  (fp_text user - (at 106.4 0) (layer F.SilkS)
    (effects (font (size 1.5 1.5) (thickness 0.15)))
  )
  (model ${KICAD6_3DMODEL_DIR}/Battery.3dshapes/BatteryHolder_MPD_BC12AAPC_2xAA.wrl
    (at (xyz 0 0 0))
    (scale (xyz 1 1 1))
    (rotate (xyz 0 0 0))
  )
)