(module BatteryHolder_Keystone_2460_1xAA (layer F.Cu) (tedit 5DBEA3CC)
  (descr https://www.keyelco.com/product-pdf.cfm?p=1025)
  (tags "AA battery cell holder")
  (fp_text reference REF** (at -0.02 -9.42 180) (layer F.SilkS)
    (effects (font (size 1 1) (thickness 0.15)))
  )
  (fp_text value BatteryHolder_Keystone_2460_1xAA (at 24.5 0 180) (layer F.Fab)
    (effects (font (size 1 1) (thickness 0.15)))
  )
  (fp_line (start 33.9 5.6) (end 18.1 5.6) (layer F.SilkS) (width 0.12))
  (fp_line (start 18.1 -5.6) (end 33.9 -5.6) (layer F.SilkS) (width 0.12))
  (fp_arc (start 18.1 -7.6) (end 16.1 -7.6) (angle -90) (layer F.SilkS) (width 0.12))
  (fp_arc (start 33.9 -7.6) (end 33.9 -5.6) (angle -90) (layer F.SilkS) (width 0.12))
  (fp_arc (start 33.9 7.6) (end 35.9 7.6) (angle -90) (layer F.SilkS) (width 0.12))
  (fp_arc (start 18.1 7.6) (end 18.1 5.6) (angle -90) (layer F.SilkS) (width 0.12))
  (fp_line (start 35.9 7.6) (end 53.9 7.6) (layer F.SilkS) (width 0.12))
  (fp_line (start 35.9 -7.6) (end 53.9 -7.6) (layer F.SilkS) (width 0.12))
  (fp_line (start -1.9 -7.6) (end 16.1 -7.6) (layer F.SilkS) (width 0.12))
  (fp_line (start 53.9 -7.6) (end 53.9 7.6) (layer F.SilkS) (width 0.12))
  (fp_line (start -1.9 7.6) (end 16.1 7.6) (layer F.SilkS) (width 0.12))
  (fp_line (start -1.9 -7.6) (end -1.9 7.6) (layer F.SilkS) (width 0.12))
  (fp_text user %R (at 0.01 -0.06) (layer F.Fab)
    (effects (font (size 1 1) (thickness 0.15)))
  )
  (fp_line (start -2.62 -8.565) (end 54.62 -8.565) (layer F.SilkS) (width 0.12))
  (fp_line (start -2.62 8.565) (end -2.62 -8.565) (layer F.SilkS) (width 0.12))
  (fp_line (start 54.62 8.565) (end -2.62 8.565) (layer F.SilkS) (width 0.12))
  (fp_line (start 54.62 -8.565) (end 54.62 8.565) (layer F.SilkS) (width 0.12))
  (fp_line (start 47.31 -1.06) (end 47.31 0.94) (layer F.SilkS) (width 0.12))
  (fp_line (start 50.31 -4.06) (end 50.31 3.94) (layer F.SilkS) (width 0.12))
  (fp_line (start 49.31 2.94) (end 49.31 -3.06) (layer F.SilkS) (width 0.12))
  (fp_line (start 48.31 -2.06) (end 48.31 1.94) (layer F.SilkS) (width 0.12))
  (fp_text user - (at 55.37 -0.06) (layer F.SilkS)
    (effects (font (size 1 1) (thickness 0.15)))
  )
  (fp_text user + (at -3.4 -0.06) (layer F.SilkS)
    (effects (font (size 1 1) (thickness 0.15)))
  )
  (fp_line (start 54.75 8.7) (end -2.75 8.7) (layer F.CrtYd) (width 0.05))
  (fp_line (start 54.75 -8.7) (end 54.75 8.7) (layer F.CrtYd) (width 0.05))
  (fp_line (start -2.75 -8.7) (end 54.75 -8.7) (layer F.CrtYd) (width 0.05))
  (fp_line (start -2.75 8.7) (end -2.75 -8.7) (layer F.CrtYd) (width 0.05))
  (fp_line (start 54.5 -8.445) (end -2.5 -8.445) (layer F.Fab) (width 0.1))
  (fp_line (start -2.5 -8.445) (end -2.5 8.445) (layer F.Fab) (width 0.1))
  (fp_line (start -2.5 8.445) (end 54.5 8.445) (layer F.Fab) (width 0.1))
  (fp_line (start 54.5 8.445) (end 54.5 -8.445) (layer F.Fab) (width 0.1))
  (pad "" np_thru_hole circle (at 2.75 -5.995 90) (size 2.64 2.64) (drill 2.64) (layers *.Cu *.Mask))
  (pad "" np_thru_hole circle (at 49.23 5.995) (size 2.64 2.64) (drill 2.64) (layers *.Cu *.Mask))
  (pad 2 thru_hole circle (at 51.99 0 180) (size 2 2) (drill 1.02) (layers *.Cu *.Mask))
  (pad 1 thru_hole rect (at 0 0 180) (size 2 2) (drill 1.02) (layers *.Cu *.Mask))
  (model ${KICAD6_3DMODEL_DIR}/Battery.3dshapes/BatteryHolder_Keystone_2460_1xAA.wrl
    (at (xyz 0 0 0))
    (scale (xyz 1 1 1))
    (rotate (xyz 0 0 0))
  )
)
