(module BatteryHolder_Keystone_3002_1x2032 (layer F.Cu) (tedit 5D9C7E9A)
  (descr https://www.tme.eu/it/Document/a823211ec201a9e209042d155fe22d2b/KEYS2996.pdf)
  (tags "BR2016 CR2016 DL2016 BR2020 CL2020 BR2025 CR2025 DL2025 DR2032 CR2032 DL2032")
  (attr smd)
  (fp_text reference REF** (at -9.15 9.7) (layer F.SilkS)
    (effects (font (size 1 1) (thickness 0.15)))
  )
  (fp_text value BatteryHolder_Keystone_3002_1x2032 (at 0 -11) (layer F.Fab)
    (effects (font (size 1 1) (thickness 0.15)))
  )
  (fp_text user %R (at -9.15 9.7) (layer F.Fab)
    (effects (font (size 1 1) (thickness 0.15)))
  )
  (fp_line (start 15.55 -2.75) (end 10.75 -2.75) (layer F.SilkS) (width 0.12))
  (fp_line (start 15.55 2.75) (end 15.55 -2.75) (layer F.SilkS) (width 0.12))
  (fp_line (start 10.75 2.75) (end 15.55 2.75) (layer F.SilkS) (width 0.12))
  (fp_line (start -15.55 2.75) (end -10.75 2.75) (layer F.SilkS) (width 0.12))
  (fp_line (start -15.55 -2.75) (end -15.55 2.75) (layer F.SilkS) (width 0.12))
  (fp_line (start -10.75 -2.75) (end -15.55 -2.75) (layer F.SilkS) (width 0.12))
  (fp_line (start -15.85 3.05) (end -15.85 -3.05) (layer F.CrtYd) (width 0.05))
  (fp_line (start -11.05 3.05) (end -15.85 3.05) (layer F.CrtYd) (width 0.05))
  (fp_line (start -11.05 6.35) (end -11.05 3.05) (layer F.CrtYd) (width 0.05))
  (fp_line (start -4.3 11.1) (end -11.05 6.35) (layer F.CrtYd) (width 0.05))
  (fp_line (start 4.3 11.1) (end -4.3 11.1) (layer F.CrtYd) (width 0.05))
  (fp_line (start 11.05 6.35) (end 4.3 11.1) (layer F.CrtYd) (width 0.05))
  (fp_line (start 11.05 3.05) (end 11.05 6.35) (layer F.CrtYd) (width 0.05))
  (fp_line (start 15.85 3.05) (end 11.05 3.05) (layer F.CrtYd) (width 0.05))
  (fp_line (start 15.85 -3.05) (end 15.85 3.05) (layer F.CrtYd) (width 0.05))
  (fp_line (start 11.05 -3.05) (end 15.85 -3.05) (layer F.CrtYd) (width 0.05))
  (fp_line (start 11.05 -9.8) (end 11.05 -3.05) (layer F.CrtYd) (width 0.05))
  (fp_line (start 11.05 -9.8) (end 3.9 -9.8) (layer F.CrtYd) (width 0.05))
  (fp_arc (start 0 0) (end 3.9 -9.8) (angle -43.40107348) (layer F.CrtYd) (width 0.05))
  (fp_line (start -11.05 -9.8) (end -3.9 -9.8) (layer F.CrtYd) (width 0.05))
  (fp_line (start -11.05 -3.05) (end -11.05 -9.8) (layer F.CrtYd) (width 0.05))
  (fp_line (start -15.85 -3.05) (end -11.05 -3.05) (layer F.CrtYd) (width 0.05))
  (fp_line (start 10.55 -9.5) (end 3.85 -9.5) (layer F.SilkS) (width 0.12))
  (fp_arc (start 0 0) (end 3.85 -9.5) (angle -44.1) (layer F.SilkS) (width 0.12))
  (fp_line (start -10.55 -9.5) (end -3.85 -9.5) (layer F.SilkS) (width 0.12))
  (fp_circle (center 0 0) (end 10 0) (layer Dwgs.User) (width 0.2))
  (fp_line (start 10.55 5.9) (end 3.8 10.6) (layer F.Fab) (width 0.1))
  (fp_line (start 3.95 10.85) (end 10.75 6.05) (layer F.SilkS) (width 0.12))
  (fp_line (start -3.95 10.85) (end 3.95 10.85) (layer F.SilkS) (width 0.12))
  (fp_line (start -10.8 6.05) (end -3.95 10.85) (layer F.SilkS) (width 0.12))
  (fp_line (start -10.55 5.85) (end -3.8 10.6) (layer F.Fab) (width 0.1))
  (fp_line (start -10.55 -2.55) (end -10.55 -9.3) (layer F.Fab) (width 0.1))
  (fp_line (start 10.55 -9.3) (end -10.55 -9.3) (layer F.Fab) (width 0.1))
  (fp_line (start 10.55 -2.55) (end 10.55 -9.3) (layer F.Fab) (width 0.1))
  (fp_line (start 15.35 -2.55) (end 10.55 -2.55) (layer F.Fab) (width 0.1))
  (fp_line (start 15.35 2.55) (end 15.35 -2.55) (layer F.Fab) (width 0.1))
  (fp_line (start 10.55 2.55) (end 15.35 2.55) (layer F.Fab) (width 0.1))
  (fp_line (start -3.8 10.6) (end 3.8 10.6) (layer F.Fab) (width 0.1))
  (fp_line (start 10.55 2.55) (end 10.55 5.9) (layer F.Fab) (width 0.1))
  (fp_line (start -10.55 2.55) (end -10.55 5.85) (layer F.Fab) (width 0.1))
  (fp_line (start -15.35 -2.55) (end -10.55 -2.55) (layer F.Fab) (width 0.1))
  (fp_line (start -15.35 2.55) (end -10.55 2.55) (layer F.Fab) (width 0.1))
  (fp_line (start -15.35 -2.55) (end -15.35 2.55) (layer F.Fab) (width 0.1))
  (pad 1 smd rect (at 12.8 0) (size 5.1 5.1) (layers F.Cu F.Paste F.Mask))
  (pad 1 smd rect (at -12.8 0) (size 5.1 5.1) (layers F.Cu F.Paste F.Mask))
  (pad 2 smd circle (at 0 0) (size 17.8 17.8) (layers F.Cu F.Mask))
  (model ${KICAD6_3DMODEL_DIR}/Battery.3dshapes/BatteryHolder_Keystone_3002_1x2032.wrl
    (at (xyz 0 0 0))
    (scale (xyz 1 1 1))
    (rotate (xyz 0 0 0))
  )
)
