(module BatteryHolder_Bulgin_BX0036_1xC (layer F.Cu) (tedit 5C0C1564)
  (descr "Bulgin Battery Holder, BX0036, Battery Type C (https://www.bulgin.com/products/pub/media/bulgin/data/Battery_holders.pdf)")
  (tags "Bulgin BX0036")
  (fp_text reference REF** (at 27.8 -18.1) (layer F.SilkS)
    (effects (font (size 1 1) (thickness 0.15)))
  )
  (fp_text value BatteryHolder_Bulgin_BX0036_1xC (at 27.8 1) (layer F.Fab)
    (effects (font (size 1 1) (thickness 0.15)))
  )
  (fp_line (start -1.75 17) (end -1.75 -17) (layer F.Fab) (width 0.1))
  (fp_line (start 57.35 17) (end -1.75 17) (layer F.Fab) (width 0.1))
  (fp_line (start 57.35 -17) (end 57.35 17) (layer F.Fab) (width 0.1))
  (fp_line (start -1.75 -17) (end 57.35 -17) (layer F.Fab) (width 0.1))
  (fp_text user + (at 3 -0.2) (layer F.SilkS)
    (effects (font (size 3 3) (thickness 0.45)))
  )
  (fp_line (start -2.3 -17.5) (end 57.9 -17.5) (layer F.CrtYd) (width 0.05))
  (fp_line (start 57.9 -17.5) (end 57.9 17.5) (layer F.CrtYd) (width 0.05))
  (fp_line (start 57.9 17.5) (end -2.3 17.5) (layer F.CrtYd) (width 0.05))
  (fp_line (start -2.3 17.5) (end -2.3 -17.5) (layer F.CrtYd) (width 0.05))
  (fp_line (start -1.81 -17.06) (end -1.81 17.06) (layer F.SilkS) (width 0.12))
  (fp_line (start 57.41 -17.06) (end 57.41 17.06) (layer F.SilkS) (width 0.12))
  (fp_line (start -1.81 -17.06) (end 57.41 -17.06) (layer F.SilkS) (width 0.12))
  (fp_line (start -1.81 17.06) (end 57.41 17.06) (layer F.SilkS) (width 0.12))
  (fp_text user %R (at 27.8 -1) (layer F.Fab)
    (effects (font (size 1 1) (thickness 0.1)))
  )
  (pad 2 thru_hole circle (at 55.6 0) (size 2.6 2.6) (drill 1.6) (layers *.Cu *.Mask))
  (pad 1 thru_hole rect (at 0 0) (size 2.6 2.6) (drill 1.6) (layers *.Cu *.Mask))
  (pad "" np_thru_hole circle (at 11.9 0) (size 3.8 3.8) (drill 3.8) (layers *.Cu *.Mask))
  (pad "" np_thru_hole circle (at 43.7 0) (size 3.8 3.8) (drill 3.8) (layers *.Cu *.Mask))
  (model ${KICAD6_3DMODEL_DIR}/Battery.3dshapes/BatteryHolder_Bulgin_BX0036_1xC.wrl
    (at (xyz 0 0 0))
    (scale (xyz 1 1 1))
    (rotate (xyz 0 0 0))
  )
)
