(module MountingHole_4.3mm_M4_ISO14580_Pad_TopOnly (layer F.Cu) (tedit 56D1B4CB)
  (attr virtual)
  (descr "Mounting Hole 4.3mm, M4, ISO14580")
  (tags "mounting hole 4.3mm m4 iso14580")
  (fp_text reference REF** (at 0 -4.5) (layer F.SilkS)
    (effects (font (size 1 1) (thickness 0.15)))
  )
  (fp_text value MountingHole_4.3mm_M4_ISO14580_Pad_TopOnly (at 0 4.5) (layer F.Fab)
    (effects (font (size 1 1) (thickness 0.15)))
  )
  (fp_text user %R (at 0.3 0) (layer F.Fab)
    (effects (font (size 1 1) (thickness 0.15)))
  )
  (fp_circle (center 0 0) (end 3.5 0) (layer Cmts.User) (width 0.15))
  (fp_circle (center 0 0) (end 3.75 0) (layer F.CrtYd) (width 0.05))
  (pad 1 thru_hole circle (at 0 0) (size 4.7 4.7) (drill 4.3) (layers *.Cu *.Mask))
  (pad 1 connect circle (at 0 0) (size 7 7) (layers F.Cu F.Mask))
)
