(module MountingHole_2.2mm_M2_ISO14580_Pad_TopOnly (layer F.Cu) (tedit 56D1B4CB)
  (attr virtual)
  (descr "Mounting Hole 2.2mm, M2, ISO14580")
  (tags "mounting hole 2.2mm m2 iso14580")
  (fp_text reference REF** (at 0 -2.9) (layer F.SilkS)
    (effects (font (size 1 1) (thickness 0.15)))
  )
  (fp_text value MountingHole_2.2mm_M2_ISO14580_Pad_TopOnly (at 0 2.9) (layer F.Fab)
    (effects (font (size 1 1) (thickness 0.15)))
  )
  (fp_text user %R (at 0.3 0) (layer F.Fab)
    (effects (font (size 1 1) (thickness 0.15)))
  )
  (fp_circle (center 0 0) (end 1.9 0) (layer Cmts.User) (width 0.15))
  (fp_circle (center 0 0) (end 2.15 0) (layer F.CrtYd) (width 0.05))
  (pad 1 thru_hole circle (at 0 0) (size 2.6 2.6) (drill 2.2) (layers *.Cu *.Mask))
  (pad 1 connect circle (at 0 0) (size 3.8 3.8) (layers F.Cu F.Mask))
)
