(module MountingHole_5.3mm_M5_ISO7380_Pad (layer F.Cu) (tedit 56D1B4CB)
  (attr virtual)
  (descr "Mounting Hole 5.3mm, M5, ISO7380")
  (tags "mounting hole 5.3mm m5 iso7380")
  (fp_text reference REF** (at 0 -5.75) (layer F.SilkS)
    (effects (font (size 1 1) (thickness 0.15)))
  )
  (fp_text value MountingHole_5.3mm_M5_ISO7380_Pad (at 0 5.75) (layer F.Fab)
    (effects (font (size 1 1) (thickness 0.15)))
  )
  (fp_text user %R (at 0.3 0) (layer F.Fab)
    (effects (font (size 1 1) (thickness 0.15)))
  )
  (fp_circle (center 0 0) (end 4.75 0) (layer Cmts.User) (width 0.15))
  (fp_circle (center 0 0) (end 5 0) (layer F.CrtYd) (width 0.05))
  (pad 1 thru_hole circle (at 0 0) (size 9.5 9.5) (drill 5.3) (layers *.Cu *.Mask))
)
