(module MountingHole_5.3mm_M5_ISO14580_Pad (layer F.Cu) (tedit 56D1B4CB)
  (attr virtual)
  (descr "Mounting Hole 5.3mm, M5, ISO14580")
  (tags "mounting hole 5.3mm m5 iso14580")
  (fp_text reference REF** (at 0 -5.25) (layer F.SilkS)
    (effects (font (size 1 1) (thickness 0.15)))
  )
  (fp_text value MountingHole_5.3mm_M5_ISO14580_Pad (at 0 5.25) (layer F.Fab)
    (effects (font (size 1 1) (thickness 0.15)))
  )
  (fp_text user %R (at 0.3 0) (layer F.Fab)
    (effects (font (size 1 1) (thickness 0.15)))
  )
  (fp_circle (center 0 0) (end 4.25 0) (layer Cmts.User) (width 0.15))
  (fp_circle (center 0 0) (end 4.5 0) (layer F.CrtYd) (width 0.05))
  (pad 1 thru_hole circle (at 0 0) (size 8.5 8.5) (drill 5.3) (layers *.Cu *.Mask))
)
