(module MountingHole_5.3mm_M5_DIN965_Pad_TopBottom (layer F.Cu) (tedit 56D1B4CB)
  (attr virtual)
  (descr "Mounting Hole 5.3mm, M5, DIN965")
  (tags "mounting hole 5.3mm m5 din965")
  (fp_text reference REF** (at 0 -5.6) (layer F.SilkS)
    (effects (font (size 1 1) (thickness 0.15)))
  )
  (fp_text value MountingHole_5.3mm_M5_DIN965_Pad_TopBottom (at 0 5.6) (layer F.Fab)
    (effects (font (size 1 1) (thickness 0.15)))
  )
  (fp_text user %R (at 0.3 0) (layer F.Fab)
    (effects (font (size 1 1) (thickness 0.15)))
  )
  (fp_circle (center 0 0) (end 4.6 0) (layer Cmts.User) (width 0.15))
  (fp_circle (center 0 0) (end 4.85 0) (layer F.CrtYd) (width 0.05))
  (pad 1 thru_hole circle (at 0 0) (size 5.7 5.7) (drill 5.3) (layers *.Cu *.Mask))
  (pad 1 connect circle (at 0 0) (size 9.2 9.2) (layers F.Cu F.Mask))
  (pad 1 connect circle (at 0 0) (size 9.2 9.2) (layers B.Cu B.Mask))
)
