(module MountingHole_3.2mm_M3_DIN965_Pad_TopBottom (layer F.Cu) (tedit 56D1B4CB)
  (attr virtual)
  (descr "Mounting Hole 3.2mm, M3, DIN965")
  (tags "mounting hole 3.2mm m3 din965")
  (fp_text reference REF** (at 0 -3.8) (layer F.SilkS)
    (effects (font (size 1 1) (thickness 0.15)))
  )
  (fp_text value MountingHole_3.2mm_M3_DIN965_Pad_TopBottom (at 0 3.8) (layer F.Fab)
    (effects (font (size 1 1) (thickness 0.15)))
  )
  (fp_text user %R (at 0.3 0) (layer F.Fab)
    (effects (font (size 1 1) (thickness 0.15)))
  )
  (fp_circle (center 0 0) (end 2.8 0) (layer Cmts.User) (width 0.15))
  (fp_circle (center 0 0) (end 3.05 0) (layer F.CrtYd) (width 0.05))
  (pad 1 thru_hole circle (at 0 0) (size 3.6 3.6) (drill 3.2) (layers *.Cu *.Mask))
  (pad 1 connect circle (at 0 0) (size 5.6 5.6) (layers F.Cu F.Mask))
  (pad 1 connect circle (at 0 0) (size 5.6 5.6) (layers B.Cu B.Mask))
)
