(module MountingHole_3.2mm_M3_ISO7380_Pad_TopOnly (layer F.Cu) (tedit 56D1B4CB)
  (attr virtual)
  (descr "Mounting Hole 3.2mm, M3, ISO7380")
  (tags "mounting hole 3.2mm m3 iso7380")
  (fp_text reference REF** (at 0 -3.85) (layer F.SilkS)
    (effects (font (size 1 1) (thickness 0.15)))
  )
  (fp_text value MountingHole_3.2mm_M3_ISO7380_Pad_TopOnly (at 0 3.85) (layer F.Fab)
    (effects (font (size 1 1) (thickness 0.15)))
  )
  (fp_text user %R (at 0.3 0) (layer F.Fab)
    (effects (font (size 1 1) (thickness 0.15)))
  )
  (fp_circle (center 0 0) (end 2.85 0) (layer Cmts.User) (width 0.15))
  (fp_circle (center 0 0) (end 3.1 0) (layer F.CrtYd) (width 0.05))
  (pad 1 thru_hole circle (at 0 0) (size 3.6 3.6) (drill 3.2) (layers *.Cu *.Mask))
  (pad 1 connect circle (at 0 0) (size 5.7 5.7) (layers F.Cu F.Mask))
)
