(module MountingHole_8.4mm_M8_Pad_TopOnly (layer F.Cu) (tedit 56D1B4CB)
  (attr virtual)
  (descr "Mounting Hole 8.4mm, M8")
  (tags "mounting hole 8.4mm m8")
  (fp_text reference REF** (at 0 -9.4) (layer F.SilkS)
    (effects (font (size 1 1) (thickness 0.15)))
  )
  (fp_text value MountingHole_8.4mm_M8_Pad_TopOnly (at 0 9.4) (layer F.Fab)
    (effects (font (size 1 1) (thickness 0.15)))
  )
  (fp_text user %R (at 0.3 0) (layer F.Fab)
    (effects (font (size 1 1) (thickness 0.15)))
  )
  (fp_circle (center 0 0) (end 8.4 0) (layer Cmts.User) (width 0.15))
  (fp_circle (center 0 0) (end 8.65 0) (layer F.CrtYd) (width 0.05))
  (pad 1 thru_hole circle (at 0 0) (size 8.8 8.8) (drill 8.4) (layers *.Cu *.Mask))
  (pad 1 connect circle (at 0 0) (size 16.8 16.8) (layers F.Cu F.Mask))
)
