(module MountingHole_2.7mm_M2.5_ISO7380_Pad_TopOnly (layer F.Cu) (tedit 56D1B4CB)
  (attr virtual)
  (descr "Mounting Hole 2.7mm, M2.5, ISO7380")
  (tags "mounting hole 2.7mm m2.5 iso7380")
  (fp_text reference REF** (at 0 -3.25) (layer F.SilkS)
    (effects (font (size 1 1) (thickness 0.15)))
  )
  (fp_text value MountingHole_2.7mm_M2.5_ISO7380_Pad_TopOnly (at 0 3.25) (layer F.Fab)
    (effects (font (size 1 1) (thickness 0.15)))
  )
  (fp_text user %R (at 0.3 0) (layer F.Fab)
    (effects (font (size 1 1) (thickness 0.15)))
  )
  (fp_circle (center 0 0) (end 2.25 0) (layer Cmts.User) (width 0.15))
  (fp_circle (center 0 0) (end 2.5 0) (layer F.CrtYd) (width 0.05))
  (pad 1 thru_hole circle (at 0 0) (size 3.1 3.1) (drill 2.7) (layers *.Cu *.Mask))
  (pad 1 connect circle (at 0 0) (size 4.5 4.5) (layers F.Cu F.Mask))
)
