(module MountingHole_6.4mm_M6_ISO7380_Pad_TopOnly (layer F.Cu) (tedit 56D1B4CB)
  (attr virtual)
  (descr "Mounting Hole 6.4mm, M6, ISO7380")
  (tags "mounting hole 6.4mm m6 iso7380")
  (fp_text reference REF** (at 0 -6.25) (layer F.SilkS)
    (effects (font (size 1 1) (thickness 0.15)))
  )
  (fp_text value MountingHole_6.4mm_M6_ISO7380_Pad_TopOnly (at 0 6.25) (layer F.Fab)
    (effects (font (size 1 1) (thickness 0.15)))
  )
  (fp_text user %R (at 0.3 0) (layer F.Fab)
    (effects (font (size 1 1) (thickness 0.15)))
  )
  (fp_circle (center 0 0) (end 5.25 0) (layer Cmts.User) (width 0.15))
  (fp_circle (center 0 0) (end 5.5 0) (layer F.CrtYd) (width 0.05))
  (pad 1 thru_hole circle (at 0 0) (size 6.8 6.8) (drill 6.4) (layers *.Cu *.Mask))
  (pad 1 connect circle (at 0 0) (size 10.5 10.5) (layers F.Cu F.Mask))
)
