(module MountingHole_5mm_Pad_TopOnly (layer F.Cu) (tedit 56D1B4CB)
  (attr virtual)
  (descr "Mounting Hole 5mm")
  (tags "mounting hole 5mm")
  (fp_text reference REF** (at 0 -6) (layer F.SilkS)
    (effects (font (size 1 1) (thickness 0.15)))
  )
  (fp_text value MountingHole_5mm_Pad_TopOnly (at 0 6) (layer F.Fab)
    (effects (font (size 1 1) (thickness 0.15)))
  )
  (fp_text user %R (at 0.3 0) (layer F.Fab)
    (effects (font (size 1 1) (thickness 0.15)))
  )
  (fp_circle (center 0 0) (end 5 0) (layer Cmts.User) (width 0.15))
  (fp_circle (center 0 0) (end 5.25 0) (layer F.CrtYd) (width 0.05))
  (pad 1 thru_hole circle (at 0 0) (size 5.4 5.4) (drill 5) (layers *.Cu *.Mask))
  (pad 1 connect circle (at 0 0) (size 10 10) (layers F.Cu F.Mask))
)
