(module MountingHole_6.4mm_M6_DIN965 (layer F.Cu) (tedit 56D1B4CB)
  (attr virtual)
  (descr "Mounting Hole 6.4mm, no annular, M6, DIN965")
  (tags "mounting hole 6.4mm no annular m6 din965")
  (fp_text reference REF** (at 0 -6.5) (layer F.SilkS)
    (effects (font (size 1 1) (thickness 0.15)))
  )
  (fp_text value MountingHole_6.4mm_M6_DIN965 (at 0 6.5) (layer F.Fab)
    (effects (font (size 1 1) (thickness 0.15)))
  )
  (fp_text user %R (at 0.3 0) (layer F.Fab)
    (effects (font (size 1 1) (thickness 0.15)))
  )
  (fp_circle (center 0 0) (end 5.5 0) (layer Cmts.User) (width 0.15))
  (fp_circle (center 0 0) (end 5.75 0) (layer F.CrtYd) (width 0.05))
  (pad 1 np_thru_hole circle (at 0 0) (size 6.4 6.4) (drill 6.4) (layers *.Cu *.Mask))
)
