(module Converter_DCDC_Cyntec_MUN12AD01-SH (layer F.Cu) (tedit 5E52D57B)
  (descr http://www.cyntec.com/upfile/products/download/Cyntec%20MUN12AD01-SH_Datasheet.pdf)
  (tags "Power Module uPOL MUN12AD01")
  (attr smd)
  (fp_text reference REF** (at 0.05 -2.8) (layer F.SilkS)
    (effects (font (size 1 1) (thickness 0.15)))
  )
  (fp_text value Converter_DCDC_Cyntec_MUN12AD01-SH (at 0 2.75) (layer F.Fab)
    (effects (font (size 1 1) (thickness 0.15)))
  )
  (fp_line (start -2.2 -2) (end -2.2 2) (layer F.CrtYd) (width 0.05))
  (fp_line (start -2.2 2) (end 2.2 2) (layer F.CrtYd) (width 0.05))
  (fp_line (start 2.2 2) (end 2.2 -2) (layer F.CrtYd) (width 0.05))
  (fp_line (start 2.2 -2) (end -2.2 -2) (layer F.CrtYd) (width 0.05))
  (fp_line (start -1.75 -0.85) (end -1.75 1.75) (layer F.Fab) (width 0.1))
  (fp_line (start -1.75 1.75) (end 1.75 1.75) (layer F.Fab) (width 0.1))
  (fp_line (start 1.75 1.75) (end 1.75 -1.75) (layer F.Fab) (width 0.1))
  (fp_line (start 1.75 -1.75) (end -0.85 -1.75) (layer F.Fab) (width 0.1))
  (fp_text user %R (at 0 0) (layer F.Fab)
    (effects (font (size 0.75 0.75) (thickness 0.11)))
  )
  (fp_line (start -0.85 -1.75) (end -1.75 -0.85) (layer F.Fab) (width 0.1))
  (fp_line (start 1.75 -1.85) (end -1.95 -1.85) (layer F.SilkS) (width 0.12))
  (fp_line (start -1.75 1.85) (end 1.75 1.85) (layer F.SilkS) (width 0.12))
  (pad 1 smd rect (at -1.6 -1.2) (size 0.7 0.4) (layers F.Cu F.Paste F.Mask))
  (pad 2 smd rect (at -1.6 -0.4) (size 0.7 0.4) (layers F.Cu F.Paste F.Mask))
  (pad 3 smd rect (at -1.6 0.4) (size 0.7 0.4) (layers F.Cu F.Paste F.Mask))
  (pad 4 smd rect (at -1.6 1.2) (size 0.7 0.4) (layers F.Cu F.Paste F.Mask))
  (pad 5 smd rect (at 1.6 1.2) (size 0.7 0.4) (layers F.Cu F.Paste F.Mask))
  (pad 6 smd rect (at 1.6 0.4) (size 0.7 0.4) (layers F.Cu F.Paste F.Mask))
  (pad 7 smd rect (at 1.6 -0.4) (size 0.7 0.4) (layers F.Cu F.Paste F.Mask))
  (pad 8 smd rect (at 1.6 -1.2) (size 0.7 0.4) (layers F.Cu F.Paste F.Mask))
  (pad 9 smd custom (at 0 0) (size 1.9 1.4) (layers F.Cu F.Mask)
    (zone_connect 0)
    (options (clearance outline) (anchor rect))
    (primitives
      (gr_poly (pts
         (xy 0.95 -0.95) (xy 0.95 0.95) (xy -0.95 0.95) (xy -0.95 -0.7) (xy -0.7 -0.95)
) (width 0))
    ))
  (pad "" smd rect (at -0.525 0.525) (size 0.75 0.75) (layers F.Paste)
    (zone_connect 0))
  (pad "" smd rect (at 0.525 0.525) (size 0.75 0.75) (layers F.Paste)
    (zone_connect 0))
  (pad "" smd rect (at 0.525 -0.525) (size 0.75 0.75) (layers F.Paste)
    (zone_connect 0))
  (pad "" smd custom (at -0.525 -0.525) (size 0.3 0.3) (layers F.Paste)
    (zone_connect 0)
    (options (clearance outline) (anchor rect))
    (primitives
      (gr_poly (pts
         (xy 0.375 -0.375) (xy 0.375 0.375) (xy -0.375 0.375) (xy -0.375 -0.125) (xy -0.125 -0.375)
) (width 0))
    ))
  (model ${KICAD6_3DMODEL_DIR}/Converter_DCDC.3dshapes/Converter_DCDC_Cyntec_MUN12AD0x-SH.wrl
    (at (xyz 0 0 0))
    (scale (xyz 1 1 1))
    (rotate (xyz 0 0 0))
  )
)
