(module Converter_DCDC_XP_POWER-IHxxxxS_THT (layer F.Cu) (tedit 5C43336C)
  (descr "XP_POWER  IHxxxxS, SIP, (https://www.xppower.com/pdfs/SF_IH.pdf), generated with kicad-footprint-generator")
  (tags "XP_POWER  IHxxxxS SIP DCDC-Converter")
  (fp_text reference REF** (at -2.1 -3.49) (layer F.SilkS)
    (effects (font (size 1 1) (thickness 0.15)))
  )
  (fp_text value Converter_DCDC_XP_POWER-IHxxxxS_THT (at -2.1 17.91) (layer F.Fab)
    (effects (font (size 1 1) (thickness 0.15)))
  )
  (fp_line (start -5.56 -2.4) (end -5.56 16.82) (layer F.SilkS) (width 0.12))
  (fp_line (start -5.56 16.82) (end 1.36 16.82) (layer F.SilkS) (width 0.12))
  (fp_line (start 1.36 16.82) (end 1.36 -2.4) (layer F.SilkS) (width 0.12))
  (fp_line (start 1.36 -2.4) (end -5.56 -2.4) (layer F.SilkS) (width 0.12))
  (fp_line (start -4.61 -2.7) (end -5.86 -2.7) (layer F.SilkS) (width 0.12))
  (fp_line (start -5.86 -2.7) (end -5.86 -1.45) (layer F.SilkS) (width 0.12))
  (fp_line (start -4.61 -2.7) (end -5.86 -2.7) (layer F.Fab) (width 0.1))
  (fp_line (start -5.86 -2.7) (end -5.86 -1.45) (layer F.Fab) (width 0.1))
  (fp_line (start -5.45 -2.29) (end -5.45 16.71) (layer F.Fab) (width 0.1))
  (fp_line (start -5.45 16.71) (end 1.25 16.71) (layer F.Fab) (width 0.1))
  (fp_line (start 1.25 16.71) (end 1.25 -2.29) (layer F.Fab) (width 0.1))
  (fp_line (start 1.25 -2.29) (end -5.45 -2.29) (layer F.Fab) (width 0.1))
  (fp_line (start -5.95 -2.79) (end -5.95 17.21) (layer F.CrtYd) (width 0.05))
  (fp_line (start -5.95 17.21) (end 1.75 17.21) (layer F.CrtYd) (width 0.05))
  (fp_line (start 1.75 17.21) (end 1.75 -2.79) (layer F.CrtYd) (width 0.05))
  (fp_line (start 1.75 -2.79) (end -5.95 -2.79) (layer F.CrtYd) (width 0.05))
  (pad 1 thru_hole rect (at 0 0) (size 1.85 1.85) (drill 0.85) (layers *.Cu *.Mask))
  (pad 2 thru_hole circle (at 0 2.54) (size 1.85 1.85) (drill 0.85) (layers *.Cu *.Mask))
  (pad 4 thru_hole circle (at 0 7.62) (size 1.85 1.85) (drill 0.85) (layers *.Cu *.Mask))
  (pad 5 thru_hole circle (at 0 10.16) (size 1.85 1.85) (drill 0.85) (layers *.Cu *.Mask))
  (pad 6 thru_hole circle (at 0 12.7) (size 1.85 1.85) (drill 0.85) (layers *.Cu *.Mask))
  (fp_text user %R (at -2.1 1.5) (layer F.Fab)
    (effects (font (size 1 1) (thickness 0.15)))
  )
  (model ${KICAD6_3DMODEL_DIR}/Converter_DCDC.3dshapes/Converter_DCDC_XP_POWER-IHxxxxS_THT.wrl
    (at (xyz 0 0 0))
    (scale (xyz 1 1 1))
    (rotate (xyz 0 0 0))
  )
)