(module Converter_DCDC_RECOM_R-78HB-0.5L_THT (layer F.Cu) (tedit 5B741BB0)
  (descr "DCDC-Converter, RECOM, RECOM_R-78HB-0.5L, SIP-3, Horizontally Mounted, pitch 2.54mm, package size 11.5x8.5x17.5mm^3, https://www.recom-power.com/pdf/Innoline/R-78HBxx-0.5_L.pdf")
  (tags "dc-dc recom buck sip-3 pitch 2.54mm")
  (fp_text reference REF** (at 2.54 -20.06) (layer F.SilkS)
    (effects (font (size 1 1) (thickness 0.15)))
  )
  (fp_text value Converter_DCDC_RECOM_R-78HB-0.5L_THT (at 2.54 2.15) (layer F.Fab)
    (effects (font (size 1 1) (thickness 0.15)))
  )
  (fp_line (start -0.05 0) (end -0.05 -1.5) (layer F.Fab) (width 0.1))
  (fp_line (start 0.05 0) (end 0.05 -1.5) (layer F.Fab) (width 0.1))
  (fp_line (start 2.49 0) (end 2.49 -1.5) (layer F.Fab) (width 0.1))
  (fp_line (start 2.59 0) (end 2.59 -1.5) (layer F.Fab) (width 0.1))
  (fp_line (start 5.03 0) (end 5.03 -1.5) (layer F.Fab) (width 0.1))
  (fp_line (start 5.13 0) (end 5.13 -1.5) (layer F.Fab) (width 0.1))
  (fp_line (start -3.21 -19) (end 8.29 -19) (layer F.Fab) (width 0.1))
  (fp_line (start 8.29 -19) (end 8.29 -1.5) (layer F.Fab) (width 0.1))
  (fp_line (start 8.29 -1.5) (end -2.21 -1.5) (layer F.Fab) (width 0.1))
  (fp_line (start -2.21 -1.5) (end -3.21 -2.5) (layer F.Fab) (width 0.1))
  (fp_line (start -3.21 -2.5) (end -3.21 -19) (layer F.Fab) (width 0.1))
  (fp_line (start -3.27 -19.06) (end 8.35 -19.06) (layer F.SilkS) (width 0.12))
  (fp_line (start -3.27 -1.44) (end -1.07 -1.44) (layer F.SilkS) (width 0.12))
  (fp_line (start 1.07 -1.44) (end 1.471 -1.44) (layer F.SilkS) (width 0.12))
  (fp_line (start 3.61 -1.44) (end 4.01 -1.44) (layer F.SilkS) (width 0.12))
  (fp_line (start 6.15 -1.44) (end 8.35 -1.44) (layer F.SilkS) (width 0.12))
  (fp_line (start -3.27 -19.06) (end -3.27 -1.44) (layer F.SilkS) (width 0.12))
  (fp_line (start 8.35 -19.06) (end 8.35 -1.44) (layer F.SilkS) (width 0.12))
  (fp_line (start -1.05 -1.44) (end -1.05 1.091) (layer F.SilkS) (width 0.12))
  (fp_line (start -3.46 -19.25) (end -3.46 1.4) (layer F.CrtYd) (width 0.05))
  (fp_line (start -3.46 1.4) (end 8.54 1.4) (layer F.CrtYd) (width 0.05))
  (fp_line (start 8.54 1.4) (end 8.54 -19.25) (layer F.CrtYd) (width 0.05))
  (fp_line (start 8.54 -19.25) (end -3.46 -19.25) (layer F.CrtYd) (width 0.05))
  (pad 1 thru_hole rect (at 0 0) (size 1.5 2.3) (drill 1) (layers *.Cu *.Mask))
  (pad 2 thru_hole oval (at 2.54 0) (size 1.5 2.3) (drill 1) (layers *.Cu *.Mask))
  (pad 3 thru_hole oval (at 5.08 0) (size 1.5 2.3) (drill 1) (layers *.Cu *.Mask))
  (fp_text user %R (at 2.54 -10.25) (layer F.Fab)
    (effects (font (size 1 1) (thickness 0.15)))
  )
  (model ${KICAD6_3DMODEL_DIR}/Converter_DCDC.3dshapes/Converter_DCDC_RECOM_R-78HB-0.5L_THT.wrl
    (at (xyz 0 0 0))
    (scale (xyz 1 1 1))
    (rotate (xyz 0 0 0))
  )
)