(module Converter_DCDC_TRACO_TEN10-xxxx_Dual_THT (layer F.Cu) (tedit 59FF016C)
  (descr "DCDC-Converter, TRACO, TEN10-xxxx, single output, https://assets.tracopower.com/20171102100522/TEN10/documents/ten10-datasheet.pdf")
  (tags "DCDC-Converter TRACO TEN10-xxxx single output")
  (fp_text reference REF** (at -8.16 -16.22 180) (layer F.SilkS)
    (effects (font (size 1 1) (thickness 0.15)))
  )
  (fp_text value Converter_DCDC_TRACO_TEN10-xxxx_Dual_THT (at 2.63 37.41) (layer F.Fab)
    (effects (font (size 1 1) (thickness 0.15)))
  )
  (fp_text user %R (at 2.539981 9.65187) (layer F.Fab)
    (effects (font (size 1 1) (thickness 0.15)))
  )
  (fp_line (start -10.37 35.85) (end 15.49 35.85) (layer F.CrtYd) (width 0.05))
  (fp_line (start -10.37 -15.45) (end 15.49 -15.45) (layer F.CrtYd) (width 0.05))
  (fp_line (start -10.37 35.85) (end -10.37 -15.45) (layer F.CrtYd) (width 0.05))
  (fp_line (start 15.49 35.85) (end 15.49 -15.45) (layer F.CrtYd) (width 0.05))
  (fp_line (start 15.24 -15.2) (end -10.12 -15.2) (layer F.Fab) (width 0.1))
  (fp_line (start -10.12 1) (end -10.12 35.6) (layer F.Fab) (width 0.1))
  (fp_line (start -10.12 35.6) (end 15.24 35.6) (layer F.Fab) (width 0.1))
  (fp_line (start 15.24 35.6) (end 15.24 -15.2) (layer F.Fab) (width 0.1))
  (fp_line (start -10.24 35.72) (end -10.24 -15.32) (layer F.SilkS) (width 0.12))
  (fp_line (start 15.36 35.72) (end -10.24 35.72) (layer F.SilkS) (width 0.12))
  (fp_line (start 15.36 -15.32) (end 15.36 35.72) (layer F.SilkS) (width 0.12))
  (fp_line (start -10.24 -15.32) (end 15.36 -15.32) (layer F.SilkS) (width 0.12))
  (fp_line (start -10.12 -1) (end -10.12 -15.2) (layer F.Fab) (width 0.1))
  (fp_line (start -9.12 0) (end -10.12 -1) (layer F.Fab) (width 0.1))
  (fp_line (start -10.12 1) (end -9.12 0) (layer F.Fab) (width 0.1))
  (fp_line (start -10.62 -2) (end -10.62 2) (layer F.SilkS) (width 0.12))
  (pad 4 thru_hole oval (at 2.54 20.32 90) (size 6 2.5) (drill 1.5) (layers *.Cu *.Mask))
  (pad 1 thru_hole rect (at 0 0 90) (size 6 2.5) (drill 1.5) (layers *.Cu *.Mask))
  (pad 2 thru_hole oval (at 5.08 0 90) (size 6 2.5) (drill 1.5) (layers *.Cu *.Mask))
  (pad 3 thru_hole oval (at -7.62 20.32 90) (size 6 2.5) (drill 1.5) (layers *.Cu *.Mask))
  (pad 5 thru_hole oval (at 12.7 20.32 90) (size 6 2.5) (drill 1.5) (layers *.Cu *.Mask))
  (model ${KICAD6_3DMODEL_DIR}/Converter_DCDC.3dshapes/Converter_DCDC_TRACO_TEN10-xxxx_Dual_THT.wrl
    (at (xyz 0 0 0))
    (scale (xyz 1 1 1))
    (rotate (xyz 0 0 0))
  )
)
