(module Converter_DCDC_Murata_CRE1xxxxxx3C_THT (layer F.Cu) (tedit 5D250284)
  (descr "Isolated 1W single output DC/DC, http://power.murata.com/data/power/ncl/kdc_cre1.pdf")
  (tags "Isolated 1W single output DC/DC")
  (fp_text reference REF** (at 1 -3) (layer F.SilkS)
    (effects (font (size 1 1) (thickness 0.15)))
  )
  (fp_text value Converter_DCDC_Murata_CRE1xxxxxx3C_THT (at 2 11 180) (layer F.Fab)
    (effects (font (size 1 1) (thickness 0.15)))
  )
  (fp_line (start 5.09 -2.07) (end 5.09 9.7) (layer F.SilkS) (width 0.12))
  (fp_line (start 5.09 -2.07) (end -1.25 -2.07) (layer F.SilkS) (width 0.12))
  (fp_line (start -1.25 -2.07) (end -1.25 9.7) (layer F.SilkS) (width 0.12))
  (fp_line (start 5.09 9.7) (end -1.25 9.7) (layer F.SilkS) (width 0.12))
  (fp_line (start 4.97 -1.95) (end 4.97 9.58) (layer F.Fab) (width 0.1))
  (fp_line (start -0.13 -1.95) (end -1.13 -0.95) (layer F.Fab) (width 0.1))
  (fp_line (start -0.13 -1.95) (end 4.97 -1.95) (layer F.Fab) (width 0.1))
  (fp_line (start -1.13 -0.95) (end -1.13 9.58) (layer F.Fab) (width 0.1))
  (fp_line (start -1.13 9.58) (end 4.97 9.58) (layer F.Fab) (width 0.1))
  (fp_text user %R (at 3 4 90) (layer F.Fab)
    (effects (font (size 1 1) (thickness 0.15)))
  )
  (fp_line (start 5.22 -2.2) (end 5.22 9.83) (layer F.CrtYd) (width 0.05))
  (fp_line (start 5.22 -2.2) (end -1.38 -2.2) (layer F.CrtYd) (width 0.05))
  (fp_line (start -1.38 -2.2) (end -1.38 9.83) (layer F.CrtYd) (width 0.05))
  (fp_line (start 5.22 9.83) (end -1.38 9.83) (layer F.CrtYd) (width 0.05))
  (fp_line (start -0.25 -2.27) (end -1.45 -2.27) (layer F.SilkS) (width 0.12))
  (fp_line (start -1.45 -2.27) (end -1.45 -1.07) (layer F.SilkS) (width 0.12))
  (pad 4 thru_hole oval (at 0 7.62 270) (size 1.4 1.8) (drill 1) (layers *.Cu *.Mask))
  (pad 3 thru_hole oval (at 0 5.08 270) (size 1.4 1.8) (drill 1) (layers *.Cu *.Mask))
  (pad 2 thru_hole oval (at 0 2.54 270) (size 1.4 1.8) (drill 1) (layers *.Cu *.Mask))
  (pad 1 thru_hole rect (at 0 0 270) (size 1.4 1.8) (drill 1) (layers *.Cu *.Mask))
  (model ${KICAD6_3DMODEL_DIR}/Converter_DCDC.3dshapes/Converter_DCDC_Murata_CRE1xxxxxx3C_THT.wrl
    (at (xyz 0 0 0))
    (scale (xyz 1 1 1))
    (rotate (xyz 0 0 0))
  )
)
