(module Converter_DCDC_TRACO_TMR-1SM_SMD (layer F.Cu) (tedit 5A458967)
  (descr http://assets.tracopower.com/TMR1SM/documents/tmr1sm-datasheet.pdf)
  (tags "DCDC SMD TRACO TMR-1SM")
  (attr smd)
  (fp_text reference REF** (at -7 -11) (layer F.SilkS)
    (effects (font (size 1 1) (thickness 0.15)))
  )
  (fp_text value Converter_DCDC_TRACO_TMR-1SM_SMD (at 0 11) (layer F.Fab)
    (effects (font (size 1 1) (thickness 0.15)))
  )
  (fp_line (start -6.85 9.6) (end 6.85 9.6) (layer F.SilkS) (width 0.12))
  (fp_line (start -9.55 -9.8) (end 9.55 -9.8) (layer F.CrtYd) (width 0.05))
  (fp_text user %R (at 0 0 180) (layer F.Fab)
    (effects (font (size 1 1) (thickness 0.15)))
  )
  (fp_line (start 6.85 9.45) (end -6.85 9.45) (layer F.Fab) (width 0.1))
  (fp_line (start 6.85 -9.45) (end 6.85 9.45) (layer F.Fab) (width 0.1))
  (fp_line (start -6.85 -9.45) (end -6.85 9.45) (layer F.Fab) (width 0.1))
  (fp_line (start 6.85 -9.45) (end -6.85 -9.45) (layer F.Fab) (width 0.1))
  (fp_line (start -9.55 9.8) (end 9.55 9.8) (layer F.CrtYd) (width 0.05))
  (fp_line (start -9.55 -9.8) (end -9.55 9.8) (layer F.CrtYd) (width 0.05))
  (fp_line (start 9.55 -9.8) (end 9.55 9.8) (layer F.CrtYd) (width 0.05))
  (fp_line (start -9.3 -9.6) (end 6.85 -9.6) (layer F.SilkS) (width 0.12))
  (pad 1 smd rect (at -8.075 -7.62) (size 2.4 1.6) (layers F.Cu F.Paste F.Mask))
  (pad 2 smd rect (at -8.075 -5.08) (size 2.4 1.6) (layers F.Cu F.Paste F.Mask))
  (pad 6 smd rect (at -8.075 5.08) (size 2.4 1.6) (layers F.Cu F.Paste F.Mask))
  (pad 7 smd rect (at -8.075 7.62) (size 2.4 1.6) (layers F.Cu F.Paste F.Mask))
  (pad 8 smd rect (at 8.075 7.62) (size 2.4 1.6) (layers F.Cu F.Paste F.Mask))
  (pad 9 smd rect (at 8.075 5.08) (size 2.4 1.6) (layers F.Cu F.Paste F.Mask))
  (pad 14 smd rect (at 8.075 -7.62) (size 2.4 1.6) (layers F.Cu F.Paste F.Mask))
  (model ${KICAD6_3DMODEL_DIR}/Converter_DCDC.3dshapes/Converter_DCDC_TRACO_TMR-1SM_SMD.wrl
    (at (xyz 0 0 0))
    (scale (xyz 1 1 1))
    (rotate (xyz 0 0 0))
  )
)
