(module Converter_DCDC_Murata_MGJ3 (layer F.Cu) (tedit 5CD59A0B)
  (descr "Murata MGJ3, 5.2kVDC Isolated 3W Gate Drive, 15V/5V/5V Configurable, 22.61x23.11x14.19mm, https://power.murata.com/datasheet?/data/power/ncl/kdc_mgj3.pdf")
  (tags "DCDC SMD")
  (attr smd)
  (fp_text reference REF** (at 0 -12.5) (layer F.SilkS)
    (effects (font (size 1 1) (thickness 0.15)))
  )
  (fp_text value Converter_DCDC_Murata_MGJ3 (at 0 12.5) (layer F.Fab)
    (effects (font (size 1 1) (thickness 0.15)))
  )
  (fp_line (start -11.305 -10.555) (end -11.305 11.555) (layer F.Fab) (width 0.1))
  (fp_line (start -11.305 11.555) (end 11.305 11.555) (layer F.Fab) (width 0.1))
  (fp_line (start 11.305 -11.555) (end 11.305 11.555) (layer F.Fab) (width 0.1))
  (fp_line (start 11.305 -11.555) (end -10.305 -11.555) (layer F.Fab) (width 0.1))
  (fp_line (start 11.56 -11.81) (end -11.56 -11.81) (layer F.CrtYd) (width 0.05))
  (fp_line (start -11.56 -11.81) (end -11.56 11.81) (layer F.CrtYd) (width 0.05))
  (fp_line (start -11.56 11.81) (end 11.56 11.81) (layer F.CrtYd) (width 0.05))
  (fp_line (start 11.56 11.81) (end 11.56 -11.81) (layer F.CrtYd) (width 0.05))
  (fp_line (start 11.415 -11.665) (end -11.415 -11.665) (layer F.SilkS) (width 0.12))
  (fp_line (start 11.415 11.665) (end -11.415 11.665) (layer F.SilkS) (width 0.12))
  (fp_line (start -11.305 -10.555) (end -10.305 -11.555) (layer F.Fab) (width 0.1))
  (fp_line (start -11.415 -6.115) (end -11.415 11.665) (layer F.SilkS) (width 0.12))
  (fp_line (start 11.415 -11.665) (end 11.415 11.665) (layer F.SilkS) (width 0.12))
  (fp_text user %R (at 0 0) (layer F.Fab)
    (effects (font (size 1 1) (thickness 0.15)))
  )
  (fp_line (start -11.305 -2.73) (end 11.305 -2.73) (layer Dwgs.User) (width 0.12))
  (fp_line (start 11.305 -2.73) (end 11.305 5.27) (layer Dwgs.User) (width 0.12))
  (fp_line (start 11.305 5.27) (end 5.295 5.27) (layer Dwgs.User) (width 0.12))
  (fp_line (start 5.295 5.27) (end 5.295 7.62) (layer Dwgs.User) (width 0.12))
  (fp_line (start 5.295 7.62) (end -5.295 7.62) (layer Dwgs.User) (width 0.12))
  (fp_line (start -5.295 7.62) (end -5.295 5.27) (layer Dwgs.User) (width 0.12))
  (fp_line (start -5.295 5.27) (end -11.305 5.27) (layer Dwgs.User) (width 0.12))
  (fp_line (start -11.305 5.27) (end -11.305 -2.73) (layer Dwgs.User) (width 0.12))
  (fp_text user "Copper Keepout" (at 0 1.5) (layer Cmts.User)
    (effects (font (size 1 1) (thickness 0.15)))
  )
  (fp_line (start -11.305 5.27) (end -3.305 -2.73) (layer Dwgs.User) (width 0.12))
  (fp_line (start -9.305 5.27) (end -1.305 -2.73) (layer Dwgs.User) (width 0.12))
  (fp_line (start -7.305 5.27) (end 0.695 -2.73) (layer Dwgs.User) (width 0.12))
  (fp_line (start -5.305 5.27) (end 2.695 -2.73) (layer Dwgs.User) (width 0.12))
  (fp_line (start -11.305 -0.73) (end -9.305 -2.73) (layer Dwgs.User) (width 0.12))
  (fp_line (start -11.305 1.27) (end -7.305 -2.73) (layer Dwgs.User) (width 0.12))
  (fp_line (start -11.305 3.27) (end -5.305 -2.73) (layer Dwgs.User) (width 0.12))
  (fp_line (start 10.695 5.27) (end 11.305 4.66) (layer Dwgs.User) (width 0.12))
  (fp_line (start 8.695 5.27) (end 11.305 2.66) (layer Dwgs.User) (width 0.12))
  (fp_line (start 6.695 5.27) (end 11.305 0.66) (layer Dwgs.User) (width 0.12))
  (fp_line (start -5.295 7.255) (end 4.695 -2.73) (layer Dwgs.User) (width 0.12))
  (fp_line (start -3.65 7.62) (end 6.695 -2.73) (layer Dwgs.User) (width 0.12))
  (fp_line (start -1.65 7.62) (end 8.695 -2.73) (layer Dwgs.User) (width 0.12))
  (fp_line (start 0.342 7.62) (end 10.695 -2.73) (layer Dwgs.User) (width 0.12))
  (fp_line (start 2.34 7.62) (end 11.305 -1.34) (layer Dwgs.User) (width 0.12))
  (pad 1 smd rect (at -9.525 -8.89) (size 3.38 2.16) (layers F.Cu F.Paste F.Mask))
  (pad 3 smd rect (at -9.525 -3.81) (size 3.38 2.16) (layers F.Cu F.Paste F.Mask))
  (pad 7 smd rect (at -9.525 6.35) (size 3.38 2.16) (layers F.Cu F.Paste F.Mask))
  (pad 8 smd rect (at -9.525 8.89) (size 3.38 2.16) (layers F.Cu F.Paste F.Mask))
  (pad 9 smd rect (at 9.525 8.89) (size 3.38 2.16) (layers F.Cu F.Paste F.Mask))
  (pad 10 smd rect (at 9.525 6.35) (size 3.38 2.16) (layers F.Cu F.Paste F.Mask))
  (pad 16 smd rect (at 9.525 -8.89) (size 3.38 2.16) (layers F.Cu F.Paste F.Mask))
  (model ${KICAD6_3DMODEL_DIR}/Converter_DCDC.3dshapes/Converter_DCDC_Murata_MGJ3.wrl
    (at (xyz 0 0 0))
    (scale (xyz 1 1 1))
    (rotate (xyz 0 0 0))
  )
)
