(kicad_symbol_lib (version 20201005) (generator kicad_symbol_editor)
  (symbol "Amplifier_Buffer:BUF602xD" (pin_names (offset 0.127)) (in_bom yes) (on_board yes)
    (property "Reference" "U" (id 0) (at 6.35 2.54 0)
      (effects (font (size 1.27 1.27)))
    )
    (property "Value" "BUF602xD" (id 1) (at 7.62 -2.54 0)
      (effects (font (size 1.27 1.27)))
    )
    (property "Footprint" "Package_SO:SOIC-8_3.9x4.9mm_P1.27mm" (id 2) (at 0 -7.62 0)
      (effects (font (size 1.27 1.27)) hide)
    )
    (property "Datasheet" "http://www.ti.com/lit/ds/symlink/buf602.pdf" (id 3) (at 0 0 0)
      (effects (font (size 1.27 1.27)) hide)
    )
    (property "ki_keywords" "buffer amplifier" (id 4) (at 0 0 0)
      (effects (font (size 1.27 1.27)) hide)
    )
    (property "ki_description" "High-Speed, 1000 MHz, Closed-Loop Buffer, SOIC-8" (id 5) (at 0 0 0)
      (effects (font (size 1.27 1.27)) hide)
    )
    (property "ki_fp_filters" "SOIC*3.9x4.9mm*P1.27mm*" (id 6) (at 0 0 0)
      (effects (font (size 1.27 1.27)) hide)
    )
    (symbol "BUF602xD_0_1"
      (polyline
        (pts
          (xy 5.08 0)
          (xy -5.08 5.08)
          (xy -5.08 -5.08)
          (xy 5.08 0)
        )
        (stroke (width 0.254)) (fill (type background))
      )
    )
    (symbol "BUF602xD_1_1"
      (pin power_in line (at -2.54 7.62 270) (length 3.81)
        (name "V+" (effects (font (size 1.27 1.27))))
        (number "1" (effects (font (size 1.27 1.27))))
      )
      (pin no_connect line (at -5.08 5.08 0) (length 2.54) hide
        (name "NC" (effects (font (size 1.27 1.27))))
        (number "2" (effects (font (size 1.27 1.27))))
      )
      (pin no_connect line (at -5.08 2.54 0) (length 2.54) hide
        (name "NC" (effects (font (size 1.27 1.27))))
        (number "3" (effects (font (size 1.27 1.27))))
      )
      (pin input line (at -7.62 0 0) (length 2.54)
        (name "IN" (effects (font (size 1.27 1.27))))
        (number "4" (effects (font (size 1.27 1.27))))
      )
      (pin power_in line (at -2.54 -7.62 90) (length 3.81)
        (name "V-" (effects (font (size 1.27 1.27))))
        (number "5" (effects (font (size 1.27 1.27))))
      )
      (pin output line (at 0 -7.62 90) (length 5.08)
        (name "VREF" (effects (font (size 1.27 1.27))))
        (number "6" (effects (font (size 1.27 1.27))))
      )
      (pin no_connect line (at -5.08 -2.54 0) (length 2.54) hide
        (name "NC" (effects (font (size 1.27 1.27))))
        (number "7" (effects (font (size 1.27 1.27))))
      )
      (pin output line (at 7.62 0 180) (length 2.54)
        (name "~" (effects (font (size 1.27 1.27))))
        (number "8" (effects (font (size 1.27 1.27))))
      )
    )
  )
  (symbol "Amplifier_Buffer:BUF602xDBV" (pin_names (offset 0.127)) (in_bom yes) (on_board yes)
    (property "Reference" "U" (id 0) (at 6.35 2.54 0)
      (effects (font (size 1.27 1.27)))
    )
    (property "Value" "BUF602xDBV" (id 1) (at 7.62 -2.54 0)
      (effects (font (size 1.27 1.27)))
    )
    (property "Footprint" "Package_TO_SOT_SMD:SOT-23-5" (id 2) (at 0 -7.62 0)
      (effects (font (size 1.27 1.27)) hide)
    )
    (property "Datasheet" "http://www.ti.com/lit/ds/symlink/buf602.pdf" (id 3) (at 0 0 0)
      (effects (font (size 1.27 1.27)) hide)
    )
    (property "ki_keywords" "buffer amplifier" (id 4) (at 0 0 0)
      (effects (font (size 1.27 1.27)) hide)
    )
    (property "ki_description" "High-Speed, 1000 MHz, Closed-Loop Buffer, SOT23-5" (id 5) (at 0 0 0)
      (effects (font (size 1.27 1.27)) hide)
    )
    (property "ki_fp_filters" "SOT?23*" (id 6) (at 0 0 0)
      (effects (font (size 1.27 1.27)) hide)
    )
    (symbol "BUF602xDBV_0_1"
      (polyline
        (pts
          (xy 5.08 0)
          (xy -5.08 5.08)
          (xy -5.08 -5.08)
          (xy 5.08 0)
        )
        (stroke (width 0.254)) (fill (type background))
      )
    )
    (symbol "BUF602xDBV_1_1"
      (pin output line (at 7.62 0 180) (length 2.54)
        (name "~" (effects (font (size 1.27 1.27))))
        (number "1" (effects (font (size 1.27 1.27))))
      )
      (pin power_in line (at -2.54 -7.62 90) (length 3.81)
        (name "V-" (effects (font (size 1.27 1.27))))
        (number "2" (effects (font (size 1.27 1.27))))
      )
      (pin output line (at 0 -7.62 90) (length 5.08)
        (name "VREF" (effects (font (size 1.27 1.27))))
        (number "3" (effects (font (size 1.27 1.27))))
      )
      (pin input line (at -7.62 0 0) (length 2.54)
        (name "IN" (effects (font (size 1.27 1.27))))
        (number "4" (effects (font (size 1.27 1.27))))
      )
      (pin power_in line (at -2.54 7.62 270) (length 3.81)
        (name "V+" (effects (font (size 1.27 1.27))))
        (number "5" (effects (font (size 1.27 1.27))))
      )
    )
  )
  (symbol "Amplifier_Buffer:EL2001CN" (pin_names (offset 0.127)) (in_bom yes) (on_board yes)
    (property "Reference" "U" (id 0) (at 7.62 5.08 0)
      (effects (font (size 1.27 1.27)))
    )
    (property "Value" "EL2001CN" (id 1) (at 7.62 2.54 0)
      (effects (font (size 1.27 1.27)))
    )
    (property "Footprint" "Package_DIP:DIP-8_W7.62mm" (id 2) (at 0 -8.89 0)
      (effects (font (size 1.27 1.27)) hide)
    )
    (property "Datasheet" "http://www.datasheetlib.com/datasheet/677973/el2001_intersil.html#datasheet" (id 3) (at 0 0 0)
      (effects (font (size 1.27 1.27)) hide)
    )
    (property "ki_keywords" "Monolithic high slew rate, buffer amplifier" (id 4) (at 0 0 0)
      (effects (font (size 1.27 1.27)) hide)
    )
    (property "ki_description" "Monolithic high slew rate, buffer amplifier, DIP-8" (id 5) (at 0 0 0)
      (effects (font (size 1.27 1.27)) hide)
    )
    (property "ki_fp_filters" "DIP*W7.62mm*" (id 6) (at 0 0 0)
      (effects (font (size 1.27 1.27)) hide)
    )
    (symbol "EL2001CN_0_1"
      (polyline
        (pts
          (xy 5.08 0)
          (xy -5.08 5.08)
          (xy -5.08 -5.08)
          (xy 5.08 0)
        )
        (stroke (width 0.254)) (fill (type background))
      )
    )
    (symbol "EL2001CN_1_1"
      (pin power_in line (at -2.54 7.62 270) (length 3.81)
        (name "V+" (effects (font (size 1.27 1.27))))
        (number "1" (effects (font (size 1.27 1.27))))
      )
      (pin input line (at -7.62 0 0) (length 2.54)
        (name "IN" (effects (font (size 1.27 1.27))))
        (number "2" (effects (font (size 1.27 1.27))))
      )
      (pin no_connect line (at -5.08 2.54 0) (length 2.54) hide
        (name "NC" (effects (font (size 1.27 1.27))))
        (number "3" (effects (font (size 1.27 1.27))))
      )
      (pin power_in line (at -2.54 -7.62 90) (length 3.81)
        (name "V-" (effects (font (size 1.27 1.27))))
        (number "4" (effects (font (size 1.27 1.27))))
      )
      (pin no_connect line (at -5.08 -2.54 0) (length 2.54) hide
        (name "NC" (effects (font (size 1.27 1.27))))
        (number "5" (effects (font (size 1.27 1.27))))
      )
      (pin no_connect line (at -5.08 -5.08 0) (length 2.54) hide
        (name "NC" (effects (font (size 1.27 1.27))))
        (number "6" (effects (font (size 1.27 1.27))))
      )
      (pin output line (at 7.62 0 180) (length 2.54)
        (name "~" (effects (font (size 1.27 1.27))))
        (number "7" (effects (font (size 1.27 1.27))))
      )
      (pin no_connect line (at -5.08 5.08 0) (length 2.54) hide
        (name "NC" (effects (font (size 1.27 1.27))))
        (number "8" (effects (font (size 1.27 1.27))))
      )
    )
  )
  (symbol "Amplifier_Buffer:LH0002H" (pin_names (offset 0.127)) (in_bom yes) (on_board yes)
    (property "Reference" "U" (id 0) (at 6.35 2.54 0)
      (effects (font (size 1.27 1.27)))
    )
    (property "Value" "LH0002H" (id 1) (at 7.62 -2.54 0)
      (effects (font (size 1.27 1.27)))
    )
    (property "Footprint" "Package_TO_SOT_THT:TO-5-8" (id 2) (at 0 0 0)
      (effects (font (size 1.27 1.27)) hide)
    )
    (property "Datasheet" "http://www.calogic.net/pdf/LH0002_Datasheet_Rev_A.pdf" (id 3) (at 0 0 0)
      (effects (font (size 1.27 1.27)) hide)
    )
    (property "ki_keywords" "Buffer" (id 4) (at 0 0 0)
      (effects (font (size 1.27 1.27)) hide)
    )
    (property "ki_description" "Wide-Band, High Current, Unity Gain Buffer Amplifier, TO-5-8" (id 5) (at 0 0 0)
      (effects (font (size 1.27 1.27)) hide)
    )
    (property "ki_fp_filters" "TO?5*" (id 6) (at 0 0 0)
      (effects (font (size 1.27 1.27)) hide)
    )
    (symbol "LH0002H_0_1"
      (polyline
        (pts
          (xy 5.08 0)
          (xy -5.08 5.08)
          (xy -5.08 -5.08)
          (xy 5.08 0)
        )
        (stroke (width 0.254)) (fill (type background))
      )
    )
    (symbol "LH0002H_1_1"
      (pin power_in line (at -2.54 7.62 270) (length 3.81)
        (name "V1+" (effects (font (size 0.762 0.762))))
        (number "1" (effects (font (size 1.27 1.27))))
      )
      (pin power_in line (at 0 7.62 270) (length 5.08)
        (name "V2+" (effects (font (size 0.508 0.508))))
        (number "2" (effects (font (size 1.27 1.27))))
      )
      (pin passive line (at 2.54 7.62 270) (length 6.35)
        (name "E3" (effects (font (size 0.508 0.508))))
        (number "3" (effects (font (size 1.27 1.27))))
      )
      (pin output line (at 7.62 0 180) (length 2.54)
        (name "~" (effects (font (size 1.27 1.27))))
        (number "4" (effects (font (size 1.27 1.27))))
      )
      (pin passive line (at 2.54 -7.62 90) (length 6.35)
        (name "E4" (effects (font (size 0.508 0.508))))
        (number "5" (effects (font (size 1.27 1.27))))
      )
      (pin power_in line (at 0 -7.62 90) (length 5.08)
        (name "V2-" (effects (font (size 0.508 0.508))))
        (number "6" (effects (font (size 1.27 1.27))))
      )
      (pin power_in line (at -2.54 -7.62 90) (length 3.81)
        (name "V1-" (effects (font (size 0.762 0.762))))
        (number "7" (effects (font (size 1.27 1.27))))
      )
      (pin input line (at -7.62 0 0) (length 2.54)
        (name "IN" (effects (font (size 1.27 1.27))))
        (number "8" (effects (font (size 1.27 1.27))))
      )
    )
  )
  (symbol "Amplifier_Buffer:LM6321H" (pin_names (offset 0.127)) (in_bom yes) (on_board yes)
    (property "Reference" "U" (id 0) (at 5.08 3.81 0)
      (effects (font (size 1.27 1.27)))
    )
    (property "Value" "LM6321H" (id 1) (at 5.08 -3.81 0)
      (effects (font (size 1.27 1.27)))
    )
    (property "Footprint" "Package_TO_SOT_THT:TO-5-8" (id 2) (at 0 0 0)
      (effects (font (size 1.27 1.27)) hide)
    )
    (property "Datasheet" "http://www.electronica60norte.com/mwfls/pdf/LM6221.pdf" (id 3) (at 0 0 0)
      (effects (font (size 1.27 1.27)) hide)
    )
    (property "ki_keywords" "single buffer" (id 4) (at 0 0 0)
      (effects (font (size 1.27 1.27)) hide)
    )
    (property "ki_description" "High Speed Buffer, TO-5-8" (id 5) (at 0 0 0)
      (effects (font (size 1.27 1.27)) hide)
    )
    (property "ki_fp_filters" "TO?5*" (id 6) (at 0 0 0)
      (effects (font (size 1.27 1.27)) hide)
    )
    (symbol "LM6321H_0_1"
      (polyline
        (pts
          (xy 5.08 0)
          (xy -5.08 5.08)
          (xy -5.08 -5.08)
          (xy 5.08 0)
        )
        (stroke (width 0.254)) (fill (type background))
      )
    )
    (symbol "LM6321H_1_1"
      (pin no_connect line (at -2.54 2.54 270) (length 2.54) hide
        (name "NC" (effects (font (size 1.27 1.27))))
        (number "1" (effects (font (size 1.27 1.27))))
      )
      (pin power_in line (at -2.54 7.62 270) (length 3.81)
        (name "V+" (effects (font (size 1.27 1.27))))
        (number "2" (effects (font (size 1.27 1.27))))
      )
      (pin no_connect line (at 0 2.54 270) (length 2.54) hide
        (name "NC" (effects (font (size 1.27 1.27))))
        (number "3" (effects (font (size 1.27 1.27))))
      )
      (pin output line (at 7.62 0 180) (length 2.54)
        (name "~" (effects (font (size 1.27 1.27))))
        (number "4" (effects (font (size 1.27 1.27))))
      )
      (pin no_connect line (at 0 -2.54 90) (length 2.54) hide
        (name "NC" (effects (font (size 1.27 1.27))))
        (number "5" (effects (font (size 1.27 1.27))))
      )
      (pin power_in line (at -2.54 -7.62 90) (length 3.81)
        (name "V-" (effects (font (size 1.27 1.27))))
        (number "6" (effects (font (size 1.27 1.27))))
      )
      (pin no_connect line (at -2.54 -2.54 90) (length 2.54) hide
        (name "NC" (effects (font (size 1.27 1.27))))
        (number "7" (effects (font (size 1.27 1.27))))
      )
      (pin input line (at -7.62 0 0) (length 2.54)
        (name "IN" (effects (font (size 1.27 1.27))))
        (number "8" (effects (font (size 1.27 1.27))))
      )
    )
  )
  (symbol "Amplifier_Buffer:LM6321M" (pin_names (offset 0.127)) (in_bom yes) (on_board yes)
    (property "Reference" "U" (id 0) (at 5.08 3.81 0)
      (effects (font (size 1.27 1.27)))
    )
    (property "Value" "LM6321M" (id 1) (at 5.08 -3.81 0)
      (effects (font (size 1.27 1.27)))
    )
    (property "Footprint" "Package_SO:SOIC-14_3.9x8.7mm_P1.27mm" (id 2) (at 0 0 0)
      (effects (font (size 1.27 1.27)) hide)
    )
    (property "Datasheet" "http://www.electronica60norte.com/mwfls/pdf/LM6221.pdf" (id 3) (at 0 0 0)
      (effects (font (size 1.27 1.27)) hide)
    )
    (property "ki_keywords" "single buffer" (id 4) (at 0 0 0)
      (effects (font (size 1.27 1.27)) hide)
    )
    (property "ki_description" "High Speed Buffer, SOIC-14" (id 5) (at 0 0 0)
      (effects (font (size 1.27 1.27)) hide)
    )
    (property "ki_fp_filters" "SOIC*3.9x8.7mm*P1.27mm*" (id 6) (at 0 0 0)
      (effects (font (size 1.27 1.27)) hide)
    )
    (symbol "LM6321M_0_1"
      (polyline
        (pts
          (xy 5.08 0)
          (xy -5.08 5.08)
          (xy -5.08 -5.08)
          (xy 5.08 0)
        )
        (stroke (width 0.254)) (fill (type background))
      )
    )
    (symbol "LM6321M_1_1"
      (pin passive line (at -2.54 -7.62 90) (length 3.81) hide
        (name "V-" (effects (font (size 1.27 1.27))))
        (number "1" (effects (font (size 1.27 1.27))))
      )
      (pin no_connect line (at 0 -2.54 90) (length 2.54) hide
        (name "NC" (effects (font (size 1.27 1.27))))
        (number "10" (effects (font (size 1.27 1.27))))
      )
      (pin power_in line (at -2.54 7.62 270) (length 3.81)
        (name "V+" (effects (font (size 1.27 1.27))))
        (number "11" (effects (font (size 1.27 1.27))))
      )
      (pin output line (at 7.62 0 180) (length 2.54)
        (name "~" (effects (font (size 1.27 1.27))))
        (number "12" (effects (font (size 1.27 1.27))))
      )
      (pin passive line (at -2.54 -7.62 90) (length 3.81) hide
        (name "V-" (effects (font (size 1.27 1.27))))
        (number "13" (effects (font (size 1.27 1.27))))
      )
      (pin passive line (at -2.54 -7.62 90) (length 3.81) hide
        (name "V-" (effects (font (size 1.27 1.27))))
        (number "14" (effects (font (size 1.27 1.27))))
      )
      (pin passive line (at -2.54 -7.62 90) (length 3.81) hide
        (name "V-" (effects (font (size 1.27 1.27))))
        (number "2" (effects (font (size 1.27 1.27))))
      )
      (pin power_in line (at -2.54 -7.62 90) (length 3.81)
        (name "V-" (effects (font (size 1.27 1.27))))
        (number "3" (effects (font (size 1.27 1.27))))
      )
      (pin no_connect line (at 0 2.54 270) (length 2.54) hide
        (name "NC" (effects (font (size 1.27 1.27))))
        (number "4" (effects (font (size 1.27 1.27))))
      )
      (pin input line (at -7.62 0 0) (length 2.54)
        (name "IN" (effects (font (size 1.27 1.27))))
        (number "5" (effects (font (size 1.27 1.27))))
      )
      (pin passive line (at -2.54 -7.62 90) (length 3.81) hide
        (name "V-" (effects (font (size 1.27 1.27))))
        (number "6" (effects (font (size 1.27 1.27))))
      )
      (pin passive line (at -2.54 -7.62 90) (length 3.81) hide
        (name "V-" (effects (font (size 1.27 1.27))))
        (number "7" (effects (font (size 1.27 1.27))))
      )
      (pin passive line (at -2.54 -7.62 90) (length 3.81) hide
        (name "V-" (effects (font (size 1.27 1.27))))
        (number "8" (effects (font (size 1.27 1.27))))
      )
      (pin passive line (at -2.54 -7.62 90) (length 3.81) hide
        (name "V-" (effects (font (size 1.27 1.27))))
        (number "9" (effects (font (size 1.27 1.27))))
      )
    )
  )
  (symbol "Amplifier_Buffer:LM6321N" (pin_names (offset 0.127)) (in_bom yes) (on_board yes)
    (property "Reference" "U" (id 0) (at 5.08 3.81 0)
      (effects (font (size 1.27 1.27)))
    )
    (property "Value" "LM6321N" (id 1) (at 5.08 -3.81 0)
      (effects (font (size 1.27 1.27)))
    )
    (property "Footprint" "Package_DIP:DIP-8_W7.62mm" (id 2) (at 5.08 -10.16 0)
      (effects (font (size 1.27 1.27)) hide)
    )
    (property "Datasheet" "http://www.electronica60norte.com/mwfls/pdf/LM6221.pdf" (id 3) (at 0 0 0)
      (effects (font (size 1.27 1.27)) hide)
    )
    (property "ki_keywords" "single buffer" (id 4) (at 0 0 0)
      (effects (font (size 1.27 1.27)) hide)
    )
    (property "ki_description" "High Speed Buffer, DIP-8" (id 5) (at 0 0 0)
      (effects (font (size 1.27 1.27)) hide)
    )
    (property "ki_fp_filters" "DIP*W7.62mm*" (id 6) (at 0 0 0)
      (effects (font (size 1.27 1.27)) hide)
    )
    (symbol "LM6321N_0_1"
      (polyline
        (pts
          (xy 5.08 0)
          (xy -5.08 5.08)
          (xy -5.08 -5.08)
          (xy 5.08 0)
        )
        (stroke (width 0.254)) (fill (type background))
      )
    )
    (symbol "LM6321N_1_1"
      (pin no_connect line (at -2.54 -2.54 90) (length 2.54) hide
        (name "NC" (effects (font (size 1.27 1.27))))
        (number "1" (effects (font (size 1.27 1.27))))
      )
      (pin power_in line (at -2.54 7.62 270) (length 3.81)
        (name "V+" (effects (font (size 1.27 1.27))))
        (number "2" (effects (font (size 1.27 1.27))))
      )
      (pin no_connect line (at 0 -2.54 90) (length 2.54) hide
        (name "NC" (effects (font (size 1.27 1.27))))
        (number "3" (effects (font (size 1.27 1.27))))
      )
      (pin output line (at 7.62 0 180) (length 2.54)
        (name "~" (effects (font (size 1.27 1.27))))
        (number "4" (effects (font (size 1.27 1.27))))
      )
      (pin no_connect line (at -2.54 2.54 270) (length 2.54) hide
        (name "NC" (effects (font (size 1.27 1.27))))
        (number "5" (effects (font (size 1.27 1.27))))
      )
      (pin power_in line (at -2.54 -7.62 90) (length 3.81)
        (name "V-" (effects (font (size 1.27 1.27))))
        (number "6" (effects (font (size 1.27 1.27))))
      )
      (pin no_connect line (at 0 2.54 270) (length 2.54) hide
        (name "NC" (effects (font (size 1.27 1.27))))
        (number "7" (effects (font (size 1.27 1.27))))
      )
      (pin input line (at -7.62 0 0) (length 2.54)
        (name "IN" (effects (font (size 1.27 1.27))))
        (number "8" (effects (font (size 1.27 1.27))))
      )
    )
  )
)
