(kicad_symbol_lib (version 20211014) (generator kicad_symbol_editor)
  (symbol "BSPD_Schematic_lib:74VHC9151FT" (pin_names (offset 1.016)) (in_bom yes) (on_board yes)
    (property "Reference" "U" (id 0) (at 7.62 -31.75 0)
      (effects (font (size 1.27 1.27)))
    )
    (property "Value" "74VHC9151FT" (id 1) (at 7.62 2.54 0)
      (effects (font (size 1.27 1.27)))
    )
    (property "Footprint" "Package_SO:TSSOP-20_4.4x6.5mm_P0.65mm" (id 2) (at 6.35 7.62 0)
      (effects (font (size 1.27 1.27)) hide)
    )
    (property "Datasheet" "" (id 3) (at 0 -10.16 0)
      (effects (font (size 1.27 1.27)) hide)
    )
    (symbol "74VHC9151FT_0_1"
      (rectangle (start 0 1.27) (end 15.24 -24.13)
        (stroke (width 0) (type default) (color 0 0 0 0))
        (fill (type background))
      )
    )
    (symbol "74VHC9151FT_1_1"
      (pin input line (at -2.54 0 0) (length 2.54)
        (name "A1" (effects (font (size 1.27 1.27))))
        (number "1" (effects (font (size 1.27 1.27))))
      )
      (pin input line (at -2.54 -22.86 0) (length 2.54)
        (name "GND" (effects (font (size 1.27 1.27))))
        (number "10" (effects (font (size 1.27 1.27))))
      )
      (pin input line (at 17.78 -22.86 180) (length 2.54)
        (name "Y9" (effects (font (size 1.27 1.27))))
        (number "11" (effects (font (size 1.27 1.27))))
      )
      (pin input line (at 17.78 -20.32 180) (length 2.54)
        (name "Y8" (effects (font (size 1.27 1.27))))
        (number "12" (effects (font (size 1.27 1.27))))
      )
      (pin input line (at 17.78 -17.78 180) (length 2.54)
        (name "Y7" (effects (font (size 1.27 1.27))))
        (number "13" (effects (font (size 1.27 1.27))))
      )
      (pin input line (at 17.78 -15.24 180) (length 2.54)
        (name "Y6" (effects (font (size 1.27 1.27))))
        (number "14" (effects (font (size 1.27 1.27))))
      )
      (pin input line (at 17.78 -12.7 180) (length 2.54)
        (name "Y5" (effects (font (size 1.27 1.27))))
        (number "15" (effects (font (size 1.27 1.27))))
      )
      (pin input line (at 17.78 -10.16 180) (length 2.54)
        (name "Y4" (effects (font (size 1.27 1.27))))
        (number "16" (effects (font (size 1.27 1.27))))
      )
      (pin input line (at 17.78 -7.62 180) (length 2.54)
        (name "Y3" (effects (font (size 1.27 1.27))))
        (number "17" (effects (font (size 1.27 1.27))))
      )
      (pin input line (at 17.78 -5.08 180) (length 2.54)
        (name "Y2" (effects (font (size 1.27 1.27))))
        (number "18" (effects (font (size 1.27 1.27))))
      )
      (pin input line (at 17.78 -2.54 180) (length 2.54)
        (name "Y1" (effects (font (size 1.27 1.27))))
        (number "19" (effects (font (size 1.27 1.27))))
      )
      (pin input line (at -2.54 -2.54 0) (length 2.54)
        (name "A2" (effects (font (size 1.27 1.27))))
        (number "2" (effects (font (size 1.27 1.27))))
      )
      (pin input line (at 17.78 0 180) (length 2.54)
        (name "VCC" (effects (font (size 1.27 1.27))))
        (number "20" (effects (font (size 1.27 1.27))))
      )
      (pin input line (at -2.54 -5.08 0) (length 2.54)
        (name "A3" (effects (font (size 1.27 1.27))))
        (number "3" (effects (font (size 1.27 1.27))))
      )
      (pin input line (at -2.54 -7.62 0) (length 2.54)
        (name "A4" (effects (font (size 1.27 1.27))))
        (number "4" (effects (font (size 1.27 1.27))))
      )
      (pin input line (at -2.54 -10.16 0) (length 2.54)
        (name "A5" (effects (font (size 1.27 1.27))))
        (number "5" (effects (font (size 1.27 1.27))))
      )
      (pin input line (at -2.54 -12.7 0) (length 2.54)
        (name "A6" (effects (font (size 1.27 1.27))))
        (number "6" (effects (font (size 1.27 1.27))))
      )
      (pin input line (at -2.54 -15.24 0) (length 2.54)
        (name "A7" (effects (font (size 1.27 1.27))))
        (number "7" (effects (font (size 1.27 1.27))))
      )
      (pin input line (at -2.54 -17.78 0) (length 2.54)
        (name "A8" (effects (font (size 1.27 1.27))))
        (number "8" (effects (font (size 1.27 1.27))))
      )
      (pin input line (at -2.54 -20.32 0) (length 2.54)
        (name "A9" (effects (font (size 1.27 1.27))))
        (number "9" (effects (font (size 1.27 1.27))))
      )
    )
  )
  (symbol "BSPD_Schematic_lib:LP2992AIM5X-3.3" (pin_names (offset 1.016)) (in_bom yes) (on_board yes)
    (property "Reference" "U" (id 0) (at -6.35 -13.97 0)
      (effects (font (size 1.27 1.27)))
    )
    (property "Value" "LP2992AIM5X-3.3" (id 1) (at -6.35 -3.81 0)
      (effects (font (size 1.27 1.27)))
    )
    (property "Footprint" "Package_TO_SOT_SMD:SOT-23-5" (id 2) (at 0 0 0)
      (effects (font (size 1.27 1.27)) hide)
    )
    (property "Datasheet" "" (id 3) (at 0 0 0)
      (effects (font (size 1.27 1.27)) hide)
    )
    (symbol "LP2992AIM5X-3.3_0_1"
      (rectangle (start -11.43 -5.08) (end 0 -12.7)
        (stroke (width 0) (type default) (color 0 0 0 0))
        (fill (type background))
      )
    )
    (symbol "LP2992AIM5X-3.3_1_1"
      (pin input line (at -13.97 -6.35 0) (length 2.54)
        (name "Vin" (effects (font (size 1.27 1.27))))
        (number "1" (effects (font (size 1.27 1.27))))
      )
      (pin input line (at -13.97 -11.43 0) (length 2.54)
        (name "GND" (effects (font (size 1.27 1.27))))
        (number "2" (effects (font (size 1.27 1.27))))
      )
      (pin input line (at -13.97 -8.89 0) (length 2.54)
        (name "EN" (effects (font (size 1.27 1.27))))
        (number "3" (effects (font (size 1.27 1.27))))
      )
      (pin input line (at 2.54 -10.16 180) (length 2.54)
        (name "BPS" (effects (font (size 1.27 1.27))))
        (number "4" (effects (font (size 1.27 1.27))))
      )
      (pin input line (at 2.54 -7.62 180) (length 2.54)
        (name "Vout" (effects (font (size 1.27 1.27))))
        (number "5" (effects (font (size 1.27 1.27))))
      )
    )
  )
  (symbol "BSPD_Schematic_lib:SN74LVC1G06DBV" (pin_names (offset 1.016)) (in_bom yes) (on_board yes)
    (property "Reference" "U" (id 0) (at 3.81 -6.35 0)
      (effects (font (size 1.27 1.27)))
    )
    (property "Value" "SN74LVC1G06DBV" (id 1) (at 8.89 6.35 0)
      (effects (font (size 1.27 1.27)))
    )
    (property "Footprint" "Package_TO_SOT_SMD:SOT-23-5" (id 2) (at 3.81 -6.35 0)
      (effects (font (size 1.27 1.27)) hide)
    )
    (property "Datasheet" "" (id 3) (at 3.81 -6.35 0)
      (effects (font (size 1.27 1.27)) hide)
    )
    (symbol "SN74LVC1G06DBV_0_1"
      (polyline
        (pts
          (xy -5.08 6.35)
          (xy -5.08 -6.35)
          (xy 6.35 0)
          (xy -5.08 6.35)
        )
        (stroke (width 0) (type default) (color 0 0 0 0))
        (fill (type background))
      )
      (circle (center 7.62 0) (radius 1.27)         (stroke (width 0) (type default) (color 0 0 0 0))
        (fill (type background))
      )
    )
    (symbol "SN74LVC1G06DBV_1_1"
      (pin input line (at -7.62 0 0) (length 2.54)
        (name "A" (effects (font (size 1.27 1.27))))
        (number "2" (effects (font (size 1.27 1.27))))
      )
      (pin input line (at 0 -6.35 90) (length 2.54)
        (name "GND" (effects (font (size 0.6096 0.6096))))
        (number "3" (effects (font (size 0.6096 0.6096))))
      )
      (pin input line (at 11.43 0 180) (length 2.54)
        (name "Y" (effects (font (size 1.27 1.27))))
        (number "4" (effects (font (size 1.27 1.27))))
      )
      (pin input line (at 0 6.35 270) (length 2.54)
        (name "Vcc" (effects (font (size 0.6096 0.6096))))
        (number "5" (effects (font (size 0.6096 0.6096))))
      )
    )
  )
  (symbol "BSPD_Schematic_lib:SN74LVC1G08" (pin_names (offset 1.016)) (in_bom yes) (on_board yes)
    (property "Reference" "U" (id 0) (at 2.54 -11.43 0)
      (effects (font (size 1.27 1.27)))
    )
    (property "Value" "SN74LVC1G08" (id 1) (at 7.62 1.27 0)
      (effects (font (size 1.27 1.27)))
    )
    (property "Footprint" "Package_TO_SOT_SMD:SOT-23-5" (id 2) (at 0 7.62 0)
      (effects (font (size 1.27 1.27)) hide)
    )
    (property "Datasheet" "" (id 3) (at 3.81 -1.27 0)
      (effects (font (size 1.27 1.27)) hide)
    )
    (symbol "SN74LVC1G08_0_1"
      (rectangle (start -5.08 -10.16) (end -5.08 0)
        (stroke (width 0) (type default) (color 0 0 0 0))
        (fill (type none))
      )
      (rectangle (start -5.08 0) (end 2.54 -10.16)
        (stroke (width -0.9906) (type default) (color 0 0 0 0))
        (fill (type background))
      )
      (rectangle (start -5.08 0) (end 2.54 0)
        (stroke (width 0) (type default) (color 0 0 0 0))
        (fill (type background))
      )
      (rectangle (start 2.54 -10.16) (end -5.08 -10.16)
        (stroke (width 0) (type default) (color 0 0 0 0))
        (fill (type none))
      )
      (arc (start 2.54 -10.16) (mid 7.62 -5.08) (end 2.54 0)
        (stroke (width 0) (type default) (color 0 0 0 0))
        (fill (type background))
      )
    )
    (symbol "SN74LVC1G08_1_1"
      (pin input line (at -7.62 -3.81 0) (length 2.54)
        (name "A" (effects (font (size 1.27 1.27))))
        (number "1" (effects (font (size 1.27 1.27))))
      )
      (pin input line (at -7.62 -6.35 0) (length 2.54)
        (name "B" (effects (font (size 1.27 1.27))))
        (number "2" (effects (font (size 1.27 1.27))))
      )
      (pin input line (at 0 -12.7 90) (length 2.54)
        (name "GND" (effects (font (size 1.27 1.27))))
        (number "3" (effects (font (size 1.27 1.27))))
      )
      (pin input line (at 10.16 -5.08 180) (length 2.54)
        (name "Y" (effects (font (size 1.27 1.27))))
        (number "4" (effects (font (size 1.27 1.27))))
      )
      (pin input line (at 0 2.54 270) (length 2.54)
        (name "Vcc" (effects (font (size 1.27 1.27))))
        (number "5" (effects (font (size 1.27 1.27))))
      )
    )
  )
  (symbol "BSPD_Schematic_lib:SN74LVC1G332" (pin_names (offset 1.016)) (in_bom yes) (on_board yes)
    (property "Reference" "U" (id 0) (at 0 -10.16 0)
      (effects (font (size 1.27 1.27)))
    )
    (property "Value" "SN74LVC1G332" (id 1) (at 0 7.62 0)
      (effects (font (size 1.27 1.27)))
    )
    (property "Footprint" "Package_TO_SOT_SMD:SOT-23-6" (id 2) (at 0 -10.16 0)
      (effects (font (size 1.27 1.27)) hide)
    )
    (property "Datasheet" "" (id 3) (at 0 -10.16 0)
      (effects (font (size 1.27 1.27)) hide)
    )
    (symbol "SN74LVC1G332_0_1"
      (rectangle (start -2.54 2.54) (end -2.54 -5.08)
        (stroke (width -0.9906) (type default) (color 0 0 0 0))
        (fill (type none))
      )
      (rectangle (start -2.54 3.81) (end -2.54 -6.35)
        (stroke (width 0) (type default) (color 0 0 0 0))
        (fill (type none))
      )
      (rectangle (start -2.54 3.81) (end 5.08 -6.35)
        (stroke (width -0.9906) (type default) (color 0 0 0 0))
        (fill (type background))
      )
      (rectangle (start -2.54 3.81) (end 5.08 3.81)
        (stroke (width 0) (type default) (color 0 0 0 0))
        (fill (type none))
      )
      (rectangle (start 5.08 -6.35) (end -2.54 -6.35)
        (stroke (width 0) (type default) (color 0 0 0 0))
        (fill (type none))
      )
      (arc (start 5.08 -6.35) (mid 10.16 -1.27) (end 5.08 3.81)
        (stroke (width 0) (type default) (color 0 0 0 0))
        (fill (type background))
      )
    )
    (symbol "SN74LVC1G332_1_1"
      (pin input line (at -5.08 1.27 0) (length 2.54)
        (name "A" (effects (font (size 1.27 1.27))))
        (number "1" (effects (font (size 1.27 1.27))))
      )
      (pin input line (at 2.54 -8.89 90) (length 2.54)
        (name "GND" (effects (font (size 1.27 1.27))))
        (number "2" (effects (font (size 1.27 1.27))))
      )
      (pin input line (at -5.08 -1.27 0) (length 2.54)
        (name "B" (effects (font (size 1.27 1.27))))
        (number "3" (effects (font (size 1.27 1.27))))
      )
      (pin input line (at 12.7 -1.27 180) (length 2.54)
        (name "Y" (effects (font (size 1.27 1.27))))
        (number "4" (effects (font (size 1.27 1.27))))
      )
      (pin input line (at 2.54 6.35 270) (length 2.54)
        (name "Vcc" (effects (font (size 1.27 1.27))))
        (number "5" (effects (font (size 1.27 1.27))))
      )
      (pin input line (at -5.08 -3.81 0) (length 2.54)
        (name "C" (effects (font (size 1.27 1.27))))
        (number "6" (effects (font (size 1.27 1.27))))
      )
    )
  )
  (symbol "BSPD_Schematic_lib:SN74LVC1G34" (pin_names (offset 1.016)) (in_bom yes) (on_board yes)
    (property "Reference" "U" (id 0) (at 3.81 -6.35 0)
      (effects (font (size 1.27 1.27)))
    )
    (property "Value" "SN74LVC1G34" (id 1) (at 8.89 6.35 0)
      (effects (font (size 1.27 1.27)))
    )
    (property "Footprint" "Package_TO_SOT_SMD:SOT-23-5" (id 2) (at 3.81 -6.35 0)
      (effects (font (size 1.27 1.27)) hide)
    )
    (property "Datasheet" "" (id 3) (at 3.81 -6.35 0)
      (effects (font (size 1.27 1.27)) hide)
    )
    (symbol "SN74LVC1G34_0_1"
      (polyline
        (pts
          (xy -5.08 6.35)
          (xy -5.08 -6.35)
          (xy 6.35 0)
          (xy -5.08 6.35)
        )
        (stroke (width 0) (type default) (color 0 0 0 0))
        (fill (type background))
      )
    )
    (symbol "SN74LVC1G34_1_1"
      (pin input line (at -7.62 0 0) (length 2.54)
        (name "A" (effects (font (size 1.27 1.27))))
        (number "2" (effects (font (size 1.27 1.27))))
      )
      (pin input line (at 0 -6.35 90) (length 2.54)
        (name "GND" (effects (font (size 0.6096 0.6096))))
        (number "3" (effects (font (size 0.6096 0.6096))))
      )
      (pin input line (at 8.89 0 180) (length 2.54)
        (name "Y" (effects (font (size 1.27 1.27))))
        (number "4" (effects (font (size 1.27 1.27))))
      )
      (pin input line (at 0 6.35 270) (length 2.54)
        (name "Vcc" (effects (font (size 0.6096 0.6096))))
        (number "5" (effects (font (size 0.6096 0.6096))))
      )
    )
  )
  (symbol "BSPD_Schematic_lib:TLP3553" (in_bom yes) (on_board yes)
    (property "Reference" "U" (id 0) (at -3.81 5.08 0)
      (effects (font (size 1.27 1.27)))
    )
    (property "Value" "TLP3553" (id 1) (at -1.27 -5.08 0)
      (effects (font (size 1.27 1.27)))
    )
    (property "Footprint" "bspd_custom:TLP3553A(TP,1" (id 2) (at 0 -7.62 0)
      (effects (font (size 1.27 1.27)) hide)
    )
    (property "Datasheet" "" (id 3) (at 0 0 0)
      (effects (font (size 1.27 1.27)) hide)
    )
    (property "ki_fp_filters" "DIP*W7.62mm*" (id 4) (at 0 0 0)
      (effects (font (size 1.27 1.27)) hide)
    )
    (symbol "TLP3553_0_1"
      (rectangle (start -5.08 3.81) (end 5.08 -3.81)
        (stroke (width 0.254) (type default) (color 0 0 0 0))
        (fill (type background))
      )
      (polyline
        (pts
          (xy -3.81 -0.635)
          (xy -2.54 -0.635)
        )
        (stroke (width 0) (type default) (color 0 0 0 0))
        (fill (type none))
      )
      (polyline
        (pts
          (xy 1.016 -0.635)
          (xy 1.016 -2.159)
        )
        (stroke (width 0.2032) (type default) (color 0 0 0 0))
        (fill (type none))
      )
      (polyline
        (pts
          (xy 1.016 2.159)
          (xy 1.016 0.635)
        )
        (stroke (width 0.2032) (type default) (color 0 0 0 0))
        (fill (type none))
      )
      (polyline
        (pts
          (xy 1.524 -0.508)
          (xy 1.524 -0.762)
        )
        (stroke (width 0.3556) (type default) (color 0 0 0 0))
        (fill (type none))
      )
      (polyline
        (pts
          (xy 2.794 0)
          (xy 3.81 0)
        )
        (stroke (width 0) (type default) (color 0 0 0 0))
        (fill (type none))
      )
      (polyline
        (pts
          (xy 3.429 -1.651)
          (xy 4.191 -1.651)
        )
        (stroke (width 0) (type default) (color 0 0 0 0))
        (fill (type none))
      )
      (polyline
        (pts
          (xy 3.429 1.651)
          (xy 4.191 1.651)
        )
        (stroke (width 0) (type default) (color 0 0 0 0))
        (fill (type none))
      )
      (polyline
        (pts
          (xy 3.81 -2.54)
          (xy 3.81 2.54)
        )
        (stroke (width 0) (type default) (color 0 0 0 0))
        (fill (type none))
      )
      (polyline
        (pts
          (xy 1.524 -2.032)
          (xy 1.524 -2.286)
          (xy 1.524 -2.286)
        )
        (stroke (width 0.3556) (type default) (color 0 0 0 0))
        (fill (type none))
      )
      (polyline
        (pts
          (xy 1.524 -1.27)
          (xy 1.524 -1.524)
          (xy 1.524 -1.524)
        )
        (stroke (width 0.3556) (type default) (color 0 0 0 0))
        (fill (type none))
      )
      (polyline
        (pts
          (xy 1.524 0.762)
          (xy 1.524 0.508)
          (xy 1.524 0.508)
        )
        (stroke (width 0.3556) (type default) (color 0 0 0 0))
        (fill (type none))
      )
      (polyline
        (pts
          (xy 1.524 1.524)
          (xy 1.524 1.27)
          (xy 1.524 1.27)
        )
        (stroke (width 0.3556) (type default) (color 0 0 0 0))
        (fill (type none))
      )
      (polyline
        (pts
          (xy 1.524 2.286)
          (xy 1.524 2.032)
          (xy 1.524 2.032)
        )
        (stroke (width 0.3556) (type default) (color 0 0 0 0))
        (fill (type none))
      )
      (polyline
        (pts
          (xy 1.651 -1.397)
          (xy 2.794 -1.397)
          (xy 2.794 -0.635)
        )
        (stroke (width 0) (type default) (color 0 0 0 0))
        (fill (type none))
      )
      (polyline
        (pts
          (xy 1.651 1.397)
          (xy 2.794 1.397)
          (xy 2.794 0.635)
        )
        (stroke (width 0) (type default) (color 0 0 0 0))
        (fill (type none))
      )
      (polyline
        (pts
          (xy -5.08 2.54)
          (xy -3.175 2.54)
          (xy -3.175 -2.54)
          (xy -5.08 -2.54)
        )
        (stroke (width 0) (type default) (color 0 0 0 0))
        (fill (type none))
      )
      (polyline
        (pts
          (xy -3.175 -0.635)
          (xy -3.81 0.635)
          (xy -2.54 0.635)
          (xy -3.175 -0.635)
        )
        (stroke (width 0) (type default) (color 0 0 0 0))
        (fill (type none))
      )
      (polyline
        (pts
          (xy 1.651 -2.159)
          (xy 2.794 -2.159)
          (xy 2.794 -2.54)
          (xy 5.08 -2.54)
        )
        (stroke (width 0) (type default) (color 0 0 0 0))
        (fill (type none))
      )
      (polyline
        (pts
          (xy 1.651 -0.635)
          (xy 2.794 -0.635)
          (xy 2.794 0.635)
          (xy 1.651 0.635)
        )
        (stroke (width 0) (type default) (color 0 0 0 0))
        (fill (type none))
      )
      (polyline
        (pts
          (xy 1.651 2.159)
          (xy 2.794 2.159)
          (xy 2.794 2.54)
          (xy 5.08 2.54)
        )
        (stroke (width 0) (type default) (color 0 0 0 0))
        (fill (type none))
      )
      (polyline
        (pts
          (xy 1.778 -1.397)
          (xy 2.286 -1.27)
          (xy 2.286 -1.524)
          (xy 1.778 -1.397)
        )
        (stroke (width 0) (type default) (color 0 0 0 0))
        (fill (type none))
      )
      (polyline
        (pts
          (xy 1.778 1.397)
          (xy 2.286 1.524)
          (xy 2.286 1.27)
          (xy 1.778 1.397)
        )
        (stroke (width 0) (type default) (color 0 0 0 0))
        (fill (type none))
      )
      (polyline
        (pts
          (xy 3.81 -1.651)
          (xy 3.429 -0.889)
          (xy 4.191 -0.889)
          (xy 3.81 -1.651)
        )
        (stroke (width 0) (type default) (color 0 0 0 0))
        (fill (type none))
      )
      (polyline
        (pts
          (xy 3.81 1.651)
          (xy 3.429 0.889)
          (xy 4.191 0.889)
          (xy 3.81 1.651)
        )
        (stroke (width 0) (type default) (color 0 0 0 0))
        (fill (type none))
      )
      (polyline
        (pts
          (xy -1.905 -0.508)
          (xy -0.635 -0.508)
          (xy -1.016 -0.635)
          (xy -1.016 -0.381)
          (xy -0.635 -0.508)
        )
        (stroke (width 0) (type default) (color 0 0 0 0))
        (fill (type none))
      )
      (polyline
        (pts
          (xy -1.905 0.508)
          (xy -0.635 0.508)
          (xy -1.016 0.381)
          (xy -1.016 0.635)
          (xy -0.635 0.508)
        )
        (stroke (width 0) (type default) (color 0 0 0 0))
        (fill (type none))
      )
      (circle (center 2.794 -0.635) (radius 0.127)         (stroke (width 0) (type default) (color 0 0 0 0))
        (fill (type none))
      )
      (circle (center 2.794 0) (radius 0.127)         (stroke (width 0) (type default) (color 0 0 0 0))
        (fill (type none))
      )
      (circle (center 2.794 0.635) (radius 0.127)         (stroke (width 0) (type default) (color 0 0 0 0))
        (fill (type none))
      )
      (circle (center 3.81 -2.54) (radius 0.127)         (stroke (width 0) (type default) (color 0 0 0 0))
        (fill (type none))
      )
      (circle (center 3.81 0) (radius 0.127)         (stroke (width 0) (type default) (color 0 0 0 0))
        (fill (type none))
      )
      (circle (center 3.81 2.54) (radius 0.127)         (stroke (width 0) (type default) (color 0 0 0 0))
        (fill (type none))
      )
    )
    (symbol "TLP3553_1_1"
      (pin passive line (at -7.62 2.54 0) (length 2.54)
        (name "~" (effects (font (size 1.27 1.27))))
        (number "1" (effects (font (size 1.27 1.27))))
      )
      (pin passive line (at -7.62 -2.54 0) (length 2.54)
        (name "~" (effects (font (size 1.27 1.27))))
        (number "3" (effects (font (size 1.27 1.27))))
      )
      (pin no_connect line (at -5.08 0 0) (length 2.54) hide
        (name "~" (effects (font (size 1.27 1.27))))
        (number "3" (effects (font (size 1.27 1.27))))
      )
      (pin passive line (at 7.62 -2.54 180) (length 2.54)
        (name "~" (effects (font (size 1.27 1.27))))
        (number "4" (effects (font (size 1.27 1.27))))
      )
      (pin passive line (at 7.62 2.54 180) (length 2.54)
        (name "~" (effects (font (size 1.27 1.27))))
        (number "6" (effects (font (size 1.27 1.27))))
      )
    )
  )
)
