(kicad_symbol_lib (version 20201005) (generator kicad_symbol_editor)
  (symbol "CPU_NXP_68000:68000D" (pin_names (offset 0.762)) (in_bom yes) (on_board yes)
    (property "Reference" "U" (id 0) (at 0 2.54 0)
      (effects (font (size 1.27 1.27)))
    )
    (property "Value" "68000D" (id 1) (at 0 -3.81 0)
      (effects (font (size 1.27 1.27)))
    )
    (property "Footprint" "" (id 2) (at 0 0 0)
      (effects (font (size 1.27 1.27)) hide)
    )
    (property "Datasheet" "https://www.nxp.com/docs/en/reference-manual/MC68000UM.pdf" (id 3) (at 0 0 0)
      (effects (font (size 1.27 1.27)) hide)
    )
    (property "ki_keywords" "68000 Microprocessor CPU" (id 4) (at 0 0 0)
      (effects (font (size 1.27 1.27)) hide)
    )
    (property "ki_description" "16/32-bit Microprocessor" (id 5) (at 0 0 0)
      (effects (font (size 1.27 1.27)) hide)
    )
    (symbol "68000D_0_1"
      (rectangle (start -17.78 57.15) (end 17.78 -57.15)
        (stroke (width 0.254)) (fill (type background))
      )
    )
    (symbol "68000D_1_1"
      (pin bidirectional line (at 25.4 -15.24 180) (length 7.62)
        (name "D4" (effects (font (size 1.27 1.27))))
        (number "1" (effects (font (size 1.27 1.27))))
      )
      (pin input inverted (at -25.4 -20.32 0) (length 7.62)
        (name "DTACK" (effects (font (size 1.27 1.27))))
        (number "10" (effects (font (size 1.27 1.27))))
      )
      (pin output inverted (at -25.4 35.56 0) (length 7.62)
        (name "BG" (effects (font (size 1.27 1.27))))
        (number "11" (effects (font (size 1.27 1.27))))
      )
      (pin input inverted (at -25.4 38.1 0) (length 7.62)
        (name "BGACK" (effects (font (size 1.27 1.27))))
        (number "12" (effects (font (size 1.27 1.27))))
      )
      (pin input inverted (at -25.4 33.02 0) (length 7.62)
        (name "BR" (effects (font (size 1.27 1.27))))
        (number "13" (effects (font (size 1.27 1.27))))
      )
      (pin power_in line (at 0 60.96 270) (length 3.81)
        (name "VCC" (effects (font (size 1.27 1.27))))
        (number "14" (effects (font (size 1.27 1.27))))
      )
      (pin input clock (at -25.4 55.88 0) (length 7.62)
        (name "CLK" (effects (font (size 1.27 1.27))))
        (number "15" (effects (font (size 1.27 1.27))))
      )
      (pin power_in line (at 2.54 -60.96 90) (length 3.81)
        (name "GND" (effects (font (size 1.27 1.27))))
        (number "16" (effects (font (size 1.27 1.27))))
      )
      (pin bidirectional inverted (at -25.4 -30.48 0) (length 7.62)
        (name "HALT" (effects (font (size 1.27 1.27))))
        (number "17" (effects (font (size 1.27 1.27))))
      )
      (pin bidirectional inverted (at -25.4 -33.02 0) (length 7.62)
        (name "RESET" (effects (font (size 1.27 1.27))))
        (number "18" (effects (font (size 1.27 1.27))))
      )
      (pin output inverted (at -25.4 12.7 0) (length 7.62)
        (name "VMA" (effects (font (size 1.27 1.27))))
        (number "19" (effects (font (size 1.27 1.27))))
      )
      (pin bidirectional line (at 25.4 -12.7 180) (length 7.62)
        (name "D3" (effects (font (size 1.27 1.27))))
        (number "2" (effects (font (size 1.27 1.27))))
      )
      (pin output line (at -25.4 10.16 0) (length 7.62)
        (name "E" (effects (font (size 1.27 1.27))))
        (number "20" (effects (font (size 1.27 1.27))))
      )
      (pin input inverted (at -25.4 7.62 0) (length 7.62)
        (name "VPA" (effects (font (size 1.27 1.27))))
        (number "21" (effects (font (size 1.27 1.27))))
      )
      (pin input inverted (at -25.4 -15.24 0) (length 7.62)
        (name "BERR" (effects (font (size 1.27 1.27))))
        (number "22" (effects (font (size 1.27 1.27))))
      )
      (pin input inverted (at -25.4 43.18 0) (length 7.62)
        (name "IPL2" (effects (font (size 1.27 1.27))))
        (number "23" (effects (font (size 1.27 1.27))))
      )
      (pin input inverted (at -25.4 45.72 0) (length 7.62)
        (name "IPL1" (effects (font (size 1.27 1.27))))
        (number "24" (effects (font (size 1.27 1.27))))
      )
      (pin input inverted (at -25.4 48.26 0) (length 7.62)
        (name "IPL0" (effects (font (size 1.27 1.27))))
        (number "25" (effects (font (size 1.27 1.27))))
      )
      (pin output line (at -25.4 20.32 0) (length 7.62)
        (name "FC2" (effects (font (size 1.27 1.27))))
        (number "26" (effects (font (size 1.27 1.27))))
      )
      (pin output line (at -25.4 22.86 0) (length 7.62)
        (name "FC1" (effects (font (size 1.27 1.27))))
        (number "27" (effects (font (size 1.27 1.27))))
      )
      (pin output line (at -25.4 25.4 0) (length 7.62)
        (name "FC0" (effects (font (size 1.27 1.27))))
        (number "28" (effects (font (size 1.27 1.27))))
      )
      (pin output line (at 25.4 55.88 180) (length 7.62)
        (name "A1" (effects (font (size 1.27 1.27))))
        (number "29" (effects (font (size 1.27 1.27))))
      )
      (pin bidirectional line (at 25.4 -10.16 180) (length 7.62)
        (name "D2" (effects (font (size 1.27 1.27))))
        (number "3" (effects (font (size 1.27 1.27))))
      )
      (pin output line (at 25.4 53.34 180) (length 7.62)
        (name "A2" (effects (font (size 1.27 1.27))))
        (number "30" (effects (font (size 1.27 1.27))))
      )
      (pin output line (at 25.4 50.8 180) (length 7.62)
        (name "A3" (effects (font (size 1.27 1.27))))
        (number "31" (effects (font (size 1.27 1.27))))
      )
      (pin output line (at 25.4 48.26 180) (length 7.62)
        (name "A4" (effects (font (size 1.27 1.27))))
        (number "32" (effects (font (size 1.27 1.27))))
      )
      (pin output line (at 25.4 45.72 180) (length 7.62)
        (name "A5" (effects (font (size 1.27 1.27))))
        (number "33" (effects (font (size 1.27 1.27))))
      )
      (pin output line (at 25.4 43.18 180) (length 7.62)
        (name "A6" (effects (font (size 1.27 1.27))))
        (number "34" (effects (font (size 1.27 1.27))))
      )
      (pin output line (at 25.4 40.64 180) (length 7.62)
        (name "A7" (effects (font (size 1.27 1.27))))
        (number "35" (effects (font (size 1.27 1.27))))
      )
      (pin output line (at 25.4 38.1 180) (length 7.62)
        (name "A8" (effects (font (size 1.27 1.27))))
        (number "36" (effects (font (size 1.27 1.27))))
      )
      (pin output line (at 25.4 35.56 180) (length 7.62)
        (name "A9" (effects (font (size 1.27 1.27))))
        (number "37" (effects (font (size 1.27 1.27))))
      )
      (pin output line (at 25.4 33.02 180) (length 7.62)
        (name "A10" (effects (font (size 1.27 1.27))))
        (number "38" (effects (font (size 1.27 1.27))))
      )
      (pin output line (at 25.4 30.48 180) (length 7.62)
        (name "A11" (effects (font (size 1.27 1.27))))
        (number "39" (effects (font (size 1.27 1.27))))
      )
      (pin bidirectional line (at 25.4 -7.62 180) (length 7.62)
        (name "D1" (effects (font (size 1.27 1.27))))
        (number "4" (effects (font (size 1.27 1.27))))
      )
      (pin output line (at 25.4 27.94 180) (length 7.62)
        (name "A12" (effects (font (size 1.27 1.27))))
        (number "40" (effects (font (size 1.27 1.27))))
      )
      (pin output line (at 25.4 25.4 180) (length 7.62)
        (name "A13" (effects (font (size 1.27 1.27))))
        (number "41" (effects (font (size 1.27 1.27))))
      )
      (pin output line (at 25.4 22.86 180) (length 7.62)
        (name "A14" (effects (font (size 1.27 1.27))))
        (number "42" (effects (font (size 1.27 1.27))))
      )
      (pin output line (at 25.4 20.32 180) (length 7.62)
        (name "A15" (effects (font (size 1.27 1.27))))
        (number "43" (effects (font (size 1.27 1.27))))
      )
      (pin output line (at 25.4 17.78 180) (length 7.62)
        (name "A16" (effects (font (size 1.27 1.27))))
        (number "44" (effects (font (size 1.27 1.27))))
      )
      (pin output line (at 25.4 15.24 180) (length 7.62)
        (name "A17" (effects (font (size 1.27 1.27))))
        (number "45" (effects (font (size 1.27 1.27))))
      )
      (pin output line (at 25.4 12.7 180) (length 7.62)
        (name "A18" (effects (font (size 1.27 1.27))))
        (number "46" (effects (font (size 1.27 1.27))))
      )
      (pin output line (at 25.4 10.16 180) (length 7.62)
        (name "A19" (effects (font (size 1.27 1.27))))
        (number "47" (effects (font (size 1.27 1.27))))
      )
      (pin output line (at 25.4 7.62 180) (length 7.62)
        (name "A20" (effects (font (size 1.27 1.27))))
        (number "48" (effects (font (size 1.27 1.27))))
      )
      (pin power_in line (at 2.54 60.96 270) (length 3.81)
        (name "VCC" (effects (font (size 1.27 1.27))))
        (number "49" (effects (font (size 1.27 1.27))))
      )
      (pin bidirectional line (at 25.4 -5.08 180) (length 7.62)
        (name "D0" (effects (font (size 1.27 1.27))))
        (number "5" (effects (font (size 1.27 1.27))))
      )
      (pin output line (at 25.4 5.08 180) (length 7.62)
        (name "A21" (effects (font (size 1.27 1.27))))
        (number "50" (effects (font (size 1.27 1.27))))
      )
      (pin output line (at 25.4 2.54 180) (length 7.62)
        (name "A22" (effects (font (size 1.27 1.27))))
        (number "51" (effects (font (size 1.27 1.27))))
      )
      (pin output line (at 25.4 0 180) (length 7.62)
        (name "A23" (effects (font (size 1.27 1.27))))
        (number "52" (effects (font (size 1.27 1.27))))
      )
      (pin power_in line (at 0 -60.96 90) (length 3.81)
        (name "GND" (effects (font (size 1.27 1.27))))
        (number "53" (effects (font (size 1.27 1.27))))
      )
      (pin bidirectional line (at 25.4 -43.18 180) (length 7.62)
        (name "D15" (effects (font (size 1.27 1.27))))
        (number "54" (effects (font (size 1.27 1.27))))
      )
      (pin bidirectional line (at 25.4 -40.64 180) (length 7.62)
        (name "D14" (effects (font (size 1.27 1.27))))
        (number "55" (effects (font (size 1.27 1.27))))
      )
      (pin bidirectional line (at 25.4 -38.1 180) (length 7.62)
        (name "D13" (effects (font (size 1.27 1.27))))
        (number "56" (effects (font (size 1.27 1.27))))
      )
      (pin bidirectional line (at 25.4 -35.56 180) (length 7.62)
        (name "D12" (effects (font (size 1.27 1.27))))
        (number "57" (effects (font (size 1.27 1.27))))
      )
      (pin bidirectional line (at 25.4 -33.02 180) (length 7.62)
        (name "D11" (effects (font (size 1.27 1.27))))
        (number "58" (effects (font (size 1.27 1.27))))
      )
      (pin bidirectional line (at 25.4 -30.48 180) (length 7.62)
        (name "D10" (effects (font (size 1.27 1.27))))
        (number "59" (effects (font (size 1.27 1.27))))
      )
      (pin output inverted (at 25.4 -48.26 180) (length 7.62)
        (name "AS" (effects (font (size 1.27 1.27))))
        (number "6" (effects (font (size 1.27 1.27))))
      )
      (pin bidirectional line (at 25.4 -27.94 180) (length 7.62)
        (name "D9" (effects (font (size 1.27 1.27))))
        (number "60" (effects (font (size 1.27 1.27))))
      )
      (pin bidirectional line (at 25.4 -25.4 180) (length 7.62)
        (name "D8" (effects (font (size 1.27 1.27))))
        (number "61" (effects (font (size 1.27 1.27))))
      )
      (pin bidirectional line (at 25.4 -22.86 180) (length 7.62)
        (name "D7" (effects (font (size 1.27 1.27))))
        (number "62" (effects (font (size 1.27 1.27))))
      )
      (pin bidirectional line (at 25.4 -20.32 180) (length 7.62)
        (name "D6" (effects (font (size 1.27 1.27))))
        (number "63" (effects (font (size 1.27 1.27))))
      )
      (pin bidirectional line (at 25.4 -17.78 180) (length 7.62)
        (name "D5" (effects (font (size 1.27 1.27))))
        (number "64" (effects (font (size 1.27 1.27))))
      )
      (pin output inverted (at 25.4 -50.8 180) (length 7.62)
        (name "UDS" (effects (font (size 1.27 1.27))))
        (number "7" (effects (font (size 1.27 1.27))))
      )
      (pin output inverted (at 25.4 -53.34 180) (length 7.62)
        (name "LDS" (effects (font (size 1.27 1.27))))
        (number "8" (effects (font (size 1.27 1.27))))
      )
      (pin output line (at 25.4 -55.88 180) (length 7.62)
        (name "R/W" (effects (font (size 1.27 1.27))))
        (number "9" (effects (font (size 1.27 1.27))))
      )
    )
  )
  (symbol "CPU_NXP_68000:68010D" (extends "68000D")
    (property "Reference" "U" (id 0) (at 0 2.54 0)
      (effects (font (size 1.27 1.27)))
    )
    (property "Value" "68010D" (id 1) (at 0 -3.81 0)
      (effects (font (size 1.27 1.27)))
    )
    (property "Footprint" "" (id 2) (at 0 0 0)
      (effects (font (size 1.27 1.27)) hide)
    )
    (property "Datasheet" "https://www.nxp.com/docs/en/reference-manual/MC68000UM.pdf" (id 3) (at 0 0 0)
      (effects (font (size 1.27 1.27)) hide)
    )
    (property "ki_keywords" "68000 Microprocessor CPU" (id 4) (at 0 0 0)
      (effects (font (size 1.27 1.27)) hide)
    )
    (property "ki_description" "16/32-bit Microprocessor" (id 5) (at 0 0 0)
      (effects (font (size 1.27 1.27)) hide)
    )
  )
  (symbol "CPU_NXP_68000:68008D" (pin_names (offset 1.016)) (in_bom yes) (on_board yes)
    (property "Reference" "U" (id 0) (at 0 2.54 0)
      (effects (font (size 1.27 1.27)))
    )
    (property "Value" "68008D" (id 1) (at 0 -2.54 0)
      (effects (font (size 1.27 1.27)))
    )
    (property "Footprint" "" (id 2) (at 0 0 0)
      (effects (font (size 1.27 1.27)) hide)
    )
    (property "Datasheet" "https://www.nxp.com/docs/en/reference-manual/MC68000UM.pdf" (id 3) (at 0 0 0)
      (effects (font (size 1.27 1.27)) hide)
    )
    (property "ki_keywords" "68000 Microprocessor CPU" (id 4) (at 0 0 0)
      (effects (font (size 1.27 1.27)) hide)
    )
    (property "ki_description" "16/32-bit Microprocessor, 8-bit databus" (id 5) (at 0 0 0)
      (effects (font (size 1.27 1.27)) hide)
    )
    (symbol "68008D_0_1"
      (rectangle (start -15.24 -41.91) (end 15.24 40.64)
        (stroke (width 0.254)) (fill (type background))
      )
    )
    (symbol "68008D_1_1"
      (pin tri_state line (at 22.86 30.48 180) (length 7.62)
        (name "A3" (effects (font (size 1.27 1.27))))
        (number "1" (effects (font (size 1.27 1.27))))
      )
      (pin tri_state line (at 22.86 7.62 180) (length 7.62)
        (name "A12" (effects (font (size 1.27 1.27))))
        (number "10" (effects (font (size 1.27 1.27))))
      )
      (pin tri_state line (at 22.86 5.08 180) (length 7.62)
        (name "A13" (effects (font (size 1.27 1.27))))
        (number "11" (effects (font (size 1.27 1.27))))
      )
      (pin tri_state line (at 22.86 2.54 180) (length 7.62)
        (name "A14" (effects (font (size 1.27 1.27))))
        (number "12" (effects (font (size 1.27 1.27))))
      )
      (pin power_in line (at 0 45.72 270) (length 3.81)
        (name "VCC" (effects (font (size 1.27 1.27))))
        (number "13" (effects (font (size 1.27 1.27))))
      )
      (pin tri_state line (at 22.86 0 180) (length 7.62)
        (name "A15" (effects (font (size 1.27 1.27))))
        (number "14" (effects (font (size 1.27 1.27))))
      )
      (pin power_in line (at 2.54 -45.72 90) (length 3.81)
        (name "GND" (effects (font (size 1.27 1.27))))
        (number "15" (effects (font (size 1.27 1.27))))
      )
      (pin tri_state line (at 22.86 -2.54 180) (length 7.62)
        (name "A16" (effects (font (size 1.27 1.27))))
        (number "16" (effects (font (size 1.27 1.27))))
      )
      (pin tri_state line (at 22.86 -5.08 180) (length 7.62)
        (name "A17" (effects (font (size 1.27 1.27))))
        (number "17" (effects (font (size 1.27 1.27))))
      )
      (pin tri_state line (at 22.86 -7.62 180) (length 7.62)
        (name "A18" (effects (font (size 1.27 1.27))))
        (number "18" (effects (font (size 1.27 1.27))))
      )
      (pin tri_state line (at 22.86 -10.16 180) (length 7.62)
        (name "A19" (effects (font (size 1.27 1.27))))
        (number "19" (effects (font (size 1.27 1.27))))
      )
      (pin tri_state line (at 22.86 27.94 180) (length 7.62)
        (name "A4" (effects (font (size 1.27 1.27))))
        (number "2" (effects (font (size 1.27 1.27))))
      )
      (pin tri_state line (at 22.86 -38.1 180) (length 7.62)
        (name "D7" (effects (font (size 1.27 1.27))))
        (number "20" (effects (font (size 1.27 1.27))))
      )
      (pin tri_state line (at 22.86 -35.56 180) (length 7.62)
        (name "D6" (effects (font (size 1.27 1.27))))
        (number "21" (effects (font (size 1.27 1.27))))
      )
      (pin tri_state line (at 22.86 -33.02 180) (length 7.62)
        (name "D5" (effects (font (size 1.27 1.27))))
        (number "22" (effects (font (size 1.27 1.27))))
      )
      (pin tri_state line (at 22.86 -30.48 180) (length 7.62)
        (name "D4" (effects (font (size 1.27 1.27))))
        (number "23" (effects (font (size 1.27 1.27))))
      )
      (pin tri_state line (at 22.86 -27.94 180) (length 7.62)
        (name "D3" (effects (font (size 1.27 1.27))))
        (number "24" (effects (font (size 1.27 1.27))))
      )
      (pin tri_state line (at 22.86 -25.4 180) (length 7.62)
        (name "D2" (effects (font (size 1.27 1.27))))
        (number "25" (effects (font (size 1.27 1.27))))
      )
      (pin tri_state line (at 22.86 -22.86 180) (length 7.62)
        (name "D1" (effects (font (size 1.27 1.27))))
        (number "26" (effects (font (size 1.27 1.27))))
      )
      (pin tri_state line (at 22.86 -20.32 180) (length 7.62)
        (name "D0" (effects (font (size 1.27 1.27))))
        (number "27" (effects (font (size 1.27 1.27))))
      )
      (pin tri_state inverted (at -22.86 -33.02 0) (length 7.62)
        (name "AS" (effects (font (size 1.27 1.27))))
        (number "28" (effects (font (size 1.27 1.27))))
      )
      (pin tri_state inverted (at -22.86 -35.56 0) (length 7.62)
        (name "DS" (effects (font (size 1.27 1.27))))
        (number "29" (effects (font (size 1.27 1.27))))
      )
      (pin tri_state line (at 22.86 25.4 180) (length 7.62)
        (name "A5" (effects (font (size 1.27 1.27))))
        (number "3" (effects (font (size 1.27 1.27))))
      )
      (pin tri_state line (at -22.86 -38.1 0) (length 7.62)
        (name "R/W" (effects (font (size 1.27 1.27))))
        (number "30" (effects (font (size 1.27 1.27))))
      )
      (pin input inverted (at -22.86 15.24 0) (length 7.62)
        (name "DTACK" (effects (font (size 1.27 1.27))))
        (number "31" (effects (font (size 1.27 1.27))))
      )
      (pin output inverted (at -22.86 -2.54 0) (length 7.62)
        (name "BG" (effects (font (size 1.27 1.27))))
        (number "32" (effects (font (size 1.27 1.27))))
      )
      (pin input inverted (at -22.86 17.78 0) (length 7.62)
        (name "BR" (effects (font (size 1.27 1.27))))
        (number "33" (effects (font (size 1.27 1.27))))
      )
      (pin input clock (at -22.86 38.1 0) (length 7.62)
        (name "CLK" (effects (font (size 1.27 1.27))))
        (number "34" (effects (font (size 1.27 1.27))))
      )
      (pin power_in line (at 0 -45.72 90) (length 3.81)
        (name "GND" (effects (font (size 1.27 1.27))))
        (number "35" (effects (font (size 1.27 1.27))))
      )
      (pin bidirectional inverted (at -22.86 -27.94 0) (length 7.62)
        (name "HALT" (effects (font (size 1.27 1.27))))
        (number "36" (effects (font (size 1.27 1.27))))
      )
      (pin bidirectional inverted (at -22.86 -30.48 0) (length 7.62)
        (name "RESET" (effects (font (size 1.27 1.27))))
        (number "37" (effects (font (size 1.27 1.27))))
      )
      (pin output line (at -22.86 -7.62 0) (length 7.62)
        (name "E" (effects (font (size 1.27 1.27))))
        (number "38" (effects (font (size 1.27 1.27))))
      )
      (pin input inverted (at -22.86 35.56 0) (length 7.62)
        (name "VPA" (effects (font (size 1.27 1.27))))
        (number "39" (effects (font (size 1.27 1.27))))
      )
      (pin tri_state line (at 22.86 22.86 180) (length 7.62)
        (name "A6" (effects (font (size 1.27 1.27))))
        (number "4" (effects (font (size 1.27 1.27))))
      )
      (pin input inverted (at -22.86 12.7 0) (length 7.62)
        (name "BERR" (effects (font (size 1.27 1.27))))
        (number "40" (effects (font (size 1.27 1.27))))
      )
      (pin input inverted (at -22.86 27.94 0) (length 7.62)
        (name "IPL1" (effects (font (size 1.27 1.27))))
        (number "41" (effects (font (size 1.27 1.27))))
      )
      (pin input inverted (at -22.86 30.48 0) (length 7.62)
        (name "IPL0/2" (effects (font (size 1.27 1.27))))
        (number "42" (effects (font (size 1.27 1.27))))
      )
      (pin output line (at -22.86 2.54 0) (length 7.62)
        (name "FC2" (effects (font (size 1.27 1.27))))
        (number "43" (effects (font (size 1.27 1.27))))
      )
      (pin output line (at -22.86 5.08 0) (length 7.62)
        (name "FC1" (effects (font (size 1.27 1.27))))
        (number "44" (effects (font (size 1.27 1.27))))
      )
      (pin output line (at -22.86 7.62 0) (length 7.62)
        (name "FC0" (effects (font (size 1.27 1.27))))
        (number "45" (effects (font (size 1.27 1.27))))
      )
      (pin tri_state line (at 22.86 38.1 180) (length 7.62)
        (name "A0" (effects (font (size 1.27 1.27))))
        (number "46" (effects (font (size 1.27 1.27))))
      )
      (pin tri_state line (at 22.86 35.56 180) (length 7.62)
        (name "A1" (effects (font (size 1.27 1.27))))
        (number "47" (effects (font (size 1.27 1.27))))
      )
      (pin tri_state line (at 22.86 33.02 180) (length 7.62)
        (name "A2" (effects (font (size 1.27 1.27))))
        (number "48" (effects (font (size 1.27 1.27))))
      )
      (pin tri_state line (at 22.86 20.32 180) (length 7.62)
        (name "A7" (effects (font (size 1.27 1.27))))
        (number "5" (effects (font (size 1.27 1.27))))
      )
      (pin tri_state line (at 22.86 17.78 180) (length 7.62)
        (name "A8" (effects (font (size 1.27 1.27))))
        (number "6" (effects (font (size 1.27 1.27))))
      )
      (pin tri_state line (at 22.86 15.24 180) (length 7.62)
        (name "A9" (effects (font (size 1.27 1.27))))
        (number "7" (effects (font (size 1.27 1.27))))
      )
      (pin tri_state line (at 22.86 12.7 180) (length 7.62)
        (name "A10" (effects (font (size 1.27 1.27))))
        (number "8" (effects (font (size 1.27 1.27))))
      )
      (pin tri_state line (at 22.86 10.16 180) (length 7.62)
        (name "A11" (effects (font (size 1.27 1.27))))
        (number "9" (effects (font (size 1.27 1.27))))
      )
    )
  )
  (symbol "CPU_NXP_68000:MC68000FN" (pin_names (offset 0.762)) (in_bom yes) (on_board yes)
    (property "Reference" "U" (id 0) (at -16.51 59.69 0)
      (effects (font (size 1.27 1.27)))
    )
    (property "Value" "MC68000FN" (id 1) (at 12.7 -59.69 0)
      (effects (font (size 1.27 1.27)))
    )
    (property "Footprint" "Package_LCC:PLCC-68" (id 2) (at -19.05 57.15 0)
      (effects (font (size 1.27 1.27)) hide)
    )
    (property "Datasheet" "http://www.nxp.com/files/32bit/doc/ref_manual/MC68000UM.pdf" (id 3) (at 0 0 0)
      (effects (font (size 1.27 1.27)) hide)
    )
    (property "ki_keywords" "MPRO" (id 4) (at 0 0 0)
      (effects (font (size 1.27 1.27)) hide)
    )
    (property "ki_description" "Microprocessor, 16-bit bus" (id 5) (at 0 0 0)
      (effects (font (size 1.27 1.27)) hide)
    )
    (property "ki_fp_filters" "PLCC*" (id 6) (at 0 0 0)
      (effects (font (size 1.27 1.27)) hide)
    )
    (symbol "MC68000FN_0_1"
      (rectangle (start -17.78 58.42) (end 17.78 -58.42)
        (stroke (width 0.254)) (fill (type background))
      )
    )
    (symbol "MC68000FN_1_1"
      (pin bidirectional line (at 25.4 -15.24 180) (length 7.62)
        (name "D4" (effects (font (size 1.27 1.27))))
        (number "1" (effects (font (size 1.27 1.27))))
      )
      (pin input inverted (at -25.4 -17.78 0) (length 7.62)
        (name "DTACK" (effects (font (size 1.27 1.27))))
        (number "10" (effects (font (size 1.27 1.27))))
      )
      (pin output inverted (at -25.4 35.56 0) (length 7.62)
        (name "BG" (effects (font (size 1.27 1.27))))
        (number "11" (effects (font (size 1.27 1.27))))
      )
      (pin input inverted (at -25.4 38.1 0) (length 7.62)
        (name "BGACK" (effects (font (size 1.27 1.27))))
        (number "12" (effects (font (size 1.27 1.27))))
      )
      (pin input inverted (at -25.4 33.02 0) (length 7.62)
        (name "BR" (effects (font (size 1.27 1.27))))
        (number "13" (effects (font (size 1.27 1.27))))
      )
      (pin power_in line (at -2.54 66.04 270) (length 7.62)
        (name "VCC" (effects (font (size 1.27 1.27))))
        (number "14" (effects (font (size 1.27 1.27))))
      )
      (pin input clock (at -25.4 55.88 0) (length 7.62)
        (name "CLK" (effects (font (size 1.27 1.27))))
        (number "15" (effects (font (size 1.27 1.27))))
      )
      (pin power_in line (at 2.54 -66.04 90) (length 7.62)
        (name "GND" (effects (font (size 1.27 1.27))))
        (number "16" (effects (font (size 1.27 1.27))))
      )
      (pin power_in line (at 5.08 -66.04 90) (length 7.62)
        (name "GND" (effects (font (size 1.27 1.27))))
        (number "17" (effects (font (size 1.27 1.27))))
      )
      (pin no_connect line (at -17.78 -45.72 0) (length 0) hide
        (name "NC" (effects (font (size 1.27 1.27))))
        (number "18" (effects (font (size 1.27 1.27))))
      )
      (pin bidirectional inverted (at -25.4 -30.48 0) (length 7.62)
        (name "HALT" (effects (font (size 1.27 1.27))))
        (number "19" (effects (font (size 1.27 1.27))))
      )
      (pin bidirectional line (at 25.4 -12.7 180) (length 7.62)
        (name "D3" (effects (font (size 1.27 1.27))))
        (number "2" (effects (font (size 1.27 1.27))))
      )
      (pin input inverted (at -25.4 -35.56 0) (length 7.62)
        (name "RESET" (effects (font (size 1.27 1.27))))
        (number "20" (effects (font (size 1.27 1.27))))
      )
      (pin output inverted (at -25.4 12.7 0) (length 7.62)
        (name "VMA" (effects (font (size 1.27 1.27))))
        (number "21" (effects (font (size 1.27 1.27))))
      )
      (pin output line (at -25.4 10.16 0) (length 7.62)
        (name "E" (effects (font (size 1.27 1.27))))
        (number "22" (effects (font (size 1.27 1.27))))
      )
      (pin input inverted (at -25.4 7.62 0) (length 7.62)
        (name "VPA" (effects (font (size 1.27 1.27))))
        (number "23" (effects (font (size 1.27 1.27))))
      )
      (pin input inverted (at -25.4 -12.7 0) (length 7.62)
        (name "BERR" (effects (font (size 1.27 1.27))))
        (number "24" (effects (font (size 1.27 1.27))))
      )
      (pin input inverted (at -25.4 43.18 0) (length 7.62)
        (name "IPL2" (effects (font (size 1.27 1.27))))
        (number "25" (effects (font (size 1.27 1.27))))
      )
      (pin input inverted (at -25.4 45.72 0) (length 7.62)
        (name "IPL1" (effects (font (size 1.27 1.27))))
        (number "26" (effects (font (size 1.27 1.27))))
      )
      (pin input inverted (at -25.4 48.26 0) (length 7.62)
        (name "IPL0" (effects (font (size 1.27 1.27))))
        (number "27" (effects (font (size 1.27 1.27))))
      )
      (pin output line (at -25.4 20.32 0) (length 7.62)
        (name "FC2" (effects (font (size 1.27 1.27))))
        (number "28" (effects (font (size 1.27 1.27))))
      )
      (pin output line (at -25.4 22.86 0) (length 7.62)
        (name "FC1" (effects (font (size 1.27 1.27))))
        (number "29" (effects (font (size 1.27 1.27))))
      )
      (pin bidirectional line (at 25.4 -10.16 180) (length 7.62)
        (name "D2" (effects (font (size 1.27 1.27))))
        (number "3" (effects (font (size 1.27 1.27))))
      )
      (pin output line (at -25.4 25.4 0) (length 7.62)
        (name "FC0" (effects (font (size 1.27 1.27))))
        (number "30" (effects (font (size 1.27 1.27))))
      )
      (pin no_connect line (at -17.78 -48.26 0) (length 0) hide
        (name "NC" (effects (font (size 1.27 1.27))))
        (number "31" (effects (font (size 1.27 1.27))))
      )
      (pin output line (at 25.4 55.88 180) (length 7.62)
        (name "A1" (effects (font (size 1.27 1.27))))
        (number "32" (effects (font (size 1.27 1.27))))
      )
      (pin output line (at 25.4 53.34 180) (length 7.62)
        (name "A2" (effects (font (size 1.27 1.27))))
        (number "33" (effects (font (size 1.27 1.27))))
      )
      (pin output line (at 25.4 50.8 180) (length 7.62)
        (name "A3" (effects (font (size 1.27 1.27))))
        (number "34" (effects (font (size 1.27 1.27))))
      )
      (pin output line (at 25.4 48.26 180) (length 7.62)
        (name "A4" (effects (font (size 1.27 1.27))))
        (number "35" (effects (font (size 1.27 1.27))))
      )
      (pin output line (at 25.4 45.72 180) (length 7.62)
        (name "A5" (effects (font (size 1.27 1.27))))
        (number "36" (effects (font (size 1.27 1.27))))
      )
      (pin output line (at 25.4 43.18 180) (length 7.62)
        (name "A6" (effects (font (size 1.27 1.27))))
        (number "37" (effects (font (size 1.27 1.27))))
      )
      (pin output line (at 25.4 40.64 180) (length 7.62)
        (name "A7" (effects (font (size 1.27 1.27))))
        (number "38" (effects (font (size 1.27 1.27))))
      )
      (pin output line (at 25.4 38.1 180) (length 7.62)
        (name "A8" (effects (font (size 1.27 1.27))))
        (number "39" (effects (font (size 1.27 1.27))))
      )
      (pin bidirectional line (at 25.4 -7.62 180) (length 7.62)
        (name "D1" (effects (font (size 1.27 1.27))))
        (number "4" (effects (font (size 1.27 1.27))))
      )
      (pin output line (at 25.4 35.56 180) (length 7.62)
        (name "A9" (effects (font (size 1.27 1.27))))
        (number "40" (effects (font (size 1.27 1.27))))
      )
      (pin output line (at 25.4 33.02 180) (length 7.62)
        (name "A10" (effects (font (size 1.27 1.27))))
        (number "41" (effects (font (size 1.27 1.27))))
      )
      (pin output line (at 25.4 30.48 180) (length 7.62)
        (name "A11" (effects (font (size 1.27 1.27))))
        (number "42" (effects (font (size 1.27 1.27))))
      )
      (pin output line (at 25.4 27.94 180) (length 7.62)
        (name "A12" (effects (font (size 1.27 1.27))))
        (number "43" (effects (font (size 1.27 1.27))))
      )
      (pin output line (at 25.4 25.4 180) (length 7.62)
        (name "A13" (effects (font (size 1.27 1.27))))
        (number "44" (effects (font (size 1.27 1.27))))
      )
      (pin output line (at 25.4 22.86 180) (length 7.62)
        (name "A14" (effects (font (size 1.27 1.27))))
        (number "45" (effects (font (size 1.27 1.27))))
      )
      (pin output line (at 25.4 20.32 180) (length 7.62)
        (name "A15" (effects (font (size 1.27 1.27))))
        (number "46" (effects (font (size 1.27 1.27))))
      )
      (pin output line (at 25.4 17.78 180) (length 7.62)
        (name "A16" (effects (font (size 1.27 1.27))))
        (number "47" (effects (font (size 1.27 1.27))))
      )
      (pin output line (at 25.4 15.24 180) (length 7.62)
        (name "A17" (effects (font (size 1.27 1.27))))
        (number "48" (effects (font (size 1.27 1.27))))
      )
      (pin output line (at 25.4 12.7 180) (length 7.62)
        (name "A18" (effects (font (size 1.27 1.27))))
        (number "49" (effects (font (size 1.27 1.27))))
      )
      (pin bidirectional line (at 25.4 -5.08 180) (length 7.62)
        (name "D0" (effects (font (size 1.27 1.27))))
        (number "5" (effects (font (size 1.27 1.27))))
      )
      (pin output line (at 25.4 10.16 180) (length 7.62)
        (name "A19" (effects (font (size 1.27 1.27))))
        (number "50" (effects (font (size 1.27 1.27))))
      )
      (pin output line (at 25.4 7.62 180) (length 7.62)
        (name "A20" (effects (font (size 1.27 1.27))))
        (number "51" (effects (font (size 1.27 1.27))))
      )
      (pin power_in line (at 2.54 66.04 270) (length 7.62)
        (name "VCC" (effects (font (size 1.27 1.27))))
        (number "52" (effects (font (size 1.27 1.27))))
      )
      (pin output line (at 25.4 5.08 180) (length 7.62)
        (name "A21" (effects (font (size 1.27 1.27))))
        (number "53" (effects (font (size 1.27 1.27))))
      )
      (pin output line (at 25.4 2.54 180) (length 7.62)
        (name "A22" (effects (font (size 1.27 1.27))))
        (number "54" (effects (font (size 1.27 1.27))))
      )
      (pin output line (at 25.4 0 180) (length 7.62)
        (name "A23" (effects (font (size 1.27 1.27))))
        (number "55" (effects (font (size 1.27 1.27))))
      )
      (pin power_in line (at -2.54 -66.04 90) (length 7.62)
        (name "GND" (effects (font (size 1.27 1.27))))
        (number "56" (effects (font (size 1.27 1.27))))
      )
      (pin power_in line (at -5.08 -66.04 90) (length 7.62)
        (name "GND" (effects (font (size 1.27 1.27))))
        (number "57" (effects (font (size 1.27 1.27))))
      )
      (pin bidirectional line (at 25.4 -43.18 180) (length 7.62)
        (name "D15" (effects (font (size 1.27 1.27))))
        (number "58" (effects (font (size 1.27 1.27))))
      )
      (pin bidirectional line (at 25.4 -40.64 180) (length 7.62)
        (name "D14" (effects (font (size 1.27 1.27))))
        (number "59" (effects (font (size 1.27 1.27))))
      )
      (pin output inverted (at 25.4 -48.26 180) (length 7.62)
        (name "AS" (effects (font (size 1.27 1.27))))
        (number "6" (effects (font (size 1.27 1.27))))
      )
      (pin bidirectional line (at 25.4 -38.1 180) (length 7.62)
        (name "D13" (effects (font (size 1.27 1.27))))
        (number "60" (effects (font (size 1.27 1.27))))
      )
      (pin bidirectional line (at 25.4 -35.56 180) (length 7.62)
        (name "D12" (effects (font (size 1.27 1.27))))
        (number "61" (effects (font (size 1.27 1.27))))
      )
      (pin bidirectional line (at 25.4 -33.02 180) (length 7.62)
        (name "D11" (effects (font (size 1.27 1.27))))
        (number "62" (effects (font (size 1.27 1.27))))
      )
      (pin bidirectional line (at 25.4 -30.48 180) (length 7.62)
        (name "D10" (effects (font (size 1.27 1.27))))
        (number "63" (effects (font (size 1.27 1.27))))
      )
      (pin bidirectional line (at 25.4 -27.94 180) (length 7.62)
        (name "D9" (effects (font (size 1.27 1.27))))
        (number "64" (effects (font (size 1.27 1.27))))
      )
      (pin bidirectional line (at 25.4 -25.4 180) (length 7.62)
        (name "D8" (effects (font (size 1.27 1.27))))
        (number "65" (effects (font (size 1.27 1.27))))
      )
      (pin bidirectional line (at 25.4 -22.86 180) (length 7.62)
        (name "D7" (effects (font (size 1.27 1.27))))
        (number "66" (effects (font (size 1.27 1.27))))
      )
      (pin bidirectional line (at 25.4 -20.32 180) (length 7.62)
        (name "D6" (effects (font (size 1.27 1.27))))
        (number "67" (effects (font (size 1.27 1.27))))
      )
      (pin bidirectional line (at 25.4 -17.78 180) (length 7.62)
        (name "D5" (effects (font (size 1.27 1.27))))
        (number "68" (effects (font (size 1.27 1.27))))
      )
      (pin output inverted (at 25.4 -50.8 180) (length 7.62)
        (name "UDS" (effects (font (size 1.27 1.27))))
        (number "7" (effects (font (size 1.27 1.27))))
      )
      (pin output inverted (at 25.4 -53.34 180) (length 7.62)
        (name "LDS" (effects (font (size 1.27 1.27))))
        (number "8" (effects (font (size 1.27 1.27))))
      )
      (pin output line (at 25.4 -55.88 180) (length 7.62)
        (name "R/W" (effects (font (size 1.27 1.27))))
        (number "9" (effects (font (size 1.27 1.27))))
      )
    )
  )
  (symbol "CPU_NXP_68000:MC68332" (pin_names (offset 1.016)) (in_bom yes) (on_board yes)
    (property "Reference" "U" (id 0) (at -24.13 85.09 0)
      (effects (font (size 1.27 1.27)))
    )
    (property "Value" "MC68332" (id 1) (at 21.336 85.09 0)
      (effects (font (size 1.27 1.27)))
    )
    (property "Footprint" "Package_QFP:PQFP-132_24x24mm_P0.635mm" (id 2) (at 0 -99.06 0)
      (effects (font (size 1.27 1.27)) hide)
    )
    (property "Datasheet" "http://pdf.datasheetcatalog.com/datasheet/motorola/SPAKMC332AVFC20.pdf" (id 3) (at 53.34 58.42 0)
      (effects (font (size 1.27 1.27)) hide)
    )
    (property "ki_keywords" "MCU 32 bit" (id 4) (at 0 0 0)
      (effects (font (size 1.27 1.27)) hide)
    )
    (property "ki_description" "MCU 32 bit, PQFP-132" (id 5) (at 0 0 0)
      (effects (font (size 1.27 1.27)) hide)
    )
    (property "ki_fp_filters" "PQFP*24x24mm*P0.635mm*" (id 6) (at 0 0 0)
      (effects (font (size 1.27 1.27)) hide)
    )
    (symbol "MC68332_0_1"
      (rectangle (start -25.4 -83.82) (end 25.4 83.82)
        (stroke (width 0.254)) (fill (type background))
      )
    )
    (symbol "MC68332_1_0"
      (pin power_in line (at -17.78 -88.9 90) (length 5.08)
        (name "VSS" (effects (font (size 1.27 1.27))))
        (number "2" (effects (font (size 1.27 1.27))))
      )
    )
    (symbol "MC68332_1_1"
      (pin power_in line (at -15.24 88.9 270) (length 5.08)
        (name "VDD" (effects (font (size 1.27 1.27))))
        (number "1" (effects (font (size 1.27 1.27))))
      )
      (pin input line (at -33.02 58.42 0) (length 7.62)
        (name "TP6" (effects (font (size 1.27 1.27))))
        (number "10" (effects (font (size 1.27 1.27))))
      )
      (pin input line (at 33.02 -33.02 180) (length 7.62)
        (name "D8" (effects (font (size 1.27 1.27))))
        (number "100" (effects (font (size 1.27 1.27))))
      )
      (pin power_in line (at 10.16 -88.9 90) (length 5.08)
        (name "VSS" (effects (font (size 1.27 1.27))))
        (number "101" (effects (font (size 1.27 1.27))))
      )
      (pin input line (at 33.02 -30.48 180) (length 7.62)
        (name "D7" (effects (font (size 1.27 1.27))))
        (number "102" (effects (font (size 1.27 1.27))))
      )
      (pin input line (at 33.02 -27.94 180) (length 7.62)
        (name "D6" (effects (font (size 1.27 1.27))))
        (number "103" (effects (font (size 1.27 1.27))))
      )
      (pin input line (at 33.02 -25.4 180) (length 7.62)
        (name "D5" (effects (font (size 1.27 1.27))))
        (number "104" (effects (font (size 1.27 1.27))))
      )
      (pin input line (at 33.02 -22.86 180) (length 7.62)
        (name "D4" (effects (font (size 1.27 1.27))))
        (number "105" (effects (font (size 1.27 1.27))))
      )
      (pin power_in line (at 12.7 -88.9 90) (length 5.08)
        (name "VSS" (effects (font (size 1.27 1.27))))
        (number "106" (effects (font (size 1.27 1.27))))
      )
      (pin power_in line (at 10.16 88.9 270) (length 5.08)
        (name "VDD" (effects (font (size 1.27 1.27))))
        (number "107" (effects (font (size 1.27 1.27))))
      )
      (pin input line (at 33.02 -20.32 180) (length 7.62)
        (name "D3" (effects (font (size 1.27 1.27))))
        (number "108" (effects (font (size 1.27 1.27))))
      )
      (pin input line (at 33.02 -17.78 180) (length 7.62)
        (name "D2" (effects (font (size 1.27 1.27))))
        (number "109" (effects (font (size 1.27 1.27))))
      )
      (pin input line (at -33.02 60.96 0) (length 7.62)
        (name "TP5" (effects (font (size 1.27 1.27))))
        (number "11" (effects (font (size 1.27 1.27))))
      )
      (pin input line (at 33.02 -15.24 180) (length 7.62)
        (name "D1" (effects (font (size 1.27 1.27))))
        (number "110" (effects (font (size 1.27 1.27))))
      )
      (pin input line (at 33.02 -12.7 180) (length 7.62)
        (name "D0" (effects (font (size 1.27 1.27))))
        (number "111" (effects (font (size 1.27 1.27))))
      )
      (pin output line (at 33.02 43.18 180) (length 7.62)
        (name "CSBOOT" (effects (font (size 1.27 1.27))))
        (number "112" (effects (font (size 1.27 1.27))))
      )
      (pin input line (at 33.02 48.26 180) (length 7.62)
        (name "BR/CS0" (effects (font (size 1.27 1.27))))
        (number "113" (effects (font (size 1.27 1.27))))
      )
      (pin output line (at 33.02 50.8 180) (length 7.62)
        (name "BG/CS1" (effects (font (size 1.27 1.27))))
        (number "114" (effects (font (size 1.27 1.27))))
      )
      (pin input line (at 33.02 53.34 180) (length 7.62)
        (name "BGACK/CS2" (effects (font (size 1.27 1.27))))
        (number "115" (effects (font (size 1.27 1.27))))
      )
      (pin power_in line (at 12.7 88.9 270) (length 5.08)
        (name "VDD" (effects (font (size 1.27 1.27))))
        (number "116" (effects (font (size 1.27 1.27))))
      )
      (pin power_in line (at 15.24 -88.9 90) (length 5.08)
        (name "VSS" (effects (font (size 1.27 1.27))))
        (number "117" (effects (font (size 1.27 1.27))))
      )
      (pin output line (at 33.02 55.88 180) (length 7.62)
        (name "FC0/CS3" (effects (font (size 1.27 1.27))))
        (number "118" (effects (font (size 1.27 1.27))))
      )
      (pin output line (at 33.02 58.42 180) (length 7.62)
        (name "FC1/CS4" (effects (font (size 1.27 1.27))))
        (number "119" (effects (font (size 1.27 1.27))))
      )
      (pin input line (at -33.02 63.5 0) (length 7.62)
        (name "TP4" (effects (font (size 1.27 1.27))))
        (number "12" (effects (font (size 1.27 1.27))))
      )
      (pin output line (at 33.02 60.96 180) (length 7.62)
        (name "FC2/CS5" (effects (font (size 1.27 1.27))))
        (number "120" (effects (font (size 1.27 1.27))))
      )
      (pin output line (at 33.02 63.5 180) (length 7.62)
        (name "A19/CS6" (effects (font (size 1.27 1.27))))
        (number "121" (effects (font (size 1.27 1.27))))
      )
      (pin output line (at 33.02 66.04 180) (length 7.62)
        (name "A20/CS7" (effects (font (size 1.27 1.27))))
        (number "122" (effects (font (size 1.27 1.27))))
      )
      (pin output line (at 33.02 68.58 180) (length 7.62)
        (name "A21/CS8" (effects (font (size 1.27 1.27))))
        (number "123" (effects (font (size 1.27 1.27))))
      )
      (pin output line (at 33.02 71.12 180) (length 7.62)
        (name "A22/CS9" (effects (font (size 1.27 1.27))))
        (number "124" (effects (font (size 1.27 1.27))))
      )
      (pin output line (at 33.02 73.66 180) (length 7.62)
        (name "A23/CS10" (effects (font (size 1.27 1.27))))
        (number "125" (effects (font (size 1.27 1.27))))
      )
      (pin power_in line (at 15.24 88.9 270) (length 5.08)
        (name "VDD" (effects (font (size 1.27 1.27))))
        (number "126" (effects (font (size 1.27 1.27))))
      )
      (pin power_in line (at 17.78 -88.9 90) (length 5.08)
        (name "VSS" (effects (font (size 1.27 1.27))))
        (number "127" (effects (font (size 1.27 1.27))))
      )
      (pin input line (at -33.02 33.02 0) (length 7.62)
        (name "T2CLK" (effects (font (size 1.27 1.27))))
        (number "128" (effects (font (size 1.27 1.27))))
      )
      (pin input line (at -33.02 35.56 0) (length 7.62)
        (name "TP15" (effects (font (size 1.27 1.27))))
        (number "129" (effects (font (size 1.27 1.27))))
      )
      (pin input line (at -33.02 66.04 0) (length 7.62)
        (name "TP3" (effects (font (size 1.27 1.27))))
        (number "13" (effects (font (size 1.27 1.27))))
      )
      (pin input line (at -33.02 38.1 0) (length 7.62)
        (name "TP14" (effects (font (size 1.27 1.27))))
        (number "130" (effects (font (size 1.27 1.27))))
      )
      (pin input line (at -33.02 40.64 0) (length 7.62)
        (name "TP13" (effects (font (size 1.27 1.27))))
        (number "131" (effects (font (size 1.27 1.27))))
      )
      (pin input line (at -33.02 43.18 0) (length 7.62)
        (name "TP12" (effects (font (size 1.27 1.27))))
        (number "132" (effects (font (size 1.27 1.27))))
      )
      (pin input line (at -33.02 68.58 0) (length 7.62)
        (name "TP2" (effects (font (size 1.27 1.27))))
        (number "14" (effects (font (size 1.27 1.27))))
      )
      (pin input line (at -33.02 71.12 0) (length 7.62)
        (name "TP1" (effects (font (size 1.27 1.27))))
        (number "15" (effects (font (size 1.27 1.27))))
      )
      (pin input line (at -33.02 73.66 0) (length 7.62)
        (name "TP0" (effects (font (size 1.27 1.27))))
        (number "16" (effects (font (size 1.27 1.27))))
      )
      (pin power_in line (at -12.7 -88.9 90) (length 5.08)
        (name "VSS" (effects (font (size 1.27 1.27))))
        (number "17" (effects (font (size 1.27 1.27))))
      )
      (pin power_in line (at -10.16 88.9 270) (length 5.08)
        (name "VDD" (effects (font (size 1.27 1.27))))
        (number "18" (effects (font (size 1.27 1.27))))
      )
      (pin input line (at -33.02 27.94 0) (length 7.62)
        (name "VSTBY" (effects (font (size 1.27 1.27))))
        (number "19" (effects (font (size 1.27 1.27))))
      )
      (pin output line (at 33.02 -5.08 180) (length 7.62)
        (name "A1" (effects (font (size 1.27 1.27))))
        (number "20" (effects (font (size 1.27 1.27))))
      )
      (pin output line (at 33.02 -2.54 180) (length 7.62)
        (name "A2" (effects (font (size 1.27 1.27))))
        (number "21" (effects (font (size 1.27 1.27))))
      )
      (pin output line (at 33.02 0 180) (length 7.62)
        (name "A3" (effects (font (size 1.27 1.27))))
        (number "22" (effects (font (size 1.27 1.27))))
      )
      (pin output line (at 33.02 2.54 180) (length 7.62)
        (name "A4" (effects (font (size 1.27 1.27))))
        (number "23" (effects (font (size 1.27 1.27))))
      )
      (pin output line (at 33.02 5.08 180) (length 7.62)
        (name "A5" (effects (font (size 1.27 1.27))))
        (number "24" (effects (font (size 1.27 1.27))))
      )
      (pin output line (at 33.02 7.62 180) (length 7.62)
        (name "A6" (effects (font (size 1.27 1.27))))
        (number "25" (effects (font (size 1.27 1.27))))
      )
      (pin output line (at 33.02 10.16 180) (length 7.62)
        (name "A7" (effects (font (size 1.27 1.27))))
        (number "26" (effects (font (size 1.27 1.27))))
      )
      (pin output line (at 33.02 12.7 180) (length 7.62)
        (name "A8" (effects (font (size 1.27 1.27))))
        (number "27" (effects (font (size 1.27 1.27))))
      )
      (pin power_in line (at -7.62 88.9 270) (length 5.08)
        (name "VDD" (effects (font (size 1.27 1.27))))
        (number "28" (effects (font (size 1.27 1.27))))
      )
      (pin power_in line (at -10.16 -88.9 90) (length 5.08)
        (name "VSS" (effects (font (size 1.27 1.27))))
        (number "29" (effects (font (size 1.27 1.27))))
      )
      (pin input line (at -33.02 45.72 0) (length 7.62)
        (name "TP11" (effects (font (size 1.27 1.27))))
        (number "3" (effects (font (size 1.27 1.27))))
      )
      (pin output line (at 33.02 15.24 180) (length 7.62)
        (name "A9" (effects (font (size 1.27 1.27))))
        (number "30" (effects (font (size 1.27 1.27))))
      )
      (pin output line (at 33.02 17.78 180) (length 7.62)
        (name "A10" (effects (font (size 1.27 1.27))))
        (number "31" (effects (font (size 1.27 1.27))))
      )
      (pin output line (at 33.02 20.32 180) (length 7.62)
        (name "A11" (effects (font (size 1.27 1.27))))
        (number "32" (effects (font (size 1.27 1.27))))
      )
      (pin output line (at 33.02 22.86 180) (length 7.62)
        (name "A12" (effects (font (size 1.27 1.27))))
        (number "33" (effects (font (size 1.27 1.27))))
      )
      (pin power_in line (at -7.62 -88.9 90) (length 5.08)
        (name "VSS" (effects (font (size 1.27 1.27))))
        (number "34" (effects (font (size 1.27 1.27))))
      )
      (pin output line (at 33.02 25.4 180) (length 7.62)
        (name "A13" (effects (font (size 1.27 1.27))))
        (number "35" (effects (font (size 1.27 1.27))))
      )
      (pin output line (at 33.02 27.94 180) (length 7.62)
        (name "A14" (effects (font (size 1.27 1.27))))
        (number "36" (effects (font (size 1.27 1.27))))
      )
      (pin output line (at 33.02 30.48 180) (length 7.62)
        (name "A15" (effects (font (size 1.27 1.27))))
        (number "37" (effects (font (size 1.27 1.27))))
      )
      (pin output line (at 33.02 33.02 180) (length 7.62)
        (name "A16" (effects (font (size 1.27 1.27))))
        (number "38" (effects (font (size 1.27 1.27))))
      )
      (pin power_in line (at -5.08 88.9 270) (length 5.08)
        (name "VDD" (effects (font (size 1.27 1.27))))
        (number "39" (effects (font (size 1.27 1.27))))
      )
      (pin input line (at -33.02 48.26 0) (length 7.62)
        (name "TP10" (effects (font (size 1.27 1.27))))
        (number "4" (effects (font (size 1.27 1.27))))
      )
      (pin power_in line (at -5.08 -88.9 90) (length 5.08)
        (name "VSS" (effects (font (size 1.27 1.27))))
        (number "40" (effects (font (size 1.27 1.27))))
      )
      (pin output line (at 33.02 35.56 180) (length 7.62)
        (name "A17" (effects (font (size 1.27 1.27))))
        (number "41" (effects (font (size 1.27 1.27))))
      )
      (pin output line (at 33.02 38.1 180) (length 7.62)
        (name "A18" (effects (font (size 1.27 1.27))))
        (number "42" (effects (font (size 1.27 1.27))))
      )
      (pin input line (at -33.02 -63.5 0) (length 7.62)
        (name "MISO" (effects (font (size 1.27 1.27))))
        (number "43" (effects (font (size 1.27 1.27))))
      )
      (pin input line (at -33.02 -60.96 0) (length 7.62)
        (name "MOSI" (effects (font (size 1.27 1.27))))
        (number "44" (effects (font (size 1.27 1.27))))
      )
      (pin input line (at -33.02 -58.42 0) (length 7.62)
        (name "SCK" (effects (font (size 1.27 1.27))))
        (number "45" (effects (font (size 1.27 1.27))))
      )
      (pin input line (at -33.02 -55.88 0) (length 7.62)
        (name "PSCO/SS" (effects (font (size 1.27 1.27))))
        (number "46" (effects (font (size 1.27 1.27))))
      )
      (pin input line (at -33.02 -53.34 0) (length 7.62)
        (name "PCS1" (effects (font (size 1.27 1.27))))
        (number "47" (effects (font (size 1.27 1.27))))
      )
      (pin input line (at -33.02 -50.8 0) (length 7.62)
        (name "PCS2" (effects (font (size 1.27 1.27))))
        (number "48" (effects (font (size 1.27 1.27))))
      )
      (pin input line (at -33.02 -48.26 0) (length 7.62)
        (name "PCS3" (effects (font (size 1.27 1.27))))
        (number "49" (effects (font (size 1.27 1.27))))
      )
      (pin input line (at -33.02 50.8 0) (length 7.62)
        (name "TP9" (effects (font (size 1.27 1.27))))
        (number "5" (effects (font (size 1.27 1.27))))
      )
      (pin power_in line (at -2.54 88.9 270) (length 5.08)
        (name "VDD" (effects (font (size 1.27 1.27))))
        (number "50" (effects (font (size 1.27 1.27))))
      )
      (pin power_in line (at -2.54 -88.9 90) (length 5.08)
        (name "VSS" (effects (font (size 1.27 1.27))))
        (number "51" (effects (font (size 1.27 1.27))))
      )
      (pin input line (at -33.02 -45.72 0) (length 7.62)
        (name "TXD" (effects (font (size 1.27 1.27))))
        (number "52" (effects (font (size 1.27 1.27))))
      )
      (pin input line (at -33.02 -43.18 0) (length 7.62)
        (name "RXD" (effects (font (size 1.27 1.27))))
        (number "53" (effects (font (size 1.27 1.27))))
      )
      (pin output line (at -33.02 -38.1 0) (length 7.62)
        (name "IPIPE/DSO" (effects (font (size 1.27 1.27))))
        (number "54" (effects (font (size 1.27 1.27))))
      )
      (pin input line (at -33.02 -35.56 0) (length 7.62)
        (name "IFETCH/DSI" (effects (font (size 1.27 1.27))))
        (number "55" (effects (font (size 1.27 1.27))))
      )
      (pin input line (at -33.02 -33.02 0) (length 7.62)
        (name "BKPT/DSCLK" (effects (font (size 1.27 1.27))))
        (number "56" (effects (font (size 1.27 1.27))))
      )
      (pin input line (at -33.02 -30.48 0) (length 7.62)
        (name "TSTME/TSC" (effects (font (size 1.27 1.27))))
        (number "57" (effects (font (size 1.27 1.27))))
      )
      (pin output line (at -33.02 -27.94 0) (length 7.62)
        (name "FREEZE/QUOT" (effects (font (size 1.27 1.27))))
        (number "58" (effects (font (size 1.27 1.27))))
      )
      (pin power_in line (at 0 -88.9 90) (length 5.08)
        (name "VSS" (effects (font (size 1.27 1.27))))
        (number "59" (effects (font (size 1.27 1.27))))
      )
      (pin input line (at -33.02 53.34 0) (length 7.62)
        (name "TP8" (effects (font (size 1.27 1.27))))
        (number "6" (effects (font (size 1.27 1.27))))
      )
      (pin output line (at -33.02 -22.86 0) (length 7.62)
        (name "XTAL" (effects (font (size 1.27 1.27))))
        (number "60" (effects (font (size 1.27 1.27))))
      )
      (pin input line (at -33.02 -15.24 0) (length 7.62)
        (name "VDDSYN" (effects (font (size 1.27 1.27))))
        (number "61" (effects (font (size 1.27 1.27))))
      )
      (pin input line (at -33.02 -20.32 0) (length 7.62)
        (name "EXTAL" (effects (font (size 1.27 1.27))))
        (number "62" (effects (font (size 1.27 1.27))))
      )
      (pin power_in line (at 0 88.9 270) (length 5.08)
        (name "VDD" (effects (font (size 1.27 1.27))))
        (number "63" (effects (font (size 1.27 1.27))))
      )
      (pin input line (at -33.02 -12.7 0) (length 7.62)
        (name "XFC" (effects (font (size 1.27 1.27))))
        (number "64" (effects (font (size 1.27 1.27))))
      )
      (pin power_in line (at 2.54 88.9 270) (length 5.08)
        (name "VDD" (effects (font (size 1.27 1.27))))
        (number "65" (effects (font (size 1.27 1.27))))
      )
      (pin output line (at -33.02 -10.16 0) (length 7.62)
        (name "CLKOUT" (effects (font (size 1.27 1.27))))
        (number "66" (effects (font (size 1.27 1.27))))
      )
      (pin power_in line (at 2.54 -88.9 90) (length 5.08)
        (name "VSS" (effects (font (size 1.27 1.27))))
        (number "67" (effects (font (size 1.27 1.27))))
      )
      (pin input line (at -33.02 -7.62 0) (length 7.62)
        (name "RESET" (effects (font (size 1.27 1.27))))
        (number "68" (effects (font (size 1.27 1.27))))
      )
      (pin input line (at -33.02 -5.08 0) (length 7.62)
        (name "HALT" (effects (font (size 1.27 1.27))))
        (number "69" (effects (font (size 1.27 1.27))))
      )
      (pin power_in line (at -12.7 88.9 270) (length 5.08)
        (name "VDD" (effects (font (size 1.27 1.27))))
        (number "7" (effects (font (size 1.27 1.27))))
      )
      (pin input line (at -33.02 -2.54 0) (length 7.62)
        (name "BERR" (effects (font (size 1.27 1.27))))
        (number "70" (effects (font (size 1.27 1.27))))
      )
      (pin input line (at -33.02 2.54 0) (length 7.62)
        (name "IRQ7" (effects (font (size 1.27 1.27))))
        (number "71" (effects (font (size 1.27 1.27))))
      )
      (pin input line (at -33.02 5.08 0) (length 7.62)
        (name "IRQ6" (effects (font (size 1.27 1.27))))
        (number "72" (effects (font (size 1.27 1.27))))
      )
      (pin input line (at -33.02 7.62 0) (length 7.62)
        (name "IRQ5" (effects (font (size 1.27 1.27))))
        (number "73" (effects (font (size 1.27 1.27))))
      )
      (pin input line (at -33.02 10.16 0) (length 7.62)
        (name "IRQ4" (effects (font (size 1.27 1.27))))
        (number "74" (effects (font (size 1.27 1.27))))
      )
      (pin input line (at -33.02 12.7 0) (length 7.62)
        (name "IRQ3" (effects (font (size 1.27 1.27))))
        (number "75" (effects (font (size 1.27 1.27))))
      )
      (pin input line (at -33.02 15.24 0) (length 7.62)
        (name "IRQ2" (effects (font (size 1.27 1.27))))
        (number "76" (effects (font (size 1.27 1.27))))
      )
      (pin input line (at -33.02 17.78 0) (length 7.62)
        (name "IRQ1" (effects (font (size 1.27 1.27))))
        (number "77" (effects (font (size 1.27 1.27))))
      )
      (pin input line (at -33.02 20.32 0) (length 7.62)
        (name "MODCK" (effects (font (size 1.27 1.27))))
        (number "78" (effects (font (size 1.27 1.27))))
      )
      (pin input line (at -33.02 22.86 0) (length 7.62)
        (name "R/W" (effects (font (size 1.27 1.27))))
        (number "79" (effects (font (size 1.27 1.27))))
      )
      (pin power_in line (at -15.24 -88.9 90) (length 5.08)
        (name "VSS" (effects (font (size 1.27 1.27))))
        (number "8" (effects (font (size 1.27 1.27))))
      )
      (pin input line (at 33.02 -73.66 180) (length 7.62)
        (name "SIZ1" (effects (font (size 1.27 1.27))))
        (number "80" (effects (font (size 1.27 1.27))))
      )
      (pin input line (at 33.02 -71.12 180) (length 7.62)
        (name "SIZ0" (effects (font (size 1.27 1.27))))
        (number "81" (effects (font (size 1.27 1.27))))
      )
      (pin input line (at 33.02 -68.58 180) (length 7.62)
        (name "AS" (effects (font (size 1.27 1.27))))
        (number "82" (effects (font (size 1.27 1.27))))
      )
      (pin power_in line (at 5.08 -88.9 90) (length 5.08)
        (name "VSS" (effects (font (size 1.27 1.27))))
        (number "83" (effects (font (size 1.27 1.27))))
      )
      (pin power_in line (at 5.08 88.9 270) (length 5.08)
        (name "VDD" (effects (font (size 1.27 1.27))))
        (number "84" (effects (font (size 1.27 1.27))))
      )
      (pin input line (at 33.02 -66.04 180) (length 7.62)
        (name "DS" (effects (font (size 1.27 1.27))))
        (number "85" (effects (font (size 1.27 1.27))))
      )
      (pin input line (at 33.02 -63.5 180) (length 7.62)
        (name "RMC" (effects (font (size 1.27 1.27))))
        (number "86" (effects (font (size 1.27 1.27))))
      )
      (pin input line (at 33.02 -60.96 180) (length 7.62)
        (name "AVEC" (effects (font (size 1.27 1.27))))
        (number "87" (effects (font (size 1.27 1.27))))
      )
      (pin input line (at 33.02 -58.42 180) (length 7.62)
        (name "DSACK1" (effects (font (size 1.27 1.27))))
        (number "88" (effects (font (size 1.27 1.27))))
      )
      (pin input line (at 33.02 -55.88 180) (length 7.62)
        (name "DSACK0" (effects (font (size 1.27 1.27))))
        (number "89" (effects (font (size 1.27 1.27))))
      )
      (pin input line (at -33.02 55.88 0) (length 7.62)
        (name "TP7" (effects (font (size 1.27 1.27))))
        (number "9" (effects (font (size 1.27 1.27))))
      )
      (pin output line (at 33.02 -7.62 180) (length 7.62)
        (name "A0" (effects (font (size 1.27 1.27))))
        (number "90" (effects (font (size 1.27 1.27))))
      )
      (pin input line (at 33.02 -50.8 180) (length 7.62)
        (name "D15" (effects (font (size 1.27 1.27))))
        (number "91" (effects (font (size 1.27 1.27))))
      )
      (pin input line (at 33.02 -48.26 180) (length 7.62)
        (name "D14" (effects (font (size 1.27 1.27))))
        (number "92" (effects (font (size 1.27 1.27))))
      )
      (pin input line (at 33.02 -45.72 180) (length 7.62)
        (name "D13" (effects (font (size 1.27 1.27))))
        (number "93" (effects (font (size 1.27 1.27))))
      )
      (pin input line (at 33.02 -43.18 180) (length 7.62)
        (name "D12" (effects (font (size 1.27 1.27))))
        (number "94" (effects (font (size 1.27 1.27))))
      )
      (pin power_in line (at 7.62 -88.9 90) (length 5.08)
        (name "VSS" (effects (font (size 1.27 1.27))))
        (number "95" (effects (font (size 1.27 1.27))))
      )
      (pin power_in line (at 7.62 88.9 270) (length 5.08)
        (name "VDD" (effects (font (size 1.27 1.27))))
        (number "96" (effects (font (size 1.27 1.27))))
      )
      (pin input line (at 33.02 -40.64 180) (length 7.62)
        (name "D11" (effects (font (size 1.27 1.27))))
        (number "97" (effects (font (size 1.27 1.27))))
      )
      (pin input line (at 33.02 -38.1 180) (length 7.62)
        (name "D10" (effects (font (size 1.27 1.27))))
        (number "98" (effects (font (size 1.27 1.27))))
      )
      (pin input line (at 33.02 -35.56 180) (length 7.62)
        (name "D9" (effects (font (size 1.27 1.27))))
        (number "99" (effects (font (size 1.27 1.27))))
      )
    )
  )
)
