(kicad_symbol_lib (version 20201005) (generator kicad_symbol_editor)
  (symbol "Driver_Haptic:DRV2510-Q1" (in_bom yes) (on_board yes)
    (property "Reference" "U" (id 0) (at 1.27 -13.97 0)
      (effects (font (size 1.27 1.27)) (justify left))
    )
    (property "Value" "DRV2510-Q1" (id 1) (at 1.27 -16.51 0)
      (effects (font (size 1.27 1.27)) (justify left))
    )
    (property "Footprint" "Package_SO:HTSSOP-16-1EP_4.4x5mm_P0.65mm_EP3.4x5mm_Mask3x3mm_ThermalVias" (id 2) (at 1.27 -19.05 0)
      (effects (font (size 1.27 1.27)) (justify left) hide)
    )
    (property "Datasheet" "http://www.ti.com/lit/ds/symlink/drv2510-q1.pdf" (id 3) (at 1.27 -19.05 0)
      (effects (font (size 1.27 1.27)) hide)
    )
    (property "ki_keywords" "driver haptic solenoid coil" (id 4) (at 0 0 0)
      (effects (font (size 1.27 1.27)) hide)
    )
    (property "ki_description" "Haptic driver for solenoids and voice coils, up to 3A output, TSSOP-16" (id 5) (at 0 0 0)
      (effects (font (size 1.27 1.27)) hide)
    )
    (property "ki_fp_filters" "HTSSOP*1EP*4.4x5mm*P0.65mm*" (id 6) (at 0 0 0)
      (effects (font (size 1.27 1.27)) hide)
    )
    (symbol "DRV2510-Q1_0_0"
      (pin power_in line (at 0 -15.24 90) (length 2.54)
        (name "GND" (effects (font (size 1.27 1.27))))
        (number "1" (effects (font (size 1.27 1.27))))
      )
      (pin passive line (at 12.7 -2.54 180) (length 2.54)
        (name "BSTN" (effects (font (size 1.27 1.27))))
        (number "10" (effects (font (size 1.27 1.27))))
      )
      (pin power_out line (at 12.7 2.54 180) (length 2.54)
        (name "OUT-" (effects (font (size 1.27 1.27))))
        (number "11" (effects (font (size 1.27 1.27))))
      )
      (pin power_out line (at 12.7 5.08 180) (length 2.54)
        (name "OUT+" (effects (font (size 1.27 1.27))))
        (number "12" (effects (font (size 1.27 1.27))))
      )
      (pin passive line (at 12.7 10.16 180) (length 2.54)
        (name "BSTP" (effects (font (size 1.27 1.27))))
        (number "13" (effects (font (size 1.27 1.27))))
      )
      (pin open_collector line (at -12.7 10.16 0) (length 2.54)
        (name "INTZ" (effects (font (size 1.27 1.27))))
        (number "14" (effects (font (size 1.27 1.27))))
      )
      (pin power_in line (at 0 15.24 270) (length 2.54)
        (name "VDD" (effects (font (size 1.27 1.27))))
        (number "15" (effects (font (size 1.27 1.27))))
      )
      (pin passive line (at 0 -15.24 90) (length 2.54) hide
        (name "GND" (effects (font (size 1.27 1.27))))
        (number "16" (effects (font (size 1.27 1.27))))
      )
      (pin passive line (at 0 -15.24 90) (length 2.54) hide
        (name "GND" (effects (font (size 1.27 1.27))))
        (number "17" (effects (font (size 1.27 1.27))))
      )
      (pin input line (at -12.7 7.62 0) (length 2.54)
        (name "EN" (effects (font (size 1.27 1.27))))
        (number "2" (effects (font (size 1.27 1.27))))
      )
      (pin passive line (at 12.7 -7.62 180) (length 2.54)
        (name "REG" (effects (font (size 1.27 1.27))))
        (number "3" (effects (font (size 1.27 1.27))))
      )
      (pin bidirectional line (at -12.7 0 0) (length 2.54)
        (name "SDA" (effects (font (size 1.27 1.27))))
        (number "4" (effects (font (size 1.27 1.27))))
      )
      (pin input line (at -12.7 -2.54 0) (length 2.54)
        (name "SCL" (effects (font (size 1.27 1.27))))
        (number "5" (effects (font (size 1.27 1.27))))
      )
      (pin input line (at -12.7 -7.62 0) (length 2.54)
        (name "IN+" (effects (font (size 1.27 1.27))))
        (number "6" (effects (font (size 1.27 1.27))))
      )
      (pin input line (at -12.7 -10.16 0) (length 2.54)
        (name "IN-" (effects (font (size 1.27 1.27))))
        (number "7" (effects (font (size 1.27 1.27))))
      )
      (pin input line (at -12.7 5.08 0) (length 2.54)
        (name "STDBY" (effects (font (size 1.27 1.27))))
        (number "8" (effects (font (size 1.27 1.27))))
      )
      (pin passive line (at 0 -15.24 90) (length 2.54) hide
        (name "GND" (effects (font (size 1.27 1.27))))
        (number "9" (effects (font (size 1.27 1.27))))
      )
    )
    (symbol "DRV2510-Q1_0_1"
      (rectangle (start -10.16 12.7) (end 10.16 -12.7)
        (stroke (width 0.254)) (fill (type background))
      )
    )
  )
  (symbol "Driver_Haptic:DRV2605LDGS" (in_bom yes) (on_board yes)
    (property "Reference" "U" (id 0) (at -10.16 8.255 0)
      (effects (font (size 1.27 1.27)) (justify left bottom))
    )
    (property "Value" "DRV2605LDGS" (id 1) (at 2.54 -8.89 0)
      (effects (font (size 1.27 1.27)) (justify left top))
    )
    (property "Footprint" "Package_SO:VSSOP-10_3x3mm_P0.5mm" (id 2) (at 0 0 0)
      (effects (font (size 1.27 1.27) italic) hide)
    )
    (property "Datasheet" "http://www.ti.com/lit/ds/symlink/drv2605l.pdf" (id 3) (at 0 0 0)
      (effects (font (size 1.27 1.27)) hide)
    )
    (property "ki_keywords" "haptic driver i2c" (id 4) (at 0 0 0)
      (effects (font (size 1.27 1.27)) hide)
    )
    (property "ki_description" "Haptic driver for LRAs and ERMs with effect library, 2-5.2V, VSSOP-10" (id 5) (at 0 0 0)
      (effects (font (size 1.27 1.27)) hide)
    )
    (property "ki_fp_filters" "VSSOP*3x3mm*P0.5mm*" (id 6) (at 0 0 0)
      (effects (font (size 1.27 1.27)) hide)
    )
    (symbol "DRV2605LDGS_0_1"
      (rectangle (start -10.16 7.62) (end 10.16 -7.62)
        (stroke (width 0.254)) (fill (type background))
      )
    )
    (symbol "DRV2605LDGS_1_1"
      (pin passive line (at 12.7 -5.08 180) (length 2.54)
        (name "REG" (effects (font (size 1.27 1.27))))
        (number "1" (effects (font (size 1.27 1.27))))
      )
      (pin power_in line (at 0 10.16 270) (length 2.54)
        (name "VDD" (effects (font (size 1.27 1.27))))
        (number "10" (effects (font (size 1.27 1.27))))
      )
      (pin input line (at -12.7 2.54 0) (length 2.54)
        (name "SCL" (effects (font (size 1.27 1.27))))
        (number "2" (effects (font (size 1.27 1.27))))
      )
      (pin bidirectional line (at -12.7 5.08 0) (length 2.54)
        (name "SDA" (effects (font (size 1.27 1.27))))
        (number "3" (effects (font (size 1.27 1.27))))
      )
      (pin input line (at -12.7 -2.54 0) (length 2.54)
        (name "IN/TRIG" (effects (font (size 1.27 1.27))))
        (number "4" (effects (font (size 1.27 1.27))))
      )
      (pin input line (at -12.7 -5.08 0) (length 2.54)
        (name "EN" (effects (font (size 1.27 1.27))))
        (number "5" (effects (font (size 1.27 1.27))))
      )
      (pin power_in line (at -2.54 10.16 270) (length 2.54)
        (name "VDD/NC" (effects (font (size 1.27 1.27))))
        (number "6" (effects (font (size 1.27 1.27))))
      )
      (pin output line (at 12.7 5.08 180) (length 2.54)
        (name "OUT+" (effects (font (size 1.27 1.27))))
        (number "7" (effects (font (size 1.27 1.27))))
      )
      (pin power_in line (at 0 -10.16 90) (length 2.54)
        (name "GND" (effects (font (size 1.27 1.27))))
        (number "8" (effects (font (size 1.27 1.27))))
      )
      (pin output line (at 12.7 2.54 180) (length 2.54)
        (name "OUT-" (effects (font (size 1.27 1.27))))
        (number "9" (effects (font (size 1.27 1.27))))
      )
    )
  )
)
