(kicad_symbol_lib (version 20201005) (generator kicad_symbol_editor)
  (symbol "Interface_HDMI:ADV7611" (in_bom yes) (on_board yes)
    (property "Reference" "U" (id 0) (at -30.48 49.53 0)
      (effects (font (size 1.27 1.27)) (justify left))
    )
    (property "Value" "ADV7611" (id 1) (at 30.48 49.53 0)
      (effects (font (size 1.27 1.27)) (justify right))
    )
    (property "Footprint" "Package_QFP:LQFP-64-1EP_10x10mm_P0.5mm_EP5x5mm" (id 2) (at 1.27 0 0)
      (effects (font (size 1.27 1.27)) hide)
    )
    (property "Datasheet" "https://www.analog.com/media/en/technical-documentation/data-sheets/adv7611.pdf" (id 3) (at 31.75 -10.16 0)
      (effects (font (size 1.27 1.27)) hide)
    )
    (property "ki_keywords" "hdmi" (id 4) (at 0 0 0)
      (effects (font (size 1.27 1.27)) hide)
    )
    (property "ki_description" "Low Power 165MHz HDMI Receiver, LQFP-64" (id 5) (at 0 0 0)
      (effects (font (size 1.27 1.27)) hide)
    )
    (property "ki_fp_filters" "LQFP*1EP*10x10mm*P0.5mm*" (id 6) (at 0 0 0)
      (effects (font (size 1.27 1.27)) hide)
    )
    (symbol "ADV7611_0_1"
      (rectangle (start -30.48 48.26) (end 30.48 -48.26)
        (stroke (width 0.254)) (fill (type background))
      )
    )
    (symbol "ADV7611_1_1"
      (pin bidirectional line (at -33.02 15.24 0) (length 2.54)
        (name "HPA_A/INT2" (effects (font (size 1.27 1.27))))
        (number "1" (effects (font (size 1.27 1.27))))
      )
      (pin input line (at -33.02 38.1 0) (length 2.54)
        (name "RXA_1+" (effects (font (size 1.27 1.27))))
        (number "10" (effects (font (size 1.27 1.27))))
      )
      (pin power_in line (at 10.16 50.8 270) (length 2.54)
        (name "TVDD" (effects (font (size 1.27 1.27))))
        (number "11" (effects (font (size 1.27 1.27))))
      )
      (pin input line (at -33.02 40.64 0) (length 2.54)
        (name "RXA_2−" (effects (font (size 1.27 1.27))))
        (number "12" (effects (font (size 1.27 1.27))))
      )
      (pin input line (at -33.02 43.18 0) (length 2.54)
        (name "RXA_2+" (effects (font (size 1.27 1.27))))
        (number "13" (effects (font (size 1.27 1.27))))
      )
      (pin power_in line (at -17.78 50.8 270) (length 2.54)
        (name "CVDD" (effects (font (size 1.27 1.27))))
        (number "14" (effects (font (size 1.27 1.27))))
      )
      (pin output line (at 33.02 43.18 180) (length 2.54)
        (name "P23" (effects (font (size 1.27 1.27))))
        (number "15" (effects (font (size 1.27 1.27))))
      )
      (pin output line (at 33.02 40.64 180) (length 2.54)
        (name "P22" (effects (font (size 1.27 1.27))))
        (number "16" (effects (font (size 1.27 1.27))))
      )
      (pin output line (at 33.02 38.1 180) (length 2.54)
        (name "P21" (effects (font (size 1.27 1.27))))
        (number "17" (effects (font (size 1.27 1.27))))
      )
      (pin output line (at 33.02 35.56 180) (length 2.54)
        (name "P20" (effects (font (size 1.27 1.27))))
        (number "18" (effects (font (size 1.27 1.27))))
      )
      (pin output line (at 33.02 33.02 180) (length 2.54)
        (name "P19" (effects (font (size 1.27 1.27))))
        (number "19" (effects (font (size 1.27 1.27))))
      )
      (pin power_in line (at -20.32 50.8 270) (length 2.54)
        (name "CVDD" (effects (font (size 1.27 1.27))))
        (number "2" (effects (font (size 1.27 1.27))))
      )
      (pin output line (at 33.02 30.48 180) (length 2.54)
        (name "P18" (effects (font (size 1.27 1.27))))
        (number "20" (effects (font (size 1.27 1.27))))
      )
      (pin output line (at 33.02 27.94 180) (length 2.54)
        (name "P17" (effects (font (size 1.27 1.27))))
        (number "21" (effects (font (size 1.27 1.27))))
      )
      (pin output line (at 33.02 25.4 180) (length 2.54)
        (name "P16" (effects (font (size 1.27 1.27))))
        (number "22" (effects (font (size 1.27 1.27))))
      )
      (pin power_in line (at 15.24 50.8 270) (length 2.54)
        (name "DVDDIO" (effects (font (size 1.27 1.27))))
        (number "23" (effects (font (size 1.27 1.27))))
      )
      (pin power_in line (at -12.7 50.8 270) (length 2.54)
        (name "DVDD" (effects (font (size 1.27 1.27))))
        (number "24" (effects (font (size 1.27 1.27))))
      )
      (pin output line (at 33.02 -27.94 180) (length 2.54)
        (name "LLC" (effects (font (size 1.27 1.27))))
        (number "25" (effects (font (size 1.27 1.27))))
      )
      (pin output line (at 33.02 22.86 180) (length 2.54)
        (name "P15" (effects (font (size 1.27 1.27))))
        (number "26" (effects (font (size 1.27 1.27))))
      )
      (pin output line (at 33.02 20.32 180) (length 2.54)
        (name "P14" (effects (font (size 1.27 1.27))))
        (number "27" (effects (font (size 1.27 1.27))))
      )
      (pin output line (at 33.02 17.78 180) (length 2.54)
        (name "P13" (effects (font (size 1.27 1.27))))
        (number "28" (effects (font (size 1.27 1.27))))
      )
      (pin output line (at 33.02 15.24 180) (length 2.54)
        (name "P12" (effects (font (size 1.27 1.27))))
        (number "29" (effects (font (size 1.27 1.27))))
      )
      (pin input line (at -33.02 25.4 0) (length 2.54)
        (name "RXA_C−" (effects (font (size 1.27 1.27))))
        (number "3" (effects (font (size 1.27 1.27))))
      )
      (pin output line (at 33.02 12.7 180) (length 2.54)
        (name "P11" (effects (font (size 1.27 1.27))))
        (number "30" (effects (font (size 1.27 1.27))))
      )
      (pin output line (at 33.02 10.16 180) (length 2.54)
        (name "P10" (effects (font (size 1.27 1.27))))
        (number "31" (effects (font (size 1.27 1.27))))
      )
      (pin output line (at 33.02 7.62 180) (length 2.54)
        (name "P9" (effects (font (size 1.27 1.27))))
        (number "32" (effects (font (size 1.27 1.27))))
      )
      (pin output line (at 33.02 5.08 180) (length 2.54)
        (name "P8" (effects (font (size 1.27 1.27))))
        (number "33" (effects (font (size 1.27 1.27))))
      )
      (pin power_in line (at 17.78 50.8 270) (length 2.54)
        (name "DVDDIO" (effects (font (size 1.27 1.27))))
        (number "34" (effects (font (size 1.27 1.27))))
      )
      (pin output line (at 33.02 2.54 180) (length 2.54)
        (name "P7" (effects (font (size 1.27 1.27))))
        (number "35" (effects (font (size 1.27 1.27))))
      )
      (pin output line (at 33.02 0 180) (length 2.54)
        (name "P6" (effects (font (size 1.27 1.27))))
        (number "36" (effects (font (size 1.27 1.27))))
      )
      (pin output line (at 33.02 -2.54 180) (length 2.54)
        (name "P5" (effects (font (size 1.27 1.27))))
        (number "37" (effects (font (size 1.27 1.27))))
      )
      (pin output line (at 33.02 -5.08 180) (length 2.54)
        (name "P4" (effects (font (size 1.27 1.27))))
        (number "38" (effects (font (size 1.27 1.27))))
      )
      (pin output line (at 33.02 -7.62 180) (length 2.54)
        (name "P3" (effects (font (size 1.27 1.27))))
        (number "39" (effects (font (size 1.27 1.27))))
      )
      (pin input line (at -33.02 27.94 0) (length 2.54)
        (name "RXA_C+" (effects (font (size 1.27 1.27))))
        (number "4" (effects (font (size 1.27 1.27))))
      )
      (pin power_in line (at -10.16 50.8 270) (length 2.54)
        (name "DVDD" (effects (font (size 1.27 1.27))))
        (number "40" (effects (font (size 1.27 1.27))))
      )
      (pin output line (at 33.02 -10.16 180) (length 2.54)
        (name "P2" (effects (font (size 1.27 1.27))))
        (number "41" (effects (font (size 1.27 1.27))))
      )
      (pin output line (at 33.02 -12.7 180) (length 2.54)
        (name "P1" (effects (font (size 1.27 1.27))))
        (number "42" (effects (font (size 1.27 1.27))))
      )
      (pin output line (at 33.02 -15.24 180) (length 2.54)
        (name "P0" (effects (font (size 1.27 1.27))))
        (number "43" (effects (font (size 1.27 1.27))))
      )
      (pin power_in line (at 20.32 50.8 270) (length 2.54)
        (name "DVDDIO" (effects (font (size 1.27 1.27))))
        (number "44" (effects (font (size 1.27 1.27))))
      )
      (pin output line (at 33.02 -20.32 180) (length 2.54)
        (name "DE" (effects (font (size 1.27 1.27))))
        (number "45" (effects (font (size 1.27 1.27))))
      )
      (pin output line (at 33.02 -22.86 180) (length 2.54)
        (name "HS" (effects (font (size 1.27 1.27))))
        (number "46" (effects (font (size 1.27 1.27))))
      )
      (pin bidirectional line (at 33.02 -25.4 180) (length 2.54)
        (name "VS/FIELD/ALSB" (effects (font (size 1.27 1.27))))
        (number "47" (effects (font (size 1.27 1.27))))
      )
      (pin output line (at 33.02 -33.02 180) (length 2.54)
        (name "AP" (effects (font (size 1.27 1.27))))
        (number "48" (effects (font (size 1.27 1.27))))
      )
      (pin output line (at 33.02 -35.56 180) (length 2.54)
        (name "SCLK/INT2" (effects (font (size 1.27 1.27))))
        (number "49" (effects (font (size 1.27 1.27))))
      )
      (pin power_in line (at 5.08 50.8 270) (length 2.54)
        (name "TVDD" (effects (font (size 1.27 1.27))))
        (number "5" (effects (font (size 1.27 1.27))))
      )
      (pin output line (at 33.02 -38.1 180) (length 2.54)
        (name "LRCLK" (effects (font (size 1.27 1.27))))
        (number "50" (effects (font (size 1.27 1.27))))
      )
      (pin output line (at 33.02 -40.64 180) (length 2.54)
        (name "MCLK/INT2" (effects (font (size 1.27 1.27))))
        (number "51" (effects (font (size 1.27 1.27))))
      )
      (pin power_in line (at -7.62 50.8 270) (length 2.54)
        (name "DVDD" (effects (font (size 1.27 1.27))))
        (number "52" (effects (font (size 1.27 1.27))))
      )
      (pin input line (at -33.02 7.62 0) (length 2.54)
        (name "SCL" (effects (font (size 1.27 1.27))))
        (number "53" (effects (font (size 1.27 1.27))))
      )
      (pin bidirectional line (at -33.02 5.08 0) (length 2.54)
        (name "SDA" (effects (font (size 1.27 1.27))))
        (number "54" (effects (font (size 1.27 1.27))))
      )
      (pin output line (at 33.02 -43.18 180) (length 2.54)
        (name "INT1" (effects (font (size 1.27 1.27))))
        (number "55" (effects (font (size 1.27 1.27))))
      )
      (pin input line (at -33.02 0 0) (length 2.54)
        (name "~RESET" (effects (font (size 1.27 1.27))))
        (number "56" (effects (font (size 1.27 1.27))))
      )
      (pin power_in line (at 0 50.8 270) (length 2.54)
        (name "PVDD" (effects (font (size 1.27 1.27))))
        (number "57" (effects (font (size 1.27 1.27))))
      )
      (pin input line (at -33.02 -5.08 0) (length 2.54)
        (name "XTALP" (effects (font (size 1.27 1.27))))
        (number "58" (effects (font (size 1.27 1.27))))
      )
      (pin input line (at -33.02 -7.62 0) (length 2.54)
        (name "XTALN" (effects (font (size 1.27 1.27))))
        (number "59" (effects (font (size 1.27 1.27))))
      )
      (pin input line (at -33.02 30.48 0) (length 2.54)
        (name "RXA_0−" (effects (font (size 1.27 1.27))))
        (number "6" (effects (font (size 1.27 1.27))))
      )
      (pin power_in line (at -5.08 50.8 270) (length 2.54)
        (name "DVDD" (effects (font (size 1.27 1.27))))
        (number "60" (effects (font (size 1.27 1.27))))
      )
      (pin bidirectional line (at -33.02 22.86 0) (length 2.54)
        (name "CEC" (effects (font (size 1.27 1.27))))
        (number "61" (effects (font (size 1.27 1.27))))
      )
      (pin input line (at -33.02 20.32 0) (length 2.54)
        (name "DDCA_SCL" (effects (font (size 1.27 1.27))))
        (number "62" (effects (font (size 1.27 1.27))))
      )
      (pin bidirectional line (at -33.02 17.78 0) (length 2.54)
        (name "DDCA_SDA" (effects (font (size 1.27 1.27))))
        (number "63" (effects (font (size 1.27 1.27))))
      )
      (pin input line (at -33.02 12.7 0) (length 2.54)
        (name "RXA_5V" (effects (font (size 1.27 1.27))))
        (number "64" (effects (font (size 1.27 1.27))))
      )
      (pin power_in line (at 0 -50.8 90) (length 2.54)
        (name "GND" (effects (font (size 1.27 1.27))))
        (number "65" (effects (font (size 1.27 1.27))))
      )
      (pin input line (at -33.02 33.02 0) (length 2.54)
        (name "RXA_0+" (effects (font (size 1.27 1.27))))
        (number "7" (effects (font (size 1.27 1.27))))
      )
      (pin power_in line (at 7.62 50.8 270) (length 2.54)
        (name "TVDD" (effects (font (size 1.27 1.27))))
        (number "8" (effects (font (size 1.27 1.27))))
      )
      (pin input line (at -33.02 35.56 0) (length 2.54)
        (name "RXA_1−" (effects (font (size 1.27 1.27))))
        (number "9" (effects (font (size 1.27 1.27))))
      )
    )
  )
  (symbol "Interface_HDMI:TPD12S520DBT" (in_bom yes) (on_board yes)
    (property "Reference" "U" (id 0) (at -17.78 26.67 0)
      (effects (font (size 1.27 1.27)) (justify left))
    )
    (property "Value" "TPD12S520DBT" (id 1) (at 17.78 26.67 0)
      (effects (font (size 1.27 1.27)) (justify right))
    )
    (property "Footprint" "Package_SO:TSSOP-38_4.4x9.7mm_P0.5mm" (id 2) (at -3.81 -6.35 0)
      (effects (font (size 1.27 1.27)) hide)
    )
    (property "Datasheet" "http://www.ti.com/lit/ds/symlink/tpd12s520.pdf" (id 3) (at -3.81 -6.35 0)
      (effects (font (size 1.27 1.27)) hide)
    )
    (property "ki_keywords" "hdmi" (id 4) (at 0 0 0)
      (effects (font (size 1.27 1.27)) hide)
    )
    (property "ki_description" "HDMI Receiver Port Protection and Interface Device, TSSOP-38" (id 5) (at 0 0 0)
      (effects (font (size 1.27 1.27)) hide)
    )
    (property "ki_fp_filters" "TSSOP*4.4x9.7mm*P0.5mm*" (id 6) (at 0 0 0)
      (effects (font (size 1.27 1.27)) hide)
    )
    (symbol "TPD12S520DBT_0_1"
      (rectangle (start -17.78 25.4) (end 17.78 -25.4)
        (stroke (width 0.254)) (fill (type background))
      )
    )
    (symbol "TPD12S520DBT_1_1"
      (pin power_in line (at -2.54 27.94 270) (length 2.54)
        (name "5V_SUPPLY" (effects (font (size 1.27 1.27))))
        (number "1" (effects (font (size 1.27 1.27))))
      )
      (pin passive line (at -20.32 12.7 0) (length 2.54)
        (name "TMDS_D0+" (effects (font (size 1.27 1.27))))
        (number "10" (effects (font (size 1.27 1.27))))
      )
      (pin passive line (at 2.54 -27.94 90) (length 2.54) hide
        (name "TMDS_GND" (effects (font (size 1.27 1.27))))
        (number "11" (effects (font (size 1.27 1.27))))
      )
      (pin passive line (at -20.32 10.16 0) (length 2.54)
        (name "TMDS_D0-" (effects (font (size 1.27 1.27))))
        (number "12" (effects (font (size 1.27 1.27))))
      )
      (pin passive line (at -20.32 7.62 0) (length 2.54)
        (name "TMDS_CK+" (effects (font (size 1.27 1.27))))
        (number "13" (effects (font (size 1.27 1.27))))
      )
      (pin passive line (at 2.54 -27.94 90) (length 2.54) hide
        (name "TMDS_GND" (effects (font (size 1.27 1.27))))
        (number "14" (effects (font (size 1.27 1.27))))
      )
      (pin passive line (at -20.32 5.08 0) (length 2.54)
        (name "TMDS_CK-" (effects (font (size 1.27 1.27))))
        (number "15" (effects (font (size 1.27 1.27))))
      )
      (pin bidirectional line (at -20.32 0 0) (length 2.54)
        (name "CE_REMOTE_IN" (effects (font (size 1.27 1.27))))
        (number "16" (effects (font (size 1.27 1.27))))
      )
      (pin bidirectional line (at -20.32 -5.08 0) (length 2.54)
        (name "DDC_CLK_IN" (effects (font (size 1.27 1.27))))
        (number "17" (effects (font (size 1.27 1.27))))
      )
      (pin bidirectional line (at -20.32 -7.62 0) (length 2.54)
        (name "DDC_DAT_IN" (effects (font (size 1.27 1.27))))
        (number "18" (effects (font (size 1.27 1.27))))
      )
      (pin bidirectional line (at -20.32 -12.7 0) (length 2.54)
        (name "HOTPLUG_DET_IN" (effects (font (size 1.27 1.27))))
        (number "19" (effects (font (size 1.27 1.27))))
      )
      (pin power_in line (at 2.54 27.94 270) (length 2.54)
        (name "LV_SUPPLY" (effects (font (size 1.27 1.27))))
        (number "2" (effects (font (size 1.27 1.27))))
      )
      (pin bidirectional line (at 20.32 -12.7 180) (length 2.54)
        (name "HOTPLUG_DET_OUT" (effects (font (size 1.27 1.27))))
        (number "20" (effects (font (size 1.27 1.27))))
      )
      (pin bidirectional line (at 20.32 -7.62 180) (length 2.54)
        (name "DDC_DAT_OUT" (effects (font (size 1.27 1.27))))
        (number "21" (effects (font (size 1.27 1.27))))
      )
      (pin bidirectional line (at 20.32 -5.08 180) (length 2.54)
        (name "DDC_CLK_OUT" (effects (font (size 1.27 1.27))))
        (number "22" (effects (font (size 1.27 1.27))))
      )
      (pin bidirectional line (at 20.32 0 180) (length 2.54)
        (name "CE_REMOTE_OUT" (effects (font (size 1.27 1.27))))
        (number "23" (effects (font (size 1.27 1.27))))
      )
      (pin passive line (at -20.32 5.08 0) (length 2.54) hide
        (name "TMDS_CK-" (effects (font (size 1.27 1.27))))
        (number "24" (effects (font (size 1.27 1.27))))
      )
      (pin passive line (at 2.54 -27.94 90) (length 2.54) hide
        (name "TMDS_GND" (effects (font (size 1.27 1.27))))
        (number "25" (effects (font (size 1.27 1.27))))
      )
      (pin passive line (at -20.32 7.62 0) (length 2.54) hide
        (name "TMDS_CK+" (effects (font (size 1.27 1.27))))
        (number "26" (effects (font (size 1.27 1.27))))
      )
      (pin passive line (at -20.32 10.16 0) (length 2.54) hide
        (name "TMDS_D0-" (effects (font (size 1.27 1.27))))
        (number "27" (effects (font (size 1.27 1.27))))
      )
      (pin passive line (at 2.54 -27.94 90) (length 2.54) hide
        (name "TMDS_GND" (effects (font (size 1.27 1.27))))
        (number "28" (effects (font (size 1.27 1.27))))
      )
      (pin passive line (at -20.32 12.7 0) (length 2.54) hide
        (name "TMDS_D0+" (effects (font (size 1.27 1.27))))
        (number "29" (effects (font (size 1.27 1.27))))
      )
      (pin power_in line (at -2.54 -27.94 90) (length 2.54)
        (name "GND" (effects (font (size 1.27 1.27))))
        (number "3" (effects (font (size 1.27 1.27))))
      )
      (pin passive line (at -20.32 15.24 0) (length 2.54) hide
        (name "TMDS_D1-" (effects (font (size 1.27 1.27))))
        (number "30" (effects (font (size 1.27 1.27))))
      )
      (pin passive line (at 2.54 -27.94 90) (length 2.54) hide
        (name "TMDS_GND" (effects (font (size 1.27 1.27))))
        (number "31" (effects (font (size 1.27 1.27))))
      )
      (pin passive line (at -20.32 17.78 0) (length 2.54) hide
        (name "TMDS_D1+" (effects (font (size 1.27 1.27))))
        (number "32" (effects (font (size 1.27 1.27))))
      )
      (pin passive line (at -20.32 20.32 0) (length 2.54) hide
        (name "TMDS_D2-" (effects (font (size 1.27 1.27))))
        (number "33" (effects (font (size 1.27 1.27))))
      )
      (pin passive line (at 2.54 -27.94 90) (length 2.54) hide
        (name "TMDS_GND" (effects (font (size 1.27 1.27))))
        (number "34" (effects (font (size 1.27 1.27))))
      )
      (pin passive line (at -20.32 22.86 0) (length 2.54) hide
        (name "TMDS_D2+" (effects (font (size 1.27 1.27))))
        (number "35" (effects (font (size 1.27 1.27))))
      )
      (pin passive line (at -2.54 -27.94 90) (length 2.54) hide
        (name "GND" (effects (font (size 1.27 1.27))))
        (number "36" (effects (font (size 1.27 1.27))))
      )
      (pin passive line (at 20.32 22.86 180) (length 2.54)
        (name "ESD_BYP" (effects (font (size 1.27 1.27))))
        (number "37" (effects (font (size 1.27 1.27))))
      )
      (pin no_connect line (at 17.78 20.32 180) (length 2.54) hide
        (name "NC" (effects (font (size 1.27 1.27))))
        (number "38" (effects (font (size 1.27 1.27))))
      )
      (pin passive line (at -20.32 22.86 0) (length 2.54)
        (name "TMDS_D2+" (effects (font (size 1.27 1.27))))
        (number "4" (effects (font (size 1.27 1.27))))
      )
      (pin passive line (at 2.54 -27.94 90) (length 2.54)
        (name "TMDS_GND" (effects (font (size 1.27 1.27))))
        (number "5" (effects (font (size 1.27 1.27))))
      )
      (pin passive line (at -20.32 20.32 0) (length 2.54)
        (name "TMDS_D2-" (effects (font (size 1.27 1.27))))
        (number "6" (effects (font (size 1.27 1.27))))
      )
      (pin passive line (at -20.32 17.78 0) (length 2.54)
        (name "TMDS_D1+" (effects (font (size 1.27 1.27))))
        (number "7" (effects (font (size 1.27 1.27))))
      )
      (pin passive line (at 2.54 -27.94 90) (length 2.54) hide
        (name "TMDS_GND" (effects (font (size 1.27 1.27))))
        (number "8" (effects (font (size 1.27 1.27))))
      )
      (pin passive line (at -20.32 15.24 0) (length 2.54)
        (name "TMDS_D1-" (effects (font (size 1.27 1.27))))
        (number "9" (effects (font (size 1.27 1.27))))
      )
    )
  )
)
