(kicad_symbol_lib (version 20201005) (generator kicad_symbol_editor)
  (symbol "Interface_CurrentLoop:XTR111AxDGQ" (in_bom yes) (on_board yes)
    (property "Reference" "U" (id 0) (at -7.62 11.43 0)
      (effects (font (size 1.27 1.27)) (justify left))
    )
    (property "Value" "XTR111AxDGQ" (id 1) (at 1.27 -11.43 0)
      (effects (font (size 1.27 1.27)) (justify left))
    )
    (property "Footprint" "Package_SO:MSOP-10-1EP_3x3mm_P0.5mm_EP2.2x3.1mm_Mask1.83x1.89mm_ThermalVias" (id 2) (at 0 -2.54 0)
      (effects (font (size 1.27 1.27)) hide)
    )
    (property "Datasheet" "https://www.ti.com/lit/ds/symlink/xtr111.pdf" (id 3) (at 0 0 0)
      (effects (font (size 1.27 1.27)) hide)
    )
    (property "ki_keywords" "0-20mA 4-20mA Current Loop Transmitter Voltage To Current" (id 4) (at 0 0 0)
      (effects (font (size 1.27 1.27)) hide)
    )
    (property "ki_description" "0-20mA/4-20mA Current Loop Transmitter, Precision Voltage-To-Current, MSOP-10" (id 5) (at 0 0 0)
      (effects (font (size 1.27 1.27)) hide)
    )
    (property "ki_fp_filters" "MSOP*1EP*3x3mm*P0.5mm*" (id 6) (at 0 0 0)
      (effects (font (size 1.27 1.27)) hide)
    )
    (symbol "XTR111AxDGQ_0_1"
      (rectangle (start -7.62 10.16) (end 7.62 -10.16)
        (stroke (width 0.254)) (fill (type background))
      )
    )
    (symbol "XTR111AxDGQ_1_1"
      (pin power_in line (at 0 12.7 270) (length 2.54)
        (name "VSP" (effects (font (size 1.27 1.27))))
        (number "1" (effects (font (size 1.27 1.27))))
      )
      (pin power_in line (at 0 -12.7 90) (length 2.54)
        (name "GND" (effects (font (size 1.27 1.27))))
        (number "10" (effects (font (size 1.27 1.27))))
      )
      (pin power_in line (at 0 -12.7 90) (length 2.54) hide
        (name "GND" (effects (font (size 1.27 1.27))))
        (number "11" (effects (font (size 1.27 1.27))))
      )
      (pin output line (at 10.16 -2.54 180) (length 2.54)
        (name "IS" (effects (font (size 1.27 1.27))))
        (number "2" (effects (font (size 1.27 1.27))))
      )
      (pin output line (at 10.16 -7.62 180) (length 2.54)
        (name "VG" (effects (font (size 1.27 1.27))))
        (number "3" (effects (font (size 1.27 1.27))))
      )
      (pin input line (at -10.16 5.08 0) (length 2.54)
        (name "REGS" (effects (font (size 1.27 1.27))))
        (number "4" (effects (font (size 1.27 1.27))))
      )
      (pin output line (at -10.16 7.62 0) (length 2.54)
        (name "REGF" (effects (font (size 1.27 1.27))))
        (number "5" (effects (font (size 1.27 1.27))))
      )
      (pin input line (at -10.16 0 0) (length 2.54)
        (name "VIN" (effects (font (size 1.27 1.27))))
        (number "6" (effects (font (size 1.27 1.27))))
      )
      (pin passive line (at -10.16 -5.08 0) (length 2.54)
        (name "SET" (effects (font (size 1.27 1.27))))
        (number "7" (effects (font (size 1.27 1.27))))
      )
      (pin open_collector line (at 10.16 2.54 180) (length 2.54)
        (name "~EF" (effects (font (size 1.27 1.27))))
        (number "8" (effects (font (size 1.27 1.27))))
      )
      (pin input line (at 10.16 7.62 180) (length 2.54)
        (name "OD" (effects (font (size 1.27 1.27))))
        (number "9" (effects (font (size 1.27 1.27))))
      )
    )
  )
  (symbol "Interface_CurrentLoop:XTR115U" (pin_names (offset 1.016)) (in_bom yes) (on_board yes)
    (property "Reference" "U" (id 0) (at -7.62 13.97 0)
      (effects (font (size 1.27 1.27)) (justify left))
    )
    (property "Value" "XTR115U" (id 1) (at 1.27 13.97 0)
      (effects (font (size 1.27 1.27)) (justify left))
    )
    (property "Footprint" "Package_SO:SOIC-8_3.9x4.9mm_P1.27mm" (id 2) (at 0 -10.16 0)
      (effects (font (size 1.27 1.27)) hide)
    )
    (property "Datasheet" "http://www.ti.com/lit/ds/symlink/xtr115.pdf" (id 3) (at 0 0 0)
      (effects (font (size 1.27 1.27)) hide)
    )
    (property "ki_keywords" "4-20mA Current Loop Transmitter" (id 4) (at 0 0 0)
      (effects (font (size 1.27 1.27)) hide)
    )
    (property "ki_description" "4-20mA Current Loop Transmitter, VREF 2.5V, SO-8" (id 5) (at 0 0 0)
      (effects (font (size 1.27 1.27)) hide)
    )
    (property "ki_fp_filters" "SOIC*3.9x4.9mm*P1.27mm*" (id 6) (at 0 0 0)
      (effects (font (size 1.27 1.27)) hide)
    )
    (symbol "XTR115U_0_1"
      (rectangle (start -7.62 12.7) (end 7.62 -7.62)
        (stroke (width 0.254)) (fill (type background))
      )
    )
    (symbol "XTR115U_1_1"
      (pin output line (at -10.16 5.08 0) (length 2.54)
        (name "VREF" (effects (font (size 1.27 1.27))))
        (number "1" (effects (font (size 1.27 1.27))))
      )
      (pin input line (at -10.16 0 0) (length 2.54)
        (name "IIN" (effects (font (size 1.27 1.27))))
        (number "2" (effects (font (size 1.27 1.27))))
      )
      (pin input line (at -10.16 -5.08 0) (length 2.54)
        (name "IRET" (effects (font (size 1.27 1.27))))
        (number "3" (effects (font (size 1.27 1.27))))
      )
      (pin passive line (at 10.16 -5.08 180) (length 2.54)
        (name "IO" (effects (font (size 1.27 1.27))))
        (number "4" (effects (font (size 1.27 1.27))))
      )
      (pin passive line (at 10.16 0 180) (length 2.54)
        (name "E" (effects (font (size 1.27 1.27))))
        (number "5" (effects (font (size 1.27 1.27))))
      )
      (pin output line (at 10.16 5.08 180) (length 2.54)
        (name "B" (effects (font (size 1.27 1.27))))
        (number "6" (effects (font (size 1.27 1.27))))
      )
      (pin output line (at 10.16 10.16 180) (length 2.54)
        (name "V+" (effects (font (size 1.27 1.27))))
        (number "7" (effects (font (size 1.27 1.27))))
      )
      (pin output line (at -10.16 10.16 0) (length 2.54)
        (name "VREG" (effects (font (size 1.27 1.27))))
        (number "8" (effects (font (size 1.27 1.27))))
      )
    )
  )
  (symbol "Interface_CurrentLoop:XTR116U" (extends "XTR115U")
    (property "Reference" "U" (id 0) (at -7.62 13.97 0)
      (effects (font (size 1.27 1.27)) (justify left))
    )
    (property "Value" "XTR116U" (id 1) (at 1.27 13.97 0)
      (effects (font (size 1.27 1.27)) (justify left))
    )
    (property "Footprint" "Package_SO:SOIC-8_3.9x4.9mm_P1.27mm" (id 2) (at 0 -10.16 0)
      (effects (font (size 1.27 1.27)) hide)
    )
    (property "Datasheet" "http://www.ti.com/lit/ds/symlink/xtr115.pdf" (id 3) (at 0 0 0)
      (effects (font (size 1.27 1.27)) hide)
    )
    (property "ki_keywords" "4-20mA Current Loop Transmitter" (id 4) (at 0 0 0)
      (effects (font (size 1.27 1.27)) hide)
    )
    (property "ki_description" "4-20mA Current Loop Transmitter, VREF 4.096V, SO-8" (id 5) (at 0 0 0)
      (effects (font (size 1.27 1.27)) hide)
    )
    (property "ki_fp_filters" "SOIC*3.9x4.9mm*P1.27mm*" (id 6) (at 0 0 0)
      (effects (font (size 1.27 1.27)) hide)
    )
  )
)
