(kicad_symbol_lib (version 20201005) (generator kicad_symbol_editor)
  (symbol "MCU_NXP_HC12:MC68HC812A4" (pin_names (offset 0.762)) (in_bom yes) (on_board yes)
    (property "Reference" "U" (id 0) (at 16.51 86.36 0)
      (effects (font (size 1.27 1.27)))
    )
    (property "Value" "MC68HC812A4" (id 1) (at 19.05 -73.66 0)
      (effects (font (size 1.27 1.27)))
    )
    (property "Footprint" "" (id 2) (at 0 0 0)
      (effects (font (size 1.27 1.27)) hide)
    )
    (property "Datasheet" "" (id 3) (at 0 0 0)
      (effects (font (size 1.27 1.27)) hide)
    )
    (property "ki_keywords" "68HC12 Microcontroller" (id 4) (at 0 0 0)
      (effects (font (size 1.27 1.27)) hide)
    )
    (property "ki_description" "HC12 Microcontroller 112 pins" (id 5) (at 0 0 0)
      (effects (font (size 1.27 1.27)) hide)
    )
    (symbol "MC68HC812A4_0_1"
      (rectangle (start -27.94 83.82) (end 27.94 -71.12)
        (stroke (width 0.254)) (fill (type background))
      )
    )
    (symbol "MC68HC812A4_1_1"
      (pin power_in line (at -2.54 -78.74 90) (length 7.62)
        (name "VSSX" (effects (font (size 1.27 1.27))))
        (number "1" (effects (font (size 1.27 1.27))))
      )
      (pin bidirectional line (at 35.56 -17.78 180) (length 7.62)
        (name "PJ7/KWUJ7" (effects (font (size 1.27 1.27))))
        (number "10" (effects (font (size 1.27 1.27))))
      )
      (pin bidirectional line (at -35.56 -10.16 0) (length 7.62)
        (name "PS3/TXD1" (effects (font (size 1.27 1.27))))
        (number "100" (effects (font (size 1.27 1.27))))
      )
      (pin bidirectional line (at -35.56 -12.7 0) (length 7.62)
        (name "PS4/SDI/MISO" (effects (font (size 1.27 1.27))))
        (number "101" (effects (font (size 1.27 1.27))))
      )
      (pin bidirectional line (at -35.56 -15.24 0) (length 7.62)
        (name "PS5/SDO/MOSI" (effects (font (size 1.27 1.27))))
        (number "102" (effects (font (size 1.27 1.27))))
      )
      (pin bidirectional line (at -35.56 -17.78 0) (length 7.62)
        (name "PS6/SCK" (effects (font (size 1.27 1.27))))
        (number "103" (effects (font (size 1.27 1.27))))
      )
      (pin bidirectional line (at -35.56 -20.32 0) (length 7.62)
        (name "PS7/SS" (effects (font (size 1.27 1.27))))
        (number "104" (effects (font (size 1.27 1.27))))
      )
      (pin bidirectional line (at -35.56 -25.4 0) (length 7.62)
        (name "PT0/IOC0" (effects (font (size 1.27 1.27))))
        (number "105" (effects (font (size 1.27 1.27))))
      )
      (pin bidirectional line (at -35.56 -27.94 0) (length 7.62)
        (name "PT1/IOC1" (effects (font (size 1.27 1.27))))
        (number "106" (effects (font (size 1.27 1.27))))
      )
      (pin bidirectional line (at -35.56 -30.48 0) (length 7.62)
        (name "PT2/IOC2" (effects (font (size 1.27 1.27))))
        (number "107" (effects (font (size 1.27 1.27))))
      )
      (pin bidirectional line (at -35.56 -33.02 0) (length 7.62)
        (name "PT3/IOC3" (effects (font (size 1.27 1.27))))
        (number "108" (effects (font (size 1.27 1.27))))
      )
      (pin bidirectional line (at -35.56 -35.56 0) (length 7.62)
        (name "PT4/IOC4" (effects (font (size 1.27 1.27))))
        (number "109" (effects (font (size 1.27 1.27))))
      )
      (pin bidirectional line (at 35.56 40.64 180) (length 7.62)
        (name "PG0/A16" (effects (font (size 1.27 1.27))))
        (number "11" (effects (font (size 1.27 1.27))))
      )
      (pin bidirectional line (at -35.56 -38.1 0) (length 7.62)
        (name "PT5/IOC5" (effects (font (size 1.27 1.27))))
        (number "110" (effects (font (size 1.27 1.27))))
      )
      (pin bidirectional line (at -35.56 -40.64 0) (length 7.62)
        (name "PT6/IOC6" (effects (font (size 1.27 1.27))))
        (number "111" (effects (font (size 1.27 1.27))))
      )
      (pin bidirectional line (at -35.56 -43.18 0) (length 7.62)
        (name "PT7/IOC7/PAI" (effects (font (size 1.27 1.27))))
        (number "112" (effects (font (size 1.27 1.27))))
      )
      (pin bidirectional line (at 35.56 38.1 180) (length 7.62)
        (name "PG1/A17" (effects (font (size 1.27 1.27))))
        (number "12" (effects (font (size 1.27 1.27))))
      )
      (pin bidirectional line (at 35.56 35.56 180) (length 7.62)
        (name "PG2/A18" (effects (font (size 1.27 1.27))))
        (number "13" (effects (font (size 1.27 1.27))))
      )
      (pin power_in line (at 2.54 91.44 270) (length 7.62)
        (name "VDD" (effects (font (size 1.27 1.27))))
        (number "14" (effects (font (size 1.27 1.27))))
      )
      (pin power_in line (at 2.54 -78.74 90) (length 7.62)
        (name "VSS" (effects (font (size 1.27 1.27))))
        (number "15" (effects (font (size 1.27 1.27))))
      )
      (pin bidirectional line (at 35.56 33.02 180) (length 7.62)
        (name "PG3/A19" (effects (font (size 1.27 1.27))))
        (number "16" (effects (font (size 1.27 1.27))))
      )
      (pin bidirectional line (at 35.56 30.48 180) (length 7.62)
        (name "PG4/A20" (effects (font (size 1.27 1.27))))
        (number "17" (effects (font (size 1.27 1.27))))
      )
      (pin bidirectional line (at 35.56 27.94 180) (length 7.62)
        (name "PG5/A21" (effects (font (size 1.27 1.27))))
        (number "18" (effects (font (size 1.27 1.27))))
      )
      (pin bidirectional line (at -35.56 2.54 0) (length 7.62)
        (name "BKGD/TAGHI" (effects (font (size 1.27 1.27))))
        (number "19" (effects (font (size 1.27 1.27))))
      )
      (pin power_in line (at -5.08 91.44 270) (length 7.62)
        (name "VDDX" (effects (font (size 1.27 1.27))))
        (number "2" (effects (font (size 1.27 1.27))))
      )
      (pin bidirectional line (at -35.56 81.28 0) (length 7.62)
        (name "PD0/D0/KWUD0" (effects (font (size 1.27 1.27))))
        (number "20" (effects (font (size 1.27 1.27))))
      )
      (pin bidirectional line (at -35.56 78.74 0) (length 7.62)
        (name "PD1/D1/KWUD1" (effects (font (size 1.27 1.27))))
        (number "21" (effects (font (size 1.27 1.27))))
      )
      (pin bidirectional line (at -35.56 76.2 0) (length 7.62)
        (name "PD2/D2/KWUD2" (effects (font (size 1.27 1.27))))
        (number "22" (effects (font (size 1.27 1.27))))
      )
      (pin bidirectional line (at -35.56 73.66 0) (length 7.62)
        (name "PD3/D3/KWUD3" (effects (font (size 1.27 1.27))))
        (number "23" (effects (font (size 1.27 1.27))))
      )
      (pin bidirectional line (at -35.56 71.12 0) (length 7.62)
        (name "PD4/D4/KWUD4" (effects (font (size 1.27 1.27))))
        (number "24" (effects (font (size 1.27 1.27))))
      )
      (pin bidirectional line (at -35.56 68.58 0) (length 7.62)
        (name "PD5/D5/KWUD5" (effects (font (size 1.27 1.27))))
        (number "25" (effects (font (size 1.27 1.27))))
      )
      (pin bidirectional line (at -35.56 66.04 0) (length 7.62)
        (name "PD6/D6/KWUD6" (effects (font (size 1.27 1.27))))
        (number "26" (effects (font (size 1.27 1.27))))
      )
      (pin bidirectional line (at -35.56 63.5 0) (length 7.62)
        (name "PD7/D7/KWUD7" (effects (font (size 1.27 1.27))))
        (number "27" (effects (font (size 1.27 1.27))))
      )
      (pin bidirectional line (at -35.56 58.42 0) (length 7.62)
        (name "PC0/D8/D0" (effects (font (size 1.27 1.27))))
        (number "28" (effects (font (size 1.27 1.27))))
      )
      (pin bidirectional line (at -35.56 55.88 0) (length 7.62)
        (name "PC1/D9/D1" (effects (font (size 1.27 1.27))))
        (number "29" (effects (font (size 1.27 1.27))))
      )
      (pin bidirectional line (at 35.56 0 180) (length 7.62)
        (name "PJ0/KWUJ0" (effects (font (size 1.27 1.27))))
        (number "3" (effects (font (size 1.27 1.27))))
      )
      (pin bidirectional line (at -35.56 53.34 0) (length 7.62)
        (name "PC2/D10/D2" (effects (font (size 1.27 1.27))))
        (number "30" (effects (font (size 1.27 1.27))))
      )
      (pin bidirectional line (at -35.56 50.8 0) (length 7.62)
        (name "PC3/D11/D3" (effects (font (size 1.27 1.27))))
        (number "31" (effects (font (size 1.27 1.27))))
      )
      (pin bidirectional line (at -35.56 48.26 0) (length 7.62)
        (name "PC4/D12/D4" (effects (font (size 1.27 1.27))))
        (number "32" (effects (font (size 1.27 1.27))))
      )
      (pin bidirectional line (at -35.56 45.72 0) (length 7.62)
        (name "PC5/D13/D5" (effects (font (size 1.27 1.27))))
        (number "33" (effects (font (size 1.27 1.27))))
      )
      (pin bidirectional line (at -35.56 43.18 0) (length 7.62)
        (name "PC6/D14/D6" (effects (font (size 1.27 1.27))))
        (number "34" (effects (font (size 1.27 1.27))))
      )
      (pin bidirectional line (at -35.56 40.64 0) (length 7.62)
        (name "PC7/D15/D7" (effects (font (size 1.27 1.27))))
        (number "35" (effects (font (size 1.27 1.27))))
      )
      (pin input line (at -35.56 35.56 0) (length 7.62)
        (name "PE0/XIRQ" (effects (font (size 1.27 1.27))))
        (number "36" (effects (font (size 1.27 1.27))))
      )
      (pin input line (at -35.56 33.02 0) (length 7.62)
        (name "PE1/IRQ" (effects (font (size 1.27 1.27))))
        (number "37" (effects (font (size 1.27 1.27))))
      )
      (pin bidirectional line (at -35.56 30.48 0) (length 7.62)
        (name "PE2/RW" (effects (font (size 1.27 1.27))))
        (number "38" (effects (font (size 1.27 1.27))))
      )
      (pin bidirectional line (at -35.56 27.94 0) (length 7.62)
        (name "PE3/LSTRB/TAGL0" (effects (font (size 1.27 1.27))))
        (number "39" (effects (font (size 1.27 1.27))))
      )
      (pin bidirectional line (at 35.56 -2.54 180) (length 7.62)
        (name "PJ1/KWUJ1" (effects (font (size 1.27 1.27))))
        (number "4" (effects (font (size 1.27 1.27))))
      )
      (pin bidirectional inverted (at -35.56 5.08 0) (length 7.62)
        (name "RESET" (effects (font (size 1.27 1.27))))
        (number "40" (effects (font (size 1.27 1.27))))
      )
      (pin power_in line (at 0 -78.74 90) (length 7.62)
        (name "VSSX" (effects (font (size 1.27 1.27))))
        (number "41" (effects (font (size 1.27 1.27))))
      )
      (pin power_in line (at -2.54 91.44 270) (length 7.62)
        (name "VDDX" (effects (font (size 1.27 1.27))))
        (number "42" (effects (font (size 1.27 1.27))))
      )
      (pin input line (at 35.56 -63.5 180) (length 7.62)
        (name "VDDPLL" (effects (font (size 1.27 1.27))))
        (number "43" (effects (font (size 1.27 1.27))))
      )
      (pin passive line (at 35.56 -66.04 180) (length 7.62)
        (name "XFC" (effects (font (size 1.27 1.27))))
        (number "44" (effects (font (size 1.27 1.27))))
      )
      (pin input line (at 35.56 -68.58 180) (length 7.62)
        (name "VSSPLL" (effects (font (size 1.27 1.27))))
        (number "45" (effects (font (size 1.27 1.27))))
      )
      (pin input line (at -35.56 12.7 0) (length 7.62)
        (name "EXTAL" (effects (font (size 1.27 1.27))))
        (number "46" (effects (font (size 1.27 1.27))))
      )
      (pin output line (at -35.56 10.16 0) (length 7.62)
        (name "XTAL" (effects (font (size 1.27 1.27))))
        (number "47" (effects (font (size 1.27 1.27))))
      )
      (pin bidirectional line (at -35.56 25.4 0) (length 7.62)
        (name "PE4/ECLK" (effects (font (size 1.27 1.27))))
        (number "48" (effects (font (size 1.27 1.27))))
      )
      (pin bidirectional line (at -35.56 22.86 0) (length 7.62)
        (name "PE5/MODA/IPIPE0" (effects (font (size 1.27 1.27))))
        (number "49" (effects (font (size 1.27 1.27))))
      )
      (pin bidirectional line (at 35.56 -5.08 180) (length 7.62)
        (name "PJ2/KWUJ2" (effects (font (size 1.27 1.27))))
        (number "5" (effects (font (size 1.27 1.27))))
      )
      (pin bidirectional line (at -35.56 20.32 0) (length 7.62)
        (name "PE6/MODB/IPIPE1" (effects (font (size 1.27 1.27))))
        (number "50" (effects (font (size 1.27 1.27))))
      )
      (pin bidirectional line (at -35.56 17.78 0) (length 7.62)
        (name "PE7/ARST" (effects (font (size 1.27 1.27))))
        (number "51" (effects (font (size 1.27 1.27))))
      )
      (pin bidirectional line (at 35.56 81.28 180) (length 7.62)
        (name "PB0/A0" (effects (font (size 1.27 1.27))))
        (number "52" (effects (font (size 1.27 1.27))))
      )
      (pin bidirectional line (at 35.56 78.74 180) (length 7.62)
        (name "PB1/A1" (effects (font (size 1.27 1.27))))
        (number "53" (effects (font (size 1.27 1.27))))
      )
      (pin bidirectional line (at 35.56 76.2 180) (length 7.62)
        (name "PB2/A2" (effects (font (size 1.27 1.27))))
        (number "54" (effects (font (size 1.27 1.27))))
      )
      (pin bidirectional line (at 35.56 73.66 180) (length 7.62)
        (name "PB3/A3" (effects (font (size 1.27 1.27))))
        (number "55" (effects (font (size 1.27 1.27))))
      )
      (pin bidirectional line (at 35.56 71.12 180) (length 7.62)
        (name "PB4/A4" (effects (font (size 1.27 1.27))))
        (number "56" (effects (font (size 1.27 1.27))))
      )
      (pin bidirectional line (at 35.56 68.58 180) (length 7.62)
        (name "PB5/A5" (effects (font (size 1.27 1.27))))
        (number "57" (effects (font (size 1.27 1.27))))
      )
      (pin bidirectional line (at 35.56 66.04 180) (length 7.62)
        (name "PB6/A6" (effects (font (size 1.27 1.27))))
        (number "58" (effects (font (size 1.27 1.27))))
      )
      (pin bidirectional line (at 35.56 63.5 180) (length 7.62)
        (name "PB7/A7" (effects (font (size 1.27 1.27))))
        (number "59" (effects (font (size 1.27 1.27))))
      )
      (pin bidirectional line (at 35.56 -7.62 180) (length 7.62)
        (name "PJ3/KWUJ3" (effects (font (size 1.27 1.27))))
        (number "6" (effects (font (size 1.27 1.27))))
      )
      (pin bidirectional line (at 35.56 60.96 180) (length 7.62)
        (name "PA0/A8" (effects (font (size 1.27 1.27))))
        (number "60" (effects (font (size 1.27 1.27))))
      )
      (pin bidirectional line (at 35.56 58.42 180) (length 7.62)
        (name "PA1/A9" (effects (font (size 1.27 1.27))))
        (number "61" (effects (font (size 1.27 1.27))))
      )
      (pin bidirectional line (at 35.56 55.88 180) (length 7.62)
        (name "PA2/A10" (effects (font (size 1.27 1.27))))
        (number "62" (effects (font (size 1.27 1.27))))
      )
      (pin bidirectional line (at 35.56 53.34 180) (length 7.62)
        (name "PA3/A11" (effects (font (size 1.27 1.27))))
        (number "63" (effects (font (size 1.27 1.27))))
      )
      (pin bidirectional line (at 35.56 50.8 180) (length 7.62)
        (name "PA4/A12" (effects (font (size 1.27 1.27))))
        (number "64" (effects (font (size 1.27 1.27))))
      )
      (pin bidirectional line (at 35.56 48.26 180) (length 7.62)
        (name "PA5/A13" (effects (font (size 1.27 1.27))))
        (number "65" (effects (font (size 1.27 1.27))))
      )
      (pin bidirectional line (at 35.56 45.72 180) (length 7.62)
        (name "PA6/A14" (effects (font (size 1.27 1.27))))
        (number "66" (effects (font (size 1.27 1.27))))
      )
      (pin bidirectional line (at 35.56 43.18 180) (length 7.62)
        (name "PA7/A15" (effects (font (size 1.27 1.27))))
        (number "67" (effects (font (size 1.27 1.27))))
      )
      (pin bidirectional line (at -35.56 -48.26 0) (length 7.62)
        (name "PF0/CS0" (effects (font (size 1.27 1.27))))
        (number "68" (effects (font (size 1.27 1.27))))
      )
      (pin bidirectional line (at -35.56 -50.8 0) (length 7.62)
        (name "PF1/CS1" (effects (font (size 1.27 1.27))))
        (number "69" (effects (font (size 1.27 1.27))))
      )
      (pin bidirectional line (at 35.56 -10.16 180) (length 7.62)
        (name "PJ4/KWUJ4" (effects (font (size 1.27 1.27))))
        (number "7" (effects (font (size 1.27 1.27))))
      )
      (pin bidirectional line (at -35.56 -53.34 0) (length 7.62)
        (name "PF2/CS2" (effects (font (size 1.27 1.27))))
        (number "70" (effects (font (size 1.27 1.27))))
      )
      (pin bidirectional line (at -35.56 -55.88 0) (length 7.62)
        (name "PF3/CS3" (effects (font (size 1.27 1.27))))
        (number "71" (effects (font (size 1.27 1.27))))
      )
      (pin bidirectional line (at -35.56 -58.42 0) (length 7.62)
        (name "PF4/CSD" (effects (font (size 1.27 1.27))))
        (number "72" (effects (font (size 1.27 1.27))))
      )
      (pin bidirectional line (at -35.56 -60.96 0) (length 7.62)
        (name "PF5/CSP0" (effects (font (size 1.27 1.27))))
        (number "73" (effects (font (size 1.27 1.27))))
      )
      (pin bidirectional line (at -35.56 -63.5 0) (length 7.62)
        (name "PF6/CSP1" (effects (font (size 1.27 1.27))))
        (number "74" (effects (font (size 1.27 1.27))))
      )
      (pin bidirectional line (at 35.56 22.86 180) (length 7.62)
        (name "PH0/KWUH0" (effects (font (size 1.27 1.27))))
        (number "75" (effects (font (size 1.27 1.27))))
      )
      (pin bidirectional line (at 35.56 20.32 180) (length 7.62)
        (name "PH1/KWUH1" (effects (font (size 1.27 1.27))))
        (number "76" (effects (font (size 1.27 1.27))))
      )
      (pin bidirectional line (at 35.56 17.78 180) (length 7.62)
        (name "PH2/KWUH2" (effects (font (size 1.27 1.27))))
        (number "77" (effects (font (size 1.27 1.27))))
      )
      (pin bidirectional line (at 35.56 15.24 180) (length 7.62)
        (name "PH3/KWUH3" (effects (font (size 1.27 1.27))))
        (number "78" (effects (font (size 1.27 1.27))))
      )
      (pin power_in line (at 0 91.44 270) (length 7.62)
        (name "VDDX" (effects (font (size 1.27 1.27))))
        (number "79" (effects (font (size 1.27 1.27))))
      )
      (pin bidirectional line (at 35.56 -12.7 180) (length 7.62)
        (name "PJ5/KWUJ5" (effects (font (size 1.27 1.27))))
        (number "8" (effects (font (size 1.27 1.27))))
      )
      (pin power_in line (at -5.08 -78.74 90) (length 7.62)
        (name "VSSX" (effects (font (size 1.27 1.27))))
        (number "80" (effects (font (size 1.27 1.27))))
      )
      (pin bidirectional line (at 35.56 12.7 180) (length 7.62)
        (name "PH4/KWUH4" (effects (font (size 1.27 1.27))))
        (number "81" (effects (font (size 1.27 1.27))))
      )
      (pin bidirectional line (at 35.56 10.16 180) (length 7.62)
        (name "PH5/KWUH5" (effects (font (size 1.27 1.27))))
        (number "82" (effects (font (size 1.27 1.27))))
      )
      (pin bidirectional line (at 35.56 7.62 180) (length 7.62)
        (name "PH6/KWUH6" (effects (font (size 1.27 1.27))))
        (number "83" (effects (font (size 1.27 1.27))))
      )
      (pin bidirectional line (at 35.56 5.08 180) (length 7.62)
        (name "PH7/KWUH7" (effects (font (size 1.27 1.27))))
        (number "84" (effects (font (size 1.27 1.27))))
      )
      (pin input line (at 35.56 -55.88 180) (length 7.62)
        (name "VRH" (effects (font (size 1.27 1.27))))
        (number "85" (effects (font (size 1.27 1.27))))
      )
      (pin input line (at 35.56 -58.42 180) (length 7.62)
        (name "VRL" (effects (font (size 1.27 1.27))))
        (number "86" (effects (font (size 1.27 1.27))))
      )
      (pin input line (at 35.56 -22.86 180) (length 7.62)
        (name "PAD0" (effects (font (size 1.27 1.27))))
        (number "87" (effects (font (size 1.27 1.27))))
      )
      (pin input line (at 35.56 -25.4 180) (length 7.62)
        (name "PAD1" (effects (font (size 1.27 1.27))))
        (number "88" (effects (font (size 1.27 1.27))))
      )
      (pin input line (at 35.56 -27.94 180) (length 7.62)
        (name "PAD2" (effects (font (size 1.27 1.27))))
        (number "89" (effects (font (size 1.27 1.27))))
      )
      (pin bidirectional line (at 35.56 -15.24 180) (length 7.62)
        (name "PJ6/KWUJ6" (effects (font (size 1.27 1.27))))
        (number "9" (effects (font (size 1.27 1.27))))
      )
      (pin input line (at 35.56 -30.48 180) (length 7.62)
        (name "PAD3" (effects (font (size 1.27 1.27))))
        (number "90" (effects (font (size 1.27 1.27))))
      )
      (pin input line (at 35.56 -33.02 180) (length 7.62)
        (name "PAD4" (effects (font (size 1.27 1.27))))
        (number "91" (effects (font (size 1.27 1.27))))
      )
      (pin input line (at 35.56 -35.56 180) (length 7.62)
        (name "PAD5" (effects (font (size 1.27 1.27))))
        (number "92" (effects (font (size 1.27 1.27))))
      )
      (pin input line (at 35.56 -38.1 180) (length 7.62)
        (name "PAD6" (effects (font (size 1.27 1.27))))
        (number "93" (effects (font (size 1.27 1.27))))
      )
      (pin input line (at 35.56 -40.64 180) (length 7.62)
        (name "VSTBY/PAD7" (effects (font (size 1.27 1.27))))
        (number "94" (effects (font (size 1.27 1.27))))
      )
      (pin input line (at 35.56 -48.26 180) (length 7.62)
        (name "VDDAD" (effects (font (size 1.27 1.27))))
        (number "95" (effects (font (size 1.27 1.27))))
      )
      (pin input line (at 35.56 -50.8 180) (length 7.62)
        (name "VSSAD" (effects (font (size 1.27 1.27))))
        (number "96" (effects (font (size 1.27 1.27))))
      )
      (pin bidirectional line (at -35.56 -2.54 0) (length 7.62)
        (name "PS0/RXD0" (effects (font (size 1.27 1.27))))
        (number "97" (effects (font (size 1.27 1.27))))
      )
      (pin bidirectional line (at -35.56 -5.08 0) (length 7.62)
        (name "PS1/TXD0" (effects (font (size 1.27 1.27))))
        (number "98" (effects (font (size 1.27 1.27))))
      )
      (pin bidirectional line (at -35.56 -7.62 0) (length 7.62)
        (name "PS2/RXD1" (effects (font (size 1.27 1.27))))
        (number "99" (effects (font (size 1.27 1.27))))
      )
    )
  )
  (symbol "MCU_NXP_HC12:MC68HC912" (pin_names (offset 0.762)) (in_bom yes) (on_board yes)
    (property "Reference" "U" (id 0) (at 8.89 67.31 0)
      (effects (font (size 1.27 1.27)) (justify left))
    )
    (property "Value" "MC68HC912" (id 1) (at 7.62 -62.23 0)
      (effects (font (size 1.27 1.27)) (justify left))
    )
    (property "Footprint" "" (id 2) (at 0 2.54 0)
      (effects (font (size 1.27 1.27)) hide)
    )
    (property "Datasheet" "" (id 3) (at 0 2.54 0)
      (effects (font (size 1.27 1.27)) hide)
    )
    (property "ki_keywords" "68HC12 Microcontroller" (id 4) (at 0 0 0)
      (effects (font (size 1.27 1.27)) hide)
    )
    (property "ki_description" "HC12 Microcontroller" (id 5) (at 0 0 0)
      (effects (font (size 1.27 1.27)) hide)
    )
    (symbol "MC68HC912_0_1"
      (rectangle (start -20.32 -60.96) (end 20.32 66.04)
        (stroke (width 0.254)) (fill (type background))
      )
    )
    (symbol "MC68HC912_1_1"
      (pin bidirectional line (at 27.94 -30.48 180) (length 7.62)
        (name "PP5" (effects (font (size 1.27 1.27))))
        (number "1" (effects (font (size 1.27 1.27))))
      )
      (pin power_in line (at -5.08 73.66 270) (length 7.62)
        (name "VDD" (effects (font (size 1.27 1.27))))
        (number "10" (effects (font (size 1.27 1.27))))
      )
      (pin power_in line (at -5.08 -68.58 90) (length 7.62)
        (name "VSS" (effects (font (size 1.27 1.27))))
        (number "11" (effects (font (size 1.27 1.27))))
      )
      (pin bidirectional line (at 27.94 20.32 180) (length 7.62)
        (name "PT3-IOC3" (effects (font (size 1.27 1.27))))
        (number "12" (effects (font (size 1.27 1.27))))
      )
      (pin bidirectional line (at 27.94 17.78 180) (length 7.62)
        (name "PT4-IOC4" (effects (font (size 1.27 1.27))))
        (number "13" (effects (font (size 1.27 1.27))))
      )
      (pin bidirectional line (at 27.94 15.24 180) (length 7.62)
        (name "PT5-IOC5" (effects (font (size 1.27 1.27))))
        (number "14" (effects (font (size 1.27 1.27))))
      )
      (pin bidirectional line (at 27.94 12.7 180) (length 7.62)
        (name "PT6-IOC6" (effects (font (size 1.27 1.27))))
        (number "15" (effects (font (size 1.27 1.27))))
      )
      (pin bidirectional line (at 27.94 10.16 180) (length 7.62)
        (name "PT7-IOC7-PAI" (effects (font (size 1.27 1.27))))
        (number "16" (effects (font (size 1.27 1.27))))
      )
      (pin bidirectional line (at -27.94 58.42 0) (length 7.62)
        (name "BKGD/SMODN/TAGHI" (effects (font (size 1.27 1.27))))
        (number "17" (effects (font (size 1.27 1.27))))
      )
      (pin bidirectional line (at -27.94 -7.62 0) (length 7.62)
        (name "PB0/AD0" (effects (font (size 1.27 1.27))))
        (number "18" (effects (font (size 1.27 1.27))))
      )
      (pin bidirectional line (at -27.94 -10.16 0) (length 7.62)
        (name "PB1/AD1" (effects (font (size 1.27 1.27))))
        (number "19" (effects (font (size 1.27 1.27))))
      )
      (pin bidirectional line (at 27.94 -27.94 180) (length 7.62)
        (name "PP4" (effects (font (size 1.27 1.27))))
        (number "2" (effects (font (size 1.27 1.27))))
      )
      (pin bidirectional line (at -27.94 -12.7 0) (length 7.62)
        (name "PB2/AD2" (effects (font (size 1.27 1.27))))
        (number "20" (effects (font (size 1.27 1.27))))
      )
      (pin bidirectional line (at -27.94 -15.24 0) (length 7.62)
        (name "PB3/AD3" (effects (font (size 1.27 1.27))))
        (number "21" (effects (font (size 1.27 1.27))))
      )
      (pin bidirectional line (at -27.94 -17.78 0) (length 7.62)
        (name "PB4/AD4" (effects (font (size 1.27 1.27))))
        (number "22" (effects (font (size 1.27 1.27))))
      )
      (pin bidirectional line (at -27.94 -20.32 0) (length 7.62)
        (name "PB5/AD5" (effects (font (size 1.27 1.27))))
        (number "23" (effects (font (size 1.27 1.27))))
      )
      (pin bidirectional line (at -27.94 -22.86 0) (length 7.62)
        (name "PB6/AD6" (effects (font (size 1.27 1.27))))
        (number "24" (effects (font (size 1.27 1.27))))
      )
      (pin bidirectional line (at -27.94 -25.4 0) (length 7.62)
        (name "PB7/AD7" (effects (font (size 1.27 1.27))))
        (number "25" (effects (font (size 1.27 1.27))))
      )
      (pin bidirectional line (at -27.94 20.32 0) (length 7.62)
        (name "PE7/DBE" (effects (font (size 1.27 1.27))))
        (number "26" (effects (font (size 1.27 1.27))))
      )
      (pin bidirectional line (at -27.94 22.86 0) (length 7.62)
        (name "PE6-MODB/IPIPE1" (effects (font (size 1.27 1.27))))
        (number "27" (effects (font (size 1.27 1.27))))
      )
      (pin bidirectional line (at -27.94 25.4 0) (length 7.62)
        (name "PE5-MODA/IPIPE0" (effects (font (size 1.27 1.27))))
        (number "28" (effects (font (size 1.27 1.27))))
      )
      (pin bidirectional line (at -27.94 27.94 0) (length 7.62)
        (name "PE4-ECLK" (effects (font (size 1.27 1.27))))
        (number "29" (effects (font (size 1.27 1.27))))
      )
      (pin bidirectional line (at 27.94 -25.4 180) (length 7.62)
        (name "PP3/PW3" (effects (font (size 1.27 1.27))))
        (number "3" (effects (font (size 1.27 1.27))))
      )
      (pin power_in line (at 0 -68.58 90) (length 7.62)
        (name "VSSX" (effects (font (size 1.27 1.27))))
        (number "30" (effects (font (size 1.27 1.27))))
      )
      (pin power_in line (at 0 73.66 270) (length 7.62)
        (name "VDDX" (effects (font (size 1.27 1.27))))
        (number "31" (effects (font (size 1.27 1.27))))
      )
      (pin bidirectional input_low (at -27.94 43.18 0) (length 7.62)
        (name "RST" (effects (font (size 1.27 1.27))))
        (number "32" (effects (font (size 1.27 1.27))))
      )
      (pin input line (at -27.94 53.34 0) (length 7.62)
        (name "EXTAL" (effects (font (size 1.27 1.27))))
        (number "33" (effects (font (size 1.27 1.27))))
      )
      (pin output line (at -27.94 48.26 0) (length 7.62)
        (name "XTAL" (effects (font (size 1.27 1.27))))
        (number "34" (effects (font (size 1.27 1.27))))
      )
      (pin bidirectional line (at -27.94 30.48 0) (length 7.62)
        (name "PE3/LSTRB/TAGLO" (effects (font (size 1.27 1.27))))
        (number "35" (effects (font (size 1.27 1.27))))
      )
      (pin bidirectional line (at -27.94 33.02 0) (length 7.62)
        (name "PE2-R/W" (effects (font (size 1.27 1.27))))
        (number "36" (effects (font (size 1.27 1.27))))
      )
      (pin input line (at -27.94 35.56 0) (length 7.62)
        (name "PE1/IRQ" (effects (font (size 1.27 1.27))))
        (number "37" (effects (font (size 1.27 1.27))))
      )
      (pin input line (at -27.94 38.1 0) (length 7.62)
        (name "PE0/XIRQ" (effects (font (size 1.27 1.27))))
        (number "38" (effects (font (size 1.27 1.27))))
      )
      (pin bidirectional line (at -27.94 15.24 0) (length 7.62)
        (name "PA0/AD8" (effects (font (size 1.27 1.27))))
        (number "39" (effects (font (size 1.27 1.27))))
      )
      (pin bidirectional line (at 27.94 -22.86 180) (length 7.62)
        (name "PP2/PW3" (effects (font (size 1.27 1.27))))
        (number "4" (effects (font (size 1.27 1.27))))
      )
      (pin bidirectional line (at -27.94 12.7 0) (length 7.62)
        (name "PA1/D9/A9" (effects (font (size 1.27 1.27))))
        (number "40" (effects (font (size 1.27 1.27))))
      )
      (pin bidirectional line (at -27.94 10.16 0) (length 7.62)
        (name "PA2/AD10" (effects (font (size 1.27 1.27))))
        (number "41" (effects (font (size 1.27 1.27))))
      )
      (pin bidirectional line (at -27.94 7.62 0) (length 7.62)
        (name "PA3/AD11" (effects (font (size 1.27 1.27))))
        (number "42" (effects (font (size 1.27 1.27))))
      )
      (pin bidirectional line (at -27.94 5.08 0) (length 7.62)
        (name "PA4/AD12" (effects (font (size 1.27 1.27))))
        (number "43" (effects (font (size 1.27 1.27))))
      )
      (pin bidirectional line (at -27.94 2.54 0) (length 7.62)
        (name "PA5/AD13" (effects (font (size 1.27 1.27))))
        (number "44" (effects (font (size 1.27 1.27))))
      )
      (pin bidirectional line (at -27.94 0 0) (length 7.62)
        (name "PA6/AD14" (effects (font (size 1.27 1.27))))
        (number "45" (effects (font (size 1.27 1.27))))
      )
      (pin bidirectional line (at -27.94 -2.54 0) (length 7.62)
        (name "PA7/AD15" (effects (font (size 1.27 1.27))))
        (number "46" (effects (font (size 1.27 1.27))))
      )
      (pin power_in line (at -2.54 73.66 270) (length 7.62)
        (name "VDD" (effects (font (size 1.27 1.27))))
        (number "47" (effects (font (size 1.27 1.27))))
      )
      (pin power_in line (at -2.54 -68.58 90) (length 7.62)
        (name "VSS" (effects (font (size 1.27 1.27))))
        (number "48" (effects (font (size 1.27 1.27))))
      )
      (pin input line (at 27.94 63.5 180) (length 7.62)
        (name "VRH" (effects (font (size 1.27 1.27))))
        (number "49" (effects (font (size 1.27 1.27))))
      )
      (pin bidirectional line (at 27.94 -20.32 180) (length 7.62)
        (name "PP1/PW1" (effects (font (size 1.27 1.27))))
        (number "5" (effects (font (size 1.27 1.27))))
      )
      (pin input line (at 27.94 60.96 180) (length 7.62)
        (name "VRL" (effects (font (size 1.27 1.27))))
        (number "50" (effects (font (size 1.27 1.27))))
      )
      (pin input line (at 27.94 50.8 180) (length 7.62)
        (name "PAD0" (effects (font (size 1.27 1.27))))
        (number "51" (effects (font (size 1.27 1.27))))
      )
      (pin input line (at 27.94 48.26 180) (length 7.62)
        (name "PAD1" (effects (font (size 1.27 1.27))))
        (number "52" (effects (font (size 1.27 1.27))))
      )
      (pin input line (at 27.94 45.72 180) (length 7.62)
        (name "PAD2" (effects (font (size 1.27 1.27))))
        (number "53" (effects (font (size 1.27 1.27))))
      )
      (pin input line (at 27.94 43.18 180) (length 7.62)
        (name "PAD3" (effects (font (size 1.27 1.27))))
        (number "54" (effects (font (size 1.27 1.27))))
      )
      (pin input line (at 27.94 40.64 180) (length 7.62)
        (name "PAD4" (effects (font (size 1.27 1.27))))
        (number "55" (effects (font (size 1.27 1.27))))
      )
      (pin input line (at 27.94 38.1 180) (length 7.62)
        (name "PAD5" (effects (font (size 1.27 1.27))))
        (number "56" (effects (font (size 1.27 1.27))))
      )
      (pin input line (at 27.94 35.56 180) (length 7.62)
        (name "PAD6" (effects (font (size 1.27 1.27))))
        (number "57" (effects (font (size 1.27 1.27))))
      )
      (pin input line (at 27.94 33.02 180) (length 7.62)
        (name "PAD7" (effects (font (size 1.27 1.27))))
        (number "58" (effects (font (size 1.27 1.27))))
      )
      (pin input line (at 27.94 58.42 180) (length 7.62)
        (name "VDDA" (effects (font (size 1.27 1.27))))
        (number "59" (effects (font (size 1.27 1.27))))
      )
      (pin bidirectional line (at 27.94 -17.78 180) (length 7.62)
        (name "PP0/PW0" (effects (font (size 1.27 1.27))))
        (number "6" (effects (font (size 1.27 1.27))))
      )
      (pin input line (at 27.94 55.88 180) (length 7.62)
        (name "VSSA" (effects (font (size 1.27 1.27))))
        (number "60" (effects (font (size 1.27 1.27))))
      )
      (pin bidirectional line (at 27.94 5.08 180) (length 7.62)
        (name "PS0/RxD" (effects (font (size 1.27 1.27))))
        (number "61" (effects (font (size 1.27 1.27))))
      )
      (pin bidirectional line (at 27.94 2.54 180) (length 7.62)
        (name "PS1/TxD" (effects (font (size 1.27 1.27))))
        (number "62" (effects (font (size 1.27 1.27))))
      )
      (pin bidirectional line (at 27.94 0 180) (length 7.62)
        (name "PS2" (effects (font (size 1.27 1.27))))
        (number "63" (effects (font (size 1.27 1.27))))
      )
      (pin bidirectional line (at 27.94 -2.54 180) (length 7.62)
        (name "PS3" (effects (font (size 1.27 1.27))))
        (number "64" (effects (font (size 1.27 1.27))))
      )
      (pin bidirectional line (at 27.94 -5.08 180) (length 7.62)
        (name "PS4SDI/MISO" (effects (font (size 1.27 1.27))))
        (number "65" (effects (font (size 1.27 1.27))))
      )
      (pin bidirectional line (at 27.94 -7.62 180) (length 7.62)
        (name "PS5/SD0/MOSI" (effects (font (size 1.27 1.27))))
        (number "66" (effects (font (size 1.27 1.27))))
      )
      (pin bidirectional line (at 27.94 -10.16 180) (length 7.62)
        (name "PS6/SCLK" (effects (font (size 1.27 1.27))))
        (number "67" (effects (font (size 1.27 1.27))))
      )
      (pin bidirectional line (at 27.94 -12.7 180) (length 7.62)
        (name "PS7/CS/SS" (effects (font (size 1.27 1.27))))
        (number "68" (effects (font (size 1.27 1.27))))
      )
      (pin input line (at -27.94 60.96 0) (length 7.62)
        (name "VFP" (effects (font (size 1.27 1.27))))
        (number "69" (effects (font (size 1.27 1.27))))
      )
      (pin bidirectional line (at 27.94 27.94 180) (length 7.62)
        (name "PT0-IOC0" (effects (font (size 1.27 1.27))))
        (number "7" (effects (font (size 1.27 1.27))))
      )
      (pin bidirectional line (at 27.94 -55.88 180) (length 7.62)
        (name "PDLC6" (effects (font (size 1.27 1.27))))
        (number "70" (effects (font (size 1.27 1.27))))
      )
      (pin bidirectional line (at 27.94 -53.34 180) (length 7.62)
        (name "PDLC5" (effects (font (size 1.27 1.27))))
        (number "71" (effects (font (size 1.27 1.27))))
      )
      (pin bidirectional line (at 27.94 -50.8 180) (length 7.62)
        (name "PDLC4" (effects (font (size 1.27 1.27))))
        (number "72" (effects (font (size 1.27 1.27))))
      )
      (pin bidirectional line (at 27.94 -48.26 180) (length 7.62)
        (name "PDLC3" (effects (font (size 1.27 1.27))))
        (number "73" (effects (font (size 1.27 1.27))))
      )
      (pin bidirectional line (at 27.94 -45.72 180) (length 7.62)
        (name "PDLC2" (effects (font (size 1.27 1.27))))
        (number "74" (effects (font (size 1.27 1.27))))
      )
      (pin bidirectional line (at 27.94 -43.18 180) (length 7.62)
        (name "PDLC1/DLCTx" (effects (font (size 1.27 1.27))))
        (number "75" (effects (font (size 1.27 1.27))))
      )
      (pin bidirectional line (at 27.94 -40.64 180) (length 7.62)
        (name "PDLC0/DLCRx" (effects (font (size 1.27 1.27))))
        (number "76" (effects (font (size 1.27 1.27))))
      )
      (pin power_in line (at 2.54 -68.58 90) (length 7.62)
        (name "VSSX" (effects (font (size 1.27 1.27))))
        (number "77" (effects (font (size 1.27 1.27))))
      )
      (pin power_in line (at 2.54 73.66 270) (length 7.62)
        (name "VDDX" (effects (font (size 1.27 1.27))))
        (number "78" (effects (font (size 1.27 1.27))))
      )
      (pin bidirectional line (at 27.94 -35.56 180) (length 7.62)
        (name "PP7" (effects (font (size 1.27 1.27))))
        (number "79" (effects (font (size 1.27 1.27))))
      )
      (pin bidirectional line (at 27.94 25.4 180) (length 7.62)
        (name "PT1-IOC1" (effects (font (size 1.27 1.27))))
        (number "8" (effects (font (size 1.27 1.27))))
      )
      (pin bidirectional line (at 27.94 -33.02 180) (length 7.62)
        (name "PP6" (effects (font (size 1.27 1.27))))
        (number "80" (effects (font (size 1.27 1.27))))
      )
      (pin bidirectional line (at 27.94 22.86 180) (length 7.62)
        (name "PT2-IOC2" (effects (font (size 1.27 1.27))))
        (number "9" (effects (font (size 1.27 1.27))))
      )
    )
  )
)
