(kicad_symbol_lib (version 20201005) (generator kicad_symbol_editor)
  (symbol "Memory_EPROM:27C010" (in_bom yes) (on_board yes)
    (property "Reference" "U" (id 0) (at -7.62 29.21 0)
      (effects (font (size 1.27 1.27)))
    )
    (property "Value" "27C010" (id 1) (at 2.54 -31.75 0)
      (effects (font (size 1.27 1.27)) (justify left))
    )
    (property "Footprint" "" (id 2) (at 0 0 0)
      (effects (font (size 1.27 1.27)) hide)
    )
    (property "Datasheet" "http://ww1.microchip.com/downloads/en/DeviceDoc/doc0321.pdf" (id 3) (at 0 0 0)
      (effects (font (size 1.27 1.27)) hide)
    )
    (property "ki_keywords" "OTP EPROM 1MiBit" (id 4) (at 0 0 0)
      (effects (font (size 1.27 1.27)) hide)
    )
    (property "ki_description" "OTP EPROM 1 MiBit (128 Ki x 8 Bit)" (id 5) (at 0 0 0)
      (effects (font (size 1.27 1.27)) hide)
    )
    (property "ki_fp_filters" "DIP*W15.24mm* PLCC*" (id 6) (at 0 0 0)
      (effects (font (size 1.27 1.27)) hide)
    )
    (symbol "27C010_1_1"
      (rectangle (start -7.62 27.94) (end 7.62 -30.48)
        (stroke (width 0.254)) (fill (type background))
      )
      (pin input line (at -10.16 -22.86 0) (length 2.54)
        (name "VPP" (effects (font (size 1.27 1.27))))
        (number "1" (effects (font (size 1.27 1.27))))
      )
      (pin input line (at -10.16 -15.24 0) (length 2.54)
        (name "A16" (effects (font (size 1.27 1.27))))
        (number "2" (effects (font (size 1.27 1.27))))
      )
      (pin input line (at -10.16 -12.7 0) (length 2.54)
        (name "A15" (effects (font (size 1.27 1.27))))
        (number "3" (effects (font (size 1.27 1.27))))
      )
      (pin input line (at -10.16 -5.08 0) (length 2.54)
        (name "A12" (effects (font (size 1.27 1.27))))
        (number "4" (effects (font (size 1.27 1.27))))
      )
      (pin input line (at -10.16 7.62 0) (length 2.54)
        (name "A7" (effects (font (size 1.27 1.27))))
        (number "5" (effects (font (size 1.27 1.27))))
      )
      (pin input line (at -10.16 10.16 0) (length 2.54)
        (name "A6" (effects (font (size 1.27 1.27))))
        (number "6" (effects (font (size 1.27 1.27))))
      )
      (pin input line (at -10.16 12.7 0) (length 2.54)
        (name "A5" (effects (font (size 1.27 1.27))))
        (number "7" (effects (font (size 1.27 1.27))))
      )
      (pin input line (at -10.16 15.24 0) (length 2.54)
        (name "A4" (effects (font (size 1.27 1.27))))
        (number "8" (effects (font (size 1.27 1.27))))
      )
      (pin input line (at -10.16 17.78 0) (length 2.54)
        (name "A3" (effects (font (size 1.27 1.27))))
        (number "9" (effects (font (size 1.27 1.27))))
      )
      (pin input line (at -10.16 20.32 0) (length 2.54)
        (name "A2" (effects (font (size 1.27 1.27))))
        (number "10" (effects (font (size 1.27 1.27))))
      )
      (pin tri_state line (at 10.16 10.16 180) (length 2.54)
        (name "D6" (effects (font (size 1.27 1.27))))
        (number "20" (effects (font (size 1.27 1.27))))
      )
      (pin input line (at -10.16 22.86 0) (length 2.54)
        (name "A1" (effects (font (size 1.27 1.27))))
        (number "11" (effects (font (size 1.27 1.27))))
      )
      (pin tri_state line (at 10.16 7.62 180) (length 2.54)
        (name "D7" (effects (font (size 1.27 1.27))))
        (number "21" (effects (font (size 1.27 1.27))))
      )
      (pin input line (at -10.16 -20.32 0) (length 2.54)
        (name "~PGM" (effects (font (size 1.27 1.27))))
        (number "31" (effects (font (size 1.27 1.27))))
      )
      (pin input line (at -10.16 25.4 0) (length 2.54)
        (name "A0" (effects (font (size 1.27 1.27))))
        (number "12" (effects (font (size 1.27 1.27))))
      )
      (pin input line (at -10.16 -25.4 0) (length 2.54)
        (name "~CE" (effects (font (size 1.27 1.27))))
        (number "22" (effects (font (size 1.27 1.27))))
      )
      (pin power_in line (at 0 30.48 270) (length 2.54)
        (name "VCC" (effects (font (size 1.27 1.27))))
        (number "32" (effects (font (size 1.27 1.27))))
      )
      (pin tri_state line (at 10.16 25.4 180) (length 2.54)
        (name "D0" (effects (font (size 1.27 1.27))))
        (number "13" (effects (font (size 1.27 1.27))))
      )
      (pin input line (at -10.16 0 0) (length 2.54)
        (name "A10" (effects (font (size 1.27 1.27))))
        (number "23" (effects (font (size 1.27 1.27))))
      )
      (pin tri_state line (at 10.16 22.86 180) (length 2.54)
        (name "D1" (effects (font (size 1.27 1.27))))
        (number "14" (effects (font (size 1.27 1.27))))
      )
      (pin input line (at -10.16 -27.94 0) (length 2.54)
        (name "~OE" (effects (font (size 1.27 1.27))))
        (number "24" (effects (font (size 1.27 1.27))))
      )
      (pin tri_state line (at 10.16 20.32 180) (length 2.54)
        (name "D2" (effects (font (size 1.27 1.27))))
        (number "15" (effects (font (size 1.27 1.27))))
      )
      (pin input line (at -10.16 -2.54 0) (length 2.54)
        (name "A11" (effects (font (size 1.27 1.27))))
        (number "25" (effects (font (size 1.27 1.27))))
      )
      (pin power_in line (at 0 -33.02 90) (length 2.54)
        (name "GND" (effects (font (size 1.27 1.27))))
        (number "16" (effects (font (size 1.27 1.27))))
      )
      (pin input line (at -10.16 2.54 0) (length 2.54)
        (name "A9" (effects (font (size 1.27 1.27))))
        (number "26" (effects (font (size 1.27 1.27))))
      )
      (pin tri_state line (at 10.16 17.78 180) (length 2.54)
        (name "D3" (effects (font (size 1.27 1.27))))
        (number "17" (effects (font (size 1.27 1.27))))
      )
      (pin input line (at -10.16 5.08 0) (length 2.54)
        (name "A8" (effects (font (size 1.27 1.27))))
        (number "27" (effects (font (size 1.27 1.27))))
      )
      (pin tri_state line (at 10.16 15.24 180) (length 2.54)
        (name "D4" (effects (font (size 1.27 1.27))))
        (number "18" (effects (font (size 1.27 1.27))))
      )
      (pin input line (at -10.16 -7.62 0) (length 2.54)
        (name "A13" (effects (font (size 1.27 1.27))))
        (number "28" (effects (font (size 1.27 1.27))))
      )
      (pin tri_state line (at 10.16 12.7 180) (length 2.54)
        (name "D5" (effects (font (size 1.27 1.27))))
        (number "19" (effects (font (size 1.27 1.27))))
      )
      (pin input line (at -10.16 -10.16 0) (length 2.54)
        (name "A14" (effects (font (size 1.27 1.27))))
        (number "29" (effects (font (size 1.27 1.27))))
      )
    )
  )
  (symbol "Memory_EPROM:27C020" (in_bom yes) (on_board yes)
    (property "Reference" "U" (id 0) (at -7.62 31.75 0)
      (effects (font (size 1.27 1.27)))
    )
    (property "Value" "27C020" (id 1) (at 2.54 -31.75 0)
      (effects (font (size 1.27 1.27)) (justify left))
    )
    (property "Footprint" "" (id 2) (at 0 0 0)
      (effects (font (size 1.27 1.27)) hide)
    )
    (property "Datasheet" "http://ww1.microchip.com/downloads/en/devicedoc/doc0570.pdf" (id 3) (at 0 0 0)
      (effects (font (size 1.27 1.27)) hide)
    )
    (property "ki_keywords" "OTP EPROM 2MiBit" (id 4) (at 0 0 0)
      (effects (font (size 1.27 1.27)) hide)
    )
    (property "ki_description" "OTP EPROM 2 MiBit (256 Ki x 8 Bit)" (id 5) (at 0 0 0)
      (effects (font (size 1.27 1.27)) hide)
    )
    (property "ki_fp_filters" "DIP*W15.24mm* PLCC*" (id 6) (at 0 0 0)
      (effects (font (size 1.27 1.27)) hide)
    )
    (symbol "27C020_1_1"
      (rectangle (start -7.62 30.48) (end 7.62 -30.48)
        (stroke (width 0.254)) (fill (type background))
      )
      (pin input line (at -10.16 -22.86 0) (length 2.54)
        (name "VPP" (effects (font (size 1.27 1.27))))
        (number "1" (effects (font (size 1.27 1.27))))
      )
      (pin input line (at -10.16 -12.7 0) (length 2.54)
        (name "A16" (effects (font (size 1.27 1.27))))
        (number "2" (effects (font (size 1.27 1.27))))
      )
      (pin input line (at -10.16 -10.16 0) (length 2.54)
        (name "A15" (effects (font (size 1.27 1.27))))
        (number "3" (effects (font (size 1.27 1.27))))
      )
      (pin input line (at -10.16 -2.54 0) (length 2.54)
        (name "A12" (effects (font (size 1.27 1.27))))
        (number "4" (effects (font (size 1.27 1.27))))
      )
      (pin input line (at -10.16 10.16 0) (length 2.54)
        (name "A7" (effects (font (size 1.27 1.27))))
        (number "5" (effects (font (size 1.27 1.27))))
      )
      (pin input line (at -10.16 12.7 0) (length 2.54)
        (name "A6" (effects (font (size 1.27 1.27))))
        (number "6" (effects (font (size 1.27 1.27))))
      )
      (pin input line (at -10.16 15.24 0) (length 2.54)
        (name "A5" (effects (font (size 1.27 1.27))))
        (number "7" (effects (font (size 1.27 1.27))))
      )
      (pin input line (at -10.16 17.78 0) (length 2.54)
        (name "A4" (effects (font (size 1.27 1.27))))
        (number "8" (effects (font (size 1.27 1.27))))
      )
      (pin input line (at -10.16 20.32 0) (length 2.54)
        (name "A3" (effects (font (size 1.27 1.27))))
        (number "9" (effects (font (size 1.27 1.27))))
      )
      (pin input line (at -10.16 22.86 0) (length 2.54)
        (name "A2" (effects (font (size 1.27 1.27))))
        (number "10" (effects (font (size 1.27 1.27))))
      )
      (pin tri_state line (at 10.16 12.7 180) (length 2.54)
        (name "D6" (effects (font (size 1.27 1.27))))
        (number "20" (effects (font (size 1.27 1.27))))
      )
      (pin input line (at -10.16 -15.24 0) (length 2.54)
        (name "A17" (effects (font (size 1.27 1.27))))
        (number "30" (effects (font (size 1.27 1.27))))
      )
      (pin input line (at -10.16 25.4 0) (length 2.54)
        (name "A1" (effects (font (size 1.27 1.27))))
        (number "11" (effects (font (size 1.27 1.27))))
      )
      (pin tri_state line (at 10.16 10.16 180) (length 2.54)
        (name "D7" (effects (font (size 1.27 1.27))))
        (number "21" (effects (font (size 1.27 1.27))))
      )
      (pin input line (at -10.16 -20.32 0) (length 2.54)
        (name "~PGM" (effects (font (size 1.27 1.27))))
        (number "31" (effects (font (size 1.27 1.27))))
      )
      (pin input line (at -10.16 27.94 0) (length 2.54)
        (name "A0" (effects (font (size 1.27 1.27))))
        (number "12" (effects (font (size 1.27 1.27))))
      )
      (pin input line (at -10.16 -25.4 0) (length 2.54)
        (name "~CE" (effects (font (size 1.27 1.27))))
        (number "22" (effects (font (size 1.27 1.27))))
      )
      (pin power_in line (at 0 33.02 270) (length 2.54)
        (name "VCC" (effects (font (size 1.27 1.27))))
        (number "32" (effects (font (size 1.27 1.27))))
      )
      (pin tri_state line (at 10.16 27.94 180) (length 2.54)
        (name "D0" (effects (font (size 1.27 1.27))))
        (number "13" (effects (font (size 1.27 1.27))))
      )
      (pin input line (at -10.16 2.54 0) (length 2.54)
        (name "A10" (effects (font (size 1.27 1.27))))
        (number "23" (effects (font (size 1.27 1.27))))
      )
      (pin tri_state line (at 10.16 25.4 180) (length 2.54)
        (name "D1" (effects (font (size 1.27 1.27))))
        (number "14" (effects (font (size 1.27 1.27))))
      )
      (pin input line (at -10.16 -27.94 0) (length 2.54)
        (name "~OE" (effects (font (size 1.27 1.27))))
        (number "24" (effects (font (size 1.27 1.27))))
      )
      (pin tri_state line (at 10.16 22.86 180) (length 2.54)
        (name "D2" (effects (font (size 1.27 1.27))))
        (number "15" (effects (font (size 1.27 1.27))))
      )
      (pin input line (at -10.16 0 0) (length 2.54)
        (name "A11" (effects (font (size 1.27 1.27))))
        (number "25" (effects (font (size 1.27 1.27))))
      )
      (pin power_in line (at 0 -33.02 90) (length 2.54)
        (name "GND" (effects (font (size 1.27 1.27))))
        (number "16" (effects (font (size 1.27 1.27))))
      )
      (pin input line (at -10.16 5.08 0) (length 2.54)
        (name "A9" (effects (font (size 1.27 1.27))))
        (number "26" (effects (font (size 1.27 1.27))))
      )
      (pin tri_state line (at 10.16 20.32 180) (length 2.54)
        (name "D3" (effects (font (size 1.27 1.27))))
        (number "17" (effects (font (size 1.27 1.27))))
      )
      (pin input line (at -10.16 7.62 0) (length 2.54)
        (name "A8" (effects (font (size 1.27 1.27))))
        (number "27" (effects (font (size 1.27 1.27))))
      )
      (pin tri_state line (at 10.16 17.78 180) (length 2.54)
        (name "D4" (effects (font (size 1.27 1.27))))
        (number "18" (effects (font (size 1.27 1.27))))
      )
      (pin input line (at -10.16 -5.08 0) (length 2.54)
        (name "A13" (effects (font (size 1.27 1.27))))
        (number "28" (effects (font (size 1.27 1.27))))
      )
      (pin tri_state line (at 10.16 15.24 180) (length 2.54)
        (name "D5" (effects (font (size 1.27 1.27))))
        (number "19" (effects (font (size 1.27 1.27))))
      )
      (pin input line (at -10.16 -7.62 0) (length 2.54)
        (name "A14" (effects (font (size 1.27 1.27))))
        (number "29" (effects (font (size 1.27 1.27))))
      )
    )
  )
  (symbol "Memory_EPROM:27C040" (in_bom yes) (on_board yes)
    (property "Reference" "U" (id 0) (at -7.62 31.75 0)
      (effects (font (size 1.27 1.27)))
    )
    (property "Value" "27C040" (id 1) (at 2.54 -31.75 0)
      (effects (font (size 1.27 1.27)) (justify left))
    )
    (property "Footprint" "" (id 2) (at 0 0 0)
      (effects (font (size 1.27 1.27)) hide)
    )
    (property "Datasheet" "http://ww1.microchip.com/downloads/en/devicedoc/doc0189.pdf" (id 3) (at 0 0 0)
      (effects (font (size 1.27 1.27)) hide)
    )
    (property "ki_keywords" "OTP EPROM 4MiBit" (id 4) (at 0 0 0)
      (effects (font (size 1.27 1.27)) hide)
    )
    (property "ki_description" "OTP EPROM 4 MiBit (512 Ki x 8)" (id 5) (at 0 0 0)
      (effects (font (size 1.27 1.27)) hide)
    )
    (property "ki_fp_filters" "DIP*W15.24mm* PLCC*" (id 6) (at 0 0 0)
      (effects (font (size 1.27 1.27)) hide)
    )
    (symbol "27C040_1_1"
      (rectangle (start -7.62 30.48) (end 7.62 -30.48)
        (stroke (width 0.254)) (fill (type background))
      )
      (pin input line (at -10.16 -22.86 0) (length 2.54)
        (name "VPP" (effects (font (size 1.27 1.27))))
        (number "1" (effects (font (size 1.27 1.27))))
      )
      (pin input line (at -10.16 -12.7 0) (length 2.54)
        (name "A16" (effects (font (size 1.27 1.27))))
        (number "2" (effects (font (size 1.27 1.27))))
      )
      (pin input line (at -10.16 -10.16 0) (length 2.54)
        (name "A15" (effects (font (size 1.27 1.27))))
        (number "3" (effects (font (size 1.27 1.27))))
      )
      (pin input line (at -10.16 -2.54 0) (length 2.54)
        (name "A12" (effects (font (size 1.27 1.27))))
        (number "4" (effects (font (size 1.27 1.27))))
      )
      (pin input line (at -10.16 10.16 0) (length 2.54)
        (name "A7" (effects (font (size 1.27 1.27))))
        (number "5" (effects (font (size 1.27 1.27))))
      )
      (pin input line (at -10.16 12.7 0) (length 2.54)
        (name "A6" (effects (font (size 1.27 1.27))))
        (number "6" (effects (font (size 1.27 1.27))))
      )
      (pin input line (at -10.16 15.24 0) (length 2.54)
        (name "A5" (effects (font (size 1.27 1.27))))
        (number "7" (effects (font (size 1.27 1.27))))
      )
      (pin input line (at -10.16 17.78 0) (length 2.54)
        (name "A4" (effects (font (size 1.27 1.27))))
        (number "8" (effects (font (size 1.27 1.27))))
      )
      (pin input line (at -10.16 20.32 0) (length 2.54)
        (name "A3" (effects (font (size 1.27 1.27))))
        (number "9" (effects (font (size 1.27 1.27))))
      )
      (pin input line (at -10.16 22.86 0) (length 2.54)
        (name "A2" (effects (font (size 1.27 1.27))))
        (number "10" (effects (font (size 1.27 1.27))))
      )
      (pin tri_state line (at 10.16 12.7 180) (length 2.54)
        (name "D6" (effects (font (size 1.27 1.27))))
        (number "20" (effects (font (size 1.27 1.27))))
      )
      (pin input line (at -10.16 -15.24 0) (length 2.54)
        (name "A17" (effects (font (size 1.27 1.27))))
        (number "30" (effects (font (size 1.27 1.27))))
      )
      (pin input line (at -10.16 25.4 0) (length 2.54)
        (name "A1" (effects (font (size 1.27 1.27))))
        (number "11" (effects (font (size 1.27 1.27))))
      )
      (pin tri_state line (at 10.16 10.16 180) (length 2.54)
        (name "D7" (effects (font (size 1.27 1.27))))
        (number "21" (effects (font (size 1.27 1.27))))
      )
      (pin input line (at -10.16 -17.78 0) (length 2.54)
        (name "A18" (effects (font (size 1.27 1.27))))
        (number "31" (effects (font (size 1.27 1.27))))
      )
      (pin input line (at -10.16 27.94 0) (length 2.54)
        (name "A0" (effects (font (size 1.27 1.27))))
        (number "12" (effects (font (size 1.27 1.27))))
      )
      (pin input line (at -10.16 -25.4 0) (length 2.54)
        (name "~CE" (effects (font (size 1.27 1.27))))
        (number "22" (effects (font (size 1.27 1.27))))
      )
      (pin power_in line (at 0 33.02 270) (length 2.54)
        (name "VCC" (effects (font (size 1.27 1.27))))
        (number "32" (effects (font (size 1.27 1.27))))
      )
      (pin tri_state line (at 10.16 27.94 180) (length 2.54)
        (name "D0" (effects (font (size 1.27 1.27))))
        (number "13" (effects (font (size 1.27 1.27))))
      )
      (pin input line (at -10.16 2.54 0) (length 2.54)
        (name "A10" (effects (font (size 1.27 1.27))))
        (number "23" (effects (font (size 1.27 1.27))))
      )
      (pin tri_state line (at 10.16 25.4 180) (length 2.54)
        (name "D1" (effects (font (size 1.27 1.27))))
        (number "14" (effects (font (size 1.27 1.27))))
      )
      (pin input line (at -10.16 -27.94 0) (length 2.54)
        (name "~OE" (effects (font (size 1.27 1.27))))
        (number "24" (effects (font (size 1.27 1.27))))
      )
      (pin tri_state line (at 10.16 22.86 180) (length 2.54)
        (name "D2" (effects (font (size 1.27 1.27))))
        (number "15" (effects (font (size 1.27 1.27))))
      )
      (pin input line (at -10.16 0 0) (length 2.54)
        (name "A11" (effects (font (size 1.27 1.27))))
        (number "25" (effects (font (size 1.27 1.27))))
      )
      (pin power_in line (at 0 -33.02 90) (length 2.54)
        (name "GND" (effects (font (size 1.27 1.27))))
        (number "16" (effects (font (size 1.27 1.27))))
      )
      (pin input line (at -10.16 5.08 0) (length 2.54)
        (name "A9" (effects (font (size 1.27 1.27))))
        (number "26" (effects (font (size 1.27 1.27))))
      )
      (pin tri_state line (at 10.16 20.32 180) (length 2.54)
        (name "D3" (effects (font (size 1.27 1.27))))
        (number "17" (effects (font (size 1.27 1.27))))
      )
      (pin input line (at -10.16 7.62 0) (length 2.54)
        (name "A8" (effects (font (size 1.27 1.27))))
        (number "27" (effects (font (size 1.27 1.27))))
      )
      (pin tri_state line (at 10.16 17.78 180) (length 2.54)
        (name "D4" (effects (font (size 1.27 1.27))))
        (number "18" (effects (font (size 1.27 1.27))))
      )
      (pin input line (at -10.16 -5.08 0) (length 2.54)
        (name "A13" (effects (font (size 1.27 1.27))))
        (number "28" (effects (font (size 1.27 1.27))))
      )
      (pin tri_state line (at 10.16 15.24 180) (length 2.54)
        (name "D5" (effects (font (size 1.27 1.27))))
        (number "19" (effects (font (size 1.27 1.27))))
      )
      (pin input line (at -10.16 -7.62 0) (length 2.54)
        (name "A14" (effects (font (size 1.27 1.27))))
        (number "29" (effects (font (size 1.27 1.27))))
      )
    )
  )
  (symbol "Memory_EPROM:27C080" (in_bom yes) (on_board yes)
    (property "Reference" "U" (id 0) (at -7.62 31.75 0)
      (effects (font (size 1.27 1.27)))
    )
    (property "Value" "27C080" (id 1) (at 2.54 -31.75 0)
      (effects (font (size 1.27 1.27)) (justify left))
    )
    (property "Footprint" "" (id 2) (at 0 0 0)
      (effects (font (size 1.27 1.27)) hide)
    )
    (property "Datasheet" "http://ww1.microchip.com/downloads/en/devicedoc/doc0360.pdf" (id 3) (at 0 0 0)
      (effects (font (size 1.27 1.27)) hide)
    )
    (property "ki_keywords" "OTP EPROM 8MiBit" (id 4) (at 0 0 0)
      (effects (font (size 1.27 1.27)) hide)
    )
    (property "ki_description" "OTP EPROM 8 MiBit (1 Mi x 8)" (id 5) (at 0 0 0)
      (effects (font (size 1.27 1.27)) hide)
    )
    (property "ki_fp_filters" "DIP*W15.24mm* PLCC*" (id 6) (at 0 0 0)
      (effects (font (size 1.27 1.27)) hide)
    )
    (symbol "27C080_1_1"
      (rectangle (start -7.62 30.48) (end 7.62 -30.48)
        (stroke (width 0.254)) (fill (type background))
      )
      (pin input line (at -10.16 -20.32 0) (length 2.54)
        (name "A19" (effects (font (size 1.27 1.27))))
        (number "1" (effects (font (size 1.27 1.27))))
      )
      (pin input line (at -10.16 -12.7 0) (length 2.54)
        (name "A16" (effects (font (size 1.27 1.27))))
        (number "2" (effects (font (size 1.27 1.27))))
      )
      (pin input line (at -10.16 -10.16 0) (length 2.54)
        (name "A15" (effects (font (size 1.27 1.27))))
        (number "3" (effects (font (size 1.27 1.27))))
      )
      (pin input line (at -10.16 -2.54 0) (length 2.54)
        (name "A12" (effects (font (size 1.27 1.27))))
        (number "4" (effects (font (size 1.27 1.27))))
      )
      (pin input line (at -10.16 10.16 0) (length 2.54)
        (name "A7" (effects (font (size 1.27 1.27))))
        (number "5" (effects (font (size 1.27 1.27))))
      )
      (pin input line (at -10.16 12.7 0) (length 2.54)
        (name "A6" (effects (font (size 1.27 1.27))))
        (number "6" (effects (font (size 1.27 1.27))))
      )
      (pin input line (at -10.16 15.24 0) (length 2.54)
        (name "A5" (effects (font (size 1.27 1.27))))
        (number "7" (effects (font (size 1.27 1.27))))
      )
      (pin input line (at -10.16 17.78 0) (length 2.54)
        (name "A4" (effects (font (size 1.27 1.27))))
        (number "8" (effects (font (size 1.27 1.27))))
      )
      (pin input line (at -10.16 20.32 0) (length 2.54)
        (name "A3" (effects (font (size 1.27 1.27))))
        (number "9" (effects (font (size 1.27 1.27))))
      )
      (pin input line (at -10.16 22.86 0) (length 2.54)
        (name "A2" (effects (font (size 1.27 1.27))))
        (number "10" (effects (font (size 1.27 1.27))))
      )
      (pin tri_state line (at 10.16 12.7 180) (length 2.54)
        (name "D6" (effects (font (size 1.27 1.27))))
        (number "20" (effects (font (size 1.27 1.27))))
      )
      (pin input line (at -10.16 -15.24 0) (length 2.54)
        (name "A17" (effects (font (size 1.27 1.27))))
        (number "30" (effects (font (size 1.27 1.27))))
      )
      (pin input line (at -10.16 25.4 0) (length 2.54)
        (name "A1" (effects (font (size 1.27 1.27))))
        (number "11" (effects (font (size 1.27 1.27))))
      )
      (pin tri_state line (at 10.16 10.16 180) (length 2.54)
        (name "D7" (effects (font (size 1.27 1.27))))
        (number "21" (effects (font (size 1.27 1.27))))
      )
      (pin input line (at -10.16 -17.78 0) (length 2.54)
        (name "A18" (effects (font (size 1.27 1.27))))
        (number "31" (effects (font (size 1.27 1.27))))
      )
      (pin input line (at -10.16 27.94 0) (length 2.54)
        (name "A0" (effects (font (size 1.27 1.27))))
        (number "12" (effects (font (size 1.27 1.27))))
      )
      (pin input line (at -10.16 -25.4 0) (length 2.54)
        (name "~CE" (effects (font (size 1.27 1.27))))
        (number "22" (effects (font (size 1.27 1.27))))
      )
      (pin power_in line (at 0 33.02 270) (length 2.54)
        (name "VCC" (effects (font (size 1.27 1.27))))
        (number "32" (effects (font (size 1.27 1.27))))
      )
      (pin tri_state line (at 10.16 27.94 180) (length 2.54)
        (name "D0" (effects (font (size 1.27 1.27))))
        (number "13" (effects (font (size 1.27 1.27))))
      )
      (pin input line (at -10.16 2.54 0) (length 2.54)
        (name "A10" (effects (font (size 1.27 1.27))))
        (number "23" (effects (font (size 1.27 1.27))))
      )
      (pin tri_state line (at 10.16 25.4 180) (length 2.54)
        (name "D1" (effects (font (size 1.27 1.27))))
        (number "14" (effects (font (size 1.27 1.27))))
      )
      (pin input line (at -10.16 -27.94 0) (length 2.54)
        (name "~OE" (effects (font (size 1.27 1.27))))
        (number "24" (effects (font (size 1.27 1.27))))
      )
      (pin tri_state line (at 10.16 22.86 180) (length 2.54)
        (name "D2" (effects (font (size 1.27 1.27))))
        (number "15" (effects (font (size 1.27 1.27))))
      )
      (pin input line (at -10.16 0 0) (length 2.54)
        (name "A11" (effects (font (size 1.27 1.27))))
        (number "25" (effects (font (size 1.27 1.27))))
      )
      (pin power_in line (at 0 -33.02 90) (length 2.54)
        (name "GND" (effects (font (size 1.27 1.27))))
        (number "16" (effects (font (size 1.27 1.27))))
      )
      (pin input line (at -10.16 5.08 0) (length 2.54)
        (name "A9" (effects (font (size 1.27 1.27))))
        (number "26" (effects (font (size 1.27 1.27))))
      )
      (pin tri_state line (at 10.16 20.32 180) (length 2.54)
        (name "D3" (effects (font (size 1.27 1.27))))
        (number "17" (effects (font (size 1.27 1.27))))
      )
      (pin input line (at -10.16 7.62 0) (length 2.54)
        (name "A8" (effects (font (size 1.27 1.27))))
        (number "27" (effects (font (size 1.27 1.27))))
      )
      (pin tri_state line (at 10.16 17.78 180) (length 2.54)
        (name "D4" (effects (font (size 1.27 1.27))))
        (number "18" (effects (font (size 1.27 1.27))))
      )
      (pin input line (at -10.16 -5.08 0) (length 2.54)
        (name "A13" (effects (font (size 1.27 1.27))))
        (number "28" (effects (font (size 1.27 1.27))))
      )
      (pin tri_state line (at 10.16 15.24 180) (length 2.54)
        (name "D5" (effects (font (size 1.27 1.27))))
        (number "19" (effects (font (size 1.27 1.27))))
      )
      (pin input line (at -10.16 -7.62 0) (length 2.54)
        (name "A14" (effects (font (size 1.27 1.27))))
        (number "29" (effects (font (size 1.27 1.27))))
      )
    )
  )
  (symbol "Memory_EPROM:27C128" (in_bom yes) (on_board yes)
    (property "Reference" "U" (id 0) (at -7.62 26.67 0)
      (effects (font (size 1.27 1.27)))
    )
    (property "Value" "27C128" (id 1) (at 2.54 -26.67 0)
      (effects (font (size 1.27 1.27)) (justify left))
    )
    (property "Footprint" "Package_DIP:DIP-28_W15.24mm" (id 2) (at 0 0 0)
      (effects (font (size 1.27 1.27)) hide)
    )
    (property "Datasheet" "http://ww1.microchip.com/downloads/en/devicedoc/11003L.pdf" (id 3) (at 0 0 0)
      (effects (font (size 1.27 1.27)) hide)
    )
    (property "ki_keywords" "OTP EPROM 128KiBit" (id 4) (at 0 0 0)
      (effects (font (size 1.27 1.27)) hide)
    )
    (property "ki_description" "OTP EPROM 128 KiBit, [Obsolete 2004-01]" (id 5) (at 0 0 0)
      (effects (font (size 1.27 1.27)) hide)
    )
    (property "ki_fp_filters" "DIP*W15.24mm*" (id 6) (at 0 0 0)
      (effects (font (size 1.27 1.27)) hide)
    )
    (symbol "27C128_1_1"
      (rectangle (start -7.62 25.4) (end 7.62 -25.4)
        (stroke (width 0.254)) (fill (type background))
      )
      (pin input line (at -10.16 -17.78 0) (length 2.54)
        (name "VPP" (effects (font (size 1.27 1.27))))
        (number "1" (effects (font (size 1.27 1.27))))
      )
      (pin input line (at -10.16 -7.62 0) (length 2.54)
        (name "A12" (effects (font (size 1.27 1.27))))
        (number "2" (effects (font (size 1.27 1.27))))
      )
      (pin input line (at -10.16 5.08 0) (length 2.54)
        (name "A7" (effects (font (size 1.27 1.27))))
        (number "3" (effects (font (size 1.27 1.27))))
      )
      (pin input line (at -10.16 7.62 0) (length 2.54)
        (name "A6" (effects (font (size 1.27 1.27))))
        (number "4" (effects (font (size 1.27 1.27))))
      )
      (pin input line (at -10.16 10.16 0) (length 2.54)
        (name "A5" (effects (font (size 1.27 1.27))))
        (number "5" (effects (font (size 1.27 1.27))))
      )
      (pin input line (at -10.16 12.7 0) (length 2.54)
        (name "A4" (effects (font (size 1.27 1.27))))
        (number "6" (effects (font (size 1.27 1.27))))
      )
      (pin input line (at -10.16 15.24 0) (length 2.54)
        (name "A3" (effects (font (size 1.27 1.27))))
        (number "7" (effects (font (size 1.27 1.27))))
      )
      (pin input line (at -10.16 17.78 0) (length 2.54)
        (name "A2" (effects (font (size 1.27 1.27))))
        (number "8" (effects (font (size 1.27 1.27))))
      )
      (pin input line (at -10.16 20.32 0) (length 2.54)
        (name "A1" (effects (font (size 1.27 1.27))))
        (number "9" (effects (font (size 1.27 1.27))))
      )
      (pin input line (at -10.16 22.86 0) (length 2.54)
        (name "A0" (effects (font (size 1.27 1.27))))
        (number "10" (effects (font (size 1.27 1.27))))
      )
      (pin input line (at -10.16 -20.32 0) (length 2.54)
        (name "~CE" (effects (font (size 1.27 1.27))))
        (number "20" (effects (font (size 1.27 1.27))))
      )
      (pin tri_state line (at 10.16 22.86 180) (length 2.54)
        (name "D0" (effects (font (size 1.27 1.27))))
        (number "11" (effects (font (size 1.27 1.27))))
      )
      (pin input line (at -10.16 -2.54 0) (length 2.54)
        (name "A10" (effects (font (size 1.27 1.27))))
        (number "21" (effects (font (size 1.27 1.27))))
      )
      (pin tri_state line (at 10.16 20.32 180) (length 2.54)
        (name "D1" (effects (font (size 1.27 1.27))))
        (number "12" (effects (font (size 1.27 1.27))))
      )
      (pin input line (at -10.16 -22.86 0) (length 2.54)
        (name "~OE" (effects (font (size 1.27 1.27))))
        (number "22" (effects (font (size 1.27 1.27))))
      )
      (pin tri_state line (at 10.16 17.78 180) (length 2.54)
        (name "D2" (effects (font (size 1.27 1.27))))
        (number "13" (effects (font (size 1.27 1.27))))
      )
      (pin input line (at -10.16 -5.08 0) (length 2.54)
        (name "A11" (effects (font (size 1.27 1.27))))
        (number "23" (effects (font (size 1.27 1.27))))
      )
      (pin power_in line (at 0 -27.94 90) (length 2.54)
        (name "GND" (effects (font (size 1.27 1.27))))
        (number "14" (effects (font (size 1.27 1.27))))
      )
      (pin input line (at -10.16 0 0) (length 2.54)
        (name "A9" (effects (font (size 1.27 1.27))))
        (number "24" (effects (font (size 1.27 1.27))))
      )
      (pin tri_state line (at 10.16 15.24 180) (length 2.54)
        (name "D3" (effects (font (size 1.27 1.27))))
        (number "15" (effects (font (size 1.27 1.27))))
      )
      (pin input line (at -10.16 2.54 0) (length 2.54)
        (name "A8" (effects (font (size 1.27 1.27))))
        (number "25" (effects (font (size 1.27 1.27))))
      )
      (pin tri_state line (at 10.16 12.7 180) (length 2.54)
        (name "D4" (effects (font (size 1.27 1.27))))
        (number "16" (effects (font (size 1.27 1.27))))
      )
      (pin input line (at -10.16 -10.16 0) (length 2.54)
        (name "A13" (effects (font (size 1.27 1.27))))
        (number "26" (effects (font (size 1.27 1.27))))
      )
      (pin tri_state line (at 10.16 10.16 180) (length 2.54)
        (name "D5" (effects (font (size 1.27 1.27))))
        (number "17" (effects (font (size 1.27 1.27))))
      )
      (pin input line (at -10.16 -15.24 0) (length 2.54)
        (name "~PGM" (effects (font (size 1.27 1.27))))
        (number "27" (effects (font (size 1.27 1.27))))
      )
      (pin tri_state line (at 10.16 7.62 180) (length 2.54)
        (name "D6" (effects (font (size 1.27 1.27))))
        (number "18" (effects (font (size 1.27 1.27))))
      )
      (pin power_in line (at 0 27.94 270) (length 2.54)
        (name "VCC" (effects (font (size 1.27 1.27))))
        (number "28" (effects (font (size 1.27 1.27))))
      )
      (pin tri_state line (at 10.16 5.08 180) (length 2.54)
        (name "D7" (effects (font (size 1.27 1.27))))
        (number "19" (effects (font (size 1.27 1.27))))
      )
    )
  )
  (symbol "Memory_EPROM:27128" (extends "27C128")
    (property "Reference" "U" (id 0) (at -7.62 26.67 0)
      (effects (font (size 1.27 1.27)))
    )
    (property "Value" "27128" (id 1) (at 2.54 -26.67 0)
      (effects (font (size 1.27 1.27)) (justify left))
    )
    (property "Footprint" "Package_DIP:DIP-28_W15.24mm" (id 2) (at 0 0 0)
      (effects (font (size 1.27 1.27)) hide)
    )
    (property "Datasheet" "http://eeshop.unl.edu/pdf/27128.pdf" (id 3) (at 0 0 0)
      (effects (font (size 1.27 1.27)) hide)
    )
    (property "ki_keywords" "Erasable OTP EPROM 128KiBit" (id 4) (at 0 0 0)
      (effects (font (size 1.27 1.27)) hide)
    )
    (property "ki_description" "UV Erasable EPROM 128 KiBit, [Obsolete 2000-11]" (id 5) (at 0 0 0)
      (effects (font (size 1.27 1.27)) hide)
    )
    (property "ki_fp_filters" "DIP*W15.24mm*" (id 6) (at 0 0 0)
      (effects (font (size 1.27 1.27)) hide)
    )
  )
  (symbol "Memory_EPROM:27C256" (in_bom yes) (on_board yes)
    (property "Reference" "U" (id 0) (at -7.62 26.67 0)
      (effects (font (size 1.27 1.27)))
    )
    (property "Value" "27C256" (id 1) (at 2.54 -26.67 0)
      (effects (font (size 1.27 1.27)) (justify left))
    )
    (property "Footprint" "Package_DIP:DIP-28_W15.24mm" (id 2) (at 0 0 0)
      (effects (font (size 1.27 1.27)) hide)
    )
    (property "Datasheet" "http://ww1.microchip.com/downloads/en/DeviceDoc/doc0014.pdf" (id 3) (at 0 0 0)
      (effects (font (size 1.27 1.27)) hide)
    )
    (property "ki_keywords" "OTP EPROM 256 KiBit" (id 4) (at 0 0 0)
      (effects (font (size 1.27 1.27)) hide)
    )
    (property "ki_description" "OTP EPROM 256 KiBit" (id 5) (at 0 0 0)
      (effects (font (size 1.27 1.27)) hide)
    )
    (property "ki_fp_filters" "DIP*W15.24mm*" (id 6) (at 0 0 0)
      (effects (font (size 1.27 1.27)) hide)
    )
    (symbol "27C256_1_1"
      (rectangle (start -7.62 25.4) (end 7.62 -25.4)
        (stroke (width 0.254)) (fill (type background))
      )
      (pin input line (at -10.16 -17.78 0) (length 2.54)
        (name "VPP" (effects (font (size 1.27 1.27))))
        (number "1" (effects (font (size 1.27 1.27))))
      )
      (pin input line (at -10.16 -7.62 0) (length 2.54)
        (name "A12" (effects (font (size 1.27 1.27))))
        (number "2" (effects (font (size 1.27 1.27))))
      )
      (pin input line (at -10.16 5.08 0) (length 2.54)
        (name "A7" (effects (font (size 1.27 1.27))))
        (number "3" (effects (font (size 1.27 1.27))))
      )
      (pin input line (at -10.16 7.62 0) (length 2.54)
        (name "A6" (effects (font (size 1.27 1.27))))
        (number "4" (effects (font (size 1.27 1.27))))
      )
      (pin input line (at -10.16 10.16 0) (length 2.54)
        (name "A5" (effects (font (size 1.27 1.27))))
        (number "5" (effects (font (size 1.27 1.27))))
      )
      (pin input line (at -10.16 12.7 0) (length 2.54)
        (name "A4" (effects (font (size 1.27 1.27))))
        (number "6" (effects (font (size 1.27 1.27))))
      )
      (pin input line (at -10.16 15.24 0) (length 2.54)
        (name "A3" (effects (font (size 1.27 1.27))))
        (number "7" (effects (font (size 1.27 1.27))))
      )
      (pin input line (at -10.16 17.78 0) (length 2.54)
        (name "A2" (effects (font (size 1.27 1.27))))
        (number "8" (effects (font (size 1.27 1.27))))
      )
      (pin input line (at -10.16 20.32 0) (length 2.54)
        (name "A1" (effects (font (size 1.27 1.27))))
        (number "9" (effects (font (size 1.27 1.27))))
      )
      (pin input line (at -10.16 22.86 0) (length 2.54)
        (name "A0" (effects (font (size 1.27 1.27))))
        (number "10" (effects (font (size 1.27 1.27))))
      )
      (pin input line (at -10.16 -20.32 0) (length 2.54)
        (name "~CE" (effects (font (size 1.27 1.27))))
        (number "20" (effects (font (size 1.27 1.27))))
      )
      (pin tri_state line (at 10.16 22.86 180) (length 2.54)
        (name "D0" (effects (font (size 1.27 1.27))))
        (number "11" (effects (font (size 1.27 1.27))))
      )
      (pin input line (at -10.16 -2.54 0) (length 2.54)
        (name "A10" (effects (font (size 1.27 1.27))))
        (number "21" (effects (font (size 1.27 1.27))))
      )
      (pin tri_state line (at 10.16 20.32 180) (length 2.54)
        (name "D1" (effects (font (size 1.27 1.27))))
        (number "12" (effects (font (size 1.27 1.27))))
      )
      (pin input line (at -10.16 -22.86 0) (length 2.54)
        (name "~OE" (effects (font (size 1.27 1.27))))
        (number "22" (effects (font (size 1.27 1.27))))
      )
      (pin tri_state line (at 10.16 17.78 180) (length 2.54)
        (name "D2" (effects (font (size 1.27 1.27))))
        (number "13" (effects (font (size 1.27 1.27))))
      )
      (pin input line (at -10.16 -5.08 0) (length 2.54)
        (name "A11" (effects (font (size 1.27 1.27))))
        (number "23" (effects (font (size 1.27 1.27))))
      )
      (pin power_in line (at 0 -27.94 90) (length 2.54)
        (name "GND" (effects (font (size 1.27 1.27))))
        (number "14" (effects (font (size 1.27 1.27))))
      )
      (pin input line (at -10.16 0 0) (length 2.54)
        (name "A9" (effects (font (size 1.27 1.27))))
        (number "24" (effects (font (size 1.27 1.27))))
      )
      (pin tri_state line (at 10.16 15.24 180) (length 2.54)
        (name "D3" (effects (font (size 1.27 1.27))))
        (number "15" (effects (font (size 1.27 1.27))))
      )
      (pin input line (at -10.16 2.54 0) (length 2.54)
        (name "A8" (effects (font (size 1.27 1.27))))
        (number "25" (effects (font (size 1.27 1.27))))
      )
      (pin tri_state line (at 10.16 12.7 180) (length 2.54)
        (name "D4" (effects (font (size 1.27 1.27))))
        (number "16" (effects (font (size 1.27 1.27))))
      )
      (pin input line (at -10.16 -10.16 0) (length 2.54)
        (name "A13" (effects (font (size 1.27 1.27))))
        (number "26" (effects (font (size 1.27 1.27))))
      )
      (pin tri_state line (at 10.16 10.16 180) (length 2.54)
        (name "D5" (effects (font (size 1.27 1.27))))
        (number "17" (effects (font (size 1.27 1.27))))
      )
      (pin input line (at -10.16 -12.7 0) (length 2.54)
        (name "A14" (effects (font (size 1.27 1.27))))
        (number "27" (effects (font (size 1.27 1.27))))
      )
      (pin tri_state line (at 10.16 7.62 180) (length 2.54)
        (name "D6" (effects (font (size 1.27 1.27))))
        (number "18" (effects (font (size 1.27 1.27))))
      )
      (pin power_in line (at 0 27.94 270) (length 2.54)
        (name "VCC" (effects (font (size 1.27 1.27))))
        (number "28" (effects (font (size 1.27 1.27))))
      )
      (pin tri_state line (at 10.16 5.08 180) (length 2.54)
        (name "D7" (effects (font (size 1.27 1.27))))
        (number "19" (effects (font (size 1.27 1.27))))
      )
    )
  )
  (symbol "Memory_EPROM:27256" (extends "27C256")
    (property "Reference" "U" (id 0) (at -7.62 26.67 0)
      (effects (font (size 1.27 1.27)))
    )
    (property "Value" "27256" (id 1) (at 2.54 -26.67 0)
      (effects (font (size 1.27 1.27)) (justify left))
    )
    (property "Footprint" "Package_DIP:DIP-28_W15.24mm" (id 2) (at 0 0 0)
      (effects (font (size 1.27 1.27)) hide)
    )
    (property "Datasheet" "http://datasheet.octopart.com/D27256-2-Intel-datasheet-17852618.pdf" (id 3) (at 0 0 0)
      (effects (font (size 1.27 1.27)) hide)
    )
    (property "ki_keywords" "Erasable EPROM 256 KiBit" (id 4) (at 0 0 0)
      (effects (font (size 1.27 1.27)) hide)
    )
    (property "ki_description" "UV Erasable EPROM 256 KiBit, [Obsolete 2000-11]" (id 5) (at 0 0 0)
      (effects (font (size 1.27 1.27)) hide)
    )
    (property "ki_fp_filters" "DIP*W15.24mm*" (id 6) (at 0 0 0)
      (effects (font (size 1.27 1.27)) hide)
    )
  )
  (symbol "Memory_EPROM:27C512" (in_bom yes) (on_board yes)
    (property "Reference" "U" (id 0) (at -7.62 26.67 0)
      (effects (font (size 1.27 1.27)))
    )
    (property "Value" "27C512" (id 1) (at 2.54 -26.67 0)
      (effects (font (size 1.27 1.27)) (justify left))
    )
    (property "Footprint" "Package_DIP:DIP-28_W15.24mm" (id 2) (at 0 0 0)
      (effects (font (size 1.27 1.27)) hide)
    )
    (property "Datasheet" "http://ww1.microchip.com/downloads/en/DeviceDoc/doc0015.pdf" (id 3) (at 0 0 0)
      (effects (font (size 1.27 1.27)) hide)
    )
    (property "ki_keywords" "OTP EPROM 512KiBit" (id 4) (at 0 0 0)
      (effects (font (size 1.27 1.27)) hide)
    )
    (property "ki_description" "OTP EPROM 512 KiBit" (id 5) (at 0 0 0)
      (effects (font (size 1.27 1.27)) hide)
    )
    (property "ki_fp_filters" "DIP*W15.24mm*" (id 6) (at 0 0 0)
      (effects (font (size 1.27 1.27)) hide)
    )
    (symbol "27C512_1_1"
      (rectangle (start -7.62 25.4) (end 7.62 -25.4)
        (stroke (width 0.254)) (fill (type background))
      )
      (pin input line (at -10.16 -15.24 0) (length 2.54)
        (name "A15" (effects (font (size 1.27 1.27))))
        (number "1" (effects (font (size 1.27 1.27))))
      )
      (pin input line (at -10.16 -7.62 0) (length 2.54)
        (name "A12" (effects (font (size 1.27 1.27))))
        (number "2" (effects (font (size 1.27 1.27))))
      )
      (pin input line (at -10.16 5.08 0) (length 2.54)
        (name "A7" (effects (font (size 1.27 1.27))))
        (number "3" (effects (font (size 1.27 1.27))))
      )
      (pin input line (at -10.16 7.62 0) (length 2.54)
        (name "A6" (effects (font (size 1.27 1.27))))
        (number "4" (effects (font (size 1.27 1.27))))
      )
      (pin input line (at -10.16 10.16 0) (length 2.54)
        (name "A5" (effects (font (size 1.27 1.27))))
        (number "5" (effects (font (size 1.27 1.27))))
      )
      (pin input line (at -10.16 12.7 0) (length 2.54)
        (name "A4" (effects (font (size 1.27 1.27))))
        (number "6" (effects (font (size 1.27 1.27))))
      )
      (pin input line (at -10.16 15.24 0) (length 2.54)
        (name "A3" (effects (font (size 1.27 1.27))))
        (number "7" (effects (font (size 1.27 1.27))))
      )
      (pin input line (at -10.16 17.78 0) (length 2.54)
        (name "A2" (effects (font (size 1.27 1.27))))
        (number "8" (effects (font (size 1.27 1.27))))
      )
      (pin input line (at -10.16 20.32 0) (length 2.54)
        (name "A1" (effects (font (size 1.27 1.27))))
        (number "9" (effects (font (size 1.27 1.27))))
      )
      (pin input line (at -10.16 22.86 0) (length 2.54)
        (name "A0" (effects (font (size 1.27 1.27))))
        (number "10" (effects (font (size 1.27 1.27))))
      )
      (pin input line (at -10.16 -20.32 0) (length 2.54)
        (name "~CE" (effects (font (size 1.27 1.27))))
        (number "20" (effects (font (size 1.27 1.27))))
      )
      (pin tri_state line (at 10.16 22.86 180) (length 2.54)
        (name "D0" (effects (font (size 1.27 1.27))))
        (number "11" (effects (font (size 1.27 1.27))))
      )
      (pin input line (at -10.16 -2.54 0) (length 2.54)
        (name "A10" (effects (font (size 1.27 1.27))))
        (number "21" (effects (font (size 1.27 1.27))))
      )
      (pin tri_state line (at 10.16 20.32 180) (length 2.54)
        (name "D1" (effects (font (size 1.27 1.27))))
        (number "12" (effects (font (size 1.27 1.27))))
      )
      (pin input line (at -10.16 -22.86 0) (length 2.54)
        (name "~OE" (effects (font (size 1.27 1.27))))
        (number "22" (effects (font (size 1.27 1.27))))
      )
      (pin tri_state line (at 10.16 17.78 180) (length 2.54)
        (name "D2" (effects (font (size 1.27 1.27))))
        (number "13" (effects (font (size 1.27 1.27))))
      )
      (pin input line (at -10.16 -5.08 0) (length 2.54)
        (name "A11" (effects (font (size 1.27 1.27))))
        (number "23" (effects (font (size 1.27 1.27))))
      )
      (pin power_in line (at 0 -27.94 90) (length 2.54)
        (name "GND" (effects (font (size 1.27 1.27))))
        (number "14" (effects (font (size 1.27 1.27))))
      )
      (pin input line (at -10.16 0 0) (length 2.54)
        (name "A9" (effects (font (size 1.27 1.27))))
        (number "24" (effects (font (size 1.27 1.27))))
      )
      (pin tri_state line (at 10.16 15.24 180) (length 2.54)
        (name "D3" (effects (font (size 1.27 1.27))))
        (number "15" (effects (font (size 1.27 1.27))))
      )
      (pin input line (at -10.16 2.54 0) (length 2.54)
        (name "A8" (effects (font (size 1.27 1.27))))
        (number "25" (effects (font (size 1.27 1.27))))
      )
      (pin tri_state line (at 10.16 12.7 180) (length 2.54)
        (name "D4" (effects (font (size 1.27 1.27))))
        (number "16" (effects (font (size 1.27 1.27))))
      )
      (pin input line (at -10.16 -10.16 0) (length 2.54)
        (name "A13" (effects (font (size 1.27 1.27))))
        (number "26" (effects (font (size 1.27 1.27))))
      )
      (pin tri_state line (at 10.16 10.16 180) (length 2.54)
        (name "D5" (effects (font (size 1.27 1.27))))
        (number "17" (effects (font (size 1.27 1.27))))
      )
      (pin input line (at -10.16 -12.7 0) (length 2.54)
        (name "A14" (effects (font (size 1.27 1.27))))
        (number "27" (effects (font (size 1.27 1.27))))
      )
      (pin tri_state line (at 10.16 7.62 180) (length 2.54)
        (name "D6" (effects (font (size 1.27 1.27))))
        (number "18" (effects (font (size 1.27 1.27))))
      )
      (pin power_in line (at 0 27.94 270) (length 2.54)
        (name "VCC" (effects (font (size 1.27 1.27))))
        (number "28" (effects (font (size 1.27 1.27))))
      )
      (pin tri_state line (at 10.16 5.08 180) (length 2.54)
        (name "D7" (effects (font (size 1.27 1.27))))
        (number "19" (effects (font (size 1.27 1.27))))
      )
    )
  )
  (symbol "Memory_EPROM:27512" (extends "27C512")
    (property "Reference" "U" (id 0) (at -7.62 26.67 0)
      (effects (font (size 1.27 1.27)))
    )
    (property "Value" "27512" (id 1) (at 2.54 -26.67 0)
      (effects (font (size 1.27 1.27)) (justify left))
    )
    (property "Footprint" "Package_DIP:DIP-28_W15.24mm" (id 2) (at 0 0 0)
      (effects (font (size 1.27 1.27)) hide)
    )
    (property "Datasheet" "http://pdf.datasheetcatalog.com/datasheets/120/227190_DS.pdf" (id 3) (at 0 0 0)
      (effects (font (size 1.27 1.27)) hide)
    )
    (property "ki_keywords" "Erasable EPROM 512KiBit" (id 4) (at 0 0 0)
      (effects (font (size 1.27 1.27)) hide)
    )
    (property "ki_description" "UV Erasable EPROM 512 KiBit, [Obsolete 2007-01]" (id 5) (at 0 0 0)
      (effects (font (size 1.27 1.27)) hide)
    )
    (property "ki_fp_filters" "DIP*W15.24mm*" (id 6) (at 0 0 0)
      (effects (font (size 1.27 1.27)) hide)
    )
  )
  (symbol "Memory_EPROM:27C512PLCC" (in_bom yes) (on_board yes)
    (property "Reference" "U" (id 0) (at -7.62 26.67 0)
      (effects (font (size 1.27 1.27)))
    )
    (property "Value" "27C512PLCC" (id 1) (at 2.54 -29.21 0)
      (effects (font (size 1.27 1.27)) (justify left))
    )
    (property "Footprint" "Package_LCC:PLCC-32_11.4x14.0mm_P1.27mm" (id 2) (at 0 0 0)
      (effects (font (size 1.27 1.27)) hide)
    )
    (property "Datasheet" "http://ww1.microchip.com/downloads/en/DeviceDoc/doc0015.pdf" (id 3) (at 0 0 0)
      (effects (font (size 1.27 1.27)) hide)
    )
    (property "ki_keywords" "OTP EPROM 512KiBit" (id 4) (at 0 0 0)
      (effects (font (size 1.27 1.27)) hide)
    )
    (property "ki_description" "OTP EPROM 512 KiBit PLCC-32" (id 5) (at 0 0 0)
      (effects (font (size 1.27 1.27)) hide)
    )
    (property "ki_fp_filters" "PLCC?32*11.4x14.0mm*P1.27mm*" (id 6) (at 0 0 0)
      (effects (font (size 1.27 1.27)) hide)
    )
    (symbol "27C512PLCC_1_1"
      (rectangle (start -7.62 25.4) (end 7.62 -27.94)
        (stroke (width 0.254)) (fill (type background))
      )
      (pin no_connect line (at 7.62 -17.78 180) (length 2.54) hide
        (name "NC" (effects (font (size 1.27 1.27))))
        (number "1" (effects (font (size 1.27 1.27))))
      )
      (pin input line (at -10.16 -15.24 0) (length 2.54)
        (name "A15" (effects (font (size 1.27 1.27))))
        (number "2" (effects (font (size 1.27 1.27))))
      )
      (pin input line (at -10.16 -7.62 0) (length 2.54)
        (name "A12" (effects (font (size 1.27 1.27))))
        (number "3" (effects (font (size 1.27 1.27))))
      )
      (pin input line (at -10.16 5.08 0) (length 2.54)
        (name "A7" (effects (font (size 1.27 1.27))))
        (number "4" (effects (font (size 1.27 1.27))))
      )
      (pin input line (at -10.16 7.62 0) (length 2.54)
        (name "A6" (effects (font (size 1.27 1.27))))
        (number "5" (effects (font (size 1.27 1.27))))
      )
      (pin input line (at -10.16 10.16 0) (length 2.54)
        (name "A5" (effects (font (size 1.27 1.27))))
        (number "6" (effects (font (size 1.27 1.27))))
      )
      (pin input line (at -10.16 12.7 0) (length 2.54)
        (name "A4" (effects (font (size 1.27 1.27))))
        (number "7" (effects (font (size 1.27 1.27))))
      )
      (pin input line (at -10.16 15.24 0) (length 2.54)
        (name "A3" (effects (font (size 1.27 1.27))))
        (number "8" (effects (font (size 1.27 1.27))))
      )
      (pin input line (at -10.16 17.78 0) (length 2.54)
        (name "A2" (effects (font (size 1.27 1.27))))
        (number "9" (effects (font (size 1.27 1.27))))
      )
      (pin input line (at -10.16 20.32 0) (length 2.54)
        (name "A1" (effects (font (size 1.27 1.27))))
        (number "10" (effects (font (size 1.27 1.27))))
      )
      (pin tri_state line (at 10.16 10.16 180) (length 2.54)
        (name "O5" (effects (font (size 1.27 1.27))))
        (number "20" (effects (font (size 1.27 1.27))))
      )
      (pin input line (at -10.16 -10.16 0) (length 2.54)
        (name "A13" (effects (font (size 1.27 1.27))))
        (number "30" (effects (font (size 1.27 1.27))))
      )
      (pin input line (at -10.16 22.86 0) (length 2.54)
        (name "A0" (effects (font (size 1.27 1.27))))
        (number "11" (effects (font (size 1.27 1.27))))
      )
      (pin tri_state line (at 10.16 7.62 180) (length 2.54)
        (name "O6" (effects (font (size 1.27 1.27))))
        (number "21" (effects (font (size 1.27 1.27))))
      )
      (pin input line (at -10.16 -12.7 0) (length 2.54)
        (name "A14" (effects (font (size 1.27 1.27))))
        (number "31" (effects (font (size 1.27 1.27))))
      )
      (pin no_connect line (at 7.62 -22.86 180) (length 2.54) hide
        (name "NC" (effects (font (size 1.27 1.27))))
        (number "12" (effects (font (size 1.27 1.27))))
      )
      (pin tri_state line (at 10.16 5.08 180) (length 2.54)
        (name "O7" (effects (font (size 1.27 1.27))))
        (number "22" (effects (font (size 1.27 1.27))))
      )
      (pin power_in line (at 0 27.94 270) (length 2.54)
        (name "VCC" (effects (font (size 1.27 1.27))))
        (number "32" (effects (font (size 1.27 1.27))))
      )
      (pin tri_state line (at 10.16 22.86 180) (length 2.54)
        (name "O0" (effects (font (size 1.27 1.27))))
        (number "13" (effects (font (size 1.27 1.27))))
      )
      (pin input line (at -10.16 -22.86 0) (length 2.54)
        (name "~CE" (effects (font (size 1.27 1.27))))
        (number "23" (effects (font (size 1.27 1.27))))
      )
      (pin tri_state line (at 10.16 20.32 180) (length 2.54)
        (name "O1" (effects (font (size 1.27 1.27))))
        (number "14" (effects (font (size 1.27 1.27))))
      )
      (pin input line (at -10.16 -2.54 0) (length 2.54)
        (name "A10" (effects (font (size 1.27 1.27))))
        (number "24" (effects (font (size 1.27 1.27))))
      )
      (pin tri_state line (at 10.16 17.78 180) (length 2.54)
        (name "O2" (effects (font (size 1.27 1.27))))
        (number "15" (effects (font (size 1.27 1.27))))
      )
      (pin input line (at -10.16 -20.32 0) (length 2.54)
        (name "~OE~/VPP" (effects (font (size 1.27 1.27))))
        (number "25" (effects (font (size 1.27 1.27))))
      )
      (pin power_in line (at 0 -30.48 90) (length 2.54)
        (name "GND" (effects (font (size 1.27 1.27))))
        (number "16" (effects (font (size 1.27 1.27))))
      )
      (pin no_connect line (at 7.62 -25.4 180) (length 2.54) hide
        (name "NC" (effects (font (size 1.27 1.27))))
        (number "26" (effects (font (size 1.27 1.27))))
      )
      (pin no_connect line (at 7.62 -20.32 180) (length 2.54) hide
        (name "NC" (effects (font (size 1.27 1.27))))
        (number "17" (effects (font (size 1.27 1.27))))
      )
      (pin input line (at -10.16 -5.08 0) (length 2.54)
        (name "A11" (effects (font (size 1.27 1.27))))
        (number "27" (effects (font (size 1.27 1.27))))
      )
      (pin tri_state line (at 10.16 15.24 180) (length 2.54)
        (name "O3" (effects (font (size 1.27 1.27))))
        (number "18" (effects (font (size 1.27 1.27))))
      )
      (pin input line (at -10.16 0 0) (length 2.54)
        (name "A9" (effects (font (size 1.27 1.27))))
        (number "28" (effects (font (size 1.27 1.27))))
      )
      (pin tri_state line (at 10.16 12.7 180) (length 2.54)
        (name "O4" (effects (font (size 1.27 1.27))))
        (number "19" (effects (font (size 1.27 1.27))))
      )
      (pin input line (at -10.16 2.54 0) (length 2.54)
        (name "A8" (effects (font (size 1.27 1.27))))
        (number "29" (effects (font (size 1.27 1.27))))
      )
    )
  )
  (symbol "Memory_EPROM:27C64" (in_bom yes) (on_board yes)
    (property "Reference" "U" (id 0) (at -7.62 24.13 0)
      (effects (font (size 1.27 1.27)))
    )
    (property "Value" "27C64" (id 1) (at 2.54 -26.67 0)
      (effects (font (size 1.27 1.27)) (justify left))
    )
    (property "Footprint" "Package_DIP:DIP-28_W15.24mm" (id 2) (at 0 0 0)
      (effects (font (size 1.27 1.27)) hide)
    )
    (property "Datasheet" "http://ww1.microchip.com/downloads/en/DeviceDoc/11107M.pdf" (id 3) (at 0 0 0)
      (effects (font (size 1.27 1.27)) hide)
    )
    (property "ki_keywords" "OTP EPROM 64KiBit" (id 4) (at 0 0 0)
      (effects (font (size 1.27 1.27)) hide)
    )
    (property "ki_description" "OTP EPROM 64 KiBit, [Obsolete 2004-01]" (id 5) (at 0 0 0)
      (effects (font (size 1.27 1.27)) hide)
    )
    (property "ki_fp_filters" "DIP*W15.24mm*" (id 6) (at 0 0 0)
      (effects (font (size 1.27 1.27)) hide)
    )
    (symbol "27C64_1_1"
      (rectangle (start -7.62 22.86) (end 7.62 -25.4)
        (stroke (width 0.254)) (fill (type background))
      )
      (pin input line (at -10.16 -17.78 0) (length 2.54)
        (name "VPP" (effects (font (size 1.27 1.27))))
        (number "1" (effects (font (size 1.27 1.27))))
      )
      (pin input line (at -10.16 -10.16 0) (length 2.54)
        (name "A12" (effects (font (size 1.27 1.27))))
        (number "2" (effects (font (size 1.27 1.27))))
      )
      (pin input line (at -10.16 2.54 0) (length 2.54)
        (name "A7" (effects (font (size 1.27 1.27))))
        (number "3" (effects (font (size 1.27 1.27))))
      )
      (pin input line (at -10.16 5.08 0) (length 2.54)
        (name "A6" (effects (font (size 1.27 1.27))))
        (number "4" (effects (font (size 1.27 1.27))))
      )
      (pin input line (at -10.16 7.62 0) (length 2.54)
        (name "A5" (effects (font (size 1.27 1.27))))
        (number "5" (effects (font (size 1.27 1.27))))
      )
      (pin input line (at -10.16 10.16 0) (length 2.54)
        (name "A4" (effects (font (size 1.27 1.27))))
        (number "6" (effects (font (size 1.27 1.27))))
      )
      (pin input line (at -10.16 12.7 0) (length 2.54)
        (name "A3" (effects (font (size 1.27 1.27))))
        (number "7" (effects (font (size 1.27 1.27))))
      )
      (pin input line (at -10.16 15.24 0) (length 2.54)
        (name "A2" (effects (font (size 1.27 1.27))))
        (number "8" (effects (font (size 1.27 1.27))))
      )
      (pin input line (at -10.16 17.78 0) (length 2.54)
        (name "A1" (effects (font (size 1.27 1.27))))
        (number "9" (effects (font (size 1.27 1.27))))
      )
      (pin input line (at -10.16 20.32 0) (length 2.54)
        (name "A0" (effects (font (size 1.27 1.27))))
        (number "10" (effects (font (size 1.27 1.27))))
      )
      (pin input line (at -10.16 -20.32 0) (length 2.54)
        (name "~CE" (effects (font (size 1.27 1.27))))
        (number "20" (effects (font (size 1.27 1.27))))
      )
      (pin tri_state line (at 10.16 20.32 180) (length 2.54)
        (name "D0" (effects (font (size 1.27 1.27))))
        (number "11" (effects (font (size 1.27 1.27))))
      )
      (pin input line (at -10.16 -5.08 0) (length 2.54)
        (name "A10" (effects (font (size 1.27 1.27))))
        (number "21" (effects (font (size 1.27 1.27))))
      )
      (pin tri_state line (at 10.16 17.78 180) (length 2.54)
        (name "D1" (effects (font (size 1.27 1.27))))
        (number "12" (effects (font (size 1.27 1.27))))
      )
      (pin input line (at -10.16 -22.86 0) (length 2.54)
        (name "~OE" (effects (font (size 1.27 1.27))))
        (number "22" (effects (font (size 1.27 1.27))))
      )
      (pin tri_state line (at 10.16 15.24 180) (length 2.54)
        (name "D2" (effects (font (size 1.27 1.27))))
        (number "13" (effects (font (size 1.27 1.27))))
      )
      (pin input line (at -10.16 -7.62 0) (length 2.54)
        (name "A11" (effects (font (size 1.27 1.27))))
        (number "23" (effects (font (size 1.27 1.27))))
      )
      (pin power_in line (at 0 -27.94 90) (length 2.54)
        (name "GND" (effects (font (size 1.27 1.27))))
        (number "14" (effects (font (size 1.27 1.27))))
      )
      (pin input line (at -10.16 -2.54 0) (length 2.54)
        (name "A9" (effects (font (size 1.27 1.27))))
        (number "24" (effects (font (size 1.27 1.27))))
      )
      (pin tri_state line (at 10.16 12.7 180) (length 2.54)
        (name "D3" (effects (font (size 1.27 1.27))))
        (number "15" (effects (font (size 1.27 1.27))))
      )
      (pin input line (at -10.16 0 0) (length 2.54)
        (name "A8" (effects (font (size 1.27 1.27))))
        (number "25" (effects (font (size 1.27 1.27))))
      )
      (pin tri_state line (at 10.16 10.16 180) (length 2.54)
        (name "D4" (effects (font (size 1.27 1.27))))
        (number "16" (effects (font (size 1.27 1.27))))
      )
      (pin no_connect line (at 7.62 0 180) (length 2.54) hide
        (name "NC" (effects (font (size 1.27 1.27))))
        (number "26" (effects (font (size 1.27 1.27))))
      )
      (pin tri_state line (at 10.16 7.62 180) (length 2.54)
        (name "D5" (effects (font (size 1.27 1.27))))
        (number "17" (effects (font (size 1.27 1.27))))
      )
      (pin input line (at -10.16 -15.24 0) (length 2.54)
        (name "~PGM" (effects (font (size 1.27 1.27))))
        (number "27" (effects (font (size 1.27 1.27))))
      )
      (pin tri_state line (at 10.16 5.08 180) (length 2.54)
        (name "D6" (effects (font (size 1.27 1.27))))
        (number "18" (effects (font (size 1.27 1.27))))
      )
      (pin power_in line (at 0 25.4 270) (length 2.54)
        (name "VCC" (effects (font (size 1.27 1.27))))
        (number "28" (effects (font (size 1.27 1.27))))
      )
      (pin tri_state line (at 10.16 2.54 180) (length 2.54)
        (name "D7" (effects (font (size 1.27 1.27))))
        (number "19" (effects (font (size 1.27 1.27))))
      )
    )
  )
  (symbol "Memory_EPROM:2764" (extends "27C64")
    (property "Reference" "U" (id 0) (at -7.62 24.13 0)
      (effects (font (size 1.27 1.27)))
    )
    (property "Value" "2764" (id 1) (at 2.54 -26.67 0)
      (effects (font (size 1.27 1.27)) (justify left))
    )
    (property "Footprint" "Package_DIP:DIP-28_W15.24mm" (id 2) (at 0 0 0)
      (effects (font (size 1.27 1.27)) hide)
    )
    (property "Datasheet" "https://downloads.reactivemicro.com/Electronics/ROM/2764%20EPROM.pdf" (id 3) (at 0 0 0)
      (effects (font (size 1.27 1.27)) hide)
    )
    (property "ki_keywords" "EPROM 64KiBit" (id 4) (at 0 0 0)
      (effects (font (size 1.27 1.27)) hide)
    )
    (property "ki_description" "EPROM 64 KiBit, [Obsolete 2000-11]" (id 5) (at 0 0 0)
      (effects (font (size 1.27 1.27)) hide)
    )
    (property "ki_fp_filters" "DIP*W15.24mm*" (id 6) (at 0 0 0)
      (effects (font (size 1.27 1.27)) hide)
    )
  )
)
