(kicad_symbol_lib (version 20201005) (generator kicad_symbol_editor)
  (symbol "Motor:Fan" (pin_names (offset 0)) (in_bom yes) (on_board yes)
    (property "Reference" "M" (id 0) (at 2.54 5.08 0)
      (effects (font (size 1.27 1.27)) (justify left))
    )
    (property "Value" "Fan" (id 1) (at 2.54 -2.54 0)
      (effects (font (size 1.27 1.27)) (justify left top))
    )
    (property "Footprint" "" (id 2) (at 0 0.254 0)
      (effects (font (size 1.27 1.27)) hide)
    )
    (property "Datasheet" "~" (id 3) (at 0 0.254 0)
      (effects (font (size 1.27 1.27)) hide)
    )
    (property "ki_keywords" "Fan Motor" (id 4) (at 0 0 0)
      (effects (font (size 1.27 1.27)) hide)
    )
    (property "ki_description" "Fan" (id 5) (at 0 0 0)
      (effects (font (size 1.27 1.27)) hide)
    )
    (property "ki_fp_filters" "PinHeader*P2.54mm* TerminalBlock*" (id 6) (at 0 0 0)
      (effects (font (size 1.27 1.27)) hide)
    )
    (symbol "Fan_0_1"
      (arc (start 0 3.81) (end -2.54 -0.508) (radius (at -2.4892 2.3876) (length 2.8702) (angles 29.7 -91))
        (stroke (width 0)) (fill (type none))
      )
      (arc (start -2.54 -0.508) (end 2.54 -0.508) (radius (at 0 -1.778) (length 2.8448) (angles 153.4 26.6))
        (stroke (width 0)) (fill (type none))
      )
      (arc (start 2.54 -0.508) (end 0 3.81) (radius (at 2.6162 2.413) (length 2.921) (angles -91.5 151.9))
        (stroke (width 0)) (fill (type none))
      )
      (circle (center 0 1.016) (radius 3.2512) (stroke (width 0.254)) (fill (type none)))
      (polyline
        (pts
          (xy 0 -5.08)
          (xy 0 -4.572)
        )
        (stroke (width 0)) (fill (type none))
      )
      (polyline
        (pts
          (xy 0 -2.2352)
          (xy 0 -2.6416)
        )
        (stroke (width 0)) (fill (type none))
      )
      (polyline
        (pts
          (xy 0 4.2672)
          (xy 0 4.6228)
        )
        (stroke (width 0)) (fill (type none))
      )
      (polyline
        (pts
          (xy 0 4.572)
          (xy 0 5.08)
        )
        (stroke (width 0)) (fill (type none))
      )
    )
    (symbol "Fan_1_1"
      (pin passive line (at 0 7.62 270) (length 2.54)
        (name "+" (effects (font (size 1.27 1.27))))
        (number "1" (effects (font (size 1.27 1.27))))
      )
      (pin passive line (at 0 -5.08 90) (length 2.54)
        (name "-" (effects (font (size 1.27 1.27))))
        (number "2" (effects (font (size 1.27 1.27))))
      )
    )
  )
  (symbol "Motor:Fan_ALT" (pin_numbers hide) (pin_names (offset 0)) (in_bom yes) (on_board yes)
    (property "Reference" "M" (id 0) (at 3.81 5.08 0)
      (effects (font (size 1.27 1.27)) (justify left bottom))
    )
    (property "Value" "Fan_ALT" (id 1) (at 3.81 2.54 0)
      (effects (font (size 1.27 1.27)) (justify left bottom))
    )
    (property "Footprint" "" (id 2) (at 0 -1.27 0)
      (effects (font (size 1.27 1.27)) hide)
    )
    (property "Datasheet" "~" (id 3) (at 0 -1.27 0)
      (effects (font (size 1.27 1.27)) hide)
    )
    (property "ki_keywords" "Fan Motor" (id 4) (at 0 0 0)
      (effects (font (size 1.27 1.27)) hide)
    )
    (property "ki_description" "Fan without PWM or tach, alternative symbol" (id 5) (at 0 0 0)
      (effects (font (size 1.27 1.27)) hide)
    )
    (property "ki_fp_filters" "PinHeader*P2.54mm* TerminalBlock*" (id 6) (at 0 0 0)
      (effects (font (size 1.27 1.27)) hide)
    )
    (symbol "Fan_ALT_0_1"
      (arc (start 0 0) (end 0 -4.572) (radius (at -4.064 -2.286) (length 4.6736) (angles 29.4 -29.4))
        (stroke (width 0)) (fill (type none))
      )
      (arc (start 0 0) (end -1.524 -4.318) (radius (at -3.6068 -1.143) (length 3.7846) (angles 17.6 -56.8))
        (stroke (width 0)) (fill (type none))
      )
      (arc (start 0 0) (end -4.572 0) (radius (at -2.286 4.064) (length 4.6736) (angles -60.6 -119.4))
        (stroke (width 0)) (fill (type none))
      )
      (arc (start 0 0) (end -4.318 1.524) (radius (at -1.143 3.6068) (length 3.7846) (angles -72.4 -146.8))
        (stroke (width 0)) (fill (type none))
      )
      (arc (start 0 0) (end 4.318 -1.524) (radius (at 1.143 -3.6068) (length 3.7846) (angles 107.6 33.2))
        (stroke (width 0)) (fill (type none))
      )
      (arc (start 0 0) (end 4.572 0) (radius (at 2.286 -4.064) (length 4.6736) (angles 119.4 60.6))
        (stroke (width 0)) (fill (type none))
      )
      (arc (start 0 0) (end 1.524 4.318) (radius (at 3.6068 1.143) (length 3.7846) (angles -162.4 123.2))
        (stroke (width 0)) (fill (type none))
      )
      (arc (start 0 0) (end 0 4.572) (radius (at 4.064 2.286) (length 4.6736) (angles -150.6 150.6))
        (stroke (width 0)) (fill (type none))
      )
      (circle (center 0 0) (radius 4.572) (stroke (width 0.254)) (fill (type none)))
      (polyline
        (pts
          (xy 0 -5.08)
          (xy 0 -4.572)
        )
        (stroke (width 0)) (fill (type none))
      )
      (polyline
        (pts
          (xy 0 4.572)
          (xy 0 5.08)
        )
        (stroke (width 0)) (fill (type none))
      )
    )
    (symbol "Fan_ALT_1_1"
      (pin passive line (at 0 7.62 270) (length 2.54)
        (name "+" (effects (font (size 1.27 1.27))))
        (number "1" (effects (font (size 1.27 1.27))))
      )
      (pin passive line (at 0 -7.62 90) (length 2.54)
        (name "-" (effects (font (size 1.27 1.27))))
        (number "2" (effects (font (size 1.27 1.27))))
      )
    )
  )
  (symbol "Motor:Fan_IEC60617" (pin_names (offset 0)) (in_bom yes) (on_board yes)
    (property "Reference" "M" (id 0) (at 3.81 3.81 0)
      (effects (font (size 1.27 1.27)) (justify left))
    )
    (property "Value" "Fan_IEC60617" (id 1) (at 3.81 2.54 0)
      (effects (font (size 1.27 1.27)) (justify left top))
    )
    (property "Footprint" "" (id 2) (at 1.27 -3.556 0)
      (effects (font (size 1.27 1.27)) (justify left) hide)
    )
    (property "Datasheet" "~" (id 3) (at 0 0.254 0)
      (effects (font (size 1.27 1.27)) hide)
    )
    (property "ki_keywords" "Fan Motor IEC-60617" (id 4) (at 0 0 0)
      (effects (font (size 1.27 1.27)) hide)
    )
    (property "ki_description" "Fan (according to IEC-60617)" (id 5) (at 0 0 0)
      (effects (font (size 1.27 1.27)) hide)
    )
    (property "ki_fp_filters" "PinHeader*P2.54mm* TerminalBlock*" (id 6) (at 0 0 0)
      (effects (font (size 1.27 1.27)) hide)
    )
    (symbol "Fan_IEC60617_0_1"
      (circle (center 0 1.016) (radius 2.54) (stroke (width 0)) (fill (type none)))
      (rectangle (start -3.302 4.318) (end 3.302 -2.286)
        (stroke (width 0.254)) (fill (type background))
      )
      (polyline
        (pts
          (xy -1.524 -1.016)
          (xy 2.286 0)
        )
        (stroke (width 0)) (fill (type none))
      )
      (polyline
        (pts
          (xy -1.524 3.048)
          (xy 2.286 2.032)
        )
        (stroke (width 0)) (fill (type none))
      )
      (polyline
        (pts
          (xy 0 -5.08)
          (xy 0 -4.572)
        )
        (stroke (width 0)) (fill (type none))
      )
      (polyline
        (pts
          (xy 0 -2.2352)
          (xy 0 -2.6416)
        )
        (stroke (width 0)) (fill (type none))
      )
      (polyline
        (pts
          (xy 0 4.2672)
          (xy 0 4.6228)
        )
        (stroke (width 0)) (fill (type none))
      )
      (polyline
        (pts
          (xy 0 4.572)
          (xy 0 5.08)
        )
        (stroke (width 0)) (fill (type none))
      )
    )
    (symbol "Fan_IEC60617_1_1"
      (pin passive line (at 0 7.62 270) (length 2.54)
        (name "+" (effects (font (size 1.27 1.27))))
        (number "1" (effects (font (size 1.27 1.27))))
      )
      (pin passive line (at 0 -5.08 90) (length 2.54)
        (name "-" (effects (font (size 1.27 1.27))))
        (number "2" (effects (font (size 1.27 1.27))))
      )
    )
  )
  (symbol "Motor:Fan_Tacho" (pin_names (offset 0)) (in_bom yes) (on_board yes)
    (property "Reference" "M" (id 0) (at 2.54 2.54 0)
      (effects (font (size 1.27 1.27)) (justify left))
    )
    (property "Value" "Fan_Tacho" (id 1) (at 2.54 -5.08 0)
      (effects (font (size 1.27 1.27)) (justify left top))
    )
    (property "Footprint" "" (id 2) (at 0 -2.286 0)
      (effects (font (size 1.27 1.27)) hide)
    )
    (property "Datasheet" "http://www.hardwarecanucks.com/forum/attachments/new-builds/16287d1330775095-help-chassis-power-fan-connectors-motherboard-asus_p8z68.jpg" (id 3) (at 0 -2.286 0)
      (effects (font (size 1.27 1.27)) hide)
    )
    (property "ki_keywords" "Fan Motor tacho" (id 4) (at 0 0 0)
      (effects (font (size 1.27 1.27)) hide)
    )
    (property "ki_description" "Fan, tacho output, 3-pin connector" (id 5) (at 0 0 0)
      (effects (font (size 1.27 1.27)) hide)
    )
    (property "ki_fp_filters" "FanPinHeader*P2.54mm*Vertical* PinHeader*P2.54mm*Vertical* TerminalBlock*" (id 6) (at 0 0 0)
      (effects (font (size 1.27 1.27)) hide)
    )
    (symbol "Fan_Tacho_0_0"
      (arc (start -5.588 -1.016) (end -5.08 -0.508) (radius (at -5.08 -1.016) (length 0.508) (angles 180 90))
        (stroke (width 0)) (fill (type none))
      )
      (arc (start -5.588 -1.016) (end -4.572 -1.016) (radius (at -5.08 -1.016) (length 0.508) (angles -179.9 -0.1))
        (stroke (width 0)) (fill (type none))
      )
      (polyline
        (pts
          (xy -5.08 -0.508)
          (xy -5.334 -0.381)
        )
        (stroke (width 0)) (fill (type none))
      )
      (polyline
        (pts
          (xy -5.08 -0.508)
          (xy -5.207 -0.762)
        )
        (stroke (width 0)) (fill (type none))
      )
      (polyline
        (pts
          (xy -4.064 0)
          (xy -4.064 -1.524)
          (xy -3.302 -1.524)
        )
        (stroke (width 0)) (fill (type none))
      )
    )
    (symbol "Fan_Tacho_0_1"
      (arc (start 0 1.27) (end -2.54 -3.048) (radius (at -2.4892 -0.1524) (length 2.8702) (angles 29.7 -91))
        (stroke (width 0)) (fill (type none))
      )
      (arc (start -2.54 -3.048) (end 2.54 -3.048) (radius (at 0 -4.318) (length 2.8448) (angles 153.4 26.6))
        (stroke (width 0)) (fill (type none))
      )
      (arc (start 2.54 -3.048) (end 0 1.27) (radius (at 2.6162 -0.127) (length 2.921) (angles -91.5 151.9))
        (stroke (width 0)) (fill (type none))
      )
      (circle (center 0 -1.524) (radius 3.2512) (stroke (width 0.254)) (fill (type none)))
      (polyline
        (pts
          (xy -4.064 0)
          (xy -5.08 0)
        )
        (stroke (width 0)) (fill (type none))
      )
      (polyline
        (pts
          (xy 0 -7.62)
          (xy 0 -7.112)
        )
        (stroke (width 0)) (fill (type none))
      )
      (polyline
        (pts
          (xy 0 -4.7752)
          (xy 0 -5.1816)
        )
        (stroke (width 0)) (fill (type none))
      )
      (polyline
        (pts
          (xy 0 1.7272)
          (xy 0 2.0828)
        )
        (stroke (width 0)) (fill (type none))
      )
      (polyline
        (pts
          (xy 0 2.032)
          (xy 0 2.54)
        )
        (stroke (width 0)) (fill (type none))
      )
    )
    (symbol "Fan_Tacho_1_1"
      (pin passive line (at -7.62 0 0) (length 2.54)
        (name "Tacho" (effects (font (size 1.27 1.27))))
        (number "1" (effects (font (size 1.27 1.27))))
      )
      (pin passive line (at 0 5.08 270) (length 2.54)
        (name "+" (effects (font (size 1.27 1.27))))
        (number "2" (effects (font (size 1.27 1.27))))
      )
      (pin passive line (at 0 -7.62 90) (length 2.54)
        (name "-" (effects (font (size 1.27 1.27))))
        (number "3" (effects (font (size 1.27 1.27))))
      )
    )
  )
  (symbol "Motor:Fan_3pin" (extends "Fan_Tacho")
    (property "Reference" "M" (id 0) (at 2.54 2.54 0)
      (effects (font (size 1.27 1.27)) (justify left))
    )
    (property "Value" "Fan_3pin" (id 1) (at 2.54 -5.08 0)
      (effects (font (size 1.27 1.27)) (justify left top))
    )
    (property "Footprint" "" (id 2) (at 0 -2.286 0)
      (effects (font (size 1.27 1.27)) hide)
    )
    (property "Datasheet" "http://www.hardwarecanucks.com/forum/attachments/new-builds/16287d1330775095-help-chassis-power-fan-connectors-motherboard-asus_p8z68.jpg" (id 3) (at 0 -2.286 0)
      (effects (font (size 1.27 1.27)) hide)
    )
    (property "ki_keywords" "Fan Motor tacho" (id 4) (at 0 0 0)
      (effects (font (size 1.27 1.27)) hide)
    )
    (property "ki_description" "Fan, tacho output, 3-pin connector" (id 5) (at 0 0 0)
      (effects (font (size 1.27 1.27)) hide)
    )
    (property "ki_fp_filters" "FanPinHeader*P2.54mm*Vertical* PinHeader*P2.54mm*Vertical* TerminalBlock*" (id 6) (at 0 0 0)
      (effects (font (size 1.27 1.27)) hide)
    )
  )
  (symbol "Motor:Fan_PC_Chassis" (extends "Fan_Tacho")
    (property "Reference" "M" (id 0) (at 2.54 2.54 0)
      (effects (font (size 1.27 1.27)) (justify left))
    )
    (property "Value" "Fan_PC_Chassis" (id 1) (at 2.54 -5.08 0)
      (effects (font (size 1.27 1.27)) (justify left top))
    )
    (property "Footprint" "" (id 2) (at 0 -2.286 0)
      (effects (font (size 1.27 1.27)) hide)
    )
    (property "Datasheet" "http://www.hardwarecanucks.com/forum/attachments/new-builds/16287d1330775095-help-chassis-power-fan-connectors-motherboard-asus_p8z68.jpg" (id 3) (at 0 -2.286 0)
      (effects (font (size 1.27 1.27)) hide)
    )
    (property "ki_keywords" "Fan Motor tacho" (id 4) (at 0 0 0)
      (effects (font (size 1.27 1.27)) hide)
    )
    (property "ki_description" "PC chassis fan, tacho output, 3-pin connector" (id 5) (at 0 0 0)
      (effects (font (size 1.27 1.27)) hide)
    )
    (property "ki_fp_filters" "FanPinHeader*P2.54mm*Vertical* PinHeader*P2.54mm*Vertical* TerminalBlock*" (id 6) (at 0 0 0)
      (effects (font (size 1.27 1.27)) hide)
    )
  )
  (symbol "Motor:Fan_Tacho_PWM" (pin_names (offset 0)) (in_bom yes) (on_board yes)
    (property "Reference" "M" (id 0) (at 2.54 5.08 0)
      (effects (font (size 1.27 1.27)) (justify left))
    )
    (property "Value" "Fan_Tacho_PWM" (id 1) (at 2.54 -2.54 0)
      (effects (font (size 1.27 1.27)) (justify left top))
    )
    (property "Footprint" "" (id 2) (at 0 0.254 0)
      (effects (font (size 1.27 1.27)) hide)
    )
    (property "Datasheet" "http://www.formfactors.org/developer%5Cspecs%5Crev1_2_public.pdf" (id 3) (at 0 0.254 0)
      (effects (font (size 1.27 1.27)) hide)
    )
    (property "ki_keywords" "Fan Motor tacho PWM" (id 4) (at 0 0 0)
      (effects (font (size 1.27 1.27)) hide)
    )
    (property "ki_description" "Fan, tacho output, PWM input, 4-pin connector" (id 5) (at 0 0 0)
      (effects (font (size 1.27 1.27)) hide)
    )
    (property "ki_fp_filters" "FanPinHeader*P2.54mm*Vertical* PinHeader*P2.54mm*Vertical* TerminalBlock*" (id 6) (at 0 0 0)
      (effects (font (size 1.27 1.27)) hide)
    )
    (symbol "Fan_Tacho_PWM_0_0"
      (arc (start -5.588 1.524) (end -5.08 2.032) (radius (at -5.08 1.524) (length 0.508) (angles 180 90))
        (stroke (width 0)) (fill (type none))
      )
      (arc (start -5.588 1.524) (end -4.572 1.524) (radius (at -5.08 1.524) (length 0.508) (angles -179.9 -0.1))
        (stroke (width 0)) (fill (type none))
      )
      (polyline
        (pts
          (xy -5.08 2.032)
          (xy -5.334 2.159)
        )
        (stroke (width 0)) (fill (type none))
      )
      (polyline
        (pts
          (xy -5.08 2.032)
          (xy -5.207 1.778)
        )
        (stroke (width 0)) (fill (type none))
      )
      (polyline
        (pts
          (xy -4.064 2.54)
          (xy -4.064 1.016)
          (xy -3.302 1.016)
        )
        (stroke (width 0)) (fill (type none))
      )
    )
    (symbol "Fan_Tacho_PWM_0_1"
      (arc (start 0 3.81) (end -2.54 -0.508) (radius (at -2.4892 2.3876) (length 2.8702) (angles 29.7 -91))
        (stroke (width 0)) (fill (type none))
      )
      (arc (start -2.54 -0.508) (end 2.54 -0.508) (radius (at 0 -1.778) (length 2.8448) (angles 153.4 26.6))
        (stroke (width 0)) (fill (type none))
      )
      (arc (start 2.54 -0.508) (end 0 3.81) (radius (at 2.6162 2.413) (length 2.921) (angles -91.5 151.9))
        (stroke (width 0)) (fill (type none))
      )
      (circle (center 0 1.016) (radius 3.2512) (stroke (width 0.254)) (fill (type none)))
      (polyline
        (pts
          (xy -4.064 2.54)
          (xy -5.08 2.54)
        )
        (stroke (width 0)) (fill (type none))
      )
      (polyline
        (pts
          (xy 0 -5.08)
          (xy 0 -4.572)
        )
        (stroke (width 0)) (fill (type none))
      )
      (polyline
        (pts
          (xy 0 -2.2352)
          (xy 0 -2.6416)
        )
        (stroke (width 0)) (fill (type none))
      )
      (polyline
        (pts
          (xy 0 4.2672)
          (xy 0 4.6228)
        )
        (stroke (width 0)) (fill (type none))
      )
      (polyline
        (pts
          (xy 0 4.572)
          (xy 0 5.08)
        )
        (stroke (width 0)) (fill (type none))
      )
      (polyline
        (pts
          (xy -2.54 -1.016)
          (xy -4.064 -1.016)
          (xy -4.064 -2.54)
          (xy -5.08 -2.54)
        )
        (stroke (width 0)) (fill (type none))
      )
      (polyline
        (pts
          (xy -5.334 -3.302)
          (xy -5.08 -3.302)
          (xy -5.08 -3.048)
          (xy -4.826 -3.048)
          (xy -4.826 -3.302)
          (xy -4.318 -3.302)
          (xy -4.318 -3.048)
          (xy -4.064 -3.048)
          (xy -4.064 -3.302)
          (xy -3.556 -3.302)
        )
        (stroke (width 0)) (fill (type none))
      )
    )
    (symbol "Fan_Tacho_PWM_1_1"
      (pin passive line (at 0 -5.08 90) (length 2.54)
        (name "-" (effects (font (size 1.27 1.27))))
        (number "1" (effects (font (size 1.27 1.27))))
      )
      (pin passive line (at 0 7.62 270) (length 2.54)
        (name "+" (effects (font (size 1.27 1.27))))
        (number "2" (effects (font (size 1.27 1.27))))
      )
      (pin passive line (at -7.62 2.54 0) (length 2.54)
        (name "Tacho" (effects (font (size 1.27 1.27))))
        (number "3" (effects (font (size 1.27 1.27))))
      )
      (pin input line (at -7.62 -2.54 0) (length 2.54)
        (name "PWM" (effects (font (size 1.27 1.27))))
        (number "4" (effects (font (size 1.27 1.27))))
      )
    )
  )
  (symbol "Motor:Fan_4pin" (extends "Fan_Tacho_PWM")
    (property "Reference" "M" (id 0) (at 2.54 5.08 0)
      (effects (font (size 1.27 1.27)) (justify left))
    )
    (property "Value" "Fan_4pin" (id 1) (at 2.54 -2.54 0)
      (effects (font (size 1.27 1.27)) (justify left top))
    )
    (property "Footprint" "" (id 2) (at 0 0.254 0)
      (effects (font (size 1.27 1.27)) hide)
    )
    (property "Datasheet" "http://www.formfactors.org/developer%5Cspecs%5Crev1_2_public.pdf" (id 3) (at 0 0.254 0)
      (effects (font (size 1.27 1.27)) hide)
    )
    (property "ki_keywords" "Fan Motor tacho PWM" (id 4) (at 0 0 0)
      (effects (font (size 1.27 1.27)) hide)
    )
    (property "ki_description" "Fan, tacho output, PWM input, 4-pin connector" (id 5) (at 0 0 0)
      (effects (font (size 1.27 1.27)) hide)
    )
    (property "ki_fp_filters" "FanPinHeader*P2.54mm*Vertical* PinHeader*P2.54mm*Vertical* TerminalBlock*" (id 6) (at 0 0 0)
      (effects (font (size 1.27 1.27)) hide)
    )
  )
  (symbol "Motor:Fan_CPU_4pin" (extends "Fan_Tacho_PWM")
    (property "Reference" "M" (id 0) (at 2.54 5.08 0)
      (effects (font (size 1.27 1.27)) (justify left))
    )
    (property "Value" "Fan_CPU_4pin" (id 1) (at 2.54 -2.54 0)
      (effects (font (size 1.27 1.27)) (justify left top))
    )
    (property "Footprint" "" (id 2) (at 0 0.254 0)
      (effects (font (size 1.27 1.27)) hide)
    )
    (property "Datasheet" "http://www.formfactors.org/developer%5Cspecs%5Crev1_2_public.pdf" (id 3) (at 0 0.254 0)
      (effects (font (size 1.27 1.27)) hide)
    )
    (property "ki_keywords" "Fan Motor tacho PWM" (id 4) (at 0 0 0)
      (effects (font (size 1.27 1.27)) hide)
    )
    (property "ki_description" "CPU Fan, tacho output, PWM input, 4-pin connector" (id 5) (at 0 0 0)
      (effects (font (size 1.27 1.27)) hide)
    )
    (property "ki_fp_filters" "FanPinHeader*P2.54mm*Vertical* PinHeader*P2.54mm*Vertical* TerminalBlock*" (id 6) (at 0 0 0)
      (effects (font (size 1.27 1.27)) hide)
    )
  )
  (symbol "Motor:Motor_AC" (pin_names (offset 0)) (in_bom yes) (on_board yes)
    (property "Reference" "M" (id 0) (at 2.54 2.54 0)
      (effects (font (size 1.27 1.27)) (justify left))
    )
    (property "Value" "Motor_AC" (id 1) (at 2.54 -5.08 0)
      (effects (font (size 1.27 1.27)) (justify left top))
    )
    (property "Footprint" "" (id 2) (at 0 -2.286 0)
      (effects (font (size 1.27 1.27)) hide)
    )
    (property "Datasheet" "~" (id 3) (at 0 -2.286 0)
      (effects (font (size 1.27 1.27)) hide)
    )
    (property "ki_keywords" "AC Motor" (id 4) (at 0 0 0)
      (effects (font (size 1.27 1.27)) hide)
    )
    (property "ki_description" "AC Motor" (id 5) (at 0 0 0)
      (effects (font (size 1.27 1.27)) hide)
    )
    (property "ki_fp_filters" "PinHeader*P2.54mm* TerminalBlock*" (id 6) (at 0 0 0)
      (effects (font (size 1.27 1.27)) hide)
    )
    (symbol "Motor_AC_0_0"
      (arc (start -1.524 -2.794) (end 0 -3.048) (radius (at -0.7366 -2.7432) (length 0.7874) (angles -176.3 -22.5))
        (stroke (width 0)) (fill (type none))
      )
      (arc (start 0 -3.048) (end 1.524 -3.302) (radius (at 0.7112 -3.3528) (length 0.762) (angles 156.8 3.6))
        (stroke (width 0)) (fill (type none))
      )
      (polyline
        (pts
          (xy -1.016 -2.032)
          (xy -1.016 1.016)
          (xy 0 -1.016)
          (xy 1.016 1.016)
          (xy 1.016 -2.032)
        )
        (stroke (width 0)) (fill (type none))
      )
    )
    (symbol "Motor_AC_0_1"
      (circle (center 0 -1.524) (radius 3.2512) (stroke (width 0.254)) (fill (type none)))
      (polyline
        (pts
          (xy 0 -7.62)
          (xy 0 -7.112)
        )
        (stroke (width 0)) (fill (type none))
      )
      (polyline
        (pts
          (xy 0 -4.7752)
          (xy 0 -5.1816)
        )
        (stroke (width 0)) (fill (type none))
      )
      (polyline
        (pts
          (xy 0 1.7272)
          (xy 0 2.0828)
        )
        (stroke (width 0)) (fill (type none))
      )
      (polyline
        (pts
          (xy 0 2.032)
          (xy 0 2.54)
        )
        (stroke (width 0)) (fill (type none))
      )
    )
    (symbol "Motor_AC_1_1"
      (pin passive line (at 0 5.08 270) (length 2.54)
        (name "~" (effects (font (size 1.27 1.27))))
        (number "1" (effects (font (size 1.27 1.27))))
      )
      (pin passive line (at 0 -7.62 90) (length 2.54)
        (name "~" (effects (font (size 1.27 1.27))))
        (number "2" (effects (font (size 1.27 1.27))))
      )
    )
  )
  (symbol "Motor:Motor_DC" (pin_names (offset 0)) (in_bom yes) (on_board yes)
    (property "Reference" "M" (id 0) (at 2.54 2.54 0)
      (effects (font (size 1.27 1.27)) (justify left))
    )
    (property "Value" "Motor_DC" (id 1) (at 2.54 -5.08 0)
      (effects (font (size 1.27 1.27)) (justify left top))
    )
    (property "Footprint" "" (id 2) (at 0 -2.286 0)
      (effects (font (size 1.27 1.27)) hide)
    )
    (property "Datasheet" "~" (id 3) (at 0 -2.286 0)
      (effects (font (size 1.27 1.27)) hide)
    )
    (property "ki_keywords" "DC Motor" (id 4) (at 0 0 0)
      (effects (font (size 1.27 1.27)) hide)
    )
    (property "ki_description" "DC Motor" (id 5) (at 0 0 0)
      (effects (font (size 1.27 1.27)) hide)
    )
    (property "ki_fp_filters" "PinHeader*P2.54mm* TerminalBlock*" (id 6) (at 0 0 0)
      (effects (font (size 1.27 1.27)) hide)
    )
    (symbol "Motor_DC_0_0"
      (polyline
        (pts
          (xy -1.27 -3.302)
          (xy -1.27 0.508)
          (xy 0 -2.032)
          (xy 1.27 0.508)
          (xy 1.27 -3.302)
        )
        (stroke (width 0)) (fill (type none))
      )
    )
    (symbol "Motor_DC_0_1"
      (circle (center 0 -1.524) (radius 3.2512) (stroke (width 0.254)) (fill (type none)))
      (polyline
        (pts
          (xy 0 -7.62)
          (xy 0 -7.112)
        )
        (stroke (width 0)) (fill (type none))
      )
      (polyline
        (pts
          (xy 0 -4.7752)
          (xy 0 -5.1816)
        )
        (stroke (width 0)) (fill (type none))
      )
      (polyline
        (pts
          (xy 0 1.7272)
          (xy 0 2.0828)
        )
        (stroke (width 0)) (fill (type none))
      )
      (polyline
        (pts
          (xy 0 2.032)
          (xy 0 2.54)
        )
        (stroke (width 0)) (fill (type none))
      )
    )
    (symbol "Motor_DC_1_1"
      (pin passive line (at 0 5.08 270) (length 2.54)
        (name "+" (effects (font (size 1.27 1.27))))
        (number "1" (effects (font (size 1.27 1.27))))
      )
      (pin passive line (at 0 -7.62 90) (length 2.54)
        (name "-" (effects (font (size 1.27 1.27))))
        (number "2" (effects (font (size 1.27 1.27))))
      )
    )
  )
  (symbol "Motor:Motor_DC_ALT" (pin_names (offset 0)) (in_bom yes) (on_board yes)
    (property "Reference" "M" (id 0) (at 2.54 2.54 0)
      (effects (font (size 1.27 1.27)) (justify left))
    )
    (property "Value" "Motor_DC_ALT" (id 1) (at 2.54 -5.08 0)
      (effects (font (size 1.27 1.27)) (justify left top))
    )
    (property "Footprint" "" (id 2) (at 0 -2.286 0)
      (effects (font (size 1.27 1.27)) hide)
    )
    (property "Datasheet" "~" (id 3) (at 0 -2.286 0)
      (effects (font (size 1.27 1.27)) hide)
    )
    (property "ki_keywords" "DC Motor" (id 4) (at 0 0 0)
      (effects (font (size 1.27 1.27)) hide)
    )
    (property "ki_description" "DC Motor, alternative symbol" (id 5) (at 0 0 0)
      (effects (font (size 1.27 1.27)) hide)
    )
    (property "ki_fp_filters" "PinHeader*P2.54mm* TerminalBlock*" (id 6) (at 0 0 0)
      (effects (font (size 1.27 1.27)) hide)
    )
    (symbol "Motor_DC_ALT_0_0"
      (circle (center 0 -1.524) (radius 2.9718) (stroke (width 0.254)) (fill (type none)))
      (polyline
        (pts
          (xy -1.27 -4.318)
          (xy -1.27 -5.08)
          (xy 1.27 -5.08)
          (xy 1.27 -4.318)
        )
        (stroke (width 0)) (fill (type none))
      )
      (polyline
        (pts
          (xy -1.27 1.27)
          (xy -1.27 2.032)
          (xy 1.27 2.032)
          (xy 1.27 1.27)
        )
        (stroke (width 0)) (fill (type none))
      )
      (polyline
        (pts
          (xy -1.27 -3.302)
          (xy -1.27 0.508)
          (xy 0 -2.032)
          (xy 1.27 0.508)
          (xy 1.27 -3.302)
        )
        (stroke (width 0)) (fill (type none))
      )
    )
    (symbol "Motor_DC_ALT_0_1"
      (polyline
        (pts
          (xy 0 2.032)
          (xy 0 2.54)
        )
        (stroke (width 0)) (fill (type none))
      )
    )
    (symbol "Motor_DC_ALT_1_1"
      (pin passive line (at 0 5.08 270) (length 2.54)
        (name "+" (effects (font (size 1.27 1.27))))
        (number "1" (effects (font (size 1.27 1.27))))
      )
      (pin passive line (at 0 -7.62 90) (length 2.54)
        (name "-" (effects (font (size 1.27 1.27))))
        (number "2" (effects (font (size 1.27 1.27))))
      )
    )
  )
  (symbol "Motor:Motor_Servo" (pin_names (offset 0.0254)) (in_bom yes) (on_board yes)
    (property "Reference" "M" (id 0) (at -5.08 4.445 0)
      (effects (font (size 1.27 1.27)) (justify left))
    )
    (property "Value" "Motor_Servo" (id 1) (at -5.08 -4.064 0)
      (effects (font (size 1.27 1.27)) (justify left top))
    )
    (property "Footprint" "" (id 2) (at 0 -4.826 0)
      (effects (font (size 1.27 1.27)) hide)
    )
    (property "Datasheet" "http://forums.parallax.com/uploads/attachments/46831/74481.png" (id 3) (at 0 -4.826 0)
      (effects (font (size 1.27 1.27)) hide)
    )
    (property "ki_keywords" "Servo Motor" (id 4) (at 0 0 0)
      (effects (font (size 1.27 1.27)) hide)
    )
    (property "ki_description" "Servo Motor (Futaba, HiTec, JR connector)" (id 5) (at 0 0 0)
      (effects (font (size 1.27 1.27)) hide)
    )
    (property "ki_fp_filters" "PinHeader*P2.54mm*" (id 6) (at 0 0 0)
      (effects (font (size 1.27 1.27)) hide)
    )
    (symbol "Motor_Servo_0_1"
      (arc (start 2.413 1.778) (end 2.413 -1.778) (radius (at 3.175 0) (length 1.9304) (angles 113.2 -113.2))
        (stroke (width 0)) (fill (type none))
      )
      (arc (start 6.35 4.445) (end 7.62 3.175) (radius (at 6.7818 3.6068) (length 0.9398) (angles 117.3 -27.3))
        (stroke (width 0)) (fill (type none))
      )
      (circle (center 3.175 0) (radius 0.1778) (stroke (width 0)) (fill (type none)))
      (circle (center 3.175 0) (radius 1.4224) (stroke (width 0)) (fill (type none)))
      (circle (center 5.969 2.794) (radius 0.127) (stroke (width 0)) (fill (type none)))
      (circle (center 6.477 3.302) (radius 0.127) (stroke (width 0)) (fill (type none)))
      (circle (center 6.985 3.81) (radius 0.127) (stroke (width 0)) (fill (type none)))
      (polyline
        (pts
          (xy 2.413 -1.778)
          (xy 2.032 -1.778)
        )
        (stroke (width 0)) (fill (type none))
      )
      (polyline
        (pts
          (xy 2.413 -1.778)
          (xy 2.286 -1.397)
        )
        (stroke (width 0)) (fill (type none))
      )
      (polyline
        (pts
          (xy 2.413 1.778)
          (xy 1.905 1.778)
        )
        (stroke (width 0)) (fill (type none))
      )
      (polyline
        (pts
          (xy 2.413 1.778)
          (xy 2.286 1.397)
        )
        (stroke (width 0)) (fill (type none))
      )
      (polyline
        (pts
          (xy 6.35 4.445)
          (xy 2.54 1.27)
        )
        (stroke (width 0)) (fill (type none))
      )
      (polyline
        (pts
          (xy 7.62 3.175)
          (xy 4.191 -1.016)
        )
        (stroke (width 0)) (fill (type none))
      )
      (polyline
        (pts
          (xy 5.08 3.556)
          (xy -5.08 3.556)
          (xy -5.08 -3.556)
          (xy 6.35 -3.556)
          (xy 6.35 1.524)
        )
        (stroke (width 0.254)) (fill (type none))
      )
    )
    (symbol "Motor_Servo_1_1"
      (pin passive line (at -7.62 2.54 0) (length 2.54)
        (name "PWM" (effects (font (size 1.27 1.27))))
        (number "1" (effects (font (size 1.27 1.27))))
      )
      (pin passive line (at -7.62 0 0) (length 2.54)
        (name "+" (effects (font (size 1.27 1.27))))
        (number "2" (effects (font (size 1.27 1.27))))
      )
      (pin passive line (at -7.62 -2.54 0) (length 2.54)
        (name "-" (effects (font (size 1.27 1.27))))
        (number "3" (effects (font (size 1.27 1.27))))
      )
    )
  )
  (symbol "Motor:Motor_Servo_Futaba_J" (extends "Motor_Servo")
    (property "Reference" "M" (id 0) (at -5.08 4.445 0)
      (effects (font (size 1.27 1.27)) (justify left))
    )
    (property "Value" "Motor_Servo_Futaba_J" (id 1) (at -5.08 -4.064 0)
      (effects (font (size 1.27 1.27)) (justify left top))
    )
    (property "Footprint" "" (id 2) (at 0 -4.826 0)
      (effects (font (size 1.27 1.27)) hide)
    )
    (property "Datasheet" "http://forums.parallax.com/uploads/attachments/46831/74481.png" (id 3) (at 0 -4.826 0)
      (effects (font (size 1.27 1.27)) hide)
    )
    (property "ki_keywords" "Servo Motor" (id 4) (at 0 0 0)
      (effects (font (size 1.27 1.27)) hide)
    )
    (property "ki_description" "Servo Motor (Futuba J-connector)" (id 5) (at 0 0 0)
      (effects (font (size 1.27 1.27)) hide)
    )
    (property "ki_fp_filters" "PinHeader*P2.54mm*" (id 6) (at 0 0 0)
      (effects (font (size 1.27 1.27)) hide)
    )
  )
  (symbol "Motor:Motor_Servo_Grapner_JR" (extends "Motor_Servo")
    (property "Reference" "M" (id 0) (at -5.08 4.445 0)
      (effects (font (size 1.27 1.27)) (justify left))
    )
    (property "Value" "Motor_Servo_Grapner_JR" (id 1) (at -5.08 -4.064 0)
      (effects (font (size 1.27 1.27)) (justify left top))
    )
    (property "Footprint" "" (id 2) (at 0 -4.826 0)
      (effects (font (size 1.27 1.27)) hide)
    )
    (property "Datasheet" "http://forums.parallax.com/uploads/attachments/46831/74481.png" (id 3) (at 0 -4.826 0)
      (effects (font (size 1.27 1.27)) hide)
    )
    (property "ki_keywords" "Servo Motor" (id 4) (at 0 0 0)
      (effects (font (size 1.27 1.27)) hide)
    )
    (property "ki_description" "Servo Motor (Graupner JR connector)" (id 5) (at 0 0 0)
      (effects (font (size 1.27 1.27)) hide)
    )
    (property "ki_fp_filters" "PinHeader*P2.54mm*" (id 6) (at 0 0 0)
      (effects (font (size 1.27 1.27)) hide)
    )
  )
  (symbol "Motor:Motor_Servo_Hitec" (extends "Motor_Servo")
    (property "Reference" "M" (id 0) (at -5.08 4.445 0)
      (effects (font (size 1.27 1.27)) (justify left))
    )
    (property "Value" "Motor_Servo_Hitec" (id 1) (at -5.08 -4.064 0)
      (effects (font (size 1.27 1.27)) (justify left top))
    )
    (property "Footprint" "" (id 2) (at 0 -4.826 0)
      (effects (font (size 1.27 1.27)) hide)
    )
    (property "Datasheet" "http://forums.parallax.com/uploads/attachments/46831/74481.png" (id 3) (at 0 -4.826 0)
      (effects (font (size 1.27 1.27)) hide)
    )
    (property "ki_keywords" "Servo Motor" (id 4) (at 0 0 0)
      (effects (font (size 1.27 1.27)) hide)
    )
    (property "ki_description" "Servo Motor (HiTec connector)" (id 5) (at 0 0 0)
      (effects (font (size 1.27 1.27)) hide)
    )
    (property "ki_fp_filters" "PinHeader*P2.54mm*" (id 6) (at 0 0 0)
      (effects (font (size 1.27 1.27)) hide)
    )
  )
  (symbol "Motor:Motor_Servo_JR" (extends "Motor_Servo")
    (property "Reference" "M" (id 0) (at -5.08 4.445 0)
      (effects (font (size 1.27 1.27)) (justify left))
    )
    (property "Value" "Motor_Servo_JR" (id 1) (at -5.08 -4.064 0)
      (effects (font (size 1.27 1.27)) (justify left top))
    )
    (property "Footprint" "" (id 2) (at 0 -4.826 0)
      (effects (font (size 1.27 1.27)) hide)
    )
    (property "Datasheet" "http://forums.parallax.com/uploads/attachments/46831/74481.png" (id 3) (at 0 -4.826 0)
      (effects (font (size 1.27 1.27)) hide)
    )
    (property "ki_keywords" "Servo Motor" (id 4) (at 0 0 0)
      (effects (font (size 1.27 1.27)) hide)
    )
    (property "ki_description" "Servo Motor (JR connector)" (id 5) (at 0 0 0)
      (effects (font (size 1.27 1.27)) hide)
    )
    (property "ki_fp_filters" "PinHeader*P2.54mm*" (id 6) (at 0 0 0)
      (effects (font (size 1.27 1.27)) hide)
    )
  )
  (symbol "Motor:Motor_Servo_Robbe" (extends "Motor_Servo")
    (property "Reference" "M" (id 0) (at -5.08 4.445 0)
      (effects (font (size 1.27 1.27)) (justify left))
    )
    (property "Value" "Motor_Servo_Robbe" (id 1) (at -5.08 -4.064 0)
      (effects (font (size 1.27 1.27)) (justify left top))
    )
    (property "Footprint" "" (id 2) (at 0 -4.826 0)
      (effects (font (size 1.27 1.27)) hide)
    )
    (property "Datasheet" "http://forums.parallax.com/uploads/attachments/46831/74481.png" (id 3) (at 0 -4.826 0)
      (effects (font (size 1.27 1.27)) hide)
    )
    (property "ki_keywords" "Servo Motor" (id 4) (at 0 0 0)
      (effects (font (size 1.27 1.27)) hide)
    )
    (property "ki_description" "Servo Motor (Robbe connector)" (id 5) (at 0 0 0)
      (effects (font (size 1.27 1.27)) hide)
    )
    (property "ki_fp_filters" "PinHeader*P2.54mm*" (id 6) (at 0 0 0)
      (effects (font (size 1.27 1.27)) hide)
    )
  )
  (symbol "Motor:Motor_Servo_AirTronics" (pin_names (offset 0.0254)) (in_bom yes) (on_board yes)
    (property "Reference" "M" (id 0) (at -5.08 4.445 0)
      (effects (font (size 1.27 1.27)) (justify left))
    )
    (property "Value" "Motor_Servo_AirTronics" (id 1) (at -5.08 -4.064 0)
      (effects (font (size 1.27 1.27)) (justify left top))
    )
    (property "Footprint" "" (id 2) (at 0 -4.826 0)
      (effects (font (size 1.27 1.27)) hide)
    )
    (property "Datasheet" "http://forums.parallax.com/uploads/attachments/46831/74481.png" (id 3) (at 0 -4.826 0)
      (effects (font (size 1.27 1.27)) hide)
    )
    (property "ki_keywords" "Servo Motor" (id 4) (at 0 0 0)
      (effects (font (size 1.27 1.27)) hide)
    )
    (property "ki_description" "Servo Motor (AirTronics connector)" (id 5) (at 0 0 0)
      (effects (font (size 1.27 1.27)) hide)
    )
    (property "ki_fp_filters" "PinHeader*P2.54mm*" (id 6) (at 0 0 0)
      (effects (font (size 1.27 1.27)) hide)
    )
    (symbol "Motor_Servo_AirTronics_0_1"
      (arc (start 2.413 1.778) (end 2.413 -1.778) (radius (at 3.175 0) (length 1.9304) (angles 113.2 -113.2))
        (stroke (width 0)) (fill (type none))
      )
      (arc (start 6.35 4.445) (end 7.62 3.175) (radius (at 6.7818 3.6068) (length 0.9398) (angles 117.3 -27.3))
        (stroke (width 0)) (fill (type none))
      )
      (circle (center 3.175 0) (radius 0.1778) (stroke (width 0)) (fill (type none)))
      (circle (center 3.175 0) (radius 1.4224) (stroke (width 0)) (fill (type none)))
      (circle (center 5.969 2.794) (radius 0.127) (stroke (width 0)) (fill (type none)))
      (circle (center 6.477 3.302) (radius 0.127) (stroke (width 0)) (fill (type none)))
      (circle (center 6.985 3.81) (radius 0.127) (stroke (width 0)) (fill (type none)))
      (polyline
        (pts
          (xy 2.413 -1.778)
          (xy 2.032 -1.778)
        )
        (stroke (width 0)) (fill (type none))
      )
      (polyline
        (pts
          (xy 2.413 -1.778)
          (xy 2.286 -1.397)
        )
        (stroke (width 0)) (fill (type none))
      )
      (polyline
        (pts
          (xy 2.413 1.778)
          (xy 1.905 1.778)
        )
        (stroke (width 0)) (fill (type none))
      )
      (polyline
        (pts
          (xy 2.413 1.778)
          (xy 2.286 1.397)
        )
        (stroke (width 0)) (fill (type none))
      )
      (polyline
        (pts
          (xy 6.35 4.445)
          (xy 2.54 1.27)
        )
        (stroke (width 0)) (fill (type none))
      )
      (polyline
        (pts
          (xy 7.62 3.175)
          (xy 4.191 -1.016)
        )
        (stroke (width 0)) (fill (type none))
      )
      (polyline
        (pts
          (xy 6.35 1.524)
          (xy 6.35 -3.556)
          (xy -5.08 -3.556)
          (xy -5.08 3.556)
          (xy 5.08 3.556)
        )
        (stroke (width 0.254)) (fill (type none))
      )
    )
    (symbol "Motor_Servo_AirTronics_1_1"
      (pin passive line (at -7.62 0 0) (length 2.54)
        (name "+" (effects (font (size 1.27 1.27))))
        (number "1" (effects (font (size 1.27 1.27))))
      )
      (pin passive line (at -7.62 -2.54 0) (length 2.54)
        (name "-" (effects (font (size 1.27 1.27))))
        (number "2" (effects (font (size 1.27 1.27))))
      )
      (pin passive line (at -7.62 2.54 0) (length 2.54)
        (name "PWM" (effects (font (size 1.27 1.27))))
        (number "3" (effects (font (size 1.27 1.27))))
      )
    )
  )
  (symbol "Motor:Stepper_Motor_bipolar" (pin_names (offset 0) hide) (in_bom yes) (on_board yes)
    (property "Reference" "M" (id 0) (at 3.81 2.54 0)
      (effects (font (size 1.27 1.27)) (justify left))
    )
    (property "Value" "Stepper_Motor_bipolar" (id 1) (at 3.81 1.27 0)
      (effects (font (size 1.27 1.27)) (justify left top))
    )
    (property "Footprint" "" (id 2) (at 0.254 -0.254 0)
      (effects (font (size 1.27 1.27)) hide)
    )
    (property "Datasheet" "http://www.infineon.com/dgdl/Application-Note-TLE8110EE_driving_UniPolarStepperMotor_V1.1.pdf?fileId=db3a30431be39b97011be5d0aa0a00b0" (id 3) (at 0.254 -0.254 0)
      (effects (font (size 1.27 1.27)) hide)
    )
    (property "ki_keywords" "bipolar stepper motor" (id 4) (at 0 0 0)
      (effects (font (size 1.27 1.27)) hide)
    )
    (property "ki_description" "4-wire bipolar stepper motor" (id 5) (at 0 0 0)
      (effects (font (size 1.27 1.27)) hide)
    )
    (property "ki_fp_filters" "PinHeader*P2.54mm*Vertical* TerminalBlock* Motor*" (id 6) (at 0 0 0)
      (effects (font (size 1.27 1.27)) hide)
    )
    (symbol "Stepper_Motor_bipolar_0_0"
      (polyline
        (pts
          (xy -1.27 -1.778)
          (xy -1.27 2.032)
          (xy 0 -0.508)
          (xy 1.27 2.032)
          (xy 1.27 -1.778)
        )
        (stroke (width 0)) (fill (type none))
      )
    )
    (symbol "Stepper_Motor_bipolar_0_1"
      (arc (start -4.445 -2.54) (end -4.445 -1.27) (radius (at -4.445 -1.905) (length 0.635) (angles -89.9 89.9))
        (stroke (width 0)) (fill (type none))
      )
      (arc (start -4.445 -1.27) (end -4.445 0) (radius (at -4.445 -0.635) (length 0.635) (angles -89.9 89.9))
        (stroke (width 0)) (fill (type none))
      )
      (arc (start -4.445 0) (end -4.445 1.27) (radius (at -4.445 0.635) (length 0.635) (angles -89.9 89.9))
        (stroke (width 0)) (fill (type none))
      )
      (arc (start -4.445 1.27) (end -4.445 2.54) (radius (at -4.445 1.905) (length 0.635) (angles -89.9 89.9))
        (stroke (width 0)) (fill (type none))
      )
      (arc (start -2.54 4.445) (end -1.27 4.445) (radius (at -1.905 4.445) (length 0.635) (angles -179.9 -0.1))
        (stroke (width 0)) (fill (type none))
      )
      (arc (start -1.27 4.445) (end 0 4.445) (radius (at -0.635 4.445) (length 0.635) (angles -179.9 -0.1))
        (stroke (width 0)) (fill (type none))
      )
      (arc (start 0 4.445) (end 1.27 4.445) (radius (at 0.635 4.445) (length 0.635) (angles -179.9 -0.1))
        (stroke (width 0)) (fill (type none))
      )
      (arc (start 1.27 4.445) (end 2.54 4.445) (radius (at 1.905 4.445) (length 0.635) (angles -179.9 -0.1))
        (stroke (width 0)) (fill (type none))
      )
      (circle (center 0 0) (radius 3.2512) (stroke (width 0.254)) (fill (type none)))
      (polyline
        (pts
          (xy -5.08 -2.54)
          (xy -4.445 -2.54)
        )
        (stroke (width 0)) (fill (type none))
      )
      (polyline
        (pts
          (xy -5.08 2.54)
          (xy -4.445 2.54)
        )
        (stroke (width 0)) (fill (type none))
      )
      (polyline
        (pts
          (xy -2.54 5.08)
          (xy -2.54 4.445)
        )
        (stroke (width 0)) (fill (type none))
      )
      (polyline
        (pts
          (xy 2.54 5.08)
          (xy 2.54 4.445)
        )
        (stroke (width 0)) (fill (type none))
      )
    )
    (symbol "Stepper_Motor_bipolar_1_1"
      (pin passive line (at -2.54 7.62 270) (length 2.54)
        (name "~" (effects (font (size 1.27 1.27))))
        (number "1" (effects (font (size 1.27 1.27))))
      )
      (pin passive line (at 2.54 7.62 270) (length 2.54)
        (name "-" (effects (font (size 1.27 1.27))))
        (number "2" (effects (font (size 1.27 1.27))))
      )
      (pin passive line (at -7.62 2.54 0) (length 2.54)
        (name "~" (effects (font (size 1.27 1.27))))
        (number "3" (effects (font (size 1.27 1.27))))
      )
      (pin passive line (at -7.62 -2.54 0) (length 2.54)
        (name "~" (effects (font (size 1.27 1.27))))
        (number "4" (effects (font (size 1.27 1.27))))
      )
    )
  )
  (symbol "Motor:Stepper_Motor_unipolar_5pin" (pin_names (offset 0) hide) (in_bom yes) (on_board yes)
    (property "Reference" "M" (id 0) (at 3.81 2.54 0)
      (effects (font (size 1.27 1.27)) (justify left))
    )
    (property "Value" "Stepper_Motor_unipolar_5pin" (id 1) (at 3.81 1.27 0)
      (effects (font (size 1.27 1.27)) (justify left top))
    )
    (property "Footprint" "" (id 2) (at 0.254 -0.254 0)
      (effects (font (size 1.27 1.27)) hide)
    )
    (property "Datasheet" "http://www.infineon.com/dgdl/Application-Note-TLE8110EE_driving_UniPolarStepperMotor_V1.1.pdf?fileId=db3a30431be39b97011be5d0aa0a00b0" (id 3) (at 0.254 -0.254 0)
      (effects (font (size 1.27 1.27)) hide)
    )
    (property "ki_keywords" "unipolar stepper motor" (id 4) (at 0 0 0)
      (effects (font (size 1.27 1.27)) hide)
    )
    (property "ki_description" "5-wire unipolar stepper motor" (id 5) (at 0 0 0)
      (effects (font (size 1.27 1.27)) hide)
    )
    (property "ki_fp_filters" "PinHeader*P2.54mm* TerminalBlock*" (id 6) (at 0 0 0)
      (effects (font (size 1.27 1.27)) hide)
    )
    (symbol "Stepper_Motor_unipolar_5pin_0_0"
      (polyline
        (pts
          (xy -1.27 -1.778)
          (xy -1.27 2.032)
          (xy 0 -0.508)
          (xy 1.27 2.032)
          (xy 1.27 -1.778)
        )
        (stroke (width 0)) (fill (type none))
      )
    )
    (symbol "Stepper_Motor_unipolar_5pin_0_1"
      (arc (start -4.445 -2.54) (end -4.445 -1.27) (radius (at -4.445 -1.905) (length 0.635) (angles -89.9 89.9))
        (stroke (width 0)) (fill (type none))
      )
      (arc (start -4.445 -1.27) (end -4.445 0) (radius (at -4.445 -0.635) (length 0.635) (angles -89.9 89.9))
        (stroke (width 0)) (fill (type none))
      )
      (arc (start -4.445 0) (end -4.445 1.27) (radius (at -4.445 0.635) (length 0.635) (angles -89.9 89.9))
        (stroke (width 0)) (fill (type none))
      )
      (arc (start -4.445 1.27) (end -4.445 2.54) (radius (at -4.445 1.905) (length 0.635) (angles -89.9 89.9))
        (stroke (width 0)) (fill (type none))
      )
      (arc (start -2.54 4.445) (end -1.27 4.445) (radius (at -1.905 4.445) (length 0.635) (angles -179.9 -0.1))
        (stroke (width 0)) (fill (type none))
      )
      (arc (start -1.27 4.445) (end 0 4.445) (radius (at -0.635 4.445) (length 0.635) (angles -179.9 -0.1))
        (stroke (width 0)) (fill (type none))
      )
      (arc (start 0 4.445) (end 1.27 4.445) (radius (at 0.635 4.445) (length 0.635) (angles -179.9 -0.1))
        (stroke (width 0)) (fill (type none))
      )
      (arc (start 1.27 4.445) (end 2.54 4.445) (radius (at 1.905 4.445) (length 0.635) (angles -179.9 -0.1))
        (stroke (width 0)) (fill (type none))
      )
      (circle (center -5.08 5.08) (radius 0) (stroke (width 0)) (fill (type outline)))
      (circle (center -5.08 5.08) (radius 0.254) (stroke (width 0)) (fill (type outline)))
      (circle (center 0 0) (radius 3.2512) (stroke (width 0.254)) (fill (type none)))
      (polyline
        (pts
          (xy -5.08 -2.54)
          (xy -4.445 -2.54)
        )
        (stroke (width 0)) (fill (type none))
      )
      (polyline
        (pts
          (xy -5.08 2.54)
          (xy -4.445 2.54)
        )
        (stroke (width 0)) (fill (type none))
      )
      (polyline
        (pts
          (xy -2.54 4.445)
          (xy -2.54 5.08)
        )
        (stroke (width 0)) (fill (type none))
      )
      (polyline
        (pts
          (xy 2.54 4.445)
          (xy 2.54 5.08)
        )
        (stroke (width 0)) (fill (type none))
      )
      (polyline
        (pts
          (xy -5.08 5.08)
          (xy -5.08 0)
          (xy -4.445 0)
        )
        (stroke (width 0)) (fill (type none))
      )
      (polyline
        (pts
          (xy 0 4.445)
          (xy 0 5.08)
          (xy -5.08 5.08)
        )
        (stroke (width 0)) (fill (type none))
      )
    )
    (symbol "Stepper_Motor_unipolar_5pin_1_1"
      (pin passive line (at -5.08 7.62 270) (length 2.54)
        (name "~" (effects (font (size 1.27 1.27))))
        (number "1" (effects (font (size 1.27 1.27))))
      )
      (pin passive line (at -2.54 7.62 270) (length 2.54)
        (name "~" (effects (font (size 1.27 1.27))))
        (number "2" (effects (font (size 1.27 1.27))))
      )
      (pin passive line (at 2.54 7.62 270) (length 2.54)
        (name "-" (effects (font (size 1.27 1.27))))
        (number "3" (effects (font (size 1.27 1.27))))
      )
      (pin passive line (at -7.62 2.54 0) (length 2.54)
        (name "~" (effects (font (size 1.27 1.27))))
        (number "4" (effects (font (size 1.27 1.27))))
      )
      (pin passive line (at -7.62 -2.54 0) (length 2.54)
        (name "~" (effects (font (size 1.27 1.27))))
        (number "5" (effects (font (size 1.27 1.27))))
      )
    )
  )
  (symbol "Motor:Stepper_Motor_unipolar_6pin" (pin_names (offset 0) hide) (in_bom yes) (on_board yes)
    (property "Reference" "M" (id 0) (at 3.81 2.54 0)
      (effects (font (size 1.27 1.27)) (justify left))
    )
    (property "Value" "Stepper_Motor_unipolar_6pin" (id 1) (at 3.81 1.27 0)
      (effects (font (size 1.27 1.27)) (justify left top))
    )
    (property "Footprint" "" (id 2) (at 0.254 -0.254 0)
      (effects (font (size 1.27 1.27)) hide)
    )
    (property "Datasheet" "http://www.infineon.com/dgdl/Application-Note-TLE8110EE_driving_UniPolarStepperMotor_V1.1.pdf?fileId=db3a30431be39b97011be5d0aa0a00b0" (id 3) (at 0.254 -0.254 0)
      (effects (font (size 1.27 1.27)) hide)
    )
    (property "ki_keywords" "unipolar stepper motor" (id 4) (at 0 0 0)
      (effects (font (size 1.27 1.27)) hide)
    )
    (property "ki_description" "6-wire unipolar stepper motor" (id 5) (at 0 0 0)
      (effects (font (size 1.27 1.27)) hide)
    )
    (property "ki_fp_filters" "PinHeader*P2.54mm* TerminalBlock*" (id 6) (at 0 0 0)
      (effects (font (size 1.27 1.27)) hide)
    )
    (symbol "Stepper_Motor_unipolar_6pin_0_0"
      (polyline
        (pts
          (xy -1.27 -1.778)
          (xy -1.27 2.032)
          (xy 0 -0.508)
          (xy 1.27 2.032)
          (xy 1.27 -1.778)
        )
        (stroke (width 0)) (fill (type none))
      )
    )
    (symbol "Stepper_Motor_unipolar_6pin_0_1"
      (arc (start -4.445 -2.54) (end -4.445 -1.27) (radius (at -4.445 -1.905) (length 0.635) (angles -89.9 89.9))
        (stroke (width 0)) (fill (type none))
      )
      (arc (start -4.445 -1.27) (end -4.445 0) (radius (at -4.445 -0.635) (length 0.635) (angles -89.9 89.9))
        (stroke (width 0)) (fill (type none))
      )
      (arc (start -4.445 0) (end -4.445 1.27) (radius (at -4.445 0.635) (length 0.635) (angles -89.9 89.9))
        (stroke (width 0)) (fill (type none))
      )
      (arc (start -4.445 1.27) (end -4.445 2.54) (radius (at -4.445 1.905) (length 0.635) (angles -89.9 89.9))
        (stroke (width 0)) (fill (type none))
      )
      (arc (start -2.54 4.445) (end -1.27 4.445) (radius (at -1.905 4.445) (length 0.635) (angles -179.9 -0.1))
        (stroke (width 0)) (fill (type none))
      )
      (arc (start -1.27 4.445) (end 0 4.445) (radius (at -0.635 4.445) (length 0.635) (angles -179.9 -0.1))
        (stroke (width 0)) (fill (type none))
      )
      (arc (start 0 4.445) (end 1.27 4.445) (radius (at 0.635 4.445) (length 0.635) (angles -179.9 -0.1))
        (stroke (width 0)) (fill (type none))
      )
      (arc (start 1.27 4.445) (end 2.54 4.445) (radius (at 1.905 4.445) (length 0.635) (angles -179.9 -0.1))
        (stroke (width 0)) (fill (type none))
      )
      (circle (center 0 0) (radius 3.2512) (stroke (width 0.254)) (fill (type none)))
      (polyline
        (pts
          (xy -5.08 -2.54)
          (xy -4.445 -2.54)
        )
        (stroke (width 0)) (fill (type none))
      )
      (polyline
        (pts
          (xy -5.08 2.54)
          (xy -4.445 2.54)
        )
        (stroke (width 0)) (fill (type none))
      )
      (polyline
        (pts
          (xy -4.445 0)
          (xy -5.08 0)
        )
        (stroke (width 0)) (fill (type none))
      )
      (polyline
        (pts
          (xy -2.54 4.445)
          (xy -2.54 5.08)
        )
        (stroke (width 0)) (fill (type none))
      )
      (polyline
        (pts
          (xy 0 4.445)
          (xy 0 5.08)
        )
        (stroke (width 0)) (fill (type none))
      )
      (polyline
        (pts
          (xy 2.54 4.445)
          (xy 2.54 5.08)
        )
        (stroke (width 0)) (fill (type none))
      )
    )
    (symbol "Stepper_Motor_unipolar_6pin_1_1"
      (pin passive line (at -2.54 7.62 270) (length 2.54)
        (name "~" (effects (font (size 1.27 1.27))))
        (number "1" (effects (font (size 1.27 1.27))))
      )
      (pin passive line (at 0 7.62 270) (length 2.54)
        (name "~" (effects (font (size 1.27 1.27))))
        (number "2" (effects (font (size 1.27 1.27))))
      )
      (pin passive line (at 2.54 7.62 270) (length 2.54)
        (name "-" (effects (font (size 1.27 1.27))))
        (number "3" (effects (font (size 1.27 1.27))))
      )
      (pin passive line (at -7.62 2.54 0) (length 2.54)
        (name "~" (effects (font (size 1.27 1.27))))
        (number "4" (effects (font (size 1.27 1.27))))
      )
      (pin passive line (at -7.62 0 0) (length 2.54)
        (name "~" (effects (font (size 1.27 1.27))))
        (number "5" (effects (font (size 1.27 1.27))))
      )
      (pin passive line (at -7.62 -2.54 0) (length 2.54)
        (name "~" (effects (font (size 1.27 1.27))))
        (number "6" (effects (font (size 1.27 1.27))))
      )
    )
  )
)
