(kicad_symbol_lib (version 20201005) (generator kicad_symbol_editor)
  (symbol "Regulator_Current:HV100K5-G" (in_bom yes) (on_board yes)
    (property "Reference" "U" (id 0) (at -5.08 8.89 0)
      (effects (font (size 1.27 1.27)) (justify left))
    )
    (property "Value" "HV100K5-G" (id 1) (at 1.27 8.89 0)
      (effects (font (size 1.27 1.27)) (justify left))
    )
    (property "Footprint" "Package_TO_SOT_SMD:SOT-223-3_TabPin2" (id 2) (at 0 -12.7 0)
      (effects (font (size 1.27 1.27)) hide)
    )
    (property "Datasheet" "http://ww1.microchip.com/downloads/en/devicedoc/hv100%20b060513.pdf" (id 3) (at 8.89 1.27 0)
      (effects (font (size 1.27 1.27)) hide)
    )
    (property "ki_keywords" "Hot-Swap Current Limiter" (id 4) (at 0 0 0)
      (effects (font (size 1.27 1.27)) hide)
    )
    (property "ki_description" "Hot-Swap Current Limiter Controller, SOT223" (id 5) (at 0 0 0)
      (effects (font (size 1.27 1.27)) hide)
    )
    (property "ki_fp_filters" "SOT?223*TabPin2*" (id 6) (at 0 0 0)
      (effects (font (size 1.27 1.27)) hide)
    )
    (symbol "HV100K5-G_0_1"
      (rectangle (start -5.08 7.62) (end 5.08 -7.62)
        (stroke (width 0.254)) (fill (type background))
      )
    )
    (symbol "HV100K5-G_1_1"
      (pin power_in line (at 0 10.16 270) (length 2.54)
        (name "VPP" (effects (font (size 1.27 1.27))))
        (number "1" (effects (font (size 1.27 1.27))))
      )
      (pin power_in line (at 0 -10.16 90) (length 2.54)
        (name "VNN" (effects (font (size 1.27 1.27))))
        (number "2" (effects (font (size 1.27 1.27))))
      )
      (pin output line (at 7.62 0 180) (length 2.54)
        (name "GATE" (effects (font (size 1.27 1.27))))
        (number "3" (effects (font (size 1.27 1.27))))
      )
    )
  )
  (symbol "Regulator_Current:HV101K5-G" (extends "HV100K5-G")
    (property "Reference" "U" (id 0) (at -5.08 8.89 0)
      (effects (font (size 1.27 1.27)) (justify left))
    )
    (property "Value" "HV101K5-G" (id 1) (at 1.27 8.89 0)
      (effects (font (size 1.27 1.27)) (justify left))
    )
    (property "Footprint" "Package_TO_SOT_SMD:SOT-223-3_TabPin2" (id 2) (at 0 -12.7 0)
      (effects (font (size 1.27 1.27)) hide)
    )
    (property "Datasheet" "http://www.supertex.com/pdf/datasheets/HV100.pdf" (id 3) (at 8.89 1.27 0)
      (effects (font (size 1.27 1.27)) hide)
    )
    (property "ki_keywords" "Hot-Swap Current Limiter" (id 4) (at 0 0 0)
      (effects (font (size 1.27 1.27)) hide)
    )
    (property "ki_description" "Hot-Swap Current Limiter Controller, SOT223" (id 5) (at 0 0 0)
      (effects (font (size 1.27 1.27)) hide)
    )
    (property "ki_fp_filters" "SOT?223*TabPin2*" (id 6) (at 0 0 0)
      (effects (font (size 1.27 1.27)) hide)
    )
  )
)
