(kicad_symbol_lib (version 20201005) (generator kicad_symbol_editor)
  (symbol "RF_GSM:BC66" (in_bom yes) (on_board yes)
    (property "Reference" "U" (id 0) (at -11.43 26.67 0)
      (effects (font (size 1.27 1.27)))
    )
    (property "Value" "BC66" (id 1) (at 10.16 26.67 0)
      (effects (font (size 1.27 1.27)))
    )
    (property "Footprint" "RF_GSM:Quectel_BC66" (id 2) (at 13.97 -26.67 0)
      (effects (font (size 1.27 1.27)) hide)
    )
    (property "Datasheet" "https://www.quectel.com/UploadImage/Downlad/Quectel_BC66_Hardware_Design_V1.1.pdf" (id 3) (at 43.18 -25.4 0)
      (effects (font (size 1.27 1.27)) hide)
    )
    (property "ki_keywords" "NB-IoT Data SMS" (id 4) (at 0 0 0)
      (effects (font (size 1.27 1.27)) hide)
    )
    (property "ki_description" "Quectel NB-IoT Global, AT Command Set" (id 5) (at 0 0 0)
      (effects (font (size 1.27 1.27)) hide)
    )
    (property "ki_fp_filters" "Quectel*BC66*" (id 6) (at 0 0 0)
      (effects (font (size 1.27 1.27)) hide)
    )
    (symbol "BC66_0_1"
      (rectangle (start -12.7 25.4) (end 12.7 -25.4)
        (stroke (width 0.254)) (fill (type background))
      )
    )
    (symbol "BC66_1_1"
      (pin power_in line (at 0 -27.94 90) (length 2.54)
        (name "GND" (effects (font (size 1.27 1.27))))
        (number "1" (effects (font (size 1.27 1.27))))
      )
      (pin power_out line (at 15.24 2.54 180) (length 2.54)
        (name "SIM_GND" (effects (font (size 1.27 1.27))))
        (number "10" (effects (font (size 1.27 1.27))))
      )
      (pin bidirectional line (at 15.24 7.62 180) (length 2.54)
        (name "SIM_DATA" (effects (font (size 1.27 1.27))))
        (number "11" (effects (font (size 1.27 1.27))))
      )
      (pin output line (at 15.24 10.16 180) (length 2.54)
        (name "SIM_RST" (effects (font (size 1.27 1.27))))
        (number "12" (effects (font (size 1.27 1.27))))
      )
      (pin output line (at 15.24 5.08 180) (length 2.54)
        (name "SIM_CLK" (effects (font (size 1.27 1.27))))
        (number "13" (effects (font (size 1.27 1.27))))
      )
      (pin power_out line (at 15.24 12.7 180) (length 2.54)
        (name "SIM_VDD" (effects (font (size 1.27 1.27))))
        (number "14" (effects (font (size 1.27 1.27))))
      )
      (pin input line (at -15.24 -7.62 0) (length 2.54)
        (name "~RESET" (effects (font (size 1.27 1.27))))
        (number "15" (effects (font (size 1.27 1.27))))
      )
      (pin output line (at 15.24 -15.24 180) (length 2.54)
        (name "NETLIGHT" (effects (font (size 1.27 1.27))))
        (number "16" (effects (font (size 1.27 1.27))))
      )
      (pin output line (at -15.24 15.24 0) (length 2.54)
        (name "TXD" (effects (font (size 1.27 1.27))))
        (number "17" (effects (font (size 1.27 1.27))))
      )
      (pin input line (at -15.24 17.78 0) (length 2.54)
        (name "RXD" (effects (font (size 1.27 1.27))))
        (number "18" (effects (font (size 1.27 1.27))))
      )
      (pin input line (at -15.24 -15.24 0) (length 2.54)
        (name "PSM_EINT" (effects (font (size 1.27 1.27))))
        (number "19" (effects (font (size 1.27 1.27))))
      )
      (pin no_connect line (at -5.08 25.4 270) (length 2.54) hide
        (name "RESERVED" (effects (font (size 1.27 1.27))))
        (number "2" (effects (font (size 1.27 1.27))))
      )
      (pin output line (at -15.24 20.32 0) (length 2.54)
        (name "RI" (effects (font (size 1.27 1.27))))
        (number "20" (effects (font (size 1.27 1.27))))
      )
      (pin no_connect line (at -12.7 12.7 0) (length 2.54) hide
        (name "RESERVED" (effects (font (size 1.27 1.27))))
        (number "21" (effects (font (size 1.27 1.27))))
      )
      (pin no_connect line (at -12.7 5.08 0) (length 2.54) hide
        (name "RESERVED" (effects (font (size 1.27 1.27))))
        (number "22" (effects (font (size 1.27 1.27))))
      )
      (pin no_connect line (at -12.7 -2.54 0) (length 2.54) hide
        (name "RESERVED" (effects (font (size 1.27 1.27))))
        (number "23" (effects (font (size 1.27 1.27))))
      )
      (pin power_out line (at 2.54 27.94 270) (length 2.54)
        (name "VDD_EXT" (effects (font (size 1.27 1.27))))
        (number "24" (effects (font (size 1.27 1.27))))
      )
      (pin no_connect line (at -12.7 -10.16 0) (length 2.54) hide
        (name "RESERVED" (effects (font (size 1.27 1.27))))
        (number "25" (effects (font (size 1.27 1.27))))
      )
      (pin no_connect line (at -12.7 -17.78 0) (length 2.54) hide
        (name "RESERVED" (effects (font (size 1.27 1.27))))
        (number "26" (effects (font (size 1.27 1.27))))
      )
      (pin passive line (at 0 -27.94 90) (length 2.54) hide
        (name "GND" (effects (font (size 1.27 1.27))))
        (number "27" (effects (font (size 1.27 1.27))))
      )
      (pin input line (at -15.24 10.16 0) (length 2.54)
        (name "RXD_AUX" (effects (font (size 1.27 1.27))))
        (number "28" (effects (font (size 1.27 1.27))))
      )
      (pin output line (at -15.24 7.62 0) (length 2.54)
        (name "TXD_AUX" (effects (font (size 1.27 1.27))))
        (number "29" (effects (font (size 1.27 1.27))))
      )
      (pin input line (at 15.24 -2.54 180) (length 2.54)
        (name "SPI_MISO" (effects (font (size 1.27 1.27))))
        (number "3" (effects (font (size 1.27 1.27))))
      )
      (pin no_connect line (at -12.7 -22.86 0) (length 2.54) hide
        (name "RESERVED" (effects (font (size 1.27 1.27))))
        (number "30" (effects (font (size 1.27 1.27))))
      )
      (pin no_connect line (at -10.16 -25.4 90) (length 2.54) hide
        (name "RESERVED" (effects (font (size 1.27 1.27))))
        (number "31" (effects (font (size 1.27 1.27))))
      )
      (pin no_connect line (at -7.62 -25.4 90) (length 2.54) hide
        (name "RESERVED" (effects (font (size 1.27 1.27))))
        (number "32" (effects (font (size 1.27 1.27))))
      )
      (pin no_connect line (at -5.08 -25.4 90) (length 2.54) hide
        (name "RESERVED" (effects (font (size 1.27 1.27))))
        (number "33" (effects (font (size 1.27 1.27))))
      )
      (pin passive line (at 0 -27.94 90) (length 2.54) hide
        (name "GND" (effects (font (size 1.27 1.27))))
        (number "34" (effects (font (size 1.27 1.27))))
      )
      (pin passive line (at 15.24 20.32 180) (length 2.54)
        (name "RF_ANT" (effects (font (size 1.27 1.27))))
        (number "35" (effects (font (size 1.27 1.27))))
      )
      (pin passive line (at 0 -27.94 90) (length 2.54) hide
        (name "GND" (effects (font (size 1.27 1.27))))
        (number "36" (effects (font (size 1.27 1.27))))
      )
      (pin passive line (at 0 -27.94 90) (length 2.54) hide
        (name "GND" (effects (font (size 1.27 1.27))))
        (number "37" (effects (font (size 1.27 1.27))))
      )
      (pin input line (at -15.24 2.54 0) (length 2.54)
        (name "RXD_DBG" (effects (font (size 1.27 1.27))))
        (number "38" (effects (font (size 1.27 1.27))))
      )
      (pin output line (at -15.24 0 0) (length 2.54)
        (name "TXD_DBG" (effects (font (size 1.27 1.27))))
        (number "39" (effects (font (size 1.27 1.27))))
      )
      (pin output line (at 15.24 -5.08 180) (length 2.54)
        (name "SPI_MOSI" (effects (font (size 1.27 1.27))))
        (number "4" (effects (font (size 1.27 1.27))))
      )
      (pin passive line (at 0 -27.94 90) (length 2.54) hide
        (name "GND" (effects (font (size 1.27 1.27))))
        (number "40" (effects (font (size 1.27 1.27))))
      )
      (pin passive line (at 0 -27.94 90) (length 2.54) hide
        (name "GND" (effects (font (size 1.27 1.27))))
        (number "41" (effects (font (size 1.27 1.27))))
      )
      (pin power_in line (at -2.54 27.94 270) (length 2.54)
        (name "VBAT_BB" (effects (font (size 1.27 1.27))))
        (number "42" (effects (font (size 1.27 1.27))))
      )
      (pin power_in line (at 0 27.94 270) (length 2.54)
        (name "VBAT_RF" (effects (font (size 1.27 1.27))))
        (number "43" (effects (font (size 1.27 1.27))))
      )
      (pin no_connect line (at -2.54 -25.4 90) (length 2.54) hide
        (name "RESERVED" (effects (font (size 1.27 1.27))))
        (number "44" (effects (font (size 1.27 1.27))))
      )
      (pin no_connect line (at 5.08 -25.4 90) (length 2.54) hide
        (name "RESERVED" (effects (font (size 1.27 1.27))))
        (number "45" (effects (font (size 1.27 1.27))))
      )
      (pin no_connect line (at 7.62 -25.4 90) (length 2.54) hide
        (name "RESERVED" (effects (font (size 1.27 1.27))))
        (number "46" (effects (font (size 1.27 1.27))))
      )
      (pin no_connect line (at 10.16 -25.4 90) (length 2.54) hide
        (name "RESERVED" (effects (font (size 1.27 1.27))))
        (number "47" (effects (font (size 1.27 1.27))))
      )
      (pin no_connect line (at 12.7 -22.86 180) (length 2.54) hide
        (name "RESERVED" (effects (font (size 1.27 1.27))))
        (number "48" (effects (font (size 1.27 1.27))))
      )
      (pin no_connect line (at 12.7 -20.32 180) (length 2.54) hide
        (name "RESERVED" (effects (font (size 1.27 1.27))))
        (number "49" (effects (font (size 1.27 1.27))))
      )
      (pin output line (at 15.24 -7.62 180) (length 2.54)
        (name "SPI_SCLK" (effects (font (size 1.27 1.27))))
        (number "5" (effects (font (size 1.27 1.27))))
      )
      (pin no_connect line (at 12.7 -17.78 180) (length 2.54) hide
        (name "RESERVED" (effects (font (size 1.27 1.27))))
        (number "50" (effects (font (size 1.27 1.27))))
      )
      (pin no_connect line (at -12.7 -12.7 0) (length 2.54) hide
        (name "RESERVED" (effects (font (size 1.27 1.27))))
        (number "51" (effects (font (size 1.27 1.27))))
      )
      (pin no_connect line (at 12.7 -12.7 180) (length 2.54) hide
        (name "RESERVED" (effects (font (size 1.27 1.27))))
        (number "52" (effects (font (size 1.27 1.27))))
      )
      (pin no_connect line (at 12.7 0 180) (length 2.54) hide
        (name "RESERVED" (effects (font (size 1.27 1.27))))
        (number "53" (effects (font (size 1.27 1.27))))
      )
      (pin no_connect line (at 2.54 -25.4 90) (length 2.54) hide
        (name "RESERVED" (effects (font (size 1.27 1.27))))
        (number "54" (effects (font (size 1.27 1.27))))
      )
      (pin no_connect line (at 12.7 17.78 180) (length 2.54) hide
        (name "RESERVED" (effects (font (size 1.27 1.27))))
        (number "55" (effects (font (size 1.27 1.27))))
      )
      (pin no_connect line (at 12.7 15.24 180) (length 2.54) hide
        (name "RESERVED" (effects (font (size 1.27 1.27))))
        (number "56" (effects (font (size 1.27 1.27))))
      )
      (pin no_connect line (at 12.7 22.86 180) (length 2.54) hide
        (name "RESERVED" (effects (font (size 1.27 1.27))))
        (number "57" (effects (font (size 1.27 1.27))))
      )
      (pin no_connect line (at 5.08 25.4 270) (length 2.54) hide
        (name "RESERVED" (effects (font (size 1.27 1.27))))
        (number "58" (effects (font (size 1.27 1.27))))
      )
      (pin output line (at 15.24 -10.16 180) (length 2.54)
        (name "SPI_CS" (effects (font (size 1.27 1.27))))
        (number "6" (effects (font (size 1.27 1.27))))
      )
      (pin input line (at -15.24 -5.08 0) (length 2.54)
        (name "PWRKEY" (effects (font (size 1.27 1.27))))
        (number "7" (effects (font (size 1.27 1.27))))
      )
      (pin no_connect line (at -12.7 22.86 0) (length 2.54) hide
        (name "RESERVED" (effects (font (size 1.27 1.27))))
        (number "8" (effects (font (size 1.27 1.27))))
      )
      (pin input line (at -15.24 -20.32 0) (length 2.54)
        (name "ADC0" (effects (font (size 1.27 1.27))))
        (number "9" (effects (font (size 1.27 1.27))))
      )
    )
  )
  (symbol "RF_GSM:BC95" (in_bom yes) (on_board yes)
    (property "Reference" "U" (id 0) (at -11.43 16.51 0)
      (effects (font (size 1.27 1.27)))
    )
    (property "Value" "BC95" (id 1) (at 10.16 16.51 0)
      (effects (font (size 1.27 1.27)))
    )
    (property "Footprint" "RF_GSM:Quectel_BC95" (id 2) (at 11.43 -16.51 0)
      (effects (font (size 1.27 1.27)) hide)
    )
    (property "Datasheet" "https://www.quectel.com/UploadImage/Downlad/Quectel_BC95_Hardware_Design_V1.3.pdf" (id 3) (at 0 0 0)
      (effects (font (size 1.27 1.27)) hide)
    )
    (property "ki_keywords" "NB-IoT GSM GPRS Quad-Band SMS" (id 4) (at 0 0 0)
      (effects (font (size 1.27 1.27)) hide)
    )
    (property "ki_description" "NB-IoT, GSM Quad-Band Communication Module, GPRS, Audio Engine, AT Command Set" (id 5) (at 0 0 0)
      (effects (font (size 1.27 1.27)) hide)
    )
    (property "ki_fp_filters" "Quectel?BC95*" (id 6) (at 0 0 0)
      (effects (font (size 1.27 1.27)) hide)
    )
    (symbol "BC95_0_1"
      (rectangle (start -12.7 15.24) (end 12.7 -15.24)
        (stroke (width 0.254)) (fill (type background))
      )
    )
    (symbol "BC95_1_1"
      (pin input line (at -15.24 12.7 0) (length 2.54)
        (name "RESET" (effects (font (size 1.27 1.27))))
        (number "15" (effects (font (size 1.27 1.27))))
      )
      (pin output line (at -15.24 0 0) (length 2.54)
        (name "NETLIGHT" (effects (font (size 1.27 1.27))))
        (number "18" (effects (font (size 1.27 1.27))))
      )
      (pin input line (at -15.24 -7.62 0) (length 2.54)
        (name "DBG_RXD" (effects (font (size 1.27 1.27))))
        (number "19" (effects (font (size 1.27 1.27))))
      )
      (pin power_in line (at -2.54 -17.78 90) (length 2.54)
        (name "GND" (effects (font (size 1.27 1.27))))
        (number "2" (effects (font (size 1.27 1.27))))
      )
      (pin output line (at -15.24 -5.08 0) (length 2.54)
        (name "DBG_TXD" (effects (font (size 1.27 1.27))))
        (number "20" (effects (font (size 1.27 1.27))))
      )
      (pin input line (at -15.24 -12.7 0) (length 2.54)
        (name "ADC" (effects (font (size 1.27 1.27))))
        (number "21" (effects (font (size 1.27 1.27))))
      )
      (pin power_out line (at -2.54 17.78 270) (length 2.54)
        (name "VDD_EXT" (effects (font (size 1.27 1.27))))
        (number "26" (effects (font (size 1.27 1.27))))
      )
      (pin input line (at -15.24 2.54 0) (length 2.54)
        (name "RXD" (effects (font (size 1.27 1.27))))
        (number "29" (effects (font (size 1.27 1.27))))
      )
      (pin output line (at -15.24 5.08 0) (length 2.54)
        (name "TXD" (effects (font (size 1.27 1.27))))
        (number "30" (effects (font (size 1.27 1.27))))
      )
      (pin output line (at -15.24 7.62 0) (length 2.54)
        (name "RI" (effects (font (size 1.27 1.27))))
        (number "34" (effects (font (size 1.27 1.27))))
      )
      (pin power_out line (at 15.24 0 180) (length 2.54)
        (name "USIM_VDD" (effects (font (size 1.27 1.27))))
        (number "38" (effects (font (size 1.27 1.27))))
      )
      (pin output line (at 15.24 -7.62 180) (length 2.54)
        (name "USIM_RST" (effects (font (size 1.27 1.27))))
        (number "39" (effects (font (size 1.27 1.27))))
      )
      (pin bidirectional line (at 15.24 -2.54 180) (length 2.54)
        (name "USIM_DATA" (effects (font (size 1.27 1.27))))
        (number "40" (effects (font (size 1.27 1.27))))
      )
      (pin output line (at 15.24 -5.08 180) (length 2.54)
        (name "USIM_CLK" (effects (font (size 1.27 1.27))))
        (number "41" (effects (font (size 1.27 1.27))))
      )
      (pin power_in line (at 0 -17.78 90) (length 2.54)
        (name "USIM_GND" (effects (font (size 1.27 1.27))))
        (number "42" (effects (font (size 1.27 1.27))))
      )
      (pin passive line (at -2.54 -17.78 90) (length 2.54) hide
        (name "GND" (effects (font (size 1.27 1.27))))
        (number "43" (effects (font (size 1.27 1.27))))
      )
      (pin power_in line (at 2.54 17.78 270) (length 2.54)
        (name "VBAT" (effects (font (size 1.27 1.27))))
        (number "45" (effects (font (size 1.27 1.27))))
      )
      (pin passive line (at 2.54 17.78 270) (length 2.54) hide
        (name "VBAT" (effects (font (size 1.27 1.27))))
        (number "46" (effects (font (size 1.27 1.27))))
      )
      (pin passive line (at -2.54 -17.78 90) (length 2.54) hide
        (name "GND" (effects (font (size 1.27 1.27))))
        (number "47" (effects (font (size 1.27 1.27))))
      )
      (pin passive line (at -2.54 -17.78 90) (length 2.54) hide
        (name "GND" (effects (font (size 1.27 1.27))))
        (number "48" (effects (font (size 1.27 1.27))))
      )
      (pin passive line (at -2.54 -17.78 90) (length 2.54) hide
        (name "GND" (effects (font (size 1.27 1.27))))
        (number "51" (effects (font (size 1.27 1.27))))
      )
      (pin passive line (at -2.54 -17.78 90) (length 2.54) hide
        (name "GND" (effects (font (size 1.27 1.27))))
        (number "52" (effects (font (size 1.27 1.27))))
      )
      (pin passive line (at 15.24 7.62 180) (length 2.54)
        (name "RF_ANT" (effects (font (size 1.27 1.27))))
        (number "53" (effects (font (size 1.27 1.27))))
      )
      (pin passive line (at -2.54 -17.78 90) (length 2.54) hide
        (name "GND" (effects (font (size 1.27 1.27))))
        (number "54" (effects (font (size 1.27 1.27))))
      )
      (pin passive line (at -2.54 -17.78 90) (length 2.54) hide
        (name "GND" (effects (font (size 1.27 1.27))))
        (number "59" (effects (font (size 1.27 1.27))))
      )
      (pin passive line (at -2.54 -17.78 90) (length 2.54) hide
        (name "GND" (effects (font (size 1.27 1.27))))
        (number "60" (effects (font (size 1.27 1.27))))
      )
      (pin passive line (at -2.54 -17.78 90) (length 2.54) hide
        (name "GND" (effects (font (size 1.27 1.27))))
        (number "61" (effects (font (size 1.27 1.27))))
      )
      (pin passive line (at -2.54 -17.78 90) (length 2.54) hide
        (name "GND" (effects (font (size 1.27 1.27))))
        (number "62" (effects (font (size 1.27 1.27))))
      )
      (pin passive line (at -2.54 -17.78 90) (length 2.54) hide
        (name "GND" (effects (font (size 1.27 1.27))))
        (number "63" (effects (font (size 1.27 1.27))))
      )
      (pin passive line (at -2.54 -17.78 90) (length 2.54) hide
        (name "GND" (effects (font (size 1.27 1.27))))
        (number "64" (effects (font (size 1.27 1.27))))
      )
      (pin passive line (at -2.54 -17.78 90) (length 2.54) hide
        (name "GND" (effects (font (size 1.27 1.27))))
        (number "65" (effects (font (size 1.27 1.27))))
      )
      (pin passive line (at -2.54 -17.78 90) (length 2.54) hide
        (name "GND" (effects (font (size 1.27 1.27))))
        (number "66" (effects (font (size 1.27 1.27))))
      )
      (pin passive line (at -2.54 -17.78 90) (length 2.54) hide
        (name "GND" (effects (font (size 1.27 1.27))))
        (number "71" (effects (font (size 1.27 1.27))))
      )
      (pin passive line (at -2.54 -17.78 90) (length 2.54) hide
        (name "GND" (effects (font (size 1.27 1.27))))
        (number "72" (effects (font (size 1.27 1.27))))
      )
      (pin passive line (at -2.54 -17.78 90) (length 2.54) hide
        (name "GND" (effects (font (size 1.27 1.27))))
        (number "73" (effects (font (size 1.27 1.27))))
      )
      (pin passive line (at -2.54 -17.78 90) (length 2.54) hide
        (name "GND" (effects (font (size 1.27 1.27))))
        (number "74" (effects (font (size 1.27 1.27))))
      )
      (pin passive line (at -2.54 -17.78 90) (length 2.54) hide
        (name "GND" (effects (font (size 1.27 1.27))))
        (number "81" (effects (font (size 1.27 1.27))))
      )
      (pin passive line (at -2.54 -17.78 90) (length 2.54) hide
        (name "GND" (effects (font (size 1.27 1.27))))
        (number "82" (effects (font (size 1.27 1.27))))
      )
      (pin passive line (at -2.54 -17.78 90) (length 2.54) hide
        (name "GND" (effects (font (size 1.27 1.27))))
        (number "83" (effects (font (size 1.27 1.27))))
      )
      (pin passive line (at -2.54 -17.78 90) (length 2.54) hide
        (name "GND" (effects (font (size 1.27 1.27))))
        (number "92" (effects (font (size 1.27 1.27))))
      )
      (pin passive line (at -2.54 -17.78 90) (length 2.54) hide
        (name "GND" (effects (font (size 1.27 1.27))))
        (number "93" (effects (font (size 1.27 1.27))))
      )
      (pin passive line (at -2.54 -17.78 90) (length 2.54) hide
        (name "GND" (effects (font (size 1.27 1.27))))
        (number "94" (effects (font (size 1.27 1.27))))
      )
    )
  )
  (symbol "RF_GSM:M95" (in_bom yes) (on_board yes)
    (property "Reference" "U" (id 0) (at -12.7 29.21 0)
      (effects (font (size 1.27 1.27)) (justify left))
    )
    (property "Value" "M95" (id 1) (at 12.7 29.21 0)
      (effects (font (size 1.27 1.27)) (justify right))
    )
    (property "Footprint" "RF_GSM:Quectel_M95" (id 2) (at 0 -7.62 0)
      (effects (font (size 1.27 1.27)) hide)
    )
    (property "Datasheet" "https://www.quectel.com/UploadImage/Downlad/M95_Hardware_Design_V1.3.pdf" (id 3) (at 0 -7.62 0)
      (effects (font (size 1.27 1.27)) hide)
    )
    (property "ki_keywords" "GSM GPRS AT SMS voice TCP/IP" (id 4) (at 0 0 0)
      (effects (font (size 1.27 1.27)) hide)
    )
    (property "ki_description" "Quectel quad-band GSM/GPRS module in LCC package" (id 5) (at 0 0 0)
      (effects (font (size 1.27 1.27)) hide)
    )
    (property "ki_fp_filters" "Quectel*M95*" (id 6) (at 0 0 0)
      (effects (font (size 1.27 1.27)) hide)
    )
    (symbol "M95_0_1"
      (rectangle (start -12.7 27.94) (end 12.7 -27.94)
        (stroke (width 0.254)) (fill (type background))
      )
    )
    (symbol "M95_1_1"
      (pin power_in line (at -5.08 -30.48 90) (length 2.54)
        (name "AGND" (effects (font (size 1.27 1.27))))
        (number "1" (effects (font (size 1.27 1.27))))
      )
      (pin input line (at -15.24 20.32 0) (length 2.54)
        (name "~PWRKEY" (effects (font (size 1.27 1.27))))
        (number "10" (effects (font (size 1.27 1.27))))
      )
      (pin input line (at -15.24 17.78 0) (length 2.54)
        (name "~EMERG_OFF" (effects (font (size 1.27 1.27))))
        (number "11" (effects (font (size 1.27 1.27))))
      )
      (pin output line (at 15.24 -22.86 180) (length 2.54)
        (name "STATUS" (effects (font (size 1.27 1.27))))
        (number "12" (effects (font (size 1.27 1.27))))
      )
      (pin output line (at 15.24 -25.4 180) (length 2.54)
        (name "NETLIGHT" (effects (font (size 1.27 1.27))))
        (number "13" (effects (font (size 1.27 1.27))))
      )
      (pin input line (at -15.24 12.7 0) (length 2.54)
        (name "DBG_RXD" (effects (font (size 1.27 1.27))))
        (number "14" (effects (font (size 1.27 1.27))))
      )
      (pin output line (at -15.24 10.16 0) (length 2.54)
        (name "DBG_TXD" (effects (font (size 1.27 1.27))))
        (number "15" (effects (font (size 1.27 1.27))))
      )
      (pin no_connect line (at -12.7 -12.7 0) (length 2.54) hide
        (name "RESERVED" (effects (font (size 1.27 1.27))))
        (number "16" (effects (font (size 1.27 1.27))))
      )
      (pin no_connect line (at -12.7 -15.24 0) (length 2.54) hide
        (name "RESERVED" (effects (font (size 1.27 1.27))))
        (number "17" (effects (font (size 1.27 1.27))))
      )
      (pin no_connect line (at -12.7 -17.78 0) (length 2.54) hide
        (name "RESERVED" (effects (font (size 1.27 1.27))))
        (number "18" (effects (font (size 1.27 1.27))))
      )
      (pin power_out line (at 2.54 30.48 270) (length 2.54)
        (name "VDD_EXT" (effects (font (size 1.27 1.27))))
        (number "19" (effects (font (size 1.27 1.27))))
      )
      (pin input line (at 15.24 17.78 180) (length 2.54)
        (name "MIC2P" (effects (font (size 1.27 1.27))))
        (number "2" (effects (font (size 1.27 1.27))))
      )
      (pin input line (at -15.24 5.08 0) (length 2.54)
        (name "DTR" (effects (font (size 1.27 1.27))))
        (number "20" (effects (font (size 1.27 1.27))))
      )
      (pin input line (at -15.24 2.54 0) (length 2.54)
        (name "RXD" (effects (font (size 1.27 1.27))))
        (number "21" (effects (font (size 1.27 1.27))))
      )
      (pin output line (at -15.24 0 0) (length 2.54)
        (name "TXD" (effects (font (size 1.27 1.27))))
        (number "22" (effects (font (size 1.27 1.27))))
      )
      (pin output line (at -15.24 -2.54 0) (length 2.54)
        (name "CTS" (effects (font (size 1.27 1.27))))
        (number "23" (effects (font (size 1.27 1.27))))
      )
      (pin input line (at -15.24 -5.08 0) (length 2.54)
        (name "RTS" (effects (font (size 1.27 1.27))))
        (number "24" (effects (font (size 1.27 1.27))))
      )
      (pin output line (at -15.24 -7.62 0) (length 2.54)
        (name "DCD" (effects (font (size 1.27 1.27))))
        (number "25" (effects (font (size 1.27 1.27))))
      )
      (pin output line (at -15.24 -10.16 0) (length 2.54)
        (name "RI" (effects (font (size 1.27 1.27))))
        (number "26" (effects (font (size 1.27 1.27))))
      )
      (pin power_out line (at 15.24 -7.62 180) (length 2.54)
        (name "SIM_VDD" (effects (font (size 1.27 1.27))))
        (number "27" (effects (font (size 1.27 1.27))))
      )
      (pin output line (at 15.24 -10.16 180) (length 2.54)
        (name "SIM_RST" (effects (font (size 1.27 1.27))))
        (number "28" (effects (font (size 1.27 1.27))))
      )
      (pin bidirectional line (at 15.24 -17.78 180) (length 2.54)
        (name "SIM_DATA" (effects (font (size 1.27 1.27))))
        (number "29" (effects (font (size 1.27 1.27))))
      )
      (pin input line (at 15.24 15.24 180) (length 2.54)
        (name "MIC2N" (effects (font (size 1.27 1.27))))
        (number "3" (effects (font (size 1.27 1.27))))
      )
      (pin output line (at 15.24 -12.7 180) (length 2.54)
        (name "SIM_CLK" (effects (font (size 1.27 1.27))))
        (number "30" (effects (font (size 1.27 1.27))))
      )
      (pin power_out line (at 15.24 -15.24 180) (length 2.54)
        (name "SIM_GND" (effects (font (size 1.27 1.27))))
        (number "31" (effects (font (size 1.27 1.27))))
      )
      (pin power_in line (at 0 30.48 270) (length 2.54)
        (name "VRTC" (effects (font (size 1.27 1.27))))
        (number "32" (effects (font (size 1.27 1.27))))
      )
      (pin power_in line (at -2.54 30.48 270) (length 2.54)
        (name "VBAT" (effects (font (size 1.27 1.27))))
        (number "33" (effects (font (size 1.27 1.27))))
      )
      (pin passive line (at -2.54 30.48 270) (length 2.54) hide
        (name "VBAT" (effects (font (size 1.27 1.27))))
        (number "34" (effects (font (size 1.27 1.27))))
      )
      (pin power_in line (at 0 -30.48 90) (length 2.54)
        (name "GND" (effects (font (size 1.27 1.27))))
        (number "35" (effects (font (size 1.27 1.27))))
      )
      (pin passive line (at 0 -30.48 90) (length 2.54) hide
        (name "GND" (effects (font (size 1.27 1.27))))
        (number "36" (effects (font (size 1.27 1.27))))
      )
      (pin passive line (at 0 -30.48 90) (length 2.54) hide
        (name "GND" (effects (font (size 1.27 1.27))))
        (number "37" (effects (font (size 1.27 1.27))))
      )
      (pin passive line (at 0 -30.48 90) (length 2.54) hide
        (name "GND" (effects (font (size 1.27 1.27))))
        (number "38" (effects (font (size 1.27 1.27))))
      )
      (pin passive line (at -15.24 25.4 0) (length 2.54)
        (name "RF_ANT" (effects (font (size 1.27 1.27))))
        (number "39" (effects (font (size 1.27 1.27))))
      )
      (pin input line (at 15.24 25.4 180) (length 2.54)
        (name "MIC1P" (effects (font (size 1.27 1.27))))
        (number "4" (effects (font (size 1.27 1.27))))
      )
      (pin passive line (at 0 -30.48 90) (length 2.54) hide
        (name "GND" (effects (font (size 1.27 1.27))))
        (number "40" (effects (font (size 1.27 1.27))))
      )
      (pin no_connect line (at -12.7 -20.32 0) (length 2.54) hide
        (name "RESERVED" (effects (font (size 1.27 1.27))))
        (number "41" (effects (font (size 1.27 1.27))))
      )
      (pin no_connect line (at -12.7 -22.86 0) (length 2.54) hide
        (name "RESERVED" (effects (font (size 1.27 1.27))))
        (number "42" (effects (font (size 1.27 1.27))))
      )
      (pin input line (at 15.24 22.86 180) (length 2.54)
        (name "MIC1N" (effects (font (size 1.27 1.27))))
        (number "5" (effects (font (size 1.27 1.27))))
      )
      (pin output line (at 15.24 7.62 180) (length 2.54)
        (name "SPK1N" (effects (font (size 1.27 1.27))))
        (number "6" (effects (font (size 1.27 1.27))))
      )
      (pin output line (at 15.24 10.16 180) (length 2.54)
        (name "SPK1P" (effects (font (size 1.27 1.27))))
        (number "7" (effects (font (size 1.27 1.27))))
      )
      (pin output line (at 15.24 0 180) (length 2.54)
        (name "LOUDSPKN" (effects (font (size 1.27 1.27))))
        (number "8" (effects (font (size 1.27 1.27))))
      )
      (pin output line (at 15.24 2.54 180) (length 2.54)
        (name "LOUDSPKP" (effects (font (size 1.27 1.27))))
        (number "9" (effects (font (size 1.27 1.27))))
      )
    )
  )
  (symbol "RF_GSM:SARA-U201" (in_bom yes) (on_board yes)
    (property "Reference" "U" (id 0) (at 10.16 26.67 0)
      (effects (font (size 1.27 1.27)))
    )
    (property "Value" "SARA-U201" (id 1) (at -11.43 26.67 0)
      (effects (font (size 1.27 1.27)))
    )
    (property "Footprint" "RF_GSM:ublox_SARA-G3_LGA-96" (id 2) (at 17.78 -26.67 0)
      (effects (font (size 1.27 1.27)) hide)
    )
    (property "Datasheet" "https://www.u-blox.com/sites/default/files/SARA-U2_DataSheet_(UBX-13005287).pdf" (id 3) (at 0 0 0)
      (effects (font (size 1.27 1.27)) hide)
    )
    (property "ki_keywords" "GSM HSPA 2G 3G" (id 4) (at 0 0 0)
      (effects (font (size 1.27 1.27)) hide)
    )
    (property "ki_description" "Ublox HSPA GSM Quad-Band Communication Module, AT Command Set, AT Command Set, Worldwide , LGA-96" (id 5) (at 0 0 0)
      (effects (font (size 1.27 1.27)) hide)
    )
    (property "ki_fp_filters" "ublox*SARA*" (id 6) (at 0 0 0)
      (effects (font (size 1.27 1.27)) hide)
    )
    (symbol "SARA-U201_0_1"
      (rectangle (start -12.7 25.4) (end 12.7 -25.4)
        (stroke (width 0.254)) (fill (type background))
      )
    )
    (symbol "SARA-U201_1_1"
      (pin power_in line (at 0 -27.94 90) (length 2.54)
        (name "GND" (effects (font (size 1.27 1.27))))
        (number "1" (effects (font (size 1.27 1.27))))
      )
      (pin input line (at -15.24 12.7 0) (length 2.54)
        (name "RTS" (effects (font (size 1.27 1.27))))
        (number "10" (effects (font (size 1.27 1.27))))
      )
      (pin output line (at -15.24 15.24 0) (length 2.54)
        (name "CTS" (effects (font (size 1.27 1.27))))
        (number "11" (effects (font (size 1.27 1.27))))
      )
      (pin input line (at -15.24 5.08 0) (length 2.54)
        (name "TXD" (effects (font (size 1.27 1.27))))
        (number "12" (effects (font (size 1.27 1.27))))
      )
      (pin output line (at -15.24 7.62 0) (length 2.54)
        (name "RXD" (effects (font (size 1.27 1.27))))
        (number "13" (effects (font (size 1.27 1.27))))
      )
      (pin passive line (at 0 -27.94 90) (length 2.54) hide
        (name "GND" (effects (font (size 1.27 1.27))))
        (number "14" (effects (font (size 1.27 1.27))))
      )
      (pin input line (at -15.24 0 0) (length 2.54)
        (name "PWR_ON" (effects (font (size 1.27 1.27))))
        (number "15" (effects (font (size 1.27 1.27))))
      )
      (pin bidirectional line (at 15.24 0 180) (length 2.54)
        (name "GPIO1" (effects (font (size 1.27 1.27))))
        (number "16" (effects (font (size 1.27 1.27))))
      )
      (pin input line (at -15.24 -10.16 0) (length 2.54)
        (name "VUSB_DET" (effects (font (size 1.27 1.27))))
        (number "17" (effects (font (size 1.27 1.27))))
      )
      (pin input line (at -15.24 -5.08 0) (length 2.54)
        (name "~RESET" (effects (font (size 1.27 1.27))))
        (number "18" (effects (font (size 1.27 1.27))))
      )
      (pin output line (at 15.24 -12.7 180) (length 2.54)
        (name "CODEC_CLK" (effects (font (size 1.27 1.27))))
        (number "19" (effects (font (size 1.27 1.27))))
      )
      (pin power_out line (at 0 27.94 270) (length 2.54)
        (name "V_BCKP" (effects (font (size 1.27 1.27))))
        (number "2" (effects (font (size 1.27 1.27))))
      )
      (pin passive line (at 0 -27.94 90) (length 2.54) hide
        (name "GND" (effects (font (size 1.27 1.27))))
        (number "20" (effects (font (size 1.27 1.27))))
      )
      (pin passive line (at 0 -27.94 90) (length 2.54) hide
        (name "GND" (effects (font (size 1.27 1.27))))
        (number "21" (effects (font (size 1.27 1.27))))
      )
      (pin passive line (at 0 -27.94 90) (length 2.54) hide
        (name "GND" (effects (font (size 1.27 1.27))))
        (number "22" (effects (font (size 1.27 1.27))))
      )
      (pin bidirectional line (at 15.24 -2.54 180) (length 2.54)
        (name "GPIO2" (effects (font (size 1.27 1.27))))
        (number "23" (effects (font (size 1.27 1.27))))
      )
      (pin bidirectional line (at 15.24 -5.08 180) (length 2.54)
        (name "GPIO3" (effects (font (size 1.27 1.27))))
        (number "24" (effects (font (size 1.27 1.27))))
      )
      (pin bidirectional line (at 15.24 -7.62 180) (length 2.54)
        (name "GPIO4" (effects (font (size 1.27 1.27))))
        (number "25" (effects (font (size 1.27 1.27))))
      )
      (pin bidirectional line (at -15.24 -20.32 0) (length 2.54)
        (name "SDA" (effects (font (size 1.27 1.27))))
        (number "26" (effects (font (size 1.27 1.27))))
      )
      (pin output line (at -15.24 -22.86 0) (length 2.54)
        (name "SCL" (effects (font (size 1.27 1.27))))
        (number "27" (effects (font (size 1.27 1.27))))
      )
      (pin bidirectional line (at -15.24 -12.7 0) (length 2.54)
        (name "USB_D-" (effects (font (size 1.27 1.27))))
        (number "28" (effects (font (size 1.27 1.27))))
      )
      (pin bidirectional line (at -15.24 -15.24 0) (length 2.54)
        (name "USB_D+" (effects (font (size 1.27 1.27))))
        (number "29" (effects (font (size 1.27 1.27))))
      )
      (pin passive line (at 0 -27.94 90) (length 2.54) hide
        (name "GND" (effects (font (size 1.27 1.27))))
        (number "3" (effects (font (size 1.27 1.27))))
      )
      (pin passive line (at 0 -27.94 90) (length 2.54) hide
        (name "GND" (effects (font (size 1.27 1.27))))
        (number "30" (effects (font (size 1.27 1.27))))
      )
      (pin no_connect line (at -12.7 2.54 0) (length 2.54) hide
        (name "RSVD" (effects (font (size 1.27 1.27))))
        (number "31" (effects (font (size 1.27 1.27))))
      )
      (pin passive line (at 0 -27.94 90) (length 2.54) hide
        (name "GND" (effects (font (size 1.27 1.27))))
        (number "32" (effects (font (size 1.27 1.27))))
      )
      (pin no_connect line (at -12.7 -2.54 0) (length 2.54) hide
        (name "RSVD" (effects (font (size 1.27 1.27))))
        (number "33" (effects (font (size 1.27 1.27))))
      )
      (pin bidirectional line (at 15.24 -17.78 180) (length 2.54)
        (name "I2S_WA" (effects (font (size 1.27 1.27))))
        (number "34" (effects (font (size 1.27 1.27))))
      )
      (pin output line (at 15.24 -20.32 180) (length 2.54)
        (name "I2S_TXD" (effects (font (size 1.27 1.27))))
        (number "35" (effects (font (size 1.27 1.27))))
      )
      (pin output line (at 15.24 -15.24 180) (length 2.54)
        (name "I2S_CLK" (effects (font (size 1.27 1.27))))
        (number "36" (effects (font (size 1.27 1.27))))
      )
      (pin input line (at 15.24 -22.86 180) (length 2.54)
        (name "I2S_RXD" (effects (font (size 1.27 1.27))))
        (number "37" (effects (font (size 1.27 1.27))))
      )
      (pin output line (at 15.24 15.24 180) (length 2.54)
        (name "SIM_CLK" (effects (font (size 1.27 1.27))))
        (number "38" (effects (font (size 1.27 1.27))))
      )
      (pin bidirectional line (at 15.24 12.7 180) (length 2.54)
        (name "SIM_IO" (effects (font (size 1.27 1.27))))
        (number "39" (effects (font (size 1.27 1.27))))
      )
      (pin power_out line (at 2.54 27.94 270) (length 2.54)
        (name "V_INT" (effects (font (size 1.27 1.27))))
        (number "4" (effects (font (size 1.27 1.27))))
      )
      (pin output line (at 15.24 10.16 180) (length 2.54)
        (name "SIM_RST" (effects (font (size 1.27 1.27))))
        (number "40" (effects (font (size 1.27 1.27))))
      )
      (pin power_out line (at 15.24 7.62 180) (length 2.54)
        (name "VSIM" (effects (font (size 1.27 1.27))))
        (number "41" (effects (font (size 1.27 1.27))))
      )
      (pin input line (at 15.24 5.08 180) (length 2.54)
        (name "SIM_DET" (effects (font (size 1.27 1.27))))
        (number "42" (effects (font (size 1.27 1.27))))
      )
      (pin passive line (at 0 -27.94 90) (length 2.54) hide
        (name "GND" (effects (font (size 1.27 1.27))))
        (number "43" (effects (font (size 1.27 1.27))))
      )
      (pin no_connect line (at -12.7 -7.62 0) (length 2.54) hide
        (name "RSVD" (effects (font (size 1.27 1.27))))
        (number "44" (effects (font (size 1.27 1.27))))
      )
      (pin no_connect line (at -12.7 -17.78 0) (length 2.54) hide
        (name "RSVD" (effects (font (size 1.27 1.27))))
        (number "45" (effects (font (size 1.27 1.27))))
      )
      (pin no_connect line (at -2.54 -25.4 90) (length 2.54) hide
        (name "RSVD" (effects (font (size 1.27 1.27))))
        (number "46" (effects (font (size 1.27 1.27))))
      )
      (pin no_connect line (at 12.7 -10.16 180) (length 2.54) hide
        (name "RSVD" (effects (font (size 1.27 1.27))))
        (number "47" (effects (font (size 1.27 1.27))))
      )
      (pin no_connect line (at 12.7 2.54 180) (length 2.54) hide
        (name "RSVD" (effects (font (size 1.27 1.27))))
        (number "48" (effects (font (size 1.27 1.27))))
      )
      (pin no_connect line (at 12.7 17.78 180) (length 2.54) hide
        (name "RSVD" (effects (font (size 1.27 1.27))))
        (number "49" (effects (font (size 1.27 1.27))))
      )
      (pin passive line (at 0 -27.94 90) (length 2.54) hide
        (name "GND" (effects (font (size 1.27 1.27))))
        (number "5" (effects (font (size 1.27 1.27))))
      )
      (pin passive line (at 0 -27.94 90) (length 2.54) hide
        (name "GND" (effects (font (size 1.27 1.27))))
        (number "50" (effects (font (size 1.27 1.27))))
      )
      (pin power_in line (at -2.54 27.94 270) (length 2.54)
        (name "VCC" (effects (font (size 1.27 1.27))))
        (number "51" (effects (font (size 1.27 1.27))))
      )
      (pin passive line (at -2.54 27.94 270) (length 2.54) hide
        (name "VCC" (effects (font (size 1.27 1.27))))
        (number "52" (effects (font (size 1.27 1.27))))
      )
      (pin passive line (at -2.54 27.94 270) (length 2.54) hide
        (name "VCC" (effects (font (size 1.27 1.27))))
        (number "53" (effects (font (size 1.27 1.27))))
      )
      (pin passive line (at 0 -27.94 90) (length 2.54) hide
        (name "GND" (effects (font (size 1.27 1.27))))
        (number "54" (effects (font (size 1.27 1.27))))
      )
      (pin passive line (at 0 -27.94 90) (length 2.54) hide
        (name "GND" (effects (font (size 1.27 1.27))))
        (number "55" (effects (font (size 1.27 1.27))))
      )
      (pin passive line (at 15.24 22.86 180) (length 2.54)
        (name "ANT" (effects (font (size 1.27 1.27))))
        (number "56" (effects (font (size 1.27 1.27))))
      )
      (pin passive line (at 0 -27.94 90) (length 2.54) hide
        (name "GND" (effects (font (size 1.27 1.27))))
        (number "57" (effects (font (size 1.27 1.27))))
      )
      (pin passive line (at 0 -27.94 90) (length 2.54) hide
        (name "GND" (effects (font (size 1.27 1.27))))
        (number "58" (effects (font (size 1.27 1.27))))
      )
      (pin passive line (at 0 -27.94 90) (length 2.54) hide
        (name "GND" (effects (font (size 1.27 1.27))))
        (number "59" (effects (font (size 1.27 1.27))))
      )
      (pin output line (at -15.24 10.16 0) (length 2.54)
        (name "DSR" (effects (font (size 1.27 1.27))))
        (number "6" (effects (font (size 1.27 1.27))))
      )
      (pin passive line (at 0 -27.94 90) (length 2.54) hide
        (name "GND" (effects (font (size 1.27 1.27))))
        (number "60" (effects (font (size 1.27 1.27))))
      )
      (pin passive line (at 0 -27.94 90) (length 2.54) hide
        (name "GND" (effects (font (size 1.27 1.27))))
        (number "61" (effects (font (size 1.27 1.27))))
      )
      (pin input line (at 15.24 20.32 180) (length 2.54)
        (name "ANT_DET" (effects (font (size 1.27 1.27))))
        (number "62" (effects (font (size 1.27 1.27))))
      )
      (pin passive line (at 0 -27.94 90) (length 2.54) hide
        (name "GND" (effects (font (size 1.27 1.27))))
        (number "63" (effects (font (size 1.27 1.27))))
      )
      (pin passive line (at 0 -27.94 90) (length 2.54) hide
        (name "GND" (effects (font (size 1.27 1.27))))
        (number "64" (effects (font (size 1.27 1.27))))
      )
      (pin passive line (at 0 -27.94 90) (length 2.54) hide
        (name "GND" (effects (font (size 1.27 1.27))))
        (number "65" (effects (font (size 1.27 1.27))))
      )
      (pin passive line (at 0 -27.94 90) (length 2.54) hide
        (name "GND" (effects (font (size 1.27 1.27))))
        (number "66" (effects (font (size 1.27 1.27))))
      )
      (pin passive line (at 0 -27.94 90) (length 2.54) hide
        (name "GND" (effects (font (size 1.27 1.27))))
        (number "67" (effects (font (size 1.27 1.27))))
      )
      (pin passive line (at 0 -27.94 90) (length 2.54) hide
        (name "GND" (effects (font (size 1.27 1.27))))
        (number "68" (effects (font (size 1.27 1.27))))
      )
      (pin passive line (at 0 -27.94 90) (length 2.54) hide
        (name "GND" (effects (font (size 1.27 1.27))))
        (number "69" (effects (font (size 1.27 1.27))))
      )
      (pin output line (at -15.24 20.32 0) (length 2.54)
        (name "RI" (effects (font (size 1.27 1.27))))
        (number "7" (effects (font (size 1.27 1.27))))
      )
      (pin passive line (at 0 -27.94 90) (length 2.54) hide
        (name "GND" (effects (font (size 1.27 1.27))))
        (number "70" (effects (font (size 1.27 1.27))))
      )
      (pin passive line (at 0 -27.94 90) (length 2.54) hide
        (name "GND" (effects (font (size 1.27 1.27))))
        (number "71" (effects (font (size 1.27 1.27))))
      )
      (pin passive line (at 0 -27.94 90) (length 2.54) hide
        (name "GND" (effects (font (size 1.27 1.27))))
        (number "72" (effects (font (size 1.27 1.27))))
      )
      (pin passive line (at 0 -27.94 90) (length 2.54) hide
        (name "GND" (effects (font (size 1.27 1.27))))
        (number "73" (effects (font (size 1.27 1.27))))
      )
      (pin passive line (at 0 -27.94 90) (length 2.54) hide
        (name "GND" (effects (font (size 1.27 1.27))))
        (number "74" (effects (font (size 1.27 1.27))))
      )
      (pin passive line (at 0 -27.94 90) (length 2.54) hide
        (name "GND" (effects (font (size 1.27 1.27))))
        (number "75" (effects (font (size 1.27 1.27))))
      )
      (pin passive line (at 0 -27.94 90) (length 2.54) hide
        (name "GND" (effects (font (size 1.27 1.27))))
        (number "76" (effects (font (size 1.27 1.27))))
      )
      (pin passive line (at 0 -27.94 90) (length 2.54) hide
        (name "GND" (effects (font (size 1.27 1.27))))
        (number "77" (effects (font (size 1.27 1.27))))
      )
      (pin passive line (at 0 -27.94 90) (length 2.54) hide
        (name "GND" (effects (font (size 1.27 1.27))))
        (number "78" (effects (font (size 1.27 1.27))))
      )
      (pin passive line (at 0 -27.94 90) (length 2.54) hide
        (name "GND" (effects (font (size 1.27 1.27))))
        (number "79" (effects (font (size 1.27 1.27))))
      )
      (pin output line (at -15.24 17.78 0) (length 2.54)
        (name "DCD" (effects (font (size 1.27 1.27))))
        (number "8" (effects (font (size 1.27 1.27))))
      )
      (pin passive line (at 0 -27.94 90) (length 2.54) hide
        (name "GND" (effects (font (size 1.27 1.27))))
        (number "80" (effects (font (size 1.27 1.27))))
      )
      (pin passive line (at 0 -27.94 90) (length 2.54) hide
        (name "GND" (effects (font (size 1.27 1.27))))
        (number "81" (effects (font (size 1.27 1.27))))
      )
      (pin passive line (at 0 -27.94 90) (length 2.54) hide
        (name "GND" (effects (font (size 1.27 1.27))))
        (number "82" (effects (font (size 1.27 1.27))))
      )
      (pin passive line (at 0 -27.94 90) (length 2.54) hide
        (name "GND" (effects (font (size 1.27 1.27))))
        (number "83" (effects (font (size 1.27 1.27))))
      )
      (pin passive line (at 0 -27.94 90) (length 2.54) hide
        (name "GND" (effects (font (size 1.27 1.27))))
        (number "84" (effects (font (size 1.27 1.27))))
      )
      (pin passive line (at 0 -27.94 90) (length 2.54) hide
        (name "GND" (effects (font (size 1.27 1.27))))
        (number "85" (effects (font (size 1.27 1.27))))
      )
      (pin passive line (at 0 -27.94 90) (length 2.54) hide
        (name "GND" (effects (font (size 1.27 1.27))))
        (number "86" (effects (font (size 1.27 1.27))))
      )
      (pin passive line (at 0 -27.94 90) (length 2.54) hide
        (name "GND" (effects (font (size 1.27 1.27))))
        (number "87" (effects (font (size 1.27 1.27))))
      )
      (pin passive line (at 0 -27.94 90) (length 2.54) hide
        (name "GND" (effects (font (size 1.27 1.27))))
        (number "88" (effects (font (size 1.27 1.27))))
      )
      (pin passive line (at 0 -27.94 90) (length 2.54) hide
        (name "GND" (effects (font (size 1.27 1.27))))
        (number "89" (effects (font (size 1.27 1.27))))
      )
      (pin input line (at -15.24 22.86 0) (length 2.54)
        (name "DTR" (effects (font (size 1.27 1.27))))
        (number "9" (effects (font (size 1.27 1.27))))
      )
      (pin passive line (at 0 -27.94 90) (length 2.54) hide
        (name "GND" (effects (font (size 1.27 1.27))))
        (number "90" (effects (font (size 1.27 1.27))))
      )
      (pin passive line (at 0 -27.94 90) (length 2.54) hide
        (name "GND" (effects (font (size 1.27 1.27))))
        (number "91" (effects (font (size 1.27 1.27))))
      )
      (pin passive line (at 0 -27.94 90) (length 2.54) hide
        (name "GND" (effects (font (size 1.27 1.27))))
        (number "92" (effects (font (size 1.27 1.27))))
      )
      (pin passive line (at 0 -27.94 90) (length 2.54) hide
        (name "GND" (effects (font (size 1.27 1.27))))
        (number "93" (effects (font (size 1.27 1.27))))
      )
      (pin passive line (at 0 -27.94 90) (length 2.54) hide
        (name "GND" (effects (font (size 1.27 1.27))))
        (number "94" (effects (font (size 1.27 1.27))))
      )
      (pin passive line (at 0 -27.94 90) (length 2.54) hide
        (name "GND" (effects (font (size 1.27 1.27))))
        (number "95" (effects (font (size 1.27 1.27))))
      )
      (pin passive line (at 0 -27.94 90) (length 2.54) hide
        (name "GND" (effects (font (size 1.27 1.27))))
        (number "96" (effects (font (size 1.27 1.27))))
      )
    )
  )
  (symbol "RF_GSM:SARA-U260" (extends "SARA-U201")
    (property "Reference" "U" (id 0) (at 10.16 26.67 0)
      (effects (font (size 1.27 1.27)))
    )
    (property "Value" "SARA-U260" (id 1) (at -11.43 26.67 0)
      (effects (font (size 1.27 1.27)))
    )
    (property "Footprint" "RF_GSM:ublox_SARA-G3_LGA-96" (id 2) (at 17.78 -26.67 0)
      (effects (font (size 1.27 1.27)) hide)
    )
    (property "Datasheet" "https://www.u-blox.com/sites/default/files/SARA-U2_DataSheet_(UBX-13005287).pdf" (id 3) (at 0 0 0)
      (effects (font (size 1.27 1.27)) hide)
    )
    (property "ki_keywords" "GSM HSPA 2G 3G" (id 4) (at 0 0 0)
      (effects (font (size 1.27 1.27)) hide)
    )
    (property "ki_description" "Ublox HSPA GSM Quad-Band Communication Module, AT Command Set, Designed for America, LGA-96" (id 5) (at 0 0 0)
      (effects (font (size 1.27 1.27)) hide)
    )
    (property "ki_fp_filters" "ublox*SARA*" (id 6) (at 0 0 0)
      (effects (font (size 1.27 1.27)) hide)
    )
  )
  (symbol "RF_GSM:SARA-U270" (extends "SARA-U201")
    (property "Reference" "U" (id 0) (at 10.16 26.67 0)
      (effects (font (size 1.27 1.27)))
    )
    (property "Value" "SARA-U270" (id 1) (at -11.43 26.67 0)
      (effects (font (size 1.27 1.27)))
    )
    (property "Footprint" "RF_GSM:ublox_SARA-G3_LGA-96" (id 2) (at 17.78 -26.67 0)
      (effects (font (size 1.27 1.27)) hide)
    )
    (property "Datasheet" "https://www.u-blox.com/sites/default/files/SARA-U2_DataSheet_(UBX-13005287).pdf" (id 3) (at 0 0 0)
      (effects (font (size 1.27 1.27)) hide)
    )
    (property "ki_keywords" "GSM HSPA 2G 3G" (id 4) (at 0 0 0)
      (effects (font (size 1.27 1.27)) hide)
    )
    (property "ki_description" "Ublox HSPA GSM Quad-Band Communication Module, AT Command Set, Designed for Europe, Asia and Others, LGA-96" (id 5) (at 0 0 0)
      (effects (font (size 1.27 1.27)) hide)
    )
    (property "ki_fp_filters" "ublox*SARA*" (id 6) (at 0 0 0)
      (effects (font (size 1.27 1.27)) hide)
    )
  )
  (symbol "RF_GSM:SARA-U280" (extends "SARA-U201")
    (property "Reference" "U" (id 0) (at 10.16 26.67 0)
      (effects (font (size 1.27 1.27)))
    )
    (property "Value" "SARA-U280" (id 1) (at -11.43 26.67 0)
      (effects (font (size 1.27 1.27)))
    )
    (property "Footprint" "RF_GSM:ublox_SARA-G3_LGA-96" (id 2) (at 17.78 -26.67 0)
      (effects (font (size 1.27 1.27)) hide)
    )
    (property "Datasheet" "https://www.u-blox.com/sites/default/files/SARA-U2_DataSheet_(UBX-13005287).pdf" (id 3) (at 0 0 0)
      (effects (font (size 1.27 1.27)) hide)
    )
    (property "ki_keywords" "GSM HSPA 2G 3G" (id 4) (at 0 0 0)
      (effects (font (size 1.27 1.27)) hide)
    )
    (property "ki_description" "Ublox HSPA GSM Quad-Band Communication Module, AT Command Set, Designed for America, LGA-96" (id 5) (at 0 0 0)
      (effects (font (size 1.27 1.27)) hide)
    )
    (property "ki_fp_filters" "ublox*SARA*" (id 6) (at 0 0 0)
      (effects (font (size 1.27 1.27)) hide)
    )
  )
  (symbol "RF_GSM:SIM7020E" (in_bom yes) (on_board yes)
    (property "Reference" "U" (id 0) (at -15.24 26.67 0)
      (effects (font (size 1.27 1.27)))
    )
    (property "Value" "SIM7020E" (id 1) (at 12.7 26.67 0)
      (effects (font (size 1.27 1.27)))
    )
    (property "Footprint" "RF_GSM:SIMCom_SIM800C" (id 2) (at 13.97 -26.67 0)
      (effects (font (size 1.27 1.27)) hide)
    )
    (property "Datasheet" "https://simcom.ee/documents/SIM7020/SIM7020%20Hardware%20Design_V1.02.pdf" (id 3) (at -118.11 -59.69 0)
      (effects (font (size 1.27 1.27)) hide)
    )
    (property "ki_keywords" "NB-IoT Data SMS" (id 4) (at 0 0 0)
      (effects (font (size 1.27 1.27)) hide)
    )
    (property "ki_description" "NB-IoT B1/B3/B5/B8/B20/B28, AT Command Set" (id 5) (at 0 0 0)
      (effects (font (size 1.27 1.27)) hide)
    )
    (property "ki_fp_filters" "SIMCom*SIM800C*" (id 6) (at 0 0 0)
      (effects (font (size 1.27 1.27)) hide)
    )
    (symbol "SIM7020E_0_1"
      (rectangle (start -17.78 25.4) (end 17.78 -25.4)
        (stroke (width 0.254)) (fill (type background))
      )
    )
    (symbol "SIM7020E_1_1"
      (pin output line (at -20.32 10.16 0) (length 2.54)
        (name "UART1_TXD" (effects (font (size 1.27 1.27))))
        (number "1" (effects (font (size 1.27 1.27))))
      )
      (pin bidirectional line (at -20.32 -17.78 0) (length 2.54)
        (name "GPIO0" (effects (font (size 1.27 1.27))))
        (number "10" (effects (font (size 1.27 1.27))))
      )
      (pin output line (at 20.32 -20.32 180) (length 2.54)
        (name "RTC_GPIO0" (effects (font (size 1.27 1.27))))
        (number "11" (effects (font (size 1.27 1.27))))
      )
      (pin input line (at 20.32 -22.86 180) (length 2.54)
        (name "RTC_EINT" (effects (font (size 1.27 1.27))))
        (number "12" (effects (font (size 1.27 1.27))))
      )
      (pin passive line (at 0 -27.94 90) (length 2.54) hide
        (name "GND" (effects (font (size 1.27 1.27))))
        (number "13" (effects (font (size 1.27 1.27))))
      )
      (pin input line (at 20.32 2.54 180) (length 2.54)
        (name "SIM_DET" (effects (font (size 1.27 1.27))))
        (number "14" (effects (font (size 1.27 1.27))))
      )
      (pin bidirectional line (at 20.32 10.16 180) (length 2.54)
        (name "SIM_DATA" (effects (font (size 1.27 1.27))))
        (number "15" (effects (font (size 1.27 1.27))))
      )
      (pin output line (at 20.32 7.62 180) (length 2.54)
        (name "SIM_CLK" (effects (font (size 1.27 1.27))))
        (number "16" (effects (font (size 1.27 1.27))))
      )
      (pin output line (at 20.32 5.08 180) (length 2.54)
        (name "SIM_RST" (effects (font (size 1.27 1.27))))
        (number "17" (effects (font (size 1.27 1.27))))
      )
      (pin power_out line (at 20.32 12.7 180) (length 2.54)
        (name "SIM_VDD" (effects (font (size 1.27 1.27))))
        (number "18" (effects (font (size 1.27 1.27))))
      )
      (pin passive line (at 0 -27.94 90) (length 2.54) hide
        (name "GND" (effects (font (size 1.27 1.27))))
        (number "19" (effects (font (size 1.27 1.27))))
      )
      (pin input line (at -20.32 7.62 0) (length 2.54)
        (name "UART1_RXD" (effects (font (size 1.27 1.27))))
        (number "2" (effects (font (size 1.27 1.27))))
      )
      (pin no_connect line (at 17.78 17.78 180) (length 2.54) hide
        (name "NC" (effects (font (size 1.27 1.27))))
        (number "20" (effects (font (size 1.27 1.27))))
      )
      (pin passive line (at 0 -27.94 90) (length 2.54) hide
        (name "GND" (effects (font (size 1.27 1.27))))
        (number "21" (effects (font (size 1.27 1.27))))
      )
      (pin output line (at -20.32 2.54 0) (length 2.54)
        (name "UART2_TXD" (effects (font (size 1.27 1.27))))
        (number "22" (effects (font (size 1.27 1.27))))
      )
      (pin input line (at -20.32 0 0) (length 2.54)
        (name "UART2_RXD" (effects (font (size 1.27 1.27))))
        (number "23" (effects (font (size 1.27 1.27))))
      )
      (pin input line (at 20.32 -2.54 180) (length 2.54)
        (name "USB_VBUS" (effects (font (size 1.27 1.27))))
        (number "24" (effects (font (size 1.27 1.27))))
      )
      (pin bidirectional line (at 20.32 -5.08 180) (length 2.54)
        (name "USB_DP" (effects (font (size 1.27 1.27))))
        (number "25" (effects (font (size 1.27 1.27))))
      )
      (pin bidirectional line (at 20.32 -7.62 180) (length 2.54)
        (name "USB_DM" (effects (font (size 1.27 1.27))))
        (number "26" (effects (font (size 1.27 1.27))))
      )
      (pin passive line (at 0 -27.94 90) (length 2.54) hide
        (name "GND" (effects (font (size 1.27 1.27))))
        (number "27" (effects (font (size 1.27 1.27))))
      )
      (pin input line (at -20.32 -7.62 0) (length 2.54)
        (name "~RESET" (effects (font (size 1.27 1.27))))
        (number "28" (effects (font (size 1.27 1.27))))
      )
      (pin bidirectional line (at -20.32 -20.32 0) (length 2.54)
        (name "GPIO1" (effects (font (size 1.27 1.27))))
        (number "29" (effects (font (size 1.27 1.27))))
      )
      (pin input line (at -20.32 12.7 0) (length 2.54)
        (name "UART1_RTS" (effects (font (size 1.27 1.27))))
        (number "3" (effects (font (size 1.27 1.27))))
      )
      (pin passive line (at 0 -27.94 90) (length 2.54) hide
        (name "GND" (effects (font (size 1.27 1.27))))
        (number "30" (effects (font (size 1.27 1.27))))
      )
      (pin passive line (at 0 -27.94 90) (length 2.54) hide
        (name "GND" (effects (font (size 1.27 1.27))))
        (number "31" (effects (font (size 1.27 1.27))))
      )
      (pin passive line (at 20.32 22.86 180) (length 2.54)
        (name "ANT" (effects (font (size 1.27 1.27))))
        (number "32" (effects (font (size 1.27 1.27))))
      )
      (pin passive line (at 0 -27.94 90) (length 2.54) hide
        (name "GND" (effects (font (size 1.27 1.27))))
        (number "33" (effects (font (size 1.27 1.27))))
      )
      (pin power_in line (at 5.08 27.94 270) (length 2.54)
        (name "VBAT" (effects (font (size 1.27 1.27))))
        (number "34" (effects (font (size 1.27 1.27))))
      )
      (pin passive line (at 5.08 27.94 270) (length 2.54) hide
        (name "VBAT" (effects (font (size 1.27 1.27))))
        (number "35" (effects (font (size 1.27 1.27))))
      )
      (pin passive line (at 0 -27.94 90) (length 2.54) hide
        (name "GND" (effects (font (size 1.27 1.27))))
        (number "36" (effects (font (size 1.27 1.27))))
      )
      (pin passive line (at 0 -27.94 90) (length 2.54) hide
        (name "GND" (effects (font (size 1.27 1.27))))
        (number "37" (effects (font (size 1.27 1.27))))
      )
      (pin input line (at -20.32 -12.7 0) (length 2.54)
        (name "ADC" (effects (font (size 1.27 1.27))))
        (number "38" (effects (font (size 1.27 1.27))))
      )
      (pin input line (at -20.32 -5.08 0) (length 2.54)
        (name "~PWRKEY" (effects (font (size 1.27 1.27))))
        (number "39" (effects (font (size 1.27 1.27))))
      )
      (pin output line (at -20.32 15.24 0) (length 2.54)
        (name "UART1_CTS" (effects (font (size 1.27 1.27))))
        (number "4" (effects (font (size 1.27 1.27))))
      )
      (pin power_out line (at -5.08 27.94 270) (length 2.54)
        (name "VDD_EXT" (effects (font (size 1.27 1.27))))
        (number "40" (effects (font (size 1.27 1.27))))
      )
      (pin output line (at 20.32 -15.24 180) (length 2.54)
        (name "NETLIGHT" (effects (font (size 1.27 1.27))))
        (number "41" (effects (font (size 1.27 1.27))))
      )
      (pin output line (at 20.32 -12.7 180) (length 2.54)
        (name "STATUS" (effects (font (size 1.27 1.27))))
        (number "42" (effects (font (size 1.27 1.27))))
      )
      (pin output line (at -20.32 17.78 0) (length 2.54)
        (name "UART1_DCD" (effects (font (size 1.27 1.27))))
        (number "5" (effects (font (size 1.27 1.27))))
      )
      (pin input line (at -20.32 22.86 0) (length 2.54)
        (name "UART1_DTR" (effects (font (size 1.27 1.27))))
        (number "6" (effects (font (size 1.27 1.27))))
      )
      (pin output line (at -20.32 20.32 0) (length 2.54)
        (name "UART1_RI" (effects (font (size 1.27 1.27))))
        (number "7" (effects (font (size 1.27 1.27))))
      )
      (pin power_in line (at 0 -27.94 90) (length 2.54)
        (name "GND" (effects (font (size 1.27 1.27))))
        (number "8" (effects (font (size 1.27 1.27))))
      )
      (pin power_out line (at 0 27.94 270) (length 2.54)
        (name "VDD_3V3" (effects (font (size 1.27 1.27))))
        (number "9" (effects (font (size 1.27 1.27))))
      )
    )
  )
  (symbol "RF_GSM:SIM7020C" (extends "SIM7020E")
    (property "Reference" "U" (id 0) (at -15.24 26.67 0)
      (effects (font (size 1.27 1.27)))
    )
    (property "Value" "SIM7020C" (id 1) (at 12.7 26.67 0)
      (effects (font (size 1.27 1.27)))
    )
    (property "Footprint" "RF_GSM:SIMCom_SIM800C" (id 2) (at 13.97 -26.67 0)
      (effects (font (size 1.27 1.27)) hide)
    )
    (property "Datasheet" "https://simcom.ee/documents/SIM7020/SIM7020%20Hardware%20Design_V1.02.pdf" (id 3) (at -118.11 -59.69 0)
      (effects (font (size 1.27 1.27)) hide)
    )
    (property "ki_keywords" "NB-IoT Data SMS" (id 4) (at 0 0 0)
      (effects (font (size 1.27 1.27)) hide)
    )
    (property "ki_description" "NB-IoT B1/B3/B5/B8, AT Command Set" (id 5) (at 0 0 0)
      (effects (font (size 1.27 1.27)) hide)
    )
    (property "ki_fp_filters" "SIMCom*SIM800C*" (id 6) (at 0 0 0)
      (effects (font (size 1.27 1.27)) hide)
    )
  )
  (symbol "RF_GSM:SIM800C" (in_bom yes) (on_board yes)
    (property "Reference" "U" (id 0) (at -15.24 26.67 0)
      (effects (font (size 1.27 1.27)))
    )
    (property "Value" "SIM800C" (id 1) (at 12.7 26.67 0)
      (effects (font (size 1.27 1.27)))
    )
    (property "Footprint" "RF_GSM:SIMCom_SIM800C" (id 2) (at 13.97 -26.67 0)
      (effects (font (size 1.27 1.27)) hide)
    )
    (property "Datasheet" "http://simcom.ee/documents/SIM800C/SIM800C_Hardware_Design_V1.05.pdf" (id 3) (at -118.11 -59.69 0)
      (effects (font (size 1.27 1.27)) hide)
    )
    (property "ki_keywords" "GSM GPRS Quad-Band SMS" (id 4) (at 0 0 0)
      (effects (font (size 1.27 1.27)) hide)
    )
    (property "ki_description" "GSM Quad-Band Communication Module, GPRS, Audio Engine, AT Command Set, Bluetooth is Optional" (id 5) (at 0 0 0)
      (effects (font (size 1.27 1.27)) hide)
    )
    (property "ki_fp_filters" "SIMCom*SIM800C*" (id 6) (at 0 0 0)
      (effects (font (size 1.27 1.27)) hide)
    )
    (symbol "SIM800C_0_1"
      (rectangle (start -17.78 25.4) (end 17.78 -25.4)
        (stroke (width 0.254)) (fill (type background))
      )
    )
    (symbol "SIM800C_1_1"
      (pin output line (at -20.32 10.16 0) (length 2.54)
        (name "UART1_TXD" (effects (font (size 1.27 1.27))))
        (number "1" (effects (font (size 1.27 1.27))))
      )
      (pin input line (at -20.32 -22.86 0) (length 2.54)
        (name "MICN" (effects (font (size 1.27 1.27))))
        (number "10" (effects (font (size 1.27 1.27))))
      )
      (pin output line (at 20.32 -20.32 180) (length 2.54)
        (name "SPKP" (effects (font (size 1.27 1.27))))
        (number "11" (effects (font (size 1.27 1.27))))
      )
      (pin output line (at 20.32 -22.86 180) (length 2.54)
        (name "SPKN" (effects (font (size 1.27 1.27))))
        (number "12" (effects (font (size 1.27 1.27))))
      )
      (pin passive line (at 0 -27.94 90) (length 2.54) hide
        (name "GND" (effects (font (size 1.27 1.27))))
        (number "13" (effects (font (size 1.27 1.27))))
      )
      (pin input line (at 20.32 2.54 180) (length 2.54)
        (name "SIM_DET" (effects (font (size 1.27 1.27))))
        (number "14" (effects (font (size 1.27 1.27))))
      )
      (pin bidirectional line (at 20.32 10.16 180) (length 2.54)
        (name "SIM_DATA" (effects (font (size 1.27 1.27))))
        (number "15" (effects (font (size 1.27 1.27))))
      )
      (pin output line (at 20.32 7.62 180) (length 2.54)
        (name "SIM_CLK" (effects (font (size 1.27 1.27))))
        (number "16" (effects (font (size 1.27 1.27))))
      )
      (pin output line (at 20.32 5.08 180) (length 2.54)
        (name "SIM_RST" (effects (font (size 1.27 1.27))))
        (number "17" (effects (font (size 1.27 1.27))))
      )
      (pin power_out line (at 20.32 12.7 180) (length 2.54)
        (name "SIM_VDD" (effects (font (size 1.27 1.27))))
        (number "18" (effects (font (size 1.27 1.27))))
      )
      (pin passive line (at 0 -27.94 90) (length 2.54) hide
        (name "GND" (effects (font (size 1.27 1.27))))
        (number "19" (effects (font (size 1.27 1.27))))
      )
      (pin input line (at -20.32 7.62 0) (length 2.54)
        (name "UART1_RXD" (effects (font (size 1.27 1.27))))
        (number "2" (effects (font (size 1.27 1.27))))
      )
      (pin passive line (at 20.32 20.32 180) (length 2.54)
        (name "BT_ANT" (effects (font (size 1.27 1.27))))
        (number "20" (effects (font (size 1.27 1.27))))
      )
      (pin passive line (at 0 -27.94 90) (length 2.54) hide
        (name "GND" (effects (font (size 1.27 1.27))))
        (number "21" (effects (font (size 1.27 1.27))))
      )
      (pin output line (at -20.32 2.54 0) (length 2.54)
        (name "UART2_TXD" (effects (font (size 1.27 1.27))))
        (number "22" (effects (font (size 1.27 1.27))))
      )
      (pin input line (at -20.32 0 0) (length 2.54)
        (name "UART2_RXD" (effects (font (size 1.27 1.27))))
        (number "23" (effects (font (size 1.27 1.27))))
      )
      (pin input line (at 20.32 -2.54 180) (length 2.54)
        (name "USB_VBUS" (effects (font (size 1.27 1.27))))
        (number "24" (effects (font (size 1.27 1.27))))
      )
      (pin bidirectional line (at 20.32 -5.08 180) (length 2.54)
        (name "USB_DP" (effects (font (size 1.27 1.27))))
        (number "25" (effects (font (size 1.27 1.27))))
      )
      (pin bidirectional line (at 20.32 -7.62 180) (length 2.54)
        (name "USB_DM" (effects (font (size 1.27 1.27))))
        (number "26" (effects (font (size 1.27 1.27))))
      )
      (pin passive line (at 0 -27.94 90) (length 2.54) hide
        (name "GND" (effects (font (size 1.27 1.27))))
        (number "27" (effects (font (size 1.27 1.27))))
      )
      (pin power_in line (at 0 27.94 270) (length 2.54)
        (name "VRTC" (effects (font (size 1.27 1.27))))
        (number "28" (effects (font (size 1.27 1.27))))
      )
      (pin output line (at 20.32 17.78 180) (length 2.54)
        (name "RF_SYNC" (effects (font (size 1.27 1.27))))
        (number "29" (effects (font (size 1.27 1.27))))
      )
      (pin input line (at -20.32 12.7 0) (length 2.54)
        (name "UART1_RTS" (effects (font (size 1.27 1.27))))
        (number "3" (effects (font (size 1.27 1.27))))
      )
      (pin passive line (at 0 -27.94 90) (length 2.54) hide
        (name "GND" (effects (font (size 1.27 1.27))))
        (number "30" (effects (font (size 1.27 1.27))))
      )
      (pin passive line (at 0 -27.94 90) (length 2.54) hide
        (name "GND" (effects (font (size 1.27 1.27))))
        (number "31" (effects (font (size 1.27 1.27))))
      )
      (pin passive line (at 20.32 22.86 180) (length 2.54)
        (name "GSM_ANT" (effects (font (size 1.27 1.27))))
        (number "32" (effects (font (size 1.27 1.27))))
      )
      (pin passive line (at 0 -27.94 90) (length 2.54) hide
        (name "GND" (effects (font (size 1.27 1.27))))
        (number "33" (effects (font (size 1.27 1.27))))
      )
      (pin power_in line (at 5.08 27.94 270) (length 2.54)
        (name "VBAT" (effects (font (size 1.27 1.27))))
        (number "34" (effects (font (size 1.27 1.27))))
      )
      (pin passive line (at 5.08 27.94 270) (length 2.54) hide
        (name "VBAT" (effects (font (size 1.27 1.27))))
        (number "35" (effects (font (size 1.27 1.27))))
      )
      (pin passive line (at 0 -27.94 90) (length 2.54) hide
        (name "GND" (effects (font (size 1.27 1.27))))
        (number "36" (effects (font (size 1.27 1.27))))
      )
      (pin passive line (at 0 -27.94 90) (length 2.54) hide
        (name "GND" (effects (font (size 1.27 1.27))))
        (number "37" (effects (font (size 1.27 1.27))))
      )
      (pin input line (at -20.32 -10.16 0) (length 2.54)
        (name "ADC" (effects (font (size 1.27 1.27))))
        (number "38" (effects (font (size 1.27 1.27))))
      )
      (pin input line (at -20.32 -5.08 0) (length 2.54)
        (name "~PWRKEY" (effects (font (size 1.27 1.27))))
        (number "39" (effects (font (size 1.27 1.27))))
      )
      (pin output line (at -20.32 15.24 0) (length 2.54)
        (name "UART1_CTS" (effects (font (size 1.27 1.27))))
        (number "4" (effects (font (size 1.27 1.27))))
      )
      (pin power_out line (at -5.08 27.94 270) (length 2.54)
        (name "VDD_EXT" (effects (font (size 1.27 1.27))))
        (number "40" (effects (font (size 1.27 1.27))))
      )
      (pin output line (at 20.32 -15.24 180) (length 2.54)
        (name "NETLIGHT" (effects (font (size 1.27 1.27))))
        (number "41" (effects (font (size 1.27 1.27))))
      )
      (pin output line (at 20.32 -12.7 180) (length 2.54)
        (name "STATUS" (effects (font (size 1.27 1.27))))
        (number "42" (effects (font (size 1.27 1.27))))
      )
      (pin output line (at -20.32 17.78 0) (length 2.54)
        (name "UART1_DCD" (effects (font (size 1.27 1.27))))
        (number "5" (effects (font (size 1.27 1.27))))
      )
      (pin input line (at -20.32 22.86 0) (length 2.54)
        (name "UART1_DTR" (effects (font (size 1.27 1.27))))
        (number "6" (effects (font (size 1.27 1.27))))
      )
      (pin output line (at -20.32 20.32 0) (length 2.54)
        (name "UART1_RI" (effects (font (size 1.27 1.27))))
        (number "7" (effects (font (size 1.27 1.27))))
      )
      (pin power_in line (at 0 -27.94 90) (length 2.54)
        (name "GND" (effects (font (size 1.27 1.27))))
        (number "8" (effects (font (size 1.27 1.27))))
      )
      (pin input line (at -20.32 -20.32 0) (length 2.54)
        (name "MICP" (effects (font (size 1.27 1.27))))
        (number "9" (effects (font (size 1.27 1.27))))
      )
    )
  )
  (symbol "RF_GSM:SIM900" (in_bom yes) (on_board yes)
    (property "Reference" "U" (id 0) (at -15.24 39.37 0)
      (effects (font (size 1.27 1.27)) (justify left))
    )
    (property "Value" "SIM900" (id 1) (at 8.89 39.37 0)
      (effects (font (size 1.27 1.27)) (justify left))
    )
    (property "Footprint" "RF_GSM:SIMCom_SIM900" (id 2) (at 12.7 -39.37 0)
      (effects (font (size 1.27 1.27)) hide)
    )
    (property "Datasheet" "http://simcom.ee/documents/SIM900/SIM900_Hardware%20Design_V2.05.pdf" (id 3) (at -50.8 33.02 0)
      (effects (font (size 1.27 1.27)) hide)
    )
    (property "ki_keywords" "GSM GPRS Quad-Band SMS FAX" (id 4) (at 0 0 0)
      (effects (font (size 1.27 1.27)) hide)
    )
    (property "ki_description" "GSM Quad-Band Communication Module, GPRS, Audio Engine, AT Command Set" (id 5) (at 0 0 0)
      (effects (font (size 1.27 1.27)) hide)
    )
    (property "ki_fp_filters" "SIMCom*SIM900*" (id 6) (at 0 0 0)
      (effects (font (size 1.27 1.27)) hide)
    )
    (symbol "SIM900_0_1"
      (rectangle (start -15.24 38.1) (end 15.24 -38.1)
        (stroke (width 0.254)) (fill (type background))
      )
    )
    (symbol "SIM900_1_1"
      (pin input line (at -17.78 10.16 0) (length 2.54)
        (name "PWRKEY" (effects (font (size 1.27 1.27))))
        (number "1" (effects (font (size 1.27 1.27))))
      )
      (pin input line (at -17.78 15.24 0) (length 2.54)
        (name "RXD" (effects (font (size 1.27 1.27))))
        (number "10" (effects (font (size 1.27 1.27))))
      )
      (pin output line (at -17.78 5.08 0) (length 2.54)
        (name "DISP_CLK" (effects (font (size 1.27 1.27))))
        (number "11" (effects (font (size 1.27 1.27))))
      )
      (pin bidirectional line (at -17.78 2.54 0) (length 2.54)
        (name "DISP_DATA" (effects (font (size 1.27 1.27))))
        (number "12" (effects (font (size 1.27 1.27))))
      )
      (pin output line (at -17.78 0 0) (length 2.54)
        (name "DISP_D/C" (effects (font (size 1.27 1.27))))
        (number "13" (effects (font (size 1.27 1.27))))
      )
      (pin output line (at -17.78 -2.54 0) (length 2.54)
        (name "DISP_CS" (effects (font (size 1.27 1.27))))
        (number "14" (effects (font (size 1.27 1.27))))
      )
      (pin power_out line (at -5.08 40.64 270) (length 2.54)
        (name "VDD_EXT" (effects (font (size 1.27 1.27))))
        (number "15" (effects (font (size 1.27 1.27))))
      )
      (pin input line (at -17.78 35.56 0) (length 2.54)
        (name "~RESET~" (effects (font (size 1.27 1.27))))
        (number "16" (effects (font (size 1.27 1.27))))
      )
      (pin power_in line (at 0 -40.64 90) (length 2.54)
        (name "GND" (effects (font (size 1.27 1.27))))
        (number "17" (effects (font (size 1.27 1.27))))
      )
      (pin passive line (at 0 -40.64 90) (length 2.54) hide
        (name "GND" (effects (font (size 1.27 1.27))))
        (number "18" (effects (font (size 1.27 1.27))))
      )
      (pin input line (at -17.78 -30.48 0) (length 2.54)
        (name "MIC_P" (effects (font (size 1.27 1.27))))
        (number "19" (effects (font (size 1.27 1.27))))
      )
      (pin no_connect line (at 15.24 33.02 180) (length 2.54) hide
        (name "NC" (effects (font (size 1.27 1.27))))
        (number "2" (effects (font (size 1.27 1.27))))
      )
      (pin input line (at -17.78 -33.02 0) (length 2.54)
        (name "MIC_N" (effects (font (size 1.27 1.27))))
        (number "20" (effects (font (size 1.27 1.27))))
      )
      (pin output line (at 17.78 -30.48 180) (length 2.54)
        (name "SPK_P" (effects (font (size 1.27 1.27))))
        (number "21" (effects (font (size 1.27 1.27))))
      )
      (pin output line (at 17.78 -33.02 180) (length 2.54)
        (name "SPK_N" (effects (font (size 1.27 1.27))))
        (number "22" (effects (font (size 1.27 1.27))))
      )
      (pin no_connect line (at 15.24 -15.24 180) (length 2.54) hide
        (name "NC" (effects (font (size 1.27 1.27))))
        (number "23" (effects (font (size 1.27 1.27))))
      )
      (pin no_connect line (at 15.24 -27.94 180) (length 2.54) hide
        (name "NC" (effects (font (size 1.27 1.27))))
        (number "24" (effects (font (size 1.27 1.27))))
      )
      (pin input line (at 17.78 -17.78 180) (length 2.54)
        (name "ADC" (effects (font (size 1.27 1.27))))
        (number "25" (effects (font (size 1.27 1.27))))
      )
      (pin power_in line (at 0 40.64 270) (length 2.54)
        (name "VRTC" (effects (font (size 1.27 1.27))))
        (number "26" (effects (font (size 1.27 1.27))))
      )
      (pin output line (at -17.78 -15.24 0) (length 2.54)
        (name "DBG_TXD" (effects (font (size 1.27 1.27))))
        (number "27" (effects (font (size 1.27 1.27))))
      )
      (pin input line (at -17.78 -17.78 0) (length 2.54)
        (name "DBG_RXD" (effects (font (size 1.27 1.27))))
        (number "28" (effects (font (size 1.27 1.27))))
      )
      (pin passive line (at 0 -40.64 90) (length 2.54) hide
        (name "GND" (effects (font (size 1.27 1.27))))
        (number "29" (effects (font (size 1.27 1.27))))
      )
      (pin input line (at -17.78 30.48 0) (length 2.54)
        (name "DTR" (effects (font (size 1.27 1.27))))
        (number "3" (effects (font (size 1.27 1.27))))
      )
      (pin power_out line (at 17.78 30.48 180) (length 2.54)
        (name "SIM_VDD" (effects (font (size 1.27 1.27))))
        (number "30" (effects (font (size 1.27 1.27))))
      )
      (pin bidirectional line (at 17.78 27.94 180) (length 2.54)
        (name "SIM_DATA" (effects (font (size 1.27 1.27))))
        (number "31" (effects (font (size 1.27 1.27))))
      )
      (pin output line (at 17.78 25.4 180) (length 2.54)
        (name "SIM_CLK" (effects (font (size 1.27 1.27))))
        (number "32" (effects (font (size 1.27 1.27))))
      )
      (pin output line (at 17.78 22.86 180) (length 2.54)
        (name "SIM_RST" (effects (font (size 1.27 1.27))))
        (number "33" (effects (font (size 1.27 1.27))))
      )
      (pin input line (at 17.78 20.32 180) (length 2.54)
        (name "SIM_PRESENCE" (effects (font (size 1.27 1.27))))
        (number "34" (effects (font (size 1.27 1.27))))
      )
      (pin output line (at 17.78 -22.86 180) (length 2.54)
        (name "PWM1" (effects (font (size 1.27 1.27))))
        (number "35" (effects (font (size 1.27 1.27))))
      )
      (pin output line (at 17.78 -25.4 180) (length 2.54)
        (name "PWM2" (effects (font (size 1.27 1.27))))
        (number "36" (effects (font (size 1.27 1.27))))
      )
      (pin bidirectional line (at -17.78 -22.86 0) (length 2.54)
        (name "SDA" (effects (font (size 1.27 1.27))))
        (number "37" (effects (font (size 1.27 1.27))))
      )
      (pin output line (at -17.78 -25.4 0) (length 2.54)
        (name "SCL" (effects (font (size 1.27 1.27))))
        (number "38" (effects (font (size 1.27 1.27))))
      )
      (pin passive line (at 0 -40.64 90) (length 2.54) hide
        (name "GND" (effects (font (size 1.27 1.27))))
        (number "39" (effects (font (size 1.27 1.27))))
      )
      (pin output line (at -17.78 27.94 0) (length 2.54)
        (name "RI" (effects (font (size 1.27 1.27))))
        (number "4" (effects (font (size 1.27 1.27))))
      )
      (pin bidirectional line (at 17.78 15.24 180) (length 2.54)
        (name "GPIO1/KBR4" (effects (font (size 1.27 1.27))))
        (number "40" (effects (font (size 1.27 1.27))))
      )
      (pin bidirectional line (at 17.78 12.7 180) (length 2.54)
        (name "GPIO2/KBR3" (effects (font (size 1.27 1.27))))
        (number "41" (effects (font (size 1.27 1.27))))
      )
      (pin bidirectional line (at 17.78 10.16 180) (length 2.54)
        (name "GPIO3/KBR2" (effects (font (size 1.27 1.27))))
        (number "42" (effects (font (size 1.27 1.27))))
      )
      (pin bidirectional line (at 17.78 7.62 180) (length 2.54)
        (name "GPIO4/KBR1" (effects (font (size 1.27 1.27))))
        (number "43" (effects (font (size 1.27 1.27))))
      )
      (pin bidirectional line (at 17.78 5.08 180) (length 2.54)
        (name "GPIO5/KBR0" (effects (font (size 1.27 1.27))))
        (number "44" (effects (font (size 1.27 1.27))))
      )
      (pin passive line (at 0 -40.64 90) (length 2.54) hide
        (name "GND" (effects (font (size 1.27 1.27))))
        (number "45" (effects (font (size 1.27 1.27))))
      )
      (pin passive line (at 0 -40.64 90) (length 2.54) hide
        (name "GND" (effects (font (size 1.27 1.27))))
        (number "46" (effects (font (size 1.27 1.27))))
      )
      (pin bidirectional line (at 17.78 2.54 180) (length 2.54)
        (name "GPIO6/KBC4" (effects (font (size 1.27 1.27))))
        (number "47" (effects (font (size 1.27 1.27))))
      )
      (pin bidirectional line (at 17.78 0 180) (length 2.54)
        (name "GPIO7/KBC3" (effects (font (size 1.27 1.27))))
        (number "48" (effects (font (size 1.27 1.27))))
      )
      (pin bidirectional line (at 17.78 -2.54 180) (length 2.54)
        (name "GPIO8/KBC2" (effects (font (size 1.27 1.27))))
        (number "49" (effects (font (size 1.27 1.27))))
      )
      (pin output line (at -17.78 25.4 0) (length 2.54)
        (name "DCD" (effects (font (size 1.27 1.27))))
        (number "5" (effects (font (size 1.27 1.27))))
      )
      (pin bidirectional line (at 17.78 -5.08 180) (length 2.54)
        (name "GPIO9/KBC1" (effects (font (size 1.27 1.27))))
        (number "50" (effects (font (size 1.27 1.27))))
      )
      (pin bidirectional line (at 17.78 -7.62 180) (length 2.54)
        (name "GPIO10" (effects (font (size 1.27 1.27))))
        (number "51" (effects (font (size 1.27 1.27))))
      )
      (pin output line (at -17.78 -7.62 0) (length 2.54)
        (name "NETLIGHT" (effects (font (size 1.27 1.27))))
        (number "52" (effects (font (size 1.27 1.27))))
      )
      (pin passive line (at 0 -40.64 90) (length 2.54) hide
        (name "GND" (effects (font (size 1.27 1.27))))
        (number "53" (effects (font (size 1.27 1.27))))
      )
      (pin passive line (at 0 -40.64 90) (length 2.54) hide
        (name "GND" (effects (font (size 1.27 1.27))))
        (number "54" (effects (font (size 1.27 1.27))))
      )
      (pin power_in line (at 5.08 40.64 270) (length 2.54)
        (name "VBAT" (effects (font (size 1.27 1.27))))
        (number "55" (effects (font (size 1.27 1.27))))
      )
      (pin passive line (at 5.08 40.64 270) (length 2.54) hide
        (name "VBAT" (effects (font (size 1.27 1.27))))
        (number "56" (effects (font (size 1.27 1.27))))
      )
      (pin passive line (at 5.08 40.64 270) (length 2.54) hide
        (name "VBAT" (effects (font (size 1.27 1.27))))
        (number "57" (effects (font (size 1.27 1.27))))
      )
      (pin passive line (at 0 -40.64 90) (length 2.54) hide
        (name "GND" (effects (font (size 1.27 1.27))))
        (number "58" (effects (font (size 1.27 1.27))))
      )
      (pin passive line (at 0 -40.64 90) (length 2.54) hide
        (name "GND" (effects (font (size 1.27 1.27))))
        (number "59" (effects (font (size 1.27 1.27))))
      )
      (pin no_connect line (at 15.24 17.78 180) (length 2.54) hide
        (name "NC" (effects (font (size 1.27 1.27))))
        (number "6" (effects (font (size 1.27 1.27))))
      )
      (pin passive line (at 17.78 35.56 180) (length 2.54)
        (name "RF_ANT" (effects (font (size 1.27 1.27))))
        (number "60" (effects (font (size 1.27 1.27))))
      )
      (pin passive line (at 0 -40.64 90) (length 2.54) hide
        (name "GND" (effects (font (size 1.27 1.27))))
        (number "61" (effects (font (size 1.27 1.27))))
      )
      (pin passive line (at 0 -40.64 90) (length 2.54) hide
        (name "GND" (effects (font (size 1.27 1.27))))
        (number "62" (effects (font (size 1.27 1.27))))
      )
      (pin passive line (at 0 -40.64 90) (length 2.54) hide
        (name "GND" (effects (font (size 1.27 1.27))))
        (number "63" (effects (font (size 1.27 1.27))))
      )
      (pin passive line (at 0 -40.64 90) (length 2.54) hide
        (name "GND" (effects (font (size 1.27 1.27))))
        (number "64" (effects (font (size 1.27 1.27))))
      )
      (pin passive line (at 0 -40.64 90) (length 2.54) hide
        (name "GND" (effects (font (size 1.27 1.27))))
        (number "65" (effects (font (size 1.27 1.27))))
      )
      (pin output line (at -17.78 -10.16 0) (length 2.54)
        (name "STATUS" (effects (font (size 1.27 1.27))))
        (number "66" (effects (font (size 1.27 1.27))))
      )
      (pin bidirectional line (at 17.78 -10.16 180) (length 2.54)
        (name "GPIO11" (effects (font (size 1.27 1.27))))
        (number "67" (effects (font (size 1.27 1.27))))
      )
      (pin bidirectional line (at 17.78 -12.7 180) (length 2.54)
        (name "GPIO12" (effects (font (size 1.27 1.27))))
        (number "68" (effects (font (size 1.27 1.27))))
      )
      (pin output line (at -17.78 22.86 0) (length 2.54)
        (name "CTS" (effects (font (size 1.27 1.27))))
        (number "7" (effects (font (size 1.27 1.27))))
      )
      (pin input line (at -17.78 20.32 0) (length 2.54)
        (name "RTS" (effects (font (size 1.27 1.27))))
        (number "8" (effects (font (size 1.27 1.27))))
      )
      (pin output line (at -17.78 17.78 0) (length 2.54)
        (name "TXD" (effects (font (size 1.27 1.27))))
        (number "9" (effects (font (size 1.27 1.27))))
      )
    )
  )
  (symbol "RF_GSM:UL865" (in_bom yes) (on_board yes)
    (property "Reference" "U" (id 0) (at -19.05 43.18 0)
      (effects (font (size 1.27 1.27)) (justify left))
    )
    (property "Value" "UL865" (id 1) (at 12.7 43.18 0)
      (effects (font (size 1.27 1.27)) (justify left))
    )
    (property "Footprint" "RF_GSM:Telit_xL865" (id 2) (at 13.97 -53.34 0)
      (effects (font (size 1.27 1.27)) hide)
    )
    (property "Datasheet" "http://www.telit.com/fileadmin/user_upload/products/Downloads/3G/Telit_UL865_Hardware_User_Guide_r8.pdf" (id 3) (at 0 -12.7 0)
      (effects (font (size 1.27 1.27)) hide)
    )
    (property "ki_keywords" "gsm 3g gprs umts hspa" (id 4) (at 0 0 0)
      (effects (font (size 1.27 1.27)) hide)
    )
    (property "ki_description" "Telit 3G Module (GSM/GPRS/UMTS/HSPA), 3.8V, Digital voice and SMS, I2S, USB 2.0, UART, SPI. Manufacturer package" (id 5) (at 0 0 0)
      (effects (font (size 1.27 1.27)) hide)
    )
    (property "ki_fp_filters" "*Telit*xL865*" (id 6) (at 0 0 0)
      (effects (font (size 1.27 1.27)) hide)
    )
    (symbol "UL865_0_1"
      (rectangle (start -19.05 41.91) (end 19.05 -52.07)
        (stroke (width 0.254)) (fill (type background))
      )
    )
    (symbol "UL865_1_1"
      (pin output line (at -22.86 -22.86 0) (length 3.81)
        (name "C109/DCD/GPO" (effects (font (size 1.27 1.27))))
        (number "1" (effects (font (size 1.27 1.27))))
      )
      (pin output line (at -22.86 20.32 0) (length 3.81)
        (name "SIMRST" (effects (font (size 1.27 1.27))))
        (number "10" (effects (font (size 1.27 1.27))))
      )
      (pin output line (at -22.86 17.78 0) (length 3.81)
        (name "SIMCLK" (effects (font (size 1.27 1.27))))
        (number "11" (effects (font (size 1.27 1.27))))
      )
      (pin bidirectional line (at -22.86 15.24 0) (length 3.81)
        (name "SIMIO" (effects (font (size 1.27 1.27))))
        (number "12" (effects (font (size 1.27 1.27))))
      )
      (pin input line (at -22.86 -45.72 0) (length 3.81)
        (name "ADC_IN1" (effects (font (size 1.27 1.27))))
        (number "13" (effects (font (size 1.27 1.27))))
      )
      (pin input line (at -22.86 -48.26 0) (length 3.81)
        (name "ADC_IN2" (effects (font (size 1.27 1.27))))
        (number "14" (effects (font (size 1.27 1.27))))
      )
      (pin output line (at 22.86 -48.26 180) (length 3.81)
        (name "DAC_OUT1" (effects (font (size 1.27 1.27))))
        (number "15" (effects (font (size 1.27 1.27))))
      )
      (pin input line (at -22.86 33.02 0) (length 3.81)
        (name "VUSB" (effects (font (size 1.27 1.27))))
        (number "16" (effects (font (size 1.27 1.27))))
      )
      (pin bidirectional line (at -22.86 30.48 0) (length 3.81)
        (name "USB_D-" (effects (font (size 1.27 1.27))))
        (number "17" (effects (font (size 1.27 1.27))))
      )
      (pin bidirectional line (at -22.86 27.94 0) (length 3.81)
        (name "USB_D+" (effects (font (size 1.27 1.27))))
        (number "18" (effects (font (size 1.27 1.27))))
      )
      (pin no_connect line (at 19.05 -17.78 180) (length 3.81) hide
        (name "NC" (effects (font (size 1.27 1.27))))
        (number "19" (effects (font (size 1.27 1.27))))
      )
      (pin output line (at -22.86 -25.4 0) (length 3.81)
        (name "C125/RING/GPO" (effects (font (size 1.27 1.27))))
        (number "2" (effects (font (size 1.27 1.27))))
      )
      (pin no_connect line (at 19.05 -20.32 180) (length 3.81) hide
        (name "NC" (effects (font (size 1.27 1.27))))
        (number "20" (effects (font (size 1.27 1.27))))
      )
      (pin no_connect line (at 19.05 -22.86 180) (length 3.81) hide
        (name "NC" (effects (font (size 1.27 1.27))))
        (number "21" (effects (font (size 1.27 1.27))))
      )
      (pin no_connect line (at 19.05 -25.4 180) (length 3.81) hide
        (name "NC" (effects (font (size 1.27 1.27))))
        (number "22" (effects (font (size 1.27 1.27))))
      )
      (pin power_in line (at -2.54 -55.88 90) (length 3.81)
        (name "AGND" (effects (font (size 1.27 1.27))))
        (number "23" (effects (font (size 1.27 1.27))))
      )
      (pin no_connect line (at 19.05 -30.48 180) (length 3.81) hide
        (name "NC" (effects (font (size 1.27 1.27))))
        (number "24" (effects (font (size 1.27 1.27))))
      )
      (pin bidirectional line (at -22.86 -12.7 0) (length 3.81)
        (name "SPI_CLK" (effects (font (size 1.27 1.27))))
        (number "25" (effects (font (size 1.27 1.27))))
      )
      (pin bidirectional line (at -22.86 -7.62 0) (length 3.81)
        (name "GPIO8/STAT_LED" (effects (font (size 1.27 1.27))))
        (number "26" (effects (font (size 1.27 1.27))))
      )
      (pin bidirectional line (at -22.86 -5.08 0) (length 3.81)
        (name "GPIO7/SPI_MRDY" (effects (font (size 1.27 1.27))))
        (number "27" (effects (font (size 1.27 1.27))))
      )
      (pin bidirectional line (at -22.86 -2.54 0) (length 3.81)
        (name "GPIO6/SPI_SRDY" (effects (font (size 1.27 1.27))))
        (number "28" (effects (font (size 1.27 1.27))))
      )
      (pin bidirectional line (at -22.86 0 0) (length 3.81)
        (name "GPIO5" (effects (font (size 1.27 1.27))))
        (number "29" (effects (font (size 1.27 1.27))))
      )
      (pin output line (at -22.86 -27.94 0) (length 3.81)
        (name "C107/DSR/GPO" (effects (font (size 1.27 1.27))))
        (number "3" (effects (font (size 1.27 1.27))))
      )
      (pin power_out line (at 22.86 25.4 180) (length 3.81)
        (name "VRTC" (effects (font (size 1.27 1.27))))
        (number "30" (effects (font (size 1.27 1.27))))
      )
      (pin no_connect line (at 19.05 -33.02 180) (length 3.81) hide
        (name "NC" (effects (font (size 1.27 1.27))))
        (number "31" (effects (font (size 1.27 1.27))))
      )
      (pin power_in line (at 2.54 -55.88 90) (length 3.81)
        (name "GND" (effects (font (size 1.27 1.27))))
        (number "32" (effects (font (size 1.27 1.27))))
      )
      (pin passive line (at 2.54 -55.88 90) (length 3.81) hide
        (name "GND" (effects (font (size 1.27 1.27))))
        (number "33" (effects (font (size 1.27 1.27))))
      )
      (pin bidirectional line (at 22.86 -12.7 180) (length 3.81)
        (name "ANTENNA" (effects (font (size 1.27 1.27))))
        (number "34" (effects (font (size 1.27 1.27))))
      )
      (pin passive line (at 2.54 -55.88 90) (length 3.81) hide
        (name "GND" (effects (font (size 1.27 1.27))))
        (number "35" (effects (font (size 1.27 1.27))))
      )
      (pin passive line (at 2.54 -55.88 90) (length 3.81) hide
        (name "GND" (effects (font (size 1.27 1.27))))
        (number "36" (effects (font (size 1.27 1.27))))
      )
      (pin power_in line (at 2.54 45.72 270) (length 3.81)
        (name "VBATT_PA" (effects (font (size 1.27 1.27))))
        (number "37" (effects (font (size 1.27 1.27))))
      )
      (pin power_in line (at -2.54 45.72 270) (length 3.81)
        (name "VBATT" (effects (font (size 1.27 1.27))))
        (number "38" (effects (font (size 1.27 1.27))))
      )
      (pin bidirectional line (at -22.86 2.54 0) (length 3.81)
        (name "GPIO4/DVI_CLK" (effects (font (size 1.27 1.27))))
        (number "39" (effects (font (size 1.27 1.27))))
      )
      (pin input line (at -22.86 -30.48 0) (length 3.81)
        (name "C108/DTR/GPI" (effects (font (size 1.27 1.27))))
        (number "4" (effects (font (size 1.27 1.27))))
      )
      (pin bidirectional line (at -22.86 5.08 0) (length 3.81)
        (name "GPIO3/DVI_TX" (effects (font (size 1.27 1.27))))
        (number "40" (effects (font (size 1.27 1.27))))
      )
      (pin bidirectional line (at -22.86 7.62 0) (length 3.81)
        (name "GPIO2/JDR/DVI_RX" (effects (font (size 1.27 1.27))))
        (number "41" (effects (font (size 1.27 1.27))))
      )
      (pin bidirectional line (at -22.86 10.16 0) (length 3.81)
        (name "GPIO1/DVI_WA0" (effects (font (size 1.27 1.27))))
        (number "42" (effects (font (size 1.27 1.27))))
      )
      (pin power_out line (at 22.86 22.86 180) (length 3.81)
        (name "V_AUX/PWRMON" (effects (font (size 1.27 1.27))))
        (number "43" (effects (font (size 1.27 1.27))))
      )
      (pin bidirectional line (at -22.86 -15.24 0) (length 3.81)
        (name "RXD_AUX/SPI_MISO" (effects (font (size 1.27 1.27))))
        (number "44" (effects (font (size 1.27 1.27))))
      )
      (pin bidirectional line (at -22.86 -17.78 0) (length 3.81)
        (name "TXD_AUX/SPI_MOSI" (effects (font (size 1.27 1.27))))
        (number "45" (effects (font (size 1.27 1.27))))
      )
      (pin passive line (at 2.54 -55.88 90) (length 3.81) hide
        (name "GND" (effects (font (size 1.27 1.27))))
        (number "46" (effects (font (size 1.27 1.27))))
      )
      (pin input line (at -22.86 38.1 0) (length 3.81)
        (name "~RESET" (effects (font (size 1.27 1.27))))
        (number "47" (effects (font (size 1.27 1.27))))
      )
      (pin no_connect line (at 19.05 -35.56 180) (length 3.81) hide
        (name "NC" (effects (font (size 1.27 1.27))))
        (number "48" (effects (font (size 1.27 1.27))))
      )
      (pin input line (at -22.86 -33.02 0) (length 3.81)
        (name "C105/RTS/GPI" (effects (font (size 1.27 1.27))))
        (number "5" (effects (font (size 1.27 1.27))))
      )
      (pin output line (at -22.86 -35.56 0) (length 3.81)
        (name "C106/CTS/GPO" (effects (font (size 1.27 1.27))))
        (number "6" (effects (font (size 1.27 1.27))))
      )
      (pin input line (at -22.86 -38.1 0) (length 3.81)
        (name "C103/TXD" (effects (font (size 1.27 1.27))))
        (number "7" (effects (font (size 1.27 1.27))))
      )
      (pin output line (at -22.86 -40.64 0) (length 3.81)
        (name "C104/RXD" (effects (font (size 1.27 1.27))))
        (number "8" (effects (font (size 1.27 1.27))))
      )
      (pin power_out line (at -22.86 22.86 0) (length 3.81)
        (name "SIMVCC" (effects (font (size 1.27 1.27))))
        (number "9" (effects (font (size 1.27 1.27))))
      )
    )
  )
)
