(kicad_symbol_lib (version 20201005) (generator kicad_symbol_editor)
  (symbol "RF_ZigBee:CC2520" (pin_names (offset 1.016)) (in_bom yes) (on_board yes)
    (property "Reference" "U" (id 0) (at 0 1.27 0)
      (effects (font (size 1.27 1.27)))
    )
    (property "Value" "CC2520" (id 1) (at 0 -1.27 0)
      (effects (font (size 1.27 1.27)))
    )
    (property "Footprint" "Package_DFN_QFN:QFN-28-1EP_5x5mm_P0.5mm_EP3.35x3.35mm" (id 2) (at 0 -3.81 0)
      (effects (font (size 1.27 1.27)) hide)
    )
    (property "Datasheet" "http://www.ti.com/lit/gpn/cc2520" (id 3) (at 0 -6.35 0)
      (effects (font (size 1.27 1.27)) hide)
    )
    (property "ki_keywords" "2.4GHz rf transceiver ZigBee 802.15.4" (id 4) (at 0 0 0)
      (effects (font (size 1.27 1.27)) hide)
    )
    (property "ki_description" "2.4 GHz ZigBee/IEEE 802.15.4 RF transceiver" (id 5) (at 0 0 0)
      (effects (font (size 1.27 1.27)) hide)
    )
    (property "ki_fp_filters" "*QFN*28*5x5mm*P0.5mm*" (id 6) (at 0 0 0)
      (effects (font (size 1.27 1.27)) hide)
    )
    (symbol "CC2520_0_1"
      (rectangle (start -17.78 22.86) (end 17.78 -22.86)
        (stroke (width 0.254)) (fill (type background))
      )
    )
    (symbol "CC2520_1_1"
      (pin output line (at -20.32 5.08 0) (length 2.54)
        (name "SO" (effects (font (size 1.27 1.27))))
        (number "1" (effects (font (size 1.27 1.27))))
      )
      (pin bidirectional line (at -20.32 0 0) (length 2.54)
        (name "GPIO0" (effects (font (size 1.27 1.27))))
        (number "10" (effects (font (size 1.27 1.27))))
      )
      (pin power_in line (at 10.16 25.4 270) (length 2.54)
        (name "AVDD5" (effects (font (size 1.27 1.27))))
        (number "11" (effects (font (size 1.27 1.27))))
      )
      (pin passive line (at -20.32 -20.32 0) (length 2.54)
        (name "XOSC_Q2" (effects (font (size 1.27 1.27))))
        (number "12" (effects (font (size 1.27 1.27))))
      )
      (pin passive line (at -20.32 -17.78 0) (length 2.54)
        (name "XOSC_Q1" (effects (font (size 1.27 1.27))))
        (number "13" (effects (font (size 1.27 1.27))))
      )
      (pin power_in line (at 5.08 25.4 270) (length 2.54)
        (name "AVDD3" (effects (font (size 1.27 1.27))))
        (number "14" (effects (font (size 1.27 1.27))))
      )
      (pin no_connect line (at 2.54 -22.86 90) (length 2.54) hide
        (name "NC" (effects (font (size 1.27 1.27))))
        (number "15" (effects (font (size 1.27 1.27))))
      )
      (pin power_in line (at 2.54 25.4 270) (length 2.54)
        (name "AVDD2" (effects (font (size 1.27 1.27))))
        (number "16" (effects (font (size 1.27 1.27))))
      )
      (pin passive line (at 20.32 0 180) (length 2.54)
        (name "RF_P" (effects (font (size 1.27 1.27))))
        (number "17" (effects (font (size 1.27 1.27))))
      )
      (pin passive line (at 20.32 -2.54 180) (length 2.54)
        (name "RF_N" (effects (font (size 1.27 1.27))))
        (number "19" (effects (font (size 1.27 1.27))))
      )
      (pin input line (at -20.32 7.62 0) (length 2.54)
        (name "SI" (effects (font (size 1.27 1.27))))
        (number "2" (effects (font (size 1.27 1.27))))
      )
      (pin power_in line (at 0 25.4 270) (length 2.54)
        (name "AVDD1" (effects (font (size 1.27 1.27))))
        (number "20" (effects (font (size 1.27 1.27))))
      )
      (pin no_connect line (at 5.08 -22.86 90) (length 2.54) hide
        (name "NC" (effects (font (size 1.27 1.27))))
        (number "21" (effects (font (size 1.27 1.27))))
      )
      (pin power_in line (at 7.62 25.4 270) (length 2.54)
        (name "AVDD4" (effects (font (size 1.27 1.27))))
        (number "22" (effects (font (size 1.27 1.27))))
      )
      (pin passive line (at 20.32 -20.32 180) (length 2.54)
        (name "RBIAS" (effects (font (size 1.27 1.27))))
        (number "23" (effects (font (size 1.27 1.27))))
      )
      (pin power_in line (at 12.7 25.4 270) (length 2.54)
        (name "AVDD_GUARD" (effects (font (size 1.27 1.27))))
        (number "24" (effects (font (size 1.27 1.27))))
      )
      (pin input line (at -20.32 20.32 0) (length 2.54)
        (name "~RESET" (effects (font (size 1.27 1.27))))
        (number "25" (effects (font (size 1.27 1.27))))
      )
      (pin input line (at -20.32 17.78 0) (length 2.54)
        (name "VREG_EN" (effects (font (size 1.27 1.27))))
        (number "26" (effects (font (size 1.27 1.27))))
      )
      (pin passive line (at 20.32 -15.24 180) (length 2.54)
        (name "DCOUPL" (effects (font (size 1.27 1.27))))
        (number "27" (effects (font (size 1.27 1.27))))
      )
      (pin input line (at -20.32 10.16 0) (length 2.54)
        (name "SCLK" (effects (font (size 1.27 1.27))))
        (number "28" (effects (font (size 1.27 1.27))))
      )
      (pin power_in line (at 0 -25.4 90) (length 2.54)
        (name "AGND" (effects (font (size 1.27 1.27))))
        (number "29" (effects (font (size 1.27 1.27))))
      )
      (pin input line (at -20.32 12.7 0) (length 2.54)
        (name "~CS" (effects (font (size 1.27 1.27))))
        (number "3" (effects (font (size 1.27 1.27))))
      )
      (pin bidirectional line (at -20.32 -12.7 0) (length 2.54)
        (name "GPIO5" (effects (font (size 1.27 1.27))))
        (number "4" (effects (font (size 1.27 1.27))))
      )
      (pin bidirectional line (at -20.32 -10.16 0) (length 2.54)
        (name "GPIO4" (effects (font (size 1.27 1.27))))
        (number "5" (effects (font (size 1.27 1.27))))
      )
      (pin bidirectional line (at -20.32 -7.62 0) (length 2.54)
        (name "GPIO3" (effects (font (size 1.27 1.27))))
        (number "6" (effects (font (size 1.27 1.27))))
      )
      (pin bidirectional line (at -20.32 -5.08 0) (length 2.54)
        (name "GPIO2" (effects (font (size 1.27 1.27))))
        (number "7" (effects (font (size 1.27 1.27))))
      )
      (pin power_in line (at -5.08 25.4 270) (length 2.54)
        (name "DVDD" (effects (font (size 1.27 1.27))))
        (number "8" (effects (font (size 1.27 1.27))))
      )
      (pin bidirectional line (at -20.32 -2.54 0) (length 2.54)
        (name "GPIO1" (effects (font (size 1.27 1.27))))
        (number "9" (effects (font (size 1.27 1.27))))
      )
    )
  )
  (symbol "RF_ZigBee:MC13192" (pin_names (offset 1.016)) (in_bom yes) (on_board yes)
    (property "Reference" "U" (id 0) (at -19.05 26.67 0)
      (effects (font (size 1.27 1.27)))
    )
    (property "Value" "MC13192" (id 1) (at 13.97 -29.21 0)
      (effects (font (size 1.27 1.27)))
    )
    (property "Footprint" "" (id 2) (at -10.16 -12.7 0)
      (effects (font (size 1.27 1.27)) hide)
    )
    (property "Datasheet" "https://www.nxp.com/products/no-longer-manufactured/2.4-ghz-low-power-transceiver-for-802.15.4:MC13192" (id 3) (at -10.16 -12.7 0)
      (effects (font (size 1.27 1.27)) hide)
    )
    (property "ki_keywords" "ZIGBEE" (id 4) (at 0 0 0)
      (effects (font (size 1.27 1.27)) hide)
    )
    (property "ki_description" "2.4 GHz, Low Power Transceiver for 802.15.4 (Zigbee controller)" (id 5) (at 0 0 0)
      (effects (font (size 1.27 1.27)) hide)
    )
    (symbol "MC13192_0_1"
      (rectangle (start -20.32 25.4) (end 17.78 -27.94)
        (stroke (width 0.254)) (fill (type background))
      )
    )
    (symbol "MC13192_1_1"
      (pin input line (at 25.4 20.32 180) (length 7.62)
        (name "RFIN-" (effects (font (size 1.27 1.27))))
        (number "1" (effects (font (size 1.27 1.27))))
      )
      (pin bidirectional line (at -27.94 17.78 0) (length 7.62)
        (name "GPIO2" (effects (font (size 1.27 1.27))))
        (number "10" (effects (font (size 1.27 1.27))))
      )
      (pin bidirectional line (at -27.94 20.32 0) (length 7.62)
        (name "GPIO1" (effects (font (size 1.27 1.27))))
        (number "11" (effects (font (size 1.27 1.27))))
      )
      (pin input line (at -27.94 -20.32 0) (length 7.62)
        (name "RSTBi" (effects (font (size 1.27 1.27))))
        (number "12" (effects (font (size 1.27 1.27))))
      )
      (pin input line (at -27.94 -17.78 0) (length 7.62)
        (name "RXTXENi" (effects (font (size 1.27 1.27))))
        (number "13" (effects (font (size 1.27 1.27))))
      )
      (pin input line (at -27.94 -15.24 0) (length 7.62)
        (name "ATTNBi" (effects (font (size 1.27 1.27))))
        (number "14" (effects (font (size 1.27 1.27))))
      )
      (pin output line (at -27.94 -25.4 0) (length 7.62)
        (name "CLKOo" (effects (font (size 1.27 1.27))))
        (number "15" (effects (font (size 1.27 1.27))))
      )
      (pin input line (at -27.94 -7.62 0) (length 7.62)
        (name "SPICLKi" (effects (font (size 1.27 1.27))))
        (number "16" (effects (font (size 1.27 1.27))))
      )
      (pin input line (at -27.94 -5.08 0) (length 7.62)
        (name "MOSIi" (effects (font (size 1.27 1.27))))
        (number "17" (effects (font (size 1.27 1.27))))
      )
      (pin tri_state line (at -27.94 -2.54 0) (length 7.62)
        (name "MISOo" (effects (font (size 1.27 1.27))))
        (number "18" (effects (font (size 1.27 1.27))))
      )
      (pin input line (at -27.94 0 0) (length 7.62)
        (name "CEBi" (effects (font (size 1.27 1.27))))
        (number "19" (effects (font (size 1.27 1.27))))
      )
      (pin input line (at 25.4 12.7 180) (length 7.62)
        (name "RFIN+" (effects (font (size 1.27 1.27))))
        (number "2" (effects (font (size 1.27 1.27))))
      )
      (pin open_collector line (at -27.94 -10.16 0) (length 7.62)
        (name "IRQBo" (effects (font (size 1.27 1.27))))
        (number "20" (effects (font (size 1.27 1.27))))
      )
      (pin power_out line (at -10.16 33.02 270) (length 7.62)
        (name "VDDD" (effects (font (size 1.27 1.27))))
        (number "21" (effects (font (size 1.27 1.27))))
      )
      (pin power_in line (at 7.62 33.02 270) (length 7.62)
        (name "VDDIN" (effects (font (size 1.27 1.27))))
        (number "22" (effects (font (size 1.27 1.27))))
      )
      (pin bidirectional line (at -27.94 10.16 0) (length 7.62)
        (name "GPIO5" (effects (font (size 1.27 1.27))))
        (number "23" (effects (font (size 1.27 1.27))))
      )
      (pin bidirectional line (at -27.94 7.62 0) (length 7.62)
        (name "GPIO6" (effects (font (size 1.27 1.27))))
        (number "24" (effects (font (size 1.27 1.27))))
      )
      (pin bidirectional line (at -27.94 5.08 0) (length 7.62)
        (name "GPIO7" (effects (font (size 1.27 1.27))))
        (number "25" (effects (font (size 1.27 1.27))))
      )
      (pin input line (at 25.4 -20.32 180) (length 7.62)
        (name "XTALin" (effects (font (size 1.27 1.27))))
        (number "26" (effects (font (size 1.27 1.27))))
      )
      (pin output line (at 25.4 -25.4 180) (length 7.62)
        (name "XTALout" (effects (font (size 1.27 1.27))))
        (number "27" (effects (font (size 1.27 1.27))))
      )
      (pin power_in line (at -7.62 33.02 270) (length 7.62)
        (name "VDDLO2" (effects (font (size 1.27 1.27))))
        (number "28" (effects (font (size 1.27 1.27))))
      )
      (pin power_in line (at -5.08 33.02 270) (length 7.62)
        (name "VDDLO1" (effects (font (size 1.27 1.27))))
        (number "29" (effects (font (size 1.27 1.27))))
      )
      (pin input line (at 25.4 2.54 180) (length 7.62)
        (name "TINJ_P" (effects (font (size 1.27 1.27))))
        (number "3" (effects (font (size 1.27 1.27))))
      )
      (pin power_out line (at -12.7 33.02 270) (length 7.62)
        (name "VDDVCO" (effects (font (size 1.27 1.27))))
        (number "30" (effects (font (size 1.27 1.27))))
      )
      (pin input line (at 10.16 33.02 270) (length 7.62)
        (name "VBATT" (effects (font (size 1.27 1.27))))
        (number "31" (effects (font (size 1.27 1.27))))
      )
      (pin power_out line (at 0 33.02 270) (length 7.62)
        (name "VDDA" (effects (font (size 1.27 1.27))))
        (number "32" (effects (font (size 1.27 1.27))))
      )
      (pin power_in line (at 0 -35.56 90) (length 7.62)
        (name "GND" (effects (font (size 1.27 1.27))))
        (number "33" (effects (font (size 1.27 1.27))))
      )
      (pin input line (at 25.4 0 180) (length 7.62)
        (name "TINJ_M" (effects (font (size 1.27 1.27))))
        (number "4" (effects (font (size 1.27 1.27))))
      )
      (pin open_collector line (at 25.4 -5.08 180) (length 7.62)
        (name "PAO_P" (effects (font (size 1.27 1.27))))
        (number "5" (effects (font (size 1.27 1.27))))
      )
      (pin open_collector line (at 25.4 -10.16 180) (length 7.62)
        (name "PAO_M" (effects (font (size 1.27 1.27))))
        (number "6" (effects (font (size 1.27 1.27))))
      )
      (pin input line (at 25.4 -15.24 180) (length 7.62)
        (name "SM" (effects (font (size 1.27 1.27))))
        (number "7" (effects (font (size 1.27 1.27))))
      )
      (pin bidirectional line (at -27.94 12.7 0) (length 7.62)
        (name "GPIO4" (effects (font (size 1.27 1.27))))
        (number "8" (effects (font (size 1.27 1.27))))
      )
      (pin bidirectional line (at -27.94 15.24 0) (length 7.62)
        (name "GPIO3" (effects (font (size 1.27 1.27))))
        (number "9" (effects (font (size 1.27 1.27))))
      )
    )
  )
  (symbol "RF_ZigBee:TWE-L-DP-W" (in_bom yes) (on_board yes)
    (property "Reference" "U" (id 0) (at -11.43 21.59 0)
      (effects (font (size 1.27 1.27)))
    )
    (property "Value" "TWE-L-DP-W" (id 1) (at 7.62 21.59 0)
      (effects (font (size 1.27 1.27)))
    )
    (property "Footprint" "Package_DIP:DIP-28_W15.24mm" (id 2) (at 0 -26.67 0)
      (effects (font (size 1.27 1.27)) hide)
    )
    (property "Datasheet" "https://www.mono-wireless.com/jp/products/TWE-Lite-DIP/MW-PDS-TWELITEDIP-JP.pdf" (id 3) (at 19.05 -25.4 0)
      (effects (font (size 1.27 1.27)) hide)
    )
    (property "ki_keywords" "TWELITE" (id 4) (at 0 0 0)
      (effects (font (size 1.27 1.27)) hide)
    )
    (property "ki_description" "NXP JN5164/JN5169 breakout module, DIP" (id 5) (at 0 0 0)
      (effects (font (size 1.27 1.27)) hide)
    )
    (property "ki_fp_filters" "DIP*28*W15.24mm*" (id 6) (at 0 0 0)
      (effects (font (size 1.27 1.27)) hide)
    )
    (symbol "TWE-L-DP-W_1_0"
      (rectangle (start -15.24 -20.32) (end 15.24 20.32)
        (stroke (width 0.254)) (fill (type background))
      )
    )
    (symbol "TWE-L-DP-W_1_1"
      (pin power_in line (at 0 -22.86 90) (length 2.54)
        (name "GND" (effects (font (size 1.27 1.27))))
        (number "1" (effects (font (size 1.27 1.27))))
      )
      (pin bidirectional line (at 17.78 -7.62 180) (length 2.54)
        (name "DIO6/TX" (effects (font (size 1.27 1.27))))
        (number "10" (effects (font (size 1.27 1.27))))
      )
      (pin bidirectional line (at 17.78 0 180) (length 2.54)
        (name "DIO8/PWM4" (effects (font (size 1.27 1.27))))
        (number "11" (effects (font (size 1.27 1.27))))
      )
      (pin bidirectional line (at 17.78 10.16 180) (length 2.54)
        (name "DIO9/DO4" (effects (font (size 1.27 1.27))))
        (number "12" (effects (font (size 1.27 1.27))))
      )
      (pin bidirectional line (at -17.78 17.78 0) (length 2.54)
        (name "DIO10/M1" (effects (font (size 1.27 1.27))))
        (number "13" (effects (font (size 1.27 1.27))))
      )
      (pin passive line (at 0 -22.86 90) (length 2.54) hide
        (name "GND" (effects (font (size 1.27 1.27))))
        (number "14" (effects (font (size 1.27 1.27))))
      )
      (pin bidirectional line (at -17.78 0 0) (length 2.54)
        (name "DIO12/DI1" (effects (font (size 1.27 1.27))))
        (number "15" (effects (font (size 1.27 1.27))))
      )
      (pin bidirectional line (at -17.78 -2.54 0) (length 2.54)
        (name "DIO13/DI2" (effects (font (size 1.27 1.27))))
        (number "16" (effects (font (size 1.27 1.27))))
      )
      (pin bidirectional line (at -17.78 -5.08 0) (length 2.54)
        (name "DIO11/DI3" (effects (font (size 1.27 1.27))))
        (number "17" (effects (font (size 1.27 1.27))))
      )
      (pin bidirectional line (at -17.78 -7.62 0) (length 2.54)
        (name "DIO16/DI4" (effects (font (size 1.27 1.27))))
        (number "18" (effects (font (size 1.27 1.27))))
      )
      (pin bidirectional line (at 17.78 -12.7 180) (length 2.54)
        (name "DIO15/SDA" (effects (font (size 1.27 1.27))))
        (number "19" (effects (font (size 1.27 1.27))))
      )
      (pin bidirectional line (at 17.78 -10.16 180) (length 2.54)
        (name "DIO14/SCL" (effects (font (size 1.27 1.27))))
        (number "2" (effects (font (size 1.27 1.27))))
      )
      (pin bidirectional line (at -17.78 5.08 0) (length 2.54)
        (name "DIO17/BPS" (effects (font (size 1.27 1.27))))
        (number "20" (effects (font (size 1.27 1.27))))
      )
      (pin input line (at -17.78 7.62 0) (length 2.54)
        (name "~RESET" (effects (font (size 1.27 1.27))))
        (number "21" (effects (font (size 1.27 1.27))))
      )
      (pin input line (at -17.78 -10.16 0) (length 2.54)
        (name "ADC1/AI1" (effects (font (size 1.27 1.27))))
        (number "22" (effects (font (size 1.27 1.27))))
      )
      (pin bidirectional line (at -17.78 -12.7 0) (length 2.54)
        (name "DIO0/AI2" (effects (font (size 1.27 1.27))))
        (number "23" (effects (font (size 1.27 1.27))))
      )
      (pin input line (at -17.78 -15.24 0) (length 2.54)
        (name "ADC2/AI3" (effects (font (size 1.27 1.27))))
        (number "24" (effects (font (size 1.27 1.27))))
      )
      (pin bidirectional line (at -17.78 -17.78 0) (length 2.54)
        (name "DIO1/AI4" (effects (font (size 1.27 1.27))))
        (number "25" (effects (font (size 1.27 1.27))))
      )
      (pin bidirectional line (at -17.78 15.24 0) (length 2.54)
        (name "DIO2/M2" (effects (font (size 1.27 1.27))))
        (number "26" (effects (font (size 1.27 1.27))))
      )
      (pin bidirectional line (at -17.78 12.7 0) (length 2.54)
        (name "DIO3/M3" (effects (font (size 1.27 1.27))))
        (number "27" (effects (font (size 1.27 1.27))))
      )
      (pin power_in line (at 0 22.86 270) (length 2.54)
        (name "VCC" (effects (font (size 1.27 1.27))))
        (number "28" (effects (font (size 1.27 1.27))))
      )
      (pin bidirectional line (at 17.78 -5.08 180) (length 2.54)
        (name "DIO7/RX" (effects (font (size 1.27 1.27))))
        (number "3" (effects (font (size 1.27 1.27))))
      )
      (pin bidirectional line (at 17.78 7.62 180) (length 2.54)
        (name "DIO5/PWM1" (effects (font (size 1.27 1.27))))
        (number "4" (effects (font (size 1.27 1.27))))
      )
      (pin bidirectional line (at 17.78 17.78 180) (length 2.54)
        (name "DIO18/DO1" (effects (font (size 1.27 1.27))))
        (number "5" (effects (font (size 1.27 1.27))))
      )
      (pin output line (at 17.78 5.08 180) (length 2.54)
        (name "DO0/PWM2" (effects (font (size 1.27 1.27))))
        (number "6" (effects (font (size 1.27 1.27))))
      )
      (pin bidirectional line (at 17.78 2.54 180) (length 2.54)
        (name "DO1/PWM3" (effects (font (size 1.27 1.27))))
        (number "7" (effects (font (size 1.27 1.27))))
      )
      (pin bidirectional line (at 17.78 15.24 180) (length 2.54)
        (name "DIO19/DO2" (effects (font (size 1.27 1.27))))
        (number "8" (effects (font (size 1.27 1.27))))
      )
      (pin bidirectional line (at 17.78 12.7 180) (length 2.54)
        (name "DIO4/DO3" (effects (font (size 1.27 1.27))))
        (number "9" (effects (font (size 1.27 1.27))))
      )
    )
  )
  (symbol "RF_ZigBee:MW-R-DP-W" (extends "TWE-L-DP-W")
    (property "Reference" "U" (id 0) (at -11.43 21.59 0)
      (effects (font (size 1.27 1.27)))
    )
    (property "Value" "MW-R-DP-W" (id 1) (at 7.62 21.59 0)
      (effects (font (size 1.27 1.27)))
    )
    (property "Footprint" "Package_DIP:DIP-28_W15.24mm" (id 2) (at 0 -26.67 0)
      (effects (font (size 1.27 1.27)) hide)
    )
    (property "Datasheet" "https://www.mono-wireless.com/jp/products/TWE-Lite-DIP/MW-PDS-TWELITEDIP-JP.pdf" (id 3) (at 19.05 -25.4 0)
      (effects (font (size 1.27 1.27)) hide)
    )
    (property "ki_keywords" "TWELITE" (id 4) (at 0 0 0)
      (effects (font (size 1.27 1.27)) hide)
    )
    (property "ki_description" "NXP JN5164/JN5169 breakout module, DIP" (id 5) (at 0 0 0)
      (effects (font (size 1.27 1.27)) hide)
    )
    (property "ki_fp_filters" "DIP*28*W15.24mm*" (id 6) (at 0 0 0)
      (effects (font (size 1.27 1.27)) hide)
    )
  )
  (symbol "RF_ZigBee:TWE-L-WX" (in_bom yes) (on_board yes)
    (property "Reference" "U" (id 0) (at -11.43 21.59 0)
      (effects (font (size 1.27 1.27)))
    )
    (property "Value" "TWE-L-WX" (id 1) (at 7.62 21.59 0)
      (effects (font (size 1.27 1.27)))
    )
    (property "Footprint" "RF_Module:MonoWireless_TWE-L-WX" (id 2) (at 0 -27.94 0)
      (effects (font (size 1.27 1.27)) hide)
    )
    (property "Datasheet" "https://www.mono-wireless.com/jp/products/TWE-LITE/MW-PDS-TWELITE-JP.pdf" (id 3) (at 19.05 -25.4 0)
      (effects (font (size 1.27 1.27)) hide)
    )
    (property "ki_keywords" "TWELITE" (id 4) (at 0 0 0)
      (effects (font (size 1.27 1.27)) hide)
    )
    (property "ki_description" "NXP JN5164/JN5169 breakout module, SMD" (id 5) (at 0 0 0)
      (effects (font (size 1.27 1.27)) hide)
    )
    (property "ki_fp_filters" "MonoWireless?TWE*" (id 6) (at 0 0 0)
      (effects (font (size 1.27 1.27)) hide)
    )
    (symbol "TWE-L-WX_1_0"
      (rectangle (start -15.24 -20.32) (end 15.24 20.32)
        (stroke (width 0.254)) (fill (type background))
      )
    )
    (symbol "TWE-L-WX_1_1"
      (pin output line (at 17.78 5.08 180) (length 2.54)
        (name "DO0/PWM2" (effects (font (size 1.27 1.27))))
        (number "1" (effects (font (size 1.27 1.27))))
      )
      (pin bidirectional line (at 17.78 0 180) (length 2.54)
        (name "DIO8/PWM4" (effects (font (size 1.27 1.27))))
        (number "10" (effects (font (size 1.27 1.27))))
      )
      (pin bidirectional line (at 17.78 10.16 180) (length 2.54)
        (name "DIO9/DO4" (effects (font (size 1.27 1.27))))
        (number "11" (effects (font (size 1.27 1.27))))
      )
      (pin bidirectional line (at -17.78 17.78 0) (length 2.54)
        (name "DIO10/M1" (effects (font (size 1.27 1.27))))
        (number "12" (effects (font (size 1.27 1.27))))
      )
      (pin bidirectional line (at -17.78 0 0) (length 2.54)
        (name "DIO12/DI1" (effects (font (size 1.27 1.27))))
        (number "13" (effects (font (size 1.27 1.27))))
      )
      (pin bidirectional line (at 17.78 -10.16 180) (length 2.54)
        (name "DIO14/SCL" (effects (font (size 1.27 1.27))))
        (number "14" (effects (font (size 1.27 1.27))))
      )
      (pin bidirectional line (at -17.78 -2.54 0) (length 2.54)
        (name "DIO13/DI2" (effects (font (size 1.27 1.27))))
        (number "15" (effects (font (size 1.27 1.27))))
      )
      (pin bidirectional line (at -17.78 -5.08 0) (length 2.54)
        (name "DIO11/DI3" (effects (font (size 1.27 1.27))))
        (number "16" (effects (font (size 1.27 1.27))))
      )
      (pin bidirectional line (at 17.78 -12.7 180) (length 2.54)
        (name "DIO15/SDA" (effects (font (size 1.27 1.27))))
        (number "17" (effects (font (size 1.27 1.27))))
      )
      (pin bidirectional line (at -17.78 -7.62 0) (length 2.54)
        (name "DIO16/DI4" (effects (font (size 1.27 1.27))))
        (number "18" (effects (font (size 1.27 1.27))))
      )
      (pin bidirectional line (at -17.78 5.08 0) (length 2.54)
        (name "DIO17/BPS" (effects (font (size 1.27 1.27))))
        (number "19" (effects (font (size 1.27 1.27))))
      )
      (pin bidirectional line (at 17.78 2.54 180) (length 2.54)
        (name "DO1/PWM3" (effects (font (size 1.27 1.27))))
        (number "2" (effects (font (size 1.27 1.27))))
      )
      (pin power_in line (at 0 -22.86 90) (length 2.54)
        (name "GND" (effects (font (size 1.27 1.27))))
        (number "20" (effects (font (size 1.27 1.27))))
      )
      (pin input line (at -17.78 7.62 0) (length 2.54)
        (name "~RESET" (effects (font (size 1.27 1.27))))
        (number "21" (effects (font (size 1.27 1.27))))
      )
      (pin input line (at -17.78 -15.24 0) (length 2.54)
        (name "ADC2/AI3" (effects (font (size 1.27 1.27))))
        (number "22" (effects (font (size 1.27 1.27))))
      )
      (pin input line (at -17.78 -10.16 0) (length 2.54)
        (name "ADC1/AI1" (effects (font (size 1.27 1.27))))
        (number "23" (effects (font (size 1.27 1.27))))
      )
      (pin bidirectional line (at -17.78 -12.7 0) (length 2.54)
        (name "DIO0/AI2" (effects (font (size 1.27 1.27))))
        (number "24" (effects (font (size 1.27 1.27))))
      )
      (pin bidirectional line (at -17.78 -17.78 0) (length 2.54)
        (name "DIO1/AI4" (effects (font (size 1.27 1.27))))
        (number "25" (effects (font (size 1.27 1.27))))
      )
      (pin bidirectional line (at -17.78 15.24 0) (length 2.54)
        (name "DIO2/M2" (effects (font (size 1.27 1.27))))
        (number "26" (effects (font (size 1.27 1.27))))
      )
      (pin bidirectional line (at -17.78 12.7 0) (length 2.54)
        (name "DIO3/M3" (effects (font (size 1.27 1.27))))
        (number "27" (effects (font (size 1.27 1.27))))
      )
      (pin passive line (at 0 -22.86 90) (length 2.54) hide
        (name "GND" (effects (font (size 1.27 1.27))))
        (number "28" (effects (font (size 1.27 1.27))))
      )
      (pin no_connect line (at 15.24 -17.78 180) (length 2.54) hide
        (name "NC" (effects (font (size 1.27 1.27))))
        (number "29" (effects (font (size 1.27 1.27))))
      )
      (pin bidirectional line (at 17.78 17.78 180) (length 2.54)
        (name "DIO18/DO1" (effects (font (size 1.27 1.27))))
        (number "3" (effects (font (size 1.27 1.27))))
      )
      (pin passive line (at 0 -22.86 90) (length 2.54) hide
        (name "GND" (effects (font (size 1.27 1.27))))
        (number "30" (effects (font (size 1.27 1.27))))
      )
      (pin passive line (at 0 -22.86 90) (length 2.54) hide
        (name "GND" (effects (font (size 1.27 1.27))))
        (number "31" (effects (font (size 1.27 1.27))))
      )
      (pin passive line (at 0 -22.86 90) (length 2.54) hide
        (name "GND" (effects (font (size 1.27 1.27))))
        (number "32" (effects (font (size 1.27 1.27))))
      )
      (pin bidirectional line (at 17.78 15.24 180) (length 2.54)
        (name "DIO19/DO2" (effects (font (size 1.27 1.27))))
        (number "4" (effects (font (size 1.27 1.27))))
      )
      (pin power_in line (at 0 22.86 270) (length 2.54)
        (name "VCC" (effects (font (size 1.27 1.27))))
        (number "5" (effects (font (size 1.27 1.27))))
      )
      (pin bidirectional line (at 17.78 12.7 180) (length 2.54)
        (name "DIO4/DO3" (effects (font (size 1.27 1.27))))
        (number "6" (effects (font (size 1.27 1.27))))
      )
      (pin bidirectional line (at 17.78 7.62 180) (length 2.54)
        (name "DIO5/PWM1" (effects (font (size 1.27 1.27))))
        (number "7" (effects (font (size 1.27 1.27))))
      )
      (pin bidirectional line (at 17.78 -7.62 180) (length 2.54)
        (name "DIO6/TX" (effects (font (size 1.27 1.27))))
        (number "8" (effects (font (size 1.27 1.27))))
      )
      (pin bidirectional line (at 17.78 -5.08 180) (length 2.54)
        (name "DIO7/RX" (effects (font (size 1.27 1.27))))
        (number "9" (effects (font (size 1.27 1.27))))
      )
    )
  )
  (symbol "RF_ZigBee:MW-R-WX" (extends "TWE-L-WX")
    (property "Reference" "U" (id 0) (at -11.43 21.59 0)
      (effects (font (size 1.27 1.27)))
    )
    (property "Value" "MW-R-WX" (id 1) (at 7.62 21.59 0)
      (effects (font (size 1.27 1.27)))
    )
    (property "Footprint" "RF_Module:MonoWireless_TWE-L-WX" (id 2) (at 0 -27.94 0)
      (effects (font (size 1.27 1.27)) hide)
    )
    (property "Datasheet" "https://www.mono-wireless.com/jp/products/TWE-LITE/MW-PDS-TWELITE-JP.pdf" (id 3) (at 19.05 -25.4 0)
      (effects (font (size 1.27 1.27)) hide)
    )
    (property "ki_keywords" "TWELITE" (id 4) (at 0 0 0)
      (effects (font (size 1.27 1.27)) hide)
    )
    (property "ki_description" "NXP JN5164/JN5169 breakout module, SMD" (id 5) (at 0 0 0)
      (effects (font (size 1.27 1.27)) hide)
    )
    (property "ki_fp_filters" "MonoWireless?TWE*" (id 6) (at 0 0 0)
      (effects (font (size 1.27 1.27)) hide)
    )
  )
  (symbol "RF_ZigBee:XBee_SMT" (pin_names (offset 1.016)) (in_bom yes) (on_board yes)
    (property "Reference" "U" (id 0) (at -24.384 26.162 0)
      (effects (font (size 1.27 1.27)))
    )
    (property "Value" "XBee_SMT" (id 1) (at -20.828 24.384 0)
      (effects (font (size 1.27 1.27)))
    )
    (property "Footprint" "RF_Module:Digi_XBee_SMT" (id 2) (at 21.336 -26.924 0)
      (effects (font (size 1.27 1.27)) hide)
    )
    (property "Datasheet" "http://www.digi.com/resources/documentation/digidocs/pdfs/90002126.pdf" (id 3) (at 0 -10.16 0)
      (effects (font (size 1.27 1.27)) hide)
    )
    (property "ki_keywords" "Digi XBee" (id 4) (at 0 0 0)
      (effects (font (size 1.27 1.27)) hide)
    )
    (property "ki_description" "Digi Xbee SMT RF module" (id 5) (at 0 0 0)
      (effects (font (size 1.27 1.27)) hide)
    )
    (property "ki_fp_filters" "Digi*XBee*SMT*" (id 6) (at 0 0 0)
      (effects (font (size 1.27 1.27)) hide)
    )
    (symbol "XBee_SMT_0_1"
      (rectangle (start -25.4 22.86) (end 25.4 -25.4)
        (stroke (width 0.254)) (fill (type background))
      )
    )
    (symbol "XBee_SMT_1_1"
      (pin power_in line (at -5.08 -27.94 90) (length 2.54)
        (name "GND" (effects (font (size 1.27 1.27))))
        (number "1" (effects (font (size 1.27 1.27))))
      )
      (pin bidirectional line (at -27.94 -7.62 0) (length 2.54)
        (name "DIO8/SLEEP_REQUEST" (effects (font (size 1.27 1.27))))
        (number "10" (effects (font (size 1.27 1.27))))
      )
      (pin power_in line (at -2.54 -27.94 90) (length 2.54)
        (name "GND" (effects (font (size 1.27 1.27))))
        (number "11" (effects (font (size 1.27 1.27))))
      )
      (pin output line (at -27.94 -12.7 0) (length 2.54)
        (name "DIO19/SPI_~ATTN" (effects (font (size 1.27 1.27))))
        (number "12" (effects (font (size 1.27 1.27))))
      )
      (pin power_in line (at 0 -27.94 90) (length 2.54)
        (name "GND" (effects (font (size 1.27 1.27))))
        (number "13" (effects (font (size 1.27 1.27))))
      )
      (pin input line (at -27.94 -15.24 0) (length 2.54)
        (name "DIO18/SPI_CLK" (effects (font (size 1.27 1.27))))
        (number "14" (effects (font (size 1.27 1.27))))
      )
      (pin input line (at -27.94 -17.78 0) (length 2.54)
        (name "DIO17/SPI_~SSEL" (effects (font (size 1.27 1.27))))
        (number "15" (effects (font (size 1.27 1.27))))
      )
      (pin input line (at -27.94 -20.32 0) (length 2.54)
        (name "DIO16/SPI_MOSI" (effects (font (size 1.27 1.27))))
        (number "16" (effects (font (size 1.27 1.27))))
      )
      (pin output line (at -27.94 -22.86 0) (length 2.54)
        (name "DIO15/SPI_MISO" (effects (font (size 1.27 1.27))))
        (number "17" (effects (font (size 1.27 1.27))))
      )
      (pin no_connect line (at 25.4 -20.32 180) (length 2.54) hide
        (name "NC" (effects (font (size 1.27 1.27))))
        (number "18" (effects (font (size 1.27 1.27))))
      )
      (pin no_connect line (at 25.4 -17.78 180) (length 2.54) hide
        (name "NC" (effects (font (size 1.27 1.27))))
        (number "19" (effects (font (size 1.27 1.27))))
      )
      (pin power_in line (at 0 25.4 270) (length 2.54)
        (name "VCC" (effects (font (size 1.27 1.27))))
        (number "2" (effects (font (size 1.27 1.27))))
      )
      (pin no_connect line (at 25.4 -15.24 180) (length 2.54) hide
        (name "NC" (effects (font (size 1.27 1.27))))
        (number "20" (effects (font (size 1.27 1.27))))
      )
      (pin no_connect line (at 25.4 -12.7 180) (length 2.54) hide
        (name "NC" (effects (font (size 1.27 1.27))))
        (number "21" (effects (font (size 1.27 1.27))))
      )
      (pin power_in line (at 2.54 -27.94 90) (length 2.54)
        (name "GND" (effects (font (size 1.27 1.27))))
        (number "22" (effects (font (size 1.27 1.27))))
      )
      (pin no_connect line (at 25.4 -10.16 180) (length 2.54) hide
        (name "NC" (effects (font (size 1.27 1.27))))
        (number "23" (effects (font (size 1.27 1.27))))
      )
      (pin bidirectional line (at 27.94 12.7 180) (length 2.54)
        (name "DIO4" (effects (font (size 1.27 1.27))))
        (number "24" (effects (font (size 1.27 1.27))))
      )
      (pin bidirectional line (at -27.94 15.24 0) (length 2.54)
        (name "DIO7/~CTS" (effects (font (size 1.27 1.27))))
        (number "25" (effects (font (size 1.27 1.27))))
      )
      (pin bidirectional line (at 27.94 10.16 180) (length 2.54)
        (name "DIO9/ON/~SLEEP" (effects (font (size 1.27 1.27))))
        (number "26" (effects (font (size 1.27 1.27))))
      )
      (pin input line (at 2.54 25.4 270) (length 2.54)
        (name "VREF" (effects (font (size 1.27 1.27))))
        (number "27" (effects (font (size 1.27 1.27))))
      )
      (pin bidirectional line (at 27.94 7.62 180) (length 2.54)
        (name "DIO5/ASSOCIATE" (effects (font (size 1.27 1.27))))
        (number "28" (effects (font (size 1.27 1.27))))
      )
      (pin bidirectional line (at -27.94 12.7 0) (length 2.54)
        (name "DIO6/~RTS" (effects (font (size 1.27 1.27))))
        (number "29" (effects (font (size 1.27 1.27))))
      )
      (pin bidirectional line (at -27.94 20.32 0) (length 2.54)
        (name "DIO13/UART_TX" (effects (font (size 1.27 1.27))))
        (number "3" (effects (font (size 1.27 1.27))))
      )
      (pin bidirectional line (at -27.94 7.62 0) (length 2.54)
        (name "DIO3/AD3" (effects (font (size 1.27 1.27))))
        (number "30" (effects (font (size 1.27 1.27))))
      )
      (pin bidirectional line (at -27.94 5.08 0) (length 2.54)
        (name "DIO2/AD2" (effects (font (size 1.27 1.27))))
        (number "31" (effects (font (size 1.27 1.27))))
      )
      (pin bidirectional line (at -27.94 2.54 0) (length 2.54)
        (name "DIO1/AD1" (effects (font (size 1.27 1.27))))
        (number "32" (effects (font (size 1.27 1.27))))
      )
      (pin bidirectional line (at -27.94 0 0) (length 2.54)
        (name "DIO0/AD0" (effects (font (size 1.27 1.27))))
        (number "33" (effects (font (size 1.27 1.27))))
      )
      (pin no_connect line (at 25.4 -7.62 180) (length 2.54) hide
        (name "NC" (effects (font (size 1.27 1.27))))
        (number "34" (effects (font (size 1.27 1.27))))
      )
      (pin power_in line (at 5.08 -27.94 90) (length 2.54)
        (name "GND" (effects (font (size 1.27 1.27))))
        (number "35" (effects (font (size 1.27 1.27))))
      )
      (pin bidirectional line (at 27.94 0 180) (length 2.54)
        (name "RF" (effects (font (size 1.27 1.27))))
        (number "36" (effects (font (size 1.27 1.27))))
      )
      (pin no_connect line (at 25.4 -5.08 180) (length 2.54) hide
        (name "NC" (effects (font (size 1.27 1.27))))
        (number "37" (effects (font (size 1.27 1.27))))
      )
      (pin bidirectional line (at -27.94 17.78 0) (length 2.54)
        (name "DIO14/UART_RX/~CONFIG" (effects (font (size 1.27 1.27))))
        (number "4" (effects (font (size 1.27 1.27))))
      )
      (pin bidirectional line (at 27.94 20.32 180) (length 2.54)
        (name "DIO12" (effects (font (size 1.27 1.27))))
        (number "5" (effects (font (size 1.27 1.27))))
      )
      (pin bidirectional line (at -27.94 -5.08 0) (length 2.54)
        (name "RESET/OD_OUT" (effects (font (size 1.27 1.27))))
        (number "6" (effects (font (size 1.27 1.27))))
      )
      (pin bidirectional line (at 27.94 17.78 180) (length 2.54)
        (name "DIO10/RSSI/PWM0" (effects (font (size 1.27 1.27))))
        (number "7" (effects (font (size 1.27 1.27))))
      )
      (pin bidirectional line (at 27.94 15.24 180) (length 2.54)
        (name "DIO11/PWM1" (effects (font (size 1.27 1.27))))
        (number "8" (effects (font (size 1.27 1.27))))
      )
      (pin no_connect line (at 25.4 -22.86 180) (length 2.54) hide
        (name "NC" (effects (font (size 1.27 1.27))))
        (number "9" (effects (font (size 1.27 1.27))))
      )
    )
  )
)
