(kicad_symbol_lib (version 20201005) (generator kicad_symbol_editor)
  (symbol "Sensor_Audio:IM69D120" (pin_names (offset 0.254)) (in_bom yes) (on_board yes)
    (property "Reference" "MK" (id 0) (at -7.62 6.35 0)
      (effects (font (size 1.27 1.27)) (justify left))
    )
    (property "Value" "IM69D120" (id 1) (at 1.27 6.35 0)
      (effects (font (size 1.27 1.27)) (justify left))
    )
    (property "Footprint" "Sensor_Audio:Infineon_PG-LLGA-5-1" (id 2) (at 17.78 -7.62 0)
      (effects (font (size 1.27 1.27) italic) hide)
    )
    (property "Datasheet" "https://www.infineon.com/dgdl/Infineon-IM69D120-DS-v01_00-EN.pdf?fileId=5546d462602a9dc801607a0e41a01a2b" (id 3) (at 0 0 0)
      (effects (font (size 1.27 1.27)) hide)
    )
    (property "ki_keywords" "mems microphone" (id 4) (at 0 0 0)
      (effects (font (size 1.27 1.27)) hide)
    )
    (property "ki_description" "High performance digital XENSIV MEMS microphone, -26 dBFS Sensitivity, LLGA-5" (id 5) (at 0 0 0)
      (effects (font (size 1.27 1.27)) hide)
    )
    (property "ki_fp_filters" "Infineon*PG*LLGA*" (id 6) (at 0 0 0)
      (effects (font (size 1.27 1.27)) hide)
    )
    (symbol "IM69D120_0_1"
      (circle (center -3.81 0) (radius 1.27) (stroke (width 0.254)) (fill (type none)))
      (rectangle (start -7.62 5.08) (end 7.62 -5.08)
        (stroke (width 0.254)) (fill (type background))
      )
      (polyline
        (pts
          (xy -5.08 1.27)
          (xy -5.08 -1.27)
        )
        (stroke (width 0.381)) (fill (type none))
      )
    )
    (symbol "IM69D120_1_1"
      (pin output line (at 10.16 -2.54 180) (length 2.54)
        (name "DATA" (effects (font (size 1.27 1.27))))
        (number "1" (effects (font (size 1.27 1.27))))
      )
      (pin power_in line (at 0 7.62 270) (length 2.54)
        (name "VDD" (effects (font (size 1.27 1.27))))
        (number "2" (effects (font (size 1.27 1.27))))
      )
      (pin input line (at 10.16 0 180) (length 2.54)
        (name "CLOCK" (effects (font (size 1.27 1.27))))
        (number "3" (effects (font (size 1.27 1.27))))
      )
      (pin input line (at 10.16 2.54 180) (length 2.54)
        (name "SELECT" (effects (font (size 1.27 1.27))))
        (number "4" (effects (font (size 1.27 1.27))))
      )
      (pin power_in line (at 0 -7.62 90) (length 2.54)
        (name "GND" (effects (font (size 1.27 1.27))))
        (number "5" (effects (font (size 1.27 1.27))))
      )
    )
  )
  (symbol "Sensor_Audio:IM69D130" (extends "IM69D120")
    (property "Reference" "MK" (id 0) (at -7.62 6.35 0)
      (effects (font (size 1.27 1.27)) (justify left))
    )
    (property "Value" "IM69D130" (id 1) (at 1.27 6.35 0)
      (effects (font (size 1.27 1.27)) (justify left))
    )
    (property "Footprint" "Sensor_Audio:Infineon_PG-LLGA-5-1" (id 2) (at 17.78 -7.62 0)
      (effects (font (size 1.27 1.27) italic) hide)
    )
    (property "Datasheet" "https://www.infineon.com/dgdl/Infineon-IM69D130-DS-v01_00-EN.pdf?fileId=5546d462602a9dc801607a0e46511a2e" (id 3) (at 0 0 0)
      (effects (font (size 1.27 1.27)) hide)
    )
    (property "ki_keywords" "mems microphone" (id 4) (at 0 0 0)
      (effects (font (size 1.27 1.27)) hide)
    )
    (property "ki_description" "High performance digital XENSIV MEMS microphone, -36 dBFS Sensitivity, LLGA-5" (id 5) (at 0 0 0)
      (effects (font (size 1.27 1.27)) hide)
    )
    (property "ki_fp_filters" "Infineon*PG*LLGA*" (id 6) (at 0 0 0)
      (effects (font (size 1.27 1.27)) hide)
    )
  )
  (symbol "Sensor_Audio:MP45DT02" (in_bom yes) (on_board yes)
    (property "Reference" "MK" (id 0) (at -7.62 6.35 0)
      (effects (font (size 1.27 1.27)) (justify left))
    )
    (property "Value" "MP45DT02" (id 1) (at 1.27 -6.35 0)
      (effects (font (size 1.27 1.27)) (justify left))
    )
    (property "Footprint" "Sensor_Audio:ST_HLGA-6_3.76x4.72mm_P1.65mm" (id 2) (at -22.86 -8.89 0)
      (effects (font (size 1.27 1.27) italic) (justify left) hide)
    )
    (property "Datasheet" "http://www.st.com/st-web-ui/static/active/en/resource/technical/document/datasheet/DM00025467.pdf" (id 3) (at 0 0 0)
      (effects (font (size 1.27 1.27)) hide)
    )
    (property "ki_keywords" "MEMS Microphone" (id 4) (at 0 0 0)
      (effects (font (size 1.27 1.27)) hide)
    )
    (property "ki_description" "MEMS Omnidirectional Digital Microphone, HLGA-6" (id 5) (at 0 0 0)
      (effects (font (size 1.27 1.27)) hide)
    )
    (property "ki_fp_filters" "ST*HLGA*3.76x4.72mm*P1.65mm*" (id 6) (at 0 0 0)
      (effects (font (size 1.27 1.27)) hide)
    )
    (symbol "MP45DT02_0_1"
      (circle (center -3.81 0) (radius 1.27) (stroke (width 0.254)) (fill (type none)))
      (rectangle (start -7.62 5.08) (end 7.62 -5.08)
        (stroke (width 0.254)) (fill (type background))
      )
      (polyline
        (pts
          (xy -5.08 1.27)
          (xy -5.08 -1.27)
        )
        (stroke (width 0.381)) (fill (type none))
      )
    )
    (symbol "MP45DT02_1_1"
      (pin power_in line (at 0 -7.62 90) (length 2.54)
        (name "GND" (effects (font (size 1.27 1.27))))
        (number "1" (effects (font (size 1.27 1.27))))
      )
      (pin input line (at 10.16 2.54 180) (length 2.54)
        (name "LR" (effects (font (size 1.27 1.27))))
        (number "2" (effects (font (size 1.27 1.27))))
      )
      (pin passive line (at 0 -7.62 90) (length 2.54) hide
        (name "GND" (effects (font (size 1.27 1.27))))
        (number "3" (effects (font (size 1.27 1.27))))
      )
      (pin input line (at 10.16 0 180) (length 2.54)
        (name "CLK" (effects (font (size 1.27 1.27))))
        (number "4" (effects (font (size 1.27 1.27))))
      )
      (pin output line (at 10.16 -2.54 180) (length 2.54)
        (name "DOUT" (effects (font (size 1.27 1.27))))
        (number "5" (effects (font (size 1.27 1.27))))
      )
      (pin power_in line (at 0 7.62 270) (length 2.54)
        (name "VDD" (effects (font (size 1.27 1.27))))
        (number "6" (effects (font (size 1.27 1.27))))
      )
    )
  )
  (symbol "Sensor_Audio:SPH0641LU4H-1" (in_bom yes) (on_board yes)
    (property "Reference" "MK" (id 0) (at 5.08 6.35 0)
      (effects (font (size 1.27 1.27)))
    )
    (property "Value" "SPH0641LU4H-1" (id 1) (at 8.89 -6.35 0)
      (effects (font (size 1.27 1.27)))
    )
    (property "Footprint" "Sensor_Audio:Knowles_LGA-5_3.5x2.65mm" (id 2) (at 0 0 0)
      (effects (font (size 1.27 1.27)) hide)
    )
    (property "Datasheet" "https://www.knowles.com/docs/default-source/model-downloads/sph0641lu4h-1-revb.pdf" (id 3) (at 0 0 0)
      (effects (font (size 1.27 1.27)) hide)
    )
    (property "ki_keywords" "Microphone MEMS" (id 4) (at 0 0 0)
      (effects (font (size 1.27 1.27)) hide)
    )
    (property "ki_description" "Digital MEMS Microphone, LGA-5" (id 5) (at 0 0 0)
      (effects (font (size 1.27 1.27)) hide)
    )
    (property "ki_fp_filters" "Knowles*LGA*3.5x2.65mm*" (id 6) (at 0 0 0)
      (effects (font (size 1.27 1.27)) hide)
    )
    (symbol "SPH0641LU4H-1_1_1"
      (circle (center -3.81 0) (radius 1.27) (stroke (width 0.254)) (fill (type none)))
      (rectangle (start -7.62 5.08) (end 7.62 -5.08)
        (stroke (width 0.254)) (fill (type background))
      )
      (polyline
        (pts
          (xy -5.08 1.27)
          (xy -5.08 -1.27)
        )
        (stroke (width 0.381)) (fill (type none))
      )
      (pin output line (at 10.16 -2.54 180) (length 2.54)
        (name "DATA" (effects (font (size 1.27 1.27))))
        (number "1" (effects (font (size 1.27 1.27))))
      )
      (pin input line (at 10.16 2.54 180) (length 2.54)
        (name "SEL" (effects (font (size 1.27 1.27))))
        (number "2" (effects (font (size 1.27 1.27))))
      )
      (pin power_in line (at 0 -7.62 90) (length 2.54)
        (name "GND" (effects (font (size 1.27 1.27))))
        (number "3" (effects (font (size 1.27 1.27))))
      )
      (pin input line (at 10.16 0 180) (length 2.54)
        (name "CLOCK" (effects (font (size 1.27 1.27))))
        (number "4" (effects (font (size 1.27 1.27))))
      )
      (pin power_in line (at 0 7.62 270) (length 2.54)
        (name "VDD" (effects (font (size 1.27 1.27))))
        (number "5" (effects (font (size 1.27 1.27))))
      )
    )
  )
)
