(kicad_symbol_lib (version 20201005) (generator kicad_symbol_editor)
  (symbol "Sensor:ADE7758" (in_bom yes) (on_board yes)
    (property "Reference" "U" (id 0) (at -7.62 28.575 0)
      (effects (font (size 1.27 1.27)) (justify right))
    )
    (property "Value" "ADE7758" (id 1) (at -7.62 26.67 0)
      (effects (font (size 1.27 1.27)) (justify right))
    )
    (property "Footprint" "Package_SO:SOIC-24W_7.5x15.4mm_P1.27mm" (id 2) (at 6.35 -26.67 0)
      (effects (font (size 1.27 1.27)) (justify left) hide)
    )
    (property "Datasheet" "https://www.analog.com/media/en/technical-documentation/data-sheets/ADE7758.pdf" (id 3) (at 7.62 30.48 0)
      (effects (font (size 1.27 1.27)) hide)
    )
    (property "ki_keywords" "Energy Metering" (id 4) (at 0 0 0)
      (effects (font (size 1.27 1.27)) hide)
    )
    (property "ki_description" "Poly Phase Multifunction Energy Metering, SO-24" (id 5) (at 0 0 0)
      (effects (font (size 1.27 1.27)) hide)
    )
    (property "ki_fp_filters" "SOIC*7.5x15.4mm*P1.27mm*" (id 6) (at 0 0 0)
      (effects (font (size 1.27 1.27)) hide)
    )
    (symbol "ADE7758_0_1"
      (rectangle (start 10.16 -25.4) (end -10.16 25.4)
        (stroke (width 0.254)) (fill (type background))
      )
    )
    (symbol "ADE7758_1_1"
      (pin output line (at 12.7 7.62 180) (length 2.54)
        (name "APCF" (effects (font (size 1.27 1.27))))
        (number "1" (effects (font (size 1.27 1.27))))
      )
      (pin input line (at -12.7 -5.08 0) (length 2.54)
        (name "ICN" (effects (font (size 1.27 1.27))))
        (number "10" (effects (font (size 1.27 1.27))))
      )
      (pin power_in line (at 0 -27.94 90) (length 2.54)
        (name "AGND" (effects (font (size 1.27 1.27))))
        (number "11" (effects (font (size 1.27 1.27))))
      )
      (pin input line (at 12.7 -17.78 180) (length 2.54)
        (name "REFIN/OUT" (effects (font (size 1.27 1.27))))
        (number "12" (effects (font (size 1.27 1.27))))
      )
      (pin power_in line (at -5.08 -27.94 90) (length 2.54)
        (name "VN" (effects (font (size 1.27 1.27))))
        (number "13" (effects (font (size 1.27 1.27))))
      )
      (pin input line (at -12.7 -17.78 0) (length 2.54)
        (name "VCP" (effects (font (size 1.27 1.27))))
        (number "14" (effects (font (size 1.27 1.27))))
      )
      (pin input line (at -12.7 -15.24 0) (length 2.54)
        (name "VBP" (effects (font (size 1.27 1.27))))
        (number "15" (effects (font (size 1.27 1.27))))
      )
      (pin input line (at -12.7 -12.7 0) (length 2.54)
        (name "VAP" (effects (font (size 1.27 1.27))))
        (number "16" (effects (font (size 1.27 1.27))))
      )
      (pin output line (at 12.7 5.08 180) (length 2.54)
        (name "VARCF" (effects (font (size 1.27 1.27))))
        (number "17" (effects (font (size 1.27 1.27))))
      )
      (pin open_collector line (at 12.7 -12.7 180) (length 2.54)
        (name "~IRQ" (effects (font (size 1.27 1.27))))
        (number "18" (effects (font (size 1.27 1.27))))
      )
      (pin input line (at 12.7 12.7 180) (length 2.54)
        (name "CLKIN" (effects (font (size 1.27 1.27))))
        (number "19" (effects (font (size 1.27 1.27))))
      )
      (pin power_in line (at 5.08 -27.94 90) (length 2.54)
        (name "DGND" (effects (font (size 1.27 1.27))))
        (number "2" (effects (font (size 1.27 1.27))))
      )
      (pin output line (at 12.7 17.78 180) (length 2.54)
        (name "CLKOUT" (effects (font (size 1.27 1.27))))
        (number "20" (effects (font (size 1.27 1.27))))
      )
      (pin input line (at 12.7 -7.62 180) (length 2.54)
        (name "~CS" (effects (font (size 1.27 1.27))))
        (number "21" (effects (font (size 1.27 1.27))))
      )
      (pin input line (at 12.7 -2.54 180) (length 2.54)
        (name "DIN" (effects (font (size 1.27 1.27))))
        (number "22" (effects (font (size 1.27 1.27))))
      )
      (pin input line (at 12.7 -5.08 180) (length 2.54)
        (name "SCLK" (effects (font (size 1.27 1.27))))
        (number "23" (effects (font (size 1.27 1.27))))
      )
      (pin output line (at 12.7 0 180) (length 2.54)
        (name "DOUT" (effects (font (size 1.27 1.27))))
        (number "24" (effects (font (size 1.27 1.27))))
      )
      (pin power_in line (at 0 27.94 270) (length 2.54)
        (name "DVDD" (effects (font (size 1.27 1.27))))
        (number "3" (effects (font (size 1.27 1.27))))
      )
      (pin power_in line (at -5.08 27.94 270) (length 2.54)
        (name "AVDD" (effects (font (size 1.27 1.27))))
        (number "4" (effects (font (size 1.27 1.27))))
      )
      (pin input line (at -12.7 17.78 0) (length 2.54)
        (name "IAP" (effects (font (size 1.27 1.27))))
        (number "5" (effects (font (size 1.27 1.27))))
      )
      (pin input line (at -12.7 15.24 0) (length 2.54)
        (name "IAN" (effects (font (size 1.27 1.27))))
        (number "6" (effects (font (size 1.27 1.27))))
      )
      (pin input line (at -12.7 7.62 0) (length 2.54)
        (name "IBP" (effects (font (size 1.27 1.27))))
        (number "7" (effects (font (size 1.27 1.27))))
      )
      (pin input line (at -12.7 5.08 0) (length 2.54)
        (name "IBN" (effects (font (size 1.27 1.27))))
        (number "8" (effects (font (size 1.27 1.27))))
      )
      (pin input line (at -12.7 -2.54 0) (length 2.54)
        (name "ICP" (effects (font (size 1.27 1.27))))
        (number "9" (effects (font (size 1.27 1.27))))
      )
    )
  )
  (symbol "Sensor:ADE7763xRS" (in_bom yes) (on_board yes)
    (property "Reference" "U" (id 0) (at -7.62 28.575 0)
      (effects (font (size 1.27 1.27)) (justify right))
    )
    (property "Value" "ADE7763xRS" (id 1) (at -7.62 26.67 0)
      (effects (font (size 1.27 1.27)) (justify right))
    )
    (property "Footprint" "Package_SO:SSOP-20_5.3x7.2mm_P0.65mm" (id 2) (at 6.35 -26.67 0)
      (effects (font (size 1.27 1.27)) (justify left) hide)
    )
    (property "Datasheet" "https://www.analog.com/media/en/technical-documentation/data-sheets/ADE7763.pdf" (id 3) (at 7.62 30.48 0)
      (effects (font (size 1.27 1.27)) hide)
    )
    (property "ki_keywords" "Energy Metering" (id 4) (at 0 0 0)
      (effects (font (size 1.27 1.27)) hide)
    )
    (property "ki_description" "Single-Phase Active and Apparent Energy Metering, SSOP-20" (id 5) (at 0 0 0)
      (effects (font (size 1.27 1.27)) hide)
    )
    (property "ki_fp_filters" "SSOP*5.3x7.2mm*P0.65mm*" (id 6) (at 0 0 0)
      (effects (font (size 1.27 1.27)) hide)
    )
    (symbol "ADE7763xRS_0_1"
      (rectangle (start 10.16 -25.4) (end -10.16 25.4)
        (stroke (width 0.254)) (fill (type background))
      )
    )
    (symbol "ADE7763xRS_1_1"
      (pin input line (at 12.7 5.08 180) (length 2.54)
        (name "~RESET" (effects (font (size 1.27 1.27))))
        (number "1" (effects (font (size 1.27 1.27))))
      )
      (pin power_in line (at 5.08 -27.94 90) (length 2.54)
        (name "DGND" (effects (font (size 1.27 1.27))))
        (number "10" (effects (font (size 1.27 1.27))))
      )
      (pin output line (at 12.7 -20.32 180) (length 2.54)
        (name "CF" (effects (font (size 1.27 1.27))))
        (number "11" (effects (font (size 1.27 1.27))))
      )
      (pin output line (at 12.7 -17.78 180) (length 2.54)
        (name "ZX" (effects (font (size 1.27 1.27))))
        (number "12" (effects (font (size 1.27 1.27))))
      )
      (pin open_collector line (at 12.7 -15.24 180) (length 2.54)
        (name "~SAG" (effects (font (size 1.27 1.27))))
        (number "13" (effects (font (size 1.27 1.27))))
      )
      (pin open_collector line (at 12.7 -12.7 180) (length 2.54)
        (name "~IRQ" (effects (font (size 1.27 1.27))))
        (number "14" (effects (font (size 1.27 1.27))))
      )
      (pin input line (at 12.7 17.78 180) (length 2.54)
        (name "CLKIN" (effects (font (size 1.27 1.27))))
        (number "15" (effects (font (size 1.27 1.27))))
      )
      (pin output line (at 12.7 10.16 180) (length 2.54)
        (name "CLKOUT" (effects (font (size 1.27 1.27))))
        (number "16" (effects (font (size 1.27 1.27))))
      )
      (pin input line (at 12.7 -7.62 180) (length 2.54)
        (name "~CS" (effects (font (size 1.27 1.27))))
        (number "17" (effects (font (size 1.27 1.27))))
      )
      (pin input line (at 12.7 -5.08 180) (length 2.54)
        (name "SCLK" (effects (font (size 1.27 1.27))))
        (number "18" (effects (font (size 1.27 1.27))))
      )
      (pin output line (at 12.7 0 180) (length 2.54)
        (name "DOUT" (effects (font (size 1.27 1.27))))
        (number "19" (effects (font (size 1.27 1.27))))
      )
      (pin power_in line (at 5.08 27.94 270) (length 2.54)
        (name "DVDD" (effects (font (size 1.27 1.27))))
        (number "2" (effects (font (size 1.27 1.27))))
      )
      (pin input line (at 12.7 -2.54 180) (length 2.54)
        (name "DIN" (effects (font (size 1.27 1.27))))
        (number "20" (effects (font (size 1.27 1.27))))
      )
      (pin power_in line (at -5.08 27.94 270) (length 2.54)
        (name "AVDD" (effects (font (size 1.27 1.27))))
        (number "3" (effects (font (size 1.27 1.27))))
      )
      (pin input line (at -12.7 17.78 0) (length 2.54)
        (name "V1P" (effects (font (size 1.27 1.27))))
        (number "4" (effects (font (size 1.27 1.27))))
      )
      (pin input line (at -12.7 12.7 0) (length 2.54)
        (name "V1N" (effects (font (size 1.27 1.27))))
        (number "5" (effects (font (size 1.27 1.27))))
      )
      (pin input line (at -12.7 -7.62 0) (length 2.54)
        (name "V2N" (effects (font (size 1.27 1.27))))
        (number "6" (effects (font (size 1.27 1.27))))
      )
      (pin input line (at -12.7 -2.54 0) (length 2.54)
        (name "V2P" (effects (font (size 1.27 1.27))))
        (number "7" (effects (font (size 1.27 1.27))))
      )
      (pin power_in line (at -5.08 -27.94 90) (length 2.54)
        (name "AGND" (effects (font (size 1.27 1.27))))
        (number "8" (effects (font (size 1.27 1.27))))
      )
      (pin input line (at -12.7 -17.78 0) (length 2.54)
        (name "REFIN/OUT" (effects (font (size 1.27 1.27))))
        (number "9" (effects (font (size 1.27 1.27))))
      )
    )
  )
  (symbol "Sensor:ADE7953xCP" (in_bom yes) (on_board yes)
    (property "Reference" "U" (id 0) (at -12.7 22.86 0)
      (effects (font (size 1.27 1.27)) (justify right))
    )
    (property "Value" "ADE7953xCP" (id 1) (at -12.7 25.4 0)
      (effects (font (size 1.27 1.27)) (justify right))
    )
    (property "Footprint" "Package_CSP:LFCSP-28-1EP_5x5mm_P0.5mm_EP3.14x3.14mm" (id 2) (at 6.35 -29.21 0)
      (effects (font (size 1.27 1.27)) (justify left) hide)
    )
    (property "Datasheet" "https://www.analog.com/media/en/technical-documentation/data-sheets/ADE7953.pdf" (id 3) (at 7.62 27.94 0)
      (effects (font (size 1.27 1.27)) hide)
    )
    (property "ki_keywords" "Energy Metering" (id 4) (at 0 0 0)
      (effects (font (size 1.27 1.27)) hide)
    )
    (property "ki_description" "Single Phase Multifunction Energy Metering with Neutral Current Measurement, LFCSP-28" (id 5) (at 0 0 0)
      (effects (font (size 1.27 1.27)) hide)
    )
    (property "ki_fp_filters" "LFCSP*1EP*5x5mm*P0.5mm*" (id 6) (at 0 0 0)
      (effects (font (size 1.27 1.27)) hide)
    )
    (symbol "ADE7953xCP_0_1"
      (rectangle (start 10.16 -22.86) (end -10.16 22.86)
        (stroke (width 0.254)) (fill (type background))
      )
    )
    (symbol "ADE7953xCP_1_1"
      (pin output line (at 12.7 20.32 180) (length 2.54)
        (name "ZX" (effects (font (size 1.27 1.27))))
        (number "1" (effects (font (size 1.27 1.27))))
      )
      (pin input line (at -12.7 5.08 0) (length 2.54)
        (name "IBN" (effects (font (size 1.27 1.27))))
        (number "10" (effects (font (size 1.27 1.27))))
      )
      (pin input line (at -12.7 0 0) (length 2.54)
        (name "VN" (effects (font (size 1.27 1.27))))
        (number "11" (effects (font (size 1.27 1.27))))
      )
      (pin input line (at -12.7 -2.54 0) (length 2.54)
        (name "VP" (effects (font (size 1.27 1.27))))
        (number "12" (effects (font (size 1.27 1.27))))
      )
      (pin input line (at 12.7 -12.7 180) (length 2.54)
        (name "REF" (effects (font (size 1.27 1.27))))
        (number "13" (effects (font (size 1.27 1.27))))
      )
      (pin input line (at -12.7 -10.16 0) (length 2.54)
        (name "PULL_LOW" (effects (font (size 1.27 1.27))))
        (number "14" (effects (font (size 1.27 1.27))))
      )
      (pin power_out line (at 2.54 25.4 270) (length 2.54)
        (name "VINTA" (effects (font (size 1.27 1.27))))
        (number "15" (effects (font (size 1.27 1.27))))
      )
      (pin power_in line (at 0 -25.4 90) (length 2.54)
        (name "AGND" (effects (font (size 1.27 1.27))))
        (number "16" (effects (font (size 1.27 1.27))))
      )
      (pin power_in line (at -2.54 25.4 270) (length 2.54)
        (name "VDD" (effects (font (size 1.27 1.27))))
        (number "17" (effects (font (size 1.27 1.27))))
      )
      (pin input line (at 12.7 -20.32 180) (length 2.54)
        (name "CLKIN" (effects (font (size 1.27 1.27))))
        (number "18" (effects (font (size 1.27 1.27))))
      )
      (pin output line (at 12.7 -17.78 180) (length 2.54)
        (name "CLKOUT" (effects (font (size 1.27 1.27))))
        (number "19" (effects (font (size 1.27 1.27))))
      )
      (pin input line (at -12.7 20.32 0) (length 2.54)
        (name "~RESET" (effects (font (size 1.27 1.27))))
        (number "2" (effects (font (size 1.27 1.27))))
      )
      (pin output line (at 12.7 17.78 180) (length 2.54)
        (name "~REVP" (effects (font (size 1.27 1.27))))
        (number "20" (effects (font (size 1.27 1.27))))
      )
      (pin output line (at 12.7 15.24 180) (length 2.54)
        (name "ZX_I" (effects (font (size 1.27 1.27))))
        (number "21" (effects (font (size 1.27 1.27))))
      )
      (pin open_collector line (at 12.7 -10.16 180) (length 2.54)
        (name "~IRQ" (effects (font (size 1.27 1.27))))
        (number "22" (effects (font (size 1.27 1.27))))
      )
      (pin output line (at 12.7 -2.54 180) (length 2.54)
        (name "CF1" (effects (font (size 1.27 1.27))))
        (number "23" (effects (font (size 1.27 1.27))))
      )
      (pin output line (at 12.7 -5.08 180) (length 2.54)
        (name "CF2" (effects (font (size 1.27 1.27))))
        (number "24" (effects (font (size 1.27 1.27))))
      )
      (pin input line (at 12.7 2.54 180) (length 2.54)
        (name "SCLK" (effects (font (size 1.27 1.27))))
        (number "25" (effects (font (size 1.27 1.27))))
      )
      (pin bidirectional line (at 12.7 5.08 180) (length 2.54)
        (name "MISO/SDA/TX" (effects (font (size 1.27 1.27))))
        (number "26" (effects (font (size 1.27 1.27))))
      )
      (pin input line (at 12.7 7.62 180) (length 2.54)
        (name "MOSI/SCL/RX" (effects (font (size 1.27 1.27))))
        (number "27" (effects (font (size 1.27 1.27))))
      )
      (pin input line (at 12.7 10.16 180) (length 2.54)
        (name "~CS" (effects (font (size 1.27 1.27))))
        (number "28" (effects (font (size 1.27 1.27))))
      )
      (pin passive line (at 2.54 -25.4 90) (length 2.54)
        (name "EP" (effects (font (size 1.27 1.27))))
        (number "29" (effects (font (size 1.27 1.27))))
      )
      (pin power_out line (at 0 25.4 270) (length 2.54)
        (name "VINTD" (effects (font (size 1.27 1.27))))
        (number "3" (effects (font (size 1.27 1.27))))
      )
      (pin power_in line (at -2.54 -25.4 90) (length 2.54)
        (name "DGND" (effects (font (size 1.27 1.27))))
        (number "4" (effects (font (size 1.27 1.27))))
      )
      (pin input line (at -12.7 15.24 0) (length 2.54)
        (name "IAP" (effects (font (size 1.27 1.27))))
        (number "5" (effects (font (size 1.27 1.27))))
      )
      (pin input line (at -12.7 12.7 0) (length 2.54)
        (name "IAN" (effects (font (size 1.27 1.27))))
        (number "6" (effects (font (size 1.27 1.27))))
      )
      (pin input line (at -12.7 -7.62 0) (length 2.54) hide
        (name "PULL_HIGH" (effects (font (size 1.27 1.27))))
        (number "7" (effects (font (size 1.27 1.27))))
      )
      (pin input line (at -12.7 -7.62 0) (length 2.54)
        (name "PULL_HIGH" (effects (font (size 1.27 1.27))))
        (number "8" (effects (font (size 1.27 1.27))))
      )
      (pin input line (at -12.7 7.62 0) (length 2.54)
        (name "IBP" (effects (font (size 1.27 1.27))))
        (number "9" (effects (font (size 1.27 1.27))))
      )
    )
  )
  (symbol "Sensor:AS3935" (in_bom yes) (on_board yes)
    (property "Reference" "U" (id 0) (at 5.08 15.24 0)
      (effects (font (size 1.27 1.27)) (justify left))
    )
    (property "Value" "AS3935" (id 1) (at 5.08 12.7 0)
      (effects (font (size 1.27 1.27)) (justify left))
    )
    (property "Footprint" "Package_DFN_QFN:MLPQ-16-1EP_4x4mm_P0.65mm_EP2.8x2.8mm" (id 2) (at 20.32 22.86 0)
      (effects (font (size 1.27 1.27)) hide)
    )
    (property "Datasheet" "https://www.embeddedadventures.com/datasheets/AS3935_Datasheet_EN_v2.pdf" (id 3) (at -2.54 0 0)
      (effects (font (size 1.27 1.27)) hide)
    )
    (property "ki_keywords" "lightning sensor" (id 4) (at 0 0 0)
      (effects (font (size 1.27 1.27)) hide)
    )
    (property "ki_description" "Programmable fully integrated Lightning Sensor IC" (id 5) (at 0 0 0)
      (effects (font (size 1.27 1.27)) hide)
    )
    (property "ki_fp_filters" "*MLPQ*16*1EP*4x4mm*P0.65mm*" (id 6) (at 0 0 0)
      (effects (font (size 1.27 1.27)) hide)
    )
    (symbol "AS3935_0_1"
      (rectangle (start -10.16 10.16) (end 10.16 -10.16)
        (stroke (width 0.254)) (fill (type background))
      )
    )
    (symbol "AS3935_1_1"
      (pin input line (at -12.7 5.08 0) (length 2.54)
        (name "ACG" (effects (font (size 1.27 1.27))))
        (number "1" (effects (font (size 1.27 1.27))))
      )
      (pin bidirectional line (at 12.7 -5.08 180) (length 2.54)
        (name "IRQ" (effects (font (size 1.27 1.27))))
        (number "10" (effects (font (size 1.27 1.27))))
      )
      (pin bidirectional line (at 12.7 -2.54 180) (length 2.54)
        (name "SCL" (effects (font (size 1.27 1.27))))
        (number "11" (effects (font (size 1.27 1.27))))
      )
      (pin output line (at 12.7 2.54 180) (length 2.54)
        (name "MISO" (effects (font (size 1.27 1.27))))
        (number "12" (effects (font (size 1.27 1.27))))
      )
      (pin bidirectional line (at 12.7 0 180) (length 2.54)
        (name "MOSI/SDA" (effects (font (size 1.27 1.27))))
        (number "13" (effects (font (size 1.27 1.27))))
      )
      (pin input line (at -12.7 -5.08 0) (length 2.54)
        (name "AD0" (effects (font (size 1.27 1.27))))
        (number "15" (effects (font (size 1.27 1.27))))
      )
      (pin input line (at -12.7 -7.62 0) (length 2.54)
        (name "AD1" (effects (font (size 1.27 1.27))))
        (number "16" (effects (font (size 1.27 1.27))))
      )
      (pin power_in line (at -2.54 -12.7 90) (length 2.54)
        (name "GNDPAD" (effects (font (size 1.27 1.27))))
        (number "17" (effects (font (size 1.27 1.27))))
      )
      (pin input line (at -12.7 2.54 0) (length 2.54)
        (name "IN-" (effects (font (size 1.27 1.27))))
        (number "2" (effects (font (size 1.27 1.27))))
      )
      (pin input line (at -12.7 0 0) (length 2.54)
        (name "IN+" (effects (font (size 1.27 1.27))))
        (number "3" (effects (font (size 1.27 1.27))))
      )
      (pin power_in line (at 2.54 -12.7 90) (length 2.54)
        (name "GND" (effects (font (size 1.27 1.27))))
        (number "4" (effects (font (size 1.27 1.27))))
      )
      (pin power_in line (at 2.54 12.7 270) (length 2.54)
        (name "Vdd" (effects (font (size 1.27 1.27))))
        (number "5" (effects (font (size 1.27 1.27))))
      )
      (pin passive line (at -2.54 12.7 270) (length 2.54)
        (name "VReg" (effects (font (size 1.27 1.27))))
        (number "6" (effects (font (size 1.27 1.27))))
      )
      (pin input line (at -12.7 7.62 0) (length 2.54)
        (name "EN" (effects (font (size 1.27 1.27))))
        (number "7" (effects (font (size 1.27 1.27))))
      )
      (pin input line (at 12.7 5.08 180) (length 2.54)
        (name "CS" (effects (font (size 1.27 1.27))))
        (number "8" (effects (font (size 1.27 1.27))))
      )
      (pin input line (at 12.7 -7.62 180) (length 2.54)
        (name "SI" (effects (font (size 1.27 1.27))))
        (number "9" (effects (font (size 1.27 1.27))))
      )
    )
  )
  (symbol "Sensor:BL0937" (in_bom yes) (on_board yes)
    (property "Reference" "U" (id 0) (at 2.54 -10.16 0)
      (effects (font (size 1.27 1.27)))
    )
    (property "Value" "BL0937" (id 1) (at 5.08 -7.62 0)
      (effects (font (size 1.27 1.27)))
    )
    (property "Footprint" "Package_SO:SOP-8_3.9x4.9mm_P1.27mm" (id 2) (at 2.54 -17.78 0)
      (effects (font (size 1.27 1.27)) hide)
    )
    (property "Datasheet" "http://www.belling.com.cn/media/file_object/bel_product/BL0937/datasheet/BL0937_V1.02_en.pdf" (id 3) (at 0 0 0)
      (effects (font (size 1.27 1.27)) hide)
    )
    (property "ki_keywords" "current sensor" (id 4) (at 0 0 0)
      (effects (font (size 1.27 1.27)) hide)
    )
    (property "ki_description" "Single Phase Energy Meter IC with Integrated Oscillator, SOP-8" (id 5) (at 0 0 0)
      (effects (font (size 1.27 1.27)) hide)
    )
    (property "ki_fp_filters" "SOP*3.9x4.9mm*P1.27mm*" (id 6) (at 0 0 0)
      (effects (font (size 1.27 1.27)) hide)
    )
    (symbol "BL0937_0_1"
      (rectangle (start -7.62 5.08) (end 7.62 -5.08)
        (stroke (width 0.254)) (fill (type background))
      )
    )
    (symbol "BL0937_1_1"
      (pin power_in line (at 0 7.62 270) (length 2.54)
        (name "VDD" (effects (font (size 1.27 1.27))))
        (number "1" (effects (font (size 1.27 1.27))))
      )
      (pin input line (at -10.16 2.54 0) (length 2.54)
        (name "IP" (effects (font (size 1.27 1.27))))
        (number "2" (effects (font (size 1.27 1.27))))
      )
      (pin input line (at -10.16 0 0) (length 2.54)
        (name "IN" (effects (font (size 1.27 1.27))))
        (number "3" (effects (font (size 1.27 1.27))))
      )
      (pin input line (at -10.16 -2.54 0) (length 2.54)
        (name "VP" (effects (font (size 1.27 1.27))))
        (number "4" (effects (font (size 1.27 1.27))))
      )
      (pin power_in line (at 0 -7.62 90) (length 2.54)
        (name "GND" (effects (font (size 1.27 1.27))))
        (number "5" (effects (font (size 1.27 1.27))))
      )
      (pin output line (at 10.16 2.54 180) (length 2.54)
        (name "CF" (effects (font (size 1.27 1.27))))
        (number "6" (effects (font (size 1.27 1.27))))
      )
      (pin output line (at 10.16 0 180) (length 2.54)
        (name "CF1" (effects (font (size 1.27 1.27))))
        (number "7" (effects (font (size 1.27 1.27))))
      )
      (pin input line (at 10.16 -2.54 180) (length 2.54)
        (name "SEL" (effects (font (size 1.27 1.27))))
        (number "8" (effects (font (size 1.27 1.27))))
      )
    )
  )
  (symbol "Sensor:BME280" (in_bom yes) (on_board yes)
    (property "Reference" "U" (id 0) (at -8.89 11.43 0)
      (effects (font (size 1.27 1.27)))
    )
    (property "Value" "BME280" (id 1) (at 7.62 11.43 0)
      (effects (font (size 1.27 1.27)))
    )
    (property "Footprint" "Package_LGA:Bosch_LGA-8_2.5x2.5mm_P0.65mm_ClockwisePinNumbering" (id 2) (at 38.1 -11.43 0)
      (effects (font (size 1.27 1.27)) hide)
    )
    (property "Datasheet" "https://ae-bst.resource.bosch.com/media/_tech/media/datasheets/BST-BME280-DS002.pdf" (id 3) (at 0 -5.08 0)
      (effects (font (size 1.27 1.27)) hide)
    )
    (property "ki_keywords" "Bosch pressure humidity temperature environment environmental measurement digital" (id 4) (at 0 0 0)
      (effects (font (size 1.27 1.27)) hide)
    )
    (property "ki_description" "3-in-1 sensor, humidity, pressure, temperature, I2C and SPI interface, 1.71-3.6V, LGA-8" (id 5) (at 0 0 0)
      (effects (font (size 1.27 1.27)) hide)
    )
    (property "ki_fp_filters" "*LGA*2.5x2.5mm*P0.65mm*Clockwise*" (id 6) (at 0 0 0)
      (effects (font (size 1.27 1.27)) hide)
    )
    (symbol "BME280_0_1"
      (rectangle (start -10.16 10.16) (end 10.16 -10.16)
        (stroke (width 0.254)) (fill (type background))
      )
    )
    (symbol "BME280_1_1"
      (pin power_in line (at -2.54 -15.24 90) (length 5.08)
        (name "GND" (effects (font (size 1.27 1.27))))
        (number "1" (effects (font (size 1.27 1.27))))
      )
      (pin input line (at 15.24 -7.62 180) (length 5.08)
        (name "CSB" (effects (font (size 1.27 1.27))))
        (number "2" (effects (font (size 1.27 1.27))))
      )
      (pin bidirectional line (at 15.24 -2.54 180) (length 5.08)
        (name "SDI" (effects (font (size 1.27 1.27))))
        (number "3" (effects (font (size 1.27 1.27))))
      )
      (pin input line (at 15.24 2.54 180) (length 5.08)
        (name "SCK" (effects (font (size 1.27 1.27))))
        (number "4" (effects (font (size 1.27 1.27))))
      )
      (pin bidirectional line (at 15.24 7.62 180) (length 5.08)
        (name "SDO" (effects (font (size 1.27 1.27))))
        (number "5" (effects (font (size 1.27 1.27))))
      )
      (pin power_in line (at -2.54 15.24 270) (length 5.08)
        (name "VDDIO" (effects (font (size 1.27 1.27))))
        (number "6" (effects (font (size 1.27 1.27))))
      )
      (pin power_in line (at 2.54 -15.24 90) (length 5.08)
        (name "GND" (effects (font (size 1.27 1.27))))
        (number "7" (effects (font (size 1.27 1.27))))
      )
      (pin power_in line (at 2.54 15.24 270) (length 5.08)
        (name "VDD" (effects (font (size 1.27 1.27))))
        (number "8" (effects (font (size 1.27 1.27))))
      )
    )
  )
  (symbol "Sensor:BME680" (in_bom yes) (on_board yes)
    (property "Reference" "U" (id 0) (at -8.89 11.43 0)
      (effects (font (size 1.27 1.27)))
    )
    (property "Value" "BME680" (id 1) (at 7.62 11.43 0)
      (effects (font (size 1.27 1.27)))
    )
    (property "Footprint" "Package_LGA:Bosch_LGA-8_3x3mm_P0.8mm_ClockwisePinNumbering" (id 2) (at 36.83 -11.43 0)
      (effects (font (size 1.27 1.27)) hide)
    )
    (property "Datasheet" "https://ae-bst.resource.bosch.com/media/_tech/media/datasheets/BST-BME680-DS001.pdf" (id 3) (at 0 -5.08 0)
      (effects (font (size 1.27 1.27)) hide)
    )
    (property "ki_keywords" "Bosch gas pressure humidity temperature environment environmental measurement digital" (id 4) (at 0 0 0)
      (effects (font (size 1.27 1.27)) hide)
    )
    (property "ki_description" "4-in-1 sensor, gas, humidity, pressure, temperature, I2C and SPI interface, 1.71-3.6V, LGA-8" (id 5) (at 0 0 0)
      (effects (font (size 1.27 1.27)) hide)
    )
    (property "ki_fp_filters" "*LGA*3x3mm*P0.8mm*Clockwise*" (id 6) (at 0 0 0)
      (effects (font (size 1.27 1.27)) hide)
    )
    (symbol "BME680_0_1"
      (rectangle (start -10.16 10.16) (end 10.16 -10.16)
        (stroke (width 0.254)) (fill (type background))
      )
    )
    (symbol "BME680_1_1"
      (pin power_in line (at -2.54 -15.24 90) (length 5.08)
        (name "GND" (effects (font (size 1.27 1.27))))
        (number "1" (effects (font (size 1.27 1.27))))
      )
      (pin input line (at 15.24 -7.62 180) (length 5.08)
        (name "CSB" (effects (font (size 1.27 1.27))))
        (number "2" (effects (font (size 1.27 1.27))))
      )
      (pin bidirectional line (at 15.24 -2.54 180) (length 5.08)
        (name "SDI" (effects (font (size 1.27 1.27))))
        (number "3" (effects (font (size 1.27 1.27))))
      )
      (pin input line (at 15.24 2.54 180) (length 5.08)
        (name "SCK" (effects (font (size 1.27 1.27))))
        (number "4" (effects (font (size 1.27 1.27))))
      )
      (pin bidirectional line (at 15.24 7.62 180) (length 5.08)
        (name "SDO" (effects (font (size 1.27 1.27))))
        (number "5" (effects (font (size 1.27 1.27))))
      )
      (pin power_in line (at -2.54 15.24 270) (length 5.08)
        (name "VDDIO" (effects (font (size 1.27 1.27))))
        (number "6" (effects (font (size 1.27 1.27))))
      )
      (pin power_in line (at 2.54 -15.24 90) (length 5.08)
        (name "GND" (effects (font (size 1.27 1.27))))
        (number "7" (effects (font (size 1.27 1.27))))
      )
      (pin power_in line (at 2.54 15.24 270) (length 5.08)
        (name "VDD" (effects (font (size 1.27 1.27))))
        (number "8" (effects (font (size 1.27 1.27))))
      )
    )
  )
  (symbol "Sensor:DHT11" (in_bom yes) (on_board yes)
    (property "Reference" "U" (id 0) (at -3.81 6.35 0)
      (effects (font (size 1.27 1.27)))
    )
    (property "Value" "DHT11" (id 1) (at 3.81 6.35 0)
      (effects (font (size 1.27 1.27)))
    )
    (property "Footprint" "Sensor:Aosong_DHT11_5.5x12.0_P2.54mm" (id 2) (at 0 -10.16 0)
      (effects (font (size 1.27 1.27)) hide)
    )
    (property "Datasheet" "http://akizukidenshi.com/download/ds/aosong/DHT11.pdf" (id 3) (at 3.81 6.35 0)
      (effects (font (size 1.27 1.27)) hide)
    )
    (property "ki_keywords" "Digital temperature humidity sensor" (id 4) (at 0 0 0)
      (effects (font (size 1.27 1.27)) hide)
    )
    (property "ki_description" "Temperature and humidity module" (id 5) (at 0 0 0)
      (effects (font (size 1.27 1.27)) hide)
    )
    (property "ki_fp_filters" "Aosong*DHT11*5.5x12.0*P2.54mm*" (id 6) (at 0 0 0)
      (effects (font (size 1.27 1.27)) hide)
    )
    (symbol "DHT11_0_1"
      (rectangle (start -5.08 5.08) (end 5.08 -5.08)
        (stroke (width 0.254)) (fill (type background))
      )
    )
    (symbol "DHT11_1_1"
      (pin power_in line (at 0 7.62 270) (length 2.54)
        (name "VCC" (effects (font (size 1.27 1.27))))
        (number "1" (effects (font (size 1.27 1.27))))
      )
      (pin bidirectional line (at 7.62 0 180) (length 2.54)
        (name "IO" (effects (font (size 1.27 1.27))))
        (number "2" (effects (font (size 1.27 1.27))))
      )
      (pin no_connect line (at -5.08 0 0) (length 2.54) hide
        (name "NC" (effects (font (size 1.27 1.27))))
        (number "3" (effects (font (size 1.27 1.27))))
      )
      (pin power_in line (at 0 -7.62 90) (length 2.54)
        (name "GND" (effects (font (size 1.27 1.27))))
        (number "4" (effects (font (size 1.27 1.27))))
      )
    )
  )
  (symbol "Sensor:CHT11" (extends "DHT11")
    (property "Reference" "U" (id 0) (at -3.81 6.35 0)
      (effects (font (size 1.27 1.27)))
    )
    (property "Value" "CHT11" (id 1) (at 3.81 6.35 0)
      (effects (font (size 1.27 1.27)))
    )
    (property "Footprint" "Sensor:Aosong_DHT11_5.5x12.0_P2.54mm" (id 2) (at 0 -10.16 0)
      (effects (font (size 1.27 1.27)) hide)
    )
    (property "Datasheet" "http://aosong.com/en/products-21.html" (id 3) (at 3.81 6.35 0)
      (effects (font (size 1.27 1.27)) hide)
    )
    (property "ki_keywords" "Digital temperature humidity sensor" (id 4) (at 0 0 0)
      (effects (font (size 1.27 1.27)) hide)
    )
    (property "ki_description" "Temperature and humidity module" (id 5) (at 0 0 0)
      (effects (font (size 1.27 1.27)) hide)
    )
    (property "ki_fp_filters" "Aosong*DHT11*5.5x12.0*P2.54mm*" (id 6) (at 0 0 0)
      (effects (font (size 1.27 1.27)) hide)
    )
  )
  (symbol "Sensor:INA260" (in_bom yes) (on_board yes)
    (property "Reference" "U" (id 0) (at -6.35 8.89 0)
      (effects (font (size 1.27 1.27)))
    )
    (property "Value" "INA260" (id 1) (at 2.54 8.89 0)
      (effects (font (size 1.27 1.27)) (justify left))
    )
    (property "Footprint" "Package_SO:TSSOP-16_4.4x5mm_P0.65mm" (id 2) (at 0 -15.24 0)
      (effects (font (size 1.27 1.27)) hide)
    )
    (property "Datasheet" "http://www.ti.com/lit/ds/symlink/ina260.pdf" (id 3) (at 0 -2.54 0)
      (effects (font (size 1.27 1.27)) hide)
    )
    (property "ki_keywords" "Current/power/voltage monitor" (id 4) (at 0 0 0)
      (effects (font (size 1.27 1.27)) hide)
    )
    (property "ki_description" "Current/power/voltage monitor with Integrated 2mΩ Shunt Resistor, 2.7V - 5.5V, I2C, TSSOP-16" (id 5) (at 0 0 0)
      (effects (font (size 1.27 1.27)) hide)
    )
    (property "ki_fp_filters" "TSSOP*4.4x5mm*P0.65mm*" (id 6) (at 0 0 0)
      (effects (font (size 1.27 1.27)) hide)
    )
    (symbol "INA260_0_1"
      (rectangle (start -7.62 7.62) (end 7.62 -7.62)
        (stroke (width 0.254)) (fill (type background))
      )
    )
    (symbol "INA260_1_1"
      (pin passive line (at -10.16 5.08 0) (length 2.54)
        (name "IN+" (effects (font (size 1.27 1.27))))
        (number "1" (effects (font (size 1.27 1.27))))
      )
      (pin power_in line (at 0 10.16 270) (length 2.54)
        (name "VS" (effects (font (size 1.27 1.27))))
        (number "10" (effects (font (size 1.27 1.27))))
      )
      (pin passive line (at 0 -10.16 90) (length 2.54) hide
        (name "GND" (effects (font (size 1.27 1.27))))
        (number "11" (effects (font (size 1.27 1.27))))
      )
      (pin passive line (at -10.16 2.54 0) (length 2.54)
        (name "VBUS" (effects (font (size 1.27 1.27))))
        (number "12" (effects (font (size 1.27 1.27))))
      )
      (pin no_connect line (at 2.54 -7.62 90) (length 2.54) hide
        (name "NC" (effects (font (size 1.27 1.27))))
        (number "13" (effects (font (size 1.27 1.27))))
      )
      (pin passive line (at -10.16 -5.08 0) (length 2.54)
        (name "IN-" (effects (font (size 1.27 1.27))))
        (number "14" (effects (font (size 1.27 1.27))))
      )
      (pin passive line (at -10.16 -5.08 0) (length 2.54) hide
        (name "IN-" (effects (font (size 1.27 1.27))))
        (number "15" (effects (font (size 1.27 1.27))))
      )
      (pin passive line (at -10.16 -5.08 0) (length 2.54) hide
        (name "IN-" (effects (font (size 1.27 1.27))))
        (number "16" (effects (font (size 1.27 1.27))))
      )
      (pin passive line (at -10.16 5.08 0) (length 2.54) hide
        (name "IN+" (effects (font (size 1.27 1.27))))
        (number "2" (effects (font (size 1.27 1.27))))
      )
      (pin passive line (at -10.16 5.08 0) (length 2.54) hide
        (name "IN+" (effects (font (size 1.27 1.27))))
        (number "3" (effects (font (size 1.27 1.27))))
      )
      (pin input line (at 10.16 -5.08 180) (length 2.54)
        (name "A1" (effects (font (size 1.27 1.27))))
        (number "4" (effects (font (size 1.27 1.27))))
      )
      (pin input line (at 10.16 -2.54 180) (length 2.54)
        (name "A0" (effects (font (size 1.27 1.27))))
        (number "5" (effects (font (size 1.27 1.27))))
      )
      (pin power_in line (at 0 -10.16 90) (length 2.54)
        (name "GND" (effects (font (size 1.27 1.27))))
        (number "6" (effects (font (size 1.27 1.27))))
      )
      (pin open_collector line (at 10.16 5.08 180) (length 2.54)
        (name "ALERT" (effects (font (size 1.27 1.27))))
        (number "7" (effects (font (size 1.27 1.27))))
      )
      (pin bidirectional line (at 10.16 0 180) (length 2.54)
        (name "SDA" (effects (font (size 1.27 1.27))))
        (number "8" (effects (font (size 1.27 1.27))))
      )
      (pin input line (at 10.16 2.54 180) (length 2.54)
        (name "SCL" (effects (font (size 1.27 1.27))))
        (number "9" (effects (font (size 1.27 1.27))))
      )
    )
  )
  (symbol "Sensor:LTC2990" (in_bom yes) (on_board yes)
    (property "Reference" "U" (id 0) (at -15.24 12.7 0)
      (effects (font (size 1.27 1.27)) (justify left))
    )
    (property "Value" "LTC2990" (id 1) (at 3.81 -12.7 0)
      (effects (font (size 1.27 1.27)) (justify left))
    )
    (property "Footprint" "Package_SO:MSOP-10_3x3mm_P0.5mm" (id 2) (at 0 0 0)
      (effects (font (size 1.27 1.27)) hide)
    )
    (property "Datasheet" "https://www.analog.com/media/en/technical-documentation/data-sheets/ltc2990.pdf" (id 3) (at -15.24 12.7 0)
      (effects (font (size 1.27 1.27)) hide)
    )
    (property "ki_keywords" "Temperature Voltage Current Monitor I2C AFE" (id 4) (at 0 0 0)
      (effects (font (size 1.27 1.27)) hide)
    )
    (property "ki_description" "Temperature Voltage and Current Monitor, I2C Interface, MSOP-10" (id 5) (at 0 0 0)
      (effects (font (size 1.27 1.27)) hide)
    )
    (property "ki_fp_filters" "MSOP*3x3mm*P0.5mm*" (id 6) (at 0 0 0)
      (effects (font (size 1.27 1.27)) hide)
    )
    (symbol "LTC2990_0_1"
      (rectangle (start -11.43 11.43) (end 11.43 -11.43)
        (stroke (width 0.254)) (fill (type background))
      )
    )
    (symbol "LTC2990_1_1"
      (pin passive line (at 0 15.24 270) (length 3.81)
        (name "V1" (effects (font (size 1.27 1.27))))
        (number "1" (effects (font (size 1.27 1.27))))
      )
      (pin power_in line (at 7.62 15.24 270) (length 3.81)
        (name "VCC" (effects (font (size 1.27 1.27))))
        (number "10" (effects (font (size 1.27 1.27))))
      )
      (pin passive line (at -7.62 15.24 270) (length 3.81)
        (name "V2" (effects (font (size 1.27 1.27))))
        (number "2" (effects (font (size 1.27 1.27))))
      )
      (pin passive line (at -15.24 5.08 0) (length 3.81)
        (name "V3" (effects (font (size 1.27 1.27))))
        (number "3" (effects (font (size 1.27 1.27))))
      )
      (pin passive line (at -15.24 -5.08 0) (length 3.81)
        (name "V4" (effects (font (size 1.27 1.27))))
        (number "4" (effects (font (size 1.27 1.27))))
      )
      (pin power_in line (at 0 -15.24 90) (length 3.81)
        (name "GND" (effects (font (size 1.27 1.27))))
        (number "5" (effects (font (size 1.27 1.27))))
      )
      (pin bidirectional line (at 15.24 2.54 180) (length 3.81)
        (name "SDA" (effects (font (size 1.27 1.27))))
        (number "6" (effects (font (size 1.27 1.27))))
      )
      (pin input line (at 15.24 0 180) (length 3.81)
        (name "SCL" (effects (font (size 1.27 1.27))))
        (number "7" (effects (font (size 1.27 1.27))))
      )
      (pin input line (at 15.24 -5.08 180) (length 3.81)
        (name "ADR0" (effects (font (size 1.27 1.27))))
        (number "8" (effects (font (size 1.27 1.27))))
      )
      (pin input line (at 15.24 -7.62 180) (length 3.81)
        (name "ADR1" (effects (font (size 1.27 1.27))))
        (number "9" (effects (font (size 1.27 1.27))))
      )
    )
  )
  (symbol "Sensor:MAX30102" (in_bom yes) (on_board yes)
    (property "Reference" "IC" (id 0) (at -11.43 12.7 0)
      (effects (font (size 1.27 1.27)))
    )
    (property "Value" "MAX30102" (id 1) (at -8.89 -11.43 0)
      (effects (font (size 1.27 1.27)))
    )
    (property "Footprint" "OptoDevice:Maxim_OLGA-14_3.3x5.6mm_P0.8mm" (id 2) (at -3.81 22.86 0)
      (effects (font (size 1.27 1.27)) hide)
    )
    (property "Datasheet" "https://datasheets.maximintegrated.com/en/ds/MAX30102.pdf" (id 3) (at -8.89 6.35 0)
      (effects (font (size 1.27 1.27)) hide)
    )
    (property "ki_keywords" "Heart Rate" (id 4) (at 0 0 0)
      (effects (font (size 1.27 1.27)) hide)
    )
    (property "ki_description" "Heart Rate Sensor, 14-OLGA" (id 5) (at 0 0 0)
      (effects (font (size 1.27 1.27)) hide)
    )
    (property "ki_fp_filters" "Maxim*OLGA*3.3x5.6mm*P0.8mm*" (id 6) (at 0 0 0)
      (effects (font (size 1.27 1.27)) hide)
    )
    (symbol "MAX30102_0_1"
      (rectangle (start -12.7 10.16) (end 12.7 -10.16)
        (stroke (width 0.254)) (fill (type background))
      )
    )
    (symbol "MAX30102_1_1"
      (pin no_connect line (at 10.16 10.16 180) (length 2.54) hide
        (name "NC" (effects (font (size 1.27 1.27))))
        (number "1" (effects (font (size 1.27 1.27))))
      )
      (pin power_in line (at -2.54 12.7 270) (length 2.54)
        (name "VLED+" (effects (font (size 1.27 1.27))))
        (number "10" (effects (font (size 1.27 1.27))))
      )
      (pin power_in line (at -7.62 12.7 270) (length 2.54)
        (name "VDD" (effects (font (size 1.27 1.27))))
        (number "11" (effects (font (size 1.27 1.27))))
      )
      (pin power_in line (at 2.54 -12.7 90) (length 2.54)
        (name "GND" (effects (font (size 1.27 1.27))))
        (number "12" (effects (font (size 1.27 1.27))))
      )
      (pin output line (at 15.24 0 180) (length 2.54)
        (name "~INT" (effects (font (size 1.27 1.27))))
        (number "13" (effects (font (size 1.27 1.27))))
      )
      (pin no_connect line (at 10.16 2.54 180) (length 2.54) hide
        (name "NC" (effects (font (size 1.27 1.27))))
        (number "14" (effects (font (size 1.27 1.27))))
      )
      (pin input line (at -15.24 2.54 0) (length 2.54)
        (name "SCL" (effects (font (size 1.27 1.27))))
        (number "2" (effects (font (size 1.27 1.27))))
      )
      (pin bidirectional line (at -15.24 0 0) (length 2.54)
        (name "SDA" (effects (font (size 1.27 1.27))))
        (number "3" (effects (font (size 1.27 1.27))))
      )
      (pin power_in line (at -2.54 -12.7 90) (length 2.54)
        (name "PGND" (effects (font (size 1.27 1.27))))
        (number "4" (effects (font (size 1.27 1.27))))
      )
      (pin output line (at 15.24 -7.62 180) (length 2.54)
        (name "R_DRV" (effects (font (size 1.27 1.27))))
        (number "5" (effects (font (size 1.27 1.27))))
      )
      (pin output line (at 15.24 -5.08 180) (length 2.54)
        (name "IR_DRV" (effects (font (size 1.27 1.27))))
        (number "6" (effects (font (size 1.27 1.27))))
      )
      (pin no_connect line (at 10.16 7.62 180) (length 2.54) hide
        (name "NC" (effects (font (size 1.27 1.27))))
        (number "7" (effects (font (size 1.27 1.27))))
      )
      (pin no_connect line (at 10.16 5.08 180) (length 2.54) hide
        (name "NC" (effects (font (size 1.27 1.27))))
        (number "8" (effects (font (size 1.27 1.27))))
      )
      (pin power_in line (at 0 12.7 270) (length 2.54)
        (name "VLED+" (effects (font (size 1.27 1.27))))
        (number "9" (effects (font (size 1.27 1.27))))
      )
    )
  )
  (symbol "Sensor:Nuclear-Radiation_Detector" (pin_names (offset 0) hide) (in_bom yes) (on_board yes)
    (property "Reference" "V" (id 0) (at 5.08 1.27 0)
      (effects (font (size 1.27 1.27)) (justify left))
    )
    (property "Value" "Nuclear-Radiation_Detector" (id 1) (at 5.08 -1.27 0)
      (effects (font (size 1.27 1.27)) (justify left))
    )
    (property "Footprint" "" (id 2) (at 5.08 2.54 0)
      (effects (font (size 1.27 1.27)) hide)
    )
    (property "Datasheet" "~" (id 3) (at 0 0 0)
      (effects (font (size 1.27 1.27)) hide)
    )
    (property "ki_keywords" "nuclear ionising radiation sensor geiger mueller muller tube neutron counter ionization chamber" (id 4) (at 0 0 0)
      (effects (font (size 1.27 1.27)) hide)
    )
    (property "ki_description" "Generic radiation detector" (id 5) (at 0 0 0)
      (effects (font (size 1.27 1.27)) hide)
    )
    (symbol "Nuclear-Radiation_Detector_0_0"
      (text "+" (at 2.032 3.175 0)
        (effects (font (size 1.27 1.27)))
      )
    )
    (symbol "Nuclear-Radiation_Detector_0_1"
      (arc (start -2.794 3.302) (end -3.302 3.81) (radius (at -3.175 3.429) (length 0.4064) (angles -18.4 108.4))
        (stroke (width 0)) (fill (type none))
      )
      (circle (center 0 0) (radius 2.8194) (stroke (width 0)) (fill (type none)))
      (circle (center 1.397 -0.889) (radius 0.254) (stroke (width 0)) (fill (type outline)))
      (polyline
        (pts
          (xy -1.143 -1.524)
          (xy 1.143 -1.524)
        )
        (stroke (width 0)) (fill (type none))
      )
      (polyline
        (pts
          (xy -1.143 1.524)
          (xy 1.143 1.524)
        )
        (stroke (width 0)) (fill (type none))
      )
      (polyline
        (pts
          (xy 0 -1.524)
          (xy 0 -2.54)
        )
        (stroke (width 0)) (fill (type none))
      )
      (polyline
        (pts
          (xy 0 2.54)
          (xy 0 1.524)
        )
        (stroke (width 0)) (fill (type none))
      )
      (polyline
        (pts
          (xy -2.54 3.556)
          (xy -3.048 3.048)
          (xy -2.032 2.54)
          (xy -2.54 3.556)
        )
        (stroke (width 0)) (fill (type outline))
      )
    )
    (symbol "Nuclear-Radiation_Detector_1_1"
      (arc (start -4.826 3.302) (end -5.334 3.81) (radius (at -5.207 3.429) (length 0.4064) (angles -18.4 108.4))
        (stroke (width 0)) (fill (type none))
      )
      (arc (start -4.826 3.302) (end -4.318 2.794) (radius (at -4.445 3.175) (length 0.4064) (angles 161.6 -71.6))
        (stroke (width 0)) (fill (type none))
      )
      (arc (start -3.81 2.286) (end -4.318 2.794) (radius (at -4.191 2.413) (length 0.4064) (angles -18.4 108.4))
        (stroke (width 0)) (fill (type none))
      )
      (arc (start -3.81 4.318) (end -4.318 4.826) (radius (at -4.191 4.445) (length 0.4064) (angles -18.4 108.4))
        (stroke (width 0)) (fill (type none))
      )
      (arc (start -3.81 4.318) (end -3.302 3.81) (radius (at -3.429 4.191) (length 0.4064) (angles 161.6 -71.6))
        (stroke (width 0)) (fill (type none))
      )
      (polyline
        (pts
          (xy -3.556 2.54)
          (xy -4.064 2.032)
          (xy -3.048 1.524)
          (xy -3.556 2.54)
        )
        (stroke (width 0)) (fill (type outline))
      )
      (pin passive line (at 0 5.08 270) (length 2.54)
        (name "1" (effects (font (size 1.27 1.27))))
        (number "1" (effects (font (size 1.27 1.27))))
      )
      (pin passive line (at 0 -5.08 90) (length 2.54)
        (name "2" (effects (font (size 1.27 1.27))))
        (number "2" (effects (font (size 1.27 1.27))))
      )
    )
  )
  (symbol "Sensor:SHT1x" (in_bom yes) (on_board yes)
    (property "Reference" "U" (id 0) (at 3.81 6.35 0)
      (effects (font (size 1.27 1.27)))
    )
    (property "Value" "SHT1x" (id 1) (at 2.54 -6.35 0)
      (effects (font (size 1.27 1.27)))
    )
    (property "Footprint" "Sensor:SHT1x" (id 2) (at 3.81 6.35 0)
      (effects (font (size 1.27 1.27)) hide)
    )
    (property "Datasheet" "https://www.sensirion.com/fileadmin/user_upload/customers/sensirion/Dokumente/0_Datasheets/Humidity/Sensirion_Humidity_Sensors_SHT1x_Datasheet.pdf" (id 3) (at 3.81 6.35 0)
      (effects (font (size 1.27 1.27)) hide)
    )
    (property "ki_keywords" "digital temperature humidity sensor" (id 4) (at 0 0 0)
      (effects (font (size 1.27 1.27)) hide)
    )
    (property "ki_description" "Temperature and humidity module" (id 5) (at 0 0 0)
      (effects (font (size 1.27 1.27)) hide)
    )
    (property "ki_fp_filters" "SHT1x*" (id 6) (at 0 0 0)
      (effects (font (size 1.27 1.27)) hide)
    )
    (symbol "SHT1x_0_1"
      (rectangle (start -5.08 5.08) (end 5.08 -5.08)
        (stroke (width 0.254)) (fill (type background))
      )
    )
    (symbol "SHT1x_1_1"
      (pin power_in line (at -2.54 -7.62 90) (length 2.54)
        (name "GND" (effects (font (size 1.27 1.27))))
        (number "1" (effects (font (size 1.27 1.27))))
      )
      (pin bidirectional line (at 7.62 2.54 180) (length 2.54)
        (name "DATA" (effects (font (size 1.27 1.27))))
        (number "2" (effects (font (size 1.27 1.27))))
      )
      (pin input line (at 7.62 -2.54 180) (length 2.54)
        (name "SCK" (effects (font (size 1.27 1.27))))
        (number "3" (effects (font (size 1.27 1.27))))
      )
      (pin power_in line (at -2.54 7.62 270) (length 2.54)
        (name "VDD" (effects (font (size 1.27 1.27))))
        (number "4" (effects (font (size 1.27 1.27))))
      )
    )
  )
)
