(kicad_symbol_lib (version 20201005) (generator kicad_symbol_editor)
  (symbol "Sensor_Magnetic:A1101ELHL" (in_bom yes) (on_board yes)
    (property "Reference" "U" (id 0) (at 0 11.43 0)
      (effects (font (size 1.27 1.27)) (justify left))
    )
    (property "Value" "A1101ELHL" (id 1) (at 0 8.89 0)
      (effects (font (size 1.27 1.27)) (justify left))
    )
    (property "Footprint" "Package_TO_SOT_SMD:SOT-23W" (id 2) (at 0 -8.89 0)
      (effects (font (size 1.27 1.27) italic) (justify left) hide)
    )
    (property "Datasheet" "https://www.allegromicro.com/-/media/files/datasheets/a110x-datasheet.ashx" (id 3) (at 0 16.51 0)
      (effects (font (size 1.27 1.27)) hide)
    )
    (property "ki_keywords" "hall switch" (id 4) (at 0 0 0)
      (effects (font (size 1.27 1.27)) hide)
    )
    (property "ki_description" "Hall effect switch, unipolar, Bop=100G, Brp=45G, -40C to +85C, SOT-23W" (id 5) (at 0 0 0)
      (effects (font (size 1.27 1.27)) hide)
    )
    (property "ki_fp_filters" "SOT?23*" (id 6) (at 0 0 0)
      (effects (font (size 1.27 1.27)) hide)
    )
    (symbol "A1101ELHL_0_1"
      (rectangle (start -5.08 7.62) (end 5.08 -7.62)
        (stroke (width 0.254)) (fill (type background))
      )
    )
    (symbol "A1101ELHL_1_1"
      (pin power_in line (at -2.54 10.16 270) (length 2.54)
        (name "VCC" (effects (font (size 1.27 1.27))))
        (number "1" (effects (font (size 1.27 1.27))))
      )
      (pin open_collector line (at 7.62 0 180) (length 2.54)
        (name "VOUT" (effects (font (size 1.27 1.27))))
        (number "2" (effects (font (size 1.27 1.27))))
      )
      (pin power_in line (at -2.54 -10.16 90) (length 2.54)
        (name "GND" (effects (font (size 1.27 1.27))))
        (number "3" (effects (font (size 1.27 1.27))))
      )
    )
  )
  (symbol "Sensor_Magnetic:A1101LLHL" (extends "A1101ELHL")
    (property "Reference" "U" (id 0) (at 0 11.43 0)
      (effects (font (size 1.27 1.27)) (justify left))
    )
    (property "Value" "A1101LLHL" (id 1) (at 0 8.89 0)
      (effects (font (size 1.27 1.27)) (justify left))
    )
    (property "Footprint" "Package_TO_SOT_SMD:SOT-23W" (id 2) (at 0 -8.89 0)
      (effects (font (size 1.27 1.27) italic) (justify left) hide)
    )
    (property "Datasheet" "https://www.allegromicro.com/-/media/files/datasheets/a110x-datasheet.ashx" (id 3) (at 0 16.51 0)
      (effects (font (size 1.27 1.27)) hide)
    )
    (property "ki_keywords" "hall switch" (id 4) (at 0 0 0)
      (effects (font (size 1.27 1.27)) hide)
    )
    (property "ki_description" "Hall effect switch, unipolar, Bop=100G, Brp=45G, -40C to +125C, SOT-23W" (id 5) (at 0 0 0)
      (effects (font (size 1.27 1.27)) hide)
    )
    (property "ki_fp_filters" "SOT?23*" (id 6) (at 0 0 0)
      (effects (font (size 1.27 1.27)) hide)
    )
  )
  (symbol "Sensor_Magnetic:A1102ELHL" (extends "A1101ELHL")
    (property "Reference" "U" (id 0) (at 0 11.43 0)
      (effects (font (size 1.27 1.27)) (justify left))
    )
    (property "Value" "A1102ELHL" (id 1) (at 0 8.89 0)
      (effects (font (size 1.27 1.27)) (justify left))
    )
    (property "Footprint" "Package_TO_SOT_SMD:SOT-23W" (id 2) (at 0 -8.89 0)
      (effects (font (size 1.27 1.27) italic) (justify left) hide)
    )
    (property "Datasheet" "https://www.allegromicro.com/-/media/files/datasheets/a110x-datasheet.ashx" (id 3) (at 0 16.51 0)
      (effects (font (size 1.27 1.27)) hide)
    )
    (property "ki_keywords" "hall switch" (id 4) (at 0 0 0)
      (effects (font (size 1.27 1.27)) hide)
    )
    (property "ki_description" "Hall effect switch, unipolar, Bop=180G, Brp=125G, -40C to +85C, SOT-23W" (id 5) (at 0 0 0)
      (effects (font (size 1.27 1.27)) hide)
    )
    (property "ki_fp_filters" "SOT?23*" (id 6) (at 0 0 0)
      (effects (font (size 1.27 1.27)) hide)
    )
  )
  (symbol "Sensor_Magnetic:A1102LLHL" (extends "A1101ELHL")
    (property "Reference" "U" (id 0) (at 0 11.43 0)
      (effects (font (size 1.27 1.27)) (justify left))
    )
    (property "Value" "A1102LLHL" (id 1) (at 0 8.89 0)
      (effects (font (size 1.27 1.27)) (justify left))
    )
    (property "Footprint" "Package_TO_SOT_SMD:SOT-23W" (id 2) (at 0 -8.89 0)
      (effects (font (size 1.27 1.27) italic) (justify left) hide)
    )
    (property "Datasheet" "https://www.allegromicro.com/-/media/files/datasheets/a110x-datasheet.ashx" (id 3) (at 0 16.51 0)
      (effects (font (size 1.27 1.27)) hide)
    )
    (property "ki_keywords" "hall switch" (id 4) (at 0 0 0)
      (effects (font (size 1.27 1.27)) hide)
    )
    (property "ki_description" "Hall effect switch, unipolar, Bop=180G, Brp=125G, -40C to +125C, SOT-23W" (id 5) (at 0 0 0)
      (effects (font (size 1.27 1.27)) hide)
    )
    (property "ki_fp_filters" "SOT?23*" (id 6) (at 0 0 0)
      (effects (font (size 1.27 1.27)) hide)
    )
  )
  (symbol "Sensor_Magnetic:A1103ELHL" (extends "A1101ELHL")
    (property "Reference" "U" (id 0) (at 0 11.43 0)
      (effects (font (size 1.27 1.27)) (justify left))
    )
    (property "Value" "A1103ELHL" (id 1) (at 0 8.89 0)
      (effects (font (size 1.27 1.27)) (justify left))
    )
    (property "Footprint" "Package_TO_SOT_SMD:SOT-23W" (id 2) (at 0 -8.89 0)
      (effects (font (size 1.27 1.27) italic) (justify left) hide)
    )
    (property "Datasheet" "https://www.allegromicro.com/-/media/files/datasheets/a110x-datasheet.ashx" (id 3) (at 0 16.51 0)
      (effects (font (size 1.27 1.27)) hide)
    )
    (property "ki_keywords" "hall switch" (id 4) (at 0 0 0)
      (effects (font (size 1.27 1.27)) hide)
    )
    (property "ki_description" "Hall effect switch, unipolar, Bop=280G, Brp=225G, -40C to +85C, SOT-23W" (id 5) (at 0 0 0)
      (effects (font (size 1.27 1.27)) hide)
    )
    (property "ki_fp_filters" "SOT?23*" (id 6) (at 0 0 0)
      (effects (font (size 1.27 1.27)) hide)
    )
  )
  (symbol "Sensor_Magnetic:A1103LLHL" (extends "A1101ELHL")
    (property "Reference" "U" (id 0) (at 0 11.43 0)
      (effects (font (size 1.27 1.27)) (justify left))
    )
    (property "Value" "A1103LLHL" (id 1) (at 0 8.89 0)
      (effects (font (size 1.27 1.27)) (justify left))
    )
    (property "Footprint" "Package_TO_SOT_SMD:SOT-23W" (id 2) (at 0 -8.89 0)
      (effects (font (size 1.27 1.27) italic) (justify left) hide)
    )
    (property "Datasheet" "https://www.allegromicro.com/-/media/files/datasheets/a110x-datasheet.ashx" (id 3) (at 0 16.51 0)
      (effects (font (size 1.27 1.27)) hide)
    )
    (property "ki_keywords" "hall switch" (id 4) (at 0 0 0)
      (effects (font (size 1.27 1.27)) hide)
    )
    (property "ki_description" "Hall effect switch, unipolar, Bop=280G, Brp=225G, -40C to +125C, SOT-23W" (id 5) (at 0 0 0)
      (effects (font (size 1.27 1.27)) hide)
    )
    (property "ki_fp_filters" "SOT?23*" (id 6) (at 0 0 0)
      (effects (font (size 1.27 1.27)) hide)
    )
  )
  (symbol "Sensor_Magnetic:A1104LLHL" (extends "A1101ELHL")
    (property "Reference" "U" (id 0) (at 0 11.43 0)
      (effects (font (size 1.27 1.27)) (justify left))
    )
    (property "Value" "A1104LLHL" (id 1) (at 0 8.89 0)
      (effects (font (size 1.27 1.27)) (justify left))
    )
    (property "Footprint" "Package_TO_SOT_SMD:SOT-23W" (id 2) (at 0 -8.89 0)
      (effects (font (size 1.27 1.27) italic) (justify left) hide)
    )
    (property "Datasheet" "https://www.allegromicro.com/-/media/files/datasheets/a110x-datasheet.ashx" (id 3) (at 0 16.51 0)
      (effects (font (size 1.27 1.27)) hide)
    )
    (property "ki_keywords" "hall switch" (id 4) (at 0 0 0)
      (effects (font (size 1.27 1.27)) hide)
    )
    (property "ki_description" "Hall effect switch, unipolar, Bop=240G, Brp=200G, -40C to +125C, SOT-23W" (id 5) (at 0 0 0)
      (effects (font (size 1.27 1.27)) hide)
    )
    (property "ki_fp_filters" "SOT?23*" (id 6) (at 0 0 0)
      (effects (font (size 1.27 1.27)) hide)
    )
  )
  (symbol "Sensor_Magnetic:A1106LLHL" (extends "A1101ELHL")
    (property "Reference" "U" (id 0) (at 0 11.43 0)
      (effects (font (size 1.27 1.27)) (justify left))
    )
    (property "Value" "A1106LLHL" (id 1) (at 0 8.89 0)
      (effects (font (size 1.27 1.27)) (justify left))
    )
    (property "Footprint" "Package_TO_SOT_SMD:SOT-23W" (id 2) (at 0 -8.89 0)
      (effects (font (size 1.27 1.27) italic) (justify left) hide)
    )
    (property "Datasheet" "https://www.allegromicro.com/-/media/files/datasheets/a110x-datasheet.ashx" (id 3) (at 0 16.51 0)
      (effects (font (size 1.27 1.27)) hide)
    )
    (property "ki_keywords" "hall switch" (id 4) (at 0 0 0)
      (effects (font (size 1.27 1.27)) hide)
    )
    (property "ki_description" "Hall effect switch, unipolar, Bop=340G, Brp=240G, -40C to +125C, SOT-23W" (id 5) (at 0 0 0)
      (effects (font (size 1.27 1.27)) hide)
    )
    (property "ki_fp_filters" "SOT?23*" (id 6) (at 0 0 0)
      (effects (font (size 1.27 1.27)) hide)
    )
  )
  (symbol "Sensor_Magnetic:A1301KLHLT-T" (in_bom yes) (on_board yes)
    (property "Reference" "U" (id 0) (at 0 11.43 0)
      (effects (font (size 1.27 1.27)) (justify left))
    )
    (property "Value" "A1301KLHLT-T" (id 1) (at 0 8.89 0)
      (effects (font (size 1.27 1.27)) (justify left))
    )
    (property "Footprint" "Package_TO_SOT_SMD:SOT-23W" (id 2) (at 0 -8.89 0)
      (effects (font (size 1.27 1.27) italic) (justify left) hide)
    )
    (property "Datasheet" "http://www.allegromicro.com/~/media/Files/Datasheets/A1301-2-Datasheet.ashx" (id 3) (at -2.54 0 0)
      (effects (font (size 1.27 1.27)) hide)
    )
    (property "ki_keywords" "hall switch" (id 4) (at 0 0 0)
      (effects (font (size 1.27 1.27)) hide)
    )
    (property "ki_description" "Linear Hall Effect Sensor, SOT-23W" (id 5) (at 0 0 0)
      (effects (font (size 1.27 1.27)) hide)
    )
    (property "ki_fp_filters" "SOT?23W*" (id 6) (at 0 0 0)
      (effects (font (size 1.27 1.27)) hide)
    )
    (symbol "A1301KLHLT-T_0_1"
      (rectangle (start -5.08 7.62) (end 5.08 -7.62)
        (stroke (width 0.254)) (fill (type background))
      )
    )
    (symbol "A1301KLHLT-T_1_1"
      (pin power_in line (at -2.54 10.16 270) (length 2.54)
        (name "VCC" (effects (font (size 1.27 1.27))))
        (number "1" (effects (font (size 1.27 1.27))))
      )
      (pin output line (at 7.62 0 180) (length 2.54)
        (name "VOUT" (effects (font (size 1.27 1.27))))
        (number "2" (effects (font (size 1.27 1.27))))
      )
      (pin power_in line (at -2.54 -10.16 90) (length 2.54)
        (name "GND" (effects (font (size 1.27 1.27))))
        (number "3" (effects (font (size 1.27 1.27))))
      )
    )
  )
  (symbol "Sensor_Magnetic:A1302ELHLT-T" (extends "A1301KLHLT-T")
    (property "Reference" "U" (id 0) (at 0 11.43 0)
      (effects (font (size 1.27 1.27)) (justify left))
    )
    (property "Value" "A1302ELHLT-T" (id 1) (at 0 8.89 0)
      (effects (font (size 1.27 1.27)) (justify left))
    )
    (property "Footprint" "Package_TO_SOT_SMD:SOT-23W" (id 2) (at 0 -8.89 0)
      (effects (font (size 1.27 1.27) italic) (justify left) hide)
    )
    (property "Datasheet" "http://www.allegromicro.com/~/media/Files/Datasheets/A1301-2-Datasheet.ashx" (id 3) (at -2.54 0 0)
      (effects (font (size 1.27 1.27)) hide)
    )
    (property "ki_keywords" "hall switch" (id 4) (at 0 0 0)
      (effects (font (size 1.27 1.27)) hide)
    )
    (property "ki_description" "Linear Hall Effect Sensor, SOT-23W" (id 5) (at 0 0 0)
      (effects (font (size 1.27 1.27)) hide)
    )
    (property "ki_fp_filters" "SOT?23W*" (id 6) (at 0 0 0)
      (effects (font (size 1.27 1.27)) hide)
    )
  )
  (symbol "Sensor_Magnetic:A1302KLHLT-T" (extends "A1301KLHLT-T")
    (property "Reference" "U" (id 0) (at 0 11.43 0)
      (effects (font (size 1.27 1.27)) (justify left))
    )
    (property "Value" "A1302KLHLT-T" (id 1) (at 0 8.89 0)
      (effects (font (size 1.27 1.27)) (justify left))
    )
    (property "Footprint" "Package_TO_SOT_SMD:SOT-23W" (id 2) (at 0 -8.89 0)
      (effects (font (size 1.27 1.27) italic) (justify left) hide)
    )
    (property "Datasheet" "http://www.allegromicro.com/~/media/Files/Datasheets/A1301-2-Datasheet.ashx" (id 3) (at -2.54 0 0)
      (effects (font (size 1.27 1.27)) hide)
    )
    (property "ki_keywords" "hall switch" (id 4) (at 0 0 0)
      (effects (font (size 1.27 1.27)) hide)
    )
    (property "ki_description" "Linear Hall Effect Sensor, SOT-23W" (id 5) (at 0 0 0)
      (effects (font (size 1.27 1.27)) hide)
    )
    (property "ki_fp_filters" "SOT?23W*" (id 6) (at 0 0 0)
      (effects (font (size 1.27 1.27)) hide)
    )
  )
  (symbol "Sensor_Magnetic:A3214ELHLT-T" (extends "A1301KLHLT-T")
    (property "Reference" "U" (id 0) (at 0 11.43 0)
      (effects (font (size 1.27 1.27)) (justify left))
    )
    (property "Value" "A3214ELHLT-T" (id 1) (at 0 8.89 0)
      (effects (font (size 1.27 1.27)) (justify left))
    )
    (property "Footprint" "Package_TO_SOT_SMD:SOT-23W" (id 2) (at 0 -8.89 0)
      (effects (font (size 1.27 1.27) italic) (justify left) hide)
    )
    (property "Datasheet" "http://www.allegromicro.com/~/media/Files/Datasheets/A3213-4-Datasheet.ashx" (id 3) (at -2.54 0 0)
      (effects (font (size 1.27 1.27)) hide)
    )
    (property "ki_keywords" "hall switch" (id 4) (at 0 0 0)
      (effects (font (size 1.27 1.27)) hide)
    )
    (property "ki_description" "Linear Hall Effect Sensor, SOT-23W" (id 5) (at 0 0 0)
      (effects (font (size 1.27 1.27)) hide)
    )
    (property "ki_fp_filters" "SOT?23W*" (id 6) (at 0 0 0)
      (effects (font (size 1.27 1.27)) hide)
    )
  )
  (symbol "Sensor_Magnetic:A1301KUA-T" (in_bom yes) (on_board yes)
    (property "Reference" "U" (id 0) (at 0 11.43 0)
      (effects (font (size 1.27 1.27)) (justify left))
    )
    (property "Value" "A1301KUA-T" (id 1) (at 0 8.89 0)
      (effects (font (size 1.27 1.27)) (justify left))
    )
    (property "Footprint" "" (id 2) (at 0 -8.89 0)
      (effects (font (size 1.27 1.27) italic) (justify left) hide)
    )
    (property "Datasheet" "http://www.allegromicro.com/~/media/Files/Datasheets/A1301-2-Datasheet.ashx" (id 3) (at -2.54 0 0)
      (effects (font (size 1.27 1.27)) hide)
    )
    (property "ki_keywords" "hall switch" (id 4) (at 0 0 0)
      (effects (font (size 1.27 1.27)) hide)
    )
    (property "ki_description" "Linear Hall Effect Sensor, SIP 3pin" (id 5) (at 0 0 0)
      (effects (font (size 1.27 1.27)) hide)
    )
    (symbol "A1301KUA-T_0_1"
      (rectangle (start -5.08 7.62) (end 5.08 -7.62)
        (stroke (width 0.254)) (fill (type background))
      )
    )
    (symbol "A1301KUA-T_1_1"
      (pin power_in line (at -2.54 10.16 270) (length 2.54)
        (name "VCC" (effects (font (size 1.27 1.27))))
        (number "1" (effects (font (size 1.27 1.27))))
      )
      (pin power_in line (at -2.54 -10.16 90) (length 2.54)
        (name "GND" (effects (font (size 1.27 1.27))))
        (number "2" (effects (font (size 1.27 1.27))))
      )
      (pin output line (at 7.62 0 180) (length 2.54)
        (name "VOUT" (effects (font (size 1.27 1.27))))
        (number "3" (effects (font (size 1.27 1.27))))
      )
    )
  )
  (symbol "Sensor_Magnetic:A1301EUA-T" (extends "A1301KUA-T")
    (property "Reference" "U" (id 0) (at 0 11.43 0)
      (effects (font (size 1.27 1.27)) (justify left))
    )
    (property "Value" "A1301EUA-T" (id 1) (at 0 8.89 0)
      (effects (font (size 1.27 1.27)) (justify left))
    )
    (property "Footprint" "" (id 2) (at 0 -8.89 0)
      (effects (font (size 1.27 1.27) italic) (justify left) hide)
    )
    (property "Datasheet" "http://www.allegromicro.com/~/media/Files/Datasheets/A1301-2-Datasheet.ashx" (id 3) (at -2.54 0 0)
      (effects (font (size 1.27 1.27)) hide)
    )
    (property "ki_keywords" "hall switch" (id 4) (at 0 0 0)
      (effects (font (size 1.27 1.27)) hide)
    )
    (property "ki_description" "Linear Hall Effect Sensor, SIP 3pin" (id 5) (at 0 0 0)
      (effects (font (size 1.27 1.27)) hide)
    )
  )
  (symbol "Sensor_Magnetic:A1302KUA-T" (extends "A1301KUA-T")
    (property "Reference" "U" (id 0) (at 0 11.43 0)
      (effects (font (size 1.27 1.27)) (justify left))
    )
    (property "Value" "A1302KUA-T" (id 1) (at 0 8.89 0)
      (effects (font (size 1.27 1.27)) (justify left))
    )
    (property "Footprint" "" (id 2) (at 0 -8.89 0)
      (effects (font (size 1.27 1.27) italic) (justify left) hide)
    )
    (property "Datasheet" "http://www.allegromicro.com/~/media/Files/Datasheets/A1301-2-Datasheet.ashx" (id 3) (at -2.54 0 0)
      (effects (font (size 1.27 1.27)) hide)
    )
    (property "ki_keywords" "hall switch" (id 4) (at 0 0 0)
      (effects (font (size 1.27 1.27)) hide)
    )
    (property "ki_description" "Linear Hall Effect Sensor, SIP 3pin" (id 5) (at 0 0 0)
      (effects (font (size 1.27 1.27)) hide)
    )
  )
  (symbol "Sensor_Magnetic:AH1806-P" (in_bom yes) (on_board yes)
    (property "Reference" "U" (id 0) (at -5.08 8.89 0)
      (effects (font (size 1.27 1.27)))
    )
    (property "Value" "AH1806-P" (id 1) (at 7.62 8.89 0)
      (effects (font (size 1.27 1.27)))
    )
    (property "Footprint" "" (id 2) (at 0 0 0)
      (effects (font (size 1.27 1.27)) hide)
    )
    (property "Datasheet" "https://www.diodes.com/assets/Datasheets/AH1806.pdf" (id 3) (at 0 0 0)
      (effects (font (size 1.27 1.27)) hide)
    )
    (property "ki_keywords" "hall switch" (id 4) (at 0 0 0)
      (effects (font (size 1.27 1.27)) hide)
    )
    (property "ki_description" "High Sensitivity Micropower Omnipolar Hall-Effect Switch, SIP-3" (id 5) (at 0 0 0)
      (effects (font (size 1.27 1.27)) hide)
    )
    (property "ki_fp_filters" "Diodes*SIP*4.1x1.5mm*P1.27mm* Diodes*SIP*4.1x1.5mm*P2.65mm*" (id 6) (at 0 0 0)
      (effects (font (size 1.27 1.27)) hide)
    )
    (symbol "AH1806-P_0_1"
      (rectangle (start 5.08 7.62) (end -5.08 -7.62)
        (stroke (width 0.254)) (fill (type background))
      )
    )
    (symbol "AH1806-P_1_1"
      (pin power_in line (at 0 10.16 270) (length 2.54)
        (name "VDD" (effects (font (size 1.27 1.27))))
        (number "1" (effects (font (size 1.27 1.27))))
      )
      (pin power_in line (at 0 -10.16 90) (length 2.54)
        (name "GND" (effects (font (size 1.27 1.27))))
        (number "2" (effects (font (size 1.27 1.27))))
      )
      (pin open_collector line (at 7.62 0 180) (length 2.54)
        (name "OUTPUT" (effects (font (size 1.27 1.27))))
        (number "3" (effects (font (size 1.27 1.27))))
      )
    )
  )
  (symbol "Sensor_Magnetic:AH1806-W" (in_bom yes) (on_board yes)
    (property "Reference" "U" (id 0) (at -5.08 8.89 0)
      (effects (font (size 1.27 1.27)))
    )
    (property "Value" "AH1806-W" (id 1) (at 7.62 8.89 0)
      (effects (font (size 1.27 1.27)))
    )
    (property "Footprint" "Package_TO_SOT_SMD:SC-59" (id 2) (at 13.97 -8.89 0)
      (effects (font (size 1.27 1.27)) hide)
    )
    (property "Datasheet" "https://www.diodes.com/assets/Datasheets/AH1806.pdf" (id 3) (at 0 0 0)
      (effects (font (size 1.27 1.27)) hide)
    )
    (property "ki_keywords" "hall switch" (id 4) (at 0 0 0)
      (effects (font (size 1.27 1.27)) hide)
    )
    (property "ki_description" "High Sensitivity Micropower Omnipolar Hall-Effect Switch, SC-59" (id 5) (at 0 0 0)
      (effects (font (size 1.27 1.27)) hide)
    )
    (property "ki_fp_filters" "SC?59*" (id 6) (at 0 0 0)
      (effects (font (size 1.27 1.27)) hide)
    )
    (symbol "AH1806-W_0_1"
      (rectangle (start 5.08 7.62) (end -5.08 -7.62)
        (stroke (width 0.254)) (fill (type background))
      )
    )
    (symbol "AH1806-W_1_1"
      (pin power_in line (at 0 10.16 270) (length 2.54)
        (name "VDD" (effects (font (size 1.27 1.27))))
        (number "1" (effects (font (size 1.27 1.27))))
      )
      (pin power_in line (at 0 -10.16 90) (length 2.54)
        (name "GND" (effects (font (size 1.27 1.27))))
        (number "3" (effects (font (size 1.27 1.27))))
      )
      (pin open_collector line (at 7.62 0 180) (length 2.54)
        (name "OUTPUT" (effects (font (size 1.27 1.27))))
        (number "2" (effects (font (size 1.27 1.27))))
      )
    )
  )
  (symbol "Sensor_Magnetic:AH1806-Z" (in_bom yes) (on_board yes)
    (property "Reference" "U" (id 0) (at -5.08 8.89 0)
      (effects (font (size 1.27 1.27)))
    )
    (property "Value" "AH1806-Z" (id 1) (at 7.62 8.89 0)
      (effects (font (size 1.27 1.27)))
    )
    (property "Footprint" "Package_TO_SOT_SMD:SOT-553" (id 2) (at 15.24 -8.89 0)
      (effects (font (size 1.27 1.27)) hide)
    )
    (property "Datasheet" "https://www.diodes.com/assets/Datasheets/AH1806.pdf" (id 3) (at 0 0 0)
      (effects (font (size 1.27 1.27)) hide)
    )
    (property "ki_keywords" "hall switch" (id 4) (at 0 0 0)
      (effects (font (size 1.27 1.27)) hide)
    )
    (property "ki_description" "High Sensitivity Micropower Omnipolar Hall-Effect Switch, SOT-553" (id 5) (at 0 0 0)
      (effects (font (size 1.27 1.27)) hide)
    )
    (property "ki_fp_filters" "SOT*553*" (id 6) (at 0 0 0)
      (effects (font (size 1.27 1.27)) hide)
    )
    (symbol "AH1806-Z_0_1"
      (rectangle (start 5.08 7.62) (end -5.08 -7.62)
        (stroke (width 0.254)) (fill (type background))
      )
    )
    (symbol "AH1806-Z_1_1"
      (pin no_connect line (at 5.08 2.54 180) (length 2.54) hide
        (name "NC" (effects (font (size 1.27 1.27))))
        (number "1" (effects (font (size 1.27 1.27))))
      )
      (pin power_in line (at 0 -10.16 90) (length 2.54)
        (name "GND" (effects (font (size 1.27 1.27))))
        (number "2" (effects (font (size 1.27 1.27))))
      )
      (pin no_connect line (at 5.08 -2.54 180) (length 2.54) hide
        (name "NC" (effects (font (size 1.27 1.27))))
        (number "3" (effects (font (size 1.27 1.27))))
      )
      (pin power_in line (at 0 10.16 270) (length 2.54)
        (name "VDD" (effects (font (size 1.27 1.27))))
        (number "4" (effects (font (size 1.27 1.27))))
      )
      (pin open_collector line (at 7.62 0 180) (length 2.54)
        (name "OUTPUT" (effects (font (size 1.27 1.27))))
        (number "5" (effects (font (size 1.27 1.27))))
      )
    )
  )
  (symbol "Sensor_Magnetic:AK7452" (in_bom yes) (on_board yes)
    (property "Reference" "U" (id 0) (at -10.16 11.43 0)
      (effects (font (size 1.27 1.27)) (justify left))
    )
    (property "Value" "AK7452" (id 1) (at 10.16 11.43 0)
      (effects (font (size 1.27 1.27)) (justify right))
    )
    (property "Footprint" "Package_SO:TSSOP-16_4.4x5mm_P0.65mm" (id 2) (at 0 -24.13 0)
      (effects (font (size 1.27 1.27)) hide)
    )
    (property "Datasheet" "https://www.akm.com/akm/en/file/datasheet/AK7452.pdf" (id 3) (at -54.61 40.64 0)
      (effects (font (size 1.27 1.27)) hide)
    )
    (property "ki_keywords" "sensor magnetic hall position rotation spi" (id 4) (at 0 0 0)
      (effects (font (size 1.27 1.27)) hide)
    )
    (property "ki_description" "Magnetic rotary angle sensor, 14-bit, SPI interface, ABZ, UVW, TSSOP-16" (id 5) (at 0 0 0)
      (effects (font (size 1.27 1.27)) hide)
    )
    (property "ki_fp_filters" "TSSOP*4.4x5mm*P0.65mm*" (id 6) (at 0 0 0)
      (effects (font (size 1.27 1.27)) hide)
    )
    (symbol "AK7452_0_1"
      (arc (start -2.794 0) (end 2.794 0) (radius (at 0 0) (length 2.794) (angles -179.9 -0.1))
        (stroke (width 0.254)) (fill (type none))
      )
      (rectangle (start -10.16 10.16) (end 10.16 -10.16)
        (stroke (width 0.254)) (fill (type background))
      )
      (polyline
        (pts
          (xy -2.794 0)
          (xy -3.302 -0.508)
        )
        (stroke (width 0.254)) (fill (type none))
      )
      (polyline
        (pts
          (xy -2.794 0)
          (xy -2.286 -0.508)
        )
        (stroke (width 0.254)) (fill (type none))
      )
      (polyline
        (pts
          (xy 2.794 0)
          (xy 2.286 -0.508)
        )
        (stroke (width 0.254)) (fill (type none))
      )
      (polyline
        (pts
          (xy 2.794 0)
          (xy 3.302 -0.508)
        )
        (stroke (width 0.254)) (fill (type none))
      )
    )
    (symbol "AK7452_1_1"
      (circle (center 0 0) (radius 2.032) (stroke (width 0.254)) (fill (type none)))
      (polyline
        (pts
          (xy 0.254 0.254)
          (xy 1.27 -0.762)
          (xy 0.762 -1.27)
          (xy -0.254 -0.254)
        )
        (stroke (width 0)) (fill (type none))
      )
      (polyline
        (pts
          (xy -0.762 1.27)
          (xy 0.254 0.254)
          (xy -0.254 -0.254)
          (xy -1.27 0.762)
          (xy -1.016 1.016)
          (xy -0.762 1.27)
          (xy -0.635 1.143)
        )
        (stroke (width 0)) (fill (type outline))
      )
      (pin output line (at 12.7 7.62 180) (length 2.54)
        (name "U" (effects (font (size 1.27 1.27))))
        (number "1" (effects (font (size 1.27 1.27))))
      )
      (pin no_connect line (at 7.62 -10.16 90) (length 2.54) hide
        (name "NC" (effects (font (size 1.27 1.27))))
        (number "10" (effects (font (size 1.27 1.27))))
      )
      (pin passive line (at 2.54 -12.7 90) (length 2.54)
        (name "TESTE" (effects (font (size 1.27 1.27))))
        (number "11" (effects (font (size 1.27 1.27))))
      )
      (pin power_in line (at 0 -12.7 90) (length 2.54)
        (name "VSS" (effects (font (size 1.27 1.27))))
        (number "12" (effects (font (size 1.27 1.27))))
      )
      (pin output line (at -12.7 -5.08 0) (length 2.54)
        (name "ERROR" (effects (font (size 1.27 1.27))))
        (number "13" (effects (font (size 1.27 1.27))))
      )
      (pin output line (at 12.7 -7.62 180) (length 2.54)
        (name "Z" (effects (font (size 1.27 1.27))))
        (number "14" (effects (font (size 1.27 1.27))))
      )
      (pin output line (at 12.7 -5.08 180) (length 2.54)
        (name "B" (effects (font (size 1.27 1.27))))
        (number "15" (effects (font (size 1.27 1.27))))
      )
      (pin output line (at 12.7 -2.54 180) (length 2.54)
        (name "A" (effects (font (size 1.27 1.27))))
        (number "16" (effects (font (size 1.27 1.27))))
      )
      (pin output line (at 12.7 5.08 180) (length 2.54)
        (name "V" (effects (font (size 1.27 1.27))))
        (number "2" (effects (font (size 1.27 1.27))))
      )
      (pin output line (at 12.7 2.54 180) (length 2.54)
        (name "W" (effects (font (size 1.27 1.27))))
        (number "3" (effects (font (size 1.27 1.27))))
      )
      (pin no_connect line (at 5.08 -10.16 90) (length 2.54) hide
        (name "NC" (effects (font (size 1.27 1.27))))
        (number "4" (effects (font (size 1.27 1.27))))
      )
      (pin output line (at -12.7 5.08 0) (length 2.54)
        (name "MISO" (effects (font (size 1.27 1.27))))
        (number "5" (effects (font (size 1.27 1.27))))
      )
      (pin input line (at -12.7 7.62 0) (length 2.54)
        (name "MOSI" (effects (font (size 1.27 1.27))))
        (number "6" (effects (font (size 1.27 1.27))))
      )
      (pin input line (at -12.7 2.54 0) (length 2.54)
        (name "SCLK" (effects (font (size 1.27 1.27))))
        (number "7" (effects (font (size 1.27 1.27))))
      )
      (pin input line (at -12.7 0 0) (length 2.54)
        (name "~CSN" (effects (font (size 1.27 1.27))))
        (number "8" (effects (font (size 1.27 1.27))))
      )
      (pin power_in line (at 0 12.7 270) (length 2.54)
        (name "VDD" (effects (font (size 1.27 1.27))))
        (number "9" (effects (font (size 1.27 1.27))))
      )
    )
  )
  (symbol "Sensor_Magnetic:AS5045B" (in_bom yes) (on_board yes)
    (property "Reference" "U" (id 0) (at -10.16 11.43 0)
      (effects (font (size 1.27 1.27)) (justify left))
    )
    (property "Value" "AS5045B" (id 1) (at 11.43 11.43 0)
      (effects (font (size 1.27 1.27)) (justify right))
    )
    (property "Footprint" "Package_SO:SSOP-16_5.3x6.2mm_P0.65mm" (id 2) (at 3.81 -11.43 0)
      (effects (font (size 1.27 1.27)) (justify left) hide)
    )
    (property "Datasheet" "https://ams.com/documents/20143/36005/AS5045B_DS000397_2-00.pdf" (id 3) (at -54.61 40.64 0)
      (effects (font (size 1.27 1.27)) hide)
    )
    (property "ki_keywords" "Magnetic Hall Encoder" (id 4) (at 0 0 0)
      (effects (font (size 1.27 1.27)) hide)
    )
    (property "ki_description" "Magnetic Position Sensor, 12-bit, PWM Output, ABI Output, SPI Interface, SSOP-16" (id 5) (at 0 0 0)
      (effects (font (size 1.27 1.27)) hide)
    )
    (property "ki_fp_filters" "SSOP*5.3x6.2mm*P0.65mm*" (id 6) (at 0 0 0)
      (effects (font (size 1.27 1.27)) hide)
    )
    (symbol "AS5045B_0_1"
      (arc (start -2.794 0) (end 2.794 0) (radius (at 0 0) (length 2.794) (angles -179.9 -0.1))
        (stroke (width 0.254)) (fill (type none))
      )
      (circle (center 0 0) (radius 2.032) (stroke (width 0.254)) (fill (type none)))
      (rectangle (start -10.16 10.16) (end 10.16 -10.16)
        (stroke (width 0.254)) (fill (type background))
      )
      (polyline
        (pts
          (xy -2.794 0)
          (xy -3.302 -0.508)
        )
        (stroke (width 0.254)) (fill (type none))
      )
      (polyline
        (pts
          (xy -2.794 0)
          (xy -2.286 -0.508)
        )
        (stroke (width 0.254)) (fill (type none))
      )
      (polyline
        (pts
          (xy 2.794 0)
          (xy 2.286 -0.508)
        )
        (stroke (width 0.254)) (fill (type none))
      )
      (polyline
        (pts
          (xy 2.794 0)
          (xy 3.302 -0.508)
        )
        (stroke (width 0.254)) (fill (type none))
      )
      (polyline
        (pts
          (xy 0.254 0.254)
          (xy 1.27 -0.762)
          (xy 0.762 -1.27)
          (xy -0.254 -0.254)
        )
        (stroke (width 0)) (fill (type none))
      )
      (polyline
        (pts
          (xy -0.762 1.27)
          (xy 0.254 0.254)
          (xy -0.254 -0.254)
          (xy -1.27 0.762)
          (xy -1.016 1.016)
          (xy -0.762 1.27)
          (xy -0.635 1.143)
        )
        (stroke (width 0)) (fill (type outline))
      )
    )
    (symbol "AS5045B_1_1"
      (pin open_collector line (at -12.7 -5.08 0) (length 2.54)
        (name "MagINCn" (effects (font (size 1.27 1.27))))
        (number "1" (effects (font (size 1.27 1.27))))
      )
      (pin input line (at 12.7 2.54 180) (length 2.54)
        (name "CLK" (effects (font (size 1.27 1.27))))
        (number "10" (effects (font (size 1.27 1.27))))
      )
      (pin input line (at 12.7 0 180) (length 2.54)
        (name "CSn" (effects (font (size 1.27 1.27))))
        (number "11" (effects (font (size 1.27 1.27))))
      )
      (pin output line (at 12.7 -7.62 180) (length 2.54)
        (name "PWM" (effects (font (size 1.27 1.27))))
        (number "12" (effects (font (size 1.27 1.27))))
      )
      (pin no_connect line (at 10.16 -5.08 180) (length 2.54) hide
        (name "NC" (effects (font (size 1.27 1.27))))
        (number "13" (effects (font (size 1.27 1.27))))
      )
      (pin no_connect line (at 2.54 -10.16 90) (length 2.54) hide
        (name "NC" (effects (font (size 1.27 1.27))))
        (number "14" (effects (font (size 1.27 1.27))))
      )
      (pin power_in line (at -2.54 12.7 270) (length 2.54)
        (name "VDD3V3" (effects (font (size 1.27 1.27))))
        (number "15" (effects (font (size 1.27 1.27))))
      )
      (pin power_in line (at 0 12.7 270) (length 2.54)
        (name "VDD5V" (effects (font (size 1.27 1.27))))
        (number "16" (effects (font (size 1.27 1.27))))
      )
      (pin open_collector line (at -12.7 -7.62 0) (length 2.54)
        (name "MagDECn" (effects (font (size 1.27 1.27))))
        (number "2" (effects (font (size 1.27 1.27))))
      )
      (pin output line (at -12.7 7.62 0) (length 2.54)
        (name "A" (effects (font (size 1.27 1.27))))
        (number "3" (effects (font (size 1.27 1.27))))
      )
      (pin output line (at -12.7 5.08 0) (length 2.54)
        (name "B" (effects (font (size 1.27 1.27))))
        (number "4" (effects (font (size 1.27 1.27))))
      )
      (pin no_connect line (at 10.16 -2.54 180) (length 2.54) hide
        (name "NC" (effects (font (size 1.27 1.27))))
        (number "5" (effects (font (size 1.27 1.27))))
      )
      (pin output line (at -12.7 2.54 0) (length 2.54)
        (name "I" (effects (font (size 1.27 1.27))))
        (number "6" (effects (font (size 1.27 1.27))))
      )
      (pin power_in line (at 0 -12.7 90) (length 2.54)
        (name "VSS" (effects (font (size 1.27 1.27))))
        (number "7" (effects (font (size 1.27 1.27))))
      )
      (pin input line (at 12.7 7.62 180) (length 2.54)
        (name "PDIO" (effects (font (size 1.27 1.27))))
        (number "8" (effects (font (size 1.27 1.27))))
      )
      (pin output line (at 12.7 5.08 180) (length 2.54)
        (name "DO" (effects (font (size 1.27 1.27))))
        (number "9" (effects (font (size 1.27 1.27))))
      )
    )
  )
  (symbol "Sensor_Magnetic:AS5047D" (in_bom yes) (on_board yes)
    (property "Reference" "U" (id 0) (at -8.89 11.43 0)
      (effects (font (size 1.27 1.27)))
    )
    (property "Value" "AS5047D" (id 1) (at 5.08 11.43 0)
      (effects (font (size 1.27 1.27)))
    )
    (property "Footprint" "Package_SO:TSSOP-14_4.4x5mm_P0.65mm" (id 2) (at 0 -15.24 0)
      (effects (font (size 1.27 1.27)) hide)
    )
    (property "Datasheet" "https://ams.com/documents/20143/36005/AS5047D_DS000394_2-00.pdf" (id 3) (at -19.05 -13.97 0)
      (effects (font (size 1.27 1.27)) hide)
    )
    (property "ki_keywords" "Magnetic Hall Sensor" (id 4) (at 0 0 0)
      (effects (font (size 1.27 1.27)) hide)
    )
    (property "ki_description" "On-Axis Magnetic Position Sensor, 14-bit, PWM Output, ABI Output, UVW Output, SPI Interface, TSSOP-14" (id 5) (at 0 0 0)
      (effects (font (size 1.27 1.27)) hide)
    )
    (property "ki_fp_filters" "TSSOP*4.4x5mm*P0.65mm*" (id 6) (at 0 0 0)
      (effects (font (size 1.27 1.27)) hide)
    )
    (symbol "AS5047D_1_1"
      (arc (start -2.794 0) (end 2.794 0) (radius (at 0 0) (length 2.794) (angles -179.9 -0.1))
        (stroke (width 0.254)) (fill (type none))
      )
      (circle (center 0 0) (radius 2.032) (stroke (width 0.254)) (fill (type none)))
      (rectangle (start -10.16 10.16) (end 10.16 -10.16)
        (stroke (width 0.254)) (fill (type background))
      )
      (polyline
        (pts
          (xy -2.794 0)
          (xy -3.302 -0.508)
        )
        (stroke (width 0.254)) (fill (type none))
      )
      (polyline
        (pts
          (xy -2.794 0)
          (xy -2.286 -0.508)
        )
        (stroke (width 0.254)) (fill (type none))
      )
      (polyline
        (pts
          (xy 2.794 0)
          (xy 2.286 -0.508)
        )
        (stroke (width 0.254)) (fill (type none))
      )
      (polyline
        (pts
          (xy 2.794 0)
          (xy 3.302 -0.508)
        )
        (stroke (width 0.254)) (fill (type none))
      )
      (polyline
        (pts
          (xy 0.254 0.254)
          (xy 1.27 -0.762)
          (xy 0.762 -1.27)
          (xy -0.254 -0.254)
        )
        (stroke (width 0)) (fill (type none))
      )
      (polyline
        (pts
          (xy -0.762 1.27)
          (xy 0.254 0.254)
          (xy -0.254 -0.254)
          (xy -1.27 0.762)
          (xy -1.016 1.016)
          (xy -0.762 1.27)
          (xy -0.635 1.143)
        )
        (stroke (width 0)) (fill (type outline))
      )
      (pin input line (at -12.7 0 0) (length 2.54)
        (name "~CS" (effects (font (size 1.27 1.27))))
        (number "1" (effects (font (size 1.27 1.27))))
      )
      (pin output line (at 12.7 -2.54 180) (length 2.54)
        (name "U" (effects (font (size 1.27 1.27))))
        (number "10" (effects (font (size 1.27 1.27))))
      )
      (pin power_in line (at 0 12.7 270) (length 2.54)
        (name "VDD" (effects (font (size 1.27 1.27))))
        (number "11" (effects (font (size 1.27 1.27))))
      )
      (pin power_out line (at -12.7 -5.08 0) (length 2.54)
        (name "VDD3V3" (effects (font (size 1.27 1.27))))
        (number "12" (effects (font (size 1.27 1.27))))
      )
      (pin power_in line (at 0 -12.7 90) (length 2.54)
        (name "GND" (effects (font (size 1.27 1.27))))
        (number "13" (effects (font (size 1.27 1.27))))
      )
      (pin output line (at 12.7 2.54 180) (length 2.54)
        (name "I/PWM" (effects (font (size 1.27 1.27))))
        (number "14" (effects (font (size 1.27 1.27))))
      )
      (pin input line (at -12.7 2.54 0) (length 2.54)
        (name "CLK" (effects (font (size 1.27 1.27))))
        (number "2" (effects (font (size 1.27 1.27))))
      )
      (pin output line (at -12.7 5.08 0) (length 2.54)
        (name "MISO" (effects (font (size 1.27 1.27))))
        (number "3" (effects (font (size 1.27 1.27))))
      )
      (pin input line (at -12.7 7.62 0) (length 2.54)
        (name "MOSI" (effects (font (size 1.27 1.27))))
        (number "4" (effects (font (size 1.27 1.27))))
      )
      (pin input line (at -12.7 -7.62 0) (length 2.54)
        (name "TST" (effects (font (size 1.27 1.27))))
        (number "5" (effects (font (size 1.27 1.27))))
      )
      (pin output line (at 12.7 5.08 180) (length 2.54)
        (name "B" (effects (font (size 1.27 1.27))))
        (number "6" (effects (font (size 1.27 1.27))))
      )
      (pin output line (at 12.7 7.62 180) (length 2.54)
        (name "A" (effects (font (size 1.27 1.27))))
        (number "7" (effects (font (size 1.27 1.27))))
      )
      (pin output line (at 12.7 -7.62 180) (length 2.54)
        (name "W/PWM" (effects (font (size 1.27 1.27))))
        (number "8" (effects (font (size 1.27 1.27))))
      )
      (pin output line (at 12.7 -5.08 180) (length 2.54)
        (name "V" (effects (font (size 1.27 1.27))))
        (number "9" (effects (font (size 1.27 1.27))))
      )
    )
  )
  (symbol "Sensor_Magnetic:AS5048A" (in_bom yes) (on_board yes)
    (property "Reference" "U" (id 0) (at -10.16 11.43 0)
      (effects (font (size 1.27 1.27)) (justify left))
    )
    (property "Value" "AS5048A" (id 1) (at 10.16 11.43 0)
      (effects (font (size 1.27 1.27)) (justify right))
    )
    (property "Footprint" "Package_SO:TSSOP-14_4.4x5mm_P0.65mm" (id 2) (at 0 -19.05 0)
      (effects (font (size 1.27 1.27)) hide)
    )
    (property "Datasheet" "https://ams.com/documents/20143/36005/AS5048_DS000298_4-00.pdf" (id 3) (at -54.61 40.64 0)
      (effects (font (size 1.27 1.27)) hide)
    )
    (property "ki_keywords" "sensor magnetic hall position rotation spi" (id 4) (at 0 0 0)
      (effects (font (size 1.27 1.27)) hide)
    )
    (property "ki_description" "Magnetic position sensor, 14-bit, PWM output, SPI Interface, TSSOP-14" (id 5) (at 0 0 0)
      (effects (font (size 1.27 1.27)) hide)
    )
    (property "ki_fp_filters" "TSSOP*4.4x5mm*P0.65mm*" (id 6) (at 0 0 0)
      (effects (font (size 1.27 1.27)) hide)
    )
    (symbol "AS5048A_0_1"
      (arc (start -2.794 0) (end 2.794 0) (radius (at 0 0) (length 2.794) (angles -179.9 -0.1))
        (stroke (width 0.254)) (fill (type none))
      )
      (rectangle (start -10.16 10.16) (end 10.16 -10.16)
        (stroke (width 0.254)) (fill (type background))
      )
      (polyline
        (pts
          (xy -2.794 0)
          (xy -3.302 -0.508)
        )
        (stroke (width 0.254)) (fill (type none))
      )
      (polyline
        (pts
          (xy -2.794 0)
          (xy -2.286 -0.508)
        )
        (stroke (width 0.254)) (fill (type none))
      )
      (polyline
        (pts
          (xy 2.794 0)
          (xy 2.286 -0.508)
        )
        (stroke (width 0.254)) (fill (type none))
      )
      (polyline
        (pts
          (xy 2.794 0)
          (xy 3.302 -0.508)
        )
        (stroke (width 0.254)) (fill (type none))
      )
    )
    (symbol "AS5048A_1_1"
      (circle (center 0 0) (radius 2.032) (stroke (width 0.254)) (fill (type none)))
      (polyline
        (pts
          (xy 0.254 0.254)
          (xy 1.27 -0.762)
          (xy 0.762 -1.27)
          (xy -0.254 -0.254)
        )
        (stroke (width 0)) (fill (type none))
      )
      (polyline
        (pts
          (xy -0.762 1.27)
          (xy 0.254 0.254)
          (xy -0.254 -0.254)
          (xy -1.27 0.762)
          (xy -1.016 1.016)
          (xy -0.762 1.27)
          (xy -0.635 1.143)
        )
        (stroke (width 0)) (fill (type outline))
      )
      (pin input line (at -12.7 0 0) (length 2.54)
        (name "~CSn" (effects (font (size 1.27 1.27))))
        (number "1" (effects (font (size 1.27 1.27))))
      )
      (pin passive line (at 5.08 -12.7 90) (length 2.54)
        (name "TEST" (effects (font (size 1.27 1.27))))
        (number "10" (effects (font (size 1.27 1.27))))
      )
      (pin power_in line (at 0 12.7 270) (length 2.54)
        (name "VDD5V" (effects (font (size 1.27 1.27))))
        (number "11" (effects (font (size 1.27 1.27))))
      )
      (pin power_in line (at -2.54 12.7 270) (length 2.54)
        (name "VDD3V" (effects (font (size 1.27 1.27))))
        (number "12" (effects (font (size 1.27 1.27))))
      )
      (pin power_in line (at 7.62 -12.7 90) (length 2.54)
        (name "GND" (effects (font (size 1.27 1.27))))
        (number "13" (effects (font (size 1.27 1.27))))
      )
      (pin output line (at 12.7 0 180) (length 2.54)
        (name "PWM" (effects (font (size 1.27 1.27))))
        (number "14" (effects (font (size 1.27 1.27))))
      )
      (pin input line (at -12.7 2.54 0) (length 2.54)
        (name "CLK" (effects (font (size 1.27 1.27))))
        (number "2" (effects (font (size 1.27 1.27))))
      )
      (pin output line (at -12.7 5.08 0) (length 2.54)
        (name "MISO" (effects (font (size 1.27 1.27))))
        (number "3" (effects (font (size 1.27 1.27))))
      )
      (pin input line (at -12.7 7.62 0) (length 2.54)
        (name "MOSI" (effects (font (size 1.27 1.27))))
        (number "4" (effects (font (size 1.27 1.27))))
      )
      (pin passive line (at -7.62 -12.7 90) (length 2.54)
        (name "TEST" (effects (font (size 1.27 1.27))))
        (number "5" (effects (font (size 1.27 1.27))))
      )
      (pin passive line (at -5.08 -12.7 90) (length 2.54)
        (name "TEST" (effects (font (size 1.27 1.27))))
        (number "6" (effects (font (size 1.27 1.27))))
      )
      (pin passive line (at -2.54 -12.7 90) (length 2.54)
        (name "TEST" (effects (font (size 1.27 1.27))))
        (number "7" (effects (font (size 1.27 1.27))))
      )
      (pin passive line (at 0 -12.7 90) (length 2.54)
        (name "TEST" (effects (font (size 1.27 1.27))))
        (number "8" (effects (font (size 1.27 1.27))))
      )
      (pin passive line (at 2.54 -12.7 90) (length 2.54)
        (name "TEST" (effects (font (size 1.27 1.27))))
        (number "9" (effects (font (size 1.27 1.27))))
      )
    )
  )
  (symbol "Sensor_Magnetic:AS5048B" (in_bom yes) (on_board yes)
    (property "Reference" "U" (id 0) (at -10.16 11.43 0)
      (effects (font (size 1.27 1.27)) (justify left))
    )
    (property "Value" "AS5048B" (id 1) (at 10.16 11.43 0)
      (effects (font (size 1.27 1.27)) (justify right))
    )
    (property "Footprint" "Package_SO:TSSOP-14_4.4x5mm_P0.65mm" (id 2) (at 0 -19.05 0)
      (effects (font (size 1.27 1.27)) hide)
    )
    (property "Datasheet" "https://ams.com/documents/20143/36005/AS5048_DS000298_4-00.pdf" (id 3) (at -54.61 40.64 0)
      (effects (font (size 1.27 1.27)) hide)
    )
    (property "ki_keywords" "sensor magnetic hall position rotation i2c" (id 4) (at 0 0 0)
      (effects (font (size 1.27 1.27)) hide)
    )
    (property "ki_description" "Magnetic position sensor, 14-bit, PWM output, I2C Interface, TSSOP-14" (id 5) (at 0 0 0)
      (effects (font (size 1.27 1.27)) hide)
    )
    (property "ki_fp_filters" "TSSOP*4.4x5mm*P0.65mm*" (id 6) (at 0 0 0)
      (effects (font (size 1.27 1.27)) hide)
    )
    (symbol "AS5048B_0_1"
      (arc (start -2.794 0) (end 2.794 0) (radius (at 0 0) (length 2.794) (angles -179.9 -0.1))
        (stroke (width 0.254)) (fill (type none))
      )
      (rectangle (start -10.16 10.16) (end 10.16 -10.16)
        (stroke (width 0.254)) (fill (type background))
      )
      (polyline
        (pts
          (xy -2.794 0)
          (xy -3.302 -0.508)
        )
        (stroke (width 0.254)) (fill (type none))
      )
      (polyline
        (pts
          (xy -2.794 0)
          (xy -2.286 -0.508)
        )
        (stroke (width 0.254)) (fill (type none))
      )
      (polyline
        (pts
          (xy 2.794 0)
          (xy 2.286 -0.508)
        )
        (stroke (width 0.254)) (fill (type none))
      )
      (polyline
        (pts
          (xy 2.794 0)
          (xy 3.302 -0.508)
        )
        (stroke (width 0.254)) (fill (type none))
      )
    )
    (symbol "AS5048B_1_1"
      (circle (center 0 0) (radius 2.032) (stroke (width 0.254)) (fill (type none)))
      (polyline
        (pts
          (xy 0.254 0.254)
          (xy 1.27 -0.762)
          (xy 0.762 -1.27)
          (xy -0.254 -0.254)
        )
        (stroke (width 0)) (fill (type none))
      )
      (polyline
        (pts
          (xy -0.762 1.27)
          (xy 0.254 0.254)
          (xy -0.254 -0.254)
          (xy -1.27 0.762)
          (xy -1.016 1.016)
          (xy -0.762 1.27)
          (xy -0.635 1.143)
        )
        (stroke (width 0)) (fill (type outline))
      )
      (pin bidirectional line (at -12.7 0 0) (length 2.54)
        (name "SDA" (effects (font (size 1.27 1.27))))
        (number "1" (effects (font (size 1.27 1.27))))
      )
      (pin passive line (at 5.08 -12.7 90) (length 2.54)
        (name "TEST" (effects (font (size 1.27 1.27))))
        (number "10" (effects (font (size 1.27 1.27))))
      )
      (pin power_in line (at 0 12.7 270) (length 2.54)
        (name "VDD5V" (effects (font (size 1.27 1.27))))
        (number "11" (effects (font (size 1.27 1.27))))
      )
      (pin power_in line (at -2.54 12.7 270) (length 2.54)
        (name "VDD3V" (effects (font (size 1.27 1.27))))
        (number "12" (effects (font (size 1.27 1.27))))
      )
      (pin power_in line (at 7.62 -12.7 90) (length 2.54)
        (name "GND" (effects (font (size 1.27 1.27))))
        (number "13" (effects (font (size 1.27 1.27))))
      )
      (pin output line (at 12.7 0 180) (length 2.54)
        (name "PWM" (effects (font (size 1.27 1.27))))
        (number "14" (effects (font (size 1.27 1.27))))
      )
      (pin input line (at -12.7 2.54 0) (length 2.54)
        (name "SCL" (effects (font (size 1.27 1.27))))
        (number "2" (effects (font (size 1.27 1.27))))
      )
      (pin input line (at -12.7 5.08 0) (length 2.54)
        (name "A2" (effects (font (size 1.27 1.27))))
        (number "3" (effects (font (size 1.27 1.27))))
      )
      (pin input line (at -12.7 7.62 0) (length 2.54)
        (name "A1" (effects (font (size 1.27 1.27))))
        (number "4" (effects (font (size 1.27 1.27))))
      )
      (pin passive line (at -7.62 -12.7 90) (length 2.54)
        (name "TEST" (effects (font (size 1.27 1.27))))
        (number "5" (effects (font (size 1.27 1.27))))
      )
      (pin passive line (at -5.08 -12.7 90) (length 2.54)
        (name "TEST" (effects (font (size 1.27 1.27))))
        (number "6" (effects (font (size 1.27 1.27))))
      )
      (pin passive line (at -2.54 -12.7 90) (length 2.54)
        (name "TEST" (effects (font (size 1.27 1.27))))
        (number "7" (effects (font (size 1.27 1.27))))
      )
      (pin passive line (at 0 -12.7 90) (length 2.54)
        (name "TEST" (effects (font (size 1.27 1.27))))
        (number "8" (effects (font (size 1.27 1.27))))
      )
      (pin passive line (at 2.54 -12.7 90) (length 2.54)
        (name "TEST" (effects (font (size 1.27 1.27))))
        (number "9" (effects (font (size 1.27 1.27))))
      )
    )
  )
  (symbol "Sensor_Magnetic:AS5055A" (in_bom yes) (on_board yes)
    (property "Reference" "U" (id 0) (at -10.16 11.43 0)
      (effects (font (size 1.27 1.27)) (justify left))
    )
    (property "Value" "AS5055A" (id 1) (at 10.16 11.43 0)
      (effects (font (size 1.27 1.27)) (justify right))
    )
    (property "Footprint" "Package_DFN_QFN:QFN-16-1EP_4x4mm_P0.65mm_EP2.7x2.7mm_PullBack" (id 2) (at 0 -19.05 0)
      (effects (font (size 1.27 1.27)) hide)
    )
    (property "Datasheet" "https://ams.com/documents/20143/36005/AS5055A_DS000304_2-00.pdf" (id 3) (at -54.61 40.64 0)
      (effects (font (size 1.27 1.27)) hide)
    )
    (property "ki_keywords" "sensor magnetic hall position rotation spi" (id 4) (at 0 0 0)
      (effects (font (size 1.27 1.27)) hide)
    )
    (property "ki_description" "Magnetic position sensor, 12-bit, SPI interface, QFN-16" (id 5) (at 0 0 0)
      (effects (font (size 1.27 1.27)) hide)
    )
    (property "ki_fp_filters" "QFN*1EP*4x4mm*P0.65mm*PullBack*" (id 6) (at 0 0 0)
      (effects (font (size 1.27 1.27)) hide)
    )
    (symbol "AS5055A_0_1"
      (arc (start -2.794 0) (end 2.794 0) (radius (at 0 0) (length 2.794) (angles -179.9 -0.1))
        (stroke (width 0.254)) (fill (type none))
      )
      (rectangle (start -10.16 10.16) (end 10.16 -10.16)
        (stroke (width 0.254)) (fill (type background))
      )
      (polyline
        (pts
          (xy -2.794 0)
          (xy -3.302 -0.508)
        )
        (stroke (width 0.254)) (fill (type none))
      )
      (polyline
        (pts
          (xy -2.794 0)
          (xy -2.286 -0.508)
        )
        (stroke (width 0.254)) (fill (type none))
      )
      (polyline
        (pts
          (xy 2.794 0)
          (xy 2.286 -0.508)
        )
        (stroke (width 0.254)) (fill (type none))
      )
      (polyline
        (pts
          (xy 2.794 0)
          (xy 3.302 -0.508)
        )
        (stroke (width 0.254)) (fill (type none))
      )
    )
    (symbol "AS5055A_1_1"
      (circle (center 0 0) (radius 2.032) (stroke (width 0.254)) (fill (type none)))
      (polyline
        (pts
          (xy 0.254 0.254)
          (xy 1.27 -0.762)
          (xy 0.762 -1.27)
          (xy -0.254 -0.254)
        )
        (stroke (width 0)) (fill (type none))
      )
      (polyline
        (pts
          (xy -0.762 1.27)
          (xy 0.254 0.254)
          (xy -0.254 -0.254)
          (xy -1.27 0.762)
          (xy -1.016 1.016)
          (xy -0.762 1.27)
          (xy -0.635 1.143)
        )
        (stroke (width 0)) (fill (type outline))
      )
      (pin input line (at -12.7 7.62 0) (length 2.54)
        (name "MOSI" (effects (font (size 1.27 1.27))))
        (number "1" (effects (font (size 1.27 1.27))))
      )
      (pin input line (at -12.7 -7.62 0) (length 2.54)
        (name "~EN_INT" (effects (font (size 1.27 1.27))))
        (number "10" (effects (font (size 1.27 1.27))))
      )
      (pin power_in line (at 0 12.7 270) (length 2.54)
        (name "VDDp" (effects (font (size 1.27 1.27))))
        (number "11" (effects (font (size 1.27 1.27))))
      )
      (pin power_in line (at -2.54 12.7 270) (length 2.54)
        (name "VDD" (effects (font (size 1.27 1.27))))
        (number "12" (effects (font (size 1.27 1.27))))
      )
      (pin power_in line (at 2.54 -12.7 90) (length 2.54)
        (name "VSS" (effects (font (size 1.27 1.27))))
        (number "13" (effects (font (size 1.27 1.27))))
      )
      (pin input line (at -12.7 -2.54 0) (length 2.54)
        (name "WM" (effects (font (size 1.27 1.27))))
        (number "14" (effects (font (size 1.27 1.27))))
      )
      (pin output line (at -12.7 -5.08 0) (length 2.54)
        (name "~INT" (effects (font (size 1.27 1.27))))
        (number "15" (effects (font (size 1.27 1.27))))
      )
      (pin no_connect line (at 5.08 -10.16 90) (length 2.54) hide
        (name "NC" (effects (font (size 1.27 1.27))))
        (number "16" (effects (font (size 1.27 1.27))))
      )
      (pin no_connect line (at 7.62 -10.16 90) (length 2.54) hide
        (name "NC" (effects (font (size 1.27 1.27))))
        (number "17" (effects (font (size 1.27 1.27))))
      )
      (pin output line (at -12.7 5.08 0) (length 2.54)
        (name "MISO" (effects (font (size 1.27 1.27))))
        (number "2" (effects (font (size 1.27 1.27))))
      )
      (pin input line (at -12.7 2.54 0) (length 2.54)
        (name "SCK" (effects (font (size 1.27 1.27))))
        (number "3" (effects (font (size 1.27 1.27))))
      )
      (pin input line (at -12.7 0 0) (length 2.54)
        (name "~SS" (effects (font (size 1.27 1.27))))
        (number "4" (effects (font (size 1.27 1.27))))
      )
      (pin no_connect line (at 10.16 7.62 180) (length 2.54) hide
        (name "NC" (effects (font (size 1.27 1.27))))
        (number "5" (effects (font (size 1.27 1.27))))
      )
      (pin no_connect line (at 10.16 5.08 180) (length 2.54) hide
        (name "NC" (effects (font (size 1.27 1.27))))
        (number "6" (effects (font (size 1.27 1.27))))
      )
      (pin no_connect line (at 10.16 2.54 180) (length 2.54) hide
        (name "NC" (effects (font (size 1.27 1.27))))
        (number "7" (effects (font (size 1.27 1.27))))
      )
      (pin no_connect line (at 10.16 0 180) (length 2.54) hide
        (name "NC" (effects (font (size 1.27 1.27))))
        (number "8" (effects (font (size 1.27 1.27))))
      )
      (pin passive line (at 0 -12.7 90) (length 2.54)
        (name "TEST" (effects (font (size 1.27 1.27))))
        (number "9" (effects (font (size 1.27 1.27))))
      )
    )
  )
  (symbol "Sensor_Magnetic:AS5050A" (extends "AS5055A")
    (property "Reference" "U" (id 0) (at -10.16 11.43 0)
      (effects (font (size 1.27 1.27)) (justify left))
    )
    (property "Value" "AS5050A" (id 1) (at 10.16 11.43 0)
      (effects (font (size 1.27 1.27)) (justify right))
    )
    (property "Footprint" "Package_DFN_QFN:QFN-16-1EP_4x4mm_P0.65mm_EP2.7x2.7mm_PullBack" (id 2) (at 0 -19.05 0)
      (effects (font (size 1.27 1.27)) hide)
    )
    (property "Datasheet" "https://ams.com/documents/20143/36005/AS5055A_DS000304_2-00.pdf" (id 3) (at -54.61 40.64 0)
      (effects (font (size 1.27 1.27)) hide)
    )
    (property "ki_keywords" "sensor magnetic hall position rotation spi" (id 4) (at 0 0 0)
      (effects (font (size 1.27 1.27)) hide)
    )
    (property "ki_description" "Magnetic position sensor, 10-bit, SPI interface, QFN-16" (id 5) (at 0 0 0)
      (effects (font (size 1.27 1.27)) hide)
    )
    (property "ki_fp_filters" "QFN*1EP*4x4mm*P0.65mm*PullBack*" (id 6) (at 0 0 0)
      (effects (font (size 1.27 1.27)) hide)
    )
  )
  (symbol "Sensor_Magnetic:BMM150" (in_bom yes) (on_board yes)
    (property "Reference" "U" (id 0) (at -10.16 6.35 0)
      (effects (font (size 1.27 1.27)) (justify left))
    )
    (property "Value" "BMM150" (id 1) (at 7.62 6.35 0)
      (effects (font (size 1.27 1.27)) (justify right))
    )
    (property "Footprint" "Package_CSP:WLCSP-12_1.56x1.56mm_P0.4mm" (id 2) (at -11.43 3.81 0)
      (effects (font (size 1.27 1.27)) hide)
    )
    (property "Datasheet" "https://www.mouser.com/datasheet/2/783/BST-BMM150-DS001-01-786480.pdf" (id 3) (at -8.89 6.35 0)
      (effects (font (size 1.27 1.27)) hide)
    )
    (property "ki_keywords" "BOSH Geomagnetic Sensor" (id 4) (at 0 0 0)
      (effects (font (size 1.27 1.27)) hide)
    )
    (property "ki_description" "Geomagnetic Sensor, WLCSP-12" (id 5) (at 0 0 0)
      (effects (font (size 1.27 1.27)) hide)
    )
    (property "ki_fp_filters" "WLCSP*1.56x1.56mm*P0.4mm*" (id 6) (at 0 0 0)
      (effects (font (size 1.27 1.27)) hide)
    )
    (symbol "BMM150_0_1"
      (rectangle (start -10.16 5.08) (end 7.62 -7.62)
        (stroke (width 0.254)) (fill (type background))
      )
    )
    (symbol "BMM150_1_1"
      (pin input line (at 10.16 -5.08 180) (length 2.54)
        (name "PS" (effects (font (size 1.27 1.27))))
        (number "A1" (effects (font (size 1.27 1.27))))
      )
      (pin bidirectional line (at -12.7 -2.54 0) (length 2.54)
        (name "SCK" (effects (font (size 1.27 1.27))))
        (number "A3" (effects (font (size 1.27 1.27))))
      )
      (pin input line (at -12.7 -5.08 0) (length 2.54)
        (name "CSB" (effects (font (size 1.27 1.27))))
        (number "A5" (effects (font (size 1.27 1.27))))
      )
      (pin power_in line (at -2.54 7.62 270) (length 2.54)
        (name "VDDIO" (effects (font (size 1.27 1.27))))
        (number "B2" (effects (font (size 1.27 1.27))))
      )
      (pin bidirectional line (at -12.7 2.54 0) (length 2.54)
        (name "SDI" (effects (font (size 1.27 1.27))))
        (number "B4" (effects (font (size 1.27 1.27))))
      )
      (pin bidirectional line (at -12.7 0 0) (length 2.54)
        (name "SDO" (effects (font (size 1.27 1.27))))
        (number "C1" (effects (font (size 1.27 1.27))))
      )
      (pin power_in line (at 0 -10.16 90) (length 2.54)
        (name "GND" (effects (font (size 1.27 1.27))))
        (number "C5" (effects (font (size 1.27 1.27))))
      )
      (pin output line (at 10.16 0 180) (length 2.54)
        (name "INT" (effects (font (size 1.27 1.27))))
        (number "D2" (effects (font (size 1.27 1.27))))
      )
      (pin output line (at 10.16 2.54 180) (length 2.54)
        (name "DRDY" (effects (font (size 1.27 1.27))))
        (number "D4" (effects (font (size 1.27 1.27))))
      )
      (pin passive line (at 0 -10.16 90) (length 2.54) hide
        (name "GND" (effects (font (size 1.27 1.27))))
        (number "E1" (effects (font (size 1.27 1.27))))
      )
      (pin passive line (at 0 -10.16 90) (length 2.54) hide
        (name "GND" (effects (font (size 1.27 1.27))))
        (number "E3" (effects (font (size 1.27 1.27))))
      )
      (pin power_in line (at 0 7.62 270) (length 2.54)
        (name "VDD" (effects (font (size 1.27 1.27))))
        (number "E5" (effects (font (size 1.27 1.27))))
      )
    )
  )
  (symbol "Sensor_Magnetic:DRV5055A1xDBZxQ1" (in_bom yes) (on_board yes)
    (property "Reference" "U" (id 0) (at 2.54 12.7 0)
      (effects (font (size 1.27 1.27)))
    )
    (property "Value" "DRV5055A1xDBZxQ1" (id 1) (at 2.54 10.16 0)
      (effects (font (size 1.27 1.27)))
    )
    (property "Footprint" "Package_TO_SOT_SMD:SOT-23" (id 2) (at 0 0 0)
      (effects (font (size 1.27 1.27)) hide)
    )
    (property "Datasheet" "https://www.ti.com/lit/ds/symlink/drv5055-q1.pdf" (id 3) (at 0 0 0)
      (effects (font (size 1.27 1.27)) hide)
    )
    (property "ki_keywords" "Automotive Ratiometric Linear Hall Effect Sensor AEC-Q100" (id 4) (at 0 0 0)
      (effects (font (size 1.27 1.27)) hide)
    )
    (property "ki_description" "100 mV/mT,±21-mT, 20-kHz, 3.3/5V, SOT-23" (id 5) (at 0 0 0)
      (effects (font (size 1.27 1.27)) hide)
    )
    (property "ki_fp_filters" "SOT?23*" (id 6) (at 0 0 0)
      (effects (font (size 1.27 1.27)) hide)
    )
    (symbol "DRV5055A1xDBZxQ1_1_1"
      (rectangle (start -5.08 7.62) (end 5.08 -7.62)
        (stroke (width 0.254)) (fill (type background))
      )
      (pin power_in line (at -2.54 10.16 270) (length 2.54)
        (name "VCC" (effects (font (size 1.27 1.27))))
        (number "1" (effects (font (size 1.27 1.27))))
      )
      (pin output line (at 7.62 0 180) (length 2.54)
        (name "OUT" (effects (font (size 1.27 1.27))))
        (number "2" (effects (font (size 1.27 1.27))))
      )
      (pin power_in line (at -2.54 -10.16 90) (length 2.54)
        (name "GND" (effects (font (size 1.27 1.27))))
        (number "3" (effects (font (size 1.27 1.27))))
      )
    )
  )
  (symbol "Sensor_Magnetic:DRV5033AJxDBZ" (extends "DRV5055A1xDBZxQ1")
    (property "Reference" "U" (id 0) (at 2.54 12.7 0)
      (effects (font (size 1.27 1.27)))
    )
    (property "Value" "DRV5033AJxDBZ" (id 1) (at 2.54 10.16 0)
      (effects (font (size 1.27 1.27)))
    )
    (property "Footprint" "Package_TO_SOT_SMD:SOT-23" (id 2) (at 0 0 0)
      (effects (font (size 1.27 1.27)) hide)
    )
    (property "Datasheet" "https://www.ti.com/lit/ds/symlink/drv5033.pdf" (id 3) (at 0 0 0)
      (effects (font (size 1.27 1.27)) hide)
    )
    (property "ki_keywords" "Digital Omnipolar Switch Hall Effect Sensor" (id 4) (at 0 0 0)
      (effects (font (size 1.27 1.27)) hide)
    )
    (property "ki_description" "±6.9 / ±3.5 mT, 20-kHz, 2-38V, SOT-23" (id 5) (at 0 0 0)
      (effects (font (size 1.27 1.27)) hide)
    )
    (property "ki_fp_filters" "SOT?23*" (id 6) (at 0 0 0)
      (effects (font (size 1.27 1.27)) hide)
    )
  )
  (symbol "Sensor_Magnetic:DRV5033FAxDBZ" (extends "DRV5055A1xDBZxQ1")
    (property "Reference" "U" (id 0) (at 2.54 12.7 0)
      (effects (font (size 1.27 1.27)))
    )
    (property "Value" "DRV5033FAxDBZ" (id 1) (at 2.54 10.16 0)
      (effects (font (size 1.27 1.27)))
    )
    (property "Footprint" "Package_TO_SOT_SMD:SOT-23" (id 2) (at 0 0 0)
      (effects (font (size 1.27 1.27)) hide)
    )
    (property "Datasheet" "https://www.ti.com/lit/ds/symlink/drv5033.pdf" (id 3) (at 0 0 0)
      (effects (font (size 1.27 1.27)) hide)
    )
    (property "ki_keywords" "Digital Omnipolar Switch Hall Effect Sensor" (id 4) (at 0 0 0)
      (effects (font (size 1.27 1.27)) hide)
    )
    (property "ki_description" "±3.5 / ±2 mT, 20-kHz, 2-38V, SOT-23" (id 5) (at 0 0 0)
      (effects (font (size 1.27 1.27)) hide)
    )
    (property "ki_fp_filters" "SOT?23*" (id 6) (at 0 0 0)
      (effects (font (size 1.27 1.27)) hide)
    )
  )
  (symbol "Sensor_Magnetic:DRV5055A2xDBZxQ1" (extends "DRV5055A1xDBZxQ1")
    (property "Reference" "U" (id 0) (at 2.54 12.7 0)
      (effects (font (size 1.27 1.27)))
    )
    (property "Value" "DRV5055A2xDBZxQ1" (id 1) (at 2.54 10.16 0)
      (effects (font (size 1.27 1.27)))
    )
    (property "Footprint" "Package_TO_SOT_SMD:SOT-23" (id 2) (at 0 0 0)
      (effects (font (size 1.27 1.27)) hide)
    )
    (property "Datasheet" "https://www.ti.com/lit/ds/symlink/drv5055-q1.pdf" (id 3) (at 0 0 0)
      (effects (font (size 1.27 1.27)) hide)
    )
    (property "ki_keywords" "Automotive Ratiometric Linear Hall Effect Sensor AEC-Q100" (id 4) (at 0 0 0)
      (effects (font (size 1.27 1.27)) hide)
    )
    (property "ki_description" "50 mV/mT,±42-mT, 20-kHz, 3.3/5V, SOT-23" (id 5) (at 0 0 0)
      (effects (font (size 1.27 1.27)) hide)
    )
    (property "ki_fp_filters" "SOT?23*" (id 6) (at 0 0 0)
      (effects (font (size 1.27 1.27)) hide)
    )
  )
  (symbol "Sensor_Magnetic:DRV5055A3xDBZxQ1" (extends "DRV5055A1xDBZxQ1")
    (property "Reference" "U" (id 0) (at 2.54 12.7 0)
      (effects (font (size 1.27 1.27)))
    )
    (property "Value" "DRV5055A3xDBZxQ1" (id 1) (at 2.54 10.16 0)
      (effects (font (size 1.27 1.27)))
    )
    (property "Footprint" "Package_TO_SOT_SMD:SOT-23" (id 2) (at 0 0 0)
      (effects (font (size 1.27 1.27)) hide)
    )
    (property "Datasheet" "https://www.ti.com/lit/ds/symlink/drv5055-q1.pdf" (id 3) (at 0 0 0)
      (effects (font (size 1.27 1.27)) hide)
    )
    (property "ki_keywords" "Automotive Ratiometric Linear Hall Effect Sensor AEC-Q100" (id 4) (at 0 0 0)
      (effects (font (size 1.27 1.27)) hide)
    )
    (property "ki_description" "25 mV/mT,±85-mT, 20-kHz, 3.3/5V, SOT-23" (id 5) (at 0 0 0)
      (effects (font (size 1.27 1.27)) hide)
    )
    (property "ki_fp_filters" "SOT?23*" (id 6) (at 0 0 0)
      (effects (font (size 1.27 1.27)) hide)
    )
  )
  (symbol "Sensor_Magnetic:DRV5055A4xDBZxQ1" (extends "DRV5055A1xDBZxQ1")
    (property "Reference" "U" (id 0) (at 2.54 12.7 0)
      (effects (font (size 1.27 1.27)))
    )
    (property "Value" "DRV5055A4xDBZxQ1" (id 1) (at 2.54 10.16 0)
      (effects (font (size 1.27 1.27)))
    )
    (property "Footprint" "Package_TO_SOT_SMD:SOT-23" (id 2) (at 0 0 0)
      (effects (font (size 1.27 1.27)) hide)
    )
    (property "Datasheet" "https://www.ti.com/lit/ds/symlink/drv5055-q1.pdf" (id 3) (at 0 0 0)
      (effects (font (size 1.27 1.27)) hide)
    )
    (property "ki_keywords" "Automotive Ratiometric Linear Hall Effect Sensor AEC-Q100" (id 4) (at 0 0 0)
      (effects (font (size 1.27 1.27)) hide)
    )
    (property "ki_description" "12.5 mV/mT,±169-mT, 20-kHz, 3.3/5V, SOT-23" (id 5) (at 0 0 0)
      (effects (font (size 1.27 1.27)) hide)
    )
    (property "ki_fp_filters" "SOT?23*" (id 6) (at 0 0 0)
      (effects (font (size 1.27 1.27)) hide)
    )
  )
  (symbol "Sensor_Magnetic:DRV5055A1xLPGxQ1" (in_bom yes) (on_board yes)
    (property "Reference" "U" (id 0) (at 5.08 12.7 0)
      (effects (font (size 1.27 1.27)))
    )
    (property "Value" "DRV5055A1xLPGxQ1" (id 1) (at 7.62 10.16 0)
      (effects (font (size 1.27 1.27)))
    )
    (property "Footprint" "Package_TO_SOT_THT:TO-92_Inline" (id 2) (at 0 0 0)
      (effects (font (size 1.27 1.27)) hide)
    )
    (property "Datasheet" "https://www.ti.com/lit/ds/symlink/drv5055-q1.pdf" (id 3) (at 0 0 0)
      (effects (font (size 1.27 1.27)) hide)
    )
    (property "ki_keywords" "Automotive Ratiometric Linear Hall Effect Sensor AEC-Q100" (id 4) (at 0 0 0)
      (effects (font (size 1.27 1.27)) hide)
    )
    (property "ki_description" "100 mV/mT,±21-mT, 20-kHz, 3.3/5V, TO-92" (id 5) (at 0 0 0)
      (effects (font (size 1.27 1.27)) hide)
    )
    (property "ki_fp_filters" "TO?92*" (id 6) (at 0 0 0)
      (effects (font (size 1.27 1.27)) hide)
    )
    (symbol "DRV5055A1xLPGxQ1_1_1"
      (rectangle (start -5.08 7.62) (end 5.08 -7.62)
        (stroke (width 0.254)) (fill (type background))
      )
      (pin power_in line (at -2.54 10.16 270) (length 2.54)
        (name "VCC" (effects (font (size 1.27 1.27))))
        (number "1" (effects (font (size 1.27 1.27))))
      )
      (pin power_in line (at -2.54 -10.16 90) (length 2.54)
        (name "GND" (effects (font (size 1.27 1.27))))
        (number "2" (effects (font (size 1.27 1.27))))
      )
      (pin output line (at 7.62 0 180) (length 2.54)
        (name "OUT" (effects (font (size 1.27 1.27))))
        (number "3" (effects (font (size 1.27 1.27))))
      )
    )
  )
  (symbol "Sensor_Magnetic:DRV5033AJxLPG" (extends "DRV5055A1xLPGxQ1")
    (property "Reference" "U" (id 0) (at 5.08 12.7 0)
      (effects (font (size 1.27 1.27)))
    )
    (property "Value" "DRV5033AJxLPG" (id 1) (at 7.62 10.16 0)
      (effects (font (size 1.27 1.27)))
    )
    (property "Footprint" "Package_TO_SOT_THT:TO-92_Inline" (id 2) (at 0 0 0)
      (effects (font (size 1.27 1.27)) hide)
    )
    (property "Datasheet" "https://www.ti.com/lit/ds/symlink/drv5033.pdf" (id 3) (at 0 0 0)
      (effects (font (size 1.27 1.27)) hide)
    )
    (property "ki_keywords" "Digital Omnipolar Switch Hall Effect Sensor" (id 4) (at 0 0 0)
      (effects (font (size 1.27 1.27)) hide)
    )
    (property "ki_description" "±6.9 / ±3.5 mT, 20-kHz, 2-38V, TO-92" (id 5) (at 0 0 0)
      (effects (font (size 1.27 1.27)) hide)
    )
    (property "ki_fp_filters" "TO?92*" (id 6) (at 0 0 0)
      (effects (font (size 1.27 1.27)) hide)
    )
  )
  (symbol "Sensor_Magnetic:DRV5033FAxLPG" (extends "DRV5055A1xLPGxQ1")
    (property "Reference" "U" (id 0) (at 5.08 12.7 0)
      (effects (font (size 1.27 1.27)))
    )
    (property "Value" "DRV5033FAxLPG" (id 1) (at 7.62 10.16 0)
      (effects (font (size 1.27 1.27)))
    )
    (property "Footprint" "Package_TO_SOT_THT:TO-92_Inline" (id 2) (at 0 0 0)
      (effects (font (size 1.27 1.27)) hide)
    )
    (property "Datasheet" "https://www.ti.com/lit/ds/symlink/drv5033.pdf" (id 3) (at 0 0 0)
      (effects (font (size 1.27 1.27)) hide)
    )
    (property "ki_keywords" "Digital Omnipolar Switch Hall Effect Sensor" (id 4) (at 0 0 0)
      (effects (font (size 1.27 1.27)) hide)
    )
    (property "ki_description" "±3.5 / ±2 mT, 20-kHz, 2-38V, TO-92" (id 5) (at 0 0 0)
      (effects (font (size 1.27 1.27)) hide)
    )
    (property "ki_fp_filters" "TO?92*" (id 6) (at 0 0 0)
      (effects (font (size 1.27 1.27)) hide)
    )
  )
  (symbol "Sensor_Magnetic:DRV5055A2xLPGxQ1" (extends "DRV5055A1xLPGxQ1")
    (property "Reference" "U" (id 0) (at 5.08 12.7 0)
      (effects (font (size 1.27 1.27)))
    )
    (property "Value" "DRV5055A2xLPGxQ1" (id 1) (at 7.62 10.16 0)
      (effects (font (size 1.27 1.27)))
    )
    (property "Footprint" "Package_TO_SOT_THT:TO-92_Inline" (id 2) (at 0 0 0)
      (effects (font (size 1.27 1.27)) hide)
    )
    (property "Datasheet" "https://www.ti.com/lit/ds/symlink/drv5055-q1.pdf" (id 3) (at 0 0 0)
      (effects (font (size 1.27 1.27)) hide)
    )
    (property "ki_keywords" "Automotive Ratiometric Linear Hall Effect Sensor AEC-Q100" (id 4) (at 0 0 0)
      (effects (font (size 1.27 1.27)) hide)
    )
    (property "ki_description" "50 mV/mT,±42-mT, 20-kHz, 3.3/5V, TO-92" (id 5) (at 0 0 0)
      (effects (font (size 1.27 1.27)) hide)
    )
    (property "ki_fp_filters" "TO?92*" (id 6) (at 0 0 0)
      (effects (font (size 1.27 1.27)) hide)
    )
  )
  (symbol "Sensor_Magnetic:DRV5055A3xLPGxQ1" (extends "DRV5055A1xLPGxQ1")
    (property "Reference" "U" (id 0) (at 5.08 12.7 0)
      (effects (font (size 1.27 1.27)))
    )
    (property "Value" "DRV5055A3xLPGxQ1" (id 1) (at 7.62 10.16 0)
      (effects (font (size 1.27 1.27)))
    )
    (property "Footprint" "Package_TO_SOT_THT:TO-92_Inline" (id 2) (at 0 0 0)
      (effects (font (size 1.27 1.27)) hide)
    )
    (property "Datasheet" "https://www.ti.com/lit/ds/symlink/drv5055-q1.pdf" (id 3) (at 0 0 0)
      (effects (font (size 1.27 1.27)) hide)
    )
    (property "ki_keywords" "Automotive Ratiometric Linear Hall Effect Sensor AEC-Q100" (id 4) (at 0 0 0)
      (effects (font (size 1.27 1.27)) hide)
    )
    (property "ki_description" "25 mV/mT,±85-mT, 20-kHz, 3.3/5V, TO-92" (id 5) (at 0 0 0)
      (effects (font (size 1.27 1.27)) hide)
    )
    (property "ki_fp_filters" "TO?92*" (id 6) (at 0 0 0)
      (effects (font (size 1.27 1.27)) hide)
    )
  )
  (symbol "Sensor_Magnetic:DRV5055A4xLPGxQ1" (extends "DRV5055A1xLPGxQ1")
    (property "Reference" "U" (id 0) (at 5.08 12.7 0)
      (effects (font (size 1.27 1.27)))
    )
    (property "Value" "DRV5055A4xLPGxQ1" (id 1) (at 7.62 10.16 0)
      (effects (font (size 1.27 1.27)))
    )
    (property "Footprint" "Package_TO_SOT_THT:TO-92_Inline" (id 2) (at 0 0 0)
      (effects (font (size 1.27 1.27)) hide)
    )
    (property "Datasheet" "https://www.ti.com/lit/ds/symlink/drv5055-q1.pdf" (id 3) (at 0 0 0)
      (effects (font (size 1.27 1.27)) hide)
    )
    (property "ki_keywords" "Automotive Ratiometric Linear Hall Effect Sensor AEC-Q100" (id 4) (at 0 0 0)
      (effects (font (size 1.27 1.27)) hide)
    )
    (property "ki_description" "12.5mV/mT,±169-mT, 20-kHz, 3.3/5V, TO-92" (id 5) (at 0 0 0)
      (effects (font (size 1.27 1.27)) hide)
    )
    (property "ki_fp_filters" "TO?92*" (id 6) (at 0 0 0)
      (effects (font (size 1.27 1.27)) hide)
    )
  )
  (symbol "Sensor_Magnetic:IST8310" (in_bom yes) (on_board yes)
    (property "Reference" "U" (id 0) (at -7.62 11.43 0)
      (effects (font (size 1.27 1.27)))
    )
    (property "Value" "IST8310" (id 1) (at 10.16 11.43 0)
      (effects (font (size 1.27 1.27)))
    )
    (property "Footprint" "Package_LGA:LGA-16_3x3mm_P0.5mm" (id 2) (at 0 0 0)
      (effects (font (size 1.27 1.27)) hide)
    )
    (property "Datasheet" "http://www.isentek.com/en/dlf.php?file=../ISENTEK/(201703-09)IST8310%20Datasheet%20v1.2_brief-105.09.20.pdf" (id 3) (at 0 0 0)
      (effects (font (size 1.27 1.27)) hide)
    )
    (property "ki_keywords" "magnet field sensor compass" (id 4) (at 0 0 0)
      (effects (font (size 1.27 1.27)) hide)
    )
    (property "ki_description" "3D Magnetometer, I2C Interface, LGA-16" (id 5) (at 0 0 0)
      (effects (font (size 1.27 1.27)) hide)
    )
    (property "ki_fp_filters" "LGA*3x3mm*P0.5mm*" (id 6) (at 0 0 0)
      (effects (font (size 1.27 1.27)) hide)
    )
    (symbol "IST8310_0_1"
      (rectangle (start -7.62 10.16) (end 7.62 -10.16)
        (stroke (width 0.254)) (fill (type background))
      )
    )
    (symbol "IST8310_1_1"
      (pin input line (at -10.16 0 0) (length 2.54)
        (name "SCL" (effects (font (size 1.27 1.27))))
        (number "1" (effects (font (size 1.27 1.27))))
      )
      (pin passive line (at 10.16 2.54 180) (length 2.54)
        (name "C1" (effects (font (size 1.27 1.27))))
        (number "10" (effects (font (size 1.27 1.27))))
      )
      (pin passive line (at 0 -12.7 90) (length 2.54) hide
        (name "VSS" (effects (font (size 1.27 1.27))))
        (number "11" (effects (font (size 1.27 1.27))))
      )
      (pin no_connect line (at 7.62 7.62 180) (length 2.54) hide
        (name "NC" (effects (font (size 1.27 1.27))))
        (number "12" (effects (font (size 1.27 1.27))))
      )
      (pin power_in line (at 0 12.7 270) (length 2.54)
        (name "DVDD" (effects (font (size 1.27 1.27))))
        (number "13" (effects (font (size 1.27 1.27))))
      )
      (pin input line (at -10.16 -7.62 0) (length 2.54)
        (name "~RST" (effects (font (size 1.27 1.27))))
        (number "14" (effects (font (size 1.27 1.27))))
      )
      (pin output line (at -10.16 -2.54 0) (length 2.54)
        (name "DRDY" (effects (font (size 1.27 1.27))))
        (number "15" (effects (font (size 1.27 1.27))))
      )
      (pin bidirectional line (at -10.16 2.54 0) (length 2.54)
        (name "SDA" (effects (font (size 1.27 1.27))))
        (number "16" (effects (font (size 1.27 1.27))))
      )
      (pin power_in line (at -2.54 12.7 270) (length 2.54)
        (name "AVDD" (effects (font (size 1.27 1.27))))
        (number "2" (effects (font (size 1.27 1.27))))
      )
      (pin no_connect line (at -7.62 7.62 0) (length 2.54) hide
        (name "NC" (effects (font (size 1.27 1.27))))
        (number "3" (effects (font (size 1.27 1.27))))
      )
      (pin no_connect line (at -7.62 5.08 0) (length 2.54) hide
        (name "NC" (effects (font (size 1.27 1.27))))
        (number "4" (effects (font (size 1.27 1.27))))
      )
      (pin input line (at 10.16 -5.08 180) (length 2.54)
        (name "CAD0" (effects (font (size 1.27 1.27))))
        (number "5" (effects (font (size 1.27 1.27))))
      )
      (pin input line (at 10.16 -7.62 180) (length 2.54)
        (name "CAD1" (effects (font (size 1.27 1.27))))
        (number "6" (effects (font (size 1.27 1.27))))
      )
      (pin passive line (at 2.54 12.7 270) (length 2.54)
        (name "VPP" (effects (font (size 1.27 1.27))))
        (number "7" (effects (font (size 1.27 1.27))))
      )
      (pin no_connect line (at 7.62 5.08 180) (length 2.54) hide
        (name "NC" (effects (font (size 1.27 1.27))))
        (number "8" (effects (font (size 1.27 1.27))))
      )
      (pin power_in line (at 0 -12.7 90) (length 2.54)
        (name "VSS" (effects (font (size 1.27 1.27))))
        (number "9" (effects (font (size 1.27 1.27))))
      )
    )
  )
  (symbol "Sensor_Magnetic:IST8308" (extends "IST8310")
    (property "Reference" "U" (id 0) (at -7.62 11.43 0)
      (effects (font (size 1.27 1.27)))
    )
    (property "Value" "IST8308" (id 1) (at 10.16 11.43 0)
      (effects (font (size 1.27 1.27)))
    )
    (property "Footprint" "Package_LGA:LGA-16_3x3mm_P0.5mm" (id 2) (at 0 0 0)
      (effects (font (size 1.27 1.27)) hide)
    )
    (property "Datasheet" "http://www.isentek.com/en/dlf.php?file=../ISENTEK/(201703-20)IST8308%20Datasheet%20v1.0_brief.pdf" (id 3) (at 0 0 0)
      (effects (font (size 1.27 1.27)) hide)
    )
    (property "ki_keywords" "magnet field sensor compass" (id 4) (at 0 0 0)
      (effects (font (size 1.27 1.27)) hide)
    )
    (property "ki_description" "3D Magnetometer, High Sensitivity, I2C Interface, LGA-16" (id 5) (at 0 0 0)
      (effects (font (size 1.27 1.27)) hide)
    )
    (property "ki_fp_filters" "LGA*3x3mm*P0.5mm*" (id 6) (at 0 0 0)
      (effects (font (size 1.27 1.27)) hide)
    )
  )
  (symbol "Sensor_Magnetic:MA730" (in_bom yes) (on_board yes)
    (property "Reference" "U" (id 0) (at -10.16 11.43 0)
      (effects (font (size 1.27 1.27)) (justify left))
    )
    (property "Value" "MA730" (id 1) (at 10.16 11.43 0)
      (effects (font (size 1.27 1.27)) (justify right))
    )
    (property "Footprint" "Package_DFN_QFN:QFN-16-1EP_3x3mm_P0.5mm_EP1.8x1.8mm" (id 2) (at 0 -24.13 0)
      (effects (font (size 1.27 1.27)) hide)
    )
    (property "Datasheet" "https://www.monolithicpower.com/pub/media/document/m/a/ma730_r1.01.pdf" (id 3) (at -54.61 40.64 0)
      (effects (font (size 1.27 1.27)) hide)
    )
    (property "ki_keywords" "sensor magnetic hall position rotation spi" (id 4) (at 0 0 0)
      (effects (font (size 1.27 1.27)) hide)
    )
    (property "ki_description" "Magnetic rotary angle sensor, 14-bit, SPI interface, ABZ, PWM, QFN-16" (id 5) (at 0 0 0)
      (effects (font (size 1.27 1.27)) hide)
    )
    (property "ki_fp_filters" "QFN*3x3mm*P0.5mm*EP1.8x1.8mm*" (id 6) (at 0 0 0)
      (effects (font (size 1.27 1.27)) hide)
    )
    (symbol "MA730_0_1"
      (arc (start -2.794 0) (end 2.794 0) (radius (at 0 0) (length 2.794) (angles -179.9 -0.1))
        (stroke (width 0.254)) (fill (type none))
      )
      (rectangle (start -10.16 10.16) (end 10.16 -10.16)
        (stroke (width 0.254)) (fill (type background))
      )
      (polyline
        (pts
          (xy -2.794 0)
          (xy -3.302 -0.508)
        )
        (stroke (width 0.254)) (fill (type none))
      )
      (polyline
        (pts
          (xy -2.794 0)
          (xy -2.286 -0.508)
        )
        (stroke (width 0.254)) (fill (type none))
      )
      (polyline
        (pts
          (xy 2.794 0)
          (xy 2.286 -0.508)
        )
        (stroke (width 0.254)) (fill (type none))
      )
      (polyline
        (pts
          (xy 2.794 0)
          (xy 3.302 -0.508)
        )
        (stroke (width 0.254)) (fill (type none))
      )
    )
    (symbol "MA730_1_1"
      (circle (center 0 0) (radius 2.032) (stroke (width 0.254)) (fill (type none)))
      (polyline
        (pts
          (xy 0.254 0.254)
          (xy 1.27 -0.762)
          (xy 0.762 -1.27)
          (xy -0.254 -0.254)
        )
        (stroke (width 0)) (fill (type none))
      )
      (polyline
        (pts
          (xy -0.762 1.27)
          (xy 0.254 0.254)
          (xy -0.254 -0.254)
          (xy -1.27 0.762)
          (xy -1.016 1.016)
          (xy -0.762 1.27)
          (xy -0.635 1.143)
        )
        (stroke (width 0)) (fill (type outline))
      )
      (pin output line (at -12.7 -5.08 0) (length 2.54)
        (name "SSD" (effects (font (size 1.27 1.27))))
        (number "1" (effects (font (size 1.27 1.27))))
      )
      (pin passive line (at 2.54 -12.7 90) (length 2.54)
        (name "TEST" (effects (font (size 1.27 1.27))))
        (number "10" (effects (font (size 1.27 1.27))))
      )
      (pin output line (at 12.7 2.54 180) (length 2.54)
        (name "MGL" (effects (font (size 1.27 1.27))))
        (number "11" (effects (font (size 1.27 1.27))))
      )
      (pin input line (at -12.7 2.54 0) (length 2.54)
        (name "SCLK" (effects (font (size 1.27 1.27))))
        (number "12" (effects (font (size 1.27 1.27))))
      )
      (pin power_in line (at 0 12.7 270) (length 2.54)
        (name "VDD" (effects (font (size 1.27 1.27))))
        (number "13" (effects (font (size 1.27 1.27))))
      )
      (pin no_connect line (at 5.08 -10.16 90) (length 2.54) hide
        (name "NC" (effects (font (size 1.27 1.27))))
        (number "14" (effects (font (size 1.27 1.27))))
      )
      (pin input line (at -12.7 -7.62 0) (length 2.54)
        (name "SSCK" (effects (font (size 1.27 1.27))))
        (number "15" (effects (font (size 1.27 1.27))))
      )
      (pin output line (at 12.7 5.08 180) (length 2.54)
        (name "MGH" (effects (font (size 1.27 1.27))))
        (number "16" (effects (font (size 1.27 1.27))))
      )
      (pin input line (at -2.54 -12.7 90) (length 2.54)
        (name "PAD" (effects (font (size 1.27 1.27))))
        (number "17" (effects (font (size 1.27 1.27))))
      )
      (pin output line (at 12.7 -2.54 180) (length 2.54)
        (name "A" (effects (font (size 1.27 1.27))))
        (number "2" (effects (font (size 1.27 1.27))))
      )
      (pin output line (at 12.7 -7.62 180) (length 2.54)
        (name "Z" (effects (font (size 1.27 1.27))))
        (number "3" (effects (font (size 1.27 1.27))))
      )
      (pin input line (at -12.7 7.62 0) (length 2.54)
        (name "MOSI" (effects (font (size 1.27 1.27))))
        (number "4" (effects (font (size 1.27 1.27))))
      )
      (pin input line (at -12.7 0 0) (length 2.54)
        (name "~CS" (effects (font (size 1.27 1.27))))
        (number "5" (effects (font (size 1.27 1.27))))
      )
      (pin output line (at 12.7 -5.08 180) (length 2.54)
        (name "B" (effects (font (size 1.27 1.27))))
        (number "6" (effects (font (size 1.27 1.27))))
      )
      (pin output line (at -12.7 5.08 0) (length 2.54)
        (name "MISO" (effects (font (size 1.27 1.27))))
        (number "7" (effects (font (size 1.27 1.27))))
      )
      (pin power_in line (at 0 -12.7 90) (length 2.54)
        (name "GND" (effects (font (size 1.27 1.27))))
        (number "8" (effects (font (size 1.27 1.27))))
      )
      (pin output line (at 12.7 7.62 180) (length 2.54)
        (name "PWM" (effects (font (size 1.27 1.27))))
        (number "9" (effects (font (size 1.27 1.27))))
      )
    )
  )
  (symbol "Sensor_Magnetic:MMC5633NJL" (in_bom yes) (on_board yes)
    (property "Reference" "U" (id 0) (at -2.54 8.255 0)
      (effects (font (size 1.27 1.27)) (justify right top))
    )
    (property "Value" "MMC5633NJL" (id 1) (at -2.54 6.35 0)
      (effects (font (size 1.27 1.27)) (justify right top))
    )
    (property "Footprint" "Package_BGA:WLP-4_0.86x0.86mm_P0.4mm" (id 2) (at 1.27 -6.35 0)
      (effects (font (size 1.27 1.27)) (justify left) hide)
    )
    (property "Datasheet" "http://www.memsic.com/uploadfiles/2020/08/20200827165106864.pdf" (id 3) (at -2.54 0 0)
      (effects (font (size 1.27 1.27)) hide)
    )
    (property "ki_keywords" "I2C I3C magnetic 3-axis sensor magnetometer AMR magnetoresistance" (id 4) (at 0 0 0)
      (effects (font (size 1.27 1.27)) hide)
    )
    (property "ki_description" "3-axis AMR Magnetometer, 30 G, I2C & I3C  Interface, 2mG RMS, WLP-4" (id 5) (at 0 0 0)
      (effects (font (size 1.27 1.27)) hide)
    )
    (property "ki_fp_filters" "WLP*0.86x0.86mm?P0.4mm*" (id 6) (at 0 0 0)
      (effects (font (size 1.27 1.27)) hide)
    )
    (symbol "MMC5633NJL_0_1"
      (rectangle (start -7.62 -5.08) (end 7.62 5.08)
        (stroke (width 0.254)) (fill (type background))
      )
    )
    (symbol "MMC5633NJL_1_1"
      (pin power_in line (at 0 -7.62 90) (length 2.54)
        (name "VSA" (effects (font (size 1.27 1.27))))
        (number "A1" (effects (font (size 1.27 1.27))))
      )
      (pin input line (at -10.16 2.54 0) (length 2.54)
        (name "SCL" (effects (font (size 1.27 1.27))))
        (number "A2" (effects (font (size 1.27 1.27))))
      )
      (pin power_in line (at 0 7.62 270) (length 2.54)
        (name "VDD" (effects (font (size 1.27 1.27))))
        (number "B1" (effects (font (size 1.27 1.27))))
      )
      (pin bidirectional line (at -10.16 0 0) (length 2.54)
        (name "SDA" (effects (font (size 1.27 1.27))))
        (number "B2" (effects (font (size 1.27 1.27))))
      )
    )
  )
  (symbol "Sensor_Magnetic:MMC5883MA" (in_bom yes) (on_board yes)
    (property "Reference" "U" (id 0) (at -7.62 7.62 0)
      (effects (font (size 1.27 1.27)) (justify left top))
    )
    (property "Value" "MMC5883MA" (id 1) (at 5.08 7.62 0)
      (effects (font (size 1.27 1.27)) (justify left top))
    )
    (property "Footprint" "Package_LGA:LGA-16_3x3mm_P0.5mm" (id 2) (at 0 -17.78 0)
      (effects (font (size 1.27 1.27)) hide)
    )
    (property "Datasheet" "http://www.memsic.com/userfiles/files/DataSheets/Magnetic-Sensors-Datasheets/MMC5883MA-RevC.pdf" (id 3) (at -2.54 0 0)
      (effects (font (size 1.27 1.27)) hide)
    )
    (property "ki_keywords" "I2C magnetic 3-axis sensor" (id 4) (at 0 0 0)
      (effects (font (size 1.27 1.27)) hide)
    )
    (property "ki_description" "3-axis Magnetic Sensor, I2C Interface, LGA-16" (id 5) (at 0 0 0)
      (effects (font (size 1.27 1.27)) hide)
    )
    (property "ki_fp_filters" "*LGA*3x3mm*P0.5mm*" (id 6) (at 0 0 0)
      (effects (font (size 1.27 1.27)) hide)
    )
    (symbol "MMC5883MA_0_1"
      (rectangle (start -7.62 -5.08) (end 7.62 5.08)
        (stroke (width 0.254)) (fill (type background))
      )
    )
    (symbol "MMC5883MA_1_1"
      (pin input line (at -10.16 2.54 0) (length 2.54)
        (name "SCL" (effects (font (size 1.27 1.27))))
        (number "1" (effects (font (size 1.27 1.27))))
      )
      (pin passive line (at 10.16 0 180) (length 2.54)
        (name "CAP" (effects (font (size 1.27 1.27))))
        (number "10" (effects (font (size 1.27 1.27))))
      )
      (pin passive line (at 0 -7.62 90) (length 2.54) hide
        (name "GND" (effects (font (size 1.27 1.27))))
        (number "11" (effects (font (size 1.27 1.27))))
      )
      (pin no_connect line (at 5.08 -5.08 90) (length 2.54) hide
        (name "NC" (effects (font (size 1.27 1.27))))
        (number "12" (effects (font (size 1.27 1.27))))
      )
      (pin power_in line (at 2.54 7.62 270) (length 2.54)
        (name "VDDIO" (effects (font (size 1.27 1.27))))
        (number "13" (effects (font (size 1.27 1.27))))
      )
      (pin no_connect line (at -2.54 -5.08 90) (length 2.54) hide
        (name "NC" (effects (font (size 1.27 1.27))))
        (number "14" (effects (font (size 1.27 1.27))))
      )
      (pin output line (at -10.16 -2.54 0) (length 2.54)
        (name "INT" (effects (font (size 1.27 1.27))))
        (number "15" (effects (font (size 1.27 1.27))))
      )
      (pin bidirectional line (at -10.16 0 0) (length 2.54)
        (name "SDA" (effects (font (size 1.27 1.27))))
        (number "16" (effects (font (size 1.27 1.27))))
      )
      (pin power_in line (at 0 7.62 270) (length 2.54)
        (name "VDD" (effects (font (size 1.27 1.27))))
        (number "2" (effects (font (size 1.27 1.27))))
      )
      (pin no_connect line (at 7.62 -5.08 180) (length 2.54) hide
        (name "NC" (effects (font (size 1.27 1.27))))
        (number "3" (effects (font (size 1.27 1.27))))
      )
      (pin no_connect line (at 7.62 2.54 180) (length 2.54) hide
        (name "NC" (effects (font (size 1.27 1.27))))
        (number "4" (effects (font (size 1.27 1.27))))
      )
      (pin no_connect line (at 7.62 5.08 180) (length 2.54) hide
        (name "NC" (effects (font (size 1.27 1.27))))
        (number "5" (effects (font (size 1.27 1.27))))
      )
      (pin no_connect line (at 7.62 -2.54 180) (length 2.54) hide
        (name "NC" (effects (font (size 1.27 1.27))))
        (number "6" (effects (font (size 1.27 1.27))))
      )
      (pin no_connect line (at -5.08 -5.08 90) (length 2.54) hide
        (name "NC" (effects (font (size 1.27 1.27))))
        (number "7" (effects (font (size 1.27 1.27))))
      )
      (pin no_connect line (at 2.54 -5.08 90) (length 2.54) hide
        (name "NC" (effects (font (size 1.27 1.27))))
        (number "8" (effects (font (size 1.27 1.27))))
      )
      (pin power_in line (at 0 -7.62 90) (length 2.54)
        (name "GND" (effects (font (size 1.27 1.27))))
        (number "9" (effects (font (size 1.27 1.27))))
      )
    )
  )
  (symbol "Sensor_Magnetic:SM351LT" (in_bom yes) (on_board yes)
    (property "Reference" "U" (id 0) (at 5.08 8.89 0)
      (effects (font (size 1.27 1.27)))
    )
    (property "Value" "SM351LT" (id 1) (at 2.54 6.35 0)
      (effects (font (size 1.27 1.27)))
    )
    (property "Footprint" "Package_TO_SOT_SMD:SOT-23" (id 2) (at -1.27 0 0)
      (effects (font (size 1.27 1.27)) hide)
    )
    (property "Datasheet" "https://sensing.honeywell.com/honeywell-sensing-nanopower-series-product-sheet-50095501-a-en.pdf" (id 3) (at -1.27 0 0)
      (effects (font (size 1.27 1.27)) hide)
    )
    (property "ki_keywords" "Hall Effect Switch Sensor" (id 4) (at 0 0 0)
      (effects (font (size 1.27 1.27)) hide)
    )
    (property "ki_description" "Hall Effect Switch, SOT-23" (id 5) (at 0 0 0)
      (effects (font (size 1.27 1.27)) hide)
    )
    (property "ki_fp_filters" "SOT?23*" (id 6) (at 0 0 0)
      (effects (font (size 1.27 1.27)) hide)
    )
    (symbol "SM351LT_0_1"
      (rectangle (start 7.62 5.08) (end -7.62 -5.08)
        (stroke (width 0.254)) (fill (type background))
      )
    )
    (symbol "SM351LT_1_1"
      (pin power_in line (at -5.08 7.62 270) (length 2.54)
        (name "VCC" (effects (font (size 1.27 1.27))))
        (number "1" (effects (font (size 1.27 1.27))))
      )
      (pin output line (at 10.16 0 180) (length 2.54)
        (name "OUTPUT" (effects (font (size 1.27 1.27))))
        (number "2" (effects (font (size 1.27 1.27))))
      )
      (pin power_in line (at -5.08 -7.62 90) (length 2.54)
        (name "GND" (effects (font (size 1.27 1.27))))
        (number "3" (effects (font (size 1.27 1.27))))
      )
    )
  )
  (symbol "Sensor_Magnetic:SM353LT" (extends "SM351LT")
    (property "Reference" "U" (id 0) (at 5.08 8.89 0)
      (effects (font (size 1.27 1.27)))
    )
    (property "Value" "SM353LT" (id 1) (at 2.54 6.35 0)
      (effects (font (size 1.27 1.27)))
    )
    (property "Footprint" "Package_TO_SOT_SMD:SOT-23" (id 2) (at -1.27 0 0)
      (effects (font (size 1.27 1.27)) hide)
    )
    (property "Datasheet" "https://sensing.honeywell.com/honeywell-sensing-nanopower-series-product-sheet-50095501-a-en.pdf" (id 3) (at -1.27 0 0)
      (effects (font (size 1.27 1.27)) hide)
    )
    (property "ki_keywords" "Hall Effect Switch Sensor" (id 4) (at 0 0 0)
      (effects (font (size 1.27 1.27)) hide)
    )
    (property "ki_description" "Hall Effect Switch, SOT-23" (id 5) (at 0 0 0)
      (effects (font (size 1.27 1.27)) hide)
    )
    (property "ki_fp_filters" "SOT?23*" (id 6) (at 0 0 0)
      (effects (font (size 1.27 1.27)) hide)
    )
  )
  (symbol "Sensor_Magnetic:TLV493D" (in_bom yes) (on_board yes)
    (property "Reference" "U" (id 0) (at -6.35 11.43 0)
      (effects (font (size 1.27 1.27)))
    )
    (property "Value" "TLV493D" (id 1) (at 5.08 11.43 0)
      (effects (font (size 1.27 1.27)))
    )
    (property "Footprint" "Package_TO_SOT_SMD:SOT-23-6" (id 2) (at -1.27 -12.7 0)
      (effects (font (size 1.27 1.27)) hide)
    )
    (property "Datasheet" "http://www.infineon.com/dgdl/Infineon-TLV493D-A1B6-DS-v01_00-EN.pdf?fileId=5546d462525dbac40152a6b85c760e80" (id 3) (at -3.81 12.7 0)
      (effects (font (size 1.27 1.27)) hide)
    )
    (property "ki_keywords" "magnetic field i2c" (id 4) (at 0 0 0)
      (effects (font (size 1.27 1.27)) hide)
    )
    (property "ki_description" "Low power 3D magnetic sensor, I2C interface, SOT-23-6" (id 5) (at 0 0 0)
      (effects (font (size 1.27 1.27)) hide)
    )
    (property "ki_fp_filters" "SOT?23*" (id 6) (at 0 0 0)
      (effects (font (size 1.27 1.27)) hide)
    )
    (symbol "TLV493D_0_1"
      (rectangle (start -7.62 10.16) (end 6.35 -7.62)
        (stroke (width 0.254)) (fill (type background))
      )
    )
    (symbol "TLV493D_1_1"
      (pin bidirectional line (at -10.16 2.54 0) (length 2.54)
        (name "SCL/INT" (effects (font (size 1.27 1.27))))
        (number "1" (effects (font (size 1.27 1.27))))
      )
      (pin power_in line (at 2.54 -10.16 90) (length 2.54)
        (name "GND" (effects (font (size 1.27 1.27))))
        (number "2" (effects (font (size 1.27 1.27))))
      )
      (pin power_in line (at 0 -10.16 90) (length 2.54)
        (name "GND" (effects (font (size 1.27 1.27))))
        (number "3" (effects (font (size 1.27 1.27))))
      )
      (pin power_in line (at 0 12.7 270) (length 2.54)
        (name "VDD" (effects (font (size 1.27 1.27))))
        (number "4" (effects (font (size 1.27 1.27))))
      )
      (pin power_in line (at -2.54 -10.16 90) (length 2.54)
        (name "GND" (effects (font (size 1.27 1.27))))
        (number "5" (effects (font (size 1.27 1.27))))
      )
      (pin bidirectional line (at -10.16 0 0) (length 2.54)
        (name "SDA/ADDR" (effects (font (size 1.27 1.27))))
        (number "6" (effects (font (size 1.27 1.27))))
      )
    )
  )
  (symbol "Sensor_Magnetic:TMAG5170-Q1" (in_bom yes) (on_board yes)
    (property "Reference" "U" (id 0) (at -2.54 13.335 0)
      (effects (font (size 1.27 1.27)) (justify right))
    )
    (property "Value" "TMAG5170-Q1" (id 1) (at -2.54 11.43 0)
      (effects (font (size 1.27 1.27)) (justify right))
    )
    (property "Footprint" "Package_SO:VSSOP-8_3.0x3.0mm_P0.65mm" (id 2) (at 6.35 -11.43 0)
      (effects (font (size 1.27 1.27)) (justify left) hide)
    )
    (property "Datasheet" "https://www.ti.com/lit/ds/symlink/tmag5170-q1.pdf" (id 3) (at -54.61 40.64 0)
      (effects (font (size 1.27 1.27)) hide)
    )
    (property "ki_keywords" "sensor magnetic hall position rotation spi" (id 4) (at 0 0 0)
      (effects (font (size 1.27 1.27)) hide)
    )
    (property "ki_description" "Magnetic 3-axis linear sensor, 12-bit, Automotive, SPI Interface, VSSOP-8" (id 5) (at 0 0 0)
      (effects (font (size 1.27 1.27)) hide)
    )
    (property "ki_fp_filters" "VSSOP*3.0x3.0mm*P0.65mm*" (id 6) (at 0 0 0)
      (effects (font (size 1.27 1.27)) hide)
    )
    (symbol "TMAG5170-Q1_0_1"
      (arc (start -2.794 0) (end 2.794 0) (radius (at 0 0) (length 2.794) (angles -179.9 -0.1))
        (stroke (width 0.254)) (fill (type none))
      )
      (rectangle (start -10.16 10.16) (end 10.16 -10.16)
        (stroke (width 0.254)) (fill (type background))
      )
      (polyline
        (pts
          (xy -2.794 0)
          (xy -3.302 -0.508)
        )
        (stroke (width 0.254)) (fill (type none))
      )
      (polyline
        (pts
          (xy -2.794 0)
          (xy -2.286 -0.508)
        )
        (stroke (width 0.254)) (fill (type none))
      )
      (polyline
        (pts
          (xy 2.794 0)
          (xy 2.286 -0.508)
        )
        (stroke (width 0.254)) (fill (type none))
      )
      (polyline
        (pts
          (xy 2.794 0)
          (xy 3.302 -0.508)
        )
        (stroke (width 0.254)) (fill (type none))
      )
    )
    (symbol "TMAG5170-Q1_1_1"
      (circle (center 0 0) (radius 2.032) (stroke (width 0.254)) (fill (type none)))
      (polyline
        (pts
          (xy 0.254 0.254)
          (xy 1.27 -0.762)
          (xy 0.762 -1.27)
          (xy -0.254 -0.254)
        )
        (stroke (width 0)) (fill (type none))
      )
      (polyline
        (pts
          (xy -0.762 1.27)
          (xy 0.254 0.254)
          (xy -0.254 -0.254)
          (xy -1.27 0.762)
          (xy -1.016 1.016)
          (xy -0.762 1.27)
          (xy -0.635 1.143)
        )
        (stroke (width 0)) (fill (type outline))
      )
      (pin input line (at -12.7 0 0) (length 2.54)
        (name "~CS" (effects (font (size 1.27 1.27))))
        (number "4" (effects (font (size 1.27 1.27))))
      )
      (pin passive line (at 5.08 -12.7 90) (length 2.54)
        (name "TEST" (effects (font (size 1.27 1.27))))
        (number "7" (effects (font (size 1.27 1.27))))
      )
      (pin power_in line (at 0 12.7 270) (length 2.54)
        (name "VCC" (effects (font (size 1.27 1.27))))
        (number "5" (effects (font (size 1.27 1.27))))
      )
      (pin power_in line (at 0 -12.7 90) (length 2.54)
        (name "GND" (effects (font (size 1.27 1.27))))
        (number "6" (effects (font (size 1.27 1.27))))
      )
      (pin bidirectional line (at 12.7 7.62 180) (length 2.54)
        (name "~ALERT" (effects (font (size 1.27 1.27))))
        (number "8" (effects (font (size 1.27 1.27))))
      )
      (pin input line (at -12.7 7.62 0) (length 2.54)
        (name "SCLK" (effects (font (size 1.27 1.27))))
        (number "1" (effects (font (size 1.27 1.27))))
      )
      (pin output line (at -12.7 2.54 0) (length 2.54)
        (name "MISO" (effects (font (size 1.27 1.27))))
        (number "3" (effects (font (size 1.27 1.27))))
      )
      (pin input line (at -12.7 5.08 0) (length 2.54)
        (name "MOSI" (effects (font (size 1.27 1.27))))
        (number "2" (effects (font (size 1.27 1.27))))
      )
    )
  )
)
