(kicad_symbol_lib (version 20201005) (generator kicad_symbol_editor)
  (symbol "Simulation_SPICE:DIODE" (pin_numbers hide) (pin_names (offset 1.016) hide) (in_bom yes) (on_board yes)
    (property "Reference" "D" (id 0) (at 0 2.54 0)
      (effects (font (size 1.27 1.27)))
    )
    (property "Value" "DIODE" (id 1) (at 0 -2.54 0)
      (effects (font (size 1.27 1.27)))
    )
    (property "Footprint" "" (id 2) (at 0 0 0)
      (effects (font (size 1.27 1.27)) hide)
    )
    (property "Datasheet" "~" (id 3) (at 0 0 0)
      (effects (font (size 1.27 1.27)) hide)
    )
    (property "Spice_Netlist_Enabled" "Y" (id 4) (at 0 0 0)
      (effects (font (size 1.27 1.27)) (justify left) hide)
    )
    (property "Spice_Primitive" "D" (id 5) (at 0 0 0)
      (effects (font (size 1.27 1.27)) (justify left) hide)
    )
    (property "ki_keywords" "simulation" (id 6) (at 0 0 0)
      (effects (font (size 1.27 1.27)) hide)
    )
    (property "ki_description" "Diode, anode on pin 1, for simulation only!" (id 7) (at 0 0 0)
      (effects (font (size 1.27 1.27)) hide)
    )
    (symbol "DIODE_0_1"
      (polyline
        (pts
          (xy 1.27 0)
          (xy -1.27 0)
        )
        (stroke (width 0)) (fill (type none))
      )
      (polyline
        (pts
          (xy 1.27 1.27)
          (xy 1.27 -1.27)
        )
        (stroke (width 0.254)) (fill (type none))
      )
      (polyline
        (pts
          (xy -1.27 -1.27)
          (xy -1.27 1.27)
          (xy 1.27 0)
          (xy -1.27 -1.27)
        )
        (stroke (width 0.254)) (fill (type none))
      )
    )
    (symbol "DIODE_1_1"
      (pin passive line (at -3.81 0 0) (length 2.54)
        (name "A" (effects (font (size 1.27 1.27))))
        (number "1" (effects (font (size 1.27 1.27))))
      )
      (pin passive line (at 3.81 0 180) (length 2.54)
        (name "K" (effects (font (size 1.27 1.27))))
        (number "2" (effects (font (size 1.27 1.27))))
      )
    )
  )
  (symbol "Simulation_SPICE:IAM" (pin_numbers hide) (pin_names (offset 0.0254)) (in_bom yes) (on_board yes)
    (property "Reference" "I" (id 0) (at 2.54 2.54 0)
      (effects (font (size 1.27 1.27)) (justify left))
    )
    (property "Value" "IAM" (id 1) (at 2.54 0 0)
      (effects (font (size 1.27 1.27)) (justify left))
    )
    (property "Footprint" "" (id 2) (at 0 0 0)
      (effects (font (size 1.27 1.27)) hide)
    )
    (property "Datasheet" "~" (id 3) (at 0 0 0)
      (effects (font (size 1.27 1.27)) hide)
    )
    (property "Spice_Netlist_Enabled" "Y" (id 4) (at 0 0 0)
      (effects (font (size 1.27 1.27)) (justify left) hide)
    )
    (property "Spice_Primitive" "I" (id 5) (at 0 0 0)
      (effects (font (size 1.27 1.27)) (justify left) hide)
    )
    (property "Spice_Model" "am(1 0 100k 1k 1n)" (id 6) (at 2.54 -2.54 0)
      (effects (font (size 1.27 1.27)) (justify left))
    )
    (property "ki_keywords" "simulation amplitude modulated" (id 7) (at 0 0 0)
      (effects (font (size 1.27 1.27)) hide)
    )
    (property "ki_description" "Current source, AM" (id 8) (at 0 0 0)
      (effects (font (size 1.27 1.27)) hide)
    )
    (symbol "IAM_0_0"
      (arc (start 0 0.508) (end -0.508 0.508) (radius (at -0.254 0.508) (length 0.254) (angles 0.1 180))
        (stroke (width 0)) (fill (type none))
      )
    )
    (symbol "IAM_0_1"
      (arc (start -1.016 0) (end -1.524 0) (radius (at -1.27 0) (length 0.254) (angles 0.1 180))
        (stroke (width 0)) (fill (type none))
      )
      (arc (start -1.016 0) (end -0.508 0) (radius (at -0.762 0) (length 0.254) (angles 180 -0.1))
        (stroke (width 0)) (fill (type none))
      )
      (arc (start 0 -0.508) (end 0.508 -0.508) (radius (at 0.254 -0.508) (length 0.254) (angles 180 -0.1))
        (stroke (width 0)) (fill (type none))
      )
      (arc (start 1.016 0) (end 0.508 0) (radius (at 0.762 0) (length 0.254) (angles 0.1 180))
        (stroke (width 0)) (fill (type none))
      )
      (arc (start 1.016 0) (end 1.524 0) (radius (at 1.27 0) (length 0.254) (angles 180 -0.1))
        (stroke (width 0)) (fill (type none))
      )
      (circle (center 0 0) (radius 2.54) (stroke (width 0.254)) (fill (type background)))
      (polyline
        (pts
          (xy -0.508 0.508)
          (xy -0.508 0)
        )
        (stroke (width 0)) (fill (type none))
      )
      (polyline
        (pts
          (xy 0 0.508)
          (xy 0 -0.508)
        )
        (stroke (width 0)) (fill (type none))
      )
      (polyline
        (pts
          (xy 0 1.27)
          (xy 0 2.286)
        )
        (stroke (width 0)) (fill (type none))
      )
      (polyline
        (pts
          (xy 0.508 -0.508)
          (xy 0.508 0)
        )
        (stroke (width 0)) (fill (type none))
      )
      (polyline
        (pts
          (xy -0.254 1.778)
          (xy 0 1.27)
          (xy 0.254 1.778)
        )
        (stroke (width 0)) (fill (type none))
      )
    )
    (symbol "IAM_1_1"
      (pin passive line (at 0 5.08 270) (length 2.54)
        (name "~" (effects (font (size 1.27 1.27))))
        (number "1" (effects (font (size 1.27 1.27))))
      )
      (pin passive line (at 0 -5.08 90) (length 2.54)
        (name "~" (effects (font (size 1.27 1.27))))
        (number "2" (effects (font (size 1.27 1.27))))
      )
    )
  )
  (symbol "Simulation_SPICE:IDC" (pin_numbers hide) (pin_names (offset 0.0254)) (in_bom yes) (on_board yes)
    (property "Reference" "I" (id 0) (at 2.54 2.54 0)
      (effects (font (size 1.27 1.27)) (justify left))
    )
    (property "Value" "IDC" (id 1) (at 2.54 0 0)
      (effects (font (size 1.27 1.27)) (justify left))
    )
    (property "Footprint" "" (id 2) (at 0 0 0)
      (effects (font (size 1.27 1.27)) hide)
    )
    (property "Datasheet" "~" (id 3) (at 0 0 0)
      (effects (font (size 1.27 1.27)) hide)
    )
    (property "Spice_Netlist_Enabled" "Y" (id 4) (at 0 0 0)
      (effects (font (size 1.27 1.27)) (justify left) hide)
    )
    (property "Spice_Primitive" "I" (id 5) (at 0 0 0)
      (effects (font (size 1.27 1.27)) (justify left) hide)
    )
    (property "Spice_Model" "dc(1)" (id 6) (at 2.54 -2.54 0)
      (effects (font (size 1.27 1.27)) (justify left))
    )
    (property "ki_keywords" "simulation" (id 7) (at 0 0 0)
      (effects (font (size 1.27 1.27)) hide)
    )
    (property "ki_description" "Current source, DC" (id 8) (at 0 0 0)
      (effects (font (size 1.27 1.27)) hide)
    )
    (symbol "IDC_0_0"
      (polyline
        (pts
          (xy -1.27 0.254)
          (xy 1.27 0.254)
        )
        (stroke (width 0)) (fill (type none))
      )
      (polyline
        (pts
          (xy -0.762 -0.254)
          (xy -1.27 -0.254)
        )
        (stroke (width 0)) (fill (type none))
      )
      (polyline
        (pts
          (xy 0.254 -0.254)
          (xy -0.254 -0.254)
        )
        (stroke (width 0)) (fill (type none))
      )
      (polyline
        (pts
          (xy 1.27 -0.254)
          (xy 0.762 -0.254)
        )
        (stroke (width 0)) (fill (type none))
      )
    )
    (symbol "IDC_0_1"
      (circle (center 0 0) (radius 2.54) (stroke (width 0.254)) (fill (type background)))
      (polyline
        (pts
          (xy 0 1.27)
          (xy 0 2.286)
        )
        (stroke (width 0)) (fill (type none))
      )
      (polyline
        (pts
          (xy -0.254 1.778)
          (xy 0 1.27)
          (xy 0.254 1.778)
        )
        (stroke (width 0)) (fill (type none))
      )
    )
    (symbol "IDC_1_1"
      (pin passive line (at 0 5.08 270) (length 2.54)
        (name "~" (effects (font (size 1.27 1.27))))
        (number "1" (effects (font (size 1.27 1.27))))
      )
      (pin passive line (at 0 -5.08 90) (length 2.54)
        (name "~" (effects (font (size 1.27 1.27))))
        (number "2" (effects (font (size 1.27 1.27))))
      )
    )
  )
  (symbol "Simulation_SPICE:IEXP" (pin_numbers hide) (pin_names (offset 0.0254)) (in_bom yes) (on_board yes)
    (property "Reference" "I" (id 0) (at 2.54 2.54 0)
      (effects (font (size 1.27 1.27)) (justify left))
    )
    (property "Value" "IEXP" (id 1) (at 2.54 0 0)
      (effects (font (size 1.27 1.27)) (justify left))
    )
    (property "Footprint" "" (id 2) (at 0 0 0)
      (effects (font (size 1.27 1.27)) hide)
    )
    (property "Datasheet" "~" (id 3) (at 0 0 0)
      (effects (font (size 1.27 1.27)) hide)
    )
    (property "Spice_Netlist_Enabled" "Y" (id 4) (at 0 0 0)
      (effects (font (size 1.27 1.27)) (justify left) hide)
    )
    (property "Spice_Primitive" "I" (id 5) (at 0 0 0)
      (effects (font (size 1.27 1.27)) (justify left) hide)
    )
    (property "Spice_Model" "exp(0 1 2n 30n 60n 40n)" (id 6) (at 2.54 -2.54 0)
      (effects (font (size 1.27 1.27)) (justify left))
    )
    (property "ki_keywords" "simulation" (id 7) (at 0 0 0)
      (effects (font (size 1.27 1.27)) hide)
    )
    (property "ki_description" "Current source, exponential" (id 8) (at 0 0 0)
      (effects (font (size 1.27 1.27)) hide)
    )
    (symbol "IEXP_0_0"
      (arc (start 0 0.762) (end -1.27 -0.762) (radius (at 0.6096 -1.0414) (length 1.905) (angles 108.7 171.5))
        (stroke (width 0)) (fill (type none))
      )
      (arc (start 0 0.762) (end 1.27 -0.762) (radius (at 1.5494 0.762) (length 1.5494) (angles 180 -100.4))
        (stroke (width 0)) (fill (type none))
      )
      (polyline
        (pts
          (xy -1.27 -0.762)
          (xy -1.778 -0.762)
        )
        (stroke (width 0)) (fill (type none))
      )
      (polyline
        (pts
          (xy 1.27 -0.762)
          (xy 1.778 -0.762)
        )
        (stroke (width 0)) (fill (type none))
      )
    )
    (symbol "IEXP_0_1"
      (circle (center 0 0) (radius 2.54) (stroke (width 0.254)) (fill (type background)))
      (polyline
        (pts
          (xy 0 1.27)
          (xy 0 2.286)
        )
        (stroke (width 0)) (fill (type none))
      )
      (polyline
        (pts
          (xy -0.254 1.778)
          (xy 0 1.27)
          (xy 0.254 1.778)
        )
        (stroke (width 0)) (fill (type none))
      )
    )
    (symbol "IEXP_1_1"
      (pin passive line (at 0 5.08 270) (length 2.54)
        (name "~" (effects (font (size 1.27 1.27))))
        (number "1" (effects (font (size 1.27 1.27))))
      )
      (pin passive line (at 0 -5.08 90) (length 2.54)
        (name "~" (effects (font (size 1.27 1.27))))
        (number "2" (effects (font (size 1.27 1.27))))
      )
    )
  )
  (symbol "Simulation_SPICE:IPULSE" (pin_numbers hide) (pin_names (offset 0.0254)) (in_bom yes) (on_board yes)
    (property "Reference" "I" (id 0) (at 2.54 2.54 0)
      (effects (font (size 1.27 1.27)) (justify left))
    )
    (property "Value" "IPULSE" (id 1) (at 2.54 0 0)
      (effects (font (size 1.27 1.27)) (justify left))
    )
    (property "Footprint" "" (id 2) (at 0 0 0)
      (effects (font (size 1.27 1.27)) hide)
    )
    (property "Datasheet" "~" (id 3) (at 0 0 0)
      (effects (font (size 1.27 1.27)) hide)
    )
    (property "Spice_Netlist_Enabled" "Y" (id 4) (at 0 0 0)
      (effects (font (size 1.27 1.27)) (justify left) hide)
    )
    (property "Spice_Primitive" "I" (id 5) (at 0 0 0)
      (effects (font (size 1.27 1.27)) (justify left) hide)
    )
    (property "Spice_Model" "pulse(0 1 2n 2n 2n 50n 100n)" (id 6) (at 2.54 -2.54 0)
      (effects (font (size 1.27 1.27)) (justify left))
    )
    (property "ki_keywords" "simulation" (id 7) (at 0 0 0)
      (effects (font (size 1.27 1.27)) hide)
    )
    (property "ki_description" "Current source, pulse" (id 8) (at 0 0 0)
      (effects (font (size 1.27 1.27)) hide)
    )
    (symbol "IPULSE_0_0"
      (polyline
        (pts
          (xy -2.032 -0.762)
          (xy -1.397 -0.762)
          (xy -1.143 0.762)
          (xy -0.127 0.762)
          (xy 0.127 -0.762)
          (xy 1.143 -0.762)
          (xy 1.397 0.762)
          (xy 2.032 0.762)
        )
        (stroke (width 0)) (fill (type none))
      )
    )
    (symbol "IPULSE_0_1"
      (circle (center 0 0) (radius 2.54) (stroke (width 0.254)) (fill (type background)))
      (polyline
        (pts
          (xy 0 1.27)
          (xy 0 2.286)
        )
        (stroke (width 0)) (fill (type none))
      )
      (polyline
        (pts
          (xy -0.254 1.778)
          (xy 0 1.27)
          (xy 0.254 1.778)
        )
        (stroke (width 0)) (fill (type none))
      )
    )
    (symbol "IPULSE_1_1"
      (pin passive line (at 0 5.08 270) (length 2.54)
        (name "~" (effects (font (size 1.27 1.27))))
        (number "1" (effects (font (size 1.27 1.27))))
      )
      (pin passive line (at 0 -5.08 90) (length 2.54)
        (name "~" (effects (font (size 1.27 1.27))))
        (number "2" (effects (font (size 1.27 1.27))))
      )
    )
  )
  (symbol "Simulation_SPICE:IPWL" (pin_numbers hide) (pin_names (offset 0.0254)) (in_bom yes) (on_board yes)
    (property "Reference" "I" (id 0) (at 2.54 2.54 0)
      (effects (font (size 1.27 1.27)) (justify left))
    )
    (property "Value" "IPWL" (id 1) (at 2.54 0 0)
      (effects (font (size 1.27 1.27)) (justify left))
    )
    (property "Footprint" "" (id 2) (at 0 0 0)
      (effects (font (size 1.27 1.27)) hide)
    )
    (property "Datasheet" "~" (id 3) (at 0 0 0)
      (effects (font (size 1.27 1.27)) hide)
    )
    (property "Spice_Netlist_Enabled" "Y" (id 4) (at 0 0 0)
      (effects (font (size 1.27 1.27)) (justify left) hide)
    )
    (property "Spice_Primitive" "I" (id 5) (at 0 0 0)
      (effects (font (size 1.27 1.27)) (justify left) hide)
    )
    (property "Spice_Model" "pwl(0 -1 50n -1 51n 0 97n 1 171n -1 200n -1)" (id 6) (at 2.54 -2.54 0)
      (effects (font (size 1.27 1.27)) (justify left))
    )
    (property "ki_keywords" "simulation" (id 7) (at 0 0 0)
      (effects (font (size 1.27 1.27)) hide)
    )
    (property "ki_description" "Current source, piece-wise linear" (id 8) (at 0 0 0)
      (effects (font (size 1.27 1.27)) hide)
    )
    (symbol "IPWL_0_0"
      (polyline
        (pts
          (xy -1.778 -1.016)
          (xy -0.762 1.016)
          (xy -0.254 0)
          (xy 0.762 0)
          (xy 1.27 1.27)
        )
        (stroke (width 0)) (fill (type none))
      )
    )
    (symbol "IPWL_0_1"
      (circle (center 0 0) (radius 2.54) (stroke (width 0.254)) (fill (type background)))
      (polyline
        (pts
          (xy 0 1.27)
          (xy 0 2.286)
        )
        (stroke (width 0)) (fill (type none))
      )
      (polyline
        (pts
          (xy -0.254 1.778)
          (xy 0 1.27)
          (xy 0.254 1.778)
        )
        (stroke (width 0)) (fill (type none))
      )
    )
    (symbol "IPWL_1_1"
      (pin passive line (at 0 5.08 270) (length 2.54)
        (name "~" (effects (font (size 1.27 1.27))))
        (number "1" (effects (font (size 1.27 1.27))))
      )
      (pin passive line (at 0 -5.08 90) (length 2.54)
        (name "~" (effects (font (size 1.27 1.27))))
        (number "2" (effects (font (size 1.27 1.27))))
      )
    )
  )
  (symbol "Simulation_SPICE:ISFFM" (pin_numbers hide) (pin_names (offset 0.0254)) (in_bom yes) (on_board yes)
    (property "Reference" "I" (id 0) (at 2.54 2.54 0)
      (effects (font (size 1.27 1.27)) (justify left))
    )
    (property "Value" "ISFFM" (id 1) (at 2.54 0 0)
      (effects (font (size 1.27 1.27)) (justify left))
    )
    (property "Footprint" "" (id 2) (at 0 0 0)
      (effects (font (size 1.27 1.27)) hide)
    )
    (property "Datasheet" "~" (id 3) (at 0 0 0)
      (effects (font (size 1.27 1.27)) hide)
    )
    (property "Spice_Netlist_Enabled" "Y" (id 4) (at 0 0 0)
      (effects (font (size 1.27 1.27)) (justify left) hide)
    )
    (property "Spice_Primitive" "I" (id 5) (at 0 0 0)
      (effects (font (size 1.27 1.27)) (justify left) hide)
    )
    (property "Spice_Model" "sffm(0 1 100k 5 1k)" (id 6) (at 2.54 -2.54 0)
      (effects (font (size 1.27 1.27)) (justify left))
    )
    (property "ki_keywords" "simulation frequency modulated" (id 7) (at 0 0 0)
      (effects (font (size 1.27 1.27)) hide)
    )
    (property "ki_description" "Current source, single-frequency FM" (id 8) (at 0 0 0)
      (effects (font (size 1.27 1.27)) hide)
    )
    (symbol "ISFFM_0_1"
      (arc (start -1.524 0.254) (end -2.032 0.254) (radius (at -1.778 0.254) (length 0.254) (angles 0.1 180))
        (stroke (width 0)) (fill (type none))
      )
      (arc (start -1.524 -0.254) (end -1.016 -0.254) (radius (at -1.27 -0.254) (length 0.254) (angles 180 -0.1))
        (stroke (width 0)) (fill (type none))
      )
      (arc (start 0 0) (end -1.016 0) (radius (at -0.508 0) (length 0.508) (angles 0.1 180))
        (stroke (width 0)) (fill (type none))
      )
      (arc (start 0 0) (end 1.016 0) (radius (at 0.508 0) (length 0.508) (angles 180 -0.1))
        (stroke (width 0)) (fill (type none))
      )
      (arc (start 1.524 0.254) (end 1.016 0.254) (radius (at 1.27 0.254) (length 0.254) (angles 0.1 180))
        (stroke (width 0)) (fill (type none))
      )
      (arc (start 1.524 -0.254) (end 2.032 -0.254) (radius (at 1.778 -0.254) (length 0.254) (angles 180 -0.1))
        (stroke (width 0)) (fill (type none))
      )
      (circle (center 0 0) (radius 2.54) (stroke (width 0.254)) (fill (type background)))
      (polyline
        (pts
          (xy -2.032 0.254)
          (xy -2.032 0)
        )
        (stroke (width 0)) (fill (type none))
      )
      (polyline
        (pts
          (xy -1.524 -0.254)
          (xy -1.524 0.254)
        )
        (stroke (width 0)) (fill (type none))
      )
      (polyline
        (pts
          (xy -1.016 0)
          (xy -1.016 -0.254)
        )
        (stroke (width 0)) (fill (type none))
      )
      (polyline
        (pts
          (xy 0 1.27)
          (xy 0 2.286)
        )
        (stroke (width 0)) (fill (type none))
      )
      (polyline
        (pts
          (xy 1.016 0.254)
          (xy 1.016 0)
        )
        (stroke (width 0)) (fill (type none))
      )
      (polyline
        (pts
          (xy 1.524 0.254)
          (xy 1.524 -0.254)
        )
        (stroke (width 0)) (fill (type none))
      )
      (polyline
        (pts
          (xy 2.032 -0.254)
          (xy 2.032 0)
        )
        (stroke (width 0)) (fill (type none))
      )
      (polyline
        (pts
          (xy -0.254 1.778)
          (xy 0 1.27)
          (xy 0.254 1.778)
        )
        (stroke (width 0)) (fill (type none))
      )
    )
    (symbol "ISFFM_1_1"
      (pin passive line (at 0 5.08 270) (length 2.54)
        (name "~" (effects (font (size 1.27 1.27))))
        (number "1" (effects (font (size 1.27 1.27))))
      )
      (pin passive line (at 0 -5.08 90) (length 2.54)
        (name "~" (effects (font (size 1.27 1.27))))
        (number "2" (effects (font (size 1.27 1.27))))
      )
    )
  )
  (symbol "Simulation_SPICE:ISIN" (pin_numbers hide) (pin_names (offset 0.0254)) (in_bom yes) (on_board yes)
    (property "Reference" "I" (id 0) (at 2.54 2.54 0)
      (effects (font (size 1.27 1.27)) (justify left))
    )
    (property "Value" "ISIN" (id 1) (at 2.54 0 0)
      (effects (font (size 1.27 1.27)) (justify left))
    )
    (property "Footprint" "" (id 2) (at 0 0 0)
      (effects (font (size 1.27 1.27)) hide)
    )
    (property "Datasheet" "~" (id 3) (at 0 0 0)
      (effects (font (size 1.27 1.27)) hide)
    )
    (property "Spice_Netlist_Enabled" "Y" (id 4) (at 0 0 0)
      (effects (font (size 1.27 1.27)) (justify left) hide)
    )
    (property "Spice_Primitive" "I" (id 5) (at 0 0 0)
      (effects (font (size 1.27 1.27)) (justify left) hide)
    )
    (property "Spice_Model" "sin(0 1 1k)" (id 6) (at 2.54 -2.54 0)
      (effects (font (size 1.27 1.27)) (justify left))
    )
    (property "ki_keywords" "simulation" (id 7) (at 0 0 0)
      (effects (font (size 1.27 1.27)) hide)
    )
    (property "ki_description" "Current source, sinusoidal" (id 8) (at 0 0 0)
      (effects (font (size 1.27 1.27)) hide)
    )
    (symbol "ISIN_0_0"
      (arc (start 0 0) (end -1.27 0) (radius (at -0.635 0) (length 0.635) (angles 0.1 180))
        (stroke (width 0)) (fill (type none))
      )
      (arc (start 0 0) (end 1.27 0) (radius (at 0.635 0) (length 0.635) (angles 180 -0.1))
        (stroke (width 0)) (fill (type none))
      )
    )
    (symbol "ISIN_0_1"
      (circle (center 0 0) (radius 2.54) (stroke (width 0.254)) (fill (type background)))
      (polyline
        (pts
          (xy 0 1.27)
          (xy 0 2.286)
        )
        (stroke (width 0)) (fill (type none))
      )
      (polyline
        (pts
          (xy -0.254 1.778)
          (xy 0 1.27)
          (xy 0.254 1.778)
        )
        (stroke (width 0)) (fill (type none))
      )
    )
    (symbol "ISIN_1_1"
      (pin passive line (at 0 5.08 270) (length 2.54)
        (name "~" (effects (font (size 1.27 1.27))))
        (number "1" (effects (font (size 1.27 1.27))))
      )
      (pin passive line (at 0 -5.08 90) (length 2.54)
        (name "~" (effects (font (size 1.27 1.27))))
        (number "2" (effects (font (size 1.27 1.27))))
      )
    )
  )
  (symbol "Simulation_SPICE:ITRNOISE" (pin_numbers hide) (pin_names (offset 0.0254)) (in_bom yes) (on_board yes)
    (property "Reference" "I" (id 0) (at 2.54 2.54 0)
      (effects (font (size 1.27 1.27)) (justify left))
    )
    (property "Value" "ITRNOISE" (id 1) (at 2.54 0 0)
      (effects (font (size 1.27 1.27)) (justify left))
    )
    (property "Footprint" "" (id 2) (at 0 0 0)
      (effects (font (size 1.27 1.27)) hide)
    )
    (property "Datasheet" "~" (id 3) (at 0 0 0)
      (effects (font (size 1.27 1.27)) hide)
    )
    (property "Spice_Netlist_Enabled" "Y" (id 4) (at 0 0 0)
      (effects (font (size 1.27 1.27)) (justify left) hide)
    )
    (property "Spice_Primitive" "I" (id 5) (at 0 0 0)
      (effects (font (size 1.27 1.27)) (justify left) hide)
    )
    (property "Spice_Model" "trnoise(20n 0.5n 0 0)" (id 6) (at 2.54 -2.54 0)
      (effects (font (size 1.27 1.27)) (justify left))
    )
    (property "ki_keywords" "simulation" (id 7) (at 0 0 0)
      (effects (font (size 1.27 1.27)) hide)
    )
    (property "ki_description" "Current source, transient noise" (id 8) (at 0 0 0)
      (effects (font (size 1.27 1.27)) hide)
    )
    (symbol "ITRNOISE_0_1"
      (circle (center 0 0) (radius 2.54) (stroke (width 0.254)) (fill (type background)))
      (polyline
        (pts
          (xy 0 1.27)
          (xy 0 2.286)
        )
        (stroke (width 0)) (fill (type none))
      )
      (polyline
        (pts
          (xy -0.254 1.778)
          (xy 0 1.27)
          (xy 0.254 1.778)
        )
        (stroke (width 0)) (fill (type none))
      )
      (polyline
        (pts
          (xy -2.032 -0.762)
          (xy -1.651 1.143)
          (xy -1.651 -0.254)
          (xy -1.524 0.508)
          (xy -1.397 -1.143)
          (xy -0.889 1.016)
          (xy -0.762 -0.762)
          (xy -0.508 0.254)
          (xy -0.381 -0.508)
          (xy -0.254 0.381)
          (xy -0.127 -0.889)
          (xy 0.381 1.397)
          (xy 0.508 -1.397)
          (xy 0.635 0.762)
          (xy 1.016 -0.381)
          (xy 1.27 1.397)
          (xy 1.524 -0.508)
          (xy 1.778 0.381)
          (xy 2.032 -0.889)
        )
        (stroke (width 0)) (fill (type none))
      )
    )
    (symbol "ITRNOISE_1_1"
      (pin passive line (at 0 5.08 270) (length 2.54)
        (name "~" (effects (font (size 1.27 1.27))))
        (number "1" (effects (font (size 1.27 1.27))))
      )
      (pin passive line (at 0 -5.08 90) (length 2.54)
        (name "~" (effects (font (size 1.27 1.27))))
        (number "2" (effects (font (size 1.27 1.27))))
      )
    )
  )
  (symbol "Simulation_SPICE:ITRRANDOM" (pin_numbers hide) (pin_names (offset 0.0254)) (in_bom yes) (on_board yes)
    (property "Reference" "I" (id 0) (at 2.54 2.54 0)
      (effects (font (size 1.27 1.27)) (justify left))
    )
    (property "Value" "ITRRANDOM" (id 1) (at 2.54 0 0)
      (effects (font (size 1.27 1.27)) (justify left))
    )
    (property "Footprint" "" (id 2) (at 0 0 0)
      (effects (font (size 1.27 1.27)) hide)
    )
    (property "Datasheet" "~" (id 3) (at 0 0 0)
      (effects (font (size 1.27 1.27)) hide)
    )
    (property "Spice_Netlist_Enabled" "Y" (id 4) (at 0 0 0)
      (effects (font (size 1.27 1.27)) (justify left) hide)
    )
    (property "Spice_Primitive" "I" (id 5) (at 0 0 0)
      (effects (font (size 1.27 1.27)) (justify left) hide)
    )
    (property "Spice_Model" "trrandom(2 10m 0 1)" (id 6) (at 2.54 -2.54 0)
      (effects (font (size 1.27 1.27)) (justify left))
    )
    (property "ki_keywords" "simulation" (id 7) (at 0 0 0)
      (effects (font (size 1.27 1.27)) hide)
    )
    (property "ki_description" "Current source, random noise" (id 8) (at 0 0 0)
      (effects (font (size 1.27 1.27)) hide)
    )
    (symbol "ITRRANDOM_0_1"
      (circle (center 0 0) (radius 2.54) (stroke (width 0.254)) (fill (type background)))
      (polyline
        (pts
          (xy 0 1.27)
          (xy 0 2.286)
        )
        (stroke (width 0)) (fill (type none))
      )
      (polyline
        (pts
          (xy -0.254 1.778)
          (xy 0 1.27)
          (xy 0.254 1.778)
        )
        (stroke (width 0)) (fill (type none))
      )
      (polyline
        (pts
          (xy -2.032 -0.762)
          (xy -1.651 1.143)
          (xy -1.651 -0.254)
          (xy -1.524 0.508)
          (xy -1.397 -1.143)
          (xy -0.889 1.016)
          (xy -0.762 -0.762)
          (xy -0.508 0.254)
          (xy -0.381 -0.508)
          (xy -0.254 0.381)
          (xy -0.127 -0.889)
          (xy 0.381 1.397)
          (xy 0.508 -1.397)
          (xy 0.635 0.762)
          (xy 1.016 -0.381)
          (xy 1.27 1.397)
          (xy 1.524 -0.508)
          (xy 1.778 0.381)
          (xy 2.032 -0.889)
        )
        (stroke (width 0)) (fill (type none))
      )
    )
    (symbol "ITRRANDOM_1_1"
      (pin passive line (at 0 5.08 270) (length 2.54)
        (name "~" (effects (font (size 1.27 1.27))))
        (number "1" (effects (font (size 1.27 1.27))))
      )
      (pin passive line (at 0 -5.08 90) (length 2.54)
        (name "~" (effects (font (size 1.27 1.27))))
        (number "2" (effects (font (size 1.27 1.27))))
      )
    )
  )
  (symbol "Simulation_SPICE:OPAMP" (pin_names (offset 0.254)) (in_bom yes) (on_board yes)
    (property "Reference" "U" (id 0) (at 3.81 3.175 0)
      (effects (font (size 1.27 1.27)) (justify left))
    )
    (property "Value" "OPAMP" (id 1) (at 3.81 -3.175 0)
      (effects (font (size 1.27 1.27)) (justify left))
    )
    (property "Footprint" "" (id 2) (at 0 0 0)
      (effects (font (size 1.27 1.27)) hide)
    )
    (property "Datasheet" "~" (id 3) (at 0 0 0)
      (effects (font (size 1.27 1.27)) hide)
    )
    (property "Spice_Netlist_Enabled" "Y" (id 4) (at 0 0 0)
      (effects (font (size 1.27 1.27)) (justify left) hide)
    )
    (property "Spice_Primitive" "X" (id 5) (at 0 0 0)
      (effects (font (size 1.27 1.27)) (justify left) hide)
    )
    (property "ki_keywords" "simulation" (id 6) (at 0 0 0)
      (effects (font (size 1.27 1.27)) hide)
    )
    (property "ki_description" "Operational amplifier, single, node sequence=1:+ 2:- 3:OUT 4:V+ 5:V-" (id 7) (at 0 0 0)
      (effects (font (size 1.27 1.27)) hide)
    )
    (symbol "OPAMP_0_1"
      (polyline
        (pts
          (xy 5.08 0)
          (xy -5.08 5.08)
          (xy -5.08 -5.08)
          (xy 5.08 0)
        )
        (stroke (width 0.254)) (fill (type background))
      )
    )
    (symbol "OPAMP_1_1"
      (pin input line (at -7.62 2.54 0) (length 2.54)
        (name "+" (effects (font (size 1.27 1.27))))
        (number "1" (effects (font (size 1.27 1.27))))
      )
      (pin input line (at -7.62 -2.54 0) (length 2.54)
        (name "-" (effects (font (size 1.27 1.27))))
        (number "2" (effects (font (size 1.27 1.27))))
      )
      (pin output line (at 7.62 0 180) (length 2.54)
        (name "~" (effects (font (size 1.27 1.27))))
        (number "3" (effects (font (size 1.27 1.27))))
      )
      (pin power_in line (at -2.54 7.62 270) (length 3.81)
        (name "V+" (effects (font (size 1.27 1.27))))
        (number "4" (effects (font (size 1.27 1.27))))
      )
      (pin power_in line (at -2.54 -7.62 90) (length 3.81)
        (name "V-" (effects (font (size 1.27 1.27))))
        (number "5" (effects (font (size 1.27 1.27))))
      )
    )
  )
  (symbol "Simulation_SPICE:VAM" (pin_numbers hide) (pin_names (offset 0.0254)) (in_bom yes) (on_board yes)
    (property "Reference" "V" (id 0) (at 2.54 2.54 0)
      (effects (font (size 1.27 1.27)) (justify left))
    )
    (property "Value" "VAM" (id 1) (at 2.54 0 0)
      (effects (font (size 1.27 1.27)) (justify left))
    )
    (property "Footprint" "" (id 2) (at 0 0 0)
      (effects (font (size 1.27 1.27)) hide)
    )
    (property "Datasheet" "~" (id 3) (at 0 0 0)
      (effects (font (size 1.27 1.27)) hide)
    )
    (property "Spice_Netlist_Enabled" "Y" (id 4) (at 0 0 0)
      (effects (font (size 1.27 1.27)) (justify left) hide)
    )
    (property "Spice_Primitive" "V" (id 5) (at 0 0 0)
      (effects (font (size 1.27 1.27)) (justify left) hide)
    )
    (property "Spice_Model" "am(1 0 100k 1k 1n)" (id 6) (at 2.54 -2.54 0)
      (effects (font (size 1.27 1.27)) (justify left))
    )
    (property "ki_keywords" "simulation amplitude modulated" (id 7) (at 0 0 0)
      (effects (font (size 1.27 1.27)) hide)
    )
    (property "ki_description" "Voltage source, AM" (id 8) (at 0 0 0)
      (effects (font (size 1.27 1.27)) hide)
    )
    (symbol "VAM_0_0"
      (arc (start 0 0.508) (end -0.508 0.508) (radius (at -0.254 0.508) (length 0.254) (angles 0.1 180))
        (stroke (width 0)) (fill (type none))
      )
      (text "+" (at 0 1.905 0)
        (effects (font (size 1.27 1.27)))
      )
    )
    (symbol "VAM_0_1"
      (arc (start -1.016 0) (end -1.524 0) (radius (at -1.27 0) (length 0.254) (angles 0.1 180))
        (stroke (width 0)) (fill (type none))
      )
      (arc (start -1.016 0) (end -0.508 0) (radius (at -0.762 0) (length 0.254) (angles 180 -0.1))
        (stroke (width 0)) (fill (type none))
      )
      (arc (start 0 -0.508) (end 0.508 -0.508) (radius (at 0.254 -0.508) (length 0.254) (angles 180 -0.1))
        (stroke (width 0)) (fill (type none))
      )
      (arc (start 1.016 0) (end 0.508 0) (radius (at 0.762 0) (length 0.254) (angles 0.1 180))
        (stroke (width 0)) (fill (type none))
      )
      (arc (start 1.016 0) (end 1.524 0) (radius (at 1.27 0) (length 0.254) (angles 180 -0.1))
        (stroke (width 0)) (fill (type none))
      )
      (circle (center 0 0) (radius 2.54) (stroke (width 0.254)) (fill (type background)))
      (polyline
        (pts
          (xy -0.508 0.508)
          (xy -0.508 0)
        )
        (stroke (width 0)) (fill (type none))
      )
      (polyline
        (pts
          (xy 0 0.508)
          (xy 0 -0.508)
        )
        (stroke (width 0)) (fill (type none))
      )
      (polyline
        (pts
          (xy 0.508 -0.508)
          (xy 0.508 0)
        )
        (stroke (width 0)) (fill (type none))
      )
    )
    (symbol "VAM_1_1"
      (pin passive line (at 0 5.08 270) (length 2.54)
        (name "~" (effects (font (size 1.27 1.27))))
        (number "1" (effects (font (size 1.27 1.27))))
      )
      (pin passive line (at 0 -5.08 90) (length 2.54)
        (name "~" (effects (font (size 1.27 1.27))))
        (number "2" (effects (font (size 1.27 1.27))))
      )
    )
  )
  (symbol "Simulation_SPICE:VDC" (pin_numbers hide) (pin_names (offset 0.0254)) (in_bom yes) (on_board yes)
    (property "Reference" "V" (id 0) (at 2.54 2.54 0)
      (effects (font (size 1.27 1.27)) (justify left))
    )
    (property "Value" "VDC" (id 1) (at 2.54 0 0)
      (effects (font (size 1.27 1.27)) (justify left))
    )
    (property "Footprint" "" (id 2) (at 0 0 0)
      (effects (font (size 1.27 1.27)) hide)
    )
    (property "Datasheet" "~" (id 3) (at 0 0 0)
      (effects (font (size 1.27 1.27)) hide)
    )
    (property "Spice_Netlist_Enabled" "Y" (id 4) (at 0 0 0)
      (effects (font (size 1.27 1.27)) (justify left) hide)
    )
    (property "Spice_Primitive" "V" (id 5) (at 0 0 0)
      (effects (font (size 1.27 1.27)) (justify left) hide)
    )
    (property "Spice_Model" "dc(1)" (id 6) (at 2.54 -2.54 0)
      (effects (font (size 1.27 1.27)) (justify left))
    )
    (property "ki_keywords" "simulation" (id 7) (at 0 0 0)
      (effects (font (size 1.27 1.27)) hide)
    )
    (property "ki_description" "Voltage source, DC" (id 8) (at 0 0 0)
      (effects (font (size 1.27 1.27)) hide)
    )
    (symbol "VDC_0_0"
      (text "+" (at 0 1.905 0)
        (effects (font (size 1.27 1.27)))
      )
      (polyline
        (pts
          (xy -1.27 0.254)
          (xy 1.27 0.254)
        )
        (stroke (width 0)) (fill (type none))
      )
      (polyline
        (pts
          (xy -0.762 -0.254)
          (xy -1.27 -0.254)
        )
        (stroke (width 0)) (fill (type none))
      )
      (polyline
        (pts
          (xy 0.254 -0.254)
          (xy -0.254 -0.254)
        )
        (stroke (width 0)) (fill (type none))
      )
      (polyline
        (pts
          (xy 1.27 -0.254)
          (xy 0.762 -0.254)
        )
        (stroke (width 0)) (fill (type none))
      )
    )
    (symbol "VDC_0_1"
      (circle (center 0 0) (radius 2.54) (stroke (width 0.254)) (fill (type background)))
    )
    (symbol "VDC_1_1"
      (pin passive line (at 0 5.08 270) (length 2.54)
        (name "~" (effects (font (size 1.27 1.27))))
        (number "1" (effects (font (size 1.27 1.27))))
      )
      (pin passive line (at 0 -5.08 90) (length 2.54)
        (name "~" (effects (font (size 1.27 1.27))))
        (number "2" (effects (font (size 1.27 1.27))))
      )
    )
  )
  (symbol "Simulation_SPICE:VEXP" (pin_numbers hide) (pin_names (offset 0.0254)) (in_bom yes) (on_board yes)
    (property "Reference" "V" (id 0) (at 2.54 2.54 0)
      (effects (font (size 1.27 1.27)) (justify left))
    )
    (property "Value" "VEXP" (id 1) (at 2.54 0 0)
      (effects (font (size 1.27 1.27)) (justify left))
    )
    (property "Footprint" "" (id 2) (at 0 0 0)
      (effects (font (size 1.27 1.27)) hide)
    )
    (property "Datasheet" "~" (id 3) (at 0 0 0)
      (effects (font (size 1.27 1.27)) hide)
    )
    (property "Spice_Netlist_Enabled" "Y" (id 4) (at 0 0 0)
      (effects (font (size 1.27 1.27)) (justify left) hide)
    )
    (property "Spice_Primitive" "V" (id 5) (at 0 0 0)
      (effects (font (size 1.27 1.27)) (justify left) hide)
    )
    (property "Spice_Model" "exp(0 1 2n 30n 60n 40n)" (id 6) (at 2.54 -2.54 0)
      (effects (font (size 1.27 1.27)) (justify left))
    )
    (property "ki_keywords" "simulation" (id 7) (at 0 0 0)
      (effects (font (size 1.27 1.27)) hide)
    )
    (property "ki_description" "Voltage source, exponential" (id 8) (at 0 0 0)
      (effects (font (size 1.27 1.27)) hide)
    )
    (symbol "VEXP_0_0"
      (arc (start 0 0.762) (end -1.27 -0.762) (radius (at 0.6096 -1.0414) (length 1.905) (angles 108.7 171.5))
        (stroke (width 0)) (fill (type none))
      )
      (arc (start 0 0.762) (end 1.27 -0.762) (radius (at 1.5494 0.762) (length 1.5494) (angles 180 -100.4))
        (stroke (width 0)) (fill (type none))
      )
      (text "+" (at 0 1.905 0)
        (effects (font (size 1.27 1.27)))
      )
      (polyline
        (pts
          (xy -1.27 -0.762)
          (xy -1.778 -0.762)
        )
        (stroke (width 0)) (fill (type none))
      )
      (polyline
        (pts
          (xy 1.27 -0.762)
          (xy 1.778 -0.762)
        )
        (stroke (width 0)) (fill (type none))
      )
    )
    (symbol "VEXP_0_1"
      (circle (center 0 0) (radius 2.54) (stroke (width 0.254)) (fill (type background)))
    )
    (symbol "VEXP_1_1"
      (pin passive line (at 0 5.08 270) (length 2.54)
        (name "~" (effects (font (size 1.27 1.27))))
        (number "1" (effects (font (size 1.27 1.27))))
      )
      (pin passive line (at 0 -5.08 90) (length 2.54)
        (name "~" (effects (font (size 1.27 1.27))))
        (number "2" (effects (font (size 1.27 1.27))))
      )
    )
  )
  (symbol "Simulation_SPICE:VPULSE" (pin_numbers hide) (pin_names (offset 0.0254)) (in_bom yes) (on_board yes)
    (property "Reference" "V" (id 0) (at 2.54 2.54 0)
      (effects (font (size 1.27 1.27)) (justify left))
    )
    (property "Value" "VPULSE" (id 1) (at 2.54 0 0)
      (effects (font (size 1.27 1.27)) (justify left))
    )
    (property "Footprint" "" (id 2) (at 0 0 0)
      (effects (font (size 1.27 1.27)) hide)
    )
    (property "Datasheet" "~" (id 3) (at 0 0 0)
      (effects (font (size 1.27 1.27)) hide)
    )
    (property "Spice_Netlist_Enabled" "Y" (id 4) (at 0 0 0)
      (effects (font (size 1.27 1.27)) (justify left) hide)
    )
    (property "Spice_Primitive" "V" (id 5) (at 0 0 0)
      (effects (font (size 1.27 1.27)) (justify left) hide)
    )
    (property "Spice_Model" "pulse(0 1 2n 2n 2n 50n 100n)" (id 6) (at 2.54 -2.54 0)
      (effects (font (size 1.27 1.27)) (justify left))
    )
    (property "ki_keywords" "simulation" (id 7) (at 0 0 0)
      (effects (font (size 1.27 1.27)) hide)
    )
    (property "ki_description" "Voltage source, pulse" (id 8) (at 0 0 0)
      (effects (font (size 1.27 1.27)) hide)
    )
    (symbol "VPULSE_0_0"
      (text "+" (at 0 1.905 0)
        (effects (font (size 1.27 1.27)))
      )
      (polyline
        (pts
          (xy -2.032 -0.762)
          (xy -1.397 -0.762)
          (xy -1.143 0.762)
          (xy -0.127 0.762)
          (xy 0.127 -0.762)
          (xy 1.143 -0.762)
          (xy 1.397 0.762)
          (xy 2.032 0.762)
        )
        (stroke (width 0)) (fill (type none))
      )
    )
    (symbol "VPULSE_0_1"
      (circle (center 0 0) (radius 2.54) (stroke (width 0.254)) (fill (type background)))
    )
    (symbol "VPULSE_1_1"
      (pin passive line (at 0 5.08 270) (length 2.54)
        (name "~" (effects (font (size 1.27 1.27))))
        (number "1" (effects (font (size 1.27 1.27))))
      )
      (pin passive line (at 0 -5.08 90) (length 2.54)
        (name "~" (effects (font (size 1.27 1.27))))
        (number "2" (effects (font (size 1.27 1.27))))
      )
    )
  )
  (symbol "Simulation_SPICE:VPWL" (pin_numbers hide) (pin_names (offset 0.0254)) (in_bom yes) (on_board yes)
    (property "Reference" "V" (id 0) (at 2.54 2.54 0)
      (effects (font (size 1.27 1.27)) (justify left))
    )
    (property "Value" "VPWL" (id 1) (at 2.54 0 0)
      (effects (font (size 1.27 1.27)) (justify left))
    )
    (property "Footprint" "" (id 2) (at 0 0 0)
      (effects (font (size 1.27 1.27)) hide)
    )
    (property "Datasheet" "~" (id 3) (at 0 0 0)
      (effects (font (size 1.27 1.27)) hide)
    )
    (property "Spice_Netlist_Enabled" "Y" (id 4) (at 0 0 0)
      (effects (font (size 1.27 1.27)) (justify left) hide)
    )
    (property "Spice_Primitive" "V" (id 5) (at 0 0 0)
      (effects (font (size 1.27 1.27)) (justify left) hide)
    )
    (property "Spice_Model" "pwl(0 -1 50n -1 51n 0 97n 1 171n -1 200n -1)" (id 6) (at 2.54 -2.54 0)
      (effects (font (size 1.27 1.27)) (justify left))
    )
    (property "ki_keywords" "simulation" (id 7) (at 0 0 0)
      (effects (font (size 1.27 1.27)) hide)
    )
    (property "ki_description" "Voltage source, piece-wise linear" (id 8) (at 0 0 0)
      (effects (font (size 1.27 1.27)) hide)
    )
    (symbol "VPWL_0_0"
      (text "+" (at 0 1.905 0)
        (effects (font (size 1.27 1.27)))
      )
      (polyline
        (pts
          (xy -1.778 -1.016)
          (xy -0.762 1.016)
          (xy -0.254 0)
          (xy 0.762 0)
          (xy 1.27 1.27)
        )
        (stroke (width 0)) (fill (type none))
      )
    )
    (symbol "VPWL_0_1"
      (circle (center 0 0) (radius 2.54) (stroke (width 0.254)) (fill (type background)))
    )
    (symbol "VPWL_1_1"
      (pin passive line (at 0 5.08 270) (length 2.54)
        (name "~" (effects (font (size 1.27 1.27))))
        (number "1" (effects (font (size 1.27 1.27))))
      )
      (pin passive line (at 0 -5.08 90) (length 2.54)
        (name "~" (effects (font (size 1.27 1.27))))
        (number "2" (effects (font (size 1.27 1.27))))
      )
    )
  )
  (symbol "Simulation_SPICE:VSFFM" (pin_numbers hide) (pin_names (offset 0.0254)) (in_bom yes) (on_board yes)
    (property "Reference" "V" (id 0) (at 2.54 2.54 0)
      (effects (font (size 1.27 1.27)) (justify left))
    )
    (property "Value" "VSFFM" (id 1) (at 2.54 0 0)
      (effects (font (size 1.27 1.27)) (justify left))
    )
    (property "Footprint" "" (id 2) (at 0 0 0)
      (effects (font (size 1.27 1.27)) hide)
    )
    (property "Datasheet" "~" (id 3) (at 0 0 0)
      (effects (font (size 1.27 1.27)) hide)
    )
    (property "Spice_Netlist_Enabled" "Y" (id 4) (at 0 0 0)
      (effects (font (size 1.27 1.27)) (justify left) hide)
    )
    (property "Spice_Primitive" "V" (id 5) (at 0 0 0)
      (effects (font (size 1.27 1.27)) (justify left) hide)
    )
    (property "Spice_Model" "sffm(0 1 100k 5 1k)" (id 6) (at 2.54 -2.54 0)
      (effects (font (size 1.27 1.27)) (justify left))
    )
    (property "ki_keywords" "simulation frequency modulated" (id 7) (at 0 0 0)
      (effects (font (size 1.27 1.27)) hide)
    )
    (property "ki_description" "Voltage source, single-frequency FM" (id 8) (at 0 0 0)
      (effects (font (size 1.27 1.27)) hide)
    )
    (symbol "VSFFM_0_0"
      (text "+" (at 0 1.905 0)
        (effects (font (size 1.27 1.27)))
      )
    )
    (symbol "VSFFM_0_1"
      (arc (start -1.524 0.254) (end -2.032 0.254) (radius (at -1.778 0.254) (length 0.254) (angles 0.1 180))
        (stroke (width 0)) (fill (type none))
      )
      (arc (start -1.524 -0.254) (end -1.016 -0.254) (radius (at -1.27 -0.254) (length 0.254) (angles 180 -0.1))
        (stroke (width 0)) (fill (type none))
      )
      (arc (start 0 0) (end -1.016 0) (radius (at -0.508 0) (length 0.508) (angles 0.1 180))
        (stroke (width 0)) (fill (type none))
      )
      (arc (start 0 0) (end 1.016 0) (radius (at 0.508 0) (length 0.508) (angles 180 -0.1))
        (stroke (width 0)) (fill (type none))
      )
      (arc (start 1.524 0.254) (end 1.016 0.254) (radius (at 1.27 0.254) (length 0.254) (angles 0.1 180))
        (stroke (width 0)) (fill (type none))
      )
      (arc (start 1.524 -0.254) (end 2.032 -0.254) (radius (at 1.778 -0.254) (length 0.254) (angles 180 -0.1))
        (stroke (width 0)) (fill (type none))
      )
      (circle (center 0 0) (radius 2.54) (stroke (width 0.254)) (fill (type background)))
      (polyline
        (pts
          (xy -2.032 0.254)
          (xy -2.032 0)
        )
        (stroke (width 0)) (fill (type none))
      )
      (polyline
        (pts
          (xy -1.524 -0.254)
          (xy -1.524 0.254)
        )
        (stroke (width 0)) (fill (type none))
      )
      (polyline
        (pts
          (xy -1.016 0)
          (xy -1.016 -0.254)
        )
        (stroke (width 0)) (fill (type none))
      )
      (polyline
        (pts
          (xy 1.016 0.254)
          (xy 1.016 0)
        )
        (stroke (width 0)) (fill (type none))
      )
      (polyline
        (pts
          (xy 1.524 0.254)
          (xy 1.524 -0.254)
        )
        (stroke (width 0)) (fill (type none))
      )
      (polyline
        (pts
          (xy 2.032 -0.254)
          (xy 2.032 0)
        )
        (stroke (width 0)) (fill (type none))
      )
    )
    (symbol "VSFFM_1_1"
      (pin passive line (at 0 5.08 270) (length 2.54)
        (name "~" (effects (font (size 1.27 1.27))))
        (number "1" (effects (font (size 1.27 1.27))))
      )
      (pin passive line (at 0 -5.08 90) (length 2.54)
        (name "~" (effects (font (size 1.27 1.27))))
        (number "2" (effects (font (size 1.27 1.27))))
      )
    )
  )
  (symbol "Simulation_SPICE:VSIN" (pin_numbers hide) (pin_names (offset 0.0254)) (in_bom yes) (on_board yes)
    (property "Reference" "V" (id 0) (at 2.54 2.54 0)
      (effects (font (size 1.27 1.27)) (justify left))
    )
    (property "Value" "VSIN" (id 1) (at 2.54 0 0)
      (effects (font (size 1.27 1.27)) (justify left))
    )
    (property "Footprint" "" (id 2) (at 0 0 0)
      (effects (font (size 1.27 1.27)) hide)
    )
    (property "Datasheet" "~" (id 3) (at 0 0 0)
      (effects (font (size 1.27 1.27)) hide)
    )
    (property "Spice_Netlist_Enabled" "Y" (id 4) (at 0 0 0)
      (effects (font (size 1.27 1.27)) (justify left) hide)
    )
    (property "Spice_Primitive" "V" (id 5) (at 0 0 0)
      (effects (font (size 1.27 1.27)) (justify left) hide)
    )
    (property "Spice_Model" "sin(0 1 1k)" (id 6) (at 2.54 -2.54 0)
      (effects (font (size 1.27 1.27)) (justify left))
    )
    (property "ki_keywords" "simulation" (id 7) (at 0 0 0)
      (effects (font (size 1.27 1.27)) hide)
    )
    (property "ki_description" "Voltage source, sinusoidal" (id 8) (at 0 0 0)
      (effects (font (size 1.27 1.27)) hide)
    )
    (symbol "VSIN_0_0"
      (arc (start 0 0) (end -1.27 0) (radius (at -0.635 0) (length 0.635) (angles 0.1 180))
        (stroke (width 0)) (fill (type none))
      )
      (arc (start 0 0) (end 1.27 0) (radius (at 0.635 0) (length 0.635) (angles 180 -0.1))
        (stroke (width 0)) (fill (type none))
      )
      (text "+" (at 0 1.905 0)
        (effects (font (size 1.27 1.27)))
      )
    )
    (symbol "VSIN_0_1"
      (circle (center 0 0) (radius 2.54) (stroke (width 0.254)) (fill (type background)))
    )
    (symbol "VSIN_1_1"
      (pin passive line (at 0 5.08 270) (length 2.54)
        (name "~" (effects (font (size 1.27 1.27))))
        (number "1" (effects (font (size 1.27 1.27))))
      )
      (pin passive line (at 0 -5.08 90) (length 2.54)
        (name "~" (effects (font (size 1.27 1.27))))
        (number "2" (effects (font (size 1.27 1.27))))
      )
    )
  )
  (symbol "Simulation_SPICE:VTRNOISE" (pin_numbers hide) (pin_names (offset 0.0254)) (in_bom yes) (on_board yes)
    (property "Reference" "V" (id 0) (at 2.54 2.54 0)
      (effects (font (size 1.27 1.27)) (justify left))
    )
    (property "Value" "VTRNOISE" (id 1) (at 2.54 0 0)
      (effects (font (size 1.27 1.27)) (justify left))
    )
    (property "Footprint" "" (id 2) (at 0 0 0)
      (effects (font (size 1.27 1.27)) hide)
    )
    (property "Datasheet" "~" (id 3) (at 0 0 0)
      (effects (font (size 1.27 1.27)) hide)
    )
    (property "Spice_Netlist_Enabled" "Y" (id 4) (at 0 0 0)
      (effects (font (size 1.27 1.27)) (justify left) hide)
    )
    (property "Spice_Primitive" "V" (id 5) (at 0 0 0)
      (effects (font (size 1.27 1.27)) (justify left) hide)
    )
    (property "Spice_Model" "trnoise(20n 0.5n 0 0)" (id 6) (at 2.54 -2.54 0)
      (effects (font (size 1.27 1.27)) (justify left))
    )
    (property "ki_keywords" "simulation" (id 7) (at 0 0 0)
      (effects (font (size 1.27 1.27)) hide)
    )
    (property "ki_description" "Voltage source, transient noise" (id 8) (at 0 0 0)
      (effects (font (size 1.27 1.27)) hide)
    )
    (symbol "VTRNOISE_0_0"
      (text "+" (at 0 1.905 0)
        (effects (font (size 1.27 1.27)))
      )
    )
    (symbol "VTRNOISE_0_1"
      (circle (center 0 0) (radius 2.54) (stroke (width 0.254)) (fill (type background)))
      (polyline
        (pts
          (xy -2.032 -0.762)
          (xy -1.651 1.143)
          (xy -1.651 -0.254)
          (xy -1.524 0.508)
          (xy -1.397 -1.143)
          (xy -0.889 1.016)
          (xy -0.762 -0.762)
          (xy -0.508 0.254)
          (xy -0.381 -0.508)
          (xy -0.254 0.381)
          (xy -0.127 -0.889)
          (xy 0.381 1.397)
          (xy 0.508 -1.397)
          (xy 0.635 0.762)
          (xy 1.016 -0.381)
          (xy 1.27 1.397)
          (xy 1.524 -0.508)
          (xy 1.778 0.381)
          (xy 2.032 -0.889)
        )
        (stroke (width 0)) (fill (type none))
      )
    )
    (symbol "VTRNOISE_1_1"
      (pin passive line (at 0 5.08 270) (length 2.54)
        (name "~" (effects (font (size 1.27 1.27))))
        (number "1" (effects (font (size 1.27 1.27))))
      )
      (pin passive line (at 0 -5.08 90) (length 2.54)
        (name "~" (effects (font (size 1.27 1.27))))
        (number "2" (effects (font (size 1.27 1.27))))
      )
    )
  )
  (symbol "Simulation_SPICE:VTRRANDOM" (pin_numbers hide) (pin_names (offset 0.0254)) (in_bom yes) (on_board yes)
    (property "Reference" "V" (id 0) (at 2.54 2.54 0)
      (effects (font (size 1.27 1.27)) (justify left))
    )
    (property "Value" "VTRRANDOM" (id 1) (at 2.54 0 0)
      (effects (font (size 1.27 1.27)) (justify left))
    )
    (property "Footprint" "" (id 2) (at 0 0 0)
      (effects (font (size 1.27 1.27)) hide)
    )
    (property "Datasheet" "~" (id 3) (at 0 0 0)
      (effects (font (size 1.27 1.27)) hide)
    )
    (property "Spice_Netlist_Enabled" "Y" (id 4) (at 0 0 0)
      (effects (font (size 1.27 1.27)) (justify left) hide)
    )
    (property "Spice_Primitive" "V" (id 5) (at 0 0 0)
      (effects (font (size 1.27 1.27)) (justify left) hide)
    )
    (property "Spice_Model" "trrandom(2 10m 0 1)" (id 6) (at 2.54 -2.54 0)
      (effects (font (size 1.27 1.27)) (justify left))
    )
    (property "ki_keywords" "simulation" (id 7) (at 0 0 0)
      (effects (font (size 1.27 1.27)) hide)
    )
    (property "ki_description" "Voltage source, random noise" (id 8) (at 0 0 0)
      (effects (font (size 1.27 1.27)) hide)
    )
    (symbol "VTRRANDOM_0_0"
      (text "+" (at 0 1.905 0)
        (effects (font (size 1.27 1.27)))
      )
    )
    (symbol "VTRRANDOM_0_1"
      (circle (center 0 0) (radius 2.54) (stroke (width 0.254)) (fill (type background)))
      (polyline
        (pts
          (xy -2.032 -0.762)
          (xy -1.651 1.143)
          (xy -1.651 -0.254)
          (xy -1.524 0.508)
          (xy -1.397 -1.143)
          (xy -0.889 1.016)
          (xy -0.762 -0.762)
          (xy -0.508 0.254)
          (xy -0.381 -0.508)
          (xy -0.254 0.381)
          (xy -0.127 -0.889)
          (xy 0.381 1.397)
          (xy 0.508 -1.397)
          (xy 0.635 0.762)
          (xy 1.016 -0.381)
          (xy 1.27 1.397)
          (xy 1.524 -0.508)
          (xy 1.778 0.381)
          (xy 2.032 -0.889)
        )
        (stroke (width 0)) (fill (type none))
      )
    )
    (symbol "VTRRANDOM_1_1"
      (pin passive line (at 0 5.08 270) (length 2.54)
        (name "~" (effects (font (size 1.27 1.27))))
        (number "1" (effects (font (size 1.27 1.27))))
      )
      (pin passive line (at 0 -5.08 90) (length 2.54)
        (name "~" (effects (font (size 1.27 1.27))))
        (number "2" (effects (font (size 1.27 1.27))))
      )
    )
  )
)
