(kicad_symbol_lib (version 20201005) (generator kicad_symbol_editor)
  (symbol "Timer_RTC:AB0805" (in_bom yes) (on_board yes)
    (property "Reference" "U" (id 0) (at -8.89 16.51 0)
      (effects (font (size 1.27 1.27)))
    )
    (property "Value" "AB0805" (id 1) (at 2.54 16.51 0)
      (effects (font (size 1.27 1.27)) (justify left))
    )
    (property "Footprint" "Package_DFN_QFN:VQFN-16-1EP_3x3mm_P0.5mm_EP1.8x1.8mm" (id 2) (at 0 -17.78 0)
      (effects (font (size 1.27 1.27)) hide)
    )
    (property "Datasheet" "https://abracon.com/Precisiontiming/AB08X5-RTC.PDF" (id 3) (at 0 0 0)
      (effects (font (size 1.27 1.27)) hide)
    )
    (property "ki_keywords" "rtc" (id 4) (at 0 0 0)
      (effects (font (size 1.27 1.27)) hide)
    )
    (property "ki_description" "Real-Time Clock, I2C Interface, 3 GPO, QFN-16" (id 5) (at 0 0 0)
      (effects (font (size 1.27 1.27)) hide)
    )
    (property "ki_fp_filters" "VQFN*1EP*3x3mm*P0.5mm*" (id 6) (at 0 0 0)
      (effects (font (size 1.27 1.27)) hide)
    )
    (symbol "AB0805_0_1"
      (rectangle (start -10.16 15.24) (end 10.16 -15.24)
        (stroke (width 0.254)) (fill (type background))
      )
    )
    (symbol "AB0805_1_1"
      (pin no_connect line (at -10.16 -2.54 0) (length 2.54) hide
        (name "NC" (effects (font (size 1.27 1.27))))
        (number "1" (effects (font (size 1.27 1.27))))
      )
      (pin input line (at -12.7 -5.08 0) (length 2.54)
        (name "EXTI" (effects (font (size 1.27 1.27))))
        (number "10" (effects (font (size 1.27 1.27))))
      )
      (pin open_collector line (at 12.7 5.08 180) (length 2.54)
        (name "FOUT/~IRQ" (effects (font (size 1.27 1.27))))
        (number "11" (effects (font (size 1.27 1.27))))
      )
      (pin open_collector line (at 12.7 7.62 180) (length 2.54)
        (name "~TIRQ" (effects (font (size 1.27 1.27))))
        (number "12" (effects (font (size 1.27 1.27))))
      )
      (pin power_in line (at 0 17.78 270) (length 2.54)
        (name "VCC" (effects (font (size 1.27 1.27))))
        (number "13" (effects (font (size 1.27 1.27))))
      )
      (pin passive line (at -12.7 -12.7 0) (length 2.54)
        (name "AF" (effects (font (size 1.27 1.27))))
        (number "14" (effects (font (size 1.27 1.27))))
      )
      (pin output line (at 12.7 -12.7 180) (length 2.54)
        (name "XO" (effects (font (size 1.27 1.27))))
        (number "15" (effects (font (size 1.27 1.27))))
      )
      (pin input line (at 12.7 -5.08 180) (length 2.54)
        (name "XI" (effects (font (size 1.27 1.27))))
        (number "16" (effects (font (size 1.27 1.27))))
      )
      (pin passive line (at 0 -17.78 90) (length 2.54) hide
        (name "VSS" (effects (font (size 1.27 1.27))))
        (number "17" (effects (font (size 1.27 1.27))))
      )
      (pin input line (at -12.7 -7.62 0) (length 2.54)
        (name "WDI" (effects (font (size 1.27 1.27))))
        (number "2" (effects (font (size 1.27 1.27))))
      )
      (pin no_connect line (at -10.16 -10.16 0) (length 2.54) hide
        (name "NC" (effects (font (size 1.27 1.27))))
        (number "3" (effects (font (size 1.27 1.27))))
      )
      (pin open_collector line (at 12.7 2.54 180) (length 2.54)
        (name "~IRQ2" (effects (font (size 1.27 1.27))))
        (number "4" (effects (font (size 1.27 1.27))))
      )
      (pin power_in line (at -2.54 17.78 270) (length 2.54)
        (name "VBAT" (effects (font (size 1.27 1.27))))
        (number "5" (effects (font (size 1.27 1.27))))
      )
      (pin bidirectional line (at -12.7 5.08 0) (length 2.54)
        (name "SDA" (effects (font (size 1.27 1.27))))
        (number "6" (effects (font (size 1.27 1.27))))
      )
      (pin input line (at -12.7 7.62 0) (length 2.54)
        (name "SCL" (effects (font (size 1.27 1.27))))
        (number "7" (effects (font (size 1.27 1.27))))
      )
      (pin no_connect line (at 10.16 0 180) (length 2.54) hide
        (name "NC" (effects (font (size 1.27 1.27))))
        (number "8" (effects (font (size 1.27 1.27))))
      )
      (pin power_in line (at 0 -17.78 90) (length 2.54)
        (name "VSS" (effects (font (size 1.27 1.27))))
        (number "9" (effects (font (size 1.27 1.27))))
      )
    )
  )
  (symbol "Timer_RTC:AB0815" (in_bom yes) (on_board yes)
    (property "Reference" "U" (id 0) (at -8.89 16.51 0)
      (effects (font (size 1.27 1.27)))
    )
    (property "Value" "AB0815" (id 1) (at 2.54 16.51 0)
      (effects (font (size 1.27 1.27)) (justify left))
    )
    (property "Footprint" "Package_DFN_QFN:VQFN-16-1EP_3x3mm_P0.5mm_EP1.8x1.8mm" (id 2) (at 0 -17.78 0)
      (effects (font (size 1.27 1.27)) hide)
    )
    (property "Datasheet" "https://abracon.com/Precisiontiming/AB08X5-RTC.PDF" (id 3) (at 0 0 0)
      (effects (font (size 1.27 1.27)) hide)
    )
    (property "ki_keywords" "rtc" (id 4) (at 0 0 0)
      (effects (font (size 1.27 1.27)) hide)
    )
    (property "ki_description" "Real-Time Clock, SPI Interface, 2 GPO, QFN-16" (id 5) (at 0 0 0)
      (effects (font (size 1.27 1.27)) hide)
    )
    (property "ki_fp_filters" "VQFN*1EP*3x3mm*P0.5mm*" (id 6) (at 0 0 0)
      (effects (font (size 1.27 1.27)) hide)
    )
    (symbol "AB0815_0_1"
      (rectangle (start -10.16 15.24) (end 10.16 -15.24)
        (stroke (width 0.254)) (fill (type background))
      )
    )
    (symbol "AB0815_1_1"
      (pin no_connect line (at -10.16 -2.54 0) (length 2.54) hide
        (name "NC" (effects (font (size 1.27 1.27))))
        (number "1" (effects (font (size 1.27 1.27))))
      )
      (pin input line (at -12.7 -5.08 0) (length 2.54)
        (name "EXTI" (effects (font (size 1.27 1.27))))
        (number "10" (effects (font (size 1.27 1.27))))
      )
      (pin open_collector line (at 12.7 5.08 180) (length 2.54)
        (name "FOUT/~IRQ" (effects (font (size 1.27 1.27))))
        (number "11" (effects (font (size 1.27 1.27))))
      )
      (pin input line (at -12.7 2.54 0) (length 2.54)
        (name "~CE" (effects (font (size 1.27 1.27))))
        (number "12" (effects (font (size 1.27 1.27))))
      )
      (pin power_in line (at 0 17.78 270) (length 2.54)
        (name "VCC" (effects (font (size 1.27 1.27))))
        (number "13" (effects (font (size 1.27 1.27))))
      )
      (pin passive line (at -12.7 -12.7 0) (length 2.54)
        (name "AF" (effects (font (size 1.27 1.27))))
        (number "14" (effects (font (size 1.27 1.27))))
      )
      (pin output line (at 12.7 -12.7 180) (length 2.54)
        (name "XO" (effects (font (size 1.27 1.27))))
        (number "15" (effects (font (size 1.27 1.27))))
      )
      (pin input line (at 12.7 -5.08 180) (length 2.54)
        (name "XI" (effects (font (size 1.27 1.27))))
        (number "16" (effects (font (size 1.27 1.27))))
      )
      (pin power_in line (at 0 -17.78 90) (length 2.54)
        (name "VSS" (effects (font (size 1.27 1.27))))
        (number "17" (effects (font (size 1.27 1.27))))
      )
      (pin input line (at -12.7 -7.62 0) (length 2.54)
        (name "WDI" (effects (font (size 1.27 1.27))))
        (number "2" (effects (font (size 1.27 1.27))))
      )
      (pin no_connect line (at -10.16 -10.16 0) (length 2.54) hide
        (name "NC" (effects (font (size 1.27 1.27))))
        (number "3" (effects (font (size 1.27 1.27))))
      )
      (pin open_collector line (at 12.7 2.54 180) (length 2.54)
        (name "~IRQ2" (effects (font (size 1.27 1.27))))
        (number "4" (effects (font (size 1.27 1.27))))
      )
      (pin power_in line (at -2.54 17.78 270) (length 2.54)
        (name "VBAT" (effects (font (size 1.27 1.27))))
        (number "5" (effects (font (size 1.27 1.27))))
      )
      (pin output line (at -12.7 0 0) (length 2.54)
        (name "SDO" (effects (font (size 1.27 1.27))))
        (number "6" (effects (font (size 1.27 1.27))))
      )
      (pin input line (at -12.7 7.62 0) (length 2.54)
        (name "SCL" (effects (font (size 1.27 1.27))))
        (number "7" (effects (font (size 1.27 1.27))))
      )
      (pin no_connect line (at 10.16 0 180) (length 2.54) hide
        (name "NC" (effects (font (size 1.27 1.27))))
        (number "8" (effects (font (size 1.27 1.27))))
      )
      (pin input line (at -12.7 5.08 0) (length 2.54)
        (name "SDI" (effects (font (size 1.27 1.27))))
        (number "9" (effects (font (size 1.27 1.27))))
      )
    )
  )
  (symbol "Timer_RTC:AB1805" (in_bom yes) (on_board yes)
    (property "Reference" "U" (id 0) (at -8.89 16.51 0)
      (effects (font (size 1.27 1.27)))
    )
    (property "Value" "AB1805" (id 1) (at 2.54 16.51 0)
      (effects (font (size 1.27 1.27)) (justify left))
    )
    (property "Footprint" "Package_DFN_QFN:VQFN-16-1EP_3x3mm_P0.5mm_EP1.8x1.8mm" (id 2) (at 0 -17.78 0)
      (effects (font (size 1.27 1.27)) hide)
    )
    (property "Datasheet" "https://abracon.com/Precisiontiming/AB18X5-RTC.pdf" (id 3) (at 0 0 0)
      (effects (font (size 1.27 1.27)) hide)
    )
    (property "ki_keywords" "rtc" (id 4) (at 0 0 0)
      (effects (font (size 1.27 1.27)) hide)
    )
    (property "ki_description" "Real-Time Clock, I2C Interface, 4 GPO, QFN-16" (id 5) (at 0 0 0)
      (effects (font (size 1.27 1.27)) hide)
    )
    (property "ki_fp_filters" "VQFN*1EP*3x3mm*P0.5mm*" (id 6) (at 0 0 0)
      (effects (font (size 1.27 1.27)) hide)
    )
    (symbol "AB1805_0_1"
      (rectangle (start -10.16 15.24) (end 10.16 -15.24)
        (stroke (width 0.254)) (fill (type background))
      )
    )
    (symbol "AB1805_1_1"
      (pin open_collector line (at 12.7 12.7 180) (length 2.54)
        (name "~RST" (effects (font (size 1.27 1.27))))
        (number "1" (effects (font (size 1.27 1.27))))
      )
      (pin input line (at -12.7 -5.08 0) (length 2.54)
        (name "EXTI" (effects (font (size 1.27 1.27))))
        (number "10" (effects (font (size 1.27 1.27))))
      )
      (pin open_collector line (at 12.7 5.08 180) (length 2.54)
        (name "FOUT/~IRQ" (effects (font (size 1.27 1.27))))
        (number "11" (effects (font (size 1.27 1.27))))
      )
      (pin open_collector line (at 12.7 7.62 180) (length 2.54)
        (name "~TIRQ" (effects (font (size 1.27 1.27))))
        (number "12" (effects (font (size 1.27 1.27))))
      )
      (pin power_in line (at 0 17.78 270) (length 2.54)
        (name "VCC" (effects (font (size 1.27 1.27))))
        (number "13" (effects (font (size 1.27 1.27))))
      )
      (pin passive line (at -12.7 -12.7 0) (length 2.54)
        (name "AF" (effects (font (size 1.27 1.27))))
        (number "14" (effects (font (size 1.27 1.27))))
      )
      (pin output line (at 12.7 -12.7 180) (length 2.54)
        (name "XO" (effects (font (size 1.27 1.27))))
        (number "15" (effects (font (size 1.27 1.27))))
      )
      (pin input line (at 12.7 -5.08 180) (length 2.54)
        (name "XI" (effects (font (size 1.27 1.27))))
        (number "16" (effects (font (size 1.27 1.27))))
      )
      (pin passive line (at 0 -17.78 90) (length 2.54) hide
        (name "VSS" (effects (font (size 1.27 1.27))))
        (number "17" (effects (font (size 1.27 1.27))))
      )
      (pin input line (at -12.7 -7.62 0) (length 2.54)
        (name "WDI" (effects (font (size 1.27 1.27))))
        (number "2" (effects (font (size 1.27 1.27))))
      )
      (pin input line (at -12.7 12.7 0) (length 2.54)
        (name "~EXTR" (effects (font (size 1.27 1.27))))
        (number "3" (effects (font (size 1.27 1.27))))
      )
      (pin open_collector line (at 12.7 2.54 180) (length 2.54)
        (name "~IRQ2" (effects (font (size 1.27 1.27))))
        (number "4" (effects (font (size 1.27 1.27))))
      )
      (pin power_in line (at -2.54 17.78 270) (length 2.54)
        (name "VBAT" (effects (font (size 1.27 1.27))))
        (number "5" (effects (font (size 1.27 1.27))))
      )
      (pin bidirectional line (at -12.7 5.08 0) (length 2.54)
        (name "SDA" (effects (font (size 1.27 1.27))))
        (number "6" (effects (font (size 1.27 1.27))))
      )
      (pin input line (at -12.7 7.62 0) (length 2.54)
        (name "SCL" (effects (font (size 1.27 1.27))))
        (number "7" (effects (font (size 1.27 1.27))))
      )
      (pin output line (at 12.7 0 180) (length 2.54)
        (name "CLKOUT/~IRQ3" (effects (font (size 1.27 1.27))))
        (number "8" (effects (font (size 1.27 1.27))))
      )
      (pin power_in line (at 0 -17.78 90) (length 2.54)
        (name "VSS" (effects (font (size 1.27 1.27))))
        (number "9" (effects (font (size 1.27 1.27))))
      )
    )
  )
  (symbol "Timer_RTC:AB1815" (in_bom yes) (on_board yes)
    (property "Reference" "U" (id 0) (at -8.89 16.51 0)
      (effects (font (size 1.27 1.27)))
    )
    (property "Value" "AB1815" (id 1) (at 2.54 16.51 0)
      (effects (font (size 1.27 1.27)) (justify left))
    )
    (property "Footprint" "Package_DFN_QFN:VQFN-16-1EP_3x3mm_P0.5mm_EP1.8x1.8mm" (id 2) (at 0 -17.78 0)
      (effects (font (size 1.27 1.27)) hide)
    )
    (property "Datasheet" "https://abracon.com/Precisiontiming/AB18X5-RTC.pdf" (id 3) (at 0 0 0)
      (effects (font (size 1.27 1.27)) hide)
    )
    (property "ki_keywords" "rtc" (id 4) (at 0 0 0)
      (effects (font (size 1.27 1.27)) hide)
    )
    (property "ki_description" "Real-Time Clock, SPI Interface, 3 GPO, QFN-16" (id 5) (at 0 0 0)
      (effects (font (size 1.27 1.27)) hide)
    )
    (property "ki_fp_filters" "VQFN*1EP*3x3mm*P0.5mm*" (id 6) (at 0 0 0)
      (effects (font (size 1.27 1.27)) hide)
    )
    (symbol "AB1815_0_1"
      (rectangle (start -10.16 15.24) (end 10.16 -15.24)
        (stroke (width 0.254)) (fill (type background))
      )
    )
    (symbol "AB1815_1_1"
      (pin open_collector line (at 12.7 12.7 180) (length 2.54)
        (name "~RST" (effects (font (size 1.27 1.27))))
        (number "1" (effects (font (size 1.27 1.27))))
      )
      (pin input line (at -12.7 -5.08 0) (length 2.54)
        (name "EXTI" (effects (font (size 1.27 1.27))))
        (number "10" (effects (font (size 1.27 1.27))))
      )
      (pin open_collector line (at 12.7 5.08 180) (length 2.54)
        (name "FOUT/~IRQ" (effects (font (size 1.27 1.27))))
        (number "11" (effects (font (size 1.27 1.27))))
      )
      (pin input line (at -12.7 2.54 0) (length 2.54)
        (name "~CE" (effects (font (size 1.27 1.27))))
        (number "12" (effects (font (size 1.27 1.27))))
      )
      (pin power_in line (at 0 17.78 270) (length 2.54)
        (name "VCC" (effects (font (size 1.27 1.27))))
        (number "13" (effects (font (size 1.27 1.27))))
      )
      (pin passive line (at -12.7 -12.7 0) (length 2.54)
        (name "AF" (effects (font (size 1.27 1.27))))
        (number "14" (effects (font (size 1.27 1.27))))
      )
      (pin output line (at 12.7 -12.7 180) (length 2.54)
        (name "XO" (effects (font (size 1.27 1.27))))
        (number "15" (effects (font (size 1.27 1.27))))
      )
      (pin input line (at 12.7 -5.08 180) (length 2.54)
        (name "XI" (effects (font (size 1.27 1.27))))
        (number "16" (effects (font (size 1.27 1.27))))
      )
      (pin power_in line (at 0 -17.78 90) (length 2.54)
        (name "VSS" (effects (font (size 1.27 1.27))))
        (number "17" (effects (font (size 1.27 1.27))))
      )
      (pin input line (at -12.7 -7.62 0) (length 2.54)
        (name "WDI" (effects (font (size 1.27 1.27))))
        (number "2" (effects (font (size 1.27 1.27))))
      )
      (pin input line (at -12.7 12.7 0) (length 2.54)
        (name "~EXTR" (effects (font (size 1.27 1.27))))
        (number "3" (effects (font (size 1.27 1.27))))
      )
      (pin open_collector line (at 12.7 2.54 180) (length 2.54)
        (name "~IRQ2" (effects (font (size 1.27 1.27))))
        (number "4" (effects (font (size 1.27 1.27))))
      )
      (pin power_in line (at -2.54 17.78 270) (length 2.54)
        (name "VBAT" (effects (font (size 1.27 1.27))))
        (number "5" (effects (font (size 1.27 1.27))))
      )
      (pin output line (at -12.7 0 0) (length 2.54)
        (name "SDO" (effects (font (size 1.27 1.27))))
        (number "6" (effects (font (size 1.27 1.27))))
      )
      (pin input line (at -12.7 7.62 0) (length 2.54)
        (name "SCL" (effects (font (size 1.27 1.27))))
        (number "7" (effects (font (size 1.27 1.27))))
      )
      (pin output line (at 12.7 0 180) (length 2.54)
        (name "CLKOUT/~IRQ3" (effects (font (size 1.27 1.27))))
        (number "8" (effects (font (size 1.27 1.27))))
      )
      (pin input line (at -12.7 5.08 0) (length 2.54)
        (name "SDI" (effects (font (size 1.27 1.27))))
        (number "9" (effects (font (size 1.27 1.27))))
      )
    )
  )
  (symbol "Timer_RTC:BQ32000" (in_bom yes) (on_board yes)
    (property "Reference" "U" (id 0) (at -8.89 8.89 0)
      (effects (font (size 1.27 1.27)))
    )
    (property "Value" "BQ32000" (id 1) (at 1.27 8.89 0)
      (effects (font (size 1.27 1.27)) (justify left))
    )
    (property "Footprint" "Package_SO:SOIC-8_3.9x4.9mm_P1.27mm" (id 2) (at 0 -12.7 0)
      (effects (font (size 1.27 1.27)) hide)
    )
    (property "Datasheet" "http://www.ti.com/lit/ds/symlink/bq32000.pdf" (id 3) (at 0 0 0)
      (effects (font (size 1.27 1.27)) hide)
    )
    (property "ki_keywords" "RTC, I2C Timekeeping Chip" (id 4) (at 0 0 0)
      (effects (font (size 1.27 1.27)) hide)
    )
    (property "ki_description" "Serial, I2C Real-time clock, Trickle charger, 3V to 3.6V VCC, -40°C to +85°C, SOIC-8" (id 5) (at 0 0 0)
      (effects (font (size 1.27 1.27)) hide)
    )
    (property "ki_fp_filters" "SOIC*3.9x4.9mm?P1.27mm*" (id 6) (at 0 0 0)
      (effects (font (size 1.27 1.27)) hide)
    )
    (symbol "BQ32000_0_1"
      (rectangle (start -10.16 7.62) (end 10.16 -7.62)
        (stroke (width 0.254)) (fill (type background))
      )
    )
    (symbol "BQ32000_1_1"
      (pin input line (at -12.7 -2.54 0) (length 2.54)
        (name "OSCI" (effects (font (size 1.27 1.27))))
        (number "1" (effects (font (size 1.27 1.27))))
      )
      (pin input line (at -12.7 -5.08 0) (length 2.54)
        (name "OSCO" (effects (font (size 1.27 1.27))))
        (number "2" (effects (font (size 1.27 1.27))))
      )
      (pin power_in line (at 0 10.16 270) (length 2.54)
        (name "VBACK" (effects (font (size 1.27 1.27))))
        (number "3" (effects (font (size 1.27 1.27))))
      )
      (pin power_in line (at 0 -10.16 90) (length 2.54)
        (name "GND" (effects (font (size 1.27 1.27))))
        (number "4" (effects (font (size 1.27 1.27))))
      )
      (pin bidirectional line (at -12.7 2.54 0) (length 2.54)
        (name "SDA" (effects (font (size 1.27 1.27))))
        (number "5" (effects (font (size 1.27 1.27))))
      )
      (pin input line (at -12.7 5.08 0) (length 2.54)
        (name "SCL" (effects (font (size 1.27 1.27))))
        (number "6" (effects (font (size 1.27 1.27))))
      )
      (pin open_collector line (at 12.7 0 180) (length 2.54)
        (name "~IRQ" (effects (font (size 1.27 1.27))))
        (number "7" (effects (font (size 1.27 1.27))))
      )
      (pin power_in line (at -2.54 10.16 270) (length 2.54)
        (name "VCC" (effects (font (size 1.27 1.27))))
        (number "8" (effects (font (size 1.27 1.27))))
      )
    )
  )
  (symbol "Timer_RTC:BQ32002" (extends "BQ32000")
    (property "Reference" "U" (id 0) (at -8.89 8.89 0)
      (effects (font (size 1.27 1.27)))
    )
    (property "Value" "BQ32002" (id 1) (at 1.27 8.89 0)
      (effects (font (size 1.27 1.27)) (justify left))
    )
    (property "Footprint" "Package_SO:SOIC-8_3.9x4.9mm_P1.27mm" (id 2) (at 0 -12.7 0)
      (effects (font (size 1.27 1.27)) hide)
    )
    (property "Datasheet" "http://www.ti.com/lit/ds/symlink/bq32002.pdf" (id 3) (at 0 0 0)
      (effects (font (size 1.27 1.27)) hide)
    )
    (property "ki_keywords" "RTC, I2C Timekeeping Chip" (id 4) (at 0 0 0)
      (effects (font (size 1.27 1.27)) hide)
    )
    (property "ki_description" "Serial, I2C Real-time clock, 3V to 3.6V VCC, -40°C to +85°C, SOIC-8" (id 5) (at 0 0 0)
      (effects (font (size 1.27 1.27)) hide)
    )
    (property "ki_fp_filters" "SOIC*3.9x4.9mm?P1.27mm*" (id 6) (at 0 0 0)
      (effects (font (size 1.27 1.27)) hide)
    )
  )
  (symbol "Timer_RTC:DS1302+" (in_bom yes) (on_board yes)
    (property "Reference" "U" (id 0) (at -8.89 8.89 0)
      (effects (font (size 1.27 1.27)))
    )
    (property "Value" "DS1302+" (id 1) (at 6.35 8.89 0)
      (effects (font (size 1.27 1.27)))
    )
    (property "Footprint" "Package_DIP:DIP-8_W7.62mm" (id 2) (at 0 -12.7 0)
      (effects (font (size 1.27 1.27)) hide)
    )
    (property "Datasheet" "https://datasheets.maximintegrated.com/en/ds/DS1302.pdf" (id 3) (at 0 -5.08 0)
      (effects (font (size 1.27 1.27)) hide)
    )
    (property "ki_keywords" "RTC, Trickle-Charge Timekeeping Chip" (id 4) (at 0 0 0)
      (effects (font (size 1.27 1.27)) hide)
    )
    (property "ki_description" "Trickle-Charge Timekeeping Chip, 2.0V to 5.5V VCC, 0°C to +70°C, DIP-8" (id 5) (at 0 0 0)
      (effects (font (size 1.27 1.27)) hide)
    )
    (property "ki_fp_filters" "DIP*W7.62mm*" (id 6) (at 0 0 0)
      (effects (font (size 1.27 1.27)) hide)
    )
    (symbol "DS1302+_1_1"
      (rectangle (start -10.16 7.62) (end 10.16 -7.62)
        (stroke (width 0.254)) (fill (type background))
      )
      (pin power_in line (at -2.54 10.16 270) (length 2.54)
        (name "VCC2" (effects (font (size 1.27 1.27))))
        (number "1" (effects (font (size 1.27 1.27))))
      )
      (pin input line (at -12.7 -2.54 0) (length 2.54)
        (name "X1" (effects (font (size 1.27 1.27))))
        (number "2" (effects (font (size 1.27 1.27))))
      )
      (pin input line (at -12.7 -5.08 0) (length 2.54)
        (name "X2" (effects (font (size 1.27 1.27))))
        (number "3" (effects (font (size 1.27 1.27))))
      )
      (pin power_in line (at 0 -10.16 90) (length 2.54)
        (name "GND" (effects (font (size 1.27 1.27))))
        (number "4" (effects (font (size 1.27 1.27))))
      )
      (pin input line (at -12.7 2.54 0) (length 2.54)
        (name "CE" (effects (font (size 1.27 1.27))))
        (number "5" (effects (font (size 1.27 1.27))))
      )
      (pin bidirectional line (at 12.7 5.08 180) (length 2.54)
        (name "I/O" (effects (font (size 1.27 1.27))))
        (number "6" (effects (font (size 1.27 1.27))))
      )
      (pin input line (at -12.7 5.08 0) (length 2.54)
        (name "SCLK" (effects (font (size 1.27 1.27))))
        (number "7" (effects (font (size 1.27 1.27))))
      )
      (pin power_in line (at 0 10.16 270) (length 2.54)
        (name "VCC1" (effects (font (size 1.27 1.27))))
        (number "8" (effects (font (size 1.27 1.27))))
      )
    )
  )
  (symbol "Timer_RTC:DS1302N+" (extends "DS1302+")
    (property "Reference" "U" (id 0) (at -8.89 8.89 0)
      (effects (font (size 1.27 1.27)))
    )
    (property "Value" "DS1302N+" (id 1) (at 6.35 8.89 0)
      (effects (font (size 1.27 1.27)))
    )
    (property "Footprint" "Package_DIP:DIP-8_W7.62mm" (id 2) (at 0 -12.7 0)
      (effects (font (size 1.27 1.27)) hide)
    )
    (property "Datasheet" "https://datasheets.maximintegrated.com/en/ds/DS1302.pdf" (id 3) (at 0 -5.08 0)
      (effects (font (size 1.27 1.27)) hide)
    )
    (property "ki_keywords" "RTC, Trickle-Charge Timekeeping Chip" (id 4) (at 0 0 0)
      (effects (font (size 1.27 1.27)) hide)
    )
    (property "ki_description" "Trickle-Charge Timekeeping Chip, 2.0V to 5.5V VCC, -40°C to +85°C, DIP-8" (id 5) (at 0 0 0)
      (effects (font (size 1.27 1.27)) hide)
    )
    (property "ki_fp_filters" "DIP*W7.62mm*" (id 6) (at 0 0 0)
      (effects (font (size 1.27 1.27)) hide)
    )
  )
  (symbol "Timer_RTC:DS1302S+" (in_bom yes) (on_board yes)
    (property "Reference" "U" (id 0) (at -8.89 8.89 0)
      (effects (font (size 1.27 1.27)))
    )
    (property "Value" "DS1302S+" (id 1) (at 1.27 8.89 0)
      (effects (font (size 1.27 1.27)) (justify left))
    )
    (property "Footprint" "Package_SO:SO-8_5.3x6.2mm_P1.27mm" (id 2) (at 0 -12.7 0)
      (effects (font (size 1.27 1.27)) hide)
    )
    (property "Datasheet" "https://datasheets.maximintegrated.com/en/ds/DS1302.pdf" (id 3) (at -11.43 10.16 0)
      (effects (font (size 1.27 1.27)) hide)
    )
    (property "ki_keywords" "RTC, Trickle-Charge Timekeeping Chip" (id 4) (at 0 0 0)
      (effects (font (size 1.27 1.27)) hide)
    )
    (property "ki_description" "Trickle-Charge Timekeeping Chip, 2.0V to 5.5V VCC, 0°C to +70°C, SO-8" (id 5) (at 0 0 0)
      (effects (font (size 1.27 1.27)) hide)
    )
    (property "ki_fp_filters" "SO*5.3x6.2mm?P1.27mm*" (id 6) (at 0 0 0)
      (effects (font (size 1.27 1.27)) hide)
    )
    (symbol "DS1302S+_1_1"
      (rectangle (start -10.16 7.62) (end 10.16 -7.62)
        (stroke (width 0.254)) (fill (type background))
      )
      (pin power_in line (at -2.54 10.16 270) (length 2.54)
        (name "VCC2" (effects (font (size 1.27 1.27))))
        (number "1" (effects (font (size 1.27 1.27))))
      )
      (pin input line (at -12.7 -2.54 0) (length 2.54)
        (name "X1" (effects (font (size 1.27 1.27))))
        (number "2" (effects (font (size 1.27 1.27))))
      )
      (pin input line (at -12.7 -5.08 0) (length 2.54)
        (name "X2" (effects (font (size 1.27 1.27))))
        (number "3" (effects (font (size 1.27 1.27))))
      )
      (pin power_in line (at 0 -10.16 90) (length 2.54)
        (name "GND" (effects (font (size 1.27 1.27))))
        (number "4" (effects (font (size 1.27 1.27))))
      )
      (pin input line (at -12.7 2.54 0) (length 2.54)
        (name "CE" (effects (font (size 1.27 1.27))))
        (number "5" (effects (font (size 1.27 1.27))))
      )
      (pin bidirectional line (at 12.7 5.08 180) (length 2.54)
        (name "I/O" (effects (font (size 1.27 1.27))))
        (number "6" (effects (font (size 1.27 1.27))))
      )
      (pin input line (at -12.7 5.08 0) (length 2.54)
        (name "SCLK" (effects (font (size 1.27 1.27))))
        (number "7" (effects (font (size 1.27 1.27))))
      )
      (pin power_in line (at 0 10.16 270) (length 2.54)
        (name "VCC1" (effects (font (size 1.27 1.27))))
        (number "8" (effects (font (size 1.27 1.27))))
      )
    )
  )
  (symbol "Timer_RTC:DS1302SN+" (extends "DS1302S+")
    (property "Reference" "U" (id 0) (at -8.89 8.89 0)
      (effects (font (size 1.27 1.27)))
    )
    (property "Value" "DS1302SN+" (id 1) (at 1.27 8.89 0)
      (effects (font (size 1.27 1.27)) (justify left))
    )
    (property "Footprint" "Package_SO:SO-8_5.3x6.2mm_P1.27mm" (id 2) (at 0 -12.7 0)
      (effects (font (size 1.27 1.27)) hide)
    )
    (property "Datasheet" "https://datasheets.maximintegrated.com/en/ds/DS1302.pdf" (id 3) (at -11.43 10.16 0)
      (effects (font (size 1.27 1.27)) hide)
    )
    (property "ki_keywords" "RTC, Trickle-Charge Timekeeping Chip" (id 4) (at 0 0 0)
      (effects (font (size 1.27 1.27)) hide)
    )
    (property "ki_description" "Trickle-Charge Timekeeping Chip, 2.0V to 5.5V VCC, -40°C to +85°C, SO-8" (id 5) (at 0 0 0)
      (effects (font (size 1.27 1.27)) hide)
    )
    (property "ki_fp_filters" "SO*5.3x6.2mm?P1.27mm*" (id 6) (at 0 0 0)
      (effects (font (size 1.27 1.27)) hide)
    )
  )
  (symbol "Timer_RTC:DS1302Z+" (in_bom yes) (on_board yes)
    (property "Reference" "U" (id 0) (at -8.89 8.89 0)
      (effects (font (size 1.27 1.27)))
    )
    (property "Value" "DS1302Z+" (id 1) (at 6.35 8.89 0)
      (effects (font (size 1.27 1.27)))
    )
    (property "Footprint" "Package_SO:SOIC-8_3.9x4.9mm_P1.27mm" (id 2) (at 0 -12.7 0)
      (effects (font (size 1.27 1.27)) hide)
    )
    (property "Datasheet" "https://datasheets.maximintegrated.com/en/ds/DS1302.pdf" (id 3) (at 0 0 0)
      (effects (font (size 1.27 1.27)) hide)
    )
    (property "ki_keywords" "RTC, Trickle-Charge Timekeeping Chip" (id 4) (at 0 0 0)
      (effects (font (size 1.27 1.27)) hide)
    )
    (property "ki_description" "Trickle-Charge Timekeeping Chip, 2.0V to 5.5V VCC, 0°C to +70°C, SOIC-8" (id 5) (at 0 0 0)
      (effects (font (size 1.27 1.27)) hide)
    )
    (property "ki_fp_filters" "SOIC*3.9x4.9mm?P1.27mm*" (id 6) (at 0 0 0)
      (effects (font (size 1.27 1.27)) hide)
    )
    (symbol "DS1302Z+_1_1"
      (rectangle (start -10.16 7.62) (end 10.16 -7.62)
        (stroke (width 0.254)) (fill (type background))
      )
      (pin power_in line (at -2.54 10.16 270) (length 2.54)
        (name "VCC2" (effects (font (size 1.27 1.27))))
        (number "1" (effects (font (size 1.27 1.27))))
      )
      (pin input line (at -12.7 -2.54 0) (length 2.54)
        (name "X1" (effects (font (size 1.27 1.27))))
        (number "2" (effects (font (size 1.27 1.27))))
      )
      (pin input line (at -12.7 -5.08 0) (length 2.54)
        (name "X2" (effects (font (size 1.27 1.27))))
        (number "3" (effects (font (size 1.27 1.27))))
      )
      (pin power_in line (at 0 -10.16 90) (length 2.54)
        (name "GND" (effects (font (size 1.27 1.27))))
        (number "4" (effects (font (size 1.27 1.27))))
      )
      (pin input line (at -12.7 2.54 0) (length 2.54)
        (name "CE" (effects (font (size 1.27 1.27))))
        (number "5" (effects (font (size 1.27 1.27))))
      )
      (pin bidirectional line (at 12.7 5.08 180) (length 2.54)
        (name "I/O" (effects (font (size 1.27 1.27))))
        (number "6" (effects (font (size 1.27 1.27))))
      )
      (pin input line (at -12.7 5.08 0) (length 2.54)
        (name "SCLK" (effects (font (size 1.27 1.27))))
        (number "7" (effects (font (size 1.27 1.27))))
      )
      (pin power_in line (at 0 10.16 270) (length 2.54)
        (name "VCC1" (effects (font (size 1.27 1.27))))
        (number "8" (effects (font (size 1.27 1.27))))
      )
    )
  )
  (symbol "Timer_RTC:DS1302ZN+" (extends "DS1302Z+")
    (property "Reference" "U" (id 0) (at -8.89 8.89 0)
      (effects (font (size 1.27 1.27)))
    )
    (property "Value" "DS1302ZN+" (id 1) (at 6.35 8.89 0)
      (effects (font (size 1.27 1.27)))
    )
    (property "Footprint" "Package_SO:SOIC-8_3.9x4.9mm_P1.27mm" (id 2) (at 0 -12.7 0)
      (effects (font (size 1.27 1.27)) hide)
    )
    (property "Datasheet" "https://datasheets.maximintegrated.com/en/ds/DS1302.pdf" (id 3) (at 0 0 0)
      (effects (font (size 1.27 1.27)) hide)
    )
    (property "ki_keywords" "RTC, Trickle-Charge Timekeeping Chip" (id 4) (at 0 0 0)
      (effects (font (size 1.27 1.27)) hide)
    )
    (property "ki_description" "Trickle-Charge Timekeeping Chip, 2.0V to 5.5V VCC, -40°C to +85°C, SOIC-8" (id 5) (at 0 0 0)
      (effects (font (size 1.27 1.27)) hide)
    )
    (property "ki_fp_filters" "SOIC*3.9x4.9mm?P1.27mm*" (id 6) (at 0 0 0)
      (effects (font (size 1.27 1.27)) hide)
    )
  )
  (symbol "Timer_RTC:DS1307+" (in_bom yes) (on_board yes)
    (property "Reference" "U" (id 0) (at -8.89 8.89 0)
      (effects (font (size 1.27 1.27)))
    )
    (property "Value" "DS1307+" (id 1) (at 1.27 8.89 0)
      (effects (font (size 1.27 1.27)) (justify left))
    )
    (property "Footprint" "Package_DIP:DIP-8_W7.62mm" (id 2) (at 0 -12.7 0)
      (effects (font (size 1.27 1.27)) hide)
    )
    (property "Datasheet" "https://datasheets.maximintegrated.com/en/ds/DS1307.pdf" (id 3) (at 0 -5.08 0)
      (effects (font (size 1.27 1.27)) hide)
    )
    (property "ki_keywords" "RTC, Trickle-Charge Timekeeping Chip" (id 4) (at 0 0 0)
      (effects (font (size 1.27 1.27)) hide)
    )
    (property "ki_description" "64 x 8, Serial, I2C Real-time clock, 4.5V to 5.5V VCC, 0°C to +70°C, DIP-8" (id 5) (at 0 0 0)
      (effects (font (size 1.27 1.27)) hide)
    )
    (property "ki_fp_filters" "DIP*W7.62mm*" (id 6) (at 0 0 0)
      (effects (font (size 1.27 1.27)) hide)
    )
    (symbol "DS1307+_0_1"
      (rectangle (start -10.16 7.62) (end 10.16 -7.62)
        (stroke (width 0.254)) (fill (type background))
      )
    )
    (symbol "DS1307+_1_1"
      (pin input line (at -12.7 -2.54 0) (length 2.54)
        (name "X1" (effects (font (size 1.27 1.27))))
        (number "1" (effects (font (size 1.27 1.27))))
      )
      (pin input line (at -12.7 -5.08 0) (length 2.54)
        (name "X2" (effects (font (size 1.27 1.27))))
        (number "2" (effects (font (size 1.27 1.27))))
      )
      (pin power_in line (at 0 10.16 270) (length 2.54)
        (name "VBAT" (effects (font (size 1.27 1.27))))
        (number "3" (effects (font (size 1.27 1.27))))
      )
      (pin power_in line (at 0 -10.16 90) (length 2.54)
        (name "GND" (effects (font (size 1.27 1.27))))
        (number "4" (effects (font (size 1.27 1.27))))
      )
      (pin bidirectional line (at -12.7 2.54 0) (length 2.54)
        (name "SDA" (effects (font (size 1.27 1.27))))
        (number "5" (effects (font (size 1.27 1.27))))
      )
      (pin input line (at -12.7 5.08 0) (length 2.54)
        (name "SCL" (effects (font (size 1.27 1.27))))
        (number "6" (effects (font (size 1.27 1.27))))
      )
      (pin open_collector line (at 12.7 0 180) (length 2.54)
        (name "SQW/OUT" (effects (font (size 1.27 1.27))))
        (number "7" (effects (font (size 1.27 1.27))))
      )
      (pin power_in line (at -2.54 10.16 270) (length 2.54)
        (name "VCC" (effects (font (size 1.27 1.27))))
        (number "8" (effects (font (size 1.27 1.27))))
      )
    )
  )
  (symbol "Timer_RTC:DS1307N+" (extends "DS1307+")
    (property "Reference" "U" (id 0) (at -8.89 8.89 0)
      (effects (font (size 1.27 1.27)))
    )
    (property "Value" "DS1307N+" (id 1) (at 1.27 8.89 0)
      (effects (font (size 1.27 1.27)) (justify left))
    )
    (property "Footprint" "Package_DIP:DIP-8_W7.62mm" (id 2) (at 0 -12.7 0)
      (effects (font (size 1.27 1.27)) hide)
    )
    (property "Datasheet" "https://datasheets.maximintegrated.com/en/ds/DS1307.pdf" (id 3) (at 0 -5.08 0)
      (effects (font (size 1.27 1.27)) hide)
    )
    (property "ki_keywords" "RTC, Trickle-Charge Timekeeping Chip" (id 4) (at 0 0 0)
      (effects (font (size 1.27 1.27)) hide)
    )
    (property "ki_description" "64 x 8, Serial, I2C Real-time clock, 4.5V to 5.5V VCC, -40°C to +85°C, DIP-8" (id 5) (at 0 0 0)
      (effects (font (size 1.27 1.27)) hide)
    )
    (property "ki_fp_filters" "DIP*W7.62mm*" (id 6) (at 0 0 0)
      (effects (font (size 1.27 1.27)) hide)
    )
  )
  (symbol "Timer_RTC:DS1307Z+" (in_bom yes) (on_board yes)
    (property "Reference" "U" (id 0) (at -8.89 8.89 0)
      (effects (font (size 1.27 1.27)))
    )
    (property "Value" "DS1307Z+" (id 1) (at 1.27 8.89 0)
      (effects (font (size 1.27 1.27)) (justify left))
    )
    (property "Footprint" "Package_SO:SOIC-8_3.9x4.9mm_P1.27mm" (id 2) (at 0 -12.7 0)
      (effects (font (size 1.27 1.27)) hide)
    )
    (property "Datasheet" "https://datasheets.maximintegrated.com/en/ds/DS1307.pdf" (id 3) (at 0 0 0)
      (effects (font (size 1.27 1.27)) hide)
    )
    (property "ki_keywords" "RTC, I2C Timekeeping Chip" (id 4) (at 0 0 0)
      (effects (font (size 1.27 1.27)) hide)
    )
    (property "ki_description" "64 x 8, Serial, I2C Real-time clock, 4.5V to 5.5V VCC, 0°C to +70°C, SOIC-8" (id 5) (at 0 0 0)
      (effects (font (size 1.27 1.27)) hide)
    )
    (property "ki_fp_filters" "SOIC*3.9x4.9mm?P1.27mm*" (id 6) (at 0 0 0)
      (effects (font (size 1.27 1.27)) hide)
    )
    (symbol "DS1307Z+_0_1"
      (rectangle (start -10.16 7.62) (end 10.16 -7.62)
        (stroke (width 0.254)) (fill (type background))
      )
    )
    (symbol "DS1307Z+_1_1"
      (pin input line (at -12.7 -2.54 0) (length 2.54)
        (name "X1" (effects (font (size 1.27 1.27))))
        (number "1" (effects (font (size 1.27 1.27))))
      )
      (pin input line (at -12.7 -5.08 0) (length 2.54)
        (name "X2" (effects (font (size 1.27 1.27))))
        (number "2" (effects (font (size 1.27 1.27))))
      )
      (pin power_in line (at 0 10.16 270) (length 2.54)
        (name "VBAT" (effects (font (size 1.27 1.27))))
        (number "3" (effects (font (size 1.27 1.27))))
      )
      (pin power_in line (at 0 -10.16 90) (length 2.54)
        (name "GND" (effects (font (size 1.27 1.27))))
        (number "4" (effects (font (size 1.27 1.27))))
      )
      (pin bidirectional line (at -12.7 2.54 0) (length 2.54)
        (name "SDA" (effects (font (size 1.27 1.27))))
        (number "5" (effects (font (size 1.27 1.27))))
      )
      (pin input line (at -12.7 5.08 0) (length 2.54)
        (name "SCL" (effects (font (size 1.27 1.27))))
        (number "6" (effects (font (size 1.27 1.27))))
      )
      (pin open_collector line (at 12.7 0 180) (length 2.54)
        (name "SQW/OUT" (effects (font (size 1.27 1.27))))
        (number "7" (effects (font (size 1.27 1.27))))
      )
      (pin power_in line (at -2.54 10.16 270) (length 2.54)
        (name "VCC" (effects (font (size 1.27 1.27))))
        (number "8" (effects (font (size 1.27 1.27))))
      )
    )
  )
  (symbol "Timer_RTC:DS1307ZN+" (extends "DS1307Z+")
    (property "Reference" "U" (id 0) (at -8.89 8.89 0)
      (effects (font (size 1.27 1.27)))
    )
    (property "Value" "DS1307ZN+" (id 1) (at 1.27 8.89 0)
      (effects (font (size 1.27 1.27)) (justify left))
    )
    (property "Footprint" "Package_SO:SOIC-8_3.9x4.9mm_P1.27mm" (id 2) (at 0 -12.7 0)
      (effects (font (size 1.27 1.27)) hide)
    )
    (property "Datasheet" "https://datasheets.maximintegrated.com/en/ds/DS1307.pdf" (id 3) (at 0 0 0)
      (effects (font (size 1.27 1.27)) hide)
    )
    (property "ki_keywords" "RTC, I2C Timekeeping Chip" (id 4) (at 0 0 0)
      (effects (font (size 1.27 1.27)) hide)
    )
    (property "ki_description" "64 x 8, Serial, I2C Real-time clock, 4.5V to 5.5V VCC, -40°C to +85°C, SOIC-8" (id 5) (at 0 0 0)
      (effects (font (size 1.27 1.27)) hide)
    )
    (property "ki_fp_filters" "SOIC*3.9x4.9mm?P1.27mm*" (id 6) (at 0 0 0)
      (effects (font (size 1.27 1.27)) hide)
    )
  )
  (symbol "Timer_RTC:DS1602" (in_bom yes) (on_board yes)
    (property "Reference" "U" (id 0) (at -6.35 8.89 0)
      (effects (font (size 1.27 1.27)))
    )
    (property "Value" "DS1602" (id 1) (at 7.62 8.89 0)
      (effects (font (size 1.27 1.27)))
    )
    (property "Footprint" "" (id 2) (at 2.54 -5.08 0)
      (effects (font (size 1.27 1.27)) hide)
    )
    (property "Datasheet" "https://datasheets.maximintegrated.com/en/ds/DS1602.pdf" (id 3) (at 2.54 -5.08 0)
      (effects (font (size 1.27 1.27)) hide)
    )
    (property "ki_keywords" "Elapsed Time Counter" (id 4) (at 0 0 0)
      (effects (font (size 1.27 1.27)) hide)
    )
    (property "ki_description" "Elapsed Time Counter, -40 to +85 C, 2.5V to 5.5V VCC, DIP-8, SO-8" (id 5) (at 0 0 0)
      (effects (font (size 1.27 1.27)) hide)
    )
    (property "ki_fp_filters" "DIP*W7.62mm* SO*5.3x6.2mm?P1.27mm*" (id 6) (at 0 0 0)
      (effects (font (size 1.27 1.27)) hide)
    )
    (symbol "DS1602_0_1"
      (rectangle (start -7.62 7.62) (end 7.62 -7.62)
        (stroke (width 0.254)) (fill (type background))
      )
    )
    (symbol "DS1602_1_1"
      (pin input line (at -10.16 -2.54 0) (length 2.54)
        (name "~RST~" (effects (font (size 1.27 1.27))))
        (number "1" (effects (font (size 1.27 1.27))))
      )
      (pin bidirectional line (at -10.16 2.54 0) (length 2.54)
        (name "DQ" (effects (font (size 1.27 1.27))))
        (number "2" (effects (font (size 1.27 1.27))))
      )
      (pin input line (at -10.16 5.08 0) (length 2.54)
        (name "CLK" (effects (font (size 1.27 1.27))))
        (number "3" (effects (font (size 1.27 1.27))))
      )
      (pin power_in line (at 0 -10.16 90) (length 2.54)
        (name "GND" (effects (font (size 1.27 1.27))))
        (number "4" (effects (font (size 1.27 1.27))))
      )
      (pin power_in line (at 0 10.16 270) (length 2.54)
        (name "VBAT" (effects (font (size 1.27 1.27))))
        (number "5" (effects (font (size 1.27 1.27))))
      )
      (pin passive line (at 10.16 -2.54 180) (length 2.54)
        (name "XTAL2" (effects (font (size 1.27 1.27))))
        (number "6" (effects (font (size 1.27 1.27))))
      )
      (pin passive line (at 10.16 0 180) (length 2.54)
        (name "XTAL1" (effects (font (size 1.27 1.27))))
        (number "7" (effects (font (size 1.27 1.27))))
      )
      (pin power_in line (at 2.54 10.16 270) (length 2.54)
        (name "VCC" (effects (font (size 1.27 1.27))))
        (number "8" (effects (font (size 1.27 1.27))))
      )
    )
  )
  (symbol "Timer_RTC:DS3231M" (in_bom yes) (on_board yes)
    (property "Reference" "U" (id 0) (at -7.62 8.89 0)
      (effects (font (size 1.27 1.27)) (justify right))
    )
    (property "Value" "DS3231M" (id 1) (at 10.16 8.89 0)
      (effects (font (size 1.27 1.27)) (justify right))
    )
    (property "Footprint" "Package_SO:SOIC-16W_7.5x10.3mm_P1.27mm" (id 2) (at 0 -15.24 0)
      (effects (font (size 1.27 1.27)) hide)
    )
    (property "Datasheet" "http://datasheets.maximintegrated.com/en/ds/DS3231.pdf" (id 3) (at 6.858 1.27 0)
      (effects (font (size 1.27 1.27)) hide)
    )
    (property "ki_keywords" "RTC TCXO Realtime Time Clock Crystal Oscillator I2C" (id 4) (at 0 0 0)
      (effects (font (size 1.27 1.27)) hide)
    )
    (property "ki_description" "Extremely Accurate I2C-Integrated RTC/TCXO/Crystal SOIC-16" (id 5) (at 0 0 0)
      (effects (font (size 1.27 1.27)) hide)
    )
    (property "ki_fp_filters" "SOIC*7.5x10.3mm*P1.27mm*" (id 6) (at 0 0 0)
      (effects (font (size 1.27 1.27)) hide)
    )
    (symbol "DS3231M_0_1"
      (rectangle (start -10.16 7.62) (end 10.16 -7.62)
        (stroke (width 0.254)) (fill (type background))
      )
    )
    (symbol "DS3231M_1_1"
      (pin open_collector line (at 12.7 5.08 180) (length 2.54)
        (name "32KHZ" (effects (font (size 1.27 1.27))))
        (number "1" (effects (font (size 1.27 1.27))))
      )
      (pin passive line (at 0 -10.16 90) (length 2.54) hide
        (name "GND" (effects (font (size 1.27 1.27))))
        (number "10" (effects (font (size 1.27 1.27))))
      )
      (pin passive line (at 0 -10.16 90) (length 2.54) hide
        (name "GND" (effects (font (size 1.27 1.27))))
        (number "11" (effects (font (size 1.27 1.27))))
      )
      (pin passive line (at 0 -10.16 90) (length 2.54) hide
        (name "GND" (effects (font (size 1.27 1.27))))
        (number "12" (effects (font (size 1.27 1.27))))
      )
      (pin power_in line (at 0 -10.16 90) (length 2.54)
        (name "GND" (effects (font (size 1.27 1.27))))
        (number "13" (effects (font (size 1.27 1.27))))
      )
      (pin power_in line (at 0 10.16 270) (length 2.54)
        (name "VBAT" (effects (font (size 1.27 1.27))))
        (number "14" (effects (font (size 1.27 1.27))))
      )
      (pin bidirectional line (at -12.7 2.54 0) (length 2.54)
        (name "SDA" (effects (font (size 1.27 1.27))))
        (number "15" (effects (font (size 1.27 1.27))))
      )
      (pin input line (at -12.7 5.08 0) (length 2.54)
        (name "SCL" (effects (font (size 1.27 1.27))))
        (number "16" (effects (font (size 1.27 1.27))))
      )
      (pin power_in line (at -2.54 10.16 270) (length 2.54)
        (name "VCC" (effects (font (size 1.27 1.27))))
        (number "2" (effects (font (size 1.27 1.27))))
      )
      (pin open_collector line (at 12.7 -2.54 180) (length 2.54)
        (name "~INT~/SQW" (effects (font (size 1.27 1.27))))
        (number "3" (effects (font (size 1.27 1.27))))
      )
      (pin bidirectional line (at -12.7 -5.08 0) (length 2.54)
        (name "~RST" (effects (font (size 1.27 1.27))))
        (number "4" (effects (font (size 1.27 1.27))))
      )
      (pin passive line (at 0 -10.16 90) (length 2.54) hide
        (name "GND" (effects (font (size 1.27 1.27))))
        (number "5" (effects (font (size 1.27 1.27))))
      )
      (pin passive line (at 0 -10.16 90) (length 2.54) hide
        (name "GND" (effects (font (size 1.27 1.27))))
        (number "6" (effects (font (size 1.27 1.27))))
      )
      (pin passive line (at 0 -10.16 90) (length 2.54) hide
        (name "GND" (effects (font (size 1.27 1.27))))
        (number "7" (effects (font (size 1.27 1.27))))
      )
      (pin passive line (at 0 -10.16 90) (length 2.54) hide
        (name "GND" (effects (font (size 1.27 1.27))))
        (number "8" (effects (font (size 1.27 1.27))))
      )
      (pin passive line (at 0 -10.16 90) (length 2.54) hide
        (name "GND" (effects (font (size 1.27 1.27))))
        (number "9" (effects (font (size 1.27 1.27))))
      )
    )
  )
  (symbol "Timer_RTC:DS3231MZ" (in_bom yes) (on_board yes)
    (property "Reference" "U" (id 0) (at -7.62 8.89 0)
      (effects (font (size 1.27 1.27)) (justify right))
    )
    (property "Value" "DS3231MZ" (id 1) (at 11.43 8.89 0)
      (effects (font (size 1.27 1.27)) (justify right))
    )
    (property "Footprint" "Package_SO:SOIC-8_3.9x4.9mm_P1.27mm" (id 2) (at 0 -12.7 0)
      (effects (font (size 1.27 1.27)) hide)
    )
    (property "Datasheet" "http://datasheets.maximintegrated.com/en/ds/DS3231M.pdf" (id 3) (at 0 -15.24 0)
      (effects (font (size 1.27 1.27)) hide)
    )
    (property "ki_keywords" "RTC TCXO Realtime Time Clock MEMS I2C" (id 4) (at 0 0 0)
      (effects (font (size 1.27 1.27)) hide)
    )
    (property "ki_description" "±5ppm, I2C Real-Time Clock SOIC-8" (id 5) (at 0 0 0)
      (effects (font (size 1.27 1.27)) hide)
    )
    (property "ki_fp_filters" "SOIC*3.9x4.9mm*P1.27mm*" (id 6) (at 0 0 0)
      (effects (font (size 1.27 1.27)) hide)
    )
    (symbol "DS3231MZ_0_1"
      (rectangle (start -10.16 7.62) (end 10.16 -7.62)
        (stroke (width 0.254)) (fill (type background))
      )
    )
    (symbol "DS3231MZ_1_1"
      (pin open_collector line (at 12.7 5.08 180) (length 2.54)
        (name "32KHZ" (effects (font (size 1.27 1.27))))
        (number "1" (effects (font (size 1.27 1.27))))
      )
      (pin power_in line (at 0 10.16 270) (length 2.54)
        (name "VCC" (effects (font (size 1.27 1.27))))
        (number "2" (effects (font (size 1.27 1.27))))
      )
      (pin open_collector line (at 12.7 -2.54 180) (length 2.54)
        (name "~INT~/SQW" (effects (font (size 1.27 1.27))))
        (number "3" (effects (font (size 1.27 1.27))))
      )
      (pin bidirectional line (at -12.7 -5.08 0) (length 2.54)
        (name "~RST" (effects (font (size 1.27 1.27))))
        (number "4" (effects (font (size 1.27 1.27))))
      )
      (pin power_in line (at 0 -10.16 90) (length 2.54)
        (name "GND" (effects (font (size 1.27 1.27))))
        (number "5" (effects (font (size 1.27 1.27))))
      )
      (pin power_in line (at -2.54 10.16 270) (length 2.54)
        (name "VBAT" (effects (font (size 1.27 1.27))))
        (number "6" (effects (font (size 1.27 1.27))))
      )
      (pin bidirectional line (at -12.7 2.54 0) (length 2.54)
        (name "SDA" (effects (font (size 1.27 1.27))))
        (number "7" (effects (font (size 1.27 1.27))))
      )
      (pin input line (at -12.7 5.08 0) (length 2.54)
        (name "SCL" (effects (font (size 1.27 1.27))))
        (number "8" (effects (font (size 1.27 1.27))))
      )
    )
  )
  (symbol "Timer_RTC:DS3232M" (in_bom yes) (on_board yes)
    (property "Reference" "U" (id 0) (at -7.62 8.89 0)
      (effects (font (size 1.27 1.27)) (justify right))
    )
    (property "Value" "DS3232M" (id 1) (at 10.16 8.89 0)
      (effects (font (size 1.27 1.27)) (justify right))
    )
    (property "Footprint" "Package_SO:SOIC-8_3.9x4.9mm_P1.27mm" (id 2) (at 1.27 -12.7 0)
      (effects (font (size 1.27 1.27)) hide)
    )
    (property "Datasheet" "http://datasheets.maximintegrated.com/en/ds/DS3232M.pdf" (id 3) (at 6.858 3.81 0)
      (effects (font (size 1.27 1.27)) hide)
    )
    (property "ki_keywords" "RTC TCXO Realtime Time Clock MEMS SRAM I2C" (id 4) (at 0 0 0)
      (effects (font (size 1.27 1.27)) hide)
    )
    (property "ki_description" "±5ppm, I2C Real-Time Clock with SRAM SOIC-8" (id 5) (at 0 0 0)
      (effects (font (size 1.27 1.27)) hide)
    )
    (property "ki_fp_filters" "SOIC*3.9x4.9mm*P1.27mm*" (id 6) (at 0 0 0)
      (effects (font (size 1.27 1.27)) hide)
    )
    (symbol "DS3232M_0_1"
      (rectangle (start -10.16 7.62) (end 10.16 -7.62)
        (stroke (width 0.254)) (fill (type background))
      )
    )
    (symbol "DS3232M_1_1"
      (pin output line (at 12.7 5.08 180) (length 2.54)
        (name "32KHZ" (effects (font (size 1.27 1.27))))
        (number "1" (effects (font (size 1.27 1.27))))
      )
      (pin power_in line (at 0 10.16 270) (length 2.54)
        (name "VCC" (effects (font (size 1.27 1.27))))
        (number "2" (effects (font (size 1.27 1.27))))
      )
      (pin open_collector line (at 12.7 -2.54 180) (length 2.54)
        (name "~INT~/SQW" (effects (font (size 1.27 1.27))))
        (number "3" (effects (font (size 1.27 1.27))))
      )
      (pin bidirectional line (at -12.7 -5.08 0) (length 2.54)
        (name "~RST" (effects (font (size 1.27 1.27))))
        (number "4" (effects (font (size 1.27 1.27))))
      )
      (pin power_in line (at 0 -10.16 90) (length 2.54)
        (name "GND" (effects (font (size 1.27 1.27))))
        (number "5" (effects (font (size 1.27 1.27))))
      )
      (pin power_in line (at -2.54 10.16 270) (length 2.54)
        (name "VBAT" (effects (font (size 1.27 1.27))))
        (number "6" (effects (font (size 1.27 1.27))))
      )
      (pin bidirectional line (at -12.7 2.54 0) (length 2.54)
        (name "SDA" (effects (font (size 1.27 1.27))))
        (number "7" (effects (font (size 1.27 1.27))))
      )
      (pin input line (at -12.7 5.08 0) (length 2.54)
        (name "SCL" (effects (font (size 1.27 1.27))))
        (number "8" (effects (font (size 1.27 1.27))))
      )
    )
  )
  (symbol "Timer_RTC:M41T62Q" (in_bom yes) (on_board yes)
    (property "Reference" "U" (id 0) (at -6.35 8.89 0)
      (effects (font (size 1.27 1.27)))
    )
    (property "Value" "M41T62Q" (id 1) (at 5.08 8.89 0)
      (effects (font (size 1.27 1.27)))
    )
    (property "Footprint" "Package_DFN_QFN:QFN-16-1EP_3x3mm_P0.5mm_EP1.8x1.8mm" (id 2) (at 0 -17.78 0)
      (effects (font (size 1.27 1.27)) hide)
    )
    (property "Datasheet" "http://www.st.com/resource/en/datasheet/m41t62.pdf" (id 3) (at 0 0 0)
      (effects (font (size 1.27 1.27)) hide)
    )
    (property "ki_keywords" "I2C RTC Alarm interrupt" (id 4) (at 0 0 0)
      (effects (font (size 1.27 1.27)) hide)
    )
    (property "ki_description" "Low-power I2C RTC with alarm interrupt QFN" (id 5) (at 0 0 0)
      (effects (font (size 1.27 1.27)) hide)
    )
    (property "ki_fp_filters" "QFN*16*1EP*3x3mm*P0.5mm*EP1.8x1.8mm*" (id 6) (at 0 0 0)
      (effects (font (size 1.27 1.27)) hide)
    )
    (symbol "M41T62Q_0_1"
      (rectangle (start -7.62 7.62) (end 7.62 -7.62)
        (stroke (width 0.254)) (fill (type background))
      )
    )
    (symbol "M41T62Q_1_1"
      (pin input line (at -10.16 5.08 0) (length 2.54)
        (name "XI" (effects (font (size 1.27 1.27))))
        (number "1" (effects (font (size 1.27 1.27))))
      )
      (pin input line (at -10.16 -2.54 0) (length 2.54)
        (name "SCL" (effects (font (size 1.27 1.27))))
        (number "10" (effects (font (size 1.27 1.27))))
      )
      (pin output line (at 10.16 0 180) (length 2.54)
        (name "~IRQ~/OUT" (effects (font (size 1.27 1.27))))
        (number "11" (effects (font (size 1.27 1.27))))
      )
      (pin power_in line (at 0 10.16 270) (length 2.54)
        (name "VCC" (effects (font (size 1.27 1.27))))
        (number "14" (effects (font (size 1.27 1.27))))
      )
      (pin passive line (at 2.54 -10.16 90) (length 2.54)
        (name "EP" (effects (font (size 1.27 1.27))))
        (number "17" (effects (font (size 1.27 1.27))))
      )
      (pin input line (at -10.16 2.54 0) (length 2.54)
        (name "XO" (effects (font (size 1.27 1.27))))
        (number "2" (effects (font (size 1.27 1.27))))
      )
      (pin output line (at 10.16 -2.54 180) (length 2.54)
        (name "SQW" (effects (font (size 1.27 1.27))))
        (number "4" (effects (font (size 1.27 1.27))))
      )
      (pin power_in line (at 0 -10.16 90) (length 2.54)
        (name "VSS" (effects (font (size 1.27 1.27))))
        (number "5" (effects (font (size 1.27 1.27))))
      )
      (pin bidirectional line (at -10.16 -5.08 0) (length 2.54)
        (name "SDA" (effects (font (size 1.27 1.27))))
        (number "9" (effects (font (size 1.27 1.27))))
      )
    )
  )
  (symbol "Timer_RTC:MCP7940N-xMNY" (in_bom yes) (on_board yes)
    (property "Reference" "U" (id 0) (at -6.35 8.89 0)
      (effects (font (size 1.27 1.27)))
    )
    (property "Value" "MCP7940N-xMNY" (id 1) (at 11.43 8.89 0)
      (effects (font (size 1.27 1.27)))
    )
    (property "Footprint" "Package_DFN_QFN:DFN-8-1EP_3x2mm_P0.5mm_EP1.36x1.46mm" (id 2) (at 0 0 0)
      (effects (font (size 1.27 1.27)) hide)
    )
    (property "Datasheet" "http://ww1.microchip.com/downloads/en/DeviceDoc/20005010F.pdf" (id 3) (at 0 0 0)
      (effects (font (size 1.27 1.27)) hide)
    )
    (property "ki_keywords" "realtime clock RTC" (id 4) (at 0 0 0)
      (effects (font (size 1.27 1.27)) hide)
    )
    (property "ki_description" "Real-Time Clock, I2C, Battery Backup, TDFN-8" (id 5) (at 0 0 0)
      (effects (font (size 1.27 1.27)) hide)
    )
    (property "ki_fp_filters" "DFN*3x2mm*P0.5mm*EP1.36x1.46mm*" (id 6) (at 0 0 0)
      (effects (font (size 1.27 1.27)) hide)
    )
    (symbol "MCP7940N-xMNY_0_1"
      (rectangle (start -7.62 7.62) (end 7.62 -7.62)
        (stroke (width 0.254)) (fill (type background))
      )
    )
    (symbol "MCP7940N-xMNY_1_1"
      (pin input line (at 10.16 2.54 180) (length 2.54)
        (name "X1" (effects (font (size 1.27 1.27))))
        (number "1" (effects (font (size 1.27 1.27))))
      )
      (pin output line (at 10.16 -2.54 180) (length 2.54)
        (name "X2" (effects (font (size 1.27 1.27))))
        (number "2" (effects (font (size 1.27 1.27))))
      )
      (pin power_in line (at 2.54 10.16 270) (length 2.54)
        (name "VBAT" (effects (font (size 1.27 1.27))))
        (number "3" (effects (font (size 1.27 1.27))))
      )
      (pin power_in line (at 0 -10.16 90) (length 2.54)
        (name "VSS" (effects (font (size 1.27 1.27))))
        (number "4" (effects (font (size 1.27 1.27))))
      )
      (pin bidirectional line (at -10.16 2.54 0) (length 2.54)
        (name "SDA" (effects (font (size 1.27 1.27))))
        (number "5" (effects (font (size 1.27 1.27))))
      )
      (pin input line (at -10.16 5.08 0) (length 2.54)
        (name "SCL" (effects (font (size 1.27 1.27))))
        (number "6" (effects (font (size 1.27 1.27))))
      )
      (pin open_collector line (at -10.16 -2.54 0) (length 2.54)
        (name "MFP" (effects (font (size 1.27 1.27))))
        (number "7" (effects (font (size 1.27 1.27))))
      )
      (pin power_in line (at 0 10.16 270) (length 2.54)
        (name "VCC" (effects (font (size 1.27 1.27))))
        (number "8" (effects (font (size 1.27 1.27))))
      )
      (pin power_in line (at 2.54 -10.16 90) (length 2.54)
        (name "EP" (effects (font (size 1.27 1.27))))
        (number "9" (effects (font (size 1.27 1.27))))
      )
    )
  )
  (symbol "Timer_RTC:MCP7940N-xMS" (in_bom yes) (on_board yes)
    (property "Reference" "U" (id 0) (at -6.35 8.89 0)
      (effects (font (size 1.27 1.27)))
    )
    (property "Value" "MCP7940N-xMS" (id 1) (at 11.43 8.89 0)
      (effects (font (size 1.27 1.27)))
    )
    (property "Footprint" "" (id 2) (at 0 0 0)
      (effects (font (size 1.27 1.27)) hide)
    )
    (property "Datasheet" "http://ww1.microchip.com/downloads/en/DeviceDoc/20005010F.pdf" (id 3) (at 0 0 0)
      (effects (font (size 1.27 1.27)) hide)
    )
    (property "ki_keywords" "realtime clock RTC" (id 4) (at 0 0 0)
      (effects (font (size 1.27 1.27)) hide)
    )
    (property "ki_description" "Real-Time Clock, I2C, Battery Backup, MSOP-8" (id 5) (at 0 0 0)
      (effects (font (size 1.27 1.27)) hide)
    )
    (property "ki_fp_filters" "SOIC*3.9x4.9mm*P1.27mm* TSSOP*4.4x3mm*P0.65mm* MSOP*3x3mm*P0.65mm* DIP*W7.62mm*" (id 6) (at 0 0 0)
      (effects (font (size 1.27 1.27)) hide)
    )
    (symbol "MCP7940N-xMS_0_1"
      (rectangle (start -7.62 7.62) (end 7.62 -7.62)
        (stroke (width 0.254)) (fill (type background))
      )
    )
    (symbol "MCP7940N-xMS_1_1"
      (pin input line (at 10.16 2.54 180) (length 2.54)
        (name "X1" (effects (font (size 1.27 1.27))))
        (number "1" (effects (font (size 1.27 1.27))))
      )
      (pin output line (at 10.16 -2.54 180) (length 2.54)
        (name "X2" (effects (font (size 1.27 1.27))))
        (number "2" (effects (font (size 1.27 1.27))))
      )
      (pin power_in line (at 2.54 10.16 270) (length 2.54)
        (name "VBAT" (effects (font (size 1.27 1.27))))
        (number "3" (effects (font (size 1.27 1.27))))
      )
      (pin power_in line (at 0 -10.16 90) (length 2.54)
        (name "VSS" (effects (font (size 1.27 1.27))))
        (number "4" (effects (font (size 1.27 1.27))))
      )
      (pin bidirectional line (at -10.16 2.54 0) (length 2.54)
        (name "SDA" (effects (font (size 1.27 1.27))))
        (number "5" (effects (font (size 1.27 1.27))))
      )
      (pin input line (at -10.16 5.08 0) (length 2.54)
        (name "SCL" (effects (font (size 1.27 1.27))))
        (number "6" (effects (font (size 1.27 1.27))))
      )
      (pin open_collector line (at -10.16 -2.54 0) (length 2.54)
        (name "MFP" (effects (font (size 1.27 1.27))))
        (number "7" (effects (font (size 1.27 1.27))))
      )
      (pin power_in line (at 0 10.16 270) (length 2.54)
        (name "VCC" (effects (font (size 1.27 1.27))))
        (number "8" (effects (font (size 1.27 1.27))))
      )
    )
  )
  (symbol "Timer_RTC:MCP7940N-xP" (extends "MCP7940N-xMS")
    (property "Reference" "U" (id 0) (at -6.35 8.89 0)
      (effects (font (size 1.27 1.27)))
    )
    (property "Value" "MCP7940N-xP" (id 1) (at 11.43 8.89 0)
      (effects (font (size 1.27 1.27)))
    )
    (property "Footprint" "" (id 2) (at 0 0 0)
      (effects (font (size 1.27 1.27)) hide)
    )
    (property "Datasheet" "http://ww1.microchip.com/downloads/en/DeviceDoc/20005010F.pdf" (id 3) (at 0 0 0)
      (effects (font (size 1.27 1.27)) hide)
    )
    (property "ki_keywords" "realtime clock RTC" (id 4) (at 0 0 0)
      (effects (font (size 1.27 1.27)) hide)
    )
    (property "ki_description" "Real-Time Clock, I2C, Battery Backup, DIP-8" (id 5) (at 0 0 0)
      (effects (font (size 1.27 1.27)) hide)
    )
    (property "ki_fp_filters" "SOIC*3.9x4.9mm*P1.27mm* TSSOP*4.4x3mm*P0.65mm* MSOP*3x3mm*P0.65mm* DIP*W7.62mm*" (id 6) (at 0 0 0)
      (effects (font (size 1.27 1.27)) hide)
    )
  )
  (symbol "Timer_RTC:MCP7940N-xSN" (extends "MCP7940N-xMS")
    (property "Reference" "U" (id 0) (at -6.35 8.89 0)
      (effects (font (size 1.27 1.27)))
    )
    (property "Value" "MCP7940N-xSN" (id 1) (at 11.43 8.89 0)
      (effects (font (size 1.27 1.27)))
    )
    (property "Footprint" "" (id 2) (at 0 0 0)
      (effects (font (size 1.27 1.27)) hide)
    )
    (property "Datasheet" "http://ww1.microchip.com/downloads/en/DeviceDoc/20005010F.pdf" (id 3) (at 0 0 0)
      (effects (font (size 1.27 1.27)) hide)
    )
    (property "ki_keywords" "realtime clock RTC" (id 4) (at 0 0 0)
      (effects (font (size 1.27 1.27)) hide)
    )
    (property "ki_description" "Real-Time Clock, I2C, Battery Backup, SOIC-8" (id 5) (at 0 0 0)
      (effects (font (size 1.27 1.27)) hide)
    )
    (property "ki_fp_filters" "SOIC*3.9x4.9mm*P1.27mm* TSSOP*4.4x3mm*P0.65mm* MSOP*3x3mm*P0.65mm* DIP*W7.62mm*" (id 6) (at 0 0 0)
      (effects (font (size 1.27 1.27)) hide)
    )
  )
  (symbol "Timer_RTC:MCP7940N-xST" (extends "MCP7940N-xMS")
    (property "Reference" "U" (id 0) (at -6.35 8.89 0)
      (effects (font (size 1.27 1.27)))
    )
    (property "Value" "MCP7940N-xST" (id 1) (at 11.43 8.89 0)
      (effects (font (size 1.27 1.27)))
    )
    (property "Footprint" "" (id 2) (at 0 0 0)
      (effects (font (size 1.27 1.27)) hide)
    )
    (property "Datasheet" "http://ww1.microchip.com/downloads/en/DeviceDoc/20005010F.pdf" (id 3) (at 0 0 0)
      (effects (font (size 1.27 1.27)) hide)
    )
    (property "ki_keywords" "realtime clock RTC" (id 4) (at 0 0 0)
      (effects (font (size 1.27 1.27)) hide)
    )
    (property "ki_description" "Real-Time Clock, I2C, Battery Backup, TSSOP-8" (id 5) (at 0 0 0)
      (effects (font (size 1.27 1.27)) hide)
    )
    (property "ki_fp_filters" "SOIC*3.9x4.9mm*P1.27mm* TSSOP*4.4x3mm*P0.65mm* MSOP*3x3mm*P0.65mm* DIP*W7.62mm*" (id 6) (at 0 0 0)
      (effects (font (size 1.27 1.27)) hide)
    )
  )
  (symbol "Timer_RTC:PCF8523T" (in_bom yes) (on_board yes)
    (property "Reference" "U" (id 0) (at -10.16 8.89 0)
      (effects (font (size 1.27 1.27)) (justify left))
    )
    (property "Value" "PCF8523T" (id 1) (at 3.81 8.89 0)
      (effects (font (size 1.27 1.27)) (justify left))
    )
    (property "Footprint" "Package_SO:SOIC-8_3.9x4.9mm_P1.27mm" (id 2) (at 20.32 -8.89 0)
      (effects (font (size 1.27 1.27)) hide)
    )
    (property "Datasheet" "https://www.nxp.com/docs/en/data-sheet/PCF8523.pdf" (id 3) (at 0 0 0)
      (effects (font (size 1.27 1.27)) hide)
    )
    (property "ki_keywords" "I2C RTC Clock Calendar" (id 4) (at 0 0 0)
      (effects (font (size 1.27 1.27)) hide)
    )
    (property "ki_description" "Realtime Clock/Calendar I2C Interface, SOIC-8" (id 5) (at 0 0 0)
      (effects (font (size 1.27 1.27)) hide)
    )
    (property "ki_fp_filters" "SOIC*3.9x4.9mm*P1.27mm*" (id 6) (at 0 0 0)
      (effects (font (size 1.27 1.27)) hide)
    )
    (symbol "PCF8523T_0_1"
      (rectangle (start -10.16 7.62) (end 10.16 -7.62)
        (stroke (width 0.254)) (fill (type background))
      )
    )
    (symbol "PCF8523T_1_1"
      (pin input line (at -12.7 -2.54 0) (length 2.54)
        (name "OSCI" (effects (font (size 1.27 1.27))))
        (number "1" (effects (font (size 1.27 1.27))))
      )
      (pin output line (at -12.7 -5.08 0) (length 2.54)
        (name "OSCO" (effects (font (size 1.27 1.27))))
        (number "2" (effects (font (size 1.27 1.27))))
      )
      (pin power_in line (at 2.54 10.16 270) (length 2.54)
        (name "VBAT" (effects (font (size 1.27 1.27))))
        (number "3" (effects (font (size 1.27 1.27))))
      )
      (pin power_in line (at 0 -10.16 90) (length 2.54)
        (name "VSS" (effects (font (size 1.27 1.27))))
        (number "4" (effects (font (size 1.27 1.27))))
      )
      (pin bidirectional line (at -12.7 2.54 0) (length 2.54)
        (name "SDA" (effects (font (size 1.27 1.27))))
        (number "5" (effects (font (size 1.27 1.27))))
      )
      (pin input line (at -12.7 5.08 0) (length 2.54)
        (name "SCL" (effects (font (size 1.27 1.27))))
        (number "6" (effects (font (size 1.27 1.27))))
      )
      (pin open_collector line (at 12.7 0 180) (length 2.54)
        (name "~INT1~/CLKOUT" (effects (font (size 1.27 1.27))))
        (number "7" (effects (font (size 1.27 1.27))))
      )
      (pin power_in line (at -2.54 10.16 270) (length 2.54)
        (name "VDD" (effects (font (size 1.27 1.27))))
        (number "8" (effects (font (size 1.27 1.27))))
      )
    )
  )
  (symbol "Timer_RTC:PCF8523TK" (in_bom yes) (on_board yes)
    (property "Reference" "U" (id 0) (at -10.16 8.89 0)
      (effects (font (size 1.27 1.27)) (justify left))
    )
    (property "Value" "PCF8523TK" (id 1) (at 3.81 8.89 0)
      (effects (font (size 1.27 1.27)) (justify left))
    )
    (property "Footprint" "Package_SON:HVSON-8-1EP_4x4mm_P0.8mm_EP2.2x3.1mm" (id 2) (at 20.32 -8.89 0)
      (effects (font (size 1.27 1.27)) hide)
    )
    (property "Datasheet" "https://www.nxp.com/docs/en/data-sheet/PCF8523.pdf" (id 3) (at 0 0 0)
      (effects (font (size 1.27 1.27)) hide)
    )
    (property "ki_keywords" "I2C RTC Clock Calendar" (id 4) (at 0 0 0)
      (effects (font (size 1.27 1.27)) hide)
    )
    (property "ki_description" "Realtime Clock/Calendar I2C Interface, HVSON-8" (id 5) (at 0 0 0)
      (effects (font (size 1.27 1.27)) hide)
    )
    (property "ki_fp_filters" "HVSON*1EP*4x4mm*P0.8mm*" (id 6) (at 0 0 0)
      (effects (font (size 1.27 1.27)) hide)
    )
    (symbol "PCF8523TK_0_1"
      (rectangle (start -10.16 7.62) (end 10.16 -7.62)
        (stroke (width 0.254)) (fill (type background))
      )
    )
    (symbol "PCF8523TK_1_1"
      (pin input line (at -12.7 -2.54 0) (length 2.54)
        (name "OSCI" (effects (font (size 1.27 1.27))))
        (number "1" (effects (font (size 1.27 1.27))))
      )
      (pin output line (at -12.7 -5.08 0) (length 2.54)
        (name "OSCO" (effects (font (size 1.27 1.27))))
        (number "2" (effects (font (size 1.27 1.27))))
      )
      (pin power_in line (at 2.54 10.16 270) (length 2.54)
        (name "VBAT" (effects (font (size 1.27 1.27))))
        (number "3" (effects (font (size 1.27 1.27))))
      )
      (pin power_in line (at 0 -10.16 90) (length 2.54)
        (name "VSS" (effects (font (size 1.27 1.27))))
        (number "4" (effects (font (size 1.27 1.27))))
      )
      (pin bidirectional line (at -12.7 2.54 0) (length 2.54)
        (name "SDA" (effects (font (size 1.27 1.27))))
        (number "5" (effects (font (size 1.27 1.27))))
      )
      (pin input line (at -12.7 5.08 0) (length 2.54)
        (name "SCL" (effects (font (size 1.27 1.27))))
        (number "6" (effects (font (size 1.27 1.27))))
      )
      (pin open_collector line (at 12.7 0 180) (length 2.54)
        (name "~INT1~/CLKOUT" (effects (font (size 1.27 1.27))))
        (number "7" (effects (font (size 1.27 1.27))))
      )
      (pin power_in line (at -2.54 10.16 270) (length 2.54)
        (name "VDD" (effects (font (size 1.27 1.27))))
        (number "8" (effects (font (size 1.27 1.27))))
      )
      (pin passive line (at 0 -10.16 90) (length 2.54) hide
        (name "VSS" (effects (font (size 1.27 1.27))))
        (number "9" (effects (font (size 1.27 1.27))))
      )
    )
  )
  (symbol "Timer_RTC:PCF8523TS" (in_bom yes) (on_board yes)
    (property "Reference" "U" (id 0) (at -10.16 8.89 0)
      (effects (font (size 1.27 1.27)) (justify left))
    )
    (property "Value" "PCF8523TS" (id 1) (at 3.81 8.89 0)
      (effects (font (size 1.27 1.27)) (justify left))
    )
    (property "Footprint" "Package_SO:TSSOP-14_4.4x5mm_P0.65mm" (id 2) (at 20.32 -8.89 0)
      (effects (font (size 1.27 1.27)) hide)
    )
    (property "Datasheet" "https://www.nxp.com/docs/en/data-sheet/PCF8523.pdf" (id 3) (at 0 0 0)
      (effects (font (size 1.27 1.27)) hide)
    )
    (property "ki_keywords" "I2C RTC Clock Calendar" (id 4) (at 0 0 0)
      (effects (font (size 1.27 1.27)) hide)
    )
    (property "ki_description" "Realtime Clock/Calendar I2C Interface, TSSOP-14" (id 5) (at 0 0 0)
      (effects (font (size 1.27 1.27)) hide)
    )
    (property "ki_fp_filters" "TSSOP*4.4x5mm*P0.65mm*" (id 6) (at 0 0 0)
      (effects (font (size 1.27 1.27)) hide)
    )
    (symbol "PCF8523TS_0_1"
      (rectangle (start -10.16 7.62) (end 10.16 -7.62)
        (stroke (width 0.254)) (fill (type background))
      )
    )
    (symbol "PCF8523TS_1_1"
      (pin input line (at -12.7 -2.54 0) (length 2.54)
        (name "OSCI" (effects (font (size 1.27 1.27))))
        (number "1" (effects (font (size 1.27 1.27))))
      )
      (pin bidirectional line (at -12.7 2.54 0) (length 2.54)
        (name "SDA" (effects (font (size 1.27 1.27))))
        (number "10" (effects (font (size 1.27 1.27))))
      )
      (pin input line (at -12.7 5.08 0) (length 2.54)
        (name "SCL" (effects (font (size 1.27 1.27))))
        (number "11" (effects (font (size 1.27 1.27))))
      )
      (pin no_connect line (at 5.08 -7.62 90) (length 2.54) hide
        (name "NC" (effects (font (size 1.27 1.27))))
        (number "12" (effects (font (size 1.27 1.27))))
      )
      (pin output line (at 12.7 0 180) (length 2.54)
        (name "~INT1~/CLKOUT" (effects (font (size 1.27 1.27))))
        (number "13" (effects (font (size 1.27 1.27))))
      )
      (pin power_in line (at -2.54 10.16 270) (length 2.54)
        (name "VDD" (effects (font (size 1.27 1.27))))
        (number "14" (effects (font (size 1.27 1.27))))
      )
      (pin output line (at -12.7 -5.08 0) (length 2.54)
        (name "OSCO" (effects (font (size 1.27 1.27))))
        (number "2" (effects (font (size 1.27 1.27))))
      )
      (pin no_connect line (at -5.08 -7.62 90) (length 2.54) hide
        (name "NC" (effects (font (size 1.27 1.27))))
        (number "3" (effects (font (size 1.27 1.27))))
      )
      (pin power_in line (at 2.54 10.16 270) (length 2.54)
        (name "VBAT" (effects (font (size 1.27 1.27))))
        (number "4" (effects (font (size 1.27 1.27))))
      )
      (pin power_in line (at 0 -10.16 90) (length 2.54)
        (name "VSS" (effects (font (size 1.27 1.27))))
        (number "5" (effects (font (size 1.27 1.27))))
      )
      (pin no_connect line (at -2.54 -7.62 90) (length 2.54) hide
        (name "NC" (effects (font (size 1.27 1.27))))
        (number "6" (effects (font (size 1.27 1.27))))
      )
      (pin open_collector line (at 12.7 2.54 180) (length 2.54)
        (name "~INT2" (effects (font (size 1.27 1.27))))
        (number "7" (effects (font (size 1.27 1.27))))
      )
      (pin open_collector line (at 12.7 -2.54 180) (length 2.54)
        (name "CLKOUT" (effects (font (size 1.27 1.27))))
        (number "8" (effects (font (size 1.27 1.27))))
      )
      (pin no_connect line (at 2.54 -7.62 90) (length 2.54) hide
        (name "NC" (effects (font (size 1.27 1.27))))
        (number "9" (effects (font (size 1.27 1.27))))
      )
    )
  )
  (symbol "Timer_RTC:PCF85263AT" (in_bom yes) (on_board yes)
    (property "Reference" "U" (id 0) (at -8.89 8.89 0)
      (effects (font (size 1.27 1.27)))
    )
    (property "Value" "PCF85263AT" (id 1) (at 1.27 8.89 0)
      (effects (font (size 1.27 1.27)) (justify left))
    )
    (property "Footprint" "Package_SO:SOIC-8_3.9x4.9mm_P1.27mm" (id 2) (at 0 -21.59 0)
      (effects (font (size 1.27 1.27)) hide)
    )
    (property "Datasheet" "https://www.nxp.com/docs/en/data-sheet/PCF85263A.pdf" (id 3) (at 0 -5.08 0)
      (effects (font (size 1.27 1.27)) hide)
    )
    (property "ki_keywords" "RTC battery I2C" (id 4) (at 0 0 0)
      (effects (font (size 1.27 1.27)) hide)
    )
    (property "ki_description" "Tiny Real-Time Clock/calendar with alarm function, battery switch-over, time stamp input, I2C bus, SO-8" (id 5) (at 0 0 0)
      (effects (font (size 1.27 1.27)) hide)
    )
    (property "ki_fp_filters" "SOIC*3.9x4.9mm*P1.27mm*" (id 6) (at 0 0 0)
      (effects (font (size 1.27 1.27)) hide)
    )
    (symbol "PCF85263AT_0_1"
      (rectangle (start -10.16 7.62) (end 10.16 -7.62)
        (stroke (width 0.254)) (fill (type background))
      )
    )
    (symbol "PCF85263AT_1_1"
      (pin input line (at -12.7 -2.54 0) (length 2.54)
        (name "OSCI" (effects (font (size 1.27 1.27))))
        (number "1" (effects (font (size 1.27 1.27))))
      )
      (pin output line (at -12.7 -5.08 0) (length 2.54)
        (name "OSCO" (effects (font (size 1.27 1.27))))
        (number "2" (effects (font (size 1.27 1.27))))
      )
      (pin power_in line (at 0 10.16 270) (length 2.54)
        (name "VBAT" (effects (font (size 1.27 1.27))))
        (number "3" (effects (font (size 1.27 1.27))))
      )
      (pin power_in line (at 0 -10.16 90) (length 2.54)
        (name "VSS" (effects (font (size 1.27 1.27))))
        (number "4" (effects (font (size 1.27 1.27))))
      )
      (pin bidirectional line (at -12.7 2.54 0) (length 2.54)
        (name "SDA" (effects (font (size 1.27 1.27))))
        (number "5" (effects (font (size 1.27 1.27))))
      )
      (pin input line (at -12.7 5.08 0) (length 2.54)
        (name "SCL" (effects (font (size 1.27 1.27))))
        (number "6" (effects (font (size 1.27 1.27))))
      )
      (pin open_collector line (at 12.7 2.54 180) (length 2.54)
        (name "~INTA" (effects (font (size 1.27 1.27))))
        (number "7" (effects (font (size 1.27 1.27))))
      )
      (pin power_in line (at -2.54 10.16 270) (length 2.54)
        (name "VDD" (effects (font (size 1.27 1.27))))
        (number "8" (effects (font (size 1.27 1.27))))
      )
    )
  )
  (symbol "Timer_RTC:PCF85263ATT" (in_bom yes) (on_board yes)
    (property "Reference" "U" (id 0) (at -8.89 8.89 0)
      (effects (font (size 1.27 1.27)))
    )
    (property "Value" "PCF85263ATT" (id 1) (at 1.27 8.89 0)
      (effects (font (size 1.27 1.27)) (justify left))
    )
    (property "Footprint" "Package_SO:TSSOP-8_3x3mm_P0.65mm" (id 2) (at 0 -21.59 0)
      (effects (font (size 1.27 1.27)) hide)
    )
    (property "Datasheet" "https://www.nxp.com/docs/en/data-sheet/PCF85263A.pdf" (id 3) (at 0 -5.08 0)
      (effects (font (size 1.27 1.27)) hide)
    )
    (property "ki_keywords" "RTC battery I2C" (id 4) (at 0 0 0)
      (effects (font (size 1.27 1.27)) hide)
    )
    (property "ki_description" "Tiny Real-Time Clock/calendar with alarm function, battery switch-over, time stamp input, I2C bus, TSSOP-8" (id 5) (at 0 0 0)
      (effects (font (size 1.27 1.27)) hide)
    )
    (property "ki_fp_filters" "TSSOP*3x3mm*P0.65mm*" (id 6) (at 0 0 0)
      (effects (font (size 1.27 1.27)) hide)
    )
    (symbol "PCF85263ATT_0_1"
      (rectangle (start -10.16 7.62) (end 10.16 -7.62)
        (stroke (width 0.254)) (fill (type background))
      )
    )
    (symbol "PCF85263ATT_1_1"
      (pin input line (at -12.7 -2.54 0) (length 2.54)
        (name "OSCI" (effects (font (size 1.27 1.27))))
        (number "1" (effects (font (size 1.27 1.27))))
      )
      (pin output line (at -12.7 -5.08 0) (length 2.54)
        (name "OSCO" (effects (font (size 1.27 1.27))))
        (number "2" (effects (font (size 1.27 1.27))))
      )
      (pin power_in line (at 0 10.16 270) (length 2.54)
        (name "VBAT" (effects (font (size 1.27 1.27))))
        (number "3" (effects (font (size 1.27 1.27))))
      )
      (pin power_in line (at 0 -10.16 90) (length 2.54)
        (name "VSS" (effects (font (size 1.27 1.27))))
        (number "4" (effects (font (size 1.27 1.27))))
      )
      (pin bidirectional line (at -12.7 2.54 0) (length 2.54)
        (name "SDA" (effects (font (size 1.27 1.27))))
        (number "5" (effects (font (size 1.27 1.27))))
      )
      (pin input line (at -12.7 5.08 0) (length 2.54)
        (name "SCL" (effects (font (size 1.27 1.27))))
        (number "6" (effects (font (size 1.27 1.27))))
      )
      (pin open_collector line (at 12.7 2.54 180) (length 2.54)
        (name "~INTA" (effects (font (size 1.27 1.27))))
        (number "7" (effects (font (size 1.27 1.27))))
      )
      (pin power_in line (at -2.54 10.16 270) (length 2.54)
        (name "VDD" (effects (font (size 1.27 1.27))))
        (number "8" (effects (font (size 1.27 1.27))))
      )
    )
  )
  (symbol "Timer_RTC:PCF85363ATT" (extends "PCF85263ATT")
    (property "Reference" "U" (id 0) (at -8.89 8.89 0)
      (effects (font (size 1.27 1.27)))
    )
    (property "Value" "PCF85363ATT" (id 1) (at 1.27 8.89 0)
      (effects (font (size 1.27 1.27)) (justify left))
    )
    (property "Footprint" "Package_SO:TSSOP-8_3x3mm_P0.65mm" (id 2) (at 0 -21.59 0)
      (effects (font (size 1.27 1.27)) hide)
    )
    (property "Datasheet" "https://www.nxp.com/docs/en/data-sheet/PCF85363A.pdf" (id 3) (at 0 -5.08 0)
      (effects (font (size 1.27 1.27)) hide)
    )
    (property "ki_keywords" "RTC RAM battery I2C" (id 4) (at 0 0 0)
      (effects (font (size 1.27 1.27)) hide)
    )
    (property "ki_description" "Tiny Real-Time Clock/calendar with 64 byte RAM, alarm function, battery switch-over, time stamp input, I2C bus, TSSOP-8" (id 5) (at 0 0 0)
      (effects (font (size 1.27 1.27)) hide)
    )
    (property "ki_fp_filters" "TSSOP*3x3mm*P0.65mm*" (id 6) (at 0 0 0)
      (effects (font (size 1.27 1.27)) hide)
    )
  )
  (symbol "Timer_RTC:PCF85263ATT1" (in_bom yes) (on_board yes)
    (property "Reference" "U" (id 0) (at -8.89 8.89 0)
      (effects (font (size 1.27 1.27)))
    )
    (property "Value" "PCF85263ATT1" (id 1) (at 1.27 8.89 0)
      (effects (font (size 1.27 1.27)) (justify left))
    )
    (property "Footprint" "Package_SO:TSSOP-10_3x3mm_P0.5mm" (id 2) (at 0 -21.59 0)
      (effects (font (size 1.27 1.27)) hide)
    )
    (property "Datasheet" "https://www.nxp.com/docs/en/data-sheet/PCF85263A.pdf" (id 3) (at 0 -5.08 0)
      (effects (font (size 1.27 1.27)) hide)
    )
    (property "ki_keywords" "RTC battery I2C" (id 4) (at 0 0 0)
      (effects (font (size 1.27 1.27)) hide)
    )
    (property "ki_description" "Tiny Real-Time Clock/calendar with alarm function, battery switch-over, time stamp input, I2C bus, TSSOP-10" (id 5) (at 0 0 0)
      (effects (font (size 1.27 1.27)) hide)
    )
    (property "ki_fp_filters" "TSSOP*3x3mm*P0.5mm*" (id 6) (at 0 0 0)
      (effects (font (size 1.27 1.27)) hide)
    )
    (symbol "PCF85263ATT1_0_1"
      (rectangle (start -10.16 7.62) (end 10.16 -7.62)
        (stroke (width 0.254)) (fill (type background))
      )
    )
    (symbol "PCF85263ATT1_1_1"
      (pin input line (at -12.7 -2.54 0) (length 2.54)
        (name "OSCI" (effects (font (size 1.27 1.27))))
        (number "1" (effects (font (size 1.27 1.27))))
      )
      (pin power_in line (at -2.54 10.16 270) (length 2.54)
        (name "VDD" (effects (font (size 1.27 1.27))))
        (number "10" (effects (font (size 1.27 1.27))))
      )
      (pin output line (at -12.7 -5.08 0) (length 2.54)
        (name "OSCO" (effects (font (size 1.27 1.27))))
        (number "2" (effects (font (size 1.27 1.27))))
      )
      (pin power_in line (at 0 10.16 270) (length 2.54)
        (name "VBAT" (effects (font (size 1.27 1.27))))
        (number "3" (effects (font (size 1.27 1.27))))
      )
      (pin bidirectional line (at 12.7 -2.54 180) (length 2.54)
        (name "TS" (effects (font (size 1.27 1.27))))
        (number "4" (effects (font (size 1.27 1.27))))
      )
      (pin power_in line (at 0 -10.16 90) (length 2.54)
        (name "VSS" (effects (font (size 1.27 1.27))))
        (number "5" (effects (font (size 1.27 1.27))))
      )
      (pin bidirectional line (at -12.7 2.54 0) (length 2.54)
        (name "SDA" (effects (font (size 1.27 1.27))))
        (number "6" (effects (font (size 1.27 1.27))))
      )
      (pin input line (at -12.7 5.08 0) (length 2.54)
        (name "SCL" (effects (font (size 1.27 1.27))))
        (number "7" (effects (font (size 1.27 1.27))))
      )
      (pin output line (at 12.7 0 180) (length 2.54)
        (name "CLK" (effects (font (size 1.27 1.27))))
        (number "8" (effects (font (size 1.27 1.27))))
      )
      (pin open_collector line (at 12.7 2.54 180) (length 2.54)
        (name "~INTA" (effects (font (size 1.27 1.27))))
        (number "9" (effects (font (size 1.27 1.27))))
      )
    )
  )
  (symbol "Timer_RTC:PCF85363ATT1" (extends "PCF85263ATT1")
    (property "Reference" "U" (id 0) (at -8.89 8.89 0)
      (effects (font (size 1.27 1.27)))
    )
    (property "Value" "PCF85363ATT1" (id 1) (at 1.27 8.89 0)
      (effects (font (size 1.27 1.27)) (justify left))
    )
    (property "Footprint" "Package_SO:TSSOP-10_3x3mm_P0.5mm" (id 2) (at 0 -21.59 0)
      (effects (font (size 1.27 1.27)) hide)
    )
    (property "Datasheet" "https://www.nxp.com/docs/en/data-sheet/PCF85363A.pdf" (id 3) (at 0 -5.08 0)
      (effects (font (size 1.27 1.27)) hide)
    )
    (property "ki_keywords" "RTC RAM battery I2C" (id 4) (at 0 0 0)
      (effects (font (size 1.27 1.27)) hide)
    )
    (property "ki_description" "Tiny Real-Time Clock/calendar with 64 byte RAM, alarm function, battery switch-over, time stamp input, I2C bus, TSSOP-10" (id 5) (at 0 0 0)
      (effects (font (size 1.27 1.27)) hide)
    )
    (property "ki_fp_filters" "TSSOP*3x3mm*P0.5mm*" (id 6) (at 0 0 0)
      (effects (font (size 1.27 1.27)) hide)
    )
  )
  (symbol "Timer_RTC:PCF8563T" (in_bom yes) (on_board yes)
    (property "Reference" "U" (id 0) (at -7.62 8.89 0)
      (effects (font (size 1.27 1.27)) (justify left))
    )
    (property "Value" "PCF8563T" (id 1) (at 2.54 8.89 0)
      (effects (font (size 1.27 1.27)) (justify left))
    )
    (property "Footprint" "Package_SO:SOIC-8_3.9x4.9mm_P1.27mm" (id 2) (at 0 0 0)
      (effects (font (size 1.27 1.27)) hide)
    )
    (property "Datasheet" "https://assets.nexperia.com/documents/data-sheet/PCF8563.pdf" (id 3) (at 0 0 0)
      (effects (font (size 1.27 1.27)) hide)
    )
    (property "ki_keywords" "I2C RTC Clock Calendar" (id 4) (at 0 0 0)
      (effects (font (size 1.27 1.27)) hide)
    )
    (property "ki_description" "Realtime Clock/Calendar I2C Interface, SOIC-8" (id 5) (at 0 0 0)
      (effects (font (size 1.27 1.27)) hide)
    )
    (property "ki_fp_filters" "SOIC*3.9x4.9mm*P1.27mm*" (id 6) (at 0 0 0)
      (effects (font (size 1.27 1.27)) hide)
    )
    (symbol "PCF8563T_0_1"
      (rectangle (start -7.62 7.62) (end 7.62 -7.62)
        (stroke (width 0.254)) (fill (type background))
      )
    )
    (symbol "PCF8563T_1_1"
      (pin input line (at -10.16 5.08 0) (length 2.54)
        (name "OSCI" (effects (font (size 1.27 1.27))))
        (number "1" (effects (font (size 1.27 1.27))))
      )
      (pin output line (at -10.16 -5.08 0) (length 2.54)
        (name "OSCO" (effects (font (size 1.27 1.27))))
        (number "2" (effects (font (size 1.27 1.27))))
      )
      (pin output line (at 10.16 -5.08 180) (length 2.54)
        (name "~INT~" (effects (font (size 1.27 1.27))))
        (number "3" (effects (font (size 1.27 1.27))))
      )
      (pin power_in line (at 0 -10.16 90) (length 2.54)
        (name "VSS" (effects (font (size 1.27 1.27))))
        (number "4" (effects (font (size 1.27 1.27))))
      )
      (pin bidirectional line (at 10.16 2.54 180) (length 2.54)
        (name "SDA" (effects (font (size 1.27 1.27))))
        (number "5" (effects (font (size 1.27 1.27))))
      )
      (pin input line (at 10.16 5.08 180) (length 2.54)
        (name "SCL" (effects (font (size 1.27 1.27))))
        (number "6" (effects (font (size 1.27 1.27))))
      )
      (pin output clock (at 10.16 -2.54 180) (length 2.54)
        (name "CLKO" (effects (font (size 1.27 1.27))))
        (number "7" (effects (font (size 1.27 1.27))))
      )
      (pin power_in line (at 0 10.16 270) (length 2.54)
        (name "VDD" (effects (font (size 1.27 1.27))))
        (number "8" (effects (font (size 1.27 1.27))))
      )
    )
  )
  (symbol "Timer_RTC:PCF8563TS" (in_bom yes) (on_board yes)
    (property "Reference" "U" (id 0) (at -7.62 8.89 0)
      (effects (font (size 1.27 1.27)) (justify left))
    )
    (property "Value" "PCF8563TS" (id 1) (at 2.54 8.89 0)
      (effects (font (size 1.27 1.27)) (justify left))
    )
    (property "Footprint" "Package_SO:MSOP-8_3x3mm_P0.65mm" (id 2) (at 0 0 0)
      (effects (font (size 1.27 1.27)) hide)
    )
    (property "Datasheet" "https://assets.nexperia.com/documents/data-sheet/PCF8563.pdf" (id 3) (at 0 0 0)
      (effects (font (size 1.27 1.27)) hide)
    )
    (property "ki_keywords" "I2C RTC Clock Calendar" (id 4) (at 0 0 0)
      (effects (font (size 1.27 1.27)) hide)
    )
    (property "ki_description" "Realtime Clock/Calendar I2C Interface, TSSOP-8" (id 5) (at 0 0 0)
      (effects (font (size 1.27 1.27)) hide)
    )
    (property "ki_fp_filters" "MSOP*3x3mm*P0.65mm*" (id 6) (at 0 0 0)
      (effects (font (size 1.27 1.27)) hide)
    )
    (symbol "PCF8563TS_0_1"
      (rectangle (start -7.62 7.62) (end 7.62 -7.62)
        (stroke (width 0.254)) (fill (type background))
      )
    )
    (symbol "PCF8563TS_1_1"
      (pin input line (at -10.16 5.08 0) (length 2.54)
        (name "OSCI" (effects (font (size 1.27 1.27))))
        (number "1" (effects (font (size 1.27 1.27))))
      )
      (pin output line (at -10.16 -5.08 0) (length 2.54)
        (name "OSCO" (effects (font (size 1.27 1.27))))
        (number "2" (effects (font (size 1.27 1.27))))
      )
      (pin output line (at 10.16 -5.08 180) (length 2.54)
        (name "~INT~" (effects (font (size 1.27 1.27))))
        (number "3" (effects (font (size 1.27 1.27))))
      )
      (pin power_in line (at 0 -10.16 90) (length 2.54)
        (name "VSS" (effects (font (size 1.27 1.27))))
        (number "4" (effects (font (size 1.27 1.27))))
      )
      (pin bidirectional line (at 10.16 2.54 180) (length 2.54)
        (name "SDA" (effects (font (size 1.27 1.27))))
        (number "5" (effects (font (size 1.27 1.27))))
      )
      (pin input line (at 10.16 5.08 180) (length 2.54)
        (name "SCL" (effects (font (size 1.27 1.27))))
        (number "6" (effects (font (size 1.27 1.27))))
      )
      (pin output clock (at 10.16 -2.54 180) (length 2.54)
        (name "CLKO" (effects (font (size 1.27 1.27))))
        (number "7" (effects (font (size 1.27 1.27))))
      )
      (pin power_in line (at 0 10.16 270) (length 2.54)
        (name "VDD" (effects (font (size 1.27 1.27))))
        (number "8" (effects (font (size 1.27 1.27))))
      )
    )
  )
  (symbol "Timer_RTC:RV-1805-C3" (in_bom yes) (on_board yes)
    (property "Reference" "U" (id 0) (at -8.89 8.89 0)
      (effects (font (size 1.27 1.27)))
    )
    (property "Value" "RV-1805-C3" (id 1) (at 7.62 8.89 0)
      (effects (font (size 1.27 1.27)))
    )
    (property "Footprint" "Package_SON:RTC_SMD_MicroCrystal_C3_2.5x3.7mm" (id 2) (at 25.4 -8.89 0)
      (effects (font (size 1.27 1.27)) hide)
    )
    (property "Datasheet" "https://www.microcrystal.com/fileadmin/Media/Products/RTC/Datasheet/RV-1805-C3.pdf" (id 3) (at 0 0 0)
      (effects (font (size 1.27 1.27)) hide)
    )
    (property "ki_keywords" "Low Power RTC I2C" (id 4) (at 0 0 0)
      (effects (font (size 1.27 1.27)) hide)
    )
    (property "ki_description" "Realtime Clock/Calendar I2C Interface, Extreme Low Power, MicroCrystal C3" (id 5) (at 0 0 0)
      (effects (font (size 1.27 1.27)) hide)
    )
    (property "ki_fp_filters" "RTC*SMD*MicroCrystal*C3*2.5x3.7mm*" (id 6) (at 0 0 0)
      (effects (font (size 1.27 1.27)) hide)
    )
    (symbol "RV-1805-C3_0_1"
      (rectangle (start 10.16 7.62) (end -10.16 -7.62)
        (stroke (width 0.254)) (fill (type background))
      )
    )
    (symbol "RV-1805-C3_1_1"
      (pin power_in line (at -2.54 10.16 270) (length 2.54)
        (name "VDD" (effects (font (size 1.27 1.27))))
        (number "1" (effects (font (size 1.27 1.27))))
      )
      (pin open_collector line (at 12.7 2.54 180) (length 2.54)
        (name "~RST" (effects (font (size 1.27 1.27))))
        (number "10" (effects (font (size 1.27 1.27))))
      )
      (pin passive line (at -12.7 -5.08 0) (length 2.54)
        (name "Cap_RC" (effects (font (size 1.27 1.27))))
        (number "2" (effects (font (size 1.27 1.27))))
      )
      (pin open_collector line (at 12.7 -2.54 180) (length 2.54)
        (name "CLK/~INT" (effects (font (size 1.27 1.27))))
        (number "3" (effects (font (size 1.27 1.27))))
      )
      (pin input line (at -12.7 5.08 0) (length 2.54)
        (name "SCL" (effects (font (size 1.27 1.27))))
        (number "4" (effects (font (size 1.27 1.27))))
      )
      (pin bidirectional line (at -12.7 2.54 0) (length 2.54)
        (name "SDA" (effects (font (size 1.27 1.27))))
        (number "5" (effects (font (size 1.27 1.27))))
      )
      (pin power_in line (at 0 -10.16 90) (length 2.54)
        (name "VSS" (effects (font (size 1.27 1.27))))
        (number "6" (effects (font (size 1.27 1.27))))
      )
      (pin power_in line (at 0 10.16 270) (length 2.54)
        (name "VBACKUP" (effects (font (size 1.27 1.27))))
        (number "7" (effects (font (size 1.27 1.27))))
      )
      (pin open_collector line (at 12.7 0 180) (length 2.54)
        (name "PSW" (effects (font (size 1.27 1.27))))
        (number "8" (effects (font (size 1.27 1.27))))
      )
      (pin input line (at -12.7 -2.54 0) (length 2.54)
        (name "WDI" (effects (font (size 1.27 1.27))))
        (number "9" (effects (font (size 1.27 1.27))))
      )
    )
  )
  (symbol "Timer_RTC:RV-8523-C3" (in_bom yes) (on_board yes)
    (property "Reference" "U" (id 0) (at -8.89 8.89 0)
      (effects (font (size 1.27 1.27)))
    )
    (property "Value" "RV-8523-C3" (id 1) (at 7.62 8.89 0)
      (effects (font (size 1.27 1.27)))
    )
    (property "Footprint" "Package_SON:RTC_SMD_MicroCrystal_C3_2.5x3.7mm" (id 2) (at 25.4 -8.89 0)
      (effects (font (size 1.27 1.27)) hide)
    )
    (property "Datasheet" "https://www.microcrystal.com/fileadmin/Media/Products/RTC/Datasheet/RV-8523-C3.pdf" (id 3) (at 0 0 0)
      (effects (font (size 1.27 1.27)) hide)
    )
    (property "ki_keywords" "Low Power RTC I2C" (id 4) (at 0 0 0)
      (effects (font (size 1.27 1.27)) hide)
    )
    (property "ki_description" "Realtime Clock/Calendar I2C Interface, Low Power, 1.2 V to 5.5 V, MicroCrystal C3" (id 5) (at 0 0 0)
      (effects (font (size 1.27 1.27)) hide)
    )
    (property "ki_fp_filters" "RTC*SMD*MicroCrystal*C3*2.5x3.7mm*" (id 6) (at 0 0 0)
      (effects (font (size 1.27 1.27)) hide)
    )
    (symbol "RV-8523-C3_0_1"
      (rectangle (start 10.16 7.62) (end -10.16 -7.62)
        (stroke (width 0.254)) (fill (type background))
      )
    )
    (symbol "RV-8523-C3_1_1"
      (pin power_in line (at -2.54 10.16 270) (length 2.54)
        (name "VDD" (effects (font (size 1.27 1.27))))
        (number "1" (effects (font (size 1.27 1.27))))
      )
      (pin no_connect line (at -10.16 -5.08 0) (length 2.54) hide
        (name "NC" (effects (font (size 1.27 1.27))))
        (number "10" (effects (font (size 1.27 1.27))))
      )
      (pin open_collector line (at 12.7 2.54 180) (length 2.54)
        (name "~INT_1" (effects (font (size 1.27 1.27))))
        (number "2" (effects (font (size 1.27 1.27))))
      )
      (pin input line (at -12.7 5.08 0) (length 2.54)
        (name "SCL" (effects (font (size 1.27 1.27))))
        (number "3" (effects (font (size 1.27 1.27))))
      )
      (pin bidirectional line (at -12.7 2.54 0) (length 2.54)
        (name "SDA" (effects (font (size 1.27 1.27))))
        (number "4" (effects (font (size 1.27 1.27))))
      )
      (pin open_collector line (at 12.7 -2.54 180) (length 2.54)
        (name "CLKOUT" (effects (font (size 1.27 1.27))))
        (number "5" (effects (font (size 1.27 1.27))))
      )
      (pin open_collector line (at 12.7 0 180) (length 2.54)
        (name "~INT_2" (effects (font (size 1.27 1.27))))
        (number "6" (effects (font (size 1.27 1.27))))
      )
      (pin power_in line (at 0 -10.16 90) (length 2.54)
        (name "VSS" (effects (font (size 1.27 1.27))))
        (number "7" (effects (font (size 1.27 1.27))))
      )
      (pin power_in line (at 0 10.16 270) (length 2.54)
        (name "VBACKUP" (effects (font (size 1.27 1.27))))
        (number "8" (effects (font (size 1.27 1.27))))
      )
      (pin no_connect line (at -10.16 -2.54 0) (length 2.54) hide
        (name "NC" (effects (font (size 1.27 1.27))))
        (number "9" (effects (font (size 1.27 1.27))))
      )
    )
  )
)
