(kicad_symbol_lib (version 20201005) (generator kicad_symbol_editor)
  (symbol "Transistor_IGBT:IRG4PF50W" (pin_names (offset 0) hide) (in_bom yes) (on_board yes)
    (property "Reference" "Q" (id 0) (at 5.08 1.905 0)
      (effects (font (size 1.27 1.27)) (justify left))
    )
    (property "Value" "IRG4PF50W" (id 1) (at 5.08 0 0)
      (effects (font (size 1.27 1.27)) (justify left))
    )
    (property "Footprint" "Package_TO_SOT_THT:TO-247-3_Vertical" (id 2) (at 5.08 -1.905 0)
      (effects (font (size 1.27 1.27) italic) (justify left) hide)
    )
    (property "Datasheet" "http://www.irf.com/product-info/datasheets/data/irg4pf50w.pdf" (id 3) (at 0 0 0)
      (effects (font (size 1.27 1.27)) (justify left) hide)
    )
    (property "ki_keywords" "N-Channel IGBT Power Transistor" (id 4) (at 0 0 0)
      (effects (font (size 1.27 1.27)) hide)
    )
    (property "ki_description" "28A, 900V, N-Channel IGBT" (id 5) (at 0 0 0)
      (effects (font (size 1.27 1.27)) hide)
    )
    (property "ki_fp_filters" "TO?247*" (id 6) (at 0 0 0)
      (effects (font (size 1.27 1.27)) hide)
    )
    (symbol "IRG4PF50W_0_1"
      (circle (center 1.27 0) (radius 2.8194) (stroke (width 0.254)) (fill (type none)))
      (polyline
        (pts
          (xy 0 0)
          (xy 0.254 0)
        )
        (stroke (width 0)) (fill (type none))
      )
      (polyline
        (pts
          (xy 0.762 -1.016)
          (xy 0.762 -2.032)
        )
        (stroke (width 0.254)) (fill (type none))
      )
      (polyline
        (pts
          (xy 0.762 0.508)
          (xy 0.762 -0.508)
        )
        (stroke (width 0.254)) (fill (type none))
      )
      (polyline
        (pts
          (xy 0.762 2.032)
          (xy 0.762 1.016)
        )
        (stroke (width 0.254)) (fill (type none))
      )
      (polyline
        (pts
          (xy 2.54 -2.413)
          (xy 0.762 -1.524)
        )
        (stroke (width 0)) (fill (type none))
      )
      (polyline
        (pts
          (xy 2.54 -0.889)
          (xy 0.762 0)
        )
        (stroke (width 0)) (fill (type none))
      )
      (polyline
        (pts
          (xy 2.54 2.413)
          (xy 0.762 1.524)
        )
        (stroke (width 0)) (fill (type none))
      )
      (polyline
        (pts
          (xy 0.254 1.905)
          (xy 0.254 -1.905)
          (xy 0.254 -1.905)
        )
        (stroke (width 0.254)) (fill (type none))
      )
      (polyline
        (pts
          (xy 1.397 -2.159)
          (xy 1.651 -1.651)
          (xy 2.54 -2.413)
          (xy 1.397 -2.159)
        )
        (stroke (width 0)) (fill (type outline))
      )
      (polyline
        (pts
          (xy 2.159 1.905)
          (xy 1.905 2.413)
          (xy 1.016 1.651)
          (xy 2.159 1.905)
        )
        (stroke (width 0)) (fill (type outline))
      )
    )
    (symbol "IRG4PF50W_1_1"
      (pin input line (at -5.08 0 0) (length 5.08)
        (name "G" (effects (font (size 1.27 1.27))))
        (number "1" (effects (font (size 1.27 1.27))))
      )
      (pin passive line (at 2.54 5.08 270) (length 2.54)
        (name "C" (effects (font (size 1.27 1.27))))
        (number "2" (effects (font (size 1.27 1.27))))
      )
      (pin passive line (at 2.54 -5.08 90) (length 2.54)
        (name "E" (effects (font (size 1.27 1.27))))
        (number "3" (effects (font (size 1.27 1.27))))
      )
    )
  )
  (symbol "Transistor_IGBT:STGP7NC60HD" (pin_names (offset 0) hide) (in_bom yes) (on_board yes)
    (property "Reference" "Q" (id 0) (at 6.35 1.905 0)
      (effects (font (size 1.27 1.27)) (justify left))
    )
    (property "Value" "STGP7NC60HD" (id 1) (at 6.35 0 0)
      (effects (font (size 1.27 1.27)) (justify left))
    )
    (property "Footprint" "Package_TO_SOT_THT:TO-220-3_Vertical" (id 2) (at 6.35 -1.905 0)
      (effects (font (size 1.27 1.27) italic) (justify left) hide)
    )
    (property "Datasheet" "http://www.farnell.com/datasheets/2309889.pdf" (id 3) (at -1.27 0 0)
      (effects (font (size 1.27 1.27)) (justify left) hide)
    )
    (property "ki_keywords" "N-Channel very fast IGBT with ultrafast diode Power Transistor" (id 4) (at 0 0 0)
      (effects (font (size 1.27 1.27)) hide)
    )
    (property "ki_description" "25A, 600V, N-Channel IGBT, TO-220" (id 5) (at 0 0 0)
      (effects (font (size 1.27 1.27)) hide)
    )
    (property "ki_fp_filters" "TO?220*" (id 6) (at 0 0 0)
      (effects (font (size 1.27 1.27)) hide)
    )
    (symbol "STGP7NC60HD_0_1"
      (circle (center 1.016 0) (radius 3.0734) (stroke (width 0)) (fill (type none)))
      (polyline
        (pts
          (xy -1.27 0)
          (xy -1.016 0)
        )
        (stroke (width 0)) (fill (type none))
      )
      (polyline
        (pts
          (xy 1.27 -2.413)
          (xy 2.54 -2.413)
        )
        (stroke (width 0)) (fill (type none))
      )
      (polyline
        (pts
          (xy 1.27 2.413)
          (xy 2.54 2.413)
        )
        (stroke (width 0)) (fill (type none))
      )
      (polyline
        (pts
          (xy 2.032 0.635)
          (xy 3.048 0.635)
        )
        (stroke (width 0)) (fill (type none))
      )
      (polyline
        (pts
          (xy 2.54 3.81)
          (xy 2.54 -3.81)
        )
        (stroke (width 0)) (fill (type none))
      )
      (polyline
        (pts
          (xy 2.54 0.635)
          (xy 2.032 -0.635)
          (xy 3.048 -0.635)
          (xy 2.54 0.635)
        )
        (stroke (width 0)) (fill (type outline))
      )
    )
    (symbol "STGP7NC60HD_1_1"
      (polyline
        (pts
          (xy -0.508 -1.016)
          (xy -0.508 -2.032)
        )
        (stroke (width 0.254)) (fill (type none))
      )
      (polyline
        (pts
          (xy -0.508 0.508)
          (xy -0.508 -0.508)
        )
        (stroke (width 0.254)) (fill (type none))
      )
      (polyline
        (pts
          (xy -0.508 2.032)
          (xy -0.508 1.016)
        )
        (stroke (width 0.254)) (fill (type none))
      )
      (polyline
        (pts
          (xy 1.27 -2.413)
          (xy -0.508 -1.524)
        )
        (stroke (width 0)) (fill (type none))
      )
      (polyline
        (pts
          (xy 1.27 -0.889)
          (xy -0.508 0)
        )
        (stroke (width 0)) (fill (type none))
      )
      (polyline
        (pts
          (xy 1.27 2.413)
          (xy -0.508 1.524)
        )
        (stroke (width 0)) (fill (type none))
      )
      (polyline
        (pts
          (xy -1.016 1.905)
          (xy -1.016 -1.905)
          (xy -1.016 -1.905)
        )
        (stroke (width 0.254)) (fill (type none))
      )
      (polyline
        (pts
          (xy -0.127 -2.032)
          (xy 0.127 -1.524)
          (xy 1.016 -2.286)
          (xy -0.127 -2.032)
        )
        (stroke (width 0)) (fill (type outline))
      )
      (polyline
        (pts
          (xy 0.889 1.905)
          (xy 0.635 2.413)
          (xy -0.254 1.651)
          (xy 0.889 1.905)
        )
        (stroke (width 0)) (fill (type outline))
      )
      (pin input line (at -5.08 0 0) (length 3.81)
        (name "G" (effects (font (size 1.27 1.27))))
        (number "1" (effects (font (size 1.27 1.27))))
      )
      (pin passive line (at 2.54 5.08 270) (length 2.54)
        (name "C" (effects (font (size 1.27 1.27))))
        (number "2" (effects (font (size 1.27 1.27))))
      )
      (pin passive line (at 2.54 -5.08 90) (length 2.54)
        (name "E" (effects (font (size 1.27 1.27))))
        (number "3" (effects (font (size 1.27 1.27))))
      )
    )
  )
)
