(module SolderWire-1.5sqmm_1x01_D1.7mm_OD3mm_Relief (layer F.Cu) (tedit 5EB70B43)
  (descr "Soldered wire connection with feed through strain relief, for a single 1.5 mm² wire, basic insulation, conductor diameter 1.7mm, outer diameter 3mm, size source Multi-Contact FLEXI-E 1.5 (https://ec.staubli.com/AcroFiles/Catalogues/TM_Cab-Main-11014119_(en)_hi.pdf), bend radius 3 times outer diameter, generated with kicad-footprint-generator")
  (tags "connector wire 1.5sqmm strain-relief")
  (attr virtual)
  (fp_text reference REF** (at 0 -2.75) (layer F.SilkS)
    (effects (font (size 1 1) (thickness 0.15)))
  )
  (fp_text value SolderWire-1.5sqmm_1x01_D1.7mm_OD3mm_Relief (at 0 20.95) (layer F.Fab)
    (effects (font (size 1 1) (thickness 0.15)))
  )
  (fp_circle (center 0 0) (end 1.5 0) (layer F.Fab) (width 0.1))
  (fp_circle (center 0 18) (end 1.5 18) (layer F.Fab) (width 0.1))
  (fp_line (start -1.5 0) (end -1.5 18) (layer F.Fab) (width 0.1))
  (fp_line (start 1.5 0) (end 1.5 18) (layer F.Fab) (width 0.1))
  (fp_line (start 1.61 1.81) (end 1.61 16.39) (layer F.SilkS) (width 0.12))
  (fp_line (start -1.61 1.81) (end -1.61 16.39) (layer F.SilkS) (width 0.12))
  (fp_line (start -2.25 -2.05) (end -2.25 20.25) (layer F.CrtYd) (width 0.05))
  (fp_line (start -2.25 20.25) (end 2.25 20.25) (layer F.CrtYd) (width 0.05))
  (fp_line (start 2.25 20.25) (end 2.25 -2.05) (layer F.CrtYd) (width 0.05))
  (fp_line (start 2.25 -2.05) (end -2.25 -2.05) (layer F.CrtYd) (width 0.05))
  (fp_line (start -2.25 15.75) (end -2.25 20.25) (layer B.CrtYd) (width 0.05))
  (fp_line (start -2.25 20.25) (end 2.25 20.25) (layer B.CrtYd) (width 0.05))
  (fp_line (start 2.25 20.25) (end 2.25 15.75) (layer B.CrtYd) (width 0.05))
  (fp_line (start 2.25 15.75) (end -2.25 15.75) (layer B.CrtYd) (width 0.05))
  (pad 1 thru_hole roundrect (at 0 0) (size 3.1 3.1) (drill 2.1) (layers *.Cu *.Mask) (roundrect_rratio 0.080645))
  (pad "" np_thru_hole circle (at 0 18) (size 3.5 3.5) (drill 3.5) (layers *.Cu *.Mask))
  (fp_text user %R (at 0 9 90) (layer F.Fab)
    (effects (font (size 1 1) (thickness 0.15)))
  )
  (model ${KICAD6_3DMODEL_DIR}/Connector_Wire.3dshapes/SolderWire-1.5sqmm_1x01_D1.7mm_OD3mm_Relief.wrl
    (at (xyz 0 0 0))
    (scale (xyz 1 1 1))
    (rotate (xyz 0 0 0))
  )
)