(module SolderWire-2.5sqmm_1x06_P7.2mm_D2.4mm_OD3.6mm_Relief (layer F.Cu) (tedit 5EB70B44)
  (descr "Soldered wire connection with feed through strain relief, for 6 times 2.5 mm² wires, basic insulation, conductor diameter 2.4mm, outer diameter 3.6mm, size source Multi-Contact FLEXI-E 2.5 (https://ec.staubli.com/AcroFiles/Catalogues/TM_Cab-Main-11014119_(en)_hi.pdf), bend radius 3 times outer diameter, generated with kicad-footprint-generator")
  (tags "connector wire 2.5sqmm strain-relief")
  (attr virtual)
  (fp_text reference REF** (at 18 -3.2) (layer F.SilkS)
    (effects (font (size 1 1) (thickness 0.15)))
  )
  (fp_text value SolderWire-2.5sqmm_1x06_P7.2mm_D2.4mm_OD3.6mm_Relief (at 18 24.85) (layer F.Fab)
    (effects (font (size 1 1) (thickness 0.15)))
  )
  (fp_circle (center 0 0) (end 1.8 0) (layer F.Fab) (width 0.1))
  (fp_circle (center 0 21.6) (end 1.8 21.6) (layer F.Fab) (width 0.1))
  (fp_circle (center 7.2 0) (end 9 0) (layer F.Fab) (width 0.1))
  (fp_circle (center 7.2 21.6) (end 9 21.6) (layer F.Fab) (width 0.1))
  (fp_circle (center 14.4 0) (end 16.2 0) (layer F.Fab) (width 0.1))
  (fp_circle (center 14.4 21.6) (end 16.2 21.6) (layer F.Fab) (width 0.1))
  (fp_circle (center 21.6 0) (end 23.4 0) (layer F.Fab) (width 0.1))
  (fp_circle (center 21.6 21.6) (end 23.4 21.6) (layer F.Fab) (width 0.1))
  (fp_circle (center 28.8 0) (end 30.6 0) (layer F.Fab) (width 0.1))
  (fp_circle (center 28.8 21.6) (end 30.6 21.6) (layer F.Fab) (width 0.1))
  (fp_circle (center 36 0) (end 37.8 0) (layer F.Fab) (width 0.1))
  (fp_circle (center 36 21.6) (end 37.8 21.6) (layer F.Fab) (width 0.1))
  (fp_line (start -1.8 0) (end -1.8 21.6) (layer F.Fab) (width 0.1))
  (fp_line (start 1.8 0) (end 1.8 21.6) (layer F.Fab) (width 0.1))
  (fp_line (start 1.91 2.26) (end 1.91 19.69) (layer F.SilkS) (width 0.12))
  (fp_line (start -1.91 2.26) (end -1.91 19.69) (layer F.SilkS) (width 0.12))
  (fp_line (start -2.55 -2.5) (end -2.55 24.15) (layer F.CrtYd) (width 0.05))
  (fp_line (start -2.55 24.15) (end 2.55 24.15) (layer F.CrtYd) (width 0.05))
  (fp_line (start 2.55 24.15) (end 2.55 -2.5) (layer F.CrtYd) (width 0.05))
  (fp_line (start 2.55 -2.5) (end -2.55 -2.5) (layer F.CrtYd) (width 0.05))
  (fp_line (start -2.55 19.05) (end -2.55 24.15) (layer B.CrtYd) (width 0.05))
  (fp_line (start -2.55 24.15) (end 2.55 24.15) (layer B.CrtYd) (width 0.05))
  (fp_line (start 2.55 24.15) (end 2.55 19.05) (layer B.CrtYd) (width 0.05))
  (fp_line (start 2.55 19.05) (end -2.55 19.05) (layer B.CrtYd) (width 0.05))
  (fp_line (start 5.4 0) (end 5.4 21.6) (layer F.Fab) (width 0.1))
  (fp_line (start 9 0) (end 9 21.6) (layer F.Fab) (width 0.1))
  (fp_line (start 9.11 2.26) (end 9.11 19.69) (layer F.SilkS) (width 0.12))
  (fp_line (start 5.29 2.26) (end 5.29 19.69) (layer F.SilkS) (width 0.12))
  (fp_line (start 4.65 -2.5) (end 4.65 24.15) (layer F.CrtYd) (width 0.05))
  (fp_line (start 4.65 24.15) (end 9.75 24.15) (layer F.CrtYd) (width 0.05))
  (fp_line (start 9.75 24.15) (end 9.75 -2.5) (layer F.CrtYd) (width 0.05))
  (fp_line (start 9.75 -2.5) (end 4.65 -2.5) (layer F.CrtYd) (width 0.05))
  (fp_line (start 4.65 19.05) (end 4.65 24.15) (layer B.CrtYd) (width 0.05))
  (fp_line (start 4.65 24.15) (end 9.75 24.15) (layer B.CrtYd) (width 0.05))
  (fp_line (start 9.75 24.15) (end 9.75 19.05) (layer B.CrtYd) (width 0.05))
  (fp_line (start 9.75 19.05) (end 4.65 19.05) (layer B.CrtYd) (width 0.05))
  (fp_line (start 12.6 0) (end 12.6 21.6) (layer F.Fab) (width 0.1))
  (fp_line (start 16.2 0) (end 16.2 21.6) (layer F.Fab) (width 0.1))
  (fp_line (start 16.31 2.26) (end 16.31 19.69) (layer F.SilkS) (width 0.12))
  (fp_line (start 12.49 2.26) (end 12.49 19.69) (layer F.SilkS) (width 0.12))
  (fp_line (start 11.85 -2.5) (end 11.85 24.15) (layer F.CrtYd) (width 0.05))
  (fp_line (start 11.85 24.15) (end 16.95 24.15) (layer F.CrtYd) (width 0.05))
  (fp_line (start 16.95 24.15) (end 16.95 -2.5) (layer F.CrtYd) (width 0.05))
  (fp_line (start 16.95 -2.5) (end 11.85 -2.5) (layer F.CrtYd) (width 0.05))
  (fp_line (start 11.85 19.05) (end 11.85 24.15) (layer B.CrtYd) (width 0.05))
  (fp_line (start 11.85 24.15) (end 16.95 24.15) (layer B.CrtYd) (width 0.05))
  (fp_line (start 16.95 24.15) (end 16.95 19.05) (layer B.CrtYd) (width 0.05))
  (fp_line (start 16.95 19.05) (end 11.85 19.05) (layer B.CrtYd) (width 0.05))
  (fp_line (start 19.8 0) (end 19.8 21.6) (layer F.Fab) (width 0.1))
  (fp_line (start 23.4 0) (end 23.4 21.6) (layer F.Fab) (width 0.1))
  (fp_line (start 23.51 2.26) (end 23.51 19.69) (layer F.SilkS) (width 0.12))
  (fp_line (start 19.69 2.26) (end 19.69 19.69) (layer F.SilkS) (width 0.12))
  (fp_line (start 19.05 -2.5) (end 19.05 24.15) (layer F.CrtYd) (width 0.05))
  (fp_line (start 19.05 24.15) (end 24.15 24.15) (layer F.CrtYd) (width 0.05))
  (fp_line (start 24.15 24.15) (end 24.15 -2.5) (layer F.CrtYd) (width 0.05))
  (fp_line (start 24.15 -2.5) (end 19.05 -2.5) (layer F.CrtYd) (width 0.05))
  (fp_line (start 19.05 19.05) (end 19.05 24.15) (layer B.CrtYd) (width 0.05))
  (fp_line (start 19.05 24.15) (end 24.15 24.15) (layer B.CrtYd) (width 0.05))
  (fp_line (start 24.15 24.15) (end 24.15 19.05) (layer B.CrtYd) (width 0.05))
  (fp_line (start 24.15 19.05) (end 19.05 19.05) (layer B.CrtYd) (width 0.05))
  (fp_line (start 27 0) (end 27 21.6) (layer F.Fab) (width 0.1))
  (fp_line (start 30.6 0) (end 30.6 21.6) (layer F.Fab) (width 0.1))
  (fp_line (start 30.71 2.26) (end 30.71 19.69) (layer F.SilkS) (width 0.12))
  (fp_line (start 26.89 2.26) (end 26.89 19.69) (layer F.SilkS) (width 0.12))
  (fp_line (start 26.25 -2.5) (end 26.25 24.15) (layer F.CrtYd) (width 0.05))
  (fp_line (start 26.25 24.15) (end 31.35 24.15) (layer F.CrtYd) (width 0.05))
  (fp_line (start 31.35 24.15) (end 31.35 -2.5) (layer F.CrtYd) (width 0.05))
  (fp_line (start 31.35 -2.5) (end 26.25 -2.5) (layer F.CrtYd) (width 0.05))
  (fp_line (start 26.25 19.05) (end 26.25 24.15) (layer B.CrtYd) (width 0.05))
  (fp_line (start 26.25 24.15) (end 31.35 24.15) (layer B.CrtYd) (width 0.05))
  (fp_line (start 31.35 24.15) (end 31.35 19.05) (layer B.CrtYd) (width 0.05))
  (fp_line (start 31.35 19.05) (end 26.25 19.05) (layer B.CrtYd) (width 0.05))
  (fp_line (start 34.2 0) (end 34.2 21.6) (layer F.Fab) (width 0.1))
  (fp_line (start 37.8 0) (end 37.8 21.6) (layer F.Fab) (width 0.1))
  (fp_line (start 37.91 2.26) (end 37.91 19.69) (layer F.SilkS) (width 0.12))
  (fp_line (start 34.09 2.26) (end 34.09 19.69) (layer F.SilkS) (width 0.12))
  (fp_line (start 33.45 -2.5) (end 33.45 24.15) (layer F.CrtYd) (width 0.05))
  (fp_line (start 33.45 24.15) (end 38.55 24.15) (layer F.CrtYd) (width 0.05))
  (fp_line (start 38.55 24.15) (end 38.55 -2.5) (layer F.CrtYd) (width 0.05))
  (fp_line (start 38.55 -2.5) (end 33.45 -2.5) (layer F.CrtYd) (width 0.05))
  (fp_line (start 33.45 19.05) (end 33.45 24.15) (layer B.CrtYd) (width 0.05))
  (fp_line (start 33.45 24.15) (end 38.55 24.15) (layer B.CrtYd) (width 0.05))
  (fp_line (start 38.55 24.15) (end 38.55 19.05) (layer B.CrtYd) (width 0.05))
  (fp_line (start 38.55 19.05) (end 33.45 19.05) (layer B.CrtYd) (width 0.05))
  (pad 1 thru_hole roundrect (at 0 0) (size 4 4) (drill 3) (layers *.Cu *.Mask) (roundrect_rratio 0.0625))
  (pad 2 thru_hole circle (at 7.2 0) (size 4 4) (drill 3) (layers *.Cu *.Mask))
  (pad 3 thru_hole circle (at 14.4 0) (size 4 4) (drill 3) (layers *.Cu *.Mask))
  (pad 4 thru_hole circle (at 21.6 0) (size 4 4) (drill 3) (layers *.Cu *.Mask))
  (pad 5 thru_hole circle (at 28.8 0) (size 4 4) (drill 3) (layers *.Cu *.Mask))
  (pad 6 thru_hole circle (at 36 0) (size 4 4) (drill 3) (layers *.Cu *.Mask))
  (pad "" np_thru_hole circle (at 0 21.6) (size 4.1 4.1) (drill 4.1) (layers *.Cu *.Mask))
  (pad "" np_thru_hole circle (at 7.2 21.6) (size 4.1 4.1) (drill 4.1) (layers *.Cu *.Mask))
  (pad "" np_thru_hole circle (at 14.4 21.6) (size 4.1 4.1) (drill 4.1) (layers *.Cu *.Mask))
  (pad "" np_thru_hole circle (at 21.6 21.6) (size 4.1 4.1) (drill 4.1) (layers *.Cu *.Mask))
  (pad "" np_thru_hole circle (at 28.8 21.6) (size 4.1 4.1) (drill 4.1) (layers *.Cu *.Mask))
  (pad "" np_thru_hole circle (at 36 21.6) (size 4.1 4.1) (drill 4.1) (layers *.Cu *.Mask))
  (fp_text user %R (at 18 10.8 90) (layer F.Fab)
    (effects (font (size 1 1) (thickness 0.15)))
  )
  (model ${KICAD6_3DMODEL_DIR}/Connector_Wire.3dshapes/SolderWire-2.5sqmm_1x06_P7.2mm_D2.4mm_OD3.6mm_Relief.wrl
    (at (xyz 0 0 0))
    (scale (xyz 1 1 1))
    (rotate (xyz 0 0 0))
  )
)