(module SolderWire-0.127sqmm_1x03_P3.7mm_D0.48mm_OD1mm (layer F.Cu) (tedit 5EB70B42)
  (descr "Soldered wire connection, for 3 times 0.127 mm² wires, basic insulation, conductor diameter 0.48mm, outer diameter 1mm, size source Multi-Contact FLEXI-E/HK 0.127 (https://ec.staubli.com/AcroFiles/Catalogues/TM_Cab-Main-11014119_(en)_hi.pdf), bend radius 3 times outer diameter, generated with kicad-footprint-generator")
  (tags "connector wire 0.127sqmm")
  (attr virtual)
  (fp_text reference REF** (at 3.7 -2.05) (layer F.SilkS)
    (effects (font (size 1 1) (thickness 0.15)))
  )
  (fp_text value SolderWire-0.127sqmm_1x03_P3.7mm_D0.48mm_OD1mm (at 3.7 2.05) (layer F.Fab)
    (effects (font (size 1 1) (thickness 0.15)))
  )
  (fp_circle (center 0 0) (end 0.5 0) (layer F.Fab) (width 0.1))
  (fp_circle (center 3.7 0) (end 4.2 0) (layer F.Fab) (width 0.1))
  (fp_circle (center 7.4 0) (end 7.9 0) (layer F.Fab) (width 0.1))
  (fp_line (start -1.35 -1.35) (end -1.35 1.35) (layer F.CrtYd) (width 0.05))
  (fp_line (start -1.35 1.35) (end 1.35 1.35) (layer F.CrtYd) (width 0.05))
  (fp_line (start 1.35 1.35) (end 1.35 -1.35) (layer F.CrtYd) (width 0.05))
  (fp_line (start 1.35 -1.35) (end -1.35 -1.35) (layer F.CrtYd) (width 0.05))
  (fp_line (start 2.35 -1.35) (end 2.35 1.35) (layer F.CrtYd) (width 0.05))
  (fp_line (start 2.35 1.35) (end 5.05 1.35) (layer F.CrtYd) (width 0.05))
  (fp_line (start 5.05 1.35) (end 5.05 -1.35) (layer F.CrtYd) (width 0.05))
  (fp_line (start 5.05 -1.35) (end 2.35 -1.35) (layer F.CrtYd) (width 0.05))
  (fp_line (start 6.05 -1.35) (end 6.05 1.35) (layer F.CrtYd) (width 0.05))
  (fp_line (start 6.05 1.35) (end 8.75 1.35) (layer F.CrtYd) (width 0.05))
  (fp_line (start 8.75 1.35) (end 8.75 -1.35) (layer F.CrtYd) (width 0.05))
  (fp_line (start 8.75 -1.35) (end 6.05 -1.35) (layer F.CrtYd) (width 0.05))
  (pad 1 thru_hole roundrect (at 0 0) (size 1.7 1.7) (drill 0.7) (layers *.Cu *.Mask) (roundrect_rratio 0.147059))
  (pad 2 thru_hole circle (at 3.7 0) (size 1.7 1.7) (drill 0.7) (layers *.Cu *.Mask))
  (pad 3 thru_hole circle (at 7.4 0) (size 1.7 1.7) (drill 0.7) (layers *.Cu *.Mask))
  (fp_text user %R (at 3.7 0) (layer F.Fab)
    (effects (font (size 0.25 0.25) (thickness 0.04)))
  )
  (model ${KICAD6_3DMODEL_DIR}/Connector_Wire.3dshapes/SolderWire-0.127sqmm_1x03_P3.7mm_D0.48mm_OD1mm.wrl
    (at (xyz 0 0 0))
    (scale (xyz 1 1 1))
    (rotate (xyz 0 0 0))
  )
)