(module SolderWire-0.25sqmm_1x03_P4.5mm_D0.65mm_OD2mm_Relief (layer F.Cu) (tedit 5EB70B44)
  (descr "Soldered wire connection with feed through strain relief, for 3 times 0.25 mm² wires, reinforced insulation, conductor diameter 0.65mm, outer diameter 2mm, size source Multi-Contact FLEXI-2V 0.25 (https://ec.staubli.com/AcroFiles/Catalogues/TM_Cab-Main-11014119_(en)_hi.pdf), bend radius 3 times outer diameter, generated with kicad-footprint-generator")
  (tags "connector wire 0.25sqmm strain-relief")
  (attr virtual)
  (fp_text reference REF** (at 4.5 -2.2) (layer F.SilkS)
    (effects (font (size 1 1) (thickness 0.15)))
  )
  (fp_text value SolderWire-0.25sqmm_1x03_P4.5mm_D0.65mm_OD2mm_Relief (at 4.5 14.45) (layer F.Fab)
    (effects (font (size 1 1) (thickness 0.15)))
  )
  (fp_circle (center 0 0) (end 1 0) (layer F.Fab) (width 0.1))
  (fp_circle (center 0 12) (end 1 12) (layer F.Fab) (width 0.1))
  (fp_circle (center 4.5 0) (end 5.5 0) (layer F.Fab) (width 0.1))
  (fp_circle (center 4.5 12) (end 5.5 12) (layer F.Fab) (width 0.1))
  (fp_circle (center 9 0) (end 10 0) (layer F.Fab) (width 0.1))
  (fp_circle (center 9 12) (end 10 12) (layer F.Fab) (width 0.1))
  (fp_line (start -1 0) (end -1 12) (layer F.Fab) (width 0.1))
  (fp_line (start 1 0) (end 1 12) (layer F.Fab) (width 0.1))
  (fp_line (start 1.11 1.26) (end 1.11 10.89) (layer F.SilkS) (width 0.12))
  (fp_line (start -1.11 1.26) (end -1.11 10.89) (layer F.SilkS) (width 0.12))
  (fp_line (start -1.75 -1.5) (end -1.75 13.75) (layer F.CrtYd) (width 0.05))
  (fp_line (start -1.75 13.75) (end 1.75 13.75) (layer F.CrtYd) (width 0.05))
  (fp_line (start 1.75 13.75) (end 1.75 -1.5) (layer F.CrtYd) (width 0.05))
  (fp_line (start 1.75 -1.5) (end -1.75 -1.5) (layer F.CrtYd) (width 0.05))
  (fp_line (start -1.75 10.25) (end -1.75 13.75) (layer B.CrtYd) (width 0.05))
  (fp_line (start -1.75 13.75) (end 1.75 13.75) (layer B.CrtYd) (width 0.05))
  (fp_line (start 1.75 13.75) (end 1.75 10.25) (layer B.CrtYd) (width 0.05))
  (fp_line (start 1.75 10.25) (end -1.75 10.25) (layer B.CrtYd) (width 0.05))
  (fp_line (start 3.5 0) (end 3.5 12) (layer F.Fab) (width 0.1))
  (fp_line (start 5.5 0) (end 5.5 12) (layer F.Fab) (width 0.1))
  (fp_line (start 5.61 1.26) (end 5.61 10.89) (layer F.SilkS) (width 0.12))
  (fp_line (start 3.39 1.26) (end 3.39 10.89) (layer F.SilkS) (width 0.12))
  (fp_line (start 2.75 -1.5) (end 2.75 13.75) (layer F.CrtYd) (width 0.05))
  (fp_line (start 2.75 13.75) (end 6.25 13.75) (layer F.CrtYd) (width 0.05))
  (fp_line (start 6.25 13.75) (end 6.25 -1.5) (layer F.CrtYd) (width 0.05))
  (fp_line (start 6.25 -1.5) (end 2.75 -1.5) (layer F.CrtYd) (width 0.05))
  (fp_line (start 2.75 10.25) (end 2.75 13.75) (layer B.CrtYd) (width 0.05))
  (fp_line (start 2.75 13.75) (end 6.25 13.75) (layer B.CrtYd) (width 0.05))
  (fp_line (start 6.25 13.75) (end 6.25 10.25) (layer B.CrtYd) (width 0.05))
  (fp_line (start 6.25 10.25) (end 2.75 10.25) (layer B.CrtYd) (width 0.05))
  (fp_line (start 8 0) (end 8 12) (layer F.Fab) (width 0.1))
  (fp_line (start 10 0) (end 10 12) (layer F.Fab) (width 0.1))
  (fp_line (start 10.11 1.26) (end 10.11 10.89) (layer F.SilkS) (width 0.12))
  (fp_line (start 7.89 1.26) (end 7.89 10.89) (layer F.SilkS) (width 0.12))
  (fp_line (start 7.25 -1.5) (end 7.25 13.75) (layer F.CrtYd) (width 0.05))
  (fp_line (start 7.25 13.75) (end 10.75 13.75) (layer F.CrtYd) (width 0.05))
  (fp_line (start 10.75 13.75) (end 10.75 -1.5) (layer F.CrtYd) (width 0.05))
  (fp_line (start 10.75 -1.5) (end 7.25 -1.5) (layer F.CrtYd) (width 0.05))
  (fp_line (start 7.25 10.25) (end 7.25 13.75) (layer B.CrtYd) (width 0.05))
  (fp_line (start 7.25 13.75) (end 10.75 13.75) (layer B.CrtYd) (width 0.05))
  (fp_line (start 10.75 13.75) (end 10.75 10.25) (layer B.CrtYd) (width 0.05))
  (fp_line (start 10.75 10.25) (end 7.25 10.25) (layer B.CrtYd) (width 0.05))
  (pad 1 thru_hole roundrect (at 0 0) (size 2 2) (drill 0.85) (layers *.Cu *.Mask) (roundrect_rratio 0.125))
  (pad 2 thru_hole circle (at 4.5 0) (size 2 2) (drill 0.85) (layers *.Cu *.Mask))
  (pad 3 thru_hole circle (at 9 0) (size 2 2) (drill 0.85) (layers *.Cu *.Mask))
  (pad "" np_thru_hole circle (at 0 12) (size 2.5 2.5) (drill 2.5) (layers *.Cu *.Mask))
  (pad "" np_thru_hole circle (at 4.5 12) (size 2.5 2.5) (drill 2.5) (layers *.Cu *.Mask))
  (pad "" np_thru_hole circle (at 9 12) (size 2.5 2.5) (drill 2.5) (layers *.Cu *.Mask))
  (fp_text user %R (at 4.5 6 90) (layer F.Fab)
    (effects (font (size 1 1) (thickness 0.15)))
  )
  (model ${KICAD6_3DMODEL_DIR}/Connector_Wire.3dshapes/SolderWire-0.25sqmm_1x03_P4.5mm_D0.65mm_OD2mm_Relief.wrl
    (at (xyz 0 0 0))
    (scale (xyz 1 1 1))
    (rotate (xyz 0 0 0))
  )
)