(module SolderWire-1.5sqmm_1x03_P6mm_D1.7mm_OD3mm_Relief2x (layer F.Cu) (tedit 5EB70B43)
  (descr "Soldered wire connection with double feed through strain relief, for 3 times 1.5 mm² wires, basic insulation, conductor diameter 1.7mm, outer diameter 3mm, size source Multi-Contact FLEXI-E 1.5 (https://ec.staubli.com/AcroFiles/Catalogues/TM_Cab-Main-11014119_(en)_hi.pdf), bend radius 3 times outer diameter, generated with kicad-footprint-generator")
  (tags "connector wire 1.5sqmm double-strain-relief")
  (attr virtual)
  (fp_text reference REF** (at 6 -2.75) (layer F.SilkS)
    (effects (font (size 1 1) (thickness 0.15)))
  )
  (fp_text value SolderWire-1.5sqmm_1x03_P6mm_D1.7mm_OD3mm_Relief2x (at 6 38.95) (layer F.Fab)
    (effects (font (size 1 1) (thickness 0.15)))
  )
  (fp_circle (center 0 0) (end 1.5 0) (layer F.Fab) (width 0.1))
  (fp_circle (center 0 18) (end 1.5 18) (layer F.Fab) (width 0.1))
  (fp_circle (center 0 36) (end 1.5 36) (layer F.Fab) (width 0.1))
  (fp_circle (center 0 18) (end 1.5 18) (layer B.Fab) (width 0.1))
  (fp_circle (center 0 36) (end 1.5 36) (layer B.Fab) (width 0.1))
  (fp_circle (center 6 0) (end 7.5 0) (layer F.Fab) (width 0.1))
  (fp_circle (center 6 18) (end 7.5 18) (layer F.Fab) (width 0.1))
  (fp_circle (center 6 36) (end 7.5 36) (layer F.Fab) (width 0.1))
  (fp_circle (center 6 18) (end 7.5 18) (layer B.Fab) (width 0.1))
  (fp_circle (center 6 36) (end 7.5 36) (layer B.Fab) (width 0.1))
  (fp_circle (center 12 0) (end 13.5 0) (layer F.Fab) (width 0.1))
  (fp_circle (center 12 18) (end 13.5 18) (layer F.Fab) (width 0.1))
  (fp_circle (center 12 36) (end 13.5 36) (layer F.Fab) (width 0.1))
  (fp_circle (center 12 18) (end 13.5 18) (layer B.Fab) (width 0.1))
  (fp_circle (center 12 36) (end 13.5 36) (layer B.Fab) (width 0.1))
  (fp_line (start -1.5 0) (end -1.5 18) (layer F.Fab) (width 0.1))
  (fp_line (start 1.5 0) (end 1.5 18) (layer F.Fab) (width 0.1))
  (fp_line (start -1.5 18) (end -1.5 36) (layer B.Fab) (width 0.1))
  (fp_line (start 1.5 18) (end 1.5 36) (layer B.Fab) (width 0.1))
  (fp_line (start 1.61 1.81) (end 1.61 16.39) (layer F.SilkS) (width 0.12))
  (fp_line (start -1.61 1.81) (end -1.61 16.39) (layer F.SilkS) (width 0.12))
  (fp_line (start 1.61 19.61) (end 1.61 34.39) (layer B.SilkS) (width 0.12))
  (fp_line (start -1.61 19.61) (end -1.61 34.39) (layer B.SilkS) (width 0.12))
  (fp_line (start -2.25 -2.05) (end -2.25 20.25) (layer F.CrtYd) (width 0.05))
  (fp_line (start -2.25 20.25) (end 2.25 20.25) (layer F.CrtYd) (width 0.05))
  (fp_line (start 2.25 20.25) (end 2.25 -2.05) (layer F.CrtYd) (width 0.05))
  (fp_line (start 2.25 -2.05) (end -2.25 -2.05) (layer F.CrtYd) (width 0.05))
  (fp_line (start -2.25 33.75) (end -2.25 38.25) (layer F.CrtYd) (width 0.05))
  (fp_line (start -2.25 38.25) (end 2.25 38.25) (layer F.CrtYd) (width 0.05))
  (fp_line (start 2.25 38.25) (end 2.25 33.75) (layer F.CrtYd) (width 0.05))
  (fp_line (start 2.25 33.75) (end -2.25 33.75) (layer F.CrtYd) (width 0.05))
  (fp_line (start -2.25 15.75) (end -2.25 38.25) (layer B.CrtYd) (width 0.05))
  (fp_line (start -2.25 38.25) (end 2.25 38.25) (layer B.CrtYd) (width 0.05))
  (fp_line (start 2.25 38.25) (end 2.25 15.75) (layer B.CrtYd) (width 0.05))
  (fp_line (start 2.25 15.75) (end -2.25 15.75) (layer B.CrtYd) (width 0.05))
  (fp_line (start 4.5 0) (end 4.5 18) (layer F.Fab) (width 0.1))
  (fp_line (start 7.5 0) (end 7.5 18) (layer F.Fab) (width 0.1))
  (fp_line (start 4.5 18) (end 4.5 36) (layer B.Fab) (width 0.1))
  (fp_line (start 7.5 18) (end 7.5 36) (layer B.Fab) (width 0.1))
  (fp_line (start 7.61 1.81) (end 7.61 16.39) (layer F.SilkS) (width 0.12))
  (fp_line (start 4.39 1.81) (end 4.39 16.39) (layer F.SilkS) (width 0.12))
  (fp_line (start 7.61 19.61) (end 7.61 34.39) (layer B.SilkS) (width 0.12))
  (fp_line (start 4.39 19.61) (end 4.39 34.39) (layer B.SilkS) (width 0.12))
  (fp_line (start 3.75 -2.05) (end 3.75 20.25) (layer F.CrtYd) (width 0.05))
  (fp_line (start 3.75 20.25) (end 8.25 20.25) (layer F.CrtYd) (width 0.05))
  (fp_line (start 8.25 20.25) (end 8.25 -2.05) (layer F.CrtYd) (width 0.05))
  (fp_line (start 8.25 -2.05) (end 3.75 -2.05) (layer F.CrtYd) (width 0.05))
  (fp_line (start 3.75 33.75) (end 3.75 38.25) (layer F.CrtYd) (width 0.05))
  (fp_line (start 3.75 38.25) (end 8.25 38.25) (layer F.CrtYd) (width 0.05))
  (fp_line (start 8.25 38.25) (end 8.25 33.75) (layer F.CrtYd) (width 0.05))
  (fp_line (start 8.25 33.75) (end 3.75 33.75) (layer F.CrtYd) (width 0.05))
  (fp_line (start 3.75 15.75) (end 3.75 38.25) (layer B.CrtYd) (width 0.05))
  (fp_line (start 3.75 38.25) (end 8.25 38.25) (layer B.CrtYd) (width 0.05))
  (fp_line (start 8.25 38.25) (end 8.25 15.75) (layer B.CrtYd) (width 0.05))
  (fp_line (start 8.25 15.75) (end 3.75 15.75) (layer B.CrtYd) (width 0.05))
  (fp_line (start 10.5 0) (end 10.5 18) (layer F.Fab) (width 0.1))
  (fp_line (start 13.5 0) (end 13.5 18) (layer F.Fab) (width 0.1))
  (fp_line (start 10.5 18) (end 10.5 36) (layer B.Fab) (width 0.1))
  (fp_line (start 13.5 18) (end 13.5 36) (layer B.Fab) (width 0.1))
  (fp_line (start 13.61 1.81) (end 13.61 16.39) (layer F.SilkS) (width 0.12))
  (fp_line (start 10.39 1.81) (end 10.39 16.39) (layer F.SilkS) (width 0.12))
  (fp_line (start 13.61 19.61) (end 13.61 34.39) (layer B.SilkS) (width 0.12))
  (fp_line (start 10.39 19.61) (end 10.39 34.39) (layer B.SilkS) (width 0.12))
  (fp_line (start 9.75 -2.05) (end 9.75 20.25) (layer F.CrtYd) (width 0.05))
  (fp_line (start 9.75 20.25) (end 14.25 20.25) (layer F.CrtYd) (width 0.05))
  (fp_line (start 14.25 20.25) (end 14.25 -2.05) (layer F.CrtYd) (width 0.05))
  (fp_line (start 14.25 -2.05) (end 9.75 -2.05) (layer F.CrtYd) (width 0.05))
  (fp_line (start 9.75 33.75) (end 9.75 38.25) (layer F.CrtYd) (width 0.05))
  (fp_line (start 9.75 38.25) (end 14.25 38.25) (layer F.CrtYd) (width 0.05))
  (fp_line (start 14.25 38.25) (end 14.25 33.75) (layer F.CrtYd) (width 0.05))
  (fp_line (start 14.25 33.75) (end 9.75 33.75) (layer F.CrtYd) (width 0.05))
  (fp_line (start 9.75 15.75) (end 9.75 38.25) (layer B.CrtYd) (width 0.05))
  (fp_line (start 9.75 38.25) (end 14.25 38.25) (layer B.CrtYd) (width 0.05))
  (fp_line (start 14.25 38.25) (end 14.25 15.75) (layer B.CrtYd) (width 0.05))
  (fp_line (start 14.25 15.75) (end 9.75 15.75) (layer B.CrtYd) (width 0.05))
  (pad 1 thru_hole roundrect (at 0 0) (size 3.1 3.1) (drill 2.1) (layers *.Cu *.Mask) (roundrect_rratio 0.080645))
  (pad 2 thru_hole circle (at 6 0) (size 3.1 3.1) (drill 2.1) (layers *.Cu *.Mask))
  (pad 3 thru_hole circle (at 12 0) (size 3.1 3.1) (drill 2.1) (layers *.Cu *.Mask))
  (pad "" np_thru_hole circle (at 0 18) (size 3.5 3.5) (drill 3.5) (layers *.Cu *.Mask))
  (pad "" np_thru_hole circle (at 0 36) (size 3.5 3.5) (drill 3.5) (layers *.Cu *.Mask))
  (pad "" np_thru_hole circle (at 6 18) (size 3.5 3.5) (drill 3.5) (layers *.Cu *.Mask))
  (pad "" np_thru_hole circle (at 6 36) (size 3.5 3.5) (drill 3.5) (layers *.Cu *.Mask))
  (pad "" np_thru_hole circle (at 12 18) (size 3.5 3.5) (drill 3.5) (layers *.Cu *.Mask))
  (pad "" np_thru_hole circle (at 12 36) (size 3.5 3.5) (drill 3.5) (layers *.Cu *.Mask))
  (fp_text user %R (at 6 9 90) (layer F.Fab)
    (effects (font (size 1 1) (thickness 0.15)))
  )
  (model ${KICAD6_3DMODEL_DIR}/Connector_Wire.3dshapes/SolderWire-1.5sqmm_1x03_P6mm_D1.7mm_OD3mm_Relief2x.wrl
    (at (xyz 0 0 0))
    (scale (xyz 1 1 1))
    (rotate (xyz 0 0 0))
  )
)