(module SolderWire-2.5sqmm_1x05_P7.2mm_D2.4mm_OD3.6mm_Relief2x (layer F.Cu) (tedit 5EB70B44)
  (descr "Soldered wire connection with double feed through strain relief, for 5 times 2.5 mm² wires, basic insulation, conductor diameter 2.4mm, outer diameter 3.6mm, size source Multi-Contact FLEXI-E 2.5 (https://ec.staubli.com/AcroFiles/Catalogues/TM_Cab-Main-11014119_(en)_hi.pdf), bend radius 3 times outer diameter, generated with kicad-footprint-generator")
  (tags "connector wire 2.5sqmm double-strain-relief")
  (attr virtual)
  (fp_text reference REF** (at 14.4 -3.2) (layer F.SilkS)
    (effects (font (size 1 1) (thickness 0.15)))
  )
  (fp_text value SolderWire-2.5sqmm_1x05_P7.2mm_D2.4mm_OD3.6mm_Relief2x (at 14.4 46.45) (layer F.Fab)
    (effects (font (size 1 1) (thickness 0.15)))
  )
  (fp_circle (center 0 0) (end 1.8 0) (layer F.Fab) (width 0.1))
  (fp_circle (center 0 21.6) (end 1.8 21.6) (layer F.Fab) (width 0.1))
  (fp_circle (center 0 43.2) (end 1.8 43.2) (layer F.Fab) (width 0.1))
  (fp_circle (center 0 21.6) (end 1.8 21.6) (layer B.Fab) (width 0.1))
  (fp_circle (center 0 43.2) (end 1.8 43.2) (layer B.Fab) (width 0.1))
  (fp_circle (center 7.2 0) (end 9 0) (layer F.Fab) (width 0.1))
  (fp_circle (center 7.2 21.6) (end 9 21.6) (layer F.Fab) (width 0.1))
  (fp_circle (center 7.2 43.2) (end 9 43.2) (layer F.Fab) (width 0.1))
  (fp_circle (center 7.2 21.6) (end 9 21.6) (layer B.Fab) (width 0.1))
  (fp_circle (center 7.2 43.2) (end 9 43.2) (layer B.Fab) (width 0.1))
  (fp_circle (center 14.4 0) (end 16.2 0) (layer F.Fab) (width 0.1))
  (fp_circle (center 14.4 21.6) (end 16.2 21.6) (layer F.Fab) (width 0.1))
  (fp_circle (center 14.4 43.2) (end 16.2 43.2) (layer F.Fab) (width 0.1))
  (fp_circle (center 14.4 21.6) (end 16.2 21.6) (layer B.Fab) (width 0.1))
  (fp_circle (center 14.4 43.2) (end 16.2 43.2) (layer B.Fab) (width 0.1))
  (fp_circle (center 21.6 0) (end 23.4 0) (layer F.Fab) (width 0.1))
  (fp_circle (center 21.6 21.6) (end 23.4 21.6) (layer F.Fab) (width 0.1))
  (fp_circle (center 21.6 43.2) (end 23.4 43.2) (layer F.Fab) (width 0.1))
  (fp_circle (center 21.6 21.6) (end 23.4 21.6) (layer B.Fab) (width 0.1))
  (fp_circle (center 21.6 43.2) (end 23.4 43.2) (layer B.Fab) (width 0.1))
  (fp_circle (center 28.8 0) (end 30.6 0) (layer F.Fab) (width 0.1))
  (fp_circle (center 28.8 21.6) (end 30.6 21.6) (layer F.Fab) (width 0.1))
  (fp_circle (center 28.8 43.2) (end 30.6 43.2) (layer F.Fab) (width 0.1))
  (fp_circle (center 28.8 21.6) (end 30.6 21.6) (layer B.Fab) (width 0.1))
  (fp_circle (center 28.8 43.2) (end 30.6 43.2) (layer B.Fab) (width 0.1))
  (fp_line (start -1.8 0) (end -1.8 21.6) (layer F.Fab) (width 0.1))
  (fp_line (start 1.8 0) (end 1.8 21.6) (layer F.Fab) (width 0.1))
  (fp_line (start -1.8 21.6) (end -1.8 43.2) (layer B.Fab) (width 0.1))
  (fp_line (start 1.8 21.6) (end 1.8 43.2) (layer B.Fab) (width 0.1))
  (fp_line (start 1.91 2.26) (end 1.91 19.69) (layer F.SilkS) (width 0.12))
  (fp_line (start -1.91 2.26) (end -1.91 19.69) (layer F.SilkS) (width 0.12))
  (fp_line (start 1.91 23.51) (end 1.91 41.29) (layer B.SilkS) (width 0.12))
  (fp_line (start -1.91 23.51) (end -1.91 41.29) (layer B.SilkS) (width 0.12))
  (fp_line (start -2.55 -2.5) (end -2.55 24.15) (layer F.CrtYd) (width 0.05))
  (fp_line (start -2.55 24.15) (end 2.55 24.15) (layer F.CrtYd) (width 0.05))
  (fp_line (start 2.55 24.15) (end 2.55 -2.5) (layer F.CrtYd) (width 0.05))
  (fp_line (start 2.55 -2.5) (end -2.55 -2.5) (layer F.CrtYd) (width 0.05))
  (fp_line (start -2.55 40.65) (end -2.55 45.75) (layer F.CrtYd) (width 0.05))
  (fp_line (start -2.55 45.75) (end 2.55 45.75) (layer F.CrtYd) (width 0.05))
  (fp_line (start 2.55 45.75) (end 2.55 40.65) (layer F.CrtYd) (width 0.05))
  (fp_line (start 2.55 40.65) (end -2.55 40.65) (layer F.CrtYd) (width 0.05))
  (fp_line (start -2.55 19.05) (end -2.55 45.75) (layer B.CrtYd) (width 0.05))
  (fp_line (start -2.55 45.75) (end 2.55 45.75) (layer B.CrtYd) (width 0.05))
  (fp_line (start 2.55 45.75) (end 2.55 19.05) (layer B.CrtYd) (width 0.05))
  (fp_line (start 2.55 19.05) (end -2.55 19.05) (layer B.CrtYd) (width 0.05))
  (fp_line (start 5.4 0) (end 5.4 21.6) (layer F.Fab) (width 0.1))
  (fp_line (start 9 0) (end 9 21.6) (layer F.Fab) (width 0.1))
  (fp_line (start 5.4 21.6) (end 5.4 43.2) (layer B.Fab) (width 0.1))
  (fp_line (start 9 21.6) (end 9 43.2) (layer B.Fab) (width 0.1))
  (fp_line (start 9.11 2.26) (end 9.11 19.69) (layer F.SilkS) (width 0.12))
  (fp_line (start 5.29 2.26) (end 5.29 19.69) (layer F.SilkS) (width 0.12))
  (fp_line (start 9.11 23.51) (end 9.11 41.29) (layer B.SilkS) (width 0.12))
  (fp_line (start 5.29 23.51) (end 5.29 41.29) (layer B.SilkS) (width 0.12))
  (fp_line (start 4.65 -2.5) (end 4.65 24.15) (layer F.CrtYd) (width 0.05))
  (fp_line (start 4.65 24.15) (end 9.75 24.15) (layer F.CrtYd) (width 0.05))
  (fp_line (start 9.75 24.15) (end 9.75 -2.5) (layer F.CrtYd) (width 0.05))
  (fp_line (start 9.75 -2.5) (end 4.65 -2.5) (layer F.CrtYd) (width 0.05))
  (fp_line (start 4.65 40.65) (end 4.65 45.75) (layer F.CrtYd) (width 0.05))
  (fp_line (start 4.65 45.75) (end 9.75 45.75) (layer F.CrtYd) (width 0.05))
  (fp_line (start 9.75 45.75) (end 9.75 40.65) (layer F.CrtYd) (width 0.05))
  (fp_line (start 9.75 40.65) (end 4.65 40.65) (layer F.CrtYd) (width 0.05))
  (fp_line (start 4.65 19.05) (end 4.65 45.75) (layer B.CrtYd) (width 0.05))
  (fp_line (start 4.65 45.75) (end 9.75 45.75) (layer B.CrtYd) (width 0.05))
  (fp_line (start 9.75 45.75) (end 9.75 19.05) (layer B.CrtYd) (width 0.05))
  (fp_line (start 9.75 19.05) (end 4.65 19.05) (layer B.CrtYd) (width 0.05))
  (fp_line (start 12.6 0) (end 12.6 21.6) (layer F.Fab) (width 0.1))
  (fp_line (start 16.2 0) (end 16.2 21.6) (layer F.Fab) (width 0.1))
  (fp_line (start 12.6 21.6) (end 12.6 43.2) (layer B.Fab) (width 0.1))
  (fp_line (start 16.2 21.6) (end 16.2 43.2) (layer B.Fab) (width 0.1))
  (fp_line (start 16.31 2.26) (end 16.31 19.69) (layer F.SilkS) (width 0.12))
  (fp_line (start 12.49 2.26) (end 12.49 19.69) (layer F.SilkS) (width 0.12))
  (fp_line (start 16.31 23.51) (end 16.31 41.29) (layer B.SilkS) (width 0.12))
  (fp_line (start 12.49 23.51) (end 12.49 41.29) (layer B.SilkS) (width 0.12))
  (fp_line (start 11.85 -2.5) (end 11.85 24.15) (layer F.CrtYd) (width 0.05))
  (fp_line (start 11.85 24.15) (end 16.95 24.15) (layer F.CrtYd) (width 0.05))
  (fp_line (start 16.95 24.15) (end 16.95 -2.5) (layer F.CrtYd) (width 0.05))
  (fp_line (start 16.95 -2.5) (end 11.85 -2.5) (layer F.CrtYd) (width 0.05))
  (fp_line (start 11.85 40.65) (end 11.85 45.75) (layer F.CrtYd) (width 0.05))
  (fp_line (start 11.85 45.75) (end 16.95 45.75) (layer F.CrtYd) (width 0.05))
  (fp_line (start 16.95 45.75) (end 16.95 40.65) (layer F.CrtYd) (width 0.05))
  (fp_line (start 16.95 40.65) (end 11.85 40.65) (layer F.CrtYd) (width 0.05))
  (fp_line (start 11.85 19.05) (end 11.85 45.75) (layer B.CrtYd) (width 0.05))
  (fp_line (start 11.85 45.75) (end 16.95 45.75) (layer B.CrtYd) (width 0.05))
  (fp_line (start 16.95 45.75) (end 16.95 19.05) (layer B.CrtYd) (width 0.05))
  (fp_line (start 16.95 19.05) (end 11.85 19.05) (layer B.CrtYd) (width 0.05))
  (fp_line (start 19.8 0) (end 19.8 21.6) (layer F.Fab) (width 0.1))
  (fp_line (start 23.4 0) (end 23.4 21.6) (layer F.Fab) (width 0.1))
  (fp_line (start 19.8 21.6) (end 19.8 43.2) (layer B.Fab) (width 0.1))
  (fp_line (start 23.4 21.6) (end 23.4 43.2) (layer B.Fab) (width 0.1))
  (fp_line (start 23.51 2.26) (end 23.51 19.69) (layer F.SilkS) (width 0.12))
  (fp_line (start 19.69 2.26) (end 19.69 19.69) (layer F.SilkS) (width 0.12))
  (fp_line (start 23.51 23.51) (end 23.51 41.29) (layer B.SilkS) (width 0.12))
  (fp_line (start 19.69 23.51) (end 19.69 41.29) (layer B.SilkS) (width 0.12))
  (fp_line (start 19.05 -2.5) (end 19.05 24.15) (layer F.CrtYd) (width 0.05))
  (fp_line (start 19.05 24.15) (end 24.15 24.15) (layer F.CrtYd) (width 0.05))
  (fp_line (start 24.15 24.15) (end 24.15 -2.5) (layer F.CrtYd) (width 0.05))
  (fp_line (start 24.15 -2.5) (end 19.05 -2.5) (layer F.CrtYd) (width 0.05))
  (fp_line (start 19.05 40.65) (end 19.05 45.75) (layer F.CrtYd) (width 0.05))
  (fp_line (start 19.05 45.75) (end 24.15 45.75) (layer F.CrtYd) (width 0.05))
  (fp_line (start 24.15 45.75) (end 24.15 40.65) (layer F.CrtYd) (width 0.05))
  (fp_line (start 24.15 40.65) (end 19.05 40.65) (layer F.CrtYd) (width 0.05))
  (fp_line (start 19.05 19.05) (end 19.05 45.75) (layer B.CrtYd) (width 0.05))
  (fp_line (start 19.05 45.75) (end 24.15 45.75) (layer B.CrtYd) (width 0.05))
  (fp_line (start 24.15 45.75) (end 24.15 19.05) (layer B.CrtYd) (width 0.05))
  (fp_line (start 24.15 19.05) (end 19.05 19.05) (layer B.CrtYd) (width 0.05))
  (fp_line (start 27 0) (end 27 21.6) (layer F.Fab) (width 0.1))
  (fp_line (start 30.6 0) (end 30.6 21.6) (layer F.Fab) (width 0.1))
  (fp_line (start 27 21.6) (end 27 43.2) (layer B.Fab) (width 0.1))
  (fp_line (start 30.6 21.6) (end 30.6 43.2) (layer B.Fab) (width 0.1))
  (fp_line (start 30.71 2.26) (end 30.71 19.69) (layer F.SilkS) (width 0.12))
  (fp_line (start 26.89 2.26) (end 26.89 19.69) (layer F.SilkS) (width 0.12))
  (fp_line (start 30.71 23.51) (end 30.71 41.29) (layer B.SilkS) (width 0.12))
  (fp_line (start 26.89 23.51) (end 26.89 41.29) (layer B.SilkS) (width 0.12))
  (fp_line (start 26.25 -2.5) (end 26.25 24.15) (layer F.CrtYd) (width 0.05))
  (fp_line (start 26.25 24.15) (end 31.35 24.15) (layer F.CrtYd) (width 0.05))
  (fp_line (start 31.35 24.15) (end 31.35 -2.5) (layer F.CrtYd) (width 0.05))
  (fp_line (start 31.35 -2.5) (end 26.25 -2.5) (layer F.CrtYd) (width 0.05))
  (fp_line (start 26.25 40.65) (end 26.25 45.75) (layer F.CrtYd) (width 0.05))
  (fp_line (start 26.25 45.75) (end 31.35 45.75) (layer F.CrtYd) (width 0.05))
  (fp_line (start 31.35 45.75) (end 31.35 40.65) (layer F.CrtYd) (width 0.05))
  (fp_line (start 31.35 40.65) (end 26.25 40.65) (layer F.CrtYd) (width 0.05))
  (fp_line (start 26.25 19.05) (end 26.25 45.75) (layer B.CrtYd) (width 0.05))
  (fp_line (start 26.25 45.75) (end 31.35 45.75) (layer B.CrtYd) (width 0.05))
  (fp_line (start 31.35 45.75) (end 31.35 19.05) (layer B.CrtYd) (width 0.05))
  (fp_line (start 31.35 19.05) (end 26.25 19.05) (layer B.CrtYd) (width 0.05))
  (pad 1 thru_hole roundrect (at 0 0) (size 4 4) (drill 3) (layers *.Cu *.Mask) (roundrect_rratio 0.0625))
  (pad 2 thru_hole circle (at 7.2 0) (size 4 4) (drill 3) (layers *.Cu *.Mask))
  (pad 3 thru_hole circle (at 14.4 0) (size 4 4) (drill 3) (layers *.Cu *.Mask))
  (pad 4 thru_hole circle (at 21.6 0) (size 4 4) (drill 3) (layers *.Cu *.Mask))
  (pad 5 thru_hole circle (at 28.8 0) (size 4 4) (drill 3) (layers *.Cu *.Mask))
  (pad "" np_thru_hole circle (at 0 21.6) (size 4.1 4.1) (drill 4.1) (layers *.Cu *.Mask))
  (pad "" np_thru_hole circle (at 0 43.2) (size 4.1 4.1) (drill 4.1) (layers *.Cu *.Mask))
  (pad "" np_thru_hole circle (at 7.2 21.6) (size 4.1 4.1) (drill 4.1) (layers *.Cu *.Mask))
  (pad "" np_thru_hole circle (at 7.2 43.2) (size 4.1 4.1) (drill 4.1) (layers *.Cu *.Mask))
  (pad "" np_thru_hole circle (at 14.4 21.6) (size 4.1 4.1) (drill 4.1) (layers *.Cu *.Mask))
  (pad "" np_thru_hole circle (at 14.4 43.2) (size 4.1 4.1) (drill 4.1) (layers *.Cu *.Mask))
  (pad "" np_thru_hole circle (at 21.6 21.6) (size 4.1 4.1) (drill 4.1) (layers *.Cu *.Mask))
  (pad "" np_thru_hole circle (at 21.6 43.2) (size 4.1 4.1) (drill 4.1) (layers *.Cu *.Mask))
  (pad "" np_thru_hole circle (at 28.8 21.6) (size 4.1 4.1) (drill 4.1) (layers *.Cu *.Mask))
  (pad "" np_thru_hole circle (at 28.8 43.2) (size 4.1 4.1) (drill 4.1) (layers *.Cu *.Mask))
  (fp_text user %R (at 14.4 10.8 90) (layer F.Fab)
    (effects (font (size 1 1) (thickness 0.15)))
  )
  (model ${KICAD6_3DMODEL_DIR}/Connector_Wire.3dshapes/SolderWire-2.5sqmm_1x05_P7.2mm_D2.4mm_OD3.6mm_Relief2x.wrl
    (at (xyz 0 0 0))
    (scale (xyz 1 1 1))
    (rotate (xyz 0 0 0))
  )
)