(module SolderWire-1sqmm_1x06_P5.4mm_D1.4mm_OD2.7mm (layer F.Cu) (tedit 5EB70B43)
  (descr "Soldered wire connection, for 6 times 1 mm² wires, basic insulation, conductor diameter 1.4mm, outer diameter 2.7mm, size source Multi-Contact FLEXI-E 1.0 (https://ec.staubli.com/AcroFiles/Catalogues/TM_Cab-Main-11014119_(en)_hi.pdf), bend radius 3 times outer diameter, generated with kicad-footprint-generator")
  (tags "connector wire 1sqmm")
  (attr virtual)
  (fp_text reference REF** (at 13.5 -2.58) (layer F.SilkS)
    (effects (font (size 1 1) (thickness 0.15)))
  )
  (fp_text value SolderWire-1sqmm_1x06_P5.4mm_D1.4mm_OD2.7mm (at 13.5 2.58) (layer F.Fab)
    (effects (font (size 1 1) (thickness 0.15)))
  )
  (fp_circle (center 0 0) (end 1.35 0) (layer F.Fab) (width 0.1))
  (fp_circle (center 5.4 0) (end 6.75 0) (layer F.Fab) (width 0.1))
  (fp_circle (center 10.8 0) (end 12.15 0) (layer F.Fab) (width 0.1))
  (fp_circle (center 16.2 0) (end 17.55 0) (layer F.Fab) (width 0.1))
  (fp_circle (center 21.6 0) (end 22.95 0) (layer F.Fab) (width 0.1))
  (fp_circle (center 27 0) (end 28.35 0) (layer F.Fab) (width 0.1))
  (fp_line (start -2.1 -1.88) (end -2.1 1.88) (layer F.CrtYd) (width 0.05))
  (fp_line (start -2.1 1.88) (end 2.1 1.88) (layer F.CrtYd) (width 0.05))
  (fp_line (start 2.1 1.88) (end 2.1 -1.88) (layer F.CrtYd) (width 0.05))
  (fp_line (start 2.1 -1.88) (end -2.1 -1.88) (layer F.CrtYd) (width 0.05))
  (fp_line (start 3.3 -1.88) (end 3.3 1.88) (layer F.CrtYd) (width 0.05))
  (fp_line (start 3.3 1.88) (end 7.5 1.88) (layer F.CrtYd) (width 0.05))
  (fp_line (start 7.5 1.88) (end 7.5 -1.88) (layer F.CrtYd) (width 0.05))
  (fp_line (start 7.5 -1.88) (end 3.3 -1.88) (layer F.CrtYd) (width 0.05))
  (fp_line (start 8.7 -1.88) (end 8.7 1.88) (layer F.CrtYd) (width 0.05))
  (fp_line (start 8.7 1.88) (end 12.9 1.88) (layer F.CrtYd) (width 0.05))
  (fp_line (start 12.9 1.88) (end 12.9 -1.88) (layer F.CrtYd) (width 0.05))
  (fp_line (start 12.9 -1.88) (end 8.7 -1.88) (layer F.CrtYd) (width 0.05))
  (fp_line (start 14.1 -1.88) (end 14.1 1.88) (layer F.CrtYd) (width 0.05))
  (fp_line (start 14.1 1.88) (end 18.3 1.88) (layer F.CrtYd) (width 0.05))
  (fp_line (start 18.3 1.88) (end 18.3 -1.88) (layer F.CrtYd) (width 0.05))
  (fp_line (start 18.3 -1.88) (end 14.1 -1.88) (layer F.CrtYd) (width 0.05))
  (fp_line (start 19.5 -1.88) (end 19.5 1.88) (layer F.CrtYd) (width 0.05))
  (fp_line (start 19.5 1.88) (end 23.7 1.88) (layer F.CrtYd) (width 0.05))
  (fp_line (start 23.7 1.88) (end 23.7 -1.88) (layer F.CrtYd) (width 0.05))
  (fp_line (start 23.7 -1.88) (end 19.5 -1.88) (layer F.CrtYd) (width 0.05))
  (fp_line (start 24.9 -1.88) (end 24.9 1.88) (layer F.CrtYd) (width 0.05))
  (fp_line (start 24.9 1.88) (end 29.1 1.88) (layer F.CrtYd) (width 0.05))
  (fp_line (start 29.1 1.88) (end 29.1 -1.88) (layer F.CrtYd) (width 0.05))
  (fp_line (start 29.1 -1.88) (end 24.9 -1.88) (layer F.CrtYd) (width 0.05))
  (pad 1 thru_hole roundrect (at 0 0) (size 2.75 2.75) (drill 1.75) (layers *.Cu *.Mask) (roundrect_rratio 0.090909))
  (pad 2 thru_hole circle (at 5.4 0) (size 2.75 2.75) (drill 1.75) (layers *.Cu *.Mask))
  (pad 3 thru_hole circle (at 10.8 0) (size 2.75 2.75) (drill 1.75) (layers *.Cu *.Mask))
  (pad 4 thru_hole circle (at 16.2 0) (size 2.75 2.75) (drill 1.75) (layers *.Cu *.Mask))
  (pad 5 thru_hole circle (at 21.6 0) (size 2.75 2.75) (drill 1.75) (layers *.Cu *.Mask))
  (pad 6 thru_hole circle (at 27 0) (size 2.75 2.75) (drill 1.75) (layers *.Cu *.Mask))
  (fp_text user %R (at 13.5 0 90) (layer F.Fab)
    (effects (font (size 0.94 0.94) (thickness 0.14)))
  )
  (model ${KICAD6_3DMODEL_DIR}/Connector_Wire.3dshapes/SolderWire-1sqmm_1x06_P5.4mm_D1.4mm_OD2.7mm.wrl
    (at (xyz 0 0 0))
    (scale (xyz 1 1 1))
    (rotate (xyz 0 0 0))
  )
)