(module SolderWire-0.25sqmm_1x06_P4.5mm_D0.65mm_OD2mm_Relief2x (layer F.Cu) (tedit 5EB70B44)
  (descr "Soldered wire connection with double feed through strain relief, for 6 times 0.25 mm² wires, reinforced insulation, conductor diameter 0.65mm, outer diameter 2mm, size source Multi-Contact FLEXI-2V 0.25 (https://ec.staubli.com/AcroFiles/Catalogues/TM_Cab-Main-11014119_(en)_hi.pdf), bend radius 3 times outer diameter, generated with kicad-footprint-generator")
  (tags "connector wire 0.25sqmm double-strain-relief")
  (attr virtual)
  (fp_text reference REF** (at 11.25 -2.2) (layer F.SilkS)
    (effects (font (size 1 1) (thickness 0.15)))
  )
  (fp_text value SolderWire-0.25sqmm_1x06_P4.5mm_D0.65mm_OD2mm_Relief2x (at 11.25 26.45) (layer F.Fab)
    (effects (font (size 1 1) (thickness 0.15)))
  )
  (fp_circle (center 0 0) (end 1 0) (layer F.Fab) (width 0.1))
  (fp_circle (center 0 12) (end 1 12) (layer F.Fab) (width 0.1))
  (fp_circle (center 0 24) (end 1 24) (layer F.Fab) (width 0.1))
  (fp_circle (center 0 12) (end 1 12) (layer B.Fab) (width 0.1))
  (fp_circle (center 0 24) (end 1 24) (layer B.Fab) (width 0.1))
  (fp_circle (center 4.5 0) (end 5.5 0) (layer F.Fab) (width 0.1))
  (fp_circle (center 4.5 12) (end 5.5 12) (layer F.Fab) (width 0.1))
  (fp_circle (center 4.5 24) (end 5.5 24) (layer F.Fab) (width 0.1))
  (fp_circle (center 4.5 12) (end 5.5 12) (layer B.Fab) (width 0.1))
  (fp_circle (center 4.5 24) (end 5.5 24) (layer B.Fab) (width 0.1))
  (fp_circle (center 9 0) (end 10 0) (layer F.Fab) (width 0.1))
  (fp_circle (center 9 12) (end 10 12) (layer F.Fab) (width 0.1))
  (fp_circle (center 9 24) (end 10 24) (layer F.Fab) (width 0.1))
  (fp_circle (center 9 12) (end 10 12) (layer B.Fab) (width 0.1))
  (fp_circle (center 9 24) (end 10 24) (layer B.Fab) (width 0.1))
  (fp_circle (center 13.5 0) (end 14.5 0) (layer F.Fab) (width 0.1))
  (fp_circle (center 13.5 12) (end 14.5 12) (layer F.Fab) (width 0.1))
  (fp_circle (center 13.5 24) (end 14.5 24) (layer F.Fab) (width 0.1))
  (fp_circle (center 13.5 12) (end 14.5 12) (layer B.Fab) (width 0.1))
  (fp_circle (center 13.5 24) (end 14.5 24) (layer B.Fab) (width 0.1))
  (fp_circle (center 18 0) (end 19 0) (layer F.Fab) (width 0.1))
  (fp_circle (center 18 12) (end 19 12) (layer F.Fab) (width 0.1))
  (fp_circle (center 18 24) (end 19 24) (layer F.Fab) (width 0.1))
  (fp_circle (center 18 12) (end 19 12) (layer B.Fab) (width 0.1))
  (fp_circle (center 18 24) (end 19 24) (layer B.Fab) (width 0.1))
  (fp_circle (center 22.5 0) (end 23.5 0) (layer F.Fab) (width 0.1))
  (fp_circle (center 22.5 12) (end 23.5 12) (layer F.Fab) (width 0.1))
  (fp_circle (center 22.5 24) (end 23.5 24) (layer F.Fab) (width 0.1))
  (fp_circle (center 22.5 12) (end 23.5 12) (layer B.Fab) (width 0.1))
  (fp_circle (center 22.5 24) (end 23.5 24) (layer B.Fab) (width 0.1))
  (fp_line (start -1 0) (end -1 12) (layer F.Fab) (width 0.1))
  (fp_line (start 1 0) (end 1 12) (layer F.Fab) (width 0.1))
  (fp_line (start -1 12) (end -1 24) (layer B.Fab) (width 0.1))
  (fp_line (start 1 12) (end 1 24) (layer B.Fab) (width 0.1))
  (fp_line (start 1.11 1.26) (end 1.11 10.89) (layer F.SilkS) (width 0.12))
  (fp_line (start -1.11 1.26) (end -1.11 10.89) (layer F.SilkS) (width 0.12))
  (fp_line (start 1.11 13.11) (end 1.11 22.89) (layer B.SilkS) (width 0.12))
  (fp_line (start -1.11 13.11) (end -1.11 22.89) (layer B.SilkS) (width 0.12))
  (fp_line (start -1.75 -1.5) (end -1.75 13.75) (layer F.CrtYd) (width 0.05))
  (fp_line (start -1.75 13.75) (end 1.75 13.75) (layer F.CrtYd) (width 0.05))
  (fp_line (start 1.75 13.75) (end 1.75 -1.5) (layer F.CrtYd) (width 0.05))
  (fp_line (start 1.75 -1.5) (end -1.75 -1.5) (layer F.CrtYd) (width 0.05))
  (fp_line (start -1.75 22.25) (end -1.75 25.75) (layer F.CrtYd) (width 0.05))
  (fp_line (start -1.75 25.75) (end 1.75 25.75) (layer F.CrtYd) (width 0.05))
  (fp_line (start 1.75 25.75) (end 1.75 22.25) (layer F.CrtYd) (width 0.05))
  (fp_line (start 1.75 22.25) (end -1.75 22.25) (layer F.CrtYd) (width 0.05))
  (fp_line (start -1.75 10.25) (end -1.75 25.75) (layer B.CrtYd) (width 0.05))
  (fp_line (start -1.75 25.75) (end 1.75 25.75) (layer B.CrtYd) (width 0.05))
  (fp_line (start 1.75 25.75) (end 1.75 10.25) (layer B.CrtYd) (width 0.05))
  (fp_line (start 1.75 10.25) (end -1.75 10.25) (layer B.CrtYd) (width 0.05))
  (fp_line (start 3.5 0) (end 3.5 12) (layer F.Fab) (width 0.1))
  (fp_line (start 5.5 0) (end 5.5 12) (layer F.Fab) (width 0.1))
  (fp_line (start 3.5 12) (end 3.5 24) (layer B.Fab) (width 0.1))
  (fp_line (start 5.5 12) (end 5.5 24) (layer B.Fab) (width 0.1))
  (fp_line (start 5.61 1.26) (end 5.61 10.89) (layer F.SilkS) (width 0.12))
  (fp_line (start 3.39 1.26) (end 3.39 10.89) (layer F.SilkS) (width 0.12))
  (fp_line (start 5.61 13.11) (end 5.61 22.89) (layer B.SilkS) (width 0.12))
  (fp_line (start 3.39 13.11) (end 3.39 22.89) (layer B.SilkS) (width 0.12))
  (fp_line (start 2.75 -1.5) (end 2.75 13.75) (layer F.CrtYd) (width 0.05))
  (fp_line (start 2.75 13.75) (end 6.25 13.75) (layer F.CrtYd) (width 0.05))
  (fp_line (start 6.25 13.75) (end 6.25 -1.5) (layer F.CrtYd) (width 0.05))
  (fp_line (start 6.25 -1.5) (end 2.75 -1.5) (layer F.CrtYd) (width 0.05))
  (fp_line (start 2.75 22.25) (end 2.75 25.75) (layer F.CrtYd) (width 0.05))
  (fp_line (start 2.75 25.75) (end 6.25 25.75) (layer F.CrtYd) (width 0.05))
  (fp_line (start 6.25 25.75) (end 6.25 22.25) (layer F.CrtYd) (width 0.05))
  (fp_line (start 6.25 22.25) (end 2.75 22.25) (layer F.CrtYd) (width 0.05))
  (fp_line (start 2.75 10.25) (end 2.75 25.75) (layer B.CrtYd) (width 0.05))
  (fp_line (start 2.75 25.75) (end 6.25 25.75) (layer B.CrtYd) (width 0.05))
  (fp_line (start 6.25 25.75) (end 6.25 10.25) (layer B.CrtYd) (width 0.05))
  (fp_line (start 6.25 10.25) (end 2.75 10.25) (layer B.CrtYd) (width 0.05))
  (fp_line (start 8 0) (end 8 12) (layer F.Fab) (width 0.1))
  (fp_line (start 10 0) (end 10 12) (layer F.Fab) (width 0.1))
  (fp_line (start 8 12) (end 8 24) (layer B.Fab) (width 0.1))
  (fp_line (start 10 12) (end 10 24) (layer B.Fab) (width 0.1))
  (fp_line (start 10.11 1.26) (end 10.11 10.89) (layer F.SilkS) (width 0.12))
  (fp_line (start 7.89 1.26) (end 7.89 10.89) (layer F.SilkS) (width 0.12))
  (fp_line (start 10.11 13.11) (end 10.11 22.89) (layer B.SilkS) (width 0.12))
  (fp_line (start 7.89 13.11) (end 7.89 22.89) (layer B.SilkS) (width 0.12))
  (fp_line (start 7.25 -1.5) (end 7.25 13.75) (layer F.CrtYd) (width 0.05))
  (fp_line (start 7.25 13.75) (end 10.75 13.75) (layer F.CrtYd) (width 0.05))
  (fp_line (start 10.75 13.75) (end 10.75 -1.5) (layer F.CrtYd) (width 0.05))
  (fp_line (start 10.75 -1.5) (end 7.25 -1.5) (layer F.CrtYd) (width 0.05))
  (fp_line (start 7.25 22.25) (end 7.25 25.75) (layer F.CrtYd) (width 0.05))
  (fp_line (start 7.25 25.75) (end 10.75 25.75) (layer F.CrtYd) (width 0.05))
  (fp_line (start 10.75 25.75) (end 10.75 22.25) (layer F.CrtYd) (width 0.05))
  (fp_line (start 10.75 22.25) (end 7.25 22.25) (layer F.CrtYd) (width 0.05))
  (fp_line (start 7.25 10.25) (end 7.25 25.75) (layer B.CrtYd) (width 0.05))
  (fp_line (start 7.25 25.75) (end 10.75 25.75) (layer B.CrtYd) (width 0.05))
  (fp_line (start 10.75 25.75) (end 10.75 10.25) (layer B.CrtYd) (width 0.05))
  (fp_line (start 10.75 10.25) (end 7.25 10.25) (layer B.CrtYd) (width 0.05))
  (fp_line (start 12.5 0) (end 12.5 12) (layer F.Fab) (width 0.1))
  (fp_line (start 14.5 0) (end 14.5 12) (layer F.Fab) (width 0.1))
  (fp_line (start 12.5 12) (end 12.5 24) (layer B.Fab) (width 0.1))
  (fp_line (start 14.5 12) (end 14.5 24) (layer B.Fab) (width 0.1))
  (fp_line (start 14.61 1.26) (end 14.61 10.89) (layer F.SilkS) (width 0.12))
  (fp_line (start 12.39 1.26) (end 12.39 10.89) (layer F.SilkS) (width 0.12))
  (fp_line (start 14.61 13.11) (end 14.61 22.89) (layer B.SilkS) (width 0.12))
  (fp_line (start 12.39 13.11) (end 12.39 22.89) (layer B.SilkS) (width 0.12))
  (fp_line (start 11.75 -1.5) (end 11.75 13.75) (layer F.CrtYd) (width 0.05))
  (fp_line (start 11.75 13.75) (end 15.25 13.75) (layer F.CrtYd) (width 0.05))
  (fp_line (start 15.25 13.75) (end 15.25 -1.5) (layer F.CrtYd) (width 0.05))
  (fp_line (start 15.25 -1.5) (end 11.75 -1.5) (layer F.CrtYd) (width 0.05))
  (fp_line (start 11.75 22.25) (end 11.75 25.75) (layer F.CrtYd) (width 0.05))
  (fp_line (start 11.75 25.75) (end 15.25 25.75) (layer F.CrtYd) (width 0.05))
  (fp_line (start 15.25 25.75) (end 15.25 22.25) (layer F.CrtYd) (width 0.05))
  (fp_line (start 15.25 22.25) (end 11.75 22.25) (layer F.CrtYd) (width 0.05))
  (fp_line (start 11.75 10.25) (end 11.75 25.75) (layer B.CrtYd) (width 0.05))
  (fp_line (start 11.75 25.75) (end 15.25 25.75) (layer B.CrtYd) (width 0.05))
  (fp_line (start 15.25 25.75) (end 15.25 10.25) (layer B.CrtYd) (width 0.05))
  (fp_line (start 15.25 10.25) (end 11.75 10.25) (layer B.CrtYd) (width 0.05))
  (fp_line (start 17 0) (end 17 12) (layer F.Fab) (width 0.1))
  (fp_line (start 19 0) (end 19 12) (layer F.Fab) (width 0.1))
  (fp_line (start 17 12) (end 17 24) (layer B.Fab) (width 0.1))
  (fp_line (start 19 12) (end 19 24) (layer B.Fab) (width 0.1))
  (fp_line (start 19.11 1.26) (end 19.11 10.89) (layer F.SilkS) (width 0.12))
  (fp_line (start 16.89 1.26) (end 16.89 10.89) (layer F.SilkS) (width 0.12))
  (fp_line (start 19.11 13.11) (end 19.11 22.89) (layer B.SilkS) (width 0.12))
  (fp_line (start 16.89 13.11) (end 16.89 22.89) (layer B.SilkS) (width 0.12))
  (fp_line (start 16.25 -1.5) (end 16.25 13.75) (layer F.CrtYd) (width 0.05))
  (fp_line (start 16.25 13.75) (end 19.75 13.75) (layer F.CrtYd) (width 0.05))
  (fp_line (start 19.75 13.75) (end 19.75 -1.5) (layer F.CrtYd) (width 0.05))
  (fp_line (start 19.75 -1.5) (end 16.25 -1.5) (layer F.CrtYd) (width 0.05))
  (fp_line (start 16.25 22.25) (end 16.25 25.75) (layer F.CrtYd) (width 0.05))
  (fp_line (start 16.25 25.75) (end 19.75 25.75) (layer F.CrtYd) (width 0.05))
  (fp_line (start 19.75 25.75) (end 19.75 22.25) (layer F.CrtYd) (width 0.05))
  (fp_line (start 19.75 22.25) (end 16.25 22.25) (layer F.CrtYd) (width 0.05))
  (fp_line (start 16.25 10.25) (end 16.25 25.75) (layer B.CrtYd) (width 0.05))
  (fp_line (start 16.25 25.75) (end 19.75 25.75) (layer B.CrtYd) (width 0.05))
  (fp_line (start 19.75 25.75) (end 19.75 10.25) (layer B.CrtYd) (width 0.05))
  (fp_line (start 19.75 10.25) (end 16.25 10.25) (layer B.CrtYd) (width 0.05))
  (fp_line (start 21.5 0) (end 21.5 12) (layer F.Fab) (width 0.1))
  (fp_line (start 23.5 0) (end 23.5 12) (layer F.Fab) (width 0.1))
  (fp_line (start 21.5 12) (end 21.5 24) (layer B.Fab) (width 0.1))
  (fp_line (start 23.5 12) (end 23.5 24) (layer B.Fab) (width 0.1))
  (fp_line (start 23.61 1.26) (end 23.61 10.89) (layer F.SilkS) (width 0.12))
  (fp_line (start 21.39 1.26) (end 21.39 10.89) (layer F.SilkS) (width 0.12))
  (fp_line (start 23.61 13.11) (end 23.61 22.89) (layer B.SilkS) (width 0.12))
  (fp_line (start 21.39 13.11) (end 21.39 22.89) (layer B.SilkS) (width 0.12))
  (fp_line (start 20.75 -1.5) (end 20.75 13.75) (layer F.CrtYd) (width 0.05))
  (fp_line (start 20.75 13.75) (end 24.25 13.75) (layer F.CrtYd) (width 0.05))
  (fp_line (start 24.25 13.75) (end 24.25 -1.5) (layer F.CrtYd) (width 0.05))
  (fp_line (start 24.25 -1.5) (end 20.75 -1.5) (layer F.CrtYd) (width 0.05))
  (fp_line (start 20.75 22.25) (end 20.75 25.75) (layer F.CrtYd) (width 0.05))
  (fp_line (start 20.75 25.75) (end 24.25 25.75) (layer F.CrtYd) (width 0.05))
  (fp_line (start 24.25 25.75) (end 24.25 22.25) (layer F.CrtYd) (width 0.05))
  (fp_line (start 24.25 22.25) (end 20.75 22.25) (layer F.CrtYd) (width 0.05))
  (fp_line (start 20.75 10.25) (end 20.75 25.75) (layer B.CrtYd) (width 0.05))
  (fp_line (start 20.75 25.75) (end 24.25 25.75) (layer B.CrtYd) (width 0.05))
  (fp_line (start 24.25 25.75) (end 24.25 10.25) (layer B.CrtYd) (width 0.05))
  (fp_line (start 24.25 10.25) (end 20.75 10.25) (layer B.CrtYd) (width 0.05))
  (pad 1 thru_hole roundrect (at 0 0) (size 2 2) (drill 0.85) (layers *.Cu *.Mask) (roundrect_rratio 0.125))
  (pad 2 thru_hole circle (at 4.5 0) (size 2 2) (drill 0.85) (layers *.Cu *.Mask))
  (pad 3 thru_hole circle (at 9 0) (size 2 2) (drill 0.85) (layers *.Cu *.Mask))
  (pad 4 thru_hole circle (at 13.5 0) (size 2 2) (drill 0.85) (layers *.Cu *.Mask))
  (pad 5 thru_hole circle (at 18 0) (size 2 2) (drill 0.85) (layers *.Cu *.Mask))
  (pad 6 thru_hole circle (at 22.5 0) (size 2 2) (drill 0.85) (layers *.Cu *.Mask))
  (pad "" np_thru_hole circle (at 0 12) (size 2.5 2.5) (drill 2.5) (layers *.Cu *.Mask))
  (pad "" np_thru_hole circle (at 0 24) (size 2.5 2.5) (drill 2.5) (layers *.Cu *.Mask))
  (pad "" np_thru_hole circle (at 4.5 12) (size 2.5 2.5) (drill 2.5) (layers *.Cu *.Mask))
  (pad "" np_thru_hole circle (at 4.5 24) (size 2.5 2.5) (drill 2.5) (layers *.Cu *.Mask))
  (pad "" np_thru_hole circle (at 9 12) (size 2.5 2.5) (drill 2.5) (layers *.Cu *.Mask))
  (pad "" np_thru_hole circle (at 9 24) (size 2.5 2.5) (drill 2.5) (layers *.Cu *.Mask))
  (pad "" np_thru_hole circle (at 13.5 12) (size 2.5 2.5) (drill 2.5) (layers *.Cu *.Mask))
  (pad "" np_thru_hole circle (at 13.5 24) (size 2.5 2.5) (drill 2.5) (layers *.Cu *.Mask))
  (pad "" np_thru_hole circle (at 18 12) (size 2.5 2.5) (drill 2.5) (layers *.Cu *.Mask))
  (pad "" np_thru_hole circle (at 18 24) (size 2.5 2.5) (drill 2.5) (layers *.Cu *.Mask))
  (pad "" np_thru_hole circle (at 22.5 12) (size 2.5 2.5) (drill 2.5) (layers *.Cu *.Mask))
  (pad "" np_thru_hole circle (at 22.5 24) (size 2.5 2.5) (drill 2.5) (layers *.Cu *.Mask))
  (fp_text user %R (at 11.25 6 90) (layer F.Fab)
    (effects (font (size 1 1) (thickness 0.15)))
  )
  (model ${KICAD6_3DMODEL_DIR}/Connector_Wire.3dshapes/SolderWire-0.25sqmm_1x06_P4.5mm_D0.65mm_OD2mm_Relief2x.wrl
    (at (xyz 0 0 0))
    (scale (xyz 1 1 1))
    (rotate (xyz 0 0 0))
  )
)