(module SolderWire-1sqmm_1x05_P7.8mm_D1.4mm_OD3.9mm_Relief (layer F.Cu) (tedit 5EB70B44)
  (descr "Soldered wire connection with feed through strain relief, for 5 times 1 mm² wires, reinforced insulation, conductor diameter 1.4mm, outer diameter 3.9mm, size source Multi-Contact FLEXI-xV 1.0 (https://ec.staubli.com/AcroFiles/Catalogues/TM_Cab-Main-11014119_(en)_hi.pdf), bend radius 3 times outer diameter, generated with kicad-footprint-generator")
  (tags "connector wire 1sqmm strain-relief")
  (attr virtual)
  (fp_text reference REF** (at 15.6 -3.15) (layer F.SilkS)
    (effects (font (size 1 1) (thickness 0.15)))
  )
  (fp_text value SolderWire-1sqmm_1x05_P7.8mm_D1.4mm_OD3.9mm_Relief (at 15.6 26.8) (layer F.Fab)
    (effects (font (size 1 1) (thickness 0.15)))
  )
  (fp_circle (center 0 0) (end 1.95 0) (layer F.Fab) (width 0.1))
  (fp_circle (center 0 23.4) (end 1.95 23.4) (layer F.Fab) (width 0.1))
  (fp_circle (center 7.8 0) (end 9.75 0) (layer F.Fab) (width 0.1))
  (fp_circle (center 7.8 23.4) (end 9.75 23.4) (layer F.Fab) (width 0.1))
  (fp_circle (center 15.6 0) (end 17.55 0) (layer F.Fab) (width 0.1))
  (fp_circle (center 15.6 23.4) (end 17.55 23.4) (layer F.Fab) (width 0.1))
  (fp_circle (center 23.4 0) (end 25.35 0) (layer F.Fab) (width 0.1))
  (fp_circle (center 23.4 23.4) (end 25.35 23.4) (layer F.Fab) (width 0.1))
  (fp_circle (center 31.2 0) (end 33.15 0) (layer F.Fab) (width 0.1))
  (fp_circle (center 31.2 23.4) (end 33.15 23.4) (layer F.Fab) (width 0.1))
  (fp_line (start -1.95 0) (end -1.95 23.4) (layer F.Fab) (width 0.1))
  (fp_line (start 1.95 0) (end 1.95 23.4) (layer F.Fab) (width 0.1))
  (fp_line (start 2.06 2.21) (end 2.06 21.34) (layer F.SilkS) (width 0.12))
  (fp_line (start -2.06 2.21) (end -2.06 21.34) (layer F.SilkS) (width 0.12))
  (fp_line (start -2.7 -2.45) (end -2.7 26.1) (layer F.CrtYd) (width 0.05))
  (fp_line (start -2.7 26.1) (end 2.7 26.1) (layer F.CrtYd) (width 0.05))
  (fp_line (start 2.7 26.1) (end 2.7 -2.45) (layer F.CrtYd) (width 0.05))
  (fp_line (start 2.7 -2.45) (end -2.7 -2.45) (layer F.CrtYd) (width 0.05))
  (fp_line (start -2.7 20.7) (end -2.7 26.1) (layer B.CrtYd) (width 0.05))
  (fp_line (start -2.7 26.1) (end 2.7 26.1) (layer B.CrtYd) (width 0.05))
  (fp_line (start 2.7 26.1) (end 2.7 20.7) (layer B.CrtYd) (width 0.05))
  (fp_line (start 2.7 20.7) (end -2.7 20.7) (layer B.CrtYd) (width 0.05))
  (fp_line (start 5.85 0) (end 5.85 23.4) (layer F.Fab) (width 0.1))
  (fp_line (start 9.75 0) (end 9.75 23.4) (layer F.Fab) (width 0.1))
  (fp_line (start 9.86 2.21) (end 9.86 21.34) (layer F.SilkS) (width 0.12))
  (fp_line (start 5.74 2.21) (end 5.74 21.34) (layer F.SilkS) (width 0.12))
  (fp_line (start 5.1 -2.45) (end 5.1 26.1) (layer F.CrtYd) (width 0.05))
  (fp_line (start 5.1 26.1) (end 10.5 26.1) (layer F.CrtYd) (width 0.05))
  (fp_line (start 10.5 26.1) (end 10.5 -2.45) (layer F.CrtYd) (width 0.05))
  (fp_line (start 10.5 -2.45) (end 5.1 -2.45) (layer F.CrtYd) (width 0.05))
  (fp_line (start 5.1 20.7) (end 5.1 26.1) (layer B.CrtYd) (width 0.05))
  (fp_line (start 5.1 26.1) (end 10.5 26.1) (layer B.CrtYd) (width 0.05))
  (fp_line (start 10.5 26.1) (end 10.5 20.7) (layer B.CrtYd) (width 0.05))
  (fp_line (start 10.5 20.7) (end 5.1 20.7) (layer B.CrtYd) (width 0.05))
  (fp_line (start 13.65 0) (end 13.65 23.4) (layer F.Fab) (width 0.1))
  (fp_line (start 17.55 0) (end 17.55 23.4) (layer F.Fab) (width 0.1))
  (fp_line (start 17.66 2.21) (end 17.66 21.34) (layer F.SilkS) (width 0.12))
  (fp_line (start 13.54 2.21) (end 13.54 21.34) (layer F.SilkS) (width 0.12))
  (fp_line (start 12.9 -2.45) (end 12.9 26.1) (layer F.CrtYd) (width 0.05))
  (fp_line (start 12.9 26.1) (end 18.3 26.1) (layer F.CrtYd) (width 0.05))
  (fp_line (start 18.3 26.1) (end 18.3 -2.45) (layer F.CrtYd) (width 0.05))
  (fp_line (start 18.3 -2.45) (end 12.9 -2.45) (layer F.CrtYd) (width 0.05))
  (fp_line (start 12.9 20.7) (end 12.9 26.1) (layer B.CrtYd) (width 0.05))
  (fp_line (start 12.9 26.1) (end 18.3 26.1) (layer B.CrtYd) (width 0.05))
  (fp_line (start 18.3 26.1) (end 18.3 20.7) (layer B.CrtYd) (width 0.05))
  (fp_line (start 18.3 20.7) (end 12.9 20.7) (layer B.CrtYd) (width 0.05))
  (fp_line (start 21.45 0) (end 21.45 23.4) (layer F.Fab) (width 0.1))
  (fp_line (start 25.35 0) (end 25.35 23.4) (layer F.Fab) (width 0.1))
  (fp_line (start 25.46 2.21) (end 25.46 21.34) (layer F.SilkS) (width 0.12))
  (fp_line (start 21.34 2.21) (end 21.34 21.34) (layer F.SilkS) (width 0.12))
  (fp_line (start 20.7 -2.45) (end 20.7 26.1) (layer F.CrtYd) (width 0.05))
  (fp_line (start 20.7 26.1) (end 26.1 26.1) (layer F.CrtYd) (width 0.05))
  (fp_line (start 26.1 26.1) (end 26.1 -2.45) (layer F.CrtYd) (width 0.05))
  (fp_line (start 26.1 -2.45) (end 20.7 -2.45) (layer F.CrtYd) (width 0.05))
  (fp_line (start 20.7 20.7) (end 20.7 26.1) (layer B.CrtYd) (width 0.05))
  (fp_line (start 20.7 26.1) (end 26.1 26.1) (layer B.CrtYd) (width 0.05))
  (fp_line (start 26.1 26.1) (end 26.1 20.7) (layer B.CrtYd) (width 0.05))
  (fp_line (start 26.1 20.7) (end 20.7 20.7) (layer B.CrtYd) (width 0.05))
  (fp_line (start 29.25 0) (end 29.25 23.4) (layer F.Fab) (width 0.1))
  (fp_line (start 33.15 0) (end 33.15 23.4) (layer F.Fab) (width 0.1))
  (fp_line (start 33.26 2.21) (end 33.26 21.34) (layer F.SilkS) (width 0.12))
  (fp_line (start 29.14 2.21) (end 29.14 21.34) (layer F.SilkS) (width 0.12))
  (fp_line (start 28.5 -2.45) (end 28.5 26.1) (layer F.CrtYd) (width 0.05))
  (fp_line (start 28.5 26.1) (end 33.9 26.1) (layer F.CrtYd) (width 0.05))
  (fp_line (start 33.9 26.1) (end 33.9 -2.45) (layer F.CrtYd) (width 0.05))
  (fp_line (start 33.9 -2.45) (end 28.5 -2.45) (layer F.CrtYd) (width 0.05))
  (fp_line (start 28.5 20.7) (end 28.5 26.1) (layer B.CrtYd) (width 0.05))
  (fp_line (start 28.5 26.1) (end 33.9 26.1) (layer B.CrtYd) (width 0.05))
  (fp_line (start 33.9 26.1) (end 33.9 20.7) (layer B.CrtYd) (width 0.05))
  (fp_line (start 33.9 20.7) (end 28.5 20.7) (layer B.CrtYd) (width 0.05))
  (pad 1 thru_hole roundrect (at 0 0) (size 3.9 3.9) (drill 1.75) (layers *.Cu *.Mask) (roundrect_rratio 0.064103))
  (pad 2 thru_hole circle (at 7.8 0) (size 3.9 3.9) (drill 1.75) (layers *.Cu *.Mask))
  (pad 3 thru_hole circle (at 15.6 0) (size 3.9 3.9) (drill 1.75) (layers *.Cu *.Mask))
  (pad 4 thru_hole circle (at 23.4 0) (size 3.9 3.9) (drill 1.75) (layers *.Cu *.Mask))
  (pad 5 thru_hole circle (at 31.2 0) (size 3.9 3.9) (drill 1.75) (layers *.Cu *.Mask))
  (pad "" np_thru_hole circle (at 0 23.4) (size 4.4 4.4) (drill 4.4) (layers *.Cu *.Mask))
  (pad "" np_thru_hole circle (at 7.8 23.4) (size 4.4 4.4) (drill 4.4) (layers *.Cu *.Mask))
  (pad "" np_thru_hole circle (at 15.6 23.4) (size 4.4 4.4) (drill 4.4) (layers *.Cu *.Mask))
  (pad "" np_thru_hole circle (at 23.4 23.4) (size 4.4 4.4) (drill 4.4) (layers *.Cu *.Mask))
  (pad "" np_thru_hole circle (at 31.2 23.4) (size 4.4 4.4) (drill 4.4) (layers *.Cu *.Mask))
  (fp_text user %R (at 15.6 11.7 90) (layer F.Fab)
    (effects (font (size 1 1) (thickness 0.15)))
  )
  (model ${KICAD6_3DMODEL_DIR}/Connector_Wire.3dshapes/SolderWire-1sqmm_1x05_P7.8mm_D1.4mm_OD3.9mm_Relief.wrl
    (at (xyz 0 0 0))
    (scale (xyz 1 1 1))
    (rotate (xyz 0 0 0))
  )
)