(module SolderWire-0.1sqmm_1x01_D0.4mm_OD1mm_Relief2x (layer F.Cu) (tedit 5EB70B42)
  (descr "Soldered wire connection with double feed through strain relief, for a single 0.1 mm² wire, basic insulation, conductor diameter 0.4mm, outer diameter 1mm, size source Multi-Contact FLEXI-E 0.1 (https://ec.staubli.com/AcroFiles/Catalogues/TM_Cab-Main-11014119_(en)_hi.pdf), bend radius 3 times outer diameter, generated with kicad-footprint-generator")
  (tags "connector wire 0.1sqmm double-strain-relief")
  (attr virtual)
  (fp_text reference REF** (at 0 -2) (layer F.SilkS)
    (effects (font (size 1 1) (thickness 0.15)))
  )
  (fp_text value SolderWire-0.1sqmm_1x01_D0.4mm_OD1mm_Relief2x (at 0 13.95) (layer F.Fab)
    (effects (font (size 1 1) (thickness 0.15)))
  )
  (fp_circle (center 0 0) (end 0.5 0) (layer F.Fab) (width 0.1))
  (fp_circle (center 0 6) (end 0.5 6) (layer F.Fab) (width 0.1))
  (fp_circle (center 0 12) (end 0.5 12) (layer F.Fab) (width 0.1))
  (fp_circle (center 0 6) (end 0.5 6) (layer B.Fab) (width 0.1))
  (fp_circle (center 0 12) (end 0.5 12) (layer B.Fab) (width 0.1))
  (fp_line (start -0.5 0) (end -0.5 6) (layer F.Fab) (width 0.1))
  (fp_line (start 0.5 0) (end 0.5 6) (layer F.Fab) (width 0.1))
  (fp_line (start -0.5 6) (end -0.5 12) (layer B.Fab) (width 0.1))
  (fp_line (start 0.5 6) (end 0.5 12) (layer B.Fab) (width 0.1))
  (fp_line (start 0.61 1.06) (end 0.61 5.39) (layer F.SilkS) (width 0.12))
  (fp_line (start -0.61 1.06) (end -0.61 5.39) (layer F.SilkS) (width 0.12))
  (fp_line (start 0.61 6.61) (end 0.61 11.39) (layer B.SilkS) (width 0.12))
  (fp_line (start -0.61 6.61) (end -0.61 11.39) (layer B.SilkS) (width 0.12))
  (fp_line (start -1.3 -1.3) (end -1.3 7.25) (layer F.CrtYd) (width 0.05))
  (fp_line (start -1.3 7.25) (end 1.3 7.25) (layer F.CrtYd) (width 0.05))
  (fp_line (start 1.3 7.25) (end 1.3 -1.3) (layer F.CrtYd) (width 0.05))
  (fp_line (start 1.3 -1.3) (end -1.3 -1.3) (layer F.CrtYd) (width 0.05))
  (fp_line (start -1.3 10.75) (end -1.3 13.25) (layer F.CrtYd) (width 0.05))
  (fp_line (start -1.3 13.25) (end 1.3 13.25) (layer F.CrtYd) (width 0.05))
  (fp_line (start 1.3 13.25) (end 1.3 10.75) (layer F.CrtYd) (width 0.05))
  (fp_line (start 1.3 10.75) (end -1.3 10.75) (layer F.CrtYd) (width 0.05))
  (fp_line (start -1.3 4.75) (end -1.3 13.25) (layer B.CrtYd) (width 0.05))
  (fp_line (start -1.3 13.25) (end 1.3 13.25) (layer B.CrtYd) (width 0.05))
  (fp_line (start 1.3 13.25) (end 1.3 4.75) (layer B.CrtYd) (width 0.05))
  (fp_line (start 1.3 4.75) (end -1.3 4.75) (layer B.CrtYd) (width 0.05))
  (pad 1 thru_hole roundrect (at 0 0) (size 1.6 1.6) (drill 0.6) (layers *.Cu *.Mask) (roundrect_rratio 0.15625))
  (pad "" np_thru_hole circle (at 0 6) (size 1.5 1.5) (drill 1.5) (layers *.Cu *.Mask))
  (pad "" np_thru_hole circle (at 0 12) (size 1.5 1.5) (drill 1.5) (layers *.Cu *.Mask))
  (fp_text user %R (at 0 3 90) (layer F.Fab)
    (effects (font (size 0.8 0.8) (thickness 0.12)))
  )
  (model ${KICAD6_3DMODEL_DIR}/Connector_Wire.3dshapes/SolderWire-0.1sqmm_1x01_D0.4mm_OD1mm_Relief2x.wrl
    (at (xyz 0 0 0))
    (scale (xyz 1 1 1))
    (rotate (xyz 0 0 0))
  )
)