(module SolderWire-0.1sqmm_1x03_P3.6mm_D0.4mm_OD1mm (layer F.Cu) (tedit 5EB70B42)
  (descr "Soldered wire connection, for 3 times 0.1 mm² wires, basic insulation, conductor diameter 0.4mm, outer diameter 1mm, size source Multi-Contact FLEXI-E 0.1 (https://ec.staubli.com/AcroFiles/Catalogues/TM_Cab-Main-11014119_(en)_hi.pdf), bend radius 3 times outer diameter, generated with kicad-footprint-generator")
  (tags "connector wire 0.1sqmm")
  (attr virtual)
  (fp_text reference REF** (at 3.6 -2) (layer F.SilkS)
    (effects (font (size 1 1) (thickness 0.15)))
  )
  (fp_text value SolderWire-0.1sqmm_1x03_P3.6mm_D0.4mm_OD1mm (at 3.6 2) (layer F.Fab)
    (effects (font (size 1 1) (thickness 0.15)))
  )
  (fp_circle (center 0 0) (end 0.5 0) (layer F.Fab) (width 0.1))
  (fp_circle (center 3.6 0) (end 4.1 0) (layer F.Fab) (width 0.1))
  (fp_circle (center 7.2 0) (end 7.7 0) (layer F.Fab) (width 0.1))
  (fp_line (start -1.3 -1.3) (end -1.3 1.3) (layer F.CrtYd) (width 0.05))
  (fp_line (start -1.3 1.3) (end 1.3 1.3) (layer F.CrtYd) (width 0.05))
  (fp_line (start 1.3 1.3) (end 1.3 -1.3) (layer F.CrtYd) (width 0.05))
  (fp_line (start 1.3 -1.3) (end -1.3 -1.3) (layer F.CrtYd) (width 0.05))
  (fp_line (start 2.3 -1.3) (end 2.3 1.3) (layer F.CrtYd) (width 0.05))
  (fp_line (start 2.3 1.3) (end 4.9 1.3) (layer F.CrtYd) (width 0.05))
  (fp_line (start 4.9 1.3) (end 4.9 -1.3) (layer F.CrtYd) (width 0.05))
  (fp_line (start 4.9 -1.3) (end 2.3 -1.3) (layer F.CrtYd) (width 0.05))
  (fp_line (start 5.9 -1.3) (end 5.9 1.3) (layer F.CrtYd) (width 0.05))
  (fp_line (start 5.9 1.3) (end 8.5 1.3) (layer F.CrtYd) (width 0.05))
  (fp_line (start 8.5 1.3) (end 8.5 -1.3) (layer F.CrtYd) (width 0.05))
  (fp_line (start 8.5 -1.3) (end 5.9 -1.3) (layer F.CrtYd) (width 0.05))
  (pad 1 thru_hole roundrect (at 0 0) (size 1.6 1.6) (drill 0.6) (layers *.Cu *.Mask) (roundrect_rratio 0.15625))
  (pad 2 thru_hole circle (at 3.6 0) (size 1.6 1.6) (drill 0.6) (layers *.Cu *.Mask))
  (pad 3 thru_hole circle (at 7.2 0) (size 1.6 1.6) (drill 0.6) (layers *.Cu *.Mask))
  (fp_text user %R (at 3.6 0 90) (layer F.Fab)
    (effects (font (size 0.25 0.25) (thickness 0.04)))
  )
  (model ${KICAD6_3DMODEL_DIR}/Connector_Wire.3dshapes/SolderWire-0.1sqmm_1x03_P3.6mm_D0.4mm_OD1mm.wrl
    (at (xyz 0 0 0))
    (scale (xyz 1 1 1))
    (rotate (xyz 0 0 0))
  )
)