(module SolderWire-0.25sqmm_1x03_P4.2mm_D0.65mm_OD1.7mm_Relief (layer F.Cu) (tedit 5EB70B43)
  (descr "Soldered wire connection with feed through strain relief, for 3 times 0.25 mm² wires, basic insulation, conductor diameter 0.65mm, outer diameter 1.7mm, size source Multi-Contact FLEXI-E_0.25 (https://ec.staubli.com/AcroFiles/Catalogues/TM_Cab-Main-11014119_(en)_hi.pdf), bend radius 3 times outer diameter, generated with kicad-footprint-generator")
  (tags "connector wire 0.25sqmm strain-relief")
  (attr virtual)
  (fp_text reference REF** (at 4.2 -2.12) (layer F.SilkS)
    (effects (font (size 1 1) (thickness 0.15)))
  )
  (fp_text value SolderWire-0.25sqmm_1x03_P4.2mm_D0.65mm_OD1.7mm_Relief (at 4.2 12.5) (layer F.Fab)
    (effects (font (size 1 1) (thickness 0.15)))
  )
  (fp_circle (center 0 0) (end 0.85 0) (layer F.Fab) (width 0.1))
  (fp_circle (center 0 10.2) (end 0.85 10.2) (layer F.Fab) (width 0.1))
  (fp_circle (center 4.2 0) (end 5.05 0) (layer F.Fab) (width 0.1))
  (fp_circle (center 4.2 10.2) (end 5.05 10.2) (layer F.Fab) (width 0.1))
  (fp_circle (center 8.4 0) (end 9.25 0) (layer F.Fab) (width 0.1))
  (fp_circle (center 8.4 10.2) (end 9.25 10.2) (layer F.Fab) (width 0.1))
  (fp_line (start -0.85 0) (end -0.85 10.2) (layer F.Fab) (width 0.1))
  (fp_line (start 0.85 0) (end 0.85 10.2) (layer F.Fab) (width 0.1))
  (fp_line (start 0.96 1.185) (end 0.96 9.24) (layer F.SilkS) (width 0.12))
  (fp_line (start -0.96 1.185) (end -0.96 9.24) (layer F.SilkS) (width 0.12))
  (fp_line (start -1.6 -1.42) (end -1.6 11.8) (layer F.CrtYd) (width 0.05))
  (fp_line (start -1.6 11.8) (end 1.6 11.8) (layer F.CrtYd) (width 0.05))
  (fp_line (start 1.6 11.8) (end 1.6 -1.42) (layer F.CrtYd) (width 0.05))
  (fp_line (start 1.6 -1.42) (end -1.6 -1.42) (layer F.CrtYd) (width 0.05))
  (fp_line (start -1.6 8.6) (end -1.6 11.8) (layer B.CrtYd) (width 0.05))
  (fp_line (start -1.6 11.8) (end 1.6 11.8) (layer B.CrtYd) (width 0.05))
  (fp_line (start 1.6 11.8) (end 1.6 8.6) (layer B.CrtYd) (width 0.05))
  (fp_line (start 1.6 8.6) (end -1.6 8.6) (layer B.CrtYd) (width 0.05))
  (fp_line (start 3.35 0) (end 3.35 10.2) (layer F.Fab) (width 0.1))
  (fp_line (start 5.05 0) (end 5.05 10.2) (layer F.Fab) (width 0.1))
  (fp_line (start 5.16 1.185) (end 5.16 9.24) (layer F.SilkS) (width 0.12))
  (fp_line (start 3.24 1.185) (end 3.24 9.24) (layer F.SilkS) (width 0.12))
  (fp_line (start 2.6 -1.42) (end 2.6 11.8) (layer F.CrtYd) (width 0.05))
  (fp_line (start 2.6 11.8) (end 5.8 11.8) (layer F.CrtYd) (width 0.05))
  (fp_line (start 5.8 11.8) (end 5.8 -1.42) (layer F.CrtYd) (width 0.05))
  (fp_line (start 5.8 -1.42) (end 2.6 -1.42) (layer F.CrtYd) (width 0.05))
  (fp_line (start 2.6 8.6) (end 2.6 11.8) (layer B.CrtYd) (width 0.05))
  (fp_line (start 2.6 11.8) (end 5.8 11.8) (layer B.CrtYd) (width 0.05))
  (fp_line (start 5.8 11.8) (end 5.8 8.6) (layer B.CrtYd) (width 0.05))
  (fp_line (start 5.8 8.6) (end 2.6 8.6) (layer B.CrtYd) (width 0.05))
  (fp_line (start 7.55 0) (end 7.55 10.2) (layer F.Fab) (width 0.1))
  (fp_line (start 9.25 0) (end 9.25 10.2) (layer F.Fab) (width 0.1))
  (fp_line (start 9.36 1.185) (end 9.36 9.24) (layer F.SilkS) (width 0.12))
  (fp_line (start 7.44 1.185) (end 7.44 9.24) (layer F.SilkS) (width 0.12))
  (fp_line (start 6.8 -1.42) (end 6.8 11.8) (layer F.CrtYd) (width 0.05))
  (fp_line (start 6.8 11.8) (end 10 11.8) (layer F.CrtYd) (width 0.05))
  (fp_line (start 10 11.8) (end 10 -1.42) (layer F.CrtYd) (width 0.05))
  (fp_line (start 10 -1.42) (end 6.8 -1.42) (layer F.CrtYd) (width 0.05))
  (fp_line (start 6.8 8.6) (end 6.8 11.8) (layer B.CrtYd) (width 0.05))
  (fp_line (start 6.8 11.8) (end 10 11.8) (layer B.CrtYd) (width 0.05))
  (fp_line (start 10 11.8) (end 10 8.6) (layer B.CrtYd) (width 0.05))
  (fp_line (start 10 8.6) (end 6.8 8.6) (layer B.CrtYd) (width 0.05))
  (pad 1 thru_hole roundrect (at 0 0) (size 1.85 1.85) (drill 0.85) (layers *.Cu *.Mask) (roundrect_rratio 0.135135))
  (pad 2 thru_hole circle (at 4.2 0) (size 1.85 1.85) (drill 0.85) (layers *.Cu *.Mask))
  (pad 3 thru_hole circle (at 8.4 0) (size 1.85 1.85) (drill 0.85) (layers *.Cu *.Mask))
  (pad "" np_thru_hole circle (at 0 10.2) (size 2.2 2.2) (drill 2.2) (layers *.Cu *.Mask))
  (pad "" np_thru_hole circle (at 4.2 10.2) (size 2.2 2.2) (drill 2.2) (layers *.Cu *.Mask))
  (pad "" np_thru_hole circle (at 8.4 10.2) (size 2.2 2.2) (drill 2.2) (layers *.Cu *.Mask))
  (fp_text user %R (at 4.2 5.1 90) (layer F.Fab)
    (effects (font (size 1 1) (thickness 0.15)))
  )
  (model ${KICAD6_3DMODEL_DIR}/Connector_Wire.3dshapes/SolderWire-0.25sqmm_1x03_P4.2mm_D0.65mm_OD1.7mm_Relief.wrl
    (at (xyz 0 0 0))
    (scale (xyz 1 1 1))
    (rotate (xyz 0 0 0))
  )
)