(module SolderWire-0.25sqmm_1x02_P4.2mm_D0.65mm_OD1.7mm (layer F.Cu) (tedit 5EB70B43)
  (descr "Soldered wire connection, for 2 times 0.25 mm² wires, basic insulation, conductor diameter 0.65mm, outer diameter 1.7mm, size source Multi-Contact FLEXI-E_0.25 (https://ec.staubli.com/AcroFiles/Catalogues/TM_Cab-Main-11014119_(en)_hi.pdf), bend radius 3 times outer diameter, generated with kicad-footprint-generator")
  (tags "connector wire 0.25sqmm")
  (attr virtual)
  (fp_text reference REF** (at 2.1 -2.12) (layer F.SilkS)
    (effects (font (size 1 1) (thickness 0.15)))
  )
  (fp_text value SolderWire-0.25sqmm_1x02_P4.2mm_D0.65mm_OD1.7mm (at 2.1 2.12) (layer F.Fab)
    (effects (font (size 1 1) (thickness 0.15)))
  )
  (fp_circle (center 0 0) (end 0.85 0) (layer F.Fab) (width 0.1))
  (fp_circle (center 4.2 0) (end 5.05 0) (layer F.Fab) (width 0.1))
  (fp_line (start -1.6 -1.42) (end -1.6 1.42) (layer F.CrtYd) (width 0.05))
  (fp_line (start -1.6 1.42) (end 1.6 1.42) (layer F.CrtYd) (width 0.05))
  (fp_line (start 1.6 1.42) (end 1.6 -1.42) (layer F.CrtYd) (width 0.05))
  (fp_line (start 1.6 -1.42) (end -1.6 -1.42) (layer F.CrtYd) (width 0.05))
  (fp_line (start 2.6 -1.42) (end 2.6 1.42) (layer F.CrtYd) (width 0.05))
  (fp_line (start 2.6 1.42) (end 5.8 1.42) (layer F.CrtYd) (width 0.05))
  (fp_line (start 5.8 1.42) (end 5.8 -1.42) (layer F.CrtYd) (width 0.05))
  (fp_line (start 5.8 -1.42) (end 2.6 -1.42) (layer F.CrtYd) (width 0.05))
  (pad 1 thru_hole roundrect (at 0 0) (size 1.85 1.85) (drill 0.85) (layers *.Cu *.Mask) (roundrect_rratio 0.135135))
  (pad 2 thru_hole circle (at 4.2 0) (size 1.85 1.85) (drill 0.85) (layers *.Cu *.Mask))
  (fp_text user %R (at 2.1 0 90) (layer F.Fab)
    (effects (font (size 0.71 0.71) (thickness 0.11)))
  )
  (model ${KICAD6_3DMODEL_DIR}/Connector_Wire.3dshapes/SolderWire-0.25sqmm_1x02_P4.2mm_D0.65mm_OD1.7mm.wrl
    (at (xyz 0 0 0))
    (scale (xyz 1 1 1))
    (rotate (xyz 0 0 0))
  )
)