(module SolderWire-0.1sqmm_1x06_P3.6mm_D0.4mm_OD1mm_Relief2x (layer F.Cu) (tedit 5EB70B42)
  (descr "Soldered wire connection with double feed through strain relief, for 6 times 0.1 mm² wires, basic insulation, conductor diameter 0.4mm, outer diameter 1mm, size source Multi-Contact FLEXI-E 0.1 (https://ec.staubli.com/AcroFiles/Catalogues/TM_Cab-Main-11014119_(en)_hi.pdf), bend radius 3 times outer diameter, generated with kicad-footprint-generator")
  (tags "connector wire 0.1sqmm double-strain-relief")
  (attr virtual)
  (fp_text reference REF** (at 9 -2) (layer F.SilkS)
    (effects (font (size 1 1) (thickness 0.15)))
  )
  (fp_text value SolderWire-0.1sqmm_1x06_P3.6mm_D0.4mm_OD1mm_Relief2x (at 9 13.95) (layer F.Fab)
    (effects (font (size 1 1) (thickness 0.15)))
  )
  (fp_circle (center 0 0) (end 0.5 0) (layer F.Fab) (width 0.1))
  (fp_circle (center 0 6) (end 0.5 6) (layer F.Fab) (width 0.1))
  (fp_circle (center 0 12) (end 0.5 12) (layer F.Fab) (width 0.1))
  (fp_circle (center 0 6) (end 0.5 6) (layer B.Fab) (width 0.1))
  (fp_circle (center 0 12) (end 0.5 12) (layer B.Fab) (width 0.1))
  (fp_circle (center 3.6 0) (end 4.1 0) (layer F.Fab) (width 0.1))
  (fp_circle (center 3.6 6) (end 4.1 6) (layer F.Fab) (width 0.1))
  (fp_circle (center 3.6 12) (end 4.1 12) (layer F.Fab) (width 0.1))
  (fp_circle (center 3.6 6) (end 4.1 6) (layer B.Fab) (width 0.1))
  (fp_circle (center 3.6 12) (end 4.1 12) (layer B.Fab) (width 0.1))
  (fp_circle (center 7.2 0) (end 7.7 0) (layer F.Fab) (width 0.1))
  (fp_circle (center 7.2 6) (end 7.7 6) (layer F.Fab) (width 0.1))
  (fp_circle (center 7.2 12) (end 7.7 12) (layer F.Fab) (width 0.1))
  (fp_circle (center 7.2 6) (end 7.7 6) (layer B.Fab) (width 0.1))
  (fp_circle (center 7.2 12) (end 7.7 12) (layer B.Fab) (width 0.1))
  (fp_circle (center 10.8 0) (end 11.3 0) (layer F.Fab) (width 0.1))
  (fp_circle (center 10.8 6) (end 11.3 6) (layer F.Fab) (width 0.1))
  (fp_circle (center 10.8 12) (end 11.3 12) (layer F.Fab) (width 0.1))
  (fp_circle (center 10.8 6) (end 11.3 6) (layer B.Fab) (width 0.1))
  (fp_circle (center 10.8 12) (end 11.3 12) (layer B.Fab) (width 0.1))
  (fp_circle (center 14.4 0) (end 14.9 0) (layer F.Fab) (width 0.1))
  (fp_circle (center 14.4 6) (end 14.9 6) (layer F.Fab) (width 0.1))
  (fp_circle (center 14.4 12) (end 14.9 12) (layer F.Fab) (width 0.1))
  (fp_circle (center 14.4 6) (end 14.9 6) (layer B.Fab) (width 0.1))
  (fp_circle (center 14.4 12) (end 14.9 12) (layer B.Fab) (width 0.1))
  (fp_circle (center 18 0) (end 18.5 0) (layer F.Fab) (width 0.1))
  (fp_circle (center 18 6) (end 18.5 6) (layer F.Fab) (width 0.1))
  (fp_circle (center 18 12) (end 18.5 12) (layer F.Fab) (width 0.1))
  (fp_circle (center 18 6) (end 18.5 6) (layer B.Fab) (width 0.1))
  (fp_circle (center 18 12) (end 18.5 12) (layer B.Fab) (width 0.1))
  (fp_line (start -0.5 0) (end -0.5 6) (layer F.Fab) (width 0.1))
  (fp_line (start 0.5 0) (end 0.5 6) (layer F.Fab) (width 0.1))
  (fp_line (start -0.5 6) (end -0.5 12) (layer B.Fab) (width 0.1))
  (fp_line (start 0.5 6) (end 0.5 12) (layer B.Fab) (width 0.1))
  (fp_line (start 0.61 1.06) (end 0.61 5.39) (layer F.SilkS) (width 0.12))
  (fp_line (start -0.61 1.06) (end -0.61 5.39) (layer F.SilkS) (width 0.12))
  (fp_line (start 0.61 6.61) (end 0.61 11.39) (layer B.SilkS) (width 0.12))
  (fp_line (start -0.61 6.61) (end -0.61 11.39) (layer B.SilkS) (width 0.12))
  (fp_line (start -1.3 -1.3) (end -1.3 7.25) (layer F.CrtYd) (width 0.05))
  (fp_line (start -1.3 7.25) (end 1.3 7.25) (layer F.CrtYd) (width 0.05))
  (fp_line (start 1.3 7.25) (end 1.3 -1.3) (layer F.CrtYd) (width 0.05))
  (fp_line (start 1.3 -1.3) (end -1.3 -1.3) (layer F.CrtYd) (width 0.05))
  (fp_line (start -1.3 10.75) (end -1.3 13.25) (layer F.CrtYd) (width 0.05))
  (fp_line (start -1.3 13.25) (end 1.3 13.25) (layer F.CrtYd) (width 0.05))
  (fp_line (start 1.3 13.25) (end 1.3 10.75) (layer F.CrtYd) (width 0.05))
  (fp_line (start 1.3 10.75) (end -1.3 10.75) (layer F.CrtYd) (width 0.05))
  (fp_line (start -1.3 4.75) (end -1.3 13.25) (layer B.CrtYd) (width 0.05))
  (fp_line (start -1.3 13.25) (end 1.3 13.25) (layer B.CrtYd) (width 0.05))
  (fp_line (start 1.3 13.25) (end 1.3 4.75) (layer B.CrtYd) (width 0.05))
  (fp_line (start 1.3 4.75) (end -1.3 4.75) (layer B.CrtYd) (width 0.05))
  (fp_line (start 3.1 0) (end 3.1 6) (layer F.Fab) (width 0.1))
  (fp_line (start 4.1 0) (end 4.1 6) (layer F.Fab) (width 0.1))
  (fp_line (start 3.1 6) (end 3.1 12) (layer B.Fab) (width 0.1))
  (fp_line (start 4.1 6) (end 4.1 12) (layer B.Fab) (width 0.1))
  (fp_line (start 4.21 1.06) (end 4.21 5.39) (layer F.SilkS) (width 0.12))
  (fp_line (start 2.99 1.06) (end 2.99 5.39) (layer F.SilkS) (width 0.12))
  (fp_line (start 4.21 6.61) (end 4.21 11.39) (layer B.SilkS) (width 0.12))
  (fp_line (start 2.99 6.61) (end 2.99 11.39) (layer B.SilkS) (width 0.12))
  (fp_line (start 2.3 -1.3) (end 2.3 7.25) (layer F.CrtYd) (width 0.05))
  (fp_line (start 2.3 7.25) (end 4.9 7.25) (layer F.CrtYd) (width 0.05))
  (fp_line (start 4.9 7.25) (end 4.9 -1.3) (layer F.CrtYd) (width 0.05))
  (fp_line (start 4.9 -1.3) (end 2.3 -1.3) (layer F.CrtYd) (width 0.05))
  (fp_line (start 2.3 10.75) (end 2.3 13.25) (layer F.CrtYd) (width 0.05))
  (fp_line (start 2.3 13.25) (end 4.9 13.25) (layer F.CrtYd) (width 0.05))
  (fp_line (start 4.9 13.25) (end 4.9 10.75) (layer F.CrtYd) (width 0.05))
  (fp_line (start 4.9 10.75) (end 2.3 10.75) (layer F.CrtYd) (width 0.05))
  (fp_line (start 2.3 4.75) (end 2.3 13.25) (layer B.CrtYd) (width 0.05))
  (fp_line (start 2.3 13.25) (end 4.9 13.25) (layer B.CrtYd) (width 0.05))
  (fp_line (start 4.9 13.25) (end 4.9 4.75) (layer B.CrtYd) (width 0.05))
  (fp_line (start 4.9 4.75) (end 2.3 4.75) (layer B.CrtYd) (width 0.05))
  (fp_line (start 6.7 0) (end 6.7 6) (layer F.Fab) (width 0.1))
  (fp_line (start 7.7 0) (end 7.7 6) (layer F.Fab) (width 0.1))
  (fp_line (start 6.7 6) (end 6.7 12) (layer B.Fab) (width 0.1))
  (fp_line (start 7.7 6) (end 7.7 12) (layer B.Fab) (width 0.1))
  (fp_line (start 7.81 1.06) (end 7.81 5.39) (layer F.SilkS) (width 0.12))
  (fp_line (start 6.59 1.06) (end 6.59 5.39) (layer F.SilkS) (width 0.12))
  (fp_line (start 7.81 6.61) (end 7.81 11.39) (layer B.SilkS) (width 0.12))
  (fp_line (start 6.59 6.61) (end 6.59 11.39) (layer B.SilkS) (width 0.12))
  (fp_line (start 5.9 -1.3) (end 5.9 7.25) (layer F.CrtYd) (width 0.05))
  (fp_line (start 5.9 7.25) (end 8.5 7.25) (layer F.CrtYd) (width 0.05))
  (fp_line (start 8.5 7.25) (end 8.5 -1.3) (layer F.CrtYd) (width 0.05))
  (fp_line (start 8.5 -1.3) (end 5.9 -1.3) (layer F.CrtYd) (width 0.05))
  (fp_line (start 5.9 10.75) (end 5.9 13.25) (layer F.CrtYd) (width 0.05))
  (fp_line (start 5.9 13.25) (end 8.5 13.25) (layer F.CrtYd) (width 0.05))
  (fp_line (start 8.5 13.25) (end 8.5 10.75) (layer F.CrtYd) (width 0.05))
  (fp_line (start 8.5 10.75) (end 5.9 10.75) (layer F.CrtYd) (width 0.05))
  (fp_line (start 5.9 4.75) (end 5.9 13.25) (layer B.CrtYd) (width 0.05))
  (fp_line (start 5.9 13.25) (end 8.5 13.25) (layer B.CrtYd) (width 0.05))
  (fp_line (start 8.5 13.25) (end 8.5 4.75) (layer B.CrtYd) (width 0.05))
  (fp_line (start 8.5 4.75) (end 5.9 4.75) (layer B.CrtYd) (width 0.05))
  (fp_line (start 10.3 0) (end 10.3 6) (layer F.Fab) (width 0.1))
  (fp_line (start 11.3 0) (end 11.3 6) (layer F.Fab) (width 0.1))
  (fp_line (start 10.3 6) (end 10.3 12) (layer B.Fab) (width 0.1))
  (fp_line (start 11.3 6) (end 11.3 12) (layer B.Fab) (width 0.1))
  (fp_line (start 11.41 1.06) (end 11.41 5.39) (layer F.SilkS) (width 0.12))
  (fp_line (start 10.19 1.06) (end 10.19 5.39) (layer F.SilkS) (width 0.12))
  (fp_line (start 11.41 6.61) (end 11.41 11.39) (layer B.SilkS) (width 0.12))
  (fp_line (start 10.19 6.61) (end 10.19 11.39) (layer B.SilkS) (width 0.12))
  (fp_line (start 9.5 -1.3) (end 9.5 7.25) (layer F.CrtYd) (width 0.05))
  (fp_line (start 9.5 7.25) (end 12.1 7.25) (layer F.CrtYd) (width 0.05))
  (fp_line (start 12.1 7.25) (end 12.1 -1.3) (layer F.CrtYd) (width 0.05))
  (fp_line (start 12.1 -1.3) (end 9.5 -1.3) (layer F.CrtYd) (width 0.05))
  (fp_line (start 9.5 10.75) (end 9.5 13.25) (layer F.CrtYd) (width 0.05))
  (fp_line (start 9.5 13.25) (end 12.1 13.25) (layer F.CrtYd) (width 0.05))
  (fp_line (start 12.1 13.25) (end 12.1 10.75) (layer F.CrtYd) (width 0.05))
  (fp_line (start 12.1 10.75) (end 9.5 10.75) (layer F.CrtYd) (width 0.05))
  (fp_line (start 9.5 4.75) (end 9.5 13.25) (layer B.CrtYd) (width 0.05))
  (fp_line (start 9.5 13.25) (end 12.1 13.25) (layer B.CrtYd) (width 0.05))
  (fp_line (start 12.1 13.25) (end 12.1 4.75) (layer B.CrtYd) (width 0.05))
  (fp_line (start 12.1 4.75) (end 9.5 4.75) (layer B.CrtYd) (width 0.05))
  (fp_line (start 13.9 0) (end 13.9 6) (layer F.Fab) (width 0.1))
  (fp_line (start 14.9 0) (end 14.9 6) (layer F.Fab) (width 0.1))
  (fp_line (start 13.9 6) (end 13.9 12) (layer B.Fab) (width 0.1))
  (fp_line (start 14.9 6) (end 14.9 12) (layer B.Fab) (width 0.1))
  (fp_line (start 15.01 1.06) (end 15.01 5.39) (layer F.SilkS) (width 0.12))
  (fp_line (start 13.79 1.06) (end 13.79 5.39) (layer F.SilkS) (width 0.12))
  (fp_line (start 15.01 6.61) (end 15.01 11.39) (layer B.SilkS) (width 0.12))
  (fp_line (start 13.79 6.61) (end 13.79 11.39) (layer B.SilkS) (width 0.12))
  (fp_line (start 13.1 -1.3) (end 13.1 7.25) (layer F.CrtYd) (width 0.05))
  (fp_line (start 13.1 7.25) (end 15.7 7.25) (layer F.CrtYd) (width 0.05))
  (fp_line (start 15.7 7.25) (end 15.7 -1.3) (layer F.CrtYd) (width 0.05))
  (fp_line (start 15.7 -1.3) (end 13.1 -1.3) (layer F.CrtYd) (width 0.05))
  (fp_line (start 13.1 10.75) (end 13.1 13.25) (layer F.CrtYd) (width 0.05))
  (fp_line (start 13.1 13.25) (end 15.7 13.25) (layer F.CrtYd) (width 0.05))
  (fp_line (start 15.7 13.25) (end 15.7 10.75) (layer F.CrtYd) (width 0.05))
  (fp_line (start 15.7 10.75) (end 13.1 10.75) (layer F.CrtYd) (width 0.05))
  (fp_line (start 13.1 4.75) (end 13.1 13.25) (layer B.CrtYd) (width 0.05))
  (fp_line (start 13.1 13.25) (end 15.7 13.25) (layer B.CrtYd) (width 0.05))
  (fp_line (start 15.7 13.25) (end 15.7 4.75) (layer B.CrtYd) (width 0.05))
  (fp_line (start 15.7 4.75) (end 13.1 4.75) (layer B.CrtYd) (width 0.05))
  (fp_line (start 17.5 0) (end 17.5 6) (layer F.Fab) (width 0.1))
  (fp_line (start 18.5 0) (end 18.5 6) (layer F.Fab) (width 0.1))
  (fp_line (start 17.5 6) (end 17.5 12) (layer B.Fab) (width 0.1))
  (fp_line (start 18.5 6) (end 18.5 12) (layer B.Fab) (width 0.1))
  (fp_line (start 18.61 1.06) (end 18.61 5.39) (layer F.SilkS) (width 0.12))
  (fp_line (start 17.39 1.06) (end 17.39 5.39) (layer F.SilkS) (width 0.12))
  (fp_line (start 18.61 6.61) (end 18.61 11.39) (layer B.SilkS) (width 0.12))
  (fp_line (start 17.39 6.61) (end 17.39 11.39) (layer B.SilkS) (width 0.12))
  (fp_line (start 16.7 -1.3) (end 16.7 7.25) (layer F.CrtYd) (width 0.05))
  (fp_line (start 16.7 7.25) (end 19.3 7.25) (layer F.CrtYd) (width 0.05))
  (fp_line (start 19.3 7.25) (end 19.3 -1.3) (layer F.CrtYd) (width 0.05))
  (fp_line (start 19.3 -1.3) (end 16.7 -1.3) (layer F.CrtYd) (width 0.05))
  (fp_line (start 16.7 10.75) (end 16.7 13.25) (layer F.CrtYd) (width 0.05))
  (fp_line (start 16.7 13.25) (end 19.3 13.25) (layer F.CrtYd) (width 0.05))
  (fp_line (start 19.3 13.25) (end 19.3 10.75) (layer F.CrtYd) (width 0.05))
  (fp_line (start 19.3 10.75) (end 16.7 10.75) (layer F.CrtYd) (width 0.05))
  (fp_line (start 16.7 4.75) (end 16.7 13.25) (layer B.CrtYd) (width 0.05))
  (fp_line (start 16.7 13.25) (end 19.3 13.25) (layer B.CrtYd) (width 0.05))
  (fp_line (start 19.3 13.25) (end 19.3 4.75) (layer B.CrtYd) (width 0.05))
  (fp_line (start 19.3 4.75) (end 16.7 4.75) (layer B.CrtYd) (width 0.05))
  (pad 1 thru_hole roundrect (at 0 0) (size 1.6 1.6) (drill 0.6) (layers *.Cu *.Mask) (roundrect_rratio 0.15625))
  (pad 2 thru_hole circle (at 3.6 0) (size 1.6 1.6) (drill 0.6) (layers *.Cu *.Mask))
  (pad 3 thru_hole circle (at 7.2 0) (size 1.6 1.6) (drill 0.6) (layers *.Cu *.Mask))
  (pad 4 thru_hole circle (at 10.8 0) (size 1.6 1.6) (drill 0.6) (layers *.Cu *.Mask))
  (pad 5 thru_hole circle (at 14.4 0) (size 1.6 1.6) (drill 0.6) (layers *.Cu *.Mask))
  (pad 6 thru_hole circle (at 18 0) (size 1.6 1.6) (drill 0.6) (layers *.Cu *.Mask))
  (pad "" np_thru_hole circle (at 0 6) (size 1.5 1.5) (drill 1.5) (layers *.Cu *.Mask))
  (pad "" np_thru_hole circle (at 0 12) (size 1.5 1.5) (drill 1.5) (layers *.Cu *.Mask))
  (pad "" np_thru_hole circle (at 3.6 6) (size 1.5 1.5) (drill 1.5) (layers *.Cu *.Mask))
  (pad "" np_thru_hole circle (at 3.6 12) (size 1.5 1.5) (drill 1.5) (layers *.Cu *.Mask))
  (pad "" np_thru_hole circle (at 7.2 6) (size 1.5 1.5) (drill 1.5) (layers *.Cu *.Mask))
  (pad "" np_thru_hole circle (at 7.2 12) (size 1.5 1.5) (drill 1.5) (layers *.Cu *.Mask))
  (pad "" np_thru_hole circle (at 10.8 6) (size 1.5 1.5) (drill 1.5) (layers *.Cu *.Mask))
  (pad "" np_thru_hole circle (at 10.8 12) (size 1.5 1.5) (drill 1.5) (layers *.Cu *.Mask))
  (pad "" np_thru_hole circle (at 14.4 6) (size 1.5 1.5) (drill 1.5) (layers *.Cu *.Mask))
  (pad "" np_thru_hole circle (at 14.4 12) (size 1.5 1.5) (drill 1.5) (layers *.Cu *.Mask))
  (pad "" np_thru_hole circle (at 18 6) (size 1.5 1.5) (drill 1.5) (layers *.Cu *.Mask))
  (pad "" np_thru_hole circle (at 18 12) (size 1.5 1.5) (drill 1.5) (layers *.Cu *.Mask))
  (fp_text user %R (at 9 3 90) (layer F.Fab)
    (effects (font (size 0.8 0.8) (thickness 0.12)))
  )
  (model ${KICAD6_3DMODEL_DIR}/Connector_Wire.3dshapes/SolderWire-0.1sqmm_1x06_P3.6mm_D0.4mm_OD1mm_Relief2x.wrl
    (at (xyz 0 0 0))
    (scale (xyz 1 1 1))
    (rotate (xyz 0 0 0))
  )
)