(module SolderWire-0.75sqmm_1x06_P4.8mm_D1.25mm_OD2.3mm_Relief (layer F.Cu) (tedit 5EB70B43)
  (descr "Soldered wire connection with feed through strain relief, for 6 times 0.75 mm² wires, basic insulation, conductor diameter 1.25mm, outer diameter 2.3mm, size source Multi-Contact FLEXI-E 0.75 (https://ec.staubli.com/AcroFiles/Catalogues/TM_Cab-Main-11014119_(en)_hi.pdf), bend radius 3 times outer diameter, generated with kicad-footprint-generator")
  (tags "connector wire 0.75sqmm strain-relief")
  (attr virtual)
  (fp_text reference REF** (at 12 -2.47) (layer F.SilkS)
    (effects (font (size 1 1) (thickness 0.15)))
  )
  (fp_text value SolderWire-0.75sqmm_1x06_P4.8mm_D1.25mm_OD2.3mm_Relief (at 12 16.4) (layer F.Fab)
    (effects (font (size 1 1) (thickness 0.15)))
  )
  (fp_circle (center 0 0) (end 1.15 0) (layer F.Fab) (width 0.1))
  (fp_circle (center 0 13.8) (end 1.15 13.8) (layer F.Fab) (width 0.1))
  (fp_circle (center 4.8 0) (end 5.95 0) (layer F.Fab) (width 0.1))
  (fp_circle (center 4.8 13.8) (end 5.95 13.8) (layer F.Fab) (width 0.1))
  (fp_circle (center 9.6 0) (end 10.75 0) (layer F.Fab) (width 0.1))
  (fp_circle (center 9.6 13.8) (end 10.75 13.8) (layer F.Fab) (width 0.1))
  (fp_circle (center 14.4 0) (end 15.55 0) (layer F.Fab) (width 0.1))
  (fp_circle (center 14.4 13.8) (end 15.55 13.8) (layer F.Fab) (width 0.1))
  (fp_circle (center 19.2 0) (end 20.35 0) (layer F.Fab) (width 0.1))
  (fp_circle (center 19.2 13.8) (end 20.35 13.8) (layer F.Fab) (width 0.1))
  (fp_circle (center 24 0) (end 25.15 0) (layer F.Fab) (width 0.1))
  (fp_circle (center 24 13.8) (end 25.15 13.8) (layer F.Fab) (width 0.1))
  (fp_line (start -1.15 0) (end -1.15 13.8) (layer F.Fab) (width 0.1))
  (fp_line (start 1.15 0) (end 1.15 13.8) (layer F.Fab) (width 0.1))
  (fp_line (start 1.26 1.535) (end 1.26 12.54) (layer F.SilkS) (width 0.12))
  (fp_line (start -1.26 1.535) (end -1.26 12.54) (layer F.SilkS) (width 0.12))
  (fp_line (start -1.9 -1.78) (end -1.9 15.7) (layer F.CrtYd) (width 0.05))
  (fp_line (start -1.9 15.7) (end 1.9 15.7) (layer F.CrtYd) (width 0.05))
  (fp_line (start 1.9 15.7) (end 1.9 -1.78) (layer F.CrtYd) (width 0.05))
  (fp_line (start 1.9 -1.78) (end -1.9 -1.78) (layer F.CrtYd) (width 0.05))
  (fp_line (start -1.9 11.9) (end -1.9 15.7) (layer B.CrtYd) (width 0.05))
  (fp_line (start -1.9 15.7) (end 1.9 15.7) (layer B.CrtYd) (width 0.05))
  (fp_line (start 1.9 15.7) (end 1.9 11.9) (layer B.CrtYd) (width 0.05))
  (fp_line (start 1.9 11.9) (end -1.9 11.9) (layer B.CrtYd) (width 0.05))
  (fp_line (start 3.65 0) (end 3.65 13.8) (layer F.Fab) (width 0.1))
  (fp_line (start 5.95 0) (end 5.95 13.8) (layer F.Fab) (width 0.1))
  (fp_line (start 6.06 1.535) (end 6.06 12.54) (layer F.SilkS) (width 0.12))
  (fp_line (start 3.54 1.535) (end 3.54 12.54) (layer F.SilkS) (width 0.12))
  (fp_line (start 2.9 -1.78) (end 2.9 15.7) (layer F.CrtYd) (width 0.05))
  (fp_line (start 2.9 15.7) (end 6.7 15.7) (layer F.CrtYd) (width 0.05))
  (fp_line (start 6.7 15.7) (end 6.7 -1.78) (layer F.CrtYd) (width 0.05))
  (fp_line (start 6.7 -1.78) (end 2.9 -1.78) (layer F.CrtYd) (width 0.05))
  (fp_line (start 2.9 11.9) (end 2.9 15.7) (layer B.CrtYd) (width 0.05))
  (fp_line (start 2.9 15.7) (end 6.7 15.7) (layer B.CrtYd) (width 0.05))
  (fp_line (start 6.7 15.7) (end 6.7 11.9) (layer B.CrtYd) (width 0.05))
  (fp_line (start 6.7 11.9) (end 2.9 11.9) (layer B.CrtYd) (width 0.05))
  (fp_line (start 8.45 0) (end 8.45 13.8) (layer F.Fab) (width 0.1))
  (fp_line (start 10.75 0) (end 10.75 13.8) (layer F.Fab) (width 0.1))
  (fp_line (start 10.86 1.535) (end 10.86 12.54) (layer F.SilkS) (width 0.12))
  (fp_line (start 8.34 1.535) (end 8.34 12.54) (layer F.SilkS) (width 0.12))
  (fp_line (start 7.7 -1.78) (end 7.7 15.7) (layer F.CrtYd) (width 0.05))
  (fp_line (start 7.7 15.7) (end 11.5 15.7) (layer F.CrtYd) (width 0.05))
  (fp_line (start 11.5 15.7) (end 11.5 -1.78) (layer F.CrtYd) (width 0.05))
  (fp_line (start 11.5 -1.78) (end 7.7 -1.78) (layer F.CrtYd) (width 0.05))
  (fp_line (start 7.7 11.9) (end 7.7 15.7) (layer B.CrtYd) (width 0.05))
  (fp_line (start 7.7 15.7) (end 11.5 15.7) (layer B.CrtYd) (width 0.05))
  (fp_line (start 11.5 15.7) (end 11.5 11.9) (layer B.CrtYd) (width 0.05))
  (fp_line (start 11.5 11.9) (end 7.7 11.9) (layer B.CrtYd) (width 0.05))
  (fp_line (start 13.25 0) (end 13.25 13.8) (layer F.Fab) (width 0.1))
  (fp_line (start 15.55 0) (end 15.55 13.8) (layer F.Fab) (width 0.1))
  (fp_line (start 15.66 1.535) (end 15.66 12.54) (layer F.SilkS) (width 0.12))
  (fp_line (start 13.14 1.535) (end 13.14 12.54) (layer F.SilkS) (width 0.12))
  (fp_line (start 12.5 -1.78) (end 12.5 15.7) (layer F.CrtYd) (width 0.05))
  (fp_line (start 12.5 15.7) (end 16.3 15.7) (layer F.CrtYd) (width 0.05))
  (fp_line (start 16.3 15.7) (end 16.3 -1.78) (layer F.CrtYd) (width 0.05))
  (fp_line (start 16.3 -1.78) (end 12.5 -1.78) (layer F.CrtYd) (width 0.05))
  (fp_line (start 12.5 11.9) (end 12.5 15.7) (layer B.CrtYd) (width 0.05))
  (fp_line (start 12.5 15.7) (end 16.3 15.7) (layer B.CrtYd) (width 0.05))
  (fp_line (start 16.3 15.7) (end 16.3 11.9) (layer B.CrtYd) (width 0.05))
  (fp_line (start 16.3 11.9) (end 12.5 11.9) (layer B.CrtYd) (width 0.05))
  (fp_line (start 18.05 0) (end 18.05 13.8) (layer F.Fab) (width 0.1))
  (fp_line (start 20.35 0) (end 20.35 13.8) (layer F.Fab) (width 0.1))
  (fp_line (start 20.46 1.535) (end 20.46 12.54) (layer F.SilkS) (width 0.12))
  (fp_line (start 17.94 1.535) (end 17.94 12.54) (layer F.SilkS) (width 0.12))
  (fp_line (start 17.3 -1.78) (end 17.3 15.7) (layer F.CrtYd) (width 0.05))
  (fp_line (start 17.3 15.7) (end 21.1 15.7) (layer F.CrtYd) (width 0.05))
  (fp_line (start 21.1 15.7) (end 21.1 -1.78) (layer F.CrtYd) (width 0.05))
  (fp_line (start 21.1 -1.78) (end 17.3 -1.78) (layer F.CrtYd) (width 0.05))
  (fp_line (start 17.3 11.9) (end 17.3 15.7) (layer B.CrtYd) (width 0.05))
  (fp_line (start 17.3 15.7) (end 21.1 15.7) (layer B.CrtYd) (width 0.05))
  (fp_line (start 21.1 15.7) (end 21.1 11.9) (layer B.CrtYd) (width 0.05))
  (fp_line (start 21.1 11.9) (end 17.3 11.9) (layer B.CrtYd) (width 0.05))
  (fp_line (start 22.85 0) (end 22.85 13.8) (layer F.Fab) (width 0.1))
  (fp_line (start 25.15 0) (end 25.15 13.8) (layer F.Fab) (width 0.1))
  (fp_line (start 25.26 1.535) (end 25.26 12.54) (layer F.SilkS) (width 0.12))
  (fp_line (start 22.74 1.535) (end 22.74 12.54) (layer F.SilkS) (width 0.12))
  (fp_line (start 22.1 -1.78) (end 22.1 15.7) (layer F.CrtYd) (width 0.05))
  (fp_line (start 22.1 15.7) (end 25.9 15.7) (layer F.CrtYd) (width 0.05))
  (fp_line (start 25.9 15.7) (end 25.9 -1.78) (layer F.CrtYd) (width 0.05))
  (fp_line (start 25.9 -1.78) (end 22.1 -1.78) (layer F.CrtYd) (width 0.05))
  (fp_line (start 22.1 11.9) (end 22.1 15.7) (layer B.CrtYd) (width 0.05))
  (fp_line (start 22.1 15.7) (end 25.9 15.7) (layer B.CrtYd) (width 0.05))
  (fp_line (start 25.9 15.7) (end 25.9 11.9) (layer B.CrtYd) (width 0.05))
  (fp_line (start 25.9 11.9) (end 22.1 11.9) (layer B.CrtYd) (width 0.05))
  (pad 1 thru_hole roundrect (at 0 0) (size 2.55 2.55) (drill 1.55) (layers *.Cu *.Mask) (roundrect_rratio 0.098039))
  (pad 2 thru_hole circle (at 4.8 0) (size 2.55 2.55) (drill 1.55) (layers *.Cu *.Mask))
  (pad 3 thru_hole circle (at 9.6 0) (size 2.55 2.55) (drill 1.55) (layers *.Cu *.Mask))
  (pad 4 thru_hole circle (at 14.4 0) (size 2.55 2.55) (drill 1.55) (layers *.Cu *.Mask))
  (pad 5 thru_hole circle (at 19.2 0) (size 2.55 2.55) (drill 1.55) (layers *.Cu *.Mask))
  (pad 6 thru_hole circle (at 24 0) (size 2.55 2.55) (drill 1.55) (layers *.Cu *.Mask))
  (pad "" np_thru_hole circle (at 0 13.8) (size 2.8 2.8) (drill 2.8) (layers *.Cu *.Mask))
  (pad "" np_thru_hole circle (at 4.8 13.8) (size 2.8 2.8) (drill 2.8) (layers *.Cu *.Mask))
  (pad "" np_thru_hole circle (at 9.6 13.8) (size 2.8 2.8) (drill 2.8) (layers *.Cu *.Mask))
  (pad "" np_thru_hole circle (at 14.4 13.8) (size 2.8 2.8) (drill 2.8) (layers *.Cu *.Mask))
  (pad "" np_thru_hole circle (at 19.2 13.8) (size 2.8 2.8) (drill 2.8) (layers *.Cu *.Mask))
  (pad "" np_thru_hole circle (at 24 13.8) (size 2.8 2.8) (drill 2.8) (layers *.Cu *.Mask))
  (fp_text user %R (at 12 6.9 90) (layer F.Fab)
    (effects (font (size 1 1) (thickness 0.15)))
  )
  (model ${KICAD6_3DMODEL_DIR}/Connector_Wire.3dshapes/SolderWire-0.75sqmm_1x06_P4.8mm_D1.25mm_OD2.3mm_Relief.wrl
    (at (xyz 0 0 0))
    (scale (xyz 1 1 1))
    (rotate (xyz 0 0 0))
  )
)