(module SolderWire-1.5sqmm_1x05_P6mm_D1.7mm_OD3mm_Relief (layer F.Cu) (tedit 5EB70B43)
  (descr "Soldered wire connection with feed through strain relief, for 5 times 1.5 mm² wires, basic insulation, conductor diameter 1.7mm, outer diameter 3mm, size source Multi-Contact FLEXI-E 1.5 (https://ec.staubli.com/AcroFiles/Catalogues/TM_Cab-Main-11014119_(en)_hi.pdf), bend radius 3 times outer diameter, generated with kicad-footprint-generator")
  (tags "connector wire 1.5sqmm strain-relief")
  (attr virtual)
  (fp_text reference REF** (at 12 -2.75) (layer F.SilkS)
    (effects (font (size 1 1) (thickness 0.15)))
  )
  (fp_text value SolderWire-1.5sqmm_1x05_P6mm_D1.7mm_OD3mm_Relief (at 12 20.95) (layer F.Fab)
    (effects (font (size 1 1) (thickness 0.15)))
  )
  (fp_circle (center 0 0) (end 1.5 0) (layer F.Fab) (width 0.1))
  (fp_circle (center 0 18) (end 1.5 18) (layer F.Fab) (width 0.1))
  (fp_circle (center 6 0) (end 7.5 0) (layer F.Fab) (width 0.1))
  (fp_circle (center 6 18) (end 7.5 18) (layer F.Fab) (width 0.1))
  (fp_circle (center 12 0) (end 13.5 0) (layer F.Fab) (width 0.1))
  (fp_circle (center 12 18) (end 13.5 18) (layer F.Fab) (width 0.1))
  (fp_circle (center 18 0) (end 19.5 0) (layer F.Fab) (width 0.1))
  (fp_circle (center 18 18) (end 19.5 18) (layer F.Fab) (width 0.1))
  (fp_circle (center 24 0) (end 25.5 0) (layer F.Fab) (width 0.1))
  (fp_circle (center 24 18) (end 25.5 18) (layer F.Fab) (width 0.1))
  (fp_line (start -1.5 0) (end -1.5 18) (layer F.Fab) (width 0.1))
  (fp_line (start 1.5 0) (end 1.5 18) (layer F.Fab) (width 0.1))
  (fp_line (start 1.61 1.81) (end 1.61 16.39) (layer F.SilkS) (width 0.12))
  (fp_line (start -1.61 1.81) (end -1.61 16.39) (layer F.SilkS) (width 0.12))
  (fp_line (start -2.25 -2.05) (end -2.25 20.25) (layer F.CrtYd) (width 0.05))
  (fp_line (start -2.25 20.25) (end 2.25 20.25) (layer F.CrtYd) (width 0.05))
  (fp_line (start 2.25 20.25) (end 2.25 -2.05) (layer F.CrtYd) (width 0.05))
  (fp_line (start 2.25 -2.05) (end -2.25 -2.05) (layer F.CrtYd) (width 0.05))
  (fp_line (start -2.25 15.75) (end -2.25 20.25) (layer B.CrtYd) (width 0.05))
  (fp_line (start -2.25 20.25) (end 2.25 20.25) (layer B.CrtYd) (width 0.05))
  (fp_line (start 2.25 20.25) (end 2.25 15.75) (layer B.CrtYd) (width 0.05))
  (fp_line (start 2.25 15.75) (end -2.25 15.75) (layer B.CrtYd) (width 0.05))
  (fp_line (start 4.5 0) (end 4.5 18) (layer F.Fab) (width 0.1))
  (fp_line (start 7.5 0) (end 7.5 18) (layer F.Fab) (width 0.1))
  (fp_line (start 7.61 1.81) (end 7.61 16.39) (layer F.SilkS) (width 0.12))
  (fp_line (start 4.39 1.81) (end 4.39 16.39) (layer F.SilkS) (width 0.12))
  (fp_line (start 3.75 -2.05) (end 3.75 20.25) (layer F.CrtYd) (width 0.05))
  (fp_line (start 3.75 20.25) (end 8.25 20.25) (layer F.CrtYd) (width 0.05))
  (fp_line (start 8.25 20.25) (end 8.25 -2.05) (layer F.CrtYd) (width 0.05))
  (fp_line (start 8.25 -2.05) (end 3.75 -2.05) (layer F.CrtYd) (width 0.05))
  (fp_line (start 3.75 15.75) (end 3.75 20.25) (layer B.CrtYd) (width 0.05))
  (fp_line (start 3.75 20.25) (end 8.25 20.25) (layer B.CrtYd) (width 0.05))
  (fp_line (start 8.25 20.25) (end 8.25 15.75) (layer B.CrtYd) (width 0.05))
  (fp_line (start 8.25 15.75) (end 3.75 15.75) (layer B.CrtYd) (width 0.05))
  (fp_line (start 10.5 0) (end 10.5 18) (layer F.Fab) (width 0.1))
  (fp_line (start 13.5 0) (end 13.5 18) (layer F.Fab) (width 0.1))
  (fp_line (start 13.61 1.81) (end 13.61 16.39) (layer F.SilkS) (width 0.12))
  (fp_line (start 10.39 1.81) (end 10.39 16.39) (layer F.SilkS) (width 0.12))
  (fp_line (start 9.75 -2.05) (end 9.75 20.25) (layer F.CrtYd) (width 0.05))
  (fp_line (start 9.75 20.25) (end 14.25 20.25) (layer F.CrtYd) (width 0.05))
  (fp_line (start 14.25 20.25) (end 14.25 -2.05) (layer F.CrtYd) (width 0.05))
  (fp_line (start 14.25 -2.05) (end 9.75 -2.05) (layer F.CrtYd) (width 0.05))
  (fp_line (start 9.75 15.75) (end 9.75 20.25) (layer B.CrtYd) (width 0.05))
  (fp_line (start 9.75 20.25) (end 14.25 20.25) (layer B.CrtYd) (width 0.05))
  (fp_line (start 14.25 20.25) (end 14.25 15.75) (layer B.CrtYd) (width 0.05))
  (fp_line (start 14.25 15.75) (end 9.75 15.75) (layer B.CrtYd) (width 0.05))
  (fp_line (start 16.5 0) (end 16.5 18) (layer F.Fab) (width 0.1))
  (fp_line (start 19.5 0) (end 19.5 18) (layer F.Fab) (width 0.1))
  (fp_line (start 19.61 1.81) (end 19.61 16.39) (layer F.SilkS) (width 0.12))
  (fp_line (start 16.39 1.81) (end 16.39 16.39) (layer F.SilkS) (width 0.12))
  (fp_line (start 15.75 -2.05) (end 15.75 20.25) (layer F.CrtYd) (width 0.05))
  (fp_line (start 15.75 20.25) (end 20.25 20.25) (layer F.CrtYd) (width 0.05))
  (fp_line (start 20.25 20.25) (end 20.25 -2.05) (layer F.CrtYd) (width 0.05))
  (fp_line (start 20.25 -2.05) (end 15.75 -2.05) (layer F.CrtYd) (width 0.05))
  (fp_line (start 15.75 15.75) (end 15.75 20.25) (layer B.CrtYd) (width 0.05))
  (fp_line (start 15.75 20.25) (end 20.25 20.25) (layer B.CrtYd) (width 0.05))
  (fp_line (start 20.25 20.25) (end 20.25 15.75) (layer B.CrtYd) (width 0.05))
  (fp_line (start 20.25 15.75) (end 15.75 15.75) (layer B.CrtYd) (width 0.05))
  (fp_line (start 22.5 0) (end 22.5 18) (layer F.Fab) (width 0.1))
  (fp_line (start 25.5 0) (end 25.5 18) (layer F.Fab) (width 0.1))
  (fp_line (start 25.61 1.81) (end 25.61 16.39) (layer F.SilkS) (width 0.12))
  (fp_line (start 22.39 1.81) (end 22.39 16.39) (layer F.SilkS) (width 0.12))
  (fp_line (start 21.75 -2.05) (end 21.75 20.25) (layer F.CrtYd) (width 0.05))
  (fp_line (start 21.75 20.25) (end 26.25 20.25) (layer F.CrtYd) (width 0.05))
  (fp_line (start 26.25 20.25) (end 26.25 -2.05) (layer F.CrtYd) (width 0.05))
  (fp_line (start 26.25 -2.05) (end 21.75 -2.05) (layer F.CrtYd) (width 0.05))
  (fp_line (start 21.75 15.75) (end 21.75 20.25) (layer B.CrtYd) (width 0.05))
  (fp_line (start 21.75 20.25) (end 26.25 20.25) (layer B.CrtYd) (width 0.05))
  (fp_line (start 26.25 20.25) (end 26.25 15.75) (layer B.CrtYd) (width 0.05))
  (fp_line (start 26.25 15.75) (end 21.75 15.75) (layer B.CrtYd) (width 0.05))
  (pad 1 thru_hole roundrect (at 0 0) (size 3.1 3.1) (drill 2.1) (layers *.Cu *.Mask) (roundrect_rratio 0.080645))
  (pad 2 thru_hole circle (at 6 0) (size 3.1 3.1) (drill 2.1) (layers *.Cu *.Mask))
  (pad 3 thru_hole circle (at 12 0) (size 3.1 3.1) (drill 2.1) (layers *.Cu *.Mask))
  (pad 4 thru_hole circle (at 18 0) (size 3.1 3.1) (drill 2.1) (layers *.Cu *.Mask))
  (pad 5 thru_hole circle (at 24 0) (size 3.1 3.1) (drill 2.1) (layers *.Cu *.Mask))
  (pad "" np_thru_hole circle (at 0 18) (size 3.5 3.5) (drill 3.5) (layers *.Cu *.Mask))
  (pad "" np_thru_hole circle (at 6 18) (size 3.5 3.5) (drill 3.5) (layers *.Cu *.Mask))
  (pad "" np_thru_hole circle (at 12 18) (size 3.5 3.5) (drill 3.5) (layers *.Cu *.Mask))
  (pad "" np_thru_hole circle (at 18 18) (size 3.5 3.5) (drill 3.5) (layers *.Cu *.Mask))
  (pad "" np_thru_hole circle (at 24 18) (size 3.5 3.5) (drill 3.5) (layers *.Cu *.Mask))
  (fp_text user %R (at 12 9 90) (layer F.Fab)
    (effects (font (size 1 1) (thickness 0.15)))
  )
  (model ${KICAD6_3DMODEL_DIR}/Connector_Wire.3dshapes/SolderWire-1.5sqmm_1x05_P6mm_D1.7mm_OD3mm_Relief.wrl
    (at (xyz 0 0 0))
    (scale (xyz 1 1 1))
    (rotate (xyz 0 0 0))
  )
)