(module SolderWire-0.25sqmm_1x05_P4.5mm_D0.65mm_OD2mm (layer F.Cu) (tedit 5EB70B44)
  (descr "Soldered wire connection, for 5 times 0.25 mm² wires, reinforced insulation, conductor diameter 0.65mm, outer diameter 2mm, size source Multi-Contact FLEXI-2V 0.25 (https://ec.staubli.com/AcroFiles/Catalogues/TM_Cab-Main-11014119_(en)_hi.pdf), bend radius 3 times outer diameter, generated with kicad-footprint-generator")
  (tags "connector wire 0.25sqmm")
  (attr virtual)
  (fp_text reference REF** (at 9 -2.2) (layer F.SilkS)
    (effects (font (size 1 1) (thickness 0.15)))
  )
  (fp_text value SolderWire-0.25sqmm_1x05_P4.5mm_D0.65mm_OD2mm (at 9 2.2) (layer F.Fab)
    (effects (font (size 1 1) (thickness 0.15)))
  )
  (fp_circle (center 0 0) (end 1 0) (layer F.Fab) (width 0.1))
  (fp_circle (center 4.5 0) (end 5.5 0) (layer F.Fab) (width 0.1))
  (fp_circle (center 9 0) (end 10 0) (layer F.Fab) (width 0.1))
  (fp_circle (center 13.5 0) (end 14.5 0) (layer F.Fab) (width 0.1))
  (fp_circle (center 18 0) (end 19 0) (layer F.Fab) (width 0.1))
  (fp_line (start -1.75 -1.5) (end -1.75 1.5) (layer F.CrtYd) (width 0.05))
  (fp_line (start -1.75 1.5) (end 1.75 1.5) (layer F.CrtYd) (width 0.05))
  (fp_line (start 1.75 1.5) (end 1.75 -1.5) (layer F.CrtYd) (width 0.05))
  (fp_line (start 1.75 -1.5) (end -1.75 -1.5) (layer F.CrtYd) (width 0.05))
  (fp_line (start 2.75 -1.5) (end 2.75 1.5) (layer F.CrtYd) (width 0.05))
  (fp_line (start 2.75 1.5) (end 6.25 1.5) (layer F.CrtYd) (width 0.05))
  (fp_line (start 6.25 1.5) (end 6.25 -1.5) (layer F.CrtYd) (width 0.05))
  (fp_line (start 6.25 -1.5) (end 2.75 -1.5) (layer F.CrtYd) (width 0.05))
  (fp_line (start 7.25 -1.5) (end 7.25 1.5) (layer F.CrtYd) (width 0.05))
  (fp_line (start 7.25 1.5) (end 10.75 1.5) (layer F.CrtYd) (width 0.05))
  (fp_line (start 10.75 1.5) (end 10.75 -1.5) (layer F.CrtYd) (width 0.05))
  (fp_line (start 10.75 -1.5) (end 7.25 -1.5) (layer F.CrtYd) (width 0.05))
  (fp_line (start 11.75 -1.5) (end 11.75 1.5) (layer F.CrtYd) (width 0.05))
  (fp_line (start 11.75 1.5) (end 15.25 1.5) (layer F.CrtYd) (width 0.05))
  (fp_line (start 15.25 1.5) (end 15.25 -1.5) (layer F.CrtYd) (width 0.05))
  (fp_line (start 15.25 -1.5) (end 11.75 -1.5) (layer F.CrtYd) (width 0.05))
  (fp_line (start 16.25 -1.5) (end 16.25 1.5) (layer F.CrtYd) (width 0.05))
  (fp_line (start 16.25 1.5) (end 19.75 1.5) (layer F.CrtYd) (width 0.05))
  (fp_line (start 19.75 1.5) (end 19.75 -1.5) (layer F.CrtYd) (width 0.05))
  (fp_line (start 19.75 -1.5) (end 16.25 -1.5) (layer F.CrtYd) (width 0.05))
  (pad 1 thru_hole roundrect (at 0 0) (size 2 2) (drill 0.85) (layers *.Cu *.Mask) (roundrect_rratio 0.125))
  (pad 2 thru_hole circle (at 4.5 0) (size 2 2) (drill 0.85) (layers *.Cu *.Mask))
  (pad 3 thru_hole circle (at 9 0) (size 2 2) (drill 0.85) (layers *.Cu *.Mask))
  (pad 4 thru_hole circle (at 13.5 0) (size 2 2) (drill 0.85) (layers *.Cu *.Mask))
  (pad 5 thru_hole circle (at 18 0) (size 2 2) (drill 0.85) (layers *.Cu *.Mask))
  (fp_text user %R (at 9 0) (layer F.Fab)
    (effects (font (size 0.5 0.5) (thickness 0.08)))
  )
  (model ${KICAD6_3DMODEL_DIR}/Connector_Wire.3dshapes/SolderWire-0.25sqmm_1x05_P4.5mm_D0.65mm_OD2mm.wrl
    (at (xyz 0 0 0))
    (scale (xyz 1 1 1))
    (rotate (xyz 0 0 0))
  )
)