(module SolderWire-0.5sqmm_1x03_P4.8mm_D0.9mm_OD2.3mm_Relief (layer F.Cu) (tedit 5EB70B44)
  (descr "Soldered wire connection with feed through strain relief, for 3 times 0.5 mm² wires, reinforced insulation, conductor diameter 0.9mm, outer diameter 2.3mm, size source Multi-Contact FLEXI-xV 0.5 (https://ec.staubli.com/AcroFiles/Catalogues/TM_Cab-Main-11014119_(en)_hi.pdf), bend radius 3 times outer diameter, generated with kicad-footprint-generator")
  (tags "connector wire 0.5sqmm strain-relief")
  (attr virtual)
  (fp_text reference REF** (at 4.8 -2.35) (layer F.SilkS)
    (effects (font (size 1 1) (thickness 0.15)))
  )
  (fp_text value SolderWire-0.5sqmm_1x03_P4.8mm_D0.9mm_OD2.3mm_Relief (at 4.8 16.4) (layer F.Fab)
    (effects (font (size 1 1) (thickness 0.15)))
  )
  (fp_circle (center 0 0) (end 1.15 0) (layer F.Fab) (width 0.1))
  (fp_circle (center 0 13.8) (end 1.15 13.8) (layer F.Fab) (width 0.1))
  (fp_circle (center 4.8 0) (end 5.95 0) (layer F.Fab) (width 0.1))
  (fp_circle (center 4.8 13.8) (end 5.95 13.8) (layer F.Fab) (width 0.1))
  (fp_circle (center 9.6 0) (end 10.75 0) (layer F.Fab) (width 0.1))
  (fp_circle (center 9.6 13.8) (end 10.75 13.8) (layer F.Fab) (width 0.1))
  (fp_line (start -1.15 0) (end -1.15 13.8) (layer F.Fab) (width 0.1))
  (fp_line (start 1.15 0) (end 1.15 13.8) (layer F.Fab) (width 0.1))
  (fp_line (start 1.26 1.41) (end 1.26 12.54) (layer F.SilkS) (width 0.12))
  (fp_line (start -1.26 1.41) (end -1.26 12.54) (layer F.SilkS) (width 0.12))
  (fp_line (start -1.9 -1.65) (end -1.9 15.7) (layer F.CrtYd) (width 0.05))
  (fp_line (start -1.9 15.7) (end 1.9 15.7) (layer F.CrtYd) (width 0.05))
  (fp_line (start 1.9 15.7) (end 1.9 -1.65) (layer F.CrtYd) (width 0.05))
  (fp_line (start 1.9 -1.65) (end -1.9 -1.65) (layer F.CrtYd) (width 0.05))
  (fp_line (start -1.9 11.9) (end -1.9 15.7) (layer B.CrtYd) (width 0.05))
  (fp_line (start -1.9 15.7) (end 1.9 15.7) (layer B.CrtYd) (width 0.05))
  (fp_line (start 1.9 15.7) (end 1.9 11.9) (layer B.CrtYd) (width 0.05))
  (fp_line (start 1.9 11.9) (end -1.9 11.9) (layer B.CrtYd) (width 0.05))
  (fp_line (start 3.65 0) (end 3.65 13.8) (layer F.Fab) (width 0.1))
  (fp_line (start 5.95 0) (end 5.95 13.8) (layer F.Fab) (width 0.1))
  (fp_line (start 6.06 1.41) (end 6.06 12.54) (layer F.SilkS) (width 0.12))
  (fp_line (start 3.54 1.41) (end 3.54 12.54) (layer F.SilkS) (width 0.12))
  (fp_line (start 2.9 -1.65) (end 2.9 15.7) (layer F.CrtYd) (width 0.05))
  (fp_line (start 2.9 15.7) (end 6.7 15.7) (layer F.CrtYd) (width 0.05))
  (fp_line (start 6.7 15.7) (end 6.7 -1.65) (layer F.CrtYd) (width 0.05))
  (fp_line (start 6.7 -1.65) (end 2.9 -1.65) (layer F.CrtYd) (width 0.05))
  (fp_line (start 2.9 11.9) (end 2.9 15.7) (layer B.CrtYd) (width 0.05))
  (fp_line (start 2.9 15.7) (end 6.7 15.7) (layer B.CrtYd) (width 0.05))
  (fp_line (start 6.7 15.7) (end 6.7 11.9) (layer B.CrtYd) (width 0.05))
  (fp_line (start 6.7 11.9) (end 2.9 11.9) (layer B.CrtYd) (width 0.05))
  (fp_line (start 8.45 0) (end 8.45 13.8) (layer F.Fab) (width 0.1))
  (fp_line (start 10.75 0) (end 10.75 13.8) (layer F.Fab) (width 0.1))
  (fp_line (start 10.86 1.41) (end 10.86 12.54) (layer F.SilkS) (width 0.12))
  (fp_line (start 8.34 1.41) (end 8.34 12.54) (layer F.SilkS) (width 0.12))
  (fp_line (start 7.7 -1.65) (end 7.7 15.7) (layer F.CrtYd) (width 0.05))
  (fp_line (start 7.7 15.7) (end 11.5 15.7) (layer F.CrtYd) (width 0.05))
  (fp_line (start 11.5 15.7) (end 11.5 -1.65) (layer F.CrtYd) (width 0.05))
  (fp_line (start 11.5 -1.65) (end 7.7 -1.65) (layer F.CrtYd) (width 0.05))
  (fp_line (start 7.7 11.9) (end 7.7 15.7) (layer B.CrtYd) (width 0.05))
  (fp_line (start 7.7 15.7) (end 11.5 15.7) (layer B.CrtYd) (width 0.05))
  (fp_line (start 11.5 15.7) (end 11.5 11.9) (layer B.CrtYd) (width 0.05))
  (fp_line (start 11.5 11.9) (end 7.7 11.9) (layer B.CrtYd) (width 0.05))
  (pad 1 thru_hole roundrect (at 0 0) (size 2.3 2.3) (drill 1.1) (layers *.Cu *.Mask) (roundrect_rratio 0.108696))
  (pad 2 thru_hole circle (at 4.8 0) (size 2.3 2.3) (drill 1.1) (layers *.Cu *.Mask))
  (pad 3 thru_hole circle (at 9.6 0) (size 2.3 2.3) (drill 1.1) (layers *.Cu *.Mask))
  (pad "" np_thru_hole circle (at 0 13.8) (size 2.8 2.8) (drill 2.8) (layers *.Cu *.Mask))
  (pad "" np_thru_hole circle (at 4.8 13.8) (size 2.8 2.8) (drill 2.8) (layers *.Cu *.Mask))
  (pad "" np_thru_hole circle (at 9.6 13.8) (size 2.8 2.8) (drill 2.8) (layers *.Cu *.Mask))
  (fp_text user %R (at 4.8 6.9 90) (layer F.Fab)
    (effects (font (size 1 1) (thickness 0.15)))
  )
  (model ${KICAD6_3DMODEL_DIR}/Connector_Wire.3dshapes/SolderWire-0.5sqmm_1x03_P4.8mm_D0.9mm_OD2.3mm_Relief.wrl
    (at (xyz 0 0 0))
    (scale (xyz 1 1 1))
    (rotate (xyz 0 0 0))
  )
)