(module SolderWire-2.5sqmm_1x02_P7.2mm_D2.4mm_OD3.6mm (layer F.Cu) (tedit 5EB70B44)
  (descr "Soldered wire connection, for 2 times 2.5 mm² wires, basic insulation, conductor diameter 2.4mm, outer diameter 3.6mm, size source Multi-Contact FLEXI-E 2.5 (https://ec.staubli.com/AcroFiles/Catalogues/TM_Cab-Main-11014119_(en)_hi.pdf), bend radius 3 times outer diameter, generated with kicad-footprint-generator")
  (tags "connector wire 2.5sqmm")
  (attr virtual)
  (fp_text reference REF** (at 3.6 -3.2) (layer F.SilkS)
    (effects (font (size 1 1) (thickness 0.15)))
  )
  (fp_text value SolderWire-2.5sqmm_1x02_P7.2mm_D2.4mm_OD3.6mm (at 3.6 3.2) (layer F.Fab)
    (effects (font (size 1 1) (thickness 0.15)))
  )
  (fp_circle (center 0 0) (end 1.8 0) (layer F.Fab) (width 0.1))
  (fp_circle (center 7.2 0) (end 9 0) (layer F.Fab) (width 0.1))
  (fp_line (start -2.55 -2.5) (end -2.55 2.5) (layer F.CrtYd) (width 0.05))
  (fp_line (start -2.55 2.5) (end 2.55 2.5) (layer F.CrtYd) (width 0.05))
  (fp_line (start 2.55 2.5) (end 2.55 -2.5) (layer F.CrtYd) (width 0.05))
  (fp_line (start 2.55 -2.5) (end -2.55 -2.5) (layer F.CrtYd) (width 0.05))
  (fp_line (start 4.65 -2.5) (end 4.65 2.5) (layer F.CrtYd) (width 0.05))
  (fp_line (start 4.65 2.5) (end 9.75 2.5) (layer F.CrtYd) (width 0.05))
  (fp_line (start 9.75 2.5) (end 9.75 -2.5) (layer F.CrtYd) (width 0.05))
  (fp_line (start 9.75 -2.5) (end 4.65 -2.5) (layer F.CrtYd) (width 0.05))
  (pad 1 thru_hole roundrect (at 0 0) (size 4 4) (drill 3) (layers *.Cu *.Mask) (roundrect_rratio 0.0625))
  (pad 2 thru_hole circle (at 7.2 0) (size 4 4) (drill 3) (layers *.Cu *.Mask))
  (fp_text user %R (at 3.6 0 90) (layer F.Fab)
    (effects (font (size 1 1) (thickness 0.15)))
  )
  (model ${KICAD6_3DMODEL_DIR}/Connector_Wire.3dshapes/SolderWire-2.5sqmm_1x02_P7.2mm_D2.4mm_OD3.6mm.wrl
    (at (xyz 0 0 0))
    (scale (xyz 1 1 1))
    (rotate (xyz 0 0 0))
  )
)