(module SolderWire-0.5sqmm_1x04_P4.8mm_D0.9mm_OD2.3mm (layer F.Cu) (tedit 5EB70B44)
  (descr "Soldered wire connection, for 4 times 0.5 mm² wires, reinforced insulation, conductor diameter 0.9mm, outer diameter 2.3mm, size source Multi-Contact FLEXI-xV 0.5 (https://ec.staubli.com/AcroFiles/Catalogues/TM_Cab-Main-11014119_(en)_hi.pdf), bend radius 3 times outer diameter, generated with kicad-footprint-generator")
  (tags "connector wire 0.5sqmm")
  (attr virtual)
  (fp_text reference REF** (at 7.2 -2.35) (layer F.SilkS)
    (effects (font (size 1 1) (thickness 0.15)))
  )
  (fp_text value SolderWire-0.5sqmm_1x04_P4.8mm_D0.9mm_OD2.3mm (at 7.2 2.35) (layer F.Fab)
    (effects (font (size 1 1) (thickness 0.15)))
  )
  (fp_circle (center 0 0) (end 1.15 0) (layer F.Fab) (width 0.1))
  (fp_circle (center 4.8 0) (end 5.95 0) (layer F.Fab) (width 0.1))
  (fp_circle (center 9.6 0) (end 10.75 0) (layer F.Fab) (width 0.1))
  (fp_circle (center 14.4 0) (end 15.55 0) (layer F.Fab) (width 0.1))
  (fp_line (start -1.9 -1.65) (end -1.9 1.65) (layer F.CrtYd) (width 0.05))
  (fp_line (start -1.9 1.65) (end 1.9 1.65) (layer F.CrtYd) (width 0.05))
  (fp_line (start 1.9 1.65) (end 1.9 -1.65) (layer F.CrtYd) (width 0.05))
  (fp_line (start 1.9 -1.65) (end -1.9 -1.65) (layer F.CrtYd) (width 0.05))
  (fp_line (start 2.9 -1.65) (end 2.9 1.65) (layer F.CrtYd) (width 0.05))
  (fp_line (start 2.9 1.65) (end 6.7 1.65) (layer F.CrtYd) (width 0.05))
  (fp_line (start 6.7 1.65) (end 6.7 -1.65) (layer F.CrtYd) (width 0.05))
  (fp_line (start 6.7 -1.65) (end 2.9 -1.65) (layer F.CrtYd) (width 0.05))
  (fp_line (start 7.7 -1.65) (end 7.7 1.65) (layer F.CrtYd) (width 0.05))
  (fp_line (start 7.7 1.65) (end 11.5 1.65) (layer F.CrtYd) (width 0.05))
  (fp_line (start 11.5 1.65) (end 11.5 -1.65) (layer F.CrtYd) (width 0.05))
  (fp_line (start 11.5 -1.65) (end 7.7 -1.65) (layer F.CrtYd) (width 0.05))
  (fp_line (start 12.5 -1.65) (end 12.5 1.65) (layer F.CrtYd) (width 0.05))
  (fp_line (start 12.5 1.65) (end 16.3 1.65) (layer F.CrtYd) (width 0.05))
  (fp_line (start 16.3 1.65) (end 16.3 -1.65) (layer F.CrtYd) (width 0.05))
  (fp_line (start 16.3 -1.65) (end 12.5 -1.65) (layer F.CrtYd) (width 0.05))
  (pad 1 thru_hole roundrect (at 0 0) (size 2.3 2.3) (drill 1.1) (layers *.Cu *.Mask) (roundrect_rratio 0.108696))
  (pad 2 thru_hole circle (at 4.8 0) (size 2.3 2.3) (drill 1.1) (layers *.Cu *.Mask))
  (pad 3 thru_hole circle (at 9.6 0) (size 2.3 2.3) (drill 1.1) (layers *.Cu *.Mask))
  (pad 4 thru_hole circle (at 14.4 0) (size 2.3 2.3) (drill 1.1) (layers *.Cu *.Mask))
  (fp_text user %R (at 7.2 0 90) (layer F.Fab)
    (effects (font (size 0.82 0.82) (thickness 0.12)))
  )
  (model ${KICAD6_3DMODEL_DIR}/Connector_Wire.3dshapes/SolderWire-0.5sqmm_1x04_P4.8mm_D0.9mm_OD2.3mm.wrl
    (at (xyz 0 0 0))
    (scale (xyz 1 1 1))
    (rotate (xyz 0 0 0))
  )
)