(module SolderWire-1sqmm_1x03_P5.4mm_D1.4mm_OD2.7mm_Relief (layer F.Cu) (tedit 5EB70B43)
  (descr "Soldered wire connection with feed through strain relief, for 3 times 1 mm² wires, basic insulation, conductor diameter 1.4mm, outer diameter 2.7mm, size source Multi-Contact FLEXI-E 1.0 (https://ec.staubli.com/AcroFiles/Catalogues/TM_Cab-Main-11014119_(en)_hi.pdf), bend radius 3 times outer diameter, generated with kicad-footprint-generator")
  (tags "connector wire 1sqmm strain-relief")
  (attr virtual)
  (fp_text reference REF** (at 5.4 -2.58) (layer F.SilkS)
    (effects (font (size 1 1) (thickness 0.15)))
  )
  (fp_text value SolderWire-1sqmm_1x03_P5.4mm_D1.4mm_OD2.7mm_Relief (at 5.4 19) (layer F.Fab)
    (effects (font (size 1 1) (thickness 0.15)))
  )
  (fp_circle (center 0 0) (end 1.35 0) (layer F.Fab) (width 0.1))
  (fp_circle (center 0 16.2) (end 1.35 16.2) (layer F.Fab) (width 0.1))
  (fp_circle (center 5.4 0) (end 6.75 0) (layer F.Fab) (width 0.1))
  (fp_circle (center 5.4 16.2) (end 6.75 16.2) (layer F.Fab) (width 0.1))
  (fp_circle (center 10.8 0) (end 12.15 0) (layer F.Fab) (width 0.1))
  (fp_circle (center 10.8 16.2) (end 12.15 16.2) (layer F.Fab) (width 0.1))
  (fp_line (start -1.35 0) (end -1.35 16.2) (layer F.Fab) (width 0.1))
  (fp_line (start 1.35 0) (end 1.35 16.2) (layer F.Fab) (width 0.1))
  (fp_line (start 1.46 1.635) (end 1.46 14.74) (layer F.SilkS) (width 0.12))
  (fp_line (start -1.46 1.635) (end -1.46 14.74) (layer F.SilkS) (width 0.12))
  (fp_line (start -2.1 -1.88) (end -2.1 18.3) (layer F.CrtYd) (width 0.05))
  (fp_line (start -2.1 18.3) (end 2.1 18.3) (layer F.CrtYd) (width 0.05))
  (fp_line (start 2.1 18.3) (end 2.1 -1.88) (layer F.CrtYd) (width 0.05))
  (fp_line (start 2.1 -1.88) (end -2.1 -1.88) (layer F.CrtYd) (width 0.05))
  (fp_line (start -2.1 14.1) (end -2.1 18.3) (layer B.CrtYd) (width 0.05))
  (fp_line (start -2.1 18.3) (end 2.1 18.3) (layer B.CrtYd) (width 0.05))
  (fp_line (start 2.1 18.3) (end 2.1 14.1) (layer B.CrtYd) (width 0.05))
  (fp_line (start 2.1 14.1) (end -2.1 14.1) (layer B.CrtYd) (width 0.05))
  (fp_line (start 4.05 0) (end 4.05 16.2) (layer F.Fab) (width 0.1))
  (fp_line (start 6.75 0) (end 6.75 16.2) (layer F.Fab) (width 0.1))
  (fp_line (start 6.86 1.635) (end 6.86 14.74) (layer F.SilkS) (width 0.12))
  (fp_line (start 3.94 1.635) (end 3.94 14.74) (layer F.SilkS) (width 0.12))
  (fp_line (start 3.3 -1.88) (end 3.3 18.3) (layer F.CrtYd) (width 0.05))
  (fp_line (start 3.3 18.3) (end 7.5 18.3) (layer F.CrtYd) (width 0.05))
  (fp_line (start 7.5 18.3) (end 7.5 -1.88) (layer F.CrtYd) (width 0.05))
  (fp_line (start 7.5 -1.88) (end 3.3 -1.88) (layer F.CrtYd) (width 0.05))
  (fp_line (start 3.3 14.1) (end 3.3 18.3) (layer B.CrtYd) (width 0.05))
  (fp_line (start 3.3 18.3) (end 7.5 18.3) (layer B.CrtYd) (width 0.05))
  (fp_line (start 7.5 18.3) (end 7.5 14.1) (layer B.CrtYd) (width 0.05))
  (fp_line (start 7.5 14.1) (end 3.3 14.1) (layer B.CrtYd) (width 0.05))
  (fp_line (start 9.45 0) (end 9.45 16.2) (layer F.Fab) (width 0.1))
  (fp_line (start 12.15 0) (end 12.15 16.2) (layer F.Fab) (width 0.1))
  (fp_line (start 12.26 1.635) (end 12.26 14.74) (layer F.SilkS) (width 0.12))
  (fp_line (start 9.34 1.635) (end 9.34 14.74) (layer F.SilkS) (width 0.12))
  (fp_line (start 8.7 -1.88) (end 8.7 18.3) (layer F.CrtYd) (width 0.05))
  (fp_line (start 8.7 18.3) (end 12.9 18.3) (layer F.CrtYd) (width 0.05))
  (fp_line (start 12.9 18.3) (end 12.9 -1.88) (layer F.CrtYd) (width 0.05))
  (fp_line (start 12.9 -1.88) (end 8.7 -1.88) (layer F.CrtYd) (width 0.05))
  (fp_line (start 8.7 14.1) (end 8.7 18.3) (layer B.CrtYd) (width 0.05))
  (fp_line (start 8.7 18.3) (end 12.9 18.3) (layer B.CrtYd) (width 0.05))
  (fp_line (start 12.9 18.3) (end 12.9 14.1) (layer B.CrtYd) (width 0.05))
  (fp_line (start 12.9 14.1) (end 8.7 14.1) (layer B.CrtYd) (width 0.05))
  (pad 1 thru_hole roundrect (at 0 0) (size 2.75 2.75) (drill 1.75) (layers *.Cu *.Mask) (roundrect_rratio 0.090909))
  (pad 2 thru_hole circle (at 5.4 0) (size 2.75 2.75) (drill 1.75) (layers *.Cu *.Mask))
  (pad 3 thru_hole circle (at 10.8 0) (size 2.75 2.75) (drill 1.75) (layers *.Cu *.Mask))
  (pad "" np_thru_hole circle (at 0 16.2) (size 3.2 3.2) (drill 3.2) (layers *.Cu *.Mask))
  (pad "" np_thru_hole circle (at 5.4 16.2) (size 3.2 3.2) (drill 3.2) (layers *.Cu *.Mask))
  (pad "" np_thru_hole circle (at 10.8 16.2) (size 3.2 3.2) (drill 3.2) (layers *.Cu *.Mask))
  (fp_text user %R (at 5.4 8.1 90) (layer F.Fab)
    (effects (font (size 1 1) (thickness 0.15)))
  )
  (model ${KICAD6_3DMODEL_DIR}/Connector_Wire.3dshapes/SolderWire-1sqmm_1x03_P5.4mm_D1.4mm_OD2.7mm_Relief.wrl
    (at (xyz 0 0 0))
    (scale (xyz 1 1 1))
    (rotate (xyz 0 0 0))
  )
)