(module SolderWire-0.5sqmm_1x06_P4.6mm_D0.9mm_OD2.1mm_Relief2x (layer F.Cu) (tedit 5EB70B43)
  (descr "Soldered wire connection with double feed through strain relief, for 6 times 0.5 mm² wires, basic insulation, conductor diameter 0.9mm, outer diameter 2.1mm, size source Multi-Contact FLEXI-E 0.5 (https://ec.staubli.com/AcroFiles/Catalogues/TM_Cab-Main-11014119_(en)_hi.pdf), bend radius 3 times outer diameter, generated with kicad-footprint-generator")
  (tags "connector wire 0.5sqmm double-strain-relief")
  (attr virtual)
  (fp_text reference REF** (at 11.5 -2.25) (layer F.SilkS)
    (effects (font (size 1 1) (thickness 0.15)))
  )
  (fp_text value SolderWire-0.5sqmm_1x06_P4.6mm_D0.9mm_OD2.1mm_Relief2x (at 11.5 27.7) (layer F.Fab)
    (effects (font (size 1 1) (thickness 0.15)))
  )
  (fp_circle (center 0 0) (end 1.05 0) (layer F.Fab) (width 0.1))
  (fp_circle (center 0 12.6) (end 1.05 12.6) (layer F.Fab) (width 0.1))
  (fp_circle (center 0 25.2) (end 1.05 25.2) (layer F.Fab) (width 0.1))
  (fp_circle (center 0 12.6) (end 1.05 12.6) (layer B.Fab) (width 0.1))
  (fp_circle (center 0 25.2) (end 1.05 25.2) (layer B.Fab) (width 0.1))
  (fp_circle (center 4.6 0) (end 5.65 0) (layer F.Fab) (width 0.1))
  (fp_circle (center 4.6 12.6) (end 5.65 12.6) (layer F.Fab) (width 0.1))
  (fp_circle (center 4.6 25.2) (end 5.65 25.2) (layer F.Fab) (width 0.1))
  (fp_circle (center 4.6 12.6) (end 5.65 12.6) (layer B.Fab) (width 0.1))
  (fp_circle (center 4.6 25.2) (end 5.65 25.2) (layer B.Fab) (width 0.1))
  (fp_circle (center 9.2 0) (end 10.25 0) (layer F.Fab) (width 0.1))
  (fp_circle (center 9.2 12.6) (end 10.25 12.6) (layer F.Fab) (width 0.1))
  (fp_circle (center 9.2 25.2) (end 10.25 25.2) (layer F.Fab) (width 0.1))
  (fp_circle (center 9.2 12.6) (end 10.25 12.6) (layer B.Fab) (width 0.1))
  (fp_circle (center 9.2 25.2) (end 10.25 25.2) (layer B.Fab) (width 0.1))
  (fp_circle (center 13.8 0) (end 14.85 0) (layer F.Fab) (width 0.1))
  (fp_circle (center 13.8 12.6) (end 14.85 12.6) (layer F.Fab) (width 0.1))
  (fp_circle (center 13.8 25.2) (end 14.85 25.2) (layer F.Fab) (width 0.1))
  (fp_circle (center 13.8 12.6) (end 14.85 12.6) (layer B.Fab) (width 0.1))
  (fp_circle (center 13.8 25.2) (end 14.85 25.2) (layer B.Fab) (width 0.1))
  (fp_circle (center 18.4 0) (end 19.45 0) (layer F.Fab) (width 0.1))
  (fp_circle (center 18.4 12.6) (end 19.45 12.6) (layer F.Fab) (width 0.1))
  (fp_circle (center 18.4 25.2) (end 19.45 25.2) (layer F.Fab) (width 0.1))
  (fp_circle (center 18.4 12.6) (end 19.45 12.6) (layer B.Fab) (width 0.1))
  (fp_circle (center 18.4 25.2) (end 19.45 25.2) (layer B.Fab) (width 0.1))
  (fp_circle (center 23 0) (end 24.05 0) (layer F.Fab) (width 0.1))
  (fp_circle (center 23 12.6) (end 24.05 12.6) (layer F.Fab) (width 0.1))
  (fp_circle (center 23 25.2) (end 24.05 25.2) (layer F.Fab) (width 0.1))
  (fp_circle (center 23 12.6) (end 24.05 12.6) (layer B.Fab) (width 0.1))
  (fp_circle (center 23 25.2) (end 24.05 25.2) (layer B.Fab) (width 0.1))
  (fp_line (start -1.05 0) (end -1.05 12.6) (layer F.Fab) (width 0.1))
  (fp_line (start 1.05 0) (end 1.05 12.6) (layer F.Fab) (width 0.1))
  (fp_line (start -1.05 12.6) (end -1.05 25.2) (layer B.Fab) (width 0.1))
  (fp_line (start 1.05 12.6) (end 1.05 25.2) (layer B.Fab) (width 0.1))
  (fp_line (start 1.16 1.31) (end 1.16 11.44) (layer F.SilkS) (width 0.12))
  (fp_line (start -1.16 1.31) (end -1.16 11.44) (layer F.SilkS) (width 0.12))
  (fp_line (start 1.16 13.76) (end 1.16 24.04) (layer B.SilkS) (width 0.12))
  (fp_line (start -1.16 13.76) (end -1.16 24.04) (layer B.SilkS) (width 0.12))
  (fp_line (start -1.8 -1.55) (end -1.8 14.4) (layer F.CrtYd) (width 0.05))
  (fp_line (start -1.8 14.4) (end 1.8 14.4) (layer F.CrtYd) (width 0.05))
  (fp_line (start 1.8 14.4) (end 1.8 -1.55) (layer F.CrtYd) (width 0.05))
  (fp_line (start 1.8 -1.55) (end -1.8 -1.55) (layer F.CrtYd) (width 0.05))
  (fp_line (start -1.8 23.4) (end -1.8 27) (layer F.CrtYd) (width 0.05))
  (fp_line (start -1.8 27) (end 1.8 27) (layer F.CrtYd) (width 0.05))
  (fp_line (start 1.8 27) (end 1.8 23.4) (layer F.CrtYd) (width 0.05))
  (fp_line (start 1.8 23.4) (end -1.8 23.4) (layer F.CrtYd) (width 0.05))
  (fp_line (start -1.8 10.8) (end -1.8 27) (layer B.CrtYd) (width 0.05))
  (fp_line (start -1.8 27) (end 1.8 27) (layer B.CrtYd) (width 0.05))
  (fp_line (start 1.8 27) (end 1.8 10.8) (layer B.CrtYd) (width 0.05))
  (fp_line (start 1.8 10.8) (end -1.8 10.8) (layer B.CrtYd) (width 0.05))
  (fp_line (start 3.55 0) (end 3.55 12.6) (layer F.Fab) (width 0.1))
  (fp_line (start 5.65 0) (end 5.65 12.6) (layer F.Fab) (width 0.1))
  (fp_line (start 3.55 12.6) (end 3.55 25.2) (layer B.Fab) (width 0.1))
  (fp_line (start 5.65 12.6) (end 5.65 25.2) (layer B.Fab) (width 0.1))
  (fp_line (start 5.76 1.31) (end 5.76 11.44) (layer F.SilkS) (width 0.12))
  (fp_line (start 3.44 1.31) (end 3.44 11.44) (layer F.SilkS) (width 0.12))
  (fp_line (start 5.76 13.76) (end 5.76 24.04) (layer B.SilkS) (width 0.12))
  (fp_line (start 3.44 13.76) (end 3.44 24.04) (layer B.SilkS) (width 0.12))
  (fp_line (start 2.8 -1.55) (end 2.8 14.4) (layer F.CrtYd) (width 0.05))
  (fp_line (start 2.8 14.4) (end 6.4 14.4) (layer F.CrtYd) (width 0.05))
  (fp_line (start 6.4 14.4) (end 6.4 -1.55) (layer F.CrtYd) (width 0.05))
  (fp_line (start 6.4 -1.55) (end 2.8 -1.55) (layer F.CrtYd) (width 0.05))
  (fp_line (start 2.8 23.4) (end 2.8 27) (layer F.CrtYd) (width 0.05))
  (fp_line (start 2.8 27) (end 6.4 27) (layer F.CrtYd) (width 0.05))
  (fp_line (start 6.4 27) (end 6.4 23.4) (layer F.CrtYd) (width 0.05))
  (fp_line (start 6.4 23.4) (end 2.8 23.4) (layer F.CrtYd) (width 0.05))
  (fp_line (start 2.8 10.8) (end 2.8 27) (layer B.CrtYd) (width 0.05))
  (fp_line (start 2.8 27) (end 6.4 27) (layer B.CrtYd) (width 0.05))
  (fp_line (start 6.4 27) (end 6.4 10.8) (layer B.CrtYd) (width 0.05))
  (fp_line (start 6.4 10.8) (end 2.8 10.8) (layer B.CrtYd) (width 0.05))
  (fp_line (start 8.15 0) (end 8.15 12.6) (layer F.Fab) (width 0.1))
  (fp_line (start 10.25 0) (end 10.25 12.6) (layer F.Fab) (width 0.1))
  (fp_line (start 8.15 12.6) (end 8.15 25.2) (layer B.Fab) (width 0.1))
  (fp_line (start 10.25 12.6) (end 10.25 25.2) (layer B.Fab) (width 0.1))
  (fp_line (start 10.36 1.31) (end 10.36 11.44) (layer F.SilkS) (width 0.12))
  (fp_line (start 8.04 1.31) (end 8.04 11.44) (layer F.SilkS) (width 0.12))
  (fp_line (start 10.36 13.76) (end 10.36 24.04) (layer B.SilkS) (width 0.12))
  (fp_line (start 8.04 13.76) (end 8.04 24.04) (layer B.SilkS) (width 0.12))
  (fp_line (start 7.4 -1.55) (end 7.4 14.4) (layer F.CrtYd) (width 0.05))
  (fp_line (start 7.4 14.4) (end 11 14.4) (layer F.CrtYd) (width 0.05))
  (fp_line (start 11 14.4) (end 11 -1.55) (layer F.CrtYd) (width 0.05))
  (fp_line (start 11 -1.55) (end 7.4 -1.55) (layer F.CrtYd) (width 0.05))
  (fp_line (start 7.4 23.4) (end 7.4 27) (layer F.CrtYd) (width 0.05))
  (fp_line (start 7.4 27) (end 11 27) (layer F.CrtYd) (width 0.05))
  (fp_line (start 11 27) (end 11 23.4) (layer F.CrtYd) (width 0.05))
  (fp_line (start 11 23.4) (end 7.4 23.4) (layer F.CrtYd) (width 0.05))
  (fp_line (start 7.4 10.8) (end 7.4 27) (layer B.CrtYd) (width 0.05))
  (fp_line (start 7.4 27) (end 11 27) (layer B.CrtYd) (width 0.05))
  (fp_line (start 11 27) (end 11 10.8) (layer B.CrtYd) (width 0.05))
  (fp_line (start 11 10.8) (end 7.4 10.8) (layer B.CrtYd) (width 0.05))
  (fp_line (start 12.75 0) (end 12.75 12.6) (layer F.Fab) (width 0.1))
  (fp_line (start 14.85 0) (end 14.85 12.6) (layer F.Fab) (width 0.1))
  (fp_line (start 12.75 12.6) (end 12.75 25.2) (layer B.Fab) (width 0.1))
  (fp_line (start 14.85 12.6) (end 14.85 25.2) (layer B.Fab) (width 0.1))
  (fp_line (start 14.96 1.31) (end 14.96 11.44) (layer F.SilkS) (width 0.12))
  (fp_line (start 12.64 1.31) (end 12.64 11.44) (layer F.SilkS) (width 0.12))
  (fp_line (start 14.96 13.76) (end 14.96 24.04) (layer B.SilkS) (width 0.12))
  (fp_line (start 12.64 13.76) (end 12.64 24.04) (layer B.SilkS) (width 0.12))
  (fp_line (start 12 -1.55) (end 12 14.4) (layer F.CrtYd) (width 0.05))
  (fp_line (start 12 14.4) (end 15.6 14.4) (layer F.CrtYd) (width 0.05))
  (fp_line (start 15.6 14.4) (end 15.6 -1.55) (layer F.CrtYd) (width 0.05))
  (fp_line (start 15.6 -1.55) (end 12 -1.55) (layer F.CrtYd) (width 0.05))
  (fp_line (start 12 23.4) (end 12 27) (layer F.CrtYd) (width 0.05))
  (fp_line (start 12 27) (end 15.6 27) (layer F.CrtYd) (width 0.05))
  (fp_line (start 15.6 27) (end 15.6 23.4) (layer F.CrtYd) (width 0.05))
  (fp_line (start 15.6 23.4) (end 12 23.4) (layer F.CrtYd) (width 0.05))
  (fp_line (start 12 10.8) (end 12 27) (layer B.CrtYd) (width 0.05))
  (fp_line (start 12 27) (end 15.6 27) (layer B.CrtYd) (width 0.05))
  (fp_line (start 15.6 27) (end 15.6 10.8) (layer B.CrtYd) (width 0.05))
  (fp_line (start 15.6 10.8) (end 12 10.8) (layer B.CrtYd) (width 0.05))
  (fp_line (start 17.35 0) (end 17.35 12.6) (layer F.Fab) (width 0.1))
  (fp_line (start 19.45 0) (end 19.45 12.6) (layer F.Fab) (width 0.1))
  (fp_line (start 17.35 12.6) (end 17.35 25.2) (layer B.Fab) (width 0.1))
  (fp_line (start 19.45 12.6) (end 19.45 25.2) (layer B.Fab) (width 0.1))
  (fp_line (start 19.56 1.31) (end 19.56 11.44) (layer F.SilkS) (width 0.12))
  (fp_line (start 17.24 1.31) (end 17.24 11.44) (layer F.SilkS) (width 0.12))
  (fp_line (start 19.56 13.76) (end 19.56 24.04) (layer B.SilkS) (width 0.12))
  (fp_line (start 17.24 13.76) (end 17.24 24.04) (layer B.SilkS) (width 0.12))
  (fp_line (start 16.6 -1.55) (end 16.6 14.4) (layer F.CrtYd) (width 0.05))
  (fp_line (start 16.6 14.4) (end 20.2 14.4) (layer F.CrtYd) (width 0.05))
  (fp_line (start 20.2 14.4) (end 20.2 -1.55) (layer F.CrtYd) (width 0.05))
  (fp_line (start 20.2 -1.55) (end 16.6 -1.55) (layer F.CrtYd) (width 0.05))
  (fp_line (start 16.6 23.4) (end 16.6 27) (layer F.CrtYd) (width 0.05))
  (fp_line (start 16.6 27) (end 20.2 27) (layer F.CrtYd) (width 0.05))
  (fp_line (start 20.2 27) (end 20.2 23.4) (layer F.CrtYd) (width 0.05))
  (fp_line (start 20.2 23.4) (end 16.6 23.4) (layer F.CrtYd) (width 0.05))
  (fp_line (start 16.6 10.8) (end 16.6 27) (layer B.CrtYd) (width 0.05))
  (fp_line (start 16.6 27) (end 20.2 27) (layer B.CrtYd) (width 0.05))
  (fp_line (start 20.2 27) (end 20.2 10.8) (layer B.CrtYd) (width 0.05))
  (fp_line (start 20.2 10.8) (end 16.6 10.8) (layer B.CrtYd) (width 0.05))
  (fp_line (start 21.95 0) (end 21.95 12.6) (layer F.Fab) (width 0.1))
  (fp_line (start 24.05 0) (end 24.05 12.6) (layer F.Fab) (width 0.1))
  (fp_line (start 21.95 12.6) (end 21.95 25.2) (layer B.Fab) (width 0.1))
  (fp_line (start 24.05 12.6) (end 24.05 25.2) (layer B.Fab) (width 0.1))
  (fp_line (start 24.16 1.31) (end 24.16 11.44) (layer F.SilkS) (width 0.12))
  (fp_line (start 21.84 1.31) (end 21.84 11.44) (layer F.SilkS) (width 0.12))
  (fp_line (start 24.16 13.76) (end 24.16 24.04) (layer B.SilkS) (width 0.12))
  (fp_line (start 21.84 13.76) (end 21.84 24.04) (layer B.SilkS) (width 0.12))
  (fp_line (start 21.2 -1.55) (end 21.2 14.4) (layer F.CrtYd) (width 0.05))
  (fp_line (start 21.2 14.4) (end 24.8 14.4) (layer F.CrtYd) (width 0.05))
  (fp_line (start 24.8 14.4) (end 24.8 -1.55) (layer F.CrtYd) (width 0.05))
  (fp_line (start 24.8 -1.55) (end 21.2 -1.55) (layer F.CrtYd) (width 0.05))
  (fp_line (start 21.2 23.4) (end 21.2 27) (layer F.CrtYd) (width 0.05))
  (fp_line (start 21.2 27) (end 24.8 27) (layer F.CrtYd) (width 0.05))
  (fp_line (start 24.8 27) (end 24.8 23.4) (layer F.CrtYd) (width 0.05))
  (fp_line (start 24.8 23.4) (end 21.2 23.4) (layer F.CrtYd) (width 0.05))
  (fp_line (start 21.2 10.8) (end 21.2 27) (layer B.CrtYd) (width 0.05))
  (fp_line (start 21.2 27) (end 24.8 27) (layer B.CrtYd) (width 0.05))
  (fp_line (start 24.8 27) (end 24.8 10.8) (layer B.CrtYd) (width 0.05))
  (fp_line (start 24.8 10.8) (end 21.2 10.8) (layer B.CrtYd) (width 0.05))
  (pad 1 thru_hole roundrect (at 0 0) (size 2.1 2.1) (drill 1.1) (layers *.Cu *.Mask) (roundrect_rratio 0.119048))
  (pad 2 thru_hole circle (at 4.6 0) (size 2.1 2.1) (drill 1.1) (layers *.Cu *.Mask))
  (pad 3 thru_hole circle (at 9.2 0) (size 2.1 2.1) (drill 1.1) (layers *.Cu *.Mask))
  (pad 4 thru_hole circle (at 13.8 0) (size 2.1 2.1) (drill 1.1) (layers *.Cu *.Mask))
  (pad 5 thru_hole circle (at 18.4 0) (size 2.1 2.1) (drill 1.1) (layers *.Cu *.Mask))
  (pad 6 thru_hole circle (at 23 0) (size 2.1 2.1) (drill 1.1) (layers *.Cu *.Mask))
  (pad "" np_thru_hole circle (at 0 12.6) (size 2.6 2.6) (drill 2.6) (layers *.Cu *.Mask))
  (pad "" np_thru_hole circle (at 0 25.2) (size 2.6 2.6) (drill 2.6) (layers *.Cu *.Mask))
  (pad "" np_thru_hole circle (at 4.6 12.6) (size 2.6 2.6) (drill 2.6) (layers *.Cu *.Mask))
  (pad "" np_thru_hole circle (at 4.6 25.2) (size 2.6 2.6) (drill 2.6) (layers *.Cu *.Mask))
  (pad "" np_thru_hole circle (at 9.2 12.6) (size 2.6 2.6) (drill 2.6) (layers *.Cu *.Mask))
  (pad "" np_thru_hole circle (at 9.2 25.2) (size 2.6 2.6) (drill 2.6) (layers *.Cu *.Mask))
  (pad "" np_thru_hole circle (at 13.8 12.6) (size 2.6 2.6) (drill 2.6) (layers *.Cu *.Mask))
  (pad "" np_thru_hole circle (at 13.8 25.2) (size 2.6 2.6) (drill 2.6) (layers *.Cu *.Mask))
  (pad "" np_thru_hole circle (at 18.4 12.6) (size 2.6 2.6) (drill 2.6) (layers *.Cu *.Mask))
  (pad "" np_thru_hole circle (at 18.4 25.2) (size 2.6 2.6) (drill 2.6) (layers *.Cu *.Mask))
  (pad "" np_thru_hole circle (at 23 12.6) (size 2.6 2.6) (drill 2.6) (layers *.Cu *.Mask))
  (pad "" np_thru_hole circle (at 23 25.2) (size 2.6 2.6) (drill 2.6) (layers *.Cu *.Mask))
  (fp_text user %R (at 11.5 6.3 90) (layer F.Fab)
    (effects (font (size 1 1) (thickness 0.15)))
  )
  (model ${KICAD6_3DMODEL_DIR}/Connector_Wire.3dshapes/SolderWire-0.5sqmm_1x06_P4.6mm_D0.9mm_OD2.1mm_Relief2x.wrl
    (at (xyz 0 0 0))
    (scale (xyz 1 1 1))
    (rotate (xyz 0 0 0))
  )
)