(module SolderWire-2.5sqmm_1x01_D2.4mm_OD4.4mm_Relief (layer F.Cu) (tedit 5EB70B45)
  (descr "Soldered wire connection with feed through strain relief, for a single 2.5 mm² wire, reinforced insulation, conductor diameter 2.4mm, outer diameter 4.4mm, size source Multi-Contact FLEXI-xV 2.5 (https://ec.staubli.com/AcroFiles/Catalogues/TM_Cab-Main-11014119_(en)_hi.pdf), bend radius 3 times outer diameter, generated with kicad-footprint-generator")
  (tags "connector wire 2.5sqmm strain-relief")
  (attr virtual)
  (fp_text reference REF** (at 0 -3.4) (layer F.SilkS)
    (effects (font (size 1 1) (thickness 0.15)))
  )
  (fp_text value SolderWire-2.5sqmm_1x01_D2.4mm_OD4.4mm_Relief (at 0 30.05) (layer F.Fab)
    (effects (font (size 1 1) (thickness 0.15)))
  )
  (fp_circle (center 0 0) (end 2.2 0) (layer F.Fab) (width 0.1))
  (fp_circle (center 0 26.4) (end 2.2 26.4) (layer F.Fab) (width 0.1))
  (fp_line (start -2.2 0) (end -2.2 26.4) (layer F.Fab) (width 0.1))
  (fp_line (start 2.2 0) (end 2.2 26.4) (layer F.Fab) (width 0.1))
  (fp_line (start 2.31 2.46) (end 2.31 24.09) (layer F.SilkS) (width 0.12))
  (fp_line (start -2.31 2.46) (end -2.31 24.09) (layer F.SilkS) (width 0.12))
  (fp_line (start -2.95 -2.7) (end -2.95 29.35) (layer F.CrtYd) (width 0.05))
  (fp_line (start -2.95 29.35) (end 2.95 29.35) (layer F.CrtYd) (width 0.05))
  (fp_line (start 2.95 29.35) (end 2.95 -2.7) (layer F.CrtYd) (width 0.05))
  (fp_line (start 2.95 -2.7) (end -2.95 -2.7) (layer F.CrtYd) (width 0.05))
  (fp_line (start -2.95 23.45) (end -2.95 29.35) (layer B.CrtYd) (width 0.05))
  (fp_line (start -2.95 29.35) (end 2.95 29.35) (layer B.CrtYd) (width 0.05))
  (fp_line (start 2.95 29.35) (end 2.95 23.45) (layer B.CrtYd) (width 0.05))
  (fp_line (start 2.95 23.45) (end -2.95 23.45) (layer B.CrtYd) (width 0.05))
  (pad 1 thru_hole roundrect (at 0 0) (size 4.4 4.4) (drill 3) (layers *.Cu *.Mask) (roundrect_rratio 0.056818))
  (pad "" np_thru_hole circle (at 0 26.4) (size 4.9 4.9) (drill 4.9) (layers *.Cu *.Mask))
  (fp_text user %R (at 0 13.2) (layer F.Fab)
    (effects (font (size 1 1) (thickness 0.15)))
  )
  (model ${KICAD6_3DMODEL_DIR}/Connector_Wire.3dshapes/SolderWire-2.5sqmm_1x01_D2.4mm_OD4.4mm_Relief.wrl
    (at (xyz 0 0 0))
    (scale (xyz 1 1 1))
    (rotate (xyz 0 0 0))
  )
)