(module SolderWire-1.5sqmm_1x02_P7.8mm_D1.7mm_OD3.9mm_Relief2x (layer F.Cu) (tedit 5EB70B45)
  (descr "Soldered wire connection with double feed through strain relief, for 2 times 1.5 mm² wires, reinforced insulation, conductor diameter 1.7mm, outer diameter 3.9mm, size source Multi-Contact FLEXI-xV 1.5 (https://ec.staubli.com/AcroFiles/Catalogues/TM_Cab-Main-11014119_(en)_hi.pdf), bend radius 3 times outer diameter, generated with kicad-footprint-generator")
  (tags "connector wire 1.5sqmm double-strain-relief")
  (attr virtual)
  (fp_text reference REF** (at 3.9 -3.15) (layer F.SilkS)
    (effects (font (size 1 1) (thickness 0.15)))
  )
  (fp_text value SolderWire-1.5sqmm_1x02_P7.8mm_D1.7mm_OD3.9mm_Relief2x (at 3.9 50.2) (layer F.Fab)
    (effects (font (size 1 1) (thickness 0.15)))
  )
  (fp_circle (center 0 0) (end 1.95 0) (layer F.Fab) (width 0.1))
  (fp_circle (center 0 23.4) (end 1.95 23.4) (layer F.Fab) (width 0.1))
  (fp_circle (center 0 46.8) (end 1.95 46.8) (layer F.Fab) (width 0.1))
  (fp_circle (center 0 23.4) (end 1.95 23.4) (layer B.Fab) (width 0.1))
  (fp_circle (center 0 46.8) (end 1.95 46.8) (layer B.Fab) (width 0.1))
  (fp_circle (center 7.8 0) (end 9.75 0) (layer F.Fab) (width 0.1))
  (fp_circle (center 7.8 23.4) (end 9.75 23.4) (layer F.Fab) (width 0.1))
  (fp_circle (center 7.8 46.8) (end 9.75 46.8) (layer F.Fab) (width 0.1))
  (fp_circle (center 7.8 23.4) (end 9.75 23.4) (layer B.Fab) (width 0.1))
  (fp_circle (center 7.8 46.8) (end 9.75 46.8) (layer B.Fab) (width 0.1))
  (fp_line (start -1.95 0) (end -1.95 23.4) (layer F.Fab) (width 0.1))
  (fp_line (start 1.95 0) (end 1.95 23.4) (layer F.Fab) (width 0.1))
  (fp_line (start -1.95 23.4) (end -1.95 46.8) (layer B.Fab) (width 0.1))
  (fp_line (start 1.95 23.4) (end 1.95 46.8) (layer B.Fab) (width 0.1))
  (fp_line (start 2.06 2.21) (end 2.06 21.34) (layer F.SilkS) (width 0.12))
  (fp_line (start -2.06 2.21) (end -2.06 21.34) (layer F.SilkS) (width 0.12))
  (fp_line (start 2.06 25.46) (end 2.06 44.74) (layer B.SilkS) (width 0.12))
  (fp_line (start -2.06 25.46) (end -2.06 44.74) (layer B.SilkS) (width 0.12))
  (fp_line (start -2.7 -2.45) (end -2.7 26.1) (layer F.CrtYd) (width 0.05))
  (fp_line (start -2.7 26.1) (end 2.7 26.1) (layer F.CrtYd) (width 0.05))
  (fp_line (start 2.7 26.1) (end 2.7 -2.45) (layer F.CrtYd) (width 0.05))
  (fp_line (start 2.7 -2.45) (end -2.7 -2.45) (layer F.CrtYd) (width 0.05))
  (fp_line (start -2.7 44.1) (end -2.7 49.5) (layer F.CrtYd) (width 0.05))
  (fp_line (start -2.7 49.5) (end 2.7 49.5) (layer F.CrtYd) (width 0.05))
  (fp_line (start 2.7 49.5) (end 2.7 44.1) (layer F.CrtYd) (width 0.05))
  (fp_line (start 2.7 44.1) (end -2.7 44.1) (layer F.CrtYd) (width 0.05))
  (fp_line (start -2.7 20.7) (end -2.7 49.5) (layer B.CrtYd) (width 0.05))
  (fp_line (start -2.7 49.5) (end 2.7 49.5) (layer B.CrtYd) (width 0.05))
  (fp_line (start 2.7 49.5) (end 2.7 20.7) (layer B.CrtYd) (width 0.05))
  (fp_line (start 2.7 20.7) (end -2.7 20.7) (layer B.CrtYd) (width 0.05))
  (fp_line (start 5.85 0) (end 5.85 23.4) (layer F.Fab) (width 0.1))
  (fp_line (start 9.75 0) (end 9.75 23.4) (layer F.Fab) (width 0.1))
  (fp_line (start 5.85 23.4) (end 5.85 46.8) (layer B.Fab) (width 0.1))
  (fp_line (start 9.75 23.4) (end 9.75 46.8) (layer B.Fab) (width 0.1))
  (fp_line (start 9.86 2.21) (end 9.86 21.34) (layer F.SilkS) (width 0.12))
  (fp_line (start 5.74 2.21) (end 5.74 21.34) (layer F.SilkS) (width 0.12))
  (fp_line (start 9.86 25.46) (end 9.86 44.74) (layer B.SilkS) (width 0.12))
  (fp_line (start 5.74 25.46) (end 5.74 44.74) (layer B.SilkS) (width 0.12))
  (fp_line (start 5.1 -2.45) (end 5.1 26.1) (layer F.CrtYd) (width 0.05))
  (fp_line (start 5.1 26.1) (end 10.5 26.1) (layer F.CrtYd) (width 0.05))
  (fp_line (start 10.5 26.1) (end 10.5 -2.45) (layer F.CrtYd) (width 0.05))
  (fp_line (start 10.5 -2.45) (end 5.1 -2.45) (layer F.CrtYd) (width 0.05))
  (fp_line (start 5.1 44.1) (end 5.1 49.5) (layer F.CrtYd) (width 0.05))
  (fp_line (start 5.1 49.5) (end 10.5 49.5) (layer F.CrtYd) (width 0.05))
  (fp_line (start 10.5 49.5) (end 10.5 44.1) (layer F.CrtYd) (width 0.05))
  (fp_line (start 10.5 44.1) (end 5.1 44.1) (layer F.CrtYd) (width 0.05))
  (fp_line (start 5.1 20.7) (end 5.1 49.5) (layer B.CrtYd) (width 0.05))
  (fp_line (start 5.1 49.5) (end 10.5 49.5) (layer B.CrtYd) (width 0.05))
  (fp_line (start 10.5 49.5) (end 10.5 20.7) (layer B.CrtYd) (width 0.05))
  (fp_line (start 10.5 20.7) (end 5.1 20.7) (layer B.CrtYd) (width 0.05))
  (pad 1 thru_hole roundrect (at 0 0) (size 3.9 3.9) (drill 2.1) (layers *.Cu *.Mask) (roundrect_rratio 0.064103))
  (pad 2 thru_hole circle (at 7.8 0) (size 3.9 3.9) (drill 2.1) (layers *.Cu *.Mask))
  (pad "" np_thru_hole circle (at 0 23.4) (size 4.4 4.4) (drill 4.4) (layers *.Cu *.Mask))
  (pad "" np_thru_hole circle (at 0 46.8) (size 4.4 4.4) (drill 4.4) (layers *.Cu *.Mask))
  (pad "" np_thru_hole circle (at 7.8 23.4) (size 4.4 4.4) (drill 4.4) (layers *.Cu *.Mask))
  (pad "" np_thru_hole circle (at 7.8 46.8) (size 4.4 4.4) (drill 4.4) (layers *.Cu *.Mask))
  (fp_text user %R (at 3.9 11.7 90) (layer F.Fab)
    (effects (font (size 1 1) (thickness 0.15)))
  )
  (model ${KICAD6_3DMODEL_DIR}/Connector_Wire.3dshapes/SolderWire-1.5sqmm_1x02_P7.8mm_D1.7mm_OD3.9mm_Relief2x.wrl
    (at (xyz 0 0 0))
    (scale (xyz 1 1 1))
    (rotate (xyz 0 0 0))
  )
)