(module SolderWire-1.5sqmm_1x02_P6mm_D1.7mm_OD3mm (layer F.Cu) (tedit 5EB70B43)
  (descr "Soldered wire connection, for 2 times 1.5 mm² wires, basic insulation, conductor diameter 1.7mm, outer diameter 3mm, size source Multi-Contact FLEXI-E 1.5 (https://ec.staubli.com/AcroFiles/Catalogues/TM_Cab-Main-11014119_(en)_hi.pdf), bend radius 3 times outer diameter, generated with kicad-footprint-generator")
  (tags "connector wire 1.5sqmm")
  (attr virtual)
  (fp_text reference REF** (at 3 -2.75) (layer F.SilkS)
    (effects (font (size 1 1) (thickness 0.15)))
  )
  (fp_text value SolderWire-1.5sqmm_1x02_P6mm_D1.7mm_OD3mm (at 3 2.75) (layer F.Fab)
    (effects (font (size 1 1) (thickness 0.15)))
  )
  (fp_circle (center 0 0) (end 1.5 0) (layer F.Fab) (width 0.1))
  (fp_circle (center 6 0) (end 7.5 0) (layer F.Fab) (width 0.1))
  (fp_line (start -2.25 -2.05) (end -2.25 2.05) (layer F.CrtYd) (width 0.05))
  (fp_line (start -2.25 2.05) (end 2.25 2.05) (layer F.CrtYd) (width 0.05))
  (fp_line (start 2.25 2.05) (end 2.25 -2.05) (layer F.CrtYd) (width 0.05))
  (fp_line (start 2.25 -2.05) (end -2.25 -2.05) (layer F.CrtYd) (width 0.05))
  (fp_line (start 3.75 -2.05) (end 3.75 2.05) (layer F.CrtYd) (width 0.05))
  (fp_line (start 3.75 2.05) (end 8.25 2.05) (layer F.CrtYd) (width 0.05))
  (fp_line (start 8.25 2.05) (end 8.25 -2.05) (layer F.CrtYd) (width 0.05))
  (fp_line (start 8.25 -2.05) (end 3.75 -2.05) (layer F.CrtYd) (width 0.05))
  (pad 1 thru_hole roundrect (at 0 0) (size 3.1 3.1) (drill 2.1) (layers *.Cu *.Mask) (roundrect_rratio 0.080645))
  (pad 2 thru_hole circle (at 6 0) (size 3.1 3.1) (drill 2.1) (layers *.Cu *.Mask))
  (fp_text user %R (at 3 0 90) (layer F.Fab)
    (effects (font (size 1 1) (thickness 0.15)))
  )
  (model ${KICAD6_3DMODEL_DIR}/Connector_Wire.3dshapes/SolderWire-1.5sqmm_1x02_P6mm_D1.7mm_OD3mm.wrl
    (at (xyz 0 0 0))
    (scale (xyz 1 1 1))
    (rotate (xyz 0 0 0))
  )
)