(module SolderWire-1sqmm_1x02_P7.8mm_D1.4mm_OD3.9mm (layer F.Cu) (tedit 5EB70B44)
  (descr "Soldered wire connection, for 2 times 1 mm² wires, reinforced insulation, conductor diameter 1.4mm, outer diameter 3.9mm, size source Multi-Contact FLEXI-xV 1.0 (https://ec.staubli.com/AcroFiles/Catalogues/TM_Cab-Main-11014119_(en)_hi.pdf), bend radius 3 times outer diameter, generated with kicad-footprint-generator")
  (tags "connector wire 1sqmm")
  (attr virtual)
  (fp_text reference REF** (at 3.9 -3.15) (layer F.SilkS)
    (effects (font (size 1 1) (thickness 0.15)))
  )
  (fp_text value SolderWire-1sqmm_1x02_P7.8mm_D1.4mm_OD3.9mm (at 3.9 3.15) (layer F.Fab)
    (effects (font (size 1 1) (thickness 0.15)))
  )
  (fp_circle (center 0 0) (end 1.95 0) (layer F.Fab) (width 0.1))
  (fp_circle (center 7.8 0) (end 9.75 0) (layer F.Fab) (width 0.1))
  (fp_line (start -2.7 -2.45) (end -2.7 2.45) (layer F.CrtYd) (width 0.05))
  (fp_line (start -2.7 2.45) (end 2.7 2.45) (layer F.CrtYd) (width 0.05))
  (fp_line (start 2.7 2.45) (end 2.7 -2.45) (layer F.CrtYd) (width 0.05))
  (fp_line (start 2.7 -2.45) (end -2.7 -2.45) (layer F.CrtYd) (width 0.05))
  (fp_line (start 5.1 -2.45) (end 5.1 2.45) (layer F.CrtYd) (width 0.05))
  (fp_line (start 5.1 2.45) (end 10.5 2.45) (layer F.CrtYd) (width 0.05))
  (fp_line (start 10.5 2.45) (end 10.5 -2.45) (layer F.CrtYd) (width 0.05))
  (fp_line (start 10.5 -2.45) (end 5.1 -2.45) (layer F.CrtYd) (width 0.05))
  (pad 1 thru_hole roundrect (at 0 0) (size 3.9 3.9) (drill 1.75) (layers *.Cu *.Mask) (roundrect_rratio 0.064103))
  (pad 2 thru_hole circle (at 7.8 0) (size 3.9 3.9) (drill 1.75) (layers *.Cu *.Mask))
  (fp_text user %R (at 3.9 0 90) (layer F.Fab)
    (effects (font (size 1 1) (thickness 0.15)))
  )
  (model ${KICAD6_3DMODEL_DIR}/Connector_Wire.3dshapes/SolderWire-1sqmm_1x02_P7.8mm_D1.4mm_OD3.9mm.wrl
    (at (xyz 0 0 0))
    (scale (xyz 1 1 1))
    (rotate (xyz 0 0 0))
  )
)