(module SolderWire-0.75sqmm_1x06_P7mm_D1.25mm_OD3.5mm_Relief2x (layer F.Cu) (tedit 5EB70B44)
  (descr "Soldered wire connection with double feed through strain relief, for 6 times 0.75 mm² wires, reinforced insulation, conductor diameter 1.25mm, outer diameter 3.5mm, size source Multi-Contact FLEXI-xV 0.75 (https://ec.staubli.com/AcroFiles/Catalogues/TM_Cab-Main-11014119_(en)_hi.pdf), bend radius 3 times outer diameter, generated with kicad-footprint-generator")
  (tags "connector wire 0.75sqmm double-strain-relief")
  (attr virtual)
  (fp_text reference REF** (at 17.5 -2.95) (layer F.SilkS)
    (effects (font (size 1 1) (thickness 0.15)))
  )
  (fp_text value SolderWire-0.75sqmm_1x06_P7mm_D1.25mm_OD3.5mm_Relief2x (at 17.5 45.2) (layer F.Fab)
    (effects (font (size 1 1) (thickness 0.15)))
  )
  (fp_circle (center 0 0) (end 1.75 0) (layer F.Fab) (width 0.1))
  (fp_circle (center 0 21) (end 1.75 21) (layer F.Fab) (width 0.1))
  (fp_circle (center 0 42) (end 1.75 42) (layer F.Fab) (width 0.1))
  (fp_circle (center 0 21) (end 1.75 21) (layer B.Fab) (width 0.1))
  (fp_circle (center 0 42) (end 1.75 42) (layer B.Fab) (width 0.1))
  (fp_circle (center 7 0) (end 8.75 0) (layer F.Fab) (width 0.1))
  (fp_circle (center 7 21) (end 8.75 21) (layer F.Fab) (width 0.1))
  (fp_circle (center 7 42) (end 8.75 42) (layer F.Fab) (width 0.1))
  (fp_circle (center 7 21) (end 8.75 21) (layer B.Fab) (width 0.1))
  (fp_circle (center 7 42) (end 8.75 42) (layer B.Fab) (width 0.1))
  (fp_circle (center 14 0) (end 15.75 0) (layer F.Fab) (width 0.1))
  (fp_circle (center 14 21) (end 15.75 21) (layer F.Fab) (width 0.1))
  (fp_circle (center 14 42) (end 15.75 42) (layer F.Fab) (width 0.1))
  (fp_circle (center 14 21) (end 15.75 21) (layer B.Fab) (width 0.1))
  (fp_circle (center 14 42) (end 15.75 42) (layer B.Fab) (width 0.1))
  (fp_circle (center 21 0) (end 22.75 0) (layer F.Fab) (width 0.1))
  (fp_circle (center 21 21) (end 22.75 21) (layer F.Fab) (width 0.1))
  (fp_circle (center 21 42) (end 22.75 42) (layer F.Fab) (width 0.1))
  (fp_circle (center 21 21) (end 22.75 21) (layer B.Fab) (width 0.1))
  (fp_circle (center 21 42) (end 22.75 42) (layer B.Fab) (width 0.1))
  (fp_circle (center 28 0) (end 29.75 0) (layer F.Fab) (width 0.1))
  (fp_circle (center 28 21) (end 29.75 21) (layer F.Fab) (width 0.1))
  (fp_circle (center 28 42) (end 29.75 42) (layer F.Fab) (width 0.1))
  (fp_circle (center 28 21) (end 29.75 21) (layer B.Fab) (width 0.1))
  (fp_circle (center 28 42) (end 29.75 42) (layer B.Fab) (width 0.1))
  (fp_circle (center 35 0) (end 36.75 0) (layer F.Fab) (width 0.1))
  (fp_circle (center 35 21) (end 36.75 21) (layer F.Fab) (width 0.1))
  (fp_circle (center 35 42) (end 36.75 42) (layer F.Fab) (width 0.1))
  (fp_circle (center 35 21) (end 36.75 21) (layer B.Fab) (width 0.1))
  (fp_circle (center 35 42) (end 36.75 42) (layer B.Fab) (width 0.1))
  (fp_line (start -1.75 0) (end -1.75 21) (layer F.Fab) (width 0.1))
  (fp_line (start 1.75 0) (end 1.75 21) (layer F.Fab) (width 0.1))
  (fp_line (start -1.75 21) (end -1.75 42) (layer B.Fab) (width 0.1))
  (fp_line (start 1.75 21) (end 1.75 42) (layer B.Fab) (width 0.1))
  (fp_line (start 1.86 2.01) (end 1.86 19.14) (layer F.SilkS) (width 0.12))
  (fp_line (start -1.86 2.01) (end -1.86 19.14) (layer F.SilkS) (width 0.12))
  (fp_line (start 1.86 22.86) (end 1.86 40.14) (layer B.SilkS) (width 0.12))
  (fp_line (start -1.86 22.86) (end -1.86 40.14) (layer B.SilkS) (width 0.12))
  (fp_line (start -2.5 -2.25) (end -2.5 23.5) (layer F.CrtYd) (width 0.05))
  (fp_line (start -2.5 23.5) (end 2.5 23.5) (layer F.CrtYd) (width 0.05))
  (fp_line (start 2.5 23.5) (end 2.5 -2.25) (layer F.CrtYd) (width 0.05))
  (fp_line (start 2.5 -2.25) (end -2.5 -2.25) (layer F.CrtYd) (width 0.05))
  (fp_line (start -2.5 39.5) (end -2.5 44.5) (layer F.CrtYd) (width 0.05))
  (fp_line (start -2.5 44.5) (end 2.5 44.5) (layer F.CrtYd) (width 0.05))
  (fp_line (start 2.5 44.5) (end 2.5 39.5) (layer F.CrtYd) (width 0.05))
  (fp_line (start 2.5 39.5) (end -2.5 39.5) (layer F.CrtYd) (width 0.05))
  (fp_line (start -2.5 18.5) (end -2.5 44.5) (layer B.CrtYd) (width 0.05))
  (fp_line (start -2.5 44.5) (end 2.5 44.5) (layer B.CrtYd) (width 0.05))
  (fp_line (start 2.5 44.5) (end 2.5 18.5) (layer B.CrtYd) (width 0.05))
  (fp_line (start 2.5 18.5) (end -2.5 18.5) (layer B.CrtYd) (width 0.05))
  (fp_line (start 5.25 0) (end 5.25 21) (layer F.Fab) (width 0.1))
  (fp_line (start 8.75 0) (end 8.75 21) (layer F.Fab) (width 0.1))
  (fp_line (start 5.25 21) (end 5.25 42) (layer B.Fab) (width 0.1))
  (fp_line (start 8.75 21) (end 8.75 42) (layer B.Fab) (width 0.1))
  (fp_line (start 8.86 2.01) (end 8.86 19.14) (layer F.SilkS) (width 0.12))
  (fp_line (start 5.14 2.01) (end 5.14 19.14) (layer F.SilkS) (width 0.12))
  (fp_line (start 8.86 22.86) (end 8.86 40.14) (layer B.SilkS) (width 0.12))
  (fp_line (start 5.14 22.86) (end 5.14 40.14) (layer B.SilkS) (width 0.12))
  (fp_line (start 4.5 -2.25) (end 4.5 23.5) (layer F.CrtYd) (width 0.05))
  (fp_line (start 4.5 23.5) (end 9.5 23.5) (layer F.CrtYd) (width 0.05))
  (fp_line (start 9.5 23.5) (end 9.5 -2.25) (layer F.CrtYd) (width 0.05))
  (fp_line (start 9.5 -2.25) (end 4.5 -2.25) (layer F.CrtYd) (width 0.05))
  (fp_line (start 4.5 39.5) (end 4.5 44.5) (layer F.CrtYd) (width 0.05))
  (fp_line (start 4.5 44.5) (end 9.5 44.5) (layer F.CrtYd) (width 0.05))
  (fp_line (start 9.5 44.5) (end 9.5 39.5) (layer F.CrtYd) (width 0.05))
  (fp_line (start 9.5 39.5) (end 4.5 39.5) (layer F.CrtYd) (width 0.05))
  (fp_line (start 4.5 18.5) (end 4.5 44.5) (layer B.CrtYd) (width 0.05))
  (fp_line (start 4.5 44.5) (end 9.5 44.5) (layer B.CrtYd) (width 0.05))
  (fp_line (start 9.5 44.5) (end 9.5 18.5) (layer B.CrtYd) (width 0.05))
  (fp_line (start 9.5 18.5) (end 4.5 18.5) (layer B.CrtYd) (width 0.05))
  (fp_line (start 12.25 0) (end 12.25 21) (layer F.Fab) (width 0.1))
  (fp_line (start 15.75 0) (end 15.75 21) (layer F.Fab) (width 0.1))
  (fp_line (start 12.25 21) (end 12.25 42) (layer B.Fab) (width 0.1))
  (fp_line (start 15.75 21) (end 15.75 42) (layer B.Fab) (width 0.1))
  (fp_line (start 15.86 2.01) (end 15.86 19.14) (layer F.SilkS) (width 0.12))
  (fp_line (start 12.14 2.01) (end 12.14 19.14) (layer F.SilkS) (width 0.12))
  (fp_line (start 15.86 22.86) (end 15.86 40.14) (layer B.SilkS) (width 0.12))
  (fp_line (start 12.14 22.86) (end 12.14 40.14) (layer B.SilkS) (width 0.12))
  (fp_line (start 11.5 -2.25) (end 11.5 23.5) (layer F.CrtYd) (width 0.05))
  (fp_line (start 11.5 23.5) (end 16.5 23.5) (layer F.CrtYd) (width 0.05))
  (fp_line (start 16.5 23.5) (end 16.5 -2.25) (layer F.CrtYd) (width 0.05))
  (fp_line (start 16.5 -2.25) (end 11.5 -2.25) (layer F.CrtYd) (width 0.05))
  (fp_line (start 11.5 39.5) (end 11.5 44.5) (layer F.CrtYd) (width 0.05))
  (fp_line (start 11.5 44.5) (end 16.5 44.5) (layer F.CrtYd) (width 0.05))
  (fp_line (start 16.5 44.5) (end 16.5 39.5) (layer F.CrtYd) (width 0.05))
  (fp_line (start 16.5 39.5) (end 11.5 39.5) (layer F.CrtYd) (width 0.05))
  (fp_line (start 11.5 18.5) (end 11.5 44.5) (layer B.CrtYd) (width 0.05))
  (fp_line (start 11.5 44.5) (end 16.5 44.5) (layer B.CrtYd) (width 0.05))
  (fp_line (start 16.5 44.5) (end 16.5 18.5) (layer B.CrtYd) (width 0.05))
  (fp_line (start 16.5 18.5) (end 11.5 18.5) (layer B.CrtYd) (width 0.05))
  (fp_line (start 19.25 0) (end 19.25 21) (layer F.Fab) (width 0.1))
  (fp_line (start 22.75 0) (end 22.75 21) (layer F.Fab) (width 0.1))
  (fp_line (start 19.25 21) (end 19.25 42) (layer B.Fab) (width 0.1))
  (fp_line (start 22.75 21) (end 22.75 42) (layer B.Fab) (width 0.1))
  (fp_line (start 22.86 2.01) (end 22.86 19.14) (layer F.SilkS) (width 0.12))
  (fp_line (start 19.14 2.01) (end 19.14 19.14) (layer F.SilkS) (width 0.12))
  (fp_line (start 22.86 22.86) (end 22.86 40.14) (layer B.SilkS) (width 0.12))
  (fp_line (start 19.14 22.86) (end 19.14 40.14) (layer B.SilkS) (width 0.12))
  (fp_line (start 18.5 -2.25) (end 18.5 23.5) (layer F.CrtYd) (width 0.05))
  (fp_line (start 18.5 23.5) (end 23.5 23.5) (layer F.CrtYd) (width 0.05))
  (fp_line (start 23.5 23.5) (end 23.5 -2.25) (layer F.CrtYd) (width 0.05))
  (fp_line (start 23.5 -2.25) (end 18.5 -2.25) (layer F.CrtYd) (width 0.05))
  (fp_line (start 18.5 39.5) (end 18.5 44.5) (layer F.CrtYd) (width 0.05))
  (fp_line (start 18.5 44.5) (end 23.5 44.5) (layer F.CrtYd) (width 0.05))
  (fp_line (start 23.5 44.5) (end 23.5 39.5) (layer F.CrtYd) (width 0.05))
  (fp_line (start 23.5 39.5) (end 18.5 39.5) (layer F.CrtYd) (width 0.05))
  (fp_line (start 18.5 18.5) (end 18.5 44.5) (layer B.CrtYd) (width 0.05))
  (fp_line (start 18.5 44.5) (end 23.5 44.5) (layer B.CrtYd) (width 0.05))
  (fp_line (start 23.5 44.5) (end 23.5 18.5) (layer B.CrtYd) (width 0.05))
  (fp_line (start 23.5 18.5) (end 18.5 18.5) (layer B.CrtYd) (width 0.05))
  (fp_line (start 26.25 0) (end 26.25 21) (layer F.Fab) (width 0.1))
  (fp_line (start 29.75 0) (end 29.75 21) (layer F.Fab) (width 0.1))
  (fp_line (start 26.25 21) (end 26.25 42) (layer B.Fab) (width 0.1))
  (fp_line (start 29.75 21) (end 29.75 42) (layer B.Fab) (width 0.1))
  (fp_line (start 29.86 2.01) (end 29.86 19.14) (layer F.SilkS) (width 0.12))
  (fp_line (start 26.14 2.01) (end 26.14 19.14) (layer F.SilkS) (width 0.12))
  (fp_line (start 29.86 22.86) (end 29.86 40.14) (layer B.SilkS) (width 0.12))
  (fp_line (start 26.14 22.86) (end 26.14 40.14) (layer B.SilkS) (width 0.12))
  (fp_line (start 25.5 -2.25) (end 25.5 23.5) (layer F.CrtYd) (width 0.05))
  (fp_line (start 25.5 23.5) (end 30.5 23.5) (layer F.CrtYd) (width 0.05))
  (fp_line (start 30.5 23.5) (end 30.5 -2.25) (layer F.CrtYd) (width 0.05))
  (fp_line (start 30.5 -2.25) (end 25.5 -2.25) (layer F.CrtYd) (width 0.05))
  (fp_line (start 25.5 39.5) (end 25.5 44.5) (layer F.CrtYd) (width 0.05))
  (fp_line (start 25.5 44.5) (end 30.5 44.5) (layer F.CrtYd) (width 0.05))
  (fp_line (start 30.5 44.5) (end 30.5 39.5) (layer F.CrtYd) (width 0.05))
  (fp_line (start 30.5 39.5) (end 25.5 39.5) (layer F.CrtYd) (width 0.05))
  (fp_line (start 25.5 18.5) (end 25.5 44.5) (layer B.CrtYd) (width 0.05))
  (fp_line (start 25.5 44.5) (end 30.5 44.5) (layer B.CrtYd) (width 0.05))
  (fp_line (start 30.5 44.5) (end 30.5 18.5) (layer B.CrtYd) (width 0.05))
  (fp_line (start 30.5 18.5) (end 25.5 18.5) (layer B.CrtYd) (width 0.05))
  (fp_line (start 33.25 0) (end 33.25 21) (layer F.Fab) (width 0.1))
  (fp_line (start 36.75 0) (end 36.75 21) (layer F.Fab) (width 0.1))
  (fp_line (start 33.25 21) (end 33.25 42) (layer B.Fab) (width 0.1))
  (fp_line (start 36.75 21) (end 36.75 42) (layer B.Fab) (width 0.1))
  (fp_line (start 36.86 2.01) (end 36.86 19.14) (layer F.SilkS) (width 0.12))
  (fp_line (start 33.14 2.01) (end 33.14 19.14) (layer F.SilkS) (width 0.12))
  (fp_line (start 36.86 22.86) (end 36.86 40.14) (layer B.SilkS) (width 0.12))
  (fp_line (start 33.14 22.86) (end 33.14 40.14) (layer B.SilkS) (width 0.12))
  (fp_line (start 32.5 -2.25) (end 32.5 23.5) (layer F.CrtYd) (width 0.05))
  (fp_line (start 32.5 23.5) (end 37.5 23.5) (layer F.CrtYd) (width 0.05))
  (fp_line (start 37.5 23.5) (end 37.5 -2.25) (layer F.CrtYd) (width 0.05))
  (fp_line (start 37.5 -2.25) (end 32.5 -2.25) (layer F.CrtYd) (width 0.05))
  (fp_line (start 32.5 39.5) (end 32.5 44.5) (layer F.CrtYd) (width 0.05))
  (fp_line (start 32.5 44.5) (end 37.5 44.5) (layer F.CrtYd) (width 0.05))
  (fp_line (start 37.5 44.5) (end 37.5 39.5) (layer F.CrtYd) (width 0.05))
  (fp_line (start 37.5 39.5) (end 32.5 39.5) (layer F.CrtYd) (width 0.05))
  (fp_line (start 32.5 18.5) (end 32.5 44.5) (layer B.CrtYd) (width 0.05))
  (fp_line (start 32.5 44.5) (end 37.5 44.5) (layer B.CrtYd) (width 0.05))
  (fp_line (start 37.5 44.5) (end 37.5 18.5) (layer B.CrtYd) (width 0.05))
  (fp_line (start 37.5 18.5) (end 32.5 18.5) (layer B.CrtYd) (width 0.05))
  (pad 1 thru_hole roundrect (at 0 0) (size 3.5 3.5) (drill 1.55) (layers *.Cu *.Mask) (roundrect_rratio 0.071429))
  (pad 2 thru_hole circle (at 7 0) (size 3.5 3.5) (drill 1.55) (layers *.Cu *.Mask))
  (pad 3 thru_hole circle (at 14 0) (size 3.5 3.5) (drill 1.55) (layers *.Cu *.Mask))
  (pad 4 thru_hole circle (at 21 0) (size 3.5 3.5) (drill 1.55) (layers *.Cu *.Mask))
  (pad 5 thru_hole circle (at 28 0) (size 3.5 3.5) (drill 1.55) (layers *.Cu *.Mask))
  (pad 6 thru_hole circle (at 35 0) (size 3.5 3.5) (drill 1.55) (layers *.Cu *.Mask))
  (pad "" np_thru_hole circle (at 0 21) (size 4 4) (drill 4) (layers *.Cu *.Mask))
  (pad "" np_thru_hole circle (at 0 42) (size 4 4) (drill 4) (layers *.Cu *.Mask))
  (pad "" np_thru_hole circle (at 7 21) (size 4 4) (drill 4) (layers *.Cu *.Mask))
  (pad "" np_thru_hole circle (at 7 42) (size 4 4) (drill 4) (layers *.Cu *.Mask))
  (pad "" np_thru_hole circle (at 14 21) (size 4 4) (drill 4) (layers *.Cu *.Mask))
  (pad "" np_thru_hole circle (at 14 42) (size 4 4) (drill 4) (layers *.Cu *.Mask))
  (pad "" np_thru_hole circle (at 21 21) (size 4 4) (drill 4) (layers *.Cu *.Mask))
  (pad "" np_thru_hole circle (at 21 42) (size 4 4) (drill 4) (layers *.Cu *.Mask))
  (pad "" np_thru_hole circle (at 28 21) (size 4 4) (drill 4) (layers *.Cu *.Mask))
  (pad "" np_thru_hole circle (at 28 42) (size 4 4) (drill 4) (layers *.Cu *.Mask))
  (pad "" np_thru_hole circle (at 35 21) (size 4 4) (drill 4) (layers *.Cu *.Mask))
  (pad "" np_thru_hole circle (at 35 42) (size 4 4) (drill 4) (layers *.Cu *.Mask))
  (fp_text user %R (at 17.5 10.5 90) (layer F.Fab)
    (effects (font (size 1 1) (thickness 0.15)))
  )
  (model ${KICAD6_3DMODEL_DIR}/Connector_Wire.3dshapes/SolderWire-0.75sqmm_1x06_P7mm_D1.25mm_OD3.5mm_Relief2x.wrl
    (at (xyz 0 0 0))
    (scale (xyz 1 1 1))
    (rotate (xyz 0 0 0))
  )
)