(module SolderWire-2.5sqmm_1x03_P8.8mm_D2.4mm_OD4.4mm_Relief2x (layer F.Cu) (tedit 5EB70B45)
  (descr "Soldered wire connection with double feed through strain relief, for 3 times 2.5 mm² wires, reinforced insulation, conductor diameter 2.4mm, outer diameter 4.4mm, size source Multi-Contact FLEXI-xV 2.5 (https://ec.staubli.com/AcroFiles/Catalogues/TM_Cab-Main-11014119_(en)_hi.pdf), bend radius 3 times outer diameter, generated with kicad-footprint-generator")
  (tags "connector wire 2.5sqmm double-strain-relief")
  (attr virtual)
  (fp_text reference REF** (at 8.8 -3.4) (layer F.SilkS)
    (effects (font (size 1 1) (thickness 0.15)))
  )
  (fp_text value SolderWire-2.5sqmm_1x03_P8.8mm_D2.4mm_OD4.4mm_Relief2x (at 8.8 56.45) (layer F.Fab)
    (effects (font (size 1 1) (thickness 0.15)))
  )
  (fp_circle (center 0 0) (end 2.2 0) (layer F.Fab) (width 0.1))
  (fp_circle (center 0 26.4) (end 2.2 26.4) (layer F.Fab) (width 0.1))
  (fp_circle (center 0 52.8) (end 2.2 52.8) (layer F.Fab) (width 0.1))
  (fp_circle (center 0 26.4) (end 2.2 26.4) (layer B.Fab) (width 0.1))
  (fp_circle (center 0 52.8) (end 2.2 52.8) (layer B.Fab) (width 0.1))
  (fp_circle (center 8.8 0) (end 11 0) (layer F.Fab) (width 0.1))
  (fp_circle (center 8.8 26.4) (end 11 26.4) (layer F.Fab) (width 0.1))
  (fp_circle (center 8.8 52.8) (end 11 52.8) (layer F.Fab) (width 0.1))
  (fp_circle (center 8.8 26.4) (end 11 26.4) (layer B.Fab) (width 0.1))
  (fp_circle (center 8.8 52.8) (end 11 52.8) (layer B.Fab) (width 0.1))
  (fp_circle (center 17.6 0) (end 19.8 0) (layer F.Fab) (width 0.1))
  (fp_circle (center 17.6 26.4) (end 19.8 26.4) (layer F.Fab) (width 0.1))
  (fp_circle (center 17.6 52.8) (end 19.8 52.8) (layer F.Fab) (width 0.1))
  (fp_circle (center 17.6 26.4) (end 19.8 26.4) (layer B.Fab) (width 0.1))
  (fp_circle (center 17.6 52.8) (end 19.8 52.8) (layer B.Fab) (width 0.1))
  (fp_line (start -2.2 0) (end -2.2 26.4) (layer F.Fab) (width 0.1))
  (fp_line (start 2.2 0) (end 2.2 26.4) (layer F.Fab) (width 0.1))
  (fp_line (start -2.2 26.4) (end -2.2 52.8) (layer B.Fab) (width 0.1))
  (fp_line (start 2.2 26.4) (end 2.2 52.8) (layer B.Fab) (width 0.1))
  (fp_line (start 2.31 2.46) (end 2.31 24.09) (layer F.SilkS) (width 0.12))
  (fp_line (start -2.31 2.46) (end -2.31 24.09) (layer F.SilkS) (width 0.12))
  (fp_line (start 2.31 28.71) (end 2.31 50.49) (layer B.SilkS) (width 0.12))
  (fp_line (start -2.31 28.71) (end -2.31 50.49) (layer B.SilkS) (width 0.12))
  (fp_line (start -2.95 -2.7) (end -2.95 29.35) (layer F.CrtYd) (width 0.05))
  (fp_line (start -2.95 29.35) (end 2.95 29.35) (layer F.CrtYd) (width 0.05))
  (fp_line (start 2.95 29.35) (end 2.95 -2.7) (layer F.CrtYd) (width 0.05))
  (fp_line (start 2.95 -2.7) (end -2.95 -2.7) (layer F.CrtYd) (width 0.05))
  (fp_line (start -2.95 49.85) (end -2.95 55.75) (layer F.CrtYd) (width 0.05))
  (fp_line (start -2.95 55.75) (end 2.95 55.75) (layer F.CrtYd) (width 0.05))
  (fp_line (start 2.95 55.75) (end 2.95 49.85) (layer F.CrtYd) (width 0.05))
  (fp_line (start 2.95 49.85) (end -2.95 49.85) (layer F.CrtYd) (width 0.05))
  (fp_line (start -2.95 23.45) (end -2.95 55.75) (layer B.CrtYd) (width 0.05))
  (fp_line (start -2.95 55.75) (end 2.95 55.75) (layer B.CrtYd) (width 0.05))
  (fp_line (start 2.95 55.75) (end 2.95 23.45) (layer B.CrtYd) (width 0.05))
  (fp_line (start 2.95 23.45) (end -2.95 23.45) (layer B.CrtYd) (width 0.05))
  (fp_line (start 6.6 0) (end 6.6 26.4) (layer F.Fab) (width 0.1))
  (fp_line (start 11 0) (end 11 26.4) (layer F.Fab) (width 0.1))
  (fp_line (start 6.6 26.4) (end 6.6 52.8) (layer B.Fab) (width 0.1))
  (fp_line (start 11 26.4) (end 11 52.8) (layer B.Fab) (width 0.1))
  (fp_line (start 11.11 2.46) (end 11.11 24.09) (layer F.SilkS) (width 0.12))
  (fp_line (start 6.49 2.46) (end 6.49 24.09) (layer F.SilkS) (width 0.12))
  (fp_line (start 11.11 28.71) (end 11.11 50.49) (layer B.SilkS) (width 0.12))
  (fp_line (start 6.49 28.71) (end 6.49 50.49) (layer B.SilkS) (width 0.12))
  (fp_line (start 5.85 -2.7) (end 5.85 29.35) (layer F.CrtYd) (width 0.05))
  (fp_line (start 5.85 29.35) (end 11.75 29.35) (layer F.CrtYd) (width 0.05))
  (fp_line (start 11.75 29.35) (end 11.75 -2.7) (layer F.CrtYd) (width 0.05))
  (fp_line (start 11.75 -2.7) (end 5.85 -2.7) (layer F.CrtYd) (width 0.05))
  (fp_line (start 5.85 49.85) (end 5.85 55.75) (layer F.CrtYd) (width 0.05))
  (fp_line (start 5.85 55.75) (end 11.75 55.75) (layer F.CrtYd) (width 0.05))
  (fp_line (start 11.75 55.75) (end 11.75 49.85) (layer F.CrtYd) (width 0.05))
  (fp_line (start 11.75 49.85) (end 5.85 49.85) (layer F.CrtYd) (width 0.05))
  (fp_line (start 5.85 23.45) (end 5.85 55.75) (layer B.CrtYd) (width 0.05))
  (fp_line (start 5.85 55.75) (end 11.75 55.75) (layer B.CrtYd) (width 0.05))
  (fp_line (start 11.75 55.75) (end 11.75 23.45) (layer B.CrtYd) (width 0.05))
  (fp_line (start 11.75 23.45) (end 5.85 23.45) (layer B.CrtYd) (width 0.05))
  (fp_line (start 15.4 0) (end 15.4 26.4) (layer F.Fab) (width 0.1))
  (fp_line (start 19.8 0) (end 19.8 26.4) (layer F.Fab) (width 0.1))
  (fp_line (start 15.4 26.4) (end 15.4 52.8) (layer B.Fab) (width 0.1))
  (fp_line (start 19.8 26.4) (end 19.8 52.8) (layer B.Fab) (width 0.1))
  (fp_line (start 19.91 2.46) (end 19.91 24.09) (layer F.SilkS) (width 0.12))
  (fp_line (start 15.29 2.46) (end 15.29 24.09) (layer F.SilkS) (width 0.12))
  (fp_line (start 19.91 28.71) (end 19.91 50.49) (layer B.SilkS) (width 0.12))
  (fp_line (start 15.29 28.71) (end 15.29 50.49) (layer B.SilkS) (width 0.12))
  (fp_line (start 14.65 -2.7) (end 14.65 29.35) (layer F.CrtYd) (width 0.05))
  (fp_line (start 14.65 29.35) (end 20.55 29.35) (layer F.CrtYd) (width 0.05))
  (fp_line (start 20.55 29.35) (end 20.55 -2.7) (layer F.CrtYd) (width 0.05))
  (fp_line (start 20.55 -2.7) (end 14.65 -2.7) (layer F.CrtYd) (width 0.05))
  (fp_line (start 14.65 49.85) (end 14.65 55.75) (layer F.CrtYd) (width 0.05))
  (fp_line (start 14.65 55.75) (end 20.55 55.75) (layer F.CrtYd) (width 0.05))
  (fp_line (start 20.55 55.75) (end 20.55 49.85) (layer F.CrtYd) (width 0.05))
  (fp_line (start 20.55 49.85) (end 14.65 49.85) (layer F.CrtYd) (width 0.05))
  (fp_line (start 14.65 23.45) (end 14.65 55.75) (layer B.CrtYd) (width 0.05))
  (fp_line (start 14.65 55.75) (end 20.55 55.75) (layer B.CrtYd) (width 0.05))
  (fp_line (start 20.55 55.75) (end 20.55 23.45) (layer B.CrtYd) (width 0.05))
  (fp_line (start 20.55 23.45) (end 14.65 23.45) (layer B.CrtYd) (width 0.05))
  (pad 1 thru_hole roundrect (at 0 0) (size 4.4 4.4) (drill 3) (layers *.Cu *.Mask) (roundrect_rratio 0.056818))
  (pad 2 thru_hole circle (at 8.8 0) (size 4.4 4.4) (drill 3) (layers *.Cu *.Mask))
  (pad 3 thru_hole circle (at 17.6 0) (size 4.4 4.4) (drill 3) (layers *.Cu *.Mask))
  (pad "" np_thru_hole circle (at 0 26.4) (size 4.9 4.9) (drill 4.9) (layers *.Cu *.Mask))
  (pad "" np_thru_hole circle (at 0 52.8) (size 4.9 4.9) (drill 4.9) (layers *.Cu *.Mask))
  (pad "" np_thru_hole circle (at 8.8 26.4) (size 4.9 4.9) (drill 4.9) (layers *.Cu *.Mask))
  (pad "" np_thru_hole circle (at 8.8 52.8) (size 4.9 4.9) (drill 4.9) (layers *.Cu *.Mask))
  (pad "" np_thru_hole circle (at 17.6 26.4) (size 4.9 4.9) (drill 4.9) (layers *.Cu *.Mask))
  (pad "" np_thru_hole circle (at 17.6 52.8) (size 4.9 4.9) (drill 4.9) (layers *.Cu *.Mask))
  (fp_text user %R (at 8.8 13.2) (layer F.Fab)
    (effects (font (size 1 1) (thickness 0.15)))
  )
  (model ${KICAD6_3DMODEL_DIR}/Connector_Wire.3dshapes/SolderWire-2.5sqmm_1x03_P8.8mm_D2.4mm_OD4.4mm_Relief2x.wrl
    (at (xyz 0 0 0))
    (scale (xyz 1 1 1))
    (rotate (xyz 0 0 0))
  )
)