(module SolderWire-0.15sqmm_1x03_P4mm_D0.5mm_OD1.5mm_Relief2x (layer F.Cu) (tedit 5EB70B43)
  (descr "Soldered wire connection with double feed through strain relief, for 3 times 0.15 mm² wires, basic insulation, conductor diameter 0.5mm, outer diameter 1.5mm, size source Multi-Contact FLEXI-E 0.15 (https://ec.staubli.com/AcroFiles/Catalogues/TM_Cab-Main-11014119_(en)_hi.pdf), bend radius 3 times outer diameter, generated with kicad-footprint-generator")
  (tags "connector wire 0.15sqmm double-strain-relief")
  (attr virtual)
  (fp_text reference REF** (at 4 -2.05) (layer F.SilkS)
    (effects (font (size 1 1) (thickness 0.15)))
  )
  (fp_text value SolderWire-0.15sqmm_1x03_P4mm_D0.5mm_OD1.5mm_Relief2x (at 4 20.2) (layer F.Fab)
    (effects (font (size 1 1) (thickness 0.15)))
  )
  (fp_circle (center 0 0) (end 0.75 0) (layer F.Fab) (width 0.1))
  (fp_circle (center 0 9) (end 0.75 9) (layer F.Fab) (width 0.1))
  (fp_circle (center 0 18) (end 0.75 18) (layer F.Fab) (width 0.1))
  (fp_circle (center 0 9) (end 0.75 9) (layer B.Fab) (width 0.1))
  (fp_circle (center 0 18) (end 0.75 18) (layer B.Fab) (width 0.1))
  (fp_circle (center 4 0) (end 4.75 0) (layer F.Fab) (width 0.1))
  (fp_circle (center 4 9) (end 4.75 9) (layer F.Fab) (width 0.1))
  (fp_circle (center 4 18) (end 4.75 18) (layer F.Fab) (width 0.1))
  (fp_circle (center 4 9) (end 4.75 9) (layer B.Fab) (width 0.1))
  (fp_circle (center 4 18) (end 4.75 18) (layer B.Fab) (width 0.1))
  (fp_circle (center 8 0) (end 8.75 0) (layer F.Fab) (width 0.1))
  (fp_circle (center 8 9) (end 8.75 9) (layer F.Fab) (width 0.1))
  (fp_circle (center 8 18) (end 8.75 18) (layer F.Fab) (width 0.1))
  (fp_circle (center 8 9) (end 8.75 9) (layer B.Fab) (width 0.1))
  (fp_circle (center 8 18) (end 8.75 18) (layer B.Fab) (width 0.1))
  (fp_line (start -0.75 0) (end -0.75 9) (layer F.Fab) (width 0.1))
  (fp_line (start 0.75 0) (end 0.75 9) (layer F.Fab) (width 0.1))
  (fp_line (start -0.75 9) (end -0.75 18) (layer B.Fab) (width 0.1))
  (fp_line (start 0.75 9) (end 0.75 18) (layer B.Fab) (width 0.1))
  (fp_line (start 0.86 1.11) (end 0.86 8.14) (layer F.SilkS) (width 0.12))
  (fp_line (start -0.86 1.11) (end -0.86 8.14) (layer F.SilkS) (width 0.12))
  (fp_line (start 0.86 9.86) (end 0.86 17.14) (layer B.SilkS) (width 0.12))
  (fp_line (start -0.86 9.86) (end -0.86 17.14) (layer B.SilkS) (width 0.12))
  (fp_line (start -1.5 -1.35) (end -1.5 10.5) (layer F.CrtYd) (width 0.05))
  (fp_line (start -1.5 10.5) (end 1.5 10.5) (layer F.CrtYd) (width 0.05))
  (fp_line (start 1.5 10.5) (end 1.5 -1.35) (layer F.CrtYd) (width 0.05))
  (fp_line (start 1.5 -1.35) (end -1.5 -1.35) (layer F.CrtYd) (width 0.05))
  (fp_line (start -1.5 16.5) (end -1.5 19.5) (layer F.CrtYd) (width 0.05))
  (fp_line (start -1.5 19.5) (end 1.5 19.5) (layer F.CrtYd) (width 0.05))
  (fp_line (start 1.5 19.5) (end 1.5 16.5) (layer F.CrtYd) (width 0.05))
  (fp_line (start 1.5 16.5) (end -1.5 16.5) (layer F.CrtYd) (width 0.05))
  (fp_line (start -1.5 7.5) (end -1.5 19.5) (layer B.CrtYd) (width 0.05))
  (fp_line (start -1.5 19.5) (end 1.5 19.5) (layer B.CrtYd) (width 0.05))
  (fp_line (start 1.5 19.5) (end 1.5 7.5) (layer B.CrtYd) (width 0.05))
  (fp_line (start 1.5 7.5) (end -1.5 7.5) (layer B.CrtYd) (width 0.05))
  (fp_line (start 3.25 0) (end 3.25 9) (layer F.Fab) (width 0.1))
  (fp_line (start 4.75 0) (end 4.75 9) (layer F.Fab) (width 0.1))
  (fp_line (start 3.25 9) (end 3.25 18) (layer B.Fab) (width 0.1))
  (fp_line (start 4.75 9) (end 4.75 18) (layer B.Fab) (width 0.1))
  (fp_line (start 4.86 1.11) (end 4.86 8.14) (layer F.SilkS) (width 0.12))
  (fp_line (start 3.14 1.11) (end 3.14 8.14) (layer F.SilkS) (width 0.12))
  (fp_line (start 4.86 9.86) (end 4.86 17.14) (layer B.SilkS) (width 0.12))
  (fp_line (start 3.14 9.86) (end 3.14 17.14) (layer B.SilkS) (width 0.12))
  (fp_line (start 2.5 -1.35) (end 2.5 10.5) (layer F.CrtYd) (width 0.05))
  (fp_line (start 2.5 10.5) (end 5.5 10.5) (layer F.CrtYd) (width 0.05))
  (fp_line (start 5.5 10.5) (end 5.5 -1.35) (layer F.CrtYd) (width 0.05))
  (fp_line (start 5.5 -1.35) (end 2.5 -1.35) (layer F.CrtYd) (width 0.05))
  (fp_line (start 2.5 16.5) (end 2.5 19.5) (layer F.CrtYd) (width 0.05))
  (fp_line (start 2.5 19.5) (end 5.5 19.5) (layer F.CrtYd) (width 0.05))
  (fp_line (start 5.5 19.5) (end 5.5 16.5) (layer F.CrtYd) (width 0.05))
  (fp_line (start 5.5 16.5) (end 2.5 16.5) (layer F.CrtYd) (width 0.05))
  (fp_line (start 2.5 7.5) (end 2.5 19.5) (layer B.CrtYd) (width 0.05))
  (fp_line (start 2.5 19.5) (end 5.5 19.5) (layer B.CrtYd) (width 0.05))
  (fp_line (start 5.5 19.5) (end 5.5 7.5) (layer B.CrtYd) (width 0.05))
  (fp_line (start 5.5 7.5) (end 2.5 7.5) (layer B.CrtYd) (width 0.05))
  (fp_line (start 7.25 0) (end 7.25 9) (layer F.Fab) (width 0.1))
  (fp_line (start 8.75 0) (end 8.75 9) (layer F.Fab) (width 0.1))
  (fp_line (start 7.25 9) (end 7.25 18) (layer B.Fab) (width 0.1))
  (fp_line (start 8.75 9) (end 8.75 18) (layer B.Fab) (width 0.1))
  (fp_line (start 8.86 1.11) (end 8.86 8.14) (layer F.SilkS) (width 0.12))
  (fp_line (start 7.14 1.11) (end 7.14 8.14) (layer F.SilkS) (width 0.12))
  (fp_line (start 8.86 9.86) (end 8.86 17.14) (layer B.SilkS) (width 0.12))
  (fp_line (start 7.14 9.86) (end 7.14 17.14) (layer B.SilkS) (width 0.12))
  (fp_line (start 6.5 -1.35) (end 6.5 10.5) (layer F.CrtYd) (width 0.05))
  (fp_line (start 6.5 10.5) (end 9.5 10.5) (layer F.CrtYd) (width 0.05))
  (fp_line (start 9.5 10.5) (end 9.5 -1.35) (layer F.CrtYd) (width 0.05))
  (fp_line (start 9.5 -1.35) (end 6.5 -1.35) (layer F.CrtYd) (width 0.05))
  (fp_line (start 6.5 16.5) (end 6.5 19.5) (layer F.CrtYd) (width 0.05))
  (fp_line (start 6.5 19.5) (end 9.5 19.5) (layer F.CrtYd) (width 0.05))
  (fp_line (start 9.5 19.5) (end 9.5 16.5) (layer F.CrtYd) (width 0.05))
  (fp_line (start 9.5 16.5) (end 6.5 16.5) (layer F.CrtYd) (width 0.05))
  (fp_line (start 6.5 7.5) (end 6.5 19.5) (layer B.CrtYd) (width 0.05))
  (fp_line (start 6.5 19.5) (end 9.5 19.5) (layer B.CrtYd) (width 0.05))
  (fp_line (start 9.5 19.5) (end 9.5 7.5) (layer B.CrtYd) (width 0.05))
  (fp_line (start 9.5 7.5) (end 6.5 7.5) (layer B.CrtYd) (width 0.05))
  (pad 1 thru_hole roundrect (at 0 0) (size 1.7 1.7) (drill 0.7) (layers *.Cu *.Mask) (roundrect_rratio 0.147059))
  (pad 2 thru_hole circle (at 4 0) (size 1.7 1.7) (drill 0.7) (layers *.Cu *.Mask))
  (pad 3 thru_hole circle (at 8 0) (size 1.7 1.7) (drill 0.7) (layers *.Cu *.Mask))
  (pad "" np_thru_hole circle (at 0 9) (size 2 2) (drill 2) (layers *.Cu *.Mask))
  (pad "" np_thru_hole circle (at 0 18) (size 2 2) (drill 2) (layers *.Cu *.Mask))
  (pad "" np_thru_hole circle (at 4 9) (size 2 2) (drill 2) (layers *.Cu *.Mask))
  (pad "" np_thru_hole circle (at 4 18) (size 2 2) (drill 2) (layers *.Cu *.Mask))
  (pad "" np_thru_hole circle (at 8 9) (size 2 2) (drill 2) (layers *.Cu *.Mask))
  (pad "" np_thru_hole circle (at 8 18) (size 2 2) (drill 2) (layers *.Cu *.Mask))
  (fp_text user %R (at 4 4.5 90) (layer F.Fab)
    (effects (font (size 1 1) (thickness 0.15)))
  )
  (model ${KICAD6_3DMODEL_DIR}/Connector_Wire.3dshapes/SolderWire-0.15sqmm_1x03_P4mm_D0.5mm_OD1.5mm_Relief2x.wrl
    (at (xyz 0 0 0))
    (scale (xyz 1 1 1))
    (rotate (xyz 0 0 0))
  )
)