(module SolderWire-1.5sqmm_1x06_P7.8mm_D1.7mm_OD3.9mm (layer F.Cu) (tedit 5EB70B45)
  (descr "Soldered wire connection, for 6 times 1.5 mm² wires, reinforced insulation, conductor diameter 1.7mm, outer diameter 3.9mm, size source Multi-Contact FLEXI-xV 1.5 (https://ec.staubli.com/AcroFiles/Catalogues/TM_Cab-Main-11014119_(en)_hi.pdf), bend radius 3 times outer diameter, generated with kicad-footprint-generator")
  (tags "connector wire 1.5sqmm")
  (attr virtual)
  (fp_text reference REF** (at 19.5 -3.15) (layer F.SilkS)
    (effects (font (size 1 1) (thickness 0.15)))
  )
  (fp_text value SolderWire-1.5sqmm_1x06_P7.8mm_D1.7mm_OD3.9mm (at 19.5 3.15) (layer F.Fab)
    (effects (font (size 1 1) (thickness 0.15)))
  )
  (fp_circle (center 0 0) (end 1.95 0) (layer F.Fab) (width 0.1))
  (fp_circle (center 7.8 0) (end 9.75 0) (layer F.Fab) (width 0.1))
  (fp_circle (center 15.6 0) (end 17.55 0) (layer F.Fab) (width 0.1))
  (fp_circle (center 23.4 0) (end 25.35 0) (layer F.Fab) (width 0.1))
  (fp_circle (center 31.2 0) (end 33.15 0) (layer F.Fab) (width 0.1))
  (fp_circle (center 39 0) (end 40.95 0) (layer F.Fab) (width 0.1))
  (fp_line (start -2.7 -2.45) (end -2.7 2.45) (layer F.CrtYd) (width 0.05))
  (fp_line (start -2.7 2.45) (end 2.7 2.45) (layer F.CrtYd) (width 0.05))
  (fp_line (start 2.7 2.45) (end 2.7 -2.45) (layer F.CrtYd) (width 0.05))
  (fp_line (start 2.7 -2.45) (end -2.7 -2.45) (layer F.CrtYd) (width 0.05))
  (fp_line (start 5.1 -2.45) (end 5.1 2.45) (layer F.CrtYd) (width 0.05))
  (fp_line (start 5.1 2.45) (end 10.5 2.45) (layer F.CrtYd) (width 0.05))
  (fp_line (start 10.5 2.45) (end 10.5 -2.45) (layer F.CrtYd) (width 0.05))
  (fp_line (start 10.5 -2.45) (end 5.1 -2.45) (layer F.CrtYd) (width 0.05))
  (fp_line (start 12.9 -2.45) (end 12.9 2.45) (layer F.CrtYd) (width 0.05))
  (fp_line (start 12.9 2.45) (end 18.3 2.45) (layer F.CrtYd) (width 0.05))
  (fp_line (start 18.3 2.45) (end 18.3 -2.45) (layer F.CrtYd) (width 0.05))
  (fp_line (start 18.3 -2.45) (end 12.9 -2.45) (layer F.CrtYd) (width 0.05))
  (fp_line (start 20.7 -2.45) (end 20.7 2.45) (layer F.CrtYd) (width 0.05))
  (fp_line (start 20.7 2.45) (end 26.1 2.45) (layer F.CrtYd) (width 0.05))
  (fp_line (start 26.1 2.45) (end 26.1 -2.45) (layer F.CrtYd) (width 0.05))
  (fp_line (start 26.1 -2.45) (end 20.7 -2.45) (layer F.CrtYd) (width 0.05))
  (fp_line (start 28.5 -2.45) (end 28.5 2.45) (layer F.CrtYd) (width 0.05))
  (fp_line (start 28.5 2.45) (end 33.9 2.45) (layer F.CrtYd) (width 0.05))
  (fp_line (start 33.9 2.45) (end 33.9 -2.45) (layer F.CrtYd) (width 0.05))
  (fp_line (start 33.9 -2.45) (end 28.5 -2.45) (layer F.CrtYd) (width 0.05))
  (fp_line (start 36.3 -2.45) (end 36.3 2.45) (layer F.CrtYd) (width 0.05))
  (fp_line (start 36.3 2.45) (end 41.7 2.45) (layer F.CrtYd) (width 0.05))
  (fp_line (start 41.7 2.45) (end 41.7 -2.45) (layer F.CrtYd) (width 0.05))
  (fp_line (start 41.7 -2.45) (end 36.3 -2.45) (layer F.CrtYd) (width 0.05))
  (pad 1 thru_hole roundrect (at 0 0) (size 3.9 3.9) (drill 2.1) (layers *.Cu *.Mask) (roundrect_rratio 0.064103))
  (pad 2 thru_hole circle (at 7.8 0) (size 3.9 3.9) (drill 2.1) (layers *.Cu *.Mask))
  (pad 3 thru_hole circle (at 15.6 0) (size 3.9 3.9) (drill 2.1) (layers *.Cu *.Mask))
  (pad 4 thru_hole circle (at 23.4 0) (size 3.9 3.9) (drill 2.1) (layers *.Cu *.Mask))
  (pad 5 thru_hole circle (at 31.2 0) (size 3.9 3.9) (drill 2.1) (layers *.Cu *.Mask))
  (pad 6 thru_hole circle (at 39 0) (size 3.9 3.9) (drill 2.1) (layers *.Cu *.Mask))
  (fp_text user %R (at 19.5 0 90) (layer F.Fab)
    (effects (font (size 1 1) (thickness 0.15)))
  )
  (model ${KICAD6_3DMODEL_DIR}/Connector_Wire.3dshapes/SolderWire-1.5sqmm_1x06_P7.8mm_D1.7mm_OD3.9mm.wrl
    (at (xyz 0 0 0))
    (scale (xyz 1 1 1))
    (rotate (xyz 0 0 0))
  )
)