(module Amphenol_M8S-03PMMR-SF8001 (layer F.Cu) (tedit 5E7460D0)
  (descr "M8 Male connector for panel, 90° PCB mount (https://www.amphenolltw.com/2012download/2D%20PDF/03_M%20Series%20Sensor%20Connectors/M8S-XXPMMR-SF8001.pdf)")
  (tags "three-pin M8")
  (fp_text reference REF** (at -5.6 -8.4 -180) (layer F.SilkS)
    (effects (font (size 1 1) (thickness 0.15)))
  )
  (fp_text value Amphenol_M8S-03PMMR-SF8001 (at -8.2 12.2 -180) (layer F.Fab)
    (effects (font (size 1 1) (thickness 0.15)))
  )
  (fp_text user %R (at -5.6 1.75 -180) (layer F.Fab)
    (effects (font (size 1 1) (thickness 0.15)))
  )
  (fp_line (start -20.3 11) (end 3.45 11) (layer F.CrtYd) (width 0.05))
  (fp_line (start -20.3 -7.5) (end -20.3 11) (layer F.CrtYd) (width 0.05))
  (fp_line (start 3.45 -7.5) (end -20.3 -7.5) (layer F.CrtYd) (width 0.05))
  (fp_line (start 3.45 11) (end 3.45 -7.5) (layer F.CrtYd) (width 0.05))
  (fp_line (start 2.8 0.25) (end 2.8 -2.25) (layer F.Fab) (width 0.1))
  (fp_line (start 2.8 5.75) (end 2.8 3.25) (layer F.Fab) (width 0.1))
  (fp_line (start -7.8 8.35) (end -2.5 8.35) (layer F.Fab) (width 0.1))
  (fp_line (start -7.8 5.45) (end -7.8 8.35) (layer F.Fab) (width 0.1))
  (fp_line (start -19.8 5.45) (end -7.8 5.45) (layer F.Fab) (width 0.1))
  (fp_line (start -7.8 -4.85) (end -2.5 -4.85) (layer F.Fab) (width 0.1))
  (fp_line (start -7.8 -1.95) (end -7.8 -4.85) (layer F.Fab) (width 0.1))
  (fp_line (start -19.8 -1.95) (end -7.8 -1.95) (layer F.Fab) (width 0.1))
  (fp_line (start -19.8 5.45) (end -19.8 -1.95) (layer F.Fab) (width 0.1))
  (fp_line (start -8 -2.1) (end -8 -5) (layer F.SilkS) (width 0.12))
  (fp_line (start -20 -2.1) (end -8 -2.1) (layer F.SilkS) (width 0.12))
  (fp_line (start -8 5.6) (end -8 8.5) (layer F.SilkS) (width 0.12))
  (fp_line (start -20 5.6) (end -8 5.6) (layer F.SilkS) (width 0.12))
  (fp_line (start -8 -5) (end -2.5 -5) (layer F.SilkS) (width 0.12))
  (fp_line (start -8 8.5) (end -2.5 8.5) (layer F.SilkS) (width 0.12))
  (fp_line (start -20 5.6) (end -20 -2.1) (layer F.SilkS) (width 0.12))
  (fp_line (start 3 0.25) (end 3 -2.25) (layer F.SilkS) (width 0.12))
  (fp_line (start 3 5.75) (end 3 3.25) (layer F.SilkS) (width 0.12))
  (pad 2 thru_hole circle (at 1.95 1.75 90) (size 2 2) (drill 1.3) (layers *.Cu *.Mask))
  (pad 3 thru_hole circle (at 0 3.5 90) (size 2 2) (drill 1.3) (layers *.Cu *.Mask))
  (pad 1 thru_hole rect (at 0 0 135) (size 2 2) (drill 1.3) (layers *.Cu *.Mask))
  (pad SH thru_hole circle (at 0.5 8 90) (size 5 5) (drill 3) (layers *.Cu *.Mask))
  (pad SH thru_hole circle (at 0.5 -4.5 90) (size 5 5) (drill 3) (layers *.Cu *.Mask))
  (model ${KICAD6_3DMODEL_DIR}/Connector_Amphenol.3dshapes/Amphenol_M8S-03PMMR-SF8001.wrl
    (at (xyz 0 0 0))
    (scale (xyz 1 1 1))
    (rotate (xyz 0 0 0))
  )
)
