(module RV_Disc_D15.5mm_W4.6mm_P7.5mm (layer F.Cu) (tedit 5A0F68FE)
  (descr "Varistor, diameter 15.5mm, width 4.6mm, pitch 7.5mm")
  (tags "varistor SIOV")
  (fp_text reference REF** (at 3.75 4.325) (layer F.SilkS)
    (effects (font (size 1 1) (thickness 0.15)))
  )
  (fp_text value RV_Disc_D15.5mm_W4.6mm_P7.5mm (at 3.75 -2.275) (layer F.Fab)
    (effects (font (size 1 1) (thickness 0.15)))
  )
  (fp_text user %R (at 3.75 1.025) (layer F.Fab)
    (effects (font (size 1 1) (thickness 0.15)))
  )
  (fp_line (start -4.25 3.58) (end 11.75 3.58) (layer F.CrtYd) (width 0.05))
  (fp_line (start -4.25 -1.53) (end 11.75 -1.53) (layer F.CrtYd) (width 0.05))
  (fp_line (start 11.75 -1.53) (end 11.75 3.58) (layer F.CrtYd) (width 0.05))
  (fp_line (start -4.25 -1.53) (end -4.25 3.58) (layer F.CrtYd) (width 0.05))
  (fp_line (start -4 3.325) (end 11.5 3.325) (layer F.SilkS) (width 0.15))
  (fp_line (start -4 -1.275) (end 11.5 -1.275) (layer F.SilkS) (width 0.15))
  (fp_line (start 11.5 -1.275) (end 11.5 3.325) (layer F.SilkS) (width 0.15))
  (fp_line (start -4 -1.275) (end -4 3.325) (layer F.SilkS) (width 0.15))
  (fp_line (start -4 3.325) (end 11.5 3.325) (layer F.Fab) (width 0.1))
  (fp_line (start -4 -1.275) (end 11.5 -1.275) (layer F.Fab) (width 0.1))
  (fp_line (start 11.5 -1.275) (end 11.5 3.325) (layer F.Fab) (width 0.1))
  (fp_line (start -4 -1.275) (end -4 3.325) (layer F.Fab) (width 0.1))
  (pad 1 thru_hole circle (at 0 0) (size 1.8 1.8) (drill 0.8) (layers *.Cu *.Mask))
  (pad 2 thru_hole circle (at 7.5 2.05) (size 1.8 1.8) (drill 0.8) (layers *.Cu *.Mask))
  (model ${KICAD6_3DMODEL_DIR}/Varistor.3dshapes/RV_Disc_D15.5mm_W4.6mm_P7.5mm.wrl    (at (xyz 0 0 0))    (scale (xyz 1 1 1))    (rotate (xyz 0 0 0))  ))
