(module RV_Disc_D15.5mm_W8mm_P7.5mm (layer F.Cu) (tedit 5A0F68DF)
  (descr "Varistor, diameter 15.5mm, width 8mm, pitch 7.5mm")
  (tags "varistor SIOV")
  (fp_text reference REF** (at 3.75 7.2) (layer F.SilkS)
    (effects (font (size 1 1) (thickness 0.15)))
  )
  (fp_text value RV_Disc_D15.5mm_W8mm_P7.5mm (at 3.75 -2.8) (layer F.Fab)
    (effects (font (size 1 1) (thickness 0.15)))
  )
  (fp_text user %R (at 3.75 2.2) (layer F.Fab)
    (effects (font (size 1 1) (thickness 0.15)))
  )
  (fp_line (start -4.25 6.45) (end 11.75 6.45) (layer F.CrtYd) (width 0.05))
  (fp_line (start -4.25 -2.05) (end 11.75 -2.05) (layer F.CrtYd) (width 0.05))
  (fp_line (start 11.75 -2.05) (end 11.75 6.45) (layer F.CrtYd) (width 0.05))
  (fp_line (start -4.25 -2.05) (end -4.25 6.45) (layer F.CrtYd) (width 0.05))
  (fp_line (start -4 6.2) (end 11.5 6.2) (layer F.SilkS) (width 0.15))
  (fp_line (start -4 -1.8) (end 11.5 -1.8) (layer F.SilkS) (width 0.15))
  (fp_line (start 11.5 -1.8) (end 11.5 6.2) (layer F.SilkS) (width 0.15))
  (fp_line (start -4 -1.8) (end -4 6.2) (layer F.SilkS) (width 0.15))
  (fp_line (start -4 6.2) (end 11.5 6.2) (layer F.Fab) (width 0.1))
  (fp_line (start -4 -1.8) (end 11.5 -1.8) (layer F.Fab) (width 0.1))
  (fp_line (start 11.5 -1.8) (end 11.5 6.2) (layer F.Fab) (width 0.1))
  (fp_line (start -4 -1.8) (end -4 6.2) (layer F.Fab) (width 0.1))
  (pad 1 thru_hole circle (at 0 0) (size 1.8 1.8) (drill 0.8) (layers *.Cu *.Mask))
  (pad 2 thru_hole circle (at 7.5 4.4) (size 1.8 1.8) (drill 0.8) (layers *.Cu *.Mask))
  (model ${KICAD6_3DMODEL_DIR}/Varistor.3dshapes/RV_Disc_D15.5mm_W8mm_P7.5mm.wrl    (at (xyz 0 0 0))    (scale (xyz 1 1 1))    (rotate (xyz 0 0 0))  ))
