(module RV_Disc_D12mm_W4.5mm_P7.5mm (layer F.Cu) (tedit 5A0F68DF)
  (descr "Varistor, diameter 12mm, width 4.5mm, pitch 7.5mm")
  (tags "varistor SIOV")
  (fp_text reference REF** (at 3.75 4.15) (layer F.SilkS)
    (effects (font (size 1 1) (thickness 0.15)))
  )
  (fp_text value RV_Disc_D12mm_W4.5mm_P7.5mm (at 3.75 -2.35) (layer F.Fab)
    (effects (font (size 1 1) (thickness 0.15)))
  )
  (fp_text user %R (at 3.75 0.9) (layer F.Fab)
    (effects (font (size 1 1) (thickness 0.15)))
  )
  (fp_line (start -2.5 3.4) (end 10 3.4) (layer F.CrtYd) (width 0.05))
  (fp_line (start -2.5 -1.6) (end 10 -1.6) (layer F.CrtYd) (width 0.05))
  (fp_line (start 10 -1.6) (end 10 3.4) (layer F.CrtYd) (width 0.05))
  (fp_line (start -2.5 -1.6) (end -2.5 3.4) (layer F.CrtYd) (width 0.05))
  (fp_line (start -2.25 3.15) (end 9.75 3.15) (layer F.SilkS) (width 0.15))
  (fp_line (start -2.25 -1.35) (end 9.75 -1.35) (layer F.SilkS) (width 0.15))
  (fp_line (start 9.75 -1.35) (end 9.75 3.15) (layer F.SilkS) (width 0.15))
  (fp_line (start -2.25 -1.35) (end -2.25 3.15) (layer F.SilkS) (width 0.15))
  (fp_line (start -2.25 3.15) (end 9.75 3.15) (layer F.Fab) (width 0.1))
  (fp_line (start -2.25 -1.35) (end 9.75 -1.35) (layer F.Fab) (width 0.1))
  (fp_line (start 9.75 -1.35) (end 9.75 3.15) (layer F.Fab) (width 0.1))
  (fp_line (start -2.25 -1.35) (end -2.25 3.15) (layer F.Fab) (width 0.1))
  (pad 1 thru_hole circle (at 0 0) (size 1.8 1.8) (drill 0.8) (layers *.Cu *.Mask))
  (pad 2 thru_hole circle (at 7.5 1.8) (size 1.8 1.8) (drill 0.8) (layers *.Cu *.Mask))
  (model ${KICAD6_3DMODEL_DIR}/Varistor.3dshapes/RV_Disc_D12mm_W4.5mm_P7.5mm.wrl    (at (xyz 0 0 0))    (scale (xyz 1 1 1))    (rotate (xyz 0 0 0))  ))
