(module RV_Disc_D12mm_W5.1mm_P7.5mm (layer F.Cu) (tedit 5A0F68DF)
  (descr "Varistor, diameter 12mm, width 5.1mm, pitch 7.5mm")
  (tags "varistor SIOV")
  (fp_text reference REF** (at 3.75 4.7) (layer F.SilkS)
    (effects (font (size 1 1) (thickness 0.15)))
  )
  (fp_text value RV_Disc_D12mm_W5.1mm_P7.5mm (at 3.75 -2.4) (layer F.Fab)
    (effects (font (size 1 1) (thickness 0.15)))
  )
  (fp_text user %R (at 3.75 1.15) (layer F.Fab)
    (effects (font (size 1 1) (thickness 0.15)))
  )
  (fp_line (start -2.5 3.95) (end 10 3.95) (layer F.CrtYd) (width 0.05))
  (fp_line (start -2.5 -1.65) (end 10 -1.65) (layer F.CrtYd) (width 0.05))
  (fp_line (start 10 -1.65) (end 10 3.95) (layer F.CrtYd) (width 0.05))
  (fp_line (start -2.5 -1.65) (end -2.5 3.95) (layer F.CrtYd) (width 0.05))
  (fp_line (start -2.25 3.7) (end 9.75 3.7) (layer F.SilkS) (width 0.15))
  (fp_line (start -2.25 -1.4) (end 9.75 -1.4) (layer F.SilkS) (width 0.15))
  (fp_line (start 9.75 -1.4) (end 9.75 3.7) (layer F.SilkS) (width 0.15))
  (fp_line (start -2.25 -1.4) (end -2.25 3.7) (layer F.SilkS) (width 0.15))
  (fp_line (start -2.25 3.7) (end 9.75 3.7) (layer F.Fab) (width 0.1))
  (fp_line (start -2.25 -1.4) (end 9.75 -1.4) (layer F.Fab) (width 0.1))
  (fp_line (start 9.75 -1.4) (end 9.75 3.7) (layer F.Fab) (width 0.1))
  (fp_line (start -2.25 -1.4) (end -2.25 3.7) (layer F.Fab) (width 0.1))
  (pad 1 thru_hole circle (at 0 0) (size 1.8 1.8) (drill 0.8) (layers *.Cu *.Mask))
  (pad 2 thru_hole circle (at 7.5 2.3) (size 1.8 1.8) (drill 0.8) (layers *.Cu *.Mask))
  (model ${KICAD6_3DMODEL_DIR}/Varistor.3dshapes/RV_Disc_D12mm_W5.1mm_P7.5mm.wrl    (at (xyz 0 0 0))    (scale (xyz 1 1 1))    (rotate (xyz 0 0 0))  ))
