(module RV_Disc_D21.5mm_W8.4mm_P10mm (layer F.Cu) (tedit 5A0F68DF)
  (descr "Varistor, diameter 21.5mm, width 8.4mm, pitch 10mm")
  (tags "varistor SIOV")
  (fp_text reference REF** (at 5 7.45) (layer F.SilkS)
    (effects (font (size 1 1) (thickness 0.15)))
  )
  (fp_text value RV_Disc_D21.5mm_W8.4mm_P10mm (at 5 -2.95) (layer F.Fab)
    (effects (font (size 1 1) (thickness 0.15)))
  )
  (fp_text user %R (at 5 2.25) (layer F.Fab)
    (effects (font (size 1 1) (thickness 0.15)))
  )
  (fp_line (start -6 6.7) (end 16 6.7) (layer F.CrtYd) (width 0.05))
  (fp_line (start -6 -2.2) (end 16 -2.2) (layer F.CrtYd) (width 0.05))
  (fp_line (start 16 -2.2) (end 16 6.7) (layer F.CrtYd) (width 0.05))
  (fp_line (start -6 -2.2) (end -6 6.7) (layer F.CrtYd) (width 0.05))
  (fp_line (start -5.75 6.45) (end 15.75 6.45) (layer F.SilkS) (width 0.15))
  (fp_line (start -5.75 -1.95) (end 15.75 -1.95) (layer F.SilkS) (width 0.15))
  (fp_line (start 15.75 -1.95) (end 15.75 6.45) (layer F.SilkS) (width 0.15))
  (fp_line (start -5.75 -1.95) (end -5.75 6.45) (layer F.SilkS) (width 0.15))
  (fp_line (start -5.75 6.45) (end 15.75 6.45) (layer F.Fab) (width 0.1))
  (fp_line (start -5.75 -1.95) (end 15.75 -1.95) (layer F.Fab) (width 0.1))
  (fp_line (start 15.75 -1.95) (end 15.75 6.45) (layer F.Fab) (width 0.1))
  (fp_line (start -5.75 -1.95) (end -5.75 6.45) (layer F.Fab) (width 0.1))
  (pad 1 thru_hole circle (at 0 0) (size 2 2) (drill 1) (layers *.Cu *.Mask))
  (pad 2 thru_hole circle (at 10 4.5) (size 2 2) (drill 1) (layers *.Cu *.Mask))
  (model ${KICAD6_3DMODEL_DIR}/Varistor.3dshapes/RV_Disc_D21.5mm_W8.4mm_P10mm.wrl    (at (xyz 0 0 0))    (scale (xyz 1 1 1))    (rotate (xyz 0 0 0))  ))
