(module RV_Disc_D9mm_W4.5mm_P5mm (layer F.Cu) (tedit 5A0F68DF)
  (descr "Varistor, diameter 9mm, width 4.5mm, pitch 5mm")
  (tags "varistor SIOV")
  (fp_text reference REF** (at 2.5 4.3) (layer F.SilkS)
    (effects (font (size 1 1) (thickness 0.15)))
  )
  (fp_text value RV_Disc_D9mm_W4.5mm_P5mm (at 2.5 -2.2) (layer F.Fab)
    (effects (font (size 1 1) (thickness 0.15)))
  )
  (fp_text user %R (at 2.5 1.05) (layer F.Fab)
    (effects (font (size 1 1) (thickness 0.15)))
  )
  (fp_line (start -2.25 3.55) (end 7.25 3.55) (layer F.CrtYd) (width 0.05))
  (fp_line (start -2.25 -1.45) (end 7.25 -1.45) (layer F.CrtYd) (width 0.05))
  (fp_line (start 7.25 -1.45) (end 7.25 3.55) (layer F.CrtYd) (width 0.05))
  (fp_line (start -2.25 -1.45) (end -2.25 3.55) (layer F.CrtYd) (width 0.05))
  (fp_line (start -2 3.3) (end 7 3.3) (layer F.SilkS) (width 0.15))
  (fp_line (start -2 -1.2) (end 7 -1.2) (layer F.SilkS) (width 0.15))
  (fp_line (start 7 -1.2) (end 7 3.3) (layer F.SilkS) (width 0.15))
  (fp_line (start -2 -1.2) (end -2 3.3) (layer F.SilkS) (width 0.15))
  (fp_line (start -2 3.3) (end 7 3.3) (layer F.Fab) (width 0.1))
  (fp_line (start -2 -1.2) (end 7 -1.2) (layer F.Fab) (width 0.1))
  (fp_line (start 7 -1.2) (end 7 3.3) (layer F.Fab) (width 0.1))
  (fp_line (start -2 -1.2) (end -2 3.3) (layer F.Fab) (width 0.1))
  (pad 1 thru_hole circle (at 0 0) (size 1.6 1.6) (drill 0.6) (layers *.Cu *.Mask))
  (pad 2 thru_hole circle (at 5 2.1) (size 1.6 1.6) (drill 0.6) (layers *.Cu *.Mask))
  (model ${KICAD6_3DMODEL_DIR}/Varistor.3dshapes/RV_Disc_D9mm_W4.5mm_P5mm.wrl    (at (xyz 0 0 0))    (scale (xyz 1 1 1))    (rotate (xyz 0 0 0))  ))
