(module RV_Disc_D15.5mm_W6.1mm_P7.5mm (layer F.Cu) (tedit 5A0F68DF)
  (descr "Varistor, diameter 15.5mm, width 6.1mm, pitch 7.5mm")
  (tags "varistor SIOV")
  (fp_text reference REF** (at 3.75 5.5) (layer F.SilkS)
    (effects (font (size 1 1) (thickness 0.15)))
  )
  (fp_text value RV_Disc_D15.5mm_W6.1mm_P7.5mm (at 3.75 -2.6) (layer F.Fab)
    (effects (font (size 1 1) (thickness 0.15)))
  )
  (fp_text user %R (at 3.75 1.45) (layer F.Fab)
    (effects (font (size 1 1) (thickness 0.15)))
  )
  (fp_line (start -4.25 4.75) (end 11.75 4.75) (layer F.CrtYd) (width 0.05))
  (fp_line (start -4.25 -1.85) (end 11.75 -1.85) (layer F.CrtYd) (width 0.05))
  (fp_line (start 11.75 -1.85) (end 11.75 4.75) (layer F.CrtYd) (width 0.05))
  (fp_line (start -4.25 -1.85) (end -4.25 4.75) (layer F.CrtYd) (width 0.05))
  (fp_line (start -4 4.5) (end 11.5 4.5) (layer F.SilkS) (width 0.15))
  (fp_line (start -4 -1.6) (end 11.5 -1.6) (layer F.SilkS) (width 0.15))
  (fp_line (start 11.5 -1.6) (end 11.5 4.5) (layer F.SilkS) (width 0.15))
  (fp_line (start -4 -1.6) (end -4 4.5) (layer F.SilkS) (width 0.15))
  (fp_line (start -4 4.5) (end 11.5 4.5) (layer F.Fab) (width 0.1))
  (fp_line (start -4 -1.6) (end 11.5 -1.6) (layer F.Fab) (width 0.1))
  (fp_line (start 11.5 -1.6) (end 11.5 4.5) (layer F.Fab) (width 0.1))
  (fp_line (start -4 -1.6) (end -4 4.5) (layer F.Fab) (width 0.1))
  (pad 1 thru_hole circle (at 0 0) (size 1.8 1.8) (drill 0.8) (layers *.Cu *.Mask))
  (pad 2 thru_hole circle (at 7.5 2.9) (size 1.8 1.8) (drill 0.8) (layers *.Cu *.Mask))
  (model ${KICAD6_3DMODEL_DIR}/Varistor.3dshapes/RV_Disc_D15.5mm_W6.1mm_P7.5mm.wrl    (at (xyz 0 0 0))    (scale (xyz 1 1 1))    (rotate (xyz 0 0 0))  ))
