(module RV_Disc_D7mm_W5.7mm_P5mm (layer F.Cu) (tedit 5A0F68DF)
  (descr "Varistor, diameter 7mm, width 5.7mm, pitch 5mm")
  (tags "varistor SIOV")
  (fp_text reference REF** (at 2.5 5.35) (layer F.SilkS)
    (effects (font (size 1 1) (thickness 0.15)))
  )
  (fp_text value RV_Disc_D7mm_W5.7mm_P5mm (at 2.5 -2.35) (layer F.Fab)
    (effects (font (size 1 1) (thickness 0.15)))
  )
  (fp_text user %R (at 2.5 1.5) (layer F.Fab)
    (effects (font (size 1 1) (thickness 0.15)))
  )
  (fp_line (start -1.25 4.6) (end 6.25 4.6) (layer F.CrtYd) (width 0.05))
  (fp_line (start -1.25 -1.6) (end 6.25 -1.6) (layer F.CrtYd) (width 0.05))
  (fp_line (start 6.25 -1.6) (end 6.25 4.6) (layer F.CrtYd) (width 0.05))
  (fp_line (start -1.25 -1.6) (end -1.25 4.6) (layer F.CrtYd) (width 0.05))
  (fp_line (start -1 4.35) (end 6 4.35) (layer F.SilkS) (width 0.15))
  (fp_line (start -1 -1.35) (end 6 -1.35) (layer F.SilkS) (width 0.15))
  (fp_line (start 6 -1.35) (end 6 4.35) (layer F.SilkS) (width 0.15))
  (fp_line (start -1 -1.35) (end -1 4.35) (layer F.SilkS) (width 0.15))
  (fp_line (start -1 4.35) (end 6 4.35) (layer F.Fab) (width 0.1))
  (fp_line (start -1 -1.35) (end 6 -1.35) (layer F.Fab) (width 0.1))
  (fp_line (start 6 -1.35) (end 6 4.35) (layer F.Fab) (width 0.1))
  (fp_line (start -1 -1.35) (end -1 4.35) (layer F.Fab) (width 0.1))
  (pad 1 thru_hole circle (at 0 0) (size 1.6 1.6) (drill 0.6) (layers *.Cu *.Mask))
  (pad 2 thru_hole circle (at 5 3) (size 1.6 1.6) (drill 0.6) (layers *.Cu *.Mask))
  (model ${KICAD6_3DMODEL_DIR}/Varistor.3dshapes/RV_Disc_D7mm_W5.7mm_P5mm.wrl    (at (xyz 0 0 0))    (scale (xyz 1 1 1))    (rotate (xyz 0 0 0))  ))
