(module RV_Disc_D21.5mm_W4.6mm_P10mm (layer F.Cu) (tedit 5A0F68DF)
  (descr "Varistor, diameter 21.5mm, width 4.6mm, pitch 10mm")
  (tags "varistor SIOV")
  (fp_text reference REF** (at 5 4.15) (layer F.SilkS)
    (effects (font (size 1 1) (thickness 0.15)))
  )
  (fp_text value RV_Disc_D21.5mm_W4.6mm_P10mm (at 5 -2.45) (layer F.Fab)
    (effects (font (size 1 1) (thickness 0.15)))
  )
  (fp_text user %R (at 5 0.85) (layer F.Fab)
    (effects (font (size 1 1) (thickness 0.15)))
  )
  (fp_line (start -6 3.4) (end 16 3.4) (layer F.CrtYd) (width 0.05))
  (fp_line (start -6 -1.7) (end 16 -1.7) (layer F.CrtYd) (width 0.05))
  (fp_line (start 16 -1.7) (end 16 3.4) (layer F.CrtYd) (width 0.05))
  (fp_line (start -6 -1.7) (end -6 3.4) (layer F.CrtYd) (width 0.05))
  (fp_line (start -5.75 3.15) (end 15.75 3.15) (layer F.SilkS) (width 0.15))
  (fp_line (start -5.75 -1.45) (end 15.75 -1.45) (layer F.SilkS) (width 0.15))
  (fp_line (start 15.75 -1.45) (end 15.75 3.15) (layer F.SilkS) (width 0.15))
  (fp_line (start -5.75 -1.45) (end -5.75 3.15) (layer F.SilkS) (width 0.15))
  (fp_line (start -5.75 3.15) (end 15.75 3.15) (layer F.Fab) (width 0.1))
  (fp_line (start -5.75 -1.45) (end 15.75 -1.45) (layer F.Fab) (width 0.1))
  (fp_line (start 15.75 -1.45) (end 15.75 3.15) (layer F.Fab) (width 0.1))
  (fp_line (start -5.75 -1.45) (end -5.75 3.15) (layer F.Fab) (width 0.1))
  (pad 1 thru_hole circle (at 0 0) (size 2 2) (drill 1) (layers *.Cu *.Mask))
  (pad 2 thru_hole circle (at 10 1.7) (size 2 2) (drill 1) (layers *.Cu *.Mask))
  (model ${KICAD6_3DMODEL_DIR}/Varistor.3dshapes/RV_Disc_D21.5mm_W4.6mm_P10mm.wrl    (at (xyz 0 0 0))    (scale (xyz 1 1 1))    (rotate (xyz 0 0 0))  ))
