(module RV_Disc_D12mm_W4mm_P7.5mm (layer F.Cu) (tedit 5A0F68FD)
  (descr "Varistor, diameter 12mm, width 4mm, pitch 7.5mm")
  (tags "varistor SIOV")
  (fp_text reference REF** (at 3.75 3.725) (layer F.SilkS)
    (effects (font (size 1 1) (thickness 0.15)))
  )
  (fp_text value RV_Disc_D12mm_W4mm_P7.5mm (at 3.75 -2.275) (layer F.Fab)
    (effects (font (size 1 1) (thickness 0.15)))
  )
  (fp_text user %R (at 3.75 0.725) (layer F.Fab)
    (effects (font (size 1 1) (thickness 0.15)))
  )
  (fp_line (start -2.5 2.98) (end 10 2.98) (layer F.CrtYd) (width 0.05))
  (fp_line (start -2.5 -1.53) (end 10 -1.53) (layer F.CrtYd) (width 0.05))
  (fp_line (start 10 -1.53) (end 10 2.98) (layer F.CrtYd) (width 0.05))
  (fp_line (start -2.5 -1.53) (end -2.5 2.98) (layer F.CrtYd) (width 0.05))
  (fp_line (start -2.25 2.725) (end 9.75 2.725) (layer F.SilkS) (width 0.15))
  (fp_line (start -2.25 -1.275) (end 9.75 -1.275) (layer F.SilkS) (width 0.15))
  (fp_line (start 9.75 -1.275) (end 9.75 2.725) (layer F.SilkS) (width 0.15))
  (fp_line (start -2.25 -1.275) (end -2.25 2.725) (layer F.SilkS) (width 0.15))
  (fp_line (start -2.25 2.725) (end 9.75 2.725) (layer F.Fab) (width 0.1))
  (fp_line (start -2.25 -1.275) (end 9.75 -1.275) (layer F.Fab) (width 0.1))
  (fp_line (start 9.75 -1.275) (end 9.75 2.725) (layer F.Fab) (width 0.1))
  (fp_line (start -2.25 -1.275) (end -2.25 2.725) (layer F.Fab) (width 0.1))
  (pad 1 thru_hole circle (at 0 0) (size 1.8 1.8) (drill 0.8) (layers *.Cu *.Mask))
  (pad 2 thru_hole circle (at 7.5 1.45) (size 1.8 1.8) (drill 0.8) (layers *.Cu *.Mask))
  (model ${KICAD6_3DMODEL_DIR}/Varistor.3dshapes/RV_Disc_D12mm_W4mm_P7.5mm.wrl    (at (xyz 0 0 0))    (scale (xyz 1 1 1))    (rotate (xyz 0 0 0))  ))
