(module RV_Disc_D21.5mm_W5.1mm_P10mm (layer F.Cu) (tedit 5A0F68FE)
  (descr "Varistor, diameter 21.5mm, width 5.1mm, pitch 10mm")
  (tags "varistor SIOV")
  (fp_text reference REF** (at 5 4.625) (layer F.SilkS)
    (effects (font (size 1 1) (thickness 0.15)))
  )
  (fp_text value RV_Disc_D21.5mm_W5.1mm_P10mm (at 5 -2.475) (layer F.Fab)
    (effects (font (size 1 1) (thickness 0.15)))
  )
  (fp_text user %R (at 5 1.075) (layer F.Fab)
    (effects (font (size 1 1) (thickness 0.15)))
  )
  (fp_line (start -6 3.88) (end 16 3.88) (layer F.CrtYd) (width 0.05))
  (fp_line (start -6 -1.73) (end 16 -1.73) (layer F.CrtYd) (width 0.05))
  (fp_line (start 16 -1.73) (end 16 3.88) (layer F.CrtYd) (width 0.05))
  (fp_line (start -6 -1.73) (end -6 3.88) (layer F.CrtYd) (width 0.05))
  (fp_line (start -5.75 3.625) (end 15.75 3.625) (layer F.SilkS) (width 0.15))
  (fp_line (start -5.75 -1.475) (end 15.75 -1.475) (layer F.SilkS) (width 0.15))
  (fp_line (start 15.75 -1.475) (end 15.75 3.625) (layer F.SilkS) (width 0.15))
  (fp_line (start -5.75 -1.475) (end -5.75 3.625) (layer F.SilkS) (width 0.15))
  (fp_line (start -5.75 3.625) (end 15.75 3.625) (layer F.Fab) (width 0.1))
  (fp_line (start -5.75 -1.475) (end 15.75 -1.475) (layer F.Fab) (width 0.1))
  (fp_line (start 15.75 -1.475) (end 15.75 3.625) (layer F.Fab) (width 0.1))
  (fp_line (start -5.75 -1.475) (end -5.75 3.625) (layer F.Fab) (width 0.1))
  (pad 1 thru_hole circle (at 0 0) (size 2 2) (drill 1) (layers *.Cu *.Mask))
  (pad 2 thru_hole circle (at 10 2.15) (size 2 2) (drill 1) (layers *.Cu *.Mask))
  (model ${KICAD6_3DMODEL_DIR}/Varistor.3dshapes/RV_Disc_D21.5mm_W5.1mm_P10mm.wrl    (at (xyz 0 0 0))    (scale (xyz 1 1 1))    (rotate (xyz 0 0 0))  ))
