(module InvenSense_QFN-24_3x3mm_P0.4mm (layer F.Cu) (tedit 5B5A6A65)
  (descr "24-Lead Plastic QFN (3mm x 3mm); Pitch 0.4mm; EP 1.7x1.54mm; for InvenSense motion sensors; keepout area marked (Package see: https://store.invensense.com/datasheets/invensense/MPU9250REV1.0.pdf; See also https://www.invensense.com/wp-content/uploads/2015/02/InvenSense-MEMS-Handling.pdf)")
  (tags "QFN 0.4")
  (attr smd)
  (fp_text reference REF** (at 0 -3.25) (layer F.SilkS)
    (effects (font (size 1 1) (thickness 0.15)))
  )
  (fp_text value InvenSense_QFN-24_3x3mm_P0.4mm (at 0 3.25) (layer F.Fab)
    (effects (font (size 1 1) (thickness 0.15)))
  )
  (fp_text user %R (at 0 0) (layer F.Fab)
    (effects (font (size 0.7 0.7) (thickness 0.105)))
  )
  (fp_line (start -0.5 -1.5) (end 1.5 -1.5) (layer F.Fab) (width 0.15))
  (fp_line (start 1.5 -1.5) (end 1.5 1.5) (layer F.Fab) (width 0.15))
  (fp_line (start 1.5 1.5) (end -1.5 1.5) (layer F.Fab) (width 0.15))
  (fp_line (start -1.5 1.5) (end -1.5 -0.5) (layer F.Fab) (width 0.15))
  (fp_line (start -1.5 -0.5) (end -0.5 -1.5) (layer F.Fab) (width 0.15))
  (fp_line (start 2.05 -2.05) (end 2.05 2.05) (layer F.CrtYd) (width 0.05))
  (fp_line (start 2.05 2.05) (end -2.05 2.05) (layer F.CrtYd) (width 0.05))
  (fp_line (start -2.05 2.05) (end -2.05 -2.05) (layer F.CrtYd) (width 0.05))
  (fp_line (start -2.05 -2.05) (end 2.05 -2.05) (layer F.CrtYd) (width 0.05))
  (fp_line (start -1.6 1.6) (end -1.6 1.2) (layer F.SilkS) (width 0.15))
  (fp_line (start -1.6 1.6) (end -1.2 1.6) (layer F.SilkS) (width 0.15))
  (fp_line (start 1.6 1.6) (end 1.6 1.2) (layer F.SilkS) (width 0.15))
  (fp_line (start 1.6 1.6) (end 1.2 1.6) (layer F.SilkS) (width 0.15))
  (fp_line (start 1.6 -1.6) (end 1.6 -1.2) (layer F.SilkS) (width 0.15))
  (fp_line (start 1.6 -1.6) (end 1.2 -1.6) (layer F.SilkS) (width 0.15))
  (fp_line (start -1.6 -1.6) (end -1.2 -1.6) (layer F.SilkS) (width 0.15))
  (fp_line (start -0.875 -0.795) (end 0.875 -0.795) (layer Dwgs.User) (width 0.05))
  (fp_line (start -0.875 -0.795) (end -0.875 0.795) (layer Dwgs.User) (width 0.05))
  (fp_line (start -0.875 0.795) (end 0.875 0.795) (layer Dwgs.User) (width 0.05))
  (fp_line (start 0.875 -0.795) (end 0.875 0.795) (layer Dwgs.User) (width 0.05))
  (fp_line (start 0.875 0.295) (end 0.375 0.795) (layer Dwgs.User) (width 0.05))
  (fp_line (start 0.875 -0.205) (end -0.125 0.795) (layer Dwgs.User) (width 0.05))
  (fp_line (start 0.875 -0.705) (end -0.625 0.795) (layer Dwgs.User) (width 0.05))
  (fp_line (start 0.465 -0.795) (end -0.875 0.545) (layer Dwgs.User) (width 0.05))
  (fp_line (start -0.035 -0.795) (end -0.875 0.045) (layer Dwgs.User) (width 0.05))
  (fp_line (start -0.535 -0.795) (end -0.875 -0.455) (layer Dwgs.User) (width 0.05))
  (fp_text user KEEPOUT (at 0 -0.5) (layer Cmts.User)
    (effects (font (size 0.2 0.2) (thickness 0.04)))
  )
  (fp_text user "No Copper" (at 0 -0.1) (layer Cmts.User)
    (effects (font (size 0.2 0.2) (thickness 0.04)))
  )
  (fp_text user "Directly Below" (at 0 0.25) (layer Cmts.User)
    (effects (font (size 0.2 0.2) (thickness 0.04)))
  )
  (fp_text user Component (at 0 0.55) (layer Cmts.User)
    (effects (font (size 0.2 0.2) (thickness 0.04)))
  )
  (pad 1 smd roundrect (at -1.5 -1) (size 0.55 0.2) (layers F.Cu F.Paste F.Mask) (roundrect_rratio 0.25))
  (pad 2 smd roundrect (at -1.5 -0.6) (size 0.55 0.2) (layers F.Cu F.Paste F.Mask) (roundrect_rratio 0.25))
  (pad 3 smd roundrect (at -1.5 -0.2) (size 0.55 0.2) (layers F.Cu F.Paste F.Mask) (roundrect_rratio 0.25))
  (pad 4 smd roundrect (at -1.5 0.2) (size 0.55 0.2) (layers F.Cu F.Paste F.Mask) (roundrect_rratio 0.25))
  (pad 5 smd roundrect (at -1.5 0.6) (size 0.55 0.2) (layers F.Cu F.Paste F.Mask) (roundrect_rratio 0.25))
  (pad 6 smd roundrect (at -1.5 1) (size 0.55 0.2) (layers F.Cu F.Paste F.Mask) (roundrect_rratio 0.25))
  (pad 7 smd roundrect (at -1 1.5 90) (size 0.55 0.2) (layers F.Cu F.Paste F.Mask) (roundrect_rratio 0.25))
  (pad 8 smd roundrect (at -0.6 1.5 90) (size 0.55 0.2) (layers F.Cu F.Paste F.Mask) (roundrect_rratio 0.25))
  (pad 9 smd roundrect (at -0.2 1.5 90) (size 0.55 0.2) (layers F.Cu F.Paste F.Mask) (roundrect_rratio 0.25))
  (pad 10 smd roundrect (at 0.2 1.5 90) (size 0.55 0.2) (layers F.Cu F.Paste F.Mask) (roundrect_rratio 0.25))
  (pad 11 smd roundrect (at 0.6 1.5 90) (size 0.55 0.2) (layers F.Cu F.Paste F.Mask) (roundrect_rratio 0.25))
  (pad 12 smd roundrect (at 1 1.5 90) (size 0.55 0.2) (layers F.Cu F.Paste F.Mask) (roundrect_rratio 0.25))
  (pad 13 smd roundrect (at 1.5 1) (size 0.55 0.2) (layers F.Cu F.Paste F.Mask) (roundrect_rratio 0.25))
  (pad 14 smd roundrect (at 1.5 0.6) (size 0.55 0.2) (layers F.Cu F.Paste F.Mask) (roundrect_rratio 0.25))
  (pad 15 smd roundrect (at 1.5 0.2) (size 0.55 0.2) (layers F.Cu F.Paste F.Mask) (roundrect_rratio 0.25))
  (pad 16 smd roundrect (at 1.5 -0.2) (size 0.55 0.2) (layers F.Cu F.Paste F.Mask) (roundrect_rratio 0.25))
  (pad 17 smd roundrect (at 1.5 -0.6) (size 0.55 0.2) (layers F.Cu F.Paste F.Mask) (roundrect_rratio 0.25))
  (pad 18 smd roundrect (at 1.5 -1) (size 0.55 0.2) (layers F.Cu F.Paste F.Mask) (roundrect_rratio 0.25))
  (pad 19 smd roundrect (at 1 -1.5 90) (size 0.55 0.2) (layers F.Cu F.Paste F.Mask) (roundrect_rratio 0.25))
  (pad 20 smd roundrect (at 0.6 -1.5 90) (size 0.55 0.2) (layers F.Cu F.Paste F.Mask) (roundrect_rratio 0.25))
  (pad 21 smd roundrect (at 0.2 -1.5 90) (size 0.55 0.2) (layers F.Cu F.Paste F.Mask) (roundrect_rratio 0.25))
  (pad 22 smd roundrect (at -0.2 -1.5 90) (size 0.55 0.2) (layers F.Cu F.Paste F.Mask) (roundrect_rratio 0.25))
  (pad 23 smd roundrect (at -0.6 -1.5 90) (size 0.55 0.2) (layers F.Cu F.Paste F.Mask) (roundrect_rratio 0.25))
  (pad 24 smd roundrect (at -1 -1.5 90) (size 0.55 0.2) (layers F.Cu F.Paste F.Mask) (roundrect_rratio 0.25))
  (model ${KICAD6_3DMODEL_DIR}/Package_DFN_QFN.3dshapes/QFN-24_3x3mm_P0.4mm_EP1.7x1.54mm.wrl
    (at (xyz 0 0 0))
    (scale (xyz 1 1 1))
    (rotate (xyz 0 0 0))
  )
)
