(module TerminalBlock_WAGO_804-316_1x16_P7.50mm_45Degree (layer F.Cu) (tedit 5F817305)
  (descr "Terminal Block WAGO 804-316, 45Degree (cable under 45degree), 16 pins, pitch 7.5mm, size 119x15mm^2, drill diamater 1.2mm, pad diameter 3mm, see , script-generated with , script-generated using https://github.com/pointhi/kicad-footprint-generator/scripts/TerminalBlock_WAGO")
  (tags "THT Terminal Block WAGO 804-316 45Degree pitch 7.5mm size 119x15mm^2 drill 1.2mm pad 3mm")
  (fp_text reference REF** (at 56.75 -9.42) (layer F.SilkS)
    (effects (font (size 1 1) (thickness 0.15)))
  )
  (fp_text value TerminalBlock_WAGO_804-316_1x16_P7.50mm_45Degree (at 56.75 7.82) (layer F.Fab)
    (effects (font (size 1 1) (thickness 0.15)))
  )
  (fp_arc (start 1.25 5.59) (end 2.701 5.251) (angle -153.676754) (layer F.Fab) (width 0.1))
  (fp_arc (start 1.25 4.911) (end 2.7 5.25) (angle 153.676754) (layer F.Fab) (width 0.1))
  (fp_arc (start 1.25 5.59) (end 2.701 5.251) (angle -153.676754) (layer F.SilkS) (width 0.12))
  (fp_arc (start 1.25 4.911) (end 2.7 5.25) (angle 153.676754) (layer F.SilkS) (width 0.12))
  (fp_arc (start 1.25 -5.75) (end 2.111 -6.979) (angle -207) (layer F.SilkS) (width 0.12))
  (fp_arc (start 8.75 5.59) (end 10.201 5.251) (angle -153.676754) (layer F.Fab) (width 0.1))
  (fp_arc (start 8.75 4.911) (end 10.2 5.25) (angle 153.676754) (layer F.Fab) (width 0.1))
  (fp_arc (start 8.75 5.59) (end 10.201 5.251) (angle -153.676754) (layer F.SilkS) (width 0.12))
  (fp_arc (start 8.75 4.911) (end 10.2 5.25) (angle 153.676754) (layer F.SilkS) (width 0.12))
  (fp_arc (start 8.75 -5.75) (end 9.611 -6.979) (angle -207) (layer F.SilkS) (width 0.12))
  (fp_arc (start 16.25 5.59) (end 17.701 5.251) (angle -153.676754) (layer F.Fab) (width 0.1))
  (fp_arc (start 16.25 4.911) (end 17.7 5.25) (angle 153.676754) (layer F.Fab) (width 0.1))
  (fp_arc (start 16.25 5.59) (end 17.701 5.251) (angle -153.676754) (layer F.SilkS) (width 0.12))
  (fp_arc (start 16.25 4.911) (end 17.7 5.25) (angle 153.676754) (layer F.SilkS) (width 0.12))
  (fp_arc (start 16.25 -5.75) (end 17.111 -6.979) (angle -207) (layer F.SilkS) (width 0.12))
  (fp_arc (start 23.75 5.59) (end 25.201 5.251) (angle -153.676754) (layer F.Fab) (width 0.1))
  (fp_arc (start 23.75 4.911) (end 25.2 5.25) (angle 153.676754) (layer F.Fab) (width 0.1))
  (fp_arc (start 23.75 5.59) (end 25.201 5.251) (angle -153.676754) (layer F.SilkS) (width 0.12))
  (fp_arc (start 23.75 4.911) (end 25.2 5.25) (angle 153.676754) (layer F.SilkS) (width 0.12))
  (fp_arc (start 23.75 -5.75) (end 24.611 -6.979) (angle -207) (layer F.SilkS) (width 0.12))
  (fp_arc (start 31.25 5.59) (end 32.701 5.251) (angle -153.676754) (layer F.Fab) (width 0.1))
  (fp_arc (start 31.25 4.911) (end 32.701 5.25) (angle 153.676754) (layer F.Fab) (width 0.1))
  (fp_arc (start 31.25 5.59) (end 32.701 5.251) (angle -153.676754) (layer F.SilkS) (width 0.12))
  (fp_arc (start 31.25 4.911) (end 32.701 5.25) (angle 153.676754) (layer F.SilkS) (width 0.12))
  (fp_arc (start 31.25 -5.75) (end 32.111 -6.979) (angle -207) (layer F.SilkS) (width 0.12))
  (fp_arc (start 38.75 5.59) (end 40.201 5.251) (angle -153.676754) (layer F.Fab) (width 0.1))
  (fp_arc (start 38.75 4.911) (end 40.2 5.25) (angle 153.676754) (layer F.Fab) (width 0.1))
  (fp_arc (start 38.75 5.59) (end 40.201 5.251) (angle -153.676754) (layer F.SilkS) (width 0.12))
  (fp_arc (start 38.75 4.911) (end 40.2 5.25) (angle 153.676754) (layer F.SilkS) (width 0.12))
  (fp_arc (start 38.75 -5.75) (end 39.611 -6.979) (angle -207) (layer F.SilkS) (width 0.12))
  (fp_arc (start 46.25 5.59) (end 47.701 5.251) (angle -153.676754) (layer F.Fab) (width 0.1))
  (fp_arc (start 46.25 4.911) (end 47.7 5.25) (angle 153.676754) (layer F.Fab) (width 0.1))
  (fp_arc (start 46.25 5.59) (end 47.701 5.251) (angle -153.676754) (layer F.SilkS) (width 0.12))
  (fp_arc (start 46.25 4.911) (end 47.7 5.25) (angle 153.676754) (layer F.SilkS) (width 0.12))
  (fp_arc (start 46.25 -5.75) (end 47.111 -6.979) (angle -207) (layer F.SilkS) (width 0.12))
  (fp_arc (start 53.75 5.59) (end 55.201 5.251) (angle -153.676754) (layer F.Fab) (width 0.1))
  (fp_arc (start 53.75 4.911) (end 55.2 5.25) (angle 153.676754) (layer F.Fab) (width 0.1))
  (fp_arc (start 53.75 5.59) (end 55.201 5.251) (angle -153.676754) (layer F.SilkS) (width 0.12))
  (fp_arc (start 53.75 4.911) (end 55.2 5.25) (angle 153.676754) (layer F.SilkS) (width 0.12))
  (fp_arc (start 53.75 -5.75) (end 54.611 -6.979) (angle -207) (layer F.SilkS) (width 0.12))
  (fp_arc (start 61.25 5.59) (end 62.701 5.251) (angle -153.676754) (layer F.Fab) (width 0.1))
  (fp_arc (start 61.25 4.911) (end 62.7 5.25) (angle 153.676754) (layer F.Fab) (width 0.1))
  (fp_arc (start 61.25 5.59) (end 62.701 5.251) (angle -153.676754) (layer F.SilkS) (width 0.12))
  (fp_arc (start 61.25 4.911) (end 62.7 5.25) (angle 153.676754) (layer F.SilkS) (width 0.12))
  (fp_arc (start 61.25 -5.75) (end 62.111 -6.979) (angle -207) (layer F.SilkS) (width 0.12))
  (fp_arc (start 68.75 5.59) (end 70.201 5.251) (angle -153.676754) (layer F.Fab) (width 0.1))
  (fp_arc (start 68.75 4.911) (end 70.2 5.25) (angle 153.676754) (layer F.Fab) (width 0.1))
  (fp_arc (start 68.75 5.59) (end 70.201 5.251) (angle -153.676754) (layer F.SilkS) (width 0.12))
  (fp_arc (start 68.75 4.911) (end 70.2 5.25) (angle 153.676754) (layer F.SilkS) (width 0.12))
  (fp_arc (start 68.75 -5.75) (end 69.611 -6.979) (angle -207) (layer F.SilkS) (width 0.12))
  (fp_arc (start 76.25 5.59) (end 77.701 5.251) (angle -153.676754) (layer F.Fab) (width 0.1))
  (fp_arc (start 76.25 4.911) (end 77.7 5.25) (angle 153.676754) (layer F.Fab) (width 0.1))
  (fp_arc (start 76.25 5.59) (end 77.701 5.251) (angle -153.676754) (layer F.SilkS) (width 0.12))
  (fp_arc (start 76.25 4.911) (end 77.7 5.25) (angle 153.676754) (layer F.SilkS) (width 0.12))
  (fp_arc (start 76.25 -5.75) (end 77.111 -6.979) (angle -207) (layer F.SilkS) (width 0.12))
  (fp_arc (start 83.75 5.59) (end 85.201 5.251) (angle -153.676754) (layer F.Fab) (width 0.1))
  (fp_arc (start 83.75 4.911) (end 85.2 5.25) (angle 153.676754) (layer F.Fab) (width 0.1))
  (fp_arc (start 83.75 5.59) (end 85.201 5.251) (angle -153.676754) (layer F.SilkS) (width 0.12))
  (fp_arc (start 83.75 4.911) (end 85.2 5.25) (angle 153.676754) (layer F.SilkS) (width 0.12))
  (fp_arc (start 83.75 -5.75) (end 84.611 -6.979) (angle -207) (layer F.SilkS) (width 0.12))
  (fp_arc (start 91.25 5.59) (end 92.701 5.251) (angle -153.676754) (layer F.Fab) (width 0.1))
  (fp_arc (start 91.25 4.911) (end 92.7 5.25) (angle 153.676754) (layer F.Fab) (width 0.1))
  (fp_arc (start 91.25 5.59) (end 92.701 5.251) (angle -153.676754) (layer F.SilkS) (width 0.12))
  (fp_arc (start 91.25 4.911) (end 92.7 5.25) (angle 153.676754) (layer F.SilkS) (width 0.12))
  (fp_arc (start 91.25 -5.75) (end 92.111 -6.979) (angle -207) (layer F.SilkS) (width 0.12))
  (fp_arc (start 98.75 5.59) (end 100.201 5.251) (angle -153.676754) (layer F.Fab) (width 0.1))
  (fp_arc (start 98.75 4.911) (end 100.2 5.25) (angle 153.676754) (layer F.Fab) (width 0.1))
  (fp_arc (start 98.75 5.59) (end 100.201 5.251) (angle -153.676754) (layer F.SilkS) (width 0.12))
  (fp_arc (start 98.75 4.911) (end 100.2 5.25) (angle 153.676754) (layer F.SilkS) (width 0.12))
  (fp_arc (start 98.75 -5.75) (end 99.611 -6.979) (angle -207) (layer F.SilkS) (width 0.12))
  (fp_arc (start 106.25 5.59) (end 107.701 5.251) (angle -153.676754) (layer F.Fab) (width 0.1))
  (fp_arc (start 106.25 4.911) (end 107.7 5.25) (angle 153.676754) (layer F.Fab) (width 0.1))
  (fp_arc (start 106.25 5.59) (end 107.701 5.251) (angle -153.676754) (layer F.SilkS) (width 0.12))
  (fp_arc (start 106.25 4.911) (end 107.7 5.25) (angle 153.676754) (layer F.SilkS) (width 0.12))
  (fp_arc (start 106.25 -5.75) (end 107.111 -6.979) (angle -207) (layer F.SilkS) (width 0.12))
  (fp_arc (start 113.75 5.59) (end 115.201 5.251) (angle -153.676754) (layer F.Fab) (width 0.1))
  (fp_arc (start 113.75 4.911) (end 115.2 5.25) (angle 153.676754) (layer F.Fab) (width 0.1))
  (fp_arc (start 113.75 5.59) (end 115.201 5.251) (angle -153.676754) (layer F.SilkS) (width 0.12))
  (fp_arc (start 113.75 4.911) (end 115.2 5.25) (angle 153.676754) (layer F.SilkS) (width 0.12))
  (fp_arc (start 113.75 -5.75) (end 114.611 -6.979) (angle -207) (layer F.SilkS) (width 0.12))
  (fp_circle (center 1.25 -5.75) (end 2.75 -5.75) (layer F.Fab) (width 0.1))
  (fp_circle (center 8.75 -5.75) (end 10.25 -5.75) (layer F.Fab) (width 0.1))
  (fp_circle (center 16.25 -5.75) (end 17.75 -5.75) (layer F.Fab) (width 0.1))
  (fp_circle (center 23.75 -5.75) (end 25.25 -5.75) (layer F.Fab) (width 0.1))
  (fp_circle (center 31.25 -5.75) (end 32.75 -5.75) (layer F.Fab) (width 0.1))
  (fp_circle (center 38.75 -5.75) (end 40.25 -5.75) (layer F.Fab) (width 0.1))
  (fp_circle (center 46.25 -5.75) (end 47.75 -5.75) (layer F.Fab) (width 0.1))
  (fp_circle (center 53.75 -5.75) (end 55.25 -5.75) (layer F.Fab) (width 0.1))
  (fp_circle (center 61.25 -5.75) (end 62.75 -5.75) (layer F.Fab) (width 0.1))
  (fp_circle (center 68.75 -5.75) (end 70.25 -5.75) (layer F.Fab) (width 0.1))
  (fp_circle (center 76.25 -5.75) (end 77.75 -5.75) (layer F.Fab) (width 0.1))
  (fp_circle (center 83.75 -5.75) (end 85.25 -5.75) (layer F.Fab) (width 0.1))
  (fp_circle (center 91.25 -5.75) (end 92.75 -5.75) (layer F.Fab) (width 0.1))
  (fp_circle (center 98.75 -5.75) (end 100.25 -5.75) (layer F.Fab) (width 0.1))
  (fp_circle (center 106.25 -5.75) (end 107.75 -5.75) (layer F.Fab) (width 0.1))
  (fp_circle (center 113.75 -5.75) (end 115.25 -5.75) (layer F.Fab) (width 0.1))
  (fp_line (start -2.75 -8.3) (end 116.25 -8.3) (layer F.Fab) (width 0.1))
  (fp_line (start 116.25 -8.3) (end 116.25 6.7) (layer F.Fab) (width 0.1))
  (fp_line (start 116.25 6.7) (end -0.75 6.7) (layer F.Fab) (width 0.1))
  (fp_line (start -0.75 6.7) (end -2.75 4.7) (layer F.Fab) (width 0.1))
  (fp_line (start -2.75 4.7) (end -2.75 -8.3) (layer F.Fab) (width 0.1))
  (fp_line (start -2.75 3.8) (end 116.25 3.8) (layer F.Fab) (width 0.1))
  (fp_line (start -2.87 3.8) (end 116.37 3.8) (layer F.SilkS) (width 0.12))
  (fp_line (start -2.87 -8.42) (end 116.37 -8.42) (layer F.SilkS) (width 0.12))
  (fp_line (start -2.87 6.82) (end 116.37 6.82) (layer F.SilkS) (width 0.12))
  (fp_line (start -2.87 -8.42) (end -2.87 6.82) (layer F.SilkS) (width 0.12))
  (fp_line (start 116.37 -8.42) (end 116.37 -6.98) (layer F.SilkS) (width 0.12))
  (fp_line (start 116.37 -3.02) (end 116.37 6.82) (layer F.SilkS) (width 0.12))
  (fp_line (start -1.25 -8.3) (end -1.25 6.7) (layer F.Fab) (width 0.1))
  (fp_line (start -1.25 -8.42) (end -1.25 -1.98) (layer F.SilkS) (width 0.12))
  (fp_line (start -1.25 1.98) (end -1.25 6.82) (layer F.SilkS) (width 0.12))
  (fp_line (start -0.75 -2.2) (end -0.75 2.2) (layer F.Fab) (width 0.1))
  (fp_line (start -0.75 2.2) (end 3.25 2.2) (layer F.Fab) (width 0.1))
  (fp_line (start 3.25 2.2) (end 3.25 -2.2) (layer F.Fab) (width 0.1))
  (fp_line (start 3.25 -2.2) (end -0.75 -2.2) (layer F.Fab) (width 0.1))
  (fp_line (start -0.75 -2.2) (end 3.25 -2.2) (layer F.SilkS) (width 0.12))
  (fp_line (start -0.75 2.2) (end 3.25 2.2) (layer F.SilkS) (width 0.12))
  (fp_line (start -0.75 -2.2) (end -0.75 -1.98) (layer F.SilkS) (width 0.12))
  (fp_line (start -0.75 1.98) (end -0.75 2.2) (layer F.SilkS) (width 0.12))
  (fp_line (start 3.25 -2.2) (end 3.25 2.2) (layer F.SilkS) (width 0.12))
  (fp_line (start -0.75 -0.5) (end -0.75 0.5) (layer F.Fab) (width 0.1))
  (fp_line (start -0.75 0.5) (end 3.25 0.5) (layer F.Fab) (width 0.1))
  (fp_line (start 3.25 0.5) (end 3.25 -0.5) (layer F.Fab) (width 0.1))
  (fp_line (start 3.25 -0.5) (end -0.75 -0.5) (layer F.Fab) (width 0.1))
  (fp_line (start 1.48 -0.5) (end 3.25 -0.5) (layer F.SilkS) (width 0.12))
  (fp_line (start 1.48 0.5) (end 3.25 0.5) (layer F.SilkS) (width 0.12))
  (fp_line (start 3.25 -0.5) (end 3.25 0.5) (layer F.SilkS) (width 0.12))
  (fp_line (start 6.25 -8.3) (end 6.25 6.7) (layer F.Fab) (width 0.1))
  (fp_line (start 6.25 -8.42) (end 6.25 -1.98) (layer F.SilkS) (width 0.12))
  (fp_line (start 6.25 1.98) (end 6.25 6.82) (layer F.SilkS) (width 0.12))
  (fp_line (start 6.75 -2.2) (end 6.75 2.2) (layer F.Fab) (width 0.1))
  (fp_line (start 6.75 2.2) (end 10.75 2.2) (layer F.Fab) (width 0.1))
  (fp_line (start 10.75 2.2) (end 10.75 -2.2) (layer F.Fab) (width 0.1))
  (fp_line (start 10.75 -2.2) (end 6.75 -2.2) (layer F.Fab) (width 0.1))
  (fp_line (start 6.75 -2.2) (end 10.75 -2.2) (layer F.SilkS) (width 0.12))
  (fp_line (start 6.75 2.2) (end 10.75 2.2) (layer F.SilkS) (width 0.12))
  (fp_line (start 6.75 -2.2) (end 6.75 -1.98) (layer F.SilkS) (width 0.12))
  (fp_line (start 6.75 1.98) (end 6.75 2.2) (layer F.SilkS) (width 0.12))
  (fp_line (start 10.75 -2.2) (end 10.75 2.2) (layer F.SilkS) (width 0.12))
  (fp_line (start 6.75 -0.5) (end 6.75 0.5) (layer F.Fab) (width 0.1))
  (fp_line (start 6.75 0.5) (end 10.75 0.5) (layer F.Fab) (width 0.1))
  (fp_line (start 10.75 0.5) (end 10.75 -0.5) (layer F.Fab) (width 0.1))
  (fp_line (start 10.75 -0.5) (end 6.75 -0.5) (layer F.Fab) (width 0.1))
  (fp_line (start 8.98 -0.5) (end 10.75 -0.5) (layer F.SilkS) (width 0.12))
  (fp_line (start 8.98 0.5) (end 10.75 0.5) (layer F.SilkS) (width 0.12))
  (fp_line (start 10.75 -0.5) (end 10.75 0.5) (layer F.SilkS) (width 0.12))
  (fp_line (start 13.75 -8.3) (end 13.75 6.7) (layer F.Fab) (width 0.1))
  (fp_line (start 13.75 -8.42) (end 13.75 -1.98) (layer F.SilkS) (width 0.12))
  (fp_line (start 13.75 1.98) (end 13.75 6.82) (layer F.SilkS) (width 0.12))
  (fp_line (start 14.25 -2.2) (end 14.25 2.2) (layer F.Fab) (width 0.1))
  (fp_line (start 14.25 2.2) (end 18.25 2.2) (layer F.Fab) (width 0.1))
  (fp_line (start 18.25 2.2) (end 18.25 -2.2) (layer F.Fab) (width 0.1))
  (fp_line (start 18.25 -2.2) (end 14.25 -2.2) (layer F.Fab) (width 0.1))
  (fp_line (start 14.25 -2.2) (end 18.25 -2.2) (layer F.SilkS) (width 0.12))
  (fp_line (start 14.25 2.2) (end 18.25 2.2) (layer F.SilkS) (width 0.12))
  (fp_line (start 14.25 -2.2) (end 14.25 -1.98) (layer F.SilkS) (width 0.12))
  (fp_line (start 14.25 1.98) (end 14.25 2.2) (layer F.SilkS) (width 0.12))
  (fp_line (start 18.25 -2.2) (end 18.25 2.2) (layer F.SilkS) (width 0.12))
  (fp_line (start 14.25 -0.5) (end 14.25 0.5) (layer F.Fab) (width 0.1))
  (fp_line (start 14.25 0.5) (end 18.25 0.5) (layer F.Fab) (width 0.1))
  (fp_line (start 18.25 0.5) (end 18.25 -0.5) (layer F.Fab) (width 0.1))
  (fp_line (start 18.25 -0.5) (end 14.25 -0.5) (layer F.Fab) (width 0.1))
  (fp_line (start 16.48 -0.5) (end 18.25 -0.5) (layer F.SilkS) (width 0.12))
  (fp_line (start 16.48 0.5) (end 18.25 0.5) (layer F.SilkS) (width 0.12))
  (fp_line (start 18.25 -0.5) (end 18.25 0.5) (layer F.SilkS) (width 0.12))
  (fp_line (start 21.25 -8.3) (end 21.25 6.7) (layer F.Fab) (width 0.1))
  (fp_line (start 21.25 -8.42) (end 21.25 -1.98) (layer F.SilkS) (width 0.12))
  (fp_line (start 21.25 1.98) (end 21.25 6.82) (layer F.SilkS) (width 0.12))
  (fp_line (start 21.75 -2.2) (end 21.75 2.2) (layer F.Fab) (width 0.1))
  (fp_line (start 21.75 2.2) (end 25.75 2.2) (layer F.Fab) (width 0.1))
  (fp_line (start 25.75 2.2) (end 25.75 -2.2) (layer F.Fab) (width 0.1))
  (fp_line (start 25.75 -2.2) (end 21.75 -2.2) (layer F.Fab) (width 0.1))
  (fp_line (start 21.75 -2.2) (end 25.75 -2.2) (layer F.SilkS) (width 0.12))
  (fp_line (start 21.75 2.2) (end 25.75 2.2) (layer F.SilkS) (width 0.12))
  (fp_line (start 21.75 -2.2) (end 21.75 -1.98) (layer F.SilkS) (width 0.12))
  (fp_line (start 21.75 1.98) (end 21.75 2.2) (layer F.SilkS) (width 0.12))
  (fp_line (start 25.75 -2.2) (end 25.75 2.2) (layer F.SilkS) (width 0.12))
  (fp_line (start 21.75 -0.5) (end 21.75 0.5) (layer F.Fab) (width 0.1))
  (fp_line (start 21.75 0.5) (end 25.75 0.5) (layer F.Fab) (width 0.1))
  (fp_line (start 25.75 0.5) (end 25.75 -0.5) (layer F.Fab) (width 0.1))
  (fp_line (start 25.75 -0.5) (end 21.75 -0.5) (layer F.Fab) (width 0.1))
  (fp_line (start 23.98 -0.5) (end 25.75 -0.5) (layer F.SilkS) (width 0.12))
  (fp_line (start 23.98 0.5) (end 25.75 0.5) (layer F.SilkS) (width 0.12))
  (fp_line (start 25.75 -0.5) (end 25.75 0.5) (layer F.SilkS) (width 0.12))
  (fp_line (start 28.75 -8.3) (end 28.75 6.7) (layer F.Fab) (width 0.1))
  (fp_line (start 28.75 -8.42) (end 28.75 -1.98) (layer F.SilkS) (width 0.12))
  (fp_line (start 28.75 1.98) (end 28.75 6.82) (layer F.SilkS) (width 0.12))
  (fp_line (start 29.25 -2.2) (end 29.25 2.2) (layer F.Fab) (width 0.1))
  (fp_line (start 29.25 2.2) (end 33.25 2.2) (layer F.Fab) (width 0.1))
  (fp_line (start 33.25 2.2) (end 33.25 -2.2) (layer F.Fab) (width 0.1))
  (fp_line (start 33.25 -2.2) (end 29.25 -2.2) (layer F.Fab) (width 0.1))
  (fp_line (start 29.25 -2.2) (end 33.25 -2.2) (layer F.SilkS) (width 0.12))
  (fp_line (start 29.25 2.2) (end 33.25 2.2) (layer F.SilkS) (width 0.12))
  (fp_line (start 29.25 -2.2) (end 29.25 -1.98) (layer F.SilkS) (width 0.12))
  (fp_line (start 29.25 1.98) (end 29.25 2.2) (layer F.SilkS) (width 0.12))
  (fp_line (start 33.25 -2.2) (end 33.25 2.2) (layer F.SilkS) (width 0.12))
  (fp_line (start 29.25 -0.5) (end 29.25 0.5) (layer F.Fab) (width 0.1))
  (fp_line (start 29.25 0.5) (end 33.25 0.5) (layer F.Fab) (width 0.1))
  (fp_line (start 33.25 0.5) (end 33.25 -0.5) (layer F.Fab) (width 0.1))
  (fp_line (start 33.25 -0.5) (end 29.25 -0.5) (layer F.Fab) (width 0.1))
  (fp_line (start 31.48 -0.5) (end 33.25 -0.5) (layer F.SilkS) (width 0.12))
  (fp_line (start 31.48 0.5) (end 33.25 0.5) (layer F.SilkS) (width 0.12))
  (fp_line (start 33.25 -0.5) (end 33.25 0.5) (layer F.SilkS) (width 0.12))
  (fp_line (start 36.25 -8.3) (end 36.25 6.7) (layer F.Fab) (width 0.1))
  (fp_line (start 36.25 -8.42) (end 36.25 -1.98) (layer F.SilkS) (width 0.12))
  (fp_line (start 36.25 1.98) (end 36.25 6.82) (layer F.SilkS) (width 0.12))
  (fp_line (start 36.75 -2.2) (end 36.75 2.2) (layer F.Fab) (width 0.1))
  (fp_line (start 36.75 2.2) (end 40.75 2.2) (layer F.Fab) (width 0.1))
  (fp_line (start 40.75 2.2) (end 40.75 -2.2) (layer F.Fab) (width 0.1))
  (fp_line (start 40.75 -2.2) (end 36.75 -2.2) (layer F.Fab) (width 0.1))
  (fp_line (start 36.75 -2.2) (end 40.75 -2.2) (layer F.SilkS) (width 0.12))
  (fp_line (start 36.75 2.2) (end 40.75 2.2) (layer F.SilkS) (width 0.12))
  (fp_line (start 36.75 -2.2) (end 36.75 -1.98) (layer F.SilkS) (width 0.12))
  (fp_line (start 36.75 1.98) (end 36.75 2.2) (layer F.SilkS) (width 0.12))
  (fp_line (start 40.75 -2.2) (end 40.75 2.2) (layer F.SilkS) (width 0.12))
  (fp_line (start 36.75 -0.5) (end 36.75 0.5) (layer F.Fab) (width 0.1))
  (fp_line (start 36.75 0.5) (end 40.75 0.5) (layer F.Fab) (width 0.1))
  (fp_line (start 40.75 0.5) (end 40.75 -0.5) (layer F.Fab) (width 0.1))
  (fp_line (start 40.75 -0.5) (end 36.75 -0.5) (layer F.Fab) (width 0.1))
  (fp_line (start 38.98 -0.5) (end 40.75 -0.5) (layer F.SilkS) (width 0.12))
  (fp_line (start 38.98 0.5) (end 40.75 0.5) (layer F.SilkS) (width 0.12))
  (fp_line (start 40.75 -0.5) (end 40.75 0.5) (layer F.SilkS) (width 0.12))
  (fp_line (start 43.75 -8.3) (end 43.75 6.7) (layer F.Fab) (width 0.1))
  (fp_line (start 43.75 -8.42) (end 43.75 -1.98) (layer F.SilkS) (width 0.12))
  (fp_line (start 43.75 1.98) (end 43.75 6.82) (layer F.SilkS) (width 0.12))
  (fp_line (start 44.25 -2.2) (end 44.25 2.2) (layer F.Fab) (width 0.1))
  (fp_line (start 44.25 2.2) (end 48.25 2.2) (layer F.Fab) (width 0.1))
  (fp_line (start 48.25 2.2) (end 48.25 -2.2) (layer F.Fab) (width 0.1))
  (fp_line (start 48.25 -2.2) (end 44.25 -2.2) (layer F.Fab) (width 0.1))
  (fp_line (start 44.25 -2.2) (end 48.25 -2.2) (layer F.SilkS) (width 0.12))
  (fp_line (start 44.25 2.2) (end 48.25 2.2) (layer F.SilkS) (width 0.12))
  (fp_line (start 44.25 -2.2) (end 44.25 -1.98) (layer F.SilkS) (width 0.12))
  (fp_line (start 44.25 1.98) (end 44.25 2.2) (layer F.SilkS) (width 0.12))
  (fp_line (start 48.25 -2.2) (end 48.25 2.2) (layer F.SilkS) (width 0.12))
  (fp_line (start 44.25 -0.5) (end 44.25 0.5) (layer F.Fab) (width 0.1))
  (fp_line (start 44.25 0.5) (end 48.25 0.5) (layer F.Fab) (width 0.1))
  (fp_line (start 48.25 0.5) (end 48.25 -0.5) (layer F.Fab) (width 0.1))
  (fp_line (start 48.25 -0.5) (end 44.25 -0.5) (layer F.Fab) (width 0.1))
  (fp_line (start 46.48 -0.5) (end 48.25 -0.5) (layer F.SilkS) (width 0.12))
  (fp_line (start 46.48 0.5) (end 48.25 0.5) (layer F.SilkS) (width 0.12))
  (fp_line (start 48.25 -0.5) (end 48.25 0.5) (layer F.SilkS) (width 0.12))
  (fp_line (start 51.25 -8.3) (end 51.25 6.7) (layer F.Fab) (width 0.1))
  (fp_line (start 51.25 -8.42) (end 51.25 -1.98) (layer F.SilkS) (width 0.12))
  (fp_line (start 51.25 1.98) (end 51.25 6.82) (layer F.SilkS) (width 0.12))
  (fp_line (start 51.75 -2.2) (end 51.75 2.2) (layer F.Fab) (width 0.1))
  (fp_line (start 51.75 2.2) (end 55.75 2.2) (layer F.Fab) (width 0.1))
  (fp_line (start 55.75 2.2) (end 55.75 -2.2) (layer F.Fab) (width 0.1))
  (fp_line (start 55.75 -2.2) (end 51.75 -2.2) (layer F.Fab) (width 0.1))
  (fp_line (start 51.75 -2.2) (end 55.75 -2.2) (layer F.SilkS) (width 0.12))
  (fp_line (start 51.75 2.2) (end 55.75 2.2) (layer F.SilkS) (width 0.12))
  (fp_line (start 51.75 -2.2) (end 51.75 -1.98) (layer F.SilkS) (width 0.12))
  (fp_line (start 51.75 1.98) (end 51.75 2.2) (layer F.SilkS) (width 0.12))
  (fp_line (start 55.75 -2.2) (end 55.75 2.2) (layer F.SilkS) (width 0.12))
  (fp_line (start 51.75 -0.5) (end 51.75 0.5) (layer F.Fab) (width 0.1))
  (fp_line (start 51.75 0.5) (end 55.75 0.5) (layer F.Fab) (width 0.1))
  (fp_line (start 55.75 0.5) (end 55.75 -0.5) (layer F.Fab) (width 0.1))
  (fp_line (start 55.75 -0.5) (end 51.75 -0.5) (layer F.Fab) (width 0.1))
  (fp_line (start 53.98 -0.5) (end 55.75 -0.5) (layer F.SilkS) (width 0.12))
  (fp_line (start 53.98 0.5) (end 55.75 0.5) (layer F.SilkS) (width 0.12))
  (fp_line (start 55.75 -0.5) (end 55.75 0.5) (layer F.SilkS) (width 0.12))
  (fp_line (start 58.75 -8.3) (end 58.75 6.7) (layer F.Fab) (width 0.1))
  (fp_line (start 58.75 -8.42) (end 58.75 -1.98) (layer F.SilkS) (width 0.12))
  (fp_line (start 58.75 1.98) (end 58.75 6.82) (layer F.SilkS) (width 0.12))
  (fp_line (start 59.25 -2.2) (end 59.25 2.2) (layer F.Fab) (width 0.1))
  (fp_line (start 59.25 2.2) (end 63.25 2.2) (layer F.Fab) (width 0.1))
  (fp_line (start 63.25 2.2) (end 63.25 -2.2) (layer F.Fab) (width 0.1))
  (fp_line (start 63.25 -2.2) (end 59.25 -2.2) (layer F.Fab) (width 0.1))
  (fp_line (start 59.25 -2.2) (end 63.25 -2.2) (layer F.SilkS) (width 0.12))
  (fp_line (start 59.25 2.2) (end 63.25 2.2) (layer F.SilkS) (width 0.12))
  (fp_line (start 59.25 -2.2) (end 59.25 -1.98) (layer F.SilkS) (width 0.12))
  (fp_line (start 59.25 1.98) (end 59.25 2.2) (layer F.SilkS) (width 0.12))
  (fp_line (start 63.25 -2.2) (end 63.25 2.2) (layer F.SilkS) (width 0.12))
  (fp_line (start 59.25 -0.5) (end 59.25 0.5) (layer F.Fab) (width 0.1))
  (fp_line (start 59.25 0.5) (end 63.25 0.5) (layer F.Fab) (width 0.1))
  (fp_line (start 63.25 0.5) (end 63.25 -0.5) (layer F.Fab) (width 0.1))
  (fp_line (start 63.25 -0.5) (end 59.25 -0.5) (layer F.Fab) (width 0.1))
  (fp_line (start 61.48 -0.5) (end 63.25 -0.5) (layer F.SilkS) (width 0.12))
  (fp_line (start 61.48 0.5) (end 63.25 0.5) (layer F.SilkS) (width 0.12))
  (fp_line (start 63.25 -0.5) (end 63.25 0.5) (layer F.SilkS) (width 0.12))
  (fp_line (start 66.25 -8.3) (end 66.25 6.7) (layer F.Fab) (width 0.1))
  (fp_line (start 66.25 -8.42) (end 66.25 -1.98) (layer F.SilkS) (width 0.12))
  (fp_line (start 66.25 1.98) (end 66.25 6.82) (layer F.SilkS) (width 0.12))
  (fp_line (start 66.75 -2.2) (end 66.75 2.2) (layer F.Fab) (width 0.1))
  (fp_line (start 66.75 2.2) (end 70.75 2.2) (layer F.Fab) (width 0.1))
  (fp_line (start 70.75 2.2) (end 70.75 -2.2) (layer F.Fab) (width 0.1))
  (fp_line (start 70.75 -2.2) (end 66.75 -2.2) (layer F.Fab) (width 0.1))
  (fp_line (start 66.75 -2.2) (end 70.75 -2.2) (layer F.SilkS) (width 0.12))
  (fp_line (start 66.75 2.2) (end 70.75 2.2) (layer F.SilkS) (width 0.12))
  (fp_line (start 66.75 -2.2) (end 66.75 -1.98) (layer F.SilkS) (width 0.12))
  (fp_line (start 66.75 1.98) (end 66.75 2.2) (layer F.SilkS) (width 0.12))
  (fp_line (start 70.75 -2.2) (end 70.75 2.2) (layer F.SilkS) (width 0.12))
  (fp_line (start 66.75 -0.5) (end 66.75 0.5) (layer F.Fab) (width 0.1))
  (fp_line (start 66.75 0.5) (end 70.75 0.5) (layer F.Fab) (width 0.1))
  (fp_line (start 70.75 0.5) (end 70.75 -0.5) (layer F.Fab) (width 0.1))
  (fp_line (start 70.75 -0.5) (end 66.75 -0.5) (layer F.Fab) (width 0.1))
  (fp_line (start 68.98 -0.5) (end 70.75 -0.5) (layer F.SilkS) (width 0.12))
  (fp_line (start 68.98 0.5) (end 70.75 0.5) (layer F.SilkS) (width 0.12))
  (fp_line (start 70.75 -0.5) (end 70.75 0.5) (layer F.SilkS) (width 0.12))
  (fp_line (start 73.75 -8.3) (end 73.75 6.7) (layer F.Fab) (width 0.1))
  (fp_line (start 73.75 -8.42) (end 73.75 -1.98) (layer F.SilkS) (width 0.12))
  (fp_line (start 73.75 1.98) (end 73.75 6.82) (layer F.SilkS) (width 0.12))
  (fp_line (start 74.25 -2.2) (end 74.25 2.2) (layer F.Fab) (width 0.1))
  (fp_line (start 74.25 2.2) (end 78.25 2.2) (layer F.Fab) (width 0.1))
  (fp_line (start 78.25 2.2) (end 78.25 -2.2) (layer F.Fab) (width 0.1))
  (fp_line (start 78.25 -2.2) (end 74.25 -2.2) (layer F.Fab) (width 0.1))
  (fp_line (start 74.25 -2.2) (end 78.25 -2.2) (layer F.SilkS) (width 0.12))
  (fp_line (start 74.25 2.2) (end 78.25 2.2) (layer F.SilkS) (width 0.12))
  (fp_line (start 74.25 -2.2) (end 74.25 -1.98) (layer F.SilkS) (width 0.12))
  (fp_line (start 74.25 1.98) (end 74.25 2.2) (layer F.SilkS) (width 0.12))
  (fp_line (start 78.25 -2.2) (end 78.25 2.2) (layer F.SilkS) (width 0.12))
  (fp_line (start 74.25 -0.5) (end 74.25 0.5) (layer F.Fab) (width 0.1))
  (fp_line (start 74.25 0.5) (end 78.25 0.5) (layer F.Fab) (width 0.1))
  (fp_line (start 78.25 0.5) (end 78.25 -0.5) (layer F.Fab) (width 0.1))
  (fp_line (start 78.25 -0.5) (end 74.25 -0.5) (layer F.Fab) (width 0.1))
  (fp_line (start 76.48 -0.5) (end 78.25 -0.5) (layer F.SilkS) (width 0.12))
  (fp_line (start 76.48 0.5) (end 78.25 0.5) (layer F.SilkS) (width 0.12))
  (fp_line (start 78.25 -0.5) (end 78.25 0.5) (layer F.SilkS) (width 0.12))
  (fp_line (start 81.25 -8.3) (end 81.25 6.7) (layer F.Fab) (width 0.1))
  (fp_line (start 81.25 -8.42) (end 81.25 -1.98) (layer F.SilkS) (width 0.12))
  (fp_line (start 81.25 1.98) (end 81.25 6.82) (layer F.SilkS) (width 0.12))
  (fp_line (start 81.75 -2.2) (end 81.75 2.2) (layer F.Fab) (width 0.1))
  (fp_line (start 81.75 2.2) (end 85.75 2.2) (layer F.Fab) (width 0.1))
  (fp_line (start 85.75 2.2) (end 85.75 -2.2) (layer F.Fab) (width 0.1))
  (fp_line (start 85.75 -2.2) (end 81.75 -2.2) (layer F.Fab) (width 0.1))
  (fp_line (start 81.75 -2.2) (end 85.75 -2.2) (layer F.SilkS) (width 0.12))
  (fp_line (start 81.75 2.2) (end 85.75 2.2) (layer F.SilkS) (width 0.12))
  (fp_line (start 81.75 -2.2) (end 81.75 -1.98) (layer F.SilkS) (width 0.12))
  (fp_line (start 81.75 1.98) (end 81.75 2.2) (layer F.SilkS) (width 0.12))
  (fp_line (start 85.75 -2.2) (end 85.75 2.2) (layer F.SilkS) (width 0.12))
  (fp_line (start 81.75 -0.5) (end 81.75 0.5) (layer F.Fab) (width 0.1))
  (fp_line (start 81.75 0.5) (end 85.75 0.5) (layer F.Fab) (width 0.1))
  (fp_line (start 85.75 0.5) (end 85.75 -0.5) (layer F.Fab) (width 0.1))
  (fp_line (start 85.75 -0.5) (end 81.75 -0.5) (layer F.Fab) (width 0.1))
  (fp_line (start 83.98 -0.5) (end 85.75 -0.5) (layer F.SilkS) (width 0.12))
  (fp_line (start 83.98 0.5) (end 85.75 0.5) (layer F.SilkS) (width 0.12))
  (fp_line (start 85.75 -0.5) (end 85.75 0.5) (layer F.SilkS) (width 0.12))
  (fp_line (start 88.75 -8.3) (end 88.75 6.7) (layer F.Fab) (width 0.1))
  (fp_line (start 88.75 -8.42) (end 88.75 -1.98) (layer F.SilkS) (width 0.12))
  (fp_line (start 88.75 1.98) (end 88.75 6.82) (layer F.SilkS) (width 0.12))
  (fp_line (start 89.25 -2.2) (end 89.25 2.2) (layer F.Fab) (width 0.1))
  (fp_line (start 89.25 2.2) (end 93.25 2.2) (layer F.Fab) (width 0.1))
  (fp_line (start 93.25 2.2) (end 93.25 -2.2) (layer F.Fab) (width 0.1))
  (fp_line (start 93.25 -2.2) (end 89.25 -2.2) (layer F.Fab) (width 0.1))
  (fp_line (start 89.25 -2.2) (end 93.25 -2.2) (layer F.SilkS) (width 0.12))
  (fp_line (start 89.25 2.2) (end 93.25 2.2) (layer F.SilkS) (width 0.12))
  (fp_line (start 89.25 -2.2) (end 89.25 -1.98) (layer F.SilkS) (width 0.12))
  (fp_line (start 89.25 1.98) (end 89.25 2.2) (layer F.SilkS) (width 0.12))
  (fp_line (start 93.25 -2.2) (end 93.25 2.2) (layer F.SilkS) (width 0.12))
  (fp_line (start 89.25 -0.5) (end 89.25 0.5) (layer F.Fab) (width 0.1))
  (fp_line (start 89.25 0.5) (end 93.25 0.5) (layer F.Fab) (width 0.1))
  (fp_line (start 93.25 0.5) (end 93.25 -0.5) (layer F.Fab) (width 0.1))
  (fp_line (start 93.25 -0.5) (end 89.25 -0.5) (layer F.Fab) (width 0.1))
  (fp_line (start 91.48 -0.5) (end 93.25 -0.5) (layer F.SilkS) (width 0.12))
  (fp_line (start 91.48 0.5) (end 93.25 0.5) (layer F.SilkS) (width 0.12))
  (fp_line (start 93.25 -0.5) (end 93.25 0.5) (layer F.SilkS) (width 0.12))
  (fp_line (start 96.25 -8.3) (end 96.25 6.7) (layer F.Fab) (width 0.1))
  (fp_line (start 96.25 -8.42) (end 96.25 -1.98) (layer F.SilkS) (width 0.12))
  (fp_line (start 96.25 1.98) (end 96.25 6.82) (layer F.SilkS) (width 0.12))
  (fp_line (start 96.75 -2.2) (end 96.75 2.2) (layer F.Fab) (width 0.1))
  (fp_line (start 96.75 2.2) (end 100.75 2.2) (layer F.Fab) (width 0.1))
  (fp_line (start 100.75 2.2) (end 100.75 -2.2) (layer F.Fab) (width 0.1))
  (fp_line (start 100.75 -2.2) (end 96.75 -2.2) (layer F.Fab) (width 0.1))
  (fp_line (start 96.75 -2.2) (end 100.75 -2.2) (layer F.SilkS) (width 0.12))
  (fp_line (start 96.75 2.2) (end 100.75 2.2) (layer F.SilkS) (width 0.12))
  (fp_line (start 96.75 -2.2) (end 96.75 -1.98) (layer F.SilkS) (width 0.12))
  (fp_line (start 96.75 1.98) (end 96.75 2.2) (layer F.SilkS) (width 0.12))
  (fp_line (start 100.75 -2.2) (end 100.75 2.2) (layer F.SilkS) (width 0.12))
  (fp_line (start 96.75 -0.5) (end 96.75 0.5) (layer F.Fab) (width 0.1))
  (fp_line (start 96.75 0.5) (end 100.75 0.5) (layer F.Fab) (width 0.1))
  (fp_line (start 100.75 0.5) (end 100.75 -0.5) (layer F.Fab) (width 0.1))
  (fp_line (start 100.75 -0.5) (end 96.75 -0.5) (layer F.Fab) (width 0.1))
  (fp_line (start 98.98 -0.5) (end 100.75 -0.5) (layer F.SilkS) (width 0.12))
  (fp_line (start 98.98 0.5) (end 100.75 0.5) (layer F.SilkS) (width 0.12))
  (fp_line (start 100.75 -0.5) (end 100.75 0.5) (layer F.SilkS) (width 0.12))
  (fp_line (start 103.75 -8.3) (end 103.75 6.7) (layer F.Fab) (width 0.1))
  (fp_line (start 103.75 -8.42) (end 103.75 -1.98) (layer F.SilkS) (width 0.12))
  (fp_line (start 103.75 1.98) (end 103.75 6.82) (layer F.SilkS) (width 0.12))
  (fp_line (start 104.25 -2.2) (end 104.25 2.2) (layer F.Fab) (width 0.1))
  (fp_line (start 104.25 2.2) (end 108.25 2.2) (layer F.Fab) (width 0.1))
  (fp_line (start 108.25 2.2) (end 108.25 -2.2) (layer F.Fab) (width 0.1))
  (fp_line (start 108.25 -2.2) (end 104.25 -2.2) (layer F.Fab) (width 0.1))
  (fp_line (start 104.25 -2.2) (end 108.25 -2.2) (layer F.SilkS) (width 0.12))
  (fp_line (start 104.25 2.2) (end 108.25 2.2) (layer F.SilkS) (width 0.12))
  (fp_line (start 104.25 -2.2) (end 104.25 -1.98) (layer F.SilkS) (width 0.12))
  (fp_line (start 104.25 1.98) (end 104.25 2.2) (layer F.SilkS) (width 0.12))
  (fp_line (start 108.25 -2.2) (end 108.25 2.2) (layer F.SilkS) (width 0.12))
  (fp_line (start 104.25 -0.5) (end 104.25 0.5) (layer F.Fab) (width 0.1))
  (fp_line (start 104.25 0.5) (end 108.25 0.5) (layer F.Fab) (width 0.1))
  (fp_line (start 108.25 0.5) (end 108.25 -0.5) (layer F.Fab) (width 0.1))
  (fp_line (start 108.25 -0.5) (end 104.25 -0.5) (layer F.Fab) (width 0.1))
  (fp_line (start 106.48 -0.5) (end 108.25 -0.5) (layer F.SilkS) (width 0.12))
  (fp_line (start 106.48 0.5) (end 108.25 0.5) (layer F.SilkS) (width 0.12))
  (fp_line (start 108.25 -0.5) (end 108.25 0.5) (layer F.SilkS) (width 0.12))
  (fp_line (start 111.25 -8.3) (end 111.25 6.7) (layer F.Fab) (width 0.1))
  (fp_line (start 111.25 -8.42) (end 111.25 -1.98) (layer F.SilkS) (width 0.12))
  (fp_line (start 111.25 1.98) (end 111.25 6.82) (layer F.SilkS) (width 0.12))
  (fp_line (start 111.75 -2.2) (end 111.75 2.2) (layer F.Fab) (width 0.1))
  (fp_line (start 111.75 2.2) (end 115.75 2.2) (layer F.Fab) (width 0.1))
  (fp_line (start 115.75 2.2) (end 115.75 -2.2) (layer F.Fab) (width 0.1))
  (fp_line (start 115.75 -2.2) (end 111.75 -2.2) (layer F.Fab) (width 0.1))
  (fp_line (start 111.75 -2.2) (end 115.75 -2.2) (layer F.SilkS) (width 0.12))
  (fp_line (start 111.75 2.2) (end 115.75 2.2) (layer F.SilkS) (width 0.12))
  (fp_line (start 111.75 -2.2) (end 111.75 -1.98) (layer F.SilkS) (width 0.12))
  (fp_line (start 111.75 1.98) (end 111.75 2.2) (layer F.SilkS) (width 0.12))
  (fp_line (start 115.75 -2.2) (end 115.75 2.2) (layer F.SilkS) (width 0.12))
  (fp_line (start 111.75 -0.5) (end 111.75 0.5) (layer F.Fab) (width 0.1))
  (fp_line (start 111.75 0.5) (end 115.75 0.5) (layer F.Fab) (width 0.1))
  (fp_line (start 115.75 0.5) (end 115.75 -0.5) (layer F.Fab) (width 0.1))
  (fp_line (start 115.75 -0.5) (end 111.75 -0.5) (layer F.Fab) (width 0.1))
  (fp_line (start 113.98 -0.5) (end 115.75 -0.5) (layer F.SilkS) (width 0.12))
  (fp_line (start 113.98 0.5) (end 115.75 0.5) (layer F.SilkS) (width 0.12))
  (fp_line (start 115.75 -0.5) (end 115.75 0.5) (layer F.SilkS) (width 0.12))
  (fp_line (start -3.11 4.82) (end -3.11 7.06) (layer F.SilkS) (width 0.12))
  (fp_line (start -3.11 7.06) (end -1.11 7.06) (layer F.SilkS) (width 0.12))
  (fp_line (start -3.25 -8.8) (end -3.25 7.2) (layer F.CrtYd) (width 0.05))
  (fp_line (start -3.25 7.2) (end 116.75 7.2) (layer F.CrtYd) (width 0.05))
  (fp_line (start 116.75 7.2) (end 116.75 -8.8) (layer F.CrtYd) (width 0.05))
  (fp_line (start 116.75 -8.8) (end -3.25 -8.8) (layer F.CrtYd) (width 0.05))
  (pad 1 thru_hole rect (at 0 0) (size 2 3) (drill 1.2) (layers *.Cu *.Mask))
  (pad 1 thru_hole rect (at 2.5 -5) (size 2 3) (drill 1.2) (layers *.Cu *.Mask))
  (pad 2 thru_hole oval (at 7.5 0) (size 2 3) (drill 1.2) (layers *.Cu *.Mask))
  (pad 2 thru_hole oval (at 10 -5) (size 2 3) (drill 1.2) (layers *.Cu *.Mask))
  (pad 3 thru_hole oval (at 15 0) (size 2 3) (drill 1.2) (layers *.Cu *.Mask))
  (pad 3 thru_hole oval (at 17.5 -5) (size 2 3) (drill 1.2) (layers *.Cu *.Mask))
  (pad 4 thru_hole oval (at 22.5 0) (size 2 3) (drill 1.2) (layers *.Cu *.Mask))
  (pad 4 thru_hole oval (at 25 -5) (size 2 3) (drill 1.2) (layers *.Cu *.Mask))
  (pad 5 thru_hole oval (at 30 0) (size 2 3) (drill 1.2) (layers *.Cu *.Mask))
  (pad 5 thru_hole oval (at 32.5 -5) (size 2 3) (drill 1.2) (layers *.Cu *.Mask))
  (pad 6 thru_hole oval (at 37.5 0) (size 2 3) (drill 1.2) (layers *.Cu *.Mask))
  (pad 6 thru_hole oval (at 40 -5) (size 2 3) (drill 1.2) (layers *.Cu *.Mask))
  (pad 7 thru_hole oval (at 45 0) (size 2 3) (drill 1.2) (layers *.Cu *.Mask))
  (pad 7 thru_hole oval (at 47.5 -5) (size 2 3) (drill 1.2) (layers *.Cu *.Mask))
  (pad 8 thru_hole oval (at 52.5 0) (size 2 3) (drill 1.2) (layers *.Cu *.Mask))
  (pad 8 thru_hole oval (at 55 -5) (size 2 3) (drill 1.2) (layers *.Cu *.Mask))
  (pad 9 thru_hole oval (at 60 0) (size 2 3) (drill 1.2) (layers *.Cu *.Mask))
  (pad 9 thru_hole oval (at 62.5 -5) (size 2 3) (drill 1.2) (layers *.Cu *.Mask))
  (pad 10 thru_hole oval (at 67.5 0) (size 2 3) (drill 1.2) (layers *.Cu *.Mask))
  (pad 10 thru_hole oval (at 70 -5) (size 2 3) (drill 1.2) (layers *.Cu *.Mask))
  (pad 11 thru_hole oval (at 75 0) (size 2 3) (drill 1.2) (layers *.Cu *.Mask))
  (pad 11 thru_hole oval (at 77.5 -5) (size 2 3) (drill 1.2) (layers *.Cu *.Mask))
  (pad 12 thru_hole oval (at 82.5 0) (size 2 3) (drill 1.2) (layers *.Cu *.Mask))
  (pad 12 thru_hole oval (at 85 -5) (size 2 3) (drill 1.2) (layers *.Cu *.Mask))
  (pad 13 thru_hole oval (at 90 0) (size 2 3) (drill 1.2) (layers *.Cu *.Mask))
  (pad 13 thru_hole oval (at 92.5 -5) (size 2 3) (drill 1.2) (layers *.Cu *.Mask))
  (pad 14 thru_hole oval (at 97.5 0) (size 2 3) (drill 1.2) (layers *.Cu *.Mask))
  (pad 14 thru_hole oval (at 100 -5) (size 2 3) (drill 1.2) (layers *.Cu *.Mask))
  (pad 15 thru_hole oval (at 105 0) (size 2 3) (drill 1.2) (layers *.Cu *.Mask))
  (pad 15 thru_hole oval (at 107.5 -5) (size 2 3) (drill 1.2) (layers *.Cu *.Mask))
  (pad 16 thru_hole oval (at 112.5 0) (size 2 3) (drill 1.2) (layers *.Cu *.Mask))
  (pad 16 thru_hole oval (at 115 -5) (size 2 3) (drill 1.2) (layers *.Cu *.Mask))
  (fp_text user %R (at 56.75 -1.8) (layer F.Fab)
    (effects (font (size 1 1) (thickness 0.15)))
  )
  (model ${KICAD6_3DMODEL_DIR}/TerminalBlock_WAGO.3dshapes/TerminalBlock_WAGO_804-316_1x16_P7.50mm_45Degree.wrl
    (at (xyz 0 0 0))
    (scale (xyz 1 1 1))
    (rotate (xyz 0 0 0))
  )
)