(module TerminalBlock_WAGO_804-104_1x04_P5.00mm_45Degree (layer F.Cu) (tedit 5F817307)
  (descr "Terminal Block WAGO 804-104, 45Degree (cable under 45degree), 4 pins, pitch 5mm, size 21.5x15mm^2, drill diamater 1.2mm, pad diameter 3mm, see , script-generated with , script-generated using https://github.com/pointhi/kicad-footprint-generator/scripts/TerminalBlock_WAGO")
  (tags "THT Terminal Block WAGO 804-104 45Degree pitch 5mm size 21.5x15mm^2 drill 1.2mm pad 3mm")
  (fp_text reference REF** (at 8 -9.42) (layer F.SilkS)
    (effects (font (size 1 1) (thickness 0.15)))
  )
  (fp_text value TerminalBlock_WAGO_804-104_1x04_P5.00mm_45Degree (at 8 7.82) (layer F.Fab)
    (effects (font (size 1 1) (thickness 0.15)))
  )
  (fp_arc (start 1.25 5.59) (end 2.701 5.251) (angle -153.676754) (layer F.Fab) (width 0.1))
  (fp_arc (start 1.25 4.911) (end 2.7 5.25) (angle 153.676754) (layer F.Fab) (width 0.1))
  (fp_arc (start 1.25 5.59) (end 2.701 5.251) (angle -153.676754) (layer F.SilkS) (width 0.12))
  (fp_arc (start 1.25 4.911) (end 2.7 5.25) (angle 153.676754) (layer F.SilkS) (width 0.12))
  (fp_arc (start 1.25 -5.75) (end 2.111 -6.979) (angle -207) (layer F.SilkS) (width 0.12))
  (fp_arc (start 6.25 5.59) (end 7.701 5.251) (angle -153.676754) (layer F.Fab) (width 0.1))
  (fp_arc (start 6.25 4.911) (end 7.7 5.25) (angle 153.676754) (layer F.Fab) (width 0.1))
  (fp_arc (start 6.25 5.59) (end 7.701 5.251) (angle -153.676754) (layer F.SilkS) (width 0.12))
  (fp_arc (start 6.25 4.911) (end 7.7 5.25) (angle 153.676754) (layer F.SilkS) (width 0.12))
  (fp_arc (start 6.25 -5.75) (end 7.111 -6.979) (angle -207) (layer F.SilkS) (width 0.12))
  (fp_arc (start 11.25 5.59) (end 12.701 5.251) (angle -153.676754) (layer F.Fab) (width 0.1))
  (fp_arc (start 11.25 4.911) (end 12.7 5.25) (angle 153.676754) (layer F.Fab) (width 0.1))
  (fp_arc (start 11.25 5.59) (end 12.701 5.251) (angle -153.676754) (layer F.SilkS) (width 0.12))
  (fp_arc (start 11.25 4.911) (end 12.7 5.25) (angle 153.676754) (layer F.SilkS) (width 0.12))
  (fp_arc (start 11.25 -5.75) (end 12.111 -6.979) (angle -207) (layer F.SilkS) (width 0.12))
  (fp_arc (start 16.25 5.59) (end 17.701 5.251) (angle -153.676754) (layer F.Fab) (width 0.1))
  (fp_arc (start 16.25 4.911) (end 17.7 5.25) (angle 153.676754) (layer F.Fab) (width 0.1))
  (fp_arc (start 16.25 5.59) (end 17.701 5.251) (angle -153.676754) (layer F.SilkS) (width 0.12))
  (fp_arc (start 16.25 4.911) (end 17.7 5.25) (angle 153.676754) (layer F.SilkS) (width 0.12))
  (fp_arc (start 16.25 -5.75) (end 17.111 -6.979) (angle -207) (layer F.SilkS) (width 0.12))
  (fp_circle (center 1.25 -5.75) (end 2.75 -5.75) (layer F.Fab) (width 0.1))
  (fp_circle (center 6.25 -5.75) (end 7.75 -5.75) (layer F.Fab) (width 0.1))
  (fp_circle (center 11.25 -5.75) (end 12.75 -5.75) (layer F.Fab) (width 0.1))
  (fp_circle (center 16.25 -5.75) (end 17.75 -5.75) (layer F.Fab) (width 0.1))
  (fp_line (start -2.75 -8.3) (end 18.75 -8.3) (layer F.Fab) (width 0.1))
  (fp_line (start 18.75 -8.3) (end 18.75 6.7) (layer F.Fab) (width 0.1))
  (fp_line (start 18.75 6.7) (end -0.75 6.7) (layer F.Fab) (width 0.1))
  (fp_line (start -0.75 6.7) (end -2.75 4.7) (layer F.Fab) (width 0.1))
  (fp_line (start -2.75 4.7) (end -2.75 -8.3) (layer F.Fab) (width 0.1))
  (fp_line (start -2.75 3.8) (end 18.75 3.8) (layer F.Fab) (width 0.1))
  (fp_line (start -2.87 3.8) (end 18.87 3.8) (layer F.SilkS) (width 0.12))
  (fp_line (start -2.87 -8.42) (end 18.87 -8.42) (layer F.SilkS) (width 0.12))
  (fp_line (start -2.87 6.82) (end 18.87 6.82) (layer F.SilkS) (width 0.12))
  (fp_line (start -2.87 -8.42) (end -2.87 6.82) (layer F.SilkS) (width 0.12))
  (fp_line (start 18.87 -8.42) (end 18.87 -6.98) (layer F.SilkS) (width 0.12))
  (fp_line (start 18.87 -3.02) (end 18.87 6.82) (layer F.SilkS) (width 0.12))
  (fp_line (start -1.25 -8.3) (end -1.25 6.7) (layer F.Fab) (width 0.1))
  (fp_line (start -1.25 -8.42) (end -1.25 -1.98) (layer F.SilkS) (width 0.12))
  (fp_line (start -1.25 1.98) (end -1.25 6.82) (layer F.SilkS) (width 0.12))
  (fp_line (start -0.75 -2.2) (end -0.75 2.2) (layer F.Fab) (width 0.1))
  (fp_line (start -0.75 2.2) (end 3.25 2.2) (layer F.Fab) (width 0.1))
  (fp_line (start 3.25 2.2) (end 3.25 -2.2) (layer F.Fab) (width 0.1))
  (fp_line (start 3.25 -2.2) (end -0.75 -2.2) (layer F.Fab) (width 0.1))
  (fp_line (start -0.75 -2.2) (end 3.25 -2.2) (layer F.SilkS) (width 0.12))
  (fp_line (start -0.75 2.2) (end 3.25 2.2) (layer F.SilkS) (width 0.12))
  (fp_line (start -0.75 -2.2) (end -0.75 -1.98) (layer F.SilkS) (width 0.12))
  (fp_line (start -0.75 1.98) (end -0.75 2.2) (layer F.SilkS) (width 0.12))
  (fp_line (start 3.25 -2.2) (end 3.25 2.2) (layer F.SilkS) (width 0.12))
  (fp_line (start -0.75 -0.5) (end -0.75 0.5) (layer F.Fab) (width 0.1))
  (fp_line (start -0.75 0.5) (end 3.25 0.5) (layer F.Fab) (width 0.1))
  (fp_line (start 3.25 0.5) (end 3.25 -0.5) (layer F.Fab) (width 0.1))
  (fp_line (start 3.25 -0.5) (end -0.75 -0.5) (layer F.Fab) (width 0.1))
  (fp_line (start 1.48 -0.5) (end 3.25 -0.5) (layer F.SilkS) (width 0.12))
  (fp_line (start 1.48 0.5) (end 3.25 0.5) (layer F.SilkS) (width 0.12))
  (fp_line (start 3.25 -0.5) (end 3.25 0.5) (layer F.SilkS) (width 0.12))
  (fp_line (start 3.75 -8.3) (end 3.75 6.7) (layer F.Fab) (width 0.1))
  (fp_line (start 3.75 -8.42) (end 3.75 -6.98) (layer F.SilkS) (width 0.12))
  (fp_line (start 3.75 -3.02) (end 3.75 -1.98) (layer F.SilkS) (width 0.12))
  (fp_line (start 3.75 1.98) (end 3.75 6.82) (layer F.SilkS) (width 0.12))
  (fp_line (start 4.25 -2.2) (end 4.25 2.2) (layer F.Fab) (width 0.1))
  (fp_line (start 4.25 2.2) (end 8.25 2.2) (layer F.Fab) (width 0.1))
  (fp_line (start 8.25 2.2) (end 8.25 -2.2) (layer F.Fab) (width 0.1))
  (fp_line (start 8.25 -2.2) (end 4.25 -2.2) (layer F.Fab) (width 0.1))
  (fp_line (start 4.25 -2.2) (end 8.25 -2.2) (layer F.SilkS) (width 0.12))
  (fp_line (start 4.25 2.2) (end 8.25 2.2) (layer F.SilkS) (width 0.12))
  (fp_line (start 4.25 -2.2) (end 4.25 -1.98) (layer F.SilkS) (width 0.12))
  (fp_line (start 4.25 1.98) (end 4.25 2.2) (layer F.SilkS) (width 0.12))
  (fp_line (start 8.25 -2.2) (end 8.25 2.2) (layer F.SilkS) (width 0.12))
  (fp_line (start 4.25 -0.5) (end 4.25 0.5) (layer F.Fab) (width 0.1))
  (fp_line (start 4.25 0.5) (end 8.25 0.5) (layer F.Fab) (width 0.1))
  (fp_line (start 8.25 0.5) (end 8.25 -0.5) (layer F.Fab) (width 0.1))
  (fp_line (start 8.25 -0.5) (end 4.25 -0.5) (layer F.Fab) (width 0.1))
  (fp_line (start 6.48 -0.5) (end 8.25 -0.5) (layer F.SilkS) (width 0.12))
  (fp_line (start 6.48 0.5) (end 8.25 0.5) (layer F.SilkS) (width 0.12))
  (fp_line (start 8.25 -0.5) (end 8.25 0.5) (layer F.SilkS) (width 0.12))
  (fp_line (start 8.75 -8.3) (end 8.75 6.7) (layer F.Fab) (width 0.1))
  (fp_line (start 8.75 -8.42) (end 8.75 -6.98) (layer F.SilkS) (width 0.12))
  (fp_line (start 8.75 -3.02) (end 8.75 -1.98) (layer F.SilkS) (width 0.12))
  (fp_line (start 8.75 1.98) (end 8.75 6.82) (layer F.SilkS) (width 0.12))
  (fp_line (start 9.25 -2.2) (end 9.25 2.2) (layer F.Fab) (width 0.1))
  (fp_line (start 9.25 2.2) (end 13.25 2.2) (layer F.Fab) (width 0.1))
  (fp_line (start 13.25 2.2) (end 13.25 -2.2) (layer F.Fab) (width 0.1))
  (fp_line (start 13.25 -2.2) (end 9.25 -2.2) (layer F.Fab) (width 0.1))
  (fp_line (start 9.25 -2.2) (end 13.25 -2.2) (layer F.SilkS) (width 0.12))
  (fp_line (start 9.25 2.2) (end 13.25 2.2) (layer F.SilkS) (width 0.12))
  (fp_line (start 9.25 -2.2) (end 9.25 -1.98) (layer F.SilkS) (width 0.12))
  (fp_line (start 9.25 1.98) (end 9.25 2.2) (layer F.SilkS) (width 0.12))
  (fp_line (start 13.25 -2.2) (end 13.25 2.2) (layer F.SilkS) (width 0.12))
  (fp_line (start 9.25 -0.5) (end 9.25 0.5) (layer F.Fab) (width 0.1))
  (fp_line (start 9.25 0.5) (end 13.25 0.5) (layer F.Fab) (width 0.1))
  (fp_line (start 13.25 0.5) (end 13.25 -0.5) (layer F.Fab) (width 0.1))
  (fp_line (start 13.25 -0.5) (end 9.25 -0.5) (layer F.Fab) (width 0.1))
  (fp_line (start 11.48 -0.5) (end 13.25 -0.5) (layer F.SilkS) (width 0.12))
  (fp_line (start 11.48 0.5) (end 13.25 0.5) (layer F.SilkS) (width 0.12))
  (fp_line (start 13.25 -0.5) (end 13.25 0.5) (layer F.SilkS) (width 0.12))
  (fp_line (start 13.75 -8.3) (end 13.75 6.7) (layer F.Fab) (width 0.1))
  (fp_line (start 13.75 -8.42) (end 13.75 -6.98) (layer F.SilkS) (width 0.12))
  (fp_line (start 13.75 -3.02) (end 13.75 -1.98) (layer F.SilkS) (width 0.12))
  (fp_line (start 13.75 1.98) (end 13.75 6.82) (layer F.SilkS) (width 0.12))
  (fp_line (start 14.25 -2.2) (end 14.25 2.2) (layer F.Fab) (width 0.1))
  (fp_line (start 14.25 2.2) (end 18.25 2.2) (layer F.Fab) (width 0.1))
  (fp_line (start 18.25 2.2) (end 18.25 -2.2) (layer F.Fab) (width 0.1))
  (fp_line (start 18.25 -2.2) (end 14.25 -2.2) (layer F.Fab) (width 0.1))
  (fp_line (start 14.25 -2.2) (end 18.25 -2.2) (layer F.SilkS) (width 0.12))
  (fp_line (start 14.25 2.2) (end 18.25 2.2) (layer F.SilkS) (width 0.12))
  (fp_line (start 14.25 -2.2) (end 14.25 -1.98) (layer F.SilkS) (width 0.12))
  (fp_line (start 14.25 1.98) (end 14.25 2.2) (layer F.SilkS) (width 0.12))
  (fp_line (start 18.25 -2.2) (end 18.25 2.2) (layer F.SilkS) (width 0.12))
  (fp_line (start 14.25 -0.5) (end 14.25 0.5) (layer F.Fab) (width 0.1))
  (fp_line (start 14.25 0.5) (end 18.25 0.5) (layer F.Fab) (width 0.1))
  (fp_line (start 18.25 0.5) (end 18.25 -0.5) (layer F.Fab) (width 0.1))
  (fp_line (start 18.25 -0.5) (end 14.25 -0.5) (layer F.Fab) (width 0.1))
  (fp_line (start 16.48 -0.5) (end 18.25 -0.5) (layer F.SilkS) (width 0.12))
  (fp_line (start 16.48 0.5) (end 18.25 0.5) (layer F.SilkS) (width 0.12))
  (fp_line (start 18.25 -0.5) (end 18.25 0.5) (layer F.SilkS) (width 0.12))
  (fp_line (start -3.11 4.82) (end -3.11 7.06) (layer F.SilkS) (width 0.12))
  (fp_line (start -3.11 7.06) (end -1.11 7.06) (layer F.SilkS) (width 0.12))
  (fp_line (start -3.25 -8.8) (end -3.25 7.2) (layer F.CrtYd) (width 0.05))
  (fp_line (start -3.25 7.2) (end 19.25 7.2) (layer F.CrtYd) (width 0.05))
  (fp_line (start 19.25 7.2) (end 19.25 -8.8) (layer F.CrtYd) (width 0.05))
  (fp_line (start 19.25 -8.8) (end -3.25 -8.8) (layer F.CrtYd) (width 0.05))
  (pad 1 thru_hole rect (at 0 0) (size 2 3) (drill 1.2) (layers *.Cu *.Mask))
  (pad 1 thru_hole rect (at 2.5 -5) (size 2 3) (drill 1.2) (layers *.Cu *.Mask))
  (pad 2 thru_hole oval (at 5 0) (size 2 3) (drill 1.2) (layers *.Cu *.Mask))
  (pad 2 thru_hole oval (at 7.5 -5) (size 2 3) (drill 1.2) (layers *.Cu *.Mask))
  (pad 3 thru_hole oval (at 10 0) (size 2 3) (drill 1.2) (layers *.Cu *.Mask))
  (pad 3 thru_hole oval (at 12.5 -5) (size 2 3) (drill 1.2) (layers *.Cu *.Mask))
  (pad 4 thru_hole oval (at 15 0) (size 2 3) (drill 1.2) (layers *.Cu *.Mask))
  (pad 4 thru_hole oval (at 17.5 -5) (size 2 3) (drill 1.2) (layers *.Cu *.Mask))
  (fp_text user %R (at 8 -1.8) (layer F.Fab)
    (effects (font (size 1 1) (thickness 0.15)))
  )
  (model ${KICAD6_3DMODEL_DIR}/TerminalBlock_WAGO.3dshapes/TerminalBlock_WAGO_804-104_1x04_P5.00mm_45Degree.wrl
    (at (xyz 0 0 0))
    (scale (xyz 1 1 1))
    (rotate (xyz 0 0 0))
  )
)