(module TerminalBlock_WAGO_236-612_1x12_P10.00mm_45Degree (layer F.Cu) (tedit 5F817317)
  (descr "Terminal Block WAGO 236-612, 45Degree (cable under 45degree), 12 pins, pitch 10mm, size 122x14mm^2, drill diamater 1.15mm, pad diameter 3mm, see , script-generated with , script-generated using https://github.com/pointhi/kicad-footprint-generator/scripts/TerminalBlock_WAGO")
  (tags "THT Terminal Block WAGO 236-612 45Degree pitch 10mm size 122x14mm^2 drill 1.15mm pad 3mm")
  (fp_text reference REF** (at 57.65 -6.12) (layer F.SilkS)
    (effects (font (size 1 1) (thickness 0.15)))
  )
  (fp_text value TerminalBlock_WAGO_236-612_1x12_P10.00mm_45Degree (at 57.65 10.12) (layer F.Fab)
    (effects (font (size 1 1) (thickness 0.15)))
  )
  (fp_line (start -3.5 -5) (end 118.8 -5) (layer F.Fab) (width 0.1))
  (fp_line (start 118.8 -5) (end 118.8 9) (layer F.Fab) (width 0.1))
  (fp_line (start 118.8 9) (end -2.5 9) (layer F.Fab) (width 0.1))
  (fp_line (start -2.5 9) (end -3.5 8) (layer F.Fab) (width 0.1))
  (fp_line (start -3.5 8) (end -3.5 -5) (layer F.Fab) (width 0.1))
  (fp_line (start -3.5 8) (end 118.8 8) (layer F.Fab) (width 0.1))
  (fp_line (start -3.62 8) (end 118.92 8) (layer F.SilkS) (width 0.12))
  (fp_line (start -3.5 2.3) (end 118.8 2.3) (layer F.Fab) (width 0.1))
  (fp_line (start -3.62 2.3) (end 118.92 2.3) (layer F.SilkS) (width 0.12))
  (fp_line (start -3.5 -0.5) (end 118.8 -0.5) (layer F.Fab) (width 0.1))
  (fp_line (start -3.62 -0.5) (end -1.23 -0.5) (layer F.SilkS) (width 0.12))
  (fp_line (start 1.23 -0.5) (end 8.77 -0.5) (layer F.SilkS) (width 0.12))
  (fp_line (start 11.23 -0.5) (end 18.77 -0.5) (layer F.SilkS) (width 0.12))
  (fp_line (start 21.23 -0.5) (end 28.77 -0.5) (layer F.SilkS) (width 0.12))
  (fp_line (start 31.23 -0.5) (end 38.77 -0.5) (layer F.SilkS) (width 0.12))
  (fp_line (start 41.23 -0.5) (end 48.77 -0.5) (layer F.SilkS) (width 0.12))
  (fp_line (start 51.23 -0.5) (end 58.77 -0.5) (layer F.SilkS) (width 0.12))
  (fp_line (start 61.23 -0.5) (end 68.77 -0.5) (layer F.SilkS) (width 0.12))
  (fp_line (start 71.23 -0.5) (end 78.77 -0.5) (layer F.SilkS) (width 0.12))
  (fp_line (start 81.23 -0.5) (end 88.77 -0.5) (layer F.SilkS) (width 0.12))
  (fp_line (start 91.23 -0.5) (end 98.77 -0.5) (layer F.SilkS) (width 0.12))
  (fp_line (start 101.23 -0.5) (end 108.77 -0.5) (layer F.SilkS) (width 0.12))
  (fp_line (start 111.23 -0.5) (end 118.92 -0.5) (layer F.SilkS) (width 0.12))
  (fp_line (start -3.62 -5.12) (end 118.92 -5.12) (layer F.SilkS) (width 0.12))
  (fp_line (start -3.62 9.12) (end 118.92 9.12) (layer F.SilkS) (width 0.12))
  (fp_line (start -3.62 -5.12) (end -3.62 9.12) (layer F.SilkS) (width 0.12))
  (fp_line (start 118.92 -5.12) (end 118.92 9.12) (layer F.SilkS) (width 0.12))
  (fp_line (start -1.5 4.4) (end -1.23 4.4) (layer F.SilkS) (width 0.12))
  (fp_line (start 1.23 4.4) (end 2.5 4.4) (layer F.SilkS) (width 0.12))
  (fp_line (start -1.5 7.7) (end 2.5 7.7) (layer F.SilkS) (width 0.12))
  (fp_line (start -1.5 4.4) (end -1.5 7.7) (layer F.SilkS) (width 0.12))
  (fp_line (start 2.5 4.4) (end 2.5 7.7) (layer F.SilkS) (width 0.12))
  (fp_line (start -1.5 4.4) (end -1.5 7.7) (layer F.Fab) (width 0.1))
  (fp_line (start -1.5 7.7) (end 2.5 7.7) (layer F.Fab) (width 0.1))
  (fp_line (start 2.5 7.7) (end 2.5 4.4) (layer F.Fab) (width 0.1))
  (fp_line (start 2.5 4.4) (end -1.5 4.4) (layer F.Fab) (width 0.1))
  (fp_line (start -2 -5) (end -2 9) (layer F.Fab) (width 0.1))
  (fp_line (start -2 9) (end 8 9) (layer F.Fab) (width 0.1))
  (fp_line (start 8 9) (end 8 -5) (layer F.Fab) (width 0.1))
  (fp_line (start 8 -5) (end -2 -5) (layer F.Fab) (width 0.1))
  (fp_line (start -2 -5) (end 8 -5) (layer F.SilkS) (width 0.12))
  (fp_line (start -2 9) (end 8 9) (layer F.SilkS) (width 0.12))
  (fp_line (start -2 -5) (end -2 9) (layer F.SilkS) (width 0.12))
  (fp_line (start 8 -5) (end 8 9) (layer F.SilkS) (width 0.12))
  (fp_line (start -1.5 2.7) (end -1.5 3.7) (layer F.Fab) (width 0.1))
  (fp_line (start -1.5 3.7) (end 2.5 3.7) (layer F.Fab) (width 0.1))
  (fp_line (start 2.5 3.7) (end 2.5 2.7) (layer F.Fab) (width 0.1))
  (fp_line (start 2.5 2.7) (end -1.5 2.7) (layer F.Fab) (width 0.1))
  (fp_line (start -1.5 2.7) (end 2.5 2.7) (layer F.SilkS) (width 0.12))
  (fp_line (start -1.5 3.7) (end -1.23 3.7) (layer F.SilkS) (width 0.12))
  (fp_line (start 1.23 3.7) (end 2.5 3.7) (layer F.SilkS) (width 0.12))
  (fp_line (start -1.5 2.7) (end -1.5 3.7) (layer F.SilkS) (width 0.12))
  (fp_line (start 2.5 2.7) (end 2.5 3.7) (layer F.SilkS) (width 0.12))
  (fp_line (start 0 -4.65) (end 0 -2.15) (layer F.Fab) (width 0.1))
  (fp_line (start 0 -2.15) (end 1 -2.15) (layer F.Fab) (width 0.1))
  (fp_line (start 1 -2.15) (end 1 -4.65) (layer F.Fab) (width 0.1))
  (fp_line (start 1 -4.65) (end 0 -4.65) (layer F.Fab) (width 0.1))
  (fp_line (start 0 -4.65) (end 1 -4.65) (layer F.SilkS) (width 0.12))
  (fp_line (start 0 -2.151) (end 1 -2.151) (layer F.SilkS) (width 0.12))
  (fp_line (start 0 -4.65) (end 0 -2.151) (layer F.SilkS) (width 0.12))
  (fp_line (start 1 -4.65) (end 1 -2.151) (layer F.SilkS) (width 0.12))
  (fp_line (start 8.5 4.4) (end 8.77 4.4) (layer F.SilkS) (width 0.12))
  (fp_line (start 11.23 4.4) (end 12.5 4.4) (layer F.SilkS) (width 0.12))
  (fp_line (start 8.5 7.7) (end 12.5 7.7) (layer F.SilkS) (width 0.12))
  (fp_line (start 8.5 4.4) (end 8.5 7.7) (layer F.SilkS) (width 0.12))
  (fp_line (start 12.5 4.4) (end 12.5 7.7) (layer F.SilkS) (width 0.12))
  (fp_line (start 8.5 4.4) (end 8.5 7.7) (layer F.Fab) (width 0.1))
  (fp_line (start 8.5 7.7) (end 12.5 7.7) (layer F.Fab) (width 0.1))
  (fp_line (start 12.5 7.7) (end 12.5 4.4) (layer F.Fab) (width 0.1))
  (fp_line (start 12.5 4.4) (end 8.5 4.4) (layer F.Fab) (width 0.1))
  (fp_line (start 8 -5) (end 8 9) (layer F.Fab) (width 0.1))
  (fp_line (start 8 9) (end 18 9) (layer F.Fab) (width 0.1))
  (fp_line (start 18 9) (end 18 -5) (layer F.Fab) (width 0.1))
  (fp_line (start 18 -5) (end 8 -5) (layer F.Fab) (width 0.1))
  (fp_line (start 8 -5) (end 18 -5) (layer F.SilkS) (width 0.12))
  (fp_line (start 8 9) (end 18 9) (layer F.SilkS) (width 0.12))
  (fp_line (start 8 -5) (end 8 9) (layer F.SilkS) (width 0.12))
  (fp_line (start 18 -5) (end 18 9) (layer F.SilkS) (width 0.12))
  (fp_line (start 8.5 2.7) (end 8.5 3.7) (layer F.Fab) (width 0.1))
  (fp_line (start 8.5 3.7) (end 12.5 3.7) (layer F.Fab) (width 0.1))
  (fp_line (start 12.5 3.7) (end 12.5 2.7) (layer F.Fab) (width 0.1))
  (fp_line (start 12.5 2.7) (end 8.5 2.7) (layer F.Fab) (width 0.1))
  (fp_line (start 8.5 2.7) (end 12.5 2.7) (layer F.SilkS) (width 0.12))
  (fp_line (start 8.5 3.7) (end 8.77 3.7) (layer F.SilkS) (width 0.12))
  (fp_line (start 11.23 3.7) (end 12.5 3.7) (layer F.SilkS) (width 0.12))
  (fp_line (start 8.5 2.7) (end 8.5 3.7) (layer F.SilkS) (width 0.12))
  (fp_line (start 12.5 2.7) (end 12.5 3.7) (layer F.SilkS) (width 0.12))
  (fp_line (start 10 -4.65) (end 10 -2.15) (layer F.Fab) (width 0.1))
  (fp_line (start 10 -2.15) (end 11 -2.15) (layer F.Fab) (width 0.1))
  (fp_line (start 11 -2.15) (end 11 -4.65) (layer F.Fab) (width 0.1))
  (fp_line (start 11 -4.65) (end 10 -4.65) (layer F.Fab) (width 0.1))
  (fp_line (start 10 -4.65) (end 11 -4.65) (layer F.SilkS) (width 0.12))
  (fp_line (start 10 -2.151) (end 11 -2.151) (layer F.SilkS) (width 0.12))
  (fp_line (start 10 -4.65) (end 10 -2.151) (layer F.SilkS) (width 0.12))
  (fp_line (start 11 -4.65) (end 11 -2.151) (layer F.SilkS) (width 0.12))
  (fp_line (start 18.5 4.4) (end 18.77 4.4) (layer F.SilkS) (width 0.12))
  (fp_line (start 21.23 4.4) (end 22.5 4.4) (layer F.SilkS) (width 0.12))
  (fp_line (start 18.5 7.7) (end 22.5 7.7) (layer F.SilkS) (width 0.12))
  (fp_line (start 18.5 4.4) (end 18.5 7.7) (layer F.SilkS) (width 0.12))
  (fp_line (start 22.5 4.4) (end 22.5 7.7) (layer F.SilkS) (width 0.12))
  (fp_line (start 18.5 4.4) (end 18.5 7.7) (layer F.Fab) (width 0.1))
  (fp_line (start 18.5 7.7) (end 22.5 7.7) (layer F.Fab) (width 0.1))
  (fp_line (start 22.5 7.7) (end 22.5 4.4) (layer F.Fab) (width 0.1))
  (fp_line (start 22.5 4.4) (end 18.5 4.4) (layer F.Fab) (width 0.1))
  (fp_line (start 18 -5) (end 18 9) (layer F.Fab) (width 0.1))
  (fp_line (start 18 9) (end 28 9) (layer F.Fab) (width 0.1))
  (fp_line (start 28 9) (end 28 -5) (layer F.Fab) (width 0.1))
  (fp_line (start 28 -5) (end 18 -5) (layer F.Fab) (width 0.1))
  (fp_line (start 18 -5) (end 28 -5) (layer F.SilkS) (width 0.12))
  (fp_line (start 18 9) (end 28 9) (layer F.SilkS) (width 0.12))
  (fp_line (start 18 -5) (end 18 9) (layer F.SilkS) (width 0.12))
  (fp_line (start 28 -5) (end 28 9) (layer F.SilkS) (width 0.12))
  (fp_line (start 18.5 2.7) (end 18.5 3.7) (layer F.Fab) (width 0.1))
  (fp_line (start 18.5 3.7) (end 22.5 3.7) (layer F.Fab) (width 0.1))
  (fp_line (start 22.5 3.7) (end 22.5 2.7) (layer F.Fab) (width 0.1))
  (fp_line (start 22.5 2.7) (end 18.5 2.7) (layer F.Fab) (width 0.1))
  (fp_line (start 18.5 2.7) (end 22.5 2.7) (layer F.SilkS) (width 0.12))
  (fp_line (start 18.5 3.7) (end 18.77 3.7) (layer F.SilkS) (width 0.12))
  (fp_line (start 21.23 3.7) (end 22.5 3.7) (layer F.SilkS) (width 0.12))
  (fp_line (start 18.5 2.7) (end 18.5 3.7) (layer F.SilkS) (width 0.12))
  (fp_line (start 22.5 2.7) (end 22.5 3.7) (layer F.SilkS) (width 0.12))
  (fp_line (start 20 -4.65) (end 20 -2.15) (layer F.Fab) (width 0.1))
  (fp_line (start 20 -2.15) (end 21 -2.15) (layer F.Fab) (width 0.1))
  (fp_line (start 21 -2.15) (end 21 -4.65) (layer F.Fab) (width 0.1))
  (fp_line (start 21 -4.65) (end 20 -4.65) (layer F.Fab) (width 0.1))
  (fp_line (start 20 -4.65) (end 21 -4.65) (layer F.SilkS) (width 0.12))
  (fp_line (start 20 -2.151) (end 21 -2.151) (layer F.SilkS) (width 0.12))
  (fp_line (start 20 -4.65) (end 20 -2.151) (layer F.SilkS) (width 0.12))
  (fp_line (start 21 -4.65) (end 21 -2.151) (layer F.SilkS) (width 0.12))
  (fp_line (start 28.5 4.4) (end 28.77 4.4) (layer F.SilkS) (width 0.12))
  (fp_line (start 31.23 4.4) (end 32.5 4.4) (layer F.SilkS) (width 0.12))
  (fp_line (start 28.5 7.7) (end 32.5 7.7) (layer F.SilkS) (width 0.12))
  (fp_line (start 28.5 4.4) (end 28.5 7.7) (layer F.SilkS) (width 0.12))
  (fp_line (start 32.5 4.4) (end 32.5 7.7) (layer F.SilkS) (width 0.12))
  (fp_line (start 28.5 4.4) (end 28.5 7.7) (layer F.Fab) (width 0.1))
  (fp_line (start 28.5 7.7) (end 32.5 7.7) (layer F.Fab) (width 0.1))
  (fp_line (start 32.5 7.7) (end 32.5 4.4) (layer F.Fab) (width 0.1))
  (fp_line (start 32.5 4.4) (end 28.5 4.4) (layer F.Fab) (width 0.1))
  (fp_line (start 28 -5) (end 28 9) (layer F.Fab) (width 0.1))
  (fp_line (start 28 9) (end 38 9) (layer F.Fab) (width 0.1))
  (fp_line (start 38 9) (end 38 -5) (layer F.Fab) (width 0.1))
  (fp_line (start 38 -5) (end 28 -5) (layer F.Fab) (width 0.1))
  (fp_line (start 28 -5) (end 38 -5) (layer F.SilkS) (width 0.12))
  (fp_line (start 28 9) (end 38 9) (layer F.SilkS) (width 0.12))
  (fp_line (start 28 -5) (end 28 9) (layer F.SilkS) (width 0.12))
  (fp_line (start 38 -5) (end 38 9) (layer F.SilkS) (width 0.12))
  (fp_line (start 28.5 2.7) (end 28.5 3.7) (layer F.Fab) (width 0.1))
  (fp_line (start 28.5 3.7) (end 32.5 3.7) (layer F.Fab) (width 0.1))
  (fp_line (start 32.5 3.7) (end 32.5 2.7) (layer F.Fab) (width 0.1))
  (fp_line (start 32.5 2.7) (end 28.5 2.7) (layer F.Fab) (width 0.1))
  (fp_line (start 28.5 2.7) (end 32.5 2.7) (layer F.SilkS) (width 0.12))
  (fp_line (start 28.5 3.7) (end 28.77 3.7) (layer F.SilkS) (width 0.12))
  (fp_line (start 31.23 3.7) (end 32.5 3.7) (layer F.SilkS) (width 0.12))
  (fp_line (start 28.5 2.7) (end 28.5 3.7) (layer F.SilkS) (width 0.12))
  (fp_line (start 32.5 2.7) (end 32.5 3.7) (layer F.SilkS) (width 0.12))
  (fp_line (start 30 -4.65) (end 30 -2.15) (layer F.Fab) (width 0.1))
  (fp_line (start 30 -2.15) (end 31 -2.15) (layer F.Fab) (width 0.1))
  (fp_line (start 31 -2.15) (end 31 -4.65) (layer F.Fab) (width 0.1))
  (fp_line (start 31 -4.65) (end 30 -4.65) (layer F.Fab) (width 0.1))
  (fp_line (start 30 -4.65) (end 31 -4.65) (layer F.SilkS) (width 0.12))
  (fp_line (start 30 -2.151) (end 31 -2.151) (layer F.SilkS) (width 0.12))
  (fp_line (start 30 -4.65) (end 30 -2.151) (layer F.SilkS) (width 0.12))
  (fp_line (start 31 -4.65) (end 31 -2.151) (layer F.SilkS) (width 0.12))
  (fp_line (start 38.5 4.4) (end 38.77 4.4) (layer F.SilkS) (width 0.12))
  (fp_line (start 41.23 4.4) (end 42.5 4.4) (layer F.SilkS) (width 0.12))
  (fp_line (start 38.5 7.7) (end 42.5 7.7) (layer F.SilkS) (width 0.12))
  (fp_line (start 38.5 4.4) (end 38.5 7.7) (layer F.SilkS) (width 0.12))
  (fp_line (start 42.5 4.4) (end 42.5 7.7) (layer F.SilkS) (width 0.12))
  (fp_line (start 38.5 4.4) (end 38.5 7.7) (layer F.Fab) (width 0.1))
  (fp_line (start 38.5 7.7) (end 42.5 7.7) (layer F.Fab) (width 0.1))
  (fp_line (start 42.5 7.7) (end 42.5 4.4) (layer F.Fab) (width 0.1))
  (fp_line (start 42.5 4.4) (end 38.5 4.4) (layer F.Fab) (width 0.1))
  (fp_line (start 38 -5) (end 38 9) (layer F.Fab) (width 0.1))
  (fp_line (start 38 9) (end 48 9) (layer F.Fab) (width 0.1))
  (fp_line (start 48 9) (end 48 -5) (layer F.Fab) (width 0.1))
  (fp_line (start 48 -5) (end 38 -5) (layer F.Fab) (width 0.1))
  (fp_line (start 38 -5) (end 48 -5) (layer F.SilkS) (width 0.12))
  (fp_line (start 38 9) (end 48 9) (layer F.SilkS) (width 0.12))
  (fp_line (start 38 -5) (end 38 9) (layer F.SilkS) (width 0.12))
  (fp_line (start 48 -5) (end 48 9) (layer F.SilkS) (width 0.12))
  (fp_line (start 38.5 2.7) (end 38.5 3.7) (layer F.Fab) (width 0.1))
  (fp_line (start 38.5 3.7) (end 42.5 3.7) (layer F.Fab) (width 0.1))
  (fp_line (start 42.5 3.7) (end 42.5 2.7) (layer F.Fab) (width 0.1))
  (fp_line (start 42.5 2.7) (end 38.5 2.7) (layer F.Fab) (width 0.1))
  (fp_line (start 38.5 2.7) (end 42.5 2.7) (layer F.SilkS) (width 0.12))
  (fp_line (start 38.5 3.7) (end 38.77 3.7) (layer F.SilkS) (width 0.12))
  (fp_line (start 41.23 3.7) (end 42.5 3.7) (layer F.SilkS) (width 0.12))
  (fp_line (start 38.5 2.7) (end 38.5 3.7) (layer F.SilkS) (width 0.12))
  (fp_line (start 42.5 2.7) (end 42.5 3.7) (layer F.SilkS) (width 0.12))
  (fp_line (start 40 -4.65) (end 40 -2.15) (layer F.Fab) (width 0.1))
  (fp_line (start 40 -2.15) (end 41 -2.15) (layer F.Fab) (width 0.1))
  (fp_line (start 41 -2.15) (end 41 -4.65) (layer F.Fab) (width 0.1))
  (fp_line (start 41 -4.65) (end 40 -4.65) (layer F.Fab) (width 0.1))
  (fp_line (start 40 -4.65) (end 41 -4.65) (layer F.SilkS) (width 0.12))
  (fp_line (start 40 -2.151) (end 41 -2.151) (layer F.SilkS) (width 0.12))
  (fp_line (start 40 -4.65) (end 40 -2.151) (layer F.SilkS) (width 0.12))
  (fp_line (start 41 -4.65) (end 41 -2.151) (layer F.SilkS) (width 0.12))
  (fp_line (start 48.5 4.4) (end 48.77 4.4) (layer F.SilkS) (width 0.12))
  (fp_line (start 51.23 4.4) (end 52.5 4.4) (layer F.SilkS) (width 0.12))
  (fp_line (start 48.5 7.7) (end 52.5 7.7) (layer F.SilkS) (width 0.12))
  (fp_line (start 48.5 4.4) (end 48.5 7.7) (layer F.SilkS) (width 0.12))
  (fp_line (start 52.5 4.4) (end 52.5 7.7) (layer F.SilkS) (width 0.12))
  (fp_line (start 48.5 4.4) (end 48.5 7.7) (layer F.Fab) (width 0.1))
  (fp_line (start 48.5 7.7) (end 52.5 7.7) (layer F.Fab) (width 0.1))
  (fp_line (start 52.5 7.7) (end 52.5 4.4) (layer F.Fab) (width 0.1))
  (fp_line (start 52.5 4.4) (end 48.5 4.4) (layer F.Fab) (width 0.1))
  (fp_line (start 48 -5) (end 48 9) (layer F.Fab) (width 0.1))
  (fp_line (start 48 9) (end 58 9) (layer F.Fab) (width 0.1))
  (fp_line (start 58 9) (end 58 -5) (layer F.Fab) (width 0.1))
  (fp_line (start 58 -5) (end 48 -5) (layer F.Fab) (width 0.1))
  (fp_line (start 48 -5) (end 58 -5) (layer F.SilkS) (width 0.12))
  (fp_line (start 48 9) (end 58 9) (layer F.SilkS) (width 0.12))
  (fp_line (start 48 -5) (end 48 9) (layer F.SilkS) (width 0.12))
  (fp_line (start 58 -5) (end 58 9) (layer F.SilkS) (width 0.12))
  (fp_line (start 48.5 2.7) (end 48.5 3.7) (layer F.Fab) (width 0.1))
  (fp_line (start 48.5 3.7) (end 52.5 3.7) (layer F.Fab) (width 0.1))
  (fp_line (start 52.5 3.7) (end 52.5 2.7) (layer F.Fab) (width 0.1))
  (fp_line (start 52.5 2.7) (end 48.5 2.7) (layer F.Fab) (width 0.1))
  (fp_line (start 48.5 2.7) (end 52.5 2.7) (layer F.SilkS) (width 0.12))
  (fp_line (start 48.5 3.7) (end 48.77 3.7) (layer F.SilkS) (width 0.12))
  (fp_line (start 51.23 3.7) (end 52.5 3.7) (layer F.SilkS) (width 0.12))
  (fp_line (start 48.5 2.7) (end 48.5 3.7) (layer F.SilkS) (width 0.12))
  (fp_line (start 52.5 2.7) (end 52.5 3.7) (layer F.SilkS) (width 0.12))
  (fp_line (start 50 -4.65) (end 50 -2.15) (layer F.Fab) (width 0.1))
  (fp_line (start 50 -2.15) (end 51 -2.15) (layer F.Fab) (width 0.1))
  (fp_line (start 51 -2.15) (end 51 -4.65) (layer F.Fab) (width 0.1))
  (fp_line (start 51 -4.65) (end 50 -4.65) (layer F.Fab) (width 0.1))
  (fp_line (start 50 -4.65) (end 51 -4.65) (layer F.SilkS) (width 0.12))
  (fp_line (start 50 -2.151) (end 51 -2.151) (layer F.SilkS) (width 0.12))
  (fp_line (start 50 -4.65) (end 50 -2.151) (layer F.SilkS) (width 0.12))
  (fp_line (start 51 -4.65) (end 51 -2.151) (layer F.SilkS) (width 0.12))
  (fp_line (start 58.5 4.4) (end 58.77 4.4) (layer F.SilkS) (width 0.12))
  (fp_line (start 61.23 4.4) (end 62.5 4.4) (layer F.SilkS) (width 0.12))
  (fp_line (start 58.5 7.7) (end 62.5 7.7) (layer F.SilkS) (width 0.12))
  (fp_line (start 58.5 4.4) (end 58.5 7.7) (layer F.SilkS) (width 0.12))
  (fp_line (start 62.5 4.4) (end 62.5 7.7) (layer F.SilkS) (width 0.12))
  (fp_line (start 58.5 4.4) (end 58.5 7.7) (layer F.Fab) (width 0.1))
  (fp_line (start 58.5 7.7) (end 62.5 7.7) (layer F.Fab) (width 0.1))
  (fp_line (start 62.5 7.7) (end 62.5 4.4) (layer F.Fab) (width 0.1))
  (fp_line (start 62.5 4.4) (end 58.5 4.4) (layer F.Fab) (width 0.1))
  (fp_line (start 58 -5) (end 58 9) (layer F.Fab) (width 0.1))
  (fp_line (start 58 9) (end 68 9) (layer F.Fab) (width 0.1))
  (fp_line (start 68 9) (end 68 -5) (layer F.Fab) (width 0.1))
  (fp_line (start 68 -5) (end 58 -5) (layer F.Fab) (width 0.1))
  (fp_line (start 58 -5) (end 68 -5) (layer F.SilkS) (width 0.12))
  (fp_line (start 58 9) (end 68 9) (layer F.SilkS) (width 0.12))
  (fp_line (start 58 -5) (end 58 9) (layer F.SilkS) (width 0.12))
  (fp_line (start 68 -5) (end 68 9) (layer F.SilkS) (width 0.12))
  (fp_line (start 58.5 2.7) (end 58.5 3.7) (layer F.Fab) (width 0.1))
  (fp_line (start 58.5 3.7) (end 62.5 3.7) (layer F.Fab) (width 0.1))
  (fp_line (start 62.5 3.7) (end 62.5 2.7) (layer F.Fab) (width 0.1))
  (fp_line (start 62.5 2.7) (end 58.5 2.7) (layer F.Fab) (width 0.1))
  (fp_line (start 58.5 2.7) (end 62.5 2.7) (layer F.SilkS) (width 0.12))
  (fp_line (start 58.5 3.7) (end 58.77 3.7) (layer F.SilkS) (width 0.12))
  (fp_line (start 61.23 3.7) (end 62.5 3.7) (layer F.SilkS) (width 0.12))
  (fp_line (start 58.5 2.7) (end 58.5 3.7) (layer F.SilkS) (width 0.12))
  (fp_line (start 62.5 2.7) (end 62.5 3.7) (layer F.SilkS) (width 0.12))
  (fp_line (start 60 -4.65) (end 60 -2.15) (layer F.Fab) (width 0.1))
  (fp_line (start 60 -2.15) (end 61 -2.15) (layer F.Fab) (width 0.1))
  (fp_line (start 61 -2.15) (end 61 -4.65) (layer F.Fab) (width 0.1))
  (fp_line (start 61 -4.65) (end 60 -4.65) (layer F.Fab) (width 0.1))
  (fp_line (start 60 -4.65) (end 61 -4.65) (layer F.SilkS) (width 0.12))
  (fp_line (start 60 -2.151) (end 61 -2.151) (layer F.SilkS) (width 0.12))
  (fp_line (start 60 -4.65) (end 60 -2.151) (layer F.SilkS) (width 0.12))
  (fp_line (start 61 -4.65) (end 61 -2.151) (layer F.SilkS) (width 0.12))
  (fp_line (start 68.5 4.4) (end 68.77 4.4) (layer F.SilkS) (width 0.12))
  (fp_line (start 71.23 4.4) (end 72.5 4.4) (layer F.SilkS) (width 0.12))
  (fp_line (start 68.5 7.7) (end 72.5 7.7) (layer F.SilkS) (width 0.12))
  (fp_line (start 68.5 4.4) (end 68.5 7.7) (layer F.SilkS) (width 0.12))
  (fp_line (start 72.5 4.4) (end 72.5 7.7) (layer F.SilkS) (width 0.12))
  (fp_line (start 68.5 4.4) (end 68.5 7.7) (layer F.Fab) (width 0.1))
  (fp_line (start 68.5 7.7) (end 72.5 7.7) (layer F.Fab) (width 0.1))
  (fp_line (start 72.5 7.7) (end 72.5 4.4) (layer F.Fab) (width 0.1))
  (fp_line (start 72.5 4.4) (end 68.5 4.4) (layer F.Fab) (width 0.1))
  (fp_line (start 68 -5) (end 68 9) (layer F.Fab) (width 0.1))
  (fp_line (start 68 9) (end 78 9) (layer F.Fab) (width 0.1))
  (fp_line (start 78 9) (end 78 -5) (layer F.Fab) (width 0.1))
  (fp_line (start 78 -5) (end 68 -5) (layer F.Fab) (width 0.1))
  (fp_line (start 68 -5) (end 78 -5) (layer F.SilkS) (width 0.12))
  (fp_line (start 68 9) (end 78 9) (layer F.SilkS) (width 0.12))
  (fp_line (start 68 -5) (end 68 9) (layer F.SilkS) (width 0.12))
  (fp_line (start 78 -5) (end 78 9) (layer F.SilkS) (width 0.12))
  (fp_line (start 68.5 2.7) (end 68.5 3.7) (layer F.Fab) (width 0.1))
  (fp_line (start 68.5 3.7) (end 72.5 3.7) (layer F.Fab) (width 0.1))
  (fp_line (start 72.5 3.7) (end 72.5 2.7) (layer F.Fab) (width 0.1))
  (fp_line (start 72.5 2.7) (end 68.5 2.7) (layer F.Fab) (width 0.1))
  (fp_line (start 68.5 2.7) (end 72.5 2.7) (layer F.SilkS) (width 0.12))
  (fp_line (start 68.5 3.7) (end 68.77 3.7) (layer F.SilkS) (width 0.12))
  (fp_line (start 71.23 3.7) (end 72.5 3.7) (layer F.SilkS) (width 0.12))
  (fp_line (start 68.5 2.7) (end 68.5 3.7) (layer F.SilkS) (width 0.12))
  (fp_line (start 72.5 2.7) (end 72.5 3.7) (layer F.SilkS) (width 0.12))
  (fp_line (start 70 -4.65) (end 70 -2.15) (layer F.Fab) (width 0.1))
  (fp_line (start 70 -2.15) (end 71 -2.15) (layer F.Fab) (width 0.1))
  (fp_line (start 71 -2.15) (end 71 -4.65) (layer F.Fab) (width 0.1))
  (fp_line (start 71 -4.65) (end 70 -4.65) (layer F.Fab) (width 0.1))
  (fp_line (start 70 -4.65) (end 71 -4.65) (layer F.SilkS) (width 0.12))
  (fp_line (start 70 -2.151) (end 71 -2.151) (layer F.SilkS) (width 0.12))
  (fp_line (start 70 -4.65) (end 70 -2.151) (layer F.SilkS) (width 0.12))
  (fp_line (start 71 -4.65) (end 71 -2.151) (layer F.SilkS) (width 0.12))
  (fp_line (start 78.5 4.4) (end 78.77 4.4) (layer F.SilkS) (width 0.12))
  (fp_line (start 81.23 4.4) (end 82.5 4.4) (layer F.SilkS) (width 0.12))
  (fp_line (start 78.5 7.7) (end 82.5 7.7) (layer F.SilkS) (width 0.12))
  (fp_line (start 78.5 4.4) (end 78.5 7.7) (layer F.SilkS) (width 0.12))
  (fp_line (start 82.5 4.4) (end 82.5 7.7) (layer F.SilkS) (width 0.12))
  (fp_line (start 78.5 4.4) (end 78.5 7.7) (layer F.Fab) (width 0.1))
  (fp_line (start 78.5 7.7) (end 82.5 7.7) (layer F.Fab) (width 0.1))
  (fp_line (start 82.5 7.7) (end 82.5 4.4) (layer F.Fab) (width 0.1))
  (fp_line (start 82.5 4.4) (end 78.5 4.4) (layer F.Fab) (width 0.1))
  (fp_line (start 78 -5) (end 78 9) (layer F.Fab) (width 0.1))
  (fp_line (start 78 9) (end 88 9) (layer F.Fab) (width 0.1))
  (fp_line (start 88 9) (end 88 -5) (layer F.Fab) (width 0.1))
  (fp_line (start 88 -5) (end 78 -5) (layer F.Fab) (width 0.1))
  (fp_line (start 78 -5) (end 88 -5) (layer F.SilkS) (width 0.12))
  (fp_line (start 78 9) (end 88 9) (layer F.SilkS) (width 0.12))
  (fp_line (start 78 -5) (end 78 9) (layer F.SilkS) (width 0.12))
  (fp_line (start 88 -5) (end 88 9) (layer F.SilkS) (width 0.12))
  (fp_line (start 78.5 2.7) (end 78.5 3.7) (layer F.Fab) (width 0.1))
  (fp_line (start 78.5 3.7) (end 82.5 3.7) (layer F.Fab) (width 0.1))
  (fp_line (start 82.5 3.7) (end 82.5 2.7) (layer F.Fab) (width 0.1))
  (fp_line (start 82.5 2.7) (end 78.5 2.7) (layer F.Fab) (width 0.1))
  (fp_line (start 78.5 2.7) (end 82.5 2.7) (layer F.SilkS) (width 0.12))
  (fp_line (start 78.5 3.7) (end 78.77 3.7) (layer F.SilkS) (width 0.12))
  (fp_line (start 81.23 3.7) (end 82.5 3.7) (layer F.SilkS) (width 0.12))
  (fp_line (start 78.5 2.7) (end 78.5 3.7) (layer F.SilkS) (width 0.12))
  (fp_line (start 82.5 2.7) (end 82.5 3.7) (layer F.SilkS) (width 0.12))
  (fp_line (start 80 -4.65) (end 80 -2.15) (layer F.Fab) (width 0.1))
  (fp_line (start 80 -2.15) (end 81 -2.15) (layer F.Fab) (width 0.1))
  (fp_line (start 81 -2.15) (end 81 -4.65) (layer F.Fab) (width 0.1))
  (fp_line (start 81 -4.65) (end 80 -4.65) (layer F.Fab) (width 0.1))
  (fp_line (start 80 -4.65) (end 81 -4.65) (layer F.SilkS) (width 0.12))
  (fp_line (start 80 -2.151) (end 81 -2.151) (layer F.SilkS) (width 0.12))
  (fp_line (start 80 -4.65) (end 80 -2.151) (layer F.SilkS) (width 0.12))
  (fp_line (start 81 -4.65) (end 81 -2.151) (layer F.SilkS) (width 0.12))
  (fp_line (start 88.5 4.4) (end 88.77 4.4) (layer F.SilkS) (width 0.12))
  (fp_line (start 91.23 4.4) (end 92.5 4.4) (layer F.SilkS) (width 0.12))
  (fp_line (start 88.5 7.7) (end 92.5 7.7) (layer F.SilkS) (width 0.12))
  (fp_line (start 88.5 4.4) (end 88.5 7.7) (layer F.SilkS) (width 0.12))
  (fp_line (start 92.5 4.4) (end 92.5 7.7) (layer F.SilkS) (width 0.12))
  (fp_line (start 88.5 4.4) (end 88.5 7.7) (layer F.Fab) (width 0.1))
  (fp_line (start 88.5 7.7) (end 92.5 7.7) (layer F.Fab) (width 0.1))
  (fp_line (start 92.5 7.7) (end 92.5 4.4) (layer F.Fab) (width 0.1))
  (fp_line (start 92.5 4.4) (end 88.5 4.4) (layer F.Fab) (width 0.1))
  (fp_line (start 88 -5) (end 88 9) (layer F.Fab) (width 0.1))
  (fp_line (start 88 9) (end 98 9) (layer F.Fab) (width 0.1))
  (fp_line (start 98 9) (end 98 -5) (layer F.Fab) (width 0.1))
  (fp_line (start 98 -5) (end 88 -5) (layer F.Fab) (width 0.1))
  (fp_line (start 88 -5) (end 98 -5) (layer F.SilkS) (width 0.12))
  (fp_line (start 88 9) (end 98 9) (layer F.SilkS) (width 0.12))
  (fp_line (start 88 -5) (end 88 9) (layer F.SilkS) (width 0.12))
  (fp_line (start 98 -5) (end 98 9) (layer F.SilkS) (width 0.12))
  (fp_line (start 88.5 2.7) (end 88.5 3.7) (layer F.Fab) (width 0.1))
  (fp_line (start 88.5 3.7) (end 92.5 3.7) (layer F.Fab) (width 0.1))
  (fp_line (start 92.5 3.7) (end 92.5 2.7) (layer F.Fab) (width 0.1))
  (fp_line (start 92.5 2.7) (end 88.5 2.7) (layer F.Fab) (width 0.1))
  (fp_line (start 88.5 2.7) (end 92.5 2.7) (layer F.SilkS) (width 0.12))
  (fp_line (start 88.5 3.7) (end 88.77 3.7) (layer F.SilkS) (width 0.12))
  (fp_line (start 91.23 3.7) (end 92.5 3.7) (layer F.SilkS) (width 0.12))
  (fp_line (start 88.5 2.7) (end 88.5 3.7) (layer F.SilkS) (width 0.12))
  (fp_line (start 92.5 2.7) (end 92.5 3.7) (layer F.SilkS) (width 0.12))
  (fp_line (start 90 -4.65) (end 90 -2.15) (layer F.Fab) (width 0.1))
  (fp_line (start 90 -2.15) (end 91 -2.15) (layer F.Fab) (width 0.1))
  (fp_line (start 91 -2.15) (end 91 -4.65) (layer F.Fab) (width 0.1))
  (fp_line (start 91 -4.65) (end 90 -4.65) (layer F.Fab) (width 0.1))
  (fp_line (start 90 -4.65) (end 91 -4.65) (layer F.SilkS) (width 0.12))
  (fp_line (start 90 -2.151) (end 91 -2.151) (layer F.SilkS) (width 0.12))
  (fp_line (start 90 -4.65) (end 90 -2.151) (layer F.SilkS) (width 0.12))
  (fp_line (start 91 -4.65) (end 91 -2.151) (layer F.SilkS) (width 0.12))
  (fp_line (start 98.5 4.4) (end 98.77 4.4) (layer F.SilkS) (width 0.12))
  (fp_line (start 101.23 4.4) (end 102.5 4.4) (layer F.SilkS) (width 0.12))
  (fp_line (start 98.5 7.7) (end 102.5 7.7) (layer F.SilkS) (width 0.12))
  (fp_line (start 98.5 4.4) (end 98.5 7.7) (layer F.SilkS) (width 0.12))
  (fp_line (start 102.5 4.4) (end 102.5 7.7) (layer F.SilkS) (width 0.12))
  (fp_line (start 98.5 4.4) (end 98.5 7.7) (layer F.Fab) (width 0.1))
  (fp_line (start 98.5 7.7) (end 102.5 7.7) (layer F.Fab) (width 0.1))
  (fp_line (start 102.5 7.7) (end 102.5 4.4) (layer F.Fab) (width 0.1))
  (fp_line (start 102.5 4.4) (end 98.5 4.4) (layer F.Fab) (width 0.1))
  (fp_line (start 98 -5) (end 98 9) (layer F.Fab) (width 0.1))
  (fp_line (start 98 9) (end 108 9) (layer F.Fab) (width 0.1))
  (fp_line (start 108 9) (end 108 -5) (layer F.Fab) (width 0.1))
  (fp_line (start 108 -5) (end 98 -5) (layer F.Fab) (width 0.1))
  (fp_line (start 98 -5) (end 108 -5) (layer F.SilkS) (width 0.12))
  (fp_line (start 98 9) (end 108 9) (layer F.SilkS) (width 0.12))
  (fp_line (start 98 -5) (end 98 9) (layer F.SilkS) (width 0.12))
  (fp_line (start 108 -5) (end 108 9) (layer F.SilkS) (width 0.12))
  (fp_line (start 98.5 2.7) (end 98.5 3.7) (layer F.Fab) (width 0.1))
  (fp_line (start 98.5 3.7) (end 102.5 3.7) (layer F.Fab) (width 0.1))
  (fp_line (start 102.5 3.7) (end 102.5 2.7) (layer F.Fab) (width 0.1))
  (fp_line (start 102.5 2.7) (end 98.5 2.7) (layer F.Fab) (width 0.1))
  (fp_line (start 98.5 2.7) (end 102.5 2.7) (layer F.SilkS) (width 0.12))
  (fp_line (start 98.5 3.7) (end 98.77 3.7) (layer F.SilkS) (width 0.12))
  (fp_line (start 101.23 3.7) (end 102.5 3.7) (layer F.SilkS) (width 0.12))
  (fp_line (start 98.5 2.7) (end 98.5 3.7) (layer F.SilkS) (width 0.12))
  (fp_line (start 102.5 2.7) (end 102.5 3.7) (layer F.SilkS) (width 0.12))
  (fp_line (start 100 -4.65) (end 100 -2.15) (layer F.Fab) (width 0.1))
  (fp_line (start 100 -2.15) (end 101 -2.15) (layer F.Fab) (width 0.1))
  (fp_line (start 101 -2.15) (end 101 -4.65) (layer F.Fab) (width 0.1))
  (fp_line (start 101 -4.65) (end 100 -4.65) (layer F.Fab) (width 0.1))
  (fp_line (start 100 -4.65) (end 101 -4.65) (layer F.SilkS) (width 0.12))
  (fp_line (start 100 -2.151) (end 101 -2.151) (layer F.SilkS) (width 0.12))
  (fp_line (start 100 -4.65) (end 100 -2.151) (layer F.SilkS) (width 0.12))
  (fp_line (start 101 -4.65) (end 101 -2.151) (layer F.SilkS) (width 0.12))
  (fp_line (start 108.5 4.4) (end 108.77 4.4) (layer F.SilkS) (width 0.12))
  (fp_line (start 111.23 4.4) (end 112.5 4.4) (layer F.SilkS) (width 0.12))
  (fp_line (start 108.5 7.7) (end 112.5 7.7) (layer F.SilkS) (width 0.12))
  (fp_line (start 108.5 4.4) (end 108.5 7.7) (layer F.SilkS) (width 0.12))
  (fp_line (start 112.5 4.4) (end 112.5 7.7) (layer F.SilkS) (width 0.12))
  (fp_line (start 108.5 4.4) (end 108.5 7.7) (layer F.Fab) (width 0.1))
  (fp_line (start 108.5 7.7) (end 112.5 7.7) (layer F.Fab) (width 0.1))
  (fp_line (start 112.5 7.7) (end 112.5 4.4) (layer F.Fab) (width 0.1))
  (fp_line (start 112.5 4.4) (end 108.5 4.4) (layer F.Fab) (width 0.1))
  (fp_line (start 108 -5) (end 108 9) (layer F.Fab) (width 0.1))
  (fp_line (start 108 9) (end 118 9) (layer F.Fab) (width 0.1))
  (fp_line (start 118 9) (end 118 -5) (layer F.Fab) (width 0.1))
  (fp_line (start 118 -5) (end 108 -5) (layer F.Fab) (width 0.1))
  (fp_line (start 108 -5) (end 118 -5) (layer F.SilkS) (width 0.12))
  (fp_line (start 108 9) (end 118 9) (layer F.SilkS) (width 0.12))
  (fp_line (start 108 -5) (end 108 9) (layer F.SilkS) (width 0.12))
  (fp_line (start 118 -5) (end 118 9) (layer F.SilkS) (width 0.12))
  (fp_line (start 108.5 2.7) (end 108.5 3.7) (layer F.Fab) (width 0.1))
  (fp_line (start 108.5 3.7) (end 112.5 3.7) (layer F.Fab) (width 0.1))
  (fp_line (start 112.5 3.7) (end 112.5 2.7) (layer F.Fab) (width 0.1))
  (fp_line (start 112.5 2.7) (end 108.5 2.7) (layer F.Fab) (width 0.1))
  (fp_line (start 108.5 2.7) (end 112.5 2.7) (layer F.SilkS) (width 0.12))
  (fp_line (start 108.5 3.7) (end 108.77 3.7) (layer F.SilkS) (width 0.12))
  (fp_line (start 111.23 3.7) (end 112.5 3.7) (layer F.SilkS) (width 0.12))
  (fp_line (start 108.5 2.7) (end 108.5 3.7) (layer F.SilkS) (width 0.12))
  (fp_line (start 112.5 2.7) (end 112.5 3.7) (layer F.SilkS) (width 0.12))
  (fp_line (start 110 -4.65) (end 110 -2.15) (layer F.Fab) (width 0.1))
  (fp_line (start 110 -2.15) (end 111 -2.15) (layer F.Fab) (width 0.1))
  (fp_line (start 111 -2.15) (end 111 -4.65) (layer F.Fab) (width 0.1))
  (fp_line (start 111 -4.65) (end 110 -4.65) (layer F.Fab) (width 0.1))
  (fp_line (start 110 -4.65) (end 111 -4.65) (layer F.SilkS) (width 0.12))
  (fp_line (start 110 -2.151) (end 111 -2.151) (layer F.SilkS) (width 0.12))
  (fp_line (start 110 -4.65) (end 110 -2.151) (layer F.SilkS) (width 0.12))
  (fp_line (start 111 -4.65) (end 111 -2.151) (layer F.SilkS) (width 0.12))
  (fp_line (start -3.86 8.12) (end -3.86 9.36) (layer F.SilkS) (width 0.12))
  (fp_line (start -3.86 9.36) (end -2.86 9.36) (layer F.SilkS) (width 0.12))
  (fp_line (start -4 -5.5) (end -4 9.5) (layer F.CrtYd) (width 0.05))
  (fp_line (start -4 9.5) (end 119.3 9.5) (layer F.CrtYd) (width 0.05))
  (fp_line (start 119.3 9.5) (end 119.3 -5.5) (layer F.CrtYd) (width 0.05))
  (fp_line (start 119.3 -5.5) (end -4 -5.5) (layer F.CrtYd) (width 0.05))
  (pad 1 thru_hole rect (at 0 0) (size 1.5 3) (drill 1.15) (layers *.Cu *.Mask))
  (pad 1 thru_hole rect (at 0 5) (size 1.5 3) (drill 1.15) (layers *.Cu *.Mask))
  (pad 2 thru_hole oval (at 10 0) (size 1.5 3) (drill 1.15) (layers *.Cu *.Mask))
  (pad 2 thru_hole oval (at 10 5) (size 1.5 3) (drill 1.15) (layers *.Cu *.Mask))
  (pad 3 thru_hole oval (at 20 0) (size 1.5 3) (drill 1.15) (layers *.Cu *.Mask))
  (pad 3 thru_hole oval (at 20 5) (size 1.5 3) (drill 1.15) (layers *.Cu *.Mask))
  (pad 4 thru_hole oval (at 30 0) (size 1.5 3) (drill 1.15) (layers *.Cu *.Mask))
  (pad 4 thru_hole oval (at 30 5) (size 1.5 3) (drill 1.15) (layers *.Cu *.Mask))
  (pad 5 thru_hole oval (at 40 0) (size 1.5 3) (drill 1.15) (layers *.Cu *.Mask))
  (pad 5 thru_hole oval (at 40 5) (size 1.5 3) (drill 1.15) (layers *.Cu *.Mask))
  (pad 6 thru_hole oval (at 50 0) (size 1.5 3) (drill 1.15) (layers *.Cu *.Mask))
  (pad 6 thru_hole oval (at 50 5) (size 1.5 3) (drill 1.15) (layers *.Cu *.Mask))
  (pad 7 thru_hole oval (at 60 0) (size 1.5 3) (drill 1.15) (layers *.Cu *.Mask))
  (pad 7 thru_hole oval (at 60 5) (size 1.5 3) (drill 1.15) (layers *.Cu *.Mask))
  (pad 8 thru_hole oval (at 70 0) (size 1.5 3) (drill 1.15) (layers *.Cu *.Mask))
  (pad 8 thru_hole oval (at 70 5) (size 1.5 3) (drill 1.15) (layers *.Cu *.Mask))
  (pad 9 thru_hole oval (at 80 0) (size 1.5 3) (drill 1.15) (layers *.Cu *.Mask))
  (pad 9 thru_hole oval (at 80 5) (size 1.5 3) (drill 1.15) (layers *.Cu *.Mask))
  (pad 10 thru_hole oval (at 90 0) (size 1.5 3) (drill 1.15) (layers *.Cu *.Mask))
  (pad 10 thru_hole oval (at 90 5) (size 1.5 3) (drill 1.15) (layers *.Cu *.Mask))
  (pad 11 thru_hole oval (at 100 0) (size 1.5 3) (drill 1.15) (layers *.Cu *.Mask))
  (pad 11 thru_hole oval (at 100 5) (size 1.5 3) (drill 1.15) (layers *.Cu *.Mask))
  (pad 12 thru_hole oval (at 110 0) (size 1.5 3) (drill 1.15) (layers *.Cu *.Mask))
  (pad 12 thru_hole oval (at 110 5) (size 1.5 3) (drill 1.15) (layers *.Cu *.Mask))
  (fp_text user %R (at 57.65 1) (layer F.Fab)
    (effects (font (size 1 1) (thickness 0.15)))
  )
  (model ${KICAD6_3DMODEL_DIR}/TerminalBlock_WAGO.3dshapes/TerminalBlock_WAGO_236-612_1x12_P10.00mm_45Degree.wrl
    (at (xyz 0 0 0))
    (scale (xyz 1 1 1))
    (rotate (xyz 0 0 0))
  )
)