(module TerminalBlock_WAGO_236-208_1x08_P7.50mm_45Degree (layer F.Cu) (tedit 5F817314)
  (descr "Terminal Block WAGO 236-208, 45Degree (cable under 45degree), 8 pins, pitch 7.5mm, size 62.3x14mm^2, drill diamater 1.15mm, pad diameter 3mm, see , script-generated with , script-generated using https://github.com/pointhi/kicad-footprint-generator/scripts/TerminalBlock_WAGO")
  (tags "THT Terminal Block WAGO 236-208 45Degree pitch 7.5mm size 62.3x14mm^2 drill 1.15mm pad 3mm")
  (fp_text reference REF** (at 27.65 -6.12) (layer F.SilkS)
    (effects (font (size 1 1) (thickness 0.15)))
  )
  (fp_text value TerminalBlock_WAGO_236-208_1x08_P7.50mm_45Degree (at 27.65 10.12) (layer F.Fab)
    (effects (font (size 1 1) (thickness 0.15)))
  )
  (fp_line (start -3.5 -5) (end 58.8 -5) (layer F.Fab) (width 0.1))
  (fp_line (start 58.8 -5) (end 58.8 9) (layer F.Fab) (width 0.1))
  (fp_line (start 58.8 9) (end -2.5 9) (layer F.Fab) (width 0.1))
  (fp_line (start -2.5 9) (end -3.5 8) (layer F.Fab) (width 0.1))
  (fp_line (start -3.5 8) (end -3.5 -5) (layer F.Fab) (width 0.1))
  (fp_line (start -3.5 8) (end 58.8 8) (layer F.Fab) (width 0.1))
  (fp_line (start -3.62 8) (end 58.92 8) (layer F.SilkS) (width 0.12))
  (fp_line (start -3.5 2.3) (end 58.8 2.3) (layer F.Fab) (width 0.1))
  (fp_line (start -3.62 2.3) (end 58.92 2.3) (layer F.SilkS) (width 0.12))
  (fp_line (start -3.5 -0.5) (end 58.8 -0.5) (layer F.Fab) (width 0.1))
  (fp_line (start -3.62 -0.5) (end -1.23 -0.5) (layer F.SilkS) (width 0.12))
  (fp_line (start 1.23 -0.5) (end 6.27 -0.5) (layer F.SilkS) (width 0.12))
  (fp_line (start 8.73 -0.5) (end 13.77 -0.5) (layer F.SilkS) (width 0.12))
  (fp_line (start 16.23 -0.5) (end 21.27 -0.5) (layer F.SilkS) (width 0.12))
  (fp_line (start 23.73 -0.5) (end 28.77 -0.5) (layer F.SilkS) (width 0.12))
  (fp_line (start 31.23 -0.5) (end 36.27 -0.5) (layer F.SilkS) (width 0.12))
  (fp_line (start 38.73 -0.5) (end 43.77 -0.5) (layer F.SilkS) (width 0.12))
  (fp_line (start 46.23 -0.5) (end 51.27 -0.5) (layer F.SilkS) (width 0.12))
  (fp_line (start 53.73 -0.5) (end 58.92 -0.5) (layer F.SilkS) (width 0.12))
  (fp_line (start -3.62 -5.12) (end 58.92 -5.12) (layer F.SilkS) (width 0.12))
  (fp_line (start -3.62 9.12) (end 58.92 9.12) (layer F.SilkS) (width 0.12))
  (fp_line (start -3.62 -5.12) (end -3.62 9.12) (layer F.SilkS) (width 0.12))
  (fp_line (start 58.92 -5.12) (end 58.92 9.12) (layer F.SilkS) (width 0.12))
  (fp_line (start -1.5 4.4) (end 2.5 4.4) (layer F.SilkS) (width 0.12))
  (fp_line (start -1.5 7.7) (end 2.5 7.7) (layer F.SilkS) (width 0.12))
  (fp_line (start -1.5 4.4) (end -1.5 7.7) (layer F.SilkS) (width 0.12))
  (fp_line (start 2.5 4.4) (end 2.5 7.7) (layer F.SilkS) (width 0.12))
  (fp_line (start -1.5 4.4) (end -1.5 7.7) (layer F.Fab) (width 0.1))
  (fp_line (start -1.5 7.7) (end 2.5 7.7) (layer F.Fab) (width 0.1))
  (fp_line (start 2.5 7.7) (end 2.5 4.4) (layer F.Fab) (width 0.1))
  (fp_line (start 2.5 4.4) (end -1.5 4.4) (layer F.Fab) (width 0.1))
  (fp_line (start -2 -5) (end -2 9) (layer F.Fab) (width 0.1))
  (fp_line (start -2 9) (end 5.5 9) (layer F.Fab) (width 0.1))
  (fp_line (start 5.5 9) (end 5.5 -5) (layer F.Fab) (width 0.1))
  (fp_line (start 5.5 -5) (end -2 -5) (layer F.Fab) (width 0.1))
  (fp_line (start -2 -5) (end 5.5 -5) (layer F.SilkS) (width 0.12))
  (fp_line (start -2 9) (end 5.5 9) (layer F.SilkS) (width 0.12))
  (fp_line (start -2 -5) (end -2 9) (layer F.SilkS) (width 0.12))
  (fp_line (start 5.5 -5) (end 5.5 9) (layer F.SilkS) (width 0.12))
  (fp_line (start -1.5 2.7) (end -1.5 3.7) (layer F.Fab) (width 0.1))
  (fp_line (start -1.5 3.7) (end 2.5 3.7) (layer F.Fab) (width 0.1))
  (fp_line (start 2.5 3.7) (end 2.5 2.7) (layer F.Fab) (width 0.1))
  (fp_line (start 2.5 2.7) (end -1.5 2.7) (layer F.Fab) (width 0.1))
  (fp_line (start -1.5 2.7) (end 2.5 2.7) (layer F.SilkS) (width 0.12))
  (fp_line (start -1.5 3.7) (end 2.5 3.7) (layer F.SilkS) (width 0.12))
  (fp_line (start -1.5 2.7) (end -1.5 3.7) (layer F.SilkS) (width 0.12))
  (fp_line (start 2.5 2.7) (end 2.5 3.7) (layer F.SilkS) (width 0.12))
  (fp_line (start 0 -4.65) (end 0 -2.15) (layer F.Fab) (width 0.1))
  (fp_line (start 0 -2.15) (end 1 -2.15) (layer F.Fab) (width 0.1))
  (fp_line (start 1 -2.15) (end 1 -4.65) (layer F.Fab) (width 0.1))
  (fp_line (start 1 -4.65) (end 0 -4.65) (layer F.Fab) (width 0.1))
  (fp_line (start 0 -4.65) (end 1 -4.65) (layer F.SilkS) (width 0.12))
  (fp_line (start 0 -2.151) (end 1 -2.151) (layer F.SilkS) (width 0.12))
  (fp_line (start 0 -4.65) (end 0 -2.151) (layer F.SilkS) (width 0.12))
  (fp_line (start 1 -4.65) (end 1 -2.151) (layer F.SilkS) (width 0.12))
  (fp_line (start 6 4.4) (end 10 4.4) (layer F.SilkS) (width 0.12))
  (fp_line (start 6 7.7) (end 10 7.7) (layer F.SilkS) (width 0.12))
  (fp_line (start 6 4.4) (end 6 7.7) (layer F.SilkS) (width 0.12))
  (fp_line (start 10 4.4) (end 10 7.7) (layer F.SilkS) (width 0.12))
  (fp_line (start 6 4.4) (end 6 7.7) (layer F.Fab) (width 0.1))
  (fp_line (start 6 7.7) (end 10 7.7) (layer F.Fab) (width 0.1))
  (fp_line (start 10 7.7) (end 10 4.4) (layer F.Fab) (width 0.1))
  (fp_line (start 10 4.4) (end 6 4.4) (layer F.Fab) (width 0.1))
  (fp_line (start 5.5 -5) (end 5.5 9) (layer F.Fab) (width 0.1))
  (fp_line (start 5.5 9) (end 13 9) (layer F.Fab) (width 0.1))
  (fp_line (start 13 9) (end 13 -5) (layer F.Fab) (width 0.1))
  (fp_line (start 13 -5) (end 5.5 -5) (layer F.Fab) (width 0.1))
  (fp_line (start 5.5 -5) (end 13 -5) (layer F.SilkS) (width 0.12))
  (fp_line (start 5.5 9) (end 13 9) (layer F.SilkS) (width 0.12))
  (fp_line (start 5.5 -5) (end 5.5 9) (layer F.SilkS) (width 0.12))
  (fp_line (start 13 -5) (end 13 9) (layer F.SilkS) (width 0.12))
  (fp_line (start 6 2.7) (end 6 3.7) (layer F.Fab) (width 0.1))
  (fp_line (start 6 3.7) (end 10 3.7) (layer F.Fab) (width 0.1))
  (fp_line (start 10 3.7) (end 10 2.7) (layer F.Fab) (width 0.1))
  (fp_line (start 10 2.7) (end 6 2.7) (layer F.Fab) (width 0.1))
  (fp_line (start 6 2.7) (end 10 2.7) (layer F.SilkS) (width 0.12))
  (fp_line (start 6 3.7) (end 10 3.7) (layer F.SilkS) (width 0.12))
  (fp_line (start 6 2.7) (end 6 3.7) (layer F.SilkS) (width 0.12))
  (fp_line (start 10 2.7) (end 10 3.7) (layer F.SilkS) (width 0.12))
  (fp_line (start 7.5 -4.65) (end 7.5 -2.15) (layer F.Fab) (width 0.1))
  (fp_line (start 7.5 -2.15) (end 8.5 -2.15) (layer F.Fab) (width 0.1))
  (fp_line (start 8.5 -2.15) (end 8.5 -4.65) (layer F.Fab) (width 0.1))
  (fp_line (start 8.5 -4.65) (end 7.5 -4.65) (layer F.Fab) (width 0.1))
  (fp_line (start 7.5 -4.65) (end 8.5 -4.65) (layer F.SilkS) (width 0.12))
  (fp_line (start 7.5 -2.151) (end 8.5 -2.151) (layer F.SilkS) (width 0.12))
  (fp_line (start 7.5 -4.65) (end 7.5 -2.151) (layer F.SilkS) (width 0.12))
  (fp_line (start 8.5 -4.65) (end 8.5 -2.151) (layer F.SilkS) (width 0.12))
  (fp_line (start 13.5 4.4) (end 17.5 4.4) (layer F.SilkS) (width 0.12))
  (fp_line (start 13.5 7.7) (end 17.5 7.7) (layer F.SilkS) (width 0.12))
  (fp_line (start 13.5 4.4) (end 13.5 7.7) (layer F.SilkS) (width 0.12))
  (fp_line (start 17.5 4.4) (end 17.5 7.7) (layer F.SilkS) (width 0.12))
  (fp_line (start 13.5 4.4) (end 13.5 7.7) (layer F.Fab) (width 0.1))
  (fp_line (start 13.5 7.7) (end 17.5 7.7) (layer F.Fab) (width 0.1))
  (fp_line (start 17.5 7.7) (end 17.5 4.4) (layer F.Fab) (width 0.1))
  (fp_line (start 17.5 4.4) (end 13.5 4.4) (layer F.Fab) (width 0.1))
  (fp_line (start 13 -5) (end 13 9) (layer F.Fab) (width 0.1))
  (fp_line (start 13 9) (end 20.5 9) (layer F.Fab) (width 0.1))
  (fp_line (start 20.5 9) (end 20.5 -5) (layer F.Fab) (width 0.1))
  (fp_line (start 20.5 -5) (end 13 -5) (layer F.Fab) (width 0.1))
  (fp_line (start 13 -5) (end 20.5 -5) (layer F.SilkS) (width 0.12))
  (fp_line (start 13 9) (end 20.5 9) (layer F.SilkS) (width 0.12))
  (fp_line (start 13 -5) (end 13 9) (layer F.SilkS) (width 0.12))
  (fp_line (start 20.5 -5) (end 20.5 9) (layer F.SilkS) (width 0.12))
  (fp_line (start 13.5 2.7) (end 13.5 3.7) (layer F.Fab) (width 0.1))
  (fp_line (start 13.5 3.7) (end 17.5 3.7) (layer F.Fab) (width 0.1))
  (fp_line (start 17.5 3.7) (end 17.5 2.7) (layer F.Fab) (width 0.1))
  (fp_line (start 17.5 2.7) (end 13.5 2.7) (layer F.Fab) (width 0.1))
  (fp_line (start 13.5 2.7) (end 17.5 2.7) (layer F.SilkS) (width 0.12))
  (fp_line (start 13.5 3.7) (end 17.5 3.7) (layer F.SilkS) (width 0.12))
  (fp_line (start 13.5 2.7) (end 13.5 3.7) (layer F.SilkS) (width 0.12))
  (fp_line (start 17.5 2.7) (end 17.5 3.7) (layer F.SilkS) (width 0.12))
  (fp_line (start 15 -4.65) (end 15 -2.15) (layer F.Fab) (width 0.1))
  (fp_line (start 15 -2.15) (end 16 -2.15) (layer F.Fab) (width 0.1))
  (fp_line (start 16 -2.15) (end 16 -4.65) (layer F.Fab) (width 0.1))
  (fp_line (start 16 -4.65) (end 15 -4.65) (layer F.Fab) (width 0.1))
  (fp_line (start 15 -4.65) (end 16 -4.65) (layer F.SilkS) (width 0.12))
  (fp_line (start 15 -2.151) (end 16 -2.151) (layer F.SilkS) (width 0.12))
  (fp_line (start 15 -4.65) (end 15 -2.151) (layer F.SilkS) (width 0.12))
  (fp_line (start 16 -4.65) (end 16 -2.151) (layer F.SilkS) (width 0.12))
  (fp_line (start 21 4.4) (end 25 4.4) (layer F.SilkS) (width 0.12))
  (fp_line (start 21 7.7) (end 25 7.7) (layer F.SilkS) (width 0.12))
  (fp_line (start 21 4.4) (end 21 7.7) (layer F.SilkS) (width 0.12))
  (fp_line (start 25 4.4) (end 25 7.7) (layer F.SilkS) (width 0.12))
  (fp_line (start 21 4.4) (end 21 7.7) (layer F.Fab) (width 0.1))
  (fp_line (start 21 7.7) (end 25 7.7) (layer F.Fab) (width 0.1))
  (fp_line (start 25 7.7) (end 25 4.4) (layer F.Fab) (width 0.1))
  (fp_line (start 25 4.4) (end 21 4.4) (layer F.Fab) (width 0.1))
  (fp_line (start 20.5 -5) (end 20.5 9) (layer F.Fab) (width 0.1))
  (fp_line (start 20.5 9) (end 28 9) (layer F.Fab) (width 0.1))
  (fp_line (start 28 9) (end 28 -5) (layer F.Fab) (width 0.1))
  (fp_line (start 28 -5) (end 20.5 -5) (layer F.Fab) (width 0.1))
  (fp_line (start 20.5 -5) (end 28 -5) (layer F.SilkS) (width 0.12))
  (fp_line (start 20.5 9) (end 28 9) (layer F.SilkS) (width 0.12))
  (fp_line (start 20.5 -5) (end 20.5 9) (layer F.SilkS) (width 0.12))
  (fp_line (start 28 -5) (end 28 9) (layer F.SilkS) (width 0.12))
  (fp_line (start 21 2.7) (end 21 3.7) (layer F.Fab) (width 0.1))
  (fp_line (start 21 3.7) (end 25 3.7) (layer F.Fab) (width 0.1))
  (fp_line (start 25 3.7) (end 25 2.7) (layer F.Fab) (width 0.1))
  (fp_line (start 25 2.7) (end 21 2.7) (layer F.Fab) (width 0.1))
  (fp_line (start 21 2.7) (end 25 2.7) (layer F.SilkS) (width 0.12))
  (fp_line (start 21 3.7) (end 25 3.7) (layer F.SilkS) (width 0.12))
  (fp_line (start 21 2.7) (end 21 3.7) (layer F.SilkS) (width 0.12))
  (fp_line (start 25 2.7) (end 25 3.7) (layer F.SilkS) (width 0.12))
  (fp_line (start 22.5 -4.65) (end 22.5 -2.15) (layer F.Fab) (width 0.1))
  (fp_line (start 22.5 -2.15) (end 23.5 -2.15) (layer F.Fab) (width 0.1))
  (fp_line (start 23.5 -2.15) (end 23.5 -4.65) (layer F.Fab) (width 0.1))
  (fp_line (start 23.5 -4.65) (end 22.5 -4.65) (layer F.Fab) (width 0.1))
  (fp_line (start 22.5 -4.65) (end 23.5 -4.65) (layer F.SilkS) (width 0.12))
  (fp_line (start 22.5 -2.151) (end 23.5 -2.151) (layer F.SilkS) (width 0.12))
  (fp_line (start 22.5 -4.65) (end 22.5 -2.151) (layer F.SilkS) (width 0.12))
  (fp_line (start 23.5 -4.65) (end 23.5 -2.151) (layer F.SilkS) (width 0.12))
  (fp_line (start 28.5 4.4) (end 32.5 4.4) (layer F.SilkS) (width 0.12))
  (fp_line (start 28.5 7.7) (end 32.5 7.7) (layer F.SilkS) (width 0.12))
  (fp_line (start 28.5 4.4) (end 28.5 7.7) (layer F.SilkS) (width 0.12))
  (fp_line (start 32.5 4.4) (end 32.5 7.7) (layer F.SilkS) (width 0.12))
  (fp_line (start 28.5 4.4) (end 28.5 7.7) (layer F.Fab) (width 0.1))
  (fp_line (start 28.5 7.7) (end 32.5 7.7) (layer F.Fab) (width 0.1))
  (fp_line (start 32.5 7.7) (end 32.5 4.4) (layer F.Fab) (width 0.1))
  (fp_line (start 32.5 4.4) (end 28.5 4.4) (layer F.Fab) (width 0.1))
  (fp_line (start 28 -5) (end 28 9) (layer F.Fab) (width 0.1))
  (fp_line (start 28 9) (end 35.5 9) (layer F.Fab) (width 0.1))
  (fp_line (start 35.5 9) (end 35.5 -5) (layer F.Fab) (width 0.1))
  (fp_line (start 35.5 -5) (end 28 -5) (layer F.Fab) (width 0.1))
  (fp_line (start 28 -5) (end 35.5 -5) (layer F.SilkS) (width 0.12))
  (fp_line (start 28 9) (end 35.5 9) (layer F.SilkS) (width 0.12))
  (fp_line (start 28 -5) (end 28 9) (layer F.SilkS) (width 0.12))
  (fp_line (start 35.5 -5) (end 35.5 9) (layer F.SilkS) (width 0.12))
  (fp_line (start 28.5 2.7) (end 28.5 3.7) (layer F.Fab) (width 0.1))
  (fp_line (start 28.5 3.7) (end 32.5 3.7) (layer F.Fab) (width 0.1))
  (fp_line (start 32.5 3.7) (end 32.5 2.7) (layer F.Fab) (width 0.1))
  (fp_line (start 32.5 2.7) (end 28.5 2.7) (layer F.Fab) (width 0.1))
  (fp_line (start 28.5 2.7) (end 32.5 2.7) (layer F.SilkS) (width 0.12))
  (fp_line (start 28.5 3.7) (end 32.5 3.7) (layer F.SilkS) (width 0.12))
  (fp_line (start 28.5 2.7) (end 28.5 3.7) (layer F.SilkS) (width 0.12))
  (fp_line (start 32.5 2.7) (end 32.5 3.7) (layer F.SilkS) (width 0.12))
  (fp_line (start 30 -4.65) (end 30 -2.15) (layer F.Fab) (width 0.1))
  (fp_line (start 30 -2.15) (end 31 -2.15) (layer F.Fab) (width 0.1))
  (fp_line (start 31 -2.15) (end 31 -4.65) (layer F.Fab) (width 0.1))
  (fp_line (start 31 -4.65) (end 30 -4.65) (layer F.Fab) (width 0.1))
  (fp_line (start 30 -4.65) (end 31 -4.65) (layer F.SilkS) (width 0.12))
  (fp_line (start 30 -2.151) (end 31 -2.151) (layer F.SilkS) (width 0.12))
  (fp_line (start 30 -4.65) (end 30 -2.151) (layer F.SilkS) (width 0.12))
  (fp_line (start 31 -4.65) (end 31 -2.151) (layer F.SilkS) (width 0.12))
  (fp_line (start 36 4.4) (end 40 4.4) (layer F.SilkS) (width 0.12))
  (fp_line (start 36 7.7) (end 40 7.7) (layer F.SilkS) (width 0.12))
  (fp_line (start 36 4.4) (end 36 7.7) (layer F.SilkS) (width 0.12))
  (fp_line (start 40 4.4) (end 40 7.7) (layer F.SilkS) (width 0.12))
  (fp_line (start 36 4.4) (end 36 7.7) (layer F.Fab) (width 0.1))
  (fp_line (start 36 7.7) (end 40 7.7) (layer F.Fab) (width 0.1))
  (fp_line (start 40 7.7) (end 40 4.4) (layer F.Fab) (width 0.1))
  (fp_line (start 40 4.4) (end 36 4.4) (layer F.Fab) (width 0.1))
  (fp_line (start 35.5 -5) (end 35.5 9) (layer F.Fab) (width 0.1))
  (fp_line (start 35.5 9) (end 43 9) (layer F.Fab) (width 0.1))
  (fp_line (start 43 9) (end 43 -5) (layer F.Fab) (width 0.1))
  (fp_line (start 43 -5) (end 35.5 -5) (layer F.Fab) (width 0.1))
  (fp_line (start 35.5 -5) (end 43 -5) (layer F.SilkS) (width 0.12))
  (fp_line (start 35.5 9) (end 43 9) (layer F.SilkS) (width 0.12))
  (fp_line (start 35.5 -5) (end 35.5 9) (layer F.SilkS) (width 0.12))
  (fp_line (start 43 -5) (end 43 9) (layer F.SilkS) (width 0.12))
  (fp_line (start 36 2.7) (end 36 3.7) (layer F.Fab) (width 0.1))
  (fp_line (start 36 3.7) (end 40 3.7) (layer F.Fab) (width 0.1))
  (fp_line (start 40 3.7) (end 40 2.7) (layer F.Fab) (width 0.1))
  (fp_line (start 40 2.7) (end 36 2.7) (layer F.Fab) (width 0.1))
  (fp_line (start 36 2.7) (end 40 2.7) (layer F.SilkS) (width 0.12))
  (fp_line (start 36 3.7) (end 40 3.7) (layer F.SilkS) (width 0.12))
  (fp_line (start 36 2.7) (end 36 3.7) (layer F.SilkS) (width 0.12))
  (fp_line (start 40 2.7) (end 40 3.7) (layer F.SilkS) (width 0.12))
  (fp_line (start 37.5 -4.65) (end 37.5 -2.15) (layer F.Fab) (width 0.1))
  (fp_line (start 37.5 -2.15) (end 38.5 -2.15) (layer F.Fab) (width 0.1))
  (fp_line (start 38.5 -2.15) (end 38.5 -4.65) (layer F.Fab) (width 0.1))
  (fp_line (start 38.5 -4.65) (end 37.5 -4.65) (layer F.Fab) (width 0.1))
  (fp_line (start 37.5 -4.65) (end 38.5 -4.65) (layer F.SilkS) (width 0.12))
  (fp_line (start 37.5 -2.151) (end 38.5 -2.151) (layer F.SilkS) (width 0.12))
  (fp_line (start 37.5 -4.65) (end 37.5 -2.151) (layer F.SilkS) (width 0.12))
  (fp_line (start 38.5 -4.65) (end 38.5 -2.151) (layer F.SilkS) (width 0.12))
  (fp_line (start 43.5 4.4) (end 47.5 4.4) (layer F.SilkS) (width 0.12))
  (fp_line (start 43.5 7.7) (end 47.5 7.7) (layer F.SilkS) (width 0.12))
  (fp_line (start 43.5 4.4) (end 43.5 7.7) (layer F.SilkS) (width 0.12))
  (fp_line (start 47.5 4.4) (end 47.5 7.7) (layer F.SilkS) (width 0.12))
  (fp_line (start 43.5 4.4) (end 43.5 7.7) (layer F.Fab) (width 0.1))
  (fp_line (start 43.5 7.7) (end 47.5 7.7) (layer F.Fab) (width 0.1))
  (fp_line (start 47.5 7.7) (end 47.5 4.4) (layer F.Fab) (width 0.1))
  (fp_line (start 47.5 4.4) (end 43.5 4.4) (layer F.Fab) (width 0.1))
  (fp_line (start 43 -5) (end 43 9) (layer F.Fab) (width 0.1))
  (fp_line (start 43 9) (end 50.5 9) (layer F.Fab) (width 0.1))
  (fp_line (start 50.5 9) (end 50.5 -5) (layer F.Fab) (width 0.1))
  (fp_line (start 50.5 -5) (end 43 -5) (layer F.Fab) (width 0.1))
  (fp_line (start 43 -5) (end 50.5 -5) (layer F.SilkS) (width 0.12))
  (fp_line (start 43 9) (end 50.5 9) (layer F.SilkS) (width 0.12))
  (fp_line (start 43 -5) (end 43 9) (layer F.SilkS) (width 0.12))
  (fp_line (start 50.5 -5) (end 50.5 9) (layer F.SilkS) (width 0.12))
  (fp_line (start 43.5 2.7) (end 43.5 3.7) (layer F.Fab) (width 0.1))
  (fp_line (start 43.5 3.7) (end 47.5 3.7) (layer F.Fab) (width 0.1))
  (fp_line (start 47.5 3.7) (end 47.5 2.7) (layer F.Fab) (width 0.1))
  (fp_line (start 47.5 2.7) (end 43.5 2.7) (layer F.Fab) (width 0.1))
  (fp_line (start 43.5 2.7) (end 47.5 2.7) (layer F.SilkS) (width 0.12))
  (fp_line (start 43.5 3.7) (end 47.5 3.7) (layer F.SilkS) (width 0.12))
  (fp_line (start 43.5 2.7) (end 43.5 3.7) (layer F.SilkS) (width 0.12))
  (fp_line (start 47.5 2.7) (end 47.5 3.7) (layer F.SilkS) (width 0.12))
  (fp_line (start 45 -4.65) (end 45 -2.15) (layer F.Fab) (width 0.1))
  (fp_line (start 45 -2.15) (end 46 -2.15) (layer F.Fab) (width 0.1))
  (fp_line (start 46 -2.15) (end 46 -4.65) (layer F.Fab) (width 0.1))
  (fp_line (start 46 -4.65) (end 45 -4.65) (layer F.Fab) (width 0.1))
  (fp_line (start 45 -4.65) (end 46 -4.65) (layer F.SilkS) (width 0.12))
  (fp_line (start 45 -2.151) (end 46 -2.151) (layer F.SilkS) (width 0.12))
  (fp_line (start 45 -4.65) (end 45 -2.151) (layer F.SilkS) (width 0.12))
  (fp_line (start 46 -4.65) (end 46 -2.151) (layer F.SilkS) (width 0.12))
  (fp_line (start 51 4.4) (end 55 4.4) (layer F.SilkS) (width 0.12))
  (fp_line (start 51 7.7) (end 55 7.7) (layer F.SilkS) (width 0.12))
  (fp_line (start 51 4.4) (end 51 7.7) (layer F.SilkS) (width 0.12))
  (fp_line (start 55 4.4) (end 55 7.7) (layer F.SilkS) (width 0.12))
  (fp_line (start 51 4.4) (end 51 7.7) (layer F.Fab) (width 0.1))
  (fp_line (start 51 7.7) (end 55 7.7) (layer F.Fab) (width 0.1))
  (fp_line (start 55 7.7) (end 55 4.4) (layer F.Fab) (width 0.1))
  (fp_line (start 55 4.4) (end 51 4.4) (layer F.Fab) (width 0.1))
  (fp_line (start 50.5 -5) (end 50.5 9) (layer F.Fab) (width 0.1))
  (fp_line (start 50.5 9) (end 58 9) (layer F.Fab) (width 0.1))
  (fp_line (start 58 9) (end 58 -5) (layer F.Fab) (width 0.1))
  (fp_line (start 58 -5) (end 50.5 -5) (layer F.Fab) (width 0.1))
  (fp_line (start 50.5 -5) (end 58 -5) (layer F.SilkS) (width 0.12))
  (fp_line (start 50.5 9) (end 58 9) (layer F.SilkS) (width 0.12))
  (fp_line (start 50.5 -5) (end 50.5 9) (layer F.SilkS) (width 0.12))
  (fp_line (start 58 -5) (end 58 9) (layer F.SilkS) (width 0.12))
  (fp_line (start 51 2.7) (end 51 3.7) (layer F.Fab) (width 0.1))
  (fp_line (start 51 3.7) (end 55 3.7) (layer F.Fab) (width 0.1))
  (fp_line (start 55 3.7) (end 55 2.7) (layer F.Fab) (width 0.1))
  (fp_line (start 55 2.7) (end 51 2.7) (layer F.Fab) (width 0.1))
  (fp_line (start 51 2.7) (end 55 2.7) (layer F.SilkS) (width 0.12))
  (fp_line (start 51 3.7) (end 55 3.7) (layer F.SilkS) (width 0.12))
  (fp_line (start 51 2.7) (end 51 3.7) (layer F.SilkS) (width 0.12))
  (fp_line (start 55 2.7) (end 55 3.7) (layer F.SilkS) (width 0.12))
  (fp_line (start 52.5 -4.65) (end 52.5 -2.15) (layer F.Fab) (width 0.1))
  (fp_line (start 52.5 -2.15) (end 53.5 -2.15) (layer F.Fab) (width 0.1))
  (fp_line (start 53.5 -2.15) (end 53.5 -4.65) (layer F.Fab) (width 0.1))
  (fp_line (start 53.5 -4.65) (end 52.5 -4.65) (layer F.Fab) (width 0.1))
  (fp_line (start 52.5 -4.65) (end 53.5 -4.65) (layer F.SilkS) (width 0.12))
  (fp_line (start 52.5 -2.151) (end 53.5 -2.151) (layer F.SilkS) (width 0.12))
  (fp_line (start 52.5 -4.65) (end 52.5 -2.151) (layer F.SilkS) (width 0.12))
  (fp_line (start 53.5 -4.65) (end 53.5 -2.151) (layer F.SilkS) (width 0.12))
  (fp_line (start -3.86 8.12) (end -3.86 9.36) (layer F.SilkS) (width 0.12))
  (fp_line (start -3.86 9.36) (end -2.86 9.36) (layer F.SilkS) (width 0.12))
  (fp_line (start -4 -5.5) (end -4 9.5) (layer F.CrtYd) (width 0.05))
  (fp_line (start -4 9.5) (end 59.3 9.5) (layer F.CrtYd) (width 0.05))
  (fp_line (start 59.3 9.5) (end 59.3 -5.5) (layer F.CrtYd) (width 0.05))
  (fp_line (start 59.3 -5.5) (end -4 -5.5) (layer F.CrtYd) (width 0.05))
  (pad 1 thru_hole rect (at 0 0) (size 1.5 3) (drill 1.15) (layers *.Cu *.Mask))
  (pad 2 thru_hole oval (at 7.5 0) (size 1.5 3) (drill 1.15) (layers *.Cu *.Mask))
  (pad 3 thru_hole oval (at 15 0) (size 1.5 3) (drill 1.15) (layers *.Cu *.Mask))
  (pad 4 thru_hole oval (at 22.5 0) (size 1.5 3) (drill 1.15) (layers *.Cu *.Mask))
  (pad 5 thru_hole oval (at 30 0) (size 1.5 3) (drill 1.15) (layers *.Cu *.Mask))
  (pad 6 thru_hole oval (at 37.5 0) (size 1.5 3) (drill 1.15) (layers *.Cu *.Mask))
  (pad 7 thru_hole oval (at 45 0) (size 1.5 3) (drill 1.15) (layers *.Cu *.Mask))
  (pad 8 thru_hole oval (at 52.5 0) (size 1.5 3) (drill 1.15) (layers *.Cu *.Mask))
  (fp_text user %R (at 27.65 1) (layer F.Fab)
    (effects (font (size 1 1) (thickness 0.15)))
  )
  (model ${KICAD6_3DMODEL_DIR}/TerminalBlock_WAGO.3dshapes/TerminalBlock_WAGO_236-208_1x08_P7.50mm_45Degree.wrl
    (at (xyz 0 0 0))
    (scale (xyz 1 1 1))
    (rotate (xyz 0 0 0))
  )
)