(module TerminalBlock_WAGO_236-414_1x14_P5.00mm_45Degree (layer F.Cu) (tedit 5F817311)
  (descr "Terminal Block WAGO 236-414, 45Degree (cable under 45degree), 14 pins, pitch 5mm, size 72.3x14mm^2, drill diamater 1.15mm, pad diameter 3mm, see , script-generated with , script-generated using https://github.com/pointhi/kicad-footprint-generator/scripts/TerminalBlock_WAGO")
  (tags "THT Terminal Block WAGO 236-414 45Degree pitch 5mm size 72.3x14mm^2 drill 1.15mm pad 3mm")
  (fp_text reference REF** (at 32.65 -6.12) (layer F.SilkS)
    (effects (font (size 1 1) (thickness 0.15)))
  )
  (fp_text value TerminalBlock_WAGO_236-414_1x14_P5.00mm_45Degree (at 32.65 10.12) (layer F.Fab)
    (effects (font (size 1 1) (thickness 0.15)))
  )
  (fp_line (start -3.5 -5) (end 68.8 -5) (layer F.Fab) (width 0.1))
  (fp_line (start 68.8 -5) (end 68.8 9) (layer F.Fab) (width 0.1))
  (fp_line (start 68.8 9) (end -2.5 9) (layer F.Fab) (width 0.1))
  (fp_line (start -2.5 9) (end -3.5 8) (layer F.Fab) (width 0.1))
  (fp_line (start -3.5 8) (end -3.5 -5) (layer F.Fab) (width 0.1))
  (fp_line (start -3.5 8) (end 68.8 8) (layer F.Fab) (width 0.1))
  (fp_line (start -3.62 8) (end 68.92 8) (layer F.SilkS) (width 0.12))
  (fp_line (start -3.5 2.3) (end 68.8 2.3) (layer F.Fab) (width 0.1))
  (fp_line (start -3.62 2.3) (end 68.92 2.3) (layer F.SilkS) (width 0.12))
  (fp_line (start -3.5 -0.5) (end 68.8 -0.5) (layer F.Fab) (width 0.1))
  (fp_line (start -3.62 -0.5) (end -1.23 -0.5) (layer F.SilkS) (width 0.12))
  (fp_line (start 1.23 -0.5) (end 3.77 -0.5) (layer F.SilkS) (width 0.12))
  (fp_line (start 6.23 -0.5) (end 8.77 -0.5) (layer F.SilkS) (width 0.12))
  (fp_line (start 11.23 -0.5) (end 13.77 -0.5) (layer F.SilkS) (width 0.12))
  (fp_line (start 16.23 -0.5) (end 18.77 -0.5) (layer F.SilkS) (width 0.12))
  (fp_line (start 21.23 -0.5) (end 23.77 -0.5) (layer F.SilkS) (width 0.12))
  (fp_line (start 26.23 -0.5) (end 28.77 -0.5) (layer F.SilkS) (width 0.12))
  (fp_line (start 31.23 -0.5) (end 33.77 -0.5) (layer F.SilkS) (width 0.12))
  (fp_line (start 36.23 -0.5) (end 38.77 -0.5) (layer F.SilkS) (width 0.12))
  (fp_line (start 41.23 -0.5) (end 43.77 -0.5) (layer F.SilkS) (width 0.12))
  (fp_line (start 46.23 -0.5) (end 48.77 -0.5) (layer F.SilkS) (width 0.12))
  (fp_line (start 51.23 -0.5) (end 53.77 -0.5) (layer F.SilkS) (width 0.12))
  (fp_line (start 56.23 -0.5) (end 58.77 -0.5) (layer F.SilkS) (width 0.12))
  (fp_line (start 61.23 -0.5) (end 63.77 -0.5) (layer F.SilkS) (width 0.12))
  (fp_line (start 66.23 -0.5) (end 68.92 -0.5) (layer F.SilkS) (width 0.12))
  (fp_line (start -3.62 -5.12) (end 68.92 -5.12) (layer F.SilkS) (width 0.12))
  (fp_line (start -3.62 9.12) (end 68.92 9.12) (layer F.SilkS) (width 0.12))
  (fp_line (start -3.62 -5.12) (end -3.62 9.12) (layer F.SilkS) (width 0.12))
  (fp_line (start 68.92 -5.12) (end 68.92 9.12) (layer F.SilkS) (width 0.12))
  (fp_line (start -1.5 4.4) (end -1.23 4.4) (layer F.SilkS) (width 0.12))
  (fp_line (start 1.23 4.4) (end 2.5 4.4) (layer F.SilkS) (width 0.12))
  (fp_line (start -1.5 7.7) (end 2.5 7.7) (layer F.SilkS) (width 0.12))
  (fp_line (start -1.5 4.4) (end -1.5 7.7) (layer F.SilkS) (width 0.12))
  (fp_line (start 2.5 4.4) (end 2.5 7.7) (layer F.SilkS) (width 0.12))
  (fp_line (start -1.5 4.4) (end -1.5 7.7) (layer F.Fab) (width 0.1))
  (fp_line (start -1.5 7.7) (end 2.5 7.7) (layer F.Fab) (width 0.1))
  (fp_line (start 2.5 7.7) (end 2.5 4.4) (layer F.Fab) (width 0.1))
  (fp_line (start 2.5 4.4) (end -1.5 4.4) (layer F.Fab) (width 0.1))
  (fp_line (start -2 -5) (end -2 9) (layer F.Fab) (width 0.1))
  (fp_line (start -2 9) (end 3 9) (layer F.Fab) (width 0.1))
  (fp_line (start 3 9) (end 3 -5) (layer F.Fab) (width 0.1))
  (fp_line (start 3 -5) (end -2 -5) (layer F.Fab) (width 0.1))
  (fp_line (start -2 -5) (end 3 -5) (layer F.SilkS) (width 0.12))
  (fp_line (start -2 9) (end 3 9) (layer F.SilkS) (width 0.12))
  (fp_line (start -2 -5) (end -2 9) (layer F.SilkS) (width 0.12))
  (fp_line (start 3 -5) (end 3 9) (layer F.SilkS) (width 0.12))
  (fp_line (start -1.5 2.7) (end -1.5 3.7) (layer F.Fab) (width 0.1))
  (fp_line (start -1.5 3.7) (end 2.5 3.7) (layer F.Fab) (width 0.1))
  (fp_line (start 2.5 3.7) (end 2.5 2.7) (layer F.Fab) (width 0.1))
  (fp_line (start 2.5 2.7) (end -1.5 2.7) (layer F.Fab) (width 0.1))
  (fp_line (start -1.5 2.7) (end 2.5 2.7) (layer F.SilkS) (width 0.12))
  (fp_line (start -1.5 3.7) (end -1.23 3.7) (layer F.SilkS) (width 0.12))
  (fp_line (start 1.23 3.7) (end 2.5 3.7) (layer F.SilkS) (width 0.12))
  (fp_line (start -1.5 2.7) (end -1.5 3.7) (layer F.SilkS) (width 0.12))
  (fp_line (start 2.5 2.7) (end 2.5 3.7) (layer F.SilkS) (width 0.12))
  (fp_line (start 0 -4.65) (end 0 -2.15) (layer F.Fab) (width 0.1))
  (fp_line (start 0 -2.15) (end 1 -2.15) (layer F.Fab) (width 0.1))
  (fp_line (start 1 -2.15) (end 1 -4.65) (layer F.Fab) (width 0.1))
  (fp_line (start 1 -4.65) (end 0 -4.65) (layer F.Fab) (width 0.1))
  (fp_line (start 0 -4.65) (end 1 -4.65) (layer F.SilkS) (width 0.12))
  (fp_line (start 0 -2.151) (end 1 -2.151) (layer F.SilkS) (width 0.12))
  (fp_line (start 0 -4.65) (end 0 -2.151) (layer F.SilkS) (width 0.12))
  (fp_line (start 1 -4.65) (end 1 -2.151) (layer F.SilkS) (width 0.12))
  (fp_line (start 3.5 4.4) (end 3.77 4.4) (layer F.SilkS) (width 0.12))
  (fp_line (start 6.23 4.4) (end 7.5 4.4) (layer F.SilkS) (width 0.12))
  (fp_line (start 3.5 7.7) (end 7.5 7.7) (layer F.SilkS) (width 0.12))
  (fp_line (start 3.5 4.4) (end 3.5 7.7) (layer F.SilkS) (width 0.12))
  (fp_line (start 7.5 4.4) (end 7.5 7.7) (layer F.SilkS) (width 0.12))
  (fp_line (start 3.5 4.4) (end 3.5 7.7) (layer F.Fab) (width 0.1))
  (fp_line (start 3.5 7.7) (end 7.5 7.7) (layer F.Fab) (width 0.1))
  (fp_line (start 7.5 7.7) (end 7.5 4.4) (layer F.Fab) (width 0.1))
  (fp_line (start 7.5 4.4) (end 3.5 4.4) (layer F.Fab) (width 0.1))
  (fp_line (start 3 -5) (end 3 9) (layer F.Fab) (width 0.1))
  (fp_line (start 3 9) (end 8 9) (layer F.Fab) (width 0.1))
  (fp_line (start 8 9) (end 8 -5) (layer F.Fab) (width 0.1))
  (fp_line (start 8 -5) (end 3 -5) (layer F.Fab) (width 0.1))
  (fp_line (start 3 -5) (end 8 -5) (layer F.SilkS) (width 0.12))
  (fp_line (start 3 9) (end 8 9) (layer F.SilkS) (width 0.12))
  (fp_line (start 3 -5) (end 3 9) (layer F.SilkS) (width 0.12))
  (fp_line (start 8 -5) (end 8 9) (layer F.SilkS) (width 0.12))
  (fp_line (start 3.5 2.7) (end 3.5 3.7) (layer F.Fab) (width 0.1))
  (fp_line (start 3.5 3.7) (end 7.5 3.7) (layer F.Fab) (width 0.1))
  (fp_line (start 7.5 3.7) (end 7.5 2.7) (layer F.Fab) (width 0.1))
  (fp_line (start 7.5 2.7) (end 3.5 2.7) (layer F.Fab) (width 0.1))
  (fp_line (start 3.5 2.7) (end 7.5 2.7) (layer F.SilkS) (width 0.12))
  (fp_line (start 3.5 3.7) (end 3.77 3.7) (layer F.SilkS) (width 0.12))
  (fp_line (start 6.23 3.7) (end 7.5 3.7) (layer F.SilkS) (width 0.12))
  (fp_line (start 3.5 2.7) (end 3.5 3.7) (layer F.SilkS) (width 0.12))
  (fp_line (start 7.5 2.7) (end 7.5 3.7) (layer F.SilkS) (width 0.12))
  (fp_line (start 5 -4.65) (end 5 -2.15) (layer F.Fab) (width 0.1))
  (fp_line (start 5 -2.15) (end 6 -2.15) (layer F.Fab) (width 0.1))
  (fp_line (start 6 -2.15) (end 6 -4.65) (layer F.Fab) (width 0.1))
  (fp_line (start 6 -4.65) (end 5 -4.65) (layer F.Fab) (width 0.1))
  (fp_line (start 5 -4.65) (end 6 -4.65) (layer F.SilkS) (width 0.12))
  (fp_line (start 5 -2.151) (end 6 -2.151) (layer F.SilkS) (width 0.12))
  (fp_line (start 5 -4.65) (end 5 -2.151) (layer F.SilkS) (width 0.12))
  (fp_line (start 6 -4.65) (end 6 -2.151) (layer F.SilkS) (width 0.12))
  (fp_line (start 8.5 4.4) (end 8.77 4.4) (layer F.SilkS) (width 0.12))
  (fp_line (start 11.23 4.4) (end 12.5 4.4) (layer F.SilkS) (width 0.12))
  (fp_line (start 8.5 7.7) (end 12.5 7.7) (layer F.SilkS) (width 0.12))
  (fp_line (start 8.5 4.4) (end 8.5 7.7) (layer F.SilkS) (width 0.12))
  (fp_line (start 12.5 4.4) (end 12.5 7.7) (layer F.SilkS) (width 0.12))
  (fp_line (start 8.5 4.4) (end 8.5 7.7) (layer F.Fab) (width 0.1))
  (fp_line (start 8.5 7.7) (end 12.5 7.7) (layer F.Fab) (width 0.1))
  (fp_line (start 12.5 7.7) (end 12.5 4.4) (layer F.Fab) (width 0.1))
  (fp_line (start 12.5 4.4) (end 8.5 4.4) (layer F.Fab) (width 0.1))
  (fp_line (start 8 -5) (end 8 9) (layer F.Fab) (width 0.1))
  (fp_line (start 8 9) (end 13 9) (layer F.Fab) (width 0.1))
  (fp_line (start 13 9) (end 13 -5) (layer F.Fab) (width 0.1))
  (fp_line (start 13 -5) (end 8 -5) (layer F.Fab) (width 0.1))
  (fp_line (start 8 -5) (end 13 -5) (layer F.SilkS) (width 0.12))
  (fp_line (start 8 9) (end 13 9) (layer F.SilkS) (width 0.12))
  (fp_line (start 8 -5) (end 8 9) (layer F.SilkS) (width 0.12))
  (fp_line (start 13 -5) (end 13 9) (layer F.SilkS) (width 0.12))
  (fp_line (start 8.5 2.7) (end 8.5 3.7) (layer F.Fab) (width 0.1))
  (fp_line (start 8.5 3.7) (end 12.5 3.7) (layer F.Fab) (width 0.1))
  (fp_line (start 12.5 3.7) (end 12.5 2.7) (layer F.Fab) (width 0.1))
  (fp_line (start 12.5 2.7) (end 8.5 2.7) (layer F.Fab) (width 0.1))
  (fp_line (start 8.5 2.7) (end 12.5 2.7) (layer F.SilkS) (width 0.12))
  (fp_line (start 8.5 3.7) (end 8.77 3.7) (layer F.SilkS) (width 0.12))
  (fp_line (start 11.23 3.7) (end 12.5 3.7) (layer F.SilkS) (width 0.12))
  (fp_line (start 8.5 2.7) (end 8.5 3.7) (layer F.SilkS) (width 0.12))
  (fp_line (start 12.5 2.7) (end 12.5 3.7) (layer F.SilkS) (width 0.12))
  (fp_line (start 10 -4.65) (end 10 -2.15) (layer F.Fab) (width 0.1))
  (fp_line (start 10 -2.15) (end 11 -2.15) (layer F.Fab) (width 0.1))
  (fp_line (start 11 -2.15) (end 11 -4.65) (layer F.Fab) (width 0.1))
  (fp_line (start 11 -4.65) (end 10 -4.65) (layer F.Fab) (width 0.1))
  (fp_line (start 10 -4.65) (end 11 -4.65) (layer F.SilkS) (width 0.12))
  (fp_line (start 10 -2.151) (end 11 -2.151) (layer F.SilkS) (width 0.12))
  (fp_line (start 10 -4.65) (end 10 -2.151) (layer F.SilkS) (width 0.12))
  (fp_line (start 11 -4.65) (end 11 -2.151) (layer F.SilkS) (width 0.12))
  (fp_line (start 13.5 4.4) (end 13.77 4.4) (layer F.SilkS) (width 0.12))
  (fp_line (start 16.23 4.4) (end 17.5 4.4) (layer F.SilkS) (width 0.12))
  (fp_line (start 13.5 7.7) (end 17.5 7.7) (layer F.SilkS) (width 0.12))
  (fp_line (start 13.5 4.4) (end 13.5 7.7) (layer F.SilkS) (width 0.12))
  (fp_line (start 17.5 4.4) (end 17.5 7.7) (layer F.SilkS) (width 0.12))
  (fp_line (start 13.5 4.4) (end 13.5 7.7) (layer F.Fab) (width 0.1))
  (fp_line (start 13.5 7.7) (end 17.5 7.7) (layer F.Fab) (width 0.1))
  (fp_line (start 17.5 7.7) (end 17.5 4.4) (layer F.Fab) (width 0.1))
  (fp_line (start 17.5 4.4) (end 13.5 4.4) (layer F.Fab) (width 0.1))
  (fp_line (start 13 -5) (end 13 9) (layer F.Fab) (width 0.1))
  (fp_line (start 13 9) (end 18 9) (layer F.Fab) (width 0.1))
  (fp_line (start 18 9) (end 18 -5) (layer F.Fab) (width 0.1))
  (fp_line (start 18 -5) (end 13 -5) (layer F.Fab) (width 0.1))
  (fp_line (start 13 -5) (end 18 -5) (layer F.SilkS) (width 0.12))
  (fp_line (start 13 9) (end 18 9) (layer F.SilkS) (width 0.12))
  (fp_line (start 13 -5) (end 13 9) (layer F.SilkS) (width 0.12))
  (fp_line (start 18 -5) (end 18 9) (layer F.SilkS) (width 0.12))
  (fp_line (start 13.5 2.7) (end 13.5 3.7) (layer F.Fab) (width 0.1))
  (fp_line (start 13.5 3.7) (end 17.5 3.7) (layer F.Fab) (width 0.1))
  (fp_line (start 17.5 3.7) (end 17.5 2.7) (layer F.Fab) (width 0.1))
  (fp_line (start 17.5 2.7) (end 13.5 2.7) (layer F.Fab) (width 0.1))
  (fp_line (start 13.5 2.7) (end 17.5 2.7) (layer F.SilkS) (width 0.12))
  (fp_line (start 13.5 3.7) (end 13.77 3.7) (layer F.SilkS) (width 0.12))
  (fp_line (start 16.23 3.7) (end 17.5 3.7) (layer F.SilkS) (width 0.12))
  (fp_line (start 13.5 2.7) (end 13.5 3.7) (layer F.SilkS) (width 0.12))
  (fp_line (start 17.5 2.7) (end 17.5 3.7) (layer F.SilkS) (width 0.12))
  (fp_line (start 15 -4.65) (end 15 -2.15) (layer F.Fab) (width 0.1))
  (fp_line (start 15 -2.15) (end 16 -2.15) (layer F.Fab) (width 0.1))
  (fp_line (start 16 -2.15) (end 16 -4.65) (layer F.Fab) (width 0.1))
  (fp_line (start 16 -4.65) (end 15 -4.65) (layer F.Fab) (width 0.1))
  (fp_line (start 15 -4.65) (end 16 -4.65) (layer F.SilkS) (width 0.12))
  (fp_line (start 15 -2.151) (end 16 -2.151) (layer F.SilkS) (width 0.12))
  (fp_line (start 15 -4.65) (end 15 -2.151) (layer F.SilkS) (width 0.12))
  (fp_line (start 16 -4.65) (end 16 -2.151) (layer F.SilkS) (width 0.12))
  (fp_line (start 18.5 4.4) (end 18.77 4.4) (layer F.SilkS) (width 0.12))
  (fp_line (start 21.23 4.4) (end 22.5 4.4) (layer F.SilkS) (width 0.12))
  (fp_line (start 18.5 7.7) (end 22.5 7.7) (layer F.SilkS) (width 0.12))
  (fp_line (start 18.5 4.4) (end 18.5 7.7) (layer F.SilkS) (width 0.12))
  (fp_line (start 22.5 4.4) (end 22.5 7.7) (layer F.SilkS) (width 0.12))
  (fp_line (start 18.5 4.4) (end 18.5 7.7) (layer F.Fab) (width 0.1))
  (fp_line (start 18.5 7.7) (end 22.5 7.7) (layer F.Fab) (width 0.1))
  (fp_line (start 22.5 7.7) (end 22.5 4.4) (layer F.Fab) (width 0.1))
  (fp_line (start 22.5 4.4) (end 18.5 4.4) (layer F.Fab) (width 0.1))
  (fp_line (start 18 -5) (end 18 9) (layer F.Fab) (width 0.1))
  (fp_line (start 18 9) (end 23 9) (layer F.Fab) (width 0.1))
  (fp_line (start 23 9) (end 23 -5) (layer F.Fab) (width 0.1))
  (fp_line (start 23 -5) (end 18 -5) (layer F.Fab) (width 0.1))
  (fp_line (start 18 -5) (end 23 -5) (layer F.SilkS) (width 0.12))
  (fp_line (start 18 9) (end 23 9) (layer F.SilkS) (width 0.12))
  (fp_line (start 18 -5) (end 18 9) (layer F.SilkS) (width 0.12))
  (fp_line (start 23 -5) (end 23 9) (layer F.SilkS) (width 0.12))
  (fp_line (start 18.5 2.7) (end 18.5 3.7) (layer F.Fab) (width 0.1))
  (fp_line (start 18.5 3.7) (end 22.5 3.7) (layer F.Fab) (width 0.1))
  (fp_line (start 22.5 3.7) (end 22.5 2.7) (layer F.Fab) (width 0.1))
  (fp_line (start 22.5 2.7) (end 18.5 2.7) (layer F.Fab) (width 0.1))
  (fp_line (start 18.5 2.7) (end 22.5 2.7) (layer F.SilkS) (width 0.12))
  (fp_line (start 18.5 3.7) (end 18.77 3.7) (layer F.SilkS) (width 0.12))
  (fp_line (start 21.23 3.7) (end 22.5 3.7) (layer F.SilkS) (width 0.12))
  (fp_line (start 18.5 2.7) (end 18.5 3.7) (layer F.SilkS) (width 0.12))
  (fp_line (start 22.5 2.7) (end 22.5 3.7) (layer F.SilkS) (width 0.12))
  (fp_line (start 20 -4.65) (end 20 -2.15) (layer F.Fab) (width 0.1))
  (fp_line (start 20 -2.15) (end 21 -2.15) (layer F.Fab) (width 0.1))
  (fp_line (start 21 -2.15) (end 21 -4.65) (layer F.Fab) (width 0.1))
  (fp_line (start 21 -4.65) (end 20 -4.65) (layer F.Fab) (width 0.1))
  (fp_line (start 20 -4.65) (end 21 -4.65) (layer F.SilkS) (width 0.12))
  (fp_line (start 20 -2.151) (end 21 -2.151) (layer F.SilkS) (width 0.12))
  (fp_line (start 20 -4.65) (end 20 -2.151) (layer F.SilkS) (width 0.12))
  (fp_line (start 21 -4.65) (end 21 -2.151) (layer F.SilkS) (width 0.12))
  (fp_line (start 23.5 4.4) (end 23.77 4.4) (layer F.SilkS) (width 0.12))
  (fp_line (start 26.23 4.4) (end 27.5 4.4) (layer F.SilkS) (width 0.12))
  (fp_line (start 23.5 7.7) (end 27.5 7.7) (layer F.SilkS) (width 0.12))
  (fp_line (start 23.5 4.4) (end 23.5 7.7) (layer F.SilkS) (width 0.12))
  (fp_line (start 27.5 4.4) (end 27.5 7.7) (layer F.SilkS) (width 0.12))
  (fp_line (start 23.5 4.4) (end 23.5 7.7) (layer F.Fab) (width 0.1))
  (fp_line (start 23.5 7.7) (end 27.5 7.7) (layer F.Fab) (width 0.1))
  (fp_line (start 27.5 7.7) (end 27.5 4.4) (layer F.Fab) (width 0.1))
  (fp_line (start 27.5 4.4) (end 23.5 4.4) (layer F.Fab) (width 0.1))
  (fp_line (start 23 -5) (end 23 9) (layer F.Fab) (width 0.1))
  (fp_line (start 23 9) (end 28 9) (layer F.Fab) (width 0.1))
  (fp_line (start 28 9) (end 28 -5) (layer F.Fab) (width 0.1))
  (fp_line (start 28 -5) (end 23 -5) (layer F.Fab) (width 0.1))
  (fp_line (start 23 -5) (end 28 -5) (layer F.SilkS) (width 0.12))
  (fp_line (start 23 9) (end 28 9) (layer F.SilkS) (width 0.12))
  (fp_line (start 23 -5) (end 23 9) (layer F.SilkS) (width 0.12))
  (fp_line (start 28 -5) (end 28 9) (layer F.SilkS) (width 0.12))
  (fp_line (start 23.5 2.7) (end 23.5 3.7) (layer F.Fab) (width 0.1))
  (fp_line (start 23.5 3.7) (end 27.5 3.7) (layer F.Fab) (width 0.1))
  (fp_line (start 27.5 3.7) (end 27.5 2.7) (layer F.Fab) (width 0.1))
  (fp_line (start 27.5 2.7) (end 23.5 2.7) (layer F.Fab) (width 0.1))
  (fp_line (start 23.5 2.7) (end 27.5 2.7) (layer F.SilkS) (width 0.12))
  (fp_line (start 23.5 3.7) (end 23.77 3.7) (layer F.SilkS) (width 0.12))
  (fp_line (start 26.23 3.7) (end 27.5 3.7) (layer F.SilkS) (width 0.12))
  (fp_line (start 23.5 2.7) (end 23.5 3.7) (layer F.SilkS) (width 0.12))
  (fp_line (start 27.5 2.7) (end 27.5 3.7) (layer F.SilkS) (width 0.12))
  (fp_line (start 25 -4.65) (end 25 -2.15) (layer F.Fab) (width 0.1))
  (fp_line (start 25 -2.15) (end 26 -2.15) (layer F.Fab) (width 0.1))
  (fp_line (start 26 -2.15) (end 26 -4.65) (layer F.Fab) (width 0.1))
  (fp_line (start 26 -4.65) (end 25 -4.65) (layer F.Fab) (width 0.1))
  (fp_line (start 25 -4.65) (end 26 -4.65) (layer F.SilkS) (width 0.12))
  (fp_line (start 25 -2.151) (end 26 -2.151) (layer F.SilkS) (width 0.12))
  (fp_line (start 25 -4.65) (end 25 -2.151) (layer F.SilkS) (width 0.12))
  (fp_line (start 26 -4.65) (end 26 -2.151) (layer F.SilkS) (width 0.12))
  (fp_line (start 28.5 4.4) (end 28.77 4.4) (layer F.SilkS) (width 0.12))
  (fp_line (start 31.23 4.4) (end 32.5 4.4) (layer F.SilkS) (width 0.12))
  (fp_line (start 28.5 7.7) (end 32.5 7.7) (layer F.SilkS) (width 0.12))
  (fp_line (start 28.5 4.4) (end 28.5 7.7) (layer F.SilkS) (width 0.12))
  (fp_line (start 32.5 4.4) (end 32.5 7.7) (layer F.SilkS) (width 0.12))
  (fp_line (start 28.5 4.4) (end 28.5 7.7) (layer F.Fab) (width 0.1))
  (fp_line (start 28.5 7.7) (end 32.5 7.7) (layer F.Fab) (width 0.1))
  (fp_line (start 32.5 7.7) (end 32.5 4.4) (layer F.Fab) (width 0.1))
  (fp_line (start 32.5 4.4) (end 28.5 4.4) (layer F.Fab) (width 0.1))
  (fp_line (start 28 -5) (end 28 9) (layer F.Fab) (width 0.1))
  (fp_line (start 28 9) (end 33 9) (layer F.Fab) (width 0.1))
  (fp_line (start 33 9) (end 33 -5) (layer F.Fab) (width 0.1))
  (fp_line (start 33 -5) (end 28 -5) (layer F.Fab) (width 0.1))
  (fp_line (start 28 -5) (end 33 -5) (layer F.SilkS) (width 0.12))
  (fp_line (start 28 9) (end 33 9) (layer F.SilkS) (width 0.12))
  (fp_line (start 28 -5) (end 28 9) (layer F.SilkS) (width 0.12))
  (fp_line (start 33 -5) (end 33 9) (layer F.SilkS) (width 0.12))
  (fp_line (start 28.5 2.7) (end 28.5 3.7) (layer F.Fab) (width 0.1))
  (fp_line (start 28.5 3.7) (end 32.5 3.7) (layer F.Fab) (width 0.1))
  (fp_line (start 32.5 3.7) (end 32.5 2.7) (layer F.Fab) (width 0.1))
  (fp_line (start 32.5 2.7) (end 28.5 2.7) (layer F.Fab) (width 0.1))
  (fp_line (start 28.5 2.7) (end 32.5 2.7) (layer F.SilkS) (width 0.12))
  (fp_line (start 28.5 3.7) (end 28.77 3.7) (layer F.SilkS) (width 0.12))
  (fp_line (start 31.23 3.7) (end 32.5 3.7) (layer F.SilkS) (width 0.12))
  (fp_line (start 28.5 2.7) (end 28.5 3.7) (layer F.SilkS) (width 0.12))
  (fp_line (start 32.5 2.7) (end 32.5 3.7) (layer F.SilkS) (width 0.12))
  (fp_line (start 30 -4.65) (end 30 -2.15) (layer F.Fab) (width 0.1))
  (fp_line (start 30 -2.15) (end 31 -2.15) (layer F.Fab) (width 0.1))
  (fp_line (start 31 -2.15) (end 31 -4.65) (layer F.Fab) (width 0.1))
  (fp_line (start 31 -4.65) (end 30 -4.65) (layer F.Fab) (width 0.1))
  (fp_line (start 30 -4.65) (end 31 -4.65) (layer F.SilkS) (width 0.12))
  (fp_line (start 30 -2.151) (end 31 -2.151) (layer F.SilkS) (width 0.12))
  (fp_line (start 30 -4.65) (end 30 -2.151) (layer F.SilkS) (width 0.12))
  (fp_line (start 31 -4.65) (end 31 -2.151) (layer F.SilkS) (width 0.12))
  (fp_line (start 33.5 4.4) (end 33.77 4.4) (layer F.SilkS) (width 0.12))
  (fp_line (start 36.23 4.4) (end 37.5 4.4) (layer F.SilkS) (width 0.12))
  (fp_line (start 33.5 7.7) (end 37.5 7.7) (layer F.SilkS) (width 0.12))
  (fp_line (start 33.5 4.4) (end 33.5 7.7) (layer F.SilkS) (width 0.12))
  (fp_line (start 37.5 4.4) (end 37.5 7.7) (layer F.SilkS) (width 0.12))
  (fp_line (start 33.5 4.4) (end 33.5 7.7) (layer F.Fab) (width 0.1))
  (fp_line (start 33.5 7.7) (end 37.5 7.7) (layer F.Fab) (width 0.1))
  (fp_line (start 37.5 7.7) (end 37.5 4.4) (layer F.Fab) (width 0.1))
  (fp_line (start 37.5 4.4) (end 33.5 4.4) (layer F.Fab) (width 0.1))
  (fp_line (start 33 -5) (end 33 9) (layer F.Fab) (width 0.1))
  (fp_line (start 33 9) (end 38 9) (layer F.Fab) (width 0.1))
  (fp_line (start 38 9) (end 38 -5) (layer F.Fab) (width 0.1))
  (fp_line (start 38 -5) (end 33 -5) (layer F.Fab) (width 0.1))
  (fp_line (start 33 -5) (end 38 -5) (layer F.SilkS) (width 0.12))
  (fp_line (start 33 9) (end 38 9) (layer F.SilkS) (width 0.12))
  (fp_line (start 33 -5) (end 33 9) (layer F.SilkS) (width 0.12))
  (fp_line (start 38 -5) (end 38 9) (layer F.SilkS) (width 0.12))
  (fp_line (start 33.5 2.7) (end 33.5 3.7) (layer F.Fab) (width 0.1))
  (fp_line (start 33.5 3.7) (end 37.5 3.7) (layer F.Fab) (width 0.1))
  (fp_line (start 37.5 3.7) (end 37.5 2.7) (layer F.Fab) (width 0.1))
  (fp_line (start 37.5 2.7) (end 33.5 2.7) (layer F.Fab) (width 0.1))
  (fp_line (start 33.5 2.7) (end 37.5 2.7) (layer F.SilkS) (width 0.12))
  (fp_line (start 33.5 3.7) (end 33.77 3.7) (layer F.SilkS) (width 0.12))
  (fp_line (start 36.23 3.7) (end 37.5 3.7) (layer F.SilkS) (width 0.12))
  (fp_line (start 33.5 2.7) (end 33.5 3.7) (layer F.SilkS) (width 0.12))
  (fp_line (start 37.5 2.7) (end 37.5 3.7) (layer F.SilkS) (width 0.12))
  (fp_line (start 35 -4.65) (end 35 -2.15) (layer F.Fab) (width 0.1))
  (fp_line (start 35 -2.15) (end 36 -2.15) (layer F.Fab) (width 0.1))
  (fp_line (start 36 -2.15) (end 36 -4.65) (layer F.Fab) (width 0.1))
  (fp_line (start 36 -4.65) (end 35 -4.65) (layer F.Fab) (width 0.1))
  (fp_line (start 35 -4.65) (end 36 -4.65) (layer F.SilkS) (width 0.12))
  (fp_line (start 35 -2.151) (end 36 -2.151) (layer F.SilkS) (width 0.12))
  (fp_line (start 35 -4.65) (end 35 -2.151) (layer F.SilkS) (width 0.12))
  (fp_line (start 36 -4.65) (end 36 -2.151) (layer F.SilkS) (width 0.12))
  (fp_line (start 38.5 4.4) (end 38.77 4.4) (layer F.SilkS) (width 0.12))
  (fp_line (start 41.23 4.4) (end 42.5 4.4) (layer F.SilkS) (width 0.12))
  (fp_line (start 38.5 7.7) (end 42.5 7.7) (layer F.SilkS) (width 0.12))
  (fp_line (start 38.5 4.4) (end 38.5 7.7) (layer F.SilkS) (width 0.12))
  (fp_line (start 42.5 4.4) (end 42.5 7.7) (layer F.SilkS) (width 0.12))
  (fp_line (start 38.5 4.4) (end 38.5 7.7) (layer F.Fab) (width 0.1))
  (fp_line (start 38.5 7.7) (end 42.5 7.7) (layer F.Fab) (width 0.1))
  (fp_line (start 42.5 7.7) (end 42.5 4.4) (layer F.Fab) (width 0.1))
  (fp_line (start 42.5 4.4) (end 38.5 4.4) (layer F.Fab) (width 0.1))
  (fp_line (start 38 -5) (end 38 9) (layer F.Fab) (width 0.1))
  (fp_line (start 38 9) (end 43 9) (layer F.Fab) (width 0.1))
  (fp_line (start 43 9) (end 43 -5) (layer F.Fab) (width 0.1))
  (fp_line (start 43 -5) (end 38 -5) (layer F.Fab) (width 0.1))
  (fp_line (start 38 -5) (end 43 -5) (layer F.SilkS) (width 0.12))
  (fp_line (start 38 9) (end 43 9) (layer F.SilkS) (width 0.12))
  (fp_line (start 38 -5) (end 38 9) (layer F.SilkS) (width 0.12))
  (fp_line (start 43 -5) (end 43 9) (layer F.SilkS) (width 0.12))
  (fp_line (start 38.5 2.7) (end 38.5 3.7) (layer F.Fab) (width 0.1))
  (fp_line (start 38.5 3.7) (end 42.5 3.7) (layer F.Fab) (width 0.1))
  (fp_line (start 42.5 3.7) (end 42.5 2.7) (layer F.Fab) (width 0.1))
  (fp_line (start 42.5 2.7) (end 38.5 2.7) (layer F.Fab) (width 0.1))
  (fp_line (start 38.5 2.7) (end 42.5 2.7) (layer F.SilkS) (width 0.12))
  (fp_line (start 38.5 3.7) (end 38.77 3.7) (layer F.SilkS) (width 0.12))
  (fp_line (start 41.23 3.7) (end 42.5 3.7) (layer F.SilkS) (width 0.12))
  (fp_line (start 38.5 2.7) (end 38.5 3.7) (layer F.SilkS) (width 0.12))
  (fp_line (start 42.5 2.7) (end 42.5 3.7) (layer F.SilkS) (width 0.12))
  (fp_line (start 40 -4.65) (end 40 -2.15) (layer F.Fab) (width 0.1))
  (fp_line (start 40 -2.15) (end 41 -2.15) (layer F.Fab) (width 0.1))
  (fp_line (start 41 -2.15) (end 41 -4.65) (layer F.Fab) (width 0.1))
  (fp_line (start 41 -4.65) (end 40 -4.65) (layer F.Fab) (width 0.1))
  (fp_line (start 40 -4.65) (end 41 -4.65) (layer F.SilkS) (width 0.12))
  (fp_line (start 40 -2.151) (end 41 -2.151) (layer F.SilkS) (width 0.12))
  (fp_line (start 40 -4.65) (end 40 -2.151) (layer F.SilkS) (width 0.12))
  (fp_line (start 41 -4.65) (end 41 -2.151) (layer F.SilkS) (width 0.12))
  (fp_line (start 43.5 4.4) (end 43.77 4.4) (layer F.SilkS) (width 0.12))
  (fp_line (start 46.23 4.4) (end 47.5 4.4) (layer F.SilkS) (width 0.12))
  (fp_line (start 43.5 7.7) (end 47.5 7.7) (layer F.SilkS) (width 0.12))
  (fp_line (start 43.5 4.4) (end 43.5 7.7) (layer F.SilkS) (width 0.12))
  (fp_line (start 47.5 4.4) (end 47.5 7.7) (layer F.SilkS) (width 0.12))
  (fp_line (start 43.5 4.4) (end 43.5 7.7) (layer F.Fab) (width 0.1))
  (fp_line (start 43.5 7.7) (end 47.5 7.7) (layer F.Fab) (width 0.1))
  (fp_line (start 47.5 7.7) (end 47.5 4.4) (layer F.Fab) (width 0.1))
  (fp_line (start 47.5 4.4) (end 43.5 4.4) (layer F.Fab) (width 0.1))
  (fp_line (start 43 -5) (end 43 9) (layer F.Fab) (width 0.1))
  (fp_line (start 43 9) (end 48 9) (layer F.Fab) (width 0.1))
  (fp_line (start 48 9) (end 48 -5) (layer F.Fab) (width 0.1))
  (fp_line (start 48 -5) (end 43 -5) (layer F.Fab) (width 0.1))
  (fp_line (start 43 -5) (end 48 -5) (layer F.SilkS) (width 0.12))
  (fp_line (start 43 9) (end 48 9) (layer F.SilkS) (width 0.12))
  (fp_line (start 43 -5) (end 43 9) (layer F.SilkS) (width 0.12))
  (fp_line (start 48 -5) (end 48 9) (layer F.SilkS) (width 0.12))
  (fp_line (start 43.5 2.7) (end 43.5 3.7) (layer F.Fab) (width 0.1))
  (fp_line (start 43.5 3.7) (end 47.5 3.7) (layer F.Fab) (width 0.1))
  (fp_line (start 47.5 3.7) (end 47.5 2.7) (layer F.Fab) (width 0.1))
  (fp_line (start 47.5 2.7) (end 43.5 2.7) (layer F.Fab) (width 0.1))
  (fp_line (start 43.5 2.7) (end 47.5 2.7) (layer F.SilkS) (width 0.12))
  (fp_line (start 43.5 3.7) (end 43.77 3.7) (layer F.SilkS) (width 0.12))
  (fp_line (start 46.23 3.7) (end 47.5 3.7) (layer F.SilkS) (width 0.12))
  (fp_line (start 43.5 2.7) (end 43.5 3.7) (layer F.SilkS) (width 0.12))
  (fp_line (start 47.5 2.7) (end 47.5 3.7) (layer F.SilkS) (width 0.12))
  (fp_line (start 45 -4.65) (end 45 -2.15) (layer F.Fab) (width 0.1))
  (fp_line (start 45 -2.15) (end 46 -2.15) (layer F.Fab) (width 0.1))
  (fp_line (start 46 -2.15) (end 46 -4.65) (layer F.Fab) (width 0.1))
  (fp_line (start 46 -4.65) (end 45 -4.65) (layer F.Fab) (width 0.1))
  (fp_line (start 45 -4.65) (end 46 -4.65) (layer F.SilkS) (width 0.12))
  (fp_line (start 45 -2.151) (end 46 -2.151) (layer F.SilkS) (width 0.12))
  (fp_line (start 45 -4.65) (end 45 -2.151) (layer F.SilkS) (width 0.12))
  (fp_line (start 46 -4.65) (end 46 -2.151) (layer F.SilkS) (width 0.12))
  (fp_line (start 48.5 4.4) (end 48.77 4.4) (layer F.SilkS) (width 0.12))
  (fp_line (start 51.23 4.4) (end 52.5 4.4) (layer F.SilkS) (width 0.12))
  (fp_line (start 48.5 7.7) (end 52.5 7.7) (layer F.SilkS) (width 0.12))
  (fp_line (start 48.5 4.4) (end 48.5 7.7) (layer F.SilkS) (width 0.12))
  (fp_line (start 52.5 4.4) (end 52.5 7.7) (layer F.SilkS) (width 0.12))
  (fp_line (start 48.5 4.4) (end 48.5 7.7) (layer F.Fab) (width 0.1))
  (fp_line (start 48.5 7.7) (end 52.5 7.7) (layer F.Fab) (width 0.1))
  (fp_line (start 52.5 7.7) (end 52.5 4.4) (layer F.Fab) (width 0.1))
  (fp_line (start 52.5 4.4) (end 48.5 4.4) (layer F.Fab) (width 0.1))
  (fp_line (start 48 -5) (end 48 9) (layer F.Fab) (width 0.1))
  (fp_line (start 48 9) (end 53 9) (layer F.Fab) (width 0.1))
  (fp_line (start 53 9) (end 53 -5) (layer F.Fab) (width 0.1))
  (fp_line (start 53 -5) (end 48 -5) (layer F.Fab) (width 0.1))
  (fp_line (start 48 -5) (end 53 -5) (layer F.SilkS) (width 0.12))
  (fp_line (start 48 9) (end 53 9) (layer F.SilkS) (width 0.12))
  (fp_line (start 48 -5) (end 48 9) (layer F.SilkS) (width 0.12))
  (fp_line (start 53 -5) (end 53 9) (layer F.SilkS) (width 0.12))
  (fp_line (start 48.5 2.7) (end 48.5 3.7) (layer F.Fab) (width 0.1))
  (fp_line (start 48.5 3.7) (end 52.5 3.7) (layer F.Fab) (width 0.1))
  (fp_line (start 52.5 3.7) (end 52.5 2.7) (layer F.Fab) (width 0.1))
  (fp_line (start 52.5 2.7) (end 48.5 2.7) (layer F.Fab) (width 0.1))
  (fp_line (start 48.5 2.7) (end 52.5 2.7) (layer F.SilkS) (width 0.12))
  (fp_line (start 48.5 3.7) (end 48.77 3.7) (layer F.SilkS) (width 0.12))
  (fp_line (start 51.23 3.7) (end 52.5 3.7) (layer F.SilkS) (width 0.12))
  (fp_line (start 48.5 2.7) (end 48.5 3.7) (layer F.SilkS) (width 0.12))
  (fp_line (start 52.5 2.7) (end 52.5 3.7) (layer F.SilkS) (width 0.12))
  (fp_line (start 50 -4.65) (end 50 -2.15) (layer F.Fab) (width 0.1))
  (fp_line (start 50 -2.15) (end 51 -2.15) (layer F.Fab) (width 0.1))
  (fp_line (start 51 -2.15) (end 51 -4.65) (layer F.Fab) (width 0.1))
  (fp_line (start 51 -4.65) (end 50 -4.65) (layer F.Fab) (width 0.1))
  (fp_line (start 50 -4.65) (end 51 -4.65) (layer F.SilkS) (width 0.12))
  (fp_line (start 50 -2.151) (end 51 -2.151) (layer F.SilkS) (width 0.12))
  (fp_line (start 50 -4.65) (end 50 -2.151) (layer F.SilkS) (width 0.12))
  (fp_line (start 51 -4.65) (end 51 -2.151) (layer F.SilkS) (width 0.12))
  (fp_line (start 53.5 4.4) (end 53.77 4.4) (layer F.SilkS) (width 0.12))
  (fp_line (start 56.23 4.4) (end 57.5 4.4) (layer F.SilkS) (width 0.12))
  (fp_line (start 53.5 7.7) (end 57.5 7.7) (layer F.SilkS) (width 0.12))
  (fp_line (start 53.5 4.4) (end 53.5 7.7) (layer F.SilkS) (width 0.12))
  (fp_line (start 57.5 4.4) (end 57.5 7.7) (layer F.SilkS) (width 0.12))
  (fp_line (start 53.5 4.4) (end 53.5 7.7) (layer F.Fab) (width 0.1))
  (fp_line (start 53.5 7.7) (end 57.5 7.7) (layer F.Fab) (width 0.1))
  (fp_line (start 57.5 7.7) (end 57.5 4.4) (layer F.Fab) (width 0.1))
  (fp_line (start 57.5 4.4) (end 53.5 4.4) (layer F.Fab) (width 0.1))
  (fp_line (start 53 -5) (end 53 9) (layer F.Fab) (width 0.1))
  (fp_line (start 53 9) (end 58 9) (layer F.Fab) (width 0.1))
  (fp_line (start 58 9) (end 58 -5) (layer F.Fab) (width 0.1))
  (fp_line (start 58 -5) (end 53 -5) (layer F.Fab) (width 0.1))
  (fp_line (start 53 -5) (end 58 -5) (layer F.SilkS) (width 0.12))
  (fp_line (start 53 9) (end 58 9) (layer F.SilkS) (width 0.12))
  (fp_line (start 53 -5) (end 53 9) (layer F.SilkS) (width 0.12))
  (fp_line (start 58 -5) (end 58 9) (layer F.SilkS) (width 0.12))
  (fp_line (start 53.5 2.7) (end 53.5 3.7) (layer F.Fab) (width 0.1))
  (fp_line (start 53.5 3.7) (end 57.5 3.7) (layer F.Fab) (width 0.1))
  (fp_line (start 57.5 3.7) (end 57.5 2.7) (layer F.Fab) (width 0.1))
  (fp_line (start 57.5 2.7) (end 53.5 2.7) (layer F.Fab) (width 0.1))
  (fp_line (start 53.5 2.7) (end 57.5 2.7) (layer F.SilkS) (width 0.12))
  (fp_line (start 53.5 3.7) (end 53.77 3.7) (layer F.SilkS) (width 0.12))
  (fp_line (start 56.23 3.7) (end 57.5 3.7) (layer F.SilkS) (width 0.12))
  (fp_line (start 53.5 2.7) (end 53.5 3.7) (layer F.SilkS) (width 0.12))
  (fp_line (start 57.5 2.7) (end 57.5 3.7) (layer F.SilkS) (width 0.12))
  (fp_line (start 55 -4.65) (end 55 -2.15) (layer F.Fab) (width 0.1))
  (fp_line (start 55 -2.15) (end 56 -2.15) (layer F.Fab) (width 0.1))
  (fp_line (start 56 -2.15) (end 56 -4.65) (layer F.Fab) (width 0.1))
  (fp_line (start 56 -4.65) (end 55 -4.65) (layer F.Fab) (width 0.1))
  (fp_line (start 55 -4.65) (end 56 -4.65) (layer F.SilkS) (width 0.12))
  (fp_line (start 55 -2.151) (end 56 -2.151) (layer F.SilkS) (width 0.12))
  (fp_line (start 55 -4.65) (end 55 -2.151) (layer F.SilkS) (width 0.12))
  (fp_line (start 56 -4.65) (end 56 -2.151) (layer F.SilkS) (width 0.12))
  (fp_line (start 58.5 4.4) (end 58.77 4.4) (layer F.SilkS) (width 0.12))
  (fp_line (start 61.23 4.4) (end 62.5 4.4) (layer F.SilkS) (width 0.12))
  (fp_line (start 58.5 7.7) (end 62.5 7.7) (layer F.SilkS) (width 0.12))
  (fp_line (start 58.5 4.4) (end 58.5 7.7) (layer F.SilkS) (width 0.12))
  (fp_line (start 62.5 4.4) (end 62.5 7.7) (layer F.SilkS) (width 0.12))
  (fp_line (start 58.5 4.4) (end 58.5 7.7) (layer F.Fab) (width 0.1))
  (fp_line (start 58.5 7.7) (end 62.5 7.7) (layer F.Fab) (width 0.1))
  (fp_line (start 62.5 7.7) (end 62.5 4.4) (layer F.Fab) (width 0.1))
  (fp_line (start 62.5 4.4) (end 58.5 4.4) (layer F.Fab) (width 0.1))
  (fp_line (start 58 -5) (end 58 9) (layer F.Fab) (width 0.1))
  (fp_line (start 58 9) (end 63 9) (layer F.Fab) (width 0.1))
  (fp_line (start 63 9) (end 63 -5) (layer F.Fab) (width 0.1))
  (fp_line (start 63 -5) (end 58 -5) (layer F.Fab) (width 0.1))
  (fp_line (start 58 -5) (end 63 -5) (layer F.SilkS) (width 0.12))
  (fp_line (start 58 9) (end 63 9) (layer F.SilkS) (width 0.12))
  (fp_line (start 58 -5) (end 58 9) (layer F.SilkS) (width 0.12))
  (fp_line (start 63 -5) (end 63 9) (layer F.SilkS) (width 0.12))
  (fp_line (start 58.5 2.7) (end 58.5 3.7) (layer F.Fab) (width 0.1))
  (fp_line (start 58.5 3.7) (end 62.5 3.7) (layer F.Fab) (width 0.1))
  (fp_line (start 62.5 3.7) (end 62.5 2.7) (layer F.Fab) (width 0.1))
  (fp_line (start 62.5 2.7) (end 58.5 2.7) (layer F.Fab) (width 0.1))
  (fp_line (start 58.5 2.7) (end 62.5 2.7) (layer F.SilkS) (width 0.12))
  (fp_line (start 58.5 3.7) (end 58.77 3.7) (layer F.SilkS) (width 0.12))
  (fp_line (start 61.23 3.7) (end 62.5 3.7) (layer F.SilkS) (width 0.12))
  (fp_line (start 58.5 2.7) (end 58.5 3.7) (layer F.SilkS) (width 0.12))
  (fp_line (start 62.5 2.7) (end 62.5 3.7) (layer F.SilkS) (width 0.12))
  (fp_line (start 60 -4.65) (end 60 -2.15) (layer F.Fab) (width 0.1))
  (fp_line (start 60 -2.15) (end 61 -2.15) (layer F.Fab) (width 0.1))
  (fp_line (start 61 -2.15) (end 61 -4.65) (layer F.Fab) (width 0.1))
  (fp_line (start 61 -4.65) (end 60 -4.65) (layer F.Fab) (width 0.1))
  (fp_line (start 60 -4.65) (end 61 -4.65) (layer F.SilkS) (width 0.12))
  (fp_line (start 60 -2.151) (end 61 -2.151) (layer F.SilkS) (width 0.12))
  (fp_line (start 60 -4.65) (end 60 -2.151) (layer F.SilkS) (width 0.12))
  (fp_line (start 61 -4.65) (end 61 -2.151) (layer F.SilkS) (width 0.12))
  (fp_line (start 63.5 4.4) (end 63.77 4.4) (layer F.SilkS) (width 0.12))
  (fp_line (start 66.23 4.4) (end 67.5 4.4) (layer F.SilkS) (width 0.12))
  (fp_line (start 63.5 7.7) (end 67.5 7.7) (layer F.SilkS) (width 0.12))
  (fp_line (start 63.5 4.4) (end 63.5 7.7) (layer F.SilkS) (width 0.12))
  (fp_line (start 67.5 4.4) (end 67.5 7.7) (layer F.SilkS) (width 0.12))
  (fp_line (start 63.5 4.4) (end 63.5 7.7) (layer F.Fab) (width 0.1))
  (fp_line (start 63.5 7.7) (end 67.5 7.7) (layer F.Fab) (width 0.1))
  (fp_line (start 67.5 7.7) (end 67.5 4.4) (layer F.Fab) (width 0.1))
  (fp_line (start 67.5 4.4) (end 63.5 4.4) (layer F.Fab) (width 0.1))
  (fp_line (start 63 -5) (end 63 9) (layer F.Fab) (width 0.1))
  (fp_line (start 63 9) (end 68 9) (layer F.Fab) (width 0.1))
  (fp_line (start 68 9) (end 68 -5) (layer F.Fab) (width 0.1))
  (fp_line (start 68 -5) (end 63 -5) (layer F.Fab) (width 0.1))
  (fp_line (start 63 -5) (end 68 -5) (layer F.SilkS) (width 0.12))
  (fp_line (start 63 9) (end 68 9) (layer F.SilkS) (width 0.12))
  (fp_line (start 63 -5) (end 63 9) (layer F.SilkS) (width 0.12))
  (fp_line (start 68 -5) (end 68 9) (layer F.SilkS) (width 0.12))
  (fp_line (start 63.5 2.7) (end 63.5 3.7) (layer F.Fab) (width 0.1))
  (fp_line (start 63.5 3.7) (end 67.5 3.7) (layer F.Fab) (width 0.1))
  (fp_line (start 67.5 3.7) (end 67.5 2.7) (layer F.Fab) (width 0.1))
  (fp_line (start 67.5 2.7) (end 63.5 2.7) (layer F.Fab) (width 0.1))
  (fp_line (start 63.5 2.7) (end 67.5 2.7) (layer F.SilkS) (width 0.12))
  (fp_line (start 63.5 3.7) (end 63.77 3.7) (layer F.SilkS) (width 0.12))
  (fp_line (start 66.23 3.7) (end 67.5 3.7) (layer F.SilkS) (width 0.12))
  (fp_line (start 63.5 2.7) (end 63.5 3.7) (layer F.SilkS) (width 0.12))
  (fp_line (start 67.5 2.7) (end 67.5 3.7) (layer F.SilkS) (width 0.12))
  (fp_line (start 65 -4.65) (end 65 -2.15) (layer F.Fab) (width 0.1))
  (fp_line (start 65 -2.15) (end 66 -2.15) (layer F.Fab) (width 0.1))
  (fp_line (start 66 -2.15) (end 66 -4.65) (layer F.Fab) (width 0.1))
  (fp_line (start 66 -4.65) (end 65 -4.65) (layer F.Fab) (width 0.1))
  (fp_line (start 65 -4.65) (end 66 -4.65) (layer F.SilkS) (width 0.12))
  (fp_line (start 65 -2.151) (end 66 -2.151) (layer F.SilkS) (width 0.12))
  (fp_line (start 65 -4.65) (end 65 -2.151) (layer F.SilkS) (width 0.12))
  (fp_line (start 66 -4.65) (end 66 -2.151) (layer F.SilkS) (width 0.12))
  (fp_line (start -3.86 8.12) (end -3.86 9.36) (layer F.SilkS) (width 0.12))
  (fp_line (start -3.86 9.36) (end -2.86 9.36) (layer F.SilkS) (width 0.12))
  (fp_line (start -4 -5.5) (end -4 9.5) (layer F.CrtYd) (width 0.05))
  (fp_line (start -4 9.5) (end 69.3 9.5) (layer F.CrtYd) (width 0.05))
  (fp_line (start 69.3 9.5) (end 69.3 -5.5) (layer F.CrtYd) (width 0.05))
  (fp_line (start 69.3 -5.5) (end -4 -5.5) (layer F.CrtYd) (width 0.05))
  (pad 1 thru_hole rect (at 0 0) (size 1.5 3) (drill 1.15) (layers *.Cu *.Mask))
  (pad 1 thru_hole rect (at 0 5) (size 1.5 3) (drill 1.15) (layers *.Cu *.Mask))
  (pad 2 thru_hole oval (at 5 0) (size 1.5 3) (drill 1.15) (layers *.Cu *.Mask))
  (pad 2 thru_hole oval (at 5 5) (size 1.5 3) (drill 1.15) (layers *.Cu *.Mask))
  (pad 3 thru_hole oval (at 10 0) (size 1.5 3) (drill 1.15) (layers *.Cu *.Mask))
  (pad 3 thru_hole oval (at 10 5) (size 1.5 3) (drill 1.15) (layers *.Cu *.Mask))
  (pad 4 thru_hole oval (at 15 0) (size 1.5 3) (drill 1.15) (layers *.Cu *.Mask))
  (pad 4 thru_hole oval (at 15 5) (size 1.5 3) (drill 1.15) (layers *.Cu *.Mask))
  (pad 5 thru_hole oval (at 20 0) (size 1.5 3) (drill 1.15) (layers *.Cu *.Mask))
  (pad 5 thru_hole oval (at 20 5) (size 1.5 3) (drill 1.15) (layers *.Cu *.Mask))
  (pad 6 thru_hole oval (at 25 0) (size 1.5 3) (drill 1.15) (layers *.Cu *.Mask))
  (pad 6 thru_hole oval (at 25 5) (size 1.5 3) (drill 1.15) (layers *.Cu *.Mask))
  (pad 7 thru_hole oval (at 30 0) (size 1.5 3) (drill 1.15) (layers *.Cu *.Mask))
  (pad 7 thru_hole oval (at 30 5) (size 1.5 3) (drill 1.15) (layers *.Cu *.Mask))
  (pad 8 thru_hole oval (at 35 0) (size 1.5 3) (drill 1.15) (layers *.Cu *.Mask))
  (pad 8 thru_hole oval (at 35 5) (size 1.5 3) (drill 1.15) (layers *.Cu *.Mask))
  (pad 9 thru_hole oval (at 40 0) (size 1.5 3) (drill 1.15) (layers *.Cu *.Mask))
  (pad 9 thru_hole oval (at 40 5) (size 1.5 3) (drill 1.15) (layers *.Cu *.Mask))
  (pad 10 thru_hole oval (at 45 0) (size 1.5 3) (drill 1.15) (layers *.Cu *.Mask))
  (pad 10 thru_hole oval (at 45 5) (size 1.5 3) (drill 1.15) (layers *.Cu *.Mask))
  (pad 11 thru_hole oval (at 50 0) (size 1.5 3) (drill 1.15) (layers *.Cu *.Mask))
  (pad 11 thru_hole oval (at 50 5) (size 1.5 3) (drill 1.15) (layers *.Cu *.Mask))
  (pad 12 thru_hole oval (at 55 0) (size 1.5 3) (drill 1.15) (layers *.Cu *.Mask))
  (pad 12 thru_hole oval (at 55 5) (size 1.5 3) (drill 1.15) (layers *.Cu *.Mask))
  (pad 13 thru_hole oval (at 60 0) (size 1.5 3) (drill 1.15) (layers *.Cu *.Mask))
  (pad 13 thru_hole oval (at 60 5) (size 1.5 3) (drill 1.15) (layers *.Cu *.Mask))
  (pad 14 thru_hole oval (at 65 0) (size 1.5 3) (drill 1.15) (layers *.Cu *.Mask))
  (pad 14 thru_hole oval (at 65 5) (size 1.5 3) (drill 1.15) (layers *.Cu *.Mask))
  (fp_text user %R (at 32.65 1) (layer F.Fab)
    (effects (font (size 1 1) (thickness 0.15)))
  )
  (model ${KICAD6_3DMODEL_DIR}/TerminalBlock_WAGO.3dshapes/TerminalBlock_WAGO_236-414_1x14_P5.00mm_45Degree.wrl
    (at (xyz 0 0 0))
    (scale (xyz 1 1 1))
    (rotate (xyz 0 0 0))
  )
)