(module TerminalBlock_WAGO_236-524_1x24_P7.50mm_45Degree (layer F.Cu) (tedit 5F817316)
  (descr "Terminal Block WAGO 236-524, 45Degree (cable under 45degree), 24 pins, pitch 7.5mm, size 182x14mm^2, drill diamater 1.15mm, pad diameter 3mm, see , script-generated with , script-generated using https://github.com/pointhi/kicad-footprint-generator/scripts/TerminalBlock_WAGO")
  (tags "THT Terminal Block WAGO 236-524 45Degree pitch 7.5mm size 182x14mm^2 drill 1.15mm pad 3mm")
  (fp_text reference REF** (at 87.65 -6.12) (layer F.SilkS)
    (effects (font (size 1 1) (thickness 0.15)))
  )
  (fp_text value TerminalBlock_WAGO_236-524_1x24_P7.50mm_45Degree (at 87.65 10.12) (layer F.Fab)
    (effects (font (size 1 1) (thickness 0.15)))
  )
  (fp_line (start -3.5 -5) (end 178.8 -5) (layer F.Fab) (width 0.1))
  (fp_line (start 178.8 -5) (end 178.8 9) (layer F.Fab) (width 0.1))
  (fp_line (start 178.8 9) (end -2.5 9) (layer F.Fab) (width 0.1))
  (fp_line (start -2.5 9) (end -3.5 8) (layer F.Fab) (width 0.1))
  (fp_line (start -3.5 8) (end -3.5 -5) (layer F.Fab) (width 0.1))
  (fp_line (start -3.5 8) (end 178.8 8) (layer F.Fab) (width 0.1))
  (fp_line (start -3.62 8) (end 178.92 8) (layer F.SilkS) (width 0.12))
  (fp_line (start -3.5 2.3) (end 178.8 2.3) (layer F.Fab) (width 0.1))
  (fp_line (start -3.62 2.3) (end 178.92 2.3) (layer F.SilkS) (width 0.12))
  (fp_line (start -3.5 -0.5) (end 178.8 -0.5) (layer F.Fab) (width 0.1))
  (fp_line (start -3.62 -0.5) (end -1.23 -0.5) (layer F.SilkS) (width 0.12))
  (fp_line (start 1.23 -0.5) (end 6.27 -0.5) (layer F.SilkS) (width 0.12))
  (fp_line (start 8.73 -0.5) (end 13.77 -0.5) (layer F.SilkS) (width 0.12))
  (fp_line (start 16.23 -0.5) (end 21.27 -0.5) (layer F.SilkS) (width 0.12))
  (fp_line (start 23.73 -0.5) (end 28.77 -0.5) (layer F.SilkS) (width 0.12))
  (fp_line (start 31.23 -0.5) (end 36.27 -0.5) (layer F.SilkS) (width 0.12))
  (fp_line (start 38.73 -0.5) (end 43.77 -0.5) (layer F.SilkS) (width 0.12))
  (fp_line (start 46.23 -0.5) (end 51.27 -0.5) (layer F.SilkS) (width 0.12))
  (fp_line (start 53.73 -0.5) (end 58.77 -0.5) (layer F.SilkS) (width 0.12))
  (fp_line (start 61.23 -0.5) (end 66.27 -0.5) (layer F.SilkS) (width 0.12))
  (fp_line (start 68.73 -0.5) (end 73.77 -0.5) (layer F.SilkS) (width 0.12))
  (fp_line (start 76.23 -0.5) (end 81.27 -0.5) (layer F.SilkS) (width 0.12))
  (fp_line (start 83.73 -0.5) (end 88.77 -0.5) (layer F.SilkS) (width 0.12))
  (fp_line (start 91.23 -0.5) (end 96.27 -0.5) (layer F.SilkS) (width 0.12))
  (fp_line (start 98.73 -0.5) (end 103.77 -0.5) (layer F.SilkS) (width 0.12))
  (fp_line (start 106.23 -0.5) (end 111.27 -0.5) (layer F.SilkS) (width 0.12))
  (fp_line (start 113.73 -0.5) (end 118.77 -0.5) (layer F.SilkS) (width 0.12))
  (fp_line (start 121.23 -0.5) (end 126.27 -0.5) (layer F.SilkS) (width 0.12))
  (fp_line (start 128.73 -0.5) (end 133.77 -0.5) (layer F.SilkS) (width 0.12))
  (fp_line (start 136.23 -0.5) (end 141.27 -0.5) (layer F.SilkS) (width 0.12))
  (fp_line (start 143.73 -0.5) (end 148.77 -0.5) (layer F.SilkS) (width 0.12))
  (fp_line (start 151.23 -0.5) (end 156.27 -0.5) (layer F.SilkS) (width 0.12))
  (fp_line (start 158.73 -0.5) (end 163.77 -0.5) (layer F.SilkS) (width 0.12))
  (fp_line (start 166.23 -0.5) (end 171.27 -0.5) (layer F.SilkS) (width 0.12))
  (fp_line (start 173.73 -0.5) (end 178.92 -0.5) (layer F.SilkS) (width 0.12))
  (fp_line (start -3.62 -5.12) (end 178.92 -5.12) (layer F.SilkS) (width 0.12))
  (fp_line (start -3.62 9.12) (end 178.92 9.12) (layer F.SilkS) (width 0.12))
  (fp_line (start -3.62 -5.12) (end -3.62 9.12) (layer F.SilkS) (width 0.12))
  (fp_line (start 178.92 -5.12) (end 178.92 9.12) (layer F.SilkS) (width 0.12))
  (fp_line (start -1.5 4.4) (end -1.23 4.4) (layer F.SilkS) (width 0.12))
  (fp_line (start 1.23 4.4) (end 2.5 4.4) (layer F.SilkS) (width 0.12))
  (fp_line (start -1.5 7.7) (end 2.5 7.7) (layer F.SilkS) (width 0.12))
  (fp_line (start -1.5 4.4) (end -1.5 7.7) (layer F.SilkS) (width 0.12))
  (fp_line (start 2.5 4.4) (end 2.5 7.7) (layer F.SilkS) (width 0.12))
  (fp_line (start -1.5 4.4) (end -1.5 7.7) (layer F.Fab) (width 0.1))
  (fp_line (start -1.5 7.7) (end 2.5 7.7) (layer F.Fab) (width 0.1))
  (fp_line (start 2.5 7.7) (end 2.5 4.4) (layer F.Fab) (width 0.1))
  (fp_line (start 2.5 4.4) (end -1.5 4.4) (layer F.Fab) (width 0.1))
  (fp_line (start -2 -5) (end -2 9) (layer F.Fab) (width 0.1))
  (fp_line (start -2 9) (end 5.5 9) (layer F.Fab) (width 0.1))
  (fp_line (start 5.5 9) (end 5.5 -5) (layer F.Fab) (width 0.1))
  (fp_line (start 5.5 -5) (end -2 -5) (layer F.Fab) (width 0.1))
  (fp_line (start -2 -5) (end 5.5 -5) (layer F.SilkS) (width 0.12))
  (fp_line (start -2 9) (end 5.5 9) (layer F.SilkS) (width 0.12))
  (fp_line (start -2 -5) (end -2 9) (layer F.SilkS) (width 0.12))
  (fp_line (start 5.5 -5) (end 5.5 9) (layer F.SilkS) (width 0.12))
  (fp_line (start -1.5 2.7) (end -1.5 3.7) (layer F.Fab) (width 0.1))
  (fp_line (start -1.5 3.7) (end 2.5 3.7) (layer F.Fab) (width 0.1))
  (fp_line (start 2.5 3.7) (end 2.5 2.7) (layer F.Fab) (width 0.1))
  (fp_line (start 2.5 2.7) (end -1.5 2.7) (layer F.Fab) (width 0.1))
  (fp_line (start -1.5 2.7) (end 2.5 2.7) (layer F.SilkS) (width 0.12))
  (fp_line (start -1.5 3.7) (end -1.23 3.7) (layer F.SilkS) (width 0.12))
  (fp_line (start 1.23 3.7) (end 2.5 3.7) (layer F.SilkS) (width 0.12))
  (fp_line (start -1.5 2.7) (end -1.5 3.7) (layer F.SilkS) (width 0.12))
  (fp_line (start 2.5 2.7) (end 2.5 3.7) (layer F.SilkS) (width 0.12))
  (fp_line (start 0 -4.65) (end 0 -2.15) (layer F.Fab) (width 0.1))
  (fp_line (start 0 -2.15) (end 1 -2.15) (layer F.Fab) (width 0.1))
  (fp_line (start 1 -2.15) (end 1 -4.65) (layer F.Fab) (width 0.1))
  (fp_line (start 1 -4.65) (end 0 -4.65) (layer F.Fab) (width 0.1))
  (fp_line (start 0 -4.65) (end 1 -4.65) (layer F.SilkS) (width 0.12))
  (fp_line (start 0 -2.151) (end 1 -2.151) (layer F.SilkS) (width 0.12))
  (fp_line (start 0 -4.65) (end 0 -2.151) (layer F.SilkS) (width 0.12))
  (fp_line (start 1 -4.65) (end 1 -2.151) (layer F.SilkS) (width 0.12))
  (fp_line (start 6 4.4) (end 6.27 4.4) (layer F.SilkS) (width 0.12))
  (fp_line (start 8.73 4.4) (end 10 4.4) (layer F.SilkS) (width 0.12))
  (fp_line (start 6 7.7) (end 10 7.7) (layer F.SilkS) (width 0.12))
  (fp_line (start 6 4.4) (end 6 7.7) (layer F.SilkS) (width 0.12))
  (fp_line (start 10 4.4) (end 10 7.7) (layer F.SilkS) (width 0.12))
  (fp_line (start 6 4.4) (end 6 7.7) (layer F.Fab) (width 0.1))
  (fp_line (start 6 7.7) (end 10 7.7) (layer F.Fab) (width 0.1))
  (fp_line (start 10 7.7) (end 10 4.4) (layer F.Fab) (width 0.1))
  (fp_line (start 10 4.4) (end 6 4.4) (layer F.Fab) (width 0.1))
  (fp_line (start 5.5 -5) (end 5.5 9) (layer F.Fab) (width 0.1))
  (fp_line (start 5.5 9) (end 13 9) (layer F.Fab) (width 0.1))
  (fp_line (start 13 9) (end 13 -5) (layer F.Fab) (width 0.1))
  (fp_line (start 13 -5) (end 5.5 -5) (layer F.Fab) (width 0.1))
  (fp_line (start 5.5 -5) (end 13 -5) (layer F.SilkS) (width 0.12))
  (fp_line (start 5.5 9) (end 13 9) (layer F.SilkS) (width 0.12))
  (fp_line (start 5.5 -5) (end 5.5 9) (layer F.SilkS) (width 0.12))
  (fp_line (start 13 -5) (end 13 9) (layer F.SilkS) (width 0.12))
  (fp_line (start 6 2.7) (end 6 3.7) (layer F.Fab) (width 0.1))
  (fp_line (start 6 3.7) (end 10 3.7) (layer F.Fab) (width 0.1))
  (fp_line (start 10 3.7) (end 10 2.7) (layer F.Fab) (width 0.1))
  (fp_line (start 10 2.7) (end 6 2.7) (layer F.Fab) (width 0.1))
  (fp_line (start 6 2.7) (end 10 2.7) (layer F.SilkS) (width 0.12))
  (fp_line (start 6 3.7) (end 6.27 3.7) (layer F.SilkS) (width 0.12))
  (fp_line (start 8.73 3.7) (end 10 3.7) (layer F.SilkS) (width 0.12))
  (fp_line (start 6 2.7) (end 6 3.7) (layer F.SilkS) (width 0.12))
  (fp_line (start 10 2.7) (end 10 3.7) (layer F.SilkS) (width 0.12))
  (fp_line (start 7.5 -4.65) (end 7.5 -2.15) (layer F.Fab) (width 0.1))
  (fp_line (start 7.5 -2.15) (end 8.5 -2.15) (layer F.Fab) (width 0.1))
  (fp_line (start 8.5 -2.15) (end 8.5 -4.65) (layer F.Fab) (width 0.1))
  (fp_line (start 8.5 -4.65) (end 7.5 -4.65) (layer F.Fab) (width 0.1))
  (fp_line (start 7.5 -4.65) (end 8.5 -4.65) (layer F.SilkS) (width 0.12))
  (fp_line (start 7.5 -2.151) (end 8.5 -2.151) (layer F.SilkS) (width 0.12))
  (fp_line (start 7.5 -4.65) (end 7.5 -2.151) (layer F.SilkS) (width 0.12))
  (fp_line (start 8.5 -4.65) (end 8.5 -2.151) (layer F.SilkS) (width 0.12))
  (fp_line (start 13.5 4.4) (end 13.77 4.4) (layer F.SilkS) (width 0.12))
  (fp_line (start 16.23 4.4) (end 17.5 4.4) (layer F.SilkS) (width 0.12))
  (fp_line (start 13.5 7.7) (end 17.5 7.7) (layer F.SilkS) (width 0.12))
  (fp_line (start 13.5 4.4) (end 13.5 7.7) (layer F.SilkS) (width 0.12))
  (fp_line (start 17.5 4.4) (end 17.5 7.7) (layer F.SilkS) (width 0.12))
  (fp_line (start 13.5 4.4) (end 13.5 7.7) (layer F.Fab) (width 0.1))
  (fp_line (start 13.5 7.7) (end 17.5 7.7) (layer F.Fab) (width 0.1))
  (fp_line (start 17.5 7.7) (end 17.5 4.4) (layer F.Fab) (width 0.1))
  (fp_line (start 17.5 4.4) (end 13.5 4.4) (layer F.Fab) (width 0.1))
  (fp_line (start 13 -5) (end 13 9) (layer F.Fab) (width 0.1))
  (fp_line (start 13 9) (end 20.5 9) (layer F.Fab) (width 0.1))
  (fp_line (start 20.5 9) (end 20.5 -5) (layer F.Fab) (width 0.1))
  (fp_line (start 20.5 -5) (end 13 -5) (layer F.Fab) (width 0.1))
  (fp_line (start 13 -5) (end 20.5 -5) (layer F.SilkS) (width 0.12))
  (fp_line (start 13 9) (end 20.5 9) (layer F.SilkS) (width 0.12))
  (fp_line (start 13 -5) (end 13 9) (layer F.SilkS) (width 0.12))
  (fp_line (start 20.5 -5) (end 20.5 9) (layer F.SilkS) (width 0.12))
  (fp_line (start 13.5 2.7) (end 13.5 3.7) (layer F.Fab) (width 0.1))
  (fp_line (start 13.5 3.7) (end 17.5 3.7) (layer F.Fab) (width 0.1))
  (fp_line (start 17.5 3.7) (end 17.5 2.7) (layer F.Fab) (width 0.1))
  (fp_line (start 17.5 2.7) (end 13.5 2.7) (layer F.Fab) (width 0.1))
  (fp_line (start 13.5 2.7) (end 17.5 2.7) (layer F.SilkS) (width 0.12))
  (fp_line (start 13.5 3.7) (end 13.77 3.7) (layer F.SilkS) (width 0.12))
  (fp_line (start 16.23 3.7) (end 17.5 3.7) (layer F.SilkS) (width 0.12))
  (fp_line (start 13.5 2.7) (end 13.5 3.7) (layer F.SilkS) (width 0.12))
  (fp_line (start 17.5 2.7) (end 17.5 3.7) (layer F.SilkS) (width 0.12))
  (fp_line (start 15 -4.65) (end 15 -2.15) (layer F.Fab) (width 0.1))
  (fp_line (start 15 -2.15) (end 16 -2.15) (layer F.Fab) (width 0.1))
  (fp_line (start 16 -2.15) (end 16 -4.65) (layer F.Fab) (width 0.1))
  (fp_line (start 16 -4.65) (end 15 -4.65) (layer F.Fab) (width 0.1))
  (fp_line (start 15 -4.65) (end 16 -4.65) (layer F.SilkS) (width 0.12))
  (fp_line (start 15 -2.151) (end 16 -2.151) (layer F.SilkS) (width 0.12))
  (fp_line (start 15 -4.65) (end 15 -2.151) (layer F.SilkS) (width 0.12))
  (fp_line (start 16 -4.65) (end 16 -2.151) (layer F.SilkS) (width 0.12))
  (fp_line (start 21 4.4) (end 21.27 4.4) (layer F.SilkS) (width 0.12))
  (fp_line (start 23.73 4.4) (end 25 4.4) (layer F.SilkS) (width 0.12))
  (fp_line (start 21 7.7) (end 25 7.7) (layer F.SilkS) (width 0.12))
  (fp_line (start 21 4.4) (end 21 7.7) (layer F.SilkS) (width 0.12))
  (fp_line (start 25 4.4) (end 25 7.7) (layer F.SilkS) (width 0.12))
  (fp_line (start 21 4.4) (end 21 7.7) (layer F.Fab) (width 0.1))
  (fp_line (start 21 7.7) (end 25 7.7) (layer F.Fab) (width 0.1))
  (fp_line (start 25 7.7) (end 25 4.4) (layer F.Fab) (width 0.1))
  (fp_line (start 25 4.4) (end 21 4.4) (layer F.Fab) (width 0.1))
  (fp_line (start 20.5 -5) (end 20.5 9) (layer F.Fab) (width 0.1))
  (fp_line (start 20.5 9) (end 28 9) (layer F.Fab) (width 0.1))
  (fp_line (start 28 9) (end 28 -5) (layer F.Fab) (width 0.1))
  (fp_line (start 28 -5) (end 20.5 -5) (layer F.Fab) (width 0.1))
  (fp_line (start 20.5 -5) (end 28 -5) (layer F.SilkS) (width 0.12))
  (fp_line (start 20.5 9) (end 28 9) (layer F.SilkS) (width 0.12))
  (fp_line (start 20.5 -5) (end 20.5 9) (layer F.SilkS) (width 0.12))
  (fp_line (start 28 -5) (end 28 9) (layer F.SilkS) (width 0.12))
  (fp_line (start 21 2.7) (end 21 3.7) (layer F.Fab) (width 0.1))
  (fp_line (start 21 3.7) (end 25 3.7) (layer F.Fab) (width 0.1))
  (fp_line (start 25 3.7) (end 25 2.7) (layer F.Fab) (width 0.1))
  (fp_line (start 25 2.7) (end 21 2.7) (layer F.Fab) (width 0.1))
  (fp_line (start 21 2.7) (end 25 2.7) (layer F.SilkS) (width 0.12))
  (fp_line (start 21 3.7) (end 21.27 3.7) (layer F.SilkS) (width 0.12))
  (fp_line (start 23.73 3.7) (end 25 3.7) (layer F.SilkS) (width 0.12))
  (fp_line (start 21 2.7) (end 21 3.7) (layer F.SilkS) (width 0.12))
  (fp_line (start 25 2.7) (end 25 3.7) (layer F.SilkS) (width 0.12))
  (fp_line (start 22.5 -4.65) (end 22.5 -2.15) (layer F.Fab) (width 0.1))
  (fp_line (start 22.5 -2.15) (end 23.5 -2.15) (layer F.Fab) (width 0.1))
  (fp_line (start 23.5 -2.15) (end 23.5 -4.65) (layer F.Fab) (width 0.1))
  (fp_line (start 23.5 -4.65) (end 22.5 -4.65) (layer F.Fab) (width 0.1))
  (fp_line (start 22.5 -4.65) (end 23.5 -4.65) (layer F.SilkS) (width 0.12))
  (fp_line (start 22.5 -2.151) (end 23.5 -2.151) (layer F.SilkS) (width 0.12))
  (fp_line (start 22.5 -4.65) (end 22.5 -2.151) (layer F.SilkS) (width 0.12))
  (fp_line (start 23.5 -4.65) (end 23.5 -2.151) (layer F.SilkS) (width 0.12))
  (fp_line (start 28.5 4.4) (end 28.77 4.4) (layer F.SilkS) (width 0.12))
  (fp_line (start 31.23 4.4) (end 32.5 4.4) (layer F.SilkS) (width 0.12))
  (fp_line (start 28.5 7.7) (end 32.5 7.7) (layer F.SilkS) (width 0.12))
  (fp_line (start 28.5 4.4) (end 28.5 7.7) (layer F.SilkS) (width 0.12))
  (fp_line (start 32.5 4.4) (end 32.5 7.7) (layer F.SilkS) (width 0.12))
  (fp_line (start 28.5 4.4) (end 28.5 7.7) (layer F.Fab) (width 0.1))
  (fp_line (start 28.5 7.7) (end 32.5 7.7) (layer F.Fab) (width 0.1))
  (fp_line (start 32.5 7.7) (end 32.5 4.4) (layer F.Fab) (width 0.1))
  (fp_line (start 32.5 4.4) (end 28.5 4.4) (layer F.Fab) (width 0.1))
  (fp_line (start 28 -5) (end 28 9) (layer F.Fab) (width 0.1))
  (fp_line (start 28 9) (end 35.5 9) (layer F.Fab) (width 0.1))
  (fp_line (start 35.5 9) (end 35.5 -5) (layer F.Fab) (width 0.1))
  (fp_line (start 35.5 -5) (end 28 -5) (layer F.Fab) (width 0.1))
  (fp_line (start 28 -5) (end 35.5 -5) (layer F.SilkS) (width 0.12))
  (fp_line (start 28 9) (end 35.5 9) (layer F.SilkS) (width 0.12))
  (fp_line (start 28 -5) (end 28 9) (layer F.SilkS) (width 0.12))
  (fp_line (start 35.5 -5) (end 35.5 9) (layer F.SilkS) (width 0.12))
  (fp_line (start 28.5 2.7) (end 28.5 3.7) (layer F.Fab) (width 0.1))
  (fp_line (start 28.5 3.7) (end 32.5 3.7) (layer F.Fab) (width 0.1))
  (fp_line (start 32.5 3.7) (end 32.5 2.7) (layer F.Fab) (width 0.1))
  (fp_line (start 32.5 2.7) (end 28.5 2.7) (layer F.Fab) (width 0.1))
  (fp_line (start 28.5 2.7) (end 32.5 2.7) (layer F.SilkS) (width 0.12))
  (fp_line (start 28.5 3.7) (end 28.77 3.7) (layer F.SilkS) (width 0.12))
  (fp_line (start 31.23 3.7) (end 32.5 3.7) (layer F.SilkS) (width 0.12))
  (fp_line (start 28.5 2.7) (end 28.5 3.7) (layer F.SilkS) (width 0.12))
  (fp_line (start 32.5 2.7) (end 32.5 3.7) (layer F.SilkS) (width 0.12))
  (fp_line (start 30 -4.65) (end 30 -2.15) (layer F.Fab) (width 0.1))
  (fp_line (start 30 -2.15) (end 31 -2.15) (layer F.Fab) (width 0.1))
  (fp_line (start 31 -2.15) (end 31 -4.65) (layer F.Fab) (width 0.1))
  (fp_line (start 31 -4.65) (end 30 -4.65) (layer F.Fab) (width 0.1))
  (fp_line (start 30 -4.65) (end 31 -4.65) (layer F.SilkS) (width 0.12))
  (fp_line (start 30 -2.151) (end 31 -2.151) (layer F.SilkS) (width 0.12))
  (fp_line (start 30 -4.65) (end 30 -2.151) (layer F.SilkS) (width 0.12))
  (fp_line (start 31 -4.65) (end 31 -2.151) (layer F.SilkS) (width 0.12))
  (fp_line (start 36 4.4) (end 36.27 4.4) (layer F.SilkS) (width 0.12))
  (fp_line (start 38.73 4.4) (end 40 4.4) (layer F.SilkS) (width 0.12))
  (fp_line (start 36 7.7) (end 40 7.7) (layer F.SilkS) (width 0.12))
  (fp_line (start 36 4.4) (end 36 7.7) (layer F.SilkS) (width 0.12))
  (fp_line (start 40 4.4) (end 40 7.7) (layer F.SilkS) (width 0.12))
  (fp_line (start 36 4.4) (end 36 7.7) (layer F.Fab) (width 0.1))
  (fp_line (start 36 7.7) (end 40 7.7) (layer F.Fab) (width 0.1))
  (fp_line (start 40 7.7) (end 40 4.4) (layer F.Fab) (width 0.1))
  (fp_line (start 40 4.4) (end 36 4.4) (layer F.Fab) (width 0.1))
  (fp_line (start 35.5 -5) (end 35.5 9) (layer F.Fab) (width 0.1))
  (fp_line (start 35.5 9) (end 43 9) (layer F.Fab) (width 0.1))
  (fp_line (start 43 9) (end 43 -5) (layer F.Fab) (width 0.1))
  (fp_line (start 43 -5) (end 35.5 -5) (layer F.Fab) (width 0.1))
  (fp_line (start 35.5 -5) (end 43 -5) (layer F.SilkS) (width 0.12))
  (fp_line (start 35.5 9) (end 43 9) (layer F.SilkS) (width 0.12))
  (fp_line (start 35.5 -5) (end 35.5 9) (layer F.SilkS) (width 0.12))
  (fp_line (start 43 -5) (end 43 9) (layer F.SilkS) (width 0.12))
  (fp_line (start 36 2.7) (end 36 3.7) (layer F.Fab) (width 0.1))
  (fp_line (start 36 3.7) (end 40 3.7) (layer F.Fab) (width 0.1))
  (fp_line (start 40 3.7) (end 40 2.7) (layer F.Fab) (width 0.1))
  (fp_line (start 40 2.7) (end 36 2.7) (layer F.Fab) (width 0.1))
  (fp_line (start 36 2.7) (end 40 2.7) (layer F.SilkS) (width 0.12))
  (fp_line (start 36 3.7) (end 36.27 3.7) (layer F.SilkS) (width 0.12))
  (fp_line (start 38.73 3.7) (end 40 3.7) (layer F.SilkS) (width 0.12))
  (fp_line (start 36 2.7) (end 36 3.7) (layer F.SilkS) (width 0.12))
  (fp_line (start 40 2.7) (end 40 3.7) (layer F.SilkS) (width 0.12))
  (fp_line (start 37.5 -4.65) (end 37.5 -2.15) (layer F.Fab) (width 0.1))
  (fp_line (start 37.5 -2.15) (end 38.5 -2.15) (layer F.Fab) (width 0.1))
  (fp_line (start 38.5 -2.15) (end 38.5 -4.65) (layer F.Fab) (width 0.1))
  (fp_line (start 38.5 -4.65) (end 37.5 -4.65) (layer F.Fab) (width 0.1))
  (fp_line (start 37.5 -4.65) (end 38.5 -4.65) (layer F.SilkS) (width 0.12))
  (fp_line (start 37.5 -2.151) (end 38.5 -2.151) (layer F.SilkS) (width 0.12))
  (fp_line (start 37.5 -4.65) (end 37.5 -2.151) (layer F.SilkS) (width 0.12))
  (fp_line (start 38.5 -4.65) (end 38.5 -2.151) (layer F.SilkS) (width 0.12))
  (fp_line (start 43.5 4.4) (end 43.77 4.4) (layer F.SilkS) (width 0.12))
  (fp_line (start 46.23 4.4) (end 47.5 4.4) (layer F.SilkS) (width 0.12))
  (fp_line (start 43.5 7.7) (end 47.5 7.7) (layer F.SilkS) (width 0.12))
  (fp_line (start 43.5 4.4) (end 43.5 7.7) (layer F.SilkS) (width 0.12))
  (fp_line (start 47.5 4.4) (end 47.5 7.7) (layer F.SilkS) (width 0.12))
  (fp_line (start 43.5 4.4) (end 43.5 7.7) (layer F.Fab) (width 0.1))
  (fp_line (start 43.5 7.7) (end 47.5 7.7) (layer F.Fab) (width 0.1))
  (fp_line (start 47.5 7.7) (end 47.5 4.4) (layer F.Fab) (width 0.1))
  (fp_line (start 47.5 4.4) (end 43.5 4.4) (layer F.Fab) (width 0.1))
  (fp_line (start 43 -5) (end 43 9) (layer F.Fab) (width 0.1))
  (fp_line (start 43 9) (end 50.5 9) (layer F.Fab) (width 0.1))
  (fp_line (start 50.5 9) (end 50.5 -5) (layer F.Fab) (width 0.1))
  (fp_line (start 50.5 -5) (end 43 -5) (layer F.Fab) (width 0.1))
  (fp_line (start 43 -5) (end 50.5 -5) (layer F.SilkS) (width 0.12))
  (fp_line (start 43 9) (end 50.5 9) (layer F.SilkS) (width 0.12))
  (fp_line (start 43 -5) (end 43 9) (layer F.SilkS) (width 0.12))
  (fp_line (start 50.5 -5) (end 50.5 9) (layer F.SilkS) (width 0.12))
  (fp_line (start 43.5 2.7) (end 43.5 3.7) (layer F.Fab) (width 0.1))
  (fp_line (start 43.5 3.7) (end 47.5 3.7) (layer F.Fab) (width 0.1))
  (fp_line (start 47.5 3.7) (end 47.5 2.7) (layer F.Fab) (width 0.1))
  (fp_line (start 47.5 2.7) (end 43.5 2.7) (layer F.Fab) (width 0.1))
  (fp_line (start 43.5 2.7) (end 47.5 2.7) (layer F.SilkS) (width 0.12))
  (fp_line (start 43.5 3.7) (end 43.77 3.7) (layer F.SilkS) (width 0.12))
  (fp_line (start 46.23 3.7) (end 47.5 3.7) (layer F.SilkS) (width 0.12))
  (fp_line (start 43.5 2.7) (end 43.5 3.7) (layer F.SilkS) (width 0.12))
  (fp_line (start 47.5 2.7) (end 47.5 3.7) (layer F.SilkS) (width 0.12))
  (fp_line (start 45 -4.65) (end 45 -2.15) (layer F.Fab) (width 0.1))
  (fp_line (start 45 -2.15) (end 46 -2.15) (layer F.Fab) (width 0.1))
  (fp_line (start 46 -2.15) (end 46 -4.65) (layer F.Fab) (width 0.1))
  (fp_line (start 46 -4.65) (end 45 -4.65) (layer F.Fab) (width 0.1))
  (fp_line (start 45 -4.65) (end 46 -4.65) (layer F.SilkS) (width 0.12))
  (fp_line (start 45 -2.151) (end 46 -2.151) (layer F.SilkS) (width 0.12))
  (fp_line (start 45 -4.65) (end 45 -2.151) (layer F.SilkS) (width 0.12))
  (fp_line (start 46 -4.65) (end 46 -2.151) (layer F.SilkS) (width 0.12))
  (fp_line (start 51 4.4) (end 51.27 4.4) (layer F.SilkS) (width 0.12))
  (fp_line (start 53.73 4.4) (end 55 4.4) (layer F.SilkS) (width 0.12))
  (fp_line (start 51 7.7) (end 55 7.7) (layer F.SilkS) (width 0.12))
  (fp_line (start 51 4.4) (end 51 7.7) (layer F.SilkS) (width 0.12))
  (fp_line (start 55 4.4) (end 55 7.7) (layer F.SilkS) (width 0.12))
  (fp_line (start 51 4.4) (end 51 7.7) (layer F.Fab) (width 0.1))
  (fp_line (start 51 7.7) (end 55 7.7) (layer F.Fab) (width 0.1))
  (fp_line (start 55 7.7) (end 55 4.4) (layer F.Fab) (width 0.1))
  (fp_line (start 55 4.4) (end 51 4.4) (layer F.Fab) (width 0.1))
  (fp_line (start 50.5 -5) (end 50.5 9) (layer F.Fab) (width 0.1))
  (fp_line (start 50.5 9) (end 58 9) (layer F.Fab) (width 0.1))
  (fp_line (start 58 9) (end 58 -5) (layer F.Fab) (width 0.1))
  (fp_line (start 58 -5) (end 50.5 -5) (layer F.Fab) (width 0.1))
  (fp_line (start 50.5 -5) (end 58 -5) (layer F.SilkS) (width 0.12))
  (fp_line (start 50.5 9) (end 58 9) (layer F.SilkS) (width 0.12))
  (fp_line (start 50.5 -5) (end 50.5 9) (layer F.SilkS) (width 0.12))
  (fp_line (start 58 -5) (end 58 9) (layer F.SilkS) (width 0.12))
  (fp_line (start 51 2.7) (end 51 3.7) (layer F.Fab) (width 0.1))
  (fp_line (start 51 3.7) (end 55 3.7) (layer F.Fab) (width 0.1))
  (fp_line (start 55 3.7) (end 55 2.7) (layer F.Fab) (width 0.1))
  (fp_line (start 55 2.7) (end 51 2.7) (layer F.Fab) (width 0.1))
  (fp_line (start 51 2.7) (end 55 2.7) (layer F.SilkS) (width 0.12))
  (fp_line (start 51 3.7) (end 51.27 3.7) (layer F.SilkS) (width 0.12))
  (fp_line (start 53.73 3.7) (end 55 3.7) (layer F.SilkS) (width 0.12))
  (fp_line (start 51 2.7) (end 51 3.7) (layer F.SilkS) (width 0.12))
  (fp_line (start 55 2.7) (end 55 3.7) (layer F.SilkS) (width 0.12))
  (fp_line (start 52.5 -4.65) (end 52.5 -2.15) (layer F.Fab) (width 0.1))
  (fp_line (start 52.5 -2.15) (end 53.5 -2.15) (layer F.Fab) (width 0.1))
  (fp_line (start 53.5 -2.15) (end 53.5 -4.65) (layer F.Fab) (width 0.1))
  (fp_line (start 53.5 -4.65) (end 52.5 -4.65) (layer F.Fab) (width 0.1))
  (fp_line (start 52.5 -4.65) (end 53.5 -4.65) (layer F.SilkS) (width 0.12))
  (fp_line (start 52.5 -2.151) (end 53.5 -2.151) (layer F.SilkS) (width 0.12))
  (fp_line (start 52.5 -4.65) (end 52.5 -2.151) (layer F.SilkS) (width 0.12))
  (fp_line (start 53.5 -4.65) (end 53.5 -2.151) (layer F.SilkS) (width 0.12))
  (fp_line (start 58.5 4.4) (end 58.77 4.4) (layer F.SilkS) (width 0.12))
  (fp_line (start 61.23 4.4) (end 62.5 4.4) (layer F.SilkS) (width 0.12))
  (fp_line (start 58.5 7.7) (end 62.5 7.7) (layer F.SilkS) (width 0.12))
  (fp_line (start 58.5 4.4) (end 58.5 7.7) (layer F.SilkS) (width 0.12))
  (fp_line (start 62.5 4.4) (end 62.5 7.7) (layer F.SilkS) (width 0.12))
  (fp_line (start 58.5 4.4) (end 58.5 7.7) (layer F.Fab) (width 0.1))
  (fp_line (start 58.5 7.7) (end 62.5 7.7) (layer F.Fab) (width 0.1))
  (fp_line (start 62.5 7.7) (end 62.5 4.4) (layer F.Fab) (width 0.1))
  (fp_line (start 62.5 4.4) (end 58.5 4.4) (layer F.Fab) (width 0.1))
  (fp_line (start 58 -5) (end 58 9) (layer F.Fab) (width 0.1))
  (fp_line (start 58 9) (end 65.5 9) (layer F.Fab) (width 0.1))
  (fp_line (start 65.5 9) (end 65.5 -5) (layer F.Fab) (width 0.1))
  (fp_line (start 65.5 -5) (end 58 -5) (layer F.Fab) (width 0.1))
  (fp_line (start 58 -5) (end 65.5 -5) (layer F.SilkS) (width 0.12))
  (fp_line (start 58 9) (end 65.5 9) (layer F.SilkS) (width 0.12))
  (fp_line (start 58 -5) (end 58 9) (layer F.SilkS) (width 0.12))
  (fp_line (start 65.5 -5) (end 65.5 9) (layer F.SilkS) (width 0.12))
  (fp_line (start 58.5 2.7) (end 58.5 3.7) (layer F.Fab) (width 0.1))
  (fp_line (start 58.5 3.7) (end 62.5 3.7) (layer F.Fab) (width 0.1))
  (fp_line (start 62.5 3.7) (end 62.5 2.7) (layer F.Fab) (width 0.1))
  (fp_line (start 62.5 2.7) (end 58.5 2.7) (layer F.Fab) (width 0.1))
  (fp_line (start 58.5 2.7) (end 62.5 2.7) (layer F.SilkS) (width 0.12))
  (fp_line (start 58.5 3.7) (end 58.77 3.7) (layer F.SilkS) (width 0.12))
  (fp_line (start 61.23 3.7) (end 62.5 3.7) (layer F.SilkS) (width 0.12))
  (fp_line (start 58.5 2.7) (end 58.5 3.7) (layer F.SilkS) (width 0.12))
  (fp_line (start 62.5 2.7) (end 62.5 3.7) (layer F.SilkS) (width 0.12))
  (fp_line (start 60 -4.65) (end 60 -2.15) (layer F.Fab) (width 0.1))
  (fp_line (start 60 -2.15) (end 61 -2.15) (layer F.Fab) (width 0.1))
  (fp_line (start 61 -2.15) (end 61 -4.65) (layer F.Fab) (width 0.1))
  (fp_line (start 61 -4.65) (end 60 -4.65) (layer F.Fab) (width 0.1))
  (fp_line (start 60 -4.65) (end 61 -4.65) (layer F.SilkS) (width 0.12))
  (fp_line (start 60 -2.151) (end 61 -2.151) (layer F.SilkS) (width 0.12))
  (fp_line (start 60 -4.65) (end 60 -2.151) (layer F.SilkS) (width 0.12))
  (fp_line (start 61 -4.65) (end 61 -2.151) (layer F.SilkS) (width 0.12))
  (fp_line (start 66 4.4) (end 66.27 4.4) (layer F.SilkS) (width 0.12))
  (fp_line (start 68.73 4.4) (end 70 4.4) (layer F.SilkS) (width 0.12))
  (fp_line (start 66 7.7) (end 70 7.7) (layer F.SilkS) (width 0.12))
  (fp_line (start 66 4.4) (end 66 7.7) (layer F.SilkS) (width 0.12))
  (fp_line (start 70 4.4) (end 70 7.7) (layer F.SilkS) (width 0.12))
  (fp_line (start 66 4.4) (end 66 7.7) (layer F.Fab) (width 0.1))
  (fp_line (start 66 7.7) (end 70 7.7) (layer F.Fab) (width 0.1))
  (fp_line (start 70 7.7) (end 70 4.4) (layer F.Fab) (width 0.1))
  (fp_line (start 70 4.4) (end 66 4.4) (layer F.Fab) (width 0.1))
  (fp_line (start 65.5 -5) (end 65.5 9) (layer F.Fab) (width 0.1))
  (fp_line (start 65.5 9) (end 73 9) (layer F.Fab) (width 0.1))
  (fp_line (start 73 9) (end 73 -5) (layer F.Fab) (width 0.1))
  (fp_line (start 73 -5) (end 65.5 -5) (layer F.Fab) (width 0.1))
  (fp_line (start 65.5 -5) (end 73 -5) (layer F.SilkS) (width 0.12))
  (fp_line (start 65.5 9) (end 73 9) (layer F.SilkS) (width 0.12))
  (fp_line (start 65.5 -5) (end 65.5 9) (layer F.SilkS) (width 0.12))
  (fp_line (start 73 -5) (end 73 9) (layer F.SilkS) (width 0.12))
  (fp_line (start 66 2.7) (end 66 3.7) (layer F.Fab) (width 0.1))
  (fp_line (start 66 3.7) (end 70 3.7) (layer F.Fab) (width 0.1))
  (fp_line (start 70 3.7) (end 70 2.7) (layer F.Fab) (width 0.1))
  (fp_line (start 70 2.7) (end 66 2.7) (layer F.Fab) (width 0.1))
  (fp_line (start 66 2.7) (end 70 2.7) (layer F.SilkS) (width 0.12))
  (fp_line (start 66 3.7) (end 66.27 3.7) (layer F.SilkS) (width 0.12))
  (fp_line (start 68.73 3.7) (end 70 3.7) (layer F.SilkS) (width 0.12))
  (fp_line (start 66 2.7) (end 66 3.7) (layer F.SilkS) (width 0.12))
  (fp_line (start 70 2.7) (end 70 3.7) (layer F.SilkS) (width 0.12))
  (fp_line (start 67.5 -4.65) (end 67.5 -2.15) (layer F.Fab) (width 0.1))
  (fp_line (start 67.5 -2.15) (end 68.5 -2.15) (layer F.Fab) (width 0.1))
  (fp_line (start 68.5 -2.15) (end 68.5 -4.65) (layer F.Fab) (width 0.1))
  (fp_line (start 68.5 -4.65) (end 67.5 -4.65) (layer F.Fab) (width 0.1))
  (fp_line (start 67.5 -4.65) (end 68.5 -4.65) (layer F.SilkS) (width 0.12))
  (fp_line (start 67.5 -2.151) (end 68.5 -2.151) (layer F.SilkS) (width 0.12))
  (fp_line (start 67.5 -4.65) (end 67.5 -2.151) (layer F.SilkS) (width 0.12))
  (fp_line (start 68.5 -4.65) (end 68.5 -2.151) (layer F.SilkS) (width 0.12))
  (fp_line (start 73.5 4.4) (end 73.77 4.4) (layer F.SilkS) (width 0.12))
  (fp_line (start 76.23 4.4) (end 77.5 4.4) (layer F.SilkS) (width 0.12))
  (fp_line (start 73.5 7.7) (end 77.5 7.7) (layer F.SilkS) (width 0.12))
  (fp_line (start 73.5 4.4) (end 73.5 7.7) (layer F.SilkS) (width 0.12))
  (fp_line (start 77.5 4.4) (end 77.5 7.7) (layer F.SilkS) (width 0.12))
  (fp_line (start 73.5 4.4) (end 73.5 7.7) (layer F.Fab) (width 0.1))
  (fp_line (start 73.5 7.7) (end 77.5 7.7) (layer F.Fab) (width 0.1))
  (fp_line (start 77.5 7.7) (end 77.5 4.4) (layer F.Fab) (width 0.1))
  (fp_line (start 77.5 4.4) (end 73.5 4.4) (layer F.Fab) (width 0.1))
  (fp_line (start 73 -5) (end 73 9) (layer F.Fab) (width 0.1))
  (fp_line (start 73 9) (end 80.5 9) (layer F.Fab) (width 0.1))
  (fp_line (start 80.5 9) (end 80.5 -5) (layer F.Fab) (width 0.1))
  (fp_line (start 80.5 -5) (end 73 -5) (layer F.Fab) (width 0.1))
  (fp_line (start 73 -5) (end 80.5 -5) (layer F.SilkS) (width 0.12))
  (fp_line (start 73 9) (end 80.5 9) (layer F.SilkS) (width 0.12))
  (fp_line (start 73 -5) (end 73 9) (layer F.SilkS) (width 0.12))
  (fp_line (start 80.5 -5) (end 80.5 9) (layer F.SilkS) (width 0.12))
  (fp_line (start 73.5 2.7) (end 73.5 3.7) (layer F.Fab) (width 0.1))
  (fp_line (start 73.5 3.7) (end 77.5 3.7) (layer F.Fab) (width 0.1))
  (fp_line (start 77.5 3.7) (end 77.5 2.7) (layer F.Fab) (width 0.1))
  (fp_line (start 77.5 2.7) (end 73.5 2.7) (layer F.Fab) (width 0.1))
  (fp_line (start 73.5 2.7) (end 77.5 2.7) (layer F.SilkS) (width 0.12))
  (fp_line (start 73.5 3.7) (end 73.77 3.7) (layer F.SilkS) (width 0.12))
  (fp_line (start 76.23 3.7) (end 77.5 3.7) (layer F.SilkS) (width 0.12))
  (fp_line (start 73.5 2.7) (end 73.5 3.7) (layer F.SilkS) (width 0.12))
  (fp_line (start 77.5 2.7) (end 77.5 3.7) (layer F.SilkS) (width 0.12))
  (fp_line (start 75 -4.65) (end 75 -2.15) (layer F.Fab) (width 0.1))
  (fp_line (start 75 -2.15) (end 76 -2.15) (layer F.Fab) (width 0.1))
  (fp_line (start 76 -2.15) (end 76 -4.65) (layer F.Fab) (width 0.1))
  (fp_line (start 76 -4.65) (end 75 -4.65) (layer F.Fab) (width 0.1))
  (fp_line (start 75 -4.65) (end 76 -4.65) (layer F.SilkS) (width 0.12))
  (fp_line (start 75 -2.151) (end 76 -2.151) (layer F.SilkS) (width 0.12))
  (fp_line (start 75 -4.65) (end 75 -2.151) (layer F.SilkS) (width 0.12))
  (fp_line (start 76 -4.65) (end 76 -2.151) (layer F.SilkS) (width 0.12))
  (fp_line (start 81 4.4) (end 81.27 4.4) (layer F.SilkS) (width 0.12))
  (fp_line (start 83.73 4.4) (end 85 4.4) (layer F.SilkS) (width 0.12))
  (fp_line (start 81 7.7) (end 85 7.7) (layer F.SilkS) (width 0.12))
  (fp_line (start 81 4.4) (end 81 7.7) (layer F.SilkS) (width 0.12))
  (fp_line (start 85 4.4) (end 85 7.7) (layer F.SilkS) (width 0.12))
  (fp_line (start 81 4.4) (end 81 7.7) (layer F.Fab) (width 0.1))
  (fp_line (start 81 7.7) (end 85 7.7) (layer F.Fab) (width 0.1))
  (fp_line (start 85 7.7) (end 85 4.4) (layer F.Fab) (width 0.1))
  (fp_line (start 85 4.4) (end 81 4.4) (layer F.Fab) (width 0.1))
  (fp_line (start 80.5 -5) (end 80.5 9) (layer F.Fab) (width 0.1))
  (fp_line (start 80.5 9) (end 88 9) (layer F.Fab) (width 0.1))
  (fp_line (start 88 9) (end 88 -5) (layer F.Fab) (width 0.1))
  (fp_line (start 88 -5) (end 80.5 -5) (layer F.Fab) (width 0.1))
  (fp_line (start 80.5 -5) (end 88 -5) (layer F.SilkS) (width 0.12))
  (fp_line (start 80.5 9) (end 88 9) (layer F.SilkS) (width 0.12))
  (fp_line (start 80.5 -5) (end 80.5 9) (layer F.SilkS) (width 0.12))
  (fp_line (start 88 -5) (end 88 9) (layer F.SilkS) (width 0.12))
  (fp_line (start 81 2.7) (end 81 3.7) (layer F.Fab) (width 0.1))
  (fp_line (start 81 3.7) (end 85 3.7) (layer F.Fab) (width 0.1))
  (fp_line (start 85 3.7) (end 85 2.7) (layer F.Fab) (width 0.1))
  (fp_line (start 85 2.7) (end 81 2.7) (layer F.Fab) (width 0.1))
  (fp_line (start 81 2.7) (end 85 2.7) (layer F.SilkS) (width 0.12))
  (fp_line (start 81 3.7) (end 81.27 3.7) (layer F.SilkS) (width 0.12))
  (fp_line (start 83.73 3.7) (end 85 3.7) (layer F.SilkS) (width 0.12))
  (fp_line (start 81 2.7) (end 81 3.7) (layer F.SilkS) (width 0.12))
  (fp_line (start 85 2.7) (end 85 3.7) (layer F.SilkS) (width 0.12))
  (fp_line (start 82.5 -4.65) (end 82.5 -2.15) (layer F.Fab) (width 0.1))
  (fp_line (start 82.5 -2.15) (end 83.5 -2.15) (layer F.Fab) (width 0.1))
  (fp_line (start 83.5 -2.15) (end 83.5 -4.65) (layer F.Fab) (width 0.1))
  (fp_line (start 83.5 -4.65) (end 82.5 -4.65) (layer F.Fab) (width 0.1))
  (fp_line (start 82.5 -4.65) (end 83.5 -4.65) (layer F.SilkS) (width 0.12))
  (fp_line (start 82.5 -2.151) (end 83.5 -2.151) (layer F.SilkS) (width 0.12))
  (fp_line (start 82.5 -4.65) (end 82.5 -2.151) (layer F.SilkS) (width 0.12))
  (fp_line (start 83.5 -4.65) (end 83.5 -2.151) (layer F.SilkS) (width 0.12))
  (fp_line (start 88.5 4.4) (end 88.77 4.4) (layer F.SilkS) (width 0.12))
  (fp_line (start 91.23 4.4) (end 92.5 4.4) (layer F.SilkS) (width 0.12))
  (fp_line (start 88.5 7.7) (end 92.5 7.7) (layer F.SilkS) (width 0.12))
  (fp_line (start 88.5 4.4) (end 88.5 7.7) (layer F.SilkS) (width 0.12))
  (fp_line (start 92.5 4.4) (end 92.5 7.7) (layer F.SilkS) (width 0.12))
  (fp_line (start 88.5 4.4) (end 88.5 7.7) (layer F.Fab) (width 0.1))
  (fp_line (start 88.5 7.7) (end 92.5 7.7) (layer F.Fab) (width 0.1))
  (fp_line (start 92.5 7.7) (end 92.5 4.4) (layer F.Fab) (width 0.1))
  (fp_line (start 92.5 4.4) (end 88.5 4.4) (layer F.Fab) (width 0.1))
  (fp_line (start 88 -5) (end 88 9) (layer F.Fab) (width 0.1))
  (fp_line (start 88 9) (end 95.5 9) (layer F.Fab) (width 0.1))
  (fp_line (start 95.5 9) (end 95.5 -5) (layer F.Fab) (width 0.1))
  (fp_line (start 95.5 -5) (end 88 -5) (layer F.Fab) (width 0.1))
  (fp_line (start 88 -5) (end 95.5 -5) (layer F.SilkS) (width 0.12))
  (fp_line (start 88 9) (end 95.5 9) (layer F.SilkS) (width 0.12))
  (fp_line (start 88 -5) (end 88 9) (layer F.SilkS) (width 0.12))
  (fp_line (start 95.5 -5) (end 95.5 9) (layer F.SilkS) (width 0.12))
  (fp_line (start 88.5 2.7) (end 88.5 3.7) (layer F.Fab) (width 0.1))
  (fp_line (start 88.5 3.7) (end 92.5 3.7) (layer F.Fab) (width 0.1))
  (fp_line (start 92.5 3.7) (end 92.5 2.7) (layer F.Fab) (width 0.1))
  (fp_line (start 92.5 2.7) (end 88.5 2.7) (layer F.Fab) (width 0.1))
  (fp_line (start 88.5 2.7) (end 92.5 2.7) (layer F.SilkS) (width 0.12))
  (fp_line (start 88.5 3.7) (end 88.77 3.7) (layer F.SilkS) (width 0.12))
  (fp_line (start 91.23 3.7) (end 92.5 3.7) (layer F.SilkS) (width 0.12))
  (fp_line (start 88.5 2.7) (end 88.5 3.7) (layer F.SilkS) (width 0.12))
  (fp_line (start 92.5 2.7) (end 92.5 3.7) (layer F.SilkS) (width 0.12))
  (fp_line (start 90 -4.65) (end 90 -2.15) (layer F.Fab) (width 0.1))
  (fp_line (start 90 -2.15) (end 91 -2.15) (layer F.Fab) (width 0.1))
  (fp_line (start 91 -2.15) (end 91 -4.65) (layer F.Fab) (width 0.1))
  (fp_line (start 91 -4.65) (end 90 -4.65) (layer F.Fab) (width 0.1))
  (fp_line (start 90 -4.65) (end 91 -4.65) (layer F.SilkS) (width 0.12))
  (fp_line (start 90 -2.151) (end 91 -2.151) (layer F.SilkS) (width 0.12))
  (fp_line (start 90 -4.65) (end 90 -2.151) (layer F.SilkS) (width 0.12))
  (fp_line (start 91 -4.65) (end 91 -2.151) (layer F.SilkS) (width 0.12))
  (fp_line (start 96 4.4) (end 96.27 4.4) (layer F.SilkS) (width 0.12))
  (fp_line (start 98.73 4.4) (end 100 4.4) (layer F.SilkS) (width 0.12))
  (fp_line (start 96 7.7) (end 100 7.7) (layer F.SilkS) (width 0.12))
  (fp_line (start 96 4.4) (end 96 7.7) (layer F.SilkS) (width 0.12))
  (fp_line (start 100 4.4) (end 100 7.7) (layer F.SilkS) (width 0.12))
  (fp_line (start 96 4.4) (end 96 7.7) (layer F.Fab) (width 0.1))
  (fp_line (start 96 7.7) (end 100 7.7) (layer F.Fab) (width 0.1))
  (fp_line (start 100 7.7) (end 100 4.4) (layer F.Fab) (width 0.1))
  (fp_line (start 100 4.4) (end 96 4.4) (layer F.Fab) (width 0.1))
  (fp_line (start 95.5 -5) (end 95.5 9) (layer F.Fab) (width 0.1))
  (fp_line (start 95.5 9) (end 103 9) (layer F.Fab) (width 0.1))
  (fp_line (start 103 9) (end 103 -5) (layer F.Fab) (width 0.1))
  (fp_line (start 103 -5) (end 95.5 -5) (layer F.Fab) (width 0.1))
  (fp_line (start 95.5 -5) (end 103 -5) (layer F.SilkS) (width 0.12))
  (fp_line (start 95.5 9) (end 103 9) (layer F.SilkS) (width 0.12))
  (fp_line (start 95.5 -5) (end 95.5 9) (layer F.SilkS) (width 0.12))
  (fp_line (start 103 -5) (end 103 9) (layer F.SilkS) (width 0.12))
  (fp_line (start 96 2.7) (end 96 3.7) (layer F.Fab) (width 0.1))
  (fp_line (start 96 3.7) (end 100 3.7) (layer F.Fab) (width 0.1))
  (fp_line (start 100 3.7) (end 100 2.7) (layer F.Fab) (width 0.1))
  (fp_line (start 100 2.7) (end 96 2.7) (layer F.Fab) (width 0.1))
  (fp_line (start 96 2.7) (end 100 2.7) (layer F.SilkS) (width 0.12))
  (fp_line (start 96 3.7) (end 96.27 3.7) (layer F.SilkS) (width 0.12))
  (fp_line (start 98.73 3.7) (end 100 3.7) (layer F.SilkS) (width 0.12))
  (fp_line (start 96 2.7) (end 96 3.7) (layer F.SilkS) (width 0.12))
  (fp_line (start 100 2.7) (end 100 3.7) (layer F.SilkS) (width 0.12))
  (fp_line (start 97.5 -4.65) (end 97.5 -2.15) (layer F.Fab) (width 0.1))
  (fp_line (start 97.5 -2.15) (end 98.5 -2.15) (layer F.Fab) (width 0.1))
  (fp_line (start 98.5 -2.15) (end 98.5 -4.65) (layer F.Fab) (width 0.1))
  (fp_line (start 98.5 -4.65) (end 97.5 -4.65) (layer F.Fab) (width 0.1))
  (fp_line (start 97.5 -4.65) (end 98.5 -4.65) (layer F.SilkS) (width 0.12))
  (fp_line (start 97.5 -2.151) (end 98.5 -2.151) (layer F.SilkS) (width 0.12))
  (fp_line (start 97.5 -4.65) (end 97.5 -2.151) (layer F.SilkS) (width 0.12))
  (fp_line (start 98.5 -4.65) (end 98.5 -2.151) (layer F.SilkS) (width 0.12))
  (fp_line (start 103.5 4.4) (end 103.77 4.4) (layer F.SilkS) (width 0.12))
  (fp_line (start 106.23 4.4) (end 107.5 4.4) (layer F.SilkS) (width 0.12))
  (fp_line (start 103.5 7.7) (end 107.5 7.7) (layer F.SilkS) (width 0.12))
  (fp_line (start 103.5 4.4) (end 103.5 7.7) (layer F.SilkS) (width 0.12))
  (fp_line (start 107.5 4.4) (end 107.5 7.7) (layer F.SilkS) (width 0.12))
  (fp_line (start 103.5 4.4) (end 103.5 7.7) (layer F.Fab) (width 0.1))
  (fp_line (start 103.5 7.7) (end 107.5 7.7) (layer F.Fab) (width 0.1))
  (fp_line (start 107.5 7.7) (end 107.5 4.4) (layer F.Fab) (width 0.1))
  (fp_line (start 107.5 4.4) (end 103.5 4.4) (layer F.Fab) (width 0.1))
  (fp_line (start 103 -5) (end 103 9) (layer F.Fab) (width 0.1))
  (fp_line (start 103 9) (end 110.5 9) (layer F.Fab) (width 0.1))
  (fp_line (start 110.5 9) (end 110.5 -5) (layer F.Fab) (width 0.1))
  (fp_line (start 110.5 -5) (end 103 -5) (layer F.Fab) (width 0.1))
  (fp_line (start 103 -5) (end 110.5 -5) (layer F.SilkS) (width 0.12))
  (fp_line (start 103 9) (end 110.5 9) (layer F.SilkS) (width 0.12))
  (fp_line (start 103 -5) (end 103 9) (layer F.SilkS) (width 0.12))
  (fp_line (start 110.5 -5) (end 110.5 9) (layer F.SilkS) (width 0.12))
  (fp_line (start 103.5 2.7) (end 103.5 3.7) (layer F.Fab) (width 0.1))
  (fp_line (start 103.5 3.7) (end 107.5 3.7) (layer F.Fab) (width 0.1))
  (fp_line (start 107.5 3.7) (end 107.5 2.7) (layer F.Fab) (width 0.1))
  (fp_line (start 107.5 2.7) (end 103.5 2.7) (layer F.Fab) (width 0.1))
  (fp_line (start 103.5 2.7) (end 107.5 2.7) (layer F.SilkS) (width 0.12))
  (fp_line (start 103.5 3.7) (end 103.77 3.7) (layer F.SilkS) (width 0.12))
  (fp_line (start 106.23 3.7) (end 107.5 3.7) (layer F.SilkS) (width 0.12))
  (fp_line (start 103.5 2.7) (end 103.5 3.7) (layer F.SilkS) (width 0.12))
  (fp_line (start 107.5 2.7) (end 107.5 3.7) (layer F.SilkS) (width 0.12))
  (fp_line (start 105 -4.65) (end 105 -2.15) (layer F.Fab) (width 0.1))
  (fp_line (start 105 -2.15) (end 106 -2.15) (layer F.Fab) (width 0.1))
  (fp_line (start 106 -2.15) (end 106 -4.65) (layer F.Fab) (width 0.1))
  (fp_line (start 106 -4.65) (end 105 -4.65) (layer F.Fab) (width 0.1))
  (fp_line (start 105 -4.65) (end 106 -4.65) (layer F.SilkS) (width 0.12))
  (fp_line (start 105 -2.151) (end 106 -2.151) (layer F.SilkS) (width 0.12))
  (fp_line (start 105 -4.65) (end 105 -2.151) (layer F.SilkS) (width 0.12))
  (fp_line (start 106 -4.65) (end 106 -2.151) (layer F.SilkS) (width 0.12))
  (fp_line (start 111 4.4) (end 111.27 4.4) (layer F.SilkS) (width 0.12))
  (fp_line (start 113.73 4.4) (end 115 4.4) (layer F.SilkS) (width 0.12))
  (fp_line (start 111 7.7) (end 115 7.7) (layer F.SilkS) (width 0.12))
  (fp_line (start 111 4.4) (end 111 7.7) (layer F.SilkS) (width 0.12))
  (fp_line (start 115 4.4) (end 115 7.7) (layer F.SilkS) (width 0.12))
  (fp_line (start 111 4.4) (end 111 7.7) (layer F.Fab) (width 0.1))
  (fp_line (start 111 7.7) (end 115 7.7) (layer F.Fab) (width 0.1))
  (fp_line (start 115 7.7) (end 115 4.4) (layer F.Fab) (width 0.1))
  (fp_line (start 115 4.4) (end 111 4.4) (layer F.Fab) (width 0.1))
  (fp_line (start 110.5 -5) (end 110.5 9) (layer F.Fab) (width 0.1))
  (fp_line (start 110.5 9) (end 118 9) (layer F.Fab) (width 0.1))
  (fp_line (start 118 9) (end 118 -5) (layer F.Fab) (width 0.1))
  (fp_line (start 118 -5) (end 110.5 -5) (layer F.Fab) (width 0.1))
  (fp_line (start 110.5 -5) (end 118 -5) (layer F.SilkS) (width 0.12))
  (fp_line (start 110.5 9) (end 118 9) (layer F.SilkS) (width 0.12))
  (fp_line (start 110.5 -5) (end 110.5 9) (layer F.SilkS) (width 0.12))
  (fp_line (start 118 -5) (end 118 9) (layer F.SilkS) (width 0.12))
  (fp_line (start 111 2.7) (end 111 3.7) (layer F.Fab) (width 0.1))
  (fp_line (start 111 3.7) (end 115 3.7) (layer F.Fab) (width 0.1))
  (fp_line (start 115 3.7) (end 115 2.7) (layer F.Fab) (width 0.1))
  (fp_line (start 115 2.7) (end 111 2.7) (layer F.Fab) (width 0.1))
  (fp_line (start 111 2.7) (end 115 2.7) (layer F.SilkS) (width 0.12))
  (fp_line (start 111 3.7) (end 111.27 3.7) (layer F.SilkS) (width 0.12))
  (fp_line (start 113.73 3.7) (end 115 3.7) (layer F.SilkS) (width 0.12))
  (fp_line (start 111 2.7) (end 111 3.7) (layer F.SilkS) (width 0.12))
  (fp_line (start 115 2.7) (end 115 3.7) (layer F.SilkS) (width 0.12))
  (fp_line (start 112.5 -4.65) (end 112.5 -2.15) (layer F.Fab) (width 0.1))
  (fp_line (start 112.5 -2.15) (end 113.5 -2.15) (layer F.Fab) (width 0.1))
  (fp_line (start 113.5 -2.15) (end 113.5 -4.65) (layer F.Fab) (width 0.1))
  (fp_line (start 113.5 -4.65) (end 112.5 -4.65) (layer F.Fab) (width 0.1))
  (fp_line (start 112.5 -4.65) (end 113.5 -4.65) (layer F.SilkS) (width 0.12))
  (fp_line (start 112.5 -2.151) (end 113.5 -2.151) (layer F.SilkS) (width 0.12))
  (fp_line (start 112.5 -4.65) (end 112.5 -2.151) (layer F.SilkS) (width 0.12))
  (fp_line (start 113.5 -4.65) (end 113.5 -2.151) (layer F.SilkS) (width 0.12))
  (fp_line (start 118.5 4.4) (end 118.77 4.4) (layer F.SilkS) (width 0.12))
  (fp_line (start 121.23 4.4) (end 122.5 4.4) (layer F.SilkS) (width 0.12))
  (fp_line (start 118.5 7.7) (end 122.5 7.7) (layer F.SilkS) (width 0.12))
  (fp_line (start 118.5 4.4) (end 118.5 7.7) (layer F.SilkS) (width 0.12))
  (fp_line (start 122.5 4.4) (end 122.5 7.7) (layer F.SilkS) (width 0.12))
  (fp_line (start 118.5 4.4) (end 118.5 7.7) (layer F.Fab) (width 0.1))
  (fp_line (start 118.5 7.7) (end 122.5 7.7) (layer F.Fab) (width 0.1))
  (fp_line (start 122.5 7.7) (end 122.5 4.4) (layer F.Fab) (width 0.1))
  (fp_line (start 122.5 4.4) (end 118.5 4.4) (layer F.Fab) (width 0.1))
  (fp_line (start 118 -5) (end 118 9) (layer F.Fab) (width 0.1))
  (fp_line (start 118 9) (end 125.5 9) (layer F.Fab) (width 0.1))
  (fp_line (start 125.5 9) (end 125.5 -5) (layer F.Fab) (width 0.1))
  (fp_line (start 125.5 -5) (end 118 -5) (layer F.Fab) (width 0.1))
  (fp_line (start 118 -5) (end 125.5 -5) (layer F.SilkS) (width 0.12))
  (fp_line (start 118 9) (end 125.5 9) (layer F.SilkS) (width 0.12))
  (fp_line (start 118 -5) (end 118 9) (layer F.SilkS) (width 0.12))
  (fp_line (start 125.5 -5) (end 125.5 9) (layer F.SilkS) (width 0.12))
  (fp_line (start 118.5 2.7) (end 118.5 3.7) (layer F.Fab) (width 0.1))
  (fp_line (start 118.5 3.7) (end 122.5 3.7) (layer F.Fab) (width 0.1))
  (fp_line (start 122.5 3.7) (end 122.5 2.7) (layer F.Fab) (width 0.1))
  (fp_line (start 122.5 2.7) (end 118.5 2.7) (layer F.Fab) (width 0.1))
  (fp_line (start 118.5 2.7) (end 122.5 2.7) (layer F.SilkS) (width 0.12))
  (fp_line (start 118.5 3.7) (end 118.77 3.7) (layer F.SilkS) (width 0.12))
  (fp_line (start 121.23 3.7) (end 122.5 3.7) (layer F.SilkS) (width 0.12))
  (fp_line (start 118.5 2.7) (end 118.5 3.7) (layer F.SilkS) (width 0.12))
  (fp_line (start 122.5 2.7) (end 122.5 3.7) (layer F.SilkS) (width 0.12))
  (fp_line (start 120 -4.65) (end 120 -2.15) (layer F.Fab) (width 0.1))
  (fp_line (start 120 -2.15) (end 121 -2.15) (layer F.Fab) (width 0.1))
  (fp_line (start 121 -2.15) (end 121 -4.65) (layer F.Fab) (width 0.1))
  (fp_line (start 121 -4.65) (end 120 -4.65) (layer F.Fab) (width 0.1))
  (fp_line (start 120 -4.65) (end 121 -4.65) (layer F.SilkS) (width 0.12))
  (fp_line (start 120 -2.151) (end 121 -2.151) (layer F.SilkS) (width 0.12))
  (fp_line (start 120 -4.65) (end 120 -2.151) (layer F.SilkS) (width 0.12))
  (fp_line (start 121 -4.65) (end 121 -2.151) (layer F.SilkS) (width 0.12))
  (fp_line (start 126 4.4) (end 126.27 4.4) (layer F.SilkS) (width 0.12))
  (fp_line (start 128.73 4.4) (end 130 4.4) (layer F.SilkS) (width 0.12))
  (fp_line (start 126 7.7) (end 130 7.7) (layer F.SilkS) (width 0.12))
  (fp_line (start 126 4.4) (end 126 7.7) (layer F.SilkS) (width 0.12))
  (fp_line (start 130 4.4) (end 130 7.7) (layer F.SilkS) (width 0.12))
  (fp_line (start 126 4.4) (end 126 7.7) (layer F.Fab) (width 0.1))
  (fp_line (start 126 7.7) (end 130 7.7) (layer F.Fab) (width 0.1))
  (fp_line (start 130 7.7) (end 130 4.4) (layer F.Fab) (width 0.1))
  (fp_line (start 130 4.4) (end 126 4.4) (layer F.Fab) (width 0.1))
  (fp_line (start 125.5 -5) (end 125.5 9) (layer F.Fab) (width 0.1))
  (fp_line (start 125.5 9) (end 133 9) (layer F.Fab) (width 0.1))
  (fp_line (start 133 9) (end 133 -5) (layer F.Fab) (width 0.1))
  (fp_line (start 133 -5) (end 125.5 -5) (layer F.Fab) (width 0.1))
  (fp_line (start 125.5 -5) (end 133 -5) (layer F.SilkS) (width 0.12))
  (fp_line (start 125.5 9) (end 133 9) (layer F.SilkS) (width 0.12))
  (fp_line (start 125.5 -5) (end 125.5 9) (layer F.SilkS) (width 0.12))
  (fp_line (start 133 -5) (end 133 9) (layer F.SilkS) (width 0.12))
  (fp_line (start 126 2.7) (end 126 3.7) (layer F.Fab) (width 0.1))
  (fp_line (start 126 3.7) (end 130 3.7) (layer F.Fab) (width 0.1))
  (fp_line (start 130 3.7) (end 130 2.7) (layer F.Fab) (width 0.1))
  (fp_line (start 130 2.7) (end 126 2.7) (layer F.Fab) (width 0.1))
  (fp_line (start 126 2.7) (end 130 2.7) (layer F.SilkS) (width 0.12))
  (fp_line (start 126 3.7) (end 126.27 3.7) (layer F.SilkS) (width 0.12))
  (fp_line (start 128.73 3.7) (end 130 3.7) (layer F.SilkS) (width 0.12))
  (fp_line (start 126 2.7) (end 126 3.7) (layer F.SilkS) (width 0.12))
  (fp_line (start 130 2.7) (end 130 3.7) (layer F.SilkS) (width 0.12))
  (fp_line (start 127.5 -4.65) (end 127.5 -2.15) (layer F.Fab) (width 0.1))
  (fp_line (start 127.5 -2.15) (end 128.5 -2.15) (layer F.Fab) (width 0.1))
  (fp_line (start 128.5 -2.15) (end 128.5 -4.65) (layer F.Fab) (width 0.1))
  (fp_line (start 128.5 -4.65) (end 127.5 -4.65) (layer F.Fab) (width 0.1))
  (fp_line (start 127.5 -4.65) (end 128.5 -4.65) (layer F.SilkS) (width 0.12))
  (fp_line (start 127.5 -2.151) (end 128.5 -2.151) (layer F.SilkS) (width 0.12))
  (fp_line (start 127.5 -4.65) (end 127.5 -2.151) (layer F.SilkS) (width 0.12))
  (fp_line (start 128.5 -4.65) (end 128.5 -2.151) (layer F.SilkS) (width 0.12))
  (fp_line (start 133.5 4.4) (end 133.77 4.4) (layer F.SilkS) (width 0.12))
  (fp_line (start 136.23 4.4) (end 137.5 4.4) (layer F.SilkS) (width 0.12))
  (fp_line (start 133.5 7.7) (end 137.5 7.7) (layer F.SilkS) (width 0.12))
  (fp_line (start 133.5 4.4) (end 133.5 7.7) (layer F.SilkS) (width 0.12))
  (fp_line (start 137.5 4.4) (end 137.5 7.7) (layer F.SilkS) (width 0.12))
  (fp_line (start 133.5 4.4) (end 133.5 7.7) (layer F.Fab) (width 0.1))
  (fp_line (start 133.5 7.7) (end 137.5 7.7) (layer F.Fab) (width 0.1))
  (fp_line (start 137.5 7.7) (end 137.5 4.4) (layer F.Fab) (width 0.1))
  (fp_line (start 137.5 4.4) (end 133.5 4.4) (layer F.Fab) (width 0.1))
  (fp_line (start 133 -5) (end 133 9) (layer F.Fab) (width 0.1))
  (fp_line (start 133 9) (end 140.5 9) (layer F.Fab) (width 0.1))
  (fp_line (start 140.5 9) (end 140.5 -5) (layer F.Fab) (width 0.1))
  (fp_line (start 140.5 -5) (end 133 -5) (layer F.Fab) (width 0.1))
  (fp_line (start 133 -5) (end 140.5 -5) (layer F.SilkS) (width 0.12))
  (fp_line (start 133 9) (end 140.5 9) (layer F.SilkS) (width 0.12))
  (fp_line (start 133 -5) (end 133 9) (layer F.SilkS) (width 0.12))
  (fp_line (start 140.5 -5) (end 140.5 9) (layer F.SilkS) (width 0.12))
  (fp_line (start 133.5 2.7) (end 133.5 3.7) (layer F.Fab) (width 0.1))
  (fp_line (start 133.5 3.7) (end 137.5 3.7) (layer F.Fab) (width 0.1))
  (fp_line (start 137.5 3.7) (end 137.5 2.7) (layer F.Fab) (width 0.1))
  (fp_line (start 137.5 2.7) (end 133.5 2.7) (layer F.Fab) (width 0.1))
  (fp_line (start 133.5 2.7) (end 137.5 2.7) (layer F.SilkS) (width 0.12))
  (fp_line (start 133.5 3.7) (end 133.77 3.7) (layer F.SilkS) (width 0.12))
  (fp_line (start 136.23 3.7) (end 137.5 3.7) (layer F.SilkS) (width 0.12))
  (fp_line (start 133.5 2.7) (end 133.5 3.7) (layer F.SilkS) (width 0.12))
  (fp_line (start 137.5 2.7) (end 137.5 3.7) (layer F.SilkS) (width 0.12))
  (fp_line (start 135 -4.65) (end 135 -2.15) (layer F.Fab) (width 0.1))
  (fp_line (start 135 -2.15) (end 136 -2.15) (layer F.Fab) (width 0.1))
  (fp_line (start 136 -2.15) (end 136 -4.65) (layer F.Fab) (width 0.1))
  (fp_line (start 136 -4.65) (end 135 -4.65) (layer F.Fab) (width 0.1))
  (fp_line (start 135 -4.65) (end 136 -4.65) (layer F.SilkS) (width 0.12))
  (fp_line (start 135 -2.151) (end 136 -2.151) (layer F.SilkS) (width 0.12))
  (fp_line (start 135 -4.65) (end 135 -2.151) (layer F.SilkS) (width 0.12))
  (fp_line (start 136 -4.65) (end 136 -2.151) (layer F.SilkS) (width 0.12))
  (fp_line (start 141 4.4) (end 141.27 4.4) (layer F.SilkS) (width 0.12))
  (fp_line (start 143.73 4.4) (end 145 4.4) (layer F.SilkS) (width 0.12))
  (fp_line (start 141 7.7) (end 145 7.7) (layer F.SilkS) (width 0.12))
  (fp_line (start 141 4.4) (end 141 7.7) (layer F.SilkS) (width 0.12))
  (fp_line (start 145 4.4) (end 145 7.7) (layer F.SilkS) (width 0.12))
  (fp_line (start 141 4.4) (end 141 7.7) (layer F.Fab) (width 0.1))
  (fp_line (start 141 7.7) (end 145 7.7) (layer F.Fab) (width 0.1))
  (fp_line (start 145 7.7) (end 145 4.4) (layer F.Fab) (width 0.1))
  (fp_line (start 145 4.4) (end 141 4.4) (layer F.Fab) (width 0.1))
  (fp_line (start 140.5 -5) (end 140.5 9) (layer F.Fab) (width 0.1))
  (fp_line (start 140.5 9) (end 148 9) (layer F.Fab) (width 0.1))
  (fp_line (start 148 9) (end 148 -5) (layer F.Fab) (width 0.1))
  (fp_line (start 148 -5) (end 140.5 -5) (layer F.Fab) (width 0.1))
  (fp_line (start 140.5 -5) (end 148 -5) (layer F.SilkS) (width 0.12))
  (fp_line (start 140.5 9) (end 148 9) (layer F.SilkS) (width 0.12))
  (fp_line (start 140.5 -5) (end 140.5 9) (layer F.SilkS) (width 0.12))
  (fp_line (start 148 -5) (end 148 9) (layer F.SilkS) (width 0.12))
  (fp_line (start 141 2.7) (end 141 3.7) (layer F.Fab) (width 0.1))
  (fp_line (start 141 3.7) (end 145 3.7) (layer F.Fab) (width 0.1))
  (fp_line (start 145 3.7) (end 145 2.7) (layer F.Fab) (width 0.1))
  (fp_line (start 145 2.7) (end 141 2.7) (layer F.Fab) (width 0.1))
  (fp_line (start 141 2.7) (end 145 2.7) (layer F.SilkS) (width 0.12))
  (fp_line (start 141 3.7) (end 141.27 3.7) (layer F.SilkS) (width 0.12))
  (fp_line (start 143.73 3.7) (end 145 3.7) (layer F.SilkS) (width 0.12))
  (fp_line (start 141 2.7) (end 141 3.7) (layer F.SilkS) (width 0.12))
  (fp_line (start 145 2.7) (end 145 3.7) (layer F.SilkS) (width 0.12))
  (fp_line (start 142.5 -4.65) (end 142.5 -2.15) (layer F.Fab) (width 0.1))
  (fp_line (start 142.5 -2.15) (end 143.5 -2.15) (layer F.Fab) (width 0.1))
  (fp_line (start 143.5 -2.15) (end 143.5 -4.65) (layer F.Fab) (width 0.1))
  (fp_line (start 143.5 -4.65) (end 142.5 -4.65) (layer F.Fab) (width 0.1))
  (fp_line (start 142.5 -4.65) (end 143.5 -4.65) (layer F.SilkS) (width 0.12))
  (fp_line (start 142.5 -2.151) (end 143.5 -2.151) (layer F.SilkS) (width 0.12))
  (fp_line (start 142.5 -4.65) (end 142.5 -2.151) (layer F.SilkS) (width 0.12))
  (fp_line (start 143.5 -4.65) (end 143.5 -2.151) (layer F.SilkS) (width 0.12))
  (fp_line (start 148.5 4.4) (end 148.77 4.4) (layer F.SilkS) (width 0.12))
  (fp_line (start 151.23 4.4) (end 152.5 4.4) (layer F.SilkS) (width 0.12))
  (fp_line (start 148.5 7.7) (end 152.5 7.7) (layer F.SilkS) (width 0.12))
  (fp_line (start 148.5 4.4) (end 148.5 7.7) (layer F.SilkS) (width 0.12))
  (fp_line (start 152.5 4.4) (end 152.5 7.7) (layer F.SilkS) (width 0.12))
  (fp_line (start 148.5 4.4) (end 148.5 7.7) (layer F.Fab) (width 0.1))
  (fp_line (start 148.5 7.7) (end 152.5 7.7) (layer F.Fab) (width 0.1))
  (fp_line (start 152.5 7.7) (end 152.5 4.4) (layer F.Fab) (width 0.1))
  (fp_line (start 152.5 4.4) (end 148.5 4.4) (layer F.Fab) (width 0.1))
  (fp_line (start 148 -5) (end 148 9) (layer F.Fab) (width 0.1))
  (fp_line (start 148 9) (end 155.5 9) (layer F.Fab) (width 0.1))
  (fp_line (start 155.5 9) (end 155.5 -5) (layer F.Fab) (width 0.1))
  (fp_line (start 155.5 -5) (end 148 -5) (layer F.Fab) (width 0.1))
  (fp_line (start 148 -5) (end 155.5 -5) (layer F.SilkS) (width 0.12))
  (fp_line (start 148 9) (end 155.5 9) (layer F.SilkS) (width 0.12))
  (fp_line (start 148 -5) (end 148 9) (layer F.SilkS) (width 0.12))
  (fp_line (start 155.5 -5) (end 155.5 9) (layer F.SilkS) (width 0.12))
  (fp_line (start 148.5 2.7) (end 148.5 3.7) (layer F.Fab) (width 0.1))
  (fp_line (start 148.5 3.7) (end 152.5 3.7) (layer F.Fab) (width 0.1))
  (fp_line (start 152.5 3.7) (end 152.5 2.7) (layer F.Fab) (width 0.1))
  (fp_line (start 152.5 2.7) (end 148.5 2.7) (layer F.Fab) (width 0.1))
  (fp_line (start 148.5 2.7) (end 152.5 2.7) (layer F.SilkS) (width 0.12))
  (fp_line (start 148.5 3.7) (end 148.77 3.7) (layer F.SilkS) (width 0.12))
  (fp_line (start 151.23 3.7) (end 152.5 3.7) (layer F.SilkS) (width 0.12))
  (fp_line (start 148.5 2.7) (end 148.5 3.7) (layer F.SilkS) (width 0.12))
  (fp_line (start 152.5 2.7) (end 152.5 3.7) (layer F.SilkS) (width 0.12))
  (fp_line (start 150 -4.65) (end 150 -2.15) (layer F.Fab) (width 0.1))
  (fp_line (start 150 -2.15) (end 151 -2.15) (layer F.Fab) (width 0.1))
  (fp_line (start 151 -2.15) (end 151 -4.65) (layer F.Fab) (width 0.1))
  (fp_line (start 151 -4.65) (end 150 -4.65) (layer F.Fab) (width 0.1))
  (fp_line (start 150 -4.65) (end 151 -4.65) (layer F.SilkS) (width 0.12))
  (fp_line (start 150 -2.151) (end 151 -2.151) (layer F.SilkS) (width 0.12))
  (fp_line (start 150 -4.65) (end 150 -2.151) (layer F.SilkS) (width 0.12))
  (fp_line (start 151 -4.65) (end 151 -2.151) (layer F.SilkS) (width 0.12))
  (fp_line (start 156 4.4) (end 156.27 4.4) (layer F.SilkS) (width 0.12))
  (fp_line (start 158.73 4.4) (end 160 4.4) (layer F.SilkS) (width 0.12))
  (fp_line (start 156 7.7) (end 160 7.7) (layer F.SilkS) (width 0.12))
  (fp_line (start 156 4.4) (end 156 7.7) (layer F.SilkS) (width 0.12))
  (fp_line (start 160 4.4) (end 160 7.7) (layer F.SilkS) (width 0.12))
  (fp_line (start 156 4.4) (end 156 7.7) (layer F.Fab) (width 0.1))
  (fp_line (start 156 7.7) (end 160 7.7) (layer F.Fab) (width 0.1))
  (fp_line (start 160 7.7) (end 160 4.4) (layer F.Fab) (width 0.1))
  (fp_line (start 160 4.4) (end 156 4.4) (layer F.Fab) (width 0.1))
  (fp_line (start 155.5 -5) (end 155.5 9) (layer F.Fab) (width 0.1))
  (fp_line (start 155.5 9) (end 163 9) (layer F.Fab) (width 0.1))
  (fp_line (start 163 9) (end 163 -5) (layer F.Fab) (width 0.1))
  (fp_line (start 163 -5) (end 155.5 -5) (layer F.Fab) (width 0.1))
  (fp_line (start 155.5 -5) (end 163 -5) (layer F.SilkS) (width 0.12))
  (fp_line (start 155.5 9) (end 163 9) (layer F.SilkS) (width 0.12))
  (fp_line (start 155.5 -5) (end 155.5 9) (layer F.SilkS) (width 0.12))
  (fp_line (start 163 -5) (end 163 9) (layer F.SilkS) (width 0.12))
  (fp_line (start 156 2.7) (end 156 3.7) (layer F.Fab) (width 0.1))
  (fp_line (start 156 3.7) (end 160 3.7) (layer F.Fab) (width 0.1))
  (fp_line (start 160 3.7) (end 160 2.7) (layer F.Fab) (width 0.1))
  (fp_line (start 160 2.7) (end 156 2.7) (layer F.Fab) (width 0.1))
  (fp_line (start 156 2.7) (end 160 2.7) (layer F.SilkS) (width 0.12))
  (fp_line (start 156 3.7) (end 156.27 3.7) (layer F.SilkS) (width 0.12))
  (fp_line (start 158.73 3.7) (end 160 3.7) (layer F.SilkS) (width 0.12))
  (fp_line (start 156 2.7) (end 156 3.7) (layer F.SilkS) (width 0.12))
  (fp_line (start 160 2.7) (end 160 3.7) (layer F.SilkS) (width 0.12))
  (fp_line (start 157.5 -4.65) (end 157.5 -2.15) (layer F.Fab) (width 0.1))
  (fp_line (start 157.5 -2.15) (end 158.5 -2.15) (layer F.Fab) (width 0.1))
  (fp_line (start 158.5 -2.15) (end 158.5 -4.65) (layer F.Fab) (width 0.1))
  (fp_line (start 158.5 -4.65) (end 157.5 -4.65) (layer F.Fab) (width 0.1))
  (fp_line (start 157.5 -4.65) (end 158.5 -4.65) (layer F.SilkS) (width 0.12))
  (fp_line (start 157.5 -2.151) (end 158.5 -2.151) (layer F.SilkS) (width 0.12))
  (fp_line (start 157.5 -4.65) (end 157.5 -2.151) (layer F.SilkS) (width 0.12))
  (fp_line (start 158.5 -4.65) (end 158.5 -2.151) (layer F.SilkS) (width 0.12))
  (fp_line (start 163.5 4.4) (end 163.77 4.4) (layer F.SilkS) (width 0.12))
  (fp_line (start 166.23 4.4) (end 167.5 4.4) (layer F.SilkS) (width 0.12))
  (fp_line (start 163.5 7.7) (end 167.5 7.7) (layer F.SilkS) (width 0.12))
  (fp_line (start 163.5 4.4) (end 163.5 7.7) (layer F.SilkS) (width 0.12))
  (fp_line (start 167.5 4.4) (end 167.5 7.7) (layer F.SilkS) (width 0.12))
  (fp_line (start 163.5 4.4) (end 163.5 7.7) (layer F.Fab) (width 0.1))
  (fp_line (start 163.5 7.7) (end 167.5 7.7) (layer F.Fab) (width 0.1))
  (fp_line (start 167.5 7.7) (end 167.5 4.4) (layer F.Fab) (width 0.1))
  (fp_line (start 167.5 4.4) (end 163.5 4.4) (layer F.Fab) (width 0.1))
  (fp_line (start 163 -5) (end 163 9) (layer F.Fab) (width 0.1))
  (fp_line (start 163 9) (end 170.5 9) (layer F.Fab) (width 0.1))
  (fp_line (start 170.5 9) (end 170.5 -5) (layer F.Fab) (width 0.1))
  (fp_line (start 170.5 -5) (end 163 -5) (layer F.Fab) (width 0.1))
  (fp_line (start 163 -5) (end 170.5 -5) (layer F.SilkS) (width 0.12))
  (fp_line (start 163 9) (end 170.5 9) (layer F.SilkS) (width 0.12))
  (fp_line (start 163 -5) (end 163 9) (layer F.SilkS) (width 0.12))
  (fp_line (start 170.5 -5) (end 170.5 9) (layer F.SilkS) (width 0.12))
  (fp_line (start 163.5 2.7) (end 163.5 3.7) (layer F.Fab) (width 0.1))
  (fp_line (start 163.5 3.7) (end 167.5 3.7) (layer F.Fab) (width 0.1))
  (fp_line (start 167.5 3.7) (end 167.5 2.7) (layer F.Fab) (width 0.1))
  (fp_line (start 167.5 2.7) (end 163.5 2.7) (layer F.Fab) (width 0.1))
  (fp_line (start 163.5 2.7) (end 167.5 2.7) (layer F.SilkS) (width 0.12))
  (fp_line (start 163.5 3.7) (end 163.77 3.7) (layer F.SilkS) (width 0.12))
  (fp_line (start 166.23 3.7) (end 167.5 3.7) (layer F.SilkS) (width 0.12))
  (fp_line (start 163.5 2.7) (end 163.5 3.7) (layer F.SilkS) (width 0.12))
  (fp_line (start 167.5 2.7) (end 167.5 3.7) (layer F.SilkS) (width 0.12))
  (fp_line (start 165 -4.65) (end 165 -2.15) (layer F.Fab) (width 0.1))
  (fp_line (start 165 -2.15) (end 166 -2.15) (layer F.Fab) (width 0.1))
  (fp_line (start 166 -2.15) (end 166 -4.65) (layer F.Fab) (width 0.1))
  (fp_line (start 166 -4.65) (end 165 -4.65) (layer F.Fab) (width 0.1))
  (fp_line (start 165 -4.65) (end 166 -4.65) (layer F.SilkS) (width 0.12))
  (fp_line (start 165 -2.151) (end 166 -2.151) (layer F.SilkS) (width 0.12))
  (fp_line (start 165 -4.65) (end 165 -2.151) (layer F.SilkS) (width 0.12))
  (fp_line (start 166 -4.65) (end 166 -2.151) (layer F.SilkS) (width 0.12))
  (fp_line (start 171 4.4) (end 171.27 4.4) (layer F.SilkS) (width 0.12))
  (fp_line (start 173.73 4.4) (end 175 4.4) (layer F.SilkS) (width 0.12))
  (fp_line (start 171 7.7) (end 175 7.7) (layer F.SilkS) (width 0.12))
  (fp_line (start 171 4.4) (end 171 7.7) (layer F.SilkS) (width 0.12))
  (fp_line (start 175 4.4) (end 175 7.7) (layer F.SilkS) (width 0.12))
  (fp_line (start 171 4.4) (end 171 7.7) (layer F.Fab) (width 0.1))
  (fp_line (start 171 7.7) (end 175 7.7) (layer F.Fab) (width 0.1))
  (fp_line (start 175 7.7) (end 175 4.4) (layer F.Fab) (width 0.1))
  (fp_line (start 175 4.4) (end 171 4.4) (layer F.Fab) (width 0.1))
  (fp_line (start 170.5 -5) (end 170.5 9) (layer F.Fab) (width 0.1))
  (fp_line (start 170.5 9) (end 178 9) (layer F.Fab) (width 0.1))
  (fp_line (start 178 9) (end 178 -5) (layer F.Fab) (width 0.1))
  (fp_line (start 178 -5) (end 170.5 -5) (layer F.Fab) (width 0.1))
  (fp_line (start 170.5 -5) (end 178 -5) (layer F.SilkS) (width 0.12))
  (fp_line (start 170.5 9) (end 178 9) (layer F.SilkS) (width 0.12))
  (fp_line (start 170.5 -5) (end 170.5 9) (layer F.SilkS) (width 0.12))
  (fp_line (start 178 -5) (end 178 9) (layer F.SilkS) (width 0.12))
  (fp_line (start 171 2.7) (end 171 3.7) (layer F.Fab) (width 0.1))
  (fp_line (start 171 3.7) (end 175 3.7) (layer F.Fab) (width 0.1))
  (fp_line (start 175 3.7) (end 175 2.7) (layer F.Fab) (width 0.1))
  (fp_line (start 175 2.7) (end 171 2.7) (layer F.Fab) (width 0.1))
  (fp_line (start 171 2.7) (end 175 2.7) (layer F.SilkS) (width 0.12))
  (fp_line (start 171 3.7) (end 171.27 3.7) (layer F.SilkS) (width 0.12))
  (fp_line (start 173.73 3.7) (end 175 3.7) (layer F.SilkS) (width 0.12))
  (fp_line (start 171 2.7) (end 171 3.7) (layer F.SilkS) (width 0.12))
  (fp_line (start 175 2.7) (end 175 3.7) (layer F.SilkS) (width 0.12))
  (fp_line (start 172.5 -4.65) (end 172.5 -2.15) (layer F.Fab) (width 0.1))
  (fp_line (start 172.5 -2.15) (end 173.5 -2.15) (layer F.Fab) (width 0.1))
  (fp_line (start 173.5 -2.15) (end 173.5 -4.65) (layer F.Fab) (width 0.1))
  (fp_line (start 173.5 -4.65) (end 172.5 -4.65) (layer F.Fab) (width 0.1))
  (fp_line (start 172.5 -4.65) (end 173.5 -4.65) (layer F.SilkS) (width 0.12))
  (fp_line (start 172.5 -2.151) (end 173.5 -2.151) (layer F.SilkS) (width 0.12))
  (fp_line (start 172.5 -4.65) (end 172.5 -2.151) (layer F.SilkS) (width 0.12))
  (fp_line (start 173.5 -4.65) (end 173.5 -2.151) (layer F.SilkS) (width 0.12))
  (fp_line (start -3.86 8.12) (end -3.86 9.36) (layer F.SilkS) (width 0.12))
  (fp_line (start -3.86 9.36) (end -2.86 9.36) (layer F.SilkS) (width 0.12))
  (fp_line (start -4 -5.5) (end -4 9.5) (layer F.CrtYd) (width 0.05))
  (fp_line (start -4 9.5) (end 179.3 9.5) (layer F.CrtYd) (width 0.05))
  (fp_line (start 179.3 9.5) (end 179.3 -5.5) (layer F.CrtYd) (width 0.05))
  (fp_line (start 179.3 -5.5) (end -4 -5.5) (layer F.CrtYd) (width 0.05))
  (pad 1 thru_hole rect (at 0 0) (size 1.5 3) (drill 1.15) (layers *.Cu *.Mask))
  (pad 1 thru_hole rect (at 0 5) (size 1.5 3) (drill 1.15) (layers *.Cu *.Mask))
  (pad 2 thru_hole oval (at 7.5 0) (size 1.5 3) (drill 1.15) (layers *.Cu *.Mask))
  (pad 2 thru_hole oval (at 7.5 5) (size 1.5 3) (drill 1.15) (layers *.Cu *.Mask))
  (pad 3 thru_hole oval (at 15 0) (size 1.5 3) (drill 1.15) (layers *.Cu *.Mask))
  (pad 3 thru_hole oval (at 15 5) (size 1.5 3) (drill 1.15) (layers *.Cu *.Mask))
  (pad 4 thru_hole oval (at 22.5 0) (size 1.5 3) (drill 1.15) (layers *.Cu *.Mask))
  (pad 4 thru_hole oval (at 22.5 5) (size 1.5 3) (drill 1.15) (layers *.Cu *.Mask))
  (pad 5 thru_hole oval (at 30 0) (size 1.5 3) (drill 1.15) (layers *.Cu *.Mask))
  (pad 5 thru_hole oval (at 30 5) (size 1.5 3) (drill 1.15) (layers *.Cu *.Mask))
  (pad 6 thru_hole oval (at 37.5 0) (size 1.5 3) (drill 1.15) (layers *.Cu *.Mask))
  (pad 6 thru_hole oval (at 37.5 5) (size 1.5 3) (drill 1.15) (layers *.Cu *.Mask))
  (pad 7 thru_hole oval (at 45 0) (size 1.5 3) (drill 1.15) (layers *.Cu *.Mask))
  (pad 7 thru_hole oval (at 45 5) (size 1.5 3) (drill 1.15) (layers *.Cu *.Mask))
  (pad 8 thru_hole oval (at 52.5 0) (size 1.5 3) (drill 1.15) (layers *.Cu *.Mask))
  (pad 8 thru_hole oval (at 52.5 5) (size 1.5 3) (drill 1.15) (layers *.Cu *.Mask))
  (pad 9 thru_hole oval (at 60 0) (size 1.5 3) (drill 1.15) (layers *.Cu *.Mask))
  (pad 9 thru_hole oval (at 60 5) (size 1.5 3) (drill 1.15) (layers *.Cu *.Mask))
  (pad 10 thru_hole oval (at 67.5 0) (size 1.5 3) (drill 1.15) (layers *.Cu *.Mask))
  (pad 10 thru_hole oval (at 67.5 5) (size 1.5 3) (drill 1.15) (layers *.Cu *.Mask))
  (pad 11 thru_hole oval (at 75 0) (size 1.5 3) (drill 1.15) (layers *.Cu *.Mask))
  (pad 11 thru_hole oval (at 75 5) (size 1.5 3) (drill 1.15) (layers *.Cu *.Mask))
  (pad 12 thru_hole oval (at 82.5 0) (size 1.5 3) (drill 1.15) (layers *.Cu *.Mask))
  (pad 12 thru_hole oval (at 82.5 5) (size 1.5 3) (drill 1.15) (layers *.Cu *.Mask))
  (pad 13 thru_hole oval (at 90 0) (size 1.5 3) (drill 1.15) (layers *.Cu *.Mask))
  (pad 13 thru_hole oval (at 90 5) (size 1.5 3) (drill 1.15) (layers *.Cu *.Mask))
  (pad 14 thru_hole oval (at 97.5 0) (size 1.5 3) (drill 1.15) (layers *.Cu *.Mask))
  (pad 14 thru_hole oval (at 97.5 5) (size 1.5 3) (drill 1.15) (layers *.Cu *.Mask))
  (pad 15 thru_hole oval (at 105 0) (size 1.5 3) (drill 1.15) (layers *.Cu *.Mask))
  (pad 15 thru_hole oval (at 105 5) (size 1.5 3) (drill 1.15) (layers *.Cu *.Mask))
  (pad 16 thru_hole oval (at 112.5 0) (size 1.5 3) (drill 1.15) (layers *.Cu *.Mask))
  (pad 16 thru_hole oval (at 112.5 5) (size 1.5 3) (drill 1.15) (layers *.Cu *.Mask))
  (pad 17 thru_hole oval (at 120 0) (size 1.5 3) (drill 1.15) (layers *.Cu *.Mask))
  (pad 17 thru_hole oval (at 120 5) (size 1.5 3) (drill 1.15) (layers *.Cu *.Mask))
  (pad 18 thru_hole oval (at 127.5 0) (size 1.5 3) (drill 1.15) (layers *.Cu *.Mask))
  (pad 18 thru_hole oval (at 127.5 5) (size 1.5 3) (drill 1.15) (layers *.Cu *.Mask))
  (pad 19 thru_hole oval (at 135 0) (size 1.5 3) (drill 1.15) (layers *.Cu *.Mask))
  (pad 19 thru_hole oval (at 135 5) (size 1.5 3) (drill 1.15) (layers *.Cu *.Mask))
  (pad 20 thru_hole oval (at 142.5 0) (size 1.5 3) (drill 1.15) (layers *.Cu *.Mask))
  (pad 20 thru_hole oval (at 142.5 5) (size 1.5 3) (drill 1.15) (layers *.Cu *.Mask))
  (pad 21 thru_hole oval (at 150 0) (size 1.5 3) (drill 1.15) (layers *.Cu *.Mask))
  (pad 21 thru_hole oval (at 150 5) (size 1.5 3) (drill 1.15) (layers *.Cu *.Mask))
  (pad 22 thru_hole oval (at 157.5 0) (size 1.5 3) (drill 1.15) (layers *.Cu *.Mask))
  (pad 22 thru_hole oval (at 157.5 5) (size 1.5 3) (drill 1.15) (layers *.Cu *.Mask))
  (pad 23 thru_hole oval (at 165 0) (size 1.5 3) (drill 1.15) (layers *.Cu *.Mask))
  (pad 23 thru_hole oval (at 165 5) (size 1.5 3) (drill 1.15) (layers *.Cu *.Mask))
  (pad 24 thru_hole oval (at 172.5 0) (size 1.5 3) (drill 1.15) (layers *.Cu *.Mask))
  (pad 24 thru_hole oval (at 172.5 5) (size 1.5 3) (drill 1.15) (layers *.Cu *.Mask))
  (fp_text user %R (at 87.65 1) (layer F.Fab)
    (effects (font (size 1 1) (thickness 0.15)))
  )
  (model ${KICAD6_3DMODEL_DIR}/TerminalBlock_WAGO.3dshapes/TerminalBlock_WAGO_236-524_1x24_P7.50mm_45Degree.wrl
    (at (xyz 0 0 0))
    (scale (xyz 1 1 1))
    (rotate (xyz 0 0 0))
  )
)