(module TerminalBlock_WAGO_236-324_1x24_P10.00mm_45Degree (layer F.Cu) (tedit 5F817317)
  (descr "Terminal Block WAGO 236-324, 45Degree (cable under 45degree), 24 pins, pitch 10mm, size 242x14mm^2, drill diamater 1.15mm, pad diameter 3mm, see , script-generated with , script-generated using https://github.com/pointhi/kicad-footprint-generator/scripts/TerminalBlock_WAGO")
  (tags "THT Terminal Block WAGO 236-324 45Degree pitch 10mm size 242x14mm^2 drill 1.15mm pad 3mm")
  (fp_text reference REF** (at 117.65 -6.12) (layer F.SilkS)
    (effects (font (size 1 1) (thickness 0.15)))
  )
  (fp_text value TerminalBlock_WAGO_236-324_1x24_P10.00mm_45Degree (at 117.65 10.12) (layer F.Fab)
    (effects (font (size 1 1) (thickness 0.15)))
  )
  (fp_line (start -3.5 -5) (end 238.8 -5) (layer F.Fab) (width 0.1))
  (fp_line (start 238.8 -5) (end 238.8 9) (layer F.Fab) (width 0.1))
  (fp_line (start 238.8 9) (end -2.5 9) (layer F.Fab) (width 0.1))
  (fp_line (start -2.5 9) (end -3.5 8) (layer F.Fab) (width 0.1))
  (fp_line (start -3.5 8) (end -3.5 -5) (layer F.Fab) (width 0.1))
  (fp_line (start -3.5 8) (end 238.8 8) (layer F.Fab) (width 0.1))
  (fp_line (start -3.62 8) (end 238.92 8) (layer F.SilkS) (width 0.12))
  (fp_line (start -3.5 2.3) (end 238.8 2.3) (layer F.Fab) (width 0.1))
  (fp_line (start -3.62 2.3) (end 238.92 2.3) (layer F.SilkS) (width 0.12))
  (fp_line (start -3.5 -0.5) (end 238.8 -0.5) (layer F.Fab) (width 0.1))
  (fp_line (start -3.62 -0.5) (end -1.23 -0.5) (layer F.SilkS) (width 0.12))
  (fp_line (start 1.23 -0.5) (end 8.77 -0.5) (layer F.SilkS) (width 0.12))
  (fp_line (start 11.23 -0.5) (end 18.77 -0.5) (layer F.SilkS) (width 0.12))
  (fp_line (start 21.23 -0.5) (end 28.77 -0.5) (layer F.SilkS) (width 0.12))
  (fp_line (start 31.23 -0.5) (end 38.77 -0.5) (layer F.SilkS) (width 0.12))
  (fp_line (start 41.23 -0.5) (end 48.77 -0.5) (layer F.SilkS) (width 0.12))
  (fp_line (start 51.23 -0.5) (end 58.77 -0.5) (layer F.SilkS) (width 0.12))
  (fp_line (start 61.23 -0.5) (end 68.77 -0.5) (layer F.SilkS) (width 0.12))
  (fp_line (start 71.23 -0.5) (end 78.77 -0.5) (layer F.SilkS) (width 0.12))
  (fp_line (start 81.23 -0.5) (end 88.77 -0.5) (layer F.SilkS) (width 0.12))
  (fp_line (start 91.23 -0.5) (end 98.77 -0.5) (layer F.SilkS) (width 0.12))
  (fp_line (start 101.23 -0.5) (end 108.77 -0.5) (layer F.SilkS) (width 0.12))
  (fp_line (start 111.23 -0.5) (end 118.77 -0.5) (layer F.SilkS) (width 0.12))
  (fp_line (start 121.23 -0.5) (end 128.771 -0.5) (layer F.SilkS) (width 0.12))
  (fp_line (start 131.23 -0.5) (end 138.77 -0.5) (layer F.SilkS) (width 0.12))
  (fp_line (start 141.23 -0.5) (end 148.77 -0.5) (layer F.SilkS) (width 0.12))
  (fp_line (start 151.23 -0.5) (end 158.77 -0.5) (layer F.SilkS) (width 0.12))
  (fp_line (start 161.23 -0.5) (end 168.77 -0.5) (layer F.SilkS) (width 0.12))
  (fp_line (start 171.23 -0.5) (end 178.77 -0.5) (layer F.SilkS) (width 0.12))
  (fp_line (start 181.23 -0.5) (end 188.77 -0.5) (layer F.SilkS) (width 0.12))
  (fp_line (start 191.23 -0.5) (end 198.77 -0.5) (layer F.SilkS) (width 0.12))
  (fp_line (start 201.23 -0.5) (end 208.77 -0.5) (layer F.SilkS) (width 0.12))
  (fp_line (start 211.23 -0.5) (end 218.77 -0.5) (layer F.SilkS) (width 0.12))
  (fp_line (start 221.23 -0.5) (end 228.77 -0.5) (layer F.SilkS) (width 0.12))
  (fp_line (start 231.23 -0.5) (end 238.92 -0.5) (layer F.SilkS) (width 0.12))
  (fp_line (start -3.62 -5.12) (end 238.92 -5.12) (layer F.SilkS) (width 0.12))
  (fp_line (start -3.62 9.12) (end 238.92 9.12) (layer F.SilkS) (width 0.12))
  (fp_line (start -3.62 -5.12) (end -3.62 9.12) (layer F.SilkS) (width 0.12))
  (fp_line (start 238.92 -5.12) (end 238.92 9.12) (layer F.SilkS) (width 0.12))
  (fp_line (start -1.5 4.4) (end 2.5 4.4) (layer F.SilkS) (width 0.12))
  (fp_line (start -1.5 7.7) (end 2.5 7.7) (layer F.SilkS) (width 0.12))
  (fp_line (start -1.5 4.4) (end -1.5 7.7) (layer F.SilkS) (width 0.12))
  (fp_line (start 2.5 4.4) (end 2.5 7.7) (layer F.SilkS) (width 0.12))
  (fp_line (start -1.5 4.4) (end -1.5 7.7) (layer F.Fab) (width 0.1))
  (fp_line (start -1.5 7.7) (end 2.5 7.7) (layer F.Fab) (width 0.1))
  (fp_line (start 2.5 7.7) (end 2.5 4.4) (layer F.Fab) (width 0.1))
  (fp_line (start 2.5 4.4) (end -1.5 4.4) (layer F.Fab) (width 0.1))
  (fp_line (start -2 -5) (end -2 9) (layer F.Fab) (width 0.1))
  (fp_line (start -2 9) (end 8 9) (layer F.Fab) (width 0.1))
  (fp_line (start 8 9) (end 8 -5) (layer F.Fab) (width 0.1))
  (fp_line (start 8 -5) (end -2 -5) (layer F.Fab) (width 0.1))
  (fp_line (start -2 -5) (end 8 -5) (layer F.SilkS) (width 0.12))
  (fp_line (start -2 9) (end 8 9) (layer F.SilkS) (width 0.12))
  (fp_line (start -2 -5) (end -2 9) (layer F.SilkS) (width 0.12))
  (fp_line (start 8 -5) (end 8 9) (layer F.SilkS) (width 0.12))
  (fp_line (start -1.5 2.7) (end -1.5 3.7) (layer F.Fab) (width 0.1))
  (fp_line (start -1.5 3.7) (end 2.5 3.7) (layer F.Fab) (width 0.1))
  (fp_line (start 2.5 3.7) (end 2.5 2.7) (layer F.Fab) (width 0.1))
  (fp_line (start 2.5 2.7) (end -1.5 2.7) (layer F.Fab) (width 0.1))
  (fp_line (start -1.5 2.7) (end 2.5 2.7) (layer F.SilkS) (width 0.12))
  (fp_line (start -1.5 3.7) (end 2.5 3.7) (layer F.SilkS) (width 0.12))
  (fp_line (start -1.5 2.7) (end -1.5 3.7) (layer F.SilkS) (width 0.12))
  (fp_line (start 2.5 2.7) (end 2.5 3.7) (layer F.SilkS) (width 0.12))
  (fp_line (start 0 -4.65) (end 0 -2.15) (layer F.Fab) (width 0.1))
  (fp_line (start 0 -2.15) (end 1 -2.15) (layer F.Fab) (width 0.1))
  (fp_line (start 1 -2.15) (end 1 -4.65) (layer F.Fab) (width 0.1))
  (fp_line (start 1 -4.65) (end 0 -4.65) (layer F.Fab) (width 0.1))
  (fp_line (start 0 -4.65) (end 1 -4.65) (layer F.SilkS) (width 0.12))
  (fp_line (start 0 -2.151) (end 1 -2.151) (layer F.SilkS) (width 0.12))
  (fp_line (start 0 -4.65) (end 0 -2.151) (layer F.SilkS) (width 0.12))
  (fp_line (start 1 -4.65) (end 1 -2.151) (layer F.SilkS) (width 0.12))
  (fp_line (start 8.5 4.4) (end 12.5 4.4) (layer F.SilkS) (width 0.12))
  (fp_line (start 8.5 7.7) (end 12.5 7.7) (layer F.SilkS) (width 0.12))
  (fp_line (start 8.5 4.4) (end 8.5 7.7) (layer F.SilkS) (width 0.12))
  (fp_line (start 12.5 4.4) (end 12.5 7.7) (layer F.SilkS) (width 0.12))
  (fp_line (start 8.5 4.4) (end 8.5 7.7) (layer F.Fab) (width 0.1))
  (fp_line (start 8.5 7.7) (end 12.5 7.7) (layer F.Fab) (width 0.1))
  (fp_line (start 12.5 7.7) (end 12.5 4.4) (layer F.Fab) (width 0.1))
  (fp_line (start 12.5 4.4) (end 8.5 4.4) (layer F.Fab) (width 0.1))
  (fp_line (start 8 -5) (end 8 9) (layer F.Fab) (width 0.1))
  (fp_line (start 8 9) (end 18 9) (layer F.Fab) (width 0.1))
  (fp_line (start 18 9) (end 18 -5) (layer F.Fab) (width 0.1))
  (fp_line (start 18 -5) (end 8 -5) (layer F.Fab) (width 0.1))
  (fp_line (start 8 -5) (end 18 -5) (layer F.SilkS) (width 0.12))
  (fp_line (start 8 9) (end 18 9) (layer F.SilkS) (width 0.12))
  (fp_line (start 8 -5) (end 8 9) (layer F.SilkS) (width 0.12))
  (fp_line (start 18 -5) (end 18 9) (layer F.SilkS) (width 0.12))
  (fp_line (start 8.5 2.7) (end 8.5 3.7) (layer F.Fab) (width 0.1))
  (fp_line (start 8.5 3.7) (end 12.5 3.7) (layer F.Fab) (width 0.1))
  (fp_line (start 12.5 3.7) (end 12.5 2.7) (layer F.Fab) (width 0.1))
  (fp_line (start 12.5 2.7) (end 8.5 2.7) (layer F.Fab) (width 0.1))
  (fp_line (start 8.5 2.7) (end 12.5 2.7) (layer F.SilkS) (width 0.12))
  (fp_line (start 8.5 3.7) (end 12.5 3.7) (layer F.SilkS) (width 0.12))
  (fp_line (start 8.5 2.7) (end 8.5 3.7) (layer F.SilkS) (width 0.12))
  (fp_line (start 12.5 2.7) (end 12.5 3.7) (layer F.SilkS) (width 0.12))
  (fp_line (start 10 -4.65) (end 10 -2.15) (layer F.Fab) (width 0.1))
  (fp_line (start 10 -2.15) (end 11 -2.15) (layer F.Fab) (width 0.1))
  (fp_line (start 11 -2.15) (end 11 -4.65) (layer F.Fab) (width 0.1))
  (fp_line (start 11 -4.65) (end 10 -4.65) (layer F.Fab) (width 0.1))
  (fp_line (start 10 -4.65) (end 11 -4.65) (layer F.SilkS) (width 0.12))
  (fp_line (start 10 -2.151) (end 11 -2.151) (layer F.SilkS) (width 0.12))
  (fp_line (start 10 -4.65) (end 10 -2.151) (layer F.SilkS) (width 0.12))
  (fp_line (start 11 -4.65) (end 11 -2.151) (layer F.SilkS) (width 0.12))
  (fp_line (start 18.5 4.4) (end 22.5 4.4) (layer F.SilkS) (width 0.12))
  (fp_line (start 18.5 7.7) (end 22.5 7.7) (layer F.SilkS) (width 0.12))
  (fp_line (start 18.5 4.4) (end 18.5 7.7) (layer F.SilkS) (width 0.12))
  (fp_line (start 22.5 4.4) (end 22.5 7.7) (layer F.SilkS) (width 0.12))
  (fp_line (start 18.5 4.4) (end 18.5 7.7) (layer F.Fab) (width 0.1))
  (fp_line (start 18.5 7.7) (end 22.5 7.7) (layer F.Fab) (width 0.1))
  (fp_line (start 22.5 7.7) (end 22.5 4.4) (layer F.Fab) (width 0.1))
  (fp_line (start 22.5 4.4) (end 18.5 4.4) (layer F.Fab) (width 0.1))
  (fp_line (start 18 -5) (end 18 9) (layer F.Fab) (width 0.1))
  (fp_line (start 18 9) (end 28 9) (layer F.Fab) (width 0.1))
  (fp_line (start 28 9) (end 28 -5) (layer F.Fab) (width 0.1))
  (fp_line (start 28 -5) (end 18 -5) (layer F.Fab) (width 0.1))
  (fp_line (start 18 -5) (end 28 -5) (layer F.SilkS) (width 0.12))
  (fp_line (start 18 9) (end 28 9) (layer F.SilkS) (width 0.12))
  (fp_line (start 18 -5) (end 18 9) (layer F.SilkS) (width 0.12))
  (fp_line (start 28 -5) (end 28 9) (layer F.SilkS) (width 0.12))
  (fp_line (start 18.5 2.7) (end 18.5 3.7) (layer F.Fab) (width 0.1))
  (fp_line (start 18.5 3.7) (end 22.5 3.7) (layer F.Fab) (width 0.1))
  (fp_line (start 22.5 3.7) (end 22.5 2.7) (layer F.Fab) (width 0.1))
  (fp_line (start 22.5 2.7) (end 18.5 2.7) (layer F.Fab) (width 0.1))
  (fp_line (start 18.5 2.7) (end 22.5 2.7) (layer F.SilkS) (width 0.12))
  (fp_line (start 18.5 3.7) (end 22.5 3.7) (layer F.SilkS) (width 0.12))
  (fp_line (start 18.5 2.7) (end 18.5 3.7) (layer F.SilkS) (width 0.12))
  (fp_line (start 22.5 2.7) (end 22.5 3.7) (layer F.SilkS) (width 0.12))
  (fp_line (start 20 -4.65) (end 20 -2.15) (layer F.Fab) (width 0.1))
  (fp_line (start 20 -2.15) (end 21 -2.15) (layer F.Fab) (width 0.1))
  (fp_line (start 21 -2.15) (end 21 -4.65) (layer F.Fab) (width 0.1))
  (fp_line (start 21 -4.65) (end 20 -4.65) (layer F.Fab) (width 0.1))
  (fp_line (start 20 -4.65) (end 21 -4.65) (layer F.SilkS) (width 0.12))
  (fp_line (start 20 -2.151) (end 21 -2.151) (layer F.SilkS) (width 0.12))
  (fp_line (start 20 -4.65) (end 20 -2.151) (layer F.SilkS) (width 0.12))
  (fp_line (start 21 -4.65) (end 21 -2.151) (layer F.SilkS) (width 0.12))
  (fp_line (start 28.5 4.4) (end 32.5 4.4) (layer F.SilkS) (width 0.12))
  (fp_line (start 28.5 7.7) (end 32.5 7.7) (layer F.SilkS) (width 0.12))
  (fp_line (start 28.5 4.4) (end 28.5 7.7) (layer F.SilkS) (width 0.12))
  (fp_line (start 32.5 4.4) (end 32.5 7.7) (layer F.SilkS) (width 0.12))
  (fp_line (start 28.5 4.4) (end 28.5 7.7) (layer F.Fab) (width 0.1))
  (fp_line (start 28.5 7.7) (end 32.5 7.7) (layer F.Fab) (width 0.1))
  (fp_line (start 32.5 7.7) (end 32.5 4.4) (layer F.Fab) (width 0.1))
  (fp_line (start 32.5 4.4) (end 28.5 4.4) (layer F.Fab) (width 0.1))
  (fp_line (start 28 -5) (end 28 9) (layer F.Fab) (width 0.1))
  (fp_line (start 28 9) (end 38 9) (layer F.Fab) (width 0.1))
  (fp_line (start 38 9) (end 38 -5) (layer F.Fab) (width 0.1))
  (fp_line (start 38 -5) (end 28 -5) (layer F.Fab) (width 0.1))
  (fp_line (start 28 -5) (end 38 -5) (layer F.SilkS) (width 0.12))
  (fp_line (start 28 9) (end 38 9) (layer F.SilkS) (width 0.12))
  (fp_line (start 28 -5) (end 28 9) (layer F.SilkS) (width 0.12))
  (fp_line (start 38 -5) (end 38 9) (layer F.SilkS) (width 0.12))
  (fp_line (start 28.5 2.7) (end 28.5 3.7) (layer F.Fab) (width 0.1))
  (fp_line (start 28.5 3.7) (end 32.5 3.7) (layer F.Fab) (width 0.1))
  (fp_line (start 32.5 3.7) (end 32.5 2.7) (layer F.Fab) (width 0.1))
  (fp_line (start 32.5 2.7) (end 28.5 2.7) (layer F.Fab) (width 0.1))
  (fp_line (start 28.5 2.7) (end 32.5 2.7) (layer F.SilkS) (width 0.12))
  (fp_line (start 28.5 3.7) (end 32.5 3.7) (layer F.SilkS) (width 0.12))
  (fp_line (start 28.5 2.7) (end 28.5 3.7) (layer F.SilkS) (width 0.12))
  (fp_line (start 32.5 2.7) (end 32.5 3.7) (layer F.SilkS) (width 0.12))
  (fp_line (start 30 -4.65) (end 30 -2.15) (layer F.Fab) (width 0.1))
  (fp_line (start 30 -2.15) (end 31 -2.15) (layer F.Fab) (width 0.1))
  (fp_line (start 31 -2.15) (end 31 -4.65) (layer F.Fab) (width 0.1))
  (fp_line (start 31 -4.65) (end 30 -4.65) (layer F.Fab) (width 0.1))
  (fp_line (start 30 -4.65) (end 31 -4.65) (layer F.SilkS) (width 0.12))
  (fp_line (start 30 -2.151) (end 31 -2.151) (layer F.SilkS) (width 0.12))
  (fp_line (start 30 -4.65) (end 30 -2.151) (layer F.SilkS) (width 0.12))
  (fp_line (start 31 -4.65) (end 31 -2.151) (layer F.SilkS) (width 0.12))
  (fp_line (start 38.5 4.4) (end 42.5 4.4) (layer F.SilkS) (width 0.12))
  (fp_line (start 38.5 7.7) (end 42.5 7.7) (layer F.SilkS) (width 0.12))
  (fp_line (start 38.5 4.4) (end 38.5 7.7) (layer F.SilkS) (width 0.12))
  (fp_line (start 42.5 4.4) (end 42.5 7.7) (layer F.SilkS) (width 0.12))
  (fp_line (start 38.5 4.4) (end 38.5 7.7) (layer F.Fab) (width 0.1))
  (fp_line (start 38.5 7.7) (end 42.5 7.7) (layer F.Fab) (width 0.1))
  (fp_line (start 42.5 7.7) (end 42.5 4.4) (layer F.Fab) (width 0.1))
  (fp_line (start 42.5 4.4) (end 38.5 4.4) (layer F.Fab) (width 0.1))
  (fp_line (start 38 -5) (end 38 9) (layer F.Fab) (width 0.1))
  (fp_line (start 38 9) (end 48 9) (layer F.Fab) (width 0.1))
  (fp_line (start 48 9) (end 48 -5) (layer F.Fab) (width 0.1))
  (fp_line (start 48 -5) (end 38 -5) (layer F.Fab) (width 0.1))
  (fp_line (start 38 -5) (end 48 -5) (layer F.SilkS) (width 0.12))
  (fp_line (start 38 9) (end 48 9) (layer F.SilkS) (width 0.12))
  (fp_line (start 38 -5) (end 38 9) (layer F.SilkS) (width 0.12))
  (fp_line (start 48 -5) (end 48 9) (layer F.SilkS) (width 0.12))
  (fp_line (start 38.5 2.7) (end 38.5 3.7) (layer F.Fab) (width 0.1))
  (fp_line (start 38.5 3.7) (end 42.5 3.7) (layer F.Fab) (width 0.1))
  (fp_line (start 42.5 3.7) (end 42.5 2.7) (layer F.Fab) (width 0.1))
  (fp_line (start 42.5 2.7) (end 38.5 2.7) (layer F.Fab) (width 0.1))
  (fp_line (start 38.5 2.7) (end 42.5 2.7) (layer F.SilkS) (width 0.12))
  (fp_line (start 38.5 3.7) (end 42.5 3.7) (layer F.SilkS) (width 0.12))
  (fp_line (start 38.5 2.7) (end 38.5 3.7) (layer F.SilkS) (width 0.12))
  (fp_line (start 42.5 2.7) (end 42.5 3.7) (layer F.SilkS) (width 0.12))
  (fp_line (start 40 -4.65) (end 40 -2.15) (layer F.Fab) (width 0.1))
  (fp_line (start 40 -2.15) (end 41 -2.15) (layer F.Fab) (width 0.1))
  (fp_line (start 41 -2.15) (end 41 -4.65) (layer F.Fab) (width 0.1))
  (fp_line (start 41 -4.65) (end 40 -4.65) (layer F.Fab) (width 0.1))
  (fp_line (start 40 -4.65) (end 41 -4.65) (layer F.SilkS) (width 0.12))
  (fp_line (start 40 -2.151) (end 41 -2.151) (layer F.SilkS) (width 0.12))
  (fp_line (start 40 -4.65) (end 40 -2.151) (layer F.SilkS) (width 0.12))
  (fp_line (start 41 -4.65) (end 41 -2.151) (layer F.SilkS) (width 0.12))
  (fp_line (start 48.5 4.4) (end 52.5 4.4) (layer F.SilkS) (width 0.12))
  (fp_line (start 48.5 7.7) (end 52.5 7.7) (layer F.SilkS) (width 0.12))
  (fp_line (start 48.5 4.4) (end 48.5 7.7) (layer F.SilkS) (width 0.12))
  (fp_line (start 52.5 4.4) (end 52.5 7.7) (layer F.SilkS) (width 0.12))
  (fp_line (start 48.5 4.4) (end 48.5 7.7) (layer F.Fab) (width 0.1))
  (fp_line (start 48.5 7.7) (end 52.5 7.7) (layer F.Fab) (width 0.1))
  (fp_line (start 52.5 7.7) (end 52.5 4.4) (layer F.Fab) (width 0.1))
  (fp_line (start 52.5 4.4) (end 48.5 4.4) (layer F.Fab) (width 0.1))
  (fp_line (start 48 -5) (end 48 9) (layer F.Fab) (width 0.1))
  (fp_line (start 48 9) (end 58 9) (layer F.Fab) (width 0.1))
  (fp_line (start 58 9) (end 58 -5) (layer F.Fab) (width 0.1))
  (fp_line (start 58 -5) (end 48 -5) (layer F.Fab) (width 0.1))
  (fp_line (start 48 -5) (end 58 -5) (layer F.SilkS) (width 0.12))
  (fp_line (start 48 9) (end 58 9) (layer F.SilkS) (width 0.12))
  (fp_line (start 48 -5) (end 48 9) (layer F.SilkS) (width 0.12))
  (fp_line (start 58 -5) (end 58 9) (layer F.SilkS) (width 0.12))
  (fp_line (start 48.5 2.7) (end 48.5 3.7) (layer F.Fab) (width 0.1))
  (fp_line (start 48.5 3.7) (end 52.5 3.7) (layer F.Fab) (width 0.1))
  (fp_line (start 52.5 3.7) (end 52.5 2.7) (layer F.Fab) (width 0.1))
  (fp_line (start 52.5 2.7) (end 48.5 2.7) (layer F.Fab) (width 0.1))
  (fp_line (start 48.5 2.7) (end 52.5 2.7) (layer F.SilkS) (width 0.12))
  (fp_line (start 48.5 3.7) (end 52.5 3.7) (layer F.SilkS) (width 0.12))
  (fp_line (start 48.5 2.7) (end 48.5 3.7) (layer F.SilkS) (width 0.12))
  (fp_line (start 52.5 2.7) (end 52.5 3.7) (layer F.SilkS) (width 0.12))
  (fp_line (start 50 -4.65) (end 50 -2.15) (layer F.Fab) (width 0.1))
  (fp_line (start 50 -2.15) (end 51 -2.15) (layer F.Fab) (width 0.1))
  (fp_line (start 51 -2.15) (end 51 -4.65) (layer F.Fab) (width 0.1))
  (fp_line (start 51 -4.65) (end 50 -4.65) (layer F.Fab) (width 0.1))
  (fp_line (start 50 -4.65) (end 51 -4.65) (layer F.SilkS) (width 0.12))
  (fp_line (start 50 -2.151) (end 51 -2.151) (layer F.SilkS) (width 0.12))
  (fp_line (start 50 -4.65) (end 50 -2.151) (layer F.SilkS) (width 0.12))
  (fp_line (start 51 -4.65) (end 51 -2.151) (layer F.SilkS) (width 0.12))
  (fp_line (start 58.5 4.4) (end 62.5 4.4) (layer F.SilkS) (width 0.12))
  (fp_line (start 58.5 7.7) (end 62.5 7.7) (layer F.SilkS) (width 0.12))
  (fp_line (start 58.5 4.4) (end 58.5 7.7) (layer F.SilkS) (width 0.12))
  (fp_line (start 62.5 4.4) (end 62.5 7.7) (layer F.SilkS) (width 0.12))
  (fp_line (start 58.5 4.4) (end 58.5 7.7) (layer F.Fab) (width 0.1))
  (fp_line (start 58.5 7.7) (end 62.5 7.7) (layer F.Fab) (width 0.1))
  (fp_line (start 62.5 7.7) (end 62.5 4.4) (layer F.Fab) (width 0.1))
  (fp_line (start 62.5 4.4) (end 58.5 4.4) (layer F.Fab) (width 0.1))
  (fp_line (start 58 -5) (end 58 9) (layer F.Fab) (width 0.1))
  (fp_line (start 58 9) (end 68 9) (layer F.Fab) (width 0.1))
  (fp_line (start 68 9) (end 68 -5) (layer F.Fab) (width 0.1))
  (fp_line (start 68 -5) (end 58 -5) (layer F.Fab) (width 0.1))
  (fp_line (start 58 -5) (end 68 -5) (layer F.SilkS) (width 0.12))
  (fp_line (start 58 9) (end 68 9) (layer F.SilkS) (width 0.12))
  (fp_line (start 58 -5) (end 58 9) (layer F.SilkS) (width 0.12))
  (fp_line (start 68 -5) (end 68 9) (layer F.SilkS) (width 0.12))
  (fp_line (start 58.5 2.7) (end 58.5 3.7) (layer F.Fab) (width 0.1))
  (fp_line (start 58.5 3.7) (end 62.5 3.7) (layer F.Fab) (width 0.1))
  (fp_line (start 62.5 3.7) (end 62.5 2.7) (layer F.Fab) (width 0.1))
  (fp_line (start 62.5 2.7) (end 58.5 2.7) (layer F.Fab) (width 0.1))
  (fp_line (start 58.5 2.7) (end 62.5 2.7) (layer F.SilkS) (width 0.12))
  (fp_line (start 58.5 3.7) (end 62.5 3.7) (layer F.SilkS) (width 0.12))
  (fp_line (start 58.5 2.7) (end 58.5 3.7) (layer F.SilkS) (width 0.12))
  (fp_line (start 62.5 2.7) (end 62.5 3.7) (layer F.SilkS) (width 0.12))
  (fp_line (start 60 -4.65) (end 60 -2.15) (layer F.Fab) (width 0.1))
  (fp_line (start 60 -2.15) (end 61 -2.15) (layer F.Fab) (width 0.1))
  (fp_line (start 61 -2.15) (end 61 -4.65) (layer F.Fab) (width 0.1))
  (fp_line (start 61 -4.65) (end 60 -4.65) (layer F.Fab) (width 0.1))
  (fp_line (start 60 -4.65) (end 61 -4.65) (layer F.SilkS) (width 0.12))
  (fp_line (start 60 -2.151) (end 61 -2.151) (layer F.SilkS) (width 0.12))
  (fp_line (start 60 -4.65) (end 60 -2.151) (layer F.SilkS) (width 0.12))
  (fp_line (start 61 -4.65) (end 61 -2.151) (layer F.SilkS) (width 0.12))
  (fp_line (start 68.5 4.4) (end 72.5 4.4) (layer F.SilkS) (width 0.12))
  (fp_line (start 68.5 7.7) (end 72.5 7.7) (layer F.SilkS) (width 0.12))
  (fp_line (start 68.5 4.4) (end 68.5 7.7) (layer F.SilkS) (width 0.12))
  (fp_line (start 72.5 4.4) (end 72.5 7.7) (layer F.SilkS) (width 0.12))
  (fp_line (start 68.5 4.4) (end 68.5 7.7) (layer F.Fab) (width 0.1))
  (fp_line (start 68.5 7.7) (end 72.5 7.7) (layer F.Fab) (width 0.1))
  (fp_line (start 72.5 7.7) (end 72.5 4.4) (layer F.Fab) (width 0.1))
  (fp_line (start 72.5 4.4) (end 68.5 4.4) (layer F.Fab) (width 0.1))
  (fp_line (start 68 -5) (end 68 9) (layer F.Fab) (width 0.1))
  (fp_line (start 68 9) (end 78 9) (layer F.Fab) (width 0.1))
  (fp_line (start 78 9) (end 78 -5) (layer F.Fab) (width 0.1))
  (fp_line (start 78 -5) (end 68 -5) (layer F.Fab) (width 0.1))
  (fp_line (start 68 -5) (end 78 -5) (layer F.SilkS) (width 0.12))
  (fp_line (start 68 9) (end 78 9) (layer F.SilkS) (width 0.12))
  (fp_line (start 68 -5) (end 68 9) (layer F.SilkS) (width 0.12))
  (fp_line (start 78 -5) (end 78 9) (layer F.SilkS) (width 0.12))
  (fp_line (start 68.5 2.7) (end 68.5 3.7) (layer F.Fab) (width 0.1))
  (fp_line (start 68.5 3.7) (end 72.5 3.7) (layer F.Fab) (width 0.1))
  (fp_line (start 72.5 3.7) (end 72.5 2.7) (layer F.Fab) (width 0.1))
  (fp_line (start 72.5 2.7) (end 68.5 2.7) (layer F.Fab) (width 0.1))
  (fp_line (start 68.5 2.7) (end 72.5 2.7) (layer F.SilkS) (width 0.12))
  (fp_line (start 68.5 3.7) (end 72.5 3.7) (layer F.SilkS) (width 0.12))
  (fp_line (start 68.5 2.7) (end 68.5 3.7) (layer F.SilkS) (width 0.12))
  (fp_line (start 72.5 2.7) (end 72.5 3.7) (layer F.SilkS) (width 0.12))
  (fp_line (start 70 -4.65) (end 70 -2.15) (layer F.Fab) (width 0.1))
  (fp_line (start 70 -2.15) (end 71 -2.15) (layer F.Fab) (width 0.1))
  (fp_line (start 71 -2.15) (end 71 -4.65) (layer F.Fab) (width 0.1))
  (fp_line (start 71 -4.65) (end 70 -4.65) (layer F.Fab) (width 0.1))
  (fp_line (start 70 -4.65) (end 71 -4.65) (layer F.SilkS) (width 0.12))
  (fp_line (start 70 -2.151) (end 71 -2.151) (layer F.SilkS) (width 0.12))
  (fp_line (start 70 -4.65) (end 70 -2.151) (layer F.SilkS) (width 0.12))
  (fp_line (start 71 -4.65) (end 71 -2.151) (layer F.SilkS) (width 0.12))
  (fp_line (start 78.5 4.4) (end 82.5 4.4) (layer F.SilkS) (width 0.12))
  (fp_line (start 78.5 7.7) (end 82.5 7.7) (layer F.SilkS) (width 0.12))
  (fp_line (start 78.5 4.4) (end 78.5 7.7) (layer F.SilkS) (width 0.12))
  (fp_line (start 82.5 4.4) (end 82.5 7.7) (layer F.SilkS) (width 0.12))
  (fp_line (start 78.5 4.4) (end 78.5 7.7) (layer F.Fab) (width 0.1))
  (fp_line (start 78.5 7.7) (end 82.5 7.7) (layer F.Fab) (width 0.1))
  (fp_line (start 82.5 7.7) (end 82.5 4.4) (layer F.Fab) (width 0.1))
  (fp_line (start 82.5 4.4) (end 78.5 4.4) (layer F.Fab) (width 0.1))
  (fp_line (start 78 -5) (end 78 9) (layer F.Fab) (width 0.1))
  (fp_line (start 78 9) (end 88 9) (layer F.Fab) (width 0.1))
  (fp_line (start 88 9) (end 88 -5) (layer F.Fab) (width 0.1))
  (fp_line (start 88 -5) (end 78 -5) (layer F.Fab) (width 0.1))
  (fp_line (start 78 -5) (end 88 -5) (layer F.SilkS) (width 0.12))
  (fp_line (start 78 9) (end 88 9) (layer F.SilkS) (width 0.12))
  (fp_line (start 78 -5) (end 78 9) (layer F.SilkS) (width 0.12))
  (fp_line (start 88 -5) (end 88 9) (layer F.SilkS) (width 0.12))
  (fp_line (start 78.5 2.7) (end 78.5 3.7) (layer F.Fab) (width 0.1))
  (fp_line (start 78.5 3.7) (end 82.5 3.7) (layer F.Fab) (width 0.1))
  (fp_line (start 82.5 3.7) (end 82.5 2.7) (layer F.Fab) (width 0.1))
  (fp_line (start 82.5 2.7) (end 78.5 2.7) (layer F.Fab) (width 0.1))
  (fp_line (start 78.5 2.7) (end 82.5 2.7) (layer F.SilkS) (width 0.12))
  (fp_line (start 78.5 3.7) (end 82.5 3.7) (layer F.SilkS) (width 0.12))
  (fp_line (start 78.5 2.7) (end 78.5 3.7) (layer F.SilkS) (width 0.12))
  (fp_line (start 82.5 2.7) (end 82.5 3.7) (layer F.SilkS) (width 0.12))
  (fp_line (start 80 -4.65) (end 80 -2.15) (layer F.Fab) (width 0.1))
  (fp_line (start 80 -2.15) (end 81 -2.15) (layer F.Fab) (width 0.1))
  (fp_line (start 81 -2.15) (end 81 -4.65) (layer F.Fab) (width 0.1))
  (fp_line (start 81 -4.65) (end 80 -4.65) (layer F.Fab) (width 0.1))
  (fp_line (start 80 -4.65) (end 81 -4.65) (layer F.SilkS) (width 0.12))
  (fp_line (start 80 -2.151) (end 81 -2.151) (layer F.SilkS) (width 0.12))
  (fp_line (start 80 -4.65) (end 80 -2.151) (layer F.SilkS) (width 0.12))
  (fp_line (start 81 -4.65) (end 81 -2.151) (layer F.SilkS) (width 0.12))
  (fp_line (start 88.5 4.4) (end 92.5 4.4) (layer F.SilkS) (width 0.12))
  (fp_line (start 88.5 7.7) (end 92.5 7.7) (layer F.SilkS) (width 0.12))
  (fp_line (start 88.5 4.4) (end 88.5 7.7) (layer F.SilkS) (width 0.12))
  (fp_line (start 92.5 4.4) (end 92.5 7.7) (layer F.SilkS) (width 0.12))
  (fp_line (start 88.5 4.4) (end 88.5 7.7) (layer F.Fab) (width 0.1))
  (fp_line (start 88.5 7.7) (end 92.5 7.7) (layer F.Fab) (width 0.1))
  (fp_line (start 92.5 7.7) (end 92.5 4.4) (layer F.Fab) (width 0.1))
  (fp_line (start 92.5 4.4) (end 88.5 4.4) (layer F.Fab) (width 0.1))
  (fp_line (start 88 -5) (end 88 9) (layer F.Fab) (width 0.1))
  (fp_line (start 88 9) (end 98 9) (layer F.Fab) (width 0.1))
  (fp_line (start 98 9) (end 98 -5) (layer F.Fab) (width 0.1))
  (fp_line (start 98 -5) (end 88 -5) (layer F.Fab) (width 0.1))
  (fp_line (start 88 -5) (end 98 -5) (layer F.SilkS) (width 0.12))
  (fp_line (start 88 9) (end 98 9) (layer F.SilkS) (width 0.12))
  (fp_line (start 88 -5) (end 88 9) (layer F.SilkS) (width 0.12))
  (fp_line (start 98 -5) (end 98 9) (layer F.SilkS) (width 0.12))
  (fp_line (start 88.5 2.7) (end 88.5 3.7) (layer F.Fab) (width 0.1))
  (fp_line (start 88.5 3.7) (end 92.5 3.7) (layer F.Fab) (width 0.1))
  (fp_line (start 92.5 3.7) (end 92.5 2.7) (layer F.Fab) (width 0.1))
  (fp_line (start 92.5 2.7) (end 88.5 2.7) (layer F.Fab) (width 0.1))
  (fp_line (start 88.5 2.7) (end 92.5 2.7) (layer F.SilkS) (width 0.12))
  (fp_line (start 88.5 3.7) (end 92.5 3.7) (layer F.SilkS) (width 0.12))
  (fp_line (start 88.5 2.7) (end 88.5 3.7) (layer F.SilkS) (width 0.12))
  (fp_line (start 92.5 2.7) (end 92.5 3.7) (layer F.SilkS) (width 0.12))
  (fp_line (start 90 -4.65) (end 90 -2.15) (layer F.Fab) (width 0.1))
  (fp_line (start 90 -2.15) (end 91 -2.15) (layer F.Fab) (width 0.1))
  (fp_line (start 91 -2.15) (end 91 -4.65) (layer F.Fab) (width 0.1))
  (fp_line (start 91 -4.65) (end 90 -4.65) (layer F.Fab) (width 0.1))
  (fp_line (start 90 -4.65) (end 91 -4.65) (layer F.SilkS) (width 0.12))
  (fp_line (start 90 -2.151) (end 91 -2.151) (layer F.SilkS) (width 0.12))
  (fp_line (start 90 -4.65) (end 90 -2.151) (layer F.SilkS) (width 0.12))
  (fp_line (start 91 -4.65) (end 91 -2.151) (layer F.SilkS) (width 0.12))
  (fp_line (start 98.5 4.4) (end 102.5 4.4) (layer F.SilkS) (width 0.12))
  (fp_line (start 98.5 7.7) (end 102.5 7.7) (layer F.SilkS) (width 0.12))
  (fp_line (start 98.5 4.4) (end 98.5 7.7) (layer F.SilkS) (width 0.12))
  (fp_line (start 102.5 4.4) (end 102.5 7.7) (layer F.SilkS) (width 0.12))
  (fp_line (start 98.5 4.4) (end 98.5 7.7) (layer F.Fab) (width 0.1))
  (fp_line (start 98.5 7.7) (end 102.5 7.7) (layer F.Fab) (width 0.1))
  (fp_line (start 102.5 7.7) (end 102.5 4.4) (layer F.Fab) (width 0.1))
  (fp_line (start 102.5 4.4) (end 98.5 4.4) (layer F.Fab) (width 0.1))
  (fp_line (start 98 -5) (end 98 9) (layer F.Fab) (width 0.1))
  (fp_line (start 98 9) (end 108 9) (layer F.Fab) (width 0.1))
  (fp_line (start 108 9) (end 108 -5) (layer F.Fab) (width 0.1))
  (fp_line (start 108 -5) (end 98 -5) (layer F.Fab) (width 0.1))
  (fp_line (start 98 -5) (end 108 -5) (layer F.SilkS) (width 0.12))
  (fp_line (start 98 9) (end 108 9) (layer F.SilkS) (width 0.12))
  (fp_line (start 98 -5) (end 98 9) (layer F.SilkS) (width 0.12))
  (fp_line (start 108 -5) (end 108 9) (layer F.SilkS) (width 0.12))
  (fp_line (start 98.5 2.7) (end 98.5 3.7) (layer F.Fab) (width 0.1))
  (fp_line (start 98.5 3.7) (end 102.5 3.7) (layer F.Fab) (width 0.1))
  (fp_line (start 102.5 3.7) (end 102.5 2.7) (layer F.Fab) (width 0.1))
  (fp_line (start 102.5 2.7) (end 98.5 2.7) (layer F.Fab) (width 0.1))
  (fp_line (start 98.5 2.7) (end 102.5 2.7) (layer F.SilkS) (width 0.12))
  (fp_line (start 98.5 3.7) (end 102.5 3.7) (layer F.SilkS) (width 0.12))
  (fp_line (start 98.5 2.7) (end 98.5 3.7) (layer F.SilkS) (width 0.12))
  (fp_line (start 102.5 2.7) (end 102.5 3.7) (layer F.SilkS) (width 0.12))
  (fp_line (start 100 -4.65) (end 100 -2.15) (layer F.Fab) (width 0.1))
  (fp_line (start 100 -2.15) (end 101 -2.15) (layer F.Fab) (width 0.1))
  (fp_line (start 101 -2.15) (end 101 -4.65) (layer F.Fab) (width 0.1))
  (fp_line (start 101 -4.65) (end 100 -4.65) (layer F.Fab) (width 0.1))
  (fp_line (start 100 -4.65) (end 101 -4.65) (layer F.SilkS) (width 0.12))
  (fp_line (start 100 -2.151) (end 101 -2.151) (layer F.SilkS) (width 0.12))
  (fp_line (start 100 -4.65) (end 100 -2.151) (layer F.SilkS) (width 0.12))
  (fp_line (start 101 -4.65) (end 101 -2.151) (layer F.SilkS) (width 0.12))
  (fp_line (start 108.5 4.4) (end 112.5 4.4) (layer F.SilkS) (width 0.12))
  (fp_line (start 108.5 7.7) (end 112.5 7.7) (layer F.SilkS) (width 0.12))
  (fp_line (start 108.5 4.4) (end 108.5 7.7) (layer F.SilkS) (width 0.12))
  (fp_line (start 112.5 4.4) (end 112.5 7.7) (layer F.SilkS) (width 0.12))
  (fp_line (start 108.5 4.4) (end 108.5 7.7) (layer F.Fab) (width 0.1))
  (fp_line (start 108.5 7.7) (end 112.5 7.7) (layer F.Fab) (width 0.1))
  (fp_line (start 112.5 7.7) (end 112.5 4.4) (layer F.Fab) (width 0.1))
  (fp_line (start 112.5 4.4) (end 108.5 4.4) (layer F.Fab) (width 0.1))
  (fp_line (start 108 -5) (end 108 9) (layer F.Fab) (width 0.1))
  (fp_line (start 108 9) (end 118 9) (layer F.Fab) (width 0.1))
  (fp_line (start 118 9) (end 118 -5) (layer F.Fab) (width 0.1))
  (fp_line (start 118 -5) (end 108 -5) (layer F.Fab) (width 0.1))
  (fp_line (start 108 -5) (end 118 -5) (layer F.SilkS) (width 0.12))
  (fp_line (start 108 9) (end 118 9) (layer F.SilkS) (width 0.12))
  (fp_line (start 108 -5) (end 108 9) (layer F.SilkS) (width 0.12))
  (fp_line (start 118 -5) (end 118 9) (layer F.SilkS) (width 0.12))
  (fp_line (start 108.5 2.7) (end 108.5 3.7) (layer F.Fab) (width 0.1))
  (fp_line (start 108.5 3.7) (end 112.5 3.7) (layer F.Fab) (width 0.1))
  (fp_line (start 112.5 3.7) (end 112.5 2.7) (layer F.Fab) (width 0.1))
  (fp_line (start 112.5 2.7) (end 108.5 2.7) (layer F.Fab) (width 0.1))
  (fp_line (start 108.5 2.7) (end 112.5 2.7) (layer F.SilkS) (width 0.12))
  (fp_line (start 108.5 3.7) (end 112.5 3.7) (layer F.SilkS) (width 0.12))
  (fp_line (start 108.5 2.7) (end 108.5 3.7) (layer F.SilkS) (width 0.12))
  (fp_line (start 112.5 2.7) (end 112.5 3.7) (layer F.SilkS) (width 0.12))
  (fp_line (start 110 -4.65) (end 110 -2.15) (layer F.Fab) (width 0.1))
  (fp_line (start 110 -2.15) (end 111 -2.15) (layer F.Fab) (width 0.1))
  (fp_line (start 111 -2.15) (end 111 -4.65) (layer F.Fab) (width 0.1))
  (fp_line (start 111 -4.65) (end 110 -4.65) (layer F.Fab) (width 0.1))
  (fp_line (start 110 -4.65) (end 111 -4.65) (layer F.SilkS) (width 0.12))
  (fp_line (start 110 -2.151) (end 111 -2.151) (layer F.SilkS) (width 0.12))
  (fp_line (start 110 -4.65) (end 110 -2.151) (layer F.SilkS) (width 0.12))
  (fp_line (start 111 -4.65) (end 111 -2.151) (layer F.SilkS) (width 0.12))
  (fp_line (start 118.5 4.4) (end 122.5 4.4) (layer F.SilkS) (width 0.12))
  (fp_line (start 118.5 7.7) (end 122.5 7.7) (layer F.SilkS) (width 0.12))
  (fp_line (start 118.5 4.4) (end 118.5 7.7) (layer F.SilkS) (width 0.12))
  (fp_line (start 122.5 4.4) (end 122.5 7.7) (layer F.SilkS) (width 0.12))
  (fp_line (start 118.5 4.4) (end 118.5 7.7) (layer F.Fab) (width 0.1))
  (fp_line (start 118.5 7.7) (end 122.5 7.7) (layer F.Fab) (width 0.1))
  (fp_line (start 122.5 7.7) (end 122.5 4.4) (layer F.Fab) (width 0.1))
  (fp_line (start 122.5 4.4) (end 118.5 4.4) (layer F.Fab) (width 0.1))
  (fp_line (start 118 -5) (end 118 9) (layer F.Fab) (width 0.1))
  (fp_line (start 118 9) (end 128 9) (layer F.Fab) (width 0.1))
  (fp_line (start 128 9) (end 128 -5) (layer F.Fab) (width 0.1))
  (fp_line (start 128 -5) (end 118 -5) (layer F.Fab) (width 0.1))
  (fp_line (start 118 -5) (end 128 -5) (layer F.SilkS) (width 0.12))
  (fp_line (start 118 9) (end 128 9) (layer F.SilkS) (width 0.12))
  (fp_line (start 118 -5) (end 118 9) (layer F.SilkS) (width 0.12))
  (fp_line (start 128 -5) (end 128 9) (layer F.SilkS) (width 0.12))
  (fp_line (start 118.5 2.7) (end 118.5 3.7) (layer F.Fab) (width 0.1))
  (fp_line (start 118.5 3.7) (end 122.5 3.7) (layer F.Fab) (width 0.1))
  (fp_line (start 122.5 3.7) (end 122.5 2.7) (layer F.Fab) (width 0.1))
  (fp_line (start 122.5 2.7) (end 118.5 2.7) (layer F.Fab) (width 0.1))
  (fp_line (start 118.5 2.7) (end 122.5 2.7) (layer F.SilkS) (width 0.12))
  (fp_line (start 118.5 3.7) (end 122.5 3.7) (layer F.SilkS) (width 0.12))
  (fp_line (start 118.5 2.7) (end 118.5 3.7) (layer F.SilkS) (width 0.12))
  (fp_line (start 122.5 2.7) (end 122.5 3.7) (layer F.SilkS) (width 0.12))
  (fp_line (start 120 -4.65) (end 120 -2.15) (layer F.Fab) (width 0.1))
  (fp_line (start 120 -2.15) (end 121 -2.15) (layer F.Fab) (width 0.1))
  (fp_line (start 121 -2.15) (end 121 -4.65) (layer F.Fab) (width 0.1))
  (fp_line (start 121 -4.65) (end 120 -4.65) (layer F.Fab) (width 0.1))
  (fp_line (start 120 -4.65) (end 121 -4.65) (layer F.SilkS) (width 0.12))
  (fp_line (start 120 -2.151) (end 121 -2.151) (layer F.SilkS) (width 0.12))
  (fp_line (start 120 -4.65) (end 120 -2.151) (layer F.SilkS) (width 0.12))
  (fp_line (start 121 -4.65) (end 121 -2.151) (layer F.SilkS) (width 0.12))
  (fp_line (start 128.5 4.4) (end 132.5 4.4) (layer F.SilkS) (width 0.12))
  (fp_line (start 128.5 7.7) (end 132.5 7.7) (layer F.SilkS) (width 0.12))
  (fp_line (start 128.5 4.4) (end 128.5 7.7) (layer F.SilkS) (width 0.12))
  (fp_line (start 132.5 4.4) (end 132.5 7.7) (layer F.SilkS) (width 0.12))
  (fp_line (start 128.5 4.4) (end 128.5 7.7) (layer F.Fab) (width 0.1))
  (fp_line (start 128.5 7.7) (end 132.5 7.7) (layer F.Fab) (width 0.1))
  (fp_line (start 132.5 7.7) (end 132.5 4.4) (layer F.Fab) (width 0.1))
  (fp_line (start 132.5 4.4) (end 128.5 4.4) (layer F.Fab) (width 0.1))
  (fp_line (start 128 -5) (end 128 9) (layer F.Fab) (width 0.1))
  (fp_line (start 128 9) (end 138 9) (layer F.Fab) (width 0.1))
  (fp_line (start 138 9) (end 138 -5) (layer F.Fab) (width 0.1))
  (fp_line (start 138 -5) (end 128 -5) (layer F.Fab) (width 0.1))
  (fp_line (start 128 -5) (end 138 -5) (layer F.SilkS) (width 0.12))
  (fp_line (start 128 9) (end 138 9) (layer F.SilkS) (width 0.12))
  (fp_line (start 128 -5) (end 128 9) (layer F.SilkS) (width 0.12))
  (fp_line (start 138 -5) (end 138 9) (layer F.SilkS) (width 0.12))
  (fp_line (start 128.5 2.7) (end 128.5 3.7) (layer F.Fab) (width 0.1))
  (fp_line (start 128.5 3.7) (end 132.5 3.7) (layer F.Fab) (width 0.1))
  (fp_line (start 132.5 3.7) (end 132.5 2.7) (layer F.Fab) (width 0.1))
  (fp_line (start 132.5 2.7) (end 128.5 2.7) (layer F.Fab) (width 0.1))
  (fp_line (start 128.5 2.7) (end 132.5 2.7) (layer F.SilkS) (width 0.12))
  (fp_line (start 128.5 3.7) (end 132.5 3.7) (layer F.SilkS) (width 0.12))
  (fp_line (start 128.5 2.7) (end 128.5 3.7) (layer F.SilkS) (width 0.12))
  (fp_line (start 132.5 2.7) (end 132.5 3.7) (layer F.SilkS) (width 0.12))
  (fp_line (start 130 -4.65) (end 130 -2.15) (layer F.Fab) (width 0.1))
  (fp_line (start 130 -2.15) (end 131 -2.15) (layer F.Fab) (width 0.1))
  (fp_line (start 131 -2.15) (end 131 -4.65) (layer F.Fab) (width 0.1))
  (fp_line (start 131 -4.65) (end 130 -4.65) (layer F.Fab) (width 0.1))
  (fp_line (start 130 -4.65) (end 131 -4.65) (layer F.SilkS) (width 0.12))
  (fp_line (start 130 -2.151) (end 131 -2.151) (layer F.SilkS) (width 0.12))
  (fp_line (start 130 -4.65) (end 130 -2.151) (layer F.SilkS) (width 0.12))
  (fp_line (start 131 -4.65) (end 131 -2.151) (layer F.SilkS) (width 0.12))
  (fp_line (start 138.5 4.4) (end 142.5 4.4) (layer F.SilkS) (width 0.12))
  (fp_line (start 138.5 7.7) (end 142.5 7.7) (layer F.SilkS) (width 0.12))
  (fp_line (start 138.5 4.4) (end 138.5 7.7) (layer F.SilkS) (width 0.12))
  (fp_line (start 142.5 4.4) (end 142.5 7.7) (layer F.SilkS) (width 0.12))
  (fp_line (start 138.5 4.4) (end 138.5 7.7) (layer F.Fab) (width 0.1))
  (fp_line (start 138.5 7.7) (end 142.5 7.7) (layer F.Fab) (width 0.1))
  (fp_line (start 142.5 7.7) (end 142.5 4.4) (layer F.Fab) (width 0.1))
  (fp_line (start 142.5 4.4) (end 138.5 4.4) (layer F.Fab) (width 0.1))
  (fp_line (start 138 -5) (end 138 9) (layer F.Fab) (width 0.1))
  (fp_line (start 138 9) (end 148 9) (layer F.Fab) (width 0.1))
  (fp_line (start 148 9) (end 148 -5) (layer F.Fab) (width 0.1))
  (fp_line (start 148 -5) (end 138 -5) (layer F.Fab) (width 0.1))
  (fp_line (start 138 -5) (end 148 -5) (layer F.SilkS) (width 0.12))
  (fp_line (start 138 9) (end 148 9) (layer F.SilkS) (width 0.12))
  (fp_line (start 138 -5) (end 138 9) (layer F.SilkS) (width 0.12))
  (fp_line (start 148 -5) (end 148 9) (layer F.SilkS) (width 0.12))
  (fp_line (start 138.5 2.7) (end 138.5 3.7) (layer F.Fab) (width 0.1))
  (fp_line (start 138.5 3.7) (end 142.5 3.7) (layer F.Fab) (width 0.1))
  (fp_line (start 142.5 3.7) (end 142.5 2.7) (layer F.Fab) (width 0.1))
  (fp_line (start 142.5 2.7) (end 138.5 2.7) (layer F.Fab) (width 0.1))
  (fp_line (start 138.5 2.7) (end 142.5 2.7) (layer F.SilkS) (width 0.12))
  (fp_line (start 138.5 3.7) (end 142.5 3.7) (layer F.SilkS) (width 0.12))
  (fp_line (start 138.5 2.7) (end 138.5 3.7) (layer F.SilkS) (width 0.12))
  (fp_line (start 142.5 2.7) (end 142.5 3.7) (layer F.SilkS) (width 0.12))
  (fp_line (start 140 -4.65) (end 140 -2.15) (layer F.Fab) (width 0.1))
  (fp_line (start 140 -2.15) (end 141 -2.15) (layer F.Fab) (width 0.1))
  (fp_line (start 141 -2.15) (end 141 -4.65) (layer F.Fab) (width 0.1))
  (fp_line (start 141 -4.65) (end 140 -4.65) (layer F.Fab) (width 0.1))
  (fp_line (start 140 -4.65) (end 141 -4.65) (layer F.SilkS) (width 0.12))
  (fp_line (start 140 -2.151) (end 141 -2.151) (layer F.SilkS) (width 0.12))
  (fp_line (start 140 -4.65) (end 140 -2.151) (layer F.SilkS) (width 0.12))
  (fp_line (start 141 -4.65) (end 141 -2.151) (layer F.SilkS) (width 0.12))
  (fp_line (start 148.5 4.4) (end 152.5 4.4) (layer F.SilkS) (width 0.12))
  (fp_line (start 148.5 7.7) (end 152.5 7.7) (layer F.SilkS) (width 0.12))
  (fp_line (start 148.5 4.4) (end 148.5 7.7) (layer F.SilkS) (width 0.12))
  (fp_line (start 152.5 4.4) (end 152.5 7.7) (layer F.SilkS) (width 0.12))
  (fp_line (start 148.5 4.4) (end 148.5 7.7) (layer F.Fab) (width 0.1))
  (fp_line (start 148.5 7.7) (end 152.5 7.7) (layer F.Fab) (width 0.1))
  (fp_line (start 152.5 7.7) (end 152.5 4.4) (layer F.Fab) (width 0.1))
  (fp_line (start 152.5 4.4) (end 148.5 4.4) (layer F.Fab) (width 0.1))
  (fp_line (start 148 -5) (end 148 9) (layer F.Fab) (width 0.1))
  (fp_line (start 148 9) (end 158 9) (layer F.Fab) (width 0.1))
  (fp_line (start 158 9) (end 158 -5) (layer F.Fab) (width 0.1))
  (fp_line (start 158 -5) (end 148 -5) (layer F.Fab) (width 0.1))
  (fp_line (start 148 -5) (end 158 -5) (layer F.SilkS) (width 0.12))
  (fp_line (start 148 9) (end 158 9) (layer F.SilkS) (width 0.12))
  (fp_line (start 148 -5) (end 148 9) (layer F.SilkS) (width 0.12))
  (fp_line (start 158 -5) (end 158 9) (layer F.SilkS) (width 0.12))
  (fp_line (start 148.5 2.7) (end 148.5 3.7) (layer F.Fab) (width 0.1))
  (fp_line (start 148.5 3.7) (end 152.5 3.7) (layer F.Fab) (width 0.1))
  (fp_line (start 152.5 3.7) (end 152.5 2.7) (layer F.Fab) (width 0.1))
  (fp_line (start 152.5 2.7) (end 148.5 2.7) (layer F.Fab) (width 0.1))
  (fp_line (start 148.5 2.7) (end 152.5 2.7) (layer F.SilkS) (width 0.12))
  (fp_line (start 148.5 3.7) (end 152.5 3.7) (layer F.SilkS) (width 0.12))
  (fp_line (start 148.5 2.7) (end 148.5 3.7) (layer F.SilkS) (width 0.12))
  (fp_line (start 152.5 2.7) (end 152.5 3.7) (layer F.SilkS) (width 0.12))
  (fp_line (start 150 -4.65) (end 150 -2.15) (layer F.Fab) (width 0.1))
  (fp_line (start 150 -2.15) (end 151 -2.15) (layer F.Fab) (width 0.1))
  (fp_line (start 151 -2.15) (end 151 -4.65) (layer F.Fab) (width 0.1))
  (fp_line (start 151 -4.65) (end 150 -4.65) (layer F.Fab) (width 0.1))
  (fp_line (start 150 -4.65) (end 151 -4.65) (layer F.SilkS) (width 0.12))
  (fp_line (start 150 -2.151) (end 151 -2.151) (layer F.SilkS) (width 0.12))
  (fp_line (start 150 -4.65) (end 150 -2.151) (layer F.SilkS) (width 0.12))
  (fp_line (start 151 -4.65) (end 151 -2.151) (layer F.SilkS) (width 0.12))
  (fp_line (start 158.5 4.4) (end 162.5 4.4) (layer F.SilkS) (width 0.12))
  (fp_line (start 158.5 7.7) (end 162.5 7.7) (layer F.SilkS) (width 0.12))
  (fp_line (start 158.5 4.4) (end 158.5 7.7) (layer F.SilkS) (width 0.12))
  (fp_line (start 162.5 4.4) (end 162.5 7.7) (layer F.SilkS) (width 0.12))
  (fp_line (start 158.5 4.4) (end 158.5 7.7) (layer F.Fab) (width 0.1))
  (fp_line (start 158.5 7.7) (end 162.5 7.7) (layer F.Fab) (width 0.1))
  (fp_line (start 162.5 7.7) (end 162.5 4.4) (layer F.Fab) (width 0.1))
  (fp_line (start 162.5 4.4) (end 158.5 4.4) (layer F.Fab) (width 0.1))
  (fp_line (start 158 -5) (end 158 9) (layer F.Fab) (width 0.1))
  (fp_line (start 158 9) (end 168 9) (layer F.Fab) (width 0.1))
  (fp_line (start 168 9) (end 168 -5) (layer F.Fab) (width 0.1))
  (fp_line (start 168 -5) (end 158 -5) (layer F.Fab) (width 0.1))
  (fp_line (start 158 -5) (end 168 -5) (layer F.SilkS) (width 0.12))
  (fp_line (start 158 9) (end 168 9) (layer F.SilkS) (width 0.12))
  (fp_line (start 158 -5) (end 158 9) (layer F.SilkS) (width 0.12))
  (fp_line (start 168 -5) (end 168 9) (layer F.SilkS) (width 0.12))
  (fp_line (start 158.5 2.7) (end 158.5 3.7) (layer F.Fab) (width 0.1))
  (fp_line (start 158.5 3.7) (end 162.5 3.7) (layer F.Fab) (width 0.1))
  (fp_line (start 162.5 3.7) (end 162.5 2.7) (layer F.Fab) (width 0.1))
  (fp_line (start 162.5 2.7) (end 158.5 2.7) (layer F.Fab) (width 0.1))
  (fp_line (start 158.5 2.7) (end 162.5 2.7) (layer F.SilkS) (width 0.12))
  (fp_line (start 158.5 3.7) (end 162.5 3.7) (layer F.SilkS) (width 0.12))
  (fp_line (start 158.5 2.7) (end 158.5 3.7) (layer F.SilkS) (width 0.12))
  (fp_line (start 162.5 2.7) (end 162.5 3.7) (layer F.SilkS) (width 0.12))
  (fp_line (start 160 -4.65) (end 160 -2.15) (layer F.Fab) (width 0.1))
  (fp_line (start 160 -2.15) (end 161 -2.15) (layer F.Fab) (width 0.1))
  (fp_line (start 161 -2.15) (end 161 -4.65) (layer F.Fab) (width 0.1))
  (fp_line (start 161 -4.65) (end 160 -4.65) (layer F.Fab) (width 0.1))
  (fp_line (start 160 -4.65) (end 161 -4.65) (layer F.SilkS) (width 0.12))
  (fp_line (start 160 -2.151) (end 161 -2.151) (layer F.SilkS) (width 0.12))
  (fp_line (start 160 -4.65) (end 160 -2.151) (layer F.SilkS) (width 0.12))
  (fp_line (start 161 -4.65) (end 161 -2.151) (layer F.SilkS) (width 0.12))
  (fp_line (start 168.5 4.4) (end 172.5 4.4) (layer F.SilkS) (width 0.12))
  (fp_line (start 168.5 7.7) (end 172.5 7.7) (layer F.SilkS) (width 0.12))
  (fp_line (start 168.5 4.4) (end 168.5 7.7) (layer F.SilkS) (width 0.12))
  (fp_line (start 172.5 4.4) (end 172.5 7.7) (layer F.SilkS) (width 0.12))
  (fp_line (start 168.5 4.4) (end 168.5 7.7) (layer F.Fab) (width 0.1))
  (fp_line (start 168.5 7.7) (end 172.5 7.7) (layer F.Fab) (width 0.1))
  (fp_line (start 172.5 7.7) (end 172.5 4.4) (layer F.Fab) (width 0.1))
  (fp_line (start 172.5 4.4) (end 168.5 4.4) (layer F.Fab) (width 0.1))
  (fp_line (start 168 -5) (end 168 9) (layer F.Fab) (width 0.1))
  (fp_line (start 168 9) (end 178 9) (layer F.Fab) (width 0.1))
  (fp_line (start 178 9) (end 178 -5) (layer F.Fab) (width 0.1))
  (fp_line (start 178 -5) (end 168 -5) (layer F.Fab) (width 0.1))
  (fp_line (start 168 -5) (end 178 -5) (layer F.SilkS) (width 0.12))
  (fp_line (start 168 9) (end 178 9) (layer F.SilkS) (width 0.12))
  (fp_line (start 168 -5) (end 168 9) (layer F.SilkS) (width 0.12))
  (fp_line (start 178 -5) (end 178 9) (layer F.SilkS) (width 0.12))
  (fp_line (start 168.5 2.7) (end 168.5 3.7) (layer F.Fab) (width 0.1))
  (fp_line (start 168.5 3.7) (end 172.5 3.7) (layer F.Fab) (width 0.1))
  (fp_line (start 172.5 3.7) (end 172.5 2.7) (layer F.Fab) (width 0.1))
  (fp_line (start 172.5 2.7) (end 168.5 2.7) (layer F.Fab) (width 0.1))
  (fp_line (start 168.5 2.7) (end 172.5 2.7) (layer F.SilkS) (width 0.12))
  (fp_line (start 168.5 3.7) (end 172.5 3.7) (layer F.SilkS) (width 0.12))
  (fp_line (start 168.5 2.7) (end 168.5 3.7) (layer F.SilkS) (width 0.12))
  (fp_line (start 172.5 2.7) (end 172.5 3.7) (layer F.SilkS) (width 0.12))
  (fp_line (start 170 -4.65) (end 170 -2.15) (layer F.Fab) (width 0.1))
  (fp_line (start 170 -2.15) (end 171 -2.15) (layer F.Fab) (width 0.1))
  (fp_line (start 171 -2.15) (end 171 -4.65) (layer F.Fab) (width 0.1))
  (fp_line (start 171 -4.65) (end 170 -4.65) (layer F.Fab) (width 0.1))
  (fp_line (start 170 -4.65) (end 171 -4.65) (layer F.SilkS) (width 0.12))
  (fp_line (start 170 -2.151) (end 171 -2.151) (layer F.SilkS) (width 0.12))
  (fp_line (start 170 -4.65) (end 170 -2.151) (layer F.SilkS) (width 0.12))
  (fp_line (start 171 -4.65) (end 171 -2.151) (layer F.SilkS) (width 0.12))
  (fp_line (start 178.5 4.4) (end 182.5 4.4) (layer F.SilkS) (width 0.12))
  (fp_line (start 178.5 7.7) (end 182.5 7.7) (layer F.SilkS) (width 0.12))
  (fp_line (start 178.5 4.4) (end 178.5 7.7) (layer F.SilkS) (width 0.12))
  (fp_line (start 182.5 4.4) (end 182.5 7.7) (layer F.SilkS) (width 0.12))
  (fp_line (start 178.5 4.4) (end 178.5 7.7) (layer F.Fab) (width 0.1))
  (fp_line (start 178.5 7.7) (end 182.5 7.7) (layer F.Fab) (width 0.1))
  (fp_line (start 182.5 7.7) (end 182.5 4.4) (layer F.Fab) (width 0.1))
  (fp_line (start 182.5 4.4) (end 178.5 4.4) (layer F.Fab) (width 0.1))
  (fp_line (start 178 -5) (end 178 9) (layer F.Fab) (width 0.1))
  (fp_line (start 178 9) (end 188 9) (layer F.Fab) (width 0.1))
  (fp_line (start 188 9) (end 188 -5) (layer F.Fab) (width 0.1))
  (fp_line (start 188 -5) (end 178 -5) (layer F.Fab) (width 0.1))
  (fp_line (start 178 -5) (end 188 -5) (layer F.SilkS) (width 0.12))
  (fp_line (start 178 9) (end 188 9) (layer F.SilkS) (width 0.12))
  (fp_line (start 178 -5) (end 178 9) (layer F.SilkS) (width 0.12))
  (fp_line (start 188 -5) (end 188 9) (layer F.SilkS) (width 0.12))
  (fp_line (start 178.5 2.7) (end 178.5 3.7) (layer F.Fab) (width 0.1))
  (fp_line (start 178.5 3.7) (end 182.5 3.7) (layer F.Fab) (width 0.1))
  (fp_line (start 182.5 3.7) (end 182.5 2.7) (layer F.Fab) (width 0.1))
  (fp_line (start 182.5 2.7) (end 178.5 2.7) (layer F.Fab) (width 0.1))
  (fp_line (start 178.5 2.7) (end 182.5 2.7) (layer F.SilkS) (width 0.12))
  (fp_line (start 178.5 3.7) (end 182.5 3.7) (layer F.SilkS) (width 0.12))
  (fp_line (start 178.5 2.7) (end 178.5 3.7) (layer F.SilkS) (width 0.12))
  (fp_line (start 182.5 2.7) (end 182.5 3.7) (layer F.SilkS) (width 0.12))
  (fp_line (start 180 -4.65) (end 180 -2.15) (layer F.Fab) (width 0.1))
  (fp_line (start 180 -2.15) (end 181 -2.15) (layer F.Fab) (width 0.1))
  (fp_line (start 181 -2.15) (end 181 -4.65) (layer F.Fab) (width 0.1))
  (fp_line (start 181 -4.65) (end 180 -4.65) (layer F.Fab) (width 0.1))
  (fp_line (start 180 -4.65) (end 181 -4.65) (layer F.SilkS) (width 0.12))
  (fp_line (start 180 -2.151) (end 181 -2.151) (layer F.SilkS) (width 0.12))
  (fp_line (start 180 -4.65) (end 180 -2.151) (layer F.SilkS) (width 0.12))
  (fp_line (start 181 -4.65) (end 181 -2.151) (layer F.SilkS) (width 0.12))
  (fp_line (start 188.5 4.4) (end 192.5 4.4) (layer F.SilkS) (width 0.12))
  (fp_line (start 188.5 7.7) (end 192.5 7.7) (layer F.SilkS) (width 0.12))
  (fp_line (start 188.5 4.4) (end 188.5 7.7) (layer F.SilkS) (width 0.12))
  (fp_line (start 192.5 4.4) (end 192.5 7.7) (layer F.SilkS) (width 0.12))
  (fp_line (start 188.5 4.4) (end 188.5 7.7) (layer F.Fab) (width 0.1))
  (fp_line (start 188.5 7.7) (end 192.5 7.7) (layer F.Fab) (width 0.1))
  (fp_line (start 192.5 7.7) (end 192.5 4.4) (layer F.Fab) (width 0.1))
  (fp_line (start 192.5 4.4) (end 188.5 4.4) (layer F.Fab) (width 0.1))
  (fp_line (start 188 -5) (end 188 9) (layer F.Fab) (width 0.1))
  (fp_line (start 188 9) (end 198 9) (layer F.Fab) (width 0.1))
  (fp_line (start 198 9) (end 198 -5) (layer F.Fab) (width 0.1))
  (fp_line (start 198 -5) (end 188 -5) (layer F.Fab) (width 0.1))
  (fp_line (start 188 -5) (end 198 -5) (layer F.SilkS) (width 0.12))
  (fp_line (start 188 9) (end 198 9) (layer F.SilkS) (width 0.12))
  (fp_line (start 188 -5) (end 188 9) (layer F.SilkS) (width 0.12))
  (fp_line (start 198 -5) (end 198 9) (layer F.SilkS) (width 0.12))
  (fp_line (start 188.5 2.7) (end 188.5 3.7) (layer F.Fab) (width 0.1))
  (fp_line (start 188.5 3.7) (end 192.5 3.7) (layer F.Fab) (width 0.1))
  (fp_line (start 192.5 3.7) (end 192.5 2.7) (layer F.Fab) (width 0.1))
  (fp_line (start 192.5 2.7) (end 188.5 2.7) (layer F.Fab) (width 0.1))
  (fp_line (start 188.5 2.7) (end 192.5 2.7) (layer F.SilkS) (width 0.12))
  (fp_line (start 188.5 3.7) (end 192.5 3.7) (layer F.SilkS) (width 0.12))
  (fp_line (start 188.5 2.7) (end 188.5 3.7) (layer F.SilkS) (width 0.12))
  (fp_line (start 192.5 2.7) (end 192.5 3.7) (layer F.SilkS) (width 0.12))
  (fp_line (start 190 -4.65) (end 190 -2.15) (layer F.Fab) (width 0.1))
  (fp_line (start 190 -2.15) (end 191 -2.15) (layer F.Fab) (width 0.1))
  (fp_line (start 191 -2.15) (end 191 -4.65) (layer F.Fab) (width 0.1))
  (fp_line (start 191 -4.65) (end 190 -4.65) (layer F.Fab) (width 0.1))
  (fp_line (start 190 -4.65) (end 191 -4.65) (layer F.SilkS) (width 0.12))
  (fp_line (start 190 -2.151) (end 191 -2.151) (layer F.SilkS) (width 0.12))
  (fp_line (start 190 -4.65) (end 190 -2.151) (layer F.SilkS) (width 0.12))
  (fp_line (start 191 -4.65) (end 191 -2.151) (layer F.SilkS) (width 0.12))
  (fp_line (start 198.5 4.4) (end 202.5 4.4) (layer F.SilkS) (width 0.12))
  (fp_line (start 198.5 7.7) (end 202.5 7.7) (layer F.SilkS) (width 0.12))
  (fp_line (start 198.5 4.4) (end 198.5 7.7) (layer F.SilkS) (width 0.12))
  (fp_line (start 202.5 4.4) (end 202.5 7.7) (layer F.SilkS) (width 0.12))
  (fp_line (start 198.5 4.4) (end 198.5 7.7) (layer F.Fab) (width 0.1))
  (fp_line (start 198.5 7.7) (end 202.5 7.7) (layer F.Fab) (width 0.1))
  (fp_line (start 202.5 7.7) (end 202.5 4.4) (layer F.Fab) (width 0.1))
  (fp_line (start 202.5 4.4) (end 198.5 4.4) (layer F.Fab) (width 0.1))
  (fp_line (start 198 -5) (end 198 9) (layer F.Fab) (width 0.1))
  (fp_line (start 198 9) (end 208 9) (layer F.Fab) (width 0.1))
  (fp_line (start 208 9) (end 208 -5) (layer F.Fab) (width 0.1))
  (fp_line (start 208 -5) (end 198 -5) (layer F.Fab) (width 0.1))
  (fp_line (start 198 -5) (end 208 -5) (layer F.SilkS) (width 0.12))
  (fp_line (start 198 9) (end 208 9) (layer F.SilkS) (width 0.12))
  (fp_line (start 198 -5) (end 198 9) (layer F.SilkS) (width 0.12))
  (fp_line (start 208 -5) (end 208 9) (layer F.SilkS) (width 0.12))
  (fp_line (start 198.5 2.7) (end 198.5 3.7) (layer F.Fab) (width 0.1))
  (fp_line (start 198.5 3.7) (end 202.5 3.7) (layer F.Fab) (width 0.1))
  (fp_line (start 202.5 3.7) (end 202.5 2.7) (layer F.Fab) (width 0.1))
  (fp_line (start 202.5 2.7) (end 198.5 2.7) (layer F.Fab) (width 0.1))
  (fp_line (start 198.5 2.7) (end 202.5 2.7) (layer F.SilkS) (width 0.12))
  (fp_line (start 198.5 3.7) (end 202.5 3.7) (layer F.SilkS) (width 0.12))
  (fp_line (start 198.5 2.7) (end 198.5 3.7) (layer F.SilkS) (width 0.12))
  (fp_line (start 202.5 2.7) (end 202.5 3.7) (layer F.SilkS) (width 0.12))
  (fp_line (start 200 -4.65) (end 200 -2.15) (layer F.Fab) (width 0.1))
  (fp_line (start 200 -2.15) (end 201 -2.15) (layer F.Fab) (width 0.1))
  (fp_line (start 201 -2.15) (end 201 -4.65) (layer F.Fab) (width 0.1))
  (fp_line (start 201 -4.65) (end 200 -4.65) (layer F.Fab) (width 0.1))
  (fp_line (start 200 -4.65) (end 201 -4.65) (layer F.SilkS) (width 0.12))
  (fp_line (start 200 -2.151) (end 201 -2.151) (layer F.SilkS) (width 0.12))
  (fp_line (start 200 -4.65) (end 200 -2.151) (layer F.SilkS) (width 0.12))
  (fp_line (start 201 -4.65) (end 201 -2.151) (layer F.SilkS) (width 0.12))
  (fp_line (start 208.5 4.4) (end 212.5 4.4) (layer F.SilkS) (width 0.12))
  (fp_line (start 208.5 7.7) (end 212.5 7.7) (layer F.SilkS) (width 0.12))
  (fp_line (start 208.5 4.4) (end 208.5 7.7) (layer F.SilkS) (width 0.12))
  (fp_line (start 212.5 4.4) (end 212.5 7.7) (layer F.SilkS) (width 0.12))
  (fp_line (start 208.5 4.4) (end 208.5 7.7) (layer F.Fab) (width 0.1))
  (fp_line (start 208.5 7.7) (end 212.5 7.7) (layer F.Fab) (width 0.1))
  (fp_line (start 212.5 7.7) (end 212.5 4.4) (layer F.Fab) (width 0.1))
  (fp_line (start 212.5 4.4) (end 208.5 4.4) (layer F.Fab) (width 0.1))
  (fp_line (start 208 -5) (end 208 9) (layer F.Fab) (width 0.1))
  (fp_line (start 208 9) (end 218 9) (layer F.Fab) (width 0.1))
  (fp_line (start 218 9) (end 218 -5) (layer F.Fab) (width 0.1))
  (fp_line (start 218 -5) (end 208 -5) (layer F.Fab) (width 0.1))
  (fp_line (start 208 -5) (end 218 -5) (layer F.SilkS) (width 0.12))
  (fp_line (start 208 9) (end 218 9) (layer F.SilkS) (width 0.12))
  (fp_line (start 208 -5) (end 208 9) (layer F.SilkS) (width 0.12))
  (fp_line (start 218 -5) (end 218 9) (layer F.SilkS) (width 0.12))
  (fp_line (start 208.5 2.7) (end 208.5 3.7) (layer F.Fab) (width 0.1))
  (fp_line (start 208.5 3.7) (end 212.5 3.7) (layer F.Fab) (width 0.1))
  (fp_line (start 212.5 3.7) (end 212.5 2.7) (layer F.Fab) (width 0.1))
  (fp_line (start 212.5 2.7) (end 208.5 2.7) (layer F.Fab) (width 0.1))
  (fp_line (start 208.5 2.7) (end 212.5 2.7) (layer F.SilkS) (width 0.12))
  (fp_line (start 208.5 3.7) (end 212.5 3.7) (layer F.SilkS) (width 0.12))
  (fp_line (start 208.5 2.7) (end 208.5 3.7) (layer F.SilkS) (width 0.12))
  (fp_line (start 212.5 2.7) (end 212.5 3.7) (layer F.SilkS) (width 0.12))
  (fp_line (start 210 -4.65) (end 210 -2.15) (layer F.Fab) (width 0.1))
  (fp_line (start 210 -2.15) (end 211 -2.15) (layer F.Fab) (width 0.1))
  (fp_line (start 211 -2.15) (end 211 -4.65) (layer F.Fab) (width 0.1))
  (fp_line (start 211 -4.65) (end 210 -4.65) (layer F.Fab) (width 0.1))
  (fp_line (start 210 -4.65) (end 211 -4.65) (layer F.SilkS) (width 0.12))
  (fp_line (start 210 -2.151) (end 211 -2.151) (layer F.SilkS) (width 0.12))
  (fp_line (start 210 -4.65) (end 210 -2.151) (layer F.SilkS) (width 0.12))
  (fp_line (start 211 -4.65) (end 211 -2.151) (layer F.SilkS) (width 0.12))
  (fp_line (start 218.5 4.4) (end 222.5 4.4) (layer F.SilkS) (width 0.12))
  (fp_line (start 218.5 7.7) (end 222.5 7.7) (layer F.SilkS) (width 0.12))
  (fp_line (start 218.5 4.4) (end 218.5 7.7) (layer F.SilkS) (width 0.12))
  (fp_line (start 222.5 4.4) (end 222.5 7.7) (layer F.SilkS) (width 0.12))
  (fp_line (start 218.5 4.4) (end 218.5 7.7) (layer F.Fab) (width 0.1))
  (fp_line (start 218.5 7.7) (end 222.5 7.7) (layer F.Fab) (width 0.1))
  (fp_line (start 222.5 7.7) (end 222.5 4.4) (layer F.Fab) (width 0.1))
  (fp_line (start 222.5 4.4) (end 218.5 4.4) (layer F.Fab) (width 0.1))
  (fp_line (start 218 -5) (end 218 9) (layer F.Fab) (width 0.1))
  (fp_line (start 218 9) (end 228 9) (layer F.Fab) (width 0.1))
  (fp_line (start 228 9) (end 228 -5) (layer F.Fab) (width 0.1))
  (fp_line (start 228 -5) (end 218 -5) (layer F.Fab) (width 0.1))
  (fp_line (start 218 -5) (end 228 -5) (layer F.SilkS) (width 0.12))
  (fp_line (start 218 9) (end 228 9) (layer F.SilkS) (width 0.12))
  (fp_line (start 218 -5) (end 218 9) (layer F.SilkS) (width 0.12))
  (fp_line (start 228 -5) (end 228 9) (layer F.SilkS) (width 0.12))
  (fp_line (start 218.5 2.7) (end 218.5 3.7) (layer F.Fab) (width 0.1))
  (fp_line (start 218.5 3.7) (end 222.5 3.7) (layer F.Fab) (width 0.1))
  (fp_line (start 222.5 3.7) (end 222.5 2.7) (layer F.Fab) (width 0.1))
  (fp_line (start 222.5 2.7) (end 218.5 2.7) (layer F.Fab) (width 0.1))
  (fp_line (start 218.5 2.7) (end 222.5 2.7) (layer F.SilkS) (width 0.12))
  (fp_line (start 218.5 3.7) (end 222.5 3.7) (layer F.SilkS) (width 0.12))
  (fp_line (start 218.5 2.7) (end 218.5 3.7) (layer F.SilkS) (width 0.12))
  (fp_line (start 222.5 2.7) (end 222.5 3.7) (layer F.SilkS) (width 0.12))
  (fp_line (start 220 -4.65) (end 220 -2.15) (layer F.Fab) (width 0.1))
  (fp_line (start 220 -2.15) (end 221 -2.15) (layer F.Fab) (width 0.1))
  (fp_line (start 221 -2.15) (end 221 -4.65) (layer F.Fab) (width 0.1))
  (fp_line (start 221 -4.65) (end 220 -4.65) (layer F.Fab) (width 0.1))
  (fp_line (start 220 -4.65) (end 221 -4.65) (layer F.SilkS) (width 0.12))
  (fp_line (start 220 -2.151) (end 221 -2.151) (layer F.SilkS) (width 0.12))
  (fp_line (start 220 -4.65) (end 220 -2.151) (layer F.SilkS) (width 0.12))
  (fp_line (start 221 -4.65) (end 221 -2.151) (layer F.SilkS) (width 0.12))
  (fp_line (start 228.5 4.4) (end 232.5 4.4) (layer F.SilkS) (width 0.12))
  (fp_line (start 228.5 7.7) (end 232.5 7.7) (layer F.SilkS) (width 0.12))
  (fp_line (start 228.5 4.4) (end 228.5 7.7) (layer F.SilkS) (width 0.12))
  (fp_line (start 232.5 4.4) (end 232.5 7.7) (layer F.SilkS) (width 0.12))
  (fp_line (start 228.5 4.4) (end 228.5 7.7) (layer F.Fab) (width 0.1))
  (fp_line (start 228.5 7.7) (end 232.5 7.7) (layer F.Fab) (width 0.1))
  (fp_line (start 232.5 7.7) (end 232.5 4.4) (layer F.Fab) (width 0.1))
  (fp_line (start 232.5 4.4) (end 228.5 4.4) (layer F.Fab) (width 0.1))
  (fp_line (start 228 -5) (end 228 9) (layer F.Fab) (width 0.1))
  (fp_line (start 228 9) (end 238 9) (layer F.Fab) (width 0.1))
  (fp_line (start 238 9) (end 238 -5) (layer F.Fab) (width 0.1))
  (fp_line (start 238 -5) (end 228 -5) (layer F.Fab) (width 0.1))
  (fp_line (start 228 -5) (end 238 -5) (layer F.SilkS) (width 0.12))
  (fp_line (start 228 9) (end 238 9) (layer F.SilkS) (width 0.12))
  (fp_line (start 228 -5) (end 228 9) (layer F.SilkS) (width 0.12))
  (fp_line (start 238 -5) (end 238 9) (layer F.SilkS) (width 0.12))
  (fp_line (start 228.5 2.7) (end 228.5 3.7) (layer F.Fab) (width 0.1))
  (fp_line (start 228.5 3.7) (end 232.5 3.7) (layer F.Fab) (width 0.1))
  (fp_line (start 232.5 3.7) (end 232.5 2.7) (layer F.Fab) (width 0.1))
  (fp_line (start 232.5 2.7) (end 228.5 2.7) (layer F.Fab) (width 0.1))
  (fp_line (start 228.5 2.7) (end 232.5 2.7) (layer F.SilkS) (width 0.12))
  (fp_line (start 228.5 3.7) (end 232.5 3.7) (layer F.SilkS) (width 0.12))
  (fp_line (start 228.5 2.7) (end 228.5 3.7) (layer F.SilkS) (width 0.12))
  (fp_line (start 232.5 2.7) (end 232.5 3.7) (layer F.SilkS) (width 0.12))
  (fp_line (start 230 -4.65) (end 230 -2.15) (layer F.Fab) (width 0.1))
  (fp_line (start 230 -2.15) (end 231 -2.15) (layer F.Fab) (width 0.1))
  (fp_line (start 231 -2.15) (end 231 -4.65) (layer F.Fab) (width 0.1))
  (fp_line (start 231 -4.65) (end 230 -4.65) (layer F.Fab) (width 0.1))
  (fp_line (start 230 -4.65) (end 231 -4.65) (layer F.SilkS) (width 0.12))
  (fp_line (start 230 -2.151) (end 231 -2.151) (layer F.SilkS) (width 0.12))
  (fp_line (start 230 -4.65) (end 230 -2.151) (layer F.SilkS) (width 0.12))
  (fp_line (start 231 -4.65) (end 231 -2.151) (layer F.SilkS) (width 0.12))
  (fp_line (start -3.86 8.12) (end -3.86 9.36) (layer F.SilkS) (width 0.12))
  (fp_line (start -3.86 9.36) (end -2.86 9.36) (layer F.SilkS) (width 0.12))
  (fp_line (start -4 -5.5) (end -4 9.5) (layer F.CrtYd) (width 0.05))
  (fp_line (start -4 9.5) (end 239.3 9.5) (layer F.CrtYd) (width 0.05))
  (fp_line (start 239.3 9.5) (end 239.3 -5.5) (layer F.CrtYd) (width 0.05))
  (fp_line (start 239.3 -5.5) (end -4 -5.5) (layer F.CrtYd) (width 0.05))
  (pad 1 thru_hole rect (at 0 0) (size 1.5 3) (drill 1.15) (layers *.Cu *.Mask))
  (pad 2 thru_hole oval (at 10 0) (size 1.5 3) (drill 1.15) (layers *.Cu *.Mask))
  (pad 3 thru_hole oval (at 20 0) (size 1.5 3) (drill 1.15) (layers *.Cu *.Mask))
  (pad 4 thru_hole oval (at 30 0) (size 1.5 3) (drill 1.15) (layers *.Cu *.Mask))
  (pad 5 thru_hole oval (at 40 0) (size 1.5 3) (drill 1.15) (layers *.Cu *.Mask))
  (pad 6 thru_hole oval (at 50 0) (size 1.5 3) (drill 1.15) (layers *.Cu *.Mask))
  (pad 7 thru_hole oval (at 60 0) (size 1.5 3) (drill 1.15) (layers *.Cu *.Mask))
  (pad 8 thru_hole oval (at 70 0) (size 1.5 3) (drill 1.15) (layers *.Cu *.Mask))
  (pad 9 thru_hole oval (at 80 0) (size 1.5 3) (drill 1.15) (layers *.Cu *.Mask))
  (pad 10 thru_hole oval (at 90 0) (size 1.5 3) (drill 1.15) (layers *.Cu *.Mask))
  (pad 11 thru_hole oval (at 100 0) (size 1.5 3) (drill 1.15) (layers *.Cu *.Mask))
  (pad 12 thru_hole oval (at 110 0) (size 1.5 3) (drill 1.15) (layers *.Cu *.Mask))
  (pad 13 thru_hole oval (at 120 0) (size 1.5 3) (drill 1.15) (layers *.Cu *.Mask))
  (pad 14 thru_hole oval (at 130 0) (size 1.5 3) (drill 1.15) (layers *.Cu *.Mask))
  (pad 15 thru_hole oval (at 140 0) (size 1.5 3) (drill 1.15) (layers *.Cu *.Mask))
  (pad 16 thru_hole oval (at 150 0) (size 1.5 3) (drill 1.15) (layers *.Cu *.Mask))
  (pad 17 thru_hole oval (at 160 0) (size 1.5 3) (drill 1.15) (layers *.Cu *.Mask))
  (pad 18 thru_hole oval (at 170 0) (size 1.5 3) (drill 1.15) (layers *.Cu *.Mask))
  (pad 19 thru_hole oval (at 180 0) (size 1.5 3) (drill 1.15) (layers *.Cu *.Mask))
  (pad 20 thru_hole oval (at 190 0) (size 1.5 3) (drill 1.15) (layers *.Cu *.Mask))
  (pad 21 thru_hole oval (at 200 0) (size 1.5 3) (drill 1.15) (layers *.Cu *.Mask))
  (pad 22 thru_hole oval (at 210 0) (size 1.5 3) (drill 1.15) (layers *.Cu *.Mask))
  (pad 23 thru_hole oval (at 220 0) (size 1.5 3) (drill 1.15) (layers *.Cu *.Mask))
  (pad 24 thru_hole oval (at 230 0) (size 1.5 3) (drill 1.15) (layers *.Cu *.Mask))
  (fp_text user %R (at 117.65 1) (layer F.Fab)
    (effects (font (size 1 1) (thickness 0.15)))
  )
  (model ${KICAD6_3DMODEL_DIR}/TerminalBlock_WAGO.3dshapes/TerminalBlock_WAGO_236-324_1x24_P10.00mm_45Degree.wrl
    (at (xyz 0 0 0))
    (scale (xyz 1 1 1))
    (rotate (xyz 0 0 0))
  )
)