(module TerminalBlock_WAGO_236-302_1x02_P10.00mm_45Degree (layer F.Cu) (tedit 5F817316)
  (descr "Terminal Block WAGO 236-302, 45Degree (cable under 45degree), 2 pins, pitch 10mm, size 22.3x14mm^2, drill diamater 1.15mm, pad diameter 3mm, see , script-generated with , script-generated using https://github.com/pointhi/kicad-footprint-generator/scripts/TerminalBlock_WAGO")
  (tags "THT Terminal Block WAGO 236-302 45Degree pitch 10mm size 22.3x14mm^2 drill 1.15mm pad 3mm")
  (fp_text reference REF** (at 7.65 -6.12) (layer F.SilkS)
    (effects (font (size 1 1) (thickness 0.15)))
  )
  (fp_text value TerminalBlock_WAGO_236-302_1x02_P10.00mm_45Degree (at 7.65 10.12) (layer F.Fab)
    (effects (font (size 1 1) (thickness 0.15)))
  )
  (fp_line (start -3.5 -5) (end 18.8 -5) (layer F.Fab) (width 0.1))
  (fp_line (start 18.8 -5) (end 18.8 9) (layer F.Fab) (width 0.1))
  (fp_line (start 18.8 9) (end -2.5 9) (layer F.Fab) (width 0.1))
  (fp_line (start -2.5 9) (end -3.5 8) (layer F.Fab) (width 0.1))
  (fp_line (start -3.5 8) (end -3.5 -5) (layer F.Fab) (width 0.1))
  (fp_line (start -3.5 8) (end 18.8 8) (layer F.Fab) (width 0.1))
  (fp_line (start -3.62 8) (end 18.92 8) (layer F.SilkS) (width 0.12))
  (fp_line (start -3.5 2.3) (end 18.8 2.3) (layer F.Fab) (width 0.1))
  (fp_line (start -3.62 2.3) (end 18.92 2.3) (layer F.SilkS) (width 0.12))
  (fp_line (start -3.5 -0.5) (end 18.8 -0.5) (layer F.Fab) (width 0.1))
  (fp_line (start -3.62 -0.5) (end -1.23 -0.5) (layer F.SilkS) (width 0.12))
  (fp_line (start 1.23 -0.5) (end 8.77 -0.5) (layer F.SilkS) (width 0.12))
  (fp_line (start 11.23 -0.5) (end 18.92 -0.5) (layer F.SilkS) (width 0.12))
  (fp_line (start -3.62 -5.12) (end 18.92 -5.12) (layer F.SilkS) (width 0.12))
  (fp_line (start -3.62 9.12) (end 18.92 9.12) (layer F.SilkS) (width 0.12))
  (fp_line (start -3.62 -5.12) (end -3.62 9.12) (layer F.SilkS) (width 0.12))
  (fp_line (start 18.92 -5.12) (end 18.92 9.12) (layer F.SilkS) (width 0.12))
  (fp_line (start -1.5 4.4) (end 2.5 4.4) (layer F.SilkS) (width 0.12))
  (fp_line (start -1.5 7.7) (end 2.5 7.7) (layer F.SilkS) (width 0.12))
  (fp_line (start -1.5 4.4) (end -1.5 7.7) (layer F.SilkS) (width 0.12))
  (fp_line (start 2.5 4.4) (end 2.5 7.7) (layer F.SilkS) (width 0.12))
  (fp_line (start -1.5 4.4) (end -1.5 7.7) (layer F.Fab) (width 0.1))
  (fp_line (start -1.5 7.7) (end 2.5 7.7) (layer F.Fab) (width 0.1))
  (fp_line (start 2.5 7.7) (end 2.5 4.4) (layer F.Fab) (width 0.1))
  (fp_line (start 2.5 4.4) (end -1.5 4.4) (layer F.Fab) (width 0.1))
  (fp_line (start -2 -5) (end -2 9) (layer F.Fab) (width 0.1))
  (fp_line (start -2 9) (end 8 9) (layer F.Fab) (width 0.1))
  (fp_line (start 8 9) (end 8 -5) (layer F.Fab) (width 0.1))
  (fp_line (start 8 -5) (end -2 -5) (layer F.Fab) (width 0.1))
  (fp_line (start -2 -5) (end 8 -5) (layer F.SilkS) (width 0.12))
  (fp_line (start -2 9) (end 8 9) (layer F.SilkS) (width 0.12))
  (fp_line (start -2 -5) (end -2 9) (layer F.SilkS) (width 0.12))
  (fp_line (start 8 -5) (end 8 9) (layer F.SilkS) (width 0.12))
  (fp_line (start -1.5 2.7) (end -1.5 3.7) (layer F.Fab) (width 0.1))
  (fp_line (start -1.5 3.7) (end 2.5 3.7) (layer F.Fab) (width 0.1))
  (fp_line (start 2.5 3.7) (end 2.5 2.7) (layer F.Fab) (width 0.1))
  (fp_line (start 2.5 2.7) (end -1.5 2.7) (layer F.Fab) (width 0.1))
  (fp_line (start -1.5 2.7) (end 2.5 2.7) (layer F.SilkS) (width 0.12))
  (fp_line (start -1.5 3.7) (end 2.5 3.7) (layer F.SilkS) (width 0.12))
  (fp_line (start -1.5 2.7) (end -1.5 3.7) (layer F.SilkS) (width 0.12))
  (fp_line (start 2.5 2.7) (end 2.5 3.7) (layer F.SilkS) (width 0.12))
  (fp_line (start 0 -4.65) (end 0 -2.15) (layer F.Fab) (width 0.1))
  (fp_line (start 0 -2.15) (end 1 -2.15) (layer F.Fab) (width 0.1))
  (fp_line (start 1 -2.15) (end 1 -4.65) (layer F.Fab) (width 0.1))
  (fp_line (start 1 -4.65) (end 0 -4.65) (layer F.Fab) (width 0.1))
  (fp_line (start 0 -4.65) (end 1 -4.65) (layer F.SilkS) (width 0.12))
  (fp_line (start 0 -2.151) (end 1 -2.151) (layer F.SilkS) (width 0.12))
  (fp_line (start 0 -4.65) (end 0 -2.151) (layer F.SilkS) (width 0.12))
  (fp_line (start 1 -4.65) (end 1 -2.151) (layer F.SilkS) (width 0.12))
  (fp_line (start 8.5 4.4) (end 12.5 4.4) (layer F.SilkS) (width 0.12))
  (fp_line (start 8.5 7.7) (end 12.5 7.7) (layer F.SilkS) (width 0.12))
  (fp_line (start 8.5 4.4) (end 8.5 7.7) (layer F.SilkS) (width 0.12))
  (fp_line (start 12.5 4.4) (end 12.5 7.7) (layer F.SilkS) (width 0.12))
  (fp_line (start 8.5 4.4) (end 8.5 7.7) (layer F.Fab) (width 0.1))
  (fp_line (start 8.5 7.7) (end 12.5 7.7) (layer F.Fab) (width 0.1))
  (fp_line (start 12.5 7.7) (end 12.5 4.4) (layer F.Fab) (width 0.1))
  (fp_line (start 12.5 4.4) (end 8.5 4.4) (layer F.Fab) (width 0.1))
  (fp_line (start 8 -5) (end 8 9) (layer F.Fab) (width 0.1))
  (fp_line (start 8 9) (end 18 9) (layer F.Fab) (width 0.1))
  (fp_line (start 18 9) (end 18 -5) (layer F.Fab) (width 0.1))
  (fp_line (start 18 -5) (end 8 -5) (layer F.Fab) (width 0.1))
  (fp_line (start 8 -5) (end 18 -5) (layer F.SilkS) (width 0.12))
  (fp_line (start 8 9) (end 18 9) (layer F.SilkS) (width 0.12))
  (fp_line (start 8 -5) (end 8 9) (layer F.SilkS) (width 0.12))
  (fp_line (start 18 -5) (end 18 9) (layer F.SilkS) (width 0.12))
  (fp_line (start 8.5 2.7) (end 8.5 3.7) (layer F.Fab) (width 0.1))
  (fp_line (start 8.5 3.7) (end 12.5 3.7) (layer F.Fab) (width 0.1))
  (fp_line (start 12.5 3.7) (end 12.5 2.7) (layer F.Fab) (width 0.1))
  (fp_line (start 12.5 2.7) (end 8.5 2.7) (layer F.Fab) (width 0.1))
  (fp_line (start 8.5 2.7) (end 12.5 2.7) (layer F.SilkS) (width 0.12))
  (fp_line (start 8.5 3.7) (end 12.5 3.7) (layer F.SilkS) (width 0.12))
  (fp_line (start 8.5 2.7) (end 8.5 3.7) (layer F.SilkS) (width 0.12))
  (fp_line (start 12.5 2.7) (end 12.5 3.7) (layer F.SilkS) (width 0.12))
  (fp_line (start 10 -4.65) (end 10 -2.15) (layer F.Fab) (width 0.1))
  (fp_line (start 10 -2.15) (end 11 -2.15) (layer F.Fab) (width 0.1))
  (fp_line (start 11 -2.15) (end 11 -4.65) (layer F.Fab) (width 0.1))
  (fp_line (start 11 -4.65) (end 10 -4.65) (layer F.Fab) (width 0.1))
  (fp_line (start 10 -4.65) (end 11 -4.65) (layer F.SilkS) (width 0.12))
  (fp_line (start 10 -2.151) (end 11 -2.151) (layer F.SilkS) (width 0.12))
  (fp_line (start 10 -4.65) (end 10 -2.151) (layer F.SilkS) (width 0.12))
  (fp_line (start 11 -4.65) (end 11 -2.151) (layer F.SilkS) (width 0.12))
  (fp_line (start -3.86 8.12) (end -3.86 9.36) (layer F.SilkS) (width 0.12))
  (fp_line (start -3.86 9.36) (end -2.86 9.36) (layer F.SilkS) (width 0.12))
  (fp_line (start -4 -5.5) (end -4 9.5) (layer F.CrtYd) (width 0.05))
  (fp_line (start -4 9.5) (end 19.3 9.5) (layer F.CrtYd) (width 0.05))
  (fp_line (start 19.3 9.5) (end 19.3 -5.5) (layer F.CrtYd) (width 0.05))
  (fp_line (start 19.3 -5.5) (end -4 -5.5) (layer F.CrtYd) (width 0.05))
  (pad 1 thru_hole rect (at 0 0) (size 1.5 3) (drill 1.15) (layers *.Cu *.Mask))
  (pad 2 thru_hole oval (at 10 0) (size 1.5 3) (drill 1.15) (layers *.Cu *.Mask))
  (fp_text user %R (at 7.65 1) (layer F.Fab)
    (effects (font (size 1 1) (thickness 0.15)))
  )
  (model ${KICAD6_3DMODEL_DIR}/TerminalBlock_WAGO.3dshapes/TerminalBlock_WAGO_236-302_1x02_P10.00mm_45Degree.wrl
    (at (xyz 0 0 0))
    (scale (xyz 1 1 1))
    (rotate (xyz 0 0 0))
  )
)