(module TerminalBlock_WAGO_236-201_1x01_P7.50mm_45Degree (layer F.Cu) (tedit 5F817314)
  (descr "Terminal Block WAGO 236-201, 45Degree (cable under 45degree), 1 pins, pitch 7.5mm, size 9.8x14mm^2, drill diamater 1.15mm, pad diameter 3mm, see , script-generated with , script-generated using https://github.com/pointhi/kicad-footprint-generator/scripts/TerminalBlock_WAGO")
  (tags "THT Terminal Block WAGO 236-201 45Degree pitch 7.5mm size 9.8x14mm^2 drill 1.15mm pad 3mm")
  (fp_text reference REF** (at 1.4 -6.12) (layer F.SilkS)
    (effects (font (size 1 1) (thickness 0.15)))
  )
  (fp_text value TerminalBlock_WAGO_236-201_1x01_P7.50mm_45Degree (at 1.4 10.12) (layer F.Fab)
    (effects (font (size 1 1) (thickness 0.15)))
  )
  (fp_line (start -3.5 -5) (end 6.3 -5) (layer F.Fab) (width 0.1))
  (fp_line (start 6.3 -5) (end 6.3 9) (layer F.Fab) (width 0.1))
  (fp_line (start 6.3 9) (end -2.5 9) (layer F.Fab) (width 0.1))
  (fp_line (start -2.5 9) (end -3.5 8) (layer F.Fab) (width 0.1))
  (fp_line (start -3.5 8) (end -3.5 -5) (layer F.Fab) (width 0.1))
  (fp_line (start -3.5 8) (end 6.3 8) (layer F.Fab) (width 0.1))
  (fp_line (start -3.62 8) (end 6.421 8) (layer F.SilkS) (width 0.12))
  (fp_line (start -3.5 2.3) (end 6.3 2.3) (layer F.Fab) (width 0.1))
  (fp_line (start -3.62 2.3) (end 6.421 2.3) (layer F.SilkS) (width 0.12))
  (fp_line (start -3.5 -0.5) (end 6.3 -0.5) (layer F.Fab) (width 0.1))
  (fp_line (start -3.62 -0.5) (end -1.23 -0.5) (layer F.SilkS) (width 0.12))
  (fp_line (start 1.23 -0.5) (end 6.421 -0.5) (layer F.SilkS) (width 0.12))
  (fp_line (start -3.62 -5.12) (end 6.421 -5.12) (layer F.SilkS) (width 0.12))
  (fp_line (start -3.62 9.12) (end 6.421 9.12) (layer F.SilkS) (width 0.12))
  (fp_line (start -3.62 -5.12) (end -3.62 9.12) (layer F.SilkS) (width 0.12))
  (fp_line (start 6.421 -5.12) (end 6.421 9.12) (layer F.SilkS) (width 0.12))
  (fp_line (start -1.5 4.4) (end 2.5 4.4) (layer F.SilkS) (width 0.12))
  (fp_line (start -1.5 7.7) (end 2.5 7.7) (layer F.SilkS) (width 0.12))
  (fp_line (start -1.5 4.4) (end -1.5 7.7) (layer F.SilkS) (width 0.12))
  (fp_line (start 2.5 4.4) (end 2.5 7.7) (layer F.SilkS) (width 0.12))
  (fp_line (start -1.5 4.4) (end -1.5 7.7) (layer F.Fab) (width 0.1))
  (fp_line (start -1.5 7.7) (end 2.5 7.7) (layer F.Fab) (width 0.1))
  (fp_line (start 2.5 7.7) (end 2.5 4.4) (layer F.Fab) (width 0.1))
  (fp_line (start 2.5 4.4) (end -1.5 4.4) (layer F.Fab) (width 0.1))
  (fp_line (start -2 -5) (end -2 9) (layer F.Fab) (width 0.1))
  (fp_line (start -2 9) (end 5.5 9) (layer F.Fab) (width 0.1))
  (fp_line (start 5.5 9) (end 5.5 -5) (layer F.Fab) (width 0.1))
  (fp_line (start 5.5 -5) (end -2 -5) (layer F.Fab) (width 0.1))
  (fp_line (start -2 -5) (end 5.5 -5) (layer F.SilkS) (width 0.12))
  (fp_line (start -2 9) (end 5.5 9) (layer F.SilkS) (width 0.12))
  (fp_line (start -2 -5) (end -2 9) (layer F.SilkS) (width 0.12))
  (fp_line (start 5.5 -5) (end 5.5 9) (layer F.SilkS) (width 0.12))
  (fp_line (start -1.5 2.7) (end -1.5 3.7) (layer F.Fab) (width 0.1))
  (fp_line (start -1.5 3.7) (end 2.5 3.7) (layer F.Fab) (width 0.1))
  (fp_line (start 2.5 3.7) (end 2.5 2.7) (layer F.Fab) (width 0.1))
  (fp_line (start 2.5 2.7) (end -1.5 2.7) (layer F.Fab) (width 0.1))
  (fp_line (start -1.5 2.7) (end 2.5 2.7) (layer F.SilkS) (width 0.12))
  (fp_line (start -1.5 3.7) (end 2.5 3.7) (layer F.SilkS) (width 0.12))
  (fp_line (start -1.5 2.7) (end -1.5 3.7) (layer F.SilkS) (width 0.12))
  (fp_line (start 2.5 2.7) (end 2.5 3.7) (layer F.SilkS) (width 0.12))
  (fp_line (start 0 -4.65) (end 0 -2.15) (layer F.Fab) (width 0.1))
  (fp_line (start 0 -2.15) (end 1 -2.15) (layer F.Fab) (width 0.1))
  (fp_line (start 1 -2.15) (end 1 -4.65) (layer F.Fab) (width 0.1))
  (fp_line (start 1 -4.65) (end 0 -4.65) (layer F.Fab) (width 0.1))
  (fp_line (start 0 -4.65) (end 1 -4.65) (layer F.SilkS) (width 0.12))
  (fp_line (start 0 -2.151) (end 1 -2.151) (layer F.SilkS) (width 0.12))
  (fp_line (start 0 -4.65) (end 0 -2.151) (layer F.SilkS) (width 0.12))
  (fp_line (start 1 -4.65) (end 1 -2.151) (layer F.SilkS) (width 0.12))
  (fp_line (start -3.86 8.12) (end -3.86 9.36) (layer F.SilkS) (width 0.12))
  (fp_line (start -3.86 9.36) (end -2.86 9.36) (layer F.SilkS) (width 0.12))
  (fp_line (start -4 -5.5) (end -4 9.5) (layer F.CrtYd) (width 0.05))
  (fp_line (start -4 9.5) (end 6.81 9.5) (layer F.CrtYd) (width 0.05))
  (fp_line (start 6.81 9.5) (end 6.81 -5.5) (layer F.CrtYd) (width 0.05))
  (fp_line (start 6.81 -5.5) (end -4 -5.5) (layer F.CrtYd) (width 0.05))
  (pad 1 thru_hole rect (at 0 0) (size 1.5 3) (drill 1.15) (layers *.Cu *.Mask))
  (fp_text user %R (at 1.4 1) (layer F.Fab)
    (effects (font (size 1 1) (thickness 0.15)))
  )
  (model ${KICAD6_3DMODEL_DIR}/TerminalBlock_WAGO.3dshapes/TerminalBlock_WAGO_236-201_1x01_P7.50mm_45Degree.wrl
    (at (xyz 0 0 0))
    (scale (xyz 1 1 1))
    (rotate (xyz 0 0 0))
  )
)