(module PinHeader_1x12_P2.54mm_Horizontal (layer F.Cu) (tedit 59FED5CB)
  (descr "Through hole angled pin header, 1x12, 2.54mm pitch, 6mm pin length, single row")
  (tags "Through hole angled pin header THT 1x12 2.54mm single row")
  (fp_text reference REF** (at 4.385 -2.27) (layer F.SilkS)
    (effects (font (size 1 1) (thickness 0.15)))
  )
  (fp_text value PinHeader_1x12_P2.54mm_Horizontal (at 4.385 30.21) (layer F.Fab)
    (effects (font (size 1 1) (thickness 0.15)))
  )
  (fp_line (start 2.135 -1.27) (end 4.04 -1.27) (layer F.Fab) (width 0.1))
  (fp_line (start 4.04 -1.27) (end 4.04 29.21) (layer F.Fab) (width 0.1))
  (fp_line (start 4.04 29.21) (end 1.5 29.21) (layer F.Fab) (width 0.1))
  (fp_line (start 1.5 29.21) (end 1.5 -0.635) (layer F.Fab) (width 0.1))
  (fp_line (start 1.5 -0.635) (end 2.135 -1.27) (layer F.Fab) (width 0.1))
  (fp_line (start -0.32 -0.32) (end 1.5 -0.32) (layer F.Fab) (width 0.1))
  (fp_line (start -0.32 -0.32) (end -0.32 0.32) (layer F.Fab) (width 0.1))
  (fp_line (start -0.32 0.32) (end 1.5 0.32) (layer F.Fab) (width 0.1))
  (fp_line (start 4.04 -0.32) (end 10.04 -0.32) (layer F.Fab) (width 0.1))
  (fp_line (start 10.04 -0.32) (end 10.04 0.32) (layer F.Fab) (width 0.1))
  (fp_line (start 4.04 0.32) (end 10.04 0.32) (layer F.Fab) (width 0.1))
  (fp_line (start -0.32 2.22) (end 1.5 2.22) (layer F.Fab) (width 0.1))
  (fp_line (start -0.32 2.22) (end -0.32 2.86) (layer F.Fab) (width 0.1))
  (fp_line (start -0.32 2.86) (end 1.5 2.86) (layer F.Fab) (width 0.1))
  (fp_line (start 4.04 2.22) (end 10.04 2.22) (layer F.Fab) (width 0.1))
  (fp_line (start 10.04 2.22) (end 10.04 2.86) (layer F.Fab) (width 0.1))
  (fp_line (start 4.04 2.86) (end 10.04 2.86) (layer F.Fab) (width 0.1))
  (fp_line (start -0.32 4.76) (end 1.5 4.76) (layer F.Fab) (width 0.1))
  (fp_line (start -0.32 4.76) (end -0.32 5.4) (layer F.Fab) (width 0.1))
  (fp_line (start -0.32 5.4) (end 1.5 5.4) (layer F.Fab) (width 0.1))
  (fp_line (start 4.04 4.76) (end 10.04 4.76) (layer F.Fab) (width 0.1))
  (fp_line (start 10.04 4.76) (end 10.04 5.4) (layer F.Fab) (width 0.1))
  (fp_line (start 4.04 5.4) (end 10.04 5.4) (layer F.Fab) (width 0.1))
  (fp_line (start -0.32 7.3) (end 1.5 7.3) (layer F.Fab) (width 0.1))
  (fp_line (start -0.32 7.3) (end -0.32 7.94) (layer F.Fab) (width 0.1))
  (fp_line (start -0.32 7.94) (end 1.5 7.94) (layer F.Fab) (width 0.1))
  (fp_line (start 4.04 7.3) (end 10.04 7.3) (layer F.Fab) (width 0.1))
  (fp_line (start 10.04 7.3) (end 10.04 7.94) (layer F.Fab) (width 0.1))
  (fp_line (start 4.04 7.94) (end 10.04 7.94) (layer F.Fab) (width 0.1))
  (fp_line (start -0.32 9.84) (end 1.5 9.84) (layer F.Fab) (width 0.1))
  (fp_line (start -0.32 9.84) (end -0.32 10.48) (layer F.Fab) (width 0.1))
  (fp_line (start -0.32 10.48) (end 1.5 10.48) (layer F.Fab) (width 0.1))
  (fp_line (start 4.04 9.84) (end 10.04 9.84) (layer F.Fab) (width 0.1))
  (fp_line (start 10.04 9.84) (end 10.04 10.48) (layer F.Fab) (width 0.1))
  (fp_line (start 4.04 10.48) (end 10.04 10.48) (layer F.Fab) (width 0.1))
  (fp_line (start -0.32 12.38) (end 1.5 12.38) (layer F.Fab) (width 0.1))
  (fp_line (start -0.32 12.38) (end -0.32 13.02) (layer F.Fab) (width 0.1))
  (fp_line (start -0.32 13.02) (end 1.5 13.02) (layer F.Fab) (width 0.1))
  (fp_line (start 4.04 12.38) (end 10.04 12.38) (layer F.Fab) (width 0.1))
  (fp_line (start 10.04 12.38) (end 10.04 13.02) (layer F.Fab) (width 0.1))
  (fp_line (start 4.04 13.02) (end 10.04 13.02) (layer F.Fab) (width 0.1))
  (fp_line (start -0.32 14.92) (end 1.5 14.92) (layer F.Fab) (width 0.1))
  (fp_line (start -0.32 14.92) (end -0.32 15.56) (layer F.Fab) (width 0.1))
  (fp_line (start -0.32 15.56) (end 1.5 15.56) (layer F.Fab) (width 0.1))
  (fp_line (start 4.04 14.92) (end 10.04 14.92) (layer F.Fab) (width 0.1))
  (fp_line (start 10.04 14.92) (end 10.04 15.56) (layer F.Fab) (width 0.1))
  (fp_line (start 4.04 15.56) (end 10.04 15.56) (layer F.Fab) (width 0.1))
  (fp_line (start -0.32 17.46) (end 1.5 17.46) (layer F.Fab) (width 0.1))
  (fp_line (start -0.32 17.46) (end -0.32 18.1) (layer F.Fab) (width 0.1))
  (fp_line (start -0.32 18.1) (end 1.5 18.1) (layer F.Fab) (width 0.1))
  (fp_line (start 4.04 17.46) (end 10.04 17.46) (layer F.Fab) (width 0.1))
  (fp_line (start 10.04 17.46) (end 10.04 18.1) (layer F.Fab) (width 0.1))
  (fp_line (start 4.04 18.1) (end 10.04 18.1) (layer F.Fab) (width 0.1))
  (fp_line (start -0.32 20) (end 1.5 20) (layer F.Fab) (width 0.1))
  (fp_line (start -0.32 20) (end -0.32 20.64) (layer F.Fab) (width 0.1))
  (fp_line (start -0.32 20.64) (end 1.5 20.64) (layer F.Fab) (width 0.1))
  (fp_line (start 4.04 20) (end 10.04 20) (layer F.Fab) (width 0.1))
  (fp_line (start 10.04 20) (end 10.04 20.64) (layer F.Fab) (width 0.1))
  (fp_line (start 4.04 20.64) (end 10.04 20.64) (layer F.Fab) (width 0.1))
  (fp_line (start -0.32 22.54) (end 1.5 22.54) (layer F.Fab) (width 0.1))
  (fp_line (start -0.32 22.54) (end -0.32 23.18) (layer F.Fab) (width 0.1))
  (fp_line (start -0.32 23.18) (end 1.5 23.18) (layer F.Fab) (width 0.1))
  (fp_line (start 4.04 22.54) (end 10.04 22.54) (layer F.Fab) (width 0.1))
  (fp_line (start 10.04 22.54) (end 10.04 23.18) (layer F.Fab) (width 0.1))
  (fp_line (start 4.04 23.18) (end 10.04 23.18) (layer F.Fab) (width 0.1))
  (fp_line (start -0.32 25.08) (end 1.5 25.08) (layer F.Fab) (width 0.1))
  (fp_line (start -0.32 25.08) (end -0.32 25.72) (layer F.Fab) (width 0.1))
  (fp_line (start -0.32 25.72) (end 1.5 25.72) (layer F.Fab) (width 0.1))
  (fp_line (start 4.04 25.08) (end 10.04 25.08) (layer F.Fab) (width 0.1))
  (fp_line (start 10.04 25.08) (end 10.04 25.72) (layer F.Fab) (width 0.1))
  (fp_line (start 4.04 25.72) (end 10.04 25.72) (layer F.Fab) (width 0.1))
  (fp_line (start -0.32 27.62) (end 1.5 27.62) (layer F.Fab) (width 0.1))
  (fp_line (start -0.32 27.62) (end -0.32 28.26) (layer F.Fab) (width 0.1))
  (fp_line (start -0.32 28.26) (end 1.5 28.26) (layer F.Fab) (width 0.1))
  (fp_line (start 4.04 27.62) (end 10.04 27.62) (layer F.Fab) (width 0.1))
  (fp_line (start 10.04 27.62) (end 10.04 28.26) (layer F.Fab) (width 0.1))
  (fp_line (start 4.04 28.26) (end 10.04 28.26) (layer F.Fab) (width 0.1))
  (fp_line (start 1.44 -1.33) (end 1.44 29.27) (layer F.SilkS) (width 0.12))
  (fp_line (start 1.44 29.27) (end 4.1 29.27) (layer F.SilkS) (width 0.12))
  (fp_line (start 4.1 29.27) (end 4.1 -1.33) (layer F.SilkS) (width 0.12))
  (fp_line (start 4.1 -1.33) (end 1.44 -1.33) (layer F.SilkS) (width 0.12))
  (fp_line (start 4.1 -0.38) (end 10.1 -0.38) (layer F.SilkS) (width 0.12))
  (fp_line (start 10.1 -0.38) (end 10.1 0.38) (layer F.SilkS) (width 0.12))
  (fp_line (start 10.1 0.38) (end 4.1 0.38) (layer F.SilkS) (width 0.12))
  (fp_line (start 4.1 -0.32) (end 10.1 -0.32) (layer F.SilkS) (width 0.12))
  (fp_line (start 4.1 -0.2) (end 10.1 -0.2) (layer F.SilkS) (width 0.12))
  (fp_line (start 4.1 -0.08) (end 10.1 -0.08) (layer F.SilkS) (width 0.12))
  (fp_line (start 4.1 0.04) (end 10.1 0.04) (layer F.SilkS) (width 0.12))
  (fp_line (start 4.1 0.16) (end 10.1 0.16) (layer F.SilkS) (width 0.12))
  (fp_line (start 4.1 0.28) (end 10.1 0.28) (layer F.SilkS) (width 0.12))
  (fp_line (start 1.11 -0.38) (end 1.44 -0.38) (layer F.SilkS) (width 0.12))
  (fp_line (start 1.11 0.38) (end 1.44 0.38) (layer F.SilkS) (width 0.12))
  (fp_line (start 1.44 1.27) (end 4.1 1.27) (layer F.SilkS) (width 0.12))
  (fp_line (start 4.1 2.16) (end 10.1 2.16) (layer F.SilkS) (width 0.12))
  (fp_line (start 10.1 2.16) (end 10.1 2.92) (layer F.SilkS) (width 0.12))
  (fp_line (start 10.1 2.92) (end 4.1 2.92) (layer F.SilkS) (width 0.12))
  (fp_line (start 1.042929 2.16) (end 1.44 2.16) (layer F.SilkS) (width 0.12))
  (fp_line (start 1.042929 2.92) (end 1.44 2.92) (layer F.SilkS) (width 0.12))
  (fp_line (start 1.44 3.81) (end 4.1 3.81) (layer F.SilkS) (width 0.12))
  (fp_line (start 4.1 4.7) (end 10.1 4.7) (layer F.SilkS) (width 0.12))
  (fp_line (start 10.1 4.7) (end 10.1 5.46) (layer F.SilkS) (width 0.12))
  (fp_line (start 10.1 5.46) (end 4.1 5.46) (layer F.SilkS) (width 0.12))
  (fp_line (start 1.042929 4.7) (end 1.44 4.7) (layer F.SilkS) (width 0.12))
  (fp_line (start 1.042929 5.46) (end 1.44 5.46) (layer F.SilkS) (width 0.12))
  (fp_line (start 1.44 6.35) (end 4.1 6.35) (layer F.SilkS) (width 0.12))
  (fp_line (start 4.1 7.24) (end 10.1 7.24) (layer F.SilkS) (width 0.12))
  (fp_line (start 10.1 7.24) (end 10.1 8) (layer F.SilkS) (width 0.12))
  (fp_line (start 10.1 8) (end 4.1 8) (layer F.SilkS) (width 0.12))
  (fp_line (start 1.042929 7.24) (end 1.44 7.24) (layer F.SilkS) (width 0.12))
  (fp_line (start 1.042929 8) (end 1.44 8) (layer F.SilkS) (width 0.12))
  (fp_line (start 1.44 8.89) (end 4.1 8.89) (layer F.SilkS) (width 0.12))
  (fp_line (start 4.1 9.78) (end 10.1 9.78) (layer F.SilkS) (width 0.12))
  (fp_line (start 10.1 9.78) (end 10.1 10.54) (layer F.SilkS) (width 0.12))
  (fp_line (start 10.1 10.54) (end 4.1 10.54) (layer F.SilkS) (width 0.12))
  (fp_line (start 1.042929 9.78) (end 1.44 9.78) (layer F.SilkS) (width 0.12))
  (fp_line (start 1.042929 10.54) (end 1.44 10.54) (layer F.SilkS) (width 0.12))
  (fp_line (start 1.44 11.43) (end 4.1 11.43) (layer F.SilkS) (width 0.12))
  (fp_line (start 4.1 12.32) (end 10.1 12.32) (layer F.SilkS) (width 0.12))
  (fp_line (start 10.1 12.32) (end 10.1 13.08) (layer F.SilkS) (width 0.12))
  (fp_line (start 10.1 13.08) (end 4.1 13.08) (layer F.SilkS) (width 0.12))
  (fp_line (start 1.042929 12.32) (end 1.44 12.32) (layer F.SilkS) (width 0.12))
  (fp_line (start 1.042929 13.08) (end 1.44 13.08) (layer F.SilkS) (width 0.12))
  (fp_line (start 1.44 13.97) (end 4.1 13.97) (layer F.SilkS) (width 0.12))
  (fp_line (start 4.1 14.86) (end 10.1 14.86) (layer F.SilkS) (width 0.12))
  (fp_line (start 10.1 14.86) (end 10.1 15.62) (layer F.SilkS) (width 0.12))
  (fp_line (start 10.1 15.62) (end 4.1 15.62) (layer F.SilkS) (width 0.12))
  (fp_line (start 1.042929 14.86) (end 1.44 14.86) (layer F.SilkS) (width 0.12))
  (fp_line (start 1.042929 15.62) (end 1.44 15.62) (layer F.SilkS) (width 0.12))
  (fp_line (start 1.44 16.51) (end 4.1 16.51) (layer F.SilkS) (width 0.12))
  (fp_line (start 4.1 17.4) (end 10.1 17.4) (layer F.SilkS) (width 0.12))
  (fp_line (start 10.1 17.4) (end 10.1 18.16) (layer F.SilkS) (width 0.12))
  (fp_line (start 10.1 18.16) (end 4.1 18.16) (layer F.SilkS) (width 0.12))
  (fp_line (start 1.042929 17.4) (end 1.44 17.4) (layer F.SilkS) (width 0.12))
  (fp_line (start 1.042929 18.16) (end 1.44 18.16) (layer F.SilkS) (width 0.12))
  (fp_line (start 1.44 19.05) (end 4.1 19.05) (layer F.SilkS) (width 0.12))
  (fp_line (start 4.1 19.94) (end 10.1 19.94) (layer F.SilkS) (width 0.12))
  (fp_line (start 10.1 19.94) (end 10.1 20.7) (layer F.SilkS) (width 0.12))
  (fp_line (start 10.1 20.7) (end 4.1 20.7) (layer F.SilkS) (width 0.12))
  (fp_line (start 1.042929 19.94) (end 1.44 19.94) (layer F.SilkS) (width 0.12))
  (fp_line (start 1.042929 20.7) (end 1.44 20.7) (layer F.SilkS) (width 0.12))
  (fp_line (start 1.44 21.59) (end 4.1 21.59) (layer F.SilkS) (width 0.12))
  (fp_line (start 4.1 22.48) (end 10.1 22.48) (layer F.SilkS) (width 0.12))
  (fp_line (start 10.1 22.48) (end 10.1 23.24) (layer F.SilkS) (width 0.12))
  (fp_line (start 10.1 23.24) (end 4.1 23.24) (layer F.SilkS) (width 0.12))
  (fp_line (start 1.042929 22.48) (end 1.44 22.48) (layer F.SilkS) (width 0.12))
  (fp_line (start 1.042929 23.24) (end 1.44 23.24) (layer F.SilkS) (width 0.12))
  (fp_line (start 1.44 24.13) (end 4.1 24.13) (layer F.SilkS) (width 0.12))
  (fp_line (start 4.1 25.02) (end 10.1 25.02) (layer F.SilkS) (width 0.12))
  (fp_line (start 10.1 25.02) (end 10.1 25.78) (layer F.SilkS) (width 0.12))
  (fp_line (start 10.1 25.78) (end 4.1 25.78) (layer F.SilkS) (width 0.12))
  (fp_line (start 1.042929 25.02) (end 1.44 25.02) (layer F.SilkS) (width 0.12))
  (fp_line (start 1.042929 25.78) (end 1.44 25.78) (layer F.SilkS) (width 0.12))
  (fp_line (start 1.44 26.67) (end 4.1 26.67) (layer F.SilkS) (width 0.12))
  (fp_line (start 4.1 27.56) (end 10.1 27.56) (layer F.SilkS) (width 0.12))
  (fp_line (start 10.1 27.56) (end 10.1 28.32) (layer F.SilkS) (width 0.12))
  (fp_line (start 10.1 28.32) (end 4.1 28.32) (layer F.SilkS) (width 0.12))
  (fp_line (start 1.042929 27.56) (end 1.44 27.56) (layer F.SilkS) (width 0.12))
  (fp_line (start 1.042929 28.32) (end 1.44 28.32) (layer F.SilkS) (width 0.12))
  (fp_line (start -1.27 0) (end -1.27 -1.27) (layer F.SilkS) (width 0.12))
  (fp_line (start -1.27 -1.27) (end 0 -1.27) (layer F.SilkS) (width 0.12))
  (fp_line (start -1.8 -1.8) (end -1.8 29.75) (layer F.CrtYd) (width 0.05))
  (fp_line (start -1.8 29.75) (end 10.55 29.75) (layer F.CrtYd) (width 0.05))
  (fp_line (start 10.55 29.75) (end 10.55 -1.8) (layer F.CrtYd) (width 0.05))
  (fp_line (start 10.55 -1.8) (end -1.8 -1.8) (layer F.CrtYd) (width 0.05))
  (pad 1 thru_hole rect (at 0 0) (size 1.7 1.7) (drill 1.0) (layers *.Cu *.Mask))
  (pad 2 thru_hole oval (at 0 2.54) (size 1.7 1.7) (drill 1.0) (layers *.Cu *.Mask))
  (pad 3 thru_hole oval (at 0 5.08) (size 1.7 1.7) (drill 1.0) (layers *.Cu *.Mask))
  (pad 4 thru_hole oval (at 0 7.62) (size 1.7 1.7) (drill 1.0) (layers *.Cu *.Mask))
  (pad 5 thru_hole oval (at 0 10.16) (size 1.7 1.7) (drill 1.0) (layers *.Cu *.Mask))
  (pad 6 thru_hole oval (at 0 12.7) (size 1.7 1.7) (drill 1.0) (layers *.Cu *.Mask))
  (pad 7 thru_hole oval (at 0 15.24) (size 1.7 1.7) (drill 1.0) (layers *.Cu *.Mask))
  (pad 8 thru_hole oval (at 0 17.78) (size 1.7 1.7) (drill 1.0) (layers *.Cu *.Mask))
  (pad 9 thru_hole oval (at 0 20.32) (size 1.7 1.7) (drill 1.0) (layers *.Cu *.Mask))
  (pad 10 thru_hole oval (at 0 22.86) (size 1.7 1.7) (drill 1.0) (layers *.Cu *.Mask))
  (pad 11 thru_hole oval (at 0 25.4) (size 1.7 1.7) (drill 1.0) (layers *.Cu *.Mask))
  (pad 12 thru_hole oval (at 0 27.94) (size 1.7 1.7) (drill 1.0) (layers *.Cu *.Mask))
  (fp_text user %R (at 2.77 13.97 90) (layer F.Fab)
    (effects (font (size 1 1) (thickness 0.15)))
  )
  (model ${KICAD6_3DMODEL_DIR}/Connector_PinHeader_2.54mm.3dshapes/PinHeader_1x12_P2.54mm_Horizontal.wrl
    (at (xyz 0 0 0))
    (scale (xyz 1 1 1))
    (rotate (xyz 0 0 0))
  )
)