(module PinHeader_1x12_P2.54mm_Vertical_SMD_Pin1Left (layer F.Cu) (tedit 59FED5CC)
  (descr "surface-mounted straight pin header, 1x12, 2.54mm pitch, single row, style 1 (pin 1 left)")
  (tags "Surface mounted pin header SMD 1x12 2.54mm single row style1 pin1 left")
  (attr smd)
  (fp_text reference REF** (at 0 -16.3) (layer F.SilkS)
    (effects (font (size 1 1) (thickness 0.15)))
  )
  (fp_text value PinHeader_1x12_P2.54mm_Vertical_SMD_Pin1Left (at 0 16.3) (layer F.Fab)
    (effects (font (size 1 1) (thickness 0.15)))
  )
  (fp_line (start 1.27 15.24) (end -1.27 15.24) (layer F.Fab) (width 0.1))
  (fp_line (start -0.32 -15.24) (end 1.27 -15.24) (layer F.Fab) (width 0.1))
  (fp_line (start -1.27 15.24) (end -1.27 -14.29) (layer F.Fab) (width 0.1))
  (fp_line (start -1.27 -14.29) (end -0.32 -15.24) (layer F.Fab) (width 0.1))
  (fp_line (start 1.27 -15.24) (end 1.27 15.24) (layer F.Fab) (width 0.1))
  (fp_line (start -1.27 -14.29) (end -2.54 -14.29) (layer F.Fab) (width 0.1))
  (fp_line (start -2.54 -14.29) (end -2.54 -13.65) (layer F.Fab) (width 0.1))
  (fp_line (start -2.54 -13.65) (end -1.27 -13.65) (layer F.Fab) (width 0.1))
  (fp_line (start -1.27 -9.21) (end -2.54 -9.21) (layer F.Fab) (width 0.1))
  (fp_line (start -2.54 -9.21) (end -2.54 -8.57) (layer F.Fab) (width 0.1))
  (fp_line (start -2.54 -8.57) (end -1.27 -8.57) (layer F.Fab) (width 0.1))
  (fp_line (start -1.27 -4.13) (end -2.54 -4.13) (layer F.Fab) (width 0.1))
  (fp_line (start -2.54 -4.13) (end -2.54 -3.49) (layer F.Fab) (width 0.1))
  (fp_line (start -2.54 -3.49) (end -1.27 -3.49) (layer F.Fab) (width 0.1))
  (fp_line (start -1.27 0.95) (end -2.54 0.95) (layer F.Fab) (width 0.1))
  (fp_line (start -2.54 0.95) (end -2.54 1.59) (layer F.Fab) (width 0.1))
  (fp_line (start -2.54 1.59) (end -1.27 1.59) (layer F.Fab) (width 0.1))
  (fp_line (start -1.27 6.03) (end -2.54 6.03) (layer F.Fab) (width 0.1))
  (fp_line (start -2.54 6.03) (end -2.54 6.67) (layer F.Fab) (width 0.1))
  (fp_line (start -2.54 6.67) (end -1.27 6.67) (layer F.Fab) (width 0.1))
  (fp_line (start -1.27 11.11) (end -2.54 11.11) (layer F.Fab) (width 0.1))
  (fp_line (start -2.54 11.11) (end -2.54 11.75) (layer F.Fab) (width 0.1))
  (fp_line (start -2.54 11.75) (end -1.27 11.75) (layer F.Fab) (width 0.1))
  (fp_line (start 1.27 -11.75) (end 2.54 -11.75) (layer F.Fab) (width 0.1))
  (fp_line (start 2.54 -11.75) (end 2.54 -11.11) (layer F.Fab) (width 0.1))
  (fp_line (start 2.54 -11.11) (end 1.27 -11.11) (layer F.Fab) (width 0.1))
  (fp_line (start 1.27 -6.67) (end 2.54 -6.67) (layer F.Fab) (width 0.1))
  (fp_line (start 2.54 -6.67) (end 2.54 -6.03) (layer F.Fab) (width 0.1))
  (fp_line (start 2.54 -6.03) (end 1.27 -6.03) (layer F.Fab) (width 0.1))
  (fp_line (start 1.27 -1.59) (end 2.54 -1.59) (layer F.Fab) (width 0.1))
  (fp_line (start 2.54 -1.59) (end 2.54 -0.95) (layer F.Fab) (width 0.1))
  (fp_line (start 2.54 -0.95) (end 1.27 -0.95) (layer F.Fab) (width 0.1))
  (fp_line (start 1.27 3.49) (end 2.54 3.49) (layer F.Fab) (width 0.1))
  (fp_line (start 2.54 3.49) (end 2.54 4.13) (layer F.Fab) (width 0.1))
  (fp_line (start 2.54 4.13) (end 1.27 4.13) (layer F.Fab) (width 0.1))
  (fp_line (start 1.27 8.57) (end 2.54 8.57) (layer F.Fab) (width 0.1))
  (fp_line (start 2.54 8.57) (end 2.54 9.21) (layer F.Fab) (width 0.1))
  (fp_line (start 2.54 9.21) (end 1.27 9.21) (layer F.Fab) (width 0.1))
  (fp_line (start 1.27 13.65) (end 2.54 13.65) (layer F.Fab) (width 0.1))
  (fp_line (start 2.54 13.65) (end 2.54 14.29) (layer F.Fab) (width 0.1))
  (fp_line (start 2.54 14.29) (end 1.27 14.29) (layer F.Fab) (width 0.1))
  (fp_line (start -1.33 -15.3) (end 1.33 -15.3) (layer F.SilkS) (width 0.12))
  (fp_line (start -1.33 15.3) (end 1.33 15.3) (layer F.SilkS) (width 0.12))
  (fp_line (start 1.33 -15.3) (end 1.33 -12.19) (layer F.SilkS) (width 0.12))
  (fp_line (start -1.33 -14.73) (end -2.85 -14.73) (layer F.SilkS) (width 0.12))
  (fp_line (start -1.33 -15.3) (end -1.33 -14.73) (layer F.SilkS) (width 0.12))
  (fp_line (start 1.33 14.73) (end 1.33 15.3) (layer F.SilkS) (width 0.12))
  (fp_line (start 1.33 -10.67) (end 1.33 -7.11) (layer F.SilkS) (width 0.12))
  (fp_line (start 1.33 -5.59) (end 1.33 -2.03) (layer F.SilkS) (width 0.12))
  (fp_line (start 1.33 -0.51) (end 1.33 3.05) (layer F.SilkS) (width 0.12))
  (fp_line (start 1.33 4.57) (end 1.33 8.13) (layer F.SilkS) (width 0.12))
  (fp_line (start 1.33 9.65) (end 1.33 13.21) (layer F.SilkS) (width 0.12))
  (fp_line (start -1.33 -13.21) (end -1.33 -9.65) (layer F.SilkS) (width 0.12))
  (fp_line (start -1.33 -8.13) (end -1.33 -4.57) (layer F.SilkS) (width 0.12))
  (fp_line (start -1.33 -3.05) (end -1.33 0.51) (layer F.SilkS) (width 0.12))
  (fp_line (start -1.33 2.03) (end -1.33 5.59) (layer F.SilkS) (width 0.12))
  (fp_line (start -1.33 7.11) (end -1.33 10.67) (layer F.SilkS) (width 0.12))
  (fp_line (start -1.33 12.19) (end -1.33 15.3) (layer F.SilkS) (width 0.12))
  (fp_line (start -3.45 -15.75) (end -3.45 15.75) (layer F.CrtYd) (width 0.05))
  (fp_line (start -3.45 15.75) (end 3.45 15.75) (layer F.CrtYd) (width 0.05))
  (fp_line (start 3.45 15.75) (end 3.45 -15.75) (layer F.CrtYd) (width 0.05))
  (fp_line (start 3.45 -15.75) (end -3.45 -15.75) (layer F.CrtYd) (width 0.05))
  (pad 1 smd rect (at -1.655 -13.97) (size 2.51 1) (layers F.Cu F.Mask F.Paste))
  (pad 3 smd rect (at -1.655 -8.89) (size 2.51 1) (layers F.Cu F.Mask F.Paste))
  (pad 5 smd rect (at -1.655 -3.81) (size 2.51 1) (layers F.Cu F.Mask F.Paste))
  (pad 7 smd rect (at -1.655 1.27) (size 2.51 1) (layers F.Cu F.Mask F.Paste))
  (pad 9 smd rect (at -1.655 6.35) (size 2.51 1) (layers F.Cu F.Mask F.Paste))
  (pad 11 smd rect (at -1.655 11.43) (size 2.51 1) (layers F.Cu F.Mask F.Paste))
  (pad 2 smd rect (at 1.655 -11.43) (size 2.51 1) (layers F.Cu F.Mask F.Paste))
  (pad 4 smd rect (at 1.655 -6.35) (size 2.51 1) (layers F.Cu F.Mask F.Paste))
  (pad 6 smd rect (at 1.655 -1.27) (size 2.51 1) (layers F.Cu F.Mask F.Paste))
  (pad 8 smd rect (at 1.655 3.81) (size 2.51 1) (layers F.Cu F.Mask F.Paste))
  (pad 10 smd rect (at 1.655 8.89) (size 2.51 1) (layers F.Cu F.Mask F.Paste))
  (pad 12 smd rect (at 1.655 13.97) (size 2.51 1) (layers F.Cu F.Mask F.Paste))
  (fp_text user %R (at 0 0 90) (layer F.Fab)
    (effects (font (size 1 1) (thickness 0.15)))
  )
  (model ${KICAD6_3DMODEL_DIR}/Connector_PinHeader_2.54mm.3dshapes/PinHeader_1x12_P2.54mm_Vertical_SMD_Pin1Left.wrl
    (at (xyz 0 0 0))
    (scale (xyz 1 1 1))
    (rotate (xyz 0 0 0))
  )
)