(module PinHeader_2x07_P2.54mm_Horizontal (layer F.Cu) (tedit 59FED5CB)
  (descr "Through hole angled pin header, 2x07, 2.54mm pitch, 6mm pin length, double rows")
  (tags "Through hole angled pin header THT 2x07 2.54mm double row")
  (fp_text reference REF** (at 5.655 -2.27) (layer F.SilkS)
    (effects (font (size 1 1) (thickness 0.15)))
  )
  (fp_text value PinHeader_2x07_P2.54mm_Horizontal (at 5.655 17.51) (layer F.Fab)
    (effects (font (size 1 1) (thickness 0.15)))
  )
  (fp_line (start 4.675 -1.27) (end 6.58 -1.27) (layer F.Fab) (width 0.1))
  (fp_line (start 6.58 -1.27) (end 6.58 16.51) (layer F.Fab) (width 0.1))
  (fp_line (start 6.58 16.51) (end 4.04 16.51) (layer F.Fab) (width 0.1))
  (fp_line (start 4.04 16.51) (end 4.04 -0.635) (layer F.Fab) (width 0.1))
  (fp_line (start 4.04 -0.635) (end 4.675 -1.27) (layer F.Fab) (width 0.1))
  (fp_line (start -0.32 -0.32) (end 4.04 -0.32) (layer F.Fab) (width 0.1))
  (fp_line (start -0.32 -0.32) (end -0.32 0.32) (layer F.Fab) (width 0.1))
  (fp_line (start -0.32 0.32) (end 4.04 0.32) (layer F.Fab) (width 0.1))
  (fp_line (start 6.58 -0.32) (end 12.58 -0.32) (layer F.Fab) (width 0.1))
  (fp_line (start 12.58 -0.32) (end 12.58 0.32) (layer F.Fab) (width 0.1))
  (fp_line (start 6.58 0.32) (end 12.58 0.32) (layer F.Fab) (width 0.1))
  (fp_line (start -0.32 2.22) (end 4.04 2.22) (layer F.Fab) (width 0.1))
  (fp_line (start -0.32 2.22) (end -0.32 2.86) (layer F.Fab) (width 0.1))
  (fp_line (start -0.32 2.86) (end 4.04 2.86) (layer F.Fab) (width 0.1))
  (fp_line (start 6.58 2.22) (end 12.58 2.22) (layer F.Fab) (width 0.1))
  (fp_line (start 12.58 2.22) (end 12.58 2.86) (layer F.Fab) (width 0.1))
  (fp_line (start 6.58 2.86) (end 12.58 2.86) (layer F.Fab) (width 0.1))
  (fp_line (start -0.32 4.76) (end 4.04 4.76) (layer F.Fab) (width 0.1))
  (fp_line (start -0.32 4.76) (end -0.32 5.4) (layer F.Fab) (width 0.1))
  (fp_line (start -0.32 5.4) (end 4.04 5.4) (layer F.Fab) (width 0.1))
  (fp_line (start 6.58 4.76) (end 12.58 4.76) (layer F.Fab) (width 0.1))
  (fp_line (start 12.58 4.76) (end 12.58 5.4) (layer F.Fab) (width 0.1))
  (fp_line (start 6.58 5.4) (end 12.58 5.4) (layer F.Fab) (width 0.1))
  (fp_line (start -0.32 7.3) (end 4.04 7.3) (layer F.Fab) (width 0.1))
  (fp_line (start -0.32 7.3) (end -0.32 7.94) (layer F.Fab) (width 0.1))
  (fp_line (start -0.32 7.94) (end 4.04 7.94) (layer F.Fab) (width 0.1))
  (fp_line (start 6.58 7.3) (end 12.58 7.3) (layer F.Fab) (width 0.1))
  (fp_line (start 12.58 7.3) (end 12.58 7.94) (layer F.Fab) (width 0.1))
  (fp_line (start 6.58 7.94) (end 12.58 7.94) (layer F.Fab) (width 0.1))
  (fp_line (start -0.32 9.84) (end 4.04 9.84) (layer F.Fab) (width 0.1))
  (fp_line (start -0.32 9.84) (end -0.32 10.48) (layer F.Fab) (width 0.1))
  (fp_line (start -0.32 10.48) (end 4.04 10.48) (layer F.Fab) (width 0.1))
  (fp_line (start 6.58 9.84) (end 12.58 9.84) (layer F.Fab) (width 0.1))
  (fp_line (start 12.58 9.84) (end 12.58 10.48) (layer F.Fab) (width 0.1))
  (fp_line (start 6.58 10.48) (end 12.58 10.48) (layer F.Fab) (width 0.1))
  (fp_line (start -0.32 12.38) (end 4.04 12.38) (layer F.Fab) (width 0.1))
  (fp_line (start -0.32 12.38) (end -0.32 13.02) (layer F.Fab) (width 0.1))
  (fp_line (start -0.32 13.02) (end 4.04 13.02) (layer F.Fab) (width 0.1))
  (fp_line (start 6.58 12.38) (end 12.58 12.38) (layer F.Fab) (width 0.1))
  (fp_line (start 12.58 12.38) (end 12.58 13.02) (layer F.Fab) (width 0.1))
  (fp_line (start 6.58 13.02) (end 12.58 13.02) (layer F.Fab) (width 0.1))
  (fp_line (start -0.32 14.92) (end 4.04 14.92) (layer F.Fab) (width 0.1))
  (fp_line (start -0.32 14.92) (end -0.32 15.56) (layer F.Fab) (width 0.1))
  (fp_line (start -0.32 15.56) (end 4.04 15.56) (layer F.Fab) (width 0.1))
  (fp_line (start 6.58 14.92) (end 12.58 14.92) (layer F.Fab) (width 0.1))
  (fp_line (start 12.58 14.92) (end 12.58 15.56) (layer F.Fab) (width 0.1))
  (fp_line (start 6.58 15.56) (end 12.58 15.56) (layer F.Fab) (width 0.1))
  (fp_line (start 3.98 -1.33) (end 3.98 16.57) (layer F.SilkS) (width 0.12))
  (fp_line (start 3.98 16.57) (end 6.64 16.57) (layer F.SilkS) (width 0.12))
  (fp_line (start 6.64 16.57) (end 6.64 -1.33) (layer F.SilkS) (width 0.12))
  (fp_line (start 6.64 -1.33) (end 3.98 -1.33) (layer F.SilkS) (width 0.12))
  (fp_line (start 6.64 -0.38) (end 12.64 -0.38) (layer F.SilkS) (width 0.12))
  (fp_line (start 12.64 -0.38) (end 12.64 0.38) (layer F.SilkS) (width 0.12))
  (fp_line (start 12.64 0.38) (end 6.64 0.38) (layer F.SilkS) (width 0.12))
  (fp_line (start 6.64 -0.32) (end 12.64 -0.32) (layer F.SilkS) (width 0.12))
  (fp_line (start 6.64 -0.2) (end 12.64 -0.2) (layer F.SilkS) (width 0.12))
  (fp_line (start 6.64 -0.08) (end 12.64 -0.08) (layer F.SilkS) (width 0.12))
  (fp_line (start 6.64 0.04) (end 12.64 0.04) (layer F.SilkS) (width 0.12))
  (fp_line (start 6.64 0.16) (end 12.64 0.16) (layer F.SilkS) (width 0.12))
  (fp_line (start 6.64 0.28) (end 12.64 0.28) (layer F.SilkS) (width 0.12))
  (fp_line (start 3.582929 -0.38) (end 3.98 -0.38) (layer F.SilkS) (width 0.12))
  (fp_line (start 3.582929 0.38) (end 3.98 0.38) (layer F.SilkS) (width 0.12))
  (fp_line (start 1.11 -0.38) (end 1.497071 -0.38) (layer F.SilkS) (width 0.12))
  (fp_line (start 1.11 0.38) (end 1.497071 0.38) (layer F.SilkS) (width 0.12))
  (fp_line (start 3.98 1.27) (end 6.64 1.27) (layer F.SilkS) (width 0.12))
  (fp_line (start 6.64 2.16) (end 12.64 2.16) (layer F.SilkS) (width 0.12))
  (fp_line (start 12.64 2.16) (end 12.64 2.92) (layer F.SilkS) (width 0.12))
  (fp_line (start 12.64 2.92) (end 6.64 2.92) (layer F.SilkS) (width 0.12))
  (fp_line (start 3.582929 2.16) (end 3.98 2.16) (layer F.SilkS) (width 0.12))
  (fp_line (start 3.582929 2.92) (end 3.98 2.92) (layer F.SilkS) (width 0.12))
  (fp_line (start 1.042929 2.16) (end 1.497071 2.16) (layer F.SilkS) (width 0.12))
  (fp_line (start 1.042929 2.92) (end 1.497071 2.92) (layer F.SilkS) (width 0.12))
  (fp_line (start 3.98 3.81) (end 6.64 3.81) (layer F.SilkS) (width 0.12))
  (fp_line (start 6.64 4.7) (end 12.64 4.7) (layer F.SilkS) (width 0.12))
  (fp_line (start 12.64 4.7) (end 12.64 5.46) (layer F.SilkS) (width 0.12))
  (fp_line (start 12.64 5.46) (end 6.64 5.46) (layer F.SilkS) (width 0.12))
  (fp_line (start 3.582929 4.7) (end 3.98 4.7) (layer F.SilkS) (width 0.12))
  (fp_line (start 3.582929 5.46) (end 3.98 5.46) (layer F.SilkS) (width 0.12))
  (fp_line (start 1.042929 4.7) (end 1.497071 4.7) (layer F.SilkS) (width 0.12))
  (fp_line (start 1.042929 5.46) (end 1.497071 5.46) (layer F.SilkS) (width 0.12))
  (fp_line (start 3.98 6.35) (end 6.64 6.35) (layer F.SilkS) (width 0.12))
  (fp_line (start 6.64 7.24) (end 12.64 7.24) (layer F.SilkS) (width 0.12))
  (fp_line (start 12.64 7.24) (end 12.64 8) (layer F.SilkS) (width 0.12))
  (fp_line (start 12.64 8) (end 6.64 8) (layer F.SilkS) (width 0.12))
  (fp_line (start 3.582929 7.24) (end 3.98 7.24) (layer F.SilkS) (width 0.12))
  (fp_line (start 3.582929 8) (end 3.98 8) (layer F.SilkS) (width 0.12))
  (fp_line (start 1.042929 7.24) (end 1.497071 7.24) (layer F.SilkS) (width 0.12))
  (fp_line (start 1.042929 8) (end 1.497071 8) (layer F.SilkS) (width 0.12))
  (fp_line (start 3.98 8.89) (end 6.64 8.89) (layer F.SilkS) (width 0.12))
  (fp_line (start 6.64 9.78) (end 12.64 9.78) (layer F.SilkS) (width 0.12))
  (fp_line (start 12.64 9.78) (end 12.64 10.54) (layer F.SilkS) (width 0.12))
  (fp_line (start 12.64 10.54) (end 6.64 10.54) (layer F.SilkS) (width 0.12))
  (fp_line (start 3.582929 9.78) (end 3.98 9.78) (layer F.SilkS) (width 0.12))
  (fp_line (start 3.582929 10.54) (end 3.98 10.54) (layer F.SilkS) (width 0.12))
  (fp_line (start 1.042929 9.78) (end 1.497071 9.78) (layer F.SilkS) (width 0.12))
  (fp_line (start 1.042929 10.54) (end 1.497071 10.54) (layer F.SilkS) (width 0.12))
  (fp_line (start 3.98 11.43) (end 6.64 11.43) (layer F.SilkS) (width 0.12))
  (fp_line (start 6.64 12.32) (end 12.64 12.32) (layer F.SilkS) (width 0.12))
  (fp_line (start 12.64 12.32) (end 12.64 13.08) (layer F.SilkS) (width 0.12))
  (fp_line (start 12.64 13.08) (end 6.64 13.08) (layer F.SilkS) (width 0.12))
  (fp_line (start 3.582929 12.32) (end 3.98 12.32) (layer F.SilkS) (width 0.12))
  (fp_line (start 3.582929 13.08) (end 3.98 13.08) (layer F.SilkS) (width 0.12))
  (fp_line (start 1.042929 12.32) (end 1.497071 12.32) (layer F.SilkS) (width 0.12))
  (fp_line (start 1.042929 13.08) (end 1.497071 13.08) (layer F.SilkS) (width 0.12))
  (fp_line (start 3.98 13.97) (end 6.64 13.97) (layer F.SilkS) (width 0.12))
  (fp_line (start 6.64 14.86) (end 12.64 14.86) (layer F.SilkS) (width 0.12))
  (fp_line (start 12.64 14.86) (end 12.64 15.62) (layer F.SilkS) (width 0.12))
  (fp_line (start 12.64 15.62) (end 6.64 15.62) (layer F.SilkS) (width 0.12))
  (fp_line (start 3.582929 14.86) (end 3.98 14.86) (layer F.SilkS) (width 0.12))
  (fp_line (start 3.582929 15.62) (end 3.98 15.62) (layer F.SilkS) (width 0.12))
  (fp_line (start 1.042929 14.86) (end 1.497071 14.86) (layer F.SilkS) (width 0.12))
  (fp_line (start 1.042929 15.62) (end 1.497071 15.62) (layer F.SilkS) (width 0.12))
  (fp_line (start -1.27 0) (end -1.27 -1.27) (layer F.SilkS) (width 0.12))
  (fp_line (start -1.27 -1.27) (end 0 -1.27) (layer F.SilkS) (width 0.12))
  (fp_line (start -1.8 -1.8) (end -1.8 17.05) (layer F.CrtYd) (width 0.05))
  (fp_line (start -1.8 17.05) (end 13.1 17.05) (layer F.CrtYd) (width 0.05))
  (fp_line (start 13.1 17.05) (end 13.1 -1.8) (layer F.CrtYd) (width 0.05))
  (fp_line (start 13.1 -1.8) (end -1.8 -1.8) (layer F.CrtYd) (width 0.05))
  (pad 1 thru_hole rect (at 0 0) (size 1.7 1.7) (drill 1.0) (layers *.Cu *.Mask))
  (pad 2 thru_hole oval (at 2.54 0) (size 1.7 1.7) (drill 1.0) (layers *.Cu *.Mask))
  (pad 3 thru_hole oval (at 0 2.54) (size 1.7 1.7) (drill 1.0) (layers *.Cu *.Mask))
  (pad 4 thru_hole oval (at 2.54 2.54) (size 1.7 1.7) (drill 1.0) (layers *.Cu *.Mask))
  (pad 5 thru_hole oval (at 0 5.08) (size 1.7 1.7) (drill 1.0) (layers *.Cu *.Mask))
  (pad 6 thru_hole oval (at 2.54 5.08) (size 1.7 1.7) (drill 1.0) (layers *.Cu *.Mask))
  (pad 7 thru_hole oval (at 0 7.62) (size 1.7 1.7) (drill 1.0) (layers *.Cu *.Mask))
  (pad 8 thru_hole oval (at 2.54 7.62) (size 1.7 1.7) (drill 1.0) (layers *.Cu *.Mask))
  (pad 9 thru_hole oval (at 0 10.16) (size 1.7 1.7) (drill 1.0) (layers *.Cu *.Mask))
  (pad 10 thru_hole oval (at 2.54 10.16) (size 1.7 1.7) (drill 1.0) (layers *.Cu *.Mask))
  (pad 11 thru_hole oval (at 0 12.7) (size 1.7 1.7) (drill 1.0) (layers *.Cu *.Mask))
  (pad 12 thru_hole oval (at 2.54 12.7) (size 1.7 1.7) (drill 1.0) (layers *.Cu *.Mask))
  (pad 13 thru_hole oval (at 0 15.24) (size 1.7 1.7) (drill 1.0) (layers *.Cu *.Mask))
  (pad 14 thru_hole oval (at 2.54 15.24) (size 1.7 1.7) (drill 1.0) (layers *.Cu *.Mask))
  (fp_text user %R (at 5.31 7.62 90) (layer F.Fab)
    (effects (font (size 1 1) (thickness 0.15)))
  )
  (model ${KICAD6_3DMODEL_DIR}/Connector_PinHeader_2.54mm.3dshapes/PinHeader_2x07_P2.54mm_Horizontal.wrl
    (at (xyz 0 0 0))
    (scale (xyz 1 1 1))
    (rotate (xyz 0 0 0))
  )
)