(module PinHeader_1x08_P2.54mm_Vertical_SMD_Pin1Right (layer F.Cu) (tedit 59FED5CC)
  (descr "surface-mounted straight pin header, 1x08, 2.54mm pitch, single row, style 2 (pin 1 right)")
  (tags "Surface mounted pin header SMD 1x08 2.54mm single row style2 pin1 right")
  (attr smd)
  (fp_text reference REF** (at 0 -11.22) (layer F.SilkS)
    (effects (font (size 1 1) (thickness 0.15)))
  )
  (fp_text value PinHeader_1x08_P2.54mm_Vertical_SMD_Pin1Right (at 0 11.22) (layer F.Fab)
    (effects (font (size 1 1) (thickness 0.15)))
  )
  (fp_line (start 1.27 10.16) (end -1.27 10.16) (layer F.Fab) (width 0.1))
  (fp_line (start -1.27 -10.16) (end 0.32 -10.16) (layer F.Fab) (width 0.1))
  (fp_line (start 1.27 10.16) (end 1.27 -9.21) (layer F.Fab) (width 0.1))
  (fp_line (start 1.27 -9.21) (end 0.32 -10.16) (layer F.Fab) (width 0.1))
  (fp_line (start -1.27 -10.16) (end -1.27 10.16) (layer F.Fab) (width 0.1))
  (fp_line (start -1.27 -6.67) (end -2.54 -6.67) (layer F.Fab) (width 0.1))
  (fp_line (start -2.54 -6.67) (end -2.54 -6.03) (layer F.Fab) (width 0.1))
  (fp_line (start -2.54 -6.03) (end -1.27 -6.03) (layer F.Fab) (width 0.1))
  (fp_line (start -1.27 -1.59) (end -2.54 -1.59) (layer F.Fab) (width 0.1))
  (fp_line (start -2.54 -1.59) (end -2.54 -0.95) (layer F.Fab) (width 0.1))
  (fp_line (start -2.54 -0.95) (end -1.27 -0.95) (layer F.Fab) (width 0.1))
  (fp_line (start -1.27 3.49) (end -2.54 3.49) (layer F.Fab) (width 0.1))
  (fp_line (start -2.54 3.49) (end -2.54 4.13) (layer F.Fab) (width 0.1))
  (fp_line (start -2.54 4.13) (end -1.27 4.13) (layer F.Fab) (width 0.1))
  (fp_line (start -1.27 8.57) (end -2.54 8.57) (layer F.Fab) (width 0.1))
  (fp_line (start -2.54 8.57) (end -2.54 9.21) (layer F.Fab) (width 0.1))
  (fp_line (start -2.54 9.21) (end -1.27 9.21) (layer F.Fab) (width 0.1))
  (fp_line (start 1.27 -9.21) (end 2.54 -9.21) (layer F.Fab) (width 0.1))
  (fp_line (start 2.54 -9.21) (end 2.54 -8.57) (layer F.Fab) (width 0.1))
  (fp_line (start 2.54 -8.57) (end 1.27 -8.57) (layer F.Fab) (width 0.1))
  (fp_line (start 1.27 -4.13) (end 2.54 -4.13) (layer F.Fab) (width 0.1))
  (fp_line (start 2.54 -4.13) (end 2.54 -3.49) (layer F.Fab) (width 0.1))
  (fp_line (start 2.54 -3.49) (end 1.27 -3.49) (layer F.Fab) (width 0.1))
  (fp_line (start 1.27 0.95) (end 2.54 0.95) (layer F.Fab) (width 0.1))
  (fp_line (start 2.54 0.95) (end 2.54 1.59) (layer F.Fab) (width 0.1))
  (fp_line (start 2.54 1.59) (end 1.27 1.59) (layer F.Fab) (width 0.1))
  (fp_line (start 1.27 6.03) (end 2.54 6.03) (layer F.Fab) (width 0.1))
  (fp_line (start 2.54 6.03) (end 2.54 6.67) (layer F.Fab) (width 0.1))
  (fp_line (start 2.54 6.67) (end 1.27 6.67) (layer F.Fab) (width 0.1))
  (fp_line (start -1.33 -10.22) (end 1.33 -10.22) (layer F.SilkS) (width 0.12))
  (fp_line (start -1.33 10.22) (end 1.33 10.22) (layer F.SilkS) (width 0.12))
  (fp_line (start 1.33 -8.13) (end 1.33 -4.57) (layer F.SilkS) (width 0.12))
  (fp_line (start 1.33 -3.05) (end 1.33 0.51) (layer F.SilkS) (width 0.12))
  (fp_line (start 1.33 2.03) (end 1.33 5.59) (layer F.SilkS) (width 0.12))
  (fp_line (start 1.33 7.11) (end 1.33 10.22) (layer F.SilkS) (width 0.12))
  (fp_line (start -1.33 -10.22) (end -1.33 -7.11) (layer F.SilkS) (width 0.12))
  (fp_line (start 1.33 -9.65) (end 2.85 -9.65) (layer F.SilkS) (width 0.12))
  (fp_line (start 1.33 -10.22) (end 1.33 -9.65) (layer F.SilkS) (width 0.12))
  (fp_line (start -1.33 9.65) (end -1.33 10.22) (layer F.SilkS) (width 0.12))
  (fp_line (start -1.33 -5.59) (end -1.33 -2.03) (layer F.SilkS) (width 0.12))
  (fp_line (start -1.33 -0.51) (end -1.33 3.05) (layer F.SilkS) (width 0.12))
  (fp_line (start -1.33 4.57) (end -1.33 8.13) (layer F.SilkS) (width 0.12))
  (fp_line (start -3.45 -10.7) (end -3.45 10.7) (layer F.CrtYd) (width 0.05))
  (fp_line (start -3.45 10.7) (end 3.45 10.7) (layer F.CrtYd) (width 0.05))
  (fp_line (start 3.45 10.7) (end 3.45 -10.7) (layer F.CrtYd) (width 0.05))
  (fp_line (start 3.45 -10.7) (end -3.45 -10.7) (layer F.CrtYd) (width 0.05))
  (pad 2 smd rect (at -1.655 -6.35) (size 2.51 1) (layers F.Cu F.Mask F.Paste))
  (pad 4 smd rect (at -1.655 -1.27) (size 2.51 1) (layers F.Cu F.Mask F.Paste))
  (pad 6 smd rect (at -1.655 3.81) (size 2.51 1) (layers F.Cu F.Mask F.Paste))
  (pad 8 smd rect (at -1.655 8.89) (size 2.51 1) (layers F.Cu F.Mask F.Paste))
  (pad 1 smd rect (at 1.655 -8.89) (size 2.51 1) (layers F.Cu F.Mask F.Paste))
  (pad 3 smd rect (at 1.655 -3.81) (size 2.51 1) (layers F.Cu F.Mask F.Paste))
  (pad 5 smd rect (at 1.655 1.27) (size 2.51 1) (layers F.Cu F.Mask F.Paste))
  (pad 7 smd rect (at 1.655 6.35) (size 2.51 1) (layers F.Cu F.Mask F.Paste))
  (fp_text user %R (at 0 0 90) (layer F.Fab)
    (effects (font (size 1 1) (thickness 0.15)))
  )
  (model ${KICAD6_3DMODEL_DIR}/Connector_PinHeader_2.54mm.3dshapes/PinHeader_1x08_P2.54mm_Vertical_SMD_Pin1Right.wrl
    (at (xyz 0 0 0))
    (scale (xyz 1 1 1))
    (rotate (xyz 0 0 0))
  )
)