(module PinHeader_1x26_P2.54mm_Vertical_SMD_Pin1Right (layer F.Cu) (tedit 59FED5CC)
  (descr "surface-mounted straight pin header, 1x26, 2.54mm pitch, single row, style 2 (pin 1 right)")
  (tags "Surface mounted pin header SMD 1x26 2.54mm single row style2 pin1 right")
  (attr smd)
  (fp_text reference REF** (at 0 -34.08) (layer F.SilkS)
    (effects (font (size 1 1) (thickness 0.15)))
  )
  (fp_text value PinHeader_1x26_P2.54mm_Vertical_SMD_Pin1Right (at 0 34.08) (layer F.Fab)
    (effects (font (size 1 1) (thickness 0.15)))
  )
  (fp_line (start 1.27 33.02) (end -1.27 33.02) (layer F.Fab) (width 0.1))
  (fp_line (start -1.27 -33.02) (end 0.32 -33.02) (layer F.Fab) (width 0.1))
  (fp_line (start 1.27 33.02) (end 1.27 -32.07) (layer F.Fab) (width 0.1))
  (fp_line (start 1.27 -32.07) (end 0.32 -33.02) (layer F.Fab) (width 0.1))
  (fp_line (start -1.27 -33.02) (end -1.27 33.02) (layer F.Fab) (width 0.1))
  (fp_line (start -1.27 -29.53) (end -2.54 -29.53) (layer F.Fab) (width 0.1))
  (fp_line (start -2.54 -29.53) (end -2.54 -28.89) (layer F.Fab) (width 0.1))
  (fp_line (start -2.54 -28.89) (end -1.27 -28.89) (layer F.Fab) (width 0.1))
  (fp_line (start -1.27 -24.45) (end -2.54 -24.45) (layer F.Fab) (width 0.1))
  (fp_line (start -2.54 -24.45) (end -2.54 -23.81) (layer F.Fab) (width 0.1))
  (fp_line (start -2.54 -23.81) (end -1.27 -23.81) (layer F.Fab) (width 0.1))
  (fp_line (start -1.27 -19.37) (end -2.54 -19.37) (layer F.Fab) (width 0.1))
  (fp_line (start -2.54 -19.37) (end -2.54 -18.73) (layer F.Fab) (width 0.1))
  (fp_line (start -2.54 -18.73) (end -1.27 -18.73) (layer F.Fab) (width 0.1))
  (fp_line (start -1.27 -14.29) (end -2.54 -14.29) (layer F.Fab) (width 0.1))
  (fp_line (start -2.54 -14.29) (end -2.54 -13.65) (layer F.Fab) (width 0.1))
  (fp_line (start -2.54 -13.65) (end -1.27 -13.65) (layer F.Fab) (width 0.1))
  (fp_line (start -1.27 -9.21) (end -2.54 -9.21) (layer F.Fab) (width 0.1))
  (fp_line (start -2.54 -9.21) (end -2.54 -8.57) (layer F.Fab) (width 0.1))
  (fp_line (start -2.54 -8.57) (end -1.27 -8.57) (layer F.Fab) (width 0.1))
  (fp_line (start -1.27 -4.13) (end -2.54 -4.13) (layer F.Fab) (width 0.1))
  (fp_line (start -2.54 -4.13) (end -2.54 -3.49) (layer F.Fab) (width 0.1))
  (fp_line (start -2.54 -3.49) (end -1.27 -3.49) (layer F.Fab) (width 0.1))
  (fp_line (start -1.27 0.95) (end -2.54 0.95) (layer F.Fab) (width 0.1))
  (fp_line (start -2.54 0.95) (end -2.54 1.59) (layer F.Fab) (width 0.1))
  (fp_line (start -2.54 1.59) (end -1.27 1.59) (layer F.Fab) (width 0.1))
  (fp_line (start -1.27 6.03) (end -2.54 6.03) (layer F.Fab) (width 0.1))
  (fp_line (start -2.54 6.03) (end -2.54 6.67) (layer F.Fab) (width 0.1))
  (fp_line (start -2.54 6.67) (end -1.27 6.67) (layer F.Fab) (width 0.1))
  (fp_line (start -1.27 11.11) (end -2.54 11.11) (layer F.Fab) (width 0.1))
  (fp_line (start -2.54 11.11) (end -2.54 11.75) (layer F.Fab) (width 0.1))
  (fp_line (start -2.54 11.75) (end -1.27 11.75) (layer F.Fab) (width 0.1))
  (fp_line (start -1.27 16.19) (end -2.54 16.19) (layer F.Fab) (width 0.1))
  (fp_line (start -2.54 16.19) (end -2.54 16.83) (layer F.Fab) (width 0.1))
  (fp_line (start -2.54 16.83) (end -1.27 16.83) (layer F.Fab) (width 0.1))
  (fp_line (start -1.27 21.27) (end -2.54 21.27) (layer F.Fab) (width 0.1))
  (fp_line (start -2.54 21.27) (end -2.54 21.91) (layer F.Fab) (width 0.1))
  (fp_line (start -2.54 21.91) (end -1.27 21.91) (layer F.Fab) (width 0.1))
  (fp_line (start -1.27 26.35) (end -2.54 26.35) (layer F.Fab) (width 0.1))
  (fp_line (start -2.54 26.35) (end -2.54 26.99) (layer F.Fab) (width 0.1))
  (fp_line (start -2.54 26.99) (end -1.27 26.99) (layer F.Fab) (width 0.1))
  (fp_line (start -1.27 31.43) (end -2.54 31.43) (layer F.Fab) (width 0.1))
  (fp_line (start -2.54 31.43) (end -2.54 32.07) (layer F.Fab) (width 0.1))
  (fp_line (start -2.54 32.07) (end -1.27 32.07) (layer F.Fab) (width 0.1))
  (fp_line (start 1.27 -32.07) (end 2.54 -32.07) (layer F.Fab) (width 0.1))
  (fp_line (start 2.54 -32.07) (end 2.54 -31.43) (layer F.Fab) (width 0.1))
  (fp_line (start 2.54 -31.43) (end 1.27 -31.43) (layer F.Fab) (width 0.1))
  (fp_line (start 1.27 -26.99) (end 2.54 -26.99) (layer F.Fab) (width 0.1))
  (fp_line (start 2.54 -26.99) (end 2.54 -26.35) (layer F.Fab) (width 0.1))
  (fp_line (start 2.54 -26.35) (end 1.27 -26.35) (layer F.Fab) (width 0.1))
  (fp_line (start 1.27 -21.91) (end 2.54 -21.91) (layer F.Fab) (width 0.1))
  (fp_line (start 2.54 -21.91) (end 2.54 -21.27) (layer F.Fab) (width 0.1))
  (fp_line (start 2.54 -21.27) (end 1.27 -21.27) (layer F.Fab) (width 0.1))
  (fp_line (start 1.27 -16.83) (end 2.54 -16.83) (layer F.Fab) (width 0.1))
  (fp_line (start 2.54 -16.83) (end 2.54 -16.19) (layer F.Fab) (width 0.1))
  (fp_line (start 2.54 -16.19) (end 1.27 -16.19) (layer F.Fab) (width 0.1))
  (fp_line (start 1.27 -11.75) (end 2.54 -11.75) (layer F.Fab) (width 0.1))
  (fp_line (start 2.54 -11.75) (end 2.54 -11.11) (layer F.Fab) (width 0.1))
  (fp_line (start 2.54 -11.11) (end 1.27 -11.11) (layer F.Fab) (width 0.1))
  (fp_line (start 1.27 -6.67) (end 2.54 -6.67) (layer F.Fab) (width 0.1))
  (fp_line (start 2.54 -6.67) (end 2.54 -6.03) (layer F.Fab) (width 0.1))
  (fp_line (start 2.54 -6.03) (end 1.27 -6.03) (layer F.Fab) (width 0.1))
  (fp_line (start 1.27 -1.59) (end 2.54 -1.59) (layer F.Fab) (width 0.1))
  (fp_line (start 2.54 -1.59) (end 2.54 -0.95) (layer F.Fab) (width 0.1))
  (fp_line (start 2.54 -0.95) (end 1.27 -0.95) (layer F.Fab) (width 0.1))
  (fp_line (start 1.27 3.49) (end 2.54 3.49) (layer F.Fab) (width 0.1))
  (fp_line (start 2.54 3.49) (end 2.54 4.13) (layer F.Fab) (width 0.1))
  (fp_line (start 2.54 4.13) (end 1.27 4.13) (layer F.Fab) (width 0.1))
  (fp_line (start 1.27 8.57) (end 2.54 8.57) (layer F.Fab) (width 0.1))
  (fp_line (start 2.54 8.57) (end 2.54 9.21) (layer F.Fab) (width 0.1))
  (fp_line (start 2.54 9.21) (end 1.27 9.21) (layer F.Fab) (width 0.1))
  (fp_line (start 1.27 13.65) (end 2.54 13.65) (layer F.Fab) (width 0.1))
  (fp_line (start 2.54 13.65) (end 2.54 14.29) (layer F.Fab) (width 0.1))
  (fp_line (start 2.54 14.29) (end 1.27 14.29) (layer F.Fab) (width 0.1))
  (fp_line (start 1.27 18.73) (end 2.54 18.73) (layer F.Fab) (width 0.1))
  (fp_line (start 2.54 18.73) (end 2.54 19.37) (layer F.Fab) (width 0.1))
  (fp_line (start 2.54 19.37) (end 1.27 19.37) (layer F.Fab) (width 0.1))
  (fp_line (start 1.27 23.81) (end 2.54 23.81) (layer F.Fab) (width 0.1))
  (fp_line (start 2.54 23.81) (end 2.54 24.45) (layer F.Fab) (width 0.1))
  (fp_line (start 2.54 24.45) (end 1.27 24.45) (layer F.Fab) (width 0.1))
  (fp_line (start 1.27 28.89) (end 2.54 28.89) (layer F.Fab) (width 0.1))
  (fp_line (start 2.54 28.89) (end 2.54 29.53) (layer F.Fab) (width 0.1))
  (fp_line (start 2.54 29.53) (end 1.27 29.53) (layer F.Fab) (width 0.1))
  (fp_line (start -1.33 -33.08) (end 1.33 -33.08) (layer F.SilkS) (width 0.12))
  (fp_line (start -1.33 33.08) (end 1.33 33.08) (layer F.SilkS) (width 0.12))
  (fp_line (start 1.33 -30.99) (end 1.33 -27.43) (layer F.SilkS) (width 0.12))
  (fp_line (start 1.33 -25.91) (end 1.33 -22.35) (layer F.SilkS) (width 0.12))
  (fp_line (start 1.33 -20.83) (end 1.33 -17.27) (layer F.SilkS) (width 0.12))
  (fp_line (start 1.33 -15.75) (end 1.33 -12.19) (layer F.SilkS) (width 0.12))
  (fp_line (start 1.33 -10.67) (end 1.33 -7.11) (layer F.SilkS) (width 0.12))
  (fp_line (start 1.33 -5.59) (end 1.33 -2.03) (layer F.SilkS) (width 0.12))
  (fp_line (start 1.33 -0.51) (end 1.33 3.05) (layer F.SilkS) (width 0.12))
  (fp_line (start 1.33 4.57) (end 1.33 8.13) (layer F.SilkS) (width 0.12))
  (fp_line (start 1.33 9.65) (end 1.33 13.21) (layer F.SilkS) (width 0.12))
  (fp_line (start 1.33 14.73) (end 1.33 18.29) (layer F.SilkS) (width 0.12))
  (fp_line (start 1.33 19.81) (end 1.33 23.37) (layer F.SilkS) (width 0.12))
  (fp_line (start 1.33 24.89) (end 1.33 28.45) (layer F.SilkS) (width 0.12))
  (fp_line (start 1.33 29.97) (end 1.33 33.08) (layer F.SilkS) (width 0.12))
  (fp_line (start -1.33 -33.08) (end -1.33 -29.97) (layer F.SilkS) (width 0.12))
  (fp_line (start 1.33 -32.51) (end 2.85 -32.51) (layer F.SilkS) (width 0.12))
  (fp_line (start 1.33 -33.08) (end 1.33 -32.51) (layer F.SilkS) (width 0.12))
  (fp_line (start -1.33 32.51) (end -1.33 33.08) (layer F.SilkS) (width 0.12))
  (fp_line (start -1.33 -28.45) (end -1.33 -24.89) (layer F.SilkS) (width 0.12))
  (fp_line (start -1.33 -23.37) (end -1.33 -19.81) (layer F.SilkS) (width 0.12))
  (fp_line (start -1.33 -18.29) (end -1.33 -14.73) (layer F.SilkS) (width 0.12))
  (fp_line (start -1.33 -13.21) (end -1.33 -9.65) (layer F.SilkS) (width 0.12))
  (fp_line (start -1.33 -8.13) (end -1.33 -4.57) (layer F.SilkS) (width 0.12))
  (fp_line (start -1.33 -3.05) (end -1.33 0.51) (layer F.SilkS) (width 0.12))
  (fp_line (start -1.33 2.03) (end -1.33 5.59) (layer F.SilkS) (width 0.12))
  (fp_line (start -1.33 7.11) (end -1.33 10.67) (layer F.SilkS) (width 0.12))
  (fp_line (start -1.33 12.19) (end -1.33 15.75) (layer F.SilkS) (width 0.12))
  (fp_line (start -1.33 17.27) (end -1.33 20.83) (layer F.SilkS) (width 0.12))
  (fp_line (start -1.33 22.35) (end -1.33 25.91) (layer F.SilkS) (width 0.12))
  (fp_line (start -1.33 27.43) (end -1.33 30.99) (layer F.SilkS) (width 0.12))
  (fp_line (start -3.45 -33.55) (end -3.45 33.55) (layer F.CrtYd) (width 0.05))
  (fp_line (start -3.45 33.55) (end 3.45 33.55) (layer F.CrtYd) (width 0.05))
  (fp_line (start 3.45 33.55) (end 3.45 -33.55) (layer F.CrtYd) (width 0.05))
  (fp_line (start 3.45 -33.55) (end -3.45 -33.55) (layer F.CrtYd) (width 0.05))
  (pad 2 smd rect (at -1.655 -29.21) (size 2.51 1) (layers F.Cu F.Mask F.Paste))
  (pad 4 smd rect (at -1.655 -24.13) (size 2.51 1) (layers F.Cu F.Mask F.Paste))
  (pad 6 smd rect (at -1.655 -19.05) (size 2.51 1) (layers F.Cu F.Mask F.Paste))
  (pad 8 smd rect (at -1.655 -13.97) (size 2.51 1) (layers F.Cu F.Mask F.Paste))
  (pad 10 smd rect (at -1.655 -8.89) (size 2.51 1) (layers F.Cu F.Mask F.Paste))
  (pad 12 smd rect (at -1.655 -3.81) (size 2.51 1) (layers F.Cu F.Mask F.Paste))
  (pad 14 smd rect (at -1.655 1.27) (size 2.51 1) (layers F.Cu F.Mask F.Paste))
  (pad 16 smd rect (at -1.655 6.35) (size 2.51 1) (layers F.Cu F.Mask F.Paste))
  (pad 18 smd rect (at -1.655 11.43) (size 2.51 1) (layers F.Cu F.Mask F.Paste))
  (pad 20 smd rect (at -1.655 16.51) (size 2.51 1) (layers F.Cu F.Mask F.Paste))
  (pad 22 smd rect (at -1.655 21.59) (size 2.51 1) (layers F.Cu F.Mask F.Paste))
  (pad 24 smd rect (at -1.655 26.67) (size 2.51 1) (layers F.Cu F.Mask F.Paste))
  (pad 26 smd rect (at -1.655 31.75) (size 2.51 1) (layers F.Cu F.Mask F.Paste))
  (pad 1 smd rect (at 1.655 -31.75) (size 2.51 1) (layers F.Cu F.Mask F.Paste))
  (pad 3 smd rect (at 1.655 -26.67) (size 2.51 1) (layers F.Cu F.Mask F.Paste))
  (pad 5 smd rect (at 1.655 -21.59) (size 2.51 1) (layers F.Cu F.Mask F.Paste))
  (pad 7 smd rect (at 1.655 -16.51) (size 2.51 1) (layers F.Cu F.Mask F.Paste))
  (pad 9 smd rect (at 1.655 -11.43) (size 2.51 1) (layers F.Cu F.Mask F.Paste))
  (pad 11 smd rect (at 1.655 -6.35) (size 2.51 1) (layers F.Cu F.Mask F.Paste))
  (pad 13 smd rect (at 1.655 -1.27) (size 2.51 1) (layers F.Cu F.Mask F.Paste))
  (pad 15 smd rect (at 1.655 3.81) (size 2.51 1) (layers F.Cu F.Mask F.Paste))
  (pad 17 smd rect (at 1.655 8.89) (size 2.51 1) (layers F.Cu F.Mask F.Paste))
  (pad 19 smd rect (at 1.655 13.97) (size 2.51 1) (layers F.Cu F.Mask F.Paste))
  (pad 21 smd rect (at 1.655 19.05) (size 2.51 1) (layers F.Cu F.Mask F.Paste))
  (pad 23 smd rect (at 1.655 24.13) (size 2.51 1) (layers F.Cu F.Mask F.Paste))
  (pad 25 smd rect (at 1.655 29.21) (size 2.51 1) (layers F.Cu F.Mask F.Paste))
  (fp_text user %R (at 0 0 90) (layer F.Fab)
    (effects (font (size 1 1) (thickness 0.15)))
  )
  (model ${KICAD6_3DMODEL_DIR}/Connector_PinHeader_2.54mm.3dshapes/PinHeader_1x26_P2.54mm_Vertical_SMD_Pin1Right.wrl
    (at (xyz 0 0 0))
    (scale (xyz 1 1 1))
    (rotate (xyz 0 0 0))
  )
)