(module PinHeader_1x11_P2.54mm_Vertical_SMD_Pin1Right (layer F.Cu) (tedit 59FED5CC)
  (descr "surface-mounted straight pin header, 1x11, 2.54mm pitch, single row, style 2 (pin 1 right)")
  (tags "Surface mounted pin header SMD 1x11 2.54mm single row style2 pin1 right")
  (attr smd)
  (fp_text reference REF** (at 0 -15.03) (layer F.SilkS)
    (effects (font (size 1 1) (thickness 0.15)))
  )
  (fp_text value PinHeader_1x11_P2.54mm_Vertical_SMD_Pin1Right (at 0 15.03) (layer F.Fab)
    (effects (font (size 1 1) (thickness 0.15)))
  )
  (fp_line (start 1.27 13.97) (end -1.27 13.97) (layer F.Fab) (width 0.1))
  (fp_line (start -1.27 -13.97) (end 0.32 -13.97) (layer F.Fab) (width 0.1))
  (fp_line (start 1.27 13.97) (end 1.27 -13.02) (layer F.Fab) (width 0.1))
  (fp_line (start 1.27 -13.02) (end 0.32 -13.97) (layer F.Fab) (width 0.1))
  (fp_line (start -1.27 -13.97) (end -1.27 13.97) (layer F.Fab) (width 0.1))
  (fp_line (start -1.27 -10.48) (end -2.54 -10.48) (layer F.Fab) (width 0.1))
  (fp_line (start -2.54 -10.48) (end -2.54 -9.84) (layer F.Fab) (width 0.1))
  (fp_line (start -2.54 -9.84) (end -1.27 -9.84) (layer F.Fab) (width 0.1))
  (fp_line (start -1.27 -5.4) (end -2.54 -5.4) (layer F.Fab) (width 0.1))
  (fp_line (start -2.54 -5.4) (end -2.54 -4.76) (layer F.Fab) (width 0.1))
  (fp_line (start -2.54 -4.76) (end -1.27 -4.76) (layer F.Fab) (width 0.1))
  (fp_line (start -1.27 -0.32) (end -2.54 -0.32) (layer F.Fab) (width 0.1))
  (fp_line (start -2.54 -0.32) (end -2.54 0.32) (layer F.Fab) (width 0.1))
  (fp_line (start -2.54 0.32) (end -1.27 0.32) (layer F.Fab) (width 0.1))
  (fp_line (start -1.27 4.76) (end -2.54 4.76) (layer F.Fab) (width 0.1))
  (fp_line (start -2.54 4.76) (end -2.54 5.4) (layer F.Fab) (width 0.1))
  (fp_line (start -2.54 5.4) (end -1.27 5.4) (layer F.Fab) (width 0.1))
  (fp_line (start -1.27 9.84) (end -2.54 9.84) (layer F.Fab) (width 0.1))
  (fp_line (start -2.54 9.84) (end -2.54 10.48) (layer F.Fab) (width 0.1))
  (fp_line (start -2.54 10.48) (end -1.27 10.48) (layer F.Fab) (width 0.1))
  (fp_line (start 1.27 -13.02) (end 2.54 -13.02) (layer F.Fab) (width 0.1))
  (fp_line (start 2.54 -13.02) (end 2.54 -12.38) (layer F.Fab) (width 0.1))
  (fp_line (start 2.54 -12.38) (end 1.27 -12.38) (layer F.Fab) (width 0.1))
  (fp_line (start 1.27 -7.94) (end 2.54 -7.94) (layer F.Fab) (width 0.1))
  (fp_line (start 2.54 -7.94) (end 2.54 -7.3) (layer F.Fab) (width 0.1))
  (fp_line (start 2.54 -7.3) (end 1.27 -7.3) (layer F.Fab) (width 0.1))
  (fp_line (start 1.27 -2.86) (end 2.54 -2.86) (layer F.Fab) (width 0.1))
  (fp_line (start 2.54 -2.86) (end 2.54 -2.22) (layer F.Fab) (width 0.1))
  (fp_line (start 2.54 -2.22) (end 1.27 -2.22) (layer F.Fab) (width 0.1))
  (fp_line (start 1.27 2.22) (end 2.54 2.22) (layer F.Fab) (width 0.1))
  (fp_line (start 2.54 2.22) (end 2.54 2.86) (layer F.Fab) (width 0.1))
  (fp_line (start 2.54 2.86) (end 1.27 2.86) (layer F.Fab) (width 0.1))
  (fp_line (start 1.27 7.3) (end 2.54 7.3) (layer F.Fab) (width 0.1))
  (fp_line (start 2.54 7.3) (end 2.54 7.94) (layer F.Fab) (width 0.1))
  (fp_line (start 2.54 7.94) (end 1.27 7.94) (layer F.Fab) (width 0.1))
  (fp_line (start 1.27 12.38) (end 2.54 12.38) (layer F.Fab) (width 0.1))
  (fp_line (start 2.54 12.38) (end 2.54 13.02) (layer F.Fab) (width 0.1))
  (fp_line (start 2.54 13.02) (end 1.27 13.02) (layer F.Fab) (width 0.1))
  (fp_line (start -1.33 -14.03) (end 1.33 -14.03) (layer F.SilkS) (width 0.12))
  (fp_line (start -1.33 14.03) (end 1.33 14.03) (layer F.SilkS) (width 0.12))
  (fp_line (start 1.33 -11.94) (end 1.33 -8.38) (layer F.SilkS) (width 0.12))
  (fp_line (start 1.33 -6.86) (end 1.33 -3.3) (layer F.SilkS) (width 0.12))
  (fp_line (start 1.33 -1.78) (end 1.33 1.78) (layer F.SilkS) (width 0.12))
  (fp_line (start 1.33 3.3) (end 1.33 6.86) (layer F.SilkS) (width 0.12))
  (fp_line (start 1.33 8.38) (end 1.33 11.94) (layer F.SilkS) (width 0.12))
  (fp_line (start -1.33 -14.03) (end -1.33 -10.92) (layer F.SilkS) (width 0.12))
  (fp_line (start 1.33 -13.46) (end 2.85 -13.46) (layer F.SilkS) (width 0.12))
  (fp_line (start 1.33 -14.03) (end 1.33 -13.46) (layer F.SilkS) (width 0.12))
  (fp_line (start -1.33 13.46) (end -1.33 14.03) (layer F.SilkS) (width 0.12))
  (fp_line (start -1.33 -9.4) (end -1.33 -5.84) (layer F.SilkS) (width 0.12))
  (fp_line (start -1.33 -4.32) (end -1.33 -0.76) (layer F.SilkS) (width 0.12))
  (fp_line (start -1.33 0.76) (end -1.33 4.32) (layer F.SilkS) (width 0.12))
  (fp_line (start -1.33 5.84) (end -1.33 9.4) (layer F.SilkS) (width 0.12))
  (fp_line (start -1.33 10.92) (end -1.33 14.03) (layer F.SilkS) (width 0.12))
  (fp_line (start -3.45 -14.5) (end -3.45 14.5) (layer F.CrtYd) (width 0.05))
  (fp_line (start -3.45 14.5) (end 3.45 14.5) (layer F.CrtYd) (width 0.05))
  (fp_line (start 3.45 14.5) (end 3.45 -14.5) (layer F.CrtYd) (width 0.05))
  (fp_line (start 3.45 -14.5) (end -3.45 -14.5) (layer F.CrtYd) (width 0.05))
  (pad 2 smd rect (at -1.655 -10.16) (size 2.51 1) (layers F.Cu F.Mask F.Paste))
  (pad 4 smd rect (at -1.655 -5.08) (size 2.51 1) (layers F.Cu F.Mask F.Paste))
  (pad 6 smd rect (at -1.655 0) (size 2.51 1) (layers F.Cu F.Mask F.Paste))
  (pad 8 smd rect (at -1.655 5.08) (size 2.51 1) (layers F.Cu F.Mask F.Paste))
  (pad 10 smd rect (at -1.655 10.16) (size 2.51 1) (layers F.Cu F.Mask F.Paste))
  (pad 1 smd rect (at 1.655 -12.7) (size 2.51 1) (layers F.Cu F.Mask F.Paste))
  (pad 3 smd rect (at 1.655 -7.62) (size 2.51 1) (layers F.Cu F.Mask F.Paste))
  (pad 5 smd rect (at 1.655 -2.54) (size 2.51 1) (layers F.Cu F.Mask F.Paste))
  (pad 7 smd rect (at 1.655 2.54) (size 2.51 1) (layers F.Cu F.Mask F.Paste))
  (pad 9 smd rect (at 1.655 7.62) (size 2.51 1) (layers F.Cu F.Mask F.Paste))
  (pad 11 smd rect (at 1.655 12.7) (size 2.51 1) (layers F.Cu F.Mask F.Paste))
  (fp_text user %R (at 0 0 90) (layer F.Fab)
    (effects (font (size 1 1) (thickness 0.15)))
  )
  (model ${KICAD6_3DMODEL_DIR}/Connector_PinHeader_2.54mm.3dshapes/PinHeader_1x11_P2.54mm_Vertical_SMD_Pin1Right.wrl
    (at (xyz 0 0 0))
    (scale (xyz 1 1 1))
    (rotate (xyz 0 0 0))
  )
)