M48
; DRILL file {KiCad (5.99.0-13090-gcf6b18ec7e)} date Mon Nov  8 20:21:24 2021
; FORMAT={-:-/ absolute / inch / decimal}
; #@! TF.CreationDate,2021-11-08T20:21:24+02:00
; #@! TF.GenerationSoftware,Kicad,Pcbnew,(5.99.0-13090-gcf6b18ec7e)
; #@! TF.FileFunction,NonPlated,1,2,NPTH
FMAT,2
INCH
%
G90
G05
T0
M30
