G04 #@! TF.GenerationSoftware,KiCad,Pcbnew,(5.99.0-13090-gcf6b18ec7e)*
G04 #@! TF.CreationDate,2021-11-08T20:21:21+02:00*
G04 #@! TF.ProjectId,debug_version,64656275-675f-4766-9572-73696f6e2e6b,v0.3*
G04 #@! TF.SameCoordinates,Original*
G04 #@! TF.FileFunction,Profile,NP*
%FSLAX46Y46*%
G04 Gerber Fmt 4.6, Leading zero omitted, Abs format (unit mm)*
G04 Created by KiCad (PCBNEW (5.99.0-13090-gcf6b18ec7e)) date 2021-11-08 20:21:21*
%MOMM*%
%LPD*%
G01*
G04 APERTURE LIST*
G04 #@! TA.AperFunction,Profile*
%ADD10C,0.150000*%
G04 #@! TD*
G04 APERTURE END LIST*
D10*
X113000000Y-121000000D02*
X177000000Y-121000000D01*
X113000000Y-121000000D02*
X113000000Y-53000000D01*
X113000000Y-53000000D02*
X177000000Y-53000000D01*
X177000000Y-121000000D02*
X177000000Y-53000000D01*
M02*
