(module AMS_LGA-10-1EP_2.7x4mm_P0.6mm (layer F.Cu) (tedit 5A02F217)
  (descr "LGA-10, http://ams.com/eng/content/download/951091/2269479/471718")
  (tags "lga land grid array")
  (attr smd)
  (fp_text reference REF** (at 0 -3.1) (layer F.SilkS)
    (effects (font (size 1 1) (thickness 0.15)))
  )
  (fp_text value AMS_LGA-10-1EP_2.7x4mm_P0.6mm (at 0 3.1) (layer F.Fab)
    (effects (font (size 1 1) (thickness 0.15)))
  )
  (fp_text user %R (at 0 0) (layer F.Fab)
    (effects (font (size 0.5 0.5) (thickness 0.05)))
  )
  (fp_line (start 1.5 -2.15) (end 1.5 2.15) (layer F.CrtYd) (width 0.05))
  (fp_line (start 1.5 2.15) (end -1.5 2.15) (layer F.CrtYd) (width 0.05))
  (fp_line (start -1.5 2.15) (end -1.5 -2.15) (layer F.CrtYd) (width 0.05))
  (fp_line (start -1.5 -2.15) (end 1.5 -2.15) (layer F.CrtYd) (width 0.05))
  (fp_line (start 1.3 -1.95) (end 1.3 1.95) (layer F.Fab) (width 0.1))
  (fp_line (start 1.3 1.95) (end -1.3 1.95) (layer F.Fab) (width 0.1))
  (fp_line (start -1.3 1.95) (end -1.3 -1.65) (layer F.Fab) (width 0.1))
  (fp_line (start -1.3 -1.65) (end -1 -1.95) (layer F.Fab) (width 0.1))
  (fp_line (start -1 -1.95) (end 1.3 -1.95) (layer F.Fab) (width 0.1))
  (fp_line (start -1.4 1.57) (end -1.4 2.05) (layer F.SilkS) (width 0.1))
  (fp_line (start -1.4 2.05) (end -0.76 2.05) (layer F.SilkS) (width 0.1))
  (fp_line (start -1.4 -2.05) (end -0.76 -2.05) (layer F.SilkS) (width 0.1))
  (fp_line (start 0.76 2.05) (end 1.4 2.05) (layer F.SilkS) (width 0.1))
  (fp_line (start 1.4 1.57) (end 1.4 2.05) (layer F.SilkS) (width 0.1))
  (fp_line (start 0.76 -2.05) (end 1.4 -2.05) (layer F.SilkS) (width 0.1))
  (fp_line (start 1.4 -2.05) (end 1.4 -1.57) (layer F.SilkS) (width 0.1))
  (pad 11 smd trapezoid (at 0 -1.1) (size 1 0.3) (rect_delta 0 0.3 ) (layers F.Cu F.Paste F.Mask))
  (pad 11 smd rect (at 0.15 -1.1) (size 1 0.3) (layers F.Cu F.Paste F.Mask))
  (pad 11 smd rect (at 0 0.15) (size 1.3 2.2) (layers F.Cu F.Paste F.Mask))
  (pad 6 smd rect (at 1.05 1.2) (size 0.6 0.4) (layers F.Cu F.Paste F.Mask))
  (pad 7 smd rect (at 1.05 0.6) (size 0.6 0.4) (layers F.Cu F.Paste F.Mask))
  (pad 10 smd rect (at 1.05 -1.2) (size 0.6 0.4) (layers F.Cu F.Paste F.Mask))
  (pad 9 smd rect (at 1.05 -0.6) (size 0.6 0.4) (layers F.Cu F.Paste F.Mask))
  (pad 5 smd rect (at -1.05 1.2) (size 0.6 0.4) (layers F.Cu F.Paste F.Mask))
  (pad 1 smd rect (at -1.05 -1.2) (size 0.6 0.4) (layers F.Cu F.Paste F.Mask))
  (pad 2 smd rect (at -1.05 -0.6) (size 0.6 0.4) (layers F.Cu F.Paste F.Mask))
  (pad 3 smd rect (at -1.05 0) (size 0.6 0.4) (layers F.Cu F.Paste F.Mask))
  (pad 4 smd rect (at -1.05 0.6) (size 0.6 0.4) (layers F.Cu F.Paste F.Mask))
  (pad 8 smd rect (at 1.05 0) (size 0.6 0.4) (layers F.Cu F.Paste F.Mask))
  (model ${KICAD6_3DMODEL_DIR}/Package_LGA.3dshapes/AMS_LGA-10-1EP_2.7x4mm_P0.6mm.wrl
    (at (xyz 0 0 0))
    (scale (xyz 1 1 1))
    (rotate (xyz 0 0 0))
  )
)
