(module Bosch_LGA-8_3x3mm_P0.8mm_ClockwisePinNumbering (layer F.Cu) (tedit 5D9F7937)
  (descr "Bosch  LGA, 8 Pin (https://ae-bst.resource.bosch.com/media/_tech/media/datasheets/BST-BME680-DS001-00.pdf#page=44), generated with kicad-footprint-generator ipc_noLead_generator.py")
  (tags "Bosch LGA NoLead")
  (attr smd)
  (fp_text reference REF** (at 0 -2.45) (layer F.SilkS)
    (effects (font (size 1 1) (thickness 0.15)))
  )
  (fp_text value Bosch_LGA-8_3x3mm_P0.8mm_ClockwisePinNumbering (at 0 2.45) (layer F.Fab)
    (effects (font (size 1 1) (thickness 0.15)))
  )
  (fp_line (start -1.61 0) (end -1.61 1.5) (layer F.SilkS) (width 0.12))
  (fp_line (start 1.61 -1.5) (end 1.61 1.5) (layer F.SilkS) (width 0.12))
  (fp_line (start -0.75 -1.5) (end 1.5 -1.5) (layer F.Fab) (width 0.1))
  (fp_line (start 1.5 -1.5) (end 1.5 1.5) (layer F.Fab) (width 0.1))
  (fp_line (start 1.5 1.5) (end -1.5 1.5) (layer F.Fab) (width 0.1))
  (fp_line (start -1.5 1.5) (end -1.5 -0.75) (layer F.Fab) (width 0.1))
  (fp_line (start -1.5 -0.75) (end -0.75 -1.5) (layer F.Fab) (width 0.1))
  (fp_line (start -1.75 -1.75) (end -1.75 1.75) (layer F.CrtYd) (width 0.05))
  (fp_line (start -1.75 1.75) (end 1.75 1.75) (layer F.CrtYd) (width 0.05))
  (fp_line (start 1.75 1.75) (end 1.75 -1.75) (layer F.CrtYd) (width 0.05))
  (fp_line (start 1.75 -1.75) (end -1.75 -1.75) (layer F.CrtYd) (width 0.05))
  (pad 1 smd roundrect (at -1.2 -1.1875) (size 0.5 0.525) (layers F.Cu F.Mask F.Paste) (roundrect_rratio 0.25))
  (pad 2 smd roundrect (at -0.4 -1.1875) (size 0.5 0.525) (layers F.Cu F.Mask F.Paste) (roundrect_rratio 0.25))
  (pad 3 smd roundrect (at 0.4 -1.1875) (size 0.5 0.525) (layers F.Cu F.Mask F.Paste) (roundrect_rratio 0.25))
  (pad 4 smd roundrect (at 1.2 -1.1875) (size 0.5 0.525) (layers F.Cu F.Mask F.Paste) (roundrect_rratio 0.25))
  (pad 5 smd roundrect (at 1.2 1.1875) (size 0.5 0.525) (layers F.Cu F.Mask F.Paste) (roundrect_rratio 0.25))
  (pad 6 smd roundrect (at 0.4 1.1875) (size 0.5 0.525) (layers F.Cu F.Mask F.Paste) (roundrect_rratio 0.25))
  (pad 7 smd roundrect (at -0.4 1.1875) (size 0.5 0.525) (layers F.Cu F.Mask F.Paste) (roundrect_rratio 0.25))
  (pad 8 smd roundrect (at -1.2 1.1875) (size 0.5 0.525) (layers F.Cu F.Mask F.Paste) (roundrect_rratio 0.25))
  (fp_text user %R (at 0 0) (layer F.Fab)
    (effects (font (size 0.75 0.75) (thickness 0.11)))
  )
  (model ${KICAD6_3DMODEL_DIR}/Package_LGA.3dshapes/Bosch_LGA-8_3x3mm_P0.8mm_ClockwisePinNumbering.wrl
    (at (xyz 0 0 0))
    (scale (xyz 1 1 1))
    (rotate (xyz 0 0 0))
  )
)