(module Bosch_LGA-8_2.5x2.5mm_P0.65mm_ClockwisePinNumbering (layer F.Cu) (tedit 5A0FA816)
  (descr LGA-8)
  (tags "lga land grid array")
  (attr smd)
  (fp_text reference REF** (at 0.015 -2.465) (layer F.SilkS)
    (effects (font (size 1 1) (thickness 0.15)))
  )
  (fp_text value Bosch_LGA-8_2.5x2.5mm_P0.65mm_ClockwisePinNumbering (at 0.015 2.535) (layer F.Fab)
    (effects (font (size 1 1) (thickness 0.15)))
  )
  (fp_text user %R (at 0 0 180) (layer F.Fab)
    (effects (font (size 0.5 0.5) (thickness 0.075)))
  )
  (fp_line (start -1.35 1.36) (end -1.2 1.36) (layer F.SilkS) (width 0.1))
  (fp_line (start -1.25 -0.5) (end -0.5 -1.25) (layer F.Fab) (width 0.1))
  (fp_line (start -1.35 1.35) (end -1.35 1.2) (layer F.SilkS) (width 0.1))
  (fp_line (start 1.35 1.35) (end 1.35 1.2) (layer F.SilkS) (width 0.1))
  (fp_line (start 1.35 1.35) (end 1.2 1.35) (layer F.SilkS) (width 0.1))
  (fp_line (start 1.2 -1.35) (end 1.35 -1.35) (layer F.SilkS) (width 0.1))
  (fp_line (start 1.35 -1.35) (end 1.35 -1.2) (layer F.SilkS) (width 0.1))
  (fp_line (start -1.35 -1.2) (end -1.35 -1.45) (layer F.SilkS) (width 0.1))
  (fp_line (start -1.25 1.25) (end -1.25 -0.5) (layer F.Fab) (width 0.1))
  (fp_line (start -0.5 -1.25) (end 1.25 -1.25) (layer F.Fab) (width 0.1))
  (fp_line (start 1.25 -1.25) (end 1.25 1.25) (layer F.Fab) (width 0.1))
  (fp_line (start 1.25 1.25) (end -1.25 1.25) (layer F.Fab) (width 0.1))
  (fp_line (start -1.41 1.54) (end -1.41 -1.54) (layer F.CrtYd) (width 0.05))
  (fp_line (start -1.41 -1.54) (end 1.41 -1.54) (layer F.CrtYd) (width 0.05))
  (fp_line (start 1.41 -1.54) (end 1.41 1.54) (layer F.CrtYd) (width 0.05))
  (fp_line (start 1.41 1.54) (end -1.41 1.54) (layer F.CrtYd) (width 0.05))
  (pad 4 smd rect (at 0.975 -1.025 90) (size 0.5 0.35) (layers F.Cu F.Paste F.Mask))
  (pad 3 smd rect (at 0.325 -1.025 90) (size 0.5 0.35) (layers F.Cu F.Paste F.Mask))
  (pad 2 smd rect (at -0.325 -1.025 90) (size 0.5 0.35) (layers F.Cu F.Paste F.Mask))
  (pad 1 smd rect (at -0.975 -1.025 90) (size 0.5 0.35) (layers F.Cu F.Paste F.Mask))
  (pad 8 smd rect (at -0.975 1.025 90) (size 0.5 0.35) (layers F.Cu F.Paste F.Mask))
  (pad 7 smd rect (at -0.325 1.025 90) (size 0.5 0.35) (layers F.Cu F.Paste F.Mask))
  (pad 6 smd rect (at 0.325 1.025 90) (size 0.5 0.35) (layers F.Cu F.Paste F.Mask))
  (pad 5 smd rect (at 0.975 1.025 90) (size 0.5 0.35) (layers F.Cu F.Paste F.Mask))
  (model ${KICAD6_3DMODEL_DIR}/Package_LGA.3dshapes/Bosch_LGA-8_2.5x2.5mm_P0.65mm_ClockwisePinNumbering.wrl
    (at (xyz 0.0005905512 -0.0013779528 0))
    (scale (xyz 1 1 1))
    (rotate (xyz 0 0 0))
  )
)
