(module Texas_SIL0008D_MicroSiP-8-1EP_2.8x3mm_P0.65mm_EP1.1x1.9mm (layer F.Cu) (tedit 5DC5FD10)
  (descr "Texas SIL0008D MicroSiP, 8 Pin (http://www.ti.com/lit/ds/symlink/tps82130.pdf#page=19), generated with kicad-footprint-generator ipc_noLead_generator.py")
  (tags "Texas MicroSiP NoLead")
  (attr smd)
  (fp_text reference REF** (at 0 -2.45) (layer F.SilkS)
    (effects (font (size 1 1) (thickness 0.15)))
  )
  (fp_text value Texas_SIL0008D_MicroSiP-8-1EP_2.8x3mm_P0.65mm_EP1.1x1.9mm (at 0 2.45) (layer F.Fab)
    (effects (font (size 1 1) (thickness 0.15)))
  )
  (fp_line (start 0 -1.61) (end 1.4 -1.61) (layer F.SilkS) (width 0.12))
  (fp_line (start -1.4 1.61) (end 1.4 1.61) (layer F.SilkS) (width 0.12))
  (fp_line (start -0.7 -1.5) (end 1.4 -1.5) (layer F.Fab) (width 0.1))
  (fp_line (start 1.4 -1.5) (end 1.4 1.5) (layer F.Fab) (width 0.1))
  (fp_line (start 1.4 1.5) (end -1.4 1.5) (layer F.Fab) (width 0.1))
  (fp_line (start -1.4 1.5) (end -1.4 -0.8) (layer F.Fab) (width 0.1))
  (fp_line (start -1.4 -0.8) (end -0.7 -1.5) (layer F.Fab) (width 0.1))
  (fp_line (start -1.65 -1.75) (end -1.65 1.75) (layer F.CrtYd) (width 0.05))
  (fp_line (start -1.65 1.75) (end 1.65 1.75) (layer F.CrtYd) (width 0.05))
  (fp_line (start 1.65 1.75) (end 1.65 -1.75) (layer F.CrtYd) (width 0.05))
  (fp_line (start 1.65 -1.75) (end -1.65 -1.75) (layer F.CrtYd) (width 0.05))
  (pad 1 smd roundrect (at -1.0625 -0.975) (size 0.625 0.5) (layers F.Cu F.Mask F.Paste) (roundrect_rratio 0.25))
  (pad 2 smd roundrect (at -1.0625 -0.325) (size 0.625 0.5) (layers F.Cu F.Mask F.Paste) (roundrect_rratio 0.25))
  (pad 3 smd roundrect (at -1.0625 0.325) (size 0.625 0.5) (layers F.Cu F.Mask F.Paste) (roundrect_rratio 0.25))
  (pad 4 smd roundrect (at -1.0625 0.975) (size 0.625 0.5) (layers F.Cu F.Mask F.Paste) (roundrect_rratio 0.25))
  (pad 5 smd roundrect (at 1.0625 0.975) (size 0.625 0.5) (layers F.Cu F.Mask F.Paste) (roundrect_rratio 0.25))
  (pad 6 smd roundrect (at 1.0625 0.325) (size 0.625 0.5) (layers F.Cu F.Mask F.Paste) (roundrect_rratio 0.25))
  (pad 7 smd roundrect (at 1.0625 -0.325) (size 0.625 0.5) (layers F.Cu F.Mask F.Paste) (roundrect_rratio 0.25))
  (pad 8 smd roundrect (at 1.0625 -0.975) (size 0.625 0.5) (layers F.Cu F.Mask F.Paste) (roundrect_rratio 0.25))
  (pad 9 smd rect (at 0 0) (size 1.1 1.9) (layers F.Cu F.Mask))
  (pad "" smd roundrect (at 0 -0.63) (size 0.89 0.51) (layers F.Paste) (roundrect_rratio 0.25))
  (pad "" smd roundrect (at 0 0) (size 0.89 0.51) (layers F.Paste) (roundrect_rratio 0.25))
  (pad "" smd roundrect (at 0 0.63) (size 0.89 0.51) (layers F.Paste) (roundrect_rratio 0.25))
  (fp_text user %R (at 0 0) (layer F.Fab)
    (effects (font (size 0.7 0.7) (thickness 0.1)))
  )
  (model ${KICAD6_3DMODEL_DIR}/Package_LGA.3dshapes/Texas_SIL0008D_MicroSiP-8-1EP_2.8x3mm_P0.65mm_EP1.1x1.9mm.wrl
    (at (xyz 0 0 0))
    (scale (xyz 1 1 1))
    (rotate (xyz 0 0 0))
  )
)