G04 #@! TF.GenerationSoftware,KiCad,Pcbnew,(5.99.0-13090-gcf6b18ec7e)*
G04 #@! TF.CreationDate,2021-11-08T20:09:26+02:00*
G04 #@! TF.ProjectId,normal_version,6e6f726d-616c-45f7-9665-7273696f6e2e,v0.3*
G04 #@! TF.SameCoordinates,Original*
G04 #@! TF.FileFunction,Soldermask,Top*
G04 #@! TF.FilePolarity,Negative*
%FSLAX46Y46*%
G04 Gerber Fmt 4.6, Leading zero omitted, Abs format (unit mm)*
G04 Created by KiCad (PCBNEW (5.99.0-13090-gcf6b18ec7e)) date 2021-11-08 20:09:26*
%MOMM*%
%LPD*%
G01*
G04 APERTURE LIST*
G04 Aperture macros list*
%AMRoundRect*
0 Rectangle with rounded corners*
0 $1 Rounding radius*
0 $2 $3 $4 $5 $6 $7 $8 $9 X,Y pos of 4 corners*
0 Add a 4 corners polygon primitive as box body*
4,1,4,$2,$3,$4,$5,$6,$7,$8,$9,$2,$3,0*
0 Add four circle primitives for the rounded corners*
1,1,$1+$1,$2,$3*
1,1,$1+$1,$4,$5*
1,1,$1+$1,$6,$7*
1,1,$1+$1,$8,$9*
0 Add four rect primitives between the rounded corners*
20,1,$1+$1,$2,$3,$4,$5,0*
20,1,$1+$1,$4,$5,$6,$7,0*
20,1,$1+$1,$6,$7,$8,$9,0*
20,1,$1+$1,$8,$9,$2,$3,0*%
G04 Aperture macros list end*
%ADD10C,3.102000*%
%ADD11C,5.702000*%
%ADD12RoundRect,0.301000X-0.250000X-0.475000X0.250000X-0.475000X0.250000X0.475000X-0.250000X0.475000X0*%
%ADD13RoundRect,0.276000X0.225000X0.250000X-0.225000X0.250000X-0.225000X-0.250000X0.225000X-0.250000X0*%
%ADD14RoundRect,0.301000X-0.475000X0.250000X-0.475000X-0.250000X0.475000X-0.250000X0.475000X0.250000X0*%
%ADD15RoundRect,0.276000X0.250000X-0.225000X0.250000X0.225000X-0.250000X0.225000X-0.250000X-0.225000X0*%
%ADD16RoundRect,0.251000X0.275000X-0.200000X0.275000X0.200000X-0.275000X0.200000X-0.275000X-0.200000X0*%
%ADD17RoundRect,0.251000X-0.200000X-0.275000X0.200000X-0.275000X0.200000X0.275000X-0.200000X0.275000X0*%
%ADD18RoundRect,0.251000X0.200000X0.275000X-0.200000X0.275000X-0.200000X-0.275000X0.200000X-0.275000X0*%
%ADD19RoundRect,0.201000X-0.512500X-0.150000X0.512500X-0.150000X0.512500X0.150000X-0.512500X0.150000X0*%
%ADD20RoundRect,0.201000X-0.150000X0.512500X-0.150000X-0.512500X0.150000X-0.512500X0.150000X0.512500X0*%
%ADD21RoundRect,0.269750X0.256250X-0.218750X0.256250X0.218750X-0.256250X0.218750X-0.256250X-0.218750X0*%
%ADD22RoundRect,0.051000X-0.715000X0.905000X-0.715000X-0.905000X0.715000X-0.905000X0.715000X0.905000X0*%
G04 APERTURE END LIST*
D10*
X148500000Y-92500000D03*
X148500000Y-83000000D03*
X144900000Y-92500000D03*
X141300000Y-83000000D03*
X141300000Y-92500000D03*
X144900000Y-83000000D03*
X141300000Y-77500000D03*
X144900000Y-77500000D03*
X148500000Y-77500000D03*
X144900000Y-87000000D03*
X148500000Y-87000000D03*
X141300000Y-87000000D03*
D11*
X165500000Y-69200000D03*
X165500000Y-90300000D03*
X124300000Y-69200000D03*
D12*
X129850000Y-87700000D03*
X131750000Y-87700000D03*
D13*
X131475000Y-93050000D03*
X129925000Y-93050000D03*
D14*
X133900000Y-89550000D03*
X133900000Y-91450000D03*
D15*
X160700000Y-66525000D03*
X160700000Y-68075000D03*
D13*
X131325000Y-67600000D03*
X132875000Y-67600000D03*
X151375000Y-67850000D03*
X149825000Y-67850000D03*
X141875000Y-71950000D03*
X140325000Y-71950000D03*
X165075000Y-78100000D03*
X163525000Y-78100000D03*
X133875000Y-82400000D03*
X132325000Y-82400000D03*
D16*
X137000000Y-89175000D03*
X137000000Y-87525000D03*
D17*
X140275000Y-69950000D03*
X141925000Y-69950000D03*
D18*
X141925000Y-68200000D03*
X140275000Y-68200000D03*
X141925000Y-66450000D03*
X140275000Y-66450000D03*
D17*
X132275000Y-80400000D03*
X133925000Y-80400000D03*
D18*
X133925000Y-78650000D03*
X132275000Y-78650000D03*
X133925000Y-76900000D03*
X132275000Y-76900000D03*
D17*
X154775000Y-78800000D03*
X156425000Y-78800000D03*
D19*
X129562500Y-89550000D03*
X129562500Y-90500000D03*
X129562500Y-91450000D03*
X131837500Y-91450000D03*
X131837500Y-89550000D03*
D20*
X158650000Y-69037500D03*
X157700000Y-69037500D03*
X156750000Y-69037500D03*
X156750000Y-66762500D03*
X157700000Y-66762500D03*
X158650000Y-66762500D03*
D19*
X133237500Y-69375000D03*
X133237500Y-71275000D03*
X130962500Y-71275000D03*
X130962500Y-70325000D03*
X130962500Y-69375000D03*
X149462500Y-69900000D03*
X149462500Y-70850000D03*
X149462500Y-71800000D03*
X151737500Y-71800000D03*
X151737500Y-69900000D03*
D20*
X146050000Y-67062500D03*
X145100000Y-67062500D03*
X144150000Y-67062500D03*
X144150000Y-69337500D03*
X145100000Y-69337500D03*
X146050000Y-69337500D03*
X137400000Y-77562500D03*
X136450000Y-77562500D03*
X135500000Y-77562500D03*
X135500000Y-79837500D03*
X136450000Y-79837500D03*
X137400000Y-79837500D03*
D21*
X137000000Y-93137500D03*
X137000000Y-91562500D03*
D11*
X124300000Y-90300000D03*
D13*
X126475000Y-77000000D03*
X124925000Y-77000000D03*
D19*
X163162500Y-80150000D03*
X163162500Y-81100000D03*
X163162500Y-82050000D03*
X165437500Y-82050000D03*
X165437500Y-80150000D03*
X126337500Y-78650000D03*
X126337500Y-80550000D03*
X124062500Y-80550000D03*
X124062500Y-79600000D03*
X124062500Y-78650000D03*
D22*
X157502500Y-81100000D03*
X154962500Y-81100000D03*
X154962500Y-90100000D03*
X157502500Y-90100000D03*
D17*
X126525000Y-82200000D03*
X124875000Y-82200000D03*
G36*
X130068527Y-90850000D02*
G01*
X130068527Y-90852000D01*
X130067056Y-90852983D01*
X130066817Y-90853015D01*
X130003204Y-90881154D01*
X129965070Y-90938965D01*
X129964244Y-91008220D01*
X130000983Y-91066914D01*
X130066825Y-91096985D01*
X130067068Y-91097017D01*
X130068655Y-91098235D01*
X130068394Y-91100218D01*
X130066807Y-91101000D01*
X129058205Y-91101000D01*
X129056473Y-91100000D01*
X129056473Y-91098000D01*
X129057944Y-91097017D01*
X129058183Y-91096985D01*
X129121796Y-91068846D01*
X129159930Y-91011035D01*
X129160756Y-90941780D01*
X129124017Y-90883086D01*
X129058175Y-90853015D01*
X129057932Y-90852983D01*
X129056345Y-90851765D01*
X129056606Y-90849782D01*
X129058193Y-90849000D01*
X130066795Y-90849000D01*
X130068527Y-90850000D01*
G37*
G36*
X130068527Y-89900000D02*
G01*
X130068527Y-89902000D01*
X130067056Y-89902983D01*
X130066817Y-89903015D01*
X130003204Y-89931154D01*
X129965070Y-89988965D01*
X129964244Y-90058220D01*
X130000983Y-90116914D01*
X130066825Y-90146985D01*
X130067068Y-90147017D01*
X130068655Y-90148235D01*
X130068394Y-90150218D01*
X130066807Y-90151000D01*
X129058205Y-90151000D01*
X129056473Y-90150000D01*
X129056473Y-90148000D01*
X129057944Y-90147017D01*
X129058183Y-90146985D01*
X129121796Y-90118846D01*
X129159930Y-90061035D01*
X129160756Y-89991780D01*
X129124017Y-89933086D01*
X129058175Y-89903015D01*
X129057932Y-89902983D01*
X129056345Y-89901765D01*
X129056606Y-89899782D01*
X129058193Y-89899000D01*
X130066795Y-89899000D01*
X130068527Y-89900000D01*
G37*
G36*
X163668527Y-81450000D02*
G01*
X163668527Y-81452000D01*
X163667056Y-81452983D01*
X163666817Y-81453015D01*
X163603204Y-81481154D01*
X163565070Y-81538965D01*
X163564244Y-81608220D01*
X163600983Y-81666914D01*
X163666825Y-81696985D01*
X163667068Y-81697017D01*
X163668655Y-81698235D01*
X163668394Y-81700218D01*
X163666807Y-81701000D01*
X162658205Y-81701000D01*
X162656473Y-81700000D01*
X162656473Y-81698000D01*
X162657944Y-81697017D01*
X162658183Y-81696985D01*
X162721796Y-81668846D01*
X162759930Y-81611035D01*
X162760756Y-81541780D01*
X162724017Y-81483086D01*
X162658175Y-81453015D01*
X162657932Y-81452983D01*
X162656345Y-81451765D01*
X162656606Y-81449782D01*
X162658193Y-81449000D01*
X163666795Y-81449000D01*
X163668527Y-81450000D01*
G37*
G36*
X163668527Y-80500000D02*
G01*
X163668527Y-80502000D01*
X163667056Y-80502983D01*
X163666817Y-80503015D01*
X163603204Y-80531154D01*
X163565070Y-80588965D01*
X163564244Y-80658220D01*
X163600983Y-80716914D01*
X163666825Y-80746985D01*
X163667068Y-80747017D01*
X163668655Y-80748235D01*
X163668394Y-80750218D01*
X163666807Y-80751000D01*
X162658205Y-80751000D01*
X162656473Y-80750000D01*
X162656473Y-80748000D01*
X162657944Y-80747017D01*
X162658183Y-80746985D01*
X162721796Y-80718846D01*
X162759930Y-80661035D01*
X162760756Y-80591780D01*
X162724017Y-80533086D01*
X162658175Y-80503015D01*
X162657932Y-80502983D01*
X162656345Y-80501765D01*
X162656606Y-80499782D01*
X162658193Y-80499000D01*
X163666795Y-80499000D01*
X163668527Y-80500000D01*
G37*
G36*
X136100218Y-79331609D02*
G01*
X136101000Y-79333195D01*
X136101000Y-80341795D01*
X136100000Y-80343527D01*
X136098000Y-80343527D01*
X136097017Y-80342056D01*
X136096985Y-80341817D01*
X136068846Y-80278204D01*
X136011035Y-80240070D01*
X135941780Y-80239244D01*
X135883086Y-80275983D01*
X135853015Y-80341825D01*
X135852983Y-80342067D01*
X135851764Y-80343653D01*
X135849782Y-80343391D01*
X135849000Y-80341805D01*
X135849000Y-79333205D01*
X135850000Y-79331473D01*
X135852000Y-79331473D01*
X135852983Y-79332944D01*
X135853015Y-79333183D01*
X135881154Y-79396796D01*
X135938965Y-79434930D01*
X136008220Y-79435756D01*
X136066914Y-79399017D01*
X136096985Y-79333175D01*
X136097017Y-79332933D01*
X136098236Y-79331347D01*
X136100218Y-79331609D01*
G37*
G36*
X137050218Y-79331609D02*
G01*
X137051000Y-79333195D01*
X137051000Y-80341795D01*
X137050000Y-80343527D01*
X137048000Y-80343527D01*
X137047017Y-80342056D01*
X137046985Y-80341817D01*
X137018846Y-80278204D01*
X136961035Y-80240070D01*
X136891780Y-80239244D01*
X136833086Y-80275983D01*
X136803015Y-80341825D01*
X136802983Y-80342067D01*
X136801764Y-80343653D01*
X136799782Y-80343391D01*
X136799000Y-80341805D01*
X136799000Y-79333205D01*
X136800000Y-79331473D01*
X136802000Y-79331473D01*
X136802983Y-79332944D01*
X136803015Y-79333183D01*
X136831154Y-79396796D01*
X136888965Y-79434930D01*
X136958220Y-79435756D01*
X137016914Y-79399017D01*
X137046985Y-79333175D01*
X137047017Y-79332933D01*
X137048236Y-79331347D01*
X137050218Y-79331609D01*
G37*
G36*
X124568527Y-79950000D02*
G01*
X124568527Y-79952000D01*
X124567056Y-79952983D01*
X124566817Y-79953015D01*
X124503204Y-79981154D01*
X124465070Y-80038965D01*
X124464244Y-80108220D01*
X124500983Y-80166914D01*
X124566825Y-80196985D01*
X124567068Y-80197017D01*
X124568655Y-80198235D01*
X124568394Y-80200218D01*
X124566807Y-80201000D01*
X123558205Y-80201000D01*
X123556473Y-80200000D01*
X123556473Y-80198000D01*
X123557944Y-80197017D01*
X123558183Y-80196985D01*
X123621796Y-80168846D01*
X123659930Y-80111035D01*
X123660756Y-80041780D01*
X123624017Y-79983086D01*
X123558175Y-79953015D01*
X123557932Y-79952983D01*
X123556345Y-79951765D01*
X123556606Y-79949782D01*
X123558193Y-79949000D01*
X124566795Y-79949000D01*
X124568527Y-79950000D01*
G37*
G36*
X124568527Y-79000000D02*
G01*
X124568527Y-79002000D01*
X124567056Y-79002983D01*
X124566817Y-79003015D01*
X124503204Y-79031154D01*
X124465070Y-79088965D01*
X124464244Y-79158220D01*
X124500983Y-79216914D01*
X124566825Y-79246985D01*
X124567068Y-79247017D01*
X124568655Y-79248235D01*
X124568394Y-79250218D01*
X124566807Y-79251000D01*
X123558205Y-79251000D01*
X123556473Y-79250000D01*
X123556473Y-79248000D01*
X123557944Y-79247017D01*
X123558183Y-79246985D01*
X123621796Y-79218846D01*
X123659930Y-79161035D01*
X123660756Y-79091780D01*
X123624017Y-79033086D01*
X123558175Y-79003015D01*
X123557932Y-79002983D01*
X123556345Y-79001765D01*
X123556606Y-78999782D01*
X123558193Y-78999000D01*
X124566795Y-78999000D01*
X124568527Y-79000000D01*
G37*
G36*
X136100218Y-77056609D02*
G01*
X136101000Y-77058195D01*
X136101000Y-78066795D01*
X136100000Y-78068527D01*
X136098000Y-78068527D01*
X136097017Y-78067056D01*
X136096985Y-78066817D01*
X136068846Y-78003204D01*
X136011035Y-77965070D01*
X135941780Y-77964244D01*
X135883086Y-78000983D01*
X135853015Y-78066825D01*
X135852983Y-78067067D01*
X135851764Y-78068653D01*
X135849782Y-78068391D01*
X135849000Y-78066805D01*
X135849000Y-77058205D01*
X135850000Y-77056473D01*
X135852000Y-77056473D01*
X135852983Y-77057944D01*
X135853015Y-77058183D01*
X135881154Y-77121796D01*
X135938965Y-77159930D01*
X136008220Y-77160756D01*
X136066914Y-77124017D01*
X136096985Y-77058175D01*
X136097017Y-77057933D01*
X136098236Y-77056347D01*
X136100218Y-77056609D01*
G37*
G36*
X137050218Y-77056609D02*
G01*
X137051000Y-77058195D01*
X137051000Y-78066795D01*
X137050000Y-78068527D01*
X137048000Y-78068527D01*
X137047017Y-78067056D01*
X137046985Y-78066817D01*
X137018846Y-78003204D01*
X136961035Y-77965070D01*
X136891780Y-77964244D01*
X136833086Y-78000983D01*
X136803015Y-78066825D01*
X136802983Y-78067067D01*
X136801764Y-78068653D01*
X136799782Y-78068391D01*
X136799000Y-78066805D01*
X136799000Y-77058205D01*
X136800000Y-77056473D01*
X136802000Y-77056473D01*
X136802983Y-77057944D01*
X136803015Y-77058183D01*
X136831154Y-77121796D01*
X136888965Y-77159930D01*
X136958220Y-77160756D01*
X137016914Y-77124017D01*
X137046985Y-77058175D01*
X137047017Y-77057933D01*
X137048236Y-77056347D01*
X137050218Y-77056609D01*
G37*
G36*
X149968527Y-71200000D02*
G01*
X149968527Y-71202000D01*
X149967056Y-71202983D01*
X149966817Y-71203015D01*
X149903204Y-71231154D01*
X149865070Y-71288965D01*
X149864244Y-71358220D01*
X149900983Y-71416914D01*
X149966825Y-71446985D01*
X149967068Y-71447017D01*
X149968655Y-71448235D01*
X149968394Y-71450218D01*
X149966807Y-71451000D01*
X148958205Y-71451000D01*
X148956473Y-71450000D01*
X148956473Y-71448000D01*
X148957944Y-71447017D01*
X148958183Y-71446985D01*
X149021796Y-71418846D01*
X149059930Y-71361035D01*
X149060756Y-71291780D01*
X149024017Y-71233086D01*
X148958175Y-71203015D01*
X148957932Y-71202983D01*
X148956345Y-71201765D01*
X148956606Y-71199782D01*
X148958193Y-71199000D01*
X149966795Y-71199000D01*
X149968527Y-71200000D01*
G37*
G36*
X131468527Y-70675000D02*
G01*
X131468527Y-70677000D01*
X131467056Y-70677983D01*
X131466817Y-70678015D01*
X131403204Y-70706154D01*
X131365070Y-70763965D01*
X131364244Y-70833220D01*
X131400983Y-70891914D01*
X131466825Y-70921985D01*
X131467068Y-70922017D01*
X131468655Y-70923235D01*
X131468394Y-70925218D01*
X131466807Y-70926000D01*
X130458205Y-70926000D01*
X130456473Y-70925000D01*
X130456473Y-70923000D01*
X130457944Y-70922017D01*
X130458183Y-70921985D01*
X130521796Y-70893846D01*
X130559930Y-70836035D01*
X130560756Y-70766780D01*
X130524017Y-70708086D01*
X130458175Y-70678015D01*
X130457932Y-70677983D01*
X130456345Y-70676765D01*
X130456606Y-70674782D01*
X130458193Y-70674000D01*
X131466795Y-70674000D01*
X131468527Y-70675000D01*
G37*
G36*
X149968527Y-70250000D02*
G01*
X149968527Y-70252000D01*
X149967056Y-70252983D01*
X149966817Y-70253015D01*
X149903204Y-70281154D01*
X149865070Y-70338965D01*
X149864244Y-70408220D01*
X149900983Y-70466914D01*
X149966825Y-70496985D01*
X149967068Y-70497017D01*
X149968655Y-70498235D01*
X149968394Y-70500218D01*
X149966807Y-70501000D01*
X148958205Y-70501000D01*
X148956473Y-70500000D01*
X148956473Y-70498000D01*
X148957944Y-70497017D01*
X148958183Y-70496985D01*
X149021796Y-70468846D01*
X149059930Y-70411035D01*
X149060756Y-70341780D01*
X149024017Y-70283086D01*
X148958175Y-70253015D01*
X148957932Y-70252983D01*
X148956345Y-70251765D01*
X148956606Y-70249782D01*
X148958193Y-70249000D01*
X149966795Y-70249000D01*
X149968527Y-70250000D01*
G37*
G36*
X131468527Y-69725000D02*
G01*
X131468527Y-69727000D01*
X131467056Y-69727983D01*
X131466817Y-69728015D01*
X131403204Y-69756154D01*
X131365070Y-69813965D01*
X131364244Y-69883220D01*
X131400983Y-69941914D01*
X131466825Y-69971985D01*
X131467068Y-69972017D01*
X131468655Y-69973235D01*
X131468394Y-69975218D01*
X131466807Y-69976000D01*
X130458205Y-69976000D01*
X130456473Y-69975000D01*
X130456473Y-69973000D01*
X130457944Y-69972017D01*
X130458183Y-69971985D01*
X130521796Y-69943846D01*
X130559930Y-69886035D01*
X130560756Y-69816780D01*
X130524017Y-69758086D01*
X130458175Y-69728015D01*
X130457932Y-69727983D01*
X130456345Y-69726765D01*
X130456606Y-69724782D01*
X130458193Y-69724000D01*
X131466795Y-69724000D01*
X131468527Y-69725000D01*
G37*
G36*
X145700218Y-68831609D02*
G01*
X145701000Y-68833195D01*
X145701000Y-69841795D01*
X145700000Y-69843527D01*
X145698000Y-69843527D01*
X145697017Y-69842056D01*
X145696985Y-69841817D01*
X145668846Y-69778204D01*
X145611035Y-69740070D01*
X145541780Y-69739244D01*
X145483086Y-69775983D01*
X145453015Y-69841825D01*
X145452983Y-69842067D01*
X145451764Y-69843653D01*
X145449782Y-69843391D01*
X145449000Y-69841805D01*
X145449000Y-68833205D01*
X145450000Y-68831473D01*
X145452000Y-68831473D01*
X145452983Y-68832944D01*
X145453015Y-68833183D01*
X145481154Y-68896796D01*
X145538965Y-68934930D01*
X145608220Y-68935756D01*
X145666914Y-68899017D01*
X145696985Y-68833175D01*
X145697017Y-68832933D01*
X145698236Y-68831347D01*
X145700218Y-68831609D01*
G37*
G36*
X144750218Y-68831609D02*
G01*
X144751000Y-68833195D01*
X144751000Y-69841795D01*
X144750000Y-69843527D01*
X144748000Y-69843527D01*
X144747017Y-69842056D01*
X144746985Y-69841817D01*
X144718846Y-69778204D01*
X144661035Y-69740070D01*
X144591780Y-69739244D01*
X144533086Y-69775983D01*
X144503015Y-69841825D01*
X144502983Y-69842067D01*
X144501764Y-69843653D01*
X144499782Y-69843391D01*
X144499000Y-69841805D01*
X144499000Y-68833205D01*
X144500000Y-68831473D01*
X144502000Y-68831473D01*
X144502983Y-68832944D01*
X144503015Y-68833183D01*
X144531154Y-68896796D01*
X144588965Y-68934930D01*
X144658220Y-68935756D01*
X144716914Y-68899017D01*
X144746985Y-68833175D01*
X144747017Y-68832933D01*
X144748236Y-68831347D01*
X144750218Y-68831609D01*
G37*
G36*
X158300218Y-68531609D02*
G01*
X158301000Y-68533195D01*
X158301000Y-69541795D01*
X158300000Y-69543527D01*
X158298000Y-69543527D01*
X158297017Y-69542056D01*
X158296985Y-69541817D01*
X158268846Y-69478204D01*
X158211035Y-69440070D01*
X158141780Y-69439244D01*
X158083086Y-69475983D01*
X158053015Y-69541825D01*
X158052983Y-69542067D01*
X158051764Y-69543653D01*
X158049782Y-69543391D01*
X158049000Y-69541805D01*
X158049000Y-68533205D01*
X158050000Y-68531473D01*
X158052000Y-68531473D01*
X158052983Y-68532944D01*
X158053015Y-68533183D01*
X158081154Y-68596796D01*
X158138965Y-68634930D01*
X158208220Y-68635756D01*
X158266914Y-68599017D01*
X158296985Y-68533175D01*
X158297017Y-68532933D01*
X158298236Y-68531347D01*
X158300218Y-68531609D01*
G37*
G36*
X157350218Y-68531609D02*
G01*
X157351000Y-68533195D01*
X157351000Y-69541795D01*
X157350000Y-69543527D01*
X157348000Y-69543527D01*
X157347017Y-69542056D01*
X157346985Y-69541817D01*
X157318846Y-69478204D01*
X157261035Y-69440070D01*
X157191780Y-69439244D01*
X157133086Y-69475983D01*
X157103015Y-69541825D01*
X157102983Y-69542067D01*
X157101764Y-69543653D01*
X157099782Y-69543391D01*
X157099000Y-69541805D01*
X157099000Y-68533205D01*
X157100000Y-68531473D01*
X157102000Y-68531473D01*
X157102983Y-68532944D01*
X157103015Y-68533183D01*
X157131154Y-68596796D01*
X157188965Y-68634930D01*
X157258220Y-68635756D01*
X157316914Y-68599017D01*
X157346985Y-68533175D01*
X157347017Y-68532933D01*
X157348236Y-68531347D01*
X157350218Y-68531609D01*
G37*
G36*
X145700218Y-66556609D02*
G01*
X145701000Y-66558195D01*
X145701000Y-67566795D01*
X145700000Y-67568527D01*
X145698000Y-67568527D01*
X145697017Y-67567056D01*
X145696985Y-67566817D01*
X145668846Y-67503204D01*
X145611035Y-67465070D01*
X145541780Y-67464244D01*
X145483086Y-67500983D01*
X145453015Y-67566825D01*
X145452983Y-67567067D01*
X145451764Y-67568653D01*
X145449782Y-67568391D01*
X145449000Y-67566805D01*
X145449000Y-66558205D01*
X145450000Y-66556473D01*
X145452000Y-66556473D01*
X145452983Y-66557944D01*
X145453015Y-66558183D01*
X145481154Y-66621796D01*
X145538965Y-66659930D01*
X145608220Y-66660756D01*
X145666914Y-66624017D01*
X145696985Y-66558175D01*
X145697017Y-66557933D01*
X145698236Y-66556347D01*
X145700218Y-66556609D01*
G37*
G36*
X144750218Y-66556609D02*
G01*
X144751000Y-66558195D01*
X144751000Y-67566795D01*
X144750000Y-67568527D01*
X144748000Y-67568527D01*
X144747017Y-67567056D01*
X144746985Y-67566817D01*
X144718846Y-67503204D01*
X144661035Y-67465070D01*
X144591780Y-67464244D01*
X144533086Y-67500983D01*
X144503015Y-67566825D01*
X144502983Y-67567067D01*
X144501764Y-67568653D01*
X144499782Y-67568391D01*
X144499000Y-67566805D01*
X144499000Y-66558205D01*
X144500000Y-66556473D01*
X144502000Y-66556473D01*
X144502983Y-66557944D01*
X144503015Y-66558183D01*
X144531154Y-66621796D01*
X144588965Y-66659930D01*
X144658220Y-66660756D01*
X144716914Y-66624017D01*
X144746985Y-66558175D01*
X144747017Y-66557933D01*
X144748236Y-66556347D01*
X144750218Y-66556609D01*
G37*
G36*
X158300218Y-66256609D02*
G01*
X158301000Y-66258195D01*
X158301000Y-67266795D01*
X158300000Y-67268527D01*
X158298000Y-67268527D01*
X158297017Y-67267056D01*
X158296985Y-67266817D01*
X158268846Y-67203204D01*
X158211035Y-67165070D01*
X158141780Y-67164244D01*
X158083086Y-67200983D01*
X158053015Y-67266825D01*
X158052983Y-67267067D01*
X158051764Y-67268653D01*
X158049782Y-67268391D01*
X158049000Y-67266805D01*
X158049000Y-66258205D01*
X158050000Y-66256473D01*
X158052000Y-66256473D01*
X158052983Y-66257944D01*
X158053015Y-66258183D01*
X158081154Y-66321796D01*
X158138965Y-66359930D01*
X158208220Y-66360756D01*
X158266914Y-66324017D01*
X158296985Y-66258175D01*
X158297017Y-66257933D01*
X158298236Y-66256347D01*
X158300218Y-66256609D01*
G37*
G36*
X157350218Y-66256609D02*
G01*
X157351000Y-66258195D01*
X157351000Y-67266795D01*
X157350000Y-67268527D01*
X157348000Y-67268527D01*
X157347017Y-67267056D01*
X157346985Y-67266817D01*
X157318846Y-67203204D01*
X157261035Y-67165070D01*
X157191780Y-67164244D01*
X157133086Y-67200983D01*
X157103015Y-67266825D01*
X157102983Y-67267067D01*
X157101764Y-67268653D01*
X157099782Y-67268391D01*
X157099000Y-67266805D01*
X157099000Y-66258205D01*
X157100000Y-66256473D01*
X157102000Y-66256473D01*
X157102983Y-66257944D01*
X157103015Y-66258183D01*
X157131154Y-66321796D01*
X157188965Y-66359930D01*
X157258220Y-66360756D01*
X157316914Y-66324017D01*
X157346985Y-66258175D01*
X157347017Y-66257933D01*
X157348236Y-66256347D01*
X157350218Y-66256609D01*
G37*
M02*
