(module Stocko_MKS_1652-6-0-202_1x2_P2.50mm_Vertical (layer F.Cu) (tedit 5C7139E8)
  (descr "Stocko MKS 16xx series connector, (https://www.stocko-contact.com/downloads/steckverbindersystem-raster-2,5-mm.pdf#page=15), generated with kicad-footprint-generator")
  (tags "Stocko RFK MKS 16xx")
  (fp_text reference REF** (at 1.25 -4.5) (layer F.SilkS)
    (effects (font (size 1 1) (thickness 0.15)))
  )
  (fp_text value Stocko_MKS_1652-6-0-202_1x2_P2.50mm_Vertical (at 1.25 5.86) (layer F.Fab)
    (effects (font (size 1 1) (thickness 0.15)))
  )
  (fp_arc (start -2.2 -3.25) (end -2.81 -3.25) (angle 90) (layer F.SilkS) (width 0.12))
  (fp_arc (start 4.7 -3.25) (end 4.7 -3.86) (angle 90) (layer F.SilkS) (width 0.12))
  (fp_arc (start -2.2 3.25) (end -2.2 3.86) (angle 90) (layer F.SilkS) (width 0.12))
  (fp_arc (start 4.7 3.25) (end 5.31 3.25) (angle 90) (layer F.SilkS) (width 0.12))
  (fp_arc (start -2.2 -3.25) (end -2.7 -3.25) (angle 90) (layer F.Fab) (width 0.1))
  (fp_arc (start 4.7 -3.25) (end 4.7 -3.75) (angle 90) (layer F.Fab) (width 0.1))
  (fp_arc (start -2.2 3.25) (end -2.2 3.75) (angle 90) (layer F.Fab) (width 0.1))
  (fp_arc (start 4.7 3.25) (end 5.2 3.25) (angle 90) (layer F.Fab) (width 0.1))
  (fp_line (start -2.2 -3.86) (end 4.7 -3.86) (layer F.SilkS) (width 0.12))
  (fp_line (start -2.81 -3.25) (end -2.81 3.25) (layer F.SilkS) (width 0.12))
  (fp_line (start 5.31 -3.25) (end 5.31 3.25) (layer F.SilkS) (width 0.12))
  (fp_line (start -2.2 3.86) (end -0.59 3.86) (layer F.SilkS) (width 0.12))
  (fp_line (start -0.59 3.86) (end -0.59 1.86) (layer F.SilkS) (width 0.12))
  (fp_line (start 4.7 3.86) (end 3.09 3.86) (layer F.SilkS) (width 0.12))
  (fp_line (start 3.09 3.86) (end 3.09 1.86) (layer F.SilkS) (width 0.12))
  (fp_line (start -0.59 1.86) (end 3.09 1.86) (layer F.SilkS) (width 0.12))
  (fp_line (start 0.3 2.9) (end 0 2.4) (layer F.SilkS) (width 0.12))
  (fp_line (start 0 2.4) (end -0.3 2.9) (layer F.SilkS) (width 0.12))
  (fp_line (start -0.3 2.9) (end 0.3 2.9) (layer F.SilkS) (width 0.12))
  (fp_line (start -2.2 -3.75) (end 4.7 -3.75) (layer F.Fab) (width 0.1))
  (fp_line (start -2.7 -3.25) (end -2.7 3.25) (layer F.Fab) (width 0.1))
  (fp_line (start 5.2 -3.25) (end 5.2 3.25) (layer F.Fab) (width 0.1))
  (fp_line (start -2.2 3.75) (end -0.7 3.75) (layer F.Fab) (width 0.1))
  (fp_line (start -0.7 3.75) (end -0.7 1.75) (layer F.Fab) (width 0.1))
  (fp_line (start 4.7 3.75) (end 3.2 3.75) (layer F.Fab) (width 0.1))
  (fp_line (start 3.2 3.75) (end 3.2 1.75) (layer F.Fab) (width 0.1))
  (fp_line (start -0.7 1.75) (end -0.5 1.75) (layer F.Fab) (width 0.1))
  (fp_line (start 0.5 1.75) (end 3.2 1.75) (layer F.Fab) (width 0.1))
  (fp_line (start -0.5 1.75) (end 0 1.25) (layer F.Fab) (width 0.1))
  (fp_line (start 0 1.25) (end 0.5 1.75) (layer F.Fab) (width 0.1))
  (fp_line (start -3.2 -4.25) (end -3.2 4.25) (layer F.CrtYd) (width 0.05))
  (fp_line (start -3.2 4.25) (end 5.7 4.25) (layer F.CrtYd) (width 0.05))
  (fp_line (start 5.7 4.25) (end 5.7 -4.25) (layer F.CrtYd) (width 0.05))
  (fp_line (start 5.7 -4.25) (end -3.2 -4.25) (layer F.CrtYd) (width 0.05))
  (pad 1 thru_hole roundrect (at 0 0) (size 1.5 2) (drill 1) (layers *.Cu *.Mask) (roundrect_rratio 0.25))
  (pad 2 thru_hole oval (at 2.5 0) (size 1.5 2) (drill 1) (layers *.Cu *.Mask))
  (fp_text user %R (at 1.25 -2) (layer F.Fab)
    (effects (font (size 1 1) (thickness 0.15)))
  )
  (model ${KICAD6_3DMODEL_DIR}/Connector_Stocko.3dshapes/Stocko_MKS_1652-6-0-202_1x2_P2.50mm_Vertical.wrl
    (at (xyz 0 0 0))
    (scale (xyz 1 1 1))
    (rotate (xyz 0 0 0))
  )
)