(module Stocko_MKS_1670-6-0-2020_1x20_P2.50mm_Vertical (layer F.Cu) (tedit 5C7139E8)
  (descr "Stocko MKS 16xx series connector, (https://www.stocko-contact.com/downloads/steckverbindersystem-raster-2,5-mm.pdf#page=15), generated with kicad-footprint-generator")
  (tags "Stocko RFK MKS 16xx")
  (fp_text reference REF** (at 23.75 -4.5) (layer F.SilkS)
    (effects (font (size 1 1) (thickness 0.15)))
  )
  (fp_text value Stocko_MKS_1670-6-0-2020_1x20_P2.50mm_Vertical (at 23.75 5.86) (layer F.Fab)
    (effects (font (size 1 1) (thickness 0.15)))
  )
  (fp_arc (start -3.1 -3.25) (end -3.71 -3.25) (angle 90) (layer F.SilkS) (width 0.12))
  (fp_arc (start 50.6 -3.25) (end 50.6 -3.86) (angle 90) (layer F.SilkS) (width 0.12))
  (fp_arc (start -3.1 3.25) (end -3.1 3.86) (angle 90) (layer F.SilkS) (width 0.12))
  (fp_arc (start 50.6 3.25) (end 51.21 3.25) (angle 90) (layer F.SilkS) (width 0.12))
  (fp_arc (start -3.1 -3.25) (end -3.6 -3.25) (angle 90) (layer F.Fab) (width 0.1))
  (fp_arc (start 50.6 -3.25) (end 50.6 -3.75) (angle 90) (layer F.Fab) (width 0.1))
  (fp_arc (start -3.1 3.25) (end -3.1 3.75) (angle 90) (layer F.Fab) (width 0.1))
  (fp_arc (start 50.6 3.25) (end 51.1 3.25) (angle 90) (layer F.Fab) (width 0.1))
  (fp_line (start -3.1 -3.86) (end 50.6 -3.86) (layer F.SilkS) (width 0.12))
  (fp_line (start -3.71 -3.25) (end -3.71 3.25) (layer F.SilkS) (width 0.12))
  (fp_line (start 51.21 -3.25) (end 51.21 3.25) (layer F.SilkS) (width 0.12))
  (fp_line (start -3.1 3.86) (end -1.49 3.86) (layer F.SilkS) (width 0.12))
  (fp_line (start -1.49 3.86) (end -1.49 1.86) (layer F.SilkS) (width 0.12))
  (fp_line (start 50.6 3.86) (end 48.99 3.86) (layer F.SilkS) (width 0.12))
  (fp_line (start 48.99 3.86) (end 48.99 1.86) (layer F.SilkS) (width 0.12))
  (fp_line (start -1.49 1.86) (end 48.99 1.86) (layer F.SilkS) (width 0.12))
  (fp_line (start 0.3 2.9) (end 0 2.4) (layer F.SilkS) (width 0.12))
  (fp_line (start 0 2.4) (end -0.3 2.9) (layer F.SilkS) (width 0.12))
  (fp_line (start -0.3 2.9) (end 0.3 2.9) (layer F.SilkS) (width 0.12))
  (fp_line (start -3.1 -3.75) (end 50.6 -3.75) (layer F.Fab) (width 0.1))
  (fp_line (start -3.6 -3.25) (end -3.6 3.25) (layer F.Fab) (width 0.1))
  (fp_line (start 51.1 -3.25) (end 51.1 3.25) (layer F.Fab) (width 0.1))
  (fp_line (start -3.1 3.75) (end -1.6 3.75) (layer F.Fab) (width 0.1))
  (fp_line (start -1.6 3.75) (end -1.6 1.75) (layer F.Fab) (width 0.1))
  (fp_line (start 50.6 3.75) (end 49.1 3.75) (layer F.Fab) (width 0.1))
  (fp_line (start 49.1 3.75) (end 49.1 1.75) (layer F.Fab) (width 0.1))
  (fp_line (start -1.6 1.75) (end -0.5 1.75) (layer F.Fab) (width 0.1))
  (fp_line (start 0.5 1.75) (end 49.1 1.75) (layer F.Fab) (width 0.1))
  (fp_line (start -0.5 1.75) (end 0 1.25) (layer F.Fab) (width 0.1))
  (fp_line (start 0 1.25) (end 0.5 1.75) (layer F.Fab) (width 0.1))
  (fp_line (start -4.1 -4.25) (end -4.1 4.25) (layer F.CrtYd) (width 0.05))
  (fp_line (start -4.1 4.25) (end 51.6 4.25) (layer F.CrtYd) (width 0.05))
  (fp_line (start 51.6 4.25) (end 51.6 -4.25) (layer F.CrtYd) (width 0.05))
  (fp_line (start 51.6 -4.25) (end -4.1 -4.25) (layer F.CrtYd) (width 0.05))
  (pad 1 thru_hole roundrect (at 0 0) (size 1.5 2) (drill 1) (layers *.Cu *.Mask) (roundrect_rratio 0.25))
  (pad 2 thru_hole oval (at 2.5 0) (size 1.5 2) (drill 1) (layers *.Cu *.Mask))
  (pad 3 thru_hole oval (at 5 0) (size 1.5 2) (drill 1) (layers *.Cu *.Mask))
  (pad 4 thru_hole oval (at 7.5 0) (size 1.5 2) (drill 1) (layers *.Cu *.Mask))
  (pad 5 thru_hole oval (at 10 0) (size 1.5 2) (drill 1) (layers *.Cu *.Mask))
  (pad 6 thru_hole oval (at 12.5 0) (size 1.5 2) (drill 1) (layers *.Cu *.Mask))
  (pad 7 thru_hole oval (at 15 0) (size 1.5 2) (drill 1) (layers *.Cu *.Mask))
  (pad 8 thru_hole oval (at 17.5 0) (size 1.5 2) (drill 1) (layers *.Cu *.Mask))
  (pad 9 thru_hole oval (at 20 0) (size 1.5 2) (drill 1) (layers *.Cu *.Mask))
  (pad 10 thru_hole oval (at 22.5 0) (size 1.5 2) (drill 1) (layers *.Cu *.Mask))
  (pad 11 thru_hole oval (at 25 0) (size 1.5 2) (drill 1) (layers *.Cu *.Mask))
  (pad 12 thru_hole oval (at 27.5 0) (size 1.5 2) (drill 1) (layers *.Cu *.Mask))
  (pad 13 thru_hole oval (at 30 0) (size 1.5 2) (drill 1) (layers *.Cu *.Mask))
  (pad 14 thru_hole oval (at 32.5 0) (size 1.5 2) (drill 1) (layers *.Cu *.Mask))
  (pad 15 thru_hole oval (at 35 0) (size 1.5 2) (drill 1) (layers *.Cu *.Mask))
  (pad 16 thru_hole oval (at 37.5 0) (size 1.5 2) (drill 1) (layers *.Cu *.Mask))
  (pad 17 thru_hole oval (at 40 0) (size 1.5 2) (drill 1) (layers *.Cu *.Mask))
  (pad 18 thru_hole oval (at 42.5 0) (size 1.5 2) (drill 1) (layers *.Cu *.Mask))
  (pad 19 thru_hole oval (at 45 0) (size 1.5 2) (drill 1) (layers *.Cu *.Mask))
  (pad 20 thru_hole oval (at 47.5 0) (size 1.5 2) (drill 1) (layers *.Cu *.Mask))
  (fp_text user %R (at 23.75 -2) (layer F.Fab)
    (effects (font (size 1 1) (thickness 0.15)))
  )
  (model ${KICAD6_3DMODEL_DIR}/Connector_Stocko.3dshapes/Stocko_MKS_1670-6-0-2020_1x20_P2.50mm_Vertical.wrl
    (at (xyz 0 0 0))
    (scale (xyz 1 1 1))
    (rotate (xyz 0 0 0))
  )
)