(module Converter_ACDC_MeanWell_IRM-05-xx_THT (layer F.Cu) (tedit 5AEF7D42)
  (descr http://www.meanwell.com/webapp/product/search.aspx?prod=IRM-05)
  (tags "ACDC-Converter 5W   Meanwell IRM-05")
  (fp_text reference REF** (at 22.42 -11.88) (layer F.SilkS)
    (effects (font (size 1 1) (thickness 0.15)))
  )
  (fp_text value Converter_ACDC_MeanWell_IRM-05-xx_THT (at 21.7 15.6) (layer F.Fab)
    (effects (font (size 1 1) (thickness 0.15)))
  )
  (fp_line (start -4 -1) (end -4 1) (layer F.SilkS) (width 0.12))
  (fp_line (start 42.2 -11.3) (end 42.2 14.3) (layer F.SilkS) (width 0.12))
  (fp_line (start -3.7 -11.3) (end 42.2 -11.3) (layer F.SilkS) (width 0.12))
  (fp_line (start -3.6 14.2) (end 42.1 14.2) (layer F.Fab) (width 0.1))
  (fp_line (start 42.1 -11.2) (end -3.6 -11.2) (layer F.Fab) (width 0.1))
  (fp_line (start -3.85 -11.45) (end -3.85 14.45) (layer F.CrtYd) (width 0.05))
  (fp_text user %R (at 22.42 0.48) (layer F.Fab)
    (effects (font (size 1 1) (thickness 0.15)))
  )
  (fp_line (start -3.6 -11.2) (end -3.6 14.2) (layer F.Fab) (width 0.1))
  (fp_line (start -3.7 14.3) (end 42.2 14.3) (layer F.SilkS) (width 0.12))
  (fp_line (start -3.7 -11.3) (end -3.7 14.3) (layer F.SilkS) (width 0.12))
  (fp_line (start 42.1 -11.2) (end 42.1 14.2) (layer F.Fab) (width 0.1))
  (fp_line (start -3.85 14.45) (end 42.35 14.45) (layer F.CrtYd) (width 0.05))
  (fp_line (start -3.85 -11.45) (end 42.35 -11.45) (layer F.CrtYd) (width 0.05))
  (fp_line (start 42.35 -11.45) (end 42.35 14.45) (layer F.CrtYd) (width 0.05))
  (fp_line (start -2.6 0) (end -3.6 -1) (layer F.Fab) (width 0.1))
  (fp_line (start -2.6 0) (end -3.6 1) (layer F.Fab) (width 0.1))
  (pad 3 thru_hole circle (at 38.5 10.75) (size 3 3) (drill 1.5) (layers *.Cu *.Mask))
  (pad 2 thru_hole circle (at 0 10.75) (size 3 3) (drill 1.5) (layers *.Cu *.Mask))
  (pad 4 thru_hole circle (at 38.5 2.75) (size 3 3) (drill 1.5) (layers *.Cu *.Mask))
  (pad 1 thru_hole rect (at 0 0) (size 3 3) (drill 1.5) (layers *.Cu *.Mask))
  (model ${KICAD6_3DMODEL_DIR}/Converter_ACDC.3dshapes/Converter_ACDC_MeanWell_IRM-05-xx_THT.wrl
    (at (xyz 0 0 0))
    (scale (xyz 1 1 1))
    (rotate (xyz 0 0 0))
  )
)
