(module Converter_ACDC_RECOM_RAC01-xxSGB_THT (layer F.Cu) (tedit 5BA81392)
  (descr https://www.recom-power.com/pdf/Powerline-AC-DC/RAC01-GB.pdf)
  (tags "recom power ac dc rac01xxgb rac01-05sgb rac01-12sgb")
  (fp_text reference REF** (at 0 -19.6 180) (layer F.SilkS)
    (effects (font (size 1 1) (thickness 0.15)))
  )
  (fp_text value Converter_ACDC_RECOM_RAC01-xxSGB_THT (at 14 -17.4 180) (layer F.Fab)
    (effects (font (size 1 1) (thickness 0.15)))
  )
  (fp_text user %R (at 14 -7) (layer F.Fab)
    (effects (font (size 1.5 1.5) (thickness 0.15)))
  )
  (fp_line (start 27.9 3.5) (end -2.8 3.5) (layer F.Fab) (width 0.1))
  (fp_line (start 30.9 0.5) (end 30.9 -18.7) (layer F.Fab) (width 0.1))
  (fp_line (start -2.8 -1) (end -2.8 -18.7) (layer F.Fab) (width 0.1))
  (fp_line (start -2.8 -18.7) (end 30.9 -18.7) (layer F.Fab) (width 0.1))
  (fp_line (start 27.9 3.5) (end 30.9 0.5) (layer F.Fab) (width 0.1))
  (fp_line (start 27.99 3.75) (end -3.05 3.75) (layer F.CrtYd) (width 0.05))
  (fp_line (start -3.05 3.75) (end -3.05 -18.95) (layer F.CrtYd) (width 0.05))
  (fp_line (start -3.05 -18.95) (end 31.15 -18.95) (layer F.CrtYd) (width 0.05))
  (fp_line (start 31.15 -18.95) (end 31.15 0.59) (layer F.CrtYd) (width 0.05))
  (fp_line (start 31.15 0.59) (end 27.99 3.75) (layer F.CrtYd) (width 0.05))
  (fp_line (start -2.8 -1) (end -1.8 0) (layer F.Fab) (width 0.1))
  (fp_line (start -1.8 0) (end -2.8 1) (layer F.Fab) (width 0.1))
  (fp_line (start 31.03 0.55) (end 31.03 -18.83) (layer F.SilkS) (width 0.12))
  (fp_line (start 27.95 3.63) (end 31.03 0.55) (layer F.SilkS) (width 0.12))
  (fp_line (start -2.93 -18.83) (end 31.03 -18.83) (layer F.SilkS) (width 0.12))
  (fp_line (start -2.93 3.63) (end -2.93 -18.83) (layer F.SilkS) (width 0.12))
  (fp_line (start 27.95 3.63) (end -2.93 3.63) (layer F.SilkS) (width 0.12))
  (fp_line (start -2.8 1) (end -2.8 3.5) (layer F.Fab) (width 0.1))
  (fp_line (start -3.175 -1.27) (end -3.175 1.27) (layer F.SilkS) (width 0.12))
  (pad 3 thru_hole circle (at 28 -15.24 180) (size 2 2) (drill 1) (layers *.Cu *.Mask))
  (pad 4 thru_hole circle (at 28 -7.62 180) (size 2 2) (drill 1) (layers *.Cu *.Mask))
  (pad 2 thru_hole circle (at 0 -15.24 180) (size 2 2) (drill 1) (layers *.Cu *.Mask))
  (pad 1 thru_hole rect (at 0 0 180) (size 2 2) (drill 1) (layers *.Cu *.Mask))
  (model ${KICAD6_3DMODEL_DIR}/Converter_ACDC.3dshapes/Converter_ACDC_RECOM_RAC01-xxSGB_THT.wrl
    (at (xyz 0 0 0))
    (scale (xyz 1 1 1))
    (rotate (xyz 0 0 0))
  )
)
