(module Converter_ACDC_CUI_PBO-3-Sxx_THT_Vertical (layer F.Cu) (tedit 5CFE65C9)
  (descr "ACDC-Converter, 3W, CUI PBO-3, THT https://www.cui.com/product/resource/pbo-3.pdf")
  (tags "Converter AC-DC THT Vertical")
  (fp_text reference REF** (at 15.55 -3.55) (layer F.SilkS)
    (effects (font (size 1 1) (thickness 0.15)))
  )
  (fp_text value Converter_ACDC_CUI_PBO-3-Sxx_THT_Vertical (at 14.35 11.8) (layer F.Fab)
    (effects (font (size 1 1) (thickness 0.15)))
  )
  (fp_line (start -3.53 -1.75) (end 31.47 -1.75) (layer F.Fab) (width 0.1))
  (fp_line (start -3.53 1.75) (end 4 1.75) (layer F.Fab) (width 0.1))
  (fp_line (start 26 1.75) (end 31.47 1.75) (layer F.Fab) (width 0.1))
  (fp_line (start 5.5 9.25) (end 24.5 9.25) (layer F.Fab) (width 0.1))
  (fp_line (start 5.5 3.25) (end 5.5 9.25) (layer F.Fab) (width 0.1))
  (fp_line (start 24.5 3.25) (end 24.5 9.25) (layer F.Fab) (width 0.1))
  (fp_line (start 4 1.75) (end 5.5 3.25) (layer F.Fab) (width 0.1))
  (fp_line (start 24.5 3.25) (end 26 1.75) (layer F.Fab) (width 0.1))
  (fp_line (start 31.47 -1.75) (end 31.47 1.75) (layer F.Fab) (width 0.1))
  (fp_line (start -3.53 -1.75) (end -3.53 1.75) (layer F.Fab) (width 0.1))
  (fp_line (start -3.59 -1.81) (end 31.53 -1.81) (layer F.SilkS) (width 0.12))
  (fp_line (start 31.53 -1.81) (end 31.53 1.81) (layer F.SilkS) (width 0.12))
  (fp_line (start 31.53 1.81) (end 26.06 1.81) (layer F.SilkS) (width 0.12))
  (fp_line (start 26.06 1.81) (end 24.56 3.31) (layer F.SilkS) (width 0.12))
  (fp_line (start 24.56 3.31) (end 24.56 9.31) (layer F.SilkS) (width 0.12))
  (fp_line (start 24.56 9.31) (end 5.44 9.31) (layer F.SilkS) (width 0.12))
  (fp_line (start 5.44 9.31) (end 5.44 3.31) (layer F.SilkS) (width 0.12))
  (fp_line (start 5.44 3.31) (end 3.94 1.81) (layer F.SilkS) (width 0.12))
  (fp_line (start 3.94 1.81) (end -3.59 1.81) (layer F.SilkS) (width 0.12))
  (fp_line (start -3.59 1.81) (end -3.59 -1.81) (layer F.SilkS) (width 0.12))
  (fp_line (start -3.78 -2) (end 31.72 -2) (layer F.CrtYd) (width 0.05))
  (fp_line (start 31.72 -2) (end 31.72 2) (layer F.CrtYd) (width 0.05))
  (fp_line (start 31.72 2) (end 26.25 2) (layer F.CrtYd) (width 0.05))
  (fp_line (start 26.25 2) (end 24.75 3.5) (layer F.CrtYd) (width 0.05))
  (fp_line (start 24.75 3.5) (end 24.75 9.5) (layer F.CrtYd) (width 0.05))
  (fp_line (start 24.75 9.5) (end 5.25 9.5) (layer F.CrtYd) (width 0.05))
  (fp_line (start 5.25 9.5) (end 5.25 3.5) (layer F.CrtYd) (width 0.05))
  (fp_line (start 5.25 3.5) (end 3.75 2) (layer F.CrtYd) (width 0.05))
  (fp_line (start 3.75 2) (end -3.78 2) (layer F.CrtYd) (width 0.05))
  (fp_line (start -3.78 2) (end -3.78 -2) (layer F.CrtYd) (width 0.05))
  (fp_text user %R (at 15.7 4.9) (layer F.Fab)
    (effects (font (size 1 1) (thickness 0.15)))
  )
  (pad 1 thru_hole rect (at 0 0) (size 2 2) (drill 1) (layers *.Cu *.Mask))
  (pad 3 thru_hole circle (at 5.08 0) (size 2 2) (drill 1) (layers *.Cu *.Mask))
  (pad 5 thru_hole circle (at 10.16 0) (size 2 2) (drill 1) (layers *.Cu *.Mask))
  (pad 7 thru_hole circle (at 15.24 0) (size 2 2) (drill 1) (layers *.Cu *.Mask))
  (pad 10 thru_hole circle (at 22.86 0) (size 2 2) (drill 1) (layers *.Cu *.Mask))
  (pad 12 thru_hole circle (at 27.94 0) (size 2 2) (drill 1) (layers *.Cu *.Mask))
  (model ${KICAD6_3DMODEL_DIR}/Converter_ACDC.3dshapes/Converter_ACDC_CUI_PBO-3-Sxx_THT_Vertical.wrl
    (at (xyz 0 0 0))
    (scale (xyz 1 1 1))
    (rotate (xyz 0 0 0))
  )
)
