(module Converter_ACDC_MeanWell_IRM-03-xx_THT (layer F.Cu) (tedit 5C747753)
  (descr "ACDC-Converter, 3W, Meanwell, IRM-03, THT, https://www.meanwell.com/Upload/PDF/IRM-03/IRM-03-SPEC.PDF")
  (tags "ACDC-Converter 3W THT")
  (fp_text reference REF** (at 8.89 -4.5) (layer F.SilkS)
    (effects (font (size 1 1) (thickness 0.15)))
  )
  (fp_text value Converter_ACDC_MeanWell_IRM-03-xx_THT (at 8.89 16.24) (layer F.Fab)
    (effects (font (size 1 1) (thickness 0.15)))
  )
  (fp_line (start 21.14 -3.51) (end -3.36 -3.51) (layer F.CrtYd) (width 0.05))
  (fp_line (start -3.36 -3.51) (end -3.36 33.99) (layer F.CrtYd) (width 0.05))
  (fp_line (start 21.14 33.99) (end -3.36 33.99) (layer F.CrtYd) (width 0.05))
  (fp_line (start 21.14 -3.51) (end 21.14 33.99) (layer F.CrtYd) (width 0.05))
  (fp_line (start 21.01 -3.38) (end -3.23 -3.38) (layer F.SilkS) (width 0.12))
  (fp_line (start -3.23 33.86) (end 21.01 33.86) (layer F.SilkS) (width 0.12))
  (fp_line (start -3.23 -3.38) (end -3.23 33.86) (layer F.SilkS) (width 0.12))
  (fp_line (start 21.01 -3.38) (end 21.01 33.86) (layer F.SilkS) (width 0.12))
  (fp_line (start 20.89 -3.26) (end 20.89 33.74) (layer F.Fab) (width 0.1))
  (fp_line (start 20.89 33.74) (end -3.11 33.74) (layer F.Fab) (width 0.1))
  (fp_line (start 20.89 -3.26) (end -3.11 -3.26) (layer F.Fab) (width 0.1))
  (fp_line (start -3.11 1) (end -3.11 33.74) (layer F.Fab) (width 0.1))
  (fp_text user %R (at 8.89 14.24) (layer F.Fab)
    (effects (font (size 1 1) (thickness 0.15)))
  )
  (fp_line (start -3.11 -1) (end -3.11 -3.26) (layer F.Fab) (width 0.1))
  (fp_line (start -2.11 0) (end -3.11 -1) (layer F.Fab) (width 0.1))
  (fp_line (start -3.11 1) (end -2.11 0) (layer F.Fab) (width 0.1))
  (fp_line (start -3.61 -2) (end -3.61 4) (layer F.SilkS) (width 0.12))
  (pad 5 thru_hole circle (at 0 30.48) (size 2.3 2.3) (drill 0.76) (layers *.Cu *.Mask))
  (pad 1 thru_hole rect (at 0 0) (size 2.3 2) (drill 0.8) (layers *.Cu *.Mask))
  (pad 3 thru_hole circle (at 0 5.08) (size 2.3 2.3) (drill 0.8) (layers *.Cu *.Mask))
  (pad 14 thru_hole circle (at 17.78 30.48) (size 2.3 2.3) (drill 0.76) (layers *.Cu *.Mask))
  (pad 16 thru_hole circle (at 17.78 25.4) (size 2.3 2.3) (drill 0.76) (layers *.Cu *.Mask))
  (model ${KICAD6_3DMODEL_DIR}/Converter_ACDC.3dshapes/Converter_ACDC_MeanWell_IRM-03-xx_THT.wrl
    (at (xyz 0 0 0))
    (scale (xyz 1 1 1))
    (rotate (xyz 0 0 0))
  )
)
