(module PinHeader_1x11_P2.00mm_Vertical_SMD_Pin1Right (layer F.Cu) (tedit 59FED667)
  (descr "surface-mounted straight pin header, 1x11, 2.00mm pitch, single row, style 2 (pin 1 right)")
  (tags "Surface mounted pin header SMD 1x11 2.00mm single row style2 pin1 right")
  (attr smd)
  (fp_text reference REF** (at 0 -12.06) (layer F.SilkS)
    (effects (font (size 1 1) (thickness 0.15)))
  )
  (fp_text value PinHeader_1x11_P2.00mm_Vertical_SMD_Pin1Right (at 0 12.06) (layer F.Fab)
    (effects (font (size 1 1) (thickness 0.15)))
  )
  (fp_line (start 1 11) (end -1 11) (layer F.Fab) (width 0.1))
  (fp_line (start -1 -11) (end 0.25 -11) (layer F.Fab) (width 0.1))
  (fp_line (start 1 11) (end 1 -10.25) (layer F.Fab) (width 0.1))
  (fp_line (start 1 -10.25) (end 0.25 -11) (layer F.Fab) (width 0.1))
  (fp_line (start -1 -11) (end -1 11) (layer F.Fab) (width 0.1))
  (fp_line (start -1 -8.25) (end -2.1 -8.25) (layer F.Fab) (width 0.1))
  (fp_line (start -2.1 -8.25) (end -2.1 -7.75) (layer F.Fab) (width 0.1))
  (fp_line (start -2.1 -7.75) (end -1 -7.75) (layer F.Fab) (width 0.1))
  (fp_line (start -1 -4.25) (end -2.1 -4.25) (layer F.Fab) (width 0.1))
  (fp_line (start -2.1 -4.25) (end -2.1 -3.75) (layer F.Fab) (width 0.1))
  (fp_line (start -2.1 -3.75) (end -1 -3.75) (layer F.Fab) (width 0.1))
  (fp_line (start -1 -0.25) (end -2.1 -0.25) (layer F.Fab) (width 0.1))
  (fp_line (start -2.1 -0.25) (end -2.1 0.25) (layer F.Fab) (width 0.1))
  (fp_line (start -2.1 0.25) (end -1 0.25) (layer F.Fab) (width 0.1))
  (fp_line (start -1 3.75) (end -2.1 3.75) (layer F.Fab) (width 0.1))
  (fp_line (start -2.1 3.75) (end -2.1 4.25) (layer F.Fab) (width 0.1))
  (fp_line (start -2.1 4.25) (end -1 4.25) (layer F.Fab) (width 0.1))
  (fp_line (start -1 7.75) (end -2.1 7.75) (layer F.Fab) (width 0.1))
  (fp_line (start -2.1 7.75) (end -2.1 8.25) (layer F.Fab) (width 0.1))
  (fp_line (start -2.1 8.25) (end -1 8.25) (layer F.Fab) (width 0.1))
  (fp_line (start 1 -10.25) (end 2.1 -10.25) (layer F.Fab) (width 0.1))
  (fp_line (start 2.1 -10.25) (end 2.1 -9.75) (layer F.Fab) (width 0.1))
  (fp_line (start 2.1 -9.75) (end 1 -9.75) (layer F.Fab) (width 0.1))
  (fp_line (start 1 -6.25) (end 2.1 -6.25) (layer F.Fab) (width 0.1))
  (fp_line (start 2.1 -6.25) (end 2.1 -5.75) (layer F.Fab) (width 0.1))
  (fp_line (start 2.1 -5.75) (end 1 -5.75) (layer F.Fab) (width 0.1))
  (fp_line (start 1 -2.25) (end 2.1 -2.25) (layer F.Fab) (width 0.1))
  (fp_line (start 2.1 -2.25) (end 2.1 -1.75) (layer F.Fab) (width 0.1))
  (fp_line (start 2.1 -1.75) (end 1 -1.75) (layer F.Fab) (width 0.1))
  (fp_line (start 1 1.75) (end 2.1 1.75) (layer F.Fab) (width 0.1))
  (fp_line (start 2.1 1.75) (end 2.1 2.25) (layer F.Fab) (width 0.1))
  (fp_line (start 2.1 2.25) (end 1 2.25) (layer F.Fab) (width 0.1))
  (fp_line (start 1 5.75) (end 2.1 5.75) (layer F.Fab) (width 0.1))
  (fp_line (start 2.1 5.75) (end 2.1 6.25) (layer F.Fab) (width 0.1))
  (fp_line (start 2.1 6.25) (end 1 6.25) (layer F.Fab) (width 0.1))
  (fp_line (start 1 9.75) (end 2.1 9.75) (layer F.Fab) (width 0.1))
  (fp_line (start 2.1 9.75) (end 2.1 10.25) (layer F.Fab) (width 0.1))
  (fp_line (start 2.1 10.25) (end 1 10.25) (layer F.Fab) (width 0.1))
  (fp_line (start -1.06 -11.06) (end 1.06 -11.06) (layer F.SilkS) (width 0.12))
  (fp_line (start -1.06 11.06) (end 1.06 11.06) (layer F.SilkS) (width 0.12))
  (fp_line (start 1.06 -9.315) (end 1.06 -6.685) (layer F.SilkS) (width 0.12))
  (fp_line (start 1.06 -5.315) (end 1.06 -2.685) (layer F.SilkS) (width 0.12))
  (fp_line (start 1.06 -1.315) (end 1.06 1.315) (layer F.SilkS) (width 0.12))
  (fp_line (start 1.06 2.685) (end 1.06 5.315) (layer F.SilkS) (width 0.12))
  (fp_line (start 1.06 6.685) (end 1.06 9.315) (layer F.SilkS) (width 0.12))
  (fp_line (start -1.06 -11.06) (end -1.06 -8.685) (layer F.SilkS) (width 0.12))
  (fp_line (start 1.06 -10.685) (end 2.29 -10.685) (layer F.SilkS) (width 0.12))
  (fp_line (start 1.06 -11.06) (end 1.06 -10.685) (layer F.SilkS) (width 0.12))
  (fp_line (start -1.06 10.685) (end -1.06 11.06) (layer F.SilkS) (width 0.12))
  (fp_line (start -1.06 -7.315) (end -1.06 -4.685) (layer F.SilkS) (width 0.12))
  (fp_line (start -1.06 -3.315) (end -1.06 -0.685) (layer F.SilkS) (width 0.12))
  (fp_line (start -1.06 0.685) (end -1.06 3.315) (layer F.SilkS) (width 0.12))
  (fp_line (start -1.06 4.685) (end -1.06 7.315) (layer F.SilkS) (width 0.12))
  (fp_line (start -1.06 8.685) (end -1.06 11.06) (layer F.SilkS) (width 0.12))
  (fp_line (start -2.85 -11.5) (end -2.85 11.5) (layer F.CrtYd) (width 0.05))
  (fp_line (start -2.85 11.5) (end 2.85 11.5) (layer F.CrtYd) (width 0.05))
  (fp_line (start 2.85 11.5) (end 2.85 -11.5) (layer F.CrtYd) (width 0.05))
  (fp_line (start 2.85 -11.5) (end -2.85 -11.5) (layer F.CrtYd) (width 0.05))
  (pad 2 smd rect (at -1.175 -8) (size 2.35 0.85) (layers F.Cu F.Mask F.Paste))
  (pad 4 smd rect (at -1.175 -4) (size 2.35 0.85) (layers F.Cu F.Mask F.Paste))
  (pad 6 smd rect (at -1.175 0) (size 2.35 0.85) (layers F.Cu F.Mask F.Paste))
  (pad 8 smd rect (at -1.175 4) (size 2.35 0.85) (layers F.Cu F.Mask F.Paste))
  (pad 10 smd rect (at -1.175 8) (size 2.35 0.85) (layers F.Cu F.Mask F.Paste))
  (pad 1 smd rect (at 1.175 -10) (size 2.35 0.85) (layers F.Cu F.Mask F.Paste))
  (pad 3 smd rect (at 1.175 -6) (size 2.35 0.85) (layers F.Cu F.Mask F.Paste))
  (pad 5 smd rect (at 1.175 -2) (size 2.35 0.85) (layers F.Cu F.Mask F.Paste))
  (pad 7 smd rect (at 1.175 2) (size 2.35 0.85) (layers F.Cu F.Mask F.Paste))
  (pad 9 smd rect (at 1.175 6) (size 2.35 0.85) (layers F.Cu F.Mask F.Paste))
  (pad 11 smd rect (at 1.175 10) (size 2.35 0.85) (layers F.Cu F.Mask F.Paste))
  (fp_text user %R (at 0 0 90) (layer F.Fab)
    (effects (font (size 1 1) (thickness 0.15)))
  )
  (model ${KICAD6_3DMODEL_DIR}/Connector_PinHeader_2.00mm.3dshapes/PinHeader_1x11_P2.00mm_Vertical_SMD_Pin1Right.wrl
    (at (xyz 0 0 0))
    (scale (xyz 1 1 1))
    (rotate (xyz 0 0 0))
  )
)