(module PinHeader_1x24_P2.00mm_Vertical_SMD_Pin1Left (layer F.Cu) (tedit 59FED667)
  (descr "surface-mounted straight pin header, 1x24, 2.00mm pitch, single row, style 1 (pin 1 left)")
  (tags "Surface mounted pin header SMD 1x24 2.00mm single row style1 pin1 left")
  (attr smd)
  (fp_text reference REF** (at 0 -25.06) (layer F.SilkS)
    (effects (font (size 1 1) (thickness 0.15)))
  )
  (fp_text value PinHeader_1x24_P2.00mm_Vertical_SMD_Pin1Left (at 0 25.06) (layer F.Fab)
    (effects (font (size 1 1) (thickness 0.15)))
  )
  (fp_line (start 1 24) (end -1 24) (layer F.Fab) (width 0.1))
  (fp_line (start -0.25 -24) (end 1 -24) (layer F.Fab) (width 0.1))
  (fp_line (start -1 24) (end -1 -23.25) (layer F.Fab) (width 0.1))
  (fp_line (start -1 -23.25) (end -0.25 -24) (layer F.Fab) (width 0.1))
  (fp_line (start 1 -24) (end 1 24) (layer F.Fab) (width 0.1))
  (fp_line (start -1 -23.25) (end -2.1 -23.25) (layer F.Fab) (width 0.1))
  (fp_line (start -2.1 -23.25) (end -2.1 -22.75) (layer F.Fab) (width 0.1))
  (fp_line (start -2.1 -22.75) (end -1 -22.75) (layer F.Fab) (width 0.1))
  (fp_line (start -1 -19.25) (end -2.1 -19.25) (layer F.Fab) (width 0.1))
  (fp_line (start -2.1 -19.25) (end -2.1 -18.75) (layer F.Fab) (width 0.1))
  (fp_line (start -2.1 -18.75) (end -1 -18.75) (layer F.Fab) (width 0.1))
  (fp_line (start -1 -15.25) (end -2.1 -15.25) (layer F.Fab) (width 0.1))
  (fp_line (start -2.1 -15.25) (end -2.1 -14.75) (layer F.Fab) (width 0.1))
  (fp_line (start -2.1 -14.75) (end -1 -14.75) (layer F.Fab) (width 0.1))
  (fp_line (start -1 -11.25) (end -2.1 -11.25) (layer F.Fab) (width 0.1))
  (fp_line (start -2.1 -11.25) (end -2.1 -10.75) (layer F.Fab) (width 0.1))
  (fp_line (start -2.1 -10.75) (end -1 -10.75) (layer F.Fab) (width 0.1))
  (fp_line (start -1 -7.25) (end -2.1 -7.25) (layer F.Fab) (width 0.1))
  (fp_line (start -2.1 -7.25) (end -2.1 -6.75) (layer F.Fab) (width 0.1))
  (fp_line (start -2.1 -6.75) (end -1 -6.75) (layer F.Fab) (width 0.1))
  (fp_line (start -1 -3.25) (end -2.1 -3.25) (layer F.Fab) (width 0.1))
  (fp_line (start -2.1 -3.25) (end -2.1 -2.75) (layer F.Fab) (width 0.1))
  (fp_line (start -2.1 -2.75) (end -1 -2.75) (layer F.Fab) (width 0.1))
  (fp_line (start -1 0.75) (end -2.1 0.75) (layer F.Fab) (width 0.1))
  (fp_line (start -2.1 0.75) (end -2.1 1.25) (layer F.Fab) (width 0.1))
  (fp_line (start -2.1 1.25) (end -1 1.25) (layer F.Fab) (width 0.1))
  (fp_line (start -1 4.75) (end -2.1 4.75) (layer F.Fab) (width 0.1))
  (fp_line (start -2.1 4.75) (end -2.1 5.25) (layer F.Fab) (width 0.1))
  (fp_line (start -2.1 5.25) (end -1 5.25) (layer F.Fab) (width 0.1))
  (fp_line (start -1 8.75) (end -2.1 8.75) (layer F.Fab) (width 0.1))
  (fp_line (start -2.1 8.75) (end -2.1 9.25) (layer F.Fab) (width 0.1))
  (fp_line (start -2.1 9.25) (end -1 9.25) (layer F.Fab) (width 0.1))
  (fp_line (start -1 12.75) (end -2.1 12.75) (layer F.Fab) (width 0.1))
  (fp_line (start -2.1 12.75) (end -2.1 13.25) (layer F.Fab) (width 0.1))
  (fp_line (start -2.1 13.25) (end -1 13.25) (layer F.Fab) (width 0.1))
  (fp_line (start -1 16.75) (end -2.1 16.75) (layer F.Fab) (width 0.1))
  (fp_line (start -2.1 16.75) (end -2.1 17.25) (layer F.Fab) (width 0.1))
  (fp_line (start -2.1 17.25) (end -1 17.25) (layer F.Fab) (width 0.1))
  (fp_line (start -1 20.75) (end -2.1 20.75) (layer F.Fab) (width 0.1))
  (fp_line (start -2.1 20.75) (end -2.1 21.25) (layer F.Fab) (width 0.1))
  (fp_line (start -2.1 21.25) (end -1 21.25) (layer F.Fab) (width 0.1))
  (fp_line (start 1 -21.25) (end 2.1 -21.25) (layer F.Fab) (width 0.1))
  (fp_line (start 2.1 -21.25) (end 2.1 -20.75) (layer F.Fab) (width 0.1))
  (fp_line (start 2.1 -20.75) (end 1 -20.75) (layer F.Fab) (width 0.1))
  (fp_line (start 1 -17.25) (end 2.1 -17.25) (layer F.Fab) (width 0.1))
  (fp_line (start 2.1 -17.25) (end 2.1 -16.75) (layer F.Fab) (width 0.1))
  (fp_line (start 2.1 -16.75) (end 1 -16.75) (layer F.Fab) (width 0.1))
  (fp_line (start 1 -13.25) (end 2.1 -13.25) (layer F.Fab) (width 0.1))
  (fp_line (start 2.1 -13.25) (end 2.1 -12.75) (layer F.Fab) (width 0.1))
  (fp_line (start 2.1 -12.75) (end 1 -12.75) (layer F.Fab) (width 0.1))
  (fp_line (start 1 -9.25) (end 2.1 -9.25) (layer F.Fab) (width 0.1))
  (fp_line (start 2.1 -9.25) (end 2.1 -8.75) (layer F.Fab) (width 0.1))
  (fp_line (start 2.1 -8.75) (end 1 -8.75) (layer F.Fab) (width 0.1))
  (fp_line (start 1 -5.25) (end 2.1 -5.25) (layer F.Fab) (width 0.1))
  (fp_line (start 2.1 -5.25) (end 2.1 -4.75) (layer F.Fab) (width 0.1))
  (fp_line (start 2.1 -4.75) (end 1 -4.75) (layer F.Fab) (width 0.1))
  (fp_line (start 1 -1.25) (end 2.1 -1.25) (layer F.Fab) (width 0.1))
  (fp_line (start 2.1 -1.25) (end 2.1 -0.75) (layer F.Fab) (width 0.1))
  (fp_line (start 2.1 -0.75) (end 1 -0.75) (layer F.Fab) (width 0.1))
  (fp_line (start 1 2.75) (end 2.1 2.75) (layer F.Fab) (width 0.1))
  (fp_line (start 2.1 2.75) (end 2.1 3.25) (layer F.Fab) (width 0.1))
  (fp_line (start 2.1 3.25) (end 1 3.25) (layer F.Fab) (width 0.1))
  (fp_line (start 1 6.75) (end 2.1 6.75) (layer F.Fab) (width 0.1))
  (fp_line (start 2.1 6.75) (end 2.1 7.25) (layer F.Fab) (width 0.1))
  (fp_line (start 2.1 7.25) (end 1 7.25) (layer F.Fab) (width 0.1))
  (fp_line (start 1 10.75) (end 2.1 10.75) (layer F.Fab) (width 0.1))
  (fp_line (start 2.1 10.75) (end 2.1 11.25) (layer F.Fab) (width 0.1))
  (fp_line (start 2.1 11.25) (end 1 11.25) (layer F.Fab) (width 0.1))
  (fp_line (start 1 14.75) (end 2.1 14.75) (layer F.Fab) (width 0.1))
  (fp_line (start 2.1 14.75) (end 2.1 15.25) (layer F.Fab) (width 0.1))
  (fp_line (start 2.1 15.25) (end 1 15.25) (layer F.Fab) (width 0.1))
  (fp_line (start 1 18.75) (end 2.1 18.75) (layer F.Fab) (width 0.1))
  (fp_line (start 2.1 18.75) (end 2.1 19.25) (layer F.Fab) (width 0.1))
  (fp_line (start 2.1 19.25) (end 1 19.25) (layer F.Fab) (width 0.1))
  (fp_line (start 1 22.75) (end 2.1 22.75) (layer F.Fab) (width 0.1))
  (fp_line (start 2.1 22.75) (end 2.1 23.25) (layer F.Fab) (width 0.1))
  (fp_line (start 2.1 23.25) (end 1 23.25) (layer F.Fab) (width 0.1))
  (fp_line (start -1.06 -24.06) (end 1.06 -24.06) (layer F.SilkS) (width 0.12))
  (fp_line (start -1.06 24.06) (end 1.06 24.06) (layer F.SilkS) (width 0.12))
  (fp_line (start 1.06 -24.06) (end 1.06 -21.685) (layer F.SilkS) (width 0.12))
  (fp_line (start -1.06 -23.685) (end -2.29 -23.685) (layer F.SilkS) (width 0.12))
  (fp_line (start -1.06 -24.06) (end -1.06 -23.685) (layer F.SilkS) (width 0.12))
  (fp_line (start 1.06 23.685) (end 1.06 24.06) (layer F.SilkS) (width 0.12))
  (fp_line (start 1.06 -20.315) (end 1.06 -17.685) (layer F.SilkS) (width 0.12))
  (fp_line (start 1.06 -16.315) (end 1.06 -13.685) (layer F.SilkS) (width 0.12))
  (fp_line (start 1.06 -12.315) (end 1.06 -9.685) (layer F.SilkS) (width 0.12))
  (fp_line (start 1.06 -8.315) (end 1.06 -5.685) (layer F.SilkS) (width 0.12))
  (fp_line (start 1.06 -4.315) (end 1.06 -1.685) (layer F.SilkS) (width 0.12))
  (fp_line (start 1.06 -0.315) (end 1.06 2.315) (layer F.SilkS) (width 0.12))
  (fp_line (start 1.06 3.685) (end 1.06 6.315) (layer F.SilkS) (width 0.12))
  (fp_line (start 1.06 7.685) (end 1.06 10.315) (layer F.SilkS) (width 0.12))
  (fp_line (start 1.06 11.685) (end 1.06 14.315) (layer F.SilkS) (width 0.12))
  (fp_line (start 1.06 15.685) (end 1.06 18.315) (layer F.SilkS) (width 0.12))
  (fp_line (start 1.06 19.685) (end 1.06 22.315) (layer F.SilkS) (width 0.12))
  (fp_line (start -1.06 -22.315) (end -1.06 -19.685) (layer F.SilkS) (width 0.12))
  (fp_line (start -1.06 -18.315) (end -1.06 -15.685) (layer F.SilkS) (width 0.12))
  (fp_line (start -1.06 -14.315) (end -1.06 -11.685) (layer F.SilkS) (width 0.12))
  (fp_line (start -1.06 -10.315) (end -1.06 -7.685) (layer F.SilkS) (width 0.12))
  (fp_line (start -1.06 -6.315) (end -1.06 -3.685) (layer F.SilkS) (width 0.12))
  (fp_line (start -1.06 -2.315) (end -1.06 0.315) (layer F.SilkS) (width 0.12))
  (fp_line (start -1.06 1.685) (end -1.06 4.315) (layer F.SilkS) (width 0.12))
  (fp_line (start -1.06 5.685) (end -1.06 8.315) (layer F.SilkS) (width 0.12))
  (fp_line (start -1.06 9.685) (end -1.06 12.315) (layer F.SilkS) (width 0.12))
  (fp_line (start -1.06 13.685) (end -1.06 16.315) (layer F.SilkS) (width 0.12))
  (fp_line (start -1.06 17.685) (end -1.06 20.315) (layer F.SilkS) (width 0.12))
  (fp_line (start -1.06 21.685) (end -1.06 24.06) (layer F.SilkS) (width 0.12))
  (fp_line (start -2.85 -24.5) (end -2.85 24.5) (layer F.CrtYd) (width 0.05))
  (fp_line (start -2.85 24.5) (end 2.85 24.5) (layer F.CrtYd) (width 0.05))
  (fp_line (start 2.85 24.5) (end 2.85 -24.5) (layer F.CrtYd) (width 0.05))
  (fp_line (start 2.85 -24.5) (end -2.85 -24.5) (layer F.CrtYd) (width 0.05))
  (pad 1 smd rect (at -1.175 -23) (size 2.35 0.85) (layers F.Cu F.Mask F.Paste))
  (pad 3 smd rect (at -1.175 -19) (size 2.35 0.85) (layers F.Cu F.Mask F.Paste))
  (pad 5 smd rect (at -1.175 -15) (size 2.35 0.85) (layers F.Cu F.Mask F.Paste))
  (pad 7 smd rect (at -1.175 -11) (size 2.35 0.85) (layers F.Cu F.Mask F.Paste))
  (pad 9 smd rect (at -1.175 -7) (size 2.35 0.85) (layers F.Cu F.Mask F.Paste))
  (pad 11 smd rect (at -1.175 -3) (size 2.35 0.85) (layers F.Cu F.Mask F.Paste))
  (pad 13 smd rect (at -1.175 1) (size 2.35 0.85) (layers F.Cu F.Mask F.Paste))
  (pad 15 smd rect (at -1.175 5) (size 2.35 0.85) (layers F.Cu F.Mask F.Paste))
  (pad 17 smd rect (at -1.175 9) (size 2.35 0.85) (layers F.Cu F.Mask F.Paste))
  (pad 19 smd rect (at -1.175 13) (size 2.35 0.85) (layers F.Cu F.Mask F.Paste))
  (pad 21 smd rect (at -1.175 17) (size 2.35 0.85) (layers F.Cu F.Mask F.Paste))
  (pad 23 smd rect (at -1.175 21) (size 2.35 0.85) (layers F.Cu F.Mask F.Paste))
  (pad 2 smd rect (at 1.175 -21) (size 2.35 0.85) (layers F.Cu F.Mask F.Paste))
  (pad 4 smd rect (at 1.175 -17) (size 2.35 0.85) (layers F.Cu F.Mask F.Paste))
  (pad 6 smd rect (at 1.175 -13) (size 2.35 0.85) (layers F.Cu F.Mask F.Paste))
  (pad 8 smd rect (at 1.175 -9) (size 2.35 0.85) (layers F.Cu F.Mask F.Paste))
  (pad 10 smd rect (at 1.175 -5) (size 2.35 0.85) (layers F.Cu F.Mask F.Paste))
  (pad 12 smd rect (at 1.175 -1) (size 2.35 0.85) (layers F.Cu F.Mask F.Paste))
  (pad 14 smd rect (at 1.175 3) (size 2.35 0.85) (layers F.Cu F.Mask F.Paste))
  (pad 16 smd rect (at 1.175 7) (size 2.35 0.85) (layers F.Cu F.Mask F.Paste))
  (pad 18 smd rect (at 1.175 11) (size 2.35 0.85) (layers F.Cu F.Mask F.Paste))
  (pad 20 smd rect (at 1.175 15) (size 2.35 0.85) (layers F.Cu F.Mask F.Paste))
  (pad 22 smd rect (at 1.175 19) (size 2.35 0.85) (layers F.Cu F.Mask F.Paste))
  (pad 24 smd rect (at 1.175 23) (size 2.35 0.85) (layers F.Cu F.Mask F.Paste))
  (fp_text user %R (at 0 0 90) (layer F.Fab)
    (effects (font (size 1 1) (thickness 0.15)))
  )
  (model ${KICAD6_3DMODEL_DIR}/Connector_PinHeader_2.00mm.3dshapes/PinHeader_1x24_P2.00mm_Vertical_SMD_Pin1Left.wrl
    (at (xyz 0 0 0))
    (scale (xyz 1 1 1))
    (rotate (xyz 0 0 0))
  )
)