(module PinHeader_2x28_P2.00mm_Horizontal (layer F.Cu) (tedit 59FED667)
  (descr "Through hole angled pin header, 2x28, 2.00mm pitch, 4.2mm pin length, double rows")
  (tags "Through hole angled pin header THT 2x28 2.00mm double row")
  (fp_text reference REF** (at 4.1 -2) (layer F.SilkS)
    (effects (font (size 1 1) (thickness 0.15)))
  )
  (fp_text value PinHeader_2x28_P2.00mm_Horizontal (at 4.1 56) (layer F.Fab)
    (effects (font (size 1 1) (thickness 0.15)))
  )
  (fp_line (start 3.875 -1) (end 5 -1) (layer F.Fab) (width 0.1))
  (fp_line (start 5 -1) (end 5 55) (layer F.Fab) (width 0.1))
  (fp_line (start 5 55) (end 3.5 55) (layer F.Fab) (width 0.1))
  (fp_line (start 3.5 55) (end 3.5 -0.625) (layer F.Fab) (width 0.1))
  (fp_line (start 3.5 -0.625) (end 3.875 -1) (layer F.Fab) (width 0.1))
  (fp_line (start -0.25 -0.25) (end 3.5 -0.25) (layer F.Fab) (width 0.1))
  (fp_line (start -0.25 -0.25) (end -0.25 0.25) (layer F.Fab) (width 0.1))
  (fp_line (start -0.25 0.25) (end 3.5 0.25) (layer F.Fab) (width 0.1))
  (fp_line (start 5 -0.25) (end 9.2 -0.25) (layer F.Fab) (width 0.1))
  (fp_line (start 9.2 -0.25) (end 9.2 0.25) (layer F.Fab) (width 0.1))
  (fp_line (start 5 0.25) (end 9.2 0.25) (layer F.Fab) (width 0.1))
  (fp_line (start -0.25 1.75) (end 3.5 1.75) (layer F.Fab) (width 0.1))
  (fp_line (start -0.25 1.75) (end -0.25 2.25) (layer F.Fab) (width 0.1))
  (fp_line (start -0.25 2.25) (end 3.5 2.25) (layer F.Fab) (width 0.1))
  (fp_line (start 5 1.75) (end 9.2 1.75) (layer F.Fab) (width 0.1))
  (fp_line (start 9.2 1.75) (end 9.2 2.25) (layer F.Fab) (width 0.1))
  (fp_line (start 5 2.25) (end 9.2 2.25) (layer F.Fab) (width 0.1))
  (fp_line (start -0.25 3.75) (end 3.5 3.75) (layer F.Fab) (width 0.1))
  (fp_line (start -0.25 3.75) (end -0.25 4.25) (layer F.Fab) (width 0.1))
  (fp_line (start -0.25 4.25) (end 3.5 4.25) (layer F.Fab) (width 0.1))
  (fp_line (start 5 3.75) (end 9.2 3.75) (layer F.Fab) (width 0.1))
  (fp_line (start 9.2 3.75) (end 9.2 4.25) (layer F.Fab) (width 0.1))
  (fp_line (start 5 4.25) (end 9.2 4.25) (layer F.Fab) (width 0.1))
  (fp_line (start -0.25 5.75) (end 3.5 5.75) (layer F.Fab) (width 0.1))
  (fp_line (start -0.25 5.75) (end -0.25 6.25) (layer F.Fab) (width 0.1))
  (fp_line (start -0.25 6.25) (end 3.5 6.25) (layer F.Fab) (width 0.1))
  (fp_line (start 5 5.75) (end 9.2 5.75) (layer F.Fab) (width 0.1))
  (fp_line (start 9.2 5.75) (end 9.2 6.25) (layer F.Fab) (width 0.1))
  (fp_line (start 5 6.25) (end 9.2 6.25) (layer F.Fab) (width 0.1))
  (fp_line (start -0.25 7.75) (end 3.5 7.75) (layer F.Fab) (width 0.1))
  (fp_line (start -0.25 7.75) (end -0.25 8.25) (layer F.Fab) (width 0.1))
  (fp_line (start -0.25 8.25) (end 3.5 8.25) (layer F.Fab) (width 0.1))
  (fp_line (start 5 7.75) (end 9.2 7.75) (layer F.Fab) (width 0.1))
  (fp_line (start 9.2 7.75) (end 9.2 8.25) (layer F.Fab) (width 0.1))
  (fp_line (start 5 8.25) (end 9.2 8.25) (layer F.Fab) (width 0.1))
  (fp_line (start -0.25 9.75) (end 3.5 9.75) (layer F.Fab) (width 0.1))
  (fp_line (start -0.25 9.75) (end -0.25 10.25) (layer F.Fab) (width 0.1))
  (fp_line (start -0.25 10.25) (end 3.5 10.25) (layer F.Fab) (width 0.1))
  (fp_line (start 5 9.75) (end 9.2 9.75) (layer F.Fab) (width 0.1))
  (fp_line (start 9.2 9.75) (end 9.2 10.25) (layer F.Fab) (width 0.1))
  (fp_line (start 5 10.25) (end 9.2 10.25) (layer F.Fab) (width 0.1))
  (fp_line (start -0.25 11.75) (end 3.5 11.75) (layer F.Fab) (width 0.1))
  (fp_line (start -0.25 11.75) (end -0.25 12.25) (layer F.Fab) (width 0.1))
  (fp_line (start -0.25 12.25) (end 3.5 12.25) (layer F.Fab) (width 0.1))
  (fp_line (start 5 11.75) (end 9.2 11.75) (layer F.Fab) (width 0.1))
  (fp_line (start 9.2 11.75) (end 9.2 12.25) (layer F.Fab) (width 0.1))
  (fp_line (start 5 12.25) (end 9.2 12.25) (layer F.Fab) (width 0.1))
  (fp_line (start -0.25 13.75) (end 3.5 13.75) (layer F.Fab) (width 0.1))
  (fp_line (start -0.25 13.75) (end -0.25 14.25) (layer F.Fab) (width 0.1))
  (fp_line (start -0.25 14.25) (end 3.5 14.25) (layer F.Fab) (width 0.1))
  (fp_line (start 5 13.75) (end 9.2 13.75) (layer F.Fab) (width 0.1))
  (fp_line (start 9.2 13.75) (end 9.2 14.25) (layer F.Fab) (width 0.1))
  (fp_line (start 5 14.25) (end 9.2 14.25) (layer F.Fab) (width 0.1))
  (fp_line (start -0.25 15.75) (end 3.5 15.75) (layer F.Fab) (width 0.1))
  (fp_line (start -0.25 15.75) (end -0.25 16.25) (layer F.Fab) (width 0.1))
  (fp_line (start -0.25 16.25) (end 3.5 16.25) (layer F.Fab) (width 0.1))
  (fp_line (start 5 15.75) (end 9.2 15.75) (layer F.Fab) (width 0.1))
  (fp_line (start 9.2 15.75) (end 9.2 16.25) (layer F.Fab) (width 0.1))
  (fp_line (start 5 16.25) (end 9.2 16.25) (layer F.Fab) (width 0.1))
  (fp_line (start -0.25 17.75) (end 3.5 17.75) (layer F.Fab) (width 0.1))
  (fp_line (start -0.25 17.75) (end -0.25 18.25) (layer F.Fab) (width 0.1))
  (fp_line (start -0.25 18.25) (end 3.5 18.25) (layer F.Fab) (width 0.1))
  (fp_line (start 5 17.75) (end 9.2 17.75) (layer F.Fab) (width 0.1))
  (fp_line (start 9.2 17.75) (end 9.2 18.25) (layer F.Fab) (width 0.1))
  (fp_line (start 5 18.25) (end 9.2 18.25) (layer F.Fab) (width 0.1))
  (fp_line (start -0.25 19.75) (end 3.5 19.75) (layer F.Fab) (width 0.1))
  (fp_line (start -0.25 19.75) (end -0.25 20.25) (layer F.Fab) (width 0.1))
  (fp_line (start -0.25 20.25) (end 3.5 20.25) (layer F.Fab) (width 0.1))
  (fp_line (start 5 19.75) (end 9.2 19.75) (layer F.Fab) (width 0.1))
  (fp_line (start 9.2 19.75) (end 9.2 20.25) (layer F.Fab) (width 0.1))
  (fp_line (start 5 20.25) (end 9.2 20.25) (layer F.Fab) (width 0.1))
  (fp_line (start -0.25 21.75) (end 3.5 21.75) (layer F.Fab) (width 0.1))
  (fp_line (start -0.25 21.75) (end -0.25 22.25) (layer F.Fab) (width 0.1))
  (fp_line (start -0.25 22.25) (end 3.5 22.25) (layer F.Fab) (width 0.1))
  (fp_line (start 5 21.75) (end 9.2 21.75) (layer F.Fab) (width 0.1))
  (fp_line (start 9.2 21.75) (end 9.2 22.25) (layer F.Fab) (width 0.1))
  (fp_line (start 5 22.25) (end 9.2 22.25) (layer F.Fab) (width 0.1))
  (fp_line (start -0.25 23.75) (end 3.5 23.75) (layer F.Fab) (width 0.1))
  (fp_line (start -0.25 23.75) (end -0.25 24.25) (layer F.Fab) (width 0.1))
  (fp_line (start -0.25 24.25) (end 3.5 24.25) (layer F.Fab) (width 0.1))
  (fp_line (start 5 23.75) (end 9.2 23.75) (layer F.Fab) (width 0.1))
  (fp_line (start 9.2 23.75) (end 9.2 24.25) (layer F.Fab) (width 0.1))
  (fp_line (start 5 24.25) (end 9.2 24.25) (layer F.Fab) (width 0.1))
  (fp_line (start -0.25 25.75) (end 3.5 25.75) (layer F.Fab) (width 0.1))
  (fp_line (start -0.25 25.75) (end -0.25 26.25) (layer F.Fab) (width 0.1))
  (fp_line (start -0.25 26.25) (end 3.5 26.25) (layer F.Fab) (width 0.1))
  (fp_line (start 5 25.75) (end 9.2 25.75) (layer F.Fab) (width 0.1))
  (fp_line (start 9.2 25.75) (end 9.2 26.25) (layer F.Fab) (width 0.1))
  (fp_line (start 5 26.25) (end 9.2 26.25) (layer F.Fab) (width 0.1))
  (fp_line (start -0.25 27.75) (end 3.5 27.75) (layer F.Fab) (width 0.1))
  (fp_line (start -0.25 27.75) (end -0.25 28.25) (layer F.Fab) (width 0.1))
  (fp_line (start -0.25 28.25) (end 3.5 28.25) (layer F.Fab) (width 0.1))
  (fp_line (start 5 27.75) (end 9.2 27.75) (layer F.Fab) (width 0.1))
  (fp_line (start 9.2 27.75) (end 9.2 28.25) (layer F.Fab) (width 0.1))
  (fp_line (start 5 28.25) (end 9.2 28.25) (layer F.Fab) (width 0.1))
  (fp_line (start -0.25 29.75) (end 3.5 29.75) (layer F.Fab) (width 0.1))
  (fp_line (start -0.25 29.75) (end -0.25 30.25) (layer F.Fab) (width 0.1))
  (fp_line (start -0.25 30.25) (end 3.5 30.25) (layer F.Fab) (width 0.1))
  (fp_line (start 5 29.75) (end 9.2 29.75) (layer F.Fab) (width 0.1))
  (fp_line (start 9.2 29.75) (end 9.2 30.25) (layer F.Fab) (width 0.1))
  (fp_line (start 5 30.25) (end 9.2 30.25) (layer F.Fab) (width 0.1))
  (fp_line (start -0.25 31.75) (end 3.5 31.75) (layer F.Fab) (width 0.1))
  (fp_line (start -0.25 31.75) (end -0.25 32.25) (layer F.Fab) (width 0.1))
  (fp_line (start -0.25 32.25) (end 3.5 32.25) (layer F.Fab) (width 0.1))
  (fp_line (start 5 31.75) (end 9.2 31.75) (layer F.Fab) (width 0.1))
  (fp_line (start 9.2 31.75) (end 9.2 32.25) (layer F.Fab) (width 0.1))
  (fp_line (start 5 32.25) (end 9.2 32.25) (layer F.Fab) (width 0.1))
  (fp_line (start -0.25 33.75) (end 3.5 33.75) (layer F.Fab) (width 0.1))
  (fp_line (start -0.25 33.75) (end -0.25 34.25) (layer F.Fab) (width 0.1))
  (fp_line (start -0.25 34.25) (end 3.5 34.25) (layer F.Fab) (width 0.1))
  (fp_line (start 5 33.75) (end 9.2 33.75) (layer F.Fab) (width 0.1))
  (fp_line (start 9.2 33.75) (end 9.2 34.25) (layer F.Fab) (width 0.1))
  (fp_line (start 5 34.25) (end 9.2 34.25) (layer F.Fab) (width 0.1))
  (fp_line (start -0.25 35.75) (end 3.5 35.75) (layer F.Fab) (width 0.1))
  (fp_line (start -0.25 35.75) (end -0.25 36.25) (layer F.Fab) (width 0.1))
  (fp_line (start -0.25 36.25) (end 3.5 36.25) (layer F.Fab) (width 0.1))
  (fp_line (start 5 35.75) (end 9.2 35.75) (layer F.Fab) (width 0.1))
  (fp_line (start 9.2 35.75) (end 9.2 36.25) (layer F.Fab) (width 0.1))
  (fp_line (start 5 36.25) (end 9.2 36.25) (layer F.Fab) (width 0.1))
  (fp_line (start -0.25 37.75) (end 3.5 37.75) (layer F.Fab) (width 0.1))
  (fp_line (start -0.25 37.75) (end -0.25 38.25) (layer F.Fab) (width 0.1))
  (fp_line (start -0.25 38.25) (end 3.5 38.25) (layer F.Fab) (width 0.1))
  (fp_line (start 5 37.75) (end 9.2 37.75) (layer F.Fab) (width 0.1))
  (fp_line (start 9.2 37.75) (end 9.2 38.25) (layer F.Fab) (width 0.1))
  (fp_line (start 5 38.25) (end 9.2 38.25) (layer F.Fab) (width 0.1))
  (fp_line (start -0.25 39.75) (end 3.5 39.75) (layer F.Fab) (width 0.1))
  (fp_line (start -0.25 39.75) (end -0.25 40.25) (layer F.Fab) (width 0.1))
  (fp_line (start -0.25 40.25) (end 3.5 40.25) (layer F.Fab) (width 0.1))
  (fp_line (start 5 39.75) (end 9.2 39.75) (layer F.Fab) (width 0.1))
  (fp_line (start 9.2 39.75) (end 9.2 40.25) (layer F.Fab) (width 0.1))
  (fp_line (start 5 40.25) (end 9.2 40.25) (layer F.Fab) (width 0.1))
  (fp_line (start -0.25 41.75) (end 3.5 41.75) (layer F.Fab) (width 0.1))
  (fp_line (start -0.25 41.75) (end -0.25 42.25) (layer F.Fab) (width 0.1))
  (fp_line (start -0.25 42.25) (end 3.5 42.25) (layer F.Fab) (width 0.1))
  (fp_line (start 5 41.75) (end 9.2 41.75) (layer F.Fab) (width 0.1))
  (fp_line (start 9.2 41.75) (end 9.2 42.25) (layer F.Fab) (width 0.1))
  (fp_line (start 5 42.25) (end 9.2 42.25) (layer F.Fab) (width 0.1))
  (fp_line (start -0.25 43.75) (end 3.5 43.75) (layer F.Fab) (width 0.1))
  (fp_line (start -0.25 43.75) (end -0.25 44.25) (layer F.Fab) (width 0.1))
  (fp_line (start -0.25 44.25) (end 3.5 44.25) (layer F.Fab) (width 0.1))
  (fp_line (start 5 43.75) (end 9.2 43.75) (layer F.Fab) (width 0.1))
  (fp_line (start 9.2 43.75) (end 9.2 44.25) (layer F.Fab) (width 0.1))
  (fp_line (start 5 44.25) (end 9.2 44.25) (layer F.Fab) (width 0.1))
  (fp_line (start -0.25 45.75) (end 3.5 45.75) (layer F.Fab) (width 0.1))
  (fp_line (start -0.25 45.75) (end -0.25 46.25) (layer F.Fab) (width 0.1))
  (fp_line (start -0.25 46.25) (end 3.5 46.25) (layer F.Fab) (width 0.1))
  (fp_line (start 5 45.75) (end 9.2 45.75) (layer F.Fab) (width 0.1))
  (fp_line (start 9.2 45.75) (end 9.2 46.25) (layer F.Fab) (width 0.1))
  (fp_line (start 5 46.25) (end 9.2 46.25) (layer F.Fab) (width 0.1))
  (fp_line (start -0.25 47.75) (end 3.5 47.75) (layer F.Fab) (width 0.1))
  (fp_line (start -0.25 47.75) (end -0.25 48.25) (layer F.Fab) (width 0.1))
  (fp_line (start -0.25 48.25) (end 3.5 48.25) (layer F.Fab) (width 0.1))
  (fp_line (start 5 47.75) (end 9.2 47.75) (layer F.Fab) (width 0.1))
  (fp_line (start 9.2 47.75) (end 9.2 48.25) (layer F.Fab) (width 0.1))
  (fp_line (start 5 48.25) (end 9.2 48.25) (layer F.Fab) (width 0.1))
  (fp_line (start -0.25 49.75) (end 3.5 49.75) (layer F.Fab) (width 0.1))
  (fp_line (start -0.25 49.75) (end -0.25 50.25) (layer F.Fab) (width 0.1))
  (fp_line (start -0.25 50.25) (end 3.5 50.25) (layer F.Fab) (width 0.1))
  (fp_line (start 5 49.75) (end 9.2 49.75) (layer F.Fab) (width 0.1))
  (fp_line (start 9.2 49.75) (end 9.2 50.25) (layer F.Fab) (width 0.1))
  (fp_line (start 5 50.25) (end 9.2 50.25) (layer F.Fab) (width 0.1))
  (fp_line (start -0.25 51.75) (end 3.5 51.75) (layer F.Fab) (width 0.1))
  (fp_line (start -0.25 51.75) (end -0.25 52.25) (layer F.Fab) (width 0.1))
  (fp_line (start -0.25 52.25) (end 3.5 52.25) (layer F.Fab) (width 0.1))
  (fp_line (start 5 51.75) (end 9.2 51.75) (layer F.Fab) (width 0.1))
  (fp_line (start 9.2 51.75) (end 9.2 52.25) (layer F.Fab) (width 0.1))
  (fp_line (start 5 52.25) (end 9.2 52.25) (layer F.Fab) (width 0.1))
  (fp_line (start -0.25 53.75) (end 3.5 53.75) (layer F.Fab) (width 0.1))
  (fp_line (start -0.25 53.75) (end -0.25 54.25) (layer F.Fab) (width 0.1))
  (fp_line (start -0.25 54.25) (end 3.5 54.25) (layer F.Fab) (width 0.1))
  (fp_line (start 5 53.75) (end 9.2 53.75) (layer F.Fab) (width 0.1))
  (fp_line (start 9.2 53.75) (end 9.2 54.25) (layer F.Fab) (width 0.1))
  (fp_line (start 5 54.25) (end 9.2 54.25) (layer F.Fab) (width 0.1))
  (fp_line (start 3.44 -1.06) (end 3.44 55.06) (layer F.SilkS) (width 0.12))
  (fp_line (start 3.44 55.06) (end 5.06 55.06) (layer F.SilkS) (width 0.12))
  (fp_line (start 5.06 55.06) (end 5.06 -1.06) (layer F.SilkS) (width 0.12))
  (fp_line (start 5.06 -1.06) (end 3.44 -1.06) (layer F.SilkS) (width 0.12))
  (fp_line (start 5.06 -0.31) (end 9.26 -0.31) (layer F.SilkS) (width 0.12))
  (fp_line (start 9.26 -0.31) (end 9.26 0.31) (layer F.SilkS) (width 0.12))
  (fp_line (start 9.26 0.31) (end 5.06 0.31) (layer F.SilkS) (width 0.12))
  (fp_line (start 5.06 -0.25) (end 9.26 -0.25) (layer F.SilkS) (width 0.12))
  (fp_line (start 5.06 -0.13) (end 9.26 -0.13) (layer F.SilkS) (width 0.12))
  (fp_line (start 5.06 -0.01) (end 9.26 -0.01) (layer F.SilkS) (width 0.12))
  (fp_line (start 5.06 0.11) (end 9.26 0.11) (layer F.SilkS) (width 0.12))
  (fp_line (start 5.06 0.23) (end 9.26 0.23) (layer F.SilkS) (width 0.12))
  (fp_line (start 2.882114 -0.31) (end 3.44 -0.31) (layer F.SilkS) (width 0.12))
  (fp_line (start 2.882114 0.31) (end 3.44 0.31) (layer F.SilkS) (width 0.12))
  (fp_line (start 0.935 -0.31) (end 1.117886 -0.31) (layer F.SilkS) (width 0.12))
  (fp_line (start 0.935 0.31) (end 1.117886 0.31) (layer F.SilkS) (width 0.12))
  (fp_line (start 3.44 1) (end 5.06 1) (layer F.SilkS) (width 0.12))
  (fp_line (start 5.06 1.69) (end 9.26 1.69) (layer F.SilkS) (width 0.12))
  (fp_line (start 9.26 1.69) (end 9.26 2.31) (layer F.SilkS) (width 0.12))
  (fp_line (start 9.26 2.31) (end 5.06 2.31) (layer F.SilkS) (width 0.12))
  (fp_line (start 2.882114 1.69) (end 3.44 1.69) (layer F.SilkS) (width 0.12))
  (fp_line (start 2.882114 2.31) (end 3.44 2.31) (layer F.SilkS) (width 0.12))
  (fp_line (start 0.882114 1.69) (end 1.117886 1.69) (layer F.SilkS) (width 0.12))
  (fp_line (start 0.882114 2.31) (end 1.117886 2.31) (layer F.SilkS) (width 0.12))
  (fp_line (start 3.44 3) (end 5.06 3) (layer F.SilkS) (width 0.12))
  (fp_line (start 5.06 3.69) (end 9.26 3.69) (layer F.SilkS) (width 0.12))
  (fp_line (start 9.26 3.69) (end 9.26 4.31) (layer F.SilkS) (width 0.12))
  (fp_line (start 9.26 4.31) (end 5.06 4.31) (layer F.SilkS) (width 0.12))
  (fp_line (start 2.882114 3.69) (end 3.44 3.69) (layer F.SilkS) (width 0.12))
  (fp_line (start 2.882114 4.31) (end 3.44 4.31) (layer F.SilkS) (width 0.12))
  (fp_line (start 0.882114 3.69) (end 1.117886 3.69) (layer F.SilkS) (width 0.12))
  (fp_line (start 0.882114 4.31) (end 1.117886 4.31) (layer F.SilkS) (width 0.12))
  (fp_line (start 3.44 5) (end 5.06 5) (layer F.SilkS) (width 0.12))
  (fp_line (start 5.06 5.69) (end 9.26 5.69) (layer F.SilkS) (width 0.12))
  (fp_line (start 9.26 5.69) (end 9.26 6.31) (layer F.SilkS) (width 0.12))
  (fp_line (start 9.26 6.31) (end 5.06 6.31) (layer F.SilkS) (width 0.12))
  (fp_line (start 2.882114 5.69) (end 3.44 5.69) (layer F.SilkS) (width 0.12))
  (fp_line (start 2.882114 6.31) (end 3.44 6.31) (layer F.SilkS) (width 0.12))
  (fp_line (start 0.882114 5.69) (end 1.117886 5.69) (layer F.SilkS) (width 0.12))
  (fp_line (start 0.882114 6.31) (end 1.117886 6.31) (layer F.SilkS) (width 0.12))
  (fp_line (start 3.44 7) (end 5.06 7) (layer F.SilkS) (width 0.12))
  (fp_line (start 5.06 7.69) (end 9.26 7.69) (layer F.SilkS) (width 0.12))
  (fp_line (start 9.26 7.69) (end 9.26 8.31) (layer F.SilkS) (width 0.12))
  (fp_line (start 9.26 8.31) (end 5.06 8.31) (layer F.SilkS) (width 0.12))
  (fp_line (start 2.882114 7.69) (end 3.44 7.69) (layer F.SilkS) (width 0.12))
  (fp_line (start 2.882114 8.31) (end 3.44 8.31) (layer F.SilkS) (width 0.12))
  (fp_line (start 0.882114 7.69) (end 1.117886 7.69) (layer F.SilkS) (width 0.12))
  (fp_line (start 0.882114 8.31) (end 1.117886 8.31) (layer F.SilkS) (width 0.12))
  (fp_line (start 3.44 9) (end 5.06 9) (layer F.SilkS) (width 0.12))
  (fp_line (start 5.06 9.69) (end 9.26 9.69) (layer F.SilkS) (width 0.12))
  (fp_line (start 9.26 9.69) (end 9.26 10.31) (layer F.SilkS) (width 0.12))
  (fp_line (start 9.26 10.31) (end 5.06 10.31) (layer F.SilkS) (width 0.12))
  (fp_line (start 2.882114 9.69) (end 3.44 9.69) (layer F.SilkS) (width 0.12))
  (fp_line (start 2.882114 10.31) (end 3.44 10.31) (layer F.SilkS) (width 0.12))
  (fp_line (start 0.882114 9.69) (end 1.117886 9.69) (layer F.SilkS) (width 0.12))
  (fp_line (start 0.882114 10.31) (end 1.117886 10.31) (layer F.SilkS) (width 0.12))
  (fp_line (start 3.44 11) (end 5.06 11) (layer F.SilkS) (width 0.12))
  (fp_line (start 5.06 11.69) (end 9.26 11.69) (layer F.SilkS) (width 0.12))
  (fp_line (start 9.26 11.69) (end 9.26 12.31) (layer F.SilkS) (width 0.12))
  (fp_line (start 9.26 12.31) (end 5.06 12.31) (layer F.SilkS) (width 0.12))
  (fp_line (start 2.882114 11.69) (end 3.44 11.69) (layer F.SilkS) (width 0.12))
  (fp_line (start 2.882114 12.31) (end 3.44 12.31) (layer F.SilkS) (width 0.12))
  (fp_line (start 0.882114 11.69) (end 1.117886 11.69) (layer F.SilkS) (width 0.12))
  (fp_line (start 0.882114 12.31) (end 1.117886 12.31) (layer F.SilkS) (width 0.12))
  (fp_line (start 3.44 13) (end 5.06 13) (layer F.SilkS) (width 0.12))
  (fp_line (start 5.06 13.69) (end 9.26 13.69) (layer F.SilkS) (width 0.12))
  (fp_line (start 9.26 13.69) (end 9.26 14.31) (layer F.SilkS) (width 0.12))
  (fp_line (start 9.26 14.31) (end 5.06 14.31) (layer F.SilkS) (width 0.12))
  (fp_line (start 2.882114 13.69) (end 3.44 13.69) (layer F.SilkS) (width 0.12))
  (fp_line (start 2.882114 14.31) (end 3.44 14.31) (layer F.SilkS) (width 0.12))
  (fp_line (start 0.882114 13.69) (end 1.117886 13.69) (layer F.SilkS) (width 0.12))
  (fp_line (start 0.882114 14.31) (end 1.117886 14.31) (layer F.SilkS) (width 0.12))
  (fp_line (start 3.44 15) (end 5.06 15) (layer F.SilkS) (width 0.12))
  (fp_line (start 5.06 15.69) (end 9.26 15.69) (layer F.SilkS) (width 0.12))
  (fp_line (start 9.26 15.69) (end 9.26 16.31) (layer F.SilkS) (width 0.12))
  (fp_line (start 9.26 16.31) (end 5.06 16.31) (layer F.SilkS) (width 0.12))
  (fp_line (start 2.882114 15.69) (end 3.44 15.69) (layer F.SilkS) (width 0.12))
  (fp_line (start 2.882114 16.31) (end 3.44 16.31) (layer F.SilkS) (width 0.12))
  (fp_line (start 0.882114 15.69) (end 1.117886 15.69) (layer F.SilkS) (width 0.12))
  (fp_line (start 0.882114 16.31) (end 1.117886 16.31) (layer F.SilkS) (width 0.12))
  (fp_line (start 3.44 17) (end 5.06 17) (layer F.SilkS) (width 0.12))
  (fp_line (start 5.06 17.69) (end 9.26 17.69) (layer F.SilkS) (width 0.12))
  (fp_line (start 9.26 17.69) (end 9.26 18.31) (layer F.SilkS) (width 0.12))
  (fp_line (start 9.26 18.31) (end 5.06 18.31) (layer F.SilkS) (width 0.12))
  (fp_line (start 2.882114 17.69) (end 3.44 17.69) (layer F.SilkS) (width 0.12))
  (fp_line (start 2.882114 18.31) (end 3.44 18.31) (layer F.SilkS) (width 0.12))
  (fp_line (start 0.882114 17.69) (end 1.117886 17.69) (layer F.SilkS) (width 0.12))
  (fp_line (start 0.882114 18.31) (end 1.117886 18.31) (layer F.SilkS) (width 0.12))
  (fp_line (start 3.44 19) (end 5.06 19) (layer F.SilkS) (width 0.12))
  (fp_line (start 5.06 19.69) (end 9.26 19.69) (layer F.SilkS) (width 0.12))
  (fp_line (start 9.26 19.69) (end 9.26 20.31) (layer F.SilkS) (width 0.12))
  (fp_line (start 9.26 20.31) (end 5.06 20.31) (layer F.SilkS) (width 0.12))
  (fp_line (start 2.882114 19.69) (end 3.44 19.69) (layer F.SilkS) (width 0.12))
  (fp_line (start 2.882114 20.31) (end 3.44 20.31) (layer F.SilkS) (width 0.12))
  (fp_line (start 0.882114 19.69) (end 1.117886 19.69) (layer F.SilkS) (width 0.12))
  (fp_line (start 0.882114 20.31) (end 1.117886 20.31) (layer F.SilkS) (width 0.12))
  (fp_line (start 3.44 21) (end 5.06 21) (layer F.SilkS) (width 0.12))
  (fp_line (start 5.06 21.69) (end 9.26 21.69) (layer F.SilkS) (width 0.12))
  (fp_line (start 9.26 21.69) (end 9.26 22.31) (layer F.SilkS) (width 0.12))
  (fp_line (start 9.26 22.31) (end 5.06 22.31) (layer F.SilkS) (width 0.12))
  (fp_line (start 2.882114 21.69) (end 3.44 21.69) (layer F.SilkS) (width 0.12))
  (fp_line (start 2.882114 22.31) (end 3.44 22.31) (layer F.SilkS) (width 0.12))
  (fp_line (start 0.882114 21.69) (end 1.117886 21.69) (layer F.SilkS) (width 0.12))
  (fp_line (start 0.882114 22.31) (end 1.117886 22.31) (layer F.SilkS) (width 0.12))
  (fp_line (start 3.44 23) (end 5.06 23) (layer F.SilkS) (width 0.12))
  (fp_line (start 5.06 23.69) (end 9.26 23.69) (layer F.SilkS) (width 0.12))
  (fp_line (start 9.26 23.69) (end 9.26 24.31) (layer F.SilkS) (width 0.12))
  (fp_line (start 9.26 24.31) (end 5.06 24.31) (layer F.SilkS) (width 0.12))
  (fp_line (start 2.882114 23.69) (end 3.44 23.69) (layer F.SilkS) (width 0.12))
  (fp_line (start 2.882114 24.31) (end 3.44 24.31) (layer F.SilkS) (width 0.12))
  (fp_line (start 0.882114 23.69) (end 1.117886 23.69) (layer F.SilkS) (width 0.12))
  (fp_line (start 0.882114 24.31) (end 1.117886 24.31) (layer F.SilkS) (width 0.12))
  (fp_line (start 3.44 25) (end 5.06 25) (layer F.SilkS) (width 0.12))
  (fp_line (start 5.06 25.69) (end 9.26 25.69) (layer F.SilkS) (width 0.12))
  (fp_line (start 9.26 25.69) (end 9.26 26.31) (layer F.SilkS) (width 0.12))
  (fp_line (start 9.26 26.31) (end 5.06 26.31) (layer F.SilkS) (width 0.12))
  (fp_line (start 2.882114 25.69) (end 3.44 25.69) (layer F.SilkS) (width 0.12))
  (fp_line (start 2.882114 26.31) (end 3.44 26.31) (layer F.SilkS) (width 0.12))
  (fp_line (start 0.882114 25.69) (end 1.117886 25.69) (layer F.SilkS) (width 0.12))
  (fp_line (start 0.882114 26.31) (end 1.117886 26.31) (layer F.SilkS) (width 0.12))
  (fp_line (start 3.44 27) (end 5.06 27) (layer F.SilkS) (width 0.12))
  (fp_line (start 5.06 27.69) (end 9.26 27.69) (layer F.SilkS) (width 0.12))
  (fp_line (start 9.26 27.69) (end 9.26 28.31) (layer F.SilkS) (width 0.12))
  (fp_line (start 9.26 28.31) (end 5.06 28.31) (layer F.SilkS) (width 0.12))
  (fp_line (start 2.882114 27.69) (end 3.44 27.69) (layer F.SilkS) (width 0.12))
  (fp_line (start 2.882114 28.31) (end 3.44 28.31) (layer F.SilkS) (width 0.12))
  (fp_line (start 0.882114 27.69) (end 1.117886 27.69) (layer F.SilkS) (width 0.12))
  (fp_line (start 0.882114 28.31) (end 1.117886 28.31) (layer F.SilkS) (width 0.12))
  (fp_line (start 3.44 29) (end 5.06 29) (layer F.SilkS) (width 0.12))
  (fp_line (start 5.06 29.69) (end 9.26 29.69) (layer F.SilkS) (width 0.12))
  (fp_line (start 9.26 29.69) (end 9.26 30.31) (layer F.SilkS) (width 0.12))
  (fp_line (start 9.26 30.31) (end 5.06 30.31) (layer F.SilkS) (width 0.12))
  (fp_line (start 2.882114 29.69) (end 3.44 29.69) (layer F.SilkS) (width 0.12))
  (fp_line (start 2.882114 30.31) (end 3.44 30.31) (layer F.SilkS) (width 0.12))
  (fp_line (start 0.882114 29.69) (end 1.117886 29.69) (layer F.SilkS) (width 0.12))
  (fp_line (start 0.882114 30.31) (end 1.117886 30.31) (layer F.SilkS) (width 0.12))
  (fp_line (start 3.44 31) (end 5.06 31) (layer F.SilkS) (width 0.12))
  (fp_line (start 5.06 31.69) (end 9.26 31.69) (layer F.SilkS) (width 0.12))
  (fp_line (start 9.26 31.69) (end 9.26 32.31) (layer F.SilkS) (width 0.12))
  (fp_line (start 9.26 32.31) (end 5.06 32.31) (layer F.SilkS) (width 0.12))
  (fp_line (start 2.882114 31.69) (end 3.44 31.69) (layer F.SilkS) (width 0.12))
  (fp_line (start 2.882114 32.31) (end 3.44 32.31) (layer F.SilkS) (width 0.12))
  (fp_line (start 0.882114 31.69) (end 1.117886 31.69) (layer F.SilkS) (width 0.12))
  (fp_line (start 0.882114 32.31) (end 1.117886 32.31) (layer F.SilkS) (width 0.12))
  (fp_line (start 3.44 33) (end 5.06 33) (layer F.SilkS) (width 0.12))
  (fp_line (start 5.06 33.69) (end 9.26 33.69) (layer F.SilkS) (width 0.12))
  (fp_line (start 9.26 33.69) (end 9.26 34.31) (layer F.SilkS) (width 0.12))
  (fp_line (start 9.26 34.31) (end 5.06 34.31) (layer F.SilkS) (width 0.12))
  (fp_line (start 2.882114 33.69) (end 3.44 33.69) (layer F.SilkS) (width 0.12))
  (fp_line (start 2.882114 34.31) (end 3.44 34.31) (layer F.SilkS) (width 0.12))
  (fp_line (start 0.882114 33.69) (end 1.117886 33.69) (layer F.SilkS) (width 0.12))
  (fp_line (start 0.882114 34.31) (end 1.117886 34.31) (layer F.SilkS) (width 0.12))
  (fp_line (start 3.44 35) (end 5.06 35) (layer F.SilkS) (width 0.12))
  (fp_line (start 5.06 35.69) (end 9.26 35.69) (layer F.SilkS) (width 0.12))
  (fp_line (start 9.26 35.69) (end 9.26 36.31) (layer F.SilkS) (width 0.12))
  (fp_line (start 9.26 36.31) (end 5.06 36.31) (layer F.SilkS) (width 0.12))
  (fp_line (start 2.882114 35.69) (end 3.44 35.69) (layer F.SilkS) (width 0.12))
  (fp_line (start 2.882114 36.31) (end 3.44 36.31) (layer F.SilkS) (width 0.12))
  (fp_line (start 0.882114 35.69) (end 1.117886 35.69) (layer F.SilkS) (width 0.12))
  (fp_line (start 0.882114 36.31) (end 1.117886 36.31) (layer F.SilkS) (width 0.12))
  (fp_line (start 3.44 37) (end 5.06 37) (layer F.SilkS) (width 0.12))
  (fp_line (start 5.06 37.69) (end 9.26 37.69) (layer F.SilkS) (width 0.12))
  (fp_line (start 9.26 37.69) (end 9.26 38.31) (layer F.SilkS) (width 0.12))
  (fp_line (start 9.26 38.31) (end 5.06 38.31) (layer F.SilkS) (width 0.12))
  (fp_line (start 2.882114 37.69) (end 3.44 37.69) (layer F.SilkS) (width 0.12))
  (fp_line (start 2.882114 38.31) (end 3.44 38.31) (layer F.SilkS) (width 0.12))
  (fp_line (start 0.882114 37.69) (end 1.117886 37.69) (layer F.SilkS) (width 0.12))
  (fp_line (start 0.882114 38.31) (end 1.117886 38.31) (layer F.SilkS) (width 0.12))
  (fp_line (start 3.44 39) (end 5.06 39) (layer F.SilkS) (width 0.12))
  (fp_line (start 5.06 39.69) (end 9.26 39.69) (layer F.SilkS) (width 0.12))
  (fp_line (start 9.26 39.69) (end 9.26 40.31) (layer F.SilkS) (width 0.12))
  (fp_line (start 9.26 40.31) (end 5.06 40.31) (layer F.SilkS) (width 0.12))
  (fp_line (start 2.882114 39.69) (end 3.44 39.69) (layer F.SilkS) (width 0.12))
  (fp_line (start 2.882114 40.31) (end 3.44 40.31) (layer F.SilkS) (width 0.12))
  (fp_line (start 0.882114 39.69) (end 1.117886 39.69) (layer F.SilkS) (width 0.12))
  (fp_line (start 0.882114 40.31) (end 1.117886 40.31) (layer F.SilkS) (width 0.12))
  (fp_line (start 3.44 41) (end 5.06 41) (layer F.SilkS) (width 0.12))
  (fp_line (start 5.06 41.69) (end 9.26 41.69) (layer F.SilkS) (width 0.12))
  (fp_line (start 9.26 41.69) (end 9.26 42.31) (layer F.SilkS) (width 0.12))
  (fp_line (start 9.26 42.31) (end 5.06 42.31) (layer F.SilkS) (width 0.12))
  (fp_line (start 2.882114 41.69) (end 3.44 41.69) (layer F.SilkS) (width 0.12))
  (fp_line (start 2.882114 42.31) (end 3.44 42.31) (layer F.SilkS) (width 0.12))
  (fp_line (start 0.882114 41.69) (end 1.117886 41.69) (layer F.SilkS) (width 0.12))
  (fp_line (start 0.882114 42.31) (end 1.117886 42.31) (layer F.SilkS) (width 0.12))
  (fp_line (start 3.44 43) (end 5.06 43) (layer F.SilkS) (width 0.12))
  (fp_line (start 5.06 43.69) (end 9.26 43.69) (layer F.SilkS) (width 0.12))
  (fp_line (start 9.26 43.69) (end 9.26 44.31) (layer F.SilkS) (width 0.12))
  (fp_line (start 9.26 44.31) (end 5.06 44.31) (layer F.SilkS) (width 0.12))
  (fp_line (start 2.882114 43.69) (end 3.44 43.69) (layer F.SilkS) (width 0.12))
  (fp_line (start 2.882114 44.31) (end 3.44 44.31) (layer F.SilkS) (width 0.12))
  (fp_line (start 0.882114 43.69) (end 1.117886 43.69) (layer F.SilkS) (width 0.12))
  (fp_line (start 0.882114 44.31) (end 1.117886 44.31) (layer F.SilkS) (width 0.12))
  (fp_line (start 3.44 45) (end 5.06 45) (layer F.SilkS) (width 0.12))
  (fp_line (start 5.06 45.69) (end 9.26 45.69) (layer F.SilkS) (width 0.12))
  (fp_line (start 9.26 45.69) (end 9.26 46.31) (layer F.SilkS) (width 0.12))
  (fp_line (start 9.26 46.31) (end 5.06 46.31) (layer F.SilkS) (width 0.12))
  (fp_line (start 2.882114 45.69) (end 3.44 45.69) (layer F.SilkS) (width 0.12))
  (fp_line (start 2.882114 46.31) (end 3.44 46.31) (layer F.SilkS) (width 0.12))
  (fp_line (start 0.882114 45.69) (end 1.117886 45.69) (layer F.SilkS) (width 0.12))
  (fp_line (start 0.882114 46.31) (end 1.117886 46.31) (layer F.SilkS) (width 0.12))
  (fp_line (start 3.44 47) (end 5.06 47) (layer F.SilkS) (width 0.12))
  (fp_line (start 5.06 47.69) (end 9.26 47.69) (layer F.SilkS) (width 0.12))
  (fp_line (start 9.26 47.69) (end 9.26 48.31) (layer F.SilkS) (width 0.12))
  (fp_line (start 9.26 48.31) (end 5.06 48.31) (layer F.SilkS) (width 0.12))
  (fp_line (start 2.882114 47.69) (end 3.44 47.69) (layer F.SilkS) (width 0.12))
  (fp_line (start 2.882114 48.31) (end 3.44 48.31) (layer F.SilkS) (width 0.12))
  (fp_line (start 0.882114 47.69) (end 1.117886 47.69) (layer F.SilkS) (width 0.12))
  (fp_line (start 0.882114 48.31) (end 1.117886 48.31) (layer F.SilkS) (width 0.12))
  (fp_line (start 3.44 49) (end 5.06 49) (layer F.SilkS) (width 0.12))
  (fp_line (start 5.06 49.69) (end 9.26 49.69) (layer F.SilkS) (width 0.12))
  (fp_line (start 9.26 49.69) (end 9.26 50.31) (layer F.SilkS) (width 0.12))
  (fp_line (start 9.26 50.31) (end 5.06 50.31) (layer F.SilkS) (width 0.12))
  (fp_line (start 2.882114 49.69) (end 3.44 49.69) (layer F.SilkS) (width 0.12))
  (fp_line (start 2.882114 50.31) (end 3.44 50.31) (layer F.SilkS) (width 0.12))
  (fp_line (start 0.882114 49.69) (end 1.117886 49.69) (layer F.SilkS) (width 0.12))
  (fp_line (start 0.882114 50.31) (end 1.117886 50.31) (layer F.SilkS) (width 0.12))
  (fp_line (start 3.44 51) (end 5.06 51) (layer F.SilkS) (width 0.12))
  (fp_line (start 5.06 51.69) (end 9.26 51.69) (layer F.SilkS) (width 0.12))
  (fp_line (start 9.26 51.69) (end 9.26 52.31) (layer F.SilkS) (width 0.12))
  (fp_line (start 9.26 52.31) (end 5.06 52.31) (layer F.SilkS) (width 0.12))
  (fp_line (start 2.882114 51.69) (end 3.44 51.69) (layer F.SilkS) (width 0.12))
  (fp_line (start 2.882114 52.31) (end 3.44 52.31) (layer F.SilkS) (width 0.12))
  (fp_line (start 0.882114 51.69) (end 1.117886 51.69) (layer F.SilkS) (width 0.12))
  (fp_line (start 0.882114 52.31) (end 1.117886 52.31) (layer F.SilkS) (width 0.12))
  (fp_line (start 3.44 53) (end 5.06 53) (layer F.SilkS) (width 0.12))
  (fp_line (start 5.06 53.69) (end 9.26 53.69) (layer F.SilkS) (width 0.12))
  (fp_line (start 9.26 53.69) (end 9.26 54.31) (layer F.SilkS) (width 0.12))
  (fp_line (start 9.26 54.31) (end 5.06 54.31) (layer F.SilkS) (width 0.12))
  (fp_line (start 2.882114 53.69) (end 3.44 53.69) (layer F.SilkS) (width 0.12))
  (fp_line (start 2.882114 54.31) (end 3.44 54.31) (layer F.SilkS) (width 0.12))
  (fp_line (start 0.882114 53.69) (end 1.117886 53.69) (layer F.SilkS) (width 0.12))
  (fp_line (start 0.882114 54.31) (end 1.117886 54.31) (layer F.SilkS) (width 0.12))
  (fp_line (start -1 0) (end -1 -1) (layer F.SilkS) (width 0.12))
  (fp_line (start -1 -1) (end 0 -1) (layer F.SilkS) (width 0.12))
  (fp_line (start -1.5 -1.5) (end -1.5 55.5) (layer F.CrtYd) (width 0.05))
  (fp_line (start -1.5 55.5) (end 9.7 55.5) (layer F.CrtYd) (width 0.05))
  (fp_line (start 9.7 55.5) (end 9.7 -1.5) (layer F.CrtYd) (width 0.05))
  (fp_line (start 9.7 -1.5) (end -1.5 -1.5) (layer F.CrtYd) (width 0.05))
  (pad 1 thru_hole rect (at 0 0) (size 1.35 1.35) (drill 0.8) (layers *.Cu *.Mask))
  (pad 2 thru_hole oval (at 2 0) (size 1.35 1.35) (drill 0.8) (layers *.Cu *.Mask))
  (pad 3 thru_hole oval (at 0 2) (size 1.35 1.35) (drill 0.8) (layers *.Cu *.Mask))
  (pad 4 thru_hole oval (at 2 2) (size 1.35 1.35) (drill 0.8) (layers *.Cu *.Mask))
  (pad 5 thru_hole oval (at 0 4) (size 1.35 1.35) (drill 0.8) (layers *.Cu *.Mask))
  (pad 6 thru_hole oval (at 2 4) (size 1.35 1.35) (drill 0.8) (layers *.Cu *.Mask))
  (pad 7 thru_hole oval (at 0 6) (size 1.35 1.35) (drill 0.8) (layers *.Cu *.Mask))
  (pad 8 thru_hole oval (at 2 6) (size 1.35 1.35) (drill 0.8) (layers *.Cu *.Mask))
  (pad 9 thru_hole oval (at 0 8) (size 1.35 1.35) (drill 0.8) (layers *.Cu *.Mask))
  (pad 10 thru_hole oval (at 2 8) (size 1.35 1.35) (drill 0.8) (layers *.Cu *.Mask))
  (pad 11 thru_hole oval (at 0 10) (size 1.35 1.35) (drill 0.8) (layers *.Cu *.Mask))
  (pad 12 thru_hole oval (at 2 10) (size 1.35 1.35) (drill 0.8) (layers *.Cu *.Mask))
  (pad 13 thru_hole oval (at 0 12) (size 1.35 1.35) (drill 0.8) (layers *.Cu *.Mask))
  (pad 14 thru_hole oval (at 2 12) (size 1.35 1.35) (drill 0.8) (layers *.Cu *.Mask))
  (pad 15 thru_hole oval (at 0 14) (size 1.35 1.35) (drill 0.8) (layers *.Cu *.Mask))
  (pad 16 thru_hole oval (at 2 14) (size 1.35 1.35) (drill 0.8) (layers *.Cu *.Mask))
  (pad 17 thru_hole oval (at 0 16) (size 1.35 1.35) (drill 0.8) (layers *.Cu *.Mask))
  (pad 18 thru_hole oval (at 2 16) (size 1.35 1.35) (drill 0.8) (layers *.Cu *.Mask))
  (pad 19 thru_hole oval (at 0 18) (size 1.35 1.35) (drill 0.8) (layers *.Cu *.Mask))
  (pad 20 thru_hole oval (at 2 18) (size 1.35 1.35) (drill 0.8) (layers *.Cu *.Mask))
  (pad 21 thru_hole oval (at 0 20) (size 1.35 1.35) (drill 0.8) (layers *.Cu *.Mask))
  (pad 22 thru_hole oval (at 2 20) (size 1.35 1.35) (drill 0.8) (layers *.Cu *.Mask))
  (pad 23 thru_hole oval (at 0 22) (size 1.35 1.35) (drill 0.8) (layers *.Cu *.Mask))
  (pad 24 thru_hole oval (at 2 22) (size 1.35 1.35) (drill 0.8) (layers *.Cu *.Mask))
  (pad 25 thru_hole oval (at 0 24) (size 1.35 1.35) (drill 0.8) (layers *.Cu *.Mask))
  (pad 26 thru_hole oval (at 2 24) (size 1.35 1.35) (drill 0.8) (layers *.Cu *.Mask))
  (pad 27 thru_hole oval (at 0 26) (size 1.35 1.35) (drill 0.8) (layers *.Cu *.Mask))
  (pad 28 thru_hole oval (at 2 26) (size 1.35 1.35) (drill 0.8) (layers *.Cu *.Mask))
  (pad 29 thru_hole oval (at 0 28) (size 1.35 1.35) (drill 0.8) (layers *.Cu *.Mask))
  (pad 30 thru_hole oval (at 2 28) (size 1.35 1.35) (drill 0.8) (layers *.Cu *.Mask))
  (pad 31 thru_hole oval (at 0 30) (size 1.35 1.35) (drill 0.8) (layers *.Cu *.Mask))
  (pad 32 thru_hole oval (at 2 30) (size 1.35 1.35) (drill 0.8) (layers *.Cu *.Mask))
  (pad 33 thru_hole oval (at 0 32) (size 1.35 1.35) (drill 0.8) (layers *.Cu *.Mask))
  (pad 34 thru_hole oval (at 2 32) (size 1.35 1.35) (drill 0.8) (layers *.Cu *.Mask))
  (pad 35 thru_hole oval (at 0 34) (size 1.35 1.35) (drill 0.8) (layers *.Cu *.Mask))
  (pad 36 thru_hole oval (at 2 34) (size 1.35 1.35) (drill 0.8) (layers *.Cu *.Mask))
  (pad 37 thru_hole oval (at 0 36) (size 1.35 1.35) (drill 0.8) (layers *.Cu *.Mask))
  (pad 38 thru_hole oval (at 2 36) (size 1.35 1.35) (drill 0.8) (layers *.Cu *.Mask))
  (pad 39 thru_hole oval (at 0 38) (size 1.35 1.35) (drill 0.8) (layers *.Cu *.Mask))
  (pad 40 thru_hole oval (at 2 38) (size 1.35 1.35) (drill 0.8) (layers *.Cu *.Mask))
  (pad 41 thru_hole oval (at 0 40) (size 1.35 1.35) (drill 0.8) (layers *.Cu *.Mask))
  (pad 42 thru_hole oval (at 2 40) (size 1.35 1.35) (drill 0.8) (layers *.Cu *.Mask))
  (pad 43 thru_hole oval (at 0 42) (size 1.35 1.35) (drill 0.8) (layers *.Cu *.Mask))
  (pad 44 thru_hole oval (at 2 42) (size 1.35 1.35) (drill 0.8) (layers *.Cu *.Mask))
  (pad 45 thru_hole oval (at 0 44) (size 1.35 1.35) (drill 0.8) (layers *.Cu *.Mask))
  (pad 46 thru_hole oval (at 2 44) (size 1.35 1.35) (drill 0.8) (layers *.Cu *.Mask))
  (pad 47 thru_hole oval (at 0 46) (size 1.35 1.35) (drill 0.8) (layers *.Cu *.Mask))
  (pad 48 thru_hole oval (at 2 46) (size 1.35 1.35) (drill 0.8) (layers *.Cu *.Mask))
  (pad 49 thru_hole oval (at 0 48) (size 1.35 1.35) (drill 0.8) (layers *.Cu *.Mask))
  (pad 50 thru_hole oval (at 2 48) (size 1.35 1.35) (drill 0.8) (layers *.Cu *.Mask))
  (pad 51 thru_hole oval (at 0 50) (size 1.35 1.35) (drill 0.8) (layers *.Cu *.Mask))
  (pad 52 thru_hole oval (at 2 50) (size 1.35 1.35) (drill 0.8) (layers *.Cu *.Mask))
  (pad 53 thru_hole oval (at 0 52) (size 1.35 1.35) (drill 0.8) (layers *.Cu *.Mask))
  (pad 54 thru_hole oval (at 2 52) (size 1.35 1.35) (drill 0.8) (layers *.Cu *.Mask))
  (pad 55 thru_hole oval (at 0 54) (size 1.35 1.35) (drill 0.8) (layers *.Cu *.Mask))
  (pad 56 thru_hole oval (at 2 54) (size 1.35 1.35) (drill 0.8) (layers *.Cu *.Mask))
  (fp_text user %R (at 4.25 27 90) (layer F.Fab)
    (effects (font (size 0.9 0.9) (thickness 0.135)))
  )
  (model ${KICAD6_3DMODEL_DIR}/Connector_PinHeader_2.00mm.3dshapes/PinHeader_2x28_P2.00mm_Horizontal.wrl
    (at (xyz 0 0 0))
    (scale (xyz 1 1 1))
    (rotate (xyz 0 0 0))
  )
)