(module PinHeader_1x03_P2.00mm_Horizontal (layer F.Cu) (tedit 59FED667)
  (descr "Through hole angled pin header, 1x03, 2.00mm pitch, 4.2mm pin length, single row")
  (tags "Through hole angled pin header THT 1x03 2.00mm single row")
  (fp_text reference REF** (at 3.1 -2) (layer F.SilkS)
    (effects (font (size 1 1) (thickness 0.15)))
  )
  (fp_text value PinHeader_1x03_P2.00mm_Horizontal (at 3.1 6) (layer F.Fab)
    (effects (font (size 1 1) (thickness 0.15)))
  )
  (fp_line (start 1.875 -1) (end 3 -1) (layer F.Fab) (width 0.1))
  (fp_line (start 3 -1) (end 3 5) (layer F.Fab) (width 0.1))
  (fp_line (start 3 5) (end 1.5 5) (layer F.Fab) (width 0.1))
  (fp_line (start 1.5 5) (end 1.5 -0.625) (layer F.Fab) (width 0.1))
  (fp_line (start 1.5 -0.625) (end 1.875 -1) (layer F.Fab) (width 0.1))
  (fp_line (start -0.25 -0.25) (end 1.5 -0.25) (layer F.Fab) (width 0.1))
  (fp_line (start -0.25 -0.25) (end -0.25 0.25) (layer F.Fab) (width 0.1))
  (fp_line (start -0.25 0.25) (end 1.5 0.25) (layer F.Fab) (width 0.1))
  (fp_line (start 3 -0.25) (end 7.2 -0.25) (layer F.Fab) (width 0.1))
  (fp_line (start 7.2 -0.25) (end 7.2 0.25) (layer F.Fab) (width 0.1))
  (fp_line (start 3 0.25) (end 7.2 0.25) (layer F.Fab) (width 0.1))
  (fp_line (start -0.25 1.75) (end 1.5 1.75) (layer F.Fab) (width 0.1))
  (fp_line (start -0.25 1.75) (end -0.25 2.25) (layer F.Fab) (width 0.1))
  (fp_line (start -0.25 2.25) (end 1.5 2.25) (layer F.Fab) (width 0.1))
  (fp_line (start 3 1.75) (end 7.2 1.75) (layer F.Fab) (width 0.1))
  (fp_line (start 7.2 1.75) (end 7.2 2.25) (layer F.Fab) (width 0.1))
  (fp_line (start 3 2.25) (end 7.2 2.25) (layer F.Fab) (width 0.1))
  (fp_line (start -0.25 3.75) (end 1.5 3.75) (layer F.Fab) (width 0.1))
  (fp_line (start -0.25 3.75) (end -0.25 4.25) (layer F.Fab) (width 0.1))
  (fp_line (start -0.25 4.25) (end 1.5 4.25) (layer F.Fab) (width 0.1))
  (fp_line (start 3 3.75) (end 7.2 3.75) (layer F.Fab) (width 0.1))
  (fp_line (start 7.2 3.75) (end 7.2 4.25) (layer F.Fab) (width 0.1))
  (fp_line (start 3 4.25) (end 7.2 4.25) (layer F.Fab) (width 0.1))
  (fp_line (start 1.44 -1.06) (end 1.44 5.06) (layer F.SilkS) (width 0.12))
  (fp_line (start 1.44 5.06) (end 3.06 5.06) (layer F.SilkS) (width 0.12))
  (fp_line (start 3.06 5.06) (end 3.06 -1.06) (layer F.SilkS) (width 0.12))
  (fp_line (start 3.06 -1.06) (end 1.44 -1.06) (layer F.SilkS) (width 0.12))
  (fp_line (start 3.06 -0.31) (end 7.26 -0.31) (layer F.SilkS) (width 0.12))
  (fp_line (start 7.26 -0.31) (end 7.26 0.31) (layer F.SilkS) (width 0.12))
  (fp_line (start 7.26 0.31) (end 3.06 0.31) (layer F.SilkS) (width 0.12))
  (fp_line (start 3.06 -0.25) (end 7.26 -0.25) (layer F.SilkS) (width 0.12))
  (fp_line (start 3.06 -0.13) (end 7.26 -0.13) (layer F.SilkS) (width 0.12))
  (fp_line (start 3.06 -0.01) (end 7.26 -0.01) (layer F.SilkS) (width 0.12))
  (fp_line (start 3.06 0.11) (end 7.26 0.11) (layer F.SilkS) (width 0.12))
  (fp_line (start 3.06 0.23) (end 7.26 0.23) (layer F.SilkS) (width 0.12))
  (fp_line (start 0.935 -0.31) (end 1.44 -0.31) (layer F.SilkS) (width 0.12))
  (fp_line (start 0.935 0.31) (end 1.44 0.31) (layer F.SilkS) (width 0.12))
  (fp_line (start 1.44 1) (end 3.06 1) (layer F.SilkS) (width 0.12))
  (fp_line (start 3.06 1.69) (end 7.26 1.69) (layer F.SilkS) (width 0.12))
  (fp_line (start 7.26 1.69) (end 7.26 2.31) (layer F.SilkS) (width 0.12))
  (fp_line (start 7.26 2.31) (end 3.06 2.31) (layer F.SilkS) (width 0.12))
  (fp_line (start 0.882114 1.69) (end 1.44 1.69) (layer F.SilkS) (width 0.12))
  (fp_line (start 0.882114 2.31) (end 1.44 2.31) (layer F.SilkS) (width 0.12))
  (fp_line (start 1.44 3) (end 3.06 3) (layer F.SilkS) (width 0.12))
  (fp_line (start 3.06 3.69) (end 7.26 3.69) (layer F.SilkS) (width 0.12))
  (fp_line (start 7.26 3.69) (end 7.26 4.31) (layer F.SilkS) (width 0.12))
  (fp_line (start 7.26 4.31) (end 3.06 4.31) (layer F.SilkS) (width 0.12))
  (fp_line (start 0.882114 3.69) (end 1.44 3.69) (layer F.SilkS) (width 0.12))
  (fp_line (start 0.882114 4.31) (end 1.44 4.31) (layer F.SilkS) (width 0.12))
  (fp_line (start -1 0) (end -1 -1) (layer F.SilkS) (width 0.12))
  (fp_line (start -1 -1) (end 0 -1) (layer F.SilkS) (width 0.12))
  (fp_line (start -1.5 -1.5) (end -1.5 5.5) (layer F.CrtYd) (width 0.05))
  (fp_line (start -1.5 5.5) (end 7.7 5.5) (layer F.CrtYd) (width 0.05))
  (fp_line (start 7.7 5.5) (end 7.7 -1.5) (layer F.CrtYd) (width 0.05))
  (fp_line (start 7.7 -1.5) (end -1.5 -1.5) (layer F.CrtYd) (width 0.05))
  (pad 1 thru_hole rect (at 0 0) (size 1.35 1.35) (drill 0.8) (layers *.Cu *.Mask))
  (pad 2 thru_hole oval (at 0 2) (size 1.35 1.35) (drill 0.8) (layers *.Cu *.Mask))
  (pad 3 thru_hole oval (at 0 4) (size 1.35 1.35) (drill 0.8) (layers *.Cu *.Mask))
  (fp_text user %R (at 2.25 2 90) (layer F.Fab)
    (effects (font (size 0.9 0.9) (thickness 0.135)))
  )
  (model ${KICAD6_3DMODEL_DIR}/Connector_PinHeader_2.00mm.3dshapes/PinHeader_1x03_P2.00mm_Horizontal.wrl
    (at (xyz 0 0 0))
    (scale (xyz 1 1 1))
    (rotate (xyz 0 0 0))
  )
)