(module PinHeader_2x40_P2.00mm_Vertical_SMD (layer F.Cu) (tedit 59FED667)
  (descr "surface-mounted straight pin header, 2x40, 2.00mm pitch, double rows")
  (tags "Surface mounted pin header SMD 2x40 2.00mm double row")
  (attr smd)
  (fp_text reference REF** (at 0 -41.06) (layer F.SilkS)
    (effects (font (size 1 1) (thickness 0.15)))
  )
  (fp_text value PinHeader_2x40_P2.00mm_Vertical_SMD (at 0 41.06) (layer F.Fab)
    (effects (font (size 1 1) (thickness 0.15)))
  )
  (fp_line (start 2 40) (end -2 40) (layer F.Fab) (width 0.1))
  (fp_line (start -1.25 -40) (end 2 -40) (layer F.Fab) (width 0.1))
  (fp_line (start -2 40) (end -2 -39.25) (layer F.Fab) (width 0.1))
  (fp_line (start -2 -39.25) (end -1.25 -40) (layer F.Fab) (width 0.1))
  (fp_line (start 2 -40) (end 2 40) (layer F.Fab) (width 0.1))
  (fp_line (start -2 -39.25) (end -2.875 -39.25) (layer F.Fab) (width 0.1))
  (fp_line (start -2.875 -39.25) (end -2.875 -38.75) (layer F.Fab) (width 0.1))
  (fp_line (start -2.875 -38.75) (end -2 -38.75) (layer F.Fab) (width 0.1))
  (fp_line (start 2 -39.25) (end 2.875 -39.25) (layer F.Fab) (width 0.1))
  (fp_line (start 2.875 -39.25) (end 2.875 -38.75) (layer F.Fab) (width 0.1))
  (fp_line (start 2.875 -38.75) (end 2 -38.75) (layer F.Fab) (width 0.1))
  (fp_line (start -2 -37.25) (end -2.875 -37.25) (layer F.Fab) (width 0.1))
  (fp_line (start -2.875 -37.25) (end -2.875 -36.75) (layer F.Fab) (width 0.1))
  (fp_line (start -2.875 -36.75) (end -2 -36.75) (layer F.Fab) (width 0.1))
  (fp_line (start 2 -37.25) (end 2.875 -37.25) (layer F.Fab) (width 0.1))
  (fp_line (start 2.875 -37.25) (end 2.875 -36.75) (layer F.Fab) (width 0.1))
  (fp_line (start 2.875 -36.75) (end 2 -36.75) (layer F.Fab) (width 0.1))
  (fp_line (start -2 -35.25) (end -2.875 -35.25) (layer F.Fab) (width 0.1))
  (fp_line (start -2.875 -35.25) (end -2.875 -34.75) (layer F.Fab) (width 0.1))
  (fp_line (start -2.875 -34.75) (end -2 -34.75) (layer F.Fab) (width 0.1))
  (fp_line (start 2 -35.25) (end 2.875 -35.25) (layer F.Fab) (width 0.1))
  (fp_line (start 2.875 -35.25) (end 2.875 -34.75) (layer F.Fab) (width 0.1))
  (fp_line (start 2.875 -34.75) (end 2 -34.75) (layer F.Fab) (width 0.1))
  (fp_line (start -2 -33.25) (end -2.875 -33.25) (layer F.Fab) (width 0.1))
  (fp_line (start -2.875 -33.25) (end -2.875 -32.75) (layer F.Fab) (width 0.1))
  (fp_line (start -2.875 -32.75) (end -2 -32.75) (layer F.Fab) (width 0.1))
  (fp_line (start 2 -33.25) (end 2.875 -33.25) (layer F.Fab) (width 0.1))
  (fp_line (start 2.875 -33.25) (end 2.875 -32.75) (layer F.Fab) (width 0.1))
  (fp_line (start 2.875 -32.75) (end 2 -32.75) (layer F.Fab) (width 0.1))
  (fp_line (start -2 -31.25) (end -2.875 -31.25) (layer F.Fab) (width 0.1))
  (fp_line (start -2.875 -31.25) (end -2.875 -30.75) (layer F.Fab) (width 0.1))
  (fp_line (start -2.875 -30.75) (end -2 -30.75) (layer F.Fab) (width 0.1))
  (fp_line (start 2 -31.25) (end 2.875 -31.25) (layer F.Fab) (width 0.1))
  (fp_line (start 2.875 -31.25) (end 2.875 -30.75) (layer F.Fab) (width 0.1))
  (fp_line (start 2.875 -30.75) (end 2 -30.75) (layer F.Fab) (width 0.1))
  (fp_line (start -2 -29.25) (end -2.875 -29.25) (layer F.Fab) (width 0.1))
  (fp_line (start -2.875 -29.25) (end -2.875 -28.75) (layer F.Fab) (width 0.1))
  (fp_line (start -2.875 -28.75) (end -2 -28.75) (layer F.Fab) (width 0.1))
  (fp_line (start 2 -29.25) (end 2.875 -29.25) (layer F.Fab) (width 0.1))
  (fp_line (start 2.875 -29.25) (end 2.875 -28.75) (layer F.Fab) (width 0.1))
  (fp_line (start 2.875 -28.75) (end 2 -28.75) (layer F.Fab) (width 0.1))
  (fp_line (start -2 -27.25) (end -2.875 -27.25) (layer F.Fab) (width 0.1))
  (fp_line (start -2.875 -27.25) (end -2.875 -26.75) (layer F.Fab) (width 0.1))
  (fp_line (start -2.875 -26.75) (end -2 -26.75) (layer F.Fab) (width 0.1))
  (fp_line (start 2 -27.25) (end 2.875 -27.25) (layer F.Fab) (width 0.1))
  (fp_line (start 2.875 -27.25) (end 2.875 -26.75) (layer F.Fab) (width 0.1))
  (fp_line (start 2.875 -26.75) (end 2 -26.75) (layer F.Fab) (width 0.1))
  (fp_line (start -2 -25.25) (end -2.875 -25.25) (layer F.Fab) (width 0.1))
  (fp_line (start -2.875 -25.25) (end -2.875 -24.75) (layer F.Fab) (width 0.1))
  (fp_line (start -2.875 -24.75) (end -2 -24.75) (layer F.Fab) (width 0.1))
  (fp_line (start 2 -25.25) (end 2.875 -25.25) (layer F.Fab) (width 0.1))
  (fp_line (start 2.875 -25.25) (end 2.875 -24.75) (layer F.Fab) (width 0.1))
  (fp_line (start 2.875 -24.75) (end 2 -24.75) (layer F.Fab) (width 0.1))
  (fp_line (start -2 -23.25) (end -2.875 -23.25) (layer F.Fab) (width 0.1))
  (fp_line (start -2.875 -23.25) (end -2.875 -22.75) (layer F.Fab) (width 0.1))
  (fp_line (start -2.875 -22.75) (end -2 -22.75) (layer F.Fab) (width 0.1))
  (fp_line (start 2 -23.25) (end 2.875 -23.25) (layer F.Fab) (width 0.1))
  (fp_line (start 2.875 -23.25) (end 2.875 -22.75) (layer F.Fab) (width 0.1))
  (fp_line (start 2.875 -22.75) (end 2 -22.75) (layer F.Fab) (width 0.1))
  (fp_line (start -2 -21.25) (end -2.875 -21.25) (layer F.Fab) (width 0.1))
  (fp_line (start -2.875 -21.25) (end -2.875 -20.75) (layer F.Fab) (width 0.1))
  (fp_line (start -2.875 -20.75) (end -2 -20.75) (layer F.Fab) (width 0.1))
  (fp_line (start 2 -21.25) (end 2.875 -21.25) (layer F.Fab) (width 0.1))
  (fp_line (start 2.875 -21.25) (end 2.875 -20.75) (layer F.Fab) (width 0.1))
  (fp_line (start 2.875 -20.75) (end 2 -20.75) (layer F.Fab) (width 0.1))
  (fp_line (start -2 -19.25) (end -2.875 -19.25) (layer F.Fab) (width 0.1))
  (fp_line (start -2.875 -19.25) (end -2.875 -18.75) (layer F.Fab) (width 0.1))
  (fp_line (start -2.875 -18.75) (end -2 -18.75) (layer F.Fab) (width 0.1))
  (fp_line (start 2 -19.25) (end 2.875 -19.25) (layer F.Fab) (width 0.1))
  (fp_line (start 2.875 -19.25) (end 2.875 -18.75) (layer F.Fab) (width 0.1))
  (fp_line (start 2.875 -18.75) (end 2 -18.75) (layer F.Fab) (width 0.1))
  (fp_line (start -2 -17.25) (end -2.875 -17.25) (layer F.Fab) (width 0.1))
  (fp_line (start -2.875 -17.25) (end -2.875 -16.75) (layer F.Fab) (width 0.1))
  (fp_line (start -2.875 -16.75) (end -2 -16.75) (layer F.Fab) (width 0.1))
  (fp_line (start 2 -17.25) (end 2.875 -17.25) (layer F.Fab) (width 0.1))
  (fp_line (start 2.875 -17.25) (end 2.875 -16.75) (layer F.Fab) (width 0.1))
  (fp_line (start 2.875 -16.75) (end 2 -16.75) (layer F.Fab) (width 0.1))
  (fp_line (start -2 -15.25) (end -2.875 -15.25) (layer F.Fab) (width 0.1))
  (fp_line (start -2.875 -15.25) (end -2.875 -14.75) (layer F.Fab) (width 0.1))
  (fp_line (start -2.875 -14.75) (end -2 -14.75) (layer F.Fab) (width 0.1))
  (fp_line (start 2 -15.25) (end 2.875 -15.25) (layer F.Fab) (width 0.1))
  (fp_line (start 2.875 -15.25) (end 2.875 -14.75) (layer F.Fab) (width 0.1))
  (fp_line (start 2.875 -14.75) (end 2 -14.75) (layer F.Fab) (width 0.1))
  (fp_line (start -2 -13.25) (end -2.875 -13.25) (layer F.Fab) (width 0.1))
  (fp_line (start -2.875 -13.25) (end -2.875 -12.75) (layer F.Fab) (width 0.1))
  (fp_line (start -2.875 -12.75) (end -2 -12.75) (layer F.Fab) (width 0.1))
  (fp_line (start 2 -13.25) (end 2.875 -13.25) (layer F.Fab) (width 0.1))
  (fp_line (start 2.875 -13.25) (end 2.875 -12.75) (layer F.Fab) (width 0.1))
  (fp_line (start 2.875 -12.75) (end 2 -12.75) (layer F.Fab) (width 0.1))
  (fp_line (start -2 -11.25) (end -2.875 -11.25) (layer F.Fab) (width 0.1))
  (fp_line (start -2.875 -11.25) (end -2.875 -10.75) (layer F.Fab) (width 0.1))
  (fp_line (start -2.875 -10.75) (end -2 -10.75) (layer F.Fab) (width 0.1))
  (fp_line (start 2 -11.25) (end 2.875 -11.25) (layer F.Fab) (width 0.1))
  (fp_line (start 2.875 -11.25) (end 2.875 -10.75) (layer F.Fab) (width 0.1))
  (fp_line (start 2.875 -10.75) (end 2 -10.75) (layer F.Fab) (width 0.1))
  (fp_line (start -2 -9.25) (end -2.875 -9.25) (layer F.Fab) (width 0.1))
  (fp_line (start -2.875 -9.25) (end -2.875 -8.75) (layer F.Fab) (width 0.1))
  (fp_line (start -2.875 -8.75) (end -2 -8.75) (layer F.Fab) (width 0.1))
  (fp_line (start 2 -9.25) (end 2.875 -9.25) (layer F.Fab) (width 0.1))
  (fp_line (start 2.875 -9.25) (end 2.875 -8.75) (layer F.Fab) (width 0.1))
  (fp_line (start 2.875 -8.75) (end 2 -8.75) (layer F.Fab) (width 0.1))
  (fp_line (start -2 -7.25) (end -2.875 -7.25) (layer F.Fab) (width 0.1))
  (fp_line (start -2.875 -7.25) (end -2.875 -6.75) (layer F.Fab) (width 0.1))
  (fp_line (start -2.875 -6.75) (end -2 -6.75) (layer F.Fab) (width 0.1))
  (fp_line (start 2 -7.25) (end 2.875 -7.25) (layer F.Fab) (width 0.1))
  (fp_line (start 2.875 -7.25) (end 2.875 -6.75) (layer F.Fab) (width 0.1))
  (fp_line (start 2.875 -6.75) (end 2 -6.75) (layer F.Fab) (width 0.1))
  (fp_line (start -2 -5.25) (end -2.875 -5.25) (layer F.Fab) (width 0.1))
  (fp_line (start -2.875 -5.25) (end -2.875 -4.75) (layer F.Fab) (width 0.1))
  (fp_line (start -2.875 -4.75) (end -2 -4.75) (layer F.Fab) (width 0.1))
  (fp_line (start 2 -5.25) (end 2.875 -5.25) (layer F.Fab) (width 0.1))
  (fp_line (start 2.875 -5.25) (end 2.875 -4.75) (layer F.Fab) (width 0.1))
  (fp_line (start 2.875 -4.75) (end 2 -4.75) (layer F.Fab) (width 0.1))
  (fp_line (start -2 -3.25) (end -2.875 -3.25) (layer F.Fab) (width 0.1))
  (fp_line (start -2.875 -3.25) (end -2.875 -2.75) (layer F.Fab) (width 0.1))
  (fp_line (start -2.875 -2.75) (end -2 -2.75) (layer F.Fab) (width 0.1))
  (fp_line (start 2 -3.25) (end 2.875 -3.25) (layer F.Fab) (width 0.1))
  (fp_line (start 2.875 -3.25) (end 2.875 -2.75) (layer F.Fab) (width 0.1))
  (fp_line (start 2.875 -2.75) (end 2 -2.75) (layer F.Fab) (width 0.1))
  (fp_line (start -2 -1.25) (end -2.875 -1.25) (layer F.Fab) (width 0.1))
  (fp_line (start -2.875 -1.25) (end -2.875 -0.75) (layer F.Fab) (width 0.1))
  (fp_line (start -2.875 -0.75) (end -2 -0.75) (layer F.Fab) (width 0.1))
  (fp_line (start 2 -1.25) (end 2.875 -1.25) (layer F.Fab) (width 0.1))
  (fp_line (start 2.875 -1.25) (end 2.875 -0.75) (layer F.Fab) (width 0.1))
  (fp_line (start 2.875 -0.75) (end 2 -0.75) (layer F.Fab) (width 0.1))
  (fp_line (start -2 0.75) (end -2.875 0.75) (layer F.Fab) (width 0.1))
  (fp_line (start -2.875 0.75) (end -2.875 1.25) (layer F.Fab) (width 0.1))
  (fp_line (start -2.875 1.25) (end -2 1.25) (layer F.Fab) (width 0.1))
  (fp_line (start 2 0.75) (end 2.875 0.75) (layer F.Fab) (width 0.1))
  (fp_line (start 2.875 0.75) (end 2.875 1.25) (layer F.Fab) (width 0.1))
  (fp_line (start 2.875 1.25) (end 2 1.25) (layer F.Fab) (width 0.1))
  (fp_line (start -2 2.75) (end -2.875 2.75) (layer F.Fab) (width 0.1))
  (fp_line (start -2.875 2.75) (end -2.875 3.25) (layer F.Fab) (width 0.1))
  (fp_line (start -2.875 3.25) (end -2 3.25) (layer F.Fab) (width 0.1))
  (fp_line (start 2 2.75) (end 2.875 2.75) (layer F.Fab) (width 0.1))
  (fp_line (start 2.875 2.75) (end 2.875 3.25) (layer F.Fab) (width 0.1))
  (fp_line (start 2.875 3.25) (end 2 3.25) (layer F.Fab) (width 0.1))
  (fp_line (start -2 4.75) (end -2.875 4.75) (layer F.Fab) (width 0.1))
  (fp_line (start -2.875 4.75) (end -2.875 5.25) (layer F.Fab) (width 0.1))
  (fp_line (start -2.875 5.25) (end -2 5.25) (layer F.Fab) (width 0.1))
  (fp_line (start 2 4.75) (end 2.875 4.75) (layer F.Fab) (width 0.1))
  (fp_line (start 2.875 4.75) (end 2.875 5.25) (layer F.Fab) (width 0.1))
  (fp_line (start 2.875 5.25) (end 2 5.25) (layer F.Fab) (width 0.1))
  (fp_line (start -2 6.75) (end -2.875 6.75) (layer F.Fab) (width 0.1))
  (fp_line (start -2.875 6.75) (end -2.875 7.25) (layer F.Fab) (width 0.1))
  (fp_line (start -2.875 7.25) (end -2 7.25) (layer F.Fab) (width 0.1))
  (fp_line (start 2 6.75) (end 2.875 6.75) (layer F.Fab) (width 0.1))
  (fp_line (start 2.875 6.75) (end 2.875 7.25) (layer F.Fab) (width 0.1))
  (fp_line (start 2.875 7.25) (end 2 7.25) (layer F.Fab) (width 0.1))
  (fp_line (start -2 8.75) (end -2.875 8.75) (layer F.Fab) (width 0.1))
  (fp_line (start -2.875 8.75) (end -2.875 9.25) (layer F.Fab) (width 0.1))
  (fp_line (start -2.875 9.25) (end -2 9.25) (layer F.Fab) (width 0.1))
  (fp_line (start 2 8.75) (end 2.875 8.75) (layer F.Fab) (width 0.1))
  (fp_line (start 2.875 8.75) (end 2.875 9.25) (layer F.Fab) (width 0.1))
  (fp_line (start 2.875 9.25) (end 2 9.25) (layer F.Fab) (width 0.1))
  (fp_line (start -2 10.75) (end -2.875 10.75) (layer F.Fab) (width 0.1))
  (fp_line (start -2.875 10.75) (end -2.875 11.25) (layer F.Fab) (width 0.1))
  (fp_line (start -2.875 11.25) (end -2 11.25) (layer F.Fab) (width 0.1))
  (fp_line (start 2 10.75) (end 2.875 10.75) (layer F.Fab) (width 0.1))
  (fp_line (start 2.875 10.75) (end 2.875 11.25) (layer F.Fab) (width 0.1))
  (fp_line (start 2.875 11.25) (end 2 11.25) (layer F.Fab) (width 0.1))
  (fp_line (start -2 12.75) (end -2.875 12.75) (layer F.Fab) (width 0.1))
  (fp_line (start -2.875 12.75) (end -2.875 13.25) (layer F.Fab) (width 0.1))
  (fp_line (start -2.875 13.25) (end -2 13.25) (layer F.Fab) (width 0.1))
  (fp_line (start 2 12.75) (end 2.875 12.75) (layer F.Fab) (width 0.1))
  (fp_line (start 2.875 12.75) (end 2.875 13.25) (layer F.Fab) (width 0.1))
  (fp_line (start 2.875 13.25) (end 2 13.25) (layer F.Fab) (width 0.1))
  (fp_line (start -2 14.75) (end -2.875 14.75) (layer F.Fab) (width 0.1))
  (fp_line (start -2.875 14.75) (end -2.875 15.25) (layer F.Fab) (width 0.1))
  (fp_line (start -2.875 15.25) (end -2 15.25) (layer F.Fab) (width 0.1))
  (fp_line (start 2 14.75) (end 2.875 14.75) (layer F.Fab) (width 0.1))
  (fp_line (start 2.875 14.75) (end 2.875 15.25) (layer F.Fab) (width 0.1))
  (fp_line (start 2.875 15.25) (end 2 15.25) (layer F.Fab) (width 0.1))
  (fp_line (start -2 16.75) (end -2.875 16.75) (layer F.Fab) (width 0.1))
  (fp_line (start -2.875 16.75) (end -2.875 17.25) (layer F.Fab) (width 0.1))
  (fp_line (start -2.875 17.25) (end -2 17.25) (layer F.Fab) (width 0.1))
  (fp_line (start 2 16.75) (end 2.875 16.75) (layer F.Fab) (width 0.1))
  (fp_line (start 2.875 16.75) (end 2.875 17.25) (layer F.Fab) (width 0.1))
  (fp_line (start 2.875 17.25) (end 2 17.25) (layer F.Fab) (width 0.1))
  (fp_line (start -2 18.75) (end -2.875 18.75) (layer F.Fab) (width 0.1))
  (fp_line (start -2.875 18.75) (end -2.875 19.25) (layer F.Fab) (width 0.1))
  (fp_line (start -2.875 19.25) (end -2 19.25) (layer F.Fab) (width 0.1))
  (fp_line (start 2 18.75) (end 2.875 18.75) (layer F.Fab) (width 0.1))
  (fp_line (start 2.875 18.75) (end 2.875 19.25) (layer F.Fab) (width 0.1))
  (fp_line (start 2.875 19.25) (end 2 19.25) (layer F.Fab) (width 0.1))
  (fp_line (start -2 20.75) (end -2.875 20.75) (layer F.Fab) (width 0.1))
  (fp_line (start -2.875 20.75) (end -2.875 21.25) (layer F.Fab) (width 0.1))
  (fp_line (start -2.875 21.25) (end -2 21.25) (layer F.Fab) (width 0.1))
  (fp_line (start 2 20.75) (end 2.875 20.75) (layer F.Fab) (width 0.1))
  (fp_line (start 2.875 20.75) (end 2.875 21.25) (layer F.Fab) (width 0.1))
  (fp_line (start 2.875 21.25) (end 2 21.25) (layer F.Fab) (width 0.1))
  (fp_line (start -2 22.75) (end -2.875 22.75) (layer F.Fab) (width 0.1))
  (fp_line (start -2.875 22.75) (end -2.875 23.25) (layer F.Fab) (width 0.1))
  (fp_line (start -2.875 23.25) (end -2 23.25) (layer F.Fab) (width 0.1))
  (fp_line (start 2 22.75) (end 2.875 22.75) (layer F.Fab) (width 0.1))
  (fp_line (start 2.875 22.75) (end 2.875 23.25) (layer F.Fab) (width 0.1))
  (fp_line (start 2.875 23.25) (end 2 23.25) (layer F.Fab) (width 0.1))
  (fp_line (start -2 24.75) (end -2.875 24.75) (layer F.Fab) (width 0.1))
  (fp_line (start -2.875 24.75) (end -2.875 25.25) (layer F.Fab) (width 0.1))
  (fp_line (start -2.875 25.25) (end -2 25.25) (layer F.Fab) (width 0.1))
  (fp_line (start 2 24.75) (end 2.875 24.75) (layer F.Fab) (width 0.1))
  (fp_line (start 2.875 24.75) (end 2.875 25.25) (layer F.Fab) (width 0.1))
  (fp_line (start 2.875 25.25) (end 2 25.25) (layer F.Fab) (width 0.1))
  (fp_line (start -2 26.75) (end -2.875 26.75) (layer F.Fab) (width 0.1))
  (fp_line (start -2.875 26.75) (end -2.875 27.25) (layer F.Fab) (width 0.1))
  (fp_line (start -2.875 27.25) (end -2 27.25) (layer F.Fab) (width 0.1))
  (fp_line (start 2 26.75) (end 2.875 26.75) (layer F.Fab) (width 0.1))
  (fp_line (start 2.875 26.75) (end 2.875 27.25) (layer F.Fab) (width 0.1))
  (fp_line (start 2.875 27.25) (end 2 27.25) (layer F.Fab) (width 0.1))
  (fp_line (start -2 28.75) (end -2.875 28.75) (layer F.Fab) (width 0.1))
  (fp_line (start -2.875 28.75) (end -2.875 29.25) (layer F.Fab) (width 0.1))
  (fp_line (start -2.875 29.25) (end -2 29.25) (layer F.Fab) (width 0.1))
  (fp_line (start 2 28.75) (end 2.875 28.75) (layer F.Fab) (width 0.1))
  (fp_line (start 2.875 28.75) (end 2.875 29.25) (layer F.Fab) (width 0.1))
  (fp_line (start 2.875 29.25) (end 2 29.25) (layer F.Fab) (width 0.1))
  (fp_line (start -2 30.75) (end -2.875 30.75) (layer F.Fab) (width 0.1))
  (fp_line (start -2.875 30.75) (end -2.875 31.25) (layer F.Fab) (width 0.1))
  (fp_line (start -2.875 31.25) (end -2 31.25) (layer F.Fab) (width 0.1))
  (fp_line (start 2 30.75) (end 2.875 30.75) (layer F.Fab) (width 0.1))
  (fp_line (start 2.875 30.75) (end 2.875 31.25) (layer F.Fab) (width 0.1))
  (fp_line (start 2.875 31.25) (end 2 31.25) (layer F.Fab) (width 0.1))
  (fp_line (start -2 32.75) (end -2.875 32.75) (layer F.Fab) (width 0.1))
  (fp_line (start -2.875 32.75) (end -2.875 33.25) (layer F.Fab) (width 0.1))
  (fp_line (start -2.875 33.25) (end -2 33.25) (layer F.Fab) (width 0.1))
  (fp_line (start 2 32.75) (end 2.875 32.75) (layer F.Fab) (width 0.1))
  (fp_line (start 2.875 32.75) (end 2.875 33.25) (layer F.Fab) (width 0.1))
  (fp_line (start 2.875 33.25) (end 2 33.25) (layer F.Fab) (width 0.1))
  (fp_line (start -2 34.75) (end -2.875 34.75) (layer F.Fab) (width 0.1))
  (fp_line (start -2.875 34.75) (end -2.875 35.25) (layer F.Fab) (width 0.1))
  (fp_line (start -2.875 35.25) (end -2 35.25) (layer F.Fab) (width 0.1))
  (fp_line (start 2 34.75) (end 2.875 34.75) (layer F.Fab) (width 0.1))
  (fp_line (start 2.875 34.75) (end 2.875 35.25) (layer F.Fab) (width 0.1))
  (fp_line (start 2.875 35.25) (end 2 35.25) (layer F.Fab) (width 0.1))
  (fp_line (start -2 36.75) (end -2.875 36.75) (layer F.Fab) (width 0.1))
  (fp_line (start -2.875 36.75) (end -2.875 37.25) (layer F.Fab) (width 0.1))
  (fp_line (start -2.875 37.25) (end -2 37.25) (layer F.Fab) (width 0.1))
  (fp_line (start 2 36.75) (end 2.875 36.75) (layer F.Fab) (width 0.1))
  (fp_line (start 2.875 36.75) (end 2.875 37.25) (layer F.Fab) (width 0.1))
  (fp_line (start 2.875 37.25) (end 2 37.25) (layer F.Fab) (width 0.1))
  (fp_line (start -2 38.75) (end -2.875 38.75) (layer F.Fab) (width 0.1))
  (fp_line (start -2.875 38.75) (end -2.875 39.25) (layer F.Fab) (width 0.1))
  (fp_line (start -2.875 39.25) (end -2 39.25) (layer F.Fab) (width 0.1))
  (fp_line (start 2 38.75) (end 2.875 38.75) (layer F.Fab) (width 0.1))
  (fp_line (start 2.875 38.75) (end 2.875 39.25) (layer F.Fab) (width 0.1))
  (fp_line (start 2.875 39.25) (end 2 39.25) (layer F.Fab) (width 0.1))
  (fp_line (start -2.06 -40.06) (end 2.06 -40.06) (layer F.SilkS) (width 0.12))
  (fp_line (start -2.06 40.06) (end 2.06 40.06) (layer F.SilkS) (width 0.12))
  (fp_line (start -3.315 -39.76) (end -2.06 -39.76) (layer F.SilkS) (width 0.12))
  (fp_line (start -2.06 -40.06) (end -2.06 -39.76) (layer F.SilkS) (width 0.12))
  (fp_line (start 2.06 -40.06) (end 2.06 -39.76) (layer F.SilkS) (width 0.12))
  (fp_line (start -2.06 39.76) (end -2.06 40.06) (layer F.SilkS) (width 0.12))
  (fp_line (start 2.06 39.76) (end 2.06 40.06) (layer F.SilkS) (width 0.12))
  (fp_line (start -2.06 -38.24) (end -2.06 -37.76) (layer F.SilkS) (width 0.12))
  (fp_line (start 2.06 -38.24) (end 2.06 -37.76) (layer F.SilkS) (width 0.12))
  (fp_line (start -2.06 -36.24) (end -2.06 -35.76) (layer F.SilkS) (width 0.12))
  (fp_line (start 2.06 -36.24) (end 2.06 -35.76) (layer F.SilkS) (width 0.12))
  (fp_line (start -2.06 -34.24) (end -2.06 -33.76) (layer F.SilkS) (width 0.12))
  (fp_line (start 2.06 -34.24) (end 2.06 -33.76) (layer F.SilkS) (width 0.12))
  (fp_line (start -2.06 -32.24) (end -2.06 -31.76) (layer F.SilkS) (width 0.12))
  (fp_line (start 2.06 -32.24) (end 2.06 -31.76) (layer F.SilkS) (width 0.12))
  (fp_line (start -2.06 -30.24) (end -2.06 -29.76) (layer F.SilkS) (width 0.12))
  (fp_line (start 2.06 -30.24) (end 2.06 -29.76) (layer F.SilkS) (width 0.12))
  (fp_line (start -2.06 -28.24) (end -2.06 -27.76) (layer F.SilkS) (width 0.12))
  (fp_line (start 2.06 -28.24) (end 2.06 -27.76) (layer F.SilkS) (width 0.12))
  (fp_line (start -2.06 -26.24) (end -2.06 -25.76) (layer F.SilkS) (width 0.12))
  (fp_line (start 2.06 -26.24) (end 2.06 -25.76) (layer F.SilkS) (width 0.12))
  (fp_line (start -2.06 -24.24) (end -2.06 -23.76) (layer F.SilkS) (width 0.12))
  (fp_line (start 2.06 -24.24) (end 2.06 -23.76) (layer F.SilkS) (width 0.12))
  (fp_line (start -2.06 -22.24) (end -2.06 -21.76) (layer F.SilkS) (width 0.12))
  (fp_line (start 2.06 -22.24) (end 2.06 -21.76) (layer F.SilkS) (width 0.12))
  (fp_line (start -2.06 -20.24) (end -2.06 -19.76) (layer F.SilkS) (width 0.12))
  (fp_line (start 2.06 -20.24) (end 2.06 -19.76) (layer F.SilkS) (width 0.12))
  (fp_line (start -2.06 -18.24) (end -2.06 -17.76) (layer F.SilkS) (width 0.12))
  (fp_line (start 2.06 -18.24) (end 2.06 -17.76) (layer F.SilkS) (width 0.12))
  (fp_line (start -2.06 -16.24) (end -2.06 -15.76) (layer F.SilkS) (width 0.12))
  (fp_line (start 2.06 -16.24) (end 2.06 -15.76) (layer F.SilkS) (width 0.12))
  (fp_line (start -2.06 -14.24) (end -2.06 -13.76) (layer F.SilkS) (width 0.12))
  (fp_line (start 2.06 -14.24) (end 2.06 -13.76) (layer F.SilkS) (width 0.12))
  (fp_line (start -2.06 -12.24) (end -2.06 -11.76) (layer F.SilkS) (width 0.12))
  (fp_line (start 2.06 -12.24) (end 2.06 -11.76) (layer F.SilkS) (width 0.12))
  (fp_line (start -2.06 -10.24) (end -2.06 -9.76) (layer F.SilkS) (width 0.12))
  (fp_line (start 2.06 -10.24) (end 2.06 -9.76) (layer F.SilkS) (width 0.12))
  (fp_line (start -2.06 -8.24) (end -2.06 -7.76) (layer F.SilkS) (width 0.12))
  (fp_line (start 2.06 -8.24) (end 2.06 -7.76) (layer F.SilkS) (width 0.12))
  (fp_line (start -2.06 -6.24) (end -2.06 -5.76) (layer F.SilkS) (width 0.12))
  (fp_line (start 2.06 -6.24) (end 2.06 -5.76) (layer F.SilkS) (width 0.12))
  (fp_line (start -2.06 -4.24) (end -2.06 -3.76) (layer F.SilkS) (width 0.12))
  (fp_line (start 2.06 -4.24) (end 2.06 -3.76) (layer F.SilkS) (width 0.12))
  (fp_line (start -2.06 -2.24) (end -2.06 -1.76) (layer F.SilkS) (width 0.12))
  (fp_line (start 2.06 -2.24) (end 2.06 -1.76) (layer F.SilkS) (width 0.12))
  (fp_line (start -2.06 -0.24) (end -2.06 0.24) (layer F.SilkS) (width 0.12))
  (fp_line (start 2.06 -0.24) (end 2.06 0.24) (layer F.SilkS) (width 0.12))
  (fp_line (start -2.06 1.76) (end -2.06 2.24) (layer F.SilkS) (width 0.12))
  (fp_line (start 2.06 1.76) (end 2.06 2.24) (layer F.SilkS) (width 0.12))
  (fp_line (start -2.06 3.76) (end -2.06 4.24) (layer F.SilkS) (width 0.12))
  (fp_line (start 2.06 3.76) (end 2.06 4.24) (layer F.SilkS) (width 0.12))
  (fp_line (start -2.06 5.76) (end -2.06 6.24) (layer F.SilkS) (width 0.12))
  (fp_line (start 2.06 5.76) (end 2.06 6.24) (layer F.SilkS) (width 0.12))
  (fp_line (start -2.06 7.76) (end -2.06 8.24) (layer F.SilkS) (width 0.12))
  (fp_line (start 2.06 7.76) (end 2.06 8.24) (layer F.SilkS) (width 0.12))
  (fp_line (start -2.06 9.76) (end -2.06 10.24) (layer F.SilkS) (width 0.12))
  (fp_line (start 2.06 9.76) (end 2.06 10.24) (layer F.SilkS) (width 0.12))
  (fp_line (start -2.06 11.76) (end -2.06 12.24) (layer F.SilkS) (width 0.12))
  (fp_line (start 2.06 11.76) (end 2.06 12.24) (layer F.SilkS) (width 0.12))
  (fp_line (start -2.06 13.76) (end -2.06 14.24) (layer F.SilkS) (width 0.12))
  (fp_line (start 2.06 13.76) (end 2.06 14.24) (layer F.SilkS) (width 0.12))
  (fp_line (start -2.06 15.76) (end -2.06 16.24) (layer F.SilkS) (width 0.12))
  (fp_line (start 2.06 15.76) (end 2.06 16.24) (layer F.SilkS) (width 0.12))
  (fp_line (start -2.06 17.76) (end -2.06 18.24) (layer F.SilkS) (width 0.12))
  (fp_line (start 2.06 17.76) (end 2.06 18.24) (layer F.SilkS) (width 0.12))
  (fp_line (start -2.06 19.76) (end -2.06 20.24) (layer F.SilkS) (width 0.12))
  (fp_line (start 2.06 19.76) (end 2.06 20.24) (layer F.SilkS) (width 0.12))
  (fp_line (start -2.06 21.76) (end -2.06 22.24) (layer F.SilkS) (width 0.12))
  (fp_line (start 2.06 21.76) (end 2.06 22.24) (layer F.SilkS) (width 0.12))
  (fp_line (start -2.06 23.76) (end -2.06 24.24) (layer F.SilkS) (width 0.12))
  (fp_line (start 2.06 23.76) (end 2.06 24.24) (layer F.SilkS) (width 0.12))
  (fp_line (start -2.06 25.76) (end -2.06 26.24) (layer F.SilkS) (width 0.12))
  (fp_line (start 2.06 25.76) (end 2.06 26.24) (layer F.SilkS) (width 0.12))
  (fp_line (start -2.06 27.76) (end -2.06 28.24) (layer F.SilkS) (width 0.12))
  (fp_line (start 2.06 27.76) (end 2.06 28.24) (layer F.SilkS) (width 0.12))
  (fp_line (start -2.06 29.76) (end -2.06 30.24) (layer F.SilkS) (width 0.12))
  (fp_line (start 2.06 29.76) (end 2.06 30.24) (layer F.SilkS) (width 0.12))
  (fp_line (start -2.06 31.76) (end -2.06 32.24) (layer F.SilkS) (width 0.12))
  (fp_line (start 2.06 31.76) (end 2.06 32.24) (layer F.SilkS) (width 0.12))
  (fp_line (start -2.06 33.76) (end -2.06 34.24) (layer F.SilkS) (width 0.12))
  (fp_line (start 2.06 33.76) (end 2.06 34.24) (layer F.SilkS) (width 0.12))
  (fp_line (start -2.06 35.76) (end -2.06 36.24) (layer F.SilkS) (width 0.12))
  (fp_line (start 2.06 35.76) (end 2.06 36.24) (layer F.SilkS) (width 0.12))
  (fp_line (start -2.06 37.76) (end -2.06 38.24) (layer F.SilkS) (width 0.12))
  (fp_line (start 2.06 37.76) (end 2.06 38.24) (layer F.SilkS) (width 0.12))
  (fp_line (start -4.9 -40.5) (end -4.9 40.5) (layer F.CrtYd) (width 0.05))
  (fp_line (start -4.9 40.5) (end 4.9 40.5) (layer F.CrtYd) (width 0.05))
  (fp_line (start 4.9 40.5) (end 4.9 -40.5) (layer F.CrtYd) (width 0.05))
  (fp_line (start 4.9 -40.5) (end -4.9 -40.5) (layer F.CrtYd) (width 0.05))
  (pad 1 smd rect (at -2.085 -39) (size 2.58 1) (layers F.Cu F.Mask F.Paste))
  (pad 2 smd rect (at 2.085 -39) (size 2.58 1) (layers F.Cu F.Mask F.Paste))
  (pad 3 smd rect (at -2.085 -37) (size 2.58 1) (layers F.Cu F.Mask F.Paste))
  (pad 4 smd rect (at 2.085 -37) (size 2.58 1) (layers F.Cu F.Mask F.Paste))
  (pad 5 smd rect (at -2.085 -35) (size 2.58 1) (layers F.Cu F.Mask F.Paste))
  (pad 6 smd rect (at 2.085 -35) (size 2.58 1) (layers F.Cu F.Mask F.Paste))
  (pad 7 smd rect (at -2.085 -33) (size 2.58 1) (layers F.Cu F.Mask F.Paste))
  (pad 8 smd rect (at 2.085 -33) (size 2.58 1) (layers F.Cu F.Mask F.Paste))
  (pad 9 smd rect (at -2.085 -31) (size 2.58 1) (layers F.Cu F.Mask F.Paste))
  (pad 10 smd rect (at 2.085 -31) (size 2.58 1) (layers F.Cu F.Mask F.Paste))
  (pad 11 smd rect (at -2.085 -29) (size 2.58 1) (layers F.Cu F.Mask F.Paste))
  (pad 12 smd rect (at 2.085 -29) (size 2.58 1) (layers F.Cu F.Mask F.Paste))
  (pad 13 smd rect (at -2.085 -27) (size 2.58 1) (layers F.Cu F.Mask F.Paste))
  (pad 14 smd rect (at 2.085 -27) (size 2.58 1) (layers F.Cu F.Mask F.Paste))
  (pad 15 smd rect (at -2.085 -25) (size 2.58 1) (layers F.Cu F.Mask F.Paste))
  (pad 16 smd rect (at 2.085 -25) (size 2.58 1) (layers F.Cu F.Mask F.Paste))
  (pad 17 smd rect (at -2.085 -23) (size 2.58 1) (layers F.Cu F.Mask F.Paste))
  (pad 18 smd rect (at 2.085 -23) (size 2.58 1) (layers F.Cu F.Mask F.Paste))
  (pad 19 smd rect (at -2.085 -21) (size 2.58 1) (layers F.Cu F.Mask F.Paste))
  (pad 20 smd rect (at 2.085 -21) (size 2.58 1) (layers F.Cu F.Mask F.Paste))
  (pad 21 smd rect (at -2.085 -19) (size 2.58 1) (layers F.Cu F.Mask F.Paste))
  (pad 22 smd rect (at 2.085 -19) (size 2.58 1) (layers F.Cu F.Mask F.Paste))
  (pad 23 smd rect (at -2.085 -17) (size 2.58 1) (layers F.Cu F.Mask F.Paste))
  (pad 24 smd rect (at 2.085 -17) (size 2.58 1) (layers F.Cu F.Mask F.Paste))
  (pad 25 smd rect (at -2.085 -15) (size 2.58 1) (layers F.Cu F.Mask F.Paste))
  (pad 26 smd rect (at 2.085 -15) (size 2.58 1) (layers F.Cu F.Mask F.Paste))
  (pad 27 smd rect (at -2.085 -13) (size 2.58 1) (layers F.Cu F.Mask F.Paste))
  (pad 28 smd rect (at 2.085 -13) (size 2.58 1) (layers F.Cu F.Mask F.Paste))
  (pad 29 smd rect (at -2.085 -11) (size 2.58 1) (layers F.Cu F.Mask F.Paste))
  (pad 30 smd rect (at 2.085 -11) (size 2.58 1) (layers F.Cu F.Mask F.Paste))
  (pad 31 smd rect (at -2.085 -9) (size 2.58 1) (layers F.Cu F.Mask F.Paste))
  (pad 32 smd rect (at 2.085 -9) (size 2.58 1) (layers F.Cu F.Mask F.Paste))
  (pad 33 smd rect (at -2.085 -7) (size 2.58 1) (layers F.Cu F.Mask F.Paste))
  (pad 34 smd rect (at 2.085 -7) (size 2.58 1) (layers F.Cu F.Mask F.Paste))
  (pad 35 smd rect (at -2.085 -5) (size 2.58 1) (layers F.Cu F.Mask F.Paste))
  (pad 36 smd rect (at 2.085 -5) (size 2.58 1) (layers F.Cu F.Mask F.Paste))
  (pad 37 smd rect (at -2.085 -3) (size 2.58 1) (layers F.Cu F.Mask F.Paste))
  (pad 38 smd rect (at 2.085 -3) (size 2.58 1) (layers F.Cu F.Mask F.Paste))
  (pad 39 smd rect (at -2.085 -1) (size 2.58 1) (layers F.Cu F.Mask F.Paste))
  (pad 40 smd rect (at 2.085 -1) (size 2.58 1) (layers F.Cu F.Mask F.Paste))
  (pad 41 smd rect (at -2.085 1) (size 2.58 1) (layers F.Cu F.Mask F.Paste))
  (pad 42 smd rect (at 2.085 1) (size 2.58 1) (layers F.Cu F.Mask F.Paste))
  (pad 43 smd rect (at -2.085 3) (size 2.58 1) (layers F.Cu F.Mask F.Paste))
  (pad 44 smd rect (at 2.085 3) (size 2.58 1) (layers F.Cu F.Mask F.Paste))
  (pad 45 smd rect (at -2.085 5) (size 2.58 1) (layers F.Cu F.Mask F.Paste))
  (pad 46 smd rect (at 2.085 5) (size 2.58 1) (layers F.Cu F.Mask F.Paste))
  (pad 47 smd rect (at -2.085 7) (size 2.58 1) (layers F.Cu F.Mask F.Paste))
  (pad 48 smd rect (at 2.085 7) (size 2.58 1) (layers F.Cu F.Mask F.Paste))
  (pad 49 smd rect (at -2.085 9) (size 2.58 1) (layers F.Cu F.Mask F.Paste))
  (pad 50 smd rect (at 2.085 9) (size 2.58 1) (layers F.Cu F.Mask F.Paste))
  (pad 51 smd rect (at -2.085 11) (size 2.58 1) (layers F.Cu F.Mask F.Paste))
  (pad 52 smd rect (at 2.085 11) (size 2.58 1) (layers F.Cu F.Mask F.Paste))
  (pad 53 smd rect (at -2.085 13) (size 2.58 1) (layers F.Cu F.Mask F.Paste))
  (pad 54 smd rect (at 2.085 13) (size 2.58 1) (layers F.Cu F.Mask F.Paste))
  (pad 55 smd rect (at -2.085 15) (size 2.58 1) (layers F.Cu F.Mask F.Paste))
  (pad 56 smd rect (at 2.085 15) (size 2.58 1) (layers F.Cu F.Mask F.Paste))
  (pad 57 smd rect (at -2.085 17) (size 2.58 1) (layers F.Cu F.Mask F.Paste))
  (pad 58 smd rect (at 2.085 17) (size 2.58 1) (layers F.Cu F.Mask F.Paste))
  (pad 59 smd rect (at -2.085 19) (size 2.58 1) (layers F.Cu F.Mask F.Paste))
  (pad 60 smd rect (at 2.085 19) (size 2.58 1) (layers F.Cu F.Mask F.Paste))
  (pad 61 smd rect (at -2.085 21) (size 2.58 1) (layers F.Cu F.Mask F.Paste))
  (pad 62 smd rect (at 2.085 21) (size 2.58 1) (layers F.Cu F.Mask F.Paste))
  (pad 63 smd rect (at -2.085 23) (size 2.58 1) (layers F.Cu F.Mask F.Paste))
  (pad 64 smd rect (at 2.085 23) (size 2.58 1) (layers F.Cu F.Mask F.Paste))
  (pad 65 smd rect (at -2.085 25) (size 2.58 1) (layers F.Cu F.Mask F.Paste))
  (pad 66 smd rect (at 2.085 25) (size 2.58 1) (layers F.Cu F.Mask F.Paste))
  (pad 67 smd rect (at -2.085 27) (size 2.58 1) (layers F.Cu F.Mask F.Paste))
  (pad 68 smd rect (at 2.085 27) (size 2.58 1) (layers F.Cu F.Mask F.Paste))
  (pad 69 smd rect (at -2.085 29) (size 2.58 1) (layers F.Cu F.Mask F.Paste))
  (pad 70 smd rect (at 2.085 29) (size 2.58 1) (layers F.Cu F.Mask F.Paste))
  (pad 71 smd rect (at -2.085 31) (size 2.58 1) (layers F.Cu F.Mask F.Paste))
  (pad 72 smd rect (at 2.085 31) (size 2.58 1) (layers F.Cu F.Mask F.Paste))
  (pad 73 smd rect (at -2.085 33) (size 2.58 1) (layers F.Cu F.Mask F.Paste))
  (pad 74 smd rect (at 2.085 33) (size 2.58 1) (layers F.Cu F.Mask F.Paste))
  (pad 75 smd rect (at -2.085 35) (size 2.58 1) (layers F.Cu F.Mask F.Paste))
  (pad 76 smd rect (at 2.085 35) (size 2.58 1) (layers F.Cu F.Mask F.Paste))
  (pad 77 smd rect (at -2.085 37) (size 2.58 1) (layers F.Cu F.Mask F.Paste))
  (pad 78 smd rect (at 2.085 37) (size 2.58 1) (layers F.Cu F.Mask F.Paste))
  (pad 79 smd rect (at -2.085 39) (size 2.58 1) (layers F.Cu F.Mask F.Paste))
  (pad 80 smd rect (at 2.085 39) (size 2.58 1) (layers F.Cu F.Mask F.Paste))
  (fp_text user %R (at 0 0 90) (layer F.Fab)
    (effects (font (size 1 1) (thickness 0.15)))
  )
  (model ${KICAD6_3DMODEL_DIR}/Connector_PinHeader_2.00mm.3dshapes/PinHeader_2x40_P2.00mm_Vertical_SMD.wrl
    (at (xyz 0 0 0))
    (scale (xyz 1 1 1))
    (rotate (xyz 0 0 0))
  )
)