(module PinHeader_1x06_P2.00mm_Vertical (layer F.Cu) (tedit 59FED667)
  (descr "Through hole straight pin header, 1x06, 2.00mm pitch, single row")
  (tags "Through hole pin header THT 1x06 2.00mm single row")
  (fp_text reference REF** (at 0 -2.06) (layer F.SilkS)
    (effects (font (size 1 1) (thickness 0.15)))
  )
  (fp_text value PinHeader_1x06_P2.00mm_Vertical (at 0 12.06) (layer F.Fab)
    (effects (font (size 1 1) (thickness 0.15)))
  )
  (fp_line (start -0.5 -1) (end 1 -1) (layer F.Fab) (width 0.1))
  (fp_line (start 1 -1) (end 1 11) (layer F.Fab) (width 0.1))
  (fp_line (start 1 11) (end -1 11) (layer F.Fab) (width 0.1))
  (fp_line (start -1 11) (end -1 -0.5) (layer F.Fab) (width 0.1))
  (fp_line (start -1 -0.5) (end -0.5 -1) (layer F.Fab) (width 0.1))
  (fp_line (start -1.06 11.06) (end 1.06 11.06) (layer F.SilkS) (width 0.12))
  (fp_line (start -1.06 1) (end -1.06 11.06) (layer F.SilkS) (width 0.12))
  (fp_line (start 1.06 1) (end 1.06 11.06) (layer F.SilkS) (width 0.12))
  (fp_line (start -1.06 1) (end 1.06 1) (layer F.SilkS) (width 0.12))
  (fp_line (start -1.06 0) (end -1.06 -1.06) (layer F.SilkS) (width 0.12))
  (fp_line (start -1.06 -1.06) (end 0 -1.06) (layer F.SilkS) (width 0.12))
  (fp_line (start -1.5 -1.5) (end -1.5 11.5) (layer F.CrtYd) (width 0.05))
  (fp_line (start -1.5 11.5) (end 1.5 11.5) (layer F.CrtYd) (width 0.05))
  (fp_line (start 1.5 11.5) (end 1.5 -1.5) (layer F.CrtYd) (width 0.05))
  (fp_line (start 1.5 -1.5) (end -1.5 -1.5) (layer F.CrtYd) (width 0.05))
  (pad 1 thru_hole rect (at 0 0) (size 1.35 1.35) (drill 0.8) (layers *.Cu *.Mask))
  (pad 2 thru_hole oval (at 0 2) (size 1.35 1.35) (drill 0.8) (layers *.Cu *.Mask))
  (pad 3 thru_hole oval (at 0 4) (size 1.35 1.35) (drill 0.8) (layers *.Cu *.Mask))
  (pad 4 thru_hole oval (at 0 6) (size 1.35 1.35) (drill 0.8) (layers *.Cu *.Mask))
  (pad 5 thru_hole oval (at 0 8) (size 1.35 1.35) (drill 0.8) (layers *.Cu *.Mask))
  (pad 6 thru_hole oval (at 0 10) (size 1.35 1.35) (drill 0.8) (layers *.Cu *.Mask))
  (fp_text user %R (at 0 5 90) (layer F.Fab)
    (effects (font (size 1 1) (thickness 0.15)))
  )
  (model ${KICAD6_3DMODEL_DIR}/Connector_PinHeader_2.00mm.3dshapes/PinHeader_1x06_P2.00mm_Vertical.wrl
    (at (xyz 0 0 0))
    (scale (xyz 1 1 1))
    (rotate (xyz 0 0 0))
  )
)