(module Crystal_C26-LF_D2.1mm_L6.5mm_Vertical (layer F.Cu) (tedit 5A0FD1B2)
  (descr "Crystal THT C26-LF 6.5mm length 2.06mm diameter")
  (tags ['C26-LF'])
  (fp_text reference REF** (at 0.95 -2.23) (layer F.SilkS)
    (effects (font (size 1 1) (thickness 0.15)))
  )
  (fp_text value Crystal_C26-LF_D2.1mm_L6.5mm_Vertical (at 0.95 2.23) (layer F.Fab)
    (effects (font (size 1 1) (thickness 0.15)))
  )
  (fp_text user %R (at 0.95 0) (layer F.Fab)
    (effects (font (size 0.7 0.7) (thickness 0.105)))
  )
  (fp_circle (center 0.95 0) (end 1.98 0) (layer F.Fab) (width 0.1))
  (fp_circle (center 0.95 0) (end 2.65 0) (layer F.CrtYd) (width 0.05))
  (fp_arc (start 0.95 0) (end 0 -0.781281) (angle 101.1) (layer F.SilkS) (width 0.12))
  (fp_arc (start 0.95 0) (end 0 0.781281) (angle -101.1) (layer F.SilkS) (width 0.12))
  (pad 1 thru_hole circle (at 0 0) (size 1 1) (drill 0.5) (layers *.Cu *.Mask))
  (pad 2 thru_hole circle (at 1.9 0) (size 1 1) (drill 0.5) (layers *.Cu *.Mask))
  (model ${KICAD6_3DMODEL_DIR}/Crystal.3dshapes/Crystal_C26-LF_D2.1mm_L6.5mm_Vertical.wrl
    (at (xyz 0 0 0))
    (scale (xyz 1 1 1))
    (rotate (xyz 0 0 0))
  )
)
