(module Crystal_DS10_D1.0mm_L4.3mm_Vertical (layer F.Cu) (tedit 5A0FD1B2)
  (descr "Crystal THT DS10 4.3mm length 1.0mm diameter http://www.microcrystal.com/images/_Product-Documentation/03_TF_metal_Packages/01_Datasheet/DS-Series.pdf")
  (tags ['DS10'])
  (fp_text reference REF** (at 0.75 -1.7) (layer F.SilkS)
    (effects (font (size 1 1) (thickness 0.15)))
  )
  (fp_text value Crystal_DS10_D1.0mm_L4.3mm_Vertical (at 0.75 1.7) (layer F.Fab)
    (effects (font (size 1 1) (thickness 0.15)))
  )
  (fp_text user %R (at 2.75 0) (layer F.Fab)
    (effects (font (size 0.6 0.6) (thickness 0.09)))
  )
  (fp_circle (center 0.75 0) (end 1.25 0) (layer F.Fab) (width 0.1))
  (fp_circle (center 0.75 0) (end 2.25 0) (layer F.CrtYd) (width 0.05))
  (fp_arc (start 0.75 0) (end 0 -0.7) (angle 93.9) (layer F.SilkS) (width 0.12))
  (fp_arc (start 0.75 0) (end 0 0.7) (angle -93.9) (layer F.SilkS) (width 0.12))
  (pad 1 thru_hole circle (at 0 0) (size 1 1) (drill 0.5) (layers *.Cu *.Mask))
  (pad 2 thru_hole circle (at 1.5 0) (size 1 1) (drill 0.5) (layers *.Cu *.Mask))
  (model ${KICAD6_3DMODEL_DIR}/Crystal.3dshapes/Crystal_DS10_D1.0mm_L4.3mm_Vertical.wrl
    (at (xyz 0 0 0))
    (scale (xyz 1 1 1))
    (rotate (xyz 0 0 0))
  )
)
