(module Crystal_SMD_2016-4Pin_2.0x1.6mm (layer F.Cu) (tedit 5A0FD1B2)
  (descr "SMD Crystal SERIES SMD2016/4 http://www.q-crystal.com/upload/5/2015552223166229.pdf, 2.0x1.6mm^2 package")
  (tags "SMD SMT crystal")
  (attr smd)
  (fp_text reference REF** (at 0 -2) (layer F.SilkS)
    (effects (font (size 1 1) (thickness 0.15)))
  )
  (fp_text value Crystal_SMD_2016-4Pin_2.0x1.6mm (at 0 2) (layer F.Fab)
    (effects (font (size 1 1) (thickness 0.15)))
  )
  (fp_text user %R (at 0 0) (layer F.Fab)
    (effects (font (size 0.5 0.5) (thickness 0.075)))
  )
  (fp_line (start -0.9 -0.8) (end 0.9 -0.8) (layer F.Fab) (width 0.1))
  (fp_line (start 0.9 -0.8) (end 1 -0.7) (layer F.Fab) (width 0.1))
  (fp_line (start 1 -0.7) (end 1 0.7) (layer F.Fab) (width 0.1))
  (fp_line (start 1 0.7) (end 0.9 0.8) (layer F.Fab) (width 0.1))
  (fp_line (start 0.9 0.8) (end -0.9 0.8) (layer F.Fab) (width 0.1))
  (fp_line (start -0.9 0.8) (end -1 0.7) (layer F.Fab) (width 0.1))
  (fp_line (start -1 0.7) (end -1 -0.7) (layer F.Fab) (width 0.1))
  (fp_line (start -1 -0.7) (end -0.9 -0.8) (layer F.Fab) (width 0.1))
  (fp_line (start -1 0.3) (end -0.5 0.8) (layer F.Fab) (width 0.1))
  (fp_line (start -1.35 -1.15) (end -1.35 1.15) (layer F.SilkS) (width 0.12))
  (fp_line (start -1.35 1.15) (end 1.35 1.15) (layer F.SilkS) (width 0.12))
  (fp_line (start -1.4 -1.3) (end -1.4 1.3) (layer F.CrtYd) (width 0.05))
  (fp_line (start -1.4 1.3) (end 1.4 1.3) (layer F.CrtYd) (width 0.05))
  (fp_line (start 1.4 1.3) (end 1.4 -1.3) (layer F.CrtYd) (width 0.05))
  (fp_line (start 1.4 -1.3) (end -1.4 -1.3) (layer F.CrtYd) (width 0.05))
  (pad 1 smd rect (at -0.7 0.55) (size 0.9 0.8) (layers F.Cu F.Paste F.Mask))
  (pad 2 smd rect (at 0.7 0.55) (size 0.9 0.8) (layers F.Cu F.Paste F.Mask))
  (pad 3 smd rect (at 0.7 -0.55) (size 0.9 0.8) (layers F.Cu F.Paste F.Mask))
  (pad 4 smd rect (at -0.7 -0.55) (size 0.9 0.8) (layers F.Cu F.Paste F.Mask))
  (model ${KICAD6_3DMODEL_DIR}/Crystal.3dshapes/Crystal_SMD_2016-4Pin_2.0x1.6mm.wrl
    (at (xyz 0 0 0))
    (scale (xyz 1 1 1))
    (rotate (xyz 0 0 0))
  )
)
