(module Crystal_SMD_TXC_7A-2Pin_5x3.2mm (layer F.Cu) (tedit 5B7C2945)
  (descr "SMD Crystal TXC 7A http://txccrystal.com/images/pdf/7a.pdf")
  (tags "SMD SMT crystal")
  (attr smd)
  (fp_text reference REF** (at 0 -2.5) (layer F.SilkS)
    (effects (font (size 1 1) (thickness 0.15)))
  )
  (fp_text value Crystal_SMD_TXC_7A-2Pin_5x3.2mm (at 0 2.7) (layer F.Fab)
    (effects (font (size 1 1) (thickness 0.15)))
  )
  (fp_text user %R (at 0 -2.5) (layer F.Fab)
    (effects (font (size 1 1) (thickness 0.15)))
  )
  (fp_line (start -2.95 -1.85) (end 2.95 -1.85) (layer F.CrtYd) (width 0.05))
  (fp_line (start -2.95 -1.85) (end -2.95 1.85) (layer F.CrtYd) (width 0.05))
  (fp_line (start 2.95 -1.85) (end 2.95 1.85) (layer F.CrtYd) (width 0.05))
  (fp_line (start 2.95 1.85) (end -2.95 1.85) (layer F.CrtYd) (width 0.05))
  (fp_line (start -2.5 -1.71) (end 2.5 -1.71) (layer F.SilkS) (width 0.12))
  (fp_line (start -2.5 1.71) (end 2.5 1.71) (layer F.SilkS) (width 0.12))
  (fp_line (start -2.5 -1.6) (end 2.5 -1.6) (layer F.Fab) (width 0.1))
  (fp_line (start 2.5 -1.6) (end 2.5 1.6) (layer F.Fab) (width 0.1))
  (fp_line (start -2.5 1.6) (end 2.5 1.6) (layer F.Fab) (width 0.1))
  (fp_line (start -2.5 -1.6) (end -2.5 1.6) (layer F.Fab) (width 0.1))
  (pad 1 smd rect (at -1.85 0) (size 1.7 2.4) (layers F.Cu F.Paste F.Mask))
  (pad 2 smd rect (at 1.85 0) (size 1.7 2.4) (layers F.Cu F.Paste F.Mask))
  (model ${KICAD6_3DMODEL_DIR}/Crystal.3dshapes/Crystal_SMD_TXC_7A-2Pin_5x3.2mm.wrl
    (at (xyz 0 0 0))
    (scale (xyz 1 1 1))
    (rotate (xyz 0 0 0))
  )
)
