(module Crystal_HC35-U (layer F.Cu) (tedit 5A1AD3B7)
  (descr "Crystal, Quarz, HC35/U, http://www.kvg-gmbh.de/assets/uploads/files/product_pdfs/TO71xx.pdf")
  (tags "Crystal Quarz HC35/U")
  (fp_text reference REF** (at 2.6 -5.6) (layer F.SilkS)
    (effects (font (size 1 1) (thickness 0.15)))
  )
  (fp_text value Crystal_HC35-U (at 2.5 5.8) (layer F.Fab)
    (effects (font (size 1 1) (thickness 0.15)))
  )
  (fp_text user %R (at 2.5 1.25) (layer F.Fab)
    (effects (font (size 1 1) (thickness 0.15)))
  )
  (fp_line (start -1 -2.8) (end -1.6 -3.3) (layer F.Fab) (width 0.1))
  (fp_line (start -1.6 -3.3) (end -0.9 -3.9) (layer F.Fab) (width 0.1))
  (fp_line (start -0.9 -3.9) (end -0.5 -3.4) (layer F.Fab) (width 0.1))
  (fp_line (start -1.6 -2.8) (end -2.3 -3.4) (layer F.CrtYd) (width 0.05))
  (fp_line (start -2.3 -3.4) (end -1 -4.6) (layer F.CrtYd) (width 0.05))
  (fp_line (start -1 -4.6) (end -0.5 -4) (layer F.CrtYd) (width 0.05))
  (fp_line (start -1.1 -2.9) (end -1.7 -3.4) (layer F.SilkS) (width 0.12))
  (fp_line (start -1.7 -3.4) (end -1 -4) (layer F.SilkS) (width 0.12))
  (fp_line (start -1 -4) (end -0.6 -3.5) (layer F.SilkS) (width 0.12))
  (fp_circle (center 2.5 0) (end 7 0) (layer F.Fab) (width 0.1))
  (fp_circle (center 2.5 0) (end 7.1 0) (layer F.SilkS) (width 0.12))
  (fp_arc (start 2.5 0) (end -0.5 -4) (angle 341) (layer F.CrtYd) (width 0.05))
  (pad 1 thru_hole circle (at 0 0) (size 1.2 1.2) (drill 0.6) (layers *.Cu *.Mask))
  (pad 2 thru_hole circle (at 5 0) (size 1.2 1.2) (drill 0.6) (layers *.Cu *.Mask))
  (pad 3 thru_hole circle (at 2.5 2.5) (size 1.2 1.2) (drill 0.6) (layers *.Cu *.Mask))
  (model ${KICAD6_3DMODEL_DIR}/Crystal.3dshapes/Crystal_HC35-U.wrl
    (at (xyz 0 0 0))
    (scale (xyz 1 1 1))
    (rotate (xyz 0 0 0))
  )
)
