(module Crystal_SMD_SeikoEpson_MC146-4Pin_6.7x1.5mm_HandSoldering (layer F.Cu) (tedit 5A0FD1B2)
  (descr "SMD Crystal Seiko Epson MC-146 https://support.epson.biz/td/api/doc_check.php?dl=brief_MC-156_en.pdf, hand-soldering, 6.7x1.5mm^2 package")
  (tags "SMD SMT crystal hand-soldering")
  (attr smd)
  (fp_text reference REF** (at 0 -1.95) (layer F.SilkS)
    (effects (font (size 1 1) (thickness 0.15)))
  )
  (fp_text value Crystal_SMD_SeikoEpson_MC146-4Pin_6.7x1.5mm_HandSoldering (at 0 1.95) (layer F.Fab)
    (effects (font (size 1 1) (thickness 0.15)))
  )
  (fp_text user %R (at 0 0) (layer F.Fab)
    (effects (font (size 1 1) (thickness 0.15)))
  )
  (fp_line (start -2.95 -0.75) (end 2.95 -0.75) (layer F.Fab) (width 0.1))
  (fp_line (start 2.95 -0.75) (end 3.35 -0.35) (layer F.Fab) (width 0.1))
  (fp_line (start 3.35 -0.35) (end 3.35 0.35) (layer F.Fab) (width 0.1))
  (fp_line (start 3.35 0.35) (end 2.95 0.75) (layer F.Fab) (width 0.1))
  (fp_line (start 2.95 0.75) (end -2.95 0.75) (layer F.Fab) (width 0.1))
  (fp_line (start -2.95 0.75) (end -3.35 0.35) (layer F.Fab) (width 0.1))
  (fp_line (start -3.35 0.35) (end -3.35 -0.35) (layer F.Fab) (width 0.1))
  (fp_line (start -3.35 -0.35) (end -2.95 -0.75) (layer F.Fab) (width 0.1))
  (fp_line (start -2.85 -0.75) (end -2.85 0.75) (layer F.Fab) (width 0.1))
  (fp_line (start -4.85 -0.95) (end -4.85 0.95) (layer F.SilkS) (width 0.12))
  (fp_line (start -4.85 0.95) (end 4.85 0.95) (layer F.SilkS) (width 0.12))
  (fp_line (start -4.9 -1) (end -4.9 1) (layer F.CrtYd) (width 0.05))
  (fp_line (start -4.9 1) (end 4.9 1) (layer F.CrtYd) (width 0.05))
  (fp_line (start 4.9 1) (end 4.9 -1) (layer F.CrtYd) (width 0.05))
  (fp_line (start 4.9 -1) (end -4.9 -1) (layer F.CrtYd) (width 0.05))
  (pad 1 smd rect (at -3.6 0.45) (size 2.1 0.6) (layers F.Cu F.Paste F.Mask))
  (pad 2 smd rect (at 3.6 0.45) (size 2.1 0.6) (layers F.Cu F.Paste F.Mask))
  (pad 3 smd rect (at 3.6 -0.45) (size 2.1 0.6) (layers F.Cu F.Paste F.Mask))
  (pad 4 smd rect (at -3.6 -0.45) (size 2.1 0.6) (layers F.Cu F.Paste F.Mask))
  (model ${KICAD6_3DMODEL_DIR}/Crystal.3dshapes/Crystal_SMD_SeikoEpson_MC146-4Pin_6.7x1.5mm_HandSoldering.wrl
    (at (xyz 0 0 0))
    (scale (xyz 1 1 1))
    (rotate (xyz 0 0 0))
  )
)
