(module Crystal_C26-LF_D2.1mm_L6.5mm_Horizontal_1EP_style2 (layer F.Cu) (tedit 5A0FD1B2)
  (descr "Crystal THT C26-LF 6.5mm length 2.06mm diameter")
  (tags ['C26-LF'])
  (fp_text reference REF** (at -1.5 1.75 90) (layer F.SilkS)
    (effects (font (size 1 1) (thickness 0.15)))
  )
  (fp_text value Crystal_C26-LF_D2.1mm_L6.5mm_Horizontal_1EP_style2 (at 3.57 1.75 90) (layer F.Fab)
    (effects (font (size 1 1) (thickness 0.15)))
  )
  (fp_text user %R (at -1.5 1.75 90) (layer F.Fab)
    (effects (font (size 1 1) (thickness 0.15)))
  )
  (fp_line (start -0.08 2) (end -0.08 8.5) (layer F.Fab) (width 0.1))
  (fp_line (start -0.08 8.5) (end 1.98 8.5) (layer F.Fab) (width 0.1))
  (fp_line (start 1.98 8.5) (end 1.98 2) (layer F.Fab) (width 0.1))
  (fp_line (start 1.98 2) (end -0.08 2) (layer F.Fab) (width 0.1))
  (fp_line (start 0.6 2) (end 0 1) (layer F.Fab) (width 0.1))
  (fp_line (start 0 1) (end 0 0) (layer F.Fab) (width 0.1))
  (fp_line (start 1.3 2) (end 1.9 1) (layer F.Fab) (width 0.1))
  (fp_line (start 1.9 1) (end 1.9 0) (layer F.Fab) (width 0.1))
  (fp_line (start -0.55 5.75) (end 2.45 5.75) (layer F.Fab) (width 0.1))
  (fp_line (start -0.35 4.95) (end -0.35 1.8) (layer F.SilkS) (width 0.12))
  (fp_line (start -0.35 1.8) (end 2.25 1.8) (layer F.SilkS) (width 0.12))
  (fp_line (start 2.25 1.8) (end 2.25 4.95) (layer F.SilkS) (width 0.12))
  (fp_line (start 0.6 1.8) (end 0 0.9) (layer F.SilkS) (width 0.12))
  (fp_line (start 0 0.9) (end 0 0.7) (layer F.SilkS) (width 0.12))
  (fp_line (start 1.3 1.8) (end 1.9 0.9) (layer F.SilkS) (width 0.12))
  (fp_line (start 1.9 0.9) (end 1.9 0.7) (layer F.SilkS) (width 0.12))
  (fp_line (start -1.4 -0.8) (end -1.4 9.3) (layer F.CrtYd) (width 0.05))
  (fp_line (start -1.4 9.3) (end 3.3 9.3) (layer F.CrtYd) (width 0.05))
  (fp_line (start 3.3 9.3) (end 3.3 -0.8) (layer F.CrtYd) (width 0.05))
  (fp_line (start 3.3 -0.8) (end -1.4 -0.8) (layer F.CrtYd) (width 0.05))
  (pad 1 thru_hole circle (at 0 0) (size 1 1) (drill 0.5) (layers *.Cu *.Mask))
  (pad 2 thru_hole circle (at 1.9 0) (size 1 1) (drill 0.5) (layers *.Cu *.Mask))
  (pad 3 smd rect (at 0.95 5.75) (size 2.2 6.5) (layers F.Cu F.Paste F.Mask))
  (pad 3 thru_hole rect (at -0.55 5.75) (size 1.2 1.2) (drill 0.8) (layers *.Cu *.Mask))
  (pad 3 thru_hole rect (at 2.45 5.75) (size 1.2 1.2) (drill 0.8) (layers *.Cu *.Mask))
  (model ${KICAD6_3DMODEL_DIR}/Crystal.3dshapes/Crystal_C26-LF_D2.1mm_L6.5mm_Horizontal_1EP_style2.wrl
    (at (xyz 0 0 0))
    (scale (xyz 1 1 1))
    (rotate (xyz 0 0 0))
  )
)
