(module Crystal_C38-LF_D3.0mm_L8.0mm_Horizontal (layer F.Cu) (tedit 5A0FD1B2)
  (descr "Crystal THT C38-LF 8.0mm length 3.0mm diameter")
  (tags ['C38-LF'])
  (fp_text reference REF** (at -2.07 2.25 90) (layer F.SilkS)
    (effects (font (size 1 1) (thickness 0.15)))
  )
  (fp_text value Crystal_C38-LF_D3.0mm_L8.0mm_Horizontal (at 3.97 2.25 90) (layer F.Fab)
    (effects (font (size 1 1) (thickness 0.15)))
  )
  (fp_text user %R (at 1.25 6.5 90) (layer F.Fab)
    (effects (font (size 0.7 0.7) (thickness 0.105)))
  )
  (fp_line (start -0.55 2.5) (end -0.55 10.5) (layer F.Fab) (width 0.1))
  (fp_line (start -0.55 10.5) (end 2.45 10.5) (layer F.Fab) (width 0.1))
  (fp_line (start 2.45 10.5) (end 2.45 2.5) (layer F.Fab) (width 0.1))
  (fp_line (start 2.45 2.5) (end -0.55 2.5) (layer F.Fab) (width 0.1))
  (fp_line (start 0.405 2.5) (end 0 1.25) (layer F.Fab) (width 0.1))
  (fp_line (start 0 1.25) (end 0 0) (layer F.Fab) (width 0.1))
  (fp_line (start 1.495 2.5) (end 1.9 1.25) (layer F.Fab) (width 0.1))
  (fp_line (start 1.9 1.25) (end 1.9 0) (layer F.Fab) (width 0.1))
  (fp_line (start -0.75 2.3) (end -0.75 10.7) (layer F.SilkS) (width 0.12))
  (fp_line (start -0.75 10.7) (end 2.65 10.7) (layer F.SilkS) (width 0.12))
  (fp_line (start 2.65 10.7) (end 2.65 2.3) (layer F.SilkS) (width 0.12))
  (fp_line (start 2.65 2.3) (end -0.75 2.3) (layer F.SilkS) (width 0.12))
  (fp_line (start 0.405 2.3) (end 0 1.15) (layer F.SilkS) (width 0.12))
  (fp_line (start 0 1.15) (end 0 0.7) (layer F.SilkS) (width 0.12))
  (fp_line (start 1.495 2.3) (end 1.9 1.15) (layer F.SilkS) (width 0.12))
  (fp_line (start 1.9 1.15) (end 1.9 0.7) (layer F.SilkS) (width 0.12))
  (fp_line (start -1.3 -0.8) (end -1.3 11.3) (layer F.CrtYd) (width 0.05))
  (fp_line (start -1.3 11.3) (end 3.2 11.3) (layer F.CrtYd) (width 0.05))
  (fp_line (start 3.2 11.3) (end 3.2 -0.8) (layer F.CrtYd) (width 0.05))
  (fp_line (start 3.2 -0.8) (end -1.3 -0.8) (layer F.CrtYd) (width 0.05))
  (pad 1 thru_hole circle (at 0 0) (size 1 1) (drill 0.5) (layers *.Cu *.Mask))
  (pad 2 thru_hole circle (at 1.9 0) (size 1 1) (drill 0.5) (layers *.Cu *.Mask))
  (model ${KICAD6_3DMODEL_DIR}/Crystal.3dshapes/Crystal_C38-LF_D3.0mm_L8.0mm_Horizontal.wrl
    (at (xyz 0 0 0))
    (scale (xyz 1 1 1))
    (rotate (xyz 0 0 0))
  )
)
