(module Crystal_SMD_SeikoEpson_MC306-4Pin_8.0x3.2mm_HandSoldering (layer F.Cu) (tedit 5A0FD1B2)
  (descr "SMD Crystal Seiko Epson MC-306 https://support.epson.biz/td/api/doc_check.php?dl=brief_MC-306_en.pdf, hand-soldering, 8.0x3.2mm^2 package")
  (tags "SMD SMT crystal hand-soldering")
  (attr smd)
  (fp_text reference REF** (at 0 -4.5) (layer F.SilkS)
    (effects (font (size 1 1) (thickness 0.15)))
  )
  (fp_text value Crystal_SMD_SeikoEpson_MC306-4Pin_8.0x3.2mm_HandSoldering (at 0 4.5) (layer F.Fab)
    (effects (font (size 1 1) (thickness 0.15)))
  )
  (fp_text user %R (at 0 0) (layer F.Fab)
    (effects (font (size 1 1) (thickness 0.15)))
  )
  (fp_line (start -4 -0.5) (end -4 -1.6) (layer F.Fab) (width 0.1))
  (fp_line (start -4 -1.6) (end 4 -1.6) (layer F.Fab) (width 0.1))
  (fp_line (start 4 -1.6) (end 4 1.6) (layer F.Fab) (width 0.1))
  (fp_line (start 4 1.6) (end -4 1.6) (layer F.Fab) (width 0.1))
  (fp_line (start -4 1.6) (end -4 0.5) (layer F.Fab) (width 0.1))
  (fp_line (start 3.73 -1.8) (end 4.2 -1.8) (layer F.SilkS) (width 0.12))
  (fp_line (start 4.2 -1.8) (end 4.2 1.8) (layer F.SilkS) (width 0.12))
  (fp_line (start 4.2 1.8) (end 3.73 1.8) (layer F.SilkS) (width 0.12))
  (fp_line (start -1.9 -1.8) (end 1.9 -1.8) (layer F.SilkS) (width 0.12))
  (fp_line (start -4.2 -0.5) (end -4.2 -1.8) (layer F.SilkS) (width 0.12))
  (fp_line (start -4.2 1.8) (end -4.2 0.5) (layer F.SilkS) (width 0.12))
  (fp_line (start -4.2 -1.8) (end -3.73 -1.8) (layer F.SilkS) (width 0.12))
  (fp_line (start -4.2 1.8) (end -3.73 1.8) (layer F.SilkS) (width 0.12))
  (fp_line (start 1.9 1.8) (end -1.9 1.8) (layer F.SilkS) (width 0.12))
  (fp_line (start -4.3 -3.8) (end -4.3 3.8) (layer F.CrtYd) (width 0.05))
  (fp_line (start -4.3 3.8) (end 4.3 3.8) (layer F.CrtYd) (width 0.05))
  (fp_line (start 4.3 3.8) (end 4.3 -3.8) (layer F.CrtYd) (width 0.05))
  (fp_line (start 4.3 -3.8) (end -4.3 -3.8) (layer F.CrtYd) (width 0.05))
  (fp_arc (start -4 0) (end -4 -0.5) (angle 180) (layer F.Fab) (width 0.1))
  (fp_arc (start -4.2 0) (end -4.2 -0.5) (angle 180) (layer F.SilkS) (width 0.12))
  (pad 1 smd rect (at -2.815 2.075) (size 1.43 2.85) (layers F.Cu F.Paste F.Mask))
  (pad 2 smd rect (at 2.815 2.075) (size 1.43 2.85) (layers F.Cu F.Paste F.Mask))
  (pad 3 smd rect (at 2.815 -2.075) (size 1.43 2.85) (layers F.Cu F.Paste F.Mask))
  (pad 4 smd rect (at -2.815 -2.075) (size 1.43 2.85) (layers F.Cu F.Paste F.Mask))
  (model ${KICAD6_3DMODEL_DIR}/Crystal.3dshapes/Crystal_SMD_SeikoEpson_MC306-4Pin_8.0x3.2mm_HandSoldering.wrl
    (at (xyz 0 0 0))
    (scale (xyz 1 1 1))
    (rotate (xyz 0 0 0))
  )
)
