(module Crystal_SMD_EuroQuartz_X22-4Pin_2.5x2.0mm (layer F.Cu) (tedit 5A0FD1B2)
  (descr "SMD Crystal EuroQuartz X22 series http://cdn-reichelt.de/documents/datenblatt/B400/DS_X22.pdf, 2.5x2.0mm^2 package")
  (tags "SMD SMT crystal")
  (attr smd)
  (fp_text reference REF** (at 0 -2.2) (layer F.SilkS)
    (effects (font (size 1 1) (thickness 0.15)))
  )
  (fp_text value Crystal_SMD_EuroQuartz_X22-4Pin_2.5x2.0mm (at 0 2.2) (layer F.Fab)
    (effects (font (size 1 1) (thickness 0.15)))
  )
  (fp_text user %R (at 0 0) (layer F.Fab)
    (effects (font (size 0.6 0.6) (thickness 0.09)))
  )
  (fp_line (start -1.15 -1) (end 1.15 -1) (layer F.Fab) (width 0.1))
  (fp_line (start 1.15 -1) (end 1.25 -0.9) (layer F.Fab) (width 0.1))
  (fp_line (start 1.25 -0.9) (end 1.25 0.9) (layer F.Fab) (width 0.1))
  (fp_line (start 1.25 0.9) (end 1.15 1) (layer F.Fab) (width 0.1))
  (fp_line (start 1.15 1) (end -1.15 1) (layer F.Fab) (width 0.1))
  (fp_line (start -1.15 1) (end -1.25 0.9) (layer F.Fab) (width 0.1))
  (fp_line (start -1.25 0.9) (end -1.25 -0.9) (layer F.Fab) (width 0.1))
  (fp_line (start -1.25 -0.9) (end -1.15 -1) (layer F.Fab) (width 0.1))
  (fp_line (start -1.25 0) (end -0.25 1) (layer F.Fab) (width 0.1))
  (fp_line (start -1.6 -1.3) (end -1.6 1.3) (layer F.SilkS) (width 0.12))
  (fp_line (start -1.6 1.3) (end 1.6 1.3) (layer F.SilkS) (width 0.12))
  (fp_line (start -1.7 -1.4) (end -1.7 1.4) (layer F.CrtYd) (width 0.05))
  (fp_line (start -1.7 1.4) (end 1.7 1.4) (layer F.CrtYd) (width 0.05))
  (fp_line (start 1.7 1.4) (end 1.7 -1.4) (layer F.CrtYd) (width 0.05))
  (fp_line (start 1.7 -1.4) (end -1.7 -1.4) (layer F.CrtYd) (width 0.05))
  (pad 1 smd rect (at -0.8 0.6) (size 1.2 1) (layers F.Cu F.Paste F.Mask))
  (pad 2 smd rect (at 0.8 0.6) (size 1.2 1) (layers F.Cu F.Paste F.Mask))
  (pad 3 smd rect (at 0.8 -0.6) (size 1.2 1) (layers F.Cu F.Paste F.Mask))
  (pad 4 smd rect (at -0.8 -0.6) (size 1.2 1) (layers F.Cu F.Paste F.Mask))
  (model ${KICAD6_3DMODEL_DIR}/Crystal.3dshapes/Crystal_SMD_EuroQuartz_X22-4Pin_2.5x2.0mm.wrl
    (at (xyz 0 0 0))
    (scale (xyz 1 1 1))
    (rotate (xyz 0 0 0))
  )
)
