(module Crystal_SMD_FOX_FQ7050-4Pin_7.0x5.0mm (layer F.Cu) (tedit 5A0FD1B2)
  (descr "FOX SMD Crystal SERIES SMD7050/4 https://www.foxonline.com/pdfs/FQ7050.pdf, 7.0x5.0mm^2 package")
  (tags "SMD SMT crystal")
  (attr smd)
  (fp_text reference REF** (at 0 -3.7) (layer F.SilkS)
    (effects (font (size 1 1) (thickness 0.15)))
  )
  (fp_text value Crystal_SMD_FOX_FQ7050-4Pin_7.0x5.0mm (at 0 3.7) (layer F.Fab)
    (effects (font (size 1 1) (thickness 0.15)))
  )
  (fp_text user %R (at 0 0) (layer F.Fab)
    (effects (font (size 1 1) (thickness 0.15)))
  )
  (fp_line (start -3.3 -2.5) (end 3.3 -2.5) (layer F.Fab) (width 0.1))
  (fp_line (start 3.3 -2.5) (end 3.5 -2.3) (layer F.Fab) (width 0.1))
  (fp_line (start 3.5 -2.3) (end 3.5 2.3) (layer F.Fab) (width 0.1))
  (fp_line (start 3.5 2.3) (end 3.3 2.5) (layer F.Fab) (width 0.1))
  (fp_line (start 3.3 2.5) (end -3.3 2.5) (layer F.Fab) (width 0.1))
  (fp_line (start -3.3 2.5) (end -3.5 2.3) (layer F.Fab) (width 0.1))
  (fp_line (start -3.5 2.3) (end -3.5 -2.3) (layer F.Fab) (width 0.1))
  (fp_line (start -3.5 -2.3) (end -3.3 -2.5) (layer F.Fab) (width 0.1))
  (fp_line (start -3.5 1.5) (end -2.5 2.5) (layer F.Fab) (width 0.1))
  (fp_line (start -3.7 -2.4) (end -3.7 -2.7) (layer F.SilkS) (width 0.12))
  (fp_line (start -3.7 -2.7) (end 3.7 -2.7) (layer F.SilkS) (width 0.12))
  (fp_line (start 3.7 -2.7) (end 3.7 -2.4) (layer F.SilkS) (width 0.12))
  (fp_line (start -4.2 2.4) (end -3.7 2.4) (layer F.SilkS) (width 0.12))
  (fp_line (start -3.7 2.4) (end -3.7 2.7) (layer F.SilkS) (width 0.12))
  (fp_line (start -3.7 2.7) (end 3.7 2.7) (layer F.SilkS) (width 0.12))
  (fp_line (start 3.7 2.7) (end 3.7 2.4) (layer F.SilkS) (width 0.12))
  (fp_line (start -4.2 0.3) (end -3.7 0.3) (layer F.SilkS) (width 0.12))
  (fp_line (start -3.7 0.3) (end -3.7 -0.3) (layer F.SilkS) (width 0.12))
  (fp_line (start 3.7 -0.3) (end 3.7 0.3) (layer F.SilkS) (width 0.12))
  (fp_line (start -4.3 -2.8) (end -4.3 2.8) (layer F.CrtYd) (width 0.05))
  (fp_line (start -4.3 2.8) (end 4.3 2.8) (layer F.CrtYd) (width 0.05))
  (fp_line (start 4.3 2.8) (end 4.3 -2.8) (layer F.CrtYd) (width 0.05))
  (fp_line (start 4.3 -2.8) (end -4.3 -2.8) (layer F.CrtYd) (width 0.05))
  (pad 1 smd rect (at -2.95 1.35) (size 2.1 1.7) (layers F.Cu F.Paste F.Mask))
  (pad 2 smd rect (at 2.95 1.35) (size 2.1 1.7) (layers F.Cu F.Paste F.Mask))
  (pad 3 smd rect (at 2.95 -1.35) (size 2.1 1.7) (layers F.Cu F.Paste F.Mask))
  (pad 4 smd rect (at -2.95 -1.35) (size 2.1 1.7) (layers F.Cu F.Paste F.Mask))
  (model ${KICAD6_3DMODEL_DIR}/Crystal.3dshapes/Crystal_SMD_FOX_FQ7050-4Pin_7.0x5.0mm.wrl
    (at (xyz 0 0 0))
    (scale (xyz 1 1 1))
    (rotate (xyz 0 0 0))
  )
)
