(module Crystal_SMD_0603-4Pin_6.0x3.5mm_HandSoldering (layer F.Cu) (tedit 5A0FD1B2)
  (descr "SMD Crystal SERIES SMD0603/4 http://www.petermann-technik.de/fileadmin/petermann/pdf/SMD0603-4.pdf, hand-soldering, 6.0x3.5mm^2 package")
  (tags "SMD SMT crystal hand-soldering")
  (attr smd)
  (fp_text reference REF** (at 0 -3.6) (layer F.SilkS)
    (effects (font (size 1 1) (thickness 0.15)))
  )
  (fp_text value Crystal_SMD_0603-4Pin_6.0x3.5mm_HandSoldering (at 0 3.6) (layer F.Fab)
    (effects (font (size 1 1) (thickness 0.15)))
  )
  (fp_text user %R (at 0 0) (layer F.Fab)
    (effects (font (size 1 1) (thickness 0.15)))
  )
  (fp_line (start -2.9 -1.75) (end 2.9 -1.75) (layer F.Fab) (width 0.1))
  (fp_line (start 2.9 -1.75) (end 3 -1.65) (layer F.Fab) (width 0.1))
  (fp_line (start 3 -1.65) (end 3 1.65) (layer F.Fab) (width 0.1))
  (fp_line (start 3 1.65) (end 2.9 1.75) (layer F.Fab) (width 0.1))
  (fp_line (start 2.9 1.75) (end -2.9 1.75) (layer F.Fab) (width 0.1))
  (fp_line (start -2.9 1.75) (end -3 1.65) (layer F.Fab) (width 0.1))
  (fp_line (start -3 1.65) (end -3 -1.65) (layer F.Fab) (width 0.1))
  (fp_line (start -3 -1.65) (end -2.9 -1.75) (layer F.Fab) (width 0.1))
  (fp_line (start -3 0.75) (end -2 1.75) (layer F.Fab) (width 0.1))
  (fp_line (start -4.2 0.3) (end -3.2 0.3) (layer F.SilkS) (width 0.12))
  (fp_line (start -3.2 0.3) (end -3.2 -0.3) (layer F.SilkS) (width 0.12))
  (fp_line (start 3.2 -0.3) (end 3.2 0.3) (layer F.SilkS) (width 0.12))
  (fp_line (start -1.1 -1.95) (end 1.1 -1.95) (layer F.SilkS) (width 0.12))
  (fp_line (start 1.1 1.95) (end -1.1 1.95) (layer F.SilkS) (width 0.12))
  (fp_line (start -1.1 1.95) (end -1.1 2.8) (layer F.SilkS) (width 0.12))
  (fp_line (start -4.3 -2.9) (end -4.3 2.9) (layer F.CrtYd) (width 0.05))
  (fp_line (start -4.3 2.9) (end 4.3 2.9) (layer F.CrtYd) (width 0.05))
  (fp_line (start 4.3 2.9) (end 4.3 -2.9) (layer F.CrtYd) (width 0.05))
  (fp_line (start 4.3 -2.9) (end -4.3 -2.9) (layer F.CrtYd) (width 0.05))
  (fp_circle (center 0 0) (end 0.4 0) (layer F.Adhes) (width 0.1))
  (fp_circle (center 0 0) (end 0.333333 0) (layer F.Adhes) (width 0.1333333333))
  (fp_circle (center 0 0) (end 0.213333 0) (layer F.Adhes) (width 0.1333333333))
  (fp_circle (center 0 0) (end 0.093333 0) (layer F.Adhes) (width 0.1866666667))
  (pad 1 smd rect (at -2.65 1.55) (size 2.7 2.1) (layers F.Cu F.Paste F.Mask))
  (pad 2 smd rect (at 2.65 1.55) (size 2.7 2.1) (layers F.Cu F.Paste F.Mask))
  (pad 3 smd rect (at 2.65 -1.55) (size 2.7 2.1) (layers F.Cu F.Paste F.Mask))
  (pad 4 smd rect (at -2.65 -1.55) (size 2.7 2.1) (layers F.Cu F.Paste F.Mask))
  (model ${KICAD6_3DMODEL_DIR}/Crystal.3dshapes/Crystal_SMD_0603-4Pin_6.0x3.5mm_HandSoldering.wrl
    (at (xyz 0 0 0))
    (scale (xyz 1 1 1))
    (rotate (xyz 0 0 0))
  )
)
