(module Crystal_HC33-U_Vertical (layer F.Cu) (tedit 5A1AD3B7)
  (descr "Crystal THT HC-33/U, http://pdi.bentech-taiwan.com/PDI/GEN20SPEV20HC3320U.pdf")
  (tags "THT crystalHC-33/U")
  (fp_text reference REF** (at 6.17 -5.67) (layer F.SilkS)
    (effects (font (size 1 1) (thickness 0.15)))
  )
  (fp_text value Crystal_HC33-U_Vertical (at 6.17 5.67) (layer F.Fab)
    (effects (font (size 1 1) (thickness 0.15)))
  )
  (fp_text user %R (at 6.17 0) (layer F.Fab)
    (effects (font (size 1 1) (thickness 0.15)))
  )
  (fp_line (start 1.025 -4.47) (end 11.315 -4.47) (layer F.Fab) (width 0.1))
  (fp_line (start 1.025 4.47) (end 11.315 4.47) (layer F.Fab) (width 0.1))
  (fp_line (start 0.985 -4.025) (end 11.355 -4.025) (layer F.Fab) (width 0.1))
  (fp_line (start 0.985 4.025) (end 11.355 4.025) (layer F.Fab) (width 0.1))
  (fp_line (start 1.025 -4.67) (end 11.315 -4.67) (layer F.SilkS) (width 0.12))
  (fp_line (start 1.025 4.67) (end 11.315 4.67) (layer F.SilkS) (width 0.12))
  (fp_line (start -3.9 -5) (end -3.9 5) (layer F.CrtYd) (width 0.05))
  (fp_line (start -3.9 5) (end 16.3 5) (layer F.CrtYd) (width 0.05))
  (fp_line (start 16.3 5) (end 16.3 -5) (layer F.CrtYd) (width 0.05))
  (fp_line (start 16.3 -5) (end -3.9 -5) (layer F.CrtYd) (width 0.05))
  (fp_arc (start 1.025 0) (end 1.025 -4.47) (angle -180) (layer F.Fab) (width 0.1))
  (fp_arc (start 11.315 0) (end 11.315 -4.47) (angle 180) (layer F.Fab) (width 0.1))
  (fp_arc (start 0.985 0) (end 0.985 -4.025) (angle -180) (layer F.Fab) (width 0.1))
  (fp_arc (start 11.355 0) (end 11.355 -4.025) (angle 180) (layer F.Fab) (width 0.1))
  (fp_arc (start 1.025 0) (end 1.025 -4.67) (angle -180) (layer F.SilkS) (width 0.12))
  (fp_arc (start 11.315 0) (end 11.315 -4.67) (angle 180) (layer F.SilkS) (width 0.12))
  (pad 1 thru_hole circle (at 0 0) (size 2.7 2.7) (drill 1.7) (layers *.Cu *.Mask))
  (pad 2 thru_hole circle (at 12.34 0) (size 2.7 2.7) (drill 1.7) (layers *.Cu *.Mask))
  (model ${KICAD6_3DMODEL_DIR}/Crystal.3dshapes/Crystal_HC33-U_Vertical.wrl
    (at (xyz 0 0 0))
    (scale (xyz 1 1 1))
    (rotate (xyz 0 0 0))
  )
)
