(module Crystal_SMD_SeikoEpson_MA406-4Pin_11.7x4.0mm_HandSoldering (layer F.Cu) (tedit 5A0FD1B2)
  (descr "SMD Crystal Seiko Epson MC-506 http://media.digikey.com/pdf/Data%20Sheets/Epson%20PDFs/MA-505,506.pdf, hand-soldering, 11.7x4.0mm^2 package")
  (tags "SMD SMT crystal hand-soldering")
  (attr smd)
  (fp_text reference REF** (at 0 -4.7) (layer F.SilkS)
    (effects (font (size 1 1) (thickness 0.15)))
  )
  (fp_text value Crystal_SMD_SeikoEpson_MA406-4Pin_11.7x4.0mm_HandSoldering (at 0 4.7) (layer F.Fab)
    (effects (font (size 1 1) (thickness 0.15)))
  )
  (fp_text user %R (at 0 0) (layer F.Fab)
    (effects (font (size 1 1) (thickness 0.15)))
  )
  (fp_line (start -5.85 -0.5) (end -5.85 -2) (layer F.Fab) (width 0.1))
  (fp_line (start -5.85 -2) (end 5.85 -2) (layer F.Fab) (width 0.1))
  (fp_line (start 5.85 -2) (end 5.85 2) (layer F.Fab) (width 0.1))
  (fp_line (start 5.85 2) (end -5.85 2) (layer F.Fab) (width 0.1))
  (fp_line (start -5.85 2) (end -5.85 0.5) (layer F.Fab) (width 0.1))
  (fp_line (start -6.29 0.65) (end -6.05 0.65) (layer F.SilkS) (width 0.12))
  (fp_line (start -6.05 0.65) (end -6.05 -0.65) (layer F.SilkS) (width 0.12))
  (fp_line (start 6.05 -0.65) (end 6.05 0.65) (layer F.SilkS) (width 0.12))
  (fp_line (start -3.7 -2.2) (end 3.7 -2.2) (layer F.SilkS) (width 0.12))
  (fp_line (start 3.7 2.2) (end -3.7 2.2) (layer F.SilkS) (width 0.12))
  (fp_line (start -3.7 2.2) (end -3.7 3.9) (layer F.SilkS) (width 0.12))
  (fp_line (start -6.2 -4) (end -6.2 4) (layer F.CrtYd) (width 0.05))
  (fp_line (start -6.2 4) (end 6.2 4) (layer F.CrtYd) (width 0.05))
  (fp_line (start 6.2 4) (end 6.2 -4) (layer F.CrtYd) (width 0.05))
  (fp_line (start 6.2 -4) (end -6.2 -4) (layer F.CrtYd) (width 0.05))
  (fp_arc (start -5.85 0) (end -5.85 -0.5) (angle 180) (layer F.Fab) (width 0.1))
  (pad 1 smd rect (at -4.89 2.275) (size 1.98 2.85) (layers F.Cu F.Paste F.Mask))
  (pad 2 smd rect (at 4.89 2.275) (size 1.98 2.85) (layers F.Cu F.Paste F.Mask))
  (pad 3 smd rect (at 4.89 -2.275) (size 1.98 2.85) (layers F.Cu F.Paste F.Mask))
  (pad 4 smd rect (at -4.89 -2.275) (size 1.98 2.85) (layers F.Cu F.Paste F.Mask))
  (model ${KICAD6_3DMODEL_DIR}/Crystal.3dshapes/Crystal_SMD_SeikoEpson_MA406-4Pin_11.7x4.0mm_HandSoldering.wrl
    (at (xyz 0 0 0))
    (scale (xyz 1 1 1))
    (rotate (xyz 0 0 0))
  )
)
