(module Crystal_SMD_MicroCrystal_CC4V-T1A-2Pin_5.0x1.9mm_HandSoldering (layer F.Cu) (tedit 5A0FD1B2)
  (descr "SMD Crystal MicroCrystal CC4V-T1A series http://cdn-reichelt.de/documents/datenblatt/B400/CC4V-T1A.pdf, hand-soldering, 5.0x1.9mm^2 package")
  (tags "SMD SMT crystal hand-soldering")
  (attr smd)
  (fp_text reference REF** (at 0 -2.15) (layer F.SilkS)
    (effects (font (size 1 1) (thickness 0.15)))
  )
  (fp_text value Crystal_SMD_MicroCrystal_CC4V-T1A-2Pin_5.0x1.9mm_HandSoldering (at 0 2.15) (layer F.Fab)
    (effects (font (size 1 1) (thickness 0.15)))
  )
  (fp_text user %R (at 0 0) (layer F.Fab)
    (effects (font (size 1 1) (thickness 0.15)))
  )
  (fp_line (start -2.5 -0.95) (end -2.5 0.95) (layer F.Fab) (width 0.1))
  (fp_line (start -2.5 0.95) (end 2.5 0.95) (layer F.Fab) (width 0.1))
  (fp_line (start 2.5 0.95) (end 2.5 -0.95) (layer F.Fab) (width 0.1))
  (fp_line (start 2.5 -0.95) (end -2.5 -0.95) (layer F.Fab) (width 0.1))
  (fp_line (start -2.5 0.45) (end -2 0.95) (layer F.Fab) (width 0.1))
  (fp_line (start -1.25 -1.15) (end 1.25 -1.15) (layer F.SilkS) (width 0.12))
  (fp_line (start -1.25 1.15) (end 1.25 1.15) (layer F.SilkS) (width 0.12))
  (fp_line (start -3.925 -1.1) (end -3.925 1.1) (layer F.SilkS) (width 0.12))
  (fp_line (start -4 -1.4) (end -4 1.4) (layer F.CrtYd) (width 0.05))
  (fp_line (start -4 1.4) (end 4 1.4) (layer F.CrtYd) (width 0.05))
  (fp_line (start 4 1.4) (end 4 -1.4) (layer F.CrtYd) (width 0.05))
  (fp_line (start 4 -1.4) (end -4 -1.4) (layer F.CrtYd) (width 0.05))
  (pad 1 smd rect (at -2.5875 0) (size 2.275 2.2) (layers F.Cu F.Paste F.Mask))
  (pad 2 smd rect (at 2.5875 0) (size 2.275 2.2) (layers F.Cu F.Paste F.Mask))
  (model ${KICAD6_3DMODEL_DIR}/Crystal.3dshapes/Crystal_SMD_MicroCrystal_CC4V-T1A-2Pin_5.0x1.9mm_HandSoldering.wrl
    (at (xyz 0 0 0))
    (scale (xyz 1 1 1))
    (rotate (xyz 0 0 0))
  )
)
