(module Crystal_SMD_Abracon_ABM3-2Pin_5.0x3.2mm (layer F.Cu) (tedit 5A0FD1B2)
  (descr "Abracon Miniature Ceramic Smd Crystal ABM3 http://www.abracon.com/Resonators/abm3.pdf, 5.0x3.2mm^2 package")
  (tags "SMD SMT crystal")
  (attr smd)
  (fp_text reference REF** (at 0 -2.8) (layer F.SilkS)
    (effects (font (size 1 1) (thickness 0.15)))
  )
  (fp_text value Crystal_SMD_Abracon_ABM3-2Pin_5.0x3.2mm (at 0 2.8) (layer F.Fab)
    (effects (font (size 1 1) (thickness 0.15)))
  )
  (fp_text user %R (at 0 0) (layer F.Fab)
    (effects (font (size 1 1) (thickness 0.15)))
  )
  (fp_line (start -2.3 -1.6) (end 2.3 -1.6) (layer F.Fab) (width 0.1))
  (fp_line (start 2.3 -1.6) (end 2.5 -1.4) (layer F.Fab) (width 0.1))
  (fp_line (start 2.5 -1.4) (end 2.5 1.4) (layer F.Fab) (width 0.1))
  (fp_line (start 2.5 1.4) (end 2.3 1.6) (layer F.Fab) (width 0.1))
  (fp_line (start 2.3 1.6) (end -2.3 1.6) (layer F.Fab) (width 0.1))
  (fp_line (start -2.3 1.6) (end -2.5 1.4) (layer F.Fab) (width 0.1))
  (fp_line (start -2.5 1.4) (end -2.5 -1.4) (layer F.Fab) (width 0.1))
  (fp_line (start -2.5 -1.4) (end -2.3 -1.6) (layer F.Fab) (width 0.1))
  (fp_line (start -2.5 0.6) (end -1.5 1.6) (layer F.Fab) (width 0.1))
  (fp_line (start 2.7 -1.8) (end -3.2 -1.8) (layer F.SilkS) (width 0.12))
  (fp_line (start -3.2 -1.8) (end -3.2 1.8) (layer F.SilkS) (width 0.12))
  (fp_line (start -3.2 1.8) (end 2.7 1.8) (layer F.SilkS) (width 0.12))
  (fp_line (start -3.3 -1.9) (end -3.3 1.9) (layer F.CrtYd) (width 0.05))
  (fp_line (start -3.3 1.9) (end 3.3 1.9) (layer F.CrtYd) (width 0.05))
  (fp_line (start 3.3 1.9) (end 3.3 -1.9) (layer F.CrtYd) (width 0.05))
  (fp_line (start 3.3 -1.9) (end -3.3 -1.9) (layer F.CrtYd) (width 0.05))
  (fp_circle (center 0 0) (end 0.5 0) (layer F.Adhes) (width 0.1))
  (fp_circle (center 0 0) (end 0.416667 0) (layer F.Adhes) (width 0.1666666667))
  (fp_circle (center 0 0) (end 0.266667 0) (layer F.Adhes) (width 0.1666666667))
  (fp_circle (center 0 0) (end 0.116667 0) (layer F.Adhes) (width 0.2333333333))
  (pad 1 smd rect (at -2.05 0) (size 1.9 2.4) (layers F.Cu F.Paste F.Mask))
  (pad 2 smd rect (at 2.05 0) (size 1.9 2.4) (layers F.Cu F.Paste F.Mask))
  (model ${KICAD6_3DMODEL_DIR}/Crystal.3dshapes/Crystal_SMD_Abracon_ABM3-2Pin_5.0x3.2mm.wrl
    (at (xyz 0 0 0))
    (scale (xyz 1 1 1))
    (rotate (xyz 0 0 0))
  )
)
