(module Fiducial_0.5mm_Mask1mm (layer F.Cu) (tedit 5C18CB26)
  (descr "Circular Fiducial, 0.5mm bare copper, 1mm soldermask opening (Level C)")
  (tags fiducial)
  (attr smd)
  (fp_text reference REF** (at 0 -1.5) (layer F.SilkS)
    (effects (font (size 1 1) (thickness 0.15)))
  )
  (fp_text value Fiducial_0.5mm_Mask1mm (at 0 1.5) (layer F.Fab)
    (effects (font (size 1 1) (thickness 0.15)))
  )
  (fp_circle (center 0 0) (end 0.5 0) (layer F.Fab) (width 0.1))
  (fp_text user %R (at 0 0) (layer F.Fab)
    (effects (font (size 0.2 0.2) (thickness 0.04)))
  )
  (fp_circle (center 0 0) (end 0.75 0) (layer F.CrtYd) (width 0.05))
  (pad "" smd circle (at 0 0) (size 0.5 0.5) (layers F.Cu F.Mask)
    (solder_mask_margin 0.25) (clearance 0.25))
)
