(module LQFP-52-1EP_10x10mm_P0.65mm_EP4.8x4.8mm_ThermalVias (layer F.Cu) (tedit 5DC5FE74)
  (descr "LQFP, 52 Pin (https://www.onsemi.com/pub/Collateral/848H-01.PDF), generated with kicad-footprint-generator ipc_gullwing_generator.py")
  (tags "LQFP QFP")
  (attr smd)
  (fp_text reference REF** (at 0 -7.35) (layer F.SilkS)
    (effects (font (size 1 1) (thickness 0.15)))
  )
  (fp_text value LQFP-52-1EP_10x10mm_P0.65mm_EP4.8x4.8mm_ThermalVias (at 0 7.35) (layer F.Fab)
    (effects (font (size 1 1) (thickness 0.15)))
  )
  (fp_line (start 4.36 5.11) (end 5.11 5.11) (layer F.SilkS) (width 0.12))
  (fp_line (start 5.11 5.11) (end 5.11 4.36) (layer F.SilkS) (width 0.12))
  (fp_line (start -4.36 5.11) (end -5.11 5.11) (layer F.SilkS) (width 0.12))
  (fp_line (start -5.11 5.11) (end -5.11 4.36) (layer F.SilkS) (width 0.12))
  (fp_line (start 4.36 -5.11) (end 5.11 -5.11) (layer F.SilkS) (width 0.12))
  (fp_line (start 5.11 -5.11) (end 5.11 -4.36) (layer F.SilkS) (width 0.12))
  (fp_line (start -4.36 -5.11) (end -5.11 -5.11) (layer F.SilkS) (width 0.12))
  (fp_line (start -5.11 -5.11) (end -5.11 -4.36) (layer F.SilkS) (width 0.12))
  (fp_line (start -5.11 -4.36) (end -6.4 -4.36) (layer F.SilkS) (width 0.12))
  (fp_line (start -4 -5) (end 5 -5) (layer F.Fab) (width 0.1))
  (fp_line (start 5 -5) (end 5 5) (layer F.Fab) (width 0.1))
  (fp_line (start 5 5) (end -5 5) (layer F.Fab) (width 0.1))
  (fp_line (start -5 5) (end -5 -4) (layer F.Fab) (width 0.1))
  (fp_line (start -5 -4) (end -4 -5) (layer F.Fab) (width 0.1))
  (fp_line (start 0 -6.65) (end -4.35 -6.65) (layer F.CrtYd) (width 0.05))
  (fp_line (start -4.35 -6.65) (end -4.35 -5.25) (layer F.CrtYd) (width 0.05))
  (fp_line (start -4.35 -5.25) (end -5.25 -5.25) (layer F.CrtYd) (width 0.05))
  (fp_line (start -5.25 -5.25) (end -5.25 -4.35) (layer F.CrtYd) (width 0.05))
  (fp_line (start -5.25 -4.35) (end -6.65 -4.35) (layer F.CrtYd) (width 0.05))
  (fp_line (start -6.65 -4.35) (end -6.65 0) (layer F.CrtYd) (width 0.05))
  (fp_line (start 0 -6.65) (end 4.35 -6.65) (layer F.CrtYd) (width 0.05))
  (fp_line (start 4.35 -6.65) (end 4.35 -5.25) (layer F.CrtYd) (width 0.05))
  (fp_line (start 4.35 -5.25) (end 5.25 -5.25) (layer F.CrtYd) (width 0.05))
  (fp_line (start 5.25 -5.25) (end 5.25 -4.35) (layer F.CrtYd) (width 0.05))
  (fp_line (start 5.25 -4.35) (end 6.65 -4.35) (layer F.CrtYd) (width 0.05))
  (fp_line (start 6.65 -4.35) (end 6.65 0) (layer F.CrtYd) (width 0.05))
  (fp_line (start 0 6.65) (end -4.35 6.65) (layer F.CrtYd) (width 0.05))
  (fp_line (start -4.35 6.65) (end -4.35 5.25) (layer F.CrtYd) (width 0.05))
  (fp_line (start -4.35 5.25) (end -5.25 5.25) (layer F.CrtYd) (width 0.05))
  (fp_line (start -5.25 5.25) (end -5.25 4.35) (layer F.CrtYd) (width 0.05))
  (fp_line (start -5.25 4.35) (end -6.65 4.35) (layer F.CrtYd) (width 0.05))
  (fp_line (start -6.65 4.35) (end -6.65 0) (layer F.CrtYd) (width 0.05))
  (fp_line (start 0 6.65) (end 4.35 6.65) (layer F.CrtYd) (width 0.05))
  (fp_line (start 4.35 6.65) (end 4.35 5.25) (layer F.CrtYd) (width 0.05))
  (fp_line (start 4.35 5.25) (end 5.25 5.25) (layer F.CrtYd) (width 0.05))
  (fp_line (start 5.25 5.25) (end 5.25 4.35) (layer F.CrtYd) (width 0.05))
  (fp_line (start 5.25 4.35) (end 6.65 4.35) (layer F.CrtYd) (width 0.05))
  (fp_line (start 6.65 4.35) (end 6.65 0) (layer F.CrtYd) (width 0.05))
  (pad 1 smd roundrect (at -5.6625 -3.9) (size 1.475 0.4) (layers F.Cu F.Mask F.Paste) (roundrect_rratio 0.25))
  (pad 2 smd roundrect (at -5.6625 -3.25) (size 1.475 0.4) (layers F.Cu F.Mask F.Paste) (roundrect_rratio 0.25))
  (pad 3 smd roundrect (at -5.6625 -2.6) (size 1.475 0.4) (layers F.Cu F.Mask F.Paste) (roundrect_rratio 0.25))
  (pad 4 smd roundrect (at -5.6625 -1.95) (size 1.475 0.4) (layers F.Cu F.Mask F.Paste) (roundrect_rratio 0.25))
  (pad 5 smd roundrect (at -5.6625 -1.3) (size 1.475 0.4) (layers F.Cu F.Mask F.Paste) (roundrect_rratio 0.25))
  (pad 6 smd roundrect (at -5.6625 -0.65) (size 1.475 0.4) (layers F.Cu F.Mask F.Paste) (roundrect_rratio 0.25))
  (pad 7 smd roundrect (at -5.6625 0) (size 1.475 0.4) (layers F.Cu F.Mask F.Paste) (roundrect_rratio 0.25))
  (pad 8 smd roundrect (at -5.6625 0.65) (size 1.475 0.4) (layers F.Cu F.Mask F.Paste) (roundrect_rratio 0.25))
  (pad 9 smd roundrect (at -5.6625 1.3) (size 1.475 0.4) (layers F.Cu F.Mask F.Paste) (roundrect_rratio 0.25))
  (pad 10 smd roundrect (at -5.6625 1.95) (size 1.475 0.4) (layers F.Cu F.Mask F.Paste) (roundrect_rratio 0.25))
  (pad 11 smd roundrect (at -5.6625 2.6) (size 1.475 0.4) (layers F.Cu F.Mask F.Paste) (roundrect_rratio 0.25))
  (pad 12 smd roundrect (at -5.6625 3.25) (size 1.475 0.4) (layers F.Cu F.Mask F.Paste) (roundrect_rratio 0.25))
  (pad 13 smd roundrect (at -5.6625 3.9) (size 1.475 0.4) (layers F.Cu F.Mask F.Paste) (roundrect_rratio 0.25))
  (pad 14 smd roundrect (at -3.9 5.6625) (size 0.4 1.475) (layers F.Cu F.Mask F.Paste) (roundrect_rratio 0.25))
  (pad 15 smd roundrect (at -3.25 5.6625) (size 0.4 1.475) (layers F.Cu F.Mask F.Paste) (roundrect_rratio 0.25))
  (pad 16 smd roundrect (at -2.6 5.6625) (size 0.4 1.475) (layers F.Cu F.Mask F.Paste) (roundrect_rratio 0.25))
  (pad 17 smd roundrect (at -1.95 5.6625) (size 0.4 1.475) (layers F.Cu F.Mask F.Paste) (roundrect_rratio 0.25))
  (pad 18 smd roundrect (at -1.3 5.6625) (size 0.4 1.475) (layers F.Cu F.Mask F.Paste) (roundrect_rratio 0.25))
  (pad 19 smd roundrect (at -0.65 5.6625) (size 0.4 1.475) (layers F.Cu F.Mask F.Paste) (roundrect_rratio 0.25))
  (pad 20 smd roundrect (at 0 5.6625) (size 0.4 1.475) (layers F.Cu F.Mask F.Paste) (roundrect_rratio 0.25))
  (pad 21 smd roundrect (at 0.65 5.6625) (size 0.4 1.475) (layers F.Cu F.Mask F.Paste) (roundrect_rratio 0.25))
  (pad 22 smd roundrect (at 1.3 5.6625) (size 0.4 1.475) (layers F.Cu F.Mask F.Paste) (roundrect_rratio 0.25))
  (pad 23 smd roundrect (at 1.95 5.6625) (size 0.4 1.475) (layers F.Cu F.Mask F.Paste) (roundrect_rratio 0.25))
  (pad 24 smd roundrect (at 2.6 5.6625) (size 0.4 1.475) (layers F.Cu F.Mask F.Paste) (roundrect_rratio 0.25))
  (pad 25 smd roundrect (at 3.25 5.6625) (size 0.4 1.475) (layers F.Cu F.Mask F.Paste) (roundrect_rratio 0.25))
  (pad 26 smd roundrect (at 3.9 5.6625) (size 0.4 1.475) (layers F.Cu F.Mask F.Paste) (roundrect_rratio 0.25))
  (pad 27 smd roundrect (at 5.6625 3.9) (size 1.475 0.4) (layers F.Cu F.Mask F.Paste) (roundrect_rratio 0.25))
  (pad 28 smd roundrect (at 5.6625 3.25) (size 1.475 0.4) (layers F.Cu F.Mask F.Paste) (roundrect_rratio 0.25))
  (pad 29 smd roundrect (at 5.6625 2.6) (size 1.475 0.4) (layers F.Cu F.Mask F.Paste) (roundrect_rratio 0.25))
  (pad 30 smd roundrect (at 5.6625 1.95) (size 1.475 0.4) (layers F.Cu F.Mask F.Paste) (roundrect_rratio 0.25))
  (pad 31 smd roundrect (at 5.6625 1.3) (size 1.475 0.4) (layers F.Cu F.Mask F.Paste) (roundrect_rratio 0.25))
  (pad 32 smd roundrect (at 5.6625 0.65) (size 1.475 0.4) (layers F.Cu F.Mask F.Paste) (roundrect_rratio 0.25))
  (pad 33 smd roundrect (at 5.6625 0) (size 1.475 0.4) (layers F.Cu F.Mask F.Paste) (roundrect_rratio 0.25))
  (pad 34 smd roundrect (at 5.6625 -0.65) (size 1.475 0.4) (layers F.Cu F.Mask F.Paste) (roundrect_rratio 0.25))
  (pad 35 smd roundrect (at 5.6625 -1.3) (size 1.475 0.4) (layers F.Cu F.Mask F.Paste) (roundrect_rratio 0.25))
  (pad 36 smd roundrect (at 5.6625 -1.95) (size 1.475 0.4) (layers F.Cu F.Mask F.Paste) (roundrect_rratio 0.25))
  (pad 37 smd roundrect (at 5.6625 -2.6) (size 1.475 0.4) (layers F.Cu F.Mask F.Paste) (roundrect_rratio 0.25))
  (pad 38 smd roundrect (at 5.6625 -3.25) (size 1.475 0.4) (layers F.Cu F.Mask F.Paste) (roundrect_rratio 0.25))
  (pad 39 smd roundrect (at 5.6625 -3.9) (size 1.475 0.4) (layers F.Cu F.Mask F.Paste) (roundrect_rratio 0.25))
  (pad 40 smd roundrect (at 3.9 -5.6625) (size 0.4 1.475) (layers F.Cu F.Mask F.Paste) (roundrect_rratio 0.25))
  (pad 41 smd roundrect (at 3.25 -5.6625) (size 0.4 1.475) (layers F.Cu F.Mask F.Paste) (roundrect_rratio 0.25))
  (pad 42 smd roundrect (at 2.6 -5.6625) (size 0.4 1.475) (layers F.Cu F.Mask F.Paste) (roundrect_rratio 0.25))
  (pad 43 smd roundrect (at 1.95 -5.6625) (size 0.4 1.475) (layers F.Cu F.Mask F.Paste) (roundrect_rratio 0.25))
  (pad 44 smd roundrect (at 1.3 -5.6625) (size 0.4 1.475) (layers F.Cu F.Mask F.Paste) (roundrect_rratio 0.25))
  (pad 45 smd roundrect (at 0.65 -5.6625) (size 0.4 1.475) (layers F.Cu F.Mask F.Paste) (roundrect_rratio 0.25))
  (pad 46 smd roundrect (at 0 -5.6625) (size 0.4 1.475) (layers F.Cu F.Mask F.Paste) (roundrect_rratio 0.25))
  (pad 47 smd roundrect (at -0.65 -5.6625) (size 0.4 1.475) (layers F.Cu F.Mask F.Paste) (roundrect_rratio 0.25))
  (pad 48 smd roundrect (at -1.3 -5.6625) (size 0.4 1.475) (layers F.Cu F.Mask F.Paste) (roundrect_rratio 0.25))
  (pad 49 smd roundrect (at -1.95 -5.6625) (size 0.4 1.475) (layers F.Cu F.Mask F.Paste) (roundrect_rratio 0.25))
  (pad 50 smd roundrect (at -2.6 -5.6625) (size 0.4 1.475) (layers F.Cu F.Mask F.Paste) (roundrect_rratio 0.25))
  (pad 51 smd roundrect (at -3.25 -5.6625) (size 0.4 1.475) (layers F.Cu F.Mask F.Paste) (roundrect_rratio 0.25))
  (pad 52 smd roundrect (at -3.9 -5.6625) (size 0.4 1.475) (layers F.Cu F.Mask F.Paste) (roundrect_rratio 0.25))
  (pad 53 smd rect (at 0 0) (size 4.8 4.8) (layers F.Cu F.Mask))
  (pad 53 thru_hole circle (at -1.5 -1.5) (size 0.5 0.5) (drill 0.2) (layers *.Cu))
  (pad 53 thru_hole circle (at -0.5 -1.5) (size 0.5 0.5) (drill 0.2) (layers *.Cu))
  (pad 53 thru_hole circle (at 0.5 -1.5) (size 0.5 0.5) (drill 0.2) (layers *.Cu))
  (pad 53 thru_hole circle (at 1.5 -1.5) (size 0.5 0.5) (drill 0.2) (layers *.Cu))
  (pad 53 thru_hole circle (at -1.5 -0.5) (size 0.5 0.5) (drill 0.2) (layers *.Cu))
  (pad 53 thru_hole circle (at -0.5 -0.5) (size 0.5 0.5) (drill 0.2) (layers *.Cu))
  (pad 53 thru_hole circle (at 0.5 -0.5) (size 0.5 0.5) (drill 0.2) (layers *.Cu))
  (pad 53 thru_hole circle (at 1.5 -0.5) (size 0.5 0.5) (drill 0.2) (layers *.Cu))
  (pad 53 thru_hole circle (at -1.5 0.5) (size 0.5 0.5) (drill 0.2) (layers *.Cu))
  (pad 53 thru_hole circle (at -0.5 0.5) (size 0.5 0.5) (drill 0.2) (layers *.Cu))
  (pad 53 thru_hole circle (at 0.5 0.5) (size 0.5 0.5) (drill 0.2) (layers *.Cu))
  (pad 53 thru_hole circle (at 1.5 0.5) (size 0.5 0.5) (drill 0.2) (layers *.Cu))
  (pad 53 thru_hole circle (at -1.5 1.5) (size 0.5 0.5) (drill 0.2) (layers *.Cu))
  (pad 53 thru_hole circle (at -0.5 1.5) (size 0.5 0.5) (drill 0.2) (layers *.Cu))
  (pad 53 thru_hole circle (at 0.5 1.5) (size 0.5 0.5) (drill 0.2) (layers *.Cu))
  (pad 53 thru_hole circle (at 1.5 1.5) (size 0.5 0.5) (drill 0.2) (layers *.Cu))
  (pad 53 smd rect (at 0 0) (size 3.5 3.5) (layers B.Cu))
  (pad "" smd roundrect (at -1 -1) (size 0.806226 0.806226) (layers F.Paste) (roundrect_rratio 0.25))
  (pad "" smd roundrect (at -1 0) (size 0.806226 0.806226) (layers F.Paste) (roundrect_rratio 0.25))
  (pad "" smd roundrect (at -1 1) (size 0.806226 0.806226) (layers F.Paste) (roundrect_rratio 0.25))
  (pad "" smd roundrect (at 0 -1) (size 0.806226 0.806226) (layers F.Paste) (roundrect_rratio 0.25))
  (pad "" smd roundrect (at 0 0) (size 0.806226 0.806226) (layers F.Paste) (roundrect_rratio 0.25))
  (pad "" smd roundrect (at 0 1) (size 0.806226 0.806226) (layers F.Paste) (roundrect_rratio 0.25))
  (pad "" smd roundrect (at 1 -1) (size 0.806226 0.806226) (layers F.Paste) (roundrect_rratio 0.25))
  (pad "" smd roundrect (at 1 0) (size 0.806226 0.806226) (layers F.Paste) (roundrect_rratio 0.25))
  (pad "" smd roundrect (at 1 1) (size 0.806226 0.806226) (layers F.Paste) (roundrect_rratio 0.25))
  (pad "" smd roundrect (at -1.95 -1) (size 0.725603 0.806226) (layers F.Paste) (roundrect_rratio 0.25))
  (pad "" smd roundrect (at -1.95 0) (size 0.725603 0.806226) (layers F.Paste) (roundrect_rratio 0.25))
  (pad "" smd roundrect (at -1.95 1) (size 0.725603 0.806226) (layers F.Paste) (roundrect_rratio 0.25))
  (pad "" smd roundrect (at 1.95 -1) (size 0.725603 0.806226) (layers F.Paste) (roundrect_rratio 0.25))
  (pad "" smd roundrect (at 1.95 0) (size 0.725603 0.806226) (layers F.Paste) (roundrect_rratio 0.25))
  (pad "" smd roundrect (at 1.95 1) (size 0.725603 0.806226) (layers F.Paste) (roundrect_rratio 0.25))
  (pad "" smd roundrect (at -1 -1.95) (size 0.806226 0.725603) (layers F.Paste) (roundrect_rratio 0.25))
  (pad "" smd roundrect (at 0 -1.95) (size 0.806226 0.725603) (layers F.Paste) (roundrect_rratio 0.25))
  (pad "" smd roundrect (at 1 -1.95) (size 0.806226 0.725603) (layers F.Paste) (roundrect_rratio 0.25))
  (pad "" smd roundrect (at -1 1.95) (size 0.806226 0.725603) (layers F.Paste) (roundrect_rratio 0.25))
  (pad "" smd roundrect (at 0 1.95) (size 0.806226 0.725603) (layers F.Paste) (roundrect_rratio 0.25))
  (pad "" smd roundrect (at 1 1.95) (size 0.806226 0.725603) (layers F.Paste) (roundrect_rratio 0.25))
  (pad "" smd custom (at -1.95 -1.95) (size 0.64892 0.64892) (layers F.Paste)
    (options (clearance outline) (anchor circle))
    (primitives
      (gr_poly (pts
         (xy -0.286119 -0.286119) (xy 0.286119 -0.286119) (xy 0.286119 0.222593) (xy 0.222593 0.286119)
         (xy -0.286119 0.286119)) (width 0.153366))
    ))
  (pad "" smd custom (at -1.95 1.95) (size 0.64892 0.64892) (layers F.Paste)
    (options (clearance outline) (anchor circle))
    (primitives
      (gr_poly (pts
         (xy -0.286119 -0.286119) (xy 0.222593 -0.286119) (xy 0.286119 -0.222593) (xy 0.286119 0.286119)
         (xy -0.286119 0.286119)) (width 0.153366))
    ))
  (pad "" smd custom (at 1.95 -1.95) (size 0.64892 0.64892) (layers F.Paste)
    (options (clearance outline) (anchor circle))
    (primitives
      (gr_poly (pts
         (xy -0.286119 -0.286119) (xy 0.286119 -0.286119) (xy 0.286119 0.286119) (xy -0.222593 0.286119)
         (xy -0.286119 0.222593)) (width 0.153366))
    ))
  (pad "" smd custom (at 1.95 1.95) (size 0.64892 0.64892) (layers F.Paste)
    (options (clearance outline) (anchor circle))
    (primitives
      (gr_poly (pts
         (xy -0.286119 -0.222593) (xy -0.222593 -0.286119) (xy 0.286119 -0.286119) (xy 0.286119 0.286119)
         (xy -0.286119 0.286119)) (width 0.153366))
    ))
  (fp_text user %R (at 0 0) (layer F.Fab)
    (effects (font (size 1 1) (thickness 0.15)))
  )
  (model ${KICAD6_3DMODEL_DIR}/Package_QFP.3dshapes/LQFP-52-1EP_10x10mm_P0.65mm_EP4.8x4.8mm.wrl
    (at (xyz 0 0 0))
    (scale (xyz 1 1 1))
    (rotate (xyz 0 0 0))
  )
)