(module TQFP-48-1EP_7x7mm_P0.5mm_EP5x5mm_ThermalVias (layer F.Cu) (tedit 5DC5FE76)
  (descr "TQFP, 48 Pin (https://www.trinamic.com/fileadmin/assets/Products/ICs_Documents/TMC2100_datasheet_Rev1.08.pdf (page 45)), generated with kicad-footprint-generator ipc_gullwing_generator.py")
  (tags "TQFP QFP")
  (attr smd)
  (fp_text reference REF** (at 0 -5.85) (layer F.SilkS)
    (effects (font (size 1 1) (thickness 0.15)))
  )
  (fp_text value TQFP-48-1EP_7x7mm_P0.5mm_EP5x5mm_ThermalVias (at 0 5.85) (layer F.Fab)
    (effects (font (size 1 1) (thickness 0.15)))
  )
  (fp_line (start 3.16 3.61) (end 3.61 3.61) (layer F.SilkS) (width 0.12))
  (fp_line (start 3.61 3.61) (end 3.61 3.16) (layer F.SilkS) (width 0.12))
  (fp_line (start -3.16 3.61) (end -3.61 3.61) (layer F.SilkS) (width 0.12))
  (fp_line (start -3.61 3.61) (end -3.61 3.16) (layer F.SilkS) (width 0.12))
  (fp_line (start 3.16 -3.61) (end 3.61 -3.61) (layer F.SilkS) (width 0.12))
  (fp_line (start 3.61 -3.61) (end 3.61 -3.16) (layer F.SilkS) (width 0.12))
  (fp_line (start -3.16 -3.61) (end -3.61 -3.61) (layer F.SilkS) (width 0.12))
  (fp_line (start -3.61 -3.61) (end -3.61 -3.16) (layer F.SilkS) (width 0.12))
  (fp_line (start -3.61 -3.16) (end -4.9 -3.16) (layer F.SilkS) (width 0.12))
  (fp_line (start -2.5 -3.5) (end 3.5 -3.5) (layer F.Fab) (width 0.1))
  (fp_line (start 3.5 -3.5) (end 3.5 3.5) (layer F.Fab) (width 0.1))
  (fp_line (start 3.5 3.5) (end -3.5 3.5) (layer F.Fab) (width 0.1))
  (fp_line (start -3.5 3.5) (end -3.5 -2.5) (layer F.Fab) (width 0.1))
  (fp_line (start -3.5 -2.5) (end -2.5 -3.5) (layer F.Fab) (width 0.1))
  (fp_line (start 0 -5.15) (end -3.15 -5.15) (layer F.CrtYd) (width 0.05))
  (fp_line (start -3.15 -5.15) (end -3.15 -3.75) (layer F.CrtYd) (width 0.05))
  (fp_line (start -3.15 -3.75) (end -3.75 -3.75) (layer F.CrtYd) (width 0.05))
  (fp_line (start -3.75 -3.75) (end -3.75 -3.15) (layer F.CrtYd) (width 0.05))
  (fp_line (start -3.75 -3.15) (end -5.15 -3.15) (layer F.CrtYd) (width 0.05))
  (fp_line (start -5.15 -3.15) (end -5.15 0) (layer F.CrtYd) (width 0.05))
  (fp_line (start 0 -5.15) (end 3.15 -5.15) (layer F.CrtYd) (width 0.05))
  (fp_line (start 3.15 -5.15) (end 3.15 -3.75) (layer F.CrtYd) (width 0.05))
  (fp_line (start 3.15 -3.75) (end 3.75 -3.75) (layer F.CrtYd) (width 0.05))
  (fp_line (start 3.75 -3.75) (end 3.75 -3.15) (layer F.CrtYd) (width 0.05))
  (fp_line (start 3.75 -3.15) (end 5.15 -3.15) (layer F.CrtYd) (width 0.05))
  (fp_line (start 5.15 -3.15) (end 5.15 0) (layer F.CrtYd) (width 0.05))
  (fp_line (start 0 5.15) (end -3.15 5.15) (layer F.CrtYd) (width 0.05))
  (fp_line (start -3.15 5.15) (end -3.15 3.75) (layer F.CrtYd) (width 0.05))
  (fp_line (start -3.15 3.75) (end -3.75 3.75) (layer F.CrtYd) (width 0.05))
  (fp_line (start -3.75 3.75) (end -3.75 3.15) (layer F.CrtYd) (width 0.05))
  (fp_line (start -3.75 3.15) (end -5.15 3.15) (layer F.CrtYd) (width 0.05))
  (fp_line (start -5.15 3.15) (end -5.15 0) (layer F.CrtYd) (width 0.05))
  (fp_line (start 0 5.15) (end 3.15 5.15) (layer F.CrtYd) (width 0.05))
  (fp_line (start 3.15 5.15) (end 3.15 3.75) (layer F.CrtYd) (width 0.05))
  (fp_line (start 3.15 3.75) (end 3.75 3.75) (layer F.CrtYd) (width 0.05))
  (fp_line (start 3.75 3.75) (end 3.75 3.15) (layer F.CrtYd) (width 0.05))
  (fp_line (start 3.75 3.15) (end 5.15 3.15) (layer F.CrtYd) (width 0.05))
  (fp_line (start 5.15 3.15) (end 5.15 0) (layer F.CrtYd) (width 0.05))
  (pad 1 smd roundrect (at -4.1625 -2.75) (size 1.475 0.3) (layers F.Cu F.Mask F.Paste) (roundrect_rratio 0.25))
  (pad 2 smd roundrect (at -4.1625 -2.25) (size 1.475 0.3) (layers F.Cu F.Mask F.Paste) (roundrect_rratio 0.25))
  (pad 3 smd roundrect (at -4.1625 -1.75) (size 1.475 0.3) (layers F.Cu F.Mask F.Paste) (roundrect_rratio 0.25))
  (pad 4 smd roundrect (at -4.1625 -1.25) (size 1.475 0.3) (layers F.Cu F.Mask F.Paste) (roundrect_rratio 0.25))
  (pad 5 smd roundrect (at -4.1625 -0.75) (size 1.475 0.3) (layers F.Cu F.Mask F.Paste) (roundrect_rratio 0.25))
  (pad 6 smd roundrect (at -4.1625 -0.25) (size 1.475 0.3) (layers F.Cu F.Mask F.Paste) (roundrect_rratio 0.25))
  (pad 7 smd roundrect (at -4.1625 0.25) (size 1.475 0.3) (layers F.Cu F.Mask F.Paste) (roundrect_rratio 0.25))
  (pad 8 smd roundrect (at -4.1625 0.75) (size 1.475 0.3) (layers F.Cu F.Mask F.Paste) (roundrect_rratio 0.25))
  (pad 9 smd roundrect (at -4.1625 1.25) (size 1.475 0.3) (layers F.Cu F.Mask F.Paste) (roundrect_rratio 0.25))
  (pad 10 smd roundrect (at -4.1625 1.75) (size 1.475 0.3) (layers F.Cu F.Mask F.Paste) (roundrect_rratio 0.25))
  (pad 11 smd roundrect (at -4.1625 2.25) (size 1.475 0.3) (layers F.Cu F.Mask F.Paste) (roundrect_rratio 0.25))
  (pad 12 smd roundrect (at -4.1625 2.75) (size 1.475 0.3) (layers F.Cu F.Mask F.Paste) (roundrect_rratio 0.25))
  (pad 13 smd roundrect (at -2.75 4.1625) (size 0.3 1.475) (layers F.Cu F.Mask F.Paste) (roundrect_rratio 0.25))
  (pad 14 smd roundrect (at -2.25 4.1625) (size 0.3 1.475) (layers F.Cu F.Mask F.Paste) (roundrect_rratio 0.25))
  (pad 15 smd roundrect (at -1.75 4.1625) (size 0.3 1.475) (layers F.Cu F.Mask F.Paste) (roundrect_rratio 0.25))
  (pad 16 smd roundrect (at -1.25 4.1625) (size 0.3 1.475) (layers F.Cu F.Mask F.Paste) (roundrect_rratio 0.25))
  (pad 17 smd roundrect (at -0.75 4.1625) (size 0.3 1.475) (layers F.Cu F.Mask F.Paste) (roundrect_rratio 0.25))
  (pad 18 smd roundrect (at -0.25 4.1625) (size 0.3 1.475) (layers F.Cu F.Mask F.Paste) (roundrect_rratio 0.25))
  (pad 19 smd roundrect (at 0.25 4.1625) (size 0.3 1.475) (layers F.Cu F.Mask F.Paste) (roundrect_rratio 0.25))
  (pad 20 smd roundrect (at 0.75 4.1625) (size 0.3 1.475) (layers F.Cu F.Mask F.Paste) (roundrect_rratio 0.25))
  (pad 21 smd roundrect (at 1.25 4.1625) (size 0.3 1.475) (layers F.Cu F.Mask F.Paste) (roundrect_rratio 0.25))
  (pad 22 smd roundrect (at 1.75 4.1625) (size 0.3 1.475) (layers F.Cu F.Mask F.Paste) (roundrect_rratio 0.25))
  (pad 23 smd roundrect (at 2.25 4.1625) (size 0.3 1.475) (layers F.Cu F.Mask F.Paste) (roundrect_rratio 0.25))
  (pad 24 smd roundrect (at 2.75 4.1625) (size 0.3 1.475) (layers F.Cu F.Mask F.Paste) (roundrect_rratio 0.25))
  (pad 25 smd roundrect (at 4.1625 2.75) (size 1.475 0.3) (layers F.Cu F.Mask F.Paste) (roundrect_rratio 0.25))
  (pad 26 smd roundrect (at 4.1625 2.25) (size 1.475 0.3) (layers F.Cu F.Mask F.Paste) (roundrect_rratio 0.25))
  (pad 27 smd roundrect (at 4.1625 1.75) (size 1.475 0.3) (layers F.Cu F.Mask F.Paste) (roundrect_rratio 0.25))
  (pad 28 smd roundrect (at 4.1625 1.25) (size 1.475 0.3) (layers F.Cu F.Mask F.Paste) (roundrect_rratio 0.25))
  (pad 29 smd roundrect (at 4.1625 0.75) (size 1.475 0.3) (layers F.Cu F.Mask F.Paste) (roundrect_rratio 0.25))
  (pad 30 smd roundrect (at 4.1625 0.25) (size 1.475 0.3) (layers F.Cu F.Mask F.Paste) (roundrect_rratio 0.25))
  (pad 31 smd roundrect (at 4.1625 -0.25) (size 1.475 0.3) (layers F.Cu F.Mask F.Paste) (roundrect_rratio 0.25))
  (pad 32 smd roundrect (at 4.1625 -0.75) (size 1.475 0.3) (layers F.Cu F.Mask F.Paste) (roundrect_rratio 0.25))
  (pad 33 smd roundrect (at 4.1625 -1.25) (size 1.475 0.3) (layers F.Cu F.Mask F.Paste) (roundrect_rratio 0.25))
  (pad 34 smd roundrect (at 4.1625 -1.75) (size 1.475 0.3) (layers F.Cu F.Mask F.Paste) (roundrect_rratio 0.25))
  (pad 35 smd roundrect (at 4.1625 -2.25) (size 1.475 0.3) (layers F.Cu F.Mask F.Paste) (roundrect_rratio 0.25))
  (pad 36 smd roundrect (at 4.1625 -2.75) (size 1.475 0.3) (layers F.Cu F.Mask F.Paste) (roundrect_rratio 0.25))
  (pad 37 smd roundrect (at 2.75 -4.1625) (size 0.3 1.475) (layers F.Cu F.Mask F.Paste) (roundrect_rratio 0.25))
  (pad 38 smd roundrect (at 2.25 -4.1625) (size 0.3 1.475) (layers F.Cu F.Mask F.Paste) (roundrect_rratio 0.25))
  (pad 39 smd roundrect (at 1.75 -4.1625) (size 0.3 1.475) (layers F.Cu F.Mask F.Paste) (roundrect_rratio 0.25))
  (pad 40 smd roundrect (at 1.25 -4.1625) (size 0.3 1.475) (layers F.Cu F.Mask F.Paste) (roundrect_rratio 0.25))
  (pad 41 smd roundrect (at 0.75 -4.1625) (size 0.3 1.475) (layers F.Cu F.Mask F.Paste) (roundrect_rratio 0.25))
  (pad 42 smd roundrect (at 0.25 -4.1625) (size 0.3 1.475) (layers F.Cu F.Mask F.Paste) (roundrect_rratio 0.25))
  (pad 43 smd roundrect (at -0.25 -4.1625) (size 0.3 1.475) (layers F.Cu F.Mask F.Paste) (roundrect_rratio 0.25))
  (pad 44 smd roundrect (at -0.75 -4.1625) (size 0.3 1.475) (layers F.Cu F.Mask F.Paste) (roundrect_rratio 0.25))
  (pad 45 smd roundrect (at -1.25 -4.1625) (size 0.3 1.475) (layers F.Cu F.Mask F.Paste) (roundrect_rratio 0.25))
  (pad 46 smd roundrect (at -1.75 -4.1625) (size 0.3 1.475) (layers F.Cu F.Mask F.Paste) (roundrect_rratio 0.25))
  (pad 47 smd roundrect (at -2.25 -4.1625) (size 0.3 1.475) (layers F.Cu F.Mask F.Paste) (roundrect_rratio 0.25))
  (pad 48 smd roundrect (at -2.75 -4.1625) (size 0.3 1.475) (layers F.Cu F.Mask F.Paste) (roundrect_rratio 0.25))
  (pad 49 smd rect (at 0 0) (size 5 5) (layers F.Cu F.Mask))
  (pad 49 thru_hole circle (at -2.25 -2.25) (size 0.5 0.5) (drill 0.2) (layers *.Cu))
  (pad 49 thru_hole circle (at -1.125 -2.25) (size 0.5 0.5) (drill 0.2) (layers *.Cu))
  (pad 49 thru_hole circle (at 0 -2.25) (size 0.5 0.5) (drill 0.2) (layers *.Cu))
  (pad 49 thru_hole circle (at 1.125 -2.25) (size 0.5 0.5) (drill 0.2) (layers *.Cu))
  (pad 49 thru_hole circle (at 2.25 -2.25) (size 0.5 0.5) (drill 0.2) (layers *.Cu))
  (pad 49 thru_hole circle (at -2.25 -1.125) (size 0.5 0.5) (drill 0.2) (layers *.Cu))
  (pad 49 thru_hole circle (at -1.125 -1.125) (size 0.5 0.5) (drill 0.2) (layers *.Cu))
  (pad 49 thru_hole circle (at 0 -1.125) (size 0.5 0.5) (drill 0.2) (layers *.Cu))
  (pad 49 thru_hole circle (at 1.125 -1.125) (size 0.5 0.5) (drill 0.2) (layers *.Cu))
  (pad 49 thru_hole circle (at 2.25 -1.125) (size 0.5 0.5) (drill 0.2) (layers *.Cu))
  (pad 49 thru_hole circle (at -2.25 0) (size 0.5 0.5) (drill 0.2) (layers *.Cu))
  (pad 49 thru_hole circle (at -1.125 0) (size 0.5 0.5) (drill 0.2) (layers *.Cu))
  (pad 49 thru_hole circle (at 0 0) (size 0.5 0.5) (drill 0.2) (layers *.Cu))
  (pad 49 thru_hole circle (at 1.125 0) (size 0.5 0.5) (drill 0.2) (layers *.Cu))
  (pad 49 thru_hole circle (at 2.25 0) (size 0.5 0.5) (drill 0.2) (layers *.Cu))
  (pad 49 thru_hole circle (at -2.25 1.125) (size 0.5 0.5) (drill 0.2) (layers *.Cu))
  (pad 49 thru_hole circle (at -1.125 1.125) (size 0.5 0.5) (drill 0.2) (layers *.Cu))
  (pad 49 thru_hole circle (at 0 1.125) (size 0.5 0.5) (drill 0.2) (layers *.Cu))
  (pad 49 thru_hole circle (at 1.125 1.125) (size 0.5 0.5) (drill 0.2) (layers *.Cu))
  (pad 49 thru_hole circle (at 2.25 1.125) (size 0.5 0.5) (drill 0.2) (layers *.Cu))
  (pad 49 thru_hole circle (at -2.25 2.25) (size 0.5 0.5) (drill 0.2) (layers *.Cu))
  (pad 49 thru_hole circle (at -1.125 2.25) (size 0.5 0.5) (drill 0.2) (layers *.Cu))
  (pad 49 thru_hole circle (at 0 2.25) (size 0.5 0.5) (drill 0.2) (layers *.Cu))
  (pad 49 thru_hole circle (at 1.125 2.25) (size 0.5 0.5) (drill 0.2) (layers *.Cu))
  (pad 49 thru_hole circle (at 2.25 2.25) (size 0.5 0.5) (drill 0.2) (layers *.Cu))
  (pad 49 smd rect (at 0 0) (size 5 5) (layers B.Cu))
  (pad "" smd custom (at -1.6875 -1.6875) (size 0.890668 0.890668) (layers F.Paste)
    (options (clearance outline) (anchor circle))
    (primitives
      (gr_poly (pts
         (xy -0.386777 -0.289756) (xy -0.289756 -0.386777) (xy 0.289756 -0.386777) (xy 0.386777 -0.289756)
         (xy 0.386777 0.289756) (xy 0.289756 0.386777) (xy -0.289756 0.386777) (xy -0.386777 0.289756)) (width 0.234229))
    ))
  (pad "" smd custom (at -1.6875 -0.5625) (size 0.890668 0.890668) (layers F.Paste)
    (options (clearance outline) (anchor circle))
    (primitives
      (gr_poly (pts
         (xy -0.386777 -0.289756) (xy -0.289756 -0.386777) (xy 0.289756 -0.386777) (xy 0.386777 -0.289756)
         (xy 0.386777 0.289756) (xy 0.289756 0.386777) (xy -0.289756 0.386777) (xy -0.386777 0.289756)) (width 0.234229))
    ))
  (pad "" smd custom (at -1.6875 0.5625) (size 0.890668 0.890668) (layers F.Paste)
    (options (clearance outline) (anchor circle))
    (primitives
      (gr_poly (pts
         (xy -0.386777 -0.289756) (xy -0.289756 -0.386777) (xy 0.289756 -0.386777) (xy 0.386777 -0.289756)
         (xy 0.386777 0.289756) (xy 0.289756 0.386777) (xy -0.289756 0.386777) (xy -0.386777 0.289756)) (width 0.234229))
    ))
  (pad "" smd custom (at -1.6875 1.6875) (size 0.890668 0.890668) (layers F.Paste)
    (options (clearance outline) (anchor circle))
    (primitives
      (gr_poly (pts
         (xy -0.386777 -0.289756) (xy -0.289756 -0.386777) (xy 0.289756 -0.386777) (xy 0.386777 -0.289756)
         (xy 0.386777 0.289756) (xy 0.289756 0.386777) (xy -0.289756 0.386777) (xy -0.386777 0.289756)) (width 0.234229))
    ))
  (pad "" smd custom (at -0.5625 -1.6875) (size 0.890668 0.890668) (layers F.Paste)
    (options (clearance outline) (anchor circle))
    (primitives
      (gr_poly (pts
         (xy -0.386777 -0.289756) (xy -0.289756 -0.386777) (xy 0.289756 -0.386777) (xy 0.386777 -0.289756)
         (xy 0.386777 0.289756) (xy 0.289756 0.386777) (xy -0.289756 0.386777) (xy -0.386777 0.289756)) (width 0.234229))
    ))
  (pad "" smd custom (at -0.5625 -0.5625) (size 0.890668 0.890668) (layers F.Paste)
    (options (clearance outline) (anchor circle))
    (primitives
      (gr_poly (pts
         (xy -0.386777 -0.289756) (xy -0.289756 -0.386777) (xy 0.289756 -0.386777) (xy 0.386777 -0.289756)
         (xy 0.386777 0.289756) (xy 0.289756 0.386777) (xy -0.289756 0.386777) (xy -0.386777 0.289756)) (width 0.234229))
    ))
  (pad "" smd custom (at -0.5625 0.5625) (size 0.890668 0.890668) (layers F.Paste)
    (options (clearance outline) (anchor circle))
    (primitives
      (gr_poly (pts
         (xy -0.386777 -0.289756) (xy -0.289756 -0.386777) (xy 0.289756 -0.386777) (xy 0.386777 -0.289756)
         (xy 0.386777 0.289756) (xy 0.289756 0.386777) (xy -0.289756 0.386777) (xy -0.386777 0.289756)) (width 0.234229))
    ))
  (pad "" smd custom (at -0.5625 1.6875) (size 0.890668 0.890668) (layers F.Paste)
    (options (clearance outline) (anchor circle))
    (primitives
      (gr_poly (pts
         (xy -0.386777 -0.289756) (xy -0.289756 -0.386777) (xy 0.289756 -0.386777) (xy 0.386777 -0.289756)
         (xy 0.386777 0.289756) (xy 0.289756 0.386777) (xy -0.289756 0.386777) (xy -0.386777 0.289756)) (width 0.234229))
    ))
  (pad "" smd custom (at 0.5625 -1.6875) (size 0.890668 0.890668) (layers F.Paste)
    (options (clearance outline) (anchor circle))
    (primitives
      (gr_poly (pts
         (xy -0.386777 -0.289756) (xy -0.289756 -0.386777) (xy 0.289756 -0.386777) (xy 0.386777 -0.289756)
         (xy 0.386777 0.289756) (xy 0.289756 0.386777) (xy -0.289756 0.386777) (xy -0.386777 0.289756)) (width 0.234229))
    ))
  (pad "" smd custom (at 0.5625 -0.5625) (size 0.890668 0.890668) (layers F.Paste)
    (options (clearance outline) (anchor circle))
    (primitives
      (gr_poly (pts
         (xy -0.386777 -0.289756) (xy -0.289756 -0.386777) (xy 0.289756 -0.386777) (xy 0.386777 -0.289756)
         (xy 0.386777 0.289756) (xy 0.289756 0.386777) (xy -0.289756 0.386777) (xy -0.386777 0.289756)) (width 0.234229))
    ))
  (pad "" smd custom (at 0.5625 0.5625) (size 0.890668 0.890668) (layers F.Paste)
    (options (clearance outline) (anchor circle))
    (primitives
      (gr_poly (pts
         (xy -0.386777 -0.289756) (xy -0.289756 -0.386777) (xy 0.289756 -0.386777) (xy 0.386777 -0.289756)
         (xy 0.386777 0.289756) (xy 0.289756 0.386777) (xy -0.289756 0.386777) (xy -0.386777 0.289756)) (width 0.234229))
    ))
  (pad "" smd custom (at 0.5625 1.6875) (size 0.890668 0.890668) (layers F.Paste)
    (options (clearance outline) (anchor circle))
    (primitives
      (gr_poly (pts
         (xy -0.386777 -0.289756) (xy -0.289756 -0.386777) (xy 0.289756 -0.386777) (xy 0.386777 -0.289756)
         (xy 0.386777 0.289756) (xy 0.289756 0.386777) (xy -0.289756 0.386777) (xy -0.386777 0.289756)) (width 0.234229))
    ))
  (pad "" smd custom (at 1.6875 -1.6875) (size 0.890668 0.890668) (layers F.Paste)
    (options (clearance outline) (anchor circle))
    (primitives
      (gr_poly (pts
         (xy -0.386777 -0.289756) (xy -0.289756 -0.386777) (xy 0.289756 -0.386777) (xy 0.386777 -0.289756)
         (xy 0.386777 0.289756) (xy 0.289756 0.386777) (xy -0.289756 0.386777) (xy -0.386777 0.289756)) (width 0.234229))
    ))
  (pad "" smd custom (at 1.6875 -0.5625) (size 0.890668 0.890668) (layers F.Paste)
    (options (clearance outline) (anchor circle))
    (primitives
      (gr_poly (pts
         (xy -0.386777 -0.289756) (xy -0.289756 -0.386777) (xy 0.289756 -0.386777) (xy 0.386777 -0.289756)
         (xy 0.386777 0.289756) (xy 0.289756 0.386777) (xy -0.289756 0.386777) (xy -0.386777 0.289756)) (width 0.234229))
    ))
  (pad "" smd custom (at 1.6875 0.5625) (size 0.890668 0.890668) (layers F.Paste)
    (options (clearance outline) (anchor circle))
    (primitives
      (gr_poly (pts
         (xy -0.386777 -0.289756) (xy -0.289756 -0.386777) (xy 0.289756 -0.386777) (xy 0.386777 -0.289756)
         (xy 0.386777 0.289756) (xy 0.289756 0.386777) (xy -0.289756 0.386777) (xy -0.386777 0.289756)) (width 0.234229))
    ))
  (pad "" smd custom (at 1.6875 1.6875) (size 0.890668 0.890668) (layers F.Paste)
    (options (clearance outline) (anchor circle))
    (primitives
      (gr_poly (pts
         (xy -0.386777 -0.289756) (xy -0.289756 -0.386777) (xy 0.289756 -0.386777) (xy 0.386777 -0.289756)
         (xy 0.386777 0.289756) (xy 0.289756 0.386777) (xy -0.289756 0.386777) (xy -0.386777 0.289756)) (width 0.234229))
    ))
  (fp_text user %R (at 0 0) (layer F.Fab)
    (effects (font (size 1 1) (thickness 0.15)))
  )
  (model ${KICAD6_3DMODEL_DIR}/Package_QFP.3dshapes/TQFP-48-1EP_7x7mm_P0.5mm_EP5x5mm.wrl
    (at (xyz 0 0 0))
    (scale (xyz 1 1 1))
    (rotate (xyz 0 0 0))
  )
)