(module Diodes_PSOP-8 (layer F.Cu) (tedit 5A02F2D3)
  (descr "8-Lead Plastic PSOP, Exposed Die Pad (see https://www.diodes.com/assets/Datasheets/AP2204.pdf)")
  (tags "SSOP 0.50 exposed pad")
  (attr smd)
  (fp_text reference REF** (at 0 -3.3) (layer F.SilkS)
    (effects (font (size 1 1) (thickness 0.15)))
  )
  (fp_text value Diodes_PSOP-8 (at 0 3.4) (layer F.Fab)
    (effects (font (size 1 1) (thickness 0.15)))
  )
  (fp_line (start -0.95 -2.45) (end 1.95 -2.45) (layer F.Fab) (width 0.15))
  (fp_line (start 1.95 -2.45) (end 1.95 2.45) (layer F.Fab) (width 0.15))
  (fp_line (start 1.95 2.45) (end -1.95 2.45) (layer F.Fab) (width 0.15))
  (fp_line (start -1.95 2.45) (end -1.95 -1.45) (layer F.Fab) (width 0.15))
  (fp_line (start -1.95 -1.45) (end -0.95 -2.45) (layer F.Fab) (width 0.15))
  (fp_line (start -3.7 -2.7) (end -3.7 2.7) (layer F.CrtYd) (width 0.05))
  (fp_line (start 3.7 -2.7) (end 3.7 2.7) (layer F.CrtYd) (width 0.05))
  (fp_line (start -3.7 -2.7) (end 3.7 -2.7) (layer F.CrtYd) (width 0.05))
  (fp_line (start -3.7 2.7) (end 3.7 2.7) (layer F.CrtYd) (width 0.05))
  (fp_line (start -2.075 -2.575) (end -2.075 -2.375) (layer F.SilkS) (width 0.15))
  (fp_line (start 2.075 -2.575) (end 2.075 -2.375) (layer F.SilkS) (width 0.15))
  (fp_line (start 2.075 2.575) (end 2.075 2.375) (layer F.SilkS) (width 0.15))
  (fp_line (start -2.075 2.575) (end -2.075 2.375) (layer F.SilkS) (width 0.15))
  (fp_line (start -2.075 -2.575) (end 2.075 -2.575) (layer F.SilkS) (width 0.15))
  (fp_line (start -2.075 2.575) (end 2.075 2.575) (layer F.SilkS) (width 0.15))
  (fp_line (start -2.075 -2.375) (end -3.375 -2.375) (layer F.SilkS) (width 0.15))
  (fp_text user %R (at 0 0) (layer F.Fab)
    (effects (font (size 1 1) (thickness 0.15)))
  )
  (pad 1 smd rect (at -2.7 -1.905) (size 1.5 0.65) (layers F.Cu F.Paste F.Mask))
  (pad 2 smd rect (at -2.7 -0.635) (size 1.5 0.65) (layers F.Cu F.Paste F.Mask))
  (pad 3 smd rect (at -2.7 0.635) (size 1.5 0.65) (layers F.Cu F.Paste F.Mask))
  (pad 4 smd rect (at -2.7 1.905) (size 1.5 0.65) (layers F.Cu F.Paste F.Mask))
  (pad 5 smd rect (at 2.7 1.905) (size 1.5 0.65) (layers F.Cu F.Paste F.Mask))
  (pad 6 smd rect (at 2.7 0.635) (size 1.5 0.65) (layers F.Cu F.Paste F.Mask))
  (pad 7 smd rect (at 2.7 -0.635) (size 1.5 0.65) (layers F.Cu F.Paste F.Mask))
  (pad 8 smd rect (at 2.7 -1.905) (size 1.5 0.65) (layers F.Cu F.Paste F.Mask))
  (pad 9 smd rect (at 0.675 0.9) (size 1.35 1.8) (layers F.Cu F.Paste F.Mask)
    (solder_paste_margin_ratio -0.2))
  (pad 9 smd rect (at 0.675 -0.9) (size 1.35 1.8) (layers F.Cu F.Paste F.Mask)
    (solder_paste_margin_ratio -0.2))
  (pad 9 smd rect (at -0.675 0.9) (size 1.35 1.8) (layers F.Cu F.Paste F.Mask)
    (solder_paste_margin_ratio -0.2))
  (pad 9 smd rect (at -0.675 -0.9) (size 1.35 1.8) (layers F.Cu F.Paste F.Mask)
    (solder_paste_margin_ratio -0.2))
  (model ${KICAD6_3DMODEL_DIR}/Package_SO.3dshapes/Diodes_PSOP-8.wrl
    (at (xyz 0 0 0))
    (scale (xyz 1 1 1))
    (rotate (xyz 0 0 0))
  )
)
