(module Infineon_PG-DSO-20-85 (layer F.Cu) (tedit 5EB9B44D)
  (descr "Infineon SO package 20pin with exposed pad (https://www.infineon.com/cms/en/product/packages/PG-DSO/PG-DSO-20-85/)")
  (tags DSO-20)
  (attr smd)
  (fp_text reference REF** (at 0 -9) (layer F.SilkS)
    (effects (font (size 1 1) (thickness 0.15)))
  )
  (fp_text value Infineon_PG-DSO-20-85 (at 0 9) (layer F.Fab)
    (effects (font (size 1 1) (thickness 0.15)))
  )
  (fp_line (start -8.03 -8.2) (end 8.03 -8.2) (layer F.CrtYd) (width 0.05))
  (fp_text user %R (at 0 0) (layer F.Fab)
    (effects (font (size 1 1) (thickness 0.15)))
  )
  (fp_line (start -5.61 -6.235) (end -5.61 -8.06) (layer F.SilkS) (width 0.12))
  (fp_line (start 5.61 8.06) (end -5.61 8.06) (layer F.SilkS) (width 0.12))
  (fp_line (start 5.61 6.235) (end 5.61 8.06) (layer F.SilkS) (width 0.12))
  (fp_line (start -5.61 -8.06) (end 5.61 -8.06) (layer F.SilkS) (width 0.12))
  (fp_line (start -4.5 -7.95) (end 5.5 -7.95) (layer F.Fab) (width 0.1))
  (fp_line (start -5.5 7.95) (end -5.5 -6.95) (layer F.Fab) (width 0.1))
  (fp_line (start 5.5 -7.95) (end 5.5 7.95) (layer F.Fab) (width 0.1))
  (fp_line (start 5.5 7.95) (end -5.5 7.95) (layer F.Fab) (width 0.1))
  (fp_line (start -7.4 -6.235) (end -5.61 -6.235) (layer F.SilkS) (width 0.12))
  (fp_line (start 5.61 -6.235) (end 5.61 -8.06) (layer F.SilkS) (width 0.12))
  (fp_line (start -5.61 6.235) (end -5.61 8.06) (layer F.SilkS) (width 0.12))
  (fp_line (start -5.5 -6.95) (end -4.5 -7.95) (layer F.Fab) (width 0.1))
  (fp_line (start -8.03 8.2) (end 8.03 8.2) (layer F.CrtYd) (width 0.05))
  (fp_line (start -8.03 8.2) (end -8.03 -8.2) (layer F.CrtYd) (width 0.05))
  (fp_line (start 8.03 8.2) (end 8.03 -8.2) (layer F.CrtYd) (width 0.05))
  (pad 1 smd rect (at -6.865 -5.715) (size 1.83 0.68) (layers F.Cu F.Paste F.Mask))
  (pad 2 smd rect (at -6.865 -4.445) (size 1.83 0.68) (layers F.Cu F.Paste F.Mask))
  (pad 3 smd rect (at -6.865 -3.175) (size 1.83 0.68) (layers F.Cu F.Paste F.Mask))
  (pad 4 smd rect (at -6.865 -1.905) (size 1.83 0.68) (layers F.Cu F.Paste F.Mask))
  (pad 5 smd rect (at -6.865 -0.635) (size 1.83 0.68) (layers F.Cu F.Paste F.Mask))
  (pad 6 smd rect (at -6.865 0.635) (size 1.83 0.68) (layers F.Cu F.Paste F.Mask))
  (pad 7 smd rect (at -6.865 1.905) (size 1.83 0.68) (layers F.Cu F.Paste F.Mask))
  (pad 8 smd rect (at -6.865 3.175) (size 1.83 0.68) (layers F.Cu F.Paste F.Mask))
  (pad 9 smd rect (at -6.865 4.445) (size 1.83 0.68) (layers F.Cu F.Paste F.Mask))
  (pad 10 smd rect (at -6.865 5.715) (size 1.83 0.68) (layers F.Cu F.Paste F.Mask))
  (pad 11 smd rect (at 6.865 5.715) (size 1.83 0.68) (layers F.Cu F.Paste F.Mask))
  (pad 12 smd rect (at 6.865 4.445) (size 1.83 0.68) (layers F.Cu F.Paste F.Mask))
  (pad 13 smd rect (at 6.865 3.175) (size 1.83 0.68) (layers F.Cu F.Paste F.Mask))
  (pad 14 smd rect (at 6.865 1.905) (size 1.83 0.68) (layers F.Cu F.Paste F.Mask))
  (pad 15 smd rect (at 6.865 0.635) (size 1.83 0.68) (layers F.Cu F.Paste F.Mask))
  (pad 16 smd rect (at 6.865 -0.635) (size 1.83 0.68) (layers F.Cu F.Paste F.Mask))
  (pad 17 smd rect (at 6.865 -1.905) (size 1.83 0.68) (layers F.Cu F.Paste F.Mask))
  (pad 18 smd rect (at 6.865 -3.175) (size 1.83 0.68) (layers F.Cu F.Paste F.Mask))
  (pad 19 smd rect (at 6.865 -4.445) (size 1.83 0.68) (layers F.Cu F.Paste F.Mask))
  (pad 20 smd rect (at 6.865 -5.715) (size 1.83 0.68) (layers F.Cu F.Paste F.Mask))
  (pad 21 smd custom (at 0 0) (size 5.9 13.7) (layers F.Cu F.Mask)
    (zone_connect 2)
    (options (clearance outline) (anchor rect))
    (primitives
      (gr_poly (pts
         (xy -1.6 -7.87) (xy 1.6 -7.87) (xy 1.6 7.87) (xy -1.6 7.87)) (width 0))
    ))
  (pad "" smd rect (at 0 7.36) (size 3.2 1) (layers F.Paste))
  (pad "" smd rect (at 0 -7.36) (size 3.2 1) (layers F.Paste))
  (pad "" smd rect (at -1.4 -1.65) (size 2.4 2.8) (layers F.Paste))
  (pad "" smd rect (at -1.4 1.65) (size 2.4 2.8) (layers F.Paste))
  (pad "" smd rect (at 1.4 -1.65) (size 2.4 2.8) (layers F.Paste))
  (pad "" smd rect (at 1.4 1.65) (size 2.4 2.8) (layers F.Paste))
  (pad "" smd rect (at -1.4 -4.95) (size 2.4 2.8) (layers F.Paste))
  (pad "" smd rect (at -1.4 4.95) (size 2.4 2.8) (layers F.Paste))
  (pad "" smd rect (at 1.4 -4.95) (size 2.4 2.8) (layers F.Paste))
  (pad "" smd rect (at 1.4 4.95) (size 2.4 2.8) (layers F.Paste))
  (model ${KICAD6_3DMODEL_DIR}/Package_SO.3dshapes/Infineon_PG-DSO-20-85.wrl
    (at (xyz 0 0 0))
    (scale (xyz 1 1 1))
    (rotate (xyz 0 0 0))
  )
)
