(module Infineon_PG-DSO-12-9_ThermalVias (layer F.Cu) (tedit 5A4A7A58)
  (descr "Infineon PG-DSO 12 pin, exposed pad: 4.5x8.1mm, with thermal vias (https://www.infineon.com/cms/en/product/packages/PG-DSO/PG-DSO-12-9/)")
  (tags PG-DSO)
  (attr smd)
  (fp_text reference REF** (at -3 -5.4) (layer F.SilkS)
    (effects (font (size 1 1) (thickness 0.15)))
  )
  (fp_text value Infineon_PG-DSO-12-9_ThermalVias (at 0 6) (layer F.Fab)
    (effects (font (size 1 1) (thickness 0.15)))
  )
  (fp_line (start -6.05 4.3) (end -6.05 -4.3) (layer F.CrtYd) (width 0.05))
  (fp_line (start 6.05 4.3) (end -6.05 4.3) (layer F.CrtYd) (width 0.05))
  (fp_line (start 6.05 -4.3) (end 6.05 4.3) (layer F.CrtYd) (width 0.05))
  (fp_line (start -6.05 -4.3) (end 6.05 -4.3) (layer F.CrtYd) (width 0.05))
  (fp_text user %R (at 0 0) (layer F.Fab)
    (effects (font (size 1 1) (thickness 0.15)))
  )
  (fp_line (start -0.9 -3.2) (end -0.9 -3.9) (layer F.Fab) (width 0.1))
  (fp_line (start -0.9 3.9) (end -0.9 3.2) (layer F.Fab) (width 0.1))
  (fp_line (start 0.9 3.9) (end -0.9 3.9) (layer F.Fab) (width 0.1))
  (fp_line (start 0.9 3.2) (end 0.9 3.9) (layer F.Fab) (width 0.1))
  (fp_line (start 0.9 -3.9) (end 0.9 -3.2) (layer F.Fab) (width 0.1))
  (fp_line (start -0.9 -3.9) (end 0.9 -3.9) (layer F.Fab) (width 0.1))
  (fp_line (start 3.75 3.2) (end 0.9 3.2) (layer F.Fab) (width 0.1))
  (fp_line (start 3.75 -3.2) (end 3.75 3.2) (layer F.Fab) (width 0.1))
  (fp_line (start -2.75 -3.2) (end -0.9 -3.2) (layer F.Fab) (width 0.1))
  (fp_line (start -3.75 3.2) (end -3.75 -2.2) (layer F.Fab) (width 0.1))
  (fp_line (start 0.9 -3.2) (end 3.75 -3.2) (layer F.Fab) (width 0.1))
  (fp_line (start -0.9 3.2) (end -3.75 3.2) (layer F.Fab) (width 0.1))
  (fp_line (start 3.9 -3.35) (end 2.35 -3.35) (layer F.SilkS) (width 0.15))
  (fp_line (start 3.9 -3) (end 3.9 -3.35) (layer F.SilkS) (width 0.15))
  (fp_line (start 3.9 3.35) (end 2.35 3.35) (layer F.SilkS) (width 0.15))
  (fp_line (start 3.9 3) (end 3.9 3.35) (layer F.SilkS) (width 0.15))
  (fp_line (start -3.9 3.35) (end -2.35 3.35) (layer F.SilkS) (width 0.15))
  (fp_line (start -3.9 3) (end -3.9 3.35) (layer F.SilkS) (width 0.15))
  (fp_line (start -5.8 -3.35) (end -2.4 -3.35) (layer F.SilkS) (width 0.15))
  (fp_line (start -2.75 -3.2) (end -3.75 -2.2) (layer F.Fab) (width 0.1))
  (pad 1 smd rect (at -4.8 -2.5) (size 2 0.65) (layers F.Cu F.Paste F.Mask))
  (pad 13 smd rect (at 0 0) (size 4.5 8.1) (layers F.Cu F.Mask))
  (pad 13 thru_hole circle (at -1.85 -3.65) (size 0.8 0.8) (drill 0.3) (layers *.Cu))
  (pad 2 smd rect (at -4.8 -1.5) (size 2 0.65) (layers F.Cu F.Paste F.Mask))
  (pad 3 smd rect (at -4.8 -0.5) (size 2 0.65) (layers F.Cu F.Paste F.Mask))
  (pad 4 smd rect (at -4.8 0.5) (size 2 0.65) (layers F.Cu F.Paste F.Mask))
  (pad 5 smd rect (at -4.8 1.5) (size 2 0.65) (layers F.Cu F.Paste F.Mask))
  (pad 6 smd rect (at -4.8 2.5) (size 2 0.65) (layers F.Cu F.Paste F.Mask))
  (pad 7 smd rect (at 4.8 2.5) (size 2 0.65) (layers F.Cu F.Paste F.Mask))
  (pad 8 smd rect (at 4.8 1.5) (size 2 0.65) (layers F.Cu F.Paste F.Mask))
  (pad 9 smd rect (at 4.8 0.5) (size 2 0.65) (layers F.Cu F.Paste F.Mask))
  (pad 10 smd rect (at 4.8 -0.5) (size 2 0.65) (layers F.Cu F.Paste F.Mask))
  (pad 11 smd rect (at 4.8 -1.5) (size 2 0.65) (layers F.Cu F.Paste F.Mask))
  (pad 12 smd rect (at 4.8 -2.5) (size 2 0.65) (layers F.Cu F.Paste F.Mask))
  (pad 13 thru_hole circle (at 0 -3.65) (size 0.8 0.8) (drill 0.3) (layers *.Cu))
  (pad 13 thru_hole circle (at 1.85 -3.65) (size 0.8 0.8) (drill 0.3) (layers *.Cu))
  (pad 13 thru_hole circle (at 1.85 -2.19) (size 0.8 0.8) (drill 0.3) (layers *.Cu))
  (pad 13 thru_hole circle (at 0 -2.19) (size 0.8 0.8) (drill 0.3) (layers *.Cu))
  (pad 13 thru_hole circle (at -1.85 -2.19) (size 0.8 0.8) (drill 0.3) (layers *.Cu))
  (pad 13 thru_hole circle (at 1.85 -0.73) (size 0.8 0.8) (drill 0.3) (layers *.Cu))
  (pad 13 thru_hole circle (at 0 -0.73) (size 0.8 0.8) (drill 0.3) (layers *.Cu))
  (pad 13 thru_hole circle (at -1.85 -0.73) (size 0.8 0.8) (drill 0.3) (layers *.Cu))
  (pad 13 thru_hole circle (at 1.85 0.73) (size 0.8 0.8) (drill 0.3) (layers *.Cu))
  (pad 13 thru_hole circle (at 0 0.73) (size 0.8 0.8) (drill 0.3) (layers *.Cu))
  (pad 13 thru_hole circle (at -1.85 0.73) (size 0.8 0.8) (drill 0.3) (layers *.Cu))
  (pad 13 thru_hole circle (at 1.85 2.19) (size 0.8 0.8) (drill 0.3) (layers *.Cu))
  (pad 13 thru_hole circle (at 0 2.19) (size 0.8 0.8) (drill 0.3) (layers *.Cu))
  (pad 13 thru_hole circle (at -1.85 2.19) (size 0.8 0.8) (drill 0.3) (layers *.Cu))
  (pad 13 thru_hole circle (at 1.85 3.65) (size 0.8 0.8) (drill 0.3) (layers *.Cu))
  (pad 13 thru_hole circle (at 0 3.65) (size 0.8 0.8) (drill 0.3) (layers *.Cu))
  (pad 13 thru_hole circle (at -1.85 3.65) (size 0.8 0.8) (drill 0.3) (layers *.Cu))
  (pad "" smd rect (at -0.925 -2.92) (size 1.55 1.16) (layers F.Paste))
  (pad "" smd rect (at 0.925 -2.92) (size 1.55 1.16) (layers F.Paste))
  (pad "" smd rect (at 0.925 -1.46) (size 1.55 1.16) (layers F.Paste))
  (pad "" smd rect (at -0.925 -1.46) (size 1.55 1.16) (layers F.Paste))
  (pad "" smd rect (at 0.925 0) (size 1.55 1.16) (layers F.Paste))
  (pad "" smd rect (at -0.925 0) (size 1.55 1.16) (layers F.Paste))
  (pad "" smd rect (at 0.925 1.46) (size 1.55 1.16) (layers F.Paste))
  (pad "" smd rect (at -0.925 1.46) (size 1.55 1.16) (layers F.Paste))
  (pad "" smd rect (at 0.925 2.92) (size 1.55 1.16) (layers F.Paste))
  (pad "" smd rect (at -0.925 2.92) (size 1.55 1.16) (layers F.Paste))
  (pad 13 smd rect (at 0 0) (size 4.5 8.1) (layers B.Cu))
  (model ${KICAD6_3DMODEL_DIR}/Package_SO.3dshapes/Infineon_PG-DSO-12-9.wrl
    (at (xyz 0 0 0))
    (scale (xyz 1 1 1))
    (rotate (xyz 0 0 0))
  )
)
