(module Infineon_PG-TSDSO-14-22 (layer F.Cu) (tedit 5B05D63C)
  (descr Infineon_PG-TSDSO-14-22)
  (tags "Infineon TSDSO 14-22 ")
  (attr smd)
  (fp_text reference REF** (at 0 -3.556) (layer F.SilkS)
    (effects (font (size 1 1) (thickness 0.15)))
  )
  (fp_text value Infineon_PG-TSDSO-14-22 (at 0 3.556) (layer F.Fab)
    (effects (font (size 1 1) (thickness 0.15)))
  )
  (fp_text user %R (at 0 0) (layer F.Fab)
    (effects (font (size 0.9 0.9) (thickness 0.135)))
  )
  (fp_line (start -0.95 -2.45) (end 1.95 -2.45) (layer F.Fab) (width 0.15))
  (fp_line (start 1.95 -2.45) (end 1.95 2.45) (layer F.Fab) (width 0.15))
  (fp_line (start 1.95 2.45) (end -1.95 2.45) (layer F.Fab) (width 0.15))
  (fp_line (start -1.95 2.45) (end -1.95 -1.45) (layer F.Fab) (width 0.15))
  (fp_line (start -1.95 -1.45) (end -0.95 -2.45) (layer F.Fab) (width 0.15))
  (fp_line (start -3.76 -2.7) (end -3.76 2.7) (layer F.CrtYd) (width 0.05))
  (fp_line (start 3.76 -2.7) (end 3.76 2.7) (layer F.CrtYd) (width 0.05))
  (fp_line (start -3.76 -2.7) (end 3.76 -2.7) (layer F.CrtYd) (width 0.05))
  (fp_line (start -3.76 2.7) (end 3.76 2.7) (layer F.CrtYd) (width 0.05))
  (fp_line (start -2.075 -2.575) (end -2.075 -2.525) (layer F.SilkS) (width 0.15))
  (fp_line (start 2.075 -2.575) (end 2.075 -2.43) (layer F.SilkS) (width 0.15))
  (fp_line (start 2.075 2.575) (end 2.075 2.43) (layer F.SilkS) (width 0.15))
  (fp_line (start -2.075 2.575) (end -2.075 2.43) (layer F.SilkS) (width 0.15))
  (fp_line (start -2.075 -2.575) (end 2.075 -2.575) (layer F.SilkS) (width 0.15))
  (fp_line (start -2.075 2.575) (end 2.075 2.575) (layer F.SilkS) (width 0.15))
  (fp_line (start -2.075 -2.525) (end -3.475 -2.525) (layer F.SilkS) (width 0.15))
  (pad 1 smd rect (at -2.85 -1.95) (size 1.31 0.45) (layers F.Cu F.Paste F.Mask))
  (pad 2 smd rect (at -2.85 -1.3) (size 1.31 0.45) (layers F.Cu F.Paste F.Mask))
  (pad 3 smd rect (at -2.85 -0.65) (size 1.31 0.45) (layers F.Cu F.Paste F.Mask))
  (pad 4 smd rect (at -2.845 0) (size 1.31 0.45) (layers F.Cu F.Paste F.Mask))
  (pad 5 smd rect (at -2.85 0.65) (size 1.31 0.45) (layers F.Cu F.Paste F.Mask))
  (pad 6 smd rect (at -2.85 1.3) (size 1.31 0.45) (layers F.Cu F.Paste F.Mask))
  (pad 7 smd rect (at -2.85 1.95) (size 1.31 0.45) (layers F.Cu F.Paste F.Mask))
  (pad 8 smd rect (at 2.85 1.95) (size 1.31 0.45) (layers F.Cu F.Paste F.Mask))
  (pad 9 smd rect (at 2.85 1.3) (size 1.31 0.45) (layers F.Cu F.Paste F.Mask))
  (pad 10 smd rect (at 2.85 0.65) (size 1.31 0.45) (layers F.Cu F.Paste F.Mask))
  (pad 11 smd rect (at 2.85 0) (size 1.31 0.45) (layers F.Cu F.Paste F.Mask))
  (pad 12 smd rect (at 2.85 -0.65) (size 1.31 0.45) (layers F.Cu F.Paste F.Mask))
  (pad 13 smd rect (at 2.85 -1.3) (size 1.31 0.45) (layers F.Cu F.Paste F.Mask))
  (pad 14 smd rect (at 2.85 -1.95) (size 1.31 0.45) (layers F.Cu F.Paste F.Mask))
  (pad 15 smd rect (at 0 0) (size 2.65 4) (layers F.Cu F.Mask))
  (pad "" smd rect (at 0 -1.075) (size 2.65 1.85) (layers F.Paste))
  (pad "" smd rect (at 0 1.075) (size 2.65 1.85) (layers F.Paste))
  (model ${KICAD6_3DMODEL_DIR}/Package_SO.3dshapes/Infineon_PG-TSDSO-14-22.wrl
    (at (xyz 0 0 0))
    (scale (xyz 1 1 1))
    (rotate (xyz 0 0 0))
  )
)
