(module MSOP-16-1EP_3x4mm_P0.5mm_EP1.65x2.85mm (layer F.Cu) (tedit 5C65C476)
  (descr "MSOP, 16 Pin (http://cds.linear.com/docs/en/datasheet/37551fd.pdf#page=23), generated with kicad-footprint-generator ipc_gullwing_generator.py")
  (tags "MSOP SO")
  (attr smd)
  (fp_text reference REF** (at 0 -2.95) (layer F.SilkS)
    (effects (font (size 1 1) (thickness 0.15)))
  )
  (fp_text value MSOP-16-1EP_3x4mm_P0.5mm_EP1.65x2.85mm (at 0 2.95) (layer F.Fab)
    (effects (font (size 1 1) (thickness 0.15)))
  )
  (fp_line (start 0 2.16) (end 1.5 2.16) (layer F.SilkS) (width 0.12))
  (fp_line (start 0 2.16) (end -1.5 2.16) (layer F.SilkS) (width 0.12))
  (fp_line (start 0 -2.16) (end 1.5 -2.16) (layer F.SilkS) (width 0.12))
  (fp_line (start -0 -2.16) (end -2.875 -2.16) (layer F.SilkS) (width 0.12))
  (fp_line (start -0.75 -2) (end 1.5 -2) (layer F.Fab) (width 0.1))
  (fp_line (start 1.5 -2) (end 1.5 2) (layer F.Fab) (width 0.1))
  (fp_line (start 1.5 2) (end -1.5 2) (layer F.Fab) (width 0.1))
  (fp_line (start -1.5 2) (end -1.5 -1.25) (layer F.Fab) (width 0.1))
  (fp_line (start -1.5 -1.25) (end -0.75 -2) (layer F.Fab) (width 0.1))
  (fp_line (start -3.12 -2.25) (end -3.12 2.25) (layer F.CrtYd) (width 0.05))
  (fp_line (start -3.12 2.25) (end 3.12 2.25) (layer F.CrtYd) (width 0.05))
  (fp_line (start 3.12 2.25) (end 3.12 -2.25) (layer F.CrtYd) (width 0.05))
  (fp_line (start 3.12 -2.25) (end -3.12 -2.25) (layer F.CrtYd) (width 0.05))
  (pad 17 smd roundrect (at 0 0) (size 1.65 2.85) (layers F.Cu F.Mask) (roundrect_rratio 0.151515))
  (pad "" smd roundrect (at -0.41 -0.71) (size 0.67 1.15) (layers F.Paste) (roundrect_rratio 0.25))
  (pad "" smd roundrect (at -0.41 0.71) (size 0.67 1.15) (layers F.Paste) (roundrect_rratio 0.25))
  (pad "" smd roundrect (at 0.41 -0.71) (size 0.67 1.15) (layers F.Paste) (roundrect_rratio 0.25))
  (pad "" smd roundrect (at 0.41 0.71) (size 0.67 1.15) (layers F.Paste) (roundrect_rratio 0.25))
  (pad 1 smd roundrect (at -2.15 -1.75) (size 1.45 0.3) (layers F.Cu F.Mask F.Paste) (roundrect_rratio 0.25))
  (pad 2 smd roundrect (at -2.15 -1.25) (size 1.45 0.3) (layers F.Cu F.Mask F.Paste) (roundrect_rratio 0.25))
  (pad 3 smd roundrect (at -2.15 -0.75) (size 1.45 0.3) (layers F.Cu F.Mask F.Paste) (roundrect_rratio 0.25))
  (pad 4 smd roundrect (at -2.15 -0.25) (size 1.45 0.3) (layers F.Cu F.Mask F.Paste) (roundrect_rratio 0.25))
  (pad 5 smd roundrect (at -2.15 0.25) (size 1.45 0.3) (layers F.Cu F.Mask F.Paste) (roundrect_rratio 0.25))
  (pad 6 smd roundrect (at -2.15 0.75) (size 1.45 0.3) (layers F.Cu F.Mask F.Paste) (roundrect_rratio 0.25))
  (pad 7 smd roundrect (at -2.15 1.25) (size 1.45 0.3) (layers F.Cu F.Mask F.Paste) (roundrect_rratio 0.25))
  (pad 8 smd roundrect (at -2.15 1.75) (size 1.45 0.3) (layers F.Cu F.Mask F.Paste) (roundrect_rratio 0.25))
  (pad 9 smd roundrect (at 2.15 1.75) (size 1.45 0.3) (layers F.Cu F.Mask F.Paste) (roundrect_rratio 0.25))
  (pad 10 smd roundrect (at 2.15 1.25) (size 1.45 0.3) (layers F.Cu F.Mask F.Paste) (roundrect_rratio 0.25))
  (pad 11 smd roundrect (at 2.15 0.75) (size 1.45 0.3) (layers F.Cu F.Mask F.Paste) (roundrect_rratio 0.25))
  (pad 12 smd roundrect (at 2.15 0.25) (size 1.45 0.3) (layers F.Cu F.Mask F.Paste) (roundrect_rratio 0.25))
  (pad 13 smd roundrect (at 2.15 -0.25) (size 1.45 0.3) (layers F.Cu F.Mask F.Paste) (roundrect_rratio 0.25))
  (pad 14 smd roundrect (at 2.15 -0.75) (size 1.45 0.3) (layers F.Cu F.Mask F.Paste) (roundrect_rratio 0.25))
  (pad 15 smd roundrect (at 2.15 -1.25) (size 1.45 0.3) (layers F.Cu F.Mask F.Paste) (roundrect_rratio 0.25))
  (pad 16 smd roundrect (at 2.15 -1.75) (size 1.45 0.3) (layers F.Cu F.Mask F.Paste) (roundrect_rratio 0.25))
  (fp_text user %R (at 0 0) (layer F.Fab)
    (effects (font (size 0.75 0.75) (thickness 0.11)))
  )
  (model ${KICAD6_3DMODEL_DIR}/Package_SO.3dshapes/MSOP-16-1EP_3x4mm_P0.5mm_EP1.65x2.85mm.wrl
    (at (xyz 0 0 0))
    (scale (xyz 1 1 1))
    (rotate (xyz 0 0 0))
  )
)