(module MSOP-16-1EP_3x4.039mm_P0.5mm_EP1.651x2.845mm_ThermalVias (layer F.Cu) (tedit 5DC5FE75)
  (descr "MSOP, 16 Pin (https://www.analog.com/media/en/package-pcb-resources/package/pkg_pdf/ltc-legacy-msop/05081667_F_MSE16.pdf), generated with kicad-footprint-generator ipc_gullwing_generator.py")
  (tags "MSOP SO")
  (attr smd)
  (fp_text reference REF** (at 0 -2.97) (layer F.SilkS)
    (effects (font (size 1 1) (thickness 0.15)))
  )
  (fp_text value MSOP-16-1EP_3x4.039mm_P0.5mm_EP1.651x2.845mm_ThermalVias (at 0 2.97) (layer F.Fab)
    (effects (font (size 1 1) (thickness 0.15)))
  )
  (fp_line (start 0 2.16) (end 1.5 2.16) (layer F.SilkS) (width 0.12))
  (fp_line (start 0 2.16) (end -1.5 2.16) (layer F.SilkS) (width 0.12))
  (fp_line (start 0 -2.16) (end 1.5 -2.16) (layer F.SilkS) (width 0.12))
  (fp_line (start 0 -2.16) (end -2.875 -2.16) (layer F.SilkS) (width 0.12))
  (fp_line (start -0.75 -2.0195) (end 1.5 -2.0195) (layer F.Fab) (width 0.1))
  (fp_line (start 1.5 -2.0195) (end 1.5 2.0195) (layer F.Fab) (width 0.1))
  (fp_line (start 1.5 2.0195) (end -1.5 2.0195) (layer F.Fab) (width 0.1))
  (fp_line (start -1.5 2.0195) (end -1.5 -1.2695) (layer F.Fab) (width 0.1))
  (fp_line (start -1.5 -1.2695) (end -0.75 -2.0195) (layer F.Fab) (width 0.1))
  (fp_line (start -3.12 -2.27) (end -3.12 2.27) (layer F.CrtYd) (width 0.05))
  (fp_line (start -3.12 2.27) (end 3.12 2.27) (layer F.CrtYd) (width 0.05))
  (fp_line (start 3.12 2.27) (end 3.12 -2.27) (layer F.CrtYd) (width 0.05))
  (fp_line (start 3.12 -2.27) (end -3.12 -2.27) (layer F.CrtYd) (width 0.05))
  (pad 1 smd roundrect (at -2.15 -1.75) (size 1.45 0.3) (layers F.Cu F.Mask F.Paste) (roundrect_rratio 0.25))
  (pad 2 smd roundrect (at -2.15 -1.25) (size 1.45 0.3) (layers F.Cu F.Mask F.Paste) (roundrect_rratio 0.25))
  (pad 3 smd roundrect (at -2.15 -0.75) (size 1.45 0.3) (layers F.Cu F.Mask F.Paste) (roundrect_rratio 0.25))
  (pad 4 smd roundrect (at -2.15 -0.25) (size 1.45 0.3) (layers F.Cu F.Mask F.Paste) (roundrect_rratio 0.25))
  (pad 5 smd roundrect (at -2.15 0.25) (size 1.45 0.3) (layers F.Cu F.Mask F.Paste) (roundrect_rratio 0.25))
  (pad 6 smd roundrect (at -2.15 0.75) (size 1.45 0.3) (layers F.Cu F.Mask F.Paste) (roundrect_rratio 0.25))
  (pad 7 smd roundrect (at -2.15 1.25) (size 1.45 0.3) (layers F.Cu F.Mask F.Paste) (roundrect_rratio 0.25))
  (pad 8 smd roundrect (at -2.15 1.75) (size 1.45 0.3) (layers F.Cu F.Mask F.Paste) (roundrect_rratio 0.25))
  (pad 9 smd roundrect (at 2.15 1.75) (size 1.45 0.3) (layers F.Cu F.Mask F.Paste) (roundrect_rratio 0.25))
  (pad 10 smd roundrect (at 2.15 1.25) (size 1.45 0.3) (layers F.Cu F.Mask F.Paste) (roundrect_rratio 0.25))
  (pad 11 smd roundrect (at 2.15 0.75) (size 1.45 0.3) (layers F.Cu F.Mask F.Paste) (roundrect_rratio 0.25))
  (pad 12 smd roundrect (at 2.15 0.25) (size 1.45 0.3) (layers F.Cu F.Mask F.Paste) (roundrect_rratio 0.25))
  (pad 13 smd roundrect (at 2.15 -0.25) (size 1.45 0.3) (layers F.Cu F.Mask F.Paste) (roundrect_rratio 0.25))
  (pad 14 smd roundrect (at 2.15 -0.75) (size 1.45 0.3) (layers F.Cu F.Mask F.Paste) (roundrect_rratio 0.25))
  (pad 15 smd roundrect (at 2.15 -1.25) (size 1.45 0.3) (layers F.Cu F.Mask F.Paste) (roundrect_rratio 0.25))
  (pad 16 smd roundrect (at 2.15 -1.75) (size 1.45 0.3) (layers F.Cu F.Mask F.Paste) (roundrect_rratio 0.25))
  (pad 17 smd rect (at 0 0) (size 1.651 2.845) (layers F.Cu F.Mask))
  (pad 17 thru_hole circle (at -0.5505 -1.1475) (size 0.55 0.55) (drill 0.25) (layers *.Cu))
  (pad 17 thru_hole circle (at 0.5505 -1.1475) (size 0.55 0.55) (drill 0.25) (layers *.Cu))
  (pad 17 thru_hole circle (at -0.5505 0) (size 0.55 0.55) (drill 0.25) (layers *.Cu))
  (pad 17 thru_hole circle (at 0.5505 0) (size 0.55 0.55) (drill 0.25) (layers *.Cu))
  (pad 17 thru_hole circle (at -0.5505 1.1475) (size 0.55 0.55) (drill 0.25) (layers *.Cu))
  (pad 17 thru_hole circle (at 0.5505 1.1475) (size 0.55 0.55) (drill 0.25) (layers *.Cu))
  (pad 17 smd rect (at 0 0) (size 1.651 2.845) (layers B.Cu))
  (pad "" smd roundrect (at -0.415 -0.71) (size 0.69 1.19) (layers F.Paste) (roundrect_rratio 0.25))
  (pad "" smd roundrect (at -0.415 0.71) (size 0.69 1.19) (layers F.Paste) (roundrect_rratio 0.25))
  (pad "" smd roundrect (at 0.415 -0.71) (size 0.69 1.19) (layers F.Paste) (roundrect_rratio 0.25))
  (pad "" smd roundrect (at 0.415 0.71) (size 0.69 1.19) (layers F.Paste) (roundrect_rratio 0.25))
  (fp_text user %R (at 0 0) (layer F.Fab)
    (effects (font (size 0.75 0.75) (thickness 0.11)))
  )
  (model ${KICAD6_3DMODEL_DIR}/Package_SO.3dshapes/MSOP-16-1EP_3x4.039mm_P0.5mm_EP1.651x2.845mm.wrl
    (at (xyz 0 0 0))
    (scale (xyz 1 1 1))
    (rotate (xyz 0 0 0))
  )
)