(module MSOP-8-1EP_3x3mm_P0.65mm_EP1.73x1.85mm_ThermalVias (layer F.Cu) (tedit 5DC5FE75)
  (descr "MSOP, 8 Pin (http://www.ti.com/lit/ds/symlink/lm25085.pdf#page=32), generated with kicad-footprint-generator ipc_gullwing_generator.py")
  (tags "MSOP SO")
  (attr smd)
  (fp_text reference REF** (at 0 -2.45) (layer F.SilkS)
    (effects (font (size 1 1) (thickness 0.15)))
  )
  (fp_text value MSOP-8-1EP_3x3mm_P0.65mm_EP1.73x1.85mm_ThermalVias (at 0 2.45) (layer F.Fab)
    (effects (font (size 1 1) (thickness 0.15)))
  )
  (fp_line (start 0 1.61) (end 1.5 1.61) (layer F.SilkS) (width 0.12))
  (fp_line (start 0 1.61) (end -1.5 1.61) (layer F.SilkS) (width 0.12))
  (fp_line (start 0 -1.61) (end 1.5 -1.61) (layer F.SilkS) (width 0.12))
  (fp_line (start 0 -1.61) (end -2.875 -1.61) (layer F.SilkS) (width 0.12))
  (fp_line (start -0.75 -1.5) (end 1.5 -1.5) (layer F.Fab) (width 0.1))
  (fp_line (start 1.5 -1.5) (end 1.5 1.5) (layer F.Fab) (width 0.1))
  (fp_line (start 1.5 1.5) (end -1.5 1.5) (layer F.Fab) (width 0.1))
  (fp_line (start -1.5 1.5) (end -1.5 -0.75) (layer F.Fab) (width 0.1))
  (fp_line (start -1.5 -0.75) (end -0.75 -1.5) (layer F.Fab) (width 0.1))
  (fp_line (start -3.12 -1.75) (end -3.12 1.75) (layer F.CrtYd) (width 0.05))
  (fp_line (start -3.12 1.75) (end 3.12 1.75) (layer F.CrtYd) (width 0.05))
  (fp_line (start 3.12 1.75) (end 3.12 -1.75) (layer F.CrtYd) (width 0.05))
  (fp_line (start 3.12 -1.75) (end -3.12 -1.75) (layer F.CrtYd) (width 0.05))
  (pad 1 smd roundrect (at -2.1625 -0.975) (size 1.425 0.4) (layers F.Cu F.Mask F.Paste) (roundrect_rratio 0.25))
  (pad 2 smd roundrect (at -2.1625 -0.325) (size 1.425 0.4) (layers F.Cu F.Mask F.Paste) (roundrect_rratio 0.25))
  (pad 3 smd roundrect (at -2.1625 0.325) (size 1.425 0.4) (layers F.Cu F.Mask F.Paste) (roundrect_rratio 0.25))
  (pad 4 smd roundrect (at -2.1625 0.975) (size 1.425 0.4) (layers F.Cu F.Mask F.Paste) (roundrect_rratio 0.25))
  (pad 5 smd roundrect (at 2.1625 0.975) (size 1.425 0.4) (layers F.Cu F.Mask F.Paste) (roundrect_rratio 0.25))
  (pad 6 smd roundrect (at 2.1625 0.325) (size 1.425 0.4) (layers F.Cu F.Mask F.Paste) (roundrect_rratio 0.25))
  (pad 7 smd roundrect (at 2.1625 -0.325) (size 1.425 0.4) (layers F.Cu F.Mask F.Paste) (roundrect_rratio 0.25))
  (pad 8 smd roundrect (at 2.1625 -0.975) (size 1.425 0.4) (layers F.Cu F.Mask F.Paste) (roundrect_rratio 0.25))
  (pad 9 smd rect (at 0 0) (size 1.73 1.85) (layers F.Cu F.Mask))
  (pad 9 thru_hole circle (at -0.55 -0.65) (size 0.5 0.5) (drill 0.2) (layers *.Cu))
  (pad 9 thru_hole circle (at 0.55 -0.65) (size 0.5 0.5) (drill 0.2) (layers *.Cu))
  (pad 9 thru_hole circle (at -0.55 0.65) (size 0.5 0.5) (drill 0.2) (layers *.Cu))
  (pad 9 thru_hole circle (at 0.55 0.65) (size 0.5 0.5) (drill 0.2) (layers *.Cu))
  (pad 9 smd rect (at 0 0) (size 1.6 1.8) (layers B.Cu))
  (pad "" smd roundrect (at -0.43 -0.46) (size 0.72 0.77) (layers F.Paste) (roundrect_rratio 0.25))
  (pad "" smd roundrect (at -0.43 0.46) (size 0.72 0.77) (layers F.Paste) (roundrect_rratio 0.25))
  (pad "" smd roundrect (at 0.43 -0.46) (size 0.72 0.77) (layers F.Paste) (roundrect_rratio 0.25))
  (pad "" smd roundrect (at 0.43 0.46) (size 0.72 0.77) (layers F.Paste) (roundrect_rratio 0.25))
  (fp_text user %R (at 0 0) (layer F.Fab)
    (effects (font (size 0.75 0.75) (thickness 0.11)))
  )
  (model ${KICAD6_3DMODEL_DIR}/Package_SO.3dshapes/MSOP-8-1EP_3x3mm_P0.65mm_EP1.73x1.85mm.wrl
    (at (xyz 0 0 0))
    (scale (xyz 1 1 1))
    (rotate (xyz 0 0 0))
  )
)