(module MSOP-10-1EP_3x3mm_P0.5mm_EP1.73x1.98mm (layer F.Cu) (tedit 5DC5FE75)
  (descr "MSOP, 10 Pin (www.allegromicro.com/~/media/Files/Datasheets/A4952-3-Datasheet.ashx?la=en#page=10), generated with kicad-footprint-generator ipc_gullwing_generator.py")
  (tags "MSOP SO")
  (attr smd)
  (fp_text reference REF** (at 0 -2.45) (layer F.SilkS)
    (effects (font (size 1 1) (thickness 0.15)))
  )
  (fp_text value MSOP-10-1EP_3x3mm_P0.5mm_EP1.73x1.98mm (at 0 2.45) (layer F.Fab)
    (effects (font (size 1 1) (thickness 0.15)))
  )
  (fp_line (start 0 1.61) (end 1.5 1.61) (layer F.SilkS) (width 0.12))
  (fp_line (start 0 1.61) (end -1.5 1.61) (layer F.SilkS) (width 0.12))
  (fp_line (start 0 -1.61) (end 1.5 -1.61) (layer F.SilkS) (width 0.12))
  (fp_line (start 0 -1.61) (end -2.9 -1.61) (layer F.SilkS) (width 0.12))
  (fp_line (start -0.75 -1.5) (end 1.5 -1.5) (layer F.Fab) (width 0.1))
  (fp_line (start 1.5 -1.5) (end 1.5 1.5) (layer F.Fab) (width 0.1))
  (fp_line (start 1.5 1.5) (end -1.5 1.5) (layer F.Fab) (width 0.1))
  (fp_line (start -1.5 1.5) (end -1.5 -0.75) (layer F.Fab) (width 0.1))
  (fp_line (start -1.5 -0.75) (end -0.75 -1.5) (layer F.Fab) (width 0.1))
  (fp_line (start -3.15 -1.75) (end -3.15 1.75) (layer F.CrtYd) (width 0.05))
  (fp_line (start -3.15 1.75) (end 3.15 1.75) (layer F.CrtYd) (width 0.05))
  (fp_line (start 3.15 1.75) (end 3.15 -1.75) (layer F.CrtYd) (width 0.05))
  (fp_line (start 3.15 -1.75) (end -3.15 -1.75) (layer F.CrtYd) (width 0.05))
  (pad 1 smd roundrect (at -2.1625 -1) (size 1.475 0.3) (layers F.Cu F.Mask F.Paste) (roundrect_rratio 0.25))
  (pad 2 smd roundrect (at -2.1625 -0.5) (size 1.475 0.3) (layers F.Cu F.Mask F.Paste) (roundrect_rratio 0.25))
  (pad 3 smd roundrect (at -2.1625 0) (size 1.475 0.3) (layers F.Cu F.Mask F.Paste) (roundrect_rratio 0.25))
  (pad 4 smd roundrect (at -2.1625 0.5) (size 1.475 0.3) (layers F.Cu F.Mask F.Paste) (roundrect_rratio 0.25))
  (pad 5 smd roundrect (at -2.1625 1) (size 1.475 0.3) (layers F.Cu F.Mask F.Paste) (roundrect_rratio 0.25))
  (pad 6 smd roundrect (at 2.1625 1) (size 1.475 0.3) (layers F.Cu F.Mask F.Paste) (roundrect_rratio 0.25))
  (pad 7 smd roundrect (at 2.1625 0.5) (size 1.475 0.3) (layers F.Cu F.Mask F.Paste) (roundrect_rratio 0.25))
  (pad 8 smd roundrect (at 2.1625 0) (size 1.475 0.3) (layers F.Cu F.Mask F.Paste) (roundrect_rratio 0.25))
  (pad 9 smd roundrect (at 2.1625 -0.5) (size 1.475 0.3) (layers F.Cu F.Mask F.Paste) (roundrect_rratio 0.25))
  (pad 10 smd roundrect (at 2.1625 -1) (size 1.475 0.3) (layers F.Cu F.Mask F.Paste) (roundrect_rratio 0.25))
  (pad 11 smd rect (at 0 0) (size 1.73 1.98) (layers F.Cu F.Mask))
  (pad "" smd roundrect (at -0.43 -0.495) (size 0.7 0.8) (layers F.Paste) (roundrect_rratio 0.25))
  (pad "" smd roundrect (at -0.43 0.495) (size 0.7 0.8) (layers F.Paste) (roundrect_rratio 0.25))
  (pad "" smd roundrect (at 0.43 -0.495) (size 0.7 0.8) (layers F.Paste) (roundrect_rratio 0.25))
  (pad "" smd roundrect (at 0.43 0.495) (size 0.7 0.8) (layers F.Paste) (roundrect_rratio 0.25))
  (fp_text user %R (at 0 0) (layer F.Fab)
    (effects (font (size 0.75 0.75) (thickness 0.11)))
  )
  (model ${KICAD6_3DMODEL_DIR}/Package_SO.3dshapes/MSOP-10-1EP_3x3mm_P0.5mm_EP1.73x1.98mm.wrl
    (at (xyz 0 0 0))
    (scale (xyz 1 1 1))
    (rotate (xyz 0 0 0))
  )
)