(module SO-20_12.8x7.5mm_P1.27mm (layer F.Cu) (tedit 5A02F2D3)
  (descr "SO-20, 12.8x7.5mm, https://www.nxp.com/docs/en/data-sheet/SA605.pdf")
  (tags "S0-20 ")
  (attr smd)
  (fp_text reference REF** (at -3.69 -7.42) (layer F.SilkS)
    (effects (font (size 1 1) (thickness 0.15)))
  )
  (fp_text value SO-20_12.8x7.5mm_P1.27mm (at 0 7.99) (layer F.Fab)
    (effects (font (size 1 1) (thickness 0.15)))
  )
  (fp_line (start -1.2 -6.4) (end 2.2 -6.4) (layer F.Fab) (width 0.1))
  (fp_line (start 2.2 -6.4) (end 2.2 6.4) (layer F.Fab) (width 0.1))
  (fp_line (start 2.2 6.4) (end -2.2 6.4) (layer F.Fab) (width 0.1))
  (fp_line (start -2.2 6.4) (end -2.2 -5.4) (layer F.Fab) (width 0.1))
  (fp_line (start -2.2 -5.4) (end -1.2 -6.4) (layer F.Fab) (width 0.1))
  (fp_line (start -3 6.53) (end 3 6.53) (layer F.SilkS) (width 0.12))
  (fp_line (start -5 -6.53) (end 0 -6.53) (layer F.SilkS) (width 0.12))
  (fp_line (start -5.7 -6.7) (end 5.7 -6.7) (layer F.CrtYd) (width 0.05))
  (fp_line (start 5.7 -6.7) (end 5.7 6.7) (layer F.CrtYd) (width 0.05))
  (fp_line (start 5.7 6.7) (end -5.7 6.7) (layer F.CrtYd) (width 0.05))
  (fp_line (start -5.7 6.7) (end -5.7 -6.7) (layer F.CrtYd) (width 0.05))
  (fp_text user %R (at 0 0) (layer F.Fab)
    (effects (font (size 1 1) (thickness 0.15)))
  )
  (pad 6 smd rect (at -4.75 0.635) (size 1.5 0.6) (layers F.Cu F.Paste F.Mask))
  (pad 5 smd rect (at -4.75 -0.635) (size 1.5 0.6) (layers F.Cu F.Paste F.Mask))
  (pad 4 smd rect (at -4.75 -1.905) (size 1.5 0.6) (layers F.Cu F.Paste F.Mask))
  (pad 3 smd rect (at -4.75 -3.175) (size 1.5 0.6) (layers F.Cu F.Paste F.Mask))
  (pad 2 smd rect (at -4.75 -4.445) (size 1.5 0.6) (layers F.Cu F.Paste F.Mask))
  (pad 1 smd rect (at -4.75 -5.715) (size 1.5 0.6) (layers F.Cu F.Paste F.Mask))
  (pad 7 smd rect (at -4.75 1.905) (size 1.5 0.6) (layers F.Cu F.Paste F.Mask))
  (pad 8 smd rect (at -4.75 3.175) (size 1.5 0.6) (layers F.Cu F.Paste F.Mask))
  (pad 9 smd rect (at -4.75 4.445) (size 1.5 0.6) (layers F.Cu F.Paste F.Mask))
  (pad 10 smd rect (at -4.75 5.715) (size 1.5 0.6) (layers F.Cu F.Paste F.Mask))
  (pad 11 smd rect (at 4.75 5.715) (size 1.5 0.6) (layers F.Cu F.Paste F.Mask))
  (pad 12 smd rect (at 4.75 4.445) (size 1.5 0.6) (layers F.Cu F.Paste F.Mask))
  (pad 13 smd rect (at 4.75 3.175) (size 1.5 0.6) (layers F.Cu F.Paste F.Mask))
  (pad 14 smd rect (at 4.75 1.905) (size 1.5 0.6) (layers F.Cu F.Paste F.Mask))
  (pad 15 smd rect (at 4.75 0.635) (size 1.5 0.6) (layers F.Cu F.Paste F.Mask))
  (pad 16 smd rect (at 4.75 -0.635) (size 1.5 0.6) (layers F.Cu F.Paste F.Mask))
  (pad 17 smd rect (at 4.75 -1.905) (size 1.5 0.6) (layers F.Cu F.Paste F.Mask))
  (pad 18 smd rect (at 4.75 -3.175) (size 1.5 0.6) (layers F.Cu F.Paste F.Mask))
  (pad 19 smd rect (at 4.75 -4.445) (size 1.5 0.6) (layers F.Cu F.Paste F.Mask))
  (pad 20 smd rect (at 4.75 -5.715) (size 1.5 0.6) (layers F.Cu F.Paste F.Mask))
  (model ${KICAD6_3DMODEL_DIR}/Package_SO.3dshapes/SO-20_12.8x7.5mm_P1.27mm.wrl
    (at (xyz 0 0 0))
    (scale (xyz 1 1 1))
    (rotate (xyz 0 0 0))
  )
)
