(module SO-6L_10x3.84mm_P1.27mm (layer F.Cu) (tedit 5A02F2D3)
  (descr "6-pin plasic small outline 7,5mm long https://toshiba.semicon-storage.com/info/docget.jsp?did=53548&prodName=TLP2770")
  (tags SO-6L)
  (attr smd)
  (fp_text reference REF** (at -3.7 -2.9) (layer F.SilkS)
    (effects (font (size 1 1) (thickness 0.15)))
  )
  (fp_text value SO-6L_10x3.84mm_P1.27mm (at 0.1 3.2) (layer F.Fab)
    (effects (font (size 1 1) (thickness 0.15)))
  )
  (fp_line (start -5.65 -2.17) (end -5.65 2.17) (layer F.CrtYd) (width 0.05))
  (fp_line (start -5.65 2.17) (end 5.65 2.17) (layer F.CrtYd) (width 0.05))
  (fp_line (start 5.65 2.17) (end 5.65 -2.17) (layer F.CrtYd) (width 0.05))
  (fp_line (start 5.65 -2.17) (end -5.65 -2.17) (layer F.CrtYd) (width 0.05))
  (fp_text user %R (at 0.3 0 180) (layer F.Fab)
    (effects (font (size 0.5 0.5) (thickness 0.05)))
  )
  (fp_line (start -3.75 1.92) (end -3.75 -0.9) (layer F.Fab) (width 0.1))
  (fp_line (start -3 -1.92) (end 3.75 -1.92) (layer F.Fab) (width 0.1))
  (fp_line (start 3.75 1.92) (end 3.75 -1.92) (layer F.Fab) (width 0.1))
  (fp_line (start -3.75 1.92) (end 3.75 1.92) (layer F.Fab) (width 0.1))
  (fp_line (start -5.5 -2.05) (end 3.7 -2.05) (layer F.SilkS) (width 0.12))
  (fp_line (start -3.7 2.05) (end 3.7 2.05) (layer F.SilkS) (width 0.12))
  (fp_line (start -3.75 -0.9) (end -3 -1.92) (layer F.Fab) (width 0.1))
  (pad 1 smd rect (at -4.75 -1.27 90) (size 0.8 1.3) (layers F.Cu F.Paste F.Mask))
  (pad 2 smd rect (at -4.75 0 90) (size 0.8 1.3) (layers F.Cu F.Paste F.Mask))
  (pad 3 smd rect (at -4.75 1.27 90) (size 0.8 1.3) (layers F.Cu F.Paste F.Mask))
  (pad 4 smd rect (at 4.75 1.27 90) (size 0.8 1.3) (layers F.Cu F.Paste F.Mask))
  (pad 5 smd rect (at 4.75 0 90) (size 0.8 1.3) (layers F.Cu F.Paste F.Mask))
  (pad 6 smd rect (at 4.75 -1.27 90) (size 0.8 1.3) (layers F.Cu F.Paste F.Mask))
  (model ${KICAD6_3DMODEL_DIR}/Package_SO.3dshapes/SO-6L_10x3.84mm_P1.27mm.wrl
    (at (xyz 0 0 0))
    (scale (xyz 1 1 1))
    (rotate (xyz 0 0 0))
  )
)
