(module SOIC-8W_5.3x5.3mm_P1.27mm (layer F.Cu) (tedit 5A02F2D3)
  (descr "8-Lead Plastic Small Outline (SM) - 5.28 mm Body [SOIC] (http://ww1.microchip.com/downloads/en/PackagingSpec/00000049BQ.pdf)")
  (tags "SOIC 1.27")
  (attr smd)
  (fp_text reference REF** (at 0 -3.68) (layer F.SilkS)
    (effects (font (size 1 1) (thickness 0.15)))
  )
  (fp_text value SOIC-8W_5.3x5.3mm_P1.27mm (at 0 3.68) (layer F.Fab)
    (effects (font (size 1 1) (thickness 0.15)))
  )
  (fp_text user %R (at 0 0) (layer F.Fab)
    (effects (font (size 1 1) (thickness 0.15)))
  )
  (fp_line (start -1.65 -2.65) (end 2.65 -2.65) (layer F.Fab) (width 0.15))
  (fp_line (start 2.65 -2.65) (end 2.65 2.65) (layer F.Fab) (width 0.15))
  (fp_line (start 2.65 2.65) (end -2.65 2.65) (layer F.Fab) (width 0.15))
  (fp_line (start -2.65 2.65) (end -2.65 -1.65) (layer F.Fab) (width 0.15))
  (fp_line (start -2.65 -1.65) (end -1.65 -2.65) (layer F.Fab) (width 0.15))
  (fp_line (start -4.75 -2.95) (end -4.75 2.95) (layer F.CrtYd) (width 0.05))
  (fp_line (start 4.75 -2.95) (end 4.75 2.95) (layer F.CrtYd) (width 0.05))
  (fp_line (start -4.75 -2.95) (end 4.75 -2.95) (layer F.CrtYd) (width 0.05))
  (fp_line (start -4.75 2.95) (end 4.75 2.95) (layer F.CrtYd) (width 0.05))
  (fp_line (start -2.75 -2.755) (end -2.75 -2.55) (layer F.SilkS) (width 0.15))
  (fp_line (start 2.75 -2.755) (end 2.75 -2.455) (layer F.SilkS) (width 0.15))
  (fp_line (start 2.75 2.755) (end 2.75 2.455) (layer F.SilkS) (width 0.15))
  (fp_line (start -2.75 2.755) (end -2.75 2.455) (layer F.SilkS) (width 0.15))
  (fp_line (start -2.75 -2.755) (end 2.75 -2.755) (layer F.SilkS) (width 0.15))
  (fp_line (start -2.75 2.755) (end 2.75 2.755) (layer F.SilkS) (width 0.15))
  (fp_line (start -2.75 -2.55) (end -4.5 -2.55) (layer F.SilkS) (width 0.15))
  (pad 1 smd rect (at -3.65 -1.905) (size 1.7 0.65) (layers F.Cu F.Paste F.Mask))
  (pad 2 smd rect (at -3.65 -0.635) (size 1.7 0.65) (layers F.Cu F.Paste F.Mask))
  (pad 3 smd rect (at -3.65 0.635) (size 1.7 0.65) (layers F.Cu F.Paste F.Mask))
  (pad 4 smd rect (at -3.65 1.905) (size 1.7 0.65) (layers F.Cu F.Paste F.Mask))
  (pad 5 smd rect (at 3.65 1.905) (size 1.7 0.65) (layers F.Cu F.Paste F.Mask))
  (pad 6 smd rect (at 3.65 0.635) (size 1.7 0.65) (layers F.Cu F.Paste F.Mask))
  (pad 7 smd rect (at 3.65 -0.635) (size 1.7 0.65) (layers F.Cu F.Paste F.Mask))
  (pad 8 smd rect (at 3.65 -1.905) (size 1.7 0.65) (layers F.Cu F.Paste F.Mask))
  (model ${KICAD6_3DMODEL_DIR}/Package_SO.3dshapes/SOIC-8W_5.3x5.3mm_P1.27mm.wrl
    (at (xyz 0 0 0))
    (scale (xyz 1 1 1))
    (rotate (xyz 0 0 0))
  )
)
