(module SOIC-8-1EP_3.9x4.9mm_P1.27mm_EP2.41x3.81mm_ThermalVias (layer F.Cu) (tedit 5DC5FE76)
  (descr "SOIC, 8 Pin (https://www.analog.com/media/en/technical-documentation/data-sheets/ada4898-1_4898-2.pdf#page=29), generated with kicad-footprint-generator ipc_gullwing_generator.py")
  (tags "SOIC SO")
  (attr smd)
  (fp_text reference REF** (at 0 -3.4) (layer F.SilkS)
    (effects (font (size 1 1) (thickness 0.15)))
  )
  (fp_text value SOIC-8-1EP_3.9x4.9mm_P1.27mm_EP2.41x3.81mm_ThermalVias (at 0 3.4) (layer F.Fab)
    (effects (font (size 1 1) (thickness 0.15)))
  )
  (fp_line (start 0 2.56) (end 1.95 2.56) (layer F.SilkS) (width 0.12))
  (fp_line (start 0 2.56) (end -1.95 2.56) (layer F.SilkS) (width 0.12))
  (fp_line (start 0 -2.56) (end 1.95 -2.56) (layer F.SilkS) (width 0.12))
  (fp_line (start 0 -2.56) (end -3.45 -2.56) (layer F.SilkS) (width 0.12))
  (fp_line (start -0.975 -2.45) (end 1.95 -2.45) (layer F.Fab) (width 0.1))
  (fp_line (start 1.95 -2.45) (end 1.95 2.45) (layer F.Fab) (width 0.1))
  (fp_line (start 1.95 2.45) (end -1.95 2.45) (layer F.Fab) (width 0.1))
  (fp_line (start -1.95 2.45) (end -1.95 -1.475) (layer F.Fab) (width 0.1))
  (fp_line (start -1.95 -1.475) (end -0.975 -2.45) (layer F.Fab) (width 0.1))
  (fp_line (start -3.7 -2.7) (end -3.7 2.7) (layer F.CrtYd) (width 0.05))
  (fp_line (start -3.7 2.7) (end 3.7 2.7) (layer F.CrtYd) (width 0.05))
  (fp_line (start 3.7 2.7) (end 3.7 -2.7) (layer F.CrtYd) (width 0.05))
  (fp_line (start 3.7 -2.7) (end -3.7 -2.7) (layer F.CrtYd) (width 0.05))
  (pad 1 smd roundrect (at -2.475 -1.905) (size 1.95 0.6) (layers F.Cu F.Mask F.Paste) (roundrect_rratio 0.25))
  (pad 2 smd roundrect (at -2.475 -0.635) (size 1.95 0.6) (layers F.Cu F.Mask F.Paste) (roundrect_rratio 0.25))
  (pad 3 smd roundrect (at -2.475 0.635) (size 1.95 0.6) (layers F.Cu F.Mask F.Paste) (roundrect_rratio 0.25))
  (pad 4 smd roundrect (at -2.475 1.905) (size 1.95 0.6) (layers F.Cu F.Mask F.Paste) (roundrect_rratio 0.25))
  (pad 5 smd roundrect (at 2.475 1.905) (size 1.95 0.6) (layers F.Cu F.Mask F.Paste) (roundrect_rratio 0.25))
  (pad 6 smd roundrect (at 2.475 0.635) (size 1.95 0.6) (layers F.Cu F.Mask F.Paste) (roundrect_rratio 0.25))
  (pad 7 smd roundrect (at 2.475 -0.635) (size 1.95 0.6) (layers F.Cu F.Mask F.Paste) (roundrect_rratio 0.25))
  (pad 8 smd roundrect (at 2.475 -1.905) (size 1.95 0.6) (layers F.Cu F.Mask F.Paste) (roundrect_rratio 0.25))
  (pad 9 smd rect (at 0 0) (size 2.41 3.81) (layers F.Cu F.Mask))
  (pad 9 thru_hole circle (at -0.7 -1.4) (size 0.5 0.5) (drill 0.2) (layers *.Cu))
  (pad 9 thru_hole circle (at 0.7 -1.4) (size 0.5 0.5) (drill 0.2) (layers *.Cu))
  (pad 9 thru_hole circle (at -0.7 0) (size 0.5 0.5) (drill 0.2) (layers *.Cu))
  (pad 9 thru_hole circle (at 0.7 0) (size 0.5 0.5) (drill 0.2) (layers *.Cu))
  (pad 9 thru_hole circle (at -0.7 1.4) (size 0.5 0.5) (drill 0.2) (layers *.Cu))
  (pad 9 thru_hole circle (at 0.7 1.4) (size 0.5 0.5) (drill 0.2) (layers *.Cu))
  (pad 9 smd rect (at 0 0) (size 1.9 3.3) (layers B.Cu))
  (pad "" smd roundrect (at -0.6 -0.95) (size 1.01 1.59) (layers F.Paste) (roundrect_rratio 0.247525))
  (pad "" smd roundrect (at -0.6 0.95) (size 1.01 1.59) (layers F.Paste) (roundrect_rratio 0.247525))
  (pad "" smd roundrect (at 0.6 -0.95) (size 1.01 1.59) (layers F.Paste) (roundrect_rratio 0.247525))
  (pad "" smd roundrect (at 0.6 0.95) (size 1.01 1.59) (layers F.Paste) (roundrect_rratio 0.247525))
  (fp_text user %R (at 0 0) (layer F.Fab)
    (effects (font (size 0.98 0.98) (thickness 0.15)))
  )
  (model ${KICAD6_3DMODEL_DIR}/Package_SO.3dshapes/SOIC-8-1EP_3.9x4.9mm_P1.27mm_EP2.41x3.81mm.wrl
    (at (xyz 0 0 0))
    (scale (xyz 1 1 1))
    (rotate (xyz 0 0 0))
  )
)