(module SOJ-36_10.16x23.49mm_P1.27mm (layer F.Cu) (tedit 5D9F72B1)
  (descr "SOJ, 36 Pin (http://www.issi.com/WW/pdf/61-64C5128AL.pdf), generated with kicad-footprint-generator ipc_gullwing_generator.py")
  (tags "SOJ SO")
  (attr smd)
  (fp_text reference REF** (at 0 -12.7) (layer F.SilkS)
    (effects (font (size 1 1) (thickness 0.15)))
  )
  (fp_text value SOJ-36_10.16x23.49mm_P1.27mm (at 0 12.7) (layer F.Fab)
    (effects (font (size 1 1) (thickness 0.15)))
  )
  (fp_line (start 0 11.855) (end 5.19 11.855) (layer F.SilkS) (width 0.12))
  (fp_line (start 5.19 11.855) (end 5.19 11.355) (layer F.SilkS) (width 0.12))
  (fp_line (start 0 11.855) (end -5.19 11.855) (layer F.SilkS) (width 0.12))
  (fp_line (start -5.19 11.855) (end -5.19 11.355) (layer F.SilkS) (width 0.12))
  (fp_line (start 0 -11.855) (end 5.19 -11.855) (layer F.SilkS) (width 0.12))
  (fp_line (start 5.19 -11.855) (end 5.19 -11.355) (layer F.SilkS) (width 0.12))
  (fp_line (start 0 -11.855) (end -5.19 -11.855) (layer F.SilkS) (width 0.12))
  (fp_line (start -5.19 -11.855) (end -5.19 -11.355) (layer F.SilkS) (width 0.12))
  (fp_line (start -5.19 -11.355) (end -5.55 -11.355) (layer F.SilkS) (width 0.12))
  (fp_line (start -4.08 -11.745) (end 5.08 -11.745) (layer F.Fab) (width 0.1))
  (fp_line (start 5.08 -11.745) (end 5.08 11.745) (layer F.Fab) (width 0.1))
  (fp_line (start 5.08 11.745) (end -5.08 11.745) (layer F.Fab) (width 0.1))
  (fp_line (start -5.08 11.745) (end -5.08 -10.745) (layer F.Fab) (width 0.1))
  (fp_line (start -5.08 -10.745) (end -4.08 -11.745) (layer F.Fab) (width 0.1))
  (fp_line (start -5.8 -12) (end -5.8 12) (layer F.CrtYd) (width 0.05))
  (fp_line (start -5.8 12) (end 5.8 12) (layer F.CrtYd) (width 0.05))
  (fp_line (start 5.8 12) (end 5.8 -12) (layer F.CrtYd) (width 0.05))
  (fp_line (start 5.8 -12) (end -5.8 -12) (layer F.CrtYd) (width 0.05))
  (pad 1 smd roundrect (at -4.7 -10.795) (size 1.7 0.6) (layers F.Cu F.Mask F.Paste) (roundrect_rratio 0.25))
  (pad 2 smd roundrect (at -4.7 -9.525) (size 1.7 0.6) (layers F.Cu F.Mask F.Paste) (roundrect_rratio 0.25))
  (pad 3 smd roundrect (at -4.7 -8.255) (size 1.7 0.6) (layers F.Cu F.Mask F.Paste) (roundrect_rratio 0.25))
  (pad 4 smd roundrect (at -4.7 -6.985) (size 1.7 0.6) (layers F.Cu F.Mask F.Paste) (roundrect_rratio 0.25))
  (pad 5 smd roundrect (at -4.7 -5.715) (size 1.7 0.6) (layers F.Cu F.Mask F.Paste) (roundrect_rratio 0.25))
  (pad 6 smd roundrect (at -4.7 -4.445) (size 1.7 0.6) (layers F.Cu F.Mask F.Paste) (roundrect_rratio 0.25))
  (pad 7 smd roundrect (at -4.7 -3.175) (size 1.7 0.6) (layers F.Cu F.Mask F.Paste) (roundrect_rratio 0.25))
  (pad 8 smd roundrect (at -4.7 -1.905) (size 1.7 0.6) (layers F.Cu F.Mask F.Paste) (roundrect_rratio 0.25))
  (pad 9 smd roundrect (at -4.7 -0.635) (size 1.7 0.6) (layers F.Cu F.Mask F.Paste) (roundrect_rratio 0.25))
  (pad 10 smd roundrect (at -4.7 0.635) (size 1.7 0.6) (layers F.Cu F.Mask F.Paste) (roundrect_rratio 0.25))
  (pad 11 smd roundrect (at -4.7 1.905) (size 1.7 0.6) (layers F.Cu F.Mask F.Paste) (roundrect_rratio 0.25))
  (pad 12 smd roundrect (at -4.7 3.175) (size 1.7 0.6) (layers F.Cu F.Mask F.Paste) (roundrect_rratio 0.25))
  (pad 13 smd roundrect (at -4.7 4.445) (size 1.7 0.6) (layers F.Cu F.Mask F.Paste) (roundrect_rratio 0.25))
  (pad 14 smd roundrect (at -4.7 5.715) (size 1.7 0.6) (layers F.Cu F.Mask F.Paste) (roundrect_rratio 0.25))
  (pad 15 smd roundrect (at -4.7 6.985) (size 1.7 0.6) (layers F.Cu F.Mask F.Paste) (roundrect_rratio 0.25))
  (pad 16 smd roundrect (at -4.7 8.255) (size 1.7 0.6) (layers F.Cu F.Mask F.Paste) (roundrect_rratio 0.25))
  (pad 17 smd roundrect (at -4.7 9.525) (size 1.7 0.6) (layers F.Cu F.Mask F.Paste) (roundrect_rratio 0.25))
  (pad 18 smd roundrect (at -4.7 10.795) (size 1.7 0.6) (layers F.Cu F.Mask F.Paste) (roundrect_rratio 0.25))
  (pad 19 smd roundrect (at 4.7 10.795) (size 1.7 0.6) (layers F.Cu F.Mask F.Paste) (roundrect_rratio 0.25))
  (pad 20 smd roundrect (at 4.7 9.525) (size 1.7 0.6) (layers F.Cu F.Mask F.Paste) (roundrect_rratio 0.25))
  (pad 21 smd roundrect (at 4.7 8.255) (size 1.7 0.6) (layers F.Cu F.Mask F.Paste) (roundrect_rratio 0.25))
  (pad 22 smd roundrect (at 4.7 6.985) (size 1.7 0.6) (layers F.Cu F.Mask F.Paste) (roundrect_rratio 0.25))
  (pad 23 smd roundrect (at 4.7 5.715) (size 1.7 0.6) (layers F.Cu F.Mask F.Paste) (roundrect_rratio 0.25))
  (pad 24 smd roundrect (at 4.7 4.445) (size 1.7 0.6) (layers F.Cu F.Mask F.Paste) (roundrect_rratio 0.25))
  (pad 25 smd roundrect (at 4.7 3.175) (size 1.7 0.6) (layers F.Cu F.Mask F.Paste) (roundrect_rratio 0.25))
  (pad 26 smd roundrect (at 4.7 1.905) (size 1.7 0.6) (layers F.Cu F.Mask F.Paste) (roundrect_rratio 0.25))
  (pad 27 smd roundrect (at 4.7 0.635) (size 1.7 0.6) (layers F.Cu F.Mask F.Paste) (roundrect_rratio 0.25))
  (pad 28 smd roundrect (at 4.7 -0.635) (size 1.7 0.6) (layers F.Cu F.Mask F.Paste) (roundrect_rratio 0.25))
  (pad 29 smd roundrect (at 4.7 -1.905) (size 1.7 0.6) (layers F.Cu F.Mask F.Paste) (roundrect_rratio 0.25))
  (pad 30 smd roundrect (at 4.7 -3.175) (size 1.7 0.6) (layers F.Cu F.Mask F.Paste) (roundrect_rratio 0.25))
  (pad 31 smd roundrect (at 4.7 -4.445) (size 1.7 0.6) (layers F.Cu F.Mask F.Paste) (roundrect_rratio 0.25))
  (pad 32 smd roundrect (at 4.7 -5.715) (size 1.7 0.6) (layers F.Cu F.Mask F.Paste) (roundrect_rratio 0.25))
  (pad 33 smd roundrect (at 4.7 -6.985) (size 1.7 0.6) (layers F.Cu F.Mask F.Paste) (roundrect_rratio 0.25))
  (pad 34 smd roundrect (at 4.7 -8.255) (size 1.7 0.6) (layers F.Cu F.Mask F.Paste) (roundrect_rratio 0.25))
  (pad 35 smd roundrect (at 4.7 -9.525) (size 1.7 0.6) (layers F.Cu F.Mask F.Paste) (roundrect_rratio 0.25))
  (pad 36 smd roundrect (at 4.7 -10.795) (size 1.7 0.6) (layers F.Cu F.Mask F.Paste) (roundrect_rratio 0.25))
  (fp_text user %R (at 0 0) (layer F.Fab)
    (effects (font (size 1 1) (thickness 0.15)))
  )
  (model ${KICAD6_3DMODEL_DIR}/Package_SO.3dshapes/SOJ-36_10.16x23.49mm_P1.27mm.wrl
    (at (xyz 0 0 0))
    (scale (xyz 1 1 1))
    (rotate (xyz 0 0 0))
  )
)