(module SOP-8-1EP_4.57x4.57mm_P1.27mm_EP4.57x4.45mm_ThermalVias (layer F.Cu) (tedit 5DC5FE76)
  (descr "SOP, 8 Pin (https://ww2.minicircuits.com/case_style/XX112.pdf), generated with kicad-footprint-generator ipc_gullwing_generator.py")
  (tags "SOP SO")
  (attr smd)
  (fp_text reference REF** (at 0 -3.24) (layer F.SilkS)
    (effects (font (size 1 1) (thickness 0.15)))
  )
  (fp_text value SOP-8-1EP_4.57x4.57mm_P1.27mm_EP4.57x4.45mm_ThermalVias (at 0 3.24) (layer F.Fab)
    (effects (font (size 1 1) (thickness 0.15)))
  )
  (fp_line (start 0 2.515) (end 2.285 2.515) (layer F.SilkS) (width 0.12))
  (fp_line (start 0 2.515) (end -2.285 2.515) (layer F.SilkS) (width 0.12))
  (fp_line (start 0 -2.515) (end 2.285 -2.515) (layer F.SilkS) (width 0.12))
  (fp_line (start 0 -2.515) (end -5.575 -2.515) (layer F.SilkS) (width 0.12))
  (fp_line (start -1.285 -2.285) (end 2.285 -2.285) (layer F.Fab) (width 0.1))
  (fp_line (start 2.285 -2.285) (end 2.285 2.285) (layer F.Fab) (width 0.1))
  (fp_line (start 2.285 2.285) (end -2.285 2.285) (layer F.Fab) (width 0.1))
  (fp_line (start -2.285 2.285) (end -2.285 -1.285) (layer F.Fab) (width 0.1))
  (fp_line (start -2.285 -1.285) (end -1.285 -2.285) (layer F.Fab) (width 0.1))
  (fp_line (start -5.82 -2.54) (end -5.82 2.54) (layer F.CrtYd) (width 0.05))
  (fp_line (start -5.82 2.54) (end 5.82 2.54) (layer F.CrtYd) (width 0.05))
  (fp_line (start 5.82 2.54) (end 5.82 -2.54) (layer F.CrtYd) (width 0.05))
  (fp_line (start 5.82 -2.54) (end -5.82 -2.54) (layer F.CrtYd) (width 0.05))
  (pad 1 smd roundrect (at -4.15 -1.905) (size 2.85 0.7) (layers F.Cu F.Mask F.Paste) (roundrect_rratio 0.25))
  (pad 2 smd roundrect (at -4.15 -0.635) (size 2.85 0.7) (layers F.Cu F.Mask F.Paste) (roundrect_rratio 0.25))
  (pad 3 smd roundrect (at -4.15 0.635) (size 2.85 0.7) (layers F.Cu F.Mask F.Paste) (roundrect_rratio 0.25))
  (pad 4 smd roundrect (at -4.15 1.905) (size 2.85 0.7) (layers F.Cu F.Mask F.Paste) (roundrect_rratio 0.25))
  (pad 5 smd roundrect (at 4.15 1.905) (size 2.85 0.7) (layers F.Cu F.Mask F.Paste) (roundrect_rratio 0.25))
  (pad 6 smd roundrect (at 4.15 0.635) (size 2.85 0.7) (layers F.Cu F.Mask F.Paste) (roundrect_rratio 0.25))
  (pad 7 smd roundrect (at 4.15 -0.635) (size 2.85 0.7) (layers F.Cu F.Mask F.Paste) (roundrect_rratio 0.25))
  (pad 8 smd roundrect (at 4.15 -1.905) (size 2.85 0.7) (layers F.Cu F.Mask F.Paste) (roundrect_rratio 0.25))
  (pad 9 smd rect (at 0 0) (size 4.57 4.45) (layers F.Cu F.Mask))
  (pad 9 thru_hole circle (at -1.27 -1.27) (size 0.81 0.81) (drill 0.51) (layers *.Cu))
  (pad 9 thru_hole circle (at 1.27 -1.27) (size 0.81 0.81) (drill 0.51) (layers *.Cu))
  (pad 9 thru_hole circle (at -1.27 0) (size 0.81 0.81) (drill 0.51) (layers *.Cu))
  (pad 9 thru_hole circle (at 1.27 0) (size 0.81 0.81) (drill 0.51) (layers *.Cu))
  (pad 9 thru_hole circle (at -1.27 1.27) (size 0.81 0.81) (drill 0.51) (layers *.Cu))
  (pad 9 thru_hole circle (at 1.27 1.27) (size 0.81 0.81) (drill 0.51) (layers *.Cu))
  (pad 9 smd rect (at 0 0) (size 3.35 3.35) (layers B.Cu))
  (pad "" smd roundrect (at -1.14 -1.11) (size 1.91 1.86) (layers F.Paste) (roundrect_rratio 0.134409))
  (pad "" smd roundrect (at -1.14 1.11) (size 1.91 1.86) (layers F.Paste) (roundrect_rratio 0.134409))
  (pad "" smd roundrect (at 1.14 -1.11) (size 1.91 1.86) (layers F.Paste) (roundrect_rratio 0.134409))
  (pad "" smd roundrect (at 1.14 1.11) (size 1.91 1.86) (layers F.Paste) (roundrect_rratio 0.134409))
  (fp_text user %R (at 0 0) (layer F.Fab)
    (effects (font (size 1 1) (thickness 0.15)))
  )
  (model ${KICAD6_3DMODEL_DIR}/Package_SO.3dshapes/SOP-8-1EP_4.57x4.57mm_P1.27mm_EP4.57x4.45mm.wrl
    (at (xyz 0 0 0))
    (scale (xyz 1 1 1))
    (rotate (xyz 0 0 0))
  )
)