(module SOP-18_7x12.5mm_P1.27mm (layer F.Cu) (tedit 5D9F72B1)
  (descr "SOP, 18 Pin (https://toshiba.semicon-storage.com/info/docget.jsp?did=30523), generated with kicad-footprint-generator ipc_gullwing_generator.py")
  (tags "SOP SO")
  (attr smd)
  (fp_text reference REF** (at 0 -7.2) (layer F.SilkS)
    (effects (font (size 1 1) (thickness 0.15)))
  )
  (fp_text value SOP-18_7x12.5mm_P1.27mm (at 0 7.2) (layer F.Fab)
    (effects (font (size 1 1) (thickness 0.15)))
  )
  (fp_line (start 0 6.36) (end 3.61 6.36) (layer F.SilkS) (width 0.12))
  (fp_line (start 3.61 6.36) (end 3.61 5.64) (layer F.SilkS) (width 0.12))
  (fp_line (start 0 6.36) (end -3.61 6.36) (layer F.SilkS) (width 0.12))
  (fp_line (start -3.61 6.36) (end -3.61 5.64) (layer F.SilkS) (width 0.12))
  (fp_line (start 0 -6.36) (end 3.61 -6.36) (layer F.SilkS) (width 0.12))
  (fp_line (start 3.61 -6.36) (end 3.61 -5.64) (layer F.SilkS) (width 0.12))
  (fp_line (start 0 -6.36) (end -3.61 -6.36) (layer F.SilkS) (width 0.12))
  (fp_line (start -3.61 -6.36) (end -3.61 -5.64) (layer F.SilkS) (width 0.12))
  (fp_line (start -3.61 -5.64) (end -5.65 -5.64) (layer F.SilkS) (width 0.12))
  (fp_line (start -2.5 -6.25) (end 3.5 -6.25) (layer F.Fab) (width 0.1))
  (fp_line (start 3.5 -6.25) (end 3.5 6.25) (layer F.Fab) (width 0.1))
  (fp_line (start 3.5 6.25) (end -3.5 6.25) (layer F.Fab) (width 0.1))
  (fp_line (start -3.5 6.25) (end -3.5 -5.25) (layer F.Fab) (width 0.1))
  (fp_line (start -3.5 -5.25) (end -2.5 -6.25) (layer F.Fab) (width 0.1))
  (fp_line (start -5.9 -6.5) (end -5.9 6.5) (layer F.CrtYd) (width 0.05))
  (fp_line (start -5.9 6.5) (end 5.9 6.5) (layer F.CrtYd) (width 0.05))
  (fp_line (start 5.9 6.5) (end 5.9 -6.5) (layer F.CrtYd) (width 0.05))
  (fp_line (start 5.9 -6.5) (end -5.9 -6.5) (layer F.CrtYd) (width 0.05))
  (pad 1 smd roundrect (at -4.775 -5.08) (size 1.75 0.6) (layers F.Cu F.Mask F.Paste) (roundrect_rratio 0.25))
  (pad 2 smd roundrect (at -4.775 -3.81) (size 1.75 0.6) (layers F.Cu F.Mask F.Paste) (roundrect_rratio 0.25))
  (pad 3 smd roundrect (at -4.775 -2.54) (size 1.75 0.6) (layers F.Cu F.Mask F.Paste) (roundrect_rratio 0.25))
  (pad 4 smd roundrect (at -4.775 -1.27) (size 1.75 0.6) (layers F.Cu F.Mask F.Paste) (roundrect_rratio 0.25))
  (pad 5 smd roundrect (at -4.775 0) (size 1.75 0.6) (layers F.Cu F.Mask F.Paste) (roundrect_rratio 0.25))
  (pad 6 smd roundrect (at -4.775 1.27) (size 1.75 0.6) (layers F.Cu F.Mask F.Paste) (roundrect_rratio 0.25))
  (pad 7 smd roundrect (at -4.775 2.54) (size 1.75 0.6) (layers F.Cu F.Mask F.Paste) (roundrect_rratio 0.25))
  (pad 8 smd roundrect (at -4.775 3.81) (size 1.75 0.6) (layers F.Cu F.Mask F.Paste) (roundrect_rratio 0.25))
  (pad 9 smd roundrect (at -4.775 5.08) (size 1.75 0.6) (layers F.Cu F.Mask F.Paste) (roundrect_rratio 0.25))
  (pad 10 smd roundrect (at 4.775 5.08) (size 1.75 0.6) (layers F.Cu F.Mask F.Paste) (roundrect_rratio 0.25))
  (pad 11 smd roundrect (at 4.775 3.81) (size 1.75 0.6) (layers F.Cu F.Mask F.Paste) (roundrect_rratio 0.25))
  (pad 12 smd roundrect (at 4.775 2.54) (size 1.75 0.6) (layers F.Cu F.Mask F.Paste) (roundrect_rratio 0.25))
  (pad 13 smd roundrect (at 4.775 1.27) (size 1.75 0.6) (layers F.Cu F.Mask F.Paste) (roundrect_rratio 0.25))
  (pad 14 smd roundrect (at 4.775 0) (size 1.75 0.6) (layers F.Cu F.Mask F.Paste) (roundrect_rratio 0.25))
  (pad 15 smd roundrect (at 4.775 -1.27) (size 1.75 0.6) (layers F.Cu F.Mask F.Paste) (roundrect_rratio 0.25))
  (pad 16 smd roundrect (at 4.775 -2.54) (size 1.75 0.6) (layers F.Cu F.Mask F.Paste) (roundrect_rratio 0.25))
  (pad 17 smd roundrect (at 4.775 -3.81) (size 1.75 0.6) (layers F.Cu F.Mask F.Paste) (roundrect_rratio 0.25))
  (pad 18 smd roundrect (at 4.775 -5.08) (size 1.75 0.6) (layers F.Cu F.Mask F.Paste) (roundrect_rratio 0.25))
  (fp_text user %R (at 0 0) (layer F.Fab)
    (effects (font (size 1 1) (thickness 0.15)))
  )
  (model ${KICAD6_3DMODEL_DIR}/Package_SO.3dshapes/SOP-18_7x12.5mm_P1.27mm.wrl
    (at (xyz 0 0 0))
    (scale (xyz 1 1 1))
    (rotate (xyz 0 0 0))
  )
)