(module SOP-8_5.28x5.23mm_P1.27mm (layer F.Cu) (tedit 5D9F72B1)
  (descr "SOP, 8 Pin (http://www.macronix.com/Lists/Datasheet/Attachments/7534/MX25R3235F,%20Wide%20Range,%2032Mb,%20v1.6.pdf#page=80), generated with kicad-footprint-generator ipc_gullwing_generator.py")
  (tags "SOP SO")
  (attr smd)
  (fp_text reference REF** (at 0 -3.56) (layer F.SilkS)
    (effects (font (size 1 1) (thickness 0.15)))
  )
  (fp_text value SOP-8_5.28x5.23mm_P1.27mm (at 0 3.56) (layer F.Fab)
    (effects (font (size 1 1) (thickness 0.15)))
  )
  (fp_line (start 0 2.725) (end 2.75 2.725) (layer F.SilkS) (width 0.12))
  (fp_line (start 2.75 2.725) (end 2.75 2.465) (layer F.SilkS) (width 0.12))
  (fp_line (start 0 2.725) (end -2.75 2.725) (layer F.SilkS) (width 0.12))
  (fp_line (start -2.75 2.725) (end -2.75 2.465) (layer F.SilkS) (width 0.12))
  (fp_line (start 0 -2.725) (end 2.75 -2.725) (layer F.SilkS) (width 0.12))
  (fp_line (start 2.75 -2.725) (end 2.75 -2.465) (layer F.SilkS) (width 0.12))
  (fp_line (start 0 -2.725) (end -2.75 -2.725) (layer F.SilkS) (width 0.12))
  (fp_line (start -2.75 -2.725) (end -2.75 -2.465) (layer F.SilkS) (width 0.12))
  (fp_line (start -2.75 -2.465) (end -4.4 -2.465) (layer F.SilkS) (width 0.12))
  (fp_line (start -1.64 -2.615) (end 2.64 -2.615) (layer F.Fab) (width 0.1))
  (fp_line (start 2.64 -2.615) (end 2.64 2.615) (layer F.Fab) (width 0.1))
  (fp_line (start 2.64 2.615) (end -2.64 2.615) (layer F.Fab) (width 0.1))
  (fp_line (start -2.64 2.615) (end -2.64 -1.615) (layer F.Fab) (width 0.1))
  (fp_line (start -2.64 -1.615) (end -1.64 -2.615) (layer F.Fab) (width 0.1))
  (fp_line (start -4.65 -2.86) (end -4.65 2.86) (layer F.CrtYd) (width 0.05))
  (fp_line (start -4.65 2.86) (end 4.65 2.86) (layer F.CrtYd) (width 0.05))
  (fp_line (start 4.65 2.86) (end 4.65 -2.86) (layer F.CrtYd) (width 0.05))
  (fp_line (start 4.65 -2.86) (end -4.65 -2.86) (layer F.CrtYd) (width 0.05))
  (pad 1 smd roundrect (at -3.6 -1.905) (size 1.6 0.6) (layers F.Cu F.Mask F.Paste) (roundrect_rratio 0.25))
  (pad 2 smd roundrect (at -3.6 -0.635) (size 1.6 0.6) (layers F.Cu F.Mask F.Paste) (roundrect_rratio 0.25))
  (pad 3 smd roundrect (at -3.6 0.635) (size 1.6 0.6) (layers F.Cu F.Mask F.Paste) (roundrect_rratio 0.25))
  (pad 4 smd roundrect (at -3.6 1.905) (size 1.6 0.6) (layers F.Cu F.Mask F.Paste) (roundrect_rratio 0.25))
  (pad 5 smd roundrect (at 3.6 1.905) (size 1.6 0.6) (layers F.Cu F.Mask F.Paste) (roundrect_rratio 0.25))
  (pad 6 smd roundrect (at 3.6 0.635) (size 1.6 0.6) (layers F.Cu F.Mask F.Paste) (roundrect_rratio 0.25))
  (pad 7 smd roundrect (at 3.6 -0.635) (size 1.6 0.6) (layers F.Cu F.Mask F.Paste) (roundrect_rratio 0.25))
  (pad 8 smd roundrect (at 3.6 -1.905) (size 1.6 0.6) (layers F.Cu F.Mask F.Paste) (roundrect_rratio 0.25))
  (fp_text user %R (at 0 0) (layer F.Fab)
    (effects (font (size 1 1) (thickness 0.15)))
  )
  (model ${KICAD6_3DMODEL_DIR}/Package_SO.3dshapes/SOP-8_5.28x5.23mm_P1.27mm.wrl
    (at (xyz 0 0 0))
    (scale (xyz 1 1 1))
    (rotate (xyz 0 0 0))
  )
)