(module SSO-8_6.8x5.9mm_P1.27mm_Clearance7mm (layer F.Cu) (tedit 5A02F2D3)
  (descr "8-Lead Plastic Stretched Small Outline (SSO/Stretched SO), see https://docs.broadcom.com/cs/Satellite?blobcol=urldata&blobheader=application%2Fpdf&blobheadername1=Content-Disposition&blobheadername2=Content-Type&blobheadername3=MDT-Type&blobheadervalue1=attachment%3Bfilename%3DIPD-Selection-Guide_AV00-0254EN_030617.pdf&blobheadervalue2=application%2Fx-download&blobheadervalue3=abinary%253B%2Bcharset%253DUTF-8&blobkey=id&blobnocache=true&blobtable=MungoBlobs&blobwhere=1430884105675&ssbinary=true")
  (tags "SSO Stretched SO SOIC Pitch 1.27")
  (attr smd)
  (fp_text reference REF** (at 0.1 -3.9) (layer F.SilkS)
    (effects (font (size 1 1) (thickness 0.15)))
  )
  (fp_text value SSO-8_6.8x5.9mm_P1.27mm_Clearance7mm (at 0 4.1) (layer F.Fab)
    (effects (font (size 1 1) (thickness 0.15)))
  )
  (fp_text user %R (at 0 0) (layer F.Fab)
    (effects (font (size 1 1) (thickness 0.15)))
  )
  (fp_line (start -3.55 -2.45) (end -5.3 -2.45) (layer F.SilkS) (width 0.12))
  (fp_line (start -3.55 2.4) (end -3.55 3.1) (layer F.SilkS) (width 0.12))
  (fp_line (start -3.55 3.1) (end 3.5 3.1) (layer F.SilkS) (width 0.12))
  (fp_line (start 3.5 3.1) (end 3.5 2.35) (layer F.SilkS) (width 0.12))
  (fp_line (start 3.5 -2.35) (end 3.5 -3.1) (layer F.SilkS) (width 0.12))
  (fp_line (start 3.5 -3.1) (end -3.55 -3.1) (layer F.SilkS) (width 0.12))
  (fp_line (start -3.55 -3.1) (end -3.55 -2.45) (layer F.SilkS) (width 0.12))
  (fp_line (start -3.4 2.95) (end 3.4 2.95) (layer F.Fab) (width 0.12))
  (fp_line (start 3.4 2.95) (end 3.4 -2.95) (layer F.Fab) (width 0.12))
  (fp_line (start 3.4 -2.95) (end -2.3 -2.95) (layer F.Fab) (width 0.12))
  (fp_line (start -2.3 -2.95) (end -3.4 -1.85) (layer F.Fab) (width 0.12))
  (fp_line (start -3.4 -1.85) (end -3.4 2.95) (layer F.Fab) (width 0.12))
  (fp_line (start -5.6 -3.2) (end 5.6 -3.2) (layer F.CrtYd) (width 0.05))
  (fp_line (start -5.6 -3.2) (end -5.6 3.2) (layer F.CrtYd) (width 0.05))
  (fp_line (start 5.6 3.2) (end 5.6 -3.2) (layer F.CrtYd) (width 0.05))
  (fp_line (start 5.6 3.2) (end -5.6 3.2) (layer F.CrtYd) (width 0.05))
  (pad 1 smd rect (at -4.27 -1.905) (size 2.16 0.64) (layers F.Cu F.Paste F.Mask))
  (pad 2 smd rect (at -4.27 -0.635) (size 2.16 0.64) (layers F.Cu F.Paste F.Mask))
  (pad 3 smd rect (at -4.27 0.635) (size 2.16 0.64) (layers F.Cu F.Paste F.Mask))
  (pad 4 smd rect (at -4.27 1.905) (size 2.16 0.64) (layers F.Cu F.Paste F.Mask))
  (pad 5 smd rect (at 4.27 1.905) (size 2.16 0.64) (layers F.Cu F.Paste F.Mask))
  (pad 6 smd rect (at 4.27 0.635) (size 2.16 0.64) (layers F.Cu F.Paste F.Mask))
  (pad 7 smd rect (at 4.27 -0.635) (size 2.16 0.64) (layers F.Cu F.Paste F.Mask))
  (pad 8 smd rect (at 4.27 -1.905) (size 2.16 0.64) (layers F.Cu F.Paste F.Mask))
  (model ${KICAD6_3DMODEL_DIR}/Package_SO.3dshapes/SSO-8_6.8x5.9mm_P1.27mm_Clearance7mm.wrl
    (at (xyz 0 0 0))
    (scale (xyz 1 1 1))
    (rotate (xyz 0 0 0))
  )
)
