(module SSOP-24_3.9x8.7mm_P0.635mm (layer F.Cu) (tedit 5A02F25C)
  (descr "SSOP24: plastic shrink small outline package; 24 leads; body width 3.9 mm; lead pitch 0.635; (see NXP SSOP-TSSOP-VSO-REFLOW.pdf and sot556-1_po.pdf)")
  (tags "SSOP 0.635")
  (attr smd)
  (fp_text reference REF** (at 0 -5.4) (layer F.SilkS)
    (effects (font (size 1 1) (thickness 0.15)))
  )
  (fp_text value SSOP-24_3.9x8.7mm_P0.635mm (at 0 5.4) (layer F.Fab)
    (effects (font (size 1 1) (thickness 0.15)))
  )
  (fp_line (start -0.95 -4.35) (end 1.95 -4.35) (layer F.Fab) (width 0.15))
  (fp_line (start 1.95 -4.35) (end 1.95 4.35) (layer F.Fab) (width 0.15))
  (fp_line (start 1.95 4.35) (end -1.95 4.35) (layer F.Fab) (width 0.15))
  (fp_line (start -1.95 4.35) (end -1.95 -3.35) (layer F.Fab) (width 0.15))
  (fp_line (start -1.95 -3.35) (end -0.95 -4.35) (layer F.Fab) (width 0.15))
  (fp_line (start -3.45 -4.65) (end -3.45 4.65) (layer F.CrtYd) (width 0.05))
  (fp_line (start 3.45 -4.65) (end 3.45 4.65) (layer F.CrtYd) (width 0.05))
  (fp_line (start -3.45 -4.65) (end 3.45 -4.65) (layer F.CrtYd) (width 0.05))
  (fp_line (start -3.45 4.65) (end 3.45 4.65) (layer F.CrtYd) (width 0.05))
  (fp_line (start -2.075 -4.475) (end -2.075 -4) (layer F.SilkS) (width 0.15))
  (fp_line (start 2.075 -4.475) (end 2.075 -3.9175) (layer F.SilkS) (width 0.15))
  (fp_line (start 2.075 4.475) (end 2.075 3.9175) (layer F.SilkS) (width 0.15))
  (fp_line (start -2.075 4.475) (end -2.075 3.9175) (layer F.SilkS) (width 0.15))
  (fp_line (start -2.075 -4.475) (end 2.075 -4.475) (layer F.SilkS) (width 0.15))
  (fp_line (start -2.075 4.475) (end 2.075 4.475) (layer F.SilkS) (width 0.15))
  (fp_line (start -2.075 -4) (end -3.2 -4) (layer F.SilkS) (width 0.15))
  (fp_text user %R (at 0 0) (layer F.Fab)
    (effects (font (size 0.8 0.8) (thickness 0.15)))
  )
  (pad 1 smd rect (at -2.6 -3.4925) (size 1.2 0.4) (layers F.Cu F.Paste F.Mask))
  (pad 2 smd rect (at -2.6 -2.8575) (size 1.2 0.4) (layers F.Cu F.Paste F.Mask))
  (pad 3 smd rect (at -2.6 -2.2225) (size 1.2 0.4) (layers F.Cu F.Paste F.Mask))
  (pad 4 smd rect (at -2.6 -1.5875) (size 1.2 0.4) (layers F.Cu F.Paste F.Mask))
  (pad 5 smd rect (at -2.6 -0.9525) (size 1.2 0.4) (layers F.Cu F.Paste F.Mask))
  (pad 6 smd rect (at -2.6 -0.3175) (size 1.2 0.4) (layers F.Cu F.Paste F.Mask))
  (pad 7 smd rect (at -2.6 0.3175) (size 1.2 0.4) (layers F.Cu F.Paste F.Mask))
  (pad 8 smd rect (at -2.6 0.9525) (size 1.2 0.4) (layers F.Cu F.Paste F.Mask))
  (pad 9 smd rect (at -2.6 1.5875) (size 1.2 0.4) (layers F.Cu F.Paste F.Mask))
  (pad 10 smd rect (at -2.6 2.2225) (size 1.2 0.4) (layers F.Cu F.Paste F.Mask))
  (pad 11 smd rect (at -2.6 2.8575) (size 1.2 0.4) (layers F.Cu F.Paste F.Mask))
  (pad 12 smd rect (at -2.6 3.4925) (size 1.2 0.4) (layers F.Cu F.Paste F.Mask))
  (pad 13 smd rect (at 2.6 3.4925) (size 1.2 0.4) (layers F.Cu F.Paste F.Mask))
  (pad 14 smd rect (at 2.6 2.8575) (size 1.2 0.4) (layers F.Cu F.Paste F.Mask))
  (pad 15 smd rect (at 2.6 2.2225) (size 1.2 0.4) (layers F.Cu F.Paste F.Mask))
  (pad 16 smd rect (at 2.6 1.5875) (size 1.2 0.4) (layers F.Cu F.Paste F.Mask))
  (pad 17 smd rect (at 2.6 0.9525) (size 1.2 0.4) (layers F.Cu F.Paste F.Mask))
  (pad 18 smd rect (at 2.6 0.3175) (size 1.2 0.4) (layers F.Cu F.Paste F.Mask))
  (pad 19 smd rect (at 2.6 -0.3175) (size 1.2 0.4) (layers F.Cu F.Paste F.Mask))
  (pad 20 smd rect (at 2.6 -0.9525) (size 1.2 0.4) (layers F.Cu F.Paste F.Mask))
  (pad 21 smd rect (at 2.6 -1.5875) (size 1.2 0.4) (layers F.Cu F.Paste F.Mask))
  (pad 22 smd rect (at 2.6 -2.2225) (size 1.2 0.4) (layers F.Cu F.Paste F.Mask))
  (pad 23 smd rect (at 2.6 -2.8575) (size 1.2 0.4) (layers F.Cu F.Paste F.Mask))
  (pad 24 smd rect (at 2.6 -3.4925) (size 1.2 0.4) (layers F.Cu F.Paste F.Mask))
  (model ${KICAD6_3DMODEL_DIR}/Package_SO.3dshapes/SSOP-24_3.9x8.7mm_P0.635mm.wrl
    (at (xyz 0 0 0))
    (scale (xyz 1 1 1))
    (rotate (xyz 0 0 0))
  )
)
