(module SSOP-20_4.4x6.5mm_P0.65mm (layer F.Cu) (tedit 5A02F25C)
  (descr "SSOP20: plastic shrink small outline package; 20 leads; body width 4.4 mm; (see NXP SSOP-TSSOP-VSO-REFLOW.pdf and sot266-1_po.pdf)")
  (tags "SSOP 0.65")
  (attr smd)
  (fp_text reference REF** (at 0 -4.3) (layer F.SilkS)
    (effects (font (size 1 1) (thickness 0.15)))
  )
  (fp_text value SSOP-20_4.4x6.5mm_P0.65mm (at 0 4.3) (layer F.Fab)
    (effects (font (size 1 1) (thickness 0.15)))
  )
  (fp_line (start -1.2 -3.25) (end 2.2 -3.25) (layer F.Fab) (width 0.15))
  (fp_line (start 2.2 -3.25) (end 2.2 3.25) (layer F.Fab) (width 0.15))
  (fp_line (start 2.2 3.25) (end -2.2 3.25) (layer F.Fab) (width 0.15))
  (fp_line (start -2.2 3.25) (end -2.2 -2.25) (layer F.Fab) (width 0.15))
  (fp_line (start -2.2 -2.25) (end -1.2 -3.25) (layer F.Fab) (width 0.15))
  (fp_line (start -3.65 -3.55) (end -3.65 3.55) (layer F.CrtYd) (width 0.05))
  (fp_line (start 3.65 -3.55) (end 3.65 3.55) (layer F.CrtYd) (width 0.05))
  (fp_line (start -3.65 -3.55) (end 3.65 -3.55) (layer F.CrtYd) (width 0.05))
  (fp_line (start -3.65 3.55) (end 3.65 3.55) (layer F.CrtYd) (width 0.05))
  (fp_line (start 2.325 -3.45) (end 2.325 -3.35) (layer F.SilkS) (width 0.15))
  (fp_line (start 2.325 3.375) (end 2.325 3.35) (layer F.SilkS) (width 0.15))
  (fp_line (start -2.325 3.375) (end -2.325 3.35) (layer F.SilkS) (width 0.15))
  (fp_line (start -3.4 -3.45) (end 2.325 -3.45) (layer F.SilkS) (width 0.15))
  (fp_line (start -2.325 3.375) (end 2.325 3.375) (layer F.SilkS) (width 0.15))
  (fp_text user %R (at 0 0) (layer F.Fab)
    (effects (font (size 0.8 0.8) (thickness 0.15)))
  )
  (pad 1 smd rect (at -2.9 -2.925) (size 1 0.4) (layers F.Cu F.Paste F.Mask))
  (pad 2 smd rect (at -2.9 -2.275) (size 1 0.4) (layers F.Cu F.Paste F.Mask))
  (pad 3 smd rect (at -2.9 -1.625) (size 1 0.4) (layers F.Cu F.Paste F.Mask))
  (pad 4 smd rect (at -2.9 -0.975) (size 1 0.4) (layers F.Cu F.Paste F.Mask))
  (pad 5 smd rect (at -2.9 -0.325) (size 1 0.4) (layers F.Cu F.Paste F.Mask))
  (pad 6 smd rect (at -2.9 0.325) (size 1 0.4) (layers F.Cu F.Paste F.Mask))
  (pad 7 smd rect (at -2.9 0.975) (size 1 0.4) (layers F.Cu F.Paste F.Mask))
  (pad 8 smd rect (at -2.9 1.625) (size 1 0.4) (layers F.Cu F.Paste F.Mask))
  (pad 9 smd rect (at -2.9 2.275) (size 1 0.4) (layers F.Cu F.Paste F.Mask))
  (pad 10 smd rect (at -2.9 2.925) (size 1 0.4) (layers F.Cu F.Paste F.Mask))
  (pad 11 smd rect (at 2.9 2.925) (size 1 0.4) (layers F.Cu F.Paste F.Mask))
  (pad 12 smd rect (at 2.9 2.275) (size 1 0.4) (layers F.Cu F.Paste F.Mask))
  (pad 13 smd rect (at 2.9 1.625) (size 1 0.4) (layers F.Cu F.Paste F.Mask))
  (pad 14 smd rect (at 2.9 0.975) (size 1 0.4) (layers F.Cu F.Paste F.Mask))
  (pad 15 smd rect (at 2.9 0.325) (size 1 0.4) (layers F.Cu F.Paste F.Mask))
  (pad 16 smd rect (at 2.9 -0.325) (size 1 0.4) (layers F.Cu F.Paste F.Mask))
  (pad 17 smd rect (at 2.9 -0.975) (size 1 0.4) (layers F.Cu F.Paste F.Mask))
  (pad 18 smd rect (at 2.9 -1.625) (size 1 0.4) (layers F.Cu F.Paste F.Mask))
  (pad 19 smd rect (at 2.9 -2.275) (size 1 0.4) (layers F.Cu F.Paste F.Mask))
  (pad 20 smd rect (at 2.9 -2.925) (size 1 0.4) (layers F.Cu F.Paste F.Mask))
  (model ${KICAD6_3DMODEL_DIR}/Package_SO.3dshapes/SSOP-20_4.4x6.5mm_P0.65mm.wrl
    (at (xyz 0 0 0))
    (scale (xyz 1 1 1))
    (rotate (xyz 0 0 0))
  )
)
