(module ST_MultiPowerSO-30 (layer F.Cu) (tedit 5A02F25C)
  (descr "MultiPowerSO-30 3EP 16.0x17.2mm Pitch 1mm (http://www.st.com/resource/en/datasheet/vnh2sp30-e.pdf)")
  (tags "MultiPowerSO-30 3EP 16.0x17.2mm Pitch 1mm")
  (attr smd)
  (fp_text reference REF** (at 0 -9.6) (layer F.SilkS)
    (effects (font (size 1 1) (thickness 0.15)))
  )
  (fp_text value ST_MultiPowerSO-30 (at 0 9.6) (layer F.Fab)
    (effects (font (size 1 1) (thickness 0.15)))
  )
  (fp_line (start 8 -8.7) (end 8.1 -8.7) (layer F.SilkS) (width 0.12))
  (fp_line (start 8.1 -8.7) (end 8.1 -7.5) (layer F.SilkS) (width 0.12))
  (fp_line (start 8 8.7) (end 8.1 8.7) (layer F.SilkS) (width 0.12))
  (fp_line (start 8.1 8.7) (end 8.1 7.5) (layer F.SilkS) (width 0.12))
  (fp_line (start 8 8.7) (end -8.1 8.7) (layer F.SilkS) (width 0.12))
  (fp_line (start -8.1 8.7) (end -8.1 7.5) (layer F.SilkS) (width 0.12))
  (fp_line (start 8 -8.7) (end -8 -8.7) (layer F.SilkS) (width 0.12))
  (fp_line (start -8 -8.7) (end -8.1 -8.7) (layer F.SilkS) (width 0.12))
  (fp_line (start -8.1 -8.7) (end -8.1 -7.5) (layer F.SilkS) (width 0.12))
  (fp_line (start -8.1 -7.5) (end -9.8 -7.5) (layer F.SilkS) (width 0.12))
  (fp_text user %R (at 0 0) (layer F.Fab)
    (effects (font (size 1 1) (thickness 0.15)))
  )
  (fp_line (start -8 8.6) (end 8 8.6) (layer F.Fab) (width 0.1))
  (fp_line (start 8 8.6) (end 8 -8.6) (layer F.Fab) (width 0.1))
  (fp_line (start 8 -8.6) (end -7 -8.6) (layer F.Fab) (width 0.1))
  (fp_line (start -7 -8.6) (end -8 -7.6) (layer F.Fab) (width 0.1))
  (fp_line (start -8 -7.6) (end -8 8.6) (layer F.Fab) (width 0.1))
  (fp_line (start -10.05 -8.85) (end 10.05 -8.85) (layer F.CrtYd) (width 0.05))
  (fp_line (start -10.05 -8.85) (end -10.05 8.85) (layer F.CrtYd) (width 0.05))
  (fp_line (start 10.05 8.85) (end 10.05 -8.85) (layer F.CrtYd) (width 0.05))
  (fp_line (start 10.05 8.85) (end -10.05 8.85) (layer F.CrtYd) (width 0.05))
  (pad 32 smd rect (at 3.05 4.165) (size 5.25 6.23) (layers F.Cu F.Paste F.Mask))
  (pad 15 smd rect (at -9.125 7 270) (size 0.66 1.35) (layers F.Cu F.Paste F.Mask))
  (pad 16 smd rect (at 9.125 7 270) (size 0.66 1.35) (layers F.Cu F.Paste F.Mask))
  (pad 14 smd rect (at -9.125 6 270) (size 0.66 1.35) (layers F.Cu F.Paste F.Mask))
  (pad 17 smd rect (at 9.125 6 270) (size 0.66 1.35) (layers F.Cu F.Paste F.Mask))
  (pad 13 smd rect (at -9.125 5 270) (size 0.66 1.35) (layers F.Cu F.Paste F.Mask))
  (pad 18 smd rect (at 9.125 5 270) (size 0.66 1.35) (layers F.Cu F.Paste F.Mask))
  (pad 12 smd rect (at -9.125 4 270) (size 0.66 1.35) (layers F.Cu F.Paste F.Mask))
  (pad 19 smd rect (at 9.125 4 270) (size 0.66 1.35) (layers F.Cu F.Paste F.Mask))
  (pad 11 smd rect (at -9.125 3 270) (size 0.66 1.35) (layers F.Cu F.Paste F.Mask))
  (pad 20 smd rect (at 9.125 3 270) (size 0.66 1.35) (layers F.Cu F.Paste F.Mask))
  (pad 10 smd rect (at -9.125 2 270) (size 0.66 1.35) (layers F.Cu F.Paste F.Mask))
  (pad 21 smd rect (at 9.125 2 270) (size 0.66 1.35) (layers F.Cu F.Paste F.Mask))
  (pad 9 smd rect (at -9.125 1 270) (size 0.66 1.35) (layers F.Cu F.Paste F.Mask))
  (pad 22 smd rect (at 9.125 1 270) (size 0.66 1.35) (layers F.Cu F.Paste F.Mask))
  (pad 8 smd rect (at -9.125 0 270) (size 0.66 1.35) (layers F.Cu F.Paste F.Mask))
  (pad 23 smd rect (at 9.125 0 270) (size 0.66 1.35) (layers F.Cu F.Paste F.Mask))
  (pad 7 smd rect (at -9.125 -1 270) (size 0.66 1.35) (layers F.Cu F.Paste F.Mask))
  (pad 24 smd rect (at 9.125 -1 270) (size 0.66 1.35) (layers F.Cu F.Paste F.Mask))
  (pad 6 smd rect (at -9.125 -2 270) (size 0.66 1.35) (layers F.Cu F.Paste F.Mask))
  (pad 25 smd rect (at 9.125 -2 270) (size 0.66 1.35) (layers F.Cu F.Paste F.Mask))
  (pad 5 smd rect (at -9.125 -3 270) (size 0.66 1.35) (layers F.Cu F.Paste F.Mask))
  (pad 26 smd rect (at 9.125 -3 270) (size 0.66 1.35) (layers F.Cu F.Paste F.Mask))
  (pad 4 smd rect (at -9.125 -4 270) (size 0.66 1.35) (layers F.Cu F.Paste F.Mask))
  (pad 27 smd rect (at 9.125 -4 270) (size 0.66 1.35) (layers F.Cu F.Paste F.Mask))
  (pad 3 smd rect (at -9.125 -5 270) (size 0.66 1.35) (layers F.Cu F.Paste F.Mask))
  (pad 28 smd rect (at 9.125 -5 270) (size 0.66 1.35) (layers F.Cu F.Paste F.Mask))
  (pad 2 smd rect (at -9.125 -6 270) (size 0.66 1.35) (layers F.Cu F.Paste F.Mask))
  (pad 29 smd rect (at 9.125 -6 270) (size 0.66 1.35) (layers F.Cu F.Paste F.Mask))
  (pad 1 smd rect (at -9.125 -7 270) (size 0.66 1.35) (layers F.Cu F.Paste F.Mask))
  (pad 30 smd rect (at 9.125 -7 270) (size 0.66 1.35) (layers F.Cu F.Paste F.Mask))
  (pad 31 smd rect (at -3.05 0) (size 5.25 10.3) (layers F.Cu F.Paste F.Mask))
  (pad 33 smd rect (at 3.05 -4.165) (size 5.25 6.23) (layers F.Cu F.Paste F.Mask))
  (model ${KICAD6_3DMODEL_DIR}/Package_SO.3dshapes/ST_MultiPowerSO-30.wrl
    (at (xyz 0 0 0))
    (scale (xyz 1 1 1))
    (rotate (xyz 0 0 0))
  )
)
