(module Texas_HTSOP-8-1EP_3.9x4.9mm_P1.27mm_EP2.95x4.9mm_Mask2.4x3.1mm_ThermalVias (layer F.Cu) (tedit 5B0C20CF)
  (descr "8-pin HTSOP package with 1.27mm pin pitch, compatible with SOIC-8, 3.9x4.9mm body, exposed pad, thermal vias, http://www.ti.com/lit/ds/symlink/drv8870.pdf")
  (tags "HTSOP 1.27")
  (solder_mask_margin 0.07)
  (attr smd)
  (fp_text reference REF** (at 0 -3.5) (layer F.SilkS)
    (effects (font (size 1 1) (thickness 0.15)))
  )
  (fp_text value Texas_HTSOP-8-1EP_3.9x4.9mm_P1.27mm_EP2.95x4.9mm_Mask2.4x3.1mm_ThermalVias (at 0 3.5) (layer F.Fab)
    (effects (font (size 1 1) (thickness 0.15)))
  )
  (fp_text user %R (at 0 0) (layer F.Fab)
    (effects (font (size 0.9 0.9) (thickness 0.135)))
  )
  (fp_line (start -0.95 -2.45) (end 1.95 -2.45) (layer F.Fab) (width 0.15))
  (fp_line (start 1.95 -2.45) (end 1.95 2.45) (layer F.Fab) (width 0.15))
  (fp_line (start 1.95 2.45) (end -1.95 2.45) (layer F.Fab) (width 0.15))
  (fp_line (start -1.95 2.45) (end -1.95 -1.45) (layer F.Fab) (width 0.15))
  (fp_line (start -1.95 -1.45) (end -0.95 -2.45) (layer F.Fab) (width 0.15))
  (fp_line (start -4.2 -2.75) (end -4.2 2.75) (layer F.CrtYd) (width 0.05))
  (fp_line (start 4.2 -2.75) (end 4.2 2.75) (layer F.CrtYd) (width 0.05))
  (fp_line (start -4.2 -2.75) (end 4.2 -2.75) (layer F.CrtYd) (width 0.05))
  (fp_line (start -4.2 2.75) (end 4.2 2.75) (layer F.CrtYd) (width 0.05))
  (fp_line (start -2.075 -2.575) (end -2.075 -2.525) (layer F.SilkS) (width 0.15))
  (fp_line (start 2.075 -2.575) (end 2.075 -2.43) (layer F.SilkS) (width 0.15))
  (fp_line (start 2.075 2.575) (end 2.075 2.43) (layer F.SilkS) (width 0.15))
  (fp_line (start -2.075 2.575) (end -2.075 2.43) (layer F.SilkS) (width 0.15))
  (fp_line (start -2.075 -2.575) (end 2.075 -2.575) (layer F.SilkS) (width 0.15))
  (fp_line (start -2.075 2.575) (end 2.075 2.575) (layer F.SilkS) (width 0.15))
  (fp_line (start -2.075 -2.525) (end -3.475 -2.525) (layer F.SilkS) (width 0.15))
  (pad "" smd rect (at 0 0) (size 2.4 3.1) (layers F.Paste))
  (pad "" smd rect (at 0 0) (size 2.4 3.1) (layers F.Mask))
  (pad 9 smd rect (at 0 0) (size 2.6 3.3) (layers B.Cu))
  (pad 1 smd rect (at -2.875 -1.905) (size 2.2 0.5) (layers F.Cu F.Paste F.Mask))
  (pad 2 smd rect (at -2.875 -0.635) (size 2.2 0.5) (layers F.Cu F.Paste F.Mask))
  (pad 3 smd rect (at -2.875 0.635) (size 2.2 0.5) (layers F.Cu F.Paste F.Mask))
  (pad 4 smd rect (at -2.875 1.905) (size 2.2 0.5) (layers F.Cu F.Paste F.Mask))
  (pad 5 smd rect (at 2.875 1.905) (size 2.2 0.5) (layers F.Cu F.Paste F.Mask))
  (pad 6 smd rect (at 2.875 0.635) (size 2.2 0.5) (layers F.Cu F.Paste F.Mask))
  (pad 7 smd rect (at 2.875 -0.635) (size 2.2 0.5) (layers F.Cu F.Paste F.Mask))
  (pad 8 smd rect (at 2.875 -1.905) (size 2.2 0.5) (layers F.Cu F.Paste F.Mask))
  (pad 9 smd rect (at 0 0) (size 2.95 4.9) (layers F.Cu))
  (pad 9 thru_hole circle (at -0.65 -1.3) (size 0.63 0.63) (drill 0.33) (layers *.Cu *.Mask))
  (pad 9 thru_hole circle (at -0.65 0) (size 0.63 0.63) (drill 0.33) (layers *.Cu *.Mask))
  (pad 9 thru_hole circle (at 0.65 0) (size 0.63 0.63) (drill 0.33) (layers *.Cu *.Mask))
  (pad 9 thru_hole circle (at 0.65 -1.3) (size 0.63 0.63) (drill 0.33) (layers *.Cu *.Mask))
  (pad 9 thru_hole circle (at -0.65 1.3) (size 0.63 0.63) (drill 0.33) (layers *.Cu *.Mask))
  (pad 9 thru_hole circle (at 0.65 1.3) (size 0.63 0.63) (drill 0.33) (layers *.Cu *.Mask))
  (model ${KICAD6_3DMODEL_DIR}/Package_SO.3dshapes/Texas_HTSOP-8-1EP_3.9x4.9mm_P1.27mm_EP2.85x4.9mm_Mask2.4x3.1mm_ThermalVias.wrl
    (at (xyz 0 0 0))
    (scale (xyz 1 1 1))
    (rotate (xyz 0 0 0))
  )
)
