(module TSOP-I-28_11.8x8mm_P0.55mm (layer F.Cu) (tedit 5AC6A6FB)
  (descr "TSOP I, 28 pins, 18.8x8mm body, 0.55mm pitch, IPC-calculated pads (http://ww1.microchip.com/downloads/en/devicedoc/doc0807.pdf)")
  (tags "TSOP I 28 pins")
  (attr smd)
  (fp_text reference REF** (at 0.5 -5.1) (layer F.SilkS)
    (effects (font (size 1 1) (thickness 0.15)))
  )
  (fp_text value TSOP-I-28_11.8x8mm_P0.55mm (at 0 5.7) (layer F.Fab)
    (effects (font (size 1 1) (thickness 0.15)))
  )
  (fp_text user %R (at 0.5 0) (layer F.Fab)
    (effects (font (size 1 1) (thickness 0.15)))
  )
  (fp_line (start -5.9 4.11) (end 5.9 4.11) (layer F.SilkS) (width 0.12))
  (fp_line (start -7.205 -4.11) (end 5.9 -4.11) (layer F.SilkS) (width 0.12))
  (fp_line (start -5.9 -3.3) (end -5.2 -4) (layer F.Fab) (width 0.1))
  (fp_line (start 5.9 -4) (end -5.2 -4) (layer F.Fab) (width 0.1))
  (fp_line (start -5.9 -3.3) (end -5.9 4) (layer F.Fab) (width 0.1))
  (fp_line (start 5.9 4) (end -5.9 4) (layer F.Fab) (width 0.1))
  (fp_line (start 5.9 -4) (end 5.9 4) (layer F.Fab) (width 0.1))
  (fp_line (start -7.46 -4.35) (end 7.46 -4.35) (layer F.CrtYd) (width 0.05))
  (fp_line (start -7.46 -4.35) (end -7.46 4.35) (layer F.CrtYd) (width 0.05))
  (fp_line (start 7.46 4.35) (end 7.46 -4.35) (layer F.CrtYd) (width 0.05))
  (fp_line (start 7.46 4.35) (end -7.46 4.35) (layer F.CrtYd) (width 0.05))
  (pad 22 smd rect (at 6.27 -0.275) (size 1.87 0.38) (layers F.Cu F.Paste F.Mask))
  (pad 21 smd rect (at 6.27 0.275) (size 1.87 0.38) (layers F.Cu F.Paste F.Mask))
  (pad 20 smd rect (at 6.27 0.825) (size 1.87 0.38) (layers F.Cu F.Paste F.Mask))
  (pad 23 smd rect (at 6.27 -0.825) (size 1.87 0.38) (layers F.Cu F.Paste F.Mask))
  (pad 24 smd rect (at 6.27 -1.375) (size 1.87 0.38) (layers F.Cu F.Paste F.Mask))
  (pad 19 smd rect (at 6.27 1.375) (size 1.87 0.38) (layers F.Cu F.Paste F.Mask))
  (pad 25 smd rect (at 6.27 -1.925) (size 1.87 0.38) (layers F.Cu F.Paste F.Mask))
  (pad 18 smd rect (at 6.27 1.925) (size 1.87 0.38) (layers F.Cu F.Paste F.Mask))
  (pad 26 smd rect (at 6.27 -2.475) (size 1.87 0.38) (layers F.Cu F.Paste F.Mask))
  (pad 17 smd rect (at 6.27 2.475) (size 1.87 0.38) (layers F.Cu F.Paste F.Mask))
  (pad 16 smd rect (at 6.27 3.025) (size 1.87 0.38) (layers F.Cu F.Paste F.Mask))
  (pad 27 smd rect (at 6.27 -3.025) (size 1.87 0.38) (layers F.Cu F.Paste F.Mask))
  (pad 28 smd rect (at 6.27 -3.575) (size 1.87 0.38) (layers F.Cu F.Paste F.Mask))
  (pad 15 smd rect (at 6.27 3.575) (size 1.87 0.38) (layers F.Cu F.Paste F.Mask))
  (pad 14 smd rect (at -6.27 3.575) (size 1.87 0.38) (layers F.Cu F.Paste F.Mask))
  (pad 1 smd rect (at -6.27 -3.575) (size 1.87 0.38) (layers F.Cu F.Paste F.Mask))
  (pad 2 smd rect (at -6.27 -3.025) (size 1.87 0.38) (layers F.Cu F.Paste F.Mask))
  (pad 13 smd rect (at -6.27 3.025) (size 1.87 0.38) (layers F.Cu F.Paste F.Mask))
  (pad 12 smd rect (at -6.27 2.475) (size 1.87 0.38) (layers F.Cu F.Paste F.Mask))
  (pad 3 smd rect (at -6.27 -2.475) (size 1.87 0.38) (layers F.Cu F.Paste F.Mask))
  (pad 11 smd rect (at -6.27 1.925) (size 1.87 0.38) (layers F.Cu F.Paste F.Mask))
  (pad 4 smd rect (at -6.27 -1.925) (size 1.87 0.38) (layers F.Cu F.Paste F.Mask))
  (pad 10 smd rect (at -6.27 1.375) (size 1.87 0.38) (layers F.Cu F.Paste F.Mask))
  (pad 5 smd rect (at -6.27 -1.375) (size 1.87 0.38) (layers F.Cu F.Paste F.Mask))
  (pad 6 smd rect (at -6.27 -0.825) (size 1.87 0.38) (layers F.Cu F.Paste F.Mask))
  (pad 9 smd rect (at -6.27 0.825) (size 1.87 0.38) (layers F.Cu F.Paste F.Mask))
  (pad 8 smd rect (at -6.27 0.275) (size 1.87 0.38) (layers F.Cu F.Paste F.Mask))
  (pad 7 smd rect (at -6.27 -0.275) (size 1.87 0.38) (layers F.Cu F.Paste F.Mask))
  (model ${KICAD6_3DMODEL_DIR}/Package_SO.3dshapes/TSOP-I-28_11.8x8mm_P0.55mm.wrl
    (at (xyz 0 0 0))
    (scale (xyz 1 1 1))
    (rotate (xyz 0 0 0))
  )
)
