(module TSOP-I-56_18.4x14mm_P0.5mm (layer F.Cu) (tedit 5A02F25C)
  (descr "TSOP I, 32 pins, 18.4x8mm body (https://www.micron.com/~/media/documents/products/technical-note/nor-flash/tn1225_land_pad_design.pdf)")
  (tags "TSOP I 32")
  (attr smd)
  (fp_text reference REF** (at 0 -8) (layer F.SilkS)
    (effects (font (size 1 1) (thickness 0.15)))
  )
  (fp_text value TSOP-I-56_18.4x14mm_P0.5mm (at 0 8) (layer F.Fab)
    (effects (font (size 1 1) (thickness 0.15)))
  )
  (fp_line (start -10.55 7.25) (end -10.55 -7.25) (layer F.CrtYd) (width 0.05))
  (fp_line (start 10.55 7.25) (end -10.55 7.25) (layer F.CrtYd) (width 0.05))
  (fp_line (start 10.55 -7.25) (end 10.55 7.25) (layer F.CrtYd) (width 0.05))
  (fp_line (start -10.55 -7.25) (end 10.55 -7.25) (layer F.CrtYd) (width 0.05))
  (fp_line (start -9.2 7.12) (end 9.2 7.12) (layer F.SilkS) (width 0.12))
  (fp_line (start 9.2 -7.12) (end -10.2 -7.12) (layer F.SilkS) (width 0.1))
  (fp_line (start -8.2 -7) (end -9.2 -6) (layer F.Fab) (width 0.1))
  (fp_text user %R (at 0 0) (layer F.Fab)
    (effects (font (size 1 1) (thickness 0.15)))
  )
  (fp_line (start 9.2 -7) (end 9.2 7) (layer F.Fab) (width 0.1))
  (fp_line (start 9.2 7) (end -9.2 7) (layer F.Fab) (width 0.1))
  (fp_line (start -9.2 7) (end -9.2 -6) (layer F.Fab) (width 0.1))
  (fp_line (start -8.2 -7) (end 9.2 -7) (layer F.Fab) (width 0.1))
  (pad 1 smd rect (at -9.75 -6.75) (size 1.1 0.25) (layers F.Cu F.Paste F.Mask))
  (pad 29 smd rect (at 9.75 6.75) (size 1.1 0.25) (layers F.Cu F.Paste F.Mask))
  (pad 2 smd rect (at -9.75 -6.25) (size 1.1 0.25) (layers F.Cu F.Paste F.Mask))
  (pad 3 smd rect (at -9.75 -5.75) (size 1.1 0.25) (layers F.Cu F.Paste F.Mask))
  (pad 4 smd rect (at -9.75 -5.25) (size 1.1 0.25) (layers F.Cu F.Paste F.Mask))
  (pad 5 smd rect (at -9.75 -4.75) (size 1.1 0.25) (layers F.Cu F.Paste F.Mask))
  (pad 6 smd rect (at -9.75 -4.25) (size 1.1 0.25) (layers F.Cu F.Paste F.Mask))
  (pad 7 smd rect (at -9.75 -3.75) (size 1.1 0.25) (layers F.Cu F.Paste F.Mask))
  (pad 8 smd rect (at -9.75 -3.25) (size 1.1 0.25) (layers F.Cu F.Paste F.Mask))
  (pad 9 smd rect (at -9.75 -2.75) (size 1.1 0.25) (layers F.Cu F.Paste F.Mask))
  (pad 10 smd rect (at -9.75 -2.25) (size 1.1 0.25) (layers F.Cu F.Paste F.Mask))
  (pad 11 smd rect (at -9.75 -1.75) (size 1.1 0.25) (layers F.Cu F.Paste F.Mask))
  (pad 12 smd rect (at -9.75 -1.25) (size 1.1 0.25) (layers F.Cu F.Paste F.Mask))
  (pad 13 smd rect (at -9.75 -0.75) (size 1.1 0.25) (layers F.Cu F.Paste F.Mask))
  (pad 14 smd rect (at -9.75 -0.25) (size 1.1 0.25) (layers F.Cu F.Paste F.Mask))
  (pad 15 smd rect (at -9.75 0.25) (size 1.1 0.25) (layers F.Cu F.Paste F.Mask))
  (pad 16 smd rect (at -9.75 0.75) (size 1.1 0.25) (layers F.Cu F.Paste F.Mask))
  (pad 17 smd rect (at -9.75 1.25) (size 1.1 0.25) (layers F.Cu F.Paste F.Mask))
  (pad 18 smd rect (at -9.75 1.75) (size 1.1 0.25) (layers F.Cu F.Paste F.Mask))
  (pad 19 smd rect (at -9.75 2.25) (size 1.1 0.25) (layers F.Cu F.Paste F.Mask))
  (pad 20 smd rect (at -9.75 2.75) (size 1.1 0.25) (layers F.Cu F.Paste F.Mask))
  (pad 21 smd rect (at -9.75 3.25) (size 1.1 0.25) (layers F.Cu F.Paste F.Mask))
  (pad 22 smd rect (at -9.75 3.75) (size 1.1 0.25) (layers F.Cu F.Paste F.Mask))
  (pad 23 smd rect (at -9.75 4.25) (size 1.1 0.25) (layers F.Cu F.Paste F.Mask))
  (pad 24 smd rect (at -9.75 4.75) (size 1.1 0.25) (layers F.Cu F.Paste F.Mask))
  (pad 25 smd rect (at -9.75 5.25) (size 1.1 0.25) (layers F.Cu F.Paste F.Mask))
  (pad 26 smd rect (at -9.75 5.75) (size 1.1 0.25) (layers F.Cu F.Paste F.Mask))
  (pad 27 smd rect (at -9.75 6.25) (size 1.1 0.25) (layers F.Cu F.Paste F.Mask))
  (pad 28 smd rect (at -9.75 6.75) (size 1.1 0.25) (layers F.Cu F.Paste F.Mask))
  (pad 30 smd rect (at 9.75 6.25) (size 1.1 0.25) (layers F.Cu F.Paste F.Mask))
  (pad 31 smd rect (at 9.75 5.75) (size 1.1 0.25) (layers F.Cu F.Paste F.Mask))
  (pad 32 smd rect (at 9.75 5.25) (size 1.1 0.25) (layers F.Cu F.Paste F.Mask))
  (pad 33 smd rect (at 9.75 4.75) (size 1.1 0.25) (layers F.Cu F.Paste F.Mask))
  (pad 34 smd rect (at 9.75 4.25) (size 1.1 0.25) (layers F.Cu F.Paste F.Mask))
  (pad 35 smd rect (at 9.75 3.75) (size 1.1 0.25) (layers F.Cu F.Paste F.Mask))
  (pad 36 smd rect (at 9.75 3.25) (size 1.1 0.25) (layers F.Cu F.Paste F.Mask))
  (pad 37 smd rect (at 9.75 2.75) (size 1.1 0.25) (layers F.Cu F.Paste F.Mask))
  (pad 38 smd rect (at 9.75 2.25) (size 1.1 0.25) (layers F.Cu F.Paste F.Mask))
  (pad 39 smd rect (at 9.75 1.75) (size 1.1 0.25) (layers F.Cu F.Paste F.Mask))
  (pad 40 smd rect (at 9.75 1.25) (size 1.1 0.25) (layers F.Cu F.Paste F.Mask))
  (pad 41 smd rect (at 9.75 0.75) (size 1.1 0.25) (layers F.Cu F.Paste F.Mask))
  (pad 42 smd rect (at 9.75 0.25) (size 1.1 0.25) (layers F.Cu F.Paste F.Mask))
  (pad 43 smd rect (at 9.75 -0.25) (size 1.1 0.25) (layers F.Cu F.Paste F.Mask))
  (pad 44 smd rect (at 9.75 -0.75) (size 1.1 0.25) (layers F.Cu F.Paste F.Mask))
  (pad 45 smd rect (at 9.75 -1.25) (size 1.1 0.25) (layers F.Cu F.Paste F.Mask))
  (pad 46 smd rect (at 9.75 -1.75) (size 1.1 0.25) (layers F.Cu F.Paste F.Mask))
  (pad 47 smd rect (at 9.75 -2.25) (size 1.1 0.25) (layers F.Cu F.Paste F.Mask))
  (pad 48 smd rect (at 9.75 -2.75) (size 1.1 0.25) (layers F.Cu F.Paste F.Mask))
  (pad 49 smd rect (at 9.75 -3.25) (size 1.1 0.25) (layers F.Cu F.Paste F.Mask))
  (pad 50 smd rect (at 9.75 -3.75) (size 1.1 0.25) (layers F.Cu F.Paste F.Mask))
  (pad 51 smd rect (at 9.75 -4.25) (size 1.1 0.25) (layers F.Cu F.Paste F.Mask))
  (pad 52 smd rect (at 9.75 -4.75) (size 1.1 0.25) (layers F.Cu F.Paste F.Mask))
  (pad 53 smd rect (at 9.75 -5.25) (size 1.1 0.25) (layers F.Cu F.Paste F.Mask))
  (pad 54 smd rect (at 9.75 -5.75) (size 1.1 0.25) (layers F.Cu F.Paste F.Mask))
  (pad 55 smd rect (at 9.75 -6.25) (size 1.1 0.25) (layers F.Cu F.Paste F.Mask))
  (pad 56 smd rect (at 9.75 -6.75) (size 1.1 0.25) (layers F.Cu F.Paste F.Mask))
  (model ${KICAD6_3DMODEL_DIR}/Package_SO.3dshapes/TSOP-I-56_18.4x14mm_P0.5mm.wrl
    (at (xyz 0 0 0))
    (scale (xyz 1 1 1))
    (rotate (xyz 0 0 0))
  )
)
