(module TSOP-I-32_18.4x8mm_P0.5mm_Reverse (layer F.Cu) (tedit 5C6F3667)
  (descr "TSOP I, 32 pins, 18.4x8mm body (http://www.futurlec.com/Datasheet/Memory/628128.pdf), reverse mount")
  (tags "TSOP I 32 reverse")
  (attr smd)
  (fp_text reference REF** (at 0 -11.3) (layer F.SilkS)
    (effects (font (size 1 1) (thickness 0.15)))
  )
  (fp_text value TSOP-I-32_18.4x8mm_P0.5mm_Reverse (at 0 11.3) (layer F.Fab)
    (effects (font (size 1 1) (thickness 0.15)))
  )
  (fp_line (start 4.25 10.55) (end -4.25 10.55) (layer F.CrtYd) (width 0.05))
  (fp_line (start 4.25 -10.55) (end 4.25 10.55) (layer F.CrtYd) (width 0.05))
  (fp_line (start -4.25 -10.55) (end 4.25 -10.55) (layer F.CrtYd) (width 0.05))
  (fp_line (start -4.25 10.55) (end -4.25 -10.55) (layer F.CrtYd) (width 0.05))
  (fp_line (start 4.12 9.2) (end 4.12 -9.2) (layer F.SilkS) (width 0.12))
  (fp_line (start -4.12 -10.2) (end -4.12 9.2) (layer F.SilkS) (width 0.1))
  (fp_line (start -4 -8.2) (end -3 -9.2) (layer F.Fab) (width 0.1))
  (fp_text user %R (at 0 0) (layer F.Fab)
    (effects (font (size 1 1) (thickness 0.15)))
  )
  (fp_line (start -3 -9.2) (end 4 -9.2) (layer F.Fab) (width 0.1))
  (fp_line (start 4 -9.2) (end 4 9.2) (layer F.Fab) (width 0.1))
  (fp_line (start 4 9.2) (end -4 9.2) (layer F.Fab) (width 0.1))
  (fp_line (start -4 -8.2) (end -4 9.2) (layer F.Fab) (width 0.1))
  (pad 32 smd rect (at -3.75 9.75) (size 0.25 1.1) (layers F.Cu F.Paste F.Mask))
  (pad 16 smd rect (at 3.75 -9.75) (size 0.25 1.1) (layers F.Cu F.Paste F.Mask))
  (pad 31 smd rect (at -3.25 9.75) (size 0.25 1.1) (layers F.Cu F.Paste F.Mask))
  (pad 30 smd rect (at -2.75 9.75) (size 0.25 1.1) (layers F.Cu F.Paste F.Mask))
  (pad 29 smd rect (at -2.25 9.75) (size 0.25 1.1) (layers F.Cu F.Paste F.Mask))
  (pad 28 smd rect (at -1.75 9.75) (size 0.25 1.1) (layers F.Cu F.Paste F.Mask))
  (pad 27 smd rect (at -1.25 9.75) (size 0.25 1.1) (layers F.Cu F.Paste F.Mask))
  (pad 26 smd rect (at -0.75 9.75) (size 0.25 1.1) (layers F.Cu F.Paste F.Mask))
  (pad 25 smd rect (at -0.25 9.75) (size 0.25 1.1) (layers F.Cu F.Paste F.Mask))
  (pad 24 smd rect (at 0.25 9.75) (size 0.25 1.1) (layers F.Cu F.Paste F.Mask))
  (pad 23 smd rect (at 0.75 9.75) (size 0.25 1.1) (layers F.Cu F.Paste F.Mask))
  (pad 22 smd rect (at 1.25 9.75) (size 0.25 1.1) (layers F.Cu F.Paste F.Mask))
  (pad 21 smd rect (at 1.75 9.75) (size 0.25 1.1) (layers F.Cu F.Paste F.Mask))
  (pad 20 smd rect (at 2.25 9.75) (size 0.25 1.1) (layers F.Cu F.Paste F.Mask))
  (pad 19 smd rect (at 2.75 9.75) (size 0.25 1.1) (layers F.Cu F.Paste F.Mask))
  (pad 18 smd rect (at 3.25 9.75) (size 0.25 1.1) (layers F.Cu F.Paste F.Mask))
  (pad 17 smd rect (at 3.75 9.75) (size 0.25 1.1) (layers F.Cu F.Paste F.Mask))
  (pad 15 smd rect (at 3.25 -9.75) (size 0.25 1.1) (layers F.Cu F.Paste F.Mask))
  (pad 14 smd rect (at 2.75 -9.75) (size 0.25 1.1) (layers F.Cu F.Paste F.Mask))
  (pad 13 smd rect (at 2.25 -9.75) (size 0.25 1.1) (layers F.Cu F.Paste F.Mask))
  (pad 12 smd rect (at 1.75 -9.75) (size 0.25 1.1) (layers F.Cu F.Paste F.Mask))
  (pad 11 smd rect (at 1.25 -9.75) (size 0.25 1.1) (layers F.Cu F.Paste F.Mask))
  (pad 10 smd rect (at 0.75 -9.75) (size 0.25 1.1) (layers F.Cu F.Paste F.Mask))
  (pad 9 smd rect (at 0.25 -9.75) (size 0.25 1.1) (layers F.Cu F.Paste F.Mask))
  (pad 8 smd rect (at -0.25 -9.75) (size 0.25 1.1) (layers F.Cu F.Paste F.Mask))
  (pad 7 smd rect (at -0.75 -9.75) (size 0.25 1.1) (layers F.Cu F.Paste F.Mask))
  (pad 6 smd rect (at -1.25 -9.75) (size 0.25 1.1) (layers F.Cu F.Paste F.Mask))
  (pad 5 smd rect (at -1.75 -9.75) (size 0.25 1.1) (layers F.Cu F.Paste F.Mask))
  (pad 4 smd rect (at -2.25 -9.75) (size 0.25 1.1) (layers F.Cu F.Paste F.Mask))
  (pad 3 smd rect (at -2.75 -9.75) (size 0.25 1.1) (layers F.Cu F.Paste F.Mask))
  (pad 2 smd rect (at -3.25 -9.75) (size 0.25 1.1) (layers F.Cu F.Paste F.Mask))
  (pad 1 smd rect (at -3.75 -9.75) (size 0.25 1.1) (layers F.Cu F.Paste F.Mask))
  (model ${KICAD6_3DMODEL_DIR}/Package_SO.3dshapes/TSOP-I-32_18.4x8mm_P0.5mm_Reverse.wrl
    (at (xyz 0 0 0))
    (scale (xyz 1 1 1))
    (rotate (xyz 0 0 0))
  )
)
