(footprint "TSSOP-20_4.4x6.5mm_P0.65mm" (version 20211014) (generator pcbnew) (layer "F.Cu")
  (tedit 6185891A)
  (descr "TSSOP, 20 Pin (JEDEC MO-153 Var AC https://www.jedec.org/document_search?search_api_views_fulltext=MO-153), generated with kicad-footprint-generator ipc_gullwing_generator.py")
  (tags "TSSOP SO")
  (attr smd)
  (fp_text reference "REF**" (at 0 -4.2) (layer "F.SilkS")
    (effects (font (size 1 1) (thickness 0.15)))
    (tstamp 062f504f-e898-40b7-aa30-8e94814f29a1)
  )
  (fp_text value "TSSOP-20_4.4x6.5mm_P0.65mm" (at 0 4.2) (layer "F.Fab")
    (effects (font (size 1 1) (thickness 0.15)))
    (tstamp 2651be66-d72e-4418-bf9b-da3bcbb4cee1)
  )
  (fp_text user "${REFERENCE}" (at 0 0) (layer "F.Fab")
    (effects (font (size 1 1) (thickness 0.15)))
    (tstamp 90fe36c5-f7f5-431d-8346-238fa03da383)
  )
  (fp_line (start 0 -3.385) (end -3.6 -3.385) (layer "F.SilkS") (width 0.12) (tstamp 17c27559-271c-4c27-af67-75553859713e))
  (fp_line (start 0 -3.385) (end 2.2 -3.385) (layer "F.SilkS") (width 0.12) (tstamp 2652b73f-5158-4125-8046-86ca34541acd))
  (fp_line (start 0 3.385) (end -2.2 3.385) (layer "F.SilkS") (width 0.12) (tstamp 71e87477-fc12-4af8-adea-6b421aec65f4))
  (fp_line (start 0 3.385) (end 2.2 3.385) (layer "F.SilkS") (width 0.12) (tstamp 8b20175b-74bc-4dcd-b825-7c84fc655db6))
  (fp_line (start -3.85 -3.5) (end -3.85 3.5) (layer "F.CrtYd") (width 0.05) (tstamp 08617706-1dd7-4c67-ab6d-4d0cc752b4f0))
  (fp_line (start -3.85 3.5) (end 3.85 3.5) (layer "F.CrtYd") (width 0.05) (tstamp 3e3c81dc-920d-46be-a2fb-b62eb20f450a))
  (fp_line (start 3.85 -3.5) (end -3.85 -3.5) (layer "F.CrtYd") (width 0.05) (tstamp 54894d45-06e6-4f77-9be3-392c8dcca070))
  (fp_line (start 3.85 3.5) (end 3.85 -3.5) (layer "F.CrtYd") (width 0.05) (tstamp 84b5d211-9297-4eab-ae66-98f745f5f194))
  (fp_line (start -2.2 -2.25) (end -1.2 -3.25) (layer "F.Fab") (width 0.1) (tstamp 4e268f09-4b81-464f-abaa-a6423a50e9f5))
  (fp_line (start 2.2 3.25) (end -2.2 3.25) (layer "F.Fab") (width 0.1) (tstamp 76989090-a400-4542-a647-13fbadb36eda))
  (fp_line (start 2.2 -3.25) (end 2.2 3.25) (layer "F.Fab") (width 0.1) (tstamp a99a550e-d835-4dab-9403-5be2b91439ed))
  (fp_line (start -2.2 3.25) (end -2.2 -2.25) (layer "F.Fab") (width 0.1) (tstamp af73ab55-f02e-4bb3-b286-8e8ee6771915))
  (fp_line (start -1.2 -3.25) (end 2.2 -3.25) (layer "F.Fab") (width 0.1) (tstamp f1db0a5b-2746-41f8-8848-c18ab3eaf9b1))
  (pad "1" smd roundrect (at -2.8625 -2.925) (size 1.475 0.4) (layers "F.Cu" "F.Paste" "F.Mask") (roundrect_rratio 0.25) (tstamp e458ae0c-0c84-4e0a-a680-66e378c2920d))
  (pad "2" smd roundrect (at -2.8625 -2.275) (size 1.475 0.4) (layers "F.Cu" "F.Paste" "F.Mask") (roundrect_rratio 0.25) (tstamp 8a8d4cd1-5559-4de4-9e06-15c4f9e1a31c))
  (pad "3" smd roundrect (at -2.8625 -1.625) (size 1.475 0.4) (layers "F.Cu" "F.Paste" "F.Mask") (roundrect_rratio 0.25) (tstamp 3eab86e3-c713-43dd-bac9-a54bf287ed34))
  (pad "4" smd roundrect (at -2.8625 -0.975) (size 1.475 0.4) (layers "F.Cu" "F.Paste" "F.Mask") (roundrect_rratio 0.25) (tstamp d31b54ab-f84c-4115-b374-859a7d481382))
  (pad "5" smd roundrect (at -2.8625 -0.325) (size 1.475 0.4) (layers "F.Cu" "F.Paste" "F.Mask") (roundrect_rratio 0.25) (tstamp c7ce0994-5c20-4e5e-a300-2e4dbc55fab8))
  (pad "6" smd roundrect (at -2.8625 0.325) (size 1.475 0.4) (layers "F.Cu" "F.Paste" "F.Mask") (roundrect_rratio 0.25) (tstamp 04735997-3537-47df-b22e-089f9c143287))
  (pad "7" smd roundrect (at -2.8625 0.975) (size 1.475 0.4) (layers "F.Cu" "F.Paste" "F.Mask") (roundrect_rratio 0.25) (tstamp 5c7de6f4-2ae4-4897-88df-1c0ee0fd4d6b))
  (pad "8" smd roundrect (at -2.8625 1.625) (size 1.475 0.4) (layers "F.Cu" "F.Paste" "F.Mask") (roundrect_rratio 0.25) (tstamp dc1f0591-e453-46c8-8e85-01b1d3e7d163))
  (pad "9" smd roundrect (at -2.8625 2.275) (size 1.475 0.4) (layers "F.Cu" "F.Paste" "F.Mask") (roundrect_rratio 0.25) (tstamp 38bedccf-156f-4b40-99d8-778f8f90c431))
  (pad "10" smd roundrect (at -2.8625 2.925) (size 1.475 0.4) (layers "F.Cu" "F.Paste" "F.Mask") (roundrect_rratio 0.25) (tstamp 9e8ed712-61d4-437e-ba88-9078ba2976a2))
  (pad "11" smd roundrect (at 2.8625 2.925) (size 1.475 0.4) (layers "F.Cu" "F.Paste" "F.Mask") (roundrect_rratio 0.25) (tstamp 1ebfd4b7-2553-4ffb-b0d2-df3f693ffe8c))
  (pad "12" smd roundrect (at 2.8625 2.275) (size 1.475 0.4) (layers "F.Cu" "F.Paste" "F.Mask") (roundrect_rratio 0.25) (tstamp ea778a1b-d014-426d-a5f5-f4826f3ca65f))
  (pad "13" smd roundrect (at 2.8625 1.625) (size 1.475 0.4) (layers "F.Cu" "F.Paste" "F.Mask") (roundrect_rratio 0.25) (tstamp fb74ebd8-a4cb-4e61-b70c-8ef0265c77b3))
  (pad "14" smd roundrect (at 2.8625 0.975) (size 1.475 0.4) (layers "F.Cu" "F.Paste" "F.Mask") (roundrect_rratio 0.25) (tstamp a65dd401-ed58-43d8-8d40-cb0273f28528))
  (pad "15" smd roundrect (at 2.8625 0.325) (size 1.475 0.4) (layers "F.Cu" "F.Paste" "F.Mask") (roundrect_rratio 0.25) (tstamp ba8d1b4e-3a21-4a85-9769-68243ac15185))
  (pad "16" smd roundrect (at 2.8625 -0.325) (size 1.475 0.4) (layers "F.Cu" "F.Paste" "F.Mask") (roundrect_rratio 0.25) (tstamp c4d2ae31-f879-4b11-9e98-24471ecec47d))
  (pad "17" smd roundrect (at 2.8625 -0.975) (size 1.475 0.4) (layers "F.Cu" "F.Paste" "F.Mask") (roundrect_rratio 0.25) (tstamp ae04c687-1e1e-4e35-9751-15d1ce85666d))
  (pad "18" smd roundrect (at 2.8625 -1.625) (size 1.475 0.4) (layers "F.Cu" "F.Paste" "F.Mask") (roundrect_rratio 0.25) (tstamp 7dac97e0-3229-4b77-bee2-be78a0896feb))
  (pad "19" smd roundrect (at 2.8625 -2.275) (size 1.475 0.4) (layers "F.Cu" "F.Paste" "F.Mask") (roundrect_rratio 0.25) (tstamp baef3683-2199-4ef0-bca9-32e90aee2a22))
  (pad "20" smd roundrect (at 2.8625 -2.925) (size 1.475 0.4) (layers "F.Cu" "F.Paste" "F.Mask") (roundrect_rratio 0.25) (tstamp f1e3295a-73db-4eb7-bcf0-47bf9b00cbfe))
  (model "${KICAD6_3DMODEL_DIR}/Package_SO.3dshapes/TSSOP-20_4.4x6.5mm_P0.65mm.wrl"
    (offset (xyz 0 0 0))
    (scale (xyz 1 1 1))
    (rotate (xyz 0 0 0))
  )
)
