(module TestPoint_2Pads_Pitch2.54mm_Drill0.8mm (layer F.Cu) (tedit 5A0F774F)
  (descr "Test point with 2 pins, pitch 2.54mm, drill diameter 0.8mm")
  (tags "CONN DEV")
  (attr virtual)
  (fp_text reference REF** (at 1.3 -2) (layer F.SilkS)
    (effects (font (size 1 1) (thickness 0.15)))
  )
  (fp_text value TestPoint_2Pads_Pitch2.54mm_Drill0.8mm (at 1.27 2) (layer F.Fab)
    (effects (font (size 1 1) (thickness 0.15)))
  )
  (fp_text user %R (at 1.3 -2) (layer F.Fab)
    (effects (font (size 1 1) (thickness 0.15)))
  )
  (fp_line (start -0.65 1.15) (end 3.15 1.15) (layer F.CrtYd) (width 0.05))
  (fp_line (start 3.15 1.15) (end 3.8 0.5) (layer F.CrtYd) (width 0.05))
  (fp_line (start 3.8 0.5) (end 3.8 -0.5) (layer F.CrtYd) (width 0.05))
  (fp_line (start 3.8 -0.5) (end 3.15 -1.15) (layer F.CrtYd) (width 0.05))
  (fp_line (start 3.15 -1.15) (end -0.65 -1.15) (layer F.CrtYd) (width 0.05))
  (fp_line (start -0.65 -1.15) (end -1.3 -0.5) (layer F.CrtYd) (width 0.05))
  (fp_line (start -1.3 -0.5) (end -1.3 0.5) (layer F.CrtYd) (width 0.05))
  (fp_line (start -1.3 0.5) (end -0.65 1.15) (layer F.CrtYd) (width 0.05))
  (fp_line (start -0.53 -0.9) (end 3.07 -0.9) (layer F.SilkS) (width 0.15))
  (fp_line (start 3.07 -0.9) (end 3.57 -0.4) (layer F.SilkS) (width 0.15))
  (fp_line (start 3.57 -0.4) (end 3.57 0.4) (layer F.SilkS) (width 0.15))
  (fp_line (start 3.57 0.4) (end 3.07 0.9) (layer F.SilkS) (width 0.15))
  (fp_line (start 3.07 0.9) (end -0.53 0.9) (layer F.SilkS) (width 0.15))
  (fp_line (start -0.53 0.9) (end -1.03 0.4) (layer F.SilkS) (width 0.15))
  (fp_line (start -1.03 0.4) (end -1.03 -0.4) (layer F.SilkS) (width 0.15))
  (fp_line (start -1.03 -0.4) (end -0.53 -0.9) (layer F.SilkS) (width 0.15))
  (pad 1 thru_hole circle (at 0 0) (size 1.4 1.4) (drill 0.8) (layers *.Cu *.Mask))
  (pad 2 thru_hole circle (at 2.54 0) (size 1.4 1.4) (drill 0.8) (layers *.Cu *.Mask))
)
