(module TestPoint_Pad_D2.0mm (layer F.Cu) (tedit 5A0F774F)
  (descr "SMD pad as test Point, diameter 2.0mm")
  (tags "test point SMD pad")
  (attr virtual)
  (fp_text reference REF** (at 0 -1.998) (layer F.SilkS)
    (effects (font (size 1 1) (thickness 0.15)))
  )
  (fp_text value TestPoint_Pad_D2.0mm (at 0 2.05) (layer F.Fab)
    (effects (font (size 1 1) (thickness 0.15)))
  )
  (fp_text user %R (at 0 -2) (layer F.Fab)
    (effects (font (size 1 1) (thickness 0.15)))
  )
  (fp_circle (center 0 0) (end 1.5 0) (layer F.CrtYd) (width 0.05))
  (fp_circle (center 0 0) (end 0 1.2) (layer F.SilkS) (width 0.12))
  (pad 1 smd circle (at 0 0) (size 2 2) (layers F.Cu F.Mask))
)
