(module TestPoint_Plated_Hole_D3.0mm (layer F.Cu) (tedit 5A0F774F)
  (descr "Plated Hole as test Point, diameter 3.0mm")
  (tags "test point plated hole")
  (attr virtual)
  (fp_text reference REF** (at 0 -3.048) (layer F.SilkS)
    (effects (font (size 1 1) (thickness 0.15)))
  )
  (fp_text value TestPoint_Plated_Hole_D3.0mm (at 0 3) (layer F.Fab)
    (effects (font (size 1 1) (thickness 0.15)))
  )
  (fp_text user %R (at 0 -3.05) (layer F.Fab)
    (effects (font (size 1 1) (thickness 0.15)))
  )
  (fp_circle (center 0 0) (end 2.5 0) (layer F.CrtYd) (width 0.05))
  (fp_circle (center 0 0) (end 0 -2.286) (layer F.SilkS) (width 0.12))
  (pad 1 thru_hole circle (at 0 0) (size 4 4) (drill 3) (layers *.Cu *.Mask))
)
