(module TestPoint_Plated_Hole_D2.0mm (layer F.Cu) (tedit 5A0F774F)
  (descr "Plated Hole as test Point, diameter 2.0mm")
  (tags "test point plated hole")
  (attr virtual)
  (fp_text reference REF** (at 0 -2.498) (layer F.SilkS)
    (effects (font (size 1 1) (thickness 0.15)))
  )
  (fp_text value TestPoint_Plated_Hole_D2.0mm (at 0 2.45) (layer F.Fab)
    (effects (font (size 1 1) (thickness 0.15)))
  )
  (fp_text user %R (at 0 -2.5) (layer F.Fab)
    (effects (font (size 1 1) (thickness 0.15)))
  )
  (fp_circle (center 0 0) (end 1.8 0) (layer F.CrtYd) (width 0.05))
  (fp_circle (center 0 0) (end 0 -1.7) (layer F.SilkS) (width 0.12))
  (pad 1 thru_hole circle (at 0 0) (size 3 3) (drill 2) (layers *.Cu *.Mask))
)
