(module TestPoint_THTPad_D3.0mm_Drill1.5mm (layer F.Cu) (tedit 5A0F774F)
  (descr "THT pad as test Point, diameter 3.0mm, hole diameter 1.5mm")
  (tags "test point THT pad")
  (attr virtual)
  (fp_text reference REF** (at 0 -2.398) (layer F.SilkS)
    (effects (font (size 1 1) (thickness 0.15)))
  )
  (fp_text value TestPoint_THTPad_D3.0mm_Drill1.5mm (at 0 2.55) (layer F.Fab)
    (effects (font (size 1 1) (thickness 0.15)))
  )
  (fp_text user %R (at 0 -2.4) (layer F.Fab)
    (effects (font (size 1 1) (thickness 0.15)))
  )
  (fp_circle (center 0 0) (end 2 0) (layer F.CrtYd) (width 0.05))
  (fp_circle (center 0 0) (end 0 1.75) (layer F.SilkS) (width 0.12))
  (pad 1 thru_hole circle (at 0 0) (size 3 3) (drill 1.5) (layers *.Cu *.Mask))
)
