(module TestPoint_Keystone_5000-5004_Miniature (layer F.Cu) (tedit 5A0F774F)
  (descr "Keystone Miniature THM Test Point 5000-5004, http://www.keyelco.com/product-pdf.cfm?p=1309")
  (tags "Through Hole Mount Test Points")
  (fp_text reference REF** (at 0 -2.5) (layer F.SilkS)
    (effects (font (size 1 1) (thickness 0.15)))
  )
  (fp_text value TestPoint_Keystone_5000-5004_Miniature (at 0 2.5) (layer F.Fab)
    (effects (font (size 1 1) (thickness 0.15)))
  )
  (fp_text user %R (at 0 -2.5) (layer F.Fab)
    (effects (font (size 1 1) (thickness 0.15)))
  )
  (fp_line (start -0.75 -0.25) (end 0.75 -0.25) (layer F.Fab) (width 0.15))
  (fp_line (start 0.75 -0.25) (end 0.75 0.25) (layer F.Fab) (width 0.15))
  (fp_line (start 0.75 0.25) (end -0.75 0.25) (layer F.Fab) (width 0.15))
  (fp_line (start -0.75 0.25) (end -0.75 -0.25) (layer F.Fab) (width 0.15))
  (fp_circle (center 0 0) (end 1.65 0) (layer F.CrtYd) (width 0.05))
  (fp_circle (center 0 0) (end 1.25 0) (layer F.Fab) (width 0.15))
  (fp_circle (center 0 0) (end 1.4 0) (layer F.SilkS) (width 0.15))
  (pad 1 thru_hole circle (at 0 0) (size 2 2) (drill 1) (layers *.Cu *.Mask))
  (model ${KICAD6_3DMODEL_DIR}/TestPoint.3dshapes/TestPoint_Keystone_5000-5004_Miniature.wrl
    (at (xyz 0 0 0))
    (scale (xyz 1 1 1))
    (rotate (xyz 0 0 0))
  )
)
