(module TestPoint_Pad_D1.0mm (layer F.Cu) (tedit 5A0F774F)
  (descr "SMD pad as test Point, diameter 1.0mm")
  (tags "test point SMD pad")
  (attr virtual)
  (fp_text reference REF** (at 0 -1.448) (layer F.SilkS)
    (effects (font (size 1 1) (thickness 0.15)))
  )
  (fp_text value TestPoint_Pad_D1.0mm (at 0 1.55) (layer F.Fab)
    (effects (font (size 1 1) (thickness 0.15)))
  )
  (fp_text user %R (at 0 -1.45) (layer F.Fab)
    (effects (font (size 1 1) (thickness 0.15)))
  )
  (fp_circle (center 0 0) (end 1 0) (layer F.CrtYd) (width 0.05))
  (fp_circle (center 0 0) (end 0 0.7) (layer F.SilkS) (width 0.12))
  (pad 1 smd circle (at 0 0) (size 1 1) (layers F.Cu F.Mask))
)
