(module DirectFET_L4 (layer F.Cu) (tedit 5D75644B)
  (descr "DirectFET L4 https://www.infineon.com/dgdl/Infineon-AN-1035-ApplicationNotes-v29_01-EN.pdf?fileId=5546d462533600a40153559159020f76#page=41")
  (tags "DirectFET L4 MOSFET Infineon")
  (attr smd)
  (fp_text reference REF** (at 0 -4.5) (layer F.SilkS)
    (effects (font (size 1 1) (thickness 0.15)))
  )
  (fp_text value DirectFET_L4 (at 0 4.5) (layer F.Fab)
    (effects (font (size 1 1) (thickness 0.15)))
  )
  (fp_line (start 4.2 -3.3) (end 4.2 -3.42) (layer F.CrtYd) (width 0.05))
  (fp_line (start -5.05 -3.3) (end -4.075 -3.3) (layer F.SilkS) (width 0.12))
  (fp_line (start -3.95 -3.3) (end -3.775 -3.475) (layer F.Fab) (width 0.1))
  (fp_line (start -3.95 -2.975) (end -3.95 -3.3) (layer F.Fab) (width 0.1))
  (fp_line (start 5.3 -3.3) (end 5.3 3.3) (layer F.CrtYd) (width 0.05))
  (fp_line (start -4.2 -3.3) (end -5.3 -3.3) (layer F.CrtYd) (width 0.05))
  (fp_text user %R (at 0 0) (layer F.Fab)
    (effects (font (size 1 1) (thickness 0.15)))
  )
  (fp_line (start 3.775 -3.475) (end -3.775 -3.475) (layer F.Fab) (width 0.1))
  (fp_line (start 4.55 -2.975) (end 3.95 -2.975) (layer F.Fab) (width 0.1))
  (fp_line (start 4.55 -2.975) (end 4.55 2.975) (layer F.Fab) (width 0.1))
  (fp_line (start -4.55 -2.975) (end -4.55 2.975) (layer F.Fab) (width 0.1))
  (fp_line (start -4.55 -2.975) (end -3.95 -2.975) (layer F.Fab) (width 0.1))
  (fp_line (start 4.55 2.975) (end 3.95 2.975) (layer F.Fab) (width 0.1))
  (fp_line (start -4.55 2.975) (end -3.95 2.975) (layer F.Fab) (width 0.1))
  (fp_line (start 3.775 3.475) (end -3.775 3.475) (layer F.Fab) (width 0.1))
  (fp_line (start 3.8 -3.575) (end -3.8 -3.575) (layer F.SilkS) (width 0.12))
  (fp_line (start 3.89 3.73) (end -3.89 3.73) (layer F.CrtYd) (width 0.05))
  (fp_line (start 3.89 -3.73) (end -3.89 -3.73) (layer F.CrtYd) (width 0.05))
  (fp_line (start -5.3 -3.3) (end -5.3 3.3) (layer F.CrtYd) (width 0.05))
  (fp_line (start 3.95 -2.975) (end 3.95 -3.3) (layer F.Fab) (width 0.1))
  (fp_line (start 4.2 -3.42) (end 3.89 -3.73) (layer F.CrtYd) (width 0.05))
  (fp_line (start -3.95 2.975) (end -3.95 3.3) (layer F.Fab) (width 0.1))
  (fp_line (start 3.95 2.975) (end 3.95 3.3) (layer F.Fab) (width 0.1))
  (fp_line (start 3.95 3.3) (end 3.775 3.475) (layer F.Fab) (width 0.1))
  (fp_line (start -3.95 3.3) (end -3.775 3.475) (layer F.Fab) (width 0.1))
  (fp_line (start 3.95 -3.3) (end 3.775 -3.475) (layer F.Fab) (width 0.1))
  (fp_line (start -4.2 -3.42) (end -3.89 -3.73) (layer F.CrtYd) (width 0.05))
  (fp_line (start -4.2 -3.3) (end -4.2 -3.42) (layer F.CrtYd) (width 0.05))
  (fp_line (start -4.2 3.3) (end -5.3 3.3) (layer F.CrtYd) (width 0.05))
  (fp_line (start -4.2 3.42) (end -3.89 3.73) (layer F.CrtYd) (width 0.05))
  (fp_line (start -4.2 3.3) (end -4.2 3.42) (layer F.CrtYd) (width 0.05))
  (fp_line (start 4.2 -3.3) (end 5.3 -3.3) (layer F.CrtYd) (width 0.05))
  (fp_line (start 4.2 3.42) (end 3.89 3.73) (layer F.CrtYd) (width 0.05))
  (fp_line (start 4.2 3.3) (end 4.2 3.42) (layer F.CrtYd) (width 0.05))
  (fp_line (start 4.2 3.3) (end 5.3 3.3) (layer F.CrtYd) (width 0.05))
  (fp_line (start 4.075 -3.3) (end 3.8 -3.575) (layer F.SilkS) (width 0.12))
  (fp_line (start -4.075 -3.3) (end -3.8 -3.575) (layer F.SilkS) (width 0.12))
  (fp_line (start 3.8 3.575) (end -3.8 3.575) (layer F.SilkS) (width 0.12))
  (fp_line (start 4.075 3.3) (end 3.8 3.575) (layer F.SilkS) (width 0.12))
  (fp_line (start -4.075 3.3) (end -3.8 3.575) (layer F.SilkS) (width 0.12))
  (pad 2 smd rect (at -2.25 0) (size 0.7 1.3) (layers F.Cu F.Paste F.Mask))
  (pad 3 smd rect (at -0.85 -0.575) (size 1.1 0.85) (layers F.Cu F.Paste F.Mask))
  (pad 3 smd rect (at -0.85 0.575) (size 1.1 0.85) (layers F.Cu F.Paste F.Mask))
  (pad 3 smd rect (at 0.55 -0.575) (size 1.1 0.85) (layers F.Cu F.Paste F.Mask))
  (pad 3 smd rect (at 0.55 0.575) (size 1.1 0.85) (layers F.Cu F.Paste F.Mask))
  (pad 1 smd rect (at -4.5 0) (size 1.1 1.7) (layers F.Cu F.Paste F.Mask))
  (pad 1 smd rect (at -4.5 -2.2) (size 1.1 1.7) (layers F.Cu F.Paste F.Mask))
  (pad 1 smd rect (at -4.5 2.2) (size 1.1 1.7) (layers F.Cu F.Paste F.Mask))
  (pad 1 smd rect (at 4.5 0) (size 1.1 1.7) (layers F.Cu F.Paste F.Mask))
  (pad 1 smd rect (at 4.5 2.2) (size 1.1 1.7) (layers F.Cu F.Paste F.Mask))
  (pad 1 smd rect (at 4.5 -2.2) (size 1.1 1.7) (layers F.Cu F.Paste F.Mask))
  (model ${KICAD6_3DMODEL_DIR}/Package_DirectFET.3dshapes/DirectFET_L4.wrl
    (at (xyz 0 0 0))
    (scale (xyz 1 1 1))
    (rotate (xyz 0 0 0))
  )
)
