(module DirectFET_SH (layer F.Cu) (tedit 5D7569EA)
  (descr "DirectFET SH https://www.infineon.com/dgdl/Infineon-AN-1035-ApplicationNotes-v29_01-EN.pdf?fileId=5546d462533600a40153559159020f76#page=19")
  (tags "DirectFET SH MOSFET Infineon")
  (attr smd)
  (fp_text reference REF** (at 0 -3) (layer F.SilkS)
    (effects (font (size 1 1) (thickness 0.15)))
  )
  (fp_text value DirectFET_SH (at 0 3) (layer F.Fab)
    (effects (font (size 1 1) (thickness 0.15)))
  )
  (fp_text user %R (at 0 0) (layer F.Fab)
    (effects (font (size 1 1) (thickness 0.15)))
  )
  (fp_line (start -3.15 2.15) (end 3.15 2.15) (layer F.CrtYd) (width 0.05))
  (fp_line (start 3.15 -2.15) (end 3.15 2.15) (layer F.CrtYd) (width 0.05))
  (fp_line (start -2.06 -1.71) (end -2.06 -1.8) (layer F.SilkS) (width 0.12))
  (fp_line (start -2.84 -1.71) (end -2.06 -1.71) (layer F.SilkS) (width 0.12))
  (fp_line (start -2 1.725) (end -1.825 1.9) (layer F.Fab) (width 0.1))
  (fp_line (start 1.825 1.9) (end 2 1.725) (layer F.Fab) (width 0.1))
  (fp_line (start 1.825 -1.9) (end 2 -1.725) (layer F.Fab) (width 0.1))
  (fp_line (start -2.06 -1.8) (end -1.88 -1.98) (layer F.SilkS) (width 0.12))
  (fp_line (start -1.825 -1.9) (end 1.825 -1.9) (layer F.Fab) (width 0.1))
  (fp_line (start -2 -1.4) (end -2 -1.725) (layer F.Fab) (width 0.1))
  (fp_line (start -2.4 1.4) (end -2 1.4) (layer F.Fab) (width 0.1))
  (fp_line (start 2.4 1.4) (end 2.4 -1.4) (layer F.Fab) (width 0.1))
  (fp_line (start -2.4 1.4) (end -2.4 -1.4) (layer F.Fab) (width 0.1))
  (fp_line (start -2.4 -1.4) (end -2 -1.4) (layer F.Fab) (width 0.1))
  (fp_line (start 2.4 -1.4) (end 2 -1.4) (layer F.Fab) (width 0.1))
  (fp_line (start 2.4 1.4) (end 2 1.4) (layer F.Fab) (width 0.1))
  (fp_line (start -2 1.4) (end -2 1.725) (layer F.Fab) (width 0.1))
  (fp_line (start 2 -1.4) (end 2 -1.725) (layer F.Fab) (width 0.1))
  (fp_line (start 2 1.4) (end 2 1.725) (layer F.Fab) (width 0.1))
  (fp_line (start -1.825 1.9) (end 1.825 1.9) (layer F.Fab) (width 0.1))
  (fp_line (start -2 -1.725) (end -1.825 -1.9) (layer F.Fab) (width 0.1))
  (fp_line (start -1.88 -1.98) (end 1.88 -1.98) (layer F.SilkS) (width 0.12))
  (fp_line (start 2.06 -1.8) (end 1.88 -1.98) (layer F.SilkS) (width 0.12))
  (fp_line (start 2.06 -1.71) (end 2.06 -1.8) (layer F.SilkS) (width 0.12))
  (fp_line (start -2.06 1.71) (end -2.06 1.8) (layer F.SilkS) (width 0.12))
  (fp_line (start -2.06 1.8) (end -1.88 1.98) (layer F.SilkS) (width 0.12))
  (fp_line (start -1.88 1.98) (end 1.88 1.98) (layer F.SilkS) (width 0.12))
  (fp_line (start 2.06 1.8) (end 1.88 1.98) (layer F.SilkS) (width 0.12))
  (fp_line (start 2.06 1.71) (end 2.06 1.8) (layer F.SilkS) (width 0.12))
  (fp_line (start -3.15 -2.15) (end 3.15 -2.15) (layer F.CrtYd) (width 0.05))
  (fp_line (start -3.15 -2.15) (end -3.15 2.15) (layer F.CrtYd) (width 0.05))
  (pad 2 smd rect (at -0.695 0) (size 0.65 0.65) (layers F.Cu F.Paste F.Mask))
  (pad 3 smd rect (at 0.635 0) (size 0.7 0.9) (layers F.Cu F.Paste F.Mask))
  (pad 1 smd rect (at -2.455 -0.825) (size 0.9 1.25) (layers F.Cu F.Paste F.Mask))
  (pad 1 smd rect (at -2.455 0.825) (size 0.9 1.25) (layers F.Cu F.Paste F.Mask))
  (pad 1 smd rect (at 2.455 -0.825) (size 0.9 1.25) (layers F.Cu F.Paste F.Mask))
  (pad 1 smd rect (at 2.455 0.825) (size 0.9 1.25) (layers F.Cu F.Paste F.Mask))
  (model ${KICAD6_3DMODEL_DIR}/Package_DirectFET.3dshapes/DirectFET_SH.wrl
    (at (xyz 0 0 0))
    (scale (xyz 1 1 1))
    (rotate (xyz 0 0 0))
  )
)
