(module DirectFET_MQ (layer F.Cu) (tedit 5D754D7F)
  (descr "DirectFET MQ https://www.infineon.com/dgdl/Infineon-AN-1035-ApplicationNotes-v29_01-EN.pdf?fileId=5546d462533600a40153559159020f76#page=29")
  (tags "DirectFET MQ MOSFET Infineon")
  (attr smd)
  (fp_text reference REF** (at 0 3.5) (layer F.SilkS)
    (effects (font (size 1 1) (thickness 0.15)))
  )
  (fp_text value DirectFET_MQ (at 0 -3.3) (layer F.Fab)
    (effects (font (size 1 1) (thickness 0.15)))
  )
  (fp_text user %R (at 0 0) (layer F.Fab)
    (effects (font (size 1 1) (thickness 0.15)))
  )
  (fp_line (start -2.75 -2.35) (end -2.65 -2.45) (layer F.Fab) (width 0.1))
  (fp_line (start 2.65 -2.45) (end 2.75 -2.35) (layer F.Fab) (width 0.1))
  (fp_line (start -2.75 2.35) (end -2.65 2.45) (layer F.Fab) (width 0.1))
  (fp_line (start 2.75 2.35) (end 2.65 2.45) (layer F.Fab) (width 0.1))
  (fp_line (start 3.9 2.7) (end 3.9 -2.7) (layer F.CrtYd) (width 0.05))
  (fp_line (start -3.9 2.7) (end 3.9 2.7) (layer F.CrtYd) (width 0.05))
  (fp_line (start -3.9 -2.7) (end -3.9 2.7) (layer F.CrtYd) (width 0.05))
  (fp_line (start 3.9 -2.7) (end -3.9 -2.7) (layer F.CrtYd) (width 0.05))
  (fp_line (start -2.8 2.5) (end -2.9 2.4) (layer F.SilkS) (width 0.12))
  (fp_line (start 2.8 2.5) (end -2.8 2.5) (layer F.SilkS) (width 0.12))
  (fp_line (start 2.9 2.4) (end 2.8 2.5) (layer F.SilkS) (width 0.12))
  (fp_line (start 2.8 -2.5) (end 2.9 -2.4) (layer F.SilkS) (width 0.12))
  (fp_line (start -2.8 -2.5) (end 2.8 -2.5) (layer F.SilkS) (width 0.12))
  (fp_line (start -2.9 -2.4) (end -2.8 -2.5) (layer F.SilkS) (width 0.12))
  (fp_line (start -3.65 -2.4) (end -2.9 -2.4) (layer F.SilkS) (width 0.12))
  (fp_line (start -2.75 1.95) (end -2.75 2.35) (layer F.Fab) (width 0.1))
  (fp_line (start -3.15 1.95) (end -2.75 1.95) (layer F.Fab) (width 0.1))
  (fp_line (start 2.75 1.95) (end 2.75 2.35) (layer F.Fab) (width 0.1))
  (fp_line (start 3.15 1.95) (end 2.75 1.95) (layer F.Fab) (width 0.1))
  (fp_line (start 2.75 -1.95) (end 3.15 -1.95) (layer F.Fab) (width 0.1))
  (fp_line (start 2.75 -2.35) (end 2.75 -1.95) (layer F.Fab) (width 0.1))
  (fp_line (start -2.75 -1.95) (end -2.75 -2.35) (layer F.Fab) (width 0.1))
  (fp_line (start -3.15 -1.95) (end -2.75 -1.95) (layer F.Fab) (width 0.1))
  (fp_line (start -3.15 1.95) (end -3.15 -1.95) (layer F.Fab) (width 0.1))
  (fp_line (start 3.15 -1.95) (end 3.15 1.95) (layer F.Fab) (width 0.1))
  (fp_line (start -2.65 2.45) (end 2.65 2.45) (layer F.Fab) (width 0.1))
  (fp_line (start 2.65 -2.45) (end -2.65 -2.45) (layer F.Fab) (width 0.1))
  (pad 1 smd rect (at -3.205 -1.175) (size 0.9 1.85) (layers F.Cu F.Paste F.Mask))
  (pad 1 smd rect (at 3.205 -1.175) (size 0.9 1.85) (layers F.Cu F.Paste F.Mask))
  (pad 1 smd rect (at -3.205 1.175) (size 0.9 1.85) (layers F.Cu F.Paste F.Mask))
  (pad 1 smd rect (at 3.205 1.175) (size 0.9 1.85) (layers F.Cu F.Paste F.Mask))
  (pad 2 smd rect (at -0.765 0) (size 0.75 0.75) (layers F.Cu F.Paste F.Mask))
  (pad 3 smd rect (at 0.645 -0.42) (size 0.76 0.64) (layers F.Cu F.Paste F.Mask))
  (pad 3 smd rect (at 0.645 0.42) (size 0.76 0.64) (layers F.Cu F.Paste F.Mask))
  (model ${KICAD6_3DMODEL_DIR}/Package_DirectFET.3dshapes/DirectFET_MQ.wrl
    (at (xyz 0 0 0))
    (scale (xyz 1 1 1))
    (rotate (xyz 0 0 0))
  )
)
