(module Analog_KS-4 (layer F.Cu) (tedit 5A02FF57)
  (descr "Analog Devices KS-4, http://www.analog.com/media/en/package-pcb-resources/package/pkg_pdf/sc70ks/ks_4.pdf")
  (tags "Analog Devices KS-4 (like EIAJ SC-82)")
  (attr smd)
  (fp_text reference REF** (at 0 -2) (layer F.SilkS)
    (effects (font (size 1 1) (thickness 0.15)))
  )
  (fp_text value Analog_KS-4 (at 0 2) (layer F.Fab)
    (effects (font (size 1 1) (thickness 0.15)))
  )
  (fp_text user %R (at 0 0 90) (layer F.Fab)
    (effects (font (size 0.5 0.5) (thickness 0.075)))
  )
  (fp_line (start 0.7 -1.16) (end -1.2 -1.16) (layer F.SilkS) (width 0.12))
  (fp_line (start -0.7 1.16) (end 0.7 1.16) (layer F.SilkS) (width 0.12))
  (fp_line (start 1.5 1.4) (end 1.5 -1.4) (layer F.CrtYd) (width 0.05))
  (fp_line (start -1.5 -1.4) (end -1.5 1.4) (layer F.CrtYd) (width 0.05))
  (fp_line (start -1.5 -1.4) (end 1.5 -1.4) (layer F.CrtYd) (width 0.05))
  (fp_line (start -1.5 1.4) (end 1.5 1.4) (layer F.CrtYd) (width 0.05))
  (fp_line (start 0.675 -1.1) (end -0.175 -1.1) (layer F.Fab) (width 0.1))
  (fp_line (start -0.675 -0.6) (end -0.675 1.1) (layer F.Fab) (width 0.1))
  (fp_line (start 0.675 -1.1) (end 0.675 1.1) (layer F.Fab) (width 0.1))
  (fp_line (start 0.675 1.1) (end -0.675 1.1) (layer F.Fab) (width 0.1))
  (fp_line (start -0.175 -1.1) (end -0.675 -0.6) (layer F.Fab) (width 0.1))
  (pad 1 smd rect (at -0.825 -0.65) (size 0.75 0.4) (layers F.Cu F.Paste F.Mask))
  (pad 2 smd rect (at -0.825 0.5) (size 0.75 0.8) (layers F.Cu F.Paste F.Mask))
  (pad 3 smd rect (at 0.825 0.65) (size 0.75 0.4) (layers F.Cu F.Paste F.Mask))
  (pad 4 smd rect (at 0.825 -0.65) (size 0.75 0.4) (layers F.Cu F.Paste F.Mask))
  (model ${KICAD6_3DMODEL_DIR}/Package_TO_SOT_SMD.3dshapes/Analog_KS-4.wrl
    (at (xyz 0 0 0))
    (scale (xyz 1 1 1))
    (rotate (xyz 0 0 0))
  )
)
