(module ATPAK-2 (layer F.Cu) (tedit 5BA2C72D)
  (descr "ATPAK SMD package, http://www.onsemi.com/pub/Collateral/ENA2192-D.PDF")
  (tags "ATPAK ")
  (attr smd)
  (fp_text reference REF** (at 0 -4.5) (layer F.SilkS)
    (effects (font (size 1 1) (thickness 0.15)))
  )
  (fp_text value ATPAK-2 (at 0 4.5) (layer F.Fab)
    (effects (font (size 1 1) (thickness 0.15)))
  )
  (fp_line (start 4.25 -3.25) (end 4.75 -3.25) (layer F.Fab) (width 0.1))
  (fp_line (start 4.75 -3.25) (end 4.75 3.25) (layer F.Fab) (width 0.1))
  (fp_line (start 4.75 3.25) (end 4.25 3.25) (layer F.Fab) (width 0.1))
  (fp_line (start 4.25 -3.25) (end 4.25 3.25) (layer F.Fab) (width 0.1))
  (fp_line (start 4.25 3.25) (end -3.05 3.25) (layer F.Fab) (width 0.1))
  (fp_line (start -3.05 3.25) (end -3.05 -2.25) (layer F.Fab) (width 0.1))
  (fp_line (start -3.05 -2.25) (end -2.05 -3.25) (layer F.Fab) (width 0.1))
  (fp_line (start -2.05 -3.25) (end 4.25 -3.25) (layer F.Fab) (width 0.1))
  (fp_line (start -2.7 -2.6) (end -4.75 -2.6) (layer F.Fab) (width 0.1))
  (fp_line (start -4.75 -2.6) (end -4.75 -2) (layer F.Fab) (width 0.1))
  (fp_line (start -4.75 -2) (end -3.05 -2) (layer F.Fab) (width 0.1))
  (fp_line (start -3.05 2) (end -4.75 2) (layer F.Fab) (width 0.1))
  (fp_line (start -4.75 2) (end -4.75 2.6) (layer F.Fab) (width 0.1))
  (fp_line (start -4.75 2.6) (end -3.05 2.6) (layer F.Fab) (width 0.1))
  (fp_line (start -1.75 -3.45) (end -3.25 -3.45) (layer F.SilkS) (width 0.12))
  (fp_line (start -3.25 -3.45) (end -3.25 -3.35) (layer F.SilkS) (width 0.12))
  (fp_line (start -3.25 -3.35) (end -5.15 -3.35) (layer F.SilkS) (width 0.12))
  (fp_line (start -1.75 3.45) (end -3.25 3.45) (layer F.SilkS) (width 0.12))
  (fp_line (start -3.25 3.45) (end -3.25 3.35) (layer F.SilkS) (width 0.12))
  (fp_line (start -3.25 3.35) (end -4.35 3.35) (layer F.SilkS) (width 0.12))
  (fp_line (start -5.4 -3.5) (end -5.4 3.5) (layer F.CrtYd) (width 0.05))
  (fp_line (start -5.4 3.5) (end 5.4 3.5) (layer F.CrtYd) (width 0.05))
  (fp_line (start 5.4 3.5) (end 5.4 -3.5) (layer F.CrtYd) (width 0.05))
  (fp_line (start 5.4 -3.5) (end -5.4 -3.5) (layer F.CrtYd) (width 0.05))
  (fp_text user %R (at 0 0) (layer F.Fab)
    (effects (font (size 1 1) (thickness 0.15)))
  )
  (pad 1 smd rect (at -4.35 -2.3) (size 1.6 1.5) (layers F.Cu F.Paste F.Mask))
  (pad 3 smd rect (at -4.35 2.3) (size 1.6 1.5) (layers F.Cu F.Paste F.Mask))
  (pad 2 smd rect (at 1.8 0) (size 6.7 6.5) (layers F.Cu F.Mask))
  (pad "" smd rect (at 3.55 1.7) (size 3.2 3.1) (layers F.Paste))
  (pad "" smd rect (at 0.05 -1.7) (size 3.2 3.1) (layers F.Paste))
  (pad "" smd rect (at 3.55 -1.7) (size 3.2 3.1) (layers F.Paste))
  (pad "" smd rect (at 0.05 1.7) (size 3.2 3.1) (layers F.Paste))
  (model ${KICAD6_3DMODEL_DIR}/Package_TO_SOT_SMD.3dshapes/ATPAK-2.wrl
    (at (xyz 0 0 0))
    (scale (xyz 1 1 1))
    (rotate (xyz 0 0 0))
  )
)
