(module Diodes_SOT-553 (layer F.Cu) (tedit 5BB9E732)
  (descr "Diodes SOT-553, https://www.diodes.com/assets/Package-Files/SOT553.pdf")
  (tags SOT-553)
  (attr smd)
  (fp_text reference REF** (at 0 -2) (layer F.SilkS)
    (effects (font (size 1 1) (thickness 0.15)))
  )
  (fp_text value Diodes_SOT-553 (at 0 2) (layer F.Fab)
    (effects (font (size 1 1) (thickness 0.15)))
  )
  (fp_text user %R (at 0 0 90) (layer F.Fab)
    (effects (font (size 0.4 0.4) (thickness 0.0625)))
  )
  (fp_line (start -0.625 -0.5) (end -0.275 -0.85) (layer F.Fab) (width 0.1))
  (fp_line (start 0.625 0.9) (end -0.625 0.9) (layer F.SilkS) (width 0.12))
  (fp_line (start -1 -0.9) (end 0.625 -0.9) (layer F.SilkS) (width 0.12))
  (fp_line (start -0.625 -0.5) (end -0.625 0.85) (layer F.Fab) (width 0.1))
  (fp_line (start -0.625 0.85) (end 0.625 0.85) (layer F.Fab) (width 0.1))
  (fp_line (start 0.625 0.85) (end 0.625 -0.85) (layer F.Fab) (width 0.1))
  (fp_line (start 0.625 -0.85) (end -0.25 -0.85) (layer F.Fab) (width 0.1))
  (fp_line (start -1.35 -1.1) (end 1.35 -1.1) (layer F.CrtYd) (width 0.05))
  (fp_line (start -1.35 -1.1) (end -1.35 1.1) (layer F.CrtYd) (width 0.05))
  (fp_line (start 1.35 1.1) (end 1.35 -1.1) (layer F.CrtYd) (width 0.05))
  (fp_line (start 1.35 1.1) (end -1.35 1.1) (layer F.CrtYd) (width 0.05))
  (pad 1 smd roundrect (at -0.85 -0.5) (size 0.5 0.375) (layers F.Cu F.Paste F.Mask) (roundrect_rratio 0.25))
  (pad 3 smd roundrect (at -0.85 0.5) (size 0.5 0.375) (layers F.Cu F.Paste F.Mask) (roundrect_rratio 0.25))
  (pad 5 smd roundrect (at 0.85 -0.5) (size 0.5 0.375) (layers F.Cu F.Paste F.Mask) (roundrect_rratio 0.25))
  (pad 2 smd roundrect (at -0.85 0) (size 0.5 0.375) (layers F.Cu F.Paste F.Mask) (roundrect_rratio 0.25))
  (pad 4 smd roundrect (at 0.85 0.5) (size 0.5 0.375) (layers F.Cu F.Paste F.Mask) (roundrect_rratio 0.25))
  (model ${KICAD6_3DMODEL_DIR}/Package_TO_SOT_SMD.3dshapes/Diodes_SOT-553.wrl
    (at (xyz 0 0 0))
    (scale (xyz 1 1 1))
    (rotate (xyz 0 0 0))
  )
)
