(module HVSOF6 (layer F.Cu) (tedit 5A02FF57)
  (descr "HVSOF6, http://rohmfs.rohm.com/en/techdata_basic/ic/package/hvsof6_1-e.pdf, http://rohmfs.rohm.com/en/products/databook/datasheet/ic/audio_video/video_amplifier/bh76106hfv-e.pdf")
  (tags HVSOF6)
  (attr smd)
  (fp_text reference REF** (at 0 -1.8) (layer F.SilkS)
    (effects (font (size 1 1) (thickness 0.15)))
  )
  (fp_text value HVSOF6 (at 0 1.9) (layer F.Fab)
    (effects (font (size 1 1) (thickness 0.15)))
  )
  (fp_text user %R (at 0 0) (layer F.Fab)
    (effects (font (size 0.6 0.6) (thickness 0.09)))
  )
  (fp_line (start -1.6 -0.9) (end 1.3 -0.9) (layer F.SilkS) (width 0.12))
  (fp_line (start -1.3 0.9) (end 1.3 0.9) (layer F.SilkS) (width 0.12))
  (fp_line (start -1 -0.8) (end 1.3 -0.8) (layer F.Fab) (width 0.1))
  (fp_line (start 1.3 0.8) (end -1.3 0.8) (layer F.Fab) (width 0.1))
  (fp_line (start -1.3 -0.5) (end -1 -0.8) (layer F.Fab) (width 0.1))
  (fp_line (start -1.3 -0.5) (end -1.3 0.8) (layer F.Fab) (width 0.1))
  (fp_line (start 1.3 -0.8) (end 1.3 0.8) (layer F.Fab) (width 0.1))
  (fp_line (start -1.75 -1.05) (end 1.75 -1.05) (layer F.CrtYd) (width 0.05))
  (fp_line (start -1.75 -1.05) (end -1.75 1.05) (layer F.CrtYd) (width 0.05))
  (fp_line (start 1.75 1.05) (end 1.75 -1.05) (layer F.CrtYd) (width 0.05))
  (fp_line (start 1.75 1.05) (end -1.75 1.05) (layer F.CrtYd) (width 0.05))
  (pad 7 smd rect (at 0 0) (size 1.6 1.6) (layers F.Cu F.Paste F.Mask))
  (pad 5 smd rect (at 1.38 0 270) (size 0.25 0.55) (layers F.Cu F.Paste F.Mask))
  (pad 6 smd rect (at 1.38 -0.5 270) (size 0.25 0.55) (layers F.Cu F.Paste F.Mask))
  (pad 2 smd rect (at -1.38 0 270) (size 0.25 0.55) (layers F.Cu F.Paste F.Mask))
  (pad 4 smd rect (at 1.38 0.5 270) (size 0.25 0.55) (layers F.Cu F.Paste F.Mask))
  (pad 3 smd rect (at -1.38 0.5 270) (size 0.25 0.55) (layers F.Cu F.Paste F.Mask))
  (pad 1 smd rect (at -1.38 -0.5 270) (size 0.25 0.55) (layers F.Cu F.Paste F.Mask))
  (model ${KICAD6_3DMODEL_DIR}/Package_TO_SOT_SMD.3dshapes/HVSOF6.wrl
    (at (xyz 0 0 0))
    (scale (xyz 1 1 1))
    (rotate (xyz 0 0 0))
  )
)
