(module Infineon_PG-HSOF-8-1_ThermalVias (layer F.Cu) (tedit 5BAD4D38)
  (descr "HSOF-8-1 [TOLL] power MOSFET (http://www.infineon.com/cms/en/product/packages/PG-HSOF/PG-HSOF-8-1/)")
  (tags "mosfet hsof toll thermal vias")
  (attr smd)
  (fp_text reference REF** (at 0 -6) (layer F.SilkS)
    (effects (font (size 1 1) (thickness 0.15)))
  )
  (fp_text value Infineon_PG-HSOF-8-1_ThermalVias (at 0 6) (layer F.Fab)
    (effects (font (size 1 1) (thickness 0.15)))
  )
  (fp_line (start -4.1875 -4.95) (end -5.1875 -3.95) (layer F.Fab) (width 0.1))
  (fp_text user %R (at 0 0) (layer F.Fab)
    (effects (font (size 1 1) (thickness 0.15)))
  )
  (fp_line (start 6.9 -5.3) (end 6.9 5.3) (layer F.CrtYd) (width 0.05))
  (fp_line (start -6.9 5.3) (end -6.9 -5.3) (layer F.CrtYd) (width 0.05))
  (fp_line (start -6.9 5.3) (end 6.9 5.3) (layer F.CrtYd) (width 0.05))
  (fp_line (start 6.9 -5.3) (end -6.9 -5.3) (layer F.CrtYd) (width 0.05))
  (fp_line (start -5.2 5.06) (end 5.07 5.06) (layer F.SilkS) (width 0.12))
  (fp_line (start 5.07 -5.06) (end -6.6 -5.06) (layer F.SilkS) (width 0.12))
  (fp_line (start 5.1875 -4.95) (end 5.1875 4.95) (layer F.Fab) (width 0.1))
  (fp_line (start 5.1875 4.95) (end -5.1875 4.95) (layer F.Fab) (width 0.1))
  (fp_line (start -5.1875 4.95) (end -5.1875 -3.95) (layer F.Fab) (width 0.1))
  (fp_line (start -4.1875 -4.95) (end 5.1875 -4.95) (layer F.Fab) (width 0.1))
  (pad "" smd circle (at -0.07 -4.2) (size 1 1) (layers F.Paste))
  (pad 3 thru_hole circle (at 5.33 0) (size 0.6 0.6) (drill 0.3) (layers *.Cu))
  (pad 3 thru_hole circle (at 4.13 0) (size 0.6 0.6) (drill 0.3) (layers *.Cu))
  (pad 3 thru_hole circle (at -0.67 1.2) (size 0.6 0.6) (drill 0.3) (layers *.Cu))
  (pad 3 thru_hole circle (at 1.73 1.2) (size 0.6 0.6) (drill 0.3) (layers *.Cu))
  (pad 3 thru_hole circle (at 0.53 1.2) (size 0.6 0.6) (drill 0.3) (layers *.Cu))
  (pad 3 thru_hole circle (at 1.73 2.4) (size 0.6 0.6) (drill 0.3) (layers *.Cu))
  (pad 3 thru_hole circle (at 5.33 3.6) (size 0.6 0.6) (drill 0.3) (layers *.Cu))
  (pad 3 thru_hole circle (at 4.13 1.2) (size 0.6 0.6) (drill 0.3) (layers *.Cu))
  (pad 3 thru_hole circle (at 2.93 2.4) (size 0.6 0.6) (drill 0.3) (layers *.Cu))
  (pad 3 thru_hole circle (at 4.13 2.4) (size 0.6 0.6) (drill 0.3) (layers *.Cu))
  (pad 3 thru_hole circle (at 4.13 3.6) (size 0.6 0.6) (drill 0.3) (layers *.Cu))
  (pad 3 thru_hole circle (at 2.93 1.2) (size 0.6 0.6) (drill 0.3) (layers *.Cu))
  (pad 3 thru_hole circle (at 2.93 3.6) (size 0.6 0.6) (drill 0.3) (layers *.Cu))
  (pad 3 thru_hole circle (at 5.33 2.4) (size 0.6 0.6) (drill 0.3) (layers *.Cu))
  (pad 3 thru_hole circle (at 5.33 1.2) (size 0.6 0.6) (drill 0.3) (layers *.Cu))
  (pad 3 thru_hole circle (at -0.67 3.6) (size 0.6 0.6) (drill 0.3) (layers *.Cu))
  (pad 3 thru_hole circle (at -0.67 2.4) (size 0.6 0.6) (drill 0.3) (layers *.Cu))
  (pad 3 thru_hole circle (at 0.53 2.4) (size 0.6 0.6) (drill 0.3) (layers *.Cu))
  (pad 3 thru_hole circle (at 0.53 3.6) (size 0.6 0.6) (drill 0.3) (layers *.Cu))
  (pad 3 thru_hole circle (at 1.73 3.6) (size 0.6 0.6) (drill 0.3) (layers *.Cu))
  (pad 3 thru_hole circle (at 2.93 0) (size 0.6 0.6) (drill 0.3) (layers *.Cu))
  (pad 3 thru_hole circle (at 1.73 0) (size 0.6 0.6) (drill 0.3) (layers *.Cu))
  (pad 3 thru_hole circle (at -0.67 0) (size 0.6 0.6) (drill 0.3) (layers *.Cu))
  (pad 3 thru_hole circle (at 0.53 0) (size 0.6 0.6) (drill 0.3) (layers *.Cu))
  (pad 3 thru_hole circle (at 4.13 -1.2) (size 0.6 0.6) (drill 0.3) (layers *.Cu))
  (pad 3 thru_hole circle (at 5.33 -1.2) (size 0.6 0.6) (drill 0.3) (layers *.Cu))
  (pad 3 thru_hole circle (at 1.73 -1.2) (size 0.6 0.6) (drill 0.3) (layers *.Cu))
  (pad 3 thru_hole circle (at 2.93 -1.2) (size 0.6 0.6) (drill 0.3) (layers *.Cu))
  (pad 3 thru_hole circle (at 0.53 -1.2) (size 0.6 0.6) (drill 0.3) (layers *.Cu))
  (pad 3 thru_hole circle (at -0.67 -1.2) (size 0.6 0.6) (drill 0.3) (layers *.Cu))
  (pad 3 thru_hole circle (at 0.53 -2.4) (size 0.6 0.6) (drill 0.3) (layers *.Cu))
  (pad 3 thru_hole circle (at -0.67 -2.4) (size 0.6 0.6) (drill 0.3) (layers *.Cu))
  (pad 3 thru_hole circle (at 1.73 -2.4) (size 0.6 0.6) (drill 0.3) (layers *.Cu))
  (pad 3 thru_hole circle (at 2.93 -2.4) (size 0.6 0.6) (drill 0.3) (layers *.Cu))
  (pad 3 thru_hole circle (at 4.13 -2.4) (size 0.6 0.6) (drill 0.3) (layers *.Cu))
  (pad 3 thru_hole circle (at 5.33 -2.4) (size 0.6 0.6) (drill 0.3) (layers *.Cu))
  (pad 3 thru_hole circle (at 1.73 -3.6) (size 0.6 0.6) (drill 0.3) (layers *.Cu))
  (pad 3 thru_hole circle (at -0.67 -3.6) (size 0.6 0.6) (drill 0.3) (layers *.Cu))
  (pad 3 thru_hole circle (at 0.53 -3.6) (size 0.6 0.6) (drill 0.3) (layers *.Cu))
  (pad 3 thru_hole circle (at 2.93 -3.6) (size 0.6 0.6) (drill 0.3) (layers *.Cu))
  (pad 3 thru_hole circle (at 5.33 -3.6) (size 0.6 0.6) (drill 0.3) (layers *.Cu))
  (pad 3 thru_hole circle (at 4.13 -3.6) (size 0.6 0.6) (drill 0.3) (layers *.Cu))
  (pad "" smd rect (at -5.25 4.2) (size 2.6 0.7) (layers F.Paste))
  (pad "" smd rect (at -5.25 3) (size 2.6 0.7) (layers F.Paste))
  (pad "" smd rect (at -5.25 1.8) (size 2.6 0.7) (layers F.Paste))
  (pad "" smd rect (at -5.25 0.6) (size 2.6 0.7) (layers F.Paste))
  (pad "" smd rect (at -5.25 -0.6) (size 2.6 0.7) (layers F.Paste))
  (pad "" smd rect (at -5.25 -1.8) (size 2.6 0.7) (layers F.Paste))
  (pad "" smd rect (at -5.25 -3) (size 2.6 0.7) (layers F.Paste))
  (pad "" smd rect (at -5.25 -4.2) (size 2.6 0.7) (layers F.Paste))
  (pad 2 smd custom (at -4.25 0.6) (size 0.8 8) (layers F.Cu F.Mask)
    (zone_connect 2)
    (options (clearance outline) (anchor rect))
    (primitives
      (gr_poly (pts
         (xy -0.4 -4) (xy -2.4 -4) (xy -2.4 -3.2) (xy -0.4 -3.2)) (width 0))
      (gr_poly (pts
         (xy -0.4 -2.8) (xy -2.4 -2.8) (xy -2.4 -2) (xy -0.4 -2)) (width 0))
      (gr_poly (pts
         (xy -0.4 -1.6) (xy -2.4 -1.6) (xy -2.4 -0.8) (xy -0.4 -0.8)) (width 0))
      (gr_poly (pts
         (xy -0.4 -0.4) (xy -2.4 -0.4) (xy -2.4 0.4) (xy -0.4 0.4)) (width 0))
      (gr_poly (pts
         (xy -0.4 0.8) (xy -2.4 0.8) (xy -2.4 1.6) (xy -0.4 1.6)) (width 0))
      (gr_poly (pts
         (xy -0.4 2) (xy -2.4 2) (xy -2.4 2.8) (xy -0.4 2.8)) (width 0))
      (gr_poly (pts
         (xy -0.4 3.2) (xy -2.4 3.2) (xy -2.4 4) (xy -0.4 4)) (width 0))
    ))
  (pad 1 smd rect (at -5.25 -4.2) (size 2.8 0.8) (layers F.Cu F.Mask))
  (pad 3 smd custom (at 3.8 0) (size 2.9 8.7) (layers F.Cu F.Mask)
    (zone_connect 2)
    (options (clearance outline) (anchor rect))
    (primitives
      (gr_poly (pts
         (xy 1.45 -5.05) (xy 2.85 -5.05) (xy 2.85 5.05) (xy 1.45 5.05)) (width 0))
      (gr_poly (pts
         (xy -1.45 -4.85) (xy -5.15 -4.85) (xy -5.15 4.85) (xy -1.45 4.85)) (width 0))
    ))
  (pad 3 smd custom (at 3.8 0) (size 2.9 8.7) (layers B.Cu)
    (zone_connect 2)
    (options (clearance outline) (anchor rect))
    (primitives
      (gr_poly (pts
         (xy 1.45 -5.05) (xy 2.85 -5.05) (xy 2.85 5.05) (xy 1.45 5.05)) (width 0))
      (gr_poly (pts
         (xy -1.45 -4.85) (xy -5.15 -4.85) (xy -5.15 4.85) (xy -1.45 4.85)) (width 0))
    ))
  (pad "" smd circle (at 1.13 -4.2) (size 1 1) (layers F.Paste))
  (pad "" smd circle (at 5.93 -4.2) (size 1 1) (layers F.Paste))
  (pad "" smd circle (at -0.07 -3) (size 1 1) (layers F.Paste))
  (pad "" smd circle (at 1.13 -3) (size 1 1) (layers F.Paste))
  (pad "" smd circle (at 2.33 -3) (size 1 1) (layers F.Paste))
  (pad "" smd circle (at 3.53 -3) (size 1 1) (layers F.Paste))
  (pad "" smd circle (at 4.73 -3) (size 1 1) (layers F.Paste))
  (pad "" smd circle (at 5.93 -3) (size 1 1) (layers F.Paste))
  (pad "" smd circle (at -0.07 -1.8) (size 1 1) (layers F.Paste))
  (pad "" smd circle (at 1.13 -1.8) (size 1 1) (layers F.Paste))
  (pad "" smd circle (at 2.33 -1.8) (size 1 1) (layers F.Paste))
  (pad "" smd circle (at 3.53 -1.8) (size 1 1) (layers F.Paste))
  (pad "" smd circle (at 4.73 -1.8) (size 1 1) (layers F.Paste))
  (pad "" smd circle (at 5.93 -1.8) (size 1 1) (layers F.Paste))
  (pad "" smd circle (at -0.07 -0.6) (size 1 1) (layers F.Paste))
  (pad "" smd circle (at 1.13 -0.6) (size 1 1) (layers F.Paste))
  (pad "" smd circle (at 2.33 -0.6) (size 1 1) (layers F.Paste))
  (pad "" smd circle (at 3.53 -0.6) (size 1 1) (layers F.Paste))
  (pad "" smd circle (at 4.73 -0.6) (size 1 1) (layers F.Paste))
  (pad "" smd circle (at 5.93 -0.6) (size 1 1) (layers F.Paste))
  (pad "" smd circle (at -0.07 0.6) (size 1 1) (layers F.Paste))
  (pad "" smd circle (at 1.13 0.6) (size 1 1) (layers F.Paste))
  (pad "" smd circle (at 2.33 0.6) (size 1 1) (layers F.Paste))
  (pad "" smd circle (at 3.53 0.6) (size 1 1) (layers F.Paste))
  (pad "" smd circle (at 4.73 0.6) (size 1 1) (layers F.Paste))
  (pad "" smd circle (at 5.93 0.6) (size 1 1) (layers F.Paste))
  (pad "" smd circle (at -0.07 1.8) (size 1 1) (layers F.Paste))
  (pad "" smd circle (at 1.13 1.8) (size 1 1) (layers F.Paste))
  (pad "" smd circle (at 2.33 1.8) (size 1 1) (layers F.Paste))
  (pad "" smd circle (at 3.53 1.8) (size 1 1) (layers F.Paste))
  (pad "" smd circle (at 4.73 1.8) (size 1 1) (layers F.Paste))
  (pad "" smd circle (at 5.93 1.8) (size 1 1) (layers F.Paste))
  (pad "" smd circle (at -0.07 3) (size 1 1) (layers F.Paste))
  (pad "" smd circle (at 1.13 3) (size 1 1) (layers F.Paste))
  (pad "" smd circle (at 2.33 3) (size 1 1) (layers F.Paste))
  (pad "" smd circle (at 3.53 3) (size 1 1) (layers F.Paste))
  (pad "" smd circle (at 4.73 3) (size 1 1) (layers F.Paste))
  (pad "" smd circle (at 5.93 3) (size 1 1) (layers F.Paste))
  (pad "" smd circle (at -0.07 4.2) (size 1 1) (layers F.Paste))
  (pad "" smd circle (at 1.13 4.2) (size 1 1) (layers F.Paste))
  (pad "" smd circle (at 5.93 4.2) (size 1 1) (layers F.Paste))
  (model ${KICAD6_3DMODEL_DIR}/Package_TO_SOT_SMD.3dshapes/Infineon_PG-HSOF-8-1.wrl
    (at (xyz 0 0 0))
    (scale (xyz 1 1 1))
    (rotate (xyz 0 0 0))
  )
)
