(module PowerMacro_M234_NoHole (layer F.Cu) (tedit 5A02FF57)
  (descr "TO-50-4 Power Macro Package Style M234")
  (tags "TO-50-4 Power Macro Package Style M234")
  (attr smd)
  (fp_text reference REF** (at -3.45 -4.5 90) (layer F.SilkS)
    (effects (font (size 1 1) (thickness 0.15)))
  )
  (fp_text value PowerMacro_M234_NoHole (at 13.8 0 90) (layer F.Fab)
    (effects (font (size 1 1) (thickness 0.15)))
  )
  (fp_text user %R (at -3.45 -4.5 90) (layer F.Fab)
    (effects (font (size 1 1) (thickness 0.15)))
  )
  (fp_line (start -11.2 1) (end -3.95 1) (layer F.CrtYd) (width 0.05))
  (fp_line (start -3.95 1) (end -1.7 3.25) (layer F.CrtYd) (width 0.05))
  (fp_line (start -1.7 3.25) (end -1.7 10.5) (layer F.CrtYd) (width 0.05))
  (fp_line (start -1.7 10.5) (end 0.3 10.5) (layer F.CrtYd) (width 0.05))
  (fp_line (start 0.3 10.5) (end 0.3 3.25) (layer F.CrtYd) (width 0.05))
  (fp_line (start 0.3 3.25) (end 2.55 2) (layer F.CrtYd) (width 0.05))
  (fp_line (start 2.55 2) (end 12.8 2) (layer F.CrtYd) (width 0.05))
  (fp_line (start 12.8 2) (end 12.8 -2) (layer F.CrtYd) (width 0.05))
  (fp_line (start 12.8 -2) (end 2.55 -2) (layer F.CrtYd) (width 0.05))
  (fp_line (start 2.55 -2) (end 0.3 -3.25) (layer F.CrtYd) (width 0.05))
  (fp_line (start 0.3 -3.25) (end 0.3 -10.5) (layer F.CrtYd) (width 0.05))
  (fp_line (start 0.3 -10.5) (end -1.7 -10.5) (layer F.CrtYd) (width 0.05))
  (fp_line (start -1.7 -10.5) (end -1.7 -3.25) (layer F.CrtYd) (width 0.05))
  (fp_line (start -1.7 -3.25) (end -3.95 -1) (layer F.CrtYd) (width 0.05))
  (fp_line (start -3.95 -1) (end -11.2 -1) (layer F.CrtYd) (width 0.05))
  (fp_line (start -11.2 -1) (end -11.2 1) (layer F.CrtYd) (width 0.05))
  (fp_circle (center -0.7 0) (end -0.7 -2.55) (layer F.Fab) (width 0.1))
  (fp_circle (center -0.7 0) (end -0.7 -2.6) (layer F.SilkS) (width 0.12))
  (pad 1 smd rect (at -7.5 0 90) (size 1.5 7) (layers F.Cu F.Paste F.Mask))
  (pad 2 smd rect (at -0.7 6.8 90) (size 7 1.5) (layers F.Cu F.Paste F.Mask))
  (pad 3 smd rect (at 7.5 0 90) (size 3.5 10) (layers F.Cu F.Paste F.Mask))
  (pad 4 smd rect (at -0.7 -6.8 90) (size 7 1.5) (layers F.Cu F.Paste F.Mask))
  (model ${KICAD6_3DMODEL_DIR}/Package_TO_SOT_SMD.3dshapes/PowerMacro_M234_NoHole.wrl
    (at (xyz 0 0 0))
    (scale (xyz 1 1 1))
    (rotate (xyz 0 0 0))
  )
)
