(module Rohm_HRP7 (layer F.Cu) (tedit 5BA2C6EB)
  (descr "Rohm HRP7 SMD package, http://rohmfs.rohm.com/en/techdata_basic/ic/package/hrp7_1-e.pdf, http://rohmfs.rohm.com/en/products/databook/datasheet/ic/motor/dc/bd621x-e.pdf")
  (tags "Rohm HRP7 SMD")
  (attr smd)
  (fp_text reference REF** (at 0 -5.9) (layer F.SilkS)
    (effects (font (size 1 1) (thickness 0.15)))
  )
  (fp_text value Rohm_HRP7 (at 0 6) (layer F.Fab)
    (effects (font (size 1 1) (thickness 0.15)))
  )
  (fp_text user %R (at 0 0) (layer F.Fab)
    (effects (font (size 1 1) (thickness 0.15)))
  )
  (fp_line (start -3.485 5.1) (end -4.185 5.1) (layer F.SilkS) (width 0.12))
  (fp_line (start -4.185 5.1) (end -4.185 4.5) (layer F.SilkS) (width 0.12))
  (fp_line (start -5.585 -4.5) (end -4.185 -4.5) (layer F.SilkS) (width 0.12))
  (fp_line (start -4.185 -4.5) (end -4.185 -5.1) (layer F.SilkS) (width 0.12))
  (fp_line (start -4.185 -5.1) (end -3.485 -5.1) (layer F.SilkS) (width 0.12))
  (fp_line (start 4.015 -4.4) (end 4.515 -4.4) (layer F.Fab) (width 0.1))
  (fp_line (start 4.515 -4.4) (end 5.015 -3.3) (layer F.Fab) (width 0.1))
  (fp_line (start 5.015 -3.3) (end 5.015 3.3) (layer F.Fab) (width 0.1))
  (fp_line (start 5.015 3.3) (end 4.515 4.4) (layer F.Fab) (width 0.1))
  (fp_line (start 4.515 4.4) (end 4.015 4.4) (layer F.Fab) (width 0.1))
  (fp_line (start 4.015 -4.9) (end 4.015 4.9) (layer F.Fab) (width 0.1))
  (fp_line (start 4.015 4.9) (end -3.985 4.9) (layer F.Fab) (width 0.1))
  (fp_line (start -3.985 4.9) (end -3.985 -4.4) (layer F.Fab) (width 0.1))
  (fp_line (start -3.985 -4.4) (end -3.485 -4.9) (layer F.Fab) (width 0.1))
  (fp_line (start -3.485 -4.9) (end 4.015 -4.9) (layer F.Fab) (width 0.1))
  (fp_line (start -5.9 -5.25) (end 5.9 -5.25) (layer F.CrtYd) (width 0.05))
  (fp_line (start -5.9 -5.25) (end -5.9 5.25) (layer F.CrtYd) (width 0.05))
  (fp_line (start 5.9 5.25) (end 5.9 -5.25) (layer F.CrtYd) (width 0.05))
  (fp_line (start 5.9 5.25) (end -5.9 5.25) (layer F.CrtYd) (width 0.05))
  (pad 1 smd rect (at -4.97 -3.81) (size 1.37 0.93) (layers F.Cu F.Paste F.Mask))
  (pad 2 smd rect (at -4.97 -2.54) (size 1.37 0.93) (layers F.Cu F.Paste F.Mask))
  (pad 3 smd rect (at -4.97 -1.27) (size 1.37 0.93) (layers F.Cu F.Paste F.Mask))
  (pad 4 smd rect (at -4.97 0) (size 1.37 0.93) (layers F.Cu F.Paste F.Mask))
  (pad 5 smd rect (at -4.97 1.27) (size 1.37 0.93) (layers F.Cu F.Paste F.Mask))
  (pad 6 smd rect (at -4.97 2.54) (size 1.37 0.93) (layers F.Cu F.Paste F.Mask))
  (pad 7 smd rect (at -4.97 3.81) (size 1.37 0.93) (layers F.Cu F.Paste F.Mask))
  (pad 4 smd rect (at 1.155 0) (size 9 10) (layers F.Cu F.Mask))
  (pad 4 smd rect (at 1.155 0) (size 9 10) (layers B.Cu))
  (pad "" smd rect (at -1.095 2.5) (size 4 4.5) (layers F.Paste))
  (pad "" smd rect (at 3.405 -2.5) (size 4 4.5) (layers F.Paste))
  (pad "" smd rect (at -1.095 -2.5) (size 4 4.5) (layers F.Paste))
  (pad "" smd rect (at 3.405 2.5) (size 4 4.5) (layers F.Paste))
  (pad 4 thru_hole circle (at -2.445 -4.2) (size 0.6 0.6) (drill 0.3) (layers *.Cu))
  (pad 4 thru_hole circle (at -2.445 -3) (size 0.6 0.6) (drill 0.3) (layers *.Cu))
  (pad 4 thru_hole circle (at -2.445 -1.8) (size 0.6 0.6) (drill 0.3) (layers *.Cu))
  (pad 4 thru_hole circle (at -2.445 -0.6) (size 0.6 0.6) (drill 0.3) (layers *.Cu))
  (pad 4 thru_hole circle (at -2.445 0.6) (size 0.6 0.6) (drill 0.3) (layers *.Cu))
  (pad 4 thru_hole circle (at -2.445 1.8) (size 0.6 0.6) (drill 0.3) (layers *.Cu))
  (pad 4 thru_hole circle (at -2.445 3) (size 0.6 0.6) (drill 0.3) (layers *.Cu))
  (pad 4 thru_hole circle (at -2.445 4.2) (size 0.6 0.6) (drill 0.3) (layers *.Cu))
  (pad 4 thru_hole circle (at -1.245 -4.2) (size 0.6 0.6) (drill 0.3) (layers *.Cu))
  (pad 4 thru_hole circle (at -1.245 -3) (size 0.6 0.6) (drill 0.3) (layers *.Cu))
  (pad 4 thru_hole circle (at -1.245 -1.8) (size 0.6 0.6) (drill 0.3) (layers *.Cu))
  (pad 4 thru_hole circle (at -1.245 -0.6) (size 0.6 0.6) (drill 0.3) (layers *.Cu))
  (pad 4 thru_hole circle (at -1.245 0.6) (size 0.6 0.6) (drill 0.3) (layers *.Cu))
  (pad 4 thru_hole circle (at -1.245 1.8) (size 0.6 0.6) (drill 0.3) (layers *.Cu))
  (pad 4 thru_hole circle (at -1.245 3) (size 0.6 0.6) (drill 0.3) (layers *.Cu))
  (pad 4 thru_hole circle (at -1.245 4.2) (size 0.6 0.6) (drill 0.3) (layers *.Cu))
  (pad 4 thru_hole circle (at -0.045 -4.2) (size 0.6 0.6) (drill 0.3) (layers *.Cu))
  (pad 4 thru_hole circle (at -0.045 -3) (size 0.6 0.6) (drill 0.3) (layers *.Cu))
  (pad 4 thru_hole circle (at -0.045 -1.8) (size 0.6 0.6) (drill 0.3) (layers *.Cu))
  (pad 4 thru_hole circle (at -0.045 -0.6) (size 0.6 0.6) (drill 0.3) (layers *.Cu))
  (pad 4 thru_hole circle (at -0.045 0.6) (size 0.6 0.6) (drill 0.3) (layers *.Cu))
  (pad 4 thru_hole circle (at -0.045 1.8) (size 0.6 0.6) (drill 0.3) (layers *.Cu))
  (pad 4 thru_hole circle (at -0.045 3) (size 0.6 0.6) (drill 0.3) (layers *.Cu))
  (pad 4 thru_hole circle (at -0.045 4.2) (size 0.6 0.6) (drill 0.3) (layers *.Cu))
  (pad 4 thru_hole circle (at 1.155 -4.2) (size 0.6 0.6) (drill 0.3) (layers *.Cu))
  (pad 4 thru_hole circle (at 1.155 -3) (size 0.6 0.6) (drill 0.3) (layers *.Cu))
  (pad 4 thru_hole circle (at 1.155 -1.8) (size 0.6 0.6) (drill 0.3) (layers *.Cu))
  (pad 4 thru_hole circle (at 1.155 -0.6) (size 0.6 0.6) (drill 0.3) (layers *.Cu))
  (pad 4 thru_hole circle (at 1.155 0.6) (size 0.6 0.6) (drill 0.3) (layers *.Cu))
  (pad 4 thru_hole circle (at 1.155 1.8) (size 0.6 0.6) (drill 0.3) (layers *.Cu))
  (pad 4 thru_hole circle (at 1.155 3) (size 0.6 0.6) (drill 0.3) (layers *.Cu))
  (pad 4 thru_hole circle (at 1.155 4.2) (size 0.6 0.6) (drill 0.3) (layers *.Cu))
  (pad 4 thru_hole circle (at 2.355 -4.2) (size 0.6 0.6) (drill 0.3) (layers *.Cu))
  (pad 4 thru_hole circle (at 2.355 -3) (size 0.6 0.6) (drill 0.3) (layers *.Cu))
  (pad 4 thru_hole circle (at 2.355 -1.8) (size 0.6 0.6) (drill 0.3) (layers *.Cu))
  (pad 4 thru_hole circle (at 2.355 -0.6) (size 0.6 0.6) (drill 0.3) (layers *.Cu))
  (pad 4 thru_hole circle (at 2.355 0.6) (size 0.6 0.6) (drill 0.3) (layers *.Cu))
  (pad 4 thru_hole circle (at 2.355 1.8) (size 0.6 0.6) (drill 0.3) (layers *.Cu))
  (pad 4 thru_hole circle (at 2.355 3) (size 0.6 0.6) (drill 0.3) (layers *.Cu))
  (pad 4 thru_hole circle (at 2.355 4.2) (size 0.6 0.6) (drill 0.3) (layers *.Cu))
  (pad 4 thru_hole circle (at 3.555 -4.2) (size 0.6 0.6) (drill 0.3) (layers *.Cu))
  (pad 4 thru_hole circle (at 3.555 -3) (size 0.6 0.6) (drill 0.3) (layers *.Cu))
  (pad 4 thru_hole circle (at 3.555 -1.8) (size 0.6 0.6) (drill 0.3) (layers *.Cu))
  (pad 4 thru_hole circle (at 3.555 -0.6) (size 0.6 0.6) (drill 0.3) (layers *.Cu))
  (pad 4 thru_hole circle (at 3.555 0.6) (size 0.6 0.6) (drill 0.3) (layers *.Cu))
  (pad 4 thru_hole circle (at 3.555 1.8) (size 0.6 0.6) (drill 0.3) (layers *.Cu))
  (pad 4 thru_hole circle (at 3.555 3) (size 0.6 0.6) (drill 0.3) (layers *.Cu))
  (pad 4 thru_hole circle (at 3.555 4.2) (size 0.6 0.6) (drill 0.3) (layers *.Cu))
  (pad 4 thru_hole circle (at 4.755 -4.2) (size 0.6 0.6) (drill 0.3) (layers *.Cu))
  (pad 4 thru_hole circle (at 4.755 -3) (size 0.6 0.6) (drill 0.3) (layers *.Cu))
  (pad 4 thru_hole circle (at 4.755 -1.8) (size 0.6 0.6) (drill 0.3) (layers *.Cu))
  (pad 4 thru_hole circle (at 4.755 -0.6) (size 0.6 0.6) (drill 0.3) (layers *.Cu))
  (pad 4 thru_hole circle (at 4.755 0.6) (size 0.6 0.6) (drill 0.3) (layers *.Cu))
  (pad 4 thru_hole circle (at 4.755 1.8) (size 0.6 0.6) (drill 0.3) (layers *.Cu))
  (pad 4 thru_hole circle (at 4.755 3) (size 0.6 0.6) (drill 0.3) (layers *.Cu))
  (pad 4 thru_hole circle (at 4.755 4.2) (size 0.6 0.6) (drill 0.3) (layers *.Cu))
  (model ${KICAD6_3DMODEL_DIR}/Package_TO_SOT_SMD.3dshapes/Rohm_HRP7.wrl
    (at (xyz 0 0 0))
    (scale (xyz 1 1 1))
    (rotate (xyz 0 0 0))
  )
)
