(module SOT-1334-1 (layer F.Cu) (tedit 5A02FF57)
  (descr SOT-1334-1)
  (tags SOT-1334-1)
  (attr smd)
  (fp_text reference REF** (at 0 -2.1) (layer F.SilkS)
    (effects (font (size 1 1) (thickness 0.15)))
  )
  (fp_text value SOT-1334-1 (at 0 2.2) (layer F.Fab)
    (effects (font (size 1 1) (thickness 0.15)))
  )
  (fp_line (start -1.5 1) (end -2 0.5) (layer F.Fab) (width 0.1))
  (fp_text user %R (at 0 -2.1) (layer F.Fab)
    (effects (font (size 1 1) (thickness 0.15)))
  )
  (fp_line (start -2.3 1.4) (end -2.3 -1.4) (layer F.CrtYd) (width 0.05))
  (fp_line (start 2.3 1.4) (end -2.3 1.4) (layer F.CrtYd) (width 0.05))
  (fp_line (start 2.3 -1.4) (end 2.3 1.4) (layer F.CrtYd) (width 0.05))
  (fp_line (start -2.3 -1.4) (end 2.3 -1.4) (layer F.CrtYd) (width 0.05))
  (fp_line (start 2.2 -1) (end 2.2 1) (layer F.SilkS) (width 0.12))
  (fp_line (start -2.2 -1) (end -2.2 1.3) (layer F.SilkS) (width 0.12))
  (fp_line (start -2 0.5) (end -2 -1) (layer F.Fab) (width 0.1))
  (fp_line (start 2 1) (end -1.5 1) (layer F.Fab) (width 0.1))
  (fp_line (start 2 -1) (end 2 1) (layer F.Fab) (width 0.1))
  (fp_line (start -2 -1) (end 2 -1) (layer F.Fab) (width 0.1))
  (pad 1 smd rect (at -1.75 0.615) (size 0.3 1.07) (layers F.Cu F.Paste F.Mask))
  (pad 2 smd rect (at -1.25 0.615) (size 0.3 1.07) (layers F.Cu F.Paste F.Mask))
  (pad 3 smd rect (at -0.75 0) (size 0.3 2.3) (layers F.Cu F.Paste F.Mask))
  (pad 4 smd rect (at -0.25 0.615) (size 0.3 1.07) (layers F.Cu F.Paste F.Mask))
  (pad 5 smd rect (at 0.25 0.615) (size 0.3 1.07) (layers F.Cu F.Paste F.Mask))
  (pad 6 smd rect (at 0.75 0) (size 0.3 2.3) (layers F.Cu F.Paste F.Mask))
  (pad 7 smd rect (at 1.25 0.615) (size 0.3 1.07) (layers F.Cu F.Paste F.Mask))
  (pad 8 smd rect (at 1.75 0.615) (size 0.3 1.07) (layers F.Cu F.Paste F.Mask))
  (pad 9 smd rect (at 1.75 -0.615) (size 0.3 1.07) (layers F.Cu F.Paste F.Mask))
  (pad 10 smd rect (at 1.25 -0.615) (size 0.3 1.07) (layers F.Cu F.Paste F.Mask))
  (pad 11 smd rect (at 0.25 -0.615) (size 0.3 1.07) (layers F.Cu F.Paste F.Mask))
  (pad 12 smd rect (at -0.25 -0.615) (size 0.3 1.07) (layers F.Cu F.Paste F.Mask))
  (pad 13 smd rect (at -1.25 -0.615) (size 0.3 1.07) (layers F.Cu F.Paste F.Mask))
  (pad 14 smd rect (at -1.75 -0.615) (size 0.3 1.07) (layers F.Cu F.Paste F.Mask))
  (model ${KICAD6_3DMODEL_DIR}/Package_TO_SOT_SMD.3dshapes/SOT-1334-1.wrl
    (at (xyz 0 0 0))
    (scale (xyz 1 1 1))
    (rotate (xyz 0 0 0))
  )
)
