(module SOT-223-8 (layer F.Cu) (tedit 5A02FF57)
  (descr "module CMS SOT223 8 pins, https://www.diodes.com/assets/Datasheets/ZXSBMR16PT8.pdf")
  (tags "CMS SOT")
  (attr smd)
  (fp_text reference REF** (at 0 -4.5) (layer F.SilkS)
    (effects (font (size 1 1) (thickness 0.15)))
  )
  (fp_text value SOT-223-8 (at 0 4.5) (layer F.Fab)
    (effects (font (size 1 1) (thickness 0.15)))
  )
  (fp_text user %R (at 0 0 90) (layer F.Fab)
    (effects (font (size 0.8 0.8) (thickness 0.12)))
  )
  (fp_line (start 2 3) (end 2 3.5) (layer F.SilkS) (width 0.12))
  (fp_line (start 2 3.5) (end -2 3.5) (layer F.SilkS) (width 0.12))
  (fp_line (start -2 3.5) (end -2 3) (layer F.SilkS) (width 0.12))
  (fp_line (start -4.8 -3) (end -2 -3) (layer F.SilkS) (width 0.12))
  (fp_line (start -2 -3) (end -2 -3.4) (layer F.SilkS) (width 0.12))
  (fp_line (start -2 -3.4) (end 2 -3.4) (layer F.SilkS) (width 0.12))
  (fp_line (start 2 -3.4) (end 2 -3) (layer F.SilkS) (width 0.12))
  (fp_line (start 1.85 -3.35) (end 1.85 3.35) (layer F.Fab) (width 0.1))
  (fp_line (start -1.85 3.35) (end 1.85 3.35) (layer F.Fab) (width 0.1))
  (fp_line (start -0.8 -3.35) (end 1.85 -3.35) (layer F.Fab) (width 0.1))
  (fp_line (start -1.85 -2.3) (end -1.85 3.35) (layer F.Fab) (width 0.1))
  (fp_line (start -1.85 -2.3) (end -0.8 -3.35) (layer F.Fab) (width 0.1))
  (fp_line (start -5.05 -3.6) (end 5.05 -3.6) (layer F.CrtYd) (width 0.05))
  (fp_line (start -5.05 -3.6) (end -5.05 3.6) (layer F.CrtYd) (width 0.05))
  (fp_line (start 5.05 3.6) (end 5.05 -3.6) (layer F.CrtYd) (width 0.05))
  (fp_line (start 5.05 3.6) (end -5.05 3.6) (layer F.CrtYd) (width 0.05))
  (pad 7 smd rect (at 3.4 -0.76) (size 2.8 0.95) (layers F.Cu F.Paste F.Mask))
  (pad 5 smd rect (at 3.4 2.3) (size 2.8 0.95) (layers F.Cu F.Paste F.Mask))
  (pad 8 smd rect (at 3.4 -2.3) (size 2.8 0.95) (layers F.Cu F.Paste F.Mask))
  (pad 6 smd rect (at 3.4 0.76) (size 2.8 0.95) (layers F.Cu F.Paste F.Mask))
  (pad 3 smd rect (at -3.4 0.76) (size 2.8 0.95) (layers F.Cu F.Paste F.Mask))
  (pad 1 smd rect (at -3.4 -2.3) (size 2.8 0.95) (layers F.Cu F.Paste F.Mask))
  (pad 4 smd rect (at -3.4 2.3) (size 2.8 0.95) (layers F.Cu F.Paste F.Mask))
  (pad 2 smd rect (at -3.4 -0.76) (size 2.8 0.95) (layers F.Cu F.Paste F.Mask))
  (model ${KICAD6_3DMODEL_DIR}/Package_TO_SOT_SMD.3dshapes/SOT-223-8.wrl
    (at (xyz 0 0 0))
    (scale (xyz 1 1 1))
    (rotate (xyz 0 0 0))
  )
)
