(module SOT-23-6 (layer F.Cu) (tedit 5F6F9B37)
  (descr "SOT, 6 Pin (https://www.jedec.org/sites/default/files/docs/Mo-178c.PDF variant AB), generated with kicad-footprint-generator ipc_gullwing_generator.py")
  (tags "SOT TO_SOT_SMD")
  (attr smd)
  (fp_text reference REF** (at 0 -2.4) (layer F.SilkS)
    (effects (font (size 1 1) (thickness 0.15)))
  )
  (fp_text value SOT-23-6 (at 0 2.4) (layer F.Fab)
    (effects (font (size 1 1) (thickness 0.15)))
  )
  (fp_line (start 0 1.56) (end 0.8 1.56) (layer F.SilkS) (width 0.12))
  (fp_line (start 0 1.56) (end -0.8 1.56) (layer F.SilkS) (width 0.12))
  (fp_line (start 0 -1.56) (end 0.8 -1.56) (layer F.SilkS) (width 0.12))
  (fp_line (start 0 -1.56) (end -1.8 -1.56) (layer F.SilkS) (width 0.12))
  (fp_line (start -0.4 -1.45) (end 0.8 -1.45) (layer F.Fab) (width 0.1))
  (fp_line (start 0.8 -1.45) (end 0.8 1.45) (layer F.Fab) (width 0.1))
  (fp_line (start 0.8 1.45) (end -0.8 1.45) (layer F.Fab) (width 0.1))
  (fp_line (start -0.8 1.45) (end -0.8 -1.05) (layer F.Fab) (width 0.1))
  (fp_line (start -0.8 -1.05) (end -0.4 -1.45) (layer F.Fab) (width 0.1))
  (fp_line (start -2.05 -1.7) (end -2.05 1.7) (layer F.CrtYd) (width 0.05))
  (fp_line (start -2.05 1.7) (end 2.05 1.7) (layer F.CrtYd) (width 0.05))
  (fp_line (start 2.05 1.7) (end 2.05 -1.7) (layer F.CrtYd) (width 0.05))
  (fp_line (start 2.05 -1.7) (end -2.05 -1.7) (layer F.CrtYd) (width 0.05))
  (pad 1 smd roundrect (at -1.1375 -0.95) (size 1.325 0.6) (layers F.Cu F.Mask F.Paste) (roundrect_rratio 0.25))
  (pad 2 smd roundrect (at -1.1375 0) (size 1.325 0.6) (layers F.Cu F.Mask F.Paste) (roundrect_rratio 0.25))
  (pad 3 smd roundrect (at -1.1375 0.95) (size 1.325 0.6) (layers F.Cu F.Mask F.Paste) (roundrect_rratio 0.25))
  (pad 4 smd roundrect (at 1.1375 0.95) (size 1.325 0.6) (layers F.Cu F.Mask F.Paste) (roundrect_rratio 0.25))
  (pad 5 smd roundrect (at 1.1375 0) (size 1.325 0.6) (layers F.Cu F.Mask F.Paste) (roundrect_rratio 0.25))
  (pad 6 smd roundrect (at 1.1375 -0.95) (size 1.325 0.6) (layers F.Cu F.Mask F.Paste) (roundrect_rratio 0.25))
  (fp_text user %R (at 0 0) (layer F.Fab)
    (effects (font (size 0.4 0.4) (thickness 0.06)))
  )
  (model ${KICAD6_3DMODEL_DIR}/Package_TO_SOT_SMD.3dshapes/SOT-23-6.wrl
    (at (xyz 0 0 0))
    (scale (xyz 1 1 1))
    (rotate (xyz 0 0 0))
  )
)