(module SOT-883 (layer F.Cu) (tedit 5BA9FE8A)
  (descr "SOT-883, https://assets.nexperia.com/documents/outline-drawing/SOT883.pdf")
  (tags SOT-883)
  (attr smd)
  (fp_text reference REF** (at 0 -1.905) (layer F.SilkS)
    (effects (font (size 1 1) (thickness 0.15)))
  )
  (fp_text value SOT-883 (at 0 1.905) (layer F.Fab)
    (effects (font (size 1 1) (thickness 0.15)))
  )
  (fp_text user %R (at 0 0) (layer F.Fab)
    (effects (font (size 0.2 0.2) (thickness 0.03)))
  )
  (fp_line (start -0.81 -0.61) (end 0.35 -0.61) (layer F.SilkS) (width 0.12))
  (fp_line (start 0.35 0.61) (end -0.81 0.61) (layer F.SilkS) (width 0.12))
  (fp_line (start -0.81 0.61) (end -0.81 -0.61) (layer F.SilkS) (width 0.12))
  (fp_line (start -0.31 -0.31) (end 0.51 -0.31) (layer F.Fab) (width 0.1))
  (fp_line (start 0.51 -0.31) (end 0.51 0.31) (layer F.Fab) (width 0.1))
  (fp_line (start 0.51 0.31) (end -0.51 0.31) (layer F.Fab) (width 0.1))
  (fp_line (start -0.51 0.31) (end -0.51 -0.11) (layer F.Fab) (width 0.1))
  (fp_line (start -0.31 -0.31) (end -0.51 -0.11) (layer F.Fab) (width 0.1))
  (fp_line (start -0.7 -0.5) (end 0.7 -0.5) (layer F.CrtYd) (width 0.05))
  (fp_line (start 0.7 -0.5) (end 0.7 0.5) (layer F.CrtYd) (width 0.05))
  (fp_line (start 0.7 0.5) (end -0.7 0.5) (layer F.CrtYd) (width 0.05))
  (fp_line (start -0.7 0.5) (end -0.7 -0.5) (layer F.CrtYd) (width 0.05))
  (pad 1 smd roundrect (at -0.35 -0.225) (size 0.4 0.25) (layers F.Cu F.Paste F.Mask) (roundrect_rratio 0.2))
  (pad 2 smd roundrect (at -0.35 0.225) (size 0.4 0.25) (layers F.Cu F.Paste F.Mask) (roundrect_rratio 0.2))
  (pad 3 smd roundrect (at 0.35 0) (size 0.4 0.7) (layers F.Cu F.Paste F.Mask) (roundrect_rratio 0.125))
  (model ${KICAD6_3DMODEL_DIR}/Package_TO_SOT_SMD.3dshapes/SOT-883.wrl
    (at (xyz 0 0 0))
    (scale (xyz 1 1 1))
    (rotate (xyz 0 0 0))
  )
)
