(module SOT-553 (layer F.Cu) (tedit 5A02FF57)
  (descr SOT553)
  (tags SOT-553)
  (attr smd)
  (fp_text reference REF** (at 0 -1.7) (layer F.SilkS)
    (effects (font (size 1 1) (thickness 0.15)))
  )
  (fp_text value SOT-553 (at 0 1.75) (layer F.Fab)
    (effects (font (size 1 1) (thickness 0.15)))
  )
  (fp_text user %R (at 0 0 90) (layer F.Fab)
    (effects (font (size 0.4 0.4) (thickness 0.0625)))
  )
  (fp_line (start -0.65 -0.5) (end -0.3 -0.85) (layer F.Fab) (width 0.1))
  (fp_line (start 0.65 0.9) (end -0.65 0.9) (layer F.SilkS) (width 0.12))
  (fp_line (start -0.9 -0.9) (end 0.65 -0.9) (layer F.SilkS) (width 0.12))
  (fp_line (start -0.65 -0.5) (end -0.65 0.85) (layer F.Fab) (width 0.1))
  (fp_line (start -0.65 0.85) (end 0.65 0.85) (layer F.Fab) (width 0.1))
  (fp_line (start 0.65 0.85) (end 0.65 -0.85) (layer F.Fab) (width 0.1))
  (fp_line (start 0.65 -0.85) (end -0.3 -0.85) (layer F.Fab) (width 0.1))
  (fp_line (start -1.18 -1.1) (end 1.18 -1.1) (layer F.CrtYd) (width 0.05))
  (fp_line (start -1.18 -1.1) (end -1.18 1.1) (layer F.CrtYd) (width 0.05))
  (fp_line (start 1.18 1.1) (end 1.18 -1.1) (layer F.CrtYd) (width 0.05))
  (fp_line (start 1.18 1.1) (end -1.18 1.1) (layer F.CrtYd) (width 0.05))
  (pad 1 smd rect (at -0.7 -0.5) (size 0.45 0.3) (layers F.Cu F.Paste F.Mask))
  (pad 3 smd rect (at -0.7 0.5) (size 0.45 0.3) (layers F.Cu F.Paste F.Mask))
  (pad 5 smd rect (at 0.7 -0.5) (size 0.45 0.3) (layers F.Cu F.Paste F.Mask))
  (pad 2 smd rect (at -0.7 0) (size 0.45 0.3) (layers F.Cu F.Paste F.Mask))
  (pad 4 smd rect (at 0.7 0.5) (size 0.45 0.3) (layers F.Cu F.Paste F.Mask))
  (model ${KICAD6_3DMODEL_DIR}/Package_TO_SOT_SMD.3dshapes/SOT-553.wrl
    (at (xyz 0 0 0))
    (scale (xyz 1 1 1))
    (rotate (xyz 0 0 0))
  )
)
