(module SOT-23W (layer F.Cu) (tedit 5A02FF57)
  (descr "SOT-23W http://www.allegromicro.com/~/media/Files/Datasheets/A112x-Datasheet.ashx?la=en&hash=7BC461E058CC246E0BAB62433B2F1ECA104CA9D3")
  (tags SOT-23W)
  (attr smd)
  (fp_text reference REF** (at 0 -2.5) (layer F.SilkS)
    (effects (font (size 1 1) (thickness 0.15)))
  )
  (fp_text value SOT-23W (at 0 2.5) (layer F.Fab)
    (effects (font (size 1 1) (thickness 0.15)))
  )
  (fp_line (start 1.075 -1.61) (end 1.075 -0.7) (layer F.SilkS) (width 0.12))
  (fp_line (start 1.075 0.7) (end 1.075 1.61) (layer F.SilkS) (width 0.12))
  (fp_line (start -1.5 -1.61) (end 1.075 -1.61) (layer F.SilkS) (width 0.12))
  (fp_line (start -1.075 1.61) (end 1.075 1.61) (layer F.SilkS) (width 0.12))
  (fp_text user %R (at 0 0 90) (layer F.Fab)
    (effects (font (size 0.5 0.5) (thickness 0.075)))
  )
  (fp_line (start -0.955 -0.49) (end -0.955 1.49) (layer F.Fab) (width 0.1))
  (fp_line (start 0.045 -1.49) (end 0.955 -1.49) (layer F.Fab) (width 0.1))
  (fp_line (start -0.955 -0.49) (end 0.045 -1.49) (layer F.Fab) (width 0.1))
  (fp_line (start 0.955 -1.49) (end 0.955 1.49) (layer F.Fab) (width 0.1))
  (fp_line (start -0.955 1.49) (end 0.955 1.49) (layer F.Fab) (width 0.1))
  (fp_line (start -1.95 -1.74) (end 1.95 -1.74) (layer F.CrtYd) (width 0.05))
  (fp_line (start 1.95 -1.74) (end 1.95 1.74) (layer F.CrtYd) (width 0.05))
  (fp_line (start 1.95 1.74) (end -1.95 1.74) (layer F.CrtYd) (width 0.05))
  (fp_line (start -1.95 1.74) (end -1.95 -1.74) (layer F.CrtYd) (width 0.05))
  (pad 1 smd rect (at -1.2 -0.95) (size 1 0.7) (layers F.Cu F.Paste F.Mask))
  (pad 2 smd rect (at -1.2 0.95) (size 1 0.7) (layers F.Cu F.Paste F.Mask))
  (pad 3 smd rect (at 1.2 0) (size 1 0.7) (layers F.Cu F.Paste F.Mask))
  (model ${KICAD6_3DMODEL_DIR}/Package_TO_SOT_SMD.3dshapes/SOT-23W.wrl
    (at (xyz 0 0 0))
    (scale (xyz 1 1 1))
    (rotate (xyz 0 0 0))
  )
)
