(module TDSON-8-1 (layer F.Cu) (tedit 5D9B6805)
  (descr "Power MOSFET package, TDSON-8-1, 5.15x5.9mm (https://www.infineon.com/cms/en/product/packages/PG-TDSON/PG-TDSON-8-1/)")
  (tags "tdson ")
  (attr smd)
  (fp_text reference REF** (at 0 -3.5) (layer F.SilkS)
    (effects (font (size 1 1) (thickness 0.15)))
  )
  (fp_text value TDSON-8-1 (at 0 3.5) (layer F.Fab)
    (effects (font (size 1 1) (thickness 0.15)))
  )
  (fp_text user %R (at 0 0) (layer F.Fab)
    (effects (font (size 1 1) (thickness 0.15)))
  )
  (fp_line (start -1.95 -2.575) (end 2.95 -2.575) (layer F.Fab) (width 0.1))
  (fp_line (start -2.95 2.575) (end -2.95 -1.575) (layer F.Fab) (width 0.1))
  (fp_line (start 2.95 2.575) (end -2.95 2.575) (layer F.Fab) (width 0.1))
  (fp_line (start 2.95 -2.575) (end 2.95 2.575) (layer F.Fab) (width 0.1))
  (fp_line (start -3.58 2.83) (end 3.58 2.83) (layer F.CrtYd) (width 0.05))
  (fp_line (start -3.58 -2.83) (end -3.58 2.83) (layer F.CrtYd) (width 0.05))
  (fp_line (start 3.58 -2.83) (end -3.58 -2.83) (layer F.CrtYd) (width 0.05))
  (fp_line (start 3.58 2.83) (end 3.58 -2.83) (layer F.CrtYd) (width 0.05))
  (fp_line (start 3.06 2.685) (end -3.06 2.685) (layer F.SilkS) (width 0.12))
  (fp_line (start -1.95 -2.575) (end -2.95 -1.575) (layer F.Fab) (width 0.1))
  (fp_line (start 3.06 -2.685) (end -3.06 -2.685) (layer F.SilkS) (width 0.12))
  (fp_line (start -3.06 2.335) (end -3.06 2.685) (layer F.SilkS) (width 0.12))
  (fp_line (start 3.06 2.385) (end 3.06 2.685) (layer F.SilkS) (width 0.12))
  (fp_line (start 3.06 -2.385) (end 3.06 -2.685) (layer F.SilkS) (width 0.12))
  (pad 1 smd rect (at -2.9 -1.905) (size 0.85 0.5) (layers F.Cu F.Paste F.Mask)
    (solder_paste_margin -0.05))
  (pad 2 smd rect (at -2.9 -0.635) (size 0.85 0.5) (layers F.Cu F.Paste F.Mask)
    (solder_paste_margin -0.05))
  (pad 3 smd rect (at -2.9 0.635) (size 0.85 0.5) (layers F.Cu F.Paste F.Mask)
    (solder_paste_margin -0.05))
  (pad 4 smd rect (at -2.9 1.905) (size 0.85 0.5) (layers F.Cu F.Paste F.Mask)
    (solder_paste_margin -0.05))
  (pad "" smd rect (at 1.5 -0.85) (size 1.5 1.5) (layers F.Paste))
  (pad "" smd rect (at 1.5 0.85) (size 1.5 1.5) (layers F.Paste))
  (pad "" smd rect (at -0.2 -0.85) (size 1.5 1.5) (layers F.Paste))
  (pad "" smd rect (at -0.2 0.85) (size 1.5 1.5) (layers F.Paste))
  (pad 5 smd rect (at 1.05 0) (size 4.55 4.41) (layers F.Cu))
  (pad "" smd rect (at 2.905 -1.905) (size 0.75 0.5) (layers F.Paste))
  (pad "" smd rect (at 2.905 -0.635) (size 0.75 0.5) (layers F.Paste))
  (pad "" smd rect (at 2.905 0.635) (size 0.75 0.5) (layers F.Paste))
  (pad "" smd rect (at 2.905 1.905) (size 0.75 0.5) (layers F.Paste))
  (pad "" smd custom (at 0.65 0) (size 3.75 4.41) (layers F.Mask)
    (zone_connect 0)
    (options (clearance outline) (anchor rect))
    (primitives
      (gr_poly (pts
         (xy 1.875 -2.205) (xy 2.675 -2.205) (xy 2.675 -1.605) (xy 1.875 -1.605)) (width 0))
      (gr_poly (pts
         (xy 1.875 -0.935) (xy 2.675 -0.935) (xy 2.675 -0.335) (xy 1.875 -0.335)) (width 0))
      (gr_poly (pts
         (xy 1.875 0.335) (xy 2.675 0.335) (xy 2.675 0.935) (xy 1.875 0.935)) (width 0))
      (gr_poly (pts
         (xy 1.875 1.605) (xy 2.675 1.605) (xy 2.675 2.205) (xy 1.875 2.205)) (width 0))
    ))
  (model ${KICAD6_3DMODEL_DIR}/Package_TO_SOT_SMD.3dshapes/TDSON-8-1.wrl
    (at (xyz 0 0 0))
    (scale (xyz 1 1 1))
    (rotate (xyz 0 0 0))
  )
)
