(module TO-263-9_TabPin5 (layer F.Cu) (tedit 5A0AB58A)
  (descr "TO-263 / D2PAK / DDPAK SMD package, http://www.ti.com/lit/ds/symlink/lm4755.pdf")
  (tags "D2PAK DDPAK TO-263 D2PAK-9 TO-263-9")
  (attr smd)
  (fp_text reference REF** (at 0 -6.65) (layer F.SilkS)
    (effects (font (size 1 1) (thickness 0.15)))
  )
  (fp_text value TO-263-9_TabPin5 (at 0 6.65) (layer F.Fab)
    (effects (font (size 1 1) (thickness 0.15)))
  )
  (fp_text user %R (at 0 0) (layer F.Fab)
    (effects (font (size 1 1) (thickness 0.15)))
  )
  (fp_line (start 6.5 -5) (end 7.5 -5) (layer F.Fab) (width 0.1))
  (fp_line (start 7.5 -5) (end 7.5 5) (layer F.Fab) (width 0.1))
  (fp_line (start 7.5 5) (end 6.5 5) (layer F.Fab) (width 0.1))
  (fp_line (start 6.5 -5) (end 6.5 5) (layer F.Fab) (width 0.1))
  (fp_line (start 6.5 5) (end -2.75 5) (layer F.Fab) (width 0.1))
  (fp_line (start -2.75 5) (end -2.75 -4) (layer F.Fab) (width 0.1))
  (fp_line (start -2.75 -4) (end -1.75 -5) (layer F.Fab) (width 0.1))
  (fp_line (start -1.75 -5) (end 6.5 -5) (layer F.Fab) (width 0.1))
  (fp_line (start -2.75 -0.255) (end -7.45 -0.255) (layer F.Fab) (width 0.1))
  (fp_line (start -7.45 -0.255) (end -7.45 0.255) (layer F.Fab) (width 0.1))
  (fp_line (start -7.45 0.255) (end -2.75 0.255) (layer F.Fab) (width 0.1))
  (fp_line (start -1.45 -5.2) (end -2.95 -5.2) (layer F.SilkS) (width 0.12))
  (fp_line (start -2.95 -5.2) (end -2.95 -4.51) (layer F.SilkS) (width 0.12))
  (fp_line (start -2.95 -4.51) (end -8.075 -4.51) (layer F.SilkS) (width 0.12))
  (fp_line (start -1.45 5.2) (end -2.95 5.2) (layer F.SilkS) (width 0.12))
  (fp_line (start -2.95 5.2) (end -2.95 4.51) (layer F.SilkS) (width 0.12))
  (fp_line (start -2.95 4.51) (end -4.05 4.51) (layer F.SilkS) (width 0.12))
  (fp_line (start -8.32 -5.65) (end -8.32 5.65) (layer F.CrtYd) (width 0.05))
  (fp_line (start -8.32 5.65) (end 8.32 5.65) (layer F.CrtYd) (width 0.05))
  (fp_line (start 8.32 5.65) (end 8.32 -5.65) (layer F.CrtYd) (width 0.05))
  (fp_line (start 8.32 -5.65) (end -8.32 -5.65) (layer F.CrtYd) (width 0.05))
  (fp_line (start -7.45 0.715) (end -7.45 1.225) (layer F.Fab) (width 0.1))
  (fp_line (start -7.45 1.685) (end -7.45 2.195) (layer F.Fab) (width 0.1))
  (fp_line (start -7.45 2.655) (end -7.45 3.165) (layer F.Fab) (width 0.1))
  (fp_line (start -7.45 3.625) (end -7.45 4.135) (layer F.Fab) (width 0.1))
  (fp_line (start -7.45 1.225) (end -2.75 1.225) (layer F.Fab) (width 0.1))
  (fp_line (start -7.45 2.195) (end -2.75 2.195) (layer F.Fab) (width 0.1))
  (fp_line (start -7.45 3.165) (end -2.75 3.165) (layer F.Fab) (width 0.1))
  (fp_line (start -7.45 4.135) (end -2.75 4.135) (layer F.Fab) (width 0.1))
  (fp_line (start -2.75 0.715) (end -7.45 0.715) (layer F.Fab) (width 0.1))
  (fp_line (start -2.75 1.685) (end -7.45 1.685) (layer F.Fab) (width 0.1))
  (fp_line (start -2.75 2.655) (end -7.45 2.655) (layer F.Fab) (width 0.1))
  (fp_line (start -2.75 3.625) (end -7.45 3.625) (layer F.Fab) (width 0.1))
  (fp_line (start -7.45 -1.225) (end -7.45 -0.715) (layer F.Fab) (width 0.1))
  (fp_line (start -7.45 -2.195) (end -7.45 -1.685) (layer F.Fab) (width 0.1))
  (fp_line (start -7.45 -3.165) (end -7.45 -2.655) (layer F.Fab) (width 0.1))
  (fp_line (start -7.45 -4.135) (end -7.45 -3.625) (layer F.Fab) (width 0.1))
  (fp_line (start -7.45 -0.715) (end -2.75 -0.715) (layer F.Fab) (width 0.1))
  (fp_line (start -7.45 -1.685) (end -2.75 -1.685) (layer F.Fab) (width 0.1))
  (fp_line (start -7.45 -2.655) (end -2.75 -2.655) (layer F.Fab) (width 0.1))
  (fp_line (start -7.45 -3.625) (end -2.75 -3.625) (layer F.Fab) (width 0.1))
  (fp_line (start -2.75 -1.225) (end -7.45 -1.225) (layer F.Fab) (width 0.1))
  (fp_line (start -2.75 -2.195) (end -7.45 -2.195) (layer F.Fab) (width 0.1))
  (fp_line (start -2.75 -3.165) (end -7.45 -3.165) (layer F.Fab) (width 0.1))
  (fp_line (start -2.615 -4.135) (end -7.45 -4.135) (layer F.Fab) (width 0.1))
  (pad 5 smd rect (at 3.375 0) (size 9.4 10.8) (layers F.Cu F.Mask))
  (pad "" smd rect (at 5.8 2.775) (size 4.55 5.25) (layers F.Paste))
  (pad "" smd rect (at 0.95 -2.775) (size 4.55 5.25) (layers F.Paste))
  (pad "" smd rect (at 5.8 -2.775) (size 4.55 5.25) (layers F.Paste))
  (pad "" smd rect (at 0.95 2.775) (size 4.55 5.25) (layers F.Paste))
  (pad 1 smd rect (at -5.775 -3.88) (size 4.6 0.61) (layers F.Cu F.Paste F.Mask))
  (pad 2 smd rect (at -5.775 -2.91) (size 4.6 0.61) (layers F.Cu F.Paste F.Mask))
  (pad 3 smd rect (at -5.775 -1.94) (size 4.6 0.61) (layers F.Cu F.Paste F.Mask))
  (pad 4 smd rect (at -5.775 -0.97) (size 4.6 0.61) (layers F.Cu F.Paste F.Mask))
  (pad 5 smd rect (at -5.775 0) (size 4.6 0.61) (layers F.Cu F.Paste F.Mask))
  (pad 6 smd rect (at -5.775 0.97) (size 4.6 0.61) (layers F.Cu F.Paste F.Mask))
  (pad 7 smd rect (at -5.775 1.94) (size 4.6 0.61) (layers F.Cu F.Paste F.Mask))
  (pad 8 smd rect (at -5.775 2.91) (size 4.6 0.61) (layers F.Cu F.Paste F.Mask))
  (pad 9 smd rect (at -5.775 3.88) (size 4.6 0.61) (layers F.Cu F.Paste F.Mask))
  (model ${KICAD6_3DMODEL_DIR}/Package_TO_SOT_SMD.3dshapes/TO-263-9_TabPin5.wrl
    (at (xyz 0 0 0))
    (scale (xyz 1 1 1))
    (rotate (xyz 0 0 0))
  )
)
