(module TO-268-2 (layer F.Cu) (tedit 5A70FC1E)
  (descr "TO-268/D3PAK SMD package, http://www.icbank.com/icbank_data/semi_package/to268aa_dim.pdf")
  (tags "D3PAK TO-268 D3PAK-3 TO-268-3")
  (attr smd)
  (fp_text reference REF** (at 0 -9.55) (layer F.SilkS)
    (effects (font (size 1 1) (thickness 0.15)))
  )
  (fp_text value TO-268-2 (at 0 9.55) (layer F.Fab)
    (effects (font (size 1 1) (thickness 0.15)))
  )
  (fp_line (start 8.5 -7.95) (end 9.5 -7.95) (layer F.Fab) (width 0.1))
  (fp_line (start 9.5 -7.95) (end 9.5 7.95) (layer F.Fab) (width 0.1))
  (fp_line (start 9.5 7.95) (end 8.5 7.95) (layer F.Fab) (width 0.1))
  (fp_line (start 8.5 -7.95) (end 8.5 7.95) (layer F.Fab) (width 0.1))
  (fp_line (start 8.5 7.95) (end -5.5 7.95) (layer F.Fab) (width 0.1))
  (fp_line (start -5.5 7.95) (end -5.5 -6.95) (layer F.Fab) (width 0.1))
  (fp_line (start -5.5 -6.95) (end -4.5 -7.95) (layer F.Fab) (width 0.1))
  (fp_line (start -4.5 -7.95) (end 8.5 -7.95) (layer F.Fab) (width 0.1))
  (fp_line (start -5.5 -6.1) (end -9.4 -6.1) (layer F.Fab) (width 0.1))
  (fp_line (start -9.4 -6.1) (end -9.4 -4.8) (layer F.Fab) (width 0.1))
  (fp_line (start -9.4 -4.8) (end -5.5 -4.8) (layer F.Fab) (width 0.1))
  (fp_line (start -5.5 4.8) (end -9.4 4.8) (layer F.Fab) (width 0.1))
  (fp_line (start -9.4 4.8) (end -9.4 6.1) (layer F.Fab) (width 0.1))
  (fp_line (start -9.4 6.1) (end -5.5 6.1) (layer F.Fab) (width 0.1))
  (fp_line (start -4.2 -8.15) (end -5.7 -8.15) (layer F.SilkS) (width 0.12))
  (fp_line (start -5.7 -8.15) (end -5.7 -7.25) (layer F.SilkS) (width 0.12))
  (fp_line (start -5.7 -7.25) (end -10.975 -7.25) (layer F.SilkS) (width 0.12))
  (fp_line (start -4.2 8.15) (end -5.7 8.15) (layer F.SilkS) (width 0.12))
  (fp_line (start -5.7 8.15) (end -5.7 7.25) (layer F.SilkS) (width 0.12))
  (fp_line (start -5.7 7.25) (end -6.8 7.25) (layer F.SilkS) (width 0.12))
  (fp_line (start -11.23 -8.55) (end -11.23 8.55) (layer F.CrtYd) (width 0.05))
  (fp_line (start -11.23 8.55) (end 11.23 8.55) (layer F.CrtYd) (width 0.05))
  (fp_line (start 11.23 8.55) (end 11.23 -8.55) (layer F.CrtYd) (width 0.05))
  (fp_line (start 11.23 -8.55) (end -11.23 -8.55) (layer F.CrtYd) (width 0.05))
  (fp_text user %R (at 0 0) (layer F.Fab)
    (effects (font (size 1 1) (thickness 0.15)))
  )
  (pad 1 smd rect (at -8.475 -5.45) (size 5 3) (layers F.Cu F.Paste F.Mask))
  (pad 3 smd rect (at -8.475 5.45) (size 5 3) (layers F.Cu F.Paste F.Mask))
  (pad 2 smd rect (at 4.225 0) (size 13.5 16.6) (layers F.Cu F.Mask))
  (pad "" smd rect (at 7.675 4.225) (size 6.6 8.15) (layers F.Paste))
  (pad "" smd rect (at 0.775 -4.225) (size 6.6 8.15) (layers F.Paste))
  (pad "" smd rect (at 7.675 -4.225) (size 6.6 8.15) (layers F.Paste))
  (pad "" smd rect (at 0.775 4.225) (size 6.6 8.15) (layers F.Paste))
  (model ${KICAD6_3DMODEL_DIR}/Package_TO_SOT_SMD.3dshapes/TO-268-2.wrl
    (at (xyz 0 0 0))
    (scale (xyz 1 1 1))
    (rotate (xyz 0 0 0))
  )
)
