(module TO-50-4_ShortPad-NoHole_Housing (layer F.Cu) (tedit 5A02FF57)
  (descr "TO-50-4 Macro X Package Style M238")
  (tags "TO-50-4 Macro X Package Style M238")
  (attr smd)
  (fp_text reference REF** (at 3.93 -3.87) (layer F.SilkS)
    (effects (font (size 1 1) (thickness 0.15)))
  )
  (fp_text value TO-50-4_ShortPad-NoHole_Housing (at 15.32 4.68) (layer F.Fab)
    (effects (font (size 1 1) (thickness 0.15)))
  )
  (fp_text user %R (at 0.375 0) (layer F.Fab)
    (effects (font (size 1 1) (thickness 0.15)))
  )
  (fp_line (start 0.8 3.2) (end 0.8 7.8) (layer F.CrtYd) (width 0.05))
  (fp_line (start 0.8 7.8) (end -1.6 7.8) (layer F.CrtYd) (width 0.05))
  (fp_line (start -1.6 7.8) (end -1.6 3.2) (layer F.CrtYd) (width 0.05))
  (fp_line (start 2.8 -1.2) (end 8.8 -1.2) (layer F.CrtYd) (width 0.05))
  (fp_line (start 8.8 -1.2) (end 8.8 1.2) (layer F.CrtYd) (width 0.05))
  (fp_line (start 8.8 1.2) (end 2.8 1.2) (layer F.CrtYd) (width 0.05))
  (fp_line (start -1.6 -3.2) (end -1.6 -7.6) (layer F.CrtYd) (width 0.05))
  (fp_line (start -1.6 -7.6) (end 0.8 -7.6) (layer F.CrtYd) (width 0.05))
  (fp_line (start 0.8 -7.6) (end 0.8 -3.2) (layer F.CrtYd) (width 0.05))
  (fp_line (start -3.6 1.2) (end -8 1.2) (layer F.CrtYd) (width 0.05))
  (fp_line (start -8 1.2) (end -8 -1.2) (layer F.CrtYd) (width 0.05))
  (fp_line (start -8 -1.2) (end -3.6 -1.2) (layer F.CrtYd) (width 0.05))
  (fp_line (start -3.6 -1.2) (end -1.6 -3.2) (layer F.CrtYd) (width 0.05))
  (fp_line (start 0.8 -3.2) (end 2.8 -1.2) (layer F.CrtYd) (width 0.05))
  (fp_line (start 2.8 1.2) (end 0.8 3.2) (layer F.CrtYd) (width 0.05))
  (fp_line (start -1.6 3.2) (end -3.6 1.2) (layer F.CrtYd) (width 0.05))
  (fp_circle (center -0.4 0) (end -0.35 -2.55) (layer F.Fab) (width 0.1))
  (fp_circle (center -0.4 0) (end -0.4 -2.7) (layer F.SilkS) (width 0.12))
  (pad 1 smd rect (at -5.6 0 270) (size 1.5 4) (layers F.Cu F.Paste F.Mask))
  (pad 2 smd rect (at -0.4 5.2 270) (size 4 1.5) (layers F.Cu F.Paste F.Mask))
  (pad 3 smd rect (at 5.6 0 270) (size 1.5 5.5) (layers F.Cu F.Paste F.Mask))
  (pad 4 smd rect (at -0.4 -5.2 270) (size 4 1.5) (layers F.Cu F.Paste F.Mask))
  (model ${KICAD6_3DMODEL_DIR}/Package_TO_SOT_SMD.3dshapes/TO-50-4_ShortPad-NoHole_Housing.wrl
    (at (xyz 0 0 0))
    (scale (xyz 1 1 1))
    (rotate (xyz 0 0 0))
  )
)
