(module TO-50-3_LongPad-NoHole_Housing (layer F.Cu) (tedit 5A02FF57)
  (descr "TO-50-3 Macro T Package Style M236")
  (tags "TO-50-3 Macro T Package Style M236")
  (attr smd)
  (fp_text reference REF** (at -0.7 -7.35 -180) (layer F.SilkS)
    (effects (font (size 1 1) (thickness 0.15)))
  )
  (fp_text value TO-50-3_LongPad-NoHole_Housing (at 15.3 -0.6 -180) (layer F.Fab)
    (effects (font (size 1 1) (thickness 0.15)))
  )
  (fp_text user %R (at -0.7 -3.4) (layer F.Fab)
    (effects (font (size 1 1) (thickness 0.15)))
  )
  (fp_line (start -3.9 -4.6) (end -1.9 -6.6) (layer F.CrtYd) (width 0.05))
  (fp_line (start -1.9 -6.6) (end 0.5 -6.6) (layer F.CrtYd) (width 0.05))
  (fp_line (start 0.5 -6.6) (end 2.5 -4.6) (layer F.CrtYd) (width 0.05))
  (fp_line (start 2.5 -4.6) (end 13.1 -4.6) (layer F.CrtYd) (width 0.05))
  (fp_line (start 13.1 -4.6) (end 13.1 -2.2) (layer F.CrtYd) (width 0.05))
  (fp_line (start 13.1 -2.2) (end 2.5 -2.2) (layer F.CrtYd) (width 0.05))
  (fp_line (start 2.5 -2.2) (end 0.5 -0.2) (layer F.CrtYd) (width 0.05))
  (fp_line (start 0.5 -0.2) (end 0.5 7.2) (layer F.CrtYd) (width 0.05))
  (fp_line (start 0.5 7.2) (end -1.9 7.2) (layer F.CrtYd) (width 0.05))
  (fp_line (start -1.9 7.2) (end -1.9 -0.2) (layer F.CrtYd) (width 0.05))
  (fp_line (start -1.9 -0.2) (end -3.9 -2.2) (layer F.CrtYd) (width 0.05))
  (fp_line (start -3.9 -2.2) (end -11.3 -2.2) (layer F.CrtYd) (width 0.05))
  (fp_line (start -11.3 -2.2) (end -11.3 -4.6) (layer F.CrtYd) (width 0.05))
  (fp_line (start -11.3 -4.6) (end -3.9 -4.6) (layer F.CrtYd) (width 0.05))
  (fp_circle (center -0.7 -3.4) (end -0.65 -5.95) (layer F.Fab) (width 0.1))
  (fp_circle (center -0.7 -3.4) (end -0.7 -6) (layer F.SilkS) (width 0.12))
  (pad 1 smd rect (at -7.5 -3.4 90) (size 1.5 7) (layers F.Cu F.Paste F.Mask))
  (pad 2 smd rect (at -0.7 3.4 90) (size 7 1.5) (layers F.Cu F.Paste F.Mask))
  (pad 3 smd rect (at 7.5 -3.4 90) (size 1.5 10) (layers F.Cu F.Paste F.Mask))
  (model ${KICAD6_3DMODEL_DIR}/Package_TO_SOT_SMD.3dshapes/TO-50-3_LongPad-NoHole_Housing.wrl
    (at (xyz 0 0 0))
    (scale (xyz 1 1 1))
    (rotate (xyz 0 0 0))
  )
)
