(module Molex_Mini-Fit_Jr_5566-20A_2x10_P4.20mm_Vertical (layer F.Cu) (tedit 5B781992)
  (descr "Molex Mini-Fit Jr. Power Connectors, old mpn/engineering number: 5566-20A, example for new mpn: 39-28-x20x, 10 Pins per row, Mounting:  (http://www.molex.com/pdm_docs/sd/039281043_sd.pdf), generated with kicad-footprint-generator")
  (tags "connector Molex Mini-Fit_Jr side entry")
  (fp_text reference REF** (at 18.9 -3.45) (layer F.SilkS)
    (effects (font (size 1 1) (thickness 0.15)))
  )
  (fp_text value Molex_Mini-Fit_Jr_5566-20A_2x10_P4.20mm_Vertical (at 18.9 9.95) (layer F.Fab)
    (effects (font (size 1 1) (thickness 0.15)))
  )
  (fp_line (start -2.7 -2.25) (end -2.7 7.35) (layer F.Fab) (width 0.1))
  (fp_line (start -2.7 7.35) (end 40.5 7.35) (layer F.Fab) (width 0.1))
  (fp_line (start 40.5 7.35) (end 40.5 -2.25) (layer F.Fab) (width 0.1))
  (fp_line (start 40.5 -2.25) (end -2.7 -2.25) (layer F.Fab) (width 0.1))
  (fp_line (start 17.2 7.35) (end 17.2 8.75) (layer F.Fab) (width 0.1))
  (fp_line (start 17.2 8.75) (end 20.6 8.75) (layer F.Fab) (width 0.1))
  (fp_line (start 20.6 8.75) (end 20.6 7.35) (layer F.Fab) (width 0.1))
  (fp_line (start -1.65 -1) (end -1.65 2.3) (layer F.Fab) (width 0.1))
  (fp_line (start -1.65 2.3) (end 1.65 2.3) (layer F.Fab) (width 0.1))
  (fp_line (start 1.65 2.3) (end 1.65 -1) (layer F.Fab) (width 0.1))
  (fp_line (start 1.65 -1) (end -1.65 -1) (layer F.Fab) (width 0.1))
  (fp_line (start -1.65 6.5) (end -1.65 4.025) (layer F.Fab) (width 0.1))
  (fp_line (start -1.65 4.025) (end -0.825 3.2) (layer F.Fab) (width 0.1))
  (fp_line (start -0.825 3.2) (end 0.825 3.2) (layer F.Fab) (width 0.1))
  (fp_line (start 0.825 3.2) (end 1.65 4.025) (layer F.Fab) (width 0.1))
  (fp_line (start 1.65 4.025) (end 1.65 6.5) (layer F.Fab) (width 0.1))
  (fp_line (start 1.65 6.5) (end -1.65 6.5) (layer F.Fab) (width 0.1))
  (fp_line (start 2.55 3.2) (end 2.55 6.5) (layer F.Fab) (width 0.1))
  (fp_line (start 2.55 6.5) (end 5.85 6.5) (layer F.Fab) (width 0.1))
  (fp_line (start 5.85 6.5) (end 5.85 3.2) (layer F.Fab) (width 0.1))
  (fp_line (start 5.85 3.2) (end 2.55 3.2) (layer F.Fab) (width 0.1))
  (fp_line (start 2.55 2.3) (end 2.55 -0.175) (layer F.Fab) (width 0.1))
  (fp_line (start 2.55 -0.175) (end 3.375 -1) (layer F.Fab) (width 0.1))
  (fp_line (start 3.375 -1) (end 5.025 -1) (layer F.Fab) (width 0.1))
  (fp_line (start 5.025 -1) (end 5.85 -0.175) (layer F.Fab) (width 0.1))
  (fp_line (start 5.85 -0.175) (end 5.85 2.3) (layer F.Fab) (width 0.1))
  (fp_line (start 5.85 2.3) (end 2.55 2.3) (layer F.Fab) (width 0.1))
  (fp_line (start 6.75 3.2) (end 6.75 6.5) (layer F.Fab) (width 0.1))
  (fp_line (start 6.75 6.5) (end 10.05 6.5) (layer F.Fab) (width 0.1))
  (fp_line (start 10.05 6.5) (end 10.05 3.2) (layer F.Fab) (width 0.1))
  (fp_line (start 10.05 3.2) (end 6.75 3.2) (layer F.Fab) (width 0.1))
  (fp_line (start 6.75 2.3) (end 6.75 -0.175) (layer F.Fab) (width 0.1))
  (fp_line (start 6.75 -0.175) (end 7.575 -1) (layer F.Fab) (width 0.1))
  (fp_line (start 7.575 -1) (end 9.225 -1) (layer F.Fab) (width 0.1))
  (fp_line (start 9.225 -1) (end 10.05 -0.175) (layer F.Fab) (width 0.1))
  (fp_line (start 10.05 -0.175) (end 10.05 2.3) (layer F.Fab) (width 0.1))
  (fp_line (start 10.05 2.3) (end 6.75 2.3) (layer F.Fab) (width 0.1))
  (fp_line (start 10.95 -1) (end 10.95 2.3) (layer F.Fab) (width 0.1))
  (fp_line (start 10.95 2.3) (end 14.25 2.3) (layer F.Fab) (width 0.1))
  (fp_line (start 14.25 2.3) (end 14.25 -1) (layer F.Fab) (width 0.1))
  (fp_line (start 14.25 -1) (end 10.95 -1) (layer F.Fab) (width 0.1))
  (fp_line (start 10.95 6.5) (end 10.95 4.025) (layer F.Fab) (width 0.1))
  (fp_line (start 10.95 4.025) (end 11.775 3.2) (layer F.Fab) (width 0.1))
  (fp_line (start 11.775 3.2) (end 13.425 3.2) (layer F.Fab) (width 0.1))
  (fp_line (start 13.425 3.2) (end 14.25 4.025) (layer F.Fab) (width 0.1))
  (fp_line (start 14.25 4.025) (end 14.25 6.5) (layer F.Fab) (width 0.1))
  (fp_line (start 14.25 6.5) (end 10.95 6.5) (layer F.Fab) (width 0.1))
  (fp_line (start 15.15 -1) (end 15.15 2.3) (layer F.Fab) (width 0.1))
  (fp_line (start 15.15 2.3) (end 18.45 2.3) (layer F.Fab) (width 0.1))
  (fp_line (start 18.45 2.3) (end 18.45 -1) (layer F.Fab) (width 0.1))
  (fp_line (start 18.45 -1) (end 15.15 -1) (layer F.Fab) (width 0.1))
  (fp_line (start 15.15 6.5) (end 15.15 4.025) (layer F.Fab) (width 0.1))
  (fp_line (start 15.15 4.025) (end 15.975 3.2) (layer F.Fab) (width 0.1))
  (fp_line (start 15.975 3.2) (end 17.625 3.2) (layer F.Fab) (width 0.1))
  (fp_line (start 17.625 3.2) (end 18.45 4.025) (layer F.Fab) (width 0.1))
  (fp_line (start 18.45 4.025) (end 18.45 6.5) (layer F.Fab) (width 0.1))
  (fp_line (start 18.45 6.5) (end 15.15 6.5) (layer F.Fab) (width 0.1))
  (fp_line (start 19.35 3.2) (end 19.35 6.5) (layer F.Fab) (width 0.1))
  (fp_line (start 19.35 6.5) (end 22.65 6.5) (layer F.Fab) (width 0.1))
  (fp_line (start 22.65 6.5) (end 22.65 3.2) (layer F.Fab) (width 0.1))
  (fp_line (start 22.65 3.2) (end 19.35 3.2) (layer F.Fab) (width 0.1))
  (fp_line (start 19.35 2.3) (end 19.35 -0.175) (layer F.Fab) (width 0.1))
  (fp_line (start 19.35 -0.175) (end 20.175 -1) (layer F.Fab) (width 0.1))
  (fp_line (start 20.175 -1) (end 21.825 -1) (layer F.Fab) (width 0.1))
  (fp_line (start 21.825 -1) (end 22.65 -0.175) (layer F.Fab) (width 0.1))
  (fp_line (start 22.65 -0.175) (end 22.65 2.3) (layer F.Fab) (width 0.1))
  (fp_line (start 22.65 2.3) (end 19.35 2.3) (layer F.Fab) (width 0.1))
  (fp_line (start 23.55 3.2) (end 23.55 6.5) (layer F.Fab) (width 0.1))
  (fp_line (start 23.55 6.5) (end 26.85 6.5) (layer F.Fab) (width 0.1))
  (fp_line (start 26.85 6.5) (end 26.85 3.2) (layer F.Fab) (width 0.1))
  (fp_line (start 26.85 3.2) (end 23.55 3.2) (layer F.Fab) (width 0.1))
  (fp_line (start 23.55 2.3) (end 23.55 -0.175) (layer F.Fab) (width 0.1))
  (fp_line (start 23.55 -0.175) (end 24.375 -1) (layer F.Fab) (width 0.1))
  (fp_line (start 24.375 -1) (end 26.025 -1) (layer F.Fab) (width 0.1))
  (fp_line (start 26.025 -1) (end 26.85 -0.175) (layer F.Fab) (width 0.1))
  (fp_line (start 26.85 -0.175) (end 26.85 2.3) (layer F.Fab) (width 0.1))
  (fp_line (start 26.85 2.3) (end 23.55 2.3) (layer F.Fab) (width 0.1))
  (fp_line (start 27.75 -1) (end 27.75 2.3) (layer F.Fab) (width 0.1))
  (fp_line (start 27.75 2.3) (end 31.05 2.3) (layer F.Fab) (width 0.1))
  (fp_line (start 31.05 2.3) (end 31.05 -1) (layer F.Fab) (width 0.1))
  (fp_line (start 31.05 -1) (end 27.75 -1) (layer F.Fab) (width 0.1))
  (fp_line (start 27.75 6.5) (end 27.75 4.025) (layer F.Fab) (width 0.1))
  (fp_line (start 27.75 4.025) (end 28.575 3.2) (layer F.Fab) (width 0.1))
  (fp_line (start 28.575 3.2) (end 30.225 3.2) (layer F.Fab) (width 0.1))
  (fp_line (start 30.225 3.2) (end 31.05 4.025) (layer F.Fab) (width 0.1))
  (fp_line (start 31.05 4.025) (end 31.05 6.5) (layer F.Fab) (width 0.1))
  (fp_line (start 31.05 6.5) (end 27.75 6.5) (layer F.Fab) (width 0.1))
  (fp_line (start 31.95 -1) (end 31.95 2.3) (layer F.Fab) (width 0.1))
  (fp_line (start 31.95 2.3) (end 35.25 2.3) (layer F.Fab) (width 0.1))
  (fp_line (start 35.25 2.3) (end 35.25 -1) (layer F.Fab) (width 0.1))
  (fp_line (start 35.25 -1) (end 31.95 -1) (layer F.Fab) (width 0.1))
  (fp_line (start 31.95 6.5) (end 31.95 4.025) (layer F.Fab) (width 0.1))
  (fp_line (start 31.95 4.025) (end 32.775 3.2) (layer F.Fab) (width 0.1))
  (fp_line (start 32.775 3.2) (end 34.425 3.2) (layer F.Fab) (width 0.1))
  (fp_line (start 34.425 3.2) (end 35.25 4.025) (layer F.Fab) (width 0.1))
  (fp_line (start 35.25 4.025) (end 35.25 6.5) (layer F.Fab) (width 0.1))
  (fp_line (start 35.25 6.5) (end 31.95 6.5) (layer F.Fab) (width 0.1))
  (fp_line (start 36.15 3.2) (end 36.15 6.5) (layer F.Fab) (width 0.1))
  (fp_line (start 36.15 6.5) (end 39.45 6.5) (layer F.Fab) (width 0.1))
  (fp_line (start 39.45 6.5) (end 39.45 3.2) (layer F.Fab) (width 0.1))
  (fp_line (start 39.45 3.2) (end 36.15 3.2) (layer F.Fab) (width 0.1))
  (fp_line (start 36.15 2.3) (end 36.15 -0.175) (layer F.Fab) (width 0.1))
  (fp_line (start 36.15 -0.175) (end 36.975 -1) (layer F.Fab) (width 0.1))
  (fp_line (start 36.975 -1) (end 38.625 -1) (layer F.Fab) (width 0.1))
  (fp_line (start 38.625 -1) (end 39.45 -0.175) (layer F.Fab) (width 0.1))
  (fp_line (start 39.45 -0.175) (end 39.45 2.3) (layer F.Fab) (width 0.1))
  (fp_line (start 39.45 2.3) (end 36.15 2.3) (layer F.Fab) (width 0.1))
  (fp_line (start 18.9 -2.36) (end -2.81 -2.36) (layer F.SilkS) (width 0.12))
  (fp_line (start -2.81 -2.36) (end -2.81 7.46) (layer F.SilkS) (width 0.12))
  (fp_line (start -2.81 7.46) (end 17.09 7.46) (layer F.SilkS) (width 0.12))
  (fp_line (start 17.09 7.46) (end 17.09 8.86) (layer F.SilkS) (width 0.12))
  (fp_line (start 17.09 8.86) (end 18.9 8.86) (layer F.SilkS) (width 0.12))
  (fp_line (start 18.9 -2.36) (end 40.61 -2.36) (layer F.SilkS) (width 0.12))
  (fp_line (start 40.61 -2.36) (end 40.61 7.46) (layer F.SilkS) (width 0.12))
  (fp_line (start 40.61 7.46) (end 20.71 7.46) (layer F.SilkS) (width 0.12))
  (fp_line (start 20.71 7.46) (end 20.71 8.86) (layer F.SilkS) (width 0.12))
  (fp_line (start 20.71 8.86) (end 18.9 8.86) (layer F.SilkS) (width 0.12))
  (fp_line (start -0.2 -2.6) (end -3.05 -2.6) (layer F.SilkS) (width 0.12))
  (fp_line (start -3.05 -2.6) (end -3.05 0.25) (layer F.SilkS) (width 0.12))
  (fp_line (start -0.2 -2.6) (end -3.05 -2.6) (layer F.Fab) (width 0.1))
  (fp_line (start -3.05 -2.6) (end -3.05 0.25) (layer F.Fab) (width 0.1))
  (fp_line (start -3.2 -2.75) (end -3.2 9.25) (layer F.CrtYd) (width 0.05))
  (fp_line (start -3.2 9.25) (end 41 9.25) (layer F.CrtYd) (width 0.05))
  (fp_line (start 41 9.25) (end 41 -2.75) (layer F.CrtYd) (width 0.05))
  (fp_line (start 41 -2.75) (end -3.2 -2.75) (layer F.CrtYd) (width 0.05))
  (pad 1 thru_hole roundrect (at 0 0) (size 2.7 3.3) (drill 1.4) (layers *.Cu *.Mask) (roundrect_rratio 0.092593))
  (pad 2 thru_hole oval (at 4.2 0) (size 2.7 3.3) (drill 1.4) (layers *.Cu *.Mask))
  (pad 3 thru_hole oval (at 8.4 0) (size 2.7 3.3) (drill 1.4) (layers *.Cu *.Mask))
  (pad 4 thru_hole oval (at 12.6 0) (size 2.7 3.3) (drill 1.4) (layers *.Cu *.Mask))
  (pad 5 thru_hole oval (at 16.8 0) (size 2.7 3.3) (drill 1.4) (layers *.Cu *.Mask))
  (pad 6 thru_hole oval (at 21 0) (size 2.7 3.3) (drill 1.4) (layers *.Cu *.Mask))
  (pad 7 thru_hole oval (at 25.2 0) (size 2.7 3.3) (drill 1.4) (layers *.Cu *.Mask))
  (pad 8 thru_hole oval (at 29.4 0) (size 2.7 3.3) (drill 1.4) (layers *.Cu *.Mask))
  (pad 9 thru_hole oval (at 33.6 0) (size 2.7 3.3) (drill 1.4) (layers *.Cu *.Mask))
  (pad 10 thru_hole oval (at 37.8 0) (size 2.7 3.3) (drill 1.4) (layers *.Cu *.Mask))
  (pad 11 thru_hole oval (at 0 5.5) (size 2.7 3.3) (drill 1.4) (layers *.Cu *.Mask))
  (pad 12 thru_hole oval (at 4.2 5.5) (size 2.7 3.3) (drill 1.4) (layers *.Cu *.Mask))
  (pad 13 thru_hole oval (at 8.4 5.5) (size 2.7 3.3) (drill 1.4) (layers *.Cu *.Mask))
  (pad 14 thru_hole oval (at 12.6 5.5) (size 2.7 3.3) (drill 1.4) (layers *.Cu *.Mask))
  (pad 15 thru_hole oval (at 16.8 5.5) (size 2.7 3.3) (drill 1.4) (layers *.Cu *.Mask))
  (pad 16 thru_hole oval (at 21 5.5) (size 2.7 3.3) (drill 1.4) (layers *.Cu *.Mask))
  (pad 17 thru_hole oval (at 25.2 5.5) (size 2.7 3.3) (drill 1.4) (layers *.Cu *.Mask))
  (pad 18 thru_hole oval (at 29.4 5.5) (size 2.7 3.3) (drill 1.4) (layers *.Cu *.Mask))
  (pad 19 thru_hole oval (at 33.6 5.5) (size 2.7 3.3) (drill 1.4) (layers *.Cu *.Mask))
  (pad 20 thru_hole oval (at 37.8 5.5) (size 2.7 3.3) (drill 1.4) (layers *.Cu *.Mask))
  (fp_text user %R (at 18.9 -1.55) (layer F.Fab)
    (effects (font (size 1 1) (thickness 0.15)))
  )
  (model ${KICAD6_3DMODEL_DIR}/Connector_Molex.3dshapes/Molex_Mini-Fit_Jr_5566-20A_2x10_P4.20mm_Vertical.wrl
    (at (xyz 0 0 0))
    (scale (xyz 1 1 1))
    (rotate (xyz 0 0 0))
  )
)