(module Molex_PicoBlade_53048-1210_1x12_P1.25mm_Horizontal (layer F.Cu) (tedit 5B783024)
  (descr "Molex PicoBlade Connector System, 53048-1210, 12 Pins per row (http://www.molex.com/pdm_docs/sd/530480210_sd.pdf), generated with kicad-footprint-generator")
  (tags "connector Molex PicoBlade top entry")
  (fp_text reference REF** (at 6.88 -1.95) (layer F.SilkS)
    (effects (font (size 1 1) (thickness 0.15)))
  )
  (fp_text value Molex_PicoBlade_53048-1210_1x12_P1.25mm_Horizontal (at 6.88 5.65) (layer F.Fab)
    (effects (font (size 1 1) (thickness 0.15)))
  )
  (fp_line (start -0.25 -1.15) (end -0.25 -1.45) (layer F.SilkS) (width 0.12))
  (fp_line (start -0.25 -1.45) (end -0.75 -1.45) (layer F.SilkS) (width 0.12))
  (fp_line (start -0.5 -0.75) (end 0 -0.042893) (layer F.Fab) (width 0.1))
  (fp_line (start 0 -0.042893) (end 0.5 -0.75) (layer F.Fab) (width 0.1))
  (fp_line (start 6.88 -1.25) (end -0.15 -1.25) (layer F.CrtYd) (width 0.05))
  (fp_line (start -0.15 -1.25) (end -0.15 -1.55) (layer F.CrtYd) (width 0.05))
  (fp_line (start -0.15 -1.55) (end -2 -1.55) (layer F.CrtYd) (width 0.05))
  (fp_line (start -2 -1.55) (end -2 4.95) (layer F.CrtYd) (width 0.05))
  (fp_line (start -2 4.95) (end 6.88 4.95) (layer F.CrtYd) (width 0.05))
  (fp_line (start 6.87 -1.25) (end 13.9 -1.25) (layer F.CrtYd) (width 0.05))
  (fp_line (start 13.9 -1.25) (end 13.9 -1.55) (layer F.CrtYd) (width 0.05))
  (fp_line (start 13.9 -1.55) (end 15.75 -1.55) (layer F.CrtYd) (width 0.05))
  (fp_line (start 15.75 -1.55) (end 15.75 4.95) (layer F.CrtYd) (width 0.05))
  (fp_line (start 15.75 4.95) (end 6.87 4.95) (layer F.CrtYd) (width 0.05))
  (fp_line (start 6.875 -0.75) (end -0.65 -0.75) (layer F.Fab) (width 0.1))
  (fp_line (start -0.65 -0.75) (end -0.65 -1.05) (layer F.Fab) (width 0.1))
  (fp_line (start -0.65 -1.05) (end -1.5 -1.05) (layer F.Fab) (width 0.1))
  (fp_line (start -1.5 -1.05) (end -1.5 4.45) (layer F.Fab) (width 0.1))
  (fp_line (start -1.5 4.45) (end 6.875 4.45) (layer F.Fab) (width 0.1))
  (fp_line (start 6.875 -0.75) (end 14.4 -0.75) (layer F.Fab) (width 0.1))
  (fp_line (start 14.4 -0.75) (end 14.4 -1.05) (layer F.Fab) (width 0.1))
  (fp_line (start 14.4 -1.05) (end 15.25 -1.05) (layer F.Fab) (width 0.1))
  (fp_line (start 15.25 -1.05) (end 15.25 4.45) (layer F.Fab) (width 0.1))
  (fp_line (start 15.25 4.45) (end 6.875 4.45) (layer F.Fab) (width 0.1))
  (fp_line (start 6.875 -0.86) (end -0.54 -0.86) (layer F.SilkS) (width 0.12))
  (fp_line (start -0.54 -0.86) (end -0.54 -1.16) (layer F.SilkS) (width 0.12))
  (fp_line (start -0.54 -1.16) (end -1.61 -1.16) (layer F.SilkS) (width 0.12))
  (fp_line (start -1.61 -1.16) (end -1.61 4.56) (layer F.SilkS) (width 0.12))
  (fp_line (start -1.61 4.56) (end 6.875 4.56) (layer F.SilkS) (width 0.12))
  (fp_line (start 6.875 -0.86) (end 14.29 -0.86) (layer F.SilkS) (width 0.12))
  (fp_line (start 14.29 -0.86) (end 14.29 -1.16) (layer F.SilkS) (width 0.12))
  (fp_line (start 14.29 -1.16) (end 15.36 -1.16) (layer F.SilkS) (width 0.12))
  (fp_line (start 15.36 -1.16) (end 15.36 4.56) (layer F.SilkS) (width 0.12))
  (fp_line (start 15.36 4.56) (end 6.875 4.56) (layer F.SilkS) (width 0.12))
  (pad 1 thru_hole roundrect (at 0 0) (size 0.8 1.3) (drill 0.5) (layers *.Cu *.Mask) (roundrect_rratio 0.25))
  (pad 2 thru_hole oval (at 1.25 0) (size 0.8 1.3) (drill 0.5) (layers *.Cu *.Mask))
  (pad 3 thru_hole oval (at 2.5 0) (size 0.8 1.3) (drill 0.5) (layers *.Cu *.Mask))
  (pad 4 thru_hole oval (at 3.75 0) (size 0.8 1.3) (drill 0.5) (layers *.Cu *.Mask))
  (pad 5 thru_hole oval (at 5 0) (size 0.8 1.3) (drill 0.5) (layers *.Cu *.Mask))
  (pad 6 thru_hole oval (at 6.25 0) (size 0.8 1.3) (drill 0.5) (layers *.Cu *.Mask))
  (pad 7 thru_hole oval (at 7.5 0) (size 0.8 1.3) (drill 0.5) (layers *.Cu *.Mask))
  (pad 8 thru_hole oval (at 8.75 0) (size 0.8 1.3) (drill 0.5) (layers *.Cu *.Mask))
  (pad 9 thru_hole oval (at 10 0) (size 0.8 1.3) (drill 0.5) (layers *.Cu *.Mask))
  (pad 10 thru_hole oval (at 11.25 0) (size 0.8 1.3) (drill 0.5) (layers *.Cu *.Mask))
  (pad 11 thru_hole oval (at 12.5 0) (size 0.8 1.3) (drill 0.5) (layers *.Cu *.Mask))
  (pad 12 thru_hole oval (at 13.75 0) (size 0.8 1.3) (drill 0.5) (layers *.Cu *.Mask))
  (fp_text user %R (at 6.88 3.75) (layer F.Fab)
    (effects (font (size 1 1) (thickness 0.15)))
  )
  (model ${KICAD6_3DMODEL_DIR}/Connector_Molex.3dshapes/Molex_PicoBlade_53048-1210_1x12_P1.25mm_Horizontal.wrl
    (at (xyz 0 0 0))
    (scale (xyz 1 1 1))
    (rotate (xyz 0 0 0))
  )
)
