(module Molex_Pico-Lock_504050-0591_1x05-1MP_P1.50mm_Horizontal (layer F.Cu) (tedit 5F5E3A54)
  (descr "Molex Pico-Lock series connector, 504050-0591 (http://www.molex.com/pdm_docs/sd/5040500891_sd.pdf), generated with kicad-footprint-generator")
  (tags "connector Molex Pico-Lock horizontal")
  (attr smd)
  (fp_text reference REF** (at 0 -4.5) (layer F.SilkS)
    (effects (font (size 1 1) (thickness 0.15)))
  )
  (fp_text value Molex_Pico-Lock_504050-0591_1x05-1MP_P1.50mm_Horizontal (at 0 4.52) (layer F.Fab)
    (effects (font (size 1 1) (thickness 0.15)))
  )
  (fp_line (start -5.625 -2.785) (end 5.625 -2.785) (layer F.Fab) (width 0.1))
  (fp_line (start -5.735 1.235) (end -5.735 -2.895) (layer F.SilkS) (width 0.12))
  (fp_line (start -5.735 -2.895) (end -3.56 -2.895) (layer F.SilkS) (width 0.12))
  (fp_line (start -3.56 -2.895) (end -3.56 -3.295) (layer F.SilkS) (width 0.12))
  (fp_line (start 5.735 1.235) (end 5.735 -2.895) (layer F.SilkS) (width 0.12))
  (fp_line (start 5.735 -2.895) (end 3.56 -2.895) (layer F.SilkS) (width 0.12))
  (fp_line (start -4.72 3.425) (end -3.565 3.425) (layer F.SilkS) (width 0.12))
  (fp_line (start -3.565 3.425) (end -3.565 1.425) (layer F.SilkS) (width 0.12))
  (fp_line (start -3.565 1.425) (end 3.565 1.425) (layer F.SilkS) (width 0.12))
  (fp_line (start 3.565 1.425) (end 3.565 3.425) (layer F.SilkS) (width 0.12))
  (fp_line (start 3.565 3.425) (end 4.72 3.425) (layer F.SilkS) (width 0.12))
  (fp_line (start -5.625 3.315) (end -3.675 3.315) (layer F.Fab) (width 0.1))
  (fp_line (start -3.675 3.315) (end -3.675 1.315) (layer F.Fab) (width 0.1))
  (fp_line (start -3.675 1.315) (end 3.675 1.315) (layer F.Fab) (width 0.1))
  (fp_line (start 3.675 1.315) (end 3.675 3.315) (layer F.Fab) (width 0.1))
  (fp_line (start 3.675 3.315) (end 5.625 3.315) (layer F.Fab) (width 0.1))
  (fp_line (start -5.625 -2.785) (end -5.625 3.315) (layer F.Fab) (width 0.1))
  (fp_line (start 5.625 -2.785) (end 5.625 3.315) (layer F.Fab) (width 0.1))
  (fp_line (start -6.73 -3.8) (end -6.73 3.82) (layer F.CrtYd) (width 0.05))
  (fp_line (start -6.73 3.82) (end 6.73 3.82) (layer F.CrtYd) (width 0.05))
  (fp_line (start 6.73 3.82) (end 6.73 -3.8) (layer F.CrtYd) (width 0.05))
  (fp_line (start 6.73 -3.8) (end -6.73 -3.8) (layer F.CrtYd) (width 0.05))
  (fp_line (start -3.5 -2.785) (end -3 -2.077893) (layer F.Fab) (width 0.1))
  (fp_line (start -3 -2.077893) (end -2.5 -2.785) (layer F.Fab) (width 0.1))
  (pad 1 smd roundrect (at -3 -2.795) (size 0.6 1) (layers F.Cu F.Mask F.Paste) (roundrect_rratio 0.25))
  (pad 2 smd roundrect (at -1.5 -2.795) (size 0.6 1) (layers F.Cu F.Mask F.Paste) (roundrect_rratio 0.25))
  (pad 3 smd roundrect (at 0 -2.795) (size 0.6 1) (layers F.Cu F.Mask F.Paste) (roundrect_rratio 0.25))
  (pad 4 smd roundrect (at 1.5 -2.795) (size 0.6 1) (layers F.Cu F.Mask F.Paste) (roundrect_rratio 0.25))
  (pad 5 smd roundrect (at 3 -2.795) (size 0.6 1) (layers F.Cu F.Mask F.Paste) (roundrect_rratio 0.25))
  (pad MP smd roundrect (at -5.605 2.395) (size 1.25 1.8) (layers F.Cu F.Mask F.Paste) (roundrect_rratio 0.2))
  (pad MP smd roundrect (at 5.605 2.395) (size 1.25 1.8) (layers F.Cu F.Mask F.Paste) (roundrect_rratio 0.2))
  (fp_text user %R (at 0 0.27) (layer F.Fab)
    (effects (font (size 1 1) (thickness 0.15)))
  )
  (model ${KICAD6_3DMODEL_DIR}/Connector_Molex.3dshapes/Molex_Pico-Lock_504050-0591_1x05-1MP_P1.50mm_Horizontal.wrl
    (at (xyz 0 0 0))
    (scale (xyz 1 1 1))
    (rotate (xyz 0 0 0))
  )
)