(module Molex_CLIK-Mate_505405-0270_1x02-1MP_P1.50mm_Vertical (layer F.Cu) (tedit 5B78AD89)
  (descr "Molex CLIK-Mate series connector, 505405-0270 (http://www.molex.com/pdm_docs/sd/5054050270_sd.pdf), generated with kicad-footprint-generator")
  (tags "connector Molex CLIK-Mate side entry")
  (attr smd)
  (fp_text reference REF** (at 0 -5.42) (layer F.SilkS)
    (effects (font (size 1 1) (thickness 0.15)))
  )
  (fp_text value Molex_CLIK-Mate_505405-0270_1x02-1MP_P1.50mm_Vertical (at 0 5.15) (layer F.Fab)
    (effects (font (size 1 1) (thickness 0.15)))
  )
  (fp_line (start -3.65 2.13) (end 3.65 2.13) (layer F.Fab) (width 0.1))
  (fp_line (start -3.76 -0.39) (end -3.76 2.24) (layer F.SilkS) (width 0.12))
  (fp_line (start -3.76 2.24) (end -1.41 2.24) (layer F.SilkS) (width 0.12))
  (fp_line (start -1.41 2.24) (end -1.41 3.95) (layer F.SilkS) (width 0.12))
  (fp_line (start 3.76 -0.39) (end 3.76 2.24) (layer F.SilkS) (width 0.12))
  (fp_line (start 3.76 2.24) (end 1.41 2.24) (layer F.SilkS) (width 0.12))
  (fp_line (start -3.65 -4.33) (end 3.65 -4.33) (layer F.SilkS) (width 0.12))
  (fp_line (start -3.65 -4.22) (end 3.65 -4.22) (layer F.Fab) (width 0.1))
  (fp_line (start -3.65 2.13) (end -3.65 -4.22) (layer F.Fab) (width 0.1))
  (fp_line (start 3.65 2.13) (end 3.65 -4.22) (layer F.Fab) (width 0.1))
  (fp_line (start -4.75 -4.72) (end -4.75 4.45) (layer F.CrtYd) (width 0.05))
  (fp_line (start -4.75 4.45) (end 4.75 4.45) (layer F.CrtYd) (width 0.05))
  (fp_line (start 4.75 4.45) (end 4.75 -4.72) (layer F.CrtYd) (width 0.05))
  (fp_line (start 4.75 -4.72) (end -4.75 -4.72) (layer F.CrtYd) (width 0.05))
  (fp_line (start -1.25 2.13) (end -0.75 1.422893) (layer F.Fab) (width 0.1))
  (fp_line (start -0.75 1.422893) (end -0.25 2.13) (layer F.Fab) (width 0.1))
  (pad 1 smd roundrect (at -0.75 2.75) (size 0.8 2.4) (layers F.Cu F.Mask F.Paste) (roundrect_rratio 0.25))
  (pad 2 smd roundrect (at 0.75 2.75) (size 0.8 2.4) (layers F.Cu F.Mask F.Paste) (roundrect_rratio 0.25))
  (pad MP smd roundrect (at -3.35 -2.3) (size 1.8 3.3) (layers F.Cu F.Mask F.Paste) (roundrect_rratio 0.138889))
  (pad MP smd roundrect (at 3.35 -2.3) (size 1.8 3.3) (layers F.Cu F.Mask F.Paste) (roundrect_rratio 0.138889))
  (fp_text user %R (at 0 -1.05) (layer F.Fab)
    (effects (font (size 1 1) (thickness 0.15)))
  )
  (model ${KICAD6_3DMODEL_DIR}/Connector_Molex.3dshapes/Molex_CLIK-Mate_505405-0270_1x02-1MP_P1.50mm_Vertical.wrl
    (at (xyz 0 0 0))
    (scale (xyz 1 1 1))
    (rotate (xyz 0 0 0))
  )
)