(module Molex_MicroClasp_55935-1530_1x15_P2.00mm_Horizontal (layer F.Cu) (tedit 5D3D722A)
  (descr "Molex MicroClasp Wire-to-Board System, 55935-1530, 15 Pins (http://www.molex.com/pdm_docs/sd/559350530_sd.pdf), generated with kicad-footprint-generator")
  (tags "connector Molex MicroClasp horizontal")
  (fp_text reference REF** (at 14 -3.25) (layer F.SilkS)
    (effects (font (size 1 1) (thickness 0.15)))
  )
  (fp_text value Molex_MicroClasp_55935-1530_1x15_P2.00mm_Horizontal (at 14 10.9) (layer F.Fab)
    (effects (font (size 1 1) (thickness 0.15)))
  )
  (fp_line (start 14 9.7) (end 11.11 9.7) (layer F.Fab) (width 0.1))
  (fp_line (start 11.11 9.7) (end 10.61 9.2) (layer F.Fab) (width 0.1))
  (fp_line (start 10.61 9.2) (end -3 9.2) (layer F.Fab) (width 0.1))
  (fp_line (start -3 9.2) (end -3 -2.05) (layer F.Fab) (width 0.1))
  (fp_line (start -3 -2.05) (end -1.5 -2.05) (layer F.Fab) (width 0.1))
  (fp_line (start -1.5 -2.05) (end -1.5 0) (layer F.Fab) (width 0.1))
  (fp_line (start -1.5 0) (end 14 0) (layer F.Fab) (width 0.1))
  (fp_line (start 14 9.7) (end 16.89 9.7) (layer F.Fab) (width 0.1))
  (fp_line (start 16.89 9.7) (end 17.39 9.2) (layer F.Fab) (width 0.1))
  (fp_line (start 17.39 9.2) (end 31 9.2) (layer F.Fab) (width 0.1))
  (fp_line (start 31 9.2) (end 31 -2.05) (layer F.Fab) (width 0.1))
  (fp_line (start 31 -2.05) (end 29.5 -2.05) (layer F.Fab) (width 0.1))
  (fp_line (start 29.5 -2.05) (end 29.5 0) (layer F.Fab) (width 0.1))
  (fp_line (start 29.5 0) (end 14 0) (layer F.Fab) (width 0.1))
  (fp_line (start 14 9.81) (end 11 9.81) (layer F.SilkS) (width 0.12))
  (fp_line (start 11 9.81) (end 10.5 9.31) (layer F.SilkS) (width 0.12))
  (fp_line (start 10.5 9.31) (end -3.11 9.31) (layer F.SilkS) (width 0.12))
  (fp_line (start -3.11 9.31) (end -3.11 -2.16) (layer F.SilkS) (width 0.12))
  (fp_line (start -3.11 -2.16) (end -1.39 -2.16) (layer F.SilkS) (width 0.12))
  (fp_line (start -1.39 -2.16) (end -1.39 -0.11) (layer F.SilkS) (width 0.12))
  (fp_line (start -1.39 -0.11) (end -0.86 -0.11) (layer F.SilkS) (width 0.12))
  (fp_line (start 14 9.81) (end 17 9.81) (layer F.SilkS) (width 0.12))
  (fp_line (start 17 9.81) (end 17.5 9.31) (layer F.SilkS) (width 0.12))
  (fp_line (start 17.5 9.31) (end 31.11 9.31) (layer F.SilkS) (width 0.12))
  (fp_line (start 31.11 9.31) (end 31.11 -2.16) (layer F.SilkS) (width 0.12))
  (fp_line (start 31.11 -2.16) (end 29.39 -2.16) (layer F.SilkS) (width 0.12))
  (fp_line (start 29.39 -2.16) (end 29.39 -0.11) (layer F.SilkS) (width 0.12))
  (fp_line (start 29.39 -0.11) (end 28.86 -0.11) (layer F.SilkS) (width 0.12))
  (fp_line (start 0.86 -0.11) (end 1.14 -0.11) (layer F.SilkS) (width 0.12))
  (fp_line (start 2.86 -0.11) (end 3.14 -0.11) (layer F.SilkS) (width 0.12))
  (fp_line (start 4.86 -0.11) (end 5.14 -0.11) (layer F.SilkS) (width 0.12))
  (fp_line (start 6.86 -0.11) (end 7.14 -0.11) (layer F.SilkS) (width 0.12))
  (fp_line (start 8.86 -0.11) (end 9.14 -0.11) (layer F.SilkS) (width 0.12))
  (fp_line (start 10.86 -0.11) (end 11.14 -0.11) (layer F.SilkS) (width 0.12))
  (fp_line (start 12.86 -0.11) (end 13.14 -0.11) (layer F.SilkS) (width 0.12))
  (fp_line (start 14.86 -0.11) (end 15.14 -0.11) (layer F.SilkS) (width 0.12))
  (fp_line (start 16.86 -0.11) (end 17.14 -0.11) (layer F.SilkS) (width 0.12))
  (fp_line (start 18.86 -0.11) (end 19.14 -0.11) (layer F.SilkS) (width 0.12))
  (fp_line (start 20.86 -0.11) (end 21.14 -0.11) (layer F.SilkS) (width 0.12))
  (fp_line (start 22.86 -0.11) (end 23.14 -0.11) (layer F.SilkS) (width 0.12))
  (fp_line (start 24.86 -0.11) (end 25.14 -0.11) (layer F.SilkS) (width 0.12))
  (fp_line (start 26.86 -0.11) (end 27.14 -0.11) (layer F.SilkS) (width 0.12))
  (fp_line (start -3.41 -0.05) (end -3.41 -2.46) (layer F.SilkS) (width 0.12))
  (fp_line (start -3.41 -2.46) (end -1 -2.46) (layer F.SilkS) (width 0.12))
  (fp_line (start -0.5 0) (end 0 0.707107) (layer F.Fab) (width 0.1))
  (fp_line (start 0 0.707107) (end 0.5 0) (layer F.Fab) (width 0.1))
  (fp_line (start -3.5 -2.55) (end -3.5 10.2) (layer F.CrtYd) (width 0.05))
  (fp_line (start -3.5 10.2) (end 31.5 10.2) (layer F.CrtYd) (width 0.05))
  (fp_line (start 31.5 10.2) (end 31.5 -2.55) (layer F.CrtYd) (width 0.05))
  (fp_line (start 31.5 -2.55) (end -3.5 -2.55) (layer F.CrtYd) (width 0.05))
  (pad 1 thru_hole roundrect (at 0 0) (size 1.2 1.8) (drill 0.8) (layers *.Cu *.Mask) (roundrect_rratio 0.208333))
  (pad 2 thru_hole oval (at 2 0) (size 1.2 1.8) (drill 0.8) (layers *.Cu *.Mask))
  (pad 3 thru_hole oval (at 4 0) (size 1.2 1.8) (drill 0.8) (layers *.Cu *.Mask))
  (pad 4 thru_hole oval (at 6 0) (size 1.2 1.8) (drill 0.8) (layers *.Cu *.Mask))
  (pad 5 thru_hole oval (at 8 0) (size 1.2 1.8) (drill 0.8) (layers *.Cu *.Mask))
  (pad 6 thru_hole oval (at 10 0) (size 1.2 1.8) (drill 0.8) (layers *.Cu *.Mask))
  (pad 7 thru_hole oval (at 12 0) (size 1.2 1.8) (drill 0.8) (layers *.Cu *.Mask))
  (pad 8 thru_hole oval (at 14 0) (size 1.2 1.8) (drill 0.8) (layers *.Cu *.Mask))
  (pad 9 thru_hole oval (at 16 0) (size 1.2 1.8) (drill 0.8) (layers *.Cu *.Mask))
  (pad 10 thru_hole oval (at 18 0) (size 1.2 1.8) (drill 0.8) (layers *.Cu *.Mask))
  (pad 11 thru_hole oval (at 20 0) (size 1.2 1.8) (drill 0.8) (layers *.Cu *.Mask))
  (pad 12 thru_hole oval (at 22 0) (size 1.2 1.8) (drill 0.8) (layers *.Cu *.Mask))
  (pad 13 thru_hole oval (at 24 0) (size 1.2 1.8) (drill 0.8) (layers *.Cu *.Mask))
  (pad 14 thru_hole oval (at 26 0) (size 1.2 1.8) (drill 0.8) (layers *.Cu *.Mask))
  (pad 15 thru_hole oval (at 28 0) (size 1.2 1.8) (drill 0.8) (layers *.Cu *.Mask))
  (fp_text user %R (at 14 8.5) (layer F.Fab)
    (effects (font (size 1 1) (thickness 0.15)))
  )
  (model ${KICAD6_3DMODEL_DIR}/Connector_Molex.3dshapes/Molex_MicroClasp_55935-1530_1x15_P2.00mm_Horizontal.wrl
    (at (xyz 0 0 0))
    (scale (xyz 1 1 1))
    (rotate (xyz 0 0 0))
  )
)