(module Molex_SL_171971-0002_1x02_P2.54mm_Vertical (layer F.Cu) (tedit 5DA36613)
  (descr "Molex Stackable Linear Connector, 171971-0002 (compatible alternatives: 171971-0102, 171971-0202), 2 Pins per row (https://www.molex.com/pdm_docs/sd/1719710002_sd.pdf), generated with kicad-footprint-generator")
  (tags "connector Molex SL vertical")
  (fp_text reference REF** (at 1.27 -3.75) (layer F.SilkS)
    (effects (font (size 1 1) (thickness 0.15)))
  )
  (fp_text value Molex_SL_171971-0002_1x02_P2.54mm_Vertical (at 1.27 5.25) (layer F.Fab)
    (effects (font (size 1 1) (thickness 0.15)))
  )
  (fp_line (start -2.42 -2.55) (end -2.42 -0.24) (layer F.Fab) (width 0.1))
  (fp_line (start -2.42 -0.24) (end -2.29 -0.24) (layer F.Fab) (width 0.1))
  (fp_line (start -2.29 -0.24) (end -2.29 1.79) (layer F.Fab) (width 0.1))
  (fp_line (start -2.29 1.79) (end -2.42 1.79) (layer F.Fab) (width 0.1))
  (fp_line (start -2.42 1.79) (end -2.42 2.55) (layer F.Fab) (width 0.1))
  (fp_line (start -2.42 2.55) (end 4.96 2.55) (layer F.Fab) (width 0.1))
  (fp_line (start 4.96 2.55) (end 4.96 1.79) (layer F.Fab) (width 0.1))
  (fp_line (start 4.96 1.79) (end 4.83 1.79) (layer F.Fab) (width 0.1))
  (fp_line (start 4.83 1.79) (end 4.83 -0.24) (layer F.Fab) (width 0.1))
  (fp_line (start 4.83 -0.24) (end 4.96 -0.24) (layer F.Fab) (width 0.1))
  (fp_line (start 4.96 -0.24) (end 4.96 -2.55) (layer F.Fab) (width 0.1))
  (fp_line (start 4.96 -2.55) (end -2.42 -2.55) (layer F.Fab) (width 0.1))
  (fp_line (start -2.16 2.55) (end -2.16 4.05) (layer F.Fab) (width 0.1))
  (fp_line (start -2.16 4.05) (end 4.7 4.05) (layer F.Fab) (width 0.1))
  (fp_line (start 4.7 4.05) (end 4.7 2.55) (layer F.Fab) (width 0.1))
  (fp_line (start -2.53 -2.66) (end -2.53 -0.13) (layer F.SilkS) (width 0.12))
  (fp_line (start -2.53 -0.13) (end -2.4 -0.13) (layer F.SilkS) (width 0.12))
  (fp_line (start -2.4 -0.13) (end -2.4 1.68) (layer F.SilkS) (width 0.12))
  (fp_line (start -2.4 1.68) (end -2.53 1.68) (layer F.SilkS) (width 0.12))
  (fp_line (start -2.53 1.68) (end -2.53 2.66) (layer F.SilkS) (width 0.12))
  (fp_line (start -2.53 2.66) (end -2.27 2.66) (layer F.SilkS) (width 0.12))
  (fp_line (start -2.27 2.66) (end -2.27 4.16) (layer F.SilkS) (width 0.12))
  (fp_line (start -2.27 4.16) (end 4.81 4.16) (layer F.SilkS) (width 0.12))
  (fp_line (start 4.81 4.16) (end 4.81 2.66) (layer F.SilkS) (width 0.12))
  (fp_line (start 4.81 2.66) (end 5.07 2.66) (layer F.SilkS) (width 0.12))
  (fp_line (start 5.07 2.66) (end 5.07 1.68) (layer F.SilkS) (width 0.12))
  (fp_line (start 5.07 1.68) (end 4.94 1.68) (layer F.SilkS) (width 0.12))
  (fp_line (start 4.94 1.68) (end 4.94 -0.13) (layer F.SilkS) (width 0.12))
  (fp_line (start 4.94 -0.13) (end 5.07 -0.13) (layer F.SilkS) (width 0.12))
  (fp_line (start 5.07 -0.13) (end 5.07 -2.66) (layer F.SilkS) (width 0.12))
  (fp_line (start 5.07 -2.66) (end -2.53 -2.66) (layer F.SilkS) (width 0.12))
  (fp_line (start -2.83 -0.55) (end -2.83 -2.96) (layer F.SilkS) (width 0.12))
  (fp_line (start -2.83 -2.96) (end -0.42 -2.96) (layer F.SilkS) (width 0.12))
  (fp_line (start 0.5 -2.55) (end 0 -1.842893) (layer F.Fab) (width 0.1))
  (fp_line (start 0 -1.842893) (end -0.5 -2.55) (layer F.Fab) (width 0.1))
  (fp_line (start -2.92 -3.05) (end -2.92 4.55) (layer F.CrtYd) (width 0.05))
  (fp_line (start -2.92 4.55) (end 5.46 4.55) (layer F.CrtYd) (width 0.05))
  (fp_line (start 5.46 4.55) (end 5.46 -3.05) (layer F.CrtYd) (width 0.05))
  (fp_line (start 5.46 -3.05) (end -2.92 -3.05) (layer F.CrtYd) (width 0.05))
  (pad 1 thru_hole roundrect (at 0 0) (size 1.74 1.74) (drill 1.09) (layers *.Cu *.Mask) (roundrect_rratio 0.143678))
  (pad 2 thru_hole circle (at 2.54 0) (size 1.74 1.74) (drill 1.09) (layers *.Cu *.Mask))
  (fp_text user %R (at 1.27 1.85) (layer F.Fab)
    (effects (font (size 1 1) (thickness 0.15)))
  )
  (model ${KICAD6_3DMODEL_DIR}/Connector_Molex.3dshapes/Molex_SL_171971-0002_1x02_P2.54mm_Vertical.wrl
    (at (xyz 0 0 0))
    (scale (xyz 1 1 1))
    (rotate (xyz 0 0 0))
  )
)