(module Molex_MicroClasp_55935-0410_1x04_P2.00mm_Horizontal (layer F.Cu) (tedit 5D3D722A)
  (descr "Molex MicroClasp Wire-to-Board System, 55935-0410, with PCB locator, 4 Pins (http://www.molex.com/pdm_docs/sd/559350210_sd.pdf), generated with kicad-footprint-generator")
  (tags "connector Molex MicroClasp horizontal")
  (fp_text reference REF** (at 3 -3.25) (layer F.SilkS)
    (effects (font (size 1 1) (thickness 0.15)))
  )
  (fp_text value Molex_MicroClasp_55935-0410_1x04_P2.00mm_Horizontal (at 3 10.9) (layer F.Fab)
    (effects (font (size 1 1) (thickness 0.15)))
  )
  (fp_line (start 3 9.7) (end 0.11 9.7) (layer F.Fab) (width 0.1))
  (fp_line (start 0.11 9.7) (end -0.39 9.2) (layer F.Fab) (width 0.1))
  (fp_line (start -0.39 9.2) (end -3 9.2) (layer F.Fab) (width 0.1))
  (fp_line (start -3 9.2) (end -3 -2.05) (layer F.Fab) (width 0.1))
  (fp_line (start -3 -2.05) (end -1.5 -2.05) (layer F.Fab) (width 0.1))
  (fp_line (start -1.5 -2.05) (end -1.5 0) (layer F.Fab) (width 0.1))
  (fp_line (start -1.5 0) (end 3 0) (layer F.Fab) (width 0.1))
  (fp_line (start 3 9.7) (end 5.89 9.7) (layer F.Fab) (width 0.1))
  (fp_line (start 5.89 9.7) (end 6.39 9.2) (layer F.Fab) (width 0.1))
  (fp_line (start 6.39 9.2) (end 9 9.2) (layer F.Fab) (width 0.1))
  (fp_line (start 9 9.2) (end 9 -2.05) (layer F.Fab) (width 0.1))
  (fp_line (start 9 -2.05) (end 7.5 -2.05) (layer F.Fab) (width 0.1))
  (fp_line (start 7.5 -2.05) (end 7.5 0) (layer F.Fab) (width 0.1))
  (fp_line (start 7.5 0) (end 3 0) (layer F.Fab) (width 0.1))
  (fp_line (start 3 9.81) (end -0 9.81) (layer F.SilkS) (width 0.12))
  (fp_line (start -0 9.81) (end -0.5 9.31) (layer F.SilkS) (width 0.12))
  (fp_line (start -0.5 9.31) (end -3.11 9.31) (layer F.SilkS) (width 0.12))
  (fp_line (start -3.11 9.31) (end -3.11 -2.16) (layer F.SilkS) (width 0.12))
  (fp_line (start -3.11 -2.16) (end -1.39 -2.16) (layer F.SilkS) (width 0.12))
  (fp_line (start -1.39 -2.16) (end -1.39 -0.11) (layer F.SilkS) (width 0.12))
  (fp_line (start -1.39 -0.11) (end -0.86 -0.11) (layer F.SilkS) (width 0.12))
  (fp_line (start 3 9.81) (end 6 9.81) (layer F.SilkS) (width 0.12))
  (fp_line (start 6 9.81) (end 6.5 9.31) (layer F.SilkS) (width 0.12))
  (fp_line (start 6.5 9.31) (end 9.11 9.31) (layer F.SilkS) (width 0.12))
  (fp_line (start 9.11 9.31) (end 9.11 -2.16) (layer F.SilkS) (width 0.12))
  (fp_line (start 9.11 -2.16) (end 7.39 -2.16) (layer F.SilkS) (width 0.12))
  (fp_line (start 7.39 -2.16) (end 7.39 -0.11) (layer F.SilkS) (width 0.12))
  (fp_line (start 7.39 -0.11) (end 6.86 -0.11) (layer F.SilkS) (width 0.12))
  (fp_line (start 0.86 -0.11) (end 1.14 -0.11) (layer F.SilkS) (width 0.12))
  (fp_line (start 2.86 -0.11) (end 3.14 -0.11) (layer F.SilkS) (width 0.12))
  (fp_line (start 4.86 -0.11) (end 5.14 -0.11) (layer F.SilkS) (width 0.12))
  (fp_line (start -3.41 -0.05) (end -3.41 -2.46) (layer F.SilkS) (width 0.12))
  (fp_line (start -3.41 -2.46) (end -1 -2.46) (layer F.SilkS) (width 0.12))
  (fp_line (start -0.5 0) (end 0 0.707107) (layer F.Fab) (width 0.1))
  (fp_line (start 0 0.707107) (end 0.5 0) (layer F.Fab) (width 0.1))
  (fp_line (start -3.5 -2.55) (end -3.5 10.2) (layer F.CrtYd) (width 0.05))
  (fp_line (start -3.5 10.2) (end 9.5 10.2) (layer F.CrtYd) (width 0.05))
  (fp_line (start 9.5 10.2) (end 9.5 -2.55) (layer F.CrtYd) (width 0.05))
  (fp_line (start 9.5 -2.55) (end -3.5 -2.55) (layer F.CrtYd) (width 0.05))
  (pad 1 thru_hole roundrect (at 0 0) (size 1.2 1.8) (drill 0.8) (layers *.Cu *.Mask) (roundrect_rratio 0.208333))
  (pad 2 thru_hole oval (at 2 0) (size 1.2 1.8) (drill 0.8) (layers *.Cu *.Mask))
  (pad 3 thru_hole oval (at 4 0) (size 1.2 1.8) (drill 0.8) (layers *.Cu *.Mask))
  (pad 4 thru_hole oval (at 6 0) (size 1.2 1.8) (drill 0.8) (layers *.Cu *.Mask))
  (pad "" np_thru_hole circle (at 8 2.4) (size 1.2 1.2) (drill 1.2) (layers *.Cu *.Mask))
  (pad "" np_thru_hole circle (at -2 2.4) (size 1.2 1.2) (drill 1.2) (layers *.Cu *.Mask))
  (fp_text user %R (at 3 8.5) (layer F.Fab)
    (effects (font (size 1 1) (thickness 0.15)))
  )
  (model ${KICAD6_3DMODEL_DIR}/Connector_Molex.3dshapes/Molex_MicroClasp_55935-0410_1x04_P2.00mm_Horizontal.wrl
    (at (xyz 0 0 0))
    (scale (xyz 1 1 1))
    (rotate (xyz 0 0 0))
  )
)