(module Molex_Pico-EZmate_78171-0004_1x04-1MP_P1.20mm_Vertical (layer F.Cu) (tedit 5B78AD88)
  (descr "Molex Pico-EZmate series connector, 78171-0004 (http://www.molex.com/pdm_docs/sd/781710002_sd.pdf), generated with kicad-footprint-generator")
  (tags "connector Molex Pico-EZmate side entry")
  (attr smd)
  (fp_text reference REF** (at 0 -3.5) (layer F.SilkS)
    (effects (font (size 1 1) (thickness 0.15)))
  )
  (fp_text value Molex_Pico-EZmate_78171-0004_1x04-1MP_P1.20mm_Vertical (at 0 3.72) (layer F.Fab)
    (effects (font (size 1 1) (thickness 0.15)))
  )
  (fp_line (start -3.3 -1.98) (end 3.3 -1.98) (layer F.Fab) (width 0.1))
  (fp_line (start -3.41 1.24) (end -3.41 -2.09) (layer F.SilkS) (width 0.12))
  (fp_line (start -3.41 -2.09) (end -2.36 -2.09) (layer F.SilkS) (width 0.12))
  (fp_line (start -2.36 -2.09) (end -2.36 -2.3) (layer F.SilkS) (width 0.12))
  (fp_line (start 3.41 1.24) (end 3.41 -2.09) (layer F.SilkS) (width 0.12))
  (fp_line (start 3.41 -2.09) (end 2.36 -2.09) (layer F.SilkS) (width 0.12))
  (fp_line (start -2.34 2.63) (end -1.84 2.63) (layer F.SilkS) (width 0.12))
  (fp_line (start -1.84 2.63) (end -1.54 2.13) (layer F.SilkS) (width 0.12))
  (fp_line (start -1.54 2.13) (end 1.54 2.13) (layer F.SilkS) (width 0.12))
  (fp_line (start 1.54 2.13) (end 1.84 2.63) (layer F.SilkS) (width 0.12))
  (fp_line (start 1.84 2.63) (end 2.34 2.63) (layer F.SilkS) (width 0.12))
  (fp_line (start -3.3 2.52) (end -1.95 2.52) (layer F.Fab) (width 0.1))
  (fp_line (start -1.95 2.52) (end -1.65 2.02) (layer F.Fab) (width 0.1))
  (fp_line (start -1.65 2.02) (end 1.65 2.02) (layer F.Fab) (width 0.1))
  (fp_line (start 1.65 2.02) (end 1.95 2.52) (layer F.Fab) (width 0.1))
  (fp_line (start 1.95 2.52) (end 3.3 2.52) (layer F.Fab) (width 0.1))
  (fp_line (start -3.3 -1.98) (end -3.3 2.52) (layer F.Fab) (width 0.1))
  (fp_line (start 3.3 -1.98) (end 3.3 2.52) (layer F.Fab) (width 0.1))
  (fp_line (start -3.8 -2.8) (end -3.8 3.02) (layer F.CrtYd) (width 0.05))
  (fp_line (start -3.8 3.02) (end 3.8 3.02) (layer F.CrtYd) (width 0.05))
  (fp_line (start 3.8 3.02) (end 3.8 -2.8) (layer F.CrtYd) (width 0.05))
  (fp_line (start 3.8 -2.8) (end -3.8 -2.8) (layer F.CrtYd) (width 0.05))
  (fp_line (start -2.3 -1.98) (end -1.8 -1.272893) (layer F.Fab) (width 0.1))
  (fp_line (start -1.8 -1.272893) (end -1.3 -1.98) (layer F.Fab) (width 0.1))
  (fp_line (start -2.05 -3.153553) (end -1.8 -2.8) (layer F.SilkS) (width 0.12))
  (fp_line (start -1.8 -2.8) (end -1.55 -3.153553) (layer F.SilkS) (width 0.12))
  (fp_line (start -1.55 -3.153553) (end -2.05 -3.153553) (layer F.SilkS) (width 0.12))
  (pad 1 smd roundrect (at -1.8 -1.875) (size 0.6 0.85) (layers F.Cu F.Mask F.Paste) (roundrect_rratio 0.25))
  (pad 2 smd roundrect (at -0.6 -1.875) (size 0.6 0.85) (layers F.Cu F.Mask F.Paste) (roundrect_rratio 0.25))
  (pad 3 smd roundrect (at 0.6 -1.875) (size 0.6 0.85) (layers F.Cu F.Mask F.Paste) (roundrect_rratio 0.25))
  (pad 4 smd roundrect (at 1.8 -1.875) (size 0.6 0.85) (layers F.Cu F.Mask F.Paste) (roundrect_rratio 0.25))
  (pad MP smd roundrect (at -2.95 1.9) (size 0.7 0.8) (layers F.Cu F.Mask F.Paste) (roundrect_rratio 0.25))
  (pad MP smd roundrect (at 2.95 1.9) (size 0.7 0.8) (layers F.Cu F.Mask F.Paste) (roundrect_rratio 0.25))
  (fp_text user %R (at 0 0.27) (layer F.Fab)
    (effects (font (size 1 1) (thickness 0.15)))
  )
  (model ${KICAD6_3DMODEL_DIR}/Connector_Molex.3dshapes/Molex_Pico-EZmate_78171-0004_1x04-1MP_P1.20mm_Vertical.wrl
    (at (xyz 0 0 0))
    (scale (xyz 1 1 1))
    (rotate (xyz 0 0 0))
  )
)