(module Molex_CLIK-Mate_502382-0270_1x02-1MP_P1.25mm_Vertical (layer F.Cu) (tedit 5B78AD89)
  (descr "Molex CLIK-Mate series connector, 502382-0270 (http://www.molex.com/pdm_docs/sd/5023820270_sd.pdf), generated with kicad-footprint-generator")
  (tags "connector Molex CLIK-Mate side entry")
  (attr smd)
  (fp_text reference REF** (at 0 -4.7) (layer F.SilkS)
    (effects (font (size 1 1) (thickness 0.15)))
  )
  (fp_text value Molex_CLIK-Mate_502382-0270_1x02-1MP_P1.25mm_Vertical (at 0 4) (layer F.Fab)
    (effects (font (size 1 1) (thickness 0.15)))
  )
  (fp_line (start -2.925 1.95) (end 2.925 1.95) (layer F.Fab) (width 0.1))
  (fp_line (start -3.035 0.26) (end -3.035 2.06) (layer F.SilkS) (width 0.12))
  (fp_line (start -3.035 2.06) (end -1.185 2.06) (layer F.SilkS) (width 0.12))
  (fp_line (start -1.185 2.06) (end -1.185 2.8) (layer F.SilkS) (width 0.12))
  (fp_line (start 3.035 0.26) (end 3.035 2.06) (layer F.SilkS) (width 0.12))
  (fp_line (start 3.035 2.06) (end 1.185 2.06) (layer F.SilkS) (width 0.12))
  (fp_line (start -3.035 -3.06) (end -3.035 -3.61) (layer F.SilkS) (width 0.12))
  (fp_line (start -3.035 -3.61) (end 3.035 -3.61) (layer F.SilkS) (width 0.12))
  (fp_line (start 3.035 -3.61) (end 3.035 -3.06) (layer F.SilkS) (width 0.12))
  (fp_line (start -2.925 -3.5) (end 2.925 -3.5) (layer F.Fab) (width 0.1))
  (fp_line (start -2.925 1.95) (end -2.925 -3.5) (layer F.Fab) (width 0.1))
  (fp_line (start 2.925 1.95) (end 2.925 -3.5) (layer F.Fab) (width 0.1))
  (fp_line (start -3.48 -4) (end -3.48 3.3) (layer F.CrtYd) (width 0.05))
  (fp_line (start -3.48 3.3) (end 3.48 3.3) (layer F.CrtYd) (width 0.05))
  (fp_line (start 3.48 3.3) (end 3.48 -4) (layer F.CrtYd) (width 0.05))
  (fp_line (start 3.48 -4) (end -3.48 -4) (layer F.CrtYd) (width 0.05))
  (fp_line (start -1.125 1.95) (end -0.625 1.242893) (layer F.Fab) (width 0.1))
  (fp_line (start -0.625 1.242893) (end -0.125 1.95) (layer F.Fab) (width 0.1))
  (pad 1 smd roundrect (at -0.625 1.95) (size 0.6 1.7) (layers F.Cu F.Mask F.Paste) (roundrect_rratio 0.25))
  (pad 2 smd roundrect (at 0.625 1.95) (size 0.6 1.7) (layers F.Cu F.Mask F.Paste) (roundrect_rratio 0.25))
  (pad MP smd roundrect (at -2.475 -1.4) (size 1 2.8) (layers F.Cu F.Mask F.Paste) (roundrect_rratio 0.25))
  (pad MP smd roundrect (at 2.475 -1.4) (size 1 2.8) (layers F.Cu F.Mask F.Paste) (roundrect_rratio 0.25))
  (fp_text user %R (at 0 -0.77) (layer F.Fab)
    (effects (font (size 1 1) (thickness 0.15)))
  )
  (model ${KICAD6_3DMODEL_DIR}/Connector_Molex.3dshapes/Molex_CLIK-Mate_502382-0270_1x02-1MP_P1.25mm_Vertical.wrl
    (at (xyz 0 0 0))
    (scale (xyz 1 1 1))
    (rotate (xyz 0 0 0))
  )
)