(module Molex_Picoflex_90814-0018_2x09_P1.27mm_Vertical (layer F.Cu) (tedit 5A17697C)
  (descr "Molex Picoflex Ribbon-Cable Connectors, 90814-0018, 18 Pins (http://www.molex.com/pdm_docs/sd/908140004_sd.pdf), generated with kicad-footprint-generator")
  (tags "connector Molex Picoflex side entry")
  (attr smd)
  (fp_text reference REF** (at 0 -15.04) (layer F.SilkS)
    (effects (font (size 1 1) (thickness 0.15)))
  )
  (fp_text value Molex_Picoflex_90814-0018_2x09_P1.27mm_Vertical (at 0 15.04) (layer F.Fab)
    (effects (font (size 1 1) (thickness 0.15)))
  )
  (fp_arc (start -1.9 12.72) (end -0.95 13.32) (angle 230.000000) (layer F.Fab) (width 0.1))
  (fp_arc (start -1.9 -12.72) (end -2.05 -11.6) (angle 230.000000) (layer F.Fab) (width 0.1))
  (fp_arc (start -1.9 12.72) (end -0.85 13.45) (angle 222.800000) (layer F.SilkS) (width 0.12))
  (fp_arc (start -1.9 -12.72) (end -2.81 -11.82) (angle 191.000000) (layer F.SilkS) (width 0.12))
  (fp_line (start 2.05 -13.32) (end 2.05 13.32) (layer F.Fab) (width 0.1))
  (fp_line (start 2.05 13.32) (end -0.95 13.32) (layer F.Fab) (width 0.1))
  (fp_line (start -2.05 11.6) (end -2.05 -10.2) (layer F.Fab) (width 0.1))
  (fp_line (start -2.05 -10.2) (end -1.45 -10.79) (layer F.Fab) (width 0.1))
  (fp_line (start -1.45 -10.79) (end -2.05 -11.39) (layer F.Fab) (width 0.1))
  (fp_line (start -2.05 -11.39) (end -2.05 -11.6) (layer F.Fab) (width 0.1))
  (fp_line (start 2.05 -13.32) (end -0.93 -13.32) (layer F.Fab) (width 0.1))
  (fp_line (start 2.18 -13.45) (end 2.18 -10.43) (layer F.SilkS) (width 0.12))
  (fp_line (start 2.18 -8.53) (end 2.18 -7.98) (layer F.SilkS) (width 0.12))
  (fp_line (start 2.18 -5.93) (end 2.18 -5.5) (layer F.SilkS) (width 0.12))
  (fp_line (start 2.18 -3.39) (end 2.18 -2.96) (layer F.SilkS) (width 0.12))
  (fp_line (start 2.18 -0.85) (end 2.18 -0.42) (layer F.SilkS) (width 0.12))
  (fp_line (start 2.18 1.69) (end 2.18 2.12) (layer F.SilkS) (width 0.12))
  (fp_line (start 2.18 4.23) (end 2.18 4.66) (layer F.SilkS) (width 0.12))
  (fp_line (start 2.18 6.77) (end 2.18 7.2) (layer F.SilkS) (width 0.12))
  (fp_line (start 2.18 9.31) (end 2.18 9.74) (layer F.SilkS) (width 0.12))
  (fp_line (start 2.18 11.7) (end 2.18 13.45) (layer F.SilkS) (width 0.12))
  (fp_line (start 2.18 13.45) (end -0.85 13.45) (layer F.SilkS) (width 0.12))
  (fp_line (start -2.18 11.47) (end -2.18 10.43) (layer F.SilkS) (width 0.12))
  (fp_line (start -2.18 8.53) (end -2.18 7.98) (layer F.SilkS) (width 0.12))
  (fp_line (start -2.18 6.04) (end -2.18 5.38) (layer F.SilkS) (width 0.12))
  (fp_line (start -2.18 3.51) (end -2.18 2.84) (layer F.SilkS) (width 0.12))
  (fp_line (start -2.18 0.97) (end -2.18 0.3) (layer F.SilkS) (width 0.12))
  (fp_line (start -2.18 -1.57) (end -2.18 -2.24) (layer F.SilkS) (width 0.12))
  (fp_line (start -2.18 -4.12) (end -2.18 -4.78) (layer F.SilkS) (width 0.12))
  (fp_line (start -2.18 -6.66) (end -2.18 -7.32) (layer F.SilkS) (width 0.12))
  (fp_line (start -2.18 -9.19) (end -2.18 -9.86) (layer F.SilkS) (width 0.12))
  (fp_line (start -2.81 -11.82) (end -2.81 -11.7) (layer F.SilkS) (width 0.12))
  (fp_line (start -2.81 -11.7) (end -4 -11.7) (layer F.SilkS) (width 0.12))
  (fp_line (start 2.18 -13.45) (end -0.82 -13.45) (layer F.SilkS) (width 0.12))
  (fp_line (start -3.95 -13.32) (end -3.95 13.32) (layer Dwgs.User) (width 0.1))
  (fp_line (start -3.95 13.32) (end 3.95 13.32) (layer Dwgs.User) (width 0.1))
  (fp_line (start 3.95 13.32) (end 3.95 -13.32) (layer Dwgs.User) (width 0.1))
  (fp_line (start 3.95 -13.32) (end -3.95 -13.32) (layer Dwgs.User) (width 0.1))
  (fp_line (start -3.95 -10.78) (end -1.41 -13.32) (layer Dwgs.User) (width 0.1))
  (fp_line (start -3.95 -8.24) (end 1.13 -13.32) (layer Dwgs.User) (width 0.1))
  (fp_line (start -3.95 -5.7) (end 3.67 -13.32) (layer Dwgs.User) (width 0.1))
  (fp_line (start -3.95 -3.16) (end 3.95 -11.06) (layer Dwgs.User) (width 0.1))
  (fp_line (start -3.95 -0.62) (end 3.95 -8.52) (layer Dwgs.User) (width 0.1))
  (fp_line (start -3.95 1.92) (end 3.95 -5.98) (layer Dwgs.User) (width 0.1))
  (fp_line (start -3.95 4.46) (end 3.95 -3.44) (layer Dwgs.User) (width 0.1))
  (fp_line (start -3.95 7) (end 3.95 -0.9) (layer Dwgs.User) (width 0.1))
  (fp_line (start -3.95 9.54) (end 3.95 1.64) (layer Dwgs.User) (width 0.1))
  (fp_line (start -3.95 12.08) (end 3.95 4.18) (layer Dwgs.User) (width 0.1))
  (fp_line (start -2.65 13.32) (end 3.95 6.72) (layer Dwgs.User) (width 0.1))
  (fp_line (start -0.11 13.32) (end 3.95 9.26) (layer Dwgs.User) (width 0.1))
  (fp_line (start 2.43 13.32) (end 3.95 11.8) (layer Dwgs.User) (width 0.1))
  (fp_line (start -4.5 -14.34) (end -4.5 14.34) (layer F.CrtYd) (width 0.05))
  (fp_line (start -4.5 14.34) (end 4.5 14.34) (layer F.CrtYd) (width 0.05))
  (fp_line (start 4.5 14.34) (end 4.5 -14.34) (layer F.CrtYd) (width 0.05))
  (fp_line (start 4.5 -14.34) (end -4.5 -14.34) (layer F.CrtYd) (width 0.05))
  (pad 1 smd rect (at -3 -10.79) (size 2 1.2) (layers F.Cu F.Mask F.Paste))
  (pad 3 smd rect (at -3 -8.25) (size 2 1.2) (layers F.Cu F.Mask F.Paste))
  (pad 5 smd rect (at -3 -5.71) (size 2 1.2) (layers F.Cu F.Mask F.Paste))
  (pad 7 smd rect (at -3 -3.17) (size 2 1.2) (layers F.Cu F.Mask F.Paste))
  (pad 9 smd rect (at -3 -0.63) (size 2 1.2) (layers F.Cu F.Mask F.Paste))
  (pad 11 smd rect (at -3 1.91) (size 2 1.2) (layers F.Cu F.Mask F.Paste))
  (pad 13 smd rect (at -3 4.45) (size 2 1.2) (layers F.Cu F.Mask F.Paste))
  (pad 15 smd rect (at -3 6.99) (size 2 1.2) (layers F.Cu F.Mask F.Paste))
  (pad 17 smd rect (at -3 9.53) (size 2 1.2) (layers F.Cu F.Mask F.Paste))
  (pad 2 smd rect (at 3 -9.53) (size 2 1.2) (layers F.Cu F.Mask F.Paste))
  (pad 4 smd rect (at 3 -6.99) (size 2 1.2) (layers F.Cu F.Mask F.Paste))
  (pad 6 smd rect (at 3 -4.45) (size 2 1.2) (layers F.Cu F.Mask F.Paste))
  (pad 8 smd rect (at 3 -1.91) (size 2 1.2) (layers F.Cu F.Mask F.Paste))
  (pad 10 smd rect (at 3 0.63) (size 2 1.2) (layers F.Cu F.Mask F.Paste))
  (pad 12 smd rect (at 3 3.17) (size 2 1.2) (layers F.Cu F.Mask F.Paste))
  (pad 14 smd rect (at 3 5.71) (size 2 1.2) (layers F.Cu F.Mask F.Paste))
  (pad 16 smd rect (at 3 8.25) (size 2 1.2) (layers F.Cu F.Mask F.Paste))
  (pad 18 smd rect (at 3 10.79) (size 2 1.2) (layers F.Cu F.Mask F.Paste))
  (pad "" np_thru_hole circle (at -1.9 -12.72) (size 1.9 1.9) (drill 1.9) (layers *.Cu *.Mask))
  (pad "" np_thru_hole circle (at -1.9 12.72) (size 1.9 1.9) (drill 1.9) (layers *.Cu *.Mask))
  (fp_text user KEEPOUT (at 0 0 90) (layer Cmts.User)
    (effects (font (size 1 1) (thickness 0.15)))
  )
  (fp_text user %R (at -1.35 0 90) (layer F.Fab)
    (effects (font (size 1 1) (thickness 0.15)))
  )
  (model ${KICAD6_3DMODEL_DIR}/Connector_Molex.3dshapes/Molex_Picoflex_90814-0018_2x09_P1.27mm_Vertical.wrl
    (at (xyz 0 0 0))
    (scale (xyz 1 1 1))
    (rotate (xyz 0 0 0))
  )
)