(module Molex_Mini-Fit_Jr_5569-18A2_2x09_P4.20mm_Horizontal (layer F.Cu) (tedit 5B7818E8)
  (descr "Molex Mini-Fit Jr. Power Connectors, old mpn/engineering number: 5569-18A2, example for new mpn: 39-30-0180, 9 Pins per row, Mounting: Snap-in Plastic Peg PCB Lock (http://www.molex.com/pdm_docs/sd/039300020_sd.pdf), generated with kicad-footprint-generator")
  (tags "connector Molex Mini-Fit_Jr top entryplastic_peg")
  (fp_text reference REF** (at 16.8 -15.1) (layer F.SilkS)
    (effects (font (size 1 1) (thickness 0.15)))
  )
  (fp_text value Molex_Mini-Fit_Jr_5569-18A2_2x09_P4.20mm_Horizontal (at 16.8 8.55) (layer F.Fab)
    (effects (font (size 1 1) (thickness 0.15)))
  )
  (fp_line (start -2.7 -13.9) (end -2.7 -1.1) (layer F.Fab) (width 0.1))
  (fp_line (start -2.7 -1.1) (end 36.3 -1.1) (layer F.Fab) (width 0.1))
  (fp_line (start 36.3 -1.1) (end 36.3 -13.9) (layer F.Fab) (width 0.1))
  (fp_line (start 36.3 -13.9) (end -2.7 -13.9) (layer F.Fab) (width 0.1))
  (fp_line (start -2 -0.99) (end -2.81 -0.99) (layer F.SilkS) (width 0.12))
  (fp_line (start -2.81 -0.99) (end -2.81 -14.01) (layer F.SilkS) (width 0.12))
  (fp_line (start -2.81 -14.01) (end 16.8 -14.01) (layer F.SilkS) (width 0.12))
  (fp_line (start 35.6 -0.99) (end 36.41 -0.99) (layer F.SilkS) (width 0.12))
  (fp_line (start 36.41 -0.99) (end 36.41 -14.01) (layer F.SilkS) (width 0.12))
  (fp_line (start 36.41 -14.01) (end 16.8 -14.01) (layer F.SilkS) (width 0.12))
  (fp_line (start -0.3 2.11) (end -0.3 3.39) (layer F.SilkS) (width 0.12))
  (fp_line (start 0.3 2.11) (end 0.3 3.39) (layer F.SilkS) (width 0.12))
  (fp_line (start 3.9 2.11) (end 3.9 3.39) (layer F.SilkS) (width 0.12))
  (fp_line (start 4.5 2.11) (end 4.5 3.39) (layer F.SilkS) (width 0.12))
  (fp_line (start 8.1 2.11) (end 8.1 3.39) (layer F.SilkS) (width 0.12))
  (fp_line (start 8.7 2.11) (end 8.7 3.39) (layer F.SilkS) (width 0.12))
  (fp_line (start 12.3 2.11) (end 12.3 3.39) (layer F.SilkS) (width 0.12))
  (fp_line (start 12.9 2.11) (end 12.9 3.39) (layer F.SilkS) (width 0.12))
  (fp_line (start 16.5 2.11) (end 16.5 3.39) (layer F.SilkS) (width 0.12))
  (fp_line (start 17.1 2.11) (end 17.1 3.39) (layer F.SilkS) (width 0.12))
  (fp_line (start 20.7 2.11) (end 20.7 3.39) (layer F.SilkS) (width 0.12))
  (fp_line (start 21.3 2.11) (end 21.3 3.39) (layer F.SilkS) (width 0.12))
  (fp_line (start 24.9 2.11) (end 24.9 3.39) (layer F.SilkS) (width 0.12))
  (fp_line (start 25.5 2.11) (end 25.5 3.39) (layer F.SilkS) (width 0.12))
  (fp_line (start 29.1 2.11) (end 29.1 3.39) (layer F.SilkS) (width 0.12))
  (fp_line (start 29.7 2.11) (end 29.7 3.39) (layer F.SilkS) (width 0.12))
  (fp_line (start 33.3 2.11) (end 33.3 3.39) (layer F.SilkS) (width 0.12))
  (fp_line (start 33.9 2.11) (end 33.9 3.39) (layer F.SilkS) (width 0.12))
  (fp_line (start 1.61 -1) (end 2.59 -1) (layer F.SilkS) (width 0.12))
  (fp_line (start 5.81 -1) (end 6.79 -1) (layer F.SilkS) (width 0.12))
  (fp_line (start 10.01 -1) (end 10.99 -1) (layer F.SilkS) (width 0.12))
  (fp_line (start 14.21 -1) (end 15.19 -1) (layer F.SilkS) (width 0.12))
  (fp_line (start 18.41 -1) (end 19.39 -1) (layer F.SilkS) (width 0.12))
  (fp_line (start 22.61 -1) (end 23.59 -1) (layer F.SilkS) (width 0.12))
  (fp_line (start 26.81 -1) (end 27.79 -1) (layer F.SilkS) (width 0.12))
  (fp_line (start 31.01 -1) (end 31.99 -1) (layer F.SilkS) (width 0.12))
  (fp_line (start -2 0) (end -2.6 0.3) (layer F.SilkS) (width 0.12))
  (fp_line (start -2.6 0.3) (end -2.6 -0.3) (layer F.SilkS) (width 0.12))
  (fp_line (start -2.6 -0.3) (end -2 0) (layer F.SilkS) (width 0.12))
  (fp_line (start -1 -1.1) (end 0 -2.514214) (layer F.Fab) (width 0.1))
  (fp_line (start 0 -2.514214) (end 1 -1.1) (layer F.Fab) (width 0.1))
  (fp_line (start -3.2 -14.4) (end -3.2 7.85) (layer F.CrtYd) (width 0.05))
  (fp_line (start -3.2 7.85) (end 36.8 7.85) (layer F.CrtYd) (width 0.05))
  (fp_line (start 36.8 7.85) (end 36.8 -14.4) (layer F.CrtYd) (width 0.05))
  (fp_line (start 36.8 -14.4) (end -3.2 -14.4) (layer F.CrtYd) (width 0.05))
  (pad 1 thru_hole roundrect (at 0 0) (size 2.7 3.7) (drill 1.8) (layers *.Cu *.Mask) (roundrect_rratio 0.092593))
  (pad 2 thru_hole oval (at 4.2 0) (size 2.7 3.7) (drill 1.8) (layers *.Cu *.Mask))
  (pad 3 thru_hole oval (at 8.4 0) (size 2.7 3.7) (drill 1.8) (layers *.Cu *.Mask))
  (pad 4 thru_hole oval (at 12.6 0) (size 2.7 3.7) (drill 1.8) (layers *.Cu *.Mask))
  (pad 5 thru_hole oval (at 16.8 0) (size 2.7 3.7) (drill 1.8) (layers *.Cu *.Mask))
  (pad 6 thru_hole oval (at 21 0) (size 2.7 3.7) (drill 1.8) (layers *.Cu *.Mask))
  (pad 7 thru_hole oval (at 25.2 0) (size 2.7 3.7) (drill 1.8) (layers *.Cu *.Mask))
  (pad 8 thru_hole oval (at 29.4 0) (size 2.7 3.7) (drill 1.8) (layers *.Cu *.Mask))
  (pad 9 thru_hole oval (at 33.6 0) (size 2.7 3.7) (drill 1.8) (layers *.Cu *.Mask))
  (pad 10 thru_hole oval (at 0 5.5) (size 2.7 3.7) (drill 1.8) (layers *.Cu *.Mask))
  (pad 11 thru_hole oval (at 4.2 5.5) (size 2.7 3.7) (drill 1.8) (layers *.Cu *.Mask))
  (pad 12 thru_hole oval (at 8.4 5.5) (size 2.7 3.7) (drill 1.8) (layers *.Cu *.Mask))
  (pad 13 thru_hole oval (at 12.6 5.5) (size 2.7 3.7) (drill 1.8) (layers *.Cu *.Mask))
  (pad 14 thru_hole oval (at 16.8 5.5) (size 2.7 3.7) (drill 1.8) (layers *.Cu *.Mask))
  (pad 15 thru_hole oval (at 21 5.5) (size 2.7 3.7) (drill 1.8) (layers *.Cu *.Mask))
  (pad 16 thru_hole oval (at 25.2 5.5) (size 2.7 3.7) (drill 1.8) (layers *.Cu *.Mask))
  (pad 17 thru_hole oval (at 29.4 5.5) (size 2.7 3.7) (drill 1.8) (layers *.Cu *.Mask))
  (pad 18 thru_hole oval (at 33.6 5.5) (size 2.7 3.7) (drill 1.8) (layers *.Cu *.Mask))
  (pad "" np_thru_hole circle (at 0 -7.3) (size 3 3) (drill 3) (layers *.Cu *.Mask))
  (pad "" np_thru_hole circle (at 33.6 -7.3) (size 3 3) (drill 3) (layers *.Cu *.Mask))
  (fp_text user %R (at 16.8 -13.2) (layer F.Fab)
    (effects (font (size 1 1) (thickness 0.15)))
  )
  (model ${KICAD6_3DMODEL_DIR}/Connector_Molex.3dshapes/Molex_Mini-Fit_Jr_5569-18A2_2x09_P4.20mm_Horizontal.wrl
    (at (xyz 0 0 0))
    (scale (xyz 1 1 1))
    (rotate (xyz 0 0 0))
  )
)