(module Molex_MicroClasp_55932-0410_1x04_P2.00mm_Vertical (layer F.Cu) (tedit 5B7810CC)
  (descr "Molex MicroClasp Wire-to-Board System, 55932-0410, with PCB locator, 4 Pins (http://www.molex.com/pdm_docs/sd/559320210_sd.pdf), generated with kicad-footprint-generator")
  (tags "connector Molex MicroClasp side entry")
  (fp_text reference REF** (at 3 -4.9) (layer F.SilkS)
    (effects (font (size 1 1) (thickness 0.15)))
  )
  (fp_text value Molex_MicroClasp_55932-0410_1x04_P2.00mm_Vertical (at 3 4.2) (layer F.Fab)
    (effects (font (size 1 1) (thickness 0.15)))
  )
  (fp_line (start 3 -3.7) (end -0.39 -3.7) (layer F.Fab) (width 0.1))
  (fp_line (start -0.39 -3.7) (end -0.39 -2.8) (layer F.Fab) (width 0.1))
  (fp_line (start -0.39 -2.8) (end -3 -2.8) (layer F.Fab) (width 0.1))
  (fp_line (start -3 -2.8) (end -3 3) (layer F.Fab) (width 0.1))
  (fp_line (start -3 3) (end 3 3) (layer F.Fab) (width 0.1))
  (fp_line (start 3 -3.7) (end 6.39 -3.7) (layer F.Fab) (width 0.1))
  (fp_line (start 6.39 -3.7) (end 6.39 -2.8) (layer F.Fab) (width 0.1))
  (fp_line (start 6.39 -2.8) (end 9 -2.8) (layer F.Fab) (width 0.1))
  (fp_line (start 9 -2.8) (end 9 3) (layer F.Fab) (width 0.1))
  (fp_line (start 9 3) (end 3 3) (layer F.Fab) (width 0.1))
  (fp_line (start 3 -3.81) (end -0.5 -3.81) (layer F.SilkS) (width 0.12))
  (fp_line (start -0.5 -3.81) (end -0.5 -2.91) (layer F.SilkS) (width 0.12))
  (fp_line (start -0.5 -2.91) (end -3.11 -2.91) (layer F.SilkS) (width 0.12))
  (fp_line (start -3.11 -2.91) (end -3.11 3.11) (layer F.SilkS) (width 0.12))
  (fp_line (start -3.11 3.11) (end 3 3.11) (layer F.SilkS) (width 0.12))
  (fp_line (start 3 -3.81) (end 6.5 -3.81) (layer F.SilkS) (width 0.12))
  (fp_line (start 6.5 -3.81) (end 6.5 -2.91) (layer F.SilkS) (width 0.12))
  (fp_line (start 6.5 -2.91) (end 9.11 -2.91) (layer F.SilkS) (width 0.12))
  (fp_line (start 9.11 -2.91) (end 9.11 3.11) (layer F.SilkS) (width 0.12))
  (fp_line (start 9.11 3.11) (end 3 3.11) (layer F.SilkS) (width 0.12))
  (fp_line (start -3.41 1) (end -3.41 3.41) (layer F.SilkS) (width 0.12))
  (fp_line (start -3.41 3.41) (end -1 3.41) (layer F.SilkS) (width 0.12))
  (fp_line (start -0.5 3) (end 0 2.292893) (layer F.Fab) (width 0.1))
  (fp_line (start 0 2.292893) (end 0.5 3) (layer F.Fab) (width 0.1))
  (fp_line (start -3.5 -4.2) (end -3.5 3.5) (layer F.CrtYd) (width 0.05))
  (fp_line (start -3.5 3.5) (end 9.5 3.5) (layer F.CrtYd) (width 0.05))
  (fp_line (start 9.5 3.5) (end 9.5 -4.2) (layer F.CrtYd) (width 0.05))
  (fp_line (start 9.5 -4.2) (end -3.5 -4.2) (layer F.CrtYd) (width 0.05))
  (pad 1 thru_hole roundrect (at 0 0) (size 1.2 1.8) (drill 0.8) (layers *.Cu *.Mask) (roundrect_rratio 0.208333))
  (pad 2 thru_hole oval (at 2 0) (size 1.2 1.8) (drill 0.8) (layers *.Cu *.Mask))
  (pad 3 thru_hole oval (at 4 0) (size 1.2 1.8) (drill 0.8) (layers *.Cu *.Mask))
  (pad 4 thru_hole oval (at 6 0) (size 1.2 1.8) (drill 0.8) (layers *.Cu *.Mask))
  (pad "" np_thru_hole circle (at 8 -1.9) (size 1.3 1.3) (drill 1.3) (layers *.Cu *.Mask))
  (fp_text user %R (at 3 -2.1) (layer F.Fab)
    (effects (font (size 1 1) (thickness 0.15)))
  )
  (model ${KICAD6_3DMODEL_DIR}/Connector_Molex.3dshapes/Molex_MicroClasp_55932-0410_1x04_P2.00mm_Vertical.wrl
    (at (xyz 0 0 0))
    (scale (xyz 1 1 1))
    (rotate (xyz 0 0 0))
  )
)