(module Molex_Mega-Fit_76825-0012_2x06_P5.70mm_Horizontal (layer F.Cu) (tedit 5B780151)
  (descr "Molex Mega-Fit Power Connectors, 76825-0012 (compatible alternatives: 172064-0012, 172064-1012), 6 Pins per row (http://www.molex.com/pdm_docs/sd/1720640002_sd.pdf), generated with kicad-footprint-generator")
  (tags "connector Molex Mega-Fit top entry")
  (fp_text reference REF** (at 14.25 -17.1) (layer F.SilkS)
    (effects (font (size 1 1) (thickness 0.15)))
  )
  (fp_text value Molex_Mega-Fit_76825-0012_2x06_P5.70mm_Horizontal (at 14.25 8.55) (layer F.Fab)
    (effects (font (size 1 1) (thickness 0.15)))
  )
  (fp_circle (center 0 -7.3) (end 1.76 -7.3) (layer F.SilkS) (width 0.12))
  (fp_circle (center 28.5 -7.3) (end 30.26 -7.3) (layer F.SilkS) (width 0.12))
  (fp_line (start -3.175 -15.9) (end -3.175 -1.1) (layer F.Fab) (width 0.1))
  (fp_line (start -3.175 -1.1) (end 31.675 -1.1) (layer F.Fab) (width 0.1))
  (fp_line (start 31.675 -1.1) (end 31.675 -15.9) (layer F.Fab) (width 0.1))
  (fp_line (start 31.675 -15.9) (end -3.175 -15.9) (layer F.Fab) (width 0.1))
  (fp_line (start 14.25 -16.01) (end -3.285 -16.01) (layer F.SilkS) (width 0.12))
  (fp_line (start -3.285 -16.01) (end -3.285 -0.99) (layer F.SilkS) (width 0.12))
  (fp_line (start -3.285 -0.99) (end -2.11 -0.99) (layer F.SilkS) (width 0.12))
  (fp_line (start 14.25 -16.01) (end 31.785 -16.01) (layer F.SilkS) (width 0.12))
  (fp_line (start 31.785 -16.01) (end 31.785 -0.99) (layer F.SilkS) (width 0.12))
  (fp_line (start 31.785 -0.99) (end 30.61 -0.99) (layer F.SilkS) (width 0.12))
  (fp_line (start 2.11 -0.99) (end 3.59 -0.99) (layer F.SilkS) (width 0.12))
  (fp_line (start 7.81 -0.99) (end 9.29 -0.99) (layer F.SilkS) (width 0.12))
  (fp_line (start 13.51 -0.99) (end 14.99 -0.99) (layer F.SilkS) (width 0.12))
  (fp_line (start 19.21 -0.99) (end 20.69 -0.99) (layer F.SilkS) (width 0.12))
  (fp_line (start 24.91 -0.99) (end 26.39 -0.99) (layer F.SilkS) (width 0.12))
  (fp_line (start -0.3 2.11) (end -0.3 3.39) (layer F.SilkS) (width 0.12))
  (fp_line (start 0.3 2.11) (end 0.3 3.39) (layer F.SilkS) (width 0.12))
  (fp_line (start 5.4 2.11) (end 5.4 3.39) (layer F.SilkS) (width 0.12))
  (fp_line (start 6 2.11) (end 6 3.39) (layer F.SilkS) (width 0.12))
  (fp_line (start 11.1 2.11) (end 11.1 3.39) (layer F.SilkS) (width 0.12))
  (fp_line (start 11.7 2.11) (end 11.7 3.39) (layer F.SilkS) (width 0.12))
  (fp_line (start 16.8 2.11) (end 16.8 3.39) (layer F.SilkS) (width 0.12))
  (fp_line (start 17.4 2.11) (end 17.4 3.39) (layer F.SilkS) (width 0.12))
  (fp_line (start 22.5 2.11) (end 22.5 3.39) (layer F.SilkS) (width 0.12))
  (fp_line (start 23.1 2.11) (end 23.1 3.39) (layer F.SilkS) (width 0.12))
  (fp_line (start 28.2 2.11) (end 28.2 3.39) (layer F.SilkS) (width 0.12))
  (fp_line (start 28.8 2.11) (end 28.8 3.39) (layer F.SilkS) (width 0.12))
  (fp_line (start -2.5 0) (end -3.1 0.3) (layer F.SilkS) (width 0.12))
  (fp_line (start -3.1 0.3) (end -3.1 -0.3) (layer F.SilkS) (width 0.12))
  (fp_line (start -3.1 -0.3) (end -2.5 0) (layer F.SilkS) (width 0.12))
  (fp_line (start -1 -1.1) (end 0 -2.514214) (layer F.Fab) (width 0.1))
  (fp_line (start 0 -2.514214) (end 1 -1.1) (layer F.Fab) (width 0.1))
  (fp_line (start -3.68 -16.4) (end -3.68 7.85) (layer F.CrtYd) (width 0.05))
  (fp_line (start -3.68 7.85) (end 32.17 7.85) (layer F.CrtYd) (width 0.05))
  (fp_line (start 32.17 7.85) (end 32.17 -16.4) (layer F.CrtYd) (width 0.05))
  (fp_line (start 32.17 -16.4) (end -3.68 -16.4) (layer F.CrtYd) (width 0.05))
  (pad 1 thru_hole roundrect (at 0 0) (size 3.7 3.7) (drill 1.8) (layers *.Cu *.Mask) (roundrect_rratio 0.067568))
  (pad 2 thru_hole circle (at 5.7 0) (size 3.7 3.7) (drill 1.8) (layers *.Cu *.Mask))
  (pad 3 thru_hole circle (at 11.4 0) (size 3.7 3.7) (drill 1.8) (layers *.Cu *.Mask))
  (pad 4 thru_hole circle (at 17.1 0) (size 3.7 3.7) (drill 1.8) (layers *.Cu *.Mask))
  (pad 5 thru_hole circle (at 22.8 0) (size 3.7 3.7) (drill 1.8) (layers *.Cu *.Mask))
  (pad 6 thru_hole circle (at 28.5 0) (size 3.7 3.7) (drill 1.8) (layers *.Cu *.Mask))
  (pad 7 thru_hole circle (at 0 5.5) (size 3.7 3.7) (drill 1.8) (layers *.Cu *.Mask))
  (pad 8 thru_hole circle (at 5.7 5.5) (size 3.7 3.7) (drill 1.8) (layers *.Cu *.Mask))
  (pad 9 thru_hole circle (at 11.4 5.5) (size 3.7 3.7) (drill 1.8) (layers *.Cu *.Mask))
  (pad 10 thru_hole circle (at 17.1 5.5) (size 3.7 3.7) (drill 1.8) (layers *.Cu *.Mask))
  (pad 11 thru_hole circle (at 22.8 5.5) (size 3.7 3.7) (drill 1.8) (layers *.Cu *.Mask))
  (pad 12 thru_hole circle (at 28.5 5.5) (size 3.7 3.7) (drill 1.8) (layers *.Cu *.Mask))
  (pad "" np_thru_hole circle (at 0 -7.3) (size 3 3) (drill 3) (layers *.Cu *.Mask))
  (pad "" np_thru_hole circle (at 28.5 -7.3) (size 3 3) (drill 3) (layers *.Cu *.Mask))
  (fp_text user %R (at 14.25 -15.2) (layer F.Fab)
    (effects (font (size 1 1) (thickness 0.15)))
  )
  (model ${KICAD6_3DMODEL_DIR}/Connector_Molex.3dshapes/Molex_Mega-Fit_76825-0012_2x06_P5.70mm_Horizontal.wrl
    (at (xyz 0 0 0))
    (scale (xyz 1 1 1))
    (rotate (xyz 0 0 0))
  )
)