(module Molex_Micro-Fit_3.0_43650-0400_1x04_P3.00mm_Horizontal (layer F.Cu) (tedit 5B79A392)
  (descr "Molex Micro-Fit 3.0 Connector System, 43650-0400 (compatible alternatives: 43650-0401, 43650-0402), 4 Pins per row (https://www.molex.com/pdm_docs/sd/436500300_sd.pdf), generated with kicad-footprint-generator")
  (tags "connector Molex Micro-Fit_3.0 top entry")
  (fp_text reference REF** (at 4.5 -10.12) (layer F.SilkS)
    (effects (font (size 1 1) (thickness 0.15)))
  )
  (fp_text value Molex_Micro-Fit_3.0_43650-0400_1x04_P3.00mm_Horizontal (at 4.5 3.22) (layer F.Fab)
    (effects (font (size 1 1) (thickness 0.15)))
  )
  (fp_line (start -3.325 0.98) (end -3.325 -7.92) (layer F.Fab) (width 0.1))
  (fp_line (start -3.325 -7.92) (end -2.325 -8.92) (layer F.Fab) (width 0.1))
  (fp_line (start -2.325 -8.92) (end 11.325 -8.92) (layer F.Fab) (width 0.1))
  (fp_line (start 11.325 -8.92) (end 12.325 -7.92) (layer F.Fab) (width 0.1))
  (fp_line (start 12.325 -7.92) (end 12.325 0.98) (layer F.Fab) (width 0.1))
  (fp_line (start 12.325 0.98) (end -3.325 0.98) (layer F.Fab) (width 0.1))
  (fp_line (start -0.75 0.98) (end 0 0) (layer F.Fab) (width 0.1))
  (fp_line (start 0 0) (end 0.75 0.98) (layer F.Fab) (width 0.1))
  (fp_line (start -3.435 1.09) (end -3.435 -8.03) (layer F.SilkS) (width 0.12))
  (fp_line (start -3.435 -8.03) (end -2.435 -9.03) (layer F.SilkS) (width 0.12))
  (fp_line (start -2.435 -9.03) (end 11.435 -9.03) (layer F.SilkS) (width 0.12))
  (fp_line (start 11.435 -9.03) (end 12.435 -8.03) (layer F.SilkS) (width 0.12))
  (fp_line (start 12.435 -8.03) (end 12.435 1.09) (layer F.SilkS) (width 0.12))
  (fp_line (start -3.435 1.09) (end -1.01 1.09) (layer F.SilkS) (width 0.12))
  (fp_line (start 12.435 1.09) (end 9.651767 1.09) (layer F.SilkS) (width 0.12))
  (fp_line (start 1.01 1.09) (end 2.348233 1.09) (layer F.SilkS) (width 0.12))
  (fp_line (start 3.651767 1.09) (end 5.348233 1.09) (layer F.SilkS) (width 0.12))
  (fp_line (start 6.651767 1.09) (end 8.348233 1.09) (layer F.SilkS) (width 0.12))
  (fp_line (start -3.82 1.48) (end -3.82 -9.42) (layer F.CrtYd) (width 0.05))
  (fp_line (start -3.82 -9.42) (end 12.82 -9.42) (layer F.CrtYd) (width 0.05))
  (fp_line (start 12.82 -9.42) (end 12.82 1.48) (layer F.CrtYd) (width 0.05))
  (fp_line (start 12.82 1.48) (end -3.82 1.48) (layer F.CrtYd) (width 0.05))
  (pad "" np_thru_hole circle (at 2.15 -4.32) (size 3 3) (drill 3) (layers *.Cu *.Mask))
  (pad "" np_thru_hole circle (at 6.85 -4.32) (size 3 3) (drill 3) (layers *.Cu *.Mask))
  (pad 1 thru_hole roundrect (at 0 0) (size 1.5 2.02) (drill 1.02) (layers *.Cu *.Mask) (roundrect_rratio 0.166667))
  (pad 2 thru_hole oval (at 3 0) (size 1.5 2.02) (drill 1.02) (layers *.Cu *.Mask))
  (pad 3 thru_hole oval (at 6 0) (size 1.5 2.02) (drill 1.02) (layers *.Cu *.Mask))
  (pad 4 thru_hole oval (at 9 0) (size 1.5 2.02) (drill 1.02) (layers *.Cu *.Mask))
  (fp_text user %R (at 4.5 -8.22) (layer F.Fab)
    (effects (font (size 1 1) (thickness 0.15)))
  )
  (model ${KICAD6_3DMODEL_DIR}/Connector_Molex.3dshapes/Molex_Micro-Fit_3.0_43650-0400_1x04_P3.00mm_Horizontal.wrl
    (at (xyz 0 0 0))
    (scale (xyz 1 1 1))
    (rotate (xyz 0 0 0))
  )
)