(module Molex_MicroClasp_55932-1510_1x15_P2.00mm_Vertical (layer F.Cu) (tedit 5B7810CC)
  (descr "Molex MicroClasp Wire-to-Board System, 55932-1510, with PCB locator, 15 Pins (http://www.molex.com/pdm_docs/sd/559320210_sd.pdf), generated with kicad-footprint-generator")
  (tags "connector Molex MicroClasp side entry")
  (fp_text reference REF** (at 14 -4.9) (layer F.SilkS)
    (effects (font (size 1 1) (thickness 0.15)))
  )
  (fp_text value Molex_MicroClasp_55932-1510_1x15_P2.00mm_Vertical (at 14 4.2) (layer F.Fab)
    (effects (font (size 1 1) (thickness 0.15)))
  )
  (fp_line (start 14 -3.7) (end 10.61 -3.7) (layer F.Fab) (width 0.1))
  (fp_line (start 10.61 -3.7) (end 10.61 -2.8) (layer F.Fab) (width 0.1))
  (fp_line (start 10.61 -2.8) (end -3 -2.8) (layer F.Fab) (width 0.1))
  (fp_line (start -3 -2.8) (end -3 3) (layer F.Fab) (width 0.1))
  (fp_line (start -3 3) (end 14 3) (layer F.Fab) (width 0.1))
  (fp_line (start 14 -3.7) (end 17.39 -3.7) (layer F.Fab) (width 0.1))
  (fp_line (start 17.39 -3.7) (end 17.39 -2.8) (layer F.Fab) (width 0.1))
  (fp_line (start 17.39 -2.8) (end 31 -2.8) (layer F.Fab) (width 0.1))
  (fp_line (start 31 -2.8) (end 31 3) (layer F.Fab) (width 0.1))
  (fp_line (start 31 3) (end 14 3) (layer F.Fab) (width 0.1))
  (fp_line (start 14 -3.81) (end 10.5 -3.81) (layer F.SilkS) (width 0.12))
  (fp_line (start 10.5 -3.81) (end 10.5 -2.91) (layer F.SilkS) (width 0.12))
  (fp_line (start 10.5 -2.91) (end -3.11 -2.91) (layer F.SilkS) (width 0.12))
  (fp_line (start -3.11 -2.91) (end -3.11 3.11) (layer F.SilkS) (width 0.12))
  (fp_line (start -3.11 3.11) (end 14 3.11) (layer F.SilkS) (width 0.12))
  (fp_line (start 14 -3.81) (end 17.5 -3.81) (layer F.SilkS) (width 0.12))
  (fp_line (start 17.5 -3.81) (end 17.5 -2.91) (layer F.SilkS) (width 0.12))
  (fp_line (start 17.5 -2.91) (end 31.11 -2.91) (layer F.SilkS) (width 0.12))
  (fp_line (start 31.11 -2.91) (end 31.11 3.11) (layer F.SilkS) (width 0.12))
  (fp_line (start 31.11 3.11) (end 14 3.11) (layer F.SilkS) (width 0.12))
  (fp_line (start -3.41 1) (end -3.41 3.41) (layer F.SilkS) (width 0.12))
  (fp_line (start -3.41 3.41) (end -1 3.41) (layer F.SilkS) (width 0.12))
  (fp_line (start -0.5 3) (end 0 2.292893) (layer F.Fab) (width 0.1))
  (fp_line (start 0 2.292893) (end 0.5 3) (layer F.Fab) (width 0.1))
  (fp_line (start -3.5 -4.2) (end -3.5 3.5) (layer F.CrtYd) (width 0.05))
  (fp_line (start -3.5 3.5) (end 31.5 3.5) (layer F.CrtYd) (width 0.05))
  (fp_line (start 31.5 3.5) (end 31.5 -4.2) (layer F.CrtYd) (width 0.05))
  (fp_line (start 31.5 -4.2) (end -3.5 -4.2) (layer F.CrtYd) (width 0.05))
  (pad 1 thru_hole roundrect (at 0 0) (size 1.2 1.8) (drill 0.8) (layers *.Cu *.Mask) (roundrect_rratio 0.208333))
  (pad 2 thru_hole oval (at 2 0) (size 1.2 1.8) (drill 0.8) (layers *.Cu *.Mask))
  (pad 3 thru_hole oval (at 4 0) (size 1.2 1.8) (drill 0.8) (layers *.Cu *.Mask))
  (pad 4 thru_hole oval (at 6 0) (size 1.2 1.8) (drill 0.8) (layers *.Cu *.Mask))
  (pad 5 thru_hole oval (at 8 0) (size 1.2 1.8) (drill 0.8) (layers *.Cu *.Mask))
  (pad 6 thru_hole oval (at 10 0) (size 1.2 1.8) (drill 0.8) (layers *.Cu *.Mask))
  (pad 7 thru_hole oval (at 12 0) (size 1.2 1.8) (drill 0.8) (layers *.Cu *.Mask))
  (pad 8 thru_hole oval (at 14 0) (size 1.2 1.8) (drill 0.8) (layers *.Cu *.Mask))
  (pad 9 thru_hole oval (at 16 0) (size 1.2 1.8) (drill 0.8) (layers *.Cu *.Mask))
  (pad 10 thru_hole oval (at 18 0) (size 1.2 1.8) (drill 0.8) (layers *.Cu *.Mask))
  (pad 11 thru_hole oval (at 20 0) (size 1.2 1.8) (drill 0.8) (layers *.Cu *.Mask))
  (pad 12 thru_hole oval (at 22 0) (size 1.2 1.8) (drill 0.8) (layers *.Cu *.Mask))
  (pad 13 thru_hole oval (at 24 0) (size 1.2 1.8) (drill 0.8) (layers *.Cu *.Mask))
  (pad 14 thru_hole oval (at 26 0) (size 1.2 1.8) (drill 0.8) (layers *.Cu *.Mask))
  (pad 15 thru_hole oval (at 28 0) (size 1.2 1.8) (drill 0.8) (layers *.Cu *.Mask))
  (pad "" np_thru_hole circle (at 30 -1.9) (size 1.3 1.3) (drill 1.3) (layers *.Cu *.Mask))
  (fp_text user %R (at 14 -2.1) (layer F.Fab)
    (effects (font (size 1 1) (thickness 0.15)))
  )
  (model ${KICAD6_3DMODEL_DIR}/Connector_Molex.3dshapes/Molex_MicroClasp_55932-1510_1x15_P2.00mm_Vertical.wrl
    (at (xyz 0 0 0))
    (scale (xyz 1 1 1))
    (rotate (xyz 0 0 0))
  )
)