(module Molex_Mini-Fit_Sr_43915-xx06_2x03_P10.00mm_Vertical (layer F.Cu) (tedit 5B7821FB)
  (descr "Molex Mini-Fit Sr. Power Connectors, 43915-xx06, 3 Pins per row (http://www.molex.com/pdm_docs/sd/439151404_sd.pdf), generated with kicad-footprint-generator")
  (tags "connector Molex Mini-Fit_Sr side entry")
  (fp_text reference REF** (at 8.43 -11.65) (layer F.SilkS)
    (effects (font (size 1 1) (thickness 0.15)))
  )
  (fp_text value Molex_Mini-Fit_Sr_43915-xx06_2x03_P10.00mm_Vertical (at 8.43 31.65) (layer F.Fab)
    (effects (font (size 1 1) (thickness 0.15)))
  )
  (fp_line (start -2.51 -2.66) (end -2.51 2.66) (layer B.SilkS) (width 0.12))
  (fp_line (start -2.51 2.66) (end 6.91 2.66) (layer B.SilkS) (width 0.12))
  (fp_line (start 6.91 2.66) (end 6.91 -2.66) (layer B.SilkS) (width 0.12))
  (fp_line (start 6.91 -2.66) (end -2.51 -2.66) (layer B.SilkS) (width 0.12))
  (fp_line (start -1.15 -5.45) (end -1.15 25.45) (layer F.Fab) (width 0.1))
  (fp_line (start -1.15 25.45) (end 18.01 25.45) (layer F.Fab) (width 0.1))
  (fp_line (start 18.01 25.45) (end 18.01 -5.45) (layer F.Fab) (width 0.1))
  (fp_line (start 18.01 -5.45) (end -1.15 -5.45) (layer F.Fab) (width 0.1))
  (fp_line (start 6.43 -5.57) (end 1.81 -5.57) (layer F.SilkS) (width 0.12))
  (fp_line (start -1.27 22.66) (end -1.27 25.57) (layer F.SilkS) (width 0.12))
  (fp_line (start -1.27 25.57) (end 6.43 25.57) (layer F.SilkS) (width 0.12))
  (fp_line (start 18.13 -2.66) (end 18.13 -5.57) (layer F.SilkS) (width 0.12))
  (fp_line (start 18.13 -5.57) (end 10.43 -5.57) (layer F.SilkS) (width 0.12))
  (fp_line (start 18.13 22.66) (end 18.13 25.57) (layer F.SilkS) (width 0.12))
  (fp_line (start 18.13 25.57) (end 10.43 25.57) (layer F.SilkS) (width 0.12))
  (fp_line (start -1.27 2.66) (end -1.27 7.34) (layer F.SilkS) (width 0.12))
  (fp_line (start 18.13 2.66) (end 18.13 7.34) (layer F.SilkS) (width 0.12))
  (fp_line (start -1.27 12.66) (end -1.27 17.34) (layer F.SilkS) (width 0.12))
  (fp_line (start 18.13 12.66) (end 18.13 17.34) (layer F.SilkS) (width 0.12))
  (fp_line (start 1.93 -5.45) (end 1.93 -10.45) (layer F.Fab) (width 0.1))
  (fp_line (start 1.93 -10.45) (end 14.93 -10.45) (layer F.Fab) (width 0.1))
  (fp_line (start 14.93 -10.45) (end 14.93 -5.45) (layer F.Fab) (width 0.1))
  (fp_line (start 1.93 25.45) (end 1.93 30.45) (layer F.Fab) (width 0.1))
  (fp_line (start 1.93 30.45) (end 14.93 30.45) (layer F.Fab) (width 0.1))
  (fp_line (start 14.93 30.45) (end 14.93 25.45) (layer F.Fab) (width 0.1))
  (fp_line (start 1.81 -5.57) (end 1.81 -10.57) (layer F.SilkS) (width 0.12))
  (fp_line (start 1.81 -10.57) (end 15.05 -10.57) (layer F.SilkS) (width 0.12))
  (fp_line (start 15.05 -10.57) (end 15.05 -5.57) (layer F.SilkS) (width 0.12))
  (fp_line (start 1.81 25.57) (end 1.81 30.57) (layer F.SilkS) (width 0.12))
  (fp_line (start 1.81 30.57) (end 15.05 30.57) (layer F.SilkS) (width 0.12))
  (fp_line (start 15.05 30.57) (end 15.05 25.57) (layer F.SilkS) (width 0.12))
  (fp_line (start 3.81 -5.57) (end 3.81 -8.57) (layer F.SilkS) (width 0.12))
  (fp_line (start 3.81 -8.57) (end 13.05 -8.57) (layer F.SilkS) (width 0.12))
  (fp_line (start 13.05 -8.57) (end 13.05 -5.57) (layer F.SilkS) (width 0.12))
  (fp_line (start 3.81 25.57) (end 3.81 28.57) (layer F.SilkS) (width 0.12))
  (fp_line (start 3.81 28.57) (end 13.05 28.57) (layer F.SilkS) (width 0.12))
  (fp_line (start 13.05 28.57) (end 13.05 25.57) (layer F.SilkS) (width 0.12))
  (fp_line (start -2.65 0) (end -3.45 -0.4) (layer F.SilkS) (width 0.12))
  (fp_line (start -3.45 -0.4) (end -3.45 0.4) (layer F.SilkS) (width 0.12))
  (fp_line (start -3.45 0.4) (end -2.65 0) (layer F.SilkS) (width 0.12))
  (fp_line (start -1.15 -1.5) (end 0.97132 0) (layer F.Fab) (width 0.1))
  (fp_line (start 0.97132 0) (end -1.15 1.5) (layer F.Fab) (width 0.1))
  (fp_line (start -2.75 -10.95) (end -2.75 30.95) (layer F.CrtYd) (width 0.05))
  (fp_line (start -2.75 30.95) (end 19.61 30.95) (layer F.CrtYd) (width 0.05))
  (fp_line (start 19.61 30.95) (end 19.61 -10.95) (layer F.CrtYd) (width 0.05))
  (fp_line (start 19.61 -10.95) (end -2.75 -10.95) (layer F.CrtYd) (width 0.05))
  (pad 1 thru_hole rect (at 0 0) (size 4.5 4.8) (drill 2.8) (layers *.Cu *.Mask))
  (pad 2 thru_hole rect (at 0 10) (size 4.5 4.8) (drill 2.8) (layers *.Cu *.Mask))
  (pad 3 thru_hole rect (at 0 20) (size 4.5 4.8) (drill 2.8) (layers *.Cu *.Mask))
  (pad 1 thru_hole rect (at 4.4 0) (size 4.5 4.8) (drill 2.8) (layers *.Cu *.Mask))
  (pad 2 thru_hole rect (at 4.4 10) (size 4.5 4.8) (drill 2.8) (layers *.Cu *.Mask))
  (pad 3 thru_hole rect (at 4.4 20) (size 4.5 4.8) (drill 2.8) (layers *.Cu *.Mask))
  (pad 4 thru_hole rect (at 12.46 0) (size 4.5 4.8) (drill 2.8) (layers *.Cu *.Mask))
  (pad 5 thru_hole rect (at 12.46 10) (size 4.5 4.8) (drill 2.8) (layers *.Cu *.Mask))
  (pad 6 thru_hole rect (at 12.46 20) (size 4.5 4.8) (drill 2.8) (layers *.Cu *.Mask))
  (pad 4 thru_hole rect (at 16.86 0) (size 4.5 4.8) (drill 2.8) (layers *.Cu *.Mask))
  (pad 5 thru_hole rect (at 16.86 10) (size 4.5 4.8) (drill 2.8) (layers *.Cu *.Mask))
  (pad 6 thru_hole rect (at 16.86 20) (size 4.5 4.8) (drill 2.8) (layers *.Cu *.Mask))
  (pad "" np_thru_hole circle (at 8.43 5) (size 3 3) (drill 3) (layers *.Cu *.Mask))
  (pad "" thru_hole circle (at 8.43 -5.705) (size 3.5 3.5) (drill 3) (layers *.Cu *.Mask))
  (pad "" thru_hole circle (at 8.43 25.705) (size 3.5 3.5) (drill 3) (layers *.Cu *.Mask))
  (fp_text user %R (at 8.43 24.75) (layer F.Fab)
    (effects (font (size 1 1) (thickness 0.15)))
  )
  (model ${KICAD6_3DMODEL_DIR}/Connector_Molex.3dshapes/Molex_Mini-Fit_Sr_43915-xx06_2x03_P10.00mm_Vertical.wrl
    (at (xyz 0 0 0))
    (scale (xyz 1 1 1))
    (rotate (xyz 0 0 0))
  )
)