(module Molex_Nano-Fit_105310-xx08_2x04_P2.50mm_Vertical (layer F.Cu) (tedit 5B7830BB)
  (descr "Molex Nano-Fit Power Connectors, 105310-xx08, 4 Pins per row (http://www.molex.com/pdm_docs/sd/1053101208_sd.pdf), generated with kicad-footprint-generator")
  (tags "connector Molex Nano-Fit side entry")
  (fp_text reference REF** (at 1.25 -2.92) (layer F.SilkS)
    (effects (font (size 1 1) (thickness 0.15)))
  )
  (fp_text value Molex_Nano-Fit_105310-xx08_2x04_P2.50mm_Vertical (at 1.25 10.42) (layer F.Fab)
    (effects (font (size 1 1) (thickness 0.15)))
  )
  (fp_line (start 4.24 3.75) (end 4.24 -1.72) (layer F.Fab) (width 0.1))
  (fp_line (start 4.24 -1.72) (end -1.74 -1.72) (layer F.Fab) (width 0.1))
  (fp_line (start -1.74 -1.72) (end -1.74 1.15) (layer F.Fab) (width 0.1))
  (fp_line (start -1.74 1.15) (end -4.6 1.15) (layer F.Fab) (width 0.1))
  (fp_line (start -4.6 1.15) (end -4.6 3.75) (layer F.Fab) (width 0.1))
  (fp_line (start 4.24 3.75) (end 4.24 9.22) (layer F.Fab) (width 0.1))
  (fp_line (start 4.24 9.22) (end -1.74 9.22) (layer F.Fab) (width 0.1))
  (fp_line (start -1.74 9.22) (end -1.74 6.35) (layer F.Fab) (width 0.1))
  (fp_line (start -1.74 6.35) (end -4.6 6.35) (layer F.Fab) (width 0.1))
  (fp_line (start -4.6 6.35) (end -4.6 3.75) (layer F.Fab) (width 0.1))
  (fp_line (start 4.35 3.75) (end 4.35 -1.83) (layer F.SilkS) (width 0.12))
  (fp_line (start 4.35 -1.83) (end -1.85 -1.83) (layer F.SilkS) (width 0.12))
  (fp_line (start -1.85 -1.83) (end -1.85 1.04) (layer F.SilkS) (width 0.12))
  (fp_line (start -1.85 1.04) (end -4.71 1.04) (layer F.SilkS) (width 0.12))
  (fp_line (start -4.71 1.04) (end -4.71 3.75) (layer F.SilkS) (width 0.12))
  (fp_line (start 4.35 3.75) (end 4.35 9.33) (layer F.SilkS) (width 0.12))
  (fp_line (start 4.35 9.33) (end -1.85 9.33) (layer F.SilkS) (width 0.12))
  (fp_line (start -1.85 9.33) (end -1.85 6.46) (layer F.SilkS) (width 0.12))
  (fp_line (start -1.85 6.46) (end -4.71 6.46) (layer F.SilkS) (width 0.12))
  (fp_line (start -4.71 6.46) (end -4.71 3.75) (layer F.SilkS) (width 0.12))
  (fp_line (start 4.74 3.75) (end 4.74 -2.22) (layer F.CrtYd) (width 0.05))
  (fp_line (start 4.74 -2.22) (end -2.24 -2.22) (layer F.CrtYd) (width 0.05))
  (fp_line (start -2.24 -2.22) (end -2.24 0.65) (layer F.CrtYd) (width 0.05))
  (fp_line (start -2.24 0.65) (end -5.1 0.65) (layer F.CrtYd) (width 0.05))
  (fp_line (start -5.1 0.65) (end -5.1 3.75) (layer F.CrtYd) (width 0.05))
  (fp_line (start 4.74 3.75) (end 4.74 9.72) (layer F.CrtYd) (width 0.05))
  (fp_line (start 4.74 9.72) (end -2.24 9.72) (layer F.CrtYd) (width 0.05))
  (fp_line (start -2.24 9.72) (end -2.24 6.85) (layer F.CrtYd) (width 0.05))
  (fp_line (start -2.24 6.85) (end -5.1 6.85) (layer F.CrtYd) (width 0.05))
  (fp_line (start -5.1 6.85) (end -5.1 3.75) (layer F.CrtYd) (width 0.05))
  (fp_line (start -4.1 1.65) (end -4.1 5.85) (layer F.Fab) (width 0.1))
  (fp_line (start -4.1 5.85) (end -2.02 5.85) (layer F.Fab) (width 0.1))
  (fp_line (start -2.02 5.85) (end -2.02 1.65) (layer F.Fab) (width 0.1))
  (fp_line (start -2.02 1.65) (end -4.1 1.65) (layer F.Fab) (width 0.1))
  (fp_line (start 0 -2.13) (end -2.15 -2.13) (layer F.SilkS) (width 0.12))
  (fp_line (start -2.15 -2.13) (end -2.15 0) (layer F.SilkS) (width 0.12))
  (fp_line (start -0.5 -1.72) (end 0 -1.012893) (layer F.Fab) (width 0.1))
  (fp_line (start 0 -1.012893) (end 0.5 -1.72) (layer F.Fab) (width 0.1))
  (pad 1 thru_hole roundrect (at 0 0) (size 1.7 1.7) (drill 1.2) (layers *.Cu *.Mask) (roundrect_rratio 0.147059))
  (pad 2 thru_hole circle (at 0 2.5) (size 1.7 1.7) (drill 1.2) (layers *.Cu *.Mask))
  (pad 3 thru_hole circle (at 0 5) (size 1.7 1.7) (drill 1.2) (layers *.Cu *.Mask))
  (pad 4 thru_hole circle (at 0 7.5) (size 1.7 1.7) (drill 1.2) (layers *.Cu *.Mask))
  (pad 5 thru_hole circle (at 2.5 0) (size 1.7 1.7) (drill 1.2) (layers *.Cu *.Mask))
  (pad 6 thru_hole circle (at 2.5 2.5) (size 1.7 1.7) (drill 1.2) (layers *.Cu *.Mask))
  (pad 7 thru_hole circle (at 2.5 5) (size 1.7 1.7) (drill 1.2) (layers *.Cu *.Mask))
  (pad 8 thru_hole circle (at 2.5 7.5) (size 1.7 1.7) (drill 1.2) (layers *.Cu *.Mask))
  (pad "" np_thru_hole circle (at -1.34 3.75) (size 1.3 1.3) (drill 1.3) (layers *.Cu *.Mask))
  (fp_text user %R (at 3.54 3.75 90) (layer F.Fab)
    (effects (font (size 1 1) (thickness 0.15)))
  )
  (model ${KICAD6_3DMODEL_DIR}/Connector_Molex.3dshapes/Molex_Nano-Fit_105310-xx08_2x04_P2.50mm_Vertical.wrl
    (at (xyz 0 0 0))
    (scale (xyz 1 1 1))
    (rotate (xyz 0 0 0))
  )
)