(module Molex_KK-396_A-41791-0005_1x05_P3.96mm_Vertical (layer F.Cu) (tedit 5DC431B4)
  (descr "Molex KK 396 Interconnect System, old/engineering part number: A-41791-0005 example for new part number: 26-60-4050, 5 Pins (https://www.molex.com/pdm_docs/sd/026604020_sd.pdf), generated with kicad-footprint-generator")
  (tags "connector Molex KK-396 vertical")
  (fp_text reference REF** (at 7.92 -6.31) (layer F.SilkS)
    (effects (font (size 1 1) (thickness 0.15)))
  )
  (fp_text value Molex_KK-396_A-41791-0005_1x05_P3.96mm_Vertical (at 7.92 6.1) (layer F.Fab)
    (effects (font (size 1 1) (thickness 0.15)))
  )
  (fp_line (start -1.91 -5.11) (end 17.75 -5.11) (layer F.Fab) (width 0.1))
  (fp_line (start 17.75 -5.11) (end 17.75 3.895) (layer F.Fab) (width 0.1))
  (fp_line (start 17.75 3.895) (end 15.845 3.895) (layer F.Fab) (width 0.1))
  (fp_line (start 15.845 3.895) (end 15.845 4.9) (layer F.Fab) (width 0.1))
  (fp_line (start 15.845 4.9) (end -0.005 4.9) (layer F.Fab) (width 0.1))
  (fp_line (start -0.005 4.9) (end -0.005 3.895) (layer F.Fab) (width 0.1))
  (fp_line (start -0.005 3.895) (end -1.91 3.895) (layer F.Fab) (width 0.1))
  (fp_line (start -1.91 3.895) (end -1.91 -5.11) (layer F.Fab) (width 0.1))
  (fp_line (start -2.02 -5.22) (end 17.86 -5.22) (layer F.SilkS) (width 0.12))
  (fp_line (start 17.86 -5.22) (end 17.86 4.005) (layer F.SilkS) (width 0.12))
  (fp_line (start 17.86 4.005) (end 15.955 4.005) (layer F.SilkS) (width 0.12))
  (fp_line (start 15.955 4.005) (end 15.955 5.01) (layer F.SilkS) (width 0.12))
  (fp_line (start 15.955 5.01) (end -0.115 5.01) (layer F.SilkS) (width 0.12))
  (fp_line (start -0.115 5.01) (end -0.115 4.005) (layer F.SilkS) (width 0.12))
  (fp_line (start -0.115 4.005) (end -2.02 4.005) (layer F.SilkS) (width 0.12))
  (fp_line (start -2.02 4.005) (end -2.02 -5.22) (layer F.SilkS) (width 0.12))
  (fp_line (start -2.31 -2) (end -2.31 2) (layer F.SilkS) (width 0.12))
  (fp_line (start -1.91 -0.5) (end -1.202893 0) (layer F.Fab) (width 0.1))
  (fp_line (start -1.202893 0) (end -1.91 0.5) (layer F.Fab) (width 0.1))
  (fp_line (start 0 5.01) (end 0 4.01) (layer F.SilkS) (width 0.12))
  (fp_line (start 0 4.01) (end 15.84 4.01) (layer F.SilkS) (width 0.12))
  (fp_line (start 15.84 4.01) (end 15.84 5.01) (layer F.SilkS) (width 0.12))
  (fp_line (start 0 4.01) (end 0 2.34) (layer F.SilkS) (width 0.12))
  (fp_line (start 0 2.34) (end 15.84 2.34) (layer F.SilkS) (width 0.12))
  (fp_line (start 15.84 2.34) (end 15.84 4.01) (layer F.SilkS) (width 0.12))
  (fp_line (start -0.8 -5.22) (end -0.8 -4.62) (layer F.SilkS) (width 0.12))
  (fp_line (start -0.8 -4.62) (end 0.8 -4.62) (layer F.SilkS) (width 0.12))
  (fp_line (start 0.8 -4.62) (end 0.8 -5.22) (layer F.SilkS) (width 0.12))
  (fp_line (start 3.16 -5.22) (end 3.16 -4.62) (layer F.SilkS) (width 0.12))
  (fp_line (start 3.16 -4.62) (end 4.76 -4.62) (layer F.SilkS) (width 0.12))
  (fp_line (start 4.76 -4.62) (end 4.76 -5.22) (layer F.SilkS) (width 0.12))
  (fp_line (start 7.12 -5.22) (end 7.12 -4.62) (layer F.SilkS) (width 0.12))
  (fp_line (start 7.12 -4.62) (end 8.72 -4.62) (layer F.SilkS) (width 0.12))
  (fp_line (start 8.72 -4.62) (end 8.72 -5.22) (layer F.SilkS) (width 0.12))
  (fp_line (start 11.08 -5.22) (end 11.08 -4.62) (layer F.SilkS) (width 0.12))
  (fp_line (start 11.08 -4.62) (end 12.68 -4.62) (layer F.SilkS) (width 0.12))
  (fp_line (start 12.68 -4.62) (end 12.68 -5.22) (layer F.SilkS) (width 0.12))
  (fp_line (start 15.04 -5.22) (end 15.04 -4.62) (layer F.SilkS) (width 0.12))
  (fp_line (start 15.04 -4.62) (end 16.64 -4.62) (layer F.SilkS) (width 0.12))
  (fp_line (start 16.64 -4.62) (end 16.64 -5.22) (layer F.SilkS) (width 0.12))
  (fp_line (start -2.41 -5.61) (end -2.41 5.4) (layer F.CrtYd) (width 0.05))
  (fp_line (start -2.41 5.4) (end 18.25 5.4) (layer F.CrtYd) (width 0.05))
  (fp_line (start 18.25 5.4) (end 18.25 -5.61) (layer F.CrtYd) (width 0.05))
  (fp_line (start 18.25 -5.61) (end -2.41 -5.61) (layer F.CrtYd) (width 0.05))
  (pad 1 thru_hole roundrect (at 0 0) (size 3.16 4.1) (drill 1.7) (layers *.Cu *.Mask) (roundrect_rratio 0.079114))
  (pad 2 thru_hole oval (at 3.96 0) (size 3.16 4.1) (drill 1.7) (layers *.Cu *.Mask))
  (pad 3 thru_hole oval (at 7.92 0) (size 3.16 4.1) (drill 1.7) (layers *.Cu *.Mask))
  (pad 4 thru_hole oval (at 11.88 0) (size 3.16 4.1) (drill 1.7) (layers *.Cu *.Mask))
  (pad 5 thru_hole oval (at 15.84 0) (size 3.16 4.1) (drill 1.7) (layers *.Cu *.Mask))
  (fp_text user %R (at 7.92 -4.41) (layer F.Fab)
    (effects (font (size 1 1) (thickness 0.15)))
  )
  (model ${KICAD6_3DMODEL_DIR}/Connector_Molex.3dshapes/Molex_KK-396_A-41791-0005_1x05_P3.96mm_Vertical.wrl
    (at (xyz 0 0 0))
    (scale (xyz 1 1 1))
    (rotate (xyz 0 0 0))
  )
)