(module Molex_Mega-Fit_76829-0004_2x02_P5.70mm_Vertical (layer F.Cu) (tedit 5B781062)
  (descr "Molex Mega-Fit Power Connectors, 76829-0004 (compatible alternatives: 172065-0004, 172065-1004), 2 Pins per row (http://www.molex.com/pdm_docs/sd/768290004_sd.pdf), generated with kicad-footprint-generator")
  (tags "connector Molex Mega-Fit side entry")
  (fp_text reference REF** (at 2.85 -4.51) (layer F.SilkS)
    (effects (font (size 1 1) (thickness 0.15)))
  )
  (fp_text value Molex_Mega-Fit_76829-0004_2x02_P5.70mm_Vertical (at 2.85 11.92) (layer F.Fab)
    (effects (font (size 1 1) (thickness 0.15)))
  )
  (fp_arc (start -5.17 6.025) (end -5.17 7.55) (angle 180) (layer F.Fab) (width 0.1))
  (fp_arc (start 10.87 6.025) (end 10.87 4.5) (angle 180) (layer F.Fab) (width 0.1))
  (fp_arc (start -5.17 6.025) (end -5.17 7.785) (angle 180) (layer F.SilkS) (width 0.12))
  (fp_arc (start 10.87 6.025) (end 10.87 4.265) (angle 180) (layer F.SilkS) (width 0.12))
  (fp_line (start -5.17 4.5) (end -3.175 4.5) (layer F.Fab) (width 0.1))
  (fp_line (start -5.17 7.55) (end -3.175 7.55) (layer F.Fab) (width 0.1))
  (fp_line (start 10.87 4.5) (end 8.875 4.5) (layer F.Fab) (width 0.1))
  (fp_line (start 10.87 7.55) (end 8.875 7.55) (layer F.Fab) (width 0.1))
  (fp_line (start -5.17 4.265) (end -3.285 4.265) (layer F.SilkS) (width 0.12))
  (fp_line (start -5.17 7.785) (end -3.285 7.785) (layer F.SilkS) (width 0.12))
  (fp_line (start 10.87 4.265) (end 8.985 4.265) (layer F.SilkS) (width 0.12))
  (fp_line (start 10.87 7.785) (end 8.985 7.785) (layer F.SilkS) (width 0.12))
  (fp_line (start -2.175 -3.31) (end -3.175 -2.31) (layer F.Fab) (width 0.1))
  (fp_line (start -3.175 -2.31) (end -3.175 9.17) (layer F.Fab) (width 0.1))
  (fp_line (start -3.175 9.17) (end 8.875 9.17) (layer F.Fab) (width 0.1))
  (fp_line (start 8.875 9.17) (end 8.875 -3.31) (layer F.Fab) (width 0.1))
  (fp_line (start 8.875 -3.31) (end -2.175 -3.31) (layer F.Fab) (width 0.1))
  (fp_line (start 1.15 9.17) (end 1.15 10.72) (layer F.Fab) (width 0.1))
  (fp_line (start 1.15 10.72) (end 4.55 10.72) (layer F.Fab) (width 0.1))
  (fp_line (start 4.55 10.72) (end 4.55 9.17) (layer F.Fab) (width 0.1))
  (fp_line (start 2.85 -3.42) (end -3.285 -3.42) (layer F.SilkS) (width 0.12))
  (fp_line (start -3.285 -3.42) (end -3.285 9.28) (layer F.SilkS) (width 0.12))
  (fp_line (start -3.285 9.28) (end 1.04 9.28) (layer F.SilkS) (width 0.12))
  (fp_line (start 1.04 9.28) (end 1.04 10.83) (layer F.SilkS) (width 0.12))
  (fp_line (start 1.04 10.83) (end 2.85 10.83) (layer F.SilkS) (width 0.12))
  (fp_line (start 2.85 -3.42) (end 8.985 -3.42) (layer F.SilkS) (width 0.12))
  (fp_line (start 8.985 -3.42) (end 8.985 9.28) (layer F.SilkS) (width 0.12))
  (fp_line (start 8.985 9.28) (end 4.66 9.28) (layer F.SilkS) (width 0.12))
  (fp_line (start 4.66 9.28) (end 4.66 10.83) (layer F.SilkS) (width 0.12))
  (fp_line (start 4.66 10.83) (end 2.85 10.83) (layer F.SilkS) (width 0.12))
  (fp_line (start -3.585 -1.31) (end -3.585 -3.72) (layer F.SilkS) (width 0.12))
  (fp_line (start -3.585 -3.72) (end -1.175 -3.72) (layer F.SilkS) (width 0.12))
  (fp_line (start -3.68 -3.81) (end -3.68 4) (layer F.CrtYd) (width 0.05))
  (fp_line (start -3.68 4) (end -7.2 4) (layer F.CrtYd) (width 0.05))
  (fp_line (start -7.2 4) (end -7.2 11.22) (layer F.CrtYd) (width 0.05))
  (fp_line (start -7.2 11.22) (end 12.9 11.22) (layer F.CrtYd) (width 0.05))
  (fp_line (start 12.9 11.22) (end 12.9 4) (layer F.CrtYd) (width 0.05))
  (fp_line (start 12.9 4) (end 9.38 4) (layer F.CrtYd) (width 0.05))
  (fp_line (start 9.38 4) (end 9.38 -3.81) (layer F.CrtYd) (width 0.05))
  (fp_line (start 9.38 -3.81) (end -3.68 -3.81) (layer F.CrtYd) (width 0.05))
  (pad 1 thru_hole roundrect (at 0 0) (size 3.7 3.7) (drill 1.8) (layers *.Cu *.Mask) (roundrect_rratio 0.067568))
  (pad 2 thru_hole circle (at 5.7 0) (size 3.7 3.7) (drill 1.8) (layers *.Cu *.Mask))
  (pad 3 thru_hole circle (at 0 5.7) (size 3.7 3.7) (drill 1.8) (layers *.Cu *.Mask))
  (pad 4 thru_hole circle (at 5.7 5.7) (size 3.7 3.7) (drill 1.8) (layers *.Cu *.Mask))
  (pad "" np_thru_hole circle (at -5.17 6.025) (size 3 3) (drill 3) (layers *.Cu *.Mask))
  (pad "" np_thru_hole circle (at 10.87 6.025) (size 3 3) (drill 3) (layers *.Cu *.Mask))
  (fp_text user %R (at 2.85 -2.61) (layer F.Fab)
    (effects (font (size 1 1) (thickness 0.15)))
  )
  (model ${KICAD6_3DMODEL_DIR}/Connector_Molex.3dshapes/Molex_Mega-Fit_76829-0004_2x02_P5.70mm_Vertical.wrl
    (at (xyz 0 0 0))
    (scale (xyz 1 1 1))
    (rotate (xyz 0 0 0))
  )
)