(module Molex_PicoBlade_53261-0371_1x03-1MP_P1.25mm_Horizontal (layer F.Cu) (tedit 5B78AD89)
  (descr "Molex PicoBlade series connector, 53261-0371 (http://www.molex.com/pdm_docs/sd/532610271_sd.pdf), generated with kicad-footprint-generator")
  (tags "connector Molex PicoBlade top entry")
  (attr smd)
  (fp_text reference REF** (at 0 -4.4) (layer F.SilkS)
    (effects (font (size 1 1) (thickness 0.15)))
  )
  (fp_text value Molex_PicoBlade_53261-0371_1x03-1MP_P1.25mm_Horizontal (at 0 3.8) (layer F.Fab)
    (effects (font (size 1 1) (thickness 0.15)))
  )
  (fp_line (start -2.75 -1.6) (end 2.75 -1.6) (layer F.Fab) (width 0.1))
  (fp_line (start -2.86 -1.26) (end -2.86 -1.71) (layer F.SilkS) (width 0.12))
  (fp_line (start -2.86 -1.71) (end -1.91 -1.71) (layer F.SilkS) (width 0.12))
  (fp_line (start -1.91 -1.71) (end -1.91 -3.2) (layer F.SilkS) (width 0.12))
  (fp_line (start 2.86 -1.26) (end 2.86 -1.71) (layer F.SilkS) (width 0.12))
  (fp_line (start 2.86 -1.71) (end 1.91 -1.71) (layer F.SilkS) (width 0.12))
  (fp_line (start -2.86 2.26) (end -2.86 2.71) (layer F.SilkS) (width 0.12))
  (fp_line (start -2.86 2.71) (end 2.86 2.71) (layer F.SilkS) (width 0.12))
  (fp_line (start 2.86 2.71) (end 2.86 2.26) (layer F.SilkS) (width 0.12))
  (fp_line (start -2.75 2.6) (end 2.75 2.6) (layer F.Fab) (width 0.1))
  (fp_line (start -2.75 -1.6) (end -2.75 2.6) (layer F.Fab) (width 0.1))
  (fp_line (start 2.75 -1.6) (end 2.75 2.6) (layer F.Fab) (width 0.1))
  (fp_line (start -2.75 -0.6) (end -4.25 -0.6) (layer F.Fab) (width 0.1))
  (fp_line (start -4.25 -0.6) (end -4.45 -0.4) (layer F.Fab) (width 0.1))
  (fp_line (start -4.45 -0.4) (end -4.45 1.4) (layer F.Fab) (width 0.1))
  (fp_line (start -4.45 1.4) (end -4.25 1.6) (layer F.Fab) (width 0.1))
  (fp_line (start -4.25 1.6) (end -4.25 2.2) (layer F.Fab) (width 0.1))
  (fp_line (start -4.25 2.2) (end -2.75 2.2) (layer F.Fab) (width 0.1))
  (fp_line (start 2.75 -0.6) (end 4.25 -0.6) (layer F.Fab) (width 0.1))
  (fp_line (start 4.25 -0.6) (end 4.45 -0.4) (layer F.Fab) (width 0.1))
  (fp_line (start 4.45 -0.4) (end 4.45 1.4) (layer F.Fab) (width 0.1))
  (fp_line (start 4.45 1.4) (end 4.25 1.6) (layer F.Fab) (width 0.1))
  (fp_line (start 4.25 1.6) (end 4.25 2.2) (layer F.Fab) (width 0.1))
  (fp_line (start 4.25 2.2) (end 2.75 2.2) (layer F.Fab) (width 0.1))
  (fp_line (start -5.35 -3.7) (end -5.35 3.1) (layer F.CrtYd) (width 0.05))
  (fp_line (start -5.35 3.1) (end 5.35 3.1) (layer F.CrtYd) (width 0.05))
  (fp_line (start 5.35 3.1) (end 5.35 -3.7) (layer F.CrtYd) (width 0.05))
  (fp_line (start 5.35 -3.7) (end -5.35 -3.7) (layer F.CrtYd) (width 0.05))
  (fp_line (start -1.75 -1.6) (end -1.25 -0.892893) (layer F.Fab) (width 0.1))
  (fp_line (start -1.25 -0.892893) (end -0.75 -1.6) (layer F.Fab) (width 0.1))
  (pad 1 smd roundrect (at -1.25 -2.4) (size 0.8 1.6) (layers F.Cu F.Mask F.Paste) (roundrect_rratio 0.25))
  (pad 2 smd roundrect (at 0 -2.4) (size 0.8 1.6) (layers F.Cu F.Mask F.Paste) (roundrect_rratio 0.25))
  (pad 3 smd roundrect (at 1.25 -2.4) (size 0.8 1.6) (layers F.Cu F.Mask F.Paste) (roundrect_rratio 0.25))
  (pad MP smd roundrect (at -3.8 0.5) (size 2.1 3) (layers F.Cu F.Mask F.Paste) (roundrect_rratio 0.119048))
  (pad MP smd roundrect (at 3.8 0.5) (size 2.1 3) (layers F.Cu F.Mask F.Paste) (roundrect_rratio 0.119048))
  (fp_text user %R (at 0 1.9) (layer F.Fab)
    (effects (font (size 1 1) (thickness 0.15)))
  )
  (model ${KICAD6_3DMODEL_DIR}/Connector_Molex.3dshapes/Molex_PicoBlade_53261-0371_1x03-1MP_P1.25mm_Horizontal.wrl
    (at (xyz 0 0 0))
    (scale (xyz 1 1 1))
    (rotate (xyz 0 0 0))
  )
)