(module Molex_CLIK-Mate_502386-1070_1x10-1MP_P1.25mm_Horizontal (layer F.Cu) (tedit 5B78AD89)
  (descr "Molex CLIK-Mate series connector, 502386-1070 (http://www.molex.com/pdm_docs/sd/5023860270_sd.pdf), generated with kicad-footprint-generator")
  (tags "connector Molex CLIK-Mate top entry")
  (attr smd)
  (fp_text reference REF** (at 0 -3.9) (layer F.SilkS)
    (effects (font (size 1 1) (thickness 0.15)))
  )
  (fp_text value Molex_CLIK-Mate_502386-1070_1x10-1MP_P1.25mm_Horizontal (at 0 3.9) (layer F.Fab)
    (effects (font (size 1 1) (thickness 0.15)))
  )
  (fp_line (start -7.925 -1.8) (end 7.925 -1.8) (layer F.Fab) (width 0.1))
  (fp_line (start -8.035 -0.26) (end -8.035 -1.91) (layer F.SilkS) (width 0.12))
  (fp_line (start -8.035 -1.91) (end -6.185 -1.91) (layer F.SilkS) (width 0.12))
  (fp_line (start -6.185 -1.91) (end -6.185 -2.7) (layer F.SilkS) (width 0.12))
  (fp_line (start 8.035 -0.26) (end 8.035 -1.91) (layer F.SilkS) (width 0.12))
  (fp_line (start 8.035 -1.91) (end 6.185 -1.91) (layer F.SilkS) (width 0.12))
  (fp_line (start -6.715 2.71) (end 6.715 2.71) (layer F.SilkS) (width 0.12))
  (fp_line (start -7.925 1.35) (end -7.595 1.35) (layer F.Fab) (width 0.1))
  (fp_line (start -7.595 1.35) (end -7.595 2.6) (layer F.Fab) (width 0.1))
  (fp_line (start -7.595 2.6) (end 7.595 2.6) (layer F.Fab) (width 0.1))
  (fp_line (start 7.595 2.6) (end 7.595 1.35) (layer F.Fab) (width 0.1))
  (fp_line (start 7.595 1.35) (end 7.925 1.35) (layer F.Fab) (width 0.1))
  (fp_line (start -7.925 -1.8) (end -7.925 1.35) (layer F.Fab) (width 0.1))
  (fp_line (start 7.925 -1.8) (end 7.925 1.35) (layer F.Fab) (width 0.1))
  (fp_line (start -8.48 -3.2) (end -8.48 3.2) (layer F.CrtYd) (width 0.05))
  (fp_line (start -8.48 3.2) (end 8.48 3.2) (layer F.CrtYd) (width 0.05))
  (fp_line (start 8.48 3.2) (end 8.48 -3.2) (layer F.CrtYd) (width 0.05))
  (fp_line (start 8.48 -3.2) (end -8.48 -3.2) (layer F.CrtYd) (width 0.05))
  (fp_line (start -6.125 -1.8) (end -5.625 -1.092893) (layer F.Fab) (width 0.1))
  (fp_line (start -5.625 -1.092893) (end -5.125 -1.8) (layer F.Fab) (width 0.1))
  (pad 1 smd roundrect (at -5.625 -1.85) (size 0.6 1.7) (layers F.Cu F.Mask F.Paste) (roundrect_rratio 0.25))
  (pad 2 smd roundrect (at -4.375 -1.85) (size 0.6 1.7) (layers F.Cu F.Mask F.Paste) (roundrect_rratio 0.25))
  (pad 3 smd roundrect (at -3.125 -1.85) (size 0.6 1.7) (layers F.Cu F.Mask F.Paste) (roundrect_rratio 0.25))
  (pad 4 smd roundrect (at -1.875 -1.85) (size 0.6 1.7) (layers F.Cu F.Mask F.Paste) (roundrect_rratio 0.25))
  (pad 5 smd roundrect (at -0.625 -1.85) (size 0.6 1.7) (layers F.Cu F.Mask F.Paste) (roundrect_rratio 0.25))
  (pad 6 smd roundrect (at 0.625 -1.85) (size 0.6 1.7) (layers F.Cu F.Mask F.Paste) (roundrect_rratio 0.25))
  (pad 7 smd roundrect (at 1.875 -1.85) (size 0.6 1.7) (layers F.Cu F.Mask F.Paste) (roundrect_rratio 0.25))
  (pad 8 smd roundrect (at 3.125 -1.85) (size 0.6 1.7) (layers F.Cu F.Mask F.Paste) (roundrect_rratio 0.25))
  (pad 9 smd roundrect (at 4.375 -1.85) (size 0.6 1.7) (layers F.Cu F.Mask F.Paste) (roundrect_rratio 0.25))
  (pad 10 smd roundrect (at 5.625 -1.85) (size 0.6 1.7) (layers F.Cu F.Mask F.Paste) (roundrect_rratio 0.25))
  (pad MP smd roundrect (at -7.475 1.35) (size 1 2.7) (layers F.Cu F.Mask F.Paste) (roundrect_rratio 0.25))
  (pad MP smd roundrect (at 7.475 1.35) (size 1 2.7) (layers F.Cu F.Mask F.Paste) (roundrect_rratio 0.25))
  (fp_text user %R (at 0 -0.22) (layer F.Fab)
    (effects (font (size 1 1) (thickness 0.15)))
  )
  (model ${KICAD6_3DMODEL_DIR}/Connector_Molex.3dshapes/Molex_CLIK-Mate_502386-1070_1x10-1MP_P1.25mm_Horizontal.wrl
    (at (xyz 0 0 0))
    (scale (xyz 1 1 1))
    (rotate (xyz 0 0 0))
  )
)