(module Molex_SPOX_5267-10A_1x10_P2.50mm_Vertical (layer F.Cu) (tedit 5B7833F7)
  (descr "Molex SPOX Connector System, 5267-10A, 10 Pins per row (http://www.molex.com/pdm_docs/sd/022035035_sd.pdf), generated with kicad-footprint-generator")
  (tags "connector Molex SPOX side entry")
  (fp_text reference REF** (at 11.25 -4.3) (layer F.SilkS)
    (effects (font (size 1 1) (thickness 0.15)))
  )
  (fp_text value Molex_SPOX_5267-10A_1x10_P2.50mm_Vertical (at 11.25 3) (layer F.Fab)
    (effects (font (size 1 1) (thickness 0.15)))
  )
  (fp_line (start -2.45 -3.1) (end -2.45 1.8) (layer F.Fab) (width 0.1))
  (fp_line (start -2.45 1.8) (end 23.95 1.8) (layer F.Fab) (width 0.1))
  (fp_line (start 23.95 1.8) (end 24.95 0.8) (layer F.Fab) (width 0.1))
  (fp_line (start 24.95 0.8) (end 24.95 -3.1) (layer F.Fab) (width 0.1))
  (fp_line (start 24.95 -3.1) (end -2.45 -3.1) (layer F.Fab) (width 0.1))
  (fp_line (start -2.56 -3.21) (end -2.56 1.91) (layer F.SilkS) (width 0.12))
  (fp_line (start -2.56 1.91) (end 24.06 1.91) (layer F.SilkS) (width 0.12))
  (fp_line (start 24.06 1.91) (end 25.06 0.91) (layer F.SilkS) (width 0.12))
  (fp_line (start 25.06 0.91) (end 25.06 -3.21) (layer F.SilkS) (width 0.12))
  (fp_line (start 25.06 -3.21) (end -2.56 -3.21) (layer F.SilkS) (width 0.12))
  (fp_line (start -2.86 -0.2) (end -2.86 2.21) (layer F.SilkS) (width 0.12))
  (fp_line (start -2.86 2.21) (end -0.45 2.21) (layer F.SilkS) (width 0.12))
  (fp_line (start -0.5 1.8) (end 0 1.092893) (layer F.Fab) (width 0.1))
  (fp_line (start 0 1.092893) (end 0.5 1.8) (layer F.Fab) (width 0.1))
  (fp_line (start -2.95 -3.6) (end -2.95 2.3) (layer F.CrtYd) (width 0.05))
  (fp_line (start -2.95 2.3) (end 24.45 2.3) (layer F.CrtYd) (width 0.05))
  (fp_line (start 24.45 2.3) (end 25.45 1.3) (layer F.CrtYd) (width 0.05))
  (fp_line (start 25.45 1.3) (end 25.45 -3.6) (layer F.CrtYd) (width 0.05))
  (fp_line (start 25.45 -3.6) (end -2.95 -3.6) (layer F.CrtYd) (width 0.05))
  (pad 1 thru_hole roundrect (at 0 0) (size 1.7 1.85) (drill 0.85) (layers *.Cu *.Mask) (roundrect_rratio 0.147059))
  (pad 2 thru_hole oval (at 2.5 0) (size 1.7 1.85) (drill 0.85) (layers *.Cu *.Mask))
  (pad 3 thru_hole oval (at 5 0) (size 1.7 1.85) (drill 0.85) (layers *.Cu *.Mask))
  (pad 4 thru_hole oval (at 7.5 0) (size 1.7 1.85) (drill 0.85) (layers *.Cu *.Mask))
  (pad 5 thru_hole oval (at 10 0) (size 1.7 1.85) (drill 0.85) (layers *.Cu *.Mask))
  (pad 6 thru_hole oval (at 12.5 0) (size 1.7 1.85) (drill 0.85) (layers *.Cu *.Mask))
  (pad 7 thru_hole oval (at 15 0) (size 1.7 1.85) (drill 0.85) (layers *.Cu *.Mask))
  (pad 8 thru_hole oval (at 17.5 0) (size 1.7 1.85) (drill 0.85) (layers *.Cu *.Mask))
  (pad 9 thru_hole oval (at 20 0) (size 1.7 1.85) (drill 0.85) (layers *.Cu *.Mask))
  (pad 10 thru_hole oval (at 22.5 0) (size 1.7 1.85) (drill 0.85) (layers *.Cu *.Mask))
  (fp_text user %R (at 11.25 -2.4) (layer F.Fab)
    (effects (font (size 1 1) (thickness 0.15)))
  )
  (model ${KICAD6_3DMODEL_DIR}/Connector_Molex.3dshapes/Molex_SPOX_5267-10A_1x10_P2.50mm_Vertical.wrl
    (at (xyz 0 0 0))
    (scale (xyz 1 1 1))
    (rotate (xyz 0 0 0))
  )
)