(module Molex_SPOX_5268-03A_1x03_P2.50mm_Horizontal (layer F.Cu) (tedit 5D91FF17)
  (descr "Molex SPOX Connector System, 5268-03A, 3 Pins per row (https://www.molex.com/pdm_docs/sd/022057045_sd.pdf), generated with kicad-footprint-generator")
  (tags "connector Molex SPOX horizontal")
  (fp_text reference REF** (at 2.5 -2.5) (layer F.SilkS)
    (effects (font (size 1 1) (thickness 0.15)))
  )
  (fp_text value Molex_SPOX_5268-03A_1x03_P2.50mm_Horizontal (at 2.5 7.8) (layer F.Fab)
    (effects (font (size 1 1) (thickness 0.15)))
  )
  (fp_line (start -2.45 -1.3) (end -2.45 6.6) (layer F.Fab) (width 0.1))
  (fp_line (start -2.45 6.6) (end 7.45 6.6) (layer F.Fab) (width 0.1))
  (fp_line (start 7.45 6.6) (end 7.45 -1.3) (layer F.Fab) (width 0.1))
  (fp_line (start 7.45 -1.3) (end -2.45 -1.3) (layer F.Fab) (width 0.1))
  (fp_line (start -2.56 -1.41) (end -2.56 6.71) (layer F.SilkS) (width 0.12))
  (fp_line (start -2.56 6.71) (end 7.56 6.71) (layer F.SilkS) (width 0.12))
  (fp_line (start 7.56 6.71) (end 7.56 -1.41) (layer F.SilkS) (width 0.12))
  (fp_line (start 7.56 -1.41) (end -2.56 -1.41) (layer F.SilkS) (width 0.12))
  (fp_line (start -2.86 0.7) (end -2.86 -1.71) (layer F.SilkS) (width 0.12))
  (fp_line (start -2.86 -1.71) (end -0.45 -1.71) (layer F.SilkS) (width 0.12))
  (fp_line (start -2.45 0.5) (end -1.742893 0) (layer F.Fab) (width 0.1))
  (fp_line (start -1.742893 0) (end -2.45 -0.5) (layer F.Fab) (width 0.1))
  (fp_line (start -2.95 -1.8) (end -2.95 7.1) (layer F.CrtYd) (width 0.05))
  (fp_line (start -2.95 7.1) (end 7.95 7.1) (layer F.CrtYd) (width 0.05))
  (fp_line (start 7.95 7.1) (end 7.95 -1.8) (layer F.CrtYd) (width 0.05))
  (fp_line (start 7.95 -1.8) (end -2.95 -1.8) (layer F.CrtYd) (width 0.05))
  (pad 1 thru_hole roundrect (at 0 0) (size 1.7 1.85) (drill 0.85) (layers *.Cu *.Mask) (roundrect_rratio 0.147059))
  (pad 2 thru_hole oval (at 2.5 0) (size 1.7 1.85) (drill 0.85) (layers *.Cu *.Mask))
  (pad 3 thru_hole oval (at 5 0) (size 1.7 1.85) (drill 0.85) (layers *.Cu *.Mask))
  (fp_text user %R (at 2.5 5.9) (layer F.Fab)
    (effects (font (size 1 1) (thickness 0.15)))
  )
  (model ${KICAD6_3DMODEL_DIR}/Connector_Molex.3dshapes/Molex_SPOX_5268-03A_1x03_P2.50mm_Horizontal.wrl
    (at (xyz 0 0 0))
    (scale (xyz 1 1 1))
    (rotate (xyz 0 0 0))
  )
)