(module Molex_Sabre_43160-0105_1x05_P7.49mm_Vertical_ThermalVias (layer F.Cu) (tedit 5A18AC76)
  (descr "Molex Sabre Power Connector, 43160-0105, With thermal vias in pads, 5 Pins per row (http://www.molex.com/pdm_docs/sd/431600105_sd.pdf), generated with kicad-footprint-generator")
  (tags "connector Molex Sabre side entry")
  (fp_text reference REF** (at 14.98 -10.7) (layer F.SilkS)
    (effects (font (size 1 1) (thickness 0.15)))
  )
  (fp_text value Molex_Sabre_43160-0105_1x05_P7.49mm_Vertical_ThermalVias (at 14.98 5.08) (layer F.Fab)
    (effects (font (size 1 1) (thickness 0.15)))
  )
  (fp_line (start -2.15 -5.155) (end -2.15 1.975) (layer B.SilkS) (width 0.12))
  (fp_line (start -2.15 1.975) (end 2.15 1.975) (layer B.SilkS) (width 0.12))
  (fp_line (start 2.15 1.975) (end 2.15 -5.155) (layer B.SilkS) (width 0.12))
  (fp_line (start 2.15 -5.155) (end -2.15 -5.155) (layer B.SilkS) (width 0.12))
  (fp_line (start -6.79 -7.65) (end -6.79 3.88) (layer F.Fab) (width 0.1))
  (fp_line (start -6.79 3.88) (end 36.75 3.88) (layer F.Fab) (width 0.1))
  (fp_line (start 36.75 3.88) (end 36.75 -7.65) (layer F.Fab) (width 0.1))
  (fp_line (start 36.75 -7.65) (end -6.79 -7.65) (layer F.Fab) (width 0.1))
  (fp_line (start 13.455 -7.65) (end 13.455 -9.5) (layer F.Fab) (width 0.1))
  (fp_line (start 13.455 -9.5) (end 16.505 -9.5) (layer F.Fab) (width 0.1))
  (fp_line (start 16.505 -9.5) (end 16.505 -7.65) (layer F.Fab) (width 0.1))
  (fp_line (start -6.9 -7.76) (end -6.9 3.99) (layer F.SilkS) (width 0.12))
  (fp_line (start -6.9 3.99) (end 36.86 3.99) (layer F.SilkS) (width 0.12))
  (fp_line (start 36.86 3.99) (end 36.86 -7.76) (layer F.SilkS) (width 0.12))
  (fp_line (start 36.86 -7.76) (end -6.9 -7.76) (layer F.SilkS) (width 0.12))
  (fp_line (start 13.345 -7.76) (end 13.345 -9.61) (layer F.SilkS) (width 0.12))
  (fp_line (start 13.345 -9.61) (end 16.615 -9.61) (layer F.SilkS) (width 0.12))
  (fp_line (start 16.615 -9.61) (end 16.615 -7.76) (layer F.SilkS) (width 0.12))
  (fp_line (start -1.2 -7.65) (end 0 -5.952944) (layer F.Fab) (width 0.1))
  (fp_line (start 0 -5.952944) (end 1.2 -7.65) (layer F.Fab) (width 0.1))
  (fp_line (start 0 -8.06) (end 0.4 -8.625685) (layer F.SilkS) (width 0.12))
  (fp_line (start 0.4 -8.625685) (end -0.4 -8.625685) (layer F.SilkS) (width 0.12))
  (fp_line (start -0.4 -8.625685) (end 0 -8.06) (layer F.SilkS) (width 0.12))
  (fp_line (start -7.29 -10) (end -7.29 4.38) (layer F.CrtYd) (width 0.05))
  (fp_line (start -7.29 4.38) (end 37.25 4.38) (layer F.CrtYd) (width 0.05))
  (fp_line (start 37.25 4.38) (end 37.25 -10) (layer F.CrtYd) (width 0.05))
  (fp_line (start 37.25 -10) (end -7.29 -10) (layer F.CrtYd) (width 0.05))
  (pad 1 thru_hole rect (at 0 0) (size 3.78 3.43) (drill 1.78) (layers *.Cu *.Mask))
  (pad 2 thru_hole rect (at 7.49 0) (size 3.78 3.43) (drill 1.78) (layers *.Cu *.Mask))
  (pad 3 thru_hole rect (at 14.98 0) (size 3.78 3.43) (drill 1.78) (layers *.Cu *.Mask))
  (pad 4 thru_hole rect (at 22.47 0) (size 3.78 3.43) (drill 1.78) (layers *.Cu *.Mask))
  (pad 5 thru_hole rect (at 29.96 0) (size 3.78 3.43) (drill 1.78) (layers *.Cu *.Mask))
  (pad 1 thru_hole rect (at 0 -3.18) (size 3.78 3.43) (drill 1.78) (layers *.Cu *.Mask))
  (pad 2 thru_hole rect (at 7.49 -3.18) (size 3.78 3.43) (drill 1.78) (layers *.Cu *.Mask))
  (pad 3 thru_hole rect (at 14.98 -3.18) (size 3.78 3.43) (drill 1.78) (layers *.Cu *.Mask))
  (pad 4 thru_hole rect (at 22.47 -3.18) (size 3.78 3.43) (drill 1.78) (layers *.Cu *.Mask))
  (pad 5 thru_hole rect (at 29.96 -3.18) (size 3.78 3.43) (drill 1.78) (layers *.Cu *.Mask))
  (pad 1 thru_hole rect (at 0 -4.445) (size 0.6 0.6) (drill 0.3) (layers *.Cu *.Mask))
  (pad 1 thru_hole rect (at 0 -1.59) (size 0.6 0.6) (drill 0.3) (layers *.Cu *.Mask))
  (pad 1 thru_hole rect (at 0 1.265) (size 0.6 0.6) (drill 0.3) (layers *.Cu *.Mask))
  (pad 1 thru_hole rect (at -1.44 -4.445) (size 0.6 0.6) (drill 0.3) (layers *.Cu *.Mask))
  (pad 1 thru_hole rect (at -1.44 -3.0175) (size 0.6 0.6) (drill 0.3) (layers *.Cu *.Mask))
  (pad 1 thru_hole rect (at -1.44 -1.59) (size 0.6 0.6) (drill 0.3) (layers *.Cu *.Mask))
  (pad 1 thru_hole rect (at -1.44 -0.1625) (size 0.6 0.6) (drill 0.3) (layers *.Cu *.Mask))
  (pad 1 thru_hole rect (at -1.44 1.265) (size 0.6 0.6) (drill 0.3) (layers *.Cu *.Mask))
  (pad 1 thru_hole rect (at 1.44 -4.445) (size 0.6 0.6) (drill 0.3) (layers *.Cu *.Mask))
  (pad 1 thru_hole rect (at 1.44 -3.0175) (size 0.6 0.6) (drill 0.3) (layers *.Cu *.Mask))
  (pad 1 thru_hole rect (at 1.44 -1.59) (size 0.6 0.6) (drill 0.3) (layers *.Cu *.Mask))
  (pad 1 thru_hole rect (at 1.44 -0.1625) (size 0.6 0.6) (drill 0.3) (layers *.Cu *.Mask))
  (pad 1 thru_hole rect (at 1.44 1.265) (size 0.6 0.6) (drill 0.3) (layers *.Cu *.Mask))
  (pad 2 thru_hole circle (at 7.49 -4.445) (size 0.6 0.6) (drill 0.3) (layers *.Cu *.Mask))
  (pad 2 thru_hole circle (at 7.49 -1.59) (size 0.6 0.6) (drill 0.3) (layers *.Cu *.Mask))
  (pad 2 thru_hole circle (at 7.49 1.265) (size 0.6 0.6) (drill 0.3) (layers *.Cu *.Mask))
  (pad 2 thru_hole circle (at 6.05 -4.445) (size 0.6 0.6) (drill 0.3) (layers *.Cu *.Mask))
  (pad 2 thru_hole circle (at 6.05 -3.0175) (size 0.6 0.6) (drill 0.3) (layers *.Cu *.Mask))
  (pad 2 thru_hole circle (at 6.05 -1.59) (size 0.6 0.6) (drill 0.3) (layers *.Cu *.Mask))
  (pad 2 thru_hole circle (at 6.05 -0.1625) (size 0.6 0.6) (drill 0.3) (layers *.Cu *.Mask))
  (pad 2 thru_hole circle (at 6.05 1.265) (size 0.6 0.6) (drill 0.3) (layers *.Cu *.Mask))
  (pad 2 thru_hole circle (at 8.93 -4.445) (size 0.6 0.6) (drill 0.3) (layers *.Cu *.Mask))
  (pad 2 thru_hole circle (at 8.93 -3.0175) (size 0.6 0.6) (drill 0.3) (layers *.Cu *.Mask))
  (pad 2 thru_hole circle (at 8.93 -1.59) (size 0.6 0.6) (drill 0.3) (layers *.Cu *.Mask))
  (pad 2 thru_hole circle (at 8.93 -0.1625) (size 0.6 0.6) (drill 0.3) (layers *.Cu *.Mask))
  (pad 2 thru_hole circle (at 8.93 1.265) (size 0.6 0.6) (drill 0.3) (layers *.Cu *.Mask))
  (pad 3 thru_hole circle (at 14.98 -4.445) (size 0.6 0.6) (drill 0.3) (layers *.Cu *.Mask))
  (pad 3 thru_hole circle (at 14.98 -1.59) (size 0.6 0.6) (drill 0.3) (layers *.Cu *.Mask))
  (pad 3 thru_hole circle (at 14.98 1.265) (size 0.6 0.6) (drill 0.3) (layers *.Cu *.Mask))
  (pad 3 thru_hole circle (at 13.54 -4.445) (size 0.6 0.6) (drill 0.3) (layers *.Cu *.Mask))
  (pad 3 thru_hole circle (at 13.54 -3.0175) (size 0.6 0.6) (drill 0.3) (layers *.Cu *.Mask))
  (pad 3 thru_hole circle (at 13.54 -1.59) (size 0.6 0.6) (drill 0.3) (layers *.Cu *.Mask))
  (pad 3 thru_hole circle (at 13.54 -0.1625) (size 0.6 0.6) (drill 0.3) (layers *.Cu *.Mask))
  (pad 3 thru_hole circle (at 13.54 1.265) (size 0.6 0.6) (drill 0.3) (layers *.Cu *.Mask))
  (pad 3 thru_hole circle (at 16.42 -4.445) (size 0.6 0.6) (drill 0.3) (layers *.Cu *.Mask))
  (pad 3 thru_hole circle (at 16.42 -3.0175) (size 0.6 0.6) (drill 0.3) (layers *.Cu *.Mask))
  (pad 3 thru_hole circle (at 16.42 -1.59) (size 0.6 0.6) (drill 0.3) (layers *.Cu *.Mask))
  (pad 3 thru_hole circle (at 16.42 -0.1625) (size 0.6 0.6) (drill 0.3) (layers *.Cu *.Mask))
  (pad 3 thru_hole circle (at 16.42 1.265) (size 0.6 0.6) (drill 0.3) (layers *.Cu *.Mask))
  (pad 4 thru_hole circle (at 22.47 -4.445) (size 0.6 0.6) (drill 0.3) (layers *.Cu *.Mask))
  (pad 4 thru_hole circle (at 22.47 -1.59) (size 0.6 0.6) (drill 0.3) (layers *.Cu *.Mask))
  (pad 4 thru_hole circle (at 22.47 1.265) (size 0.6 0.6) (drill 0.3) (layers *.Cu *.Mask))
  (pad 4 thru_hole circle (at 21.03 -4.445) (size 0.6 0.6) (drill 0.3) (layers *.Cu *.Mask))
  (pad 4 thru_hole circle (at 21.03 -3.0175) (size 0.6 0.6) (drill 0.3) (layers *.Cu *.Mask))
  (pad 4 thru_hole circle (at 21.03 -1.59) (size 0.6 0.6) (drill 0.3) (layers *.Cu *.Mask))
  (pad 4 thru_hole circle (at 21.03 -0.1625) (size 0.6 0.6) (drill 0.3) (layers *.Cu *.Mask))
  (pad 4 thru_hole circle (at 21.03 1.265) (size 0.6 0.6) (drill 0.3) (layers *.Cu *.Mask))
  (pad 4 thru_hole circle (at 23.91 -4.445) (size 0.6 0.6) (drill 0.3) (layers *.Cu *.Mask))
  (pad 4 thru_hole circle (at 23.91 -3.0175) (size 0.6 0.6) (drill 0.3) (layers *.Cu *.Mask))
  (pad 4 thru_hole circle (at 23.91 -1.59) (size 0.6 0.6) (drill 0.3) (layers *.Cu *.Mask))
  (pad 4 thru_hole circle (at 23.91 -0.1625) (size 0.6 0.6) (drill 0.3) (layers *.Cu *.Mask))
  (pad 4 thru_hole circle (at 23.91 1.265) (size 0.6 0.6) (drill 0.3) (layers *.Cu *.Mask))
  (pad 5 thru_hole circle (at 29.96 -4.445) (size 0.6 0.6) (drill 0.3) (layers *.Cu *.Mask))
  (pad 5 thru_hole circle (at 29.96 -1.59) (size 0.6 0.6) (drill 0.3) (layers *.Cu *.Mask))
  (pad 5 thru_hole circle (at 29.96 1.265) (size 0.6 0.6) (drill 0.3) (layers *.Cu *.Mask))
  (pad 5 thru_hole circle (at 28.52 -4.445) (size 0.6 0.6) (drill 0.3) (layers *.Cu *.Mask))
  (pad 5 thru_hole circle (at 28.52 -3.0175) (size 0.6 0.6) (drill 0.3) (layers *.Cu *.Mask))
  (pad 5 thru_hole circle (at 28.52 -1.59) (size 0.6 0.6) (drill 0.3) (layers *.Cu *.Mask))
  (pad 5 thru_hole circle (at 28.52 -0.1625) (size 0.6 0.6) (drill 0.3) (layers *.Cu *.Mask))
  (pad 5 thru_hole circle (at 28.52 1.265) (size 0.6 0.6) (drill 0.3) (layers *.Cu *.Mask))
  (pad 5 thru_hole circle (at 31.4 -4.445) (size 0.6 0.6) (drill 0.3) (layers *.Cu *.Mask))
  (pad 5 thru_hole circle (at 31.4 -3.0175) (size 0.6 0.6) (drill 0.3) (layers *.Cu *.Mask))
  (pad 5 thru_hole circle (at 31.4 -1.59) (size 0.6 0.6) (drill 0.3) (layers *.Cu *.Mask))
  (pad 5 thru_hole circle (at 31.4 -0.1625) (size 0.6 0.6) (drill 0.3) (layers *.Cu *.Mask))
  (pad 5 thru_hole circle (at 31.4 1.265) (size 0.6 0.6) (drill 0.3) (layers *.Cu *.Mask))
  (fp_text user %R (at 14.98 3.18) (layer F.Fab)
    (effects (font (size 1 1) (thickness 0.15)))
  )
  (model ${KICAD6_3DMODEL_DIR}/Connector_Molex.3dshapes/Molex_Sabre_43160-0105_1x05_P7.49mm_Vertical_ThermalVias.wrl
    (at (xyz 0 0 0))
    (scale (xyz 1 1 1))
    (rotate (xyz 0 0 0))
  )
)