(module Molex_SlimStack_53748-0208_2x10_P0.50mm_Vertical (layer F.Cu) (tedit 5DFA35B6)
  (descr "Molex SlimStack Fine-Pitch SMT Board-to-Board Connectors, 53748-0208, 20 Pins (https://www.molex.com/pdm_docs/sd/537480308_sd.pdf), generated with kicad-footprint-generator")
  (tags "connector Molex SlimStack vertical")
  (attr smd)
  (fp_text reference REF** (at 0 -5.6) (layer F.SilkS)
    (effects (font (size 1 1) (thickness 0.15)))
  )
  (fp_text value Molex_SlimStack_53748-0208_2x10_P0.50mm_Vertical (at 0 5.6) (layer F.Fab)
    (effects (font (size 1 1) (thickness 0.15)))
  )
  (fp_line (start -2.15 -4.4) (end -2.15 -3.3) (layer F.Fab) (width 0.1))
  (fp_line (start -2.15 -3.3) (end -1.55 -3.3) (layer F.Fab) (width 0.1))
  (fp_line (start -1.55 -3.3) (end -1.55 3.3) (layer F.Fab) (width 0.1))
  (fp_line (start -1.55 3.3) (end -2.15 3.3) (layer F.Fab) (width 0.1))
  (fp_line (start -2.15 3.3) (end -2.15 3.7) (layer F.Fab) (width 0.1))
  (fp_line (start -2.15 3.7) (end -1.66 4.4) (layer F.Fab) (width 0.1))
  (fp_line (start -1.66 4.4) (end 2.15 4.4) (layer F.Fab) (width 0.1))
  (fp_line (start 2.15 4.4) (end 2.15 3.3) (layer F.Fab) (width 0.1))
  (fp_line (start 2.15 3.3) (end 1.55 3.3) (layer F.Fab) (width 0.1))
  (fp_line (start 1.55 3.3) (end 1.55 -3.3) (layer F.Fab) (width 0.1))
  (fp_line (start 1.55 -3.3) (end 2.15 -3.3) (layer F.Fab) (width 0.1))
  (fp_line (start 2.15 -3.3) (end 2.15 -4.4) (layer F.Fab) (width 0.1))
  (fp_line (start 2.15 -4.4) (end -2.15 -4.4) (layer F.Fab) (width 0.1))
  (fp_line (start -0.85 -2.25) (end -1.55 -1.9) (layer F.Fab) (width 0.1))
  (fp_line (start -0.85 -2.25) (end -1.55 -2.6) (layer F.Fab) (width 0.1))
  (fp_line (start 1.66 -2.66) (end 1.66 -3.19) (layer F.SilkS) (width 0.12))
  (fp_line (start 1.66 -3.19) (end 2.26 -3.19) (layer F.SilkS) (width 0.12))
  (fp_line (start 2.26 -3.19) (end 2.26 -4.51) (layer F.SilkS) (width 0.12))
  (fp_line (start 2.26 -4.51) (end -2.26 -4.51) (layer F.SilkS) (width 0.12))
  (fp_line (start -2.26 -4.51) (end -2.26 -3.19) (layer F.SilkS) (width 0.12))
  (fp_line (start -2.26 -3.19) (end -2.26 -3.19) (layer F.SilkS) (width 0.12))
  (fp_line (start -2.26 -3.19) (end -1.66 -3.19) (layer F.SilkS) (width 0.12))
  (fp_line (start -1.66 -3.19) (end -1.66 -2.66) (layer F.SilkS) (width 0.12))
  (fp_line (start -1.66 -2.66) (end -2.25 -2.66) (layer F.SilkS) (width 0.12))
  (fp_line (start 1.66 2.66) (end 1.66 3.19) (layer F.SilkS) (width 0.12))
  (fp_line (start 1.66 3.19) (end 2.26 3.19) (layer F.SilkS) (width 0.12))
  (fp_line (start 2.26 3.19) (end 2.26 4.51) (layer F.SilkS) (width 0.12))
  (fp_line (start 2.26 4.51) (end -1.717262 4.51) (layer F.SilkS) (width 0.12))
  (fp_line (start -1.717262 4.51) (end -2.26 3.734683) (layer F.SilkS) (width 0.12))
  (fp_line (start -2.26 3.734683) (end -2.26 3.19) (layer F.SilkS) (width 0.12))
  (fp_line (start -2.26 3.19) (end -1.66 3.19) (layer F.SilkS) (width 0.12))
  (fp_line (start -1.66 3.19) (end -1.66 2.66) (layer F.SilkS) (width 0.12))
  (fp_line (start -2.8 -4.9) (end -2.8 4.9) (layer F.CrtYd) (width 0.05))
  (fp_line (start -2.8 4.9) (end 2.8 4.9) (layer F.CrtYd) (width 0.05))
  (fp_line (start 2.8 4.9) (end 2.8 -4.9) (layer F.CrtYd) (width 0.05))
  (fp_line (start 2.8 -4.9) (end -2.8 -4.9) (layer F.CrtYd) (width 0.05))
  (pad 1 smd rect (at -1.7 -2.25) (size 1.2 0.3) (layers F.Cu F.Mask F.Paste))
  (pad 3 smd rect (at -1.7 -1.75) (size 1.2 0.3) (layers F.Cu F.Mask F.Paste))
  (pad 5 smd rect (at -1.7 -1.25) (size 1.2 0.3) (layers F.Cu F.Mask F.Paste))
  (pad 7 smd rect (at -1.7 -0.75) (size 1.2 0.3) (layers F.Cu F.Mask F.Paste))
  (pad 9 smd rect (at -1.7 -0.25) (size 1.2 0.3) (layers F.Cu F.Mask F.Paste))
  (pad 11 smd rect (at -1.7 0.25) (size 1.2 0.3) (layers F.Cu F.Mask F.Paste))
  (pad 13 smd rect (at -1.7 0.75) (size 1.2 0.3) (layers F.Cu F.Mask F.Paste))
  (pad 15 smd rect (at -1.7 1.25) (size 1.2 0.3) (layers F.Cu F.Mask F.Paste))
  (pad 17 smd rect (at -1.7 1.75) (size 1.2 0.3) (layers F.Cu F.Mask F.Paste))
  (pad 19 smd rect (at -1.7 2.25) (size 1.2 0.3) (layers F.Cu F.Mask F.Paste))
  (pad 2 smd rect (at 1.7 -2.25) (size 1.2 0.3) (layers F.Cu F.Mask F.Paste))
  (pad 4 smd rect (at 1.7 -1.75) (size 1.2 0.3) (layers F.Cu F.Mask F.Paste))
  (pad 6 smd rect (at 1.7 -1.25) (size 1.2 0.3) (layers F.Cu F.Mask F.Paste))
  (pad 8 smd rect (at 1.7 -0.75) (size 1.2 0.3) (layers F.Cu F.Mask F.Paste))
  (pad 10 smd rect (at 1.7 -0.25) (size 1.2 0.3) (layers F.Cu F.Mask F.Paste))
  (pad 12 smd rect (at 1.7 0.25) (size 1.2 0.3) (layers F.Cu F.Mask F.Paste))
  (pad 14 smd rect (at 1.7 0.75) (size 1.2 0.3) (layers F.Cu F.Mask F.Paste))
  (pad 16 smd rect (at 1.7 1.25) (size 1.2 0.3) (layers F.Cu F.Mask F.Paste))
  (pad 18 smd rect (at 1.7 1.75) (size 1.2 0.3) (layers F.Cu F.Mask F.Paste))
  (pad 20 smd rect (at 1.7 2.25) (size 1.2 0.3) (layers F.Cu F.Mask F.Paste))
  (fp_text user %R (at 0 0 90) (layer F.Fab)
    (effects (font (size 1 1) (thickness 0.15)))
  )
  (model ${KICAD6_3DMODEL_DIR}/Connector_Molex.3dshapes/Molex_SlimStack_53748-0208_2x10_P0.50mm_Vertical.wrl
    (at (xyz 0 0 0))
    (scale (xyz 1 1 1))
    (rotate (xyz 0 0 0))
  )
)