(module Molex_Micro-Fit_3.0_43650-0815_1x08_P3.00mm_Vertical (layer F.Cu) (tedit 5CA3843E)
  (descr "Molex Micro-Fit 3.0 Connector System, 43650-0815 (compatible alternatives: 43650-0816, 43650-0817), 8 Pins per row (http://www.molex.com/pdm_docs/sd/436500215_sd.pdf), generated with kicad-footprint-generator")
  (tags "connector Molex Micro-Fit_3.0 vertical")
  (fp_text reference REF** (at 10.5 -3.67) (layer F.SilkS)
    (effects (font (size 1 1) (thickness 0.15)))
  )
  (fp_text value Molex_Micro-Fit_3.0_43650-0815_1x08_P3.00mm_Vertical (at 10.5 4.5) (layer F.Fab)
    (effects (font (size 1 1) (thickness 0.15)))
  )
  (fp_line (start -2.125 -1.97) (end -2.125 -2.47) (layer F.Fab) (width 0.1))
  (fp_line (start -2.125 -2.47) (end -3.325 -2.47) (layer F.Fab) (width 0.1))
  (fp_line (start -3.325 -2.47) (end -3.325 1.9) (layer F.Fab) (width 0.1))
  (fp_line (start -3.325 1.9) (end 24.325 1.9) (layer F.Fab) (width 0.1))
  (fp_line (start 24.325 1.9) (end 24.325 -2.47) (layer F.Fab) (width 0.1))
  (fp_line (start 24.325 -2.47) (end 23.125 -2.47) (layer F.Fab) (width 0.1))
  (fp_line (start 23.125 -2.47) (end 23.125 -1.97) (layer F.Fab) (width 0.1))
  (fp_line (start 23.125 -1.97) (end -2.125 -1.97) (layer F.Fab) (width 0.1))
  (fp_line (start -3.325 -1.34) (end -2.125 -1.97) (layer F.Fab) (width 0.1))
  (fp_line (start 24.325 -1.34) (end 23.125 -1.97) (layer F.Fab) (width 0.1))
  (fp_line (start 9.8 1.9) (end 9.8 3.3) (layer F.Fab) (width 0.1))
  (fp_line (start 9.8 3.3) (end 11.2 3.3) (layer F.Fab) (width 0.1))
  (fp_line (start 11.2 3.3) (end 11.2 1.9) (layer F.Fab) (width 0.1))
  (fp_line (start -0.5 -1.97) (end 0 -1.262893) (layer F.Fab) (width 0.1))
  (fp_line (start 0 -1.262893) (end 0.5 -1.97) (layer F.Fab) (width 0.1))
  (fp_line (start -3.435 -1.065) (end -3.435 2.01) (layer F.SilkS) (width 0.12))
  (fp_line (start -3.435 2.01) (end 24.435 2.01) (layer F.SilkS) (width 0.12))
  (fp_line (start 24.435 2.01) (end 24.435 -1.065) (layer F.SilkS) (width 0.12))
  (fp_line (start -1.995 -2.58) (end -2.015 -2.58) (layer F.SilkS) (width 0.12))
  (fp_line (start -2.015 -2.58) (end -2.015 -2.08) (layer F.SilkS) (width 0.12))
  (fp_line (start -2.015 -2.08) (end 23.015 -2.08) (layer F.SilkS) (width 0.12))
  (fp_line (start 23.015 -2.08) (end 23.015 -2.58) (layer F.SilkS) (width 0.12))
  (fp_line (start 23.015 -2.58) (end 22.995 -2.58) (layer F.SilkS) (width 0.12))
  (fp_line (start -3.82 -2.97) (end 24.82 -2.97) (layer F.CrtYd) (width 0.05))
  (fp_line (start 24.82 -2.97) (end 24.82 3.8) (layer F.CrtYd) (width 0.05))
  (fp_line (start 24.82 3.8) (end -3.82 3.8) (layer F.CrtYd) (width 0.05))
  (fp_line (start -3.82 3.8) (end -3.82 -2.97) (layer F.CrtYd) (width 0.05))
  (pad "" np_thru_hole circle (at -3 -1.96) (size 1.27 1.27) (drill 1.27) (layers *.Cu *.Mask))
  (pad "" np_thru_hole circle (at 24 -1.96) (size 1.27 1.27) (drill 1.27) (layers *.Cu *.Mask))
  (pad 1 thru_hole roundrect (at 0 0) (size 1.5 2.02) (drill 1.02) (layers *.Cu *.Mask) (roundrect_rratio 0.166667))
  (pad 2 thru_hole oval (at 3 0) (size 1.5 2.02) (drill 1.02) (layers *.Cu *.Mask))
  (pad 3 thru_hole oval (at 6 0) (size 1.5 2.02) (drill 1.02) (layers *.Cu *.Mask))
  (pad 4 thru_hole oval (at 9 0) (size 1.5 2.02) (drill 1.02) (layers *.Cu *.Mask))
  (pad 5 thru_hole oval (at 12 0) (size 1.5 2.02) (drill 1.02) (layers *.Cu *.Mask))
  (pad 6 thru_hole oval (at 15 0) (size 1.5 2.02) (drill 1.02) (layers *.Cu *.Mask))
  (pad 7 thru_hole oval (at 18 0) (size 1.5 2.02) (drill 1.02) (layers *.Cu *.Mask))
  (pad 8 thru_hole oval (at 21 0) (size 1.5 2.02) (drill 1.02) (layers *.Cu *.Mask))
  (fp_text user %R (at 10.5 1.2) (layer F.Fab)
    (effects (font (size 1 1) (thickness 0.15)))
  )
  (model ${KICAD6_3DMODEL_DIR}/Connector_Molex.3dshapes/Molex_Micro-Fit_3.0_43650-0815_1x08_P3.00mm_Vertical.wrl
    (at (xyz 0 0 0))
    (scale (xyz 1 1 1))
    (rotate (xyz 0 0 0))
  )
)