(module Molex_KK-254_AE-6410-09A_1x09_P2.54mm_Vertical (layer F.Cu) (tedit 5EA53D3B)
  (descr "Molex KK-254 Interconnect System, old/engineering part number: AE-6410-09A example for new part number: 22-27-2091, 9 Pins (http://www.molex.com/pdm_docs/sd/022272021_sd.pdf), generated with kicad-footprint-generator")
  (tags "connector Molex KK-254 vertical")
  (fp_text reference REF** (at 10.16 -4.12) (layer F.SilkS)
    (effects (font (size 1 1) (thickness 0.15)))
  )
  (fp_text value Molex_KK-254_AE-6410-09A_1x09_P2.54mm_Vertical (at 10.16 4.08) (layer F.Fab)
    (effects (font (size 1 1) (thickness 0.15)))
  )
  (fp_line (start -1.27 -2.92) (end -1.27 2.88) (layer F.Fab) (width 0.1))
  (fp_line (start -1.27 2.88) (end 21.59 2.88) (layer F.Fab) (width 0.1))
  (fp_line (start 21.59 2.88) (end 21.59 -2.92) (layer F.Fab) (width 0.1))
  (fp_line (start 21.59 -2.92) (end -1.27 -2.92) (layer F.Fab) (width 0.1))
  (fp_line (start -1.38 -3.03) (end -1.38 2.99) (layer F.SilkS) (width 0.12))
  (fp_line (start -1.38 2.99) (end 21.7 2.99) (layer F.SilkS) (width 0.12))
  (fp_line (start 21.7 2.99) (end 21.7 -3.03) (layer F.SilkS) (width 0.12))
  (fp_line (start 21.7 -3.03) (end -1.38 -3.03) (layer F.SilkS) (width 0.12))
  (fp_line (start -1.67 -2) (end -1.67 2) (layer F.SilkS) (width 0.12))
  (fp_line (start -1.27 -0.5) (end -0.562893 0) (layer F.Fab) (width 0.1))
  (fp_line (start -0.562893 0) (end -1.27 0.5) (layer F.Fab) (width 0.1))
  (fp_line (start 0 2.99) (end 0 1.99) (layer F.SilkS) (width 0.12))
  (fp_line (start 0 1.99) (end 5.08 1.99) (layer F.SilkS) (width 0.12))
  (fp_line (start 5.08 1.99) (end 5.08 2.99) (layer F.SilkS) (width 0.12))
  (fp_line (start 0 1.99) (end 0.25 1.46) (layer F.SilkS) (width 0.12))
  (fp_line (start 0.25 1.46) (end 5.08 1.46) (layer F.SilkS) (width 0.12))
  (fp_line (start 5.08 1.46) (end 5.08 1.99) (layer F.SilkS) (width 0.12))
  (fp_line (start 0.25 2.99) (end 0.25 1.99) (layer F.SilkS) (width 0.12))
  (fp_line (start 20.32 2.99) (end 20.32 1.99) (layer F.SilkS) (width 0.12))
  (fp_line (start 20.32 1.99) (end 15.24 1.99) (layer F.SilkS) (width 0.12))
  (fp_line (start 15.24 1.99) (end 15.24 2.99) (layer F.SilkS) (width 0.12))
  (fp_line (start 20.32 1.99) (end 20.07 1.46) (layer F.SilkS) (width 0.12))
  (fp_line (start 20.07 1.46) (end 15.24 1.46) (layer F.SilkS) (width 0.12))
  (fp_line (start 15.24 1.46) (end 15.24 1.99) (layer F.SilkS) (width 0.12))
  (fp_line (start 20.07 2.99) (end 20.07 1.99) (layer F.SilkS) (width 0.12))
  (fp_line (start -0.8 -3.03) (end -0.8 -2.43) (layer F.SilkS) (width 0.12))
  (fp_line (start -0.8 -2.43) (end 0.8 -2.43) (layer F.SilkS) (width 0.12))
  (fp_line (start 0.8 -2.43) (end 0.8 -3.03) (layer F.SilkS) (width 0.12))
  (fp_line (start 1.74 -3.03) (end 1.74 -2.43) (layer F.SilkS) (width 0.12))
  (fp_line (start 1.74 -2.43) (end 3.34 -2.43) (layer F.SilkS) (width 0.12))
  (fp_line (start 3.34 -2.43) (end 3.34 -3.03) (layer F.SilkS) (width 0.12))
  (fp_line (start 4.28 -3.03) (end 4.28 -2.43) (layer F.SilkS) (width 0.12))
  (fp_line (start 4.28 -2.43) (end 5.88 -2.43) (layer F.SilkS) (width 0.12))
  (fp_line (start 5.88 -2.43) (end 5.88 -3.03) (layer F.SilkS) (width 0.12))
  (fp_line (start 6.82 -3.03) (end 6.82 -2.43) (layer F.SilkS) (width 0.12))
  (fp_line (start 6.82 -2.43) (end 8.42 -2.43) (layer F.SilkS) (width 0.12))
  (fp_line (start 8.42 -2.43) (end 8.42 -3.03) (layer F.SilkS) (width 0.12))
  (fp_line (start 9.36 -3.03) (end 9.36 -2.43) (layer F.SilkS) (width 0.12))
  (fp_line (start 9.36 -2.43) (end 10.96 -2.43) (layer F.SilkS) (width 0.12))
  (fp_line (start 10.96 -2.43) (end 10.96 -3.03) (layer F.SilkS) (width 0.12))
  (fp_line (start 11.9 -3.03) (end 11.9 -2.43) (layer F.SilkS) (width 0.12))
  (fp_line (start 11.9 -2.43) (end 13.5 -2.43) (layer F.SilkS) (width 0.12))
  (fp_line (start 13.5 -2.43) (end 13.5 -3.03) (layer F.SilkS) (width 0.12))
  (fp_line (start 14.44 -3.03) (end 14.44 -2.43) (layer F.SilkS) (width 0.12))
  (fp_line (start 14.44 -2.43) (end 16.04 -2.43) (layer F.SilkS) (width 0.12))
  (fp_line (start 16.04 -2.43) (end 16.04 -3.03) (layer F.SilkS) (width 0.12))
  (fp_line (start 16.98 -3.03) (end 16.98 -2.43) (layer F.SilkS) (width 0.12))
  (fp_line (start 16.98 -2.43) (end 18.58 -2.43) (layer F.SilkS) (width 0.12))
  (fp_line (start 18.58 -2.43) (end 18.58 -3.03) (layer F.SilkS) (width 0.12))
  (fp_line (start 19.52 -3.03) (end 19.52 -2.43) (layer F.SilkS) (width 0.12))
  (fp_line (start 19.52 -2.43) (end 21.12 -2.43) (layer F.SilkS) (width 0.12))
  (fp_line (start 21.12 -2.43) (end 21.12 -3.03) (layer F.SilkS) (width 0.12))
  (fp_line (start -1.77 -3.42) (end -1.77 3.38) (layer F.CrtYd) (width 0.05))
  (fp_line (start -1.77 3.38) (end 22.09 3.38) (layer F.CrtYd) (width 0.05))
  (fp_line (start 22.09 3.38) (end 22.09 -3.42) (layer F.CrtYd) (width 0.05))
  (fp_line (start 22.09 -3.42) (end -1.77 -3.42) (layer F.CrtYd) (width 0.05))
  (pad 1 thru_hole roundrect (at 0 0) (size 1.74 2.19) (drill 1.19) (layers *.Cu *.Mask) (roundrect_rratio 0.143678))
  (pad 2 thru_hole oval (at 2.54 0) (size 1.74 2.19) (drill 1.19) (layers *.Cu *.Mask))
  (pad 3 thru_hole oval (at 5.08 0) (size 1.74 2.19) (drill 1.19) (layers *.Cu *.Mask))
  (pad 4 thru_hole oval (at 7.62 0) (size 1.74 2.19) (drill 1.19) (layers *.Cu *.Mask))
  (pad 5 thru_hole oval (at 10.16 0) (size 1.74 2.19) (drill 1.19) (layers *.Cu *.Mask))
  (pad 6 thru_hole oval (at 12.7 0) (size 1.74 2.19) (drill 1.19) (layers *.Cu *.Mask))
  (pad 7 thru_hole oval (at 15.24 0) (size 1.74 2.19) (drill 1.19) (layers *.Cu *.Mask))
  (pad 8 thru_hole oval (at 17.78 0) (size 1.74 2.19) (drill 1.19) (layers *.Cu *.Mask))
  (pad 9 thru_hole oval (at 20.32 0) (size 1.74 2.19) (drill 1.19) (layers *.Cu *.Mask))
  (fp_text user %R (at 10.16 -2.22) (layer F.Fab)
    (effects (font (size 1 1) (thickness 0.15)))
  )
  (model ${KICAD6_3DMODEL_DIR}/Connector_Molex.3dshapes/Molex_KK-254_AE-6410-09A_1x09_P2.54mm_Vertical.wrl
    (at (xyz 0 0 0))
    (scale (xyz 1 1 1))
    (rotate (xyz 0 0 0))
  )
)