(module Molex_Micro-Fit_3.0_43045-0821_2x04-1MP_P3.00mm_Horizontal (layer F.Cu) (tedit 5DC60535)
  (descr "Molex Micro-Fit 3.0 Connector System, 43045-0821 (alternative finishes: 43045-082x), 4 Pins per row (https://www.molex.com/pdm_docs/sd/430450221_sd.pdf), generated with kicad-footprint-generator")
  (tags "connector Molex Micro-Fit_3.0 horizontal")
  (fp_text reference REF** (at 4.5 -10.12) (layer F.SilkS)
    (effects (font (size 1 1) (thickness 0.15)))
  )
  (fp_text value Molex_Micro-Fit_3.0_43045-0821_2x04-1MP_P3.00mm_Horizontal (at 4.5 5.7) (layer F.Fab)
    (effects (font (size 1 1) (thickness 0.15)))
  )
  (fp_line (start -4.325 -2.26) (end -4.325 -0.66) (layer Dwgs.User) (width 0.1))
  (fp_line (start -4.325 -0.66) (end -1.875 -0.66) (layer Dwgs.User) (width 0.1))
  (fp_line (start -1.875 -0.66) (end -1.875 -2.26) (layer Dwgs.User) (width 0.1))
  (fp_line (start -1.875 -2.26) (end -4.325 -2.26) (layer Dwgs.User) (width 0.1))
  (fp_line (start 10.875 -2.26) (end 10.875 -0.66) (layer Dwgs.User) (width 0.1))
  (fp_line (start 10.875 -0.66) (end 13.325 -0.66) (layer Dwgs.User) (width 0.1))
  (fp_line (start 13.325 -0.66) (end 13.325 -2.26) (layer Dwgs.User) (width 0.1))
  (fp_line (start 13.325 -2.26) (end 10.875 -2.26) (layer Dwgs.User) (width 0.1))
  (fp_line (start -3.575 0.99) (end -3.575 -7.92) (layer F.Fab) (width 0.1))
  (fp_line (start -3.575 -7.92) (end -2.575 -8.92) (layer F.Fab) (width 0.1))
  (fp_line (start -2.575 -8.92) (end 11.575 -8.92) (layer F.Fab) (width 0.1))
  (fp_line (start 11.575 -8.92) (end 12.575 -7.92) (layer F.Fab) (width 0.1))
  (fp_line (start 12.575 -7.92) (end 12.575 0.99) (layer F.Fab) (width 0.1))
  (fp_line (start 12.575 0.99) (end -3.575 0.99) (layer F.Fab) (width 0.1))
  (fp_line (start -0.75 0.99) (end 0 0) (layer F.Fab) (width 0.1))
  (fp_line (start 0 0) (end 0.75 0.99) (layer F.Fab) (width 0.1))
  (fp_line (start -3.685 -5.915) (end -3.685 -8.03) (layer F.SilkS) (width 0.12))
  (fp_line (start -3.685 -8.03) (end -2.685 -9.03) (layer F.SilkS) (width 0.12))
  (fp_line (start -2.685 -9.03) (end 11.685 -9.03) (layer F.SilkS) (width 0.12))
  (fp_line (start 11.685 -9.03) (end 12.685 -8.03) (layer F.SilkS) (width 0.12))
  (fp_line (start 12.685 -8.03) (end 12.685 -5.915) (layer F.SilkS) (width 0.12))
  (fp_line (start -3.685 -2.725) (end -3.685 1.1) (layer F.SilkS) (width 0.12))
  (fp_line (start -3.685 1.1) (end 12.685 1.1) (layer F.SilkS) (width 0.12))
  (fp_line (start 12.685 1.1) (end 12.685 -2.725) (layer F.SilkS) (width 0.12))
  (fp_line (start -4.36 1.49) (end -4.36 -9.42) (layer F.CrtYd) (width 0.05))
  (fp_line (start -4.36 -9.42) (end 13.36 -9.42) (layer F.CrtYd) (width 0.05))
  (fp_line (start 13.36 -9.42) (end 13.36 1.49) (layer F.CrtYd) (width 0.05))
  (fp_line (start 13.36 1.49) (end 10.25 1.49) (layer F.CrtYd) (width 0.05))
  (fp_line (start 10.25 1.49) (end 10.25 4.25) (layer F.CrtYd) (width 0.05))
  (fp_line (start 10.25 4.25) (end -1.25 4.25) (layer F.CrtYd) (width 0.05))
  (fp_line (start -1.25 4.25) (end -1.25 1.49) (layer F.CrtYd) (width 0.05))
  (fp_line (start -1.25 1.49) (end -4.36 1.49) (layer F.CrtYd) (width 0.05))
  (pad MP thru_hole circle (at -2.15 -4.32) (size 3.41 3.41) (drill 2.41) (layers *.Cu *.Mask))
  (pad MP thru_hole circle (at 11.15 -4.32) (size 3.41 3.41) (drill 2.41) (layers *.Cu *.Mask))
  (pad 1 thru_hole roundrect (at 0 0) (size 1.5 1.5) (drill 1.02) (layers *.Cu *.Mask) (roundrect_rratio 0.166667))
  (pad 2 thru_hole circle (at 3 0) (size 1.5 1.5) (drill 1.02) (layers *.Cu *.Mask))
  (pad 3 thru_hole circle (at 6 0) (size 1.5 1.5) (drill 1.02) (layers *.Cu *.Mask))
  (pad 4 thru_hole circle (at 9 0) (size 1.5 1.5) (drill 1.02) (layers *.Cu *.Mask))
  (pad 5 thru_hole circle (at 0 3) (size 1.5 1.5) (drill 1.02) (layers *.Cu *.Mask))
  (pad 6 thru_hole circle (at 3 3) (size 1.5 1.5) (drill 1.02) (layers *.Cu *.Mask))
  (pad 7 thru_hole circle (at 6 3) (size 1.5 1.5) (drill 1.02) (layers *.Cu *.Mask))
  (pad 8 thru_hole circle (at 9 3) (size 1.5 1.5) (drill 1.02) (layers *.Cu *.Mask))
  (fp_text user "CU KEEPOUT" (at -3.1 -1.46) (layer Cmts.User)
    (effects (font (size 0.245 0.245) (thickness 0.03675)))
  )
  (fp_text user "CU KEEPOUT" (at 12.1 -1.46) (layer Cmts.User)
    (effects (font (size 0.245 0.245) (thickness 0.03675)))
  )
  (fp_text user %R (at 4.5 -8.22) (layer F.Fab)
    (effects (font (size 1 1) (thickness 0.15)))
  )
  (model ${KICAD6_3DMODEL_DIR}/Connector_Molex.3dshapes/Molex_Micro-Fit_3.0_43045-0821_2x04-1MP_P3.00mm_Horizontal.wrl
    (at (xyz 0 0 0))
    (scale (xyz 1 1 1))
    (rotate (xyz 0 0 0))
  )
)