(module Molex_Mini-Fit_Sr_42819-52XX_1x05_P10.00mm_Vertical_ThermalVias (layer F.Cu) (tedit 5B782361)
  (descr "Molex Mini-Fit Sr. Power Connectors, 42819-52XX, With thermal vias in pads, 5 Pins per row (http://www.molex.com/pdm_docs/sd/428192214_sd.pdf), generated with kicad-footprint-generator")
  (tags "connector Molex Mini-Fit_Sr side entry")
  (fp_text reference REF** (at 3.26 -8.93) (layer F.SilkS)
    (effects (font (size 1 1) (thickness 0.15)))
  )
  (fp_text value Molex_Mini-Fit_Sr_42819-52XX_1x05_P10.00mm_Vertical_ThermalVias (at 3.26 48.93) (layer F.Fab)
    (effects (font (size 1 1) (thickness 0.15)))
  )
  (fp_line (start -2.51 -2.66) (end -2.51 2.66) (layer B.SilkS) (width 0.12))
  (fp_line (start -2.51 2.66) (end 6.91 2.66) (layer B.SilkS) (width 0.12))
  (fp_line (start 6.91 2.66) (end 6.91 -2.66) (layer B.SilkS) (width 0.12))
  (fp_line (start 6.91 -2.66) (end -2.51 -2.66) (layer B.SilkS) (width 0.12))
  (fp_line (start -1.34 -6.91) (end -1.34 46.91) (layer F.Fab) (width 0.1))
  (fp_line (start -1.34 46.91) (end 7.86 46.91) (layer F.Fab) (width 0.1))
  (fp_line (start 7.86 46.91) (end 7.86 -6.91) (layer F.Fab) (width 0.1))
  (fp_line (start 7.86 -6.91) (end -1.34 -6.91) (layer F.Fab) (width 0.1))
  (fp_line (start -1.34 -5.45) (end 7.86 -5.45) (layer F.Fab) (width 0.1))
  (fp_line (start -1.34 45.45) (end 7.86 45.45) (layer F.Fab) (width 0.1))
  (fp_line (start -1.45 -2.66) (end -1.45 -7.02) (layer F.SilkS) (width 0.12))
  (fp_line (start -1.45 -7.02) (end 2.05 -7.02) (layer F.SilkS) (width 0.12))
  (fp_line (start -1.45 42.66) (end -1.45 47.02) (layer F.SilkS) (width 0.12))
  (fp_line (start -1.45 47.02) (end 2.05 47.02) (layer F.SilkS) (width 0.12))
  (fp_line (start 6.05 -7.02) (end 7.97 -7.02) (layer F.SilkS) (width 0.12))
  (fp_line (start 7.97 -7.02) (end 7.97 20) (layer F.SilkS) (width 0.12))
  (fp_line (start 6.05 47.02) (end 7.97 47.02) (layer F.SilkS) (width 0.12))
  (fp_line (start 7.97 47.02) (end 7.97 20) (layer F.SilkS) (width 0.12))
  (fp_line (start -1.45 2.66) (end -1.45 7.34) (layer F.SilkS) (width 0.12))
  (fp_line (start -1.45 12.66) (end -1.45 17.34) (layer F.SilkS) (width 0.12))
  (fp_line (start -1.45 22.66) (end -1.45 27.34) (layer F.SilkS) (width 0.12))
  (fp_line (start -1.45 32.66) (end -1.45 37.34) (layer F.SilkS) (width 0.12))
  (fp_line (start 7.86 -0.8) (end 9.46 -0.8) (layer F.Fab) (width 0.1))
  (fp_line (start 9.46 -0.8) (end 9.46 0.8) (layer F.Fab) (width 0.1))
  (fp_line (start 9.46 0.8) (end 7.86 0.8) (layer F.Fab) (width 0.1))
  (fp_line (start 7.97 -0.91) (end 9.57 -0.91) (layer F.SilkS) (width 0.12))
  (fp_line (start 9.57 -0.91) (end 9.57 0.91) (layer F.SilkS) (width 0.12))
  (fp_line (start 9.57 0.91) (end 7.97 0.91) (layer F.SilkS) (width 0.12))
  (fp_line (start 7.86 9.2) (end 9.46 9.2) (layer F.Fab) (width 0.1))
  (fp_line (start 9.46 9.2) (end 9.46 10.8) (layer F.Fab) (width 0.1))
  (fp_line (start 9.46 10.8) (end 7.86 10.8) (layer F.Fab) (width 0.1))
  (fp_line (start 7.97 9.09) (end 9.57 9.09) (layer F.SilkS) (width 0.12))
  (fp_line (start 9.57 9.09) (end 9.57 10.91) (layer F.SilkS) (width 0.12))
  (fp_line (start 9.57 10.91) (end 7.97 10.91) (layer F.SilkS) (width 0.12))
  (fp_line (start 7.86 19.2) (end 9.46 19.2) (layer F.Fab) (width 0.1))
  (fp_line (start 9.46 19.2) (end 9.46 20.8) (layer F.Fab) (width 0.1))
  (fp_line (start 9.46 20.8) (end 7.86 20.8) (layer F.Fab) (width 0.1))
  (fp_line (start 7.97 19.09) (end 9.57 19.09) (layer F.SilkS) (width 0.12))
  (fp_line (start 9.57 19.09) (end 9.57 20.91) (layer F.SilkS) (width 0.12))
  (fp_line (start 9.57 20.91) (end 7.97 20.91) (layer F.SilkS) (width 0.12))
  (fp_line (start 7.86 29.2) (end 9.46 29.2) (layer F.Fab) (width 0.1))
  (fp_line (start 9.46 29.2) (end 9.46 30.8) (layer F.Fab) (width 0.1))
  (fp_line (start 9.46 30.8) (end 7.86 30.8) (layer F.Fab) (width 0.1))
  (fp_line (start 7.97 29.09) (end 9.57 29.09) (layer F.SilkS) (width 0.12))
  (fp_line (start 9.57 29.09) (end 9.57 30.91) (layer F.SilkS) (width 0.12))
  (fp_line (start 9.57 30.91) (end 7.97 30.91) (layer F.SilkS) (width 0.12))
  (fp_line (start 7.86 39.2) (end 9.46 39.2) (layer F.Fab) (width 0.1))
  (fp_line (start 9.46 39.2) (end 9.46 40.8) (layer F.Fab) (width 0.1))
  (fp_line (start 9.46 40.8) (end 7.86 40.8) (layer F.Fab) (width 0.1))
  (fp_line (start 7.97 39.09) (end 9.57 39.09) (layer F.SilkS) (width 0.12))
  (fp_line (start 9.57 39.09) (end 9.57 40.91) (layer F.SilkS) (width 0.12))
  (fp_line (start 9.57 40.91) (end 7.97 40.91) (layer F.SilkS) (width 0.12))
  (fp_line (start -1.34 18.2) (end -1.34 21.8) (layer F.Fab) (width 0.1))
  (fp_line (start -1.34 21.8) (end -4.64 21.8) (layer F.Fab) (width 0.1))
  (fp_line (start -4.64 21.8) (end -4.64 18.2) (layer F.Fab) (width 0.1))
  (fp_line (start -4.64 18.2) (end -1.34 18.2) (layer F.Fab) (width 0.1))
  (fp_line (start -3.25 18.09) (end -4.75 18.09) (layer F.SilkS) (width 0.12))
  (fp_line (start -4.75 18.09) (end -4.75 21.91) (layer F.SilkS) (width 0.12))
  (fp_line (start -4.75 21.91) (end -3.25 21.91) (layer F.SilkS) (width 0.12))
  (fp_line (start -1.34 -1.2) (end 0.357056 0) (layer F.Fab) (width 0.1))
  (fp_line (start 0.357056 0) (end -1.34 1.2) (layer F.Fab) (width 0.1))
  (fp_line (start 7.86 -1.2) (end 6.162944 0) (layer F.Fab) (width 0.1))
  (fp_line (start 6.162944 0) (end 7.86 1.2) (layer F.Fab) (width 0.1))
  (fp_line (start -2.51 0) (end -3.31 -0.4) (layer F.SilkS) (width 0.12))
  (fp_line (start -3.31 -0.4) (end -3.31 0.4) (layer F.SilkS) (width 0.12))
  (fp_line (start -3.31 0.4) (end -2.51 0) (layer F.SilkS) (width 0.12))
  (fp_line (start -5.14 -8.23) (end -5.14 48.23) (layer F.CrtYd) (width 0.05))
  (fp_line (start -5.14 48.23) (end 8.36 48.23) (layer F.CrtYd) (width 0.05))
  (fp_line (start 8.36 48.23) (end 8.36 -8.23) (layer F.CrtYd) (width 0.05))
  (fp_line (start 8.36 -8.23) (end -5.14 -8.23) (layer F.CrtYd) (width 0.05))
  (pad 1 thru_hole rect (at 0 0) (size 4.5 4.8) (drill 2.8) (layers *.Cu *.Mask))
  (pad 2 thru_hole rect (at 0 10) (size 4.5 4.8) (drill 2.8) (layers *.Cu *.Mask))
  (pad 3 thru_hole rect (at 0 20) (size 4.5 4.8) (drill 2.8) (layers *.Cu *.Mask))
  (pad 4 thru_hole rect (at 0 30) (size 4.5 4.8) (drill 2.8) (layers *.Cu *.Mask))
  (pad 5 thru_hole rect (at 0 40) (size 4.5 4.8) (drill 2.8) (layers *.Cu *.Mask))
  (pad 1 thru_hole rect (at 4.4 0) (size 4.5 4.8) (drill 2.8) (layers *.Cu *.Mask))
  (pad 2 thru_hole rect (at 4.4 10) (size 4.5 4.8) (drill 2.8) (layers *.Cu *.Mask))
  (pad 3 thru_hole rect (at 4.4 20) (size 4.5 4.8) (drill 2.8) (layers *.Cu *.Mask))
  (pad 4 thru_hole rect (at 4.4 30) (size 4.5 4.8) (drill 2.8) (layers *.Cu *.Mask))
  (pad 5 thru_hole rect (at 4.4 40) (size 4.5 4.8) (drill 2.8) (layers *.Cu *.Mask))
  (pad 1 thru_hole roundrect (at -1.8 0) (size 0.6 0.6) (drill 0.3) (layers *.Cu *.Mask) (roundrect_rratio 0.25))
  (pad 1 thru_hole roundrect (at 2.2 0) (size 0.6 0.6) (drill 0.3) (layers *.Cu *.Mask) (roundrect_rratio 0.25))
  (pad 1 thru_hole roundrect (at 6.2 0) (size 0.6 0.6) (drill 0.3) (layers *.Cu *.Mask) (roundrect_rratio 0.25))
  (pad 1 thru_hole roundrect (at -1.8 -1.95) (size 0.6 0.6) (drill 0.3) (layers *.Cu *.Mask) (roundrect_rratio 0.25))
  (pad 1 thru_hole roundrect (at 0.2 -1.95) (size 0.6 0.6) (drill 0.3) (layers *.Cu *.Mask) (roundrect_rratio 0.25))
  (pad 1 thru_hole roundrect (at 2.2 -1.95) (size 0.6 0.6) (drill 0.3) (layers *.Cu *.Mask) (roundrect_rratio 0.25))
  (pad 1 thru_hole roundrect (at 4.2 -1.95) (size 0.6 0.6) (drill 0.3) (layers *.Cu *.Mask) (roundrect_rratio 0.25))
  (pad 1 thru_hole roundrect (at 6.2 -1.95) (size 0.6 0.6) (drill 0.3) (layers *.Cu *.Mask) (roundrect_rratio 0.25))
  (pad 1 thru_hole roundrect (at -1.8 1.95) (size 0.6 0.6) (drill 0.3) (layers *.Cu *.Mask) (roundrect_rratio 0.25))
  (pad 1 thru_hole roundrect (at 0.2 1.95) (size 0.6 0.6) (drill 0.3) (layers *.Cu *.Mask) (roundrect_rratio 0.25))
  (pad 1 thru_hole roundrect (at 2.2 1.95) (size 0.6 0.6) (drill 0.3) (layers *.Cu *.Mask) (roundrect_rratio 0.25))
  (pad 1 thru_hole roundrect (at 4.2 1.95) (size 0.6 0.6) (drill 0.3) (layers *.Cu *.Mask) (roundrect_rratio 0.25))
  (pad 1 thru_hole roundrect (at 6.2 1.95) (size 0.6 0.6) (drill 0.3) (layers *.Cu *.Mask) (roundrect_rratio 0.25))
  (pad 2 thru_hole circle (at -1.8 10) (size 0.6 0.6) (drill 0.3) (layers *.Cu *.Mask))
  (pad 2 thru_hole circle (at 2.2 10) (size 0.6 0.6) (drill 0.3) (layers *.Cu *.Mask))
  (pad 2 thru_hole circle (at 6.2 10) (size 0.6 0.6) (drill 0.3) (layers *.Cu *.Mask))
  (pad 2 thru_hole circle (at -1.8 8.05) (size 0.6 0.6) (drill 0.3) (layers *.Cu *.Mask))
  (pad 2 thru_hole circle (at 0.2 8.05) (size 0.6 0.6) (drill 0.3) (layers *.Cu *.Mask))
  (pad 2 thru_hole circle (at 2.2 8.05) (size 0.6 0.6) (drill 0.3) (layers *.Cu *.Mask))
  (pad 2 thru_hole circle (at 4.2 8.05) (size 0.6 0.6) (drill 0.3) (layers *.Cu *.Mask))
  (pad 2 thru_hole circle (at 6.2 8.05) (size 0.6 0.6) (drill 0.3) (layers *.Cu *.Mask))
  (pad 2 thru_hole circle (at -1.8 11.95) (size 0.6 0.6) (drill 0.3) (layers *.Cu *.Mask))
  (pad 2 thru_hole circle (at 0.2 11.95) (size 0.6 0.6) (drill 0.3) (layers *.Cu *.Mask))
  (pad 2 thru_hole circle (at 2.2 11.95) (size 0.6 0.6) (drill 0.3) (layers *.Cu *.Mask))
  (pad 2 thru_hole circle (at 4.2 11.95) (size 0.6 0.6) (drill 0.3) (layers *.Cu *.Mask))
  (pad 2 thru_hole circle (at 6.2 11.95) (size 0.6 0.6) (drill 0.3) (layers *.Cu *.Mask))
  (pad 3 thru_hole circle (at -1.8 20) (size 0.6 0.6) (drill 0.3) (layers *.Cu *.Mask))
  (pad 3 thru_hole circle (at 2.2 20) (size 0.6 0.6) (drill 0.3) (layers *.Cu *.Mask))
  (pad 3 thru_hole circle (at 6.2 20) (size 0.6 0.6) (drill 0.3) (layers *.Cu *.Mask))
  (pad 3 thru_hole circle (at -1.8 18.05) (size 0.6 0.6) (drill 0.3) (layers *.Cu *.Mask))
  (pad 3 thru_hole circle (at 0.2 18.05) (size 0.6 0.6) (drill 0.3) (layers *.Cu *.Mask))
  (pad 3 thru_hole circle (at 2.2 18.05) (size 0.6 0.6) (drill 0.3) (layers *.Cu *.Mask))
  (pad 3 thru_hole circle (at 4.2 18.05) (size 0.6 0.6) (drill 0.3) (layers *.Cu *.Mask))
  (pad 3 thru_hole circle (at 6.2 18.05) (size 0.6 0.6) (drill 0.3) (layers *.Cu *.Mask))
  (pad 3 thru_hole circle (at -1.8 21.95) (size 0.6 0.6) (drill 0.3) (layers *.Cu *.Mask))
  (pad 3 thru_hole circle (at 0.2 21.95) (size 0.6 0.6) (drill 0.3) (layers *.Cu *.Mask))
  (pad 3 thru_hole circle (at 2.2 21.95) (size 0.6 0.6) (drill 0.3) (layers *.Cu *.Mask))
  (pad 3 thru_hole circle (at 4.2 21.95) (size 0.6 0.6) (drill 0.3) (layers *.Cu *.Mask))
  (pad 3 thru_hole circle (at 6.2 21.95) (size 0.6 0.6) (drill 0.3) (layers *.Cu *.Mask))
  (pad 4 thru_hole circle (at -1.8 30) (size 0.6 0.6) (drill 0.3) (layers *.Cu *.Mask))
  (pad 4 thru_hole circle (at 2.2 30) (size 0.6 0.6) (drill 0.3) (layers *.Cu *.Mask))
  (pad 4 thru_hole circle (at 6.2 30) (size 0.6 0.6) (drill 0.3) (layers *.Cu *.Mask))
  (pad 4 thru_hole circle (at -1.8 28.05) (size 0.6 0.6) (drill 0.3) (layers *.Cu *.Mask))
  (pad 4 thru_hole circle (at 0.2 28.05) (size 0.6 0.6) (drill 0.3) (layers *.Cu *.Mask))
  (pad 4 thru_hole circle (at 2.2 28.05) (size 0.6 0.6) (drill 0.3) (layers *.Cu *.Mask))
  (pad 4 thru_hole circle (at 4.2 28.05) (size 0.6 0.6) (drill 0.3) (layers *.Cu *.Mask))
  (pad 4 thru_hole circle (at 6.2 28.05) (size 0.6 0.6) (drill 0.3) (layers *.Cu *.Mask))
  (pad 4 thru_hole circle (at -1.8 31.95) (size 0.6 0.6) (drill 0.3) (layers *.Cu *.Mask))
  (pad 4 thru_hole circle (at 0.2 31.95) (size 0.6 0.6) (drill 0.3) (layers *.Cu *.Mask))
  (pad 4 thru_hole circle (at 2.2 31.95) (size 0.6 0.6) (drill 0.3) (layers *.Cu *.Mask))
  (pad 4 thru_hole circle (at 4.2 31.95) (size 0.6 0.6) (drill 0.3) (layers *.Cu *.Mask))
  (pad 4 thru_hole circle (at 6.2 31.95) (size 0.6 0.6) (drill 0.3) (layers *.Cu *.Mask))
  (pad 5 thru_hole circle (at -1.8 40) (size 0.6 0.6) (drill 0.3) (layers *.Cu *.Mask))
  (pad 5 thru_hole circle (at 2.2 40) (size 0.6 0.6) (drill 0.3) (layers *.Cu *.Mask))
  (pad 5 thru_hole circle (at 6.2 40) (size 0.6 0.6) (drill 0.3) (layers *.Cu *.Mask))
  (pad 5 thru_hole circle (at -1.8 38.05) (size 0.6 0.6) (drill 0.3) (layers *.Cu *.Mask))
  (pad 5 thru_hole circle (at 0.2 38.05) (size 0.6 0.6) (drill 0.3) (layers *.Cu *.Mask))
  (pad 5 thru_hole circle (at 2.2 38.05) (size 0.6 0.6) (drill 0.3) (layers *.Cu *.Mask))
  (pad 5 thru_hole circle (at 4.2 38.05) (size 0.6 0.6) (drill 0.3) (layers *.Cu *.Mask))
  (pad 5 thru_hole circle (at 6.2 38.05) (size 0.6 0.6) (drill 0.3) (layers *.Cu *.Mask))
  (pad 5 thru_hole circle (at -1.8 41.95) (size 0.6 0.6) (drill 0.3) (layers *.Cu *.Mask))
  (pad 5 thru_hole circle (at 0.2 41.95) (size 0.6 0.6) (drill 0.3) (layers *.Cu *.Mask))
  (pad 5 thru_hole circle (at 2.2 41.95) (size 0.6 0.6) (drill 0.3) (layers *.Cu *.Mask))
  (pad 5 thru_hole circle (at 4.2 41.95) (size 0.6 0.6) (drill 0.3) (layers *.Cu *.Mask))
  (pad 5 thru_hole circle (at 6.2 41.95) (size 0.6 0.6) (drill 0.3) (layers *.Cu *.Mask))
  (pad "" thru_hole circle (at 4.05 -5.73) (size 4 4) (drill 3) (layers *.Cu *.Mask))
  (pad "" thru_hole circle (at 4.05 45.73) (size 4 4) (drill 3) (layers *.Cu *.Mask))
  (fp_text user %R (at 3.26 44.75) (layer F.Fab)
    (effects (font (size 1 1) (thickness 0.15)))
  )
  (model ${KICAD6_3DMODEL_DIR}/Connector_Molex.3dshapes/Molex_Mini-Fit_Sr_42819-52XX_1x05_P10.00mm_Vertical_ThermalVias.wrl
    (at (xyz 0 0 0))
    (scale (xyz 1 1 1))
    (rotate (xyz 0 0 0))
  )
)