(module Molex_Micro-Fit_3.0_43045-1618_2x08-1MP_P3.00mm_Vertical (layer F.Cu) (tedit 5AA47B22)
  (descr "Molex Micro-Fit 3.0 Connector System, 43045-1618 (compatible alternatives: 43045-1619, 43045-1620), 8 Pins per row (http://www.molex.com/pdm_docs/sd/430450218_sd.pdf), generated with kicad-footprint-generator")
  (tags "connector Molex Micro-Fit_3.0 side entry")
  (attr smd)
  (fp_text reference REF** (at 0 -7.17) (layer F.SilkS)
    (effects (font (size 1 1) (thickness 0.15)))
  )
  (fp_text value Molex_Micro-Fit_3.0_43045-1618_2x08-1MP_P3.00mm_Vertical (at 0 7.17) (layer F.Fab)
    (effects (font (size 1 1) (thickness 0.15)))
  )
  (fp_line (start -12.625 -3.44) (end -12.625 -3.94) (layer F.Fab) (width 0.1))
  (fp_line (start -12.625 -3.94) (end -13.825 -3.94) (layer F.Fab) (width 0.1))
  (fp_line (start -13.825 -3.94) (end -13.825 3.43) (layer F.Fab) (width 0.1))
  (fp_line (start -13.825 3.43) (end 13.825 3.43) (layer F.Fab) (width 0.1))
  (fp_line (start 13.825 3.43) (end 13.825 -3.94) (layer F.Fab) (width 0.1))
  (fp_line (start 13.825 -3.94) (end 12.625 -3.94) (layer F.Fab) (width 0.1))
  (fp_line (start 12.625 -3.94) (end 12.625 -3.44) (layer F.Fab) (width 0.1))
  (fp_line (start 12.625 -3.44) (end -12.625 -3.44) (layer F.Fab) (width 0.1))
  (fp_line (start -13.825 -2.81) (end -12.625 -3.44) (layer F.Fab) (width 0.1))
  (fp_line (start 13.825 -2.81) (end 12.625 -3.44) (layer F.Fab) (width 0.1))
  (fp_line (start -0.7 3.43) (end -0.7 4.83) (layer F.Fab) (width 0.1))
  (fp_line (start -0.7 4.83) (end 0.7 4.83) (layer F.Fab) (width 0.1))
  (fp_line (start 0.7 4.83) (end 0.7 3.43) (layer F.Fab) (width 0.1))
  (fp_line (start -11 -3.44) (end -10.5 -2.732893) (layer F.Fab) (width 0.1))
  (fp_line (start -10.5 -2.732893) (end -10 -3.44) (layer F.Fab) (width 0.1))
  (fp_line (start -13.935 1.085) (end -13.935 3.54) (layer F.SilkS) (width 0.12))
  (fp_line (start -13.935 3.54) (end -11.395 3.54) (layer F.SilkS) (width 0.12))
  (fp_line (start 13.935 1.085) (end 13.935 3.54) (layer F.SilkS) (width 0.12))
  (fp_line (start 13.935 3.54) (end 11.395 3.54) (layer F.SilkS) (width 0.12))
  (fp_line (start -13.935 -1.085) (end -13.935 -4.05) (layer F.SilkS) (width 0.12))
  (fp_line (start -13.935 -4.05) (end -12.515 -4.05) (layer F.SilkS) (width 0.12))
  (fp_line (start -12.515 -4.05) (end -12.515 -3.55) (layer F.SilkS) (width 0.12))
  (fp_line (start -12.515 -3.55) (end -11.395 -3.55) (layer F.SilkS) (width 0.12))
  (fp_line (start -11.395 -3.55) (end -11.395 -5.97) (layer F.SilkS) (width 0.12))
  (fp_line (start 13.935 -1.085) (end 13.935 -4.05) (layer F.SilkS) (width 0.12))
  (fp_line (start 13.935 -4.05) (end 12.515 -4.05) (layer F.SilkS) (width 0.12))
  (fp_line (start 12.515 -4.05) (end 12.515 -3.55) (layer F.SilkS) (width 0.12))
  (fp_line (start 12.515 -3.55) (end 11.395 -3.55) (layer F.SilkS) (width 0.12))
  (fp_line (start 0 -6.47) (end -11.64 -6.47) (layer F.CrtYd) (width 0.05))
  (fp_line (start -11.64 -6.47) (end -11.64 -4.44) (layer F.CrtYd) (width 0.05))
  (fp_line (start -11.64 -4.44) (end -14.32 -4.44) (layer F.CrtYd) (width 0.05))
  (fp_line (start -14.32 -4.44) (end -14.32 -1.32) (layer F.CrtYd) (width 0.05))
  (fp_line (start -14.32 -1.32) (end -16.6 -1.32) (layer F.CrtYd) (width 0.05))
  (fp_line (start -16.6 -1.32) (end -16.6 1.32) (layer F.CrtYd) (width 0.05))
  (fp_line (start -16.6 1.32) (end -14.32 1.32) (layer F.CrtYd) (width 0.05))
  (fp_line (start -14.32 1.32) (end -14.32 3.93) (layer F.CrtYd) (width 0.05))
  (fp_line (start -14.32 3.93) (end -11.64 3.93) (layer F.CrtYd) (width 0.05))
  (fp_line (start -11.64 3.93) (end -11.64 6.47) (layer F.CrtYd) (width 0.05))
  (fp_line (start -11.64 6.47) (end 0 6.47) (layer F.CrtYd) (width 0.05))
  (fp_line (start 0 -6.47) (end 11.64 -6.47) (layer F.CrtYd) (width 0.05))
  (fp_line (start 11.64 -6.47) (end 11.64 -4.44) (layer F.CrtYd) (width 0.05))
  (fp_line (start 11.64 -4.44) (end 14.32 -4.44) (layer F.CrtYd) (width 0.05))
  (fp_line (start 14.32 -4.44) (end 14.32 -1.32) (layer F.CrtYd) (width 0.05))
  (fp_line (start 14.32 -1.32) (end 16.6 -1.32) (layer F.CrtYd) (width 0.05))
  (fp_line (start 16.6 -1.32) (end 16.6 1.32) (layer F.CrtYd) (width 0.05))
  (fp_line (start 16.6 1.32) (end 14.32 1.32) (layer F.CrtYd) (width 0.05))
  (fp_line (start 14.32 1.32) (end 14.32 3.93) (layer F.CrtYd) (width 0.05))
  (fp_line (start 14.32 3.93) (end 11.64 3.93) (layer F.CrtYd) (width 0.05))
  (fp_line (start 11.64 3.93) (end 11.64 6.47) (layer F.CrtYd) (width 0.05))
  (fp_line (start 11.64 6.47) (end 0 6.47) (layer F.CrtYd) (width 0.05))
  (pad MP smd rect (at -14.385 0) (size 3.43 1.65) (layers F.Cu F.Mask F.Paste))
  (pad MP smd rect (at 14.385 0) (size 3.43 1.65) (layers F.Cu F.Mask F.Paste))
  (pad 1 smd rect (at -10.5 -4.7) (size 1.27 2.54) (layers F.Cu F.Mask F.Paste))
  (pad 2 smd rect (at -7.5 -4.7) (size 1.27 2.54) (layers F.Cu F.Mask F.Paste))
  (pad 3 smd rect (at -4.5 -4.7) (size 1.27 2.54) (layers F.Cu F.Mask F.Paste))
  (pad 4 smd rect (at -1.5 -4.7) (size 1.27 2.54) (layers F.Cu F.Mask F.Paste))
  (pad 5 smd rect (at 1.5 -4.7) (size 1.27 2.54) (layers F.Cu F.Mask F.Paste))
  (pad 6 smd rect (at 4.5 -4.7) (size 1.27 2.54) (layers F.Cu F.Mask F.Paste))
  (pad 7 smd rect (at 7.5 -4.7) (size 1.27 2.54) (layers F.Cu F.Mask F.Paste))
  (pad 8 smd rect (at 10.5 -4.7) (size 1.27 2.54) (layers F.Cu F.Mask F.Paste))
  (pad 9 smd rect (at -10.5 4.7) (size 1.27 2.54) (layers F.Cu F.Mask F.Paste))
  (pad 10 smd rect (at -7.5 4.7) (size 1.27 2.54) (layers F.Cu F.Mask F.Paste))
  (pad 11 smd rect (at -4.5 4.7) (size 1.27 2.54) (layers F.Cu F.Mask F.Paste))
  (pad 12 smd rect (at -1.5 4.7) (size 1.27 2.54) (layers F.Cu F.Mask F.Paste))
  (pad 13 smd rect (at 1.5 4.7) (size 1.27 2.54) (layers F.Cu F.Mask F.Paste))
  (pad 14 smd rect (at 4.5 4.7) (size 1.27 2.54) (layers F.Cu F.Mask F.Paste))
  (pad 15 smd rect (at 7.5 4.7) (size 1.27 2.54) (layers F.Cu F.Mask F.Paste))
  (pad 16 smd rect (at 10.5 4.7) (size 1.27 2.54) (layers F.Cu F.Mask F.Paste))
  (fp_text user %R (at 0 2.73) (layer F.Fab)
    (effects (font (size 1 1) (thickness 0.15)))
  )
  (model ${KICAD6_3DMODEL_DIR}/Connector_Molex.3dshapes/Molex_Micro-Fit_3.0_43045-1618_2x08-1MP_P3.00mm_Vertical.wrl
    (at (xyz 0 0 0))
    (scale (xyz 1 1 1))
    (rotate (xyz 0 0 0))
  )
)