(module Molex_Sabre_43160-0102_1x02_P7.49mm_Vertical_ThermalVias (layer F.Cu) (tedit 5A18AC76)
  (descr "Molex Sabre Power Connector, 43160-0102, With thermal vias in pads, 2 Pins per row (http://www.molex.com/pdm_docs/sd/431600105_sd.pdf), generated with kicad-footprint-generator")
  (tags "connector Molex Sabre side entry")
  (fp_text reference REF** (at 3.75 -10.7) (layer F.SilkS)
    (effects (font (size 1 1) (thickness 0.15)))
  )
  (fp_text value Molex_Sabre_43160-0102_1x02_P7.49mm_Vertical_ThermalVias (at 3.75 5.08) (layer F.Fab)
    (effects (font (size 1 1) (thickness 0.15)))
  )
  (fp_line (start -2.15 -5.155) (end -2.15 1.975) (layer B.SilkS) (width 0.12))
  (fp_line (start -2.15 1.975) (end 2.15 1.975) (layer B.SilkS) (width 0.12))
  (fp_line (start 2.15 1.975) (end 2.15 -5.155) (layer B.SilkS) (width 0.12))
  (fp_line (start 2.15 -5.155) (end -2.15 -5.155) (layer B.SilkS) (width 0.12))
  (fp_line (start -6.79 -7.65) (end -6.79 3.88) (layer F.Fab) (width 0.1))
  (fp_line (start -6.79 3.88) (end 14.28 3.88) (layer F.Fab) (width 0.1))
  (fp_line (start 14.28 3.88) (end 14.28 -7.65) (layer F.Fab) (width 0.1))
  (fp_line (start 14.28 -7.65) (end -6.79 -7.65) (layer F.Fab) (width 0.1))
  (fp_line (start 2.22 -7.65) (end 2.22 -9.5) (layer F.Fab) (width 0.1))
  (fp_line (start 2.22 -9.5) (end 5.27 -9.5) (layer F.Fab) (width 0.1))
  (fp_line (start 5.27 -9.5) (end 5.27 -7.65) (layer F.Fab) (width 0.1))
  (fp_line (start -6.9 -7.76) (end -6.9 3.99) (layer F.SilkS) (width 0.12))
  (fp_line (start -6.9 3.99) (end 14.39 3.99) (layer F.SilkS) (width 0.12))
  (fp_line (start 14.39 3.99) (end 14.39 -7.76) (layer F.SilkS) (width 0.12))
  (fp_line (start 14.39 -7.76) (end -6.9 -7.76) (layer F.SilkS) (width 0.12))
  (fp_line (start 2.11 -7.76) (end 2.11 -9.61) (layer F.SilkS) (width 0.12))
  (fp_line (start 2.11 -9.61) (end 5.38 -9.61) (layer F.SilkS) (width 0.12))
  (fp_line (start 5.38 -9.61) (end 5.38 -7.76) (layer F.SilkS) (width 0.12))
  (fp_line (start -1.2 -7.65) (end 0 -5.952944) (layer F.Fab) (width 0.1))
  (fp_line (start 0 -5.952944) (end 1.2 -7.65) (layer F.Fab) (width 0.1))
  (fp_line (start 0 -8.06) (end 0.4 -8.625685) (layer F.SilkS) (width 0.12))
  (fp_line (start 0.4 -8.625685) (end -0.4 -8.625685) (layer F.SilkS) (width 0.12))
  (fp_line (start -0.4 -8.625685) (end 0 -8.06) (layer F.SilkS) (width 0.12))
  (fp_line (start -7.29 -10) (end -7.29 4.38) (layer F.CrtYd) (width 0.05))
  (fp_line (start -7.29 4.38) (end 14.78 4.38) (layer F.CrtYd) (width 0.05))
  (fp_line (start 14.78 4.38) (end 14.78 -10) (layer F.CrtYd) (width 0.05))
  (fp_line (start 14.78 -10) (end -7.29 -10) (layer F.CrtYd) (width 0.05))
  (pad 1 thru_hole rect (at 0 0) (size 3.78 3.43) (drill 1.78) (layers *.Cu *.Mask))
  (pad 2 thru_hole rect (at 7.49 0) (size 3.78 3.43) (drill 1.78) (layers *.Cu *.Mask))
  (pad 1 thru_hole rect (at 0 -3.18) (size 3.78 3.43) (drill 1.78) (layers *.Cu *.Mask))
  (pad 2 thru_hole rect (at 7.49 -3.18) (size 3.78 3.43) (drill 1.78) (layers *.Cu *.Mask))
  (pad 1 thru_hole rect (at 0 -4.445) (size 0.6 0.6) (drill 0.3) (layers *.Cu *.Mask))
  (pad 1 thru_hole rect (at 0 -1.59) (size 0.6 0.6) (drill 0.3) (layers *.Cu *.Mask))
  (pad 1 thru_hole rect (at 0 1.265) (size 0.6 0.6) (drill 0.3) (layers *.Cu *.Mask))
  (pad 1 thru_hole rect (at -1.44 -4.445) (size 0.6 0.6) (drill 0.3) (layers *.Cu *.Mask))
  (pad 1 thru_hole rect (at -1.44 -3.0175) (size 0.6 0.6) (drill 0.3) (layers *.Cu *.Mask))
  (pad 1 thru_hole rect (at -1.44 -1.59) (size 0.6 0.6) (drill 0.3) (layers *.Cu *.Mask))
  (pad 1 thru_hole rect (at -1.44 -0.1625) (size 0.6 0.6) (drill 0.3) (layers *.Cu *.Mask))
  (pad 1 thru_hole rect (at -1.44 1.265) (size 0.6 0.6) (drill 0.3) (layers *.Cu *.Mask))
  (pad 1 thru_hole rect (at 1.44 -4.445) (size 0.6 0.6) (drill 0.3) (layers *.Cu *.Mask))
  (pad 1 thru_hole rect (at 1.44 -3.0175) (size 0.6 0.6) (drill 0.3) (layers *.Cu *.Mask))
  (pad 1 thru_hole rect (at 1.44 -1.59) (size 0.6 0.6) (drill 0.3) (layers *.Cu *.Mask))
  (pad 1 thru_hole rect (at 1.44 -0.1625) (size 0.6 0.6) (drill 0.3) (layers *.Cu *.Mask))
  (pad 1 thru_hole rect (at 1.44 1.265) (size 0.6 0.6) (drill 0.3) (layers *.Cu *.Mask))
  (pad 2 thru_hole circle (at 7.49 -4.445) (size 0.6 0.6) (drill 0.3) (layers *.Cu *.Mask))
  (pad 2 thru_hole circle (at 7.49 -1.59) (size 0.6 0.6) (drill 0.3) (layers *.Cu *.Mask))
  (pad 2 thru_hole circle (at 7.49 1.265) (size 0.6 0.6) (drill 0.3) (layers *.Cu *.Mask))
  (pad 2 thru_hole circle (at 6.05 -4.445) (size 0.6 0.6) (drill 0.3) (layers *.Cu *.Mask))
  (pad 2 thru_hole circle (at 6.05 -3.0175) (size 0.6 0.6) (drill 0.3) (layers *.Cu *.Mask))
  (pad 2 thru_hole circle (at 6.05 -1.59) (size 0.6 0.6) (drill 0.3) (layers *.Cu *.Mask))
  (pad 2 thru_hole circle (at 6.05 -0.1625) (size 0.6 0.6) (drill 0.3) (layers *.Cu *.Mask))
  (pad 2 thru_hole circle (at 6.05 1.265) (size 0.6 0.6) (drill 0.3) (layers *.Cu *.Mask))
  (pad 2 thru_hole circle (at 8.93 -4.445) (size 0.6 0.6) (drill 0.3) (layers *.Cu *.Mask))
  (pad 2 thru_hole circle (at 8.93 -3.0175) (size 0.6 0.6) (drill 0.3) (layers *.Cu *.Mask))
  (pad 2 thru_hole circle (at 8.93 -1.59) (size 0.6 0.6) (drill 0.3) (layers *.Cu *.Mask))
  (pad 2 thru_hole circle (at 8.93 -0.1625) (size 0.6 0.6) (drill 0.3) (layers *.Cu *.Mask))
  (pad 2 thru_hole circle (at 8.93 1.265) (size 0.6 0.6) (drill 0.3) (layers *.Cu *.Mask))
  (fp_text user %R (at 3.75 3.18) (layer F.Fab)
    (effects (font (size 1 1) (thickness 0.15)))
  )
  (model ${KICAD6_3DMODEL_DIR}/Connector_Molex.3dshapes/Molex_Sabre_43160-0102_1x02_P7.49mm_Vertical_ThermalVias.wrl
    (at (xyz 0 0 0))
    (scale (xyz 1 1 1))
    (rotate (xyz 0 0 0))
  )
)