(module Molex_Sabre_43160-0106_1x06_P7.49mm_Vertical (layer F.Cu) (tedit 5A18AC76)
  (descr "Molex Sabre Power Connector, 43160-0106, 6 Pins per row (http://www.molex.com/pdm_docs/sd/431600105_sd.pdf), generated with kicad-footprint-generator")
  (tags "connector Molex Sabre side entry")
  (fp_text reference REF** (at 18.72 -10.7) (layer F.SilkS)
    (effects (font (size 1 1) (thickness 0.15)))
  )
  (fp_text value Molex_Sabre_43160-0106_1x06_P7.49mm_Vertical (at 18.72 5.08) (layer F.Fab)
    (effects (font (size 1 1) (thickness 0.15)))
  )
  (fp_line (start -2.15 -5.155) (end -2.15 1.975) (layer B.SilkS) (width 0.12))
  (fp_line (start -2.15 1.975) (end 2.15 1.975) (layer B.SilkS) (width 0.12))
  (fp_line (start 2.15 1.975) (end 2.15 -5.155) (layer B.SilkS) (width 0.12))
  (fp_line (start 2.15 -5.155) (end -2.15 -5.155) (layer B.SilkS) (width 0.12))
  (fp_line (start -6.79 -7.65) (end -6.79 3.88) (layer F.Fab) (width 0.1))
  (fp_line (start -6.79 3.88) (end 44.24 3.88) (layer F.Fab) (width 0.1))
  (fp_line (start 44.24 3.88) (end 44.24 -7.65) (layer F.Fab) (width 0.1))
  (fp_line (start 44.24 -7.65) (end -6.79 -7.65) (layer F.Fab) (width 0.1))
  (fp_line (start 17.2 -7.65) (end 17.2 -9.5) (layer F.Fab) (width 0.1))
  (fp_line (start 17.2 -9.5) (end 20.25 -9.5) (layer F.Fab) (width 0.1))
  (fp_line (start 20.25 -9.5) (end 20.25 -7.65) (layer F.Fab) (width 0.1))
  (fp_line (start -6.9 -7.76) (end -6.9 3.99) (layer F.SilkS) (width 0.12))
  (fp_line (start -6.9 3.99) (end 44.35 3.99) (layer F.SilkS) (width 0.12))
  (fp_line (start 44.35 3.99) (end 44.35 -7.76) (layer F.SilkS) (width 0.12))
  (fp_line (start 44.35 -7.76) (end -6.9 -7.76) (layer F.SilkS) (width 0.12))
  (fp_line (start 17.09 -7.76) (end 17.09 -9.61) (layer F.SilkS) (width 0.12))
  (fp_line (start 17.09 -9.61) (end 20.36 -9.61) (layer F.SilkS) (width 0.12))
  (fp_line (start 20.36 -9.61) (end 20.36 -7.76) (layer F.SilkS) (width 0.12))
  (fp_line (start -1.2 -7.65) (end 0 -5.952944) (layer F.Fab) (width 0.1))
  (fp_line (start 0 -5.952944) (end 1.2 -7.65) (layer F.Fab) (width 0.1))
  (fp_line (start 0 -8.06) (end 0.4 -8.625685) (layer F.SilkS) (width 0.12))
  (fp_line (start 0.4 -8.625685) (end -0.4 -8.625685) (layer F.SilkS) (width 0.12))
  (fp_line (start -0.4 -8.625685) (end 0 -8.06) (layer F.SilkS) (width 0.12))
  (fp_line (start -7.29 -10) (end -7.29 4.38) (layer F.CrtYd) (width 0.05))
  (fp_line (start -7.29 4.38) (end 44.74 4.38) (layer F.CrtYd) (width 0.05))
  (fp_line (start 44.74 4.38) (end 44.74 -10) (layer F.CrtYd) (width 0.05))
  (fp_line (start 44.74 -10) (end -7.29 -10) (layer F.CrtYd) (width 0.05))
  (pad 1 thru_hole rect (at 0 0) (size 3.78 3.43) (drill 1.78) (layers *.Cu *.Mask))
  (pad 2 thru_hole rect (at 7.49 0) (size 3.78 3.43) (drill 1.78) (layers *.Cu *.Mask))
  (pad 3 thru_hole rect (at 14.98 0) (size 3.78 3.43) (drill 1.78) (layers *.Cu *.Mask))
  (pad 4 thru_hole rect (at 22.47 0) (size 3.78 3.43) (drill 1.78) (layers *.Cu *.Mask))
  (pad 5 thru_hole rect (at 29.96 0) (size 3.78 3.43) (drill 1.78) (layers *.Cu *.Mask))
  (pad 6 thru_hole rect (at 37.45 0) (size 3.78 3.43) (drill 1.78) (layers *.Cu *.Mask))
  (pad 1 thru_hole rect (at 0 -3.18) (size 3.78 3.43) (drill 1.78) (layers *.Cu *.Mask))
  (pad 2 thru_hole rect (at 7.49 -3.18) (size 3.78 3.43) (drill 1.78) (layers *.Cu *.Mask))
  (pad 3 thru_hole rect (at 14.98 -3.18) (size 3.78 3.43) (drill 1.78) (layers *.Cu *.Mask))
  (pad 4 thru_hole rect (at 22.47 -3.18) (size 3.78 3.43) (drill 1.78) (layers *.Cu *.Mask))
  (pad 5 thru_hole rect (at 29.96 -3.18) (size 3.78 3.43) (drill 1.78) (layers *.Cu *.Mask))
  (pad 6 thru_hole rect (at 37.45 -3.18) (size 3.78 3.43) (drill 1.78) (layers *.Cu *.Mask))
  (fp_text user %R (at 18.72 3.18) (layer F.Fab)
    (effects (font (size 1 1) (thickness 0.15)))
  )
  (model ${KICAD6_3DMODEL_DIR}/Connector_Molex.3dshapes/Molex_Sabre_43160-0106_1x06_P7.49mm_Vertical.wrl
    (at (xyz 0 0 0))
    (scale (xyz 1 1 1))
    (rotate (xyz 0 0 0))
  )
)