(module Molex_SlimStack_502426-0810_2x04_P0.40mm_Vertical (layer F.Cu) (tedit 5A1A83EF)
  (descr "Molex SlimStack Fine-Pitch SMT Board-to-Board Connectors, 502426-0810, 8 Pins (http://www.molex.com/pdm_docs/sd/5024260810_sd.pdf), generated with kicad-footprint-generator")
  (tags "connector Molex SlimStack side entry")
  (attr smd)
  (fp_text reference REF** (at 0 -2.65) (layer F.SilkS)
    (effects (font (size 1 1) (thickness 0.15)))
  )
  (fp_text value Molex_SlimStack_502426-0810_2x04_P0.40mm_Vertical (at 0 2.65) (layer F.Fab)
    (effects (font (size 1 1) (thickness 0.15)))
  )
  (fp_line (start -1.71 -1.41) (end -1.71 -0.76) (layer Edge.Cuts) (width 0.1))
  (fp_line (start -1.71 -0.76) (end -1.39 -0.76) (layer Edge.Cuts) (width 0.1))
  (fp_line (start -1.39 -0.76) (end -1.39 -1.41) (layer Edge.Cuts) (width 0.1))
  (fp_line (start -1.39 -1.41) (end -1.71 -1.41) (layer Edge.Cuts) (width 0.1))
  (fp_line (start -1.71 0.76) (end -1.71 1.41) (layer Edge.Cuts) (width 0.1))
  (fp_line (start -1.71 1.41) (end -1.39 1.41) (layer Edge.Cuts) (width 0.1))
  (fp_line (start -1.39 1.41) (end -1.39 0.76) (layer Edge.Cuts) (width 0.1))
  (fp_line (start -1.39 0.76) (end -1.71 0.76) (layer Edge.Cuts) (width 0.1))
  (fp_line (start 1.39 -1.41) (end 1.39 -0.76) (layer Edge.Cuts) (width 0.1))
  (fp_line (start 1.39 -0.76) (end 1.71 -0.76) (layer Edge.Cuts) (width 0.1))
  (fp_line (start 1.71 -0.76) (end 1.71 -1.41) (layer Edge.Cuts) (width 0.1))
  (fp_line (start 1.71 -1.41) (end 1.39 -1.41) (layer Edge.Cuts) (width 0.1))
  (fp_line (start 1.39 0.76) (end 1.39 1.41) (layer Edge.Cuts) (width 0.1))
  (fp_line (start 1.39 1.41) (end 1.71 1.41) (layer Edge.Cuts) (width 0.1))
  (fp_line (start 1.71 1.41) (end 1.71 0.76) (layer Edge.Cuts) (width 0.1))
  (fp_line (start 1.71 0.76) (end 1.39 0.76) (layer Edge.Cuts) (width 0.1))
  (fp_line (start -2.35 -1.3) (end -2.35 1.3) (layer F.Fab) (width 0.1))
  (fp_line (start -2.35 1.3) (end 2.35 1.3) (layer F.Fab) (width 0.1))
  (fp_line (start 2.35 1.3) (end 2.35 -1.3) (layer F.Fab) (width 0.1))
  (fp_line (start 2.35 -1.3) (end -2.35 -1.3) (layer F.Fab) (width 0.1))
  (fp_line (start 0.97 -1.3) (end 0.97 -1.5) (layer F.Fab) (width 0.1))
  (fp_line (start -0.97 1.41) (end -2.46 1.41) (layer F.SilkS) (width 0.12))
  (fp_line (start -2.46 1.41) (end -2.46 -1.41) (layer F.SilkS) (width 0.12))
  (fp_line (start -2.46 -1.41) (end -0.97 -1.41) (layer F.SilkS) (width 0.12))
  (fp_line (start 0.97 1.41) (end 2.46 1.41) (layer F.SilkS) (width 0.12))
  (fp_line (start 2.46 1.41) (end 2.46 -1.41) (layer F.SilkS) (width 0.12))
  (fp_line (start 2.46 -1.41) (end 0.97 -1.41) (layer F.SilkS) (width 0.12))
  (fp_line (start 0.97 -1.41) (end 0.97 -1.5) (layer F.SilkS) (width 0.12))
  (fp_line (start -2.85 -1.95) (end -2.85 1.95) (layer F.CrtYd) (width 0.05))
  (fp_line (start -2.85 1.95) (end 2.85 1.95) (layer F.CrtYd) (width 0.05))
  (fp_line (start 2.85 1.95) (end 2.85 -1.95) (layer F.CrtYd) (width 0.05))
  (fp_line (start 2.85 -1.95) (end -2.85 -1.95) (layer F.CrtYd) (width 0.05))
  (pad 1 smd rect (at 0.6 -1.2125) (size 0.22 0.475) (layers F.Cu F.Mask F.Paste))
  (pad 3 smd rect (at 0.2 -1.2125) (size 0.22 0.475) (layers F.Cu F.Mask F.Paste))
  (pad 5 smd rect (at -0.2 -1.2125) (size 0.22 0.475) (layers F.Cu F.Mask F.Paste))
  (pad 7 smd rect (at -0.6 -1.2125) (size 0.22 0.475) (layers F.Cu F.Mask F.Paste))
  (pad 2 smd rect (at 0.6 1.2125) (size 0.22 0.475) (layers F.Cu F.Mask F.Paste))
  (pad 4 smd rect (at 0.2 1.2125) (size 0.22 0.475) (layers F.Cu F.Mask F.Paste))
  (pad 6 smd rect (at -0.2 1.2125) (size 0.22 0.475) (layers F.Cu F.Mask F.Paste))
  (pad 8 smd rect (at -0.6 1.2125) (size 0.22 0.475) (layers F.Cu F.Mask F.Paste))
  (fp_text user %R (at 0 0) (layer F.Fab)
    (effects (font (size 1 1) (thickness 0.15)))
  )
  (model ${KICAD6_3DMODEL_DIR}/Connector_Molex.3dshapes/Molex_SlimStack_502426-0810_2x04_P0.40mm_Vertical.wrl
    (at (xyz 0 0 0))
    (scale (xyz 1 1 1))
    (rotate (xyz 0 0 0))
  )
)