(module Molex_PicoBlade_53048-0210_1x02_P1.25mm_Horizontal (layer F.Cu) (tedit 5B783024)
  (descr "Molex PicoBlade Connector System, 53048-0210, 2 Pins per row (http://www.molex.com/pdm_docs/sd/530480210_sd.pdf), generated with kicad-footprint-generator")
  (tags "connector Molex PicoBlade top entry")
  (fp_text reference REF** (at 0.62 -1.95) (layer F.SilkS)
    (effects (font (size 1 1) (thickness 0.15)))
  )
  (fp_text value Molex_PicoBlade_53048-0210_1x02_P1.25mm_Horizontal (at 0.62 5.65) (layer F.Fab)
    (effects (font (size 1 1) (thickness 0.15)))
  )
  (fp_line (start -0.25 -1.15) (end -0.25 -1.45) (layer F.SilkS) (width 0.12))
  (fp_line (start -0.25 -1.45) (end -0.75 -1.45) (layer F.SilkS) (width 0.12))
  (fp_line (start -0.5 -0.75) (end 0 -0.042893) (layer F.Fab) (width 0.1))
  (fp_line (start 0 -0.042893) (end 0.5 -0.75) (layer F.Fab) (width 0.1))
  (fp_line (start 0.62 -1.25) (end -0.15 -1.25) (layer F.CrtYd) (width 0.05))
  (fp_line (start -0.15 -1.25) (end -0.15 -1.55) (layer F.CrtYd) (width 0.05))
  (fp_line (start -0.15 -1.55) (end -2 -1.55) (layer F.CrtYd) (width 0.05))
  (fp_line (start -2 -1.55) (end -2 4.95) (layer F.CrtYd) (width 0.05))
  (fp_line (start -2 4.95) (end 0.62 4.95) (layer F.CrtYd) (width 0.05))
  (fp_line (start 0.63 -1.25) (end 1.4 -1.25) (layer F.CrtYd) (width 0.05))
  (fp_line (start 1.4 -1.25) (end 1.4 -1.55) (layer F.CrtYd) (width 0.05))
  (fp_line (start 1.4 -1.55) (end 3.25 -1.55) (layer F.CrtYd) (width 0.05))
  (fp_line (start 3.25 -1.55) (end 3.25 4.95) (layer F.CrtYd) (width 0.05))
  (fp_line (start 3.25 4.95) (end 0.63 4.95) (layer F.CrtYd) (width 0.05))
  (fp_line (start 0.625 -0.75) (end -0.65 -0.75) (layer F.Fab) (width 0.1))
  (fp_line (start -0.65 -0.75) (end -0.65 -1.05) (layer F.Fab) (width 0.1))
  (fp_line (start -0.65 -1.05) (end -1.5 -1.05) (layer F.Fab) (width 0.1))
  (fp_line (start -1.5 -1.05) (end -1.5 4.45) (layer F.Fab) (width 0.1))
  (fp_line (start -1.5 4.45) (end 0.625 4.45) (layer F.Fab) (width 0.1))
  (fp_line (start 0.625 -0.75) (end 1.9 -0.75) (layer F.Fab) (width 0.1))
  (fp_line (start 1.9 -0.75) (end 1.9 -1.05) (layer F.Fab) (width 0.1))
  (fp_line (start 1.9 -1.05) (end 2.75 -1.05) (layer F.Fab) (width 0.1))
  (fp_line (start 2.75 -1.05) (end 2.75 4.45) (layer F.Fab) (width 0.1))
  (fp_line (start 2.75 4.45) (end 0.625 4.45) (layer F.Fab) (width 0.1))
  (fp_line (start 0.625 -0.86) (end -0.54 -0.86) (layer F.SilkS) (width 0.12))
  (fp_line (start -0.54 -0.86) (end -0.54 -1.16) (layer F.SilkS) (width 0.12))
  (fp_line (start -0.54 -1.16) (end -1.61 -1.16) (layer F.SilkS) (width 0.12))
  (fp_line (start -1.61 -1.16) (end -1.61 4.56) (layer F.SilkS) (width 0.12))
  (fp_line (start -1.61 4.56) (end 0.625 4.56) (layer F.SilkS) (width 0.12))
  (fp_line (start 0.625 -0.86) (end 1.79 -0.86) (layer F.SilkS) (width 0.12))
  (fp_line (start 1.79 -0.86) (end 1.79 -1.16) (layer F.SilkS) (width 0.12))
  (fp_line (start 1.79 -1.16) (end 2.86 -1.16) (layer F.SilkS) (width 0.12))
  (fp_line (start 2.86 -1.16) (end 2.86 4.56) (layer F.SilkS) (width 0.12))
  (fp_line (start 2.86 4.56) (end 0.625 4.56) (layer F.SilkS) (width 0.12))
  (pad 1 thru_hole roundrect (at 0 0) (size 0.8 1.3) (drill 0.5) (layers *.Cu *.Mask) (roundrect_rratio 0.25))
  (pad 2 thru_hole oval (at 1.25 0) (size 0.8 1.3) (drill 0.5) (layers *.Cu *.Mask))
  (fp_text user %R (at 0.62 3.75) (layer F.Fab)
    (effects (font (size 1 1) (thickness 0.15)))
  )
  (model ${KICAD6_3DMODEL_DIR}/Connector_Molex.3dshapes/Molex_PicoBlade_53048-0210_1x02_P1.25mm_Horizontal.wrl
    (at (xyz 0 0 0))
    (scale (xyz 1 1 1))
    (rotate (xyz 0 0 0))
  )
)
