(module Molex_Micro-Latch_53253-0870_1x08_P2.00mm_Vertical (layer F.Cu) (tedit 5B781643)
  (descr "Molex Micro-Latch Wire-to-Board Connector System, 53253-0870 (compatible alternatives: 53253-0850), 8 Pins per row (http://www.molex.com/pdm_docs/sd/532530770_sd.pdf), generated with kicad-footprint-generator")
  (tags "connector Molex Micro-Latch side entry")
  (fp_text reference REF** (at 7 -2.7) (layer F.SilkS)
    (effects (font (size 1 1) (thickness 0.15)))
  )
  (fp_text value Molex_Micro-Latch_53253-0870_1x08_P2.00mm_Vertical (at 7 3.35) (layer F.Fab)
    (effects (font (size 1 1) (thickness 0.15)))
  )
  (fp_line (start -2 -1.5) (end -2 2.15) (layer F.Fab) (width 0.1))
  (fp_line (start -2 2.15) (end 16 2.15) (layer F.Fab) (width 0.1))
  (fp_line (start 16 2.15) (end 16 -1.5) (layer F.Fab) (width 0.1))
  (fp_line (start 16 -1.5) (end -2 -1.5) (layer F.Fab) (width 0.1))
  (fp_line (start -2.11 -1.61) (end -2.11 2.26) (layer F.SilkS) (width 0.12))
  (fp_line (start -2.11 2.26) (end 16.11 2.26) (layer F.SilkS) (width 0.12))
  (fp_line (start 16.11 2.26) (end 16.11 -1.61) (layer F.SilkS) (width 0.12))
  (fp_line (start 16.11 -1.61) (end -2.11 -1.61) (layer F.SilkS) (width 0.12))
  (fp_line (start -0.11 -1.91) (end -2.41 -1.91) (layer F.SilkS) (width 0.12))
  (fp_line (start -2.41 -1.91) (end -2.41 0.39) (layer F.SilkS) (width 0.12))
  (fp_line (start -0.5 -1.5) (end 0 -0.792893) (layer F.Fab) (width 0.1))
  (fp_line (start 0 -0.792893) (end 0.5 -1.5) (layer F.Fab) (width 0.1))
  (fp_line (start -2.11 0.8) (end -1.71 0.8) (layer F.SilkS) (width 0.12))
  (fp_line (start 16.11 0.8) (end 15.71 0.8) (layer F.SilkS) (width 0.12))
  (fp_line (start 7 -1.21) (end -1.71 -1.21) (layer F.SilkS) (width 0.12))
  (fp_line (start -1.71 -1.21) (end -1.71 0) (layer F.SilkS) (width 0.12))
  (fp_line (start -1.71 0) (end -1.31 0) (layer F.SilkS) (width 0.12))
  (fp_line (start -1.31 0) (end -1.31 0.4) (layer F.SilkS) (width 0.12))
  (fp_line (start -1.31 0.4) (end -1.71 0.4) (layer F.SilkS) (width 0.12))
  (fp_line (start -1.71 0.4) (end -1.71 2.26) (layer F.SilkS) (width 0.12))
  (fp_line (start 7 -1.21) (end 15.71 -1.21) (layer F.SilkS) (width 0.12))
  (fp_line (start 15.71 -1.21) (end 15.71 0) (layer F.SilkS) (width 0.12))
  (fp_line (start 15.71 0) (end 15.31 0) (layer F.SilkS) (width 0.12))
  (fp_line (start 15.31 0) (end 15.31 0.4) (layer F.SilkS) (width 0.12))
  (fp_line (start 15.31 0.4) (end 15.71 0.4) (layer F.SilkS) (width 0.12))
  (fp_line (start 15.71 0.4) (end 15.71 2.26) (layer F.SilkS) (width 0.12))
  (fp_line (start -2.5 -2) (end -2.5 2.65) (layer F.CrtYd) (width 0.05))
  (fp_line (start -2.5 2.65) (end 16.5 2.65) (layer F.CrtYd) (width 0.05))
  (fp_line (start 16.5 2.65) (end 16.5 -2) (layer F.CrtYd) (width 0.05))
  (fp_line (start 16.5 -2) (end -2.5 -2) (layer F.CrtYd) (width 0.05))
  (pad 1 thru_hole roundrect (at 0 0) (size 1.2 1.8) (drill 0.8) (layers *.Cu *.Mask) (roundrect_rratio 0.208333))
  (pad 2 thru_hole oval (at 2 0) (size 1.2 1.8) (drill 0.8) (layers *.Cu *.Mask))
  (pad 3 thru_hole oval (at 4 0) (size 1.2 1.8) (drill 0.8) (layers *.Cu *.Mask))
  (pad 4 thru_hole oval (at 6 0) (size 1.2 1.8) (drill 0.8) (layers *.Cu *.Mask))
  (pad 5 thru_hole oval (at 8 0) (size 1.2 1.8) (drill 0.8) (layers *.Cu *.Mask))
  (pad 6 thru_hole oval (at 10 0) (size 1.2 1.8) (drill 0.8) (layers *.Cu *.Mask))
  (pad 7 thru_hole oval (at 12 0) (size 1.2 1.8) (drill 0.8) (layers *.Cu *.Mask))
  (pad 8 thru_hole oval (at 14 0) (size 1.2 1.8) (drill 0.8) (layers *.Cu *.Mask))
  (fp_text user %R (at 7 1.45) (layer F.Fab)
    (effects (font (size 1 1) (thickness 0.15)))
  )
  (model ${KICAD6_3DMODEL_DIR}/Connector_Molex.3dshapes/Molex_Micro-Latch_53253-0870_1x08_P2.00mm_Vertical.wrl
    (at (xyz 0 0 0))
    (scale (xyz 1 1 1))
    (rotate (xyz 0 0 0))
  )
)