(module Molex_Pico-Clasp_202396-0407_1x04-1MP_P1.00mm_Horizontal (layer F.Cu) (tedit 5B78AD89)
  (descr "Molex Pico-Clasp series connector, 202396-0407 (http://www.molex.com/pdm_docs/sd/2023960207_sd.pdf), generated with kicad-footprint-generator")
  (tags "connector Molex Pico-Clasp top entry")
  (attr smd)
  (fp_text reference REF** (at 0 -3.98) (layer F.SilkS)
    (effects (font (size 1 1) (thickness 0.15)))
  )
  (fp_text value Molex_Pico-Clasp_202396-0407_1x04-1MP_P1.00mm_Horizontal (at 0 4.67) (layer F.Fab)
    (effects (font (size 1 1) (thickness 0.15)))
  )
  (fp_line (start -3 -1.875) (end 3 -1.875) (layer F.Fab) (width 0.1))
  (fp_line (start -3.11 0.715) (end -3.11 -1.985) (layer F.SilkS) (width 0.12))
  (fp_line (start -3.11 -1.985) (end -2.06 -1.985) (layer F.SilkS) (width 0.12))
  (fp_line (start -2.06 -1.985) (end -2.06 -2.775) (layer F.SilkS) (width 0.12))
  (fp_line (start 3.11 0.715) (end 3.11 -1.985) (layer F.SilkS) (width 0.12))
  (fp_line (start 3.11 -1.985) (end 2.06 -1.985) (layer F.SilkS) (width 0.12))
  (fp_line (start -3.11 3.035) (end -3.11 3.585) (layer F.SilkS) (width 0.12))
  (fp_line (start -3.11 3.585) (end 3.11 3.585) (layer F.SilkS) (width 0.12))
  (fp_line (start 3.11 3.585) (end 3.11 3.035) (layer F.SilkS) (width 0.12))
  (fp_line (start -3 3.475) (end 3 3.475) (layer F.Fab) (width 0.1))
  (fp_line (start -3 -1.875) (end -3 3.475) (layer F.Fab) (width 0.1))
  (fp_line (start 3 -1.875) (end 3 3.475) (layer F.Fab) (width 0.1))
  (fp_line (start -3.9 -3.28) (end -3.9 3.97) (layer F.CrtYd) (width 0.05))
  (fp_line (start -3.9 3.97) (end 3.9 3.97) (layer F.CrtYd) (width 0.05))
  (fp_line (start 3.9 3.97) (end 3.9 -3.28) (layer F.CrtYd) (width 0.05))
  (fp_line (start 3.9 -3.28) (end -3.9 -3.28) (layer F.CrtYd) (width 0.05))
  (fp_line (start -2 -1.875) (end -1.5 -1.167893) (layer F.Fab) (width 0.1))
  (fp_line (start -1.5 -1.167893) (end -1 -1.875) (layer F.Fab) (width 0.1))
  (pad 1 smd roundrect (at -1.5 -2.025) (size 0.6 1.5) (layers F.Cu F.Mask F.Paste) (roundrect_rratio 0.25))
  (pad 2 smd roundrect (at -0.5 -2.025) (size 0.6 1.5) (layers F.Cu F.Mask F.Paste) (roundrect_rratio 0.25))
  (pad 3 smd roundrect (at 0.5 -2.025) (size 0.6 1.5) (layers F.Cu F.Mask F.Paste) (roundrect_rratio 0.25))
  (pad 4 smd roundrect (at 1.5 -2.025) (size 0.6 1.5) (layers F.Cu F.Mask F.Paste) (roundrect_rratio 0.25))
  (pad MP smd roundrect (at -2.8 1.875) (size 1.2 1.8) (layers F.Cu F.Mask F.Paste) (roundrect_rratio 0.208333))
  (pad MP smd roundrect (at 2.8 1.875) (size 1.2 1.8) (layers F.Cu F.Mask F.Paste) (roundrect_rratio 0.208333))
  (fp_text user %R (at 0 2.77) (layer F.Fab)
    (effects (font (size 1 1) (thickness 0.15)))
  )
  (model ${KICAD6_3DMODEL_DIR}/Connector_Molex.3dshapes/Molex_Pico-Clasp_202396-0407_1x04-1MP_P1.00mm_Horizontal.wrl
    (at (xyz 0 0 0))
    (scale (xyz 1 1 1))
    (rotate (xyz 0 0 0))
  )
)