(module Molex_SlimStack_502430-5010_2x25_P0.40mm_Vertical (layer F.Cu) (tedit 5A1A83F5)
  (descr "Molex SlimStack Fine-Pitch SMT Board-to-Board Connectors, 502430-5010, 50 Pins (http://www.molex.com/pdm_docs/sd/5024301410_sd.pdf), generated with kicad-footprint-generator")
  (tags "connector Molex SlimStack side entry")
  (attr smd)
  (fp_text reference REF** (at 0 -2.38) (layer F.SilkS)
    (effects (font (size 1 1) (thickness 0.15)))
  )
  (fp_text value Molex_SlimStack_502430-5010_2x25_P0.40mm_Vertical (at 0 2.38) (layer F.Fab)
    (effects (font (size 1 1) (thickness 0.15)))
  )
  (fp_line (start -5.925 -0.22) (end -5.925 0.22) (layer Edge.Cuts) (width 0.1))
  (fp_line (start -5.925 0.22) (end -5.575 0.22) (layer Edge.Cuts) (width 0.1))
  (fp_line (start -5.575 0.22) (end -5.575 -0.22) (layer Edge.Cuts) (width 0.1))
  (fp_line (start -5.575 -0.22) (end -5.925 -0.22) (layer Edge.Cuts) (width 0.1))
  (fp_line (start 5.575 -0.22) (end 5.575 0.22) (layer Edge.Cuts) (width 0.1))
  (fp_line (start 5.575 0.22) (end 5.925 0.22) (layer Edge.Cuts) (width 0.1))
  (fp_line (start 5.925 0.22) (end 5.925 -0.22) (layer Edge.Cuts) (width 0.1))
  (fp_line (start 5.925 -0.22) (end 5.575 -0.22) (layer Edge.Cuts) (width 0.1))
  (fp_line (start -6.13 -0.77) (end -6.13 0.77) (layer F.Fab) (width 0.1))
  (fp_line (start -6.13 0.77) (end 6.13 0.77) (layer F.Fab) (width 0.1))
  (fp_line (start 6.13 0.77) (end 6.13 -0.77) (layer F.Fab) (width 0.1))
  (fp_line (start 6.13 -0.77) (end -6.13 -0.77) (layer F.Fab) (width 0.1))
  (fp_line (start -5.17 -0.77) (end -5.17 -1.12) (layer F.Fab) (width 0.1))
  (fp_line (start -5.17 0.88) (end -6.24 0.88) (layer F.SilkS) (width 0.12))
  (fp_line (start -6.24 0.88) (end -6.24 -0.88) (layer F.SilkS) (width 0.12))
  (fp_line (start -6.24 -0.88) (end -5.17 -0.88) (layer F.SilkS) (width 0.12))
  (fp_line (start -5.17 -0.88) (end -5.17 -1.12) (layer F.SilkS) (width 0.12))
  (fp_line (start 5.17 0.88) (end 6.24 0.88) (layer F.SilkS) (width 0.12))
  (fp_line (start 6.24 0.88) (end 6.24 -0.88) (layer F.SilkS) (width 0.12))
  (fp_line (start 6.24 -0.88) (end 5.17 -0.88) (layer F.SilkS) (width 0.12))
  (fp_line (start -6.63 -1.68) (end -6.63 1.68) (layer F.CrtYd) (width 0.05))
  (fp_line (start -6.63 1.68) (end 6.63 1.68) (layer F.CrtYd) (width 0.05))
  (fp_line (start 6.63 1.68) (end 6.63 -1.68) (layer F.CrtYd) (width 0.05))
  (fp_line (start 6.63 -1.68) (end -6.63 -1.68) (layer F.CrtYd) (width 0.05))
  (pad 1 smd rect (at -4.8 -0.855) (size 0.22 0.66) (layers F.Cu F.Mask F.Paste))
  (pad 3 smd rect (at -4.4 -0.855) (size 0.22 0.66) (layers F.Cu F.Mask F.Paste))
  (pad 5 smd rect (at -4 -0.855) (size 0.22 0.66) (layers F.Cu F.Mask F.Paste))
  (pad 7 smd rect (at -3.6 -0.855) (size 0.22 0.66) (layers F.Cu F.Mask F.Paste))
  (pad 9 smd rect (at -3.2 -0.855) (size 0.22 0.66) (layers F.Cu F.Mask F.Paste))
  (pad 11 smd rect (at -2.8 -0.855) (size 0.22 0.66) (layers F.Cu F.Mask F.Paste))
  (pad 13 smd rect (at -2.4 -0.855) (size 0.22 0.66) (layers F.Cu F.Mask F.Paste))
  (pad 15 smd rect (at -2 -0.855) (size 0.22 0.66) (layers F.Cu F.Mask F.Paste))
  (pad 17 smd rect (at -1.6 -0.855) (size 0.22 0.66) (layers F.Cu F.Mask F.Paste))
  (pad 19 smd rect (at -1.2 -0.855) (size 0.22 0.66) (layers F.Cu F.Mask F.Paste))
  (pad 21 smd rect (at -0.8 -0.855) (size 0.22 0.66) (layers F.Cu F.Mask F.Paste))
  (pad 23 smd rect (at -0.4 -0.855) (size 0.22 0.66) (layers F.Cu F.Mask F.Paste))
  (pad 25 smd rect (at 0 -0.855) (size 0.22 0.66) (layers F.Cu F.Mask F.Paste))
  (pad 27 smd rect (at 0.4 -0.855) (size 0.22 0.66) (layers F.Cu F.Mask F.Paste))
  (pad 29 smd rect (at 0.8 -0.855) (size 0.22 0.66) (layers F.Cu F.Mask F.Paste))
  (pad 31 smd rect (at 1.2 -0.855) (size 0.22 0.66) (layers F.Cu F.Mask F.Paste))
  (pad 33 smd rect (at 1.6 -0.855) (size 0.22 0.66) (layers F.Cu F.Mask F.Paste))
  (pad 35 smd rect (at 2 -0.855) (size 0.22 0.66) (layers F.Cu F.Mask F.Paste))
  (pad 37 smd rect (at 2.4 -0.855) (size 0.22 0.66) (layers F.Cu F.Mask F.Paste))
  (pad 39 smd rect (at 2.8 -0.855) (size 0.22 0.66) (layers F.Cu F.Mask F.Paste))
  (pad 41 smd rect (at 3.2 -0.855) (size 0.22 0.66) (layers F.Cu F.Mask F.Paste))
  (pad 43 smd rect (at 3.6 -0.855) (size 0.22 0.66) (layers F.Cu F.Mask F.Paste))
  (pad 45 smd rect (at 4 -0.855) (size 0.22 0.66) (layers F.Cu F.Mask F.Paste))
  (pad 47 smd rect (at 4.4 -0.855) (size 0.22 0.66) (layers F.Cu F.Mask F.Paste))
  (pad 49 smd rect (at 4.8 -0.855) (size 0.22 0.66) (layers F.Cu F.Mask F.Paste))
  (pad 2 smd rect (at -4.8 0.855) (size 0.22 0.66) (layers F.Cu F.Mask F.Paste))
  (pad 4 smd rect (at -4.4 0.855) (size 0.22 0.66) (layers F.Cu F.Mask F.Paste))
  (pad 6 smd rect (at -4 0.855) (size 0.22 0.66) (layers F.Cu F.Mask F.Paste))
  (pad 8 smd rect (at -3.6 0.855) (size 0.22 0.66) (layers F.Cu F.Mask F.Paste))
  (pad 10 smd rect (at -3.2 0.855) (size 0.22 0.66) (layers F.Cu F.Mask F.Paste))
  (pad 12 smd rect (at -2.8 0.855) (size 0.22 0.66) (layers F.Cu F.Mask F.Paste))
  (pad 14 smd rect (at -2.4 0.855) (size 0.22 0.66) (layers F.Cu F.Mask F.Paste))
  (pad 16 smd rect (at -2 0.855) (size 0.22 0.66) (layers F.Cu F.Mask F.Paste))
  (pad 18 smd rect (at -1.6 0.855) (size 0.22 0.66) (layers F.Cu F.Mask F.Paste))
  (pad 20 smd rect (at -1.2 0.855) (size 0.22 0.66) (layers F.Cu F.Mask F.Paste))
  (pad 22 smd rect (at -0.8 0.855) (size 0.22 0.66) (layers F.Cu F.Mask F.Paste))
  (pad 24 smd rect (at -0.4 0.855) (size 0.22 0.66) (layers F.Cu F.Mask F.Paste))
  (pad 26 smd rect (at 0 0.855) (size 0.22 0.66) (layers F.Cu F.Mask F.Paste))
  (pad 28 smd rect (at 0.4 0.855) (size 0.22 0.66) (layers F.Cu F.Mask F.Paste))
  (pad 30 smd rect (at 0.8 0.855) (size 0.22 0.66) (layers F.Cu F.Mask F.Paste))
  (pad 32 smd rect (at 1.2 0.855) (size 0.22 0.66) (layers F.Cu F.Mask F.Paste))
  (pad 34 smd rect (at 1.6 0.855) (size 0.22 0.66) (layers F.Cu F.Mask F.Paste))
  (pad 36 smd rect (at 2 0.855) (size 0.22 0.66) (layers F.Cu F.Mask F.Paste))
  (pad 38 smd rect (at 2.4 0.855) (size 0.22 0.66) (layers F.Cu F.Mask F.Paste))
  (pad 40 smd rect (at 2.8 0.855) (size 0.22 0.66) (layers F.Cu F.Mask F.Paste))
  (pad 42 smd rect (at 3.2 0.855) (size 0.22 0.66) (layers F.Cu F.Mask F.Paste))
  (pad 44 smd rect (at 3.6 0.855) (size 0.22 0.66) (layers F.Cu F.Mask F.Paste))
  (pad 46 smd rect (at 4 0.855) (size 0.22 0.66) (layers F.Cu F.Mask F.Paste))
  (pad 48 smd rect (at 4.4 0.855) (size 0.22 0.66) (layers F.Cu F.Mask F.Paste))
  (pad 50 smd rect (at 4.8 0.855) (size 0.22 0.66) (layers F.Cu F.Mask F.Paste))
  (fp_text user %R (at 0 0) (layer F.Fab)
    (effects (font (size 1 1) (thickness 0.15)))
  )
  (model ${KICAD6_3DMODEL_DIR}/Connector_Molex.3dshapes/Molex_SlimStack_502430-5010_2x25_P0.40mm_Vertical.wrl
    (at (xyz 0 0 0))
    (scale (xyz 1 1 1))
    (rotate (xyz 0 0 0))
  )
)