(module Molex_PicoBlade_53047-1010_1x10_P1.25mm_Vertical (layer F.Cu) (tedit 5B783167)
  (descr "Molex PicoBlade Connector System, 53047-1010, 10 Pins per row (http://www.molex.com/pdm_docs/sd/530470610_sd.pdf), generated with kicad-footprint-generator")
  (tags "connector Molex PicoBlade side entry")
  (fp_text reference REF** (at 5.62 -3.25) (layer F.SilkS)
    (effects (font (size 1 1) (thickness 0.15)))
  )
  (fp_text value Molex_PicoBlade_53047-1010_1x10_P1.25mm_Vertical (at 5.62 2.35) (layer F.Fab)
    (effects (font (size 1 1) (thickness 0.15)))
  )
  (fp_line (start -1.5 -2.05) (end -1.5 1.15) (layer F.Fab) (width 0.1))
  (fp_line (start -1.5 1.15) (end 12.75 1.15) (layer F.Fab) (width 0.1))
  (fp_line (start 12.75 1.15) (end 12.75 -2.05) (layer F.Fab) (width 0.1))
  (fp_line (start 12.75 -2.05) (end -1.5 -2.05) (layer F.Fab) (width 0.1))
  (fp_line (start -1.61 -2.16) (end -1.61 1.26) (layer F.SilkS) (width 0.12))
  (fp_line (start -1.61 1.26) (end 12.86 1.26) (layer F.SilkS) (width 0.12))
  (fp_line (start 12.86 1.26) (end 12.86 -2.16) (layer F.SilkS) (width 0.12))
  (fp_line (start 12.86 -2.16) (end -1.61 -2.16) (layer F.SilkS) (width 0.12))
  (fp_line (start 5.625 0.75) (end -1.1 0.75) (layer F.SilkS) (width 0.12))
  (fp_line (start -1.1 0.75) (end -1.1 0) (layer F.SilkS) (width 0.12))
  (fp_line (start -1.1 0) (end -1.3 0) (layer F.SilkS) (width 0.12))
  (fp_line (start -1.3 0) (end -1.3 -0.8) (layer F.SilkS) (width 0.12))
  (fp_line (start -1.3 -0.8) (end -1.1 -0.8) (layer F.SilkS) (width 0.12))
  (fp_line (start -1.1 -0.8) (end -1.1 -1.65) (layer F.SilkS) (width 0.12))
  (fp_line (start -1.1 -1.65) (end 5.625 -1.65) (layer F.SilkS) (width 0.12))
  (fp_line (start 5.625 0.75) (end 12.35 0.75) (layer F.SilkS) (width 0.12))
  (fp_line (start 12.35 0.75) (end 12.35 0) (layer F.SilkS) (width 0.12))
  (fp_line (start 12.35 0) (end 12.55 0) (layer F.SilkS) (width 0.12))
  (fp_line (start 12.55 0) (end 12.55 -0.8) (layer F.SilkS) (width 0.12))
  (fp_line (start 12.55 -0.8) (end 12.35 -0.8) (layer F.SilkS) (width 0.12))
  (fp_line (start 12.35 -0.8) (end 12.35 -1.65) (layer F.SilkS) (width 0.12))
  (fp_line (start 12.35 -1.65) (end 5.625 -1.65) (layer F.SilkS) (width 0.12))
  (fp_line (start -1.9 1.55) (end -1.9 0.55) (layer F.SilkS) (width 0.12))
  (fp_line (start -1.9 1.55) (end -0.9 1.55) (layer F.SilkS) (width 0.12))
  (fp_line (start -0.5 1.15) (end 0 0.442893) (layer F.Fab) (width 0.1))
  (fp_line (start 0 0.442893) (end 0.5 1.15) (layer F.Fab) (width 0.1))
  (fp_line (start -2 -2.55) (end -2 1.65) (layer F.CrtYd) (width 0.05))
  (fp_line (start -2 1.65) (end 13.25 1.65) (layer F.CrtYd) (width 0.05))
  (fp_line (start 13.25 1.65) (end 13.25 -2.55) (layer F.CrtYd) (width 0.05))
  (fp_line (start 13.25 -2.55) (end -2 -2.55) (layer F.CrtYd) (width 0.05))
  (pad 1 thru_hole roundrect (at 0 0) (size 0.8 1.3) (drill 0.5) (layers *.Cu *.Mask) (roundrect_rratio 0.25))
  (pad 2 thru_hole oval (at 1.25 0) (size 0.8 1.3) (drill 0.5) (layers *.Cu *.Mask))
  (pad 3 thru_hole oval (at 2.5 0) (size 0.8 1.3) (drill 0.5) (layers *.Cu *.Mask))
  (pad 4 thru_hole oval (at 3.75 0) (size 0.8 1.3) (drill 0.5) (layers *.Cu *.Mask))
  (pad 5 thru_hole oval (at 5 0) (size 0.8 1.3) (drill 0.5) (layers *.Cu *.Mask))
  (pad 6 thru_hole oval (at 6.25 0) (size 0.8 1.3) (drill 0.5) (layers *.Cu *.Mask))
  (pad 7 thru_hole oval (at 7.5 0) (size 0.8 1.3) (drill 0.5) (layers *.Cu *.Mask))
  (pad 8 thru_hole oval (at 8.75 0) (size 0.8 1.3) (drill 0.5) (layers *.Cu *.Mask))
  (pad 9 thru_hole oval (at 10 0) (size 0.8 1.3) (drill 0.5) (layers *.Cu *.Mask))
  (pad 10 thru_hole oval (at 11.25 0) (size 0.8 1.3) (drill 0.5) (layers *.Cu *.Mask))
  (fp_text user %R (at 5.62 -1.35) (layer F.Fab)
    (effects (font (size 1 1) (thickness 0.15)))
  )
  (model ${KICAD6_3DMODEL_DIR}/Connector_Molex.3dshapes/Molex_PicoBlade_53047-1010_1x10_P1.25mm_Vertical.wrl
    (at (xyz 0 0 0))
    (scale (xyz 1 1 1))
    (rotate (xyz 0 0 0))
  )
)
