(module Molex_Pico-EZmate_78171-0002_1x02-1MP_P1.20mm_Vertical (layer F.Cu) (tedit 5B78AD88)
  (descr "Molex Pico-EZmate series connector, 78171-0002 (http://www.molex.com/pdm_docs/sd/781710002_sd.pdf), generated with kicad-footprint-generator")
  (tags "connector Molex Pico-EZmate side entry")
  (attr smd)
  (fp_text reference REF** (at 0 -3.5) (layer F.SilkS)
    (effects (font (size 1 1) (thickness 0.15)))
  )
  (fp_text value Molex_Pico-EZmate_78171-0002_1x02-1MP_P1.20mm_Vertical (at 0 3.72) (layer F.Fab)
    (effects (font (size 1 1) (thickness 0.15)))
  )
  (fp_line (start -2.1 -1.98) (end 2.1 -1.98) (layer F.Fab) (width 0.1))
  (fp_line (start -2.21 1.24) (end -2.21 -2.09) (layer F.SilkS) (width 0.12))
  (fp_line (start -2.21 -2.09) (end -1.16 -2.09) (layer F.SilkS) (width 0.12))
  (fp_line (start -1.16 -2.09) (end -1.16 -2.3) (layer F.SilkS) (width 0.12))
  (fp_line (start 2.21 1.24) (end 2.21 -2.09) (layer F.SilkS) (width 0.12))
  (fp_line (start 2.21 -2.09) (end 1.16 -2.09) (layer F.SilkS) (width 0.12))
  (fp_line (start -1.14 2.63) (end -0.64 2.63) (layer F.SilkS) (width 0.12))
  (fp_line (start -0.64 2.63) (end -0.34 2.13) (layer F.SilkS) (width 0.12))
  (fp_line (start -0.34 2.13) (end 0.34 2.13) (layer F.SilkS) (width 0.12))
  (fp_line (start 0.34 2.13) (end 0.64 2.63) (layer F.SilkS) (width 0.12))
  (fp_line (start 0.64 2.63) (end 1.14 2.63) (layer F.SilkS) (width 0.12))
  (fp_line (start -2.1 2.52) (end -0.75 2.52) (layer F.Fab) (width 0.1))
  (fp_line (start -0.75 2.52) (end -0.45 2.02) (layer F.Fab) (width 0.1))
  (fp_line (start -0.45 2.02) (end 0.45 2.02) (layer F.Fab) (width 0.1))
  (fp_line (start 0.45 2.02) (end 0.75 2.52) (layer F.Fab) (width 0.1))
  (fp_line (start 0.75 2.52) (end 2.1 2.52) (layer F.Fab) (width 0.1))
  (fp_line (start -2.1 -1.98) (end -2.1 2.52) (layer F.Fab) (width 0.1))
  (fp_line (start 2.1 -1.98) (end 2.1 2.52) (layer F.Fab) (width 0.1))
  (fp_line (start -2.6 -2.8) (end -2.6 3.02) (layer F.CrtYd) (width 0.05))
  (fp_line (start -2.6 3.02) (end 2.6 3.02) (layer F.CrtYd) (width 0.05))
  (fp_line (start 2.6 3.02) (end 2.6 -2.8) (layer F.CrtYd) (width 0.05))
  (fp_line (start 2.6 -2.8) (end -2.6 -2.8) (layer F.CrtYd) (width 0.05))
  (fp_line (start -1.1 -1.98) (end -0.6 -1.272893) (layer F.Fab) (width 0.1))
  (fp_line (start -0.6 -1.272893) (end -0.1 -1.98) (layer F.Fab) (width 0.1))
  (fp_line (start -0.85 -3.153553) (end -0.6 -2.8) (layer F.SilkS) (width 0.12))
  (fp_line (start -0.6 -2.8) (end -0.35 -3.153553) (layer F.SilkS) (width 0.12))
  (fp_line (start -0.35 -3.153553) (end -0.85 -3.153553) (layer F.SilkS) (width 0.12))
  (pad 1 smd roundrect (at -0.6 -1.875) (size 0.6 0.85) (layers F.Cu F.Mask F.Paste) (roundrect_rratio 0.25))
  (pad 2 smd roundrect (at 0.6 -1.875) (size 0.6 0.85) (layers F.Cu F.Mask F.Paste) (roundrect_rratio 0.25))
  (pad MP smd roundrect (at -1.75 1.9) (size 0.7 0.8) (layers F.Cu F.Mask F.Paste) (roundrect_rratio 0.25))
  (pad MP smd roundrect (at 1.75 1.9) (size 0.7 0.8) (layers F.Cu F.Mask F.Paste) (roundrect_rratio 0.25))
  (fp_text user %R (at 0 0.27) (layer F.Fab)
    (effects (font (size 1 1) (thickness 0.15)))
  )
  (model ${KICAD6_3DMODEL_DIR}/Connector_Molex.3dshapes/Molex_Pico-EZmate_78171-0002_1x02-1MP_P1.20mm_Vertical.wrl
    (at (xyz 0 0 0))
    (scale (xyz 1 1 1))
    (rotate (xyz 0 0 0))
  )
)