(module Molex_Mega-Fit_76829-0006_2x03_P5.70mm_Vertical (layer F.Cu) (tedit 5B781062)
  (descr "Molex Mega-Fit Power Connectors, 76829-0006 (compatible alternatives: 172065-0006, 172065-1006), 3 Pins per row (http://www.molex.com/pdm_docs/sd/768290004_sd.pdf), generated with kicad-footprint-generator")
  (tags "connector Molex Mega-Fit side entry")
  (fp_text reference REF** (at 5.7 -4.51) (layer F.SilkS)
    (effects (font (size 1 1) (thickness 0.15)))
  )
  (fp_text value Molex_Mega-Fit_76829-0006_2x03_P5.70mm_Vertical (at 5.7 11.92) (layer F.Fab)
    (effects (font (size 1 1) (thickness 0.15)))
  )
  (fp_arc (start -5.17 6.025) (end -5.17 7.55) (angle 180) (layer F.Fab) (width 0.1))
  (fp_arc (start 16.57 6.025) (end 16.57 4.5) (angle 180) (layer F.Fab) (width 0.1))
  (fp_arc (start -5.17 6.025) (end -5.17 7.785) (angle 180) (layer F.SilkS) (width 0.12))
  (fp_arc (start 16.57 6.025) (end 16.57 4.265) (angle 180) (layer F.SilkS) (width 0.12))
  (fp_line (start -5.17 4.5) (end -3.175 4.5) (layer F.Fab) (width 0.1))
  (fp_line (start -5.17 7.55) (end -3.175 7.55) (layer F.Fab) (width 0.1))
  (fp_line (start 16.57 4.5) (end 14.575 4.5) (layer F.Fab) (width 0.1))
  (fp_line (start 16.57 7.55) (end 14.575 7.55) (layer F.Fab) (width 0.1))
  (fp_line (start -5.17 4.265) (end -3.285 4.265) (layer F.SilkS) (width 0.12))
  (fp_line (start -5.17 7.785) (end -3.285 7.785) (layer F.SilkS) (width 0.12))
  (fp_line (start 16.57 4.265) (end 14.685 4.265) (layer F.SilkS) (width 0.12))
  (fp_line (start 16.57 7.785) (end 14.685 7.785) (layer F.SilkS) (width 0.12))
  (fp_line (start -2.175 -3.31) (end -3.175 -2.31) (layer F.Fab) (width 0.1))
  (fp_line (start -3.175 -2.31) (end -3.175 9.17) (layer F.Fab) (width 0.1))
  (fp_line (start -3.175 9.17) (end 14.575 9.17) (layer F.Fab) (width 0.1))
  (fp_line (start 14.575 9.17) (end 14.575 -3.31) (layer F.Fab) (width 0.1))
  (fp_line (start 14.575 -3.31) (end -2.175 -3.31) (layer F.Fab) (width 0.1))
  (fp_line (start 4 9.17) (end 4 10.72) (layer F.Fab) (width 0.1))
  (fp_line (start 4 10.72) (end 7.4 10.72) (layer F.Fab) (width 0.1))
  (fp_line (start 7.4 10.72) (end 7.4 9.17) (layer F.Fab) (width 0.1))
  (fp_line (start 5.7 -3.42) (end -3.285 -3.42) (layer F.SilkS) (width 0.12))
  (fp_line (start -3.285 -3.42) (end -3.285 9.28) (layer F.SilkS) (width 0.12))
  (fp_line (start -3.285 9.28) (end 3.89 9.28) (layer F.SilkS) (width 0.12))
  (fp_line (start 3.89 9.28) (end 3.89 10.83) (layer F.SilkS) (width 0.12))
  (fp_line (start 3.89 10.83) (end 5.7 10.83) (layer F.SilkS) (width 0.12))
  (fp_line (start 5.7 -3.42) (end 14.685 -3.42) (layer F.SilkS) (width 0.12))
  (fp_line (start 14.685 -3.42) (end 14.685 9.28) (layer F.SilkS) (width 0.12))
  (fp_line (start 14.685 9.28) (end 7.51 9.28) (layer F.SilkS) (width 0.12))
  (fp_line (start 7.51 9.28) (end 7.51 10.83) (layer F.SilkS) (width 0.12))
  (fp_line (start 7.51 10.83) (end 5.7 10.83) (layer F.SilkS) (width 0.12))
  (fp_line (start -3.585 -1.31) (end -3.585 -3.72) (layer F.SilkS) (width 0.12))
  (fp_line (start -3.585 -3.72) (end -1.175 -3.72) (layer F.SilkS) (width 0.12))
  (fp_line (start -3.68 -3.81) (end -3.68 4) (layer F.CrtYd) (width 0.05))
  (fp_line (start -3.68 4) (end -7.19 4) (layer F.CrtYd) (width 0.05))
  (fp_line (start -7.19 4) (end -7.19 11.22) (layer F.CrtYd) (width 0.05))
  (fp_line (start -7.19 11.22) (end 18.59 11.22) (layer F.CrtYd) (width 0.05))
  (fp_line (start 18.59 11.22) (end 18.59 4) (layer F.CrtYd) (width 0.05))
  (fp_line (start 18.59 4) (end 15.08 4) (layer F.CrtYd) (width 0.05))
  (fp_line (start 15.08 4) (end 15.08 -3.81) (layer F.CrtYd) (width 0.05))
  (fp_line (start 15.08 -3.81) (end -3.68 -3.81) (layer F.CrtYd) (width 0.05))
  (pad 1 thru_hole roundrect (at 0 0) (size 3.7 3.7) (drill 1.8) (layers *.Cu *.Mask) (roundrect_rratio 0.067568))
  (pad 2 thru_hole circle (at 5.7 0) (size 3.7 3.7) (drill 1.8) (layers *.Cu *.Mask))
  (pad 3 thru_hole circle (at 11.4 0) (size 3.7 3.7) (drill 1.8) (layers *.Cu *.Mask))
  (pad 4 thru_hole circle (at 0 5.7) (size 3.7 3.7) (drill 1.8) (layers *.Cu *.Mask))
  (pad 5 thru_hole circle (at 5.7 5.7) (size 3.7 3.7) (drill 1.8) (layers *.Cu *.Mask))
  (pad 6 thru_hole circle (at 11.4 5.7) (size 3.7 3.7) (drill 1.8) (layers *.Cu *.Mask))
  (pad "" np_thru_hole circle (at -5.17 6.025) (size 3 3) (drill 3) (layers *.Cu *.Mask))
  (pad "" np_thru_hole circle (at 16.57 6.025) (size 3 3) (drill 3) (layers *.Cu *.Mask))
  (fp_text user %R (at 5.7 -2.61) (layer F.Fab)
    (effects (font (size 1 1) (thickness 0.15)))
  )
  (model ${KICAD6_3DMODEL_DIR}/Connector_Molex.3dshapes/Molex_Mega-Fit_76829-0006_2x03_P5.70mm_Vertical.wrl
    (at (xyz 0 0 0))
    (scale (xyz 1 1 1))
    (rotate (xyz 0 0 0))
  )
)