(module Molex_CLIK-Mate_502494-0870_1x08-1MP_P2.00mm_Horizontal (layer F.Cu) (tedit 5B78AD8A)
  (descr "Molex CLIK-Mate series connector, 502494-0870 (http://www.molex.com/pdm_docs/sd/5024940270_sd.pdf), generated with kicad-footprint-generator")
  (tags "connector Molex CLIK-Mate top entry")
  (attr smd)
  (fp_text reference REF** (at 0 -5.05) (layer F.SilkS)
    (effects (font (size 1 1) (thickness 0.15)))
  )
  (fp_text value Molex_CLIK-Mate_502494-0870_1x08-1MP_P2.00mm_Horizontal (at 0 6.35) (layer F.Fab)
    (effects (font (size 1 1) (thickness 0.15)))
  )
  (fp_line (start -10 -1.8) (end 10 -1.8) (layer F.Fab) (width 0.1))
  (fp_line (start -10.11 -0.21) (end -10.11 -1.91) (layer F.SilkS) (width 0.12))
  (fp_line (start -10.11 -1.91) (end -7.76 -1.91) (layer F.SilkS) (width 0.12))
  (fp_line (start -7.76 -1.91) (end -7.76 -3.85) (layer F.SilkS) (width 0.12))
  (fp_line (start 10.11 -0.21) (end 10.11 -1.91) (layer F.SilkS) (width 0.12))
  (fp_line (start 10.11 -1.91) (end 7.76 -1.91) (layer F.SilkS) (width 0.12))
  (fp_line (start -8.19 5.26) (end 8.19 5.26) (layer F.SilkS) (width 0.12))
  (fp_line (start -10 2.55) (end -9.67 2.55) (layer F.Fab) (width 0.1))
  (fp_line (start -9.67 2.55) (end -9.67 5.15) (layer F.Fab) (width 0.1))
  (fp_line (start -9.67 5.15) (end 9.67 5.15) (layer F.Fab) (width 0.1))
  (fp_line (start 9.67 5.15) (end 9.67 2.55) (layer F.Fab) (width 0.1))
  (fp_line (start 9.67 2.55) (end 10 2.55) (layer F.Fab) (width 0.1))
  (fp_line (start -10 -1.8) (end -10 2.55) (layer F.Fab) (width 0.1))
  (fp_line (start 10 -1.8) (end 10 2.55) (layer F.Fab) (width 0.1))
  (fp_line (start -10.75 -4.35) (end -10.75 5.65) (layer F.CrtYd) (width 0.05))
  (fp_line (start -10.75 5.65) (end 10.75 5.65) (layer F.CrtYd) (width 0.05))
  (fp_line (start 10.75 5.65) (end 10.75 -4.35) (layer F.CrtYd) (width 0.05))
  (fp_line (start 10.75 -4.35) (end -10.75 -4.35) (layer F.CrtYd) (width 0.05))
  (fp_line (start -7.5 -1.8) (end -7 -1.092893) (layer F.Fab) (width 0.1))
  (fp_line (start -7 -1.092893) (end -6.5 -1.8) (layer F.Fab) (width 0.1))
  (pad 1 smd roundrect (at -7 -2.5) (size 1 2.7) (layers F.Cu F.Mask F.Paste) (roundrect_rratio 0.25))
  (pad 2 smd roundrect (at -5 -2.5) (size 1 2.7) (layers F.Cu F.Mask F.Paste) (roundrect_rratio 0.25))
  (pad 3 smd roundrect (at -3 -2.5) (size 1 2.7) (layers F.Cu F.Mask F.Paste) (roundrect_rratio 0.25))
  (pad 4 smd roundrect (at -1 -2.5) (size 1 2.7) (layers F.Cu F.Mask F.Paste) (roundrect_rratio 0.25))
  (pad 5 smd roundrect (at 1 -2.5) (size 1 2.7) (layers F.Cu F.Mask F.Paste) (roundrect_rratio 0.25))
  (pad 6 smd roundrect (at 3 -2.5) (size 1 2.7) (layers F.Cu F.Mask F.Paste) (roundrect_rratio 0.25))
  (pad 7 smd roundrect (at 5 -2.5) (size 1 2.7) (layers F.Cu F.Mask F.Paste) (roundrect_rratio 0.25))
  (pad 8 smd roundrect (at 7 -2.5) (size 1 2.7) (layers F.Cu F.Mask F.Paste) (roundrect_rratio 0.25))
  (pad MP smd roundrect (at -9.35 1.95) (size 1.8 3.8) (layers F.Cu F.Mask F.Paste) (roundrect_rratio 0.138889))
  (pad MP smd roundrect (at 9.35 1.95) (size 1.8 3.8) (layers F.Cu F.Mask F.Paste) (roundrect_rratio 0.138889))
  (fp_text user %R (at 0 0.38) (layer F.Fab)
    (effects (font (size 1 1) (thickness 0.15)))
  )
  (model ${KICAD6_3DMODEL_DIR}/Connector_Molex.3dshapes/Molex_CLIK-Mate_502494-0870_1x08-1MP_P2.00mm_Horizontal.wrl
    (at (xyz 0 0 0))
    (scale (xyz 1 1 1))
    (rotate (xyz 0 0 0))
  )
)