(module Molex_Panelmate_53780-0970_1x09-1MP_P1.25mm_Horizontal (layer F.Cu) (tedit 5B78AD88)
  (descr "Molex Panelmate series connector, 53780-0970 (), generated with kicad-footprint-generator")
  (tags "connector Molex Panelmate top entry")
  (attr smd)
  (fp_text reference REF** (at 0 -4.95) (layer F.SilkS)
    (effects (font (size 1 1) (thickness 0.15)))
  )
  (fp_text value Molex_Panelmate_53780-0970_1x09-1MP_P1.25mm_Horizontal (at 0 4.95) (layer F.Fab)
    (effects (font (size 1 1) (thickness 0.15)))
  )
  (fp_line (start -8.2 -2.25) (end 8.2 -2.25) (layer F.Fab) (width 0.1))
  (fp_line (start -8.31 0.14) (end -8.31 -2.36) (layer F.SilkS) (width 0.12))
  (fp_line (start -8.31 -2.36) (end -5.66 -2.36) (layer F.SilkS) (width 0.12))
  (fp_line (start -5.66 -2.36) (end -5.66 -3.75) (layer F.SilkS) (width 0.12))
  (fp_line (start 8.31 0.14) (end 8.31 -2.36) (layer F.SilkS) (width 0.12))
  (fp_line (start 8.31 -2.36) (end 5.66 -2.36) (layer F.SilkS) (width 0.12))
  (fp_line (start -6.94 3.76) (end -6.19 3.76) (layer F.SilkS) (width 0.12))
  (fp_line (start -6.19 3.76) (end -5.79 2.76) (layer F.SilkS) (width 0.12))
  (fp_line (start -5.79 2.76) (end 5.79 2.76) (layer F.SilkS) (width 0.12))
  (fp_line (start 5.79 2.76) (end 6.19 3.76) (layer F.SilkS) (width 0.12))
  (fp_line (start 6.19 3.76) (end 6.94 3.76) (layer F.SilkS) (width 0.12))
  (fp_line (start -8.2 3.65) (end -6.3 3.65) (layer F.Fab) (width 0.1))
  (fp_line (start -6.3 3.65) (end -5.9 2.65) (layer F.Fab) (width 0.1))
  (fp_line (start -5.9 2.65) (end 5.9 2.65) (layer F.Fab) (width 0.1))
  (fp_line (start 5.9 2.65) (end 6.3 3.65) (layer F.Fab) (width 0.1))
  (fp_line (start 6.3 3.65) (end 8.2 3.65) (layer F.Fab) (width 0.1))
  (fp_line (start -8.2 -2.25) (end -8.2 3.65) (layer F.Fab) (width 0.1))
  (fp_line (start 8.2 -2.25) (end 8.2 3.65) (layer F.Fab) (width 0.1))
  (fp_line (start -9 -4.25) (end -9 4.25) (layer F.CrtYd) (width 0.05))
  (fp_line (start -9 4.25) (end 9 4.25) (layer F.CrtYd) (width 0.05))
  (fp_line (start 9 4.25) (end 9 -4.25) (layer F.CrtYd) (width 0.05))
  (fp_line (start 9 -4.25) (end -9 -4.25) (layer F.CrtYd) (width 0.05))
  (fp_line (start -5.5 -2.25) (end -5 -1.542893) (layer F.Fab) (width 0.1))
  (fp_line (start -5 -1.542893) (end -4.5 -2.25) (layer F.Fab) (width 0.1))
  (pad 1 smd roundrect (at -5 -2.8) (size 0.8 1.9) (layers F.Cu F.Mask F.Paste) (roundrect_rratio 0.25))
  (pad 2 smd roundrect (at -3.75 -2.8) (size 0.8 1.9) (layers F.Cu F.Mask F.Paste) (roundrect_rratio 0.25))
  (pad 3 smd roundrect (at -2.5 -2.8) (size 0.8 1.9) (layers F.Cu F.Mask F.Paste) (roundrect_rratio 0.25))
  (pad 4 smd roundrect (at -1.25 -2.8) (size 0.8 1.9) (layers F.Cu F.Mask F.Paste) (roundrect_rratio 0.25))
  (pad 5 smd roundrect (at 0 -2.8) (size 0.8 1.9) (layers F.Cu F.Mask F.Paste) (roundrect_rratio 0.25))
  (pad 6 smd roundrect (at 1.25 -2.8) (size 0.8 1.9) (layers F.Cu F.Mask F.Paste) (roundrect_rratio 0.25))
  (pad 7 smd roundrect (at 2.5 -2.8) (size 0.8 1.9) (layers F.Cu F.Mask F.Paste) (roundrect_rratio 0.25))
  (pad 8 smd roundrect (at 3.75 -2.8) (size 0.8 1.9) (layers F.Cu F.Mask F.Paste) (roundrect_rratio 0.25))
  (pad 9 smd roundrect (at 5 -2.8) (size 0.8 1.9) (layers F.Cu F.Mask F.Paste) (roundrect_rratio 0.25))
  (pad MP smd roundrect (at -7.85 2.075) (size 1.3 3.35) (layers F.Cu F.Mask F.Paste) (roundrect_rratio 0.192308))
  (pad MP smd roundrect (at 7.85 2.075) (size 1.3 3.35) (layers F.Cu F.Mask F.Paste) (roundrect_rratio 0.192308))
  (fp_text user %R (at 0 0.7) (layer F.Fab)
    (effects (font (size 1 1) (thickness 0.15)))
  )
  (model ${KICAD6_3DMODEL_DIR}/Connector_Molex.3dshapes/Molex_Panelmate_53780-0970_1x09-1MP_P1.25mm_Horizontal.wrl
    (at (xyz 0 0 0))
    (scale (xyz 1 1 1))
    (rotate (xyz 0 0 0))
  )
)