(module Molex_SL_171971-0014_1x14_P2.54mm_Vertical (layer F.Cu) (tedit 5DA36613)
  (descr "Molex Stackable Linear Connector, 171971-0014 (compatible alternatives: 171971-0114, 171971-0214), 14 Pins per row (https://www.molex.com/pdm_docs/sd/1719710002_sd.pdf), generated with kicad-footprint-generator")
  (tags "connector Molex SL vertical")
  (fp_text reference REF** (at 16.51 -3.75) (layer F.SilkS)
    (effects (font (size 1 1) (thickness 0.15)))
  )
  (fp_text value Molex_SL_171971-0014_1x14_P2.54mm_Vertical (at 16.51 5.25) (layer F.Fab)
    (effects (font (size 1 1) (thickness 0.15)))
  )
  (fp_line (start -2.5 -2.55) (end -2.5 -0.24) (layer F.Fab) (width 0.1))
  (fp_line (start -2.5 -0.24) (end -2.37 -0.24) (layer F.Fab) (width 0.1))
  (fp_line (start -2.37 -0.24) (end -2.37 1.79) (layer F.Fab) (width 0.1))
  (fp_line (start -2.37 1.79) (end -2.5 1.79) (layer F.Fab) (width 0.1))
  (fp_line (start -2.5 1.79) (end -2.5 2.55) (layer F.Fab) (width 0.1))
  (fp_line (start -2.5 2.55) (end 35.52 2.55) (layer F.Fab) (width 0.1))
  (fp_line (start 35.52 2.55) (end 35.52 1.79) (layer F.Fab) (width 0.1))
  (fp_line (start 35.52 1.79) (end 35.39 1.79) (layer F.Fab) (width 0.1))
  (fp_line (start 35.39 1.79) (end 35.39 -0.24) (layer F.Fab) (width 0.1))
  (fp_line (start 35.39 -0.24) (end 35.52 -0.24) (layer F.Fab) (width 0.1))
  (fp_line (start 35.52 -0.24) (end 35.52 -2.55) (layer F.Fab) (width 0.1))
  (fp_line (start 35.52 -2.55) (end -2.5 -2.55) (layer F.Fab) (width 0.1))
  (fp_line (start 12.7 2.55) (end 12.7 4.05) (layer F.Fab) (width 0.1))
  (fp_line (start 12.7 4.05) (end 20.32 4.05) (layer F.Fab) (width 0.1))
  (fp_line (start 20.32 4.05) (end 20.32 2.55) (layer F.Fab) (width 0.1))
  (fp_line (start -2.61 -2.66) (end -2.61 -0.13) (layer F.SilkS) (width 0.12))
  (fp_line (start -2.61 -0.13) (end -2.48 -0.13) (layer F.SilkS) (width 0.12))
  (fp_line (start -2.48 -0.13) (end -2.48 1.68) (layer F.SilkS) (width 0.12))
  (fp_line (start -2.48 1.68) (end -2.61 1.68) (layer F.SilkS) (width 0.12))
  (fp_line (start -2.61 1.68) (end -2.61 2.66) (layer F.SilkS) (width 0.12))
  (fp_line (start -2.61 2.66) (end 12.59 2.66) (layer F.SilkS) (width 0.12))
  (fp_line (start 12.59 2.66) (end 12.59 4.16) (layer F.SilkS) (width 0.12))
  (fp_line (start 12.59 4.16) (end 20.43 4.16) (layer F.SilkS) (width 0.12))
  (fp_line (start 20.43 4.16) (end 20.43 2.66) (layer F.SilkS) (width 0.12))
  (fp_line (start 20.43 2.66) (end 35.63 2.66) (layer F.SilkS) (width 0.12))
  (fp_line (start 35.63 2.66) (end 35.63 1.68) (layer F.SilkS) (width 0.12))
  (fp_line (start 35.63 1.68) (end 35.5 1.68) (layer F.SilkS) (width 0.12))
  (fp_line (start 35.5 1.68) (end 35.5 -0.13) (layer F.SilkS) (width 0.12))
  (fp_line (start 35.5 -0.13) (end 35.63 -0.13) (layer F.SilkS) (width 0.12))
  (fp_line (start 35.63 -0.13) (end 35.63 -2.66) (layer F.SilkS) (width 0.12))
  (fp_line (start 35.63 -2.66) (end -2.61 -2.66) (layer F.SilkS) (width 0.12))
  (fp_line (start -2.91 -0.55) (end -2.91 -2.96) (layer F.SilkS) (width 0.12))
  (fp_line (start -2.91 -2.96) (end -0.5 -2.96) (layer F.SilkS) (width 0.12))
  (fp_line (start 0.5 -2.55) (end 0 -1.842893) (layer F.Fab) (width 0.1))
  (fp_line (start 0 -1.842893) (end -0.5 -2.55) (layer F.Fab) (width 0.1))
  (fp_line (start -3 -3.05) (end -3 4.55) (layer F.CrtYd) (width 0.05))
  (fp_line (start -3 4.55) (end 36.02 4.55) (layer F.CrtYd) (width 0.05))
  (fp_line (start 36.02 4.55) (end 36.02 -3.05) (layer F.CrtYd) (width 0.05))
  (fp_line (start 36.02 -3.05) (end -3 -3.05) (layer F.CrtYd) (width 0.05))
  (pad 1 thru_hole roundrect (at 0 0) (size 1.74 1.74) (drill 1.09) (layers *.Cu *.Mask) (roundrect_rratio 0.143678))
  (pad 2 thru_hole circle (at 2.54 0) (size 1.74 1.74) (drill 1.09) (layers *.Cu *.Mask))
  (pad 3 thru_hole circle (at 5.08 0) (size 1.74 1.74) (drill 1.09) (layers *.Cu *.Mask))
  (pad 4 thru_hole circle (at 7.62 0) (size 1.74 1.74) (drill 1.09) (layers *.Cu *.Mask))
  (pad 5 thru_hole circle (at 10.16 0) (size 1.74 1.74) (drill 1.09) (layers *.Cu *.Mask))
  (pad 6 thru_hole circle (at 12.7 0) (size 1.74 1.74) (drill 1.09) (layers *.Cu *.Mask))
  (pad 7 thru_hole circle (at 15.24 0) (size 1.74 1.74) (drill 1.09) (layers *.Cu *.Mask))
  (pad 8 thru_hole circle (at 17.78 0) (size 1.74 1.74) (drill 1.09) (layers *.Cu *.Mask))
  (pad 9 thru_hole circle (at 20.32 0) (size 1.74 1.74) (drill 1.09) (layers *.Cu *.Mask))
  (pad 10 thru_hole circle (at 22.86 0) (size 1.74 1.74) (drill 1.09) (layers *.Cu *.Mask))
  (pad 11 thru_hole circle (at 25.4 0) (size 1.74 1.74) (drill 1.09) (layers *.Cu *.Mask))
  (pad 12 thru_hole circle (at 27.94 0) (size 1.74 1.74) (drill 1.09) (layers *.Cu *.Mask))
  (pad 13 thru_hole circle (at 30.48 0) (size 1.74 1.74) (drill 1.09) (layers *.Cu *.Mask))
  (pad 14 thru_hole circle (at 33.02 0) (size 1.74 1.74) (drill 1.09) (layers *.Cu *.Mask))
  (fp_text user %R (at 16.51 1.85) (layer F.Fab)
    (effects (font (size 1 1) (thickness 0.15)))
  )
  (model ${KICAD6_3DMODEL_DIR}/Connector_Molex.3dshapes/Molex_SL_171971-0014_1x14_P2.54mm_Vertical.wrl
    (at (xyz 0 0 0))
    (scale (xyz 1 1 1))
    (rotate (xyz 0 0 0))
  )
)