(module Molex_Mini-Fit_Sr_42820-42XX_1x04_P10.00mm_Horizontal_ThermalVias (layer F.Cu) (tedit 5B78223E)
  (descr "Molex Mini-Fit Sr. Power Connectors, 42820-42XX, With thermal vias in pads, 4 Pins per row (http://www.molex.com/pdm_docs/sd/428202214_sd.pdf), generated with kicad-footprint-generator")
  (tags "connector Molex Mini-Fit_Sr top entry")
  (fp_text reference REF** (at 17.06 -8.93) (layer F.SilkS)
    (effects (font (size 1 1) (thickness 0.15)))
  )
  (fp_text value Molex_Mini-Fit_Sr_42820-42XX_1x04_P10.00mm_Horizontal_ThermalVias (at 17.06 38.93) (layer F.Fab)
    (effects (font (size 1 1) (thickness 0.15)))
  )
  (fp_line (start -2.81 -2.66) (end -2.81 2.66) (layer B.SilkS) (width 0.12))
  (fp_line (start -2.81 2.66) (end 7.81 2.66) (layer B.SilkS) (width 0.12))
  (fp_line (start 7.81 2.66) (end 7.81 -2.66) (layer B.SilkS) (width 0.12))
  (fp_line (start 7.81 -2.66) (end -2.81 -2.66) (layer B.SilkS) (width 0.12))
  (fp_line (start 6.56 -6.91) (end 6.56 36.91) (layer F.Fab) (width 0.1))
  (fp_line (start 6.56 36.91) (end 27.56 36.91) (layer F.Fab) (width 0.1))
  (fp_line (start 27.56 36.91) (end 27.56 -6.91) (layer F.Fab) (width 0.1))
  (fp_line (start 27.56 -6.91) (end 6.56 -6.91) (layer F.Fab) (width 0.1))
  (fp_line (start 6.56 -5.45) (end 27.56 -5.45) (layer F.Fab) (width 0.1))
  (fp_line (start 6.56 35.45) (end 27.56 35.45) (layer F.Fab) (width 0.1))
  (fp_line (start 6.45 -2.66) (end 6.45 -7.02) (layer F.SilkS) (width 0.12))
  (fp_line (start 6.45 -7.02) (end 12 -7.02) (layer F.SilkS) (width 0.12))
  (fp_line (start 6.45 32.66) (end 6.45 37.02) (layer F.SilkS) (width 0.12))
  (fp_line (start 6.45 37.02) (end 12 37.02) (layer F.SilkS) (width 0.12))
  (fp_line (start 16 -7.02) (end 27.67 -7.02) (layer F.SilkS) (width 0.12))
  (fp_line (start 27.67 -7.02) (end 27.67 15) (layer F.SilkS) (width 0.12))
  (fp_line (start 16 37.02) (end 27.67 37.02) (layer F.SilkS) (width 0.12))
  (fp_line (start 27.67 37.02) (end 27.67 15) (layer F.SilkS) (width 0.12))
  (fp_line (start 6.45 2.66) (end 6.45 7.34) (layer F.SilkS) (width 0.12))
  (fp_line (start 6.45 12.66) (end 6.45 17.34) (layer F.SilkS) (width 0.12))
  (fp_line (start 6.45 22.66) (end 6.45 27.34) (layer F.SilkS) (width 0.12))
  (fp_line (start 6.56 -1.9) (end 6.56 1.9) (layer F.Fab) (width 0.1))
  (fp_line (start 6.56 1.9) (end -1.04 1.9) (layer F.Fab) (width 0.1))
  (fp_line (start -1.04 1.9) (end -1.04 -1.9) (layer F.Fab) (width 0.1))
  (fp_line (start -1.04 -1.9) (end 6.56 -1.9) (layer F.Fab) (width 0.1))
  (fp_line (start 6.56 8.1) (end 6.56 11.9) (layer F.Fab) (width 0.1))
  (fp_line (start 6.56 11.9) (end -1.04 11.9) (layer F.Fab) (width 0.1))
  (fp_line (start -1.04 11.9) (end -1.04 8.1) (layer F.Fab) (width 0.1))
  (fp_line (start -1.04 8.1) (end 6.56 8.1) (layer F.Fab) (width 0.1))
  (fp_line (start 6.56 18.1) (end 6.56 21.9) (layer F.Fab) (width 0.1))
  (fp_line (start 6.56 21.9) (end -1.04 21.9) (layer F.Fab) (width 0.1))
  (fp_line (start -1.04 21.9) (end -1.04 18.1) (layer F.Fab) (width 0.1))
  (fp_line (start -1.04 18.1) (end 6.56 18.1) (layer F.Fab) (width 0.1))
  (fp_line (start 6.56 28.1) (end 6.56 31.9) (layer F.Fab) (width 0.1))
  (fp_line (start 6.56 31.9) (end -1.04 31.9) (layer F.Fab) (width 0.1))
  (fp_line (start -1.04 31.9) (end -1.04 28.1) (layer F.Fab) (width 0.1))
  (fp_line (start -1.04 28.1) (end 6.56 28.1) (layer F.Fab) (width 0.1))
  (fp_line (start 6.56 -1.2) (end 4.862944 0) (layer F.Fab) (width 0.1))
  (fp_line (start 4.862944 0) (end 6.56 1.2) (layer F.Fab) (width 0.1))
  (fp_line (start -1.04 -1.2) (end 0.657056 0) (layer F.Fab) (width 0.1))
  (fp_line (start 0.657056 0) (end -1.04 1.2) (layer F.Fab) (width 0.1))
  (fp_line (start 6.45 -2.66) (end -2.55 -2.66) (layer F.SilkS) (width 0.12))
  (fp_line (start -3.05 -8.23) (end -3.05 38.23) (layer F.CrtYd) (width 0.05))
  (fp_line (start -3.05 38.23) (end 28.06 38.23) (layer F.CrtYd) (width 0.05))
  (fp_line (start 28.06 38.23) (end 28.06 -8.23) (layer F.CrtYd) (width 0.05))
  (fp_line (start 28.06 -8.23) (end -3.05 -8.23) (layer F.CrtYd) (width 0.05))
  (pad 1 thru_hole rect (at 0 0) (size 5.1 4.8) (drill 2.8) (layers *.Cu *.Mask))
  (pad 2 thru_hole rect (at 0 10) (size 5.1 4.8) (drill 2.8) (layers *.Cu *.Mask))
  (pad 3 thru_hole rect (at 0 20) (size 5.1 4.8) (drill 2.8) (layers *.Cu *.Mask))
  (pad 4 thru_hole rect (at 0 30) (size 5.1 4.8) (drill 2.8) (layers *.Cu *.Mask))
  (pad 1 thru_hole rect (at 5 0) (size 5.1 4.8) (drill 2.8) (layers *.Cu *.Mask))
  (pad 2 thru_hole rect (at 5 10) (size 5.1 4.8) (drill 2.8) (layers *.Cu *.Mask))
  (pad 3 thru_hole rect (at 5 20) (size 5.1 4.8) (drill 2.8) (layers *.Cu *.Mask))
  (pad 4 thru_hole rect (at 5 30) (size 5.1 4.8) (drill 2.8) (layers *.Cu *.Mask))
  (pad 1 thru_hole roundrect (at -2.1 0) (size 0.6 0.6) (drill 0.3) (layers *.Cu *.Mask) (roundrect_rratio 0.25))
  (pad 1 thru_hole roundrect (at 2.5 0) (size 0.6 0.6) (drill 0.3) (layers *.Cu *.Mask) (roundrect_rratio 0.25))
  (pad 1 thru_hole roundrect (at 7.1 0) (size 0.6 0.6) (drill 0.3) (layers *.Cu *.Mask) (roundrect_rratio 0.25))
  (pad 1 thru_hole roundrect (at -2.1 -1.95) (size 0.6 0.6) (drill 0.3) (layers *.Cu *.Mask) (roundrect_rratio 0.25))
  (pad 1 thru_hole roundrect (at 0.2 -1.95) (size 0.6 0.6) (drill 0.3) (layers *.Cu *.Mask) (roundrect_rratio 0.25))
  (pad 1 thru_hole roundrect (at 2.5 -1.95) (size 0.6 0.6) (drill 0.3) (layers *.Cu *.Mask) (roundrect_rratio 0.25))
  (pad 1 thru_hole roundrect (at 4.8 -1.95) (size 0.6 0.6) (drill 0.3) (layers *.Cu *.Mask) (roundrect_rratio 0.25))
  (pad 1 thru_hole roundrect (at 7.1 -1.95) (size 0.6 0.6) (drill 0.3) (layers *.Cu *.Mask) (roundrect_rratio 0.25))
  (pad 1 thru_hole roundrect (at -2.1 1.95) (size 0.6 0.6) (drill 0.3) (layers *.Cu *.Mask) (roundrect_rratio 0.25))
  (pad 1 thru_hole roundrect (at 0.2 1.95) (size 0.6 0.6) (drill 0.3) (layers *.Cu *.Mask) (roundrect_rratio 0.25))
  (pad 1 thru_hole roundrect (at 2.5 1.95) (size 0.6 0.6) (drill 0.3) (layers *.Cu *.Mask) (roundrect_rratio 0.25))
  (pad 1 thru_hole roundrect (at 4.8 1.95) (size 0.6 0.6) (drill 0.3) (layers *.Cu *.Mask) (roundrect_rratio 0.25))
  (pad 1 thru_hole roundrect (at 7.1 1.95) (size 0.6 0.6) (drill 0.3) (layers *.Cu *.Mask) (roundrect_rratio 0.25))
  (pad 2 thru_hole circle (at -2.1 10) (size 0.6 0.6) (drill 0.3) (layers *.Cu *.Mask))
  (pad 2 thru_hole circle (at 2.5 10) (size 0.6 0.6) (drill 0.3) (layers *.Cu *.Mask))
  (pad 2 thru_hole circle (at 7.1 10) (size 0.6 0.6) (drill 0.3) (layers *.Cu *.Mask))
  (pad 2 thru_hole circle (at -2.1 8.05) (size 0.6 0.6) (drill 0.3) (layers *.Cu *.Mask))
  (pad 2 thru_hole circle (at 0.2 8.05) (size 0.6 0.6) (drill 0.3) (layers *.Cu *.Mask))
  (pad 2 thru_hole circle (at 2.5 8.05) (size 0.6 0.6) (drill 0.3) (layers *.Cu *.Mask))
  (pad 2 thru_hole circle (at 4.8 8.05) (size 0.6 0.6) (drill 0.3) (layers *.Cu *.Mask))
  (pad 2 thru_hole circle (at 7.1 8.05) (size 0.6 0.6) (drill 0.3) (layers *.Cu *.Mask))
  (pad 2 thru_hole circle (at -2.1 11.95) (size 0.6 0.6) (drill 0.3) (layers *.Cu *.Mask))
  (pad 2 thru_hole circle (at 0.2 11.95) (size 0.6 0.6) (drill 0.3) (layers *.Cu *.Mask))
  (pad 2 thru_hole circle (at 2.5 11.95) (size 0.6 0.6) (drill 0.3) (layers *.Cu *.Mask))
  (pad 2 thru_hole circle (at 4.8 11.95) (size 0.6 0.6) (drill 0.3) (layers *.Cu *.Mask))
  (pad 2 thru_hole circle (at 7.1 11.95) (size 0.6 0.6) (drill 0.3) (layers *.Cu *.Mask))
  (pad 3 thru_hole circle (at -2.1 20) (size 0.6 0.6) (drill 0.3) (layers *.Cu *.Mask))
  (pad 3 thru_hole circle (at 2.5 20) (size 0.6 0.6) (drill 0.3) (layers *.Cu *.Mask))
  (pad 3 thru_hole circle (at 7.1 20) (size 0.6 0.6) (drill 0.3) (layers *.Cu *.Mask))
  (pad 3 thru_hole circle (at -2.1 18.05) (size 0.6 0.6) (drill 0.3) (layers *.Cu *.Mask))
  (pad 3 thru_hole circle (at 0.2 18.05) (size 0.6 0.6) (drill 0.3) (layers *.Cu *.Mask))
  (pad 3 thru_hole circle (at 2.5 18.05) (size 0.6 0.6) (drill 0.3) (layers *.Cu *.Mask))
  (pad 3 thru_hole circle (at 4.8 18.05) (size 0.6 0.6) (drill 0.3) (layers *.Cu *.Mask))
  (pad 3 thru_hole circle (at 7.1 18.05) (size 0.6 0.6) (drill 0.3) (layers *.Cu *.Mask))
  (pad 3 thru_hole circle (at -2.1 21.95) (size 0.6 0.6) (drill 0.3) (layers *.Cu *.Mask))
  (pad 3 thru_hole circle (at 0.2 21.95) (size 0.6 0.6) (drill 0.3) (layers *.Cu *.Mask))
  (pad 3 thru_hole circle (at 2.5 21.95) (size 0.6 0.6) (drill 0.3) (layers *.Cu *.Mask))
  (pad 3 thru_hole circle (at 4.8 21.95) (size 0.6 0.6) (drill 0.3) (layers *.Cu *.Mask))
  (pad 3 thru_hole circle (at 7.1 21.95) (size 0.6 0.6) (drill 0.3) (layers *.Cu *.Mask))
  (pad 4 thru_hole circle (at -2.1 30) (size 0.6 0.6) (drill 0.3) (layers *.Cu *.Mask))
  (pad 4 thru_hole circle (at 2.5 30) (size 0.6 0.6) (drill 0.3) (layers *.Cu *.Mask))
  (pad 4 thru_hole circle (at 7.1 30) (size 0.6 0.6) (drill 0.3) (layers *.Cu *.Mask))
  (pad 4 thru_hole circle (at -2.1 28.05) (size 0.6 0.6) (drill 0.3) (layers *.Cu *.Mask))
  (pad 4 thru_hole circle (at 0.2 28.05) (size 0.6 0.6) (drill 0.3) (layers *.Cu *.Mask))
  (pad 4 thru_hole circle (at 2.5 28.05) (size 0.6 0.6) (drill 0.3) (layers *.Cu *.Mask))
  (pad 4 thru_hole circle (at 4.8 28.05) (size 0.6 0.6) (drill 0.3) (layers *.Cu *.Mask))
  (pad 4 thru_hole circle (at 7.1 28.05) (size 0.6 0.6) (drill 0.3) (layers *.Cu *.Mask))
  (pad 4 thru_hole circle (at -2.1 31.95) (size 0.6 0.6) (drill 0.3) (layers *.Cu *.Mask))
  (pad 4 thru_hole circle (at 0.2 31.95) (size 0.6 0.6) (drill 0.3) (layers *.Cu *.Mask))
  (pad 4 thru_hole circle (at 2.5 31.95) (size 0.6 0.6) (drill 0.3) (layers *.Cu *.Mask))
  (pad 4 thru_hole circle (at 4.8 31.95) (size 0.6 0.6) (drill 0.3) (layers *.Cu *.Mask))
  (pad 4 thru_hole circle (at 7.1 31.95) (size 0.6 0.6) (drill 0.3) (layers *.Cu *.Mask))
  (pad "" thru_hole circle (at 14 -5.73) (size 4 4) (drill 3) (layers *.Cu *.Mask))
  (pad "" thru_hole circle (at 14 35.73) (size 4 4) (drill 3) (layers *.Cu *.Mask))
  (fp_text user %R (at 17.06 34.75) (layer F.Fab)
    (effects (font (size 1 1) (thickness 0.15)))
  )
  (model ${KICAD6_3DMODEL_DIR}/Connector_Molex.3dshapes/Molex_Mini-Fit_Sr_42820-42XX_1x04_P10.00mm_Horizontal_ThermalVias.wrl
    (at (xyz 0 0 0))
    (scale (xyz 1 1 1))
    (rotate (xyz 0 0 0))
  )
)