(module Molex_CLIK-Mate_502382-0970_1x09-1MP_P1.25mm_Vertical (layer F.Cu) (tedit 5B78AD89)
  (descr "Molex CLIK-Mate series connector, 502382-0970 (http://www.molex.com/pdm_docs/sd/5023820270_sd.pdf), generated with kicad-footprint-generator")
  (tags "connector Molex CLIK-Mate side entry")
  (attr smd)
  (fp_text reference REF** (at 0 -4.7) (layer F.SilkS)
    (effects (font (size 1 1) (thickness 0.15)))
  )
  (fp_text value Molex_CLIK-Mate_502382-0970_1x09-1MP_P1.25mm_Vertical (at 0 4) (layer F.Fab)
    (effects (font (size 1 1) (thickness 0.15)))
  )
  (fp_line (start -7.3 1.95) (end 7.3 1.95) (layer F.Fab) (width 0.1))
  (fp_line (start -7.41 0.26) (end -7.41 2.06) (layer F.SilkS) (width 0.12))
  (fp_line (start -7.41 2.06) (end -5.56 2.06) (layer F.SilkS) (width 0.12))
  (fp_line (start -5.56 2.06) (end -5.56 2.8) (layer F.SilkS) (width 0.12))
  (fp_line (start 7.41 0.26) (end 7.41 2.06) (layer F.SilkS) (width 0.12))
  (fp_line (start 7.41 2.06) (end 5.56 2.06) (layer F.SilkS) (width 0.12))
  (fp_line (start -7.41 -3.06) (end -7.41 -3.61) (layer F.SilkS) (width 0.12))
  (fp_line (start -7.41 -3.61) (end 7.41 -3.61) (layer F.SilkS) (width 0.12))
  (fp_line (start 7.41 -3.61) (end 7.41 -3.06) (layer F.SilkS) (width 0.12))
  (fp_line (start -7.3 -3.5) (end 7.3 -3.5) (layer F.Fab) (width 0.1))
  (fp_line (start -7.3 1.95) (end -7.3 -3.5) (layer F.Fab) (width 0.1))
  (fp_line (start 7.3 1.95) (end 7.3 -3.5) (layer F.Fab) (width 0.1))
  (fp_line (start -7.85 -4) (end -7.85 3.3) (layer F.CrtYd) (width 0.05))
  (fp_line (start -7.85 3.3) (end 7.85 3.3) (layer F.CrtYd) (width 0.05))
  (fp_line (start 7.85 3.3) (end 7.85 -4) (layer F.CrtYd) (width 0.05))
  (fp_line (start 7.85 -4) (end -7.85 -4) (layer F.CrtYd) (width 0.05))
  (fp_line (start -5.5 1.95) (end -5 1.242893) (layer F.Fab) (width 0.1))
  (fp_line (start -5 1.242893) (end -4.5 1.95) (layer F.Fab) (width 0.1))
  (pad 1 smd roundrect (at -5 1.95) (size 0.6 1.7) (layers F.Cu F.Mask F.Paste) (roundrect_rratio 0.25))
  (pad 2 smd roundrect (at -3.75 1.95) (size 0.6 1.7) (layers F.Cu F.Mask F.Paste) (roundrect_rratio 0.25))
  (pad 3 smd roundrect (at -2.5 1.95) (size 0.6 1.7) (layers F.Cu F.Mask F.Paste) (roundrect_rratio 0.25))
  (pad 4 smd roundrect (at -1.25 1.95) (size 0.6 1.7) (layers F.Cu F.Mask F.Paste) (roundrect_rratio 0.25))
  (pad 5 smd roundrect (at 0 1.95) (size 0.6 1.7) (layers F.Cu F.Mask F.Paste) (roundrect_rratio 0.25))
  (pad 6 smd roundrect (at 1.25 1.95) (size 0.6 1.7) (layers F.Cu F.Mask F.Paste) (roundrect_rratio 0.25))
  (pad 7 smd roundrect (at 2.5 1.95) (size 0.6 1.7) (layers F.Cu F.Mask F.Paste) (roundrect_rratio 0.25))
  (pad 8 smd roundrect (at 3.75 1.95) (size 0.6 1.7) (layers F.Cu F.Mask F.Paste) (roundrect_rratio 0.25))
  (pad 9 smd roundrect (at 5 1.95) (size 0.6 1.7) (layers F.Cu F.Mask F.Paste) (roundrect_rratio 0.25))
  (pad MP smd roundrect (at -6.85 -1.4) (size 1 2.8) (layers F.Cu F.Mask F.Paste) (roundrect_rratio 0.25))
  (pad MP smd roundrect (at 6.85 -1.4) (size 1 2.8) (layers F.Cu F.Mask F.Paste) (roundrect_rratio 0.25))
  (fp_text user %R (at 0 -0.77) (layer F.Fab)
    (effects (font (size 1 1) (thickness 0.15)))
  )
  (model ${KICAD6_3DMODEL_DIR}/Connector_Molex.3dshapes/Molex_CLIK-Mate_502382-0970_1x09-1MP_P1.25mm_Vertical.wrl
    (at (xyz 0 0 0))
    (scale (xyz 1 1 1))
    (rotate (xyz 0 0 0))
  )
)