(module Molex_Mini-Fit_Sr_42820-62XX_1x06_P10.00mm_Horizontal (layer F.Cu) (tedit 5B78223E)
  (descr "Molex Mini-Fit Sr. Power Connectors, 42820-62XX, 6 Pins per row (http://www.molex.com/pdm_docs/sd/428202214_sd.pdf), generated with kicad-footprint-generator")
  (tags "connector Molex Mini-Fit_Sr top entry")
  (fp_text reference REF** (at 17.06 -8.93) (layer F.SilkS)
    (effects (font (size 1 1) (thickness 0.15)))
  )
  (fp_text value Molex_Mini-Fit_Sr_42820-62XX_1x06_P10.00mm_Horizontal (at 17.06 58.93) (layer F.Fab)
    (effects (font (size 1 1) (thickness 0.15)))
  )
  (fp_line (start -2.81 -2.66) (end -2.81 2.66) (layer B.SilkS) (width 0.12))
  (fp_line (start -2.81 2.66) (end 7.81 2.66) (layer B.SilkS) (width 0.12))
  (fp_line (start 7.81 2.66) (end 7.81 -2.66) (layer B.SilkS) (width 0.12))
  (fp_line (start 7.81 -2.66) (end -2.81 -2.66) (layer B.SilkS) (width 0.12))
  (fp_line (start 6.56 -6.91) (end 6.56 56.91) (layer F.Fab) (width 0.1))
  (fp_line (start 6.56 56.91) (end 27.56 56.91) (layer F.Fab) (width 0.1))
  (fp_line (start 27.56 56.91) (end 27.56 -6.91) (layer F.Fab) (width 0.1))
  (fp_line (start 27.56 -6.91) (end 6.56 -6.91) (layer F.Fab) (width 0.1))
  (fp_line (start 6.56 -5.45) (end 27.56 -5.45) (layer F.Fab) (width 0.1))
  (fp_line (start 6.56 55.45) (end 27.56 55.45) (layer F.Fab) (width 0.1))
  (fp_line (start 6.45 -2.66) (end 6.45 -7.02) (layer F.SilkS) (width 0.12))
  (fp_line (start 6.45 -7.02) (end 12 -7.02) (layer F.SilkS) (width 0.12))
  (fp_line (start 6.45 52.66) (end 6.45 57.02) (layer F.SilkS) (width 0.12))
  (fp_line (start 6.45 57.02) (end 12 57.02) (layer F.SilkS) (width 0.12))
  (fp_line (start 16 -7.02) (end 27.67 -7.02) (layer F.SilkS) (width 0.12))
  (fp_line (start 27.67 -7.02) (end 27.67 25) (layer F.SilkS) (width 0.12))
  (fp_line (start 16 57.02) (end 27.67 57.02) (layer F.SilkS) (width 0.12))
  (fp_line (start 27.67 57.02) (end 27.67 25) (layer F.SilkS) (width 0.12))
  (fp_line (start 6.45 2.66) (end 6.45 7.34) (layer F.SilkS) (width 0.12))
  (fp_line (start 6.45 12.66) (end 6.45 17.34) (layer F.SilkS) (width 0.12))
  (fp_line (start 6.45 22.66) (end 6.45 27.34) (layer F.SilkS) (width 0.12))
  (fp_line (start 6.45 32.66) (end 6.45 37.34) (layer F.SilkS) (width 0.12))
  (fp_line (start 6.45 42.66) (end 6.45 47.34) (layer F.SilkS) (width 0.12))
  (fp_line (start 6.56 -1.9) (end 6.56 1.9) (layer F.Fab) (width 0.1))
  (fp_line (start 6.56 1.9) (end -1.04 1.9) (layer F.Fab) (width 0.1))
  (fp_line (start -1.04 1.9) (end -1.04 -1.9) (layer F.Fab) (width 0.1))
  (fp_line (start -1.04 -1.9) (end 6.56 -1.9) (layer F.Fab) (width 0.1))
  (fp_line (start 6.56 8.1) (end 6.56 11.9) (layer F.Fab) (width 0.1))
  (fp_line (start 6.56 11.9) (end -1.04 11.9) (layer F.Fab) (width 0.1))
  (fp_line (start -1.04 11.9) (end -1.04 8.1) (layer F.Fab) (width 0.1))
  (fp_line (start -1.04 8.1) (end 6.56 8.1) (layer F.Fab) (width 0.1))
  (fp_line (start 6.56 18.1) (end 6.56 21.9) (layer F.Fab) (width 0.1))
  (fp_line (start 6.56 21.9) (end -1.04 21.9) (layer F.Fab) (width 0.1))
  (fp_line (start -1.04 21.9) (end -1.04 18.1) (layer F.Fab) (width 0.1))
  (fp_line (start -1.04 18.1) (end 6.56 18.1) (layer F.Fab) (width 0.1))
  (fp_line (start 6.56 28.1) (end 6.56 31.9) (layer F.Fab) (width 0.1))
  (fp_line (start 6.56 31.9) (end -1.04 31.9) (layer F.Fab) (width 0.1))
  (fp_line (start -1.04 31.9) (end -1.04 28.1) (layer F.Fab) (width 0.1))
  (fp_line (start -1.04 28.1) (end 6.56 28.1) (layer F.Fab) (width 0.1))
  (fp_line (start 6.56 38.1) (end 6.56 41.9) (layer F.Fab) (width 0.1))
  (fp_line (start 6.56 41.9) (end -1.04 41.9) (layer F.Fab) (width 0.1))
  (fp_line (start -1.04 41.9) (end -1.04 38.1) (layer F.Fab) (width 0.1))
  (fp_line (start -1.04 38.1) (end 6.56 38.1) (layer F.Fab) (width 0.1))
  (fp_line (start 6.56 48.1) (end 6.56 51.9) (layer F.Fab) (width 0.1))
  (fp_line (start 6.56 51.9) (end -1.04 51.9) (layer F.Fab) (width 0.1))
  (fp_line (start -1.04 51.9) (end -1.04 48.1) (layer F.Fab) (width 0.1))
  (fp_line (start -1.04 48.1) (end 6.56 48.1) (layer F.Fab) (width 0.1))
  (fp_line (start 6.56 -1.2) (end 4.862944 0) (layer F.Fab) (width 0.1))
  (fp_line (start 4.862944 0) (end 6.56 1.2) (layer F.Fab) (width 0.1))
  (fp_line (start -1.04 -1.2) (end 0.657056 0) (layer F.Fab) (width 0.1))
  (fp_line (start 0.657056 0) (end -1.04 1.2) (layer F.Fab) (width 0.1))
  (fp_line (start 6.45 -2.66) (end -2.55 -2.66) (layer F.SilkS) (width 0.12))
  (fp_line (start -3.05 -8.23) (end -3.05 58.23) (layer F.CrtYd) (width 0.05))
  (fp_line (start -3.05 58.23) (end 28.06 58.23) (layer F.CrtYd) (width 0.05))
  (fp_line (start 28.06 58.23) (end 28.06 -8.23) (layer F.CrtYd) (width 0.05))
  (fp_line (start 28.06 -8.23) (end -3.05 -8.23) (layer F.CrtYd) (width 0.05))
  (pad 1 thru_hole rect (at 0 0) (size 5.1 4.8) (drill 2.8) (layers *.Cu *.Mask))
  (pad 2 thru_hole rect (at 0 10) (size 5.1 4.8) (drill 2.8) (layers *.Cu *.Mask))
  (pad 3 thru_hole rect (at 0 20) (size 5.1 4.8) (drill 2.8) (layers *.Cu *.Mask))
  (pad 4 thru_hole rect (at 0 30) (size 5.1 4.8) (drill 2.8) (layers *.Cu *.Mask))
  (pad 5 thru_hole rect (at 0 40) (size 5.1 4.8) (drill 2.8) (layers *.Cu *.Mask))
  (pad 6 thru_hole rect (at 0 50) (size 5.1 4.8) (drill 2.8) (layers *.Cu *.Mask))
  (pad 1 thru_hole rect (at 5 0) (size 5.1 4.8) (drill 2.8) (layers *.Cu *.Mask))
  (pad 2 thru_hole rect (at 5 10) (size 5.1 4.8) (drill 2.8) (layers *.Cu *.Mask))
  (pad 3 thru_hole rect (at 5 20) (size 5.1 4.8) (drill 2.8) (layers *.Cu *.Mask))
  (pad 4 thru_hole rect (at 5 30) (size 5.1 4.8) (drill 2.8) (layers *.Cu *.Mask))
  (pad 5 thru_hole rect (at 5 40) (size 5.1 4.8) (drill 2.8) (layers *.Cu *.Mask))
  (pad 6 thru_hole rect (at 5 50) (size 5.1 4.8) (drill 2.8) (layers *.Cu *.Mask))
  (pad "" thru_hole circle (at 14 -5.73) (size 4 4) (drill 3) (layers *.Cu *.Mask))
  (pad "" thru_hole circle (at 14 55.73) (size 4 4) (drill 3) (layers *.Cu *.Mask))
  (fp_text user %R (at 17.06 54.75) (layer F.Fab)
    (effects (font (size 1 1) (thickness 0.15)))
  )
  (model ${KICAD6_3DMODEL_DIR}/Connector_Molex.3dshapes/Molex_Mini-Fit_Sr_42820-62XX_1x06_P10.00mm_Horizontal.wrl
    (at (xyz 0 0 0))
    (scale (xyz 1 1 1))
    (rotate (xyz 0 0 0))
  )
)