(module Molex_Nano-Fit_105309-xx08_1x08_P2.50mm_Vertical (layer F.Cu) (tedit 5B7830BB)
  (descr "Molex Nano-Fit Power Connectors, 105309-xx08, 8 Pins per row (http://www.molex.com/pdm_docs/sd/1053091203_sd.pdf), generated with kicad-footprint-generator")
  (tags "connector Molex Nano-Fit side entry")
  (fp_text reference REF** (at 0 -2.92) (layer F.SilkS)
    (effects (font (size 1 1) (thickness 0.15)))
  )
  (fp_text value Molex_Nano-Fit_105309-xx08_1x08_P2.50mm_Vertical (at 0 20.42) (layer F.Fab)
    (effects (font (size 1 1) (thickness 0.15)))
  )
  (fp_line (start 1.74 8.75) (end 1.74 -1.72) (layer F.Fab) (width 0.1))
  (fp_line (start 1.74 -1.72) (end -1.74 -1.72) (layer F.Fab) (width 0.1))
  (fp_line (start -1.74 -1.72) (end -1.74 6.15) (layer F.Fab) (width 0.1))
  (fp_line (start -1.74 6.15) (end -4.6 6.15) (layer F.Fab) (width 0.1))
  (fp_line (start -4.6 6.15) (end -4.6 8.75) (layer F.Fab) (width 0.1))
  (fp_line (start 1.74 8.75) (end 1.74 19.22) (layer F.Fab) (width 0.1))
  (fp_line (start 1.74 19.22) (end -1.74 19.22) (layer F.Fab) (width 0.1))
  (fp_line (start -1.74 19.22) (end -1.74 11.35) (layer F.Fab) (width 0.1))
  (fp_line (start -1.74 11.35) (end -4.6 11.35) (layer F.Fab) (width 0.1))
  (fp_line (start -4.6 11.35) (end -4.6 8.75) (layer F.Fab) (width 0.1))
  (fp_line (start 1.85 8.75) (end 1.85 -1.83) (layer F.SilkS) (width 0.12))
  (fp_line (start 1.85 -1.83) (end -1.85 -1.83) (layer F.SilkS) (width 0.12))
  (fp_line (start -1.85 -1.83) (end -1.85 6.04) (layer F.SilkS) (width 0.12))
  (fp_line (start -1.85 6.04) (end -4.71 6.04) (layer F.SilkS) (width 0.12))
  (fp_line (start -4.71 6.04) (end -4.71 8.75) (layer F.SilkS) (width 0.12))
  (fp_line (start 1.85 8.75) (end 1.85 19.33) (layer F.SilkS) (width 0.12))
  (fp_line (start 1.85 19.33) (end -1.85 19.33) (layer F.SilkS) (width 0.12))
  (fp_line (start -1.85 19.33) (end -1.85 11.46) (layer F.SilkS) (width 0.12))
  (fp_line (start -1.85 11.46) (end -4.71 11.46) (layer F.SilkS) (width 0.12))
  (fp_line (start -4.71 11.46) (end -4.71 8.75) (layer F.SilkS) (width 0.12))
  (fp_line (start 2.24 8.75) (end 2.24 -2.22) (layer F.CrtYd) (width 0.05))
  (fp_line (start 2.24 -2.22) (end -2.24 -2.22) (layer F.CrtYd) (width 0.05))
  (fp_line (start -2.24 -2.22) (end -2.24 5.65) (layer F.CrtYd) (width 0.05))
  (fp_line (start -2.24 5.65) (end -5.1 5.65) (layer F.CrtYd) (width 0.05))
  (fp_line (start -5.1 5.65) (end -5.1 8.75) (layer F.CrtYd) (width 0.05))
  (fp_line (start 2.24 8.75) (end 2.24 19.72) (layer F.CrtYd) (width 0.05))
  (fp_line (start 2.24 19.72) (end -2.24 19.72) (layer F.CrtYd) (width 0.05))
  (fp_line (start -2.24 19.72) (end -2.24 11.85) (layer F.CrtYd) (width 0.05))
  (fp_line (start -2.24 11.85) (end -5.1 11.85) (layer F.CrtYd) (width 0.05))
  (fp_line (start -5.1 11.85) (end -5.1 8.75) (layer F.CrtYd) (width 0.05))
  (fp_line (start -4.1 6.65) (end -4.1 10.85) (layer F.Fab) (width 0.1))
  (fp_line (start -4.1 10.85) (end -2.02 10.85) (layer F.Fab) (width 0.1))
  (fp_line (start -2.02 10.85) (end -2.02 6.65) (layer F.Fab) (width 0.1))
  (fp_line (start -2.02 6.65) (end -4.1 6.65) (layer F.Fab) (width 0.1))
  (fp_line (start 0 -2.13) (end -2.15 -2.13) (layer F.SilkS) (width 0.12))
  (fp_line (start -2.15 -2.13) (end -2.15 0) (layer F.SilkS) (width 0.12))
  (fp_line (start -0.5 -1.72) (end 0 -1.012893) (layer F.Fab) (width 0.1))
  (fp_line (start 0 -1.012893) (end 0.5 -1.72) (layer F.Fab) (width 0.1))
  (pad 1 thru_hole roundrect (at 0 0) (size 2.2 1.7) (drill 1.2) (layers *.Cu *.Mask) (roundrect_rratio 0.147059))
  (pad 2 thru_hole oval (at 0 2.5) (size 2.2 1.7) (drill 1.2) (layers *.Cu *.Mask))
  (pad 3 thru_hole oval (at 0 5) (size 2.2 1.7) (drill 1.2) (layers *.Cu *.Mask))
  (pad 4 thru_hole oval (at 0 7.5) (size 2.2 1.7) (drill 1.2) (layers *.Cu *.Mask))
  (pad 5 thru_hole oval (at 0 10) (size 2.2 1.7) (drill 1.2) (layers *.Cu *.Mask))
  (pad 6 thru_hole oval (at 0 12.5) (size 2.2 1.7) (drill 1.2) (layers *.Cu *.Mask))
  (pad 7 thru_hole oval (at 0 15) (size 2.2 1.7) (drill 1.2) (layers *.Cu *.Mask))
  (pad 8 thru_hole oval (at 0 17.5) (size 2.2 1.7) (drill 1.2) (layers *.Cu *.Mask))
  (pad "" np_thru_hole circle (at -1.34 8.75) (size 1.3 1.3) (drill 1.3) (layers *.Cu *.Mask))
  (fp_text user %R (at 1.1 8.75 90) (layer F.Fab)
    (effects (font (size 0.87 0.87) (thickness 0.13)))
  )
  (model ${KICAD6_3DMODEL_DIR}/Connector_Molex.3dshapes/Molex_Nano-Fit_105309-xx08_1x08_P2.50mm_Vertical.wrl
    (at (xyz 0 0 0))
    (scale (xyz 1 1 1))
    (rotate (xyz 0 0 0))
  )
)