(module Molex_CLIK-Mate_502443-1270_1x12-1MP_P2.00mm_Vertical (layer F.Cu) (tedit 5B78AD89)
  (descr "Molex CLIK-Mate series connector, 502443-1270 (http://www.molex.com/pdm_docs/sd/5024430270_sd.pdf), generated with kicad-footprint-generator")
  (tags "connector Molex CLIK-Mate side entry")
  (attr smd)
  (fp_text reference REF** (at 0 -5.6) (layer F.SilkS)
    (effects (font (size 1 1) (thickness 0.15)))
  )
  (fp_text value Molex_CLIK-Mate_502443-1270_1x12-1MP_P2.00mm_Vertical (at 0 5.15) (layer F.Fab)
    (effects (font (size 1 1) (thickness 0.15)))
  )
  (fp_line (start -14 2.45) (end 14 2.45) (layer F.Fab) (width 0.1))
  (fp_line (start -14.11 -0.09) (end -14.11 2.56) (layer F.SilkS) (width 0.12))
  (fp_line (start -14.11 2.56) (end -11.76 2.56) (layer F.SilkS) (width 0.12))
  (fp_line (start -11.76 2.56) (end -11.76 3.95) (layer F.SilkS) (width 0.12))
  (fp_line (start 14.11 -0.09) (end 14.11 2.56) (layer F.SilkS) (width 0.12))
  (fp_line (start 14.11 2.56) (end 11.76 2.56) (layer F.SilkS) (width 0.12))
  (fp_line (start -14 -4.51) (end 14 -4.51) (layer F.SilkS) (width 0.12))
  (fp_line (start -14 -4.4) (end 14 -4.4) (layer F.Fab) (width 0.1))
  (fp_line (start -14 2.45) (end -14 -4.4) (layer F.Fab) (width 0.1))
  (fp_line (start 14 2.45) (end 14 -4.4) (layer F.Fab) (width 0.1))
  (fp_line (start -14.75 -4.9) (end -14.75 4.45) (layer F.CrtYd) (width 0.05))
  (fp_line (start -14.75 4.45) (end 14.75 4.45) (layer F.CrtYd) (width 0.05))
  (fp_line (start 14.75 4.45) (end 14.75 -4.9) (layer F.CrtYd) (width 0.05))
  (fp_line (start 14.75 -4.9) (end -14.75 -4.9) (layer F.CrtYd) (width 0.05))
  (fp_line (start -11.5 2.45) (end -11 1.742893) (layer F.Fab) (width 0.1))
  (fp_line (start -11 1.742893) (end -10.5 2.45) (layer F.Fab) (width 0.1))
  (pad 1 smd roundrect (at -11 2.5) (size 1 2.9) (layers F.Cu F.Mask F.Paste) (roundrect_rratio 0.25))
  (pad 2 smd roundrect (at -9 2.5) (size 1 2.9) (layers F.Cu F.Mask F.Paste) (roundrect_rratio 0.25))
  (pad 3 smd roundrect (at -7 2.5) (size 1 2.9) (layers F.Cu F.Mask F.Paste) (roundrect_rratio 0.25))
  (pad 4 smd roundrect (at -5 2.5) (size 1 2.9) (layers F.Cu F.Mask F.Paste) (roundrect_rratio 0.25))
  (pad 5 smd roundrect (at -3 2.5) (size 1 2.9) (layers F.Cu F.Mask F.Paste) (roundrect_rratio 0.25))
  (pad 6 smd roundrect (at -1 2.5) (size 1 2.9) (layers F.Cu F.Mask F.Paste) (roundrect_rratio 0.25))
  (pad 7 smd roundrect (at 1 2.5) (size 1 2.9) (layers F.Cu F.Mask F.Paste) (roundrect_rratio 0.25))
  (pad 8 smd roundrect (at 3 2.5) (size 1 2.9) (layers F.Cu F.Mask F.Paste) (roundrect_rratio 0.25))
  (pad 9 smd roundrect (at 5 2.5) (size 1 2.9) (layers F.Cu F.Mask F.Paste) (roundrect_rratio 0.25))
  (pad 10 smd roundrect (at 7 2.5) (size 1 2.9) (layers F.Cu F.Mask F.Paste) (roundrect_rratio 0.25))
  (pad 11 smd roundrect (at 9 2.5) (size 1 2.9) (layers F.Cu F.Mask F.Paste) (roundrect_rratio 0.25))
  (pad 12 smd roundrect (at 11 2.5) (size 1 2.9) (layers F.Cu F.Mask F.Paste) (roundrect_rratio 0.25))
  (pad MP smd roundrect (at -13.35 -2.15) (size 1.8 3.6) (layers F.Cu F.Mask F.Paste) (roundrect_rratio 0.138889))
  (pad MP smd roundrect (at 13.35 -2.15) (size 1.8 3.6) (layers F.Cu F.Mask F.Paste) (roundrect_rratio 0.138889))
  (fp_text user %R (at 0 -0.98) (layer F.Fab)
    (effects (font (size 1 1) (thickness 0.15)))
  )
  (model ${KICAD6_3DMODEL_DIR}/Connector_Molex.3dshapes/Molex_CLIK-Mate_502443-1270_1x12-1MP_P2.00mm_Vertical.wrl
    (at (xyz 0 0 0))
    (scale (xyz 1 1 1))
    (rotate (xyz 0 0 0))
  )
)