(module Molex_Nano-Fit_105313-xx07_1x07_P2.50mm_Horizontal (layer F.Cu) (tedit 5B782416)
  (descr "Molex Nano-Fit Power Connectors, 105313-xx07, 7 Pins per row (http://www.molex.com/pdm_docs/sd/1053131208_sd.pdf), generated with kicad-footprint-generator")
  (tags "connector Molex Nano-Fit top entry")
  (fp_text reference REF** (at 6.15 -2.92) (layer F.SilkS)
    (effects (font (size 1 1) (thickness 0.15)))
  )
  (fp_text value Molex_Nano-Fit_105313-xx07_1x07_P2.50mm_Horizontal (at 6.15 17.92) (layer F.Fab)
    (effects (font (size 1 1) (thickness 0.15)))
  )
  (fp_line (start 1.92 -1.72) (end 1.92 16.72) (layer F.Fab) (width 0.1))
  (fp_line (start 1.92 16.72) (end 10.38 16.72) (layer F.Fab) (width 0.1))
  (fp_line (start 10.38 16.72) (end 10.38 -1.72) (layer F.Fab) (width 0.1))
  (fp_line (start 10.38 -1.72) (end 1.92 -1.72) (layer F.Fab) (width 0.1))
  (fp_line (start 1.81 -1.83) (end 1.81 16.83) (layer F.SilkS) (width 0.12))
  (fp_line (start 1.81 16.83) (end 10.49 16.83) (layer F.SilkS) (width 0.12))
  (fp_line (start 10.49 16.83) (end 10.49 -1.83) (layer F.SilkS) (width 0.12))
  (fp_line (start 10.49 -1.83) (end 1.81 -1.83) (layer F.SilkS) (width 0.12))
  (fp_line (start 1.81 0.15) (end 1.81 -0.15) (layer F.SilkS) (width 0.12))
  (fp_line (start 1.81 -0.15) (end 1.36 -0.15) (layer F.SilkS) (width 0.12))
  (fp_line (start 1.36 -0.15) (end 1.36 0.15) (layer F.SilkS) (width 0.12))
  (fp_line (start 1.36 0.15) (end 1.81 0.15) (layer F.SilkS) (width 0.12))
  (fp_line (start 1.81 2.65) (end 1.81 2.35) (layer F.SilkS) (width 0.12))
  (fp_line (start 1.81 2.35) (end 1.36 2.35) (layer F.SilkS) (width 0.12))
  (fp_line (start 1.36 2.35) (end 1.36 2.65) (layer F.SilkS) (width 0.12))
  (fp_line (start 1.36 2.65) (end 1.81 2.65) (layer F.SilkS) (width 0.12))
  (fp_line (start 1.81 5.15) (end 1.81 4.85) (layer F.SilkS) (width 0.12))
  (fp_line (start 1.81 4.85) (end 1.36 4.85) (layer F.SilkS) (width 0.12))
  (fp_line (start 1.36 4.85) (end 1.36 5.15) (layer F.SilkS) (width 0.12))
  (fp_line (start 1.36 5.15) (end 1.81 5.15) (layer F.SilkS) (width 0.12))
  (fp_line (start 1.81 7.65) (end 1.81 7.35) (layer F.SilkS) (width 0.12))
  (fp_line (start 1.81 7.35) (end 1.36 7.35) (layer F.SilkS) (width 0.12))
  (fp_line (start 1.36 7.35) (end 1.36 7.65) (layer F.SilkS) (width 0.12))
  (fp_line (start 1.36 7.65) (end 1.81 7.65) (layer F.SilkS) (width 0.12))
  (fp_line (start 1.81 10.15) (end 1.81 9.85) (layer F.SilkS) (width 0.12))
  (fp_line (start 1.81 9.85) (end 1.36 9.85) (layer F.SilkS) (width 0.12))
  (fp_line (start 1.36 9.85) (end 1.36 10.15) (layer F.SilkS) (width 0.12))
  (fp_line (start 1.36 10.15) (end 1.81 10.15) (layer F.SilkS) (width 0.12))
  (fp_line (start 1.81 12.65) (end 1.81 12.35) (layer F.SilkS) (width 0.12))
  (fp_line (start 1.81 12.35) (end 1.36 12.35) (layer F.SilkS) (width 0.12))
  (fp_line (start 1.36 12.35) (end 1.36 12.65) (layer F.SilkS) (width 0.12))
  (fp_line (start 1.36 12.65) (end 1.81 12.65) (layer F.SilkS) (width 0.12))
  (fp_line (start 1.81 15.15) (end 1.81 14.85) (layer F.SilkS) (width 0.12))
  (fp_line (start 1.81 14.85) (end 1.36 14.85) (layer F.SilkS) (width 0.12))
  (fp_line (start 1.36 14.85) (end 1.36 15.15) (layer F.SilkS) (width 0.12))
  (fp_line (start 1.36 15.15) (end 1.81 15.15) (layer F.SilkS) (width 0.12))
  (fp_line (start 0 -1.11) (end 0.3 -1.534264) (layer F.SilkS) (width 0.12))
  (fp_line (start 0.3 -1.534264) (end -0.3 -1.534264) (layer F.SilkS) (width 0.12))
  (fp_line (start -0.3 -1.534264) (end 0 -1.11) (layer F.SilkS) (width 0.12))
  (fp_line (start 0 -1.11) (end 0.3 -1.534264) (layer F.Fab) (width 0.1))
  (fp_line (start 0.3 -1.534264) (end -0.3 -1.534264) (layer F.Fab) (width 0.1))
  (fp_line (start -0.3 -1.534264) (end 0 -1.11) (layer F.Fab) (width 0.1))
  (fp_line (start -1.6 -2.22) (end -1.6 17.22) (layer F.CrtYd) (width 0.05))
  (fp_line (start -1.6 17.22) (end 10.88 17.22) (layer F.CrtYd) (width 0.05))
  (fp_line (start 10.88 17.22) (end 10.88 -2.22) (layer F.CrtYd) (width 0.05))
  (fp_line (start 10.88 -2.22) (end -1.6 -2.22) (layer F.CrtYd) (width 0.05))
  (pad 1 thru_hole roundrect (at 0 0) (size 2.2 1.7) (drill 1.2) (layers *.Cu *.Mask) (roundrect_rratio 0.147059))
  (pad 2 thru_hole oval (at 0 2.5) (size 2.2 1.7) (drill 1.2) (layers *.Cu *.Mask))
  (pad 3 thru_hole oval (at 0 5) (size 2.2 1.7) (drill 1.2) (layers *.Cu *.Mask))
  (pad 4 thru_hole oval (at 0 7.5) (size 2.2 1.7) (drill 1.2) (layers *.Cu *.Mask))
  (pad 5 thru_hole oval (at 0 10) (size 2.2 1.7) (drill 1.2) (layers *.Cu *.Mask))
  (pad 6 thru_hole oval (at 0 12.5) (size 2.2 1.7) (drill 1.2) (layers *.Cu *.Mask))
  (pad 7 thru_hole oval (at 0 15) (size 2.2 1.7) (drill 1.2) (layers *.Cu *.Mask))
  (pad "" np_thru_hole circle (at 7.18 0) (size 1.7 1.7) (drill 1.7) (layers *.Cu *.Mask))
  (pad "" np_thru_hole circle (at 7.18 15) (size 1.7 1.7) (drill 1.7) (layers *.Cu *.Mask))
  (fp_text user %R (at 6.15 16.02) (layer F.Fab)
    (effects (font (size 1 1) (thickness 0.15)))
  )
  (model ${KICAD6_3DMODEL_DIR}/Connector_Molex.3dshapes/Molex_Nano-Fit_105313-xx07_1x07_P2.50mm_Horizontal.wrl
    (at (xyz 0 0 0))
    (scale (xyz 1 1 1))
    (rotate (xyz 0 0 0))
  )
)