(module Molex_Micro-Fit_3.0_43045-0812_2x04_P3.00mm_Vertical (layer F.Cu) (tedit 5B78138F)
  (descr "Molex Micro-Fit 3.0 Connector System, 43045-0812 (compatible alternatives: 43045-0813, 43045-0824), 4 Pins per row (http://www.molex.com/pdm_docs/sd/430450212_sd.pdf), generated with kicad-footprint-generator")
  (tags "connector Molex Micro-Fit_3.0 side entry")
  (fp_text reference REF** (at 4.5 -3.67) (layer F.SilkS)
    (effects (font (size 1 1) (thickness 0.15)))
  )
  (fp_text value Molex_Micro-Fit_3.0_43045-0812_2x04_P3.00mm_Vertical (at 4.5 7.5) (layer F.Fab)
    (effects (font (size 1 1) (thickness 0.15)))
  )
  (fp_line (start -2.125 -1.97) (end -2.125 -2.47) (layer F.Fab) (width 0.1))
  (fp_line (start -2.125 -2.47) (end -3.325 -2.47) (layer F.Fab) (width 0.1))
  (fp_line (start -3.325 -2.47) (end -3.325 4.9) (layer F.Fab) (width 0.1))
  (fp_line (start -3.325 4.9) (end 12.325 4.9) (layer F.Fab) (width 0.1))
  (fp_line (start 12.325 4.9) (end 12.325 -2.47) (layer F.Fab) (width 0.1))
  (fp_line (start 12.325 -2.47) (end 11.125 -2.47) (layer F.Fab) (width 0.1))
  (fp_line (start 11.125 -2.47) (end 11.125 -1.97) (layer F.Fab) (width 0.1))
  (fp_line (start 11.125 -1.97) (end -2.125 -1.97) (layer F.Fab) (width 0.1))
  (fp_line (start -3.325 -1.34) (end -2.125 -1.97) (layer F.Fab) (width 0.1))
  (fp_line (start 12.325 -1.34) (end 11.125 -1.97) (layer F.Fab) (width 0.1))
  (fp_line (start 3.8 4.9) (end 3.8 6.3) (layer F.Fab) (width 0.1))
  (fp_line (start 3.8 6.3) (end 5.2 6.3) (layer F.Fab) (width 0.1))
  (fp_line (start 5.2 6.3) (end 5.2 4.9) (layer F.Fab) (width 0.1))
  (fp_line (start -0.5 -1.97) (end 0 -1.262893) (layer F.Fab) (width 0.1))
  (fp_line (start 0 -1.262893) (end 0.5 -1.97) (layer F.Fab) (width 0.1))
  (fp_line (start -3.435 4.7) (end -3.435 5.01) (layer F.SilkS) (width 0.12))
  (fp_line (start -3.435 5.01) (end 12.435 5.01) (layer F.SilkS) (width 0.12))
  (fp_line (start 12.435 5.01) (end 12.435 4.7) (layer F.SilkS) (width 0.12))
  (fp_line (start -3.435 3.18) (end -3.435 -2.58) (layer F.SilkS) (width 0.12))
  (fp_line (start -3.435 -2.58) (end -2.015 -2.58) (layer F.SilkS) (width 0.12))
  (fp_line (start -2.015 -2.58) (end -2.015 -2.08) (layer F.SilkS) (width 0.12))
  (fp_line (start -2.015 -2.08) (end 11.015 -2.08) (layer F.SilkS) (width 0.12))
  (fp_line (start 11.015 -2.08) (end 11.015 -2.58) (layer F.SilkS) (width 0.12))
  (fp_line (start 11.015 -2.58) (end 12.435 -2.58) (layer F.SilkS) (width 0.12))
  (fp_line (start 12.435 -2.58) (end 12.435 3.18) (layer F.SilkS) (width 0.12))
  (fp_line (start -3.82 -2.97) (end 12.82 -2.97) (layer F.CrtYd) (width 0.05))
  (fp_line (start 12.82 -2.97) (end 12.82 6.8) (layer F.CrtYd) (width 0.05))
  (fp_line (start 12.82 6.8) (end -3.82 6.8) (layer F.CrtYd) (width 0.05))
  (fp_line (start -3.82 6.8) (end -3.82 -2.97) (layer F.CrtYd) (width 0.05))
  (pad "" np_thru_hole circle (at -3 3.94) (size 1 1) (drill 1) (layers *.Cu *.Mask))
  (pad "" np_thru_hole circle (at 12 3.94) (size 1 1) (drill 1) (layers *.Cu *.Mask))
  (pad 1 thru_hole roundrect (at 0 0) (size 1.5 1.5) (drill 1) (layers *.Cu *.Mask) (roundrect_rratio 0.166667))
  (pad 2 thru_hole circle (at 3 0) (size 1.5 1.5) (drill 1) (layers *.Cu *.Mask))
  (pad 3 thru_hole circle (at 6 0) (size 1.5 1.5) (drill 1) (layers *.Cu *.Mask))
  (pad 4 thru_hole circle (at 9 0) (size 1.5 1.5) (drill 1) (layers *.Cu *.Mask))
  (pad 5 thru_hole circle (at 0 3) (size 1.5 1.5) (drill 1) (layers *.Cu *.Mask))
  (pad 6 thru_hole circle (at 3 3) (size 1.5 1.5) (drill 1) (layers *.Cu *.Mask))
  (pad 7 thru_hole circle (at 6 3) (size 1.5 1.5) (drill 1) (layers *.Cu *.Mask))
  (pad 8 thru_hole circle (at 9 3) (size 1.5 1.5) (drill 1) (layers *.Cu *.Mask))
  (fp_text user %R (at 4.5 4.2) (layer F.Fab)
    (effects (font (size 1 1) (thickness 0.15)))
  )
  (model ${KICAD6_3DMODEL_DIR}/Connector_Molex.3dshapes/Molex_Micro-Fit_3.0_43045-0812_2x04_P3.00mm_Vertical.wrl
    (at (xyz 0 0 0))
    (scale (xyz 1 1 1))
    (rotate (xyz 0 0 0))
  )
)