(module Molex_Micro-Fit_3.0_43045-2000_2x10_P3.00mm_Horizontal (layer F.Cu) (tedit 5DC5E16C)
  (descr "Molex Micro-Fit 3.0 Connector System, 43045-2000 (alternative finishes: 43045-200x), 10 Pins per row (https://www.molex.com/pdm_docs/sd/430450201_sd.pdf), generated with kicad-footprint-generator")
  (tags "connector Molex Micro-Fit_3.0 horizontal")
  (fp_text reference REF** (at 13.5 -10.12) (layer F.SilkS)
    (effects (font (size 1 1) (thickness 0.15)))
  )
  (fp_text value Molex_Micro-Fit_3.0_43045-2000_2x10_P3.00mm_Horizontal (at 13.5 5.7) (layer F.Fab)
    (effects (font (size 1 1) (thickness 0.15)))
  )
  (fp_line (start -3.575 0.99) (end -3.575 -7.92) (layer F.Fab) (width 0.1))
  (fp_line (start -3.575 -7.92) (end -2.575 -8.92) (layer F.Fab) (width 0.1))
  (fp_line (start -2.575 -8.92) (end 29.575 -8.92) (layer F.Fab) (width 0.1))
  (fp_line (start 29.575 -8.92) (end 30.575 -7.92) (layer F.Fab) (width 0.1))
  (fp_line (start 30.575 -7.92) (end 30.575 0.99) (layer F.Fab) (width 0.1))
  (fp_line (start 30.575 0.99) (end -3.575 0.99) (layer F.Fab) (width 0.1))
  (fp_line (start -0.75 0.99) (end 0 0) (layer F.Fab) (width 0.1))
  (fp_line (start 0 0) (end 0.75 0.99) (layer F.Fab) (width 0.1))
  (fp_line (start -3.685 1.1) (end -3.685 -8.03) (layer F.SilkS) (width 0.12))
  (fp_line (start -3.685 -8.03) (end -2.685 -9.03) (layer F.SilkS) (width 0.12))
  (fp_line (start -2.685 -9.03) (end 29.685 -9.03) (layer F.SilkS) (width 0.12))
  (fp_line (start 29.685 -9.03) (end 30.685 -8.03) (layer F.SilkS) (width 0.12))
  (fp_line (start 30.685 -8.03) (end 30.685 1.1) (layer F.SilkS) (width 0.12))
  (fp_line (start 30.685 1.1) (end -3.685 1.1) (layer F.SilkS) (width 0.12))
  (fp_line (start -4.08 1.49) (end -4.08 -9.42) (layer F.CrtYd) (width 0.05))
  (fp_line (start -4.08 -9.42) (end 31.08 -9.42) (layer F.CrtYd) (width 0.05))
  (fp_line (start 31.08 -9.42) (end 31.08 1.49) (layer F.CrtYd) (width 0.05))
  (fp_line (start 31.08 1.49) (end 28.25 1.49) (layer F.CrtYd) (width 0.05))
  (fp_line (start 28.25 1.49) (end 28.25 4.25) (layer F.CrtYd) (width 0.05))
  (fp_line (start 28.25 4.25) (end -1.25 4.25) (layer F.CrtYd) (width 0.05))
  (fp_line (start -1.25 4.25) (end -1.25 1.49) (layer F.CrtYd) (width 0.05))
  (fp_line (start -1.25 1.49) (end -4.08 1.49) (layer F.CrtYd) (width 0.05))
  (pad "" np_thru_hole circle (at 2.16 -4.32) (size 3 3) (drill 3) (layers *.Cu *.Mask))
  (pad "" np_thru_hole circle (at 24.86 -4.32) (size 3 3) (drill 3) (layers *.Cu *.Mask))
  (pad 1 thru_hole roundrect (at 0 0) (size 1.5 1.5) (drill 1.02) (layers *.Cu *.Mask) (roundrect_rratio 0.166667))
  (pad 2 thru_hole circle (at 3 0) (size 1.5 1.5) (drill 1.02) (layers *.Cu *.Mask))
  (pad 3 thru_hole circle (at 6 0) (size 1.5 1.5) (drill 1.02) (layers *.Cu *.Mask))
  (pad 4 thru_hole circle (at 9 0) (size 1.5 1.5) (drill 1.02) (layers *.Cu *.Mask))
  (pad 5 thru_hole circle (at 12 0) (size 1.5 1.5) (drill 1.02) (layers *.Cu *.Mask))
  (pad 6 thru_hole circle (at 15 0) (size 1.5 1.5) (drill 1.02) (layers *.Cu *.Mask))
  (pad 7 thru_hole circle (at 18 0) (size 1.5 1.5) (drill 1.02) (layers *.Cu *.Mask))
  (pad 8 thru_hole circle (at 21 0) (size 1.5 1.5) (drill 1.02) (layers *.Cu *.Mask))
  (pad 9 thru_hole circle (at 24 0) (size 1.5 1.5) (drill 1.02) (layers *.Cu *.Mask))
  (pad 10 thru_hole circle (at 27 0) (size 1.5 1.5) (drill 1.02) (layers *.Cu *.Mask))
  (pad 11 thru_hole circle (at 0 3) (size 1.5 1.5) (drill 1.02) (layers *.Cu *.Mask))
  (pad 12 thru_hole circle (at 3 3) (size 1.5 1.5) (drill 1.02) (layers *.Cu *.Mask))
  (pad 13 thru_hole circle (at 6 3) (size 1.5 1.5) (drill 1.02) (layers *.Cu *.Mask))
  (pad 14 thru_hole circle (at 9 3) (size 1.5 1.5) (drill 1.02) (layers *.Cu *.Mask))
  (pad 15 thru_hole circle (at 12 3) (size 1.5 1.5) (drill 1.02) (layers *.Cu *.Mask))
  (pad 16 thru_hole circle (at 15 3) (size 1.5 1.5) (drill 1.02) (layers *.Cu *.Mask))
  (pad 17 thru_hole circle (at 18 3) (size 1.5 1.5) (drill 1.02) (layers *.Cu *.Mask))
  (pad 18 thru_hole circle (at 21 3) (size 1.5 1.5) (drill 1.02) (layers *.Cu *.Mask))
  (pad 19 thru_hole circle (at 24 3) (size 1.5 1.5) (drill 1.02) (layers *.Cu *.Mask))
  (pad 20 thru_hole circle (at 27 3) (size 1.5 1.5) (drill 1.02) (layers *.Cu *.Mask))
  (fp_text user %R (at 13.5 -8.22) (layer F.Fab)
    (effects (font (size 1 1) (thickness 0.15)))
  )
  (model ${KICAD6_3DMODEL_DIR}/Connector_Molex.3dshapes/Molex_Micro-Fit_3.0_43045-2000_2x10_P3.00mm_Horizontal.wrl
    (at (xyz 0 0 0))
    (scale (xyz 1 1 1))
    (rotate (xyz 0 0 0))
  )
)