(module Molex_PicoBlade_53398-1571_1x15-1MP_P1.25mm_Vertical (layer F.Cu) (tedit 5B78AD89)
  (descr "Molex PicoBlade series connector, 53398-1571 (http://www.molex.com/pdm_docs/sd/533980271_sd.pdf), generated with kicad-footprint-generator")
  (tags "connector Molex PicoBlade side entry")
  (attr smd)
  (fp_text reference REF** (at 0 -3.1) (layer F.SilkS)
    (effects (font (size 1 1) (thickness 0.15)))
  )
  (fp_text value Molex_PicoBlade_53398-1571_1x15-1MP_P1.25mm_Vertical (at 0 4.2) (layer F.Fab)
    (effects (font (size 1 1) (thickness 0.15)))
  )
  (fp_line (start -10.25 -1.1) (end 10.25 -1.1) (layer F.Fab) (width 0.1))
  (fp_line (start -10.36 -0.26) (end -10.36 -1.21) (layer F.SilkS) (width 0.12))
  (fp_line (start -10.36 -1.21) (end -9.41 -1.21) (layer F.SilkS) (width 0.12))
  (fp_line (start -9.41 -1.21) (end -9.41 -1.9) (layer F.SilkS) (width 0.12))
  (fp_line (start 10.36 -0.26) (end 10.36 -1.21) (layer F.SilkS) (width 0.12))
  (fp_line (start 10.36 -1.21) (end 9.41 -1.21) (layer F.SilkS) (width 0.12))
  (fp_line (start -9.99 2.71) (end 9.99 2.71) (layer F.SilkS) (width 0.12))
  (fp_line (start -10.25 2.6) (end 10.25 2.6) (layer F.Fab) (width 0.1))
  (fp_line (start -10.25 -1.1) (end -10.25 2.6) (layer F.Fab) (width 0.1))
  (fp_line (start 10.25 -1.1) (end 10.25 2.6) (layer F.Fab) (width 0.1))
  (fp_line (start -8.9 1.225) (end -8.9 1.825) (layer F.Fab) (width 0.1))
  (fp_line (start -8.9 1.825) (end -8.6 1.825) (layer F.Fab) (width 0.1))
  (fp_line (start -8.6 1.825) (end -8.6 1.225) (layer F.Fab) (width 0.1))
  (fp_line (start -8.6 1.225) (end -8.9 1.225) (layer F.Fab) (width 0.1))
  (fp_line (start -7.65 1.225) (end -7.65 1.825) (layer F.Fab) (width 0.1))
  (fp_line (start -7.65 1.825) (end -7.35 1.825) (layer F.Fab) (width 0.1))
  (fp_line (start -7.35 1.825) (end -7.35 1.225) (layer F.Fab) (width 0.1))
  (fp_line (start -7.35 1.225) (end -7.65 1.225) (layer F.Fab) (width 0.1))
  (fp_line (start -6.4 1.225) (end -6.4 1.825) (layer F.Fab) (width 0.1))
  (fp_line (start -6.4 1.825) (end -6.1 1.825) (layer F.Fab) (width 0.1))
  (fp_line (start -6.1 1.825) (end -6.1 1.225) (layer F.Fab) (width 0.1))
  (fp_line (start -6.1 1.225) (end -6.4 1.225) (layer F.Fab) (width 0.1))
  (fp_line (start -5.15 1.225) (end -5.15 1.825) (layer F.Fab) (width 0.1))
  (fp_line (start -5.15 1.825) (end -4.85 1.825) (layer F.Fab) (width 0.1))
  (fp_line (start -4.85 1.825) (end -4.85 1.225) (layer F.Fab) (width 0.1))
  (fp_line (start -4.85 1.225) (end -5.15 1.225) (layer F.Fab) (width 0.1))
  (fp_line (start -3.9 1.225) (end -3.9 1.825) (layer F.Fab) (width 0.1))
  (fp_line (start -3.9 1.825) (end -3.6 1.825) (layer F.Fab) (width 0.1))
  (fp_line (start -3.6 1.825) (end -3.6 1.225) (layer F.Fab) (width 0.1))
  (fp_line (start -3.6 1.225) (end -3.9 1.225) (layer F.Fab) (width 0.1))
  (fp_line (start -2.65 1.225) (end -2.65 1.825) (layer F.Fab) (width 0.1))
  (fp_line (start -2.65 1.825) (end -2.35 1.825) (layer F.Fab) (width 0.1))
  (fp_line (start -2.35 1.825) (end -2.35 1.225) (layer F.Fab) (width 0.1))
  (fp_line (start -2.35 1.225) (end -2.65 1.225) (layer F.Fab) (width 0.1))
  (fp_line (start -1.4 1.225) (end -1.4 1.825) (layer F.Fab) (width 0.1))
  (fp_line (start -1.4 1.825) (end -1.1 1.825) (layer F.Fab) (width 0.1))
  (fp_line (start -1.1 1.825) (end -1.1 1.225) (layer F.Fab) (width 0.1))
  (fp_line (start -1.1 1.225) (end -1.4 1.225) (layer F.Fab) (width 0.1))
  (fp_line (start -0.15 1.225) (end -0.15 1.825) (layer F.Fab) (width 0.1))
  (fp_line (start -0.15 1.825) (end 0.15 1.825) (layer F.Fab) (width 0.1))
  (fp_line (start 0.15 1.825) (end 0.15 1.225) (layer F.Fab) (width 0.1))
  (fp_line (start 0.15 1.225) (end -0.15 1.225) (layer F.Fab) (width 0.1))
  (fp_line (start 1.1 1.225) (end 1.1 1.825) (layer F.Fab) (width 0.1))
  (fp_line (start 1.1 1.825) (end 1.4 1.825) (layer F.Fab) (width 0.1))
  (fp_line (start 1.4 1.825) (end 1.4 1.225) (layer F.Fab) (width 0.1))
  (fp_line (start 1.4 1.225) (end 1.1 1.225) (layer F.Fab) (width 0.1))
  (fp_line (start 2.35 1.225) (end 2.35 1.825) (layer F.Fab) (width 0.1))
  (fp_line (start 2.35 1.825) (end 2.65 1.825) (layer F.Fab) (width 0.1))
  (fp_line (start 2.65 1.825) (end 2.65 1.225) (layer F.Fab) (width 0.1))
  (fp_line (start 2.65 1.225) (end 2.35 1.225) (layer F.Fab) (width 0.1))
  (fp_line (start 3.6 1.225) (end 3.6 1.825) (layer F.Fab) (width 0.1))
  (fp_line (start 3.6 1.825) (end 3.9 1.825) (layer F.Fab) (width 0.1))
  (fp_line (start 3.9 1.825) (end 3.9 1.225) (layer F.Fab) (width 0.1))
  (fp_line (start 3.9 1.225) (end 3.6 1.225) (layer F.Fab) (width 0.1))
  (fp_line (start 4.85 1.225) (end 4.85 1.825) (layer F.Fab) (width 0.1))
  (fp_line (start 4.85 1.825) (end 5.15 1.825) (layer F.Fab) (width 0.1))
  (fp_line (start 5.15 1.825) (end 5.15 1.225) (layer F.Fab) (width 0.1))
  (fp_line (start 5.15 1.225) (end 4.85 1.225) (layer F.Fab) (width 0.1))
  (fp_line (start 6.1 1.225) (end 6.1 1.825) (layer F.Fab) (width 0.1))
  (fp_line (start 6.1 1.825) (end 6.4 1.825) (layer F.Fab) (width 0.1))
  (fp_line (start 6.4 1.825) (end 6.4 1.225) (layer F.Fab) (width 0.1))
  (fp_line (start 6.4 1.225) (end 6.1 1.225) (layer F.Fab) (width 0.1))
  (fp_line (start 7.35 1.225) (end 7.35 1.825) (layer F.Fab) (width 0.1))
  (fp_line (start 7.35 1.825) (end 7.65 1.825) (layer F.Fab) (width 0.1))
  (fp_line (start 7.65 1.825) (end 7.65 1.225) (layer F.Fab) (width 0.1))
  (fp_line (start 7.65 1.225) (end 7.35 1.225) (layer F.Fab) (width 0.1))
  (fp_line (start 8.6 1.225) (end 8.6 1.825) (layer F.Fab) (width 0.1))
  (fp_line (start 8.6 1.825) (end 8.9 1.825) (layer F.Fab) (width 0.1))
  (fp_line (start 8.9 1.825) (end 8.9 1.225) (layer F.Fab) (width 0.1))
  (fp_line (start 8.9 1.225) (end 8.6 1.225) (layer F.Fab) (width 0.1))
  (fp_line (start -10.25 2.6) (end -11.75 2.6) (layer F.Fab) (width 0.1))
  (fp_line (start -11.75 2.6) (end -11.95 2.4) (layer F.Fab) (width 0.1))
  (fp_line (start -11.95 2.4) (end -11.95 0.6) (layer F.Fab) (width 0.1))
  (fp_line (start -11.95 0.6) (end -11.75 0.4) (layer F.Fab) (width 0.1))
  (fp_line (start -11.75 0.4) (end -11.75 -0.2) (layer F.Fab) (width 0.1))
  (fp_line (start -11.75 -0.2) (end -10.25 -0.2) (layer F.Fab) (width 0.1))
  (fp_line (start 10.25 2.6) (end 11.75 2.6) (layer F.Fab) (width 0.1))
  (fp_line (start 11.75 2.6) (end 11.95 2.4) (layer F.Fab) (width 0.1))
  (fp_line (start 11.95 2.4) (end 11.95 0.6) (layer F.Fab) (width 0.1))
  (fp_line (start 11.95 0.6) (end 11.75 0.4) (layer F.Fab) (width 0.1))
  (fp_line (start 11.75 0.4) (end 11.75 -0.2) (layer F.Fab) (width 0.1))
  (fp_line (start 11.75 -0.2) (end 10.25 -0.2) (layer F.Fab) (width 0.1))
  (fp_line (start -12.85 -2.4) (end -12.85 3.5) (layer F.CrtYd) (width 0.05))
  (fp_line (start -12.85 3.5) (end 12.85 3.5) (layer F.CrtYd) (width 0.05))
  (fp_line (start 12.85 3.5) (end 12.85 -2.4) (layer F.CrtYd) (width 0.05))
  (fp_line (start 12.85 -2.4) (end -12.85 -2.4) (layer F.CrtYd) (width 0.05))
  (fp_line (start -9.25 -1.1) (end -8.75 -0.392893) (layer F.Fab) (width 0.1))
  (fp_line (start -8.75 -0.392893) (end -8.25 -1.1) (layer F.Fab) (width 0.1))
  (pad 1 smd roundrect (at -8.75 -1.25) (size 0.8 1.3) (layers F.Cu F.Mask F.Paste) (roundrect_rratio 0.25))
  (pad 2 smd roundrect (at -7.5 -1.25) (size 0.8 1.3) (layers F.Cu F.Mask F.Paste) (roundrect_rratio 0.25))
  (pad 3 smd roundrect (at -6.25 -1.25) (size 0.8 1.3) (layers F.Cu F.Mask F.Paste) (roundrect_rratio 0.25))
  (pad 4 smd roundrect (at -5 -1.25) (size 0.8 1.3) (layers F.Cu F.Mask F.Paste) (roundrect_rratio 0.25))
  (pad 5 smd roundrect (at -3.75 -1.25) (size 0.8 1.3) (layers F.Cu F.Mask F.Paste) (roundrect_rratio 0.25))
  (pad 6 smd roundrect (at -2.5 -1.25) (size 0.8 1.3) (layers F.Cu F.Mask F.Paste) (roundrect_rratio 0.25))
  (pad 7 smd roundrect (at -1.25 -1.25) (size 0.8 1.3) (layers F.Cu F.Mask F.Paste) (roundrect_rratio 0.25))
  (pad 8 smd roundrect (at 0 -1.25) (size 0.8 1.3) (layers F.Cu F.Mask F.Paste) (roundrect_rratio 0.25))
  (pad 9 smd roundrect (at 1.25 -1.25) (size 0.8 1.3) (layers F.Cu F.Mask F.Paste) (roundrect_rratio 0.25))
  (pad 10 smd roundrect (at 2.5 -1.25) (size 0.8 1.3) (layers F.Cu F.Mask F.Paste) (roundrect_rratio 0.25))
  (pad 11 smd roundrect (at 3.75 -1.25) (size 0.8 1.3) (layers F.Cu F.Mask F.Paste) (roundrect_rratio 0.25))
  (pad 12 smd roundrect (at 5 -1.25) (size 0.8 1.3) (layers F.Cu F.Mask F.Paste) (roundrect_rratio 0.25))
  (pad 13 smd roundrect (at 6.25 -1.25) (size 0.8 1.3) (layers F.Cu F.Mask F.Paste) (roundrect_rratio 0.25))
  (pad 14 smd roundrect (at 7.5 -1.25) (size 0.8 1.3) (layers F.Cu F.Mask F.Paste) (roundrect_rratio 0.25))
  (pad 15 smd roundrect (at 8.75 -1.25) (size 0.8 1.3) (layers F.Cu F.Mask F.Paste) (roundrect_rratio 0.25))
  (pad MP smd roundrect (at -11.3 1.5) (size 2.1 3) (layers F.Cu F.Mask F.Paste) (roundrect_rratio 0.119048))
  (pad MP smd roundrect (at 11.3 1.5) (size 2.1 3) (layers F.Cu F.Mask F.Paste) (roundrect_rratio 0.119048))
  (fp_text user %R (at 0 0.4) (layer F.Fab)
    (effects (font (size 1 1) (thickness 0.15)))
  )
  (model ${KICAD6_3DMODEL_DIR}/Connector_Molex.3dshapes/Molex_PicoBlade_53398-1571_1x15-1MP_P1.25mm_Vertical.wrl
    (at (xyz 0 0 0))
    (scale (xyz 1 1 1))
    (rotate (xyz 0 0 0))
  )
)