(module Molex_CLIK-Mate_502585-1070_1x10-1MP_P1.50mm_Horizontal (layer F.Cu) (tedit 5B78AD89)
  (descr "Molex CLIK-Mate series connector, 502585-1070 (http://www.molex.com/pdm_docs/sd/5025850270_sd.pdf), generated with kicad-footprint-generator")
  (tags "connector Molex CLIK-Mate top entry")
  (attr smd)
  (fp_text reference REF** (at 0 -5.22) (layer F.SilkS)
    (effects (font (size 1 1) (thickness 0.15)))
  )
  (fp_text value Molex_CLIK-Mate_502585-1070_1x10-1MP_P1.50mm_Horizontal (at 0 6.48) (layer F.Fab)
    (effects (font (size 1 1) (thickness 0.15)))
  )
  (fp_line (start -9.65 -1.675) (end 9.65 -1.675) (layer F.Fab) (width 0.1))
  (fp_line (start -9.76 -0.035) (end -9.76 -1.785) (layer F.SilkS) (width 0.12))
  (fp_line (start -9.76 -1.785) (end -7.41 -1.785) (layer F.SilkS) (width 0.12))
  (fp_line (start -7.41 -1.785) (end -7.41 -4.025) (layer F.SilkS) (width 0.12))
  (fp_line (start 9.76 -0.035) (end 9.76 -1.785) (layer F.SilkS) (width 0.12))
  (fp_line (start 9.76 -1.785) (end 7.41 -1.785) (layer F.SilkS) (width 0.12))
  (fp_line (start -8.19 5.385) (end 8.19 5.385) (layer F.SilkS) (width 0.12))
  (fp_line (start -9.65 2.675) (end -9.32 2.675) (layer F.Fab) (width 0.1))
  (fp_line (start -9.32 2.675) (end -9.32 5.275) (layer F.Fab) (width 0.1))
  (fp_line (start -9.32 5.275) (end 9.32 5.275) (layer F.Fab) (width 0.1))
  (fp_line (start 9.32 5.275) (end 9.32 2.675) (layer F.Fab) (width 0.1))
  (fp_line (start 9.32 2.675) (end 9.65 2.675) (layer F.Fab) (width 0.1))
  (fp_line (start -9.65 -1.675) (end -9.65 2.675) (layer F.Fab) (width 0.1))
  (fp_line (start 9.65 -1.675) (end 9.65 2.675) (layer F.Fab) (width 0.1))
  (fp_line (start -10.75 -4.52) (end -10.75 5.78) (layer F.CrtYd) (width 0.05))
  (fp_line (start -10.75 5.78) (end 10.75 5.78) (layer F.CrtYd) (width 0.05))
  (fp_line (start 10.75 5.78) (end 10.75 -4.52) (layer F.CrtYd) (width 0.05))
  (fp_line (start 10.75 -4.52) (end -10.75 -4.52) (layer F.CrtYd) (width 0.05))
  (fp_line (start -7.25 -1.675) (end -6.75 -0.967893) (layer F.Fab) (width 0.1))
  (fp_line (start -6.75 -0.967893) (end -6.25 -1.675) (layer F.Fab) (width 0.1))
  (pad 1 smd roundrect (at -6.75 -2.575) (size 0.8 2.9) (layers F.Cu F.Mask F.Paste) (roundrect_rratio 0.25))
  (pad 2 smd roundrect (at -5.25 -2.575) (size 0.8 2.9) (layers F.Cu F.Mask F.Paste) (roundrect_rratio 0.25))
  (pad 3 smd roundrect (at -3.75 -2.575) (size 0.8 2.9) (layers F.Cu F.Mask F.Paste) (roundrect_rratio 0.25))
  (pad 4 smd roundrect (at -2.25 -2.575) (size 0.8 2.9) (layers F.Cu F.Mask F.Paste) (roundrect_rratio 0.25))
  (pad 5 smd roundrect (at -0.75 -2.575) (size 0.8 2.9) (layers F.Cu F.Mask F.Paste) (roundrect_rratio 0.25))
  (pad 6 smd roundrect (at 0.75 -2.575) (size 0.8 2.9) (layers F.Cu F.Mask F.Paste) (roundrect_rratio 0.25))
  (pad 7 smd roundrect (at 2.25 -2.575) (size 0.8 2.9) (layers F.Cu F.Mask F.Paste) (roundrect_rratio 0.25))
  (pad 8 smd roundrect (at 3.75 -2.575) (size 0.8 2.9) (layers F.Cu F.Mask F.Paste) (roundrect_rratio 0.25))
  (pad 9 smd roundrect (at 5.25 -2.575) (size 0.8 2.9) (layers F.Cu F.Mask F.Paste) (roundrect_rratio 0.25))
  (pad 10 smd roundrect (at 6.75 -2.575) (size 0.8 2.9) (layers F.Cu F.Mask F.Paste) (roundrect_rratio 0.25))
  (pad MP smd roundrect (at -9.35 2.125) (size 1.8 3.8) (layers F.Cu F.Mask F.Paste) (roundrect_rratio 0.138889))
  (pad MP smd roundrect (at 9.35 2.125) (size 1.8 3.8) (layers F.Cu F.Mask F.Paste) (roundrect_rratio 0.138889))
  (fp_text user %R (at 0 0.5) (layer F.Fab)
    (effects (font (size 1 1) (thickness 0.15)))
  )
  (model ${KICAD6_3DMODEL_DIR}/Connector_Molex.3dshapes/Molex_CLIK-Mate_502585-1070_1x10-1MP_P1.50mm_Horizontal.wrl
    (at (xyz 0 0 0))
    (scale (xyz 1 1 1))
    (rotate (xyz 0 0 0))
  )
)