(module Molex_PicoBlade_53398-0271_1x02-1MP_P1.25mm_Vertical (layer F.Cu) (tedit 5B78AD88)
  (descr "Molex PicoBlade series connector, 53398-0271 (http://www.molex.com/pdm_docs/sd/533980271_sd.pdf), generated with kicad-footprint-generator")
  (tags "connector Molex PicoBlade side entry")
  (attr smd)
  (fp_text reference REF** (at 0 -3.1) (layer F.SilkS)
    (effects (font (size 1 1) (thickness 0.15)))
  )
  (fp_text value Molex_PicoBlade_53398-0271_1x02-1MP_P1.25mm_Vertical (at 0 4.2) (layer F.Fab)
    (effects (font (size 1 1) (thickness 0.15)))
  )
  (fp_line (start -2.125 -1.1) (end 2.125 -1.1) (layer F.Fab) (width 0.1))
  (fp_line (start -2.235 -0.26) (end -2.235 -1.21) (layer F.SilkS) (width 0.12))
  (fp_line (start -2.235 -1.21) (end -1.285 -1.21) (layer F.SilkS) (width 0.12))
  (fp_line (start -1.285 -1.21) (end -1.285 -1.9) (layer F.SilkS) (width 0.12))
  (fp_line (start 2.235 -0.26) (end 2.235 -1.21) (layer F.SilkS) (width 0.12))
  (fp_line (start 2.235 -1.21) (end 1.285 -1.21) (layer F.SilkS) (width 0.12))
  (fp_line (start -1.865 2.71) (end 1.865 2.71) (layer F.SilkS) (width 0.12))
  (fp_line (start -2.125 2.6) (end 2.125 2.6) (layer F.Fab) (width 0.1))
  (fp_line (start -2.125 -1.1) (end -2.125 2.6) (layer F.Fab) (width 0.1))
  (fp_line (start 2.125 -1.1) (end 2.125 2.6) (layer F.Fab) (width 0.1))
  (fp_line (start -0.775 1.225) (end -0.775 1.825) (layer F.Fab) (width 0.1))
  (fp_line (start -0.775 1.825) (end -0.475 1.825) (layer F.Fab) (width 0.1))
  (fp_line (start -0.475 1.825) (end -0.475 1.225) (layer F.Fab) (width 0.1))
  (fp_line (start -0.475 1.225) (end -0.775 1.225) (layer F.Fab) (width 0.1))
  (fp_line (start 0.475 1.225) (end 0.475 1.825) (layer F.Fab) (width 0.1))
  (fp_line (start 0.475 1.825) (end 0.775 1.825) (layer F.Fab) (width 0.1))
  (fp_line (start 0.775 1.825) (end 0.775 1.225) (layer F.Fab) (width 0.1))
  (fp_line (start 0.775 1.225) (end 0.475 1.225) (layer F.Fab) (width 0.1))
  (fp_line (start -2.125 2.6) (end -3.625 2.6) (layer F.Fab) (width 0.1))
  (fp_line (start -3.625 2.6) (end -3.825 2.4) (layer F.Fab) (width 0.1))
  (fp_line (start -3.825 2.4) (end -3.825 0.6) (layer F.Fab) (width 0.1))
  (fp_line (start -3.825 0.6) (end -3.625 0.4) (layer F.Fab) (width 0.1))
  (fp_line (start -3.625 0.4) (end -3.625 -0.2) (layer F.Fab) (width 0.1))
  (fp_line (start -3.625 -0.2) (end -2.125 -0.2) (layer F.Fab) (width 0.1))
  (fp_line (start 2.125 2.6) (end 3.625 2.6) (layer F.Fab) (width 0.1))
  (fp_line (start 3.625 2.6) (end 3.825 2.4) (layer F.Fab) (width 0.1))
  (fp_line (start 3.825 2.4) (end 3.825 0.6) (layer F.Fab) (width 0.1))
  (fp_line (start 3.825 0.6) (end 3.625 0.4) (layer F.Fab) (width 0.1))
  (fp_line (start 3.625 0.4) (end 3.625 -0.2) (layer F.Fab) (width 0.1))
  (fp_line (start 3.625 -0.2) (end 2.125 -0.2) (layer F.Fab) (width 0.1))
  (fp_line (start -4.72 -2.4) (end -4.72 3.5) (layer F.CrtYd) (width 0.05))
  (fp_line (start -4.72 3.5) (end 4.72 3.5) (layer F.CrtYd) (width 0.05))
  (fp_line (start 4.72 3.5) (end 4.72 -2.4) (layer F.CrtYd) (width 0.05))
  (fp_line (start 4.72 -2.4) (end -4.72 -2.4) (layer F.CrtYd) (width 0.05))
  (fp_line (start -1.125 -1.1) (end -0.625 -0.392893) (layer F.Fab) (width 0.1))
  (fp_line (start -0.625 -0.392893) (end -0.125 -1.1) (layer F.Fab) (width 0.1))
  (pad 1 smd roundrect (at -0.625 -1.25) (size 0.8 1.3) (layers F.Cu F.Mask F.Paste) (roundrect_rratio 0.25))
  (pad 2 smd roundrect (at 0.625 -1.25) (size 0.8 1.3) (layers F.Cu F.Mask F.Paste) (roundrect_rratio 0.25))
  (pad MP smd roundrect (at -3.175 1.5) (size 2.1 3) (layers F.Cu F.Mask F.Paste) (roundrect_rratio 0.119048))
  (pad MP smd roundrect (at 3.175 1.5) (size 2.1 3) (layers F.Cu F.Mask F.Paste) (roundrect_rratio 0.119048))
  (fp_text user %R (at 0 0.4) (layer F.Fab)
    (effects (font (size 1 1) (thickness 0.15)))
  )
  (model ${KICAD6_3DMODEL_DIR}/Connector_Molex.3dshapes/Molex_PicoBlade_53398-0271_1x02-1MP_P1.25mm_Vertical.wrl
    (at (xyz 0 0 0))
    (scale (xyz 1 1 1))
    (rotate (xyz 0 0 0))
  )
)