(module Molex_Mega-Fit_76829-0010_2x05_P5.70mm_Vertical (layer F.Cu) (tedit 5B781062)
  (descr "Molex Mega-Fit Power Connectors, 76829-0010 (compatible alternatives: 172065-0010, 172065-1010), 5 Pins per row (http://www.molex.com/pdm_docs/sd/768290004_sd.pdf), generated with kicad-footprint-generator")
  (tags "connector Molex Mega-Fit side entry")
  (fp_text reference REF** (at 11.4 -4.51) (layer F.SilkS)
    (effects (font (size 1 1) (thickness 0.15)))
  )
  (fp_text value Molex_Mega-Fit_76829-0010_2x05_P5.70mm_Vertical (at 11.4 11.92) (layer F.Fab)
    (effects (font (size 1 1) (thickness 0.15)))
  )
  (fp_arc (start -5.17 6.025) (end -5.17 7.55) (angle 180) (layer F.Fab) (width 0.1))
  (fp_arc (start 27.97 6.025) (end 27.97 4.5) (angle 180) (layer F.Fab) (width 0.1))
  (fp_arc (start -5.17 6.025) (end -5.17 7.785) (angle 180) (layer F.SilkS) (width 0.12))
  (fp_arc (start 27.97 6.025) (end 27.97 4.265) (angle 180) (layer F.SilkS) (width 0.12))
  (fp_line (start -5.17 4.5) (end -3.175 4.5) (layer F.Fab) (width 0.1))
  (fp_line (start -5.17 7.55) (end -3.175 7.55) (layer F.Fab) (width 0.1))
  (fp_line (start 27.97 4.5) (end 25.975 4.5) (layer F.Fab) (width 0.1))
  (fp_line (start 27.97 7.55) (end 25.975 7.55) (layer F.Fab) (width 0.1))
  (fp_line (start -5.17 4.265) (end -3.285 4.265) (layer F.SilkS) (width 0.12))
  (fp_line (start -5.17 7.785) (end -3.285 7.785) (layer F.SilkS) (width 0.12))
  (fp_line (start 27.97 4.265) (end 26.085 4.265) (layer F.SilkS) (width 0.12))
  (fp_line (start 27.97 7.785) (end 26.085 7.785) (layer F.SilkS) (width 0.12))
  (fp_line (start -2.175 -3.31) (end -3.175 -2.31) (layer F.Fab) (width 0.1))
  (fp_line (start -3.175 -2.31) (end -3.175 9.17) (layer F.Fab) (width 0.1))
  (fp_line (start -3.175 9.17) (end 25.975 9.17) (layer F.Fab) (width 0.1))
  (fp_line (start 25.975 9.17) (end 25.975 -3.31) (layer F.Fab) (width 0.1))
  (fp_line (start 25.975 -3.31) (end -2.175 -3.31) (layer F.Fab) (width 0.1))
  (fp_line (start 9.7 9.17) (end 9.7 10.72) (layer F.Fab) (width 0.1))
  (fp_line (start 9.7 10.72) (end 13.1 10.72) (layer F.Fab) (width 0.1))
  (fp_line (start 13.1 10.72) (end 13.1 9.17) (layer F.Fab) (width 0.1))
  (fp_line (start 11.4 -3.42) (end -3.285 -3.42) (layer F.SilkS) (width 0.12))
  (fp_line (start -3.285 -3.42) (end -3.285 9.28) (layer F.SilkS) (width 0.12))
  (fp_line (start -3.285 9.28) (end 9.59 9.28) (layer F.SilkS) (width 0.12))
  (fp_line (start 9.59 9.28) (end 9.59 10.83) (layer F.SilkS) (width 0.12))
  (fp_line (start 9.59 10.83) (end 11.4 10.83) (layer F.SilkS) (width 0.12))
  (fp_line (start 11.4 -3.42) (end 26.085 -3.42) (layer F.SilkS) (width 0.12))
  (fp_line (start 26.085 -3.42) (end 26.085 9.28) (layer F.SilkS) (width 0.12))
  (fp_line (start 26.085 9.28) (end 13.21 9.28) (layer F.SilkS) (width 0.12))
  (fp_line (start 13.21 9.28) (end 13.21 10.83) (layer F.SilkS) (width 0.12))
  (fp_line (start 13.21 10.83) (end 11.4 10.83) (layer F.SilkS) (width 0.12))
  (fp_line (start -3.585 -1.31) (end -3.585 -3.72) (layer F.SilkS) (width 0.12))
  (fp_line (start -3.585 -3.72) (end -1.175 -3.72) (layer F.SilkS) (width 0.12))
  (fp_line (start -3.67 -3.81) (end -3.67 4) (layer F.CrtYd) (width 0.05))
  (fp_line (start -3.67 4) (end -7.19 4) (layer F.CrtYd) (width 0.05))
  (fp_line (start -7.19 4) (end -7.19 11.22) (layer F.CrtYd) (width 0.05))
  (fp_line (start -7.19 11.22) (end 29.99 11.22) (layer F.CrtYd) (width 0.05))
  (fp_line (start 29.99 11.22) (end 29.99 4) (layer F.CrtYd) (width 0.05))
  (fp_line (start 29.99 4) (end 26.48 4) (layer F.CrtYd) (width 0.05))
  (fp_line (start 26.48 4) (end 26.48 -3.81) (layer F.CrtYd) (width 0.05))
  (fp_line (start 26.48 -3.81) (end -3.67 -3.81) (layer F.CrtYd) (width 0.05))
  (pad 1 thru_hole roundrect (at 0 0) (size 3.7 3.7) (drill 1.8) (layers *.Cu *.Mask) (roundrect_rratio 0.067568))
  (pad 2 thru_hole circle (at 5.7 0) (size 3.7 3.7) (drill 1.8) (layers *.Cu *.Mask))
  (pad 3 thru_hole circle (at 11.4 0) (size 3.7 3.7) (drill 1.8) (layers *.Cu *.Mask))
  (pad 4 thru_hole circle (at 17.1 0) (size 3.7 3.7) (drill 1.8) (layers *.Cu *.Mask))
  (pad 5 thru_hole circle (at 22.8 0) (size 3.7 3.7) (drill 1.8) (layers *.Cu *.Mask))
  (pad 6 thru_hole circle (at 0 5.7) (size 3.7 3.7) (drill 1.8) (layers *.Cu *.Mask))
  (pad 7 thru_hole circle (at 5.7 5.7) (size 3.7 3.7) (drill 1.8) (layers *.Cu *.Mask))
  (pad 8 thru_hole circle (at 11.4 5.7) (size 3.7 3.7) (drill 1.8) (layers *.Cu *.Mask))
  (pad 9 thru_hole circle (at 17.1 5.7) (size 3.7 3.7) (drill 1.8) (layers *.Cu *.Mask))
  (pad 10 thru_hole circle (at 22.8 5.7) (size 3.7 3.7) (drill 1.8) (layers *.Cu *.Mask))
  (pad "" np_thru_hole circle (at -5.17 6.025) (size 3 3) (drill 3) (layers *.Cu *.Mask))
  (pad "" np_thru_hole circle (at 27.97 6.025) (size 3 3) (drill 3) (layers *.Cu *.Mask))
  (fp_text user %R (at 11.4 -2.61) (layer F.Fab)
    (effects (font (size 1 1) (thickness 0.15)))
  )
  (model ${KICAD6_3DMODEL_DIR}/Connector_Molex.3dshapes/Molex_Mega-Fit_76829-0010_2x05_P5.70mm_Vertical.wrl
    (at (xyz 0 0 0))
    (scale (xyz 1 1 1))
    (rotate (xyz 0 0 0))
  )
)