(module Molex_Panelmate_53780-0270_1x02-1MP_P1.25mm_Horizontal (layer F.Cu) (tedit 5B78AD88)
  (descr "Molex Panelmate series connector, 53780-0270 (), generated with kicad-footprint-generator")
  (tags "connector Molex Panelmate top entry")
  (attr smd)
  (fp_text reference REF** (at 0 -4.95) (layer F.SilkS)
    (effects (font (size 1 1) (thickness 0.15)))
  )
  (fp_text value Molex_Panelmate_53780-0270_1x02-1MP_P1.25mm_Horizontal (at 0 4.95) (layer F.Fab)
    (effects (font (size 1 1) (thickness 0.15)))
  )
  (fp_line (start -3.825 -2.25) (end 3.825 -2.25) (layer F.Fab) (width 0.1))
  (fp_line (start -3.935 0.14) (end -3.935 -2.36) (layer F.SilkS) (width 0.12))
  (fp_line (start -3.935 -2.36) (end -1.285 -2.36) (layer F.SilkS) (width 0.12))
  (fp_line (start -1.285 -2.36) (end -1.285 -3.75) (layer F.SilkS) (width 0.12))
  (fp_line (start 3.935 0.14) (end 3.935 -2.36) (layer F.SilkS) (width 0.12))
  (fp_line (start 3.935 -2.36) (end 1.285 -2.36) (layer F.SilkS) (width 0.12))
  (fp_line (start -2.565 3.76) (end -1.815 3.76) (layer F.SilkS) (width 0.12))
  (fp_line (start -1.815 3.76) (end -1.415 2.76) (layer F.SilkS) (width 0.12))
  (fp_line (start -1.415 2.76) (end 1.415 2.76) (layer F.SilkS) (width 0.12))
  (fp_line (start 1.415 2.76) (end 1.815 3.76) (layer F.SilkS) (width 0.12))
  (fp_line (start 1.815 3.76) (end 2.565 3.76) (layer F.SilkS) (width 0.12))
  (fp_line (start -3.825 3.65) (end -1.925 3.65) (layer F.Fab) (width 0.1))
  (fp_line (start -1.925 3.65) (end -1.525 2.65) (layer F.Fab) (width 0.1))
  (fp_line (start -1.525 2.65) (end 1.525 2.65) (layer F.Fab) (width 0.1))
  (fp_line (start 1.525 2.65) (end 1.925 3.65) (layer F.Fab) (width 0.1))
  (fp_line (start 1.925 3.65) (end 3.825 3.65) (layer F.Fab) (width 0.1))
  (fp_line (start -3.825 -2.25) (end -3.825 3.65) (layer F.Fab) (width 0.1))
  (fp_line (start 3.825 -2.25) (end 3.825 3.65) (layer F.Fab) (width 0.1))
  (fp_line (start -4.62 -4.25) (end -4.62 4.25) (layer F.CrtYd) (width 0.05))
  (fp_line (start -4.62 4.25) (end 4.62 4.25) (layer F.CrtYd) (width 0.05))
  (fp_line (start 4.62 4.25) (end 4.62 -4.25) (layer F.CrtYd) (width 0.05))
  (fp_line (start 4.62 -4.25) (end -4.62 -4.25) (layer F.CrtYd) (width 0.05))
  (fp_line (start -1.125 -2.25) (end -0.625 -1.542893) (layer F.Fab) (width 0.1))
  (fp_line (start -0.625 -1.542893) (end -0.125 -2.25) (layer F.Fab) (width 0.1))
  (pad 1 smd roundrect (at -0.625 -2.8) (size 0.8 1.9) (layers F.Cu F.Mask F.Paste) (roundrect_rratio 0.25))
  (pad 2 smd roundrect (at 0.625 -2.8) (size 0.8 1.9) (layers F.Cu F.Mask F.Paste) (roundrect_rratio 0.25))
  (pad MP smd roundrect (at -3.475 2.075) (size 1.3 3.35) (layers F.Cu F.Mask F.Paste) (roundrect_rratio 0.192308))
  (pad MP smd roundrect (at 3.475 2.075) (size 1.3 3.35) (layers F.Cu F.Mask F.Paste) (roundrect_rratio 0.192308))
  (fp_text user %R (at 0 0.7) (layer F.Fab)
    (effects (font (size 1 1) (thickness 0.15)))
  )
  (model ${KICAD6_3DMODEL_DIR}/Connector_Molex.3dshapes/Molex_Panelmate_53780-0270_1x02-1MP_P1.25mm_Horizontal.wrl
    (at (xyz 0 0 0))
    (scale (xyz 1 1 1))
    (rotate (xyz 0 0 0))
  )
)