(module Molex_Pico-Clasp_501331-0507_1x05-1MP_P1.00mm_Vertical (layer F.Cu) (tedit 5B78AD89)
  (descr "Molex Pico-Clasp series connector, 501331-0507 (http://www.molex.com/pdm_docs/sd/5013310207_sd.pdf), generated with kicad-footprint-generator")
  (tags "connector Molex Pico-Clasp side entry")
  (attr smd)
  (fp_text reference REF** (at 0 -3.3) (layer F.SilkS)
    (effects (font (size 1 1) (thickness 0.15)))
  )
  (fp_text value Molex_Pico-Clasp_501331-0507_1x05-1MP_P1.00mm_Vertical (at 0 3.3) (layer F.Fab)
    (effects (font (size 1 1) (thickness 0.15)))
  )
  (fp_line (start -3.5 1.15) (end 3.5 1.15) (layer F.Fab) (width 0.1))
  (fp_line (start -3.61 -0.04) (end -3.61 1.26) (layer F.SilkS) (width 0.12))
  (fp_line (start -3.61 1.26) (end -2.56 1.26) (layer F.SilkS) (width 0.12))
  (fp_line (start -2.56 1.26) (end -2.56 2.1) (layer F.SilkS) (width 0.12))
  (fp_line (start 3.61 -0.04) (end 3.61 1.26) (layer F.SilkS) (width 0.12))
  (fp_line (start 3.61 1.26) (end 2.56 1.26) (layer F.SilkS) (width 0.12))
  (fp_line (start -2.44 -1.96) (end 2.44 -1.96) (layer F.SilkS) (width 0.12))
  (fp_line (start -3.5 -1.85) (end 3.5 -1.85) (layer F.Fab) (width 0.1))
  (fp_line (start -3.5 1.15) (end -3.5 -1.85) (layer F.Fab) (width 0.1))
  (fp_line (start 3.5 1.15) (end 3.5 -1.85) (layer F.Fab) (width 0.1))
  (fp_line (start -2.125 -0.25) (end -2.125 0.25) (layer F.Fab) (width 0.1))
  (fp_line (start -2.125 0.25) (end -1.875 0.25) (layer F.Fab) (width 0.1))
  (fp_line (start -1.875 0.25) (end -1.875 -0.25) (layer F.Fab) (width 0.1))
  (fp_line (start -1.875 -0.25) (end -2.125 -0.25) (layer F.Fab) (width 0.1))
  (fp_line (start -1.125 -0.25) (end -1.125 0.25) (layer F.Fab) (width 0.1))
  (fp_line (start -1.125 0.25) (end -0.875 0.25) (layer F.Fab) (width 0.1))
  (fp_line (start -0.875 0.25) (end -0.875 -0.25) (layer F.Fab) (width 0.1))
  (fp_line (start -0.875 -0.25) (end -1.125 -0.25) (layer F.Fab) (width 0.1))
  (fp_line (start -0.125 -0.25) (end -0.125 0.25) (layer F.Fab) (width 0.1))
  (fp_line (start -0.125 0.25) (end 0.125 0.25) (layer F.Fab) (width 0.1))
  (fp_line (start 0.125 0.25) (end 0.125 -0.25) (layer F.Fab) (width 0.1))
  (fp_line (start 0.125 -0.25) (end -0.125 -0.25) (layer F.Fab) (width 0.1))
  (fp_line (start 0.875 -0.25) (end 0.875 0.25) (layer F.Fab) (width 0.1))
  (fp_line (start 0.875 0.25) (end 1.125 0.25) (layer F.Fab) (width 0.1))
  (fp_line (start 1.125 0.25) (end 1.125 -0.25) (layer F.Fab) (width 0.1))
  (fp_line (start 1.125 -0.25) (end 0.875 -0.25) (layer F.Fab) (width 0.1))
  (fp_line (start 1.875 -0.25) (end 1.875 0.25) (layer F.Fab) (width 0.1))
  (fp_line (start 1.875 0.25) (end 2.125 0.25) (layer F.Fab) (width 0.1))
  (fp_line (start 2.125 0.25) (end 2.125 -0.25) (layer F.Fab) (width 0.1))
  (fp_line (start 2.125 -0.25) (end 1.875 -0.25) (layer F.Fab) (width 0.1))
  (fp_line (start -4.4 -2.6) (end -4.4 2.6) (layer F.CrtYd) (width 0.05))
  (fp_line (start -4.4 2.6) (end 4.4 2.6) (layer F.CrtYd) (width 0.05))
  (fp_line (start 4.4 2.6) (end 4.4 -2.6) (layer F.CrtYd) (width 0.05))
  (fp_line (start 4.4 -2.6) (end -4.4 -2.6) (layer F.CrtYd) (width 0.05))
  (fp_line (start -2.5 1.15) (end -2 0.442893) (layer F.Fab) (width 0.1))
  (fp_line (start -2 0.442893) (end -1.5 1.15) (layer F.Fab) (width 0.1))
  (pad 1 smd roundrect (at -2 1.325) (size 0.6 1.55) (layers F.Cu F.Mask F.Paste) (roundrect_rratio 0.25))
  (pad 2 smd roundrect (at -1 1.325) (size 0.6 1.55) (layers F.Cu F.Mask F.Paste) (roundrect_rratio 0.25))
  (pad 3 smd roundrect (at 0 1.325) (size 0.6 1.55) (layers F.Cu F.Mask F.Paste) (roundrect_rratio 0.25))
  (pad 4 smd roundrect (at 1 1.325) (size 0.6 1.55) (layers F.Cu F.Mask F.Paste) (roundrect_rratio 0.25))
  (pad 5 smd roundrect (at 2 1.325) (size 0.6 1.55) (layers F.Cu F.Mask F.Paste) (roundrect_rratio 0.25))
  (pad MP smd roundrect (at -3.3 -1.2) (size 1.2 1.8) (layers F.Cu F.Mask F.Paste) (roundrect_rratio 0.208333))
  (pad MP smd roundrect (at 3.3 -1.2) (size 1.2 1.8) (layers F.Cu F.Mask F.Paste) (roundrect_rratio 0.208333))
  (fp_text user %R (at 0 -1.15) (layer F.Fab)
    (effects (font (size 1 1) (thickness 0.15)))
  )
  (model ${KICAD6_3DMODEL_DIR}/Connector_Molex.3dshapes/Molex_Pico-Clasp_501331-0507_1x05-1MP_P1.00mm_Vertical.wrl
    (at (xyz 0 0 0))
    (scale (xyz 1 1 1))
    (rotate (xyz 0 0 0))
  )
)