(module Molex_Micro-Fit_3.0_43045-1015_2x05_P3.00mm_Vertical (layer F.Cu) (tedit 5AA47B22)
  (descr "Molex Micro-Fit 3.0 Connector System, 43045-1015 (compatible alternatives: 43045-1016, 43045-1017), 5 Pins per row (http://www.molex.com/pdm_docs/sd/430450217_sd.pdf), generated with kicad-footprint-generator")
  (tags "connector Molex Micro-Fit_3.0 side entry")
  (attr smd)
  (fp_text reference REF** (at 0 -7.17) (layer F.SilkS)
    (effects (font (size 1 1) (thickness 0.15)))
  )
  (fp_text value Molex_Micro-Fit_3.0_43045-1015_2x05_P3.00mm_Vertical (at 0 7.17) (layer F.Fab)
    (effects (font (size 1 1) (thickness 0.15)))
  )
  (fp_line (start -8.125 -3.44) (end -8.125 -3.94) (layer F.Fab) (width 0.1))
  (fp_line (start -8.125 -3.94) (end -9.325 -3.94) (layer F.Fab) (width 0.1))
  (fp_line (start -9.325 -3.94) (end -9.325 3.43) (layer F.Fab) (width 0.1))
  (fp_line (start -9.325 3.43) (end 9.325 3.43) (layer F.Fab) (width 0.1))
  (fp_line (start 9.325 3.43) (end 9.325 -3.94) (layer F.Fab) (width 0.1))
  (fp_line (start 9.325 -3.94) (end 8.125 -3.94) (layer F.Fab) (width 0.1))
  (fp_line (start 8.125 -3.94) (end 8.125 -3.44) (layer F.Fab) (width 0.1))
  (fp_line (start 8.125 -3.44) (end -8.125 -3.44) (layer F.Fab) (width 0.1))
  (fp_line (start -9.325 -2.81) (end -8.125 -3.44) (layer F.Fab) (width 0.1))
  (fp_line (start 9.325 -2.81) (end 8.125 -3.44) (layer F.Fab) (width 0.1))
  (fp_line (start -0.7 3.43) (end -0.7 4.83) (layer F.Fab) (width 0.1))
  (fp_line (start -0.7 4.83) (end 0.7 4.83) (layer F.Fab) (width 0.1))
  (fp_line (start 0.7 4.83) (end 0.7 3.43) (layer F.Fab) (width 0.1))
  (fp_line (start -6.5 -3.44) (end -6 -2.732893) (layer F.Fab) (width 0.1))
  (fp_line (start -6 -2.732893) (end -5.5 -3.44) (layer F.Fab) (width 0.1))
  (fp_line (start -9.435 1.085) (end -9.435 3.54) (layer F.SilkS) (width 0.12))
  (fp_line (start -9.435 3.54) (end -6.895 3.54) (layer F.SilkS) (width 0.12))
  (fp_line (start 9.435 1.085) (end 9.435 3.54) (layer F.SilkS) (width 0.12))
  (fp_line (start 9.435 3.54) (end 6.895 3.54) (layer F.SilkS) (width 0.12))
  (fp_line (start -9.435 -1.085) (end -9.435 -4.05) (layer F.SilkS) (width 0.12))
  (fp_line (start -9.435 -4.05) (end -8.015 -4.05) (layer F.SilkS) (width 0.12))
  (fp_line (start -8.015 -4.05) (end -8.015 -3.55) (layer F.SilkS) (width 0.12))
  (fp_line (start -8.015 -3.55) (end -6.895 -3.55) (layer F.SilkS) (width 0.12))
  (fp_line (start -6.895 -3.55) (end -6.895 -5.97) (layer F.SilkS) (width 0.12))
  (fp_line (start 9.435 -1.085) (end 9.435 -4.05) (layer F.SilkS) (width 0.12))
  (fp_line (start 9.435 -4.05) (end 8.015 -4.05) (layer F.SilkS) (width 0.12))
  (fp_line (start 8.015 -4.05) (end 8.015 -3.55) (layer F.SilkS) (width 0.12))
  (fp_line (start 8.015 -3.55) (end 6.895 -3.55) (layer F.SilkS) (width 0.12))
  (fp_line (start 0 -6.47) (end -7.14 -6.47) (layer F.CrtYd) (width 0.05))
  (fp_line (start -7.14 -6.47) (end -7.14 -4.44) (layer F.CrtYd) (width 0.05))
  (fp_line (start -7.14 -4.44) (end -9.82 -4.44) (layer F.CrtYd) (width 0.05))
  (fp_line (start -9.82 -4.44) (end -9.82 3.93) (layer F.CrtYd) (width 0.05))
  (fp_line (start -9.82 3.93) (end -7.14 3.93) (layer F.CrtYd) (width 0.05))
  (fp_line (start -7.14 3.93) (end -7.14 6.47) (layer F.CrtYd) (width 0.05))
  (fp_line (start -7.14 6.47) (end 0 6.47) (layer F.CrtYd) (width 0.05))
  (fp_line (start 0 -6.47) (end 7.14 -6.47) (layer F.CrtYd) (width 0.05))
  (fp_line (start 7.14 -6.47) (end 7.14 -4.44) (layer F.CrtYd) (width 0.05))
  (fp_line (start 7.14 -4.44) (end 9.82 -4.44) (layer F.CrtYd) (width 0.05))
  (fp_line (start 9.82 -4.44) (end 9.82 3.93) (layer F.CrtYd) (width 0.05))
  (fp_line (start 9.82 3.93) (end 7.14 3.93) (layer F.CrtYd) (width 0.05))
  (fp_line (start 7.14 3.93) (end 7.14 6.47) (layer F.CrtYd) (width 0.05))
  (fp_line (start 7.14 6.47) (end 0 6.47) (layer F.CrtYd) (width 0.05))
  (pad "" np_thru_hole circle (at -8.15 0) (size 2.41 2.41) (drill 2.41) (layers *.Cu *.Mask))
  (pad "" np_thru_hole circle (at 8.15 0) (size 2.41 2.41) (drill 2.41) (layers *.Cu *.Mask))
  (pad 1 smd rect (at -6 -4.7) (size 1.27 2.54) (layers F.Cu F.Mask F.Paste))
  (pad 2 smd rect (at -3 -4.7) (size 1.27 2.54) (layers F.Cu F.Mask F.Paste))
  (pad 3 smd rect (at 0 -4.7) (size 1.27 2.54) (layers F.Cu F.Mask F.Paste))
  (pad 4 smd rect (at 3 -4.7) (size 1.27 2.54) (layers F.Cu F.Mask F.Paste))
  (pad 5 smd rect (at 6 -4.7) (size 1.27 2.54) (layers F.Cu F.Mask F.Paste))
  (pad 6 smd rect (at -6 4.7) (size 1.27 2.54) (layers F.Cu F.Mask F.Paste))
  (pad 7 smd rect (at -3 4.7) (size 1.27 2.54) (layers F.Cu F.Mask F.Paste))
  (pad 8 smd rect (at 0 4.7) (size 1.27 2.54) (layers F.Cu F.Mask F.Paste))
  (pad 9 smd rect (at 3 4.7) (size 1.27 2.54) (layers F.Cu F.Mask F.Paste))
  (pad 10 smd rect (at 6 4.7) (size 1.27 2.54) (layers F.Cu F.Mask F.Paste))
  (fp_text user %R (at 0 2.73) (layer F.Fab)
    (effects (font (size 1 1) (thickness 0.15)))
  )
  (model ${KICAD6_3DMODEL_DIR}/Connector_Molex.3dshapes/Molex_Micro-Fit_3.0_43045-1015_2x05_P3.00mm_Vertical.wrl
    (at (xyz 0 0 0))
    (scale (xyz 1 1 1))
    (rotate (xyz 0 0 0))
  )
)