(module Potentiometer_Bourns_PTA4543_Single_Slide (layer F.Cu) (tedit 5B92F08E)
  (descr "Bourns single-gang slide potentiometer, 45.0mm travel, https://www.bourns.com/docs/Product-Datasheets/pta.pdf")
  (tags "Bourns single-gang slide potentiometer 45.0mm")
  (fp_text reference REF** (at 29.25 -4) (layer F.SilkS)
    (effects (font (size 1 1) (thickness 0.15)))
  )
  (fp_text value Potentiometer_Bourns_PTA4543_Single_Slide (at 29.25 7.5) (layer F.Fab)
    (effects (font (size 1 1) (thickness 0.15)))
  )
  (fp_circle (center 1.25 1.75) (end 2.25 1.75) (layer F.Fab) (width 0.1))
  (fp_circle (center 57.25 1.75) (end 58.25 1.75) (layer F.Fab) (width 0.1))
  (fp_line (start 0.25 -2.75) (end 59.25 -2.75) (layer F.Fab) (width 0.1))
  (fp_line (start 59.25 -2.75) (end 59.25 6.25) (layer F.Fab) (width 0.1))
  (fp_line (start 59.25 6.25) (end -0.75 6.25) (layer F.Fab) (width 0.1))
  (fp_line (start -0.75 6.25) (end -0.75 -1.75) (layer F.Fab) (width 0.1))
  (fp_line (start -0.75 -1.75) (end 0.25 -2.75) (layer F.Fab) (width 0.1))
  (fp_line (start -0.87 -2.87) (end 3.715 -2.87) (layer F.SilkS) (width 0.12))
  (fp_line (start 6.986 -2.87) (end 51.515 -2.87) (layer F.SilkS) (width 0.12))
  (fp_line (start 54.786 -2.87) (end 59.37 -2.87) (layer F.SilkS) (width 0.12))
  (fp_line (start -0.87 6.37) (end 2.515 6.37) (layer F.SilkS) (width 0.12))
  (fp_line (start 5.786 6.37) (end 52.715 6.37) (layer F.SilkS) (width 0.12))
  (fp_line (start 55.986 6.37) (end 59.37 6.37) (layer F.SilkS) (width 0.12))
  (fp_line (start -0.87 -2.87) (end -0.87 -1.175) (layer F.SilkS) (width 0.12))
  (fp_line (start -0.87 1.175) (end -0.87 2.678) (layer F.SilkS) (width 0.12))
  (fp_line (start -0.87 4.323) (end -0.87 6.37) (layer F.SilkS) (width 0.12))
  (fp_line (start 59.37 -2.87) (end 59.37 -0.823) (layer F.SilkS) (width 0.12))
  (fp_line (start 59.37 0.823) (end 59.37 6.37) (layer F.SilkS) (width 0.12))
  (fp_line (start -1.175 0) (end -1.675 -0.5) (layer F.SilkS) (width 0.12))
  (fp_line (start -1.675 -0.5) (end -1.675 0.5) (layer F.SilkS) (width 0.12))
  (fp_line (start -1.675 0.5) (end -1.175 0) (layer F.SilkS) (width 0.12))
  (fp_line (start 6.75 1.75) (end 51.75 1.75) (layer F.SilkS) (width 0.12))
  (fp_line (start 6.75 0.25) (end 6.75 3.25) (layer F.SilkS) (width 0.12))
  (fp_line (start 7.5 1) (end 6.75 1.75) (layer F.SilkS) (width 0.12))
  (fp_line (start 6.75 1.75) (end 7.5 2.5) (layer F.SilkS) (width 0.12))
  (fp_line (start 51.75 0.25) (end 51.75 3.25) (layer F.SilkS) (width 0.12))
  (fp_line (start 51 1) (end 51.75 1.75) (layer F.SilkS) (width 0.12))
  (fp_line (start 51.75 1.75) (end 51 2.5) (layer F.SilkS) (width 0.12))
  (fp_line (start -1.25 -3.25) (end -1.25 6.75) (layer F.CrtYd) (width 0.05))
  (fp_line (start -1.25 6.75) (end 59.75 6.75) (layer F.CrtYd) (width 0.05))
  (fp_line (start 59.75 6.75) (end 59.75 -3.25) (layer F.CrtYd) (width 0.05))
  (fp_line (start 59.75 -3.25) (end -1.25 -3.25) (layer F.CrtYd) (width 0.05))
  (pad 1 thru_hole rect (at 0 0) (size 1.75 1.75) (drill 1.2) (layers *.Cu *.Mask))
  (pad 2 thru_hole circle (at 0 3.5) (size 1.75 1.75) (drill 1.2) (layers *.Cu *.Mask))
  (pad 3 thru_hole circle (at 58.5 0) (size 1.75 1.75) (drill 1.2) (layers *.Cu *.Mask))
  (pad MP thru_hole circle (at 5.35 -2.45) (size 2.7 2.7) (drill 1.7) (layers *.Cu *.Mask))
  (pad MP thru_hole circle (at 53.15 -2.45) (size 2.7 2.7) (drill 1.7) (layers *.Cu *.Mask))
  (pad MP thru_hole circle (at 4.15 5.95) (size 2.7 2.7) (drill 1.7) (layers *.Cu *.Mask))
  (pad MP thru_hole circle (at 54.35 5.95) (size 2.7 2.7) (drill 1.7) (layers *.Cu *.Mask))
  (fp_text user %R (at 29.25 1.75) (layer F.Fab)
    (effects (font (size 1 1) (thickness 0.15)))
  )
  (model ${KICAD6_3DMODEL_DIR}/Potentiometer_THT.3dshapes/Potentiometer_Bourns_PTA4543_Single_Slide.wrl
    (at (xyz 0 0 0))
    (scale (xyz 1 1 1))
    (rotate (xyz 0 0 0))
  )
)