(module Potentiometer_Vishay_T7-YA_Single_Vertical (layer F.Cu) (tedit 5A3D4993)
  (descr "Potentiometer, vertical, Vishay T7-YA Single, http://www.vishay.com/docs/51015/t7.pdf")
  (tags "Potentiometer vertical Vishay T7-YA Single")
  (fp_text reference REF** (at 0.11 -7.29) (layer F.SilkS)
    (effects (font (size 1 1) (thickness 0.15)))
  )
  (fp_text value Potentiometer_Vishay_T7-YA_Single_Vertical (at 0.11 2.21) (layer F.Fab)
    (effects (font (size 1 1) (thickness 0.15)))
  )
  (fp_circle (center -0.04 -2.54) (end 3.46 -2.54) (layer F.Fab) (width 0.1))
  (fp_circle (center -0.041 -2.54) (end 2.009 -2.54) (layer F.Fab) (width 0.1))
  (fp_circle (center -0.041 -2.54) (end 3.579 -2.54) (layer F.SilkS) (width 0.12))
  (fp_line (start -0.041 -0.51) (end -0.04 -4.569) (layer F.Fab) (width 0.1))
  (fp_line (start -0.041 -0.51) (end -0.04 -4.569) (layer F.Fab) (width 0.1))
  (fp_line (start -3.3 -6.3) (end -3.3 1.25) (layer F.CrtYd) (width 0.05))
  (fp_line (start -3.3 1.25) (end 3.55 1.25) (layer F.CrtYd) (width 0.05))
  (fp_line (start 3.55 1.25) (end 3.55 -6.3) (layer F.CrtYd) (width 0.05))
  (fp_line (start 3.55 -6.3) (end -3.3 -6.3) (layer F.CrtYd) (width 0.05))
  (pad 3 thru_hole circle (at 0 -5.08) (size 1.44 1.44) (drill 0.8) (layers *.Cu *.Mask))
  (pad 2 thru_hole circle (at 2.54 -2.54) (size 1.44 1.44) (drill 0.8) (layers *.Cu *.Mask))
  (pad 1 thru_hole circle (at 0 0) (size 1.44 1.44) (drill 0.8) (layers *.Cu *.Mask))
  (fp_text user %R (at -2.664 -2.54 90) (layer F.Fab)
    (effects (font (size 0.73 0.73) (thickness 0.15)))
  )
  (model ${KICAD6_3DMODEL_DIR}/Potentiometer_THT.3dshapes/Potentiometer_Vishay_T7-YA_Single_Vertical.wrl
    (at (xyz 0 0 0))
    (scale (xyz 1 1 1))
    (rotate (xyz 0 0 0))
  )
)