(module Potentiometer_Bourns_3299X_Horizontal (layer F.Cu) (tedit 5A3D4994)
  (descr "Potentiometer, horizontal, Bourns 3299X, https://www.bourns.com/pdfs/3299.pdf")
  (tags "Potentiometer horizontal Bourns 3299X")
  (fp_text reference REF** (at -3.3 -3.16) (layer F.SilkS)
    (effects (font (size 1 1) (thickness 0.15)))
  )
  (fp_text value Potentiometer_Bourns_3299X_Horizontal (at -3.3 5.44) (layer F.Fab)
    (effects (font (size 1 1) (thickness 0.15)))
  )
  (fp_line (start -7.305 -1.91) (end -7.305 4.19) (layer F.Fab) (width 0.1))
  (fp_line (start -7.305 4.19) (end 2.225 4.19) (layer F.Fab) (width 0.1))
  (fp_line (start 2.225 4.19) (end 2.225 -1.91) (layer F.Fab) (width 0.1))
  (fp_line (start 2.225 -1.91) (end -7.305 -1.91) (layer F.Fab) (width 0.1))
  (fp_line (start -8.825 1.825) (end -8.825 4.015) (layer F.Fab) (width 0.1))
  (fp_line (start -8.825 4.015) (end -7.305 4.015) (layer F.Fab) (width 0.1))
  (fp_line (start -7.305 4.015) (end -7.305 1.825) (layer F.Fab) (width 0.1))
  (fp_line (start -7.305 1.825) (end -8.825 1.825) (layer F.Fab) (width 0.1))
  (fp_line (start -8.825 2.92) (end -8.065 2.92) (layer F.Fab) (width 0.1))
  (fp_line (start -7.425 -2.03) (end 2.345 -2.03) (layer F.SilkS) (width 0.12))
  (fp_line (start -7.425 4.31) (end 2.345 4.31) (layer F.SilkS) (width 0.12))
  (fp_line (start -7.425 -2.03) (end -7.425 4.31) (layer F.SilkS) (width 0.12))
  (fp_line (start 2.345 -2.03) (end 2.345 4.31) (layer F.SilkS) (width 0.12))
  (fp_line (start -8.945 1.705) (end -7.426 1.705) (layer F.SilkS) (width 0.12))
  (fp_line (start -8.945 4.135) (end -7.426 4.135) (layer F.SilkS) (width 0.12))
  (fp_line (start -8.945 1.705) (end -8.945 4.135) (layer F.SilkS) (width 0.12))
  (fp_line (start -7.426 1.705) (end -7.426 4.135) (layer F.SilkS) (width 0.12))
  (fp_line (start -8.945 2.92) (end -8.186 2.92) (layer F.SilkS) (width 0.12))
  (fp_line (start -9.1 -2.2) (end -9.1 4.45) (layer F.CrtYd) (width 0.05))
  (fp_line (start -9.1 4.45) (end 2.5 4.45) (layer F.CrtYd) (width 0.05))
  (fp_line (start 2.5 4.45) (end 2.5 -2.2) (layer F.CrtYd) (width 0.05))
  (fp_line (start 2.5 -2.2) (end -9.1 -2.2) (layer F.CrtYd) (width 0.05))
  (pad 1 thru_hole circle (at 0 0) (size 1.44 1.44) (drill 0.8) (layers *.Cu *.Mask))
  (pad 2 thru_hole circle (at -2.54 0) (size 1.44 1.44) (drill 0.8) (layers *.Cu *.Mask))
  (pad 3 thru_hole circle (at -5.08 0) (size 1.44 1.44) (drill 0.8) (layers *.Cu *.Mask))
  (fp_text user %R (at -2.54 1.14) (layer F.Fab)
    (effects (font (size 1 1) (thickness 0.15)))
  )
  (model ${KICAD6_3DMODEL_DIR}/Potentiometer_THT.3dshapes/Potentiometer_Bourns_3299X_Horizontal.wrl
    (at (xyz 0 0 0))
    (scale (xyz 1 1 1))
    (rotate (xyz 0 0 0))
  )
)