(module Potentiometer_Bourns_3296X_Horizontal (layer F.Cu) (tedit 5A3D4994)
  (descr "Potentiometer, horizontal, Bourns 3296X, https://www.bourns.com/pdfs/3296.pdf")
  (tags "Potentiometer horizontal Bourns 3296X")
  (fp_text reference REF** (at -3.3 -3.66) (layer F.SilkS)
    (effects (font (size 1 1) (thickness 0.15)))
  )
  (fp_text value Potentiometer_Bourns_3296X_Horizontal (at -3.3 3.67) (layer F.Fab)
    (effects (font (size 1 1) (thickness 0.15)))
  )
  (fp_line (start -7.305 -2.41) (end -7.305 2.42) (layer F.Fab) (width 0.1))
  (fp_line (start -7.305 2.42) (end 2.225 2.42) (layer F.Fab) (width 0.1))
  (fp_line (start 2.225 2.42) (end 2.225 -2.41) (layer F.Fab) (width 0.1))
  (fp_line (start 2.225 -2.41) (end -7.305 -2.41) (layer F.Fab) (width 0.1))
  (fp_line (start -8.825 0.055) (end -8.825 2.245) (layer F.Fab) (width 0.1))
  (fp_line (start -8.825 2.245) (end -7.305 2.245) (layer F.Fab) (width 0.1))
  (fp_line (start -7.305 2.245) (end -7.305 0.055) (layer F.Fab) (width 0.1))
  (fp_line (start -7.305 0.055) (end -8.825 0.055) (layer F.Fab) (width 0.1))
  (fp_line (start -8.825 1.15) (end -8.065 1.15) (layer F.Fab) (width 0.1))
  (fp_line (start -7.425 -2.53) (end 2.345 -2.53) (layer F.SilkS) (width 0.12))
  (fp_line (start -7.425 2.54) (end 2.345 2.54) (layer F.SilkS) (width 0.12))
  (fp_line (start -7.425 -2.53) (end -7.425 2.54) (layer F.SilkS) (width 0.12))
  (fp_line (start 2.345 -2.53) (end 2.345 2.54) (layer F.SilkS) (width 0.12))
  (fp_line (start -8.945 -0.065) (end -7.426 -0.065) (layer F.SilkS) (width 0.12))
  (fp_line (start -8.945 2.365) (end -7.426 2.365) (layer F.SilkS) (width 0.12))
  (fp_line (start -8.945 -0.065) (end -8.945 2.365) (layer F.SilkS) (width 0.12))
  (fp_line (start -7.426 -0.065) (end -7.426 2.365) (layer F.SilkS) (width 0.12))
  (fp_line (start -8.945 1.15) (end -8.186 1.15) (layer F.SilkS) (width 0.12))
  (fp_line (start -9.1 -2.7) (end -9.1 2.7) (layer F.CrtYd) (width 0.05))
  (fp_line (start -9.1 2.7) (end 2.5 2.7) (layer F.CrtYd) (width 0.05))
  (fp_line (start 2.5 2.7) (end 2.5 -2.7) (layer F.CrtYd) (width 0.05))
  (fp_line (start 2.5 -2.7) (end -9.1 -2.7) (layer F.CrtYd) (width 0.05))
  (pad 1 thru_hole circle (at 0 0) (size 1.44 1.44) (drill 0.8) (layers *.Cu *.Mask))
  (pad 2 thru_hole circle (at -2.54 0) (size 1.44 1.44) (drill 0.8) (layers *.Cu *.Mask))
  (pad 3 thru_hole circle (at -5.08 0) (size 1.44 1.44) (drill 0.8) (layers *.Cu *.Mask))
  (fp_text user %R (at -2.54 0.005) (layer F.Fab)
    (effects (font (size 1 1) (thickness 0.15)))
  )
  (model ${KICAD6_3DMODEL_DIR}/Potentiometer_THT.3dshapes/Potentiometer_Bourns_3296X_Horizontal.wrl
    (at (xyz 0 0 0))
    (scale (xyz 1 1 1))
    (rotate (xyz 0 0 0))
  )
)