(module Potentiometer_Piher_PT-15-V02_Vertical_Hole (layer F.Cu) (tedit 5A3D4994)
  (descr "Potentiometer, vertical, shaft hole, Piher PT-15-V02, http://www.piher-nacesa.com/pdf/14-PT15v03.pdf")
  (tags "Potentiometer vertical hole Piher PT-15-V02")
  (fp_text reference REF** (at 6.665 -13.75) (layer F.SilkS)
    (effects (font (size 1 1) (thickness 0.15)))
  )
  (fp_text value Potentiometer_Piher_PT-15-V02_Vertical_Hole (at 6.665 3.25) (layer F.Fab)
    (effects (font (size 1 1) (thickness 0.15)))
  )
  (fp_arc (start 7.5 -5) (end 7.5 2.62) (angle -234.000000) (layer F.SilkS) (width 0.12))
  (fp_arc (start 7.5 -5) (end 1.039 -9.038) (angle -2.000000) (layer F.SilkS) (width 0.12))
  (fp_arc (start 7.5 -5) (end 0.773 -8.578) (angle -56.000000) (layer F.SilkS) (width 0.12))
  (fp_arc (start 7.5 -5) (end 0.901 -1.191) (angle -2.000000) (layer F.SilkS) (width 0.12))
  (fp_arc (start 7.5 -5) (end 1.335 -0.522) (angle -55.000000) (layer F.SilkS) (width 0.12))
  (fp_circle (center 7.5 -5) (end 15 -5) (layer F.Fab) (width 0.1))
  (fp_line (start -1.45 -12.75) (end -1.45 2.25) (layer F.CrtYd) (width 0.05))
  (fp_line (start -1.45 2.25) (end 14.75 2.25) (layer F.CrtYd) (width 0.05))
  (fp_line (start 14.75 2.25) (end 14.75 -12.75) (layer F.CrtYd) (width 0.05))
  (fp_line (start 14.75 -12.75) (end -1.45 -12.75) (layer F.CrtYd) (width 0.05))
  (pad 3 thru_hole circle (at 0 -10) (size 2.34 2.34) (drill 1.3) (layers *.Cu *.Mask))
  (pad 2 thru_hole circle (at 12.5 -5) (size 2.34 2.34) (drill 1.3) (layers *.Cu *.Mask))
  (pad 1 thru_hole circle (at 0 0) (size 2.34 2.34) (drill 1.3) (layers *.Cu *.Mask))
  (pad "" np_thru_hole circle (at 7.5 -5) (size 7 7) (drill 7) (layers *.Cu *.Mask))
  (fp_text user %R (at 1.2 -5 90) (layer F.Fab)
    (effects (font (size 1 1) (thickness 0.15)))
  )
  (model ${KICAD6_3DMODEL_DIR}/Potentiometer_THT.3dshapes/Potentiometer_Piher_PT-15-V02_Vertical_Hole.wrl
    (at (xyz 0 0 0))
    (scale (xyz 1 1 1))
    (rotate (xyz 0 0 0))
  )
)