(module Potentiometer_Bourns_3266Z_Horizontal (layer F.Cu) (tedit 5A3D4994)
  (descr "Potentiometer, horizontal, Bourns 3266Z, https://www.bourns.com/docs/Product-Datasheets/3266.pdf")
  (tags "Potentiometer horizontal Bourns 3266Z")
  (fp_text reference REF** (at -3.3 -3.41) (layer F.SilkS)
    (effects (font (size 1 1) (thickness 0.15)))
  )
  (fp_text value Potentiometer_Bourns_3266Z_Horizontal (at -3.3 3.59) (layer F.Fab)
    (effects (font (size 1 1) (thickness 0.15)))
  )
  (fp_line (start -5.895 -2.16) (end -5.895 2.34) (layer F.Fab) (width 0.1))
  (fp_line (start -5.895 2.34) (end 0.815 2.34) (layer F.Fab) (width 0.1))
  (fp_line (start 0.815 2.34) (end 0.815 -2.16) (layer F.Fab) (width 0.1))
  (fp_line (start 0.815 -2.16) (end -5.895 -2.16) (layer F.Fab) (width 0.1))
  (fp_line (start -7.415 0.18) (end -7.415 1.96) (layer F.Fab) (width 0.1))
  (fp_line (start -7.415 1.96) (end -5.895 1.96) (layer F.Fab) (width 0.1))
  (fp_line (start -5.895 1.96) (end -5.895 0.18) (layer F.Fab) (width 0.1))
  (fp_line (start -5.895 0.18) (end -7.415 0.18) (layer F.Fab) (width 0.1))
  (fp_line (start -7.415 1.07) (end -6.655 1.07) (layer F.Fab) (width 0.1))
  (fp_line (start -6.015 -2.28) (end 0.935 -2.28) (layer F.SilkS) (width 0.12))
  (fp_line (start -6.015 2.46) (end 0.935 2.46) (layer F.SilkS) (width 0.12))
  (fp_line (start -6.015 -2.28) (end -6.015 -0.494) (layer F.SilkS) (width 0.12))
  (fp_line (start -6.015 0.496) (end -6.015 2.46) (layer F.SilkS) (width 0.12))
  (fp_line (start 0.935 -2.28) (end 0.935 -0.494) (layer F.SilkS) (width 0.12))
  (fp_line (start 0.935 0.496) (end 0.935 2.46) (layer F.SilkS) (width 0.12))
  (fp_line (start -7.535 0.06) (end -6.056 0.06) (layer F.SilkS) (width 0.12))
  (fp_line (start -7.535 2.08) (end -6.016 2.08) (layer F.SilkS) (width 0.12))
  (fp_line (start -7.535 0.06) (end -7.535 2.08) (layer F.SilkS) (width 0.12))
  (fp_line (start -6.016 0.496) (end -6.016 2.08) (layer F.SilkS) (width 0.12))
  (fp_line (start -7.535 1.07) (end -6.776 1.07) (layer F.SilkS) (width 0.12))
  (fp_line (start -7.7 -2.45) (end -7.7 2.6) (layer F.CrtYd) (width 0.05))
  (fp_line (start -7.7 2.6) (end 1.1 2.6) (layer F.CrtYd) (width 0.05))
  (fp_line (start 1.1 2.6) (end 1.1 -2.45) (layer F.CrtYd) (width 0.05))
  (fp_line (start 1.1 -2.45) (end -7.7 -2.45) (layer F.CrtYd) (width 0.05))
  (pad 1 thru_hole circle (at 0 0) (size 1.44 1.44) (drill 0.8) (layers *.Cu *.Mask))
  (pad 2 thru_hole circle (at -2.54 0) (size 1.44 1.44) (drill 0.8) (layers *.Cu *.Mask))
  (pad 3 thru_hole circle (at -5.08 0) (size 1.44 1.44) (drill 0.8) (layers *.Cu *.Mask))
  (fp_text user %R (at -2.54 0.09) (layer F.Fab)
    (effects (font (size 1 1) (thickness 0.15)))
  )
  (model ${KICAD6_3DMODEL_DIR}/Potentiometer_THT.3dshapes/Potentiometer_Bourns_3266Z_Horizontal.wrl
    (at (xyz 0 0 0))
    (scale (xyz 1 1 1))
    (rotate (xyz 0 0 0))
  )
)