(module Potentiometer_Bourns_3339P_Vertical (layer F.Cu) (tedit 5A3D4993)
  (descr "Potentiometer, vertical, Bourns 3339P, http://www.bourns.com/docs/Product-Datasheets/3339.pdf")
  (tags "Potentiometer vertical Bourns 3339P")
  (fp_text reference REF** (at 0 -7.6) (layer F.SilkS)
    (effects (font (size 1 1) (thickness 0.15)))
  )
  (fp_text value Potentiometer_Bourns_3339P_Vertical (at 0 2.52) (layer F.Fab)
    (effects (font (size 1 1) (thickness 0.15)))
  )
  (fp_circle (center 0 -2.54) (end 3.81 -2.54) (layer F.Fab) (width 0.1))
  (fp_circle (center 0 -2.54) (end 2.5 -2.54) (layer F.Fab) (width 0.1))
  (fp_circle (center 0 -2.54) (end 3.93 -2.54) (layer F.SilkS) (width 0.12))
  (fp_line (start 0 -0.064) (end 0.001 -5.014) (layer F.Fab) (width 0.1))
  (fp_line (start 0 -0.064) (end 0.001 -5.014) (layer F.Fab) (width 0.1))
  (fp_line (start -4.1 -6.6) (end -4.1 1.55) (layer F.CrtYd) (width 0.05))
  (fp_line (start -4.1 1.55) (end 4.1 1.55) (layer F.CrtYd) (width 0.05))
  (fp_line (start 4.1 1.55) (end 4.1 -6.6) (layer F.CrtYd) (width 0.05))
  (fp_line (start 4.1 -6.6) (end -4.1 -6.6) (layer F.CrtYd) (width 0.05))
  (pad 3 thru_hole circle (at 0 -5.08) (size 1.26 1.26) (drill 0.7) (layers *.Cu *.Mask))
  (pad 2 thru_hole circle (at -2.54 -2.54) (size 1.26 1.26) (drill 0.7) (layers *.Cu *.Mask))
  (pad 1 thru_hole circle (at 0 0) (size 1.26 1.26) (drill 0.7) (layers *.Cu *.Mask))
  (fp_text user %R (at -3.018 -2.54 90) (layer F.Fab)
    (effects (font (size 0.66 0.66) (thickness 0.15)))
  )
  (model ${KICAD6_3DMODEL_DIR}/Potentiometer_THT.3dshapes/Potentiometer_Bourns_3339P_Vertical.wrl
    (at (xyz 0 0 0))
    (scale (xyz 1 1 1))
    (rotate (xyz 0 0 0))
  )
)
