(module Potentiometer_Piher_PT-10-V10_Vertical (layer F.Cu) (tedit 5A3D4993)
  (descr "Potentiometer, vertical, Piher PT-10-V10, http://www.piher-nacesa.com/pdf/12-PT10v03.pdf")
  (tags "Potentiometer vertical Piher PT-10-V10")
  (fp_text reference REF** (at 5 -9.05) (layer F.SilkS)
    (effects (font (size 1 1) (thickness 0.15)))
  )
  (fp_text value Potentiometer_Piher_PT-10-V10_Vertical (at 5 3.75) (layer F.Fab)
    (effects (font (size 1 1) (thickness 0.15)))
  )
  (fp_arc (start 5 -2.65) (end 5 2.62) (angle -73.000000) (layer F.SilkS) (width 0.12))
  (fp_arc (start 5 -2.65) (end 10.114 -3.924) (angle -126.000000) (layer F.SilkS) (width 0.12))
  (fp_arc (start 5 -2.65) (end -0.174 -3.656) (angle -25.000000) (layer F.SilkS) (width 0.12))
  (fp_arc (start 5 -2.65) (end 1.209 1.011) (angle -47.000000) (layer F.SilkS) (width 0.12))
  (fp_circle (center 5 -2.65) (end 10.15 -2.65) (layer F.Fab) (width 0.1))
  (fp_circle (center 5 -2.65) (end 6.5 -2.65) (layer F.Fab) (width 0.1))
  (fp_line (start -1.45 -8.05) (end -1.45 2.75) (layer F.CrtYd) (width 0.05))
  (fp_line (start -1.45 2.75) (end 11.45 2.75) (layer F.CrtYd) (width 0.05))
  (fp_line (start 11.45 2.75) (end 11.45 -8.05) (layer F.CrtYd) (width 0.05))
  (fp_line (start 11.45 -8.05) (end -1.45 -8.05) (layer F.CrtYd) (width 0.05))
  (pad 3 thru_hole circle (at 0 -5) (size 2.34 2.34) (drill 1.3) (layers *.Cu *.Mask))
  (pad 2 thru_hole circle (at 10 -2.5) (size 2.34 2.34) (drill 1.3) (layers *.Cu *.Mask))
  (pad 1 thru_hole circle (at 0 0) (size 2.34 2.34) (drill 1.3) (layers *.Cu *.Mask))
  (fp_text user %R (at 1.05 -2.65 90) (layer F.Fab)
    (effects (font (size 1 1) (thickness 0.15)))
  )
  (model ${KICAD6_3DMODEL_DIR}/Potentiometer_THT.3dshapes/Potentiometer_Piher_PT-10-V10_Vertical.wrl
    (at (xyz 0 0 0))
    (scale (xyz 1 1 1))
    (rotate (xyz 0 0 0))
  )
)