(module Potentiometer_Alpha_RD902F-40-00D_Dual_Vertical_CircularHoles (layer F.Cu) (tedit 5C6C6CD7)
  (descr "Potentiometer, vertical, 9mm, dual, http://www.taiwanalpha.com.tw/downloads?target=products&id=113")
  (tags "potentiometer vertical 9mm dual")
  (fp_text reference REF** (at 5.87 -4.9 180) (layer F.SilkS)
    (effects (font (size 1 1) (thickness 0.15)))
  )
  (fp_text value Potentiometer_Alpha_RD902F-40-00D_Dual_Vertical_CircularHoles (at 0 10.16 180) (layer F.Fab)
    (effects (font (size 1 1) (thickness 0.15)))
  )
  (fp_line (start 0.88 4.16) (end 0.88 3.33) (layer F.SilkS) (width 0.12))
  (fp_line (start 0.88 1.71) (end 0.88 1.18) (layer F.SilkS) (width 0.12))
  (fp_line (start 0.88 -1.19) (end 0.88 -2.37) (layer F.SilkS) (width 0.12))
  (fp_line (start 0.88 7.37) (end 5.6 7.37) (layer F.SilkS) (width 0.12))
  (fp_line (start 9.41 -2.37) (end 12.47 -2.37) (layer F.SilkS) (width 0.12))
  (fp_line (start 1 7.25) (end 12.35 7.25) (layer F.Fab) (width 0.1))
  (fp_line (start 1 -2.25) (end 12.35 -2.25) (layer F.Fab) (width 0.1))
  (fp_line (start 12.35 7.25) (end 12.35 -2.25) (layer F.Fab) (width 0.1))
  (fp_line (start 1 7.25) (end 1 -2.25) (layer F.Fab) (width 0.1))
  (fp_circle (center 7.5 2.5) (end 7.5 -1) (layer F.Fab) (width 0.1))
  (fp_line (start 0.88 -2.37) (end 5.6 -2.37) (layer F.SilkS) (width 0.12))
  (fp_line (start 9.41 7.37) (end 12.47 7.37) (layer F.SilkS) (width 0.12))
  (fp_line (start 0.88 7.37) (end 0.88 5.88) (layer F.SilkS) (width 0.12))
  (fp_line (start 12.47 7.37) (end 12.47 -2.37) (layer F.SilkS) (width 0.12))
  (fp_line (start 12.6 9.12) (end 12.6 -4.12) (layer F.CrtYd) (width 0.05))
  (fp_line (start 12.6 -4.12) (end -3.65 -4.12) (layer F.CrtYd) (width 0.05))
  (fp_line (start -3.65 -4.12) (end -3.65 9.12) (layer F.CrtYd) (width 0.05))
  (fp_line (start -3.65 9.12) (end 12.6 9.12) (layer F.CrtYd) (width 0.05))
  (fp_text user %R (at 7.62 2.54) (layer F.Fab)
    (effects (font (size 1 1) (thickness 0.15)))
  )
  (pad 4 thru_hole circle (at -2.5 0 90) (size 1.8 1.8) (drill 1) (layers *.Cu *.Mask))
  (pad 5 thru_hole circle (at -2.5 2.5 90) (size 1.8 1.8) (drill 1) (layers *.Cu *.Mask))
  (pad 6 thru_hole circle (at -2.5 5 90) (size 1.8 1.8) (drill 1) (layers *.Cu *.Mask))
  (pad "" thru_hole circle (at 7.5 -2.25 90) (size 3.24 3.24) (drill 1.8) (layers *.Cu *.Mask))
  (pad "" thru_hole circle (at 7.5 7.25 90) (size 3.24 3.24) (drill 1.8) (layers *.Cu *.Mask))
  (pad 3 thru_hole circle (at 0 5 90) (size 1.8 1.8) (drill 1) (layers *.Cu *.Mask))
  (pad 2 thru_hole circle (at 0 2.5 90) (size 1.8 1.8) (drill 1) (layers *.Cu *.Mask))
  (pad 1 thru_hole rect (at 0 0 90) (size 1.8 1.8) (drill 1) (layers *.Cu *.Mask))
  (model ${KICAD6_3DMODEL_DIR}/Potentiometer_THT.3dshapes/Potentiometer_Alpha_RD902F-40-00D_Dual_Vertical.wrl
    (at (xyz 0 0 0))
    (scale (xyz 1 1 1))
    (rotate (xyz 0 0 0))
  )
)
