(module Potentiometer_Bourns_3296Y_Vertical (layer F.Cu) (tedit 5A3D4994)
  (descr "Potentiometer, vertical, Bourns 3296Y, https://www.bourns.com/pdfs/3296.pdf")
  (tags "Potentiometer vertical Bourns 3296Y")
  (fp_text reference REF** (at -2.54 -2.39) (layer F.SilkS)
    (effects (font (size 1 1) (thickness 0.15)))
  )
  (fp_text value Potentiometer_Bourns_3296Y_Vertical (at -2.54 4.94) (layer F.Fab)
    (effects (font (size 1 1) (thickness 0.15)))
  )
  (fp_circle (center 0.955 2.42) (end 2.05 2.42) (layer F.Fab) (width 0.1))
  (fp_line (start -7.305 -1.14) (end -7.305 3.69) (layer F.Fab) (width 0.1))
  (fp_line (start -7.305 3.69) (end 2.225 3.69) (layer F.Fab) (width 0.1))
  (fp_line (start 2.225 3.69) (end 2.225 -1.14) (layer F.Fab) (width 0.1))
  (fp_line (start 2.225 -1.14) (end -7.305 -1.14) (layer F.Fab) (width 0.1))
  (fp_line (start 0.955 3.505) (end 0.956 1.336) (layer F.Fab) (width 0.1))
  (fp_line (start 0.955 3.505) (end 0.956 1.336) (layer F.Fab) (width 0.1))
  (fp_line (start -7.425 -1.26) (end 2.345 -1.26) (layer F.SilkS) (width 0.12))
  (fp_line (start -7.425 3.81) (end 2.345 3.81) (layer F.SilkS) (width 0.12))
  (fp_line (start -7.425 -1.26) (end -7.425 3.81) (layer F.SilkS) (width 0.12))
  (fp_line (start 2.345 -1.26) (end 2.345 3.81) (layer F.SilkS) (width 0.12))
  (fp_line (start -7.6 -1.4) (end -7.6 3.95) (layer F.CrtYd) (width 0.05))
  (fp_line (start -7.6 3.95) (end 2.5 3.95) (layer F.CrtYd) (width 0.05))
  (fp_line (start 2.5 3.95) (end 2.5 -1.4) (layer F.CrtYd) (width 0.05))
  (fp_line (start 2.5 -1.4) (end -7.6 -1.4) (layer F.CrtYd) (width 0.05))
  (pad 1 thru_hole circle (at 0 0) (size 1.44 1.44) (drill 0.8) (layers *.Cu *.Mask))
  (pad 2 thru_hole circle (at -2.54 2.54) (size 1.44 1.44) (drill 0.8) (layers *.Cu *.Mask))
  (pad 3 thru_hole circle (at -5.08 0) (size 1.44 1.44) (drill 0.8) (layers *.Cu *.Mask))
  (fp_text user %R (at -3.175 1.275) (layer F.Fab)
    (effects (font (size 1 1) (thickness 0.15)))
  )
  (model ${KICAD6_3DMODEL_DIR}/Potentiometer_THT.3dshapes/Potentiometer_Bourns_3296Y_Vertical.wrl
    (at (xyz 0 0 0))
    (scale (xyz 1 1 1))
    (rotate (xyz 0 0 0))
  )
)