(module Potentiometer_Bourns_3006W_Horizontal (layer F.Cu) (tedit 5A3D4994)
  (descr "Potentiometer, horizontal, Bourns 3006W, https://www.bourns.com/docs/Product-Datasheets/3006.pdf")
  (tags "Potentiometer horizontal Bourns 3006W")
  (fp_text reference REF** (at -7.235 -7.21) (layer F.SilkS)
    (effects (font (size 1 1) (thickness 0.15)))
  )
  (fp_text value Potentiometer_Bourns_3006W_Horizontal (at -7.235 2.15) (layer F.Fab)
    (effects (font (size 1 1) (thickness 0.15)))
  )
  (fp_line (start -16 -4.98) (end -16 -0.15) (layer F.Fab) (width 0.1))
  (fp_line (start -16 -0.15) (end 3.05 -0.15) (layer F.Fab) (width 0.1))
  (fp_line (start 3.05 -0.15) (end 3.05 -4.98) (layer F.Fab) (width 0.1))
  (fp_line (start 3.05 -4.98) (end -16 -4.98) (layer F.Fab) (width 0.1))
  (fp_line (start -17.52 -3.745) (end -17.52 -1.385) (layer F.Fab) (width 0.1))
  (fp_line (start -17.52 -1.385) (end -16 -1.385) (layer F.Fab) (width 0.1))
  (fp_line (start -16 -1.385) (end -16 -3.745) (layer F.Fab) (width 0.1))
  (fp_line (start -16 -3.745) (end -17.52 -3.745) (layer F.Fab) (width 0.1))
  (fp_line (start -17.52 -2.565) (end -16.76 -2.565) (layer F.Fab) (width 0.1))
  (fp_line (start -16.12 -5.1) (end -8.775 -5.1) (layer F.SilkS) (width 0.12))
  (fp_line (start -6.465 -5.1) (end 3.17 -5.1) (layer F.SilkS) (width 0.12))
  (fp_line (start 1.155 -0.03) (end 3.17 -0.03) (layer F.SilkS) (width 0.12))
  (fp_line (start -16.12 -0.03) (end -13.854 -0.03) (layer F.SilkS) (width 0.12))
  (fp_line (start -11.544 -0.03) (end -1.155 -0.03) (layer F.SilkS) (width 0.12))
  (fp_line (start -16.12 -5.1) (end -16.12 -0.03) (layer F.SilkS) (width 0.12))
  (fp_line (start 3.17 -5.1) (end 3.17 -0.03) (layer F.SilkS) (width 0.12))
  (fp_line (start -17.64 -3.864) (end -16.121 -3.864) (layer F.SilkS) (width 0.12))
  (fp_line (start -17.64 -1.265) (end -16.121 -1.265) (layer F.SilkS) (width 0.12))
  (fp_line (start -17.64 -3.864) (end -17.64 -1.265) (layer F.SilkS) (width 0.12))
  (fp_line (start -16.121 -3.864) (end -16.121 -1.265) (layer F.SilkS) (width 0.12))
  (fp_line (start -17.64 -2.565) (end -16.881 -2.565) (layer F.SilkS) (width 0.12))
  (fp_line (start -17.8 -6.25) (end -17.8 1.2) (layer F.CrtYd) (width 0.05))
  (fp_line (start -17.8 1.2) (end 3.35 1.2) (layer F.CrtYd) (width 0.05))
  (fp_line (start 3.35 1.2) (end 3.35 -6.25) (layer F.CrtYd) (width 0.05))
  (fp_line (start 3.35 -6.25) (end -17.8 -6.25) (layer F.CrtYd) (width 0.05))
  (pad 1 thru_hole circle (at 0 0) (size 1.8 1.8) (drill 1) (layers *.Cu *.Mask))
  (pad 2 thru_hole circle (at -7.62 -5.06) (size 1.8 1.8) (drill 1) (layers *.Cu *.Mask))
  (pad 3 thru_hole circle (at -12.7 0) (size 1.8 1.8) (drill 1) (layers *.Cu *.Mask))
  (fp_text user %R (at -6.475 -2.565) (layer F.Fab)
    (effects (font (size 1 1) (thickness 0.15)))
  )
  (model ${KICAD6_3DMODEL_DIR}/Potentiometer_THT.3dshapes/Potentiometer_Bourns_3006W_Horizontal.wrl
    (at (xyz 0 0 0))
    (scale (xyz 1 1 1))
    (rotate (xyz 0 0 0))
  )
)