(module Potentiometer_Piher_PT-6-H_Horizontal (layer F.Cu) (tedit 5A3D4993)
  (descr "Potentiometer, horizontal, Piher PT-6-H, http://www.piher-nacesa.com/pdf/11-PT6v03.pdf")
  (tags "Potentiometer horizontal Piher PT-6-H")
  (fp_text reference REF** (at 0 -2.06) (layer F.SilkS)
    (effects (font (size 1 1) (thickness 0.15)))
  )
  (fp_text value Potentiometer_Piher_PT-6-H_Horizontal (at 0 7.06) (layer F.Fab)
    (effects (font (size 1 1) (thickness 0.15)))
  )
  (fp_line (start 3.5 -0.65) (end 3.5 5.65) (layer F.Fab) (width 0.1))
  (fp_line (start 3.5 5.65) (end 0 5.65) (layer F.Fab) (width 0.1))
  (fp_line (start 0 5.65) (end 0 -0.65) (layer F.Fab) (width 0.1))
  (fp_line (start 0 -0.65) (end 3.5 -0.65) (layer F.Fab) (width 0.1))
  (fp_line (start 0 1.5) (end 0 3.5) (layer F.Fab) (width 0.1))
  (fp_line (start 0 3.5) (end 3.5 3.5) (layer F.Fab) (width 0.1))
  (fp_line (start 3.5 3.5) (end 3.5 1.5) (layer F.Fab) (width 0.1))
  (fp_line (start 3.5 1.5) (end 0 1.5) (layer F.Fab) (width 0.1))
  (fp_line (start 0.925 -0.77) (end 3.62 -0.77) (layer F.SilkS) (width 0.12))
  (fp_line (start 0.925 5.77) (end 3.62 5.77) (layer F.SilkS) (width 0.12))
  (fp_line (start 3.62 -0.77) (end 3.62 5.77) (layer F.SilkS) (width 0.12))
  (fp_line (start -0.121 1.066) (end -0.121 3.935) (layer F.SilkS) (width 0.12))
  (fp_line (start -0.121 1.38) (end 3.62 1.38) (layer F.SilkS) (width 0.12))
  (fp_line (start -0.121 3.62) (end 3.62 3.62) (layer F.SilkS) (width 0.12))
  (fp_line (start -0.121 1.38) (end -0.121 3.62) (layer F.SilkS) (width 0.12))
  (fp_line (start 3.62 1.38) (end 3.62 3.62) (layer F.SilkS) (width 0.12))
  (fp_line (start -1.1 -1.1) (end -1.1 6.1) (layer F.CrtYd) (width 0.05))
  (fp_line (start -1.1 6.1) (end 3.75 6.1) (layer F.CrtYd) (width 0.05))
  (fp_line (start 3.75 6.1) (end 3.75 -1.1) (layer F.CrtYd) (width 0.05))
  (fp_line (start 3.75 -1.1) (end -1.1 -1.1) (layer F.CrtYd) (width 0.05))
  (pad 3 thru_hole circle (at 0 5) (size 1.62 1.62) (drill 0.9) (layers *.Cu *.Mask))
  (pad 2 thru_hole circle (at 2.5 2.5) (size 1.62 1.62) (drill 0.9) (layers *.Cu *.Mask))
  (pad 1 thru_hole circle (at 0 0) (size 1.62 1.62) (drill 0.9) (layers *.Cu *.Mask))
  (fp_text user %R (at 1.75 2.5) (layer F.Fab)
    (effects (font (size 0.78 0.78) (thickness 0.15)))
  )
  (model ${KICAD6_3DMODEL_DIR}/Potentiometer_THT.3dshapes/Potentiometer_Piher_PT-6-H_Horizontal.wrl
    (at (xyz 0 0 0))
    (scale (xyz 1 1 1))
    (rotate (xyz 0 0 0))
  )
)