(module Potentiometer_Piher_T-16H_Single_Horizontal (layer F.Cu) (tedit 5A3D4993)
  (descr "Potentiometer, horizontal, Piher T-16H Single, http://www.piher-nacesa.com/pdf/22-T16v03.pdf")
  (tags "Potentiometer horizontal Piher T-16H Single")
  (fp_text reference REF** (at 0 -14.25) (layer F.SilkS)
    (effects (font (size 1 1) (thickness 0.15)))
  )
  (fp_text value Potentiometer_Piher_T-16H_Single_Horizontal (at 0 4.25) (layer F.Fab)
    (effects (font (size 1 1) (thickness 0.15)))
  )
  (fp_line (start -6 -13) (end -6 3) (layer F.Fab) (width 0.1))
  (fp_line (start -6 3) (end 1.5 3) (layer F.Fab) (width 0.1))
  (fp_line (start 1.5 3) (end 1.5 -13) (layer F.Fab) (width 0.1))
  (fp_line (start 1.5 -13) (end -6 -13) (layer F.Fab) (width 0.1))
  (fp_line (start 1.5 -8.5) (end 1.5 -1.5) (layer F.Fab) (width 0.1))
  (fp_line (start 1.5 -1.5) (end 6.5 -1.5) (layer F.Fab) (width 0.1))
  (fp_line (start 6.5 -1.5) (end 6.5 -8.5) (layer F.Fab) (width 0.1))
  (fp_line (start 6.5 -8.5) (end 1.5 -8.5) (layer F.Fab) (width 0.1))
  (fp_line (start 6.5 -7) (end 6.5 -3) (layer F.Fab) (width 0.1))
  (fp_line (start 6.5 -3) (end 16.5 -3) (layer F.Fab) (width 0.1))
  (fp_line (start 16.5 -3) (end 16.5 -7) (layer F.Fab) (width 0.1))
  (fp_line (start 16.5 -7) (end 6.5 -7) (layer F.Fab) (width 0.1))
  (fp_line (start -6.12 -13.12) (end 1.62 -13.12) (layer F.SilkS) (width 0.12))
  (fp_line (start -6.12 3.12) (end 1.62 3.12) (layer F.SilkS) (width 0.12))
  (fp_line (start -6.12 -13.12) (end -6.12 3.12) (layer F.SilkS) (width 0.12))
  (fp_line (start 1.62 -13.12) (end 1.62 3.12) (layer F.SilkS) (width 0.12))
  (fp_line (start 1.62 -8.62) (end 6.62 -8.62) (layer F.SilkS) (width 0.12))
  (fp_line (start 1.62 -1.38) (end 6.62 -1.38) (layer F.SilkS) (width 0.12))
  (fp_line (start 1.62 -8.62) (end 1.62 -1.38) (layer F.SilkS) (width 0.12))
  (fp_line (start 6.62 -8.62) (end 6.62 -1.38) (layer F.SilkS) (width 0.12))
  (fp_line (start 6.62 -7.12) (end 16.62 -7.12) (layer F.SilkS) (width 0.12))
  (fp_line (start 6.62 -2.88) (end 16.62 -2.88) (layer F.SilkS) (width 0.12))
  (fp_line (start 6.62 -7.12) (end 6.62 -2.88) (layer F.SilkS) (width 0.12))
  (fp_line (start 16.62 -7.12) (end 16.62 -2.88) (layer F.SilkS) (width 0.12))
  (fp_line (start -6.25 -13.25) (end -6.25 3.25) (layer F.CrtYd) (width 0.05))
  (fp_line (start -6.25 3.25) (end 16.75 3.25) (layer F.CrtYd) (width 0.05))
  (fp_line (start 16.75 3.25) (end 16.75 -13.25) (layer F.CrtYd) (width 0.05))
  (fp_line (start 16.75 -13.25) (end -6.25 -13.25) (layer F.CrtYd) (width 0.05))
  (pad 3 thru_hole circle (at 0 -10) (size 2.34 2.34) (drill 1.3) (layers *.Cu *.Mask))
  (pad 2 thru_hole circle (at 0 -5) (size 2.34 2.34) (drill 1.3) (layers *.Cu *.Mask))
  (pad 1 thru_hole circle (at 0 0) (size 2.34 2.34) (drill 1.3) (layers *.Cu *.Mask))
  (fp_text user %R (at -2.25 -5) (layer F.Fab)
    (effects (font (size 1 1) (thickness 0.15)))
  )
  (model ${KICAD6_3DMODEL_DIR}/Potentiometer_THT.3dshapes/Potentiometer_Piher_T-16H_Single_Horizontal.wrl
    (at (xyz 0 0 0))
    (scale (xyz 1 1 1))
    (rotate (xyz 0 0 0))
  )
)