(module Potentiometer_Bourns_3296Z_Horizontal (layer F.Cu) (tedit 5A3D4994)
  (descr "Potentiometer, horizontal, Bourns 3296Z, https://www.bourns.com/pdfs/3296.pdf")
  (tags "Potentiometer horizontal Bourns 3296Z")
  (fp_text reference REF** (at -3.3 -2.4) (layer F.SilkS)
    (effects (font (size 1 1) (thickness 0.15)))
  )
  (fp_text value Potentiometer_Bourns_3296Z_Horizontal (at -3.3 4.93) (layer F.Fab)
    (effects (font (size 1 1) (thickness 0.15)))
  )
  (fp_line (start -7.305 -1.15) (end -7.305 3.68) (layer F.Fab) (width 0.1))
  (fp_line (start -7.305 3.68) (end 2.225 3.68) (layer F.Fab) (width 0.1))
  (fp_line (start 2.225 3.68) (end 2.225 -1.15) (layer F.Fab) (width 0.1))
  (fp_line (start 2.225 -1.15) (end -7.305 -1.15) (layer F.Fab) (width 0.1))
  (fp_line (start -8.825 1.315) (end -8.825 3.505) (layer F.Fab) (width 0.1))
  (fp_line (start -8.825 3.505) (end -7.305 3.505) (layer F.Fab) (width 0.1))
  (fp_line (start -7.305 3.505) (end -7.305 1.315) (layer F.Fab) (width 0.1))
  (fp_line (start -7.305 1.315) (end -8.825 1.315) (layer F.Fab) (width 0.1))
  (fp_line (start -8.825 2.41) (end -8.065 2.41) (layer F.Fab) (width 0.1))
  (fp_line (start -7.425 -1.27) (end 2.345 -1.27) (layer F.SilkS) (width 0.12))
  (fp_line (start -7.425 3.8) (end 2.345 3.8) (layer F.SilkS) (width 0.12))
  (fp_line (start -7.425 -1.27) (end -7.425 3.8) (layer F.SilkS) (width 0.12))
  (fp_line (start 2.345 -1.27) (end 2.345 3.8) (layer F.SilkS) (width 0.12))
  (fp_line (start -8.945 1.195) (end -7.426 1.195) (layer F.SilkS) (width 0.12))
  (fp_line (start -8.945 3.625) (end -7.426 3.625) (layer F.SilkS) (width 0.12))
  (fp_line (start -8.945 1.195) (end -8.945 3.625) (layer F.SilkS) (width 0.12))
  (fp_line (start -7.426 1.195) (end -7.426 3.625) (layer F.SilkS) (width 0.12))
  (fp_line (start -8.945 2.41) (end -8.186 2.41) (layer F.SilkS) (width 0.12))
  (fp_line (start -9.1 -1.45) (end -9.1 3.95) (layer F.CrtYd) (width 0.05))
  (fp_line (start -9.1 3.95) (end 2.5 3.95) (layer F.CrtYd) (width 0.05))
  (fp_line (start 2.5 3.95) (end 2.5 -1.45) (layer F.CrtYd) (width 0.05))
  (fp_line (start 2.5 -1.45) (end -9.1 -1.45) (layer F.CrtYd) (width 0.05))
  (pad 1 thru_hole circle (at 0 0) (size 1.44 1.44) (drill 0.8) (layers *.Cu *.Mask))
  (pad 2 thru_hole circle (at -2.54 2.54) (size 1.44 1.44) (drill 0.8) (layers *.Cu *.Mask))
  (pad 3 thru_hole circle (at -5.08 0) (size 1.44 1.44) (drill 0.8) (layers *.Cu *.Mask))
  (fp_text user %R (at -2.54 1.265) (layer F.Fab)
    (effects (font (size 1 1) (thickness 0.15)))
  )
  (model ${KICAD6_3DMODEL_DIR}/Potentiometer_THT.3dshapes/Potentiometer_Bourns_3296Z_Horizontal.wrl
    (at (xyz 0 0 0))
    (scale (xyz 1 1 1))
    (rotate (xyz 0 0 0))
  )
)