(module Potentiometer_Alps_RK09L_Double_Horizontal (layer F.Cu) (tedit 5A3D4993)
  (descr "Potentiometer, horizontal, Alps RK09L Double, http://www.alps.com/prod/info/E/HTML/Potentiometer/RotaryPotentiometers/RK09L/RK09L_list.html")
  (tags "Potentiometer horizontal Alps RK09L Double")
  (fp_text reference REF** (at 0 -10.6) (layer F.SilkS)
    (effects (font (size 1 1) (thickness 0.15)))
  )
  (fp_text value Potentiometer_Alps_RK09L_Double_Horizontal (at 0 5.6) (layer F.Fab)
    (effects (font (size 1 1) (thickness 0.15)))
  )
  (fp_line (start -4.14 -8.55) (end -4.14 3.55) (layer F.Fab) (width 0.1))
  (fp_line (start -4.14 3.55) (end 5 3.55) (layer F.Fab) (width 0.1))
  (fp_line (start 5 3.55) (end 5 -8.55) (layer F.Fab) (width 0.1))
  (fp_line (start 5 -8.55) (end -4.14 -8.55) (layer F.Fab) (width 0.1))
  (fp_line (start 5 -7) (end 5 2) (layer F.Fab) (width 0.1))
  (fp_line (start 5 2) (end 10 2) (layer F.Fab) (width 0.1))
  (fp_line (start 10 2) (end 10 -7) (layer F.Fab) (width 0.1))
  (fp_line (start 10 -7) (end 5 -7) (layer F.Fab) (width 0.1))
  (fp_line (start 10 -5.5) (end 10 0.5) (layer F.Fab) (width 0.1))
  (fp_line (start 10 0.5) (end 20 0.5) (layer F.Fab) (width 0.1))
  (fp_line (start 20 0.5) (end 20 -5.5) (layer F.Fab) (width 0.1))
  (fp_line (start 20 -5.5) (end 10 -5.5) (layer F.Fab) (width 0.1))
  (fp_line (start -3.759 -8.67) (end 5.12 -8.67) (layer F.SilkS) (width 0.12))
  (fp_line (start -3.759 3.67) (end 5.12 3.67) (layer F.SilkS) (width 0.12))
  (fp_line (start -4.261 -4.894) (end -4.261 -0.105) (layer F.SilkS) (width 0.12))
  (fp_line (start 5.12 -8.67) (end 5.12 3.67) (layer F.SilkS) (width 0.12))
  (fp_line (start 5.12 -7.12) (end 10.12 -7.12) (layer F.SilkS) (width 0.12))
  (fp_line (start 5.12 2.12) (end 10.12 2.12) (layer F.SilkS) (width 0.12))
  (fp_line (start 5.12 -7.12) (end 5.12 2.12) (layer F.SilkS) (width 0.12))
  (fp_line (start 10.12 -7.12) (end 10.12 2.12) (layer F.SilkS) (width 0.12))
  (fp_line (start 10.12 -5.62) (end 20.12 -5.62) (layer F.SilkS) (width 0.12))
  (fp_line (start 10.12 0.62) (end 20.12 0.62) (layer F.SilkS) (width 0.12))
  (fp_line (start 10.12 -5.62) (end 10.12 0.62) (layer F.SilkS) (width 0.12))
  (fp_line (start 20.12 -5.62) (end 20.12 0.62) (layer F.SilkS) (width 0.12))
  (fp_line (start -8.15 -9.6) (end -8.15 4.6) (layer F.CrtYd) (width 0.05))
  (fp_line (start -8.15 4.6) (end 20.25 4.6) (layer F.CrtYd) (width 0.05))
  (fp_line (start 20.25 4.6) (end 20.25 -9.6) (layer F.CrtYd) (width 0.05))
  (fp_line (start 20.25 -9.6) (end -8.15 -9.6) (layer F.CrtYd) (width 0.05))
  (pad 3 thru_hole circle (at 0 -5) (size 1.8 1.8) (drill 1) (layers *.Cu *.Mask))
  (pad 2 thru_hole circle (at 0 -2.5) (size 1.8 1.8) (drill 1) (layers *.Cu *.Mask))
  (pad 1 thru_hole circle (at 0 0) (size 1.8 1.8) (drill 1) (layers *.Cu *.Mask))
  (pad 6 thru_hole circle (at -2.5 -5) (size 1.8 1.8) (drill 1) (layers *.Cu *.Mask))
  (pad 5 thru_hole circle (at -2.5 -2.5) (size 1.8 1.8) (drill 1) (layers *.Cu *.Mask))
  (pad 4 thru_hole circle (at -2.5 0) (size 1.8 1.8) (drill 1) (layers *.Cu *.Mask))
  (pad "" thru_hole circle (at -5.8 -7.25) (size 4.2 4.2) (drill 2.1) (layers *.Cu *.Mask))
  (pad "" thru_hole circle (at -5.8 2.25) (size 4.2 4.2) (drill 2.1) (layers *.Cu *.Mask))
  (fp_text user %R (at 0.43 -2.5) (layer F.Fab)
    (effects (font (size 1 1) (thickness 0.15)))
  )
  (model ${KICAD6_3DMODEL_DIR}/Potentiometer_THT.3dshapes/Potentiometer_Alps_RK09L_Double_Horizontal.wrl
    (at (xyz 0 0 0))
    (scale (xyz 1 1 1))
    (rotate (xyz 0 0 0))
  )
)