(module Potentiometer_Bourns_3006Y_Horizontal (layer F.Cu) (tedit 5A3D4994)
  (descr "Potentiometer, horizontal, Bourns 3006Y, https://www.bourns.com/docs/Product-Datasheets/3006.pdf")
  (tags "Potentiometer horizontal Bourns 3006Y")
  (fp_text reference REF** (at -9.52 -4.935) (layer F.SilkS)
    (effects (font (size 1 1) (thickness 0.15)))
  )
  (fp_text value Potentiometer_Bourns_3006Y_Horizontal (at -9.52 2.395) (layer F.Fab)
    (effects (font (size 1 1) (thickness 0.15)))
  )
  (fp_line (start -18.42 -3.685) (end -18.42 1.145) (layer F.Fab) (width 0.1))
  (fp_line (start -18.42 1.145) (end 0.63 1.145) (layer F.Fab) (width 0.1))
  (fp_line (start 0.63 1.145) (end 0.63 -3.685) (layer F.Fab) (width 0.1))
  (fp_line (start 0.63 -3.685) (end -18.42 -3.685) (layer F.Fab) (width 0.1))
  (fp_line (start -19.94 -2.45) (end -19.94 -0.09) (layer F.Fab) (width 0.1))
  (fp_line (start -19.94 -0.09) (end -18.42 -0.09) (layer F.Fab) (width 0.1))
  (fp_line (start -18.42 -0.09) (end -18.42 -2.45) (layer F.Fab) (width 0.1))
  (fp_line (start -18.42 -2.45) (end -19.94 -2.45) (layer F.Fab) (width 0.1))
  (fp_line (start -19.94 -1.27) (end -19.18 -1.27) (layer F.Fab) (width 0.1))
  (fp_line (start -18.54 -3.805) (end 0.75 -3.805) (layer F.SilkS) (width 0.12))
  (fp_line (start -18.54 1.265) (end 0.75 1.265) (layer F.SilkS) (width 0.12))
  (fp_line (start -18.54 -3.805) (end -18.54 -1.155) (layer F.SilkS) (width 0.12))
  (fp_line (start -18.54 1.155) (end -18.54 1.265) (layer F.SilkS) (width 0.12))
  (fp_line (start 0.75 -3.805) (end 0.75 -1.155) (layer F.SilkS) (width 0.12))
  (fp_line (start 0.75 1.155) (end 0.75 1.265) (layer F.SilkS) (width 0.12))
  (fp_line (start -20.06 -2.569) (end -18.541 -2.569) (layer F.SilkS) (width 0.12))
  (fp_line (start -20.06 0.03) (end -18.935 0.03) (layer F.SilkS) (width 0.12))
  (fp_line (start -20.06 -2.569) (end -20.06 0.03) (layer F.SilkS) (width 0.12))
  (fp_line (start -18.541 -2.569) (end -18.541 -1.155) (layer F.SilkS) (width 0.12))
  (fp_line (start -20.06 -1.27) (end -19.301 -1.27) (layer F.SilkS) (width 0.12))
  (fp_line (start -20.2 -3.95) (end -20.2 1.4) (layer F.CrtYd) (width 0.05))
  (fp_line (start -20.2 1.4) (end 1.15 1.4) (layer F.CrtYd) (width 0.05))
  (fp_line (start 1.15 1.4) (end 1.15 -3.95) (layer F.CrtYd) (width 0.05))
  (fp_line (start 1.15 -3.95) (end -20.2 -3.95) (layer F.CrtYd) (width 0.05))
  (pad 1 thru_hole circle (at 0 0) (size 1.8 1.8) (drill 1) (layers *.Cu *.Mask))
  (pad 2 thru_hole circle (at -10.16 -2.54) (size 1.8 1.8) (drill 1) (layers *.Cu *.Mask))
  (pad 3 thru_hole circle (at -17.78 0) (size 1.8 1.8) (drill 1) (layers *.Cu *.Mask))
  (fp_text user %R (at -8.895 -1.27) (layer F.Fab)
    (effects (font (size 1 1) (thickness 0.15)))
  )
  (model ${KICAD6_3DMODEL_DIR}/Potentiometer_THT.3dshapes/Potentiometer_Bourns_3006Y_Horizontal.wrl
    (at (xyz 0 0 0))
    (scale (xyz 1 1 1))
    (rotate (xyz 0 0 0))
  )
)