(module Potentiometer_Bourns_3299W_Vertical (layer F.Cu) (tedit 5A3D4994)
  (descr "Potentiometer, vertical, Bourns 3299W, https://www.bourns.com/pdfs/3299.pdf")
  (tags "Potentiometer vertical Bourns 3299W")
  (fp_text reference REF** (at -2.54 -3.16) (layer F.SilkS)
    (effects (font (size 1 1) (thickness 0.15)))
  )
  (fp_text value Potentiometer_Bourns_3299W_Vertical (at -2.54 5.44) (layer F.Fab)
    (effects (font (size 1 1) (thickness 0.15)))
  )
  (fp_circle (center 0.955 2.92) (end 2.05 2.92) (layer F.Fab) (width 0.1))
  (fp_line (start -7.305 -1.91) (end -7.305 4.19) (layer F.Fab) (width 0.1))
  (fp_line (start -7.305 4.19) (end 2.225 4.19) (layer F.Fab) (width 0.1))
  (fp_line (start 2.225 4.19) (end 2.225 -1.91) (layer F.Fab) (width 0.1))
  (fp_line (start 2.225 -1.91) (end -7.305 -1.91) (layer F.Fab) (width 0.1))
  (fp_line (start 0.955 4.005) (end 0.956 1.836) (layer F.Fab) (width 0.1))
  (fp_line (start 0.955 4.005) (end 0.956 1.836) (layer F.Fab) (width 0.1))
  (fp_line (start -7.425 -2.03) (end 2.345 -2.03) (layer F.SilkS) (width 0.12))
  (fp_line (start -7.425 4.31) (end 2.345 4.31) (layer F.SilkS) (width 0.12))
  (fp_line (start -7.425 -2.03) (end -7.425 4.31) (layer F.SilkS) (width 0.12))
  (fp_line (start 2.345 -2.03) (end 2.345 4.31) (layer F.SilkS) (width 0.12))
  (fp_line (start -7.6 -2.2) (end -7.6 4.45) (layer F.CrtYd) (width 0.05))
  (fp_line (start -7.6 4.45) (end 2.5 4.45) (layer F.CrtYd) (width 0.05))
  (fp_line (start 2.5 4.45) (end 2.5 -2.2) (layer F.CrtYd) (width 0.05))
  (fp_line (start 2.5 -2.2) (end -7.6 -2.2) (layer F.CrtYd) (width 0.05))
  (pad 1 thru_hole circle (at 0 0) (size 1.44 1.44) (drill 0.8) (layers *.Cu *.Mask))
  (pad 2 thru_hole circle (at -2.54 0) (size 1.44 1.44) (drill 0.8) (layers *.Cu *.Mask))
  (pad 3 thru_hole circle (at -5.08 0) (size 1.44 1.44) (drill 0.8) (layers *.Cu *.Mask))
  (fp_text user %R (at -3.175 1.14) (layer F.Fab)
    (effects (font (size 1 1) (thickness 0.15)))
  )
  (model ${KICAD6_3DMODEL_DIR}/Potentiometer_THT.3dshapes/Potentiometer_Bourns_3299W_Vertical.wrl
    (at (xyz 0 0 0))
    (scale (xyz 1 1 1))
    (rotate (xyz 0 0 0))
  )
)