(module Potentiometer_Vishay_148E-149E_Dual_Horizontal (layer F.Cu) (tedit 5A3D4993)
  (descr "Potentiometer, horizontal, Vishay 148E-149E Dual, http://www.vishay.com/docs/57040/148149.pdf")
  (tags "Potentiometer horizontal Vishay 148E-149E Dual")
  (fp_text reference REF** (at 0 -10.17) (layer F.SilkS)
    (effects (font (size 1 1) (thickness 0.15)))
  )
  (fp_text value Potentiometer_Vishay_148E-149E_Dual_Horizontal (at 0 5.09) (layer F.Fab)
    (effects (font (size 1 1) (thickness 0.15)))
  )
  (fp_line (start -14.76 -8.79) (end -14.76 3.71) (layer F.Fab) (width 0.1))
  (fp_line (start -14.76 3.71) (end 5.08 3.71) (layer F.Fab) (width 0.1))
  (fp_line (start 5.08 3.71) (end 5.08 -8.79) (layer F.Fab) (width 0.1))
  (fp_line (start 5.08 -8.79) (end -14.76 -8.79) (layer F.Fab) (width 0.1))
  (fp_line (start 5.08 -5.715) (end 5.08 0.635) (layer F.Fab) (width 0.1))
  (fp_line (start 5.08 0.635) (end 12.08 0.635) (layer F.Fab) (width 0.1))
  (fp_line (start 12.08 0.635) (end 12.08 -5.715) (layer F.Fab) (width 0.1))
  (fp_line (start 12.08 -5.715) (end 5.08 -5.715) (layer F.Fab) (width 0.1))
  (fp_line (start 12.08 -4.125) (end 12.08 -0.955) (layer F.Fab) (width 0.1))
  (fp_line (start 12.08 -0.955) (end 18.53 -0.955) (layer F.Fab) (width 0.1))
  (fp_line (start 18.53 -0.955) (end 18.53 -4.125) (layer F.Fab) (width 0.1))
  (fp_line (start 18.53 -4.125) (end 12.08 -4.125) (layer F.Fab) (width 0.1))
  (fp_line (start 4.884 -8.91) (end 5.2 -8.91) (layer F.SilkS) (width 0.12))
  (fp_line (start -12.937 -8.91) (end 2.817 -8.91) (layer F.SilkS) (width 0.12))
  (fp_line (start -12.937 3.83) (end 2.817 3.83) (layer F.SilkS) (width 0.12))
  (fp_line (start 4.884 3.83) (end 5.2 3.83) (layer F.SilkS) (width 0.12))
  (fp_line (start -14.88 -6.065) (end -14.88 0.985) (layer F.SilkS) (width 0.12))
  (fp_line (start 5.2 -8.91) (end 5.2 -8.405) (layer F.SilkS) (width 0.12))
  (fp_line (start 5.2 -6.836) (end 5.2 1.756) (layer F.SilkS) (width 0.12))
  (fp_line (start 5.2 3.326) (end 5.2 3.83) (layer F.SilkS) (width 0.12))
  (fp_line (start 5.2 -5.835) (end 12.2 -5.835) (layer F.SilkS) (width 0.12))
  (fp_line (start 5.2 0.755) (end 12.2 0.755) (layer F.SilkS) (width 0.12))
  (fp_line (start 5.2 -5.835) (end 5.2 0.755) (layer F.SilkS) (width 0.12))
  (fp_line (start 12.2 -5.835) (end 12.2 0.755) (layer F.SilkS) (width 0.12))
  (fp_line (start 12.2 -4.244) (end 18.65 -4.244) (layer F.SilkS) (width 0.12))
  (fp_line (start 12.2 -0.835) (end 18.65 -0.835) (layer F.SilkS) (width 0.12))
  (fp_line (start 12.2 -4.244) (end 12.2 -0.835) (layer F.SilkS) (width 0.12))
  (fp_line (start 18.65 -4.244) (end 18.65 -0.835) (layer F.SilkS) (width 0.12))
  (fp_line (start -15.55 -9.2) (end -15.55 4.1) (layer F.CrtYd) (width 0.05))
  (fp_line (start -15.55 4.1) (end 18.8 4.1) (layer F.CrtYd) (width 0.05))
  (fp_line (start 18.8 4.1) (end 18.8 -9.2) (layer F.CrtYd) (width 0.05))
  (fp_line (start 18.8 -9.2) (end -15.55 -9.2) (layer F.CrtYd) (width 0.05))
  (pad 3 thru_hole circle (at 0 -5.08) (size 1.8 1.8) (drill 1) (layers *.Cu *.Mask))
  (pad 2 thru_hole circle (at 0 -2.54) (size 1.8 1.8) (drill 1) (layers *.Cu *.Mask))
  (pad 1 thru_hole circle (at 0 0) (size 1.8 1.8) (drill 1) (layers *.Cu *.Mask))
  (pad 6 thru_hole circle (at -7.62 -5.08) (size 1.8 1.8) (drill 1) (layers *.Cu *.Mask))
  (pad 5 thru_hole circle (at -7.62 -2.54) (size 1.8 1.8) (drill 1) (layers *.Cu *.Mask))
  (pad 4 thru_hole circle (at -7.62 0) (size 1.8 1.8) (drill 1) (layers *.Cu *.Mask))
  (pad "" thru_hole circle (at 3.85 -7.62) (size 2.6 2.6) (drill 1.3) (layers *.Cu *.Mask))
  (pad "" thru_hole circle (at -13.97 2.54) (size 2.6 2.6) (drill 1.3) (layers *.Cu *.Mask))
  (pad "" thru_hole circle (at -13.97 -7.62) (size 2.6 2.6) (drill 1.3) (layers *.Cu *.Mask))
  (pad "" thru_hole circle (at 3.85 2.54) (size 2.6 2.6) (drill 1.3) (layers *.Cu *.Mask))
  (fp_text user %R (at -4.84 -2.54) (layer F.Fab)
    (effects (font (size 1 1) (thickness 0.15)))
  )
  (model ${KICAD6_3DMODEL_DIR}/Potentiometer_THT.3dshapes/Potentiometer_Vishay_148E-149E_Dual_Horizontal.wrl
    (at (xyz 0 0 0))
    (scale (xyz 1 1 1))
    (rotate (xyz 0 0 0))
  )
)