(module CE-Logo_42x30mm_SilkScreen (layer F.Cu) (tedit 0)
  (descr "CE marking")
  (tags "Logo CE certification")
  (attr virtual)
  (fp_text reference REF** (at 0 0) (layer F.SilkS) hide
    (effects (font (size 1 1) (thickness 0.15)))
  )
  (fp_text value CE-Logo_42x30mm_SilkScreen (at 0.75 0) (layer F.Fab) hide
    (effects (font (size 1 1) (thickness 0.15)))
  )
  (fp_poly (pts (xy -5.262947 -14.961535) (xy -4.94303 -14.953299) (xy -4.711674 -14.938564) (xy -4.610723 -14.922974)
    (xy -4.463049 -14.883399) (xy -4.463049 -10.316747) (xy -5.502602 -10.352822) (xy -6.543642 -10.351513)
    (xy -7.507053 -10.26787) (xy -8.422099 -10.095752) (xy -9.31804 -9.829016) (xy -10.22414 -9.461522)
    (xy -10.599741 -9.28308) (xy -11.495498 -8.791429) (xy -12.302395 -8.239001) (xy -13.058474 -7.598592)
    (xy -13.35257 -7.314328) (xy -14.129687 -6.445339) (xy -14.801995 -5.499433) (xy -15.366122 -4.483006)
    (xy -15.818697 -3.402452) (xy -16.156351 -2.264166) (xy -16.256366 -1.80491) (xy -16.316639 -1.387936)
    (xy -16.356882 -0.876976) (xy -16.37713 -0.307767) (xy -16.377418 0.283954) (xy -16.357782 0.86245)
    (xy -16.318258 1.391983) (xy -16.258879 1.836816) (xy -16.252737 1.870542) (xy -15.975633 3.00532)
    (xy -15.581773 4.087889) (xy -15.077548 5.11096) (xy -14.469349 6.067243) (xy -13.763566 6.949451)
    (xy -12.96659 7.750294) (xy -12.084812 8.462484) (xy -11.124622 9.07873) (xy -10.092412 9.591745)
    (xy -9.182079 9.93506) (xy -8.670379 10.091749) (xy -8.200399 10.210875) (xy -7.740181 10.296875)
    (xy -7.257767 10.354189) (xy -6.7212 10.387254) (xy -6.09852 10.400507) (xy -5.824935 10.401264)
    (xy -4.463049 10.399686) (xy -4.463049 14.949031) (xy -4.610723 14.988606) (xy -4.736738 15.00348)
    (xy -4.969893 15.013723) (xy -5.286152 15.019572) (xy -5.661477 15.021265) (xy -6.071834 15.019037)
    (xy -6.493185 15.013126) (xy -6.901495 15.003769) (xy -7.272727 14.991201) (xy -7.582845 14.97566)
    (xy -7.807812 14.957382) (xy -7.810335 14.957097) (xy -8.370957 14.875491) (xy -9.004015 14.753274)
    (xy -9.661211 14.601344) (xy -10.294244 14.430598) (xy -10.696511 14.305919) (xy -12.008946 13.804642)
    (xy -13.252844 13.194483) (xy -14.423293 12.481376) (xy -15.515384 11.671254) (xy -16.524205 10.77005)
    (xy -17.444846 9.783697) (xy -18.272395 8.718129) (xy -19.001942 7.579278) (xy -19.628577 6.373079)
    (xy -20.147387 5.105464) (xy -20.553463 3.782367) (xy -20.841894 2.40972) (xy -20.907469 1.968992)
    (xy -20.949424 1.548442) (xy -20.978291 1.032524) (xy -20.994072 0.456483) (xy -20.996766 -0.144436)
    (xy -20.986374 -0.734988) (xy -20.962894 -1.279928) (xy -20.926328 -1.744013) (xy -20.907469 -1.90336)
    (xy -20.654839 -3.305645) (xy -20.280533 -4.660516) (xy -19.785825 -5.96483) (xy -19.171987 -7.215444)
    (xy -18.440293 -8.409215) (xy -18.049228 -8.958915) (xy -17.16475 -10.037963) (xy -16.192329 -11.022165)
    (xy -15.138737 -11.90756) (xy -14.010743 -12.690189) (xy -12.815117 -13.366091) (xy -11.55863 -13.931307)
    (xy -10.248051 -14.381877) (xy -8.890151 -14.713841) (xy -7.943542 -14.869763) (xy -7.683204 -14.896171)
    (xy -7.341553 -14.918793) (xy -6.942854 -14.93724) (xy -6.511376 -14.951125) (xy -6.071387 -14.960061)
    (xy -5.647155 -14.96366) (xy -5.262947 -14.961535)) (layer F.SilkS) (width 0.01))
  (fp_poly (pts (xy 21.002589 -12.650776) (xy 21.002594 -10.33721) (xy 19.542253 -10.335775) (xy 19.036328 -10.333666)
    (xy 18.63618 -10.327278) (xy 18.316344 -10.314842) (xy 18.051357 -10.294593) (xy 17.815754 -10.264763)
    (xy 17.58407 -10.223584) (xy 17.415884 -10.188225) (xy 16.275592 -9.874088) (xy 15.187509 -9.446142)
    (xy 14.16038 -8.910343) (xy 13.202951 -8.272646) (xy 12.323966 -7.539008) (xy 11.53217 -6.715384)
    (xy 10.836308 -5.807731) (xy 10.71407 -5.623818) (xy 10.457083 -5.192423) (xy 10.194632 -4.689261)
    (xy 9.941515 -4.148258) (xy 9.712532 -3.603339) (xy 9.52248 -3.088428) (xy 9.386161 -2.637451)
    (xy 9.35593 -2.510466) (xy 9.309467 -2.297158) (xy 18.049096 -2.297158) (xy 18.049096 2.36279)
    (xy 9.309467 2.36279) (xy 9.35593 2.576098) (xy 9.480258 3.029388) (xy 9.666244 3.554579)
    (xy 9.898595 4.117224) (xy 10.16202 4.682877) (xy 10.441227 5.21709) (xy 10.720924 5.685418)
    (xy 10.767838 5.756626) (xy 11.480978 6.706563) (xy 12.280723 7.559097) (xy 13.162124 8.31089)
    (xy 14.12023 8.958608) (xy 15.150094 9.498912) (xy 16.246766 9.928468) (xy 17.405296 10.243939)
    (xy 17.433582 10.25003) (xy 17.694454 10.302624) (xy 17.934679 10.341773) (xy 18.181007 10.369383)
    (xy 18.460188 10.387362) (xy 18.798973 10.397618) (xy 19.22411 10.402056) (xy 19.575065 10.402726)
    (xy 21.002584 10.40261) (xy 21.002584 15.029974) (xy 19.575065 15.021459) (xy 19.118754 15.016234)
    (xy 18.67357 15.006593) (xy 18.268071 14.993494) (xy 17.930813 14.977894) (xy 17.690353 14.96075)
    (xy 17.655298 14.957097) (xy 16.536991 14.777522) (xy 15.386723 14.49365) (xy 14.235908 14.116138)
    (xy 13.11596 13.655642) (xy 12.05829 13.12282) (xy 11.781444 12.964394) (xy 10.97008 12.441139)
    (xy 10.146801 11.825343) (xy 9.344133 11.145085) (xy 8.594604 10.428441) (xy 7.930742 9.703489)
    (xy 7.749423 9.483945) (xy 6.949075 8.384559) (xy 6.247929 7.205598) (xy 5.650978 5.958896)
    (xy 5.163218 4.656287) (xy 4.789642 3.309608) (xy 4.535245 1.930693) (xy 4.52262 1.837726)
    (xy 4.488144 1.482179) (xy 4.463667 1.032167) (xy 4.4492 0.520552) (xy 4.44475 -0.019801)
    (xy 4.450327 -0.556026) (xy 4.465942 -1.055262) (xy 4.491603 -1.484642) (xy 4.52159 -1.772093)
    (xy 4.779356 -3.185639) (xy 5.152592 -4.552661) (xy 5.63791 -5.865132) (xy 6.231919 -7.115026)
    (xy 6.931231 -8.294316) (xy 7.732457 -9.394975) (xy 7.749423 -9.416039) (xy 8.64387 -10.422964)
    (xy 9.631864 -11.348061) (xy 10.701263 -12.183742) (xy 11.839925 -12.922418) (xy 13.035707 -13.556501)
    (xy 14.276467 -14.078403) (xy 15.550063 -14.480535) (xy 16.047723 -14.602072) (xy 16.662477 -14.730229)
    (xy 17.233861 -14.82621) (xy 17.798552 -14.893736) (xy 18.393229 -14.936524) (xy 19.05457 -14.958295)
    (xy 19.607882 -14.96306) (xy 21.002584 -14.964341) (xy 21.002589 -12.650776)) (layer F.SilkS) (width 0.01))
)
