(module KiCad-Logo_30mm_SilkScreen (layer F.Cu) (tedit 0)
  (descr "KiCad Logo")
  (tags "Logo KiCad")
  (attr virtual)
  (fp_text reference REF** (at -1.27 -17.78) (layer F.SilkS) hide
    (effects (font (size 1 1) (thickness 0.15)))
  )
  (fp_text value KiCad-Logo_30mm_SilkScreen (at 0 17.78) (layer F.Fab) hide
    (effects (font (size 1 1) (thickness 0.15)))
  )
  (fp_poly (pts (xy -29.618613 -12.563646) (xy -28.303107 -12.563468) (xy -27.690756 -12.563441) (xy -17.889247 -12.563441)
    (xy -17.889247 -11.985665) (xy -17.827578 -11.282559) (xy -17.641458 -10.634102) (xy -17.329214 -10.036439)
    (xy -16.889174 -9.485715) (xy -16.740294 -9.336975) (xy -16.204737 -8.915072) (xy -15.614222 -8.607369)
    (xy -14.98629 -8.413725) (xy -14.33848 -8.334001) (xy -13.688331 -8.368059) (xy -13.053381 -8.515757)
    (xy -12.45117 -8.776956) (xy -11.899237 -9.151517) (xy -11.651356 -9.377497) (xy -11.189432 -9.931559)
    (xy -10.850708 -10.540846) (xy -10.638139 -11.198393) (xy -10.554679 -11.897234) (xy -10.553569 -11.965983)
    (xy -10.549193 -12.563419) (xy -10.28661 -12.56343) (xy -10.053674 -12.531816) (xy -9.840888 -12.454898)
    (xy -9.826826 -12.446951) (xy -9.778767 -12.422015) (xy -9.734635 -12.402594) (xy -9.694269 -12.383033)
    (xy -9.657511 -12.357674) (xy -9.624201 -12.320861) (xy -9.594179 -12.266937) (xy -9.567287 -12.190246)
    (xy -9.543364 -12.085131) (xy -9.52225 -11.945935) (xy -9.503788 -11.767002) (xy -9.487816 -11.542674)
    (xy -9.474176 -11.267295) (xy -9.462708 -10.935209) (xy -9.453252 -10.540759) (xy -9.445649 -10.078288)
    (xy -9.43974 -9.542139) (xy -9.435365 -8.926656) (xy -9.432365 -8.226182) (xy -9.430579 -7.435061)
    (xy -9.429849 -6.547635) (xy -9.430015 -5.558248) (xy -9.430918 -4.461244) (xy -9.432398 -3.250965)
    (xy -9.434295 -1.921755) (xy -9.43645 -0.467958) (xy -9.438704 1.116084) (xy -9.438966 1.309073)
    (xy -9.440987 2.903217) (xy -9.442702 4.366457) (xy -9.444292 5.704446) (xy -9.445939 6.92284)
    (xy -9.447825 8.027292) (xy -9.450131 9.023456) (xy -9.453039 9.916987) (xy -9.45673 10.713539)
    (xy -9.461386 11.418765) (xy -9.467189 12.03832) (xy -9.47432 12.577858) (xy -9.482961 13.043033)
    (xy -9.493293 13.4395) (xy -9.505498 13.772911) (xy -9.519758 14.048923) (xy -9.536254 14.273188)
    (xy -9.555167 14.45136) (xy -9.57668 14.589095) (xy -9.600974 14.692045) (xy -9.62823 14.765866)
    (xy -9.658631 14.816211) (xy -9.692357 14.848734) (xy -9.72959 14.86909) (xy -9.770513 14.882933)
    (xy -9.815306 14.895916) (xy -9.864151 14.913694) (xy -9.876083 14.919106) (xy -9.913584 14.931267)
    (xy -9.976351 14.94244) (xy -10.069863 14.952666) (xy -10.199602 14.961983) (xy -10.371048 14.970432)
    (xy -10.589681 14.978053) (xy -10.860983 14.984885) (xy -11.190433 14.990969) (xy -11.583513 14.996343)
    (xy -12.045702 15.001048) (xy -12.582482 15.005123) (xy -13.199332 15.008609) (xy -13.901734 15.011544)
    (xy -14.695168 15.013969) (xy -15.585115 15.015924) (xy -16.577054 15.017449) (xy -17.676468 15.018582)
    (xy -18.888836 15.019364) (xy -20.219638 15.019835) (xy -21.674356 15.020034) (xy -23.25847 15.020001)
    (xy -23.771609 15.019951) (xy -25.390865 15.019691) (xy -26.879109 15.019266) (xy -28.241886 15.018632)
    (xy -29.484742 15.017747) (xy -30.613223 15.016566) (xy -31.632877 15.015047) (xy -32.549247 15.013146)
    (xy -33.367882 15.010819) (xy -34.094327 15.008024) (xy -34.734128 15.004717) (xy -35.292831 15.000854)
    (xy -35.775983 14.996393) (xy -36.189129 14.99129) (xy -36.537816 14.985502) (xy -36.82759 14.978985)
    (xy -37.063997 14.971696) (xy -37.252583 14.963592) (xy -37.398894 14.954629) (xy -37.508477 14.944764)
    (xy -37.586877 14.933954) (xy -37.639641 14.922155) (xy -37.668405 14.911351) (xy -37.719527 14.889791)
    (xy -37.766466 14.873893) (xy -37.809399 14.858009) (xy -37.848504 14.836494) (xy -37.883959 14.803701)
    (xy -37.915941 14.753985) (xy -37.944629 14.681699) (xy -37.970199 14.581197) (xy -37.99283 14.446834)
    (xy -38.012699 14.272962) (xy -38.029983 14.053936) (xy -38.044862 13.784111) (xy -38.057512 13.457838)
    (xy -38.068111 13.069473) (xy -38.076836 12.61337) (xy -38.083866 12.083882) (xy -38.085706 11.880645)
    (xy -36.263401 11.880645) (xy -29.822466 11.880645) (xy -29.946401 11.692877) (xy -30.069692 11.49992)
    (xy -30.174097 11.316174) (xy -30.261101 11.128782) (xy -30.33219 10.924883) (xy -30.388848 10.69162)
    (xy -30.432561 10.416132) (xy -30.464813 10.085562) (xy -30.48709 9.687051) (xy -30.500877 9.207739)
    (xy -30.507659 8.634769) (xy -30.50892 7.95528) (xy -30.506146 7.156415) (xy -30.504573 6.85983)
    (xy -30.486827 3.680309) (xy -28.47258 6.422527) (xy -27.901947 7.200459) (xy -27.407562 7.877858)
    (xy -26.984086 8.463697) (xy -26.626182 8.966951) (xy -26.328511 9.396594) (xy -26.085735 9.761601)
    (xy -25.892516 10.070946) (xy -25.743515 10.333604) (xy -25.633396 10.55855) (xy -25.556818 10.754757)
    (xy -25.508444 10.931201) (xy -25.482937 11.096855) (xy -25.474957 11.260694) (xy -25.479166 11.431693)
    (xy -25.480241 11.453186) (xy -25.502419 11.880932) (xy -21.973089 11.880789) (xy -18.44376 11.880645)
    (xy -18.968788 11.35125) (xy -19.111258 11.206456) (xy -19.246414 11.065564) (xy -19.380187 10.920806)
    (xy -19.518509 10.764411) (xy -19.667312 10.588609) (xy -19.832526 10.385629) (xy -20.020084 10.147702)
    (xy -20.235917 9.867057) (xy -20.485955 9.535925) (xy -20.776132 9.146535) (xy -21.112378 8.691117)
    (xy -21.500625 8.1619) (xy -21.946804 7.551116) (xy -22.456847 6.850993) (xy -23.036686 6.053762)
    (xy -23.511953 5.3998) (xy -24.108429 4.57823) (xy -24.628769 3.859893) (xy -25.077685 3.237968)
    (xy -25.45989 2.705635) (xy -25.7801 2.256075) (xy -26.043028 1.882467) (xy -26.253387 1.577991)
    (xy -26.415891 1.335827) (xy -26.535255 1.149156) (xy -26.616191 1.011158) (xy -26.663414 0.915011)
    (xy -26.681637 0.853897) (xy -26.676159 0.821766) (xy -26.609781 0.736261) (xy -26.466268 0.55527)
    (xy -26.254281 0.289551) (xy -25.982478 -0.050137) (xy -25.659518 -0.453038) (xy -25.294063 -0.908393)
    (xy -24.89477 -1.405443) (xy -24.4703 -1.933432) (xy -24.029312 -2.481601) (xy -23.580466 -3.039191)
    (xy -23.333584 -3.345699) (xy -17.203867 -3.345699) (xy -16.949111 -2.884812) (xy -16.694354 -2.423924)
    (xy -16.694354 10.958871) (xy -16.949111 11.419758) (xy -17.203867 11.880645) (xy -14.190276 11.880645)
    (xy -13.47085 11.880436) (xy -12.876615 11.879492) (xy -12.396202 11.877339) (xy -12.018243 11.8735)
    (xy -11.731369 11.867501) (xy -11.524212 11.858867) (xy -11.385402 11.847123) (xy -11.303573 11.831793)
    (xy -11.267355 11.812404) (xy -11.26538 11.788479) (xy -11.28628 11.759543) (xy -11.286496 11.759304)
    (xy -11.372588 11.634768) (xy -11.48659 11.432276) (xy -11.587267 11.230138) (xy -11.778225 10.822312)
    (xy -11.797701 3.738307) (xy -11.817176 -3.345699) (xy -17.203867 -3.345699) (xy -23.333584 -3.345699)
    (xy -23.132421 -3.595446) (xy -22.693837 -4.139607) (xy -22.273373 -4.660916) (xy -21.87969 -5.148615)
    (xy -21.521445 -5.591947) (xy -21.2073 -5.980153) (xy -20.945914 -6.302474) (xy -20.745945 -6.548155)
    (xy -20.628492 -6.691398) (xy -20.172406 -7.227048) (xy -19.733629 -7.710424) (xy -19.327537 -8.1257)
    (xy -18.969511 -8.45705) (xy -18.715427 -8.660196) (xy -18.414994 -8.876344) (xy -25.324597 -8.876344)
    (xy -25.322658 -8.470884) (xy -25.341969 -8.172792) (xy -25.414569 -7.896433) (xy -25.526954 -7.634459)
    (xy -25.600008 -7.48646) (xy -25.678555 -7.339813) (xy -25.76977 -7.184783) (xy -25.880827 -7.011636)
    (xy -26.018902 -6.810635) (xy -26.19117 -6.572046) (xy -26.404807 -6.286133) (xy -26.666987 -5.943161)
    (xy -26.984887 -5.533394) (xy -27.365681 -5.047098) (xy -27.816544 -4.474538) (xy -28.344652 -3.805977)
    (xy -28.404301 -3.730542) (xy -30.486827 -1.097013) (xy -30.506988 -4.013694) (xy -30.511047 -4.887326)
    (xy -30.510183 -5.626924) (xy -30.504353 -6.234925) (xy -30.493515 -6.713768) (xy -30.477626 -7.06589)
    (xy -30.456646 -7.293729) (xy -30.449594 -7.336949) (xy -30.338959 -7.792207) (xy -30.194002 -8.202624)
    (xy -30.02859 -8.532614) (xy -29.929217 -8.67257) (xy -29.757753 -8.876344) (xy -33.011132 -8.876344)
    (xy -33.78721 -8.87568) (xy -34.436192 -8.873521) (xy -34.967533 -8.869614) (xy -35.390689 -8.863707)
    (xy -35.715118 -8.855548) (xy -35.950276 -8.844886) (xy -36.105618 -8.831468) (xy -36.190602 -8.815041)
    (xy -36.214683 -8.795355) (xy -36.213018 -8.790994) (xy -36.144049 -8.686891) (xy -36.028908 -8.521879)
    (xy -35.969337 -8.438423) (xy -35.907746 -8.35514) (xy -35.852386 -8.280664) (xy -35.802908 -8.207666)
    (xy -35.758962 -8.128815) (xy -35.720201 -8.036783) (xy -35.686276 -7.924242) (xy -35.656838 -7.783861)
    (xy -35.631539 -7.608311) (xy -35.61003 -7.390264) (xy -35.591963 -7.122391) (xy -35.576989 -6.797361)
    (xy -35.564759 -6.407846) (xy -35.554926 -5.946518) (xy -35.54714 -5.406046) (xy -35.541053 -4.779101)
    (xy -35.536317 -4.058355) (xy -35.532582 -3.236478) (xy -35.529501 -2.306141) (xy -35.526724 -1.260015)
    (xy -35.523904 -0.090771) (xy -35.521267 0.983386) (xy -35.518778 2.180883) (xy -35.517484 3.323407)
    (xy -35.517351 4.40366) (xy -35.518343 5.414345) (xy -35.520428 6.348163) (xy -35.52357 7.197817)
    (xy -35.527734 7.95601) (xy -35.532888 8.615443) (xy -35.538996 9.168819) (xy -35.546024 9.608839)
    (xy -35.553937 9.928207) (xy -35.562702 10.119624) (xy -35.564361 10.139854) (xy -35.62476 10.60392)
    (xy -35.719057 10.976617) (xy -35.862658 11.301877) (xy -36.07097 11.623631) (xy -36.097026 11.658737)
    (xy -36.263401 11.880645) (xy -38.085706 11.880645) (xy -38.089378 11.475363) (xy -38.09355 10.782168)
    (xy -38.09656 9.998649) (xy -38.098585 9.119161) (xy -38.099802 8.138058) (xy -38.10039 7.049693)
    (xy -38.100526 5.848421) (xy -38.100389 4.528595) (xy -38.100156 3.08457) (xy -38.100004 1.510699)
    (xy -38.099999 1.198253) (xy -38.099911 -0.392194) (xy -38.099615 -1.851686) (xy -38.099069 -3.185829)
    (xy -38.098229 -4.400227) (xy -38.097052 -5.500486) (xy -38.095494 -6.492209) (xy -38.093513 -7.381002)
    (xy -38.091063 -8.172469) (xy -38.088102 -8.872216) (xy -38.084587 -9.485846) (xy -38.080474 -10.018966)
    (xy -38.075719 -10.477178) (xy -38.07028 -10.86609) (xy -38.064111 -11.191304) (xy -38.057171 -11.458426)
    (xy -38.049416 -11.673061) (xy -38.040801 -11.840813) (xy -38.031285 -11.967288) (xy -38.020822 -12.05809)
    (xy -38.00937 -12.118823) (xy -37.996886 -12.155093) (xy -37.996424 -12.155998) (xy -37.97071 -12.211406)
    (xy -37.949293 -12.261569) (xy -37.925601 -12.306746) (xy -37.893062 -12.347198) (xy -37.845107 -12.383184)
    (xy -37.775161 -12.414965) (xy -37.676656 -12.442799) (xy -37.543017 -12.466948) (xy -37.367675 -12.48767)
    (xy -37.144057 -12.505225) (xy -36.865592 -12.519873) (xy -36.525709 -12.531875) (xy -36.117835 -12.54149)
    (xy -35.6354 -12.548977) (xy -35.071831 -12.554596) (xy -34.420558 -12.558608) (xy -33.675008 -12.561272)
    (xy -32.82861 -12.562848) (xy -31.874792 -12.563596) (xy -30.806984 -12.563775) (xy -29.618613 -12.563646)) (layer F.SilkS) (width 0.01))
  (fp_poly (pts (xy 2.187983 -9.148056) (xy 2.924267 -9.067451) (xy 3.6376 -8.923176) (xy 4.357002 -8.707706)
    (xy 5.111491 -8.413516) (xy 5.930086 -8.033081) (xy 6.077505 -7.959391) (xy 6.415811 -7.792725)
    (xy 6.73488 -7.642651) (xy 7.00322 -7.523502) (xy 7.189342 -7.449612) (xy 7.217934 -7.440309)
    (xy 7.491936 -7.358215) (xy 6.26539 -5.573866) (xy 5.965516 -5.137762) (xy 5.691348 -4.739324)
    (xy 5.452209 -4.392079) (xy 5.257424 -4.109554) (xy 5.116314 -3.905275) (xy 5.038205 -3.792771)
    (xy 5.025515 -3.774954) (xy 4.973973 -3.812207) (xy 4.847099 -3.924198) (xy 4.667586 -4.090586)
    (xy 4.568516 -4.184631) (xy 4.007208 -4.63108) (xy 3.376817 -4.97033) (xy 2.833603 -5.156156)
    (xy 2.507519 -5.214517) (xy 2.099234 -5.250081) (xy 1.656768 -5.262189) (xy 1.228141 -5.250184)
    (xy 0.861373 -5.213404) (xy 0.715018 -5.185236) (xy 0.055369 -4.958288) (xy -0.539053 -4.61176)
    (xy -1.067809 -4.146287) (xy -1.530458 -3.562502) (xy -1.92656 -2.861039) (xy -2.255675 -2.042531)
    (xy -2.517363 -1.107613) (xy -2.672887 -0.307258) (xy -2.713462 0.046067) (xy -2.741108 0.502511)
    (xy -2.756091 1.029274) (xy -2.75868 1.593556) (xy -2.74914 2.162555) (xy -2.72774 2.703472)
    (xy -2.694745 3.183507) (xy -2.650424 3.569857) (xy -2.64083 3.629466) (xy -2.429372 4.589652)
    (xy -2.14126 5.439459) (xy -1.774741 6.182696) (xy -1.328063 6.82317) (xy -1.010999 7.169439)
    (xy -0.441185 7.63957) (xy 0.183721 7.988052) (xy 0.853177 8.212989) (xy 1.556642 8.312485)
    (xy 2.283575 8.284643) (xy 3.023434 8.127567) (xy 3.460851 7.973868) (xy 4.066166 7.666092)
    (xy 4.690052 7.224593) (xy 5.039525 6.926031) (xy 5.235755 6.753228) (xy 5.389927 6.626448)
    (xy 5.477683 6.56536) (xy 5.488576 6.563495) (xy 5.527745 6.625918) (xy 5.629233 6.790871)
    (xy 5.784395 7.044214) (xy 5.984585 7.371804) (xy 6.221158 7.759501) (xy 6.485468 8.193163)
    (xy 6.632585 8.434741) (xy 7.756318 10.280504) (xy 6.353294 10.973874) (xy 5.846012 11.222931)
    (xy 5.43507 11.419324) (xy 5.095349 11.572807) (xy 4.80173 11.693133) (xy 4.529092 11.790057)
    (xy 4.252317 11.873333) (xy 3.946285 11.952715) (xy 3.652957 12.022424) (xy 3.39224 12.076365)
    (xy 3.119581 12.117128) (xy 2.807685 12.146978) (xy 2.429258 12.168175) (xy 1.957004 12.182982)
    (xy 1.63871 12.189372) (xy 1.184559 12.193735) (xy 0.749085 12.191535) (xy 0.361108 12.183401)
    (xy 0.049445 12.16996) (xy -0.157084 12.151838) (xy -0.169322 12.150031) (xy -1.241771 11.918013)
    (xy -2.248875 11.566124) (xy -3.190278 11.094598) (xy -4.065628 10.503666) (xy -4.874569 9.793561)
    (xy -5.616747 8.964514) (xy -6.154251 8.227688) (xy -6.726471 7.263247) (xy -7.189026 6.244739)
    (xy -7.544153 5.164001) (xy -7.794089 4.012865) (xy -7.941069 2.783168) (xy -7.987376 1.534499)
    (xy -7.949291 0.326585) (xy -7.829609 -0.787894) (xy -7.624527 -1.827736) (xy -7.330241 -2.81174)
    (xy -6.94295 -3.758705) (xy -6.896705 -3.856812) (xy -6.387234 -4.7739) (xy -5.761493 -5.6466)
    (xy -5.037211 -6.456849) (xy -4.232114 -7.186583) (xy -3.363933 -7.817739) (xy -2.554965 -8.280714)
    (xy -1.737738 -8.643324) (xy -0.918776 -8.905992) (xy -0.066377 -9.075867) (xy 0.851164 -9.160099)
    (xy 1.399732 -9.172519) (xy 2.187983 -9.148056)) (layer F.SilkS) (width 0.01))
  (fp_poly (pts (xy 15.752379 -3.65908) (xy 16.090681 -3.633472) (xy 17.058606 -3.504693) (xy 17.915805 -3.299292)
    (xy 18.666452 -3.014443) (xy 19.314723 -2.647319) (xy 19.864792 -2.195095) (xy 20.320836 -1.654943)
    (xy 20.68703 -1.024039) (xy 20.95443 -0.341398) (xy 21.022305 -0.123646) (xy 21.081411 0.080268)
    (xy 21.132444 0.281323) (xy 21.1761 0.490498) (xy 21.213076 0.718771) (xy 21.24407 0.977119)
    (xy 21.269778 1.276523) (xy 21.290897 1.627958) (xy 21.308123 2.042405) (xy 21.322154 2.530841)
    (xy 21.333685 3.104245) (xy 21.343415 3.773594) (xy 21.35204 4.549868) (xy 21.360256 5.444045)
    (xy 21.36613 6.145162) (xy 21.405646 10.958871) (xy 21.661694 11.422109) (xy 21.782939 11.645278)
    (xy 21.873166 11.818621) (xy 21.91621 11.910885) (xy 21.917742 11.917136) (xy 21.851951 11.924288)
    (xy 21.664529 11.930879) (xy 21.370403 11.936722) (xy 20.984502 11.941632) (xy 20.521752 11.945425)
    (xy 19.997083 11.947914) (xy 19.42542 11.948914) (xy 19.357259 11.948925) (xy 16.796775 11.948925)
    (xy 16.796775 11.368549) (xy 16.792409 11.106267) (xy 16.780757 10.905678) (xy 16.763992 10.798129)
    (xy 16.756582 10.788172) (xy 16.68881 10.829876) (xy 16.549329 10.939328) (xy 16.36804 11.09304)
    (xy 16.363975 11.096595) (xy 16.033145 11.3429) (xy 15.615334 11.590223) (xy 15.157751 11.814266)
    (xy 14.707608 11.990733) (xy 14.509409 12.051037) (xy 14.114979 12.127629) (xy 13.630995 12.176505)
    (xy 13.101761 12.196967) (xy 12.571581 12.188319) (xy 12.084762 12.149863) (xy 11.744087 12.094527)
    (xy 10.908637 11.849191) (xy 10.156509 11.499548) (xy 9.4926 11.049935) (xy 8.921804 10.504691)
    (xy 8.449016 9.868154) (xy 8.079133 9.14466) (xy 7.919563 8.705645) (xy 7.819559 8.278942)
    (xy 7.753284 7.766696) (xy 7.722619 7.21616) (xy 7.723628 7.136052) (xy 12.341533 7.136052)
    (xy 12.379827 7.545133) (xy 12.507338 7.885106) (xy 12.743013 8.20052) (xy 12.833529 8.293009)
    (xy 13.155302 8.543052) (xy 13.527213 8.703235) (xy 13.972785 8.780774) (xy 14.441998 8.786482)
    (xy 14.887037 8.748786) (xy 15.227782 8.675052) (xy 15.375766 8.619672) (xy 15.642489 8.46874)
    (xy 15.925094 8.256474) (xy 16.182939 8.018239) (xy 16.375378 7.789401) (xy 16.426479 7.705454)
    (xy 16.466203 7.587894) (xy 16.494446 7.400832) (xy 16.512524 7.126401) (xy 16.521752 6.74673)
    (xy 16.523656 6.385388) (xy 16.522366 5.964111) (xy 16.517153 5.659497) (xy 16.506006 5.451665)
    (xy 16.486915 5.320731) (xy 16.457867 5.246815) (xy 16.416853 5.210032) (xy 16.404167 5.204175)
    (xy 16.293928 5.186132) (xy 16.076503 5.171376) (xy 15.781253 5.161234) (xy 15.437537 5.157038)
    (xy 15.362904 5.157034) (xy 14.903466 5.164366) (xy 14.548519 5.186174) (xy 14.266479 5.225443)
    (xy 14.033507 5.282795) (xy 13.455616 5.501339) (xy 13.002434 5.770026) (xy 12.670038 6.093155)
    (xy 12.454504 6.475025) (xy 12.351907 6.919931) (xy 12.341533 7.136052) (xy 7.723628 7.136052)
    (xy 7.729442 6.674585) (xy 7.775633 6.189222) (xy 7.811662 5.99313) (xy 8.041726 5.265044)
    (xy 8.39156 4.595135) (xy 8.85456 3.98983) (xy 9.424122 3.455553) (xy 10.093643 2.99873)
    (xy 10.856519 2.625787) (xy 11.505108 2.399318) (xy 11.938586 2.28034) (xy 12.353207 2.187889)
    (xy 12.775824 2.118964) (xy 13.233295 2.070561) (xy 13.752475 2.039679) (xy 14.360219 2.023316)
    (xy 14.909682 2.018708) (xy 16.538987 2.014248) (xy 16.507775 1.524495) (xy 16.419144 0.993107)
    (xy 16.230604 0.536359) (xy 15.950184 0.165655) (xy 15.585911 -0.1076) (xy 15.265161 -0.240939)
    (xy 14.805589 -0.324975) (xy 14.258486 -0.337043) (xy 13.649501 -0.281591) (xy 13.004278 -0.16307)
    (xy 12.348464 0.014073) (xy 11.707706 0.245389) (xy 11.242062 0.456945) (xy 11.018029 0.565579)
    (xy 10.847148 0.641452) (xy 10.760245 0.671058) (xy 10.755528 0.670108) (xy 10.72554 0.603795)
    (xy 10.650657 0.428025) (xy 10.537926 0.159639) (xy 10.394394 -0.184525) (xy 10.227107 -0.587626)
    (xy 10.057062 -0.999011) (xy 9.377244 -2.646679) (xy 9.8608 -2.726103) (xy 10.070388 -2.765952)
    (xy 10.385458 -2.832882) (xy 10.779021 -2.920816) (xy 11.224085 -3.023679) (xy 11.69366 -3.135394)
    (xy 11.880646 -3.180792) (xy 12.689597 -3.368421) (xy 13.397832 -3.509094) (xy 14.031788 -3.605653)
    (xy 14.617906 -3.660942) (xy 15.182623 -3.677804) (xy 15.752379 -3.65908)) (layer F.SilkS) (width 0.01))
  (fp_poly (pts (xy 34.027419 -10.160954) (xy 34.608136 -10.158572) (xy 34.805511 -10.157369) (xy 37.519624 -10.139516)
    (xy 37.553764 0.273119) (xy 37.558273 1.685103) (xy 37.562272 2.967162) (xy 37.566017 4.125929)
    (xy 37.569766 5.168035) (xy 37.573775 6.100114) (xy 37.578301 6.928797) (xy 37.583601 7.660717)
    (xy 37.589932 8.302506) (xy 37.597551 8.860795) (xy 37.606714 9.342219) (xy 37.617679 9.753408)
    (xy 37.630702 10.100995) (xy 37.646041 10.391612) (xy 37.663951 10.631891) (xy 37.68469 10.828466)
    (xy 37.708515 10.987968) (xy 37.735682 11.117028) (xy 37.766449 11.222281) (xy 37.801072 11.310357)
    (xy 37.839808 11.38789) (xy 37.882914 11.461511) (xy 37.930647 11.537852) (xy 37.983264 11.623547)
    (xy 37.994049 11.6418) (xy 38.174991 11.950554) (xy 35.559942 11.93267) (xy 32.944893 11.914785)
    (xy 32.910753 11.340357) (xy 32.892165 11.064684) (xy 32.872794 10.905307) (xy 32.84651 10.842067)
    (xy 32.807183 10.854807) (xy 32.774194 10.891246) (xy 32.630493 11.023979) (xy 32.396284 11.194592)
    (xy 32.104564 11.3827) (xy 31.78833 11.567917) (xy 31.48058 11.729858) (xy 31.244285 11.836403)
    (xy 30.690687 12.011487) (xy 30.055518 12.135511) (xy 29.385668 12.203736) (xy 28.728028 12.211422)
    (xy 28.129489 12.153832) (xy 28.119634 12.152183) (xy 27.300634 11.946674) (xy 26.53397 11.619251)
    (xy 25.827038 11.176952) (xy 25.187231 10.626815) (xy 24.621946 9.975879) (xy 24.138576 9.231181)
    (xy 23.744516 8.39976) (xy 23.529961 7.783871) (xy 23.388473 7.268614) (xy 23.283547 6.769668)
    (xy 23.211974 6.256726) (xy 23.170547 5.699477) (xy 23.156058 5.067612) (xy 23.162476 4.551655)
    (xy 28.200815 4.551655) (xy 28.224657 5.416831) (xy 28.299868 6.161169) (xy 28.42876 6.791275)
    (xy 28.613648 7.313755) (xy 28.856846 7.735217) (xy 29.160667 8.062265) (xy 29.511366 8.293464)
    (xy 29.693852 8.379774) (xy 29.852119 8.431519) (xy 30.02857 8.455192) (xy 30.265608 8.457288)
    (xy 30.520968 8.448071) (xy 31.023155 8.403776) (xy 31.420338 8.317034) (xy 31.545162 8.273584)
    (xy 31.830188 8.145256) (xy 32.130808 7.984107) (xy 32.262097 7.903441) (xy 32.603495 7.679513)
    (xy 32.603495 0.581766) (xy 32.227957 0.356663) (xy 31.704231 0.102307) (xy 31.169148 -0.048121)
    (xy 30.642275 -0.09551) (xy 30.143184 -0.040746) (xy 29.691444 0.115283) (xy 29.306623 0.37169)
    (xy 29.182454 0.494766) (xy 28.883156 0.898029) (xy 28.640911 1.386177) (xy 28.453695 1.967578)
    (xy 28.319483 2.650597) (xy 28.236251 3.443603) (xy 28.201974 4.354961) (xy 28.200815 4.551655)
    (xy 23.162476 4.551655) (xy 23.165148 4.33689) (xy 23.222707 3.212897) (xy 23.338446 2.19907)
    (xy 23.515412 1.280642) (xy 23.756654 0.442844) (xy 24.065219 -0.329092) (xy 24.17533 -0.557945)
    (xy 24.618853 -1.304259) (xy 25.154827 -1.967481) (xy 25.77065 -2.536906) (xy 26.45372 -3.001829)
    (xy 27.191436 -3.351544) (xy 27.633649 -3.495804) (xy 28.067948 -3.581444) (xy 28.590513 -3.632397)
    (xy 29.157537 -3.648687) (xy 29.725213 -3.630334) (xy 30.249731 -3.577362) (xy 30.670881 -3.494261)
    (xy 31.172145 -3.331295) (xy 31.657988 -3.121732) (xy 32.083063 -2.8868) (xy 32.309303 -2.727354)
    (xy 32.465361 -2.60879) (xy 32.574635 -2.536597) (xy 32.599491 -2.526344) (xy 32.607198 -2.592397)
    (xy 32.614384 -2.781652) (xy 32.620889 -3.080753) (xy 32.626555 -3.476343) (xy 32.631221 -3.955066)
    (xy 32.634729 -4.503564) (xy 32.63692 -5.108483) (xy 32.637635 -5.724632) (xy 32.637236 -6.51381)
    (xy 32.635272 -7.179156) (xy 32.630598 -7.733397) (xy 32.622064 -8.189259) (xy 32.608524 -8.559469)
    (xy 32.58883 -8.856753) (xy 32.561835 -9.093837) (xy 32.52639 -9.283449) (xy 32.481349 -9.438314)
    (xy 32.425564 -9.57116) (xy 32.357886 -9.694712) (xy 32.27717 -9.821698) (xy 32.266785 -9.837421)
    (xy 32.162679 -10.001887) (xy 32.099825 -10.11498) (xy 32.091398 -10.138835) (xy 32.157258 -10.146362)
    (xy 32.345173 -10.152485) (xy 32.640645 -10.157104) (xy 33.029175 -10.160122) (xy 33.496266 -10.161438)
    (xy 34.027419 -10.160954)) (layer F.SilkS) (width 0.01))
  (fp_poly (pts (xy -13.557109 -14.737889) (xy -13.044354 -14.560106) (xy -12.56696 -14.280276) (xy -12.140606 -13.898436)
    (xy -11.780967 -13.414623) (xy -11.619417 -13.109677) (xy -11.479604 -12.683142) (xy -11.411836 -12.190723)
    (xy -11.419342 -11.684487) (xy -11.502665 -11.225751) (xy -11.730403 -10.66519) (xy -12.060644 -10.178944)
    (xy -12.476602 -9.776581) (xy -12.961493 -9.467667) (xy -13.498533 -9.261769) (xy -14.070936 -9.168456)
    (xy -14.661917 -9.197295) (xy -14.953225 -9.258925) (xy -15.520961 -9.479772) (xy -16.025202 -9.816775)
    (xy -16.453785 -10.259541) (xy -16.794548 -10.797683) (xy -16.823378 -10.856451) (xy -16.923042 -11.076987)
    (xy -16.98562 -11.262724) (xy -17.019596 -11.458662) (xy -17.033453 -11.7098) (xy -17.035752 -11.983064)
    (xy -17.031949 -12.311378) (xy -17.014784 -12.548726) (xy -16.975623 -12.740618) (xy -16.90583 -12.932565)
    (xy -16.81968 -13.121941) (xy -16.498342 -13.659524) (xy -16.102628 -14.0948) (xy -15.648215 -14.427808)
    (xy -15.15078 -14.658584) (xy -14.625999 -14.787165) (xy -14.08955 -14.813587) (xy -13.557109 -14.737889)) (layer F.SilkS) (width 0.01))
)
