(module KiCad-Logo_6mm_SilkScreen (layer F.Cu) (tedit 0)
  (descr "KiCad Logo")
  (tags "Logo KiCad")
  (attr virtual)
  (fp_text reference REF** (at 0 -5.08) (layer F.SilkS) hide
    (effects (font (size 1 1) (thickness 0.15)))
  )
  (fp_text value KiCad-Logo_6mm_SilkScreen (at 0 5.08) (layer F.Fab) hide
    (effects (font (size 1 1) (thickness 0.15)))
  )
  (fp_poly (pts (xy -5.955743 -2.526311) (xy -5.69122 -2.526275) (xy -5.568088 -2.52627) (xy -3.597189 -2.52627)
    (xy -3.597189 -2.41009) (xy -3.584789 -2.268709) (xy -3.547364 -2.138316) (xy -3.484577 -2.018138)
    (xy -3.396094 -1.907398) (xy -3.366157 -1.877489) (xy -3.258466 -1.792652) (xy -3.139725 -1.730779)
    (xy -3.01346 -1.691841) (xy -2.883197 -1.67581) (xy -2.752465 -1.682658) (xy -2.624788 -1.712357)
    (xy -2.503695 -1.76488) (xy -2.392712 -1.840197) (xy -2.342868 -1.885637) (xy -2.249983 -1.997048)
    (xy -2.181873 -2.119565) (xy -2.139129 -2.251785) (xy -2.122347 -2.392308) (xy -2.122124 -2.406133)
    (xy -2.121244 -2.526266) (xy -2.068443 -2.526268) (xy -2.021604 -2.519911) (xy -1.978817 -2.504444)
    (xy -1.975989 -2.502846) (xy -1.966325 -2.497832) (xy -1.957451 -2.493927) (xy -1.949335 -2.489993)
    (xy -1.941943 -2.484894) (xy -1.935245 -2.477492) (xy -1.929208 -2.466649) (xy -1.923801 -2.451228)
    (xy -1.91899 -2.430091) (xy -1.914745 -2.402101) (xy -1.911032 -2.366121) (xy -1.907821 -2.321013)
    (xy -1.905078 -2.26564) (xy -1.902772 -2.198863) (xy -1.900871 -2.119547) (xy -1.899342 -2.026553)
    (xy -1.898154 -1.918743) (xy -1.897274 -1.794981) (xy -1.89667 -1.654129) (xy -1.896311 -1.49505)
    (xy -1.896165 -1.316605) (xy -1.896198 -1.117658) (xy -1.89638 -0.897071) (xy -1.896677 -0.653707)
    (xy -1.897059 -0.386428) (xy -1.897492 -0.094097) (xy -1.897945 0.224424) (xy -1.897998 0.26323)
    (xy -1.898404 0.583782) (xy -1.898749 0.878012) (xy -1.899069 1.147056) (xy -1.8994 1.392052)
    (xy -1.899779 1.614137) (xy -1.900243 1.814447) (xy -1.900828 1.994119) (xy -1.90157 2.15429)
    (xy -1.902506 2.296098) (xy -1.903673 2.420679) (xy -1.905107 2.52917) (xy -1.906844 2.622707)
    (xy -1.908922 2.702429) (xy -1.911376 2.769472) (xy -1.914244 2.824973) (xy -1.917561 2.870068)
    (xy -1.921364 2.905895) (xy -1.92569 2.933591) (xy -1.930575 2.954293) (xy -1.936055 2.969137)
    (xy -1.942168 2.97926) (xy -1.94895 2.9858) (xy -1.956437 2.989893) (xy -1.964666 2.992676)
    (xy -1.973673 2.995287) (xy -1.983495 2.998862) (xy -1.985894 2.99995) (xy -1.993435 3.002396)
    (xy -2.006056 3.004642) (xy -2.024859 3.006698) (xy -2.050947 3.008572) (xy -2.085422 3.010271)
    (xy -2.129385 3.011803) (xy -2.183939 3.013177) (xy -2.250185 3.0144) (xy -2.329226 3.015481)
    (xy -2.422163 3.016427) (xy -2.530099 3.017247) (xy -2.654136 3.017947) (xy -2.795376 3.018538)
    (xy -2.954921 3.019025) (xy -3.133872 3.019419) (xy -3.333332 3.019725) (xy -3.554404 3.019953)
    (xy -3.798188 3.02011) (xy -4.065787 3.020205) (xy -4.358303 3.020245) (xy -4.676839 3.020238)
    (xy -4.780021 3.020228) (xy -5.105623 3.020176) (xy -5.404881 3.020091) (xy -5.678909 3.019963)
    (xy -5.928824 3.019785) (xy -6.15574 3.019548) (xy -6.360773 3.019242) (xy -6.545038 3.01886)
    (xy -6.70965 3.018392) (xy -6.855725 3.01783) (xy -6.984376 3.017165) (xy -7.096721 3.016388)
    (xy -7.193874 3.015491) (xy -7.27695 3.014465) (xy -7.347064 3.013301) (xy -7.405332 3.011991)
    (xy -7.452869 3.010525) (xy -7.49079 3.008896) (xy -7.52021 3.007093) (xy -7.542245 3.00511)
    (xy -7.55801 3.002936) (xy -7.56862 3.000563) (xy -7.574404 2.998391) (xy -7.584684 2.994056)
    (xy -7.594122 2.990859) (xy -7.602755 2.987665) (xy -7.610619 2.983338) (xy -7.617748 2.976744)
    (xy -7.624179 2.966747) (xy -7.629947 2.952212) (xy -7.635089 2.932003) (xy -7.63964 2.904985)
    (xy -7.643635 2.870023) (xy -7.647111 2.825981) (xy -7.650102 2.771724) (xy -7.652646 2.706117)
    (xy -7.654777 2.628024) (xy -7.656532 2.53631) (xy -7.657945 2.42984) (xy -7.658315 2.388973)
    (xy -7.291884 2.388973) (xy -5.996734 2.388973) (xy -6.021655 2.351217) (xy -6.046447 2.312417)
    (xy -6.06744 2.275469) (xy -6.084935 2.237788) (xy -6.09923 2.196788) (xy -6.110623 2.149883)
    (xy -6.119413 2.094487) (xy -6.125898 2.028016) (xy -6.130377 1.947883) (xy -6.13315 1.851502)
    (xy -6.134513 1.736289) (xy -6.134767 1.599657) (xy -6.134209 1.43902) (xy -6.133893 1.379382)
    (xy -6.130325 0.740041) (xy -5.725298 1.291449) (xy -5.610554 1.447876) (xy -5.511143 1.584088)
    (xy -5.42599 1.70189) (xy -5.354022 1.803084) (xy -5.294166 1.889477) (xy -5.245348 1.962874)
    (xy -5.206495 2.025077) (xy -5.176534 2.077893) (xy -5.154391 2.123125) (xy -5.138993 2.162578)
    (xy -5.129266 2.198058) (xy -5.124137 2.231368) (xy -5.122532 2.264313) (xy -5.123379 2.298697)
    (xy -5.123595 2.303019) (xy -5.128054 2.389031) (xy -3.708692 2.388973) (xy -3.814265 2.282522)
    (xy -3.842913 2.253406) (xy -3.87009 2.225076) (xy -3.896989 2.195968) (xy -3.924803 2.16452)
    (xy -3.954725 2.129169) (xy -3.987946 2.088354) (xy -4.025661 2.040511) (xy -4.06906 1.984079)
    (xy -4.119338 1.917494) (xy -4.177688 1.839195) (xy -4.2453 1.747619) (xy -4.323369 1.641204)
    (xy -4.413088 1.518387) (xy -4.515648 1.377605) (xy -4.632242 1.217297) (xy -4.727809 1.085798)
    (xy -4.847749 0.920596) (xy -4.95238 0.776152) (xy -5.042648 0.651094) (xy -5.119503 0.544052)
    (xy -5.183891 0.453654) (xy -5.236761 0.378529) (xy -5.27906 0.317304) (xy -5.311736 0.26861)
    (xy -5.335738 0.231074) (xy -5.352013 0.203325) (xy -5.361508 0.183992) (xy -5.365173 0.171703)
    (xy -5.364071 0.165242) (xy -5.350724 0.148048) (xy -5.321866 0.111655) (xy -5.27924 0.058224)
    (xy -5.224585 -0.010081) (xy -5.159644 -0.091097) (xy -5.086158 -0.18266) (xy -5.005868 -0.282608)
    (xy -4.920515 -0.388776) (xy -4.83184 -0.499003) (xy -4.741586 -0.611124) (xy -4.691944 -0.672756)
    (xy -3.459373 -0.672756) (xy -3.408146 -0.580081) (xy -3.356919 -0.487405) (xy -3.356919 2.203622)
    (xy -3.408146 2.296298) (xy -3.459373 2.388973) (xy -2.853396 2.388973) (xy -2.708734 2.388931)
    (xy -2.589244 2.388741) (xy -2.492642 2.388308) (xy -2.416642 2.387536) (xy -2.358957 2.38633)
    (xy -2.317301 2.384594) (xy -2.289389 2.382232) (xy -2.272935 2.37915) (xy -2.265652 2.375251)
    (xy -2.265255 2.37044) (xy -2.269458 2.364622) (xy -2.269501 2.364574) (xy -2.286813 2.339532)
    (xy -2.309736 2.298815) (xy -2.329981 2.258168) (xy -2.368379 2.176162) (xy -2.376211 -0.672756)
    (xy -3.459373 -0.672756) (xy -4.691944 -0.672756) (xy -4.651493 -0.722976) (xy -4.563302 -0.832396)
    (xy -4.478754 -0.937222) (xy -4.399592 -1.035289) (xy -4.327556 -1.124434) (xy -4.264387 -1.202495)
    (xy -4.211827 -1.267308) (xy -4.171617 -1.31671) (xy -4.148 -1.345513) (xy -4.05629 -1.453222)
    (xy -3.96806 -1.55042) (xy -3.886403 -1.633924) (xy -3.81441 -1.700552) (xy -3.763319 -1.741401)
    (xy -3.702907 -1.784865) (xy -5.092298 -1.784865) (xy -5.091908 -1.703334) (xy -5.095791 -1.643394)
    (xy -5.11039 -1.587823) (xy -5.132988 -1.535145) (xy -5.147678 -1.505385) (xy -5.163472 -1.475897)
    (xy -5.181814 -1.444724) (xy -5.204145 -1.409907) (xy -5.231909 -1.36949) (xy -5.266549 -1.321514)
    (xy -5.309507 -1.264022) (xy -5.362227 -1.195057) (xy -5.426151 -1.112661) (xy -5.502721 -1.014876)
    (xy -5.593381 -0.899745) (xy -5.699574 -0.76531) (xy -5.711568 -0.750141) (xy -6.130325 -0.220588)
    (xy -6.134378 -0.807078) (xy -6.135195 -0.982749) (xy -6.135021 -1.131468) (xy -6.133849 -1.253725)
    (xy -6.131669 -1.350011) (xy -6.128474 -1.420817) (xy -6.124256 -1.466631) (xy -6.122838 -1.475321)
    (xy -6.100591 -1.566865) (xy -6.071443 -1.649392) (xy -6.038182 -1.715747) (xy -6.0182 -1.74389)
    (xy -5.983722 -1.784865) (xy -6.637914 -1.784865) (xy -6.793969 -1.784731) (xy -6.924467 -1.784297)
    (xy -7.03131 -1.783511) (xy -7.116398 -1.782324) (xy -7.181635 -1.780683) (xy -7.228921 -1.778539)
    (xy -7.260157 -1.775841) (xy -7.277246 -1.772538) (xy -7.282088 -1.768579) (xy -7.281753 -1.767702)
    (xy -7.267885 -1.746769) (xy -7.244732 -1.713588) (xy -7.232754 -1.696807) (xy -7.220369 -1.68006)
    (xy -7.209237 -1.665085) (xy -7.199288 -1.650406) (xy -7.190451 -1.634551) (xy -7.182657 -1.616045)
    (xy -7.175835 -1.593415) (xy -7.169916 -1.565187) (xy -7.164829 -1.529887) (xy -7.160504 -1.486042)
    (xy -7.156871 -1.432178) (xy -7.15386 -1.36682) (xy -7.151401 -1.288496) (xy -7.149423 -1.195732)
    (xy -7.147858 -1.087053) (xy -7.146634 -0.960987) (xy -7.145681 -0.816058) (xy -7.14493 -0.650794)
    (xy -7.144311 -0.463721) (xy -7.143752 -0.253365) (xy -7.143185 -0.018252) (xy -7.142655 0.197741)
    (xy -7.142155 0.438535) (xy -7.141895 0.668274) (xy -7.141868 0.885493) (xy -7.142067 1.088722)
    (xy -7.142486 1.276496) (xy -7.143118 1.447345) (xy -7.143956 1.599803) (xy -7.144992 1.732403)
    (xy -7.14622 1.843676) (xy -7.147633 1.932156) (xy -7.149225 1.996375) (xy -7.150987 2.034865)
    (xy -7.151321 2.038933) (xy -7.163466 2.132248) (xy -7.182427 2.20719) (xy -7.211302 2.272594)
    (xy -7.25319 2.337293) (xy -7.258429 2.344352) (xy -7.291884 2.388973) (xy -7.658315 2.388973)
    (xy -7.659054 2.307479) (xy -7.659893 2.16809) (xy -7.660498 2.010539) (xy -7.660905 1.833691)
    (xy -7.66115 1.63641) (xy -7.661267 1.41756) (xy -7.661295 1.176007) (xy -7.661267 0.910615)
    (xy -7.66122 0.620249) (xy -7.66119 0.303773) (xy -7.661189 0.240946) (xy -7.661172 -0.078863)
    (xy -7.661112 -0.372339) (xy -7.661002 -0.64061) (xy -7.660833 -0.884802) (xy -7.660597 -1.106043)
    (xy -7.660284 -1.30546) (xy -7.659885 -1.48418) (xy -7.659393 -1.643329) (xy -7.658797 -1.784034)
    (xy -7.65809 -1.907424) (xy -7.657263 -2.014624) (xy -7.656307 -2.106762) (xy -7.655213 -2.184965)
    (xy -7.653973 -2.250359) (xy -7.652578 -2.304072) (xy -7.651018 -2.347231) (xy -7.649286 -2.380963)
    (xy -7.647372 -2.406395) (xy -7.645268 -2.424653) (xy -7.642966 -2.436866) (xy -7.640455 -2.444159)
    (xy -7.640363 -2.444341) (xy -7.635192 -2.455482) (xy -7.630885 -2.465569) (xy -7.626121 -2.474654)
    (xy -7.619578 -2.482788) (xy -7.609935 -2.490024) (xy -7.595871 -2.496414) (xy -7.576063 -2.502011)
    (xy -7.549191 -2.506867) (xy -7.513933 -2.511034) (xy -7.468968 -2.514564) (xy -7.412974 -2.517509)
    (xy -7.344629 -2.519923) (xy -7.262614 -2.521856) (xy -7.165605 -2.523362) (xy -7.052282 -2.524492)
    (xy -6.921323 -2.525298) (xy -6.771407 -2.525834) (xy -6.601213 -2.526151) (xy -6.409418 -2.526301)
    (xy -6.194702 -2.526337) (xy -5.955743 -2.526311)) (layer F.SilkS) (width 0.01))
  (fp_poly (pts (xy 0.439962 -1.839501) (xy 0.588014 -1.823293) (xy 0.731452 -1.794282) (xy 0.87611 -1.750955)
    (xy 1.027824 -1.691799) (xy 1.192428 -1.6153) (xy 1.222071 -1.600483) (xy 1.290098 -1.566969)
    (xy 1.354256 -1.536792) (xy 1.408215 -1.512834) (xy 1.44564 -1.497976) (xy 1.451389 -1.496105)
    (xy 1.506486 -1.479598) (xy 1.259851 -1.120799) (xy 1.199552 -1.033107) (xy 1.144422 -0.952988)
    (xy 1.096336 -0.883164) (xy 1.057168 -0.826353) (xy 1.028794 -0.785277) (xy 1.013087 -0.762654)
    (xy 1.010536 -0.759072) (xy 1.000171 -0.766562) (xy 0.97466 -0.789082) (xy 0.938563 -0.822539)
    (xy 0.918642 -0.84145) (xy 0.805773 -0.931222) (xy 0.679014 -0.999439) (xy 0.569783 -1.036805)
    (xy 0.504214 -1.04854) (xy 0.422116 -1.055692) (xy 0.333144 -1.058126) (xy 0.246956 -1.055712)
    (xy 0.173205 -1.048317) (xy 0.143776 -1.042653) (xy 0.011133 -0.997018) (xy -0.108394 -0.927337)
    (xy -0.214717 -0.83374) (xy -0.307747 -0.716351) (xy -0.387395 -0.5753) (xy -0.453574 -0.410714)
    (xy -0.506194 -0.22272) (xy -0.537467 -0.061783) (xy -0.545626 0.009263) (xy -0.551185 0.101046)
    (xy -0.554198 0.206968) (xy -0.554719 0.320434) (xy -0.5528 0.434849) (xy -0.548497 0.543617)
    (xy -0.541863 0.640143) (xy -0.532951 0.717831) (xy -0.531021 0.729817) (xy -0.488501 0.922892)
    (xy -0.430567 1.093773) (xy -0.356867 1.243224) (xy -0.267049 1.372011) (xy -0.203293 1.441639)
    (xy -0.088714 1.536173) (xy 0.036942 1.606246) (xy 0.171557 1.651477) (xy 0.313011 1.671484)
    (xy 0.459183 1.665885) (xy 0.607955 1.6343) (xy 0.695911 1.603394) (xy 0.817629 1.541506)
    (xy 0.94308 1.452729) (xy 1.013353 1.392694) (xy 1.052811 1.357947) (xy 1.083812 1.332454)
    (xy 1.101458 1.32017) (xy 1.103648 1.319795) (xy 1.111524 1.332347) (xy 1.131932 1.365516)
    (xy 1.163132 1.416458) (xy 1.203386 1.482331) (xy 1.250957 1.560289) (xy 1.304104 1.64749)
    (xy 1.333687 1.696067) (xy 1.559648 2.067215) (xy 1.277527 2.206639) (xy 1.175522 2.256719)
    (xy 1.092889 2.29621) (xy 1.024578 2.327073) (xy 0.965537 2.351268) (xy 0.910714 2.370758)
    (xy 0.85506 2.387503) (xy 0.793523 2.403465) (xy 0.73454 2.417482) (xy 0.682115 2.428329)
    (xy 0.627288 2.436526) (xy 0.564572 2.442528) (xy 0.488477 2.44679) (xy 0.393516 2.449767)
    (xy 0.329513 2.451052) (xy 0.238192 2.45193) (xy 0.150627 2.451487) (xy 0.072612 2.449852)
    (xy 0.009942 2.447149) (xy -0.031587 2.443505) (xy -0.034048 2.443142) (xy -0.249697 2.396487)
    (xy -0.452207 2.325729) (xy -0.641505 2.230914) (xy -0.817521 2.112089) (xy -0.980184 1.9693)
    (xy -1.129422 1.802594) (xy -1.237504 1.654433) (xy -1.352566 1.460502) (xy -1.445577 1.255699)
    (xy -1.516987 1.038383) (xy -1.567244 0.806912) (xy -1.596799 0.559643) (xy -1.606111 0.308559)
    (xy -1.598452 0.06567) (xy -1.574387 -0.15843) (xy -1.533148 -0.367523) (xy -1.473973 -0.565387)
    (xy -1.396096 -0.755804) (xy -1.386797 -0.775532) (xy -1.284352 -0.959941) (xy -1.158528 -1.135424)
    (xy -1.012888 -1.29835) (xy -0.850999 -1.445086) (xy -0.676424 -1.571999) (xy -0.513756 -1.665095)
    (xy -0.349427 -1.738009) (xy -0.184749 -1.790826) (xy -0.013348 -1.824985) (xy 0.171153 -1.841922)
    (xy 0.281459 -1.84442) (xy 0.439962 -1.839501)) (layer F.SilkS) (width 0.01))
  (fp_poly (pts (xy 3.167505 -0.735771) (xy 3.235531 -0.730622) (xy 3.430163 -0.704727) (xy 3.602529 -0.663425)
    (xy 3.75347 -0.606147) (xy 3.883825 -0.532326) (xy 3.994434 -0.441392) (xy 4.086135 -0.332778)
    (xy 4.15977 -0.205915) (xy 4.213539 -0.068648) (xy 4.227187 -0.024863) (xy 4.239073 0.016141)
    (xy 4.249334 0.056569) (xy 4.258113 0.09863) (xy 4.265548 0.144531) (xy 4.27178 0.19648)
    (xy 4.27695 0.256685) (xy 4.281196 0.327352) (xy 4.28466 0.410689) (xy 4.287481 0.508905)
    (xy 4.2898 0.624205) (xy 4.291757 0.758799) (xy 4.293491 0.914893) (xy 4.295143 1.094695)
    (xy 4.296324 1.235676) (xy 4.30427 2.203622) (xy 4.355756 2.29677) (xy 4.380137 2.341645)
    (xy 4.39828 2.376501) (xy 4.406935 2.395054) (xy 4.407243 2.396311) (xy 4.394014 2.397749)
    (xy 4.356326 2.399074) (xy 4.297183 2.400249) (xy 4.219586 2.401237) (xy 4.126536 2.401999)
    (xy 4.021035 2.4025) (xy 3.906084 2.402701) (xy 3.892378 2.402703) (xy 3.377513 2.402703)
    (xy 3.377513 2.286) (xy 3.376635 2.23326) (xy 3.374292 2.192926) (xy 3.370921 2.1713)
    (xy 3.369431 2.169298) (xy 3.355804 2.177683) (xy 3.327757 2.199692) (xy 3.291303 2.230601)
    (xy 3.290485 2.231316) (xy 3.223962 2.280843) (xy 3.139948 2.330575) (xy 3.047937 2.375626)
    (xy 2.957421 2.41111) (xy 2.917567 2.423236) (xy 2.838255 2.438637) (xy 2.740935 2.448465)
    (xy 2.634516 2.45258) (xy 2.527907 2.450841) (xy 2.430017 2.443108) (xy 2.361513 2.431981)
    (xy 2.19352 2.382648) (xy 2.042281 2.312342) (xy 1.908782 2.221933) (xy 1.794006 2.112295)
    (xy 1.698937 1.984299) (xy 1.62456 1.838818) (xy 1.592474 1.750541) (xy 1.572365 1.664739)
    (xy 1.559038 1.561736) (xy 1.552872 1.451034) (xy 1.553074 1.434925) (xy 2.481648 1.434925)
    (xy 2.489348 1.517184) (xy 2.514989 1.585546) (xy 2.562378 1.64897) (xy 2.580579 1.667567)
    (xy 2.645282 1.717846) (xy 2.720066 1.750056) (xy 2.809662 1.765648) (xy 2.904012 1.766796)
    (xy 2.993501 1.759216) (xy 3.062018 1.744389) (xy 3.091775 1.733253) (xy 3.145408 1.702904)
    (xy 3.202235 1.660221) (xy 3.254082 1.612317) (xy 3.292778 1.566301) (xy 3.303054 1.549421)
    (xy 3.311042 1.525782) (xy 3.316721 1.488168) (xy 3.320356 1.432985) (xy 3.322211 1.35664)
    (xy 3.322594 1.283981) (xy 3.322335 1.19927) (xy 3.321287 1.138018) (xy 3.319045 1.096227)
    (xy 3.315206 1.069899) (xy 3.309365 1.055035) (xy 3.301118 1.047639) (xy 3.298567 1.046461)
    (xy 3.2764 1.042833) (xy 3.23268 1.039866) (xy 3.173311 1.037827) (xy 3.104196 1.036983)
    (xy 3.089189 1.036982) (xy 2.996805 1.038457) (xy 2.925432 1.042842) (xy 2.868719 1.050738)
    (xy 2.821872 1.06227) (xy 2.705669 1.106215) (xy 2.614543 1.160243) (xy 2.547705 1.225219)
    (xy 2.504365 1.302005) (xy 2.483734 1.391467) (xy 2.481648 1.434925) (xy 1.553074 1.434925)
    (xy 1.554244 1.342133) (xy 1.563532 1.244536) (xy 1.570777 1.205105) (xy 1.617039 1.058701)
    (xy 1.687384 0.923995) (xy 1.780484 0.80228) (xy 1.895012 0.694847) (xy 2.02964 0.602988)
    (xy 2.18304 0.527996) (xy 2.313459 0.482458) (xy 2.400623 0.458533) (xy 2.483996 0.439943)
    (xy 2.568976 0.426084) (xy 2.660965 0.416351) (xy 2.765362 0.410141) (xy 2.887568 0.406851)
    (xy 2.998055 0.405924) (xy 3.325677 0.405027) (xy 3.319401 0.306547) (xy 3.301579 0.199695)
    (xy 3.263667 0.107852) (xy 3.20728 0.03331) (xy 3.134031 -0.021636) (xy 3.069535 -0.048448)
    (xy 2.977123 -0.065346) (xy 2.867111 -0.067773) (xy 2.744656 -0.056622) (xy 2.614914 -0.03279)
    (xy 2.483042 0.00283) (xy 2.354198 0.049343) (xy 2.260566 0.091883) (xy 2.215517 0.113728)
    (xy 2.181156 0.128984) (xy 2.163681 0.134937) (xy 2.162733 0.134746) (xy 2.156703 0.121412)
    (xy 2.141645 0.086068) (xy 2.118977 0.032101) (xy 2.090115 -0.037104) (xy 2.056477 -0.11816)
    (xy 2.022284 -0.200882) (xy 1.885586 -0.532197) (xy 1.98282 -0.548167) (xy 2.024964 -0.55618)
    (xy 2.088319 -0.569639) (xy 2.167457 -0.587321) (xy 2.256951 -0.608004) (xy 2.351373 -0.630468)
    (xy 2.388973 -0.639597) (xy 2.551637 -0.677326) (xy 2.69405 -0.705612) (xy 2.821527 -0.725028)
    (xy 2.939384 -0.736146) (xy 3.052938 -0.739536) (xy 3.167505 -0.735771)) (layer F.SilkS) (width 0.01))
  (fp_poly (pts (xy 6.84227 -2.043175) (xy 6.959041 -2.042696) (xy 6.998729 -2.042455) (xy 7.544486 -2.038865)
    (xy 7.551351 0.054919) (xy 7.552258 0.338842) (xy 7.553062 0.59664) (xy 7.553815 0.829646)
    (xy 7.554569 1.039194) (xy 7.555375 1.226618) (xy 7.556285 1.39325) (xy 7.557351 1.540425)
    (xy 7.558624 1.669477) (xy 7.560156 1.781739) (xy 7.561998 1.878544) (xy 7.564203 1.961226)
    (xy 7.566822 2.031119) (xy 7.569906 2.089557) (xy 7.573508 2.137872) (xy 7.577678 2.1774)
    (xy 7.582469 2.209473) (xy 7.587931 2.235424) (xy 7.594118 2.256589) (xy 7.60108 2.274299)
    (xy 7.608869 2.289889) (xy 7.617537 2.304693) (xy 7.627135 2.320044) (xy 7.637715 2.337276)
    (xy 7.639884 2.340946) (xy 7.676268 2.403031) (xy 7.150431 2.399434) (xy 6.624594 2.395838)
    (xy 6.617729 2.280331) (xy 6.613992 2.224899) (xy 6.610097 2.192851) (xy 6.604811 2.180135)
    (xy 6.596903 2.182696) (xy 6.59027 2.190024) (xy 6.561374 2.216714) (xy 6.514279 2.251021)
    (xy 6.45562 2.288846) (xy 6.392031 2.32609) (xy 6.330149 2.358653) (xy 6.282634 2.380077)
    (xy 6.171316 2.415283) (xy 6.043596 2.440222) (xy 5.908901 2.453941) (xy 5.776663 2.455486)
    (xy 5.656308 2.443906) (xy 5.654326 2.443574) (xy 5.489641 2.40225) (xy 5.335479 2.336412)
    (xy 5.193328 2.247474) (xy 5.064675 2.136852) (xy 4.951007 2.005961) (xy 4.85381 1.856216)
    (xy 4.774572 1.689033) (xy 4.73143 1.56519) (xy 4.702979 1.461581) (xy 4.68188 1.361252)
    (xy 4.667488 1.258109) (xy 4.659158 1.146057) (xy 4.656245 1.019001) (xy 4.657535 0.915252)
    (xy 5.67065 0.915252) (xy 5.675444 1.089222) (xy 5.690568 1.238895) (xy 5.716485 1.365597)
    (xy 5.753663 1.470658) (xy 5.802565 1.555406) (xy 5.863658 1.621169) (xy 5.934177 1.667659)
    (xy 5.970871 1.685014) (xy 6.002696 1.695419) (xy 6.038177 1.700179) (xy 6.085841 1.700601)
    (xy 6.137189 1.698748) (xy 6.238169 1.689841) (xy 6.318035 1.672398) (xy 6.343135 1.663661)
    (xy 6.400448 1.637857) (xy 6.460897 1.605453) (xy 6.487297 1.589233) (xy 6.555946 1.544205)
    (xy 6.555946 0.116982) (xy 6.480432 0.071718) (xy 6.375121 0.020572) (xy 6.267525 -0.009676)
    (xy 6.161581 -0.019205) (xy 6.061224 -0.008193) (xy 5.970387 0.023181) (xy 5.893007 0.07474)
    (xy 5.868039 0.099488) (xy 5.807856 0.180577) (xy 5.759145 0.278734) (xy 5.721499 0.395643)
    (xy 5.694512 0.532985) (xy 5.677775 0.692444) (xy 5.670883 0.8757) (xy 5.67065 0.915252)
    (xy 4.657535 0.915252) (xy 4.658073 0.872067) (xy 4.669647 0.646053) (xy 4.69292 0.442192)
    (xy 4.728504 0.257513) (xy 4.777013 0.089048) (xy 4.83906 -0.066174) (xy 4.861201 -0.112192)
    (xy 4.950385 -0.262261) (xy 5.058159 -0.395623) (xy 5.18199 -0.510123) (xy 5.319342 -0.603611)
    (xy 5.467683 -0.673932) (xy 5.556604 -0.70294) (xy 5.643933 -0.72016) (xy 5.749011 -0.730406)
    (xy 5.863029 -0.733682) (xy 5.977177 -0.729991) (xy 6.082648 -0.71934) (xy 6.167334 -0.70263)
    (xy 6.268128 -0.66986) (xy 6.365822 -0.627721) (xy 6.451296 -0.580481) (xy 6.496789 -0.548419)
    (xy 6.528169 -0.524578) (xy 6.550142 -0.510061) (xy 6.555141 -0.508) (xy 6.55669 -0.521282)
    (xy 6.558135 -0.559337) (xy 6.559443 -0.619481) (xy 6.560583 -0.699027) (xy 6.561521 -0.795289)
    (xy 6.562226 -0.905581) (xy 6.562667 -1.027219) (xy 6.562811 -1.151115) (xy 6.56273 -1.309804)
    (xy 6.562335 -1.443592) (xy 6.561395 -1.55504) (xy 6.55968 -1.646705) (xy 6.556957 -1.721147)
    (xy 6.552997 -1.780925) (xy 6.547569 -1.828598) (xy 6.540441 -1.866726) (xy 6.531384 -1.897866)
    (xy 6.520167 -1.924579) (xy 6.506558 -1.949423) (xy 6.490328 -1.974957) (xy 6.48824 -1.978119)
    (xy 6.467306 -2.01119) (xy 6.454667 -2.033931) (xy 6.452973 -2.038728) (xy 6.466216 -2.040241)
    (xy 6.504002 -2.041472) (xy 6.563416 -2.042401) (xy 6.641542 -2.043008) (xy 6.735465 -2.043273)
    (xy 6.84227 -2.043175)) (layer F.SilkS) (width 0.01))
  (fp_poly (pts (xy -2.726079 -2.96351) (xy -2.622973 -2.927762) (xy -2.526978 -2.871493) (xy -2.441247 -2.794712)
    (xy -2.36893 -2.697427) (xy -2.336445 -2.636108) (xy -2.308332 -2.55034) (xy -2.294705 -2.451323)
    (xy -2.296214 -2.349529) (xy -2.312969 -2.257286) (xy -2.358763 -2.144568) (xy -2.425168 -2.046793)
    (xy -2.508809 -1.965885) (xy -2.606312 -1.903768) (xy -2.7143 -1.862366) (xy -2.829399 -1.843603)
    (xy -2.948234 -1.849402) (xy -3.006811 -1.861794) (xy -3.120972 -1.906203) (xy -3.222365 -1.973967)
    (xy -3.308545 -2.062999) (xy -3.377066 -2.171209) (xy -3.382864 -2.183027) (xy -3.402904 -2.227372)
    (xy -3.415487 -2.26472) (xy -3.422319 -2.30412) (xy -3.425105 -2.354619) (xy -3.425568 -2.409567)
    (xy -3.424803 -2.475585) (xy -3.421352 -2.523311) (xy -3.413477 -2.561897) (xy -3.399443 -2.600494)
    (xy -3.38212 -2.638574) (xy -3.317505 -2.746672) (xy -3.237934 -2.834197) (xy -3.14656 -2.901159)
    (xy -3.046536 -2.947564) (xy -2.941012 -2.973419) (xy -2.833142 -2.978732) (xy -2.726079 -2.96351)) (layer F.SilkS) (width 0.01))
)
