(module KiCad-Logo_8mm_SilkScreen (layer F.Cu) (tedit 0)
  (descr "KiCad Logo")
  (tags "Logo KiCad")
  (attr virtual)
  (fp_text reference REF** (at 0 -6.35) (layer F.SilkS) hide
    (effects (font (size 1 1) (thickness 0.15)))
  )
  (fp_text value KiCad-Logo_8mm_SilkScreen (at 0 6.35) (layer F.Fab) hide
    (effects (font (size 1 1) (thickness 0.15)))
  )
  (fp_poly (pts (xy -7.870089 -3.33834) (xy -7.52054 -3.338293) (xy -7.35783 -3.338286) (xy -4.753429 -3.338285)
    (xy -4.753429 -3.184762) (xy -4.737043 -2.997937) (xy -4.687588 -2.825633) (xy -4.60462 -2.666825)
    (xy -4.487695 -2.52049) (xy -4.448136 -2.480968) (xy -4.30583 -2.368862) (xy -4.148922 -2.287101)
    (xy -3.982072 -2.235647) (xy -3.809939 -2.214463) (xy -3.637185 -2.223513) (xy -3.46847 -2.262758)
    (xy -3.308454 -2.332162) (xy -3.161798 -2.431689) (xy -3.095932 -2.491735) (xy -2.973192 -2.638957)
    (xy -2.883188 -2.800853) (xy -2.826706 -2.975573) (xy -2.804529 -3.161265) (xy -2.804234 -3.179533)
    (xy -2.803072 -3.33828) (xy -2.7333 -3.338283) (xy -2.671405 -3.329882) (xy -2.614865 -3.309444)
    (xy -2.611128 -3.307333) (xy -2.598358 -3.300707) (xy -2.586632 -3.295546) (xy -2.575906 -3.290349)
    (xy -2.566139 -3.28361) (xy -2.557288 -3.273829) (xy -2.549311 -3.2595) (xy -2.542165 -3.239122)
    (xy -2.535808 -3.211192) (xy -2.530198 -3.174205) (xy -2.525293 -3.12666) (xy -2.521049 -3.067053)
    (xy -2.517424 -2.993881) (xy -2.514377 -2.905641) (xy -2.511864 -2.80083) (xy -2.509844 -2.677945)
    (xy -2.508274 -2.535483) (xy -2.507112 -2.37194) (xy -2.506314 -2.185814) (xy -2.50584 -1.975602)
    (xy -2.505646 -1.7398) (xy -2.50569 -1.476906) (xy -2.50593 -1.185416) (xy -2.506323 -0.863828)
    (xy -2.506827 -0.510638) (xy -2.5074 -0.124343) (xy -2.507999 0.29656) (xy -2.508068 0.34784)
    (xy -2.508605 0.771426) (xy -2.509061 1.16023) (xy -2.509484 1.515753) (xy -2.509921 1.839498)
    (xy -2.510422 2.132966) (xy -2.511035 2.397661) (xy -2.511808 2.635085) (xy -2.512789 2.84674)
    (xy -2.514026 3.034129) (xy -2.515568 3.198754) (xy -2.517463 3.342117) (xy -2.519759 3.46572)
    (xy -2.522504 3.571067) (xy -2.525747 3.659659) (xy -2.529536 3.733) (xy -2.533919 3.79259)
    (xy -2.538945 3.839933) (xy -2.544661 3.876531) (xy -2.551116 3.903886) (xy -2.558359 3.923502)
    (xy -2.566437 3.936879) (xy -2.575398 3.945521) (xy -2.585292 3.95093) (xy -2.596165 3.954608)
    (xy -2.608067 3.958058) (xy -2.621046 3.962782) (xy -2.624217 3.96422) (xy -2.634181 3.967451)
    (xy -2.650859 3.97042) (xy -2.675707 3.973137) (xy -2.71018 3.975613) (xy -2.755736 3.977858)
    (xy -2.81383 3.979883) (xy -2.885919 3.981698) (xy -2.973458 3.983315) (xy -3.077905 3.984743)
    (xy -3.200715 3.985993) (xy -3.343345 3.987076) (xy -3.507251 3.988002) (xy -3.69389 3.988782)
    (xy -3.904716 3.989426) (xy -4.141188 3.989946) (xy -4.404761 3.990351) (xy -4.69689 3.990652)
    (xy -5.019034 3.99086) (xy -5.372647 3.990985) (xy -5.759186 3.991038) (xy -6.180108 3.991029)
    (xy -6.316456 3.991016) (xy -6.746716 3.990947) (xy -7.142164 3.990834) (xy -7.504273 3.990665)
    (xy -7.834517 3.99043) (xy -8.134371 3.990116) (xy -8.405308 3.989713) (xy -8.6488 3.989207)
    (xy -8.866323 3.988589) (xy -9.05935 3.987846) (xy -9.229354 3.986968) (xy -9.37781 3.985941)
    (xy -9.50619 3.984756) (xy -9.615969 3.9834) (xy -9.70862 3.981862) (xy -9.785617 3.98013)
    (xy -9.848434 3.978194) (xy -9.898544 3.97604) (xy -9.937421 3.973659) (xy -9.966538 3.971037)
    (xy -9.987371 3.968165) (xy -10.001391 3.96503) (xy -10.009034 3.962159) (xy -10.022618 3.95643)
    (xy -10.03509 3.952206) (xy -10.046498 3.947985) (xy -10.056889 3.942268) (xy -10.066309 3.933555)
    (xy -10.074808 3.920345) (xy -10.08243 3.901137) (xy -10.089225 3.874433) (xy -10.095238 3.83873)
    (xy -10.100517 3.79253) (xy -10.10511 3.734332) (xy -10.109064 3.662635) (xy -10.112425 3.57594)
    (xy -10.115241 3.472746) (xy -10.11756 3.351553) (xy -10.119428 3.21086) (xy -10.119916 3.156857)
    (xy -9.635704 3.156857) (xy -7.924256 3.156857) (xy -7.957187 3.106964) (xy -7.989947 3.055693)
    (xy -8.017689 3.006869) (xy -8.040807 2.957076) (xy -8.059697 2.902898) (xy -8.074751 2.840916)
    (xy -8.086367 2.767715) (xy -8.094936 2.679878) (xy -8.100856 2.573988) (xy -8.104519 2.446628)
    (xy -8.106321 2.294381) (xy -8.106656 2.113832) (xy -8.105919 1.901562) (xy -8.105501 1.822755)
    (xy -8.100786 0.977911) (xy -7.565572 1.706557) (xy -7.413946 1.913265) (xy -7.282581 2.09326)
    (xy -7.170057 2.248925) (xy -7.074957 2.382647) (xy -6.995862 2.496809) (xy -6.931353 2.593797)
    (xy -6.880012 2.675994) (xy -6.84042 2.745786) (xy -6.81116 2.805558) (xy -6.790812 2.857693)
    (xy -6.777958 2.904576) (xy -6.771181 2.948593) (xy -6.76906 2.992127) (xy -6.770179 3.037564)
    (xy -6.770464 3.043275) (xy -6.776357 3.156933) (xy -4.900771 3.156857) (xy -5.040278 3.016189)
    (xy -5.078135 2.977715) (xy -5.114047 2.940279) (xy -5.149593 2.901814) (xy -5.186347 2.860258)
    (xy -5.225886 2.813545) (xy -5.269786 2.75961) (xy -5.319623 2.69639) (xy -5.376972 2.621818)
    (xy -5.443411 2.533832) (xy -5.520515 2.430365) (xy -5.609861 2.309354) (xy -5.713024 2.168734)
    (xy -5.83158 2.00644) (xy -5.967105 1.820407) (xy -6.121177 1.608571) (xy -6.247462 1.434804)
    (xy -6.405954 1.216501) (xy -6.544216 1.025629) (xy -6.663499 0.860374) (xy -6.765057 0.718926)
    (xy -6.850141 0.599471) (xy -6.920005 0.500198) (xy -6.9759 0.419295) (xy -7.01908 0.354949)
    (xy -7.050797 0.305347) (xy -7.072302 0.268679) (xy -7.08485 0.243132) (xy -7.089692 0.226893)
    (xy -7.088237 0.218355) (xy -7.070599 0.195635) (xy -7.032466 0.147543) (xy -6.976138 0.076938)
    (xy -6.903916 -0.013322) (xy -6.818101 -0.120379) (xy -6.720994 -0.241373) (xy -6.614896 -0.373446)
    (xy -6.502109 -0.51374) (xy -6.384932 -0.659397) (xy -6.265667 -0.807556) (xy -6.200067 -0.889)
    (xy -4.571314 -0.889) (xy -4.503621 -0.766535) (xy -4.435929 -0.644071) (xy -4.435929 2.911929)
    (xy -4.503621 3.034393) (xy -4.571314 3.156857) (xy -3.770559 3.156857) (xy -3.579398 3.156802)
    (xy -3.421501 3.156551) (xy -3.293848 3.155979) (xy -3.193419 3.154959) (xy -3.117193 3.153365)
    (xy -3.062148 3.15107) (xy -3.025264 3.14795) (xy -3.003521 3.143877) (xy -2.993898 3.138725)
    (xy -2.993373 3.132367) (xy -2.998926 3.124679) (xy -2.998984 3.124615) (xy -3.02186 3.091524)
    (xy -3.052151 3.037719) (xy -3.078903 2.984008) (xy -3.129643 2.875643) (xy -3.134818 0.993322)
    (xy -3.139993 -0.889) (xy -4.571314 -0.889) (xy -6.200067 -0.889) (xy -6.146615 -0.955361)
    (xy -6.030077 -1.099953) (xy -5.918354 -1.238472) (xy -5.813746 -1.368061) (xy -5.718556 -1.48586)
    (xy -5.635083 -1.589012) (xy -5.565629 -1.674657) (xy -5.512494 -1.739938) (xy -5.481285 -1.778)
    (xy -5.360097 -1.92033) (xy -5.243507 -2.04877) (xy -5.135603 -2.159114) (xy -5.04047 -2.247159)
    (xy -4.972957 -2.301138) (xy -4.893127 -2.358571) (xy -6.729108 -2.358571) (xy -6.728592 -2.250835)
    (xy -6.733724 -2.171628) (xy -6.753015 -2.098195) (xy -6.782877 -2.028585) (xy -6.802288 -1.989259)
    (xy -6.823159 -1.950293) (xy -6.847396 -1.909099) (xy -6.876906 -1.863092) (xy -6.913594 -1.809683)
    (xy -6.959368 -1.746286) (xy -7.016135 -1.670315) (xy -7.0858 -1.579183) (xy -7.17027 -1.470302)
    (xy -7.271453 -1.341086) (xy -7.391253 -1.188948) (xy -7.531579 -1.011302) (xy -7.547429 -0.991258)
    (xy -8.100786 -0.291492) (xy -8.106143 -1.066496) (xy -8.107221 -1.298632) (xy -8.106992 -1.495154)
    (xy -8.105443 -1.656708) (xy -8.102563 -1.783944) (xy -8.098341 -1.877508) (xy -8.092766 -1.938048)
    (xy -8.090893 -1.949532) (xy -8.061495 -2.070501) (xy -8.022978 -2.179554) (xy -7.979026 -2.267237)
    (xy -7.952621 -2.304426) (xy -7.90706 -2.358571) (xy -8.77153 -2.358571) (xy -8.977745 -2.358395)
    (xy -9.150188 -2.357821) (xy -9.291373 -2.356783) (xy -9.403812 -2.355213) (xy -9.490017 -2.353046)
    (xy -9.552502 -2.350212) (xy -9.593779 -2.346647) (xy -9.61636 -2.342282) (xy -9.622759 -2.337051)
    (xy -9.622317 -2.335893) (xy -9.603991 -2.308231) (xy -9.573396 -2.264385) (xy -9.557567 -2.242209)
    (xy -9.541202 -2.22008) (xy -9.526492 -2.200291) (xy -9.513344 -2.180894) (xy -9.501667 -2.159942)
    (xy -9.491368 -2.135488) (xy -9.482354 -2.105584) (xy -9.474532 -2.068283) (xy -9.467809 -2.021637)
    (xy -9.462094 -1.963699) (xy -9.457293 -1.892521) (xy -9.453315 -1.806156) (xy -9.450065 -1.702656)
    (xy -9.447452 -1.580075) (xy -9.445383 -1.436463) (xy -9.443766 -1.269875) (xy -9.442507 -1.078363)
    (xy -9.441515 -0.859978) (xy -9.440696 -0.612774) (xy -9.439958 -0.334804) (xy -9.439209 -0.024119)
    (xy -9.438508 0.2613) (xy -9.437847 0.579492) (xy -9.437503 0.883077) (xy -9.437468 1.170115)
    (xy -9.437732 1.438669) (xy -9.438285 1.686798) (xy -9.43912 1.912563) (xy -9.440227 2.114026)
    (xy -9.441596 2.289246) (xy -9.443219 2.436286) (xy -9.445087 2.553206) (xy -9.447189 2.638067)
    (xy -9.449518 2.688929) (xy -9.449959 2.694304) (xy -9.466008 2.817613) (xy -9.491064 2.916644)
    (xy -9.529221 3.00307) (xy -9.584572 3.088565) (xy -9.591496 3.097893) (xy -9.635704 3.156857)
    (xy -10.119916 3.156857) (xy -10.120892 3.049168) (xy -10.122001 2.864976) (xy -10.122801 2.656784)
    (xy -10.123339 2.423091) (xy -10.123662 2.162398) (xy -10.123817 1.873204) (xy -10.123854 1.554009)
    (xy -10.123817 1.203313) (xy -10.123755 0.819614) (xy -10.123715 0.401414) (xy -10.123714 0.318393)
    (xy -10.123691 -0.104211) (xy -10.123612 -0.492019) (xy -10.123467 -0.84652) (xy -10.123244 -1.169203)
    (xy -10.122931 -1.461558) (xy -10.122517 -1.725073) (xy -10.121991 -1.961238) (xy -10.12134 -2.171542)
    (xy -10.120553 -2.357474) (xy -10.119619 -2.520525) (xy -10.118526 -2.662182) (xy -10.117263 -2.783936)
    (xy -10.115817 -2.887275) (xy -10.114179 -2.973689) (xy -10.112334 -3.044667) (xy -10.110274 -3.101699)
    (xy -10.107985 -3.146273) (xy -10.105456 -3.179879) (xy -10.102676 -3.204007) (xy -10.099633 -3.220144)
    (xy -10.096316 -3.229782) (xy -10.096193 -3.230022) (xy -10.08936 -3.244745) (xy -10.08367 -3.258074)
    (xy -10.077374 -3.270078) (xy -10.068728 -3.280827) (xy -10.055986 -3.290389) (xy -10.0374 -3.298833)
    (xy -10.011226 -3.306229) (xy -9.975716 -3.312646) (xy -9.929125 -3.318152) (xy -9.869707 -3.322817)
    (xy -9.795715 -3.326709) (xy -9.705403 -3.329898) (xy -9.597025 -3.332453) (xy -9.468835 -3.334442)
    (xy -9.319087 -3.335935) (xy -9.146034 -3.337002) (xy -8.947931 -3.337709) (xy -8.723031 -3.338128)
    (xy -8.469588 -3.338327) (xy -8.185856 -3.338374) (xy -7.870089 -3.33834)) (layer F.SilkS) (width 0.01))
  (fp_poly (pts (xy 0.581378 -2.430769) (xy 0.777019 -2.409351) (xy 0.966562 -2.371015) (xy 1.157717 -2.313762)
    (xy 1.358196 -2.235591) (xy 1.575708 -2.134504) (xy 1.61488 -2.114924) (xy 1.704772 -2.070638)
    (xy 1.789553 -2.030761) (xy 1.860855 -1.999102) (xy 1.91031 -1.979468) (xy 1.917908 -1.976996)
    (xy 1.990714 -1.955183) (xy 1.664803 -1.481056) (xy 1.585123 -1.365177) (xy 1.512272 -1.259306)
    (xy 1.44873 -1.167038) (xy 1.396972 -1.091967) (xy 1.359477 -1.037687) (xy 1.338723 -1.007793)
    (xy 1.335351 -1.003059) (xy 1.321655 -1.012958) (xy 1.287943 -1.042715) (xy 1.240244 -1.086927)
    (xy 1.21392 -1.111916) (xy 1.064772 -1.230544) (xy 0.897268 -1.320687) (xy 0.752928 -1.370064)
    (xy 0.666283 -1.385571) (xy 0.557796 -1.395021) (xy 0.440227 -1.398239) (xy 0.326334 -1.395049)
    (xy 0.228879 -1.385276) (xy 0.18999 -1.377791) (xy 0.014712 -1.317488) (xy -0.143235 -1.22541)
    (xy -0.283732 -1.101727) (xy -0.406665 -0.946607) (xy -0.511915 -0.760219) (xy -0.599365 -0.54273)
    (xy -0.6689 -0.294308) (xy -0.710225 -0.081643) (xy -0.721006 0.012241) (xy -0.728352 0.133524)
    (xy -0.732333 0.273493) (xy -0.733021 0.423431) (xy -0.730486 0.574622) (xy -0.7248 0.718351)
    (xy -0.716033 0.845903) (xy -0.704256 0.948562) (xy -0.701707 0.964401) (xy -0.645519 1.219536)
    (xy -0.568964 1.445342) (xy -0.471574 1.642831) (xy -0.352886 1.813014) (xy -0.268637 1.905022)
    (xy -0.11723 2.029943) (xy 0.048817 2.12254) (xy 0.226701 2.182309) (xy 0.413622 2.208746)
    (xy 0.606778 2.201348) (xy 0.803369 2.159611) (xy 0.919597 2.118771) (xy 1.080438 2.03699)
    (xy 1.246213 1.919678) (xy 1.339073 1.840345) (xy 1.391214 1.794429) (xy 1.43218 1.760742)
    (xy 1.455498 1.74451) (xy 1.458393 1.744015) (xy 1.4688 1.760601) (xy 1.495767 1.804432)
    (xy 1.536996 1.871748) (xy 1.590189 1.958794) (xy 1.65305 2.06181) (xy 1.723281 2.177041)
    (xy 1.762372 2.241231) (xy 2.060964 2.731677) (xy 1.688161 2.915915) (xy 1.553369 2.982093)
    (xy 1.444175 3.034278) (xy 1.353907 3.07506) (xy 1.275888 3.107033) (xy 1.203444 3.132787)
    (xy 1.129901 3.154914) (xy 1.048584 3.176007) (xy 0.970643 3.19453) (xy 0.901366 3.208863)
    (xy 0.828917 3.219694) (xy 0.746042 3.227626) (xy 0.645488 3.233258) (xy 0.520003 3.237192)
    (xy 0.435428 3.238891) (xy 0.314754 3.24005) (xy 0.199042 3.239465) (xy 0.095951 3.237304)
    (xy 0.013138 3.233732) (xy -0.04174 3.228917) (xy -0.044992 3.228437) (xy -0.329957 3.166786)
    (xy -0.597558 3.073285) (xy -0.847703 2.947993) (xy -1.080296 2.790974) (xy -1.295243 2.602289)
    (xy -1.49245 2.382) (xy -1.635273 2.186214) (xy -1.78732 1.929949) (xy -1.910227 1.659317)
    (xy -2.00459 1.372149) (xy -2.071001 1.066276) (xy -2.110056 0.739528) (xy -2.12236 0.407739)
    (xy -2.112241 0.086779) (xy -2.080439 -0.209354) (xy -2.025946 -0.485655) (xy -1.94775 -0.747119)
    (xy -1.844841 -0.998742) (xy -1.832553 -1.02481) (xy -1.69718 -1.268493) (xy -1.530911 -1.500382)
    (xy -1.338459 -1.715677) (xy -1.124534 -1.909578) (xy -0.893845 -2.077285) (xy -0.678891 -2.200304)
    (xy -0.461742 -2.296655) (xy -0.244132 -2.366449) (xy -0.017638 -2.411587) (xy 0.226166 -2.433969)
    (xy 0.371928 -2.437269) (xy 0.581378 -2.430769)) (layer F.SilkS) (width 0.01))
  (fp_poly (pts (xy 4.185632 -0.97227) (xy 4.275523 -0.965465) (xy 4.532715 -0.931247) (xy 4.760485 -0.876669)
    (xy 4.959943 -0.80098) (xy 5.132197 -0.70343) (xy 5.278359 -0.583268) (xy 5.399536 -0.439742)
    (xy 5.496839 -0.272102) (xy 5.567891 -0.090714) (xy 5.585927 -0.032854) (xy 5.601632 0.021329)
    (xy 5.615192 0.074752) (xy 5.626792 0.130333) (xy 5.636617 0.190988) (xy 5.644853 0.259635)
    (xy 5.651684 0.33919) (xy 5.657295 0.432572) (xy 5.661872 0.542696) (xy 5.6656 0.672481)
    (xy 5.668665 0.824842) (xy 5.67125 1.002698) (xy 5.673542 1.208965) (xy 5.675725 1.446561)
    (xy 5.677286 1.632857) (xy 5.687785 2.911929) (xy 5.755821 3.035018) (xy 5.788038 3.094317)
    (xy 5.812012 3.140377) (xy 5.82345 3.164893) (xy 5.823857 3.166553) (xy 5.806375 3.168454)
    (xy 5.756574 3.170205) (xy 5.678421 3.171758) (xy 5.575882 3.173062) (xy 5.452922 3.17407)
    (xy 5.31351 3.174731) (xy 5.161611 3.174997) (xy 5.1435 3.175) (xy 4.463143 3.175)
    (xy 4.463143 3.020786) (xy 4.461982 2.951094) (xy 4.458887 2.897794) (xy 4.454432 2.869217)
    (xy 4.452463 2.866572) (xy 4.434455 2.877653) (xy 4.397393 2.906736) (xy 4.349222 2.947579)
    (xy 4.348141 2.948524) (xy 4.260235 3.013971) (xy 4.149217 3.079688) (xy 4.027631 3.139219)
    (xy 3.908021 3.186109) (xy 3.855357 3.202133) (xy 3.750551 3.222485) (xy 3.62195 3.235472)
    (xy 3.481325 3.240909) (xy 3.340448 3.238611) (xy 3.211093 3.228392) (xy 3.120571 3.213689)
    (xy 2.89858 3.148499) (xy 2.698729 3.055594) (xy 2.522319 2.936126) (xy 2.37065 2.791247)
    (xy 2.245024 2.62211) (xy 2.146741 2.429867) (xy 2.104341 2.313214) (xy 2.077768 2.199833)
    (xy 2.060158 2.063722) (xy 2.05201 1.917437) (xy 2.052278 1.896151) (xy 3.279321 1.896151)
    (xy 3.289496 2.00485) (xy 3.323378 2.095185) (xy 3.386 2.178995) (xy 3.410052 2.203571)
    (xy 3.495551 2.270011) (xy 3.594373 2.312574) (xy 3.712768 2.333177) (xy 3.837445 2.334694)
    (xy 3.955698 2.324677) (xy 4.046239 2.305085) (xy 4.08556 2.29037) (xy 4.156432 2.250265)
    (xy 4.231525 2.193863) (xy 4.300038 2.130561) (xy 4.351172 2.069755) (xy 4.36475 2.047449)
    (xy 4.375305 2.016212) (xy 4.38281 1.966507) (xy 4.387613 1.893587) (xy 4.390065 1.792703)
    (xy 4.390571 1.696689) (xy 4.390228 1.58475) (xy 4.388843 1.503809) (xy 4.385881 1.448585)
    (xy 4.380808 1.413794) (xy 4.37309 1.394154) (xy 4.362192 1.38438) (xy 4.358821 1.382824)
    (xy 4.329529 1.378029) (xy 4.271756 1.374108) (xy 4.193304 1.371414) (xy 4.101974 1.370299)
    (xy 4.082143 1.370298) (xy 3.960063 1.372246) (xy 3.865749 1.378041) (xy 3.790807 1.388475)
    (xy 3.728903 1.403714) (xy 3.575349 1.461784) (xy 3.454932 1.533179) (xy 3.36661 1.619039)
    (xy 3.309339 1.720507) (xy 3.282078 1.838725) (xy 3.279321 1.896151) (xy 2.052278 1.896151)
    (xy 2.053823 1.773533) (xy 2.066096 1.644565) (xy 2.07567 1.59246) (xy 2.136801 1.398997)
    (xy 2.229757 1.220993) (xy 2.352783 1.060155) (xy 2.504124 0.91819) (xy 2.682025 0.796806)
    (xy 2.884732 0.697709) (xy 3.057071 0.637533) (xy 3.172253 0.605919) (xy 3.282423 0.581354)
    (xy 3.394719 0.563039) (xy 3.516275 0.550178) (xy 3.654229 0.541972) (xy 3.815715 0.537624)
    (xy 3.961715 0.5364) (xy 4.394645 0.535215) (xy 4.386351 0.40508) (xy 4.362801 0.263883)
    (xy 4.312703 0.142518) (xy 4.238191 0.044017) (xy 4.141399 -0.028591) (xy 4.056171 -0.064021)
    (xy 3.934056 -0.08635) (xy 3.788683 -0.089557) (xy 3.626867 -0.074823) (xy 3.455422 -0.04333)
    (xy 3.281163 0.00374) (xy 3.110904 0.065203) (xy 2.987176 0.121417) (xy 2.927647 0.150283)
    (xy 2.882242 0.170443) (xy 2.85915 0.17831) (xy 2.857897 0.178058) (xy 2.849929 0.160437)
    (xy 2.830031 0.113733) (xy 2.800077 0.042418) (xy 2.761939 -0.049031) (xy 2.717488 -0.156141)
    (xy 2.672305 -0.265451) (xy 2.491667 -0.70326) (xy 2.620155 -0.724364) (xy 2.675846 -0.734953)
    (xy 2.759564 -0.752737) (xy 2.864139 -0.776102) (xy 2.982399 -0.803435) (xy 3.107172 -0.833119)
    (xy 3.156857 -0.845182) (xy 3.371807 -0.895038) (xy 3.559995 -0.932416) (xy 3.728446 -0.958073)
    (xy 3.884186 -0.972765) (xy 4.03424 -0.977245) (xy 4.185632 -0.97227)) (layer F.SilkS) (width 0.01))
  (fp_poly (pts (xy 9.041571 -2.699911) (xy 9.195876 -2.699277) (xy 9.248321 -2.698958) (xy 9.9695 -2.694214)
    (xy 9.978571 0.072572) (xy 9.979769 0.447756) (xy 9.980832 0.788417) (xy 9.981827 1.096318)
    (xy 9.982823 1.373221) (xy 9.983888 1.620888) (xy 9.985091 1.841081) (xy 9.986499 2.035562)
    (xy 9.988182 2.206094) (xy 9.990206 2.35444) (xy 9.992641 2.482361) (xy 9.995554 2.59162)
    (xy 9.999015 2.683979) (xy 10.00309 2.7612) (xy 10.007849 2.825046) (xy 10.01336 2.877278)
    (xy 10.019691 2.91966) (xy 10.02691 2.953953) (xy 10.035085 2.98192) (xy 10.044285 3.005324)
    (xy 10.054577 3.025925) (xy 10.066031 3.045487) (xy 10.078715 3.065772) (xy 10.092695 3.088543)
    (xy 10.095561 3.093393) (xy 10.14364 3.175433) (xy 8.753928 3.165929) (xy 8.744857 3.013295)
    (xy 8.739918 2.940045) (xy 8.734771 2.897696) (xy 8.727786 2.880892) (xy 8.717337 2.884277)
    (xy 8.708571 2.89396) (xy 8.670388 2.929229) (xy 8.608155 2.974563) (xy 8.530641 3.024546)
    (xy 8.446613 3.073761) (xy 8.364839 3.116791) (xy 8.302052 3.145101) (xy 8.154954 3.191624)
    (xy 7.98618 3.224579) (xy 7.808191 3.242707) (xy 7.633447 3.24475) (xy 7.474407 3.229447)
    (xy 7.471788 3.229009) (xy 7.254168 3.174402) (xy 7.050455 3.087401) (xy 6.862613 2.969876)
    (xy 6.692607 2.823697) (xy 6.542402 2.650734) (xy 6.413964 2.452857) (xy 6.309257 2.231936)
    (xy 6.252246 2.068286) (xy 6.214651 1.931375) (xy 6.186771 1.798798) (xy 6.167753 1.662502)
    (xy 6.156745 1.514433) (xy 6.152895 1.346537) (xy 6.1546 1.20944) (xy 7.493359 1.20944)
    (xy 7.499694 1.439329) (xy 7.519679 1.637111) (xy 7.553927 1.804539) (xy 7.603055 1.943369)
    (xy 7.667676 2.055358) (xy 7.748405 2.142259) (xy 7.841591 2.203692) (xy 7.89008 2.226626)
    (xy 7.932134 2.240375) (xy 7.97902 2.246666) (xy 8.042004 2.247222) (xy 8.109857 2.244773)
    (xy 8.243295 2.233004) (xy 8.348832 2.209955) (xy 8.382 2.19841) (xy 8.457735 2.164311)
    (xy 8.537614 2.121491) (xy 8.5725 2.100057) (xy 8.663214 2.040556) (xy 8.663214 0.154584)
    (xy 8.563428 0.094771) (xy 8.424267 0.027185) (xy 8.282087 -0.012786) (xy 8.14209 -0.025378)
    (xy 8.009474 -0.010827) (xy 7.88944 0.030632) (xy 7.787188 0.098763) (xy 7.754195 0.131466)
    (xy 7.674667 0.238619) (xy 7.610299 0.368327) (xy 7.560553 0.522814) (xy 7.524891 0.704302)
    (xy 7.502775 0.915015) (xy 7.493667 1.157175) (xy 7.493359 1.20944) (xy 6.1546 1.20944)
    (xy 6.15531 1.152374) (xy 6.170605 0.853713) (xy 6.201358 0.584325) (xy 6.248381 0.340285)
    (xy 6.312482 0.11767) (xy 6.394472 -0.087444) (xy 6.42373 -0.148254) (xy 6.541581 -0.34656)
    (xy 6.683996 -0.522788) (xy 6.847629 -0.674092) (xy 7.029131 -0.797629) (xy 7.225153 -0.890553)
    (xy 7.342655 -0.928885) (xy 7.458054 -0.951641) (xy 7.596907 -0.96518) (xy 7.747574 -0.969508)
    (xy 7.898413 -0.964632) (xy 8.037785 -0.950556) (xy 8.149691 -0.928475) (xy 8.282884 -0.885172)
    (xy 8.411979 -0.829489) (xy 8.524928 -0.767064) (xy 8.585043 -0.724697) (xy 8.62651 -0.693193)
    (xy 8.655545 -0.67401) (xy 8.66215 -0.671286) (xy 8.664198 -0.688837) (xy 8.666107 -0.739125)
    (xy 8.667836 -0.8186) (xy 8.669341 -0.923714) (xy 8.670581 -1.050917) (xy 8.671513 -1.196661)
    (xy 8.672095 -1.357397) (xy 8.672286 -1.521116) (xy 8.672179 -1.730812) (xy 8.671658 -1.907604)
    (xy 8.670416 -2.054874) (xy 8.668148 -2.176003) (xy 8.66455 -2.274373) (xy 8.659317 -2.353366)
    (xy 8.652144 -2.416362) (xy 8.642726 -2.466745) (xy 8.630758 -2.507895) (xy 8.615935 -2.543194)
    (xy 8.597952 -2.576023) (xy 8.576505 -2.609765) (xy 8.573745 -2.613943) (xy 8.546083 -2.657644)
    (xy 8.529382 -2.687695) (xy 8.527143 -2.694033) (xy 8.544643 -2.696033) (xy 8.594574 -2.69766)
    (xy 8.673085 -2.698888) (xy 8.776323 -2.699689) (xy 8.900436 -2.700039) (xy 9.041571 -2.699911)) (layer F.SilkS) (width 0.01))
  (fp_poly (pts (xy -3.602318 -3.916067) (xy -3.466071 -3.868828) (xy -3.339221 -3.794473) (xy -3.225933 -3.693013)
    (xy -3.130372 -3.564457) (xy -3.087446 -3.483428) (xy -3.050295 -3.370092) (xy -3.032288 -3.239249)
    (xy -3.034283 -3.104735) (xy -3.056423 -2.982842) (xy -3.116936 -2.833893) (xy -3.204686 -2.704691)
    (xy -3.315212 -2.597777) (xy -3.444054 -2.515694) (xy -3.586753 -2.460984) (xy -3.738849 -2.43619)
    (xy -3.895881 -2.443853) (xy -3.973286 -2.460228) (xy -4.124141 -2.518911) (xy -4.258125 -2.608457)
    (xy -4.372006 -2.726107) (xy -4.462552 -2.869098) (xy -4.470212 -2.884714) (xy -4.496694 -2.943314)
    (xy -4.513322 -2.992666) (xy -4.52235 -3.04473) (xy -4.526032 -3.111461) (xy -4.526643 -3.184071)
    (xy -4.525633 -3.271309) (xy -4.521072 -3.334376) (xy -4.510666 -3.385364) (xy -4.492121 -3.436367)
    (xy -4.46923 -3.486687) (xy -4.383846 -3.62953) (xy -4.278699 -3.74519) (xy -4.157955 -3.833675)
    (xy -4.025779 -3.894995) (xy -3.886337 -3.929161) (xy -3.743795 -3.936182) (xy -3.602318 -3.916067)) (layer F.SilkS) (width 0.01))
)
