(module KiCad-Logo2_6mm_SilkScreen (layer F.Cu) (tedit 0)
  (descr "KiCad Logo")
  (tags "Logo KiCad")
  (attr virtual)
  (fp_text reference REF** (at 0 -5.08) (layer F.SilkS) hide
    (effects (font (size 1 1) (thickness 0.15)))
  )
  (fp_text value KiCad-Logo2_6mm_SilkScreen (at 0 6.35) (layer F.Fab) hide
    (effects (font (size 1 1) (thickness 0.15)))
  )
  (fp_poly (pts (xy -5.955743 -2.526311) (xy -5.69122 -2.526275) (xy -5.568088 -2.52627) (xy -3.597189 -2.52627)
    (xy -3.597189 -2.41009) (xy -3.584789 -2.268709) (xy -3.547364 -2.138316) (xy -3.484577 -2.018138)
    (xy -3.396094 -1.907398) (xy -3.366157 -1.877489) (xy -3.258466 -1.792652) (xy -3.139725 -1.730779)
    (xy -3.01346 -1.691841) (xy -2.883197 -1.67581) (xy -2.752465 -1.682658) (xy -2.624788 -1.712357)
    (xy -2.503695 -1.76488) (xy -2.392712 -1.840197) (xy -2.342868 -1.885637) (xy -2.249983 -1.997048)
    (xy -2.181873 -2.119565) (xy -2.139129 -2.251785) (xy -2.122347 -2.392308) (xy -2.122124 -2.406133)
    (xy -2.121244 -2.526266) (xy -2.068443 -2.526268) (xy -2.021604 -2.519911) (xy -1.978817 -2.504444)
    (xy -1.975989 -2.502846) (xy -1.966325 -2.497832) (xy -1.957451 -2.493927) (xy -1.949335 -2.489993)
    (xy -1.941943 -2.484894) (xy -1.935245 -2.477492) (xy -1.929208 -2.466649) (xy -1.923801 -2.451228)
    (xy -1.91899 -2.430091) (xy -1.914745 -2.402101) (xy -1.911032 -2.366121) (xy -1.907821 -2.321013)
    (xy -1.905078 -2.26564) (xy -1.902772 -2.198863) (xy -1.900871 -2.119547) (xy -1.899342 -2.026553)
    (xy -1.898154 -1.918743) (xy -1.897274 -1.794981) (xy -1.89667 -1.654129) (xy -1.896311 -1.49505)
    (xy -1.896165 -1.316605) (xy -1.896198 -1.117658) (xy -1.89638 -0.897071) (xy -1.896677 -0.653707)
    (xy -1.897059 -0.386428) (xy -1.897492 -0.094097) (xy -1.897945 0.224424) (xy -1.897998 0.26323)
    (xy -1.898404 0.583782) (xy -1.898749 0.878012) (xy -1.899069 1.147056) (xy -1.8994 1.392052)
    (xy -1.899779 1.614137) (xy -1.900243 1.814447) (xy -1.900828 1.994119) (xy -1.90157 2.15429)
    (xy -1.902506 2.296098) (xy -1.903673 2.420679) (xy -1.905107 2.52917) (xy -1.906844 2.622707)
    (xy -1.908922 2.702429) (xy -1.911376 2.769472) (xy -1.914244 2.824973) (xy -1.917561 2.870068)
    (xy -1.921364 2.905895) (xy -1.92569 2.933591) (xy -1.930575 2.954293) (xy -1.936055 2.969137)
    (xy -1.942168 2.97926) (xy -1.94895 2.9858) (xy -1.956437 2.989893) (xy -1.964666 2.992676)
    (xy -1.973673 2.995287) (xy -1.983495 2.998862) (xy -1.985894 2.99995) (xy -1.993435 3.002396)
    (xy -2.006056 3.004642) (xy -2.024859 3.006698) (xy -2.050947 3.008572) (xy -2.085422 3.010271)
    (xy -2.129385 3.011803) (xy -2.183939 3.013177) (xy -2.250185 3.0144) (xy -2.329226 3.015481)
    (xy -2.422163 3.016427) (xy -2.530099 3.017247) (xy -2.654136 3.017947) (xy -2.795376 3.018538)
    (xy -2.954921 3.019025) (xy -3.133872 3.019419) (xy -3.333332 3.019725) (xy -3.554404 3.019953)
    (xy -3.798188 3.02011) (xy -4.065787 3.020205) (xy -4.358303 3.020245) (xy -4.676839 3.020238)
    (xy -4.780021 3.020228) (xy -5.105623 3.020176) (xy -5.404881 3.020091) (xy -5.678909 3.019963)
    (xy -5.928824 3.019785) (xy -6.15574 3.019548) (xy -6.360773 3.019242) (xy -6.545038 3.01886)
    (xy -6.70965 3.018392) (xy -6.855725 3.01783) (xy -6.984376 3.017165) (xy -7.096721 3.016388)
    (xy -7.193874 3.015491) (xy -7.27695 3.014465) (xy -7.347064 3.013301) (xy -7.405332 3.011991)
    (xy -7.452869 3.010525) (xy -7.49079 3.008896) (xy -7.52021 3.007093) (xy -7.542245 3.00511)
    (xy -7.55801 3.002936) (xy -7.56862 3.000563) (xy -7.574404 2.998391) (xy -7.584684 2.994056)
    (xy -7.594122 2.990859) (xy -7.602755 2.987665) (xy -7.610619 2.983338) (xy -7.617748 2.976744)
    (xy -7.624179 2.966747) (xy -7.629947 2.952212) (xy -7.635089 2.932003) (xy -7.63964 2.904985)
    (xy -7.643635 2.870023) (xy -7.647111 2.825981) (xy -7.650102 2.771724) (xy -7.652646 2.706117)
    (xy -7.654777 2.628024) (xy -7.656532 2.53631) (xy -7.657945 2.42984) (xy -7.658315 2.388973)
    (xy -7.291884 2.388973) (xy -5.996734 2.388973) (xy -6.021655 2.351217) (xy -6.046447 2.312417)
    (xy -6.06744 2.275469) (xy -6.084935 2.237788) (xy -6.09923 2.196788) (xy -6.110623 2.149883)
    (xy -6.119413 2.094487) (xy -6.125898 2.028016) (xy -6.130377 1.947883) (xy -6.13315 1.851502)
    (xy -6.134513 1.736289) (xy -6.134767 1.599657) (xy -6.134209 1.43902) (xy -6.133893 1.379382)
    (xy -6.130325 0.740041) (xy -5.725298 1.291449) (xy -5.610554 1.447876) (xy -5.511143 1.584088)
    (xy -5.42599 1.70189) (xy -5.354022 1.803084) (xy -5.294166 1.889477) (xy -5.245348 1.962874)
    (xy -5.206495 2.025077) (xy -5.176534 2.077893) (xy -5.154391 2.123125) (xy -5.138993 2.162578)
    (xy -5.129266 2.198058) (xy -5.124137 2.231368) (xy -5.122532 2.264313) (xy -5.123379 2.298697)
    (xy -5.123595 2.303019) (xy -5.128054 2.389031) (xy -3.708692 2.388973) (xy -3.814265 2.282522)
    (xy -3.842913 2.253406) (xy -3.87009 2.225076) (xy -3.896989 2.195968) (xy -3.924803 2.16452)
    (xy -3.954725 2.129169) (xy -3.987946 2.088354) (xy -4.025661 2.040511) (xy -4.06906 1.984079)
    (xy -4.119338 1.917494) (xy -4.177688 1.839195) (xy -4.2453 1.747619) (xy -4.323369 1.641204)
    (xy -4.413088 1.518387) (xy -4.515648 1.377605) (xy -4.632242 1.217297) (xy -4.727809 1.085798)
    (xy -4.847749 0.920596) (xy -4.95238 0.776152) (xy -5.042648 0.651094) (xy -5.119503 0.544052)
    (xy -5.183891 0.453654) (xy -5.236761 0.378529) (xy -5.27906 0.317304) (xy -5.311736 0.26861)
    (xy -5.335738 0.231074) (xy -5.352013 0.203325) (xy -5.361508 0.183992) (xy -5.365173 0.171703)
    (xy -5.364071 0.165242) (xy -5.350724 0.148048) (xy -5.321866 0.111655) (xy -5.27924 0.058224)
    (xy -5.224585 -0.010081) (xy -5.159644 -0.091097) (xy -5.086158 -0.18266) (xy -5.005868 -0.282608)
    (xy -4.920515 -0.388776) (xy -4.83184 -0.499003) (xy -4.741586 -0.611124) (xy -4.691944 -0.672756)
    (xy -3.459373 -0.672756) (xy -3.408146 -0.580081) (xy -3.356919 -0.487405) (xy -3.356919 2.203622)
    (xy -3.408146 2.296298) (xy -3.459373 2.388973) (xy -2.853396 2.388973) (xy -2.708734 2.388931)
    (xy -2.589244 2.388741) (xy -2.492642 2.388308) (xy -2.416642 2.387536) (xy -2.358957 2.38633)
    (xy -2.317301 2.384594) (xy -2.289389 2.382232) (xy -2.272935 2.37915) (xy -2.265652 2.375251)
    (xy -2.265255 2.37044) (xy -2.269458 2.364622) (xy -2.269501 2.364574) (xy -2.286813 2.339532)
    (xy -2.309736 2.298815) (xy -2.329981 2.258168) (xy -2.368379 2.176162) (xy -2.376211 -0.672756)
    (xy -3.459373 -0.672756) (xy -4.691944 -0.672756) (xy -4.651493 -0.722976) (xy -4.563302 -0.832396)
    (xy -4.478754 -0.937222) (xy -4.399592 -1.035289) (xy -4.327556 -1.124434) (xy -4.264387 -1.202495)
    (xy -4.211827 -1.267308) (xy -4.171617 -1.31671) (xy -4.148 -1.345513) (xy -4.05629 -1.453222)
    (xy -3.96806 -1.55042) (xy -3.886403 -1.633924) (xy -3.81441 -1.700552) (xy -3.763319 -1.741401)
    (xy -3.702907 -1.784865) (xy -5.092298 -1.784865) (xy -5.091908 -1.703334) (xy -5.095791 -1.643394)
    (xy -5.11039 -1.587823) (xy -5.132988 -1.535145) (xy -5.147678 -1.505385) (xy -5.163472 -1.475897)
    (xy -5.181814 -1.444724) (xy -5.204145 -1.409907) (xy -5.231909 -1.36949) (xy -5.266549 -1.321514)
    (xy -5.309507 -1.264022) (xy -5.362227 -1.195057) (xy -5.426151 -1.112661) (xy -5.502721 -1.014876)
    (xy -5.593381 -0.899745) (xy -5.699574 -0.76531) (xy -5.711568 -0.750141) (xy -6.130325 -0.220588)
    (xy -6.134378 -0.807078) (xy -6.135195 -0.982749) (xy -6.135021 -1.131468) (xy -6.133849 -1.253725)
    (xy -6.131669 -1.350011) (xy -6.128474 -1.420817) (xy -6.124256 -1.466631) (xy -6.122838 -1.475321)
    (xy -6.100591 -1.566865) (xy -6.071443 -1.649392) (xy -6.038182 -1.715747) (xy -6.0182 -1.74389)
    (xy -5.983722 -1.784865) (xy -6.637914 -1.784865) (xy -6.793969 -1.784731) (xy -6.924467 -1.784297)
    (xy -7.03131 -1.783511) (xy -7.116398 -1.782324) (xy -7.181635 -1.780683) (xy -7.228921 -1.778539)
    (xy -7.260157 -1.775841) (xy -7.277246 -1.772538) (xy -7.282088 -1.768579) (xy -7.281753 -1.767702)
    (xy -7.267885 -1.746769) (xy -7.244732 -1.713588) (xy -7.232754 -1.696807) (xy -7.220369 -1.68006)
    (xy -7.209237 -1.665085) (xy -7.199288 -1.650406) (xy -7.190451 -1.634551) (xy -7.182657 -1.616045)
    (xy -7.175835 -1.593415) (xy -7.169916 -1.565187) (xy -7.164829 -1.529887) (xy -7.160504 -1.486042)
    (xy -7.156871 -1.432178) (xy -7.15386 -1.36682) (xy -7.151401 -1.288496) (xy -7.149423 -1.195732)
    (xy -7.147858 -1.087053) (xy -7.146634 -0.960987) (xy -7.145681 -0.816058) (xy -7.14493 -0.650794)
    (xy -7.144311 -0.463721) (xy -7.143752 -0.253365) (xy -7.143185 -0.018252) (xy -7.142655 0.197741)
    (xy -7.142155 0.438535) (xy -7.141895 0.668274) (xy -7.141868 0.885493) (xy -7.142067 1.088722)
    (xy -7.142486 1.276496) (xy -7.143118 1.447345) (xy -7.143956 1.599803) (xy -7.144992 1.732403)
    (xy -7.14622 1.843676) (xy -7.147633 1.932156) (xy -7.149225 1.996375) (xy -7.150987 2.034865)
    (xy -7.151321 2.038933) (xy -7.163466 2.132248) (xy -7.182427 2.20719) (xy -7.211302 2.272594)
    (xy -7.25319 2.337293) (xy -7.258429 2.344352) (xy -7.291884 2.388973) (xy -7.658315 2.388973)
    (xy -7.659054 2.307479) (xy -7.659893 2.16809) (xy -7.660498 2.010539) (xy -7.660905 1.833691)
    (xy -7.66115 1.63641) (xy -7.661267 1.41756) (xy -7.661295 1.176007) (xy -7.661267 0.910615)
    (xy -7.66122 0.620249) (xy -7.66119 0.303773) (xy -7.661189 0.240946) (xy -7.661172 -0.078863)
    (xy -7.661112 -0.372339) (xy -7.661002 -0.64061) (xy -7.660833 -0.884802) (xy -7.660597 -1.106043)
    (xy -7.660284 -1.30546) (xy -7.659885 -1.48418) (xy -7.659393 -1.643329) (xy -7.658797 -1.784034)
    (xy -7.65809 -1.907424) (xy -7.657263 -2.014624) (xy -7.656307 -2.106762) (xy -7.655213 -2.184965)
    (xy -7.653973 -2.250359) (xy -7.652578 -2.304072) (xy -7.651018 -2.347231) (xy -7.649286 -2.380963)
    (xy -7.647372 -2.406395) (xy -7.645268 -2.424653) (xy -7.642966 -2.436866) (xy -7.640455 -2.444159)
    (xy -7.640363 -2.444341) (xy -7.635192 -2.455482) (xy -7.630885 -2.465569) (xy -7.626121 -2.474654)
    (xy -7.619578 -2.482788) (xy -7.609935 -2.490024) (xy -7.595871 -2.496414) (xy -7.576063 -2.502011)
    (xy -7.549191 -2.506867) (xy -7.513933 -2.511034) (xy -7.468968 -2.514564) (xy -7.412974 -2.517509)
    (xy -7.344629 -2.519923) (xy -7.262614 -2.521856) (xy -7.165605 -2.523362) (xy -7.052282 -2.524492)
    (xy -6.921323 -2.525298) (xy -6.771407 -2.525834) (xy -6.601213 -2.526151) (xy -6.409418 -2.526301)
    (xy -6.194702 -2.526337) (xy -5.955743 -2.526311)) (layer F.SilkS) (width 0.01))
  (fp_poly (pts (xy 0.439962 -1.839501) (xy 0.588014 -1.823293) (xy 0.731452 -1.794282) (xy 0.87611 -1.750955)
    (xy 1.027824 -1.691799) (xy 1.192428 -1.6153) (xy 1.222071 -1.600483) (xy 1.290098 -1.566969)
    (xy 1.354256 -1.536792) (xy 1.408215 -1.512834) (xy 1.44564 -1.497976) (xy 1.451389 -1.496105)
    (xy 1.506486 -1.479598) (xy 1.259851 -1.120799) (xy 1.199552 -1.033107) (xy 1.144422 -0.952988)
    (xy 1.096336 -0.883164) (xy 1.057168 -0.826353) (xy 1.028794 -0.785277) (xy 1.013087 -0.762654)
    (xy 1.010536 -0.759072) (xy 1.000171 -0.766562) (xy 0.97466 -0.789082) (xy 0.938563 -0.822539)
    (xy 0.918642 -0.84145) (xy 0.805773 -0.931222) (xy 0.679014 -0.999439) (xy 0.569783 -1.036805)
    (xy 0.504214 -1.04854) (xy 0.422116 -1.055692) (xy 0.333144 -1.058126) (xy 0.246956 -1.055712)
    (xy 0.173205 -1.048317) (xy 0.143776 -1.042653) (xy 0.011133 -0.997018) (xy -0.108394 -0.927337)
    (xy -0.214717 -0.83374) (xy -0.307747 -0.716351) (xy -0.387395 -0.5753) (xy -0.453574 -0.410714)
    (xy -0.506194 -0.22272) (xy -0.537467 -0.061783) (xy -0.545626 0.009263) (xy -0.551185 0.101046)
    (xy -0.554198 0.206968) (xy -0.554719 0.320434) (xy -0.5528 0.434849) (xy -0.548497 0.543617)
    (xy -0.541863 0.640143) (xy -0.532951 0.717831) (xy -0.531021 0.729817) (xy -0.488501 0.922892)
    (xy -0.430567 1.093773) (xy -0.356867 1.243224) (xy -0.267049 1.372011) (xy -0.203293 1.441639)
    (xy -0.088714 1.536173) (xy 0.036942 1.606246) (xy 0.171557 1.651477) (xy 0.313011 1.671484)
    (xy 0.459183 1.665885) (xy 0.607955 1.6343) (xy 0.695911 1.603394) (xy 0.817629 1.541506)
    (xy 0.94308 1.452729) (xy 1.013353 1.392694) (xy 1.052811 1.357947) (xy 1.083812 1.332454)
    (xy 1.101458 1.32017) (xy 1.103648 1.319795) (xy 1.111524 1.332347) (xy 1.131932 1.365516)
    (xy 1.163132 1.416458) (xy 1.203386 1.482331) (xy 1.250957 1.560289) (xy 1.304104 1.64749)
    (xy 1.333687 1.696067) (xy 1.559648 2.067215) (xy 1.277527 2.206639) (xy 1.175522 2.256719)
    (xy 1.092889 2.29621) (xy 1.024578 2.327073) (xy 0.965537 2.351268) (xy 0.910714 2.370758)
    (xy 0.85506 2.387503) (xy 0.793523 2.403465) (xy 0.73454 2.417482) (xy 0.682115 2.428329)
    (xy 0.627288 2.436526) (xy 0.564572 2.442528) (xy 0.488477 2.44679) (xy 0.393516 2.449767)
    (xy 0.329513 2.451052) (xy 0.238192 2.45193) (xy 0.150627 2.451487) (xy 0.072612 2.449852)
    (xy 0.009942 2.447149) (xy -0.031587 2.443505) (xy -0.034048 2.443142) (xy -0.249697 2.396487)
    (xy -0.452207 2.325729) (xy -0.641505 2.230914) (xy -0.817521 2.112089) (xy -0.980184 1.9693)
    (xy -1.129422 1.802594) (xy -1.237504 1.654433) (xy -1.352566 1.460502) (xy -1.445577 1.255699)
    (xy -1.516987 1.038383) (xy -1.567244 0.806912) (xy -1.596799 0.559643) (xy -1.606111 0.308559)
    (xy -1.598452 0.06567) (xy -1.574387 -0.15843) (xy -1.533148 -0.367523) (xy -1.473973 -0.565387)
    (xy -1.396096 -0.755804) (xy -1.386797 -0.775532) (xy -1.284352 -0.959941) (xy -1.158528 -1.135424)
    (xy -1.012888 -1.29835) (xy -0.850999 -1.445086) (xy -0.676424 -1.571999) (xy -0.513756 -1.665095)
    (xy -0.349427 -1.738009) (xy -0.184749 -1.790826) (xy -0.013348 -1.824985) (xy 0.171153 -1.841922)
    (xy 0.281459 -1.84442) (xy 0.439962 -1.839501)) (layer F.SilkS) (width 0.01))
  (fp_poly (pts (xy 3.167505 -0.735771) (xy 3.235531 -0.730622) (xy 3.430163 -0.704727) (xy 3.602529 -0.663425)
    (xy 3.75347 -0.606147) (xy 3.883825 -0.532326) (xy 3.994434 -0.441392) (xy 4.086135 -0.332778)
    (xy 4.15977 -0.205915) (xy 4.213539 -0.068648) (xy 4.227187 -0.024863) (xy 4.239073 0.016141)
    (xy 4.249334 0.056569) (xy 4.258113 0.09863) (xy 4.265548 0.144531) (xy 4.27178 0.19648)
    (xy 4.27695 0.256685) (xy 4.281196 0.327352) (xy 4.28466 0.410689) (xy 4.287481 0.508905)
    (xy 4.2898 0.624205) (xy 4.291757 0.758799) (xy 4.293491 0.914893) (xy 4.295143 1.094695)
    (xy 4.296324 1.235676) (xy 4.30427 2.203622) (xy 4.355756 2.29677) (xy 4.380137 2.341645)
    (xy 4.39828 2.376501) (xy 4.406935 2.395054) (xy 4.407243 2.396311) (xy 4.394014 2.397749)
    (xy 4.356326 2.399074) (xy 4.297183 2.400249) (xy 4.219586 2.401237) (xy 4.126536 2.401999)
    (xy 4.021035 2.4025) (xy 3.906084 2.402701) (xy 3.892378 2.402703) (xy 3.377513 2.402703)
    (xy 3.377513 2.286) (xy 3.376635 2.23326) (xy 3.374292 2.192926) (xy 3.370921 2.1713)
    (xy 3.369431 2.169298) (xy 3.355804 2.177683) (xy 3.327757 2.199692) (xy 3.291303 2.230601)
    (xy 3.290485 2.231316) (xy 3.223962 2.280843) (xy 3.139948 2.330575) (xy 3.047937 2.375626)
    (xy 2.957421 2.41111) (xy 2.917567 2.423236) (xy 2.838255 2.438637) (xy 2.740935 2.448465)
    (xy 2.634516 2.45258) (xy 2.527907 2.450841) (xy 2.430017 2.443108) (xy 2.361513 2.431981)
    (xy 2.19352 2.382648) (xy 2.042281 2.312342) (xy 1.908782 2.221933) (xy 1.794006 2.112295)
    (xy 1.698937 1.984299) (xy 1.62456 1.838818) (xy 1.592474 1.750541) (xy 1.572365 1.664739)
    (xy 1.559038 1.561736) (xy 1.552872 1.451034) (xy 1.553074 1.434925) (xy 2.481648 1.434925)
    (xy 2.489348 1.517184) (xy 2.514989 1.585546) (xy 2.562378 1.64897) (xy 2.580579 1.667567)
    (xy 2.645282 1.717846) (xy 2.720066 1.750056) (xy 2.809662 1.765648) (xy 2.904012 1.766796)
    (xy 2.993501 1.759216) (xy 3.062018 1.744389) (xy 3.091775 1.733253) (xy 3.145408 1.702904)
    (xy 3.202235 1.660221) (xy 3.254082 1.612317) (xy 3.292778 1.566301) (xy 3.303054 1.549421)
    (xy 3.311042 1.525782) (xy 3.316721 1.488168) (xy 3.320356 1.432985) (xy 3.322211 1.35664)
    (xy 3.322594 1.283981) (xy 3.322335 1.19927) (xy 3.321287 1.138018) (xy 3.319045 1.096227)
    (xy 3.315206 1.069899) (xy 3.309365 1.055035) (xy 3.301118 1.047639) (xy 3.298567 1.046461)
    (xy 3.2764 1.042833) (xy 3.23268 1.039866) (xy 3.173311 1.037827) (xy 3.104196 1.036983)
    (xy 3.089189 1.036982) (xy 2.996805 1.038457) (xy 2.925432 1.042842) (xy 2.868719 1.050738)
    (xy 2.821872 1.06227) (xy 2.705669 1.106215) (xy 2.614543 1.160243) (xy 2.547705 1.225219)
    (xy 2.504365 1.302005) (xy 2.483734 1.391467) (xy 2.481648 1.434925) (xy 1.553074 1.434925)
    (xy 1.554244 1.342133) (xy 1.563532 1.244536) (xy 1.570777 1.205105) (xy 1.617039 1.058701)
    (xy 1.687384 0.923995) (xy 1.780484 0.80228) (xy 1.895012 0.694847) (xy 2.02964 0.602988)
    (xy 2.18304 0.527996) (xy 2.313459 0.482458) (xy 2.400623 0.458533) (xy 2.483996 0.439943)
    (xy 2.568976 0.426084) (xy 2.660965 0.416351) (xy 2.765362 0.410141) (xy 2.887568 0.406851)
    (xy 2.998055 0.405924) (xy 3.325677 0.405027) (xy 3.319401 0.306547) (xy 3.301579 0.199695)
    (xy 3.263667 0.107852) (xy 3.20728 0.03331) (xy 3.134031 -0.021636) (xy 3.069535 -0.048448)
    (xy 2.977123 -0.065346) (xy 2.867111 -0.067773) (xy 2.744656 -0.056622) (xy 2.614914 -0.03279)
    (xy 2.483042 0.00283) (xy 2.354198 0.049343) (xy 2.260566 0.091883) (xy 2.215517 0.113728)
    (xy 2.181156 0.128984) (xy 2.163681 0.134937) (xy 2.162733 0.134746) (xy 2.156703 0.121412)
    (xy 2.141645 0.086068) (xy 2.118977 0.032101) (xy 2.090115 -0.037104) (xy 2.056477 -0.11816)
    (xy 2.022284 -0.200882) (xy 1.885586 -0.532197) (xy 1.98282 -0.548167) (xy 2.024964 -0.55618)
    (xy 2.088319 -0.569639) (xy 2.167457 -0.587321) (xy 2.256951 -0.608004) (xy 2.351373 -0.630468)
    (xy 2.388973 -0.639597) (xy 2.551637 -0.677326) (xy 2.69405 -0.705612) (xy 2.821527 -0.725028)
    (xy 2.939384 -0.736146) (xy 3.052938 -0.739536) (xy 3.167505 -0.735771)) (layer F.SilkS) (width 0.01))
  (fp_poly (pts (xy 6.84227 -2.043175) (xy 6.959041 -2.042696) (xy 6.998729 -2.042455) (xy 7.544486 -2.038865)
    (xy 7.551351 0.054919) (xy 7.552258 0.338842) (xy 7.553062 0.59664) (xy 7.553815 0.829646)
    (xy 7.554569 1.039194) (xy 7.555375 1.226618) (xy 7.556285 1.39325) (xy 7.557351 1.540425)
    (xy 7.558624 1.669477) (xy 7.560156 1.781739) (xy 7.561998 1.878544) (xy 7.564203 1.961226)
    (xy 7.566822 2.031119) (xy 7.569906 2.089557) (xy 7.573508 2.137872) (xy 7.577678 2.1774)
    (xy 7.582469 2.209473) (xy 7.587931 2.235424) (xy 7.594118 2.256589) (xy 7.60108 2.274299)
    (xy 7.608869 2.289889) (xy 7.617537 2.304693) (xy 7.627135 2.320044) (xy 7.637715 2.337276)
    (xy 7.639884 2.340946) (xy 7.676268 2.403031) (xy 7.150431 2.399434) (xy 6.624594 2.395838)
    (xy 6.617729 2.280331) (xy 6.613992 2.224899) (xy 6.610097 2.192851) (xy 6.604811 2.180135)
    (xy 6.596903 2.182696) (xy 6.59027 2.190024) (xy 6.561374 2.216714) (xy 6.514279 2.251021)
    (xy 6.45562 2.288846) (xy 6.392031 2.32609) (xy 6.330149 2.358653) (xy 6.282634 2.380077)
    (xy 6.171316 2.415283) (xy 6.043596 2.440222) (xy 5.908901 2.453941) (xy 5.776663 2.455486)
    (xy 5.656308 2.443906) (xy 5.654326 2.443574) (xy 5.489641 2.40225) (xy 5.335479 2.336412)
    (xy 5.193328 2.247474) (xy 5.064675 2.136852) (xy 4.951007 2.005961) (xy 4.85381 1.856216)
    (xy 4.774572 1.689033) (xy 4.73143 1.56519) (xy 4.702979 1.461581) (xy 4.68188 1.361252)
    (xy 4.667488 1.258109) (xy 4.659158 1.146057) (xy 4.656245 1.019001) (xy 4.657535 0.915252)
    (xy 5.67065 0.915252) (xy 5.675444 1.089222) (xy 5.690568 1.238895) (xy 5.716485 1.365597)
    (xy 5.753663 1.470658) (xy 5.802565 1.555406) (xy 5.863658 1.621169) (xy 5.934177 1.667659)
    (xy 5.970871 1.685014) (xy 6.002696 1.695419) (xy 6.038177 1.700179) (xy 6.085841 1.700601)
    (xy 6.137189 1.698748) (xy 6.238169 1.689841) (xy 6.318035 1.672398) (xy 6.343135 1.663661)
    (xy 6.400448 1.637857) (xy 6.460897 1.605453) (xy 6.487297 1.589233) (xy 6.555946 1.544205)
    (xy 6.555946 0.116982) (xy 6.480432 0.071718) (xy 6.375121 0.020572) (xy 6.267525 -0.009676)
    (xy 6.161581 -0.019205) (xy 6.061224 -0.008193) (xy 5.970387 0.023181) (xy 5.893007 0.07474)
    (xy 5.868039 0.099488) (xy 5.807856 0.180577) (xy 5.759145 0.278734) (xy 5.721499 0.395643)
    (xy 5.694512 0.532985) (xy 5.677775 0.692444) (xy 5.670883 0.8757) (xy 5.67065 0.915252)
    (xy 4.657535 0.915252) (xy 4.658073 0.872067) (xy 4.669647 0.646053) (xy 4.69292 0.442192)
    (xy 4.728504 0.257513) (xy 4.777013 0.089048) (xy 4.83906 -0.066174) (xy 4.861201 -0.112192)
    (xy 4.950385 -0.262261) (xy 5.058159 -0.395623) (xy 5.18199 -0.510123) (xy 5.319342 -0.603611)
    (xy 5.467683 -0.673932) (xy 5.556604 -0.70294) (xy 5.643933 -0.72016) (xy 5.749011 -0.730406)
    (xy 5.863029 -0.733682) (xy 5.977177 -0.729991) (xy 6.082648 -0.71934) (xy 6.167334 -0.70263)
    (xy 6.268128 -0.66986) (xy 6.365822 -0.627721) (xy 6.451296 -0.580481) (xy 6.496789 -0.548419)
    (xy 6.528169 -0.524578) (xy 6.550142 -0.510061) (xy 6.555141 -0.508) (xy 6.55669 -0.521282)
    (xy 6.558135 -0.559337) (xy 6.559443 -0.619481) (xy 6.560583 -0.699027) (xy 6.561521 -0.795289)
    (xy 6.562226 -0.905581) (xy 6.562667 -1.027219) (xy 6.562811 -1.151115) (xy 6.56273 -1.309804)
    (xy 6.562335 -1.443592) (xy 6.561395 -1.55504) (xy 6.55968 -1.646705) (xy 6.556957 -1.721147)
    (xy 6.552997 -1.780925) (xy 6.547569 -1.828598) (xy 6.540441 -1.866726) (xy 6.531384 -1.897866)
    (xy 6.520167 -1.924579) (xy 6.506558 -1.949423) (xy 6.490328 -1.974957) (xy 6.48824 -1.978119)
    (xy 6.467306 -2.01119) (xy 6.454667 -2.033931) (xy 6.452973 -2.038728) (xy 6.466216 -2.040241)
    (xy 6.504002 -2.041472) (xy 6.563416 -2.042401) (xy 6.641542 -2.043008) (xy 6.735465 -2.043273)
    (xy 6.84227 -2.043175)) (layer F.SilkS) (width 0.01))
  (fp_poly (pts (xy -2.726079 -2.96351) (xy -2.622973 -2.927762) (xy -2.526978 -2.871493) (xy -2.441247 -2.794712)
    (xy -2.36893 -2.697427) (xy -2.336445 -2.636108) (xy -2.308332 -2.55034) (xy -2.294705 -2.451323)
    (xy -2.296214 -2.349529) (xy -2.312969 -2.257286) (xy -2.358763 -2.144568) (xy -2.425168 -2.046793)
    (xy -2.508809 -1.965885) (xy -2.606312 -1.903768) (xy -2.7143 -1.862366) (xy -2.829399 -1.843603)
    (xy -2.948234 -1.849402) (xy -3.006811 -1.861794) (xy -3.120972 -1.906203) (xy -3.222365 -1.973967)
    (xy -3.308545 -2.062999) (xy -3.377066 -2.171209) (xy -3.382864 -2.183027) (xy -3.402904 -2.227372)
    (xy -3.415487 -2.26472) (xy -3.422319 -2.30412) (xy -3.425105 -2.354619) (xy -3.425568 -2.409567)
    (xy -3.424803 -2.475585) (xy -3.421352 -2.523311) (xy -3.413477 -2.561897) (xy -3.399443 -2.600494)
    (xy -3.38212 -2.638574) (xy -3.317505 -2.746672) (xy -3.237934 -2.834197) (xy -3.14656 -2.901159)
    (xy -3.046536 -2.947564) (xy -2.941012 -2.973419) (xy -2.833142 -2.978732) (xy -2.726079 -2.96351)) (layer F.SilkS) (width 0.01))
  (fp_poly (pts (xy 6.240531 3.640725) (xy 6.27191 3.662968) (xy 6.299619 3.690677) (xy 6.299619 4.000112)
    (xy 6.299546 4.091991) (xy 6.299203 4.164032) (xy 6.2984 4.218972) (xy 6.296949 4.259552)
    (xy 6.29466 4.288509) (xy 6.291344 4.308583) (xy 6.286813 4.322513) (xy 6.280877 4.333037)
    (xy 6.276222 4.339292) (xy 6.245491 4.363865) (xy 6.210204 4.366533) (xy 6.177953 4.351463)
    (xy 6.167296 4.342566) (xy 6.160172 4.330749) (xy 6.155875 4.311718) (xy 6.153699 4.281184)
    (xy 6.152936 4.234854) (xy 6.152863 4.199063) (xy 6.152863 4.064237) (xy 5.656152 4.064237)
    (xy 5.656152 4.186892) (xy 5.655639 4.242979) (xy 5.653584 4.281525) (xy 5.649216 4.307553)
    (xy 5.641764 4.326089) (xy 5.632755 4.339292) (xy 5.601852 4.363796) (xy 5.566904 4.366698)
    (xy 5.533446 4.349281) (xy 5.524312 4.340151) (xy 5.51786 4.328047) (xy 5.513605 4.309193)
    (xy 5.51106 4.279812) (xy 5.509737 4.236129) (xy 5.509151 4.174367) (xy 5.509083 4.160192)
    (xy 5.508599 4.043823) (xy 5.508349 3.947919) (xy 5.508431 3.870369) (xy 5.508939 3.809061)
    (xy 5.50997 3.761882) (xy 5.511621 3.726722) (xy 5.513987 3.701468) (xy 5.517165 3.684009)
    (xy 5.521252 3.672233) (xy 5.526342 3.664027) (xy 5.531974 3.657837) (xy 5.563836 3.638036)
    (xy 5.597065 3.640725) (xy 5.628443 3.662968) (xy 5.641141 3.677318) (xy 5.649234 3.69317)
    (xy 5.65375 3.715746) (xy 5.655714 3.75027) (xy 5.656152 3.801968) (xy 5.656152 3.917481)
    (xy 6.152863 3.917481) (xy 6.152863 3.798948) (xy 6.15337 3.74434) (xy 6.155406 3.707467)
    (xy 6.159743 3.683499) (xy 6.167155 3.667607) (xy 6.175441 3.657837) (xy 6.207302 3.638036)
    (xy 6.240531 3.640725)) (layer F.SilkS) (width 0.01))
  (fp_poly (pts (xy 4.974773 3.635355) (xy 5.05348 3.635734) (xy 5.114571 3.636525) (xy 5.160525 3.637862)
    (xy 5.193822 3.639875) (xy 5.216944 3.642698) (xy 5.23237 3.646461) (xy 5.242579 3.651297)
    (xy 5.247521 3.655014) (xy 5.273165 3.68755) (xy 5.276267 3.72133) (xy 5.260419 3.752018)
    (xy 5.250056 3.764281) (xy 5.238904 3.772642) (xy 5.222743 3.777849) (xy 5.19735 3.780649)
    (xy 5.158506 3.781788) (xy 5.101988 3.782013) (xy 5.090888 3.782014) (xy 4.944952 3.782014)
    (xy 4.944952 4.052948) (xy 4.944856 4.138346) (xy 4.944419 4.204056) (xy 4.94342 4.252966)
    (xy 4.941636 4.287965) (xy 4.938845 4.311941) (xy 4.934825 4.327785) (xy 4.929353 4.338383)
    (xy 4.922374 4.346459) (xy 4.889442 4.366304) (xy 4.855062 4.36474) (xy 4.823884 4.342098)
    (xy 4.821594 4.339292) (xy 4.814137 4.328684) (xy 4.808455 4.316273) (xy 4.804309 4.299042)
    (xy 4.801458 4.273976) (xy 4.799662 4.238059) (xy 4.79868 4.188275) (xy 4.798272 4.121609)
    (xy 4.798197 4.045781) (xy 4.798197 3.782014) (xy 4.658835 3.782014) (xy 4.59903 3.78161)
    (xy 4.557626 3.780032) (xy 4.530456 3.776739) (xy 4.513354 3.771184) (xy 4.502151 3.762823)
    (xy 4.500791 3.76137) (xy 4.484433 3.728131) (xy 4.48588 3.690554) (xy 4.504686 3.657837)
    (xy 4.511958 3.65149) (xy 4.521335 3.646458) (xy 4.535317 3.642588) (xy 4.556404 3.639729)
    (xy 4.587097 3.637727) (xy 4.629897 3.636431) (xy 4.687303 3.63569) (xy 4.761818 3.63535)
    (xy 4.855941 3.63526) (xy 4.875968 3.635259) (xy 4.974773 3.635355)) (layer F.SilkS) (width 0.01))
  (fp_poly (pts (xy 4.200322 3.642069) (xy 4.224035 3.656839) (xy 4.250686 3.678419) (xy 4.250686 3.999965)
    (xy 4.250601 4.094022) (xy 4.250237 4.168124) (xy 4.249432 4.224896) (xy 4.248021 4.26696)
    (xy 4.245841 4.29694) (xy 4.242729 4.317459) (xy 4.238522 4.331141) (xy 4.233056 4.340608)
    (xy 4.22918 4.345274) (xy 4.197742 4.365767) (xy 4.161941 4.364931) (xy 4.130581 4.347456)
    (xy 4.10393 4.325876) (xy 4.10393 3.678419) (xy 4.130581 3.656839) (xy 4.156302 3.641141)
    (xy 4.177308 3.635259) (xy 4.200322 3.642069)) (layer F.SilkS) (width 0.01))
  (fp_poly (pts (xy 3.756373 3.637226) (xy 3.775963 3.644227) (xy 3.776718 3.644569) (xy 3.803321 3.66487)
    (xy 3.817978 3.685753) (xy 3.820846 3.695544) (xy 3.820704 3.708553) (xy 3.816669 3.727087)
    (xy 3.807854 3.753449) (xy 3.793377 3.789944) (xy 3.772353 3.838879) (xy 3.743896 3.902557)
    (xy 3.707123 3.983285) (xy 3.686883 4.027408) (xy 3.650333 4.106177) (xy 3.616023 4.178615)
    (xy 3.58526 4.242072) (xy 3.559356 4.2939) (xy 3.539618 4.331451) (xy 3.527358 4.352076)
    (xy 3.524932 4.354925) (xy 3.493891 4.367494) (xy 3.458829 4.365811) (xy 3.430708 4.350524)
    (xy 3.429562 4.349281) (xy 3.418376 4.332346) (xy 3.399612 4.299362) (xy 3.375583 4.254572)
    (xy 3.348605 4.202224) (xy 3.338909 4.182934) (xy 3.265722 4.036342) (xy 3.185948 4.195585)
    (xy 3.157475 4.250607) (xy 3.131058 4.298324) (xy 3.108856 4.335085) (xy 3.093027 4.357236)
    (xy 3.087662 4.361933) (xy 3.045965 4.368294) (xy 3.011557 4.354925) (xy 3.001436 4.340638)
    (xy 2.983922 4.308884) (xy 2.960443 4.262789) (xy 2.932428 4.205477) (xy 2.901307 4.140072)
    (xy 2.868507 4.069699) (xy 2.835458 3.997483) (xy 2.803589 3.926547) (xy 2.774327 3.860017)
    (xy 2.749103 3.801018) (xy 2.729344 3.752673) (xy 2.71648 3.718107) (xy 2.711939 3.700445)
    (xy 2.711985 3.699805) (xy 2.723034 3.67758) (xy 2.745118 3.654945) (xy 2.746418 3.65396)
    (xy 2.773561 3.638617) (xy 2.798666 3.638766) (xy 2.808076 3.641658) (xy 2.819542 3.64791)
    (xy 2.831718 3.660206) (xy 2.846065 3.6811) (xy 2.864044 3.713141) (xy 2.887115 3.75888)
    (xy 2.916738 3.820869) (xy 2.943453 3.87809) (xy 2.974188 3.944418) (xy 3.001729 4.004066)
    (xy 3.024646 4.053917) (xy 3.041506 4.090856) (xy 3.050881 4.111765) (xy 3.052248 4.115037)
    (xy 3.058397 4.109689) (xy 3.07253 4.087301) (xy 3.092765 4.051138) (xy 3.117223 4.004469)
    (xy 3.126956 3.985214) (xy 3.159925 3.920196) (xy 3.185351 3.872846) (xy 3.20532 3.840411)
    (xy 3.221918 3.820138) (xy 3.237232 3.809274) (xy 3.253348 3.805067) (xy 3.263851 3.804592)
    (xy 3.282378 3.806234) (xy 3.298612 3.813023) (xy 3.314743 3.827758) (xy 3.332959 3.853236)
    (xy 3.355447 3.892253) (xy 3.384397 3.947606) (xy 3.40037 3.979095) (xy 3.426278 4.029279)
    (xy 3.448875 4.070896) (xy 3.466166 4.100434) (xy 3.476158 4.114381) (xy 3.477517 4.114962)
    (xy 3.483969 4.103985) (xy 3.498416 4.075482) (xy 3.519411 4.032436) (xy 3.545505 3.97783)
    (xy 3.575254 3.914646) (xy 3.589888 3.883263) (xy 3.627958 3.80227) (xy 3.658613 3.739948)
    (xy 3.683445 3.694263) (xy 3.704045 3.663181) (xy 3.722006 3.64467) (xy 3.738918 3.636696)
    (xy 3.756373 3.637226)) (layer F.SilkS) (width 0.01))
  (fp_poly (pts (xy 1.030017 3.635467) (xy 1.158996 3.639828) (xy 1.268699 3.653053) (xy 1.360934 3.675933)
    (xy 1.43751 3.709262) (xy 1.500235 3.75383) (xy 1.55092 3.810428) (xy 1.591371 3.87985)
    (xy 1.592167 3.881543) (xy 1.616309 3.943675) (xy 1.624911 3.998701) (xy 1.617939 4.054079)
    (xy 1.595362 4.117265) (xy 1.59108 4.126881) (xy 1.56188 4.183158) (xy 1.529064 4.226643)
    (xy 1.48671 4.263609) (xy 1.428898 4.300327) (xy 1.425539 4.302244) (xy 1.375212 4.326419)
    (xy 1.318329 4.344474) (xy 1.251235 4.357031) (xy 1.170273 4.364714) (xy 1.07179 4.368145)
    (xy 1.036994 4.368443) (xy 0.871302 4.369037) (xy 0.847905 4.339292) (xy 0.840965 4.329511)
    (xy 0.83555 4.318089) (xy 0.831473 4.302287) (xy 0.828545 4.279367) (xy 0.826575 4.246588)
    (xy 0.825933 4.222281) (xy 0.982552 4.222281) (xy 1.076434 4.222281) (xy 1.131372 4.220675)
    (xy 1.187768 4.216447) (xy 1.234053 4.210484) (xy 1.236847 4.209982) (xy 1.319056 4.187928)
    (xy 1.382822 4.154792) (xy 1.43016 4.109039) (xy 1.46309 4.049131) (xy 1.468816 4.033253)
    (xy 1.474429 4.008525) (xy 1.471999 3.984094) (xy 1.460175 3.951592) (xy 1.453048 3.935626)
    (xy 1.429708 3.893198) (xy 1.401588 3.863432) (xy 1.370648 3.842703) (xy 1.308674 3.815729)
    (xy 1.229359 3.79619) (xy 1.136961 3.784938) (xy 1.070041 3.782462) (xy 0.982552 3.782014)
    (xy 0.982552 4.222281) (xy 0.825933 4.222281) (xy 0.825376 4.201213) (xy 0.824758 4.140503)
    (xy 0.824533 4.061718) (xy 0.824508 4.000112) (xy 0.824508 3.690677) (xy 0.852217 3.662968)
    (xy 0.864514 3.651736) (xy 0.877811 3.644045) (xy 0.89638 3.639232) (xy 0.924494 3.636638)
    (xy 0.966425 3.635602) (xy 1.026445 3.635462) (xy 1.030017 3.635467)) (layer F.SilkS) (width 0.01))
  (fp_poly (pts (xy 0.242051 3.635452) (xy 0.318409 3.636366) (xy 0.376925 3.638503) (xy 0.419963 3.642367)
    (xy 0.449891 3.648459) (xy 0.469076 3.657282) (xy 0.479884 3.669338) (xy 0.484681 3.685131)
    (xy 0.485835 3.705162) (xy 0.485841 3.707527) (xy 0.484839 3.730184) (xy 0.480104 3.747695)
    (xy 0.469041 3.760766) (xy 0.449056 3.770105) (xy 0.417554 3.776419) (xy 0.37194 3.780414)
    (xy 0.309621 3.782798) (xy 0.228001 3.784278) (xy 0.202985 3.784606) (xy -0.039092 3.787659)
    (xy -0.042478 3.85257) (xy -0.045863 3.917481) (xy 0.122284 3.917481) (xy 0.187974 3.917723)
    (xy 0.23488 3.918748) (xy 0.266791 3.921003) (xy 0.287499 3.924934) (xy 0.300792 3.93099)
    (xy 0.310463 3.939616) (xy 0.310525 3.939685) (xy 0.328064 3.973304) (xy 0.32743 4.00964)
    (xy 0.309022 4.040615) (xy 0.305379 4.043799) (xy 0.292449 4.052004) (xy 0.274732 4.057713)
    (xy 0.248278 4.061354) (xy 0.20914 4.063359) (xy 0.15337 4.064156) (xy 0.117702 4.064237)
    (xy -0.044737 4.064237) (xy -0.044737 4.222281) (xy 0.201869 4.222281) (xy 0.283288 4.222423)
    (xy 0.345118 4.223006) (xy 0.390345 4.22426) (xy 0.421956 4.226419) (xy 0.442939 4.229715)
    (xy 0.456281 4.234381) (xy 0.464969 4.240649) (xy 0.467158 4.242925) (xy 0.483322 4.274472)
    (xy 0.484505 4.31036) (xy 0.471244 4.341477) (xy 0.460751 4.351463) (xy 0.449837 4.356961)
    (xy 0.432925 4.361214) (xy 0.407341 4.364372) (xy 0.370409 4.366584) (xy 0.319454 4.367998)
    (xy 0.251802 4.368764) (xy 0.164777 4.36903) (xy 0.145102 4.369037) (xy 0.056619 4.368979)
    (xy -0.012065 4.368659) (xy -0.063728 4.367859) (xy -0.101147 4.366359) (xy -0.127102 4.363941)
    (xy -0.14437 4.360386) (xy -0.15573 4.355474) (xy -0.16396 4.348987) (xy -0.168475 4.34433)
    (xy -0.175271 4.336081) (xy -0.18058 4.325861) (xy -0.184586 4.310992) (xy -0.187471 4.288794)
    (xy -0.189418 4.256585) (xy -0.190611 4.211688) (xy -0.191231 4.15142) (xy -0.191463 4.073103)
    (xy -0.191492 4.007186) (xy -0.191421 3.91482) (xy -0.191084 3.842309) (xy -0.190294 3.786929)
    (xy -0.188866 3.745957) (xy -0.186613 3.71667) (xy -0.183349 3.696345) (xy -0.178888 3.682258)
    (xy -0.173044 3.671687) (xy -0.168095 3.665003) (xy -0.144698 3.635259) (xy 0.145482 3.635259)
    (xy 0.242051 3.635452)) (layer F.SilkS) (width 0.01))
  (fp_poly (pts (xy -1.288406 3.63964) (xy -1.26484 3.653465) (xy -1.234027 3.676073) (xy -1.19437 3.70853)
    (xy -1.144272 3.7519) (xy -1.082135 3.80725) (xy -1.006364 3.875643) (xy -0.919626 3.954276)
    (xy -0.739003 4.11807) (xy -0.733359 3.898221) (xy -0.731321 3.822543) (xy -0.729355 3.766186)
    (xy -0.727026 3.725898) (xy -0.723898 3.698427) (xy -0.719537 3.680521) (xy -0.713508 3.668929)
    (xy -0.705376 3.6604) (xy -0.701064 3.656815) (xy -0.666533 3.637862) (xy -0.633675 3.640633)
    (xy -0.60761 3.656825) (xy -0.580959 3.678391) (xy -0.577644 3.993343) (xy -0.576727 4.085971)
    (xy -0.57626 4.158736) (xy -0.576405 4.214353) (xy -0.577324 4.255534) (xy -0.579179 4.284995)
    (xy -0.582131 4.305447) (xy -0.586342 4.319605) (xy -0.591974 4.330183) (xy -0.598219 4.338666)
    (xy -0.611731 4.354399) (xy -0.625175 4.364828) (xy -0.640416 4.368831) (xy -0.659318 4.365286)
    (xy -0.683747 4.353071) (xy -0.715565 4.331063) (xy -0.75664 4.298141) (xy -0.808834 4.253183)
    (xy -0.874014 4.195067) (xy -0.947848 4.128291) (xy -1.213137 3.88765) (xy -1.218781 4.106781)
    (xy -1.220823 4.18232) (xy -1.222794 4.238546) (xy -1.225131 4.278716) (xy -1.228273 4.306088)
    (xy -1.232656 4.32392) (xy -1.238716 4.335471) (xy -1.246892 4.343999) (xy -1.251076 4.347474)
    (xy -1.288057 4.366564) (xy -1.323 4.363685) (xy -1.353428 4.339292) (xy -1.360389 4.329478)
    (xy -1.365815 4.318018) (xy -1.369895 4.30216) (xy -1.372821 4.279155) (xy -1.374784 4.246254)
    (xy -1.375975 4.200708) (xy -1.376584 4.139765) (xy -1.376803 4.060678) (xy -1.376826 4.002148)
    (xy -1.376752 3.910599) (xy -1.376405 3.838879) (xy -1.375593 3.784237) (xy -1.374125 3.743924)
    (xy -1.371811 3.71519) (xy -1.368459 3.695285) (xy -1.36388 3.68146) (xy -1.357881 3.670964)
    (xy -1.353428 3.665003) (xy -1.342142 3.650883) (xy -1.331593 3.640221) (xy -1.320185 3.634084)
    (xy -1.306322 3.633535) (xy -1.288406 3.63964)) (layer F.SilkS) (width 0.01))
  (fp_poly (pts (xy -1.938373 3.640791) (xy -1.869857 3.652287) (xy -1.817235 3.670159) (xy -1.783 3.693691)
    (xy -1.773671 3.707116) (xy -1.764185 3.73834) (xy -1.770569 3.766587) (xy -1.790722 3.793374)
    (xy -1.822037 3.805905) (xy -1.867475 3.804888) (xy -1.902618 3.798098) (xy -1.980711 3.785163)
    (xy -2.060518 3.783934) (xy -2.149847 3.794433) (xy -2.174521 3.798882) (xy -2.257583 3.8223)
    (xy -2.322565 3.857137) (xy -2.368753 3.902796) (xy -2.395437 3.958686) (xy -2.400955 3.98758)
    (xy -2.397343 4.046204) (xy -2.374021 4.098071) (xy -2.333116 4.14217) (xy -2.276751 4.177491)
    (xy -2.207052 4.203021) (xy -2.126144 4.217751) (xy -2.036152 4.22067) (xy -1.939202 4.210767)
    (xy -1.933728 4.209833) (xy -1.895167 4.202651) (xy -1.873786 4.195713) (xy -1.864519 4.185419)
    (xy -1.862298 4.168168) (xy -1.862248 4.159033) (xy -1.862248 4.120681) (xy -1.930723 4.120681)
    (xy -1.991192 4.116539) (xy -2.032457 4.103339) (xy -2.056467 4.079922) (xy -2.065169 4.045128)
    (xy -2.065275 4.040586) (xy -2.060184 4.010846) (xy -2.042725 3.989611) (xy -2.010231 3.975558)
    (xy -1.960035 3.967365) (xy -1.911415 3.964353) (xy -1.840748 3.962625) (xy -1.78949 3.965262)
    (xy -1.754531 3.974992) (xy -1.732762 3.994545) (xy -1.721072 4.026648) (xy -1.716352 4.07403)
    (xy -1.715492 4.136263) (xy -1.716901 4.205727) (xy -1.72114 4.252978) (xy -1.728228 4.278204)
    (xy -1.729603 4.28018) (xy -1.76852 4.3117) (xy -1.825578 4.336662) (xy -1.897161 4.354532)
    (xy -1.97965 4.364778) (xy -2.069431 4.366865) (xy -2.162884 4.36026) (xy -2.217848 4.352148)
    (xy -2.304058 4.327746) (xy -2.384184 4.287854) (xy -2.451269 4.236079) (xy -2.461465 4.225731)
    (xy -2.494594 4.182227) (xy -2.524486 4.12831) (xy -2.547649 4.071784) (xy -2.56059 4.020451)
    (xy -2.56215 4.000736) (xy -2.55551 3.959611) (xy -2.53786 3.908444) (xy -2.512589 3.854586)
    (xy -2.483081 3.805387) (xy -2.457011 3.772526) (xy -2.396057 3.723644) (xy -2.317261 3.684737)
    (xy -2.223449 3.656686) (xy -2.117442 3.640371) (xy -2.020292 3.636384) (xy -1.938373 3.640791)) (layer F.SilkS) (width 0.01))
  (fp_poly (pts (xy -2.912114 3.657837) (xy -2.905534 3.66541) (xy -2.900371 3.675179) (xy -2.896456 3.689763)
    (xy -2.893616 3.711777) (xy -2.891679 3.74384) (xy -2.890475 3.788567) (xy -2.889831 3.848577)
    (xy -2.889576 3.926486) (xy -2.889537 4.002148) (xy -2.889606 4.095994) (xy -2.88993 4.169881)
    (xy -2.890678 4.226424) (xy -2.892024 4.268241) (xy -2.894138 4.297949) (xy -2.897192 4.318165)
    (xy -2.901358 4.331506) (xy -2.906808 4.34059) (xy -2.912114 4.346459) (xy -2.945118 4.366139)
    (xy -2.980283 4.364373) (xy -3.011747 4.342909) (xy -3.018976 4.334529) (xy -3.024626 4.324806)
    (xy -3.028891 4.311053) (xy -3.031965 4.290581) (xy -3.034044 4.260704) (xy -3.035322 4.218733)
    (xy -3.035993 4.161981) (xy -3.036251 4.087759) (xy -3.036292 4.003729) (xy -3.036292 3.690677)
    (xy -3.008583 3.662968) (xy -2.974429 3.639655) (xy -2.941298 3.638815) (xy -2.912114 3.657837)) (layer F.SilkS) (width 0.01))
  (fp_poly (pts (xy -3.679995 3.636543) (xy -3.60518 3.641773) (xy -3.535598 3.649942) (xy -3.475294 3.660742)
    (xy -3.428312 3.673865) (xy -3.398698 3.689005) (xy -3.394152 3.693461) (xy -3.378346 3.728042)
    (xy -3.383139 3.763543) (xy -3.407656 3.793917) (xy -3.408826 3.794788) (xy -3.423246 3.804146)
    (xy -3.4383 3.809068) (xy -3.459297 3.809665) (xy -3.491549 3.806053) (xy -3.540365 3.798346)
    (xy -3.544292 3.797697) (xy -3.617031 3.788761) (xy -3.695509 3.784353) (xy -3.774219 3.784311)
    (xy -3.847653 3.788471) (xy -3.910303 3.796671) (xy -3.956662 3.808749) (xy -3.959708 3.809963)
    (xy -3.99334 3.828807) (xy -4.005156 3.847877) (xy -3.995906 3.866631) (xy -3.966339 3.884529)
    (xy -3.917203 3.901029) (xy -3.849249 3.915588) (xy -3.803937 3.922598) (xy -3.709748 3.936081)
    (xy -3.634836 3.948406) (xy -3.576009 3.960641) (xy -3.530077 3.973853) (xy -3.493847 3.989109)
    (xy -3.46413 4.007477) (xy -3.437734 4.030023) (xy -3.416522 4.052163) (xy -3.391357 4.083011)
    (xy -3.378973 4.109537) (xy -3.3751 4.142218) (xy -3.374959 4.154187) (xy -3.377868 4.193904)
    (xy -3.389494 4.223451) (xy -3.409615 4.249678) (xy -3.450508 4.289768) (xy -3.496109 4.320341)
    (xy -3.549805 4.342395) (xy -3.614984 4.356927) (xy -3.695036 4.364933) (xy -3.793349 4.36741)
    (xy -3.809581 4.367369) (xy -3.875141 4.36601) (xy -3.940158 4.362922) (xy -3.997544 4.358548)
    (xy -4.040214 4.353332) (xy -4.043664 4.352733) (xy -4.086088 4.342683) (xy -4.122072 4.329988)
    (xy -4.142442 4.318382) (xy -4.161399 4.287764) (xy -4.162719 4.25211) (xy -4.146377 4.220336)
    (xy -4.142721 4.216743) (xy -4.127607 4.206068) (xy -4.108707 4.201468) (xy -4.079454 4.202251)
    (xy -4.043943 4.206319) (xy -4.004262 4.209954) (xy -3.948637 4.21302) (xy -3.883698 4.215245)
    (xy -3.816077 4.216356) (xy -3.798292 4.216429) (xy -3.73042 4.216156) (xy -3.680746 4.214838)
    (xy -3.644902 4.212019) (xy -3.618516 4.207242) (xy -3.597218 4.200049) (xy -3.584418 4.194059)
    (xy -3.556292 4.177425) (xy -3.53836 4.16236) (xy -3.535739 4.158089) (xy -3.541268 4.140455)
    (xy -3.567552 4.123384) (xy -3.61277 4.10765) (xy -3.6751 4.09403) (xy -3.693463 4.090996)
    (xy -3.789382 4.07593) (xy -3.865933 4.063338) (xy -3.926072 4.052303) (xy -3.972752 4.041912)
    (xy -4.008929 4.031248) (xy -4.037557 4.019397) (xy -4.06159 4.005443) (xy -4.083984 3.988473)
    (xy -4.107694 3.96757) (xy -4.115672 3.960241) (xy -4.143645 3.932891) (xy -4.158452 3.911221)
    (xy -4.164244 3.886424) (xy -4.165181 3.855175) (xy -4.154867 3.793897) (xy -4.124044 3.741832)
    (xy -4.072887 3.69915) (xy -4.001575 3.666017) (xy -3.950692 3.651156) (xy -3.895392 3.641558)
    (xy -3.829145 3.636128) (xy -3.755998 3.634559) (xy -3.679995 3.636543)) (layer F.SilkS) (width 0.01))
  (fp_poly (pts (xy -4.701086 3.635338) (xy -4.631678 3.63571) (xy -4.579289 3.636577) (xy -4.541139 3.638138)
    (xy -4.514451 3.640595) (xy -4.496445 3.644149) (xy -4.484341 3.649002) (xy -4.475361 3.655353)
    (xy -4.47211 3.658276) (xy -4.452335 3.689334) (xy -4.448774 3.72502) (xy -4.461783 3.756702)
    (xy -4.467798 3.763105) (xy -4.477527 3.769313) (xy -4.493193 3.774102) (xy -4.5177 3.777706)
    (xy -4.553953 3.780356) (xy -4.604857 3.782287) (xy -4.673318 3.783731) (xy -4.735909 3.78461)
    (xy -4.983626 3.787659) (xy -4.987011 3.85257) (xy -4.990397 3.917481) (xy -4.82225 3.917481)
    (xy -4.749251 3.918111) (xy -4.695809 3.920745) (xy -4.65892 3.926501) (xy -4.63558 3.936496)
    (xy -4.622786 3.951848) (xy -4.617534 3.973674) (xy -4.616737 3.99393) (xy -4.619215 4.018784)
    (xy -4.628569 4.037098) (xy -4.647675 4.049829) (xy -4.67941 4.057933) (xy -4.726651 4.062368)
    (xy -4.792275 4.064091) (xy -4.828093 4.064237) (xy -4.98927 4.064237) (xy -4.98927 4.222281)
    (xy -4.740914 4.222281) (xy -4.659505 4.222394) (xy -4.597634 4.222904) (xy -4.55226 4.224062)
    (xy -4.520346 4.226122) (xy -4.498851 4.229338) (xy -4.484735 4.233964) (xy -4.47496 4.240251)
    (xy -4.469981 4.244859) (xy -4.452902 4.271752) (xy -4.447403 4.295659) (xy -4.455255 4.324859)
    (xy -4.469981 4.346459) (xy -4.477838 4.353258) (xy -4.48798 4.358538) (xy -4.503136 4.36249)
    (xy -4.526033 4.365305) (xy -4.559401 4.367174) (xy -4.605967 4.36829) (xy -4.668459 4.368843)
    (xy -4.749606 4.369025) (xy -4.791714 4.369037) (xy -4.88189 4.368957) (xy -4.952216 4.36859)
    (xy -5.005421 4.367744) (xy -5.044232 4.366228) (xy -5.071379 4.363851) (xy -5.08959 4.360421)
    (xy -5.101592 4.355746) (xy -5.110114 4.349636) (xy -5.113448 4.346459) (xy -5.120047 4.338862)
    (xy -5.125219 4.329062) (xy -5.129138 4.314431) (xy -5.131976 4.292344) (xy -5.133907 4.260174)
    (xy -5.135104 4.215295) (xy -5.13574 4.155081) (xy -5.135989 4.076905) (xy -5.136026 4.004115)
    (xy -5.135992 3.910899) (xy -5.135757 3.837623) (xy -5.135122 3.78165) (xy -5.133886 3.740343)
    (xy -5.131848 3.711064) (xy -5.128809 3.691176) (xy -5.124569 3.678042) (xy -5.118927 3.669024)
    (xy -5.111683 3.661485) (xy -5.109898 3.659804) (xy -5.101237 3.652364) (xy -5.091174 3.646601)
    (xy -5.076917 3.642304) (xy -5.055675 3.639256) (xy -5.024656 3.637243) (xy -4.981069 3.636052)
    (xy -4.922123 3.635467) (xy -4.845026 3.635275) (xy -4.790293 3.635259) (xy -4.701086 3.635338)) (layer F.SilkS) (width 0.01))
  (fp_poly (pts (xy -6.109663 3.635258) (xy -6.070181 3.635659) (xy -5.954492 3.638451) (xy -5.857603 3.646742)
    (xy -5.776211 3.661424) (xy -5.707015 3.683385) (xy -5.646712 3.713514) (xy -5.592 3.752702)
    (xy -5.572459 3.769724) (xy -5.540042 3.809555) (xy -5.510812 3.863605) (xy -5.488283 3.923515)
    (xy -5.475971 3.980931) (xy -5.474692 4.002148) (xy -5.482709 4.060961) (xy -5.504191 4.125205)
    (xy -5.535291 4.186013) (xy -5.572158 4.234522) (xy -5.578146 4.240374) (xy -5.628871 4.281513)
    (xy -5.684417 4.313627) (xy -5.747988 4.337557) (xy -5.822786 4.354145) (xy -5.912014 4.364233)
    (xy -6.018874 4.368661) (xy -6.06782 4.369037) (xy -6.130054 4.368737) (xy -6.17382 4.367484)
    (xy -6.203223 4.364746) (xy -6.222371 4.359993) (xy -6.235369 4.352693) (xy -6.242337 4.346459)
    (xy -6.248918 4.338886) (xy -6.25408 4.329116) (xy -6.257995 4.314532) (xy -6.260835 4.292518)
    (xy -6.262772 4.260456) (xy -6.263976 4.215728) (xy -6.26462 4.155718) (xy -6.264875 4.077809)
    (xy -6.264914 4.002148) (xy -6.265162 3.901233) (xy -6.265109 3.820619) (xy -6.264149 3.782014)
    (xy -6.118159 3.782014) (xy -6.118159 4.222281) (xy -6.025026 4.222196) (xy -5.968985 4.220588)
    (xy -5.910291 4.216448) (xy -5.86132 4.210656) (xy -5.85983 4.210418) (xy -5.780684 4.191282)
    (xy -5.719294 4.161479) (xy -5.672597 4.11907) (xy -5.642927 4.073153) (xy -5.624645 4.022218)
    (xy -5.626063 3.974392) (xy -5.64728 3.923125) (xy -5.688781 3.870091) (xy -5.74629 3.830792)
    (xy -5.821042 3.804523) (xy -5.871 3.795227) (xy -5.927708 3.788699) (xy -5.987811 3.783974)
    (xy -6.038931 3.782009) (xy -6.041959 3.782) (xy -6.118159 3.782014) (xy -6.264149 3.782014)
    (xy -6.263552 3.758043) (xy -6.25929 3.711247) (xy -6.251122 3.67797) (xy -6.237848 3.655951)
    (xy -6.218266 3.642931) (xy -6.191175 3.636649) (xy -6.155374 3.634845) (xy -6.109663 3.635258)) (layer F.SilkS) (width 0.01))
)
