(module KiCad-Logo_12mm_SilkScreen (layer F.Cu) (tedit 0)
  (descr "KiCad Logo")
  (tags "Logo KiCad")
  (attr virtual)
  (fp_text reference REF** (at 0 -8.89) (layer F.SilkS) hide
    (effects (font (size 1 1) (thickness 0.15)))
  )
  (fp_text value KiCad-Logo_12mm_SilkScreen (at 1.27 8.89) (layer F.Fab) hide
    (effects (font (size 1 1) (thickness 0.15)))
  )
  (fp_poly (pts (xy -11.847446 -5.025459) (xy -11.321244 -5.025387) (xy -11.076303 -5.025377) (xy -7.155699 -5.025377)
    (xy -7.155699 -4.794266) (xy -7.131032 -4.513024) (xy -7.056584 -4.253641) (xy -6.931686 -4.014576)
    (xy -6.75567 -3.794286) (xy -6.696118 -3.73479) (xy -6.481895 -3.566029) (xy -6.24569 -3.442948)
    (xy -5.994517 -3.36549) (xy -5.735393 -3.333601) (xy -5.475333 -3.347224) (xy -5.221353 -3.406303)
    (xy -4.980469 -3.510783) (xy -4.759696 -3.660607) (xy -4.660543 -3.750999) (xy -4.475773 -3.972624)
    (xy -4.340284 -4.216339) (xy -4.255256 -4.479357) (xy -4.221872 -4.758894) (xy -4.221428 -4.786394)
    (xy -4.219678 -5.025368) (xy -4.114645 -5.025372) (xy -4.02147 -5.012727) (xy -3.936356 -4.98196)
    (xy -3.930731 -4.978781) (xy -3.911508 -4.968806) (xy -3.893855 -4.961038) (xy -3.877708 -4.953213)
    (xy -3.863005 -4.94307) (xy -3.849681 -4.928345) (xy -3.837672 -4.906775) (xy -3.826915 -4.876099)
    (xy -3.817346 -4.834053) (xy -3.808901 -4.778374) (xy -3.801516 -4.706801) (xy -3.795127 -4.61707)
    (xy -3.789671 -4.506918) (xy -3.785084 -4.374084) (xy -3.781302 -4.216304) (xy -3.77826 -4.031316)
    (xy -3.775897 -3.816856) (xy -3.774147 -3.570663) (xy -3.772947 -3.290473) (xy -3.772232 -2.974025)
    (xy -3.77194 -2.619054) (xy -3.772007 -2.2233) (xy -3.772368 -1.784498) (xy -3.77296 -1.300386)
    (xy -3.773719 -0.768702) (xy -3.774581 -0.187183) (xy -3.775482 0.446433) (xy -3.775587 0.523629)
    (xy -3.776395 1.161287) (xy -3.777081 1.746582) (xy -3.777717 2.281778) (xy -3.778376 2.769136)
    (xy -3.779131 3.210917) (xy -3.780053 3.609382) (xy -3.781216 3.966795) (xy -3.782693 4.285415)
    (xy -3.784555 4.567506) (xy -3.786876 4.815328) (xy -3.789729 5.031143) (xy -3.793185 5.217213)
    (xy -3.797318 5.3758) (xy -3.8022 5.509164) (xy -3.807904 5.619569) (xy -3.814502 5.709275)
    (xy -3.822068 5.780544) (xy -3.830673 5.835638) (xy -3.84039 5.876818) (xy -3.851293 5.906346)
    (xy -3.863453 5.926484) (xy -3.876943 5.939493) (xy -3.891837 5.947636) (xy -3.908206 5.953173)
    (xy -3.926123 5.958366) (xy -3.945661 5.965477) (xy -3.950434 5.967642) (xy -3.965434 5.972506)
    (xy -3.990541 5.976976) (xy -4.027946 5.981066) (xy -4.079842 5.984793) (xy -4.14842 5.988173)
    (xy -4.235873 5.991221) (xy -4.344394 5.993954) (xy -4.476174 5.996387) (xy -4.633406 5.998537)
    (xy -4.818281 6.000419) (xy -5.032993 6.002049) (xy -5.279734 6.003443) (xy -5.560694 6.004617)
    (xy -5.878068 6.005587) (xy -6.234047 6.006369) (xy -6.630822 6.006979) (xy -7.070588 6.007432)
    (xy -7.555535 6.007745) (xy -8.087856 6.007934) (xy -8.669743 6.008013) (xy -9.303389 6.008)
    (xy -9.508644 6.00798) (xy -10.156347 6.007876) (xy -10.751644 6.007706) (xy -11.296755 6.007453)
    (xy -11.793897 6.007098) (xy -12.24529 6.006626) (xy -12.653151 6.006018) (xy -13.0197 6.005258)
    (xy -13.347154 6.004327) (xy -13.637732 6.003209) (xy -13.893652 6.001886) (xy -14.117133 6.000341)
    (xy -14.310394 5.998557) (xy -14.475652 5.996516) (xy -14.615127 5.994201) (xy -14.731037 5.991594)
    (xy -14.8256 5.988678) (xy -14.901034 5.985436) (xy -14.959558 5.981851) (xy -15.003391 5.977905)
    (xy -15.034752 5.973581) (xy -15.055857 5.968862) (xy -15.067363 5.96454) (xy -15.087812 5.955916)
    (xy -15.106587 5.949557) (xy -15.12376 5.943203) (xy -15.139402 5.934597) (xy -15.153584 5.92148)
    (xy -15.166377 5.901594) (xy -15.177852 5.872679) (xy -15.18808 5.832479) (xy -15.197133 5.778733)
    (xy -15.20508 5.709185) (xy -15.211994 5.621574) (xy -15.217945 5.513644) (xy -15.223005 5.383135)
    (xy -15.227245 5.227789) (xy -15.230735 5.045348) (xy -15.233547 4.833553) (xy -15.234283 4.752258)
    (xy -14.505361 4.752258) (xy -11.928987 4.752258) (xy -11.978561 4.67715) (xy -12.027878 4.599968)
    (xy -12.06964 4.526469) (xy -12.104441 4.451512) (xy -12.132877 4.369953) (xy -12.15554 4.276648)
    (xy -12.173025 4.166453) (xy -12.185926 4.034225) (xy -12.194837 3.87482) (xy -12.200352 3.683095)
    (xy -12.203064 3.453907) (xy -12.203569 3.182112) (xy -12.202459 2.862566) (xy -12.20183 2.743932)
    (xy -12.194732 1.472123) (xy -11.389033 2.56901) (xy -11.160779 2.880183) (xy -10.963025 3.151143)
    (xy -10.793635 3.385478) (xy -10.650473 3.58678) (xy -10.531405 3.758637) (xy -10.434295 3.90464)
    (xy -10.357007 4.028378) (xy -10.297407 4.133441) (xy -10.253359 4.22342) (xy -10.222728 4.301903)
    (xy -10.203378 4.37248) (xy -10.193175 4.438742) (xy -10.189983 4.504277) (xy -10.191667 4.572677)
    (xy -10.192097 4.581274) (xy -10.200968 4.752372) (xy -8.789236 4.752315) (xy -7.377505 4.752258)
    (xy -7.587516 4.5405) (xy -7.644504 4.482582) (xy -7.698566 4.426225) (xy -7.752076 4.368322)
    (xy -7.807404 4.305764) (xy -7.866925 4.235443) (xy -7.933011 4.154251) (xy -8.008034 4.059081)
    (xy -8.094367 3.946823) (xy -8.194383 3.81437) (xy -8.310454 3.658614) (xy -8.444952 3.476446)
    (xy -8.600251 3.26476) (xy -8.778722 3.020446) (xy -8.98274 2.740397) (xy -9.214675 2.421504)
    (xy -9.404782 2.15992) (xy -9.643372 1.831292) (xy -9.851508 1.543957) (xy -10.031075 1.295187)
    (xy -10.183957 1.082254) (xy -10.312041 0.90243) (xy -10.417212 0.752986) (xy -10.501355 0.631196)
    (xy -10.566357 0.534331) (xy -10.614103 0.459662) (xy -10.646477 0.404463) (xy -10.665366 0.366004)
    (xy -10.672655 0.341559) (xy -10.670464 0.328706) (xy -10.643913 0.294504) (xy -10.586508 0.222108)
    (xy -10.501713 0.11582) (xy -10.392992 -0.020055) (xy -10.263808 -0.181216) (xy -10.117626 -0.363357)
    (xy -9.957909 -0.562178) (xy -9.788121 -0.773373) (xy -9.611726 -0.992641) (xy -9.432187 -1.215677)
    (xy -9.333435 -1.33828) (xy -6.881548 -1.33828) (xy -6.677742 -0.96957) (xy -6.677742 4.383548)
    (xy -6.881548 4.752258) (xy -5.676111 4.752258) (xy -5.388341 4.752174) (xy -5.150647 4.751797)
    (xy -4.958482 4.750935) (xy -4.807298 4.7494) (xy -4.692548 4.747) (xy -4.609685 4.743546)
    (xy -4.554162 4.738849) (xy -4.52143 4.732717) (xy -4.506943 4.724961) (xy -4.506153 4.715391)
    (xy -4.514513 4.703817) (xy -4.514599 4.703721) (xy -4.549036 4.653907) (xy -4.594637 4.57291)
    (xy -4.634908 4.492055) (xy -4.711291 4.328925) (xy -4.719081 1.495322) (xy -4.726871 -1.33828)
    (xy -6.881548 -1.33828) (xy -9.333435 -1.33828) (xy -9.252969 -1.438179) (xy -9.077536 -1.655843)
    (xy -8.90935 -1.864367) (xy -8.751877 -2.059446) (xy -8.608579 -2.236779) (xy -8.482921 -2.392061)
    (xy -8.378366 -2.52099) (xy -8.298379 -2.619262) (xy -8.251398 -2.676559) (xy -8.068963 -2.89082)
    (xy -7.893452 -3.08417) (xy -7.731016 -3.25028) (xy -7.587805 -3.38282) (xy -7.486171 -3.464079)
    (xy -7.365998 -3.550538) (xy -10.12984 -3.550538) (xy -10.129064 -3.388354) (xy -10.136788 -3.269117)
    (xy -10.165828 -3.158574) (xy -10.210782 -3.053784) (xy -10.240004 -2.994584) (xy -10.271423 -2.935926)
    (xy -10.307909 -2.873914) (xy -10.352331 -2.804655) (xy -10.407561 -2.724254) (xy -10.476469 -2.628819)
    (xy -10.561923 -2.514453) (xy -10.666796 -2.377265) (xy -10.793955 -2.213358) (xy -10.946273 -2.01884)
    (xy -11.126618 -1.789815) (xy -11.337862 -1.522391) (xy -11.361721 -1.492217) (xy -12.194732 -0.438805)
    (xy -12.202796 -1.605478) (xy -12.20442 -1.954931) (xy -12.204074 -2.25077) (xy -12.201742 -2.49397)
    (xy -12.197407 -2.685507) (xy -12.191051 -2.826356) (xy -12.182659 -2.917492) (xy -12.179838 -2.93478)
    (xy -12.135584 -3.116883) (xy -12.077602 -3.28105) (xy -12.011437 -3.413046) (xy -11.971687 -3.469028)
    (xy -11.903102 -3.550538) (xy -13.204453 -3.550538) (xy -13.514885 -3.550272) (xy -13.774477 -3.549409)
    (xy -13.987014 -3.547846) (xy -14.156276 -3.545483) (xy -14.286048 -3.54222) (xy -14.380111 -3.537955)
    (xy -14.442248 -3.532587) (xy -14.476241 -3.526017) (xy -14.485874 -3.518142) (xy -14.485208 -3.516398)
    (xy -14.45762 -3.474757) (xy -14.411564 -3.408752) (xy -14.387735 -3.375369) (xy -14.363099 -3.342056)
    (xy -14.340955 -3.312266) (xy -14.321164 -3.283067) (xy -14.303586 -3.251526) (xy -14.288081 -3.214714)
    (xy -14.274511 -3.169697) (xy -14.262736 -3.113545) (xy -14.252616 -3.043325) (xy -14.244013 -2.956106)
    (xy -14.236786 -2.848957) (xy -14.230796 -2.718945) (xy -14.225904 -2.563139) (xy -14.221971 -2.378607)
    (xy -14.218857 -2.162419) (xy -14.216422 -1.911641) (xy -14.214527 -1.623342) (xy -14.213033 -1.294591)
    (xy -14.211801 -0.922457) (xy -14.21069 -0.504006) (xy -14.209562 -0.036309) (xy -14.208508 0.393354)
    (xy -14.207512 0.872353) (xy -14.206994 1.329362) (xy -14.206941 1.761464) (xy -14.207338 2.165738)
    (xy -14.208172 2.539265) (xy -14.209429 2.879127) (xy -14.211094 3.182404) (xy -14.213156 3.446177)
    (xy -14.215599 3.667527) (xy -14.21841 3.843535) (xy -14.221576 3.971283) (xy -14.225082 4.047849)
    (xy -14.225745 4.055941) (xy -14.249905 4.241568) (xy -14.287624 4.390647) (xy -14.345064 4.52075)
    (xy -14.428389 4.649452) (xy -14.438811 4.663494) (xy -14.505361 4.752258) (xy -15.234283 4.752258)
    (xy -15.235752 4.590145) (xy -15.237421 4.312867) (xy -15.238625 3.999459) (xy -15.239435 3.647664)
    (xy -15.239922 3.255223) (xy -15.240156 2.819877) (xy -15.240211 2.339368) (xy -15.240156 1.811438)
    (xy -15.240062 1.233828) (xy -15.240002 0.604279) (xy -15.24 0.479301) (xy -15.239965 -0.156878)
    (xy -15.239847 -0.740675) (xy -15.239628 -1.274332) (xy -15.239292 -1.760091) (xy -15.238822 -2.200195)
    (xy -15.238198 -2.596884) (xy -15.237406 -2.952401) (xy -15.236426 -3.268988) (xy -15.235242 -3.548887)
    (xy -15.233836 -3.794339) (xy -15.23219 -4.007587) (xy -15.230288 -4.190872) (xy -15.228113 -4.346436)
    (xy -15.225645 -4.476522) (xy -15.222869 -4.583371) (xy -15.219767 -4.669225) (xy -15.216321 -4.736326)
    (xy -15.212515 -4.786916) (xy -15.20833 -4.823236) (xy -15.203749 -4.84753) (xy -15.198755 -4.862038)
    (xy -15.19857 -4.8624) (xy -15.188285 -4.884563) (xy -15.179718 -4.904628) (xy -15.170241 -4.922699)
    (xy -15.157226 -4.938879) (xy -15.138043 -4.953274) (xy -15.110065 -4.965986) (xy -15.070663 -4.97712)
    (xy -15.017208 -4.986779) (xy -14.947071 -4.995068) (xy -14.857624 -5.00209) (xy -14.746238 -5.00795)
    (xy -14.610284 -5.01275) (xy -14.447135 -5.016596) (xy -14.254161 -5.019591) (xy -14.028733 -5.021839)
    (xy -13.768224 -5.023444) (xy -13.470004 -5.024509) (xy -13.131445 -5.02514) (xy -12.749918 -5.025439)
    (xy -12.322794 -5.02551) (xy -11.847446 -5.025459)) (layer F.SilkS) (width 0.01))
  (fp_poly (pts (xy 0.875193 -3.659223) (xy 1.169706 -3.626981) (xy 1.455039 -3.569271) (xy 1.7428 -3.483083)
    (xy 2.044596 -3.365407) (xy 2.372034 -3.213233) (xy 2.431001 -3.183757) (xy 2.566324 -3.11709)
    (xy 2.693951 -3.057061) (xy 2.801287 -3.009401) (xy 2.875736 -2.979845) (xy 2.887173 -2.976124)
    (xy 2.996774 -2.943286) (xy 2.506155 -2.229547) (xy 2.386206 -2.055105) (xy 2.276539 -1.89573)
    (xy 2.180883 -1.756832) (xy 2.102969 -1.643822) (xy 2.046525 -1.56211) (xy 2.015281 -1.517109)
    (xy 2.010205 -1.509982) (xy 1.989588 -1.524883) (xy 1.938839 -1.56968) (xy 1.867034 -1.636235)
    (xy 1.827406 -1.673853) (xy 1.602882 -1.852432) (xy 1.350726 -1.988132) (xy 1.13344 -2.062463)
    (xy 1.003007 -2.085807) (xy 0.839693 -2.100033) (xy 0.662707 -2.104876) (xy 0.491256 -2.100074)
    (xy 0.344548 -2.085362) (xy 0.286007 -2.074095) (xy 0.022147 -1.983315) (xy -0.215622 -1.844704)
    (xy -0.427124 -1.658515) (xy -0.612184 -1.425001) (xy -0.770625 -1.144416) (xy -0.902271 -0.817013)
    (xy -1.006946 -0.443045) (xy -1.069155 -0.122903) (xy -1.085386 0.018426) (xy -1.096444 0.201004)
    (xy -1.102437 0.411709) (xy -1.103473 0.637422) (xy -1.099657 0.865022) (xy -1.091097 1.081389)
    (xy -1.077899 1.273402) (xy -1.06017 1.427943) (xy -1.056333 1.451786) (xy -0.971749 1.83586)
    (xy -0.856505 2.175783) (xy -0.709897 2.473078) (xy -0.531226 2.729268) (xy -0.4044 2.867775)
    (xy -0.176475 3.055828) (xy 0.073488 3.19522) (xy 0.34127 3.285195) (xy 0.622656 3.324994)
    (xy 0.913429 3.313857) (xy 1.209373 3.251026) (xy 1.38434 3.189547) (xy 1.626466 3.066436)
    (xy 1.87602 2.889837) (xy 2.015809 2.770412) (xy 2.094301 2.701291) (xy 2.15597 2.650579)
    (xy 2.191072 2.626144) (xy 2.19543 2.625398) (xy 2.211097 2.650367) (xy 2.251692 2.716348)
    (xy 2.313757 2.817685) (xy 2.393833 2.948721) (xy 2.488462 3.1038) (xy 2.594186 3.277265)
    (xy 2.653033 3.373896) (xy 3.102526 4.112201) (xy 2.541317 4.389549) (xy 2.338404 4.489172)
    (xy 2.174027 4.567729) (xy 2.038139 4.629122) (xy 1.920691 4.677253) (xy 1.811636 4.716023)
    (xy 1.700926 4.749333) (xy 1.578513 4.781086) (xy 1.461182 4.808969) (xy 1.356895 4.830546)
    (xy 1.247832 4.846851) (xy 1.123073 4.858791) (xy 0.971703 4.86727) (xy 0.782801 4.873192)
    (xy 0.655483 4.875749) (xy 0.473823 4.877494) (xy 0.299633 4.876614) (xy 0.144443 4.87336)
    (xy 0.019777 4.867984) (xy -0.062834 4.860735) (xy -0.06773 4.860012) (xy -0.496709 4.767205)
    (xy -0.899551 4.626449) (xy -1.276112 4.437839) (xy -1.626252 4.201466) (xy -1.949828 3.917424)
    (xy -2.2467 3.585805) (xy -2.461701 3.291075) (xy -2.690589 2.905298) (xy -2.875611 2.497895)
    (xy -3.017662 2.0656) (xy -3.117636 1.605146) (xy -3.176428 1.113267) (xy -3.194951 0.613799)
    (xy -3.179717 0.130634) (xy -3.131844 -0.315158) (xy -3.049811 -0.731095) (xy -2.932097 -1.124696)
    (xy -2.777181 -1.503482) (xy -2.758683 -1.542725) (xy -2.554894 -1.90956) (xy -2.304598 -2.25864)
    (xy -2.014885 -2.58274) (xy -1.692846 -2.874634) (xy -1.345574 -3.127096) (xy -1.021987 -3.312286)
    (xy -0.695096 -3.45733) (xy -0.367511 -3.562397) (xy -0.026552 -3.630347) (xy 0.340465 -3.66404)
    (xy 0.559892 -3.669008) (xy 0.875193 -3.659223)) (layer F.SilkS) (width 0.01))
  (fp_poly (pts (xy 6.300951 -1.463632) (xy 6.436272 -1.453389) (xy 6.823442 -1.401878) (xy 7.166321 -1.319717)
    (xy 7.46658 -1.205778) (xy 7.725888 -1.058928) (xy 7.945916 -0.878038) (xy 8.128334 -0.661978)
    (xy 8.274811 -0.409616) (xy 8.381771 -0.136559) (xy 8.408921 -0.049459) (xy 8.432564 0.032107)
    (xy 8.452977 0.112529) (xy 8.470439 0.196199) (xy 8.48523 0.287508) (xy 8.497627 0.390847)
    (xy 8.507911 0.510609) (xy 8.516358 0.651183) (xy 8.523248 0.816962) (xy 8.528861 1.012336)
    (xy 8.533473 1.241698) (xy 8.537365 1.509437) (xy 8.540815 1.819947) (xy 8.544102 2.177618)
    (xy 8.546451 2.458064) (xy 8.562258 4.383548) (xy 8.664677 4.568843) (xy 8.713175 4.658111)
    (xy 8.749266 4.727448) (xy 8.766483 4.764354) (xy 8.767096 4.766854) (xy 8.74078 4.769715)
    (xy 8.665811 4.772351) (xy 8.548161 4.774689) (xy 8.3938 4.776653) (xy 8.2087 4.77817)
    (xy 7.998832 4.779165) (xy 7.770167 4.779565) (xy 7.742903 4.77957) (xy 6.718709 4.77957)
    (xy 6.718709 4.547419) (xy 6.716963 4.442507) (xy 6.712302 4.362271) (xy 6.705596 4.319251)
    (xy 6.702632 4.315269) (xy 6.675523 4.33195) (xy 6.619731 4.375731) (xy 6.547215 4.437216)
    (xy 6.545589 4.438638) (xy 6.413257 4.53716) (xy 6.246133 4.636089) (xy 6.0631 4.725706)
    (xy 5.883043 4.796293) (xy 5.803763 4.820414) (xy 5.645991 4.851051) (xy 5.452397 4.870602)
    (xy 5.240704 4.878787) (xy 5.028632 4.875327) (xy 4.833904 4.859945) (xy 4.697634 4.837811)
    (xy 4.363454 4.739676) (xy 4.062603 4.599819) (xy 3.797039 4.419974) (xy 3.568721 4.201876)
    (xy 3.379606 3.947261) (xy 3.231653 3.657864) (xy 3.167825 3.482258) (xy 3.127823 3.311576)
    (xy 3.101313 3.106678) (xy 3.089047 2.886464) (xy 3.08945 2.85442) (xy 4.936612 2.85442)
    (xy 4.95193 3.018053) (xy 5.002935 3.154042) (xy 5.097204 3.280208) (xy 5.133411 3.317203)
    (xy 5.26212 3.417221) (xy 5.410885 3.481294) (xy 5.589113 3.512309) (xy 5.776798 3.514593)
    (xy 5.954814 3.499514) (xy 6.091112 3.470021) (xy 6.150306 3.447869) (xy 6.256995 3.387496)
    (xy 6.370037 3.302589) (xy 6.473175 3.207295) (xy 6.550151 3.11576) (xy 6.570591 3.082181)
    (xy 6.586481 3.035157) (xy 6.597778 2.960333) (xy 6.605009 2.85056) (xy 6.6087 2.698692)
    (xy 6.609462 2.554155) (xy 6.608946 2.385644) (xy 6.60686 2.263799) (xy 6.602402 2.180666)
    (xy 6.594765 2.128292) (xy 6.583146 2.098726) (xy 6.56674 2.084013) (xy 6.561666 2.08167)
    (xy 6.51757 2.074453) (xy 6.4306 2.06855) (xy 6.3125 2.064493) (xy 6.175014 2.062815)
    (xy 6.145161 2.062813) (xy 5.961386 2.065746) (xy 5.819407 2.074469) (xy 5.706591 2.090177)
    (xy 5.613402 2.113118) (xy 5.382246 2.200535) (xy 5.200973 2.30801) (xy 5.068014 2.437262)
    (xy 4.981801 2.59001) (xy 4.940762 2.767972) (xy 4.936612 2.85442) (xy 3.08945 2.85442)
    (xy 3.091776 2.669834) (xy 3.110252 2.475689) (xy 3.124664 2.397252) (xy 3.21669 2.106017)
    (xy 3.356623 1.838054) (xy 3.541823 1.595932) (xy 3.769648 1.382221) (xy 4.037457 1.199492)
    (xy 4.342607 1.050314) (xy 4.602043 0.959727) (xy 4.775434 0.912136) (xy 4.941282 0.875155)
    (xy 5.110329 0.847585) (xy 5.293317 0.828224) (xy 5.500989 0.815871) (xy 5.744087 0.809326)
    (xy 5.963872 0.807483) (xy 6.615594 0.805699) (xy 6.603109 0.609798) (xy 6.567657 0.397243)
    (xy 6.492241 0.214543) (xy 6.380073 0.066262) (xy 6.234364 -0.04304) (xy 6.106064 -0.096376)
    (xy 5.922235 -0.12999) (xy 5.703394 -0.134817) (xy 5.4598 -0.112637) (xy 5.20171 -0.065228)
    (xy 4.939385 0.005629) (xy 4.683082 0.098155) (xy 4.496824 0.182778) (xy 4.407211 0.226231)
    (xy 4.338858 0.25658) (xy 4.304097 0.268423) (xy 4.302211 0.268043) (xy 4.290215 0.241518)
    (xy 4.260262 0.17121) (xy 4.21517 0.063855) (xy 4.157757 -0.07381) (xy 4.090842 -0.235051)
    (xy 4.022824 -0.399605) (xy 3.750897 -1.058672) (xy 3.944319 -1.090441) (xy 4.028154 -1.106381)
    (xy 4.154183 -1.133153) (xy 4.311608 -1.168327) (xy 4.489633 -1.209472) (xy 4.677463 -1.254158)
    (xy 4.752258 -1.272317) (xy 5.075838 -1.347369) (xy 5.359132 -1.403638) (xy 5.612715 -1.442262)
    (xy 5.847162 -1.464377) (xy 6.073049 -1.471122) (xy 6.300951 -1.463632)) (layer F.SilkS) (width 0.01))
  (fp_poly (pts (xy 13.610967 -4.064382) (xy 13.843254 -4.063429) (xy 13.922204 -4.062948) (xy 15.007849 -4.055807)
    (xy 15.021505 0.109247) (xy 15.023308 0.674041) (xy 15.024908 1.186864) (xy 15.026406 1.650371)
    (xy 15.027906 2.067214) (xy 15.029509 2.440045) (xy 15.03132 2.771519) (xy 15.03344 3.064286)
    (xy 15.035972 3.321002) (xy 15.03902 3.544318) (xy 15.042685 3.736887) (xy 15.047071 3.901363)
    (xy 15.05228 4.040398) (xy 15.058416 4.156644) (xy 15.06558 4.252756) (xy 15.073875 4.331386)
    (xy 15.083405 4.395187) (xy 15.094272 4.446811) (xy 15.106579 4.488912) (xy 15.120428 4.524143)
    (xy 15.135923 4.555156) (xy 15.153165 4.584604) (xy 15.172258 4.615141) (xy 15.193305 4.649418)
    (xy 15.197619 4.65672) (xy 15.269996 4.780221) (xy 14.223976 4.773068) (xy 13.177956 4.765914)
    (xy 13.164301 4.536142) (xy 13.156865 4.425873) (xy 13.149117 4.362122) (xy 13.138603 4.336827)
    (xy 13.122872 4.341922) (xy 13.109677 4.356498) (xy 13.052197 4.409591) (xy 12.958513 4.477837)
    (xy 12.841825 4.55308) (xy 12.715331 4.627167) (xy 12.592231 4.691943) (xy 12.497713 4.734561)
    (xy 12.276274 4.804595) (xy 12.022207 4.854204) (xy 11.754266 4.881494) (xy 11.491211 4.884569)
    (xy 11.251795 4.861532) (xy 11.247853 4.860873) (xy 10.920253 4.778669) (xy 10.613587 4.6477)
    (xy 10.330814 4.47078) (xy 10.074892 4.250726) (xy 9.848778 3.990351) (xy 9.65543 3.692472)
    (xy 9.497806 3.359904) (xy 9.411984 3.113548) (xy 9.355389 2.907445) (xy 9.313418 2.707867)
    (xy 9.284789 2.50269) (xy 9.268218 2.279791) (xy 9.262423 2.027045) (xy 9.264989 1.820662)
    (xy 11.280325 1.820662) (xy 11.289862 2.166732) (xy 11.319946 2.464467) (xy 11.371503 2.71651)
    (xy 11.445458 2.925502) (xy 11.542738 3.094086) (xy 11.664266 3.224906) (xy 11.804546 3.317385)
    (xy 11.87754 3.351909) (xy 11.940847 3.372607) (xy 12.011427 3.382077) (xy 12.106242 3.382915)
    (xy 12.208387 3.379228) (xy 12.409261 3.36151) (xy 12.568134 3.326813) (xy 12.618064 3.309433)
    (xy 12.732075 3.258102) (xy 12.852323 3.193643) (xy 12.904838 3.161376) (xy 13.041397 3.071805)
    (xy 13.041397 0.232706) (xy 12.891182 0.142665) (xy 12.681692 0.040923) (xy 12.467658 -0.019249)
    (xy 12.256909 -0.038204) (xy 12.057273 -0.016299) (xy 11.876577 0.046113) (xy 11.722649 0.148676)
    (xy 11.672981 0.197906) (xy 11.553262 0.359211) (xy 11.456364 0.554471) (xy 11.381477 0.787031)
    (xy 11.327793 1.060239) (xy 11.2945 1.377441) (xy 11.280789 1.741984) (xy 11.280325 1.820662)
    (xy 9.264989 1.820662) (xy 9.266058 1.734756) (xy 9.289082 1.285158) (xy 9.335378 0.879628)
    (xy 9.406164 0.512257) (xy 9.502661 0.177137) (xy 9.626087 -0.131637) (xy 9.670131 -0.223178)
    (xy 9.84754 -0.521704) (xy 10.06193 -0.786993) (xy 10.308259 -1.014763) (xy 10.581487 -1.200732)
    (xy 10.876574 -1.340618) (xy 11.053459 -1.398322) (xy 11.227178 -1.432578) (xy 11.436205 -1.452959)
    (xy 11.663014 -1.459475) (xy 11.890084 -1.452134) (xy 12.099892 -1.430945) (xy 12.268352 -1.397705)
    (xy 12.468857 -1.332518) (xy 12.663195 -1.248693) (xy 12.833224 -1.15472) (xy 12.923721 -1.090942)
    (xy 12.986144 -1.043516) (xy 13.029853 -1.014639) (xy 13.039796 -1.010538) (xy 13.042879 -1.036959)
    (xy 13.045753 -1.112661) (xy 13.048355 -1.232302) (xy 13.050621 -1.390538) (xy 13.052488 -1.582027)
    (xy 13.053891 -1.801426) (xy 13.054767 -2.043393) (xy 13.055053 -2.289853) (xy 13.054894 -2.605524)
    (xy 13.054108 -2.871663) (xy 13.052238 -3.093359) (xy 13.048825 -3.275704) (xy 13.043409 -3.423788)
    (xy 13.035531 -3.542701) (xy 13.024733 -3.637535) (xy 13.010555 -3.71338) (xy 12.992539 -3.775326)
    (xy 12.970225 -3.828464) (xy 12.943154 -3.877885) (xy 12.910867 -3.928679) (xy 12.906713 -3.934969)
    (xy 12.865071 -4.000755) (xy 12.839929 -4.045992) (xy 12.836559 -4.055534) (xy 12.862903 -4.058545)
    (xy 12.938069 -4.060994) (xy 13.056257 -4.062842) (xy 13.211669 -4.064049) (xy 13.398506 -4.064576)
    (xy 13.610967 -4.064382)) (layer F.SilkS) (width 0.01))
  (fp_poly (pts (xy -5.422844 -5.895156) (xy -5.217742 -5.824043) (xy -5.026785 -5.712111) (xy -4.856243 -5.559375)
    (xy -4.712387 -5.365849) (xy -4.647768 -5.243871) (xy -4.591842 -5.073257) (xy -4.564735 -4.876289)
    (xy -4.567738 -4.673795) (xy -4.601067 -4.490301) (xy -4.692162 -4.266076) (xy -4.824258 -4.071578)
    (xy -4.990642 -3.910633) (xy -5.184598 -3.787067) (xy -5.399414 -3.704708) (xy -5.628375 -3.667383)
    (xy -5.864767 -3.678918) (xy -5.981291 -3.70357) (xy -6.208385 -3.791909) (xy -6.410081 -3.92671)
    (xy -6.581515 -4.103817) (xy -6.71782 -4.319073) (xy -6.729352 -4.342581) (xy -6.769217 -4.430795)
    (xy -6.794249 -4.50509) (xy -6.807839 -4.583465) (xy -6.813382 -4.68392) (xy -6.814302 -4.793226)
    (xy -6.81278 -4.924552) (xy -6.805914 -5.019491) (xy -6.79025 -5.096247) (xy -6.762333 -5.173026)
    (xy -6.727873 -5.248777) (xy -6.599338 -5.46381) (xy -6.441052 -5.63792) (xy -6.259287 -5.771124)
    (xy -6.060313 -5.863434) (xy -5.8504 -5.914866) (xy -5.635821 -5.925435) (xy -5.422844 -5.895156)) (layer F.SilkS) (width 0.01))
)
