(module KiCad-Logo2_20mm_SilkScreen (layer F.Cu) (tedit 0)
  (descr "KiCad Logo")
  (tags "Logo KiCad")
  (attr virtual)
  (fp_text reference REF** (at 0 -12.7) (layer F.SilkS) hide
    (effects (font (size 1 1) (thickness 0.15)))
  )
  (fp_text value KiCad-Logo2_20mm_SilkScreen (at 0.75 16.51) (layer F.Fab) hide
    (effects (font (size 1 1) (thickness 0.15)))
  )
  (fp_poly (pts (xy -19.745743 -8.375764) (xy -18.868739 -8.375646) (xy -18.460505 -8.375628) (xy -11.926165 -8.375628)
    (xy -11.926165 -7.990444) (xy -11.885053 -7.521707) (xy -11.760973 -7.089402) (xy -11.55281 -6.69096)
    (xy -11.25945 -6.323811) (xy -11.160197 -6.224651) (xy -10.803159 -5.943382) (xy -10.409482 -5.738246)
    (xy -9.990861 -5.60915) (xy -9.558988 -5.556001) (xy -9.125555 -5.578706) (xy -8.702255 -5.677172)
    (xy -8.300781 -5.851304) (xy -7.932826 -6.101012) (xy -7.767572 -6.251665) (xy -7.459622 -6.62104)
    (xy -7.233806 -7.027231) (xy -7.092094 -7.465596) (xy -7.036453 -7.93149) (xy -7.035714 -7.977323)
    (xy -7.032796 -8.375613) (xy -6.857741 -8.37562) (xy -6.70245 -8.354545) (xy -6.560593 -8.303266)
    (xy -6.551218 -8.297968) (xy -6.519179 -8.281344) (xy -6.489757 -8.268397) (xy -6.462847 -8.255356)
    (xy -6.438342 -8.23845) (xy -6.416135 -8.213908) (xy -6.39612 -8.177959) (xy -6.378192 -8.126831)
    (xy -6.362243 -8.056755) (xy -6.348168 -7.963957) (xy -6.335859 -7.844668) (xy -6.325212 -7.695116)
    (xy -6.316118 -7.511531) (xy -6.308473 -7.29014) (xy -6.302169 -7.027173) (xy -6.2971 -6.718859)
    (xy -6.293161 -6.361427) (xy -6.290244 -5.951105) (xy -6.288244 -5.484122) (xy -6.287054 -4.956708)
    (xy -6.286567 -4.365091) (xy -6.286678 -3.705499) (xy -6.287279 -2.974163) (xy -6.288266 -2.167311)
    (xy -6.289531 -1.281171) (xy -6.290968 -0.311972) (xy -6.29247 0.744056) (xy -6.292645 0.872715)
    (xy -6.293992 1.935478) (xy -6.295135 2.910971) (xy -6.296195 3.802964) (xy -6.297294 4.615226)
    (xy -6.298551 5.351528) (xy -6.300088 6.015637) (xy -6.302027 6.611324) (xy -6.304488 7.142359)
    (xy -6.307592 7.612509) (xy -6.31146 8.025546) (xy -6.316214 8.385238) (xy -6.321975 8.695355)
    (xy -6.328863 8.959666) (xy -6.337 9.18194) (xy -6.346506 9.365948) (xy -6.357503 9.515458)
    (xy -6.370112 9.63424) (xy -6.384454 9.726063) (xy -6.40065 9.794696) (xy -6.418821 9.84391)
    (xy -6.439088 9.877474) (xy -6.461572 9.899156) (xy -6.486394 9.912726) (xy -6.513676 9.921955)
    (xy -6.543538 9.93061) (xy -6.576101 9.942462) (xy -6.584056 9.94607) (xy -6.609057 9.954177)
    (xy -6.650901 9.961626) (xy -6.713243 9.968443) (xy -6.799736 9.974655) (xy -6.914033 9.980288)
    (xy -7.059788 9.985368) (xy -7.240656 9.989923) (xy -7.46029 9.993979) (xy -7.722343 9.997561)
    (xy -8.030469 10.000698) (xy -8.388322 10.003415) (xy -8.799556 10.005739) (xy -9.267824 10.007696)
    (xy -9.79678 10.009312) (xy -10.390077 10.010616) (xy -11.05137 10.011632) (xy -11.784313 10.012387)
    (xy -12.592558 10.012909) (xy -13.47976 10.013223) (xy -14.449571 10.013355) (xy -15.505647 10.013334)
    (xy -15.84774 10.0133) (xy -16.927244 10.013127) (xy -17.919407 10.012844) (xy -18.827925 10.012421)
    (xy -19.656495 10.011831) (xy -20.408816 10.011044) (xy -21.088585 10.010031) (xy -21.699499 10.008763)
    (xy -22.245256 10.007212) (xy -22.729552 10.005349) (xy -23.156086 10.003144) (xy -23.528555 10.000569)
    (xy -23.850656 9.997595) (xy -24.126087 9.994193) (xy -24.358545 9.990334) (xy -24.551728 9.98599)
    (xy -24.709332 9.98113) (xy -24.835056 9.975727) (xy -24.932597 9.969752) (xy -25.005652 9.963176)
    (xy -25.057919 9.955969) (xy -25.093095 9.948103) (xy -25.112271 9.9409) (xy -25.146352 9.926527)
    (xy -25.177645 9.915928) (xy -25.206267 9.905339) (xy -25.232337 9.890995) (xy -25.255974 9.869133)
    (xy -25.277295 9.835989) (xy -25.29642 9.787799) (xy -25.313467 9.720798) (xy -25.328554 9.631222)
    (xy -25.3418 9.515308) (xy -25.353323 9.36929) (xy -25.363242 9.189407) (xy -25.371675 8.971892)
    (xy -25.378741 8.712982) (xy -25.384558 8.408913) (xy -25.389245 8.055921) (xy -25.390472 7.92043)
    (xy -24.175601 7.92043) (xy -19.881645 7.92043) (xy -19.964268 7.795251) (xy -20.046462 7.666613)
    (xy -20.116066 7.544116) (xy -20.174068 7.419187) (xy -20.221461 7.283255) (xy -20.259233 7.127746)
    (xy -20.288375 6.944088) (xy -20.309876 6.723708) (xy -20.324728 6.458033) (xy -20.333919 6.138492)
    (xy -20.33844 5.756512) (xy -20.339281 5.303519) (xy -20.337432 4.770943) (xy -20.336383 4.57322)
    (xy -20.324552 2.453539) (xy -18.981721 4.281684) (xy -18.601299 4.800306) (xy -18.271709 5.251905)
    (xy -17.989391 5.642464) (xy -17.750789 5.977967) (xy -17.552341 6.264395) (xy -17.390491 6.507733)
    (xy -17.261678 6.713964) (xy -17.162344 6.889069) (xy -17.088931 7.039033) (xy -17.037879 7.169838)
    (xy -17.00563 7.287467) (xy -16.988625 7.397903) (xy -16.983305 7.507129) (xy -16.986112 7.621128)
    (xy -16.986828 7.635457) (xy -17.001613 7.920621) (xy -14.648727 7.920525) (xy -12.295841 7.92043)
    (xy -12.64586 7.567499) (xy -12.74084 7.47097) (xy -12.830943 7.377042) (xy -12.920126 7.280537)
    (xy -13.01234 7.176274) (xy -13.111542 7.059072) (xy -13.221685 6.923752) (xy -13.346723 6.765134)
    (xy -13.490612 6.578038) (xy -13.657304 6.357283) (xy -13.850756 6.097689) (xy -14.07492 5.794077)
    (xy -14.333751 5.441266) (xy -14.631204 5.034077) (xy -14.971232 4.567328) (xy -15.357791 4.035841)
    (xy -15.674636 3.599866) (xy -16.072287 3.052153) (xy -16.41918 2.573262) (xy -16.718457 2.158645)
    (xy -16.973261 1.803756) (xy -17.186734 1.504049) (xy -17.362019 1.254977) (xy -17.502259 1.051993)
    (xy -17.610595 0.890551) (xy -17.690171 0.766104) (xy -17.744128 0.674105) (xy -17.77561 0.610007)
    (xy -17.787759 0.569264) (xy -17.784107 0.547844) (xy -17.739855 0.49084) (xy -17.64418 0.37018)
    (xy -17.502855 0.193034) (xy -17.321653 -0.033425) (xy -17.106346 -0.302026) (xy -16.862709 -0.605596)
    (xy -16.596514 -0.936963) (xy -16.313534 -1.288955) (xy -16.019542 -1.654401) (xy -15.720311 -2.026128)
    (xy -15.555725 -2.230466) (xy -11.469246 -2.230466) (xy -11.12957 -1.61595) (xy -11.12957 7.305914)
    (xy -11.469246 7.92043) (xy -9.460185 7.92043) (xy -8.980568 7.92029) (xy -8.584411 7.919661)
    (xy -8.264136 7.918225) (xy -8.012163 7.915666) (xy -7.820914 7.911667) (xy -7.682809 7.905911)
    (xy -7.590269 7.898081) (xy -7.535716 7.887862) (xy -7.511571 7.874935) (xy -7.510254 7.858985)
    (xy -7.524188 7.839695) (xy -7.524332 7.839536) (xy -7.581726 7.756512) (xy -7.657728 7.621517)
    (xy -7.724846 7.486758) (xy -7.852151 7.214874) (xy -7.865135 2.492204) (xy -7.878118 -2.230466)
    (xy -11.469246 -2.230466) (xy -15.555725 -2.230466) (xy -15.421615 -2.396965) (xy -15.129226 -2.759739)
    (xy -14.848916 -3.107278) (xy -14.586461 -3.432411) (xy -14.347631 -3.727965) (xy -14.138201 -3.986769)
    (xy -13.963943 -4.20165) (xy -13.830631 -4.365437) (xy -13.752329 -4.460932) (xy -13.448272 -4.818033)
    (xy -13.155753 -5.140283) (xy -12.885026 -5.417134) (xy -12.646341 -5.638034) (xy -12.476952 -5.773465)
    (xy -12.276664 -5.917563) (xy -16.883066 -5.917563) (xy -16.881773 -5.647256) (xy -16.894647 -5.448529)
    (xy -16.943047 -5.264289) (xy -17.01797 -5.08964) (xy -17.066673 -4.990974) (xy -17.119038 -4.893209)
    (xy -17.179847 -4.789856) (xy -17.253885 -4.674424) (xy -17.345935 -4.540424) (xy -17.460781 -4.381364)
    (xy -17.603205 -4.190756) (xy -17.777992 -3.962108) (xy -17.989925 -3.68893) (xy -18.243788 -3.364733)
    (xy -18.544364 -2.983026) (xy -18.896436 -2.537319) (xy -18.936201 -2.487028) (xy -20.324552 -0.731342)
    (xy -20.337993 -2.675797) (xy -20.340699 -3.258218) (xy -20.340123 -3.751283) (xy -20.336236 -4.156617)
    (xy -20.329011 -4.475846) (xy -20.318418 -4.710594) (xy -20.304431 -4.862487) (xy -20.29973 -4.8913)
    (xy -20.225973 -5.194805) (xy -20.129336 -5.468416) (xy -20.019061 -5.68841) (xy -19.952812 -5.781714)
    (xy -19.838503 -5.917563) (xy -22.007422 -5.917563) (xy -22.524808 -5.917121) (xy -22.957462 -5.915681)
    (xy -23.311689 -5.913076) (xy -23.593794 -5.909138) (xy -23.81008 -5.903699) (xy -23.966851 -5.896591)
    (xy -24.070413 -5.887646) (xy -24.127069 -5.876695) (xy -24.143123 -5.86357) (xy -24.142013 -5.860663)
    (xy -24.096034 -5.791261) (xy -24.019273 -5.681253) (xy -23.979559 -5.625616) (xy -23.938498 -5.570094)
    (xy -23.901592 -5.520443) (xy -23.868606 -5.471778) (xy -23.839309 -5.419211) (xy -23.813468 -5.357856)
    (xy -23.790851 -5.282828) (xy -23.771226 -5.189241) (xy -23.75436 -5.072208) (xy -23.740021 -4.926843)
    (xy -23.727976 -4.748261) (xy -23.717993 -4.531575) (xy -23.70984 -4.271898) (xy -23.703285 -3.964346)
    (xy -23.698094 -3.604031) (xy -23.694036 -3.186068) (xy -23.690879 -2.70557) (xy -23.688389 -2.157652)
    (xy -23.686335 -1.537428) (xy -23.684483 -0.840011) (xy -23.682603 -0.060514) (xy -23.680846 0.65559)
    (xy -23.679186 1.453921) (xy -23.678324 2.215604) (xy -23.678235 2.935773) (xy -23.678896 3.609563)
    (xy -23.680286 4.232108) (xy -23.682381 4.798544) (xy -23.685157 5.304006) (xy -23.688593 5.743628)
    (xy -23.692665 6.112545) (xy -23.69735 6.405892) (xy -23.702626 6.618804) (xy -23.708469 6.746416)
    (xy -23.709575 6.759902) (xy -23.749841 7.06928) (xy -23.812706 7.317744) (xy -23.908439 7.534584)
    (xy -24.047314 7.749087) (xy -24.064685 7.772491) (xy -24.175601 7.92043) (xy -25.390472 7.92043)
    (xy -25.39292 7.650242) (xy -25.395701 7.188111) (xy -25.397707 6.665765) (xy -25.399057 6.07944)
    (xy -25.399869 5.425371) (xy -25.40026 4.699795) (xy -25.400351 3.898947) (xy -25.40026 3.019063)
    (xy -25.400104 2.056379) (xy -25.400003 1.007132) (xy -25.4 0.798835) (xy -25.399941 -0.261463)
    (xy -25.399744 -1.234458) (xy -25.39938 -2.123887) (xy -25.39882 -2.933485) (xy -25.398036 -3.666991)
    (xy -25.396997 -4.32814) (xy -25.395676 -4.920668) (xy -25.394043 -5.448313) (xy -25.392069 -5.914811)
    (xy -25.389726 -6.323898) (xy -25.386984 -6.679311) (xy -25.383814 -6.984786) (xy -25.380187 -7.24406)
    (xy -25.376075 -7.46087) (xy -25.371448 -7.638951) (xy -25.366278 -7.782041) (xy -25.360535 -7.893876)
    (xy -25.354191 -7.978193) (xy -25.347216 -8.038727) (xy -25.339581 -8.079216) (xy -25.331258 -8.103396)
    (xy -25.33095 -8.103999) (xy -25.313807 -8.140938) (xy -25.299529 -8.17438) (xy -25.283735 -8.204498)
    (xy -25.262042 -8.231466) (xy -25.230072 -8.255457) (xy -25.183442 -8.276644) (xy -25.117771 -8.2952)
    (xy -25.028679 -8.311299) (xy -24.911784 -8.325114) (xy -24.762706 -8.336817) (xy -24.577062 -8.346583)
    (xy -24.350473 -8.354584) (xy -24.078558 -8.360994) (xy -23.756934 -8.365985) (xy -23.381222 -8.369731)
    (xy -22.947039 -8.372406) (xy -22.450006 -8.374182) (xy -21.885741 -8.375233) (xy -21.249862 -8.375731)
    (xy -20.53799 -8.375851) (xy -19.745743 -8.375764)) (layer F.SilkS) (width 0.01))
  (fp_poly (pts (xy 1.458655 -6.098705) (xy 1.94951 -6.044968) (xy 2.425066 -5.948784) (xy 2.904667 -5.805138)
    (xy 3.40766 -5.609011) (xy 3.95339 -5.355388) (xy 4.051669 -5.306261) (xy 4.277206 -5.19515)
    (xy 4.489919 -5.095101) (xy 4.668813 -5.015668) (xy 4.792894 -4.966408) (xy 4.811955 -4.960206)
    (xy 4.994623 -4.905477) (xy 4.176926 -3.715911) (xy 3.97701 -3.425175) (xy 3.794231 -3.15955)
    (xy 3.634805 -2.928053) (xy 3.504948 -2.739703) (xy 3.410875 -2.603517) (xy 3.358802 -2.528515)
    (xy 3.350342 -2.516636) (xy 3.315981 -2.541472) (xy 3.231399 -2.616133) (xy 3.111723 -2.727058)
    (xy 3.045676 -2.789755) (xy 2.671471 -3.087387) (xy 2.251211 -3.313554) (xy 1.889068 -3.437438)
    (xy 1.671679 -3.476345) (xy 1.399489 -3.500054) (xy 1.104511 -3.508127) (xy 0.81876 -3.500123)
    (xy 0.574248 -3.475603) (xy 0.476678 -3.456825) (xy 0.036912 -3.305526) (xy -0.35937 -3.074507)
    (xy -0.711874 -2.764192) (xy -1.020306 -2.375002) (xy -1.284374 -1.90736) (xy -1.503784 -1.361688)
    (xy -1.678243 -0.738409) (xy -1.781925 -0.204839) (xy -1.808976 0.030711) (xy -1.827406 0.335007)
    (xy -1.837395 0.686182) (xy -1.839121 1.06237) (xy -1.832761 1.441703) (xy -1.818494 1.802314)
    (xy -1.796498 2.122337) (xy -1.76695 2.379904) (xy -1.760554 2.419644) (xy -1.619582 3.059767)
    (xy -1.427507 3.626306) (xy -1.183162 4.121797) (xy -0.885376 4.54878) (xy -0.674 4.779625)
    (xy -0.294124 5.093046) (xy 0.12248 5.325367) (xy 0.568784 5.475325) (xy 1.037761 5.541656)
    (xy 1.522383 5.523095) (xy 2.015622 5.418377) (xy 2.307233 5.315912) (xy 2.710776 5.110727)
    (xy 3.1267 4.816395) (xy 3.359682 4.617353) (xy 3.490502 4.502151) (xy 3.593284 4.417632)
    (xy 3.651788 4.376906) (xy 3.65905 4.375663) (xy 3.685162 4.417278) (xy 3.752821 4.527247)
    (xy 3.856262 4.696142) (xy 3.989722 4.914536) (xy 4.147438 5.173) (xy 4.323644 5.462108)
    (xy 4.421723 5.62316) (xy 5.170878 6.853669) (xy 4.235528 7.315916) (xy 3.89734 7.481954)
    (xy 3.623379 7.612882) (xy 3.396899 7.715204) (xy 3.201152 7.795422) (xy 3.019394 7.860038)
    (xy 2.834877 7.915555) (xy 2.630856 7.968476) (xy 2.435304 8.014949) (xy 2.261492 8.050909)
    (xy 2.07972 8.078085) (xy 1.871789 8.097985) (xy 1.619505 8.112116) (xy 1.304668 8.121987)
    (xy 1.092473 8.126248) (xy 0.789705 8.129156) (xy 0.499389 8.12769) (xy 0.240738 8.122267)
    (xy 0.032963 8.113306) (xy -0.104723 8.101225) (xy -0.112882 8.10002) (xy -0.827848 7.945341)
    (xy -1.499251 7.710749) (xy -2.126853 7.396398) (xy -2.710419 7.002444) (xy -3.249713 6.52904)
    (xy -3.744499 5.976342) (xy -4.102835 5.485125) (xy -4.484315 4.842164) (xy -4.792685 4.163159)
    (xy -5.029436 3.442667) (xy -5.19606 2.675243) (xy -5.294047 1.855445) (xy -5.324918 1.022999)
    (xy -5.299528 0.217723) (xy -5.21974 -0.525263) (xy -5.083019 -1.218491) (xy -4.886828 -1.874494)
    (xy -4.628634 -2.505804) (xy -4.597804 -2.571209) (xy -4.258157 -3.182601) (xy -3.840996 -3.764401)
    (xy -3.358141 -4.304567) (xy -2.82141 -4.791056) (xy -2.242623 -5.211826) (xy -1.703311 -5.520476)
    (xy -1.158493 -5.762217) (xy -0.612518 -5.937328) (xy -0.044252 -6.050579) (xy 0.567442 -6.106733)
    (xy 0.933154 -6.115013) (xy 1.458655 -6.098705)) (layer F.SilkS) (width 0.01))
  (fp_poly (pts (xy 10.501585 -2.439387) (xy 10.72712 -2.422315) (xy 11.372403 -2.336463) (xy 11.943869 -2.199529)
    (xy 12.4443 -2.009629) (xy 12.876481 -1.76488) (xy 13.243194 -1.463397) (xy 13.547223 -1.103296)
    (xy 13.791352 -0.682693) (xy 13.969619 -0.227599) (xy 14.014869 -0.082431) (xy 14.054273 0.053512)
    (xy 14.088295 0.187548) (xy 14.117399 0.326998) (xy 14.14205 0.47918) (xy 14.162713 0.651412)
    (xy 14.179851 0.851015) (xy 14.19393 1.085305) (xy 14.205414 1.361603) (xy 14.214768 1.687227)
    (xy 14.222456 2.069496) (xy 14.228943 2.515729) (xy 14.234692 3.033245) (xy 14.24017 3.629363)
    (xy 14.244086 4.096774) (xy 14.27043 7.305914) (xy 14.441129 7.614739) (xy 14.521959 7.763518)
    (xy 14.58211 7.87908) (xy 14.610806 7.94059) (xy 14.611827 7.944757) (xy 14.567967 7.949525)
    (xy 14.443018 7.953919) (xy 14.246935 7.957814) (xy 13.989667 7.961088) (xy 13.681167 7.963616)
    (xy 13.331388 7.965275) (xy 12.950279 7.965942) (xy 12.904838 7.96595) (xy 11.197849 7.96595)
    (xy 11.197849 7.579032) (xy 11.194938 7.404178) (xy 11.187171 7.270451) (xy 11.175994 7.198752)
    (xy 11.171054 7.192114) (xy 11.125872 7.219917) (xy 11.032885 7.292885) (xy 10.912026 7.395359)
    (xy 10.909316 7.39773) (xy 10.688763 7.561933) (xy 10.410222 7.726815) (xy 10.105167 7.876177)
    (xy 9.805071 7.993821) (xy 9.672939 8.034024) (xy 9.409985 8.085086) (xy 9.087329 8.11767)
    (xy 8.734506 8.131311) (xy 8.381053 8.125545) (xy 8.056507 8.099908) (xy 7.82939 8.063018)
    (xy 7.272424 7.89946) (xy 6.771005 7.666365) (xy 6.328399 7.366623) (xy 5.947868 7.003127)
    (xy 5.632677 6.578769) (xy 5.386088 6.09644) (xy 5.279708 5.803763) (xy 5.213038 5.519294)
    (xy 5.168855 5.177797) (xy 5.148412 4.810773) (xy 5.149084 4.757367) (xy 8.227688 4.757367)
    (xy 8.253217 5.030088) (xy 8.338225 5.256737) (xy 8.495341 5.467013) (xy 8.555685 5.528672)
    (xy 8.7702 5.695368) (xy 9.018141 5.802156) (xy 9.315189 5.853849) (xy 9.627998 5.857654)
    (xy 9.92469 5.832523) (xy 10.151854 5.783368) (xy 10.25051 5.746448) (xy 10.428325 5.645826)
    (xy 10.616729 5.504315) (xy 10.788625 5.345492) (xy 10.916918 5.192933) (xy 10.950985 5.136969)
    (xy 10.977468 5.058595) (xy 10.996297 4.933888) (xy 11.008348 4.750933) (xy 11.0145 4.49782)
    (xy 11.01577 4.256925) (xy 11.01491 3.976073) (xy 11.011434 3.772998) (xy 11.004003 3.634443)
    (xy 10.991276 3.547154) (xy 10.971911 3.497876) (xy 10.944568 3.473354) (xy 10.936111 3.469449)
    (xy 10.862618 3.457421) (xy 10.717668 3.447583) (xy 10.520834 3.440822) (xy 10.29169 3.438025)
    (xy 10.241935 3.438022) (xy 9.935643 3.44291) (xy 9.699012 3.457449) (xy 9.510985 3.483628)
    (xy 9.355671 3.521863) (xy 8.97041 3.667559) (xy 8.668289 3.846684) (xy 8.446691 4.062103)
    (xy 8.303002 4.316683) (xy 8.234604 4.613287) (xy 8.227688 4.757367) (xy 5.149084 4.757367)
    (xy 5.15296 4.449723) (xy 5.183754 4.126148) (xy 5.207774 3.99542) (xy 5.36115 3.510029)
    (xy 5.594373 3.063423) (xy 5.903039 2.659886) (xy 6.282747 2.303702) (xy 6.729095 1.999153)
    (xy 7.237679 1.750524) (xy 7.670071 1.599545) (xy 7.959057 1.520226) (xy 8.23547 1.458592)
    (xy 8.517215 1.412642) (xy 8.822196 1.380374) (xy 9.168316 1.359786) (xy 9.573479 1.348877)
    (xy 9.939787 1.345805) (xy 11.02599 1.342831) (xy 11.005183 1.01633) (xy 10.946095 0.662071)
    (xy 10.820402 0.357572) (xy 10.633455 0.110436) (xy 10.390606 -0.071734) (xy 10.176773 -0.160627)
    (xy 9.870392 -0.216651) (xy 9.505657 -0.224696) (xy 9.099666 -0.187728) (xy 8.669518 -0.108714)
    (xy 8.232309 0.009382) (xy 7.805137 0.163592) (xy 7.494707 0.30463) (xy 7.345352 0.377052)
    (xy 7.231431 0.427634) (xy 7.173496 0.447371) (xy 7.170351 0.446738) (xy 7.150359 0.402529)
    (xy 7.100437 0.28535) (xy 7.025283 0.106425) (xy 6.929595 -0.123017) (xy 6.81807 -0.391751)
    (xy 6.704707 -0.666008) (xy 6.251495 -1.764453) (xy 6.573866 -1.817402) (xy 6.713591 -1.843969)
    (xy 6.923638 -1.888588) (xy 7.186013 -1.947211) (xy 7.482722 -2.015786) (xy 7.795772 -2.090263)
    (xy 7.92043 -2.120529) (xy 8.45973 -2.245615) (xy 8.931887 -2.339396) (xy 9.354525 -2.403769)
    (xy 9.74527 -2.440629) (xy 10.121748 -2.45187) (xy 10.501585 -2.439387)) (layer F.SilkS) (width 0.01))
  (fp_poly (pts (xy 22.684945 -6.77397) (xy 23.07209 -6.772382) (xy 23.203673 -6.77158) (xy 25.013082 -6.759678)
    (xy 25.035842 0.182079) (xy 25.038848 1.123401) (xy 25.041514 1.978107) (xy 25.04401 2.750619)
    (xy 25.04651 3.445356) (xy 25.049182 4.066742) (xy 25.0522 4.619198) (xy 25.055733 5.107144)
    (xy 25.059954 5.535003) (xy 25.065033 5.907196) (xy 25.071142 6.228145) (xy 25.078452 6.502271)
    (xy 25.087134 6.733996) (xy 25.09736 6.927741) (xy 25.1093 7.087927) (xy 25.123126 7.218977)
    (xy 25.139009 7.325311) (xy 25.157121 7.411352) (xy 25.177632 7.48152) (xy 25.200714 7.540238)
    (xy 25.226538 7.591926) (xy 25.255275 7.641007) (xy 25.287097 7.691901) (xy 25.322175 7.749031)
    (xy 25.329365 7.761199) (xy 25.449993 7.967036) (xy 21.963261 7.94319) (xy 21.940501 7.560237)
    (xy 21.928109 7.376455) (xy 21.915195 7.270204) (xy 21.897672 7.228044) (xy 21.871454 7.236537)
    (xy 21.849462 7.26083) (xy 21.753661 7.349319) (xy 21.597522 7.463061) (xy 21.403042 7.588466)
    (xy 21.192219 7.711944) (xy 20.987053 7.819905) (xy 20.829522 7.890935) (xy 20.460457 8.007658)
    (xy 20.037011 8.09034) (xy 19.590444 8.135824) (xy 19.152018 8.140948) (xy 18.752992 8.102554)
    (xy 18.746422 8.101455) (xy 18.200422 7.964449) (xy 17.689313 7.746167) (xy 17.218024 7.451301)
    (xy 16.791487 7.084543) (xy 16.41463 6.650585) (xy 16.092383 6.15412) (xy 15.829676 5.599839)
    (xy 15.68664 5.189247) (xy 15.592315 4.845742) (xy 15.522364 4.513112) (xy 15.474649 4.17115)
    (xy 15.447031 3.799651) (xy 15.437371 3.378408) (xy 15.441649 3.034436) (xy 18.800543 3.034436)
    (xy 18.816437 3.61122) (xy 18.866578 4.107445) (xy 18.952506 4.527516) (xy 19.075764 4.875836)
    (xy 19.237896 5.156811) (xy 19.440444 5.374843) (xy 19.674243 5.528975) (xy 19.7959 5.586515)
    (xy 19.901412 5.621012) (xy 20.019046 5.636794) (xy 20.177071 5.638192) (xy 20.347311 5.632047)
    (xy 20.682102 5.602517) (xy 20.946891 5.544689) (xy 21.030107 5.515722) (xy 21.220125 5.43017)
    (xy 21.420538 5.322738) (xy 21.508064 5.26896) (xy 21.735663 5.119675) (xy 21.735663 0.387843)
    (xy 21.485304 0.237775) (xy 21.136153 0.068204) (xy 20.779431 -0.032081) (xy 20.428183 -0.063674)
    (xy 20.095455 -0.027164) (xy 19.794295 0.076855) (xy 19.537748 0.247793) (xy 19.454969 0.329843)
    (xy 19.255437 0.598686) (xy 19.09394 0.924118) (xy 18.969129 1.311718) (xy 18.879655 1.767064)
    (xy 18.824166 2.295735) (xy 18.801315 2.903307) (xy 18.800543 3.034436) (xy 15.441649 3.034436)
    (xy 15.443431 2.89126) (xy 15.481804 2.141931) (xy 15.558963 1.466046) (xy 15.676941 0.853761)
    (xy 15.837769 0.295229) (xy 16.043479 -0.219395) (xy 16.116886 -0.371964) (xy 16.412568 -0.869506)
    (xy 16.769884 -1.311654) (xy 17.180432 -1.691271) (xy 17.635813 -2.00122) (xy 18.127623 -2.234363)
    (xy 18.422432 -2.330536) (xy 18.711964 -2.38763) (xy 19.060341 -2.421599) (xy 19.438357 -2.432458)
    (xy 19.816808 -2.420223) (xy 20.166487 -2.384909) (xy 20.447253 -2.329508) (xy 20.781429 -2.220864)
    (xy 21.105325 -2.081155) (xy 21.388708 -1.924534) (xy 21.539535 -1.818237) (xy 21.643573 -1.739194)
    (xy 21.716422 -1.691065) (xy 21.732993 -1.68423) (xy 21.738131 -1.728265) (xy 21.742922 -1.854435)
    (xy 21.747259 -2.053836) (xy 21.751036 -2.317563) (xy 21.754147 -2.636711) (xy 21.756485 -3.002377)
    (xy 21.757946 -3.405656) (xy 21.758422 -3.816422) (xy 21.758156 -4.342541) (xy 21.756847 -4.786105)
    (xy 21.753731 -5.155599) (xy 21.748042 -5.459507) (xy 21.739015 -5.706313) (xy 21.725886 -5.904502)
    (xy 21.707889 -6.062558) (xy 21.684259 -6.188966) (xy 21.654232 -6.29221) (xy 21.617042 -6.380774)
    (xy 21.571923 -6.463142) (xy 21.518112 -6.547799) (xy 21.511189 -6.558281) (xy 21.441785 -6.667925)
    (xy 21.399883 -6.743321) (xy 21.394265 -6.759224) (xy 21.438171 -6.764242) (xy 21.563448 -6.768324)
    (xy 21.760429 -6.771403) (xy 22.019449 -6.773415) (xy 22.330843 -6.774293) (xy 22.684945 -6.77397)) (layer F.SilkS) (width 0.01))
  (fp_poly (pts (xy -9.038074 -9.82526) (xy -8.696237 -9.706738) (xy -8.377974 -9.520185) (xy -8.093738 -9.265625)
    (xy -7.853979 -8.943082) (xy -7.746279 -8.739785) (xy -7.65307 -8.455428) (xy -7.607892 -8.127149)
    (xy -7.612896 -7.789658) (xy -7.668444 -7.483834) (xy -7.820269 -7.110127) (xy -8.04043 -6.785963)
    (xy -8.317736 -6.517721) (xy -8.640996 -6.311778) (xy -8.999023 -6.174513) (xy -9.380625 -6.112305)
    (xy -9.774612 -6.13153) (xy -9.968818 -6.172617) (xy -10.347308 -6.319849) (xy -10.683469 -6.544517)
    (xy -10.969191 -6.839695) (xy -11.196366 -7.198456) (xy -11.215586 -7.237635) (xy -11.282029 -7.384658)
    (xy -11.323748 -7.508483) (xy -11.346398 -7.639108) (xy -11.355636 -7.806534) (xy -11.357169 -7.98871)
    (xy -11.354634 -8.207586) (xy -11.34319 -8.365818) (xy -11.317083 -8.493746) (xy -11.270554 -8.621711)
    (xy -11.213121 -8.747961) (xy -10.998896 -9.10635) (xy -10.735086 -9.396534) (xy -10.432144 -9.618539)
    (xy -10.100521 -9.77239) (xy -9.750667 -9.85811) (xy -9.393034 -9.875725) (xy -9.038074 -9.82526)) (layer F.SilkS) (width 0.01))
  (fp_poly (pts (xy 20.762745 11.391777) (xy 20.86734 11.46592) (xy 20.959703 11.558283) (xy 20.959703 12.589734)
    (xy 20.959462 12.895998) (xy 20.958318 13.136133) (xy 20.955642 13.319268) (xy 20.950803 13.454533)
    (xy 20.943173 13.551057) (xy 20.93212 13.617971) (xy 20.917017 13.664403) (xy 20.897232 13.699484)
    (xy 20.881713 13.720333) (xy 20.779276 13.802245) (xy 20.661655 13.811136) (xy 20.55415 13.760904)
    (xy 20.518627 13.731248) (xy 20.494881 13.691855) (xy 20.480559 13.628421) (xy 20.473304 13.52664)
    (xy 20.470761 13.372206) (xy 20.470518 13.252904) (xy 20.470518 12.803482) (xy 18.814814 12.803482)
    (xy 18.814814 13.212333) (xy 18.813102 13.399289) (xy 18.806252 13.527776) (xy 18.791693 13.614538)
    (xy 18.766854 13.676323) (xy 18.736824 13.720333) (xy 18.633814 13.802015) (xy 18.51732 13.811687)
    (xy 18.405795 13.75363) (xy 18.375347 13.723195) (xy 18.353842 13.682849) (xy 18.339658 13.620002)
    (xy 18.331173 13.522068) (xy 18.326764 13.376457) (xy 18.324811 13.170583) (xy 18.324582 13.123334)
    (xy 18.32297 12.735436) (xy 18.322138 12.415757) (xy 18.322409 12.157256) (xy 18.324103 11.952895)
    (xy 18.327541 11.795634) (xy 18.333043 11.678434) (xy 18.340931 11.594255) (xy 18.351525 11.536057)
    (xy 18.365146 11.496802) (xy 18.382114 11.469449) (xy 18.400888 11.448815) (xy 18.507093 11.382812)
    (xy 18.617856 11.391777) (xy 18.722451 11.46592) (xy 18.764776 11.513754) (xy 18.791755 11.566592)
    (xy 18.806809 11.641846) (xy 18.813355 11.756928) (xy 18.814813 11.929252) (xy 18.814814 11.93629)
    (xy 18.814814 12.314297) (xy 20.470518 12.314297) (xy 20.470518 11.919186) (xy 20.472208 11.737159)
    (xy 20.478993 11.614249) (xy 20.493452 11.534357) (xy 20.518158 11.481383) (xy 20.545777 11.448815)
    (xy 20.651982 11.382812) (xy 20.762745 11.391777)) (layer F.SilkS) (width 0.01))
  (fp_poly (pts (xy 16.54355 11.373878) (xy 16.805908 11.375139) (xy 17.009543 11.377777) (xy 17.162723 11.382232)
    (xy 17.273715 11.388944) (xy 17.350787 11.398352) (xy 17.402206 11.410896) (xy 17.436239 11.427016)
    (xy 17.452709 11.439408) (xy 17.538189 11.54786) (xy 17.54853 11.660462) (xy 17.495705 11.762754)
    (xy 17.461161 11.80363) (xy 17.423988 11.831501) (xy 17.370116 11.848858) (xy 17.285475 11.85819)
    (xy 17.155993 11.861987) (xy 16.967601 11.862737) (xy 16.930602 11.862741) (xy 16.444148 11.862741)
    (xy 16.444148 12.765852) (xy 16.443827 13.050514) (xy 16.442372 13.269547) (xy 16.439041 13.43258)
    (xy 16.433095 13.549243) (xy 16.423791 13.629165) (xy 16.410389 13.681975) (xy 16.39215 13.717304)
    (xy 16.368888 13.744223) (xy 16.259113 13.810374) (xy 16.144515 13.805162) (xy 16.040589 13.729687)
    (xy 16.032953 13.720333) (xy 16.008096 13.684974) (xy 15.989158 13.643603) (xy 15.975338 13.586167)
    (xy 15.965835 13.502613) (xy 15.959848 13.382889) (xy 15.956574 13.216943) (xy 15.955214 12.994722)
    (xy 15.954963 12.741963) (xy 15.954963 11.862741) (xy 15.490424 11.862741) (xy 15.291073 11.861392)
    (xy 15.15306 11.856135) (xy 15.062495 11.845155) (xy 15.005487 11.826639) (xy 14.968144 11.798771)
    (xy 14.963609 11.793926) (xy 14.909084 11.683131) (xy 14.913906 11.557874) (xy 14.976592 11.448815)
    (xy 15.000835 11.427661) (xy 15.032091 11.410887) (xy 15.078696 11.397988) (xy 15.148987 11.388455)
    (xy 15.251297 11.381783) (xy 15.393962 11.377465) (xy 15.585318 11.374993) (xy 15.8337 11.37386)
    (xy 16.147443 11.373561) (xy 16.214201 11.373556) (xy 16.54355 11.373878)) (layer F.SilkS) (width 0.01))
  (fp_poly (pts (xy 13.962047 11.396256) (xy 14.04109 11.44549) (xy 14.129926 11.517425) (xy 14.129926 12.589244)
    (xy 14.129643 12.902766) (xy 14.128431 13.149774) (xy 14.125746 13.339013) (xy 14.121043 13.479227)
    (xy 14.113778 13.57916) (xy 14.103405 13.647558) (xy 14.089381 13.693163) (xy 14.071161 13.724722)
    (xy 14.058242 13.740272) (xy 13.953446 13.808582) (xy 13.834111 13.805796) (xy 13.729576 13.747547)
    (xy 13.64074 13.675613) (xy 13.64074 11.517425) (xy 13.729576 11.44549) (xy 13.815315 11.393164)
    (xy 13.885333 11.373556) (xy 13.962047 11.396256)) (layer F.SilkS) (width 0.01))
  (fp_poly (pts (xy 12.482217 11.380114) (xy 12.547516 11.403449) (xy 12.550035 11.404591) (xy 12.63871 11.472262)
    (xy 12.687567 11.541869) (xy 12.697127 11.574506) (xy 12.696655 11.617871) (xy 12.683202 11.679649)
    (xy 12.653822 11.767522) (xy 12.605565 11.889175) (xy 12.535483 12.05229) (xy 12.440628 12.264551)
    (xy 12.318052 12.533642) (xy 12.250583 12.68072) (xy 12.128751 12.943285) (xy 12.014382 13.184743)
    (xy 11.911841 13.396266) (xy 11.825492 13.569027) (xy 11.759702 13.694197) (xy 11.718835 13.762948)
    (xy 11.710748 13.772445) (xy 11.607278 13.814341) (xy 11.490404 13.80873) (xy 11.396667 13.757774)
    (xy 11.392849 13.75363) (xy 11.355561 13.697181) (xy 11.293013 13.587232) (xy 11.212919 13.437934)
    (xy 11.122989 13.263441) (xy 11.09067 13.199139) (xy 10.846714 12.7105) (xy 10.580802 13.241311)
    (xy 10.485889 13.424716) (xy 10.397832 13.583774) (xy 10.323826 13.706309) (xy 10.271063 13.780146)
    (xy 10.253182 13.795802) (xy 10.11419 13.817008) (xy 9.999498 13.772445) (xy 9.965761 13.72482)
    (xy 9.90738 13.618974) (xy 9.829117 13.465323) (xy 9.735735 13.274282) (xy 9.631997 13.056266)
    (xy 9.522665 12.82169) (xy 9.412502 12.580969) (xy 9.30627 12.344517) (xy 9.208732 12.122752)
    (xy 9.12465 11.926086) (xy 9.058788 11.764936) (xy 9.015907 11.649716) (xy 9.000771 11.590842)
    (xy 9.000925 11.588711) (xy 9.037754 11.514628) (xy 9.111367 11.439176) (xy 9.115702 11.435892)
    (xy 9.206177 11.384751) (xy 9.289862 11.385246) (xy 9.321227 11.394888) (xy 9.359447 11.415725)
    (xy 9.400034 11.456715) (xy 9.447858 11.52636) (xy 9.507787 11.633163) (xy 9.58469 11.785628)
    (xy 9.683435 11.992258) (xy 9.772484 12.182994) (xy 9.874935 12.404088) (xy 9.966739 12.602914)
    (xy 10.043126 12.769084) (xy 10.099329 12.892213) (xy 10.130577 12.961912) (xy 10.135134 12.972815)
    (xy 10.155632 12.954991) (xy 10.20274 12.880362) (xy 10.270191 12.75982) (xy 10.351717 12.604258)
    (xy 10.38416 12.540074) (xy 10.494059 12.323347) (xy 10.578812 12.165513) (xy 10.645375 12.057396)
    (xy 10.700702 11.98982) (xy 10.751748 11.953608) (xy 10.805469 11.939584) (xy 10.840477 11.938)
    (xy 10.902232 11.943472) (xy 10.956348 11.966105) (xy 11.010117 12.015221) (xy 11.070836 12.100146)
    (xy 11.145797 12.230202) (xy 11.242297 12.414715) (xy 11.295539 12.519676) (xy 11.381901 12.686957)
    (xy 11.457223 12.82568) (xy 11.514861 12.92414) (xy 11.548167 12.970632) (xy 11.552696 12.972568)
    (xy 11.574205 12.935978) (xy 11.622362 12.840967) (xy 11.692343 12.697479) (xy 11.779325 12.515459)
    (xy 11.878488 12.304848) (xy 11.927267 12.200238) (xy 12.054166 11.930262) (xy 12.15635 11.72252)
    (xy 12.239124 11.570236) (xy 12.307792 11.466631) (xy 12.36766 11.404927) (xy 12.424034 11.378348)
    (xy 12.482217 11.380114)) (layer F.SilkS) (width 0.01))
  (fp_poly (pts (xy 3.394363 11.374249) (xy 3.824294 11.388786) (xy 4.18997 11.432869) (xy 4.49742 11.509138)
    (xy 4.752673 11.620233) (xy 4.961758 11.768792) (xy 5.130706 11.957455) (xy 5.265545 12.18886)
    (xy 5.268197 12.194503) (xy 5.34867 12.40161) (xy 5.377342 12.585032) (xy 5.354105 12.769625)
    (xy 5.278847 12.980245) (xy 5.264574 13.012296) (xy 5.167241 13.199886) (xy 5.057852 13.344838)
    (xy 4.916673 13.468057) (xy 4.723967 13.590451) (xy 4.712772 13.59684) (xy 4.545015 13.677424)
    (xy 4.355404 13.737607) (xy 4.131756 13.779465) (xy 3.861884 13.805074) (xy 3.533606 13.816509)
    (xy 3.41762 13.817502) (xy 2.865314 13.819482) (xy 2.787323 13.720333) (xy 2.764189 13.68773)
    (xy 2.746142 13.649657) (xy 2.732552 13.596984) (xy 2.722789 13.520582) (xy 2.716224 13.41132)
    (xy 2.714083 13.330297) (xy 3.236148 13.330297) (xy 3.549089 13.330297) (xy 3.732213 13.324942)
    (xy 3.9202 13.310849) (xy 4.074485 13.290974) (xy 4.083798 13.289301) (xy 4.357828 13.215786)
    (xy 4.570379 13.105335) (xy 4.728175 12.952824) (xy 4.83794 12.753129) (xy 4.857027 12.700203)
    (xy 4.875736 12.617775) (xy 4.867636 12.536339) (xy 4.828223 12.428) (xy 4.804466 12.374779)
    (xy 4.726668 12.233352) (xy 4.632934 12.134132) (xy 4.529802 12.065038) (xy 4.323219 11.975124)
    (xy 4.058836 11.909993) (xy 3.750842 11.872488) (xy 3.527777 11.864235) (xy 3.236148 11.862741)
    (xy 3.236148 13.330297) (xy 2.714083 13.330297) (xy 2.712227 13.26007) (xy 2.710168 13.057702)
    (xy 2.709418 12.795086) (xy 2.709333 12.589734) (xy 2.709333 11.558283) (xy 2.801697 11.46592)
    (xy 2.842688 11.428481) (xy 2.887012 11.402842) (xy 2.948909 11.386801) (xy 3.042621 11.378155)
    (xy 3.18239 11.3747) (xy 3.382457 11.374234) (xy 3.394363 11.374249)) (layer F.SilkS) (width 0.01))
  (fp_poly (pts (xy 0.767809 11.374199) (xy 1.022338 11.377246) (xy 1.217389 11.384371) (xy 1.360851 11.397249)
    (xy 1.460611 11.417555) (xy 1.52456 11.446965) (xy 1.560586 11.487154) (xy 1.576578 11.539795)
    (xy 1.580424 11.606565) (xy 1.580444 11.61445) (xy 1.577105 11.689974) (xy 1.561321 11.748342)
    (xy 1.524445 11.791914) (xy 1.457827 11.823043) (xy 1.35282 11.844089) (xy 1.200775 11.857407)
    (xy 0.993044 11.865354) (xy 0.720979 11.870286) (xy 0.637591 11.871379) (xy -0.169334 11.881556)
    (xy -0.180619 12.097926) (xy -0.191904 12.314297) (xy 0.368586 12.314297) (xy 0.587555 12.315104)
    (xy 0.743907 12.318521) (xy 0.850278 12.326036) (xy 0.919302 12.339141) (xy 0.963615 12.359326)
    (xy 0.99585 12.388081) (xy 0.996056 12.388309) (xy 1.05452 12.500373) (xy 1.052407 12.621494)
    (xy 0.991048 12.724744) (xy 0.978905 12.735356) (xy 0.935805 12.762708) (xy 0.876746 12.781736)
    (xy 0.788567 12.793874) (xy 0.658108 12.800556) (xy 0.472208 12.803214) (xy 0.353312 12.803482)
    (xy -0.188149 12.803482) (xy -0.188149 13.330297) (xy 0.633871 13.330297) (xy 0.905268 13.330771)
    (xy 1.111367 13.332712) (xy 1.262123 13.336893) (xy 1.367494 13.344091) (xy 1.437438 13.355078)
    (xy 1.48191 13.370631) (xy 1.510869 13.391524) (xy 1.518167 13.399111) (xy 1.572049 13.504266)
    (xy 1.57599 13.623895) (xy 1.531787 13.727616) (xy 1.496812 13.760904) (xy 1.46043 13.779229)
    (xy 1.404056 13.793406) (xy 1.318776 13.803933) (xy 1.19567 13.811305) (xy 1.025821 13.81602)
    (xy 0.800314 13.818573) (xy 0.51023 13.81946) (xy 0.444648 13.819482) (xy 0.149703 13.819289)
    (xy -0.079243 13.818224) (xy -0.251452 13.815556) (xy -0.376184 13.810557) (xy -0.462699 13.802497)
    (xy -0.52026 13.790646) (xy -0.558126 13.774274) (xy -0.585558 13.752652) (xy -0.600609 13.737127)
    (xy -0.623262 13.709629) (xy -0.64096 13.675564) (xy -0.654313 13.626001) (xy -0.663929 13.552006)
    (xy -0.67042 13.444645) (xy -0.674395 13.294985) (xy -0.676464 13.094093) (xy -0.677237 12.833036)
    (xy -0.677334 12.613313) (xy -0.677097 12.305428) (xy -0.675973 12.063724) (xy -0.673341 11.879124)
    (xy -0.668581 11.742551) (xy -0.661071 11.644928) (xy -0.650191 11.577178) (xy -0.635321 11.530222)
    (xy -0.615839 11.494984) (xy -0.599343 11.472705) (xy -0.521353 11.373556) (xy 0.445913 11.373556)
    (xy 0.767809 11.374199)) (layer F.SilkS) (width 0.01))
  (fp_poly (pts (xy -4.333713 11.388161) (xy -4.255159 11.434242) (xy -4.152449 11.509602) (xy -4.020259 11.617792)
    (xy -3.853265 11.762361) (xy -3.646143 11.946859) (xy -3.393571 12.174836) (xy -3.104445 12.436947)
    (xy -2.502371 12.982928) (xy -2.483556 12.250096) (xy -2.476763 11.997838) (xy -2.470209 11.809981)
    (xy -2.462445 11.675687) (xy -2.452019 11.584116) (xy -2.437483 11.524431) (xy -2.417386 11.485791)
    (xy -2.390278 11.457359) (xy -2.375906 11.44541) (xy -2.260804 11.382235) (xy -2.151275 11.391471)
    (xy -2.064391 11.445443) (xy -1.975556 11.517329) (xy -1.964507 12.56717) (xy -1.961449 12.875929)
    (xy -1.959893 13.11848) (xy -1.960377 13.303869) (xy -1.963441 13.441141) (xy -1.969624 13.539342)
    (xy -1.979464 13.607517) (xy -1.993501 13.65471) (xy -2.012273 13.689969) (xy -2.03309 13.718247)
    (xy -2.078131 13.770691) (xy -2.122944 13.805454) (xy -2.173747 13.818798) (xy -2.236754 13.80698)
    (xy -2.318181 13.766262) (xy -2.424244 13.692903) (xy -2.561159 13.583164) (xy -2.735141 13.433304)
    (xy -2.952405 13.239584) (xy -3.198519 13.016996) (xy -4.082815 12.214861) (xy -4.10163 12.945297)
    (xy -4.108435 13.197095) (xy -4.115005 13.384514) (xy -4.122798 13.518413) (xy -4.13327 13.609653)
    (xy -4.147878 13.669095) (xy -4.168081 13.707598) (xy -4.195334 13.736023) (xy -4.20928 13.747607)
    (xy -4.33255 13.811242) (xy -4.449025 13.801643) (xy -4.550454 13.720333) (xy -4.573657 13.687621)
    (xy -4.591742 13.649419) (xy -4.605343 13.596559) (xy -4.615097 13.519878) (xy -4.621641 13.410208)
    (xy -4.62561 13.258386) (xy -4.627641 13.055245) (xy -4.628369 12.79162) (xy -4.628445 12.596519)
    (xy -4.6282 12.291358) (xy -4.627042 12.052291) (xy -4.624335 11.870151) (xy -4.619443 11.735773)
    (xy -4.611728 11.639992) (xy -4.600557 11.573643) (xy -4.585292 11.527559) (xy -4.565297 11.492575)
    (xy -4.550454 11.472705) (xy -4.512831 11.425636) (xy -4.477669 11.390097) (xy -4.439644 11.369639)
    (xy -4.393433 11.36781) (xy -4.333713 11.388161)) (layer F.SilkS) (width 0.01))
  (fp_poly (pts (xy -6.500271 11.391996) (xy -6.271882 11.430318) (xy -6.096475 11.48989) (xy -5.98236 11.568329)
    (xy -5.951264 11.613079) (xy -5.919642 11.71716) (xy -5.940922 11.811317) (xy -6.008101 11.900607)
    (xy -6.112484 11.942378) (xy -6.263942 11.938986) (xy -6.381087 11.916354) (xy -6.641396 11.873237)
    (xy -6.90742 11.869139) (xy -7.205182 11.904137) (xy -7.287431 11.918966) (xy -7.564304 11.997028)
    (xy -7.780908 12.113149) (xy -7.934871 12.265347) (xy -8.023815 12.451646) (xy -8.042211 12.547962)
    (xy -8.030169 12.743375) (xy -7.952431 12.916264) (xy -7.816078 13.063261) (xy -7.628195 13.180995)
    (xy -7.395865 13.266097) (xy -7.126173 13.315198) (xy -6.826201 13.324928) (xy -6.503033 13.291916)
    (xy -6.484786 13.288804) (xy -6.356248 13.264863) (xy -6.284979 13.241738) (xy -6.254088 13.207425)
    (xy -6.246686 13.149922) (xy -6.246519 13.119471) (xy -6.246519 12.99163) (xy -6.474771 12.99163)
    (xy -6.676332 12.977822) (xy -6.813883 12.933822) (xy -6.893915 12.855765) (xy -6.922922 12.739786)
    (xy -6.923276 12.724647) (xy -6.906305 12.625515) (xy -6.848108 12.554729) (xy -6.739796 12.507885)
    (xy -6.572476 12.480577) (xy -6.410408 12.470537) (xy -6.174853 12.464777) (xy -6.003993 12.473566)
    (xy -5.887463 12.506001) (xy -5.814898 12.571177) (xy -5.775933 12.678187) (xy -5.7602 12.836128)
    (xy -5.757334 13.04357) (xy -5.76203 13.275118) (xy -5.77616 13.43262) (xy -5.799785 13.516706)
    (xy -5.804371 13.523293) (xy -5.934092 13.628361) (xy -6.124286 13.711568) (xy -6.362895 13.771135)
    (xy -6.637861 13.805285) (xy -6.937128 13.812242) (xy -7.248638 13.790228) (xy -7.431852 13.763186)
    (xy -7.71922 13.681848) (xy -7.986305 13.548873) (xy -8.209923 13.376291) (xy -8.243911 13.341797)
    (xy -8.354339 13.196783) (xy -8.453979 13.01706) (xy -8.531188 12.828639) (xy -8.574328 12.657531)
    (xy -8.579526 12.591813) (xy -8.557392 12.454731) (xy -8.498561 12.284174) (xy -8.414321 12.104647)
    (xy -8.315962 11.940651) (xy -8.229062 11.831112) (xy -8.025881 11.668173) (xy -7.76323 11.538485)
    (xy -7.450522 11.444981) (xy -7.097168 11.390596) (xy -6.773334 11.377307) (xy -6.500271 11.391996)) (layer F.SilkS) (width 0.01))
  (fp_poly (pts (xy -9.746074 11.448815) (xy -9.724138 11.474059) (xy -9.706931 11.506625) (xy -9.693879 11.555237)
    (xy -9.684412 11.628618) (xy -9.677958 11.735492) (xy -9.673943 11.884584) (xy -9.671797 12.084617)
    (xy -9.670947 12.344315) (xy -9.670815 12.596519) (xy -9.671047 12.909342) (xy -9.672125 13.15563)
    (xy -9.674621 13.344106) (xy -9.679106 13.483496) (xy -9.686153 13.582523) (xy -9.696334 13.64991)
    (xy -9.71022 13.694381) (xy -9.728385 13.724661) (xy -9.746074 13.744223) (xy -9.856086 13.809824)
    (xy -9.973304 13.803937) (xy -10.078182 13.73239) (xy -10.102279 13.704456) (xy -10.121112 13.672047)
    (xy -10.135328 13.626203) (xy -10.145577 13.557965) (xy -10.152507 13.458374) (xy -10.156766 13.318471)
    (xy -10.159002 13.129296) (xy -10.159864 12.881891) (xy -10.16 12.601791) (xy -10.16 11.558283)
    (xy -10.067637 11.46592) (xy -9.953788 11.388211) (xy -9.843353 11.385411) (xy -9.746074 11.448815)) (layer F.SilkS) (width 0.01))
  (fp_poly (pts (xy -12.305675 11.377837) (xy -12.056292 11.395271) (xy -11.824353 11.422501) (xy -11.623339 11.4585)
    (xy -11.466734 11.502244) (xy -11.368019 11.552709) (xy -11.352867 11.567563) (xy -11.300178 11.682834)
    (xy -11.316155 11.801172) (xy -11.397879 11.902418) (xy -11.401778 11.905319) (xy -11.449847 11.936515)
    (xy -11.500026 11.952919) (xy -11.570017 11.954911) (xy -11.677523 11.942872) (xy -11.840244 11.917182)
    (xy -11.853334 11.915018) (xy -12.095796 11.885231) (xy -12.35739 11.870538) (xy -12.619756 11.870395)
    (xy -12.864536 11.884263) (xy -13.07337 11.911598) (xy -13.2279 11.951858) (xy -13.238054 11.955904)
    (xy -13.35016 12.018716) (xy -13.389547 12.082282) (xy -13.358713 12.144798) (xy -13.260155 12.204458)
    (xy -13.09637 12.259456) (xy -12.869855 12.307986) (xy -12.718815 12.331352) (xy -12.404852 12.376296)
    (xy -12.155145 12.417381) (xy -11.959056 12.458165) (xy -11.805948 12.502204) (xy -11.685184 12.553058)
    (xy -11.586127 12.614282) (xy -11.49814 12.689435) (xy -11.427434 12.763236) (xy -11.34355 12.866064)
    (xy -11.302268 12.954483) (xy -11.289358 13.063422) (xy -11.288889 13.103318) (xy -11.298586 13.235706)
    (xy -11.337339 13.334198) (xy -11.40441 13.421619) (xy -11.54072 13.555252) (xy -11.692722 13.657164)
    (xy -11.871708 13.730677) (xy -12.088974 13.779116) (xy -12.355814 13.805803) (xy -12.683522 13.814062)
    (xy -12.73763 13.813922) (xy -12.956162 13.809392) (xy -13.172885 13.799099) (xy -13.364174 13.784521)
    (xy -13.506405 13.767133) (xy -13.517908 13.765136) (xy -13.65932 13.731638) (xy -13.779265 13.689321)
    (xy -13.847167 13.650635) (xy -13.910357 13.548572) (xy -13.914756 13.429726) (xy -13.860283 13.323813)
    (xy -13.848095 13.311836) (xy -13.797718 13.276253) (xy -13.734715 13.260921) (xy -13.637207 13.26353)
    (xy -13.518836 13.277091) (xy -13.386567 13.289206) (xy -13.201149 13.299427) (xy -12.984687 13.306844)
    (xy -12.759283 13.310547) (xy -12.7 13.310792) (xy -12.473758 13.309879) (xy -12.308181 13.305487)
    (xy -12.1887 13.296091) (xy -12.100746 13.280167) (xy -12.029751 13.256191) (xy -11.987087 13.236223)
    (xy -11.893334 13.180776) (xy -11.83356 13.13056) (xy -11.824824 13.116325) (xy -11.843254 13.057544)
    (xy -11.930867 13.00064) (xy -12.081592 12.948195) (xy -12.289358 12.902793) (xy -12.350571 12.892679)
    (xy -12.6703 12.842461) (xy -12.925471 12.800486) (xy -13.125932 12.763705) (xy -13.281533 12.729066)
    (xy -13.402122 12.69352) (xy -13.497548 12.654016) (xy -13.577661 12.607505) (xy -13.652308 12.550937)
    (xy -13.731339 12.48126) (xy -13.757933 12.456831) (xy -13.851175 12.365663) (xy -13.900532 12.29343)
    (xy -13.919841 12.210773) (xy -13.922963 12.10661) (xy -13.888584 11.90235) (xy -13.785839 11.728801)
    (xy -13.615317 11.586526) (xy -13.377609 11.476084) (xy -13.208 11.426547) (xy -13.023665 11.394553)
    (xy -12.802844 11.376453) (xy -12.55902 11.371223) (xy -12.305675 11.377837)) (layer F.SilkS) (width 0.01))
  (fp_poly (pts (xy -15.709314 11.373821) (xy -15.477952 11.375062) (xy -15.303321 11.377949) (xy -15.176157 11.383153)
    (xy -15.087197 11.391344) (xy -15.027176 11.403191) (xy -14.986831 11.419366) (xy -14.956898 11.440537)
    (xy -14.946059 11.450281) (xy -14.880142 11.553808) (xy -14.868272 11.672762) (xy -14.911635 11.778367)
    (xy -14.931686 11.79971) (xy -14.964117 11.820404) (xy -15.016335 11.836368) (xy -15.098025 11.848379)
    (xy -15.218869 11.857215) (xy -15.388551 11.863651) (xy -15.616754 11.868464) (xy -15.825389 11.871394)
    (xy -16.651112 11.881556) (xy -16.662397 12.097926) (xy -16.673682 12.314297) (xy -16.113192 12.314297)
    (xy -15.869862 12.316396) (xy -15.691722 12.325177) (xy -15.568758 12.344364) (xy -15.490959 12.377681)
    (xy -15.448313 12.428854) (xy -15.430807 12.501605) (xy -15.428149 12.569126) (xy -15.436411 12.651974)
    (xy -15.46759 12.713021) (xy -15.531276 12.755457) (xy -15.637059 12.782471) (xy -15.794529 12.797255)
    (xy -16.013276 12.802997) (xy -16.13267 12.803482) (xy -16.669926 12.803482) (xy -16.669926 13.330297)
    (xy -15.842074 13.330297) (xy -15.57071 13.330675) (xy -15.364472 13.332372) (xy -15.213228 13.336233)
    (xy -15.106846 13.343101) (xy -15.035196 13.353822) (xy -14.988144 13.369239) (xy -14.955559 13.390196)
    (xy -14.938963 13.405556) (xy -14.882033 13.495202) (xy -14.863704 13.574889) (xy -14.889876 13.672225)
    (xy -14.938963 13.744223) (xy -14.965152 13.766888) (xy -14.998959 13.784488) (xy -15.049479 13.79766)
    (xy -15.125804 13.807043) (xy -15.237029 13.813274) (xy -15.392248 13.816992) (xy -15.600556 13.818836)
    (xy -15.871045 13.819442) (xy -16.011408 13.819482) (xy -16.311992 13.819216) (xy -16.546412 13.817993)
    (xy -16.723762 13.815174) (xy -16.853134 13.810122) (xy -16.943624 13.802198) (xy -17.004325 13.790764)
    (xy -17.044332 13.775182) (xy -17.072738 13.754813) (xy -17.083852 13.744223) (xy -17.105849 13.7189)
    (xy -17.12309 13.686232) (xy -17.136152 13.637463) (xy -17.145613 13.56384) (xy -17.15205 13.456607)
    (xy -17.15604 13.307011) (xy -17.158161 13.106296) (xy -17.15899 12.84571) (xy -17.159112 12.603078)
    (xy -17.158999 12.292357) (xy -17.158218 12.048103) (xy -17.1561 11.861527) (xy -17.151978 11.723836)
    (xy -17.145186 11.62624) (xy -17.135056 11.559947) (xy -17.120921 11.516166) (xy -17.102115 11.486107)
    (xy -17.077969 11.460978) (xy -17.07202 11.455375) (xy -17.043151 11.430572) (xy -17.009607 11.411365)
    (xy -16.962083 11.397039) (xy -16.891276 11.386879) (xy -16.787879 11.380171) (xy -16.64259 11.376199)
    (xy -16.446103 11.374251) (xy -16.189114 11.37361) (xy -16.006671 11.373556) (xy -15.709314 11.373821)) (layer F.SilkS) (width 0.01))
  (fp_poly (pts (xy -20.404571 11.373553) (xy -20.272963 11.374891) (xy -19.887333 11.384195) (xy -19.564369 11.411834)
    (xy -19.293064 11.460773) (xy -19.06241 11.533975) (xy -18.8614 11.634407) (xy -18.679027 11.765033)
    (xy -18.613888 11.821775) (xy -18.505834 11.954544) (xy -18.4084 12.134709) (xy -18.333304 12.334412)
    (xy -18.292264 12.525797) (xy -18.288 12.596519) (xy -18.314722 12.792565) (xy -18.386331 13.006709)
    (xy -18.489997 13.209403) (xy -18.612887 13.371099) (xy -18.632848 13.390608) (xy -18.801928 13.527737)
    (xy -18.987083 13.634782) (xy -19.198987 13.71455) (xy -19.448314 13.769844) (xy -19.74574 13.803469)
    (xy -20.101938 13.818231) (xy -20.265093 13.819482) (xy -20.472539 13.818483) (xy -20.618425 13.814307)
    (xy -20.716438 13.805181) (xy -20.780264 13.789337) (xy -20.823591 13.765003) (xy -20.846815 13.744223)
    (xy -20.868751 13.718979) (xy -20.885959 13.686413) (xy -20.89901 13.637801) (xy -20.908477 13.56442)
    (xy -20.914932 13.457546) (xy -20.918947 13.308454) (xy -20.921093 13.108421) (xy -20.921943 12.848723)
    (xy -20.922074 12.596519) (xy -20.922903 12.260138) (xy -20.922724 11.991422) (xy -20.919523 11.862741)
    (xy -20.432889 11.862741) (xy -20.432889 13.330297) (xy -20.122445 13.330012) (xy -19.935643 13.324655)
    (xy -19.739996 13.310853) (xy -19.57676 13.291548) (xy -19.571794 13.290752) (xy -19.307971 13.226967)
    (xy -19.103341 13.127625) (xy -18.947684 12.98626) (xy -18.848783 12.833203) (xy -18.787844 12.663419)
    (xy -18.792569 12.503999) (xy -18.863292 12.333111) (xy -19.001629 12.156329) (xy -19.193327 12.025332)
    (xy -19.442499 11.937771) (xy -19.609025 11.906783) (xy -19.798054 11.885022) (xy -19.998397 11.869272)
    (xy -20.168796 11.862724) (xy -20.178889 11.862693) (xy -20.432889 11.862741) (xy -20.919523 11.862741)
    (xy -20.917534 11.782838) (xy -20.903327 11.626851) (xy -20.8761 11.515927) (xy -20.831852 11.442532)
    (xy -20.766578 11.399131) (xy -20.676276 11.37819) (xy -20.556941 11.372176) (xy -20.404571 11.373553)) (layer F.SilkS) (width 0.01))
)
