(module OSHW-Logo_5.7x6mm_Copper (layer F.Cu) (tedit 0)
  (descr "Open Source Hardware Logo")
  (tags "Logo OSHW")
  (attr virtual)
  (fp_text reference REF** (at 0 0) (layer F.SilkS) hide
    (effects (font (size 1 1) (thickness 0.15)))
  )
  (fp_text value OSHW-Logo_5.7x6mm_Copper (at 0.75 0) (layer F.Fab) hide
    (effects (font (size 1 1) (thickness 0.15)))
  )
  (fp_poly (pts (xy -1.908759 1.469184) (xy -1.882247 1.482282) (xy -1.849553 1.505106) (xy -1.825725 1.529996)
    (xy -1.809406 1.561249) (xy -1.79924 1.603166) (xy -1.793872 1.660044) (xy -1.791944 1.736184)
    (xy -1.791831 1.768917) (xy -1.792161 1.840656) (xy -1.793527 1.891927) (xy -1.7965 1.927404)
    (xy -1.801649 1.951763) (xy -1.809543 1.96968) (xy -1.817757 1.981902) (xy -1.870187 2.033905)
    (xy -1.93193 2.065184) (xy -1.998536 2.074592) (xy -2.065558 2.06098) (xy -2.086792 2.051354)
    (xy -2.137624 2.024859) (xy -2.137624 2.440052) (xy -2.100525 2.420868) (xy -2.051643 2.406025)
    (xy -1.991561 2.402222) (xy -1.931564 2.409243) (xy -1.886256 2.425013) (xy -1.848675 2.455047)
    (xy -1.816564 2.498024) (xy -1.81415 2.502436) (xy -1.803967 2.523221) (xy -1.79653 2.54417)
    (xy -1.791411 2.569548) (xy -1.788181 2.603618) (xy -1.786413 2.650641) (xy -1.785677 2.714882)
    (xy -1.785544 2.787176) (xy -1.785544 3.017822) (xy -1.923861 3.017822) (xy -1.923861 2.592533)
    (xy -1.962549 2.559979) (xy -2.002738 2.53394) (xy -2.040797 2.529205) (xy -2.079066 2.541389)
    (xy -2.099462 2.55332) (xy -2.114642 2.570313) (xy -2.125438 2.595995) (xy -2.132683 2.633991)
    (xy -2.137208 2.687926) (xy -2.139844 2.761425) (xy -2.140772 2.810347) (xy -2.143911 3.011535)
    (xy -2.209926 3.015336) (xy -2.27594 3.019136) (xy -2.27594 1.77065) (xy -2.137624 1.77065)
    (xy -2.134097 1.840254) (xy -2.122215 1.888569) (xy -2.10002 1.918631) (xy -2.065559 1.933471)
    (xy -2.030742 1.936436) (xy -1.991329 1.933028) (xy -1.965171 1.919617) (xy -1.948814 1.901896)
    (xy -1.935937 1.882835) (xy -1.928272 1.861601) (xy -1.924861 1.831849) (xy -1.924749 1.787236)
    (xy -1.925897 1.74988) (xy -1.928532 1.693604) (xy -1.932456 1.656658) (xy -1.939063 1.633223)
    (xy -1.949749 1.61748) (xy -1.959833 1.60838) (xy -2.00197 1.588537) (xy -2.05184 1.585332)
    (xy -2.080476 1.592168) (xy -2.108828 1.616464) (xy -2.127609 1.663728) (xy -2.136712 1.733624)
    (xy -2.137624 1.77065) (xy -2.27594 1.77065) (xy -2.27594 1.458614) (xy -2.206782 1.458614)
    (xy -2.16526 1.460256) (xy -2.143838 1.466087) (xy -2.137626 1.477461) (xy -2.137624 1.477798)
    (xy -2.134742 1.488938) (xy -2.12203 1.487673) (xy -2.096757 1.475433) (xy -2.037869 1.456707)
    (xy -1.971615 1.454739) (xy -1.908759 1.469184)) (layer F.Cu) (width 0.01))
  (fp_poly (pts (xy -1.38421 2.406555) (xy -1.325055 2.422339) (xy -1.280023 2.450948) (xy -1.248246 2.488419)
    (xy -1.238366 2.504411) (xy -1.231073 2.521163) (xy -1.225974 2.542592) (xy -1.222679 2.572616)
    (xy -1.220797 2.615154) (xy -1.219937 2.674122) (xy -1.219707 2.75344) (xy -1.219703 2.774484)
    (xy -1.219703 3.017822) (xy -1.280059 3.017822) (xy -1.318557 3.015126) (xy -1.347023 3.008295)
    (xy -1.354155 3.004083) (xy -1.373652 2.996813) (xy -1.393566 3.004083) (xy -1.426353 3.01316)
    (xy -1.473978 3.016813) (xy -1.526764 3.015228) (xy -1.575036 3.008589) (xy -1.603218 3.000072)
    (xy -1.657753 2.965063) (xy -1.691835 2.916479) (xy -1.707157 2.851882) (xy -1.707299 2.850223)
    (xy -1.705955 2.821566) (xy -1.584356 2.821566) (xy -1.573726 2.854161) (xy -1.55641 2.872505)
    (xy -1.521652 2.886379) (xy -1.475773 2.891917) (xy -1.428988 2.889191) (xy -1.391514 2.878274)
    (xy -1.381015 2.871269) (xy -1.362668 2.838904) (xy -1.35802 2.802111) (xy -1.35802 2.753763)
    (xy -1.427582 2.753763) (xy -1.493667 2.75885) (xy -1.543764 2.773263) (xy -1.574929 2.795729)
    (xy -1.584356 2.821566) (xy -1.705955 2.821566) (xy -1.703987 2.779647) (xy -1.68071 2.723845)
    (xy -1.636948 2.681647) (xy -1.630899 2.677808) (xy -1.604907 2.665309) (xy -1.572735 2.65774)
    (xy -1.52776 2.654061) (xy -1.474331 2.653216) (xy -1.35802 2.653169) (xy -1.35802 2.604411)
    (xy -1.362953 2.566581) (xy -1.375543 2.541236) (xy -1.377017 2.539887) (xy -1.405034 2.5288)
    (xy -1.447326 2.524503) (xy -1.494064 2.526615) (xy -1.535418 2.534756) (xy -1.559957 2.546965)
    (xy -1.573253 2.556746) (xy -1.587294 2.558613) (xy -1.606671 2.5506) (xy -1.635976 2.530739)
    (xy -1.679803 2.497063) (xy -1.683825 2.493909) (xy -1.681764 2.482236) (xy -1.664568 2.462822)
    (xy -1.638433 2.441248) (xy -1.609552 2.423096) (xy -1.600478 2.418809) (xy -1.56738 2.410256)
    (xy -1.51888 2.404155) (xy -1.464695 2.401708) (xy -1.462161 2.401703) (xy -1.38421 2.406555)) (layer F.Cu) (width 0.01))
  (fp_poly (pts (xy -0.993356 2.40302) (xy -0.974539 2.40866) (xy -0.968473 2.421053) (xy -0.968218 2.426647)
    (xy -0.967129 2.44223) (xy -0.959632 2.444676) (xy -0.939381 2.433993) (xy -0.927351 2.426694)
    (xy -0.8894 2.411063) (xy -0.844072 2.403334) (xy -0.796544 2.40274) (xy -0.751995 2.408513)
    (xy -0.715602 2.419884) (xy -0.692543 2.436088) (xy -0.687996 2.456355) (xy -0.690291 2.461843)
    (xy -0.70702 2.484626) (xy -0.732963 2.512647) (xy -0.737655 2.517177) (xy -0.762383 2.538005)
    (xy -0.783718 2.544735) (xy -0.813555 2.540038) (xy -0.825508 2.536917) (xy -0.862705 2.529421)
    (xy -0.888859 2.532792) (xy -0.910946 2.544681) (xy -0.931178 2.560635) (xy -0.946079 2.5807)
    (xy -0.956434 2.608702) (xy -0.963029 2.648467) (xy -0.966649 2.703823) (xy -0.968078 2.778594)
    (xy -0.968218 2.82374) (xy -0.968218 3.017822) (xy -1.09396 3.017822) (xy -1.09396 2.401683)
    (xy -1.031089 2.401683) (xy -0.993356 2.40302)) (layer F.Cu) (width 0.01))
  (fp_poly (pts (xy -0.201188 3.017822) (xy -0.270346 3.017822) (xy -0.310488 3.016645) (xy -0.331394 3.011772)
    (xy -0.338922 3.001186) (xy -0.339505 2.994029) (xy -0.340774 2.979676) (xy -0.348779 2.976923)
    (xy -0.369815 2.985771) (xy -0.386173 2.994029) (xy -0.448977 3.013597) (xy -0.517248 3.014729)
    (xy -0.572752 3.000135) (xy -0.624438 2.964877) (xy -0.663838 2.912835) (xy -0.685413 2.85145)
    (xy -0.685962 2.848018) (xy -0.689167 2.810571) (xy -0.690761 2.756813) (xy -0.690633 2.716155)
    (xy -0.553279 2.716155) (xy -0.550097 2.770194) (xy -0.542859 2.814735) (xy -0.53306 2.839888)
    (xy -0.495989 2.87426) (xy -0.451974 2.886582) (xy -0.406584 2.876618) (xy -0.367797 2.846895)
    (xy -0.353108 2.826905) (xy -0.344519 2.80305) (xy -0.340496 2.76823) (xy -0.339505 2.71593)
    (xy -0.341278 2.664139) (xy -0.345963 2.618634) (xy -0.352603 2.588181) (xy -0.35371 2.585452)
    (xy -0.380491 2.553) (xy -0.419579 2.535183) (xy -0.463315 2.532306) (xy -0.504038 2.544674)
    (xy -0.534087 2.572593) (xy -0.537204 2.578148) (xy -0.546961 2.612022) (xy -0.552277 2.660728)
    (xy -0.553279 2.716155) (xy -0.690633 2.716155) (xy -0.690568 2.69554) (xy -0.689664 2.662563)
    (xy -0.683514 2.580981) (xy -0.670733 2.51973) (xy -0.649471 2.474449) (xy -0.617878 2.440779)
    (xy -0.587207 2.421014) (xy -0.544354 2.40712) (xy -0.491056 2.402354) (xy -0.43648 2.406236)
    (xy -0.389792 2.418282) (xy -0.365124 2.432693) (xy -0.339505 2.455878) (xy -0.339505 2.162773)
    (xy -0.201188 2.162773) (xy -0.201188 3.017822)) (layer F.Cu) (width 0.01))
  (fp_poly (pts (xy 0.281524 2.404237) (xy 0.331255 2.407971) (xy 0.461291 2.797773) (xy 0.481678 2.728614)
    (xy 0.493946 2.685874) (xy 0.510085 2.628115) (xy 0.527512 2.564625) (xy 0.536726 2.53057)
    (xy 0.571388 2.401683) (xy 0.714391 2.401683) (xy 0.671646 2.536857) (xy 0.650596 2.603342)
    (xy 0.625167 2.683539) (xy 0.59861 2.767193) (xy 0.574902 2.841782) (xy 0.520902 3.011535)
    (xy 0.462598 3.015328) (xy 0.404295 3.019122) (xy 0.372679 2.914734) (xy 0.353182 2.849889)
    (xy 0.331904 2.7784) (xy 0.313308 2.715263) (xy 0.312574 2.71275) (xy 0.298684 2.669969)
    (xy 0.286429 2.640779) (xy 0.277846 2.629741) (xy 0.276082 2.631018) (xy 0.269891 2.64813)
    (xy 0.258128 2.684787) (xy 0.242225 2.736378) (xy 0.223614 2.798294) (xy 0.213543 2.832352)
    (xy 0.159007 3.017822) (xy 0.043264 3.017822) (xy -0.049263 2.725471) (xy -0.075256 2.643462)
    (xy -0.098934 2.568987) (xy -0.11918 2.505544) (xy -0.134874 2.456632) (xy -0.144898 2.425749)
    (xy -0.147945 2.416726) (xy -0.145533 2.407487) (xy -0.126592 2.403441) (xy -0.087177 2.403846)
    (xy -0.081007 2.404152) (xy -0.007914 2.407971) (xy 0.039957 2.58401) (xy 0.057553 2.648211)
    (xy 0.073277 2.704649) (xy 0.085746 2.748422) (xy 0.093574 2.77463) (xy 0.09502 2.778903)
    (xy 0.101014 2.77399) (xy 0.113101 2.748532) (xy 0.129893 2.705997) (xy 0.150003 2.64985)
    (xy 0.167003 2.59913) (xy 0.231794 2.400504) (xy 0.281524 2.404237)) (layer F.Cu) (width 0.01))
  (fp_poly (pts (xy 1.038411 2.405417) (xy 1.091411 2.41829) (xy 1.106731 2.42511) (xy 1.136428 2.442974)
    (xy 1.15922 2.463093) (xy 1.176083 2.488962) (xy 1.187998 2.524073) (xy 1.195942 2.57192)
    (xy 1.200894 2.635996) (xy 1.203831 2.719794) (xy 1.204947 2.775768) (xy 1.209052 3.017822)
    (xy 1.138932 3.017822) (xy 1.096393 3.016038) (xy 1.074476 3.009942) (xy 1.068812 2.999706)
    (xy 1.065821 2.988637) (xy 1.052451 2.990754) (xy 1.034233 2.999629) (xy 0.988624 3.013233)
    (xy 0.930007 3.016899) (xy 0.868354 3.010903) (xy 0.813638 2.995521) (xy 0.80873 2.993386)
    (xy 0.758723 2.958255) (xy 0.725756 2.909419) (xy 0.710587 2.852333) (xy 0.711746 2.831824)
    (xy 0.835508 2.831824) (xy 0.846413 2.859425) (xy 0.878745 2.879204) (xy 0.93091 2.889819)
    (xy 0.958787 2.891228) (xy 1.005247 2.88762) (xy 1.036129 2.873597) (xy 1.043664 2.866931)
    (xy 1.064076 2.830666) (xy 1.068812 2.797773) (xy 1.068812 2.753763) (xy 1.007513 2.753763)
    (xy 0.936256 2.757395) (xy 0.886276 2.768818) (xy 0.854696 2.788824) (xy 0.847626 2.797743)
    (xy 0.835508 2.831824) (xy 0.711746 2.831824) (xy 0.713971 2.792456) (xy 0.736663 2.735244)
    (xy 0.767624 2.69658) (xy 0.786376 2.679864) (xy 0.804733 2.668878) (xy 0.828619 2.66218)
    (xy 0.863957 2.658326) (xy 0.916669 2.655873) (xy 0.937577 2.655168) (xy 1.068812 2.650879)
    (xy 1.06862 2.611158) (xy 1.063537 2.569405) (xy 1.045162 2.544158) (xy 1.008039 2.52803)
    (xy 1.007043 2.527742) (xy 0.95441 2.5214) (xy 0.902906 2.529684) (xy 0.86463 2.549827)
    (xy 0.849272 2.559773) (xy 0.83273 2.558397) (xy 0.807275 2.543987) (xy 0.792328 2.533817)
    (xy 0.763091 2.512088) (xy 0.74498 2.4958) (xy 0.742074 2.491137) (xy 0.75404 2.467005)
    (xy 0.789396 2.438185) (xy 0.804753 2.428461) (xy 0.848901 2.411714) (xy 0.908398 2.402227)
    (xy 0.974487 2.400095) (xy 1.038411 2.405417)) (layer F.Cu) (width 0.01))
  (fp_poly (pts (xy 1.635255 2.401486) (xy 1.683595 2.411015) (xy 1.711114 2.425125) (xy 1.740064 2.448568)
    (xy 1.698876 2.500571) (xy 1.673482 2.532064) (xy 1.656238 2.547428) (xy 1.639102 2.549776)
    (xy 1.614027 2.542217) (xy 1.602257 2.537941) (xy 1.55427 2.531631) (xy 1.510324 2.545156)
    (xy 1.47806 2.57571) (xy 1.472819 2.585452) (xy 1.467112 2.611258) (xy 1.462706 2.658817)
    (xy 1.459811 2.724758) (xy 1.458631 2.80571) (xy 1.458614 2.817226) (xy 1.458614 3.017822)
    (xy 1.320297 3.017822) (xy 1.320297 2.401683) (xy 1.389456 2.401683) (xy 1.429333 2.402725)
    (xy 1.450107 2.407358) (xy 1.457789 2.417849) (xy 1.458614 2.427745) (xy 1.458614 2.453806)
    (xy 1.491745 2.427745) (xy 1.529735 2.409965) (xy 1.58077 2.401174) (xy 1.635255 2.401486)) (layer F.Cu) (width 0.01))
  (fp_poly (pts (xy 2.032581 2.40497) (xy 2.092685 2.420597) (xy 2.143021 2.452848) (xy 2.167393 2.47694)
    (xy 2.207345 2.533895) (xy 2.230242 2.599965) (xy 2.238108 2.681182) (xy 2.238148 2.687748)
    (xy 2.238218 2.753763) (xy 1.858264 2.753763) (xy 1.866363 2.788342) (xy 1.880987 2.819659)
    (xy 1.906581 2.852291) (xy 1.911935 2.8575) (xy 1.957943 2.885694) (xy 2.01041 2.890475)
    (xy 2.070803 2.871926) (xy 2.08104 2.866931) (xy 2.112439 2.851745) (xy 2.13347 2.843094)
    (xy 2.137139 2.842293) (xy 2.149948 2.850063) (xy 2.174378 2.869072) (xy 2.186779 2.87946)
    (xy 2.212476 2.903321) (xy 2.220915 2.919077) (xy 2.215058 2.933571) (xy 2.211928 2.937534)
    (xy 2.190725 2.954879) (xy 2.155738 2.975959) (xy 2.131337 2.988265) (xy 2.062072 3.009946)
    (xy 1.985388 3.016971) (xy 1.912765 3.008647) (xy 1.892426 3.002686) (xy 1.829476 2.968952)
    (xy 1.782815 2.917045) (xy 1.752173 2.846459) (xy 1.737282 2.756692) (xy 1.735647 2.709753)
    (xy 1.740421 2.641413) (xy 1.86099 2.641413) (xy 1.872652 2.646465) (xy 1.903998 2.650429)
    (xy 1.949571 2.652768) (xy 1.980446 2.653169) (xy 2.035981 2.652783) (xy 2.071033 2.650975)
    (xy 2.090262 2.646773) (xy 2.09833 2.639203) (xy 2.099901 2.628218) (xy 2.089121 2.594381)
    (xy 2.06198 2.56094) (xy 2.026277 2.535272) (xy 1.99056 2.524772) (xy 1.942048 2.534086)
    (xy 1.900053 2.561013) (xy 1.870936 2.599827) (xy 1.86099 2.641413) (xy 1.740421 2.641413)
    (xy 1.742599 2.610236) (xy 1.764055 2.530949) (xy 1.80047 2.471263) (xy 1.852297 2.430549)
    (xy 1.91999 2.408179) (xy 1.956662 2.403871) (xy 2.032581 2.40497)) (layer F.Cu) (width 0.01))
  (fp_poly (pts (xy -2.538261 1.465148) (xy -2.472479 1.494231) (xy -2.42254 1.542793) (xy -2.388374 1.610908)
    (xy -2.369907 1.698651) (xy -2.368583 1.712351) (xy -2.367546 1.808939) (xy -2.380993 1.893602)
    (xy -2.408108 1.962221) (xy -2.422627 1.984294) (xy -2.473201 2.031011) (xy -2.537609 2.061268)
    (xy -2.609666 2.073824) (xy -2.683185 2.067439) (xy -2.739072 2.047772) (xy -2.787132 2.014629)
    (xy -2.826412 1.971175) (xy -2.827092 1.970158) (xy -2.843044 1.943338) (xy -2.85341 1.916368)
    (xy -2.859688 1.882332) (xy -2.863373 1.83431) (xy -2.864997 1.794931) (xy -2.865672 1.759219)
    (xy -2.739955 1.759219) (xy -2.738726 1.79477) (xy -2.734266 1.842094) (xy -2.726397 1.872465)
    (xy -2.712207 1.894072) (xy -2.698917 1.906694) (xy -2.651802 1.933122) (xy -2.602505 1.936653)
    (xy -2.556593 1.917639) (xy -2.533638 1.896331) (xy -2.517096 1.874859) (xy -2.507421 1.854313)
    (xy -2.503174 1.827574) (xy -2.50292 1.787523) (xy -2.504228 1.750638) (xy -2.507043 1.697947)
    (xy -2.511505 1.663772) (xy -2.519548 1.64148) (xy -2.533103 1.624442) (xy -2.543845 1.614703)
    (xy -2.588777 1.589123) (xy -2.637249 1.587847) (xy -2.677894 1.602999) (xy -2.712567 1.634642)
    (xy -2.733224 1.68662) (xy -2.739955 1.759219) (xy -2.865672 1.759219) (xy -2.866479 1.716621)
    (xy -2.863948 1.658056) (xy -2.856362 1.614007) (xy -2.842681 1.579248) (xy -2.821865 1.548551)
    (xy -2.814147 1.539436) (xy -2.765889 1.494021) (xy -2.714128 1.467493) (xy -2.650828 1.456379)
    (xy -2.619961 1.455471) (xy -2.538261 1.465148)) (layer F.Cu) (width 0.01))
  (fp_poly (pts (xy -1.356699 1.472614) (xy -1.344168 1.478514) (xy -1.300799 1.510283) (xy -1.25979 1.556646)
    (xy -1.229168 1.607696) (xy -1.220459 1.631166) (xy -1.212512 1.673091) (xy -1.207774 1.723757)
    (xy -1.207199 1.744679) (xy -1.207129 1.810693) (xy -1.587083 1.810693) (xy -1.578983 1.845273)
    (xy -1.559104 1.88617) (xy -1.524347 1.921514) (xy -1.482998 1.944282) (xy -1.456649 1.94901)
    (xy -1.420916 1.943273) (xy -1.378282 1.928882) (xy -1.363799 1.922262) (xy -1.31024 1.895513)
    (xy -1.264533 1.930376) (xy -1.238158 1.953955) (xy -1.224124 1.973417) (xy -1.223414 1.979129)
    (xy -1.235951 1.992973) (xy -1.263428 2.014012) (xy -1.288366 2.030425) (xy -1.355664 2.05993)
    (xy -1.43111 2.073284) (xy -1.505888 2.069812) (xy -1.565495 2.051663) (xy -1.626941 2.012784)
    (xy -1.670608 1.961595) (xy -1.697926 1.895367) (xy -1.710322 1.811371) (xy -1.711421 1.772936)
    (xy -1.707022 1.684861) (xy -1.706482 1.682299) (xy -1.580582 1.682299) (xy -1.577115 1.690558)
    (xy -1.562863 1.695113) (xy -1.53347 1.697065) (xy -1.484575 1.697517) (xy -1.465748 1.697525)
    (xy -1.408467 1.696843) (xy -1.372141 1.694364) (xy -1.352604 1.689443) (xy -1.34569 1.681434)
    (xy -1.345445 1.678862) (xy -1.353336 1.658423) (xy -1.373085 1.629789) (xy -1.381575 1.619763)
    (xy -1.413094 1.591408) (xy -1.445949 1.580259) (xy -1.463651 1.579327) (xy -1.511539 1.590981)
    (xy -1.551699 1.622285) (xy -1.577173 1.667752) (xy -1.577625 1.669233) (xy -1.580582 1.682299)
    (xy -1.706482 1.682299) (xy -1.692392 1.61551) (xy -1.666038 1.560025) (xy -1.633807 1.520639)
    (xy -1.574217 1.477931) (xy -1.504168 1.455109) (xy -1.429661 1.453046) (xy -1.356699 1.472614)) (layer F.Cu) (width 0.01))
  (fp_poly (pts (xy 0.014017 1.456452) (xy 0.061634 1.465482) (xy 0.111034 1.48437) (xy 0.116312 1.486777)
    (xy 0.153774 1.506476) (xy 0.179717 1.524781) (xy 0.188103 1.536508) (xy 0.180117 1.555632)
    (xy 0.16072 1.58385) (xy 0.15211 1.594384) (xy 0.116628 1.635847) (xy 0.070885 1.608858)
    (xy 0.02735 1.590878) (xy -0.02295 1.581267) (xy -0.071188 1.58066) (xy -0.108533 1.589691)
    (xy -0.117495 1.595327) (xy -0.134563 1.621171) (xy -0.136637 1.650941) (xy -0.123866 1.674197)
    (xy -0.116312 1.678708) (xy -0.093675 1.684309) (xy -0.053885 1.690892) (xy -0.004834 1.697183)
    (xy 0.004215 1.69817) (xy 0.082996 1.711798) (xy 0.140136 1.734946) (xy 0.17803 1.769752)
    (xy 0.199079 1.818354) (xy 0.205635 1.877718) (xy 0.196577 1.945198) (xy 0.167164 1.998188)
    (xy 0.117278 2.036783) (xy 0.0468 2.061081) (xy -0.031435 2.070667) (xy -0.095234 2.070552)
    (xy -0.146984 2.061845) (xy -0.182327 2.049825) (xy -0.226983 2.02888) (xy -0.268253 2.004574)
    (xy -0.282921 1.993876) (xy -0.320643 1.963084) (xy -0.275148 1.917049) (xy -0.229653 1.871013)
    (xy -0.177928 1.905243) (xy -0.126048 1.930952) (xy -0.070649 1.944399) (xy -0.017395 1.945818)
    (xy 0.028049 1.935443) (xy 0.060016 1.913507) (xy 0.070338 1.894998) (xy 0.068789 1.865314)
    (xy 0.04314 1.842615) (xy -0.00654 1.82694) (xy -0.060969 1.819695) (xy -0.144736 1.805873)
    (xy -0.206967 1.779796) (xy -0.248493 1.740699) (xy -0.270147 1.68782) (xy -0.273147 1.625126)
    (xy -0.258329 1.559642) (xy -0.224546 1.510144) (xy -0.171495 1.476408) (xy -0.098874 1.458207)
    (xy -0.045072 1.454639) (xy 0.014017 1.456452)) (layer F.Cu) (width 0.01))
  (fp_poly (pts (xy 0.610762 1.466055) (xy 0.674363 1.500692) (xy 0.724123 1.555372) (xy 0.747568 1.599842)
    (xy 0.757634 1.639121) (xy 0.764156 1.695116) (xy 0.766951 1.759621) (xy 0.765836 1.824429)
    (xy 0.760626 1.881334) (xy 0.754541 1.911727) (xy 0.734014 1.953306) (xy 0.698463 1.997468)
    (xy 0.655619 2.036087) (xy 0.613211 2.061034) (xy 0.612177 2.06143) (xy 0.559553 2.072331)
    (xy 0.497188 2.072601) (xy 0.437924 2.062676) (xy 0.41504 2.054722) (xy 0.356102 2.0213)
    (xy 0.31389 1.977511) (xy 0.286156 1.919538) (xy 0.270651 1.843565) (xy 0.267143 1.803771)
    (xy 0.26759 1.753766) (xy 0.402376 1.753766) (xy 0.406917 1.826732) (xy 0.419986 1.882334)
    (xy 0.440756 1.917861) (xy 0.455552 1.92802) (xy 0.493464 1.935104) (xy 0.538527 1.933007)
    (xy 0.577487 1.922812) (xy 0.587704 1.917204) (xy 0.614659 1.884538) (xy 0.632451 1.834545)
    (xy 0.640024 1.773705) (xy 0.636325 1.708497) (xy 0.628057 1.669253) (xy 0.60432 1.623805)
    (xy 0.566849 1.595396) (xy 0.52172 1.585573) (xy 0.475011 1.595887) (xy 0.439132 1.621112)
    (xy 0.420277 1.641925) (xy 0.409272 1.662439) (xy 0.404026 1.690203) (xy 0.402449 1.732762)
    (xy 0.402376 1.753766) (xy 0.26759 1.753766) (xy 0.268094 1.69758) (xy 0.285388 1.610501)
    (xy 0.319029 1.54253) (xy 0.369018 1.493664) (xy 0.435356 1.463899) (xy 0.449601 1.460448)
    (xy 0.53521 1.452345) (xy 0.610762 1.466055)) (layer F.Cu) (width 0.01))
  (fp_poly (pts (xy 0.993367 1.654342) (xy 0.994555 1.746563) (xy 0.998897 1.81661) (xy 1.007558 1.867381)
    (xy 1.021704 1.901772) (xy 1.0425 1.922679) (xy 1.07111 1.933) (xy 1.106535 1.935636)
    (xy 1.143636 1.932682) (xy 1.171818 1.921889) (xy 1.192243 1.90036) (xy 1.206079 1.865199)
    (xy 1.214491 1.81351) (xy 1.218643 1.742394) (xy 1.219703 1.654342) (xy 1.219703 1.458614)
    (xy 1.35802 1.458614) (xy 1.35802 2.062179) (xy 1.288862 2.062179) (xy 1.24717 2.060489)
    (xy 1.225701 2.054556) (xy 1.219703 2.043293) (xy 1.216091 2.033261) (xy 1.201714 2.035383)
    (xy 1.172736 2.04958) (xy 1.106319 2.07148) (xy 1.035875 2.069928) (xy 0.968377 2.046147)
    (xy 0.936233 2.027362) (xy 0.911715 2.007022) (xy 0.893804 1.981573) (xy 0.881479 1.947458)
    (xy 0.873723 1.901121) (xy 0.869516 1.839007) (xy 0.86784 1.757561) (xy 0.867624 1.694578)
    (xy 0.867624 1.458614) (xy 0.993367 1.458614) (xy 0.993367 1.654342)) (layer F.Cu) (width 0.01))
  (fp_poly (pts (xy 2.217226 1.46388) (xy 2.29008 1.49483) (xy 2.313027 1.509895) (xy 2.342354 1.533048)
    (xy 2.360764 1.551253) (xy 2.363961 1.557183) (xy 2.354935 1.57034) (xy 2.331837 1.592667)
    (xy 2.313344 1.60825) (xy 2.262728 1.648926) (xy 2.22276 1.615295) (xy 2.191874 1.593584)
    (xy 2.161759 1.58609) (xy 2.127292 1.58792) (xy 2.072561 1.601528) (xy 2.034886 1.629772)
    (xy 2.011991 1.675433) (xy 2.001597 1.741289) (xy 2.001595 1.741331) (xy 2.002494 1.814939)
    (xy 2.016463 1.868946) (xy 2.044328 1.905716) (xy 2.063325 1.918168) (xy 2.113776 1.933673)
    (xy 2.167663 1.933683) (xy 2.214546 1.918638) (xy 2.225644 1.911287) (xy 2.253476 1.892511)
    (xy 2.275236 1.889434) (xy 2.298704 1.903409) (xy 2.324649 1.92851) (xy 2.365716 1.97088)
    (xy 2.320121 2.008464) (xy 2.249674 2.050882) (xy 2.170233 2.071785) (xy 2.087215 2.070272)
    (xy 2.032694 2.056411) (xy 1.96897 2.022135) (xy 1.918005 1.968212) (xy 1.894851 1.930149)
    (xy 1.876099 1.875536) (xy 1.866715 1.806369) (xy 1.866643 1.731407) (xy 1.875824 1.659409)
    (xy 1.894199 1.599137) (xy 1.897093 1.592958) (xy 1.939952 1.532351) (xy 1.997979 1.488224)
    (xy 2.066591 1.461493) (xy 2.141201 1.453073) (xy 2.217226 1.46388)) (layer F.Cu) (width 0.01))
  (fp_poly (pts (xy 2.677898 1.456457) (xy 2.710096 1.464279) (xy 2.771825 1.492921) (xy 2.82461 1.536667)
    (xy 2.861141 1.589117) (xy 2.86616 1.600893) (xy 2.873045 1.63174) (xy 2.877864 1.677371)
    (xy 2.879505 1.723492) (xy 2.879505 1.810693) (xy 2.697178 1.810693) (xy 2.621979 1.810978)
    (xy 2.569003 1.812704) (xy 2.535325 1.817181) (xy 2.51802 1.82572) (xy 2.514163 1.83963)
    (xy 2.520829 1.860222) (xy 2.53277 1.884315) (xy 2.56608 1.924525) (xy 2.612368 1.944558)
    (xy 2.668944 1.943905) (xy 2.733031 1.922101) (xy 2.788417 1.895193) (xy 2.834375 1.931532)
    (xy 2.880333 1.967872) (xy 2.837096 2.007819) (xy 2.779374 2.045563) (xy 2.708386 2.06832)
    (xy 2.632029 2.074688) (xy 2.558199 2.063268) (xy 2.546287 2.059393) (xy 2.481399 2.025506)
    (xy 2.43313 1.974986) (xy 2.400465 1.906325) (xy 2.382385 1.818014) (xy 2.382175 1.816121)
    (xy 2.380556 1.719878) (xy 2.3871 1.685542) (xy 2.514852 1.685542) (xy 2.526584 1.690822)
    (xy 2.558438 1.694867) (xy 2.605397 1.697176) (xy 2.635154 1.697525) (xy 2.690648 1.697306)
    (xy 2.725346 1.695916) (xy 2.743601 1.692251) (xy 2.749766 1.68521) (xy 2.748195 1.67369)
    (xy 2.746878 1.669233) (xy 2.724382 1.627355) (xy 2.689003 1.593604) (xy 2.65778 1.578773)
    (xy 2.616301 1.579668) (xy 2.574269 1.598164) (xy 2.539012 1.628786) (xy 2.517854 1.666062)
    (xy 2.514852 1.685542) (xy 2.3871 1.685542) (xy 2.39669 1.635229) (xy 2.428698 1.564191)
    (xy 2.474701 1.508779) (xy 2.532821 1.471009) (xy 2.60118 1.452896) (xy 2.677898 1.456457)) (layer F.Cu) (width 0.01))
  (fp_poly (pts (xy -0.754012 1.469002) (xy -0.722717 1.48395) (xy -0.692409 1.505541) (xy -0.669318 1.530391)
    (xy -0.6525 1.562087) (xy -0.641006 1.604214) (xy -0.633891 1.660358) (xy -0.630207 1.734106)
    (xy -0.629008 1.829044) (xy -0.628989 1.838985) (xy -0.628713 2.062179) (xy -0.76703 2.062179)
    (xy -0.76703 1.856418) (xy -0.767128 1.780189) (xy -0.767809 1.724939) (xy -0.769651 1.686501)
    (xy -0.773233 1.660706) (xy -0.779132 1.643384) (xy -0.787927 1.630368) (xy -0.80018 1.617507)
    (xy -0.843047 1.589873) (xy -0.889843 1.584745) (xy -0.934424 1.602217) (xy -0.949928 1.615221)
    (xy -0.96131 1.627447) (xy -0.969481 1.64054) (xy -0.974974 1.658615) (xy -0.97832 1.685787)
    (xy -0.980051 1.72617) (xy -0.980697 1.783879) (xy -0.980792 1.854132) (xy -0.980792 2.062179)
    (xy -1.119109 2.062179) (xy -1.119109 1.458614) (xy -1.04995 1.458614) (xy -1.008428 1.460256)
    (xy -0.987006 1.466087) (xy -0.980795 1.477461) (xy -0.980792 1.477798) (xy -0.97791 1.488938)
    (xy -0.965199 1.487674) (xy -0.939926 1.475434) (xy -0.882605 1.457424) (xy -0.817037 1.455421)
    (xy -0.754012 1.469002)) (layer F.Cu) (width 0.01))
  (fp_poly (pts (xy 1.79946 1.45803) (xy 1.842711 1.471245) (xy 1.870558 1.487941) (xy 1.879629 1.501145)
    (xy 1.877132 1.516797) (xy 1.860931 1.541385) (xy 1.847232 1.5588) (xy 1.818992 1.590283)
    (xy 1.797775 1.603529) (xy 1.779688 1.602664) (xy 1.726035 1.58901) (xy 1.68663 1.58963)
    (xy 1.654632 1.605104) (xy 1.64389 1.614161) (xy 1.609505 1.646027) (xy 1.609505 2.062179)
    (xy 1.471188 2.062179) (xy 1.471188 1.458614) (xy 1.540347 1.458614) (xy 1.581869 1.460256)
    (xy 1.603291 1.466087) (xy 1.609502 1.477461) (xy 1.609505 1.477798) (xy 1.612439 1.489713)
    (xy 1.625704 1.488159) (xy 1.644084 1.479563) (xy 1.682046 1.463568) (xy 1.712872 1.453945)
    (xy 1.752536 1.451478) (xy 1.79946 1.45803)) (layer F.Cu) (width 0.01))
  (fp_poly (pts (xy 0.376964 -2.709982) (xy 0.433812 -2.40843) (xy 0.853338 -2.235488) (xy 1.104984 -2.406605)
    (xy 1.175458 -2.45425) (xy 1.239163 -2.49679) (xy 1.293126 -2.532285) (xy 1.334373 -2.55879)
    (xy 1.359934 -2.574364) (xy 1.366895 -2.577722) (xy 1.379435 -2.569086) (xy 1.406231 -2.545208)
    (xy 1.44428 -2.509141) (xy 1.490579 -2.463933) (xy 1.542123 -2.412636) (xy 1.595909 -2.358299)
    (xy 1.648935 -2.303972) (xy 1.698195 -2.252705) (xy 1.740687 -2.207549) (xy 1.773407 -2.171554)
    (xy 1.793351 -2.14777) (xy 1.798119 -2.13981) (xy 1.791257 -2.125135) (xy 1.77202 -2.092986)
    (xy 1.74243 -2.046508) (xy 1.70451 -1.988844) (xy 1.660282 -1.92314) (xy 1.634654 -1.885664)
    (xy 1.587941 -1.817232) (xy 1.546432 -1.75548) (xy 1.51214 -1.703481) (xy 1.48708 -1.664308)
    (xy 1.473264 -1.641035) (xy 1.471188 -1.636145) (xy 1.475895 -1.622245) (xy 1.488723 -1.58985)
    (xy 1.507738 -1.543515) (xy 1.531003 -1.487794) (xy 1.556584 -1.427242) (xy 1.582545 -1.366414)
    (xy 1.60695 -1.309864) (xy 1.627863 -1.262148) (xy 1.643349 -1.227819) (xy 1.651472 -1.211432)
    (xy 1.651952 -1.210788) (xy 1.664707 -1.207659) (xy 1.698677 -1.200679) (xy 1.75034 -1.190533)
    (xy 1.816176 -1.177908) (xy 1.892664 -1.163491) (xy 1.93729 -1.155177) (xy 2.019021 -1.139616)
    (xy 2.092843 -1.124808) (xy 2.155021 -1.111564) (xy 2.201822 -1.100695) (xy 2.229509 -1.093011)
    (xy 2.235074 -1.090573) (xy 2.240526 -1.07407) (xy 2.244924 -1.0368) (xy 2.248272 -0.98312)
    (xy 2.250574 -0.917388) (xy 2.251832 -0.843963) (xy 2.252048 -0.767204) (xy 2.251227 -0.691468)
    (xy 2.249371 -0.621114) (xy 2.246482 -0.5605) (xy 2.242565 -0.513984) (xy 2.237622 -0.485925)
    (xy 2.234657 -0.480084) (xy 2.216934 -0.473083) (xy 2.179381 -0.463073) (xy 2.126964 -0.451231)
    (xy 2.064652 -0.438733) (xy 2.0429 -0.43469) (xy 1.938024 -0.41548) (xy 1.85518 -0.400009)
    (xy 1.79163 -0.387663) (xy 1.744637 -0.377827) (xy 1.711463 -0.369886) (xy 1.689371 -0.363224)
    (xy 1.675624 -0.357227) (xy 1.667484 -0.351281) (xy 1.666345 -0.350106) (xy 1.654977 -0.331174)
    (xy 1.637635 -0.294331) (xy 1.61605 -0.244087) (xy 1.591954 -0.184954) (xy 1.567079 -0.121444)
    (xy 1.543157 -0.058068) (xy 1.521919 0.000662) (xy 1.505097 0.050235) (xy 1.494422 0.086139)
    (xy 1.491627 0.103862) (xy 1.49186 0.104483) (xy 1.501331 0.11897) (xy 1.522818 0.150844)
    (xy 1.554063 0.196789) (xy 1.592807 0.253485) (xy 1.636793 0.317617) (xy 1.649319 0.335842)
    (xy 1.693984 0.401914) (xy 1.733288 0.4622) (xy 1.765088 0.513235) (xy 1.787245 0.55156)
    (xy 1.797617 0.573711) (xy 1.798119 0.576432) (xy 1.789405 0.590736) (xy 1.765325 0.619072)
    (xy 1.728976 0.658396) (xy 1.683453 0.705661) (xy 1.631852 0.757823) (xy 1.577267 0.811835)
    (xy 1.522794 0.864653) (xy 1.471529 0.913231) (xy 1.426567 0.954523) (xy 1.391004 0.985485)
    (xy 1.367935 1.00307) (xy 1.361554 1.005941) (xy 1.346699 0.999178) (xy 1.316286 0.980939)
    (xy 1.275268 0.954297) (xy 1.243709 0.932852) (xy 1.186525 0.893503) (xy 1.118806 0.847171)
    (xy 1.05088 0.800913) (xy 1.014361 0.776155) (xy 0.890752 0.692547) (xy 0.786991 0.74865)
    (xy 0.73972 0.773228) (xy 0.699523 0.792331) (xy 0.672326 0.803227) (xy 0.665402 0.804743)
    (xy 0.657077 0.793549) (xy 0.640654 0.761917) (xy 0.617357 0.712765) (xy 0.588414 0.64901)
    (xy 0.55505 0.573571) (xy 0.518491 0.489364) (xy 0.479964 0.399308) (xy 0.440694 0.306321)
    (xy 0.401908 0.21332) (xy 0.36483 0.123223) (xy 0.330689 0.038948) (xy 0.300708 -0.036587)
    (xy 0.276116 -0.100466) (xy 0.258136 -0.149769) (xy 0.247997 -0.181579) (xy 0.246366 -0.192504)
    (xy 0.259291 -0.206439) (xy 0.287589 -0.22906) (xy 0.325346 -0.255667) (xy 0.328515 -0.257772)
    (xy 0.4261 -0.335886) (xy 0.504786 -0.427018) (xy 0.563891 -0.528255) (xy 0.602732 -0.636682)
    (xy 0.620628 -0.749386) (xy 0.616897 -0.863452) (xy 0.590857 -0.975966) (xy 0.541825 -1.084015)
    (xy 0.5274 -1.107655) (xy 0.452369 -1.203113) (xy 0.36373 -1.279768) (xy 0.264549 -1.33722)
    (xy 0.157895 -1.375071) (xy 0.046836 -1.392922) (xy -0.065561 -1.390375) (xy -0.176227 -1.36703)
    (xy -0.282094 -1.32249) (xy -0.380095 -1.256355) (xy -0.41041 -1.229513) (xy -0.487562 -1.145488)
    (xy -0.543782 -1.057034) (xy -0.582347 -0.957885) (xy -0.603826 -0.859697) (xy -0.609128 -0.749303)
    (xy -0.591448 -0.63836) (xy -0.552581 -0.530619) (xy -0.494323 -0.429831) (xy -0.418469 -0.339744)
    (xy -0.326817 -0.264108) (xy -0.314772 -0.256136) (xy -0.276611 -0.230026) (xy -0.247601 -0.207405)
    (xy -0.233732 -0.192961) (xy -0.233531 -0.192504) (xy -0.236508 -0.176879) (xy -0.248311 -0.141418)
    (xy -0.267714 -0.089038) (xy -0.293488 -0.022655) (xy -0.324409 0.054814) (xy -0.359249 0.14045)
    (xy -0.396783 0.231337) (xy -0.435783 0.324559) (xy -0.475023 0.417197) (xy -0.513276 0.506335)
    (xy -0.549317 0.589055) (xy -0.581917 0.662441) (xy -0.609852 0.723575) (xy -0.631895 0.769541)
    (xy -0.646818 0.797421) (xy -0.652828 0.804743) (xy -0.671191 0.799041) (xy -0.705552 0.783749)
    (xy -0.749984 0.761599) (xy -0.774417 0.74865) (xy -0.878178 0.692547) (xy -1.001787 0.776155)
    (xy -1.064886 0.818987) (xy -1.13397 0.866122) (xy -1.198707 0.910503) (xy -1.231134 0.932852)
    (xy -1.276741 0.963477) (xy -1.31536 0.987747) (xy -1.341952 1.002587) (xy -1.35059 1.005724)
    (xy -1.363161 0.997261) (xy -1.390984 0.973636) (xy -1.431361 0.937302) (xy -1.481595 0.890711)
    (xy -1.538988 0.836317) (xy -1.575286 0.801392) (xy -1.63879 0.738996) (xy -1.693673 0.683188)
    (xy -1.737714 0.636354) (xy -1.768695 0.600882) (xy -1.784398 0.579161) (xy -1.785905 0.574752)
    (xy -1.778914 0.557985) (xy -1.759594 0.524082) (xy -1.730091 0.476476) (xy -1.692545 0.418599)
    (xy -1.6491 0.353884) (xy -1.636745 0.335842) (xy -1.591727 0.270267) (xy -1.55134 0.211228)
    (xy -1.51784 0.162042) (xy -1.493486 0.126028) (xy -1.480536 0.106502) (xy -1.479285 0.104483)
    (xy -1.481156 0.088922) (xy -1.491087 0.054709) (xy -1.507347 0.006355) (xy -1.528205 -0.051629)
    (xy -1.551927 -0.11473) (xy -1.576784 -0.178437) (xy -1.601042 -0.238239) (xy -1.622971 -0.289624)
    (xy -1.640838 -0.328081) (xy -1.652913 -0.349098) (xy -1.653771 -0.350106) (xy -1.661154 -0.356112)
    (xy -1.673625 -0.362052) (xy -1.69392 -0.36854) (xy -1.724778 -0.376191) (xy -1.768934 -0.38562)
    (xy -1.829126 -0.397441) (xy -1.908093 -0.412271) (xy -2.00857 -0.430723) (xy -2.030325 -0.43469)
    (xy -2.094802 -0.447147) (xy -2.151011 -0.459334) (xy -2.193987 -0.470074) (xy -2.21876 -0.478191)
    (xy -2.222082 -0.480084) (xy -2.227556 -0.496862) (xy -2.232006 -0.534355) (xy -2.235428 -0.588206)
    (xy -2.237819 -0.654056) (xy -2.239177 -0.727547) (xy -2.239499 -0.80432) (xy -2.238781 -0.880017)
    (xy -2.237021 -0.95028) (xy -2.234216 -1.01075) (xy -2.230362 -1.05707) (xy -2.225457 -1.084881)
    (xy -2.2225 -1.090573) (xy -2.206037 -1.096314) (xy -2.168551 -1.105655) (xy -2.113775 -1.117785)
    (xy -2.045445 -1.131893) (xy -1.967294 -1.14717) (xy -1.924716 -1.155177) (xy -1.843929 -1.170279)
    (xy -1.771887 -1.18396) (xy -1.712111 -1.195533) (xy -1.668121 -1.204313) (xy -1.643439 -1.209613)
    (xy -1.639377 -1.210788) (xy -1.632511 -1.224035) (xy -1.617998 -1.255943) (xy -1.597771 -1.301953)
    (xy -1.573766 -1.357508) (xy -1.547918 -1.418047) (xy -1.52216 -1.479014) (xy -1.498427 -1.535849)
    (xy -1.478654 -1.583994) (xy -1.464776 -1.61889) (xy -1.458726 -1.635979) (xy -1.458614 -1.636726)
    (xy -1.465472 -1.650207) (xy -1.484698 -1.68123) (xy -1.514272 -1.726711) (xy -1.552173 -1.783568)
    (xy -1.59638 -1.848717) (xy -1.622079 -1.886138) (xy -1.668907 -1.954753) (xy -1.710499 -2.017048)
    (xy -1.744825 -2.069871) (xy -1.769857 -2.110073) (xy -1.783565 -2.1345) (xy -1.785544 -2.139976)
    (xy -1.777034 -2.152722) (xy -1.753507 -2.179937) (xy -1.717968 -2.218572) (xy -1.673423 -2.265577)
    (xy -1.622877 -2.317905) (xy -1.569336 -2.372505) (xy -1.515805 -2.42633) (xy -1.465289 -2.47633)
    (xy -1.420794 -2.519457) (xy -1.385325 -2.552661) (xy -1.361887 -2.572894) (xy -1.354046 -2.577722)
    (xy -1.34128 -2.570933) (xy -1.310744 -2.551858) (xy -1.26541 -2.522439) (xy -1.208244 -2.484619)
    (xy -1.142216 -2.440339) (xy -1.09241 -2.406605) (xy -0.840764 -2.235488) (xy -0.631001 -2.321959)
    (xy -0.421237 -2.40843) (xy -0.364389 -2.709982) (xy -0.30754 -3.011534) (xy 0.320115 -3.011534)
    (xy 0.376964 -2.709982)) (layer F.Cu) (width 0.01))
)
