(module OSHW-Logo_28.5x30mm_Copper (layer F.Cu) (tedit 0)
  (descr "Open Source Hardware Logo")
  (tags "Logo OSHW")
  (attr virtual)
  (fp_text reference REF** (at 0 0) (layer F.SilkS) hide
    (effects (font (size 1 1) (thickness 0.15)))
  )
  (fp_text value OSHW-Logo_28.5x30mm_Copper (at 0.75 0) (layer F.Fab) hide
    (effects (font (size 1 1) (thickness 0.15)))
  )
  (fp_poly (pts (xy -9.473446 7.291773) (xy -9.341865 7.35678) (xy -9.179603 7.47006) (xy -9.06134 7.593589)
    (xy -8.980347 7.748705) (xy -8.929892 7.956743) (xy -8.903247 8.239039) (xy -8.89368 8.61693)
    (xy -8.89312 8.77939) (xy -8.894753 9.135443) (xy -8.901536 9.389906) (xy -8.916293 9.565985)
    (xy -8.941848 9.686883) (xy -8.981027 9.775806) (xy -9.021792 9.836467) (xy -9.282012 10.094564)
    (xy -9.588448 10.249808) (xy -9.919025 10.296501) (xy -10.251666 10.228944) (xy -10.35705 10.181169)
    (xy -10.609336 10.04967) (xy -10.609336 12.110331) (xy -10.425212 12.015117) (xy -10.182604 11.941448)
    (xy -9.884406 11.922577) (xy -9.586634 11.95742) (xy -9.361761 12.03569) (xy -9.175241 12.184751)
    (xy -9.015872 12.398053) (xy -9.00389 12.419953) (xy -8.95335 12.523108) (xy -8.91644 12.627085)
    (xy -8.891032 12.75304) (xy -8.875003 12.922132) (xy -8.866226 13.155517) (xy -8.862576 13.474354)
    (xy -8.861916 13.833158) (xy -8.861916 14.977887) (xy -9.548403 14.977887) (xy -9.548403 12.867115)
    (xy -9.740415 12.705548) (xy -9.939879 12.57631) (xy -10.12877 12.552813) (xy -10.318708 12.613282)
    (xy -10.419934 12.672494) (xy -10.495276 12.756835) (xy -10.54886 12.884298) (xy -10.584816 13.072876)
    (xy -10.607272 13.340563) (xy -10.620355 13.705353) (xy -10.624963 13.948158) (xy -10.64054 14.946684)
    (xy -10.968182 14.965547) (xy -11.295823 14.98441) (xy -11.295823 8.787994) (xy -10.609336 8.787994)
    (xy -10.591835 9.133444) (xy -10.532859 9.373242) (xy -10.422706 9.522441) (xy -10.25167 9.596094)
    (xy -10.07887 9.610811) (xy -9.883256 9.593899) (xy -9.753431 9.527336) (xy -9.672249 9.439384)
    (xy -9.608339 9.344784) (xy -9.570294 9.239395) (xy -9.553366 9.091732) (xy -9.55281 8.87031)
    (xy -9.558506 8.684907) (xy -9.571586 8.405603) (xy -9.591058 8.222234) (xy -9.62385 8.105922)
    (xy -9.676886 8.027787) (xy -9.726938 7.982624) (xy -9.936068 7.884136) (xy -10.183582 7.868232)
    (xy -10.325705 7.902158) (xy -10.466422 8.022746) (xy -10.559634 8.25732) (xy -10.604811 8.604225)
    (xy -10.609336 8.787994) (xy -11.295823 8.787994) (xy -11.295823 7.239313) (xy -10.95258 7.239313)
    (xy -10.7465 7.247462) (xy -10.640179 7.276399) (xy -10.60935 7.332854) (xy -10.609336 7.334527)
    (xy -10.595033 7.389815) (xy -10.531944 7.383538) (xy -10.406511 7.322787) (xy -10.114241 7.229849)
    (xy -9.78541 7.22008) (xy -9.473446 7.291773)) (layer F.Cu) (width 0.01))
  (fp_poly (pts (xy -6.870038 11.944081) (xy -6.576443 12.022417) (xy -6.352942 12.164409) (xy -6.195224 12.350384)
    (xy -6.146193 12.429755) (xy -6.109995 12.512896) (xy -6.084689 12.619251) (xy -6.068335 12.768266)
    (xy -6.058993 12.979386) (xy -6.054723 13.272056) (xy -6.053585 13.66572) (xy -6.053563 13.770163)
    (xy -6.053563 14.977887) (xy -6.35312 14.977887) (xy -6.544191 14.964506) (xy -6.685471 14.930606)
    (xy -6.720867 14.909698) (xy -6.817635 14.873614) (xy -6.91647 14.909698) (xy -7.079196 14.954747)
    (xy -7.315566 14.972878) (xy -7.577554 14.965011) (xy -7.817132 14.932064) (xy -7.957002 14.88979)
    (xy -8.227669 14.716035) (xy -8.396822 14.474907) (xy -8.472868 14.154303) (xy -8.473574 14.146069)
    (xy -8.4669 14.003842) (xy -7.863391 14.003842) (xy -7.810629 14.165615) (xy -7.724689 14.256658)
    (xy -7.552179 14.325516) (xy -7.324476 14.353003) (xy -7.092278 14.339475) (xy -6.906285 14.285289)
    (xy -6.854177 14.250525) (xy -6.763122 14.089891) (xy -6.740049 13.907281) (xy -6.740049 13.667322)
    (xy -7.085297 13.667322) (xy -7.413286 13.692572) (xy -7.661925 13.764107) (xy -7.8166 13.875606)
    (xy -7.863391 14.003842) (xy -8.4669 14.003842) (xy -8.457137 13.79579) (xy -8.341609 13.518839)
    (xy -8.124411 13.3094) (xy -8.09439 13.290349) (xy -7.965385 13.228315) (xy -7.805711 13.19075)
    (xy -7.582496 13.172491) (xy -7.317322 13.168293) (xy -6.740049 13.168059) (xy -6.740049 12.92607)
    (xy -6.764536 12.738312) (xy -6.827021 12.612524) (xy -6.834337 12.605828) (xy -6.973387 12.550801)
    (xy -7.183288 12.529472) (xy -7.415255 12.539953) (xy -7.620502 12.580358) (xy -7.742292 12.640957)
    (xy -7.808285 12.6895) (xy -7.87797 12.698768) (xy -7.97414 12.658996) (xy -8.119588 12.560423)
    (xy -8.337106 12.393286) (xy -8.35707 12.377629) (xy -8.34684 12.319695) (xy -8.261494 12.22334)
    (xy -8.131779 12.116265) (xy -7.98844 12.026175) (xy -7.943405 12.004901) (xy -7.779134 11.96245)
    (xy -7.538424 11.93217) (xy -7.269495 11.920024) (xy -7.256918 11.919999) (xy -6.870038 11.944081)) (layer F.Cu) (width 0.01))
  (fp_poly (pts (xy -4.930172 11.926534) (xy -4.836779 11.954529) (xy -4.806672 12.016034) (xy -4.805405 12.043801)
    (xy -4.800003 12.12114) (xy -4.762795 12.133281) (xy -4.662284 12.08026) (xy -4.60258 12.044034)
    (xy -4.414222 11.966454) (xy -4.189251 11.928095) (xy -3.953365 11.925146) (xy -3.732262 11.953796)
    (xy -3.551639 12.010236) (xy -3.437193 12.090656) (xy -3.414623 12.191244) (xy -3.426014 12.218484)
    (xy -3.509046 12.331559) (xy -3.637803 12.470631) (xy -3.661091 12.493111) (xy -3.783817 12.596486)
    (xy -3.889706 12.629886) (xy -4.037792 12.606576) (xy -4.097119 12.591086) (xy -4.281733 12.553884)
    (xy -4.411538 12.570613) (xy -4.521157 12.629618) (xy -4.621572 12.708802) (xy -4.695528 12.808387)
    (xy -4.746923 12.947365) (xy -4.779653 13.144726) (xy -4.797618 13.419463) (xy -4.804715 13.790565)
    (xy -4.805405 14.014628) (xy -4.805405 14.977887) (xy -5.429484 14.977887) (xy -5.429484 11.919902)
    (xy -5.117445 11.919902) (xy -4.930172 11.926534)) (layer F.Cu) (width 0.01))
  (fp_poly (pts (xy -0.998526 14.977887) (xy -1.341769 14.977887) (xy -1.540999 14.972047) (xy -1.644759 14.947858)
    (xy -1.682119 14.895322) (xy -1.685012 14.859799) (xy -1.691312 14.788563) (xy -1.731042 14.774902)
    (xy -1.835445 14.818815) (xy -1.916635 14.859799) (xy -2.228339 14.956917) (xy -2.567175 14.962537)
    (xy -2.842652 14.890105) (xy -3.099179 14.715115) (xy -3.294725 14.456822) (xy -3.401802 14.15216)
    (xy -3.404529 14.135126) (xy -3.420438 13.949271) (xy -3.428349 13.682461) (xy -3.427713 13.48067)
    (xy -2.746007 13.48067) (xy -2.730214 13.748873) (xy -2.69429 13.969935) (xy -2.645656 14.094772)
    (xy -2.461667 14.265369) (xy -2.243213 14.326525) (xy -2.017935 14.27707) (xy -1.82543 14.129552)
    (xy -1.752525 14.030337) (xy -1.709897 13.911944) (xy -1.68993 13.739128) (xy -1.685012 13.479555)
    (xy -1.693814 13.222505) (xy -1.717064 12.996658) (xy -1.750023 12.845517) (xy -1.755516 12.831971)
    (xy -1.888433 12.670907) (xy -2.082435 12.58248) (xy -2.299501 12.568202) (xy -2.501613 12.629587)
    (xy -2.650753 12.768149) (xy -2.666224 12.795721) (xy -2.714649 12.963843) (xy -2.741031 13.205576)
    (xy -2.746007 13.48067) (xy -3.427713 13.48067) (xy -3.42739 13.378353) (xy -3.422903 13.214684)
    (xy -3.392382 12.809784) (xy -3.328946 12.505785) (xy -3.223417 12.281049) (xy -3.066618 12.113939)
    (xy -2.914393 12.015842) (xy -2.701709 11.946883) (xy -2.437184 11.923232) (xy -2.166313 11.942496)
    (xy -1.934595 12.002284) (xy -1.812167 12.073805) (xy -1.685012 12.188879) (xy -1.685012 10.734153)
    (xy -0.998526 10.734153) (xy -0.998526 14.977887)) (layer F.Cu) (width 0.01))
  (fp_poly (pts (xy 1.397245 11.932578) (xy 1.644066 11.951106) (xy 1.966761 12.918428) (xy 2.289455 13.88575)
    (xy 2.390637 13.542507) (xy 2.451527 13.330379) (xy 2.531625 13.043713) (xy 2.618117 12.728606)
    (xy 2.663849 12.559583) (xy 2.83588 11.919902) (xy 3.545624 11.919902) (xy 3.333476 12.590787)
    (xy 3.229002 12.920765) (xy 3.102791 13.31879) (xy 2.970986 13.733981) (xy 2.853319 14.104177)
    (xy 2.58531 14.946684) (xy 2.295941 14.96551) (xy 2.006572 14.984337) (xy 1.849661 14.466248)
    (xy 1.752892 14.144409) (xy 1.647288 13.789603) (xy 1.554992 13.476243) (xy 1.551349 13.463772)
    (xy 1.482413 13.251444) (xy 1.42159 13.106568) (xy 1.378989 13.051784) (xy 1.370235 13.058121)
    (xy 1.339509 13.143053) (xy 1.281128 13.324985) (xy 1.202198 13.58104) (xy 1.109827 13.88834)
    (xy 1.059846 14.057371) (xy 0.789173 14.977887) (xy 0.214724 14.977887) (xy -0.2445 13.526905)
    (xy -0.373508 13.119886) (xy -0.491027 12.750256) (xy -0.591507 12.435379) (xy -0.669398 12.192621)
    (xy -0.719149 12.039344) (xy -0.734272 11.99456) (xy -0.7223 11.948707) (xy -0.628296 11.928625)
    (xy -0.432673 11.930633) (xy -0.40205 11.932152) (xy -0.03928 11.951106) (xy 0.198312 12.824816)
    (xy 0.285643 13.143457) (xy 0.363685 13.423563) (xy 0.425567 13.640815) (xy 0.464419 13.770892)
    (xy 0.471597 13.792099) (xy 0.501346 13.767713) (xy 0.561335 13.641364) (xy 0.644678 13.430254)
    (xy 0.744486 13.151587) (xy 0.828857 12.89986) (xy 1.150424 11.914049) (xy 1.397245 11.932578)) (layer F.Cu) (width 0.01))
  (fp_poly (pts (xy 5.153781 11.938435) (xy 5.416829 12.002325) (xy 5.492866 12.036174) (xy 5.640258 12.124832)
    (xy 5.753375 12.224688) (xy 5.837072 12.353077) (xy 5.896206 12.527339) (xy 5.935633 12.76481)
    (xy 5.960208 13.082828) (xy 5.974789 13.49873) (xy 5.980325 13.776536) (xy 6.000699 14.977887)
    (xy 5.652684 14.977887) (xy 5.441555 14.969034) (xy 5.332782 14.93878) (xy 5.304668 14.887977)
    (xy 5.289826 14.83304) (xy 5.223468 14.843544) (xy 5.133047 14.887592) (xy 4.906683 14.95511)
    (xy 4.615757 14.973304) (xy 4.309764 14.943545) (xy 4.0382 14.867202) (xy 4.013844 14.856605)
    (xy 3.76565 14.682248) (xy 3.602033 14.439865) (xy 3.526746 14.156542) (xy 3.532497 14.054752)
    (xy 4.146746 14.054752) (xy 4.200869 14.191739) (xy 4.361339 14.289904) (xy 4.620239 14.342589)
    (xy 4.7586 14.349585) (xy 4.989185 14.331676) (xy 5.142457 14.262075) (xy 5.179853 14.228993)
    (xy 5.281162 14.049006) (xy 5.304668 13.88575) (xy 5.304668 13.667322) (xy 5.00043 13.667322)
    (xy 4.646772 13.685348) (xy 4.398716 13.742043) (xy 4.241981 13.841336) (xy 4.206889 13.885603)
    (xy 4.146746 14.054752) (xy 3.532497 14.054752) (xy 3.543539 13.859362) (xy 3.656163 13.575411)
    (xy 3.809829 13.383515) (xy 3.902898 13.300551) (xy 3.994008 13.246029) (xy 4.112557 13.212786)
    (xy 4.287942 13.193658) (xy 4.549562 13.181482) (xy 4.65333 13.177981) (xy 5.304668 13.156698)
    (xy 5.303713 12.959553) (xy 5.278487 12.752327) (xy 5.187287 12.627025) (xy 5.003041 12.546976)
    (xy 4.998099 12.54555) (xy 4.736873 12.514075) (xy 4.481255 12.555187) (xy 4.291282 12.65516)
    (xy 4.215058 12.704525) (xy 4.13296 12.697695) (xy 4.006624 12.626174) (xy 3.932437 12.575699)
    (xy 3.787328 12.467855) (xy 3.697443 12.387016) (xy 3.68302 12.363872) (xy 3.74241 12.2441)
    (xy 3.917885 12.101065) (xy 3.994103 12.052805) (xy 4.213215 11.969687) (xy 4.508509 11.922598)
    (xy 4.83652 11.912019) (xy 5.153781 11.938435)) (layer F.Cu) (width 0.01))
  (fp_poly (pts (xy 8.116008 11.91892) (xy 8.355923 11.966218) (xy 8.492508 12.036248) (xy 8.636189 12.152595)
    (xy 8.431769 12.410696) (xy 8.305733 12.567) (xy 8.220151 12.643256) (xy 8.135098 12.654906)
    (xy 8.01065 12.617391) (xy 7.952232 12.596166) (xy 7.714066 12.564851) (xy 7.495955 12.631977)
    (xy 7.335827 12.783621) (xy 7.309816 12.831971) (xy 7.281487 12.96005) (xy 7.259623 13.196093)
    (xy 7.245251 13.523369) (xy 7.239394 13.925143) (xy 7.239312 13.982298) (xy 7.239312 14.977887)
    (xy 6.552826 14.977887) (xy 6.552826 11.919902) (xy 6.896069 11.919902) (xy 7.093984 11.92507)
    (xy 7.197089 11.948068) (xy 7.235215 12.000137) (xy 7.239312 12.049247) (xy 7.239312 12.178593)
    (xy 7.403748 12.049247) (xy 7.592296 11.961004) (xy 7.845591 11.917372) (xy 8.116008 11.91892)) (layer F.Cu) (width 0.01))
  (fp_poly (pts (xy 10.087994 11.936215) (xy 10.3863 12.013772) (xy 10.636124 12.173838) (xy 10.757086 12.293413)
    (xy 10.955373 12.576088) (xy 11.069012 12.904004) (xy 11.108052 13.307095) (xy 11.108252 13.339681)
    (xy 11.1086 13.667322) (xy 9.222833 13.667322) (xy 9.26303 13.838944) (xy 9.33561 13.994377)
    (xy 9.462638 14.156332) (xy 9.489207 14.182187) (xy 9.717555 14.322117) (xy 9.977958 14.345848)
    (xy 10.277693 14.253786) (xy 10.328501 14.228993) (xy 10.484338 14.153625) (xy 10.588718 14.110685)
    (xy 10.60693 14.106714) (xy 10.670505 14.145276) (xy 10.791753 14.23962) (xy 10.853301 14.291174)
    (xy 10.980839 14.409603) (xy 11.02272 14.487801) (xy 10.993654 14.559735) (xy 10.978117 14.579405)
    (xy 10.872884 14.665491) (xy 10.699241 14.770114) (xy 10.578133 14.831189) (xy 10.234363 14.938798)
    (xy 9.85377 14.973664) (xy 9.49333 14.932349) (xy 9.392383 14.902767) (xy 9.079951 14.73534)
    (xy 8.848367 14.477715) (xy 8.69629 14.12739) (xy 8.62238 13.681859) (xy 8.614265 13.448895)
    (xy 8.637959 13.109714) (xy 9.236364 13.109714) (xy 9.294242 13.134788) (xy 9.449818 13.154462)
    (xy 9.676002 13.166072) (xy 9.829238 13.168059) (xy 10.104869 13.166143) (xy 10.278836 13.157173)
    (xy 10.374274 13.136318) (xy 10.414315 13.098746) (xy 10.422113 13.044228) (xy 10.36861 12.87629)
    (xy 10.233906 12.710314) (xy 10.056706 12.58292) (xy 9.879437 12.530807) (xy 9.638666 12.577036)
    (xy 9.430237 12.71068) (xy 9.285725 12.903318) (xy 9.236364 13.109714) (xy 8.637959 13.109714)
    (xy 8.648769 12.95498) (xy 8.75526 12.561466) (xy 8.935991 12.265234) (xy 9.193215 12.063166)
    (xy 9.529187 11.952142) (xy 9.711197 11.93076) (xy 10.087994 11.936215)) (layer F.Cu) (width 0.01))
  (fp_poly (pts (xy -12.597758 7.271742) (xy -12.27127 7.416083) (xy -12.02342 7.657103) (xy -11.853848 7.99517)
    (xy -11.762191 8.430652) (xy -11.755621 8.498646) (xy -11.750473 8.978026) (xy -11.817216 9.398218)
    (xy -11.95179 9.738788) (xy -12.023851 9.84834) (xy -12.274856 10.080202) (xy -12.594524 10.230372)
    (xy -12.952153 10.29269) (xy -13.317039 10.260998) (xy -13.594412 10.163388) (xy -13.832943 9.998894)
    (xy -14.027895 9.783226) (xy -14.031267 9.77818) (xy -14.110439 9.645066) (xy -14.161891 9.511212)
    (xy -14.193048 9.342284) (xy -14.211338 9.103947) (xy -14.219395 8.908501) (xy -14.222749 8.73126)
    (xy -13.598795 8.73126) (xy -13.592696 8.907702) (xy -13.570559 9.142579) (xy -13.531505 9.293314)
    (xy -13.461076 9.400555) (xy -13.395115 9.4632) (xy -13.161277 9.594362) (xy -12.916608 9.61189)
    (xy -12.688744 9.517518) (xy -12.574813 9.411766) (xy -12.492714 9.305197) (xy -12.444693 9.203225)
    (xy -12.423617 9.070516) (xy -12.422354 8.871736) (xy -12.428849 8.688671) (xy -12.442818 8.427157)
    (xy -12.464964 8.257539) (xy -12.504881 8.146903) (xy -12.572158 8.062338) (xy -12.625471 8.014006)
    (xy -12.848474 7.887045) (xy -13.089052 7.880716) (xy -13.290776 7.955918) (xy -13.462864 8.112963)
    (xy -13.565387 8.370936) (xy -13.598795 8.73126) (xy -14.222749 8.73126) (xy -14.226752 8.519838)
    (xy -14.214188 8.22917) (xy -14.176537 8.010552) (xy -14.108638 7.838037) (xy -14.005324 7.68568)
    (xy -13.967019 7.640441) (xy -13.727511 7.41504) (xy -13.470611 7.28338) (xy -13.156443 7.228219)
    (xy -13.003245 7.223711) (xy -12.597758 7.271742)) (layer F.Cu) (width 0.01))
  (fp_poly (pts (xy -6.733493 7.308798) (xy -6.671303 7.338077) (xy -6.456057 7.495751) (xy -6.252521 7.725857)
    (xy -6.100542 7.979227) (xy -6.057315 8.095715) (xy -6.017876 8.303791) (xy -5.99436 8.555253)
    (xy -5.991503 8.659091) (xy -5.991155 8.986733) (xy -7.876922 8.986733) (xy -7.836725 9.158354)
    (xy -7.738058 9.361332) (xy -7.565558 9.536753) (xy -7.360337 9.649754) (xy -7.229561 9.673219)
    (xy -7.052212 9.644743) (xy -6.840616 9.573322) (xy -6.768735 9.540462) (xy -6.502914 9.407704)
    (xy -6.27606 9.580734) (xy -6.145159 9.697762) (xy -6.075508 9.794355) (xy -6.07198 9.822705)
    (xy -6.134205 9.891414) (xy -6.270575 9.995831) (xy -6.394351 10.077291) (xy -6.728359 10.223728)
    (xy -7.102809 10.290007) (xy -7.473939 10.272775) (xy -7.769779 10.182698) (xy -8.074744 9.989738)
    (xy -8.291472 9.735681) (xy -8.427051 9.406982) (xy -8.488576 8.990095) (xy -8.494032 8.799338)
    (xy -8.472198 8.362209) (xy -8.469516 8.349493) (xy -7.844659 8.349493) (xy -7.827449 8.390485)
    (xy -7.756719 8.41309) (xy -7.610835 8.422779) (xy -7.368164 8.425023) (xy -7.274721 8.425062)
    (xy -6.990425 8.421675) (xy -6.810134 8.409374) (xy -6.713171 8.384952) (xy -6.678855 8.345201)
    (xy -6.677641 8.332435) (xy -6.716804 8.23099) (xy -6.81482 8.088878) (xy -6.856957 8.039118)
    (xy -7.01339 7.898386) (xy -7.176455 7.843053) (xy -7.264311 7.838428) (xy -7.50199 7.896268)
    (xy -7.701307 8.051633) (xy -7.827741 8.277292) (xy -7.829982 8.284644) (xy -7.844659 8.349493)
    (xy -8.469516 8.349493) (xy -8.399589 8.018011) (xy -8.268789 7.742629) (xy -8.10882 7.54715)
    (xy -7.813066 7.335184) (xy -7.465402 7.221915) (xy -7.095616 7.211676) (xy -6.733493 7.308798)) (layer F.Cu) (width 0.01))
  (fp_poly (pts (xy 0.069569 7.22858) (xy 0.305899 7.273399) (xy 0.551076 7.36714) (xy 0.577273 7.379091)
    (xy 0.7632 7.476856) (xy 0.891963 7.567708) (xy 0.933582 7.625909) (xy 0.893948 7.720827)
    (xy 0.797676 7.860878) (xy 0.754943 7.913158) (xy 0.578842 8.118944) (xy 0.35181 7.984992)
    (xy 0.135744 7.895756) (xy -0.113906 7.848057) (xy -0.353318 7.845044) (xy -0.538667 7.889864)
    (xy -0.583147 7.917839) (xy -0.667856 8.046105) (xy -0.67815 8.193857) (xy -0.614766 8.309283)
    (xy -0.577273 8.331668) (xy -0.464924 8.359469) (xy -0.267439 8.392143) (xy -0.023994 8.423366)
    (xy 0.020917 8.428262) (xy 0.411922 8.495899) (xy 0.695512 8.610788) (xy 0.88359 8.783537)
    (xy 0.988055 9.024755) (xy 1.020597 9.319384) (xy 0.975641 9.654297) (xy 0.829658 9.917294)
    (xy 0.582065 10.108851) (xy 0.232276 10.229442) (xy -0.15602 10.27702) (xy -0.472663 10.276448)
    (xy -0.729504 10.233236) (xy -0.904914 10.173577) (xy -1.126552 10.069627) (xy -1.331378 9.948991)
    (xy -1.404177 9.895893) (xy -1.5914 9.743071) (xy -1.365601 9.51459) (xy -1.139801 9.286108)
    (xy -0.883082 9.455997) (xy -0.625596 9.583595) (xy -0.350641 9.650335) (xy -0.086333 9.657377)
    (xy 0.139208 9.605882) (xy 0.297866 9.49701) (xy 0.349096 9.405148) (xy 0.341411 9.257823)
    (xy 0.214111 9.145163) (xy -0.032458 9.067366) (xy -0.302601 9.03141) (xy -0.718348 8.962809)
    (xy -1.027206 8.833382) (xy -1.233306 8.63934) (xy -1.340782 8.376893) (xy -1.355671 8.065737)
    (xy -1.282127 7.740727) (xy -1.114457 7.495064) (xy -0.851157 7.327626) (xy -0.490726 7.237289)
    (xy -0.223702 7.219581) (xy 0.069569 7.22858)) (layer F.Cu) (width 0.01))
  (fp_poly (pts (xy 3.031298 7.276244) (xy 3.346961 7.448152) (xy 3.593927 7.719533) (xy 3.710289 7.940248)
    (xy 3.760247 8.135193) (xy 3.792617 8.413104) (xy 3.806489 8.733251) (xy 3.800952 9.054904)
    (xy 3.775096 9.337333) (xy 3.744896 9.488178) (xy 3.643015 9.694538) (xy 3.466572 9.913724)
    (xy 3.253931 10.105395) (xy 3.043454 10.22921) (xy 3.038321 10.231174) (xy 2.777142 10.285277)
    (xy 2.467617 10.286617) (xy 2.17348 10.237361) (xy 2.059905 10.197883) (xy 1.767383 10.032003)
    (xy 1.557881 9.814672) (xy 1.420235 9.526946) (xy 1.34328 9.14988) (xy 1.325869 8.952375)
    (xy 1.32809 8.704196) (xy 1.997052 8.704196) (xy 2.019586 9.066334) (xy 2.08445 9.342298)
    (xy 2.187534 9.518621) (xy 2.260972 9.569042) (xy 2.449132 9.604203) (xy 2.672787 9.593793)
    (xy 2.866151 9.543196) (xy 2.916858 9.51536) (xy 3.050642 9.353233) (xy 3.138944 9.105113)
    (xy 3.176532 8.803157) (xy 3.158172 8.479519) (xy 3.117139 8.284744) (xy 2.999329 8.059181)
    (xy 2.813351 7.918181) (xy 2.589369 7.86943) (xy 2.357548 7.920615) (xy 2.179475 8.045814)
    (xy 2.085893 8.149111) (xy 2.031274 8.250927) (xy 2.00524 8.38872) (xy 1.997412 8.59995)
    (xy 1.997052 8.704196) (xy 1.32809 8.704196) (xy 1.330586 8.425336) (xy 1.416423 7.99315)
    (xy 1.583388 7.655799) (xy 1.831489 7.413269) (xy 2.160734 7.265544) (xy 2.231434 7.248413)
    (xy 2.656326 7.2082) (xy 3.031298 7.276244)) (layer F.Cu) (width 0.01))
  (fp_poly (pts (xy 4.930221 8.210737) (xy 4.93612 8.668443) (xy 4.957671 9.016099) (xy 5.000658 9.268083)
    (xy 5.070865 9.43877) (xy 5.174076 9.542536) (xy 5.316074 9.593757) (xy 5.491892 9.606842)
    (xy 5.676033 9.59218) (xy 5.8159 9.538613) (xy 5.917276 9.431762) (xy 5.985945 9.257253)
    (xy 6.027692 9.00071) (xy 6.048299 8.647755) (xy 6.053563 8.210737) (xy 6.053563 7.239313)
    (xy 6.740049 7.239313) (xy 6.740049 10.23489) (xy 6.396806 10.23489) (xy 6.189883 10.226506)
    (xy 6.083331 10.197059) (xy 6.053563 10.141157) (xy 6.035634 10.091369) (xy 5.964281 10.101902)
    (xy 5.820458 10.172361) (xy 5.490822 10.281055) (xy 5.141197 10.273354) (xy 4.806193 10.155325)
    (xy 4.646661 10.06209) (xy 4.524974 9.961141) (xy 4.436076 9.834832) (xy 4.374908 9.665513)
    (xy 4.336413 9.435538) (xy 4.315534 9.127259) (xy 4.307213 8.723028) (xy 4.306143 8.410434)
    (xy 4.306143 7.239313) (xy 4.930221 7.239313) (xy 4.930221 8.210737)) (layer F.Cu) (width 0.01))
  (fp_poly (pts (xy 11.004413 7.265449) (xy 11.365999 7.419055) (xy 11.479886 7.493829) (xy 11.625443 7.60874)
    (xy 11.716815 7.699093) (xy 11.732678 7.728522) (xy 11.687881 7.793825) (xy 11.573242 7.904636)
    (xy 11.481462 7.981976) (xy 11.230246 8.183859) (xy 11.031878 8.016944) (xy 10.878587 7.909187)
    (xy 10.729121 7.871992) (xy 10.558058 7.881075) (xy 10.286419 7.948613) (xy 10.099435 8.088794)
    (xy 9.985802 8.315415) (xy 9.934217 8.642271) (xy 9.934204 8.642475) (xy 9.938665 9.007803)
    (xy 10.007997 9.275847) (xy 10.146297 9.458342) (xy 10.240581 9.520143) (xy 10.490977 9.5971)
    (xy 10.758425 9.597146) (xy 10.991114 9.522477) (xy 11.046192 9.485996) (xy 11.184327 9.392807)
    (xy 11.292325 9.377534) (xy 11.408802 9.446894) (xy 11.53757 9.571472) (xy 11.741393 9.781764)
    (xy 11.515097 9.968297) (xy 11.165458 10.178822) (xy 10.77118 10.28257) (xy 10.359149 10.275058)
    (xy 10.088555 10.206267) (xy 9.772281 10.036148) (xy 9.519337 9.768521) (xy 9.404421 9.579607)
    (xy 9.311349 9.308557) (xy 9.264778 8.965269) (xy 9.264419 8.593221) (xy 9.309983 8.235889)
    (xy 9.401182 7.936749) (xy 9.415546 7.906079) (xy 9.628261 7.605279) (xy 9.916261 7.386271)
    (xy 10.256789 7.253601) (xy 10.627091 7.211812) (xy 11.004413 7.265449)) (layer F.Cu) (width 0.01))
  (fp_poly (pts (xy 13.290794 7.228604) (xy 13.450597 7.267426) (xy 13.756969 7.409584) (xy 14.018947 7.626699)
    (xy 14.200256 7.887015) (xy 14.225165 7.945464) (xy 14.259336 8.09856) (xy 14.283255 8.325036)
    (xy 14.291401 8.55394) (xy 14.291401 8.986733) (xy 13.386487 8.986733) (xy 13.013262 8.988143)
    (xy 12.750333 8.99671) (xy 12.583184 9.018933) (xy 12.497297 9.061313) (xy 12.478154 9.130351)
    (xy 12.511239 9.232548) (xy 12.570504 9.352129) (xy 12.735824 9.551697) (xy 12.96556 9.651122)
    (xy 13.246355 9.647883) (xy 13.564426 9.539667) (xy 13.839317 9.406115) (xy 14.295509 9.766831)
    (xy 14.08092 9.965096) (xy 13.794435 10.152426) (xy 13.442112 10.26537) (xy 13.06314 10.296977)
    (xy 12.696712 10.240297) (xy 12.637592 10.221065) (xy 12.31554 10.052881) (xy 12.075977 9.802143)
    (xy 11.913855 9.461367) (xy 11.824124 9.023066) (xy 11.823079 9.013672) (xy 11.815044 8.536002)
    (xy 11.847523 8.365591) (xy 12.481573 8.365591) (xy 12.539804 8.391796) (xy 12.6979 8.411868)
    (xy 12.930961 8.423328) (xy 13.078653 8.425062) (xy 13.354074 8.423977) (xy 13.526284 8.417076)
    (xy 13.616887 8.398887) (xy 13.647488 8.36394) (xy 13.639691 8.306764) (xy 13.633151 8.284644)
    (xy 13.521503 8.076796) (xy 13.34591 7.909286) (xy 13.190948 7.835677) (xy 12.98508 7.840122)
    (xy 12.776472 7.931916) (xy 12.601482 8.083898) (xy 12.496472 8.268906) (xy 12.481573 8.365591)
    (xy 11.847523 8.365591) (xy 11.895118 8.115879) (xy 12.053978 7.763306) (xy 12.282299 7.488289)
    (xy 12.570758 7.30083) (xy 12.910031 7.210934) (xy 13.290794 7.228604)) (layer F.Cu) (width 0.01))
  (fp_poly (pts (xy -3.742271 7.290868) (xy -3.58695 7.365056) (xy -3.436525 7.472218) (xy -3.321925 7.595553)
    (xy -3.238453 7.752862) (xy -3.181408 7.961943) (xy -3.146093 8.240595) (xy -3.127809 8.606618)
    (xy -3.121856 9.077808) (xy -3.121764 9.12715) (xy -3.120393 10.23489) (xy -3.806879 10.23489)
    (xy -3.806879 9.21367) (xy -3.807368 8.835334) (xy -3.810748 8.561123) (xy -3.819891 8.370349)
    (xy -3.837666 8.242323) (xy -3.866945 8.156354) (xy -3.910598 8.091754) (xy -3.971409 8.027921)
    (xy -4.184167 7.890769) (xy -4.416421 7.865318) (xy -4.637683 7.952034) (xy -4.71463 8.016574)
    (xy -4.771119 8.077254) (xy -4.811676 8.142237) (xy -4.838939 8.231947) (xy -4.855545 8.366804)
    (xy -4.864134 8.567231) (xy -4.867344 8.853648) (xy -4.867813 9.202323) (xy -4.867813 10.23489)
    (xy -5.5543 10.23489) (xy -5.5543 7.239313) (xy -5.211056 7.239313) (xy -5.004977 7.247462)
    (xy -4.898655 7.276399) (xy -4.867827 7.332854) (xy -4.867813 7.334527) (xy -4.85351 7.389815)
    (xy -4.790423 7.38354) (xy -4.664988 7.32279) (xy -4.3805 7.233407) (xy -4.055074 7.223466)
    (xy -3.742271 7.290868)) (layer F.Cu) (width 0.01))
  (fp_poly (pts (xy 8.930982 7.236415) (xy 9.145641 7.301999) (xy 9.283849 7.384867) (xy 9.32887 7.450399)
    (xy 9.316477 7.52808) (xy 9.23607 7.650118) (xy 9.16808 7.736549) (xy 9.02792 7.892804)
    (xy 8.922617 7.958545) (xy 8.83285 7.954253) (xy 8.566559 7.886486) (xy 8.37099 7.889564)
    (xy 8.212179 7.966362) (xy 8.158863 8.011312) (xy 7.988207 8.169471) (xy 7.988207 10.23489)
    (xy 7.30172 10.23489) (xy 7.30172 7.239313) (xy 7.644963 7.239313) (xy 7.851043 7.247462)
    (xy 7.957364 7.276399) (xy 7.988193 7.332854) (xy 7.988207 7.334527) (xy 8.002766 7.393659)
    (xy 8.068604 7.385947) (xy 8.159828 7.343285) (xy 8.348239 7.2639) (xy 8.501233 7.216139)
    (xy 8.698091 7.203896) (xy 8.930982 7.236415)) (layer F.Cu) (width 0.01))
  (fp_poly (pts (xy 2.153071 -11.953389) (xy 3.194156 -11.524219) (xy 4.235241 -11.09505) (xy 5.484197 -11.944331)
    (xy 5.83397 -12.180799) (xy 6.150145 -12.391934) (xy 6.417969 -12.568096) (xy 6.622688 -12.699646)
    (xy 6.749547 -12.776944) (xy 6.784095 -12.793611) (xy 6.846333 -12.750745) (xy 6.979327 -12.632239)
    (xy 7.168171 -12.453231) (xy 7.397957 -12.22886) (xy 7.653779 -11.974263) (xy 7.920729 -11.704579)
    (xy 8.183901 -11.434946) (xy 8.428387 -11.180503) (xy 8.63928 -10.956388) (xy 8.801674 -10.777738)
    (xy 8.90066 -10.659693) (xy 8.924324 -10.620187) (xy 8.890268 -10.547356) (xy 8.794791 -10.387796)
    (xy 8.647931 -10.157116) (xy 8.459728 -9.870922) (xy 8.240219 -9.544822) (xy 8.113022 -9.358822)
    (xy 7.88118 -9.019188) (xy 7.675164 -8.712703) (xy 7.50497 -8.454622) (xy 7.380592 -8.260201)
    (xy 7.312024 -8.144697) (xy 7.30172 -8.120423) (xy 7.325078 -8.051437) (xy 7.388747 -7.890657)
    (xy 7.48312 -7.660689) (xy 7.598591 -7.384139) (xy 7.725552 -7.083611) (xy 7.854399 -6.781713)
    (xy 7.975523 -6.501048) (xy 8.079318 -6.264224) (xy 8.156177 -6.093844) (xy 8.196495 -6.012516)
    (xy 8.198874 -6.009315) (xy 8.262181 -5.993787) (xy 8.430779 -5.959142) (xy 8.687192 -5.908789)
    (xy 9.013946 -5.846131) (xy 9.393565 -5.774575) (xy 9.615051 -5.733312) (xy 10.020693 -5.656078)
    (xy 10.387082 -5.582586) (xy 10.695683 -5.516857) (xy 10.927959 -5.462911) (xy 11.065374 -5.424771)
    (xy 11.092998 -5.41267) (xy 11.120053 -5.330767) (xy 11.141882 -5.145788) (xy 11.158501 -4.879366)
    (xy 11.169924 -4.55313) (xy 11.176165 -4.188713) (xy 11.177241 -3.807745) (xy 11.173165 -3.431856)
    (xy 11.163952 -3.082678) (xy 11.149617 -2.781842) (xy 11.130175 -2.550978) (xy 11.105641 -2.411718)
    (xy 11.090926 -2.382727) (xy 11.002966 -2.347979) (xy 10.816584 -2.2983) (xy 10.556432 -2.239528)
    (xy 10.247164 -2.177497) (xy 10.139206 -2.15743) (xy 9.618694 -2.062088) (xy 9.207528 -1.985306)
    (xy 8.89212 -1.924031) (xy 8.658886 -1.875212) (xy 8.494239 -1.835797) (xy 8.384594 -1.802734)
    (xy 8.316365 -1.772973) (xy 8.275965 -1.74346) (xy 8.270313 -1.737627) (xy 8.21389 -1.643666)
    (xy 8.127817 -1.460806) (xy 8.020687 -1.211439) (xy 7.901097 -0.917954) (xy 7.777639 -0.602745)
    (xy 7.65891 -0.288202) (xy 7.553502 0.003284) (xy 7.470011 0.249321) (xy 7.417032 0.427517)
    (xy 7.403158 0.515482) (xy 7.404315 0.518563) (xy 7.451323 0.590463) (xy 7.557966 0.748661)
    (xy 7.713038 0.97669) (xy 7.905331 1.258084) (xy 8.123639 1.576378) (xy 8.185811 1.666829)
    (xy 8.407489 1.994759) (xy 8.602557 2.293963) (xy 8.760387 2.54726) (xy 8.870354 2.737469)
    (xy 8.921831 2.84741) (xy 8.924324 2.860916) (xy 8.881074 2.931908) (xy 8.761564 3.072546)
    (xy 8.581159 3.267714) (xy 8.355222 3.502298) (xy 8.099115 3.761183) (xy 7.828202 4.029254)
    (xy 7.557846 4.291396) (xy 7.303411 4.532495) (xy 7.080259 4.737435) (xy 6.903755 4.891102)
    (xy 6.78926 4.97838) (xy 6.757587 4.992629) (xy 6.683861 4.959066) (xy 6.532916 4.868544)
    (xy 6.329338 4.736311) (xy 6.172706 4.629879) (xy 5.888897 4.434583) (xy 5.552797 4.204629)
    (xy 5.215671 3.975044) (xy 5.034422 3.85217) (xy 4.420932 3.437213) (xy 3.905951 3.715658)
    (xy 3.671339 3.83764) (xy 3.471836 3.932452) (xy 3.336848 3.98653) (xy 3.302487 3.994054)
    (xy 3.26117 3.938498) (xy 3.179656 3.781504) (xy 3.064032 3.537555) (xy 2.920383 3.221131)
    (xy 2.754793 2.846714) (xy 2.573347 2.428785) (xy 2.38213 1.981825) (xy 2.187228 1.520316)
    (xy 1.994725 1.058738) (xy 1.810705 0.611574) (xy 1.641255 0.193304) (xy 1.492458 -0.18159)
    (xy 1.370401 -0.498627) (xy 1.281167 -0.743325) (xy 1.230842 -0.901204) (xy 1.222749 -0.955427)
    (xy 1.286896 -1.024589) (xy 1.427346 -1.13686) (xy 1.614736 -1.268913) (xy 1.630464 -1.279361)
    (xy 2.114796 -1.667052) (xy 2.505327 -2.119355) (xy 2.798672 -2.621808) (xy 2.991447 -3.159947)
    (xy 3.080267 -3.719312) (xy 3.061749 -4.285438) (xy 2.932507 -4.843863) (xy 2.689157 -5.380125)
    (xy 2.617562 -5.497452) (xy 2.245174 -5.971227) (xy 1.805242 -6.351675) (xy 1.312994 -6.636818)
    (xy 0.783655 -6.824678) (xy 0.232452 -6.913275) (xy -0.325388 -6.900632) (xy -0.874639 -6.78477)
    (xy -1.400075 -6.56371) (xy -1.886469 -6.235474) (xy -2.036926 -6.10225) (xy -2.419843 -5.685224)
    (xy -2.698871 -5.246215) (xy -2.890275 -4.754125) (xy -2.996877 -4.266803) (xy -3.023193 -3.718898)
    (xy -2.935442 -3.168274) (xy -2.742538 -2.633541) (xy -2.453395 -2.133312) (xy -2.076925 -1.686197)
    (xy -1.622042 -1.310808) (xy -1.56226 -1.271239) (xy -1.372861 -1.141655) (xy -1.228883 -1.02938)
    (xy -1.160049 -0.957693) (xy -1.159048 -0.955427) (xy -1.173826 -0.877879) (xy -1.232406 -0.70188)
    (xy -1.328702 -0.441907) (xy -1.456626 -0.112439) (xy -1.61009 0.272047) (xy -1.783008 0.697073)
    (xy -1.969292 1.14816) (xy -2.162854 1.610831) (xy -2.357607 2.070607) (xy -2.547464 2.513011)
    (xy -2.726338 2.923565) (xy -2.888141 3.28779) (xy -3.026786 3.591208) (xy -3.136186 3.819342)
    (xy -3.210252 3.957714) (xy -3.240079 3.994054) (xy -3.331221 3.965756) (xy -3.501757 3.889858)
    (xy -3.722281 3.779927) (xy -3.843543 3.715658) (xy -4.358524 3.437213) (xy -4.972014 3.85217)
    (xy -5.285187 4.06475) (xy -5.628056 4.298688) (xy -5.949359 4.51896) (xy -6.110298 4.629879)
    (xy -6.336652 4.781877) (xy -6.528322 4.90233) (xy -6.660304 4.975983) (xy -6.703173 4.991553)
    (xy -6.765568 4.949551) (xy -6.903657 4.832297) (xy -7.104054 4.651965) (xy -7.35337 4.420728)
    (xy -7.638219 4.150762) (xy -7.818373 3.977425) (xy -8.133556 3.667744) (xy -8.405944 3.390758)
    (xy -8.624526 3.158316) (xy -8.778291 2.982266) (xy -8.856227 2.874457) (xy -8.863704 2.852579)
    (xy -8.829006 2.769359) (xy -8.733123 2.601094) (xy -8.586691 2.364818) (xy -8.400345 2.077566)
    (xy -8.184721 1.756375) (xy -8.123403 1.666829) (xy -7.899975 1.341373) (xy -7.699526 1.048354)
    (xy -7.533262 0.804239) (xy -7.41239 0.625494) (xy -7.348116 0.528584) (xy -7.341907 0.518563)
    (xy -7.351193 0.441332) (xy -7.400484 0.271526) (xy -7.481185 0.031538) (xy -7.584702 -0.256242)
    (xy -7.702441 -0.569422) (xy -7.825806 -0.88561) (xy -7.946204 -1.182416) (xy -8.055039 -1.437448)
    (xy -8.143718 -1.628314) (xy -8.203645 -1.732623) (xy -8.207905 -1.737627) (xy -8.244551 -1.767437)
    (xy -8.306446 -1.796917) (xy -8.407174 -1.829118) (xy -8.560322 -1.86709) (xy -8.779475 -1.913887)
    (xy -9.07822 -1.97256) (xy -9.470141 -2.04616) (xy -9.968826 -2.13774) (xy -10.076798 -2.15743)
    (xy -10.396805 -2.219258) (xy -10.675782 -2.279742) (xy -10.889075 -2.333046) (xy -11.01203 -2.373335)
    (xy -11.028518 -2.382727) (xy -11.055685 -2.465998) (xy -11.077769 -2.652084) (xy -11.094752 -2.919353)
    (xy -11.106622 -3.246176) (xy -11.113362 -3.610921) (xy -11.114959 -3.991956) (xy -11.111396 -4.367652)
    (xy -11.102661 -4.716378) (xy -11.088737 -5.016501) (xy -11.06961 -5.246393) (xy -11.045265 -5.38442)
    (xy -11.03059 -5.41267) (xy -10.948885 -5.441167) (xy -10.762834 -5.487527) (xy -10.490973 -5.547729)
    (xy -10.151839 -5.617751) (xy -9.763967 -5.693573) (xy -9.552643 -5.733312) (xy -9.151689 -5.808264)
    (xy -8.794135 -5.876164) (xy -8.497456 -5.933604) (xy -8.279129 -5.977179) (xy -8.156628 -6.003483)
    (xy -8.136466 -6.009315) (xy -8.10239 -6.075062) (xy -8.030358 -6.233427) (xy -7.929972 -6.461783)
    (xy -7.810832 -6.737508) (xy -7.682541 -7.037975) (xy -7.5547 -7.340561) (xy -7.436911 -7.622642)
    (xy -7.338776 -7.861592) (xy -7.269895 -8.034787) (xy -7.239871 -8.119603) (xy -7.239312 -8.12331)
    (xy -7.273348 -8.190218) (xy -7.368772 -8.344189) (xy -7.515552 -8.56992) (xy -7.70366 -8.852109)
    (xy -7.923067 -9.175451) (xy -8.050614 -9.361179) (xy -8.283028 -9.701723) (xy -8.489455 -10.010901)
    (xy -8.659822 -10.273073) (xy -8.784058 -10.472598) (xy -8.852091 -10.593836) (xy -8.861916 -10.621014)
    (xy -8.819679 -10.684275) (xy -8.70291 -10.819345) (xy -8.526526 -11.011094) (xy -8.305443 -11.244388)
    (xy -8.054577 -11.504097) (xy -7.788844 -11.775088) (xy -7.523161 -12.042228) (xy -7.272443 -12.290387)
    (xy -7.051607 -12.50443) (xy -6.875569 -12.669228) (xy -6.759245 -12.769646) (xy -6.720329 -12.793611)
    (xy -6.656967 -12.759912) (xy -6.505416 -12.665241) (xy -6.280412 -12.519233) (xy -5.99669 -12.331527)
    (xy -5.668985 -12.11176) (xy -5.421789 -11.944331) (xy -4.172833 -11.09505) (xy -3.131748 -11.524219)
    (xy -2.090663 -11.953389) (xy -1.808516 -13.450036) (xy -1.526368 -14.946683) (xy 1.588777 -14.946683)
    (xy 2.153071 -11.953389)) (layer F.Cu) (width 0.01))
)
