(module Polarity_Center_Positive_12mm_SilkScreen (layer F.Cu) (tedit 0)
  (descr "Polarity Logo, Center Positive")
  (tags "Logo Polarity Center Positive")
  (attr virtual)
  (fp_text reference REF** (at 0 0) (layer F.SilkS) hide
    (effects (font (size 1 1) (thickness 0.15)))
  )
  (fp_text value Polarity_Center_Positive_12mm_SilkScreen (at 0.75 0) (layer F.Fab) hide
    (effects (font (size 1 1) (thickness 0.15)))
  )
  (fp_poly (pts (xy 0.562937 -5.943412) (xy 1.084115 -5.871897) (xy 1.598417 -5.753218) (xy 2.004608 -5.623255)
    (xy 2.511428 -5.413749) (xy 2.995185 -5.160716) (xy 3.453481 -4.865945) (xy 3.883923 -4.531221)
    (xy 4.284114 -4.158331) (xy 4.65166 -3.749062) (xy 4.839044 -3.509082) (xy 4.905296 -3.41983)
    (xy 4.389586 -3.060846) (xy 4.247561 -2.962757) (xy 4.118195 -2.874886) (xy 4.007319 -2.801071)
    (xy 3.92076 -2.745155) (xy 3.864346 -2.710976) (xy 3.844737 -2.701863) (xy 3.816019 -2.720463)
    (xy 3.768928 -2.769188) (xy 3.71457 -2.836317) (xy 3.43161 -3.172953) (xy 3.109701 -3.484343)
    (xy 2.754796 -3.76679) (xy 2.372847 -4.016595) (xy 1.969807 -4.23006) (xy 1.551628 -4.403487)
    (xy 1.124264 -4.533178) (xy 0.90643 -4.580956) (xy 0.429817 -4.647261) (xy -0.045553 -4.665374)
    (xy -0.516298 -4.636319) (xy -0.979034 -4.561118) (xy -1.430379 -4.440796) (xy -1.866949 -4.276376)
    (xy -2.285362 -4.068882) (xy -2.682234 -3.819337) (xy -3.054183 -3.528765) (xy -3.287327 -3.312072)
    (xy -3.615615 -2.95153) (xy -3.900175 -2.567239) (xy -4.141098 -2.15902) (xy -4.338475 -1.726689)
    (xy -4.492398 -1.270065) (xy -4.602959 -0.788968) (xy -4.622658 -0.672345) (xy -4.645127 -0.480485)
    (xy -4.658845 -0.255901) (xy -4.663806 -0.014584) (xy -4.660003 0.22747) (xy -4.647431 0.454269)
    (xy -4.626084 0.649818) (xy -4.623165 0.668954) (xy -4.523404 1.149603) (xy -4.379755 1.610666)
    (xy -4.193813 2.049618) (xy -3.96717 2.463933) (xy -3.701423 2.851087) (xy -3.398165 3.208554)
    (xy -3.05899 3.533809) (xy -2.685493 3.824328) (xy -2.589804 3.889344) (xy -2.174421 4.135108)
    (xy -1.741862 4.335605) (xy -1.295477 4.490375) (xy -0.838617 4.598959) (xy -0.374633 4.660898)
    (xy 0.093124 4.675735) (xy 0.561304 4.643009) (xy 1.026557 4.562263) (xy 1.455197 4.443169)
    (xy 1.906204 4.268513) (xy 2.333796 4.050785) (xy 2.735228 3.79189) (xy 3.107756 3.493731)
    (xy 3.448632 3.158212) (xy 3.653702 2.918774) (xy 3.838673 2.687449) (xy 3.955072 2.770683)
    (xy 4.012523 2.811314) (xy 4.102163 2.874158) (xy 4.215221 2.953093) (xy 4.34293 3.041996)
    (xy 4.476127 3.134474) (xy 4.600014 3.22111) (xy 4.708571 3.298446) (xy 4.7956 3.361949)
    (xy 4.854904 3.407087) (xy 4.880285 3.429325) (xy 4.880784 3.430438) (xy 4.864879 3.464214)
    (xy 4.820909 3.527903) (xy 4.754489 3.614729) (xy 4.671238 3.717917) (xy 4.57677 3.830693)
    (xy 4.476704 3.946282) (xy 4.376656 4.057909) (xy 4.282241 4.158799) (xy 4.246846 4.195101)
    (xy 3.843153 4.568805) (xy 3.414439 4.89995) (xy 2.962618 5.187737) (xy 2.489602 5.431364)
    (xy 1.997302 5.630034) (xy 1.487632 5.782945) (xy 0.962502 5.889298) (xy 0.423826 5.948293)
    (xy 0.024902 5.960997) (xy -0.48262 5.9434) (xy -0.962775 5.889537) (xy -1.424406 5.797333)
    (xy -1.876358 5.664716) (xy -2.327474 5.489613) (xy -2.670628 5.329134) (xy -3.143028 5.065423)
    (xy -3.586983 4.761612) (xy -4.000203 4.419972) (xy -4.380396 4.042778) (xy -4.72527 3.632302)
    (xy -5.032534 3.190819) (xy -5.299797 2.720796) (xy -5.523764 2.2318) (xy -5.699975 1.735603)
    (xy -5.830465 1.225995) (xy -5.882346 0.944859) (xy -5.938191 0.597449) (xy -8.951791 0.603774)
    (xy -11.965392 0.610098) (xy -11.98421 0.784412) (xy -12.049392 1.206436) (xy -12.153325 1.641827)
    (xy -12.291811 2.078732) (xy -12.460655 2.505294) (xy -12.655662 2.909659) (xy -12.861142 3.262157)
    (xy -13.054649 3.54197) (xy -13.276172 3.824867) (xy -13.515758 4.099719) (xy -13.763451 4.355393)
    (xy -14.009296 4.580758) (xy -14.126598 4.677166) (xy -14.572858 4.998054) (xy -15.038434 5.273044)
    (xy -15.523236 5.502102) (xy -16.027174 5.685198) (xy -16.550159 5.822299) (xy -17.0921 5.913373)
    (xy -17.652908 5.95839) (xy -17.767549 5.961869) (xy -17.919672 5.964575) (xy -18.06144 5.965862)
    (xy -18.182495 5.965729) (xy -18.272482 5.964178) (xy -18.315392 5.961889) (xy -18.652994 5.923973)
    (xy -18.953373 5.880418) (xy -19.229009 5.828744) (xy -19.492382 5.766472) (xy -19.755972 5.691124)
    (xy -19.884216 5.650247) (xy -20.380222 5.461767) (xy -20.852098 5.230891) (xy -21.297772 4.959875)
    (xy -21.715174 4.650973) (xy -22.102233 4.306443) (xy -22.456879 3.928539) (xy -22.77704 3.519518)
    (xy -23.060647 3.081635) (xy -23.305628 2.617145) (xy -23.509914 2.128305) (xy -23.671432 1.617371)
    (xy -23.704307 1.488824) (xy -23.755589 1.268597) (xy -23.795354 1.070949) (xy -23.824926 0.883838)
    (xy -23.845625 0.695219) (xy -23.858773 0.493051) (xy -23.865692 0.265289) (xy -23.867704 0)
    (xy -23.86761 -0.012451) (xy -22.561177 -0.012451) (xy -22.538029 0.482217) (xy -22.46903 0.961619)
    (xy -22.354841 1.423701) (xy -22.196127 1.866409) (xy -21.99355 2.28769) (xy -21.747774 2.68549)
    (xy -21.64284 2.830536) (xy -21.34153 3.189123) (xy -21.006607 3.512505) (xy -20.641375 3.798909)
    (xy -20.249138 4.046561) (xy -19.833199 4.253686) (xy -19.396862 4.418511) (xy -18.943431 4.539261)
    (xy -18.47621 4.614164) (xy -18.29049 4.630598) (xy -18.174045 4.638569) (xy -18.072286 4.645541)
    (xy -17.997806 4.65065) (xy -17.966765 4.652786) (xy -17.924493 4.652306) (xy -17.843233 4.648595)
    (xy -17.733655 4.642234) (xy -17.606428 4.633802) (xy -17.569726 4.631195) (xy -17.085597 4.572756)
    (xy -16.620655 4.469915) (xy -16.176973 4.324745) (xy -15.756622 4.13932) (xy -15.361677 3.915711)
    (xy -14.994208 3.655994) (xy -14.656289 3.36224) (xy -14.349991 3.036522) (xy -14.077389 2.680916)
    (xy -13.840553 2.297492) (xy -13.641557 1.888325) (xy -13.482473 1.455487) (xy -13.365373 1.001053)
    (xy -13.292331 0.527095) (xy -13.276153 0.336177) (xy -13.266904 -0.157007) (xy -13.303517 -0.637818)
    (xy -13.384622 -1.103792) (xy -13.50885 -1.552461) (xy -13.674832 -1.981359) (xy -13.881199 -2.388019)
    (xy -14.126581 -2.769974) (xy -14.409611 -3.124759) (xy -14.728918 -3.449906) (xy -15.083134 -3.742949)
    (xy -15.47089 -4.001421) (xy -15.775912 -4.167639) (xy -16.209347 -4.35578) (xy -16.659625 -4.498923)
    (xy -17.122185 -4.597034) (xy -17.592464 -4.650085) (xy -18.0659 -4.658043) (xy -18.53793 -4.620879)
    (xy -19.003991 -4.538561) (xy -19.459522 -4.411059) (xy -19.89996 -4.238341) (xy -19.990615 -4.19608)
    (xy -20.40573 -3.970195) (xy -20.789106 -3.707193) (xy -21.139224 -3.409546) (xy -21.454568 -3.079724)
    (xy -21.73362 -2.720196) (xy -21.97486 -2.333435) (xy -22.176771 -1.921911) (xy -22.337835 -1.488093)
    (xy -22.456535 -1.034454) (xy -22.531351 -0.563463) (xy -22.560766 -0.077591) (xy -22.561177 -0.012451)
    (xy -23.86761 -0.012451) (xy -23.865688 -0.265047) (xy -23.858792 -0.492553) (xy -23.845743 -0.694648)
    (xy -23.825265 -0.883465) (xy -23.796087 -1.071134) (xy -23.756933 -1.269787) (xy -23.714759 -1.456765)
    (xy -23.567956 -1.975422) (xy -23.377707 -2.471786) (xy -23.146062 -2.943832) (xy -22.875069 -3.389536)
    (xy -22.566777 -3.806871) (xy -22.223234 -4.193812) (xy -21.846488 -4.548335) (xy -21.438589 -4.868413)
    (xy -21.001584 -5.152023) (xy -20.537522 -5.397137) (xy -20.048452 -5.601732) (xy -19.536423 -5.763782)
    (xy -19.29902 -5.822295) (xy -19.094403 -5.866525) (xy -18.913303 -5.900757) (xy -18.74392 -5.926176)
    (xy -18.574455 -5.943963) (xy -18.393107 -5.955302) (xy -18.188078 -5.961376) (xy -17.947566 -5.963369)
    (xy -17.892059 -5.96338) (xy -17.625321 -5.960964) (xy -17.395819 -5.95333) (xy -17.191138 -5.939168)
    (xy -16.998865 -5.917167) (xy -16.806585 -5.886018) (xy -16.601883 -5.84441) (xy -16.461703 -5.812414)
    (xy -15.975474 -5.6747) (xy -15.496638 -5.493794) (xy -15.033961 -5.273837) (xy -14.596208 -5.018969)
    (xy -14.215269 -4.751255) (xy -14.034063 -4.602857) (xy -13.839041 -4.427986) (xy -13.643117 -4.239212)
    (xy -13.459208 -4.049101) (xy -13.300226 -3.870221) (xy -13.260799 -3.822451) (xy -12.961514 -3.415654)
    (xy -12.69552 -2.978765) (xy -12.465839 -2.518755) (xy -12.275493 -2.042593) (xy -12.127504 -1.557252)
    (xy -12.024894 -1.069702) (xy -12.003057 -0.921372) (xy -11.988803 -0.817019) (xy -11.975531 -0.726085)
    (xy -11.965553 -0.664217) (xy -11.96355 -0.653676) (xy -11.951992 -0.597647) (xy -5.926667 -0.597647)
    (xy -5.926667 -0.656676) (xy -5.921429 -0.720982) (xy -5.907082 -0.822764) (xy -5.885678 -0.950959)
    (xy -5.85927 -1.094507) (xy -5.829909 -1.242344) (xy -5.799647 -1.38341) (xy -5.770536 -1.506642)
    (xy -5.764942 -1.528525) (xy -5.611812 -2.020546) (xy -5.412439 -2.500635) (xy -5.169786 -2.964533)
    (xy -4.886819 -3.407981) (xy -4.566503 -3.826718) (xy -4.211803 -4.216487) (xy -3.825684 -4.573027)
    (xy -3.435087 -4.875237) (xy -2.984581 -5.163751) (xy -2.513022 -5.408942) (xy -2.023902 -5.610329)
    (xy -1.520711 -5.767433) (xy -1.00694 -5.879773) (xy -0.486081 -5.94687) (xy 0.038375 -5.968243)
    (xy 0.562937 -5.943412)) (layer F.SilkS) (width 0.01))
  (fp_poly (pts (xy 18.169814 -5.970186) (xy 18.386007 -5.96185) (xy 18.491478 -5.953973) (xy 19.022581 -5.881604)
    (xy 19.543812 -5.764147) (xy 20.050719 -5.603413) (xy 20.53885 -5.401216) (xy 21.003752 -5.159365)
    (xy 21.440973 -4.879672) (xy 21.789216 -4.61212) (xy 22.183563 -4.250615) (xy 22.540907 -3.856593)
    (xy 22.859707 -3.432507) (xy 23.138417 -2.980812) (xy 23.375495 -2.503964) (xy 23.569398 -2.004416)
    (xy 23.69467 -1.581246) (xy 23.80114 -1.076715) (xy 23.866898 -0.558223) (xy 23.891761 -0.034605)
    (xy 23.875548 0.485309) (xy 23.818077 0.992685) (xy 23.75458 1.329458) (xy 23.612397 1.86169)
    (xy 23.427396 2.370872) (xy 23.200825 2.855151) (xy 22.933932 3.31267) (xy 22.627964 3.741576)
    (xy 22.284169 4.140012) (xy 21.903794 4.506124) (xy 21.488086 4.838057) (xy 21.312713 4.960493)
    (xy 20.853654 5.239465) (xy 20.374423 5.473382) (xy 19.873976 5.662643) (xy 19.351271 5.807646)
    (xy 18.843643 5.90322) (xy 18.716025 5.918882) (xy 18.558407 5.93326) (xy 18.381361 5.945875)
    (xy 18.195461 5.956254) (xy 18.011279 5.96392) (xy 17.839387 5.968396) (xy 17.690358 5.969208)
    (xy 17.574764 5.965879) (xy 17.53098 5.962308) (xy 17.469169 5.9555) (xy 17.373094 5.945175)
    (xy 17.258029 5.932965) (xy 17.182353 5.92501) (xy 16.690278 5.84966) (xy 16.197521 5.728079)
    (xy 15.711188 5.563226) (xy 15.238382 5.35806) (xy 14.786209 5.115542) (xy 14.361773 4.838631)
    (xy 14.106961 4.643902) (xy 13.944462 4.504112) (xy 13.766486 4.338217) (xy 13.586498 4.159631)
    (xy 13.417961 3.981767) (xy 13.27434 3.818039) (xy 13.25743 3.797549) (xy 12.966711 3.404646)
    (xy 12.707456 2.977034) (xy 12.482157 2.520514) (xy 12.293306 2.040887) (xy 12.143394 1.543952)
    (xy 12.034914 1.035511) (xy 12.013884 0.902696) (xy 11.96905 0.597647) (xy 7.353351 0.597647)
    (xy 6.770082 0.597707) (xy 6.234816 0.597896) (xy 5.745751 0.598226) (xy 5.301085 0.598708)
    (xy 4.899018 0.599355) (xy 4.537748 0.600179) (xy 4.215474 0.601192) (xy 3.930394 0.602407)
    (xy 3.680708 0.603835) (xy 3.464613 0.605489) (xy 3.280309 0.60738) (xy 3.125994 0.609521)
    (xy 2.999867 0.611924) (xy 2.900126 0.614601) (xy 2.824971 0.617564) (xy 2.772599 0.620826)
    (xy 2.74121 0.624397) (xy 2.729002 0.628292) (xy 2.728742 0.628775) (xy 2.628323 0.9435)
    (xy 2.517285 1.217699) (xy 2.390715 1.460322) (xy 2.243698 1.680319) (xy 2.07132 1.88664)
    (xy 1.993358 1.968162) (xy 1.72546 2.204707) (xy 1.433478 2.40066) (xy 1.121956 2.556015)
    (xy 0.795439 2.670764) (xy 0.458472 2.744902) (xy 0.115598 2.778422) (xy -0.228637 2.771318)
    (xy -0.569689 2.723582) (xy -0.903014 2.635209) (xy -1.224067 2.506192) (xy -1.528303 2.336524)
    (xy -1.811178 2.126199) (xy -1.975336 1.973867) (xy -2.216972 1.699694) (xy -2.412663 1.410618)
    (xy -2.565137 1.102299) (xy -2.627217 0.936004) (xy -2.723441 0.576438) (xy -2.773395 0.214195)
    (xy -2.776204 0.008602) (xy 13.272745 0.008602) (xy 13.293899 0.490325) (xy 13.358138 0.950394)
    (xy 13.466627 1.394042) (xy 13.620531 1.826508) (xy 13.733481 2.079314) (xy 13.958033 2.490411)
    (xy 14.220683 2.871129) (xy 14.518802 3.219749) (xy 14.849757 3.534554) (xy 15.210918 3.813826)
    (xy 15.599653 4.055847) (xy 16.013331 4.258899) (xy 16.449321 4.421264) (xy 16.904992 4.541225)
    (xy 17.377713 4.617063) (xy 17.65549 4.639982) (xy 17.74529 4.645061) (xy 17.823735 4.649801)
    (xy 17.854706 4.651842) (xy 17.902023 4.651714) (xy 17.987695 4.648271) (xy 18.100422 4.642079)
    (xy 18.228905 4.633704) (xy 18.257406 4.63168) (xy 18.746277 4.572918) (xy 19.215378 4.46964)
    (xy 19.662677 4.323609) (xy 20.086144 4.136588) (xy 20.483746 3.91034) (xy 20.853453 3.646626)
    (xy 21.193234 3.347211) (xy 21.501057 3.013857) (xy 21.774892 2.648327) (xy 22.012707 2.252382)
    (xy 22.212472 1.827787) (xy 22.372155 1.376303) (xy 22.475179 0.971177) (xy 22.506717 0.784281)
    (xy 22.53159 0.561829) (xy 22.549245 0.317691) (xy 22.559129 0.065738) (xy 22.560688 -0.180157)
    (xy 22.553368 -0.406125) (xy 22.537526 -0.591005) (xy 22.45404 -1.078468) (xy 22.326643 -1.543404)
    (xy 22.156124 -1.984522) (xy 21.943271 -2.400526) (xy 21.688873 -2.790123) (xy 21.393719 -3.152019)
    (xy 21.058596 -3.484921) (xy 20.684293 -3.787534) (xy 20.519216 -3.902866) (xy 20.13835 -4.128404)
    (xy 19.730908 -4.31491) (xy 19.302037 -4.461742) (xy 18.856887 -4.56826) (xy 18.400607 -4.633822)
    (xy 17.938345 -4.657788) (xy 17.475252 -4.639516) (xy 17.016475 -4.578364) (xy 16.567164 -4.473693)
    (xy 16.38549 -4.417588) (xy 15.943027 -4.245218) (xy 15.527457 -4.032106) (xy 15.140659 -3.780577)
    (xy 14.78451 -3.492954) (xy 14.46089 -3.171564) (xy 14.171678 -2.81873) (xy 13.918751 -2.436776)
    (xy 13.703989 -2.028028) (xy 13.52927 -1.594809) (xy 13.396472 -1.139445) (xy 13.307475 -0.66426)
    (xy 13.298867 -0.5983) (xy 13.289484 -0.495943) (xy 13.281596 -0.359272) (xy 13.275868 -0.203771)
    (xy 13.272969 -0.044923) (xy 13.272745 0.008602) (xy -2.776204 0.008602) (xy -2.778323 -0.146436)
    (xy -2.739468 -0.501166) (xy -2.658074 -0.845706) (xy -2.535386 -1.175767) (xy -2.372645 -1.48706)
    (xy -2.171096 -1.775297) (xy -1.931982 -2.036188) (xy -1.710642 -2.225262) (xy -1.411462 -2.422913)
    (xy -1.090836 -2.578251) (xy -0.753784 -2.691149) (xy -0.40533 -2.761482) (xy -0.050496 -2.789125)
    (xy 0.305697 -2.773952) (xy 0.658226 -2.715838) (xy 1.00207 -2.614656) (xy 1.332205 -2.470281)
    (xy 1.606176 -2.308224) (xy 1.68841 -2.247177) (xy 1.79015 -2.163298) (xy 1.896171 -2.069451)
    (xy 1.960855 -2.008533) (xy 2.176195 -1.775679) (xy 2.357253 -1.525982) (xy 2.508247 -1.25187)
    (xy 2.633394 -0.945771) (xy 2.729493 -0.628774) (xy 2.739448 -0.624842) (xy 2.768365 -0.621234)
    (xy 2.818045 -0.617937) (xy 2.890289 -0.61494) (xy 2.986898 -0.61223) (xy 3.109673 -0.609796)
    (xy 3.260414 -0.607624) (xy 3.440923 -0.605704) (xy 3.653001 -0.604023) (xy 3.898448 -0.602569)
    (xy 4.179065 -0.601329) (xy 4.496654 -0.600293) (xy 4.853015 -0.599446) (xy 5.24995 -0.598778)
    (xy 5.689259 -0.598277) (xy 6.172742 -0.597929) (xy 6.702202 -0.597723) (xy 7.279439 -0.597648)
    (xy 7.355303 -0.597647) (xy 11.972953 -0.597647) (xy 11.99004 -0.753284) (xy 12.035681 -1.065562)
    (xy 12.104805 -1.400837) (xy 12.192788 -1.740992) (xy 12.295008 -2.067907) (xy 12.391312 -2.325958)
    (xy 12.617666 -2.816702) (xy 12.883532 -3.27842) (xy 13.186851 -3.709516) (xy 13.525562 -4.108388)
    (xy 13.897606 -4.47344) (xy 14.300923 -4.803073) (xy 14.733454 -5.095687) (xy 15.193139 -5.349685)
    (xy 15.677917 -5.563468) (xy 16.185731 -5.735437) (xy 16.714519 -5.863994) (xy 17.017183 -5.916155)
    (xy 17.207873 -5.938456) (xy 17.433299 -5.955389) (xy 17.678642 -5.966575) (xy 17.929087 -5.971634)
    (xy 18.169814 -5.970186)) (layer F.SilkS) (width 0.01))
  (fp_poly (pts (xy -14.916275 0.597647) (xy -20.892745 0.597647) (xy -20.892745 -0.597647) (xy -14.916275 -0.597647)
    (xy -14.916275 0.597647)) (layer F.SilkS) (width 0.01))
  (fp_poly (pts (xy 18.527059 -0.597647) (xy 20.917647 -0.597647) (xy 20.917647 0.597647) (xy 18.527059 0.597647)
    (xy 18.527059 2.988235) (xy 17.331765 2.988235) (xy 17.331765 0.597647) (xy 14.941176 0.597647)
    (xy 14.941176 -0.597164) (xy 17.319314 -0.610098) (xy 17.325781 -1.799167) (xy 17.332248 -2.988235)
    (xy 18.527059 -2.988235) (xy 18.527059 -0.597647)) (layer F.SilkS) (width 0.01))
)
