(module Polarity_Center_Positive_6mm_SilkScreen (layer F.Cu) (tedit 0)
  (descr "Polarity Logo, Center Positive")
  (tags "Logo Polarity Center Positive")
  (attr virtual)
  (fp_text reference REF** (at 0 0) (layer F.SilkS) hide
    (effects (font (size 1 1) (thickness 0.15)))
  )
  (fp_text value Polarity_Center_Positive_6mm_SilkScreen (at 0.75 0) (layer F.Fab) hide
    (effects (font (size 1 1) (thickness 0.15)))
  )
  (fp_poly (pts (xy 0.284256 -3.001128) (xy 0.547425 -2.965017) (xy 0.807122 -2.90509) (xy 1.012228 -2.839465)
    (xy 1.268147 -2.733675) (xy 1.51242 -2.605906) (xy 1.743838 -2.457061) (xy 1.961189 -2.288042)
    (xy 2.163266 -2.099751) (xy 2.348858 -1.893091) (xy 2.443478 -1.771912) (xy 2.476932 -1.726844)
    (xy 2.216524 -1.545576) (xy 2.144808 -1.496046) (xy 2.079485 -1.451675) (xy 2.023498 -1.414402)
    (xy 1.97979 -1.386167) (xy 1.951304 -1.368908) (xy 1.941402 -1.364307) (xy 1.926901 -1.373699)
    (xy 1.903123 -1.398303) (xy 1.875675 -1.4322) (xy 1.732794 -1.602184) (xy 1.570246 -1.759421)
    (xy 1.391036 -1.902042) (xy 1.198171 -2.028182) (xy 0.994655 -2.135971) (xy 0.783496 -2.223543)
    (xy 0.567698 -2.28903) (xy 0.457703 -2.313156) (xy 0.217037 -2.346637) (xy -0.023002 -2.355783)
    (xy -0.260705 -2.341111) (xy -0.494363 -2.303139) (xy -0.72227 -2.242382) (xy -0.942717 -2.159358)
    (xy -1.153994 -2.054584) (xy -1.354395 -1.928576) (xy -1.542211 -1.781852) (xy -1.659937 -1.672432)
    (xy -1.825706 -1.490376) (xy -1.969395 -1.296329) (xy -2.091049 -1.090198) (xy -2.190714 -0.871892)
    (xy -2.268438 -0.64132) (xy -2.324266 -0.39839) (xy -2.334213 -0.339501) (xy -2.345559 -0.242621)
    (xy -2.352486 -0.129217) (xy -2.354991 -0.007364) (xy -2.35307 0.114862) (xy -2.346722 0.229384)
    (xy -2.335943 0.328126) (xy -2.334469 0.337789) (xy -2.284095 0.580493) (xy -2.211559 0.813307)
    (xy -2.117667 1.034956) (xy -2.003224 1.244164) (xy -1.869035 1.439658) (xy -1.715905 1.620161)
    (xy -1.544638 1.784399) (xy -1.356041 1.931096) (xy -1.307722 1.963926) (xy -1.097975 2.088025)
    (xy -0.879554 2.189266) (xy -0.654151 2.267417) (xy -0.42346 2.322247) (xy -0.189171 2.353523)
    (xy 0.047023 2.361015) (xy 0.283431 2.34449) (xy 0.518361 2.303717) (xy 0.734803 2.243581)
    (xy 0.962539 2.155388) (xy 1.178452 2.045446) (xy 1.381155 1.914717) (xy 1.569263 1.764161)
    (xy 1.741389 1.594741) (xy 1.844939 1.473836) (xy 1.93834 1.357029) (xy 1.997116 1.399058)
    (xy 2.026126 1.419575) (xy 2.07139 1.451308) (xy 2.128479 1.491166) (xy 2.192965 1.536058)
    (xy 2.260223 1.582754) (xy 2.32278 1.626501) (xy 2.377595 1.665552) (xy 2.421541 1.697618)
    (xy 2.451487 1.72041) (xy 2.464303 1.73164) (xy 2.464555 1.732202) (xy 2.456524 1.749257)
    (xy 2.434321 1.781416) (xy 2.400782 1.825259) (xy 2.358744 1.877364) (xy 2.311043 1.934311)
    (xy 2.260514 1.992677) (xy 2.209995 2.049043) (xy 2.16232 2.099988) (xy 2.144448 2.118319)
    (xy 1.940602 2.307021) (xy 1.724123 2.474233) (xy 1.495976 2.61955) (xy 1.257126 2.74257)
    (xy 1.008539 2.842889) (xy 0.751181 2.920101) (xy 0.486016 2.973804) (xy 0.214011 3.003594)
    (xy 0.012575 3.010009) (xy -0.243699 3.001123) (xy -0.486153 2.973925) (xy -0.719254 2.927366)
    (xy -0.947468 2.860401) (xy -1.175259 2.771983) (xy -1.348534 2.690949) (xy -1.587073 2.557788)
    (xy -1.811248 2.404378) (xy -2.019904 2.231867) (xy -2.211883 2.041403) (xy -2.386027 1.834133)
    (xy -2.54118 1.611206) (xy -2.676135 1.373868) (xy -2.789227 1.126949) (xy -2.878205 0.876394)
    (xy -2.944096 0.619067) (xy -2.970293 0.477107) (xy -2.998492 0.301682) (xy -6.04193 0.30807)
    (xy -6.051432 0.396089) (xy -6.084346 0.609191) (xy -6.136827 0.829042) (xy -6.206756 1.049657)
    (xy -6.292014 1.265049) (xy -6.390482 1.469234) (xy -6.49424 1.647228) (xy -6.591951 1.78852)
    (xy -6.703809 1.931369) (xy -6.824788 2.070155) (xy -6.949861 2.199258) (xy -7.074001 2.313056)
    (xy -7.133232 2.361737) (xy -7.358571 2.52377) (xy -7.593664 2.662626) (xy -7.838465 2.778289)
    (xy -8.092929 2.870744) (xy -8.35701 2.939973) (xy -8.630664 2.985961) (xy -8.913844 3.008692)
    (xy -8.971732 3.010449) (xy -9.048547 3.011815) (xy -9.120133 3.012465) (xy -9.181259 3.012398)
    (xy -9.226699 3.011615) (xy -9.248366 3.010459) (xy -9.418838 2.991313) (xy -9.570515 2.96932)
    (xy -9.709697 2.943227) (xy -9.842687 2.911783) (xy -9.975787 2.873736) (xy -10.040544 2.853095)
    (xy -10.291003 2.757922) (xy -10.529277 2.641341) (xy -10.75432 2.504491) (xy -10.965087 2.348512)
    (xy -11.160533 2.174541) (xy -11.339612 1.983718) (xy -11.501277 1.777183) (xy -11.644485 1.556073)
    (xy -11.768188 1.321529) (xy -11.871342 1.074689) (xy -11.952901 0.816692) (xy -11.969501 0.751783)
    (xy -11.995396 0.640579) (xy -12.015476 0.540777) (xy -12.030408 0.446295) (xy -12.04086 0.351052)
    (xy -12.047499 0.248966) (xy -12.050993 0.133958) (xy -12.052008 0) (xy -12.051961 -0.006287)
    (xy -11.392277 -0.006287) (xy -11.380589 0.243496) (xy -11.345747 0.48557) (xy -11.288088 0.718899)
    (xy -11.207945 0.942444) (xy -11.105653 1.155171) (xy -10.981549 1.35604) (xy -10.928562 1.429281)
    (xy -10.776416 1.610349) (xy -10.607296 1.773641) (xy -10.422872 1.918261) (xy -10.224812 2.043313)
    (xy -10.014783 2.147901) (xy -9.794455 2.231129) (xy -9.565495 2.292102) (xy -9.329571 2.329924)
    (xy -9.235792 2.338223) (xy -9.176993 2.342248) (xy -9.125609 2.345769) (xy -9.088 2.348348)
    (xy -9.072326 2.349427) (xy -9.050981 2.349184) (xy -9.009949 2.347311) (xy -8.954617 2.344099)
    (xy -8.890374 2.339841) (xy -8.871841 2.338524) (xy -8.62738 2.309016) (xy -8.392608 2.257086)
    (xy -8.16857 2.183783) (xy -7.956314 2.090152) (xy -7.756886 1.977241) (xy -7.571332 1.846096)
    (xy -7.4007 1.697765) (xy -7.246035 1.533294) (xy -7.108384 1.35373) (xy -6.988794 1.16012)
    (xy -6.888311 0.953511) (xy -6.807981 0.734949) (xy -6.748851 0.505482) (xy -6.711969 0.266157)
    (xy -6.703799 0.169753) (xy -6.699129 -0.07928) (xy -6.717617 -0.322066) (xy -6.758571 -0.55736)
    (xy -6.8213 -0.783916) (xy -6.905113 -1.000488) (xy -7.009318 -1.205831) (xy -7.133224 -1.3987)
    (xy -7.27614 -1.577848) (xy -7.437374 -1.742031) (xy -7.616236 -1.890004) (xy -7.812033 -2.020519)
    (xy -7.966054 -2.104451) (xy -8.184917 -2.199453) (xy -8.412286 -2.271733) (xy -8.645855 -2.321274)
    (xy -8.883323 -2.348062) (xy -9.122385 -2.352081) (xy -9.360736 -2.333315) (xy -9.596074 -2.291748)
    (xy -9.826095 -2.227366) (xy -10.048494 -2.140152) (xy -10.094271 -2.118812) (xy -10.303883 -2.004752)
    (xy -10.497469 -1.871949) (xy -10.674261 -1.721652) (xy -10.833495 -1.555108) (xy -10.974402 -1.373564)
    (xy -11.096216 -1.178269) (xy -11.198171 -0.97047) (xy -11.279501 -0.751413) (xy -11.339438 -0.522348)
    (xy -11.377216 -0.284521) (xy -11.39207 -0.039179) (xy -11.392277 -0.006287) (xy -12.051961 -0.006287)
    (xy -12.050991 -0.133835) (xy -12.047509 -0.248714) (xy -12.040919 -0.350763) (xy -12.030579 -0.446106)
    (xy -12.015845 -0.540869) (xy -11.996075 -0.64118) (xy -11.974779 -0.735594) (xy -11.900651 -0.99749)
    (xy -11.804584 -1.248129) (xy -11.687615 -1.486489) (xy -11.550777 -1.711548) (xy -11.395105 -1.922281)
    (xy -11.221632 -2.117667) (xy -11.031395 -2.296684) (xy -10.825425 -2.458307) (xy -10.60476 -2.601516)
    (xy -10.370432 -2.725287) (xy -10.123476 -2.828597) (xy -9.864926 -2.910424) (xy -9.745049 -2.93997)
    (xy -9.641728 -2.962304) (xy -9.550281 -2.97959) (xy -9.464751 -2.992425) (xy -9.37918 -3.001407)
    (xy -9.287608 -3.007132) (xy -9.184078 -3.0102) (xy -9.062632 -3.011206) (xy -9.034604 -3.011212)
    (xy -8.899914 -3.009991) (xy -8.784027 -3.006137) (xy -8.680673 -2.998985) (xy -8.583585 -2.987876)
    (xy -8.486493 -2.972148) (xy -8.383129 -2.951138) (xy -8.312345 -2.934981) (xy -8.066823 -2.865442)
    (xy -7.825035 -2.774094) (xy -7.591406 -2.663026) (xy -7.370362 -2.534331) (xy -7.178007 -2.399149)
    (xy -7.086506 -2.324214) (xy -6.98803 -2.235914) (xy -6.889098 -2.140592) (xy -6.796233 -2.044595)
    (xy -6.715956 -1.95427) (xy -6.696047 -1.930148) (xy -6.544923 -1.724736) (xy -6.410609 -1.504129)
    (xy -6.294631 -1.271846) (xy -6.198516 -1.031408) (xy -6.123789 -0.786335) (xy -6.071976 -0.540146)
    (xy -6.060949 -0.465247) (xy -6.053751 -0.412554) (xy -6.04705 -0.366637) (xy -6.042012 -0.335397)
    (xy -6.041 -0.330074) (xy -6.035164 -0.301782) (xy -2.992673 -0.301782) (xy -2.992673 -0.331589)
    (xy -2.990028 -0.36406) (xy -2.982783 -0.415455) (xy -2.971976 -0.480187) (xy -2.958641 -0.552671)
    (xy -2.943815 -0.627322) (xy -2.928534 -0.698553) (xy -2.913835 -0.760779) (xy -2.91101 -0.771829)
    (xy -2.833687 -1.020275) (xy -2.733013 -1.262697) (xy -2.610485 -1.496942) (xy -2.467601 -1.720861)
    (xy -2.305857 -1.932303) (xy -2.126752 -2.129117) (xy -1.931781 -2.309152) (xy -1.734549 -2.461753)
    (xy -1.507065 -2.607438) (xy -1.268951 -2.731248) (xy -1.02197 -2.832938) (xy -0.767883 -2.912268)
    (xy -0.508455 -2.968994) (xy -0.245447 -3.002875) (xy 0.019378 -3.013667) (xy 0.284256 -3.001128)) (layer F.SilkS) (width 0.01))
  (fp_poly (pts (xy 9.174857 -3.014648) (xy 9.284024 -3.010439) (xy 9.337281 -3.006461) (xy 9.605462 -2.969918)
    (xy 9.868658 -2.910608) (xy 10.124621 -2.829446) (xy 10.371103 -2.727346) (xy 10.605855 -2.605224)
    (xy 10.82663 -2.463993) (xy 11.002476 -2.328892) (xy 11.201601 -2.14635) (xy 11.382043 -1.947388)
    (xy 11.543021 -1.733246) (xy 11.683755 -1.505162) (xy 11.803468 -1.264377) (xy 11.90138 -1.012131)
    (xy 11.964636 -0.798451) (xy 12.018398 -0.543687) (xy 12.051602 -0.281875) (xy 12.064157 -0.017474)
    (xy 12.05597 0.245057) (xy 12.02695 0.501257) (xy 11.994887 0.671311) (xy 11.923092 0.940062)
    (xy 11.829676 1.197173) (xy 11.715269 1.44171) (xy 11.580501 1.672735) (xy 11.426002 1.889311)
    (xy 11.252403 2.090501) (xy 11.060332 2.27537) (xy 10.85042 2.44298) (xy 10.761866 2.504804)
    (xy 10.530064 2.645671) (xy 10.288075 2.763787) (xy 10.035374 2.859355) (xy 9.771434 2.932574)
    (xy 9.515107 2.980834) (xy 9.450666 2.988743) (xy 9.371077 2.996003) (xy 9.281678 3.002373)
    (xy 9.187807 3.007614) (xy 9.094804 3.011484) (xy 9.008007 3.013745) (xy 8.932755 3.014155)
    (xy 8.874386 3.012474) (xy 8.852278 3.01067) (xy 8.821066 3.007233) (xy 8.772553 3.002019)
    (xy 8.714451 2.995854) (xy 8.676238 2.991837) (xy 8.427765 2.953789) (xy 8.178947 2.892397)
    (xy 7.933372 2.809154) (xy 7.694629 2.705555) (xy 7.466304 2.583096) (xy 7.251985 2.443269)
    (xy 7.123317 2.344941) (xy 7.041263 2.274354) (xy 6.951395 2.190585) (xy 6.860509 2.100408)
    (xy 6.775407 2.010595) (xy 6.702885 1.927921) (xy 6.694346 1.917575) (xy 6.547547 1.719178)
    (xy 6.416636 1.503255) (xy 6.302872 1.272735) (xy 6.207511 1.030547) (xy 6.131813 0.77962)
    (xy 6.077036 0.522882) (xy 6.066417 0.455817) (xy 6.043778 0.301782) (xy 3.713079 0.301782)
    (xy 3.418557 0.301813) (xy 3.148274 0.301908) (xy 2.90132 0.302075) (xy 2.676786 0.302318)
    (xy 2.473762 0.302645) (xy 2.291339 0.303061) (xy 2.128606 0.303573) (xy 1.984655 0.304186)
    (xy 1.858576 0.304907) (xy 1.749459 0.305742) (xy 1.656394 0.306697) (xy 1.578473 0.307778)
    (xy 1.514785 0.308992) (xy 1.464421 0.310343) (xy 1.426471 0.31184) (xy 1.400026 0.313486)
    (xy 1.384176 0.31529) (xy 1.378011 0.317256) (xy 1.37788 0.3175) (xy 1.327173 0.476421)
    (xy 1.271105 0.614878) (xy 1.207193 0.737391) (xy 1.132957 0.848478) (xy 1.045915 0.95266)
    (xy 1.006547 0.993825) (xy 0.871272 1.113268) (xy 0.723836 1.212215) (xy 0.566533 1.290661)
    (xy 0.401658 1.348604) (xy 0.231506 1.38604) (xy 0.058372 1.402966) (xy -0.11545 1.399379)
    (xy -0.287664 1.375275) (xy -0.455977 1.33065) (xy -0.618093 1.265503) (xy -0.771717 1.179829)
    (xy -0.914555 1.073625) (xy -0.997447 0.996705) (xy -1.119461 0.858261) (xy -1.218275 0.712292)
    (xy -1.295267 0.556607) (xy -1.326614 0.472636) (xy -1.375202 0.291073) (xy -1.400427 0.108158)
    (xy -1.401845 0.004344) (xy 6.70208 0.004344) (xy 6.712761 0.24759) (xy 6.745199 0.479902)
    (xy 6.79998 0.703923) (xy 6.877694 0.922297) (xy 6.934728 1.049951) (xy 7.048116 1.257535)
    (xy 7.180742 1.449778) (xy 7.331277 1.625814) (xy 7.498393 1.784775) (xy 7.680761 1.925794)
    (xy 7.877053 2.048002) (xy 8.08594 2.150533) (xy 8.306093 2.23252) (xy 8.536185 2.293094)
    (xy 8.774885 2.331388) (xy 8.915149 2.342962) (xy 8.960493 2.345526) (xy 9.000104 2.34792)
    (xy 9.015743 2.34895) (xy 9.039636 2.348885) (xy 9.082896 2.347147) (xy 9.139817 2.344021)
    (xy 9.204695 2.339792) (xy 9.219086 2.338769) (xy 9.465942 2.309097) (xy 9.702815 2.256947)
    (xy 9.928679 2.183209) (xy 10.142509 2.088772) (xy 10.343278 1.974528) (xy 10.529962 1.841366)
    (xy 10.701534 1.690176) (xy 10.85697 1.521849) (xy 10.995243 1.337274) (xy 11.115328 1.137342)
    (xy 11.216199 0.922942) (xy 11.296831 0.694965) (xy 11.348853 0.490396) (xy 11.364778 0.396023)
    (xy 11.377338 0.283696) (xy 11.386253 0.160418) (xy 11.391244 0.033195) (xy 11.392031 -0.09097)
    (xy 11.388335 -0.205073) (xy 11.380336 -0.298428) (xy 11.338179 -0.544573) (xy 11.27385 -0.779343)
    (xy 11.187746 -1.002085) (xy 11.080266 -1.212147) (xy 10.951808 -1.408874) (xy 10.802769 -1.591613)
    (xy 10.633549 -1.759712) (xy 10.444545 -1.912517) (xy 10.361188 -1.970754) (xy 10.16887 -2.084639)
    (xy 9.963132 -2.178815) (xy 9.746574 -2.252959) (xy 9.521795 -2.306745) (xy 9.291396 -2.339851)
    (xy 9.057977 -2.351952) (xy 8.824137 -2.342726) (xy 8.592478 -2.311847) (xy 8.365598 -2.258993)
    (xy 8.273862 -2.230663) (xy 8.05044 -2.143625) (xy 7.840598 -2.036014) (xy 7.645283 -1.909004)
    (xy 7.465446 -1.763769) (xy 7.302034 -1.601483) (xy 7.155996 -1.423319) (xy 7.028281 -1.230451)
    (xy 6.919836 -1.024053) (xy 6.831612 -0.805299) (xy 6.764556 -0.575363) (xy 6.719617 -0.335418)
    (xy 6.71527 -0.302112) (xy 6.710532 -0.250426) (xy 6.706549 -0.181414) (xy 6.703657 -0.102894)
    (xy 6.702192 -0.022684) (xy 6.70208 0.004344) (xy -1.401845 0.004344) (xy -1.402915 -0.073943)
    (xy -1.383295 -0.253064) (xy -1.342196 -0.427039) (xy -1.280244 -0.593704) (xy -1.198068 -0.750892)
    (xy -1.096295 -0.896437) (xy -0.975555 -1.028174) (xy -0.863789 -1.123647) (xy -0.712718 -1.223451)
    (xy -0.550818 -1.301889) (xy -0.380623 -1.358897) (xy -0.204671 -1.394412) (xy -0.025498 -1.40837)
    (xy 0.154362 -1.400708) (xy 0.332372 -1.371363) (xy 0.505996 -1.320272) (xy 0.672698 -1.247369)
    (xy 0.81104 -1.165539) (xy 0.852564 -1.134713) (xy 0.903937 -1.092358) (xy 0.957473 -1.04497)
    (xy 0.990135 -1.014209) (xy 1.098871 -0.89663) (xy 1.190296 -0.770545) (xy 1.266541 -0.632132)
    (xy 1.329734 -0.477568) (xy 1.378259 -0.3175) (xy 1.383286 -0.315514) (xy 1.397888 -0.313692)
    (xy 1.422974 -0.312027) (xy 1.459453 -0.310514) (xy 1.508236 -0.309146) (xy 1.570231 -0.307916)
    (xy 1.646348 -0.30682) (xy 1.737496 -0.30585) (xy 1.844585 -0.305002) (xy 1.968524 -0.304267)
    (xy 2.110222 -0.303641) (xy 2.270588 -0.303118) (xy 2.450533 -0.30269) (xy 2.650965 -0.302353)
    (xy 2.872794 -0.3021) (xy 3.11693 -0.301924) (xy 3.384281 -0.301821) (xy 3.675757 -0.301782)
    (xy 6.045749 -0.301782) (xy 6.054377 -0.380371) (xy 6.077423 -0.538056) (xy 6.112328 -0.707353)
    (xy 6.156755 -0.879114) (xy 6.208371 -1.04419) (xy 6.257 -1.174493) (xy 6.371297 -1.422295)
    (xy 6.505546 -1.65544) (xy 6.658707 -1.873121) (xy 6.829739 -2.074532) (xy 7.017603 -2.258866)
    (xy 7.221259 -2.425314) (xy 7.439665 -2.57307) (xy 7.671783 -2.701326) (xy 7.916573 -2.809276)
    (xy 8.172993 -2.896112) (xy 8.440005 -2.961027) (xy 8.592836 -2.987365) (xy 8.689124 -2.998626)
    (xy 8.802953 -3.007176) (xy 8.92684 -3.012825) (xy 9.053302 -3.01538) (xy 9.174857 -3.014648)) (layer F.SilkS) (width 0.01))
  (fp_poly (pts (xy -7.53198 0.301782) (xy -10.549802 0.301782) (xy -10.549802 -0.301782) (xy -7.53198 -0.301782)
    (xy -7.53198 0.301782)) (layer F.SilkS) (width 0.01))
  (fp_poly (pts (xy 9.355248 -0.301782) (xy 10.562377 -0.301782) (xy 10.562377 0.301782) (xy 9.355248 0.301782)
    (xy 9.355248 1.508911) (xy 8.751684 1.508911) (xy 8.751684 0.301782) (xy 7.544555 0.301782)
    (xy 7.544555 -0.301538) (xy 8.144976 -0.304804) (xy 8.745396 -0.308069) (xy 8.748662 -0.90849)
    (xy 8.751927 -1.508911) (xy 9.355248 -1.508911) (xy 9.355248 -0.301782)) (layer F.SilkS) (width 0.01))
)
