(module Polarity_Center_Positive_30mm_SilkScreen (layer F.Cu) (tedit 0)
  (descr "Polarity Logo, Center Positive")
  (tags "Logo Polarity Center Positive")
  (attr virtual)
  (fp_text reference REF** (at 0 0) (layer F.SilkS) hide
    (effects (font (size 1 1) (thickness 0.15)))
  )
  (fp_text value Polarity_Center_Positive_30mm_SilkScreen (at 0.75 0) (layer F.Fab) hide
    (effects (font (size 1 1) (thickness 0.15)))
  )
  (fp_poly (pts (xy 1.410801 -14.895036) (xy 2.716947 -14.71581) (xy 4.005861 -14.418384) (xy 5.023832 -14.092679)
    (xy 6.293997 -13.567626) (xy 7.506359 -12.933491) (xy 8.654916 -12.194751) (xy 9.733665 -11.355885)
    (xy 10.736601 -10.42137) (xy 11.657722 -9.395684) (xy 12.127334 -8.794258) (xy 12.293371 -8.57058)
    (xy 11.000928 -7.670917) (xy 10.644992 -7.425092) (xy 10.320784 -7.204873) (xy 10.042912 -7.019884)
    (xy 9.825982 -6.879749) (xy 9.684602 -6.794092) (xy 9.635458 -6.771253) (xy 9.563487 -6.817868)
    (xy 9.445471 -6.93998) (xy 9.309243 -7.108215) (xy 8.600105 -7.951872) (xy 7.793355 -8.732261)
    (xy 6.903911 -9.440113) (xy 5.946693 -10.06616) (xy 4.936617 -10.601134) (xy 3.888601 -11.035767)
    (xy 2.817565 -11.360789) (xy 2.271643 -11.480529) (xy 1.077183 -11.646699) (xy -0.114163 -11.692092)
    (xy -1.293917 -11.619275) (xy -2.4536 -11.430811) (xy -3.584734 -11.129267) (xy -4.678841 -10.717208)
    (xy -5.727443 -10.197198) (xy -6.722061 -9.571803) (xy -7.654218 -8.843588) (xy -8.238509 -8.300523)
    (xy -9.061248 -7.396954) (xy -9.774395 -6.433868) (xy -10.378181 -5.41081) (xy -10.872836 -4.327328)
    (xy -11.258589 -3.182964) (xy -11.535672 -1.977266) (xy -11.585039 -1.684991) (xy -11.64135 -1.204165)
    (xy -11.675729 -0.641323) (xy -11.688162 -0.03655) (xy -11.678632 0.570074) (xy -11.647125 1.138463)
    (xy -11.593625 1.628537) (xy -11.58631 1.676493) (xy -11.336296 2.881069) (xy -10.976291 4.036559)
    (xy -10.510292 5.136634) (xy -9.942295 6.174967) (xy -9.276294 7.145229) (xy -8.516286 8.041093)
    (xy -7.666266 8.856229) (xy -6.730229 9.58431) (xy -6.490418 9.74725) (xy -5.449409 10.363171)
    (xy -4.365354 10.865645) (xy -3.24665 11.25352) (xy -2.101695 11.525647) (xy -0.938885 11.680876)
    (xy 0.233382 11.718058) (xy 1.406709 11.636043) (xy 2.572698 11.433681) (xy 3.646932 11.135215)
    (xy 4.777218 10.697502) (xy 5.848825 10.151846) (xy 6.854872 9.503017) (xy 7.788478 8.755788)
    (xy 8.642762 7.914929) (xy 9.156698 7.314863) (xy 9.620261 6.735131) (xy 9.911973 6.943727)
    (xy 10.055954 7.045553) (xy 10.280604 7.20305) (xy 10.563946 7.400872) (xy 10.884002 7.623677)
    (xy 11.217813 7.855438) (xy 11.52829 8.07256) (xy 11.800349 8.266375) (xy 12.018457 8.425524)
    (xy 12.167082 8.538645) (xy 12.23069 8.594378) (xy 12.231941 8.597167) (xy 12.19208 8.681815)
    (xy 12.081884 8.841427) (xy 11.915428 9.059025) (xy 11.706787 9.31763) (xy 11.470039 9.600263)
    (xy 11.219259 9.889945) (xy 10.968523 10.169698) (xy 10.731907 10.422543) (xy 10.643202 10.513522)
    (xy 9.631488 11.450077) (xy 8.557071 12.279974) (xy 7.424743 13.001208) (xy 6.239297 13.611773)
    (xy 5.005524 14.109667) (xy 3.728217 14.492884) (xy 2.412167 14.75942) (xy 1.062168 14.907271)
    (xy 0.062407 14.939109) (xy -1.209514 14.895009) (xy -2.412851 14.760019) (xy -3.569766 14.528943)
    (xy -4.702421 14.196586) (xy -5.832982 13.757752) (xy -6.692974 13.355569) (xy -7.876875 12.694673)
    (xy -8.989491 11.933277) (xy -10.025079 11.07708) (xy -10.977896 10.131777) (xy -11.8422 9.103068)
    (xy -12.612247 7.996648) (xy -13.282046 6.818703) (xy -13.84334 5.593209) (xy -14.284949 4.349669)
    (xy -14.611977 3.072519) (xy -14.741997 2.367951) (xy -14.881952 1.497293) (xy -29.986978 1.528993)
    (xy -30.034137 1.965848) (xy -30.197495 3.023501) (xy -30.457964 4.114654) (xy -30.80503 5.209598)
    (xy -31.228177 6.278623) (xy -31.716892 7.29202) (xy -32.231856 8.17543) (xy -32.71681 8.876681)
    (xy -33.27198 9.585663) (xy -33.872415 10.27448) (xy -34.493169 10.915236) (xy -35.109293 11.480033)
    (xy -35.403267 11.721644) (xy -36.521658 12.525837) (xy -37.688458 13.215) (xy -38.903441 13.789052)
    (xy -40.166382 14.247916) (xy -41.477057 14.59151) (xy -42.835238 14.819757) (xy -44.240703 14.932575)
    (xy -44.52801 14.941293) (xy -44.909253 14.948074) (xy -45.264542 14.951299) (xy -45.567924 14.950968)
    (xy -45.793445 14.947079) (xy -45.900983 14.941344) (xy -46.747062 14.846321) (xy -47.499854 14.737165)
    (xy -48.190636 14.607662) (xy -48.850686 14.451601) (xy -49.511282 14.262767) (xy -49.832679 14.160325)
    (xy -51.075741 13.687967) (xy -52.258328 13.109359) (xy -53.375251 12.430153) (xy -54.42132 11.656002)
    (xy -55.391346 10.79256) (xy -56.280138 9.84548) (xy -57.082509 8.820414) (xy -57.793268 7.723017)
    (xy -58.407226 6.55894) (xy -58.919194 5.333837) (xy -59.323982 4.053362) (xy -59.406373 3.731205)
    (xy -59.534891 3.179285) (xy -59.634549 2.683952) (xy -59.708659 2.215024) (xy -59.760534 1.742319)
    (xy -59.793485 1.235655) (xy -59.810825 0.664852) (xy -59.815867 0) (xy -59.81563 -0.031203)
    (xy -56.541524 -0.031203) (xy -56.483513 1.208505) (xy -56.31059 2.409955) (xy -56.024417 3.567998)
    (xy -55.626656 4.677488) (xy -55.11897 5.733278) (xy -54.503022 6.730222) (xy -54.240041 7.093727)
    (xy -53.484915 7.992397) (xy -52.64555 8.802839) (xy -51.730227 9.520608) (xy -50.747225 10.141258)
    (xy -49.704823 10.660343) (xy -48.611301 11.073418) (xy -47.474939 11.376036) (xy -46.304016 11.563752)
    (xy -45.838575 11.604939) (xy -45.546747 11.624916) (xy -45.291723 11.642388) (xy -45.105066 11.655192)
    (xy -45.027273 11.660545) (xy -44.921334 11.659342) (xy -44.717685 11.650043) (xy -44.443066 11.6341)
    (xy -44.124217 11.612969) (xy -44.032238 11.606434) (xy -42.818941 11.459978) (xy -41.653731 11.202245)
    (xy -40.541799 10.838428) (xy -39.488341 10.373725) (xy -38.498551 9.813331) (xy -37.577622 9.162441)
    (xy -36.730748 8.426252) (xy -35.963124 7.609958) (xy -35.279943 6.718757) (xy -34.686399 5.757842)
    (xy -34.187686 4.732411) (xy -33.788999 3.647659) (xy -33.49553 2.508782) (xy -33.312475 1.320974)
    (xy -33.27193 0.842507) (xy -33.248753 -0.393481) (xy -33.34051 -1.598463) (xy -33.54377 -2.76626)
    (xy -33.855103 -3.890688) (xy -34.271077 -4.965567) (xy -34.788262 -5.984715) (xy -35.403226 -6.94195)
    (xy -36.112538 -7.831091) (xy -36.912768 -8.645956) (xy -37.800484 -9.380363) (xy -38.772255 -10.02813)
    (xy -39.536685 -10.444696) (xy -40.622933 -10.916206) (xy -41.751395 -11.274941) (xy -42.910636 -11.520823)
    (xy -44.089222 -11.653775) (xy -45.27572 -11.67372) (xy -46.458694 -11.58058) (xy -47.626711 -11.37428)
    (xy -48.768336 -11.054741) (xy -49.872137 -10.621887) (xy -50.099331 -10.515973) (xy -51.139667 -9.949873)
    (xy -52.100461 -9.290754) (xy -52.977909 -8.544808) (xy -53.768206 -7.718226) (xy -54.467548 -6.8172)
    (xy -55.07213 -5.847921) (xy -55.578149 -4.816582) (xy -55.981799 -3.729374) (xy -56.279276 -2.592489)
    (xy -56.466777 -1.412118) (xy -56.540496 -0.194453) (xy -56.541524 -0.031203) (xy -59.81563 -0.031203)
    (xy -59.810816 -0.664246) (xy -59.793534 -1.234407) (xy -59.760829 -1.740887) (xy -59.709511 -2.214088)
    (xy -59.636385 -2.684414) (xy -59.538261 -3.182268) (xy -59.432566 -3.650859) (xy -59.064656 -4.950688)
    (xy -58.587866 -6.194647) (xy -58.007331 -7.377663) (xy -57.328184 -8.494659) (xy -56.555559 -9.54056)
    (xy -55.694591 -10.510291) (xy -54.750412 -11.398775) (xy -53.728158 -12.200937) (xy -52.632962 -12.911703)
    (xy -51.469958 -13.525995) (xy -50.244279 -14.038739) (xy -48.96106 -14.444859) (xy -48.366094 -14.591501)
    (xy -47.853294 -14.702347) (xy -47.399432 -14.788139) (xy -46.974935 -14.85184) (xy -46.550231 -14.896417)
    (xy -46.095748 -14.924834) (xy -45.581915 -14.940058) (xy -44.979158 -14.945053) (xy -44.84005 -14.945081)
    (xy -44.171566 -14.939025) (xy -43.596401 -14.919893) (xy -43.083443 -14.8844) (xy -42.601579 -14.829264)
    (xy -42.119697 -14.7512) (xy -41.606685 -14.646925) (xy -41.255374 -14.566737) (xy -40.036815 -14.221606)
    (xy -38.836784 -13.76823) (xy -37.677249 -13.216986) (xy -36.580176 -12.578252) (xy -35.62549 -11.907323)
    (xy -35.171361 -11.535414) (xy -34.682608 -11.097164) (xy -34.191596 -10.624068) (xy -33.730693 -10.147623)
    (xy -33.332263 -9.699324) (xy -33.233452 -9.579606) (xy -32.483402 -8.560116) (xy -31.816784 -7.46521)
    (xy -31.24117 -6.312358) (xy -30.764135 -5.119029) (xy -30.393253 -3.902695) (xy -30.136097 -2.680825)
    (xy -30.081373 -2.30909) (xy -30.045648 -2.047566) (xy -30.012389 -1.819671) (xy -29.987382 -1.664623)
    (xy -29.982361 -1.638206) (xy -29.953396 -1.497788) (xy -14.853072 -1.497788) (xy -14.853072 -1.645724)
    (xy -14.839944 -1.806884) (xy -14.803989 -2.061964) (xy -14.750348 -2.383239) (xy -14.684166 -2.742989)
    (xy -14.610583 -3.113491) (xy -14.534742 -3.467021) (xy -14.461787 -3.775859) (xy -14.447766 -3.8307)
    (xy -14.064002 -5.063776) (xy -13.564342 -6.266948) (xy -12.956219 -7.429542) (xy -12.247064 -8.540885)
    (xy -11.444306 -9.590301) (xy -10.555378 -10.567117) (xy -9.58771 -11.460658) (xy -8.608818 -12.218038)
    (xy -7.479785 -12.941096) (xy -6.297992 -13.555579) (xy -5.072186 -14.060284) (xy -3.811118 -14.454009)
    (xy -2.523536 -14.735549) (xy -1.218189 -14.903703) (xy 0.096173 -14.957266) (xy 1.410801 -14.895036)) (layer F.SilkS) (width 0.01))
  (fp_poly (pts (xy 45.536144 -14.962137) (xy 46.077953 -14.941246) (xy 46.342278 -14.921504) (xy 47.673298 -14.740136)
    (xy 48.979578 -14.445772) (xy 50.249959 -14.042952) (xy 51.473284 -13.536216) (xy 52.638395 -12.930103)
    (xy 53.734134 -12.229154) (xy 54.606879 -11.558631) (xy 55.595169 -10.652648) (xy 56.490726 -9.66517)
    (xy 57.289682 -8.60235) (xy 57.98817 -7.470339) (xy 58.582322 -6.27529) (xy 59.06827 -5.023353)
    (xy 59.382219 -3.962828) (xy 59.649049 -2.6984) (xy 59.813847 -1.398987) (xy 59.876159 -0.086725)
    (xy 59.835527 1.216253) (xy 59.691496 2.487812) (xy 59.532363 3.331813) (xy 59.176031 4.665661)
    (xy 58.712392 5.941744) (xy 58.144574 7.155415) (xy 57.475702 8.302024) (xy 56.708903 9.376922)
    (xy 55.847303 10.37546) (xy 54.894029 11.292989) (xy 53.852206 12.124861) (xy 53.412697 12.431704)
    (xy 52.26223 13.130846) (xy 51.061207 13.717076) (xy 49.807015 14.19139) (xy 48.497042 14.554788)
    (xy 47.224854 14.794311) (xy 46.905025 14.833563) (xy 46.510012 14.869594) (xy 46.066311 14.901211)
    (xy 45.600418 14.927222) (xy 45.138831 14.946433) (xy 44.708045 14.957651) (xy 44.334557 14.959686)
    (xy 44.044864 14.951342) (xy 43.935135 14.942393) (xy 43.780227 14.925332) (xy 43.53945 14.899455)
    (xy 43.251079 14.868857) (xy 43.061425 14.848919) (xy 41.828215 14.660082) (xy 40.593297 14.355382)
    (xy 39.374475 13.942237) (xy 38.189556 13.428063) (xy 37.056346 12.820278) (xy 35.992651 12.126299)
    (xy 35.354054 11.638281) (xy 34.946809 11.287948) (xy 34.500777 10.872191) (xy 34.0497 10.424628)
    (xy 33.627323 9.978876) (xy 33.267388 9.568551) (xy 33.225008 9.517199) (xy 32.496424 8.532529)
    (xy 31.846695 7.460873) (xy 31.282064 6.316769) (xy 30.808776 5.114753) (xy 30.433076 3.869364)
    (xy 30.16121 2.595139) (xy 30.108505 2.262285) (xy 29.996145 1.497789) (xy 18.428546 1.497789)
    (xy 16.966791 1.49794) (xy 15.625337 1.498413) (xy 14.39967 1.499239) (xy 13.285275 1.500447)
    (xy 12.277637 1.502069) (xy 11.372243 1.504135) (xy 10.564579 1.506674) (xy 9.850128 1.509718)
    (xy 9.224378 1.513297) (xy 8.682814 1.517441) (xy 8.220922 1.522181) (xy 7.834186 1.527547)
    (xy 7.518094 1.533569) (xy 7.268129 1.540278) (xy 7.079779 1.547704) (xy 6.948528 1.555878)
    (xy 6.869862 1.564829) (xy 6.839267 1.574589) (xy 6.838616 1.575799) (xy 6.586952 2.364546)
    (xy 6.308675 3.051728) (xy 5.991472 3.659776) (xy 5.623026 4.21112) (xy 5.191024 4.72819)
    (xy 4.995638 4.932496) (xy 4.324248 5.525311) (xy 3.5925 6.016397) (xy 2.811782 6.405737)
    (xy 1.993484 6.693316) (xy 1.148996 6.879117) (xy 0.289706 6.963123) (xy -0.572997 6.945318)
    (xy -1.427722 6.825686) (xy -2.263082 6.60421) (xy -3.067686 6.280875) (xy -3.830146 5.855663)
    (xy -4.539071 5.328558) (xy -4.950474 4.946792) (xy -5.556048 4.259675) (xy -6.046478 3.53521)
    (xy -6.428598 2.762518) (xy -6.58418 2.345761) (xy -6.82533 1.444637) (xy -6.950522 0.536804)
    (xy -6.957562 0.021558) (xy 33.26339 0.021558) (xy 33.316405 1.228826) (xy 33.477397 2.381822)
    (xy 33.749286 3.493669) (xy 34.134991 4.57749) (xy 34.41806 5.211057) (xy 34.980819 6.241326)
    (xy 35.639059 7.195459) (xy 36.386186 8.069151) (xy 37.215607 8.858097) (xy 38.120727 9.557992)
    (xy 39.094952 10.164531) (xy 40.131689 10.673408) (xy 41.224343 11.080318) (xy 42.366319 11.380956)
    (xy 43.551025 11.571017) (xy 44.247174 11.628458) (xy 44.472226 11.641186) (xy 44.668819 11.653064)
    (xy 44.746437 11.658179) (xy 44.865021 11.657858) (xy 45.079726 11.64923) (xy 45.362236 11.633713)
    (xy 45.684234 11.612724) (xy 45.75566 11.60765) (xy 46.980842 11.460384) (xy 48.156476 11.201555)
    (xy 49.277471 10.835581) (xy 50.338738 10.366879) (xy 51.335186 9.799869) (xy 52.261725 9.138966)
    (xy 53.113264 8.388589) (xy 53.884713 7.553156) (xy 54.570982 6.637084) (xy 55.166982 5.644791)
    (xy 55.66762 4.580695) (xy 56.067808 3.449213) (xy 56.326002 2.433907) (xy 56.405039 1.96552)
    (xy 56.467376 1.408023) (xy 56.511622 0.796179) (xy 56.536393 0.16475) (xy 56.540299 -0.4515)
    (xy 56.521954 -1.017808) (xy 56.482253 -1.481143) (xy 56.273024 -2.702793) (xy 55.953749 -3.867991)
    (xy 55.526404 -4.973494) (xy 54.992965 -6.01606) (xy 54.355407 -6.992446) (xy 53.615708 -7.899409)
    (xy 52.775842 -8.733708) (xy 51.837786 -9.492099) (xy 51.424078 -9.781137) (xy 50.469575 -10.346368)
    (xy 49.448466 -10.813778) (xy 48.373655 -11.181761) (xy 47.258046 -11.44871) (xy 46.114542 -11.613019)
    (xy 44.956049 -11.67308) (xy 43.79547 -11.627287) (xy 42.64571 -11.474033) (xy 41.519673 -11.211711)
    (xy 41.064373 -11.071105) (xy 39.955498 -10.639121) (xy 38.91402 -10.105032) (xy 37.944648 -9.474664)
    (xy 37.052089 -8.753841) (xy 36.241051 -7.948391) (xy 35.516243 -7.064138) (xy 34.882373 -6.106908)
    (xy 34.344148 -5.082526) (xy 33.906278 -3.996819) (xy 33.573468 -2.855611) (xy 33.350429 -1.664729)
    (xy 33.328856 -1.499425) (xy 33.30534 -1.242904) (xy 33.285571 -0.900387) (xy 33.271218 -0.510679)
    (xy 33.26395 -0.112583) (xy 33.26339 0.021558) (xy -6.957562 0.021558) (xy -6.962872 -0.366988)
    (xy -6.865497 -1.255992) (xy -6.661514 -2.119459) (xy -6.354038 -2.946639) (xy -5.946186 -3.726785)
    (xy -5.441075 -4.449147) (xy -4.841821 -5.102977) (xy -4.287112 -5.576824) (xy -3.537326 -6.072166)
    (xy -2.73379 -6.461463) (xy -1.889091 -6.744402) (xy -1.015816 -6.920668) (xy -0.12655 -6.989945)
    (xy 0.76612 -6.95192) (xy 1.649608 -6.806276) (xy 2.511329 -6.5527) (xy 3.338695 -6.190876)
    (xy 4.025307 -5.784738) (xy 4.231396 -5.631746) (xy 4.48637 -5.421533) (xy 4.752075 -5.186338)
    (xy 4.914182 -5.033669) (xy 5.453855 -4.450105) (xy 5.907611 -3.824328) (xy 6.286023 -3.137365)
    (xy 6.599661 -2.370238) (xy 6.840499 -1.575798) (xy 6.865448 -1.565943) (xy 6.937918 -1.5569)
    (xy 7.062423 -1.548638) (xy 7.243477 -1.541126) (xy 7.485592 -1.534335) (xy 7.793283 -1.528234)
    (xy 8.171062 -1.522793) (xy 8.623443 -1.517981) (xy 9.15494 -1.513768) (xy 9.770066 -1.510123)
    (xy 10.473333 -1.507017) (xy 11.269256 -1.504418) (xy 12.162348 -1.502297) (xy 13.157123 -1.500623)
    (xy 14.258093 -1.499366) (xy 15.469772 -1.498495) (xy 16.796674 -1.49798) (xy 18.243311 -1.497791)
    (xy 18.433437 -1.497788) (xy 30.005926 -1.497788) (xy 30.048749 -1.887837) (xy 30.163131 -2.67045)
    (xy 30.336365 -3.510697) (xy 30.556864 -4.363173) (xy 30.813042 -5.182469) (xy 31.054394 -5.829181)
    (xy 31.621669 -7.059056) (xy 32.287967 -8.216189) (xy 33.048127 -9.296574) (xy 33.896985 -10.296206)
    (xy 34.82938 -11.211078) (xy 35.840151 -12.037184) (xy 36.924135 -12.770518) (xy 38.07617 -13.407073)
    (xy 39.291095 -13.942844) (xy 40.563747 -14.373823) (xy 41.888965 -14.696005) (xy 42.647486 -14.826728)
    (xy 43.125382 -14.882616) (xy 43.69033 -14.925054) (xy 44.305197 -14.953088) (xy 44.932847 -14.965767)
    (xy 45.536144 -14.962137)) (layer F.SilkS) (width 0.01))
  (fp_poly (pts (xy -37.38231 1.497789) (xy -52.360197 1.497789) (xy -52.360197 -1.497788) (xy -37.38231 -1.497788)
    (xy -37.38231 1.497789)) (layer F.SilkS) (width 0.01))
  (fp_poly (pts (xy 46.431449 -1.497788) (xy 52.422604 -1.497788) (xy 52.422604 1.497789) (xy 46.431449 1.497789)
    (xy 46.431449 7.488944) (xy 43.435872 7.488944) (xy 43.435872 1.497789) (xy 37.444717 1.497789)
    (xy 37.444717 -1.496578) (xy 40.424692 -1.512785) (xy 43.404668 -1.528992) (xy 43.420875 -4.508968)
    (xy 43.437082 -7.488943) (xy 46.431449 -7.488943) (xy 46.431449 -1.497788)) (layer F.SilkS) (width 0.01))
)
