(module Polarity_Center_Negative_20mm_SilkScreen (layer F.Cu) (tedit 0)
  (descr "Polarity Logo, Center Negative")
  (tags "Logo Polarity Center Negative")
  (attr virtual)
  (fp_text reference REF** (at 0 0) (layer F.SilkS) hide
    (effects (font (size 1 1) (thickness 0.15)))
  )
  (fp_text value Polarity_Center_Negative_20mm_SilkScreen (at 0.75 0) (layer F.Fab) hide
    (effects (font (size 1 1) (thickness 0.15)))
  )
  (fp_poly (pts (xy 0.941305 -9.938164) (xy 1.812783 -9.818582) (xy 2.672763 -9.620135) (xy 3.351967 -9.402821)
    (xy 4.199437 -9.052498) (xy 5.008341 -8.629395) (xy 5.774674 -8.136498) (xy 6.494429 -7.576795)
    (xy 7.163601 -6.953275) (xy 7.778185 -6.268924) (xy 8.091516 -5.867645) (xy 8.202298 -5.718404)
    (xy 7.339964 -5.118136) (xy 7.102478 -4.954119) (xy 6.886163 -4.807186) (xy 6.700763 -4.683759)
    (xy 6.556024 -4.590259) (xy 6.461694 -4.533107) (xy 6.428904 -4.517869) (xy 6.380884 -4.548971)
    (xy 6.302142 -4.630446) (xy 6.211249 -4.742695) (xy 5.738103 -5.305593) (xy 5.199829 -5.826279)
    (xy 4.60638 -6.298567) (xy 3.967711 -6.716274) (xy 3.293775 -7.073216) (xy 2.594526 -7.363208)
    (xy 1.879916 -7.580068) (xy 1.51567 -7.65996) (xy 0.71871 -7.770831) (xy -0.076171 -7.801118)
    (xy -0.863318 -7.752533) (xy -1.637074 -7.626788) (xy -2.391782 -7.425593) (xy -3.121784 -7.150662)
    (xy -3.821425 -6.803704) (xy -4.485048 -6.386433) (xy -5.106995 -5.900558) (xy -5.496842 -5.538218)
    (xy -6.045783 -4.935345) (xy -6.521605 -4.292761) (xy -6.924459 -3.610164) (xy -7.254499 -2.88725)
    (xy -7.511879 -2.123716) (xy -7.696752 -1.319258) (xy -7.72969 -1.124248) (xy -7.767262 -0.803435)
    (xy -7.7902 -0.427899) (xy -7.798495 -0.024387) (xy -7.792136 0.38036) (xy -7.771114 0.759598)
    (xy -7.735419 1.086581) (xy -7.730538 1.118578) (xy -7.563725 1.922287) (xy -7.323525 2.693245)
    (xy -7.012605 3.42723) (xy -6.633629 4.120019) (xy -6.189265 4.767391) (xy -5.682178 5.365122)
    (xy -5.115033 5.908992) (xy -4.490497 6.394777) (xy -4.330492 6.503493) (xy -3.635917 6.914444)
    (xy -2.912622 7.2497) (xy -2.166208 7.508496) (xy -1.402278 7.690062) (xy -0.626436 7.793633)
    (xy 0.155715 7.818442) (xy 0.938574 7.76372) (xy 1.716538 7.628702) (xy 2.433281 7.429561)
    (xy 3.187422 7.137513) (xy 3.902413 6.773444) (xy 4.57366 6.340538) (xy 5.196575 5.841976)
    (xy 5.766564 5.280944) (xy 6.109469 4.880572) (xy 6.418764 4.493767) (xy 6.613398 4.632945)
    (xy 6.709465 4.700885) (xy 6.859354 4.805969) (xy 7.048403 4.937959) (xy 7.261949 5.086617)
    (xy 7.484672 5.241251) (xy 7.691826 5.386118) (xy 7.873347 5.515434) (xy 8.018872 5.62162)
    (xy 8.118037 5.697096) (xy 8.160477 5.734281) (xy 8.161311 5.736142) (xy 8.134716 5.792621)
    (xy 8.061191 5.899116) (xy 7.95013 6.0443) (xy 7.810922 6.216845) (xy 7.65296 6.405421)
    (xy 7.485636 6.598701) (xy 7.318342 6.785356) (xy 7.160469 6.954057) (xy 7.101284 7.014759)
    (xy 6.426255 7.639642) (xy 5.70939 8.19336) (xy 4.953886 8.674576) (xy 4.162941 9.081953)
    (xy 3.339751 9.414155) (xy 2.487515 9.669842) (xy 1.60943 9.847678) (xy 0.708692 9.946327)
    (xy 0.041639 9.967569) (xy -0.807004 9.938145) (xy -1.609886 9.848078) (xy -2.381795 9.693901)
    (xy -3.137517 9.472148) (xy -3.891842 9.179352) (xy -4.46564 8.911011) (xy -5.255554 8.470052)
    (xy -5.997906 7.962039) (xy -6.688864 7.390773) (xy -7.324596 6.760054) (xy -7.901271 6.073686)
    (xy -8.415056 5.335468) (xy -8.861955 4.549528) (xy -9.236458 3.731862) (xy -9.531105 2.902156)
    (xy -9.749303 2.050025) (xy -9.836054 1.579928) (xy -9.929434 0.999013) (xy -14.968569 1.009589)
    (xy -20.007705 1.020164) (xy -20.03917 1.311639) (xy -20.148165 2.017319) (xy -20.321953 2.745351)
    (xy -20.55352 3.475912) (xy -20.83585 4.189179) (xy -21.161926 4.865331) (xy -21.505517 5.454754)
    (xy -21.829085 5.922638) (xy -22.199501 6.39568) (xy -22.60012 6.855268) (xy -23.014295 7.282788)
    (xy -23.425381 7.659628) (xy -23.621524 7.820835) (xy -24.367729 8.357403) (xy -25.146233 8.817221)
    (xy -25.956886 9.200236) (xy -26.799537 9.506396) (xy -27.674036 9.735647) (xy -28.580233 9.887936)
    (xy -29.517977 9.96321) (xy -29.709672 9.969026) (xy -29.964043 9.973551) (xy -30.201096 9.975703)
    (xy -30.403517 9.975482) (xy -30.553987 9.972887) (xy -30.625738 9.969061) (xy -31.190253 9.90566)
    (xy -31.692526 9.832829) (xy -32.153425 9.746424) (xy -32.593819 9.642298) (xy -33.034576 9.516305)
    (xy -33.249017 9.447955) (xy -34.078404 9.132791) (xy -34.867442 8.746736) (xy -35.612668 8.293561)
    (xy -36.310619 7.777037) (xy -36.957832 7.200937) (xy -37.550847 6.569033) (xy -38.086199 5.885096)
    (xy -38.560427 5.152898) (xy -38.970067 4.37621) (xy -39.311659 3.558806) (xy -39.581739 2.704456)
    (xy -39.636711 2.489509) (xy -39.72246 2.121261) (xy -39.788954 1.790768) (xy -39.838401 1.477893)
    (xy -39.873012 1.162498) (xy -39.894997 0.824445) (xy -39.906567 0.443598) (xy -39.909931 0)
    (xy -39.909773 -0.02082) (xy -37.725246 -0.02082) (xy -37.686541 0.80633) (xy -37.571164 1.607953)
    (xy -37.380226 2.380615) (xy -37.114835 3.120881) (xy -36.7761 3.825318) (xy -36.365131 4.490492)
    (xy -36.189666 4.733027) (xy -35.685837 5.332632) (xy -35.125802 5.873369) (xy -34.515086 6.352274)
    (xy -33.859214 6.76638) (xy -33.16371 7.11272) (xy -32.434098 7.388329) (xy -31.675902 7.59024)
    (xy -30.894647 7.715487) (xy -30.584099 7.742967) (xy -30.389387 7.756296) (xy -30.219232 7.767954)
    (xy -30.094692 7.776497) (xy -30.042787 7.780068) (xy -29.972103 7.779266) (xy -29.836226 7.773061)
    (xy -29.652996 7.762424) (xy -29.440256 7.748325) (xy -29.378887 7.743965) (xy -28.569359 7.646248)
    (xy -27.791915 7.474284) (xy -27.05002 7.231541) (xy -26.347139 6.921485) (xy -25.686738 6.547583)
    (xy -25.072282 6.113301) (xy -24.507237 5.622105) (xy -23.995068 5.077464) (xy -23.53924 4.482842)
    (xy -23.14322 3.841708) (xy -22.810473 3.157527) (xy -22.544463 2.433766) (xy -22.348657 1.673892)
    (xy -22.22652 0.881371) (xy -22.199468 0.562131) (xy -22.184004 -0.262536) (xy -22.245226 -1.066516)
    (xy -22.380844 -1.845685) (xy -22.588569 -2.595918) (xy -22.866112 -3.313092) (xy -23.211185 -3.993081)
    (xy -23.621497 -4.63176) (xy -24.094759 -5.225007) (xy -24.628683 -5.768695) (xy -25.220979 -6.258701)
    (xy -25.869357 -6.6909) (xy -26.379395 -6.968838) (xy -27.104154 -7.283436) (xy -27.857079 -7.522788)
    (xy -28.630539 -7.686844) (xy -29.416908 -7.775551) (xy -30.208554 -7.788859) (xy -30.99785 -7.726715)
    (xy -31.777166 -7.589069) (xy -32.538874 -7.375868) (xy -33.275344 -7.087062) (xy -33.426931 -7.016395)
    (xy -34.121057 -6.638686) (xy -34.762111 -6.198913) (xy -35.347556 -5.701208) (xy -35.874852 -5.149702)
    (xy -36.341462 -4.548525) (xy -36.744848 -3.90181) (xy -37.08247 -3.213687) (xy -37.35179 -2.488288)
    (xy -37.550271 -1.729743) (xy -37.675374 -0.942184) (xy -37.72456 -0.129742) (xy -37.725246 -0.02082)
    (xy -39.909773 -0.02082) (xy -39.906561 -0.443194) (xy -39.89503 -0.823613) (xy -39.873209 -1.161543)
    (xy -39.838969 -1.477269) (xy -39.790178 -1.791076) (xy -39.724709 -2.123251) (xy -39.654188 -2.435902)
    (xy -39.408713 -3.303164) (xy -39.090593 -4.13315) (xy -38.703252 -4.922474) (xy -38.250116 -5.667748)
    (xy -37.734611 -6.365587) (xy -37.160161 -7.012604) (xy -36.530193 -7.605412) (xy -35.848132 -8.140626)
    (xy -35.117403 -8.614857) (xy -34.341431 -9.024721) (xy -33.523642 -9.366831) (xy -32.667461 -9.6378)
    (xy -32.270492 -9.735641) (xy -31.928346 -9.809599) (xy -31.625523 -9.86684) (xy -31.342293 -9.909343)
    (xy -31.058925 -9.939085) (xy -30.755688 -9.958045) (xy -30.412851 -9.968203) (xy -30.010684 -9.971535)
    (xy -29.917869 -9.971554) (xy -29.471848 -9.967514) (xy -29.08809 -9.954748) (xy -28.745838 -9.931067)
    (xy -28.424332 -9.89428) (xy -28.102814 -9.842195) (xy -27.760526 -9.772621) (xy -27.526127 -9.719118)
    (xy -26.713088 -9.488842) (xy -25.912412 -9.186344) (xy -25.138755 -8.818547) (xy -24.406774 -8.392375)
    (xy -23.769794 -7.944722) (xy -23.466794 -7.69658) (xy -23.140691 -7.404174) (xy -22.813082 -7.088518)
    (xy -22.505561 -6.770627) (xy -22.239723 -6.471517) (xy -22.173795 -6.391639) (xy -21.673352 -5.711422)
    (xy -21.228575 -4.980886) (xy -20.844518 -4.211688) (xy -20.526234 -3.415484) (xy -20.278777 -2.603929)
    (xy -20.1072 -1.788682) (xy -20.070686 -1.540656) (xy -20.04685 -1.366163) (xy -20.024659 -1.214109)
    (xy -20.007975 -1.110659) (xy -20.004624 -1.093033) (xy -19.985299 -0.999344) (xy -9.910164 -0.999344)
    (xy -9.910164 -1.098049) (xy -9.901405 -1.205577) (xy -9.877415 -1.375769) (xy -9.841626 -1.590129)
    (xy -9.797468 -1.830158) (xy -9.748373 -2.077362) (xy -9.697771 -2.313242) (xy -9.649094 -2.519303)
    (xy -9.639739 -2.555894) (xy -9.383686 -3.378618) (xy -9.050307 -4.18139) (xy -8.64456 -4.957088)
    (xy -8.171402 -5.698591) (xy -7.635791 -6.398775) (xy -7.042687 -7.050519) (xy -6.397046 -7.646702)
    (xy -5.743916 -8.152035) (xy -4.990611 -8.634469) (xy -4.202103 -9.04446) (xy -3.384229 -9.381206)
    (xy -2.542828 -9.643904) (xy -1.683736 -9.831752) (xy -0.812792 -9.943946) (xy 0.064168 -9.979684)
    (xy 0.941305 -9.938164)) (layer F.SilkS) (width 0.01))
  (fp_poly (pts (xy 30.382312 -9.982934) (xy 30.743815 -9.968995) (xy 30.920175 -9.955824) (xy 31.80825 -9.834813)
    (xy 32.679817 -9.638409) (xy 33.527432 -9.369642) (xy 34.34365 -9.031541) (xy 35.121027 -8.627135)
    (xy 35.852119 -8.159452) (xy 36.434426 -7.71207) (xy 37.093826 -7.107586) (xy 37.691353 -6.448729)
    (xy 38.224427 -5.739601) (xy 38.690467 -4.984309) (xy 39.086893 -4.186956) (xy 39.411125 -3.351647)
    (xy 39.620595 -2.644051) (xy 39.798628 -1.800408) (xy 39.908583 -0.933423) (xy 39.950158 -0.057864)
    (xy 39.923048 0.811499) (xy 39.826949 1.6599) (xy 39.720773 2.223029) (xy 39.483024 3.11299)
    (xy 39.173678 3.96441) (xy 38.794822 4.774187) (xy 38.348542 5.539219) (xy 37.836924 6.256405)
    (xy 37.262053 6.922643) (xy 36.626016 7.53483) (xy 35.930898 8.089866) (xy 35.637652 8.294596)
    (xy 34.870045 8.761072) (xy 34.068707 9.152213) (xy 33.231894 9.468682) (xy 32.357862 9.711145)
    (xy 31.509042 9.870958) (xy 31.295648 9.897148) (xy 31.03209 9.921188) (xy 30.736047 9.942283)
    (xy 30.425197 9.959638) (xy 30.11722 9.972456) (xy 29.829794 9.979941) (xy 29.580598 9.981298)
    (xy 29.387311 9.975731) (xy 29.314098 9.96976) (xy 29.210741 9.958377) (xy 29.050092 9.941111)
    (xy 28.857687 9.920696) (xy 28.731147 9.907393) (xy 27.908334 9.781399) (xy 27.08438 9.578099)
    (xy 26.271166 9.302443) (xy 25.480572 8.959379) (xy 24.72448 8.553857) (xy 24.014769 8.090826)
    (xy 23.588688 7.765213) (xy 23.316969 7.531467) (xy 23.019371 7.254068) (xy 22.718407 6.955449)
    (xy 22.436591 6.658037) (xy 22.196438 6.384262) (xy 22.168161 6.35) (xy 21.68204 5.693015)
    (xy 21.248532 4.977992) (xy 20.871803 4.214631) (xy 20.556019 3.41263) (xy 20.305348 2.58169)
    (xy 20.123955 1.73151) (xy 20.088789 1.509426) (xy 20.013821 0.999344) (xy 12.295767 0.999344)
    (xy 11.320465 0.999445) (xy 10.42543 0.999761) (xy 9.607648 1.000312) (xy 8.864109 1.001118)
    (xy 8.191801 1.0022) (xy 7.58771 1.003578) (xy 7.048825 1.005273) (xy 6.572135 1.007304)
    (xy 6.154626 1.009692) (xy 5.793288 1.012457) (xy 5.485107 1.015619) (xy 5.227072 1.019199)
    (xy 5.016171 1.023217) (xy 4.849391 1.027693) (xy 4.723721 1.032648) (xy 4.636149 1.038102)
    (xy 4.583662 1.044074) (xy 4.563248 1.050586) (xy 4.562814 1.051394) (xy 4.3949 1.577656)
    (xy 4.209231 2.036153) (xy 3.997588 2.441851) (xy 3.751757 2.809714) (xy 3.463519 3.15471)
    (xy 3.333155 3.291026) (xy 2.885195 3.686559) (xy 2.396963 4.014218) (xy 1.876058 4.273992)
    (xy 1.330079 4.465868) (xy 0.766625 4.589837) (xy 0.193295 4.645887) (xy -0.382311 4.634007)
    (xy -0.952595 4.554187) (xy -1.509958 4.406415) (xy -2.0468 4.190682) (xy -2.555523 3.906975)
    (xy -3.028528 3.555283) (xy -3.303021 3.300565) (xy -3.707068 2.842111) (xy -4.03429 2.358738)
    (xy -4.289245 1.843188) (xy -4.393052 1.565122) (xy -4.55395 0.96388) (xy -4.63748 0.358163)
    (xy -4.642177 0.014384) (xy 22.19377 0.014384) (xy 22.229143 0.819888) (xy 22.336559 1.589183)
    (xy 22.517966 2.331022) (xy 22.775314 3.054161) (xy 22.964181 3.476885) (xy 23.339661 4.164294)
    (xy 23.778847 4.800904) (xy 24.277341 5.383843) (xy 24.830741 5.910238) (xy 25.434649 6.377218)
    (xy 26.084665 6.781908) (xy 26.776389 7.121438) (xy 27.505422 7.392933) (xy 28.267364 7.593523)
    (xy 29.057815 7.720334) (xy 29.522295 7.758659) (xy 29.672452 7.767152) (xy 29.803622 7.775077)
    (xy 29.855409 7.778489) (xy 29.93453 7.778275) (xy 30.077784 7.772519) (xy 30.266278 7.762166)
    (xy 30.48112 7.748162) (xy 30.528776 7.744776) (xy 31.346234 7.646518) (xy 32.130632 7.473824)
    (xy 32.878575 7.229641) (xy 33.586666 6.916918) (xy 34.251509 6.538601) (xy 34.869708 6.097638)
    (xy 35.437866 5.596976) (xy 35.952587 5.039564) (xy 36.410475 4.428349) (xy 36.808134 3.766278)
    (xy 37.142166 3.056299) (xy 37.409177 2.30136) (xy 37.581447 1.623935) (xy 37.634182 1.31142)
    (xy 37.675773 0.939451) (xy 37.705296 0.531221) (xy 37.721823 0.109923) (xy 37.724429 -0.301247)
    (xy 37.712189 -0.679095) (xy 37.6857 -0.988238) (xy 37.5461 -1.803339) (xy 37.333075 -2.580775)
    (xy 37.047945 -3.318381) (xy 36.692027 -4.013994) (xy 36.266641 -4.665452) (xy 35.773103 -5.27059)
    (xy 35.212734 -5.827245) (xy 34.586851 -6.333253) (xy 34.310819 -6.526103) (xy 33.673963 -6.903232)
    (xy 32.992665 -7.215095) (xy 32.275537 -7.460618) (xy 31.531188 -7.63873) (xy 30.768227 -7.748359)
    (xy 29.995265 -7.788433) (xy 29.220912 -7.757879) (xy 28.453777 -7.655626) (xy 27.70247 -7.480601)
    (xy 27.398688 -7.386787) (xy 26.658832 -7.098562) (xy 25.963945 -6.74221) (xy 25.317167 -6.32162)
    (xy 24.721639 -5.840678) (xy 24.180505 -5.303271) (xy 23.696903 -4.713286) (xy 23.273977 -4.074609)
    (xy 22.914866 -3.391128) (xy 22.622713 -2.66673) (xy 22.400658 -1.905301) (xy 22.251844 -1.110729)
    (xy 22.23745 -1.000437) (xy 22.22176 -0.829282) (xy 22.208569 -0.60075) (xy 22.198993 -0.340732)
    (xy 22.194144 -0.075117) (xy 22.19377 0.014384) (xy -4.642177 0.014384) (xy -4.64572 -0.24486)
    (xy -4.58075 -0.838015) (xy -4.444649 -1.414131) (xy -4.239497 -1.966037) (xy -3.967373 -2.48656)
    (xy -3.630357 -2.968529) (xy -3.230527 -3.404773) (xy -2.860418 -3.72093) (xy -2.36015 -4.051429)
    (xy -1.82402 -4.311173) (xy -1.260427 -4.499954) (xy -0.677766 -4.617561) (xy -0.084436 -4.663783)
    (xy 0.511165 -4.638412) (xy 1.10064 -4.541237) (xy 1.675591 -4.372048) (xy 2.227621 -4.130634)
    (xy 2.685737 -3.859653) (xy 2.823243 -3.757575) (xy 2.993365 -3.617318) (xy 3.170647 -3.460393)
    (xy 3.278807 -3.35853) (xy 3.638883 -2.969168) (xy 3.941636 -2.551642) (xy 4.194117 -2.093291)
    (xy 4.403381 -1.581454) (xy 4.564071 -1.051393) (xy 4.580717 -1.044818) (xy 4.62907 -1.038784)
    (xy 4.712141 -1.033272) (xy 4.832943 -1.02826) (xy 4.994485 -1.023729) (xy 5.199781 -1.019658)
    (xy 5.45184 -1.016028) (xy 5.753675 -1.012817) (xy 6.108296 -1.010006) (xy 6.518716 -1.007574)
    (xy 6.987945 -1.005502) (xy 7.518995 -1.003768) (xy 8.114878 -1.002353) (xy 8.778605 -1.001236)
    (xy 9.513186 -1.000397) (xy 10.321635 -0.999816) (xy 11.206961 -0.999472) (xy 12.172176 -0.999346)
    (xy 12.299031 -0.999344) (xy 20.020347 -0.999344) (xy 20.048919 -1.25959) (xy 20.125237 -1.781759)
    (xy 20.240821 -2.342384) (xy 20.38794 -2.911166) (xy 20.558866 -3.457812) (xy 20.719899 -3.889306)
    (xy 21.098392 -4.709895) (xy 21.542955 -5.481949) (xy 22.050143 -6.202796) (xy 22.616513 -6.869764)
    (xy 23.238619 -7.480179) (xy 23.913019 -8.031368) (xy 24.636267 -8.520657) (xy 25.40492 -8.945375)
    (xy 26.215534 -9.302848) (xy 27.064664 -9.590404) (xy 27.948867 -9.805368) (xy 28.454962 -9.892587)
    (xy 28.77382 -9.929877) (xy 29.150761 -9.958192) (xy 29.561009 -9.976897) (xy 29.979785 -9.985356)
    (xy 30.382312 -9.982934)) (layer F.SilkS) (width 0.01))
  (fp_poly (pts (xy -28.939345 -0.999344) (xy -24.941968 -0.999344) (xy -24.941968 0.999344) (xy -28.939345 0.999344)
    (xy -28.939345 4.996721) (xy -30.938033 4.996721) (xy -30.938033 0.999344) (xy -34.93541 0.999344)
    (xy -34.93541 -0.999344) (xy -30.938033 -0.999344) (xy -30.938033 -4.996721) (xy -28.939345 -4.996721)
    (xy -28.939345 -0.999344)) (layer F.SilkS) (width 0.01))
  (fp_poly (pts (xy 34.977049 0.999344) (xy 24.983606 0.999344) (xy 24.983606 -0.999344) (xy 34.977049 -0.999344)
    (xy 34.977049 0.999344)) (layer F.SilkS) (width 0.01))
)
