(module RoHS-Logo_30mm_SilkScreen (layer F.Cu) (tedit 0)
  (descr "Restriction of Hazardous Substances Directive Logo")
  (tags "Logo RoHS")
  (attr virtual)
  (fp_text reference REF** (at 0 0) (layer F.SilkS) hide
    (effects (font (size 1 1) (thickness 0.15)))
  )
  (fp_text value RoHS-Logo_30mm_SilkScreen (at 0.75 0) (layer F.Fab) hide
    (effects (font (size 1 1) (thickness 0.15)))
  )
  (fp_poly (pts (xy -13.833929 -6.849305) (xy -13.076836 -6.844097) (xy -12.493415 -6.829273) (xy -12.030595 -6.7997)
    (xy -11.635306 -6.750243) (xy -11.254478 -6.675767) (xy -10.83504 -6.571139) (xy -10.765112 -6.552418)
    (xy -9.314344 -6.048748) (xy -7.976542 -5.355107) (xy -6.766627 -4.483933) (xy -5.699521 -3.447663)
    (xy -4.790144 -2.258733) (xy -4.075319 -0.976612) (xy -3.659842 0.043003) (xy -3.366656 1.089814)
    (xy -3.181258 2.22798) (xy -3.095715 3.356972) (xy -3.110266 5.026115) (xy -3.308667 6.568457)
    (xy -3.695129 7.995624) (xy -4.273866 9.319245) (xy -5.049092 10.550947) (xy -6.02502 11.702358)
    (xy -6.17478 11.854685) (xy -7.281473 12.832501) (xy -8.454442 13.608233) (xy -9.732651 14.204931)
    (xy -10.678618 14.519269) (xy -11.269975 14.648312) (xy -12.01869 14.752368) (xy -12.856241 14.826694)
    (xy -13.714106 14.86655) (xy -14.523763 14.867192) (xy -15.16231 14.829559) (xy -16.345734 14.634493)
    (xy -17.565883 14.293919) (xy -18.762411 13.832131) (xy -19.874976 13.273425) (xy -20.843231 12.642096)
    (xy -21.100682 12.438736) (xy -22.069008 11.489191) (xy -22.892803 10.37519) (xy -23.563467 9.113808)
    (xy -24.072404 7.722119) (xy -24.411015 6.217198) (xy -24.480548 5.726339) (xy -24.593341 4.009629)
    (xy -24.591098 3.96875) (xy -18.848991 3.96875) (xy -18.780352 5.319866) (xy -18.561566 6.506202)
    (xy -18.188893 7.536171) (xy -17.65859 8.418191) (xy -16.966917 9.160676) (xy -16.328444 9.638474)
    (xy -15.797465 9.94511) (xy -15.298012 10.144413) (xy -14.759003 10.253626) (xy -14.109354 10.289988)
    (xy -13.66384 10.28477) (xy -13.080444 10.2586) (xy -12.648393 10.208308) (xy -12.292474 10.119932)
    (xy -11.937472 9.979514) (xy -11.881523 9.953965) (xy -11.210053 9.554869) (xy -10.551404 9.006097)
    (xy -9.981922 8.375679) (xy -9.765223 8.068084) (xy -9.383524 7.309135) (xy -9.087763 6.391631)
    (xy -8.88794 5.370713) (xy -8.794056 4.301519) (xy -8.816113 3.23919) (xy -8.841557 2.975458)
    (xy -9.026649 1.826456) (xy -9.307956 0.85621) (xy -9.69906 0.03228) (xy -10.213541 -0.677772)
    (xy -10.495513 -0.975226) (xy -11.299512 -1.613769) (xy -12.183262 -2.056751) (xy -13.116967 -2.304179)
    (xy -14.070827 -2.35606) (xy -15.015045 -2.212402) (xy -15.919824 -1.873212) (xy -16.755365 -1.338498)
    (xy -17.162173 -0.973588) (xy -17.783078 -0.235044) (xy -18.253358 0.594288) (xy -18.581815 1.540196)
    (xy -18.77725 2.62847) (xy -18.848467 3.884899) (xy -18.848991 3.96875) (xy -24.591098 3.96875)
    (xy -24.50353 2.373355) (xy -24.213751 0.825655) (xy -23.726643 -0.625335) (xy -23.044841 -1.971478)
    (xy -22.170984 -3.204636) (xy -21.276786 -4.160164) (xy -20.191554 -5.036802) (xy -18.951366 -5.770548)
    (xy -17.591462 -6.342026) (xy -16.942393 -6.543151) (xy -16.509342 -6.658158) (xy -16.136288 -6.740687)
    (xy -15.770585 -6.795924) (xy -15.35959 -6.829055) (xy -14.850658 -6.845263) (xy -14.191145 -6.849734)
    (xy -13.833929 -6.849305)) (layer F.SilkS) (width 0.01))
  (fp_poly (pts (xy 42.433162 -14.775063) (xy 43.579781 -14.637513) (xy 44.629975 -14.415315) (xy 45.624169 -14.101444)
    (xy 46.602788 -13.688869) (xy 46.818531 -13.584886) (xy 47.986541 -12.893433) (xy 48.986874 -12.050234)
    (xy 49.821659 -11.052822) (xy 50.493027 -9.898728) (xy 50.926636 -8.823186) (xy 51.109992 -8.183225)
    (xy 51.253475 -7.50702) (xy 51.328335 -6.946648) (xy 51.396205 -6.066518) (xy 51.069754 -6.06037)
    (xy 50.864614 -6.054665) (xy 50.469955 -6.042072) (xy 49.922897 -6.023838) (xy 49.260562 -6.001208)
    (xy 48.520071 -5.975429) (xy 48.135267 -5.961859) (xy 45.527232 -5.869497) (xy 45.32091 -6.671331)
    (xy 44.972939 -7.635025) (xy 44.468706 -8.440106) (xy 43.814352 -9.079768) (xy 43.016021 -9.547204)
    (xy 42.579017 -9.709796) (xy 42.054112 -9.825023) (xy 41.374322 -9.904724) (xy 40.609037 -9.947019)
    (xy 39.827648 -9.950028) (xy 39.099547 -9.911872) (xy 38.494122 -9.830672) (xy 38.450129 -9.821637)
    (xy 37.569174 -9.568284) (xy 36.801656 -9.215694) (xy 36.181275 -8.784101) (xy 35.741733 -8.293738)
    (xy 35.65193 -8.141569) (xy 35.53727 -7.759877) (xy 35.497655 -7.262708) (xy 35.533451 -6.74872)
    (xy 35.645023 -6.316574) (xy 35.645163 -6.316239) (xy 35.824838 -6.019466) (xy 36.101813 -5.693367)
    (xy 36.237035 -5.564422) (xy 36.534369 -5.328839) (xy 36.881072 -5.108555) (xy 37.299469 -4.895497)
    (xy 37.811887 -4.68159) (xy 38.440652 -4.458761) (xy 39.20809 -4.218937) (xy 40.136527 -3.954042)
    (xy 41.248289 -3.656004) (xy 42.182142 -3.414485) (xy 43.751371 -2.993515) (xy 45.115894 -2.582084)
    (xy 46.29689 -2.169512) (xy 47.315535 -1.745115) (xy 48.193007 -1.298213) (xy 48.950484 -0.818124)
    (xy 49.609142 -0.294166) (xy 50.190158 0.284342) (xy 50.668235 0.865832) (xy 51.212538 1.72734)
    (xy 51.6626 2.713989) (xy 51.976989 3.730368) (xy 52.037028 4.017924) (xy 52.125264 4.725546)
    (xy 52.162741 5.553429) (xy 52.151316 6.423364) (xy 52.092849 7.257147) (xy 51.989195 7.976572)
    (xy 51.937502 8.207007) (xy 51.615395 9.163607) (xy 51.145554 10.151069) (xy 50.573168 11.081036)
    (xy 50.241518 11.523067) (xy 49.365347 12.42704) (xy 48.310659 13.200831) (xy 47.087972 13.83954)
    (xy 45.707807 14.338269) (xy 44.180684 14.69212) (xy 43.113186 14.842224) (xy 42.232161 14.911637)
    (xy 41.250111 14.946529) (xy 40.238063 14.94752) (xy 39.267045 14.915229) (xy 38.408084 14.850276)
    (xy 37.986607 14.797489) (xy 36.436706 14.493699) (xy 35.064405 14.072256) (xy 33.847309 13.52243)
    (xy 32.763021 12.833491) (xy 31.789145 11.994712) (xy 31.490202 11.685391) (xy 30.757895 10.757629)
    (xy 30.107848 9.663724) (xy 29.563147 8.456461) (xy 29.146875 7.188626) (xy 28.882116 5.913003)
    (xy 28.847034 5.641294) (xy 28.810457 5.275506) (xy 28.818781 5.080806) (xy 28.888134 5.003328)
    (xy 29.034643 4.989208) (xy 29.042273 4.9892) (xy 29.234188 4.97851) (xy 29.613146 4.948731)
    (xy 30.140515 4.90322) (xy 30.777665 4.84533) (xy 31.485966 4.778417) (xy 31.636607 4.763874)
    (xy 32.506482 4.679395) (xy 33.177121 4.616067) (xy 33.675154 4.574662) (xy 34.027213 4.555948)
    (xy 34.259929 4.560693) (xy 34.399934 4.589668) (xy 34.473858 4.643642) (xy 34.508333 4.723382)
    (xy 34.529989 4.82966) (xy 34.533694 4.847544) (xy 34.689513 5.423759) (xy 34.919168 6.088156)
    (xy 35.187481 6.750072) (xy 35.459271 7.318846) (xy 35.566216 7.508509) (xy 36.184409 8.319591)
    (xy 36.962084 8.972373) (xy 37.893935 9.464366) (xy 38.974658 9.793079) (xy 40.198946 9.956023)
    (xy 40.821428 9.974633) (xy 42.085909 9.901545) (xy 43.186641 9.679945) (xy 44.134247 9.30633)
    (xy 44.939344 8.777199) (xy 45.221545 8.523485) (xy 45.784483 7.846161) (xy 46.153298 7.122662)
    (xy 46.325079 6.380429) (xy 46.296914 5.646902) (xy 46.06589 4.949521) (xy 45.663948 4.354624)
    (xy 45.411088 4.096826) (xy 45.116096 3.860611) (xy 44.758148 3.638096) (xy 44.316422 3.421399)
    (xy 43.770096 3.202636) (xy 43.098345 2.973925) (xy 42.280349 2.727384) (xy 41.295284 2.45513)
    (xy 40.122327 2.14928) (xy 39.268338 1.933497) (xy 37.507369 1.447946) (xy 35.960527 0.927046)
    (xy 34.630579 0.371929) (xy 33.520295 -0.216277) (xy 32.790936 -0.710787) (xy 31.847894 -1.571455)
    (xy 31.078921 -2.558073) (xy 30.489168 -3.645271) (xy 30.083785 -4.807675) (xy 29.867923 -6.019913)
    (xy 29.846733 -7.256615) (xy 30.025366 -8.492409) (xy 30.408973 -9.701921) (xy 30.800354 -10.516003)
    (xy 31.424424 -11.434617) (xy 32.227645 -12.292484) (xy 33.163296 -13.049179) (xy 34.184654 -13.664276)
    (xy 34.723605 -13.910475) (xy 35.556772 -14.221907) (xy 36.35951 -14.456591) (xy 37.189256 -14.625099)
    (xy 38.103446 -14.738002) (xy 39.159518 -14.805871) (xy 39.688959 -14.824331) (xy 41.149696 -14.834993)
    (xy 42.433162 -14.775063)) (layer F.SilkS) (width 0.01))
  (fp_poly (pts (xy -44.308259 -14.36477) (xy -42.527021 -14.351176) (xy -40.935666 -14.335102) (xy -39.539274 -14.316651)
    (xy -38.34292 -14.295931) (xy -37.351684 -14.273045) (xy -36.570644 -14.248099) (xy -36.004877 -14.221198)
    (xy -35.659462 -14.192447) (xy -35.605358 -14.184506) (xy -34.552847 -13.97888) (xy -33.682031 -13.750318)
    (xy -32.947833 -13.478184) (xy -32.305174 -13.141842) (xy -31.708976 -12.720659) (xy -31.114159 -12.193998)
    (xy -30.988002 -12.070836) (xy -30.510544 -11.577473) (xy -30.157962 -11.153085) (xy -29.87725 -10.725967)
    (xy -29.615402 -10.224417) (xy -29.601326 -10.194991) (xy -29.255648 -9.416278) (xy -29.014353 -8.721906)
    (xy -28.861114 -8.036759) (xy -28.779605 -7.28572) (xy -28.7535 -6.393674) (xy -28.753308 -6.293304)
    (xy -28.8128 -5.023533) (xy -29.000695 -3.912858) (xy -29.331124 -2.92448) (xy -29.818217 -2.021604)
    (xy -30.476102 -1.167434) (xy -30.888942 -0.731738) (xy -31.442882 -0.217209) (xy -31.997523 0.21231)
    (xy -32.592894 0.576703) (xy -33.269027 0.895851) (xy -34.06595 1.189639) (xy -35.023695 1.477948)
    (xy -35.702859 1.659329) (xy -36.083843 1.757589) (xy -35.249288 2.322905) (xy -34.400275 2.975017)
    (xy -33.525 3.787179) (xy -32.675428 4.706572) (xy -31.903522 5.680379) (xy -31.789268 5.839732)
    (xy -31.594308 6.125744) (xy -31.311189 6.554725) (xy -30.954884 7.102947) (xy -30.540365 7.746682)
    (xy -30.082606 8.462203) (xy -29.596579 9.225782) (xy -29.097258 10.013691) (xy -28.599615 10.802202)
    (xy -28.118623 11.567587) (xy -27.669255 12.286119) (xy -27.266484 12.93407) (xy -26.925283 13.487711)
    (xy -26.660624 13.923316) (xy -26.487482 14.217156) (xy -26.420827 14.345504) (xy -26.420536 14.347653)
    (xy -26.529371 14.360818) (xy -26.837648 14.372798) (xy -27.318023 14.383177) (xy -27.943154 14.39154)
    (xy -28.685697 14.397469) (xy -29.51831 14.400548) (xy -29.915938 14.400893) (xy -33.411339 14.400893)
    (xy -36.307914 10.063616) (xy -36.932424 9.132114) (xy -37.546579 8.222868) (xy -38.133137 7.360932)
    (xy -38.674858 6.571358) (xy -39.154501 5.8792) (xy -39.554825 5.30951) (xy -39.858588 4.887343)
    (xy -39.997791 4.70171) (xy -40.598639 3.985273) (xy -41.18303 3.432582) (xy -41.792848 3.024425)
    (xy -42.469978 2.741585) (xy -43.256303 2.564847) (xy -44.193709 2.474998) (xy -44.896976 2.454165)
    (xy -46.320983 2.437946) (xy -46.350333 8.419419) (xy -46.379684 14.400893) (xy -52.274108 14.400893)
    (xy -52.274108 -9.411607) (xy -46.377679 -9.411607) (xy -46.377679 -2.267857) (xy -42.834152 -2.268788)
    (xy -41.904088 -2.272737) (xy -40.998408 -2.283453) (xy -40.15537 -2.29997) (xy -39.413234 -2.321322)
    (xy -38.810256 -2.346544) (xy -38.384695 -2.374669) (xy -38.299864 -2.383239) (xy -37.406898 -2.524919)
    (xy -36.69793 -2.731497) (xy -36.135698 -3.018115) (xy -35.682938 -3.399916) (xy -35.615153 -3.474267)
    (xy -35.150807 -4.161822) (xy -34.874061 -4.961838) (xy -34.780396 -5.887741) (xy -34.780541 -5.953125)
    (xy -34.87725 -6.879661) (xy -35.151705 -7.665402) (xy -35.604441 -8.311076) (xy -36.235995 -8.81741)
    (xy -37.046902 -9.185131) (xy -37.196043 -9.231959) (xy -37.389048 -9.279705) (xy -37.630078 -9.318477)
    (xy -37.942733 -9.349142) (xy -38.350614 -9.372566) (xy -38.877322 -9.389616) (xy -39.546456 -9.401158)
    (xy -40.381618 -9.408058) (xy -41.406408 -9.411183) (xy -42.089331 -9.411607) (xy -46.377679 -9.411607)
    (xy -52.274108 -9.411607) (xy -52.274108 -14.417119) (xy -44.308259 -14.36477)) (layer F.SilkS) (width 0.01))
  (fp_poly (pts (xy 7.14375 -3.061607) (xy 18.369642 -3.061607) (xy 18.369642 -14.400893) (xy 24.266071 -14.400893)
    (xy 24.266071 14.400893) (xy 18.369642 14.400893) (xy 18.369642 1.812148) (xy 7.200446 1.870982)
    (xy 7.171138 8.135937) (xy 7.141829 14.400893) (xy 1.247321 14.400893) (xy 1.247321 -14.400893)
    (xy 7.14375 -14.400893) (xy 7.14375 -3.061607)) (layer F.SilkS) (width 0.01))
)
