(module RoHS-Logo_20mm_SilkScreen (layer F.Cu) (tedit 0)
  (descr "Restriction of Hazardous Substances Directive Logo")
  (tags "Logo RoHS")
  (attr virtual)
  (fp_text reference REF** (at 0 0) (layer F.SilkS) hide
    (effects (font (size 1 1) (thickness 0.15)))
  )
  (fp_text value RoHS-Logo_20mm_SilkScreen (at 0.75 0) (layer F.Fab) hide
    (effects (font (size 1 1) (thickness 0.15)))
  )
  (fp_poly (pts (xy -9.22262 -4.566203) (xy -8.717891 -4.562731) (xy -8.328944 -4.552849) (xy -8.020397 -4.533133)
    (xy -7.756871 -4.500162) (xy -7.502985 -4.450511) (xy -7.22336 -4.380759) (xy -7.176741 -4.368279)
    (xy -6.209563 -4.032498) (xy -5.317695 -3.570071) (xy -4.511085 -2.989288) (xy -3.799681 -2.298442)
    (xy -3.19343 -1.505822) (xy -2.716879 -0.651075) (xy -2.439895 0.028669) (xy -2.244437 0.726543)
    (xy -2.120839 1.48532) (xy -2.06381 2.237981) (xy -2.073511 3.350744) (xy -2.205778 4.378971)
    (xy -2.463419 5.330416) (xy -2.849244 6.21283) (xy -3.366062 7.033965) (xy -4.01668 7.801572)
    (xy -4.11652 7.903123) (xy -4.854315 8.555001) (xy -5.636295 9.072155) (xy -6.488434 9.469954)
    (xy -7.119079 9.679513) (xy -7.513317 9.765541) (xy -8.01246 9.834912) (xy -8.570828 9.884463)
    (xy -9.142738 9.911033) (xy -9.682509 9.911461) (xy -10.108207 9.886373) (xy -10.897156 9.756329)
    (xy -11.710589 9.529279) (xy -12.508274 9.221421) (xy -13.249984 8.84895) (xy -13.895488 8.428064)
    (xy -14.067122 8.292491) (xy -14.712672 7.659461) (xy -15.261869 6.916794) (xy -15.708978 6.075872)
    (xy -16.048269 5.148079) (xy -16.27401 4.144799) (xy -16.320366 3.817559) (xy -16.395561 2.673086)
    (xy -16.394066 2.645833) (xy -12.565994 2.645833) (xy -12.520235 3.546578) (xy -12.374378 4.337468)
    (xy -12.125929 5.024114) (xy -11.772394 5.612127) (xy -11.311278 6.107117) (xy -10.88563 6.42565)
    (xy -10.531643 6.630073) (xy -10.198675 6.762942) (xy -9.839335 6.835751) (xy -9.406236 6.859992)
    (xy -9.109227 6.856513) (xy -8.720296 6.839067) (xy -8.432262 6.805539) (xy -8.194983 6.746622)
    (xy -7.958315 6.653009) (xy -7.921016 6.635977) (xy -7.473369 6.369913) (xy -7.03427 6.004065)
    (xy -6.654615 5.583786) (xy -6.510149 5.378723) (xy -6.255683 4.872757) (xy -6.058509 4.261088)
    (xy -5.925293 3.580475) (xy -5.862704 2.867679) (xy -5.877409 2.15946) (xy -5.894372 1.983639)
    (xy -6.017766 1.217638) (xy -6.205304 0.570807) (xy -6.46604 0.02152) (xy -6.809028 -0.451848)
    (xy -6.997009 -0.650151) (xy -7.533008 -1.075846) (xy -8.122175 -1.371167) (xy -8.744645 -1.536119)
    (xy -9.380551 -1.570706) (xy -10.01003 -1.474935) (xy -10.613216 -1.248808) (xy -11.170243 -0.892332)
    (xy -11.441449 -0.649058) (xy -11.855385 -0.156696) (xy -12.168905 0.396192) (xy -12.387877 1.026798)
    (xy -12.518167 1.752313) (xy -12.565645 2.589933) (xy -12.565994 2.645833) (xy -16.394066 2.645833)
    (xy -16.335687 1.582237) (xy -16.142501 0.550437) (xy -15.817762 -0.41689) (xy -15.363228 -1.314319)
    (xy -14.780656 -2.136424) (xy -14.184524 -2.773442) (xy -13.461036 -3.357868) (xy -12.634244 -3.847032)
    (xy -11.727641 -4.228017) (xy -11.294929 -4.362101) (xy -11.006228 -4.438772) (xy -10.757525 -4.493791)
    (xy -10.513723 -4.530616) (xy -10.239727 -4.552703) (xy -9.900439 -4.563508) (xy -9.460764 -4.566489)
    (xy -9.22262 -4.566203)) (layer F.SilkS) (width 0.01))
  (fp_poly (pts (xy 28.288775 -9.850042) (xy 29.053187 -9.758342) (xy 29.753316 -9.61021) (xy 30.416113 -9.400962)
    (xy 31.068525 -9.125913) (xy 31.212354 -9.056591) (xy 31.991027 -8.595622) (xy 32.657916 -8.033489)
    (xy 33.214439 -7.368548) (xy 33.662018 -6.599152) (xy 33.951091 -5.882124) (xy 34.073328 -5.455483)
    (xy 34.168983 -5.00468) (xy 34.21889 -4.631099) (xy 34.264137 -4.044345) (xy 34.046503 -4.040246)
    (xy 33.909743 -4.036443) (xy 33.646636 -4.028048) (xy 33.281931 -4.015892) (xy 32.840375 -4.000805)
    (xy 32.346714 -3.983619) (xy 32.090178 -3.974573) (xy 30.351488 -3.912998) (xy 30.21394 -4.447554)
    (xy 29.981959 -5.090016) (xy 29.645804 -5.626737) (xy 29.209568 -6.053179) (xy 28.677347 -6.364803)
    (xy 28.386011 -6.473197) (xy 28.036075 -6.550015) (xy 27.582881 -6.603149) (xy 27.072691 -6.631346)
    (xy 26.551765 -6.633352) (xy 26.066364 -6.607915) (xy 25.662748 -6.553781) (xy 25.633419 -6.547758)
    (xy 25.046116 -6.378856) (xy 24.534437 -6.143796) (xy 24.12085 -5.856067) (xy 23.827822 -5.529158)
    (xy 23.767953 -5.427712) (xy 23.691513 -5.173251) (xy 23.665103 -4.841805) (xy 23.688967 -4.499147)
    (xy 23.763348 -4.211049) (xy 23.763442 -4.210826) (xy 23.883225 -4.012977) (xy 24.067875 -3.795578)
    (xy 24.158023 -3.709614) (xy 24.356246 -3.552559) (xy 24.587381 -3.405703) (xy 24.866312 -3.263664)
    (xy 25.207924 -3.12106) (xy 25.627101 -2.972507) (xy 26.138726 -2.812624) (xy 26.757684 -2.636028)
    (xy 27.498859 -2.437336) (xy 28.121428 -2.276323) (xy 29.16758 -1.995677) (xy 30.077263 -1.721389)
    (xy 30.864593 -1.446341) (xy 31.54369 -1.16341) (xy 32.128671 -0.865475) (xy 32.633656 -0.545416)
    (xy 33.072761 -0.196111) (xy 33.460105 0.189561) (xy 33.778823 0.577222) (xy 34.141692 1.15156)
    (xy 34.441733 1.809326) (xy 34.651326 2.486912) (xy 34.691352 2.678616) (xy 34.750176 3.150364)
    (xy 34.77516 3.702286) (xy 34.767544 4.282243) (xy 34.728566 4.838098) (xy 34.659463 5.317715)
    (xy 34.625001 5.471338) (xy 34.410263 6.109072) (xy 34.097036 6.767379) (xy 33.715445 7.387357)
    (xy 33.494345 7.682045) (xy 32.910231 8.284694) (xy 32.207106 8.800554) (xy 31.391981 9.22636)
    (xy 30.471871 9.558846) (xy 29.453789 9.794747) (xy 28.742124 9.894816) (xy 28.154774 9.941092)
    (xy 27.500074 9.964353) (xy 26.825375 9.965013) (xy 26.17803 9.943486) (xy 25.605389 9.900184)
    (xy 25.324404 9.864993) (xy 24.291137 9.662466) (xy 23.37627 9.381504) (xy 22.564872 9.014953)
    (xy 21.842014 8.555661) (xy 21.192763 7.996475) (xy 20.993468 7.790261) (xy 20.505263 7.171753)
    (xy 20.071899 6.442483) (xy 19.708764 5.637641) (xy 19.43125 4.792417) (xy 19.254744 3.942002)
    (xy 19.231356 3.760863) (xy 19.206971 3.517004) (xy 19.212521 3.387204) (xy 19.258756 3.335552)
    (xy 19.356428 3.326139) (xy 19.361515 3.326133) (xy 19.489459 3.319007) (xy 19.742097 3.299154)
    (xy 20.093676 3.268813) (xy 20.518443 3.23022) (xy 20.990644 3.185611) (xy 21.091071 3.175916)
    (xy 21.670988 3.119597) (xy 22.11808 3.077378) (xy 22.450102 3.049775) (xy 22.684809 3.037299)
    (xy 22.839953 3.040462) (xy 22.933289 3.059779) (xy 22.982572 3.095761) (xy 23.005555 3.148922)
    (xy 23.019993 3.219773) (xy 23.022463 3.231696) (xy 23.126342 3.615839) (xy 23.279445 4.058771)
    (xy 23.45832 4.500048) (xy 23.639514 4.879231) (xy 23.710811 5.005673) (xy 24.122939 5.546394)
    (xy 24.641389 5.981582) (xy 25.262623 6.309577) (xy 25.983105 6.528719) (xy 26.799297 6.637349)
    (xy 27.214285 6.649756) (xy 28.057272 6.60103) (xy 28.791094 6.453297) (xy 29.422831 6.20422)
    (xy 29.959563 5.851466) (xy 30.147696 5.682324) (xy 30.522988 5.230774) (xy 30.768865 4.748441)
    (xy 30.883386 4.25362) (xy 30.864609 3.764602) (xy 30.710593 3.299681) (xy 30.442632 2.903083)
    (xy 30.274059 2.731218) (xy 30.077397 2.573741) (xy 29.838765 2.425398) (xy 29.544281 2.280933)
    (xy 29.180064 2.135091) (xy 28.73223 1.982617) (xy 28.186899 1.818256) (xy 27.530189 1.636753)
    (xy 26.748218 1.432853) (xy 26.178892 1.288998) (xy 25.004913 0.965297) (xy 23.973684 0.618031)
    (xy 23.087053 0.247953) (xy 22.346863 -0.144184) (xy 21.860624 -0.473858) (xy 21.231929 -1.047636)
    (xy 20.719281 -1.705382) (xy 20.326112 -2.43018) (xy 20.055856 -3.205116) (xy 19.911948 -4.013275)
    (xy 19.897822 -4.837743) (xy 20.016911 -5.661606) (xy 20.272648 -6.467947) (xy 20.533569 -7.010668)
    (xy 20.949616 -7.623078) (xy 21.485097 -8.194989) (xy 22.108864 -8.699452) (xy 22.789769 -9.109517)
    (xy 23.14907 -9.27365) (xy 23.704515 -9.481271) (xy 24.239673 -9.637727) (xy 24.792837 -9.750066)
    (xy 25.402297 -9.825334) (xy 26.106345 -9.87058) (xy 26.459306 -9.882887) (xy 27.433131 -9.889995)
    (xy 28.288775 -9.850042)) (layer F.SilkS) (width 0.01))
  (fp_poly (pts (xy -29.53884 -9.576513) (xy -28.351348 -9.567451) (xy -27.290444 -9.556734) (xy -26.359516 -9.544434)
    (xy -25.561947 -9.53062) (xy -24.901123 -9.515363) (xy -24.38043 -9.498732) (xy -24.003252 -9.480798)
    (xy -23.772975 -9.461631) (xy -23.736905 -9.456337) (xy -23.035231 -9.319253) (xy -22.454688 -9.166878)
    (xy -21.965222 -8.985456) (xy -21.536783 -8.761228) (xy -21.139317 -8.480439) (xy -20.742773 -8.129332)
    (xy -20.658668 -8.047224) (xy -20.340363 -7.718315) (xy -20.105308 -7.43539) (xy -19.918167 -7.150645)
    (xy -19.743601 -6.816278) (xy -19.734217 -6.796661) (xy -19.503765 -6.277518) (xy -19.342902 -5.814604)
    (xy -19.240743 -5.357839) (xy -19.186403 -4.857147) (xy -19.169 -4.262449) (xy -19.168872 -4.195536)
    (xy -19.208533 -3.349022) (xy -19.333797 -2.608572) (xy -19.554083 -1.949653) (xy -19.878811 -1.347736)
    (xy -20.317401 -0.778289) (xy -20.592628 -0.487825) (xy -20.961921 -0.144806) (xy -21.331682 0.14154)
    (xy -21.728596 0.384469) (xy -22.179351 0.597234) (xy -22.710634 0.793093) (xy -23.34913 0.985299)
    (xy -23.801906 1.106219) (xy -24.055895 1.171726) (xy -23.499525 1.548604) (xy -22.933517 1.983345)
    (xy -22.35 2.524786) (xy -21.783619 3.137715) (xy -21.269015 3.786919) (xy -21.192846 3.893155)
    (xy -21.062872 4.083829) (xy -20.874126 4.369817) (xy -20.636589 4.735298) (xy -20.360244 5.164455)
    (xy -20.055071 5.641469) (xy -19.731053 6.150522) (xy -19.398172 6.675794) (xy -19.06641 7.201468)
    (xy -18.745749 7.711725) (xy -18.44617 8.190746) (xy -18.177656 8.622713) (xy -17.950189 8.991808)
    (xy -17.77375 9.282211) (xy -17.658321 9.478104) (xy -17.613885 9.563669) (xy -17.613691 9.565102)
    (xy -17.686248 9.573879) (xy -17.891765 9.581865) (xy -18.212015 9.588785) (xy -18.628769 9.59436)
    (xy -19.123798 9.598313) (xy -19.678874 9.600365) (xy -19.943959 9.600595) (xy -22.274226 9.600595)
    (xy -24.205276 6.709077) (xy -24.621616 6.088076) (xy -25.031053 5.481912) (xy -25.422092 4.907288)
    (xy -25.783239 4.380905) (xy -26.103001 3.919467) (xy -26.369883 3.539674) (xy -26.572392 3.258229)
    (xy -26.665194 3.134474) (xy -27.06576 2.656849) (xy -27.455354 2.288388) (xy -27.861899 2.016283)
    (xy -28.313319 1.827723) (xy -28.837536 1.709898) (xy -29.462473 1.649999) (xy -29.931317 1.63611)
    (xy -30.880655 1.625298) (xy -30.900222 5.612946) (xy -30.91979 9.600595) (xy -34.849405 9.600595)
    (xy -34.849405 -6.274405) (xy -30.918453 -6.274405) (xy -30.918453 -1.511905) (xy -28.556102 -1.512525)
    (xy -27.936059 -1.515158) (xy -27.332272 -1.522302) (xy -26.770247 -1.533313) (xy -26.275489 -1.547548)
    (xy -25.873504 -1.564362) (xy -25.589797 -1.583113) (xy -25.533243 -1.588826) (xy -24.937932 -1.683279)
    (xy -24.465287 -1.820998) (xy -24.090465 -2.012077) (xy -23.788626 -2.266611) (xy -23.743436 -2.316178)
    (xy -23.433871 -2.774548) (xy -23.249374 -3.307892) (xy -23.186931 -3.925161) (xy -23.187027 -3.96875)
    (xy -23.2515 -4.58644) (xy -23.43447 -5.110268) (xy -23.736294 -5.540717) (xy -24.15733 -5.878273)
    (xy -24.697935 -6.123421) (xy -24.797362 -6.154639) (xy -24.926032 -6.18647) (xy -25.086719 -6.212318)
    (xy -25.295155 -6.232761) (xy -25.567076 -6.248377) (xy -25.918215 -6.259744) (xy -26.364304 -6.267438)
    (xy -26.921079 -6.272038) (xy -27.604272 -6.274122) (xy -28.059554 -6.274405) (xy -30.918453 -6.274405)
    (xy -34.849405 -6.274405) (xy -34.849405 -9.611413) (xy -29.53884 -9.576513)) (layer F.SilkS) (width 0.01))
  (fp_poly (pts (xy 4.7625 -2.041071) (xy 12.246428 -2.041071) (xy 12.246428 -9.600595) (xy 16.17738 -9.600595)
    (xy 16.17738 9.600595) (xy 12.246428 9.600595) (xy 12.246428 1.208099) (xy 8.523363 1.22771)
    (xy 4.800297 1.247321) (xy 4.761219 9.600595) (xy 0.831547 9.600595) (xy 0.831547 -9.600595)
    (xy 4.7625 -9.600595) (xy 4.7625 -2.041071)) (layer F.SilkS) (width 0.01))
)
