(module RoHS-Logo_40mm_SilkScreen (layer F.Cu) (tedit 0)
  (descr "Restriction of Hazardous Substances Directive Logo")
  (tags "Logo RoHS")
  (attr virtual)
  (fp_text reference REF** (at 0 0) (layer F.SilkS) hide
    (effects (font (size 1 1) (thickness 0.15)))
  )
  (fp_text value RoHS-Logo_40mm_SilkScreen (at 0.75 0) (layer F.Fab) hide
    (effects (font (size 1 1) (thickness 0.15)))
  )
  (fp_poly (pts (xy -18.445239 -9.132406) (xy -17.435782 -9.125462) (xy -16.657887 -9.105697) (xy -16.040793 -9.066266)
    (xy -15.513741 -9.000323) (xy -15.00597 -8.901022) (xy -14.44672 -8.761518) (xy -14.353482 -8.736557)
    (xy -12.419126 -8.064996) (xy -10.63539 -7.140142) (xy -9.022169 -5.978576) (xy -7.599361 -4.596883)
    (xy -6.386859 -3.011643) (xy -5.433758 -1.302149) (xy -4.879789 0.057338) (xy -4.488874 1.453086)
    (xy -4.241677 2.970641) (xy -4.12762 4.475963) (xy -4.147022 6.701488) (xy -4.411555 8.757943)
    (xy -4.926838 10.660833) (xy -5.698488 12.425661) (xy -6.732123 14.06793) (xy -8.03336 15.603144)
    (xy -8.233039 15.806247) (xy -9.70863 17.110002) (xy -11.27259 18.144311) (xy -12.976868 18.939909)
    (xy -14.238157 19.359026) (xy -15.026633 19.531083) (xy -16.02492 19.669824) (xy -17.141655 19.768926)
    (xy -18.285475 19.822067) (xy -19.365017 19.822923) (xy -20.216413 19.772746) (xy -21.794312 19.512658)
    (xy -23.421177 19.058559) (xy -25.016548 18.442842) (xy -26.499968 17.697901) (xy -27.790975 16.856128)
    (xy -28.134243 16.584983) (xy -29.425344 15.318923) (xy -30.523737 13.833588) (xy -31.417956 12.151745)
    (xy -32.096538 10.296159) (xy -32.54802 8.289598) (xy -32.640731 7.635119) (xy -32.791121 5.346173)
    (xy -32.78813 5.291667) (xy -25.131988 5.291667) (xy -25.040469 7.093156) (xy -24.748755 8.674937)
    (xy -24.251857 10.048229) (xy -23.544787 11.224255) (xy -22.622556 12.214235) (xy -21.771259 12.8513)
    (xy -21.063286 13.260147) (xy -20.397349 13.525885) (xy -19.67867 13.671502) (xy -18.812472 13.719985)
    (xy -18.218453 13.713027) (xy -17.440592 13.678135) (xy -16.864524 13.611078) (xy -16.389965 13.493244)
    (xy -15.91663 13.306019) (xy -15.842031 13.271954) (xy -14.946737 12.739826) (xy -14.068539 12.00813)
    (xy -13.309229 11.167573) (xy -13.020297 10.757446) (xy -12.511365 9.745514) (xy -12.117017 8.522176)
    (xy -11.850586 7.160951) (xy -11.725408 5.735359) (xy -11.754818 4.31892) (xy -11.788743 3.967278)
    (xy -12.035531 2.435276) (xy -12.410608 1.141614) (xy -12.93208 0.043041) (xy -13.618055 -0.903696)
    (xy -13.994017 -1.300301) (xy -15.066016 -2.151691) (xy -16.24435 -2.742333) (xy -17.489289 -3.072237)
    (xy -18.761102 -3.141412) (xy -20.02006 -2.949869) (xy -21.226432 -2.497616) (xy -22.340486 -1.784663)
    (xy -22.882897 -1.298116) (xy -23.71077 -0.313391) (xy -24.33781 0.792385) (xy -24.775753 2.053596)
    (xy -25.036334 3.504627) (xy -25.131289 5.179866) (xy -25.131988 5.291667) (xy -32.78813 5.291667)
    (xy -32.671373 3.164475) (xy -32.285002 1.100874) (xy -31.635524 -0.83378) (xy -30.726455 -2.628637)
    (xy -29.561311 -4.272848) (xy -28.369047 -5.546884) (xy -26.922072 -6.715735) (xy -25.268487 -7.694063)
    (xy -23.455282 -8.456034) (xy -22.589857 -8.724201) (xy -22.012456 -8.877543) (xy -21.51505 -8.987582)
    (xy -21.027446 -9.061232) (xy -20.479453 -9.105405) (xy -19.800877 -9.127016) (xy -18.921527 -9.132978)
    (xy -18.445239 -9.132406)) (layer F.SilkS) (width 0.01))
  (fp_poly (pts (xy 56.57755 -19.700083) (xy 58.106374 -19.516683) (xy 59.506633 -19.22042) (xy 60.832226 -18.801924)
    (xy 62.13705 -18.251825) (xy 62.424708 -18.113181) (xy 63.982054 -17.191243) (xy 65.315832 -16.066978)
    (xy 66.428879 -14.737095) (xy 67.324036 -13.198303) (xy 67.902182 -11.764248) (xy 68.146656 -10.910965)
    (xy 68.337966 -10.00936) (xy 68.43778 -9.262197) (xy 68.528274 -8.08869) (xy 68.093006 -8.080492)
    (xy 67.819486 -8.072886) (xy 67.293273 -8.056095) (xy 66.563863 -8.031783) (xy 65.68075 -8.00161)
    (xy 64.693428 -7.967237) (xy 64.180357 -7.949145) (xy 60.702976 -7.825995) (xy 60.42788 -8.895107)
    (xy 59.963919 -10.180032) (xy 59.291608 -11.253474) (xy 58.419136 -12.106357) (xy 57.354695 -12.729605)
    (xy 56.772023 -12.946394) (xy 56.07215 -13.10003) (xy 55.165763 -13.206298) (xy 54.145383 -13.262691)
    (xy 53.103531 -13.266704) (xy 52.132729 -13.215829) (xy 51.325497 -13.107562) (xy 51.266839 -13.095515)
    (xy 50.092232 -12.757711) (xy 49.068874 -12.287591) (xy 48.2417 -11.712133) (xy 47.655644 -11.058316)
    (xy 47.535907 -10.855424) (xy 47.383027 -10.346502) (xy 47.330207 -9.68361) (xy 47.377935 -8.998293)
    (xy 47.526697 -8.422097) (xy 47.526884 -8.421651) (xy 47.766451 -8.025953) (xy 48.135751 -7.591156)
    (xy 48.316047 -7.419228) (xy 48.712492 -7.105117) (xy 49.174763 -6.811406) (xy 49.732625 -6.527328)
    (xy 50.415849 -6.242119) (xy 51.254202 -5.945014) (xy 52.277453 -5.625248) (xy 53.515369 -5.272056)
    (xy 54.997719 -4.874671) (xy 56.242857 -4.552646) (xy 58.335161 -3.991353) (xy 60.154526 -3.442778)
    (xy 61.729187 -2.892681) (xy 63.087381 -2.326819) (xy 64.257343 -1.73095) (xy 65.267312 -1.090831)
    (xy 66.145522 -0.392221) (xy 66.920211 0.379123) (xy 67.557647 1.154444) (xy 68.283384 2.303121)
    (xy 68.883467 3.618653) (xy 69.302652 4.973825) (xy 69.382704 5.357232) (xy 69.500352 6.300729)
    (xy 69.550321 7.404572) (xy 69.535089 8.564486) (xy 69.457132 9.676197) (xy 69.318927 10.63543)
    (xy 69.250003 10.942677) (xy 68.820526 12.218144) (xy 68.194072 13.534759) (xy 67.430891 14.774715)
    (xy 66.988691 15.36409) (xy 65.820463 16.569388) (xy 64.414212 17.601109) (xy 62.783962 18.452721)
    (xy 60.943742 19.117693) (xy 58.907579 19.589494) (xy 57.484249 19.789633) (xy 56.309549 19.882184)
    (xy 55.000148 19.928706) (xy 53.650751 19.930027) (xy 52.35606 19.886973) (xy 51.210779 19.800369)
    (xy 50.648809 19.729986) (xy 48.582274 19.324933) (xy 46.75254 18.763009) (xy 45.129745 18.029907)
    (xy 43.684028 17.111323) (xy 42.385527 15.99295) (xy 41.986937 15.580522) (xy 41.010526 14.343506)
    (xy 40.143798 12.884966) (xy 39.417529 11.275282) (xy 38.8625 9.584835) (xy 38.509488 7.884005)
    (xy 38.462712 7.521727) (xy 38.413943 7.034009) (xy 38.425042 6.774408) (xy 38.517512 6.671105)
    (xy 38.712857 6.652279) (xy 38.72303 6.652267) (xy 38.978918 6.638014) (xy 39.484194 6.598309)
    (xy 40.187353 6.537627) (xy 41.036887 6.46044) (xy 41.981288 6.371223) (xy 42.182142 6.351833)
    (xy 43.341976 6.239194) (xy 44.236161 6.154757) (xy 44.900205 6.09955) (xy 45.369618 6.074598)
    (xy 45.679906 6.080925) (xy 45.866579 6.119559) (xy 45.965144 6.191523) (xy 46.01111 6.297844)
    (xy 46.039986 6.439547) (xy 46.044926 6.463393) (xy 46.252684 7.231679) (xy 46.558891 8.117542)
    (xy 46.916641 9.000097) (xy 47.279028 9.758462) (xy 47.421622 10.011346) (xy 48.245879 11.092789)
    (xy 49.282778 11.963165) (xy 50.525247 12.619155) (xy 51.96621 13.057439) (xy 53.598595 13.274698)
    (xy 54.428571 13.299512) (xy 56.114545 13.202061) (xy 57.582189 12.906594) (xy 58.845662 12.408441)
    (xy 59.919126 11.702933) (xy 60.295393 11.364648) (xy 61.045977 10.461548) (xy 61.537731 9.496883)
    (xy 61.766773 8.50724) (xy 61.729219 7.529204) (xy 61.421187 6.599362) (xy 60.885265 5.806166)
    (xy 60.548118 5.462436) (xy 60.154795 5.147483) (xy 59.677531 4.850796) (xy 59.088563 4.561866)
    (xy 58.360128 4.270182) (xy 57.464461 3.965235) (xy 56.373799 3.636513) (xy 55.060378 3.273507)
    (xy 53.496436 2.865707) (xy 52.357784 2.577997) (xy 50.009826 1.930595) (xy 47.947369 1.236063)
    (xy 46.174106 0.495906) (xy 44.693727 -0.288368) (xy 43.721248 -0.947715) (xy 42.463859 -2.095272)
    (xy 41.438562 -3.410764) (xy 40.652224 -4.86036) (xy 40.111713 -6.410232) (xy 39.823897 -8.02655)
    (xy 39.795644 -9.675486) (xy 40.033822 -11.323211) (xy 40.545297 -12.935894) (xy 41.067139 -14.021336)
    (xy 41.899232 -15.246155) (xy 42.970194 -16.389978) (xy 44.217728 -17.398904) (xy 45.579539 -18.219034)
    (xy 46.29814 -18.5473) (xy 47.40903 -18.962541) (xy 48.479347 -19.275453) (xy 49.585674 -19.500131)
    (xy 50.804595 -19.650668) (xy 52.212691 -19.74116) (xy 52.918612 -19.765774) (xy 54.866262 -19.77999)
    (xy 56.57755 -19.700083)) (layer F.SilkS) (width 0.01))
  (fp_poly (pts (xy -59.077679 -19.153026) (xy -56.702695 -19.134901) (xy -54.580888 -19.113468) (xy -52.719031 -19.088868)
    (xy -51.123893 -19.06124) (xy -49.802246 -19.030725) (xy -48.760859 -18.997464) (xy -48.006503 -18.961596)
    (xy -47.545949 -18.923262) (xy -47.47381 -18.912674) (xy -46.070462 -18.638506) (xy -44.909375 -18.333756)
    (xy -43.930444 -17.970911) (xy -43.073566 -17.522456) (xy -42.278634 -16.960878) (xy -41.485545 -16.258663)
    (xy -41.317336 -16.094447) (xy -40.680726 -15.43663) (xy -40.210616 -14.870779) (xy -39.836333 -14.301289)
    (xy -39.487202 -13.632555) (xy -39.468434 -13.593321) (xy -39.00753 -12.555036) (xy -38.685803 -11.629207)
    (xy -38.481485 -10.715677) (xy -38.372806 -9.714293) (xy -38.337999 -8.524898) (xy -38.337743 -8.391071)
    (xy -38.417066 -6.698044) (xy -38.667594 -5.217143) (xy -39.108166 -3.899306) (xy -39.757622 -2.695471)
    (xy -40.634802 -1.556578) (xy -41.185256 -0.975649) (xy -41.923842 -0.289611) (xy -42.663363 0.283081)
    (xy -43.457192 0.768938) (xy -44.358702 1.194469) (xy -45.421267 1.586186) (xy -46.698259 1.970598)
    (xy -47.603812 2.212439) (xy -48.11179 2.343453) (xy -46.99905 3.097208) (xy -45.867033 3.966691)
    (xy -44.7 5.049572) (xy -43.567237 6.27543) (xy -42.53803 7.573839) (xy -42.385691 7.78631)
    (xy -42.125744 8.167659) (xy -41.748252 8.739634) (xy -41.273178 9.470597) (xy -40.720487 10.328911)
    (xy -40.110141 11.282939) (xy -39.462105 12.301044) (xy -38.796344 13.351589) (xy -38.13282 14.402937)
    (xy -37.491497 15.423451) (xy -36.89234 16.381493) (xy -36.355312 17.245427) (xy -35.900377 17.983616)
    (xy -35.547499 18.564422) (xy -35.316642 18.956209) (xy -35.227769 19.127339) (xy -35.227381 19.130205)
    (xy -35.372495 19.147758) (xy -35.78353 19.163731) (xy -36.42403 19.17757) (xy -37.257538 19.18872)
    (xy -38.247596 19.196626) (xy -39.357747 19.200731) (xy -39.887917 19.201191) (xy -44.548452 19.201191)
    (xy -48.410551 13.418155) (xy -49.243232 12.176153) (xy -50.062105 10.963825) (xy -50.844183 9.814577)
    (xy -51.566478 8.761811) (xy -52.206001 7.838934) (xy -52.739766 7.079348) (xy -53.144784 6.516459)
    (xy -53.330388 6.268948) (xy -54.131519 5.313698) (xy -54.910707 4.576777) (xy -55.723798 4.032567)
    (xy -56.626637 3.655447) (xy -57.675071 3.419797) (xy -58.924945 3.299998) (xy -59.862634 3.272221)
    (xy -61.76131 3.250596) (xy -61.800444 11.225893) (xy -61.839579 19.201191) (xy -69.69881 19.201191)
    (xy -69.69881 -12.548809) (xy -61.836905 -12.548809) (xy -61.836905 -3.023809) (xy -57.112203 -3.02505)
    (xy -55.872117 -3.030315) (xy -54.664544 -3.044603) (xy -53.540494 -3.066626) (xy -52.550978 -3.095095)
    (xy -51.747008 -3.128724) (xy -51.179593 -3.166225) (xy -51.066485 -3.177651) (xy -49.875864 -3.366558)
    (xy -48.930573 -3.641995) (xy -48.18093 -4.024153) (xy -47.577251 -4.533221) (xy -47.486871 -4.632355)
    (xy -46.867742 -5.549095) (xy -46.498748 -6.615784) (xy -46.373861 -7.850321) (xy -46.374054 -7.9375)
    (xy -46.503 -9.17288) (xy -46.86894 -10.220535) (xy -47.472588 -11.081433) (xy -48.31466 -11.756545)
    (xy -49.395869 -12.246841) (xy -49.594724 -12.309278) (xy -49.852064 -12.372939) (xy -50.173437 -12.424636)
    (xy -50.59031 -12.465522) (xy -51.134152 -12.496754) (xy -51.836429 -12.519487) (xy -52.728608 -12.534876)
    (xy -53.842158 -12.544076) (xy -55.208544 -12.548243) (xy -56.119108 -12.548809) (xy -61.836905 -12.548809)
    (xy -69.69881 -12.548809) (xy -69.69881 -19.222825) (xy -59.077679 -19.153026)) (layer F.SilkS) (width 0.01))
  (fp_poly (pts (xy 9.525 -4.082142) (xy 24.492857 -4.082142) (xy 24.492857 -19.20119) (xy 32.354761 -19.20119)
    (xy 32.354761 19.201191) (xy 24.492857 19.201191) (xy 24.492857 2.416199) (xy 9.600595 2.494643)
    (xy 9.522439 19.201191) (xy 1.663095 19.201191) (xy 1.663095 -19.20119) (xy 9.525 -19.20119)
    (xy 9.525 -4.082142)) (layer F.SilkS) (width 0.01))
)
