(module Symbol_Barrel_Polarity (layer F.Cu) (tedit 5765E9A7)
  (descr "Barrel connector polarity indicator")
  (tags "barrel polarity")
  (attr virtual)
  (fp_text reference REF** (at 0 -2) (layer F.SilkS) hide
    (effects (font (size 1 1) (thickness 0.15)))
  )
  (fp_text value Symbol_Barrel_Polarity (at 0 2) (layer F.Fab)
    (effects (font (size 1 1) (thickness 0.15)))
  )
  (fp_line (start 0 0.075) (end 2 0.075) (layer F.SilkS) (width 0.15))
  (fp_line (start -2 0.075) (end -1.1 0.075) (layer F.SilkS) (width 0.15))
  (fp_circle (center -3 0.075) (end -3 1) (layer F.SilkS) (width 0.15))
  (fp_circle (center 3 0.075) (end 3 1) (layer F.SilkS) (width 0.15))
  (fp_circle (center 0 0.075) (end 0 0.25) (layer F.SilkS) (width 0.5))
  (fp_arc (start 0 0.075) (end 0.75 0.75) (angle 270) (layer F.SilkS) (width 0.15))
)
