(module Symbol_CreativeCommons_CopperTop_Type1_Big (layer F.Cu)
  (at 0 0)
  (descr "Symbol, Creative Commons, CopperTop, Type 1, Big,")
  (tags "Symbol, Creative Commons, CopperTop, Type 1, Big,")
  (attr virtual)
  (fp_text reference REF** (at 0.59944 -7.29996) (layer F.SilkS)
    (effects (font (size 1 1) (thickness 0.15)))
  )
  (fp_text value Symbol_CreativeCommons_CopperTop_Type1_Big (at 0.59944 8.001) (layer F.Fab)
    (effects (font (size 1 1) (thickness 0.15)))
  )
  (fp_line (start 28.00096 0.59944) (end 27.89936 0.50038) (layer F.Cu) (width 0.381))
  (fp_line (start 27.89936 0.50038) (end 27.59964 0.39878) (layer F.Cu) (width 0.381))
  (fp_line (start 27.59964 0.39878) (end 27.09926 0.39878) (layer F.Cu) (width 0.381))
  (fp_line (start 27.09926 0.39878) (end 26.79954 0.50038) (layer F.Cu) (width 0.381))
  (fp_line (start 26.79954 0.50038) (end 26.59888 0.89916) (layer F.Cu) (width 0.381))
  (fp_line (start 26.59888 0.89916) (end 26.59888 1.09982) (layer F.Cu) (width 0.381))
  (fp_line (start 26.59888 1.09982) (end 26.70048 1.30048) (layer F.Cu) (width 0.381))
  (fp_line (start 26.70048 1.30048) (end 26.90114 1.50114) (layer F.Cu) (width 0.381))
  (fp_line (start 26.90114 1.50114) (end 27.20086 1.6002) (layer F.Cu) (width 0.381))
  (fp_line (start 27.20086 1.6002) (end 27.50058 1.6002) (layer F.Cu) (width 0.381))
  (fp_line (start 27.50058 1.6002) (end 27.6987 1.69926) (layer F.Cu) (width 0.381))
  (fp_line (start 27.6987 1.69926) (end 27.89936 1.89992) (layer F.Cu) (width 0.381))
  (fp_line (start 27.89936 1.89992) (end 27.8003 2.19964) (layer F.Cu) (width 0.381))
  (fp_line (start 27.8003 2.19964) (end 27.59964 2.30124) (layer F.Cu) (width 0.381))
  (fp_line (start 27.59964 2.30124) (end 27.09926 2.4003) (layer F.Cu) (width 0.381))
  (fp_line (start 27.09926 2.4003) (end 26.90114 2.30124) (layer F.Cu) (width 0.381))
  (fp_line (start 26.90114 2.30124) (end 26.70048 2.19964) (layer F.Cu) (width 0.381))
  (fp_line (start 26.70048 2.19964) (end 26.59888 2.30124) (layer F.Cu) (width 0.381))
  (fp_line (start 26.59888 2.30124) (end 26.59888 2.4003) (layer F.Cu) (width 0.381))
  (fp_line (start 26.59888 2.4003) (end 27.0002 2.60096) (layer F.Cu) (width 0.381))
  (fp_line (start 27.0002 2.60096) (end 27.50058 2.60096) (layer F.Cu) (width 0.381))
  (fp_line (start 27.50058 2.60096) (end 27.89936 2.49936) (layer F.Cu) (width 0.381))
  (fp_line (start 27.89936 2.49936) (end 28.10002 2.10058) (layer F.Cu) (width 0.381))
  (fp_line (start 28.10002 2.10058) (end 28.10002 1.89992) (layer F.Cu) (width 0.381))
  (fp_line (start 28.10002 1.89992) (end 28.00096 1.6002) (layer F.Cu) (width 0.381))
  (fp_line (start 28.00096 1.6002) (end 27.59964 1.39954) (layer F.Cu) (width 0.381))
  (fp_line (start 27.59964 1.39954) (end 27.20086 1.30048) (layer F.Cu) (width 0.381))
  (fp_line (start 27.20086 1.30048) (end 27.0002 1.30048) (layer F.Cu) (width 0.381))
  (fp_line (start 27.0002 1.30048) (end 26.90114 1.09982) (layer F.Cu) (width 0.381))
  (fp_line (start 26.90114 1.09982) (end 26.90114 0.8001) (layer F.Cu) (width 0.381))
  (fp_line (start 26.90114 0.8001) (end 27.09926 0.59944) (layer F.Cu) (width 0.381))
  (fp_line (start 27.09926 0.59944) (end 27.50058 0.59944) (layer F.Cu) (width 0.381))
  (fp_line (start 27.50058 0.59944) (end 27.8003 0.70104) (layer F.Cu) (width 0.381))
  (fp_line (start 27.8003 0.70104) (end 27.89936 0.8001) (layer F.Cu) (width 0.381))
  (fp_line (start 27.89936 0.8001) (end 28.00096 0.70104) (layer F.Cu) (width 0.381))
  (fp_line (start 24.30018 0.50038) (end 24.50084 0.39878) (layer F.Cu) (width 0.381))
  (fp_line (start 24.50084 0.39878) (end 25.00122 0.39878) (layer F.Cu) (width 0.381))
  (fp_line (start 25.00122 0.39878) (end 25.30094 0.50038) (layer F.Cu) (width 0.381))
  (fp_line (start 25.30094 0.50038) (end 25.49906 0.8001) (layer F.Cu) (width 0.381))
  (fp_line (start 25.49906 0.8001) (end 25.49906 2.49936) (layer F.Cu) (width 0.381))
  (fp_line (start 25.49906 2.49936) (end 25.49906 2.60096) (layer F.Cu) (width 0.381))
  (fp_line (start 25.49906 2.60096) (end 25.4 2.60096) (layer F.Cu) (width 0.381))
  (fp_line (start 25.4 2.60096) (end 25.30094 2.49936) (layer F.Cu) (width 0.381))
  (fp_line (start 25.30094 2.49936) (end 25.30094 0.89916) (layer F.Cu) (width 0.381))
  (fp_line (start 25.30094 0.89916) (end 25.19934 0.70104) (layer F.Cu) (width 0.381))
  (fp_line (start 25.19934 0.70104) (end 25.00122 0.59944) (layer F.Cu) (width 0.381))
  (fp_line (start 25.00122 0.59944) (end 24.5999 0.59944) (layer F.Cu) (width 0.381))
  (fp_line (start 24.5999 0.59944) (end 24.30018 0.8001) (layer F.Cu) (width 0.381))
  (fp_line (start 24.09952 0.39878) (end 24.00046 0.50038) (layer F.Cu) (width 0.381))
  (fp_line (start 24.00046 0.50038) (end 24.00046 2.49936) (layer F.Cu) (width 0.381))
  (fp_line (start 24.00046 2.49936) (end 24.09952 2.60096) (layer F.Cu) (width 0.381))
  (fp_line (start 24.09952 2.60096) (end 24.20112 2.60096) (layer F.Cu) (width 0.381))
  (fp_line (start 24.20112 2.60096) (end 24.30018 2.30124) (layer F.Cu) (width 0.381))
  (fp_line (start 24.30018 2.30124) (end 24.30018 0.70104) (layer F.Cu) (width 0.381))
  (fp_line (start 24.30018 0.70104) (end 24.30018 0.50038) (layer F.Cu) (width 0.381))
  (fp_line (start 24.30018 0.50038) (end 24.20112 0.39878) (layer F.Cu) (width 0.381))
  (fp_line (start 21.3995 1.00076) (end 21.3995 1.99898) (layer F.Cu) (width 0.381))
  (fp_line (start 21.3995 1.99898) (end 21.60016 2.19964) (layer F.Cu) (width 0.381))
  (fp_line (start 21.60016 2.19964) (end 21.89988 2.4003) (layer F.Cu) (width 0.381))
  (fp_line (start 21.89988 2.4003) (end 22.3012 2.4003) (layer F.Cu) (width 0.381))
  (fp_line (start 22.3012 2.4003) (end 22.60092 2.19964) (layer F.Cu) (width 0.381))
  (fp_line (start 22.60092 2.19964) (end 22.69998 1.99898) (layer F.Cu) (width 0.381))
  (fp_line (start 22.69998 1.99898) (end 22.79904 1.89992) (layer F.Cu) (width 0.381))
  (fp_line (start 22.79904 1.89992) (end 22.79904 1.00076) (layer F.Cu) (width 0.381))
  (fp_line (start 22.79904 1.00076) (end 22.49932 0.70104) (layer F.Cu) (width 0.381))
  (fp_line (start 22.49932 0.70104) (end 22.3012 0.59944) (layer F.Cu) (width 0.381))
  (fp_line (start 22.3012 0.59944) (end 21.89988 0.59944) (layer F.Cu) (width 0.381))
  (fp_line (start 21.89988 0.59944) (end 21.5011 0.8001) (layer F.Cu) (width 0.381))
  (fp_line (start 21.19884 1.00076) (end 21.19884 1.99898) (layer F.Cu) (width 0.381))
  (fp_line (start 21.19884 1.99898) (end 21.3995 2.30124) (layer F.Cu) (width 0.381))
  (fp_line (start 21.3995 2.30124) (end 21.80082 2.60096) (layer F.Cu) (width 0.381))
  (fp_line (start 21.80082 2.60096) (end 22.3012 2.60096) (layer F.Cu) (width 0.381))
  (fp_line (start 22.3012 2.60096) (end 22.69998 2.4003) (layer F.Cu) (width 0.381))
  (fp_line (start 22.69998 2.4003) (end 22.9997 1.89992) (layer F.Cu) (width 0.381))
  (fp_line (start 22.9997 1.89992) (end 22.9997 1.09982) (layer F.Cu) (width 0.381))
  (fp_line (start 22.9997 1.09982) (end 22.79904 0.70104) (layer F.Cu) (width 0.381))
  (fp_line (start 22.79904 0.70104) (end 22.60092 0.50038) (layer F.Cu) (width 0.381))
  (fp_line (start 22.60092 0.50038) (end 22.3012 0.39878) (layer F.Cu) (width 0.381))
  (fp_line (start 22.3012 0.39878) (end 21.80082 0.39878) (layer F.Cu) (width 0.381))
  (fp_line (start 21.80082 0.39878) (end 21.5011 0.50038) (layer F.Cu) (width 0.381))
  (fp_line (start 21.5011 0.50038) (end 21.30044 0.8001) (layer F.Cu) (width 0.381))
  (fp_line (start 21.30044 0.8001) (end 21.19884 1.00076) (layer F.Cu) (width 0.381))
  (fp_line (start 17.59966 0.50038) (end 17.80032 0.39878) (layer F.Cu) (width 0.381))
  (fp_line (start 17.80032 0.39878) (end 18.3007 0.39878) (layer F.Cu) (width 0.381))
  (fp_line (start 18.3007 0.39878) (end 18.69948 0.59944) (layer F.Cu) (width 0.381))
  (fp_line (start 18.69948 0.59944) (end 19.1008 0.39878) (layer F.Cu) (width 0.381))
  (fp_line (start 19.1008 0.39878) (end 19.60118 0.39878) (layer F.Cu) (width 0.381))
  (fp_line (start 19.60118 0.39878) (end 19.9009 0.50038) (layer F.Cu) (width 0.381))
  (fp_line (start 19.9009 0.50038) (end 20.09902 1.00076) (layer F.Cu) (width 0.381))
  (fp_line (start 20.09902 1.00076) (end 20.09902 2.49936) (layer F.Cu) (width 0.381))
  (fp_line (start 20.09902 2.49936) (end 19.99996 2.60096) (layer F.Cu) (width 0.381))
  (fp_line (start 19.99996 2.60096) (end 19.9009 2.49936) (layer F.Cu) (width 0.381))
  (fp_line (start 19.9009 2.49936) (end 19.9009 1.09982) (layer F.Cu) (width 0.381))
  (fp_line (start 19.9009 1.09982) (end 19.7993 0.70104) (layer F.Cu) (width 0.381))
  (fp_line (start 19.7993 0.70104) (end 19.60118 0.59944) (layer F.Cu) (width 0.381))
  (fp_line (start 19.60118 0.59944) (end 19.19986 0.59944) (layer F.Cu) (width 0.381))
  (fp_line (start 19.19986 0.59944) (end 18.80108 0.70104) (layer F.Cu) (width 0.381))
  (fp_line (start 18.80108 0.70104) (end 18.90014 0.8001) (layer F.Cu) (width 0.381))
  (fp_line (start 18.90014 0.8001) (end 18.80108 1.00076) (layer F.Cu) (width 0.381))
  (fp_line (start 18.80108 1.00076) (end 18.80108 2.49936) (layer F.Cu) (width 0.381))
  (fp_line (start 18.80108 2.49936) (end 18.69948 2.60096) (layer F.Cu) (width 0.381))
  (fp_line (start 18.69948 2.60096) (end 18.60042 2.49936) (layer F.Cu) (width 0.381))
  (fp_line (start 18.60042 2.49936) (end 18.60042 0.89916) (layer F.Cu) (width 0.381))
  (fp_line (start 18.60042 0.89916) (end 18.49882 0.70104) (layer F.Cu) (width 0.381))
  (fp_line (start 18.49882 0.70104) (end 18.3007 0.59944) (layer F.Cu) (width 0.381))
  (fp_line (start 18.3007 0.59944) (end 17.89938 0.59944) (layer F.Cu) (width 0.381))
  (fp_line (start 17.89938 0.59944) (end 17.59966 0.8001) (layer F.Cu) (width 0.381))
  (fp_line (start 17.29994 0.39878) (end 17.29994 1.19888) (layer F.Cu) (width 0.381))
  (fp_line (start 17.29994 1.19888) (end 17.29994 2.49936) (layer F.Cu) (width 0.381))
  (fp_line (start 17.29994 2.49936) (end 17.399 2.60096) (layer F.Cu) (width 0.381))
  (fp_line (start 17.399 2.60096) (end 17.5006 2.49936) (layer F.Cu) (width 0.381))
  (fp_line (start 17.5006 2.49936) (end 17.5006 0.39878) (layer F.Cu) (width 0.381))
  (fp_line (start 17.5006 0.39878) (end 17.29994 0.39878) (layer F.Cu) (width 0.381))
  (fp_line (start 13.5001 0.50038) (end 13.79982 0.39878) (layer F.Cu) (width 0.381))
  (fp_line (start 13.79982 0.39878) (end 14.3002 0.39878) (layer F.Cu) (width 0.381))
  (fp_line (start 14.3002 0.39878) (end 14.69898 0.59944) (layer F.Cu) (width 0.381))
  (fp_line (start 14.69898 0.59944) (end 15.1003 0.39878) (layer F.Cu) (width 0.381))
  (fp_line (start 15.1003 0.39878) (end 15.60068 0.39878) (layer F.Cu) (width 0.381))
  (fp_line (start 15.60068 0.39878) (end 15.7988 0.50038) (layer F.Cu) (width 0.381))
  (fp_line (start 15.7988 0.50038) (end 15.9004 0.50038) (layer F.Cu) (width 0.381))
  (fp_line (start 15.9004 0.50038) (end 16.10106 0.8001) (layer F.Cu) (width 0.381))
  (fp_line (start 16.10106 0.8001) (end 16.10106 2.49936) (layer F.Cu) (width 0.381))
  (fp_line (start 16.10106 2.49936) (end 15.99946 2.60096) (layer F.Cu) (width 0.381))
  (fp_line (start 15.99946 2.60096) (end 15.9004 2.60096) (layer F.Cu) (width 0.381))
  (fp_line (start 15.9004 2.60096) (end 15.9004 0.89916) (layer F.Cu) (width 0.381))
  (fp_line (start 15.9004 0.89916) (end 15.69974 0.70104) (layer F.Cu) (width 0.381))
  (fp_line (start 15.69974 0.70104) (end 15.60068 0.59944) (layer F.Cu) (width 0.381))
  (fp_line (start 15.60068 0.59944) (end 15.19936 0.59944) (layer F.Cu) (width 0.381))
  (fp_line (start 15.19936 0.59944) (end 15.00124 0.70104) (layer F.Cu) (width 0.381))
  (fp_line (start 15.00124 0.70104) (end 14.80058 0.89916) (layer F.Cu) (width 0.381))
  (fp_line (start 14.80058 0.89916) (end 14.80058 2.49936) (layer F.Cu) (width 0.381))
  (fp_line (start 14.80058 2.49936) (end 14.69898 2.60096) (layer F.Cu) (width 0.381))
  (fp_line (start 14.69898 2.60096) (end 14.59992 2.49936) (layer F.Cu) (width 0.381))
  (fp_line (start 14.59992 2.49936) (end 14.59992 0.8001) (layer F.Cu) (width 0.381))
  (fp_line (start 14.59992 0.8001) (end 14.50086 0.8001) (layer F.Cu) (width 0.381))
  (fp_line (start 14.50086 0.8001) (end 14.39926 0.59944) (layer F.Cu) (width 0.381))
  (fp_line (start 14.39926 0.59944) (end 14.20114 0.59944) (layer F.Cu) (width 0.381))
  (fp_line (start 14.20114 0.59944) (end 13.89888 0.59944) (layer F.Cu) (width 0.381))
  (fp_line (start 13.89888 0.59944) (end 13.59916 0.70104) (layer F.Cu) (width 0.381))
  (fp_line (start 13.29944 0.39878) (end 13.29944 2.49936) (layer F.Cu) (width 0.381))
  (fp_line (start 13.29944 2.49936) (end 13.40104 2.60096) (layer F.Cu) (width 0.381))
  (fp_line (start 13.40104 2.60096) (end 13.5001 2.60096) (layer F.Cu) (width 0.381))
  (fp_line (start 13.5001 2.60096) (end 13.5001 2.49936) (layer F.Cu) (width 0.381))
  (fp_line (start 13.5001 2.49936) (end 13.5001 0.39878) (layer F.Cu) (width 0.381))
  (fp_line (start 13.5001 0.39878) (end 13.40104 0.39878) (layer F.Cu) (width 0.381))
  (fp_line (start 11.19886 0.50038) (end 11.50112 0.59944) (layer F.Cu) (width 0.381))
  (fp_line (start 11.50112 0.59944) (end 11.80084 0.70104) (layer F.Cu) (width 0.381))
  (fp_line (start 11.80084 0.70104) (end 11.99896 1.00076) (layer F.Cu) (width 0.381))
  (fp_line (start 11.99896 1.00076) (end 11.99896 1.89992) (layer F.Cu) (width 0.381))
  (fp_line (start 11.99896 1.89992) (end 11.80084 2.19964) (layer F.Cu) (width 0.381))
  (fp_line (start 11.80084 2.19964) (end 11.39952 2.4003) (layer F.Cu) (width 0.381))
  (fp_line (start 11.39952 2.4003) (end 11.00074 2.30124) (layer F.Cu) (width 0.381))
  (fp_line (start 11.00074 2.30124) (end 10.70102 2.10058) (layer F.Cu) (width 0.381))
  (fp_line (start 10.70102 2.10058) (end 10.80008 2.10058) (layer F.Cu) (width 0.381))
  (fp_line (start 10.80008 2.10058) (end 10.70102 1.89992) (layer F.Cu) (width 0.381))
  (fp_line (start 10.70102 1.89992) (end 10.70102 1.09982) (layer F.Cu) (width 0.381))
  (fp_line (start 10.70102 1.09982) (end 10.89914 0.8001) (layer F.Cu) (width 0.381))
  (fp_line (start 10.89914 0.8001) (end 11.30046 0.59944) (layer F.Cu) (width 0.381))
  (fp_line (start 11.69924 0.39878) (end 11.8999 0.50038) (layer F.Cu) (width 0.381))
  (fp_line (start 11.8999 0.50038) (end 12.10056 0.70104) (layer F.Cu) (width 0.381))
  (fp_line (start 12.10056 0.70104) (end 12.19962 0.89916) (layer F.Cu) (width 0.381))
  (fp_line (start 12.19962 0.89916) (end 12.19962 2.10058) (layer F.Cu) (width 0.381))
  (fp_line (start 12.19962 2.10058) (end 12.10056 2.30124) (layer F.Cu) (width 0.381))
  (fp_line (start 12.10056 2.30124) (end 11.80084 2.49936) (layer F.Cu) (width 0.381))
  (fp_line (start 11.80084 2.49936) (end 11.60018 2.60096) (layer F.Cu) (width 0.381))
  (fp_line (start 11.60018 2.60096) (end 11.0998 2.60096) (layer F.Cu) (width 0.381))
  (fp_line (start 11.0998 2.60096) (end 10.70102 2.4003) (layer F.Cu) (width 0.381))
  (fp_line (start 10.70102 2.4003) (end 10.50036 1.99898) (layer F.Cu) (width 0.381))
  (fp_line (start 10.50036 1.99898) (end 10.50036 1.00076) (layer F.Cu) (width 0.381))
  (fp_line (start 10.50036 1.00076) (end 10.70102 0.59944) (layer F.Cu) (width 0.381))
  (fp_line (start 10.70102 0.59944) (end 11.00074 0.39878) (layer F.Cu) (width 0.381))
  (fp_line (start 11.0998 0.39878) (end 11.60018 0.39878) (layer F.Cu) (width 0.381))
  (fp_line (start 9.4996 -0.20066) (end 9.4996 -0.29972) (layer F.Cu) (width 0.381))
  (fp_line (start 9.4996 -0.29972) (end 9.29894 -0.50038) (layer F.Cu) (width 0.381))
  (fp_line (start 9.29894 -0.50038) (end 8.90016 -0.59944) (layer F.Cu) (width 0.381))
  (fp_line (start 8.90016 -0.59944) (end 8.60044 -0.59944) (layer F.Cu) (width 0.381))
  (fp_line (start 8.60044 -0.59944) (end 8.19912 -0.50038) (layer F.Cu) (width 0.381))
  (fp_line (start 8.19912 -0.50038) (end 8.001 -0.39878) (layer F.Cu) (width 0.381))
  (fp_line (start 8.001 -0.39878) (end 7.69874 -0.09906) (layer F.Cu) (width 0.381))
  (fp_line (start 7.69874 -0.09906) (end 7.50062 0.50038) (layer F.Cu) (width 0.381))
  (fp_line (start 7.50062 0.50038) (end 7.39902 1.19888) (layer F.Cu) (width 0.381))
  (fp_line (start 7.39902 1.19888) (end 7.59968 1.80086) (layer F.Cu) (width 0.381))
  (fp_line (start 7.59968 1.80086) (end 7.8994 2.30124) (layer F.Cu) (width 0.381))
  (fp_line (start 7.8994 2.30124) (end 8.49884 2.60096) (layer F.Cu) (width 0.381))
  (fp_line (start 8.49884 2.60096) (end 8.90016 2.60096) (layer F.Cu) (width 0.381))
  (fp_line (start 8.90016 2.60096) (end 9.29894 2.49936) (layer F.Cu) (width 0.381))
  (fp_line (start 9.29894 2.49936) (end 9.4996 2.19964) (layer F.Cu) (width 0.381))
  (fp_line (start 9.4996 2.19964) (end 9.4996 2.10058) (layer F.Cu) (width 0.381))
  (fp_line (start 9.4996 2.10058) (end 9.29894 2.10058) (layer F.Cu) (width 0.381))
  (fp_line (start 9.29894 2.10058) (end 9.10082 2.30124) (layer F.Cu) (width 0.381))
  (fp_line (start 9.10082 2.30124) (end 8.6995 2.4003) (layer F.Cu) (width 0.381))
  (fp_line (start 8.6995 2.4003) (end 8.30072 2.30124) (layer F.Cu) (width 0.381))
  (fp_line (start 8.30072 2.30124) (end 8.001 1.99898) (layer F.Cu) (width 0.381))
  (fp_line (start 8.001 1.99898) (end 7.80034 1.69926) (layer F.Cu) (width 0.381))
  (fp_line (start 7.80034 1.69926) (end 7.69874 1.19888) (layer F.Cu) (width 0.381))
  (fp_line (start 7.69874 1.19888) (end 7.69874 0.50038) (layer F.Cu) (width 0.381))
  (fp_line (start 7.69874 0.50038) (end 7.8994 0) (layer F.Cu) (width 0.381))
  (fp_line (start 7.8994 0) (end 8.30072 -0.29972) (layer F.Cu) (width 0.381))
  (fp_line (start 8.30072 -0.29972) (end 8.60044 -0.39878) (layer F.Cu) (width 0.381))
  (fp_line (start 8.60044 -0.39878) (end 8.99922 -0.39878) (layer F.Cu) (width 0.381))
  (fp_line (start 8.99922 -0.39878) (end 9.29894 -0.20066) (layer F.Cu) (width 0.381))
  (fp_line (start 9.29894 -0.20066) (end 9.40054 -0.09906) (layer F.Cu) (width 0.381))
  (fp_line (start 9.40054 -0.09906) (end 9.4996 -0.20066) (layer F.Cu) (width 0.381))
  (fp_line (start 24.89962 -2.90068) (end 24.50084 -2.70002) (layer F.Cu) (width 0.381))
  (fp_line (start 24.50084 -2.70002) (end 23.89886 -2.70002) (layer F.Cu) (width 0.381))
  (fp_line (start 23.89886 -2.70002) (end 23.70074 -2.99974) (layer F.Cu) (width 0.381))
  (fp_line (start 23.70074 -2.99974) (end 23.70074 -3.50012) (layer F.Cu) (width 0.381))
  (fp_line (start 24.89962 -2.90068) (end 25.00122 -2.70002) (layer F.Cu) (width 0.381))
  (fp_line (start 25.00122 -2.70002) (end 24.69896 -2.49936) (layer F.Cu) (width 0.381))
  (fp_line (start 24.69896 -2.49936) (end 24.20112 -2.49936) (layer F.Cu) (width 0.381))
  (fp_line (start 24.20112 -2.49936) (end 23.89886 -2.49936) (layer F.Cu) (width 0.381))
  (fp_line (start 23.89886 -2.49936) (end 23.70074 -2.60096) (layer F.Cu) (width 0.381))
  (fp_line (start 23.70074 -2.60096) (end 23.50008 -2.90068) (layer F.Cu) (width 0.381))
  (fp_line (start 23.50008 -2.90068) (end 23.50008 -4.20116) (layer F.Cu) (width 0.381))
  (fp_line (start 23.50008 -4.20116) (end 23.59914 -4.50088) (layer F.Cu) (width 0.381))
  (fp_line (start 23.59914 -4.50088) (end 24.00046 -4.699) (layer F.Cu) (width 0.381))
  (fp_line (start 24.00046 -4.699) (end 24.50084 -4.699) (layer F.Cu) (width 0.381))
  (fp_line (start 24.50084 -4.699) (end 24.89962 -4.59994) (layer F.Cu) (width 0.381))
  (fp_line (start 24.89962 -4.59994) (end 25.10028 -4.30022) (layer F.Cu) (width 0.381))
  (fp_line (start 25.10028 -4.30022) (end 25.10028 -3.79984) (layer F.Cu) (width 0.381))
  (fp_line (start 25.10028 -3.79984) (end 23.59914 -3.50012) (layer F.Cu) (width 0.381))
  (fp_line (start 23.59914 -3.50012) (end 23.70074 -3.8989) (layer F.Cu) (width 0.381))
  (fp_line (start 23.70074 -3.8989) (end 23.70074 -4.20116) (layer F.Cu) (width 0.381))
  (fp_line (start 23.70074 -4.20116) (end 23.89886 -4.39928) (layer F.Cu) (width 0.381))
  (fp_line (start 23.89886 -4.39928) (end 24.09952 -4.50088) (layer F.Cu) (width 0.381))
  (fp_line (start 24.09952 -4.50088) (end 24.5999 -4.50088) (layer F.Cu) (width 0.381))
  (fp_line (start 24.5999 -4.50088) (end 24.80056 -4.30022) (layer F.Cu) (width 0.381))
  (fp_line (start 24.80056 -4.30022) (end 24.89962 -4.0005) (layer F.Cu) (width 0.381))
  (fp_line (start 24.89962 -4.0005) (end 23.89886 -3.79984) (layer F.Cu) (width 0.381))
  (fp_line (start 21.00072 -4.699) (end 21.80082 -2.49936) (layer F.Cu) (width 0.381))
  (fp_line (start 21.80082 -2.49936) (end 21.89988 -2.49936) (layer F.Cu) (width 0.381))
  (fp_line (start 21.89988 -2.49936) (end 21.99894 -2.60096) (layer F.Cu) (width 0.381))
  (fp_line (start 21.99894 -2.60096) (end 22.69998 -4.59994) (layer F.Cu) (width 0.381))
  (fp_line (start 22.69998 -4.59994) (end 22.60092 -4.699) (layer F.Cu) (width 0.381))
  (fp_line (start 22.60092 -4.699) (end 22.49932 -4.699) (layer F.Cu) (width 0.381))
  (fp_line (start 22.49932 -4.699) (end 21.89988 -2.99974) (layer F.Cu) (width 0.381))
  (fp_line (start 21.89988 -2.99974) (end 21.80082 -3.29946) (layer F.Cu) (width 0.381))
  (fp_line (start 21.80082 -3.29946) (end 21.69922 -3.40106) (layer F.Cu) (width 0.381))
  (fp_line (start 21.69922 -3.40106) (end 21.19884 -4.699) (layer F.Cu) (width 0.381))
  (fp_line (start 21.19884 -4.699) (end 21.09978 -4.699) (layer F.Cu) (width 0.381))
  (fp_line (start 19.9009 -4.699) (end 19.9009 -4.59994) (layer F.Cu) (width 0.381))
  (fp_line (start 19.9009 -4.59994) (end 19.9009 -2.60096) (layer F.Cu) (width 0.381))
  (fp_line (start 19.9009 -2.60096) (end 19.99996 -2.49936) (layer F.Cu) (width 0.381))
  (fp_line (start 19.99996 -2.49936) (end 20.09902 -2.60096) (layer F.Cu) (width 0.381))
  (fp_line (start 20.09902 -2.60096) (end 20.09902 -4.59994) (layer F.Cu) (width 0.381))
  (fp_line (start 20.09902 -4.59994) (end 20.09902 -4.699) (layer F.Cu) (width 0.381))
  (fp_line (start 19.70024 -5.4991) (end 19.99996 -5.69976) (layer F.Cu) (width 0.381))
  (fp_line (start 19.99996 -5.69976) (end 20.29968 -5.4991) (layer F.Cu) (width 0.381))
  (fp_line (start 20.29968 -5.4991) (end 20.09902 -5.19938) (layer F.Cu) (width 0.381))
  (fp_line (start 20.09902 -5.19938) (end 19.99996 -5.19938) (layer F.Cu) (width 0.381))
  (fp_line (start 19.99996 -5.19938) (end 19.70024 -5.40004) (layer F.Cu) (width 0.381))
  (fp_line (start 19.70024 -5.40004) (end 19.9009 -5.40004) (layer F.Cu) (width 0.381))
  (fp_line (start 18.1991 -4.699) (end 17.80032 -4.699) (layer F.Cu) (width 0.381))
  (fp_line (start 17.80032 -4.699) (end 17.80032 -4.50088) (layer F.Cu) (width 0.381))
  (fp_line (start 17.80032 -4.50088) (end 18.9992 -4.50088) (layer F.Cu) (width 0.381))
  (fp_line (start 18.9992 -4.50088) (end 19.1008 -4.59994) (layer F.Cu) (width 0.381))
  (fp_line (start 19.1008 -4.59994) (end 19.1008 -4.699) (layer F.Cu) (width 0.381))
  (fp_line (start 19.1008 -4.699) (end 18.49882 -4.699) (layer F.Cu) (width 0.381))
  (fp_line (start 18.1991 -5.69976) (end 18.1991 -4.89966) (layer F.Cu) (width 0.381))
  (fp_line (start 18.1991 -4.89966) (end 18.1991 -2.99974) (layer F.Cu) (width 0.381))
  (fp_line (start 18.1991 -2.99974) (end 18.3007 -2.70002) (layer F.Cu) (width 0.381))
  (fp_line (start 18.3007 -2.70002) (end 18.69948 -2.49936) (layer F.Cu) (width 0.381))
  (fp_line (start 18.69948 -2.49936) (end 19.1008 -2.49936) (layer F.Cu) (width 0.381))
  (fp_line (start 19.1008 -2.49936) (end 19.1008 -2.70002) (layer F.Cu) (width 0.381))
  (fp_line (start 19.1008 -2.70002) (end 18.69948 -2.70002) (layer F.Cu) (width 0.381))
  (fp_line (start 18.69948 -2.70002) (end 18.49882 -2.90068) (layer F.Cu) (width 0.381))
  (fp_line (start 18.49882 -2.90068) (end 18.39976 -3.0988) (layer F.Cu) (width 0.381))
  (fp_line (start 18.39976 -3.0988) (end 18.39976 -5.69976) (layer F.Cu) (width 0.381))
  (fp_line (start 16.7005 -3.59918) (end 16.7005 -2.79908) (layer F.Cu) (width 0.381))
  (fp_line (start 16.7005 -2.79908) (end 15.9004 -2.70002) (layer F.Cu) (width 0.381))
  (fp_line (start 15.9004 -2.70002) (end 15.69974 -2.79908) (layer F.Cu) (width 0.381))
  (fp_line (start 15.69974 -2.79908) (end 15.60068 -3.0988) (layer F.Cu) (width 0.381))
  (fp_line (start 15.60068 -3.0988) (end 15.49908 -3.29946) (layer F.Cu) (width 0.381))
  (fp_line (start 15.49908 -3.29946) (end 15.69974 -3.50012) (layer F.Cu) (width 0.381))
  (fp_line (start 15.69974 -3.50012) (end 15.9004 -3.59918) (layer F.Cu) (width 0.381))
  (fp_line (start 15.9004 -3.59918) (end 16.49984 -3.59918) (layer F.Cu) (width 0.381))
  (fp_line (start 15.40002 -4.50088) (end 15.7988 -4.699) (layer F.Cu) (width 0.381))
  (fp_line (start 15.7988 -4.699) (end 16.40078 -4.699) (layer F.Cu) (width 0.381))
  (fp_line (start 16.40078 -4.699) (end 16.7005 -4.59994) (layer F.Cu) (width 0.381))
  (fp_line (start 16.7005 -4.59994) (end 16.90116 -4.39928) (layer F.Cu) (width 0.381))
  (fp_line (start 16.90116 -4.39928) (end 17.00022 -3.70078) (layer F.Cu) (width 0.381))
  (fp_line (start 17.00022 -3.70078) (end 17.00022 -2.49936) (layer F.Cu) (width 0.381))
  (fp_line (start 17.00022 -2.49936) (end 15.7988 -2.49936) (layer F.Cu) (width 0.381))
  (fp_line (start 15.7988 -2.49936) (end 15.49908 -2.70002) (layer F.Cu) (width 0.381))
  (fp_line (start 15.49908 -2.70002) (end 15.30096 -2.99974) (layer F.Cu) (width 0.381))
  (fp_line (start 15.30096 -2.99974) (end 15.40002 -3.40106) (layer F.Cu) (width 0.381))
  (fp_line (start 15.40002 -3.40106) (end 15.49908 -3.70078) (layer F.Cu) (width 0.381))
  (fp_line (start 15.49908 -3.70078) (end 15.9004 -3.8989) (layer F.Cu) (width 0.381))
  (fp_line (start 15.9004 -3.8989) (end 16.7005 -3.8989) (layer F.Cu) (width 0.381))
  (fp_line (start 16.7005 -3.8989) (end 16.7005 -4.20116) (layer F.Cu) (width 0.381))
  (fp_line (start 16.7005 -4.20116) (end 16.49984 -4.50088) (layer F.Cu) (width 0.381))
  (fp_line (start 16.49984 -4.50088) (end 15.9004 -4.50088) (layer F.Cu) (width 0.381))
  (fp_line (start 15.9004 -4.50088) (end 15.60068 -4.30022) (layer F.Cu) (width 0.381))
  (fp_line (start 15.60068 -4.30022) (end 15.40002 -4.50088) (layer F.Cu) (width 0.381))
  (fp_line (start 14.09954 -2.90068) (end 13.89888 -2.70002) (layer F.Cu) (width 0.381))
  (fp_line (start 13.89888 -2.70002) (end 13.40104 -2.70002) (layer F.Cu) (width 0.381))
  (fp_line (start 13.40104 -2.70002) (end 12.99972 -2.90068) (layer F.Cu) (width 0.381))
  (fp_line (start 12.99972 -2.90068) (end 12.99972 -3.40106) (layer F.Cu) (width 0.381))
  (fp_line (start 12.99972 -3.40106) (end 12.99972 -4.09956) (layer F.Cu) (width 0.381))
  (fp_line (start 12.99972 -4.09956) (end 13.09878 -4.39928) (layer F.Cu) (width 0.381))
  (fp_line (start 13.09878 -4.39928) (end 13.29944 -4.50088) (layer F.Cu) (width 0.381))
  (fp_line (start 13.29944 -4.50088) (end 13.59916 -4.50088) (layer F.Cu) (width 0.381))
  (fp_line (start 13.59916 -4.50088) (end 13.89888 -4.50088) (layer F.Cu) (width 0.381))
  (fp_line (start 13.89888 -4.50088) (end 14.09954 -4.30022) (layer F.Cu) (width 0.381))
  (fp_line (start 14.09954 -4.30022) (end 14.20114 -4.09956) (layer F.Cu) (width 0.381))
  (fp_line (start 14.20114 -4.09956) (end 14.09954 -3.8989) (layer F.Cu) (width 0.381))
  (fp_line (start 14.09954 -3.8989) (end 13.20038 -3.79984) (layer F.Cu) (width 0.381))
  (fp_line (start 13.20038 -3.79984) (end 13.20038 -3.59918) (layer F.Cu) (width 0.381))
  (fp_line (start 13.20038 -3.59918) (end 14.39926 -3.79984) (layer F.Cu) (width 0.381))
  (fp_line (start 14.39926 -3.79984) (end 14.39926 -4.20116) (layer F.Cu) (width 0.381))
  (fp_line (start 14.39926 -4.20116) (end 14.20114 -4.50088) (layer F.Cu) (width 0.381))
  (fp_line (start 14.20114 -4.50088) (end 13.89888 -4.699) (layer F.Cu) (width 0.381))
  (fp_line (start 13.89888 -4.699) (end 13.29944 -4.699) (layer F.Cu) (width 0.381))
  (fp_line (start 13.29944 -4.699) (end 12.99972 -4.59994) (layer F.Cu) (width 0.381))
  (fp_line (start 12.99972 -4.59994) (end 12.79906 -4.30022) (layer F.Cu) (width 0.381))
  (fp_line (start 12.79906 -4.30022) (end 12.7 -2.99974) (layer F.Cu) (width 0.381))
  (fp_line (start 12.7 -2.99974) (end 12.99972 -2.70002) (layer F.Cu) (width 0.381))
  (fp_line (start 12.99972 -2.70002) (end 12.90066 -2.70002) (layer F.Cu) (width 0.381))
  (fp_line (start 12.90066 -2.70002) (end 13.20038 -2.49936) (layer F.Cu) (width 0.381))
  (fp_line (start 13.20038 -2.49936) (end 13.89888 -2.49936) (layer F.Cu) (width 0.381))
  (fp_line (start 13.89888 -2.49936) (end 14.3002 -2.70002) (layer F.Cu) (width 0.381))
  (fp_line (start 14.3002 -2.70002) (end 14.20114 -2.79908) (layer F.Cu) (width 0.381))
  (fp_line (start 11.0998 -4.699) (end 11.00074 -4.50088) (layer F.Cu) (width 0.381))
  (fp_line (start 11.00074 -4.50088) (end 11.00074 -3.8989) (layer F.Cu) (width 0.381))
  (fp_line (start 11.00074 -3.8989) (end 11.0998 -2.49936) (layer F.Cu) (width 0.381))
  (fp_line (start 11.0998 -2.49936) (end 11.00074 -2.99974) (layer F.Cu) (width 0.381))
  (fp_line (start 11.00074 -2.99974) (end 11.30046 -2.49936) (layer F.Cu) (width 0.381))
  (fp_line (start 11.30046 -2.49936) (end 11.30046 -4.699) (layer F.Cu) (width 0.381))
  (fp_line (start 11.30046 -4.699) (end 11.30046 -4.50088) (layer F.Cu) (width 0.381))
  (fp_line (start 11.30046 -4.50088) (end 11.69924 -4.699) (layer F.Cu) (width 0.381))
  (fp_line (start 11.69924 -4.699) (end 12.10056 -4.699) (layer F.Cu) (width 0.381))
  (fp_line (start 12.10056 -4.699) (end 12.10056 -4.50088) (layer F.Cu) (width 0.381))
  (fp_line (start 12.10056 -4.50088) (end 11.69924 -4.50088) (layer F.Cu) (width 0.381))
  (fp_line (start 11.69924 -4.50088) (end 11.50112 -4.30022) (layer F.Cu) (width 0.381))
  (fp_line (start 11.50112 -4.30022) (end 11.30046 -4.09956) (layer F.Cu) (width 0.381))
  (fp_line (start 9.90092 -5.30098) (end 9.70026 -5.6007) (layer F.Cu) (width 0.381))
  (fp_line (start 9.70026 -5.6007) (end 9.29894 -5.69976) (layer F.Cu) (width 0.381))
  (fp_line (start 9.29894 -5.69976) (end 8.60044 -5.6007) (layer F.Cu) (width 0.381))
  (fp_line (start 8.60044 -5.6007) (end 8.19912 -5.19938) (layer F.Cu) (width 0.381))
  (fp_line (start 8.19912 -5.19938) (end 7.8994 -4.39928) (layer F.Cu) (width 0.381))
  (fp_line (start 7.8994 -4.39928) (end 7.8994 -3.79984) (layer F.Cu) (width 0.381))
  (fp_line (start 7.8994 -3.79984) (end 8.19912 -2.90068) (layer F.Cu) (width 0.381))
  (fp_line (start 8.19912 -2.90068) (end 8.90016 -2.49936) (layer F.Cu) (width 0.381))
  (fp_line (start 8.90016 -2.49936) (end 9.40054 -2.49936) (layer F.Cu) (width 0.381))
  (fp_line (start 9.40054 -2.49936) (end 9.90092 -2.70002) (layer F.Cu) (width 0.381))
  (fp_line (start 9.90092 -2.70002) (end 9.99998 -2.90068) (layer F.Cu) (width 0.381))
  (fp_line (start 9.99998 -2.90068) (end 9.79932 -2.99974) (layer F.Cu) (width 0.381))
  (fp_line (start 9.79932 -2.99974) (end 9.29894 -2.70002) (layer F.Cu) (width 0.381))
  (fp_line (start 9.29894 -2.70002) (end 8.6995 -2.79908) (layer F.Cu) (width 0.381))
  (fp_line (start 8.6995 -2.79908) (end 8.30072 -3.29946) (layer F.Cu) (width 0.381))
  (fp_line (start 8.30072 -3.29946) (end 8.10006 -4.0005) (layer F.Cu) (width 0.381))
  (fp_line (start 8.10006 -4.0005) (end 8.19912 -4.8006) (layer F.Cu) (width 0.381))
  (fp_line (start 8.19912 -4.8006) (end 8.49884 -5.30098) (layer F.Cu) (width 0.381))
  (fp_line (start 8.49884 -5.30098) (end 8.99922 -5.4991) (layer F.Cu) (width 0.381))
  (fp_line (start 8.99922 -5.4991) (end 9.6012 -5.40004) (layer F.Cu) (width 0.381))
  (fp_line (start 9.6012 -5.40004) (end 9.79932 -5.19938) (layer F.Cu) (width 0.381))
  (fp_line (start 9.79932 -5.19938) (end 9.99998 -5.19938) (layer F.Cu) (width 0.381))
  (fp_line (start -0.70104 2.70002) (end -0.29972 2.60096) (layer F.Cu) (width 0.381))
  (fp_line (start -0.29972 2.60096) (end -0.20066 2.10058) (layer F.Cu) (width 0.381))
  (fp_line (start -2.49936 -1.69926) (end -2.70002 -1.6002) (layer F.Cu) (width 0.381))
  (fp_line (start -2.70002 -1.6002) (end -3.0988 -1.00076) (layer F.Cu) (width 0.381))
  (fp_line (start -3.0988 -1.00076) (end -3.29946 -0.50038) (layer F.Cu) (width 0.381))
  (fp_line (start -3.29946 -0.50038) (end -3.40106 0.39878) (layer F.Cu) (width 0.381))
  (fp_line (start -3.40106 0.39878) (end -3.29946 0.89916) (layer F.Cu) (width 0.381))
  (fp_line (start -0.19812 2.4003) (end -0.29718 2.59842) (layer F.Cu) (width 0.381))
  (fp_line (start 3.70078 2.10058) (end 3.79984 2.4003) (layer F.Cu) (width 0.381))
  (fp_line (start 2.99974 -2.4003) (end 3.29946 -2.30124) (layer F.Cu) (width 0.381))
  (fp_line (start 3.29946 -2.30124) (end 3.0988 -1.99898) (layer F.Cu) (width 0.381))
  (fp_line (start 0 -5.40004) (end -0.50038 -5.40004) (layer F.Cu) (width 0.381))
  (fp_line (start -0.50038 -5.40004) (end -1.30048 -5.10032) (layer F.Cu) (width 0.381))
  (fp_line (start -1.30048 -5.10032) (end -1.99898 -4.89966) (layer F.Cu) (width 0.381))
  (fp_line (start -1.99898 -4.89966) (end -2.70002 -4.699) (layer F.Cu) (width 0.381))
  (fp_line (start -2.70002 -4.699) (end -3.29946 -4.20116) (layer F.Cu) (width 0.381))
  (fp_line (start -3.29946 -4.20116) (end -4.0005 -3.59918) (layer F.Cu) (width 0.381))
  (fp_line (start -4.0005 -3.59918) (end -4.50088 -2.99974) (layer F.Cu) (width 0.381))
  (fp_line (start -4.50088 -2.99974) (end -5.00126 -2.10058) (layer F.Cu) (width 0.381))
  (fp_line (start -5.00126 -2.10058) (end -5.30098 -1.09982) (layer F.Cu) (width 0.381))
  (fp_line (start -5.30098 -1.09982) (end -5.40004 0.09906) (layer F.Cu) (width 0.381))
  (fp_line (start -5.40004 0.09906) (end -5.19938 1.30048) (layer F.Cu) (width 0.381))
  (fp_line (start -5.19938 1.30048) (end -4.8006 2.4003) (layer F.Cu) (width 0.381))
  (fp_line (start -4.8006 2.4003) (end -3.79984 3.8989) (layer F.Cu) (width 0.381))
  (fp_line (start -3.79984 3.8989) (end -2.60096 4.8006) (layer F.Cu) (width 0.381))
  (fp_line (start -2.60096 4.8006) (end -1.30048 5.30098) (layer F.Cu) (width 0.381))
  (fp_line (start -1.30048 5.30098) (end 0.09906 5.30098) (layer F.Cu) (width 0.381))
  (fp_line (start 0.09906 5.30098) (end 1.6002 5.19938) (layer F.Cu) (width 0.381))
  (fp_line (start 1.6002 5.19938) (end 2.60096 4.699) (layer F.Cu) (width 0.381))
  (fp_line (start 2.60096 4.699) (end 4.20116 3.40106) (layer F.Cu) (width 0.381))
  (fp_line (start 4.20116 3.40106) (end 5.00126 1.80086) (layer F.Cu) (width 0.381))
  (fp_line (start 5.00126 1.80086) (end 5.40004 0.29972) (layer F.Cu) (width 0.381))
  (fp_line (start 5.40004 0.29972) (end 5.19938 -1.39954) (layer F.Cu) (width 0.381))
  (fp_line (start 5.19938 -1.39954) (end 4.699 -2.49936) (layer F.Cu) (width 0.381))
  (fp_line (start 4.699 -2.49936) (end 3.40106 -4.09956) (layer F.Cu) (width 0.381))
  (fp_line (start 3.40106 -4.09956) (end 2.4003 -4.8006) (layer F.Cu) (width 0.381))
  (fp_line (start 2.4003 -4.8006) (end 1.39954 -5.19938) (layer F.Cu) (width 0.381))
  (fp_line (start 1.39954 -5.19938) (end 0 -5.30098) (layer F.Cu) (width 0.381))
  (fp_line (start 0.60198 -0.70104) (end 0.50292 -0.20066) (layer F.Cu) (width 0.381))
  (fp_line (start 0.50292 -0.20066) (end 0.50292 0.49784) (layer F.Cu) (width 0.381))
  (fp_line (start 0.50292 0.49784) (end 0.60198 1.09982) (layer F.Cu) (width 0.381))
  (fp_line (start 0.60198 1.09982) (end 1.00076 1.69926) (layer F.Cu) (width 0.381))
  (fp_line (start 1.00076 1.69926) (end 1.50114 2.19964) (layer F.Cu) (width 0.381))
  (fp_line (start 1.50114 2.19964) (end 2.10058 2.49936) (layer F.Cu) (width 0.381))
  (fp_line (start 2.10058 2.49936) (end 2.60096 2.59842) (layer F.Cu) (width 0.381))
  (fp_line (start 2.60096 2.59842) (end 3.00228 2.59842) (layer F.Cu) (width 0.381))
  (fp_line (start 3.00228 2.59842) (end 3.40106 2.59842) (layer F.Cu) (width 0.381))
  (fp_line (start 3.40106 2.59842) (end 3.80238 2.49936) (layer F.Cu) (width 0.381))
  (fp_line (start 3.80238 2.49936) (end 3.70078 2.2987) (layer F.Cu) (width 0.381))
  (fp_line (start 3.70078 2.2987) (end 2.80162 2.4003) (layer F.Cu) (width 0.381))
  (fp_line (start 2.80162 2.4003) (end 1.80086 2.09804) (layer F.Cu) (width 0.381))
  (fp_line (start 1.80086 2.09804) (end 1.20142 1.6002) (layer F.Cu) (width 0.381))
  (fp_line (start 1.20142 1.6002) (end 0.80264 0.6985) (layer F.Cu) (width 0.381))
  (fp_line (start 0.80264 0.6985) (end 0.70104 -0.29972) (layer F.Cu) (width 0.381))
  (fp_line (start 0.70104 -0.29972) (end 1.00076 -1.00076) (layer F.Cu) (width 0.381))
  (fp_line (start 1.00076 -1.00076) (end 1.60274 -1.7018) (layer F.Cu) (width 0.381))
  (fp_line (start 1.60274 -1.7018) (end 2.30124 -2.10058) (layer F.Cu) (width 0.381))
  (fp_line (start 2.30124 -2.10058) (end 3.00228 -2.10058) (layer F.Cu) (width 0.381))
  (fp_line (start 3.00228 -2.10058) (end 3.10134 -1.89992) (layer F.Cu) (width 0.381))
  (fp_line (start 3.10134 -1.89992) (end 2.5019 -1.89992) (layer F.Cu) (width 0.381))
  (fp_line (start 2.5019 -1.89992) (end 1.80086 -1.6002) (layer F.Cu) (width 0.381))
  (fp_line (start 1.80086 -1.6002) (end 1.30048 -1.00076) (layer F.Cu) (width 0.381))
  (fp_line (start 1.30048 -1.00076) (end 1.00076 -0.40132) (layer F.Cu) (width 0.381))
  (fp_line (start 1.00076 -0.40132) (end 1.00076 0.09906) (layer F.Cu) (width 0.381))
  (fp_line (start 1.00076 0.09906) (end 1.00076 0.6985) (layer F.Cu) (width 0.381))
  (fp_line (start 1.00076 0.6985) (end 1.30048 1.19888) (layer F.Cu) (width 0.381))
  (fp_line (start 1.30048 1.19888) (end 1.7018 1.69926) (layer F.Cu) (width 0.381))
  (fp_line (start 1.7018 1.69926) (end 2.30124 1.99898) (layer F.Cu) (width 0.381))
  (fp_line (start 2.30124 1.99898) (end 2.90068 2.09804) (layer F.Cu) (width 0.381))
  (fp_line (start 2.90068 2.09804) (end 3.40106 2.09804) (layer F.Cu) (width 0.381))
  (fp_line (start 3.40106 2.09804) (end 3.70078 1.99898) (layer F.Cu) (width 0.381))
  (fp_line (start 3.00228 -2.4003) (end 2.40284 -2.4003) (layer F.Cu) (width 0.381))
  (fp_line (start 2.40284 -2.4003) (end 2.00152 -2.20218) (layer F.Cu) (width 0.381))
  (fp_line (start 2.00152 -2.20218) (end 1.50114 -2.00152) (layer F.Cu) (width 0.381))
  (fp_line (start 1.50114 -2.00152) (end 1.10236 -1.6002) (layer F.Cu) (width 0.381))
  (fp_line (start 1.10236 -1.6002) (end 0.80264 -1.09982) (layer F.Cu) (width 0.381))
  (fp_line (start 0.80264 -1.09982) (end 0.60198 -0.70104) (layer F.Cu) (width 0.381))
  (fp_line (start -0.39878 -1.99898) (end -0.89916 -1.99898) (layer F.Cu) (width 0.381))
  (fp_line (start -0.89916 -1.99898) (end -1.39954 -1.89738) (layer F.Cu) (width 0.381))
  (fp_line (start -1.39954 -1.89738) (end -1.89992 -1.59766) (layer F.Cu) (width 0.381))
  (fp_line (start -1.89992 -1.59766) (end -2.4003 -1.19888) (layer F.Cu) (width 0.381))
  (fp_line (start -2.4003 -1.30048) (end -2.70002 -0.8001) (layer F.Cu) (width 0.381))
  (fp_line (start -2.70002 -0.8001) (end -2.79908 -0.29972) (layer F.Cu) (width 0.381))
  (fp_line (start -2.79908 -0.29972) (end -2.79908 0.20066) (layer F.Cu) (width 0.381))
  (fp_line (start -2.79908 0.20066) (end -2.59842 1.00076) (layer F.Cu) (width 0.381))
  (fp_line (start -2.69748 1.00076) (end -2.39776 1.39954) (layer F.Cu) (width 0.381))
  (fp_line (start -2.29616 1.4986) (end -1.79578 1.89992) (layer F.Cu) (width 0.381))
  (fp_line (start -1.79578 1.89992) (end -1.29794 2.09804) (layer F.Cu) (width 0.381))
  (fp_line (start -1.29794 2.09804) (end -0.89662 2.19964) (layer F.Cu) (width 0.381))
  (fp_line (start -0.89662 2.19964) (end -0.49784 2.19964) (layer F.Cu) (width 0.381))
  (fp_line (start -0.49784 2.19964) (end -0.19812 2.09804) (layer F.Cu) (width 0.381))
  (fp_line (start -0.19812 2.09804) (end -0.29718 2.4003) (layer F.Cu) (width 0.381))
  (fp_line (start -0.29718 2.4003) (end -0.89662 2.49936) (layer F.Cu) (width 0.381))
  (fp_line (start -0.89662 2.49936) (end -1.59766 2.2987) (layer F.Cu) (width 0.381))
  (fp_line (start -1.59766 2.2987) (end -2.29616 1.79832) (layer F.Cu) (width 0.381))
  (fp_line (start -2.29616 1.79832) (end -2.79654 1.29794) (layer F.Cu) (width 0.381))
  (fp_line (start -2.79908 1.39954) (end -2.99974 0.70104) (layer F.Cu) (width 0.381))
  (fp_line (start -2.99974 0.70104) (end -3.0988 0) (layer F.Cu) (width 0.381))
  (fp_line (start -3.0988 0) (end -2.99974 -0.59944) (layer F.Cu) (width 0.381))
  (fp_line (start -2.99974 -0.8001) (end -2.70002 -1.30048) (layer F.Cu) (width 0.381))
  (fp_line (start -2.70002 -1.09982) (end -2.19964 -1.6002) (layer F.Cu) (width 0.381))
  (fp_line (start -2.19964 -1.69926) (end -1.69926 -1.99898) (layer F.Cu) (width 0.381))
  (fp_line (start -1.69926 -1.99898) (end -1.19888 -2.19964) (layer F.Cu) (width 0.381))
  (fp_line (start -1.19888 -2.19964) (end -0.6985 -2.19964) (layer F.Cu) (width 0.381))
  (fp_line (start -0.6985 -2.19964) (end -0.29972 -2.19964) (layer F.Cu) (width 0.381))
  (fp_line (start -0.29972 -2.19964) (end -0.20066 -2.39776) (layer F.Cu) (width 0.381))
  (fp_line (start -0.20066 -2.39776) (end -0.59944 -2.49936) (layer F.Cu) (width 0.381))
  (fp_line (start -0.59944 -2.49936) (end -1.00076 -2.49936) (layer F.Cu) (width 0.381))
  (fp_line (start -1.00076 -2.49936) (end -1.4986 -2.39776) (layer F.Cu) (width 0.381))
  (fp_line (start -1.4986 -2.39776) (end -2.10058 -2.09804) (layer F.Cu) (width 0.381))
  (fp_line (start -2.10058 -2.09804) (end -2.59842 -1.69926) (layer F.Cu) (width 0.381))
  (fp_line (start -2.59842 -1.6002) (end -3.0988 -0.89916) (layer F.Cu) (width 0.381))
  (fp_line (start -3.0988 -0.89916) (end -3.29946 -0.29972) (layer F.Cu) (width 0.381))
  (fp_line (start -3.29946 -0.29972) (end -3.29946 0.40132) (layer F.Cu) (width 0.381))
  (fp_line (start -3.29946 0.40132) (end -3.2004 1.00076) (layer F.Cu) (width 0.381))
  (fp_line (start -3.29946 0.8001) (end -2.99974 1.39954) (layer F.Cu) (width 0.381))
  (fp_line (start -2.89814 1.4986) (end -2.49682 1.99898) (layer F.Cu) (width 0.381))
  (fp_line (start -2.49682 1.99898) (end -1.89738 2.4003) (layer F.Cu) (width 0.381))
  (fp_line (start -1.89738 2.4003) (end -1.19634 2.59842) (layer F.Cu) (width 0.381))
  (fp_line (start -1.19634 2.59842) (end -0.69596 2.70002) (layer F.Cu) (width 0.381))
  (fp_line (start -2.9972 1.19888) (end -2.59842 1.19888) (layer F.Cu) (width 0.381))
  (fp_circle (center 0 0) (end 5.08 1.016) (layer F.Cu) (width 0.381))
  (fp_circle (center 0 0) (end 5.588 0) (layer F.Cu) (width 0.381))
)
