(module Symbol_GNU-Logo_CopperTop (layer F.Cu)
  (at 0 0)
  (descr "GNU-Logo, GNU-Head, GNU-Kopf, Copper Top,")
  (tags "GNU-Logo, GNU-Head, GNU-Kopf, Copper Top,")
  (attr virtual)
  (fp_text reference REF** (at 0 -6.05028) (layer F.SilkS)
    (effects (font (size 1 1) (thickness 0.15)))
  )
  (fp_text value Symbol_GNU-Logo_CopperTop (at 0 9.14908) (layer F.Fab)
    (effects (font (size 1 1) (thickness 0.15)))
  )
  (fp_line (start 5.19938 5.25018) (end 5.19938 6.85038) (layer F.Cu) (width 0.381))
  (fp_line (start 5.19938 6.85038) (end 5.90042 6.85038) (layer F.Cu) (width 0.381))
  (fp_line (start 3.64998 6.79958) (end 3.64998 5.34924) (layer F.Cu) (width 0.381))
  (fp_line (start 3.64998 5.34924) (end 4.20116 5.30098) (layer F.Cu) (width 0.381))
  (fp_line (start 4.20116 5.30098) (end 4.45008 5.4991) (layer F.Cu) (width 0.381))
  (fp_line (start 4.45008 5.4991) (end 4.54914 5.90042) (layer F.Cu) (width 0.381))
  (fp_line (start 4.54914 5.90042) (end 4.24942 6.05028) (layer F.Cu) (width 0.381))
  (fp_line (start 4.24942 6.05028) (end 3.74904 5.99948) (layer F.Cu) (width 0.381))
  (fp_line (start 2.94894 5.40004) (end 2.70002 5.30098) (layer F.Cu) (width 0.381))
  (fp_line (start 2.70002 5.30098) (end 2.4003 5.34924) (layer F.Cu) (width 0.381))
  (fp_line (start 2.4003 5.34924) (end 2.10058 5.69976) (layer F.Cu) (width 0.381))
  (fp_line (start 2.10058 5.69976) (end 2.04978 6.20014) (layer F.Cu) (width 0.381))
  (fp_line (start 2.04978 6.20014) (end 2.19964 6.64972) (layer F.Cu) (width 0.381))
  (fp_line (start 2.19964 6.64972) (end 2.55016 6.79958) (layer F.Cu) (width 0.381))
  (fp_line (start 2.55016 6.79958) (end 2.99974 6.70052) (layer F.Cu) (width 0.381))
  (fp_line (start 2.99974 6.70052) (end 2.99974 6.20014) (layer F.Cu) (width 0.381))
  (fp_line (start 2.99974 6.20014) (end 2.70002 6.20014) (layer F.Cu) (width 0.381))
  (fp_line (start -3.2512 5.34924) (end -3.2512 6.49986) (layer F.Cu) (width 0.381))
  (fp_line (start -3.2512 6.49986) (end -3.0988 6.74878) (layer F.Cu) (width 0.381))
  (fp_line (start -3.0988 6.74878) (end -2.75082 6.90118) (layer F.Cu) (width 0.381))
  (fp_line (start -2.75082 6.90118) (end -2.4511 6.74878) (layer F.Cu) (width 0.381))
  (fp_line (start -2.4511 6.74878) (end -2.3495 6.44906) (layer F.Cu) (width 0.381))
  (fp_line (start -2.3495 6.44906) (end -2.3495 5.34924) (layer F.Cu) (width 0.381))
  (fp_line (start -4.8006 6.90118) (end -4.8006 5.34924) (layer F.Cu) (width 0.381))
  (fp_line (start -4.8006 5.34924) (end -3.9497 6.85038) (layer F.Cu) (width 0.381))
  (fp_line (start -3.9497 6.85038) (end -3.9497 5.34924) (layer F.Cu) (width 0.381))
  (fp_line (start -5.5499 5.40004) (end -5.75056 5.30098) (layer F.Cu) (width 0.381))
  (fp_line (start -5.75056 5.30098) (end -6.20014 5.45084) (layer F.Cu) (width 0.381))
  (fp_line (start -6.20014 5.45084) (end -6.4008 5.84962) (layer F.Cu) (width 0.381))
  (fp_line (start -6.4008 5.84962) (end -6.4008 6.2992) (layer F.Cu) (width 0.381))
  (fp_line (start -6.4008 6.2992) (end -6.25094 6.70052) (layer F.Cu) (width 0.381))
  (fp_line (start -6.25094 6.70052) (end -5.95122 6.85038) (layer F.Cu) (width 0.381))
  (fp_line (start -5.95122 6.85038) (end -5.5499 6.85038) (layer F.Cu) (width 0.381))
  (fp_line (start -5.5499 6.85038) (end -5.4991 6.2992) (layer F.Cu) (width 0.381))
  (fp_line (start -5.4991 6.2992) (end -5.75056 6.20014) (layer F.Cu) (width 0.381))
  (fp_line (start -2.75082 -1.15062) (end -3.74904 -0.35052) (layer F.Cu) (width 0.381))
  (fp_line (start -3.74904 -0.35052) (end -3.29946 -1.50114) (layer F.Cu) (width 0.381))
  (fp_line (start -3.29946 -1.50114) (end -4.24942 -0.70104) (layer F.Cu) (width 0.381))
  (fp_line (start -4.24942 -0.70104) (end -3.55092 -1.99898) (layer F.Cu) (width 0.381))
  (fp_line (start -3.55092 -1.99898) (end -4.59994 -1.34874) (layer F.Cu) (width 0.381))
  (fp_line (start -4.59994 -1.34874) (end -4.699 -1.80086) (layer F.Cu) (width 0.381))
  (fp_line (start -4.699 -1.80086) (end -3.40106 -2.14884) (layer F.Cu) (width 0.381))
  (fp_line (start -3.40106 -2.14884) (end -4.54914 -2.4003) (layer F.Cu) (width 0.381))
  (fp_line (start -4.54914 -2.4003) (end -3.29946 -2.79908) (layer F.Cu) (width 0.381))
  (fp_line (start -3.29946 -2.79908) (end -3.79984 -3.29946) (layer F.Cu) (width 0.381))
  (fp_line (start -3.79984 -3.29946) (end -2.75082 -3.05054) (layer F.Cu) (width 0.381))
  (fp_line (start -2.75082 -3.05054) (end -2.79908 -3.70078) (layer F.Cu) (width 0.381))
  (fp_line (start -2.79908 -3.70078) (end -1.69926 -3.2004) (layer F.Cu) (width 0.381))
  (fp_line (start 0.7493 -1.99898) (end 1.39954 -1.80086) (layer F.Cu) (width 0.381))
  (fp_line (start 1.39954 -1.80086) (end 1.80086 -1.6002) (layer F.Cu) (width 0.381))
  (fp_line (start 1.80086 -1.6002) (end 3.0988 -0.7493) (layer F.Cu) (width 0.381))
  (fp_line (start 3.0988 -0.7493) (end 2.84988 -1.84912) (layer F.Cu) (width 0.381))
  (fp_line (start 2.84988 -1.84912) (end 3.59918 -1.15062) (layer F.Cu) (width 0.381))
  (fp_line (start 3.59918 -1.15062) (end 3.1496 -2.25044) (layer F.Cu) (width 0.381))
  (fp_line (start 3.1496 -2.25044) (end 4.15036 -1.99898) (layer F.Cu) (width 0.381))
  (fp_line (start 4.15036 -1.99898) (end 2.90068 -2.70002) (layer F.Cu) (width 0.381))
  (fp_line (start 2.90068 -2.70002) (end 4.04876 -3.1496) (layer F.Cu) (width 0.381))
  (fp_line (start 4.04876 -3.1496) (end 2.30124 -2.94894) (layer F.Cu) (width 0.381))
  (fp_line (start 2.30124 -2.94894) (end 2.79908 -3.64998) (layer F.Cu) (width 0.381))
  (fp_line (start 2.79908 -3.64998) (end 1.651 -2.94894) (layer F.Cu) (width 0.381))
  (fp_line (start 0.8509 -2.30124) (end 1.09982 -2.25044) (layer F.Cu) (width 0.381))
  (fp_line (start -2.04978 -1.5494) (end -1.5494 -1.84912) (layer F.Cu) (width 0.381))
  (fp_line (start -1.5494 -1.84912) (end -0.8001 -2.19964) (layer F.Cu) (width 0.381))
  (fp_line (start -0.8001 -2.19964) (end -0.44958 -2.19964) (layer F.Cu) (width 0.381))
  (fp_line (start -1.84912 4.0005) (end -2.10058 3.79984) (layer F.Cu) (width 0.381))
  (fp_line (start -2.10058 3.79984) (end -2.25044 3.59918) (layer F.Cu) (width 0.381))
  (fp_line (start -2.25044 3.59918) (end -2.49936 3.35026) (layer F.Cu) (width 0.381))
  (fp_line (start -2.49936 3.35026) (end -2.55016 3.05054) (layer F.Cu) (width 0.381))
  (fp_line (start -2.55016 3.05054) (end -2.64922 2.64922) (layer F.Cu) (width 0.381))
  (fp_line (start -2.64922 2.64922) (end -2.70002 2.25044) (layer F.Cu) (width 0.381))
  (fp_line (start -2.70002 2.25044) (end -2.75082 1.84912) (layer F.Cu) (width 0.381))
  (fp_line (start -2.75082 1.84912) (end -2.75082 1.34874) (layer F.Cu) (width 0.381))
  (fp_line (start -2.75082 1.34874) (end -2.75082 0.8509) (layer F.Cu) (width 0.381))
  (fp_line (start -1.75006 4.0005) (end -1.5494 3.9497) (layer F.Cu) (width 0.381))
  (fp_line (start -2.19964 0.8509) (end -1.89992 1.30048) (layer F.Cu) (width 0.381))
  (fp_line (start -1.89992 1.30048) (end -1.99898 1.75006) (layer F.Cu) (width 0.381))
  (fp_line (start -1.99898 1.75006) (end -1.5494 2.04978) (layer F.Cu) (width 0.381))
  (fp_line (start -1.5494 2.04978) (end -1.75006 2.70002) (layer F.Cu) (width 0.381))
  (fp_line (start -1.75006 2.70002) (end -1.19888 3.0988) (layer F.Cu) (width 0.381))
  (fp_line (start -1.19888 3.0988) (end -1.39954 3.79984) (layer F.Cu) (width 0.381))
  (fp_line (start -1.39954 3.79984) (end -0.8509 4.24942) (layer F.Cu) (width 0.381))
  (fp_line (start -0.59944 5.99948) (end -0.65024 6.10108) (layer F.Cu) (width 0.381))
  (fp_line (start -0.89916 4.35102) (end -0.70104 4.7498) (layer F.Cu) (width 0.381))
  (fp_line (start -0.70104 4.7498) (end -0.59944 5.04952) (layer F.Cu) (width 0.381))
  (fp_line (start -0.59944 5.04952) (end -1.00076 5.15112) (layer F.Cu) (width 0.381))
  (fp_line (start -1.00076 5.15112) (end -0.65024 5.4991) (layer F.Cu) (width 0.381))
  (fp_line (start -0.65024 5.4991) (end -0.70104 5.79882) (layer F.Cu) (width 0.381))
  (fp_line (start -0.70104 5.79882) (end -0.65024 5.95122) (layer F.Cu) (width 0.381))
  (fp_line (start -0.14986 3.70078) (end -0.29972 4.09956) (layer F.Cu) (width 0.381))
  (fp_line (start -0.29972 4.09956) (end -0.20066 4.30022) (layer F.Cu) (width 0.381))
  (fp_line (start -0.20066 4.30022) (end 0.0508 4.50088) (layer F.Cu) (width 0.381))
  (fp_line (start 0.0508 4.50088) (end 0.20066 4.699) (layer F.Cu) (width 0.381))
  (fp_line (start 0.20066 4.699) (end 0.14986 5.00126) (layer F.Cu) (width 0.381))
  (fp_line (start 0.14986 5.00126) (end 0.09906 5.19938) (layer F.Cu) (width 0.381))
  (fp_line (start 0.09906 5.19938) (end 0.14986 5.75056) (layer F.Cu) (width 0.381))
  (fp_line (start 0.14986 5.75056) (end 0.35052 5.95122) (layer F.Cu) (width 0.381))
  (fp_line (start 0.44958 3.29946) (end 0.24892 3.74904) (layer F.Cu) (width 0.381))
  (fp_line (start 0.24892 3.74904) (end 0.55118 4.04876) (layer F.Cu) (width 0.381))
  (fp_line (start 0.55118 4.04876) (end 0.94996 4.24942) (layer F.Cu) (width 0.381))
  (fp_line (start 0.94996 4.24942) (end 0.89916 4.699) (layer F.Cu) (width 0.381))
  (fp_line (start 0.89916 4.699) (end 0.7493 5.10032) (layer F.Cu) (width 0.381))
  (fp_line (start 0.7493 5.10032) (end 0.89916 5.34924) (layer F.Cu) (width 0.381))
  (fp_line (start 1.30048 4.89966) (end 1.34874 4.89966) (layer F.Cu) (width 0.381))
  (fp_line (start 1.24968 2.94894) (end 1.50114 3.05054) (layer F.Cu) (width 0.381))
  (fp_line (start 1.50114 3.05054) (end 1.75006 3.05054) (layer F.Cu) (width 0.381))
  (fp_line (start 1.75006 3.05054) (end 1.5494 3.0988) (layer F.Cu) (width 0.381))
  (fp_line (start 1.5494 3.0988) (end 1.00076 3.2004) (layer F.Cu) (width 0.381))
  (fp_line (start 1.00076 3.2004) (end 0.94996 3.35026) (layer F.Cu) (width 0.381))
  (fp_line (start 0.94996 3.35026) (end 1.00076 3.55092) (layer F.Cu) (width 0.381))
  (fp_line (start 1.00076 3.55092) (end 1.19888 3.74904) (layer F.Cu) (width 0.381))
  (fp_line (start 1.19888 3.74904) (end 1.45034 3.9497) (layer F.Cu) (width 0.381))
  (fp_line (start 1.45034 3.9497) (end 1.5494 4.30022) (layer F.Cu) (width 0.381))
  (fp_line (start 1.5494 4.30022) (end 1.45034 4.59994) (layer F.Cu) (width 0.381))
  (fp_line (start 1.45034 4.59994) (end 1.30048 4.89966) (layer F.Cu) (width 0.381))
  (fp_line (start 0.59944 2.64922) (end 1.00076 2.90068) (layer F.Cu) (width 0.381))
  (fp_line (start 1.00076 2.90068) (end 1.24968 2.90068) (layer F.Cu) (width 0.381))
  (fp_line (start 1.80086 2.55016) (end 1.19888 2.64922) (layer F.Cu) (width 0.381))
  (fp_line (start 1.19888 2.64922) (end 0.7493 2.60096) (layer F.Cu) (width 0.381))
  (fp_line (start 0.7493 2.60096) (end 0.24892 2.55016) (layer F.Cu) (width 0.381))
  (fp_line (start 0.24892 2.55016) (end -0.20066 2.4003) (layer F.Cu) (width 0.381))
  (fp_line (start -0.20066 2.4003) (end -0.35052 2.19964) (layer F.Cu) (width 0.381))
  (fp_line (start -0.35052 2.19964) (end -0.55118 1.84912) (layer F.Cu) (width 0.381))
  (fp_line (start -0.55118 1.84912) (end -0.70104 1.34874) (layer F.Cu) (width 0.381))
  (fp_line (start -0.70104 1.34874) (end -0.8509 1.09982) (layer F.Cu) (width 0.381))
  (fp_line (start -0.8509 1.09982) (end -1.15062 1.04902) (layer F.Cu) (width 0.381))
  (fp_line (start 1.80086 1.84912) (end 1.651 1.84912) (layer F.Cu) (width 0.381))
  (fp_line (start 1.651 1.84912) (end 1.24968 1.95072) (layer F.Cu) (width 0.381))
  (fp_line (start 1.24968 1.95072) (end 1.39954 2.30124) (layer F.Cu) (width 0.381))
  (fp_line (start 1.39954 2.30124) (end 1.75006 2.49936) (layer F.Cu) (width 0.381))
  (fp_line (start 1.75006 0) (end 1.69926 0.65024) (layer F.Cu) (width 0.381))
  (fp_line (start 1.00076 0.50038) (end 1.09982 0.65024) (layer F.Cu) (width 0.381))
  (fp_line (start 1.09982 0.65024) (end 1.24968 0.8001) (layer F.Cu) (width 0.381))
  (fp_line (start 1.24968 0.8001) (end 1.39954 0.8001) (layer F.Cu) (width 0.381))
  (fp_line (start 1.39954 0.8001) (end 1.6002 0.70104) (layer F.Cu) (width 0.381))
  (fp_line (start 1.6002 0.70104) (end 1.80086 0.70104) (layer F.Cu) (width 0.381))
  (fp_line (start 0.8509 0.44958) (end 0.55118 0.29972) (layer F.Cu) (width 0.381))
  (fp_line (start 0.55118 0.29972) (end 0.24892 0.29972) (layer F.Cu) (width 0.381))
  (fp_line (start 0.24892 0.29972) (end 0.09906 0.29972) (layer F.Cu) (width 0.381))
  (fp_line (start 0.09906 0.29972) (end -0.09906 0.39878) (layer F.Cu) (width 0.381))
  (fp_line (start -0.09906 0.39878) (end -0.29972 0.44958) (layer F.Cu) (width 0.381))
  (fp_line (start 0.65024 -0.55118) (end 0.70104 -0.09906) (layer F.Cu) (width 0.381))
  (fp_line (start 0.70104 -0.09906) (end 0.8509 0.29972) (layer F.Cu) (width 0.381))
  (fp_line (start 0.8509 0.29972) (end 0.94996 0.44958) (layer F.Cu) (width 0.381))
  (fp_line (start 1.75006 1.24968) (end 1.651 1.39954) (layer F.Cu) (width 0.381))
  (fp_line (start 0.89916 1.15062) (end 0.44958 0.8001) (layer F.Cu) (width 0.381))
  (fp_line (start 0.44958 0.8001) (end 0.0508 0.94996) (layer F.Cu) (width 0.381))
  (fp_line (start 0.0508 0.94996) (end 0.09906 1.34874) (layer F.Cu) (width 0.381))
  (fp_line (start 0.09906 1.34874) (end 0.35052 1.50114) (layer F.Cu) (width 0.381))
  (fp_line (start 0.35052 1.50114) (end 0.65024 1.50114) (layer F.Cu) (width 0.381))
  (fp_line (start 0.65024 1.50114) (end 0.7493 1.39954) (layer F.Cu) (width 0.381))
  (fp_line (start 0.7493 1.39954) (end 0.89916 1.15062) (layer F.Cu) (width 0.381))
  (fp_line (start 1.19888 -0.59944) (end 1.34874 -0.94996) (layer F.Cu) (width 0.381))
  (fp_line (start 1.34874 -0.94996) (end 1.75006 -0.8509) (layer F.Cu) (width 0.381))
  (fp_line (start 1.75006 -0.8509) (end 1.84912 -0.65024) (layer F.Cu) (width 0.381))
  (fp_line (start 1.84912 -0.65024) (end 1.75006 -0.39878) (layer F.Cu) (width 0.381))
  (fp_line (start 1.75006 -0.39878) (end 1.30048 -0.50038) (layer F.Cu) (width 0.381))
  (fp_line (start 0.0508 -0.44958) (end -0.29972 -0.59944) (layer F.Cu) (width 0.381))
  (fp_line (start -0.29972 -0.59944) (end -0.7493 -0.70104) (layer F.Cu) (width 0.381))
  (fp_line (start -0.7493 -0.70104) (end -1.00076 -0.44958) (layer F.Cu) (width 0.381))
  (fp_line (start -1.00076 -0.44958) (end -0.8001 -0.20066) (layer F.Cu) (width 0.381))
  (fp_line (start -0.8001 -0.20066) (end -0.39878 -0.20066) (layer F.Cu) (width 0.381))
  (fp_line (start -0.39878 -0.20066) (end 0 -0.39878) (layer F.Cu) (width 0.381))
  (fp_line (start 0 -1.5494) (end 0.39878 -1.69926) (layer F.Cu) (width 0.381))
  (fp_line (start 0.39878 -1.69926) (end 0.65024 -2.04978) (layer F.Cu) (width 0.381))
  (fp_line (start -2.99974 -0.24892) (end -2.99974 0.35052) (layer F.Cu) (width 0.381))
  (fp_line (start -2.99974 0.35052) (end -3.50012 1.09982) (layer F.Cu) (width 0.381))
  (fp_line (start -3.50012 1.09982) (end -2.10058 0.55118) (layer F.Cu) (width 0.381))
  (fp_line (start -2.10058 0.55118) (end -1.6002 0.20066) (layer F.Cu) (width 0.381))
  (fp_line (start -1.6002 0.20066) (end -1.45034 -0.7493) (layer F.Cu) (width 0.381))
  (fp_line (start -1.45034 -0.7493) (end -0.8509 -1.30048) (layer F.Cu) (width 0.381))
  (fp_line (start 1.09982 -3.50012) (end 1.5494 -2.90068) (layer F.Cu) (width 0.381))
  (fp_line (start 1.5494 -2.90068) (end 1.89992 -2.79908) (layer F.Cu) (width 0.381))
  (fp_line (start 1.89992 -2.79908) (end 2.3495 -2.79908) (layer F.Cu) (width 0.381))
  (fp_line (start 2.3495 -2.79908) (end 2.70002 -2.75082) (layer F.Cu) (width 0.381))
  (fp_line (start 2.70002 -2.75082) (end 2.90068 -2.3495) (layer F.Cu) (width 0.381))
  (fp_line (start 2.90068 -2.3495) (end 2.94894 -2.04978) (layer F.Cu) (width 0.381))
  (fp_line (start 2.94894 -2.04978) (end 2.64922 -1.80086) (layer F.Cu) (width 0.381))
  (fp_line (start 2.64922 -1.80086) (end 2.3495 -1.75006) (layer F.Cu) (width 0.381))
  (fp_line (start 2.3495 -1.75006) (end 1.99898 -1.89992) (layer F.Cu) (width 0.381))
  (fp_line (start 1.99898 -1.89992) (end 1.5494 -2.19964) (layer F.Cu) (width 0.381))
  (fp_line (start 1.5494 -2.19964) (end 1.30048 -2.4003) (layer F.Cu) (width 0.381))
  (fp_line (start 1.30048 -2.4003) (end 1.00076 -2.55016) (layer F.Cu) (width 0.381))
  (fp_line (start 1.00076 -2.55016) (end 0.59944 -2.55016) (layer F.Cu) (width 0.381))
  (fp_line (start 0.59944 -2.55016) (end 0.09906 -2.30124) (layer F.Cu) (width 0.381))
  (fp_line (start 0.09906 -2.30124) (end -0.09906 -2.3495) (layer F.Cu) (width 0.381))
  (fp_line (start -0.09906 -2.3495) (end -0.39878 -2.49936) (layer F.Cu) (width 0.381))
  (fp_line (start -0.39878 -2.49936) (end -0.89916 -2.60096) (layer F.Cu) (width 0.381))
  (fp_line (start -0.89916 -2.60096) (end -1.39954 -2.55016) (layer F.Cu) (width 0.381))
  (fp_line (start -1.39954 -2.55016) (end -1.99898 -2.14884) (layer F.Cu) (width 0.381))
  (fp_line (start -1.99898 -2.14884) (end -2.4511 -1.69926) (layer F.Cu) (width 0.381))
  (fp_line (start -2.4511 -1.69926) (end -2.79908 -1.30048) (layer F.Cu) (width 0.381))
  (fp_line (start -2.79908 -1.30048) (end -3.2512 -1.45034) (layer F.Cu) (width 0.381))
  (fp_line (start -3.2512 -1.45034) (end -3.44932 -1.95072) (layer F.Cu) (width 0.381))
  (fp_line (start -3.44932 -1.95072) (end -3.35026 -2.60096) (layer F.Cu) (width 0.381))
  (fp_line (start -3.35026 -2.60096) (end -3.05054 -2.84988) (layer F.Cu) (width 0.381))
  (fp_line (start -3.05054 -2.84988) (end -2.60096 -2.99974) (layer F.Cu) (width 0.381))
  (fp_line (start -2.60096 -2.99974) (end -1.95072 -3.1496) (layer F.Cu) (width 0.381))
  (fp_line (start -1.95072 -3.1496) (end -1.6002 -3.0988) (layer F.Cu) (width 0.381))
  (fp_line (start -1.6002 -3.0988) (end -1.04902 -3.35026) (layer F.Cu) (width 0.381))
  (fp_line (start -1.04902 -3.35026) (end -0.8509 -3.70078) (layer F.Cu) (width 0.381))
  (fp_line (start -0.8509 -3.70078) (end -1.24968 -3.55092) (layer F.Cu) (width 0.381))
  (fp_line (start -1.24968 -3.55092) (end -1.89992 -3.59918) (layer F.Cu) (width 0.381))
  (fp_line (start -1.89992 -3.59918) (end -2.84988 -3.74904) (layer F.Cu) (width 0.381))
  (fp_line (start -2.84988 -3.74904) (end -3.2512 -3.70078) (layer F.Cu) (width 0.381))
  (fp_line (start -3.2512 -3.70078) (end -3.59918 -3.55092) (layer F.Cu) (width 0.381))
  (fp_line (start -3.59918 -3.55092) (end -4.20116 -3.1496) (layer F.Cu) (width 0.381))
  (fp_line (start -4.20116 -3.1496) (end -4.65074 -2.3495) (layer F.Cu) (width 0.381))
  (fp_line (start -4.65074 -2.3495) (end -4.7498 -1.651) (layer F.Cu) (width 0.381))
  (fp_line (start -4.7498 -1.651) (end -4.45008 -0.7493) (layer F.Cu) (width 0.381))
  (fp_line (start -4.45008 -0.7493) (end -3.8989 -0.24892) (layer F.Cu) (width 0.381))
  (fp_line (start -3.8989 -0.24892) (end -3.2512 0) (layer F.Cu) (width 0.381))
  (fp_line (start -3.2512 0) (end -2.49936 -1.19888) (layer F.Cu) (width 0.381))
  (fp_line (start -2.49936 -1.19888) (end -1.80086 -1.84912) (layer F.Cu) (width 0.381))
  (fp_line (start -1.80086 -1.84912) (end -1.19888 -2.30124) (layer F.Cu) (width 0.381))
  (fp_line (start -1.19888 -2.30124) (end -0.65024 -2.3495) (layer F.Cu) (width 0.381))
  (fp_line (start -0.65024 -2.3495) (end -0.20066 -2.14884) (layer F.Cu) (width 0.381))
  (fp_line (start -0.20066 -2.14884) (end 0.20066 -2.04978) (layer F.Cu) (width 0.381))
  (fp_line (start 0.20066 -2.04978) (end 0.65024 -2.19964) (layer F.Cu) (width 0.381))
  (fp_line (start 0.65024 -2.19964) (end 1.09982 -2.10058) (layer F.Cu) (width 0.381))
  (fp_line (start 1.09982 -2.10058) (end 1.69926 -1.80086) (layer F.Cu) (width 0.381))
  (fp_line (start 1.69926 -1.80086) (end 1.89992 -1.5494) (layer F.Cu) (width 0.381))
  (fp_line (start 1.89992 -1.5494) (end 2.60096 -0.44958) (layer F.Cu) (width 0.381))
  (fp_line (start 2.60096 -0.44958) (end 2.90068 0.20066) (layer F.Cu) (width 0.381))
  (fp_line (start 2.90068 0.20066) (end 2.30124 0.29972) (layer F.Cu) (width 0.381))
  (fp_line (start 2.30124 0.29972) (end 1.84912 -0.09906) (layer F.Cu) (width 0.381))
  (fp_line (start 1.75006 0.70104) (end 2.14884 0.70104) (layer F.Cu) (width 0.381))
  (fp_line (start 2.14884 0.70104) (end 2.30124 0.8509) (layer F.Cu) (width 0.381))
  (fp_line (start 2.30124 0.8509) (end 1.80086 1.84912) (layer F.Cu) (width 0.381))
  (fp_line (start 1.15062 -3.59918) (end 1.75006 -3.35026) (layer F.Cu) (width 0.381))
  (fp_line (start 1.75006 -3.35026) (end 2.19964 -3.44932) (layer F.Cu) (width 0.381))
  (fp_line (start 2.19964 -3.44932) (end 2.70002 -3.70078) (layer F.Cu) (width 0.381))
  (fp_line (start 2.70002 -3.70078) (end 3.1496 -3.74904) (layer F.Cu) (width 0.381))
  (fp_line (start 3.1496 -3.74904) (end 3.59918 -3.50012) (layer F.Cu) (width 0.381))
  (fp_line (start 3.59918 -3.50012) (end 4.04876 -3.2004) (layer F.Cu) (width 0.381))
  (fp_line (start 4.04876 -3.2004) (end 4.24942 -2.64922) (layer F.Cu) (width 0.381))
  (fp_line (start 4.24942 -2.64922) (end 4.24942 -2.19964) (layer F.Cu) (width 0.381))
  (fp_line (start 4.24942 -2.19964) (end 4.15036 -1.80086) (layer F.Cu) (width 0.381))
  (fp_line (start 4.15036 -1.80086) (end 3.8989 -1.24968) (layer F.Cu) (width 0.381))
  (fp_line (start 3.8989 -1.24968) (end 3.44932 -0.8509) (layer F.Cu) (width 0.381))
  (fp_line (start 3.44932 -0.8509) (end 2.90068 -0.44958) (layer F.Cu) (width 0.381))
)
