(module Symbol_CC-Noncommercial_CopperTop_Big (layer F.Cu)
  (at 0 0)
  (descr "Symbol, CC-Noncommercial, Copper Top, Big,")
  (tags "Symbol, CC-Noncommercial, Copper Top, Big,")
  (attr virtual)
  (fp_text reference REF** (at 0.59944 -7.29996) (layer F.SilkS)
    (effects (font (size 1 1) (thickness 0.15)))
  )
  (fp_text value Symbol_CC-Noncommercial_CopperTop_Big (at 0.59944 8.001) (layer F.Fab)
    (effects (font (size 1 1) (thickness 0.15)))
  )
  (fp_line (start 0 3.70078) (end 0.20066 3.70078) (layer F.Cu) (width 0.381))
  (fp_line (start 0.20066 3.70078) (end 0.20066 2.99974) (layer F.Cu) (width 0.381))
  (fp_line (start 0 -3.59918) (end 0.20066 -3.59918) (layer F.Cu) (width 0.381))
  (fp_line (start 0.20066 -3.59918) (end 0.20066 -2.99974) (layer F.Cu) (width 0.381))
  (fp_line (start 0 2.79908) (end 0 3.70078) (layer F.Cu) (width 0.381))
  (fp_line (start 0 -2.99974) (end 0 -3.59918) (layer F.Cu) (width 0.381))
  (fp_line (start -5.30098 -1.50114) (end 5.40004 1.09982) (layer F.Cu) (width 0.381))
  (fp_line (start 5.40004 1.09982) (end 5.30098 1.39954) (layer F.Cu) (width 0.381))
  (fp_line (start 5.30098 1.39954) (end -5.30098 -1.19888) (layer F.Cu) (width 0.381))
  (fp_line (start -5.30098 -1.19888) (end -5.40004 -0.89916) (layer F.Cu) (width 0.381))
  (fp_line (start -5.40004 -0.89916) (end 4.699 1.6002) (layer F.Cu) (width 0.381))
  (fp_line (start 2.30124 -2.4003) (end 2.4003 -2.49936) (layer F.Cu) (width 0.381))
  (fp_line (start 2.4003 -2.49936) (end 1.99898 -2.70002) (layer F.Cu) (width 0.381))
  (fp_line (start 1.99898 -2.70002) (end 1.19888 -2.90068) (layer F.Cu) (width 0.381))
  (fp_line (start 1.19888 -2.90068) (end 0.50038 -2.90068) (layer F.Cu) (width 0.381))
  (fp_line (start 0.50038 -2.90068) (end -0.59944 -2.90068) (layer F.Cu) (width 0.381))
  (fp_line (start -0.59944 -2.90068) (end -0.89916 -2.90068) (layer F.Cu) (width 0.381))
  (fp_line (start -0.89916 -2.90068) (end -1.6002 -2.60096) (layer F.Cu) (width 0.381))
  (fp_line (start -1.6002 -2.60096) (end -2.19964 -1.99898) (layer F.Cu) (width 0.381))
  (fp_line (start -2.19964 -1.99898) (end -2.4003 -1.6002) (layer F.Cu) (width 0.381))
  (fp_line (start -2.4003 -1.6002) (end -2.4003 -1.00076) (layer F.Cu) (width 0.381))
  (fp_line (start -2.4003 -1.00076) (end -2.10058 -0.59944) (layer F.Cu) (width 0.381))
  (fp_line (start -2.10058 -0.59944) (end -1.80086 -0.09906) (layer F.Cu) (width 0.381))
  (fp_line (start -1.80086 -0.09906) (end -1.30048 0.20066) (layer F.Cu) (width 0.381))
  (fp_line (start -1.30048 0.20066) (end -0.50038 0.39878) (layer F.Cu) (width 0.381))
  (fp_line (start -0.50038 0.39878) (end 0.70104 0.59944) (layer F.Cu) (width 0.381))
  (fp_line (start 0.70104 0.59944) (end 1.19888 0.89916) (layer F.Cu) (width 0.381))
  (fp_line (start 1.19888 0.89916) (end 1.50114 1.19888) (layer F.Cu) (width 0.381))
  (fp_line (start 1.50114 1.19888) (end 1.50114 1.6002) (layer F.Cu) (width 0.381))
  (fp_line (start 1.50114 1.6002) (end 1.19888 1.89992) (layer F.Cu) (width 0.381))
  (fp_line (start 1.19888 1.89992) (end 0.59944 2.10058) (layer F.Cu) (width 0.381))
  (fp_line (start 0.59944 2.10058) (end -0.89916 2.10058) (layer F.Cu) (width 0.381))
  (fp_line (start -0.89916 2.10058) (end -1.89992 1.89992) (layer F.Cu) (width 0.381))
  (fp_line (start -1.89992 1.89992) (end -2.19964 1.89992) (layer F.Cu) (width 0.381))
  (fp_line (start -2.19964 1.89992) (end -2.4003 2.10058) (layer F.Cu) (width 0.381))
  (fp_line (start -2.4003 2.10058) (end -2.4003 2.60096) (layer F.Cu) (width 0.381))
  (fp_line (start -2.4003 2.60096) (end -1.80086 2.79908) (layer F.Cu) (width 0.381))
  (fp_line (start -1.80086 2.79908) (end -1.19888 2.90068) (layer F.Cu) (width 0.381))
  (fp_line (start -1.19888 2.90068) (end 0.70104 2.90068) (layer F.Cu) (width 0.381))
  (fp_line (start 0.70104 2.90068) (end 1.50114 2.70002) (layer F.Cu) (width 0.381))
  (fp_line (start 1.50114 2.70002) (end 1.99898 2.30124) (layer F.Cu) (width 0.381))
  (fp_line (start 1.99898 2.30124) (end 2.4003 1.80086) (layer F.Cu) (width 0.381))
  (fp_line (start 2.4003 1.80086) (end 2.4003 1.00076) (layer F.Cu) (width 0.381))
  (fp_line (start 2.4003 1.00076) (end 1.99898 0.39878) (layer F.Cu) (width 0.381))
  (fp_line (start 1.99898 0.39878) (end 1.50114 0) (layer F.Cu) (width 0.381))
  (fp_line (start 1.50114 0) (end 0.8001 -0.29972) (layer F.Cu) (width 0.381))
  (fp_line (start 0.8001 -0.29972) (end -0.59944 -0.50038) (layer F.Cu) (width 0.381))
  (fp_line (start -0.59944 -0.50038) (end -1.30048 -0.8001) (layer F.Cu) (width 0.381))
  (fp_line (start -1.30048 -0.8001) (end -1.6002 -1.30048) (layer F.Cu) (width 0.381))
  (fp_line (start -1.6002 -1.30048) (end -1.30048 -1.69926) (layer F.Cu) (width 0.381))
  (fp_line (start -1.30048 -1.69926) (end -0.59944 -2.10058) (layer F.Cu) (width 0.381))
  (fp_line (start -0.59944 -2.10058) (end 1.00076 -2.10058) (layer F.Cu) (width 0.381))
  (fp_line (start 1.00076 -2.10058) (end 1.80086 -1.80086) (layer F.Cu) (width 0.381))
  (fp_line (start 1.80086 -1.80086) (end 2.19964 -1.80086) (layer F.Cu) (width 0.381))
  (fp_line (start 2.19964 -1.80086) (end 2.4003 -1.99898) (layer F.Cu) (width 0.381))
  (fp_line (start 2.4003 -1.99898) (end 2.4003 -2.4003) (layer F.Cu) (width 0.381))
  (fp_line (start 2.4003 -2.4003) (end 1.89992 -2.4003) (layer F.Cu) (width 0.381))
  (fp_line (start 1.89992 -2.4003) (end 0.8001 -2.60096) (layer F.Cu) (width 0.381))
  (fp_line (start 0.8001 -2.60096) (end -1.09982 -2.60096) (layer F.Cu) (width 0.381))
  (fp_line (start -1.09982 -2.60096) (end -1.89992 -1.99898) (layer F.Cu) (width 0.381))
  (fp_line (start -1.89992 -1.99898) (end -2.19964 -1.19888) (layer F.Cu) (width 0.381))
  (fp_line (start -2.19964 -1.19888) (end -1.89992 -0.70104) (layer F.Cu) (width 0.381))
  (fp_line (start -1.89992 -0.70104) (end -1.30048 -0.09906) (layer F.Cu) (width 0.381))
  (fp_line (start -1.30048 -0.09906) (end 0 0.29972) (layer F.Cu) (width 0.381))
  (fp_line (start 0 0.29972) (end 1.19888 0.59944) (layer F.Cu) (width 0.381))
  (fp_line (start 1.19888 0.59944) (end 1.69926 1.09982) (layer F.Cu) (width 0.381))
  (fp_line (start 1.69926 1.09982) (end 1.6002 1.89992) (layer F.Cu) (width 0.381))
  (fp_line (start 1.6002 1.89992) (end 0.89916 2.30124) (layer F.Cu) (width 0.381))
  (fp_line (start 0.89916 2.30124) (end -0.29972 2.30124) (layer F.Cu) (width 0.381))
  (fp_line (start -0.29972 2.30124) (end -1.6002 2.19964) (layer F.Cu) (width 0.381))
  (fp_line (start -1.6002 2.19964) (end -2.19964 2.19964) (layer F.Cu) (width 0.381))
  (fp_line (start -2.19964 2.19964) (end -2.19964 2.4003) (layer F.Cu) (width 0.381))
  (fp_line (start -2.19964 2.4003) (end -1.09982 2.60096) (layer F.Cu) (width 0.381))
  (fp_line (start -1.09982 2.60096) (end -0.09906 2.60096) (layer F.Cu) (width 0.381))
  (fp_line (start -0.09906 2.60096) (end 0.89916 2.60096) (layer F.Cu) (width 0.381))
  (fp_line (start 0.89916 2.60096) (end 1.80086 2.10058) (layer F.Cu) (width 0.381))
  (fp_line (start 1.80086 2.10058) (end 2.10058 1.6002) (layer F.Cu) (width 0.381))
  (fp_line (start 2.10058 1.6002) (end 1.89992 1.6002) (layer F.Cu) (width 0.381))
  (fp_line (start 1.89992 1.6002) (end 2.19964 1.19888) (layer F.Cu) (width 0.381))
  (fp_line (start 2.19964 1.19888) (end 1.89992 1.19888) (layer F.Cu) (width 0.381))
  (fp_line (start 1.89992 1.19888) (end 1.99898 0.89916) (layer F.Cu) (width 0.381))
  (fp_line (start 1.99898 0.89916) (end 1.39954 0.29972) (layer F.Cu) (width 0.381))
  (fp_line (start 1.39954 0.29972) (end 0.50038 0) (layer F.Cu) (width 0.381))
  (fp_line (start 0.50038 0) (end 0.50038 0.20066) (layer F.Cu) (width 0.381))
  (fp_line (start 0.50038 0.20066) (end 0.89916 0.39878) (layer F.Cu) (width 0.381))
  (fp_line (start 0.89916 0.39878) (end 0.20066 -0.20066) (layer F.Cu) (width 0.381))
  (fp_line (start 0.20066 -0.20066) (end 0.20066 0.09906) (layer F.Cu) (width 0.381))
  (fp_line (start 0.20066 0.09906) (end -0.20066 -0.20066) (layer F.Cu) (width 0.381))
  (fp_line (start -0.20066 -0.20066) (end -0.39878 -0.09906) (layer F.Cu) (width 0.381))
  (fp_line (start -0.39878 -0.09906) (end -1.39954 -0.50038) (layer F.Cu) (width 0.381))
  (fp_line (start -1.39954 -0.50038) (end -1.89992 -1.19888) (layer F.Cu) (width 0.381))
  (fp_line (start -1.89992 -1.19888) (end -1.6002 -1.80086) (layer F.Cu) (width 0.381))
  (fp_line (start -1.6002 -1.80086) (end -0.89916 -2.30124) (layer F.Cu) (width 0.381))
  (fp_line (start -0.89916 -2.30124) (end -0.09906 -2.4003) (layer F.Cu) (width 0.381))
  (fp_line (start -0.09906 -2.4003) (end 1.00076 -2.30124) (layer F.Cu) (width 0.381))
  (fp_line (start 1.00076 -2.30124) (end 2.10058 -2.10058) (layer F.Cu) (width 0.381))
  (fp_line (start 0 -5.40004) (end -0.50038 -5.40004) (layer F.Cu) (width 0.381))
  (fp_line (start -0.50038 -5.40004) (end -1.30048 -5.10032) (layer F.Cu) (width 0.381))
  (fp_line (start -1.30048 -5.10032) (end -1.99898 -4.89966) (layer F.Cu) (width 0.381))
  (fp_line (start -1.99898 -4.89966) (end -2.70002 -4.699) (layer F.Cu) (width 0.381))
  (fp_line (start -2.70002 -4.699) (end -3.29946 -4.20116) (layer F.Cu) (width 0.381))
  (fp_line (start -3.29946 -4.20116) (end -4.0005 -3.59918) (layer F.Cu) (width 0.381))
  (fp_line (start -4.0005 -3.59918) (end -4.50088 -2.99974) (layer F.Cu) (width 0.381))
  (fp_line (start -4.50088 -2.99974) (end -5.00126 -2.10058) (layer F.Cu) (width 0.381))
  (fp_line (start -5.00126 -2.10058) (end -5.30098 -1.09982) (layer F.Cu) (width 0.381))
  (fp_line (start -5.30098 -1.09982) (end -5.40004 0.09906) (layer F.Cu) (width 0.381))
  (fp_line (start -5.40004 0.09906) (end -5.19938 1.30048) (layer F.Cu) (width 0.381))
  (fp_line (start -5.19938 1.30048) (end -4.8006 2.4003) (layer F.Cu) (width 0.381))
  (fp_line (start -4.8006 2.4003) (end -3.79984 3.8989) (layer F.Cu) (width 0.381))
  (fp_line (start -3.79984 3.8989) (end -2.60096 4.8006) (layer F.Cu) (width 0.381))
  (fp_line (start -2.60096 4.8006) (end -1.30048 5.30098) (layer F.Cu) (width 0.381))
  (fp_line (start -1.30048 5.30098) (end 0.09906 5.30098) (layer F.Cu) (width 0.381))
  (fp_line (start 0.09906 5.30098) (end 1.6002 5.19938) (layer F.Cu) (width 0.381))
  (fp_line (start 1.6002 5.19938) (end 2.60096 4.699) (layer F.Cu) (width 0.381))
  (fp_line (start 2.60096 4.699) (end 4.20116 3.40106) (layer F.Cu) (width 0.381))
  (fp_line (start 4.20116 3.40106) (end 5.00126 1.80086) (layer F.Cu) (width 0.381))
  (fp_line (start 5.00126 1.80086) (end 5.40004 0.29972) (layer F.Cu) (width 0.381))
  (fp_line (start 5.40004 0.29972) (end 5.19938 -1.39954) (layer F.Cu) (width 0.381))
  (fp_line (start 5.19938 -1.39954) (end 4.699 -2.49936) (layer F.Cu) (width 0.381))
  (fp_line (start 4.699 -2.49936) (end 3.40106 -4.09956) (layer F.Cu) (width 0.381))
  (fp_line (start 3.40106 -4.09956) (end 2.4003 -4.8006) (layer F.Cu) (width 0.381))
  (fp_line (start 2.4003 -4.8006) (end 1.39954 -5.19938) (layer F.Cu) (width 0.381))
  (fp_line (start 1.39954 -5.19938) (end 0 -5.30098) (layer F.Cu) (width 0.381))
  (fp_circle (center 0 0) (end 5.08 1.016) (layer F.Cu) (width 0.381))
  (fp_circle (center 0 0) (end 5.588 0) (layer F.Cu) (width 0.381))
)
