(module DFN-8-1EP_4x4mm_P0.8mm_EP2.3x3.24mm (layer F.Cu) (tedit 5DC5F54E)
  (descr "DFN, 8 Pin (https://www.st.com/resource/en/datasheet/ld1086.pdf#page=35), generated with kicad-footprint-generator ipc_noLead_generator.py")
  (tags "DFN NoLead")
  (attr smd)
  (fp_text reference REF** (at 0 -2.95) (layer F.SilkS)
    (effects (font (size 1 1) (thickness 0.15)))
  )
  (fp_text value DFN-8-1EP_4x4mm_P0.8mm_EP2.3x3.24mm (at 0 2.95) (layer F.Fab)
    (effects (font (size 1 1) (thickness 0.15)))
  )
  (fp_line (start 0 -2.11) (end 2 -2.11) (layer F.SilkS) (width 0.12))
  (fp_line (start -2 2.11) (end 2 2.11) (layer F.SilkS) (width 0.12))
  (fp_line (start -1 -2) (end 2 -2) (layer F.Fab) (width 0.1))
  (fp_line (start 2 -2) (end 2 2) (layer F.Fab) (width 0.1))
  (fp_line (start 2 2) (end -2 2) (layer F.Fab) (width 0.1))
  (fp_line (start -2 2) (end -2 -1) (layer F.Fab) (width 0.1))
  (fp_line (start -2 -1) (end -1 -2) (layer F.Fab) (width 0.1))
  (fp_line (start -2.62 -2.25) (end -2.62 2.25) (layer F.CrtYd) (width 0.05))
  (fp_line (start -2.62 2.25) (end 2.62 2.25) (layer F.CrtYd) (width 0.05))
  (fp_line (start 2.62 2.25) (end 2.62 -2.25) (layer F.CrtYd) (width 0.05))
  (fp_line (start 2.62 -2.25) (end -2.62 -2.25) (layer F.CrtYd) (width 0.05))
  (pad 1 smd roundrect (at -1.9 -1.2) (size 0.95 0.35) (layers F.Cu F.Mask F.Paste) (roundrect_rratio 0.25))
  (pad 2 smd roundrect (at -1.9 -0.4) (size 0.95 0.35) (layers F.Cu F.Mask F.Paste) (roundrect_rratio 0.25))
  (pad 3 smd roundrect (at -1.9 0.4) (size 0.95 0.35) (layers F.Cu F.Mask F.Paste) (roundrect_rratio 0.25))
  (pad 4 smd roundrect (at -1.9 1.2) (size 0.95 0.35) (layers F.Cu F.Mask F.Paste) (roundrect_rratio 0.25))
  (pad 5 smd roundrect (at 1.9 1.2) (size 0.95 0.35) (layers F.Cu F.Mask F.Paste) (roundrect_rratio 0.25))
  (pad 6 smd roundrect (at 1.9 0.4) (size 0.95 0.35) (layers F.Cu F.Mask F.Paste) (roundrect_rratio 0.25))
  (pad 7 smd roundrect (at 1.9 -0.4) (size 0.95 0.35) (layers F.Cu F.Mask F.Paste) (roundrect_rratio 0.25))
  (pad 8 smd roundrect (at 1.9 -1.2) (size 0.95 0.35) (layers F.Cu F.Mask F.Paste) (roundrect_rratio 0.25))
  (pad 9 smd rect (at 0 0) (size 2.3 3.24) (layers F.Cu F.Mask))
  (pad "" smd roundrect (at -0.575 -0.81) (size 0.93 1.31) (layers F.Paste) (roundrect_rratio 0.25))
  (pad "" smd roundrect (at -0.575 0.81) (size 0.93 1.31) (layers F.Paste) (roundrect_rratio 0.25))
  (pad "" smd roundrect (at 0.575 -0.81) (size 0.93 1.31) (layers F.Paste) (roundrect_rratio 0.25))
  (pad "" smd roundrect (at 0.575 0.81) (size 0.93 1.31) (layers F.Paste) (roundrect_rratio 0.25))
  (fp_text user %R (at 0 0) (layer F.Fab)
    (effects (font (size 1 1) (thickness 0.15)))
  )
  (model ${KICAD6_3DMODEL_DIR}/Package_DFN_QFN.3dshapes/DFN-8-1EP_4x4mm_P0.8mm_EP2.3x3.24mm.wrl
    (at (xyz 0 0 0))
    (scale (xyz 1 1 1))
    (rotate (xyz 0 0 0))
  )
)