(module DFN-14-1EP_3x4mm_P0.5mm_EP1.7x3.3mm (layer F.Cu) (tedit 5EA4C012)
  (descr "DE Package; 14-Lead Plastic DFN (4mm x 3mm) (see Linear Technology DFN_14_05-08-1708.pdf)")
  (tags "DFN 0.5")
  (attr smd)
  (fp_text reference REF** (at 0 -3.05) (layer F.SilkS)
    (effects (font (size 1 1) (thickness 0.15)))
  )
  (fp_text value DFN-14-1EP_3x4mm_P0.5mm_EP1.7x3.3mm (at 0 3.05) (layer F.Fab)
    (effects (font (size 1 1) (thickness 0.15)))
  )
  (fp_text user %R (at 0 0) (layer F.Fab)
    (effects (font (size 0.7 0.7) (thickness 0.105)))
  )
  (fp_line (start -0.5 -2) (end 1.5 -2) (layer F.Fab) (width 0.15))
  (fp_line (start 1.5 -2) (end 1.5 2) (layer F.Fab) (width 0.15))
  (fp_line (start 1.5 2) (end -1.5 2) (layer F.Fab) (width 0.15))
  (fp_line (start -1.5 2) (end -1.5 -1) (layer F.Fab) (width 0.15))
  (fp_line (start -1.5 -1) (end -0.5 -2) (layer F.Fab) (width 0.15))
  (fp_line (start -2.05 -2.3) (end -2.05 2.3) (layer F.CrtYd) (width 0.05))
  (fp_line (start 2.05 -2.3) (end 2.05 2.3) (layer F.CrtYd) (width 0.05))
  (fp_line (start -2.05 -2.3) (end 2.05 -2.3) (layer F.CrtYd) (width 0.05))
  (fp_line (start -2.05 2.3) (end 2.05 2.3) (layer F.CrtYd) (width 0.05))
  (fp_line (start -1.5 2.125) (end 1.5 2.125) (layer F.SilkS) (width 0.15))
  (fp_line (start 0 -2.125) (end 1.5 -2.125) (layer F.SilkS) (width 0.15))
  (pad 1 smd rect (at -1.45 -1.5) (size 0.7 0.25) (layers F.Cu F.Paste F.Mask))
  (pad 2 smd rect (at -1.45 -1) (size 0.7 0.25) (layers F.Cu F.Paste F.Mask))
  (pad 3 smd rect (at -1.45 -0.5) (size 0.7 0.25) (layers F.Cu F.Paste F.Mask))
  (pad 4 smd rect (at -1.45 0) (size 0.7 0.25) (layers F.Cu F.Paste F.Mask))
  (pad 5 smd rect (at -1.45 0.5) (size 0.7 0.25) (layers F.Cu F.Paste F.Mask))
  (pad 6 smd rect (at -1.45 1) (size 0.7 0.25) (layers F.Cu F.Paste F.Mask))
  (pad 7 smd rect (at -1.45 1.5) (size 0.7 0.25) (layers F.Cu F.Paste F.Mask))
  (pad 8 smd rect (at 1.45 1.5) (size 0.7 0.25) (layers F.Cu F.Paste F.Mask))
  (pad 9 smd rect (at 1.45 1) (size 0.7 0.25) (layers F.Cu F.Paste F.Mask))
  (pad 10 smd rect (at 1.45 0.5) (size 0.7 0.25) (layers F.Cu F.Paste F.Mask))
  (pad 11 smd rect (at 1.45 0) (size 0.7 0.25) (layers F.Cu F.Paste F.Mask))
  (pad 12 smd rect (at 1.45 -0.5) (size 0.7 0.25) (layers F.Cu F.Paste F.Mask))
  (pad 13 smd rect (at 1.45 -1) (size 0.7 0.25) (layers F.Cu F.Paste F.Mask))
  (pad 14 smd rect (at 1.45 -1.5) (size 0.7 0.25) (layers F.Cu F.Paste F.Mask))
  (pad 15 smd rect (at 0 0) (size 1.7 3.3) (layers F.Cu F.Mask))
  (pad "" smd rect (at -0.425 -1.2375) (size 0.685 0.67) (layers F.Paste))
  (pad "" smd rect (at 0.425 -1.2375) (size 0.685 0.67) (layers F.Paste))
  (pad "" smd rect (at 0.425 -0.4125) (size 0.685 0.67) (layers F.Paste))
  (pad "" smd rect (at -0.425 -0.4125) (size 0.685 0.67) (layers F.Paste))
  (pad "" smd rect (at 0.425 0.4125) (size 0.685 0.67) (layers F.Paste))
  (pad "" smd rect (at -0.425 0.4125) (size 0.685 0.67) (layers F.Paste))
  (pad "" smd rect (at 0.425 1.2375) (size 0.685 0.67) (layers F.Paste))
  (pad "" smd rect (at -0.425 1.2375) (size 0.685 0.67) (layers F.Paste))
  (model ${KICAD6_3DMODEL_DIR}/Package_DFN_QFN.3dshapes/DFN-14-1EP_3x4mm_P0.5mm_EP1.7x3.3mm.wrl
    (at (xyz 0 0 0))
    (scale (xyz 1 1 1))
    (rotate (xyz 0 0 0))
  )
)
