(module DFN-8-1EP_4x4mm_P0.8mm_EP2.39x2.21mm (layer F.Cu) (tedit 5EA4BE1A)
  (descr "8-Lead Plastic Dual Flat, No Lead Package (MD) - 4x4x0.9 mm Body [DFN] (http://www.onsemi.com/pub/Collateral/NCP4308-D.PDF)")
  (tags "DFN 0.8")
  (attr smd)
  (fp_text reference REF** (at 0 -3.075) (layer F.SilkS)
    (effects (font (size 1 1) (thickness 0.15)))
  )
  (fp_text value DFN-8-1EP_4x4mm_P0.8mm_EP2.39x2.21mm (at 0 3.075) (layer F.Fab)
    (effects (font (size 1 1) (thickness 0.15)))
  )
  (fp_text user %R (at 0 0) (layer F.Fab)
    (effects (font (size 1 1) (thickness 0.15)))
  )
  (fp_line (start -1 -2) (end 2 -2) (layer F.Fab) (width 0.15))
  (fp_line (start 2 -2) (end 2 2) (layer F.Fab) (width 0.15))
  (fp_line (start 2 2) (end -2 2) (layer F.Fab) (width 0.15))
  (fp_line (start -2 2) (end -2 -1) (layer F.Fab) (width 0.15))
  (fp_line (start -2 -1) (end -1 -2) (layer F.Fab) (width 0.15))
  (fp_line (start -2.4 -2.35) (end -2.4 2.35) (layer F.CrtYd) (width 0.05))
  (fp_line (start 2.4 -2.35) (end 2.4 2.35) (layer F.CrtYd) (width 0.05))
  (fp_line (start -2.4 -2.35) (end 2.4 -2.35) (layer F.CrtYd) (width 0.05))
  (fp_line (start -2.4 2.35) (end 2.4 2.35) (layer F.CrtYd) (width 0.05))
  (fp_line (start -2 2.12) (end 2 2.12) (layer F.SilkS) (width 0.15))
  (fp_line (start 0 -2.12) (end 2 -2.12) (layer F.SilkS) (width 0.15))
  (pad 1 smd rect (at -1.835 -1.2) (size 0.63 0.35) (layers F.Cu F.Paste F.Mask))
  (pad 2 smd rect (at -1.835 -0.4) (size 0.63 0.35) (layers F.Cu F.Paste F.Mask))
  (pad 3 smd rect (at -1.835 0.4) (size 0.63 0.35) (layers F.Cu F.Paste F.Mask))
  (pad 4 smd rect (at -1.835 1.2) (size 0.63 0.35) (layers F.Cu F.Paste F.Mask))
  (pad 5 smd rect (at 1.835 1.2) (size 0.63 0.35) (layers F.Cu F.Paste F.Mask))
  (pad 6 smd rect (at 1.835 0.4) (size 0.63 0.35) (layers F.Cu F.Paste F.Mask))
  (pad 7 smd rect (at 1.835 -0.4) (size 0.63 0.35) (layers F.Cu F.Paste F.Mask))
  (pad 8 smd rect (at 1.835 -1.2) (size 0.63 0.35) (layers F.Cu F.Paste F.Mask))
  (pad "" smd rect (at -0.5975 -0.5525) (size 0.83 0.77) (layers F.Paste))
  (pad 9 smd rect (at 0 0) (size 2.39 2.21) (layers F.Cu F.Mask))
  (pad "" smd rect (at 0.5975 -0.5525) (size 0.83 0.77) (layers F.Paste))
  (pad "" smd rect (at 0.5975 0.5525) (size 0.83 0.77) (layers F.Paste))
  (pad "" smd rect (at -0.5975 0.5525) (size 0.83 0.77) (layers F.Paste))
  (model ${KICAD6_3DMODEL_DIR}/Package_DFN_QFN.3dshapes/DFN-8-1EP_4x4mm_P0.8mm_EP2.39x2.21mm.wrl
    (at (xyz 0 0 0))
    (scale (xyz 1 1 1))
    (rotate (xyz 0 0 0))
  )
)
