(module DFN-12-1EP_4x4mm_P0.65mm_EP2.64x3.54mm (layer F.Cu) (tedit 5EA4BFB6)
  (descr "DFN12, 4x4, 0.65P; CASE 506CE (see ON Semiconductor 506CE.PDF)")
  (tags "DFN 0.65")
  (attr smd)
  (fp_text reference REF** (at 0 -3.075) (layer F.SilkS)
    (effects (font (size 1 1) (thickness 0.15)))
  )
  (fp_text value DFN-12-1EP_4x4mm_P0.65mm_EP2.64x3.54mm (at 0 3.075) (layer F.Fab)
    (effects (font (size 1 1) (thickness 0.15)))
  )
  (fp_text user %R (at 0 0) (layer F.Fab)
    (effects (font (size 1 1) (thickness 0.15)))
  )
  (fp_line (start -1 -2) (end 2 -2) (layer F.Fab) (width 0.15))
  (fp_line (start 2 -2) (end 2 2) (layer F.Fab) (width 0.15))
  (fp_line (start 2 2) (end -2 2) (layer F.Fab) (width 0.15))
  (fp_line (start -2 2) (end -2 -1) (layer F.Fab) (width 0.15))
  (fp_line (start -2 -1) (end -1 -2) (layer F.Fab) (width 0.15))
  (fp_line (start -2.4 -2.35) (end -2.4 2.35) (layer F.CrtYd) (width 0.05))
  (fp_line (start 2.4 -2.35) (end 2.4 2.35) (layer F.CrtYd) (width 0.05))
  (fp_line (start -2.4 -2.35) (end 2.4 -2.35) (layer F.CrtYd) (width 0.05))
  (fp_line (start -2.4 2.35) (end 2.4 2.35) (layer F.CrtYd) (width 0.05))
  (fp_line (start -2 2.15) (end 2 2.15) (layer F.SilkS) (width 0.15))
  (fp_line (start 0 -2.15) (end 2 -2.15) (layer F.SilkS) (width 0.15))
  (pad 1 smd rect (at -1.835 -1.625) (size 0.63 0.36) (layers F.Cu F.Paste F.Mask))
  (pad 2 smd rect (at -1.835 -0.975) (size 0.63 0.36) (layers F.Cu F.Paste F.Mask))
  (pad 3 smd rect (at -1.835 -0.325) (size 0.63 0.36) (layers F.Cu F.Paste F.Mask))
  (pad 4 smd rect (at -1.835 0.325) (size 0.63 0.36) (layers F.Cu F.Paste F.Mask))
  (pad 5 smd rect (at -1.835 0.975) (size 0.63 0.36) (layers F.Cu F.Paste F.Mask))
  (pad 6 smd rect (at -1.835 1.625) (size 0.63 0.36) (layers F.Cu F.Paste F.Mask))
  (pad 7 smd rect (at 1.835 1.625) (size 0.63 0.36) (layers F.Cu F.Paste F.Mask))
  (pad 8 smd rect (at 1.835 0.975) (size 0.63 0.36) (layers F.Cu F.Paste F.Mask))
  (pad 9 smd rect (at 1.835 0.325) (size 0.63 0.36) (layers F.Cu F.Paste F.Mask))
  (pad 10 smd rect (at 1.835 -0.325) (size 0.63 0.36) (layers F.Cu F.Paste F.Mask))
  (pad 11 smd rect (at 1.835 -0.975) (size 0.63 0.36) (layers F.Cu F.Paste F.Mask))
  (pad 12 smd rect (at 1.835 -1.625) (size 0.63 0.36) (layers F.Cu F.Paste F.Mask))
  (pad 13 smd rect (at 0 0) (size 2.64 3.54) (layers F.Cu F.Mask))
  (pad "" smd rect (at -0.66 1.3275) (size 1.1 0.7) (layers F.Paste))
  (pad "" smd rect (at 0.66 1.3275) (size 1.1 0.7) (layers F.Paste))
  (pad "" smd rect (at 0.66 0.4425) (size 1.1 0.7) (layers F.Paste))
  (pad "" smd rect (at -0.66 0.4425) (size 1.1 0.7) (layers F.Paste))
  (pad "" smd rect (at 0.66 -0.4425) (size 1.1 0.7) (layers F.Paste))
  (pad "" smd rect (at -0.66 -0.4425) (size 1.1 0.7) (layers F.Paste))
  (pad "" smd rect (at 0.66 -1.3275) (size 1.1 0.7) (layers F.Paste))
  (pad "" smd rect (at -0.66 -1.3275) (size 1.1 0.7) (layers F.Paste))
  (model ${KICAD6_3DMODEL_DIR}/Package_DFN_QFN.3dshapes/DFN-12-1EP_4x4mm_P0.65mm_EP2.64x3.54mm.wrl
    (at (xyz 0 0 0))
    (scale (xyz 1 1 1))
    (rotate (xyz 0 0 0))
  )
)
