(module Infineon_MLPQ-16-14-1EP_4x4mm_P0.5mm (layer F.Cu) (tedit 5A0AA2C0)
  (descr "MLPQ 32 leads, 7x7mm, 0.127mm stencil (https://www.infineon.com/dgdl/Infineon-AN1170-AN-v05_00-EN.pdf?fileId=5546d462533600a40153559ac3e51134)")
  (tags "mlpq 32 7x7mm")
  (solder_paste_margin -0.02)
  (attr smd)
  (fp_text reference REF** (at 0 -3.3) (layer F.SilkS)
    (effects (font (size 1 1) (thickness 0.15)))
  )
  (fp_text value Infineon_MLPQ-16-14-1EP_4x4mm_P0.5mm (at 0 3.3) (layer F.Fab)
    (effects (font (size 1 1) (thickness 0.15)))
  )
  (fp_text user %R (at 0 0) (layer F.Fab)
    (effects (font (size 0.9 0.9) (thickness 0.15)))
  )
  (fp_line (start -1 -2) (end -2 -1) (layer F.Fab) (width 0.1))
  (fp_line (start -2.55 2.55) (end -2.55 -2.55) (layer F.CrtYd) (width 0.05))
  (fp_line (start 2.55 2.55) (end -2.55 2.55) (layer F.CrtYd) (width 0.05))
  (fp_line (start 2.55 -2.55) (end 2.55 2.55) (layer F.CrtYd) (width 0.05))
  (fp_line (start -2.55 -2.55) (end 2.55 -2.55) (layer F.CrtYd) (width 0.05))
  (fp_line (start -2 2) (end -2 -1) (layer F.Fab) (width 0.1))
  (fp_line (start 2 2) (end -2 2) (layer F.Fab) (width 0.1))
  (fp_line (start 2 -2) (end 2 2) (layer F.Fab) (width 0.1))
  (fp_line (start -1 -2) (end 2 -2) (layer F.Fab) (width 0.1))
  (fp_line (start 2.12 2.12) (end 1.1 2.12) (layer F.SilkS) (width 0.12))
  (fp_line (start 2.12 0.1) (end 2.12 0.4) (layer F.SilkS) (width 0.12))
  (fp_line (start -1.1 2.12) (end -2.12 2.12) (layer F.SilkS) (width 0.12))
  (fp_line (start 2.12 -2.12) (end 1.1 -2.12) (layer F.SilkS) (width 0.12))
  (fp_line (start -1.1 -2.12) (end -2.12 -2.12) (layer F.SilkS) (width 0.12))
  (fp_line (start 2.12 1.1) (end 2.12 2.12) (layer F.SilkS) (width 0.12))
  (fp_line (start 2.12 -2.12) (end 2.12 -1.1) (layer F.SilkS) (width 0.12))
  (fp_line (start -2.12 1.1) (end -2.12 2.12) (layer F.SilkS) (width 0.12))
  (fp_line (start -2.12 -2.12) (end -2.12 -1.1) (layer F.SilkS) (width 0.12))
  (fp_line (start -2.3 -1.1) (end -2.12 -1.1) (layer F.SilkS) (width 0.12))
  (fp_line (start -0.1 -2.12) (end -0.4 -2.12) (layer F.SilkS) (width 0.12))
  (pad 17 smd rect (at -0.335 0.465) (size 1.88 1.68) (layers F.Cu F.Mask))
  (pad 17 smd rect (at -0.235 -0.475) (size 1.68 0.2) (layers F.Cu F.Mask))
  (pad 17 smd rect (at -1.075 -0.375 45) (size 0.2828 0.2828) (layers F.Cu F.Mask))
  (pad 1 smd rect (at -1.975 -0.75) (size 0.65 0.22) (layers F.Cu F.Paste F.Mask)
    (solder_paste_margin -0.02))
  (pad 2 smd rect (at -1.975 -0.25) (size 0.65 0.22) (layers F.Cu F.Paste F.Mask)
    (solder_paste_margin -0.02))
  (pad 3 smd rect (at -1.975 0.25) (size 0.65 0.22) (layers F.Cu F.Paste F.Mask)
    (solder_paste_margin -0.02))
  (pad 4 smd rect (at -1.975 0.75) (size 0.65 0.22) (layers F.Cu F.Paste F.Mask)
    (solder_paste_margin -0.02))
  (pad 9 smd rect (at 1.975 0.75) (size 0.65 0.22) (layers F.Cu F.Paste F.Mask)
    (solder_paste_margin -0.02))
  (pad 11 smd rect (at 1.975 -0.25) (size 0.65 0.22) (layers F.Cu F.Paste F.Mask)
    (solder_paste_margin -0.02))
  (pad 12 smd rect (at 1.975 -0.75) (size 0.65 0.22) (layers F.Cu F.Paste F.Mask)
    (solder_paste_margin -0.02))
  (pad 5 smd rect (at -0.75 1.975) (size 0.22 0.65) (layers F.Cu F.Paste F.Mask)
    (solder_paste_margin -0.02))
  (pad 6 smd rect (at -0.25 1.975) (size 0.22 0.65) (layers F.Cu F.Paste F.Mask)
    (solder_paste_margin -0.02))
  (pad 7 smd rect (at 0.25 1.975) (size 0.22 0.65) (layers F.Cu F.Paste F.Mask)
    (solder_paste_margin -0.02))
  (pad 8 smd rect (at 0.75 1.975) (size 0.22 0.65) (layers F.Cu F.Paste F.Mask)
    (solder_paste_margin -0.02))
  (pad 13 smd rect (at 0.75 -1.975) (size 0.22 0.65) (layers F.Cu F.Paste F.Mask)
    (solder_paste_margin -0.02))
  (pad 14 smd rect (at 0.25 -1.975) (size 0.22 0.65) (layers F.Cu F.Paste F.Mask)
    (solder_paste_margin -0.02))
  (pad 16 smd rect (at -0.75 -1.975) (size 0.22 0.65) (layers F.Cu F.Paste F.Mask)
    (solder_paste_margin -0.02))
  (pad "" smd rect (at -0.335 0.835) (size 1.5 0.8) (layers F.Paste))
  (pad "" smd rect (at -0.335 -0.105) (size 1.5 0.8) (layers F.Paste))
  (model ${KICAD6_3DMODEL_DIR}/Package_DFN_QFN.3dshapes/Infineon_MLPQ-16-14-1EP_4x4mm_P0.5mm.wrl
    (at (xyz 0 0 0))
    (scale (xyz 1 1 1))
    (rotate (xyz 0 0 0))
  )
)
