(module Microchip_DRQFN-44-1EP_5x5mm_P0.7mm_EP2.65x2.65mm (layer F.Cu) (tedit 5BC65E06)
  (descr "QFN, 44 Pin, dual row (http://ww1.microchip.com/downloads/en/DeviceDoc/44L_VQFN_5x5mm_Dual_Row_%5BS3B%5D_C04-21399a.pdf)")
  (tags "QFN dual row")
  (attr smd)
  (fp_text reference REF** (at 0 -4) (layer F.SilkS)
    (effects (font (size 1 1) (thickness 0.15)))
  )
  (fp_text value Microchip_DRQFN-44-1EP_5x5mm_P0.7mm_EP2.65x2.65mm (at 0 4) (layer F.Fab)
    (effects (font (size 1 1) (thickness 0.15)))
  )
  (fp_text user %R (at 0 0) (layer F.Fab)
    (effects (font (size 1 1) (thickness 0.15)))
  )
  (fp_line (start -1.75 -2.5) (end 2.5 -2.5) (layer F.Fab) (width 0.1))
  (fp_line (start -2.5 -1.75) (end -1.75 -2.5) (layer F.Fab) (width 0.1))
  (fp_line (start -2.5 2.5) (end -2.5 -1.75) (layer F.Fab) (width 0.1))
  (fp_line (start 2.5 -2.5) (end 2.5 2.5) (layer F.Fab) (width 0.1))
  (fp_line (start 2.5 2.5) (end -2.5 2.5) (layer F.Fab) (width 0.1))
  (fp_line (start -3 -3) (end 3 -3) (layer F.CrtYd) (width 0.05))
  (fp_line (start -3 3) (end -3 -3) (layer F.CrtYd) (width 0.05))
  (fp_line (start 3 -3) (end 3 3) (layer F.CrtYd) (width 0.05))
  (fp_line (start 3 3) (end -3 3) (layer F.CrtYd) (width 0.05))
  (fp_line (start -2.16 -2.61) (end -2.61 -2.61) (layer F.SilkS) (width 0.12))
  (fp_line (start -2.16 2.61) (end -2.61 2.61) (layer F.SilkS) (width 0.12))
  (fp_line (start -2.61 2.61) (end -2.61 2.16) (layer F.SilkS) (width 0.12))
  (fp_line (start 2.16 -2.61) (end 2.61 -2.61) (layer F.SilkS) (width 0.12))
  (fp_line (start 2.61 -2.61) (end 2.61 -2.16) (layer F.SilkS) (width 0.12))
  (fp_line (start 2.61 2.16) (end 2.61 2.61) (layer F.SilkS) (width 0.12))
  (fp_line (start 2.61 2.61) (end 2.16 2.61) (layer F.SilkS) (width 0.12))
  (pad A1 smd oval (at -2.45 -1.75) (size 0.6 0.3) (layers F.Cu F.Paste F.Mask))
  (pad A2 smd oval (at -2.45 -1.05) (size 0.6 0.3) (layers F.Cu F.Paste F.Mask))
  (pad A3 smd oval (at -2.45 -0.35) (size 0.6 0.3) (layers F.Cu F.Paste F.Mask))
  (pad A4 smd oval (at -2.45 0.35) (size 0.6 0.3) (layers F.Cu F.Paste F.Mask))
  (pad A5 smd oval (at -2.45 1.05) (size 0.6 0.3) (layers F.Cu F.Paste F.Mask))
  (pad A6 smd oval (at -2.45 1.75) (size 0.6 0.3) (layers F.Cu F.Paste F.Mask))
  (pad A7 smd oval (at -1.75 2.45) (size 0.3 0.6) (layers F.Cu F.Paste F.Mask))
  (pad A8 smd oval (at -1.05 2.45) (size 0.3 0.6) (layers F.Cu F.Paste F.Mask))
  (pad A9 smd oval (at -0.35 2.45) (size 0.3 0.6) (layers F.Cu F.Paste F.Mask))
  (pad A10 smd oval (at 0.35 2.45) (size 0.3 0.6) (layers F.Cu F.Paste F.Mask))
  (pad A11 smd oval (at 1.05 2.45) (size 0.3 0.6) (layers F.Cu F.Paste F.Mask))
  (pad A12 smd oval (at 1.75 2.45) (size 0.3 0.6) (layers F.Cu F.Paste F.Mask))
  (pad A13 smd oval (at 2.45 1.75) (size 0.6 0.3) (layers F.Cu F.Paste F.Mask))
  (pad A14 smd oval (at 2.45 1.05) (size 0.6 0.3) (layers F.Cu F.Paste F.Mask))
  (pad A15 smd oval (at 2.45 0.35) (size 0.6 0.3) (layers F.Cu F.Paste F.Mask))
  (pad A16 smd oval (at 2.45 -0.35) (size 0.6 0.3) (layers F.Cu F.Paste F.Mask))
  (pad A17 smd oval (at 2.45 -1.05) (size 0.6 0.3) (layers F.Cu F.Paste F.Mask))
  (pad A18 smd oval (at 2.45 -1.75) (size 0.6 0.3) (layers F.Cu F.Paste F.Mask))
  (pad A19 smd oval (at 1.75 -2.45) (size 0.3 0.6) (layers F.Cu F.Paste F.Mask))
  (pad A20 smd oval (at 1.05 -2.45) (size 0.3 0.6) (layers F.Cu F.Paste F.Mask))
  (pad A21 smd oval (at 0.35 -2.45) (size 0.3 0.6) (layers F.Cu F.Paste F.Mask))
  (pad A22 smd oval (at -0.35 -2.45) (size 0.3 0.6) (layers F.Cu F.Paste F.Mask))
  (pad A23 smd oval (at -1.05 -2.45) (size 0.3 0.6) (layers F.Cu F.Paste F.Mask))
  (pad A24 smd oval (at -1.75 -2.45) (size 0.3 0.6) (layers F.Cu F.Paste F.Mask))
  (pad B1 smd oval (at -1.925 -1.4) (size 0.42 0.3) (layers F.Cu F.Paste F.Mask))
  (pad B2 smd oval (at -1.925 -0.7) (size 0.42 0.3) (layers F.Cu F.Paste F.Mask))
  (pad B3 smd oval (at -1.925 0) (size 0.42 0.3) (layers F.Cu F.Paste F.Mask))
  (pad B4 smd oval (at -1.925 0.7) (size 0.42 0.3) (layers F.Cu F.Paste F.Mask))
  (pad B5 smd oval (at -1.925 1.4) (size 0.42 0.3) (layers F.Cu F.Paste F.Mask))
  (pad B6 smd oval (at -1.4 1.925) (size 0.3 0.42) (layers F.Cu F.Paste F.Mask))
  (pad B7 smd oval (at -0.7 1.925) (size 0.3 0.42) (layers F.Cu F.Paste F.Mask))
  (pad B8 smd oval (at 0 1.925) (size 0.3 0.42) (layers F.Cu F.Paste F.Mask))
  (pad B9 smd oval (at 0.7 1.925) (size 0.3 0.42) (layers F.Cu F.Paste F.Mask))
  (pad B10 smd oval (at 1.4 1.925) (size 0.3 0.42) (layers F.Cu F.Paste F.Mask))
  (pad B11 smd oval (at 1.925 1.4) (size 0.42 0.3) (layers F.Cu F.Paste F.Mask))
  (pad B12 smd oval (at 1.925 0.7) (size 0.42 0.3) (layers F.Cu F.Paste F.Mask))
  (pad B13 smd oval (at 1.925 0) (size 0.42 0.3) (layers F.Cu F.Paste F.Mask))
  (pad B14 smd oval (at 1.925 -0.7) (size 0.42 0.3) (layers F.Cu F.Paste F.Mask))
  (pad B15 smd oval (at 1.925 -1.4) (size 0.42 0.3) (layers F.Cu F.Paste F.Mask))
  (pad B16 smd oval (at 1.4 -1.925) (size 0.3 0.42) (layers F.Cu F.Paste F.Mask))
  (pad B17 smd oval (at 0.7 -1.925) (size 0.3 0.42) (layers F.Cu F.Paste F.Mask))
  (pad B18 smd oval (at 0 -1.925) (size 0.3 0.42) (layers F.Cu F.Paste F.Mask))
  (pad B19 smd oval (at -0.7 -1.925) (size 0.3 0.42) (layers F.Cu F.Paste F.Mask))
  (pad B20 smd oval (at -1.4 -1.925) (size 0.3 0.42) (layers F.Cu F.Paste F.Mask))
  (pad EP smd roundrect (at 0 0) (size 2.65 2.65) (layers F.Cu F.Mask) (roundrect_rratio 0.094))
  (pad "" smd roundrect (at -0.65 -0.65) (size 1.1 1.1) (layers F.Paste) (roundrect_rratio 0.1))
  (pad "" smd roundrect (at -0.65 0.65) (size 1.1 1.1) (layers F.Paste) (roundrect_rratio 0.1))
  (pad "" smd roundrect (at 0.65 -0.65) (size 1.1 1.1) (layers F.Paste) (roundrect_rratio 0.1))
  (pad "" smd roundrect (at 0.65 0.65) (size 1.1 1.1) (layers F.Paste) (roundrect_rratio 0.1))
  (model ${KICAD6_3DMODEL_DIR}/Package_DFN_QFN.3dshapes/Microchip_DRQFN-44-1EP_5x5mm_P0.7mm_EP2.65x2.65mm.wrl
    (at (xyz 0 0 0))
    (scale (xyz 1 1 1))
    (rotate (xyz 0 0 0))
  )
)
