(module Micrel_MLF-8-1EP_2x2mm_P0.5mm_EP0.6x1.2mm_ThermalVias (layer F.Cu) (tedit 6074D084)
  (descr "Micrel  MLF, 8 Pin (http://ww1.microchip.com/downloads/en/DeviceDoc/mic23050.pdf), generated with kicad-footprint-generator ipc_noLead_generator.py")
  (tags "Micrel MLF NoLead")
  (attr smd)
  (fp_text reference REF** (at 0 -1.95) (layer F.SilkS)
    (effects (font (size 1 1) (thickness 0.15)))
  )
  (fp_text value Micrel_MLF-8-1EP_2x2mm_P0.5mm_EP0.6x1.2mm_ThermalVias (at 0 1.95) (layer F.Fab)
    (effects (font (size 1 1) (thickness 0.15)))
  )
  (fp_line (start 0 -1.11) (end 1 -1.11) (layer F.SilkS) (width 0.12))
  (fp_line (start -1 1.11) (end 1 1.11) (layer F.SilkS) (width 0.12))
  (fp_line (start -0.5 -1) (end 1 -1) (layer F.Fab) (width 0.1))
  (fp_line (start 1 -1) (end 1 1) (layer F.Fab) (width 0.1))
  (fp_line (start 1 1) (end -1 1) (layer F.Fab) (width 0.1))
  (fp_line (start -1 1) (end -1 -0.5) (layer F.Fab) (width 0.1))
  (fp_line (start -1 -0.5) (end -0.5 -1) (layer F.Fab) (width 0.1))
  (fp_line (start -1.6 -1.25) (end -1.6 1.25) (layer F.CrtYd) (width 0.05))
  (fp_line (start -1.6 1.25) (end 1.6 1.25) (layer F.CrtYd) (width 0.05))
  (fp_line (start 1.6 1.25) (end 1.6 -1.25) (layer F.CrtYd) (width 0.05))
  (fp_line (start 1.6 -1.25) (end -1.6 -1.25) (layer F.CrtYd) (width 0.05))
  (pad 1 smd roundrect (at -0.975 -0.75) (size 0.75 0.25) (layers F.Cu F.Mask F.Paste) (roundrect_rratio 0.25))
  (pad 2 smd roundrect (at -0.975 -0.25) (size 0.75 0.25) (layers F.Cu F.Mask F.Paste) (roundrect_rratio 0.25))
  (pad 3 smd roundrect (at -0.975 0.25) (size 0.75 0.25) (layers F.Cu F.Mask F.Paste) (roundrect_rratio 0.25))
  (pad 4 smd roundrect (at -0.975 0.75) (size 0.75 0.25) (layers F.Cu F.Mask F.Paste) (roundrect_rratio 0.25))
  (pad 5 smd roundrect (at 0.975 0.75) (size 0.75 0.25) (layers F.Cu F.Mask F.Paste) (roundrect_rratio 0.25))
  (pad 6 smd roundrect (at 0.975 0.25) (size 0.75 0.25) (layers F.Cu F.Mask F.Paste) (roundrect_rratio 0.25))
  (pad 7 smd roundrect (at 0.975 -0.25) (size 0.75 0.25) (layers F.Cu F.Mask F.Paste) (roundrect_rratio 0.25))
  (pad 8 smd roundrect (at 0.975 -0.75) (size 0.75 0.25) (layers F.Cu F.Mask F.Paste) (roundrect_rratio 0.25))
  (pad 9 smd rect (at 0 0) (size 0.6 1.2) (layers F.Cu F.Mask))
  (pad 9 thru_hole circle (at 0 -0.35) (size 0.5 0.5) (drill 0.2) (layers *.Cu))
  (pad 9 thru_hole circle (at 0 0.35) (size 0.5 0.5) (drill 0.2) (layers *.Cu))
  (pad 9 smd rect (at 0 0) (size 0.5 1.2) (layers B.Cu))
  (pad "" smd roundrect (at -0.15 -0.3) (size 0.24 0.48) (layers F.Paste) (roundrect_rratio 0.25))
  (pad "" smd roundrect (at -0.15 0.3) (size 0.24 0.48) (layers F.Paste) (roundrect_rratio 0.25))
  (pad "" smd roundrect (at 0.15 -0.3) (size 0.24 0.48) (layers F.Paste) (roundrect_rratio 0.25))
  (pad "" smd roundrect (at 0.15 0.3) (size 0.24 0.48) (layers F.Paste) (roundrect_rratio 0.25))
  (fp_text user ${REFERENCE} (at 0 0) (layer F.Fab)
    (effects (font (size 0.5 0.5) (thickness 0.08)))
  )
  (model ${KICAD6_3DMODEL_DIR}/Package_DFN_QFN.3dshapes/Micrel_MLF-8-1EP_2x2mm_P0.5mm_EP0.6x1.2mm.wrl
    (at (xyz 0 0 0))
    (scale (xyz 1 1 1))
    (rotate (xyz 0 0 0))
  )
)