(module OnSemi_DFN-8_2x2mm_P0.5mm (layer F.Cu) (tedit 5EA4C259)
  (descr "DFN8 2x2, 0.5P (https://www.onsemi.com/pub/Collateral/511AT.PDF)")
  (tags "DFN 0.5")
  (attr smd)
  (fp_text reference REF** (at 0 -2) (layer F.SilkS)
    (effects (font (size 1 1) (thickness 0.15)))
  )
  (fp_text value OnSemi_DFN-8_2x2mm_P0.5mm (at 0 2) (layer F.Fab)
    (effects (font (size 1 1) (thickness 0.15)))
  )
  (fp_text user %R (at 0 0) (layer F.Fab)
    (effects (font (size 0.4 0.4) (thickness 0.06)))
  )
  (fp_line (start -0.5 -1) (end 1 -1) (layer F.Fab) (width 0.1))
  (fp_line (start 1 -1) (end 1 1) (layer F.Fab) (width 0.1))
  (fp_line (start 1 1) (end -1 1) (layer F.Fab) (width 0.1))
  (fp_line (start -1 1) (end -1 -0.5) (layer F.Fab) (width 0.1))
  (fp_line (start -1 -0.5) (end -0.5 -1) (layer F.Fab) (width 0.1))
  (fp_line (start -1.4 -1.25) (end -1.4 1.25) (layer F.CrtYd) (width 0.05))
  (fp_line (start 1.4 -1.25) (end 1.4 1.25) (layer F.CrtYd) (width 0.05))
  (fp_line (start -1.4 -1.25) (end 1.4 -1.25) (layer F.CrtYd) (width 0.05))
  (fp_line (start -1.4 1.25) (end 1.4 1.25) (layer F.CrtYd) (width 0.05))
  (fp_line (start -1 1.11) (end 1 1.11) (layer F.SilkS) (width 0.12))
  (fp_line (start 0 -1.11) (end 1 -1.11) (layer F.SilkS) (width 0.12))
  (pad 1 smd rect (at -0.71 -0.75) (size 0.88 0.3) (layers F.Cu F.Paste F.Mask))
  (pad 2 smd rect (at -0.76 -0.25) (size 0.78 0.3) (layers F.Cu F.Paste F.Mask))
  (pad 3 smd rect (at -0.76 0.25) (size 0.78 0.3) (layers F.Cu F.Paste F.Mask))
  (pad 4 smd rect (at -0.76 0.75) (size 0.78 0.3) (layers F.Cu F.Paste F.Mask))
  (pad 5 smd rect (at 0.76 0.75) (size 0.78 0.3) (layers F.Cu F.Paste F.Mask))
  (pad 6 smd rect (at 0.76 0.25) (size 0.78 0.3) (layers F.Cu F.Paste F.Mask))
  (pad 7 smd rect (at 0.76 -0.25) (size 0.78 0.3) (layers F.Cu F.Paste F.Mask))
  (pad 8 smd rect (at 0.76 -0.75) (size 0.78 0.3) (layers F.Cu F.Paste F.Mask))
  (model ${KICAD6_3DMODEL_DIR}/Package_DFN_QFN.3dshapes/OnSemi_DFN-8_2x2mm_P0.5mm.wrl
    (at (xyz 0 0 0))
    (scale (xyz 1 1 1))
    (rotate (xyz 0 0 0))
  )
)
