(module QFN-28-1EP_4x5mm_P0.5mm_EP2.65x3.65mm_ThermalVias (layer F.Cu) (tedit 5DC5F6A4)
  (descr "QFN, 28 Pin (http://www.analog.com/media/en/technical-documentation/data-sheets/3555fe.pdf#page=32), generated with kicad-footprint-generator ipc_noLead_generator.py")
  (tags "QFN NoLead")
  (attr smd)
  (fp_text reference REF** (at 0 -3.82) (layer F.SilkS)
    (effects (font (size 1 1) (thickness 0.15)))
  )
  (fp_text value QFN-28-1EP_4x5mm_P0.5mm_EP2.65x3.65mm_ThermalVias (at 0 3.82) (layer F.Fab)
    (effects (font (size 1 1) (thickness 0.15)))
  )
  (fp_line (start 1.635 -2.61) (end 2.11 -2.61) (layer F.SilkS) (width 0.12))
  (fp_line (start 2.11 -2.61) (end 2.11 -2.135) (layer F.SilkS) (width 0.12))
  (fp_line (start -1.635 2.61) (end -2.11 2.61) (layer F.SilkS) (width 0.12))
  (fp_line (start -2.11 2.61) (end -2.11 2.135) (layer F.SilkS) (width 0.12))
  (fp_line (start 1.635 2.61) (end 2.11 2.61) (layer F.SilkS) (width 0.12))
  (fp_line (start 2.11 2.61) (end 2.11 2.135) (layer F.SilkS) (width 0.12))
  (fp_line (start -1.635 -2.61) (end -2.11 -2.61) (layer F.SilkS) (width 0.12))
  (fp_line (start -1 -2.5) (end 2 -2.5) (layer F.Fab) (width 0.1))
  (fp_line (start 2 -2.5) (end 2 2.5) (layer F.Fab) (width 0.1))
  (fp_line (start 2 2.5) (end -2 2.5) (layer F.Fab) (width 0.1))
  (fp_line (start -2 2.5) (end -2 -1.5) (layer F.Fab) (width 0.1))
  (fp_line (start -2 -1.5) (end -1 -2.5) (layer F.Fab) (width 0.1))
  (fp_line (start -2.62 -3.12) (end -2.62 3.12) (layer F.CrtYd) (width 0.05))
  (fp_line (start -2.62 3.12) (end 2.62 3.12) (layer F.CrtYd) (width 0.05))
  (fp_line (start 2.62 3.12) (end 2.62 -3.12) (layer F.CrtYd) (width 0.05))
  (fp_line (start 2.62 -3.12) (end -2.62 -3.12) (layer F.CrtYd) (width 0.05))
  (pad 1 smd roundrect (at -1.95 -1.75) (size 0.85 0.25) (layers F.Cu F.Mask F.Paste) (roundrect_rratio 0.25))
  (pad 2 smd roundrect (at -1.95 -1.25) (size 0.85 0.25) (layers F.Cu F.Mask F.Paste) (roundrect_rratio 0.25))
  (pad 3 smd roundrect (at -1.95 -0.75) (size 0.85 0.25) (layers F.Cu F.Mask F.Paste) (roundrect_rratio 0.25))
  (pad 4 smd roundrect (at -1.95 -0.25) (size 0.85 0.25) (layers F.Cu F.Mask F.Paste) (roundrect_rratio 0.25))
  (pad 5 smd roundrect (at -1.95 0.25) (size 0.85 0.25) (layers F.Cu F.Mask F.Paste) (roundrect_rratio 0.25))
  (pad 6 smd roundrect (at -1.95 0.75) (size 0.85 0.25) (layers F.Cu F.Mask F.Paste) (roundrect_rratio 0.25))
  (pad 7 smd roundrect (at -1.95 1.25) (size 0.85 0.25) (layers F.Cu F.Mask F.Paste) (roundrect_rratio 0.25))
  (pad 8 smd roundrect (at -1.95 1.75) (size 0.85 0.25) (layers F.Cu F.Mask F.Paste) (roundrect_rratio 0.25))
  (pad 9 smd roundrect (at -1.25 2.45) (size 0.25 0.85) (layers F.Cu F.Mask F.Paste) (roundrect_rratio 0.25))
  (pad 10 smd roundrect (at -0.75 2.45) (size 0.25 0.85) (layers F.Cu F.Mask F.Paste) (roundrect_rratio 0.25))
  (pad 11 smd roundrect (at -0.25 2.45) (size 0.25 0.85) (layers F.Cu F.Mask F.Paste) (roundrect_rratio 0.25))
  (pad 12 smd roundrect (at 0.25 2.45) (size 0.25 0.85) (layers F.Cu F.Mask F.Paste) (roundrect_rratio 0.25))
  (pad 13 smd roundrect (at 0.75 2.45) (size 0.25 0.85) (layers F.Cu F.Mask F.Paste) (roundrect_rratio 0.25))
  (pad 14 smd roundrect (at 1.25 2.45) (size 0.25 0.85) (layers F.Cu F.Mask F.Paste) (roundrect_rratio 0.25))
  (pad 15 smd roundrect (at 1.95 1.75) (size 0.85 0.25) (layers F.Cu F.Mask F.Paste) (roundrect_rratio 0.25))
  (pad 16 smd roundrect (at 1.95 1.25) (size 0.85 0.25) (layers F.Cu F.Mask F.Paste) (roundrect_rratio 0.25))
  (pad 17 smd roundrect (at 1.95 0.75) (size 0.85 0.25) (layers F.Cu F.Mask F.Paste) (roundrect_rratio 0.25))
  (pad 18 smd roundrect (at 1.95 0.25) (size 0.85 0.25) (layers F.Cu F.Mask F.Paste) (roundrect_rratio 0.25))
  (pad 19 smd roundrect (at 1.95 -0.25) (size 0.85 0.25) (layers F.Cu F.Mask F.Paste) (roundrect_rratio 0.25))
  (pad 20 smd roundrect (at 1.95 -0.75) (size 0.85 0.25) (layers F.Cu F.Mask F.Paste) (roundrect_rratio 0.25))
  (pad 21 smd roundrect (at 1.95 -1.25) (size 0.85 0.25) (layers F.Cu F.Mask F.Paste) (roundrect_rratio 0.25))
  (pad 22 smd roundrect (at 1.95 -1.75) (size 0.85 0.25) (layers F.Cu F.Mask F.Paste) (roundrect_rratio 0.25))
  (pad 23 smd roundrect (at 1.25 -2.45) (size 0.25 0.85) (layers F.Cu F.Mask F.Paste) (roundrect_rratio 0.25))
  (pad 24 smd roundrect (at 0.75 -2.45) (size 0.25 0.85) (layers F.Cu F.Mask F.Paste) (roundrect_rratio 0.25))
  (pad 25 smd roundrect (at 0.25 -2.45) (size 0.25 0.85) (layers F.Cu F.Mask F.Paste) (roundrect_rratio 0.25))
  (pad 26 smd roundrect (at -0.25 -2.45) (size 0.25 0.85) (layers F.Cu F.Mask F.Paste) (roundrect_rratio 0.25))
  (pad 27 smd roundrect (at -0.75 -2.45) (size 0.25 0.85) (layers F.Cu F.Mask F.Paste) (roundrect_rratio 0.25))
  (pad 28 smd roundrect (at -1.25 -2.45) (size 0.25 0.85) (layers F.Cu F.Mask F.Paste) (roundrect_rratio 0.25))
  (pad 29 smd rect (at 0 0) (size 2.65 3.65) (layers F.Cu F.Mask))
  (pad 29 thru_hole circle (at -1.075 -1.575) (size 0.5 0.5) (drill 0.2) (layers *.Cu))
  (pad 29 thru_hole circle (at 0 -1.575) (size 0.5 0.5) (drill 0.2) (layers *.Cu))
  (pad 29 thru_hole circle (at 1.075 -1.575) (size 0.5 0.5) (drill 0.2) (layers *.Cu))
  (pad 29 thru_hole circle (at -1.075 -0.525) (size 0.5 0.5) (drill 0.2) (layers *.Cu))
  (pad 29 thru_hole circle (at 0 -0.525) (size 0.5 0.5) (drill 0.2) (layers *.Cu))
  (pad 29 thru_hole circle (at 1.075 -0.525) (size 0.5 0.5) (drill 0.2) (layers *.Cu))
  (pad 29 thru_hole circle (at -1.075 0.525) (size 0.5 0.5) (drill 0.2) (layers *.Cu))
  (pad 29 thru_hole circle (at 0 0.525) (size 0.5 0.5) (drill 0.2) (layers *.Cu))
  (pad 29 thru_hole circle (at 1.075 0.525) (size 0.5 0.5) (drill 0.2) (layers *.Cu))
  (pad 29 thru_hole circle (at -1.075 1.575) (size 0.5 0.5) (drill 0.2) (layers *.Cu))
  (pad 29 thru_hole circle (at 0 1.575) (size 0.5 0.5) (drill 0.2) (layers *.Cu))
  (pad 29 thru_hole circle (at 1.075 1.575) (size 0.5 0.5) (drill 0.2) (layers *.Cu))
  (pad 29 smd rect (at 0 0) (size 2.65 3.65) (layers B.Cu))
  (pad "" smd roundrect (at -0.66 -1.22) (size 1.07 0.98) (layers F.Paste) (roundrect_rratio 0.25))
  (pad "" smd roundrect (at -0.66 0) (size 1.07 0.98) (layers F.Paste) (roundrect_rratio 0.25))
  (pad "" smd roundrect (at -0.66 1.22) (size 1.07 0.98) (layers F.Paste) (roundrect_rratio 0.25))
  (pad "" smd roundrect (at 0.66 -1.22) (size 1.07 0.98) (layers F.Paste) (roundrect_rratio 0.25))
  (pad "" smd roundrect (at 0.66 0) (size 1.07 0.98) (layers F.Paste) (roundrect_rratio 0.25))
  (pad "" smd roundrect (at 0.66 1.22) (size 1.07 0.98) (layers F.Paste) (roundrect_rratio 0.25))
  (fp_text user %R (at 0 0) (layer F.Fab)
    (effects (font (size 1 1) (thickness 0.15)))
  )
  (model ${KICAD6_3DMODEL_DIR}/Package_DFN_QFN.3dshapes/QFN-28-1EP_4x5mm_P0.5mm_EP2.65x3.65mm.wrl
    (at (xyz 0 0 0))
    (scale (xyz 1 1 1))
    (rotate (xyz 0 0 0))
  )
)