(module QFN-42-1EP_5x6mm_P0.4mm_EP3.7x4.7mm (layer F.Cu) (tedit 5DC5F6A5)
  (descr "QFN, 42 Pin (https://www.analog.com/media/en/package-pcb-resources/package/pkg_pdf/ltc-legacy-qfn/05081875_0_UHE42.pdf), generated with kicad-footprint-generator ipc_noLead_generator.py")
  (tags "QFN NoLead")
  (attr smd)
  (fp_text reference REF** (at 0 -4.32) (layer F.SilkS)
    (effects (font (size 1 1) (thickness 0.15)))
  )
  (fp_text value QFN-42-1EP_5x6mm_P0.4mm_EP3.7x4.7mm (at 0 4.32) (layer F.Fab)
    (effects (font (size 1 1) (thickness 0.15)))
  )
  (fp_line (start 1.985 -3.11) (end 2.61 -3.11) (layer F.SilkS) (width 0.12))
  (fp_line (start 2.61 -3.11) (end 2.61 -2.585) (layer F.SilkS) (width 0.12))
  (fp_line (start -1.985 3.11) (end -2.61 3.11) (layer F.SilkS) (width 0.12))
  (fp_line (start -2.61 3.11) (end -2.61 2.585) (layer F.SilkS) (width 0.12))
  (fp_line (start 1.985 3.11) (end 2.61 3.11) (layer F.SilkS) (width 0.12))
  (fp_line (start 2.61 3.11) (end 2.61 2.585) (layer F.SilkS) (width 0.12))
  (fp_line (start -1.985 -3.11) (end -2.61 -3.11) (layer F.SilkS) (width 0.12))
  (fp_line (start -1.5 -3) (end 2.5 -3) (layer F.Fab) (width 0.1))
  (fp_line (start 2.5 -3) (end 2.5 3) (layer F.Fab) (width 0.1))
  (fp_line (start 2.5 3) (end -2.5 3) (layer F.Fab) (width 0.1))
  (fp_line (start -2.5 3) (end -2.5 -2) (layer F.Fab) (width 0.1))
  (fp_line (start -2.5 -2) (end -1.5 -3) (layer F.Fab) (width 0.1))
  (fp_line (start -3.12 -3.62) (end -3.12 3.62) (layer F.CrtYd) (width 0.05))
  (fp_line (start -3.12 3.62) (end 3.12 3.62) (layer F.CrtYd) (width 0.05))
  (fp_line (start 3.12 3.62) (end 3.12 -3.62) (layer F.CrtYd) (width 0.05))
  (fp_line (start 3.12 -3.62) (end -3.12 -3.62) (layer F.CrtYd) (width 0.05))
  (pad 1 smd roundrect (at -2.4625 -2.2) (size 0.825 0.25) (layers F.Cu F.Mask F.Paste) (roundrect_rratio 0.25))
  (pad 2 smd roundrect (at -2.4625 -1.8) (size 0.825 0.25) (layers F.Cu F.Mask F.Paste) (roundrect_rratio 0.25))
  (pad 3 smd roundrect (at -2.4625 -1.4) (size 0.825 0.25) (layers F.Cu F.Mask F.Paste) (roundrect_rratio 0.25))
  (pad 4 smd roundrect (at -2.4625 -1) (size 0.825 0.25) (layers F.Cu F.Mask F.Paste) (roundrect_rratio 0.25))
  (pad 5 smd roundrect (at -2.4625 -0.6) (size 0.825 0.25) (layers F.Cu F.Mask F.Paste) (roundrect_rratio 0.25))
  (pad 6 smd roundrect (at -2.4625 -0.2) (size 0.825 0.25) (layers F.Cu F.Mask F.Paste) (roundrect_rratio 0.25))
  (pad 7 smd roundrect (at -2.4625 0.2) (size 0.825 0.25) (layers F.Cu F.Mask F.Paste) (roundrect_rratio 0.25))
  (pad 8 smd roundrect (at -2.4625 0.6) (size 0.825 0.25) (layers F.Cu F.Mask F.Paste) (roundrect_rratio 0.25))
  (pad 9 smd roundrect (at -2.4625 1) (size 0.825 0.25) (layers F.Cu F.Mask F.Paste) (roundrect_rratio 0.25))
  (pad 10 smd roundrect (at -2.4625 1.4) (size 0.825 0.25) (layers F.Cu F.Mask F.Paste) (roundrect_rratio 0.25))
  (pad 11 smd roundrect (at -2.4625 1.8) (size 0.825 0.25) (layers F.Cu F.Mask F.Paste) (roundrect_rratio 0.25))
  (pad 12 smd roundrect (at -2.4625 2.2) (size 0.825 0.25) (layers F.Cu F.Mask F.Paste) (roundrect_rratio 0.25))
  (pad 13 smd roundrect (at -1.6 2.9625) (size 0.25 0.825) (layers F.Cu F.Mask F.Paste) (roundrect_rratio 0.25))
  (pad 14 smd roundrect (at -1.2 2.9625) (size 0.25 0.825) (layers F.Cu F.Mask F.Paste) (roundrect_rratio 0.25))
  (pad 15 smd roundrect (at -0.8 2.9625) (size 0.25 0.825) (layers F.Cu F.Mask F.Paste) (roundrect_rratio 0.25))
  (pad 16 smd roundrect (at -0.4 2.9625) (size 0.25 0.825) (layers F.Cu F.Mask F.Paste) (roundrect_rratio 0.25))
  (pad 17 smd roundrect (at 0 2.9625) (size 0.25 0.825) (layers F.Cu F.Mask F.Paste) (roundrect_rratio 0.25))
  (pad 18 smd roundrect (at 0.4 2.9625) (size 0.25 0.825) (layers F.Cu F.Mask F.Paste) (roundrect_rratio 0.25))
  (pad 19 smd roundrect (at 0.8 2.9625) (size 0.25 0.825) (layers F.Cu F.Mask F.Paste) (roundrect_rratio 0.25))
  (pad 20 smd roundrect (at 1.2 2.9625) (size 0.25 0.825) (layers F.Cu F.Mask F.Paste) (roundrect_rratio 0.25))
  (pad 21 smd roundrect (at 1.6 2.9625) (size 0.25 0.825) (layers F.Cu F.Mask F.Paste) (roundrect_rratio 0.25))
  (pad 22 smd roundrect (at 2.4625 2.2) (size 0.825 0.25) (layers F.Cu F.Mask F.Paste) (roundrect_rratio 0.25))
  (pad 23 smd roundrect (at 2.4625 1.8) (size 0.825 0.25) (layers F.Cu F.Mask F.Paste) (roundrect_rratio 0.25))
  (pad 24 smd roundrect (at 2.4625 1.4) (size 0.825 0.25) (layers F.Cu F.Mask F.Paste) (roundrect_rratio 0.25))
  (pad 25 smd roundrect (at 2.4625 1) (size 0.825 0.25) (layers F.Cu F.Mask F.Paste) (roundrect_rratio 0.25))
  (pad 26 smd roundrect (at 2.4625 0.6) (size 0.825 0.25) (layers F.Cu F.Mask F.Paste) (roundrect_rratio 0.25))
  (pad 27 smd roundrect (at 2.4625 0.2) (size 0.825 0.25) (layers F.Cu F.Mask F.Paste) (roundrect_rratio 0.25))
  (pad 28 smd roundrect (at 2.4625 -0.2) (size 0.825 0.25) (layers F.Cu F.Mask F.Paste) (roundrect_rratio 0.25))
  (pad 29 smd roundrect (at 2.4625 -0.6) (size 0.825 0.25) (layers F.Cu F.Mask F.Paste) (roundrect_rratio 0.25))
  (pad 30 smd roundrect (at 2.4625 -1) (size 0.825 0.25) (layers F.Cu F.Mask F.Paste) (roundrect_rratio 0.25))
  (pad 31 smd roundrect (at 2.4625 -1.4) (size 0.825 0.25) (layers F.Cu F.Mask F.Paste) (roundrect_rratio 0.25))
  (pad 32 smd roundrect (at 2.4625 -1.8) (size 0.825 0.25) (layers F.Cu F.Mask F.Paste) (roundrect_rratio 0.25))
  (pad 33 smd roundrect (at 2.4625 -2.2) (size 0.825 0.25) (layers F.Cu F.Mask F.Paste) (roundrect_rratio 0.25))
  (pad 34 smd roundrect (at 1.6 -2.9625) (size 0.25 0.825) (layers F.Cu F.Mask F.Paste) (roundrect_rratio 0.25))
  (pad 35 smd roundrect (at 1.2 -2.9625) (size 0.25 0.825) (layers F.Cu F.Mask F.Paste) (roundrect_rratio 0.25))
  (pad 36 smd roundrect (at 0.8 -2.9625) (size 0.25 0.825) (layers F.Cu F.Mask F.Paste) (roundrect_rratio 0.25))
  (pad 37 smd roundrect (at 0.4 -2.9625) (size 0.25 0.825) (layers F.Cu F.Mask F.Paste) (roundrect_rratio 0.25))
  (pad 38 smd roundrect (at 0 -2.9625) (size 0.25 0.825) (layers F.Cu F.Mask F.Paste) (roundrect_rratio 0.25))
  (pad 39 smd roundrect (at -0.4 -2.9625) (size 0.25 0.825) (layers F.Cu F.Mask F.Paste) (roundrect_rratio 0.25))
  (pad 40 smd roundrect (at -0.8 -2.9625) (size 0.25 0.825) (layers F.Cu F.Mask F.Paste) (roundrect_rratio 0.25))
  (pad 41 smd roundrect (at -1.2 -2.9625) (size 0.25 0.825) (layers F.Cu F.Mask F.Paste) (roundrect_rratio 0.25))
  (pad 42 smd roundrect (at -1.6 -2.9625) (size 0.25 0.825) (layers F.Cu F.Mask F.Paste) (roundrect_rratio 0.25))
  (pad 43 smd rect (at 0 0) (size 3.7 4.7) (layers F.Cu F.Mask))
  (pad "" smd roundrect (at -1.23 -1.77) (size 0.99 0.95) (layers F.Paste) (roundrect_rratio 0.25))
  (pad "" smd roundrect (at -1.23 -0.59) (size 0.99 0.95) (layers F.Paste) (roundrect_rratio 0.25))
  (pad "" smd roundrect (at -1.23 0.59) (size 0.99 0.95) (layers F.Paste) (roundrect_rratio 0.25))
  (pad "" smd roundrect (at -1.23 1.77) (size 0.99 0.95) (layers F.Paste) (roundrect_rratio 0.25))
  (pad "" smd roundrect (at 0 -1.77) (size 0.99 0.95) (layers F.Paste) (roundrect_rratio 0.25))
  (pad "" smd roundrect (at 0 -0.59) (size 0.99 0.95) (layers F.Paste) (roundrect_rratio 0.25))
  (pad "" smd roundrect (at 0 0.59) (size 0.99 0.95) (layers F.Paste) (roundrect_rratio 0.25))
  (pad "" smd roundrect (at 0 1.77) (size 0.99 0.95) (layers F.Paste) (roundrect_rratio 0.25))
  (pad "" smd roundrect (at 1.23 -1.77) (size 0.99 0.95) (layers F.Paste) (roundrect_rratio 0.25))
  (pad "" smd roundrect (at 1.23 -0.59) (size 0.99 0.95) (layers F.Paste) (roundrect_rratio 0.25))
  (pad "" smd roundrect (at 1.23 0.59) (size 0.99 0.95) (layers F.Paste) (roundrect_rratio 0.25))
  (pad "" smd roundrect (at 1.23 1.77) (size 0.99 0.95) (layers F.Paste) (roundrect_rratio 0.25))
  (fp_text user %R (at 0 0) (layer F.Fab)
    (effects (font (size 1 1) (thickness 0.15)))
  )
  (model ${KICAD6_3DMODEL_DIR}/Package_DFN_QFN.3dshapes/QFN-42-1EP_5x6mm_P0.4mm_EP3.7x4.7mm.wrl
    (at (xyz 0 0 0))
    (scale (xyz 1 1 1))
    (rotate (xyz 0 0 0))
  )
)