(module QFN-52-1EP_7x8mm_P0.5mm_EP5.41x6.45mm_ThermalVias (layer F.Cu) (tedit 5DC5F6A5)
  (descr "QFN, 52 Pin (https://www.analog.com/media/en/package-pcb-resources/package/pkg_pdf/ltc-legacy-qfn/QFN_52_05-08-1729.pdf), generated with kicad-footprint-generator ipc_noLead_generator.py")
  (tags "QFN NoLead")
  (attr smd)
  (fp_text reference REF** (at 0 -5.32) (layer F.SilkS)
    (effects (font (size 1 1) (thickness 0.15)))
  )
  (fp_text value QFN-52-1EP_7x8mm_P0.5mm_EP5.41x6.45mm_ThermalVias (at 0 5.32) (layer F.Fab)
    (effects (font (size 1 1) (thickness 0.15)))
  )
  (fp_line (start 3.135 -4.11) (end 3.61 -4.11) (layer F.SilkS) (width 0.12))
  (fp_line (start 3.61 -4.11) (end 3.61 -3.635) (layer F.SilkS) (width 0.12))
  (fp_line (start -3.135 4.11) (end -3.61 4.11) (layer F.SilkS) (width 0.12))
  (fp_line (start -3.61 4.11) (end -3.61 3.635) (layer F.SilkS) (width 0.12))
  (fp_line (start 3.135 4.11) (end 3.61 4.11) (layer F.SilkS) (width 0.12))
  (fp_line (start 3.61 4.11) (end 3.61 3.635) (layer F.SilkS) (width 0.12))
  (fp_line (start -3.135 -4.11) (end -3.61 -4.11) (layer F.SilkS) (width 0.12))
  (fp_line (start -2.5 -4) (end 3.5 -4) (layer F.Fab) (width 0.1))
  (fp_line (start 3.5 -4) (end 3.5 4) (layer F.Fab) (width 0.1))
  (fp_line (start 3.5 4) (end -3.5 4) (layer F.Fab) (width 0.1))
  (fp_line (start -3.5 4) (end -3.5 -3) (layer F.Fab) (width 0.1))
  (fp_line (start -3.5 -3) (end -2.5 -4) (layer F.Fab) (width 0.1))
  (fp_line (start -4.12 -4.62) (end -4.12 4.62) (layer F.CrtYd) (width 0.05))
  (fp_line (start -4.12 4.62) (end 4.12 4.62) (layer F.CrtYd) (width 0.05))
  (fp_line (start 4.12 4.62) (end 4.12 -4.62) (layer F.CrtYd) (width 0.05))
  (fp_line (start 4.12 -4.62) (end -4.12 -4.62) (layer F.CrtYd) (width 0.05))
  (pad 1 smd roundrect (at -3.4375 -3.25) (size 0.875 0.25) (layers F.Cu F.Mask F.Paste) (roundrect_rratio 0.25))
  (pad 2 smd roundrect (at -3.4375 -2.75) (size 0.875 0.25) (layers F.Cu F.Mask F.Paste) (roundrect_rratio 0.25))
  (pad 3 smd roundrect (at -3.4375 -2.25) (size 0.875 0.25) (layers F.Cu F.Mask F.Paste) (roundrect_rratio 0.25))
  (pad 4 smd roundrect (at -3.4375 -1.75) (size 0.875 0.25) (layers F.Cu F.Mask F.Paste) (roundrect_rratio 0.25))
  (pad 5 smd roundrect (at -3.4375 -1.25) (size 0.875 0.25) (layers F.Cu F.Mask F.Paste) (roundrect_rratio 0.25))
  (pad 6 smd roundrect (at -3.4375 -0.75) (size 0.875 0.25) (layers F.Cu F.Mask F.Paste) (roundrect_rratio 0.25))
  (pad 7 smd roundrect (at -3.4375 -0.25) (size 0.875 0.25) (layers F.Cu F.Mask F.Paste) (roundrect_rratio 0.25))
  (pad 8 smd roundrect (at -3.4375 0.25) (size 0.875 0.25) (layers F.Cu F.Mask F.Paste) (roundrect_rratio 0.25))
  (pad 9 smd roundrect (at -3.4375 0.75) (size 0.875 0.25) (layers F.Cu F.Mask F.Paste) (roundrect_rratio 0.25))
  (pad 10 smd roundrect (at -3.4375 1.25) (size 0.875 0.25) (layers F.Cu F.Mask F.Paste) (roundrect_rratio 0.25))
  (pad 11 smd roundrect (at -3.4375 1.75) (size 0.875 0.25) (layers F.Cu F.Mask F.Paste) (roundrect_rratio 0.25))
  (pad 12 smd roundrect (at -3.4375 2.25) (size 0.875 0.25) (layers F.Cu F.Mask F.Paste) (roundrect_rratio 0.25))
  (pad 13 smd roundrect (at -3.4375 2.75) (size 0.875 0.25) (layers F.Cu F.Mask F.Paste) (roundrect_rratio 0.25))
  (pad 14 smd roundrect (at -3.4375 3.25) (size 0.875 0.25) (layers F.Cu F.Mask F.Paste) (roundrect_rratio 0.25))
  (pad 15 smd roundrect (at -2.75 3.9375) (size 0.25 0.875) (layers F.Cu F.Mask F.Paste) (roundrect_rratio 0.25))
  (pad 16 smd roundrect (at -2.25 3.9375) (size 0.25 0.875) (layers F.Cu F.Mask F.Paste) (roundrect_rratio 0.25))
  (pad 17 smd roundrect (at -1.75 3.9375) (size 0.25 0.875) (layers F.Cu F.Mask F.Paste) (roundrect_rratio 0.25))
  (pad 18 smd roundrect (at -1.25 3.9375) (size 0.25 0.875) (layers F.Cu F.Mask F.Paste) (roundrect_rratio 0.25))
  (pad 19 smd roundrect (at -0.75 3.9375) (size 0.25 0.875) (layers F.Cu F.Mask F.Paste) (roundrect_rratio 0.25))
  (pad 20 smd roundrect (at -0.25 3.9375) (size 0.25 0.875) (layers F.Cu F.Mask F.Paste) (roundrect_rratio 0.25))
  (pad 21 smd roundrect (at 0.25 3.9375) (size 0.25 0.875) (layers F.Cu F.Mask F.Paste) (roundrect_rratio 0.25))
  (pad 22 smd roundrect (at 0.75 3.9375) (size 0.25 0.875) (layers F.Cu F.Mask F.Paste) (roundrect_rratio 0.25))
  (pad 23 smd roundrect (at 1.25 3.9375) (size 0.25 0.875) (layers F.Cu F.Mask F.Paste) (roundrect_rratio 0.25))
  (pad 24 smd roundrect (at 1.75 3.9375) (size 0.25 0.875) (layers F.Cu F.Mask F.Paste) (roundrect_rratio 0.25))
  (pad 25 smd roundrect (at 2.25 3.9375) (size 0.25 0.875) (layers F.Cu F.Mask F.Paste) (roundrect_rratio 0.25))
  (pad 26 smd roundrect (at 2.75 3.9375) (size 0.25 0.875) (layers F.Cu F.Mask F.Paste) (roundrect_rratio 0.25))
  (pad 27 smd roundrect (at 3.4375 3.25) (size 0.875 0.25) (layers F.Cu F.Mask F.Paste) (roundrect_rratio 0.25))
  (pad 28 smd roundrect (at 3.4375 2.75) (size 0.875 0.25) (layers F.Cu F.Mask F.Paste) (roundrect_rratio 0.25))
  (pad 29 smd roundrect (at 3.4375 2.25) (size 0.875 0.25) (layers F.Cu F.Mask F.Paste) (roundrect_rratio 0.25))
  (pad 30 smd roundrect (at 3.4375 1.75) (size 0.875 0.25) (layers F.Cu F.Mask F.Paste) (roundrect_rratio 0.25))
  (pad 31 smd roundrect (at 3.4375 1.25) (size 0.875 0.25) (layers F.Cu F.Mask F.Paste) (roundrect_rratio 0.25))
  (pad 32 smd roundrect (at 3.4375 0.75) (size 0.875 0.25) (layers F.Cu F.Mask F.Paste) (roundrect_rratio 0.25))
  (pad 33 smd roundrect (at 3.4375 0.25) (size 0.875 0.25) (layers F.Cu F.Mask F.Paste) (roundrect_rratio 0.25))
  (pad 34 smd roundrect (at 3.4375 -0.25) (size 0.875 0.25) (layers F.Cu F.Mask F.Paste) (roundrect_rratio 0.25))
  (pad 35 smd roundrect (at 3.4375 -0.75) (size 0.875 0.25) (layers F.Cu F.Mask F.Paste) (roundrect_rratio 0.25))
  (pad 36 smd roundrect (at 3.4375 -1.25) (size 0.875 0.25) (layers F.Cu F.Mask F.Paste) (roundrect_rratio 0.25))
  (pad 37 smd roundrect (at 3.4375 -1.75) (size 0.875 0.25) (layers F.Cu F.Mask F.Paste) (roundrect_rratio 0.25))
  (pad 38 smd roundrect (at 3.4375 -2.25) (size 0.875 0.25) (layers F.Cu F.Mask F.Paste) (roundrect_rratio 0.25))
  (pad 39 smd roundrect (at 3.4375 -2.75) (size 0.875 0.25) (layers F.Cu F.Mask F.Paste) (roundrect_rratio 0.25))
  (pad 40 smd roundrect (at 3.4375 -3.25) (size 0.875 0.25) (layers F.Cu F.Mask F.Paste) (roundrect_rratio 0.25))
  (pad 41 smd roundrect (at 2.75 -3.9375) (size 0.25 0.875) (layers F.Cu F.Mask F.Paste) (roundrect_rratio 0.25))
  (pad 42 smd roundrect (at 2.25 -3.9375) (size 0.25 0.875) (layers F.Cu F.Mask F.Paste) (roundrect_rratio 0.25))
  (pad 43 smd roundrect (at 1.75 -3.9375) (size 0.25 0.875) (layers F.Cu F.Mask F.Paste) (roundrect_rratio 0.25))
  (pad 44 smd roundrect (at 1.25 -3.9375) (size 0.25 0.875) (layers F.Cu F.Mask F.Paste) (roundrect_rratio 0.25))
  (pad 45 smd roundrect (at 0.75 -3.9375) (size 0.25 0.875) (layers F.Cu F.Mask F.Paste) (roundrect_rratio 0.25))
  (pad 46 smd roundrect (at 0.25 -3.9375) (size 0.25 0.875) (layers F.Cu F.Mask F.Paste) (roundrect_rratio 0.25))
  (pad 47 smd roundrect (at -0.25 -3.9375) (size 0.25 0.875) (layers F.Cu F.Mask F.Paste) (roundrect_rratio 0.25))
  (pad 48 smd roundrect (at -0.75 -3.9375) (size 0.25 0.875) (layers F.Cu F.Mask F.Paste) (roundrect_rratio 0.25))
  (pad 49 smd roundrect (at -1.25 -3.9375) (size 0.25 0.875) (layers F.Cu F.Mask F.Paste) (roundrect_rratio 0.25))
  (pad 50 smd roundrect (at -1.75 -3.9375) (size 0.25 0.875) (layers F.Cu F.Mask F.Paste) (roundrect_rratio 0.25))
  (pad 51 smd roundrect (at -2.25 -3.9375) (size 0.25 0.875) (layers F.Cu F.Mask F.Paste) (roundrect_rratio 0.25))
  (pad 52 smd roundrect (at -2.75 -3.9375) (size 0.25 0.875) (layers F.Cu F.Mask F.Paste) (roundrect_rratio 0.25))
  (pad 53 smd rect (at 0 0) (size 5.41 6.45) (layers F.Cu F.Mask))
  (pad 53 thru_hole circle (at -2.455 -2.975) (size 0.5 0.5) (drill 0.2) (layers *.Cu))
  (pad 53 thru_hole circle (at -1.2275 -2.975) (size 0.5 0.5) (drill 0.2) (layers *.Cu))
  (pad 53 thru_hole circle (at 0 -2.975) (size 0.5 0.5) (drill 0.2) (layers *.Cu))
  (pad 53 thru_hole circle (at 1.2275 -2.975) (size 0.5 0.5) (drill 0.2) (layers *.Cu))
  (pad 53 thru_hole circle (at 2.455 -2.975) (size 0.5 0.5) (drill 0.2) (layers *.Cu))
  (pad 53 thru_hole circle (at -2.455 -1.785) (size 0.5 0.5) (drill 0.2) (layers *.Cu))
  (pad 53 thru_hole circle (at -1.2275 -1.785) (size 0.5 0.5) (drill 0.2) (layers *.Cu))
  (pad 53 thru_hole circle (at 0 -1.785) (size 0.5 0.5) (drill 0.2) (layers *.Cu))
  (pad 53 thru_hole circle (at 1.2275 -1.785) (size 0.5 0.5) (drill 0.2) (layers *.Cu))
  (pad 53 thru_hole circle (at 2.455 -1.785) (size 0.5 0.5) (drill 0.2) (layers *.Cu))
  (pad 53 thru_hole circle (at -2.455 -0.595) (size 0.5 0.5) (drill 0.2) (layers *.Cu))
  (pad 53 thru_hole circle (at -1.2275 -0.595) (size 0.5 0.5) (drill 0.2) (layers *.Cu))
  (pad 53 thru_hole circle (at 0 -0.595) (size 0.5 0.5) (drill 0.2) (layers *.Cu))
  (pad 53 thru_hole circle (at 1.2275 -0.595) (size 0.5 0.5) (drill 0.2) (layers *.Cu))
  (pad 53 thru_hole circle (at 2.455 -0.595) (size 0.5 0.5) (drill 0.2) (layers *.Cu))
  (pad 53 thru_hole circle (at -2.455 0.595) (size 0.5 0.5) (drill 0.2) (layers *.Cu))
  (pad 53 thru_hole circle (at -1.2275 0.595) (size 0.5 0.5) (drill 0.2) (layers *.Cu))
  (pad 53 thru_hole circle (at 0 0.595) (size 0.5 0.5) (drill 0.2) (layers *.Cu))
  (pad 53 thru_hole circle (at 1.2275 0.595) (size 0.5 0.5) (drill 0.2) (layers *.Cu))
  (pad 53 thru_hole circle (at 2.455 0.595) (size 0.5 0.5) (drill 0.2) (layers *.Cu))
  (pad 53 thru_hole circle (at -2.455 1.785) (size 0.5 0.5) (drill 0.2) (layers *.Cu))
  (pad 53 thru_hole circle (at -1.2275 1.785) (size 0.5 0.5) (drill 0.2) (layers *.Cu))
  (pad 53 thru_hole circle (at 0 1.785) (size 0.5 0.5) (drill 0.2) (layers *.Cu))
  (pad 53 thru_hole circle (at 1.2275 1.785) (size 0.5 0.5) (drill 0.2) (layers *.Cu))
  (pad 53 thru_hole circle (at 2.455 1.785) (size 0.5 0.5) (drill 0.2) (layers *.Cu))
  (pad 53 thru_hole circle (at -2.455 2.975) (size 0.5 0.5) (drill 0.2) (layers *.Cu))
  (pad 53 thru_hole circle (at -1.2275 2.975) (size 0.5 0.5) (drill 0.2) (layers *.Cu))
  (pad 53 thru_hole circle (at 0 2.975) (size 0.5 0.5) (drill 0.2) (layers *.Cu))
  (pad 53 thru_hole circle (at 1.2275 2.975) (size 0.5 0.5) (drill 0.2) (layers *.Cu))
  (pad 53 thru_hole circle (at 2.455 2.975) (size 0.5 0.5) (drill 0.2) (layers *.Cu))
  (pad 53 smd rect (at 0 0) (size 5.41 6.45) (layers B.Cu))
  (pad "" smd roundrect (at -1.84125 -2.38) (size 1.047642 0.99923) (layers F.Paste) (roundrect_rratio 0.25))
  (pad "" smd roundrect (at -1.84125 -1.19) (size 1.047642 0.99923) (layers F.Paste) (roundrect_rratio 0.25))
  (pad "" smd roundrect (at -1.84125 0) (size 1.047642 0.99923) (layers F.Paste) (roundrect_rratio 0.25))
  (pad "" smd roundrect (at -1.84125 1.19) (size 1.047642 0.99923) (layers F.Paste) (roundrect_rratio 0.25))
  (pad "" smd roundrect (at -1.84125 2.38) (size 1.047642 0.99923) (layers F.Paste) (roundrect_rratio 0.25))
  (pad "" smd roundrect (at -0.61375 -2.38) (size 1.047642 0.99923) (layers F.Paste) (roundrect_rratio 0.25))
  (pad "" smd roundrect (at -0.61375 -1.19) (size 1.047642 0.99923) (layers F.Paste) (roundrect_rratio 0.25))
  (pad "" smd roundrect (at -0.61375 0) (size 1.047642 0.99923) (layers F.Paste) (roundrect_rratio 0.25))
  (pad "" smd roundrect (at -0.61375 1.19) (size 1.047642 0.99923) (layers F.Paste) (roundrect_rratio 0.25))
  (pad "" smd roundrect (at -0.61375 2.38) (size 1.047642 0.99923) (layers F.Paste) (roundrect_rratio 0.25))
  (pad "" smd roundrect (at 0.61375 -2.38) (size 1.047642 0.99923) (layers F.Paste) (roundrect_rratio 0.25))
  (pad "" smd roundrect (at 0.61375 -1.19) (size 1.047642 0.99923) (layers F.Paste) (roundrect_rratio 0.25))
  (pad "" smd roundrect (at 0.61375 0) (size 1.047642 0.99923) (layers F.Paste) (roundrect_rratio 0.25))
  (pad "" smd roundrect (at 0.61375 1.19) (size 1.047642 0.99923) (layers F.Paste) (roundrect_rratio 0.25))
  (pad "" smd roundrect (at 0.61375 2.38) (size 1.047642 0.99923) (layers F.Paste) (roundrect_rratio 0.25))
  (pad "" smd roundrect (at 1.84125 -2.38) (size 1.047642 0.99923) (layers F.Paste) (roundrect_rratio 0.25))
  (pad "" smd roundrect (at 1.84125 -1.19) (size 1.047642 0.99923) (layers F.Paste) (roundrect_rratio 0.25))
  (pad "" smd roundrect (at 1.84125 0) (size 1.047642 0.99923) (layers F.Paste) (roundrect_rratio 0.25))
  (pad "" smd roundrect (at 1.84125 1.19) (size 1.047642 0.99923) (layers F.Paste) (roundrect_rratio 0.25))
  (pad "" smd roundrect (at 1.84125 2.38) (size 1.047642 0.99923) (layers F.Paste) (roundrect_rratio 0.25))
  (fp_text user %R (at 0 0) (layer F.Fab)
    (effects (font (size 1 1) (thickness 0.15)))
  )
  (model ${KICAD6_3DMODEL_DIR}/Package_DFN_QFN.3dshapes/QFN-52-1EP_7x8mm_P0.5mm_EP5.41x6.45mm.wrl
    (at (xyz 0 0 0))
    (scale (xyz 1 1 1))
    (rotate (xyz 0 0 0))
  )
)