(module QFN-40-1EP_5x5mm_P0.4mm_EP3.6x3.6mm_ThermalVias (layer F.Cu) (tedit 5DC5F6A5)
  (descr "QFN, 40 Pin (http://ww1.microchip.com/downloads/en/PackagingSpec/00000049BQ.pdf#page=297), generated with kicad-footprint-generator ipc_noLead_generator.py")
  (tags "QFN NoLead")
  (attr smd)
  (fp_text reference REF** (at 0 -3.8) (layer F.SilkS)
    (effects (font (size 1 1) (thickness 0.15)))
  )
  (fp_text value QFN-40-1EP_5x5mm_P0.4mm_EP3.6x3.6mm_ThermalVias (at 0 3.8) (layer F.Fab)
    (effects (font (size 1 1) (thickness 0.15)))
  )
  (fp_line (start 2.185 -2.61) (end 2.61 -2.61) (layer F.SilkS) (width 0.12))
  (fp_line (start 2.61 -2.61) (end 2.61 -2.185) (layer F.SilkS) (width 0.12))
  (fp_line (start -2.185 2.61) (end -2.61 2.61) (layer F.SilkS) (width 0.12))
  (fp_line (start -2.61 2.61) (end -2.61 2.185) (layer F.SilkS) (width 0.12))
  (fp_line (start 2.185 2.61) (end 2.61 2.61) (layer F.SilkS) (width 0.12))
  (fp_line (start 2.61 2.61) (end 2.61 2.185) (layer F.SilkS) (width 0.12))
  (fp_line (start -2.185 -2.61) (end -2.61 -2.61) (layer F.SilkS) (width 0.12))
  (fp_line (start -1.5 -2.5) (end 2.5 -2.5) (layer F.Fab) (width 0.1))
  (fp_line (start 2.5 -2.5) (end 2.5 2.5) (layer F.Fab) (width 0.1))
  (fp_line (start 2.5 2.5) (end -2.5 2.5) (layer F.Fab) (width 0.1))
  (fp_line (start -2.5 2.5) (end -2.5 -1.5) (layer F.Fab) (width 0.1))
  (fp_line (start -2.5 -1.5) (end -1.5 -2.5) (layer F.Fab) (width 0.1))
  (fp_line (start -3.1 -3.1) (end -3.1 3.1) (layer F.CrtYd) (width 0.05))
  (fp_line (start -3.1 3.1) (end 3.1 3.1) (layer F.CrtYd) (width 0.05))
  (fp_line (start 3.1 3.1) (end 3.1 -3.1) (layer F.CrtYd) (width 0.05))
  (fp_line (start 3.1 -3.1) (end -3.1 -3.1) (layer F.CrtYd) (width 0.05))
  (pad 1 smd roundrect (at -2.4375 -1.8) (size 0.825 0.25) (layers F.Cu F.Mask F.Paste) (roundrect_rratio 0.25))
  (pad 2 smd roundrect (at -2.4375 -1.4) (size 0.825 0.25) (layers F.Cu F.Mask F.Paste) (roundrect_rratio 0.25))
  (pad 3 smd roundrect (at -2.4375 -1) (size 0.825 0.25) (layers F.Cu F.Mask F.Paste) (roundrect_rratio 0.25))
  (pad 4 smd roundrect (at -2.4375 -0.6) (size 0.825 0.25) (layers F.Cu F.Mask F.Paste) (roundrect_rratio 0.25))
  (pad 5 smd roundrect (at -2.4375 -0.2) (size 0.825 0.25) (layers F.Cu F.Mask F.Paste) (roundrect_rratio 0.25))
  (pad 6 smd roundrect (at -2.4375 0.2) (size 0.825 0.25) (layers F.Cu F.Mask F.Paste) (roundrect_rratio 0.25))
  (pad 7 smd roundrect (at -2.4375 0.6) (size 0.825 0.25) (layers F.Cu F.Mask F.Paste) (roundrect_rratio 0.25))
  (pad 8 smd roundrect (at -2.4375 1) (size 0.825 0.25) (layers F.Cu F.Mask F.Paste) (roundrect_rratio 0.25))
  (pad 9 smd roundrect (at -2.4375 1.4) (size 0.825 0.25) (layers F.Cu F.Mask F.Paste) (roundrect_rratio 0.25))
  (pad 10 smd roundrect (at -2.4375 1.8) (size 0.825 0.25) (layers F.Cu F.Mask F.Paste) (roundrect_rratio 0.25))
  (pad 11 smd roundrect (at -1.8 2.4375) (size 0.25 0.825) (layers F.Cu F.Mask F.Paste) (roundrect_rratio 0.25))
  (pad 12 smd roundrect (at -1.4 2.4375) (size 0.25 0.825) (layers F.Cu F.Mask F.Paste) (roundrect_rratio 0.25))
  (pad 13 smd roundrect (at -1 2.4375) (size 0.25 0.825) (layers F.Cu F.Mask F.Paste) (roundrect_rratio 0.25))
  (pad 14 smd roundrect (at -0.6 2.4375) (size 0.25 0.825) (layers F.Cu F.Mask F.Paste) (roundrect_rratio 0.25))
  (pad 15 smd roundrect (at -0.2 2.4375) (size 0.25 0.825) (layers F.Cu F.Mask F.Paste) (roundrect_rratio 0.25))
  (pad 16 smd roundrect (at 0.2 2.4375) (size 0.25 0.825) (layers F.Cu F.Mask F.Paste) (roundrect_rratio 0.25))
  (pad 17 smd roundrect (at 0.6 2.4375) (size 0.25 0.825) (layers F.Cu F.Mask F.Paste) (roundrect_rratio 0.25))
  (pad 18 smd roundrect (at 1 2.4375) (size 0.25 0.825) (layers F.Cu F.Mask F.Paste) (roundrect_rratio 0.25))
  (pad 19 smd roundrect (at 1.4 2.4375) (size 0.25 0.825) (layers F.Cu F.Mask F.Paste) (roundrect_rratio 0.25))
  (pad 20 smd roundrect (at 1.8 2.4375) (size 0.25 0.825) (layers F.Cu F.Mask F.Paste) (roundrect_rratio 0.25))
  (pad 21 smd roundrect (at 2.4375 1.8) (size 0.825 0.25) (layers F.Cu F.Mask F.Paste) (roundrect_rratio 0.25))
  (pad 22 smd roundrect (at 2.4375 1.4) (size 0.825 0.25) (layers F.Cu F.Mask F.Paste) (roundrect_rratio 0.25))
  (pad 23 smd roundrect (at 2.4375 1) (size 0.825 0.25) (layers F.Cu F.Mask F.Paste) (roundrect_rratio 0.25))
  (pad 24 smd roundrect (at 2.4375 0.6) (size 0.825 0.25) (layers F.Cu F.Mask F.Paste) (roundrect_rratio 0.25))
  (pad 25 smd roundrect (at 2.4375 0.2) (size 0.825 0.25) (layers F.Cu F.Mask F.Paste) (roundrect_rratio 0.25))
  (pad 26 smd roundrect (at 2.4375 -0.2) (size 0.825 0.25) (layers F.Cu F.Mask F.Paste) (roundrect_rratio 0.25))
  (pad 27 smd roundrect (at 2.4375 -0.6) (size 0.825 0.25) (layers F.Cu F.Mask F.Paste) (roundrect_rratio 0.25))
  (pad 28 smd roundrect (at 2.4375 -1) (size 0.825 0.25) (layers F.Cu F.Mask F.Paste) (roundrect_rratio 0.25))
  (pad 29 smd roundrect (at 2.4375 -1.4) (size 0.825 0.25) (layers F.Cu F.Mask F.Paste) (roundrect_rratio 0.25))
  (pad 30 smd roundrect (at 2.4375 -1.8) (size 0.825 0.25) (layers F.Cu F.Mask F.Paste) (roundrect_rratio 0.25))
  (pad 31 smd roundrect (at 1.8 -2.4375) (size 0.25 0.825) (layers F.Cu F.Mask F.Paste) (roundrect_rratio 0.25))
  (pad 32 smd roundrect (at 1.4 -2.4375) (size 0.25 0.825) (layers F.Cu F.Mask F.Paste) (roundrect_rratio 0.25))
  (pad 33 smd roundrect (at 1 -2.4375) (size 0.25 0.825) (layers F.Cu F.Mask F.Paste) (roundrect_rratio 0.25))
  (pad 34 smd roundrect (at 0.6 -2.4375) (size 0.25 0.825) (layers F.Cu F.Mask F.Paste) (roundrect_rratio 0.25))
  (pad 35 smd roundrect (at 0.2 -2.4375) (size 0.25 0.825) (layers F.Cu F.Mask F.Paste) (roundrect_rratio 0.25))
  (pad 36 smd roundrect (at -0.2 -2.4375) (size 0.25 0.825) (layers F.Cu F.Mask F.Paste) (roundrect_rratio 0.25))
  (pad 37 smd roundrect (at -0.6 -2.4375) (size 0.25 0.825) (layers F.Cu F.Mask F.Paste) (roundrect_rratio 0.25))
  (pad 38 smd roundrect (at -1 -2.4375) (size 0.25 0.825) (layers F.Cu F.Mask F.Paste) (roundrect_rratio 0.25))
  (pad 39 smd roundrect (at -1.4 -2.4375) (size 0.25 0.825) (layers F.Cu F.Mask F.Paste) (roundrect_rratio 0.25))
  (pad 40 smd roundrect (at -1.8 -2.4375) (size 0.25 0.825) (layers F.Cu F.Mask F.Paste) (roundrect_rratio 0.25))
  (pad 41 smd rect (at 0 0) (size 3.6 3.6) (layers F.Cu F.Mask))
  (pad 41 thru_hole circle (at -1.55 -1.55) (size 0.5 0.5) (drill 0.2) (layers *.Cu))
  (pad 41 thru_hole circle (at -0.516667 -1.55) (size 0.5 0.5) (drill 0.2) (layers *.Cu))
  (pad 41 thru_hole circle (at 0.516667 -1.55) (size 0.5 0.5) (drill 0.2) (layers *.Cu))
  (pad 41 thru_hole circle (at 1.55 -1.55) (size 0.5 0.5) (drill 0.2) (layers *.Cu))
  (pad 41 thru_hole circle (at -1.55 -0.516667) (size 0.5 0.5) (drill 0.2) (layers *.Cu))
  (pad 41 thru_hole circle (at -0.516667 -0.516667) (size 0.5 0.5) (drill 0.2) (layers *.Cu))
  (pad 41 thru_hole circle (at 0.516667 -0.516667) (size 0.5 0.5) (drill 0.2) (layers *.Cu))
  (pad 41 thru_hole circle (at 1.55 -0.516667) (size 0.5 0.5) (drill 0.2) (layers *.Cu))
  (pad 41 thru_hole circle (at -1.55 0.516667) (size 0.5 0.5) (drill 0.2) (layers *.Cu))
  (pad 41 thru_hole circle (at -0.516667 0.516667) (size 0.5 0.5) (drill 0.2) (layers *.Cu))
  (pad 41 thru_hole circle (at 0.516667 0.516667) (size 0.5 0.5) (drill 0.2) (layers *.Cu))
  (pad 41 thru_hole circle (at 1.55 0.516667) (size 0.5 0.5) (drill 0.2) (layers *.Cu))
  (pad 41 thru_hole circle (at -1.55 1.55) (size 0.5 0.5) (drill 0.2) (layers *.Cu))
  (pad 41 thru_hole circle (at -0.516667 1.55) (size 0.5 0.5) (drill 0.2) (layers *.Cu))
  (pad 41 thru_hole circle (at 0.516667 1.55) (size 0.5 0.5) (drill 0.2) (layers *.Cu))
  (pad 41 thru_hole circle (at 1.55 1.55) (size 0.5 0.5) (drill 0.2) (layers *.Cu))
  (pad 41 smd rect (at 0 0) (size 3.6 3.6) (layers B.Cu))
  (pad "" smd custom (at -1.033333 -1.033333) (size 0.802926 0.802926) (layers F.Paste)
    (options (clearance outline) (anchor circle))
    (primitives
      (gr_poly (pts
         (xy -0.338168 -0.233297) (xy -0.233297 -0.338168) (xy 0.233297 -0.338168) (xy 0.338168 -0.233297)
         (xy 0.338168 0.233297) (xy 0.233297 0.338168) (xy -0.233297 0.338168) (xy -0.338168 0.233297)) (width 0.25318))
    ))
  (pad "" smd custom (at -1.033333 0) (size 0.802926 0.802926) (layers F.Paste)
    (options (clearance outline) (anchor circle))
    (primitives
      (gr_poly (pts
         (xy -0.338168 -0.233297) (xy -0.233297 -0.338168) (xy 0.233297 -0.338168) (xy 0.338168 -0.233297)
         (xy 0.338168 0.233297) (xy 0.233297 0.338168) (xy -0.233297 0.338168) (xy -0.338168 0.233297)) (width 0.25318))
    ))
  (pad "" smd custom (at -1.033333 1.033333) (size 0.802926 0.802926) (layers F.Paste)
    (options (clearance outline) (anchor circle))
    (primitives
      (gr_poly (pts
         (xy -0.338168 -0.233297) (xy -0.233297 -0.338168) (xy 0.233297 -0.338168) (xy 0.338168 -0.233297)
         (xy 0.338168 0.233297) (xy 0.233297 0.338168) (xy -0.233297 0.338168) (xy -0.338168 0.233297)) (width 0.25318))
    ))
  (pad "" smd custom (at 0 -1.033333) (size 0.802926 0.802926) (layers F.Paste)
    (options (clearance outline) (anchor circle))
    (primitives
      (gr_poly (pts
         (xy -0.338168 -0.233297) (xy -0.233297 -0.338168) (xy 0.233297 -0.338168) (xy 0.338168 -0.233297)
         (xy 0.338168 0.233297) (xy 0.233297 0.338168) (xy -0.233297 0.338168) (xy -0.338168 0.233297)) (width 0.25318))
    ))
  (pad "" smd custom (at 0 0) (size 0.802926 0.802926) (layers F.Paste)
    (options (clearance outline) (anchor circle))
    (primitives
      (gr_poly (pts
         (xy -0.338168 -0.233297) (xy -0.233297 -0.338168) (xy 0.233297 -0.338168) (xy 0.338168 -0.233297)
         (xy 0.338168 0.233297) (xy 0.233297 0.338168) (xy -0.233297 0.338168) (xy -0.338168 0.233297)) (width 0.25318))
    ))
  (pad "" smd custom (at 0 1.033333) (size 0.802926 0.802926) (layers F.Paste)
    (options (clearance outline) (anchor circle))
    (primitives
      (gr_poly (pts
         (xy -0.338168 -0.233297) (xy -0.233297 -0.338168) (xy 0.233297 -0.338168) (xy 0.338168 -0.233297)
         (xy 0.338168 0.233297) (xy 0.233297 0.338168) (xy -0.233297 0.338168) (xy -0.338168 0.233297)) (width 0.25318))
    ))
  (pad "" smd custom (at 1.033333 -1.033333) (size 0.802926 0.802926) (layers F.Paste)
    (options (clearance outline) (anchor circle))
    (primitives
      (gr_poly (pts
         (xy -0.338168 -0.233297) (xy -0.233297 -0.338168) (xy 0.233297 -0.338168) (xy 0.338168 -0.233297)
         (xy 0.338168 0.233297) (xy 0.233297 0.338168) (xy -0.233297 0.338168) (xy -0.338168 0.233297)) (width 0.25318))
    ))
  (pad "" smd custom (at 1.033333 0) (size 0.802926 0.802926) (layers F.Paste)
    (options (clearance outline) (anchor circle))
    (primitives
      (gr_poly (pts
         (xy -0.338168 -0.233297) (xy -0.233297 -0.338168) (xy 0.233297 -0.338168) (xy 0.338168 -0.233297)
         (xy 0.338168 0.233297) (xy 0.233297 0.338168) (xy -0.233297 0.338168) (xy -0.338168 0.233297)) (width 0.25318))
    ))
  (pad "" smd custom (at 1.033333 1.033333) (size 0.802926 0.802926) (layers F.Paste)
    (options (clearance outline) (anchor circle))
    (primitives
      (gr_poly (pts
         (xy -0.338168 -0.233297) (xy -0.233297 -0.338168) (xy 0.233297 -0.338168) (xy 0.338168 -0.233297)
         (xy 0.338168 0.233297) (xy 0.233297 0.338168) (xy -0.233297 0.338168) (xy -0.338168 0.233297)) (width 0.25318))
    ))
  (fp_text user %R (at 0 0) (layer F.Fab)
    (effects (font (size 1 1) (thickness 0.15)))
  )
  (model ${KICAD6_3DMODEL_DIR}/Package_DFN_QFN.3dshapes/QFN-40-1EP_5x5mm_P0.4mm_EP3.6x3.6mm.wrl
    (at (xyz 0 0 0))
    (scale (xyz 1 1 1))
    (rotate (xyz 0 0 0))
  )
)