(module QFN-28-1EP_5x6mm_P0.5mm_EP3.65x4.65mm_ThermalVias (layer F.Cu) (tedit 5DC5F6A4)
  (descr "QFN, 28 Pin (http://www.analog.com/media/en/package-pcb-resources/package/pkg_pdf/ltc-legacy-qfn/05081932_0_UHE28.pdf), generated with kicad-footprint-generator ipc_noLead_generator.py")
  (tags "QFN NoLead")
  (attr smd)
  (fp_text reference REF** (at 0 -4.32) (layer F.SilkS)
    (effects (font (size 1 1) (thickness 0.15)))
  )
  (fp_text value QFN-28-1EP_5x6mm_P0.5mm_EP3.65x4.65mm_ThermalVias (at 0 4.32) (layer F.Fab)
    (effects (font (size 1 1) (thickness 0.15)))
  )
  (fp_line (start 1.635 -3.11) (end 2.61 -3.11) (layer F.SilkS) (width 0.12))
  (fp_line (start 2.61 -3.11) (end 2.61 -2.135) (layer F.SilkS) (width 0.12))
  (fp_line (start -1.635 3.11) (end -2.61 3.11) (layer F.SilkS) (width 0.12))
  (fp_line (start -2.61 3.11) (end -2.61 2.135) (layer F.SilkS) (width 0.12))
  (fp_line (start 1.635 3.11) (end 2.61 3.11) (layer F.SilkS) (width 0.12))
  (fp_line (start 2.61 3.11) (end 2.61 2.135) (layer F.SilkS) (width 0.12))
  (fp_line (start -1.635 -3.11) (end -2.61 -3.11) (layer F.SilkS) (width 0.12))
  (fp_line (start -1.5 -3) (end 2.5 -3) (layer F.Fab) (width 0.1))
  (fp_line (start 2.5 -3) (end 2.5 3) (layer F.Fab) (width 0.1))
  (fp_line (start 2.5 3) (end -2.5 3) (layer F.Fab) (width 0.1))
  (fp_line (start -2.5 3) (end -2.5 -2) (layer F.Fab) (width 0.1))
  (fp_line (start -2.5 -2) (end -1.5 -3) (layer F.Fab) (width 0.1))
  (fp_line (start -3.12 -3.62) (end -3.12 3.62) (layer F.CrtYd) (width 0.05))
  (fp_line (start -3.12 3.62) (end 3.12 3.62) (layer F.CrtYd) (width 0.05))
  (fp_line (start 3.12 3.62) (end 3.12 -3.62) (layer F.CrtYd) (width 0.05))
  (fp_line (start 3.12 -3.62) (end -3.12 -3.62) (layer F.CrtYd) (width 0.05))
  (pad 1 smd roundrect (at -2.45 -1.75) (size 0.85 0.25) (layers F.Cu F.Mask F.Paste) (roundrect_rratio 0.25))
  (pad 2 smd roundrect (at -2.45 -1.25) (size 0.85 0.25) (layers F.Cu F.Mask F.Paste) (roundrect_rratio 0.25))
  (pad 3 smd roundrect (at -2.45 -0.75) (size 0.85 0.25) (layers F.Cu F.Mask F.Paste) (roundrect_rratio 0.25))
  (pad 4 smd roundrect (at -2.45 -0.25) (size 0.85 0.25) (layers F.Cu F.Mask F.Paste) (roundrect_rratio 0.25))
  (pad 5 smd roundrect (at -2.45 0.25) (size 0.85 0.25) (layers F.Cu F.Mask F.Paste) (roundrect_rratio 0.25))
  (pad 6 smd roundrect (at -2.45 0.75) (size 0.85 0.25) (layers F.Cu F.Mask F.Paste) (roundrect_rratio 0.25))
  (pad 7 smd roundrect (at -2.45 1.25) (size 0.85 0.25) (layers F.Cu F.Mask F.Paste) (roundrect_rratio 0.25))
  (pad 8 smd roundrect (at -2.45 1.75) (size 0.85 0.25) (layers F.Cu F.Mask F.Paste) (roundrect_rratio 0.25))
  (pad 9 smd roundrect (at -1.25 2.95) (size 0.25 0.85) (layers F.Cu F.Mask F.Paste) (roundrect_rratio 0.25))
  (pad 10 smd roundrect (at -0.75 2.95) (size 0.25 0.85) (layers F.Cu F.Mask F.Paste) (roundrect_rratio 0.25))
  (pad 11 smd roundrect (at -0.25 2.95) (size 0.25 0.85) (layers F.Cu F.Mask F.Paste) (roundrect_rratio 0.25))
  (pad 12 smd roundrect (at 0.25 2.95) (size 0.25 0.85) (layers F.Cu F.Mask F.Paste) (roundrect_rratio 0.25))
  (pad 13 smd roundrect (at 0.75 2.95) (size 0.25 0.85) (layers F.Cu F.Mask F.Paste) (roundrect_rratio 0.25))
  (pad 14 smd roundrect (at 1.25 2.95) (size 0.25 0.85) (layers F.Cu F.Mask F.Paste) (roundrect_rratio 0.25))
  (pad 15 smd roundrect (at 2.45 1.75) (size 0.85 0.25) (layers F.Cu F.Mask F.Paste) (roundrect_rratio 0.25))
  (pad 16 smd roundrect (at 2.45 1.25) (size 0.85 0.25) (layers F.Cu F.Mask F.Paste) (roundrect_rratio 0.25))
  (pad 17 smd roundrect (at 2.45 0.75) (size 0.85 0.25) (layers F.Cu F.Mask F.Paste) (roundrect_rratio 0.25))
  (pad 18 smd roundrect (at 2.45 0.25) (size 0.85 0.25) (layers F.Cu F.Mask F.Paste) (roundrect_rratio 0.25))
  (pad 19 smd roundrect (at 2.45 -0.25) (size 0.85 0.25) (layers F.Cu F.Mask F.Paste) (roundrect_rratio 0.25))
  (pad 20 smd roundrect (at 2.45 -0.75) (size 0.85 0.25) (layers F.Cu F.Mask F.Paste) (roundrect_rratio 0.25))
  (pad 21 smd roundrect (at 2.45 -1.25) (size 0.85 0.25) (layers F.Cu F.Mask F.Paste) (roundrect_rratio 0.25))
  (pad 22 smd roundrect (at 2.45 -1.75) (size 0.85 0.25) (layers F.Cu F.Mask F.Paste) (roundrect_rratio 0.25))
  (pad 23 smd roundrect (at 1.25 -2.95) (size 0.25 0.85) (layers F.Cu F.Mask F.Paste) (roundrect_rratio 0.25))
  (pad 24 smd roundrect (at 0.75 -2.95) (size 0.25 0.85) (layers F.Cu F.Mask F.Paste) (roundrect_rratio 0.25))
  (pad 25 smd roundrect (at 0.25 -2.95) (size 0.25 0.85) (layers F.Cu F.Mask F.Paste) (roundrect_rratio 0.25))
  (pad 26 smd roundrect (at -0.25 -2.95) (size 0.25 0.85) (layers F.Cu F.Mask F.Paste) (roundrect_rratio 0.25))
  (pad 27 smd roundrect (at -0.75 -2.95) (size 0.25 0.85) (layers F.Cu F.Mask F.Paste) (roundrect_rratio 0.25))
  (pad 28 smd roundrect (at -1.25 -2.95) (size 0.25 0.85) (layers F.Cu F.Mask F.Paste) (roundrect_rratio 0.25))
  (pad 29 smd rect (at 0 0) (size 3.65 4.65) (layers F.Cu F.Mask))
  (pad 29 thru_hole circle (at -1 -1.5) (size 0.5 0.5) (drill 0.2) (layers *.Cu))
  (pad 29 thru_hole circle (at 0 -1.5) (size 0.5 0.5) (drill 0.2) (layers *.Cu))
  (pad 29 thru_hole circle (at 1 -1.5) (size 0.5 0.5) (drill 0.2) (layers *.Cu))
  (pad 29 thru_hole circle (at -1 -0.5) (size 0.5 0.5) (drill 0.2) (layers *.Cu))
  (pad 29 thru_hole circle (at 0 -0.5) (size 0.5 0.5) (drill 0.2) (layers *.Cu))
  (pad 29 thru_hole circle (at 1 -0.5) (size 0.5 0.5) (drill 0.2) (layers *.Cu))
  (pad 29 thru_hole circle (at -1 0.5) (size 0.5 0.5) (drill 0.2) (layers *.Cu))
  (pad 29 thru_hole circle (at 0 0.5) (size 0.5 0.5) (drill 0.2) (layers *.Cu))
  (pad 29 thru_hole circle (at 1 0.5) (size 0.5 0.5) (drill 0.2) (layers *.Cu))
  (pad 29 thru_hole circle (at -1 1.5) (size 0.5 0.5) (drill 0.2) (layers *.Cu))
  (pad 29 thru_hole circle (at 0 1.5) (size 0.5 0.5) (drill 0.2) (layers *.Cu))
  (pad 29 thru_hole circle (at 1 1.5) (size 0.5 0.5) (drill 0.2) (layers *.Cu))
  (pad 29 smd rect (at 0 0) (size 2.5 3.5) (layers B.Cu))
  (pad "" smd roundrect (at -0.5 -1) (size 0.806226 0.806226) (layers F.Paste) (roundrect_rratio 0.25))
  (pad "" smd roundrect (at -0.5 0) (size 0.806226 0.806226) (layers F.Paste) (roundrect_rratio 0.25))
  (pad "" smd roundrect (at -0.5 1) (size 0.806226 0.806226) (layers F.Paste) (roundrect_rratio 0.25))
  (pad "" smd roundrect (at 0.5 -1) (size 0.806226 0.806226) (layers F.Paste) (roundrect_rratio 0.25))
  (pad "" smd roundrect (at 0.5 0) (size 0.806226 0.806226) (layers F.Paste) (roundrect_rratio 0.25))
  (pad "" smd roundrect (at 0.5 1) (size 0.806226 0.806226) (layers F.Paste) (roundrect_rratio 0.25))
  (pad "" smd custom (at -1.4125 -1) (size 0.590166 0.590166) (layers F.Paste)
    (options (clearance outline) (anchor circle))
    (primitives
      (gr_poly (pts
         (xy -0.257598 -0.328143) (xy 0.195491 -0.328143) (xy 0.257598 -0.266036) (xy 0.257598 0.266036)
         (xy 0.195491 0.328143) (xy -0.257598 0.328143)) (width 0.14994))
    ))
  (pad "" smd custom (at -1.4125 0) (size 0.590166 0.590166) (layers F.Paste)
    (options (clearance outline) (anchor circle))
    (primitives
      (gr_poly (pts
         (xy -0.257598 -0.328143) (xy 0.195491 -0.328143) (xy 0.257598 -0.266036) (xy 0.257598 0.266036)
         (xy 0.195491 0.328143) (xy -0.257598 0.328143)) (width 0.14994))
    ))
  (pad "" smd custom (at -1.4125 1) (size 0.590166 0.590166) (layers F.Paste)
    (options (clearance outline) (anchor circle))
    (primitives
      (gr_poly (pts
         (xy -0.257598 -0.328143) (xy 0.195491 -0.328143) (xy 0.257598 -0.266036) (xy 0.257598 0.266036)
         (xy 0.195491 0.328143) (xy -0.257598 0.328143)) (width 0.14994))
    ))
  (pad "" smd custom (at 1.4125 -1) (size 0.590166 0.590166) (layers F.Paste)
    (options (clearance outline) (anchor circle))
    (primitives
      (gr_poly (pts
         (xy -0.257598 -0.266036) (xy -0.195491 -0.328143) (xy 0.257598 -0.328143) (xy 0.257598 0.328143)
         (xy -0.195491 0.328143) (xy -0.257598 0.266036)) (width 0.14994))
    ))
  (pad "" smd custom (at 1.4125 0) (size 0.590166 0.590166) (layers F.Paste)
    (options (clearance outline) (anchor circle))
    (primitives
      (gr_poly (pts
         (xy -0.257598 -0.266036) (xy -0.195491 -0.328143) (xy 0.257598 -0.328143) (xy 0.257598 0.328143)
         (xy -0.195491 0.328143) (xy -0.257598 0.266036)) (width 0.14994))
    ))
  (pad "" smd custom (at 1.4125 1) (size 0.590166 0.590166) (layers F.Paste)
    (options (clearance outline) (anchor circle))
    (primitives
      (gr_poly (pts
         (xy -0.257598 -0.266036) (xy -0.195491 -0.328143) (xy 0.257598 -0.328143) (xy 0.257598 0.328143)
         (xy -0.195491 0.328143) (xy -0.257598 0.266036)) (width 0.14994))
    ))
  (pad "" smd custom (at -0.5 -1.9125) (size 0.590166 0.590166) (layers F.Paste)
    (options (clearance outline) (anchor circle))
    (primitives
      (gr_poly (pts
         (xy -0.328143 -0.257598) (xy 0.328143 -0.257598) (xy 0.328143 0.195491) (xy 0.266036 0.257598)
         (xy -0.266036 0.257598) (xy -0.328143 0.195491)) (width 0.14994))
    ))
  (pad "" smd custom (at 0.5 -1.9125) (size 0.590166 0.590166) (layers F.Paste)
    (options (clearance outline) (anchor circle))
    (primitives
      (gr_poly (pts
         (xy -0.328143 -0.257598) (xy 0.328143 -0.257598) (xy 0.328143 0.195491) (xy 0.266036 0.257598)
         (xy -0.266036 0.257598) (xy -0.328143 0.195491)) (width 0.14994))
    ))
  (pad "" smd custom (at -0.5 1.9125) (size 0.590166 0.590166) (layers F.Paste)
    (options (clearance outline) (anchor circle))
    (primitives
      (gr_poly (pts
         (xy -0.328143 -0.195491) (xy -0.266036 -0.257598) (xy 0.266036 -0.257598) (xy 0.328143 -0.195491)
         (xy 0.328143 0.257598) (xy -0.328143 0.257598)) (width 0.14994))
    ))
  (pad "" smd custom (at 0.5 1.9125) (size 0.590166 0.590166) (layers F.Paste)
    (options (clearance outline) (anchor circle))
    (primitives
      (gr_poly (pts
         (xy -0.328143 -0.195491) (xy -0.266036 -0.257598) (xy 0.266036 -0.257598) (xy 0.328143 -0.195491)
         (xy 0.328143 0.257598) (xy -0.328143 0.257598)) (width 0.14994))
    ))
  (pad "" smd custom (at -1.4125 -1.9125) (size 0.578177 0.578177) (layers F.Paste)
    (options (clearance outline) (anchor circle))
    (primitives
      (gr_poly (pts
         (xy -0.245609 -0.245609) (xy 0.245609 -0.245609) (xy 0.245609 0.173569) (xy 0.173569 0.245609)
         (xy -0.245609 0.245609)) (width 0.173919))
    ))
  (pad "" smd custom (at -1.4125 1.9125) (size 0.578177 0.578177) (layers F.Paste)
    (options (clearance outline) (anchor circle))
    (primitives
      (gr_poly (pts
         (xy -0.245609 -0.245609) (xy 0.173569 -0.245609) (xy 0.245609 -0.173569) (xy 0.245609 0.245609)
         (xy -0.245609 0.245609)) (width 0.173919))
    ))
  (pad "" smd custom (at 1.4125 -1.9125) (size 0.578177 0.578177) (layers F.Paste)
    (options (clearance outline) (anchor circle))
    (primitives
      (gr_poly (pts
         (xy -0.245609 -0.245609) (xy 0.245609 -0.245609) (xy 0.245609 0.245609) (xy -0.173569 0.245609)
         (xy -0.245609 0.173569)) (width 0.173919))
    ))
  (pad "" smd custom (at 1.4125 1.9125) (size 0.578177 0.578177) (layers F.Paste)
    (options (clearance outline) (anchor circle))
    (primitives
      (gr_poly (pts
         (xy -0.245609 -0.173569) (xy -0.173569 -0.245609) (xy 0.245609 -0.245609) (xy 0.245609 0.245609)
         (xy -0.245609 0.245609)) (width 0.173919))
    ))
  (fp_text user %R (at 0 0) (layer F.Fab)
    (effects (font (size 1 1) (thickness 0.15)))
  )
  (model ${KICAD6_3DMODEL_DIR}/Package_DFN_QFN.3dshapes/QFN-28-1EP_5x6mm_P0.5mm_EP3.65x4.65mm.wrl
    (at (xyz 0 0 0))
    (scale (xyz 1 1 1))
    (rotate (xyz 0 0 0))
  )
)