(module QFN-48-1EP_6x6mm_P0.4mm_EP4.66x4.66mm_ThermalVias (layer F.Cu) (tedit 5DC5F6A5)
  (descr "QFN, 48 Pin (https://www.onsemi.com/pub/Collateral/485BA.PDF), generated with kicad-footprint-generator ipc_noLead_generator.py")
  (tags "QFN NoLead")
  (attr smd)
  (fp_text reference REF** (at 0 -4.3) (layer F.SilkS)
    (effects (font (size 1 1) (thickness 0.15)))
  )
  (fp_text value QFN-48-1EP_6x6mm_P0.4mm_EP4.66x4.66mm_ThermalVias (at 0 4.3) (layer F.Fab)
    (effects (font (size 1 1) (thickness 0.15)))
  )
  (fp_line (start 2.56 -3.11) (end 3.11 -3.11) (layer F.SilkS) (width 0.12))
  (fp_line (start 3.11 -3.11) (end 3.11 -2.56) (layer F.SilkS) (width 0.12))
  (fp_line (start -2.56 3.11) (end -3.11 3.11) (layer F.SilkS) (width 0.12))
  (fp_line (start -3.11 3.11) (end -3.11 2.56) (layer F.SilkS) (width 0.12))
  (fp_line (start 2.56 3.11) (end 3.11 3.11) (layer F.SilkS) (width 0.12))
  (fp_line (start 3.11 3.11) (end 3.11 2.56) (layer F.SilkS) (width 0.12))
  (fp_line (start -2.56 -3.11) (end -3.11 -3.11) (layer F.SilkS) (width 0.12))
  (fp_line (start -2 -3) (end 3 -3) (layer F.Fab) (width 0.1))
  (fp_line (start 3 -3) (end 3 3) (layer F.Fab) (width 0.1))
  (fp_line (start 3 3) (end -3 3) (layer F.Fab) (width 0.1))
  (fp_line (start -3 3) (end -3 -2) (layer F.Fab) (width 0.1))
  (fp_line (start -3 -2) (end -2 -3) (layer F.Fab) (width 0.1))
  (fp_line (start -3.6 -3.6) (end -3.6 3.6) (layer F.CrtYd) (width 0.05))
  (fp_line (start -3.6 3.6) (end 3.6 3.6) (layer F.CrtYd) (width 0.05))
  (fp_line (start 3.6 3.6) (end 3.6 -3.6) (layer F.CrtYd) (width 0.05))
  (fp_line (start 3.6 -3.6) (end -3.6 -3.6) (layer F.CrtYd) (width 0.05))
  (pad 1 smd roundrect (at -2.94 -2.2) (size 0.82 0.2) (layers F.Cu F.Mask F.Paste) (roundrect_rratio 0.25))
  (pad 2 smd roundrect (at -2.94 -1.8) (size 0.82 0.2) (layers F.Cu F.Mask F.Paste) (roundrect_rratio 0.25))
  (pad 3 smd roundrect (at -2.94 -1.4) (size 0.82 0.2) (layers F.Cu F.Mask F.Paste) (roundrect_rratio 0.25))
  (pad 4 smd roundrect (at -2.94 -1) (size 0.82 0.2) (layers F.Cu F.Mask F.Paste) (roundrect_rratio 0.25))
  (pad 5 smd roundrect (at -2.94 -0.6) (size 0.82 0.2) (layers F.Cu F.Mask F.Paste) (roundrect_rratio 0.25))
  (pad 6 smd roundrect (at -2.94 -0.2) (size 0.82 0.2) (layers F.Cu F.Mask F.Paste) (roundrect_rratio 0.25))
  (pad 7 smd roundrect (at -2.94 0.2) (size 0.82 0.2) (layers F.Cu F.Mask F.Paste) (roundrect_rratio 0.25))
  (pad 8 smd roundrect (at -2.94 0.6) (size 0.82 0.2) (layers F.Cu F.Mask F.Paste) (roundrect_rratio 0.25))
  (pad 9 smd roundrect (at -2.94 1) (size 0.82 0.2) (layers F.Cu F.Mask F.Paste) (roundrect_rratio 0.25))
  (pad 10 smd roundrect (at -2.94 1.4) (size 0.82 0.2) (layers F.Cu F.Mask F.Paste) (roundrect_rratio 0.25))
  (pad 11 smd roundrect (at -2.94 1.8) (size 0.82 0.2) (layers F.Cu F.Mask F.Paste) (roundrect_rratio 0.25))
  (pad 12 smd roundrect (at -2.94 2.2) (size 0.82 0.2) (layers F.Cu F.Mask F.Paste) (roundrect_rratio 0.25))
  (pad 13 smd roundrect (at -2.2 2.94) (size 0.2 0.82) (layers F.Cu F.Mask F.Paste) (roundrect_rratio 0.25))
  (pad 14 smd roundrect (at -1.8 2.94) (size 0.2 0.82) (layers F.Cu F.Mask F.Paste) (roundrect_rratio 0.25))
  (pad 15 smd roundrect (at -1.4 2.94) (size 0.2 0.82) (layers F.Cu F.Mask F.Paste) (roundrect_rratio 0.25))
  (pad 16 smd roundrect (at -1 2.94) (size 0.2 0.82) (layers F.Cu F.Mask F.Paste) (roundrect_rratio 0.25))
  (pad 17 smd roundrect (at -0.6 2.94) (size 0.2 0.82) (layers F.Cu F.Mask F.Paste) (roundrect_rratio 0.25))
  (pad 18 smd roundrect (at -0.2 2.94) (size 0.2 0.82) (layers F.Cu F.Mask F.Paste) (roundrect_rratio 0.25))
  (pad 19 smd roundrect (at 0.2 2.94) (size 0.2 0.82) (layers F.Cu F.Mask F.Paste) (roundrect_rratio 0.25))
  (pad 20 smd roundrect (at 0.6 2.94) (size 0.2 0.82) (layers F.Cu F.Mask F.Paste) (roundrect_rratio 0.25))
  (pad 21 smd roundrect (at 1 2.94) (size 0.2 0.82) (layers F.Cu F.Mask F.Paste) (roundrect_rratio 0.25))
  (pad 22 smd roundrect (at 1.4 2.94) (size 0.2 0.82) (layers F.Cu F.Mask F.Paste) (roundrect_rratio 0.25))
  (pad 23 smd roundrect (at 1.8 2.94) (size 0.2 0.82) (layers F.Cu F.Mask F.Paste) (roundrect_rratio 0.25))
  (pad 24 smd roundrect (at 2.2 2.94) (size 0.2 0.82) (layers F.Cu F.Mask F.Paste) (roundrect_rratio 0.25))
  (pad 25 smd roundrect (at 2.94 2.2) (size 0.82 0.2) (layers F.Cu F.Mask F.Paste) (roundrect_rratio 0.25))
  (pad 26 smd roundrect (at 2.94 1.8) (size 0.82 0.2) (layers F.Cu F.Mask F.Paste) (roundrect_rratio 0.25))
  (pad 27 smd roundrect (at 2.94 1.4) (size 0.82 0.2) (layers F.Cu F.Mask F.Paste) (roundrect_rratio 0.25))
  (pad 28 smd roundrect (at 2.94 1) (size 0.82 0.2) (layers F.Cu F.Mask F.Paste) (roundrect_rratio 0.25))
  (pad 29 smd roundrect (at 2.94 0.6) (size 0.82 0.2) (layers F.Cu F.Mask F.Paste) (roundrect_rratio 0.25))
  (pad 30 smd roundrect (at 2.94 0.2) (size 0.82 0.2) (layers F.Cu F.Mask F.Paste) (roundrect_rratio 0.25))
  (pad 31 smd roundrect (at 2.94 -0.2) (size 0.82 0.2) (layers F.Cu F.Mask F.Paste) (roundrect_rratio 0.25))
  (pad 32 smd roundrect (at 2.94 -0.6) (size 0.82 0.2) (layers F.Cu F.Mask F.Paste) (roundrect_rratio 0.25))
  (pad 33 smd roundrect (at 2.94 -1) (size 0.82 0.2) (layers F.Cu F.Mask F.Paste) (roundrect_rratio 0.25))
  (pad 34 smd roundrect (at 2.94 -1.4) (size 0.82 0.2) (layers F.Cu F.Mask F.Paste) (roundrect_rratio 0.25))
  (pad 35 smd roundrect (at 2.94 -1.8) (size 0.82 0.2) (layers F.Cu F.Mask F.Paste) (roundrect_rratio 0.25))
  (pad 36 smd roundrect (at 2.94 -2.2) (size 0.82 0.2) (layers F.Cu F.Mask F.Paste) (roundrect_rratio 0.25))
  (pad 37 smd roundrect (at 2.2 -2.94) (size 0.2 0.82) (layers F.Cu F.Mask F.Paste) (roundrect_rratio 0.25))
  (pad 38 smd roundrect (at 1.8 -2.94) (size 0.2 0.82) (layers F.Cu F.Mask F.Paste) (roundrect_rratio 0.25))
  (pad 39 smd roundrect (at 1.4 -2.94) (size 0.2 0.82) (layers F.Cu F.Mask F.Paste) (roundrect_rratio 0.25))
  (pad 40 smd roundrect (at 1 -2.94) (size 0.2 0.82) (layers F.Cu F.Mask F.Paste) (roundrect_rratio 0.25))
  (pad 41 smd roundrect (at 0.6 -2.94) (size 0.2 0.82) (layers F.Cu F.Mask F.Paste) (roundrect_rratio 0.25))
  (pad 42 smd roundrect (at 0.2 -2.94) (size 0.2 0.82) (layers F.Cu F.Mask F.Paste) (roundrect_rratio 0.25))
  (pad 43 smd roundrect (at -0.2 -2.94) (size 0.2 0.82) (layers F.Cu F.Mask F.Paste) (roundrect_rratio 0.25))
  (pad 44 smd roundrect (at -0.6 -2.94) (size 0.2 0.82) (layers F.Cu F.Mask F.Paste) (roundrect_rratio 0.25))
  (pad 45 smd roundrect (at -1 -2.94) (size 0.2 0.82) (layers F.Cu F.Mask F.Paste) (roundrect_rratio 0.25))
  (pad 46 smd roundrect (at -1.4 -2.94) (size 0.2 0.82) (layers F.Cu F.Mask F.Paste) (roundrect_rratio 0.25))
  (pad 47 smd roundrect (at -1.8 -2.94) (size 0.2 0.82) (layers F.Cu F.Mask F.Paste) (roundrect_rratio 0.25))
  (pad 48 smd roundrect (at -2.2 -2.94) (size 0.2 0.82) (layers F.Cu F.Mask F.Paste) (roundrect_rratio 0.25))
  (pad 49 smd rect (at 0 0) (size 4.66 4.66) (layers F.Cu F.Mask))
  (pad 49 thru_hole circle (at -1.8 -1.8) (size 0.5 0.5) (drill 0.2) (layers *.Cu))
  (pad 49 thru_hole circle (at -0.6 -1.8) (size 0.5 0.5) (drill 0.2) (layers *.Cu))
  (pad 49 thru_hole circle (at 0.6 -1.8) (size 0.5 0.5) (drill 0.2) (layers *.Cu))
  (pad 49 thru_hole circle (at 1.8 -1.8) (size 0.5 0.5) (drill 0.2) (layers *.Cu))
  (pad 49 thru_hole circle (at -1.8 -0.6) (size 0.5 0.5) (drill 0.2) (layers *.Cu))
  (pad 49 thru_hole circle (at -0.6 -0.6) (size 0.5 0.5) (drill 0.2) (layers *.Cu))
  (pad 49 thru_hole circle (at 0.6 -0.6) (size 0.5 0.5) (drill 0.2) (layers *.Cu))
  (pad 49 thru_hole circle (at 1.8 -0.6) (size 0.5 0.5) (drill 0.2) (layers *.Cu))
  (pad 49 thru_hole circle (at -1.8 0.6) (size 0.5 0.5) (drill 0.2) (layers *.Cu))
  (pad 49 thru_hole circle (at -0.6 0.6) (size 0.5 0.5) (drill 0.2) (layers *.Cu))
  (pad 49 thru_hole circle (at 0.6 0.6) (size 0.5 0.5) (drill 0.2) (layers *.Cu))
  (pad 49 thru_hole circle (at 1.8 0.6) (size 0.5 0.5) (drill 0.2) (layers *.Cu))
  (pad 49 thru_hole circle (at -1.8 1.8) (size 0.5 0.5) (drill 0.2) (layers *.Cu))
  (pad 49 thru_hole circle (at -0.6 1.8) (size 0.5 0.5) (drill 0.2) (layers *.Cu))
  (pad 49 thru_hole circle (at 0.6 1.8) (size 0.5 0.5) (drill 0.2) (layers *.Cu))
  (pad 49 thru_hole circle (at 1.8 1.8) (size 0.5 0.5) (drill 0.2) (layers *.Cu))
  (pad 49 smd rect (at 0 0) (size 4.1 4.1) (layers B.Cu))
  (pad "" smd roundrect (at -1.2 -1.2) (size 0.967471 0.967471) (layers F.Paste) (roundrect_rratio 0.25))
  (pad "" smd roundrect (at -1.2 0) (size 0.967471 0.967471) (layers F.Paste) (roundrect_rratio 0.25))
  (pad "" smd roundrect (at -1.2 1.2) (size 0.967471 0.967471) (layers F.Paste) (roundrect_rratio 0.25))
  (pad "" smd roundrect (at 0 -1.2) (size 0.967471 0.967471) (layers F.Paste) (roundrect_rratio 0.25))
  (pad "" smd roundrect (at 0 0) (size 0.967471 0.967471) (layers F.Paste) (roundrect_rratio 0.25))
  (pad "" smd roundrect (at 0 1.2) (size 0.967471 0.967471) (layers F.Paste) (roundrect_rratio 0.25))
  (pad "" smd roundrect (at 1.2 -1.2) (size 0.967471 0.967471) (layers F.Paste) (roundrect_rratio 0.25))
  (pad "" smd roundrect (at 1.2 0) (size 0.967471 0.967471) (layers F.Paste) (roundrect_rratio 0.25))
  (pad "" smd roundrect (at 1.2 1.2) (size 0.967471 0.967471) (layers F.Paste) (roundrect_rratio 0.25))
  (pad "" smd custom (at -2.065 -1.2) (size 0.345821 0.345821) (layers F.Paste)
    (options (clearance outline) (anchor circle))
    (primitives
      (gr_poly (pts
         (xy -0.132171 -0.402257) (xy 0.064672 -0.402257) (xy 0.132171 -0.334758) (xy 0.132171 0.334758)
         (xy 0.064672 0.402257) (xy -0.132171 0.402257)) (width 0.162957))
    ))
  (pad "" smd custom (at -2.065 0) (size 0.345821 0.345821) (layers F.Paste)
    (options (clearance outline) (anchor circle))
    (primitives
      (gr_poly (pts
         (xy -0.132171 -0.402257) (xy 0.064672 -0.402257) (xy 0.132171 -0.334758) (xy 0.132171 0.334758)
         (xy 0.064672 0.402257) (xy -0.132171 0.402257)) (width 0.162957))
    ))
  (pad "" smd custom (at -2.065 1.2) (size 0.345821 0.345821) (layers F.Paste)
    (options (clearance outline) (anchor circle))
    (primitives
      (gr_poly (pts
         (xy -0.132171 -0.402257) (xy 0.064672 -0.402257) (xy 0.132171 -0.334758) (xy 0.132171 0.334758)
         (xy 0.064672 0.402257) (xy -0.132171 0.402257)) (width 0.162957))
    ))
  (pad "" smd custom (at 2.065 -1.2) (size 0.345821 0.345821) (layers F.Paste)
    (options (clearance outline) (anchor circle))
    (primitives
      (gr_poly (pts
         (xy -0.132171 -0.334758) (xy -0.064672 -0.402257) (xy 0.132171 -0.402257) (xy 0.132171 0.402257)
         (xy -0.064672 0.402257) (xy -0.132171 0.334758)) (width 0.162957))
    ))
  (pad "" smd custom (at 2.065 0) (size 0.345821 0.345821) (layers F.Paste)
    (options (clearance outline) (anchor circle))
    (primitives
      (gr_poly (pts
         (xy -0.132171 -0.334758) (xy -0.064672 -0.402257) (xy 0.132171 -0.402257) (xy 0.132171 0.402257)
         (xy -0.064672 0.402257) (xy -0.132171 0.334758)) (width 0.162957))
    ))
  (pad "" smd custom (at 2.065 1.2) (size 0.345821 0.345821) (layers F.Paste)
    (options (clearance outline) (anchor circle))
    (primitives
      (gr_poly (pts
         (xy -0.132171 -0.334758) (xy -0.064672 -0.402257) (xy 0.132171 -0.402257) (xy 0.132171 0.402257)
         (xy -0.064672 0.402257) (xy -0.132171 0.334758)) (width 0.162957))
    ))
  (pad "" smd custom (at -1.2 -2.065) (size 0.345821 0.345821) (layers F.Paste)
    (options (clearance outline) (anchor circle))
    (primitives
      (gr_poly (pts
         (xy -0.402257 -0.132171) (xy 0.402257 -0.132171) (xy 0.402257 0.064672) (xy 0.334758 0.132171)
         (xy -0.334758 0.132171) (xy -0.402257 0.064672)) (width 0.162957))
    ))
  (pad "" smd custom (at 0 -2.065) (size 0.345821 0.345821) (layers F.Paste)
    (options (clearance outline) (anchor circle))
    (primitives
      (gr_poly (pts
         (xy -0.402257 -0.132171) (xy 0.402257 -0.132171) (xy 0.402257 0.064672) (xy 0.334758 0.132171)
         (xy -0.334758 0.132171) (xy -0.402257 0.064672)) (width 0.162957))
    ))
  (pad "" smd custom (at 1.2 -2.065) (size 0.345821 0.345821) (layers F.Paste)
    (options (clearance outline) (anchor circle))
    (primitives
      (gr_poly (pts
         (xy -0.402257 -0.132171) (xy 0.402257 -0.132171) (xy 0.402257 0.064672) (xy 0.334758 0.132171)
         (xy -0.334758 0.132171) (xy -0.402257 0.064672)) (width 0.162957))
    ))
  (pad "" smd custom (at -1.2 2.065) (size 0.345821 0.345821) (layers F.Paste)
    (options (clearance outline) (anchor circle))
    (primitives
      (gr_poly (pts
         (xy -0.402257 -0.064672) (xy -0.334758 -0.132171) (xy 0.334758 -0.132171) (xy 0.402257 -0.064672)
         (xy 0.402257 0.132171) (xy -0.402257 0.132171)) (width 0.162957))
    ))
  (pad "" smd custom (at 0 2.065) (size 0.345821 0.345821) (layers F.Paste)
    (options (clearance outline) (anchor circle))
    (primitives
      (gr_poly (pts
         (xy -0.402257 -0.064672) (xy -0.334758 -0.132171) (xy 0.334758 -0.132171) (xy 0.402257 -0.064672)
         (xy 0.402257 0.132171) (xy -0.402257 0.132171)) (width 0.162957))
    ))
  (pad "" smd custom (at 1.2 2.065) (size 0.345821 0.345821) (layers F.Paste)
    (options (clearance outline) (anchor circle))
    (primitives
      (gr_poly (pts
         (xy -0.402257 -0.064672) (xy -0.334758 -0.132171) (xy 0.334758 -0.132171) (xy 0.402257 -0.064672)
         (xy 0.402257 0.132171) (xy -0.402257 0.132171)) (width 0.162957))
    ))
  (pad "" smd custom (at -2.065 -2.065) (size 0.29992 0.29992) (layers F.Paste)
    (options (clearance outline) (anchor circle))
    (primitives
      (gr_poly (pts
         (xy -0.106825 -0.106825) (xy 0.106825 -0.106825) (xy 0.106825 -0.010741) (xy -0.010741 0.106825)
         (xy -0.106825 0.106825)) (width 0.21365))
    ))
  (pad "" smd custom (at -2.065 2.065) (size 0.29992 0.29992) (layers F.Paste)
    (options (clearance outline) (anchor circle))
    (primitives
      (gr_poly (pts
         (xy -0.106825 -0.106825) (xy -0.010741 -0.106825) (xy 0.106825 0.010741) (xy 0.106825 0.106825)
         (xy -0.106825 0.106825)) (width 0.21365))
    ))
  (pad "" smd custom (at 2.065 -2.065) (size 0.29992 0.29992) (layers F.Paste)
    (options (clearance outline) (anchor circle))
    (primitives
      (gr_poly (pts
         (xy -0.106825 -0.106825) (xy 0.106825 -0.106825) (xy 0.106825 0.106825) (xy 0.010741 0.106825)
         (xy -0.106825 -0.010741)) (width 0.21365))
    ))
  (pad "" smd custom (at 2.065 2.065) (size 0.29992 0.29992) (layers F.Paste)
    (options (clearance outline) (anchor circle))
    (primitives
      (gr_poly (pts
         (xy -0.106825 0.010741) (xy 0.010741 -0.106825) (xy 0.106825 -0.106825) (xy 0.106825 0.106825)
         (xy -0.106825 0.106825)) (width 0.21365))
    ))
  (fp_text user %R (at 0 0) (layer F.Fab)
    (effects (font (size 1 1) (thickness 0.15)))
  )
  (model ${KICAD6_3DMODEL_DIR}/Package_DFN_QFN.3dshapes/QFN-48-1EP_6x6mm_P0.4mm_EP4.66x4.66mm.wrl
    (at (xyz 0 0 0))
    (scale (xyz 1 1 1))
    (rotate (xyz 0 0 0))
  )
)