(module QFN-12-1EP_3x3mm_P0.5mm_EP1.6x1.6mm_ThermalVias (layer F.Cu) (tedit 5F6F8270)
  (descr "QFN, 12 Pin (https://www.nxp.com/docs/en/data-sheet/MMZ09332B.pdf), generated with kicad-footprint-generator ipc_noLead_generator.py")
  (tags "QFN NoLead")
  (attr smd)
  (fp_text reference REF** (at 0 -2.8) (layer F.SilkS)
    (effects (font (size 1 1) (thickness 0.15)))
  )
  (fp_text value QFN-12-1EP_3x3mm_P0.5mm_EP1.6x1.6mm_ThermalVias (at 0 2.8) (layer F.Fab)
    (effects (font (size 1 1) (thickness 0.15)))
  )
  (fp_line (start 0.885 -1.61) (end 1.61 -1.61) (layer F.SilkS) (width 0.12))
  (fp_line (start 1.61 -1.61) (end 1.61 -0.885) (layer F.SilkS) (width 0.12))
  (fp_line (start -0.885 1.61) (end -1.61 1.61) (layer F.SilkS) (width 0.12))
  (fp_line (start -1.61 1.61) (end -1.61 0.885) (layer F.SilkS) (width 0.12))
  (fp_line (start 0.885 1.61) (end 1.61 1.61) (layer F.SilkS) (width 0.12))
  (fp_line (start 1.61 1.61) (end 1.61 0.885) (layer F.SilkS) (width 0.12))
  (fp_line (start -0.885 -1.61) (end -1.61 -1.61) (layer F.SilkS) (width 0.12))
  (fp_line (start -0.75 -1.5) (end 1.5 -1.5) (layer F.Fab) (width 0.1))
  (fp_line (start 1.5 -1.5) (end 1.5 1.5) (layer F.Fab) (width 0.1))
  (fp_line (start 1.5 1.5) (end -1.5 1.5) (layer F.Fab) (width 0.1))
  (fp_line (start -1.5 1.5) (end -1.5 -0.75) (layer F.Fab) (width 0.1))
  (fp_line (start -1.5 -0.75) (end -0.75 -1.5) (layer F.Fab) (width 0.1))
  (fp_line (start -2.1 -2.1) (end -2.1 2.1) (layer F.CrtYd) (width 0.05))
  (fp_line (start -2.1 2.1) (end 2.1 2.1) (layer F.CrtYd) (width 0.05))
  (fp_line (start 2.1 2.1) (end 2.1 -2.1) (layer F.CrtYd) (width 0.05))
  (fp_line (start 2.1 -2.1) (end -2.1 -2.1) (layer F.CrtYd) (width 0.05))
  (pad 1 smd roundrect (at -1.4375 -0.5) (size 0.825 0.25) (layers F.Cu F.Mask F.Paste) (roundrect_rratio 0.25))
  (pad 2 smd roundrect (at -1.4375 0) (size 0.825 0.25) (layers F.Cu F.Mask F.Paste) (roundrect_rratio 0.25))
  (pad 3 smd roundrect (at -1.4375 0.5) (size 0.825 0.25) (layers F.Cu F.Mask F.Paste) (roundrect_rratio 0.25))
  (pad 4 smd roundrect (at -0.5 1.4375) (size 0.25 0.825) (layers F.Cu F.Mask F.Paste) (roundrect_rratio 0.25))
  (pad 5 smd roundrect (at 0 1.4375) (size 0.25 0.825) (layers F.Cu F.Mask F.Paste) (roundrect_rratio 0.25))
  (pad 6 smd roundrect (at 0.5 1.4375) (size 0.25 0.825) (layers F.Cu F.Mask F.Paste) (roundrect_rratio 0.25))
  (pad 7 smd roundrect (at 1.4375 0.5) (size 0.825 0.25) (layers F.Cu F.Mask F.Paste) (roundrect_rratio 0.25))
  (pad 8 smd roundrect (at 1.4375 0) (size 0.825 0.25) (layers F.Cu F.Mask F.Paste) (roundrect_rratio 0.25))
  (pad 9 smd roundrect (at 1.4375 -0.5) (size 0.825 0.25) (layers F.Cu F.Mask F.Paste) (roundrect_rratio 0.25))
  (pad 10 smd roundrect (at 0.5 -1.4375) (size 0.25 0.825) (layers F.Cu F.Mask F.Paste) (roundrect_rratio 0.25))
  (pad 11 smd roundrect (at 0 -1.4375) (size 0.25 0.825) (layers F.Cu F.Mask F.Paste) (roundrect_rratio 0.25))
  (pad 12 smd roundrect (at -0.5 -1.4375) (size 0.25 0.825) (layers F.Cu F.Mask F.Paste) (roundrect_rratio 0.25))
  (pad 13 smd rect (at 0 0) (size 1.6 1.6) (layers F.Cu F.Mask))
  (pad 13 thru_hole circle (at -0.55 -0.55) (size 0.5 0.5) (drill 0.2) (layers *.Cu))
  (pad 13 thru_hole circle (at 0 -0.55) (size 0.5 0.5) (drill 0.2) (layers *.Cu))
  (pad 13 thru_hole circle (at 0.55 -0.55) (size 0.5 0.5) (drill 0.2) (layers *.Cu))
  (pad 13 thru_hole circle (at -0.55 0) (size 0.5 0.5) (drill 0.2) (layers *.Cu))
  (pad 13 thru_hole circle (at 0 0) (size 0.5 0.5) (drill 0.2) (layers *.Cu))
  (pad 13 thru_hole circle (at 0.55 0) (size 0.5 0.5) (drill 0.2) (layers *.Cu))
  (pad 13 thru_hole circle (at -0.55 0.55) (size 0.5 0.5) (drill 0.2) (layers *.Cu))
  (pad 13 thru_hole circle (at 0 0.55) (size 0.5 0.5) (drill 0.2) (layers *.Cu))
  (pad 13 thru_hole circle (at 0.55 0.55) (size 0.5 0.5) (drill 0.2) (layers *.Cu))
  (pad 13 smd rect (at 0 0) (size 1.6 1.6) (layers B.Cu))
  (pad "" smd roundrect (at -0.53 -0.53) (size 0.46 0.46) (layers F.Paste) (roundrect_rratio 0.25))
  (pad "" smd roundrect (at -0.53 0) (size 0.46 0.46) (layers F.Paste) (roundrect_rratio 0.25))
  (pad "" smd roundrect (at -0.53 0.53) (size 0.46 0.46) (layers F.Paste) (roundrect_rratio 0.25))
  (pad "" smd roundrect (at 0 -0.53) (size 0.46 0.46) (layers F.Paste) (roundrect_rratio 0.25))
  (pad "" smd roundrect (at 0 0) (size 0.46 0.46) (layers F.Paste) (roundrect_rratio 0.25))
  (pad "" smd roundrect (at 0 0.53) (size 0.46 0.46) (layers F.Paste) (roundrect_rratio 0.25))
  (pad "" smd roundrect (at 0.53 -0.53) (size 0.46 0.46) (layers F.Paste) (roundrect_rratio 0.25))
  (pad "" smd roundrect (at 0.53 0) (size 0.46 0.46) (layers F.Paste) (roundrect_rratio 0.25))
  (pad "" smd roundrect (at 0.53 0.53) (size 0.46 0.46) (layers F.Paste) (roundrect_rratio 0.25))
  (fp_text user %R (at 0 0) (layer F.Fab)
    (effects (font (size 0.75 0.75) (thickness 0.11)))
  )
  (model ${KICAD6_3DMODEL_DIR}/Package_DFN_QFN.3dshapes/QFN-12-1EP_3x3mm_P0.5mm_EP1.6x1.6mm.wrl
    (at (xyz 0 0 0))
    (scale (xyz 1 1 1))
    (rotate (xyz 0 0 0))
  )
)