(module QFN-56-1EP_8x8mm_P0.5mm_EP5.6x5.6mm_ThermalVias (layer F.Cu) (tedit 5DC5F6A5)
  (descr "QFN, 56 Pin (http://www.ti.com/lit/ds/symlink/tlc5957.pdf#page=23), generated with kicad-footprint-generator ipc_noLead_generator.py")
  (tags "QFN NoLead")
  (attr smd)
  (fp_text reference REF** (at 0 -5.32) (layer F.SilkS)
    (effects (font (size 1 1) (thickness 0.15)))
  )
  (fp_text value QFN-56-1EP_8x8mm_P0.5mm_EP5.6x5.6mm_ThermalVias (at 0 5.32) (layer F.Fab)
    (effects (font (size 1 1) (thickness 0.15)))
  )
  (fp_line (start 3.635 -4.11) (end 4.11 -4.11) (layer F.SilkS) (width 0.12))
  (fp_line (start 4.11 -4.11) (end 4.11 -3.635) (layer F.SilkS) (width 0.12))
  (fp_line (start -3.635 4.11) (end -4.11 4.11) (layer F.SilkS) (width 0.12))
  (fp_line (start -4.11 4.11) (end -4.11 3.635) (layer F.SilkS) (width 0.12))
  (fp_line (start 3.635 4.11) (end 4.11 4.11) (layer F.SilkS) (width 0.12))
  (fp_line (start 4.11 4.11) (end 4.11 3.635) (layer F.SilkS) (width 0.12))
  (fp_line (start -3.635 -4.11) (end -4.11 -4.11) (layer F.SilkS) (width 0.12))
  (fp_line (start -3 -4) (end 4 -4) (layer F.Fab) (width 0.1))
  (fp_line (start 4 -4) (end 4 4) (layer F.Fab) (width 0.1))
  (fp_line (start 4 4) (end -4 4) (layer F.Fab) (width 0.1))
  (fp_line (start -4 4) (end -4 -3) (layer F.Fab) (width 0.1))
  (fp_line (start -4 -3) (end -3 -4) (layer F.Fab) (width 0.1))
  (fp_line (start -4.62 -4.62) (end -4.62 4.62) (layer F.CrtYd) (width 0.05))
  (fp_line (start -4.62 4.62) (end 4.62 4.62) (layer F.CrtYd) (width 0.05))
  (fp_line (start 4.62 4.62) (end 4.62 -4.62) (layer F.CrtYd) (width 0.05))
  (fp_line (start 4.62 -4.62) (end -4.62 -4.62) (layer F.CrtYd) (width 0.05))
  (pad 1 smd roundrect (at -3.9375 -3.25) (size 0.875 0.25) (layers F.Cu F.Mask F.Paste) (roundrect_rratio 0.25))
  (pad 2 smd roundrect (at -3.9375 -2.75) (size 0.875 0.25) (layers F.Cu F.Mask F.Paste) (roundrect_rratio 0.25))
  (pad 3 smd roundrect (at -3.9375 -2.25) (size 0.875 0.25) (layers F.Cu F.Mask F.Paste) (roundrect_rratio 0.25))
  (pad 4 smd roundrect (at -3.9375 -1.75) (size 0.875 0.25) (layers F.Cu F.Mask F.Paste) (roundrect_rratio 0.25))
  (pad 5 smd roundrect (at -3.9375 -1.25) (size 0.875 0.25) (layers F.Cu F.Mask F.Paste) (roundrect_rratio 0.25))
  (pad 6 smd roundrect (at -3.9375 -0.75) (size 0.875 0.25) (layers F.Cu F.Mask F.Paste) (roundrect_rratio 0.25))
  (pad 7 smd roundrect (at -3.9375 -0.25) (size 0.875 0.25) (layers F.Cu F.Mask F.Paste) (roundrect_rratio 0.25))
  (pad 8 smd roundrect (at -3.9375 0.25) (size 0.875 0.25) (layers F.Cu F.Mask F.Paste) (roundrect_rratio 0.25))
  (pad 9 smd roundrect (at -3.9375 0.75) (size 0.875 0.25) (layers F.Cu F.Mask F.Paste) (roundrect_rratio 0.25))
  (pad 10 smd roundrect (at -3.9375 1.25) (size 0.875 0.25) (layers F.Cu F.Mask F.Paste) (roundrect_rratio 0.25))
  (pad 11 smd roundrect (at -3.9375 1.75) (size 0.875 0.25) (layers F.Cu F.Mask F.Paste) (roundrect_rratio 0.25))
  (pad 12 smd roundrect (at -3.9375 2.25) (size 0.875 0.25) (layers F.Cu F.Mask F.Paste) (roundrect_rratio 0.25))
  (pad 13 smd roundrect (at -3.9375 2.75) (size 0.875 0.25) (layers F.Cu F.Mask F.Paste) (roundrect_rratio 0.25))
  (pad 14 smd roundrect (at -3.9375 3.25) (size 0.875 0.25) (layers F.Cu F.Mask F.Paste) (roundrect_rratio 0.25))
  (pad 15 smd roundrect (at -3.25 3.9375) (size 0.25 0.875) (layers F.Cu F.Mask F.Paste) (roundrect_rratio 0.25))
  (pad 16 smd roundrect (at -2.75 3.9375) (size 0.25 0.875) (layers F.Cu F.Mask F.Paste) (roundrect_rratio 0.25))
  (pad 17 smd roundrect (at -2.25 3.9375) (size 0.25 0.875) (layers F.Cu F.Mask F.Paste) (roundrect_rratio 0.25))
  (pad 18 smd roundrect (at -1.75 3.9375) (size 0.25 0.875) (layers F.Cu F.Mask F.Paste) (roundrect_rratio 0.25))
  (pad 19 smd roundrect (at -1.25 3.9375) (size 0.25 0.875) (layers F.Cu F.Mask F.Paste) (roundrect_rratio 0.25))
  (pad 20 smd roundrect (at -0.75 3.9375) (size 0.25 0.875) (layers F.Cu F.Mask F.Paste) (roundrect_rratio 0.25))
  (pad 21 smd roundrect (at -0.25 3.9375) (size 0.25 0.875) (layers F.Cu F.Mask F.Paste) (roundrect_rratio 0.25))
  (pad 22 smd roundrect (at 0.25 3.9375) (size 0.25 0.875) (layers F.Cu F.Mask F.Paste) (roundrect_rratio 0.25))
  (pad 23 smd roundrect (at 0.75 3.9375) (size 0.25 0.875) (layers F.Cu F.Mask F.Paste) (roundrect_rratio 0.25))
  (pad 24 smd roundrect (at 1.25 3.9375) (size 0.25 0.875) (layers F.Cu F.Mask F.Paste) (roundrect_rratio 0.25))
  (pad 25 smd roundrect (at 1.75 3.9375) (size 0.25 0.875) (layers F.Cu F.Mask F.Paste) (roundrect_rratio 0.25))
  (pad 26 smd roundrect (at 2.25 3.9375) (size 0.25 0.875) (layers F.Cu F.Mask F.Paste) (roundrect_rratio 0.25))
  (pad 27 smd roundrect (at 2.75 3.9375) (size 0.25 0.875) (layers F.Cu F.Mask F.Paste) (roundrect_rratio 0.25))
  (pad 28 smd roundrect (at 3.25 3.9375) (size 0.25 0.875) (layers F.Cu F.Mask F.Paste) (roundrect_rratio 0.25))
  (pad 29 smd roundrect (at 3.9375 3.25) (size 0.875 0.25) (layers F.Cu F.Mask F.Paste) (roundrect_rratio 0.25))
  (pad 30 smd roundrect (at 3.9375 2.75) (size 0.875 0.25) (layers F.Cu F.Mask F.Paste) (roundrect_rratio 0.25))
  (pad 31 smd roundrect (at 3.9375 2.25) (size 0.875 0.25) (layers F.Cu F.Mask F.Paste) (roundrect_rratio 0.25))
  (pad 32 smd roundrect (at 3.9375 1.75) (size 0.875 0.25) (layers F.Cu F.Mask F.Paste) (roundrect_rratio 0.25))
  (pad 33 smd roundrect (at 3.9375 1.25) (size 0.875 0.25) (layers F.Cu F.Mask F.Paste) (roundrect_rratio 0.25))
  (pad 34 smd roundrect (at 3.9375 0.75) (size 0.875 0.25) (layers F.Cu F.Mask F.Paste) (roundrect_rratio 0.25))
  (pad 35 smd roundrect (at 3.9375 0.25) (size 0.875 0.25) (layers F.Cu F.Mask F.Paste) (roundrect_rratio 0.25))
  (pad 36 smd roundrect (at 3.9375 -0.25) (size 0.875 0.25) (layers F.Cu F.Mask F.Paste) (roundrect_rratio 0.25))
  (pad 37 smd roundrect (at 3.9375 -0.75) (size 0.875 0.25) (layers F.Cu F.Mask F.Paste) (roundrect_rratio 0.25))
  (pad 38 smd roundrect (at 3.9375 -1.25) (size 0.875 0.25) (layers F.Cu F.Mask F.Paste) (roundrect_rratio 0.25))
  (pad 39 smd roundrect (at 3.9375 -1.75) (size 0.875 0.25) (layers F.Cu F.Mask F.Paste) (roundrect_rratio 0.25))
  (pad 40 smd roundrect (at 3.9375 -2.25) (size 0.875 0.25) (layers F.Cu F.Mask F.Paste) (roundrect_rratio 0.25))
  (pad 41 smd roundrect (at 3.9375 -2.75) (size 0.875 0.25) (layers F.Cu F.Mask F.Paste) (roundrect_rratio 0.25))
  (pad 42 smd roundrect (at 3.9375 -3.25) (size 0.875 0.25) (layers F.Cu F.Mask F.Paste) (roundrect_rratio 0.25))
  (pad 43 smd roundrect (at 3.25 -3.9375) (size 0.25 0.875) (layers F.Cu F.Mask F.Paste) (roundrect_rratio 0.25))
  (pad 44 smd roundrect (at 2.75 -3.9375) (size 0.25 0.875) (layers F.Cu F.Mask F.Paste) (roundrect_rratio 0.25))
  (pad 45 smd roundrect (at 2.25 -3.9375) (size 0.25 0.875) (layers F.Cu F.Mask F.Paste) (roundrect_rratio 0.25))
  (pad 46 smd roundrect (at 1.75 -3.9375) (size 0.25 0.875) (layers F.Cu F.Mask F.Paste) (roundrect_rratio 0.25))
  (pad 47 smd roundrect (at 1.25 -3.9375) (size 0.25 0.875) (layers F.Cu F.Mask F.Paste) (roundrect_rratio 0.25))
  (pad 48 smd roundrect (at 0.75 -3.9375) (size 0.25 0.875) (layers F.Cu F.Mask F.Paste) (roundrect_rratio 0.25))
  (pad 49 smd roundrect (at 0.25 -3.9375) (size 0.25 0.875) (layers F.Cu F.Mask F.Paste) (roundrect_rratio 0.25))
  (pad 50 smd roundrect (at -0.25 -3.9375) (size 0.25 0.875) (layers F.Cu F.Mask F.Paste) (roundrect_rratio 0.25))
  (pad 51 smd roundrect (at -0.75 -3.9375) (size 0.25 0.875) (layers F.Cu F.Mask F.Paste) (roundrect_rratio 0.25))
  (pad 52 smd roundrect (at -1.25 -3.9375) (size 0.25 0.875) (layers F.Cu F.Mask F.Paste) (roundrect_rratio 0.25))
  (pad 53 smd roundrect (at -1.75 -3.9375) (size 0.25 0.875) (layers F.Cu F.Mask F.Paste) (roundrect_rratio 0.25))
  (pad 54 smd roundrect (at -2.25 -3.9375) (size 0.25 0.875) (layers F.Cu F.Mask F.Paste) (roundrect_rratio 0.25))
  (pad 55 smd roundrect (at -2.75 -3.9375) (size 0.25 0.875) (layers F.Cu F.Mask F.Paste) (roundrect_rratio 0.25))
  (pad 56 smd roundrect (at -3.25 -3.9375) (size 0.25 0.875) (layers F.Cu F.Mask F.Paste) (roundrect_rratio 0.25))
  (pad 57 smd rect (at 0 0) (size 5.6 5.6) (layers F.Cu F.Mask))
  (pad 57 thru_hole circle (at -2.55 -2.55) (size 0.5 0.5) (drill 0.2) (layers *.Cu))
  (pad 57 thru_hole circle (at -1.275 -2.55) (size 0.5 0.5) (drill 0.2) (layers *.Cu))
  (pad 57 thru_hole circle (at 0 -2.55) (size 0.5 0.5) (drill 0.2) (layers *.Cu))
  (pad 57 thru_hole circle (at 1.275 -2.55) (size 0.5 0.5) (drill 0.2) (layers *.Cu))
  (pad 57 thru_hole circle (at 2.55 -2.55) (size 0.5 0.5) (drill 0.2) (layers *.Cu))
  (pad 57 thru_hole circle (at -2.55 -1.275) (size 0.5 0.5) (drill 0.2) (layers *.Cu))
  (pad 57 thru_hole circle (at -1.275 -1.275) (size 0.5 0.5) (drill 0.2) (layers *.Cu))
  (pad 57 thru_hole circle (at 0 -1.275) (size 0.5 0.5) (drill 0.2) (layers *.Cu))
  (pad 57 thru_hole circle (at 1.275 -1.275) (size 0.5 0.5) (drill 0.2) (layers *.Cu))
  (pad 57 thru_hole circle (at 2.55 -1.275) (size 0.5 0.5) (drill 0.2) (layers *.Cu))
  (pad 57 thru_hole circle (at -2.55 0) (size 0.5 0.5) (drill 0.2) (layers *.Cu))
  (pad 57 thru_hole circle (at -1.275 0) (size 0.5 0.5) (drill 0.2) (layers *.Cu))
  (pad 57 thru_hole circle (at 0 0) (size 0.5 0.5) (drill 0.2) (layers *.Cu))
  (pad 57 thru_hole circle (at 1.275 0) (size 0.5 0.5) (drill 0.2) (layers *.Cu))
  (pad 57 thru_hole circle (at 2.55 0) (size 0.5 0.5) (drill 0.2) (layers *.Cu))
  (pad 57 thru_hole circle (at -2.55 1.275) (size 0.5 0.5) (drill 0.2) (layers *.Cu))
  (pad 57 thru_hole circle (at -1.275 1.275) (size 0.5 0.5) (drill 0.2) (layers *.Cu))
  (pad 57 thru_hole circle (at 0 1.275) (size 0.5 0.5) (drill 0.2) (layers *.Cu))
  (pad 57 thru_hole circle (at 1.275 1.275) (size 0.5 0.5) (drill 0.2) (layers *.Cu))
  (pad 57 thru_hole circle (at 2.55 1.275) (size 0.5 0.5) (drill 0.2) (layers *.Cu))
  (pad 57 thru_hole circle (at -2.55 2.55) (size 0.5 0.5) (drill 0.2) (layers *.Cu))
  (pad 57 thru_hole circle (at -1.275 2.55) (size 0.5 0.5) (drill 0.2) (layers *.Cu))
  (pad 57 thru_hole circle (at 0 2.55) (size 0.5 0.5) (drill 0.2) (layers *.Cu))
  (pad 57 thru_hole circle (at 1.275 2.55) (size 0.5 0.5) (drill 0.2) (layers *.Cu))
  (pad 57 thru_hole circle (at 2.55 2.55) (size 0.5 0.5) (drill 0.2) (layers *.Cu))
  (pad 57 smd rect (at 0 0) (size 5.6 5.6) (layers B.Cu))
  (pad "" smd roundrect (at -1.9125 -1.9125) (size 1.084435 1.084435) (layers F.Paste) (roundrect_rratio 0.230535))
  (pad "" smd roundrect (at -1.9125 -0.6375) (size 1.084435 1.084435) (layers F.Paste) (roundrect_rratio 0.230535))
  (pad "" smd roundrect (at -1.9125 0.6375) (size 1.084435 1.084435) (layers F.Paste) (roundrect_rratio 0.230535))
  (pad "" smd roundrect (at -1.9125 1.9125) (size 1.084435 1.084435) (layers F.Paste) (roundrect_rratio 0.230535))
  (pad "" smd roundrect (at -0.6375 -1.9125) (size 1.084435 1.084435) (layers F.Paste) (roundrect_rratio 0.230535))
  (pad "" smd roundrect (at -0.6375 -0.6375) (size 1.084435 1.084435) (layers F.Paste) (roundrect_rratio 0.230535))
  (pad "" smd roundrect (at -0.6375 0.6375) (size 1.084435 1.084435) (layers F.Paste) (roundrect_rratio 0.230535))
  (pad "" smd roundrect (at -0.6375 1.9125) (size 1.084435 1.084435) (layers F.Paste) (roundrect_rratio 0.230535))
  (pad "" smd roundrect (at 0.6375 -1.9125) (size 1.084435 1.084435) (layers F.Paste) (roundrect_rratio 0.230535))
  (pad "" smd roundrect (at 0.6375 -0.6375) (size 1.084435 1.084435) (layers F.Paste) (roundrect_rratio 0.230535))
  (pad "" smd roundrect (at 0.6375 0.6375) (size 1.084435 1.084435) (layers F.Paste) (roundrect_rratio 0.230535))
  (pad "" smd roundrect (at 0.6375 1.9125) (size 1.084435 1.084435) (layers F.Paste) (roundrect_rratio 0.230535))
  (pad "" smd roundrect (at 1.9125 -1.9125) (size 1.084435 1.084435) (layers F.Paste) (roundrect_rratio 0.230535))
  (pad "" smd roundrect (at 1.9125 -0.6375) (size 1.084435 1.084435) (layers F.Paste) (roundrect_rratio 0.230535))
  (pad "" smd roundrect (at 1.9125 0.6375) (size 1.084435 1.084435) (layers F.Paste) (roundrect_rratio 0.230535))
  (pad "" smd roundrect (at 1.9125 1.9125) (size 1.084435 1.084435) (layers F.Paste) (roundrect_rratio 0.230535))
  (fp_text user %R (at 0 0) (layer F.Fab)
    (effects (font (size 1 1) (thickness 0.15)))
  )
  (model ${KICAD6_3DMODEL_DIR}/Package_DFN_QFN.3dshapes/QFN-56-1EP_8x8mm_P0.5mm_EP5.6x5.6mm.wrl
    (at (xyz 0 0 0))
    (scale (xyz 1 1 1))
    (rotate (xyz 0 0 0))
  )
)