(module QFN-40-1EP_5x5mm_P0.4mm_EP3.8x3.8mm_ThermalVias (layer F.Cu) (tedit 5DC5F6A5)
  (descr "QFN, 40 Pin (http://www.issi.com/WW/pdf/31FL3736.pdf#page=28), generated with kicad-footprint-generator ipc_noLead_generator.py")
  (tags "QFN NoLead")
  (attr smd)
  (fp_text reference REF** (at 0 -3.82) (layer F.SilkS)
    (effects (font (size 1 1) (thickness 0.15)))
  )
  (fp_text value QFN-40-1EP_5x5mm_P0.4mm_EP3.8x3.8mm_ThermalVias (at 0 3.82) (layer F.Fab)
    (effects (font (size 1 1) (thickness 0.15)))
  )
  (fp_line (start 2.16 -2.61) (end 2.61 -2.61) (layer F.SilkS) (width 0.12))
  (fp_line (start 2.61 -2.61) (end 2.61 -2.16) (layer F.SilkS) (width 0.12))
  (fp_line (start -2.16 2.61) (end -2.61 2.61) (layer F.SilkS) (width 0.12))
  (fp_line (start -2.61 2.61) (end -2.61 2.16) (layer F.SilkS) (width 0.12))
  (fp_line (start 2.16 2.61) (end 2.61 2.61) (layer F.SilkS) (width 0.12))
  (fp_line (start 2.61 2.61) (end 2.61 2.16) (layer F.SilkS) (width 0.12))
  (fp_line (start -2.16 -2.61) (end -2.61 -2.61) (layer F.SilkS) (width 0.12))
  (fp_line (start -1.5 -2.5) (end 2.5 -2.5) (layer F.Fab) (width 0.1))
  (fp_line (start 2.5 -2.5) (end 2.5 2.5) (layer F.Fab) (width 0.1))
  (fp_line (start 2.5 2.5) (end -2.5 2.5) (layer F.Fab) (width 0.1))
  (fp_line (start -2.5 2.5) (end -2.5 -1.5) (layer F.Fab) (width 0.1))
  (fp_line (start -2.5 -1.5) (end -1.5 -2.5) (layer F.Fab) (width 0.1))
  (fp_line (start -3.12 -3.12) (end -3.12 3.12) (layer F.CrtYd) (width 0.05))
  (fp_line (start -3.12 3.12) (end 3.12 3.12) (layer F.CrtYd) (width 0.05))
  (fp_line (start 3.12 3.12) (end 3.12 -3.12) (layer F.CrtYd) (width 0.05))
  (fp_line (start 3.12 -3.12) (end -3.12 -3.12) (layer F.CrtYd) (width 0.05))
  (pad 1 smd roundrect (at -2.4875 -1.8) (size 0.775 0.2) (layers F.Cu F.Mask F.Paste) (roundrect_rratio 0.25))
  (pad 2 smd roundrect (at -2.4875 -1.4) (size 0.775 0.2) (layers F.Cu F.Mask F.Paste) (roundrect_rratio 0.25))
  (pad 3 smd roundrect (at -2.4875 -1) (size 0.775 0.2) (layers F.Cu F.Mask F.Paste) (roundrect_rratio 0.25))
  (pad 4 smd roundrect (at -2.4875 -0.6) (size 0.775 0.2) (layers F.Cu F.Mask F.Paste) (roundrect_rratio 0.25))
  (pad 5 smd roundrect (at -2.4875 -0.2) (size 0.775 0.2) (layers F.Cu F.Mask F.Paste) (roundrect_rratio 0.25))
  (pad 6 smd roundrect (at -2.4875 0.2) (size 0.775 0.2) (layers F.Cu F.Mask F.Paste) (roundrect_rratio 0.25))
  (pad 7 smd roundrect (at -2.4875 0.6) (size 0.775 0.2) (layers F.Cu F.Mask F.Paste) (roundrect_rratio 0.25))
  (pad 8 smd roundrect (at -2.4875 1) (size 0.775 0.2) (layers F.Cu F.Mask F.Paste) (roundrect_rratio 0.25))
  (pad 9 smd roundrect (at -2.4875 1.4) (size 0.775 0.2) (layers F.Cu F.Mask F.Paste) (roundrect_rratio 0.25))
  (pad 10 smd roundrect (at -2.4875 1.8) (size 0.775 0.2) (layers F.Cu F.Mask F.Paste) (roundrect_rratio 0.25))
  (pad 11 smd roundrect (at -1.8 2.4875) (size 0.2 0.775) (layers F.Cu F.Mask F.Paste) (roundrect_rratio 0.25))
  (pad 12 smd roundrect (at -1.4 2.4875) (size 0.2 0.775) (layers F.Cu F.Mask F.Paste) (roundrect_rratio 0.25))
  (pad 13 smd roundrect (at -1 2.4875) (size 0.2 0.775) (layers F.Cu F.Mask F.Paste) (roundrect_rratio 0.25))
  (pad 14 smd roundrect (at -0.6 2.4875) (size 0.2 0.775) (layers F.Cu F.Mask F.Paste) (roundrect_rratio 0.25))
  (pad 15 smd roundrect (at -0.2 2.4875) (size 0.2 0.775) (layers F.Cu F.Mask F.Paste) (roundrect_rratio 0.25))
  (pad 16 smd roundrect (at 0.2 2.4875) (size 0.2 0.775) (layers F.Cu F.Mask F.Paste) (roundrect_rratio 0.25))
  (pad 17 smd roundrect (at 0.6 2.4875) (size 0.2 0.775) (layers F.Cu F.Mask F.Paste) (roundrect_rratio 0.25))
  (pad 18 smd roundrect (at 1 2.4875) (size 0.2 0.775) (layers F.Cu F.Mask F.Paste) (roundrect_rratio 0.25))
  (pad 19 smd roundrect (at 1.4 2.4875) (size 0.2 0.775) (layers F.Cu F.Mask F.Paste) (roundrect_rratio 0.25))
  (pad 20 smd roundrect (at 1.8 2.4875) (size 0.2 0.775) (layers F.Cu F.Mask F.Paste) (roundrect_rratio 0.25))
  (pad 21 smd roundrect (at 2.4875 1.8) (size 0.775 0.2) (layers F.Cu F.Mask F.Paste) (roundrect_rratio 0.25))
  (pad 22 smd roundrect (at 2.4875 1.4) (size 0.775 0.2) (layers F.Cu F.Mask F.Paste) (roundrect_rratio 0.25))
  (pad 23 smd roundrect (at 2.4875 1) (size 0.775 0.2) (layers F.Cu F.Mask F.Paste) (roundrect_rratio 0.25))
  (pad 24 smd roundrect (at 2.4875 0.6) (size 0.775 0.2) (layers F.Cu F.Mask F.Paste) (roundrect_rratio 0.25))
  (pad 25 smd roundrect (at 2.4875 0.2) (size 0.775 0.2) (layers F.Cu F.Mask F.Paste) (roundrect_rratio 0.25))
  (pad 26 smd roundrect (at 2.4875 -0.2) (size 0.775 0.2) (layers F.Cu F.Mask F.Paste) (roundrect_rratio 0.25))
  (pad 27 smd roundrect (at 2.4875 -0.6) (size 0.775 0.2) (layers F.Cu F.Mask F.Paste) (roundrect_rratio 0.25))
  (pad 28 smd roundrect (at 2.4875 -1) (size 0.775 0.2) (layers F.Cu F.Mask F.Paste) (roundrect_rratio 0.25))
  (pad 29 smd roundrect (at 2.4875 -1.4) (size 0.775 0.2) (layers F.Cu F.Mask F.Paste) (roundrect_rratio 0.25))
  (pad 30 smd roundrect (at 2.4875 -1.8) (size 0.775 0.2) (layers F.Cu F.Mask F.Paste) (roundrect_rratio 0.25))
  (pad 31 smd roundrect (at 1.8 -2.4875) (size 0.2 0.775) (layers F.Cu F.Mask F.Paste) (roundrect_rratio 0.25))
  (pad 32 smd roundrect (at 1.4 -2.4875) (size 0.2 0.775) (layers F.Cu F.Mask F.Paste) (roundrect_rratio 0.25))
  (pad 33 smd roundrect (at 1 -2.4875) (size 0.2 0.775) (layers F.Cu F.Mask F.Paste) (roundrect_rratio 0.25))
  (pad 34 smd roundrect (at 0.6 -2.4875) (size 0.2 0.775) (layers F.Cu F.Mask F.Paste) (roundrect_rratio 0.25))
  (pad 35 smd roundrect (at 0.2 -2.4875) (size 0.2 0.775) (layers F.Cu F.Mask F.Paste) (roundrect_rratio 0.25))
  (pad 36 smd roundrect (at -0.2 -2.4875) (size 0.2 0.775) (layers F.Cu F.Mask F.Paste) (roundrect_rratio 0.25))
  (pad 37 smd roundrect (at -0.6 -2.4875) (size 0.2 0.775) (layers F.Cu F.Mask F.Paste) (roundrect_rratio 0.25))
  (pad 38 smd roundrect (at -1 -2.4875) (size 0.2 0.775) (layers F.Cu F.Mask F.Paste) (roundrect_rratio 0.25))
  (pad 39 smd roundrect (at -1.4 -2.4875) (size 0.2 0.775) (layers F.Cu F.Mask F.Paste) (roundrect_rratio 0.25))
  (pad 40 smd roundrect (at -1.8 -2.4875) (size 0.2 0.775) (layers F.Cu F.Mask F.Paste) (roundrect_rratio 0.25))
  (pad 41 smd rect (at 0 0) (size 3.8 3.8) (layers F.Cu F.Mask))
  (pad 41 thru_hole circle (at -1.65 -1.65) (size 0.5 0.5) (drill 0.2) (layers *.Cu))
  (pad 41 thru_hole circle (at -0.55 -1.65) (size 0.5 0.5) (drill 0.2) (layers *.Cu))
  (pad 41 thru_hole circle (at 0.55 -1.65) (size 0.5 0.5) (drill 0.2) (layers *.Cu))
  (pad 41 thru_hole circle (at 1.65 -1.65) (size 0.5 0.5) (drill 0.2) (layers *.Cu))
  (pad 41 thru_hole circle (at -1.65 -0.55) (size 0.5 0.5) (drill 0.2) (layers *.Cu))
  (pad 41 thru_hole circle (at -0.55 -0.55) (size 0.5 0.5) (drill 0.2) (layers *.Cu))
  (pad 41 thru_hole circle (at 0.55 -0.55) (size 0.5 0.5) (drill 0.2) (layers *.Cu))
  (pad 41 thru_hole circle (at 1.65 -0.55) (size 0.5 0.5) (drill 0.2) (layers *.Cu))
  (pad 41 thru_hole circle (at -1.65 0.55) (size 0.5 0.5) (drill 0.2) (layers *.Cu))
  (pad 41 thru_hole circle (at -0.55 0.55) (size 0.5 0.5) (drill 0.2) (layers *.Cu))
  (pad 41 thru_hole circle (at 0.55 0.55) (size 0.5 0.5) (drill 0.2) (layers *.Cu))
  (pad 41 thru_hole circle (at 1.65 0.55) (size 0.5 0.5) (drill 0.2) (layers *.Cu))
  (pad 41 thru_hole circle (at -1.65 1.65) (size 0.5 0.5) (drill 0.2) (layers *.Cu))
  (pad 41 thru_hole circle (at -0.55 1.65) (size 0.5 0.5) (drill 0.2) (layers *.Cu))
  (pad 41 thru_hole circle (at 0.55 1.65) (size 0.5 0.5) (drill 0.2) (layers *.Cu))
  (pad 41 thru_hole circle (at 1.65 1.65) (size 0.5 0.5) (drill 0.2) (layers *.Cu))
  (pad 41 smd rect (at 0 0) (size 3.8 3.8) (layers B.Cu))
  (pad "" smd custom (at -1.1 -1.1) (size 0.865191 0.865191) (layers F.Paste)
    (options (clearance outline) (anchor circle))
    (primitives
      (gr_poly (pts
         (xy -0.374613 -0.278545) (xy -0.278545 -0.374613) (xy 0.278545 -0.374613) (xy 0.374613 -0.278545)
         (xy 0.374613 0.278545) (xy 0.278545 0.374613) (xy -0.278545 0.374613) (xy -0.374613 0.278545)) (width 0.231929))
    ))
  (pad "" smd custom (at -1.1 0) (size 0.865191 0.865191) (layers F.Paste)
    (options (clearance outline) (anchor circle))
    (primitives
      (gr_poly (pts
         (xy -0.374613 -0.278545) (xy -0.278545 -0.374613) (xy 0.278545 -0.374613) (xy 0.374613 -0.278545)
         (xy 0.374613 0.278545) (xy 0.278545 0.374613) (xy -0.278545 0.374613) (xy -0.374613 0.278545)) (width 0.231929))
    ))
  (pad "" smd custom (at -1.1 1.1) (size 0.865191 0.865191) (layers F.Paste)
    (options (clearance outline) (anchor circle))
    (primitives
      (gr_poly (pts
         (xy -0.374613 -0.278545) (xy -0.278545 -0.374613) (xy 0.278545 -0.374613) (xy 0.374613 -0.278545)
         (xy 0.374613 0.278545) (xy 0.278545 0.374613) (xy -0.278545 0.374613) (xy -0.374613 0.278545)) (width 0.231929))
    ))
  (pad "" smd custom (at 0 -1.1) (size 0.865191 0.865191) (layers F.Paste)
    (options (clearance outline) (anchor circle))
    (primitives
      (gr_poly (pts
         (xy -0.374613 -0.278545) (xy -0.278545 -0.374613) (xy 0.278545 -0.374613) (xy 0.374613 -0.278545)
         (xy 0.374613 0.278545) (xy 0.278545 0.374613) (xy -0.278545 0.374613) (xy -0.374613 0.278545)) (width 0.231929))
    ))
  (pad "" smd custom (at 0 0) (size 0.865191 0.865191) (layers F.Paste)
    (options (clearance outline) (anchor circle))
    (primitives
      (gr_poly (pts
         (xy -0.374613 -0.278545) (xy -0.278545 -0.374613) (xy 0.278545 -0.374613) (xy 0.374613 -0.278545)
         (xy 0.374613 0.278545) (xy 0.278545 0.374613) (xy -0.278545 0.374613) (xy -0.374613 0.278545)) (width 0.231929))
    ))
  (pad "" smd custom (at 0 1.1) (size 0.865191 0.865191) (layers F.Paste)
    (options (clearance outline) (anchor circle))
    (primitives
      (gr_poly (pts
         (xy -0.374613 -0.278545) (xy -0.278545 -0.374613) (xy 0.278545 -0.374613) (xy 0.374613 -0.278545)
         (xy 0.374613 0.278545) (xy 0.278545 0.374613) (xy -0.278545 0.374613) (xy -0.374613 0.278545)) (width 0.231929))
    ))
  (pad "" smd custom (at 1.1 -1.1) (size 0.865191 0.865191) (layers F.Paste)
    (options (clearance outline) (anchor circle))
    (primitives
      (gr_poly (pts
         (xy -0.374613 -0.278545) (xy -0.278545 -0.374613) (xy 0.278545 -0.374613) (xy 0.374613 -0.278545)
         (xy 0.374613 0.278545) (xy 0.278545 0.374613) (xy -0.278545 0.374613) (xy -0.374613 0.278545)) (width 0.231929))
    ))
  (pad "" smd custom (at 1.1 0) (size 0.865191 0.865191) (layers F.Paste)
    (options (clearance outline) (anchor circle))
    (primitives
      (gr_poly (pts
         (xy -0.374613 -0.278545) (xy -0.278545 -0.374613) (xy 0.278545 -0.374613) (xy 0.374613 -0.278545)
         (xy 0.374613 0.278545) (xy 0.278545 0.374613) (xy -0.278545 0.374613) (xy -0.374613 0.278545)) (width 0.231929))
    ))
  (pad "" smd custom (at 1.1 1.1) (size 0.865191 0.865191) (layers F.Paste)
    (options (clearance outline) (anchor circle))
    (primitives
      (gr_poly (pts
         (xy -0.374613 -0.278545) (xy -0.278545 -0.374613) (xy 0.278545 -0.374613) (xy 0.374613 -0.278545)
         (xy 0.374613 0.278545) (xy 0.278545 0.374613) (xy -0.278545 0.374613) (xy -0.374613 0.278545)) (width 0.231929))
    ))
  (fp_text user %R (at 0 0) (layer F.Fab)
    (effects (font (size 1 1) (thickness 0.15)))
  )
  (model ${KICAD6_3DMODEL_DIR}/Package_DFN_QFN.3dshapes/QFN-40-1EP_5x5mm_P0.4mm_EP3.8x3.8mm.wrl
    (at (xyz 0 0 0))
    (scale (xyz 1 1 1))
    (rotate (xyz 0 0 0))
  )
)