(module QFN-44-1EP_8x8mm_P0.65mm_EP6.45x6.45mm_ThermalVias (layer F.Cu) (tedit 5DC5F6A5)
  (descr "QFN, 44 Pin (http://ww1.microchip.com/downloads/en/DeviceDoc/39935c.pdf#page=152), generated with kicad-footprint-generator ipc_noLead_generator.py")
  (tags "QFN NoLead")
  (attr smd)
  (fp_text reference REF** (at 0 -5.3) (layer F.SilkS)
    (effects (font (size 1 1) (thickness 0.15)))
  )
  (fp_text value QFN-44-1EP_8x8mm_P0.65mm_EP6.45x6.45mm_ThermalVias (at 0 5.3) (layer F.Fab)
    (effects (font (size 1 1) (thickness 0.15)))
  )
  (fp_line (start 3.685 -4.11) (end 4.11 -4.11) (layer F.SilkS) (width 0.12))
  (fp_line (start 4.11 -4.11) (end 4.11 -3.685) (layer F.SilkS) (width 0.12))
  (fp_line (start -3.685 4.11) (end -4.11 4.11) (layer F.SilkS) (width 0.12))
  (fp_line (start -4.11 4.11) (end -4.11 3.685) (layer F.SilkS) (width 0.12))
  (fp_line (start 3.685 4.11) (end 4.11 4.11) (layer F.SilkS) (width 0.12))
  (fp_line (start 4.11 4.11) (end 4.11 3.685) (layer F.SilkS) (width 0.12))
  (fp_line (start -3.685 -4.11) (end -4.11 -4.11) (layer F.SilkS) (width 0.12))
  (fp_line (start -3 -4) (end 4 -4) (layer F.Fab) (width 0.1))
  (fp_line (start 4 -4) (end 4 4) (layer F.Fab) (width 0.1))
  (fp_line (start 4 4) (end -4 4) (layer F.Fab) (width 0.1))
  (fp_line (start -4 4) (end -4 -3) (layer F.Fab) (width 0.1))
  (fp_line (start -4 -3) (end -3 -4) (layer F.Fab) (width 0.1))
  (fp_line (start -4.6 -4.6) (end -4.6 4.6) (layer F.CrtYd) (width 0.05))
  (fp_line (start -4.6 4.6) (end 4.6 4.6) (layer F.CrtYd) (width 0.05))
  (fp_line (start 4.6 4.6) (end 4.6 -4.6) (layer F.CrtYd) (width 0.05))
  (fp_line (start 4.6 -4.6) (end -4.6 -4.6) (layer F.CrtYd) (width 0.05))
  (pad 1 smd roundrect (at -3.9375 -3.25) (size 0.825 0.35) (layers F.Cu F.Mask F.Paste) (roundrect_rratio 0.25))
  (pad 2 smd roundrect (at -3.9375 -2.6) (size 0.825 0.35) (layers F.Cu F.Mask F.Paste) (roundrect_rratio 0.25))
  (pad 3 smd roundrect (at -3.9375 -1.95) (size 0.825 0.35) (layers F.Cu F.Mask F.Paste) (roundrect_rratio 0.25))
  (pad 4 smd roundrect (at -3.9375 -1.3) (size 0.825 0.35) (layers F.Cu F.Mask F.Paste) (roundrect_rratio 0.25))
  (pad 5 smd roundrect (at -3.9375 -0.65) (size 0.825 0.35) (layers F.Cu F.Mask F.Paste) (roundrect_rratio 0.25))
  (pad 6 smd roundrect (at -3.9375 0) (size 0.825 0.35) (layers F.Cu F.Mask F.Paste) (roundrect_rratio 0.25))
  (pad 7 smd roundrect (at -3.9375 0.65) (size 0.825 0.35) (layers F.Cu F.Mask F.Paste) (roundrect_rratio 0.25))
  (pad 8 smd roundrect (at -3.9375 1.3) (size 0.825 0.35) (layers F.Cu F.Mask F.Paste) (roundrect_rratio 0.25))
  (pad 9 smd roundrect (at -3.9375 1.95) (size 0.825 0.35) (layers F.Cu F.Mask F.Paste) (roundrect_rratio 0.25))
  (pad 10 smd roundrect (at -3.9375 2.6) (size 0.825 0.35) (layers F.Cu F.Mask F.Paste) (roundrect_rratio 0.25))
  (pad 11 smd roundrect (at -3.9375 3.25) (size 0.825 0.35) (layers F.Cu F.Mask F.Paste) (roundrect_rratio 0.25))
  (pad 12 smd roundrect (at -3.25 3.9375) (size 0.35 0.825) (layers F.Cu F.Mask F.Paste) (roundrect_rratio 0.25))
  (pad 13 smd roundrect (at -2.6 3.9375) (size 0.35 0.825) (layers F.Cu F.Mask F.Paste) (roundrect_rratio 0.25))
  (pad 14 smd roundrect (at -1.95 3.9375) (size 0.35 0.825) (layers F.Cu F.Mask F.Paste) (roundrect_rratio 0.25))
  (pad 15 smd roundrect (at -1.3 3.9375) (size 0.35 0.825) (layers F.Cu F.Mask F.Paste) (roundrect_rratio 0.25))
  (pad 16 smd roundrect (at -0.65 3.9375) (size 0.35 0.825) (layers F.Cu F.Mask F.Paste) (roundrect_rratio 0.25))
  (pad 17 smd roundrect (at 0 3.9375) (size 0.35 0.825) (layers F.Cu F.Mask F.Paste) (roundrect_rratio 0.25))
  (pad 18 smd roundrect (at 0.65 3.9375) (size 0.35 0.825) (layers F.Cu F.Mask F.Paste) (roundrect_rratio 0.25))
  (pad 19 smd roundrect (at 1.3 3.9375) (size 0.35 0.825) (layers F.Cu F.Mask F.Paste) (roundrect_rratio 0.25))
  (pad 20 smd roundrect (at 1.95 3.9375) (size 0.35 0.825) (layers F.Cu F.Mask F.Paste) (roundrect_rratio 0.25))
  (pad 21 smd roundrect (at 2.6 3.9375) (size 0.35 0.825) (layers F.Cu F.Mask F.Paste) (roundrect_rratio 0.25))
  (pad 22 smd roundrect (at 3.25 3.9375) (size 0.35 0.825) (layers F.Cu F.Mask F.Paste) (roundrect_rratio 0.25))
  (pad 23 smd roundrect (at 3.9375 3.25) (size 0.825 0.35) (layers F.Cu F.Mask F.Paste) (roundrect_rratio 0.25))
  (pad 24 smd roundrect (at 3.9375 2.6) (size 0.825 0.35) (layers F.Cu F.Mask F.Paste) (roundrect_rratio 0.25))
  (pad 25 smd roundrect (at 3.9375 1.95) (size 0.825 0.35) (layers F.Cu F.Mask F.Paste) (roundrect_rratio 0.25))
  (pad 26 smd roundrect (at 3.9375 1.3) (size 0.825 0.35) (layers F.Cu F.Mask F.Paste) (roundrect_rratio 0.25))
  (pad 27 smd roundrect (at 3.9375 0.65) (size 0.825 0.35) (layers F.Cu F.Mask F.Paste) (roundrect_rratio 0.25))
  (pad 28 smd roundrect (at 3.9375 0) (size 0.825 0.35) (layers F.Cu F.Mask F.Paste) (roundrect_rratio 0.25))
  (pad 29 smd roundrect (at 3.9375 -0.65) (size 0.825 0.35) (layers F.Cu F.Mask F.Paste) (roundrect_rratio 0.25))
  (pad 30 smd roundrect (at 3.9375 -1.3) (size 0.825 0.35) (layers F.Cu F.Mask F.Paste) (roundrect_rratio 0.25))
  (pad 31 smd roundrect (at 3.9375 -1.95) (size 0.825 0.35) (layers F.Cu F.Mask F.Paste) (roundrect_rratio 0.25))
  (pad 32 smd roundrect (at 3.9375 -2.6) (size 0.825 0.35) (layers F.Cu F.Mask F.Paste) (roundrect_rratio 0.25))
  (pad 33 smd roundrect (at 3.9375 -3.25) (size 0.825 0.35) (layers F.Cu F.Mask F.Paste) (roundrect_rratio 0.25))
  (pad 34 smd roundrect (at 3.25 -3.9375) (size 0.35 0.825) (layers F.Cu F.Mask F.Paste) (roundrect_rratio 0.25))
  (pad 35 smd roundrect (at 2.6 -3.9375) (size 0.35 0.825) (layers F.Cu F.Mask F.Paste) (roundrect_rratio 0.25))
  (pad 36 smd roundrect (at 1.95 -3.9375) (size 0.35 0.825) (layers F.Cu F.Mask F.Paste) (roundrect_rratio 0.25))
  (pad 37 smd roundrect (at 1.3 -3.9375) (size 0.35 0.825) (layers F.Cu F.Mask F.Paste) (roundrect_rratio 0.25))
  (pad 38 smd roundrect (at 0.65 -3.9375) (size 0.35 0.825) (layers F.Cu F.Mask F.Paste) (roundrect_rratio 0.25))
  (pad 39 smd roundrect (at 0 -3.9375) (size 0.35 0.825) (layers F.Cu F.Mask F.Paste) (roundrect_rratio 0.25))
  (pad 40 smd roundrect (at -0.65 -3.9375) (size 0.35 0.825) (layers F.Cu F.Mask F.Paste) (roundrect_rratio 0.25))
  (pad 41 smd roundrect (at -1.3 -3.9375) (size 0.35 0.825) (layers F.Cu F.Mask F.Paste) (roundrect_rratio 0.25))
  (pad 42 smd roundrect (at -1.95 -3.9375) (size 0.35 0.825) (layers F.Cu F.Mask F.Paste) (roundrect_rratio 0.25))
  (pad 43 smd roundrect (at -2.6 -3.9375) (size 0.35 0.825) (layers F.Cu F.Mask F.Paste) (roundrect_rratio 0.25))
  (pad 44 smd roundrect (at -3.25 -3.9375) (size 0.35 0.825) (layers F.Cu F.Mask F.Paste) (roundrect_rratio 0.25))
  (pad 45 smd rect (at 0 0) (size 6.45 6.45) (layers F.Cu F.Mask))
  (pad 45 thru_hole circle (at -2.975 -2.975) (size 0.5 0.5) (drill 0.2) (layers *.Cu))
  (pad 45 thru_hole circle (at -1.785 -2.975) (size 0.5 0.5) (drill 0.2) (layers *.Cu))
  (pad 45 thru_hole circle (at -0.595 -2.975) (size 0.5 0.5) (drill 0.2) (layers *.Cu))
  (pad 45 thru_hole circle (at 0.595 -2.975) (size 0.5 0.5) (drill 0.2) (layers *.Cu))
  (pad 45 thru_hole circle (at 1.785 -2.975) (size 0.5 0.5) (drill 0.2) (layers *.Cu))
  (pad 45 thru_hole circle (at 2.975 -2.975) (size 0.5 0.5) (drill 0.2) (layers *.Cu))
  (pad 45 thru_hole circle (at -2.975 -1.785) (size 0.5 0.5) (drill 0.2) (layers *.Cu))
  (pad 45 thru_hole circle (at -1.785 -1.785) (size 0.5 0.5) (drill 0.2) (layers *.Cu))
  (pad 45 thru_hole circle (at -0.595 -1.785) (size 0.5 0.5) (drill 0.2) (layers *.Cu))
  (pad 45 thru_hole circle (at 0.595 -1.785) (size 0.5 0.5) (drill 0.2) (layers *.Cu))
  (pad 45 thru_hole circle (at 1.785 -1.785) (size 0.5 0.5) (drill 0.2) (layers *.Cu))
  (pad 45 thru_hole circle (at 2.975 -1.785) (size 0.5 0.5) (drill 0.2) (layers *.Cu))
  (pad 45 thru_hole circle (at -2.975 -0.595) (size 0.5 0.5) (drill 0.2) (layers *.Cu))
  (pad 45 thru_hole circle (at -1.785 -0.595) (size 0.5 0.5) (drill 0.2) (layers *.Cu))
  (pad 45 thru_hole circle (at -0.595 -0.595) (size 0.5 0.5) (drill 0.2) (layers *.Cu))
  (pad 45 thru_hole circle (at 0.595 -0.595) (size 0.5 0.5) (drill 0.2) (layers *.Cu))
  (pad 45 thru_hole circle (at 1.785 -0.595) (size 0.5 0.5) (drill 0.2) (layers *.Cu))
  (pad 45 thru_hole circle (at 2.975 -0.595) (size 0.5 0.5) (drill 0.2) (layers *.Cu))
  (pad 45 thru_hole circle (at -2.975 0.595) (size 0.5 0.5) (drill 0.2) (layers *.Cu))
  (pad 45 thru_hole circle (at -1.785 0.595) (size 0.5 0.5) (drill 0.2) (layers *.Cu))
  (pad 45 thru_hole circle (at -0.595 0.595) (size 0.5 0.5) (drill 0.2) (layers *.Cu))
  (pad 45 thru_hole circle (at 0.595 0.595) (size 0.5 0.5) (drill 0.2) (layers *.Cu))
  (pad 45 thru_hole circle (at 1.785 0.595) (size 0.5 0.5) (drill 0.2) (layers *.Cu))
  (pad 45 thru_hole circle (at 2.975 0.595) (size 0.5 0.5) (drill 0.2) (layers *.Cu))
  (pad 45 thru_hole circle (at -2.975 1.785) (size 0.5 0.5) (drill 0.2) (layers *.Cu))
  (pad 45 thru_hole circle (at -1.785 1.785) (size 0.5 0.5) (drill 0.2) (layers *.Cu))
  (pad 45 thru_hole circle (at -0.595 1.785) (size 0.5 0.5) (drill 0.2) (layers *.Cu))
  (pad 45 thru_hole circle (at 0.595 1.785) (size 0.5 0.5) (drill 0.2) (layers *.Cu))
  (pad 45 thru_hole circle (at 1.785 1.785) (size 0.5 0.5) (drill 0.2) (layers *.Cu))
  (pad 45 thru_hole circle (at 2.975 1.785) (size 0.5 0.5) (drill 0.2) (layers *.Cu))
  (pad 45 thru_hole circle (at -2.975 2.975) (size 0.5 0.5) (drill 0.2) (layers *.Cu))
  (pad 45 thru_hole circle (at -1.785 2.975) (size 0.5 0.5) (drill 0.2) (layers *.Cu))
  (pad 45 thru_hole circle (at -0.595 2.975) (size 0.5 0.5) (drill 0.2) (layers *.Cu))
  (pad 45 thru_hole circle (at 0.595 2.975) (size 0.5 0.5) (drill 0.2) (layers *.Cu))
  (pad 45 thru_hole circle (at 1.785 2.975) (size 0.5 0.5) (drill 0.2) (layers *.Cu))
  (pad 45 thru_hole circle (at 2.975 2.975) (size 0.5 0.5) (drill 0.2) (layers *.Cu))
  (pad 45 smd rect (at 0 0) (size 6.45 6.45) (layers B.Cu))
  (pad "" smd roundrect (at -2.38 -2.38) (size 0.99923 0.99923) (layers F.Paste) (roundrect_rratio 0.25))
  (pad "" smd roundrect (at -2.38 -1.19) (size 0.99923 0.99923) (layers F.Paste) (roundrect_rratio 0.25))
  (pad "" smd roundrect (at -2.38 0) (size 0.99923 0.99923) (layers F.Paste) (roundrect_rratio 0.25))
  (pad "" smd roundrect (at -2.38 1.19) (size 0.99923 0.99923) (layers F.Paste) (roundrect_rratio 0.25))
  (pad "" smd roundrect (at -2.38 2.38) (size 0.99923 0.99923) (layers F.Paste) (roundrect_rratio 0.25))
  (pad "" smd roundrect (at -1.19 -2.38) (size 0.99923 0.99923) (layers F.Paste) (roundrect_rratio 0.25))
  (pad "" smd roundrect (at -1.19 -1.19) (size 0.99923 0.99923) (layers F.Paste) (roundrect_rratio 0.25))
  (pad "" smd roundrect (at -1.19 0) (size 0.99923 0.99923) (layers F.Paste) (roundrect_rratio 0.25))
  (pad "" smd roundrect (at -1.19 1.19) (size 0.99923 0.99923) (layers F.Paste) (roundrect_rratio 0.25))
  (pad "" smd roundrect (at -1.19 2.38) (size 0.99923 0.99923) (layers F.Paste) (roundrect_rratio 0.25))
  (pad "" smd roundrect (at 0 -2.38) (size 0.99923 0.99923) (layers F.Paste) (roundrect_rratio 0.25))
  (pad "" smd roundrect (at 0 -1.19) (size 0.99923 0.99923) (layers F.Paste) (roundrect_rratio 0.25))
  (pad "" smd roundrect (at 0 0) (size 0.99923 0.99923) (layers F.Paste) (roundrect_rratio 0.25))
  (pad "" smd roundrect (at 0 1.19) (size 0.99923 0.99923) (layers F.Paste) (roundrect_rratio 0.25))
  (pad "" smd roundrect (at 0 2.38) (size 0.99923 0.99923) (layers F.Paste) (roundrect_rratio 0.25))
  (pad "" smd roundrect (at 1.19 -2.38) (size 0.99923 0.99923) (layers F.Paste) (roundrect_rratio 0.25))
  (pad "" smd roundrect (at 1.19 -1.19) (size 0.99923 0.99923) (layers F.Paste) (roundrect_rratio 0.25))
  (pad "" smd roundrect (at 1.19 0) (size 0.99923 0.99923) (layers F.Paste) (roundrect_rratio 0.25))
  (pad "" smd roundrect (at 1.19 1.19) (size 0.99923 0.99923) (layers F.Paste) (roundrect_rratio 0.25))
  (pad "" smd roundrect (at 1.19 2.38) (size 0.99923 0.99923) (layers F.Paste) (roundrect_rratio 0.25))
  (pad "" smd roundrect (at 2.38 -2.38) (size 0.99923 0.99923) (layers F.Paste) (roundrect_rratio 0.25))
  (pad "" smd roundrect (at 2.38 -1.19) (size 0.99923 0.99923) (layers F.Paste) (roundrect_rratio 0.25))
  (pad "" smd roundrect (at 2.38 0) (size 0.99923 0.99923) (layers F.Paste) (roundrect_rratio 0.25))
  (pad "" smd roundrect (at 2.38 1.19) (size 0.99923 0.99923) (layers F.Paste) (roundrect_rratio 0.25))
  (pad "" smd roundrect (at 2.38 2.38) (size 0.99923 0.99923) (layers F.Paste) (roundrect_rratio 0.25))
  (fp_text user %R (at 0 0) (layer F.Fab)
    (effects (font (size 1 1) (thickness 0.15)))
  )
  (model ${KICAD6_3DMODEL_DIR}/Package_DFN_QFN.3dshapes/QFN-44-1EP_8x8mm_P0.65mm_EP6.45x6.45mm.wrl
    (at (xyz 0 0 0))
    (scale (xyz 1 1 1))
    (rotate (xyz 0 0 0))
  )
)