(module TDFN-14-1EP_3x3mm_P0.4mm_EP1.78x2.35mm (layer F.Cu) (tedit 5EF24A82)
  (descr "TDFN, 14 Pin (https://pdfserv.maximintegrated.com/package_dwgs/21-0137.PDF (T1433-2C)), generated with kicad-footprint-generator ipc_noLead_generator.py")
  (tags "TDFN NoLead")
  (attr smd)
  (fp_text reference REF** (at 0 -2.45) (layer F.SilkS)
    (effects (font (size 1 1) (thickness 0.15)))
  )
  (fp_text value TDFN-14-1EP_3x3mm_P0.4mm_EP1.78x2.35mm (at 0 2.45) (layer F.Fab)
    (effects (font (size 1 1) (thickness 0.15)))
  )
  (fp_line (start 0 -1.61) (end 1.5 -1.61) (layer F.SilkS) (width 0.12))
  (fp_line (start -1.5 1.61) (end 1.5 1.61) (layer F.SilkS) (width 0.12))
  (fp_line (start -0.75 -1.5) (end 1.5 -1.5) (layer F.Fab) (width 0.1))
  (fp_line (start 1.5 -1.5) (end 1.5 1.5) (layer F.Fab) (width 0.1))
  (fp_line (start 1.5 1.5) (end -1.5 1.5) (layer F.Fab) (width 0.1))
  (fp_line (start -1.5 1.5) (end -1.5 -0.75) (layer F.Fab) (width 0.1))
  (fp_line (start -1.5 -0.75) (end -0.75 -1.5) (layer F.Fab) (width 0.1))
  (fp_line (start -2.12 -1.75) (end -2.12 1.75) (layer F.CrtYd) (width 0.05))
  (fp_line (start -2.12 1.75) (end 2.12 1.75) (layer F.CrtYd) (width 0.05))
  (fp_line (start 2.12 1.75) (end 2.12 -1.75) (layer F.CrtYd) (width 0.05))
  (fp_line (start 2.12 -1.75) (end -2.12 -1.75) (layer F.CrtYd) (width 0.05))
  (pad 1 smd roundrect (at -1.4875 -1.2) (size 0.775 0.2) (layers F.Cu F.Mask F.Paste) (roundrect_rratio 0.25))
  (pad 2 smd roundrect (at -1.4875 -0.8) (size 0.775 0.2) (layers F.Cu F.Mask F.Paste) (roundrect_rratio 0.25))
  (pad 3 smd roundrect (at -1.4875 -0.4) (size 0.775 0.2) (layers F.Cu F.Mask F.Paste) (roundrect_rratio 0.25))
  (pad 4 smd roundrect (at -1.4875 0) (size 0.775 0.2) (layers F.Cu F.Mask F.Paste) (roundrect_rratio 0.25))
  (pad 5 smd roundrect (at -1.4875 0.4) (size 0.775 0.2) (layers F.Cu F.Mask F.Paste) (roundrect_rratio 0.25))
  (pad 6 smd roundrect (at -1.4875 0.8) (size 0.775 0.2) (layers F.Cu F.Mask F.Paste) (roundrect_rratio 0.25))
  (pad 7 smd roundrect (at -1.4875 1.2) (size 0.775 0.2) (layers F.Cu F.Mask F.Paste) (roundrect_rratio 0.25))
  (pad 8 smd roundrect (at 1.4875 1.2) (size 0.775 0.2) (layers F.Cu F.Mask F.Paste) (roundrect_rratio 0.25))
  (pad 9 smd roundrect (at 1.4875 0.8) (size 0.775 0.2) (layers F.Cu F.Mask F.Paste) (roundrect_rratio 0.25))
  (pad 10 smd roundrect (at 1.4875 0.4) (size 0.775 0.2) (layers F.Cu F.Mask F.Paste) (roundrect_rratio 0.25))
  (pad 11 smd roundrect (at 1.4875 0) (size 0.775 0.2) (layers F.Cu F.Mask F.Paste) (roundrect_rratio 0.25))
  (pad 12 smd roundrect (at 1.4875 -0.4) (size 0.775 0.2) (layers F.Cu F.Mask F.Paste) (roundrect_rratio 0.25))
  (pad 13 smd roundrect (at 1.4875 -0.8) (size 0.775 0.2) (layers F.Cu F.Mask F.Paste) (roundrect_rratio 0.25))
  (pad 14 smd roundrect (at 1.4875 -1.2) (size 0.775 0.2) (layers F.Cu F.Mask F.Paste) (roundrect_rratio 0.25))
  (pad 15 smd rect (at 0 0) (size 1.78 2.35) (layers F.Cu F.Mask))
  (pad "" smd roundrect (at -0.445 -0.59) (size 0.72 0.95) (layers F.Paste) (roundrect_rratio 0.25))
  (pad "" smd roundrect (at -0.445 0.59) (size 0.72 0.95) (layers F.Paste) (roundrect_rratio 0.25))
  (pad "" smd roundrect (at 0.445 -0.59) (size 0.72 0.95) (layers F.Paste) (roundrect_rratio 0.25))
  (pad "" smd roundrect (at 0.445 0.59) (size 0.72 0.95) (layers F.Paste) (roundrect_rratio 0.25))
  (fp_text user %R (at 0 0) (layer F.Fab)
    (effects (font (size 0.75 0.75) (thickness 0.11)))
  )
  (model ${KICAD6_3DMODEL_DIR}/Package_DFN_QFN.3dshapes/TDFN-14-1EP_3x3mm_P0.4mm_EP1.78x2.35mm.wrl
    (at (xyz 0 0 0))
    (scale (xyz 1 1 1))
    (rotate (xyz 0 0 0))
  )
)