(module TDFN-12_2x3mm_P0.5mm (layer F.Cu) (tedit 5EA4C17F)
  (descr "TDFN, 12 Pads, No exposed, http://www.st.com/resource/en/datasheet/stm6600.pdf")
  (tags DFN)
  (attr smd)
  (fp_text reference REF** (at 0 -3) (layer F.SilkS)
    (effects (font (size 1 1) (thickness 0.15)))
  )
  (fp_text value TDFN-12_2x3mm_P0.5mm (at 0 3) (layer F.Fab)
    (effects (font (size 1 1) (thickness 0.15)))
  )
  (fp_text user %R (at 0 0) (layer F.Fab)
    (effects (font (size 0.3 0.3) (thickness 0.03)))
  )
  (fp_line (start 1.4 1.75) (end 1.4 -1.75) (layer F.CrtYd) (width 0.05))
  (fp_line (start -1.4 1.75) (end 1.4 1.75) (layer F.CrtYd) (width 0.05))
  (fp_line (start -1.4 -1.75) (end -1.4 1.75) (layer F.CrtYd) (width 0.05))
  (fp_line (start 1.4 -1.75) (end -1.4 -1.75) (layer F.CrtYd) (width 0.05))
  (fp_line (start 1 1.6) (end -1 1.6) (layer F.SilkS) (width 0.12))
  (fp_line (start 1 -1.6) (end 0 -1.6) (layer F.SilkS) (width 0.12))
  (fp_line (start -0.5 -1.5) (end -1 -1) (layer F.Fab) (width 0.1))
  (fp_line (start -0.5 -1.5) (end 1 -1.5) (layer F.Fab) (width 0.1))
  (fp_line (start -1 1.5) (end -1 -1) (layer F.Fab) (width 0.1))
  (fp_line (start 1 1.5) (end -1 1.5) (layer F.Fab) (width 0.1))
  (fp_line (start 1 -1.5) (end 1 1.5) (layer F.Fab) (width 0.1))
  (pad 1 smd rect (at -0.8 -1.25) (size 0.7 0.25) (layers F.Cu F.Paste F.Mask))
  (pad 2 smd rect (at -0.8 -0.75) (size 0.7 0.25) (layers F.Cu F.Paste F.Mask))
  (pad 3 smd rect (at -0.8 -0.25) (size 0.7 0.25) (layers F.Cu F.Paste F.Mask))
  (pad 4 smd rect (at -0.8 0.25) (size 0.7 0.25) (layers F.Cu F.Paste F.Mask))
  (pad 5 smd rect (at -0.8 0.75) (size 0.7 0.25) (layers F.Cu F.Paste F.Mask))
  (pad 6 smd rect (at -0.8 1.25) (size 0.7 0.25) (layers F.Cu F.Paste F.Mask))
  (pad 7 smd rect (at 0.8 1.25) (size 0.7 0.25) (layers F.Cu F.Paste F.Mask))
  (pad 8 smd rect (at 0.8 0.75) (size 0.7 0.25) (layers F.Cu F.Paste F.Mask))
  (pad 9 smd rect (at 0.8 0.25) (size 0.7 0.25) (layers F.Cu F.Paste F.Mask))
  (pad 10 smd rect (at 0.8 -0.25) (size 0.7 0.25) (layers F.Cu F.Paste F.Mask))
  (pad 11 smd rect (at 0.8 -0.75) (size 0.7 0.25) (layers F.Cu F.Paste F.Mask))
  (pad 12 smd rect (at 0.8 -1.25) (size 0.7 0.25) (layers F.Cu F.Paste F.Mask))
  (model ${KICAD6_3DMODEL_DIR}/Package_DFN_QFN.3dshapes/TDFN-12_2x3mm_P0.5mm.wrl
    (at (xyz 0 0 0))
    (scale (xyz 1 1 1))
    (rotate (xyz 0 0 0))
  )
)
