(module Texas_MOF0009A (layer F.Cu) (tedit 5ADFC335)
  (descr "Texas Instruments, QFM MOF0009A, 6x8x2mm (http://www.ti.com/lit/ml/mpsi063a/mpsi063a.pdf)")
  (tags "ti qfm mof0009a")
  (solder_mask_margin -0.05)
  (solder_paste_margin -0.05)
  (attr smd)
  (fp_text reference REF** (at 0 -5) (layer F.SilkS)
    (effects (font (size 1 1) (thickness 0.15)))
  )
  (fp_text value Texas_MOF0009A (at 0 5) (layer F.Fab)
    (effects (font (size 1 1) (thickness 0.15)))
  )
  (fp_line (start -2 -4) (end 3 -4) (layer F.Fab) (width 0.1))
  (fp_line (start 3 -4) (end 3 4) (layer F.Fab) (width 0.1))
  (fp_line (start 3 4) (end -3 4) (layer F.Fab) (width 0.1))
  (fp_line (start -3 4) (end -3 -3) (layer F.Fab) (width 0.1))
  (fp_line (start -2.11 -4.11) (end 3.11 -4.11) (layer F.SilkS) (width 0.12))
  (fp_line (start 3.11 -4.11) (end 3.11 4.11) (layer F.SilkS) (width 0.12))
  (fp_line (start 3.11 4.11) (end -3.11 4.11) (layer F.SilkS) (width 0.12))
  (fp_line (start -3.11 4.11) (end -3.11 -4.11) (layer F.SilkS) (width 0.12))
  (fp_line (start -3.25 -4.25) (end 3.25 -4.25) (layer F.CrtYd) (width 0.05))
  (fp_line (start 3.25 -4.25) (end 3.25 4.25) (layer F.CrtYd) (width 0.05))
  (fp_line (start 3.25 4.25) (end -3.25 4.25) (layer F.CrtYd) (width 0.05))
  (fp_line (start -3.25 4.25) (end -3.25 -4.25) (layer F.CrtYd) (width 0.05))
  (fp_line (start -2 -4) (end -3 -3) (layer F.Fab) (width 0.1))
  (fp_text user %R (at 0 0) (layer F.Fab)
    (effects (font (size 1 1) (thickness 0.15)))
  )
  (pad 1 smd roundrect (at -2.55 -1.7775) (size 0.8 4.35) (layers F.Cu F.Mask)(roundrect_rratio 0.063))
  (pad 8 smd roundrect (at 2.55 -1.7775) (size 0.8 4.35) (layers F.Cu F.Mask)(roundrect_rratio 0.063))
  (pad 9 smd roundrect (at 0 -1.7775) (size 1.15 4.35) (layers F.Cu F.Mask)(roundrect_rratio 0.044))
  (pad 2 smd roundrect (at -2.55 2.0525) (size 0.8 0.6) (layers F.Cu F.Paste F.Mask)(roundrect_rratio 0.08400000000000001))
  (pad 3 smd roundrect (at -2.55 3.2525) (size 0.8 0.6) (layers F.Cu F.Paste F.Mask)(roundrect_rratio 0.08400000000000001))
  (pad 7 smd roundrect (at 2.55 2.0525) (size 0.8 0.6) (layers F.Cu F.Paste F.Mask)(roundrect_rratio 0.08400000000000001))
  (pad 6 smd roundrect (at 2.55 3.2525) (size 0.8 0.6) (layers F.Cu F.Paste F.Mask)(roundrect_rratio 0.08400000000000001))
  (pad 4 smd roundrect (at -0.9 3.5525) (size 0.6 0.8) (layers F.Cu F.Paste F.Mask)(roundrect_rratio 0.08400000000000001))
  (pad 5 smd roundrect (at 0.9 3.5525) (size 0.6 0.8) (layers F.Cu F.Paste F.Mask)(roundrect_rratio 0.08400000000000001))
  (pad "" smd roundrect (at -2.55 0.0025) (size 0.7 0.59) (layers F.Paste)(roundrect_rratio 0.08500000000000001))
  (pad "" smd roundrect (at 2.55 0.0025) (size 0.7 0.59) (layers F.Paste)(roundrect_rratio 0.08500000000000001))
  (pad "" smd roundrect (at -2.55 -0.8875) (size 0.7 0.59) (layers F.Paste)(roundrect_rratio 0.08500000000000001))
  (pad "" smd roundrect (at 2.55 -0.8875) (size 0.7 0.59) (layers F.Paste)(roundrect_rratio 0.08500000000000001))
  (pad "" smd roundrect (at -2.55 -1.7775) (size 0.7 0.59) (layers F.Paste)(roundrect_rratio 0.08500000000000001))
  (pad "" smd roundrect (at 2.55 -1.7775) (size 0.7 0.59) (layers F.Paste)(roundrect_rratio 0.08500000000000001))
  (pad "" smd roundrect (at -2.55 -2.6675) (size 0.7 0.59) (layers F.Paste)(roundrect_rratio 0.08500000000000001))
  (pad "" smd roundrect (at 2.55 -2.6675) (size 0.7 0.59) (layers F.Paste)(roundrect_rratio 0.08500000000000001))
  (pad "" smd roundrect (at -2.55 -3.5575) (size 0.7 0.59) (layers F.Paste)(roundrect_rratio 0.08500000000000001))
  (pad "" smd roundrect (at 2.55 -3.5575) (size 0.7 0.59) (layers F.Paste)(roundrect_rratio 0.08500000000000001))
  (pad "" smd roundrect (at 0 -3.5575) (size 1.05 0.59) (layers F.Paste)(roundrect_rratio 0.08500000000000001))
  (pad "" smd roundrect (at 0 -2.6675) (size 1.05 0.59) (layers F.Paste)(roundrect_rratio 0.08500000000000001))
  (pad "" smd roundrect (at 0 -1.7775) (size 1.05 0.59) (layers F.Paste)(roundrect_rratio 0.08500000000000001))
  (pad "" smd roundrect (at 0 -0.8875) (size 1.05 0.59) (layers F.Paste)(roundrect_rratio 0.08500000000000001))
  (pad "" smd roundrect (at 0 0.0025) (size 1.05 0.59) (layers F.Paste)(roundrect_rratio 0.08500000000000001))
  (model ${KICAD6_3DMODEL_DIR}/Package_DFN_QFN.3dshapes/Texas_MOF0009A.wrl
    (at (xyz 0 0 0))
    (scale (xyz 1 1 1))
    (rotate (xyz 0 0 0))
  )
)
