(module Texas_S-PDSO-N10_EP1.2x2mm_ThermalVias (layer F.Cu) (tedit 5DC5F54E)
  (descr "DFN, 10 Pin (http://www.ti.com/lit/ds/symlink/tps7a91.pdf#page=30), generated with kicad-footprint-generator ipc_noLead_generator.py")
  (tags "DFN NoLead")
  (attr smd)
  (fp_text reference REF** (at 0 -2.2) (layer F.SilkS)
    (effects (font (size 1 1) (thickness 0.15)))
  )
  (fp_text value Texas_S-PDSO-N10_EP1.2x2mm_ThermalVias (at 0 2.2) (layer F.Fab)
    (effects (font (size 1 1) (thickness 0.15)))
  )
  (fp_line (start 0 -1.36) (end 1.25 -1.36) (layer F.SilkS) (width 0.12))
  (fp_line (start -1.25 1.36) (end 1.25 1.36) (layer F.SilkS) (width 0.12))
  (fp_line (start -0.625 -1.25) (end 1.25 -1.25) (layer F.Fab) (width 0.1))
  (fp_line (start 1.25 -1.25) (end 1.25 1.25) (layer F.Fab) (width 0.1))
  (fp_line (start 1.25 1.25) (end -1.25 1.25) (layer F.Fab) (width 0.1))
  (fp_line (start -1.25 1.25) (end -1.25 -0.625) (layer F.Fab) (width 0.1))
  (fp_line (start -1.25 -0.625) (end -0.625 -1.25) (layer F.Fab) (width 0.1))
  (fp_line (start -1.88 -1.5) (end -1.88 1.5) (layer F.CrtYd) (width 0.05))
  (fp_line (start -1.88 1.5) (end 1.88 1.5) (layer F.CrtYd) (width 0.05))
  (fp_line (start 1.88 1.5) (end 1.88 -1.5) (layer F.CrtYd) (width 0.05))
  (fp_line (start 1.88 -1.5) (end -1.88 -1.5) (layer F.CrtYd) (width 0.05))
  (pad 1 smd roundrect (at -1.2125 -1) (size 0.825 0.25) (layers F.Cu F.Mask F.Paste) (roundrect_rratio 0.25))
  (pad 2 smd roundrect (at -1.2125 -0.5) (size 0.825 0.25) (layers F.Cu F.Mask F.Paste) (roundrect_rratio 0.25))
  (pad 3 smd roundrect (at -1.2125 0) (size 0.825 0.25) (layers F.Cu F.Mask F.Paste) (roundrect_rratio 0.25))
  (pad 4 smd roundrect (at -1.2125 0.5) (size 0.825 0.25) (layers F.Cu F.Mask F.Paste) (roundrect_rratio 0.25))
  (pad 5 smd roundrect (at -1.2125 1) (size 0.825 0.25) (layers F.Cu F.Mask F.Paste) (roundrect_rratio 0.25))
  (pad 6 smd roundrect (at 1.2125 1) (size 0.825 0.25) (layers F.Cu F.Mask F.Paste) (roundrect_rratio 0.25))
  (pad 7 smd roundrect (at 1.2125 0.5) (size 0.825 0.25) (layers F.Cu F.Mask F.Paste) (roundrect_rratio 0.25))
  (pad 8 smd roundrect (at 1.2125 0) (size 0.825 0.25) (layers F.Cu F.Mask F.Paste) (roundrect_rratio 0.25))
  (pad 9 smd roundrect (at 1.2125 -0.5) (size 0.825 0.25) (layers F.Cu F.Mask F.Paste) (roundrect_rratio 0.25))
  (pad 10 smd roundrect (at 1.2125 -1) (size 0.825 0.25) (layers F.Cu F.Mask F.Paste) (roundrect_rratio 0.25))
  (pad 11 smd rect (at 0 0) (size 1.2 2) (layers F.Cu F.Mask))
  (pad 11 thru_hole circle (at -0.35 -0.75) (size 0.5 0.5) (drill 0.2) (layers *.Cu))
  (pad 11 thru_hole circle (at 0.35 -0.75) (size 0.5 0.5) (drill 0.2) (layers *.Cu))
  (pad 11 thru_hole circle (at -0.35 0) (size 0.5 0.5) (drill 0.2) (layers *.Cu))
  (pad 11 thru_hole circle (at 0.35 0) (size 0.5 0.5) (drill 0.2) (layers *.Cu))
  (pad 11 thru_hole circle (at -0.35 0.75) (size 0.5 0.5) (drill 0.2) (layers *.Cu))
  (pad 11 thru_hole circle (at 0.35 0.75) (size 0.5 0.5) (drill 0.2) (layers *.Cu))
  (pad 11 smd rect (at 0 0) (size 1.2 2) (layers B.Cu))
  (pad "" smd roundrect (at -0.3 -0.5) (size 0.5 0.84) (layers F.Paste) (roundrect_rratio 0.25))
  (pad "" smd roundrect (at -0.3 0.5) (size 0.5 0.84) (layers F.Paste) (roundrect_rratio 0.25))
  (pad "" smd roundrect (at 0.3 -0.5) (size 0.5 0.84) (layers F.Paste) (roundrect_rratio 0.25))
  (pad "" smd roundrect (at 0.3 0.5) (size 0.5 0.84) (layers F.Paste) (roundrect_rratio 0.25))
  (fp_text user %R (at 0 0) (layer F.Fab)
    (effects (font (size 0.62 0.62) (thickness 0.09)))
  )
  (model ${KICAD6_3DMODEL_DIR}/Package_DFN_QFN.3dshapes/Texas_S-PDSO-N10_EP1.2x2mm.wrl
    (at (xyz 0 0 0))
    (scale (xyz 1 1 1))
    (rotate (xyz 0 0 0))
  )
)