(module Texas_S-PVQFN-N16_EP2.7x2.7mm_ThermalVias (layer F.Cu) (tedit 5E11FE4E)
  (descr "QFN, 16 Pin (http://www.ti.com/lit/ds/symlink/msp430g2001.pdf#page=43), generated with kicad-footprint-generator ipc_noLead_generator.py")
  (tags "QFN NoLead")
  (attr smd)
  (fp_text reference REF** (at 0 -3.32) (layer F.SilkS)
    (effects (font (size 1 1) (thickness 0.15)))
  )
  (fp_text value Texas_S-PVQFN-N16_EP2.7x2.7mm_ThermalVias (at 0 3.32) (layer F.Fab)
    (effects (font (size 1 1) (thickness 0.15)))
  )
  (fp_line (start 1.41 -2.11) (end 2.11 -2.11) (layer F.SilkS) (width 0.12))
  (fp_line (start 2.11 -2.11) (end 2.11 -1.41) (layer F.SilkS) (width 0.12))
  (fp_line (start -1.41 2.11) (end -2.11 2.11) (layer F.SilkS) (width 0.12))
  (fp_line (start -2.11 2.11) (end -2.11 1.41) (layer F.SilkS) (width 0.12))
  (fp_line (start 1.41 2.11) (end 2.11 2.11) (layer F.SilkS) (width 0.12))
  (fp_line (start 2.11 2.11) (end 2.11 1.41) (layer F.SilkS) (width 0.12))
  (fp_line (start -1.41 -2.11) (end -2.11 -2.11) (layer F.SilkS) (width 0.12))
  (fp_line (start -1 -2) (end 2 -2) (layer F.Fab) (width 0.1))
  (fp_line (start 2 -2) (end 2 2) (layer F.Fab) (width 0.1))
  (fp_line (start 2 2) (end -2 2) (layer F.Fab) (width 0.1))
  (fp_line (start -2 2) (end -2 -1) (layer F.Fab) (width 0.1))
  (fp_line (start -2 -1) (end -1 -2) (layer F.Fab) (width 0.1))
  (fp_line (start -2.62 -2.62) (end -2.62 2.62) (layer F.CrtYd) (width 0.05))
  (fp_line (start -2.62 2.62) (end 2.62 2.62) (layer F.CrtYd) (width 0.05))
  (fp_line (start 2.62 2.62) (end 2.62 -2.62) (layer F.CrtYd) (width 0.05))
  (fp_line (start 2.62 -2.62) (end -2.62 -2.62) (layer F.CrtYd) (width 0.05))
  (pad 1 smd roundrect (at -1.9625 -0.975) (size 0.825 0.35) (layers F.Cu F.Mask F.Paste) (roundrect_rratio 0.25))
  (pad 2 smd roundrect (at -1.9625 -0.325) (size 0.825 0.35) (layers F.Cu F.Mask F.Paste) (roundrect_rratio 0.25))
  (pad 3 smd roundrect (at -1.9625 0.325) (size 0.825 0.35) (layers F.Cu F.Mask F.Paste) (roundrect_rratio 0.25))
  (pad 4 smd roundrect (at -1.9625 0.975) (size 0.825 0.35) (layers F.Cu F.Mask F.Paste) (roundrect_rratio 0.25))
  (pad 5 smd roundrect (at -0.975 1.9625) (size 0.35 0.825) (layers F.Cu F.Mask F.Paste) (roundrect_rratio 0.25))
  (pad 6 smd roundrect (at -0.325 1.9625) (size 0.35 0.825) (layers F.Cu F.Mask F.Paste) (roundrect_rratio 0.25))
  (pad 7 smd roundrect (at 0.325 1.9625) (size 0.35 0.825) (layers F.Cu F.Mask F.Paste) (roundrect_rratio 0.25))
  (pad 8 smd roundrect (at 0.975 1.9625) (size 0.35 0.825) (layers F.Cu F.Mask F.Paste) (roundrect_rratio 0.25))
  (pad 9 smd roundrect (at 1.9625 0.975) (size 0.825 0.35) (layers F.Cu F.Mask F.Paste) (roundrect_rratio 0.25))
  (pad 10 smd roundrect (at 1.9625 0.325) (size 0.825 0.35) (layers F.Cu F.Mask F.Paste) (roundrect_rratio 0.25))
  (pad 11 smd roundrect (at 1.9625 -0.325) (size 0.825 0.35) (layers F.Cu F.Mask F.Paste) (roundrect_rratio 0.25))
  (pad 12 smd roundrect (at 1.9625 -0.975) (size 0.825 0.35) (layers F.Cu F.Mask F.Paste) (roundrect_rratio 0.25))
  (pad 13 smd roundrect (at 0.975 -1.9625) (size 0.35 0.825) (layers F.Cu F.Mask F.Paste) (roundrect_rratio 0.25))
  (pad 14 smd roundrect (at 0.325 -1.9625) (size 0.35 0.825) (layers F.Cu F.Mask F.Paste) (roundrect_rratio 0.25))
  (pad 15 smd roundrect (at -0.325 -1.9625) (size 0.35 0.825) (layers F.Cu F.Mask F.Paste) (roundrect_rratio 0.25))
  (pad 16 smd roundrect (at -0.975 -1.9625) (size 0.35 0.825) (layers F.Cu F.Mask F.Paste) (roundrect_rratio 0.25))
  (pad 17 smd rect (at 0 0) (size 2.7 2.7) (layers F.Cu F.Mask))
  (pad 17 thru_hole circle (at -1.1 -1.1) (size 0.5 0.5) (drill 0.2) (layers *.Cu))
  (pad 17 thru_hole circle (at 0 -1.1) (size 0.5 0.5) (drill 0.2) (layers *.Cu))
  (pad 17 thru_hole circle (at 1.1 -1.1) (size 0.5 0.5) (drill 0.2) (layers *.Cu))
  (pad 17 thru_hole circle (at -1.1 0) (size 0.5 0.5) (drill 0.2) (layers *.Cu))
  (pad 17 thru_hole circle (at 0 0) (size 0.5 0.5) (drill 0.2) (layers *.Cu))
  (pad 17 thru_hole circle (at 1.1 0) (size 0.5 0.5) (drill 0.2) (layers *.Cu))
  (pad 17 thru_hole circle (at -1.1 1.1) (size 0.5 0.5) (drill 0.2) (layers *.Cu))
  (pad 17 thru_hole circle (at 0 1.1) (size 0.5 0.5) (drill 0.2) (layers *.Cu))
  (pad 17 thru_hole circle (at 1.1 1.1) (size 0.5 0.5) (drill 0.2) (layers *.Cu))
  (pad 17 smd rect (at 0 0) (size 2.7 2.7) (layers B.Cu))
  (pad "" smd roundrect (at -0.55 -0.55) (size 0.954594 0.954594) (layers F.Paste) (roundrect_rratio 0.25))
  (pad "" smd roundrect (at -0.55 0.55) (size 0.954594 0.954594) (layers F.Paste) (roundrect_rratio 0.25))
  (pad "" smd roundrect (at 0.55 -0.55) (size 0.954594 0.954594) (layers F.Paste) (roundrect_rratio 0.25))
  (pad "" smd roundrect (at 0.55 0.55) (size 0.954594 0.954594) (layers F.Paste) (roundrect_rratio 0.25))
  (fp_text user %R (at 0 0) (layer F.Fab)
    (effects (font (size 1 1) (thickness 0.15)))
  )
  (model ${KICAD6_3DMODEL_DIR}/Package_DFN_QFN.3dshapes/Texas_S-PVQFN-N16_EP2.7x2.7mm.wrl
    (at (xyz 0 0 0))
    (scale (xyz 1 1 1))
    (rotate (xyz 0 0 0))
  )
)