(module Texas_WQFN-MR-100_ThermalVias_3x3-DapStencil (layer F.Cu) (tedit 5A4A6B03)
  (descr http://www.ti.com/general/docs/lit/getliterature.tsp?baseLiteratureNumber=szza059&fileType=pdf,http://www.ti.com/general/docs/lit/getliterature.tsp?baseLiteratureNumber=mpqf258&fileType=pdf,http://www.ti.com/general/docs/lit/getliterature.tsp?baseLiteratureNumber=LPPD235&fileType=pdf)
  (tags "MultiRow QFN")
  (attr smd)
  (fp_text reference REF** (at 0 -5.9) (layer F.SilkS)
    (effects (font (size 1 1) (thickness 0.15)))
  )
  (fp_text value Texas_WQFN-MR-100_ThermalVias_3x3-DapStencil (at 0 6.4) (layer F.Fab)
    (effects (font (size 1 1) (thickness 0.15)))
  )
  (fp_text user %R (at 0 0) (layer F.Fab)
    (effects (font (size 1 1) (thickness 0.15)))
  )
  (fp_line (start -5.25 5.25) (end -5.25 -5.25) (layer F.CrtYd) (width 0.05))
  (fp_line (start 5.25 5.25) (end -5.25 5.25) (layer F.CrtYd) (width 0.05))
  (fp_line (start 5.25 -5.25) (end 5.25 5.25) (layer F.CrtYd) (width 0.05))
  (fp_line (start -5.25 -5.25) (end 5.25 -5.25) (layer F.CrtYd) (width 0.05))
  (fp_circle (center -4.85 -4.85) (end -5 -4.85) (layer F.SilkS) (width 0.12))
  (fp_line (start -4.6 3.9) (end -4.6 4.6) (layer F.SilkS) (width 0.12))
  (fp_line (start -4.6 4.6) (end -3.9 4.6) (layer F.SilkS) (width 0.12))
  (fp_line (start 4.5 -4.5) (end 4.5 4.5) (layer F.Fab) (width 0.15))
  (fp_line (start -4.5 -4.5) (end 4.5 -4.5) (layer F.Fab) (width 0.15))
  (fp_line (start -4.5 -4.5) (end -4.5 4.5) (layer F.Fab) (width 0.15))
  (fp_line (start -4.5 4.5) (end 4.5 4.5) (layer F.Fab) (width 0.15))
  (fp_line (start 4.6 3.9) (end 4.6 4.6) (layer F.SilkS) (width 0.12))
  (fp_line (start 4.6 4.6) (end 3.9 4.6) (layer F.SilkS) (width 0.12))
  (fp_line (start 4.6 -4.6) (end 3.9 -4.6) (layer F.SilkS) (width 0.12))
  (fp_line (start 4.6 -3.9) (end 4.6 -4.6) (layer F.SilkS) (width 0.12))
  (fp_line (start -4.6 -3.9) (end -4.6 -4.6) (layer F.SilkS) (width 0.12))
  (fp_line (start -4.6 -4.6) (end -3.9 -4.6) (layer F.SilkS) (width 0.12))
  (pad A53 smd rect (at 0 0) (size 5.5 5.5) (layers B.Cu))
  (pad C1 smd rect (at -4.25 -4.25) (size 0.3 0.3) (layers F.Cu F.Paste F.Mask))
  (pad C2 smd rect (at -4.25 4.25) (size 0.3 0.3) (layers F.Cu F.Paste F.Mask))
  (pad C4 smd rect (at 4.25 -4.25) (size 0.3 0.3) (layers F.Cu F.Paste F.Mask))
  (pad C3 smd rect (at 4.25 4.25) (size 0.3 0.3) (layers F.Cu F.Paste F.Mask))
  (pad A53 smd rect (at 0 -1.835) (size 1.84 1.83) (layers F.Cu F.Paste F.Mask)
    (solder_paste_margin_ratio -0.11))
  (pad A52 smd rect (at -3.6 -4.4) (size 0.25 0.6) (layers F.Cu F.Paste F.Mask))
  (pad A51 smd rect (at -3 -4.4) (size 0.25 0.6) (layers F.Cu F.Paste F.Mask))
  (pad A50 smd rect (at -2.4 -4.4) (size 0.25 0.6) (layers F.Cu F.Paste F.Mask))
  (pad A48 smd rect (at -1.2 -4.4) (size 0.25 0.6) (layers F.Cu F.Paste F.Mask))
  (pad A49 smd rect (at -1.8 -4.4) (size 0.25 0.6) (layers F.Cu F.Paste F.Mask))
  (pad A47 smd rect (at -0.6 -4.4) (size 0.25 0.6) (layers F.Cu F.Paste F.Mask))
  (pad A44 smd rect (at 1.2 -4.4) (size 0.25 0.6) (layers F.Cu F.Paste F.Mask))
  (pad A45 smd rect (at 0.6 -4.4) (size 0.25 0.6) (layers F.Cu F.Paste F.Mask))
  (pad A46 smd rect (at 0 -4.4) (size 0.25 0.6) (layers F.Cu F.Paste F.Mask))
  (pad A43 smd rect (at 1.8 -4.4) (size 0.25 0.6) (layers F.Cu F.Paste F.Mask))
  (pad A42 smd rect (at 2.4 -4.4) (size 0.25 0.6) (layers F.Cu F.Paste F.Mask))
  (pad A41 smd rect (at 3 -4.4) (size 0.25 0.6) (layers F.Cu F.Paste F.Mask))
  (pad A40 smd rect (at 3.6 -4.4) (size 0.25 0.6) (layers F.Cu F.Paste F.Mask))
  (pad A14 smd rect (at -3.6 4.4) (size 0.25 0.6) (layers F.Cu F.Paste F.Mask))
  (pad A13 smd rect (at -4.4 3.6 90) (size 0.25 0.6) (layers F.Cu F.Paste F.Mask))
  (pad A27 smd rect (at 4.4 3.6 90) (size 0.25 0.6) (layers F.Cu F.Paste F.Mask))
  (pad A15 smd rect (at -3 4.4) (size 0.25 0.6) (layers F.Cu F.Paste F.Mask))
  (pad A16 smd rect (at -2.4 4.4) (size 0.25 0.6) (layers F.Cu F.Paste F.Mask))
  (pad A17 smd rect (at -1.8 4.4) (size 0.25 0.6) (layers F.Cu F.Paste F.Mask))
  (pad A18 smd rect (at -1.2 4.4) (size 0.25 0.6) (layers F.Cu F.Paste F.Mask))
  (pad A19 smd rect (at -0.6 4.4) (size 0.25 0.6) (layers F.Cu F.Paste F.Mask))
  (pad A20 smd rect (at 0 4.4) (size 0.25 0.6) (layers F.Cu F.Paste F.Mask))
  (pad A25 smd rect (at 3 4.4) (size 0.25 0.6) (layers F.Cu F.Paste F.Mask))
  (pad A21 smd rect (at 0.6 4.4) (size 0.25 0.6) (layers F.Cu F.Paste F.Mask))
  (pad A22 smd rect (at 1.2 4.4) (size 0.25 0.6) (layers F.Cu F.Paste F.Mask))
  (pad A23 smd rect (at 1.8 4.4) (size 0.25 0.6) (layers F.Cu F.Paste F.Mask))
  (pad A24 smd rect (at 2.4 4.4) (size 0.25 0.6) (layers F.Cu F.Paste F.Mask))
  (pad A26 smd rect (at 3.6 4.4) (size 0.25 0.6) (layers F.Cu F.Paste F.Mask))
  (pad A12 smd rect (at -4.4 3 90) (size 0.25 0.6) (layers F.Cu F.Paste F.Mask))
  (pad A11 smd rect (at -4.4 2.4 90) (size 0.25 0.6) (layers F.Cu F.Paste F.Mask))
  (pad A10 smd rect (at -4.4 1.8 90) (size 0.25 0.6) (layers F.Cu F.Paste F.Mask))
  (pad A9 smd rect (at -4.4 1.2 90) (size 0.25 0.6) (layers F.Cu F.Paste F.Mask))
  (pad A8 smd rect (at -4.4 0.6 90) (size 0.25 0.6) (layers F.Cu F.Paste F.Mask))
  (pad A7 smd rect (at -4.4 0 90) (size 0.25 0.6) (layers F.Cu F.Paste F.Mask))
  (pad A6 smd rect (at -4.4 -0.6 90) (size 0.25 0.6) (layers F.Cu F.Paste F.Mask))
  (pad A5 smd rect (at -4.4 -1.2 90) (size 0.25 0.6) (layers F.Cu F.Paste F.Mask))
  (pad A4 smd rect (at -4.4 -1.8 90) (size 0.25 0.6) (layers F.Cu F.Paste F.Mask))
  (pad A3 smd rect (at -4.4 -2.4 90) (size 0.25 0.6) (layers F.Cu F.Paste F.Mask))
  (pad A2 smd rect (at -4.4 -3 90) (size 0.25 0.6) (layers F.Cu F.Paste F.Mask))
  (pad A1 smd rect (at -4.4 -3.6 90) (size 0.25 0.6) (layers F.Cu F.Paste F.Mask))
  (pad A28 smd rect (at 4.4 3 90) (size 0.25 0.6) (layers F.Cu F.Paste F.Mask))
  (pad A29 smd rect (at 4.4 2.4 90) (size 0.25 0.6) (layers F.Cu F.Paste F.Mask))
  (pad A30 smd rect (at 4.4 1.8 90) (size 0.25 0.6) (layers F.Cu F.Paste F.Mask))
  (pad A31 smd rect (at 4.4 1.2 90) (size 0.25 0.6) (layers F.Cu F.Paste F.Mask))
  (pad A34 smd rect (at 4.4 -0.6 90) (size 0.25 0.6) (layers F.Cu F.Paste F.Mask))
  (pad A32 smd rect (at 4.4 0.6 90) (size 0.25 0.6) (layers F.Cu F.Paste F.Mask))
  (pad A33 smd rect (at 4.4 0 90) (size 0.25 0.6) (layers F.Cu F.Paste F.Mask))
  (pad A35 smd rect (at 4.4 -1.2 90) (size 0.25 0.6) (layers F.Cu F.Paste F.Mask))
  (pad A36 smd rect (at 4.4 -1.8 90) (size 0.25 0.6) (layers F.Cu F.Paste F.Mask))
  (pad A37 smd rect (at 4.4 -2.4 90) (size 0.25 0.6) (layers F.Cu F.Paste F.Mask))
  (pad A38 smd rect (at 4.4 -3 90) (size 0.25 0.6) (layers F.Cu F.Paste F.Mask))
  (pad A39 smd rect (at 4.4 -3.6 90) (size 0.25 0.6) (layers F.Cu F.Paste F.Mask))
  (pad B7 smd rect (at -3.65 0.275 90) (size 0.25 0.4) (layers F.Cu F.Paste F.Mask))
  (pad B6 smd rect (at -3.65 -0.275 90) (size 0.25 0.4) (layers F.Cu F.Paste F.Mask))
  (pad B5 smd rect (at -3.65 -0.825 90) (size 0.25 0.4) (layers F.Cu F.Paste F.Mask))
  (pad B4 smd rect (at -3.65 -1.375 90) (size 0.25 0.4) (layers F.Cu F.Paste F.Mask))
  (pad B3 smd rect (at -3.65 -1.925 90) (size 0.25 0.4) (layers F.Cu F.Paste F.Mask))
  (pad B2 smd rect (at -3.65 -2.475 90) (size 0.25 0.4) (layers F.Cu F.Paste F.Mask))
  (pad B1 smd rect (at -3.65 -3.025 90) (size 0.25 0.4) (layers F.Cu F.Paste F.Mask))
  (pad B12 smd rect (at -3.65 3.025 90) (size 0.25 0.4) (layers F.Cu F.Paste F.Mask))
  (pad B11 smd rect (at -3.65 2.475 90) (size 0.25 0.4) (layers F.Cu F.Paste F.Mask))
  (pad B10 smd rect (at -3.65 1.925 90) (size 0.25 0.4) (layers F.Cu F.Paste F.Mask))
  (pad B9 smd rect (at -3.65 1.375 90) (size 0.25 0.4) (layers F.Cu F.Paste F.Mask))
  (pad B8 smd rect (at -3.65 0.825 90) (size 0.25 0.4) (layers F.Cu F.Paste F.Mask))
  (pad B36 smd rect (at 3.65 -3.025 90) (size 0.25 0.4) (layers F.Cu F.Paste F.Mask))
  (pad B35 smd rect (at 3.65 -2.475 90) (size 0.25 0.4) (layers F.Cu F.Paste F.Mask))
  (pad B34 smd rect (at 3.65 -1.925 90) (size 0.25 0.4) (layers F.Cu F.Paste F.Mask))
  (pad B33 smd rect (at 3.65 -1.375 90) (size 0.25 0.4) (layers F.Cu F.Paste F.Mask))
  (pad B32 smd rect (at 3.65 -0.825 90) (size 0.25 0.4) (layers F.Cu F.Paste F.Mask))
  (pad B31 smd rect (at 3.65 -0.275 90) (size 0.25 0.4) (layers F.Cu F.Paste F.Mask))
  (pad B30 smd rect (at 3.65 0.275 90) (size 0.25 0.4) (layers F.Cu F.Paste F.Mask))
  (pad B29 smd rect (at 3.65 0.825 90) (size 0.25 0.4) (layers F.Cu F.Paste F.Mask))
  (pad B28 smd rect (at 3.65 1.375 90) (size 0.25 0.4) (layers F.Cu F.Paste F.Mask))
  (pad B27 smd rect (at 3.65 1.925 90) (size 0.25 0.4) (layers F.Cu F.Paste F.Mask))
  (pad B26 smd rect (at 3.65 2.475 90) (size 0.25 0.4) (layers F.Cu F.Paste F.Mask))
  (pad B25 smd rect (at 3.65 3.025 90) (size 0.25 0.4) (layers F.Cu F.Paste F.Mask))
  (pad B48 smd rect (at -3.025 -3.65) (size 0.25 0.4) (layers F.Cu F.Paste F.Mask))
  (pad B47 smd rect (at -2.475 -3.65) (size 0.25 0.4) (layers F.Cu F.Paste F.Mask))
  (pad B46 smd rect (at -1.925 -3.65) (size 0.25 0.4) (layers F.Cu F.Paste F.Mask))
  (pad B45 smd rect (at -1.375 -3.65) (size 0.25 0.4) (layers F.Cu F.Paste F.Mask))
  (pad B44 smd rect (at -0.825 -3.65) (size 0.25 0.4) (layers F.Cu F.Paste F.Mask))
  (pad B43 smd rect (at -0.275 -3.65) (size 0.25 0.4) (layers F.Cu F.Paste F.Mask))
  (pad B42 smd rect (at 0.275 -3.65) (size 0.25 0.4) (layers F.Cu F.Paste F.Mask))
  (pad B41 smd rect (at 0.825 -3.65) (size 0.25 0.4) (layers F.Cu F.Paste F.Mask))
  (pad B40 smd rect (at 1.375 -3.65) (size 0.25 0.4) (layers F.Cu F.Paste F.Mask))
  (pad B39 smd rect (at 1.925 -3.65) (size 0.25 0.4) (layers F.Cu F.Paste F.Mask))
  (pad B38 smd rect (at 2.475 -3.65) (size 0.25 0.4) (layers F.Cu F.Paste F.Mask))
  (pad B37 smd rect (at 3.025 -3.65) (size 0.25 0.4) (layers F.Cu F.Paste F.Mask))
  (pad B13 smd rect (at -3.025 3.65) (size 0.25 0.4) (layers F.Cu F.Paste F.Mask))
  (pad B14 smd rect (at -2.475 3.65) (size 0.25 0.4) (layers F.Cu F.Paste F.Mask))
  (pad B15 smd rect (at -1.925 3.65) (size 0.25 0.4) (layers F.Cu F.Paste F.Mask))
  (pad B16 smd rect (at -1.375 3.65) (size 0.25 0.4) (layers F.Cu F.Paste F.Mask))
  (pad B17 smd rect (at -0.825 3.65) (size 0.25 0.4) (layers F.Cu F.Paste F.Mask))
  (pad B18 smd rect (at -0.275 3.65) (size 0.25 0.4) (layers F.Cu F.Paste F.Mask))
  (pad B19 smd rect (at 0.275 3.65) (size 0.25 0.4) (layers F.Cu F.Paste F.Mask))
  (pad B20 smd rect (at 0.825 3.65) (size 0.25 0.4) (layers F.Cu F.Paste F.Mask))
  (pad B21 smd rect (at 1.375 3.65) (size 0.25 0.4) (layers F.Cu F.Paste F.Mask))
  (pad B22 smd rect (at 1.925 3.65) (size 0.25 0.4) (layers F.Cu F.Paste F.Mask))
  (pad B23 smd rect (at 2.475 3.65) (size 0.25 0.4) (layers F.Cu F.Paste F.Mask))
  (pad B24 smd rect (at 3.025 3.65) (size 0.25 0.4) (layers F.Cu F.Paste F.Mask))
  (pad A53 smd rect (at -1.835 -1.835) (size 1.83 1.83) (layers F.Cu F.Paste F.Mask)
    (solder_paste_margin_ratio -0.11))
  (pad A53 smd rect (at 1.835 -1.835) (size 1.83 1.83) (layers F.Cu F.Paste F.Mask)
    (solder_paste_margin_ratio -0.11))
  (pad A53 smd rect (at -1.835 1.835) (size 1.83 1.83) (layers F.Cu F.Paste F.Mask)
    (solder_paste_margin_ratio -0.11))
  (pad A53 smd rect (at -1.835 0) (size 1.83 1.84) (layers F.Cu F.Paste F.Mask)
    (solder_paste_margin_ratio -0.11))
  (pad A53 smd rect (at 0 0) (size 1.84 1.84) (layers F.Cu F.Paste F.Mask)
    (solder_paste_margin_ratio -0.11))
  (pad A53 smd rect (at 1.835 0) (size 1.83 1.84) (layers F.Cu F.Paste F.Mask)
    (solder_paste_margin_ratio -0.11))
  (pad A53 smd rect (at 0 1.835) (size 1.84 1.83) (layers F.Cu F.Paste F.Mask)
    (solder_paste_margin_ratio -0.11))
  (pad A53 smd rect (at 1.835 1.835) (size 1.83 1.83) (layers F.Cu F.Paste F.Mask)
    (solder_paste_margin_ratio -0.11))
  (pad A53 thru_hole circle (at 0.92 0.92) (size 0.5 0.5) (drill 0.2) (layers *.Cu))
  (pad A53 thru_hole circle (at -0.92 0.92) (size 0.5 0.5) (drill 0.2) (layers *.Cu))
  (pad A53 thru_hole circle (at -0.92 -0.92) (size 0.5 0.5) (drill 0.2) (layers *.Cu))
  (pad A53 thru_hole circle (at 0.92 -0.92) (size 0.5 0.5) (drill 0.2) (layers *.Cu))
  (pad A53 thru_hole circle (at 2.45 -0.92) (size 0.5 0.5) (drill 0.2) (layers *.Cu))
  (pad A53 thru_hole circle (at 2.45 0.92) (size 0.5 0.5) (drill 0.2) (layers *.Cu))
  (pad A53 thru_hole circle (at -2.45 0.92) (size 0.5 0.5) (drill 0.2) (layers *.Cu))
  (pad A53 thru_hole circle (at -2.45 -0.92) (size 0.5 0.5) (drill 0.2) (layers *.Cu))
  (pad A53 thru_hole circle (at 0.92 -2.45) (size 0.5 0.5) (drill 0.2) (layers *.Cu))
  (pad A53 thru_hole circle (at -0.92 -2.45) (size 0.5 0.5) (drill 0.2) (layers *.Cu))
  (pad A53 thru_hole circle (at -0.92 2.45) (size 0.5 0.5) (drill 0.2) (layers *.Cu))
  (pad A53 thru_hole circle (at 0.92 2.45) (size 0.5 0.5) (drill 0.2) (layers *.Cu))
  (model ${KICAD6_3DMODEL_DIR}/Package_DFN_QFN.3dshapes/Texas_WQFN-MR-100.wrl
    (at (xyz 0 0 0))
    (scale (xyz 1 1 1))
    (rotate (xyz 0 0 0))
  )
)
