(module Texas_R-PWQFN-N28_EP2.1x3.1mm (layer F.Cu) (tedit 5E11FE4E)
  (descr "QFN, 28 Pin (http://www.ti.com/lit/ds/symlink/tps51363.pdf#page=29), generated with kicad-footprint-generator ipc_noLead_generator.py")
  (tags "QFN NoLead")
  (attr smd)
  (fp_text reference REF** (at 0 -3.58) (layer F.SilkS)
    (effects (font (size 1 1) (thickness 0.15)))
  )
  (fp_text value Texas_R-PWQFN-N28_EP2.1x3.1mm (at 0 3.58) (layer F.Fab)
    (effects (font (size 1 1) (thickness 0.15)))
  )
  (fp_line (start 1.16 -2.36) (end 1.86 -2.36) (layer F.SilkS) (width 0.12))
  (fp_line (start 1.86 -2.36) (end 1.86 -1.96) (layer F.SilkS) (width 0.12))
  (fp_line (start -1.16 2.36) (end -1.86 2.36) (layer F.SilkS) (width 0.12))
  (fp_line (start -1.86 2.36) (end -1.86 1.96) (layer F.SilkS) (width 0.12))
  (fp_line (start 1.16 2.36) (end 1.86 2.36) (layer F.SilkS) (width 0.12))
  (fp_line (start 1.86 2.36) (end 1.86 1.96) (layer F.SilkS) (width 0.12))
  (fp_line (start -1.16 -2.36) (end -1.86 -2.36) (layer F.SilkS) (width 0.12))
  (fp_line (start -0.875 -2.25) (end 1.75 -2.25) (layer F.Fab) (width 0.1))
  (fp_line (start 1.75 -2.25) (end 1.75 2.25) (layer F.Fab) (width 0.1))
  (fp_line (start 1.75 2.25) (end -1.75 2.25) (layer F.Fab) (width 0.1))
  (fp_line (start -1.75 2.25) (end -1.75 -1.375) (layer F.Fab) (width 0.1))
  (fp_line (start -1.75 -1.375) (end -0.875 -2.25) (layer F.Fab) (width 0.1))
  (fp_line (start -2.38 -2.88) (end -2.38 2.88) (layer F.CrtYd) (width 0.05))
  (fp_line (start -2.38 2.88) (end 2.38 2.88) (layer F.CrtYd) (width 0.05))
  (fp_line (start 2.38 2.88) (end 2.38 -2.88) (layer F.CrtYd) (width 0.05))
  (fp_line (start 2.38 -2.88) (end -2.38 -2.88) (layer F.CrtYd) (width 0.05))
  (pad 1 smd roundrect (at -1.6875 -1.6) (size 0.875 0.2) (layers F.Cu F.Mask F.Paste) (roundrect_rratio 0.25))
  (pad 2 smd roundrect (at -1.6875 -1.2) (size 0.875 0.2) (layers F.Cu F.Mask F.Paste) (roundrect_rratio 0.25))
  (pad 3 smd roundrect (at -1.6875 -0.8) (size 0.875 0.2) (layers F.Cu F.Mask F.Paste) (roundrect_rratio 0.25))
  (pad 4 smd roundrect (at -1.6875 -0.4) (size 0.875 0.2) (layers F.Cu F.Mask F.Paste) (roundrect_rratio 0.25))
  (pad 5 smd roundrect (at -1.6875 0) (size 0.875 0.2) (layers F.Cu F.Mask F.Paste) (roundrect_rratio 0.25))
  (pad 6 smd roundrect (at -1.6875 0.4) (size 0.875 0.2) (layers F.Cu F.Mask F.Paste) (roundrect_rratio 0.25))
  (pad 7 smd roundrect (at -1.6875 0.8) (size 0.875 0.2) (layers F.Cu F.Mask F.Paste) (roundrect_rratio 0.25))
  (pad 8 smd roundrect (at -1.6875 1.2) (size 0.875 0.2) (layers F.Cu F.Mask F.Paste) (roundrect_rratio 0.25))
  (pad 9 smd roundrect (at -1.6875 1.6) (size 0.875 0.2) (layers F.Cu F.Mask F.Paste) (roundrect_rratio 0.25))
  (pad 10 smd roundrect (at -0.8 2.1875) (size 0.2 0.875) (layers F.Cu F.Mask F.Paste) (roundrect_rratio 0.25))
  (pad 11 smd roundrect (at -0.4 2.1875) (size 0.2 0.875) (layers F.Cu F.Mask F.Paste) (roundrect_rratio 0.25))
  (pad 12 smd roundrect (at 0 2.1875) (size 0.2 0.875) (layers F.Cu F.Mask F.Paste) (roundrect_rratio 0.25))
  (pad 13 smd roundrect (at 0.4 2.1875) (size 0.2 0.875) (layers F.Cu F.Mask F.Paste) (roundrect_rratio 0.25))
  (pad 14 smd roundrect (at 0.8 2.1875) (size 0.2 0.875) (layers F.Cu F.Mask F.Paste) (roundrect_rratio 0.25))
  (pad 15 smd roundrect (at 1.6875 1.6) (size 0.875 0.2) (layers F.Cu F.Mask F.Paste) (roundrect_rratio 0.25))
  (pad 16 smd roundrect (at 1.6875 1.2) (size 0.875 0.2) (layers F.Cu F.Mask F.Paste) (roundrect_rratio 0.25))
  (pad 17 smd roundrect (at 1.6875 0.8) (size 0.875 0.2) (layers F.Cu F.Mask F.Paste) (roundrect_rratio 0.25))
  (pad 18 smd roundrect (at 1.6875 0.4) (size 0.875 0.2) (layers F.Cu F.Mask F.Paste) (roundrect_rratio 0.25))
  (pad 19 smd roundrect (at 1.6875 0) (size 0.875 0.2) (layers F.Cu F.Mask F.Paste) (roundrect_rratio 0.25))
  (pad 20 smd roundrect (at 1.6875 -0.4) (size 0.875 0.2) (layers F.Cu F.Mask F.Paste) (roundrect_rratio 0.25))
  (pad 21 smd roundrect (at 1.6875 -0.8) (size 0.875 0.2) (layers F.Cu F.Mask F.Paste) (roundrect_rratio 0.25))
  (pad 22 smd roundrect (at 1.6875 -1.2) (size 0.875 0.2) (layers F.Cu F.Mask F.Paste) (roundrect_rratio 0.25))
  (pad 23 smd roundrect (at 1.6875 -1.6) (size 0.875 0.2) (layers F.Cu F.Mask F.Paste) (roundrect_rratio 0.25))
  (pad 24 smd roundrect (at 0.8 -2.1875) (size 0.2 0.875) (layers F.Cu F.Mask F.Paste) (roundrect_rratio 0.25))
  (pad 25 smd roundrect (at 0.4 -2.1875) (size 0.2 0.875) (layers F.Cu F.Mask F.Paste) (roundrect_rratio 0.25))
  (pad 26 smd roundrect (at 0 -2.1875) (size 0.2 0.875) (layers F.Cu F.Mask F.Paste) (roundrect_rratio 0.25))
  (pad 27 smd roundrect (at -0.4 -2.1875) (size 0.2 0.875) (layers F.Cu F.Mask F.Paste) (roundrect_rratio 0.25))
  (pad 28 smd roundrect (at -0.8 -2.1875) (size 0.2 0.875) (layers F.Cu F.Mask F.Paste) (roundrect_rratio 0.25))
  (pad 29 smd rect (at 0 0) (size 2.1 3.1) (layers F.Cu F.Mask))
  (pad "" smd roundrect (at -0.525 -0.775) (size 0.85 1.25) (layers F.Paste) (roundrect_rratio 0.25))
  (pad "" smd roundrect (at -0.525 0.775) (size 0.85 1.25) (layers F.Paste) (roundrect_rratio 0.25))
  (pad "" smd roundrect (at 0.525 -0.775) (size 0.85 1.25) (layers F.Paste) (roundrect_rratio 0.25))
  (pad "" smd roundrect (at 0.525 0.775) (size 0.85 1.25) (layers F.Paste) (roundrect_rratio 0.25))
  (fp_text user %R (at 0 0) (layer F.Fab)
    (effects (font (size 0.88 0.88) (thickness 0.13)))
  )
  (model ${KICAD6_3DMODEL_DIR}/Package_DFN_QFN.3dshapes/Texas_R-PWQFN-N28_EP2.1x3.1mm.wrl
    (at (xyz 0 0 0))
    (scale (xyz 1 1 1))
    (rotate (xyz 0 0 0))
  )
)