(module Texas_RGE0024H_EP2.7x2.7mm_ThermalVias (layer F.Cu) (tedit 5E11FE4E)
  (descr "Texas  QFN, 24 Pin (http://www.ti.com/lit/ds/symlink/tlc5971.pdf#page=39), generated with kicad-footprint-generator ipc_noLead_generator.py")
  (tags "Texas QFN NoLead")
  (attr smd)
  (fp_text reference REF** (at 0 -3.32) (layer F.SilkS)
    (effects (font (size 1 1) (thickness 0.15)))
  )
  (fp_text value Texas_RGE0024H_EP2.7x2.7mm_ThermalVias (at 0 3.32) (layer F.Fab)
    (effects (font (size 1 1) (thickness 0.15)))
  )
  (fp_line (start 1.635 -2.11) (end 2.11 -2.11) (layer F.SilkS) (width 0.12))
  (fp_line (start 2.11 -2.11) (end 2.11 -1.635) (layer F.SilkS) (width 0.12))
  (fp_line (start -1.635 2.11) (end -2.11 2.11) (layer F.SilkS) (width 0.12))
  (fp_line (start -2.11 2.11) (end -2.11 1.635) (layer F.SilkS) (width 0.12))
  (fp_line (start 1.635 2.11) (end 2.11 2.11) (layer F.SilkS) (width 0.12))
  (fp_line (start 2.11 2.11) (end 2.11 1.635) (layer F.SilkS) (width 0.12))
  (fp_line (start -1.635 -2.11) (end -2.11 -2.11) (layer F.SilkS) (width 0.12))
  (fp_line (start -1 -2) (end 2 -2) (layer F.Fab) (width 0.1))
  (fp_line (start 2 -2) (end 2 2) (layer F.Fab) (width 0.1))
  (fp_line (start 2 2) (end -2 2) (layer F.Fab) (width 0.1))
  (fp_line (start -2 2) (end -2 -1) (layer F.Fab) (width 0.1))
  (fp_line (start -2 -1) (end -1 -2) (layer F.Fab) (width 0.1))
  (fp_line (start -2.62 -2.62) (end -2.62 2.62) (layer F.CrtYd) (width 0.05))
  (fp_line (start -2.62 2.62) (end 2.62 2.62) (layer F.CrtYd) (width 0.05))
  (fp_line (start 2.62 2.62) (end 2.62 -2.62) (layer F.CrtYd) (width 0.05))
  (fp_line (start 2.62 -2.62) (end -2.62 -2.62) (layer F.CrtYd) (width 0.05))
  (pad 1 smd roundrect (at -1.9625 -1.25) (size 0.825 0.25) (layers F.Cu F.Mask F.Paste) (roundrect_rratio 0.25))
  (pad 2 smd roundrect (at -1.9625 -0.75) (size 0.825 0.25) (layers F.Cu F.Mask F.Paste) (roundrect_rratio 0.25))
  (pad 3 smd roundrect (at -1.9625 -0.25) (size 0.825 0.25) (layers F.Cu F.Mask F.Paste) (roundrect_rratio 0.25))
  (pad 4 smd roundrect (at -1.9625 0.25) (size 0.825 0.25) (layers F.Cu F.Mask F.Paste) (roundrect_rratio 0.25))
  (pad 5 smd roundrect (at -1.9625 0.75) (size 0.825 0.25) (layers F.Cu F.Mask F.Paste) (roundrect_rratio 0.25))
  (pad 6 smd roundrect (at -1.9625 1.25) (size 0.825 0.25) (layers F.Cu F.Mask F.Paste) (roundrect_rratio 0.25))
  (pad 7 smd roundrect (at -1.25 1.9625) (size 0.25 0.825) (layers F.Cu F.Mask F.Paste) (roundrect_rratio 0.25))
  (pad 8 smd roundrect (at -0.75 1.9625) (size 0.25 0.825) (layers F.Cu F.Mask F.Paste) (roundrect_rratio 0.25))
  (pad 9 smd roundrect (at -0.25 1.9625) (size 0.25 0.825) (layers F.Cu F.Mask F.Paste) (roundrect_rratio 0.25))
  (pad 10 smd roundrect (at 0.25 1.9625) (size 0.25 0.825) (layers F.Cu F.Mask F.Paste) (roundrect_rratio 0.25))
  (pad 11 smd roundrect (at 0.75 1.9625) (size 0.25 0.825) (layers F.Cu F.Mask F.Paste) (roundrect_rratio 0.25))
  (pad 12 smd roundrect (at 1.25 1.9625) (size 0.25 0.825) (layers F.Cu F.Mask F.Paste) (roundrect_rratio 0.25))
  (pad 13 smd roundrect (at 1.9625 1.25) (size 0.825 0.25) (layers F.Cu F.Mask F.Paste) (roundrect_rratio 0.25))
  (pad 14 smd roundrect (at 1.9625 0.75) (size 0.825 0.25) (layers F.Cu F.Mask F.Paste) (roundrect_rratio 0.25))
  (pad 15 smd roundrect (at 1.9625 0.25) (size 0.825 0.25) (layers F.Cu F.Mask F.Paste) (roundrect_rratio 0.25))
  (pad 16 smd roundrect (at 1.9625 -0.25) (size 0.825 0.25) (layers F.Cu F.Mask F.Paste) (roundrect_rratio 0.25))
  (pad 17 smd roundrect (at 1.9625 -0.75) (size 0.825 0.25) (layers F.Cu F.Mask F.Paste) (roundrect_rratio 0.25))
  (pad 18 smd roundrect (at 1.9625 -1.25) (size 0.825 0.25) (layers F.Cu F.Mask F.Paste) (roundrect_rratio 0.25))
  (pad 19 smd roundrect (at 1.25 -1.9625) (size 0.25 0.825) (layers F.Cu F.Mask F.Paste) (roundrect_rratio 0.25))
  (pad 20 smd roundrect (at 0.75 -1.9625) (size 0.25 0.825) (layers F.Cu F.Mask F.Paste) (roundrect_rratio 0.25))
  (pad 21 smd roundrect (at 0.25 -1.9625) (size 0.25 0.825) (layers F.Cu F.Mask F.Paste) (roundrect_rratio 0.25))
  (pad 22 smd roundrect (at -0.25 -1.9625) (size 0.25 0.825) (layers F.Cu F.Mask F.Paste) (roundrect_rratio 0.25))
  (pad 23 smd roundrect (at -0.75 -1.9625) (size 0.25 0.825) (layers F.Cu F.Mask F.Paste) (roundrect_rratio 0.25))
  (pad 24 smd roundrect (at -1.25 -1.9625) (size 0.25 0.825) (layers F.Cu F.Mask F.Paste) (roundrect_rratio 0.25))
  (pad 25 smd rect (at 0 0) (size 2.7 2.7) (layers F.Cu F.Mask))
  (pad 25 thru_hole circle (at -1.1 -1.1) (size 0.5 0.5) (drill 0.2) (layers *.Cu))
  (pad 25 thru_hole circle (at 0 -1.1) (size 0.5 0.5) (drill 0.2) (layers *.Cu))
  (pad 25 thru_hole circle (at 1.1 -1.1) (size 0.5 0.5) (drill 0.2) (layers *.Cu))
  (pad 25 thru_hole circle (at -1.1 0) (size 0.5 0.5) (drill 0.2) (layers *.Cu))
  (pad 25 thru_hole circle (at 0 0) (size 0.5 0.5) (drill 0.2) (layers *.Cu))
  (pad 25 thru_hole circle (at 1.1 0) (size 0.5 0.5) (drill 0.2) (layers *.Cu))
  (pad 25 thru_hole circle (at -1.1 1.1) (size 0.5 0.5) (drill 0.2) (layers *.Cu))
  (pad 25 thru_hole circle (at 0 1.1) (size 0.5 0.5) (drill 0.2) (layers *.Cu))
  (pad 25 thru_hole circle (at 1.1 1.1) (size 0.5 0.5) (drill 0.2) (layers *.Cu))
  (pad 25 smd rect (at 0 0) (size 2.7 2.7) (layers B.Cu))
  (pad "" smd roundrect (at -0.675 -0.675) (size 1.17 1.17) (layers F.Paste) (roundrect_rratio 0.213675))
  (pad "" smd roundrect (at -0.675 0.675) (size 1.17 1.17) (layers F.Paste) (roundrect_rratio 0.213675))
  (pad "" smd roundrect (at 0.675 -0.675) (size 1.17 1.17) (layers F.Paste) (roundrect_rratio 0.213675))
  (pad "" smd roundrect (at 0.675 0.675) (size 1.17 1.17) (layers F.Paste) (roundrect_rratio 0.213675))
  (fp_text user %R (at 0 0) (layer F.Fab)
    (effects (font (size 1 1) (thickness 0.15)))
  )
  (model ${KICAD6_3DMODEL_DIR}/Package_DFN_QFN.3dshapes/Texas_RGE0024H_EP2.7x2.7mm.wrl
    (at (xyz 0 0 0))
    (scale (xyz 1 1 1))
    (rotate (xyz 0 0 0))
  )
)