(module UQFN-28-1EP_4x4mm_P0.4mm_EP2.35x2.35mm_ThermalVias (layer F.Cu) (tedit 5DC5F6A7)
  (descr "UQFN, 28 Pin (http://ww1.microchip.com/downloads/en/PackagingSpec/00000049BQ.pdf#page=338), generated with kicad-footprint-generator ipc_noLead_generator.py")
  (tags "UQFN NoLead")
  (attr smd)
  (fp_text reference REF** (at 0 -3.3) (layer F.SilkS)
    (effects (font (size 1 1) (thickness 0.15)))
  )
  (fp_text value UQFN-28-1EP_4x4mm_P0.4mm_EP2.35x2.35mm_ThermalVias (at 0 3.3) (layer F.Fab)
    (effects (font (size 1 1) (thickness 0.15)))
  )
  (fp_line (start 1.56 -2.11) (end 2.11 -2.11) (layer F.SilkS) (width 0.12))
  (fp_line (start 2.11 -2.11) (end 2.11 -1.56) (layer F.SilkS) (width 0.12))
  (fp_line (start -1.56 2.11) (end -2.11 2.11) (layer F.SilkS) (width 0.12))
  (fp_line (start -2.11 2.11) (end -2.11 1.56) (layer F.SilkS) (width 0.12))
  (fp_line (start 1.56 2.11) (end 2.11 2.11) (layer F.SilkS) (width 0.12))
  (fp_line (start 2.11 2.11) (end 2.11 1.56) (layer F.SilkS) (width 0.12))
  (fp_line (start -1.56 -2.11) (end -2.11 -2.11) (layer F.SilkS) (width 0.12))
  (fp_line (start -1 -2) (end 2 -2) (layer F.Fab) (width 0.1))
  (fp_line (start 2 -2) (end 2 2) (layer F.Fab) (width 0.1))
  (fp_line (start 2 2) (end -2 2) (layer F.Fab) (width 0.1))
  (fp_line (start -2 2) (end -2 -1) (layer F.Fab) (width 0.1))
  (fp_line (start -2 -1) (end -1 -2) (layer F.Fab) (width 0.1))
  (fp_line (start -2.6 -2.6) (end -2.6 2.6) (layer F.CrtYd) (width 0.05))
  (fp_line (start -2.6 2.6) (end 2.6 2.6) (layer F.CrtYd) (width 0.05))
  (fp_line (start 2.6 2.6) (end 2.6 -2.6) (layer F.CrtYd) (width 0.05))
  (fp_line (start 2.6 -2.6) (end -2.6 -2.6) (layer F.CrtYd) (width 0.05))
  (pad 1 smd roundrect (at -1.9375 -1.2) (size 0.825 0.2) (layers F.Cu F.Mask F.Paste) (roundrect_rratio 0.25))
  (pad 2 smd roundrect (at -1.9375 -0.8) (size 0.825 0.2) (layers F.Cu F.Mask F.Paste) (roundrect_rratio 0.25))
  (pad 3 smd roundrect (at -1.9375 -0.4) (size 0.825 0.2) (layers F.Cu F.Mask F.Paste) (roundrect_rratio 0.25))
  (pad 4 smd roundrect (at -1.9375 0) (size 0.825 0.2) (layers F.Cu F.Mask F.Paste) (roundrect_rratio 0.25))
  (pad 5 smd roundrect (at -1.9375 0.4) (size 0.825 0.2) (layers F.Cu F.Mask F.Paste) (roundrect_rratio 0.25))
  (pad 6 smd roundrect (at -1.9375 0.8) (size 0.825 0.2) (layers F.Cu F.Mask F.Paste) (roundrect_rratio 0.25))
  (pad 7 smd roundrect (at -1.9375 1.2) (size 0.825 0.2) (layers F.Cu F.Mask F.Paste) (roundrect_rratio 0.25))
  (pad 8 smd roundrect (at -1.2 1.9375) (size 0.2 0.825) (layers F.Cu F.Mask F.Paste) (roundrect_rratio 0.25))
  (pad 9 smd roundrect (at -0.8 1.9375) (size 0.2 0.825) (layers F.Cu F.Mask F.Paste) (roundrect_rratio 0.25))
  (pad 10 smd roundrect (at -0.4 1.9375) (size 0.2 0.825) (layers F.Cu F.Mask F.Paste) (roundrect_rratio 0.25))
  (pad 11 smd roundrect (at 0 1.9375) (size 0.2 0.825) (layers F.Cu F.Mask F.Paste) (roundrect_rratio 0.25))
  (pad 12 smd roundrect (at 0.4 1.9375) (size 0.2 0.825) (layers F.Cu F.Mask F.Paste) (roundrect_rratio 0.25))
  (pad 13 smd roundrect (at 0.8 1.9375) (size 0.2 0.825) (layers F.Cu F.Mask F.Paste) (roundrect_rratio 0.25))
  (pad 14 smd roundrect (at 1.2 1.9375) (size 0.2 0.825) (layers F.Cu F.Mask F.Paste) (roundrect_rratio 0.25))
  (pad 15 smd roundrect (at 1.9375 1.2) (size 0.825 0.2) (layers F.Cu F.Mask F.Paste) (roundrect_rratio 0.25))
  (pad 16 smd roundrect (at 1.9375 0.8) (size 0.825 0.2) (layers F.Cu F.Mask F.Paste) (roundrect_rratio 0.25))
  (pad 17 smd roundrect (at 1.9375 0.4) (size 0.825 0.2) (layers F.Cu F.Mask F.Paste) (roundrect_rratio 0.25))
  (pad 18 smd roundrect (at 1.9375 0) (size 0.825 0.2) (layers F.Cu F.Mask F.Paste) (roundrect_rratio 0.25))
  (pad 19 smd roundrect (at 1.9375 -0.4) (size 0.825 0.2) (layers F.Cu F.Mask F.Paste) (roundrect_rratio 0.25))
  (pad 20 smd roundrect (at 1.9375 -0.8) (size 0.825 0.2) (layers F.Cu F.Mask F.Paste) (roundrect_rratio 0.25))
  (pad 21 smd roundrect (at 1.9375 -1.2) (size 0.825 0.2) (layers F.Cu F.Mask F.Paste) (roundrect_rratio 0.25))
  (pad 22 smd roundrect (at 1.2 -1.9375) (size 0.2 0.825) (layers F.Cu F.Mask F.Paste) (roundrect_rratio 0.25))
  (pad 23 smd roundrect (at 0.8 -1.9375) (size 0.2 0.825) (layers F.Cu F.Mask F.Paste) (roundrect_rratio 0.25))
  (pad 24 smd roundrect (at 0.4 -1.9375) (size 0.2 0.825) (layers F.Cu F.Mask F.Paste) (roundrect_rratio 0.25))
  (pad 25 smd roundrect (at 0 -1.9375) (size 0.2 0.825) (layers F.Cu F.Mask F.Paste) (roundrect_rratio 0.25))
  (pad 26 smd roundrect (at -0.4 -1.9375) (size 0.2 0.825) (layers F.Cu F.Mask F.Paste) (roundrect_rratio 0.25))
  (pad 27 smd roundrect (at -0.8 -1.9375) (size 0.2 0.825) (layers F.Cu F.Mask F.Paste) (roundrect_rratio 0.25))
  (pad 28 smd roundrect (at -1.2 -1.9375) (size 0.2 0.825) (layers F.Cu F.Mask F.Paste) (roundrect_rratio 0.25))
  (pad 29 smd rect (at 0 0) (size 2.35 2.35) (layers F.Cu F.Mask))
  (pad 29 thru_hole circle (at -0.925 -0.925) (size 0.5 0.5) (drill 0.2) (layers *.Cu))
  (pad 29 thru_hole circle (at 0 -0.925) (size 0.5 0.5) (drill 0.2) (layers *.Cu))
  (pad 29 thru_hole circle (at 0.925 -0.925) (size 0.5 0.5) (drill 0.2) (layers *.Cu))
  (pad 29 thru_hole circle (at -0.925 0) (size 0.5 0.5) (drill 0.2) (layers *.Cu))
  (pad 29 thru_hole circle (at 0 0) (size 0.5 0.5) (drill 0.2) (layers *.Cu))
  (pad 29 thru_hole circle (at 0.925 0) (size 0.5 0.5) (drill 0.2) (layers *.Cu))
  (pad 29 thru_hole circle (at -0.925 0.925) (size 0.5 0.5) (drill 0.2) (layers *.Cu))
  (pad 29 thru_hole circle (at 0 0.925) (size 0.5 0.5) (drill 0.2) (layers *.Cu))
  (pad 29 thru_hole circle (at 0.925 0.925) (size 0.5 0.5) (drill 0.2) (layers *.Cu))
  (pad 29 smd rect (at 0 0) (size 2.35 2.35) (layers B.Cu))
  (pad "" smd roundrect (at -0.59 -0.59) (size 0.98 0.98) (layers F.Paste) (roundrect_rratio 0.25))
  (pad "" smd roundrect (at -0.59 0.59) (size 0.98 0.98) (layers F.Paste) (roundrect_rratio 0.25))
  (pad "" smd roundrect (at 0.59 -0.59) (size 0.98 0.98) (layers F.Paste) (roundrect_rratio 0.25))
  (pad "" smd roundrect (at 0.59 0.59) (size 0.98 0.98) (layers F.Paste) (roundrect_rratio 0.25))
  (fp_text user %R (at 0 0) (layer F.Fab)
    (effects (font (size 1 1) (thickness 0.15)))
  )
  (model ${KICAD6_3DMODEL_DIR}/Package_DFN_QFN.3dshapes/UQFN-28-1EP_4x4mm_P0.4mm_EP2.35x2.35mm.wrl
    (at (xyz 0 0 0))
    (scale (xyz 1 1 1))
    (rotate (xyz 0 0 0))
  )
)