(module VQFN-16-1EP_3x3mm_P0.5mm_EP1.8x1.8mm_ThermalVias (layer F.Cu) (tedit 5DC5F6A8)
  (descr "VQFN, 16 Pin (https://www.st.com/resource/en/datasheet/stspin220.pdf), generated with kicad-footprint-generator ipc_noLead_generator.py")
  (tags "VQFN NoLead")
  (attr smd)
  (fp_text reference REF** (at 0 -2.82) (layer F.SilkS)
    (effects (font (size 1 1) (thickness 0.15)))
  )
  (fp_text value VQFN-16-1EP_3x3mm_P0.5mm_EP1.8x1.8mm_ThermalVias (at 0 2.82) (layer F.Fab)
    (effects (font (size 1 1) (thickness 0.15)))
  )
  (fp_line (start 1.135 -1.61) (end 1.61 -1.61) (layer F.SilkS) (width 0.12))
  (fp_line (start 1.61 -1.61) (end 1.61 -1.135) (layer F.SilkS) (width 0.12))
  (fp_line (start -1.135 1.61) (end -1.61 1.61) (layer F.SilkS) (width 0.12))
  (fp_line (start -1.61 1.61) (end -1.61 1.135) (layer F.SilkS) (width 0.12))
  (fp_line (start 1.135 1.61) (end 1.61 1.61) (layer F.SilkS) (width 0.12))
  (fp_line (start 1.61 1.61) (end 1.61 1.135) (layer F.SilkS) (width 0.12))
  (fp_line (start -1.135 -1.61) (end -1.61 -1.61) (layer F.SilkS) (width 0.12))
  (fp_line (start -0.75 -1.5) (end 1.5 -1.5) (layer F.Fab) (width 0.1))
  (fp_line (start 1.5 -1.5) (end 1.5 1.5) (layer F.Fab) (width 0.1))
  (fp_line (start 1.5 1.5) (end -1.5 1.5) (layer F.Fab) (width 0.1))
  (fp_line (start -1.5 1.5) (end -1.5 -0.75) (layer F.Fab) (width 0.1))
  (fp_line (start -1.5 -0.75) (end -0.75 -1.5) (layer F.Fab) (width 0.1))
  (fp_line (start -2.12 -2.12) (end -2.12 2.12) (layer F.CrtYd) (width 0.05))
  (fp_line (start -2.12 2.12) (end 2.12 2.12) (layer F.CrtYd) (width 0.05))
  (fp_line (start 2.12 2.12) (end 2.12 -2.12) (layer F.CrtYd) (width 0.05))
  (fp_line (start 2.12 -2.12) (end -2.12 -2.12) (layer F.CrtYd) (width 0.05))
  (pad 1 smd roundrect (at -1.4875 -0.75) (size 0.775 0.25) (layers F.Cu F.Mask F.Paste) (roundrect_rratio 0.25))
  (pad 2 smd roundrect (at -1.4875 -0.25) (size 0.775 0.25) (layers F.Cu F.Mask F.Paste) (roundrect_rratio 0.25))
  (pad 3 smd roundrect (at -1.4875 0.25) (size 0.775 0.25) (layers F.Cu F.Mask F.Paste) (roundrect_rratio 0.25))
  (pad 4 smd roundrect (at -1.4875 0.75) (size 0.775 0.25) (layers F.Cu F.Mask F.Paste) (roundrect_rratio 0.25))
  (pad 5 smd roundrect (at -0.75 1.4875) (size 0.25 0.775) (layers F.Cu F.Mask F.Paste) (roundrect_rratio 0.25))
  (pad 6 smd roundrect (at -0.25 1.4875) (size 0.25 0.775) (layers F.Cu F.Mask F.Paste) (roundrect_rratio 0.25))
  (pad 7 smd roundrect (at 0.25 1.4875) (size 0.25 0.775) (layers F.Cu F.Mask F.Paste) (roundrect_rratio 0.25))
  (pad 8 smd roundrect (at 0.75 1.4875) (size 0.25 0.775) (layers F.Cu F.Mask F.Paste) (roundrect_rratio 0.25))
  (pad 9 smd roundrect (at 1.4875 0.75) (size 0.775 0.25) (layers F.Cu F.Mask F.Paste) (roundrect_rratio 0.25))
  (pad 10 smd roundrect (at 1.4875 0.25) (size 0.775 0.25) (layers F.Cu F.Mask F.Paste) (roundrect_rratio 0.25))
  (pad 11 smd roundrect (at 1.4875 -0.25) (size 0.775 0.25) (layers F.Cu F.Mask F.Paste) (roundrect_rratio 0.25))
  (pad 12 smd roundrect (at 1.4875 -0.75) (size 0.775 0.25) (layers F.Cu F.Mask F.Paste) (roundrect_rratio 0.25))
  (pad 13 smd roundrect (at 0.75 -1.4875) (size 0.25 0.775) (layers F.Cu F.Mask F.Paste) (roundrect_rratio 0.25))
  (pad 14 smd roundrect (at 0.25 -1.4875) (size 0.25 0.775) (layers F.Cu F.Mask F.Paste) (roundrect_rratio 0.25))
  (pad 15 smd roundrect (at -0.25 -1.4875) (size 0.25 0.775) (layers F.Cu F.Mask F.Paste) (roundrect_rratio 0.25))
  (pad 16 smd roundrect (at -0.75 -1.4875) (size 0.25 0.775) (layers F.Cu F.Mask F.Paste) (roundrect_rratio 0.25))
  (pad 17 smd rect (at 0 0) (size 1.8 1.8) (layers F.Cu F.Mask))
  (pad 17 thru_hole circle (at -0.65 -0.65) (size 0.5 0.5) (drill 0.2) (layers *.Cu))
  (pad 17 thru_hole circle (at 0.65 -0.65) (size 0.5 0.5) (drill 0.2) (layers *.Cu))
  (pad 17 thru_hole circle (at -0.65 0.65) (size 0.5 0.5) (drill 0.2) (layers *.Cu))
  (pad 17 thru_hole circle (at 0.65 0.65) (size 0.5 0.5) (drill 0.2) (layers *.Cu))
  (pad 17 smd rect (at 0 0) (size 1.8 1.8) (layers B.Cu))
  (pad "" smd roundrect (at -0.45 -0.45) (size 0.78 0.78) (layers F.Paste) (roundrect_rratio 0.25))
  (pad "" smd roundrect (at -0.45 0.45) (size 0.78 0.78) (layers F.Paste) (roundrect_rratio 0.25))
  (pad "" smd roundrect (at 0.45 -0.45) (size 0.78 0.78) (layers F.Paste) (roundrect_rratio 0.25))
  (pad "" smd roundrect (at 0.45 0.45) (size 0.78 0.78) (layers F.Paste) (roundrect_rratio 0.25))
  (fp_text user %R (at 0 0) (layer F.Fab)
    (effects (font (size 0.75 0.75) (thickness 0.11)))
  )
  (model ${KICAD6_3DMODEL_DIR}/Package_DFN_QFN.3dshapes/VQFN-16-1EP_3x3mm_P0.5mm_EP1.8x1.8mm.wrl
    (at (xyz 0 0 0))
    (scale (xyz 1 1 1))
    (rotate (xyz 0 0 0))
  )
)