(module WDFN-8-1EP_2x2mm_P0.5mm_EP0.8x1.2mm (layer F.Cu) (tedit 5F5E3FEA)
  (descr "WDFN, 8 Pin (http://ww1.microchip.com/downloads/en/DeviceDoc/20005474E.pdf#page=25), generated with kicad-footprint-generator ipc_noLead_generator.py")
  (tags "WDFN NoLead")
  (attr smd)
  (fp_text reference REF** (at 0 -1.95) (layer F.SilkS)
    (effects (font (size 1 1) (thickness 0.15)))
  )
  (fp_text value WDFN-8-1EP_2x2mm_P0.5mm_EP0.8x1.2mm (at 0 1.95) (layer F.Fab)
    (effects (font (size 1 1) (thickness 0.15)))
  )
  (fp_line (start 0 -1.11) (end 1 -1.11) (layer F.SilkS) (width 0.12))
  (fp_line (start -1 1.11) (end 1 1.11) (layer F.SilkS) (width 0.12))
  (fp_line (start -0.5 -1) (end 1 -1) (layer F.Fab) (width 0.1))
  (fp_line (start 1 -1) (end 1 1) (layer F.Fab) (width 0.1))
  (fp_line (start 1 1) (end -1 1) (layer F.Fab) (width 0.1))
  (fp_line (start -1 1) (end -1 -0.5) (layer F.Fab) (width 0.1))
  (fp_line (start -1 -0.5) (end -0.5 -1) (layer F.Fab) (width 0.1))
  (fp_line (start -1.6 -1.25) (end -1.6 1.25) (layer F.CrtYd) (width 0.05))
  (fp_line (start -1.6 1.25) (end 1.6 1.25) (layer F.CrtYd) (width 0.05))
  (fp_line (start 1.6 1.25) (end 1.6 -1.25) (layer F.CrtYd) (width 0.05))
  (fp_line (start 1.6 -1.25) (end -1.6 -1.25) (layer F.CrtYd) (width 0.05))
  (pad 1 smd roundrect (at -1 -0.75) (size 0.7 0.25) (layers F.Cu F.Mask F.Paste) (roundrect_rratio 0.25))
  (pad 2 smd roundrect (at -1 -0.25) (size 0.7 0.25) (layers F.Cu F.Mask F.Paste) (roundrect_rratio 0.25))
  (pad 3 smd roundrect (at -1 0.25) (size 0.7 0.25) (layers F.Cu F.Mask F.Paste) (roundrect_rratio 0.25))
  (pad 4 smd roundrect (at -1 0.75) (size 0.7 0.25) (layers F.Cu F.Mask F.Paste) (roundrect_rratio 0.25))
  (pad 5 smd roundrect (at 1 0.75) (size 0.7 0.25) (layers F.Cu F.Mask F.Paste) (roundrect_rratio 0.25))
  (pad 6 smd roundrect (at 1 0.25) (size 0.7 0.25) (layers F.Cu F.Mask F.Paste) (roundrect_rratio 0.25))
  (pad 7 smd roundrect (at 1 -0.25) (size 0.7 0.25) (layers F.Cu F.Mask F.Paste) (roundrect_rratio 0.25))
  (pad 8 smd roundrect (at 1 -0.75) (size 0.7 0.25) (layers F.Cu F.Mask F.Paste) (roundrect_rratio 0.25))
  (pad 9 smd rect (at 0 0) (size 0.8 1.2) (layers F.Cu F.Mask))
  (pad "" smd roundrect (at -0.2 -0.3) (size 0.32 0.48) (layers F.Paste) (roundrect_rratio 0.25))
  (pad "" smd roundrect (at -0.2 0.3) (size 0.32 0.48) (layers F.Paste) (roundrect_rratio 0.25))
  (pad "" smd roundrect (at 0.2 -0.3) (size 0.32 0.48) (layers F.Paste) (roundrect_rratio 0.25))
  (pad "" smd roundrect (at 0.2 0.3) (size 0.32 0.48) (layers F.Paste) (roundrect_rratio 0.25))
  (fp_text user %R (at 0 0) (layer F.Fab)
    (effects (font (size 0.5 0.5) (thickness 0.08)))
  )
  (model ${KICAD6_3DMODEL_DIR}/Package_DFN_QFN.3dshapes/WDFN-8-1EP_2x2mm_P0.5mm_EP0.8x1.2mm.wrl
    (at (xyz 0 0 0))
    (scale (xyz 1 1 1))
    (rotate (xyz 0 0 0))
  )
)