(module WDFN-8-1EP_3x2mm_P0.5mm_EP1.3x1.4mm (layer F.Cu) (tedit 5DC5F54E)
  (descr "WDFN, 8 Pin (http://ww1.microchip.com/downloads/en/DeviceDoc/8L_TDFN_2x3_MNY_C04-0129E-MNY.pdf), generated with kicad-footprint-generator ipc_noLead_generator.py")
  (tags "WDFN NoLead")
  (attr smd)
  (fp_text reference REF** (at 0 -1.95) (layer F.SilkS)
    (effects (font (size 1 1) (thickness 0.15)))
  )
  (fp_text value WDFN-8-1EP_3x2mm_P0.5mm_EP1.3x1.4mm (at 0 1.95) (layer F.Fab)
    (effects (font (size 1 1) (thickness 0.15)))
  )
  (fp_line (start 0 -1.11) (end 1.5 -1.11) (layer F.SilkS) (width 0.12))
  (fp_line (start -1.5 1.11) (end 1.5 1.11) (layer F.SilkS) (width 0.12))
  (fp_line (start -1 -1) (end 1.5 -1) (layer F.Fab) (width 0.1))
  (fp_line (start 1.5 -1) (end 1.5 1) (layer F.Fab) (width 0.1))
  (fp_line (start 1.5 1) (end -1.5 1) (layer F.Fab) (width 0.1))
  (fp_line (start -1.5 1) (end -1.5 -0.5) (layer F.Fab) (width 0.1))
  (fp_line (start -1.5 -0.5) (end -1 -1) (layer F.Fab) (width 0.1))
  (fp_line (start -2.1 -1.25) (end -2.1 1.25) (layer F.CrtYd) (width 0.05))
  (fp_line (start -2.1 1.25) (end 2.1 1.25) (layer F.CrtYd) (width 0.05))
  (fp_line (start 2.1 1.25) (end 2.1 -1.25) (layer F.CrtYd) (width 0.05))
  (fp_line (start 2.1 -1.25) (end -2.1 -1.25) (layer F.CrtYd) (width 0.05))
  (pad 1 smd roundrect (at -1.4625 -0.75) (size 0.775 0.25) (layers F.Cu F.Mask F.Paste) (roundrect_rratio 0.25))
  (pad 2 smd roundrect (at -1.4625 -0.25) (size 0.775 0.25) (layers F.Cu F.Mask F.Paste) (roundrect_rratio 0.25))
  (pad 3 smd roundrect (at -1.4625 0.25) (size 0.775 0.25) (layers F.Cu F.Mask F.Paste) (roundrect_rratio 0.25))
  (pad 4 smd roundrect (at -1.4625 0.75) (size 0.775 0.25) (layers F.Cu F.Mask F.Paste) (roundrect_rratio 0.25))
  (pad 5 smd roundrect (at 1.4625 0.75) (size 0.775 0.25) (layers F.Cu F.Mask F.Paste) (roundrect_rratio 0.25))
  (pad 6 smd roundrect (at 1.4625 0.25) (size 0.775 0.25) (layers F.Cu F.Mask F.Paste) (roundrect_rratio 0.25))
  (pad 7 smd roundrect (at 1.4625 -0.25) (size 0.775 0.25) (layers F.Cu F.Mask F.Paste) (roundrect_rratio 0.25))
  (pad 8 smd roundrect (at 1.4625 -0.75) (size 0.775 0.25) (layers F.Cu F.Mask F.Paste) (roundrect_rratio 0.25))
  (pad 9 smd rect (at 0 0) (size 1.3 1.4) (layers F.Cu F.Mask))
  (pad "" smd roundrect (at -0.325 -0.35) (size 0.52 0.56) (layers F.Paste) (roundrect_rratio 0.25))
  (pad "" smd roundrect (at -0.325 0.35) (size 0.52 0.56) (layers F.Paste) (roundrect_rratio 0.25))
  (pad "" smd roundrect (at 0.325 -0.35) (size 0.52 0.56) (layers F.Paste) (roundrect_rratio 0.25))
  (pad "" smd roundrect (at 0.325 0.35) (size 0.52 0.56) (layers F.Paste) (roundrect_rratio 0.25))
  (fp_text user %R (at 0 0) (layer F.Fab)
    (effects (font (size 0.75 0.75) (thickness 0.11)))
  )
  (model ${KICAD6_3DMODEL_DIR}/Package_DFN_QFN.3dshapes/WDFN-8-1EP_3x2mm_P0.5mm_EP1.3x1.4mm.wrl
    (at (xyz 0 0 0))
    (scale (xyz 1 1 1))
    (rotate (xyz 0 0 0))
  )
)