(module WQFN-20-1EP_3x3mm_P0.4mm_EP1.7x1.7mm_ThermalVias (layer F.Cu) (tedit 5F6C2701)
  (descr "WQFN, 20 Pin (https://www.ti.com/lit/ds/symlink/ts3ds10224.pdf#page=29), generated with kicad-footprint-generator ipc_noLead_generator.py")
  (tags "WQFN NoLead")
  (attr smd)
  (fp_text reference REF** (at 0 -2.82) (layer F.SilkS)
    (effects (font (size 1 1) (thickness 0.15)))
  )
  (fp_text value WQFN-20-1EP_3x3mm_P0.4mm_EP1.7x1.7mm_ThermalVias (at 0 2.82) (layer F.Fab)
    (effects (font (size 1 1) (thickness 0.15)))
  )
  (fp_line (start 1.16 -1.61) (end 1.61 -1.61) (layer F.SilkS) (width 0.12))
  (fp_line (start 1.61 -1.61) (end 1.61 -1.16) (layer F.SilkS) (width 0.12))
  (fp_line (start -1.16 1.61) (end -1.61 1.61) (layer F.SilkS) (width 0.12))
  (fp_line (start -1.61 1.61) (end -1.61 1.16) (layer F.SilkS) (width 0.12))
  (fp_line (start 1.16 1.61) (end 1.61 1.61) (layer F.SilkS) (width 0.12))
  (fp_line (start 1.61 1.61) (end 1.61 1.16) (layer F.SilkS) (width 0.12))
  (fp_line (start -1.16 -1.61) (end -1.61 -1.61) (layer F.SilkS) (width 0.12))
  (fp_line (start -0.75 -1.5) (end 1.5 -1.5) (layer F.Fab) (width 0.1))
  (fp_line (start 1.5 -1.5) (end 1.5 1.5) (layer F.Fab) (width 0.1))
  (fp_line (start 1.5 1.5) (end -1.5 1.5) (layer F.Fab) (width 0.1))
  (fp_line (start -1.5 1.5) (end -1.5 -0.75) (layer F.Fab) (width 0.1))
  (fp_line (start -1.5 -0.75) (end -0.75 -1.5) (layer F.Fab) (width 0.1))
  (fp_line (start -2.12 -2.12) (end -2.12 2.12) (layer F.CrtYd) (width 0.05))
  (fp_line (start -2.12 2.12) (end 2.12 2.12) (layer F.CrtYd) (width 0.05))
  (fp_line (start 2.12 2.12) (end 2.12 -2.12) (layer F.CrtYd) (width 0.05))
  (fp_line (start 2.12 -2.12) (end -2.12 -2.12) (layer F.CrtYd) (width 0.05))
  (pad 1 smd roundrect (at -1.4625 -0.8) (size 0.825 0.2) (layers F.Cu F.Mask F.Paste) (roundrect_rratio 0.25))
  (pad 2 smd roundrect (at -1.4625 -0.4) (size 0.825 0.2) (layers F.Cu F.Mask F.Paste) (roundrect_rratio 0.25))
  (pad 3 smd roundrect (at -1.4625 0) (size 0.825 0.2) (layers F.Cu F.Mask F.Paste) (roundrect_rratio 0.25))
  (pad 4 smd roundrect (at -1.4625 0.4) (size 0.825 0.2) (layers F.Cu F.Mask F.Paste) (roundrect_rratio 0.25))
  (pad 5 smd roundrect (at -1.4625 0.8) (size 0.825 0.2) (layers F.Cu F.Mask F.Paste) (roundrect_rratio 0.25))
  (pad 6 smd roundrect (at -0.8 1.4625) (size 0.2 0.825) (layers F.Cu F.Mask F.Paste) (roundrect_rratio 0.25))
  (pad 7 smd roundrect (at -0.4 1.4625) (size 0.2 0.825) (layers F.Cu F.Mask F.Paste) (roundrect_rratio 0.25))
  (pad 8 smd roundrect (at 0 1.4625) (size 0.2 0.825) (layers F.Cu F.Mask F.Paste) (roundrect_rratio 0.25))
  (pad 9 smd roundrect (at 0.4 1.4625) (size 0.2 0.825) (layers F.Cu F.Mask F.Paste) (roundrect_rratio 0.25))
  (pad 10 smd roundrect (at 0.8 1.4625) (size 0.2 0.825) (layers F.Cu F.Mask F.Paste) (roundrect_rratio 0.25))
  (pad 11 smd roundrect (at 1.4625 0.8) (size 0.825 0.2) (layers F.Cu F.Mask F.Paste) (roundrect_rratio 0.25))
  (pad 12 smd roundrect (at 1.4625 0.4) (size 0.825 0.2) (layers F.Cu F.Mask F.Paste) (roundrect_rratio 0.25))
  (pad 13 smd roundrect (at 1.4625 0) (size 0.825 0.2) (layers F.Cu F.Mask F.Paste) (roundrect_rratio 0.25))
  (pad 14 smd roundrect (at 1.4625 -0.4) (size 0.825 0.2) (layers F.Cu F.Mask F.Paste) (roundrect_rratio 0.25))
  (pad 15 smd roundrect (at 1.4625 -0.8) (size 0.825 0.2) (layers F.Cu F.Mask F.Paste) (roundrect_rratio 0.25))
  (pad 16 smd roundrect (at 0.8 -1.4625) (size 0.2 0.825) (layers F.Cu F.Mask F.Paste) (roundrect_rratio 0.25))
  (pad 17 smd roundrect (at 0.4 -1.4625) (size 0.2 0.825) (layers F.Cu F.Mask F.Paste) (roundrect_rratio 0.25))
  (pad 18 smd roundrect (at 0 -1.4625) (size 0.2 0.825) (layers F.Cu F.Mask F.Paste) (roundrect_rratio 0.25))
  (pad 19 smd roundrect (at -0.4 -1.4625) (size 0.2 0.825) (layers F.Cu F.Mask F.Paste) (roundrect_rratio 0.25))
  (pad 20 smd roundrect (at -0.8 -1.4625) (size 0.2 0.825) (layers F.Cu F.Mask F.Paste) (roundrect_rratio 0.25))
  (pad 21 smd rect (at 0 0) (size 1.7 1.7) (layers F.Cu F.Mask))
  (pad 21 thru_hole circle (at -0.5 -0.5) (size 0.6 0.6) (drill 0.3) (layers *.Cu))
  (pad 21 thru_hole circle (at 0.5 -0.5) (size 0.6 0.6) (drill 0.3) (layers *.Cu))
  (pad 21 thru_hole circle (at -0.5 0.5) (size 0.6 0.6) (drill 0.3) (layers *.Cu))
  (pad 21 thru_hole circle (at 0.5 0.5) (size 0.6 0.6) (drill 0.3) (layers *.Cu))
  (pad 21 smd rect (at 0 0) (size 1.6 1.6) (layers B.Cu))
  (pad "" smd roundrect (at -0.425 -0.425) (size 0.69 0.69) (layers F.Paste) (roundrect_rratio 0.25))
  (pad "" smd roundrect (at -0.425 0.425) (size 0.69 0.69) (layers F.Paste) (roundrect_rratio 0.25))
  (pad "" smd roundrect (at 0.425 -0.425) (size 0.69 0.69) (layers F.Paste) (roundrect_rratio 0.25))
  (pad "" smd roundrect (at 0.425 0.425) (size 0.69 0.69) (layers F.Paste) (roundrect_rratio 0.25))
  (fp_text user %R (at 0 0) (layer F.Fab)
    (effects (font (size 0.75 0.75) (thickness 0.11)))
  )
  (model ${KICAD6_3DMODEL_DIR}/Package_DFN_QFN.3dshapes/WQFN-20-1EP_3x3mm_P0.4mm_EP1.7x1.7mm.wrl
    (at (xyz 0 0 0))
    (scale (xyz 1 1 1))
    (rotate (xyz 0 0 0))
  )
)