(module LED_Rectangular_W3.9mm_H1.8mm (layer F.Cu) (tedit 587A3A7B)
  (descr "LED_Rectangular, Rectangular,  Rectangular size 3.9x1.8mm^2, 2 pins, http://www.kingbright.com/attachments/file/psearch/000/00/00/L-2774GD(Ver.7B).pdf")
  (tags "LED_Rectangular Rectangular  Rectangular size 3.9x1.8mm^2 2 pins")
  (fp_text reference REF** (at 1.27 -1.935) (layer F.SilkS)
    (effects (font (size 1 1) (thickness 0.15)))
  )
  (fp_text value LED_Rectangular_W3.9mm_H1.8mm (at 1.27 1.935) (layer F.Fab)
    (effects (font (size 1 1) (thickness 0.15)))
  )
  (fp_line (start -0.68 -0.875) (end -0.68 0.875) (layer F.Fab) (width 0.1))
  (fp_line (start -0.68 0.875) (end 3.22 0.875) (layer F.Fab) (width 0.1))
  (fp_line (start 3.22 0.875) (end 3.22 -0.875) (layer F.Fab) (width 0.1))
  (fp_line (start 3.22 -0.875) (end -0.68 -0.875) (layer F.Fab) (width 0.1))
  (fp_line (start 1.08 -0.935) (end 1.811 -0.935) (layer F.SilkS) (width 0.12))
  (fp_line (start 3.27 -0.935) (end 3.28 -0.935) (layer F.SilkS) (width 0.12))
  (fp_line (start 1.08 0.935) (end 1.811 0.935) (layer F.SilkS) (width 0.12))
  (fp_line (start 3.27 0.935) (end 3.28 0.935) (layer F.SilkS) (width 0.12))
  (fp_line (start 3.28 -0.935) (end 3.28 -0.825) (layer F.SilkS) (width 0.12))
  (fp_line (start 3.28 0.825) (end 3.28 0.935) (layer F.SilkS) (width 0.12))
  (fp_line (start -1.15 -1.2) (end -1.15 1.2) (layer F.CrtYd) (width 0.05))
  (fp_line (start -1.15 1.2) (end 3.7 1.2) (layer F.CrtYd) (width 0.05))
  (fp_line (start 3.7 1.2) (end 3.7 -1.2) (layer F.CrtYd) (width 0.05))
  (fp_line (start 3.7 -1.2) (end -1.15 -1.2) (layer F.CrtYd) (width 0.05))
  (pad 1 thru_hole rect (at 0 0) (size 1.8 1.8) (drill 0.9) (layers *.Cu *.Mask))
  (pad 2 thru_hole circle (at 2.54 0) (size 1.8 1.8) (drill 0.9) (layers *.Cu *.Mask))
  (model ${KICAD6_3DMODEL_DIR}/LED_THT.3dshapes/LED_Rectangular_W3.9mm_H1.8mm.wrl
    (at (xyz 0 0 0))
    (scale (xyz 1 1 1))
    (rotate (xyz 0 0 0))
  )
)