(module LED_D1.8mm_W1.8mm_H2.4mm_Horizontal_O6.35mm_Z1.6mm (layer F.Cu) (tedit 5880A863)
  (descr "LED, ,  diameter 1.8mm size 1.8x2.4mm^2 z-position of LED center 1.6mm, 2 pins,  diameter 1.8mm size 1.8x2.4mm^2 z-position of LED center 1.6mm, 2 pins,  diameter 1.8mm size 1.8x2.4mm^2 z-position of LED center 1.6mm, 2 pins")
  (tags "LED   diameter 1.8mm size 1.8x2.4mm^2 z-position of LED center 1.6mm 2 pins  diameter 1.8mm size 1.8x2.4mm^2 z-position of LED center 1.6mm 2 pins  diameter 1.8mm size 1.8x2.4mm^2 z-position of LED center 1.6mm 2 pins")
  (fp_text reference REF** (at 1.27 -1.96) (layer F.SilkS)
    (effects (font (size 1 1) (thickness 0.15)))
  )
  (fp_text value LED_D1.8mm_W1.8mm_H2.4mm_Horizontal_O6.35mm_Z1.6mm (at 1.27 10.41) (layer F.Fab)
    (effects (font (size 1 1) (thickness 0.15)))
  )
  (fp_line (start -0.38 6.35) (end -0.38 7.95) (layer F.Fab) (width 0.1))
  (fp_line (start -0.38 7.95) (end 2.92 7.95) (layer F.Fab) (width 0.1))
  (fp_line (start 2.92 7.95) (end 2.92 6.35) (layer F.Fab) (width 0.1))
  (fp_line (start 2.92 6.35) (end -0.38 6.35) (layer F.Fab) (width 0.1))
  (fp_line (start 0.37 7.95) (end 0.37 9.35) (layer F.Fab) (width 0.1))
  (fp_line (start 0.37 9.35) (end 2.17 9.35) (layer F.Fab) (width 0.1))
  (fp_line (start 2.17 9.35) (end 2.17 7.95) (layer F.Fab) (width 0.1))
  (fp_line (start 2.17 7.95) (end 0.37 7.95) (layer F.Fab) (width 0.1))
  (fp_line (start 0 0) (end 0 6.35) (layer F.Fab) (width 0.1))
  (fp_line (start 0 6.35) (end 0 6.35) (layer F.Fab) (width 0.1))
  (fp_line (start 0 6.35) (end 0 0) (layer F.Fab) (width 0.1))
  (fp_line (start 0 0) (end 0 0) (layer F.Fab) (width 0.1))
  (fp_line (start 2.54 0) (end 2.54 6.35) (layer F.Fab) (width 0.1))
  (fp_line (start 2.54 6.35) (end 2.54 6.35) (layer F.Fab) (width 0.1))
  (fp_line (start 2.54 6.35) (end 2.54 0) (layer F.Fab) (width 0.1))
  (fp_line (start 2.54 0) (end 2.54 0) (layer F.Fab) (width 0.1))
  (fp_line (start -0.44 6.29) (end -0.44 8.01) (layer F.SilkS) (width 0.12))
  (fp_line (start -0.44 8.01) (end 2.98 8.01) (layer F.SilkS) (width 0.12))
  (fp_line (start 2.98 8.01) (end 2.98 6.29) (layer F.SilkS) (width 0.12))
  (fp_line (start 2.98 6.29) (end -0.44 6.29) (layer F.SilkS) (width 0.12))
  (fp_line (start -0.32 6.29) (end -0.32 8.01) (layer F.SilkS) (width 0.12))
  (fp_line (start -0.2 6.29) (end -0.2 8.01) (layer F.SilkS) (width 0.12))
  (fp_line (start 0.31 8.01) (end 0.31 9.41) (layer F.SilkS) (width 0.12))
  (fp_line (start 0.31 9.41) (end 2.23 9.41) (layer F.SilkS) (width 0.12))
  (fp_line (start 2.23 9.41) (end 2.23 8.01) (layer F.SilkS) (width 0.12))
  (fp_line (start 2.23 8.01) (end 0.31 8.01) (layer F.SilkS) (width 0.12))
  (fp_line (start 0 1.08) (end 0 6.29) (layer F.SilkS) (width 0.12))
  (fp_line (start 0 6.29) (end 0 6.29) (layer F.SilkS) (width 0.12))
  (fp_line (start 0 6.29) (end 0 1.08) (layer F.SilkS) (width 0.12))
  (fp_line (start 0 1.08) (end 0 1.08) (layer F.SilkS) (width 0.12))
  (fp_line (start 2.54 1.08) (end 2.54 6.29) (layer F.SilkS) (width 0.12))
  (fp_line (start 2.54 6.29) (end 2.54 6.29) (layer F.SilkS) (width 0.12))
  (fp_line (start 2.54 6.29) (end 2.54 1.08) (layer F.SilkS) (width 0.12))
  (fp_line (start 2.54 1.08) (end 2.54 1.08) (layer F.SilkS) (width 0.12))
  (fp_line (start -1.25 -1.25) (end -1.25 9.7) (layer F.CrtYd) (width 0.05))
  (fp_line (start -1.25 9.7) (end 3.75 9.7) (layer F.CrtYd) (width 0.05))
  (fp_line (start 3.75 9.7) (end 3.75 -1.25) (layer F.CrtYd) (width 0.05))
  (fp_line (start 3.75 -1.25) (end -1.25 -1.25) (layer F.CrtYd) (width 0.05))
  (pad 1 thru_hole rect (at 0 0) (size 1.8 1.8) (drill 0.9) (layers *.Cu *.Mask))
  (pad 2 thru_hole circle (at 2.54 0) (size 1.8 1.8) (drill 0.9) (layers *.Cu *.Mask))
  (model ${KICAD6_3DMODEL_DIR}/LED_THT.3dshapes/LED_D1.8mm_W1.8mm_H2.4mm_Horizontal_O6.35mm_Z1.6mm.wrl
    (at (xyz 0 0 0))
    (scale (xyz 1 1 1))
    (rotate (xyz 0 0 0))
  )
)