(module LED_BL-FL7680RGB (layer F.Cu) (tedit 59F6ACD6)
  (descr "'Piranha' RGB LED, through hole, common anode, 7.62x7.62mm, BGRA pin order, https://cdn-shop.adafruit.com/datasheets/BL-FL7680RGB.pdf")
  (tags "RGB LED Piranha Super-Flux BetLux")
  (fp_text reference REF** (at 2.54 -2.27) (layer F.SilkS)
    (effects (font (size 1 1) (thickness 0.15)))
  )
  (fp_text value LED_BL-FL7680RGB (at 2.54 7.35) (layer F.Fab)
    (effects (font (size 1 1) (thickness 0.15)))
  )
  (fp_line (start -0.02 -1.27) (end 6.35 -1.27) (layer F.Fab) (width 0.1))
  (fp_line (start 6.35 -1.27) (end 6.35 6.35) (layer F.Fab) (width 0.1))
  (fp_line (start 6.35 6.35) (end -1.27 6.35) (layer F.Fab) (width 0.1))
  (fp_line (start -1.27 6.35) (end -1.27 -0.02) (layer F.Fab) (width 0.1))
  (fp_line (start -1.27 -0.02) (end -0.02 -1.27) (layer F.Fab) (width 0.1))
  (fp_line (start -1.435 -1.435) (end -1.435 6.515) (layer F.SilkS) (width 0.12))
  (fp_line (start -1.435 6.515) (end 6.515 6.515) (layer F.SilkS) (width 0.12))
  (fp_line (start 6.515 6.515) (end 6.515 -1.435) (layer F.SilkS) (width 0.12))
  (fp_line (start 6.515 -1.435) (end -1.435 -1.435) (layer F.SilkS) (width 0.12))
  (fp_line (start -1.675 -0.185) (end -1.675 -1.675) (layer F.SilkS) (width 0.12))
  (fp_line (start -1.675 -1.675) (end -0.185 -1.675) (layer F.SilkS) (width 0.12))
  (fp_line (start -1.52 -1.52) (end -1.52 6.6) (layer F.CrtYd) (width 0.05))
  (fp_line (start -1.52 6.6) (end 6.6 6.6) (layer F.CrtYd) (width 0.05))
  (fp_line (start 6.6 6.6) (end 6.6 -1.52) (layer F.CrtYd) (width 0.05))
  (fp_line (start 6.6 -1.52) (end -1.52 -1.52) (layer F.CrtYd) (width 0.05))
  (pad 1 thru_hole rect (at 0 0) (size 2.35 2.35) (drill 1.35) (layers *.Cu *.Mask))
  (pad 2 thru_hole circle (at 0 5.08) (size 2.35 2.35) (drill 1.35) (layers *.Cu *.Mask))
  (pad 4 thru_hole circle (at 5.08 0) (size 2.35 2.35) (drill 1.35) (layers *.Cu *.Mask))
  (pad 3 thru_hole circle (at 5.08 5.08) (size 2.35 2.35) (drill 1.35) (layers *.Cu *.Mask))
  (fp_text user %R (at 2.54 2.54) (layer F.Fab)
    (effects (font (size 1 1) (thickness 0.15)))
  )
  (model ${KICAD6_3DMODEL_DIR}/LED_THT.3dshapes/LED_BL-FL7680RGB.wrl
    (at (xyz 0 0 0))
    (scale (xyz 1 1 1))
    (rotate (xyz 0 0 0))
  )
)