(module LED_D3.0mm_Horizontal_O6.35mm_Z10.0mm (layer F.Cu) (tedit 5880A862)
  (descr "LED, diameter 3.0mm z-position of LED center 2.0mm, 2 pins, diameter 3.0mm z-position of LED center 2.0mm, 2 pins, diameter 3.0mm z-position of LED center 2.0mm, 2 pins, diameter 3.0mm z-position of LED center 6.0mm, 2 pins, diameter 3.0mm z-position of LED center 6.0mm, 2 pins, diameter 3.0mm z-position of LED center 6.0mm, 2 pins, diameter 3.0mm z-position of LED center 10.0mm, 2 pins, diameter 3.0mm z-position of LED center 10.0mm, 2 pins, diameter 3.0mm z-position of LED center 10.0mm, 2 pins")
  (tags "LED diameter 3.0mm z-position of LED center 2.0mm 2 pins diameter 3.0mm z-position of LED center 2.0mm 2 pins diameter 3.0mm z-position of LED center 2.0mm 2 pins diameter 3.0mm z-position of LED center 6.0mm 2 pins diameter 3.0mm z-position of LED center 6.0mm 2 pins diameter 3.0mm z-position of LED center 6.0mm 2 pins diameter 3.0mm z-position of LED center 10.0mm 2 pins diameter 3.0mm z-position of LED center 10.0mm 2 pins diameter 3.0mm z-position of LED center 10.0mm 2 pins")
  (fp_text reference REF** (at 1.27 -1.96) (layer F.SilkS)
    (effects (font (size 1 1) (thickness 0.15)))
  )
  (fp_text value LED_D3.0mm_Horizontal_O6.35mm_Z10.0mm (at 1.27 12.71) (layer F.Fab)
    (effects (font (size 1 1) (thickness 0.15)))
  )
  (fp_arc (start 1.27 10.15) (end -0.23 10.15) (angle -180.0) (layer F.Fab) (width 0.1))
  (fp_arc (start 1.27 10.15) (end -0.29 10.15) (angle -180.0) (layer F.SilkS) (width 0.12))
  (fp_line (start -0.23 6.35) (end -0.23 10.15) (layer F.Fab) (width 0.1))
  (fp_line (start 2.77 6.35) (end 2.77 10.15) (layer F.Fab) (width 0.1))
  (fp_line (start -0.23 6.35) (end 2.77 6.35) (layer F.Fab) (width 0.1))
  (fp_line (start 3.17 6.35) (end 3.17 7.35) (layer F.Fab) (width 0.1))
  (fp_line (start 3.17 7.35) (end 2.77 7.35) (layer F.Fab) (width 0.1))
  (fp_line (start 2.77 7.35) (end 2.77 6.35) (layer F.Fab) (width 0.1))
  (fp_line (start 2.77 6.35) (end 3.17 6.35) (layer F.Fab) (width 0.1))
  (fp_line (start 0 0) (end 0 6.35) (layer F.Fab) (width 0.1))
  (fp_line (start 0 6.35) (end 0 6.35) (layer F.Fab) (width 0.1))
  (fp_line (start 0 6.35) (end 0 0) (layer F.Fab) (width 0.1))
  (fp_line (start 0 0) (end 0 0) (layer F.Fab) (width 0.1))
  (fp_line (start 2.54 0) (end 2.54 6.35) (layer F.Fab) (width 0.1))
  (fp_line (start 2.54 6.35) (end 2.54 6.35) (layer F.Fab) (width 0.1))
  (fp_line (start 2.54 6.35) (end 2.54 0) (layer F.Fab) (width 0.1))
  (fp_line (start 2.54 0) (end 2.54 0) (layer F.Fab) (width 0.1))
  (fp_line (start -0.29 6.29) (end -0.29 10.15) (layer F.SilkS) (width 0.12))
  (fp_line (start 2.83 6.29) (end 2.83 10.15) (layer F.SilkS) (width 0.12))
  (fp_line (start -0.29 6.29) (end 2.83 6.29) (layer F.SilkS) (width 0.12))
  (fp_line (start 3.23 6.29) (end 3.23 7.41) (layer F.SilkS) (width 0.12))
  (fp_line (start 3.23 7.41) (end 2.83 7.41) (layer F.SilkS) (width 0.12))
  (fp_line (start 2.83 7.41) (end 2.83 6.29) (layer F.SilkS) (width 0.12))
  (fp_line (start 2.83 6.29) (end 3.23 6.29) (layer F.SilkS) (width 0.12))
  (fp_line (start 0 1.08) (end 0 6.29) (layer F.SilkS) (width 0.12))
  (fp_line (start 0 6.29) (end 0 6.29) (layer F.SilkS) (width 0.12))
  (fp_line (start 0 6.29) (end 0 1.08) (layer F.SilkS) (width 0.12))
  (fp_line (start 0 1.08) (end 0 1.08) (layer F.SilkS) (width 0.12))
  (fp_line (start 2.54 1.08) (end 2.54 6.29) (layer F.SilkS) (width 0.12))
  (fp_line (start 2.54 6.29) (end 2.54 6.29) (layer F.SilkS) (width 0.12))
  (fp_line (start 2.54 6.29) (end 2.54 1.08) (layer F.SilkS) (width 0.12))
  (fp_line (start 2.54 1.08) (end 2.54 1.08) (layer F.SilkS) (width 0.12))
  (fp_line (start -1.25 -1.25) (end -1.25 12) (layer F.CrtYd) (width 0.05))
  (fp_line (start -1.25 12) (end 3.75 12) (layer F.CrtYd) (width 0.05))
  (fp_line (start 3.75 12) (end 3.75 -1.25) (layer F.CrtYd) (width 0.05))
  (fp_line (start 3.75 -1.25) (end -1.25 -1.25) (layer F.CrtYd) (width 0.05))
  (pad 1 thru_hole rect (at 0 0) (size 1.8 1.8) (drill 0.9) (layers *.Cu *.Mask))
  (pad 2 thru_hole circle (at 2.54 0) (size 1.8 1.8) (drill 0.9) (layers *.Cu *.Mask))
  (model ${KICAD6_3DMODEL_DIR}/LED_THT.3dshapes/LED_D3.0mm_Horizontal_O6.35mm_Z10.0mm.wrl
    (at (xyz 0 0 0))
    (scale (xyz 1 1 1))
    (rotate (xyz 0 0 0))
  )
)