(module LED_D5.0mm-4_RGB_Wide_Pins (layer F.Cu) (tedit 5F45987C)
  (descr "LED, diameter 5.0mm, 4 pins, WP154A4, https://www.kingbright.com/attachments/file/psearch/000/00/00/L-154A4SUREQBFZGEW(Ver.11A).pdf")
  (tags "LED diameter 5.0mm 2 pins diameter 5.0mm 3 pins diameter 5.0mm 4 pins RGB RGBLED")
  (fp_text reference REF** (at 3.2385 -3.96) (layer F.SilkS)
    (effects (font (size 1 1) (thickness 0.15)))
  )
  (fp_text value LED_D5.0mm-4_RGB_Wide_Pins (at 3.2385 3.96) (layer F.Fab)
    (effects (font (size 1 1) (thickness 0.15)))
  )
  (fp_circle (center 3.2385 0) (end 5.7385 0) (layer F.Fab) (width 0.1))
  (fp_line (start 0.7385 -1.469694) (end 0.7385 1.469694) (layer F.Fab) (width 0.1))
  (fp_line (start 0.6785 -1.545) (end 0.6785 -1.08) (layer F.SilkS) (width 0.12))
  (fp_line (start 0.6785 1.08) (end 0.6785 1.545) (layer F.SilkS) (width 0.12))
  (fp_line (start -1.08 -3.25) (end -1.08 3.25) (layer F.CrtYd) (width 0.05))
  (fp_line (start -1.08 3.25) (end 7.56 3.25) (layer F.CrtYd) (width 0.05))
  (fp_line (start 7.56 3.25) (end 7.56 -3.25) (layer F.CrtYd) (width 0.05))
  (fp_line (start 7.56 -3.25) (end -1.08 -3.25) (layer F.CrtYd) (width 0.05))
  (fp_arc (start 3.2385 0) (end 0.7385 -1.469694) (angle 299.1) (layer F.Fab) (width 0.1))
  (fp_arc (start 3.2385 0) (end 0.6785 -1.54483) (angle 127.7) (layer F.SilkS) (width 0.12))
  (fp_arc (start 3.2385 0) (end 0.6785 1.54483) (angle -127.7) (layer F.SilkS) (width 0.12))
  (fp_arc (start 3.2385 0) (end 0.983816 -1.08) (angle 128.8) (layer F.SilkS) (width 0.12))
  (fp_arc (start 3.2385 0) (end 0.983816 1.08) (angle -128.8) (layer F.SilkS) (width 0.12))
  (fp_text user %R (at 3.2385 -3.96) (layer F.Fab)
    (effects (font (size 1 1) (thickness 0.15)))
  )
  (pad 1 thru_hole rect (at 0 0) (size 1.8 1.8) (drill 0.9) (layers *.Cu *.Mask))
  (pad 2 thru_hole circle (at 2.159 0) (size 1.8 1.8) (drill 0.9) (layers *.Cu *.Mask))
  (pad 3 thru_hole circle (at 4.318 0) (size 1.8 1.8) (drill 0.9) (layers *.Cu *.Mask))
  (pad 4 thru_hole circle (at 6.477 0) (size 1.8 1.8) (drill 0.9) (layers *.Cu *.Mask))
  (model ${KICAD6_3DMODEL_DIR}/LED_THT.3dshapes/LED_D5.0mm-4_RGB_Wide_Pins.wrl
    (at (xyz 0 0 0))
    (scale (xyz 1 1 1))
    (rotate (xyz 0 0 0))
  )
)
