(module LED_D5.0mm_FlatTop (layer F.Cu) (tedit 5880A862)
  (descr "LED, Round, FlatTop, diameter 5.0mm, 2 pins, http://www.kingbright.com/attachments/file/psearch/000/00/00/L-483GDT(Ver.15B).pdf")
  (tags "LED Round FlatTop diameter 5.0mm 2 pins")
  (fp_text reference REF** (at 1.27 -4.01) (layer F.SilkS)
    (effects (font (size 1 1) (thickness 0.15)))
  )
  (fp_text value LED_D5.0mm_FlatTop (at 1.27 4.01) (layer F.Fab)
    (effects (font (size 1 1) (thickness 0.15)))
  )
  (fp_arc (start 1.27 0) (end -1.23 -1.566046) (angle 295.9) (layer F.Fab) (width 0.1))
  (fp_arc (start 1.27 0) (end -1.29 -1.639512) (angle 147.4) (layer F.SilkS) (width 0.12))
  (fp_arc (start 1.27 0) (end -1.29 1.639512) (angle -147.4) (layer F.SilkS) (width 0.12))
  (fp_circle (center 1.27 0) (end 3.77 0) (layer F.Fab) (width 0.1))
  (fp_circle (center 1.27 0) (end 3.77 0) (layer F.SilkS) (width 0.12))
  (fp_line (start -1.23 -1.566046) (end -1.23 1.566046) (layer F.Fab) (width 0.1))
  (fp_line (start -1.29 -1.64) (end -1.29 1.64) (layer F.SilkS) (width 0.12))
  (fp_line (start -2 -3.3) (end -2 3.3) (layer F.CrtYd) (width 0.05))
  (fp_line (start -2 3.3) (end 4.55 3.3) (layer F.CrtYd) (width 0.05))
  (fp_line (start 4.55 3.3) (end 4.55 -3.3) (layer F.CrtYd) (width 0.05))
  (fp_line (start 4.55 -3.3) (end -2 -3.3) (layer F.CrtYd) (width 0.05))
  (pad 1 thru_hole rect (at 0 0) (size 1.8 1.8) (drill 0.9) (layers *.Cu *.Mask))
  (pad 2 thru_hole circle (at 2.54 0) (size 1.8 1.8) (drill 0.9) (layers *.Cu *.Mask))
  (model ${KICAD6_3DMODEL_DIR}/LED_THT.3dshapes/LED_D5.0mm_FlatTop.wrl
    (at (xyz 0 0 0))
    (scale (xyz 1 1 1))
    (rotate (xyz 0 0 0))
  )
)