(module LED_D1.8mm_W1.8mm_H2.4mm_Horizontal_O3.81mm_Z4.9mm (layer F.Cu) (tedit 5880A863)
  (descr "LED, ,  diameter 1.8mm size 1.8x2.4mm^2 z-position of LED center 1.6mm, 2 pins,  diameter 1.8mm size 1.8x2.4mm^2 z-position of LED center 1.6mm, 2 pins,  diameter 1.8mm size 1.8x2.4mm^2 z-position of LED center 1.6mm, 2 pins,  diameter 1.8mm size 1.8x2.4mm^2 z-position of LED center 4.9mm, 2 pins,  diameter 1.8mm size 1.8x2.4mm^2 z-position of LED center 4.9mm, 2 pins")
  (tags "LED   diameter 1.8mm size 1.8x2.4mm^2 z-position of LED center 1.6mm 2 pins  diameter 1.8mm size 1.8x2.4mm^2 z-position of LED center 1.6mm 2 pins  diameter 1.8mm size 1.8x2.4mm^2 z-position of LED center 1.6mm 2 pins  diameter 1.8mm size 1.8x2.4mm^2 z-position of LED center 4.9mm 2 pins  diameter 1.8mm size 1.8x2.4mm^2 z-position of LED center 4.9mm 2 pins")
  (fp_text reference REF** (at 1.27 -1.96) (layer F.SilkS)
    (effects (font (size 1 1) (thickness 0.15)))
  )
  (fp_text value LED_D1.8mm_W1.8mm_H2.4mm_Horizontal_O3.81mm_Z4.9mm (at 1.27 7.87) (layer F.Fab)
    (effects (font (size 1 1) (thickness 0.15)))
  )
  (fp_line (start -0.38 3.81) (end -0.38 5.41) (layer F.Fab) (width 0.1))
  (fp_line (start -0.38 5.41) (end 2.92 5.41) (layer F.Fab) (width 0.1))
  (fp_line (start 2.92 5.41) (end 2.92 3.81) (layer F.Fab) (width 0.1))
  (fp_line (start 2.92 3.81) (end -0.38 3.81) (layer F.Fab) (width 0.1))
  (fp_line (start 0.37 5.41) (end 0.37 6.81) (layer F.Fab) (width 0.1))
  (fp_line (start 0.37 6.81) (end 2.17 6.81) (layer F.Fab) (width 0.1))
  (fp_line (start 2.17 6.81) (end 2.17 5.41) (layer F.Fab) (width 0.1))
  (fp_line (start 2.17 5.41) (end 0.37 5.41) (layer F.Fab) (width 0.1))
  (fp_line (start 0 0) (end 0 3.81) (layer F.Fab) (width 0.1))
  (fp_line (start 0 3.81) (end 0 3.81) (layer F.Fab) (width 0.1))
  (fp_line (start 0 3.81) (end 0 0) (layer F.Fab) (width 0.1))
  (fp_line (start 0 0) (end 0 0) (layer F.Fab) (width 0.1))
  (fp_line (start 2.54 0) (end 2.54 3.81) (layer F.Fab) (width 0.1))
  (fp_line (start 2.54 3.81) (end 2.54 3.81) (layer F.Fab) (width 0.1))
  (fp_line (start 2.54 3.81) (end 2.54 0) (layer F.Fab) (width 0.1))
  (fp_line (start 2.54 0) (end 2.54 0) (layer F.Fab) (width 0.1))
  (fp_line (start -0.44 3.75) (end -0.44 5.47) (layer F.SilkS) (width 0.12))
  (fp_line (start -0.44 5.47) (end 2.98 5.47) (layer F.SilkS) (width 0.12))
  (fp_line (start 2.98 5.47) (end 2.98 3.75) (layer F.SilkS) (width 0.12))
  (fp_line (start 2.98 3.75) (end -0.44 3.75) (layer F.SilkS) (width 0.12))
  (fp_line (start -0.32 3.75) (end -0.32 5.47) (layer F.SilkS) (width 0.12))
  (fp_line (start -0.2 3.75) (end -0.2 5.47) (layer F.SilkS) (width 0.12))
  (fp_line (start 0.31 5.47) (end 0.31 6.87) (layer F.SilkS) (width 0.12))
  (fp_line (start 0.31 6.87) (end 2.23 6.87) (layer F.SilkS) (width 0.12))
  (fp_line (start 2.23 6.87) (end 2.23 5.47) (layer F.SilkS) (width 0.12))
  (fp_line (start 2.23 5.47) (end 0.31 5.47) (layer F.SilkS) (width 0.12))
  (fp_line (start 0 1.08) (end 0 3.75) (layer F.SilkS) (width 0.12))
  (fp_line (start 0 3.75) (end 0 3.75) (layer F.SilkS) (width 0.12))
  (fp_line (start 0 3.75) (end 0 1.08) (layer F.SilkS) (width 0.12))
  (fp_line (start 0 1.08) (end 0 1.08) (layer F.SilkS) (width 0.12))
  (fp_line (start 2.54 1.08) (end 2.54 3.75) (layer F.SilkS) (width 0.12))
  (fp_line (start 2.54 3.75) (end 2.54 3.75) (layer F.SilkS) (width 0.12))
  (fp_line (start 2.54 3.75) (end 2.54 1.08) (layer F.SilkS) (width 0.12))
  (fp_line (start 2.54 1.08) (end 2.54 1.08) (layer F.SilkS) (width 0.12))
  (fp_line (start -1.25 -1.25) (end -1.25 7.15) (layer F.CrtYd) (width 0.05))
  (fp_line (start -1.25 7.15) (end 3.75 7.15) (layer F.CrtYd) (width 0.05))
  (fp_line (start 3.75 7.15) (end 3.75 -1.25) (layer F.CrtYd) (width 0.05))
  (fp_line (start 3.75 -1.25) (end -1.25 -1.25) (layer F.CrtYd) (width 0.05))
  (pad 1 thru_hole rect (at 0 0) (size 1.8 1.8) (drill 0.9) (layers *.Cu *.Mask))
  (pad 2 thru_hole circle (at 2.54 0) (size 1.8 1.8) (drill 0.9) (layers *.Cu *.Mask))
  (model ${KICAD6_3DMODEL_DIR}/LED_THT.3dshapes/LED_D1.8mm_W1.8mm_H2.4mm_Horizontal_O3.81mm_Z4.9mm.wrl
    (at (xyz 0 0 0))
    (scale (xyz 1 1 1))
    (rotate (xyz 0 0 0))
  )
)