(module LED_D8.0mm-3 (layer F.Cu) (tedit 587A3A7B)
  (descr "LED, diameter 8.0mm, 2 pins, diameter 8.0mm, 3 pins")
  (tags "LED diameter 8.0mm 2 pins diameter 8.0mm 3 pins")
  (fp_text reference REF** (at 2.54 -5.56) (layer F.SilkS)
    (effects (font (size 1 1) (thickness 0.15)))
  )
  (fp_text value LED_D8.0mm-3 (at 2.54 5.56) (layer F.Fab)
    (effects (font (size 1 1) (thickness 0.15)))
  )
  (fp_arc (start 2.54 0) (end -1.46 -2.061553) (angle 305.5) (layer F.Fab) (width 0.1))
  (fp_arc (start 2.54 0) (end -1.52 -2.141145) (angle 152.2) (layer F.SilkS) (width 0.12))
  (fp_arc (start 2.54 0) (end -1.52 2.141145) (angle -152.2) (layer F.SilkS) (width 0.12))
  (fp_circle (center 2.54 0) (end 6.54 0) (layer F.Fab) (width 0.1))
  (fp_circle (center 2.54 0) (end 6.54 0) (layer F.SilkS) (width 0.12))
  (fp_line (start -1.46 -2.061553) (end -1.46 2.061553) (layer F.Fab) (width 0.1))
  (fp_line (start -1.52 -2.142) (end -1.52 2.142) (layer F.SilkS) (width 0.12))
  (fp_line (start -2.3 -4.85) (end -2.3 4.85) (layer F.CrtYd) (width 0.05))
  (fp_line (start -2.3 4.85) (end 7.35 4.85) (layer F.CrtYd) (width 0.05))
  (fp_line (start 7.35 4.85) (end 7.35 -4.85) (layer F.CrtYd) (width 0.05))
  (fp_line (start 7.35 -4.85) (end -2.3 -4.85) (layer F.CrtYd) (width 0.05))
  (pad 1 thru_hole rect (at 0 0) (size 1.8 1.8) (drill 0.9) (layers *.Cu *.Mask))
  (pad 2 thru_hole circle (at 2.54 0) (size 1.8 1.8) (drill 0.9) (layers *.Cu *.Mask))
  (pad 3 thru_hole circle (at 5.08 0) (size 1.8 1.8) (drill 0.9) (layers *.Cu *.Mask))
  (model ${KICAD6_3DMODEL_DIR}/LED_THT.3dshapes/LED_D8.0mm-3.wrl
    (at (xyz 0 0 0))
    (scale (xyz 1 1 1))
    (rotate (xyz 0 0 0))
  )
)