(module LED_D5.0mm_Horizontal_O6.35mm_Z9.0mm (layer F.Cu) (tedit 5880A863)
  (descr "LED, diameter 5.0mm z-position of LED center 3.0mm, 2 pins, diameter 5.0mm z-position of LED center 3.0mm, 2 pins, diameter 5.0mm z-position of LED center 3.0mm, 2 pins, diameter 5.0mm z-position of LED center 9.0mm, 2 pins, diameter 5.0mm z-position of LED center 9.0mm, 2 pins, diameter 5.0mm z-position of LED center 9.0mm, 2 pins")
  (tags "LED diameter 5.0mm z-position of LED center 3.0mm 2 pins diameter 5.0mm z-position of LED center 3.0mm 2 pins diameter 5.0mm z-position of LED center 3.0mm 2 pins diameter 5.0mm z-position of LED center 9.0mm 2 pins diameter 5.0mm z-position of LED center 9.0mm 2 pins diameter 5.0mm z-position of LED center 9.0mm 2 pins")
  (fp_text reference REF** (at 1.27 -1.96) (layer F.SilkS)
    (effects (font (size 1 1) (thickness 0.15)))
  )
  (fp_text value LED_D5.0mm_Horizontal_O6.35mm_Z9.0mm (at 1.27 16.01) (layer F.Fab)
    (effects (font (size 1 1) (thickness 0.15)))
  )
  (fp_arc (start 1.27 12.45) (end -1.23 12.45) (angle -180.0) (layer F.Fab) (width 0.1))
  (fp_arc (start 1.27 12.45) (end -1.29 12.45) (angle -180.0) (layer F.SilkS) (width 0.12))
  (fp_line (start -1.23 6.35) (end -1.23 12.45) (layer F.Fab) (width 0.1))
  (fp_line (start 3.77 6.35) (end 3.77 12.45) (layer F.Fab) (width 0.1))
  (fp_line (start -1.23 6.35) (end 3.77 6.35) (layer F.Fab) (width 0.1))
  (fp_line (start 4.17 6.35) (end 4.17 7.35) (layer F.Fab) (width 0.1))
  (fp_line (start 4.17 7.35) (end 3.77 7.35) (layer F.Fab) (width 0.1))
  (fp_line (start 3.77 7.35) (end 3.77 6.35) (layer F.Fab) (width 0.1))
  (fp_line (start 3.77 6.35) (end 4.17 6.35) (layer F.Fab) (width 0.1))
  (fp_line (start 0 0) (end 0 6.35) (layer F.Fab) (width 0.1))
  (fp_line (start 0 6.35) (end 0 6.35) (layer F.Fab) (width 0.1))
  (fp_line (start 0 6.35) (end 0 0) (layer F.Fab) (width 0.1))
  (fp_line (start 0 0) (end 0 0) (layer F.Fab) (width 0.1))
  (fp_line (start 2.54 0) (end 2.54 6.35) (layer F.Fab) (width 0.1))
  (fp_line (start 2.54 6.35) (end 2.54 6.35) (layer F.Fab) (width 0.1))
  (fp_line (start 2.54 6.35) (end 2.54 0) (layer F.Fab) (width 0.1))
  (fp_line (start 2.54 0) (end 2.54 0) (layer F.Fab) (width 0.1))
  (fp_line (start -1.29 6.29) (end -1.29 12.45) (layer F.SilkS) (width 0.12))
  (fp_line (start 3.83 6.29) (end 3.83 12.45) (layer F.SilkS) (width 0.12))
  (fp_line (start -1.29 6.29) (end 3.83 6.29) (layer F.SilkS) (width 0.12))
  (fp_line (start 4.23 6.29) (end 4.23 7.41) (layer F.SilkS) (width 0.12))
  (fp_line (start 4.23 7.41) (end 3.83 7.41) (layer F.SilkS) (width 0.12))
  (fp_line (start 3.83 7.41) (end 3.83 6.29) (layer F.SilkS) (width 0.12))
  (fp_line (start 3.83 6.29) (end 4.23 6.29) (layer F.SilkS) (width 0.12))
  (fp_line (start 0 1.08) (end 0 6.29) (layer F.SilkS) (width 0.12))
  (fp_line (start 0 6.29) (end 0 6.29) (layer F.SilkS) (width 0.12))
  (fp_line (start 0 6.29) (end 0 1.08) (layer F.SilkS) (width 0.12))
  (fp_line (start 0 1.08) (end 0 1.08) (layer F.SilkS) (width 0.12))
  (fp_line (start 2.54 1.08) (end 2.54 6.29) (layer F.SilkS) (width 0.12))
  (fp_line (start 2.54 6.29) (end 2.54 6.29) (layer F.SilkS) (width 0.12))
  (fp_line (start 2.54 6.29) (end 2.54 1.08) (layer F.SilkS) (width 0.12))
  (fp_line (start 2.54 1.08) (end 2.54 1.08) (layer F.SilkS) (width 0.12))
  (fp_line (start -1.95 -1.25) (end -1.95 15.3) (layer F.CrtYd) (width 0.05))
  (fp_line (start -1.95 15.3) (end 4.5 15.3) (layer F.CrtYd) (width 0.05))
  (fp_line (start 4.5 15.3) (end 4.5 -1.25) (layer F.CrtYd) (width 0.05))
  (fp_line (start 4.5 -1.25) (end -1.95 -1.25) (layer F.CrtYd) (width 0.05))
  (pad 1 thru_hole rect (at 0 0) (size 1.8 1.8) (drill 0.9) (layers *.Cu *.Mask))
  (pad 2 thru_hole circle (at 2.54 0) (size 1.8 1.8) (drill 0.9) (layers *.Cu *.Mask))
  (model ${KICAD6_3DMODEL_DIR}/LED_THT.3dshapes/LED_D5.0mm_Horizontal_O6.35mm_Z9.0mm.wrl
    (at (xyz 0 0 0))
    (scale (xyz 1 1 1))
    (rotate (xyz 0 0 0))
  )
)