(module LED_Rectangular_W5.0mm_H5.0mm (layer F.Cu) (tedit 587A3A7B)
  (descr "LED_Rectangular, Rectangular,  Rectangular size 5.0x5.0mm^2, 2 pins, http://www.kingbright.com/attachments/file/psearch/000/00/00/L-169XCGDK(Ver.9B).pdf")
  (tags "LED_Rectangular Rectangular  Rectangular size 5.0x5.0mm^2 2 pins")
  (fp_text reference REF** (at 1.27 -3.56) (layer F.SilkS)
    (effects (font (size 1 1) (thickness 0.15)))
  )
  (fp_text value LED_Rectangular_W5.0mm_H5.0mm (at 1.27 3.56) (layer F.Fab)
    (effects (font (size 1 1) (thickness 0.15)))
  )
  (fp_line (start -1.23 -2.5) (end -1.23 2.5) (layer F.Fab) (width 0.1))
  (fp_line (start -1.23 2.5) (end 3.77 2.5) (layer F.Fab) (width 0.1))
  (fp_line (start 3.77 2.5) (end 3.77 -2.5) (layer F.Fab) (width 0.1))
  (fp_line (start 3.77 -2.5) (end -1.23 -2.5) (layer F.Fab) (width 0.1))
  (fp_line (start -1.29 -2.56) (end 3.83 -2.56) (layer F.SilkS) (width 0.12))
  (fp_line (start -1.29 2.56) (end 3.83 2.56) (layer F.SilkS) (width 0.12))
  (fp_line (start -1.29 -2.56) (end -1.29 2.56) (layer F.SilkS) (width 0.12))
  (fp_line (start 3.83 -2.56) (end 3.83 2.56) (layer F.SilkS) (width 0.12))
  (fp_line (start -1.17 -2.56) (end -1.17 2.56) (layer F.SilkS) (width 0.12))
  (fp_line (start -1.051 -2.56) (end -1.051 -1.08) (layer F.SilkS) (width 0.12))
  (fp_line (start -1.051 1.08) (end -1.051 2.56) (layer F.SilkS) (width 0.12))
  (fp_line (start -1.55 -2.85) (end -1.55 2.85) (layer F.CrtYd) (width 0.05))
  (fp_line (start -1.55 2.85) (end 4.1 2.85) (layer F.CrtYd) (width 0.05))
  (fp_line (start 4.1 2.85) (end 4.1 -2.85) (layer F.CrtYd) (width 0.05))
  (fp_line (start 4.1 -2.85) (end -1.55 -2.85) (layer F.CrtYd) (width 0.05))
  (pad 1 thru_hole rect (at 0 0) (size 1.8 1.8) (drill 0.9) (layers *.Cu *.Mask))
  (pad 2 thru_hole circle (at 2.54 0) (size 1.8 1.8) (drill 0.9) (layers *.Cu *.Mask))
  (model ${KICAD6_3DMODEL_DIR}/LED_THT.3dshapes/LED_Rectangular_W5.0mm_H5.0mm.wrl
    (at (xyz 0 0 0))
    (scale (xyz 1 1 1))
    (rotate (xyz 0 0 0))
  )
)