(module LED_D3.0mm-3 (layer F.Cu) (tedit 587A3A7B)
  (descr "LED, diameter 3.0mm, 2 pins, diameter 3.0mm, 3 pins, http://www.kingbright.com/attachments/file/psearch/000/00/00/L-3VSURKCGKC(Ver.8A).pdf")
  (tags "LED diameter 3.0mm 2 pins diameter 3.0mm 3 pins")
  (fp_text reference REF** (at 2.54 -2.96) (layer F.SilkS)
    (effects (font (size 1 1) (thickness 0.15)))
  )
  (fp_text value LED_D3.0mm-3 (at 2.54 2.96) (layer F.Fab)
    (effects (font (size 1 1) (thickness 0.15)))
  )
  (fp_arc (start 2.54 0) (end 1.04 -1.16619) (angle 284.3) (layer F.Fab) (width 0.1))
  (fp_arc (start 2.54 0) (end 0.98 -1.235516) (angle 108.8) (layer F.SilkS) (width 0.12))
  (fp_arc (start 2.54 0) (end 0.98 1.235516) (angle -108.8) (layer F.SilkS) (width 0.12))
  (fp_arc (start 2.54 0) (end 1.499039 -1.08) (angle 87.9) (layer F.SilkS) (width 0.12))
  (fp_arc (start 2.54 0) (end 1.499039 1.08) (angle -87.9) (layer F.SilkS) (width 0.12))
  (fp_circle (center 2.54 0) (end 4.04 0) (layer F.Fab) (width 0.1))
  (fp_line (start 1.04 -1.16619) (end 1.04 1.16619) (layer F.Fab) (width 0.1))
  (fp_line (start 0.98 -1.236) (end 0.98 -1.08) (layer F.SilkS) (width 0.12))
  (fp_line (start 0.98 1.08) (end 0.98 1.236) (layer F.SilkS) (width 0.12))
  (fp_line (start -1.15 -2.25) (end -1.15 2.25) (layer F.CrtYd) (width 0.05))
  (fp_line (start -1.15 2.25) (end 6.25 2.25) (layer F.CrtYd) (width 0.05))
  (fp_line (start 6.25 2.25) (end 6.25 -2.25) (layer F.CrtYd) (width 0.05))
  (fp_line (start 6.25 -2.25) (end -1.15 -2.25) (layer F.CrtYd) (width 0.05))
  (pad 1 thru_hole rect (at 0 0) (size 1.8 1.8) (drill 0.9) (layers *.Cu *.Mask))
  (pad 2 thru_hole circle (at 2.54 0) (size 1.8 1.8) (drill 0.9) (layers *.Cu *.Mask))
  (pad 3 thru_hole circle (at 5.08 0) (size 1.8 1.8) (drill 0.9) (layers *.Cu *.Mask))
  (model ${KICAD6_3DMODEL_DIR}/LED_THT.3dshapes/LED_D3.0mm-3.wrl
    (at (xyz 0 0 0))
    (scale (xyz 1 1 1))
    (rotate (xyz 0 0 0))
  )
)