(module Banana_Jack_3Pin (layer F.Cu) (tedit 5A1AB217)
  (descr "Triple banana socket, footprint - 3 x 6mm drills")
  (tags "banana socket")
  (fp_text reference REF** (at 7.75 -6.25) (layer F.SilkS)
    (effects (font (size 1 1) (thickness 0.15)))
  )
  (fp_text value Banana_Jack_3Pin (at 22.5 -6.25) (layer F.Fab)
    (effects (font (size 1 1) (thickness 0.15)))
  )
  (fp_text user %R (at 14.99 0) (layer F.Fab)
    (effects (font (size 0.8 0.8) (thickness 0.12)))
  )
  (fp_line (start 30 5.5) (end 0 5.5) (layer F.CrtYd) (width 0.05))
  (fp_line (start 0 -5.5) (end 30 -5.5) (layer F.CrtYd) (width 0.05))
  (fp_line (start 0 5.25) (end 30 5.25) (layer F.SilkS) (width 0.12))
  (fp_line (start 30 -5.25) (end 0 -5.25) (layer F.SilkS) (width 0.12))
  (fp_circle (center 30 0) (end 30 -2) (layer F.Fab) (width 0.1))
  (fp_circle (center 30 0) (end 30 -4.75) (layer F.Fab) (width 0.1))
  (fp_circle (center 15 0) (end 19.75 0) (layer F.Fab) (width 0.1))
  (fp_circle (center 15 0) (end 17 0) (layer F.Fab) (width 0.1))
  (fp_circle (center 0 0) (end 4.75 0) (layer F.Fab) (width 0.1))
  (fp_circle (center 0 0) (end 2 0) (layer F.Fab) (width 0.1))
  (fp_arc (start 0 0) (end 0 5.5) (angle 180) (layer F.CrtYd) (width 0.05))
  (fp_arc (start 30 0) (end 30 -5.5) (angle 180) (layer F.CrtYd) (width 0.05))
  (fp_arc (start 30 0) (end 30 -5.25) (angle 180) (layer F.SilkS) (width 0.12))
  (fp_arc (start 0 0) (end 0 5.25) (angle 180) (layer F.SilkS) (width 0.12))
  (pad 1 thru_hole circle (at 0 0) (size 10.16 10.16) (drill 6.1) (layers *.Cu *.Mask))
  (pad 3 thru_hole circle (at 29.97 0) (size 10.16 10.16) (drill 6.1) (layers *.Cu *.Mask))
  (pad 2 thru_hole circle (at 14.99 0) (size 10.16 10.16) (drill 6.1) (layers *.Cu *.Mask))
  (model ${KICAD6_3DMODEL_DIR}/Connector.3dshapes/Banana_Jack_3Pin.wrl
    (at (xyz 0.5905511811 0 0))
    (scale (xyz 2 2 2))
    (rotate (xyz 0 0 0))
  )
)
