(module FanPinHeader_1x03_P2.54mm_Vertical (layer F.Cu) (tedit 5A19DCDF)
  (descr "3-pin CPU fan Through hole pin header, see http://www.formfactors.org/developer%5Cspecs%5Crev1_2_public.pdf")
  (tags "pin header 3-pin CPU fan")
  (fp_text reference REF** (at 2.5 -3.4) (layer F.SilkS)
    (effects (font (size 1 1) (thickness 0.15)))
  )
  (fp_text value FanPinHeader_1x03_P2.54mm_Vertical (at 2.55 4.5) (layer F.Fab)
    (effects (font (size 1 1) (thickness 0.15)))
  )
  (fp_text user %R (at 2.45 1.8) (layer F.Fab)
    (effects (font (size 1 1) (thickness 0.15)))
  )
  (fp_line (start -1.35 3.4) (end -1.35 -2.65) (layer F.SilkS) (width 0.12))
  (fp_line (start -1.35 -2.65) (end 6.45 -2.65) (layer F.SilkS) (width 0.12))
  (fp_line (start 6.45 -2.65) (end 6.45 3.4) (layer F.SilkS) (width 0.12))
  (fp_line (start 6.45 3.4) (end -1.35 3.4) (layer F.SilkS) (width 0.12))
  (fp_line (start 5.05 3.3) (end 5.05 2.3) (layer F.Fab) (width 0.1))
  (fp_line (start 5.05 2.3) (end 0 2.3) (layer F.Fab) (width 0.1))
  (fp_line (start 0 2.3) (end 0 3.3) (layer F.Fab) (width 0.1))
  (fp_line (start -1.25 3.3) (end -1.25 -2.55) (layer F.Fab) (width 0.1))
  (fp_line (start -1.25 -2.55) (end 6.35 -2.55) (layer F.Fab) (width 0.1))
  (fp_line (start 6.35 -2.55) (end 6.35 3.3) (layer F.Fab) (width 0.1))
  (fp_line (start 6.35 3.3) (end -1.25 3.3) (layer F.Fab) (width 0.1))
  (fp_line (start 0 3.3) (end 0 2.29) (layer F.SilkS) (width 0.12))
  (fp_line (start 0 2.29) (end 5.08 2.29) (layer F.SilkS) (width 0.12))
  (fp_line (start 5.08 2.29) (end 5.08 3.3) (layer F.SilkS) (width 0.12))
  (fp_line (start -1.75 3.8) (end -1.75 -3.05) (layer F.CrtYd) (width 0.05))
  (fp_line (start -1.75 3.8) (end 6.85 3.8) (layer F.CrtYd) (width 0.05))
  (fp_line (start 6.85 -3.05) (end -1.75 -3.05) (layer F.CrtYd) (width 0.05))
  (fp_line (start 6.85 -3.05) (end 6.85 3.8) (layer F.CrtYd) (width 0.05))
  (pad 1 thru_hole rect (at 0 0 90) (size 2.03 1.73) (drill 1.02) (layers *.Cu *.Mask))
  (pad 2 thru_hole oval (at 2.54 0 90) (size 2.03 1.73) (drill 1.02) (layers *.Cu *.Mask))
  (pad 3 thru_hole oval (at 5.08 0 90) (size 2.03 1.73) (drill 1.02) (layers *.Cu *.Mask))
  (model ${KICAD6_3DMODEL_DIR}/Connector.3dshapes/FanPinHeader_1x03_P2.54mm_Vertical.wrl
    (at (xyz 0 0 0))
    (scale (xyz 1 1 1))
    (rotate (xyz 0 0 0))
  )
)
