(module Gauge_100mm_Grid_Type1_CopperTop (layer F.Cu) (tedit 0)
  (descr "Gauge, Massstab, 100mm, Gitter, Grid, CopperTop, Type 1,")
  (tags "Gauge Massstab 100mm Gitter Grid CopperTop Type 1")
  (attr virtual)
  (fp_text reference REF** (at 7.00024 21.00072) (layer F.SilkS)
    (effects (font (size 1 1) (thickness 0.15)))
  )
  (fp_text value Gauge_100mm_Grid_Type1_CopperTop (at 49.9999 21.00072) (layer F.Fab)
    (effects (font (size 1 1) (thickness 0.15)))
  )
  (fp_text user %R (at 7.00024 21.00072) (layer F.Fab)
    (effects (font (size 1 1) (thickness 0.15)))
  )
  (fp_text user 0 (at -2.99974 2.99974) (layer F.SilkS)
    (effects (font (size 1 1) (thickness 0.15)))
  )
  (fp_text user 50mm (at -8.99922 -49.9999) (layer F.SilkS)
    (effects (font (size 1 1) (thickness 0.15)))
  )
  (fp_text user 100mm (at -10.89914 -100.79736) (layer F.SilkS)
    (effects (font (size 1 1) (thickness 0.15)))
  )
  (fp_text user 50mm (at 49.10074 6.20268) (layer F.SilkS)
    (effects (font (size 1 1) (thickness 0.15)))
  )
  (fp_line (start 0 -89.99982) (end 99.9998 -89.99982) (layer F.Cu) (width 0.381))
  (fp_line (start 0 -79.99984) (end 99.9998 -79.99984) (layer F.Cu) (width 0.381))
  (fp_line (start 0 -69.99986) (end 99.9998 -69.99986) (layer F.Cu) (width 0.381))
  (fp_line (start 0 -59.99988) (end 99.9998 -59.99988) (layer F.Cu) (width 0.381))
  (fp_line (start 0 -49.9999) (end 99.9998 -49.9999) (layer F.Cu) (width 0.381))
  (fp_line (start 0 -39.99992) (end 99.9998 -39.99992) (layer F.Cu) (width 0.381))
  (fp_line (start 0 -29.99994) (end 99.9998 -29.99994) (layer F.Cu) (width 0.381))
  (fp_line (start 0 -19.99996) (end 99.9998 -19.99996) (layer F.Cu) (width 0.381))
  (fp_line (start 0 -9.99998) (end 99.9998 -9.99998) (layer F.Cu) (width 0.381))
  (fp_line (start 9.99998 0) (end 9.99998 -99.9998) (layer F.Cu) (width 0.381))
  (fp_line (start 19.99996 0) (end 19.99996 -99.9998) (layer F.Cu) (width 0.381))
  (fp_line (start 29.99994 0) (end 29.99994 -99.9998) (layer F.Cu) (width 0.381))
  (fp_line (start 39.99992 0) (end 39.99992 -99.9998) (layer F.Cu) (width 0.381))
  (fp_line (start 49.9999 0) (end 49.9999 -99.9998) (layer F.Cu) (width 0.381))
  (fp_line (start 59.99988 -99.9998) (end 59.99988 0) (layer F.Cu) (width 0.381))
  (fp_line (start 69.99986 0) (end 69.99986 -99.9998) (layer F.Cu) (width 0.381))
  (fp_line (start 79.99984 -99.9998) (end 79.99984 0) (layer F.Cu) (width 0.381))
  (fp_line (start 89.99982 0) (end 89.99982 -99.9998) (layer F.Cu) (width 0.381))
  (fp_line (start 0 -99.9998) (end 99.9998 -99.9998) (layer F.Cu) (width 0.381))
  (fp_line (start 99.9998 -99.9998) (end 99.9998 0) (layer F.Cu) (width 0.381))
  (fp_line (start 0 0) (end 0 4.0005) (layer F.Cu) (width 0.381))
  (fp_line (start 1.00076 0) (end 1.00076 1.00076) (layer F.Cu) (width 0.381))
  (fp_line (start 1.99898 0) (end 1.99898 1.00076) (layer F.Cu) (width 0.381))
  (fp_line (start 2.99974 0) (end 2.99974 1.00076) (layer F.Cu) (width 0.381))
  (fp_line (start 4.0005 0) (end 4.0005 1.00076) (layer F.Cu) (width 0.381))
  (fp_line (start 5.00126 0) (end 5.00126 1.99898) (layer F.Cu) (width 0.381))
  (fp_line (start 5.99948 0) (end 5.99948 1.00076) (layer F.Cu) (width 0.381))
  (fp_line (start 7.00024 0) (end 7.00024 1.00076) (layer F.Cu) (width 0.381))
  (fp_line (start 8.001 0) (end 8.001 1.00076) (layer F.Cu) (width 0.381))
  (fp_line (start 8.99922 0) (end 8.99922 1.00076) (layer F.Cu) (width 0.381))
  (fp_line (start 9.99998 0) (end 9.99998 4.0005) (layer F.Cu) (width 0.381))
  (fp_line (start 11.00074 0) (end 11.00074 1.00076) (layer F.Cu) (width 0.381))
  (fp_line (start 11.99896 0) (end 11.99896 1.00076) (layer F.Cu) (width 0.381))
  (fp_line (start 12.99972 0) (end 12.99972 1.00076) (layer F.Cu) (width 0.381))
  (fp_line (start 14.00048 0) (end 14.00048 1.00076) (layer F.Cu) (width 0.381))
  (fp_line (start 15.00124 0) (end 15.00124 1.99898) (layer F.Cu) (width 0.381))
  (fp_line (start 15.99946 0) (end 15.99946 1.00076) (layer F.Cu) (width 0.381))
  (fp_line (start 17.00022 0) (end 17.00022 1.00076) (layer F.Cu) (width 0.381))
  (fp_line (start 18.00098 0) (end 18.00098 1.00076) (layer F.Cu) (width 0.381))
  (fp_line (start 18.9992 0) (end 18.9992 1.00076) (layer F.Cu) (width 0.381))
  (fp_line (start 19.99996 0) (end 19.99996 4.0005) (layer F.Cu) (width 0.381))
  (fp_line (start 21.00072 0) (end 21.00072 1.00076) (layer F.Cu) (width 0.381))
  (fp_line (start 21.99894 0) (end 21.99894 1.00076) (layer F.Cu) (width 0.381))
  (fp_line (start 22.9997 0) (end 22.9997 1.00076) (layer F.Cu) (width 0.381))
  (fp_line (start 24.00046 0) (end 24.00046 1.00076) (layer F.Cu) (width 0.381))
  (fp_line (start 25.00122 0) (end 25.00122 1.99898) (layer F.Cu) (width 0.381))
  (fp_line (start 25.99944 0) (end 25.99944 1.00076) (layer F.Cu) (width 0.381))
  (fp_line (start 27.0002 0) (end 27.0002 1.00076) (layer F.Cu) (width 0.381))
  (fp_line (start 28.00096 0) (end 28.00096 1.00076) (layer F.Cu) (width 0.381))
  (fp_line (start 28.99918 0) (end 28.99918 1.00076) (layer F.Cu) (width 0.381))
  (fp_line (start 29.99994 0) (end 29.99994 4.0005) (layer F.Cu) (width 0.381))
  (fp_line (start 31.0007 0) (end 31.0007 1.00076) (layer F.Cu) (width 0.381))
  (fp_line (start 31.99892 0) (end 31.99892 1.00076) (layer F.Cu) (width 0.381))
  (fp_line (start 32.99968 0) (end 32.99968 1.00076) (layer F.Cu) (width 0.381))
  (fp_line (start 34.00044 0) (end 34.00044 1.00076) (layer F.Cu) (width 0.381))
  (fp_line (start 35.0012 0) (end 35.0012 1.99898) (layer F.Cu) (width 0.381))
  (fp_line (start 35.99942 0) (end 35.99942 1.00076) (layer F.Cu) (width 0.381))
  (fp_line (start 37.00018 0) (end 37.00018 1.00076) (layer F.Cu) (width 0.381))
  (fp_line (start 38.00094 0) (end 38.00094 1.00076) (layer F.Cu) (width 0.381))
  (fp_line (start 38.99916 0) (end 38.99916 1.00076) (layer F.Cu) (width 0.381))
  (fp_line (start 39.99992 0) (end 39.99992 4.0005) (layer F.Cu) (width 0.381))
  (fp_line (start 41.00068 0) (end 41.00068 1.00076) (layer F.Cu) (width 0.381))
  (fp_line (start 41.9989 0) (end 41.9989 1.00076) (layer F.Cu) (width 0.381))
  (fp_line (start 42.99966 0) (end 42.99966 1.00076) (layer F.Cu) (width 0.381))
  (fp_line (start 44.00042 0) (end 44.00042 1.00076) (layer F.Cu) (width 0.381))
  (fp_line (start 45.00118 0) (end 45.00118 1.99898) (layer F.Cu) (width 0.381))
  (fp_line (start 45.9994 0) (end 45.9994 1.00076) (layer F.Cu) (width 0.381))
  (fp_line (start 47.00016 0) (end 47.00016 1.00076) (layer F.Cu) (width 0.381))
  (fp_line (start 48.00092 0) (end 48.00092 1.00076) (layer F.Cu) (width 0.381))
  (fp_line (start 48.99914 0) (end 48.99914 1.00076) (layer F.Cu) (width 0.381))
  (fp_line (start 49.9999 0) (end 49.9999 4.0005) (layer F.Cu) (width 0.381))
  (fp_line (start 51.00066 0) (end 51.00066 1.00076) (layer F.Cu) (width 0.381))
  (fp_line (start 51.99888 0) (end 51.99888 1.00076) (layer F.Cu) (width 0.381))
  (fp_line (start 52.99964 0) (end 52.99964 1.00076) (layer F.Cu) (width 0.381))
  (fp_line (start 54.0004 0) (end 54.0004 1.00076) (layer F.Cu) (width 0.381))
  (fp_line (start 55.00116 0) (end 55.00116 1.99898) (layer F.Cu) (width 0.381))
  (fp_line (start 55.99938 0) (end 55.99938 1.00076) (layer F.Cu) (width 0.381))
  (fp_line (start 57.00014 0) (end 57.00014 1.00076) (layer F.Cu) (width 0.381))
  (fp_line (start 58.0009 0) (end 58.0009 1.00076) (layer F.Cu) (width 0.381))
  (fp_line (start 58.99912 0) (end 58.99912 1.00076) (layer F.Cu) (width 0.381))
  (fp_line (start 59.99988 0) (end 59.99988 4.0005) (layer F.Cu) (width 0.381))
  (fp_line (start 61.00064 0) (end 61.00064 1.00076) (layer F.Cu) (width 0.381))
  (fp_line (start 61.99886 0) (end 61.99886 1.00076) (layer F.Cu) (width 0.381))
  (fp_line (start 62.99962 0) (end 62.99962 1.00076) (layer F.Cu) (width 0.381))
  (fp_line (start 64.00038 0) (end 64.00038 1.00076) (layer F.Cu) (width 0.381))
  (fp_line (start 65.00114 0) (end 65.00114 1.99898) (layer F.Cu) (width 0.381))
  (fp_line (start 65.99936 0) (end 65.99936 1.00076) (layer F.Cu) (width 0.381))
  (fp_line (start 67.00012 0) (end 67.00012 1.00076) (layer F.Cu) (width 0.381))
  (fp_line (start 68.00088 0) (end 68.00088 1.00076) (layer F.Cu) (width 0.381))
  (fp_line (start 68.9991 0) (end 68.9991 1.00076) (layer F.Cu) (width 0.381))
  (fp_line (start 69.99986 0) (end 69.99986 4.0005) (layer F.Cu) (width 0.381))
  (fp_line (start 71.00062 0) (end 71.00062 1.00076) (layer F.Cu) (width 0.381))
  (fp_line (start 71.99884 0) (end 71.99884 1.00076) (layer F.Cu) (width 0.381))
  (fp_line (start 72.9996 0) (end 72.9996 1.00076) (layer F.Cu) (width 0.381))
  (fp_line (start 74.00036 0) (end 74.00036 1.00076) (layer F.Cu) (width 0.381))
  (fp_line (start 75.00112 0) (end 75.00112 1.99898) (layer F.Cu) (width 0.381))
  (fp_line (start 75.99934 0) (end 75.99934 1.00076) (layer F.Cu) (width 0.381))
  (fp_line (start 77.0001 0) (end 77.0001 1.00076) (layer F.Cu) (width 0.381))
  (fp_line (start 78.00086 0) (end 78.00086 1.00076) (layer F.Cu) (width 0.381))
  (fp_line (start 78.99908 0) (end 78.99908 1.00076) (layer F.Cu) (width 0.381))
  (fp_line (start 79.99984 0) (end 79.99984 4.0005) (layer F.Cu) (width 0.381))
  (fp_line (start 81.0006 0) (end 81.0006 1.00076) (layer F.Cu) (width 0.381))
  (fp_line (start 81.99882 0) (end 81.99882 1.00076) (layer F.Cu) (width 0.381))
  (fp_line (start 82.99958 0) (end 82.99958 1.00076) (layer F.Cu) (width 0.381))
  (fp_line (start 84.00034 0) (end 84.00034 1.00076) (layer F.Cu) (width 0.381))
  (fp_line (start 85.0011 0) (end 85.0011 1.99898) (layer F.Cu) (width 0.381))
  (fp_line (start 85.99932 0) (end 85.99932 1.00076) (layer F.Cu) (width 0.381))
  (fp_line (start 87.00008 0) (end 87.00008 1.00076) (layer F.Cu) (width 0.381))
  (fp_line (start 88.00084 0) (end 88.00084 1.00076) (layer F.Cu) (width 0.381))
  (fp_line (start 88.99906 0) (end 88.99906 1.00076) (layer F.Cu) (width 0.381))
  (fp_line (start 89.99982 0) (end 89.99982 4.0005) (layer F.Cu) (width 0.381))
  (fp_line (start 91.00058 0) (end 91.00058 1.00076) (layer F.Cu) (width 0.381))
  (fp_line (start 91.9988 0) (end 91.9988 1.00076) (layer F.Cu) (width 0.381))
  (fp_line (start 92.99956 0) (end 92.99956 1.00076) (layer F.Cu) (width 0.381))
  (fp_line (start 94.00032 0) (end 94.00032 1.00076) (layer F.Cu) (width 0.381))
  (fp_line (start 95.00108 0) (end 95.00108 1.99898) (layer F.Cu) (width 0.381))
  (fp_line (start 95.9993 0) (end 95.9993 1.00076) (layer F.Cu) (width 0.381))
  (fp_line (start 97.00006 0) (end 97.00006 1.00076) (layer F.Cu) (width 0.381))
  (fp_line (start 98.00082 0) (end 98.00082 1.00076) (layer F.Cu) (width 0.381))
  (fp_line (start 98.99904 0) (end 98.99904 1.00076) (layer F.Cu) (width 0.381))
  (fp_line (start 99.9998 0) (end 99.9998 4.0005) (layer F.Cu) (width 0.381))
  (fp_line (start 0 0) (end 99.9998 0) (layer F.Cu) (width 0.381))
  (fp_line (start 0 0) (end -4.0005 0) (layer F.Cu) (width 0.381))
  (fp_line (start 0 -1.00076) (end -1.00076 -1.00076) (layer F.Cu) (width 0.381))
  (fp_line (start 0 -1.99898) (end -1.00076 -1.99898) (layer F.Cu) (width 0.381))
  (fp_line (start 0 -2.99974) (end -1.00076 -2.99974) (layer F.Cu) (width 0.381))
  (fp_line (start 0 -4.0005) (end -1.00076 -4.0005) (layer F.Cu) (width 0.381))
  (fp_line (start 0 -5.00126) (end -1.99898 -5.00126) (layer F.Cu) (width 0.381))
  (fp_line (start 0 -5.99948) (end -1.00076 -5.99948) (layer F.Cu) (width 0.381))
  (fp_line (start 0 -7.00024) (end -1.00076 -7.00024) (layer F.Cu) (width 0.381))
  (fp_line (start 0 -8.001) (end -1.00076 -8.001) (layer F.Cu) (width 0.381))
  (fp_line (start 0 -8.99922) (end -1.00076 -8.99922) (layer F.Cu) (width 0.381))
  (fp_line (start 0 -9.99998) (end -4.0005 -9.99998) (layer F.Cu) (width 0.381))
  (fp_line (start 0 -11.00074) (end -1.00076 -11.00074) (layer F.Cu) (width 0.381))
  (fp_line (start 0 -11.99896) (end -1.00076 -11.99896) (layer F.Cu) (width 0.381))
  (fp_line (start 0 -12.99972) (end -1.00076 -12.99972) (layer F.Cu) (width 0.381))
  (fp_line (start 0 -14.00048) (end -1.00076 -14.00048) (layer F.Cu) (width 0.381))
  (fp_line (start 0 -15.00124) (end -1.99898 -15.00124) (layer F.Cu) (width 0.381))
  (fp_line (start 0 -15.99946) (end -1.00076 -15.99946) (layer F.Cu) (width 0.381))
  (fp_line (start 0 -17.00022) (end -1.00076 -17.00022) (layer F.Cu) (width 0.381))
  (fp_line (start 0 -18.00098) (end -1.00076 -18.00098) (layer F.Cu) (width 0.381))
  (fp_line (start 0 -18.9992) (end -1.00076 -18.9992) (layer F.Cu) (width 0.381))
  (fp_line (start 0 -19.99996) (end -4.0005 -19.99996) (layer F.Cu) (width 0.381))
  (fp_line (start 0 -21.00072) (end -1.00076 -21.00072) (layer F.Cu) (width 0.381))
  (fp_line (start 0 -21.99894) (end -1.00076 -21.99894) (layer F.Cu) (width 0.381))
  (fp_line (start 0 -22.9997) (end -1.00076 -22.9997) (layer F.Cu) (width 0.381))
  (fp_line (start 0 -24.00046) (end -1.00076 -24.00046) (layer F.Cu) (width 0.381))
  (fp_line (start 0 -25.00122) (end -1.99898 -25.00122) (layer F.Cu) (width 0.381))
  (fp_line (start 0 -25.99944) (end -1.00076 -25.99944) (layer F.Cu) (width 0.381))
  (fp_line (start 0 -27.0002) (end -1.00076 -27.0002) (layer F.Cu) (width 0.381))
  (fp_line (start 0 -28.00096) (end -1.00076 -28.00096) (layer F.Cu) (width 0.381))
  (fp_line (start 0 -28.99918) (end -1.00076 -28.99918) (layer F.Cu) (width 0.381))
  (fp_line (start 0 -29.99994) (end -4.0005 -29.99994) (layer F.Cu) (width 0.381))
  (fp_line (start 0 -31.0007) (end -1.00076 -31.0007) (layer F.Cu) (width 0.381))
  (fp_line (start 0 -31.99892) (end -1.00076 -31.99892) (layer F.Cu) (width 0.381))
  (fp_line (start 0 -32.99968) (end -1.00076 -32.99968) (layer F.Cu) (width 0.381))
  (fp_line (start 0 -34.00044) (end -1.00076 -34.00044) (layer F.Cu) (width 0.381))
  (fp_line (start 0 -35.0012) (end -1.99898 -35.0012) (layer F.Cu) (width 0.381))
  (fp_line (start 0 -35.99942) (end -1.00076 -35.99942) (layer F.Cu) (width 0.381))
  (fp_line (start 0 -37.00018) (end -1.00076 -37.00018) (layer F.Cu) (width 0.381))
  (fp_line (start 0 -38.00094) (end -1.00076 -38.00094) (layer F.Cu) (width 0.381))
  (fp_line (start 0 -38.99916) (end -1.00076 -38.99916) (layer F.Cu) (width 0.381))
  (fp_line (start 0 -39.99992) (end -4.0005 -39.99992) (layer F.Cu) (width 0.381))
  (fp_line (start 0 -41.00068) (end -1.00076 -41.00068) (layer F.Cu) (width 0.381))
  (fp_line (start 0 -41.9989) (end -1.00076 -41.9989) (layer F.Cu) (width 0.381))
  (fp_line (start 0 -42.99966) (end -1.00076 -42.99966) (layer F.Cu) (width 0.381))
  (fp_line (start 0 -44.00042) (end -1.00076 -44.00042) (layer F.Cu) (width 0.381))
  (fp_line (start 0 -45.00118) (end -1.99898 -45.00118) (layer F.Cu) (width 0.381))
  (fp_line (start 0 -45.9994) (end -1.00076 -45.9994) (layer F.Cu) (width 0.381))
  (fp_line (start 0 -47.00016) (end -1.00076 -47.00016) (layer F.Cu) (width 0.381))
  (fp_line (start 0 -48.00092) (end -1.00076 -48.00092) (layer F.Cu) (width 0.381))
  (fp_line (start 0 -48.99914) (end -1.00076 -48.99914) (layer F.Cu) (width 0.381))
  (fp_line (start 0 -49.9999) (end -4.0005 -49.9999) (layer F.Cu) (width 0.381))
  (fp_line (start 0 -51.00066) (end -1.00076 -51.00066) (layer F.Cu) (width 0.381))
  (fp_line (start 0 -51.99888) (end -1.00076 -51.99888) (layer F.Cu) (width 0.381))
  (fp_line (start 0 -52.99964) (end -1.00076 -52.99964) (layer F.Cu) (width 0.381))
  (fp_line (start 0 -54.0004) (end -1.00076 -54.0004) (layer F.Cu) (width 0.381))
  (fp_line (start -1.00076 -55.00116) (end -1.99898 -55.00116) (layer F.Cu) (width 0.381))
  (fp_line (start 0 -55.00116) (end -1.00076 -55.00116) (layer F.Cu) (width 0.381))
  (fp_line (start 0 -55.99938) (end -1.00076 -55.99938) (layer F.Cu) (width 0.381))
  (fp_line (start 0 -57.00014) (end -1.00076 -57.00014) (layer F.Cu) (width 0.381))
  (fp_line (start 0 -58.0009) (end -1.00076 -58.0009) (layer F.Cu) (width 0.381))
  (fp_line (start 0 -58.99912) (end -1.00076 -58.99912) (layer F.Cu) (width 0.381))
  (fp_line (start 0 -59.99988) (end -4.0005 -59.99988) (layer F.Cu) (width 0.381))
  (fp_line (start 0 -61.00064) (end -1.00076 -61.00064) (layer F.Cu) (width 0.381))
  (fp_line (start 0 -61.99886) (end -1.00076 -61.99886) (layer F.Cu) (width 0.381))
  (fp_line (start 0 -62.99962) (end -1.00076 -62.99962) (layer F.Cu) (width 0.381))
  (fp_line (start 0 -64.00038) (end -1.00076 -64.00038) (layer F.Cu) (width 0.381))
  (fp_line (start 0 -65.00114) (end -1.99898 -65.00114) (layer F.Cu) (width 0.381))
  (fp_line (start 0 -65.99936) (end -1.00076 -65.99936) (layer F.Cu) (width 0.381))
  (fp_line (start 0 -67.00012) (end -1.00076 -67.00012) (layer F.Cu) (width 0.381))
  (fp_line (start 0 -68.00088) (end -1.00076 -68.00088) (layer F.Cu) (width 0.381))
  (fp_line (start 0 -68.9991) (end -1.00076 -68.9991) (layer F.Cu) (width 0.381))
  (fp_line (start 0 -69.99986) (end -4.0005 -69.99986) (layer F.Cu) (width 0.381))
  (fp_line (start 0 -71.00062) (end -1.00076 -71.00062) (layer F.Cu) (width 0.381))
  (fp_line (start 0 -71.99884) (end -1.00076 -71.99884) (layer F.Cu) (width 0.381))
  (fp_line (start 0 -72.9996) (end -1.00076 -72.9996) (layer F.Cu) (width 0.381))
  (fp_line (start 0 -74.00036) (end -1.00076 -74.00036) (layer F.Cu) (width 0.381))
  (fp_line (start 0 -75.00112) (end -1.99898 -75.00112) (layer F.Cu) (width 0.381))
  (fp_line (start 0 -75.99934) (end -1.00076 -75.99934) (layer F.Cu) (width 0.381))
  (fp_line (start 0 -77.0001) (end -1.00076 -77.0001) (layer F.Cu) (width 0.381))
  (fp_line (start 0 -78.00086) (end -1.00076 -78.00086) (layer F.Cu) (width 0.381))
  (fp_line (start 0 -78.99908) (end -1.00076 -78.99908) (layer F.Cu) (width 0.381))
  (fp_line (start 0 -79.99984) (end -4.0005 -79.99984) (layer F.Cu) (width 0.381))
  (fp_line (start 0 -81.0006) (end -1.00076 -81.0006) (layer F.Cu) (width 0.381))
  (fp_line (start 0 -81.99882) (end -1.00076 -81.99882) (layer F.Cu) (width 0.381))
  (fp_line (start 0 -82.99958) (end -1.00076 -82.99958) (layer F.Cu) (width 0.381))
  (fp_line (start 0 -84.00034) (end -1.00076 -84.00034) (layer F.Cu) (width 0.381))
  (fp_line (start 0 -85.0011) (end -1.99898 -85.0011) (layer F.Cu) (width 0.381))
  (fp_line (start 0 -85.99932) (end -1.00076 -85.99932) (layer F.Cu) (width 0.381))
  (fp_line (start 0 -87.00008) (end -1.00076 -87.00008) (layer F.Cu) (width 0.381))
  (fp_line (start 0 -88.00084) (end -1.00076 -88.00084) (layer F.Cu) (width 0.381))
  (fp_line (start 0 -88.99906) (end -1.00076 -88.99906) (layer F.Cu) (width 0.381))
  (fp_line (start 0 -89.99982) (end -4.0005 -89.99982) (layer F.Cu) (width 0.381))
  (fp_line (start 0 -91.00058) (end -1.00076 -91.00058) (layer F.Cu) (width 0.381))
  (fp_line (start 0 -91.9988) (end -1.00076 -91.9988) (layer F.Cu) (width 0.381))
  (fp_line (start 0 -92.99956) (end -1.00076 -92.99956) (layer F.Cu) (width 0.381))
  (fp_line (start 0 -94.00032) (end -1.00076 -94.00032) (layer F.Cu) (width 0.381))
  (fp_line (start 0 -95.00108) (end -1.99898 -95.00108) (layer F.Cu) (width 0.381))
  (fp_line (start 0 -95.9993) (end -1.00076 -95.9993) (layer F.Cu) (width 0.381))
  (fp_line (start 0 -97.00006) (end -1.00076 -97.00006) (layer F.Cu) (width 0.381))
  (fp_line (start 0 -98.00082) (end -1.00076 -98.00082) (layer F.Cu) (width 0.381))
  (fp_line (start 0 -98.99904) (end -1.00076 -98.99904) (layer F.Cu) (width 0.381))
  (fp_line (start -1.99898 -99.9998) (end -4.0005 -99.9998) (layer F.Cu) (width 0.381))
  (fp_line (start 0 -99.9998) (end -1.99898 -99.9998) (layer F.Cu) (width 0.381))
  (fp_line (start 0 0) (end 0 -99.9998) (layer F.Cu) (width 0.381))
  (fp_text user 100mm (at 100.1014 6.20268) (layer F.SilkS)
    (effects (font (size 1 1) (thickness 0.15)))
  )
)
