(module Gauge_10mm_Type5_CopperTop (layer F.Cu)
  (at 0 0)
  (descr "Gauge, Massstab, 10mm, CopperTop, Type 5,")
  (tags "Gauge Massstab 10mm CopperTop Type 5")
  (attr virtual)
  (fp_text reference REF** (at -0.8001 -14.00048) (layer F.SilkS)
    (effects (font (size 1 1) (thickness 0.15)))
  )
  (fp_text value Gauge_10mm_Type5_CopperTop (at 1.19888 13.70076) (layer F.Fab)
    (effects (font (size 1 1) (thickness 0.15)))
  )
  (fp_text user %R (at -0.8001 -14.00048) (layer F.Fab)
    (effects (font (size 1 1) (thickness 0.15)))
  )
  (fp_circle (center 0 0) (end 5.00126 0) (layer F.Cu) (width 0.381))
  (fp_circle (center 0 0) (end 9.99998 0) (layer F.Cu) (width 0.381))
  (fp_text user 10mm (at -11.60018 0.09906) (layer F.SilkS)
    (effects (font (size 1 1) (thickness 0.15)))
  )
  (fp_text user 10mm (at -3.79984 9.90092) (layer F.SilkS)
    (effects (font (size 1 1) (thickness 0.15)))
  )
  (fp_line (start 0 8.99922) (end -1.00076 8.99922) (layer F.Cu) (width 0.381))
  (fp_line (start 0 8.001) (end -1.00076 8.001) (layer F.Cu) (width 0.381))
  (fp_line (start 0 7.00024) (end -1.00076 7.00024) (layer F.Cu) (width 0.381))
  (fp_line (start 0 5.99948) (end -1.00076 5.99948) (layer F.Cu) (width 0.381))
  (fp_line (start 0 4.0005) (end -1.00076 4.0005) (layer F.Cu) (width 0.381))
  (fp_line (start 0 2.99974) (end -1.00076 2.99974) (layer F.Cu) (width 0.381))
  (fp_line (start 0 1.99898) (end -1.00076 1.99898) (layer F.Cu) (width 0.381))
  (fp_line (start -1.00076 0) (end -1.00076 0.50038) (layer F.Cu) (width 0.381))
  (fp_line (start 0 1.00076) (end -0.50038 1.00076) (layer F.Cu) (width 0.381))
  (fp_line (start 0 5.00126) (end -1.99898 5.00126) (layer F.Cu) (width 0.381))
  (fp_line (start 0 1.99898) (end 0 9.99998) (layer F.Cu) (width 0.381))
  (fp_line (start 0 9.99998) (end -1.99898 9.99998) (layer F.Cu) (width 0.381))
  (fp_line (start -8.99922 0) (end -8.99922 1.00076) (layer F.Cu) (width 0.381))
  (fp_line (start -8.001 0) (end -8.001 1.00076) (layer F.Cu) (width 0.381))
  (fp_line (start -7.00024 0) (end -7.00024 1.00076) (layer F.Cu) (width 0.381))
  (fp_line (start -5.99948 0) (end -5.99948 1.00076) (layer F.Cu) (width 0.381))
  (fp_line (start -4.0005 0) (end -4.0005 1.00076) (layer F.Cu) (width 0.381))
  (fp_line (start -2.99974 0) (end -2.99974 1.00076) (layer F.Cu) (width 0.381))
  (fp_line (start -1.99898 0) (end -1.99898 1.00076) (layer F.Cu) (width 0.381))
  (fp_line (start -5.00126 0) (end -5.00126 1.99898) (layer F.Cu) (width 0.381))
  (fp_line (start -9.99998 0) (end -9.99998 1.99898) (layer F.Cu) (width 0.381))
  (fp_line (start 0 0) (end -9.99998 0) (layer F.Cu) (width 0.381))
  (fp_text user 10mm (at -3.90144 -9.99998) (layer F.SilkS)
    (effects (font (size 1 1) (thickness 0.15)))
  )
  (fp_text user 5 (at -3.10134 -4.89966) (layer F.SilkS)
    (effects (font (size 1 1) (thickness 0.15)))
  )
  (fp_line (start 0 -8.99922) (end -1.00076 -8.99922) (layer F.Cu) (width 0.381))
  (fp_line (start 0 -8.001) (end -1.00076 -8.001) (layer F.Cu) (width 0.381))
  (fp_line (start 0 -7.00024) (end -1.00076 -7.00024) (layer F.Cu) (width 0.381))
  (fp_line (start 0 -5.99948) (end -1.00076 -5.99948) (layer F.Cu) (width 0.381))
  (fp_line (start 0 -4.0005) (end -1.00076 -4.0005) (layer F.Cu) (width 0.381))
  (fp_line (start 0 -2.99974) (end -1.00076 -2.99974) (layer F.Cu) (width 0.381))
  (fp_line (start 0 -1.99898) (end -1.00076 -1.99898) (layer F.Cu) (width 0.381))
  (fp_line (start 0 -1.00076) (end -1.00076 -1.00076) (layer F.Cu) (width 0.381))
  (fp_line (start 0 -5.00126) (end -1.99898 -5.00126) (layer F.Cu) (width 0.381))
  (fp_line (start 0 -9.99998) (end -1.99898 -9.99998) (layer F.Cu) (width 0.381))
  (fp_line (start 0 0) (end 0 -9.99998) (layer F.Cu) (width 0.381))
  (fp_text user 5 (at 4.99872 2.90068) (layer F.SilkS)
    (effects (font (size 1 1) (thickness 0.15)))
  )
  (fp_text user 10mm (at 11.8999 0.09906) (layer F.SilkS)
    (effects (font (size 1 1) (thickness 0.15)))
  )
  (fp_line (start 8.99922 0) (end 8.99922 1.00076) (layer F.Cu) (width 0.381))
  (fp_line (start 8.001 0) (end 8.001 1.00076) (layer F.Cu) (width 0.381))
  (fp_line (start 7.00024 0) (end 7.00024 1.00076) (layer F.Cu) (width 0.381))
  (fp_line (start 5.99948 0) (end 5.99948 1.00076) (layer F.Cu) (width 0.381))
  (fp_line (start 4.0005 0) (end 4.0005 1.00076) (layer F.Cu) (width 0.381))
  (fp_line (start 2.99974 0) (end 2.99974 1.00076) (layer F.Cu) (width 0.381))
  (fp_line (start 1.99898 0) (end 1.99898 1.00076) (layer F.Cu) (width 0.381))
  (fp_line (start 1.00076 0) (end 1.00076 1.00076) (layer F.Cu) (width 0.381))
  (fp_line (start 5.00126 0) (end 5.00126 1.99898) (layer F.Cu) (width 0.381))
  (fp_line (start 0 0) (end 0 1.99898) (layer F.Cu) (width 0.381))
  (fp_line (start 0 0) (end 9.99998 0) (layer F.Cu) (width 0.381))
  (fp_line (start 9.99998 0) (end 9.99998 1.99898) (layer F.Cu) (width 0.381))
)
