(module Gauge_50mm_Type1_CopperTop (layer F.Cu)
  (at 0 0)
  (descr "Gauge, Massstab, 50mm, CopperTop, Type 1,")
  (tags "Gauge Massstab 50mm CopperTop Type 1")
  (attr virtual)
  (fp_text reference REF** (at 0 -2.99974) (layer F.SilkS)
    (effects (font (size 1 1) (thickness 0.15)))
  )
  (fp_text value Gauge_50mm_Type1_CopperTop (at 24.00046 6.4008) (layer F.Fab)
    (effects (font (size 1 1) (thickness 0.15)))
  )
  (fp_text user %R (at 0 -2.99974) (layer F.Fab)
    (effects (font (size 1 1) (thickness 0.15)))
  )
  (fp_line (start 9.99998 0) (end 49.9999 0) (layer F.Cu) (width 0.381))
  (fp_text user 50mm (at 49.9999 3.10134) (layer F.SilkS)
    (effects (font (size 1 1) (thickness 0.15)))
  )
  (fp_text user 40 (at 39.99992 3.10134) (layer F.SilkS)
    (effects (font (size 1 1) (thickness 0.15)))
  )
  (fp_text user 30 (at 29.99994 2.99974) (layer F.SilkS)
    (effects (font (size 1 1) (thickness 0.15)))
  )
  (fp_text user 20 (at 20.09902 2.90068) (layer F.SilkS)
    (effects (font (size 1 1) (thickness 0.15)))
  )
  (fp_line (start 49.9999 0) (end 49.9999 1.99898) (layer F.Cu) (width 0.381))
  (fp_line (start 45.00118 0) (end 45.00118 1.00076) (layer F.Cu) (width 0.381))
  (fp_line (start 39.99992 0) (end 39.99992 1.99898) (layer F.Cu) (width 0.381))
  (fp_line (start 35.0012 0) (end 35.0012 1.00076) (layer F.Cu) (width 0.381))
  (fp_line (start 29.99994 0) (end 29.99994 1.99898) (layer F.Cu) (width 0.381))
  (fp_line (start 25.00122 0) (end 25.00122 1.00076) (layer F.Cu) (width 0.381))
  (fp_line (start 19.99996 0) (end 19.99996 1.99898) (layer F.Cu) (width 0.381))
  (fp_line (start 15.00124 0) (end 15.00124 1.00076) (layer F.Cu) (width 0.381))
  (fp_text user 5 (at 4.99872 2.90068) (layer F.SilkS)
    (effects (font (size 1 1) (thickness 0.15)))
  )
  (fp_text user 0 (at 0 2.79908) (layer F.SilkS)
    (effects (font (size 1 1) (thickness 0.15)))
  )
  (fp_text user 10mm (at 9.99998 2.70002) (layer F.SilkS)
    (effects (font (size 1 1) (thickness 0.15)))
  )
  (fp_line (start 8.99922 0) (end 8.99922 1.00076) (layer F.Cu) (width 0.381))
  (fp_line (start 8.001 0) (end 8.001 1.00076) (layer F.Cu) (width 0.381))
  (fp_line (start 7.00024 0) (end 7.00024 1.00076) (layer F.Cu) (width 0.381))
  (fp_line (start 5.99948 0) (end 5.99948 1.00076) (layer F.Cu) (width 0.381))
  (fp_line (start 4.0005 0) (end 4.0005 1.00076) (layer F.Cu) (width 0.381))
  (fp_line (start 2.99974 0) (end 2.99974 1.00076) (layer F.Cu) (width 0.381))
  (fp_line (start 1.99898 0) (end 1.99898 1.00076) (layer F.Cu) (width 0.381))
  (fp_line (start 1.00076 0) (end 1.00076 1.00076) (layer F.Cu) (width 0.381))
  (fp_line (start 5.00126 0) (end 5.00126 1.99898) (layer F.Cu) (width 0.381))
  (fp_line (start 0 0) (end 0 1.99898) (layer F.Cu) (width 0.381))
  (fp_line (start 0 0) (end 9.99998 0) (layer F.Cu) (width 0.381))
  (fp_line (start 9.99998 0) (end 9.99998 1.99898) (layer F.Cu) (width 0.381))
)
