(footprint "R_0805_2012Metric" (version 20211014) (generator pcbnew) (layer "F.Cu")
  (tedit 618567B7)
  (descr "Resistor SMD 0805 (2012 Metric), square (rectangular) end terminal, IPC_7351 nominal, (Body size source: IPC-SM-782 page 72, https://www.pcb-3d.com/wordpress/wp-content/uploads/ipc-sm-782a_amendment_1_and_2.pdf), generated with kicad-footprint-generator")
  (tags "resistor")
  (attr smd)
  (fp_text reference "REF**" (at 0 -1.65) (layer "F.SilkS")
    (effects (font (size 1 1) (thickness 0.15)))
    (tstamp 0ce04a54-d5ec-4086-b8ca-f1be4e29a741)
  )
  (fp_text value "R_0805_2012Metric" (at 0 1.65) (layer "F.Fab")
    (effects (font (size 1 1) (thickness 0.15)))
    (tstamp 998d4bbf-ed9c-4f07-8bff-505584e90759)
  )
  (fp_text user "${REFERENCE}" (at 0 0) (layer "F.Fab")
    (effects (font (size 0.5 0.5) (thickness 0.08)))
    (tstamp 868f21ac-0a45-471e-89fc-c944c674f43b)
  )
  (fp_line (start -0.227064 -0.735) (end 0.227064 -0.735) (layer "F.SilkS") (width 0.12) (tstamp 321dd804-c009-4c1e-9253-64793866522f))
  (fp_line (start -0.227064 0.735) (end 0.227064 0.735) (layer "F.SilkS") (width 0.12) (tstamp 68c7e2f5-57e7-4df6-b9f5-bdeb5d5f4754))
  (fp_line (start 1.68 -0.95) (end 1.68 0.95) (layer "F.CrtYd") (width 0.05) (tstamp 15c06e1d-5f27-4066-84b2-d9c9a10e0f35))
  (fp_line (start -1.68 0.95) (end -1.68 -0.95) (layer "F.CrtYd") (width 0.05) (tstamp 21d1eff5-53cb-4a6c-8980-6a20661e7ab6))
  (fp_line (start 1.68 0.95) (end -1.68 0.95) (layer "F.CrtYd") (width 0.05) (tstamp 601e6cb4-fd7a-4451-b154-5e4856ec9379))
  (fp_line (start -1.68 -0.95) (end 1.68 -0.95) (layer "F.CrtYd") (width 0.05) (tstamp 8ad09e7c-fd96-4a34-9435-cbc6c0aa2303))
  (fp_line (start -1 -0.625) (end 1 -0.625) (layer "F.Fab") (width 0.1) (tstamp 650c021d-d6a6-4187-97fe-efbff6174380))
  (fp_line (start 1 -0.625) (end 1 0.625) (layer "F.Fab") (width 0.1) (tstamp 66b37ae9-09a2-401a-b38a-39253a9d7be8))
  (fp_line (start 1 0.625) (end -1 0.625) (layer "F.Fab") (width 0.1) (tstamp 7dce8458-8e6a-4518-90cc-bcea3b1ec49a))
  (fp_line (start -1 0.625) (end -1 -0.625) (layer "F.Fab") (width 0.1) (tstamp 9531f6f7-e12f-426b-9785-f207cd6ec818))
  (pad "1" smd roundrect (at -0.9125 0) (size 1.025 1.4) (layers "F.Cu" "F.Paste" "F.Mask") (roundrect_rratio 0.243902) (tstamp f1b21c80-6389-4f2f-8b9a-f712171f7069))
  (pad "2" smd roundrect (at 0.9125 0) (size 1.025 1.4) (layers "F.Cu" "F.Paste" "F.Mask") (roundrect_rratio 0.243902) (tstamp 3527ab69-5ce7-4355-bd34-f750841e6297))
  (model "${KICAD6_3DMODEL_DIR}/Resistor_SMD.3dshapes/R_0805_2012Metric.wrl"
    (offset (xyz 0 0 0))
    (scale (xyz 1 1 1))
    (rotate (xyz 0 0 0))
  )
)
