(module R_1218_3246Metric (layer F.Cu) (tedit 5F68FEEE)
  (descr "Resistor SMD 1218 (3246 Metric), square (rectangular) end terminal, IPC_7351 nominal, (Body size source: https://www.vishay.com/docs/20035/dcrcwe3.pdf), generated with kicad-footprint-generator")
  (tags resistor)
  (attr smd)
  (fp_text reference REF** (at 0 -3.32) (layer F.SilkS)
    (effects (font (size 1 1) (thickness 0.15)))
  )
  (fp_text value R_1218_3246Metric (at 0 3.32) (layer F.Fab)
    (effects (font (size 1 1) (thickness 0.15)))
  )
  (fp_line (start -1.6 2.3) (end -1.6 -2.3) (layer F.Fab) (width 0.1))
  (fp_line (start -1.6 -2.3) (end 1.6 -2.3) (layer F.Fab) (width 0.1))
  (fp_line (start 1.6 -2.3) (end 1.6 2.3) (layer F.Fab) (width 0.1))
  (fp_line (start 1.6 2.3) (end -1.6 2.3) (layer F.Fab) (width 0.1))
  (fp_line (start -0.777064 -2.41) (end 0.777064 -2.41) (layer F.SilkS) (width 0.12))
  (fp_line (start -0.777064 2.41) (end 0.777064 2.41) (layer F.SilkS) (width 0.12))
  (fp_line (start -2.25 2.62) (end -2.25 -2.62) (layer F.CrtYd) (width 0.05))
  (fp_line (start -2.25 -2.62) (end 2.25 -2.62) (layer F.CrtYd) (width 0.05))
  (fp_line (start 2.25 -2.62) (end 2.25 2.62) (layer F.CrtYd) (width 0.05))
  (fp_line (start 2.25 2.62) (end -2.25 2.62) (layer F.CrtYd) (width 0.05))
  (pad 1 smd roundrect (at -1.475 0) (size 1.05 4.75) (layers F.Cu F.Mask F.Paste) (roundrect_rratio 0.238095))
  (pad 2 smd roundrect (at 1.475 0) (size 1.05 4.75) (layers F.Cu F.Mask F.Paste) (roundrect_rratio 0.238095))
  (fp_text user %R (at 0 0) (layer F.Fab)
    (effects (font (size 0.8 0.8) (thickness 0.12)))
  )
  (model ${KICAD6_3DMODEL_DIR}/Resistor_SMD.3dshapes/R_1218_3246Metric.wrl
    (at (xyz 0 0 0))
    (scale (xyz 1 1 1))
    (rotate (xyz 0 0 0))
  )
)