(module R_Array_Concave_4x0402 (layer F.Cu) (tedit 58E0A888)
  (descr "Thick Film Chip Resistor Array, Wave soldering, Vishay CRA04P (see cra04p.pdf)")
  (tags "resistor array")
  (attr smd)
  (fp_text reference REF** (at 0 -2.1) (layer F.SilkS)
    (effects (font (size 1 1) (thickness 0.15)))
  )
  (fp_text value R_Array_Concave_4x0402 (at 0 2.1) (layer F.Fab)
    (effects (font (size 1 1) (thickness 0.15)))
  )
  (fp_text user %R (at 0 0 90) (layer F.Fab)
    (effects (font (size 0.5 0.5) (thickness 0.075)))
  )
  (fp_line (start -0.5 -1) (end 0.5 -1) (layer F.Fab) (width 0.1))
  (fp_line (start 0.5 -1) (end 0.5 1) (layer F.Fab) (width 0.1))
  (fp_line (start 0.5 1) (end -0.5 1) (layer F.Fab) (width 0.1))
  (fp_line (start -0.5 1) (end -0.5 -1) (layer F.Fab) (width 0.1))
  (fp_line (start 0.25 -1.14) (end -0.25 -1.14) (layer F.SilkS) (width 0.12))
  (fp_line (start 0.25 1.14) (end -0.25 1.14) (layer F.SilkS) (width 0.12))
  (fp_line (start -1 -1.25) (end 1 -1.25) (layer F.CrtYd) (width 0.05))
  (fp_line (start -1 -1.25) (end -1 1.25) (layer F.CrtYd) (width 0.05))
  (fp_line (start 1 1.25) (end 1 -1.25) (layer F.CrtYd) (width 0.05))
  (fp_line (start 1 1.25) (end -1 1.25) (layer F.CrtYd) (width 0.05))
  (pad 1 smd rect (at -0.5 -0.75) (size 0.5 0.32) (layers F.Cu F.Paste F.Mask))
  (pad 3 smd rect (at -0.5 0.25) (size 0.5 0.32) (layers F.Cu F.Paste F.Mask))
  (pad 2 smd rect (at -0.5 -0.25) (size 0.5 0.32) (layers F.Cu F.Paste F.Mask))
  (pad 4 smd rect (at -0.5 0.75) (size 0.5 0.32) (layers F.Cu F.Paste F.Mask))
  (pad 7 smd rect (at 0.5 -0.25) (size 0.5 0.32) (layers F.Cu F.Paste F.Mask))
  (pad 8 smd rect (at 0.5 -0.75) (size 0.5 0.32) (layers F.Cu F.Paste F.Mask))
  (pad 6 smd rect (at 0.5 0.25) (size 0.5 0.32) (layers F.Cu F.Paste F.Mask))
  (pad 5 smd rect (at 0.5 0.75) (size 0.5 0.32) (layers F.Cu F.Paste F.Mask))
  (model ${KICAD6_3DMODEL_DIR}/Resistor_SMD.3dshapes/R_Array_Concave_4x0402.wrl
    (at (xyz 0 0 0))
    (scale (xyz 1 1 1))
    (rotate (xyz 0 0 0))
  )
)
