(module R_Array_Convex_5x1206 (layer F.Cu) (tedit 58E0A8E3)
  (descr "Chip Resistor Network, ROHM MNR35 (see mnr_g.pdf)")
  (tags "resistor array")
  (attr smd)
  (fp_text reference REF** (at 0 -4.2) (layer F.SilkS)
    (effects (font (size 1 1) (thickness 0.15)))
  )
  (fp_text value R_Array_Convex_5x1206 (at 0 4.2) (layer F.Fab)
    (effects (font (size 1 1) (thickness 0.15)))
  )
  (fp_text user %R (at 0 0 90) (layer F.Fab)
    (effects (font (size 1 1) (thickness 0.15)))
  )
  (fp_line (start -1.6 -3.2) (end 1.6 -3.2) (layer F.Fab) (width 0.1))
  (fp_line (start 1.6 -3.2) (end 1.6 3.2) (layer F.Fab) (width 0.1))
  (fp_line (start 1.6 3.2) (end -1.6 3.2) (layer F.Fab) (width 0.1))
  (fp_line (start -1.6 3.2) (end -1.6 -3.2) (layer F.Fab) (width 0.1))
  (fp_line (start 1.05 3.27) (end -1.05 3.27) (layer F.SilkS) (width 0.12))
  (fp_line (start 1.05 -3.27) (end -1.05 -3.27) (layer F.SilkS) (width 0.12))
  (fp_line (start -2.21 -3.45) (end 2.2 -3.45) (layer F.CrtYd) (width 0.05))
  (fp_line (start -2.21 -3.45) (end -2.21 3.45) (layer F.CrtYd) (width 0.05))
  (fp_line (start 2.2 3.45) (end 2.2 -3.45) (layer F.CrtYd) (width 0.05))
  (fp_line (start 2.2 3.45) (end -2.21 3.45) (layer F.CrtYd) (width 0.05))
  (pad 1 smd rect (at -1.5 -2.6) (size 0.9 0.9) (layers F.Cu F.Paste F.Mask))
  (pad 5 smd rect (at -1.5 2.6) (size 0.9 0.9) (layers F.Cu F.Paste F.Mask))
  (pad 2 smd rect (at -1.5 -1.28) (size 0.9 0.9) (layers F.Cu F.Paste F.Mask))
  (pad 4 smd rect (at -1.5 1.28) (size 0.9 0.9) (layers F.Cu F.Paste F.Mask))
  (pad 3 smd rect (at -1.5 0) (size 0.9 0.9) (layers F.Cu F.Paste F.Mask))
  (pad 7 smd rect (at 1.5 1.28) (size 0.9 0.9) (layers F.Cu F.Paste F.Mask))
  (pad 10 smd rect (at 1.5 -2.6) (size 0.9 0.9) (layers F.Cu F.Paste F.Mask))
  (pad 6 smd rect (at 1.5 2.6) (size 0.9 0.9) (layers F.Cu F.Paste F.Mask))
  (pad 9 smd rect (at 1.5 -1.28) (size 0.9 0.9) (layers F.Cu F.Paste F.Mask))
  (pad 8 smd rect (at 1.5 0) (size 0.9 0.9) (layers F.Cu F.Paste F.Mask))
  (model ${KICAD6_3DMODEL_DIR}/Resistor_SMD.3dshapes/R_Array_Convex_5x1206.wrl
    (at (xyz 0 0 0))
    (scale (xyz 1 1 1))
    (rotate (xyz 0 0 0))
  )
)
