(module R_Shunt_Ohmite_LVK20 (layer F.Cu) (tedit 5B892B6E)
  (descr "4 contacts shunt resistor, https://www.ohmite.com/assets/docs/res_lvk.pdf")
  (tags "4 contacts resistor smd")
  (attr smd)
  (fp_text reference REF** (at 0.025 -4.2) (layer F.SilkS)
    (effects (font (size 1 1) (thickness 0.15)))
  )
  (fp_text value R_Shunt_Ohmite_LVK20 (at 0.05 4.325) (layer F.Fab)
    (effects (font (size 1 1) (thickness 0.15)))
  )
  (fp_line (start -2.05 -3.5) (end 2.05 -3.5) (layer F.CrtYd) (width 0.05))
  (fp_line (start 2.05 -3.5) (end 2.05 3.5) (layer F.CrtYd) (width 0.05))
  (fp_line (start 2.05 3.5) (end -2.05 3.5) (layer F.CrtYd) (width 0.05))
  (fp_line (start -2.05 3.5) (end -2.05 -3.5) (layer F.CrtYd) (width 0.05))
  (fp_line (start 0.15 2.75) (end -0.15 2.75) (layer F.SilkS) (width 0.12))
  (fp_line (start -1.5 0.6) (end -1.5 -0.6) (layer F.SilkS) (width 0.12))
  (fp_line (start 1.5 -0.6) (end 1.5 0.6) (layer F.SilkS) (width 0.12))
  (fp_line (start 0.15 -2.75) (end -0.15 -2.75) (layer F.SilkS) (width 0.12))
  (fp_line (start 0 2.5) (end -1.25 2.5) (layer F.Fab) (width 0.1))
  (fp_line (start -1.25 2.5) (end -1.25 -2.5) (layer F.Fab) (width 0.1))
  (fp_line (start -1.25 -2.5) (end 1.25 -2.5) (layer F.Fab) (width 0.1))
  (fp_line (start 1.25 -2.5) (end 1.25 2.5) (layer F.Fab) (width 0.1))
  (fp_line (start 1.25 2.5) (end 0 2.5) (layer F.Fab) (width 0.1))
  (fp_text user %R (at 0 0 90) (layer F.Fab)
    (effects (font (size 1 1) (thickness 0.2)))
  )
  (pad 1 smd rect (at -1.025 -1.975) (size 1.55 2.55) (layers F.Cu F.Paste F.Mask))
  (pad 2 smd rect (at 1.025 -1.975) (size 1.55 2.55) (layers F.Cu F.Paste F.Mask))
  (pad 3 smd rect (at -1.025 1.975) (size 1.55 2.55) (layers F.Cu F.Paste F.Mask))
  (pad 4 smd rect (at 1.025 1.975) (size 1.55 2.55) (layers F.Cu F.Paste F.Mask))
  (model ${KICAD6_3DMODEL_DIR}/Resistor_SMD.3dshapes/R_Shunt_Ohmite_LVK20.wrl
    (at (xyz 0 0 0))
    (scale (xyz 1 1 1))
    (rotate (xyz 0 0 0))
  )
)
