(module Samtec_FMC_ASP-134486-01_10x40_P1.27mm_Vertical (layer F.Cu) (tedit 5D8A6ED9)
  (descr http://suddendocs.samtec.com/prints/asp-134486-01-mkt.pdf)
  (tags "FMC HPC")
  (attr smd)
  (fp_text reference REF** (at 0 -8) (layer F.SilkS)
    (effects (font (size 1 1) (thickness 0.15)))
  )
  (fp_text value Samtec_FMC_ASP-134486-01_10x40_P1.27mm_Vertical (at 0 9) (layer F.Fab)
    (effects (font (size 1 1) (thickness 0.15)))
  )
  (fp_text user "${REFERENCE}" (at 0.14 0) (layer F.Fab)
    (effects (font (size 1 1) (thickness 0.15)))
  )
  (fp_line (start 28.765 -6.615) (end 28.765 6.615) (layer F.Fab) (width 0.1))
  (fp_line (start 28.765 -6.615) (end -26.885 -6.615) (layer F.Fab) (width 0.1))
  (fp_line (start 28.765 6.615) (end -27.865 6.615) (layer F.Fab) (width 0.1))
  (fp_line (start -27.865 -2.85) (end -28.665 -2.85) (layer F.Fab) (width 0.1))
  (fp_line (start -28.665 -2.85) (end -28.665 2.85) (layer F.Fab) (width 0.1))
  (fp_line (start -27.865 2.85) (end -28.665 2.85) (layer F.Fab) (width 0.1))
  (fp_line (start -27.865 -2.85) (end -27.865 -5.63) (layer F.Fab) (width 0.1))
  (fp_line (start -27.865 2.85) (end -27.865 6.615) (layer F.Fab) (width 0.1))
  (fp_line (start -26.885 -6.62) (end -27.865 -5.64) (layer F.Fab) (width 0.1))
  (fp_line (start 28.87 -6.72) (end 28.87 6.72) (layer F.SilkS) (width 0.12))
  (fp_line (start 28.87 6.725) (end -27.975 6.725) (layer F.SilkS) (width 0.12))
  (fp_line (start -27.975 6.725) (end -27.975 2.96) (layer F.SilkS) (width 0.12))
  (fp_line (start -27.975 2.96) (end -28.775 2.96) (layer F.SilkS) (width 0.12))
  (fp_line (start -28.775 2.96) (end -28.775 -2.96) (layer F.SilkS) (width 0.12))
  (fp_line (start -28.775 -2.96) (end -27.975 -2.96) (layer F.SilkS) (width 0.12))
  (fp_line (start -27.975 -2.96) (end -27.975 -6.725) (layer F.SilkS) (width 0.12))
  (fp_line (start -27.975 -6.725) (end 28.865 -6.725) (layer F.SilkS) (width 0.12))
  (fp_line (start 29.27 -7.12) (end 29.27 7.12) (layer F.CrtYd) (width 0.05))
  (fp_line (start -29.17 7.12) (end 29.27 7.12) (layer F.CrtYd) (width 0.05))
  (fp_line (start -29.17 -7.12) (end -29.17 7.12) (layer F.CrtYd) (width 0.05))
  (fp_line (start -29.17 -7.12) (end 29.27 -7.12) (layer F.CrtYd) (width 0.05))
  (fp_line (start -27.235 -6.97) (end -28.235 -6.97) (layer F.SilkS) (width 0.12))
  (fp_line (start -28.235 -6.97) (end -28.235 -5.97) (layer F.SilkS) (width 0.12))
  (pad C1 smd circle (at -24.765 -3.175) (size 0.64 0.64) (layers F.Cu F.Paste F.Mask))
  (pad C2 smd circle (at -23.495 -3.175) (size 0.64 0.64) (layers F.Cu F.Paste F.Mask))
  (pad C3 smd circle (at -22.225 -3.175) (size 0.64 0.64) (layers F.Cu F.Paste F.Mask))
  (pad C4 smd circle (at -20.955 -3.175) (size 0.64 0.64) (layers F.Cu F.Paste F.Mask))
  (pad C5 smd circle (at -19.685 -3.175) (size 0.64 0.64) (layers F.Cu F.Paste F.Mask))
  (pad C6 smd circle (at -18.415 -3.175) (size 0.64 0.64) (layers F.Cu F.Paste F.Mask))
  (pad C7 smd circle (at -17.145 -3.175) (size 0.64 0.64) (layers F.Cu F.Paste F.Mask))
  (pad C8 smd circle (at -15.875 -3.175) (size 0.64 0.64) (layers F.Cu F.Paste F.Mask))
  (pad C9 smd circle (at -14.605 -3.175) (size 0.64 0.64) (layers F.Cu F.Paste F.Mask))
  (pad C10 smd circle (at -13.335 -3.175) (size 0.64 0.64) (layers F.Cu F.Paste F.Mask))
  (pad C11 smd circle (at -12.065 -3.175) (size 0.64 0.64) (layers F.Cu F.Paste F.Mask))
  (pad C12 smd circle (at -10.795 -3.175) (size 0.64 0.64) (layers F.Cu F.Paste F.Mask))
  (pad C13 smd circle (at -9.525 -3.175) (size 0.64 0.64) (layers F.Cu F.Paste F.Mask))
  (pad C14 smd circle (at -8.255 -3.175) (size 0.64 0.64) (layers F.Cu F.Paste F.Mask))
  (pad C15 smd circle (at -6.985 -3.175) (size 0.64 0.64) (layers F.Cu F.Paste F.Mask))
  (pad C16 smd circle (at -5.715 -3.175) (size 0.64 0.64) (layers F.Cu F.Paste F.Mask))
  (pad C17 smd circle (at -4.445 -3.175) (size 0.64 0.64) (layers F.Cu F.Paste F.Mask))
  (pad C18 smd circle (at -3.175 -3.175) (size 0.64 0.64) (layers F.Cu F.Paste F.Mask))
  (pad C19 smd circle (at -1.905 -3.175) (size 0.64 0.64) (layers F.Cu F.Paste F.Mask))
  (pad C20 smd circle (at -0.64 -3.175) (size 0.64 0.64) (layers F.Cu F.Paste F.Mask))
  (pad C40 smd circle (at 24.765 -3.175) (size 0.64 0.64) (layers F.Cu F.Paste F.Mask))
  (pad C39 smd circle (at 23.495 -3.175) (size 0.64 0.64) (layers F.Cu F.Paste F.Mask))
  (pad C38 smd circle (at 22.225 -3.175) (size 0.64 0.64) (layers F.Cu F.Paste F.Mask))
  (pad C37 smd circle (at 20.955 -3.175) (size 0.64 0.64) (layers F.Cu F.Paste F.Mask))
  (pad C36 smd circle (at 19.685 -3.175) (size 0.64 0.64) (layers F.Cu F.Paste F.Mask))
  (pad C35 smd circle (at 18.415 -3.175) (size 0.64 0.64) (layers F.Cu F.Paste F.Mask))
  (pad C34 smd circle (at 17.145 -3.175) (size 0.64 0.64) (layers F.Cu F.Paste F.Mask))
  (pad C33 smd circle (at 15.875 -3.175) (size 0.64 0.64) (layers F.Cu F.Paste F.Mask))
  (pad C32 smd circle (at 14.605 -3.175) (size 0.64 0.64) (layers F.Cu F.Paste F.Mask))
  (pad C31 smd circle (at 13.335 -3.175) (size 0.64 0.64) (layers F.Cu F.Paste F.Mask))
  (pad C30 smd circle (at 12.065 -3.175) (size 0.64 0.64) (layers F.Cu F.Paste F.Mask))
  (pad C29 smd circle (at 10.795 -3.175) (size 0.64 0.64) (layers F.Cu F.Paste F.Mask))
  (pad C28 smd circle (at 9.525 -3.175) (size 0.64 0.64) (layers F.Cu F.Paste F.Mask))
  (pad C27 smd circle (at 8.255 -3.175) (size 0.64 0.64) (layers F.Cu F.Paste F.Mask))
  (pad C26 smd circle (at 6.985 -3.175) (size 0.64 0.64) (layers F.Cu F.Paste F.Mask))
  (pad C25 smd circle (at 5.715 -3.175) (size 0.64 0.64) (layers F.Cu F.Paste F.Mask))
  (pad C24 smd circle (at 4.445 -3.175) (size 0.64 0.64) (layers F.Cu F.Paste F.Mask))
  (pad C23 smd circle (at 3.175 -3.175) (size 0.64 0.64) (layers F.Cu F.Paste F.Mask))
  (pad C22 smd circle (at 1.905 -3.175) (size 0.64 0.64) (layers F.Cu F.Paste F.Mask))
  (pad C21 smd circle (at 0.64 -3.175) (size 0.64 0.64) (layers F.Cu F.Paste F.Mask))
  (pad D21 smd circle (at 0.64 -1.905) (size 0.64 0.64) (layers F.Cu F.Paste F.Mask))
  (pad D22 smd circle (at 1.905 -1.905) (size 0.64 0.64) (layers F.Cu F.Paste F.Mask))
  (pad D23 smd circle (at 3.175 -1.905) (size 0.64 0.64) (layers F.Cu F.Paste F.Mask))
  (pad D24 smd circle (at 4.445 -1.905) (size 0.64 0.64) (layers F.Cu F.Paste F.Mask))
  (pad D25 smd circle (at 5.715 -1.905) (size 0.64 0.64) (layers F.Cu F.Paste F.Mask))
  (pad D26 smd circle (at 6.985 -1.905) (size 0.64 0.64) (layers F.Cu F.Paste F.Mask))
  (pad D27 smd circle (at 8.255 -1.905) (size 0.64 0.64) (layers F.Cu F.Paste F.Mask))
  (pad D28 smd circle (at 9.525 -1.905) (size 0.64 0.64) (layers F.Cu F.Paste F.Mask))
  (pad D29 smd circle (at 10.795 -1.905) (size 0.64 0.64) (layers F.Cu F.Paste F.Mask))
  (pad D30 smd circle (at 12.065 -1.905) (size 0.64 0.64) (layers F.Cu F.Paste F.Mask))
  (pad D31 smd circle (at 13.335 -1.905) (size 0.64 0.64) (layers F.Cu F.Paste F.Mask))
  (pad D32 smd circle (at 14.605 -1.905) (size 0.64 0.64) (layers F.Cu F.Paste F.Mask))
  (pad D33 smd circle (at 15.875 -1.905) (size 0.64 0.64) (layers F.Cu F.Paste F.Mask))
  (pad D34 smd circle (at 17.145 -1.905) (size 0.64 0.64) (layers F.Cu F.Paste F.Mask))
  (pad D35 smd circle (at 18.415 -1.905) (size 0.64 0.64) (layers F.Cu F.Paste F.Mask))
  (pad D36 smd circle (at 19.685 -1.905) (size 0.64 0.64) (layers F.Cu F.Paste F.Mask))
  (pad D37 smd circle (at 20.955 -1.905) (size 0.64 0.64) (layers F.Cu F.Paste F.Mask))
  (pad D38 smd circle (at 22.225 -1.905) (size 0.64 0.64) (layers F.Cu F.Paste F.Mask))
  (pad D39 smd circle (at 23.495 -1.905) (size 0.64 0.64) (layers F.Cu F.Paste F.Mask))
  (pad D40 smd circle (at 24.765 -1.905) (size 0.64 0.64) (layers F.Cu F.Paste F.Mask))
  (pad D20 smd circle (at -0.64 -1.905) (size 0.64 0.64) (layers F.Cu F.Paste F.Mask))
  (pad D19 smd circle (at -1.905 -1.905) (size 0.64 0.64) (layers F.Cu F.Paste F.Mask))
  (pad D18 smd circle (at -3.175 -1.905) (size 0.64 0.64) (layers F.Cu F.Paste F.Mask))
  (pad D17 smd circle (at -4.445 -1.905) (size 0.64 0.64) (layers F.Cu F.Paste F.Mask))
  (pad D16 smd circle (at -5.715 -1.905) (size 0.64 0.64) (layers F.Cu F.Paste F.Mask))
  (pad D15 smd circle (at -6.985 -1.905) (size 0.64 0.64) (layers F.Cu F.Paste F.Mask))
  (pad D14 smd circle (at -8.255 -1.905) (size 0.64 0.64) (layers F.Cu F.Paste F.Mask))
  (pad D13 smd circle (at -9.525 -1.905) (size 0.64 0.64) (layers F.Cu F.Paste F.Mask))
  (pad D12 smd circle (at -10.795 -1.905) (size 0.64 0.64) (layers F.Cu F.Paste F.Mask))
  (pad D11 smd circle (at -12.065 -1.905) (size 0.64 0.64) (layers F.Cu F.Paste F.Mask))
  (pad D10 smd circle (at -13.335 -1.905) (size 0.64 0.64) (layers F.Cu F.Paste F.Mask))
  (pad D9 smd circle (at -14.605 -1.905) (size 0.64 0.64) (layers F.Cu F.Paste F.Mask))
  (pad D8 smd circle (at -15.875 -1.905) (size 0.64 0.64) (layers F.Cu F.Paste F.Mask))
  (pad D7 smd circle (at -17.145 -1.905) (size 0.64 0.64) (layers F.Cu F.Paste F.Mask))
  (pad D6 smd circle (at -18.415 -1.905) (size 0.64 0.64) (layers F.Cu F.Paste F.Mask))
  (pad D5 smd circle (at -19.685 -1.905) (size 0.64 0.64) (layers F.Cu F.Paste F.Mask))
  (pad D4 smd circle (at -20.955 -1.905) (size 0.64 0.64) (layers F.Cu F.Paste F.Mask))
  (pad D3 smd circle (at -22.225 -1.905) (size 0.64 0.64) (layers F.Cu F.Paste F.Mask))
  (pad D2 smd circle (at -23.495 -1.905) (size 0.64 0.64) (layers F.Cu F.Paste F.Mask))
  (pad D1 smd circle (at -24.765 -1.905) (size 0.64 0.64) (layers F.Cu F.Paste F.Mask))
  (pad H1 smd circle (at -24.765 3.175) (size 0.64 0.64) (layers F.Cu F.Paste F.Mask))
  (pad H2 smd circle (at -23.495 3.175) (size 0.64 0.64) (layers F.Cu F.Paste F.Mask))
  (pad H3 smd circle (at -22.225 3.175) (size 0.64 0.64) (layers F.Cu F.Paste F.Mask))
  (pad H4 smd circle (at -20.955 3.175) (size 0.64 0.64) (layers F.Cu F.Paste F.Mask))
  (pad H5 smd circle (at -19.685 3.175) (size 0.64 0.64) (layers F.Cu F.Paste F.Mask))
  (pad H6 smd circle (at -18.415 3.175) (size 0.64 0.64) (layers F.Cu F.Paste F.Mask))
  (pad H7 smd circle (at -17.145 3.175) (size 0.64 0.64) (layers F.Cu F.Paste F.Mask))
  (pad H8 smd circle (at -15.875 3.175) (size 0.64 0.64) (layers F.Cu F.Paste F.Mask))
  (pad H9 smd circle (at -14.605 3.175) (size 0.64 0.64) (layers F.Cu F.Paste F.Mask))
  (pad H10 smd circle (at -13.335 3.175) (size 0.64 0.64) (layers F.Cu F.Paste F.Mask))
  (pad H11 smd circle (at -12.065 3.175) (size 0.64 0.64) (layers F.Cu F.Paste F.Mask))
  (pad H12 smd circle (at -10.795 3.175) (size 0.64 0.64) (layers F.Cu F.Paste F.Mask))
  (pad H13 smd circle (at -9.525 3.175) (size 0.64 0.64) (layers F.Cu F.Paste F.Mask))
  (pad H14 smd circle (at -8.255 3.175) (size 0.64 0.64) (layers F.Cu F.Paste F.Mask))
  (pad H15 smd circle (at -6.985 3.175) (size 0.64 0.64) (layers F.Cu F.Paste F.Mask))
  (pad H16 smd circle (at -5.715 3.175) (size 0.64 0.64) (layers F.Cu F.Paste F.Mask))
  (pad H17 smd circle (at -4.445 3.175) (size 0.64 0.64) (layers F.Cu F.Paste F.Mask))
  (pad H18 smd circle (at -3.175 3.175) (size 0.64 0.64) (layers F.Cu F.Paste F.Mask))
  (pad H19 smd circle (at -1.905 3.175) (size 0.64 0.64) (layers F.Cu F.Paste F.Mask))
  (pad H20 smd circle (at -0.64 3.175) (size 0.64 0.64) (layers F.Cu F.Paste F.Mask))
  (pad H40 smd circle (at 24.765 3.175) (size 0.64 0.64) (layers F.Cu F.Paste F.Mask))
  (pad H39 smd circle (at 23.495 3.175) (size 0.64 0.64) (layers F.Cu F.Paste F.Mask))
  (pad H38 smd circle (at 22.225 3.175) (size 0.64 0.64) (layers F.Cu F.Paste F.Mask))
  (pad H37 smd circle (at 20.955 3.175) (size 0.64 0.64) (layers F.Cu F.Paste F.Mask))
  (pad H36 smd circle (at 19.685 3.175) (size 0.64 0.64) (layers F.Cu F.Paste F.Mask))
  (pad H35 smd circle (at 18.415 3.175) (size 0.64 0.64) (layers F.Cu F.Paste F.Mask))
  (pad H34 smd circle (at 17.145 3.175) (size 0.64 0.64) (layers F.Cu F.Paste F.Mask))
  (pad H33 smd circle (at 15.875 3.175) (size 0.64 0.64) (layers F.Cu F.Paste F.Mask))
  (pad H32 smd circle (at 14.605 3.175) (size 0.64 0.64) (layers F.Cu F.Paste F.Mask))
  (pad H31 smd circle (at 13.335 3.175) (size 0.64 0.64) (layers F.Cu F.Paste F.Mask))
  (pad H30 smd circle (at 12.065 3.175) (size 0.64 0.64) (layers F.Cu F.Paste F.Mask))
  (pad H29 smd circle (at 10.795 3.175) (size 0.64 0.64) (layers F.Cu F.Paste F.Mask))
  (pad H28 smd circle (at 9.525 3.175) (size 0.64 0.64) (layers F.Cu F.Paste F.Mask))
  (pad H27 smd circle (at 8.255 3.175) (size 0.64 0.64) (layers F.Cu F.Paste F.Mask))
  (pad H26 smd circle (at 6.985 3.175) (size 0.64 0.64) (layers F.Cu F.Paste F.Mask))
  (pad H25 smd circle (at 5.715 3.175) (size 0.64 0.64) (layers F.Cu F.Paste F.Mask))
  (pad H24 smd circle (at 4.445 3.175) (size 0.64 0.64) (layers F.Cu F.Paste F.Mask))
  (pad H23 smd circle (at 3.175 3.175) (size 0.64 0.64) (layers F.Cu F.Paste F.Mask))
  (pad H22 smd circle (at 1.905 3.175) (size 0.64 0.64) (layers F.Cu F.Paste F.Mask))
  (pad H21 smd circle (at 0.64 3.175) (size 0.64 0.64) (layers F.Cu F.Paste F.Mask))
  (pad G21 smd circle (at 0.64 1.905) (size 0.64 0.64) (layers F.Cu F.Paste F.Mask))
  (pad G22 smd circle (at 1.905 1.905) (size 0.64 0.64) (layers F.Cu F.Paste F.Mask))
  (pad G23 smd circle (at 3.175 1.905) (size 0.64 0.64) (layers F.Cu F.Paste F.Mask))
  (pad G24 smd circle (at 4.445 1.905) (size 0.64 0.64) (layers F.Cu F.Paste F.Mask))
  (pad G25 smd circle (at 5.715 1.905) (size 0.64 0.64) (layers F.Cu F.Paste F.Mask))
  (pad G26 smd circle (at 6.985 1.905) (size 0.64 0.64) (layers F.Cu F.Paste F.Mask))
  (pad G27 smd circle (at 8.255 1.905) (size 0.64 0.64) (layers F.Cu F.Paste F.Mask))
  (pad G28 smd circle (at 9.525 1.905) (size 0.64 0.64) (layers F.Cu F.Paste F.Mask))
  (pad G29 smd circle (at 10.795 1.905) (size 0.64 0.64) (layers F.Cu F.Paste F.Mask))
  (pad G30 smd circle (at 12.065 1.905) (size 0.64 0.64) (layers F.Cu F.Paste F.Mask))
  (pad G31 smd circle (at 13.335 1.905) (size 0.64 0.64) (layers F.Cu F.Paste F.Mask))
  (pad G32 smd circle (at 14.605 1.905) (size 0.64 0.64) (layers F.Cu F.Paste F.Mask))
  (pad G33 smd circle (at 15.875 1.905) (size 0.64 0.64) (layers F.Cu F.Paste F.Mask))
  (pad G34 smd circle (at 17.145 1.905) (size 0.64 0.64) (layers F.Cu F.Paste F.Mask))
  (pad G35 smd circle (at 18.415 1.905) (size 0.64 0.64) (layers F.Cu F.Paste F.Mask))
  (pad G36 smd circle (at 19.685 1.905) (size 0.64 0.64) (layers F.Cu F.Paste F.Mask))
  (pad G37 smd circle (at 20.955 1.905) (size 0.64 0.64) (layers F.Cu F.Paste F.Mask))
  (pad G38 smd circle (at 22.225 1.905) (size 0.64 0.64) (layers F.Cu F.Paste F.Mask))
  (pad G39 smd circle (at 23.495 1.905) (size 0.64 0.64) (layers F.Cu F.Paste F.Mask))
  (pad G40 smd circle (at 24.765 1.905) (size 0.64 0.64) (layers F.Cu F.Paste F.Mask))
  (pad G20 smd circle (at -0.64 1.905) (size 0.64 0.64) (layers F.Cu F.Paste F.Mask))
  (pad G19 smd circle (at -1.905 1.905) (size 0.64 0.64) (layers F.Cu F.Paste F.Mask))
  (pad G18 smd circle (at -3.175 1.905) (size 0.64 0.64) (layers F.Cu F.Paste F.Mask))
  (pad G17 smd circle (at -4.445 1.905) (size 0.64 0.64) (layers F.Cu F.Paste F.Mask))
  (pad G16 smd circle (at -5.715 1.905) (size 0.64 0.64) (layers F.Cu F.Paste F.Mask))
  (pad G15 smd circle (at -6.985 1.905) (size 0.64 0.64) (layers F.Cu F.Paste F.Mask))
  (pad G14 smd circle (at -8.255 1.905) (size 0.64 0.64) (layers F.Cu F.Paste F.Mask))
  (pad G13 smd circle (at -9.525 1.905) (size 0.64 0.64) (layers F.Cu F.Paste F.Mask))
  (pad G12 smd circle (at -10.795 1.905) (size 0.64 0.64) (layers F.Cu F.Paste F.Mask))
  (pad G11 smd circle (at -12.065 1.905) (size 0.64 0.64) (layers F.Cu F.Paste F.Mask))
  (pad G10 smd circle (at -13.335 1.905) (size 0.64 0.64) (layers F.Cu F.Paste F.Mask))
  (pad G9 smd circle (at -14.605 1.905) (size 0.64 0.64) (layers F.Cu F.Paste F.Mask))
  (pad G8 smd circle (at -15.875 1.905) (size 0.64 0.64) (layers F.Cu F.Paste F.Mask))
  (pad G7 smd circle (at -17.145 1.905) (size 0.64 0.64) (layers F.Cu F.Paste F.Mask))
  (pad G6 smd circle (at -18.415 1.905) (size 0.64 0.64) (layers F.Cu F.Paste F.Mask))
  (pad G5 smd circle (at -19.685 1.905) (size 0.64 0.64) (layers F.Cu F.Paste F.Mask))
  (pad G4 smd circle (at -20.955 1.905) (size 0.64 0.64) (layers F.Cu F.Paste F.Mask))
  (pad G3 smd circle (at -22.225 1.905) (size 0.64 0.64) (layers F.Cu F.Paste F.Mask))
  (pad G2 smd circle (at -23.495 1.905) (size 0.64 0.64) (layers F.Cu F.Paste F.Mask))
  (pad G1 smd circle (at -24.765 1.905) (size 0.64 0.64) (layers F.Cu F.Paste F.Mask))
  (pad B1 smd circle (at -24.765 -4.445) (size 0.64 0.64) (layers F.Cu F.Paste F.Mask))
  (pad B2 smd circle (at -23.495 -4.445) (size 0.64 0.64) (layers F.Cu F.Paste F.Mask))
  (pad B3 smd circle (at -22.225 -4.445) (size 0.64 0.64) (layers F.Cu F.Paste F.Mask))
  (pad B4 smd circle (at -20.955 -4.445) (size 0.64 0.64) (layers F.Cu F.Paste F.Mask))
  (pad B5 smd circle (at -19.685 -4.445) (size 0.64 0.64) (layers F.Cu F.Paste F.Mask))
  (pad B6 smd circle (at -18.415 -4.445) (size 0.64 0.64) (layers F.Cu F.Paste F.Mask))
  (pad B7 smd circle (at -17.145 -4.445) (size 0.64 0.64) (layers F.Cu F.Paste F.Mask))
  (pad B8 smd circle (at -15.875 -4.445) (size 0.64 0.64) (layers F.Cu F.Paste F.Mask))
  (pad B9 smd circle (at -14.605 -4.445) (size 0.64 0.64) (layers F.Cu F.Paste F.Mask))
  (pad B10 smd circle (at -13.335 -4.445) (size 0.64 0.64) (layers F.Cu F.Paste F.Mask))
  (pad B11 smd circle (at -12.065 -4.445) (size 0.64 0.64) (layers F.Cu F.Paste F.Mask))
  (pad B12 smd circle (at -10.795 -4.445) (size 0.64 0.64) (layers F.Cu F.Paste F.Mask))
  (pad B13 smd circle (at -9.525 -4.445) (size 0.64 0.64) (layers F.Cu F.Paste F.Mask))
  (pad B14 smd circle (at -8.255 -4.445) (size 0.64 0.64) (layers F.Cu F.Paste F.Mask))
  (pad B15 smd circle (at -6.985 -4.445) (size 0.64 0.64) (layers F.Cu F.Paste F.Mask))
  (pad B16 smd circle (at -5.715 -4.445) (size 0.64 0.64) (layers F.Cu F.Paste F.Mask))
  (pad B17 smd circle (at -4.445 -4.445) (size 0.64 0.64) (layers F.Cu F.Paste F.Mask))
  (pad B18 smd circle (at -3.175 -4.445) (size 0.64 0.64) (layers F.Cu F.Paste F.Mask))
  (pad B19 smd circle (at -1.905 -4.445) (size 0.64 0.64) (layers F.Cu F.Paste F.Mask))
  (pad B20 smd circle (at -0.64 -4.445) (size 0.64 0.64) (layers F.Cu F.Paste F.Mask))
  (pad B21 smd circle (at 0.64 -4.445) (size 0.64 0.64) (layers F.Cu F.Paste F.Mask))
  (pad B22 smd circle (at 1.905 -4.445) (size 0.64 0.64) (layers F.Cu F.Paste F.Mask))
  (pad B23 smd circle (at 3.175 -4.445) (size 0.64 0.64) (layers F.Cu F.Paste F.Mask))
  (pad B24 smd circle (at 4.445 -4.445) (size 0.64 0.64) (layers F.Cu F.Paste F.Mask))
  (pad B25 smd circle (at 5.715 -4.445) (size 0.64 0.64) (layers F.Cu F.Paste F.Mask))
  (pad B26 smd circle (at 6.985 -4.445) (size 0.64 0.64) (layers F.Cu F.Paste F.Mask))
  (pad B27 smd circle (at 8.255 -4.445) (size 0.64 0.64) (layers F.Cu F.Paste F.Mask))
  (pad B28 smd circle (at 9.525 -4.445) (size 0.64 0.64) (layers F.Cu F.Paste F.Mask))
  (pad B29 smd circle (at 10.795 -4.445) (size 0.64 0.64) (layers F.Cu F.Paste F.Mask))
  (pad B30 smd circle (at 12.065 -4.445) (size 0.64 0.64) (layers F.Cu F.Paste F.Mask))
  (pad B31 smd circle (at 13.335 -4.445) (size 0.64 0.64) (layers F.Cu F.Paste F.Mask))
  (pad B32 smd circle (at 14.605 -4.445) (size 0.64 0.64) (layers F.Cu F.Paste F.Mask))
  (pad B33 smd circle (at 15.875 -4.445) (size 0.64 0.64) (layers F.Cu F.Paste F.Mask))
  (pad B34 smd circle (at 17.145 -4.445) (size 0.64 0.64) (layers F.Cu F.Paste F.Mask))
  (pad B35 smd circle (at 18.415 -4.445) (size 0.64 0.64) (layers F.Cu F.Paste F.Mask))
  (pad B36 smd circle (at 19.685 -4.445) (size 0.64 0.64) (layers F.Cu F.Paste F.Mask))
  (pad B37 smd circle (at 20.955 -4.445) (size 0.64 0.64) (layers F.Cu F.Paste F.Mask))
  (pad B38 smd circle (at 22.225 -4.445) (size 0.64 0.64) (layers F.Cu F.Paste F.Mask))
  (pad B39 smd circle (at 23.495 -4.445) (size 0.64 0.64) (layers F.Cu F.Paste F.Mask))
  (pad B40 smd circle (at 24.765 -4.445) (size 0.64 0.64) (layers F.Cu F.Paste F.Mask))
  (pad A1 smd circle (at -24.765 -5.715) (size 0.64 0.64) (layers F.Cu F.Paste F.Mask))
  (pad A2 smd circle (at -23.495 -5.715) (size 0.64 0.64) (layers F.Cu F.Paste F.Mask))
  (pad A3 smd circle (at -22.225 -5.715) (size 0.64 0.64) (layers F.Cu F.Paste F.Mask))
  (pad A4 smd circle (at -20.955 -5.715) (size 0.64 0.64) (layers F.Cu F.Paste F.Mask))
  (pad A5 smd circle (at -19.685 -5.715) (size 0.64 0.64) (layers F.Cu F.Paste F.Mask))
  (pad A6 smd circle (at -18.415 -5.715) (size 0.64 0.64) (layers F.Cu F.Paste F.Mask))
  (pad A7 smd circle (at -17.145 -5.715) (size 0.64 0.64) (layers F.Cu F.Paste F.Mask))
  (pad A8 smd circle (at -15.875 -5.715) (size 0.64 0.64) (layers F.Cu F.Paste F.Mask))
  (pad A9 smd circle (at -14.605 -5.715) (size 0.64 0.64) (layers F.Cu F.Paste F.Mask))
  (pad A10 smd circle (at -13.335 -5.715) (size 0.64 0.64) (layers F.Cu F.Paste F.Mask))
  (pad A11 smd circle (at -12.065 -5.715) (size 0.64 0.64) (layers F.Cu F.Paste F.Mask))
  (pad A12 smd circle (at -10.795 -5.715) (size 0.64 0.64) (layers F.Cu F.Paste F.Mask))
  (pad A13 smd circle (at -9.525 -5.715) (size 0.64 0.64) (layers F.Cu F.Paste F.Mask))
  (pad A14 smd circle (at -8.255 -5.715) (size 0.64 0.64) (layers F.Cu F.Paste F.Mask))
  (pad A15 smd circle (at -6.985 -5.715) (size 0.64 0.64) (layers F.Cu F.Paste F.Mask))
  (pad A16 smd circle (at -5.715 -5.715) (size 0.64 0.64) (layers F.Cu F.Paste F.Mask))
  (pad A17 smd circle (at -4.445 -5.715) (size 0.64 0.64) (layers F.Cu F.Paste F.Mask))
  (pad A18 smd circle (at -3.175 -5.715) (size 0.64 0.64) (layers F.Cu F.Paste F.Mask))
  (pad A19 smd circle (at -1.905 -5.715) (size 0.64 0.64) (layers F.Cu F.Paste F.Mask))
  (pad A20 smd circle (at -0.64 -5.715) (size 0.64 0.64) (layers F.Cu F.Paste F.Mask))
  (pad A21 smd circle (at 0.64 -5.715) (size 0.64 0.64) (layers F.Cu F.Paste F.Mask))
  (pad A22 smd circle (at 1.905 -5.715) (size 0.64 0.64) (layers F.Cu F.Paste F.Mask))
  (pad A23 smd circle (at 3.175 -5.715) (size 0.64 0.64) (layers F.Cu F.Paste F.Mask))
  (pad A24 smd circle (at 4.445 -5.715) (size 0.64 0.64) (layers F.Cu F.Paste F.Mask))
  (pad A25 smd circle (at 5.715 -5.715) (size 0.64 0.64) (layers F.Cu F.Paste F.Mask))
  (pad A26 smd circle (at 6.985 -5.715) (size 0.64 0.64) (layers F.Cu F.Paste F.Mask))
  (pad A27 smd circle (at 8.255 -5.715) (size 0.64 0.64) (layers F.Cu F.Paste F.Mask))
  (pad A28 smd circle (at 9.525 -5.715) (size 0.64 0.64) (layers F.Cu F.Paste F.Mask))
  (pad A29 smd circle (at 10.795 -5.715) (size 0.64 0.64) (layers F.Cu F.Paste F.Mask))
  (pad A30 smd circle (at 12.065 -5.715) (size 0.64 0.64) (layers F.Cu F.Paste F.Mask))
  (pad A31 smd circle (at 13.335 -5.715) (size 0.64 0.64) (layers F.Cu F.Paste F.Mask))
  (pad A32 smd circle (at 14.605 -5.715) (size 0.64 0.64) (layers F.Cu F.Paste F.Mask))
  (pad A33 smd circle (at 15.875 -5.715) (size 0.64 0.64) (layers F.Cu F.Paste F.Mask))
  (pad A34 smd circle (at 17.145 -5.715) (size 0.64 0.64) (layers F.Cu F.Paste F.Mask))
  (pad A35 smd circle (at 18.415 -5.715) (size 0.64 0.64) (layers F.Cu F.Paste F.Mask))
  (pad A36 smd circle (at 19.685 -5.715) (size 0.64 0.64) (layers F.Cu F.Paste F.Mask))
  (pad A37 smd circle (at 20.955 -5.715) (size 0.64 0.64) (layers F.Cu F.Paste F.Mask))
  (pad A38 smd circle (at 22.225 -5.715) (size 0.64 0.64) (layers F.Cu F.Paste F.Mask))
  (pad A39 smd circle (at 23.495 -5.715) (size 0.64 0.64) (layers F.Cu F.Paste F.Mask))
  (pad A40 smd circle (at 24.765 -5.715) (size 0.64 0.64) (layers F.Cu F.Paste F.Mask))
  (pad E1 smd circle (at -24.765 -0.64) (size 0.64 0.64) (layers F.Cu F.Paste F.Mask))
  (pad E2 smd circle (at -23.495 -0.64) (size 0.64 0.64) (layers F.Cu F.Paste F.Mask))
  (pad E3 smd circle (at -22.225 -0.64) (size 0.64 0.64) (layers F.Cu F.Paste F.Mask))
  (pad E4 smd circle (at -20.955 -0.64) (size 0.64 0.64) (layers F.Cu F.Paste F.Mask))
  (pad E5 smd circle (at -19.685 -0.64) (size 0.64 0.64) (layers F.Cu F.Paste F.Mask))
  (pad E6 smd circle (at -18.415 -0.64) (size 0.64 0.64) (layers F.Cu F.Paste F.Mask))
  (pad E7 smd circle (at -17.145 -0.64) (size 0.64 0.64) (layers F.Cu F.Paste F.Mask))
  (pad E8 smd circle (at -15.875 -0.64) (size 0.64 0.64) (layers F.Cu F.Paste F.Mask))
  (pad E9 smd circle (at -14.605 -0.64) (size 0.64 0.64) (layers F.Cu F.Paste F.Mask))
  (pad E10 smd circle (at -13.335 -0.64) (size 0.64 0.64) (layers F.Cu F.Paste F.Mask))
  (pad E11 smd circle (at -12.065 -0.64) (size 0.64 0.64) (layers F.Cu F.Paste F.Mask))
  (pad E12 smd circle (at -10.795 -0.64) (size 0.64 0.64) (layers F.Cu F.Paste F.Mask))
  (pad E13 smd circle (at -9.525 -0.64) (size 0.64 0.64) (layers F.Cu F.Paste F.Mask))
  (pad E14 smd circle (at -8.255 -0.64) (size 0.64 0.64) (layers F.Cu F.Paste F.Mask))
  (pad E15 smd circle (at -6.985 -0.64) (size 0.64 0.64) (layers F.Cu F.Paste F.Mask))
  (pad E16 smd circle (at -5.715 -0.64) (size 0.64 0.64) (layers F.Cu F.Paste F.Mask))
  (pad E17 smd circle (at -4.445 -0.64) (size 0.64 0.64) (layers F.Cu F.Paste F.Mask))
  (pad E18 smd circle (at -3.175 -0.64) (size 0.64 0.64) (layers F.Cu F.Paste F.Mask))
  (pad E19 smd circle (at -1.905 -0.64) (size 0.64 0.64) (layers F.Cu F.Paste F.Mask))
  (pad E20 smd circle (at -0.64 -0.64) (size 0.64 0.64) (layers F.Cu F.Paste F.Mask))
  (pad E21 smd circle (at 0.64 -0.64) (size 0.64 0.64) (layers F.Cu F.Paste F.Mask))
  (pad E22 smd circle (at 1.905 -0.64) (size 0.64 0.64) (layers F.Cu F.Paste F.Mask))
  (pad E23 smd circle (at 3.175 -0.64) (size 0.64 0.64) (layers F.Cu F.Paste F.Mask))
  (pad E24 smd circle (at 4.445 -0.64) (size 0.64 0.64) (layers F.Cu F.Paste F.Mask))
  (pad E25 smd circle (at 5.715 -0.64) (size 0.64 0.64) (layers F.Cu F.Paste F.Mask))
  (pad E26 smd circle (at 6.985 -0.64) (size 0.64 0.64) (layers F.Cu F.Paste F.Mask))
  (pad E27 smd circle (at 8.255 -0.64) (size 0.64 0.64) (layers F.Cu F.Paste F.Mask))
  (pad E28 smd circle (at 9.525 -0.64) (size 0.64 0.64) (layers F.Cu F.Paste F.Mask))
  (pad E29 smd circle (at 10.795 -0.64) (size 0.64 0.64) (layers F.Cu F.Paste F.Mask))
  (pad E30 smd circle (at 12.065 -0.64) (size 0.64 0.64) (layers F.Cu F.Paste F.Mask))
  (pad E31 smd circle (at 13.335 -0.64) (size 0.64 0.64) (layers F.Cu F.Paste F.Mask))
  (pad E32 smd circle (at 14.605 -0.64) (size 0.64 0.64) (layers F.Cu F.Paste F.Mask))
  (pad E33 smd circle (at 15.875 -0.64) (size 0.64 0.64) (layers F.Cu F.Paste F.Mask))
  (pad E34 smd circle (at 17.145 -0.64) (size 0.64 0.64) (layers F.Cu F.Paste F.Mask))
  (pad E35 smd circle (at 18.415 -0.64) (size 0.64 0.64) (layers F.Cu F.Paste F.Mask))
  (pad E36 smd circle (at 19.685 -0.64) (size 0.64 0.64) (layers F.Cu F.Paste F.Mask))
  (pad E37 smd circle (at 20.955 -0.64) (size 0.64 0.64) (layers F.Cu F.Paste F.Mask))
  (pad E38 smd circle (at 22.225 -0.64) (size 0.64 0.64) (layers F.Cu F.Paste F.Mask))
  (pad E39 smd circle (at 23.495 -0.64) (size 0.64 0.64) (layers F.Cu F.Paste F.Mask))
  (pad E40 smd circle (at 24.765 -0.64) (size 0.64 0.64) (layers F.Cu F.Paste F.Mask))
  (pad F1 smd circle (at -24.765 0.64) (size 0.64 0.64) (layers F.Cu F.Paste F.Mask))
  (pad F2 smd circle (at -23.495 0.64) (size 0.64 0.64) (layers F.Cu F.Paste F.Mask))
  (pad F3 smd circle (at -22.225 0.64) (size 0.64 0.64) (layers F.Cu F.Paste F.Mask))
  (pad F4 smd circle (at -20.955 0.64) (size 0.64 0.64) (layers F.Cu F.Paste F.Mask))
  (pad F5 smd circle (at -19.685 0.64) (size 0.64 0.64) (layers F.Cu F.Paste F.Mask))
  (pad F6 smd circle (at -18.415 0.64) (size 0.64 0.64) (layers F.Cu F.Paste F.Mask))
  (pad F7 smd circle (at -17.145 0.64) (size 0.64 0.64) (layers F.Cu F.Paste F.Mask))
  (pad F8 smd circle (at -15.875 0.64) (size 0.64 0.64) (layers F.Cu F.Paste F.Mask))
  (pad F9 smd circle (at -14.605 0.64) (size 0.64 0.64) (layers F.Cu F.Paste F.Mask))
  (pad F10 smd circle (at -13.335 0.64) (size 0.64 0.64) (layers F.Cu F.Paste F.Mask))
  (pad F11 smd circle (at -12.065 0.64) (size 0.64 0.64) (layers F.Cu F.Paste F.Mask))
  (pad F12 smd circle (at -10.795 0.64) (size 0.64 0.64) (layers F.Cu F.Paste F.Mask))
  (pad F13 smd circle (at -9.525 0.64) (size 0.64 0.64) (layers F.Cu F.Paste F.Mask))
  (pad F14 smd circle (at -8.255 0.64) (size 0.64 0.64) (layers F.Cu F.Paste F.Mask))
  (pad F15 smd circle (at -6.985 0.64) (size 0.64 0.64) (layers F.Cu F.Paste F.Mask))
  (pad F16 smd circle (at -5.715 0.64) (size 0.64 0.64) (layers F.Cu F.Paste F.Mask))
  (pad F17 smd circle (at -4.445 0.64) (size 0.64 0.64) (layers F.Cu F.Paste F.Mask))
  (pad F18 smd circle (at -3.175 0.64) (size 0.64 0.64) (layers F.Cu F.Paste F.Mask))
  (pad F19 smd circle (at -1.905 0.64) (size 0.64 0.64) (layers F.Cu F.Paste F.Mask))
  (pad F20 smd circle (at -0.64 0.64) (size 0.64 0.64) (layers F.Cu F.Paste F.Mask))
  (pad F21 smd circle (at 0.64 0.64) (size 0.64 0.64) (layers F.Cu F.Paste F.Mask))
  (pad F22 smd circle (at 1.905 0.64) (size 0.64 0.64) (layers F.Cu F.Paste F.Mask))
  (pad F23 smd circle (at 3.175 0.64) (size 0.64 0.64) (layers F.Cu F.Paste F.Mask))
  (pad F24 smd circle (at 4.445 0.64) (size 0.64 0.64) (layers F.Cu F.Paste F.Mask))
  (pad F25 smd circle (at 5.715 0.64) (size 0.64 0.64) (layers F.Cu F.Paste F.Mask))
  (pad F26 smd circle (at 6.985 0.64) (size 0.64 0.64) (layers F.Cu F.Paste F.Mask))
  (pad F27 smd circle (at 8.255 0.64) (size 0.64 0.64) (layers F.Cu F.Paste F.Mask))
  (pad F28 smd circle (at 9.525 0.64) (size 0.64 0.64) (layers F.Cu F.Paste F.Mask))
  (pad F29 smd circle (at 10.795 0.64) (size 0.64 0.64) (layers F.Cu F.Paste F.Mask))
  (pad F30 smd circle (at 12.065 0.64) (size 0.64 0.64) (layers F.Cu F.Paste F.Mask))
  (pad F31 smd circle (at 13.335 0.64) (size 0.64 0.64) (layers F.Cu F.Paste F.Mask))
  (pad F32 smd circle (at 14.605 0.64) (size 0.64 0.64) (layers F.Cu F.Paste F.Mask))
  (pad F33 smd circle (at 15.875 0.64) (size 0.64 0.64) (layers F.Cu F.Paste F.Mask))
  (pad F34 smd circle (at 17.145 0.64) (size 0.64 0.64) (layers F.Cu F.Paste F.Mask))
  (pad F35 smd circle (at 18.415 0.64) (size 0.64 0.64) (layers F.Cu F.Paste F.Mask))
  (pad F36 smd circle (at 19.685 0.64) (size 0.64 0.64) (layers F.Cu F.Paste F.Mask))
  (pad F37 smd circle (at 20.955 0.64) (size 0.64 0.64) (layers F.Cu F.Paste F.Mask))
  (pad F38 smd circle (at 22.225 0.64) (size 0.64 0.64) (layers F.Cu F.Paste F.Mask))
  (pad F39 smd circle (at 23.495 0.64) (size 0.64 0.64) (layers F.Cu F.Paste F.Mask))
  (pad F40 smd circle (at 24.765 0.64) (size 0.64 0.64) (layers F.Cu F.Paste F.Mask))
  (pad J1 smd circle (at -24.765 4.445) (size 0.64 0.64) (layers F.Cu F.Paste F.Mask))
  (pad J2 smd circle (at -23.495 4.445) (size 0.64 0.64) (layers F.Cu F.Paste F.Mask))
  (pad J3 smd circle (at -22.225 4.445) (size 0.64 0.64) (layers F.Cu F.Paste F.Mask))
  (pad J4 smd circle (at -20.955 4.445) (size 0.64 0.64) (layers F.Cu F.Paste F.Mask))
  (pad J5 smd circle (at -19.685 4.445) (size 0.64 0.64) (layers F.Cu F.Paste F.Mask))
  (pad J6 smd circle (at -18.415 4.445) (size 0.64 0.64) (layers F.Cu F.Paste F.Mask))
  (pad J7 smd circle (at -17.145 4.445) (size 0.64 0.64) (layers F.Cu F.Paste F.Mask))
  (pad J8 smd circle (at -15.875 4.445) (size 0.64 0.64) (layers F.Cu F.Paste F.Mask))
  (pad J9 smd circle (at -14.605 4.445) (size 0.64 0.64) (layers F.Cu F.Paste F.Mask))
  (pad J10 smd circle (at -13.335 4.445) (size 0.64 0.64) (layers F.Cu F.Paste F.Mask))
  (pad J11 smd circle (at -12.065 4.445) (size 0.64 0.64) (layers F.Cu F.Paste F.Mask))
  (pad J12 smd circle (at -10.795 4.445) (size 0.64 0.64) (layers F.Cu F.Paste F.Mask))
  (pad J13 smd circle (at -9.525 4.445) (size 0.64 0.64) (layers F.Cu F.Paste F.Mask))
  (pad J14 smd circle (at -8.255 4.445) (size 0.64 0.64) (layers F.Cu F.Paste F.Mask))
  (pad J15 smd circle (at -6.985 4.445) (size 0.64 0.64) (layers F.Cu F.Paste F.Mask))
  (pad J16 smd circle (at -5.715 4.445) (size 0.64 0.64) (layers F.Cu F.Paste F.Mask))
  (pad J17 smd circle (at -4.445 4.445) (size 0.64 0.64) (layers F.Cu F.Paste F.Mask))
  (pad J18 smd circle (at -3.175 4.445) (size 0.64 0.64) (layers F.Cu F.Paste F.Mask))
  (pad J19 smd circle (at -1.905 4.445) (size 0.64 0.64) (layers F.Cu F.Paste F.Mask))
  (pad J20 smd circle (at -0.64 4.445) (size 0.64 0.64) (layers F.Cu F.Paste F.Mask))
  (pad J21 smd circle (at 0.64 4.445) (size 0.64 0.64) (layers F.Cu F.Paste F.Mask))
  (pad J22 smd circle (at 1.905 4.445) (size 0.64 0.64) (layers F.Cu F.Paste F.Mask))
  (pad J23 smd circle (at 3.175 4.445) (size 0.64 0.64) (layers F.Cu F.Paste F.Mask))
  (pad J24 smd circle (at 4.445 4.445) (size 0.64 0.64) (layers F.Cu F.Paste F.Mask))
  (pad J25 smd circle (at 5.715 4.445) (size 0.64 0.64) (layers F.Cu F.Paste F.Mask))
  (pad J26 smd circle (at 6.985 4.445) (size 0.64 0.64) (layers F.Cu F.Paste F.Mask))
  (pad J27 smd circle (at 8.255 4.445) (size 0.64 0.64) (layers F.Cu F.Paste F.Mask))
  (pad J28 smd circle (at 9.525 4.445) (size 0.64 0.64) (layers F.Cu F.Paste F.Mask))
  (pad J29 smd circle (at 10.795 4.445) (size 0.64 0.64) (layers F.Cu F.Paste F.Mask))
  (pad J30 smd circle (at 12.065 4.445) (size 0.64 0.64) (layers F.Cu F.Paste F.Mask))
  (pad J31 smd circle (at 13.335 4.445) (size 0.64 0.64) (layers F.Cu F.Paste F.Mask))
  (pad J32 smd circle (at 14.605 4.445) (size 0.64 0.64) (layers F.Cu F.Paste F.Mask))
  (pad J33 smd circle (at 15.875 4.445) (size 0.64 0.64) (layers F.Cu F.Paste F.Mask))
  (pad J34 smd circle (at 17.145 4.445) (size 0.64 0.64) (layers F.Cu F.Paste F.Mask))
  (pad J35 smd circle (at 18.415 4.445) (size 0.64 0.64) (layers F.Cu F.Paste F.Mask))
  (pad J36 smd circle (at 19.685 4.445) (size 0.64 0.64) (layers F.Cu F.Paste F.Mask))
  (pad J37 smd circle (at 20.955 4.445) (size 0.64 0.64) (layers F.Cu F.Paste F.Mask))
  (pad J38 smd circle (at 22.225 4.445) (size 0.64 0.64) (layers F.Cu F.Paste F.Mask))
  (pad J39 smd circle (at 23.495 4.445) (size 0.64 0.64) (layers F.Cu F.Paste F.Mask))
  (pad J40 smd circle (at 24.765 4.445) (size 0.64 0.64) (layers F.Cu F.Paste F.Mask))
  (pad K1 smd circle (at -24.765 5.715) (size 0.64 0.64) (layers F.Cu F.Paste F.Mask))
  (pad K2 smd circle (at -23.495 5.715) (size 0.64 0.64) (layers F.Cu F.Paste F.Mask))
  (pad K3 smd circle (at -22.225 5.715) (size 0.64 0.64) (layers F.Cu F.Paste F.Mask))
  (pad K4 smd circle (at -20.955 5.715) (size 0.64 0.64) (layers F.Cu F.Paste F.Mask))
  (pad K5 smd circle (at -19.685 5.715) (size 0.64 0.64) (layers F.Cu F.Paste F.Mask))
  (pad K6 smd circle (at -18.415 5.715) (size 0.64 0.64) (layers F.Cu F.Paste F.Mask))
  (pad K7 smd circle (at -17.145 5.715) (size 0.64 0.64) (layers F.Cu F.Paste F.Mask))
  (pad K8 smd circle (at -15.875 5.715) (size 0.64 0.64) (layers F.Cu F.Paste F.Mask))
  (pad K9 smd circle (at -14.605 5.715) (size 0.64 0.64) (layers F.Cu F.Paste F.Mask))
  (pad K10 smd circle (at -13.335 5.715) (size 0.64 0.64) (layers F.Cu F.Paste F.Mask))
  (pad K11 smd circle (at -12.065 5.715) (size 0.64 0.64) (layers F.Cu F.Paste F.Mask))
  (pad K12 smd circle (at -10.795 5.715) (size 0.64 0.64) (layers F.Cu F.Paste F.Mask))
  (pad K13 smd circle (at -9.525 5.715) (size 0.64 0.64) (layers F.Cu F.Paste F.Mask))
  (pad K14 smd circle (at -8.255 5.715) (size 0.64 0.64) (layers F.Cu F.Paste F.Mask))
  (pad K15 smd circle (at -6.985 5.715) (size 0.64 0.64) (layers F.Cu F.Paste F.Mask))
  (pad K16 smd circle (at -5.715 5.715) (size 0.64 0.64) (layers F.Cu F.Paste F.Mask))
  (pad K17 smd circle (at -4.445 5.715) (size 0.64 0.64) (layers F.Cu F.Paste F.Mask))
  (pad K18 smd circle (at -3.175 5.715) (size 0.64 0.64) (layers F.Cu F.Paste F.Mask))
  (pad K19 smd circle (at -1.905 5.715) (size 0.64 0.64) (layers F.Cu F.Paste F.Mask))
  (pad K20 smd circle (at -0.64 5.715) (size 0.64 0.64) (layers F.Cu F.Paste F.Mask))
  (pad K21 smd circle (at 0.64 5.715) (size 0.64 0.64) (layers F.Cu F.Paste F.Mask))
  (pad K22 smd circle (at 1.905 5.715) (size 0.64 0.64) (layers F.Cu F.Paste F.Mask))
  (pad K23 smd circle (at 3.175 5.715) (size 0.64 0.64) (layers F.Cu F.Paste F.Mask))
  (pad K24 smd circle (at 4.445 5.715) (size 0.64 0.64) (layers F.Cu F.Paste F.Mask))
  (pad K25 smd circle (at 5.715 5.715) (size 0.64 0.64) (layers F.Cu F.Paste F.Mask))
  (pad K26 smd circle (at 6.985 5.715) (size 0.64 0.64) (layers F.Cu F.Paste F.Mask))
  (pad K27 smd circle (at 8.255 5.715) (size 0.64 0.64) (layers F.Cu F.Paste F.Mask))
  (pad K28 smd circle (at 9.525 5.715) (size 0.64 0.64) (layers F.Cu F.Paste F.Mask))
  (pad K29 smd circle (at 10.795 5.715) (size 0.64 0.64) (layers F.Cu F.Paste F.Mask))
  (pad K30 smd circle (at 12.065 5.715) (size 0.64 0.64) (layers F.Cu F.Paste F.Mask))
  (pad K31 smd circle (at 13.335 5.715) (size 0.64 0.64) (layers F.Cu F.Paste F.Mask))
  (pad K32 smd circle (at 14.605 5.715) (size 0.64 0.64) (layers F.Cu F.Paste F.Mask))
  (pad K33 smd circle (at 15.875 5.715) (size 0.64 0.64) (layers F.Cu F.Paste F.Mask))
  (pad K34 smd circle (at 17.145 5.715) (size 0.64 0.64) (layers F.Cu F.Paste F.Mask))
  (pad K35 smd circle (at 18.415 5.715) (size 0.64 0.64) (layers F.Cu F.Paste F.Mask))
  (pad K36 smd circle (at 19.685 5.715) (size 0.64 0.64) (layers F.Cu F.Paste F.Mask))
  (pad K37 smd circle (at 20.955 5.715) (size 0.64 0.64) (layers F.Cu F.Paste F.Mask))
  (pad K38 smd circle (at 22.225 5.715) (size 0.64 0.64) (layers F.Cu F.Paste F.Mask))
  (pad K39 smd circle (at 23.495 5.715) (size 0.64 0.64) (layers F.Cu F.Paste F.Mask))
  (pad K40 smd circle (at 24.765 5.715) (size 0.64 0.64) (layers F.Cu F.Paste F.Mask))
  (pad "" np_thru_hole circle (at 27.191 0) (size 1.27 1.27) (drill 1.27) (layers *.Cu *.Mask))
  (pad "" np_thru_hole circle (at -27.19 -3.05) (size 1.27 1.27) (drill 1.27) (layers *.Cu *.Mask))
  (model ${KICAD6_3DMODEL_DIR}/Connector_Samtec.3dshapes/Samtec_FMC_ASP-134486-01_10x40_P1.27mm_Vertical.wrl
    (at (xyz 0 0 0))
    (scale (xyz 1 1 1))
    (rotate (xyz 0 0 0))
  )
)
