(module Relay_Fujitsu_FTR-B3S (layer F.Cu) (tedit 5E08654D)
  (descr https://www.fujitsu.com/downloads/MICRO/fcai/relays/ftr-b3.pdf)
  (tags "Fujitsh FTR B3S B3SA Relay J JLeg")
  (attr smd)
  (fp_text reference REF** (at 0 -6.5) (layer F.SilkS)
    (effects (font (size 1 1) (thickness 0.15)))
  )
  (fp_text value Relay_Fujitsu_FTR-B3S (at 0 6.5) (layer F.Fab)
    (effects (font (size 1 1) (thickness 0.15)))
  )
  (fp_line (start -3.6 5.45) (end 3.6 5.45) (layer F.SilkS) (width 0.12))
  (fp_line (start 0 -5.45) (end 3.6 -5.45) (layer F.SilkS) (width 0.12))
  (fp_line (start -2.6 -5.3) (end 3.6 -5.3) (layer F.Fab) (width 0.1))
  (fp_line (start 3.6 -5.3) (end 3.6 5.3) (layer F.Fab) (width 0.1))
  (fp_line (start 3.6 5.3) (end -3.6 5.3) (layer F.Fab) (width 0.1))
  (fp_text user %R (at 0 0 90) (layer F.Fab)
    (effects (font (size 1 1) (thickness 0.15)))
  )
  (fp_line (start -4.35 -5.55) (end -4.35 5.55) (layer F.CrtYd) (width 0.05))
  (fp_line (start -4.35 5.55) (end 4.35 5.55) (layer F.CrtYd) (width 0.05))
  (fp_line (start 4.35 5.55) (end 4.35 -5.55) (layer F.CrtYd) (width 0.05))
  (fp_line (start 4.35 -5.55) (end -4.35 -5.55) (layer F.CrtYd) (width 0.05))
  (fp_line (start -3.6 -4.3) (end -2.6 -5.3) (layer F.Fab) (width 0.1))
  (fp_line (start -3.6 5.3) (end -3.6 -4.3) (layer F.Fab) (width 0.1))
  (pad 8 smd roundrect (at 3.07 -3.8) (size 2.06 0.8) (layers F.Cu F.Paste F.Mask) (roundrect_rratio 0.25))
  (pad 7 smd roundrect (at 3.07 -0.6) (size 2.06 0.8) (layers F.Cu F.Paste F.Mask) (roundrect_rratio 0.25))
  (pad 6 smd roundrect (at 3.07 1.6) (size 2.06 0.8) (layers F.Cu F.Paste F.Mask) (roundrect_rratio 0.25))
  (pad 5 smd roundrect (at 3.07 3.8) (size 2.06 0.8) (layers F.Cu F.Paste F.Mask) (roundrect_rratio 0.25))
  (pad 4 smd roundrect (at -3.07 3.8) (size 2.06 0.8) (layers F.Cu F.Paste F.Mask) (roundrect_rratio 0.25))
  (pad 3 smd roundrect (at -3.07 1.6) (size 2.06 0.8) (layers F.Cu F.Paste F.Mask) (roundrect_rratio 0.25))
  (pad 2 smd roundrect (at -3.07 -0.6) (size 2.06 0.8) (layers F.Cu F.Paste F.Mask) (roundrect_rratio 0.25))
  (pad 1 smd roundrect (at -3.07 -3.8) (size 2.06 0.8) (layers F.Cu F.Paste F.Mask) (roundrect_rratio 0.25))
  (model ${KICAD6_3DMODEL_DIR}/Relay_SMD.3dshapes/Relay_Fujitsu_FTR-B3S.wrl
    (at (xyz 0 0 0))
    (scale (xyz 1 1 1))
    (rotate (xyz 0 0 0))
  )
)
