(module Relay_SPDT_AXICOM_HF3Series_50ohms_Pitch1.27mm (layer F.Cu) (tedit 59B70181)
  (descr hiqsdr.com/images/3/3e/Axicom-HF3.pdf)
  (tags "AXICOM HF3-Series Relay Pitch 1.27mm 50ohms")
  (attr smd)
  (fp_text reference REF** (at 0.06 -8.89) (layer F.SilkS)
    (effects (font (size 1 1) (thickness 0.15)))
  )
  (fp_text value Relay_SPDT_AXICOM_HF3Series_50ohms_Pitch1.27mm (at 0.06 8.89) (layer F.Fab)
    (effects (font (size 1 1) (thickness 0.15)))
  )
  (fp_line (start 0.06 -7.3) (end 3.66 -7.3) (layer F.Fab) (width 0.15))
  (fp_line (start 3.66 -7.3) (end 3.66 7.3) (layer F.Fab) (width 0.15))
  (fp_line (start 3.66 7.3) (end -3.54 7.3) (layer F.Fab) (width 0.15))
  (fp_text user %R (at 0.06 0) (layer F.Fab)
    (effects (font (size 1 1) (thickness 0.15)))
  )
  (fp_line (start 3.8 -7) (end 3.8 -7.4) (layer F.SilkS) (width 0.15))
  (fp_line (start 3.8 -7.4) (end -3.7 -7.4) (layer F.SilkS) (width 0.15))
  (fp_line (start -3.7 -7.4) (end -3.7 -7) (layer F.SilkS) (width 0.15))
  (fp_line (start -3.9 -7) (end -3.9 -7.6) (layer F.SilkS) (width 0.15))
  (fp_line (start -3.9 -7.6) (end -3.4 -7.6) (layer F.SilkS) (width 0.15))
  (fp_line (start 3.8 7.1) (end 3.8 7.4) (layer F.SilkS) (width 0.15))
  (fp_line (start 3.8 7.4) (end -3.7 7.4) (layer F.SilkS) (width 0.15))
  (fp_line (start -3.7 7.4) (end -3.7 7) (layer F.SilkS) (width 0.15))
  (fp_line (start 3.8 7.1) (end 3.8 7) (layer F.SilkS) (width 0.15))
  (fp_line (start -5.3 -6.4) (end -5.3 7.7) (layer F.CrtYd) (width 0.05))
  (fp_line (start -5.3 7.7) (end 5.2 7.7) (layer F.CrtYd) (width 0.05))
  (fp_line (start 5.2 7.7) (end 5.3 7.7) (layer F.CrtYd) (width 0.05))
  (fp_line (start 5.3 7.7) (end 5.3 6.7) (layer F.CrtYd) (width 0.05))
  (fp_line (start 5.3 6.7) (end 5.3 -7.6) (layer F.CrtYd) (width 0.05))
  (fp_line (start 5.3 -7.6) (end 5.3 -7.8) (layer F.CrtYd) (width 0.05))
  (fp_line (start 5.3 -7.8) (end -4.7 -7.8) (layer F.CrtYd) (width 0.05))
  (fp_line (start -4.7 -7.8) (end -5.3 -7.8) (layer F.CrtYd) (width 0.05))
  (fp_line (start -5.3 -7.8) (end -5.3 -6.4) (layer F.CrtYd) (width 0.05))
  (fp_line (start -3.4 -7.6) (end -3.3 -7.6) (layer F.SilkS) (width 0.15))
  (fp_line (start -3.5 -6.9) (end -3.1 -7.3) (layer F.Fab) (width 0.15))
  (fp_line (start -3.1 -7.3) (end 0.1 -7.3) (layer F.Fab) (width 0.15))
  (fp_line (start -3.5 7.3) (end -3.5 -6.9) (layer F.Fab) (width 0.15))
  (pad 22 smd rect (at 3.75 -6.35) (size 2.5 0.7) (layers F.Cu F.Paste F.Mask))
  (pad 21 smd rect (at 4 -5.08) (size 2 0.7) (layers F.Cu F.Paste F.Mask))
  (pad 20 smd rect (at 4 -3.81) (size 2 0.9) (layers F.Cu F.Paste F.Mask))
  (pad 19 smd rect (at 4 -2.54) (size 2 0.7) (layers F.Cu F.Paste F.Mask))
  (pad 17 smd rect (at 4 0) (size 2 0.9) (layers F.Cu F.Paste F.Mask))
  (pad 15 smd rect (at 4 2.54) (size 2 0.7) (layers F.Cu F.Paste F.Mask))
  (pad 14 smd rect (at 4 3.81) (size 2 0.9) (layers F.Cu F.Paste F.Mask))
  (pad 13 smd rect (at 4 5.08) (size 2 0.7) (layers F.Cu F.Paste F.Mask))
  (pad 12 smd rect (at 3.75 6.35) (size 2.5 0.7) (layers F.Cu F.Paste F.Mask))
  (pad 11 smd rect (at -3.75 6.35) (size 2.5 0.7) (layers F.Cu F.Paste F.Mask))
  (pad 10 smd rect (at -4 5.08) (size 2 0.9) (layers F.Cu F.Paste F.Mask))
  (pad 7 smd rect (at -4 1.27) (size 2 0.7) (layers F.Cu F.Paste F.Mask))
  (pad 6 smd rect (at -4 0) (size 2 0.9) (layers F.Cu F.Paste F.Mask))
  (pad 5 smd rect (at -4 -1.27) (size 2 0.7) (layers F.Cu F.Paste F.Mask))
  (pad 2 smd rect (at -4 -5.08) (size 2 0.9) (layers F.Cu F.Paste F.Mask))
  (pad 1 smd rect (at -3.75 -6.35) (size 2.5 0.7) (layers F.Cu F.Paste F.Mask))
  (model ${KICAD6_3DMODEL_DIR}/Relay_SMD.3dshapes/Relay_SPDT_AXICOM_HF3Series_50ohms_Pitch1.27mm.wrl
    (at (xyz 0 0 0))
    (scale (xyz 1 1 1))
    (rotate (xyz 0 0 0))
  )
)
