(module Relay_DPDT_Kemet_EE2_NU (layer F.Cu) (tedit 5EAD20E9)
  (descr "Kemet signal relay, DPDT, double coil latching, https://content.kemet.com/datasheets/KEM_R7002_EC2_EE2.pdf")
  (tags "Kemet EC2 signal relay DPDT double coil latching surface mount SMD")
  (attr smd)
  (fp_text reference REF** (at 0.11 -9 180) (layer F.SilkS)
    (effects (font (size 1 1) (thickness 0.15)))
  )
  (fp_text value Relay_DPDT_Kemet_EE2_NU (at -6.19 -0.06 90) (layer F.Fab)
    (effects (font (size 1 1) (thickness 0.15)))
  )
  (fp_line (start -3.89 -7.64) (end -3.89 -7.18) (layer F.SilkS) (width 0.12))
  (fp_line (start 3.89 -7.64) (end 3.89 -7.18) (layer F.SilkS) (width 0.12))
  (fp_line (start -3.89 -5.52) (end -5.01 -5.52) (layer F.SilkS) (width 0.12))
  (fp_line (start -3.89 -7.18) (end -5.01 -7.18) (layer F.SilkS) (width 0.12))
  (fp_line (start -3.89 7.18) (end -3.89 7.64) (layer F.SilkS) (width 0.12))
  (fp_line (start 3.89 7.18) (end 3.89 7.64) (layer F.SilkS) (width 0.12))
  (fp_line (start -3.89 -5.52) (end -3.89 -2.1) (layer F.SilkS) (width 0.12))
  (fp_line (start -3.75 -6.5) (end -2.75 -7.5) (layer F.Fab) (width 0.1))
  (fp_line (start 3.89 -5.52) (end 3.89 -2.1) (layer F.SilkS) (width 0.12))
  (fp_line (start 3.89 7.64) (end -3.89 7.64) (layer F.SilkS) (width 0.12))
  (fp_line (start 3.89 -7.64) (end -3.89 -7.64) (layer F.SilkS) (width 0.12))
  (fp_line (start -3.75 -6.5) (end -3.75 7.5) (layer F.Fab) (width 0.1))
  (fp_line (start -0.41 -5.75) (end 0.29 -5.75) (layer F.SilkS) (width 0.12))
  (fp_line (start -0.41 -6.95) (end -0.41 -5.75) (layer F.SilkS) (width 0.12))
  (fp_line (start 0.29 -6.95) (end -0.41 -6.95) (layer F.SilkS) (width 0.12))
  (fp_line (start 0.29 -5.75) (end 0.29 -6.95) (layer F.SilkS) (width 0.12))
  (fp_line (start -0.41 -6.15) (end 0.29 -6.55) (layer F.SilkS) (width 0.12))
  (fp_line (start -1.27 -6.35) (end 1.27 -6.35) (layer F.Fab) (width 0.1))
  (fp_line (start 3.75 -7.5) (end 3.75 7.5) (layer F.Fab) (width 0.1))
  (fp_line (start 3.75 7.5) (end -3.75 7.5) (layer F.Fab) (width 0.1))
  (fp_line (start -5.4 -7.75) (end -5.4 7.75) (layer F.CrtYd) (width 0.05))
  (fp_line (start 3.75 -7.5) (end -2.75 -7.5) (layer F.Fab) (width 0.1))
  (fp_line (start 5.4 -7.75) (end 5.4 7.75) (layer F.CrtYd) (width 0.05))
  (fp_line (start 5.4 -7.75) (end -5.4 -7.75) (layer F.CrtYd) (width 0.05))
  (fp_line (start -5.4 7.75) (end 5.4 7.75) (layer F.CrtYd) (width 0.05))
  (fp_text user %R (at -0.14 0.39 90) (layer F.Fab)
    (effects (font (size 1 1) (thickness 0.15)))
  )
  (pad 12 smd roundrect (at 3.645 -6.35 270) (size 1.11 3) (layers F.Cu F.Paste F.Mask) (roundrect_rratio 0.225))
  (pad 10 smd roundrect (at 3.645 -1.27 270) (size 1.11 3) (layers F.Cu F.Paste F.Mask) (roundrect_rratio 0.225))
  (pad 9 smd roundrect (at 3.645 1.27 270) (size 1.11 3) (layers F.Cu F.Paste F.Mask) (roundrect_rratio 0.225))
  (pad 8 smd roundrect (at 3.645 3.81 270) (size 1.11 3) (layers F.Cu F.Paste F.Mask) (roundrect_rratio 0.225))
  (pad 5 smd roundrect (at -3.645 3.81 270) (size 1.11 3) (layers F.Cu F.Paste F.Mask) (roundrect_rratio 0.225))
  (pad 4 smd roundrect (at -3.645 1.27 270) (size 1.11 3) (layers F.Cu F.Paste F.Mask) (roundrect_rratio 0.225))
  (pad 3 smd roundrect (at -3.645 -1.27 270) (size 1.11 3) (layers F.Cu F.Paste F.Mask) (roundrect_rratio 0.225))
  (pad 1 smd roundrect (at -3.645 -6.35 270) (size 1.11 3) (layers F.Cu F.Paste F.Mask) (roundrect_rratio 0.225))
  (model ${KICAD6_3DMODEL_DIR}/Relay_SMD.3dshapes/Relay_DPDT_Kemet_EE2_NU.wrl
    (at (xyz 0 0 0))
    (scale (xyz 1 1 1))
    (rotate (xyz 0 0 0))
  )
)
