(module Relay_DPDT_Omron_G6H-2F (layer F.Cu) (tedit 5A570B2B)
  (descr "package for Omron G6H-2F relais, see http://cdn-reichelt.de/documents/datenblatt/C300/G6H%23OMR.pdf")
  (tags "Omron G6H-2F relais")
  (attr smd)
  (fp_text reference REF** (at 0 -8.1) (layer F.SilkS)
    (effects (font (size 1 1) (thickness 0.15)))
  )
  (fp_text value Relay_DPDT_Omron_G6H-2F (at 0.254 8.382) (layer F.Fab)
    (effects (font (size 1 1) (thickness 0.15)))
  )
  (fp_line (start -4.572 -6.3) (end -3.65 -7.1) (layer F.Fab) (width 0.12))
  (fp_line (start 4.7 -7.2) (end 4.7 -6) (layer F.SilkS) (width 0.12))
  (fp_line (start -4.7 -6) (end -6.3 -6) (layer F.SilkS) (width 0.12))
  (fp_line (start -4.7 -7.2) (end -4.7 -6) (layer F.SilkS) (width 0.12))
  (fp_line (start 4.7 7.2) (end 4.7 6) (layer F.SilkS) (width 0.12))
  (fp_line (start -4.7 7.2) (end -4.7 6) (layer F.SilkS) (width 0.12))
  (fp_text user %R (at 0 0) (layer F.Fab)
    (effects (font (size 1 1) (thickness 0.15)))
  )
  (fp_line (start -4.7 -7.2) (end 4.7 -7.2) (layer F.SilkS) (width 0.12))
  (fp_line (start 4.7 7.2) (end -4.7 7.2) (layer F.SilkS) (width 0.12))
  (fp_line (start -3.81 -6.477) (end 3.81 -6.477) (layer F.Fab) (width 0.1))
  (fp_line (start -3.65 -7.1) (end 4.572 -7.112) (layer F.Fab) (width 0.1))
  (fp_line (start 4.572 -7.112) (end 4.572 7.112) (layer F.Fab) (width 0.1))
  (fp_line (start 4.572 7.112) (end -4.572 7.112) (layer F.Fab) (width 0.1))
  (fp_line (start -4.572 7.112) (end -4.572 -6.3) (layer F.Fab) (width 0.1))
  (fp_line (start -6.53 -7.36) (end 6.53 -7.36) (layer F.CrtYd) (width 0.05))
  (fp_line (start -6.53 -7.36) (end -6.53 7.36) (layer F.CrtYd) (width 0.05))
  (fp_line (start 6.53 7.36) (end 6.53 -7.36) (layer F.CrtYd) (width 0.05))
  (fp_line (start 6.53 7.36) (end -6.53 7.36) (layer F.CrtYd) (width 0.05))
  (pad 1 smd rect (at -4.78 -5.08) (size 3 1) (layers F.Cu F.Paste F.Mask))
  (pad 2 smd rect (at -4.78 -2.54) (size 3 1) (layers F.Cu F.Paste F.Mask))
  (pad 3 smd rect (at -4.78 0) (size 3 1) (layers F.Cu F.Paste F.Mask))
  (pad 4 smd rect (at -4.78 2.54) (size 3 1) (layers F.Cu F.Paste F.Mask))
  (pad 5 smd rect (at -4.78 5.08) (size 3 1) (layers F.Cu F.Paste F.Mask))
  (pad 6 smd rect (at 4.78 5.08) (size 3 1) (layers F.Cu F.Paste F.Mask))
  (pad 7 smd rect (at 4.78 2.54) (size 3 1) (layers F.Cu F.Paste F.Mask))
  (pad 8 smd rect (at 4.78 0) (size 3 1) (layers F.Cu F.Paste F.Mask))
  (pad 9 smd rect (at 4.78 -2.54) (size 3 1) (layers F.Cu F.Paste F.Mask))
  (pad 10 smd rect (at 4.78 -5.08) (size 3 1) (layers F.Cu F.Paste F.Mask))
  (model ${KICAD6_3DMODEL_DIR}/Relay_SMD.3dshapes/Relay_DPDT_Omron_G6H-2F.wrl
    (at (xyz 0 0 0))
    (scale (xyz 1 1 1))
    (rotate (xyz 0 0 0))
  )
)
