(module Relay_DPDT_Omron_G6S-2G (layer F.Cu) (tedit 5A59BB63)
  (descr "Relay Omron G6S-2G, see http://omronfs.omron.com/en_US/ecb/products/pdf/en-g6s.pdf")
  (tags "Relay Omron G6S-2G")
  (attr smd)
  (fp_text reference REF** (at -0.04 -8.55) (layer F.SilkS)
    (effects (font (size 1 1) (thickness 0.15)))
  )
  (fp_text value Relay_DPDT_Omron_G6S-2G (at -0.04 8.55) (layer F.Fab)
    (effects (font (size 1 1) (thickness 0.15)))
  )
  (fp_text user %R (at 0 0) (layer F.Fab)
    (effects (font (size 1 1) (thickness 0.15)))
  )
  (fp_line (start 3.8 0.5) (end 3.8 -0.5) (layer F.SilkS) (width 0.12))
  (fp_line (start 3.8 3) (end 3.8 2.1) (layer F.SilkS) (width 0.12))
  (fp_line (start 3.8 7.5) (end 3.8 4.7) (layer F.SilkS) (width 0.12))
  (fp_line (start -3.9 7.5) (end 3.8 7.5) (layer F.SilkS) (width 0.12))
  (fp_line (start -3.9 4.7) (end -3.9 7.5) (layer F.SilkS) (width 0.12))
  (fp_line (start -3.9 2.1) (end -3.9 3) (layer F.SilkS) (width 0.12))
  (fp_line (start -3.9 -0.5) (end -3.9 0.5) (layer F.SilkS) (width 0.12))
  (fp_line (start -3.9 -5.5) (end -4.3 -5.5) (layer F.SilkS) (width 0.12))
  (fp_line (start -3.9 -5.5) (end -3.9 -2.2) (layer F.SilkS) (width 0.12))
  (fp_line (start 3.8 -5.5) (end 3.8 -2.2) (layer F.SilkS) (width 0.12))
  (fp_line (start 3.8 -7.6) (end 3.8 -7.2) (layer F.SilkS) (width 0.12))
  (fp_line (start -3.9 -7.6) (end 3.8 -7.6) (layer F.SilkS) (width 0.12))
  (fp_line (start -3.9 -7.2) (end -3.9 -7.6) (layer F.SilkS) (width 0.12))
  (fp_line (start -4.3 -7.2) (end -3.9 -7.2) (layer F.SilkS) (width 0.12))
  (fp_line (start -3.74 -6.45) (end -2.64 -7.45) (layer F.Fab) (width 0.12))
  (fp_line (start -3.74 7.35) (end -3.74 -6.45) (layer F.Fab) (width 0.12))
  (fp_line (start 3.66 7.35) (end -3.74 7.35) (layer F.Fab) (width 0.12))
  (fp_line (start 3.66 -7.45) (end 3.66 7.35) (layer F.Fab) (width 0.12))
  (fp_line (start -2.64 -7.45) (end 3.66 -7.45) (layer F.Fab) (width 0.12))
  (fp_line (start -4.4 -7.7) (end 4.4 -7.7) (layer F.CrtYd) (width 0.05))
  (fp_line (start -4.4 -7.7) (end -4.4 7.6) (layer F.CrtYd) (width 0.05))
  (fp_line (start 4.4 7.6) (end 4.4 -7.7) (layer F.CrtYd) (width 0.05))
  (fp_line (start 4.4 7.6) (end -4.4 7.6) (layer F.CrtYd) (width 0.05))
  (pad 9 smd rect (at 3.05 1.27) (size 2.2 1) (layers F.Cu F.Paste F.Mask))
  (pad 4 smd rect (at -3.05 1.27) (size 2.2 1) (layers F.Cu F.Paste F.Mask))
  (pad 12 smd rect (at 3.05 -6.35) (size 2.2 1) (layers F.Cu F.Paste F.Mask))
  (pad 10 smd rect (at 3.05 -1.27) (size 2.2 1) (layers F.Cu F.Paste F.Mask))
  (pad 1 smd rect (at -3.05 -6.35) (size 2.2 1) (layers F.Cu F.Paste F.Mask))
  (pad 3 smd rect (at -3.05 -1.27) (size 2.2 1) (layers F.Cu F.Paste F.Mask))
  (pad 8 smd rect (at 3.05 3.81) (size 2.2 1) (layers F.Cu F.Paste F.Mask))
  (pad 5 smd rect (at -3.05 3.81) (size 2.2 1) (layers F.Cu F.Paste F.Mask))
  (model ${KICAD6_3DMODEL_DIR}/Relay_SMD.3dshapes/Relay_DPDT_Omron_G6S-2G.wrl
    (at (xyz 0 0 0))
    (scale (xyz 1 1 1))
    (rotate (xyz 0 0 0))
  )
)
