(module PhoenixContact_GMSTB_2,5_10-GF-7,62_1x10_P7.62mm_Horizontal_ThreadedFlange_MountHole (layer F.Cu) (tedit 5B785048)
  (descr "Generic Phoenix Contact connector footprint for: GMSTB_2,5/10-GF-7,62; number of pins: 10; pin pitch: 7.62mm; Angled; threaded flange; footprint includes mount hole for mounting screw: ISO 1481-ST 2.2x6.5 C or ISO 7049-ST 2.2x6.5 C (http://www.fasteners.eu/standards/ISO/7049/) || order number: 1806300 12A 630V")
  (tags "phoenix_contact connector GMSTB_01x10_GF_7.62mm_MH")
  (fp_text reference REF** (at 34.29 -3.2) (layer F.SilkS)
    (effects (font (size 1 1) (thickness 0.15)))
  )
  (fp_text value PhoenixContact_GMSTB_2,5_10-GF-7,62_1x10_P7.62mm_Horizontal_ThreadedFlange_MountHole (at 34.29 11.2) (layer F.Fab)
    (effects (font (size 1 1) (thickness 0.15)))
  )
  (fp_circle (center -6.1 2.5) (end -3.89 2.5) (layer B.SilkS) (width 0.12))
  (fp_circle (center 74.68 2.5) (end 76.89 2.5) (layer B.SilkS) (width 0.12))
  (fp_circle (center 74.68 2.5) (end 76.78 2.5) (layer B.Fab) (width 0.1))
  (fp_circle (center -6.1 2.5) (end -4 2.5) (layer B.Fab) (width 0.1))
  (fp_circle (center 74.68 2.5) (end 77.28 2.5) (layer B.CrtYd) (width 0.05))
  (fp_circle (center -6.1 2.5) (end -3.5 2.5) (layer B.CrtYd) (width 0.05))
  (fp_line (start -9.21 -2.11) (end -9.21 10.11) (layer F.SilkS) (width 0.12))
  (fp_line (start -9.21 10.11) (end 77.79 10.11) (layer F.SilkS) (width 0.12))
  (fp_line (start 77.79 10.11) (end 77.79 -2.11) (layer F.SilkS) (width 0.12))
  (fp_line (start 77.79 -2.11) (end -9.21 -2.11) (layer F.SilkS) (width 0.12))
  (fp_line (start -9.1 -2) (end -9.1 10) (layer F.Fab) (width 0.1))
  (fp_line (start -9.1 10) (end 77.68 10) (layer F.Fab) (width 0.1))
  (fp_line (start 77.68 10) (end 77.68 -2) (layer F.Fab) (width 0.1))
  (fp_line (start 77.68 -2) (end -9.1 -2) (layer F.Fab) (width 0.1))
  (fp_line (start -9.21 8.61) (end -9.21 6.81) (layer F.SilkS) (width 0.12))
  (fp_line (start -9.21 6.81) (end 77.79 6.81) (layer F.SilkS) (width 0.12))
  (fp_line (start 77.79 6.81) (end 77.79 8.61) (layer F.SilkS) (width 0.12))
  (fp_line (start 77.79 8.61) (end -9.21 8.61) (layer F.SilkS) (width 0.12))
  (fp_line (start -7.1 10.11) (end -5.1 10.11) (layer F.SilkS) (width 0.12))
  (fp_line (start -5.1 10.11) (end -5.35 8.61) (layer F.SilkS) (width 0.12))
  (fp_line (start -5.35 8.61) (end -6.85 8.61) (layer F.SilkS) (width 0.12))
  (fp_line (start -6.85 8.61) (end -7.1 10.11) (layer F.SilkS) (width 0.12))
  (fp_line (start 73.68 10.11) (end 75.68 10.11) (layer F.SilkS) (width 0.12))
  (fp_line (start 75.68 10.11) (end 75.43 8.61) (layer F.SilkS) (width 0.12))
  (fp_line (start 75.43 8.61) (end 73.93 8.61) (layer F.SilkS) (width 0.12))
  (fp_line (start 73.93 8.61) (end 73.68 10.11) (layer F.SilkS) (width 0.12))
  (fp_line (start -1 10.11) (end 1 10.11) (layer F.SilkS) (width 0.12))
  (fp_line (start 1 10.11) (end 0.75 8.61) (layer F.SilkS) (width 0.12))
  (fp_line (start 0.75 8.61) (end -0.75 8.61) (layer F.SilkS) (width 0.12))
  (fp_line (start -0.75 8.61) (end -1 10.11) (layer F.SilkS) (width 0.12))
  (fp_line (start 6.62 10.11) (end 8.62 10.11) (layer F.SilkS) (width 0.12))
  (fp_line (start 8.62 10.11) (end 8.37 8.61) (layer F.SilkS) (width 0.12))
  (fp_line (start 8.37 8.61) (end 6.87 8.61) (layer F.SilkS) (width 0.12))
  (fp_line (start 6.87 8.61) (end 6.62 10.11) (layer F.SilkS) (width 0.12))
  (fp_line (start 14.24 10.11) (end 16.24 10.11) (layer F.SilkS) (width 0.12))
  (fp_line (start 16.24 10.11) (end 15.99 8.61) (layer F.SilkS) (width 0.12))
  (fp_line (start 15.99 8.61) (end 14.49 8.61) (layer F.SilkS) (width 0.12))
  (fp_line (start 14.49 8.61) (end 14.24 10.11) (layer F.SilkS) (width 0.12))
  (fp_line (start 21.86 10.11) (end 23.86 10.11) (layer F.SilkS) (width 0.12))
  (fp_line (start 23.86 10.11) (end 23.61 8.61) (layer F.SilkS) (width 0.12))
  (fp_line (start 23.61 8.61) (end 22.11 8.61) (layer F.SilkS) (width 0.12))
  (fp_line (start 22.11 8.61) (end 21.86 10.11) (layer F.SilkS) (width 0.12))
  (fp_line (start 29.48 10.11) (end 31.48 10.11) (layer F.SilkS) (width 0.12))
  (fp_line (start 31.48 10.11) (end 31.23 8.61) (layer F.SilkS) (width 0.12))
  (fp_line (start 31.23 8.61) (end 29.73 8.61) (layer F.SilkS) (width 0.12))
  (fp_line (start 29.73 8.61) (end 29.48 10.11) (layer F.SilkS) (width 0.12))
  (fp_line (start 37.1 10.11) (end 39.1 10.11) (layer F.SilkS) (width 0.12))
  (fp_line (start 39.1 10.11) (end 38.85 8.61) (layer F.SilkS) (width 0.12))
  (fp_line (start 38.85 8.61) (end 37.35 8.61) (layer F.SilkS) (width 0.12))
  (fp_line (start 37.35 8.61) (end 37.1 10.11) (layer F.SilkS) (width 0.12))
  (fp_line (start 44.72 10.11) (end 46.72 10.11) (layer F.SilkS) (width 0.12))
  (fp_line (start 46.72 10.11) (end 46.47 8.61) (layer F.SilkS) (width 0.12))
  (fp_line (start 46.47 8.61) (end 44.97 8.61) (layer F.SilkS) (width 0.12))
  (fp_line (start 44.97 8.61) (end 44.72 10.11) (layer F.SilkS) (width 0.12))
  (fp_line (start 52.34 10.11) (end 54.34 10.11) (layer F.SilkS) (width 0.12))
  (fp_line (start 54.34 10.11) (end 54.09 8.61) (layer F.SilkS) (width 0.12))
  (fp_line (start 54.09 8.61) (end 52.59 8.61) (layer F.SilkS) (width 0.12))
  (fp_line (start 52.59 8.61) (end 52.34 10.11) (layer F.SilkS) (width 0.12))
  (fp_line (start 59.96 10.11) (end 61.96 10.11) (layer F.SilkS) (width 0.12))
  (fp_line (start 61.96 10.11) (end 61.71 8.61) (layer F.SilkS) (width 0.12))
  (fp_line (start 61.71 8.61) (end 60.21 8.61) (layer F.SilkS) (width 0.12))
  (fp_line (start 60.21 8.61) (end 59.96 10.11) (layer F.SilkS) (width 0.12))
  (fp_line (start 67.58 10.11) (end 69.58 10.11) (layer F.SilkS) (width 0.12))
  (fp_line (start 69.58 10.11) (end 69.33 8.61) (layer F.SilkS) (width 0.12))
  (fp_line (start 69.33 8.61) (end 67.83 8.61) (layer F.SilkS) (width 0.12))
  (fp_line (start 67.83 8.61) (end 67.58 10.11) (layer F.SilkS) (width 0.12))
  (fp_line (start -9.6 -2.5) (end -9.6 10.5) (layer F.CrtYd) (width 0.05))
  (fp_line (start -9.6 10.5) (end 78.18 10.5) (layer F.CrtYd) (width 0.05))
  (fp_line (start 78.18 10.5) (end 78.18 -2.5) (layer F.CrtYd) (width 0.05))
  (fp_line (start 78.18 -2.5) (end -9.6 -2.5) (layer F.CrtYd) (width 0.05))
  (fp_line (start 0.3 -2.91) (end 0 -2.31) (layer F.SilkS) (width 0.12))
  (fp_line (start 0 -2.31) (end -0.3 -2.91) (layer F.SilkS) (width 0.12))
  (fp_line (start -0.3 -2.91) (end 0.3 -2.91) (layer F.SilkS) (width 0.12))
  (fp_line (start 0.95 -2) (end 0 -0.5) (layer F.Fab) (width 0.1))
  (fp_line (start 0 -0.5) (end -0.95 -2) (layer F.Fab) (width 0.1))
  (pad 1 thru_hole roundrect (at 0 0) (size 2.1 3.6) (drill 1.4) (layers *.Cu *.Mask) (roundrect_rratio 0.119048))
  (pad 2 thru_hole oval (at 7.62 0) (size 2.1 3.6) (drill 1.4) (layers *.Cu *.Mask))
  (pad 3 thru_hole oval (at 15.24 0) (size 2.1 3.6) (drill 1.4) (layers *.Cu *.Mask))
  (pad 4 thru_hole oval (at 22.86 0) (size 2.1 3.6) (drill 1.4) (layers *.Cu *.Mask))
  (pad 5 thru_hole oval (at 30.48 0) (size 2.1 3.6) (drill 1.4) (layers *.Cu *.Mask))
  (pad 6 thru_hole oval (at 38.1 0) (size 2.1 3.6) (drill 1.4) (layers *.Cu *.Mask))
  (pad 7 thru_hole oval (at 45.72 0) (size 2.1 3.6) (drill 1.4) (layers *.Cu *.Mask))
  (pad 8 thru_hole oval (at 53.34 0) (size 2.1 3.6) (drill 1.4) (layers *.Cu *.Mask))
  (pad 9 thru_hole oval (at 60.96 0) (size 2.1 3.6) (drill 1.4) (layers *.Cu *.Mask))
  (pad 10 thru_hole oval (at 68.58 0) (size 2.1 3.6) (drill 1.4) (layers *.Cu *.Mask))
  (pad "" np_thru_hole circle (at -6.1 2.5) (size 2.4 2.4) (drill 2.4) (layers *.Cu *.Mask))
  (pad "" np_thru_hole circle (at 74.68 2.5) (size 2.4 2.4) (drill 2.4) (layers *.Cu *.Mask))
  (fp_text user %R (at 34.29 -1.3) (layer F.Fab)
    (effects (font (size 1 1) (thickness 0.15)))
  )
  (model ${KICAD6_3DMODEL_DIR}/Connector_Phoenix_GMSTB.3dshapes/PhoenixContact_GMSTB_2,5_10-GF-7,62_1x10_P7.62mm_Horizontal_ThreadedFlange_MountHole.wrl
    (at (xyz 0 0 0))
    (scale (xyz 1 1 1))
    (rotate (xyz 0 0 0))
  )
)