(module PhoenixContact_GMSTBA_2,5_9-G_1x09_P7.50mm_Horizontal (layer F.Cu) (tedit 5B785048)
  (descr "Generic Phoenix Contact connector footprint for: GMSTBA_2,5/9-G; number of pins: 09; pin pitch: 7.50mm; Angled || order number: 1766411 12A 630V")
  (tags "phoenix_contact connector GMSTBA_01x09_G_7.50mm")
  (fp_text reference REF** (at 30 -3.2) (layer F.SilkS)
    (effects (font (size 1 1) (thickness 0.15)))
  )
  (fp_text value PhoenixContact_GMSTBA_2,5_9-G_1x09_P7.50mm_Horizontal (at 30 11.2) (layer F.Fab)
    (effects (font (size 1 1) (thickness 0.15)))
  )
  (fp_line (start -3.86 -2.11) (end -3.86 10.11) (layer F.SilkS) (width 0.12))
  (fp_line (start -3.86 10.11) (end 63.86 10.11) (layer F.SilkS) (width 0.12))
  (fp_line (start 63.86 10.11) (end 63.86 -2.11) (layer F.SilkS) (width 0.12))
  (fp_line (start 63.86 -2.11) (end -3.86 -2.11) (layer F.SilkS) (width 0.12))
  (fp_line (start -3.75 -2) (end -3.75 10) (layer F.Fab) (width 0.1))
  (fp_line (start -3.75 10) (end 63.75 10) (layer F.Fab) (width 0.1))
  (fp_line (start 63.75 10) (end 63.75 -2) (layer F.Fab) (width 0.1))
  (fp_line (start 63.75 -2) (end -3.75 -2) (layer F.Fab) (width 0.1))
  (fp_line (start -3.86 8.61) (end -3.86 6.81) (layer F.SilkS) (width 0.12))
  (fp_line (start -3.86 6.81) (end 63.86 6.81) (layer F.SilkS) (width 0.12))
  (fp_line (start 63.86 6.81) (end 63.86 8.61) (layer F.SilkS) (width 0.12))
  (fp_line (start 63.86 8.61) (end -3.86 8.61) (layer F.SilkS) (width 0.12))
  (fp_line (start -1 10.11) (end 1 10.11) (layer F.SilkS) (width 0.12))
  (fp_line (start 1 10.11) (end 0.75 8.61) (layer F.SilkS) (width 0.12))
  (fp_line (start 0.75 8.61) (end -0.75 8.61) (layer F.SilkS) (width 0.12))
  (fp_line (start -0.75 8.61) (end -1 10.11) (layer F.SilkS) (width 0.12))
  (fp_line (start 6.5 10.11) (end 8.5 10.11) (layer F.SilkS) (width 0.12))
  (fp_line (start 8.5 10.11) (end 8.25 8.61) (layer F.SilkS) (width 0.12))
  (fp_line (start 8.25 8.61) (end 6.75 8.61) (layer F.SilkS) (width 0.12))
  (fp_line (start 6.75 8.61) (end 6.5 10.11) (layer F.SilkS) (width 0.12))
  (fp_line (start 14 10.11) (end 16 10.11) (layer F.SilkS) (width 0.12))
  (fp_line (start 16 10.11) (end 15.75 8.61) (layer F.SilkS) (width 0.12))
  (fp_line (start 15.75 8.61) (end 14.25 8.61) (layer F.SilkS) (width 0.12))
  (fp_line (start 14.25 8.61) (end 14 10.11) (layer F.SilkS) (width 0.12))
  (fp_line (start 21.5 10.11) (end 23.5 10.11) (layer F.SilkS) (width 0.12))
  (fp_line (start 23.5 10.11) (end 23.25 8.61) (layer F.SilkS) (width 0.12))
  (fp_line (start 23.25 8.61) (end 21.75 8.61) (layer F.SilkS) (width 0.12))
  (fp_line (start 21.75 8.61) (end 21.5 10.11) (layer F.SilkS) (width 0.12))
  (fp_line (start 29 10.11) (end 31 10.11) (layer F.SilkS) (width 0.12))
  (fp_line (start 31 10.11) (end 30.75 8.61) (layer F.SilkS) (width 0.12))
  (fp_line (start 30.75 8.61) (end 29.25 8.61) (layer F.SilkS) (width 0.12))
  (fp_line (start 29.25 8.61) (end 29 10.11) (layer F.SilkS) (width 0.12))
  (fp_line (start 36.5 10.11) (end 38.5 10.11) (layer F.SilkS) (width 0.12))
  (fp_line (start 38.5 10.11) (end 38.25 8.61) (layer F.SilkS) (width 0.12))
  (fp_line (start 38.25 8.61) (end 36.75 8.61) (layer F.SilkS) (width 0.12))
  (fp_line (start 36.75 8.61) (end 36.5 10.11) (layer F.SilkS) (width 0.12))
  (fp_line (start 44 10.11) (end 46 10.11) (layer F.SilkS) (width 0.12))
  (fp_line (start 46 10.11) (end 45.75 8.61) (layer F.SilkS) (width 0.12))
  (fp_line (start 45.75 8.61) (end 44.25 8.61) (layer F.SilkS) (width 0.12))
  (fp_line (start 44.25 8.61) (end 44 10.11) (layer F.SilkS) (width 0.12))
  (fp_line (start 51.5 10.11) (end 53.5 10.11) (layer F.SilkS) (width 0.12))
  (fp_line (start 53.5 10.11) (end 53.25 8.61) (layer F.SilkS) (width 0.12))
  (fp_line (start 53.25 8.61) (end 51.75 8.61) (layer F.SilkS) (width 0.12))
  (fp_line (start 51.75 8.61) (end 51.5 10.11) (layer F.SilkS) (width 0.12))
  (fp_line (start 59 10.11) (end 61 10.11) (layer F.SilkS) (width 0.12))
  (fp_line (start 61 10.11) (end 60.75 8.61) (layer F.SilkS) (width 0.12))
  (fp_line (start 60.75 8.61) (end 59.25 8.61) (layer F.SilkS) (width 0.12))
  (fp_line (start 59.25 8.61) (end 59 10.11) (layer F.SilkS) (width 0.12))
  (fp_line (start -4.25 -2.5) (end -4.25 10.5) (layer F.CrtYd) (width 0.05))
  (fp_line (start -4.25 10.5) (end 64.25 10.5) (layer F.CrtYd) (width 0.05))
  (fp_line (start 64.25 10.5) (end 64.25 -2.5) (layer F.CrtYd) (width 0.05))
  (fp_line (start 64.25 -2.5) (end -4.25 -2.5) (layer F.CrtYd) (width 0.05))
  (fp_line (start 0.3 -2.91) (end 0 -2.31) (layer F.SilkS) (width 0.12))
  (fp_line (start 0 -2.31) (end -0.3 -2.91) (layer F.SilkS) (width 0.12))
  (fp_line (start -0.3 -2.91) (end 0.3 -2.91) (layer F.SilkS) (width 0.12))
  (fp_line (start 0.95 -2) (end 0 -0.5) (layer F.Fab) (width 0.1))
  (fp_line (start 0 -0.5) (end -0.95 -2) (layer F.Fab) (width 0.1))
  (pad 1 thru_hole roundrect (at 0 0) (size 2 3.6) (drill 1.4) (layers *.Cu *.Mask) (roundrect_rratio 0.125))
  (pad 2 thru_hole oval (at 7.5 0) (size 2 3.6) (drill 1.4) (layers *.Cu *.Mask))
  (pad 3 thru_hole oval (at 15 0) (size 2 3.6) (drill 1.4) (layers *.Cu *.Mask))
  (pad 4 thru_hole oval (at 22.5 0) (size 2 3.6) (drill 1.4) (layers *.Cu *.Mask))
  (pad 5 thru_hole oval (at 30 0) (size 2 3.6) (drill 1.4) (layers *.Cu *.Mask))
  (pad 6 thru_hole oval (at 37.5 0) (size 2 3.6) (drill 1.4) (layers *.Cu *.Mask))
  (pad 7 thru_hole oval (at 45 0) (size 2 3.6) (drill 1.4) (layers *.Cu *.Mask))
  (pad 8 thru_hole oval (at 52.5 0) (size 2 3.6) (drill 1.4) (layers *.Cu *.Mask))
  (pad 9 thru_hole oval (at 60 0) (size 2 3.6) (drill 1.4) (layers *.Cu *.Mask))
  (fp_text user %R (at 30 -1.3) (layer F.Fab)
    (effects (font (size 1 1) (thickness 0.15)))
  )
  (model ${KICAD6_3DMODEL_DIR}/Connector_Phoenix_GMSTB.3dshapes/PhoenixContact_GMSTBA_2,5_9-G_1x09_P7.50mm_Horizontal.wrl
    (at (xyz 0 0 0))
    (scale (xyz 1 1 1))
    (rotate (xyz 0 0 0))
  )
)