(module PhoenixContact_GMSTBVA_2,5_4-G_1x04_P7.50mm_Vertical (layer F.Cu) (tedit 5B785048)
  (descr "Generic Phoenix Contact connector footprint for: GMSTBVA_2,5/4-G; number of pins: 04; pin pitch: 7.50mm; Vertical || order number: 1766686 12A 630V")
  (tags "phoenix_contact connector GMSTBVA_01x04_G_7.50mm")
  (fp_text reference REF** (at 11.25 -6) (layer F.SilkS)
    (effects (font (size 1 1) (thickness 0.15)))
  )
  (fp_text value PhoenixContact_GMSTBVA_2,5_4-G_1x04_P7.50mm_Vertical (at 11.25 5) (layer F.Fab)
    (effects (font (size 1 1) (thickness 0.15)))
  )
  (fp_arc (start 0 0.55) (end -2 2.2) (angle -100.5) (layer F.SilkS) (width 0.12))
  (fp_arc (start 7.5 0.55) (end 5.5 2.2) (angle -100.5) (layer F.SilkS) (width 0.12))
  (fp_arc (start 15 0.55) (end 13 2.2) (angle -100.5) (layer F.SilkS) (width 0.12))
  (fp_arc (start 22.5 0.55) (end 20.5 2.2) (angle -100.5) (layer F.SilkS) (width 0.12))
  (fp_line (start -3.86 -4.91) (end -3.86 3.91) (layer F.SilkS) (width 0.12))
  (fp_line (start -3.86 3.91) (end 26.36 3.91) (layer F.SilkS) (width 0.12))
  (fp_line (start 26.36 3.91) (end 26.36 -4.91) (layer F.SilkS) (width 0.12))
  (fp_line (start 26.36 -4.91) (end -3.86 -4.91) (layer F.SilkS) (width 0.12))
  (fp_line (start -3.75 -4.8) (end -3.75 3.8) (layer F.Fab) (width 0.1))
  (fp_line (start -3.75 3.8) (end 26.25 3.8) (layer F.Fab) (width 0.1))
  (fp_line (start 26.25 3.8) (end 26.25 -4.8) (layer F.Fab) (width 0.1))
  (fp_line (start 26.25 -4.8) (end -3.75 -4.8) (layer F.Fab) (width 0.1))
  (fp_line (start -3.86 -4.1) (end -1.11 -4.1) (layer F.SilkS) (width 0.12))
  (fp_line (start 26.36 -4.1) (end 23.61 -4.1) (layer F.SilkS) (width 0.12))
  (fp_line (start 1 -4.1) (end 6.5 -4.1) (layer F.SilkS) (width 0.12))
  (fp_line (start 8.5 -4.1) (end 14 -4.1) (layer F.SilkS) (width 0.12))
  (fp_line (start 16 -4.1) (end 21.5 -4.1) (layer F.SilkS) (width 0.12))
  (fp_line (start -1 -3.1) (end -1 -4.91) (layer F.SilkS) (width 0.12))
  (fp_line (start -1 -4.91) (end 1 -4.91) (layer F.SilkS) (width 0.12))
  (fp_line (start 1 -4.91) (end 1 -3.1) (layer F.SilkS) (width 0.12))
  (fp_line (start 1 -3.1) (end -1 -3.1) (layer F.SilkS) (width 0.12))
  (fp_line (start 6.5 -3.1) (end 6.5 -4.91) (layer F.SilkS) (width 0.12))
  (fp_line (start 6.5 -4.91) (end 8.5 -4.91) (layer F.SilkS) (width 0.12))
  (fp_line (start 8.5 -4.91) (end 8.5 -3.1) (layer F.SilkS) (width 0.12))
  (fp_line (start 8.5 -3.1) (end 6.5 -3.1) (layer F.SilkS) (width 0.12))
  (fp_line (start 14 -3.1) (end 14 -4.91) (layer F.SilkS) (width 0.12))
  (fp_line (start 14 -4.91) (end 16 -4.91) (layer F.SilkS) (width 0.12))
  (fp_line (start 16 -4.91) (end 16 -3.1) (layer F.SilkS) (width 0.12))
  (fp_line (start 16 -3.1) (end 14 -3.1) (layer F.SilkS) (width 0.12))
  (fp_line (start 21.5 -3.1) (end 21.5 -4.91) (layer F.SilkS) (width 0.12))
  (fp_line (start 21.5 -4.91) (end 23.5 -4.91) (layer F.SilkS) (width 0.12))
  (fp_line (start 23.5 -4.91) (end 23.5 -3.1) (layer F.SilkS) (width 0.12))
  (fp_line (start 23.5 -3.1) (end 21.5 -3.1) (layer F.SilkS) (width 0.12))
  (fp_line (start 2 2.2) (end 5.5 2.2) (layer F.SilkS) (width 0.12))
  (fp_line (start 9.5 2.2) (end 13 2.2) (layer F.SilkS) (width 0.12))
  (fp_line (start 17 2.2) (end 20.5 2.2) (layer F.SilkS) (width 0.12))
  (fp_line (start -2 2.2) (end -2.95 2.2) (layer F.SilkS) (width 0.12))
  (fp_line (start -2.95 2.2) (end -2.95 -3.1) (layer F.SilkS) (width 0.12))
  (fp_line (start -2.95 -3.1) (end 25.45 -3.1) (layer F.SilkS) (width 0.12))
  (fp_line (start 25.45 -3.1) (end 25.45 2.2) (layer F.SilkS) (width 0.12))
  (fp_line (start 25.45 2.2) (end 24.5 2.2) (layer F.SilkS) (width 0.12))
  (fp_line (start -4.25 -5.3) (end -4.25 4.3) (layer F.CrtYd) (width 0.05))
  (fp_line (start -4.25 4.3) (end 26.75 4.3) (layer F.CrtYd) (width 0.05))
  (fp_line (start 26.75 4.3) (end 26.75 -5.3) (layer F.CrtYd) (width 0.05))
  (fp_line (start 26.75 -5.3) (end -4.25 -5.3) (layer F.CrtYd) (width 0.05))
  (fp_line (start 0.3 -5.71) (end 0 -5.11) (layer F.SilkS) (width 0.12))
  (fp_line (start 0 -5.11) (end -0.3 -5.71) (layer F.SilkS) (width 0.12))
  (fp_line (start -0.3 -5.71) (end 0.3 -5.71) (layer F.SilkS) (width 0.12))
  (fp_line (start 0.5 -3.55) (end 0 -2.55) (layer F.Fab) (width 0.1))
  (fp_line (start 0 -2.55) (end -0.5 -3.55) (layer F.Fab) (width 0.1))
  (fp_line (start -0.5 -3.55) (end 0.5 -3.55) (layer F.Fab) (width 0.1))
  (pad 1 thru_hole roundrect (at 0 0) (size 2 3.6) (drill 1.4) (layers *.Cu *.Mask) (roundrect_rratio 0.125))
  (pad 2 thru_hole oval (at 7.5 0) (size 2 3.6) (drill 1.4) (layers *.Cu *.Mask))
  (pad 3 thru_hole oval (at 15 0) (size 2 3.6) (drill 1.4) (layers *.Cu *.Mask))
  (pad 4 thru_hole oval (at 22.5 0) (size 2 3.6) (drill 1.4) (layers *.Cu *.Mask))
  (fp_text user %R (at 11.25 -4.1) (layer F.Fab)
    (effects (font (size 1 1) (thickness 0.15)))
  )
  (model ${KICAD6_3DMODEL_DIR}/Connector_Phoenix_GMSTB.3dshapes/PhoenixContact_GMSTBVA_2,5_4-G_1x04_P7.50mm_Vertical.wrl
    (at (xyz 0 0 0))
    (scale (xyz 1 1 1))
    (rotate (xyz 0 0 0))
  )
)