(module PhoenixContact_GMSTBV_2,5_7-GF-7,62_1x07_P7.62mm_Vertical_ThreadedFlange (layer F.Cu) (tedit 5B785048)
  (descr "Generic Phoenix Contact connector footprint for: GMSTBV_2,5/7-GF-7,62; number of pins: 07; pin pitch: 7.62mm; Vertical; threaded flange || order number: 1829206 12A 630V")
  (tags "phoenix_contact connector GMSTBV_01x07_GF_7.62mm")
  (fp_text reference REF** (at 22.86 -6) (layer F.SilkS)
    (effects (font (size 1 1) (thickness 0.15)))
  )
  (fp_text value PhoenixContact_GMSTBV_2,5_7-GF-7,62_1x07_P7.62mm_Vertical_ThreadedFlange (at 22.86 5) (layer F.Fab)
    (effects (font (size 1 1) (thickness 0.15)))
  )
  (fp_arc (start 0 0.55) (end -2 2.2) (angle -100.5) (layer F.SilkS) (width 0.12))
  (fp_arc (start 7.62 0.55) (end 5.62 2.2) (angle -100.5) (layer F.SilkS) (width 0.12))
  (fp_arc (start 15.24 0.55) (end 13.24 2.2) (angle -100.5) (layer F.SilkS) (width 0.12))
  (fp_arc (start 22.86 0.55) (end 20.86 2.2) (angle -100.5) (layer F.SilkS) (width 0.12))
  (fp_arc (start 30.48 0.55) (end 28.48 2.2) (angle -100.5) (layer F.SilkS) (width 0.12))
  (fp_arc (start 38.1 0.55) (end 36.1 2.2) (angle -100.5) (layer F.SilkS) (width 0.12))
  (fp_arc (start 45.72 0.55) (end 43.72 2.2) (angle -100.5) (layer F.SilkS) (width 0.12))
  (fp_circle (center -6.1 0) (end -4.2 0) (layer F.SilkS) (width 0.12))
  (fp_circle (center 51.82 0) (end 53.72 0) (layer F.SilkS) (width 0.12))
  (fp_circle (center -6.1 0) (end -5.1 0) (layer F.SilkS) (width 0.12))
  (fp_circle (center 51.82 0) (end 52.82 0) (layer F.SilkS) (width 0.12))
  (fp_line (start -9.21 -4.91) (end -9.21 3.91) (layer F.SilkS) (width 0.12))
  (fp_line (start -9.21 3.91) (end 54.93 3.91) (layer F.SilkS) (width 0.12))
  (fp_line (start 54.93 3.91) (end 54.93 -4.91) (layer F.SilkS) (width 0.12))
  (fp_line (start 54.93 -4.91) (end -9.21 -4.91) (layer F.SilkS) (width 0.12))
  (fp_line (start -9.1 -4.8) (end -9.1 3.8) (layer F.Fab) (width 0.1))
  (fp_line (start -9.1 3.8) (end 54.82 3.8) (layer F.Fab) (width 0.1))
  (fp_line (start 54.82 3.8) (end 54.82 -4.8) (layer F.Fab) (width 0.1))
  (fp_line (start 54.82 -4.8) (end -9.1 -4.8) (layer F.Fab) (width 0.1))
  (fp_line (start -9.21 -4.1) (end -7.21 -4.1) (layer F.SilkS) (width 0.12))
  (fp_line (start 54.93 -4.1) (end 52.93 -4.1) (layer F.SilkS) (width 0.12))
  (fp_line (start 1 -4.1) (end 6.62 -4.1) (layer F.SilkS) (width 0.12))
  (fp_line (start 8.62 -4.1) (end 14.24 -4.1) (layer F.SilkS) (width 0.12))
  (fp_line (start 16.24 -4.1) (end 21.86 -4.1) (layer F.SilkS) (width 0.12))
  (fp_line (start 23.86 -4.1) (end 29.48 -4.1) (layer F.SilkS) (width 0.12))
  (fp_line (start 31.48 -4.1) (end 37.1 -4.1) (layer F.SilkS) (width 0.12))
  (fp_line (start 39.1 -4.1) (end 44.72 -4.1) (layer F.SilkS) (width 0.12))
  (fp_line (start -7.1 -3.1) (end -7.1 -4.91) (layer F.SilkS) (width 0.12))
  (fp_line (start -7.1 -4.91) (end -5.1 -4.91) (layer F.SilkS) (width 0.12))
  (fp_line (start -5.1 -4.91) (end -5.1 -3.1) (layer F.SilkS) (width 0.12))
  (fp_line (start -5.1 -3.1) (end -7.1 -3.1) (layer F.SilkS) (width 0.12))
  (fp_line (start 50.82 -3.1) (end 50.82 -4.91) (layer F.SilkS) (width 0.12))
  (fp_line (start 50.82 -4.91) (end 52.82 -4.91) (layer F.SilkS) (width 0.12))
  (fp_line (start 52.82 -4.91) (end 52.82 -3.1) (layer F.SilkS) (width 0.12))
  (fp_line (start 52.82 -3.1) (end 50.82 -3.1) (layer F.SilkS) (width 0.12))
  (fp_line (start -5.1 -4.1) (end -1 -4.1) (layer F.SilkS) (width 0.12))
  (fp_line (start 46.72 -4.1) (end 50.82 -4.1) (layer F.SilkS) (width 0.12))
  (fp_line (start -1 -3.1) (end -1 -4.91) (layer F.SilkS) (width 0.12))
  (fp_line (start -1 -4.91) (end 1 -4.91) (layer F.SilkS) (width 0.12))
  (fp_line (start 1 -4.91) (end 1 -3.1) (layer F.SilkS) (width 0.12))
  (fp_line (start 1 -3.1) (end -1 -3.1) (layer F.SilkS) (width 0.12))
  (fp_line (start 6.62 -3.1) (end 6.62 -4.91) (layer F.SilkS) (width 0.12))
  (fp_line (start 6.62 -4.91) (end 8.62 -4.91) (layer F.SilkS) (width 0.12))
  (fp_line (start 8.62 -4.91) (end 8.62 -3.1) (layer F.SilkS) (width 0.12))
  (fp_line (start 8.62 -3.1) (end 6.62 -3.1) (layer F.SilkS) (width 0.12))
  (fp_line (start 14.24 -3.1) (end 14.24 -4.91) (layer F.SilkS) (width 0.12))
  (fp_line (start 14.24 -4.91) (end 16.24 -4.91) (layer F.SilkS) (width 0.12))
  (fp_line (start 16.24 -4.91) (end 16.24 -3.1) (layer F.SilkS) (width 0.12))
  (fp_line (start 16.24 -3.1) (end 14.24 -3.1) (layer F.SilkS) (width 0.12))
  (fp_line (start 21.86 -3.1) (end 21.86 -4.91) (layer F.SilkS) (width 0.12))
  (fp_line (start 21.86 -4.91) (end 23.86 -4.91) (layer F.SilkS) (width 0.12))
  (fp_line (start 23.86 -4.91) (end 23.86 -3.1) (layer F.SilkS) (width 0.12))
  (fp_line (start 23.86 -3.1) (end 21.86 -3.1) (layer F.SilkS) (width 0.12))
  (fp_line (start 29.48 -3.1) (end 29.48 -4.91) (layer F.SilkS) (width 0.12))
  (fp_line (start 29.48 -4.91) (end 31.48 -4.91) (layer F.SilkS) (width 0.12))
  (fp_line (start 31.48 -4.91) (end 31.48 -3.1) (layer F.SilkS) (width 0.12))
  (fp_line (start 31.48 -3.1) (end 29.48 -3.1) (layer F.SilkS) (width 0.12))
  (fp_line (start 37.1 -3.1) (end 37.1 -4.91) (layer F.SilkS) (width 0.12))
  (fp_line (start 37.1 -4.91) (end 39.1 -4.91) (layer F.SilkS) (width 0.12))
  (fp_line (start 39.1 -4.91) (end 39.1 -3.1) (layer F.SilkS) (width 0.12))
  (fp_line (start 39.1 -3.1) (end 37.1 -3.1) (layer F.SilkS) (width 0.12))
  (fp_line (start 44.72 -3.1) (end 44.72 -4.91) (layer F.SilkS) (width 0.12))
  (fp_line (start 44.72 -4.91) (end 46.72 -4.91) (layer F.SilkS) (width 0.12))
  (fp_line (start 46.72 -4.91) (end 46.72 -3.1) (layer F.SilkS) (width 0.12))
  (fp_line (start 46.72 -3.1) (end 44.72 -3.1) (layer F.SilkS) (width 0.12))
  (fp_line (start 2 2.2) (end 5.62 2.2) (layer F.SilkS) (width 0.12))
  (fp_line (start 9.62 2.2) (end 13.24 2.2) (layer F.SilkS) (width 0.12))
  (fp_line (start 17.24 2.2) (end 20.86 2.2) (layer F.SilkS) (width 0.12))
  (fp_line (start 24.86 2.2) (end 28.48 2.2) (layer F.SilkS) (width 0.12))
  (fp_line (start 32.48 2.2) (end 36.1 2.2) (layer F.SilkS) (width 0.12))
  (fp_line (start 40.1 2.2) (end 43.72 2.2) (layer F.SilkS) (width 0.12))
  (fp_line (start -2 2.2) (end -3.01 2.2) (layer F.SilkS) (width 0.12))
  (fp_line (start -3.01 2.2) (end -3.01 -3.1) (layer F.SilkS) (width 0.12))
  (fp_line (start -3.01 -3.1) (end 48.73 -3.1) (layer F.SilkS) (width 0.12))
  (fp_line (start 48.73 -3.1) (end 48.73 2.2) (layer F.SilkS) (width 0.12))
  (fp_line (start 48.73 2.2) (end 47.72 2.2) (layer F.SilkS) (width 0.12))
  (fp_line (start -9.6 -5.3) (end -9.6 4.3) (layer F.CrtYd) (width 0.05))
  (fp_line (start -9.6 4.3) (end 55.32 4.3) (layer F.CrtYd) (width 0.05))
  (fp_line (start 55.32 4.3) (end 55.32 -5.3) (layer F.CrtYd) (width 0.05))
  (fp_line (start 55.32 -5.3) (end -9.6 -5.3) (layer F.CrtYd) (width 0.05))
  (fp_line (start 0.3 -5.71) (end 0 -5.11) (layer F.SilkS) (width 0.12))
  (fp_line (start 0 -5.11) (end -0.3 -5.71) (layer F.SilkS) (width 0.12))
  (fp_line (start -0.3 -5.71) (end 0.3 -5.71) (layer F.SilkS) (width 0.12))
  (fp_line (start 0.5 -3.55) (end 0 -2.55) (layer F.Fab) (width 0.1))
  (fp_line (start 0 -2.55) (end -0.5 -3.55) (layer F.Fab) (width 0.1))
  (fp_line (start -0.5 -3.55) (end 0.5 -3.55) (layer F.Fab) (width 0.1))
  (pad 1 thru_hole roundrect (at 0 0) (size 2.1 3.6) (drill 1.4) (layers *.Cu *.Mask) (roundrect_rratio 0.119048))
  (pad 2 thru_hole oval (at 7.62 0) (size 2.1 3.6) (drill 1.4) (layers *.Cu *.Mask))
  (pad 3 thru_hole oval (at 15.24 0) (size 2.1 3.6) (drill 1.4) (layers *.Cu *.Mask))
  (pad 4 thru_hole oval (at 22.86 0) (size 2.1 3.6) (drill 1.4) (layers *.Cu *.Mask))
  (pad 5 thru_hole oval (at 30.48 0) (size 2.1 3.6) (drill 1.4) (layers *.Cu *.Mask))
  (pad 6 thru_hole oval (at 38.1 0) (size 2.1 3.6) (drill 1.4) (layers *.Cu *.Mask))
  (pad 7 thru_hole oval (at 45.72 0) (size 2.1 3.6) (drill 1.4) (layers *.Cu *.Mask))
  (fp_text user %R (at 22.86 -4.1) (layer F.Fab)
    (effects (font (size 1 1) (thickness 0.15)))
  )
  (model ${KICAD6_3DMODEL_DIR}/Connector_Phoenix_GMSTB.3dshapes/PhoenixContact_GMSTBV_2,5_7-GF-7,62_1x07_P7.62mm_Vertical_ThreadedFlange.wrl
    (at (xyz 0 0 0))
    (scale (xyz 1 1 1))
    (rotate (xyz 0 0 0))
  )
)