(module PhoenixContact_GMSTB_2,5_12-GF-7,62_1x12_P7.62mm_Horizontal_ThreadedFlange (layer F.Cu) (tedit 5B785048)
  (descr "Generic Phoenix Contact connector footprint for: GMSTB_2,5/12-GF-7,62; number of pins: 12; pin pitch: 7.62mm; Angled; threaded flange || order number: 1806326 12A 630V")
  (tags "phoenix_contact connector GMSTB_01x12_GF_7.62mm")
  (fp_text reference REF** (at 41.91 -3.2) (layer F.SilkS)
    (effects (font (size 1 1) (thickness 0.15)))
  )
  (fp_text value PhoenixContact_GMSTB_2,5_12-GF-7,62_1x12_P7.62mm_Horizontal_ThreadedFlange (at 41.91 11.2) (layer F.Fab)
    (effects (font (size 1 1) (thickness 0.15)))
  )
  (fp_line (start -9.21 -2.11) (end -9.21 10.11) (layer F.SilkS) (width 0.12))
  (fp_line (start -9.21 10.11) (end 93.03 10.11) (layer F.SilkS) (width 0.12))
  (fp_line (start 93.03 10.11) (end 93.03 -2.11) (layer F.SilkS) (width 0.12))
  (fp_line (start 93.03 -2.11) (end -9.21 -2.11) (layer F.SilkS) (width 0.12))
  (fp_line (start -9.1 -2) (end -9.1 10) (layer F.Fab) (width 0.1))
  (fp_line (start -9.1 10) (end 92.92 10) (layer F.Fab) (width 0.1))
  (fp_line (start 92.92 10) (end 92.92 -2) (layer F.Fab) (width 0.1))
  (fp_line (start 92.92 -2) (end -9.1 -2) (layer F.Fab) (width 0.1))
  (fp_line (start -9.21 8.61) (end -9.21 6.81) (layer F.SilkS) (width 0.12))
  (fp_line (start -9.21 6.81) (end 93.03 6.81) (layer F.SilkS) (width 0.12))
  (fp_line (start 93.03 6.81) (end 93.03 8.61) (layer F.SilkS) (width 0.12))
  (fp_line (start 93.03 8.61) (end -9.21 8.61) (layer F.SilkS) (width 0.12))
  (fp_line (start -7.1 10.11) (end -5.1 10.11) (layer F.SilkS) (width 0.12))
  (fp_line (start -5.1 10.11) (end -5.35 8.61) (layer F.SilkS) (width 0.12))
  (fp_line (start -5.35 8.61) (end -6.85 8.61) (layer F.SilkS) (width 0.12))
  (fp_line (start -6.85 8.61) (end -7.1 10.11) (layer F.SilkS) (width 0.12))
  (fp_line (start 88.92 10.11) (end 90.92 10.11) (layer F.SilkS) (width 0.12))
  (fp_line (start 90.92 10.11) (end 90.67 8.61) (layer F.SilkS) (width 0.12))
  (fp_line (start 90.67 8.61) (end 89.17 8.61) (layer F.SilkS) (width 0.12))
  (fp_line (start 89.17 8.61) (end 88.92 10.11) (layer F.SilkS) (width 0.12))
  (fp_line (start -1 10.11) (end 1 10.11) (layer F.SilkS) (width 0.12))
  (fp_line (start 1 10.11) (end 0.75 8.61) (layer F.SilkS) (width 0.12))
  (fp_line (start 0.75 8.61) (end -0.75 8.61) (layer F.SilkS) (width 0.12))
  (fp_line (start -0.75 8.61) (end -1 10.11) (layer F.SilkS) (width 0.12))
  (fp_line (start 6.62 10.11) (end 8.62 10.11) (layer F.SilkS) (width 0.12))
  (fp_line (start 8.62 10.11) (end 8.37 8.61) (layer F.SilkS) (width 0.12))
  (fp_line (start 8.37 8.61) (end 6.87 8.61) (layer F.SilkS) (width 0.12))
  (fp_line (start 6.87 8.61) (end 6.62 10.11) (layer F.SilkS) (width 0.12))
  (fp_line (start 14.24 10.11) (end 16.24 10.11) (layer F.SilkS) (width 0.12))
  (fp_line (start 16.24 10.11) (end 15.99 8.61) (layer F.SilkS) (width 0.12))
  (fp_line (start 15.99 8.61) (end 14.49 8.61) (layer F.SilkS) (width 0.12))
  (fp_line (start 14.49 8.61) (end 14.24 10.11) (layer F.SilkS) (width 0.12))
  (fp_line (start 21.86 10.11) (end 23.86 10.11) (layer F.SilkS) (width 0.12))
  (fp_line (start 23.86 10.11) (end 23.61 8.61) (layer F.SilkS) (width 0.12))
  (fp_line (start 23.61 8.61) (end 22.11 8.61) (layer F.SilkS) (width 0.12))
  (fp_line (start 22.11 8.61) (end 21.86 10.11) (layer F.SilkS) (width 0.12))
  (fp_line (start 29.48 10.11) (end 31.48 10.11) (layer F.SilkS) (width 0.12))
  (fp_line (start 31.48 10.11) (end 31.23 8.61) (layer F.SilkS) (width 0.12))
  (fp_line (start 31.23 8.61) (end 29.73 8.61) (layer F.SilkS) (width 0.12))
  (fp_line (start 29.73 8.61) (end 29.48 10.11) (layer F.SilkS) (width 0.12))
  (fp_line (start 37.1 10.11) (end 39.1 10.11) (layer F.SilkS) (width 0.12))
  (fp_line (start 39.1 10.11) (end 38.85 8.61) (layer F.SilkS) (width 0.12))
  (fp_line (start 38.85 8.61) (end 37.35 8.61) (layer F.SilkS) (width 0.12))
  (fp_line (start 37.35 8.61) (end 37.1 10.11) (layer F.SilkS) (width 0.12))
  (fp_line (start 44.72 10.11) (end 46.72 10.11) (layer F.SilkS) (width 0.12))
  (fp_line (start 46.72 10.11) (end 46.47 8.61) (layer F.SilkS) (width 0.12))
  (fp_line (start 46.47 8.61) (end 44.97 8.61) (layer F.SilkS) (width 0.12))
  (fp_line (start 44.97 8.61) (end 44.72 10.11) (layer F.SilkS) (width 0.12))
  (fp_line (start 52.34 10.11) (end 54.34 10.11) (layer F.SilkS) (width 0.12))
  (fp_line (start 54.34 10.11) (end 54.09 8.61) (layer F.SilkS) (width 0.12))
  (fp_line (start 54.09 8.61) (end 52.59 8.61) (layer F.SilkS) (width 0.12))
  (fp_line (start 52.59 8.61) (end 52.34 10.11) (layer F.SilkS) (width 0.12))
  (fp_line (start 59.96 10.11) (end 61.96 10.11) (layer F.SilkS) (width 0.12))
  (fp_line (start 61.96 10.11) (end 61.71 8.61) (layer F.SilkS) (width 0.12))
  (fp_line (start 61.71 8.61) (end 60.21 8.61) (layer F.SilkS) (width 0.12))
  (fp_line (start 60.21 8.61) (end 59.96 10.11) (layer F.SilkS) (width 0.12))
  (fp_line (start 67.58 10.11) (end 69.58 10.11) (layer F.SilkS) (width 0.12))
  (fp_line (start 69.58 10.11) (end 69.33 8.61) (layer F.SilkS) (width 0.12))
  (fp_line (start 69.33 8.61) (end 67.83 8.61) (layer F.SilkS) (width 0.12))
  (fp_line (start 67.83 8.61) (end 67.58 10.11) (layer F.SilkS) (width 0.12))
  (fp_line (start 75.2 10.11) (end 77.2 10.11) (layer F.SilkS) (width 0.12))
  (fp_line (start 77.2 10.11) (end 76.95 8.61) (layer F.SilkS) (width 0.12))
  (fp_line (start 76.95 8.61) (end 75.45 8.61) (layer F.SilkS) (width 0.12))
  (fp_line (start 75.45 8.61) (end 75.2 10.11) (layer F.SilkS) (width 0.12))
  (fp_line (start 82.82 10.11) (end 84.82 10.11) (layer F.SilkS) (width 0.12))
  (fp_line (start 84.82 10.11) (end 84.57 8.61) (layer F.SilkS) (width 0.12))
  (fp_line (start 84.57 8.61) (end 83.07 8.61) (layer F.SilkS) (width 0.12))
  (fp_line (start 83.07 8.61) (end 82.82 10.11) (layer F.SilkS) (width 0.12))
  (fp_line (start -9.6 -2.5) (end -9.6 10.5) (layer F.CrtYd) (width 0.05))
  (fp_line (start -9.6 10.5) (end 93.42 10.5) (layer F.CrtYd) (width 0.05))
  (fp_line (start 93.42 10.5) (end 93.42 -2.5) (layer F.CrtYd) (width 0.05))
  (fp_line (start 93.42 -2.5) (end -9.6 -2.5) (layer F.CrtYd) (width 0.05))
  (fp_line (start 0.3 -2.91) (end 0 -2.31) (layer F.SilkS) (width 0.12))
  (fp_line (start 0 -2.31) (end -0.3 -2.91) (layer F.SilkS) (width 0.12))
  (fp_line (start -0.3 -2.91) (end 0.3 -2.91) (layer F.SilkS) (width 0.12))
  (fp_line (start 0.95 -2) (end 0 -0.5) (layer F.Fab) (width 0.1))
  (fp_line (start 0 -0.5) (end -0.95 -2) (layer F.Fab) (width 0.1))
  (pad 1 thru_hole roundrect (at 0 0) (size 2.1 3.6) (drill 1.4) (layers *.Cu *.Mask) (roundrect_rratio 0.119048))
  (pad 2 thru_hole oval (at 7.62 0) (size 2.1 3.6) (drill 1.4) (layers *.Cu *.Mask))
  (pad 3 thru_hole oval (at 15.24 0) (size 2.1 3.6) (drill 1.4) (layers *.Cu *.Mask))
  (pad 4 thru_hole oval (at 22.86 0) (size 2.1 3.6) (drill 1.4) (layers *.Cu *.Mask))
  (pad 5 thru_hole oval (at 30.48 0) (size 2.1 3.6) (drill 1.4) (layers *.Cu *.Mask))
  (pad 6 thru_hole oval (at 38.1 0) (size 2.1 3.6) (drill 1.4) (layers *.Cu *.Mask))
  (pad 7 thru_hole oval (at 45.72 0) (size 2.1 3.6) (drill 1.4) (layers *.Cu *.Mask))
  (pad 8 thru_hole oval (at 53.34 0) (size 2.1 3.6) (drill 1.4) (layers *.Cu *.Mask))
  (pad 9 thru_hole oval (at 60.96 0) (size 2.1 3.6) (drill 1.4) (layers *.Cu *.Mask))
  (pad 10 thru_hole oval (at 68.58 0) (size 2.1 3.6) (drill 1.4) (layers *.Cu *.Mask))
  (pad 11 thru_hole oval (at 76.2 0) (size 2.1 3.6) (drill 1.4) (layers *.Cu *.Mask))
  (pad 12 thru_hole oval (at 83.82 0) (size 2.1 3.6) (drill 1.4) (layers *.Cu *.Mask))
  (fp_text user %R (at 41.91 -1.3) (layer F.Fab)
    (effects (font (size 1 1) (thickness 0.15)))
  )
  (model ${KICAD6_3DMODEL_DIR}/Connector_Phoenix_GMSTB.3dshapes/PhoenixContact_GMSTB_2,5_12-GF-7,62_1x12_P7.62mm_Horizontal_ThreadedFlange.wrl
    (at (xyz 0 0 0))
    (scale (xyz 1 1 1))
    (rotate (xyz 0 0 0))
  )
)