(module PhoenixContact_GMSTBA_2,5_6-G-7,62_1x06_P7.62mm_Horizontal (layer F.Cu) (tedit 5B785048)
  (descr "Generic Phoenix Contact connector footprint for: GMSTBA_2,5/6-G-7,62; number of pins: 06; pin pitch: 7.62mm; Angled || order number: 1766275 12A 630V")
  (tags "phoenix_contact connector GMSTBA_01x06_G_7.62mm")
  (fp_text reference REF** (at 19.05 -3.2) (layer F.SilkS)
    (effects (font (size 1 1) (thickness 0.15)))
  )
  (fp_text value PhoenixContact_GMSTBA_2,5_6-G-7,62_1x06_P7.62mm_Horizontal (at 19.05 11.2) (layer F.Fab)
    (effects (font (size 1 1) (thickness 0.15)))
  )
  (fp_line (start -3.92 -2.11) (end -3.92 10.11) (layer F.SilkS) (width 0.12))
  (fp_line (start -3.92 10.11) (end 42.02 10.11) (layer F.SilkS) (width 0.12))
  (fp_line (start 42.02 10.11) (end 42.02 -2.11) (layer F.SilkS) (width 0.12))
  (fp_line (start 42.02 -2.11) (end -3.92 -2.11) (layer F.SilkS) (width 0.12))
  (fp_line (start -3.81 -2) (end -3.81 10) (layer F.Fab) (width 0.1))
  (fp_line (start -3.81 10) (end 41.91 10) (layer F.Fab) (width 0.1))
  (fp_line (start 41.91 10) (end 41.91 -2) (layer F.Fab) (width 0.1))
  (fp_line (start 41.91 -2) (end -3.81 -2) (layer F.Fab) (width 0.1))
  (fp_line (start -3.92 8.61) (end -3.92 6.81) (layer F.SilkS) (width 0.12))
  (fp_line (start -3.92 6.81) (end 42.02 6.81) (layer F.SilkS) (width 0.12))
  (fp_line (start 42.02 6.81) (end 42.02 8.61) (layer F.SilkS) (width 0.12))
  (fp_line (start 42.02 8.61) (end -3.92 8.61) (layer F.SilkS) (width 0.12))
  (fp_line (start -1 10.11) (end 1 10.11) (layer F.SilkS) (width 0.12))
  (fp_line (start 1 10.11) (end 0.75 8.61) (layer F.SilkS) (width 0.12))
  (fp_line (start 0.75 8.61) (end -0.75 8.61) (layer F.SilkS) (width 0.12))
  (fp_line (start -0.75 8.61) (end -1 10.11) (layer F.SilkS) (width 0.12))
  (fp_line (start 6.62 10.11) (end 8.62 10.11) (layer F.SilkS) (width 0.12))
  (fp_line (start 8.62 10.11) (end 8.37 8.61) (layer F.SilkS) (width 0.12))
  (fp_line (start 8.37 8.61) (end 6.87 8.61) (layer F.SilkS) (width 0.12))
  (fp_line (start 6.87 8.61) (end 6.62 10.11) (layer F.SilkS) (width 0.12))
  (fp_line (start 14.24 10.11) (end 16.24 10.11) (layer F.SilkS) (width 0.12))
  (fp_line (start 16.24 10.11) (end 15.99 8.61) (layer F.SilkS) (width 0.12))
  (fp_line (start 15.99 8.61) (end 14.49 8.61) (layer F.SilkS) (width 0.12))
  (fp_line (start 14.49 8.61) (end 14.24 10.11) (layer F.SilkS) (width 0.12))
  (fp_line (start 21.86 10.11) (end 23.86 10.11) (layer F.SilkS) (width 0.12))
  (fp_line (start 23.86 10.11) (end 23.61 8.61) (layer F.SilkS) (width 0.12))
  (fp_line (start 23.61 8.61) (end 22.11 8.61) (layer F.SilkS) (width 0.12))
  (fp_line (start 22.11 8.61) (end 21.86 10.11) (layer F.SilkS) (width 0.12))
  (fp_line (start 29.48 10.11) (end 31.48 10.11) (layer F.SilkS) (width 0.12))
  (fp_line (start 31.48 10.11) (end 31.23 8.61) (layer F.SilkS) (width 0.12))
  (fp_line (start 31.23 8.61) (end 29.73 8.61) (layer F.SilkS) (width 0.12))
  (fp_line (start 29.73 8.61) (end 29.48 10.11) (layer F.SilkS) (width 0.12))
  (fp_line (start 37.1 10.11) (end 39.1 10.11) (layer F.SilkS) (width 0.12))
  (fp_line (start 39.1 10.11) (end 38.85 8.61) (layer F.SilkS) (width 0.12))
  (fp_line (start 38.85 8.61) (end 37.35 8.61) (layer F.SilkS) (width 0.12))
  (fp_line (start 37.35 8.61) (end 37.1 10.11) (layer F.SilkS) (width 0.12))
  (fp_line (start -4.31 -2.5) (end -4.31 10.5) (layer F.CrtYd) (width 0.05))
  (fp_line (start -4.31 10.5) (end 42.41 10.5) (layer F.CrtYd) (width 0.05))
  (fp_line (start 42.41 10.5) (end 42.41 -2.5) (layer F.CrtYd) (width 0.05))
  (fp_line (start 42.41 -2.5) (end -4.31 -2.5) (layer F.CrtYd) (width 0.05))
  (fp_line (start 0.3 -2.91) (end 0 -2.31) (layer F.SilkS) (width 0.12))
  (fp_line (start 0 -2.31) (end -0.3 -2.91) (layer F.SilkS) (width 0.12))
  (fp_line (start -0.3 -2.91) (end 0.3 -2.91) (layer F.SilkS) (width 0.12))
  (fp_line (start 0.95 -2) (end 0 -0.5) (layer F.Fab) (width 0.1))
  (fp_line (start 0 -0.5) (end -0.95 -2) (layer F.Fab) (width 0.1))
  (pad 1 thru_hole roundrect (at 0 0) (size 2.1 3.6) (drill 1.4) (layers *.Cu *.Mask) (roundrect_rratio 0.119048))
  (pad 2 thru_hole oval (at 7.62 0) (size 2.1 3.6) (drill 1.4) (layers *.Cu *.Mask))
  (pad 3 thru_hole oval (at 15.24 0) (size 2.1 3.6) (drill 1.4) (layers *.Cu *.Mask))
  (pad 4 thru_hole oval (at 22.86 0) (size 2.1 3.6) (drill 1.4) (layers *.Cu *.Mask))
  (pad 5 thru_hole oval (at 30.48 0) (size 2.1 3.6) (drill 1.4) (layers *.Cu *.Mask))
  (pad 6 thru_hole oval (at 38.1 0) (size 2.1 3.6) (drill 1.4) (layers *.Cu *.Mask))
  (fp_text user %R (at 19.05 -1.3) (layer F.Fab)
    (effects (font (size 1 1) (thickness 0.15)))
  )
  (model ${KICAD6_3DMODEL_DIR}/Connector_Phoenix_GMSTB.3dshapes/PhoenixContact_GMSTBA_2,5_6-G-7,62_1x06_P7.62mm_Horizontal.wrl
    (at (xyz 0 0 0))
    (scale (xyz 1 1 1))
    (rotate (xyz 0 0 0))
  )
)