(module PhoenixContact_GMSTB_2,5_2-GF-7,62_1x02_P7.62mm_Horizontal_ThreadedFlange_MountHole (layer F.Cu) (tedit 5B785048)
  (descr "Generic Phoenix Contact connector footprint for: GMSTB_2,5/2-GF-7,62; number of pins: 02; pin pitch: 7.62mm; Angled; threaded flange; footprint includes mount hole for mounting screw: ISO 1481-ST 2.2x6.5 C or ISO 7049-ST 2.2x6.5 C (http://www.fasteners.eu/standards/ISO/7049/) || order number: 1806229 12A 630V")
  (tags "phoenix_contact connector GMSTB_01x02_GF_7.62mm_MH")
  (fp_text reference REF** (at 3.81 -3.2) (layer F.SilkS)
    (effects (font (size 1 1) (thickness 0.15)))
  )
  (fp_text value PhoenixContact_GMSTB_2,5_2-GF-7,62_1x02_P7.62mm_Horizontal_ThreadedFlange_MountHole (at 3.81 11.2) (layer F.Fab)
    (effects (font (size 1 1) (thickness 0.15)))
  )
  (fp_circle (center -6.1 2.5) (end -3.89 2.5) (layer B.SilkS) (width 0.12))
  (fp_circle (center 13.72 2.5) (end 15.93 2.5) (layer B.SilkS) (width 0.12))
  (fp_circle (center 13.72 2.5) (end 15.82 2.5) (layer B.Fab) (width 0.1))
  (fp_circle (center -6.1 2.5) (end -4 2.5) (layer B.Fab) (width 0.1))
  (fp_circle (center 13.72 2.5) (end 16.32 2.5) (layer B.CrtYd) (width 0.05))
  (fp_circle (center -6.1 2.5) (end -3.5 2.5) (layer B.CrtYd) (width 0.05))
  (fp_line (start -9.21 -2.11) (end -9.21 10.11) (layer F.SilkS) (width 0.12))
  (fp_line (start -9.21 10.11) (end 16.83 10.11) (layer F.SilkS) (width 0.12))
  (fp_line (start 16.83 10.11) (end 16.83 -2.11) (layer F.SilkS) (width 0.12))
  (fp_line (start 16.83 -2.11) (end -9.21 -2.11) (layer F.SilkS) (width 0.12))
  (fp_line (start -9.1 -2) (end -9.1 10) (layer F.Fab) (width 0.1))
  (fp_line (start -9.1 10) (end 16.72 10) (layer F.Fab) (width 0.1))
  (fp_line (start 16.72 10) (end 16.72 -2) (layer F.Fab) (width 0.1))
  (fp_line (start 16.72 -2) (end -9.1 -2) (layer F.Fab) (width 0.1))
  (fp_line (start -9.21 8.61) (end -9.21 6.81) (layer F.SilkS) (width 0.12))
  (fp_line (start -9.21 6.81) (end 16.83 6.81) (layer F.SilkS) (width 0.12))
  (fp_line (start 16.83 6.81) (end 16.83 8.61) (layer F.SilkS) (width 0.12))
  (fp_line (start 16.83 8.61) (end -9.21 8.61) (layer F.SilkS) (width 0.12))
  (fp_line (start -7.1 10.11) (end -5.1 10.11) (layer F.SilkS) (width 0.12))
  (fp_line (start -5.1 10.11) (end -5.35 8.61) (layer F.SilkS) (width 0.12))
  (fp_line (start -5.35 8.61) (end -6.85 8.61) (layer F.SilkS) (width 0.12))
  (fp_line (start -6.85 8.61) (end -7.1 10.11) (layer F.SilkS) (width 0.12))
  (fp_line (start 12.72 10.11) (end 14.72 10.11) (layer F.SilkS) (width 0.12))
  (fp_line (start 14.72 10.11) (end 14.47 8.61) (layer F.SilkS) (width 0.12))
  (fp_line (start 14.47 8.61) (end 12.97 8.61) (layer F.SilkS) (width 0.12))
  (fp_line (start 12.97 8.61) (end 12.72 10.11) (layer F.SilkS) (width 0.12))
  (fp_line (start -1 10.11) (end 1 10.11) (layer F.SilkS) (width 0.12))
  (fp_line (start 1 10.11) (end 0.75 8.61) (layer F.SilkS) (width 0.12))
  (fp_line (start 0.75 8.61) (end -0.75 8.61) (layer F.SilkS) (width 0.12))
  (fp_line (start -0.75 8.61) (end -1 10.11) (layer F.SilkS) (width 0.12))
  (fp_line (start 6.62 10.11) (end 8.62 10.11) (layer F.SilkS) (width 0.12))
  (fp_line (start 8.62 10.11) (end 8.37 8.61) (layer F.SilkS) (width 0.12))
  (fp_line (start 8.37 8.61) (end 6.87 8.61) (layer F.SilkS) (width 0.12))
  (fp_line (start 6.87 8.61) (end 6.62 10.11) (layer F.SilkS) (width 0.12))
  (fp_line (start -9.6 -2.5) (end -9.6 10.5) (layer F.CrtYd) (width 0.05))
  (fp_line (start -9.6 10.5) (end 17.22 10.5) (layer F.CrtYd) (width 0.05))
  (fp_line (start 17.22 10.5) (end 17.22 -2.5) (layer F.CrtYd) (width 0.05))
  (fp_line (start 17.22 -2.5) (end -9.6 -2.5) (layer F.CrtYd) (width 0.05))
  (fp_line (start 0.3 -2.91) (end 0 -2.31) (layer F.SilkS) (width 0.12))
  (fp_line (start 0 -2.31) (end -0.3 -2.91) (layer F.SilkS) (width 0.12))
  (fp_line (start -0.3 -2.91) (end 0.3 -2.91) (layer F.SilkS) (width 0.12))
  (fp_line (start 0.95 -2) (end 0 -0.5) (layer F.Fab) (width 0.1))
  (fp_line (start 0 -0.5) (end -0.95 -2) (layer F.Fab) (width 0.1))
  (pad 1 thru_hole roundrect (at 0 0) (size 2.1 3.6) (drill 1.4) (layers *.Cu *.Mask) (roundrect_rratio 0.119048))
  (pad 2 thru_hole oval (at 7.62 0) (size 2.1 3.6) (drill 1.4) (layers *.Cu *.Mask))
  (pad "" np_thru_hole circle (at -6.1 2.5) (size 2.4 2.4) (drill 2.4) (layers *.Cu *.Mask))
  (pad "" np_thru_hole circle (at 13.72 2.5) (size 2.4 2.4) (drill 2.4) (layers *.Cu *.Mask))
  (fp_text user %R (at 3.81 -1.3) (layer F.Fab)
    (effects (font (size 1 1) (thickness 0.15)))
  )
  (model ${KICAD6_3DMODEL_DIR}/Connector_Phoenix_GMSTB.3dshapes/PhoenixContact_GMSTB_2,5_2-GF-7,62_1x02_P7.62mm_Horizontal_ThreadedFlange_MountHole.wrl
    (at (xyz 0 0 0))
    (scale (xyz 1 1 1))
    (rotate (xyz 0 0 0))
  )
)