(module SAS-mini_TEConnectivity_1888174_Vertical (layer F.Cu) (tedit 5A1DC09F)
  (descr "36pin mini SAS connector, http://www.te.com/commerce/DocumentDelivery/DDEController?Action=srchrtrv&DocNm=1888174&DocType=Customer+Drawing&DocLang=English")
  (tags "SAS mini connector")
  (attr smd)
  (fp_text reference REF** (at 4 -6.29) (layer F.SilkS)
    (effects (font (size 1 1) (thickness 0.15)))
  )
  (fp_text value SAS-mini_TEConnectivity_1888174_Vertical (at 2.3 8.6) (layer F.Fab)
    (effects (font (size 1 1) (thickness 0.15)))
  )
  (fp_text user %R (at -0.025 1.1) (layer F.Fab)
    (effects (font (size 1 1) (thickness 0.15)))
  )
  (fp_line (start -6 8.45) (end -6.5 8) (layer F.SilkS) (width 0.12))
  (fp_line (start -7 8.45) (end -6 8.45) (layer F.SilkS) (width 0.12))
  (fp_line (start -6.5 8) (end -7 8.45) (layer F.SilkS) (width 0.12))
  (fp_line (start -9 7.55) (end 9.4 7.55) (layer F.Fab) (width 0.12))
  (fp_line (start -9.45 7) (end -9 7.55) (layer F.Fab) (width 0.12))
  (fp_line (start -9.45 -5.35) (end -9.45 7) (layer F.Fab) (width 0.12))
  (fp_line (start 9.4 -5.35) (end -9.45 -5.35) (layer F.Fab) (width 0.12))
  (fp_line (start 9.4 7.55) (end 9.4 -5.35) (layer F.Fab) (width 0.12))
  (fp_line (start 7.93 -5.39) (end -9.5 -5.39) (layer F.SilkS) (width 0.12))
  (fp_line (start -9.5 -5.39) (end -9.5 -4.95) (layer F.SilkS) (width 0.12))
  (fp_line (start -9.5 7.61) (end 9.5 7.61) (layer F.SilkS) (width 0.12))
  (fp_line (start 9.5 -4.33) (end 9.5 -1.7) (layer F.SilkS) (width 0.12))
  (fp_line (start -9.5 -3.33) (end -9.5 -1.7) (layer F.SilkS) (width 0.12))
  (fp_line (start 9.5 -0.09) (end 9.5 2.3) (layer F.SilkS) (width 0.12))
  (fp_line (start -9.93 -6.17) (end 9.93 -6.17) (layer F.CrtYd) (width 0.05))
  (fp_line (start -9.93 -6.17) (end -9.93 7.86) (layer F.CrtYd) (width 0.05))
  (fp_line (start 9.93 7.86) (end 9.93 -6.17) (layer F.CrtYd) (width 0.05))
  (fp_line (start 9.93 7.86) (end -9.93 7.86) (layer F.CrtYd) (width 0.05))
  (fp_line (start -9.5 -0.09) (end -9.5 2.299) (layer F.SilkS) (width 0.12))
  (fp_line (start 9.5 5.94) (end 9.5 7.61) (layer F.SilkS) (width 0.12))
  (fp_line (start 9.5 3.91) (end 9.5 4.33) (layer F.SilkS) (width 0.12))
  (fp_line (start -9.5 5.931) (end -9.5 7.61) (layer F.SilkS) (width 0.12))
  (fp_line (start -9.5 3.901) (end -9.5 4.329) (layer F.SilkS) (width 0.12))
  (pad B1 smd oval (at -7 -1.8) (size 0.35 1.8) (layers F.Cu F.Paste F.Mask))
  (pad B2 smd oval (at -6.2 -1.8) (size 0.35 1.8) (layers F.Cu F.Paste F.Mask))
  (pad B3 smd oval (at -5.4 -1.8) (size 0.35 1.8) (layers F.Cu F.Paste F.Mask))
  (pad B4 smd oval (at -4.6 -1.8) (size 0.35 1.8) (layers F.Cu F.Paste F.Mask))
  (pad B5 smd oval (at -3.8 -1.8) (size 0.35 1.8) (layers F.Cu F.Paste F.Mask))
  (pad B6 smd oval (at -3 -1.8) (size 0.35 1.8) (layers F.Cu F.Paste F.Mask))
  (pad B7 smd oval (at -2.2 -1.8) (size 0.35 1.8) (layers F.Cu F.Paste F.Mask))
  (pad B8 smd oval (at -1.4 -1.8) (size 0.35 1.8) (layers F.Cu F.Paste F.Mask))
  (pad B9 smd oval (at -0.6 -1.8) (size 0.35 1.8) (layers F.Cu F.Paste F.Mask))
  (pad B10 smd oval (at 0.2 -1.8) (size 0.35 1.8) (layers F.Cu F.Paste F.Mask))
  (pad B11 smd oval (at 1 -1.8) (size 0.35 1.8) (layers F.Cu F.Paste F.Mask))
  (pad B12 smd oval (at 1.8 -1.8) (size 0.35 1.8) (layers F.Cu F.Paste F.Mask))
  (pad B13 smd oval (at 2.6 -1.8) (size 0.35 1.8) (layers F.Cu F.Paste F.Mask))
  (pad B14 smd oval (at 3.4 -1.8) (size 0.35 1.8) (layers F.Cu F.Paste F.Mask))
  (pad B15 smd oval (at 4.2 -1.8) (size 0.35 1.8) (layers F.Cu F.Paste F.Mask))
  (pad B16 smd oval (at 5 -1.8) (size 0.35 1.8) (layers F.Cu F.Paste F.Mask))
  (pad B17 smd oval (at 5.8 -1.8) (size 0.35 1.8) (layers F.Cu F.Paste F.Mask))
  (pad A1 smd oval (at -6.5 4.01) (size 0.35 1.8) (layers F.Cu F.Paste F.Mask))
  (pad A2 smd oval (at -5.7 4.01) (size 0.35 1.8) (layers F.Cu F.Paste F.Mask))
  (pad A3 smd oval (at -4.9 4.01) (size 0.35 1.8) (layers F.Cu F.Paste F.Mask))
  (pad A4 smd oval (at -4.1 4.01) (size 0.35 1.8) (layers F.Cu F.Paste F.Mask))
  (pad A5 smd oval (at -3.3 4.01) (size 0.35 1.8) (layers F.Cu F.Paste F.Mask))
  (pad A6 smd oval (at -2.5 4.01) (size 0.35 1.8) (layers F.Cu F.Paste F.Mask))
  (pad A7 smd oval (at -1.7 4.01) (size 0.35 1.8) (layers F.Cu F.Paste F.Mask))
  (pad A8 smd oval (at -0.9 4.01) (size 0.35 1.8) (layers F.Cu F.Paste F.Mask))
  (pad A9 smd oval (at -0.1 4.01) (size 0.35 1.8) (layers F.Cu F.Paste F.Mask))
  (pad A10 smd oval (at 0.7 4.01) (size 0.35 1.8) (layers F.Cu F.Paste F.Mask))
  (pad A11 smd oval (at 1.5 4.01) (size 0.35 1.8) (layers F.Cu F.Paste F.Mask))
  (pad A12 smd oval (at 2.3 4.01) (size 0.35 1.8) (layers F.Cu F.Paste F.Mask))
  (pad A13 smd oval (at 3.1 4.01) (size 0.35 1.8) (layers F.Cu F.Paste F.Mask))
  (pad A14 smd oval (at 3.9 4.01) (size 0.35 1.8) (layers F.Cu F.Paste F.Mask))
  (pad A15 smd oval (at 4.7 4.01) (size 0.35 1.8) (layers F.Cu F.Paste F.Mask))
  (pad A16 smd oval (at 5.5 4.01) (size 0.35 1.8) (layers F.Cu F.Paste F.Mask))
  (pad A17 smd oval (at 6.3 4.01) (size 0.35 1.8) (layers F.Cu F.Paste F.Mask))
  (pad 1 thru_hole circle (at -8.9 -4.13) (size 1.55 1.55) (drill 0.8) (layers *.Cu *.Mask)
    (zone_connect 2))
  (pad 2 thru_hole circle (at -8.9 -0.89) (size 1.55 1.55) (drill 0.8) (layers *.Cu *.Mask))
  (pad 4 thru_hole circle (at -8.9 5.13) (size 1.55 1.55) (drill 0.8) (layers *.Cu *.Mask))
  (pad 3 thru_hole circle (at -8.9 3.1) (size 1.55 1.55) (drill 0.8) (layers *.Cu *.Mask))
  (pad 5 thru_hole circle (at 8.9 -5.13) (size 1.55 1.55) (drill 0.8) (layers *.Cu *.Mask))
  (pad 6 thru_hole circle (at 8.9 -0.89) (size 1.55 1.55) (drill 0.8) (layers *.Cu *.Mask))
  (pad "" np_thru_hole circle (at -8 1.11) (size 1.55 1.55) (drill 1.55) (layers *.Mask B.Cu))
  (pad "" np_thru_hole circle (at 8 1.11) (size 1.55 1.55) (drill 1.55) (layers *.Mask B.Cu))
  (pad 8 thru_hole circle (at 8.9 5.13) (size 1.55 1.55) (drill 0.8) (layers *.Cu *.Mask))
  (pad 7 thru_hole circle (at 8.9 3.1) (size 1.55 1.55) (drill 0.8) (layers *.Cu *.Mask))
  (pad B18 smd oval (at 6.6 -1.8) (size 0.35 1.8) (layers F.Cu F.Paste F.Mask))
  (pad A18 smd oval (at 7.1 4.01) (size 0.35 1.8) (layers F.Cu F.Paste F.Mask))
  (model ${KICAD6_3DMODEL_DIR}/Connector_SATA_SAS.3dshapes/SAS-mini_TEConnectivity_1888174_Vertical.wrl
    (at (xyz 0 -1.0159999847 0))
    (scale (xyz 1 1 1))
    (rotate (xyz 0 0 0))
  )
)
