(module SW_CuK_JS202011CQN_DPDT_Straight (layer F.Cu) (tedit 5A02FE31)
  (descr "CuK sub miniature slide switch, JS series, DPDT, right angle, http://www.ckswitches.com/media/1422/js.pdf")
  (tags "switch DPDT")
  (fp_text reference REF** (at 2.75 -1.6) (layer F.SilkS)
    (effects (font (size 1 1) (thickness 0.15)))
  )
  (fp_text value SW_CuK_JS202011CQN_DPDT_Straight (at 3 5) (layer F.Fab)
    (effects (font (size 1 1) (thickness 0.15)))
  )
  (fp_line (start -1 -0.35) (end -2 0.65) (layer F.Fab) (width 0.1))
  (fp_line (start -2.25 4.25) (end -2.25 -0.95) (layer F.CrtYd) (width 0.05))
  (fp_line (start 7.25 4.25) (end -2.25 4.25) (layer F.CrtYd) (width 0.05))
  (fp_line (start 7.25 -0.95) (end 7.25 4.25) (layer F.CrtYd) (width 0.05))
  (fp_line (start -2.25 -0.95) (end 7.25 -0.95) (layer F.CrtYd) (width 0.05))
  (fp_line (start -2.4 -0.75) (end -2.4 0.45) (layer F.SilkS) (width 0.12))
  (fp_line (start -1.2 -0.75) (end -2.4 -0.75) (layer F.SilkS) (width 0.12))
  (fp_line (start 7.1 3.75) (end 5.9 3.75) (layer F.SilkS) (width 0.12))
  (fp_line (start 7.1 -0.45) (end 7.1 3.75) (layer F.SilkS) (width 0.12))
  (fp_line (start 5.9 -0.45) (end 7.1 -0.45) (layer F.SilkS) (width 0.12))
  (fp_line (start -2.1 3.75) (end -0.9 3.75) (layer F.SilkS) (width 0.12))
  (fp_line (start -2.1 -0.45) (end -2.1 3.75) (layer F.SilkS) (width 0.12))
  (fp_line (start -0.9 -0.45) (end -2.1 -0.45) (layer F.SilkS) (width 0.12))
  (fp_text user %R (at 2 1.65) (layer F.Fab)
    (effects (font (size 1 1) (thickness 0.15)))
  )
  (fp_line (start -2 3.65) (end -2 0.65) (layer F.Fab) (width 0.1))
  (fp_line (start 7 3.65) (end -2 3.65) (layer F.Fab) (width 0.1))
  (fp_line (start 7 -0.35) (end 7 3.65) (layer F.Fab) (width 0.1))
  (fp_line (start -1 -0.35) (end 7 -0.35) (layer F.Fab) (width 0.1))
  (pad 1 thru_hole rect (at 0 0) (size 1.4 1.4) (drill 0.9) (layers *.Cu *.Mask))
  (pad 2 thru_hole circle (at 2.5 0) (size 1.4 1.4) (drill 0.9) (layers *.Cu *.Mask))
  (pad 3 thru_hole circle (at 5 0) (size 1.4 1.4) (drill 0.9) (layers *.Cu *.Mask))
  (pad 4 thru_hole circle (at 0 3.3) (size 1.4 1.4) (drill 0.9) (layers *.Cu *.Mask))
  (pad 5 thru_hole circle (at 2.5 3.3) (size 1.4 1.4) (drill 0.9) (layers *.Cu *.Mask))
  (pad 6 thru_hole circle (at 5 3.3) (size 1.4 1.4) (drill 0.9) (layers *.Cu *.Mask))
  (model ${KICAD6_3DMODEL_DIR}/Button_Switch_THT.3dshapes/SW_CuK_JS202011CQN_DPDT_Straight.wrl
    (at (xyz 0 0 0))
    (scale (xyz 1 1 1))
    (rotate (xyz 0 0 0))
  )
)
