(module SW_DIP_SPSTx08_Piano_10.8x21.88mm_W7.62mm_P2.54mm (layer F.Cu) (tedit 5A4E1405)
  (descr "8x-dip-switch SPST , Piano, row spacing 7.62 mm (300 mils), body size 10.8x21.88mm")
  (tags "DIP Switch SPST Piano 7.62mm 300mil")
  (fp_text reference REF** (at 3.81 -3.11) (layer F.SilkS)
    (effects (font (size 1 1) (thickness 0.15)))
  )
  (fp_text value SW_DIP_SPSTx08_Piano_10.8x21.88mm_W7.62mm_P2.54mm (at 3.81 20.89) (layer F.Fab)
    (effects (font (size 1 1) (thickness 0.15)))
  )
  (fp_line (start -0.59 -2.05) (end 9.21 -2.05) (layer F.Fab) (width 0.1))
  (fp_line (start 9.21 -2.05) (end 9.21 19.83) (layer F.Fab) (width 0.1))
  (fp_line (start 9.21 19.83) (end -1.59 19.83) (layer F.Fab) (width 0.1))
  (fp_line (start -1.59 19.83) (end -1.59 -1.05) (layer F.Fab) (width 0.1))
  (fp_line (start -1.59 -1.05) (end -0.59 -2.05) (layer F.Fab) (width 0.1))
  (fp_line (start -1.59 -0.75) (end -1.59 0.75) (layer F.Fab) (width 0.1))
  (fp_line (start -1.59 0.75) (end -3.39 0.75) (layer F.Fab) (width 0.1))
  (fp_line (start -3.39 0.75) (end -3.39 -0.75) (layer F.Fab) (width 0.1))
  (fp_line (start -3.39 -0.75) (end -1.59 -0.75) (layer F.Fab) (width 0.1))
  (fp_line (start -1.59 1.79) (end -1.59 3.29) (layer F.Fab) (width 0.1))
  (fp_line (start -1.59 3.29) (end -3.39 3.29) (layer F.Fab) (width 0.1))
  (fp_line (start -3.39 3.29) (end -3.39 1.79) (layer F.Fab) (width 0.1))
  (fp_line (start -3.39 1.79) (end -1.59 1.79) (layer F.Fab) (width 0.1))
  (fp_line (start -1.59 4.33) (end -1.59 5.83) (layer F.Fab) (width 0.1))
  (fp_line (start -1.59 5.83) (end -3.39 5.83) (layer F.Fab) (width 0.1))
  (fp_line (start -3.39 5.83) (end -3.39 4.33) (layer F.Fab) (width 0.1))
  (fp_line (start -3.39 4.33) (end -1.59 4.33) (layer F.Fab) (width 0.1))
  (fp_line (start -1.59 6.87) (end -1.59 8.37) (layer F.Fab) (width 0.1))
  (fp_line (start -1.59 8.37) (end -3.39 8.37) (layer F.Fab) (width 0.1))
  (fp_line (start -3.39 8.37) (end -3.39 6.87) (layer F.Fab) (width 0.1))
  (fp_line (start -3.39 6.87) (end -1.59 6.87) (layer F.Fab) (width 0.1))
  (fp_line (start -1.59 9.41) (end -1.59 10.91) (layer F.Fab) (width 0.1))
  (fp_line (start -1.59 10.91) (end -3.39 10.91) (layer F.Fab) (width 0.1))
  (fp_line (start -3.39 10.91) (end -3.39 9.41) (layer F.Fab) (width 0.1))
  (fp_line (start -3.39 9.41) (end -1.59 9.41) (layer F.Fab) (width 0.1))
  (fp_line (start -1.59 11.95) (end -1.59 13.45) (layer F.Fab) (width 0.1))
  (fp_line (start -1.59 13.45) (end -3.39 13.45) (layer F.Fab) (width 0.1))
  (fp_line (start -3.39 13.45) (end -3.39 11.95) (layer F.Fab) (width 0.1))
  (fp_line (start -3.39 11.95) (end -1.59 11.95) (layer F.Fab) (width 0.1))
  (fp_line (start -1.59 14.49) (end -1.59 15.99) (layer F.Fab) (width 0.1))
  (fp_line (start -1.59 15.99) (end -3.39 15.99) (layer F.Fab) (width 0.1))
  (fp_line (start -3.39 15.99) (end -3.39 14.49) (layer F.Fab) (width 0.1))
  (fp_line (start -3.39 14.49) (end -1.59 14.49) (layer F.Fab) (width 0.1))
  (fp_line (start -1.59 17.03) (end -1.59 18.53) (layer F.Fab) (width 0.1))
  (fp_line (start -1.59 18.53) (end -3.39 18.53) (layer F.Fab) (width 0.1))
  (fp_line (start -3.39 18.53) (end -3.39 17.03) (layer F.Fab) (width 0.1))
  (fp_line (start -3.39 17.03) (end -1.59 17.03) (layer F.Fab) (width 0.1))
  (fp_line (start -1.65 -2.11) (end 9.27 -2.11) (layer F.SilkS) (width 0.12))
  (fp_line (start -1.65 19.891) (end 9.27 19.891) (layer F.SilkS) (width 0.12))
  (fp_line (start -1.65 -2.11) (end -1.65 19.891) (layer F.SilkS) (width 0.12))
  (fp_line (start 9.27 -2.11) (end 9.27 19.891) (layer F.SilkS) (width 0.12))
  (fp_line (start -1.89 -2.35) (end -0.507 -2.35) (layer F.SilkS) (width 0.12))
  (fp_line (start -1.89 -2.35) (end -1.89 -0.967) (layer F.SilkS) (width 0.12))
  (fp_line (start -3.51 -0.81) (end -1.65 -0.81) (layer F.SilkS) (width 0.12))
  (fp_line (start -3.51 0.81) (end -1.65 0.81) (layer F.SilkS) (width 0.12))
  (fp_line (start -3.51 -0.81) (end -3.51 0.81) (layer F.SilkS) (width 0.12))
  (fp_line (start -1.65 -0.81) (end -1.65 0.81) (layer F.SilkS) (width 0.12))
  (fp_line (start -3.51 1.73) (end -1.65 1.73) (layer F.SilkS) (width 0.12))
  (fp_line (start -3.51 3.35) (end -1.65 3.35) (layer F.SilkS) (width 0.12))
  (fp_line (start -3.51 1.73) (end -3.51 3.35) (layer F.SilkS) (width 0.12))
  (fp_line (start -1.65 1.73) (end -1.65 3.35) (layer F.SilkS) (width 0.12))
  (fp_line (start -3.51 4.27) (end -1.65 4.27) (layer F.SilkS) (width 0.12))
  (fp_line (start -3.51 5.89) (end -1.65 5.89) (layer F.SilkS) (width 0.12))
  (fp_line (start -3.51 4.27) (end -3.51 5.89) (layer F.SilkS) (width 0.12))
  (fp_line (start -1.65 4.27) (end -1.65 5.89) (layer F.SilkS) (width 0.12))
  (fp_line (start -3.51 6.81) (end -1.65 6.81) (layer F.SilkS) (width 0.12))
  (fp_line (start -3.51 8.43) (end -1.65 8.43) (layer F.SilkS) (width 0.12))
  (fp_line (start -3.51 6.81) (end -3.51 8.43) (layer F.SilkS) (width 0.12))
  (fp_line (start -1.65 6.81) (end -1.65 8.43) (layer F.SilkS) (width 0.12))
  (fp_line (start -3.51 9.35) (end -1.65 9.35) (layer F.SilkS) (width 0.12))
  (fp_line (start -3.51 10.97) (end -1.65 10.97) (layer F.SilkS) (width 0.12))
  (fp_line (start -3.51 9.35) (end -3.51 10.97) (layer F.SilkS) (width 0.12))
  (fp_line (start -1.65 9.35) (end -1.65 10.97) (layer F.SilkS) (width 0.12))
  (fp_line (start -3.51 11.89) (end -1.65 11.89) (layer F.SilkS) (width 0.12))
  (fp_line (start -3.51 13.51) (end -1.65 13.51) (layer F.SilkS) (width 0.12))
  (fp_line (start -3.51 11.89) (end -3.51 13.51) (layer F.SilkS) (width 0.12))
  (fp_line (start -1.65 11.89) (end -1.65 13.51) (layer F.SilkS) (width 0.12))
  (fp_line (start -3.51 14.43) (end -1.65 14.43) (layer F.SilkS) (width 0.12))
  (fp_line (start -3.51 16.05) (end -1.65 16.05) (layer F.SilkS) (width 0.12))
  (fp_line (start -3.51 14.43) (end -3.51 16.05) (layer F.SilkS) (width 0.12))
  (fp_line (start -1.65 14.43) (end -1.65 16.05) (layer F.SilkS) (width 0.12))
  (fp_line (start -3.51 16.971) (end -1.65 16.971) (layer F.SilkS) (width 0.12))
  (fp_line (start -3.51 18.591) (end -1.65 18.591) (layer F.SilkS) (width 0.12))
  (fp_line (start -3.51 16.971) (end -3.51 18.591) (layer F.SilkS) (width 0.12))
  (fp_line (start -1.65 16.971) (end -1.65 18.591) (layer F.SilkS) (width 0.12))
  (fp_line (start -3.65 -2.4) (end -3.65 20.15) (layer F.CrtYd) (width 0.05))
  (fp_line (start -3.65 20.15) (end 9.5 20.15) (layer F.CrtYd) (width 0.05))
  (fp_line (start 9.5 20.15) (end 9.5 -2.4) (layer F.CrtYd) (width 0.05))
  (fp_line (start 9.5 -2.4) (end -3.65 -2.4) (layer F.CrtYd) (width 0.05))
  (pad 1 thru_hole rect (at 0 0) (size 1.6 1.6) (drill 0.8) (layers *.Cu *.Mask))
  (pad 9 thru_hole oval (at 7.62 17.78) (size 1.6 1.6) (drill 0.8) (layers *.Cu *.Mask))
  (pad 2 thru_hole oval (at 0 2.54) (size 1.6 1.6) (drill 0.8) (layers *.Cu *.Mask))
  (pad 10 thru_hole oval (at 7.62 15.24) (size 1.6 1.6) (drill 0.8) (layers *.Cu *.Mask))
  (pad 3 thru_hole oval (at 0 5.08) (size 1.6 1.6) (drill 0.8) (layers *.Cu *.Mask))
  (pad 11 thru_hole oval (at 7.62 12.7) (size 1.6 1.6) (drill 0.8) (layers *.Cu *.Mask))
  (pad 4 thru_hole oval (at 0 7.62) (size 1.6 1.6) (drill 0.8) (layers *.Cu *.Mask))
  (pad 12 thru_hole oval (at 7.62 10.16) (size 1.6 1.6) (drill 0.8) (layers *.Cu *.Mask))
  (pad 5 thru_hole oval (at 0 10.16) (size 1.6 1.6) (drill 0.8) (layers *.Cu *.Mask))
  (pad 13 thru_hole oval (at 7.62 7.62) (size 1.6 1.6) (drill 0.8) (layers *.Cu *.Mask))
  (pad 6 thru_hole oval (at 0 12.7) (size 1.6 1.6) (drill 0.8) (layers *.Cu *.Mask))
  (pad 14 thru_hole oval (at 7.62 5.08) (size 1.6 1.6) (drill 0.8) (layers *.Cu *.Mask))
  (pad 7 thru_hole oval (at 0 15.24) (size 1.6 1.6) (drill 0.8) (layers *.Cu *.Mask))
  (pad 15 thru_hole oval (at 7.62 2.54) (size 1.6 1.6) (drill 0.8) (layers *.Cu *.Mask))
  (pad 8 thru_hole oval (at 0 17.78) (size 1.6 1.6) (drill 0.8) (layers *.Cu *.Mask))
  (pad 16 thru_hole oval (at 7.62 0) (size 1.6 1.6) (drill 0.8) (layers *.Cu *.Mask))
  (fp_text user %R (at 3.81 8.89) (layer F.Fab)
    (effects (font (size 0.8 0.8) (thickness 0.12)))
  )
  (model ${KICAD6_3DMODEL_DIR}/Button_Switch_THT.3dshapes/SW_DIP_SPSTx08_Piano_10.8x21.88mm_W7.62mm_P2.54mm.wrl
    (at (xyz 0 0 0))
    (scale (xyz 1 1 1))
    (rotate (xyz 0 0 90))
  )
)