(module SW_DIP_SPSTx10_Slide_6.7x26.96mm_W7.62mm_P2.54mm_LowProfile (layer F.Cu) (tedit 5A4E1406)
  (descr "10x-dip-switch SPST , Slide, row spacing 7.62 mm (300 mils), body size 6.7x26.96mm (see e.g. https://www.ctscorp.com/wp-content/uploads/209-210.pdf), LowProfile")
  (tags "DIP Switch SPST Slide 7.62mm 300mil LowProfile")
  (fp_text reference REF** (at 3.81 -3.11) (layer F.SilkS)
    (effects (font (size 1 1) (thickness 0.15)))
  )
  (fp_text value SW_DIP_SPSTx10_Slide_6.7x26.96mm_W7.62mm_P2.54mm_LowProfile (at 3.81 25.97) (layer F.Fab)
    (effects (font (size 1 1) (thickness 0.15)))
  )
  (fp_line (start 1.46 -2.05) (end 7.16 -2.05) (layer F.Fab) (width 0.1))
  (fp_line (start 7.16 -2.05) (end 7.16 24.91) (layer F.Fab) (width 0.1))
  (fp_line (start 7.16 24.91) (end 0.46 24.91) (layer F.Fab) (width 0.1))
  (fp_line (start 0.46 24.91) (end 0.46 -1.05) (layer F.Fab) (width 0.1))
  (fp_line (start 0.46 -1.05) (end 1.46 -2.05) (layer F.Fab) (width 0.1))
  (fp_line (start 2 -0.635) (end 2 0.635) (layer F.Fab) (width 0.1))
  (fp_line (start 2 0.635) (end 5.62 0.635) (layer F.Fab) (width 0.1))
  (fp_line (start 5.62 0.635) (end 5.62 -0.635) (layer F.Fab) (width 0.1))
  (fp_line (start 5.62 -0.635) (end 2 -0.635) (layer F.Fab) (width 0.1))
  (fp_line (start 2 -0.535) (end 3.206667 -0.535) (layer F.Fab) (width 0.1))
  (fp_line (start 2 -0.435) (end 3.206667 -0.435) (layer F.Fab) (width 0.1))
  (fp_line (start 2 -0.335) (end 3.206667 -0.335) (layer F.Fab) (width 0.1))
  (fp_line (start 2 -0.235) (end 3.206667 -0.235) (layer F.Fab) (width 0.1))
  (fp_line (start 2 -0.135) (end 3.206667 -0.135) (layer F.Fab) (width 0.1))
  (fp_line (start 2 -0.035) (end 3.206667 -0.035) (layer F.Fab) (width 0.1))
  (fp_line (start 2 0.065) (end 3.206667 0.065) (layer F.Fab) (width 0.1))
  (fp_line (start 2 0.165) (end 3.206667 0.165) (layer F.Fab) (width 0.1))
  (fp_line (start 2 0.265) (end 3.206667 0.265) (layer F.Fab) (width 0.1))
  (fp_line (start 2 0.365) (end 3.206667 0.365) (layer F.Fab) (width 0.1))
  (fp_line (start 2 0.465) (end 3.206667 0.465) (layer F.Fab) (width 0.1))
  (fp_line (start 2 0.565) (end 3.206667 0.565) (layer F.Fab) (width 0.1))
  (fp_line (start 3.206667 -0.635) (end 3.206667 0.635) (layer F.Fab) (width 0.1))
  (fp_line (start 2 1.905) (end 2 3.175) (layer F.Fab) (width 0.1))
  (fp_line (start 2 3.175) (end 5.62 3.175) (layer F.Fab) (width 0.1))
  (fp_line (start 5.62 3.175) (end 5.62 1.905) (layer F.Fab) (width 0.1))
  (fp_line (start 5.62 1.905) (end 2 1.905) (layer F.Fab) (width 0.1))
  (fp_line (start 2 2.005) (end 3.206667 2.005) (layer F.Fab) (width 0.1))
  (fp_line (start 2 2.105) (end 3.206667 2.105) (layer F.Fab) (width 0.1))
  (fp_line (start 2 2.205) (end 3.206667 2.205) (layer F.Fab) (width 0.1))
  (fp_line (start 2 2.305) (end 3.206667 2.305) (layer F.Fab) (width 0.1))
  (fp_line (start 2 2.405) (end 3.206667 2.405) (layer F.Fab) (width 0.1))
  (fp_line (start 2 2.505) (end 3.206667 2.505) (layer F.Fab) (width 0.1))
  (fp_line (start 2 2.605) (end 3.206667 2.605) (layer F.Fab) (width 0.1))
  (fp_line (start 2 2.705) (end 3.206667 2.705) (layer F.Fab) (width 0.1))
  (fp_line (start 2 2.805) (end 3.206667 2.805) (layer F.Fab) (width 0.1))
  (fp_line (start 2 2.905) (end 3.206667 2.905) (layer F.Fab) (width 0.1))
  (fp_line (start 2 3.005) (end 3.206667 3.005) (layer F.Fab) (width 0.1))
  (fp_line (start 2 3.105) (end 3.206667 3.105) (layer F.Fab) (width 0.1))
  (fp_line (start 3.206667 1.905) (end 3.206667 3.175) (layer F.Fab) (width 0.1))
  (fp_line (start 2 4.445) (end 2 5.715) (layer F.Fab) (width 0.1))
  (fp_line (start 2 5.715) (end 5.62 5.715) (layer F.Fab) (width 0.1))
  (fp_line (start 5.62 5.715) (end 5.62 4.445) (layer F.Fab) (width 0.1))
  (fp_line (start 5.62 4.445) (end 2 4.445) (layer F.Fab) (width 0.1))
  (fp_line (start 2 4.545) (end 3.206667 4.545) (layer F.Fab) (width 0.1))
  (fp_line (start 2 4.645) (end 3.206667 4.645) (layer F.Fab) (width 0.1))
  (fp_line (start 2 4.745) (end 3.206667 4.745) (layer F.Fab) (width 0.1))
  (fp_line (start 2 4.845) (end 3.206667 4.845) (layer F.Fab) (width 0.1))
  (fp_line (start 2 4.945) (end 3.206667 4.945) (layer F.Fab) (width 0.1))
  (fp_line (start 2 5.045) (end 3.206667 5.045) (layer F.Fab) (width 0.1))
  (fp_line (start 2 5.145) (end 3.206667 5.145) (layer F.Fab) (width 0.1))
  (fp_line (start 2 5.245) (end 3.206667 5.245) (layer F.Fab) (width 0.1))
  (fp_line (start 2 5.345) (end 3.206667 5.345) (layer F.Fab) (width 0.1))
  (fp_line (start 2 5.445) (end 3.206667 5.445) (layer F.Fab) (width 0.1))
  (fp_line (start 2 5.545) (end 3.206667 5.545) (layer F.Fab) (width 0.1))
  (fp_line (start 2 5.645) (end 3.206667 5.645) (layer F.Fab) (width 0.1))
  (fp_line (start 3.206667 4.445) (end 3.206667 5.715) (layer F.Fab) (width 0.1))
  (fp_line (start 2 6.985) (end 2 8.255) (layer F.Fab) (width 0.1))
  (fp_line (start 2 8.255) (end 5.62 8.255) (layer F.Fab) (width 0.1))
  (fp_line (start 5.62 8.255) (end 5.62 6.985) (layer F.Fab) (width 0.1))
  (fp_line (start 5.62 6.985) (end 2 6.985) (layer F.Fab) (width 0.1))
  (fp_line (start 2 7.085) (end 3.206667 7.085) (layer F.Fab) (width 0.1))
  (fp_line (start 2 7.185) (end 3.206667 7.185) (layer F.Fab) (width 0.1))
  (fp_line (start 2 7.285) (end 3.206667 7.285) (layer F.Fab) (width 0.1))
  (fp_line (start 2 7.385) (end 3.206667 7.385) (layer F.Fab) (width 0.1))
  (fp_line (start 2 7.485) (end 3.206667 7.485) (layer F.Fab) (width 0.1))
  (fp_line (start 2 7.585) (end 3.206667 7.585) (layer F.Fab) (width 0.1))
  (fp_line (start 2 7.685) (end 3.206667 7.685) (layer F.Fab) (width 0.1))
  (fp_line (start 2 7.785) (end 3.206667 7.785) (layer F.Fab) (width 0.1))
  (fp_line (start 2 7.885) (end 3.206667 7.885) (layer F.Fab) (width 0.1))
  (fp_line (start 2 7.985) (end 3.206667 7.985) (layer F.Fab) (width 0.1))
  (fp_line (start 2 8.085) (end 3.206667 8.085) (layer F.Fab) (width 0.1))
  (fp_line (start 2 8.185) (end 3.206667 8.185) (layer F.Fab) (width 0.1))
  (fp_line (start 3.206667 6.985) (end 3.206667 8.255) (layer F.Fab) (width 0.1))
  (fp_line (start 2 9.525) (end 2 10.795) (layer F.Fab) (width 0.1))
  (fp_line (start 2 10.795) (end 5.62 10.795) (layer F.Fab) (width 0.1))
  (fp_line (start 5.62 10.795) (end 5.62 9.525) (layer F.Fab) (width 0.1))
  (fp_line (start 5.62 9.525) (end 2 9.525) (layer F.Fab) (width 0.1))
  (fp_line (start 2 9.625) (end 3.206667 9.625) (layer F.Fab) (width 0.1))
  (fp_line (start 2 9.725) (end 3.206667 9.725) (layer F.Fab) (width 0.1))
  (fp_line (start 2 9.825) (end 3.206667 9.825) (layer F.Fab) (width 0.1))
  (fp_line (start 2 9.925) (end 3.206667 9.925) (layer F.Fab) (width 0.1))
  (fp_line (start 2 10.025) (end 3.206667 10.025) (layer F.Fab) (width 0.1))
  (fp_line (start 2 10.125) (end 3.206667 10.125) (layer F.Fab) (width 0.1))
  (fp_line (start 2 10.225) (end 3.206667 10.225) (layer F.Fab) (width 0.1))
  (fp_line (start 2 10.325) (end 3.206667 10.325) (layer F.Fab) (width 0.1))
  (fp_line (start 2 10.425) (end 3.206667 10.425) (layer F.Fab) (width 0.1))
  (fp_line (start 2 10.525) (end 3.206667 10.525) (layer F.Fab) (width 0.1))
  (fp_line (start 2 10.625) (end 3.206667 10.625) (layer F.Fab) (width 0.1))
  (fp_line (start 2 10.725) (end 3.206667 10.725) (layer F.Fab) (width 0.1))
  (fp_line (start 3.206667 9.525) (end 3.206667 10.795) (layer F.Fab) (width 0.1))
  (fp_line (start 2 12.065) (end 2 13.335) (layer F.Fab) (width 0.1))
  (fp_line (start 2 13.335) (end 5.62 13.335) (layer F.Fab) (width 0.1))
  (fp_line (start 5.62 13.335) (end 5.62 12.065) (layer F.Fab) (width 0.1))
  (fp_line (start 5.62 12.065) (end 2 12.065) (layer F.Fab) (width 0.1))
  (fp_line (start 2 12.165) (end 3.206667 12.165) (layer F.Fab) (width 0.1))
  (fp_line (start 2 12.265) (end 3.206667 12.265) (layer F.Fab) (width 0.1))
  (fp_line (start 2 12.365) (end 3.206667 12.365) (layer F.Fab) (width 0.1))
  (fp_line (start 2 12.465) (end 3.206667 12.465) (layer F.Fab) (width 0.1))
  (fp_line (start 2 12.565) (end 3.206667 12.565) (layer F.Fab) (width 0.1))
  (fp_line (start 2 12.665) (end 3.206667 12.665) (layer F.Fab) (width 0.1))
  (fp_line (start 2 12.765) (end 3.206667 12.765) (layer F.Fab) (width 0.1))
  (fp_line (start 2 12.865) (end 3.206667 12.865) (layer F.Fab) (width 0.1))
  (fp_line (start 2 12.965) (end 3.206667 12.965) (layer F.Fab) (width 0.1))
  (fp_line (start 2 13.065) (end 3.206667 13.065) (layer F.Fab) (width 0.1))
  (fp_line (start 2 13.165) (end 3.206667 13.165) (layer F.Fab) (width 0.1))
  (fp_line (start 2 13.265) (end 3.206667 13.265) (layer F.Fab) (width 0.1))
  (fp_line (start 3.206667 12.065) (end 3.206667 13.335) (layer F.Fab) (width 0.1))
  (fp_line (start 2 14.605) (end 2 15.875) (layer F.Fab) (width 0.1))
  (fp_line (start 2 15.875) (end 5.62 15.875) (layer F.Fab) (width 0.1))
  (fp_line (start 5.62 15.875) (end 5.62 14.605) (layer F.Fab) (width 0.1))
  (fp_line (start 5.62 14.605) (end 2 14.605) (layer F.Fab) (width 0.1))
  (fp_line (start 2 14.705) (end 3.206667 14.705) (layer F.Fab) (width 0.1))
  (fp_line (start 2 14.805) (end 3.206667 14.805) (layer F.Fab) (width 0.1))
  (fp_line (start 2 14.905) (end 3.206667 14.905) (layer F.Fab) (width 0.1))
  (fp_line (start 2 15.005) (end 3.206667 15.005) (layer F.Fab) (width 0.1))
  (fp_line (start 2 15.105) (end 3.206667 15.105) (layer F.Fab) (width 0.1))
  (fp_line (start 2 15.205) (end 3.206667 15.205) (layer F.Fab) (width 0.1))
  (fp_line (start 2 15.305) (end 3.206667 15.305) (layer F.Fab) (width 0.1))
  (fp_line (start 2 15.405) (end 3.206667 15.405) (layer F.Fab) (width 0.1))
  (fp_line (start 2 15.505) (end 3.206667 15.505) (layer F.Fab) (width 0.1))
  (fp_line (start 2 15.605) (end 3.206667 15.605) (layer F.Fab) (width 0.1))
  (fp_line (start 2 15.705) (end 3.206667 15.705) (layer F.Fab) (width 0.1))
  (fp_line (start 2 15.805) (end 3.206667 15.805) (layer F.Fab) (width 0.1))
  (fp_line (start 3.206667 14.605) (end 3.206667 15.875) (layer F.Fab) (width 0.1))
  (fp_line (start 2 17.145) (end 2 18.415) (layer F.Fab) (width 0.1))
  (fp_line (start 2 18.415) (end 5.62 18.415) (layer F.Fab) (width 0.1))
  (fp_line (start 5.62 18.415) (end 5.62 17.145) (layer F.Fab) (width 0.1))
  (fp_line (start 5.62 17.145) (end 2 17.145) (layer F.Fab) (width 0.1))
  (fp_line (start 2 17.245) (end 3.206667 17.245) (layer F.Fab) (width 0.1))
  (fp_line (start 2 17.345) (end 3.206667 17.345) (layer F.Fab) (width 0.1))
  (fp_line (start 2 17.445) (end 3.206667 17.445) (layer F.Fab) (width 0.1))
  (fp_line (start 2 17.545) (end 3.206667 17.545) (layer F.Fab) (width 0.1))
  (fp_line (start 2 17.645) (end 3.206667 17.645) (layer F.Fab) (width 0.1))
  (fp_line (start 2 17.745) (end 3.206667 17.745) (layer F.Fab) (width 0.1))
  (fp_line (start 2 17.845) (end 3.206667 17.845) (layer F.Fab) (width 0.1))
  (fp_line (start 2 17.945) (end 3.206667 17.945) (layer F.Fab) (width 0.1))
  (fp_line (start 2 18.045) (end 3.206667 18.045) (layer F.Fab) (width 0.1))
  (fp_line (start 2 18.145) (end 3.206667 18.145) (layer F.Fab) (width 0.1))
  (fp_line (start 2 18.245) (end 3.206667 18.245) (layer F.Fab) (width 0.1))
  (fp_line (start 2 18.345) (end 3.206667 18.345) (layer F.Fab) (width 0.1))
  (fp_line (start 3.206667 17.145) (end 3.206667 18.415) (layer F.Fab) (width 0.1))
  (fp_line (start 2 19.685) (end 2 20.955) (layer F.Fab) (width 0.1))
  (fp_line (start 2 20.955) (end 5.62 20.955) (layer F.Fab) (width 0.1))
  (fp_line (start 5.62 20.955) (end 5.62 19.685) (layer F.Fab) (width 0.1))
  (fp_line (start 5.62 19.685) (end 2 19.685) (layer F.Fab) (width 0.1))
  (fp_line (start 2 19.785) (end 3.206667 19.785) (layer F.Fab) (width 0.1))
  (fp_line (start 2 19.885) (end 3.206667 19.885) (layer F.Fab) (width 0.1))
  (fp_line (start 2 19.985) (end 3.206667 19.985) (layer F.Fab) (width 0.1))
  (fp_line (start 2 20.085) (end 3.206667 20.085) (layer F.Fab) (width 0.1))
  (fp_line (start 2 20.185) (end 3.206667 20.185) (layer F.Fab) (width 0.1))
  (fp_line (start 2 20.285) (end 3.206667 20.285) (layer F.Fab) (width 0.1))
  (fp_line (start 2 20.385) (end 3.206667 20.385) (layer F.Fab) (width 0.1))
  (fp_line (start 2 20.485) (end 3.206667 20.485) (layer F.Fab) (width 0.1))
  (fp_line (start 2 20.585) (end 3.206667 20.585) (layer F.Fab) (width 0.1))
  (fp_line (start 2 20.685) (end 3.206667 20.685) (layer F.Fab) (width 0.1))
  (fp_line (start 2 20.785) (end 3.206667 20.785) (layer F.Fab) (width 0.1))
  (fp_line (start 2 20.885) (end 3.206667 20.885) (layer F.Fab) (width 0.1))
  (fp_line (start 3.206667 19.685) (end 3.206667 20.955) (layer F.Fab) (width 0.1))
  (fp_line (start 2 22.225) (end 2 23.495) (layer F.Fab) (width 0.1))
  (fp_line (start 2 23.495) (end 5.62 23.495) (layer F.Fab) (width 0.1))
  (fp_line (start 5.62 23.495) (end 5.62 22.225) (layer F.Fab) (width 0.1))
  (fp_line (start 5.62 22.225) (end 2 22.225) (layer F.Fab) (width 0.1))
  (fp_line (start 2 22.325) (end 3.206667 22.325) (layer F.Fab) (width 0.1))
  (fp_line (start 2 22.425) (end 3.206667 22.425) (layer F.Fab) (width 0.1))
  (fp_line (start 2 22.525) (end 3.206667 22.525) (layer F.Fab) (width 0.1))
  (fp_line (start 2 22.625) (end 3.206667 22.625) (layer F.Fab) (width 0.1))
  (fp_line (start 2 22.725) (end 3.206667 22.725) (layer F.Fab) (width 0.1))
  (fp_line (start 2 22.825) (end 3.206667 22.825) (layer F.Fab) (width 0.1))
  (fp_line (start 2 22.925) (end 3.206667 22.925) (layer F.Fab) (width 0.1))
  (fp_line (start 2 23.025) (end 3.206667 23.025) (layer F.Fab) (width 0.1))
  (fp_line (start 2 23.125) (end 3.206667 23.125) (layer F.Fab) (width 0.1))
  (fp_line (start 2 23.225) (end 3.206667 23.225) (layer F.Fab) (width 0.1))
  (fp_line (start 2 23.325) (end 3.206667 23.325) (layer F.Fab) (width 0.1))
  (fp_line (start 2 23.425) (end 3.206667 23.425) (layer F.Fab) (width 0.1))
  (fp_line (start 3.206667 22.225) (end 3.206667 23.495) (layer F.Fab) (width 0.1))
  (fp_line (start 0.4 -2.11) (end 7.221 -2.11) (layer F.SilkS) (width 0.12))
  (fp_line (start 0.4 24.971) (end 7.221 24.971) (layer F.SilkS) (width 0.12))
  (fp_line (start 0.4 -2.11) (end 0.4 -1.04) (layer F.SilkS) (width 0.12))
  (fp_line (start 0.4 1.04) (end 0.4 1.551) (layer F.SilkS) (width 0.12))
  (fp_line (start 0.4 3.53) (end 0.4 4.091) (layer F.SilkS) (width 0.12))
  (fp_line (start 0.4 6.07) (end 0.4 6.631) (layer F.SilkS) (width 0.12))
  (fp_line (start 0.4 8.61) (end 0.4 9.17) (layer F.SilkS) (width 0.12))
  (fp_line (start 0.4 11.15) (end 0.4 11.71) (layer F.SilkS) (width 0.12))
  (fp_line (start 0.4 13.69) (end 0.4 14.25) (layer F.SilkS) (width 0.12))
  (fp_line (start 0.4 16.23) (end 0.4 16.79) (layer F.SilkS) (width 0.12))
  (fp_line (start 0.4 18.77) (end 0.4 19.33) (layer F.SilkS) (width 0.12))
  (fp_line (start 0.4 21.31) (end 0.4 21.87) (layer F.SilkS) (width 0.12))
  (fp_line (start 0.4 23.85) (end 0.4 24.971) (layer F.SilkS) (width 0.12))
  (fp_line (start 7.221 23.85) (end 7.221 24.971) (layer F.SilkS) (width 0.12))
  (fp_line (start 7.221 21.311) (end 7.221 21.87) (layer F.SilkS) (width 0.12))
  (fp_line (start 7.221 18.771) (end 7.221 19.33) (layer F.SilkS) (width 0.12))
  (fp_line (start 7.221 16.231) (end 7.221 16.79) (layer F.SilkS) (width 0.12))
  (fp_line (start 7.221 13.691) (end 7.221 14.251) (layer F.SilkS) (width 0.12))
  (fp_line (start 7.221 11.151) (end 7.221 11.711) (layer F.SilkS) (width 0.12))
  (fp_line (start 7.221 8.611) (end 7.221 9.171) (layer F.SilkS) (width 0.12))
  (fp_line (start 7.221 6.071) (end 7.221 6.631) (layer F.SilkS) (width 0.12))
  (fp_line (start 7.221 3.531) (end 7.221 4.091) (layer F.SilkS) (width 0.12))
  (fp_line (start 7.221 -2.11) (end 7.221 -0.99) (layer F.SilkS) (width 0.12))
  (fp_line (start 7.221 0.991) (end 7.221 1.551) (layer F.SilkS) (width 0.12))
  (fp_line (start 0.16 -2.35) (end 1.543 -2.35) (layer F.SilkS) (width 0.12))
  (fp_line (start 0.16 -2.35) (end 0.16 -1.04) (layer F.SilkS) (width 0.12))
  (fp_line (start 2 -0.635) (end 2 0.635) (layer F.SilkS) (width 0.12))
  (fp_line (start 2 0.635) (end 5.62 0.635) (layer F.SilkS) (width 0.12))
  (fp_line (start 5.62 0.635) (end 5.62 -0.635) (layer F.SilkS) (width 0.12))
  (fp_line (start 5.62 -0.635) (end 2 -0.635) (layer F.SilkS) (width 0.12))
  (fp_line (start 2 -0.515) (end 3.206667 -0.515) (layer F.SilkS) (width 0.12))
  (fp_line (start 2 -0.395) (end 3.206667 -0.395) (layer F.SilkS) (width 0.12))
  (fp_line (start 2 -0.275) (end 3.206667 -0.275) (layer F.SilkS) (width 0.12))
  (fp_line (start 2 -0.155) (end 3.206667 -0.155) (layer F.SilkS) (width 0.12))
  (fp_line (start 2 -0.035) (end 3.206667 -0.035) (layer F.SilkS) (width 0.12))
  (fp_line (start 2 0.085) (end 3.206667 0.085) (layer F.SilkS) (width 0.12))
  (fp_line (start 2 0.205) (end 3.206667 0.205) (layer F.SilkS) (width 0.12))
  (fp_line (start 2 0.325) (end 3.206667 0.325) (layer F.SilkS) (width 0.12))
  (fp_line (start 2 0.445) (end 3.206667 0.445) (layer F.SilkS) (width 0.12))
  (fp_line (start 2 0.565) (end 3.206667 0.565) (layer F.SilkS) (width 0.12))
  (fp_line (start 3.206667 -0.635) (end 3.206667 0.635) (layer F.SilkS) (width 0.12))
  (fp_line (start 2 1.905) (end 2 3.175) (layer F.SilkS) (width 0.12))
  (fp_line (start 2 3.175) (end 5.62 3.175) (layer F.SilkS) (width 0.12))
  (fp_line (start 5.62 3.175) (end 5.62 1.905) (layer F.SilkS) (width 0.12))
  (fp_line (start 5.62 1.905) (end 2 1.905) (layer F.SilkS) (width 0.12))
  (fp_line (start 2 2.025) (end 3.206667 2.025) (layer F.SilkS) (width 0.12))
  (fp_line (start 2 2.145) (end 3.206667 2.145) (layer F.SilkS) (width 0.12))
  (fp_line (start 2 2.265) (end 3.206667 2.265) (layer F.SilkS) (width 0.12))
  (fp_line (start 2 2.385) (end 3.206667 2.385) (layer F.SilkS) (width 0.12))
  (fp_line (start 2 2.505) (end 3.206667 2.505) (layer F.SilkS) (width 0.12))
  (fp_line (start 2 2.625) (end 3.206667 2.625) (layer F.SilkS) (width 0.12))
  (fp_line (start 2 2.745) (end 3.206667 2.745) (layer F.SilkS) (width 0.12))
  (fp_line (start 2 2.865) (end 3.206667 2.865) (layer F.SilkS) (width 0.12))
  (fp_line (start 2 2.985) (end 3.206667 2.985) (layer F.SilkS) (width 0.12))
  (fp_line (start 2 3.105) (end 3.206667 3.105) (layer F.SilkS) (width 0.12))
  (fp_line (start 3.206667 1.905) (end 3.206667 3.175) (layer F.SilkS) (width 0.12))
  (fp_line (start 2 4.445) (end 2 5.715) (layer F.SilkS) (width 0.12))
  (fp_line (start 2 5.715) (end 5.62 5.715) (layer F.SilkS) (width 0.12))
  (fp_line (start 5.62 5.715) (end 5.62 4.445) (layer F.SilkS) (width 0.12))
  (fp_line (start 5.62 4.445) (end 2 4.445) (layer F.SilkS) (width 0.12))
  (fp_line (start 2 4.565) (end 3.206667 4.565) (layer F.SilkS) (width 0.12))
  (fp_line (start 2 4.685) (end 3.206667 4.685) (layer F.SilkS) (width 0.12))
  (fp_line (start 2 4.805) (end 3.206667 4.805) (layer F.SilkS) (width 0.12))
  (fp_line (start 2 4.925) (end 3.206667 4.925) (layer F.SilkS) (width 0.12))
  (fp_line (start 2 5.045) (end 3.206667 5.045) (layer F.SilkS) (width 0.12))
  (fp_line (start 2 5.165) (end 3.206667 5.165) (layer F.SilkS) (width 0.12))
  (fp_line (start 2 5.285) (end 3.206667 5.285) (layer F.SilkS) (width 0.12))
  (fp_line (start 2 5.405) (end 3.206667 5.405) (layer F.SilkS) (width 0.12))
  (fp_line (start 2 5.525) (end 3.206667 5.525) (layer F.SilkS) (width 0.12))
  (fp_line (start 2 5.645) (end 3.206667 5.645) (layer F.SilkS) (width 0.12))
  (fp_line (start 3.206667 4.445) (end 3.206667 5.715) (layer F.SilkS) (width 0.12))
  (fp_line (start 2 6.985) (end 2 8.255) (layer F.SilkS) (width 0.12))
  (fp_line (start 2 8.255) (end 5.62 8.255) (layer F.SilkS) (width 0.12))
  (fp_line (start 5.62 8.255) (end 5.62 6.985) (layer F.SilkS) (width 0.12))
  (fp_line (start 5.62 6.985) (end 2 6.985) (layer F.SilkS) (width 0.12))
  (fp_line (start 2 7.105) (end 3.206667 7.105) (layer F.SilkS) (width 0.12))
  (fp_line (start 2 7.225) (end 3.206667 7.225) (layer F.SilkS) (width 0.12))
  (fp_line (start 2 7.345) (end 3.206667 7.345) (layer F.SilkS) (width 0.12))
  (fp_line (start 2 7.465) (end 3.206667 7.465) (layer F.SilkS) (width 0.12))
  (fp_line (start 2 7.585) (end 3.206667 7.585) (layer F.SilkS) (width 0.12))
  (fp_line (start 2 7.705) (end 3.206667 7.705) (layer F.SilkS) (width 0.12))
  (fp_line (start 2 7.825) (end 3.206667 7.825) (layer F.SilkS) (width 0.12))
  (fp_line (start 2 7.945) (end 3.206667 7.945) (layer F.SilkS) (width 0.12))
  (fp_line (start 2 8.065) (end 3.206667 8.065) (layer F.SilkS) (width 0.12))
  (fp_line (start 2 8.185) (end 3.206667 8.185) (layer F.SilkS) (width 0.12))
  (fp_line (start 3.206667 6.985) (end 3.206667 8.255) (layer F.SilkS) (width 0.12))
  (fp_line (start 2 9.525) (end 2 10.795) (layer F.SilkS) (width 0.12))
  (fp_line (start 2 10.795) (end 5.62 10.795) (layer F.SilkS) (width 0.12))
  (fp_line (start 5.62 10.795) (end 5.62 9.525) (layer F.SilkS) (width 0.12))
  (fp_line (start 5.62 9.525) (end 2 9.525) (layer F.SilkS) (width 0.12))
  (fp_line (start 2 9.645) (end 3.206667 9.645) (layer F.SilkS) (width 0.12))
  (fp_line (start 2 9.765) (end 3.206667 9.765) (layer F.SilkS) (width 0.12))
  (fp_line (start 2 9.885) (end 3.206667 9.885) (layer F.SilkS) (width 0.12))
  (fp_line (start 2 10.005) (end 3.206667 10.005) (layer F.SilkS) (width 0.12))
  (fp_line (start 2 10.125) (end 3.206667 10.125) (layer F.SilkS) (width 0.12))
  (fp_line (start 2 10.245) (end 3.206667 10.245) (layer F.SilkS) (width 0.12))
  (fp_line (start 2 10.365) (end 3.206667 10.365) (layer F.SilkS) (width 0.12))
  (fp_line (start 2 10.485) (end 3.206667 10.485) (layer F.SilkS) (width 0.12))
  (fp_line (start 2 10.605) (end 3.206667 10.605) (layer F.SilkS) (width 0.12))
  (fp_line (start 2 10.725) (end 3.206667 10.725) (layer F.SilkS) (width 0.12))
  (fp_line (start 3.206667 9.525) (end 3.206667 10.795) (layer F.SilkS) (width 0.12))
  (fp_line (start 2 12.065) (end 2 13.335) (layer F.SilkS) (width 0.12))
  (fp_line (start 2 13.335) (end 5.62 13.335) (layer F.SilkS) (width 0.12))
  (fp_line (start 5.62 13.335) (end 5.62 12.065) (layer F.SilkS) (width 0.12))
  (fp_line (start 5.62 12.065) (end 2 12.065) (layer F.SilkS) (width 0.12))
  (fp_line (start 2 12.185) (end 3.206667 12.185) (layer F.SilkS) (width 0.12))
  (fp_line (start 2 12.305) (end 3.206667 12.305) (layer F.SilkS) (width 0.12))
  (fp_line (start 2 12.425) (end 3.206667 12.425) (layer F.SilkS) (width 0.12))
  (fp_line (start 2 12.545) (end 3.206667 12.545) (layer F.SilkS) (width 0.12))
  (fp_line (start 2 12.665) (end 3.206667 12.665) (layer F.SilkS) (width 0.12))
  (fp_line (start 2 12.785) (end 3.206667 12.785) (layer F.SilkS) (width 0.12))
  (fp_line (start 2 12.905) (end 3.206667 12.905) (layer F.SilkS) (width 0.12))
  (fp_line (start 2 13.025) (end 3.206667 13.025) (layer F.SilkS) (width 0.12))
  (fp_line (start 2 13.145) (end 3.206667 13.145) (layer F.SilkS) (width 0.12))
  (fp_line (start 2 13.265) (end 3.206667 13.265) (layer F.SilkS) (width 0.12))
  (fp_line (start 3.206667 12.065) (end 3.206667 13.335) (layer F.SilkS) (width 0.12))
  (fp_line (start 2 14.605) (end 2 15.875) (layer F.SilkS) (width 0.12))
  (fp_line (start 2 15.875) (end 5.62 15.875) (layer F.SilkS) (width 0.12))
  (fp_line (start 5.62 15.875) (end 5.62 14.605) (layer F.SilkS) (width 0.12))
  (fp_line (start 5.62 14.605) (end 2 14.605) (layer F.SilkS) (width 0.12))
  (fp_line (start 2 14.725) (end 3.206667 14.725) (layer F.SilkS) (width 0.12))
  (fp_line (start 2 14.845) (end 3.206667 14.845) (layer F.SilkS) (width 0.12))
  (fp_line (start 2 14.965) (end 3.206667 14.965) (layer F.SilkS) (width 0.12))
  (fp_line (start 2 15.085) (end 3.206667 15.085) (layer F.SilkS) (width 0.12))
  (fp_line (start 2 15.205) (end 3.206667 15.205) (layer F.SilkS) (width 0.12))
  (fp_line (start 2 15.325) (end 3.206667 15.325) (layer F.SilkS) (width 0.12))
  (fp_line (start 2 15.445) (end 3.206667 15.445) (layer F.SilkS) (width 0.12))
  (fp_line (start 2 15.565) (end 3.206667 15.565) (layer F.SilkS) (width 0.12))
  (fp_line (start 2 15.685) (end 3.206667 15.685) (layer F.SilkS) (width 0.12))
  (fp_line (start 2 15.805) (end 3.206667 15.805) (layer F.SilkS) (width 0.12))
  (fp_line (start 3.206667 14.605) (end 3.206667 15.875) (layer F.SilkS) (width 0.12))
  (fp_line (start 2 17.145) (end 2 18.415) (layer F.SilkS) (width 0.12))
  (fp_line (start 2 18.415) (end 5.62 18.415) (layer F.SilkS) (width 0.12))
  (fp_line (start 5.62 18.415) (end 5.62 17.145) (layer F.SilkS) (width 0.12))
  (fp_line (start 5.62 17.145) (end 2 17.145) (layer F.SilkS) (width 0.12))
  (fp_line (start 2 17.265) (end 3.206667 17.265) (layer F.SilkS) (width 0.12))
  (fp_line (start 2 17.385) (end 3.206667 17.385) (layer F.SilkS) (width 0.12))
  (fp_line (start 2 17.505) (end 3.206667 17.505) (layer F.SilkS) (width 0.12))
  (fp_line (start 2 17.625) (end 3.206667 17.625) (layer F.SilkS) (width 0.12))
  (fp_line (start 2 17.745) (end 3.206667 17.745) (layer F.SilkS) (width 0.12))
  (fp_line (start 2 17.865) (end 3.206667 17.865) (layer F.SilkS) (width 0.12))
  (fp_line (start 2 17.985) (end 3.206667 17.985) (layer F.SilkS) (width 0.12))
  (fp_line (start 2 18.105) (end 3.206667 18.105) (layer F.SilkS) (width 0.12))
  (fp_line (start 2 18.225) (end 3.206667 18.225) (layer F.SilkS) (width 0.12))
  (fp_line (start 2 18.345) (end 3.206667 18.345) (layer F.SilkS) (width 0.12))
  (fp_line (start 3.206667 17.145) (end 3.206667 18.415) (layer F.SilkS) (width 0.12))
  (fp_line (start 2 19.685) (end 2 20.955) (layer F.SilkS) (width 0.12))
  (fp_line (start 2 20.955) (end 5.62 20.955) (layer F.SilkS) (width 0.12))
  (fp_line (start 5.62 20.955) (end 5.62 19.685) (layer F.SilkS) (width 0.12))
  (fp_line (start 5.62 19.685) (end 2 19.685) (layer F.SilkS) (width 0.12))
  (fp_line (start 2 19.805) (end 3.206667 19.805) (layer F.SilkS) (width 0.12))
  (fp_line (start 2 19.925) (end 3.206667 19.925) (layer F.SilkS) (width 0.12))
  (fp_line (start 2 20.045) (end 3.206667 20.045) (layer F.SilkS) (width 0.12))
  (fp_line (start 2 20.165) (end 3.206667 20.165) (layer F.SilkS) (width 0.12))
  (fp_line (start 2 20.285) (end 3.206667 20.285) (layer F.SilkS) (width 0.12))
  (fp_line (start 2 20.405) (end 3.206667 20.405) (layer F.SilkS) (width 0.12))
  (fp_line (start 2 20.525) (end 3.206667 20.525) (layer F.SilkS) (width 0.12))
  (fp_line (start 2 20.645) (end 3.206667 20.645) (layer F.SilkS) (width 0.12))
  (fp_line (start 2 20.765) (end 3.206667 20.765) (layer F.SilkS) (width 0.12))
  (fp_line (start 2 20.885) (end 3.206667 20.885) (layer F.SilkS) (width 0.12))
  (fp_line (start 3.206667 19.685) (end 3.206667 20.955) (layer F.SilkS) (width 0.12))
  (fp_line (start 2 22.225) (end 2 23.495) (layer F.SilkS) (width 0.12))
  (fp_line (start 2 23.495) (end 5.62 23.495) (layer F.SilkS) (width 0.12))
  (fp_line (start 5.62 23.495) (end 5.62 22.225) (layer F.SilkS) (width 0.12))
  (fp_line (start 5.62 22.225) (end 2 22.225) (layer F.SilkS) (width 0.12))
  (fp_line (start 2 22.345) (end 3.206667 22.345) (layer F.SilkS) (width 0.12))
  (fp_line (start 2 22.465) (end 3.206667 22.465) (layer F.SilkS) (width 0.12))
  (fp_line (start 2 22.585) (end 3.206667 22.585) (layer F.SilkS) (width 0.12))
  (fp_line (start 2 22.705) (end 3.206667 22.705) (layer F.SilkS) (width 0.12))
  (fp_line (start 2 22.825) (end 3.206667 22.825) (layer F.SilkS) (width 0.12))
  (fp_line (start 2 22.945) (end 3.206667 22.945) (layer F.SilkS) (width 0.12))
  (fp_line (start 2 23.065) (end 3.206667 23.065) (layer F.SilkS) (width 0.12))
  (fp_line (start 2 23.185) (end 3.206667 23.185) (layer F.SilkS) (width 0.12))
  (fp_line (start 2 23.305) (end 3.206667 23.305) (layer F.SilkS) (width 0.12))
  (fp_line (start 2 23.425) (end 3.206667 23.425) (layer F.SilkS) (width 0.12))
  (fp_line (start 3.206667 22.225) (end 3.206667 23.495) (layer F.SilkS) (width 0.12))
  (fp_line (start -1.1 -2.4) (end -1.1 25.25) (layer F.CrtYd) (width 0.05))
  (fp_line (start -1.1 25.25) (end 8.7 25.25) (layer F.CrtYd) (width 0.05))
  (fp_line (start 8.7 25.25) (end 8.7 -2.4) (layer F.CrtYd) (width 0.05))
  (fp_line (start 8.7 -2.4) (end -1.1 -2.4) (layer F.CrtYd) (width 0.05))
  (pad 1 thru_hole rect (at 0 0) (size 1.6 1.6) (drill 0.8) (layers *.Cu *.Mask))
  (pad 11 thru_hole oval (at 7.62 22.86) (size 1.6 1.6) (drill 0.8) (layers *.Cu *.Mask))
  (pad 2 thru_hole oval (at 0 2.54) (size 1.6 1.6) (drill 0.8) (layers *.Cu *.Mask))
  (pad 12 thru_hole oval (at 7.62 20.32) (size 1.6 1.6) (drill 0.8) (layers *.Cu *.Mask))
  (pad 3 thru_hole oval (at 0 5.08) (size 1.6 1.6) (drill 0.8) (layers *.Cu *.Mask))
  (pad 13 thru_hole oval (at 7.62 17.78) (size 1.6 1.6) (drill 0.8) (layers *.Cu *.Mask))
  (pad 4 thru_hole oval (at 0 7.62) (size 1.6 1.6) (drill 0.8) (layers *.Cu *.Mask))
  (pad 14 thru_hole oval (at 7.62 15.24) (size 1.6 1.6) (drill 0.8) (layers *.Cu *.Mask))
  (pad 5 thru_hole oval (at 0 10.16) (size 1.6 1.6) (drill 0.8) (layers *.Cu *.Mask))
  (pad 15 thru_hole oval (at 7.62 12.7) (size 1.6 1.6) (drill 0.8) (layers *.Cu *.Mask))
  (pad 6 thru_hole oval (at 0 12.7) (size 1.6 1.6) (drill 0.8) (layers *.Cu *.Mask))
  (pad 16 thru_hole oval (at 7.62 10.16) (size 1.6 1.6) (drill 0.8) (layers *.Cu *.Mask))
  (pad 7 thru_hole oval (at 0 15.24) (size 1.6 1.6) (drill 0.8) (layers *.Cu *.Mask))
  (pad 17 thru_hole oval (at 7.62 7.62) (size 1.6 1.6) (drill 0.8) (layers *.Cu *.Mask))
  (pad 8 thru_hole oval (at 0 17.78) (size 1.6 1.6) (drill 0.8) (layers *.Cu *.Mask))
  (pad 18 thru_hole oval (at 7.62 5.08) (size 1.6 1.6) (drill 0.8) (layers *.Cu *.Mask))
  (pad 9 thru_hole oval (at 0 20.32) (size 1.6 1.6) (drill 0.8) (layers *.Cu *.Mask))
  (pad 19 thru_hole oval (at 7.62 2.54) (size 1.6 1.6) (drill 0.8) (layers *.Cu *.Mask))
  (pad 10 thru_hole oval (at 0 22.86) (size 1.6 1.6) (drill 0.8) (layers *.Cu *.Mask))
  (pad 20 thru_hole oval (at 7.62 0) (size 1.6 1.6) (drill 0.8) (layers *.Cu *.Mask))
  (fp_text user %R (at 6.39 11.43 90) (layer F.Fab)
    (effects (font (size 0.8 0.8) (thickness 0.12)))
  )
  (fp_text user on (at 4.485 -1.3425) (layer F.Fab)
    (effects (font (size 0.8 0.8) (thickness 0.12)))
  )
  (model ${KICAD6_3DMODEL_DIR}/Button_Switch_THT.3dshapes/SW_DIP_SPSTx10_Slide_6.7x26.96mm_W7.62mm_P2.54mm_LowProfile.wrl
    (at (xyz 0 0 0))
    (scale (xyz 1 1 1))
    (rotate (xyz 0 0 90))
  )
)