(module SW_DIP_SPSTx09_Slide_9.78x25.04mm_W7.62mm_P2.54mm (layer F.Cu) (tedit 5A4E1405)
  (descr "9x-dip-switch SPST , Slide, row spacing 7.62 mm (300 mils), body size 9.78x25.04mm (see e.g. https://www.ctscorp.com/wp-content/uploads/206-208.pdf)")
  (tags "DIP Switch SPST Slide 7.62mm 300mil")
  (fp_text reference REF** (at 3.81 -3.42) (layer F.SilkS)
    (effects (font (size 1 1) (thickness 0.15)))
  )
  (fp_text value SW_DIP_SPSTx09_Slide_9.78x25.04mm_W7.62mm_P2.54mm (at 3.81 23.74) (layer F.Fab)
    (effects (font (size 1 1) (thickness 0.15)))
  )
  (fp_line (start -0.08 -2.36) (end 8.7 -2.36) (layer F.Fab) (width 0.1))
  (fp_line (start 8.7 -2.36) (end 8.7 22.68) (layer F.Fab) (width 0.1))
  (fp_line (start 8.7 22.68) (end -1.08 22.68) (layer F.Fab) (width 0.1))
  (fp_line (start -1.08 22.68) (end -1.08 -1.36) (layer F.Fab) (width 0.1))
  (fp_line (start -1.08 -1.36) (end -0.08 -2.36) (layer F.Fab) (width 0.1))
  (fp_line (start 1.78 -0.635) (end 1.78 0.635) (layer F.Fab) (width 0.1))
  (fp_line (start 1.78 0.635) (end 5.84 0.635) (layer F.Fab) (width 0.1))
  (fp_line (start 5.84 0.635) (end 5.84 -0.635) (layer F.Fab) (width 0.1))
  (fp_line (start 5.84 -0.635) (end 1.78 -0.635) (layer F.Fab) (width 0.1))
  (fp_line (start 1.78 -0.535) (end 3.133333 -0.535) (layer F.Fab) (width 0.1))
  (fp_line (start 1.78 -0.435) (end 3.133333 -0.435) (layer F.Fab) (width 0.1))
  (fp_line (start 1.78 -0.335) (end 3.133333 -0.335) (layer F.Fab) (width 0.1))
  (fp_line (start 1.78 -0.235) (end 3.133333 -0.235) (layer F.Fab) (width 0.1))
  (fp_line (start 1.78 -0.135) (end 3.133333 -0.135) (layer F.Fab) (width 0.1))
  (fp_line (start 1.78 -0.035) (end 3.133333 -0.035) (layer F.Fab) (width 0.1))
  (fp_line (start 1.78 0.065) (end 3.133333 0.065) (layer F.Fab) (width 0.1))
  (fp_line (start 1.78 0.165) (end 3.133333 0.165) (layer F.Fab) (width 0.1))
  (fp_line (start 1.78 0.265) (end 3.133333 0.265) (layer F.Fab) (width 0.1))
  (fp_line (start 1.78 0.365) (end 3.133333 0.365) (layer F.Fab) (width 0.1))
  (fp_line (start 1.78 0.465) (end 3.133333 0.465) (layer F.Fab) (width 0.1))
  (fp_line (start 1.78 0.565) (end 3.133333 0.565) (layer F.Fab) (width 0.1))
  (fp_line (start 3.133333 -0.635) (end 3.133333 0.635) (layer F.Fab) (width 0.1))
  (fp_line (start 1.78 1.905) (end 1.78 3.175) (layer F.Fab) (width 0.1))
  (fp_line (start 1.78 3.175) (end 5.84 3.175) (layer F.Fab) (width 0.1))
  (fp_line (start 5.84 3.175) (end 5.84 1.905) (layer F.Fab) (width 0.1))
  (fp_line (start 5.84 1.905) (end 1.78 1.905) (layer F.Fab) (width 0.1))
  (fp_line (start 1.78 2.005) (end 3.133333 2.005) (layer F.Fab) (width 0.1))
  (fp_line (start 1.78 2.105) (end 3.133333 2.105) (layer F.Fab) (width 0.1))
  (fp_line (start 1.78 2.205) (end 3.133333 2.205) (layer F.Fab) (width 0.1))
  (fp_line (start 1.78 2.305) (end 3.133333 2.305) (layer F.Fab) (width 0.1))
  (fp_line (start 1.78 2.405) (end 3.133333 2.405) (layer F.Fab) (width 0.1))
  (fp_line (start 1.78 2.505) (end 3.133333 2.505) (layer F.Fab) (width 0.1))
  (fp_line (start 1.78 2.605) (end 3.133333 2.605) (layer F.Fab) (width 0.1))
  (fp_line (start 1.78 2.705) (end 3.133333 2.705) (layer F.Fab) (width 0.1))
  (fp_line (start 1.78 2.805) (end 3.133333 2.805) (layer F.Fab) (width 0.1))
  (fp_line (start 1.78 2.905) (end 3.133333 2.905) (layer F.Fab) (width 0.1))
  (fp_line (start 1.78 3.005) (end 3.133333 3.005) (layer F.Fab) (width 0.1))
  (fp_line (start 1.78 3.105) (end 3.133333 3.105) (layer F.Fab) (width 0.1))
  (fp_line (start 3.133333 1.905) (end 3.133333 3.175) (layer F.Fab) (width 0.1))
  (fp_line (start 1.78 4.445) (end 1.78 5.715) (layer F.Fab) (width 0.1))
  (fp_line (start 1.78 5.715) (end 5.84 5.715) (layer F.Fab) (width 0.1))
  (fp_line (start 5.84 5.715) (end 5.84 4.445) (layer F.Fab) (width 0.1))
  (fp_line (start 5.84 4.445) (end 1.78 4.445) (layer F.Fab) (width 0.1))
  (fp_line (start 1.78 4.545) (end 3.133333 4.545) (layer F.Fab) (width 0.1))
  (fp_line (start 1.78 4.645) (end 3.133333 4.645) (layer F.Fab) (width 0.1))
  (fp_line (start 1.78 4.745) (end 3.133333 4.745) (layer F.Fab) (width 0.1))
  (fp_line (start 1.78 4.845) (end 3.133333 4.845) (layer F.Fab) (width 0.1))
  (fp_line (start 1.78 4.945) (end 3.133333 4.945) (layer F.Fab) (width 0.1))
  (fp_line (start 1.78 5.045) (end 3.133333 5.045) (layer F.Fab) (width 0.1))
  (fp_line (start 1.78 5.145) (end 3.133333 5.145) (layer F.Fab) (width 0.1))
  (fp_line (start 1.78 5.245) (end 3.133333 5.245) (layer F.Fab) (width 0.1))
  (fp_line (start 1.78 5.345) (end 3.133333 5.345) (layer F.Fab) (width 0.1))
  (fp_line (start 1.78 5.445) (end 3.133333 5.445) (layer F.Fab) (width 0.1))
  (fp_line (start 1.78 5.545) (end 3.133333 5.545) (layer F.Fab) (width 0.1))
  (fp_line (start 1.78 5.645) (end 3.133333 5.645) (layer F.Fab) (width 0.1))
  (fp_line (start 3.133333 4.445) (end 3.133333 5.715) (layer F.Fab) (width 0.1))
  (fp_line (start 1.78 6.985) (end 1.78 8.255) (layer F.Fab) (width 0.1))
  (fp_line (start 1.78 8.255) (end 5.84 8.255) (layer F.Fab) (width 0.1))
  (fp_line (start 5.84 8.255) (end 5.84 6.985) (layer F.Fab) (width 0.1))
  (fp_line (start 5.84 6.985) (end 1.78 6.985) (layer F.Fab) (width 0.1))
  (fp_line (start 1.78 7.085) (end 3.133333 7.085) (layer F.Fab) (width 0.1))
  (fp_line (start 1.78 7.185) (end 3.133333 7.185) (layer F.Fab) (width 0.1))
  (fp_line (start 1.78 7.285) (end 3.133333 7.285) (layer F.Fab) (width 0.1))
  (fp_line (start 1.78 7.385) (end 3.133333 7.385) (layer F.Fab) (width 0.1))
  (fp_line (start 1.78 7.485) (end 3.133333 7.485) (layer F.Fab) (width 0.1))
  (fp_line (start 1.78 7.585) (end 3.133333 7.585) (layer F.Fab) (width 0.1))
  (fp_line (start 1.78 7.685) (end 3.133333 7.685) (layer F.Fab) (width 0.1))
  (fp_line (start 1.78 7.785) (end 3.133333 7.785) (layer F.Fab) (width 0.1))
  (fp_line (start 1.78 7.885) (end 3.133333 7.885) (layer F.Fab) (width 0.1))
  (fp_line (start 1.78 7.985) (end 3.133333 7.985) (layer F.Fab) (width 0.1))
  (fp_line (start 1.78 8.085) (end 3.133333 8.085) (layer F.Fab) (width 0.1))
  (fp_line (start 1.78 8.185) (end 3.133333 8.185) (layer F.Fab) (width 0.1))
  (fp_line (start 3.133333 6.985) (end 3.133333 8.255) (layer F.Fab) (width 0.1))
  (fp_line (start 1.78 9.525) (end 1.78 10.795) (layer F.Fab) (width 0.1))
  (fp_line (start 1.78 10.795) (end 5.84 10.795) (layer F.Fab) (width 0.1))
  (fp_line (start 5.84 10.795) (end 5.84 9.525) (layer F.Fab) (width 0.1))
  (fp_line (start 5.84 9.525) (end 1.78 9.525) (layer F.Fab) (width 0.1))
  (fp_line (start 1.78 9.625) (end 3.133333 9.625) (layer F.Fab) (width 0.1))
  (fp_line (start 1.78 9.725) (end 3.133333 9.725) (layer F.Fab) (width 0.1))
  (fp_line (start 1.78 9.825) (end 3.133333 9.825) (layer F.Fab) (width 0.1))
  (fp_line (start 1.78 9.925) (end 3.133333 9.925) (layer F.Fab) (width 0.1))
  (fp_line (start 1.78 10.025) (end 3.133333 10.025) (layer F.Fab) (width 0.1))
  (fp_line (start 1.78 10.125) (end 3.133333 10.125) (layer F.Fab) (width 0.1))
  (fp_line (start 1.78 10.225) (end 3.133333 10.225) (layer F.Fab) (width 0.1))
  (fp_line (start 1.78 10.325) (end 3.133333 10.325) (layer F.Fab) (width 0.1))
  (fp_line (start 1.78 10.425) (end 3.133333 10.425) (layer F.Fab) (width 0.1))
  (fp_line (start 1.78 10.525) (end 3.133333 10.525) (layer F.Fab) (width 0.1))
  (fp_line (start 1.78 10.625) (end 3.133333 10.625) (layer F.Fab) (width 0.1))
  (fp_line (start 1.78 10.725) (end 3.133333 10.725) (layer F.Fab) (width 0.1))
  (fp_line (start 3.133333 9.525) (end 3.133333 10.795) (layer F.Fab) (width 0.1))
  (fp_line (start 1.78 12.065) (end 1.78 13.335) (layer F.Fab) (width 0.1))
  (fp_line (start 1.78 13.335) (end 5.84 13.335) (layer F.Fab) (width 0.1))
  (fp_line (start 5.84 13.335) (end 5.84 12.065) (layer F.Fab) (width 0.1))
  (fp_line (start 5.84 12.065) (end 1.78 12.065) (layer F.Fab) (width 0.1))
  (fp_line (start 1.78 12.165) (end 3.133333 12.165) (layer F.Fab) (width 0.1))
  (fp_line (start 1.78 12.265) (end 3.133333 12.265) (layer F.Fab) (width 0.1))
  (fp_line (start 1.78 12.365) (end 3.133333 12.365) (layer F.Fab) (width 0.1))
  (fp_line (start 1.78 12.465) (end 3.133333 12.465) (layer F.Fab) (width 0.1))
  (fp_line (start 1.78 12.565) (end 3.133333 12.565) (layer F.Fab) (width 0.1))
  (fp_line (start 1.78 12.665) (end 3.133333 12.665) (layer F.Fab) (width 0.1))
  (fp_line (start 1.78 12.765) (end 3.133333 12.765) (layer F.Fab) (width 0.1))
  (fp_line (start 1.78 12.865) (end 3.133333 12.865) (layer F.Fab) (width 0.1))
  (fp_line (start 1.78 12.965) (end 3.133333 12.965) (layer F.Fab) (width 0.1))
  (fp_line (start 1.78 13.065) (end 3.133333 13.065) (layer F.Fab) (width 0.1))
  (fp_line (start 1.78 13.165) (end 3.133333 13.165) (layer F.Fab) (width 0.1))
  (fp_line (start 1.78 13.265) (end 3.133333 13.265) (layer F.Fab) (width 0.1))
  (fp_line (start 3.133333 12.065) (end 3.133333 13.335) (layer F.Fab) (width 0.1))
  (fp_line (start 1.78 14.605) (end 1.78 15.875) (layer F.Fab) (width 0.1))
  (fp_line (start 1.78 15.875) (end 5.84 15.875) (layer F.Fab) (width 0.1))
  (fp_line (start 5.84 15.875) (end 5.84 14.605) (layer F.Fab) (width 0.1))
  (fp_line (start 5.84 14.605) (end 1.78 14.605) (layer F.Fab) (width 0.1))
  (fp_line (start 1.78 14.705) (end 3.133333 14.705) (layer F.Fab) (width 0.1))
  (fp_line (start 1.78 14.805) (end 3.133333 14.805) (layer F.Fab) (width 0.1))
  (fp_line (start 1.78 14.905) (end 3.133333 14.905) (layer F.Fab) (width 0.1))
  (fp_line (start 1.78 15.005) (end 3.133333 15.005) (layer F.Fab) (width 0.1))
  (fp_line (start 1.78 15.105) (end 3.133333 15.105) (layer F.Fab) (width 0.1))
  (fp_line (start 1.78 15.205) (end 3.133333 15.205) (layer F.Fab) (width 0.1))
  (fp_line (start 1.78 15.305) (end 3.133333 15.305) (layer F.Fab) (width 0.1))
  (fp_line (start 1.78 15.405) (end 3.133333 15.405) (layer F.Fab) (width 0.1))
  (fp_line (start 1.78 15.505) (end 3.133333 15.505) (layer F.Fab) (width 0.1))
  (fp_line (start 1.78 15.605) (end 3.133333 15.605) (layer F.Fab) (width 0.1))
  (fp_line (start 1.78 15.705) (end 3.133333 15.705) (layer F.Fab) (width 0.1))
  (fp_line (start 1.78 15.805) (end 3.133333 15.805) (layer F.Fab) (width 0.1))
  (fp_line (start 3.133333 14.605) (end 3.133333 15.875) (layer F.Fab) (width 0.1))
  (fp_line (start 1.78 17.145) (end 1.78 18.415) (layer F.Fab) (width 0.1))
  (fp_line (start 1.78 18.415) (end 5.84 18.415) (layer F.Fab) (width 0.1))
  (fp_line (start 5.84 18.415) (end 5.84 17.145) (layer F.Fab) (width 0.1))
  (fp_line (start 5.84 17.145) (end 1.78 17.145) (layer F.Fab) (width 0.1))
  (fp_line (start 1.78 17.245) (end 3.133333 17.245) (layer F.Fab) (width 0.1))
  (fp_line (start 1.78 17.345) (end 3.133333 17.345) (layer F.Fab) (width 0.1))
  (fp_line (start 1.78 17.445) (end 3.133333 17.445) (layer F.Fab) (width 0.1))
  (fp_line (start 1.78 17.545) (end 3.133333 17.545) (layer F.Fab) (width 0.1))
  (fp_line (start 1.78 17.645) (end 3.133333 17.645) (layer F.Fab) (width 0.1))
  (fp_line (start 1.78 17.745) (end 3.133333 17.745) (layer F.Fab) (width 0.1))
  (fp_line (start 1.78 17.845) (end 3.133333 17.845) (layer F.Fab) (width 0.1))
  (fp_line (start 1.78 17.945) (end 3.133333 17.945) (layer F.Fab) (width 0.1))
  (fp_line (start 1.78 18.045) (end 3.133333 18.045) (layer F.Fab) (width 0.1))
  (fp_line (start 1.78 18.145) (end 3.133333 18.145) (layer F.Fab) (width 0.1))
  (fp_line (start 1.78 18.245) (end 3.133333 18.245) (layer F.Fab) (width 0.1))
  (fp_line (start 1.78 18.345) (end 3.133333 18.345) (layer F.Fab) (width 0.1))
  (fp_line (start 3.133333 17.145) (end 3.133333 18.415) (layer F.Fab) (width 0.1))
  (fp_line (start 1.78 19.685) (end 1.78 20.955) (layer F.Fab) (width 0.1))
  (fp_line (start 1.78 20.955) (end 5.84 20.955) (layer F.Fab) (width 0.1))
  (fp_line (start 5.84 20.955) (end 5.84 19.685) (layer F.Fab) (width 0.1))
  (fp_line (start 5.84 19.685) (end 1.78 19.685) (layer F.Fab) (width 0.1))
  (fp_line (start 1.78 19.785) (end 3.133333 19.785) (layer F.Fab) (width 0.1))
  (fp_line (start 1.78 19.885) (end 3.133333 19.885) (layer F.Fab) (width 0.1))
  (fp_line (start 1.78 19.985) (end 3.133333 19.985) (layer F.Fab) (width 0.1))
  (fp_line (start 1.78 20.085) (end 3.133333 20.085) (layer F.Fab) (width 0.1))
  (fp_line (start 1.78 20.185) (end 3.133333 20.185) (layer F.Fab) (width 0.1))
  (fp_line (start 1.78 20.285) (end 3.133333 20.285) (layer F.Fab) (width 0.1))
  (fp_line (start 1.78 20.385) (end 3.133333 20.385) (layer F.Fab) (width 0.1))
  (fp_line (start 1.78 20.485) (end 3.133333 20.485) (layer F.Fab) (width 0.1))
  (fp_line (start 1.78 20.585) (end 3.133333 20.585) (layer F.Fab) (width 0.1))
  (fp_line (start 1.78 20.685) (end 3.133333 20.685) (layer F.Fab) (width 0.1))
  (fp_line (start 1.78 20.785) (end 3.133333 20.785) (layer F.Fab) (width 0.1))
  (fp_line (start 1.78 20.885) (end 3.133333 20.885) (layer F.Fab) (width 0.1))
  (fp_line (start 3.133333 19.685) (end 3.133333 20.955) (layer F.Fab) (width 0.1))
  (fp_line (start -1.14 -2.42) (end 8.76 -2.42) (layer F.SilkS) (width 0.12))
  (fp_line (start -1.14 22.74) (end 8.76 22.74) (layer F.SilkS) (width 0.12))
  (fp_line (start -1.14 -2.42) (end -1.14 22.74) (layer F.SilkS) (width 0.12))
  (fp_line (start 8.76 -2.42) (end 8.76 22.74) (layer F.SilkS) (width 0.12))
  (fp_line (start -1.38 -2.66) (end 0.004 -2.66) (layer F.SilkS) (width 0.12))
  (fp_line (start -1.38 -2.66) (end -1.38 -1.277) (layer F.SilkS) (width 0.12))
  (fp_line (start 1.78 -0.635) (end 1.78 0.635) (layer F.SilkS) (width 0.12))
  (fp_line (start 1.78 0.635) (end 5.84 0.635) (layer F.SilkS) (width 0.12))
  (fp_line (start 5.84 0.635) (end 5.84 -0.635) (layer F.SilkS) (width 0.12))
  (fp_line (start 5.84 -0.635) (end 1.78 -0.635) (layer F.SilkS) (width 0.12))
  (fp_line (start 1.78 -0.515) (end 3.133333 -0.515) (layer F.SilkS) (width 0.12))
  (fp_line (start 1.78 -0.395) (end 3.133333 -0.395) (layer F.SilkS) (width 0.12))
  (fp_line (start 1.78 -0.275) (end 3.133333 -0.275) (layer F.SilkS) (width 0.12))
  (fp_line (start 1.78 -0.155) (end 3.133333 -0.155) (layer F.SilkS) (width 0.12))
  (fp_line (start 1.78 -0.035) (end 3.133333 -0.035) (layer F.SilkS) (width 0.12))
  (fp_line (start 1.78 0.085) (end 3.133333 0.085) (layer F.SilkS) (width 0.12))
  (fp_line (start 1.78 0.205) (end 3.133333 0.205) (layer F.SilkS) (width 0.12))
  (fp_line (start 1.78 0.325) (end 3.133333 0.325) (layer F.SilkS) (width 0.12))
  (fp_line (start 1.78 0.445) (end 3.133333 0.445) (layer F.SilkS) (width 0.12))
  (fp_line (start 1.78 0.565) (end 3.133333 0.565) (layer F.SilkS) (width 0.12))
  (fp_line (start 3.133333 -0.635) (end 3.133333 0.635) (layer F.SilkS) (width 0.12))
  (fp_line (start 1.78 1.905) (end 1.78 3.175) (layer F.SilkS) (width 0.12))
  (fp_line (start 1.78 3.175) (end 5.84 3.175) (layer F.SilkS) (width 0.12))
  (fp_line (start 5.84 3.175) (end 5.84 1.905) (layer F.SilkS) (width 0.12))
  (fp_line (start 5.84 1.905) (end 1.78 1.905) (layer F.SilkS) (width 0.12))
  (fp_line (start 1.78 2.025) (end 3.133333 2.025) (layer F.SilkS) (width 0.12))
  (fp_line (start 1.78 2.145) (end 3.133333 2.145) (layer F.SilkS) (width 0.12))
  (fp_line (start 1.78 2.265) (end 3.133333 2.265) (layer F.SilkS) (width 0.12))
  (fp_line (start 1.78 2.385) (end 3.133333 2.385) (layer F.SilkS) (width 0.12))
  (fp_line (start 1.78 2.505) (end 3.133333 2.505) (layer F.SilkS) (width 0.12))
  (fp_line (start 1.78 2.625) (end 3.133333 2.625) (layer F.SilkS) (width 0.12))
  (fp_line (start 1.78 2.745) (end 3.133333 2.745) (layer F.SilkS) (width 0.12))
  (fp_line (start 1.78 2.865) (end 3.133333 2.865) (layer F.SilkS) (width 0.12))
  (fp_line (start 1.78 2.985) (end 3.133333 2.985) (layer F.SilkS) (width 0.12))
  (fp_line (start 1.78 3.105) (end 3.133333 3.105) (layer F.SilkS) (width 0.12))
  (fp_line (start 3.133333 1.905) (end 3.133333 3.175) (layer F.SilkS) (width 0.12))
  (fp_line (start 1.78 4.445) (end 1.78 5.715) (layer F.SilkS) (width 0.12))
  (fp_line (start 1.78 5.715) (end 5.84 5.715) (layer F.SilkS) (width 0.12))
  (fp_line (start 5.84 5.715) (end 5.84 4.445) (layer F.SilkS) (width 0.12))
  (fp_line (start 5.84 4.445) (end 1.78 4.445) (layer F.SilkS) (width 0.12))
  (fp_line (start 1.78 4.565) (end 3.133333 4.565) (layer F.SilkS) (width 0.12))
  (fp_line (start 1.78 4.685) (end 3.133333 4.685) (layer F.SilkS) (width 0.12))
  (fp_line (start 1.78 4.805) (end 3.133333 4.805) (layer F.SilkS) (width 0.12))
  (fp_line (start 1.78 4.925) (end 3.133333 4.925) (layer F.SilkS) (width 0.12))
  (fp_line (start 1.78 5.045) (end 3.133333 5.045) (layer F.SilkS) (width 0.12))
  (fp_line (start 1.78 5.165) (end 3.133333 5.165) (layer F.SilkS) (width 0.12))
  (fp_line (start 1.78 5.285) (end 3.133333 5.285) (layer F.SilkS) (width 0.12))
  (fp_line (start 1.78 5.405) (end 3.133333 5.405) (layer F.SilkS) (width 0.12))
  (fp_line (start 1.78 5.525) (end 3.133333 5.525) (layer F.SilkS) (width 0.12))
  (fp_line (start 1.78 5.645) (end 3.133333 5.645) (layer F.SilkS) (width 0.12))
  (fp_line (start 3.133333 4.445) (end 3.133333 5.715) (layer F.SilkS) (width 0.12))
  (fp_line (start 1.78 6.985) (end 1.78 8.255) (layer F.SilkS) (width 0.12))
  (fp_line (start 1.78 8.255) (end 5.84 8.255) (layer F.SilkS) (width 0.12))
  (fp_line (start 5.84 8.255) (end 5.84 6.985) (layer F.SilkS) (width 0.12))
  (fp_line (start 5.84 6.985) (end 1.78 6.985) (layer F.SilkS) (width 0.12))
  (fp_line (start 1.78 7.105) (end 3.133333 7.105) (layer F.SilkS) (width 0.12))
  (fp_line (start 1.78 7.225) (end 3.133333 7.225) (layer F.SilkS) (width 0.12))
  (fp_line (start 1.78 7.345) (end 3.133333 7.345) (layer F.SilkS) (width 0.12))
  (fp_line (start 1.78 7.465) (end 3.133333 7.465) (layer F.SilkS) (width 0.12))
  (fp_line (start 1.78 7.585) (end 3.133333 7.585) (layer F.SilkS) (width 0.12))
  (fp_line (start 1.78 7.705) (end 3.133333 7.705) (layer F.SilkS) (width 0.12))
  (fp_line (start 1.78 7.825) (end 3.133333 7.825) (layer F.SilkS) (width 0.12))
  (fp_line (start 1.78 7.945) (end 3.133333 7.945) (layer F.SilkS) (width 0.12))
  (fp_line (start 1.78 8.065) (end 3.133333 8.065) (layer F.SilkS) (width 0.12))
  (fp_line (start 1.78 8.185) (end 3.133333 8.185) (layer F.SilkS) (width 0.12))
  (fp_line (start 3.133333 6.985) (end 3.133333 8.255) (layer F.SilkS) (width 0.12))
  (fp_line (start 1.78 9.525) (end 1.78 10.795) (layer F.SilkS) (width 0.12))
  (fp_line (start 1.78 10.795) (end 5.84 10.795) (layer F.SilkS) (width 0.12))
  (fp_line (start 5.84 10.795) (end 5.84 9.525) (layer F.SilkS) (width 0.12))
  (fp_line (start 5.84 9.525) (end 1.78 9.525) (layer F.SilkS) (width 0.12))
  (fp_line (start 1.78 9.645) (end 3.133333 9.645) (layer F.SilkS) (width 0.12))
  (fp_line (start 1.78 9.765) (end 3.133333 9.765) (layer F.SilkS) (width 0.12))
  (fp_line (start 1.78 9.885) (end 3.133333 9.885) (layer F.SilkS) (width 0.12))
  (fp_line (start 1.78 10.005) (end 3.133333 10.005) (layer F.SilkS) (width 0.12))
  (fp_line (start 1.78 10.125) (end 3.133333 10.125) (layer F.SilkS) (width 0.12))
  (fp_line (start 1.78 10.245) (end 3.133333 10.245) (layer F.SilkS) (width 0.12))
  (fp_line (start 1.78 10.365) (end 3.133333 10.365) (layer F.SilkS) (width 0.12))
  (fp_line (start 1.78 10.485) (end 3.133333 10.485) (layer F.SilkS) (width 0.12))
  (fp_line (start 1.78 10.605) (end 3.133333 10.605) (layer F.SilkS) (width 0.12))
  (fp_line (start 1.78 10.725) (end 3.133333 10.725) (layer F.SilkS) (width 0.12))
  (fp_line (start 3.133333 9.525) (end 3.133333 10.795) (layer F.SilkS) (width 0.12))
  (fp_line (start 1.78 12.065) (end 1.78 13.335) (layer F.SilkS) (width 0.12))
  (fp_line (start 1.78 13.335) (end 5.84 13.335) (layer F.SilkS) (width 0.12))
  (fp_line (start 5.84 13.335) (end 5.84 12.065) (layer F.SilkS) (width 0.12))
  (fp_line (start 5.84 12.065) (end 1.78 12.065) (layer F.SilkS) (width 0.12))
  (fp_line (start 1.78 12.185) (end 3.133333 12.185) (layer F.SilkS) (width 0.12))
  (fp_line (start 1.78 12.305) (end 3.133333 12.305) (layer F.SilkS) (width 0.12))
  (fp_line (start 1.78 12.425) (end 3.133333 12.425) (layer F.SilkS) (width 0.12))
  (fp_line (start 1.78 12.545) (end 3.133333 12.545) (layer F.SilkS) (width 0.12))
  (fp_line (start 1.78 12.665) (end 3.133333 12.665) (layer F.SilkS) (width 0.12))
  (fp_line (start 1.78 12.785) (end 3.133333 12.785) (layer F.SilkS) (width 0.12))
  (fp_line (start 1.78 12.905) (end 3.133333 12.905) (layer F.SilkS) (width 0.12))
  (fp_line (start 1.78 13.025) (end 3.133333 13.025) (layer F.SilkS) (width 0.12))
  (fp_line (start 1.78 13.145) (end 3.133333 13.145) (layer F.SilkS) (width 0.12))
  (fp_line (start 1.78 13.265) (end 3.133333 13.265) (layer F.SilkS) (width 0.12))
  (fp_line (start 3.133333 12.065) (end 3.133333 13.335) (layer F.SilkS) (width 0.12))
  (fp_line (start 1.78 14.605) (end 1.78 15.875) (layer F.SilkS) (width 0.12))
  (fp_line (start 1.78 15.875) (end 5.84 15.875) (layer F.SilkS) (width 0.12))
  (fp_line (start 5.84 15.875) (end 5.84 14.605) (layer F.SilkS) (width 0.12))
  (fp_line (start 5.84 14.605) (end 1.78 14.605) (layer F.SilkS) (width 0.12))
  (fp_line (start 1.78 14.725) (end 3.133333 14.725) (layer F.SilkS) (width 0.12))
  (fp_line (start 1.78 14.845) (end 3.133333 14.845) (layer F.SilkS) (width 0.12))
  (fp_line (start 1.78 14.965) (end 3.133333 14.965) (layer F.SilkS) (width 0.12))
  (fp_line (start 1.78 15.085) (end 3.133333 15.085) (layer F.SilkS) (width 0.12))
  (fp_line (start 1.78 15.205) (end 3.133333 15.205) (layer F.SilkS) (width 0.12))
  (fp_line (start 1.78 15.325) (end 3.133333 15.325) (layer F.SilkS) (width 0.12))
  (fp_line (start 1.78 15.445) (end 3.133333 15.445) (layer F.SilkS) (width 0.12))
  (fp_line (start 1.78 15.565) (end 3.133333 15.565) (layer F.SilkS) (width 0.12))
  (fp_line (start 1.78 15.685) (end 3.133333 15.685) (layer F.SilkS) (width 0.12))
  (fp_line (start 1.78 15.805) (end 3.133333 15.805) (layer F.SilkS) (width 0.12))
  (fp_line (start 3.133333 14.605) (end 3.133333 15.875) (layer F.SilkS) (width 0.12))
  (fp_line (start 1.78 17.145) (end 1.78 18.415) (layer F.SilkS) (width 0.12))
  (fp_line (start 1.78 18.415) (end 5.84 18.415) (layer F.SilkS) (width 0.12))
  (fp_line (start 5.84 18.415) (end 5.84 17.145) (layer F.SilkS) (width 0.12))
  (fp_line (start 5.84 17.145) (end 1.78 17.145) (layer F.SilkS) (width 0.12))
  (fp_line (start 1.78 17.265) (end 3.133333 17.265) (layer F.SilkS) (width 0.12))
  (fp_line (start 1.78 17.385) (end 3.133333 17.385) (layer F.SilkS) (width 0.12))
  (fp_line (start 1.78 17.505) (end 3.133333 17.505) (layer F.SilkS) (width 0.12))
  (fp_line (start 1.78 17.625) (end 3.133333 17.625) (layer F.SilkS) (width 0.12))
  (fp_line (start 1.78 17.745) (end 3.133333 17.745) (layer F.SilkS) (width 0.12))
  (fp_line (start 1.78 17.865) (end 3.133333 17.865) (layer F.SilkS) (width 0.12))
  (fp_line (start 1.78 17.985) (end 3.133333 17.985) (layer F.SilkS) (width 0.12))
  (fp_line (start 1.78 18.105) (end 3.133333 18.105) (layer F.SilkS) (width 0.12))
  (fp_line (start 1.78 18.225) (end 3.133333 18.225) (layer F.SilkS) (width 0.12))
  (fp_line (start 1.78 18.345) (end 3.133333 18.345) (layer F.SilkS) (width 0.12))
  (fp_line (start 3.133333 17.145) (end 3.133333 18.415) (layer F.SilkS) (width 0.12))
  (fp_line (start 1.78 19.685) (end 1.78 20.955) (layer F.SilkS) (width 0.12))
  (fp_line (start 1.78 20.955) (end 5.84 20.955) (layer F.SilkS) (width 0.12))
  (fp_line (start 5.84 20.955) (end 5.84 19.685) (layer F.SilkS) (width 0.12))
  (fp_line (start 5.84 19.685) (end 1.78 19.685) (layer F.SilkS) (width 0.12))
  (fp_line (start 1.78 19.805) (end 3.133333 19.805) (layer F.SilkS) (width 0.12))
  (fp_line (start 1.78 19.925) (end 3.133333 19.925) (layer F.SilkS) (width 0.12))
  (fp_line (start 1.78 20.045) (end 3.133333 20.045) (layer F.SilkS) (width 0.12))
  (fp_line (start 1.78 20.165) (end 3.133333 20.165) (layer F.SilkS) (width 0.12))
  (fp_line (start 1.78 20.285) (end 3.133333 20.285) (layer F.SilkS) (width 0.12))
  (fp_line (start 1.78 20.405) (end 3.133333 20.405) (layer F.SilkS) (width 0.12))
  (fp_line (start 1.78 20.525) (end 3.133333 20.525) (layer F.SilkS) (width 0.12))
  (fp_line (start 1.78 20.645) (end 3.133333 20.645) (layer F.SilkS) (width 0.12))
  (fp_line (start 1.78 20.765) (end 3.133333 20.765) (layer F.SilkS) (width 0.12))
  (fp_line (start 1.78 20.885) (end 3.133333 20.885) (layer F.SilkS) (width 0.12))
  (fp_line (start 3.133333 19.685) (end 3.133333 20.955) (layer F.SilkS) (width 0.12))
  (fp_line (start -1.35 -2.7) (end -1.35 23) (layer F.CrtYd) (width 0.05))
  (fp_line (start -1.35 23) (end 8.95 23) (layer F.CrtYd) (width 0.05))
  (fp_line (start 8.95 23) (end 8.95 -2.7) (layer F.CrtYd) (width 0.05))
  (fp_line (start 8.95 -2.7) (end -1.35 -2.7) (layer F.CrtYd) (width 0.05))
  (pad 1 thru_hole rect (at 0 0) (size 1.6 1.6) (drill 0.8) (layers *.Cu *.Mask))
  (pad 10 thru_hole oval (at 7.62 20.32) (size 1.6 1.6) (drill 0.8) (layers *.Cu *.Mask))
  (pad 2 thru_hole oval (at 0 2.54) (size 1.6 1.6) (drill 0.8) (layers *.Cu *.Mask))
  (pad 11 thru_hole oval (at 7.62 17.78) (size 1.6 1.6) (drill 0.8) (layers *.Cu *.Mask))
  (pad 3 thru_hole oval (at 0 5.08) (size 1.6 1.6) (drill 0.8) (layers *.Cu *.Mask))
  (pad 12 thru_hole oval (at 7.62 15.24) (size 1.6 1.6) (drill 0.8) (layers *.Cu *.Mask))
  (pad 4 thru_hole oval (at 0 7.62) (size 1.6 1.6) (drill 0.8) (layers *.Cu *.Mask))
  (pad 13 thru_hole oval (at 7.62 12.7) (size 1.6 1.6) (drill 0.8) (layers *.Cu *.Mask))
  (pad 5 thru_hole oval (at 0 10.16) (size 1.6 1.6) (drill 0.8) (layers *.Cu *.Mask))
  (pad 14 thru_hole oval (at 7.62 10.16) (size 1.6 1.6) (drill 0.8) (layers *.Cu *.Mask))
  (pad 6 thru_hole oval (at 0 12.7) (size 1.6 1.6) (drill 0.8) (layers *.Cu *.Mask))
  (pad 15 thru_hole oval (at 7.62 7.62) (size 1.6 1.6) (drill 0.8) (layers *.Cu *.Mask))
  (pad 7 thru_hole oval (at 0 15.24) (size 1.6 1.6) (drill 0.8) (layers *.Cu *.Mask))
  (pad 16 thru_hole oval (at 7.62 5.08) (size 1.6 1.6) (drill 0.8) (layers *.Cu *.Mask))
  (pad 8 thru_hole oval (at 0 17.78) (size 1.6 1.6) (drill 0.8) (layers *.Cu *.Mask))
  (pad 17 thru_hole oval (at 7.62 2.54) (size 1.6 1.6) (drill 0.8) (layers *.Cu *.Mask))
  (pad 9 thru_hole oval (at 0 20.32) (size 1.6 1.6) (drill 0.8) (layers *.Cu *.Mask))
  (pad 18 thru_hole oval (at 7.62 0) (size 1.6 1.6) (drill 0.8) (layers *.Cu *.Mask))
  (fp_text user %R (at 7.27 10.16 90) (layer F.Fab)
    (effects (font (size 0.8 0.8) (thickness 0.12)))
  )
  (fp_text user on (at 5.365 -1.4975) (layer F.Fab)
    (effects (font (size 0.8 0.8) (thickness 0.12)))
  )
  (model ${KICAD6_3DMODEL_DIR}/Button_Switch_THT.3dshapes/SW_DIP_SPSTx09_Slide_9.78x25.04mm_W7.62mm_P2.54mm.wrl
    (at (xyz 0 0 0))
    (scale (xyz 1 1 1))
    (rotate (xyz 0 0 90))
  )
)