(module SW_DIP_SPSTx02_Slide_6.7x6.64mm_W7.62mm_P2.54mm_LowProfile (layer F.Cu) (tedit 5A4E1404)
  (descr "2x-dip-switch SPST , Slide, row spacing 7.62 mm (300 mils), body size 6.7x6.64mm (see e.g. https://www.ctscorp.com/wp-content/uploads/209-210.pdf), LowProfile")
  (tags "DIP Switch SPST Slide 7.62mm 300mil LowProfile")
  (fp_text reference REF** (at 3.81 -3.11) (layer F.SilkS)
    (effects (font (size 1 1) (thickness 0.15)))
  )
  (fp_text value SW_DIP_SPSTx02_Slide_6.7x6.64mm_W7.62mm_P2.54mm_LowProfile (at 3.81 5.65) (layer F.Fab)
    (effects (font (size 1 1) (thickness 0.15)))
  )
  (fp_line (start 1.46 -2.05) (end 7.16 -2.05) (layer F.Fab) (width 0.1))
  (fp_line (start 7.16 -2.05) (end 7.16 4.59) (layer F.Fab) (width 0.1))
  (fp_line (start 7.16 4.59) (end 0.46 4.59) (layer F.Fab) (width 0.1))
  (fp_line (start 0.46 4.59) (end 0.46 -1.05) (layer F.Fab) (width 0.1))
  (fp_line (start 0.46 -1.05) (end 1.46 -2.05) (layer F.Fab) (width 0.1))
  (fp_line (start 2 -0.635) (end 2 0.635) (layer F.Fab) (width 0.1))
  (fp_line (start 2 0.635) (end 5.62 0.635) (layer F.Fab) (width 0.1))
  (fp_line (start 5.62 0.635) (end 5.62 -0.635) (layer F.Fab) (width 0.1))
  (fp_line (start 5.62 -0.635) (end 2 -0.635) (layer F.Fab) (width 0.1))
  (fp_line (start 2 -0.535) (end 3.206667 -0.535) (layer F.Fab) (width 0.1))
  (fp_line (start 2 -0.435) (end 3.206667 -0.435) (layer F.Fab) (width 0.1))
  (fp_line (start 2 -0.335) (end 3.206667 -0.335) (layer F.Fab) (width 0.1))
  (fp_line (start 2 -0.235) (end 3.206667 -0.235) (layer F.Fab) (width 0.1))
  (fp_line (start 2 -0.135) (end 3.206667 -0.135) (layer F.Fab) (width 0.1))
  (fp_line (start 2 -0.035) (end 3.206667 -0.035) (layer F.Fab) (width 0.1))
  (fp_line (start 2 0.065) (end 3.206667 0.065) (layer F.Fab) (width 0.1))
  (fp_line (start 2 0.165) (end 3.206667 0.165) (layer F.Fab) (width 0.1))
  (fp_line (start 2 0.265) (end 3.206667 0.265) (layer F.Fab) (width 0.1))
  (fp_line (start 2 0.365) (end 3.206667 0.365) (layer F.Fab) (width 0.1))
  (fp_line (start 2 0.465) (end 3.206667 0.465) (layer F.Fab) (width 0.1))
  (fp_line (start 2 0.565) (end 3.206667 0.565) (layer F.Fab) (width 0.1))
  (fp_line (start 3.206667 -0.635) (end 3.206667 0.635) (layer F.Fab) (width 0.1))
  (fp_line (start 2 1.905) (end 2 3.175) (layer F.Fab) (width 0.1))
  (fp_line (start 2 3.175) (end 5.62 3.175) (layer F.Fab) (width 0.1))
  (fp_line (start 5.62 3.175) (end 5.62 1.905) (layer F.Fab) (width 0.1))
  (fp_line (start 5.62 1.905) (end 2 1.905) (layer F.Fab) (width 0.1))
  (fp_line (start 2 2.005) (end 3.206667 2.005) (layer F.Fab) (width 0.1))
  (fp_line (start 2 2.105) (end 3.206667 2.105) (layer F.Fab) (width 0.1))
  (fp_line (start 2 2.205) (end 3.206667 2.205) (layer F.Fab) (width 0.1))
  (fp_line (start 2 2.305) (end 3.206667 2.305) (layer F.Fab) (width 0.1))
  (fp_line (start 2 2.405) (end 3.206667 2.405) (layer F.Fab) (width 0.1))
  (fp_line (start 2 2.505) (end 3.206667 2.505) (layer F.Fab) (width 0.1))
  (fp_line (start 2 2.605) (end 3.206667 2.605) (layer F.Fab) (width 0.1))
  (fp_line (start 2 2.705) (end 3.206667 2.705) (layer F.Fab) (width 0.1))
  (fp_line (start 2 2.805) (end 3.206667 2.805) (layer F.Fab) (width 0.1))
  (fp_line (start 2 2.905) (end 3.206667 2.905) (layer F.Fab) (width 0.1))
  (fp_line (start 2 3.005) (end 3.206667 3.005) (layer F.Fab) (width 0.1))
  (fp_line (start 2 3.105) (end 3.206667 3.105) (layer F.Fab) (width 0.1))
  (fp_line (start 3.206667 1.905) (end 3.206667 3.175) (layer F.Fab) (width 0.1))
  (fp_line (start 0.4 -2.11) (end 7.221 -2.11) (layer F.SilkS) (width 0.12))
  (fp_line (start 0.4 4.65) (end 7.221 4.65) (layer F.SilkS) (width 0.12))
  (fp_line (start 0.4 -2.11) (end 0.4 -1.04) (layer F.SilkS) (width 0.12))
  (fp_line (start 0.4 1.04) (end 0.4 1.551) (layer F.SilkS) (width 0.12))
  (fp_line (start 0.4 3.53) (end 0.4 4.65) (layer F.SilkS) (width 0.12))
  (fp_line (start 7.221 3.53) (end 7.221 4.65) (layer F.SilkS) (width 0.12))
  (fp_line (start 7.221 -2.11) (end 7.221 -0.99) (layer F.SilkS) (width 0.12))
  (fp_line (start 7.221 0.99) (end 7.221 1.551) (layer F.SilkS) (width 0.12))
  (fp_line (start 0.16 -2.35) (end 1.543 -2.35) (layer F.SilkS) (width 0.12))
  (fp_line (start 0.16 -2.35) (end 0.16 -1.04) (layer F.SilkS) (width 0.12))
  (fp_line (start 2 -0.635) (end 2 0.635) (layer F.SilkS) (width 0.12))
  (fp_line (start 2 0.635) (end 5.62 0.635) (layer F.SilkS) (width 0.12))
  (fp_line (start 5.62 0.635) (end 5.62 -0.635) (layer F.SilkS) (width 0.12))
  (fp_line (start 5.62 -0.635) (end 2 -0.635) (layer F.SilkS) (width 0.12))
  (fp_line (start 2 -0.515) (end 3.206667 -0.515) (layer F.SilkS) (width 0.12))
  (fp_line (start 2 -0.395) (end 3.206667 -0.395) (layer F.SilkS) (width 0.12))
  (fp_line (start 2 -0.275) (end 3.206667 -0.275) (layer F.SilkS) (width 0.12))
  (fp_line (start 2 -0.155) (end 3.206667 -0.155) (layer F.SilkS) (width 0.12))
  (fp_line (start 2 -0.035) (end 3.206667 -0.035) (layer F.SilkS) (width 0.12))
  (fp_line (start 2 0.085) (end 3.206667 0.085) (layer F.SilkS) (width 0.12))
  (fp_line (start 2 0.205) (end 3.206667 0.205) (layer F.SilkS) (width 0.12))
  (fp_line (start 2 0.325) (end 3.206667 0.325) (layer F.SilkS) (width 0.12))
  (fp_line (start 2 0.445) (end 3.206667 0.445) (layer F.SilkS) (width 0.12))
  (fp_line (start 2 0.565) (end 3.206667 0.565) (layer F.SilkS) (width 0.12))
  (fp_line (start 3.206667 -0.635) (end 3.206667 0.635) (layer F.SilkS) (width 0.12))
  (fp_line (start 2 1.905) (end 2 3.175) (layer F.SilkS) (width 0.12))
  (fp_line (start 2 3.175) (end 5.62 3.175) (layer F.SilkS) (width 0.12))
  (fp_line (start 5.62 3.175) (end 5.62 1.905) (layer F.SilkS) (width 0.12))
  (fp_line (start 5.62 1.905) (end 2 1.905) (layer F.SilkS) (width 0.12))
  (fp_line (start 2 2.025) (end 3.206667 2.025) (layer F.SilkS) (width 0.12))
  (fp_line (start 2 2.145) (end 3.206667 2.145) (layer F.SilkS) (width 0.12))
  (fp_line (start 2 2.265) (end 3.206667 2.265) (layer F.SilkS) (width 0.12))
  (fp_line (start 2 2.385) (end 3.206667 2.385) (layer F.SilkS) (width 0.12))
  (fp_line (start 2 2.505) (end 3.206667 2.505) (layer F.SilkS) (width 0.12))
  (fp_line (start 2 2.625) (end 3.206667 2.625) (layer F.SilkS) (width 0.12))
  (fp_line (start 2 2.745) (end 3.206667 2.745) (layer F.SilkS) (width 0.12))
  (fp_line (start 2 2.865) (end 3.206667 2.865) (layer F.SilkS) (width 0.12))
  (fp_line (start 2 2.985) (end 3.206667 2.985) (layer F.SilkS) (width 0.12))
  (fp_line (start 2 3.105) (end 3.206667 3.105) (layer F.SilkS) (width 0.12))
  (fp_line (start 3.206667 1.905) (end 3.206667 3.175) (layer F.SilkS) (width 0.12))
  (fp_line (start -1.1 -2.4) (end -1.1 4.9) (layer F.CrtYd) (width 0.05))
  (fp_line (start -1.1 4.9) (end 8.7 4.9) (layer F.CrtYd) (width 0.05))
  (fp_line (start 8.7 4.9) (end 8.7 -2.4) (layer F.CrtYd) (width 0.05))
  (fp_line (start 8.7 -2.4) (end -1.1 -2.4) (layer F.CrtYd) (width 0.05))
  (pad 1 thru_hole rect (at 0 0) (size 1.6 1.6) (drill 0.8) (layers *.Cu *.Mask))
  (pad 3 thru_hole oval (at 7.62 2.54) (size 1.6 1.6) (drill 0.8) (layers *.Cu *.Mask))
  (pad 2 thru_hole oval (at 0 2.54) (size 1.6 1.6) (drill 0.8) (layers *.Cu *.Mask))
  (pad 4 thru_hole oval (at 7.62 0) (size 1.6 1.6) (drill 0.8) (layers *.Cu *.Mask))
  (fp_text user %R (at 6.39 1.27 90) (layer F.Fab)
    (effects (font (size 0.8 0.8) (thickness 0.12)))
  )
  (fp_text user on (at 4.485 -1.3425) (layer F.Fab)
    (effects (font (size 0.8 0.8) (thickness 0.12)))
  )
  (model ${KICAD6_3DMODEL_DIR}/Button_Switch_THT.3dshapes/SW_DIP_SPSTx02_Slide_6.7x6.64mm_W7.62mm_P2.54mm_LowProfile.wrl
    (at (xyz 0 0 0))
    (scale (xyz 1 1 1))
    (rotate (xyz 0 0 90))
  )
)