(module SW_DIP_SPSTx02_Slide_9.78x7.26mm_W7.62mm_P2.54mm (layer F.Cu) (tedit 5A4E1404)
  (descr "2x-dip-switch SPST , Slide, row spacing 7.62 mm (300 mils), body size 9.78x7.26mm (see e.g. https://www.ctscorp.com/wp-content/uploads/206-208.pdf)")
  (tags "DIP Switch SPST Slide 7.62mm 300mil")
  (fp_text reference REF** (at 3.81 -3.42) (layer F.SilkS)
    (effects (font (size 1 1) (thickness 0.15)))
  )
  (fp_text value SW_DIP_SPSTx02_Slide_9.78x7.26mm_W7.62mm_P2.54mm (at 3.81 5.96) (layer F.Fab)
    (effects (font (size 1 1) (thickness 0.15)))
  )
  (fp_line (start -0.08 -2.36) (end 8.7 -2.36) (layer F.Fab) (width 0.1))
  (fp_line (start 8.7 -2.36) (end 8.7 4.9) (layer F.Fab) (width 0.1))
  (fp_line (start 8.7 4.9) (end -1.08 4.9) (layer F.Fab) (width 0.1))
  (fp_line (start -1.08 4.9) (end -1.08 -1.36) (layer F.Fab) (width 0.1))
  (fp_line (start -1.08 -1.36) (end -0.08 -2.36) (layer F.Fab) (width 0.1))
  (fp_line (start 1.78 -0.635) (end 1.78 0.635) (layer F.Fab) (width 0.1))
  (fp_line (start 1.78 0.635) (end 5.84 0.635) (layer F.Fab) (width 0.1))
  (fp_line (start 5.84 0.635) (end 5.84 -0.635) (layer F.Fab) (width 0.1))
  (fp_line (start 5.84 -0.635) (end 1.78 -0.635) (layer F.Fab) (width 0.1))
  (fp_line (start 1.78 -0.535) (end 3.133333 -0.535) (layer F.Fab) (width 0.1))
  (fp_line (start 1.78 -0.435) (end 3.133333 -0.435) (layer F.Fab) (width 0.1))
  (fp_line (start 1.78 -0.335) (end 3.133333 -0.335) (layer F.Fab) (width 0.1))
  (fp_line (start 1.78 -0.235) (end 3.133333 -0.235) (layer F.Fab) (width 0.1))
  (fp_line (start 1.78 -0.135) (end 3.133333 -0.135) (layer F.Fab) (width 0.1))
  (fp_line (start 1.78 -0.035) (end 3.133333 -0.035) (layer F.Fab) (width 0.1))
  (fp_line (start 1.78 0.065) (end 3.133333 0.065) (layer F.Fab) (width 0.1))
  (fp_line (start 1.78 0.165) (end 3.133333 0.165) (layer F.Fab) (width 0.1))
  (fp_line (start 1.78 0.265) (end 3.133333 0.265) (layer F.Fab) (width 0.1))
  (fp_line (start 1.78 0.365) (end 3.133333 0.365) (layer F.Fab) (width 0.1))
  (fp_line (start 1.78 0.465) (end 3.133333 0.465) (layer F.Fab) (width 0.1))
  (fp_line (start 1.78 0.565) (end 3.133333 0.565) (layer F.Fab) (width 0.1))
  (fp_line (start 3.133333 -0.635) (end 3.133333 0.635) (layer F.Fab) (width 0.1))
  (fp_line (start 1.78 1.905) (end 1.78 3.175) (layer F.Fab) (width 0.1))
  (fp_line (start 1.78 3.175) (end 5.84 3.175) (layer F.Fab) (width 0.1))
  (fp_line (start 5.84 3.175) (end 5.84 1.905) (layer F.Fab) (width 0.1))
  (fp_line (start 5.84 1.905) (end 1.78 1.905) (layer F.Fab) (width 0.1))
  (fp_line (start 1.78 2.005) (end 3.133333 2.005) (layer F.Fab) (width 0.1))
  (fp_line (start 1.78 2.105) (end 3.133333 2.105) (layer F.Fab) (width 0.1))
  (fp_line (start 1.78 2.205) (end 3.133333 2.205) (layer F.Fab) (width 0.1))
  (fp_line (start 1.78 2.305) (end 3.133333 2.305) (layer F.Fab) (width 0.1))
  (fp_line (start 1.78 2.405) (end 3.133333 2.405) (layer F.Fab) (width 0.1))
  (fp_line (start 1.78 2.505) (end 3.133333 2.505) (layer F.Fab) (width 0.1))
  (fp_line (start 1.78 2.605) (end 3.133333 2.605) (layer F.Fab) (width 0.1))
  (fp_line (start 1.78 2.705) (end 3.133333 2.705) (layer F.Fab) (width 0.1))
  (fp_line (start 1.78 2.805) (end 3.133333 2.805) (layer F.Fab) (width 0.1))
  (fp_line (start 1.78 2.905) (end 3.133333 2.905) (layer F.Fab) (width 0.1))
  (fp_line (start 1.78 3.005) (end 3.133333 3.005) (layer F.Fab) (width 0.1))
  (fp_line (start 1.78 3.105) (end 3.133333 3.105) (layer F.Fab) (width 0.1))
  (fp_line (start 3.133333 1.905) (end 3.133333 3.175) (layer F.Fab) (width 0.1))
  (fp_line (start -1.14 -2.42) (end 8.76 -2.42) (layer F.SilkS) (width 0.12))
  (fp_line (start -1.14 4.96) (end 8.76 4.96) (layer F.SilkS) (width 0.12))
  (fp_line (start -1.14 -2.42) (end -1.14 4.96) (layer F.SilkS) (width 0.12))
  (fp_line (start 8.76 -2.42) (end 8.76 4.96) (layer F.SilkS) (width 0.12))
  (fp_line (start -1.38 -2.66) (end 0.004 -2.66) (layer F.SilkS) (width 0.12))
  (fp_line (start -1.38 -2.66) (end -1.38 -1.277) (layer F.SilkS) (width 0.12))
  (fp_line (start 1.78 -0.635) (end 1.78 0.635) (layer F.SilkS) (width 0.12))
  (fp_line (start 1.78 0.635) (end 5.84 0.635) (layer F.SilkS) (width 0.12))
  (fp_line (start 5.84 0.635) (end 5.84 -0.635) (layer F.SilkS) (width 0.12))
  (fp_line (start 5.84 -0.635) (end 1.78 -0.635) (layer F.SilkS) (width 0.12))
  (fp_line (start 1.78 -0.515) (end 3.133333 -0.515) (layer F.SilkS) (width 0.12))
  (fp_line (start 1.78 -0.395) (end 3.133333 -0.395) (layer F.SilkS) (width 0.12))
  (fp_line (start 1.78 -0.275) (end 3.133333 -0.275) (layer F.SilkS) (width 0.12))
  (fp_line (start 1.78 -0.155) (end 3.133333 -0.155) (layer F.SilkS) (width 0.12))
  (fp_line (start 1.78 -0.035) (end 3.133333 -0.035) (layer F.SilkS) (width 0.12))
  (fp_line (start 1.78 0.085) (end 3.133333 0.085) (layer F.SilkS) (width 0.12))
  (fp_line (start 1.78 0.205) (end 3.133333 0.205) (layer F.SilkS) (width 0.12))
  (fp_line (start 1.78 0.325) (end 3.133333 0.325) (layer F.SilkS) (width 0.12))
  (fp_line (start 1.78 0.445) (end 3.133333 0.445) (layer F.SilkS) (width 0.12))
  (fp_line (start 1.78 0.565) (end 3.133333 0.565) (layer F.SilkS) (width 0.12))
  (fp_line (start 3.133333 -0.635) (end 3.133333 0.635) (layer F.SilkS) (width 0.12))
  (fp_line (start 1.78 1.905) (end 1.78 3.175) (layer F.SilkS) (width 0.12))
  (fp_line (start 1.78 3.175) (end 5.84 3.175) (layer F.SilkS) (width 0.12))
  (fp_line (start 5.84 3.175) (end 5.84 1.905) (layer F.SilkS) (width 0.12))
  (fp_line (start 5.84 1.905) (end 1.78 1.905) (layer F.SilkS) (width 0.12))
  (fp_line (start 1.78 2.025) (end 3.133333 2.025) (layer F.SilkS) (width 0.12))
  (fp_line (start 1.78 2.145) (end 3.133333 2.145) (layer F.SilkS) (width 0.12))
  (fp_line (start 1.78 2.265) (end 3.133333 2.265) (layer F.SilkS) (width 0.12))
  (fp_line (start 1.78 2.385) (end 3.133333 2.385) (layer F.SilkS) (width 0.12))
  (fp_line (start 1.78 2.505) (end 3.133333 2.505) (layer F.SilkS) (width 0.12))
  (fp_line (start 1.78 2.625) (end 3.133333 2.625) (layer F.SilkS) (width 0.12))
  (fp_line (start 1.78 2.745) (end 3.133333 2.745) (layer F.SilkS) (width 0.12))
  (fp_line (start 1.78 2.865) (end 3.133333 2.865) (layer F.SilkS) (width 0.12))
  (fp_line (start 1.78 2.985) (end 3.133333 2.985) (layer F.SilkS) (width 0.12))
  (fp_line (start 1.78 3.105) (end 3.133333 3.105) (layer F.SilkS) (width 0.12))
  (fp_line (start 3.133333 1.905) (end 3.133333 3.175) (layer F.SilkS) (width 0.12))
  (fp_line (start -1.35 -2.7) (end -1.35 5.25) (layer F.CrtYd) (width 0.05))
  (fp_line (start -1.35 5.25) (end 8.95 5.25) (layer F.CrtYd) (width 0.05))
  (fp_line (start 8.95 5.25) (end 8.95 -2.7) (layer F.CrtYd) (width 0.05))
  (fp_line (start 8.95 -2.7) (end -1.35 -2.7) (layer F.CrtYd) (width 0.05))
  (pad 1 thru_hole rect (at 0 0) (size 1.6 1.6) (drill 0.8) (layers *.Cu *.Mask))
  (pad 3 thru_hole oval (at 7.62 2.54) (size 1.6 1.6) (drill 0.8) (layers *.Cu *.Mask))
  (pad 2 thru_hole oval (at 0 2.54) (size 1.6 1.6) (drill 0.8) (layers *.Cu *.Mask))
  (pad 4 thru_hole oval (at 7.62 0) (size 1.6 1.6) (drill 0.8) (layers *.Cu *.Mask))
  (fp_text user %R (at 7.27 1.27 90) (layer F.Fab)
    (effects (font (size 0.8 0.8) (thickness 0.12)))
  )
  (fp_text user on (at 5.365 -1.4975) (layer F.Fab)
    (effects (font (size 0.8 0.8) (thickness 0.12)))
  )
  (model ${KICAD6_3DMODEL_DIR}/Button_Switch_THT.3dshapes/SW_DIP_SPSTx02_Slide_9.78x7.26mm_W7.62mm_P2.54mm.wrl
    (at (xyz 0 0 0))
    (scale (xyz 1 1 1))
    (rotate (xyz 0 0 90))
  )
)