(module SW_DIP_SPSTx03_Piano_10.8x9.18mm_W7.62mm_P2.54mm (layer F.Cu) (tedit 5A4E1404)
  (descr "3x-dip-switch SPST , Piano, row spacing 7.62 mm (300 mils), body size 10.8x9.18mm")
  (tags "DIP Switch SPST Piano 7.62mm 300mil")
  (fp_text reference REF** (at 3.81 -3.11) (layer F.SilkS)
    (effects (font (size 1 1) (thickness 0.15)))
  )
  (fp_text value SW_DIP_SPSTx03_Piano_10.8x9.18mm_W7.62mm_P2.54mm (at 3.81 8.19) (layer F.Fab)
    (effects (font (size 1 1) (thickness 0.15)))
  )
  (fp_line (start -0.59 -2.05) (end 9.21 -2.05) (layer F.Fab) (width 0.1))
  (fp_line (start 9.21 -2.05) (end 9.21 7.13) (layer F.Fab) (width 0.1))
  (fp_line (start 9.21 7.13) (end -1.59 7.13) (layer F.Fab) (width 0.1))
  (fp_line (start -1.59 7.13) (end -1.59 -1.05) (layer F.Fab) (width 0.1))
  (fp_line (start -1.59 -1.05) (end -0.59 -2.05) (layer F.Fab) (width 0.1))
  (fp_line (start -1.59 -0.75) (end -1.59 0.75) (layer F.Fab) (width 0.1))
  (fp_line (start -1.59 0.75) (end -3.39 0.75) (layer F.Fab) (width 0.1))
  (fp_line (start -3.39 0.75) (end -3.39 -0.75) (layer F.Fab) (width 0.1))
  (fp_line (start -3.39 -0.75) (end -1.59 -0.75) (layer F.Fab) (width 0.1))
  (fp_line (start -1.59 1.79) (end -1.59 3.29) (layer F.Fab) (width 0.1))
  (fp_line (start -1.59 3.29) (end -3.39 3.29) (layer F.Fab) (width 0.1))
  (fp_line (start -3.39 3.29) (end -3.39 1.79) (layer F.Fab) (width 0.1))
  (fp_line (start -3.39 1.79) (end -1.59 1.79) (layer F.Fab) (width 0.1))
  (fp_line (start -1.59 4.33) (end -1.59 5.83) (layer F.Fab) (width 0.1))
  (fp_line (start -1.59 5.83) (end -3.39 5.83) (layer F.Fab) (width 0.1))
  (fp_line (start -3.39 5.83) (end -3.39 4.33) (layer F.Fab) (width 0.1))
  (fp_line (start -3.39 4.33) (end -1.59 4.33) (layer F.Fab) (width 0.1))
  (fp_line (start -1.65 -2.11) (end 9.27 -2.11) (layer F.SilkS) (width 0.12))
  (fp_line (start -1.65 7.19) (end 9.27 7.19) (layer F.SilkS) (width 0.12))
  (fp_line (start -1.65 -2.11) (end -1.65 7.19) (layer F.SilkS) (width 0.12))
  (fp_line (start 9.27 -2.11) (end 9.27 7.19) (layer F.SilkS) (width 0.12))
  (fp_line (start -1.89 -2.35) (end -0.507 -2.35) (layer F.SilkS) (width 0.12))
  (fp_line (start -1.89 -2.35) (end -1.89 -0.967) (layer F.SilkS) (width 0.12))
  (fp_line (start -3.51 -0.81) (end -1.65 -0.81) (layer F.SilkS) (width 0.12))
  (fp_line (start -3.51 0.81) (end -1.65 0.81) (layer F.SilkS) (width 0.12))
  (fp_line (start -3.51 -0.81) (end -3.51 0.81) (layer F.SilkS) (width 0.12))
  (fp_line (start -1.65 -0.81) (end -1.65 0.81) (layer F.SilkS) (width 0.12))
  (fp_line (start -3.51 1.73) (end -1.65 1.73) (layer F.SilkS) (width 0.12))
  (fp_line (start -3.51 3.35) (end -1.65 3.35) (layer F.SilkS) (width 0.12))
  (fp_line (start -3.51 1.73) (end -3.51 3.35) (layer F.SilkS) (width 0.12))
  (fp_line (start -1.65 1.73) (end -1.65 3.35) (layer F.SilkS) (width 0.12))
  (fp_line (start -3.51 4.27) (end -1.65 4.27) (layer F.SilkS) (width 0.12))
  (fp_line (start -3.51 5.89) (end -1.65 5.89) (layer F.SilkS) (width 0.12))
  (fp_line (start -3.51 4.27) (end -3.51 5.89) (layer F.SilkS) (width 0.12))
  (fp_line (start -1.65 4.27) (end -1.65 5.89) (layer F.SilkS) (width 0.12))
  (fp_line (start -3.65 -2.4) (end -3.65 7.45) (layer F.CrtYd) (width 0.05))
  (fp_line (start -3.65 7.45) (end 9.5 7.45) (layer F.CrtYd) (width 0.05))
  (fp_line (start 9.5 7.45) (end 9.5 -2.4) (layer F.CrtYd) (width 0.05))
  (fp_line (start 9.5 -2.4) (end -3.65 -2.4) (layer F.CrtYd) (width 0.05))
  (pad 1 thru_hole rect (at 0 0) (size 1.6 1.6) (drill 0.8) (layers *.Cu *.Mask))
  (pad 4 thru_hole oval (at 7.62 5.08) (size 1.6 1.6) (drill 0.8) (layers *.Cu *.Mask))
  (pad 2 thru_hole oval (at 0 2.54) (size 1.6 1.6) (drill 0.8) (layers *.Cu *.Mask))
  (pad 5 thru_hole oval (at 7.62 2.54) (size 1.6 1.6) (drill 0.8) (layers *.Cu *.Mask))
  (pad 3 thru_hole oval (at 0 5.08) (size 1.6 1.6) (drill 0.8) (layers *.Cu *.Mask))
  (pad 6 thru_hole oval (at 7.62 0) (size 1.6 1.6) (drill 0.8) (layers *.Cu *.Mask))
  (fp_text user %R (at 3.81 2.54) (layer F.Fab)
    (effects (font (size 0.8 0.8) (thickness 0.12)))
  )
  (model ${KICAD6_3DMODEL_DIR}/Button_Switch_THT.3dshapes/SW_DIP_SPSTx03_Piano_10.8x9.18mm_W7.62mm_P2.54mm.wrl
    (at (xyz 0 0 0))
    (scale (xyz 1 1 1))
    (rotate (xyz 0 0 90))
  )
)