(module SW_Push_2P2T_Vertical_E-Switch_800UDP8P1A1M6 (layer F.Cu) (tedit 5C7BC527)
  (descr " right angle DPDT push button https://www.e-switch.com/system/asset/product_line/data_sheet/210/800U.pdf")
  (tags "IP67 ultra-miniture horizontal")
  (fp_text reference REF** (at 6.02 -1.91 180) (layer F.SilkS)
    (effects (font (size 1 1) (thickness 0.15)))
  )
  (fp_text value SW_Push_2P2T_Vertical_E-Switch_800UDP8P1A1M6 (at 7.62 7.19 180) (layer F.Fab)
    (effects (font (size 1 1) (thickness 0.15)))
  )
  (fp_line (start 10.22 6.04) (end 2.57 6.04) (layer F.Fab) (width 0.1))
  (fp_line (start 2.57 6.04) (end 2.57 -0.96) (layer F.Fab) (width 0.1))
  (fp_line (start 2.57 -0.96) (end 10.22 -0.96) (layer F.Fab) (width 0.1))
  (fp_line (start 10.22 -0.96) (end 10.22 6.04) (layer F.Fab) (width 0.1))
  (fp_line (start 13.52 3.665) (end 13.52 1.415) (layer F.Fab) (width 0.1))
  (fp_line (start 13.52 1.415) (end 10.22 1.415) (layer F.Fab) (width 0.1))
  (fp_line (start 13.52 3.665) (end 10.22 3.665) (layer F.Fab) (width 0.1))
  (fp_line (start 2.42 6.19) (end 10.37 6.19) (layer F.SilkS) (width 0.12))
  (fp_line (start 10.37 6.19) (end 10.37 -1.11) (layer F.SilkS) (width 0.12))
  (fp_line (start 10.37 -1.11) (end 2.42 -1.11) (layer F.SilkS) (width 0.12))
  (fp_line (start 2.42 -1.11) (end 2.42 -0.96) (layer F.SilkS) (width 0.12))
  (fp_line (start 2.42 1.54) (end 2.42 1.04) (layer F.SilkS) (width 0.12))
  (fp_line (start 2.42 4.04) (end 2.42 3.54) (layer F.SilkS) (width 0.12))
  (fp_line (start 2.42 6.19) (end 2.42 6.04) (layer F.SilkS) (width 0.12))
  (fp_text user %R (at 6.47 2.54 180) (layer F.Fab)
    (effects (font (size 1 1) (thickness 0.15)))
  )
  (fp_line (start 10.47 6.29) (end -1.05 6.29) (layer F.CrtYd) (width 0.05))
  (fp_line (start -1.05 6.29) (end -1.05 -1.21) (layer F.CrtYd) (width 0.05))
  (fp_line (start -1.05 -1.21) (end 10.47 -1.21) (layer F.CrtYd) (width 0.05))
  (fp_line (start 10.47 -1.21) (end 10.47 1.16) (layer F.CrtYd) (width 0.05))
  (fp_line (start 10.47 1.16) (end 13.77 1.16) (layer F.CrtYd) (width 0.05))
  (fp_line (start 13.77 1.16) (end 13.77 3.92) (layer F.CrtYd) (width 0.05))
  (fp_line (start 13.77 3.92) (end 10.47 3.92) (layer F.CrtYd) (width 0.05))
  (fp_line (start 10.47 3.92) (end 10.47 6.29) (layer F.CrtYd) (width 0.05))
  (pad "" thru_hole circle (at 7.62 5.08 180) (size 1.6 1.6) (drill 0.89) (layers *.Cu *.Mask))
  (pad "" thru_hole circle (at 7.62 0 180) (size 1.6 1.6) (drill 0.89) (layers *.Cu *.Mask))
  (pad 1 thru_hole roundrect (at 0 0 180) (size 1.6 1.6) (drill 0.89) (layers *.Cu *.Mask) (roundrect_rratio 0.25))
  (pad 2 thru_hole circle (at 0 2.54 180) (size 1.6 1.6) (drill 0.89) (layers *.Cu *.Mask))
  (pad 3 thru_hole circle (at 0 5.08 180) (size 1.6 1.6) (drill 0.89) (layers *.Cu *.Mask))
  (pad 4 thru_hole circle (at 2.54 0 180) (size 1.6 1.6) (drill 0.89) (layers *.Cu *.Mask))
  (pad 5 thru_hole circle (at 2.54 2.54 180) (size 1.6 1.6) (drill 0.89) (layers *.Cu *.Mask))
  (pad 6 thru_hole circle (at 2.54 5.08 180) (size 1.6 1.6) (drill 0.89) (layers *.Cu *.Mask))
  (model ${KICAD6_3DMODEL_DIR}/Button_Switch_THT.3dshapes/SW_Push_2P2T_Vertical_E-Switch_800UDP8P1A1M6.wrl
    (at (xyz 0 0 0))
    (scale (xyz 1 1 1))
    (rotate (xyz 0 0 0))
  )
)
