(module SW_PUSH_LCD_E3_SAxxxx (layer F.Cu) (tedit 5A02FE31)
  (descr "Switch with LCD screen E3 SAxxxx")
  (tags "switch normally-open pushbutton push-button LCD")
  (fp_text reference REF** (at -17.75 -6.75) (layer F.SilkS)
    (effects (font (size 1 1) (thickness 0.15)))
  )
  (fp_text value SW_PUSH_LCD_E3_SAxxxx (at -4.75 18.75) (layer F.Fab)
    (effects (font (size 1 1) (thickness 0.15)))
  )
  (fp_line (start 4.75 -5.75) (end 4.75 17.75) (layer F.Fab) (width 0.1))
  (fp_line (start 4.75 -5.75) (end -19.75 -5.75) (layer F.Fab) (width 0.1))
  (fp_line (start -19.75 -5.75) (end -19.75 17.75) (layer F.Fab) (width 0.1))
  (fp_line (start -19.75 17.75) (end 4.75 17.75) (layer F.Fab) (width 0.1))
  (fp_line (start 4.85 17.85) (end 4.85 -5.85) (layer F.SilkS) (width 0.12))
  (fp_line (start 4.85 -5.85) (end -19.85 -5.85) (layer F.SilkS) (width 0.12))
  (fp_line (start -19.85 -5.85) (end -19.85 17.85) (layer F.SilkS) (width 0.12))
  (fp_line (start -19.85 17.85) (end 4.85 17.85) (layer F.SilkS) (width 0.12))
  (fp_line (start 5 -6) (end -20 -6) (layer F.CrtYd) (width 0.05))
  (fp_line (start 5 18) (end 5 -6) (layer F.CrtYd) (width 0.05))
  (fp_line (start -20 18) (end 5 18) (layer F.CrtYd) (width 0.05))
  (fp_line (start -20 -6) (end -20 18) (layer F.CrtYd) (width 0.05))
  (fp_text user %R (at -7.5 6) (layer F.Fab)
    (effects (font (size 1 1) (thickness 0.15)))
  )
  (pad "" np_thru_hole circle (at -7.5 1.5) (size 3.5 3.5) (drill 3.5) (layers *.Cu *.Mask))
  (pad "" np_thru_hole circle (at -15.5 6) (size 5.1 5.1) (drill 5.1) (layers *.Cu *.Mask))
  (pad 3 thru_hole circle (at -15 0) (size 2 2) (drill 1) (layers *.Cu *.Mask))
  (pad 6 thru_hole circle (at -6.25 6) (size 2 2) (drill 1) (layers *.Cu *.Mask))
  (pad 5 thru_hole circle (at -8.75 6) (size 2 2) (drill 1) (layers *.Cu *.Mask))
  (pad 1 thru_hole circle (at 0 0) (size 2 2) (drill 1) (layers *.Cu *.Mask))
  (pad 4 thru_hole circle (at -15 12) (size 2 2) (drill 1) (layers *.Cu *.Mask))
  (pad 2 thru_hole circle (at 0 12) (size 2 2) (drill 1) (layers *.Cu *.Mask))
  (pad "" np_thru_hole circle (at 0.5 6) (size 5.1 5.1) (drill 5.1) (layers *.Cu *.Mask))
  (model ${KICAD6_3DMODEL_DIR}/Button_Switch_THT.3dshapes/SW_PUSH_LCD_E3_SAxxxx.wrl
    (at (xyz 0 0 0))
    (scale (xyz 1 1 1))
    (rotate (xyz 0 0 0))
  )
)
