(module SW_Push_1P2T_Vertical_E-Switch_800UDP8P1A1M6 (layer F.Cu) (tedit 5C7BC58E)
  (descr " right angle SPDT push button https://www.e-switch.com/system/asset/product_line/data_sheet/210/800U.pdf")
  (tags "IP67 ultra-miniture horizontal")
  (fp_text reference REF** (at 3.48 -1.91 180) (layer F.SilkS)
    (effects (font (size 1 1) (thickness 0.15)))
  )
  (fp_text value SW_Push_1P2T_Vertical_E-Switch_800UDP8P1A1M6 (at 5.08 7.19 180) (layer F.Fab)
    (effects (font (size 1 1) (thickness 0.15)))
  )
  (fp_line (start 7.68 6.04) (end 0.03 6.04) (layer F.Fab) (width 0.1))
  (fp_line (start 0.03 6.04) (end 0.03 -0.96) (layer F.Fab) (width 0.1))
  (fp_line (start 0.03 -0.96) (end 7.68 -0.96) (layer F.Fab) (width 0.1))
  (fp_line (start 7.68 -0.96) (end 7.68 6.04) (layer F.Fab) (width 0.1))
  (fp_line (start 10.98 3.665) (end 10.98 1.415) (layer F.Fab) (width 0.1))
  (fp_line (start 10.98 1.415) (end 7.68 1.415) (layer F.Fab) (width 0.1))
  (fp_line (start 10.98 3.665) (end 7.68 3.665) (layer F.Fab) (width 0.1))
  (fp_line (start -0.12 6.19) (end 7.83 6.19) (layer F.SilkS) (width 0.12))
  (fp_line (start 7.83 6.19) (end 7.83 -1.11) (layer F.SilkS) (width 0.12))
  (fp_line (start 7.83 -1.11) (end -0.12 -1.11) (layer F.SilkS) (width 0.12))
  (fp_line (start -0.12 -1.11) (end -0.12 -0.96) (layer F.SilkS) (width 0.12))
  (fp_line (start -0.12 1.54) (end -0.12 1.04) (layer F.SilkS) (width 0.12))
  (fp_line (start -0.12 4.04) (end -0.12 3.54) (layer F.SilkS) (width 0.12))
  (fp_line (start -0.12 6.19) (end -0.12 6.04) (layer F.SilkS) (width 0.12))
  (fp_text user %R (at 3.93 2.54 180) (layer F.Fab)
    (effects (font (size 1 1) (thickness 0.15)))
  )
  (fp_line (start 7.93 6.29) (end -1.05 6.29) (layer F.CrtYd) (width 0.05))
  (fp_line (start -1.05 6.29) (end -1.05 -1.21) (layer F.CrtYd) (width 0.05))
  (fp_line (start -1.05 -1.21) (end 7.93 -1.21) (layer F.CrtYd) (width 0.05))
  (fp_line (start 7.93 -1.21) (end 7.93 1.16) (layer F.CrtYd) (width 0.05))
  (fp_line (start 7.93 1.16) (end 11.23 1.16) (layer F.CrtYd) (width 0.05))
  (fp_line (start 11.23 1.16) (end 11.23 3.92) (layer F.CrtYd) (width 0.05))
  (fp_line (start 11.23 3.92) (end 7.93 3.92) (layer F.CrtYd) (width 0.05))
  (fp_line (start 7.93 3.92) (end 7.93 6.29) (layer F.CrtYd) (width 0.05))
  (pad "" thru_hole circle (at 5.08 5.08 180) (size 1.6 1.6) (drill 0.89) (layers *.Cu *.Mask))
  (pad "" thru_hole circle (at 5.08 0 180) (size 1.6 1.6) (drill 0.89) (layers *.Cu *.Mask))
  (pad 1 thru_hole roundrect (at 0 0 180) (size 1.6 1.6) (drill 0.89) (layers *.Cu *.Mask) (roundrect_rratio 0.25))
  (pad 2 thru_hole circle (at 0 2.54 180) (size 1.6 1.6) (drill 0.89) (layers *.Cu *.Mask))
  (pad 3 thru_hole circle (at 0 5.08 180) (size 1.6 1.6) (drill 0.89) (layers *.Cu *.Mask))
  (model ${KICAD6_3DMODEL_DIR}/Button_Switch_THT.3dshapes/SW_Push_1P2T_Vertical_E-Switch_800UDP8P1A1M6.wrl
    (at (xyz 0 0 0))
    (scale (xyz 1 1 1))
    (rotate (xyz 0 0 0))
  )
)
