(module SW_Tactile_Straight_KSL0Axx1LFTR (layer F.Cu) (tedit 5A02FE31)
  (descr "SW PUSH SMALL http://www.ckswitches.com/media/1457/ksa_ksl.pdf")
  (tags "SW PUSH SMALL Tactile C&K")
  (fp_text reference REF** (at 3.81 -2.08) (layer F.SilkS)
    (effects (font (size 1 1) (thickness 0.15)))
  )
  (fp_text value SW_Tactile_Straight_KSL0Axx1LFTR (at 3.81 7.28) (layer F.Fab)
    (effects (font (size 1 1) (thickness 0.15)))
  )
  (fp_line (start 7.51 6.24) (end 0.11 6.24) (layer F.Fab) (width 0.1))
  (fp_line (start 7.51 -1.16) (end 7.51 6.24) (layer F.Fab) (width 0.1))
  (fp_line (start 0.11 -1.16) (end 7.51 -1.16) (layer F.Fab) (width 0.1))
  (fp_line (start 0.11 6.24) (end 0.11 -1.16) (layer F.Fab) (width 0.1))
  (fp_text user %R (at 3.81 2.54) (layer F.Fab)
    (effects (font (size 1 1) (thickness 0.15)))
  )
  (fp_line (start 0 -1.27) (end 7.62 -1.27) (layer F.SilkS) (width 0.12))
  (fp_line (start 7.62 -1.27) (end 7.62 -0.97) (layer F.SilkS) (width 0.12))
  (fp_line (start 7.62 6.35) (end 0 6.35) (layer F.SilkS) (width 0.12))
  (fp_line (start 0 -1.27) (end 0 -0.97) (layer F.SilkS) (width 0.12))
  (fp_line (start 7.62 0.97) (end 7.62 4.11) (layer F.SilkS) (width 0.12))
  (fp_line (start 0 0.97) (end 0 4.11) (layer F.SilkS) (width 0.12))
  (fp_line (start -0.95 -1.41) (end 8.57 -1.41) (layer F.CrtYd) (width 0.05))
  (fp_line (start -0.95 -1.41) (end -0.95 6.49) (layer F.CrtYd) (width 0.05))
  (fp_line (start 8.57 6.49) (end 8.57 -1.41) (layer F.CrtYd) (width 0.05))
  (fp_line (start 8.57 6.49) (end -0.95 6.49) (layer F.CrtYd) (width 0.05))
  (fp_line (start 7.62 6.05) (end 7.62 6.35) (layer F.SilkS) (width 0.12))
  (fp_line (start 0 6.05) (end 0 6.35) (layer F.SilkS) (width 0.12))
  (fp_circle (center 3.81 2.54) (end 3.81 0) (layer F.SilkS) (width 0.12))
  (pad 1 thru_hole circle (at 7.62 0) (size 1.397 1.397) (drill 0.8128) (layers *.Cu *.Mask))
  (pad 2 thru_hole circle (at 7.62 5.08) (size 1.397 1.397) (drill 0.8128) (layers *.Cu *.Mask))
  (pad 1 thru_hole circle (at 0 0) (size 1.397 1.397) (drill 0.8128) (layers *.Cu *.Mask))
  (pad 2 thru_hole circle (at 0 5.08) (size 1.397 1.397) (drill 0.8128) (layers *.Cu *.Mask))
  (model ${KICAD6_3DMODEL_DIR}/Button_Switch_THT.3dshapes/SW_Tactile_Straight_KSL0Axx1LFTR.wrl
    (at (xyz 0 0 0))
    (scale (xyz 1 1 1))
    (rotate (xyz 0 0 0))
  )
)
