(module SW_Tactile_SKHH_Angled (layer F.Cu) (tedit 5DD687FE)
  (descr "tactile switch 6mm ALPS SKHH right angle http://www.alps.com/prod/info/E/HTML/Tact/SnapIn/SKHH/SKHHLUA010.html")
  (tags "tactile switch 6mm ALPS SKHH right angle")
  (fp_text reference REF** (at 2.25 2.5) (layer F.SilkS)
    (effects (font (size 1 1) (thickness 0.15)))
  )
  (fp_text value SW_Tactile_SKHH_Angled (at 2.25 5.09) (layer F.Fab)
    (effects (font (size 1 1) (thickness 0.15)))
  )
  (fp_line (start 5.23 4.12) (end 5.23 3.77) (layer F.SilkS) (width 0.12))
  (fp_line (start 6.12 4.12) (end 5.23 4.12) (layer F.SilkS) (width 0.12))
  (fp_line (start 6.12 3.82) (end 6.12 4.12) (layer F.SilkS) (width 0.12))
  (fp_text user %R (at 2.25 -1.5) (layer F.Fab)
    (effects (font (size 1 1) (thickness 0.15)))
  )
  (fp_line (start 0.1 4.25) (end -2.6 4.25) (layer F.CrtYd) (width 0.05))
  (fp_line (start -2.6 4.25) (end -2.6 1.15) (layer F.CrtYd) (width 0.05))
  (fp_line (start -2.6 1.15) (end -1.75 1.15) (layer F.CrtYd) (width 0.05))
  (fp_line (start -1.75 1.15) (end -1.75 -2.8) (layer F.CrtYd) (width 0.05))
  (fp_line (start 4.4 4.25) (end 7.1 4.25) (layer F.CrtYd) (width 0.05))
  (fp_line (start 7.1 4.25) (end 7.1 1.1) (layer F.CrtYd) (width 0.05))
  (fp_line (start 7.1 1.1) (end 6.25 1.1) (layer F.CrtYd) (width 0.05))
  (fp_line (start 6.25 1.1) (end 6.25 -2.8) (layer F.CrtYd) (width 0.05))
  (fp_line (start 0.1 1.7) (end 4.4 1.7) (layer F.CrtYd) (width 0.05))
  (fp_line (start 6.25 -2.8) (end 4.15 -2.8) (layer F.CrtYd) (width 0.05))
  (fp_line (start 4.15 -2.8) (end 4.15 -6.1) (layer F.CrtYd) (width 0.05))
  (fp_line (start 4.15 -6.1) (end 0.35 -6.1) (layer F.CrtYd) (width 0.05))
  (fp_line (start 0.35 -6.1) (end 0.35 -2.8) (layer F.CrtYd) (width 0.05))
  (fp_line (start 0.35 -2.8) (end -1.75 -2.8) (layer F.CrtYd) (width 0.05))
  (fp_line (start 0.1 4.25) (end 0.1 1.7) (layer F.CrtYd) (width 0.05))
  (fp_line (start 4.4 1.7) (end 4.4 4.25) (layer F.CrtYd) (width 0.05))
  (fp_line (start 0.6 -5.85) (end 3.9 -5.85) (layer F.Fab) (width 0.1))
  (fp_line (start 6 -2.55) (end 6 4) (layer F.Fab) (width 0.1))
  (fp_line (start 6 4) (end 5.35 4) (layer F.Fab) (width 0.1))
  (fp_line (start -0.85 4) (end -1.5 4) (layer F.Fab) (width 0.1))
  (fp_line (start -1.5 4) (end -1.5 -2.55) (layer F.Fab) (width 0.1))
  (fp_line (start 5.35 1.45) (end -0.85 1.45) (layer F.Fab) (width 0.1))
  (fp_line (start 5.35 1.45) (end 5.35 4) (layer F.Fab) (width 0.1))
  (fp_line (start -0.85 1.45) (end -0.85 4) (layer F.Fab) (width 0.1))
  (fp_line (start 6 -2.55) (end -1.5 -2.55) (layer F.Fab) (width 0.1))
  (fp_line (start 0.6 -2.55) (end 0.6 -5.85) (layer F.Fab) (width 0.1))
  (fp_line (start 3.9 -2.55) (end 3.9 -5.85) (layer F.Fab) (width 0.1))
  (fp_line (start 6.12 1.18) (end 6.12 -2.67) (layer F.SilkS) (width 0.12))
  (fp_line (start 6.12 -2.67) (end -1.62 -2.67) (layer F.SilkS) (width 0.12))
  (fp_line (start -1.62 -2.67) (end -1.62 1.18) (layer F.SilkS) (width 0.12))
  (fp_line (start -0.24 1.57) (end 4.74 1.57) (layer F.SilkS) (width 0.12))
  (fp_line (start -0.73 4.12) (end -1.62 4.12) (layer F.SilkS) (width 0.12))
  (fp_line (start -0.73 4.12) (end -0.73 3.77) (layer F.SilkS) (width 0.12))
  (fp_line (start -1.62 3.82) (end -1.62 4.12) (layer F.SilkS) (width 0.12))
  (pad "" thru_hole circle (at 5.75 2.5 180) (size 2.2 2.2) (drill 1.3) (layers *.Cu *.Mask))
  (pad "" thru_hole circle (at -1.25 2.5 180) (size 2.2 2.2) (drill 1.3) (layers *.Cu *.Mask))
  (pad 2 thru_hole circle (at 4.5 0 180) (size 1.7 1.7) (drill 1) (layers *.Cu *.Mask))
  (pad 1 thru_hole circle (at 0 0 180) (size 1.7 1.7) (drill 1) (layers *.Cu *.Mask))
  (model ${KICAD6_3DMODEL_DIR}/Button_Switch_THT.3dshapes/SW_Tactile_SKHH_Angled.wrl
    (at (xyz 0 0 0))
    (scale (xyz 1 1 1))
    (rotate (xyz 0 0 0))
  )
)
