(module microSD_HC_Wuerth_693072010801 (layer F.Cu) (tedit 5A1DBFB5)
  (descr http://katalog.we-online.de/em/datasheet/693072010801.pdf)
  (tags "Micro SD Wuerth Wurth Würth")
  (attr smd)
  (fp_text reference REF** (at 0 -7.99) (layer F.SilkS)
    (effects (font (size 1 1) (thickness 0.15)))
  )
  (fp_text value microSD_HC_Wuerth_693072010801 (at 0 9.22) (layer F.Fab)
    (effects (font (size 1 1) (thickness 0.15)))
  )
  (fp_text user %R (at 0 1.15) (layer F.Fab)
    (effects (font (size 1 1) (thickness 0.15)))
  )
  (fp_line (start -6.8 8) (end 6.8 8) (layer F.Fab) (width 0.1))
  (fp_line (start -6.8 -5.7) (end -6.8 8) (layer F.Fab) (width 0.1))
  (fp_line (start 6.8 -5.7) (end -6.8 -5.7) (layer F.Fab) (width 0.1))
  (fp_line (start 6.8 8) (end 6.8 -5.7) (layer F.Fab) (width 0.1))
  (fp_line (start 5 -6.61) (end 5.5 -6.71) (layer F.SilkS) (width 0.12))
  (fp_line (start 3.7 -6.31) (end 5 -6.61) (layer F.SilkS) (width 0.12))
  (fp_line (start 2.2 -6.11) (end 3.7 -6.31) (layer F.SilkS) (width 0.12))
  (fp_line (start 0.9 -6.01) (end 2.2 -6.11) (layer F.SilkS) (width 0.12))
  (fp_line (start -0.9 -6.01) (end 0.9 -6.01) (layer F.SilkS) (width 0.12))
  (fp_line (start -2.2 -6.11) (end -0.9 -6.01) (layer F.SilkS) (width 0.12))
  (fp_line (start -3 -6.21) (end -2.2 -6.11) (layer F.SilkS) (width 0.12))
  (fp_line (start -4.7 -6.51) (end -3 -6.21) (layer F.SilkS) (width 0.12))
  (fp_line (start -5.5 -6.71) (end -4.7 -6.51) (layer F.SilkS) (width 0.12))
  (fp_line (start -5 -7.31) (end 5 -7.31) (layer F.SilkS) (width 0.12))
  (fp_line (start -5.5 -5.81) (end -5.5 -6.81) (layer F.SilkS) (width 0.12))
  (fp_line (start 5.5 -5.81) (end 5.5 -6.81) (layer F.SilkS) (width 0.12))
  (fp_line (start -6.91 -5.81) (end 6.91 -5.81) (layer F.SilkS) (width 0.12))
  (fp_line (start 6.91 8.11) (end -6.91 8.11) (layer F.SilkS) (width 0.12))
  (fp_line (start 6.91 5.41) (end 6.91 8.11) (layer F.SilkS) (width 0.12))
  (fp_line (start 6.91 -5.81) (end 6.91 -5.41) (layer F.SilkS) (width 0.12))
  (fp_line (start 6.91 -2.89) (end 6.91 2.89) (layer F.SilkS) (width 0.12))
  (fp_line (start -6.91 5.41) (end -6.91 8.11) (layer F.SilkS) (width 0.12))
  (fp_line (start -6.91 -2.89) (end -6.91 2.89) (layer F.SilkS) (width 0.12))
  (fp_line (start -6.91 -5.81) (end -6.91 -5.41) (layer F.SilkS) (width 0.12))
  (fp_line (start 8.08 -6.2) (end 8.08 8.5) (layer F.CrtYd) (width 0.05))
  (fp_line (start 8.08 -6.2) (end -8.08 -6.2) (layer F.CrtYd) (width 0.05))
  (fp_line (start 8.08 8.5) (end -8.08 8.5) (layer F.CrtYd) (width 0.05))
  (fp_line (start -8.08 -6.2) (end -8.08 8.5) (layer F.CrtYd) (width 0.05))
  (fp_arc (start 5 -6.81) (end 5 -7.31) (angle 90) (layer F.SilkS) (width 0.12))
  (fp_arc (start -5 -6.81) (end -5.5 -6.81) (angle 90) (layer F.SilkS) (width 0.12))
  (pad 9 smd rect (at 6.875 -4.15) (size 1.45 2) (layers F.Cu F.Paste F.Mask))
  (pad 9 smd rect (at -6.875 -4.15) (size 1.45 2) (layers F.Cu F.Paste F.Mask))
  (pad 9 smd rect (at -6.875 4.15) (size 1.45 2) (layers F.Cu F.Paste F.Mask))
  (pad 9 smd rect (at 6.875 4.15) (size 1.45 2) (layers F.Cu F.Paste F.Mask))
  (pad 8 smd rect (at 4.5 -1.55) (size 0.8 1.5) (layers F.Cu F.Paste F.Mask))
  (pad 7 smd rect (at 3.4 -1.55) (size 0.8 1.5) (layers F.Cu F.Paste F.Mask))
  (pad 6 smd rect (at 2.3 -1.55) (size 0.8 1.5) (layers F.Cu F.Paste F.Mask))
  (pad 5 smd rect (at 1.2 -1.55) (size 0.8 1.5) (layers F.Cu F.Paste F.Mask))
  (pad 4 smd rect (at 0.1 -1.55) (size 0.8 1.5) (layers F.Cu F.Paste F.Mask))
  (pad 3 smd rect (at -1 -1.55) (size 0.8 1.5) (layers F.Cu F.Paste F.Mask))
  (pad 2 smd rect (at -2.1 -1.55) (size 0.8 1.5) (layers F.Cu F.Paste F.Mask))
  (pad 1 smd rect (at -3.2 -1.55) (size 0.8 1.5) (layers F.Cu F.Paste F.Mask))
  (model ${KICAD6_3DMODEL_DIR}/Connector_Card.3dshapes/microSD_HC_Wuerth_693072010801.wrl
    (at (xyz 0 0 0))
    (scale (xyz 1 1 1))
    (rotate (xyz 0 0 0))
  )
)
