(module SD_Kyocera_145638009211859+ (layer F.Cu) (tedit 5DB0BE56)
  (descr "SD Card Connector, Normal Type, Outer Tail, Without Ejector (https://global.kyocera.com/prdct/electro/product/pdf/5638.pdf)")
  (tags "sd card smt")
  (attr smd)
  (fp_text reference REF** (at 0 -15.04 180) (layer F.SilkS)
    (effects (font (size 1 1) (thickness 0.15)))
  )
  (fp_text value SD_Kyocera_145638009211859+ (at 0 -0.3 180) (layer F.Fab)
    (effects (font (size 1 1) (thickness 0.15)))
  )
  (fp_text user %R (at 0 1.7 180) (layer F.Fab)
    (effects (font (size 1 1) (thickness 0.15)))
  )
  (fp_line (start -13.8 -11.5) (end -13.8 11.3) (layer F.Fab) (width 0.1))
  (fp_line (start -13.2 11.9) (end -11.2 11.9) (layer F.Fab) (width 0.1))
  (fp_line (start -10.6 11.3) (end -10.6 5) (layer F.Fab) (width 0.1))
  (fp_line (start -8.6 3) (end 8.6 3) (layer F.Fab) (width 0.1))
  (fp_line (start 10.6 5) (end 10.6 11.3) (layer F.Fab) (width 0.1))
  (fp_line (start 11.2 11.9) (end 13.2 11.9) (layer F.Fab) (width 0.1))
  (fp_line (start 13.8 11.3) (end 13.8 6.2) (layer F.Fab) (width 0.1))
  (fp_line (start 13.8 6.2) (end 12.8 5.5) (layer F.Fab) (width 0.1))
  (fp_line (start 12.8 5.5) (end 12.8 -11.5) (layer F.Fab) (width 0.1))
  (fp_line (start 12.8 -11.5) (end -13.8 -11.5) (layer F.Fab) (width 0.1))
  (fp_line (start 10 -5.5) (end 10 -1.5) (layer Dwgs.User) (width 0.1))
  (fp_line (start 10 -1.5) (end -10.5 -1.5) (layer Dwgs.User) (width 0.1))
  (fp_line (start -10.5 -1.5) (end -10.5 -5.5) (layer Dwgs.User) (width 0.1))
  (fp_line (start -10.5 -5.5) (end 10 -5.5) (layer Dwgs.User) (width 0.1))
  (fp_line (start -12 11.9) (end -12 22.5) (layer Dwgs.User) (width 0.1))
  (fp_line (start -11 23.5) (end 11 23.5) (layer Dwgs.User) (width 0.1))
  (fp_line (start 12 22.5) (end 12 11.9) (layer Dwgs.User) (width 0.1))
  (fp_arc (start -11 22.5) (end -11 23.5) (angle 90) (layer Dwgs.User) (width 0.1))
  (fp_arc (start 11 22.5) (end 11 23.5) (angle -90) (layer Dwgs.User) (width 0.1))
  (fp_line (start -13.2 11.9) (end -13.8 11.3) (layer F.Fab) (width 0.1))
  (fp_line (start -10.6 11.3) (end -11.2 11.9) (layer F.Fab) (width 0.1))
  (fp_line (start 11.2 11.9) (end 10.6 11.3) (layer F.Fab) (width 0.1))
  (fp_line (start 13.8 11.3) (end 13.2 11.9) (layer F.Fab) (width 0.1))
  (fp_line (start 10.6 5) (end 8.6 3) (layer F.Fab) (width 0.1))
  (fp_line (start -8.6 3) (end -10.6 5) (layer F.Fab) (width 0.1))
  (fp_line (start -13.3 12.1) (end -11.1 12.1) (layer F.SilkS) (width 0.12))
  (fp_line (start -10.4 11.4) (end -11.1 12.1) (layer F.SilkS) (width 0.12))
  (fp_line (start -10.4 11.4) (end -10.4 5.1) (layer F.SilkS) (width 0.12))
  (fp_line (start -14 11.3) (end -14 11.4) (layer F.SilkS) (width 0.12))
  (fp_line (start -14 -11.7) (end -14 8.5) (layer F.SilkS) (width 0.12))
  (fp_line (start -13.3 12.1) (end -14 11.4) (layer F.SilkS) (width 0.12))
  (fp_line (start 13.3 12.1) (end 11.1 12.1) (layer F.SilkS) (width 0.12))
  (fp_line (start 10.4 11.4) (end 11.1 12.1) (layer F.SilkS) (width 0.12))
  (fp_line (start 10.4 11.4) (end 10.4 5.1) (layer F.SilkS) (width 0.12))
  (fp_line (start 14 10) (end 14 11.4) (layer F.SilkS) (width 0.12))
  (fp_line (start 13.3 12.1) (end 14 11.4) (layer F.SilkS) (width 0.12))
  (fp_line (start -8.5 3.2) (end 8.5 3.2) (layer F.SilkS) (width 0.12))
  (fp_line (start -8.5 3.2) (end -10.4 5.1) (layer F.SilkS) (width 0.12))
  (fp_line (start 8.5 3.2) (end 10.4 5.1) (layer F.SilkS) (width 0.12))
  (fp_line (start 13 5.4) (end 13 -11.7) (layer F.SilkS) (width 0.12))
  (fp_line (start 14 6.1) (end 14 7.3) (layer F.SilkS) (width 0.12))
  (fp_line (start 14 6.1) (end 13 5.4) (layer F.SilkS) (width 0.12))
  (fp_line (start -13.8 -11.7) (end -14 -11.7) (layer F.SilkS) (width 0.12))
  (fp_line (start 13 -11.7) (end 10 -11.7) (layer F.SilkS) (width 0.12))
  (fp_line (start 8.7 -11.7) (end 7.5 -11.7) (layer F.SilkS) (width 0.12))
  (fp_line (start 6.2 -11.7) (end 5 -11.7) (layer F.SilkS) (width 0.12))
  (fp_line (start 3.7 -11.7) (end 3.3 -11.7) (layer F.SilkS) (width 0.12))
  (fp_line (start 2 -11.7) (end 1.7 -11.7) (layer F.SilkS) (width 0.12))
  (fp_line (start 0.4 -11.7) (end 0 -11.7) (layer F.SilkS) (width 0.12))
  (fp_line (start -1.3 -11.7) (end -2.5 -11.7) (layer F.SilkS) (width 0.12))
  (fp_line (start -3.8 -11.7) (end -5 -11.7) (layer F.SilkS) (width 0.12))
  (fp_line (start -6.3 -11.7) (end -7.4 -11.7) (layer F.SilkS) (width 0.12))
  (fp_line (start -8.7 -11.7) (end -9.1 -11.7) (layer F.SilkS) (width 0.12))
  (fp_line (start -10.4 -11.7) (end -12.6 -11.7) (layer F.SilkS) (width 0.12))
  (fp_line (start 0 -5.5) (end -4 -1.5) (layer Dwgs.User) (width 0.1))
  (fp_line (start -1 -5.5) (end -5 -1.5) (layer Dwgs.User) (width 0.1))
  (fp_line (start -3 -5.5) (end -7 -1.5) (layer Dwgs.User) (width 0.1))
  (fp_line (start -2 -5.5) (end -6 -1.5) (layer Dwgs.User) (width 0.1))
  (fp_line (start -6 -5.5) (end -10 -1.5) (layer Dwgs.User) (width 0.1))
  (fp_line (start -5 -5.5) (end -9 -1.5) (layer Dwgs.User) (width 0.1))
  (fp_line (start -4 -5.5) (end -8 -1.5) (layer Dwgs.User) (width 0.1))
  (fp_line (start 9 -5.5) (end 5 -1.5) (layer Dwgs.User) (width 0.1))
  (fp_line (start 8 -5.5) (end 4 -1.5) (layer Dwgs.User) (width 0.1))
  (fp_line (start 3 -5.5) (end -1 -1.5) (layer Dwgs.User) (width 0.1))
  (fp_line (start 1 -5.5) (end -3 -1.5) (layer Dwgs.User) (width 0.1))
  (fp_line (start 2 -5.5) (end -2 -1.5) (layer Dwgs.User) (width 0.1))
  (fp_line (start 10 -5.5) (end 6 -1.5) (layer Dwgs.User) (width 0.1))
  (fp_line (start 5 -5.5) (end 1 -1.5) (layer Dwgs.User) (width 0.1))
  (fp_line (start 4 -5.5) (end 0 -1.5) (layer Dwgs.User) (width 0.1))
  (fp_line (start 6 -5.5) (end 2 -1.5) (layer Dwgs.User) (width 0.1))
  (fp_line (start 7 -5.5) (end 3 -1.5) (layer Dwgs.User) (width 0.1))
  (fp_line (start 10 -2.5) (end 9 -1.5) (layer Dwgs.User) (width 0.1))
  (fp_line (start 10 -3.5) (end 8 -1.5) (layer Dwgs.User) (width 0.1))
  (fp_line (start 10 -4.5) (end 7 -1.5) (layer Dwgs.User) (width 0.1))
  (fp_line (start -7 -5.5) (end -10.5 -2) (layer Dwgs.User) (width 0.1))
  (fp_line (start -8 -5.5) (end -10.5 -3) (layer Dwgs.User) (width 0.1))
  (fp_line (start -9 -5.5) (end -10.5 -4) (layer Dwgs.User) (width 0.1))
  (fp_line (start -10 -5.5) (end -10.5 -5) (layer Dwgs.User) (width 0.1))
  (fp_text user "Copper Keep Out" (at 0 -3.4 180) (layer Cmts.User)
    (effects (font (size 1 1) (thickness 0.15)))
  )
  (fp_line (start 14.35 12.35) (end -14.35 12.35) (layer F.CrtYd) (width 0.05))
  (fp_line (start -14.35 12.35) (end -14.35 -13.75) (layer F.CrtYd) (width 0.05))
  (fp_line (start -14.35 -13.75) (end 14.35 -13.75) (layer F.CrtYd) (width 0.05))
  (fp_line (start 14.35 -13.75) (end 14.35 12.35) (layer F.CrtYd) (width 0.05))
  (pad 9 smd roundrect (at 9.38 -12.5) (size 0.8 2) (layers F.Cu F.Paste F.Mask) (roundrect_rratio 0.313))
  (pad 1 smd roundrect (at 6.88 -12.5) (size 0.8 2) (layers F.Cu F.Paste F.Mask) (roundrect_rratio 0.313))
  (pad 2 smd roundrect (at 4.38 -12.5) (size 0.8 2) (layers F.Cu F.Paste F.Mask) (roundrect_rratio 0.313))
  (pad 10 smd roundrect (at 2.68 -12.5) (size 0.8 2) (layers F.Cu F.Paste F.Mask) (roundrect_rratio 0.313))
  (pad 3 smd roundrect (at 1.08 -12.5) (size 0.8 2) (layers F.Cu F.Paste F.Mask) (roundrect_rratio 0.313))
  (pad 4 smd roundrect (at -0.62 -12.5) (size 0.8 2) (layers F.Cu F.Paste F.Mask) (roundrect_rratio 0.313))
  (pad 5 smd roundrect (at -3.12 -12.5) (size 0.8 2) (layers F.Cu F.Paste F.Mask) (roundrect_rratio 0.313))
  (pad 6 smd roundrect (at -5.62 -12.5) (size 0.8 2) (layers F.Cu F.Paste F.Mask) (roundrect_rratio 0.313))
  (pad 7 smd roundrect (at -8.05 -12.5) (size 0.8 2) (layers F.Cu F.Paste F.Mask) (roundrect_rratio 0.313))
  (pad 8 smd roundrect (at -9.75 -12.5) (size 0.8 2) (layers F.Cu F.Paste F.Mask) (roundrect_rratio 0.313))
  (pad 11 smd roundrect (at -13.24 -12.5) (size 0.7 2) (layers F.Cu F.Paste F.Mask) (roundrect_rratio 0.357))
  (pad "" np_thru_hole circle (at -12.1 -5.3 180) (size 1.5 1.5) (drill 1.5) (layers *.Cu *.Mask))
  (pad "" np_thru_hole circle (at 12.1 -5.3 180) (size 1.5 1.5) (drill 1.5) (layers *.Cu *.Mask))
  (pad 13 smd roundrect (at -13.25 9.9) (size 1.7 2.4) (layers F.Cu F.Paste F.Mask) (roundrect_rratio 0.147))
  (pad 12 smd roundrect (at 13.2 8.7) (size 1.8 2.4) (layers F.Cu F.Paste F.Mask) (roundrect_rratio 0.139))
  (model ${KICAD6_3DMODEL_DIR}/Connector_Card.3dshapes/SD_Kyocera_145638009211859+.wrl
    (at (xyz 0 0 0))
    (scale (xyz 1 1 1))
    (rotate (xyz 0 0 0))
  )
)
