(module SIP4_Sharp-SSR_P7.62mm_Angled (layer F.Cu) (tedit 5A0CB273)
  (descr "SIP4 Footprint for SSR made by Sharp")
  (tags "Solid State relais SSR Sharp")
  (fp_text reference REF** (at 1.27 -30.48) (layer F.SilkS)
    (effects (font (size 1 1) (thickness 0.15)))
  )
  (fp_text value SIP4_Sharp-SSR_P7.62mm_Angled (at 7.62 2.5) (layer F.Fab)
    (effects (font (size 1 1) (thickness 0.15)))
  )
  (fp_text user %R (at 7.62 -13.2) (layer F.Fab)
    (effects (font (size 1 1) (thickness 0.15)))
  )
  (fp_line (start 14.44 -3.2) (end 14.44 -4.4) (layer F.SilkS) (width 0.15))
  (fp_line (start 15.64 -2.2) (end 16.04 -2.6) (layer F.SilkS) (width 0.15))
  (fp_line (start 14.44 -2.6) (end 14.44 -3.2) (layer F.SilkS) (width 0.15))
  (fp_line (start 14.84 -2.2) (end 14.44 -2.6) (layer F.SilkS) (width 0.15))
  (fp_line (start 14.84 -2.2) (end 14.84 -1.8) (layer F.SilkS) (width 0.15))
  (fp_line (start 15.64 -1.8) (end 15.64 -2.2) (layer F.SilkS) (width 0.15))
  (fp_line (start 16.04 -2.6) (end 16.04 -4.4) (layer F.SilkS) (width 0.15))
  (fp_line (start 16.04 -2.6) (end 16.04 -4.4) (layer F.SilkS) (width 0.15))
  (fp_line (start 15.64 -1.8) (end 15.64 -2.2) (layer F.SilkS) (width 0.15))
  (fp_line (start 14.84 -2.2) (end 14.84 -1.8) (layer F.SilkS) (width 0.15))
  (fp_line (start 14.84 -2.2) (end 14.44 -2.6) (layer F.SilkS) (width 0.15))
  (fp_line (start 14.44 -2.6) (end 14.44 -3.2) (layer F.SilkS) (width 0.15))
  (fp_line (start 15.64 -2.2) (end 16.04 -2.6) (layer F.SilkS) (width 0.15))
  (fp_line (start 14.44 -3.2) (end 14.44 -4.4) (layer F.SilkS) (width 0.15))
  (fp_line (start 11.9 -3.2) (end 11.9 -4.4) (layer F.SilkS) (width 0.15))
  (fp_line (start 13.1 -2.2) (end 13.5 -2.6) (layer F.SilkS) (width 0.15))
  (fp_line (start 11.9 -2.6) (end 11.9 -3.2) (layer F.SilkS) (width 0.15))
  (fp_line (start 12.3 -2.2) (end 11.9 -2.6) (layer F.SilkS) (width 0.15))
  (fp_line (start 12.3 -2.2) (end 12.3 -1.8) (layer F.SilkS) (width 0.15))
  (fp_line (start 13.1 -1.8) (end 13.1 -2.2) (layer F.SilkS) (width 0.15))
  (fp_line (start 13.5 -2.6) (end 13.5 -4.4) (layer F.SilkS) (width 0.15))
  (fp_line (start 13.5 -2.6) (end 13.5 -4.4) (layer F.SilkS) (width 0.15))
  (fp_line (start 13.1 -1.8) (end 13.1 -2.2) (layer F.SilkS) (width 0.15))
  (fp_line (start 12.3 -2.2) (end 12.3 -1.8) (layer F.SilkS) (width 0.15))
  (fp_line (start 12.3 -2.2) (end 11.9 -2.6) (layer F.SilkS) (width 0.15))
  (fp_line (start 11.9 -2.6) (end 11.9 -3.2) (layer F.SilkS) (width 0.15))
  (fp_line (start 13.1 -2.2) (end 13.5 -2.6) (layer F.SilkS) (width 0.15))
  (fp_line (start 11.9 -3.2) (end 11.9 -4.4) (layer F.SilkS) (width 0.15))
  (fp_line (start 4.28 -3.2) (end 4.28 -4.4) (layer F.SilkS) (width 0.15))
  (fp_line (start 5.48 -2.2) (end 5.88 -2.6) (layer F.SilkS) (width 0.15))
  (fp_line (start 4.28 -2.6) (end 4.28 -3.2) (layer F.SilkS) (width 0.15))
  (fp_line (start 4.68 -2.2) (end 4.28 -2.6) (layer F.SilkS) (width 0.15))
  (fp_line (start 4.68 -2.2) (end 4.68 -1.8) (layer F.SilkS) (width 0.15))
  (fp_line (start 5.48 -1.8) (end 5.48 -2.2) (layer F.SilkS) (width 0.15))
  (fp_line (start 5.88 -2.6) (end 5.88 -4.4) (layer F.SilkS) (width 0.15))
  (fp_line (start 5.88 -2.6) (end 5.88 -4.4) (layer F.SilkS) (width 0.15))
  (fp_line (start 5.48 -1.8) (end 5.48 -2.2) (layer F.SilkS) (width 0.15))
  (fp_line (start 4.68 -2.2) (end 4.68 -1.8) (layer F.SilkS) (width 0.15))
  (fp_line (start 4.68 -2.2) (end 4.28 -2.6) (layer F.SilkS) (width 0.15))
  (fp_line (start 4.28 -2.6) (end 4.28 -3.2) (layer F.SilkS) (width 0.15))
  (fp_line (start 5.48 -2.2) (end 5.88 -2.6) (layer F.SilkS) (width 0.15))
  (fp_line (start 4.28 -3.2) (end 4.28 -4.4) (layer F.SilkS) (width 0.15))
  (fp_line (start -0.8 -3.2) (end -0.8 -4.4) (layer F.SilkS) (width 0.15))
  (fp_line (start 0.4 -2.2) (end 0.8 -2.6) (layer F.SilkS) (width 0.15))
  (fp_line (start -0.8 -2.6) (end -0.8 -3.2) (layer F.SilkS) (width 0.15))
  (fp_line (start -0.4 -2.2) (end -0.8 -2.6) (layer F.SilkS) (width 0.15))
  (fp_line (start -0.4 -2.2) (end -0.4 -1.8) (layer F.SilkS) (width 0.15))
  (fp_line (start 0.4 -1.8) (end 0.4 -2.2) (layer F.SilkS) (width 0.15))
  (fp_line (start 0.8 -2.6) (end 0.8 -4.4) (layer F.SilkS) (width 0.15))
  (fp_line (start 0.8 -2.6) (end 0.8 -4.4) (layer F.SilkS) (width 0.15))
  (fp_line (start 0.4 -1.8) (end 0.4 -2.2) (layer F.SilkS) (width 0.15))
  (fp_line (start -0.4 -2.2) (end -0.4 -1.8) (layer F.SilkS) (width 0.15))
  (fp_line (start -0.4 -2.2) (end -0.8 -2.6) (layer F.SilkS) (width 0.15))
  (fp_line (start -0.8 -2.6) (end -0.8 -3.2) (layer F.SilkS) (width 0.15))
  (fp_line (start 0.4 -2.2) (end 0.8 -2.6) (layer F.SilkS) (width 0.15))
  (fp_line (start -0.8 -3.2) (end -0.8 -4.4) (layer F.SilkS) (width 0.15))
  (fp_line (start 0.52 -24.5) (end 0.52 -29.5) (layer F.SilkS) (width 0.15))
  (fp_line (start 14.72 -24.5) (end 14.72 -29.5) (layer F.SilkS) (width 0.15))
  (fp_line (start 12.62 -24.5) (end 16.97 -24.5) (layer F.SilkS) (width 0.15))
  (fp_line (start 2.62 -29.5) (end 2.62 -24.5) (layer F.SilkS) (width 0.15))
  (fp_line (start 12.62 -29.5) (end 12.62 -24.5) (layer F.SilkS) (width 0.15))
  (fp_line (start 17.25 -29.75) (end 17.25 1.75) (layer F.CrtYd) (width 0.05))
  (fp_line (start 17.25 1.75) (end -2 1.75) (layer F.CrtYd) (width 0.05))
  (fp_line (start -2 1.75) (end -2 -29.75) (layer F.CrtYd) (width 0.05))
  (fp_line (start -2 -29.75) (end 17.25 -29.75) (layer F.CrtYd) (width 0.05))
  (fp_line (start -0.73 -24.5) (end -0.73 -29.5) (layer F.SilkS) (width 0.15))
  (fp_line (start 15.97 -24.5) (end 15.97 -29.5) (layer F.SilkS) (width 0.15))
  (fp_line (start -1.73 -24.5) (end 2.62 -24.5) (layer F.SilkS) (width 0.15))
  (fp_line (start -0.73 -29.5) (end 15.97 -29.5) (layer F.SilkS) (width 0.15))
  (fp_line (start 16.97 -24.5) (end 16.97 -4.4) (layer F.SilkS) (width 0.15))
  (fp_line (start 16.97 -4.4) (end -1.73 -4.4) (layer F.SilkS) (width 0.15))
  (fp_line (start -1.73 -4.4) (end -1.73 -24.5) (layer F.SilkS) (width 0.15))
  (fp_line (start -1.6 -4.5) (end -1.6 -24.4) (layer F.Fab) (width 0.1))
  (fp_line (start -1.6 -24.4) (end 16.9 -24.4) (layer F.Fab) (width 0.1))
  (fp_line (start 16.9 -24.4) (end 16.9 -4.5) (layer F.Fab) (width 0.1))
  (fp_line (start 16.9 -4.5) (end -1.6 -4.5) (layer F.Fab) (width 0.1))
  (fp_circle (center 7.62 -26.2) (end 9.35 -27.4) (layer F.SilkS) (width 0.15))
  (pad 1 thru_hole rect (at 0 0) (size 2 3) (drill 1.2) (layers *.Cu *.Mask))
  (pad 2 thru_hole oval (at 5.08 0) (size 2 3) (drill 1.2) (layers *.Cu *.Mask))
  (pad 3 thru_hole oval (at 12.7 0) (size 2 3) (drill 1.2) (layers *.Cu *.Mask))
  (pad 4 thru_hole oval (at 15.24 0) (size 2 3) (drill 1.2) (layers *.Cu *.Mask))
  (pad "" np_thru_hole circle (at 7.62 -26.2) (size 3.4 3.4) (drill 3.4) (layers *.Cu *.Mask))
  (model ${KICAD6_3DMODEL_DIR}/Package_SIP.3dshapes/SIP4_Sharp-SSR_P7.62mm_Angled.wrl
    (at (xyz 0 0 0))
    (scale (xyz 1 1 1))
    (rotate (xyz 0 0 0))
  )
)
