(module Filter_Mini-Circuits_FV1206 (layer F.Cu) (tedit 5C117609)
  (descr "Mini-Circuits Filter SMD 1206 https://ww2.minicircuits.com/case_style/FV1206.pdf")
  (tags "Mini-Circuits Filter SMD 1206")
  (attr smd)
  (fp_text reference REF** (at 0 -2.5) (layer F.SilkS)
    (effects (font (size 1 1) (thickness 0.15)))
  )
  (fp_text value Filter_Mini-Circuits_FV1206 (at 0 2.5) (layer F.Fab)
    (effects (font (size 1 1) (thickness 0.15)))
  )
  (fp_line (start -1.6 -0.8) (end 1.6 -0.8) (layer F.Fab) (width 0.1))
  (fp_line (start 1.6 -0.8) (end 1.6 0.8) (layer F.Fab) (width 0.1))
  (fp_line (start 1.6 0.8) (end -1.6 0.8) (layer F.Fab) (width 0.1))
  (fp_line (start -1.6 0.8) (end -1.6 0.4) (layer F.Fab) (width 0.1))
  (fp_text user %R (at 0 0) (layer F.Fab)
    (effects (font (size 0.8 0.8) (thickness 0.12)))
  )
  (fp_line (start -2.4 -1.15) (end -2.4 1.15) (layer F.CrtYd) (width 0.05))
  (fp_line (start 0.56 -1.8) (end -0.56 -1.8) (layer F.CrtYd) (width 0.05))
  (fp_line (start 0.57 -0.91) (end 0.91 -0.91) (layer F.SilkS) (width 0.12))
  (fp_line (start 0.57 0.91) (end 0.91 0.91) (layer F.SilkS) (width 0.12))
  (fp_line (start -1.6 -0.8) (end -1.6 -0.4) (layer F.Fab) (width 0.1))
  (fp_line (start -1.2 0) (end -1.6 -0.4) (layer F.Fab) (width 0.1))
  (fp_line (start -1.2 0) (end -1.6 0.4) (layer F.Fab) (width 0.1))
  (fp_line (start -0.91 -0.91) (end -0.57 -0.91) (layer F.SilkS) (width 0.12))
  (fp_line (start -0.91 0.91) (end -0.57 0.91) (layer F.SilkS) (width 0.12))
  (fp_line (start -0.91 -0.91) (end -0.91 -1.16) (layer F.SilkS) (width 0.12))
  (fp_line (start -0.91 -1.16) (end -2.14 -1.16) (layer F.SilkS) (width 0.12))
  (fp_line (start -0.56 -1.15) (end -2.4 -1.15) (layer F.CrtYd) (width 0.05))
  (fp_line (start -0.56 -1.15) (end -0.56 -1.8) (layer F.CrtYd) (width 0.05))
  (fp_line (start 0.56 -1.15) (end 2.4 -1.15) (layer F.CrtYd) (width 0.05))
  (fp_line (start 0.56 -1.15) (end 0.56 -1.8) (layer F.CrtYd) (width 0.05))
  (fp_line (start 2.4 -1.15) (end 2.4 1.15) (layer F.CrtYd) (width 0.05))
  (fp_line (start -2.4 1.15) (end -0.56 1.15) (layer F.CrtYd) (width 0.05))
  (fp_line (start 2.4 1.15) (end 0.56 1.15) (layer F.CrtYd) (width 0.05))
  (fp_line (start 0.56 1.8) (end 0.56 1.15) (layer F.CrtYd) (width 0.05))
  (fp_line (start -0.56 1.8) (end -0.56 1.15) (layer F.CrtYd) (width 0.05))
  (fp_line (start 0.56 1.8) (end -0.56 1.8) (layer F.CrtYd) (width 0.05))
  (pad 1 smd roundrect (at -1.625 0) (size 1.04 1.8) (layers F.Cu F.Paste F.Mask) (roundrect_rratio 0.24))
  (pad 3 smd roundrect (at 1.625 0) (size 1.04 1.8) (layers F.Cu F.Paste F.Mask) (roundrect_rratio 0.24))
  (pad 2 smd roundrect (at 0 0.9275) (size 0.61 1.245) (layers F.Cu F.Paste F.Mask) (roundrect_rratio 0.25))
  (pad 4 smd roundrect (at 0 -0.9275) (size 0.61 1.245) (layers F.Cu F.Paste F.Mask) (roundrect_rratio 0.25))
  (pad 2 thru_hole circle (at 0 1.105) (size 0.61 0.61) (drill 0.3) (layers *.Cu *.Mask))
  (pad 4 thru_hole circle (at 0 -1.105) (size 0.61 0.61) (drill 0.3) (layers *.Cu *.Mask))
  (model ${KICAD6_3DMODEL_DIR}/Filter.3dshapes/Filter_Mini-Circuits_FV1206.wrl
    (at (xyz 0 0 0))
    (scale (xyz 1 1 1))
    (rotate (xyz 0 0 0))
  )
)
