(module Filter_FILTERCON_1FPxx (layer F.Cu) (tedit 5DD00B8D)
  (descr "0.5A, 250VAC, 50/60Hz line filter (https://filtercon.com.pl/wp-content/uploads/2019/07/Karta-katalogowa-FP-12-1.pdf)")
  (tags "EMI filter")
  (fp_text reference REF** (at 10 -3.75) (layer F.SilkS)
    (effects (font (size 1 1) (thickness 0.15)))
  )
  (fp_text value Filter_FILTERCON_1FPxx (at 10 19) (layer F.Fab)
    (effects (font (size 1 1) (thickness 0.15)))
  )
  (fp_text user %R (at 10 7.5) (layer F.Fab)
    (effects (font (size 1 1) (thickness 0.15)))
  )
  (fp_line (start -4.5 14.25) (end -4.5 0.75) (layer F.CrtYd) (width 0.05))
  (fp_line (start 20.75 18) (end -0.75 18) (layer F.CrtYd) (width 0.05))
  (fp_line (start 24.5 0.75) (end 24.5 14.25) (layer F.CrtYd) (width 0.05))
  (fp_line (start -0.75 -3) (end 20.75 -3) (layer F.CrtYd) (width 0.05))
  (fp_line (start -4.36 14.25) (end -4.36 0.75) (layer F.SilkS) (width 0.12))
  (fp_line (start 20.75 17.86) (end -0.75 17.86) (layer F.SilkS) (width 0.12))
  (fp_line (start 24.36 0.75) (end 24.36 14.25) (layer F.SilkS) (width 0.12))
  (fp_line (start -0.75 -2.86) (end 20.75 -2.86) (layer F.SilkS) (width 0.12))
  (fp_line (start -4.25 0.75) (end -4.25 14.25) (layer F.Fab) (width 0.1))
  (fp_line (start -0.75 17.75) (end 20.75 17.75) (layer F.Fab) (width 0.1))
  (fp_line (start 24.25 0.75) (end 24.25 14.25) (layer F.Fab) (width 0.1))
  (fp_line (start 0.5 -2.75) (end 20.75 -2.75) (layer F.Fab) (width 0.1))
  (fp_arc (start -0.75 14.25) (end -4.25 14.25) (angle -90) (layer F.Fab) (width 0.1))
  (fp_arc (start -0.75 0.75) (end -4.25 0.75) (angle 90) (layer F.Fab) (width 0.1))
  (fp_arc (start 20.75 0.75) (end 20.75 -2.75) (angle 90) (layer F.Fab) (width 0.1))
  (fp_arc (start 20.75 14.25) (end 20.75 17.75) (angle -90) (layer F.Fab) (width 0.1))
  (fp_arc (start -0.75 0.75) (end -0.75 -2.86) (angle -90) (layer F.SilkS) (width 0.12))
  (fp_arc (start 20.75 0.75) (end 20.75 -2.86) (angle 90) (layer F.SilkS) (width 0.12))
  (fp_arc (start 20.75 14.25) (end 24.36 14.25) (angle 90) (layer F.SilkS) (width 0.12))
  (fp_arc (start -0.75 14.25) (end -0.75 17.86) (angle 90) (layer F.SilkS) (width 0.12))
  (fp_arc (start 20.75 0.75) (end 20.75 -3) (angle 90) (layer F.CrtYd) (width 0.05))
  (fp_arc (start 20.75 14.25) (end 24.5 14.25) (angle 90) (layer F.CrtYd) (width 0.05))
  (fp_arc (start -0.75 14.25) (end -0.75 18) (angle 90) (layer F.CrtYd) (width 0.05))
  (fp_arc (start -0.75 0.75) (end -4.5 0.75) (angle 90) (layer F.CrtYd) (width 0.05))
  (fp_line (start 0 -3.2) (end -0.9 -4.1) (layer F.SilkS) (width 0.12))
  (fp_line (start -0.9 -4.1) (end 0.9 -4.1) (layer F.SilkS) (width 0.12))
  (fp_line (start 0.9 -4.1) (end 0 -3.2) (layer F.SilkS) (width 0.12))
  (fp_line (start -0.75 -2.75) (end -0.5 -2.75) (layer F.Fab) (width 0.1))
  (fp_line (start -0.5 -2.75) (end 0 -2.25) (layer F.Fab) (width 0.1))
  (fp_line (start 0 -2.25) (end 0.5 -2.75) (layer F.Fab) (width 0.1))
  (pad 2 thru_hole circle (at 20 0) (size 2 2) (drill 1) (layers *.Cu *.Mask))
  (pad 4 thru_hole circle (at 20 15) (size 2 2) (drill 1) (layers *.Cu *.Mask))
  (pad 3 thru_hole circle (at 0 15) (size 2 2) (drill 1) (layers *.Cu *.Mask))
  (pad 1 thru_hole rect (at 0 0) (size 2 2) (drill 1) (layers *.Cu *.Mask))
  (model ${KICAD6_3DMODEL_DIR}/Filter.3dshapes/Filter_FILTERCON_1FPxx.wrl
    (at (xyz 0 0 0))
    (scale (xyz 1 1 1))
    (rotate (xyz 0 0 0))
  )
)
