(module Filter_Mini-Circuits_FV1206-1 (layer F.Cu) (tedit 5B9F4F8D)
  (descr "Mini-Circuits Filter SMD 1206 https://ww2.minicircuits.com/case_style/FV1206-1.pdf")
  (tags "Mini-Circuits Filter SMD 1206")
  (attr smd)
  (fp_text reference REF** (at 0 -2.67) (layer F.SilkS)
    (effects (font (size 1 1) (thickness 0.15)))
  )
  (fp_text value Filter_Mini-Circuits_FV1206-1 (at 0 2.5) (layer F.Fab)
    (effects (font (size 1 1) (thickness 0.15)))
  )
  (fp_line (start 0.8 -1.6) (end -0.4 -1.6) (layer F.Fab) (width 0.1))
  (fp_line (start -0.8 -1.2) (end -0.8 1.6) (layer F.Fab) (width 0.1))
  (fp_line (start -0.8 1.6) (end 0.8 1.6) (layer F.Fab) (width 0.1))
  (fp_line (start 0.8 1.6) (end 0.8 -1.6) (layer F.Fab) (width 0.1))
  (fp_text user %R (at 0 0 -90) (layer F.Fab)
    (effects (font (size 0.8 0.8) (thickness 0.12)))
  )
  (fp_line (start 0.91 -1.71) (end -0.91 -1.71) (layer F.SilkS) (width 0.12))
  (fp_line (start 0.91 1.71) (end -0.91 1.71) (layer F.SilkS) (width 0.12))
  (fp_line (start -1.81 -1.85) (end 1.81 -1.85) (layer F.CrtYd) (width 0.05))
  (fp_line (start 1.81 -1.85) (end 1.81 1.85) (layer F.CrtYd) (width 0.05))
  (fp_line (start 1.81 1.85) (end -1.81 1.85) (layer F.CrtYd) (width 0.05))
  (fp_line (start -1.81 1.85) (end -1.81 -1.85) (layer F.CrtYd) (width 0.05))
  (fp_line (start -0.8 -1.2) (end -0.4 -1.6) (layer F.Fab) (width 0.1))
  (fp_line (start -0.91 -1.56) (end -1.51 -1.56) (layer F.SilkS) (width 0.12))
  (fp_line (start -0.91 -1.56) (end -0.91 -1.71) (layer F.SilkS) (width 0.12))
  (fp_line (start 0.91 -1.56) (end 0.91 -1.71) (layer F.SilkS) (width 0.12))
  (fp_line (start 0.91 1.71) (end 0.91 1.56) (layer F.SilkS) (width 0.12))
  (fp_line (start -0.91 1.71) (end -0.91 1.56) (layer F.SilkS) (width 0.12))
  (pad 1 smd roundrect (at -1.025 -0.99) (size 1.07 0.61) (layers F.Cu F.Paste F.Mask) (roundrect_rratio 0.25))
  (pad 2 smd roundrect (at -1.025 0) (size 1.07 0.61) (layers F.Cu F.Paste F.Mask) (roundrect_rratio 0.25))
  (pad 3 smd roundrect (at -1.025 0.99) (size 1.07 0.61) (layers F.Cu F.Paste F.Mask) (roundrect_rratio 0.25))
  (pad 4 smd roundrect (at 1.025 0.99) (size 1.07 0.61) (layers F.Cu F.Paste F.Mask) (roundrect_rratio 0.25))
  (pad 5 smd roundrect (at 1.025 0) (size 1.07 0.61) (layers F.Cu F.Paste F.Mask) (roundrect_rratio 0.25))
  (pad 6 smd roundrect (at 1.025 -0.99) (size 1.07 0.61) (layers F.Cu F.Paste F.Mask) (roundrect_rratio 0.25))
  (model ${KICAD6_3DMODEL_DIR}/Filter.3dshapes/Filter_Mini-Circuits_FV1206-1.wrl
    (at (xyz 0 0 0))
    (scale (xyz 1 1 1))
    (rotate (xyz 0 0 0))
  )
)
