(module Filter_Murata_BNX025_ThermalVias (layer F.Cu) (tedit 5C40ACC1)
  (descr https://www.murata.com/en-us/products/productdata/8796778004510/QNFH9101.pdf?1496719830000)
  (tags "EMI Filter")
  (attr smd)
  (fp_text reference REF** (at -4.4 -5.65 180) (layer F.SilkS)
    (effects (font (size 1 1) (thickness 0.15)))
  )
  (fp_text value Filter_Murata_BNX025_ThermalVias (at 0 11.2) (layer F.Fab)
    (effects (font (size 1 1) (thickness 0.1)))
  )
  (fp_text user %R (at 0.75 -0.05) (layer F.Fab)
    (effects (font (size 1 1) (thickness 0.1)))
  )
  (fp_line (start -6.4 4.75) (end -6.4 3.9) (layer F.SilkS) (width 0.12))
  (fp_line (start 6.4 4.75) (end 6.4 3.95) (layer F.SilkS) (width 0.12))
  (fp_line (start 6.4 -3.85) (end 6.4 -4.85) (layer F.SilkS) (width 0.12))
  (fp_line (start -6.4 -3.65) (end -6.4 -4.85) (layer F.SilkS) (width 0.12))
  (fp_line (start -2.25 -4.85) (end -6.4 -4.85) (layer F.SilkS) (width 0.12))
  (fp_line (start 6.4 -4.85) (end 5.4 -4.85) (layer F.SilkS) (width 0.12))
  (fp_line (start 5.4 4.75) (end 6.4 4.75) (layer F.SilkS) (width 0.12))
  (fp_line (start -3.4 4.75) (end -6.4 4.75) (layer F.SilkS) (width 0.12))
  (fp_line (start -5.05 -4.6) (end 6.05 -4.6) (layer F.Fab) (width 0.1))
  (fp_line (start 6.05 -4.6) (end 6.05 4.5) (layer F.Fab) (width 0.1))
  (fp_line (start 6.05 4.5) (end -6.05 4.5) (layer F.Fab) (width 0.1))
  (fp_line (start -6.05 4.5) (end -6.05 -3.6) (layer F.Fab) (width 0.1))
  (fp_line (start -6.4 -3.65) (end -8.6 -3.65) (layer F.SilkS) (width 0.12))
  (fp_line (start -5.05 -4.6) (end -6.05 -3.6) (layer F.Fab) (width 0.1))
  (fp_line (start -9 -6.55) (end 9 -6.55) (layer F.CrtYd) (width 0.05))
  (fp_line (start -9 -6.55) (end -9 6.45) (layer F.CrtYd) (width 0.05))
  (fp_line (start 9 6.45) (end 9 -6.55) (layer F.CrtYd) (width 0.05))
  (fp_line (start 9 6.45) (end -9 6.45) (layer F.CrtYd) (width 0.05))
  (fp_line (start 1.3 -4.85) (end -0.3 -4.85) (layer F.SilkS) (width 0.12))
  (pad 1 smd rect (at -6.85 -2.15) (size 3.8 2.5) (layers F.Cu F.Paste F.Mask))
  (pad 3 smd rect (at -6.85 2.15) (size 3.8 2.5) (layers F.Cu F.Paste F.Mask))
  (pad 2 smd rect (at 6.85 -2.15) (size 3.8 2.5) (layers F.Cu F.Paste F.Mask)
    (clearance 0.5))
  (pad 4 smd rect (at 6.85 2.15) (size 3.8 2.5) (layers F.Cu F.Paste F.Mask)
    (zone_connect 2))
  (pad 4 smd rect (at 1 5.05) (size 7.9 2.3) (layers F.Cu F.Paste F.Mask)
    (zone_connect 2))
  (pad 4 smd rect (at 3.25 -5.15) (size 3.4 2.3) (layers F.Cu F.Paste F.Mask)
    (zone_connect 2))
  (pad 4 thru_hole circle (at 3.25 5.05) (size 1.524 1.524) (drill 0.8) (layers *.Cu)
    (zone_connect 2))
  (pad 4 thru_hole circle (at 3.25 -5.15) (size 1.524 1.524) (drill 0.8) (layers *.Cu)
    (zone_connect 2))
  (pad 4 thru_hole circle (at 3.25 0) (size 1.524 1.524) (drill 0.8) (layers *.Cu)
    (zone_connect 2))
  (pad 4 thru_hole circle (at -1.25 5.05) (size 1.524 1.524) (drill 0.8) (layers *.Cu)
    (zone_connect 2))
  (pad 4 thru_hole circle (at -1.25 0) (size 1.524 1.524) (drill 0.8) (layers *.Cu)
    (zone_connect 2))
  (pad 4 thru_hole circle (at -1.25 -5.15) (size 1.524 1.524) (drill 0.8) (layers *.Cu)
    (zone_connect 2))
  (pad 4 thru_hole circle (at 7.75 5.05) (size 1.524 1.524) (drill 0.8) (layers *.Cu)
    (zone_connect 2))
  (pad 4 thru_hole circle (at -1.25 -9.65) (size 1.524 1.524) (drill 0.8) (layers *.Cu)
    (zone_connect 2))
  (pad 4 thru_hole circle (at 3 -9.65) (size 1.524 1.524) (drill 0.8) (layers *.Cu)
    (zone_connect 2))
  (pad 4 thru_hole circle (at 3.25 9.55) (size 1.524 1.524) (drill 0.8) (layers *.Cu)
    (zone_connect 2))
  (pad 4 thru_hole circle (at -1.25 9.55) (size 1.524 1.524) (drill 0.8) (layers *.Cu)
    (zone_connect 2))
  (pad 4 smd rect (at 3.25 5.25) (size 14 10.5) (layers F.Cu)
    (zone_connect 2))
  (pad 4 smd rect (at 0.35 -5.3) (size 8.2 10.6) (layers F.Cu)
    (zone_connect 2))
  (model ${KICAD6_3DMODEL_DIR}/Filter.3dshapes/Filter_Murata_BNX025.wrl
    (at (xyz 0 0 0))
    (scale (xyz 1 1 1))
    (rotate (xyz 0 0 0))
  )
)
