(module Filter_Murata_BNX025 (layer F.Cu) (tedit 5C3EC0DE)
  (descr https://www.murata.com/en-us/products/productdata/8796778004510/QNFH9101.pdf?1496719830000)
  (tags "EMI Filter")
  (attr smd)
  (fp_text reference REF** (at -4.4 -5.6 180) (layer F.SilkS)
    (effects (font (size 1 1) (thickness 0.15)))
  )
  (fp_text value Filter_Murata_BNX025 (at -1.9 7.75) (layer F.Fab)
    (effects (font (size 1 1) (thickness 0.1)))
  )
  (fp_text user %R (at 0.75 0) (layer F.Fab)
    (effects (font (size 1 1) (thickness 0.1)))
  )
  (fp_line (start -6.4 4.8) (end -6.4 3.95) (layer F.SilkS) (width 0.12))
  (fp_line (start 6.4 4.8) (end 6.4 4) (layer F.SilkS) (width 0.12))
  (fp_line (start 6.4 -3.8) (end 6.4 -4.8) (layer F.SilkS) (width 0.12))
  (fp_line (start -6.4 -3.6) (end -6.4 -4.8) (layer F.SilkS) (width 0.12))
  (fp_line (start 1 -4.8) (end -6.4 -4.8) (layer F.SilkS) (width 0.12))
  (fp_line (start 6.4 -4.8) (end 5.4 -4.8) (layer F.SilkS) (width 0.12))
  (fp_line (start 5.4 4.8) (end 6.4 4.8) (layer F.SilkS) (width 0.12))
  (fp_line (start -3.4 4.8) (end -6.4 4.8) (layer F.SilkS) (width 0.12))
  (fp_line (start -5.05 -4.55) (end 6.05 -4.55) (layer F.Fab) (width 0.1))
  (fp_line (start 6.05 -4.55) (end 6.05 4.55) (layer F.Fab) (width 0.1))
  (fp_line (start 6.05 4.55) (end -6.05 4.55) (layer F.Fab) (width 0.1))
  (fp_line (start -6.05 4.55) (end -6.05 -3.55) (layer F.Fab) (width 0.1))
  (fp_line (start -6.4 -3.6) (end -8.6 -3.6) (layer F.SilkS) (width 0.12))
  (fp_line (start -5.05 -4.55) (end -6.05 -3.55) (layer F.Fab) (width 0.1))
  (fp_line (start -9 -6.5) (end 9 -6.5) (layer F.CrtYd) (width 0.05))
  (fp_line (start -9 -6.5) (end -9 6.5) (layer F.CrtYd) (width 0.05))
  (fp_line (start 9 6.5) (end 9 -6.5) (layer F.CrtYd) (width 0.05))
  (fp_line (start 9 6.5) (end -9 6.5) (layer F.CrtYd) (width 0.05))
  (pad 1 smd rect (at -6.85 -2.1) (size 3.8 2.5) (layers F.Cu F.Paste F.Mask))
  (pad 3 smd rect (at -6.85 2.2) (size 3.8 2.5) (layers F.Cu F.Paste F.Mask))
  (pad 2 smd rect (at 6.85 -2.1) (size 3.8 2.5) (layers F.Cu F.Paste F.Mask))
  (pad 4 smd rect (at 6.85 2.2) (size 3.8 2.5) (layers F.Cu F.Paste F.Mask)
    (zone_connect 2))
  (pad 4 smd rect (at 1 5.1) (size 7.9 2.3) (layers F.Cu F.Paste F.Mask)
    (zone_connect 2))
  (pad 4 smd rect (at 3.25 -5.1) (size 3.4 2.3) (layers F.Cu F.Paste F.Mask)
    (zone_connect 2))
  (model ${KICAD6_3DMODEL_DIR}/Filter.3dshapes/Filter_Murata_BNX025.wrl
    (at (xyz 0 0 0))
    (scale (xyz 1 1 1))
    (rotate (xyz 0 0 0))
  )
)
