(module Filter_Mini-Circuits_FV1206-5 (layer F.Cu) (tedit 5C118125)
  (descr "Mini-Circuits Filter SMD 1206 https://ww2.minicircuits.com/case_style/FV1206-5.pdf")
  (tags "Mini-Circuits Filter SMD 1206")
  (attr smd)
  (fp_text reference REF** (at 0 -2.4) (layer F.SilkS)
    (effects (font (size 1 1) (thickness 0.15)))
  )
  (fp_text value Filter_Mini-Circuits_FV1206-5 (at 0 2.4) (layer F.Fab)
    (effects (font (size 1 1) (thickness 0.15)))
  )
  (fp_line (start -1.13 -1.76) (end 1.13 -1.76) (layer F.CrtYd) (width 0.05))
  (fp_line (start 2.56 -0.56) (end 2.56 0.56) (layer F.CrtYd) (width 0.05))
  (fp_line (start -1.6 -0.8) (end 1.6 -0.8) (layer F.Fab) (width 0.1))
  (fp_line (start 1.6 -0.8) (end 1.6 0.8) (layer F.Fab) (width 0.1))
  (fp_line (start 1.6 0.8) (end -1.6 0.8) (layer F.Fab) (width 0.1))
  (fp_line (start -1.6 0.8) (end -1.6 0.4) (layer F.Fab) (width 0.1))
  (fp_text user %R (at 0 0) (layer F.Fab)
    (effects (font (size 0.8 0.8) (thickness 0.12)))
  )
  (fp_line (start -1.71 -0.57) (end -2.3 -0.57) (layer F.SilkS) (width 0.12))
  (fp_line (start 1.13 -0.91) (end 1.71 -0.91) (layer F.SilkS) (width 0.12))
  (fp_line (start 1.71 -0.91) (end 1.71 -0.57) (layer F.SilkS) (width 0.12))
  (fp_line (start 1.71 0.57) (end 1.71 0.91) (layer F.SilkS) (width 0.12))
  (fp_line (start 1.13 0.91) (end 1.71 0.91) (layer F.SilkS) (width 0.12))
  (fp_line (start -1.71 -0.91) (end -1.13 -0.91) (layer F.SilkS) (width 0.12))
  (fp_line (start -1.71 0.91) (end -1.13 0.91) (layer F.SilkS) (width 0.12))
  (fp_line (start -1.71 -0.91) (end -1.71 -0.57) (layer F.SilkS) (width 0.12))
  (fp_line (start -1.71 0.57) (end -1.71 0.91) (layer F.SilkS) (width 0.12))
  (fp_line (start -1.71 0.57) (end -2.3 0.57) (layer F.SilkS) (width 0.12))
  (fp_line (start -1.6 -0.8) (end -1.6 -0.4) (layer F.Fab) (width 0.1))
  (fp_line (start -1.2 0) (end -1.6 0.4) (layer F.Fab) (width 0.1))
  (fp_line (start -1.2 0) (end -1.6 -0.4) (layer F.Fab) (width 0.1))
  (fp_line (start 1.85 -1.05) (end 1.85 -0.56) (layer F.CrtYd) (width 0.05))
  (fp_line (start 1.13 -1.05) (end 1.85 -1.05) (layer F.CrtYd) (width 0.05))
  (fp_line (start 1.13 -1.05) (end 1.13 -1.76) (layer F.CrtYd) (width 0.05))
  (fp_line (start 1.85 -0.56) (end 2.56 -0.56) (layer F.CrtYd) (width 0.05))
  (fp_line (start 1.85 0.56) (end 2.56 0.56) (layer F.CrtYd) (width 0.05))
  (fp_line (start 1.85 0.56) (end 1.85 1.05) (layer F.CrtYd) (width 0.05))
  (fp_line (start 1.13 1.05) (end 1.85 1.05) (layer F.CrtYd) (width 0.05))
  (fp_line (start 1.13 1.76) (end 1.13 1.05) (layer F.CrtYd) (width 0.05))
  (fp_line (start -1.13 1.76) (end 1.13 1.76) (layer F.CrtYd) (width 0.05))
  (fp_line (start -1.13 1.76) (end -1.13 1.05) (layer F.CrtYd) (width 0.05))
  (fp_line (start -1.85 1.05) (end -1.13 1.05) (layer F.CrtYd) (width 0.05))
  (fp_line (start -1.85 0.56) (end -1.85 1.05) (layer F.CrtYd) (width 0.05))
  (fp_line (start -2.56 0.56) (end -1.85 0.56) (layer F.CrtYd) (width 0.05))
  (fp_line (start -2.56 -0.56) (end -2.56 0.56) (layer F.CrtYd) (width 0.05))
  (fp_line (start -2.56 -0.56) (end -1.85 -0.56) (layer F.CrtYd) (width 0.05))
  (fp_line (start -1.85 -1.05) (end -1.85 -0.56) (layer F.CrtYd) (width 0.05))
  (fp_line (start -1.85 -1.05) (end -1.13 -1.05) (layer F.CrtYd) (width 0.05))
  (fp_line (start -1.13 -1.05) (end -1.13 -1.76) (layer F.CrtYd) (width 0.05))
  (pad 1 smd roundrect (at -1.815 0) (size 0.99 0.61) (layers F.Cu F.Paste F.Mask) (roundrect_rratio 0.25))
  (pad 3 smd roundrect (at 1.815 0) (size 0.99 0.61) (layers F.Cu F.Paste F.Mask) (roundrect_rratio 0.25))
  (pad 2 smd roundrect (at 0 1.015) (size 1.75 0.99) (layers F.Cu F.Paste F.Mask) (roundrect_rratio 0.25))
  (pad 4 smd roundrect (at 0 -1.015) (size 1.75 0.99) (layers F.Cu F.Paste F.Mask) (roundrect_rratio 0.25))
  (pad 4 thru_hole circle (at -0.56 -1.195) (size 0.63 0.63) (drill 0.3) (layers *.Cu *.Mask))
  (pad 4 thru_hole circle (at 0.56 -1.195) (size 0.63 0.63) (drill 0.3) (layers *.Cu *.Mask))
  (pad 2 thru_hole circle (at 0.56 1.195) (size 0.63 0.63) (drill 0.3) (layers *.Cu *.Mask))
  (pad 2 thru_hole circle (at -0.56 1.195) (size 0.63 0.63) (drill 0.3) (layers *.Cu *.Mask))
  (model ${KICAD6_3DMODEL_DIR}/Filter.3dshapes/Filter_Mini-Circuits_FV1206-5.wrl
    (at (xyz 0 0 0))
    (scale (xyz 1 1 1))
    (rotate (xyz 0 0 0))
  )
)
