(module TerminalBlock_Phoenix_PT-1,5-14-5.0-H_1x14_P5.00mm_Horizontal (layer F.Cu) (tedit 5B294F88)
  (descr "Terminal Block Phoenix PT-1,5-14-5.0-H, 14 pins, pitch 5mm, size 70x9mm^2, drill diamater 1.3mm, pad diameter 2.6mm, see http://www.mouser.com/ds/2/324/ItemDetail_1935161-922578.pdf, script-generated using https://github.com/pointhi/kicad-footprint-generator/scripts/TerminalBlock_Phoenix")
  (tags "THT Terminal Block Phoenix PT-1,5-14-5.0-H pitch 5mm size 70x9mm^2 drill 1.3mm pad 2.6mm")
  (fp_text reference REF** (at 32.5 -5.06) (layer F.SilkS)
    (effects (font (size 1 1) (thickness 0.15)))
  )
  (fp_text value TerminalBlock_Phoenix_PT-1,5-14-5.0-H_1x14_P5.00mm_Horizontal (at 32.5 6.06) (layer F.Fab)
    (effects (font (size 1 1) (thickness 0.15)))
  )
  (fp_circle (center 0 0) (end 2 0) (layer F.Fab) (width 0.1))
  (fp_circle (center 0 0) (end 2.18 0) (layer F.SilkS) (width 0.12))
  (fp_circle (center 5 0) (end 7 0) (layer F.Fab) (width 0.1))
  (fp_circle (center 5 0) (end 7.18 0) (layer F.SilkS) (width 0.12))
  (fp_circle (center 10 0) (end 12 0) (layer F.Fab) (width 0.1))
  (fp_circle (center 10 0) (end 12.18 0) (layer F.SilkS) (width 0.12))
  (fp_circle (center 15 0) (end 17 0) (layer F.Fab) (width 0.1))
  (fp_circle (center 15 0) (end 17.18 0) (layer F.SilkS) (width 0.12))
  (fp_circle (center 20 0) (end 22 0) (layer F.Fab) (width 0.1))
  (fp_circle (center 20 0) (end 22.18 0) (layer F.SilkS) (width 0.12))
  (fp_circle (center 25 0) (end 27 0) (layer F.Fab) (width 0.1))
  (fp_circle (center 25 0) (end 27.18 0) (layer F.SilkS) (width 0.12))
  (fp_circle (center 30 0) (end 32 0) (layer F.Fab) (width 0.1))
  (fp_circle (center 30 0) (end 32.18 0) (layer F.SilkS) (width 0.12))
  (fp_circle (center 35 0) (end 37 0) (layer F.Fab) (width 0.1))
  (fp_circle (center 35 0) (end 37.18 0) (layer F.SilkS) (width 0.12))
  (fp_circle (center 40 0) (end 42 0) (layer F.Fab) (width 0.1))
  (fp_circle (center 40 0) (end 42.18 0) (layer F.SilkS) (width 0.12))
  (fp_circle (center 45 0) (end 47 0) (layer F.Fab) (width 0.1))
  (fp_circle (center 45 0) (end 47.18 0) (layer F.SilkS) (width 0.12))
  (fp_circle (center 50 0) (end 52 0) (layer F.Fab) (width 0.1))
  (fp_circle (center 50 0) (end 52.18 0) (layer F.SilkS) (width 0.12))
  (fp_circle (center 55 0) (end 57 0) (layer F.Fab) (width 0.1))
  (fp_circle (center 55 0) (end 57.18 0) (layer F.SilkS) (width 0.12))
  (fp_circle (center 60 0) (end 62 0) (layer F.Fab) (width 0.1))
  (fp_circle (center 60 0) (end 62.18 0) (layer F.SilkS) (width 0.12))
  (fp_circle (center 65 0) (end 67 0) (layer F.Fab) (width 0.1))
  (fp_circle (center 65 0) (end 67.18 0) (layer F.SilkS) (width 0.12))
  (fp_line (start -2.5 -4) (end 67.5 -4) (layer F.Fab) (width 0.1))
  (fp_line (start 67.5 -4) (end 67.5 5) (layer F.Fab) (width 0.1))
  (fp_line (start 67.5 5) (end -2.1 5) (layer F.Fab) (width 0.1))
  (fp_line (start -2.1 5) (end -2.5 4.6) (layer F.Fab) (width 0.1))
  (fp_line (start -2.5 4.6) (end -2.5 -4) (layer F.Fab) (width 0.1))
  (fp_line (start -2.5 4.6) (end 67.5 4.6) (layer F.Fab) (width 0.1))
  (fp_line (start -2.56 4.6) (end 67.56 4.6) (layer F.SilkS) (width 0.12))
  (fp_line (start -2.5 3.5) (end 67.5 3.5) (layer F.Fab) (width 0.1))
  (fp_line (start -2.56 3.5) (end 67.56 3.5) (layer F.SilkS) (width 0.12))
  (fp_line (start -2.56 -4.06) (end 67.56 -4.06) (layer F.SilkS) (width 0.12))
  (fp_line (start -2.56 5.06) (end 67.56 5.06) (layer F.SilkS) (width 0.12))
  (fp_line (start -2.56 -4.06) (end -2.56 5.06) (layer F.SilkS) (width 0.12))
  (fp_line (start 67.56 -4.06) (end 67.56 5.06) (layer F.SilkS) (width 0.12))
  (fp_line (start 1.517 -1.273) (end -1.273 1.517) (layer F.Fab) (width 0.1))
  (fp_line (start 1.273 -1.517) (end -1.517 1.273) (layer F.Fab) (width 0.1))
  (fp_line (start 1.654 -1.388) (end 1.547 -1.281) (layer F.SilkS) (width 0.12))
  (fp_line (start -1.282 1.547) (end -1.388 1.654) (layer F.SilkS) (width 0.12))
  (fp_line (start 1.388 -1.654) (end 1.281 -1.547) (layer F.SilkS) (width 0.12))
  (fp_line (start -1.548 1.281) (end -1.654 1.388) (layer F.SilkS) (width 0.12))
  (fp_line (start 6.517 -1.273) (end 3.728 1.517) (layer F.Fab) (width 0.1))
  (fp_line (start 6.273 -1.517) (end 3.484 1.273) (layer F.Fab) (width 0.1))
  (fp_line (start 6.654 -1.388) (end 6.259 -0.992) (layer F.SilkS) (width 0.12))
  (fp_line (start 3.993 1.274) (end 3.613 1.654) (layer F.SilkS) (width 0.12))
  (fp_line (start 6.388 -1.654) (end 6.008 -1.274) (layer F.SilkS) (width 0.12))
  (fp_line (start 3.742 0.992) (end 3.347 1.388) (layer F.SilkS) (width 0.12))
  (fp_line (start 11.517 -1.273) (end 8.728 1.517) (layer F.Fab) (width 0.1))
  (fp_line (start 11.273 -1.517) (end 8.484 1.273) (layer F.Fab) (width 0.1))
  (fp_line (start 11.654 -1.388) (end 11.259 -0.992) (layer F.SilkS) (width 0.12))
  (fp_line (start 8.993 1.274) (end 8.613 1.654) (layer F.SilkS) (width 0.12))
  (fp_line (start 11.388 -1.654) (end 11.008 -1.274) (layer F.SilkS) (width 0.12))
  (fp_line (start 8.742 0.992) (end 8.347 1.388) (layer F.SilkS) (width 0.12))
  (fp_line (start 16.517 -1.273) (end 13.728 1.517) (layer F.Fab) (width 0.1))
  (fp_line (start 16.273 -1.517) (end 13.484 1.273) (layer F.Fab) (width 0.1))
  (fp_line (start 16.654 -1.388) (end 16.259 -0.992) (layer F.SilkS) (width 0.12))
  (fp_line (start 13.993 1.274) (end 13.613 1.654) (layer F.SilkS) (width 0.12))
  (fp_line (start 16.388 -1.654) (end 16.008 -1.274) (layer F.SilkS) (width 0.12))
  (fp_line (start 13.742 0.992) (end 13.347 1.388) (layer F.SilkS) (width 0.12))
  (fp_line (start 21.517 -1.273) (end 18.728 1.517) (layer F.Fab) (width 0.1))
  (fp_line (start 21.273 -1.517) (end 18.484 1.273) (layer F.Fab) (width 0.1))
  (fp_line (start 21.654 -1.388) (end 21.259 -0.992) (layer F.SilkS) (width 0.12))
  (fp_line (start 18.993 1.274) (end 18.613 1.654) (layer F.SilkS) (width 0.12))
  (fp_line (start 21.388 -1.654) (end 21.008 -1.274) (layer F.SilkS) (width 0.12))
  (fp_line (start 18.742 0.992) (end 18.347 1.388) (layer F.SilkS) (width 0.12))
  (fp_line (start 26.517 -1.273) (end 23.728 1.517) (layer F.Fab) (width 0.1))
  (fp_line (start 26.273 -1.517) (end 23.484 1.273) (layer F.Fab) (width 0.1))
  (fp_line (start 26.654 -1.388) (end 26.259 -0.992) (layer F.SilkS) (width 0.12))
  (fp_line (start 23.993 1.274) (end 23.613 1.654) (layer F.SilkS) (width 0.12))
  (fp_line (start 26.388 -1.654) (end 26.008 -1.274) (layer F.SilkS) (width 0.12))
  (fp_line (start 23.742 0.992) (end 23.347 1.388) (layer F.SilkS) (width 0.12))
  (fp_line (start 31.517 -1.273) (end 28.728 1.517) (layer F.Fab) (width 0.1))
  (fp_line (start 31.273 -1.517) (end 28.484 1.273) (layer F.Fab) (width 0.1))
  (fp_line (start 31.654 -1.388) (end 31.259 -0.992) (layer F.SilkS) (width 0.12))
  (fp_line (start 28.993 1.274) (end 28.613 1.654) (layer F.SilkS) (width 0.12))
  (fp_line (start 31.388 -1.654) (end 31.008 -1.274) (layer F.SilkS) (width 0.12))
  (fp_line (start 28.742 0.992) (end 28.347 1.388) (layer F.SilkS) (width 0.12))
  (fp_line (start 36.517 -1.273) (end 33.728 1.517) (layer F.Fab) (width 0.1))
  (fp_line (start 36.273 -1.517) (end 33.484 1.273) (layer F.Fab) (width 0.1))
  (fp_line (start 36.654 -1.388) (end 36.259 -0.992) (layer F.SilkS) (width 0.12))
  (fp_line (start 33.993 1.274) (end 33.613 1.654) (layer F.SilkS) (width 0.12))
  (fp_line (start 36.388 -1.654) (end 36.008 -1.274) (layer F.SilkS) (width 0.12))
  (fp_line (start 33.742 0.992) (end 33.347 1.388) (layer F.SilkS) (width 0.12))
  (fp_line (start 41.517 -1.273) (end 38.728 1.517) (layer F.Fab) (width 0.1))
  (fp_line (start 41.273 -1.517) (end 38.484 1.273) (layer F.Fab) (width 0.1))
  (fp_line (start 41.654 -1.388) (end 41.259 -0.992) (layer F.SilkS) (width 0.12))
  (fp_line (start 38.993 1.274) (end 38.613 1.654) (layer F.SilkS) (width 0.12))
  (fp_line (start 41.388 -1.654) (end 41.008 -1.274) (layer F.SilkS) (width 0.12))
  (fp_line (start 38.742 0.992) (end 38.347 1.388) (layer F.SilkS) (width 0.12))
  (fp_line (start 46.517 -1.273) (end 43.728 1.517) (layer F.Fab) (width 0.1))
  (fp_line (start 46.273 -1.517) (end 43.484 1.273) (layer F.Fab) (width 0.1))
  (fp_line (start 46.654 -1.388) (end 46.259 -0.992) (layer F.SilkS) (width 0.12))
  (fp_line (start 43.993 1.274) (end 43.613 1.654) (layer F.SilkS) (width 0.12))
  (fp_line (start 46.388 -1.654) (end 46.008 -1.274) (layer F.SilkS) (width 0.12))
  (fp_line (start 43.742 0.992) (end 43.347 1.388) (layer F.SilkS) (width 0.12))
  (fp_line (start 51.517 -1.273) (end 48.728 1.517) (layer F.Fab) (width 0.1))
  (fp_line (start 51.273 -1.517) (end 48.484 1.273) (layer F.Fab) (width 0.1))
  (fp_line (start 51.654 -1.388) (end 51.259 -0.992) (layer F.SilkS) (width 0.12))
  (fp_line (start 48.993 1.274) (end 48.613 1.654) (layer F.SilkS) (width 0.12))
  (fp_line (start 51.388 -1.654) (end 51.008 -1.274) (layer F.SilkS) (width 0.12))
  (fp_line (start 48.742 0.992) (end 48.347 1.388) (layer F.SilkS) (width 0.12))
  (fp_line (start 56.517 -1.273) (end 53.728 1.517) (layer F.Fab) (width 0.1))
  (fp_line (start 56.273 -1.517) (end 53.484 1.273) (layer F.Fab) (width 0.1))
  (fp_line (start 56.654 -1.388) (end 56.259 -0.992) (layer F.SilkS) (width 0.12))
  (fp_line (start 53.993 1.274) (end 53.613 1.654) (layer F.SilkS) (width 0.12))
  (fp_line (start 56.388 -1.654) (end 56.008 -1.274) (layer F.SilkS) (width 0.12))
  (fp_line (start 53.742 0.992) (end 53.347 1.388) (layer F.SilkS) (width 0.12))
  (fp_line (start 61.517 -1.273) (end 58.728 1.517) (layer F.Fab) (width 0.1))
  (fp_line (start 61.273 -1.517) (end 58.484 1.273) (layer F.Fab) (width 0.1))
  (fp_line (start 61.654 -1.388) (end 61.259 -0.992) (layer F.SilkS) (width 0.12))
  (fp_line (start 58.993 1.274) (end 58.613 1.654) (layer F.SilkS) (width 0.12))
  (fp_line (start 61.388 -1.654) (end 61.008 -1.274) (layer F.SilkS) (width 0.12))
  (fp_line (start 58.742 0.992) (end 58.347 1.388) (layer F.SilkS) (width 0.12))
  (fp_line (start 66.517 -1.273) (end 63.728 1.517) (layer F.Fab) (width 0.1))
  (fp_line (start 66.273 -1.517) (end 63.484 1.273) (layer F.Fab) (width 0.1))
  (fp_line (start 66.654 -1.388) (end 66.259 -0.992) (layer F.SilkS) (width 0.12))
  (fp_line (start 63.993 1.274) (end 63.613 1.654) (layer F.SilkS) (width 0.12))
  (fp_line (start 66.388 -1.654) (end 66.008 -1.274) (layer F.SilkS) (width 0.12))
  (fp_line (start 63.742 0.992) (end 63.347 1.388) (layer F.SilkS) (width 0.12))
  (fp_line (start -2.8 4.66) (end -2.8 5.3) (layer F.SilkS) (width 0.12))
  (fp_line (start -2.8 5.3) (end -2.4 5.3) (layer F.SilkS) (width 0.12))
  (fp_line (start -3 -4.5) (end -3 5.5) (layer F.CrtYd) (width 0.05))
  (fp_line (start -3 5.5) (end 68 5.5) (layer F.CrtYd) (width 0.05))
  (fp_line (start 68 5.5) (end 68 -4.5) (layer F.CrtYd) (width 0.05))
  (fp_line (start 68 -4.5) (end -3 -4.5) (layer F.CrtYd) (width 0.05))
  (pad 1 thru_hole rect (at 0 0) (size 2.6 2.6) (drill 1.3) (layers *.Cu *.Mask))
  (pad 2 thru_hole circle (at 5 0) (size 2.6 2.6) (drill 1.3) (layers *.Cu *.Mask))
  (pad 3 thru_hole circle (at 10 0) (size 2.6 2.6) (drill 1.3) (layers *.Cu *.Mask))
  (pad 4 thru_hole circle (at 15 0) (size 2.6 2.6) (drill 1.3) (layers *.Cu *.Mask))
  (pad 5 thru_hole circle (at 20 0) (size 2.6 2.6) (drill 1.3) (layers *.Cu *.Mask))
  (pad 6 thru_hole circle (at 25 0) (size 2.6 2.6) (drill 1.3) (layers *.Cu *.Mask))
  (pad 7 thru_hole circle (at 30 0) (size 2.6 2.6) (drill 1.3) (layers *.Cu *.Mask))
  (pad 8 thru_hole circle (at 35 0) (size 2.6 2.6) (drill 1.3) (layers *.Cu *.Mask))
  (pad 9 thru_hole circle (at 40 0) (size 2.6 2.6) (drill 1.3) (layers *.Cu *.Mask))
  (pad 10 thru_hole circle (at 45 0) (size 2.6 2.6) (drill 1.3) (layers *.Cu *.Mask))
  (pad 11 thru_hole circle (at 50 0) (size 2.6 2.6) (drill 1.3) (layers *.Cu *.Mask))
  (pad 12 thru_hole circle (at 55 0) (size 2.6 2.6) (drill 1.3) (layers *.Cu *.Mask))
  (pad 13 thru_hole circle (at 60 0) (size 2.6 2.6) (drill 1.3) (layers *.Cu *.Mask))
  (pad 14 thru_hole circle (at 65 0) (size 2.6 2.6) (drill 1.3) (layers *.Cu *.Mask))
  (fp_text user %R (at 32.5 2.9) (layer F.Fab)
    (effects (font (size 1 1) (thickness 0.15)))
  )
  (model ${KICAD6_3DMODEL_DIR}/TerminalBlock_Phoenix.3dshapes/TerminalBlock_Phoenix_PT-1,5-14-5.0-H_1x14_P5.00mm_Horizontal.wrl
    (at (xyz 0 0 0))
    (scale (xyz 1 1 1))
    (rotate (xyz 0 0 0))
  )
)