(module TerminalBlock_Phoenix_MKDS-3-14-5.08_1x14_P5.08mm_Horizontal (layer F.Cu) (tedit 5B294F30)
  (descr "Terminal Block Phoenix MKDS-3-14-5.08, 14 pins, pitch 5.08mm, size 71.1x11.2mm^2, drill diamater 1.3mm, pad diameter 2.6mm, see http://www.farnell.com/datasheets/2138224.pdf, script-generated using https://github.com/pointhi/kicad-footprint-generator/scripts/TerminalBlock_Phoenix")
  (tags "THT Terminal Block Phoenix MKDS-3-14-5.08 pitch 5.08mm size 71.1x11.2mm^2 drill 1.3mm pad 2.6mm")
  (fp_text reference REF** (at 33.02 -6.96) (layer F.SilkS)
    (effects (font (size 1 1) (thickness 0.15)))
  )
  (fp_text value TerminalBlock_Phoenix_MKDS-3-14-5.08_1x14_P5.08mm_Horizontal (at 33.02 6.36) (layer F.Fab)
    (effects (font (size 1 1) (thickness 0.15)))
  )
  (fp_circle (center 0 0) (end 2 0) (layer F.Fab) (width 0.1))
  (fp_circle (center 0 0) (end 2.18 0) (layer F.SilkS) (width 0.12))
  (fp_circle (center 5.08 0) (end 7.08 0) (layer F.Fab) (width 0.1))
  (fp_circle (center 5.08 0) (end 7.26 0) (layer F.SilkS) (width 0.12))
  (fp_circle (center 10.16 0) (end 12.16 0) (layer F.Fab) (width 0.1))
  (fp_circle (center 10.16 0) (end 12.34 0) (layer F.SilkS) (width 0.12))
  (fp_circle (center 15.24 0) (end 17.24 0) (layer F.Fab) (width 0.1))
  (fp_circle (center 15.24 0) (end 17.42 0) (layer F.SilkS) (width 0.12))
  (fp_circle (center 20.32 0) (end 22.32 0) (layer F.Fab) (width 0.1))
  (fp_circle (center 20.32 0) (end 22.5 0) (layer F.SilkS) (width 0.12))
  (fp_circle (center 25.4 0) (end 27.4 0) (layer F.Fab) (width 0.1))
  (fp_circle (center 25.4 0) (end 27.58 0) (layer F.SilkS) (width 0.12))
  (fp_circle (center 30.48 0) (end 32.48 0) (layer F.Fab) (width 0.1))
  (fp_circle (center 30.48 0) (end 32.66 0) (layer F.SilkS) (width 0.12))
  (fp_circle (center 35.56 0) (end 37.56 0) (layer F.Fab) (width 0.1))
  (fp_circle (center 35.56 0) (end 37.74 0) (layer F.SilkS) (width 0.12))
  (fp_circle (center 40.64 0) (end 42.64 0) (layer F.Fab) (width 0.1))
  (fp_circle (center 40.64 0) (end 42.82 0) (layer F.SilkS) (width 0.12))
  (fp_circle (center 45.72 0) (end 47.72 0) (layer F.Fab) (width 0.1))
  (fp_circle (center 45.72 0) (end 47.9 0) (layer F.SilkS) (width 0.12))
  (fp_circle (center 50.8 0) (end 52.8 0) (layer F.Fab) (width 0.1))
  (fp_circle (center 50.8 0) (end 52.98 0) (layer F.SilkS) (width 0.12))
  (fp_circle (center 55.88 0) (end 57.88 0) (layer F.Fab) (width 0.1))
  (fp_circle (center 55.88 0) (end 58.06 0) (layer F.SilkS) (width 0.12))
  (fp_circle (center 60.96 0) (end 62.96 0) (layer F.Fab) (width 0.1))
  (fp_circle (center 60.96 0) (end 63.14 0) (layer F.SilkS) (width 0.12))
  (fp_circle (center 66.04 0) (end 68.04 0) (layer F.Fab) (width 0.1))
  (fp_circle (center 66.04 0) (end 68.22 0) (layer F.SilkS) (width 0.12))
  (fp_line (start -2.54 -5.9) (end 68.58 -5.9) (layer F.Fab) (width 0.1))
  (fp_line (start 68.58 -5.9) (end 68.58 5.3) (layer F.Fab) (width 0.1))
  (fp_line (start 68.58 5.3) (end -2.04 5.3) (layer F.Fab) (width 0.1))
  (fp_line (start -2.04 5.3) (end -2.54 4.8) (layer F.Fab) (width 0.1))
  (fp_line (start -2.54 4.8) (end -2.54 -5.9) (layer F.Fab) (width 0.1))
  (fp_line (start -2.54 4.8) (end 68.58 4.8) (layer F.Fab) (width 0.1))
  (fp_line (start -2.6 4.8) (end 68.641 4.8) (layer F.SilkS) (width 0.12))
  (fp_line (start -2.54 2.3) (end 68.58 2.3) (layer F.Fab) (width 0.1))
  (fp_line (start -2.6 2.3) (end 68.641 2.3) (layer F.SilkS) (width 0.12))
  (fp_line (start -2.54 -3.9) (end 68.58 -3.9) (layer F.Fab) (width 0.1))
  (fp_line (start -2.6 -3.9) (end 68.641 -3.9) (layer F.SilkS) (width 0.12))
  (fp_line (start -2.6 -5.96) (end 68.641 -5.96) (layer F.SilkS) (width 0.12))
  (fp_line (start -2.6 5.36) (end 68.641 5.36) (layer F.SilkS) (width 0.12))
  (fp_line (start -2.6 -5.96) (end -2.6 5.36) (layer F.SilkS) (width 0.12))
  (fp_line (start 68.641 -5.96) (end 68.641 5.36) (layer F.SilkS) (width 0.12))
  (fp_line (start 1.517 -1.273) (end -1.273 1.517) (layer F.Fab) (width 0.1))
  (fp_line (start 1.273 -1.517) (end -1.517 1.273) (layer F.Fab) (width 0.1))
  (fp_line (start 1.654 -1.388) (end 1.547 -1.281) (layer F.SilkS) (width 0.12))
  (fp_line (start -1.282 1.547) (end -1.388 1.654) (layer F.SilkS) (width 0.12))
  (fp_line (start 1.388 -1.654) (end 1.281 -1.547) (layer F.SilkS) (width 0.12))
  (fp_line (start -1.548 1.281) (end -1.654 1.388) (layer F.SilkS) (width 0.12))
  (fp_line (start 6.597 -1.273) (end 3.808 1.517) (layer F.Fab) (width 0.1))
  (fp_line (start 6.353 -1.517) (end 3.564 1.273) (layer F.Fab) (width 0.1))
  (fp_line (start 6.734 -1.388) (end 6.339 -0.992) (layer F.SilkS) (width 0.12))
  (fp_line (start 4.073 1.274) (end 3.693 1.654) (layer F.SilkS) (width 0.12))
  (fp_line (start 6.468 -1.654) (end 6.088 -1.274) (layer F.SilkS) (width 0.12))
  (fp_line (start 3.822 0.992) (end 3.427 1.388) (layer F.SilkS) (width 0.12))
  (fp_line (start 11.677 -1.273) (end 8.888 1.517) (layer F.Fab) (width 0.1))
  (fp_line (start 11.433 -1.517) (end 8.644 1.273) (layer F.Fab) (width 0.1))
  (fp_line (start 11.814 -1.388) (end 11.419 -0.992) (layer F.SilkS) (width 0.12))
  (fp_line (start 9.153 1.274) (end 8.773 1.654) (layer F.SilkS) (width 0.12))
  (fp_line (start 11.548 -1.654) (end 11.168 -1.274) (layer F.SilkS) (width 0.12))
  (fp_line (start 8.902 0.992) (end 8.507 1.388) (layer F.SilkS) (width 0.12))
  (fp_line (start 16.757 -1.273) (end 13.968 1.517) (layer F.Fab) (width 0.1))
  (fp_line (start 16.513 -1.517) (end 13.724 1.273) (layer F.Fab) (width 0.1))
  (fp_line (start 16.894 -1.388) (end 16.499 -0.992) (layer F.SilkS) (width 0.12))
  (fp_line (start 14.233 1.274) (end 13.853 1.654) (layer F.SilkS) (width 0.12))
  (fp_line (start 16.628 -1.654) (end 16.248 -1.274) (layer F.SilkS) (width 0.12))
  (fp_line (start 13.982 0.992) (end 13.587 1.388) (layer F.SilkS) (width 0.12))
  (fp_line (start 21.837 -1.273) (end 19.048 1.517) (layer F.Fab) (width 0.1))
  (fp_line (start 21.593 -1.517) (end 18.804 1.273) (layer F.Fab) (width 0.1))
  (fp_line (start 21.974 -1.388) (end 21.579 -0.992) (layer F.SilkS) (width 0.12))
  (fp_line (start 19.313 1.274) (end 18.933 1.654) (layer F.SilkS) (width 0.12))
  (fp_line (start 21.708 -1.654) (end 21.328 -1.274) (layer F.SilkS) (width 0.12))
  (fp_line (start 19.062 0.992) (end 18.667 1.388) (layer F.SilkS) (width 0.12))
  (fp_line (start 26.917 -1.273) (end 24.128 1.517) (layer F.Fab) (width 0.1))
  (fp_line (start 26.673 -1.517) (end 23.884 1.273) (layer F.Fab) (width 0.1))
  (fp_line (start 27.054 -1.388) (end 26.659 -0.992) (layer F.SilkS) (width 0.12))
  (fp_line (start 24.393 1.274) (end 24.013 1.654) (layer F.SilkS) (width 0.12))
  (fp_line (start 26.788 -1.654) (end 26.408 -1.274) (layer F.SilkS) (width 0.12))
  (fp_line (start 24.142 0.992) (end 23.747 1.388) (layer F.SilkS) (width 0.12))
  (fp_line (start 31.997 -1.273) (end 29.208 1.517) (layer F.Fab) (width 0.1))
  (fp_line (start 31.753 -1.517) (end 28.964 1.273) (layer F.Fab) (width 0.1))
  (fp_line (start 32.134 -1.388) (end 31.739 -0.992) (layer F.SilkS) (width 0.12))
  (fp_line (start 29.473 1.274) (end 29.093 1.654) (layer F.SilkS) (width 0.12))
  (fp_line (start 31.868 -1.654) (end 31.488 -1.274) (layer F.SilkS) (width 0.12))
  (fp_line (start 29.222 0.992) (end 28.827 1.388) (layer F.SilkS) (width 0.12))
  (fp_line (start 37.077 -1.273) (end 34.288 1.517) (layer F.Fab) (width 0.1))
  (fp_line (start 36.833 -1.517) (end 34.044 1.273) (layer F.Fab) (width 0.1))
  (fp_line (start 37.214 -1.388) (end 36.819 -0.992) (layer F.SilkS) (width 0.12))
  (fp_line (start 34.553 1.274) (end 34.173 1.654) (layer F.SilkS) (width 0.12))
  (fp_line (start 36.948 -1.654) (end 36.568 -1.274) (layer F.SilkS) (width 0.12))
  (fp_line (start 34.302 0.992) (end 33.907 1.388) (layer F.SilkS) (width 0.12))
  (fp_line (start 42.157 -1.273) (end 39.368 1.517) (layer F.Fab) (width 0.1))
  (fp_line (start 41.913 -1.517) (end 39.124 1.273) (layer F.Fab) (width 0.1))
  (fp_line (start 42.294 -1.388) (end 41.899 -0.992) (layer F.SilkS) (width 0.12))
  (fp_line (start 39.633 1.274) (end 39.253 1.654) (layer F.SilkS) (width 0.12))
  (fp_line (start 42.028 -1.654) (end 41.648 -1.274) (layer F.SilkS) (width 0.12))
  (fp_line (start 39.382 0.992) (end 38.987 1.388) (layer F.SilkS) (width 0.12))
  (fp_line (start 47.237 -1.273) (end 44.448 1.517) (layer F.Fab) (width 0.1))
  (fp_line (start 46.993 -1.517) (end 44.204 1.273) (layer F.Fab) (width 0.1))
  (fp_line (start 47.374 -1.388) (end 46.979 -0.992) (layer F.SilkS) (width 0.12))
  (fp_line (start 44.713 1.274) (end 44.333 1.654) (layer F.SilkS) (width 0.12))
  (fp_line (start 47.108 -1.654) (end 46.728 -1.274) (layer F.SilkS) (width 0.12))
  (fp_line (start 44.462 0.992) (end 44.067 1.388) (layer F.SilkS) (width 0.12))
  (fp_line (start 52.317 -1.273) (end 49.528 1.517) (layer F.Fab) (width 0.1))
  (fp_line (start 52.073 -1.517) (end 49.284 1.273) (layer F.Fab) (width 0.1))
  (fp_line (start 52.454 -1.388) (end 52.059 -0.992) (layer F.SilkS) (width 0.12))
  (fp_line (start 49.793 1.274) (end 49.413 1.654) (layer F.SilkS) (width 0.12))
  (fp_line (start 52.188 -1.654) (end 51.808 -1.274) (layer F.SilkS) (width 0.12))
  (fp_line (start 49.542 0.992) (end 49.147 1.388) (layer F.SilkS) (width 0.12))
  (fp_line (start 57.397 -1.273) (end 54.608 1.517) (layer F.Fab) (width 0.1))
  (fp_line (start 57.153 -1.517) (end 54.364 1.273) (layer F.Fab) (width 0.1))
  (fp_line (start 57.534 -1.388) (end 57.139 -0.992) (layer F.SilkS) (width 0.12))
  (fp_line (start 54.873 1.274) (end 54.493 1.654) (layer F.SilkS) (width 0.12))
  (fp_line (start 57.268 -1.654) (end 56.888 -1.274) (layer F.SilkS) (width 0.12))
  (fp_line (start 54.622 0.992) (end 54.227 1.388) (layer F.SilkS) (width 0.12))
  (fp_line (start 62.477 -1.273) (end 59.688 1.517) (layer F.Fab) (width 0.1))
  (fp_line (start 62.233 -1.517) (end 59.444 1.273) (layer F.Fab) (width 0.1))
  (fp_line (start 62.614 -1.388) (end 62.219 -0.992) (layer F.SilkS) (width 0.12))
  (fp_line (start 59.953 1.274) (end 59.573 1.654) (layer F.SilkS) (width 0.12))
  (fp_line (start 62.348 -1.654) (end 61.968 -1.274) (layer F.SilkS) (width 0.12))
  (fp_line (start 59.702 0.992) (end 59.307 1.388) (layer F.SilkS) (width 0.12))
  (fp_line (start 67.557 -1.273) (end 64.768 1.517) (layer F.Fab) (width 0.1))
  (fp_line (start 67.313 -1.517) (end 64.524 1.273) (layer F.Fab) (width 0.1))
  (fp_line (start 67.694 -1.388) (end 67.299 -0.992) (layer F.SilkS) (width 0.12))
  (fp_line (start 65.033 1.274) (end 64.653 1.654) (layer F.SilkS) (width 0.12))
  (fp_line (start 67.428 -1.654) (end 67.048 -1.274) (layer F.SilkS) (width 0.12))
  (fp_line (start 64.782 0.992) (end 64.387 1.388) (layer F.SilkS) (width 0.12))
  (fp_line (start -2.84 4.86) (end -2.84 5.6) (layer F.SilkS) (width 0.12))
  (fp_line (start -2.84 5.6) (end -2.34 5.6) (layer F.SilkS) (width 0.12))
  (fp_line (start -3.04 -6.4) (end -3.04 5.8) (layer F.CrtYd) (width 0.05))
  (fp_line (start -3.04 5.8) (end 69.08 5.8) (layer F.CrtYd) (width 0.05))
  (fp_line (start 69.08 5.8) (end 69.08 -6.4) (layer F.CrtYd) (width 0.05))
  (fp_line (start 69.08 -6.4) (end -3.04 -6.4) (layer F.CrtYd) (width 0.05))
  (pad 1 thru_hole rect (at 0 0) (size 2.6 2.6) (drill 1.3) (layers *.Cu *.Mask))
  (pad 2 thru_hole circle (at 5.08 0) (size 2.6 2.6) (drill 1.3) (layers *.Cu *.Mask))
  (pad 3 thru_hole circle (at 10.16 0) (size 2.6 2.6) (drill 1.3) (layers *.Cu *.Mask))
  (pad 4 thru_hole circle (at 15.24 0) (size 2.6 2.6) (drill 1.3) (layers *.Cu *.Mask))
  (pad 5 thru_hole circle (at 20.32 0) (size 2.6 2.6) (drill 1.3) (layers *.Cu *.Mask))
  (pad 6 thru_hole circle (at 25.4 0) (size 2.6 2.6) (drill 1.3) (layers *.Cu *.Mask))
  (pad 7 thru_hole circle (at 30.48 0) (size 2.6 2.6) (drill 1.3) (layers *.Cu *.Mask))
  (pad 8 thru_hole circle (at 35.56 0) (size 2.6 2.6) (drill 1.3) (layers *.Cu *.Mask))
  (pad 9 thru_hole circle (at 40.64 0) (size 2.6 2.6) (drill 1.3) (layers *.Cu *.Mask))
  (pad 10 thru_hole circle (at 45.72 0) (size 2.6 2.6) (drill 1.3) (layers *.Cu *.Mask))
  (pad 11 thru_hole circle (at 50.8 0) (size 2.6 2.6) (drill 1.3) (layers *.Cu *.Mask))
  (pad 12 thru_hole circle (at 55.88 0) (size 2.6 2.6) (drill 1.3) (layers *.Cu *.Mask))
  (pad 13 thru_hole circle (at 60.96 0) (size 2.6 2.6) (drill 1.3) (layers *.Cu *.Mask))
  (pad 14 thru_hole circle (at 66.04 0) (size 2.6 2.6) (drill 1.3) (layers *.Cu *.Mask))
  (fp_text user %R (at 33.02 3.1) (layer F.Fab)
    (effects (font (size 1 1) (thickness 0.15)))
  )
  (model ${KICAD6_3DMODEL_DIR}/TerminalBlock_Phoenix.3dshapes/TerminalBlock_Phoenix_MKDS-3-14-5.08_1x14_P5.08mm_Horizontal.wrl
    (at (xyz 0 0 0))
    (scale (xyz 1 1 1))
    (rotate (xyz 0 0 0))
  )
)