(module TerminalBlock_Phoenix_MKDS-1,5-3_1x03_P5.00mm_Horizontal (layer F.Cu) (tedit 5B294EE5)
  (descr "Terminal Block Phoenix MKDS-1,5-3, 3 pins, pitch 5mm, size 15x9.8mm^2, drill diamater 1.3mm, pad diameter 2.6mm, see http://www.farnell.com/datasheets/100425.pdf, script-generated using https://github.com/pointhi/kicad-footprint-generator/scripts/TerminalBlock_Phoenix")
  (tags "THT Terminal Block Phoenix MKDS-1,5-3 pitch 5mm size 15x9.8mm^2 drill 1.3mm pad 2.6mm")
  (fp_text reference REF** (at 5 -6.26) (layer F.SilkS)
    (effects (font (size 1 1) (thickness 0.15)))
  )
  (fp_text value TerminalBlock_Phoenix_MKDS-1,5-3_1x03_P5.00mm_Horizontal (at 5 5.66) (layer F.Fab)
    (effects (font (size 1 1) (thickness 0.15)))
  )
  (fp_arc (start 0 0) (end 0 1.68) (angle -24) (layer F.SilkS) (width 0.12))
  (fp_arc (start 0 0) (end 1.535 0.684) (angle -48) (layer F.SilkS) (width 0.12))
  (fp_arc (start 0 0) (end 0.684 -1.535) (angle -48) (layer F.SilkS) (width 0.12))
  (fp_arc (start 0 0) (end -1.535 -0.684) (angle -48) (layer F.SilkS) (width 0.12))
  (fp_arc (start 0 0) (end -0.684 1.535) (angle -25) (layer F.SilkS) (width 0.12))
  (fp_circle (center 0 0) (end 1.5 0) (layer F.Fab) (width 0.1))
  (fp_circle (center 5 0) (end 6.5 0) (layer F.Fab) (width 0.1))
  (fp_circle (center 5 0) (end 6.68 0) (layer F.SilkS) (width 0.12))
  (fp_circle (center 10 0) (end 11.5 0) (layer F.Fab) (width 0.1))
  (fp_circle (center 10 0) (end 11.68 0) (layer F.SilkS) (width 0.12))
  (fp_line (start -2.5 -5.2) (end 12.5 -5.2) (layer F.Fab) (width 0.1))
  (fp_line (start 12.5 -5.2) (end 12.5 4.6) (layer F.Fab) (width 0.1))
  (fp_line (start 12.5 4.6) (end -2 4.6) (layer F.Fab) (width 0.1))
  (fp_line (start -2 4.6) (end -2.5 4.1) (layer F.Fab) (width 0.1))
  (fp_line (start -2.5 4.1) (end -2.5 -5.2) (layer F.Fab) (width 0.1))
  (fp_line (start -2.5 4.1) (end 12.5 4.1) (layer F.Fab) (width 0.1))
  (fp_line (start -2.56 4.1) (end 12.56 4.1) (layer F.SilkS) (width 0.12))
  (fp_line (start -2.5 2.6) (end 12.5 2.6) (layer F.Fab) (width 0.1))
  (fp_line (start -2.56 2.6) (end 12.56 2.6) (layer F.SilkS) (width 0.12))
  (fp_line (start -2.5 -2.3) (end 12.5 -2.3) (layer F.Fab) (width 0.1))
  (fp_line (start -2.56 -2.301) (end 12.56 -2.301) (layer F.SilkS) (width 0.12))
  (fp_line (start -2.56 -5.261) (end 12.56 -5.261) (layer F.SilkS) (width 0.12))
  (fp_line (start -2.56 4.66) (end 12.56 4.66) (layer F.SilkS) (width 0.12))
  (fp_line (start -2.56 -5.261) (end -2.56 4.66) (layer F.SilkS) (width 0.12))
  (fp_line (start 12.56 -5.261) (end 12.56 4.66) (layer F.SilkS) (width 0.12))
  (fp_line (start 1.138 -0.955) (end -0.955 1.138) (layer F.Fab) (width 0.1))
  (fp_line (start 0.955 -1.138) (end -1.138 0.955) (layer F.Fab) (width 0.1))
  (fp_line (start 6.138 -0.955) (end 4.046 1.138) (layer F.Fab) (width 0.1))
  (fp_line (start 5.955 -1.138) (end 3.863 0.955) (layer F.Fab) (width 0.1))
  (fp_line (start 6.275 -1.069) (end 6.228 -1.023) (layer F.SilkS) (width 0.12))
  (fp_line (start 3.966 1.239) (end 3.931 1.274) (layer F.SilkS) (width 0.12))
  (fp_line (start 6.07 -1.275) (end 6.035 -1.239) (layer F.SilkS) (width 0.12))
  (fp_line (start 3.773 1.023) (end 3.726 1.069) (layer F.SilkS) (width 0.12))
  (fp_line (start 11.138 -0.955) (end 9.046 1.138) (layer F.Fab) (width 0.1))
  (fp_line (start 10.955 -1.138) (end 8.863 0.955) (layer F.Fab) (width 0.1))
  (fp_line (start 11.275 -1.069) (end 11.228 -1.023) (layer F.SilkS) (width 0.12))
  (fp_line (start 8.966 1.239) (end 8.931 1.274) (layer F.SilkS) (width 0.12))
  (fp_line (start 11.07 -1.275) (end 11.035 -1.239) (layer F.SilkS) (width 0.12))
  (fp_line (start 8.773 1.023) (end 8.726 1.069) (layer F.SilkS) (width 0.12))
  (fp_line (start -2.8 4.16) (end -2.8 4.9) (layer F.SilkS) (width 0.12))
  (fp_line (start -2.8 4.9) (end -2.3 4.9) (layer F.SilkS) (width 0.12))
  (fp_line (start -3 -5.71) (end -3 5.1) (layer F.CrtYd) (width 0.05))
  (fp_line (start -3 5.1) (end 13 5.1) (layer F.CrtYd) (width 0.05))
  (fp_line (start 13 5.1) (end 13 -5.71) (layer F.CrtYd) (width 0.05))
  (fp_line (start 13 -5.71) (end -3 -5.71) (layer F.CrtYd) (width 0.05))
  (pad 1 thru_hole rect (at 0 0) (size 2.6 2.6) (drill 1.3) (layers *.Cu *.Mask))
  (pad 2 thru_hole circle (at 5 0) (size 2.6 2.6) (drill 1.3) (layers *.Cu *.Mask))
  (pad 3 thru_hole circle (at 10 0) (size 2.6 2.6) (drill 1.3) (layers *.Cu *.Mask))
  (fp_text user %R (at 5 3.2) (layer F.Fab)
    (effects (font (size 1 1) (thickness 0.15)))
  )
  (model ${KICAD6_3DMODEL_DIR}/TerminalBlock_Phoenix.3dshapes/TerminalBlock_Phoenix_MKDS-1,5-3_1x03_P5.00mm_Horizontal.wrl
    (at (xyz 0 0 0))
    (scale (xyz 1 1 1))
    (rotate (xyz 0 0 0))
  )
)