(module TerminalBlock_Phoenix_MKDS-1,5-12-5.08_1x12_P5.08mm_Horizontal (layer F.Cu) (tedit 5B294ECC)
  (descr "Terminal Block Phoenix MKDS-1,5-12-5.08, 12 pins, pitch 5.08mm, size 61x9.8mm^2, drill diamater 1.3mm, pad diameter 2.6mm, see http://www.farnell.com/datasheets/100425.pdf, script-generated using https://github.com/pointhi/kicad-footprint-generator/scripts/TerminalBlock_Phoenix")
  (tags "THT Terminal Block Phoenix MKDS-1,5-12-5.08 pitch 5.08mm size 61x9.8mm^2 drill 1.3mm pad 2.6mm")
  (fp_text reference REF** (at 27.94 -6.26) (layer F.SilkS)
    (effects (font (size 1 1) (thickness 0.15)))
  )
  (fp_text value TerminalBlock_Phoenix_MKDS-1,5-12-5.08_1x12_P5.08mm_Horizontal (at 27.94 5.66) (layer F.Fab)
    (effects (font (size 1 1) (thickness 0.15)))
  )
  (fp_arc (start 0 0) (end 0 1.68) (angle -24) (layer F.SilkS) (width 0.12))
  (fp_arc (start 0 0) (end 1.535 0.684) (angle -48) (layer F.SilkS) (width 0.12))
  (fp_arc (start 0 0) (end 0.684 -1.535) (angle -48) (layer F.SilkS) (width 0.12))
  (fp_arc (start 0 0) (end -1.535 -0.684) (angle -48) (layer F.SilkS) (width 0.12))
  (fp_arc (start 0 0) (end -0.684 1.535) (angle -25) (layer F.SilkS) (width 0.12))
  (fp_circle (center 0 0) (end 1.5 0) (layer F.Fab) (width 0.1))
  (fp_circle (center 5.08 0) (end 6.58 0) (layer F.Fab) (width 0.1))
  (fp_circle (center 5.08 0) (end 6.76 0) (layer F.SilkS) (width 0.12))
  (fp_circle (center 10.16 0) (end 11.66 0) (layer F.Fab) (width 0.1))
  (fp_circle (center 10.16 0) (end 11.84 0) (layer F.SilkS) (width 0.12))
  (fp_circle (center 15.24 0) (end 16.74 0) (layer F.Fab) (width 0.1))
  (fp_circle (center 15.24 0) (end 16.92 0) (layer F.SilkS) (width 0.12))
  (fp_circle (center 20.32 0) (end 21.82 0) (layer F.Fab) (width 0.1))
  (fp_circle (center 20.32 0) (end 22 0) (layer F.SilkS) (width 0.12))
  (fp_circle (center 25.4 0) (end 26.9 0) (layer F.Fab) (width 0.1))
  (fp_circle (center 25.4 0) (end 27.08 0) (layer F.SilkS) (width 0.12))
  (fp_circle (center 30.48 0) (end 31.98 0) (layer F.Fab) (width 0.1))
  (fp_circle (center 30.48 0) (end 32.16 0) (layer F.SilkS) (width 0.12))
  (fp_circle (center 35.56 0) (end 37.06 0) (layer F.Fab) (width 0.1))
  (fp_circle (center 35.56 0) (end 37.24 0) (layer F.SilkS) (width 0.12))
  (fp_circle (center 40.64 0) (end 42.14 0) (layer F.Fab) (width 0.1))
  (fp_circle (center 40.64 0) (end 42.32 0) (layer F.SilkS) (width 0.12))
  (fp_circle (center 45.72 0) (end 47.22 0) (layer F.Fab) (width 0.1))
  (fp_circle (center 45.72 0) (end 47.4 0) (layer F.SilkS) (width 0.12))
  (fp_circle (center 50.8 0) (end 52.3 0) (layer F.Fab) (width 0.1))
  (fp_circle (center 50.8 0) (end 52.48 0) (layer F.SilkS) (width 0.12))
  (fp_circle (center 55.88 0) (end 57.38 0) (layer F.Fab) (width 0.1))
  (fp_circle (center 55.88 0) (end 57.56 0) (layer F.SilkS) (width 0.12))
  (fp_line (start -2.54 -5.2) (end 58.42 -5.2) (layer F.Fab) (width 0.1))
  (fp_line (start 58.42 -5.2) (end 58.42 4.6) (layer F.Fab) (width 0.1))
  (fp_line (start 58.42 4.6) (end -2.04 4.6) (layer F.Fab) (width 0.1))
  (fp_line (start -2.04 4.6) (end -2.54 4.1) (layer F.Fab) (width 0.1))
  (fp_line (start -2.54 4.1) (end -2.54 -5.2) (layer F.Fab) (width 0.1))
  (fp_line (start -2.54 4.1) (end 58.42 4.1) (layer F.Fab) (width 0.1))
  (fp_line (start -2.6 4.1) (end 58.48 4.1) (layer F.SilkS) (width 0.12))
  (fp_line (start -2.54 2.6) (end 58.42 2.6) (layer F.Fab) (width 0.1))
  (fp_line (start -2.6 2.6) (end 58.48 2.6) (layer F.SilkS) (width 0.12))
  (fp_line (start -2.54 -2.3) (end 58.42 -2.3) (layer F.Fab) (width 0.1))
  (fp_line (start -2.6 -2.301) (end 58.48 -2.301) (layer F.SilkS) (width 0.12))
  (fp_line (start -2.6 -5.261) (end 58.48 -5.261) (layer F.SilkS) (width 0.12))
  (fp_line (start -2.6 4.66) (end 58.48 4.66) (layer F.SilkS) (width 0.12))
  (fp_line (start -2.6 -5.261) (end -2.6 4.66) (layer F.SilkS) (width 0.12))
  (fp_line (start 58.48 -5.261) (end 58.48 4.66) (layer F.SilkS) (width 0.12))
  (fp_line (start 1.138 -0.955) (end -0.955 1.138) (layer F.Fab) (width 0.1))
  (fp_line (start 0.955 -1.138) (end -1.138 0.955) (layer F.Fab) (width 0.1))
  (fp_line (start 6.218 -0.955) (end 4.126 1.138) (layer F.Fab) (width 0.1))
  (fp_line (start 6.035 -1.138) (end 3.943 0.955) (layer F.Fab) (width 0.1))
  (fp_line (start 6.355 -1.069) (end 6.308 -1.023) (layer F.SilkS) (width 0.12))
  (fp_line (start 4.046 1.239) (end 4.011 1.274) (layer F.SilkS) (width 0.12))
  (fp_line (start 6.15 -1.275) (end 6.115 -1.239) (layer F.SilkS) (width 0.12))
  (fp_line (start 3.853 1.023) (end 3.806 1.069) (layer F.SilkS) (width 0.12))
  (fp_line (start 11.298 -0.955) (end 9.206 1.138) (layer F.Fab) (width 0.1))
  (fp_line (start 11.115 -1.138) (end 9.023 0.955) (layer F.Fab) (width 0.1))
  (fp_line (start 11.435 -1.069) (end 11.388 -1.023) (layer F.SilkS) (width 0.12))
  (fp_line (start 9.126 1.239) (end 9.091 1.274) (layer F.SilkS) (width 0.12))
  (fp_line (start 11.23 -1.275) (end 11.195 -1.239) (layer F.SilkS) (width 0.12))
  (fp_line (start 8.933 1.023) (end 8.886 1.069) (layer F.SilkS) (width 0.12))
  (fp_line (start 16.378 -0.955) (end 14.286 1.138) (layer F.Fab) (width 0.1))
  (fp_line (start 16.195 -1.138) (end 14.103 0.955) (layer F.Fab) (width 0.1))
  (fp_line (start 16.515 -1.069) (end 16.468 -1.023) (layer F.SilkS) (width 0.12))
  (fp_line (start 14.206 1.239) (end 14.171 1.274) (layer F.SilkS) (width 0.12))
  (fp_line (start 16.31 -1.275) (end 16.275 -1.239) (layer F.SilkS) (width 0.12))
  (fp_line (start 14.013 1.023) (end 13.966 1.069) (layer F.SilkS) (width 0.12))
  (fp_line (start 21.458 -0.955) (end 19.366 1.138) (layer F.Fab) (width 0.1))
  (fp_line (start 21.275 -1.138) (end 19.183 0.955) (layer F.Fab) (width 0.1))
  (fp_line (start 21.595 -1.069) (end 21.548 -1.023) (layer F.SilkS) (width 0.12))
  (fp_line (start 19.286 1.239) (end 19.251 1.274) (layer F.SilkS) (width 0.12))
  (fp_line (start 21.39 -1.275) (end 21.355 -1.239) (layer F.SilkS) (width 0.12))
  (fp_line (start 19.093 1.023) (end 19.046 1.069) (layer F.SilkS) (width 0.12))
  (fp_line (start 26.538 -0.955) (end 24.446 1.138) (layer F.Fab) (width 0.1))
  (fp_line (start 26.355 -1.138) (end 24.263 0.955) (layer F.Fab) (width 0.1))
  (fp_line (start 26.675 -1.069) (end 26.628 -1.023) (layer F.SilkS) (width 0.12))
  (fp_line (start 24.366 1.239) (end 24.331 1.274) (layer F.SilkS) (width 0.12))
  (fp_line (start 26.47 -1.275) (end 26.435 -1.239) (layer F.SilkS) (width 0.12))
  (fp_line (start 24.173 1.023) (end 24.126 1.069) (layer F.SilkS) (width 0.12))
  (fp_line (start 31.618 -0.955) (end 29.526 1.138) (layer F.Fab) (width 0.1))
  (fp_line (start 31.435 -1.138) (end 29.343 0.955) (layer F.Fab) (width 0.1))
  (fp_line (start 31.755 -1.069) (end 31.708 -1.023) (layer F.SilkS) (width 0.12))
  (fp_line (start 29.446 1.239) (end 29.411 1.274) (layer F.SilkS) (width 0.12))
  (fp_line (start 31.55 -1.275) (end 31.515 -1.239) (layer F.SilkS) (width 0.12))
  (fp_line (start 29.253 1.023) (end 29.206 1.069) (layer F.SilkS) (width 0.12))
  (fp_line (start 36.698 -0.955) (end 34.606 1.138) (layer F.Fab) (width 0.1))
  (fp_line (start 36.515 -1.138) (end 34.423 0.955) (layer F.Fab) (width 0.1))
  (fp_line (start 36.835 -1.069) (end 36.788 -1.023) (layer F.SilkS) (width 0.12))
  (fp_line (start 34.526 1.239) (end 34.491 1.274) (layer F.SilkS) (width 0.12))
  (fp_line (start 36.63 -1.275) (end 36.595 -1.239) (layer F.SilkS) (width 0.12))
  (fp_line (start 34.333 1.023) (end 34.286 1.069) (layer F.SilkS) (width 0.12))
  (fp_line (start 41.778 -0.955) (end 39.686 1.138) (layer F.Fab) (width 0.1))
  (fp_line (start 41.595 -1.138) (end 39.503 0.955) (layer F.Fab) (width 0.1))
  (fp_line (start 41.915 -1.069) (end 41.868 -1.023) (layer F.SilkS) (width 0.12))
  (fp_line (start 39.606 1.239) (end 39.571 1.274) (layer F.SilkS) (width 0.12))
  (fp_line (start 41.71 -1.275) (end 41.675 -1.239) (layer F.SilkS) (width 0.12))
  (fp_line (start 39.413 1.023) (end 39.366 1.069) (layer F.SilkS) (width 0.12))
  (fp_line (start 46.858 -0.955) (end 44.766 1.138) (layer F.Fab) (width 0.1))
  (fp_line (start 46.675 -1.138) (end 44.583 0.955) (layer F.Fab) (width 0.1))
  (fp_line (start 46.995 -1.069) (end 46.948 -1.023) (layer F.SilkS) (width 0.12))
  (fp_line (start 44.686 1.239) (end 44.651 1.274) (layer F.SilkS) (width 0.12))
  (fp_line (start 46.79 -1.275) (end 46.755 -1.239) (layer F.SilkS) (width 0.12))
  (fp_line (start 44.493 1.023) (end 44.446 1.069) (layer F.SilkS) (width 0.12))
  (fp_line (start 51.938 -0.955) (end 49.846 1.138) (layer F.Fab) (width 0.1))
  (fp_line (start 51.755 -1.138) (end 49.663 0.955) (layer F.Fab) (width 0.1))
  (fp_line (start 52.075 -1.069) (end 52.028 -1.023) (layer F.SilkS) (width 0.12))
  (fp_line (start 49.766 1.239) (end 49.731 1.274) (layer F.SilkS) (width 0.12))
  (fp_line (start 51.87 -1.275) (end 51.835 -1.239) (layer F.SilkS) (width 0.12))
  (fp_line (start 49.573 1.023) (end 49.526 1.069) (layer F.SilkS) (width 0.12))
  (fp_line (start 57.018 -0.955) (end 54.926 1.138) (layer F.Fab) (width 0.1))
  (fp_line (start 56.835 -1.138) (end 54.743 0.955) (layer F.Fab) (width 0.1))
  (fp_line (start 57.155 -1.069) (end 57.108 -1.023) (layer F.SilkS) (width 0.12))
  (fp_line (start 54.846 1.239) (end 54.811 1.274) (layer F.SilkS) (width 0.12))
  (fp_line (start 56.95 -1.275) (end 56.915 -1.239) (layer F.SilkS) (width 0.12))
  (fp_line (start 54.653 1.023) (end 54.606 1.069) (layer F.SilkS) (width 0.12))
  (fp_line (start -2.84 4.16) (end -2.84 4.9) (layer F.SilkS) (width 0.12))
  (fp_line (start -2.84 4.9) (end -2.34 4.9) (layer F.SilkS) (width 0.12))
  (fp_line (start -3.04 -5.71) (end -3.04 5.1) (layer F.CrtYd) (width 0.05))
  (fp_line (start -3.04 5.1) (end 58.92 5.1) (layer F.CrtYd) (width 0.05))
  (fp_line (start 58.92 5.1) (end 58.92 -5.71) (layer F.CrtYd) (width 0.05))
  (fp_line (start 58.92 -5.71) (end -3.04 -5.71) (layer F.CrtYd) (width 0.05))
  (pad 1 thru_hole rect (at 0 0) (size 2.6 2.6) (drill 1.3) (layers *.Cu *.Mask))
  (pad 2 thru_hole circle (at 5.08 0) (size 2.6 2.6) (drill 1.3) (layers *.Cu *.Mask))
  (pad 3 thru_hole circle (at 10.16 0) (size 2.6 2.6) (drill 1.3) (layers *.Cu *.Mask))
  (pad 4 thru_hole circle (at 15.24 0) (size 2.6 2.6) (drill 1.3) (layers *.Cu *.Mask))
  (pad 5 thru_hole circle (at 20.32 0) (size 2.6 2.6) (drill 1.3) (layers *.Cu *.Mask))
  (pad 6 thru_hole circle (at 25.4 0) (size 2.6 2.6) (drill 1.3) (layers *.Cu *.Mask))
  (pad 7 thru_hole circle (at 30.48 0) (size 2.6 2.6) (drill 1.3) (layers *.Cu *.Mask))
  (pad 8 thru_hole circle (at 35.56 0) (size 2.6 2.6) (drill 1.3) (layers *.Cu *.Mask))
  (pad 9 thru_hole circle (at 40.64 0) (size 2.6 2.6) (drill 1.3) (layers *.Cu *.Mask))
  (pad 10 thru_hole circle (at 45.72 0) (size 2.6 2.6) (drill 1.3) (layers *.Cu *.Mask))
  (pad 11 thru_hole circle (at 50.8 0) (size 2.6 2.6) (drill 1.3) (layers *.Cu *.Mask))
  (pad 12 thru_hole circle (at 55.88 0) (size 2.6 2.6) (drill 1.3) (layers *.Cu *.Mask))
  (fp_text user %R (at 27.94 3.2) (layer F.Fab)
    (effects (font (size 1 1) (thickness 0.15)))
  )
  (model ${KICAD6_3DMODEL_DIR}/TerminalBlock_Phoenix.3dshapes/TerminalBlock_Phoenix_MKDS-1,5-12-5.08_1x12_P5.08mm_Horizontal.wrl
    (at (xyz 0 0 0))
    (scale (xyz 1 1 1))
    (rotate (xyz 0 0 0))
  )
)