(module TerminalBlock_Phoenix_MPT-0,5-5-2.54_1x05_P2.54mm_Horizontal (layer F.Cu) (tedit 5B294F99)
  (descr "Terminal Block Phoenix MPT-0,5-5-2.54, 5 pins, pitch 2.54mm, size 13.2x6.2mm^2, drill diamater 1.1mm, pad diameter 2.2mm, see http://www.mouser.com/ds/2/324/ItemDetail_1725672-916605.pdf, script-generated using https://github.com/pointhi/kicad-footprint-generator/scripts/TerminalBlock_Phoenix")
  (tags "THT Terminal Block Phoenix MPT-0,5-5-2.54 pitch 2.54mm size 13.2x6.2mm^2 drill 1.1mm pad 2.2mm")
  (fp_text reference REF** (at 5.08 -4.16) (layer F.SilkS)
    (effects (font (size 1 1) (thickness 0.15)))
  )
  (fp_text value TerminalBlock_Phoenix_MPT-0,5-5-2.54_1x05_P2.54mm_Horizontal (at 5.08 4.16) (layer F.Fab)
    (effects (font (size 1 1) (thickness 0.15)))
  )
  (fp_circle (center 0 0) (end 1.1 0) (layer F.Fab) (width 0.1))
  (fp_circle (center 2.54 0) (end 3.64 0) (layer F.Fab) (width 0.1))
  (fp_circle (center 5.08 0) (end 6.18 0) (layer F.Fab) (width 0.1))
  (fp_circle (center 7.62 0) (end 8.72 0) (layer F.Fab) (width 0.1))
  (fp_circle (center 10.16 0) (end 11.26 0) (layer F.Fab) (width 0.1))
  (fp_line (start -1.5 -3.1) (end 11.66 -3.1) (layer F.Fab) (width 0.1))
  (fp_line (start 11.66 -3.1) (end 11.66 3.1) (layer F.Fab) (width 0.1))
  (fp_line (start 11.66 3.1) (end -1 3.1) (layer F.Fab) (width 0.1))
  (fp_line (start -1 3.1) (end -1.5 2.6) (layer F.Fab) (width 0.1))
  (fp_line (start -1.5 2.6) (end -1.5 -3.1) (layer F.Fab) (width 0.1))
  (fp_line (start -1.5 2.6) (end 11.66 2.6) (layer F.Fab) (width 0.1))
  (fp_line (start -1.56 2.6) (end 11.72 2.6) (layer F.SilkS) (width 0.12))
  (fp_line (start -1.5 -2.7) (end 11.66 -2.7) (layer F.Fab) (width 0.1))
  (fp_line (start -1.56 -2.7) (end 11.72 -2.7) (layer F.SilkS) (width 0.12))
  (fp_line (start -1.56 -3.16) (end 11.72 -3.16) (layer F.SilkS) (width 0.12))
  (fp_line (start -1.56 3.16) (end 11.72 3.16) (layer F.SilkS) (width 0.12))
  (fp_line (start -1.56 -3.16) (end -1.56 3.16) (layer F.SilkS) (width 0.12))
  (fp_line (start 11.72 -3.16) (end 11.72 3.16) (layer F.SilkS) (width 0.12))
  (fp_line (start 0.835 -0.7) (end -0.701 0.835) (layer F.Fab) (width 0.1))
  (fp_line (start 0.701 -0.835) (end -0.835 0.7) (layer F.Fab) (width 0.1))
  (fp_line (start 3.375 -0.7) (end 1.84 0.835) (layer F.Fab) (width 0.1))
  (fp_line (start 3.241 -0.835) (end 1.706 0.7) (layer F.Fab) (width 0.1))
  (fp_line (start 5.915 -0.7) (end 4.38 0.835) (layer F.Fab) (width 0.1))
  (fp_line (start 5.781 -0.835) (end 4.246 0.7) (layer F.Fab) (width 0.1))
  (fp_line (start 8.455 -0.7) (end 6.92 0.835) (layer F.Fab) (width 0.1))
  (fp_line (start 8.321 -0.835) (end 6.786 0.7) (layer F.Fab) (width 0.1))
  (fp_line (start 10.995 -0.7) (end 9.46 0.835) (layer F.Fab) (width 0.1))
  (fp_line (start 10.861 -0.835) (end 9.326 0.7) (layer F.Fab) (width 0.1))
  (fp_line (start -1.8 2.66) (end -1.8 3.4) (layer F.SilkS) (width 0.12))
  (fp_line (start -1.8 3.4) (end -1.3 3.4) (layer F.SilkS) (width 0.12))
  (fp_line (start -2 -3.6) (end -2 3.6) (layer F.CrtYd) (width 0.05))
  (fp_line (start -2 3.6) (end 12.16 3.6) (layer F.CrtYd) (width 0.05))
  (fp_line (start 12.16 3.6) (end 12.16 -3.6) (layer F.CrtYd) (width 0.05))
  (fp_line (start 12.16 -3.6) (end -2 -3.6) (layer F.CrtYd) (width 0.05))
  (pad 1 thru_hole rect (at 0 0) (size 2.2 2.2) (drill 1.1) (layers *.Cu *.Mask))
  (pad 2 thru_hole circle (at 2.54 0) (size 2.2 2.2) (drill 1.1) (layers *.Cu *.Mask))
  (pad 3 thru_hole circle (at 5.08 0) (size 2.2 2.2) (drill 1.1) (layers *.Cu *.Mask))
  (pad 4 thru_hole circle (at 7.62 0) (size 2.2 2.2) (drill 1.1) (layers *.Cu *.Mask))
  (pad 5 thru_hole circle (at 10.16 0) (size 2.2 2.2) (drill 1.1) (layers *.Cu *.Mask))
  (fp_text user %R (at 5.08 2) (layer F.Fab)
    (effects (font (size 1 1) (thickness 0.15)))
  )
  (model ${KICAD6_3DMODEL_DIR}/TerminalBlock_Phoenix.3dshapes/TerminalBlock_Phoenix_MPT-0,5-5-2.54_1x05_P2.54mm_Horizontal.wrl
    (at (xyz 0 0 0))
    (scale (xyz 1 1 1))
    (rotate (xyz 0 0 0))
  )
)