(module TerminalBlock_Phoenix_PTSM-0,5-3-2.5-H-THR_1x03_P2.50mm_Horizontal (layer F.Cu) (tedit 5B294EBC)
  (descr "Terminal Block Phoenix PTSM-0,5-3-2.5-H-THR, 3 pins, pitch 2.5mm, size 9.7x10mm^2, drill diamater 1.2mm, pad diameter 3mm, see http://www.produktinfo.conrad.com/datenblaetter/550000-574999/556441-da-01-de-LEITERPLATTENKL__PTSM_0_5__8_2_5_H_THR.pdf, script-generated using https://github.com/pointhi/kicad-footprint-generator/scripts/TerminalBlock_Phoenix")
  (tags "THT Terminal Block Phoenix PTSM-0,5-3-2.5-H-THR pitch 2.5mm size 9.7x10mm^2 drill 1.2mm pad 3mm")
  (fp_text reference REF** (at 2.5 -8.26) (layer F.SilkS)
    (effects (font (size 1 1) (thickness 0.15)))
  )
  (fp_text value TerminalBlock_Phoenix_PTSM-0,5-3-2.5-H-THR_1x03_P2.50mm_Horizontal (at 2.5 3.86) (layer F.Fab)
    (effects (font (size 1 1) (thickness 0.15)))
  )
  (fp_line (start -2.35 -7.2) (end 7.35 -7.2) (layer F.Fab) (width 0.1))
  (fp_line (start 7.35 -7.2) (end 7.35 2.8) (layer F.Fab) (width 0.1))
  (fp_line (start 7.35 2.8) (end -0.35 2.8) (layer F.Fab) (width 0.1))
  (fp_line (start -0.35 2.8) (end -2.35 0.8) (layer F.Fab) (width 0.1))
  (fp_line (start -2.35 0.8) (end -2.35 -7.2) (layer F.Fab) (width 0.1))
  (fp_line (start -2.41 -7.26) (end 7.41 -7.26) (layer F.SilkS) (width 0.12))
  (fp_line (start -2.41 2.86) (end 7.41 2.86) (layer F.SilkS) (width 0.12))
  (fp_line (start -2.41 -7.26) (end -2.41 2.86) (layer F.SilkS) (width 0.12))
  (fp_line (start 7.41 -7.26) (end 7.41 2.86) (layer F.SilkS) (width 0.12))
  (fp_line (start -2.65 0.86) (end -2.65 3.1) (layer F.SilkS) (width 0.12))
  (fp_line (start -2.65 3.1) (end -0.65 3.1) (layer F.SilkS) (width 0.12))
  (fp_line (start -2.85 -7.7) (end -2.85 3.3) (layer F.CrtYd) (width 0.05))
  (fp_line (start -2.85 3.3) (end 7.85 3.3) (layer F.CrtYd) (width 0.05))
  (fp_line (start 7.85 3.3) (end 7.85 -7.7) (layer F.CrtYd) (width 0.05))
  (fp_line (start 7.85 -7.7) (end -2.85 -7.7) (layer F.CrtYd) (width 0.05))
  (pad 1 thru_hole rect (at 0 0) (size 1.8 3) (drill 1.2) (layers *.Cu *.Mask))
  (pad 1 thru_hole rect (at 0 -5) (size 1.8 3) (drill 1.2) (layers *.Cu *.Mask))
  (pad 2 thru_hole oval (at 2.5 0) (size 1.8 3) (drill 1.2) (layers *.Cu *.Mask))
  (pad 2 thru_hole oval (at 2.5 -5) (size 1.8 3) (drill 1.2) (layers *.Cu *.Mask))
  (pad 3 thru_hole oval (at 5 0) (size 1.8 3) (drill 1.2) (layers *.Cu *.Mask))
  (pad 3 thru_hole oval (at 5 -5) (size 1.8 3) (drill 1.2) (layers *.Cu *.Mask))
  (fp_text user %R (at 2.5 -2.2) (layer F.Fab)
    (effects (font (size 1 1) (thickness 0.15)))
  )
  (model ${KICAD6_3DMODEL_DIR}/TerminalBlock_Phoenix.3dshapes/TerminalBlock_Phoenix_PTSM-0,5-3-2.5-H-THR_1x03_P2.50mm_Horizontal.wrl
    (at (xyz 0 0 0))
    (scale (xyz 1 1 1))
    (rotate (xyz 0 0 0))
  )
)