(module TerminalBlock_Phoenix_PTSM-0,5-8-2.5-V-THR_1x08_P2.50mm_Vertical (layer F.Cu) (tedit 5B294EBC)
  (descr "Terminal Block Phoenix PTSM-0,5-8-2.5-V-THR, vertical (cable from top), 8 pins, pitch 2.5mm, size 20.5x5mm^2, drill diamater 1.2mm, pad diameter 2mm, see http://www.produktinfo.conrad.com/datenblaetter/550000-574999/556444-da-01-de-LEITERPLATTENKL__PTSM_0_5__4_2_5_V_THR.pdf, script-generated with , script-generated using https://github.com/pointhi/kicad-footprint-generator/scripts/TerminalBlock_Phoenix")
  (tags "THT Terminal Block Phoenix PTSM-0,5-8-2.5-V-THR vertical pitch 2.5mm size 20.5x5mm^2 drill 1.2mm pad 2mm")
  (fp_text reference REF** (at 7.9 -5.16) (layer F.SilkS)
    (effects (font (size 1 1) (thickness 0.15)))
  )
  (fp_text value TerminalBlock_Phoenix_PTSM-0,5-8-2.5-V-THR_1x08_P2.50mm_Vertical (at 7.9 1.96) (layer F.Fab)
    (effects (font (size 1 1) (thickness 0.15)))
  )
  (fp_arc (start -1 -0.5) (end -0.318 -1.232) (angle -210) (layer F.SilkS) (width 0.12))
  (fp_arc (start 1.5 -0.5) (end 2.157 -1.255) (angle -84) (layer F.SilkS) (width 0.12))
  (fp_arc (start 1.5 -0.5) (end 1.225 0.462) (angle -7) (layer F.SilkS) (width 0.12))
  (fp_arc (start 4 -0.5) (end 4.657 -1.255) (angle -95) (layer F.SilkS) (width 0.12))
  (fp_arc (start 4 -0.5) (end 3.691 0.452) (angle -9) (layer F.SilkS) (width 0.12))
  (fp_arc (start 6.5 -0.5) (end 7.157 -1.255) (angle -95) (layer F.SilkS) (width 0.12))
  (fp_arc (start 6.5 -0.5) (end 6.191 0.452) (angle -9) (layer F.SilkS) (width 0.12))
  (fp_arc (start 9 -0.5) (end 9.657 -1.255) (angle -95) (layer F.SilkS) (width 0.12))
  (fp_arc (start 9 -0.5) (end 8.691 0.452) (angle -9) (layer F.SilkS) (width 0.12))
  (fp_arc (start 11.5 -0.5) (end 12.157 -1.255) (angle -95) (layer F.SilkS) (width 0.12))
  (fp_arc (start 11.5 -0.5) (end 11.191 0.452) (angle -9) (layer F.SilkS) (width 0.12))
  (fp_arc (start 14 -0.5) (end 14.657 -1.255) (angle -95) (layer F.SilkS) (width 0.12))
  (fp_arc (start 14 -0.5) (end 13.691 0.452) (angle -9) (layer F.SilkS) (width 0.12))
  (fp_arc (start 16.5 -0.5) (end 17.157 -1.255) (angle -95) (layer F.SilkS) (width 0.12))
  (fp_arc (start 16.5 -0.5) (end 16.191 0.452) (angle -9) (layer F.SilkS) (width 0.12))
  (fp_circle (center -1 -0.5) (end 0 -0.5) (layer F.Fab) (width 0.1))
  (fp_circle (center 1.5 -0.5) (end 2.5 -0.5) (layer F.Fab) (width 0.1))
  (fp_circle (center 4 -0.5) (end 5 -0.5) (layer F.Fab) (width 0.1))
  (fp_circle (center 6.5 -0.5) (end 7.5 -0.5) (layer F.Fab) (width 0.1))
  (fp_circle (center 9 -0.5) (end 10 -0.5) (layer F.Fab) (width 0.1))
  (fp_circle (center 11.5 -0.5) (end 12.5 -0.5) (layer F.Fab) (width 0.1))
  (fp_circle (center 14 -0.5) (end 15 -0.5) (layer F.Fab) (width 0.1))
  (fp_circle (center 16.5 -0.5) (end 17.5 -0.5) (layer F.Fab) (width 0.1))
  (fp_line (start -2.35 -4.1) (end 18.15 -4.1) (layer F.Fab) (width 0.1))
  (fp_line (start 18.15 -4.1) (end 18.15 0.9) (layer F.Fab) (width 0.1))
  (fp_line (start 18.15 0.9) (end -1.1 0.9) (layer F.Fab) (width 0.1))
  (fp_line (start -1.1 0.9) (end -2.35 -0.35) (layer F.Fab) (width 0.1))
  (fp_line (start -2.35 -0.35) (end -2.35 -4.1) (layer F.Fab) (width 0.1))
  (fp_line (start -2.41 -4.16) (end -1.24 -4.16) (layer F.SilkS) (width 0.12))
  (fp_line (start 1.24 -4.16) (end 1.763 -4.16) (layer F.SilkS) (width 0.12))
  (fp_line (start 3.238 -4.16) (end 4.263 -4.16) (layer F.SilkS) (width 0.12))
  (fp_line (start 5.738 -4.16) (end 6.763 -4.16) (layer F.SilkS) (width 0.12))
  (fp_line (start 8.238 -4.16) (end 9.263 -4.16) (layer F.SilkS) (width 0.12))
  (fp_line (start 10.738 -4.16) (end 11.763 -4.16) (layer F.SilkS) (width 0.12))
  (fp_line (start 13.238 -4.16) (end 14.263 -4.16) (layer F.SilkS) (width 0.12))
  (fp_line (start 15.738 -4.16) (end 16.763 -4.16) (layer F.SilkS) (width 0.12))
  (fp_line (start -2.41 0.961) (end -1.24 0.961) (layer F.SilkS) (width 0.12))
  (fp_line (start 1.24 0.961) (end 1.665 0.961) (layer F.SilkS) (width 0.12))
  (fp_line (start 3.336 0.961) (end 4.165 0.961) (layer F.SilkS) (width 0.12))
  (fp_line (start 5.836 0.961) (end 6.665 0.961) (layer F.SilkS) (width 0.12))
  (fp_line (start 8.336 0.961) (end 9.165 0.961) (layer F.SilkS) (width 0.12))
  (fp_line (start 10.836 0.961) (end 11.665 0.961) (layer F.SilkS) (width 0.12))
  (fp_line (start 13.336 0.961) (end 14.165 0.961) (layer F.SilkS) (width 0.12))
  (fp_line (start 15.836 0.961) (end 16.665 0.961) (layer F.SilkS) (width 0.12))
  (fp_line (start -2.41 -4.16) (end -2.41 0.961) (layer F.SilkS) (width 0.12))
  (fp_line (start 18.21 -2) (end 18.21 -1.1) (layer F.SilkS) (width 0.12))
  (fp_line (start -2 -3.1) (end -1.24 -3.1) (layer F.SilkS) (width 0.12))
  (fp_line (start -2 -2.1) (end -1.24 -2.1) (layer F.SilkS) (width 0.12))
  (fp_line (start -2 -3.1) (end -2 -2.1) (layer F.SilkS) (width 0.12))
  (fp_line (start -2 -3.1) (end -2 -2.1) (layer F.Fab) (width 0.1))
  (fp_line (start -2 -2.1) (end 0 -2.1) (layer F.Fab) (width 0.1))
  (fp_line (start 0 -2.1) (end 0 -3.1) (layer F.Fab) (width 0.1))
  (fp_line (start 0 -3.1) (end -2 -3.1) (layer F.Fab) (width 0.1))
  (fp_line (start 1.24 -3.1) (end 1.245 -3.1) (layer F.SilkS) (width 0.12))
  (fp_line (start 1.24 -2.1) (end 1.665 -2.1) (layer F.SilkS) (width 0.12))
  (fp_line (start 0.5 -3.1) (end 0.5 -2.1) (layer F.Fab) (width 0.1))
  (fp_line (start 0.5 -2.1) (end 2.5 -2.1) (layer F.Fab) (width 0.1))
  (fp_line (start 2.5 -2.1) (end 2.5 -3.1) (layer F.Fab) (width 0.1))
  (fp_line (start 2.5 -3.1) (end 0.5 -3.1) (layer F.Fab) (width 0.1))
  (fp_line (start 3.336 -2.1) (end 4.165 -2.1) (layer F.SilkS) (width 0.12))
  (fp_line (start 3 -3.1) (end 3 -2.1) (layer F.Fab) (width 0.1))
  (fp_line (start 3 -2.1) (end 5 -2.1) (layer F.Fab) (width 0.1))
  (fp_line (start 5 -2.1) (end 5 -3.1) (layer F.Fab) (width 0.1))
  (fp_line (start 5 -3.1) (end 3 -3.1) (layer F.Fab) (width 0.1))
  (fp_line (start 5.836 -2.1) (end 6.665 -2.1) (layer F.SilkS) (width 0.12))
  (fp_line (start 5.5 -3.1) (end 5.5 -2.1) (layer F.Fab) (width 0.1))
  (fp_line (start 5.5 -2.1) (end 7.5 -2.1) (layer F.Fab) (width 0.1))
  (fp_line (start 7.5 -2.1) (end 7.5 -3.1) (layer F.Fab) (width 0.1))
  (fp_line (start 7.5 -3.1) (end 5.5 -3.1) (layer F.Fab) (width 0.1))
  (fp_line (start 8.336 -2.1) (end 9.165 -2.1) (layer F.SilkS) (width 0.12))
  (fp_line (start 8 -3.1) (end 8 -2.1) (layer F.Fab) (width 0.1))
  (fp_line (start 8 -2.1) (end 10 -2.1) (layer F.Fab) (width 0.1))
  (fp_line (start 10 -2.1) (end 10 -3.1) (layer F.Fab) (width 0.1))
  (fp_line (start 10 -3.1) (end 8 -3.1) (layer F.Fab) (width 0.1))
  (fp_line (start 10.836 -2.1) (end 11.665 -2.1) (layer F.SilkS) (width 0.12))
  (fp_line (start 10.5 -3.1) (end 10.5 -2.1) (layer F.Fab) (width 0.1))
  (fp_line (start 10.5 -2.1) (end 12.5 -2.1) (layer F.Fab) (width 0.1))
  (fp_line (start 12.5 -2.1) (end 12.5 -3.1) (layer F.Fab) (width 0.1))
  (fp_line (start 12.5 -3.1) (end 10.5 -3.1) (layer F.Fab) (width 0.1))
  (fp_line (start 13.336 -2.1) (end 14.165 -2.1) (layer F.SilkS) (width 0.12))
  (fp_line (start 13 -3.1) (end 13 -2.1) (layer F.Fab) (width 0.1))
  (fp_line (start 13 -2.1) (end 15 -2.1) (layer F.Fab) (width 0.1))
  (fp_line (start 15 -2.1) (end 15 -3.1) (layer F.Fab) (width 0.1))
  (fp_line (start 15 -3.1) (end 13 -3.1) (layer F.Fab) (width 0.1))
  (fp_line (start 15.836 -2.1) (end 16.665 -2.1) (layer F.SilkS) (width 0.12))
  (fp_line (start 15.5 -3.1) (end 15.5 -2.1) (layer F.Fab) (width 0.1))
  (fp_line (start 15.5 -2.1) (end 17.5 -2.1) (layer F.Fab) (width 0.1))
  (fp_line (start 17.5 -2.1) (end 17.5 -3.1) (layer F.Fab) (width 0.1))
  (fp_line (start 17.5 -3.1) (end 15.5 -3.1) (layer F.Fab) (width 0.1))
  (fp_line (start -2.65 -0.29) (end -2.65 1.2) (layer F.SilkS) (width 0.12))
  (fp_line (start -2.65 1.2) (end -1.4 1.2) (layer F.SilkS) (width 0.12))
  (fp_line (start -2.85 -4.6) (end -2.85 1.41) (layer F.CrtYd) (width 0.05))
  (fp_line (start -2.85 1.41) (end 18.65 1.41) (layer F.CrtYd) (width 0.05))
  (fp_line (start 18.65 1.41) (end 18.65 -4.6) (layer F.CrtYd) (width 0.05))
  (fp_line (start 18.65 -4.6) (end -2.85 -4.6) (layer F.CrtYd) (width 0.05))
  (pad 1 thru_hole rect (at 0 0) (size 2 2) (drill 1.2) (layers *.Cu *.Mask))
  (pad 1 thru_hole rect (at 0 -3.1) (size 2 2) (drill 1.2) (layers *.Cu *.Mask))
  (pad 2 thru_hole circle (at 2.5 0) (size 2 2) (drill 1.2) (layers *.Cu *.Mask))
  (pad 2 thru_hole circle (at 2.5 -3.1) (size 2 2) (drill 1.2) (layers *.Cu *.Mask))
  (pad 3 thru_hole circle (at 5 0) (size 2 2) (drill 1.2) (layers *.Cu *.Mask))
  (pad 3 thru_hole circle (at 5 -3.1) (size 2 2) (drill 1.2) (layers *.Cu *.Mask))
  (pad 4 thru_hole circle (at 7.5 0) (size 2 2) (drill 1.2) (layers *.Cu *.Mask))
  (pad 4 thru_hole circle (at 7.5 -3.1) (size 2 2) (drill 1.2) (layers *.Cu *.Mask))
  (pad 5 thru_hole circle (at 10 0) (size 2 2) (drill 1.2) (layers *.Cu *.Mask))
  (pad 5 thru_hole circle (at 10 -3.1) (size 2 2) (drill 1.2) (layers *.Cu *.Mask))
  (pad 6 thru_hole circle (at 12.5 0) (size 2 2) (drill 1.2) (layers *.Cu *.Mask))
  (pad 6 thru_hole circle (at 12.5 -3.1) (size 2 2) (drill 1.2) (layers *.Cu *.Mask))
  (pad 7 thru_hole circle (at 15 0) (size 2 2) (drill 1.2) (layers *.Cu *.Mask))
  (pad 7 thru_hole circle (at 15 -3.1) (size 2 2) (drill 1.2) (layers *.Cu *.Mask))
  (pad 8 thru_hole circle (at 17.5 0) (size 2 2) (drill 1.2) (layers *.Cu *.Mask))
  (pad 8 thru_hole circle (at 17.5 -3.1) (size 2 2) (drill 1.2) (layers *.Cu *.Mask))
  (fp_text user %R (at 7.9 -5.16) (layer F.Fab)
    (effects (font (size 1 1) (thickness 0.15)))
  )
  (model ${KICAD6_3DMODEL_DIR}/TerminalBlock_Phoenix.3dshapes/TerminalBlock_Phoenix_PTSM-0,5-8-2.5-V-THR_1x08_P2.50mm_Vertical.wrl
    (at (xyz 0 0 0))
    (scale (xyz 1 1 1))
    (rotate (xyz 0 0 0))
  )
)