(module TerminalBlock_Phoenix_PT-1,5-5-3.5-H_1x05_P3.50mm_Horizontal (layer F.Cu) (tedit 5B294F40)
  (descr "Terminal Block Phoenix PT-1,5-5-3.5-H, 5 pins, pitch 3.5mm, size 17.5x7.6mm^2, drill diamater 1.2mm, pad diameter 2.4mm, see , script-generated using https://github.com/pointhi/kicad-footprint-generator/scripts/TerminalBlock_Phoenix")
  (tags "THT Terminal Block Phoenix PT-1,5-5-3.5-H pitch 3.5mm size 17.5x7.6mm^2 drill 1.2mm pad 2.4mm")
  (fp_text reference REF** (at 7 -4.16) (layer F.SilkS)
    (effects (font (size 1 1) (thickness 0.15)))
  )
  (fp_text value TerminalBlock_Phoenix_PT-1,5-5-3.5-H_1x05_P3.50mm_Horizontal (at 7 5.56) (layer F.Fab)
    (effects (font (size 1 1) (thickness 0.15)))
  )
  (fp_arc (start 0 0) (end 0 1.68) (angle -32) (layer F.SilkS) (width 0.12))
  (fp_arc (start 0 0) (end 1.425 0.891) (angle -64) (layer F.SilkS) (width 0.12))
  (fp_arc (start 0 0) (end 0.866 -1.44) (angle -63) (layer F.SilkS) (width 0.12))
  (fp_arc (start 0 0) (end -1.44 -0.866) (angle -63) (layer F.SilkS) (width 0.12))
  (fp_arc (start 0 0) (end -0.866 1.44) (angle -32) (layer F.SilkS) (width 0.12))
  (fp_circle (center 0 0) (end 1.5 0) (layer F.Fab) (width 0.1))
  (fp_circle (center 3.5 0) (end 5 0) (layer F.Fab) (width 0.1))
  (fp_circle (center 3.5 0) (end 5.18 0) (layer F.SilkS) (width 0.12))
  (fp_circle (center 7 0) (end 8.5 0) (layer F.Fab) (width 0.1))
  (fp_circle (center 7 0) (end 8.68 0) (layer F.SilkS) (width 0.12))
  (fp_circle (center 10.5 0) (end 12 0) (layer F.Fab) (width 0.1))
  (fp_circle (center 10.5 0) (end 12.18 0) (layer F.SilkS) (width 0.12))
  (fp_circle (center 14 0) (end 15.5 0) (layer F.Fab) (width 0.1))
  (fp_circle (center 14 0) (end 15.68 0) (layer F.SilkS) (width 0.12))
  (fp_line (start -1.75 -3.1) (end 15.75 -3.1) (layer F.Fab) (width 0.1))
  (fp_line (start 15.75 -3.1) (end 15.75 4.5) (layer F.Fab) (width 0.1))
  (fp_line (start 15.75 4.5) (end -1.35 4.5) (layer F.Fab) (width 0.1))
  (fp_line (start -1.35 4.5) (end -1.75 4.1) (layer F.Fab) (width 0.1))
  (fp_line (start -1.75 4.1) (end -1.75 -3.1) (layer F.Fab) (width 0.1))
  (fp_line (start -1.75 4.1) (end 15.75 4.1) (layer F.Fab) (width 0.1))
  (fp_line (start -1.81 4.1) (end 15.81 4.1) (layer F.SilkS) (width 0.12))
  (fp_line (start -1.75 3) (end 15.75 3) (layer F.Fab) (width 0.1))
  (fp_line (start -1.81 3) (end 15.81 3) (layer F.SilkS) (width 0.12))
  (fp_line (start -1.81 -3.16) (end 15.81 -3.16) (layer F.SilkS) (width 0.12))
  (fp_line (start -1.81 4.56) (end 15.81 4.56) (layer F.SilkS) (width 0.12))
  (fp_line (start -1.81 -3.16) (end -1.81 4.56) (layer F.SilkS) (width 0.12))
  (fp_line (start 15.81 -3.16) (end 15.81 4.56) (layer F.SilkS) (width 0.12))
  (fp_line (start 1.138 -0.955) (end -0.955 1.138) (layer F.Fab) (width 0.1))
  (fp_line (start 0.955 -1.138) (end -1.138 0.955) (layer F.Fab) (width 0.1))
  (fp_line (start 4.638 -0.955) (end 2.546 1.138) (layer F.Fab) (width 0.1))
  (fp_line (start 4.455 -1.138) (end 2.363 0.955) (layer F.Fab) (width 0.1))
  (fp_line (start 4.775 -1.069) (end 4.646 -0.941) (layer F.SilkS) (width 0.12))
  (fp_line (start 2.525 1.181) (end 2.431 1.274) (layer F.SilkS) (width 0.12))
  (fp_line (start 4.57 -1.275) (end 4.476 -1.181) (layer F.SilkS) (width 0.12))
  (fp_line (start 2.355 0.941) (end 2.226 1.069) (layer F.SilkS) (width 0.12))
  (fp_line (start 8.138 -0.955) (end 6.046 1.138) (layer F.Fab) (width 0.1))
  (fp_line (start 7.955 -1.138) (end 5.863 0.955) (layer F.Fab) (width 0.1))
  (fp_line (start 8.275 -1.069) (end 8.146 -0.941) (layer F.SilkS) (width 0.12))
  (fp_line (start 6.025 1.181) (end 5.931 1.274) (layer F.SilkS) (width 0.12))
  (fp_line (start 8.07 -1.275) (end 7.976 -1.181) (layer F.SilkS) (width 0.12))
  (fp_line (start 5.855 0.941) (end 5.726 1.069) (layer F.SilkS) (width 0.12))
  (fp_line (start 11.638 -0.955) (end 9.546 1.138) (layer F.Fab) (width 0.1))
  (fp_line (start 11.455 -1.138) (end 9.363 0.955) (layer F.Fab) (width 0.1))
  (fp_line (start 11.775 -1.069) (end 11.646 -0.941) (layer F.SilkS) (width 0.12))
  (fp_line (start 9.525 1.181) (end 9.431 1.274) (layer F.SilkS) (width 0.12))
  (fp_line (start 11.57 -1.275) (end 11.476 -1.181) (layer F.SilkS) (width 0.12))
  (fp_line (start 9.355 0.941) (end 9.226 1.069) (layer F.SilkS) (width 0.12))
  (fp_line (start 15.138 -0.955) (end 13.046 1.138) (layer F.Fab) (width 0.1))
  (fp_line (start 14.955 -1.138) (end 12.863 0.955) (layer F.Fab) (width 0.1))
  (fp_line (start 15.275 -1.069) (end 15.146 -0.941) (layer F.SilkS) (width 0.12))
  (fp_line (start 13.025 1.181) (end 12.931 1.274) (layer F.SilkS) (width 0.12))
  (fp_line (start 15.07 -1.275) (end 14.976 -1.181) (layer F.SilkS) (width 0.12))
  (fp_line (start 12.855 0.941) (end 12.726 1.069) (layer F.SilkS) (width 0.12))
  (fp_line (start -2.05 4.16) (end -2.05 4.8) (layer F.SilkS) (width 0.12))
  (fp_line (start -2.05 4.8) (end -1.65 4.8) (layer F.SilkS) (width 0.12))
  (fp_line (start -2.25 -3.6) (end -2.25 5) (layer F.CrtYd) (width 0.05))
  (fp_line (start -2.25 5) (end 16.25 5) (layer F.CrtYd) (width 0.05))
  (fp_line (start 16.25 5) (end 16.25 -3.6) (layer F.CrtYd) (width 0.05))
  (fp_line (start 16.25 -3.6) (end -2.25 -3.6) (layer F.CrtYd) (width 0.05))
  (pad 1 thru_hole rect (at 0 0) (size 2.4 2.4) (drill 1.2) (layers *.Cu *.Mask))
  (pad 2 thru_hole circle (at 3.5 0) (size 2.4 2.4) (drill 1.2) (layers *.Cu *.Mask))
  (pad 3 thru_hole circle (at 7 0) (size 2.4 2.4) (drill 1.2) (layers *.Cu *.Mask))
  (pad 4 thru_hole circle (at 10.5 0) (size 2.4 2.4) (drill 1.2) (layers *.Cu *.Mask))
  (pad 5 thru_hole circle (at 14 0) (size 2.4 2.4) (drill 1.2) (layers *.Cu *.Mask))
  (fp_text user %R (at 7 2.4) (layer F.Fab)
    (effects (font (size 1 1) (thickness 0.15)))
  )
  (model ${KICAD6_3DMODEL_DIR}/TerminalBlock_Phoenix.3dshapes/TerminalBlock_Phoenix_PT-1,5-5-3.5-H_1x05_P3.50mm_Horizontal.wrl
    (at (xyz 0 0 0))
    (scale (xyz 1 1 1))
    (rotate (xyz 0 0 0))
  )
)