(module TerminalBlock_Phoenix_MKDS-3-4-5.08_1x04_P5.08mm_Horizontal (layer F.Cu) (tedit 5B294F11)
  (descr "Terminal Block Phoenix MKDS-3-4-5.08, 4 pins, pitch 5.08mm, size 20.3x11.2mm^2, drill diamater 1.3mm, pad diameter 2.6mm, see http://www.farnell.com/datasheets/2138224.pdf, script-generated using https://github.com/pointhi/kicad-footprint-generator/scripts/TerminalBlock_Phoenix")
  (tags "THT Terminal Block Phoenix MKDS-3-4-5.08 pitch 5.08mm size 20.3x11.2mm^2 drill 1.3mm pad 2.6mm")
  (fp_text reference REF** (at 7.62 -6.96) (layer F.SilkS)
    (effects (font (size 1 1) (thickness 0.15)))
  )
  (fp_text value TerminalBlock_Phoenix_MKDS-3-4-5.08_1x04_P5.08mm_Horizontal (at 7.62 6.36) (layer F.Fab)
    (effects (font (size 1 1) (thickness 0.15)))
  )
  (fp_circle (center 0 0) (end 2 0) (layer F.Fab) (width 0.1))
  (fp_circle (center 0 0) (end 2.18 0) (layer F.SilkS) (width 0.12))
  (fp_circle (center 5.08 0) (end 7.08 0) (layer F.Fab) (width 0.1))
  (fp_circle (center 5.08 0) (end 7.26 0) (layer F.SilkS) (width 0.12))
  (fp_circle (center 10.16 0) (end 12.16 0) (layer F.Fab) (width 0.1))
  (fp_circle (center 10.16 0) (end 12.34 0) (layer F.SilkS) (width 0.12))
  (fp_circle (center 15.24 0) (end 17.24 0) (layer F.Fab) (width 0.1))
  (fp_circle (center 15.24 0) (end 17.42 0) (layer F.SilkS) (width 0.12))
  (fp_line (start -2.54 -5.9) (end 17.78 -5.9) (layer F.Fab) (width 0.1))
  (fp_line (start 17.78 -5.9) (end 17.78 5.3) (layer F.Fab) (width 0.1))
  (fp_line (start 17.78 5.3) (end -2.04 5.3) (layer F.Fab) (width 0.1))
  (fp_line (start -2.04 5.3) (end -2.54 4.8) (layer F.Fab) (width 0.1))
  (fp_line (start -2.54 4.8) (end -2.54 -5.9) (layer F.Fab) (width 0.1))
  (fp_line (start -2.54 4.8) (end 17.78 4.8) (layer F.Fab) (width 0.1))
  (fp_line (start -2.6 4.8) (end 17.84 4.8) (layer F.SilkS) (width 0.12))
  (fp_line (start -2.54 2.3) (end 17.78 2.3) (layer F.Fab) (width 0.1))
  (fp_line (start -2.6 2.3) (end 17.84 2.3) (layer F.SilkS) (width 0.12))
  (fp_line (start -2.54 -3.9) (end 17.78 -3.9) (layer F.Fab) (width 0.1))
  (fp_line (start -2.6 -3.9) (end 17.84 -3.9) (layer F.SilkS) (width 0.12))
  (fp_line (start -2.6 -5.96) (end 17.84 -5.96) (layer F.SilkS) (width 0.12))
  (fp_line (start -2.6 5.36) (end 17.84 5.36) (layer F.SilkS) (width 0.12))
  (fp_line (start -2.6 -5.96) (end -2.6 5.36) (layer F.SilkS) (width 0.12))
  (fp_line (start 17.84 -5.96) (end 17.84 5.36) (layer F.SilkS) (width 0.12))
  (fp_line (start 1.517 -1.273) (end -1.273 1.517) (layer F.Fab) (width 0.1))
  (fp_line (start 1.273 -1.517) (end -1.517 1.273) (layer F.Fab) (width 0.1))
  (fp_line (start 1.654 -1.388) (end 1.547 -1.281) (layer F.SilkS) (width 0.12))
  (fp_line (start -1.282 1.547) (end -1.388 1.654) (layer F.SilkS) (width 0.12))
  (fp_line (start 1.388 -1.654) (end 1.281 -1.547) (layer F.SilkS) (width 0.12))
  (fp_line (start -1.548 1.281) (end -1.654 1.388) (layer F.SilkS) (width 0.12))
  (fp_line (start 6.597 -1.273) (end 3.808 1.517) (layer F.Fab) (width 0.1))
  (fp_line (start 6.353 -1.517) (end 3.564 1.273) (layer F.Fab) (width 0.1))
  (fp_line (start 6.734 -1.388) (end 6.339 -0.992) (layer F.SilkS) (width 0.12))
  (fp_line (start 4.073 1.274) (end 3.693 1.654) (layer F.SilkS) (width 0.12))
  (fp_line (start 6.468 -1.654) (end 6.088 -1.274) (layer F.SilkS) (width 0.12))
  (fp_line (start 3.822 0.992) (end 3.427 1.388) (layer F.SilkS) (width 0.12))
  (fp_line (start 11.677 -1.273) (end 8.888 1.517) (layer F.Fab) (width 0.1))
  (fp_line (start 11.433 -1.517) (end 8.644 1.273) (layer F.Fab) (width 0.1))
  (fp_line (start 11.814 -1.388) (end 11.419 -0.992) (layer F.SilkS) (width 0.12))
  (fp_line (start 9.153 1.274) (end 8.773 1.654) (layer F.SilkS) (width 0.12))
  (fp_line (start 11.548 -1.654) (end 11.168 -1.274) (layer F.SilkS) (width 0.12))
  (fp_line (start 8.902 0.992) (end 8.507 1.388) (layer F.SilkS) (width 0.12))
  (fp_line (start 16.757 -1.273) (end 13.968 1.517) (layer F.Fab) (width 0.1))
  (fp_line (start 16.513 -1.517) (end 13.724 1.273) (layer F.Fab) (width 0.1))
  (fp_line (start 16.894 -1.388) (end 16.499 -0.992) (layer F.SilkS) (width 0.12))
  (fp_line (start 14.233 1.274) (end 13.853 1.654) (layer F.SilkS) (width 0.12))
  (fp_line (start 16.628 -1.654) (end 16.248 -1.274) (layer F.SilkS) (width 0.12))
  (fp_line (start 13.982 0.992) (end 13.587 1.388) (layer F.SilkS) (width 0.12))
  (fp_line (start -2.84 4.86) (end -2.84 5.6) (layer F.SilkS) (width 0.12))
  (fp_line (start -2.84 5.6) (end -2.34 5.6) (layer F.SilkS) (width 0.12))
  (fp_line (start -3.04 -6.4) (end -3.04 5.8) (layer F.CrtYd) (width 0.05))
  (fp_line (start -3.04 5.8) (end 18.28 5.8) (layer F.CrtYd) (width 0.05))
  (fp_line (start 18.28 5.8) (end 18.28 -6.4) (layer F.CrtYd) (width 0.05))
  (fp_line (start 18.28 -6.4) (end -3.04 -6.4) (layer F.CrtYd) (width 0.05))
  (pad 1 thru_hole rect (at 0 0) (size 2.6 2.6) (drill 1.3) (layers *.Cu *.Mask))
  (pad 2 thru_hole circle (at 5.08 0) (size 2.6 2.6) (drill 1.3) (layers *.Cu *.Mask))
  (pad 3 thru_hole circle (at 10.16 0) (size 2.6 2.6) (drill 1.3) (layers *.Cu *.Mask))
  (pad 4 thru_hole circle (at 15.24 0) (size 2.6 2.6) (drill 1.3) (layers *.Cu *.Mask))
  (fp_text user %R (at 7.62 3.1) (layer F.Fab)
    (effects (font (size 1 1) (thickness 0.15)))
  )
  (model ${KICAD6_3DMODEL_DIR}/TerminalBlock_Phoenix.3dshapes/TerminalBlock_Phoenix_MKDS-3-4-5.08_1x04_P5.08mm_Horizontal.wrl
    (at (xyz 0 0 0))
    (scale (xyz 1 1 1))
    (rotate (xyz 0 0 0))
  )
)