(module Hirose_DF63M-3P-3.96DSA_1x03_P3.96mm_Vertical (layer F.Cu) (tedit 5D127D5A)
  (descr "Hirose DF63 through hole, DF63M-3P-3.96DSA, 3 Pins per row (https://www.hirose.com/product/en/products/DF63/), generated with kicad-footprint-generator")
  (tags "connector Hirose DF63 vertical")
  (fp_text reference REF** (at 3.96 -5.15) (layer F.SilkS)
    (effects (font (size 1 1) (thickness 0.15)))
  )
  (fp_text value Hirose_DF63M-3P-3.96DSA_1x03_P3.96mm_Vertical (at 3.96 5.25) (layer F.Fab)
    (effects (font (size 1 1) (thickness 0.15)))
  )
  (fp_circle (center 0 -3.75) (end 0.25 -3.75) (layer F.SilkS) (width 0.12))
  (fp_line (start 3.96 4.05) (end -2.35 4.05) (layer F.Fab) (width 0.1))
  (fp_line (start -2.35 4.05) (end -2.35 -3.95) (layer F.Fab) (width 0.1))
  (fp_line (start -2.35 -3.95) (end -1.15 -3.95) (layer F.Fab) (width 0.1))
  (fp_line (start -1.15 -3.95) (end -1.15 -3) (layer F.Fab) (width 0.1))
  (fp_line (start -1.15 -3) (end 3.96 -3) (layer F.Fab) (width 0.1))
  (fp_line (start 3.96 4.05) (end 10.27 4.05) (layer F.Fab) (width 0.1))
  (fp_line (start 10.27 4.05) (end 10.27 -3.95) (layer F.Fab) (width 0.1))
  (fp_line (start 10.27 -3.95) (end 9.07 -3.95) (layer F.Fab) (width 0.1))
  (fp_line (start 9.07 -3.95) (end 9.07 -3) (layer F.Fab) (width 0.1))
  (fp_line (start 9.07 -3) (end 3.96 -3) (layer F.Fab) (width 0.1))
  (fp_line (start 3.96 4.16) (end -2.46 4.16) (layer F.SilkS) (width 0.12))
  (fp_line (start -2.46 4.16) (end -2.46 -4.06) (layer F.SilkS) (width 0.12))
  (fp_line (start -2.46 -4.06) (end -1.04 -4.06) (layer F.SilkS) (width 0.12))
  (fp_line (start -1.04 -4.06) (end -1.04 -3.11) (layer F.SilkS) (width 0.12))
  (fp_line (start -1.04 -3.11) (end 3.96 -3.11) (layer F.SilkS) (width 0.12))
  (fp_line (start 3.96 4.16) (end 10.38 4.16) (layer F.SilkS) (width 0.12))
  (fp_line (start 10.38 4.16) (end 10.38 -4.06) (layer F.SilkS) (width 0.12))
  (fp_line (start 10.38 -4.06) (end 8.96 -4.06) (layer F.SilkS) (width 0.12))
  (fp_line (start 8.96 -4.06) (end 8.96 -3.11) (layer F.SilkS) (width 0.12))
  (fp_line (start 8.96 -3.11) (end 3.96 -3.11) (layer F.SilkS) (width 0.12))
  (fp_line (start 1.98 -3) (end 1.98 4.05) (layer F.Fab) (width 0.1))
  (fp_line (start 5.94 -3) (end 5.94 4.05) (layer F.Fab) (width 0.1))
  (fp_line (start -1 -3) (end 0 -1.585786) (layer F.Fab) (width 0.1))
  (fp_line (start 0 -1.585786) (end 1 -3) (layer F.Fab) (width 0.1))
  (fp_line (start -2.85 -4.45) (end -2.85 4.55) (layer F.CrtYd) (width 0.05))
  (fp_line (start -2.85 4.55) (end 10.77 4.55) (layer F.CrtYd) (width 0.05))
  (fp_line (start 10.77 4.55) (end 10.77 -4.45) (layer F.CrtYd) (width 0.05))
  (fp_line (start 10.77 -4.45) (end -2.85 -4.45) (layer F.CrtYd) (width 0.05))
  (pad 1 thru_hole roundrect (at 0 0) (size 2.46 2.8) (drill 1.8) (layers *.Cu *.Mask) (roundrect_rratio 0.101626))
  (pad 2 thru_hole oval (at 3.96 0) (size 2.46 2.8) (drill 1.8) (layers *.Cu *.Mask))
  (pad 3 thru_hole oval (at 7.92 0) (size 2.46 2.8) (drill 1.8) (layers *.Cu *.Mask))
  (pad "" np_thru_hole circle (at -1.5 3.25) (size 1.6 1.6) (drill 1.6) (layers *.Cu *.Mask))
  (fp_text user %R (at 3.96 -3.75) (layer F.Fab)
    (effects (font (size 1 1) (thickness 0.15)))
  )
  (model ${KICAD6_3DMODEL_DIR}/Connector_Hirose.3dshapes/Hirose_DF63M-3P-3.96DSA_1x03_P3.96mm_Vertical.wrl
    (at (xyz 0 0 0))
    (scale (xyz 1 1 1))
    (rotate (xyz 0 0 0))
  )
)