(module Hirose_DF3EA-07P-2H_1x07-1MP_P2.00mm_Horizontal (layer F.Cu) (tedit 5D93D893)
  (descr "Hirose  series connector, DF3EA-07P-2H (https://www.hirose.com/product/document?clcode=CL0543-0332-0-51&productname=DF3EA-5P-2H(51)&series=DF3&documenttype=2DDrawing&lang=en&documentid=0001163317), generated with kicad-footprint-generator")
  (tags "connector Hirose  top entry")
  (attr smd)
  (fp_text reference REF** (at 0 -5.6) (layer F.SilkS)
    (effects (font (size 1 1) (thickness 0.15)))
  )
  (fp_text value Hirose_DF3EA-07P-2H_1x07-1MP_P2.00mm_Horizontal (at 0 6.05) (layer F.Fab)
    (effects (font (size 1 1) (thickness 0.15)))
  )
  (fp_line (start -9.25 -1.05) (end 9.25 -1.05) (layer F.Fab) (width 0.1))
  (fp_line (start -9.36 0.84) (end -9.36 -1.16) (layer F.SilkS) (width 0.12))
  (fp_line (start -9.36 -1.16) (end -6.86 -1.16) (layer F.SilkS) (width 0.12))
  (fp_line (start -6.86 -1.16) (end -6.86 -4.4) (layer F.SilkS) (width 0.12))
  (fp_line (start 9.36 0.84) (end 9.36 -1.16) (layer F.SilkS) (width 0.12))
  (fp_line (start 9.36 -1.16) (end 6.86 -1.16) (layer F.SilkS) (width 0.12))
  (fp_line (start -9.25 4.96) (end 9.25 4.96) (layer F.SilkS) (width 0.12))
  (fp_line (start -9.25 4.85) (end 9.25 4.85) (layer F.Fab) (width 0.1))
  (fp_line (start -9.25 -1.05) (end -9.25 4.85) (layer F.Fab) (width 0.1))
  (fp_line (start 9.25 -1.05) (end 9.25 4.85) (layer F.Fab) (width 0.1))
  (fp_line (start -12.17 -4.9) (end -12.17 5.35) (layer F.CrtYd) (width 0.05))
  (fp_line (start -12.17 5.35) (end 12.17 5.35) (layer F.CrtYd) (width 0.05))
  (fp_line (start 12.17 5.35) (end 12.17 -4.9) (layer F.CrtYd) (width 0.05))
  (fp_line (start 12.17 -4.9) (end -12.17 -4.9) (layer F.CrtYd) (width 0.05))
  (fp_line (start -6.5 -1.05) (end -6 -0.342893) (layer F.Fab) (width 0.1))
  (fp_line (start -6 -0.342893) (end -5.5 -1.05) (layer F.Fab) (width 0.1))
  (pad 1 smd roundrect (at -6 -2.85) (size 1.2 3.1) (layers F.Cu F.Mask F.Paste) (roundrect_rratio 0.208333))
  (pad 2 smd roundrect (at -4 -2.85) (size 1.2 3.1) (layers F.Cu F.Mask F.Paste) (roundrect_rratio 0.208333))
  (pad 3 smd roundrect (at -2 -2.85) (size 1.2 3.1) (layers F.Cu F.Mask F.Paste) (roundrect_rratio 0.208333))
  (pad 4 smd roundrect (at 0 -2.85) (size 1.2 3.1) (layers F.Cu F.Mask F.Paste) (roundrect_rratio 0.208333))
  (pad 5 smd roundrect (at 2 -2.85) (size 1.2 3.1) (layers F.Cu F.Mask F.Paste) (roundrect_rratio 0.208333))
  (pad 6 smd roundrect (at 4 -2.85) (size 1.2 3.1) (layers F.Cu F.Mask F.Paste) (roundrect_rratio 0.208333))
  (pad 7 smd roundrect (at 6 -2.85) (size 1.2 3.1) (layers F.Cu F.Mask F.Paste) (roundrect_rratio 0.208333))
  (pad MP smd roundrect (at -10.52 2.75) (size 2.3 3.3) (layers F.Cu F.Mask F.Paste) (roundrect_rratio 0.108696))
  (pad MP smd roundrect (at 10.52 2.75) (size 2.3 3.3) (layers F.Cu F.Mask F.Paste) (roundrect_rratio 0.108696))
  (fp_text user %R (at 0 1.9) (layer F.Fab)
    (effects (font (size 1 1) (thickness 0.15)))
  )
  (model ${KICAD6_3DMODEL_DIR}/Connector_Hirose.3dshapes/Hirose_DF3EA-07P-2H_1x07-1MP_P2.00mm_Horizontal.wrl
    (at (xyz 0 0 0))
    (scale (xyz 1 1 1))
    (rotate (xyz 0 0 0))
  )
)