(module Hirose_DF13C_CL535-0402-2-51_1x02-1MP_P1.25mm_Vertical (layer F.Cu) (tedit 5D24675A)
  (descr "Hirose DF13C SMD, CL535-0402-2-51, 2 Pins per row (https://www.hirose.com/product/en/products/DF13/DF13C-10P-1.25V%2851%29/), generated with kicad-footprint-generator")
  (tags "connector Hirose DF13C vertical")
  (attr smd)
  (fp_text reference REF** (at 0 -3.55) (layer F.SilkS)
    (effects (font (size 1 1) (thickness 0.15)))
  )
  (fp_text value Hirose_DF13C_CL535-0402-2-51_1x02-1MP_P1.25mm_Vertical (at 0 4.15) (layer F.Fab)
    (effects (font (size 1 1) (thickness 0.15)))
  )
  (fp_line (start -2.825 -0.45) (end -2.825 2.95) (layer F.Fab) (width 0.1))
  (fp_line (start -2.825 2.95) (end 2.825 2.95) (layer F.Fab) (width 0.1))
  (fp_line (start 2.825 2.95) (end 2.825 -0.45) (layer F.Fab) (width 0.1))
  (fp_line (start 2.825 -0.45) (end -2.825 -0.45) (layer F.Fab) (width 0.1))
  (fp_line (start -1.235 -0.55) (end -2.925 -0.55) (layer F.SilkS) (width 0.12))
  (fp_line (start -2.925 -0.55) (end -2.925 -0.11) (layer F.SilkS) (width 0.12))
  (fp_line (start 1.235 -0.55) (end 2.925 -0.55) (layer F.SilkS) (width 0.12))
  (fp_line (start 2.925 -0.55) (end 2.925 -0.11) (layer F.SilkS) (width 0.12))
  (fp_line (start -2.925 2.61) (end -2.925 3.05) (layer F.SilkS) (width 0.12))
  (fp_line (start -2.925 3.05) (end 2.925 3.05) (layer F.SilkS) (width 0.12))
  (fp_line (start 2.925 3.05) (end 2.925 2.61) (layer F.SilkS) (width 0.12))
  (fp_line (start -1.235 -0.55) (end -1.235 -2.35) (layer F.SilkS) (width 0.12))
  (fp_line (start -1.125 -0.45) (end -0.625 0.257107) (layer F.Fab) (width 0.1))
  (fp_line (start -0.625 0.257107) (end -0.125 -0.45) (layer F.Fab) (width 0.1))
  (fp_line (start -0.975 -0.45) (end -0.975 1.92) (layer Dwgs.User) (width 0.1))
  (fp_line (start -0.975 1.92) (end 0.975 1.92) (layer Dwgs.User) (width 0.1))
  (fp_line (start 0.975 1.92) (end 0.975 -0.45) (layer Dwgs.User) (width 0.1))
  (fp_line (start 0.975 -0.45) (end -0.975 -0.45) (layer Dwgs.User) (width 0.1))
  (fp_line (start 0.439214 -0.45) (end -0.975 0.964214) (layer Dwgs.User) (width 0.1))
  (fp_line (start 0.975 0.428427) (end -0.516573 1.92) (layer Dwgs.User) (width 0.1))
  (fp_line (start 0.975 1.842641) (end 0.897641 1.92) (layer Dwgs.User) (width 0.1))
  (fp_line (start -4.18 -2.85) (end -4.18 3.45) (layer F.CrtYd) (width 0.05))
  (fp_line (start -4.18 3.45) (end 4.18 3.45) (layer F.CrtYd) (width 0.05))
  (fp_line (start 4.18 3.45) (end 4.18 -2.85) (layer F.CrtYd) (width 0.05))
  (fp_line (start 4.18 -2.85) (end -4.18 -2.85) (layer F.CrtYd) (width 0.05))
  (pad MP smd rect (at 2.875 1.25) (size 1.6 2.2) (layers F.Cu F.Mask F.Paste))
  (pad MP smd rect (at -2.875 1.25) (size 1.6 2.2) (layers F.Cu F.Mask F.Paste))
  (pad 1 smd rect (at -0.625 -1.45) (size 0.7 1.8) (layers F.Cu F.Mask F.Paste))
  (pad 2 smd rect (at 0.625 -1.45) (size 0.7 1.8) (layers F.Cu F.Mask F.Paste))
  (fp_text user KEEPOUT (at 0 0.735 90) (layer Cmts.User)
    (effects (font (size 0.34 0.34) (thickness 0.051)))
  )
  (fp_text user %R (at 0 2.25) (layer F.Fab)
    (effects (font (size 1 1) (thickness 0.15)))
  )
  (model ${KICAD6_3DMODEL_DIR}/Connector_Hirose.3dshapes/Hirose_DF13C_CL535-0402-2-51_1x02-1MP_P1.25mm_Vertical.wrl
    (at (xyz 0 0 0))
    (scale (xyz 1 1 1))
    (rotate (xyz 0 0 0))
  )
)