(module Hirose_DF13C_CL535-0409-1-51_1x09-1MP_P1.25mm_Vertical (layer F.Cu) (tedit 5D24675A)
  (descr "Hirose DF13C SMD, CL535-0409-1-51, 9 Pins per row (https://www.hirose.com/product/en/products/DF13/DF13C-10P-1.25V%2851%29/), generated with kicad-footprint-generator")
  (tags "connector Hirose DF13C vertical")
  (attr smd)
  (fp_text reference REF** (at 0 -3.55) (layer F.SilkS)
    (effects (font (size 1 1) (thickness 0.15)))
  )
  (fp_text value Hirose_DF13C_CL535-0409-1-51_1x09-1MP_P1.25mm_Vertical (at 0 4.15) (layer F.Fab)
    (effects (font (size 1 1) (thickness 0.15)))
  )
  (fp_line (start -7.2 -0.45) (end -7.2 2.95) (layer F.Fab) (width 0.1))
  (fp_line (start -7.2 2.95) (end 7.2 2.95) (layer F.Fab) (width 0.1))
  (fp_line (start 7.2 2.95) (end 7.2 -0.45) (layer F.Fab) (width 0.1))
  (fp_line (start 7.2 -0.45) (end -7.2 -0.45) (layer F.Fab) (width 0.1))
  (fp_line (start -5.61 -0.55) (end -7.3 -0.55) (layer F.SilkS) (width 0.12))
  (fp_line (start -7.3 -0.55) (end -7.3 -0.11) (layer F.SilkS) (width 0.12))
  (fp_line (start 5.61 -0.55) (end 7.3 -0.55) (layer F.SilkS) (width 0.12))
  (fp_line (start 7.3 -0.55) (end 7.3 -0.11) (layer F.SilkS) (width 0.12))
  (fp_line (start -7.3 2.61) (end -7.3 3.05) (layer F.SilkS) (width 0.12))
  (fp_line (start -7.3 3.05) (end 7.3 3.05) (layer F.SilkS) (width 0.12))
  (fp_line (start 7.3 3.05) (end 7.3 2.61) (layer F.SilkS) (width 0.12))
  (fp_line (start -5.61 -0.55) (end -5.61 -2.35) (layer F.SilkS) (width 0.12))
  (fp_line (start -5.5 -0.45) (end -5 0.257107) (layer F.Fab) (width 0.1))
  (fp_line (start -5 0.257107) (end -4.5 -0.45) (layer F.Fab) (width 0.1))
  (fp_line (start -5.35 -0.45) (end -5.35 1.92) (layer Dwgs.User) (width 0.1))
  (fp_line (start -5.35 1.92) (end 5.35 1.92) (layer Dwgs.User) (width 0.1))
  (fp_line (start 5.35 1.92) (end 5.35 -0.45) (layer Dwgs.User) (width 0.1))
  (fp_line (start 5.35 -0.45) (end -5.35 -0.45) (layer Dwgs.User) (width 0.1))
  (fp_line (start -3.935786 -0.45) (end -5.35 0.964214) (layer Dwgs.User) (width 0.1))
  (fp_line (start -2.521573 -0.45) (end -4.891573 1.92) (layer Dwgs.User) (width 0.1))
  (fp_line (start -1.107359 -0.45) (end -3.477359 1.92) (layer Dwgs.User) (width 0.1))
  (fp_line (start 0.306854 -0.45) (end -2.063146 1.92) (layer Dwgs.User) (width 0.1))
  (fp_line (start 1.721068 -0.45) (end -0.648932 1.92) (layer Dwgs.User) (width 0.1))
  (fp_line (start 3.135281 -0.45) (end 0.765281 1.92) (layer Dwgs.User) (width 0.1))
  (fp_line (start 4.549495 -0.45) (end 2.179495 1.92) (layer Dwgs.User) (width 0.1))
  (fp_line (start 5.35 0.163708) (end 3.593708 1.92) (layer Dwgs.User) (width 0.1))
  (fp_line (start 5.35 1.577922) (end 5.007922 1.92) (layer Dwgs.User) (width 0.1))
  (fp_line (start -8.55 -2.85) (end -8.55 3.45) (layer F.CrtYd) (width 0.05))
  (fp_line (start -8.55 3.45) (end 8.55 3.45) (layer F.CrtYd) (width 0.05))
  (fp_line (start 8.55 3.45) (end 8.55 -2.85) (layer F.CrtYd) (width 0.05))
  (fp_line (start 8.55 -2.85) (end -8.55 -2.85) (layer F.CrtYd) (width 0.05))
  (pad MP smd rect (at 7.25 1.25) (size 1.6 2.2) (layers F.Cu F.Mask F.Paste))
  (pad MP smd rect (at -7.25 1.25) (size 1.6 2.2) (layers F.Cu F.Mask F.Paste))
  (pad 1 smd rect (at -5 -1.45) (size 0.7 1.8) (layers F.Cu F.Mask F.Paste))
  (pad 2 smd rect (at -3.75 -1.45) (size 0.7 1.8) (layers F.Cu F.Mask F.Paste))
  (pad 3 smd rect (at -2.5 -1.45) (size 0.7 1.8) (layers F.Cu F.Mask F.Paste))
  (pad 4 smd rect (at -1.25 -1.45) (size 0.7 1.8) (layers F.Cu F.Mask F.Paste))
  (pad 5 smd rect (at 0 -1.45) (size 0.7 1.8) (layers F.Cu F.Mask F.Paste))
  (pad 6 smd rect (at 1.25 -1.45) (size 0.7 1.8) (layers F.Cu F.Mask F.Paste))
  (pad 7 smd rect (at 2.5 -1.45) (size 0.7 1.8) (layers F.Cu F.Mask F.Paste))
  (pad 8 smd rect (at 3.75 -1.45) (size 0.7 1.8) (layers F.Cu F.Mask F.Paste))
  (pad 9 smd rect (at 5 -1.45) (size 0.7 1.8) (layers F.Cu F.Mask F.Paste))
  (fp_text user KEEPOUT (at 0 0.735) (layer Cmts.User)
    (effects (font (size 1 1) (thickness 0.15)))
  )
  (fp_text user %R (at 0 2.25) (layer F.Fab)
    (effects (font (size 1 1) (thickness 0.15)))
  )
  (model ${KICAD6_3DMODEL_DIR}/Connector_Hirose.3dshapes/Hirose_DF13C_CL535-0409-1-51_1x09-1MP_P1.25mm_Vertical.wrl
    (at (xyz 0 0 0))
    (scale (xyz 1 1 1))
    (rotate (xyz 0 0 0))
  )
)