(module Hirose_DF12_DF12E3.0-36DP-0.5V_2x18_P0.50mm_Vertical (layer F.Cu) (tedit 5D2467A2)
  (descr "Hirose DF12E SMD, DF12E3.0-36DP-0.5V, 36 Pins per row (https://www.hirose.com/product/document?clcode=CL0537-0834-6-81&productname=DF12E(3.0)-50DP-0.5V(81)&series=DF12&documenttype=2DDrawing&lang=en&documentid=0000992393), generated with kicad-footprint-generator")
  (tags "connector Hirose DF12 vertical")
  (attr smd)
  (fp_text reference REF** (at 0 -4.1) (layer F.SilkS)
    (effects (font (size 1 1) (thickness 0.15)))
  )
  (fp_text value Hirose_DF12_DF12E3.0-36DP-0.5V_2x18_P0.50mm_Vertical (at 0 4.1) (layer F.Fab)
    (effects (font (size 1 1) (thickness 0.15)))
  )
  (fp_line (start -5.6 1.9) (end -5.6 -1.9) (layer F.Fab) (width 0.1))
  (fp_line (start -5.6 -1.9) (end 5.6 -1.9) (layer F.Fab) (width 0.1))
  (fp_line (start 5.6 -1.9) (end 5.6 1.9) (layer F.Fab) (width 0.1))
  (fp_line (start 5.6 1.9) (end -5.6 1.9) (layer F.Fab) (width 0.1))
  (fp_line (start -4.85 1.225) (end -4.85 -1.225) (layer F.Fab) (width 0.1))
  (fp_line (start -4.85 -1.225) (end 4.85 -1.225) (layer F.Fab) (width 0.1))
  (fp_line (start 4.85 -1.225) (end 4.85 1.225) (layer F.Fab) (width 0.1))
  (fp_line (start 4.85 1.225) (end -4.85 1.225) (layer F.Fab) (width 0.1))
  (fp_line (start -4.45 2.65) (end -4.25 1.8) (layer F.Fab) (width 0.1))
  (fp_line (start -4.25 1.8) (end -4.05 2.65) (layer F.Fab) (width 0.1))
  (fp_line (start -4.05 2.65) (end -4.45 2.65) (layer F.Fab) (width 0.1))
  (fp_line (start -4.66 2.433333) (end -4.66 2.01) (layer F.SilkS) (width 0.12))
  (fp_line (start -4.66 2.01) (end -5.71 2.01) (layer F.SilkS) (width 0.12))
  (fp_line (start -5.71 2.01) (end -5.71 -2.01) (layer F.SilkS) (width 0.12))
  (fp_line (start -5.71 -2.01) (end -4.66 -2.01) (layer F.SilkS) (width 0.12))
  (fp_line (start 4.66 2.01) (end 5.71 2.01) (layer F.SilkS) (width 0.12))
  (fp_line (start 5.71 2.01) (end 5.71 -2.01) (layer F.SilkS) (width 0.12))
  (fp_line (start 5.71 -2.01) (end 4.66 -2.01) (layer F.SilkS) (width 0.12))
  (fp_line (start -6.1 -3.1) (end -6.1 3.1) (layer F.CrtYd) (width 0.05))
  (fp_line (start -6.1 3.1) (end 6.1 3.1) (layer F.CrtYd) (width 0.05))
  (fp_line (start 6.1 3.1) (end 6.1 -3.1) (layer F.CrtYd) (width 0.05))
  (fp_line (start 6.1 -3.1) (end -6.1 -3.1) (layer F.CrtYd) (width 0.05))
  (pad 1 smd rect (at -4.25 1.8) (size 0.3 1.6) (layers F.Cu F.Mask))
  (pad 2 smd rect (at -3.75 1.8) (size 0.3 1.6) (layers F.Cu F.Mask))
  (pad 3 smd rect (at -3.25 1.8) (size 0.3 1.6) (layers F.Cu F.Mask))
  (pad 4 smd rect (at -2.75 1.8) (size 0.3 1.6) (layers F.Cu F.Mask))
  (pad 5 smd rect (at -2.25 1.8) (size 0.3 1.6) (layers F.Cu F.Mask))
  (pad 6 smd rect (at -1.75 1.8) (size 0.3 1.6) (layers F.Cu F.Mask))
  (pad 7 smd rect (at -1.25 1.8) (size 0.3 1.6) (layers F.Cu F.Mask))
  (pad 8 smd rect (at -0.75 1.8) (size 0.3 1.6) (layers F.Cu F.Mask))
  (pad 9 smd rect (at -0.25 1.8) (size 0.3 1.6) (layers F.Cu F.Mask))
  (pad 10 smd rect (at 0.25 1.8) (size 0.3 1.6) (layers F.Cu F.Mask))
  (pad 11 smd rect (at 0.75 1.8) (size 0.3 1.6) (layers F.Cu F.Mask))
  (pad 12 smd rect (at 1.25 1.8) (size 0.3 1.6) (layers F.Cu F.Mask))
  (pad 13 smd rect (at 1.75 1.8) (size 0.3 1.6) (layers F.Cu F.Mask))
  (pad 14 smd rect (at 2.25 1.8) (size 0.3 1.6) (layers F.Cu F.Mask))
  (pad 15 smd rect (at 2.75 1.8) (size 0.3 1.6) (layers F.Cu F.Mask))
  (pad 16 smd rect (at 3.25 1.8) (size 0.3 1.6) (layers F.Cu F.Mask))
  (pad 17 smd rect (at 3.75 1.8) (size 0.3 1.6) (layers F.Cu F.Mask))
  (pad 18 smd rect (at 4.25 1.8) (size 0.3 1.6) (layers F.Cu F.Mask))
  (pad 19 smd rect (at -4.25 -1.8) (size 0.3 1.6) (layers F.Cu F.Mask))
  (pad 20 smd rect (at -3.75 -1.8) (size 0.3 1.6) (layers F.Cu F.Mask))
  (pad 21 smd rect (at -3.25 -1.8) (size 0.3 1.6) (layers F.Cu F.Mask))
  (pad 22 smd rect (at -2.75 -1.8) (size 0.3 1.6) (layers F.Cu F.Mask))
  (pad 23 smd rect (at -2.25 -1.8) (size 0.3 1.6) (layers F.Cu F.Mask))
  (pad 24 smd rect (at -1.75 -1.8) (size 0.3 1.6) (layers F.Cu F.Mask))
  (pad 25 smd rect (at -1.25 -1.8) (size 0.3 1.6) (layers F.Cu F.Mask))
  (pad 26 smd rect (at -0.75 -1.8) (size 0.3 1.6) (layers F.Cu F.Mask))
  (pad 27 smd rect (at -0.25 -1.8) (size 0.3 1.6) (layers F.Cu F.Mask))
  (pad 28 smd rect (at 0.25 -1.8) (size 0.3 1.6) (layers F.Cu F.Mask))
  (pad 29 smd rect (at 0.75 -1.8) (size 0.3 1.6) (layers F.Cu F.Mask))
  (pad 30 smd rect (at 1.25 -1.8) (size 0.3 1.6) (layers F.Cu F.Mask))
  (pad 31 smd rect (at 1.75 -1.8) (size 0.3 1.6) (layers F.Cu F.Mask))
  (pad 32 smd rect (at 2.25 -1.8) (size 0.3 1.6) (layers F.Cu F.Mask))
  (pad 33 smd rect (at 2.75 -1.8) (size 0.3 1.6) (layers F.Cu F.Mask))
  (pad 34 smd rect (at 3.25 -1.8) (size 0.3 1.6) (layers F.Cu F.Mask))
  (pad 35 smd rect (at 3.75 -1.8) (size 0.3 1.6) (layers F.Cu F.Mask))
  (pad 36 smd rect (at 4.25 -1.8) (size 0.3 1.6) (layers F.Cu F.Mask))
  (pad "" smd rect (at -4.25 2) (size 0.28 1.2) (layers F.Paste))
  (pad "" smd rect (at -3.75 2) (size 0.28 1.2) (layers F.Paste))
  (pad "" smd rect (at -3.25 2) (size 0.28 1.2) (layers F.Paste))
  (pad "" smd rect (at -2.75 2) (size 0.28 1.2) (layers F.Paste))
  (pad "" smd rect (at -2.25 2) (size 0.28 1.2) (layers F.Paste))
  (pad "" smd rect (at -1.75 2) (size 0.28 1.2) (layers F.Paste))
  (pad "" smd rect (at -1.25 2) (size 0.28 1.2) (layers F.Paste))
  (pad "" smd rect (at -0.75 2) (size 0.28 1.2) (layers F.Paste))
  (pad "" smd rect (at -0.25 2) (size 0.28 1.2) (layers F.Paste))
  (pad "" smd rect (at 0.25 2) (size 0.28 1.2) (layers F.Paste))
  (pad "" smd rect (at 0.75 2) (size 0.28 1.2) (layers F.Paste))
  (pad "" smd rect (at 1.25 2) (size 0.28 1.2) (layers F.Paste))
  (pad "" smd rect (at 1.75 2) (size 0.28 1.2) (layers F.Paste))
  (pad "" smd rect (at 2.25 2) (size 0.28 1.2) (layers F.Paste))
  (pad "" smd rect (at 2.75 2) (size 0.28 1.2) (layers F.Paste))
  (pad "" smd rect (at 3.25 2) (size 0.28 1.2) (layers F.Paste))
  (pad "" smd rect (at 3.75 2) (size 0.28 1.2) (layers F.Paste))
  (pad "" smd rect (at 4.25 2) (size 0.28 1.2) (layers F.Paste))
  (pad "" smd rect (at -4.25 -2) (size 0.28 1.2) (layers F.Paste))
  (pad "" smd rect (at -3.75 -2) (size 0.28 1.2) (layers F.Paste))
  (pad "" smd rect (at -3.25 -2) (size 0.28 1.2) (layers F.Paste))
  (pad "" smd rect (at -2.75 -2) (size 0.28 1.2) (layers F.Paste))
  (pad "" smd rect (at -2.25 -2) (size 0.28 1.2) (layers F.Paste))
  (pad "" smd rect (at -1.75 -2) (size 0.28 1.2) (layers F.Paste))
  (pad "" smd rect (at -1.25 -2) (size 0.28 1.2) (layers F.Paste))
  (pad "" smd rect (at -0.75 -2) (size 0.28 1.2) (layers F.Paste))
  (pad "" smd rect (at -0.25 -2) (size 0.28 1.2) (layers F.Paste))
  (pad "" smd rect (at 0.25 -2) (size 0.28 1.2) (layers F.Paste))
  (pad "" smd rect (at 0.75 -2) (size 0.28 1.2) (layers F.Paste))
  (pad "" smd rect (at 1.25 -2) (size 0.28 1.2) (layers F.Paste))
  (pad "" smd rect (at 1.75 -2) (size 0.28 1.2) (layers F.Paste))
  (pad "" smd rect (at 2.25 -2) (size 0.28 1.2) (layers F.Paste))
  (pad "" smd rect (at 2.75 -2) (size 0.28 1.2) (layers F.Paste))
  (pad "" smd rect (at 3.25 -2) (size 0.28 1.2) (layers F.Paste))
  (pad "" smd rect (at 3.75 -2) (size 0.28 1.2) (layers F.Paste))
  (pad "" smd rect (at 4.25 -2) (size 0.28 1.2) (layers F.Paste))
  (fp_text user %R (at 0 -1.2) (layer F.Fab)
    (effects (font (size 1 1) (thickness 0.15)))
  )
  (model ${KICAD6_3DMODEL_DIR}/Connector_Hirose.3dshapes/Hirose_DF12_DF12E3.0-36DP-0.5V_2x18_P0.50mm_Vertical.wrl
    (at (xyz 0 0 0))
    (scale (xyz 1 1 1))
    (rotate (xyz 0 0 0))
  )
)