(module Hirose_DF13-06P-1.25DS_1x06_P1.25mm_Horizontal (layer F.Cu) (tedit 5D246AAF)
  (descr "Hirose DF13 through hole, DF13-06P-1.25DS, 6 Pins per row (https://www.hirose.com/product/en/products/DF13/DF13-4P-1.25DS%2820%29/), generated with kicad-footprint-generator")
  (tags "connector Hirose DF13 horizontal")
  (fp_text reference REF** (at 3.12 -5.7) (layer F.SilkS)
    (effects (font (size 1 1) (thickness 0.15)))
  )
  (fp_text value Hirose_DF13-06P-1.25DS_1x06_P1.25mm_Horizontal (at 3.12 2.1) (layer F.Fab)
    (effects (font (size 1 1) (thickness 0.15)))
  )
  (fp_line (start -1.45 -4.5) (end -1.45 0.9) (layer F.Fab) (width 0.1))
  (fp_line (start -1.45 0.9) (end 7.7 0.9) (layer F.Fab) (width 0.1))
  (fp_line (start 7.7 0.9) (end 7.7 -4.5) (layer F.Fab) (width 0.1))
  (fp_line (start 7.7 -4.5) (end -1.45 -4.5) (layer F.Fab) (width 0.1))
  (fp_line (start -0.25 0.96) (end -0.25 1.01) (layer F.SilkS) (width 0.12))
  (fp_line (start -0.25 1.01) (end -1.56 1.01) (layer F.SilkS) (width 0.12))
  (fp_line (start -1.56 1.01) (end -1.56 -4.61) (layer F.SilkS) (width 0.12))
  (fp_line (start -1.56 -4.61) (end 7.81 -4.61) (layer F.SilkS) (width 0.12))
  (fp_line (start 7.81 -4.61) (end 7.81 1.01) (layer F.SilkS) (width 0.12))
  (fp_line (start 7.81 1.01) (end 6.5 1.01) (layer F.SilkS) (width 0.12))
  (fp_line (start 6.5 1.01) (end 6.5 0.96) (layer F.SilkS) (width 0.12))
  (fp_line (start -1.01 -2.5) (end 7.26 -2.5) (layer F.SilkS) (width 0.12))
  (fp_line (start -1.01 -1) (end 7.26 -1) (layer F.SilkS) (width 0.12))
  (fp_line (start -1.01 -4.61) (end -1.01 1.01) (layer F.SilkS) (width 0.12))
  (fp_line (start 7.26 -4.61) (end 7.26 1.01) (layer F.SilkS) (width 0.12))
  (fp_line (start -0.15 -2.5) (end -0.15 -3.9625) (layer F.SilkS) (width 0.12))
  (fp_line (start -0.15 -3.9625) (end 0 -4) (layer F.SilkS) (width 0.12))
  (fp_line (start 0 -4) (end 0.15 -3.9625) (layer F.SilkS) (width 0.12))
  (fp_line (start 0.15 -3.9625) (end 0.15 -2.5) (layer F.SilkS) (width 0.12))
  (fp_line (start 1.1 -2.5) (end 1.1 -3.9625) (layer F.SilkS) (width 0.12))
  (fp_line (start 1.1 -3.9625) (end 1.25 -4) (layer F.SilkS) (width 0.12))
  (fp_line (start 1.25 -4) (end 1.4 -3.9625) (layer F.SilkS) (width 0.12))
  (fp_line (start 1.4 -3.9625) (end 1.4 -2.5) (layer F.SilkS) (width 0.12))
  (fp_line (start 0.25 0.96) (end 0.25 1.01) (layer F.SilkS) (width 0.12))
  (fp_line (start 0.25 1.01) (end 1 1.01) (layer F.SilkS) (width 0.12))
  (fp_line (start 1 1.01) (end 1 0.96) (layer F.SilkS) (width 0.12))
  (fp_line (start 2.35 -2.5) (end 2.35 -3.9625) (layer F.SilkS) (width 0.12))
  (fp_line (start 2.35 -3.9625) (end 2.5 -4) (layer F.SilkS) (width 0.12))
  (fp_line (start 2.5 -4) (end 2.65 -3.9625) (layer F.SilkS) (width 0.12))
  (fp_line (start 2.65 -3.9625) (end 2.65 -2.5) (layer F.SilkS) (width 0.12))
  (fp_line (start 1.5 0.96) (end 1.5 1.01) (layer F.SilkS) (width 0.12))
  (fp_line (start 1.5 1.01) (end 2.25 1.01) (layer F.SilkS) (width 0.12))
  (fp_line (start 2.25 1.01) (end 2.25 0.96) (layer F.SilkS) (width 0.12))
  (fp_line (start 3.6 -2.5) (end 3.6 -3.9625) (layer F.SilkS) (width 0.12))
  (fp_line (start 3.6 -3.9625) (end 3.75 -4) (layer F.SilkS) (width 0.12))
  (fp_line (start 3.75 -4) (end 3.9 -3.9625) (layer F.SilkS) (width 0.12))
  (fp_line (start 3.9 -3.9625) (end 3.9 -2.5) (layer F.SilkS) (width 0.12))
  (fp_line (start 2.75 0.96) (end 2.75 1.01) (layer F.SilkS) (width 0.12))
  (fp_line (start 2.75 1.01) (end 3.5 1.01) (layer F.SilkS) (width 0.12))
  (fp_line (start 3.5 1.01) (end 3.5 0.96) (layer F.SilkS) (width 0.12))
  (fp_line (start 4.85 -2.5) (end 4.85 -3.9625) (layer F.SilkS) (width 0.12))
  (fp_line (start 4.85 -3.9625) (end 5 -4) (layer F.SilkS) (width 0.12))
  (fp_line (start 5 -4) (end 5.15 -3.9625) (layer F.SilkS) (width 0.12))
  (fp_line (start 5.15 -3.9625) (end 5.15 -2.5) (layer F.SilkS) (width 0.12))
  (fp_line (start 4 0.96) (end 4 1.01) (layer F.SilkS) (width 0.12))
  (fp_line (start 4 1.01) (end 4.75 1.01) (layer F.SilkS) (width 0.12))
  (fp_line (start 4.75 1.01) (end 4.75 0.96) (layer F.SilkS) (width 0.12))
  (fp_line (start 6.1 -2.5) (end 6.1 -3.9625) (layer F.SilkS) (width 0.12))
  (fp_line (start 6.1 -3.9625) (end 6.25 -4) (layer F.SilkS) (width 0.12))
  (fp_line (start 6.25 -4) (end 6.4 -3.9625) (layer F.SilkS) (width 0.12))
  (fp_line (start 6.4 -3.9625) (end 6.4 -2.5) (layer F.SilkS) (width 0.12))
  (fp_line (start 5.25 0.96) (end 5.25 1.01) (layer F.SilkS) (width 0.12))
  (fp_line (start 5.25 1.01) (end 6 1.01) (layer F.SilkS) (width 0.12))
  (fp_line (start 6 1.01) (end 6 0.96) (layer F.SilkS) (width 0.12))
  (fp_line (start 0 1.5) (end -0.3 2.1) (layer F.SilkS) (width 0.12))
  (fp_line (start -0.3 2.1) (end 0.3 2.1) (layer F.SilkS) (width 0.12))
  (fp_line (start 0.3 2.1) (end 0 1.5) (layer F.SilkS) (width 0.12))
  (fp_line (start -0.5 0.9) (end 0 0.192893) (layer F.Fab) (width 0.1))
  (fp_line (start 0 0.192893) (end 0.5 0.9) (layer F.Fab) (width 0.1))
  (fp_line (start -1.95 -5) (end -1.95 1.4) (layer F.CrtYd) (width 0.05))
  (fp_line (start -1.95 1.4) (end 8.2 1.4) (layer F.CrtYd) (width 0.05))
  (fp_line (start 8.2 1.4) (end 8.2 -5) (layer F.CrtYd) (width 0.05))
  (fp_line (start 8.2 -5) (end -1.95 -5) (layer F.CrtYd) (width 0.05))
  (pad 1 thru_hole roundrect (at 0 0) (size 0.9 1.4) (drill 0.6) (layers *.Cu *.Mask) (roundrect_rratio 0.25))
  (pad 2 thru_hole oval (at 1.25 0) (size 0.9 1.4) (drill 0.6) (layers *.Cu *.Mask))
  (pad 3 thru_hole oval (at 2.5 0) (size 0.9 1.4) (drill 0.6) (layers *.Cu *.Mask))
  (pad 4 thru_hole oval (at 3.75 0) (size 0.9 1.4) (drill 0.6) (layers *.Cu *.Mask))
  (pad 5 thru_hole oval (at 5 0) (size 0.9 1.4) (drill 0.6) (layers *.Cu *.Mask))
  (pad 6 thru_hole oval (at 6.25 0) (size 0.9 1.4) (drill 0.6) (layers *.Cu *.Mask))
  (fp_text user %R (at 3.12 -3.8) (layer F.Fab)
    (effects (font (size 1 1) (thickness 0.15)))
  )
  (model ${KICAD6_3DMODEL_DIR}/Connector_Hirose.3dshapes/Hirose_DF13-06P-1.25DS_1x06_P1.25mm_Horizontal.wrl
    (at (xyz 0 0 0))
    (scale (xyz 1 1 1))
    (rotate (xyz 0 0 0))
  )
)