(module Hirose_DF11-10DP-2DSA_2x05_P2.00mm_Vertical (layer F.Cu) (tedit 5D246640)
  (descr "Hirose DF11 through hole, DF11-10DP-2DSA, 5 Pins per row (https://www.hirose.com/product/document?clcode=&productname=&series=DF11&documenttype=Catalog&lang=en&documentid=D31688_en), generated with kicad-footprint-generator")
  (tags "connector Hirose DF11 vertical")
  (fp_text reference REF** (at 4 -2.7) (layer F.SilkS)
    (effects (font (size 1 1) (thickness 0.15)))
  )
  (fp_text value Hirose_DF11-10DP-2DSA_2x05_P2.00mm_Vertical (at 4 4.7) (layer F.Fab)
    (effects (font (size 1 1) (thickness 0.15)))
  )
  (fp_line (start -2 -1.5) (end -2 3.5) (layer F.Fab) (width 0.1))
  (fp_line (start -2 3.5) (end 10 3.5) (layer F.Fab) (width 0.1))
  (fp_line (start 10 3.5) (end 10 -1.5) (layer F.Fab) (width 0.1))
  (fp_line (start 10 -1.5) (end -2 -1.5) (layer F.Fab) (width 0.1))
  (fp_line (start -0.5 -1.5) (end 0 -0.792893) (layer F.Fab) (width 0.1))
  (fp_line (start 0 -0.792893) (end 0.5 -1.5) (layer F.Fab) (width 0.1))
  (fp_line (start -2.1 -1.6) (end -2.1 3.6) (layer F.SilkS) (width 0.12))
  (fp_line (start -2.1 3.6) (end 10.1 3.6) (layer F.SilkS) (width 0.12))
  (fp_line (start 10.1 3.6) (end 10.1 -1.6) (layer F.SilkS) (width 0.12))
  (fp_line (start 10.1 -1.6) (end -2.1 -1.6) (layer F.SilkS) (width 0.12))
  (fp_line (start -2.41 0) (end -2.41 -1.91) (layer F.SilkS) (width 0.12))
  (fp_line (start -2.41 -1.91) (end -0.5 -1.91) (layer F.SilkS) (width 0.12))
  (fp_line (start -2.1 2) (end -1.7 2) (layer F.SilkS) (width 0.12))
  (fp_line (start -1.7 2) (end -1.7 3.2) (layer F.SilkS) (width 0.12))
  (fp_line (start -1.7 3.2) (end 9.7 3.2) (layer F.SilkS) (width 0.12))
  (fp_line (start 9.7 3.2) (end 9.7 2) (layer F.SilkS) (width 0.12))
  (fp_line (start 9.7 2) (end 10.1 2) (layer F.SilkS) (width 0.12))
  (fp_line (start -2.1 1) (end -1.7 1) (layer F.SilkS) (width 0.12))
  (fp_line (start -1.7 1) (end -1.7 -1.2) (layer F.SilkS) (width 0.12))
  (fp_line (start -1.7 -1.2) (end 0.5 -1.2) (layer F.SilkS) (width 0.12))
  (fp_line (start 0.5 -1.2) (end 0.5 -1.6) (layer F.SilkS) (width 0.12))
  (fp_line (start 10.1 1) (end 9.7 1) (layer F.SilkS) (width 0.12))
  (fp_line (start 9.7 1) (end 9.7 -1.2) (layer F.SilkS) (width 0.12))
  (fp_line (start 9.7 -1.2) (end 7.5 -1.2) (layer F.SilkS) (width 0.12))
  (fp_line (start 7.5 -1.2) (end 7.5 -1.6) (layer F.SilkS) (width 0.12))
  (fp_line (start 1.5 -1.6) (end 1.5 -1.2) (layer F.SilkS) (width 0.12))
  (fp_line (start 1.5 -1.2) (end 6.5 -1.2) (layer F.SilkS) (width 0.12))
  (fp_line (start 6.5 -1.2) (end 6.5 -1.6) (layer F.SilkS) (width 0.12))
  (fp_line (start -2.5 -2) (end -2.5 4) (layer F.CrtYd) (width 0.05))
  (fp_line (start -2.5 4) (end 10.5 4) (layer F.CrtYd) (width 0.05))
  (fp_line (start 10.5 4) (end 10.5 -2) (layer F.CrtYd) (width 0.05))
  (fp_line (start 10.5 -2) (end -2.5 -2) (layer F.CrtYd) (width 0.05))
  (pad 1 thru_hole roundrect (at 0 0) (size 1.2 1.65) (drill 0.85) (layers *.Cu *.Mask) (roundrect_rratio 0.208333))
  (pad 3 thru_hole oval (at 2 0) (size 1.2 1.65) (drill 0.85) (layers *.Cu *.Mask))
  (pad 5 thru_hole oval (at 4 0) (size 1.2 1.65) (drill 0.85) (layers *.Cu *.Mask))
  (pad 7 thru_hole oval (at 6 0) (size 1.2 1.65) (drill 0.85) (layers *.Cu *.Mask))
  (pad 9 thru_hole oval (at 8 0) (size 1.2 1.65) (drill 0.85) (layers *.Cu *.Mask))
  (pad 2 thru_hole oval (at 0 2) (size 1.2 1.65) (drill 0.85) (layers *.Cu *.Mask))
  (pad 4 thru_hole oval (at 2 2) (size 1.2 1.65) (drill 0.85) (layers *.Cu *.Mask))
  (pad 6 thru_hole oval (at 4 2) (size 1.2 1.65) (drill 0.85) (layers *.Cu *.Mask))
  (pad 8 thru_hole oval (at 6 2) (size 1.2 1.65) (drill 0.85) (layers *.Cu *.Mask))
  (pad 10 thru_hole oval (at 8 2) (size 1.2 1.65) (drill 0.85) (layers *.Cu *.Mask))
  (fp_text user %R (at 4 2.8) (layer F.Fab)
    (effects (font (size 1 1) (thickness 0.15)))
  )
  (model ${KICAD6_3DMODEL_DIR}/Connector_Hirose.3dshapes/Hirose_DF11-10DP-2DSA_2x05_P2.00mm_Vertical.wrl
    (at (xyz 0 0 0))
    (scale (xyz 1 1 1))
    (rotate (xyz 0 0 0))
  )
)