(module Hirose_DF52-5S-0.8H_1x05-1MP_P0.80mm_Horizontal (layer F.Cu) (tedit 5B78AD86)
  (descr "Hirose  series connector, DF52-5S-0.8H (https://www.hirose.com/product/en/products/DF52/DF52-3S-0.8H%2821%29/), generated with kicad-footprint-generator")
  (tags "connector Hirose  top entry")
  (attr smd)
  (fp_text reference REF** (at 0 -2.81) (layer F.SilkS)
    (effects (font (size 1 1) (thickness 0.15)))
  )
  (fp_text value Hirose_DF52-5S-0.8H_1x05-1MP_P0.80mm_Horizontal (at 0 2.81) (layer F.Fab)
    (effects (font (size 1 1) (thickness 0.15)))
  )
  (fp_line (start -3.1 -1.26) (end 3.1 -1.26) (layer F.Fab) (width 0.1))
  (fp_line (start -3.21 -0.25) (end -3.21 -1.37) (layer F.SilkS) (width 0.12))
  (fp_line (start -3.21 -1.37) (end -2.11 -1.37) (layer F.SilkS) (width 0.12))
  (fp_line (start -2.11 -1.37) (end -2.11 -1.61) (layer F.SilkS) (width 0.12))
  (fp_line (start 3.21 -0.25) (end 3.21 -1.37) (layer F.SilkS) (width 0.12))
  (fp_line (start 3.21 -1.37) (end 2.11 -1.37) (layer F.SilkS) (width 0.12))
  (fp_line (start -2.14 1.62) (end 2.14 1.62) (layer F.SilkS) (width 0.12))
  (fp_line (start -3.1 1.51) (end 3.1 1.51) (layer F.Fab) (width 0.1))
  (fp_line (start -3.1 -1.26) (end -3.1 1.51) (layer F.Fab) (width 0.1))
  (fp_line (start 3.1 -1.26) (end 3.1 1.51) (layer F.Fab) (width 0.1))
  (fp_line (start -3.8 -2.11) (end -3.8 2.11) (layer F.CrtYd) (width 0.05))
  (fp_line (start -3.8 2.11) (end 3.8 2.11) (layer F.CrtYd) (width 0.05))
  (fp_line (start 3.8 2.11) (end 3.8 -2.11) (layer F.CrtYd) (width 0.05))
  (fp_line (start 3.8 -2.11) (end -3.8 -2.11) (layer F.CrtYd) (width 0.05))
  (fp_line (start -2.1 -1.26) (end -1.6 -0.552893) (layer F.Fab) (width 0.1))
  (fp_line (start -1.6 -0.552893) (end -1.1 -1.26) (layer F.Fab) (width 0.1))
  (fp_line (start -1.85 -2.463553) (end -1.6 -2.11) (layer F.SilkS) (width 0.12))
  (fp_line (start -1.6 -2.11) (end -1.35 -2.463553) (layer F.SilkS) (width 0.12))
  (fp_line (start -1.35 -2.463553) (end -1.85 -2.463553) (layer F.SilkS) (width 0.12))
  (pad 1 smd roundrect (at -1.6 -1.11) (size 0.5 1) (layers F.Cu F.Mask F.Paste) (roundrect_rratio 0.25))
  (pad 2 smd roundrect (at -0.8 -1.11) (size 0.5 1) (layers F.Cu F.Mask F.Paste) (roundrect_rratio 0.25))
  (pad 3 smd roundrect (at 0 -1.11) (size 0.5 1) (layers F.Cu F.Mask F.Paste) (roundrect_rratio 0.25))
  (pad 4 smd roundrect (at 0.8 -1.11) (size 0.5 1) (layers F.Cu F.Mask F.Paste) (roundrect_rratio 0.25))
  (pad 5 smd roundrect (at 1.6 -1.11) (size 0.5 1) (layers F.Cu F.Mask F.Paste) (roundrect_rratio 0.25))
  (pad MP smd roundrect (at -2.85 0.81) (size 0.9 1.6) (layers F.Cu F.Mask F.Paste) (roundrect_rratio 0.25))
  (pad MP smd roundrect (at 2.85 0.81) (size 0.9 1.6) (layers F.Cu F.Mask F.Paste) (roundrect_rratio 0.25))
  (fp_text user %R (at 0 0.81) (layer F.Fab)
    (effects (font (size 1 1) (thickness 0.15)))
  )
  (model ${KICAD6_3DMODEL_DIR}/Connector_Hirose.3dshapes/Hirose_DF52-5S-0.8H_1x05-1MP_P0.80mm_Horizontal.wrl
    (at (xyz 0 0 0))
    (scale (xyz 1 1 1))
    (rotate (xyz 0 0 0))
  )
)