(module Hirose_DF52-4S-0.8H_1x04-1MP_P0.80mm_Horizontal (layer F.Cu) (tedit 5B78AD86)
  (descr "Hirose  series connector, DF52-4S-0.8H (https://www.hirose.com/product/en/products/DF52/DF52-3S-0.8H%2821%29/), generated with kicad-footprint-generator")
  (tags "connector Hirose  top entry")
  (attr smd)
  (fp_text reference REF** (at 0 -2.81) (layer F.SilkS)
    (effects (font (size 1 1) (thickness 0.15)))
  )
  (fp_text value Hirose_DF52-4S-0.8H_1x04-1MP_P0.80mm_Horizontal (at 0 2.81) (layer F.Fab)
    (effects (font (size 1 1) (thickness 0.15)))
  )
  (fp_line (start -2.7 -1.26) (end 2.7 -1.26) (layer F.Fab) (width 0.1))
  (fp_line (start -2.81 -0.25) (end -2.81 -1.37) (layer F.SilkS) (width 0.12))
  (fp_line (start -2.81 -1.37) (end -1.71 -1.37) (layer F.SilkS) (width 0.12))
  (fp_line (start -1.71 -1.37) (end -1.71 -1.61) (layer F.SilkS) (width 0.12))
  (fp_line (start 2.81 -0.25) (end 2.81 -1.37) (layer F.SilkS) (width 0.12))
  (fp_line (start 2.81 -1.37) (end 1.71 -1.37) (layer F.SilkS) (width 0.12))
  (fp_line (start -1.74 1.62) (end 1.74 1.62) (layer F.SilkS) (width 0.12))
  (fp_line (start -2.7 1.51) (end 2.7 1.51) (layer F.Fab) (width 0.1))
  (fp_line (start -2.7 -1.26) (end -2.7 1.51) (layer F.Fab) (width 0.1))
  (fp_line (start 2.7 -1.26) (end 2.7 1.51) (layer F.Fab) (width 0.1))
  (fp_line (start -3.4 -2.11) (end -3.4 2.11) (layer F.CrtYd) (width 0.05))
  (fp_line (start -3.4 2.11) (end 3.4 2.11) (layer F.CrtYd) (width 0.05))
  (fp_line (start 3.4 2.11) (end 3.4 -2.11) (layer F.CrtYd) (width 0.05))
  (fp_line (start 3.4 -2.11) (end -3.4 -2.11) (layer F.CrtYd) (width 0.05))
  (fp_line (start -1.7 -1.26) (end -1.2 -0.552893) (layer F.Fab) (width 0.1))
  (fp_line (start -1.2 -0.552893) (end -0.7 -1.26) (layer F.Fab) (width 0.1))
  (fp_line (start -1.45 -2.463553) (end -1.2 -2.11) (layer F.SilkS) (width 0.12))
  (fp_line (start -1.2 -2.11) (end -0.95 -2.463553) (layer F.SilkS) (width 0.12))
  (fp_line (start -0.95 -2.463553) (end -1.45 -2.463553) (layer F.SilkS) (width 0.12))
  (pad 1 smd roundrect (at -1.2 -1.11) (size 0.5 1) (layers F.Cu F.Mask F.Paste) (roundrect_rratio 0.25))
  (pad 2 smd roundrect (at -0.4 -1.11) (size 0.5 1) (layers F.Cu F.Mask F.Paste) (roundrect_rratio 0.25))
  (pad 3 smd roundrect (at 0.4 -1.11) (size 0.5 1) (layers F.Cu F.Mask F.Paste) (roundrect_rratio 0.25))
  (pad 4 smd roundrect (at 1.2 -1.11) (size 0.5 1) (layers F.Cu F.Mask F.Paste) (roundrect_rratio 0.25))
  (pad MP smd roundrect (at -2.45 0.81) (size 0.9 1.6) (layers F.Cu F.Mask F.Paste) (roundrect_rratio 0.25))
  (pad MP smd roundrect (at 2.45 0.81) (size 0.9 1.6) (layers F.Cu F.Mask F.Paste) (roundrect_rratio 0.25))
  (fp_text user %R (at 0 0.81) (layer F.Fab)
    (effects (font (size 1 1) (thickness 0.15)))
  )
  (model ${KICAD6_3DMODEL_DIR}/Connector_Hirose.3dshapes/Hirose_DF52-4S-0.8H_1x04-1MP_P0.80mm_Horizontal.wrl
    (at (xyz 0 0 0))
    (scale (xyz 1 1 1))
    (rotate (xyz 0 0 0))
  )
)