(module Hirose_DF12_DF12C3.0-30DS-0.5V_2x15_P0.50mm_Vertical (layer F.Cu) (tedit 5D24679F)
  (descr "Hirose DF12C SMD, DF12C3.0-30DS-0.5V, 30 Pins per row (https://www.hirose.com/product/document?clcode=CL0537-0694-9-81&productname=DF12C(3.0)-50DS-0.5V(81)&series=DF12&documenttype=2DDrawing&lang=en&documentid=0000994748), generated with kicad-footprint-generator")
  (tags "connector Hirose DF12 vertical")
  (attr smd)
  (fp_text reference REF** (at 0 -4) (layer F.SilkS)
    (effects (font (size 1 1) (thickness 0.15)))
  )
  (fp_text value Hirose_DF12_DF12C3.0-30DS-0.5V_2x15_P0.50mm_Vertical (at 0 4) (layer F.Fab)
    (effects (font (size 1 1) (thickness 0.15)))
  )
  (fp_line (start -4.8 1.8) (end -4.8 -1.8) (layer F.Fab) (width 0.1))
  (fp_line (start -4.8 -1.8) (end 4.8 -1.8) (layer F.Fab) (width 0.1))
  (fp_line (start 4.8 -1.8) (end 4.8 1.8) (layer F.Fab) (width 0.1))
  (fp_line (start 4.8 1.8) (end -4.8 1.8) (layer F.Fab) (width 0.1))
  (fp_line (start -4.05 1.2) (end -4.05 -1.2) (layer F.Fab) (width 0.1))
  (fp_line (start -4.05 -1.2) (end 4.05 -1.2) (layer F.Fab) (width 0.1))
  (fp_line (start 4.05 -1.2) (end 4.05 1.2) (layer F.Fab) (width 0.1))
  (fp_line (start 4.05 1.2) (end -4.05 1.2) (layer F.Fab) (width 0.1))
  (fp_line (start -3.7 -2.55) (end -3.5 -1.8) (layer F.Fab) (width 0.1))
  (fp_line (start -3.5 -1.8) (end -3.3 -2.55) (layer F.Fab) (width 0.1))
  (fp_line (start -3.3 -2.55) (end -3.7 -2.55) (layer F.Fab) (width 0.1))
  (fp_line (start -3.91 1.91) (end -4.91 1.91) (layer F.SilkS) (width 0.12))
  (fp_line (start -4.91 1.91) (end -4.91 -1.91) (layer F.SilkS) (width 0.12))
  (fp_line (start -4.91 -1.91) (end -3.91 -1.91) (layer F.SilkS) (width 0.12))
  (fp_line (start -3.91 -1.91) (end -3.91 -2.333333) (layer F.SilkS) (width 0.12))
  (fp_line (start 3.91 1.91) (end 4.91 1.91) (layer F.SilkS) (width 0.12))
  (fp_line (start 4.91 1.91) (end 4.91 -1.91) (layer F.SilkS) (width 0.12))
  (fp_line (start 4.91 -1.91) (end 3.91 -1.91) (layer F.SilkS) (width 0.12))
  (fp_line (start -5.3 -3.1) (end -5.3 3.1) (layer F.CrtYd) (width 0.05))
  (fp_line (start -5.3 3.1) (end 5.3 3.1) (layer F.CrtYd) (width 0.05))
  (fp_line (start 5.3 3.1) (end 5.3 -3.1) (layer F.CrtYd) (width 0.05))
  (fp_line (start 5.3 -3.1) (end -5.3 -3.1) (layer F.CrtYd) (width 0.05))
  (pad 1 smd rect (at -3.5 -1.8) (size 0.3 1.6) (layers F.Cu F.Mask))
  (pad 2 smd rect (at -3 -1.8) (size 0.3 1.6) (layers F.Cu F.Mask))
  (pad 3 smd rect (at -2.5 -1.8) (size 0.3 1.6) (layers F.Cu F.Mask))
  (pad 4 smd rect (at -2 -1.8) (size 0.3 1.6) (layers F.Cu F.Mask))
  (pad 5 smd rect (at -1.5 -1.8) (size 0.3 1.6) (layers F.Cu F.Mask))
  (pad 6 smd rect (at -1 -1.8) (size 0.3 1.6) (layers F.Cu F.Mask))
  (pad 7 smd rect (at -0.5 -1.8) (size 0.3 1.6) (layers F.Cu F.Mask))
  (pad 8 smd rect (at 0 -1.8) (size 0.3 1.6) (layers F.Cu F.Mask))
  (pad 9 smd rect (at 0.5 -1.8) (size 0.3 1.6) (layers F.Cu F.Mask))
  (pad 10 smd rect (at 1 -1.8) (size 0.3 1.6) (layers F.Cu F.Mask))
  (pad 11 smd rect (at 1.5 -1.8) (size 0.3 1.6) (layers F.Cu F.Mask))
  (pad 12 smd rect (at 2 -1.8) (size 0.3 1.6) (layers F.Cu F.Mask))
  (pad 13 smd rect (at 2.5 -1.8) (size 0.3 1.6) (layers F.Cu F.Mask))
  (pad 14 smd rect (at 3 -1.8) (size 0.3 1.6) (layers F.Cu F.Mask))
  (pad 15 smd rect (at 3.5 -1.8) (size 0.3 1.6) (layers F.Cu F.Mask))
  (pad 16 smd rect (at -3.5 1.8) (size 0.3 1.6) (layers F.Cu F.Mask))
  (pad 17 smd rect (at -3 1.8) (size 0.3 1.6) (layers F.Cu F.Mask))
  (pad 18 smd rect (at -2.5 1.8) (size 0.3 1.6) (layers F.Cu F.Mask))
  (pad 19 smd rect (at -2 1.8) (size 0.3 1.6) (layers F.Cu F.Mask))
  (pad 20 smd rect (at -1.5 1.8) (size 0.3 1.6) (layers F.Cu F.Mask))
  (pad 21 smd rect (at -1 1.8) (size 0.3 1.6) (layers F.Cu F.Mask))
  (pad 22 smd rect (at -0.5 1.8) (size 0.3 1.6) (layers F.Cu F.Mask))
  (pad 23 smd rect (at 0 1.8) (size 0.3 1.6) (layers F.Cu F.Mask))
  (pad 24 smd rect (at 0.5 1.8) (size 0.3 1.6) (layers F.Cu F.Mask))
  (pad 25 smd rect (at 1 1.8) (size 0.3 1.6) (layers F.Cu F.Mask))
  (pad 26 smd rect (at 1.5 1.8) (size 0.3 1.6) (layers F.Cu F.Mask))
  (pad 27 smd rect (at 2 1.8) (size 0.3 1.6) (layers F.Cu F.Mask))
  (pad 28 smd rect (at 2.5 1.8) (size 0.3 1.6) (layers F.Cu F.Mask))
  (pad 29 smd rect (at 3 1.8) (size 0.3 1.6) (layers F.Cu F.Mask))
  (pad 30 smd rect (at 3.5 1.8) (size 0.3 1.6) (layers F.Cu F.Mask))
  (pad "" smd rect (at -3.5 -2) (size 0.28 1.2) (layers F.Paste))
  (pad "" smd rect (at -3 -2) (size 0.28 1.2) (layers F.Paste))
  (pad "" smd rect (at -2.5 -2) (size 0.28 1.2) (layers F.Paste))
  (pad "" smd rect (at -2 -2) (size 0.28 1.2) (layers F.Paste))
  (pad "" smd rect (at -1.5 -2) (size 0.28 1.2) (layers F.Paste))
  (pad "" smd rect (at -1 -2) (size 0.28 1.2) (layers F.Paste))
  (pad "" smd rect (at -0.5 -2) (size 0.28 1.2) (layers F.Paste))
  (pad "" smd rect (at 0 -2) (size 0.28 1.2) (layers F.Paste))
  (pad "" smd rect (at 0.5 -2) (size 0.28 1.2) (layers F.Paste))
  (pad "" smd rect (at 1 -2) (size 0.28 1.2) (layers F.Paste))
  (pad "" smd rect (at 1.5 -2) (size 0.28 1.2) (layers F.Paste))
  (pad "" smd rect (at 2 -2) (size 0.28 1.2) (layers F.Paste))
  (pad "" smd rect (at 2.5 -2) (size 0.28 1.2) (layers F.Paste))
  (pad "" smd rect (at 3 -2) (size 0.28 1.2) (layers F.Paste))
  (pad "" smd rect (at 3.5 -2) (size 0.28 1.2) (layers F.Paste))
  (pad "" smd rect (at -3.5 2) (size 0.28 1.2) (layers F.Paste))
  (pad "" smd rect (at -3 2) (size 0.28 1.2) (layers F.Paste))
  (pad "" smd rect (at -2.5 2) (size 0.28 1.2) (layers F.Paste))
  (pad "" smd rect (at -2 2) (size 0.28 1.2) (layers F.Paste))
  (pad "" smd rect (at -1.5 2) (size 0.28 1.2) (layers F.Paste))
  (pad "" smd rect (at -1 2) (size 0.28 1.2) (layers F.Paste))
  (pad "" smd rect (at -0.5 2) (size 0.28 1.2) (layers F.Paste))
  (pad "" smd rect (at 0 2) (size 0.28 1.2) (layers F.Paste))
  (pad "" smd rect (at 0.5 2) (size 0.28 1.2) (layers F.Paste))
  (pad "" smd rect (at 1 2) (size 0.28 1.2) (layers F.Paste))
  (pad "" smd rect (at 1.5 2) (size 0.28 1.2) (layers F.Paste))
  (pad "" smd rect (at 2 2) (size 0.28 1.2) (layers F.Paste))
  (pad "" smd rect (at 2.5 2) (size 0.28 1.2) (layers F.Paste))
  (pad "" smd rect (at 3 2) (size 0.28 1.2) (layers F.Paste))
  (pad "" smd rect (at 3.5 2) (size 0.28 1.2) (layers F.Paste))
  (fp_text user %R (at 0 -1.1) (layer F.Fab)
    (effects (font (size 1 1) (thickness 0.15)))
  )
  (model ${KICAD6_3DMODEL_DIR}/Connector_Hirose.3dshapes/Hirose_DF12_DF12C3.0-30DS-0.5V_2x15_P0.50mm_Vertical.wrl
    (at (xyz 0 0 0))
    (scale (xyz 1 1 1))
    (rotate (xyz 0 0 0))
  )
)