(module TerminalBlock_Dinkle_DT-55-B01X-03_P10.00mm (layer F.Cu) (tedit 5A78168A)
  (descr "Dinkle DT-55-B01X Terminal Block  pitch 10.00mm https://www.dinkle.com/en/terminal/DT-55-B01W-XX")
  (tags "Dinkle DT-55-B01X Terminal Block  pitch 10.00mm")
  (fp_text reference REF** (at 10.08 -10.16) (layer F.SilkS)
    (effects (font (size 1 1) (thickness 0.15)))
  )
  (fp_text value TerminalBlock_Dinkle_DT-55-B01X-03_P10.00mm (at 10.08 10.16) (layer F.Fab)
    (effects (font (size 1 1) (thickness 0.15)))
  )
  (fp_line (start -4.4 -7.75) (end -6 -6.15) (layer F.Fab) (width 0.1))
  (fp_line (start -6 7.75) (end -4.4 7.75) (layer F.Fab) (width 0.1))
  (fp_line (start 24.4 7.75) (end 26.0 7.75) (layer F.Fab) (width 0.1))
  (fp_line (start 24.4 -7.75) (end 26.0 -7.75) (layer F.Fab) (width 0.1))
  (fp_line (start 24.4 -7.75) (end 24.4 7.75) (layer F.Fab) (width 0.1))
  (fp_line (start -4.4 -7.75) (end -4.4 7.75) (layer F.Fab) (width 0.1))
  (fp_line (start -6 -7.75) (end -4.4 -7.75) (layer F.Fab) (width 0.1))
  (fp_line (start 26.0 -7.75) (end 26.0 7.75) (layer F.Fab) (width 0.1))
  (fp_line (start -6 -7.75) (end -6 7.75) (layer F.Fab) (width 0.1))
  (fp_line (start -6.35 -8.1) (end -3.85 -8.1) (layer F.SilkS) (width 0.12))
  (fp_line (start -6.35 -5.6) (end -6.35 -8.1) (layer F.SilkS) (width 0.12))
  (fp_line (start -6.1 -7.85) (end 26.1 -7.85) (layer F.SilkS) (width 0.12))
  (fp_line (start 26.1 -7.85) (end 26.1 7.85) (layer F.SilkS) (width 0.12))
  (fp_line (start -6.1 7.85) (end 26.1 7.85) (layer F.SilkS) (width 0.12))
  (fp_line (start -6.1 7.85) (end -6.1 -7.85) (layer F.SilkS) (width 0.12))
  (fp_line (start 26.5 -8.25) (end 26.5 8.25) (layer F.CrtYd) (width 0.05))
  (fp_line (start -6.5 8.25) (end 26.5 8.25) (layer F.CrtYd) (width 0.05))
  (fp_line (start -6.5 8.25) (end -6.5 -8.25) (layer F.CrtYd) (width 0.05))
  (fp_line (start -6.5 -8.25) (end 26.5 -8.25) (layer F.CrtYd) (width 0.05))
  
  (fp_line (start -4.4 7) (end 4.4 7) (layer F.Fab) (width 0.1))
  (fp_line (start -4.4 6.5) (end 4.4 6.5) (layer F.Fab) (width 0.1))
  (fp_line (start -4.4 4.4) (end 4.4 4.4) (layer F.Fab) (width 0.1))
  (fp_line (start -4.4 -6.5) (end 4.4 -6.5) (layer F.Fab) (width 0.1))
  (fp_line (start -4.4 -4.4) (end 4.4 -4.4) (layer F.Fab) (width 0.1))
  (fp_line (start -4.4 -7) (end 4.4 -7) (layer F.Fab) (width 0.1))
  (fp_line (start -.5 2) (end .5 2) (layer F.Fab) (width 0.1))
  (fp_line (start -.5 -2) (end .5 -2) (layer F.Fab) (width 0.1))
  (fp_circle (center 0 0) (end .5 0.5) (layer F.Fab) (width 0.1))
  (fp_line (start .5 -0.5) (end 2 -0.5) (layer F.Fab) (width 0.1))
  (fp_line (start 2 -0.5) (end 2 0.5) (layer F.Fab) (width 0.1))
  (fp_line (start 2 0.5) (end .5 0.5) (layer F.Fab) (width 0.1))
  (fp_line (start -.5 -0.5) (end -2 -0.5) (layer F.Fab) (width 0.1))
  (fp_line (start -2 -0.5) (end -2 0.5) (layer F.Fab) (width 0.1))
  (fp_line (start -2 0.5) (end -.5 0.5) (layer F.Fab) (width 0.1))
  (fp_line (start .5 0.5) (end .5 4.35) (layer F.Fab) (width 0.1))
  (fp_line (start -.5 0.5) (end -.5 4.35) (layer F.Fab) (width 0.1))
  (fp_line (start .5 -4.35) (end .5 -0.5) (layer F.Fab) (width 0.1))
  (fp_line (start -.5 -4.35) (end -.5 -0.5) (layer F.Fab) (width 0.1))
  (fp_circle (center 0 0) (end 4.4 0) (layer F.Fab) (width 0.1))
  (fp_line (start 4.4 -7.75) (end 4.4 7.75) (layer F.Fab) (width 0.1))
  (fp_line (start 5.6 -7.75) (end 5.6 7.75) (layer F.Fab) (width 0.1))
  (fp_line (start 4.4 -7.75) (end 5.6 -7.75) (layer F.Fab) (width 0.1))
  (fp_line (start 4.4 7.75) (end 5.6 7.75) (layer F.Fab) (width 0.1))
  (fp_line (start 5.6 7) (end 14.4 7) (layer F.Fab) (width 0.1))
  (fp_line (start 5.6 6.5) (end 14.4 6.5) (layer F.Fab) (width 0.1))
  (fp_line (start 5.6 4.4) (end 14.4 4.4) (layer F.Fab) (width 0.1))
  (fp_line (start 5.6 -6.5) (end 14.4 -6.5) (layer F.Fab) (width 0.1))
  (fp_line (start 5.6 -4.4) (end 14.4 -4.4) (layer F.Fab) (width 0.1))
  (fp_line (start 5.6 -7) (end 14.4 -7) (layer F.Fab) (width 0.1))
  (fp_line (start 9.5 2) (end 10.5 2) (layer F.Fab) (width 0.1))
  (fp_line (start 9.5 -2) (end 10.5 -2) (layer F.Fab) (width 0.1))
  (fp_circle (center 10.0 0) (end 10.5 0.5) (layer F.Fab) (width 0.1))
  (fp_line (start 10.5 -0.5) (end 12.0 -0.5) (layer F.Fab) (width 0.1))
  (fp_line (start 12.0 -0.5) (end 12.0 0.5) (layer F.Fab) (width 0.1))
  (fp_line (start 12.0 0.5) (end 10.5 0.5) (layer F.Fab) (width 0.1))
  (fp_line (start 9.5 -0.5) (end 8.0 -0.5) (layer F.Fab) (width 0.1))
  (fp_line (start 8.0 -0.5) (end 8.0 0.5) (layer F.Fab) (width 0.1))
  (fp_line (start 8.0 0.5) (end 9.5 0.5) (layer F.Fab) (width 0.1))
  (fp_line (start 10.5 0.5) (end 10.5 4.35) (layer F.Fab) (width 0.1))
  (fp_line (start 9.5 0.5) (end 9.5 4.35) (layer F.Fab) (width 0.1))
  (fp_line (start 10.5 -4.35) (end 10.5 -0.5) (layer F.Fab) (width 0.1))
  (fp_line (start 9.5 -4.35) (end 9.5 -0.5) (layer F.Fab) (width 0.1))
  (fp_circle (center 10.0 0) (end 14.4 0) (layer F.Fab) (width 0.1))
  (fp_line (start 14.4 -7.75) (end 14.4 7.75) (layer F.Fab) (width 0.1))
  (fp_line (start 15.6 -7.75) (end 15.6 7.75) (layer F.Fab) (width 0.1))
  (fp_line (start 14.4 -7.75) (end 15.6 -7.75) (layer F.Fab) (width 0.1))
  (fp_line (start 14.4 7.75) (end 15.6 7.75) (layer F.Fab) (width 0.1))
  (fp_line (start 15.6 7) (end 24.4 7) (layer F.Fab) (width 0.1))
  (fp_line (start 15.6 6.5) (end 24.4 6.5) (layer F.Fab) (width 0.1))
  (fp_line (start 15.6 4.4) (end 24.4 4.4) (layer F.Fab) (width 0.1))
  (fp_line (start 15.6 -6.5) (end 24.4 -6.5) (layer F.Fab) (width 0.1))
  (fp_line (start 15.6 -4.4) (end 24.4 -4.4) (layer F.Fab) (width 0.1))
  (fp_line (start 15.6 -7) (end 24.4 -7) (layer F.Fab) (width 0.1))
  (fp_line (start 19.5 2) (end 20.5 2) (layer F.Fab) (width 0.1))
  (fp_line (start 19.5 -2) (end 20.5 -2) (layer F.Fab) (width 0.1))
  (fp_circle (center 20.0 0) (end 20.5 0.5) (layer F.Fab) (width 0.1))
  (fp_line (start 20.5 -0.5) (end 22.0 -0.5) (layer F.Fab) (width 0.1))
  (fp_line (start 22.0 -0.5) (end 22.0 0.5) (layer F.Fab) (width 0.1))
  (fp_line (start 22.0 0.5) (end 20.5 0.5) (layer F.Fab) (width 0.1))
  (fp_line (start 19.5 -0.5) (end 18.0 -0.5) (layer F.Fab) (width 0.1))
  (fp_line (start 18.0 -0.5) (end 18.0 0.5) (layer F.Fab) (width 0.1))
  (fp_line (start 18.0 0.5) (end 19.5 0.5) (layer F.Fab) (width 0.1))
  (fp_line (start 20.5 0.5) (end 20.5 4.35) (layer F.Fab) (width 0.1))
  (fp_line (start 19.5 0.5) (end 19.5 4.35) (layer F.Fab) (width 0.1))
  (fp_line (start 20.5 -4.35) (end 20.5 -0.5) (layer F.Fab) (width 0.1))
  (fp_line (start 19.5 -4.35) (end 19.5 -0.5) (layer F.Fab) (width 0.1))
  (fp_circle (center 20.0 0) (end 24.4 0) (layer F.Fab) (width 0.1))
  (fp_text user %R (at 10.08 -10.16) (layer F.Fab)
    (effects (font (size 1 1) (thickness 0.15)))
  )
  
  (pad 1 thru_hole rect (at 0 0) (size 3.3 6.6) (drill 2.2) (layers *.Cu *.Mask))
  (pad 2 thru_hole oval (at 10.0 0) (size 3.3 6.6) (drill 2.2) (layers *.Cu *.Mask))
  (pad 3 thru_hole oval (at 20.0 0) (size 3.3 6.6) (drill 2.2) (layers *.Cu *.Mask))
  (model ${KICAD6_3DMODEL_DIR}/TerminalBlock_Dinkle.3dshapes/TerminalBlock_Dinkle_DT-55-B01X-03_P10.00mm.wrl
    (at (xyz 0 0 0))
    (scale (xyz 1 1 1))
    (rotate (xyz 0 0 0))
  )
)
