(module Fairchild_MicroPak2-6_1.0x1.0mm_P0.35mm (layer F.Cu) (tedit 5A02F1D8)
  (descr "Fairchild-specific MicroPak2-6 1.0x1.0mm Pitch 0.35mm https://www.nxp.com/docs/en/application-note/AN10343.pdff")
  (tags "Fairchild-specific MicroPak2-6 1.0x1.0mm Pitch 0.35mm")
  (attr smd)
  (fp_text reference REF** (at 0.0125 -1.4) (layer F.SilkS)
    (effects (font (size 1 1) (thickness 0.15)))
  )
  (fp_text value Fairchild_MicroPak2-6_1.0x1.0mm_P0.35mm (at 0.0375 1.5) (layer F.Fab)
    (effects (font (size 1 1) (thickness 0.15)))
  )
  (fp_text user %R (at 0.0125 0) (layer F.Fab)
    (effects (font (size 0.5 0.5) (thickness 0.075)))
  )
  (fp_line (start -0.3375 0.65) (end 0.3625 0.65) (layer F.SilkS) (width 0.12))
  (fp_line (start 0.3625 -0.65) (end -0.6375 -0.65) (layer F.SilkS) (width 0.12))
  (fp_line (start -0.1375 -0.5) (end 0.5125 -0.5) (layer F.Fab) (width 0.12))
  (fp_line (start -0.4875 -0.15) (end -0.1375 -0.5) (layer F.Fab) (width 0.12))
  (fp_line (start -0.4875 0.5) (end -0.4875 -0.15) (layer F.Fab) (width 0.12))
  (fp_line (start 0.5125 0.5) (end -0.4875 0.5) (layer F.Fab) (width 0.12))
  (fp_line (start 0.5125 -0.5) (end 0.5125 0.5) (layer F.Fab) (width 0.12))
  (fp_line (start -0.79 -0.65) (end 0.79 -0.65) (layer F.CrtYd) (width 0.05))
  (fp_line (start -0.79 -0.65) (end -0.79 0.65) (layer F.CrtYd) (width 0.05))
  (fp_line (start 0.79 0.65) (end 0.79 -0.65) (layer F.CrtYd) (width 0.05))
  (fp_line (start 0.79 0.65) (end -0.79 0.65) (layer F.CrtYd) (width 0.05))
  (pad 6 smd rect (at 0.3775 -0.35) (size 0.52 0.2) (layers F.Cu F.Paste F.Mask))
  (pad 5 smd rect (at 0.3775 0) (size 0.52 0.2) (layers F.Cu F.Paste F.Mask))
  (pad 4 smd rect (at 0.3775 0.35) (size 0.52 0.2) (layers F.Cu F.Paste F.Mask))
  (pad 3 smd rect (at -0.3525 0.35) (size 0.57 0.2) (layers F.Cu F.Paste F.Mask))
  (pad 2 smd rect (at -0.3525 0) (size 0.57 0.2) (layers F.Cu F.Paste F.Mask))
  (pad 1 smd rect (at -0.3525 -0.35) (size 0.57 0.2) (layers F.Cu F.Paste F.Mask))
  (model ${KICAD6_3DMODEL_DIR}/Package_SON.3dshapes/Fairchild_MicroPak2-6_1.0x1.0mm_P0.35mm.wrl
    (at (xyz 0 0 0))
    (scale (xyz 1 1 1))
    (rotate (xyz 0 0 0))
  )
)
