(module Infineon_PG-TISON-8-5 (layer F.Cu) (tedit 5D379D78)
  (descr "Infineon, PG-TISON-8-5, 8x8x1.1mm, 1mm Pitch, https://www.infineon.com/cms/en/product/packages/PG-TISON/PG-TISON-8-5/")
  (tags tison)
  (attr smd)
  (fp_text reference REF** (at 0 -5.5) (layer F.SilkS)
    (effects (font (size 1 1) (thickness 0.15)))
  )
  (fp_text value Infineon_PG-TISON-8-5 (at 0 5.5) (layer F.Fab)
    (effects (font (size 1 1) (thickness 0.15)))
  )
  (fp_text user %R (at 0 0) (layer F.Fab)
    (effects (font (size 1 1) (thickness 0.15)))
  )
  (fp_line (start 4.75 -4.75) (end 4.75 4.75) (layer F.CrtYd) (width 0.05))
  (fp_line (start 4.75 4.75) (end -4.7 4.75) (layer F.CrtYd) (width 0.05))
  (fp_line (start -4.7 4.75) (end -4.7 -4.75) (layer F.CrtYd) (width 0.05))
  (fp_line (start -4.7 -4.75) (end 4.75 -4.75) (layer F.CrtYd) (width 0.05))
  (fp_line (start 0.82 4.11) (end -4 4.11) (layer F.SilkS) (width 0.12))
  (fp_line (start 0.82 -4.11) (end 0 -4.11) (layer F.SilkS) (width 0.12))
  (fp_line (start -3 -4) (end 4 -4) (layer F.Fab) (width 0.1))
  (fp_line (start -4 -3) (end -4 4) (layer F.Fab) (width 0.1))
  (fp_line (start -3 -4) (end -4 -3) (layer F.Fab) (width 0.1))
  (fp_line (start 4 -4) (end 4 4) (layer F.Fab) (width 0.1))
  (fp_line (start 4 4) (end -4 4) (layer F.Fab) (width 0.1))
  (pad 8 smd custom (at 2.75 -2.965) (size 3.5 3.07) (layers F.Cu F.Mask)
    (zone_connect 2)
    (options (clearance outline) (anchor rect))
    (primitives
      (gr_poly (pts
         (xy -1.75 1.535) (xy -0.625 1.535) (xy -0.625 3.595) (xy -0.825 3.795) (xy -1.75 3.795)
) (width 0))
      (gr_circle (center -0.825 3.595) (end -0.625 3.595) (width 0))
    ))
  (pad 1 smd custom (at -3.47 -3) (size 0.66 1.4) (layers F.Cu F.Mask)
    (zone_connect 2)
    (options (clearance outline) (anchor rect))
    (primitives
      (gr_poly (pts
         (xy 0.33 -0.7) (xy 0.33 0.7) (xy -0.98 0.7) (xy -0.98 0.3) (xy -0.33 0.3)
         (xy -0.33 -0.3) (xy -0.98 -0.3) (xy -0.98 -0.7)) (width 0))
    ))
  (pad 7 smd custom (at 2.75 2.965) (size 3.5 3.07) (layers F.Cu F.Mask)
    (zone_connect 2)
    (options (clearance outline) (anchor rect))
    (primitives
      (gr_poly (pts
         (xy -0.125 -3.595) (xy 0.075 -3.795) (xy 1.75 -3.795) (xy 1.75 -1.535) (xy -0.125 -1.535)
) (width 0))
      (gr_circle (center 0.075 -3.595) (end 0.275 -3.595) (width 0))
    ))
  (pad "" smd rect (at 1.561 0.4025) (size 0.7 0.455) (layers F.Paste))
  (pad 2 smd rect (at -3.8 -1.5) (size 1.3 0.4) (layers F.Cu F.Mask))
  (pad "" smd rect (at 1.561 1.9025) (size 0.7 0.545) (layers F.Paste))
  (pad "" smd rect (at 1.561 -1.425) (size 0.7 1.6) (layers F.Paste))
  (pad "" smd rect (at 1.561 -3.6375) (size 0.7 1.225) (layers F.Paste))
  (pad "" smd rect (at 3.2795 -0.375) (size 0.863 0.5) (layers F.Paste))
  (pad "" smd rect (at 2.586 -2.94) (size 0.95 2.62) (layers F.Paste))
  (pad "" smd rect (at 2.3795 2.915) (size 0.537 2.57) (layers F.Paste))
  (pad 3 smd rect (at -3.8 -0.5) (size 1.3 0.4) (layers F.Cu F.Mask))
  (pad 4 smd rect (at -3.8 0.5) (size 1.3 0.4) (layers F.Cu F.Mask))
  (pad 5 smd rect (at -3.8 1.5) (size 1.3 0.4) (layers F.Cu F.Mask))
  (pad 6 smd custom (at -3.47 3) (size 0.66 1.4) (layers F.Cu F.Mask)
    (zone_connect 2)
    (options (clearance outline) (anchor rect))
    (primitives
      (gr_poly (pts
         (xy 0.33 -0.7) (xy 0.33 0.7) (xy -0.98 0.7) (xy -0.98 0.3) (xy -0.33 0.3)
         (xy -0.33 -0.3) (xy -0.98 -0.3) (xy -0.98 -0.7)) (width 0))
    ))
  (pad "" smd rect (at -3.8 -1.5) (size 1.2 0.3) (layers F.Paste))
  (pad "" smd rect (at -3.8 -0.5) (size 1.2 0.3) (layers F.Paste))
  (pad "" smd rect (at -3.8 0.5) (size 1.2 0.3) (layers F.Paste))
  (pad "" smd rect (at -3.8 1.5) (size 1.2 0.3) (layers F.Paste))
  (pad "" smd rect (at -3.8 -2.5) (size 1.2 0.3) (layers F.Paste))
  (pad "" smd rect (at -3.8 -2.5) (size 1.2 0.3) (layers F.Paste))
  (pad "" smd rect (at -3.8 -3.5) (size 1.2 0.3) (layers F.Paste))
  (pad "" smd rect (at -3.8 2.5) (size 1.2 0.3) (layers F.Paste))
  (pad "" smd rect (at -3.8 3.5) (size 1.2 0.3) (layers F.Paste))
  (pad "" smd rect (at -3.49 -3) (size 0.5 0.4) (layers F.Paste))
  (pad "" smd rect (at -3.49 3) (size 0.5 0.4) (layers F.Paste))
  (pad "" smd rect (at 1.561 3.6125) (size 0.7 1.275) (layers F.Paste))
  (pad "" smd rect (at 3.486 -3.6375) (size 0.45 1.225) (layers F.Paste))
  (pad "" smd rect (at 3.486 -1.9275) (size 0.45 0.595) (layers F.Paste))
  (pad "" smd rect (at 3.2795 1.425) (size 0.863 1.5) (layers F.Paste))
  (pad "" smd rect (at 3.2795 3.6125) (size 0.863 1.275) (layers F.Paste))
  (pad "" smd rect (at 4.111 2.915) (size 0.4 2.57) (layers F.Paste))
  (pad "" smd rect (at 4.111 -2.94) (size 0.4 2.62) (layers F.Paste))
  (pad "" smd rect (at 4.111 0.4025) (size 0.4 2.055) (layers F.Paste))
  (model ${KICAD6_3DMODEL_DIR}/Package_SON.3dshapes/Infineon_PG-TISON-8-5.wrl
    (at (xyz 0 0 0))
    (scale (xyz 1 1 1))
    (rotate (xyz 0 0 0))
  )
)
