(module Texas_DRC0010J_ThermalVias (layer F.Cu) (tedit 5C20F0C0)
  (descr "Texas DRC0010J, VSON10 3x3mm Body, 0.5mm Pitch,  http://www.ti.com/lit/ds/symlink/tps63000.pdf")
  (tags "Texas VSON10 3x3mm")
  (attr smd)
  (fp_text reference REF** (at 0.02032 -2.7) (layer F.SilkS)
    (effects (font (size 1 1) (thickness 0.15)))
  )
  (fp_text value Texas_DRC0010J_ThermalVias (at 0.02032 2.8) (layer F.Fab)
    (effects (font (size 1 1) (thickness 0.15)))
  )
  (fp_text user %R (at 0 0) (layer F.Fab)
    (effects (font (size 0.7 0.7) (thickness 0.1)))
  )
  (fp_line (start -0.8 -1.5) (end 1.5 -1.5) (layer F.Fab) (width 0.1))
  (fp_line (start 1.5 -1.5) (end 1.5 1.5) (layer F.Fab) (width 0.1))
  (fp_line (start -1.5 -0.8) (end -1.5 1.5) (layer F.Fab) (width 0.1))
  (fp_line (start -1.5 1.5) (end 1.5 1.5) (layer F.Fab) (width 0.1))
  (fp_line (start -1.95 -1.95) (end 1.95 -1.95) (layer F.CrtYd) (width 0.05))
  (fp_line (start 1.95 -1.95) (end 1.95 1.95) (layer F.CrtYd) (width 0.05))
  (fp_line (start -1.95 -1.95) (end -1.95 1.95) (layer F.CrtYd) (width 0.05))
  (fp_line (start -1.95 1.95) (end 1.95 1.95) (layer F.CrtYd) (width 0.05))
  (fp_line (start -1.5 -0.8) (end -0.8 -1.5) (layer F.Fab) (width 0.1))
  (fp_line (start -1.61 1.38) (end -1.61 1.61) (layer F.SilkS) (width 0.12))
  (fp_line (start -1.61 1.61) (end -0.635 1.61) (layer F.SilkS) (width 0.12))
  (fp_line (start 1.61 1.38) (end 1.61 1.61) (layer F.SilkS) (width 0.12))
  (fp_line (start 0.635 1.61) (end 1.61 1.61) (layer F.SilkS) (width 0.12))
  (fp_line (start 0.635 -1.61) (end 1.61 -1.61) (layer F.SilkS) (width 0.12))
  (fp_line (start 1.61 -1.61) (end 1.61 -1.38) (layer F.SilkS) (width 0.12))
  (fp_line (start -1.64 -1.61) (end -0.635 -1.61) (layer F.SilkS) (width 0.12))
  (pad "" smd roundrect (at 0 0.63) (size 1.5 1.06) (layers F.Paste) (roundrect_rratio 0.1)
    (zone_connect 0))
  (pad "" smd roundrect (at 0 -0.63) (size 1.5 1.06) (layers F.Paste) (roundrect_rratio 0.1)
    (zone_connect 0))
  (pad "" smd roundrect (at -0.25 -1.53) (size 0.25 0.34) (layers F.Paste) (roundrect_rratio 0.1)
    (zone_connect 0))
  (pad "" smd roundrect (at 0.25 -1.53) (size 0.25 0.34) (layers F.Paste) (roundrect_rratio 0.1)
    (zone_connect 0))
  (pad "" smd roundrect (at -0.25 1.53) (size 0.25 0.34) (layers F.Paste) (roundrect_rratio 0.1)
    (zone_connect 0))
  (pad "" smd roundrect (at 0.25 1.53) (size 0.25 0.34) (layers F.Paste) (roundrect_rratio 0.1)
    (zone_connect 0))
  (pad 1 smd rect (at -1.4 -1) (size 0.6 0.24) (layers F.Cu F.Paste F.Mask))
  (pad 2 smd rect (at -1.4 -0.5) (size 0.6 0.24) (layers F.Cu F.Paste F.Mask))
  (pad 3 smd rect (at -1.4 0) (size 0.6 0.24) (layers F.Cu F.Paste F.Mask))
  (pad 4 smd rect (at -1.4 0.5) (size 0.6 0.24) (layers F.Cu F.Paste F.Mask))
  (pad 5 smd rect (at -1.4 1) (size 0.6 0.24) (layers F.Cu F.Paste F.Mask))
  (pad 6 smd rect (at 1.4 1) (size 0.6 0.24) (layers F.Cu F.Paste F.Mask))
  (pad 7 smd rect (at 1.4 0.5) (size 0.6 0.24) (layers F.Cu F.Paste F.Mask))
  (pad 8 smd rect (at 1.4 0) (size 0.6 0.24) (layers F.Cu F.Paste F.Mask))
  (pad 9 smd rect (at 1.4 -0.5) (size 0.6 0.24) (layers F.Cu F.Paste F.Mask))
  (pad 10 smd rect (at 1.4 -1) (size 0.6 0.24) (layers F.Cu F.Paste F.Mask))
  (pad 11 smd custom (at 0 0) (size 1.65 2.4) (layers F.Cu F.Mask)
    (zone_connect 0)
    (options (clearance outline) (anchor rect))
    (primitives
      (gr_poly (pts
         (xy -0.375 -1.1) (xy -0.375 -1.7) (xy -0.125 -1.7) (xy -0.125 -1.1) (xy 0.125 -1.1)
         (xy 0.125 -1.7) (xy 0.375 -1.7) (xy 0.375 1.7) (xy 0.125 1.7) (xy 0.125 1.1)
         (xy -0.125 1.1) (xy -0.125 1.7) (xy -0.375 1.7)) (width 0))
    ))
  (pad 11 thru_hole circle (at 0 0.95) (size 0.5 0.5) (drill 0.2) (layers *.Cu))
  (pad 11 thru_hole circle (at -0.575 0) (size 0.5 0.5) (drill 0.2) (layers *.Cu))
  (pad 11 thru_hole circle (at 0.575 0) (size 0.5 0.5) (drill 0.2) (layers *.Cu))
  (pad 11 thru_hole circle (at 0 -0.95) (size 0.5 0.5) (drill 0.2) (layers *.Cu))
  (model ${KICAD6_3DMODEL_DIR}/Package_SON.3dshapes/Texas_DRC0010J.wrl
    (at (xyz 0 0 0))
    (scale (xyz 1 1 1))
    (rotate (xyz 0 0 0))
  )
)
