(module WSON-12-1EP_4x4mm_P0.5mm_EP2.6x3mm_ThermalVias (layer F.Cu) (tedit 5DC5FB10)
  (descr "WSON, 12 Pin (http://www.ti.com/lit/ds/symlink/ldc1312.pdf#page=62), generated with kicad-footprint-generator ipc_noLead_generator.py")
  (tags "WSON NoLead")
  (attr smd)
  (fp_text reference REF** (at 0 -2.95) (layer F.SilkS)
    (effects (font (size 1 1) (thickness 0.15)))
  )
  (fp_text value WSON-12-1EP_4x4mm_P0.5mm_EP2.6x3mm_ThermalVias (at 0 2.95) (layer F.Fab)
    (effects (font (size 1 1) (thickness 0.15)))
  )
  (fp_line (start 0 -2.11) (end 2 -2.11) (layer F.SilkS) (width 0.12))
  (fp_line (start -2 2.11) (end 2 2.11) (layer F.SilkS) (width 0.12))
  (fp_line (start -1 -2) (end 2 -2) (layer F.Fab) (width 0.1))
  (fp_line (start 2 -2) (end 2 2) (layer F.Fab) (width 0.1))
  (fp_line (start 2 2) (end -2 2) (layer F.Fab) (width 0.1))
  (fp_line (start -2 2) (end -2 -1) (layer F.Fab) (width 0.1))
  (fp_line (start -2 -1) (end -1 -2) (layer F.Fab) (width 0.1))
  (fp_line (start -2.62 -2.25) (end -2.62 2.25) (layer F.CrtYd) (width 0.05))
  (fp_line (start -2.62 2.25) (end 2.62 2.25) (layer F.CrtYd) (width 0.05))
  (fp_line (start 2.62 2.25) (end 2.62 -2.25) (layer F.CrtYd) (width 0.05))
  (fp_line (start 2.62 -2.25) (end -2.62 -2.25) (layer F.CrtYd) (width 0.05))
  (pad 1 smd roundrect (at -1.9375 -1.25) (size 0.875 0.25) (layers F.Cu F.Mask F.Paste) (roundrect_rratio 0.25))
  (pad 2 smd roundrect (at -1.9375 -0.75) (size 0.875 0.25) (layers F.Cu F.Mask F.Paste) (roundrect_rratio 0.25))
  (pad 3 smd roundrect (at -1.9375 -0.25) (size 0.875 0.25) (layers F.Cu F.Mask F.Paste) (roundrect_rratio 0.25))
  (pad 4 smd roundrect (at -1.9375 0.25) (size 0.875 0.25) (layers F.Cu F.Mask F.Paste) (roundrect_rratio 0.25))
  (pad 5 smd roundrect (at -1.9375 0.75) (size 0.875 0.25) (layers F.Cu F.Mask F.Paste) (roundrect_rratio 0.25))
  (pad 6 smd roundrect (at -1.9375 1.25) (size 0.875 0.25) (layers F.Cu F.Mask F.Paste) (roundrect_rratio 0.25))
  (pad 7 smd roundrect (at 1.9375 1.25) (size 0.875 0.25) (layers F.Cu F.Mask F.Paste) (roundrect_rratio 0.25))
  (pad 8 smd roundrect (at 1.9375 0.75) (size 0.875 0.25) (layers F.Cu F.Mask F.Paste) (roundrect_rratio 0.25))
  (pad 9 smd roundrect (at 1.9375 0.25) (size 0.875 0.25) (layers F.Cu F.Mask F.Paste) (roundrect_rratio 0.25))
  (pad 10 smd roundrect (at 1.9375 -0.25) (size 0.875 0.25) (layers F.Cu F.Mask F.Paste) (roundrect_rratio 0.25))
  (pad 11 smd roundrect (at 1.9375 -0.75) (size 0.875 0.25) (layers F.Cu F.Mask F.Paste) (roundrect_rratio 0.25))
  (pad 12 smd roundrect (at 1.9375 -1.25) (size 0.875 0.25) (layers F.Cu F.Mask F.Paste) (roundrect_rratio 0.25))
  (pad 13 smd rect (at 0 0) (size 2.6 3) (layers F.Cu F.Mask))
  (pad 13 thru_hole circle (at -1.05 -1.25) (size 0.5 0.5) (drill 0.2) (layers *.Cu))
  (pad 13 thru_hole circle (at 0 -1.25) (size 0.5 0.5) (drill 0.2) (layers *.Cu))
  (pad 13 thru_hole circle (at 1.05 -1.25) (size 0.5 0.5) (drill 0.2) (layers *.Cu))
  (pad 13 thru_hole circle (at -1.05 0) (size 0.5 0.5) (drill 0.2) (layers *.Cu))
  (pad 13 thru_hole circle (at 0 0) (size 0.5 0.5) (drill 0.2) (layers *.Cu))
  (pad 13 thru_hole circle (at 1.05 0) (size 0.5 0.5) (drill 0.2) (layers *.Cu))
  (pad 13 thru_hole circle (at -1.05 1.25) (size 0.5 0.5) (drill 0.2) (layers *.Cu))
  (pad 13 thru_hole circle (at 0 1.25) (size 0.5 0.5) (drill 0.2) (layers *.Cu))
  (pad 13 thru_hole circle (at 1.05 1.25) (size 0.5 0.5) (drill 0.2) (layers *.Cu))
  (pad 13 smd rect (at 0 0) (size 2.6 3) (layers B.Cu))
  (pad "" smd roundrect (at -0.65 -0.75) (size 1.13 1.3) (layers F.Paste) (roundrect_rratio 0.221239))
  (pad "" smd roundrect (at -0.65 0.75) (size 1.13 1.3) (layers F.Paste) (roundrect_rratio 0.221239))
  (pad "" smd roundrect (at 0.65 -0.75) (size 1.13 1.3) (layers F.Paste) (roundrect_rratio 0.221239))
  (pad "" smd roundrect (at 0.65 0.75) (size 1.13 1.3) (layers F.Paste) (roundrect_rratio 0.221239))
  (fp_text user %R (at 0 0) (layer F.Fab)
    (effects (font (size 1 1) (thickness 0.15)))
  )
  (model ${KICAD6_3DMODEL_DIR}/Package_SON.3dshapes/WSON-12-1EP_4x4mm_P0.5mm_EP2.6x3mm.wrl
    (at (xyz 0 0 0))
    (scale (xyz 1 1 1))
    (rotate (xyz 0 0 0))
  )
)