(module WSON-8-1EP_3x3mm_P0.5mm_EP1.45x2.4mm_ThermalVias (layer F.Cu) (tedit 5F6F188F)
  (descr "WSON, 8 Pin (https://www.ti.com/lit/ds/symlink/ina333.pdf#page=30), generated with kicad-footprint-generator ipc_noLead_generator.py")
  (tags "WSON NoLead")
  (attr smd)
  (fp_text reference REF** (at 0 -2.45) (layer F.SilkS)
    (effects (font (size 1 1) (thickness 0.15)))
  )
  (fp_text value WSON-8-1EP_3x3mm_P0.5mm_EP1.45x2.4mm_ThermalVias (at 0 2.45) (layer F.Fab)
    (effects (font (size 1 1) (thickness 0.15)))
  )
  (fp_line (start 0 -1.61) (end 1.5 -1.61) (layer F.SilkS) (width 0.12))
  (fp_line (start -1.5 1.61) (end 1.5 1.61) (layer F.SilkS) (width 0.12))
  (fp_line (start -0.75 -1.5) (end 1.5 -1.5) (layer F.Fab) (width 0.1))
  (fp_line (start 1.5 -1.5) (end 1.5 1.5) (layer F.Fab) (width 0.1))
  (fp_line (start 1.5 1.5) (end -1.5 1.5) (layer F.Fab) (width 0.1))
  (fp_line (start -1.5 1.5) (end -1.5 -0.75) (layer F.Fab) (width 0.1))
  (fp_line (start -1.5 -0.75) (end -0.75 -1.5) (layer F.Fab) (width 0.1))
  (fp_line (start -2.12 -1.75) (end -2.12 1.75) (layer F.CrtYd) (width 0.05))
  (fp_line (start -2.12 1.75) (end 2.12 1.75) (layer F.CrtYd) (width 0.05))
  (fp_line (start 2.12 1.75) (end 2.12 -1.75) (layer F.CrtYd) (width 0.05))
  (fp_line (start 2.12 -1.75) (end -2.12 -1.75) (layer F.CrtYd) (width 0.05))
  (pad 1 smd roundrect (at -1.4 -0.75) (size 0.95 0.25) (layers F.Cu F.Mask F.Paste) (roundrect_rratio 0.25))
  (pad 2 smd roundrect (at -1.4 -0.25) (size 0.95 0.25) (layers F.Cu F.Mask F.Paste) (roundrect_rratio 0.25))
  (pad 3 smd roundrect (at -1.4 0.25) (size 0.95 0.25) (layers F.Cu F.Mask F.Paste) (roundrect_rratio 0.25))
  (pad 4 smd roundrect (at -1.4 0.75) (size 0.95 0.25) (layers F.Cu F.Mask F.Paste) (roundrect_rratio 0.25))
  (pad 5 smd roundrect (at 1.4 0.75) (size 0.95 0.25) (layers F.Cu F.Mask F.Paste) (roundrect_rratio 0.25))
  (pad 6 smd roundrect (at 1.4 0.25) (size 0.95 0.25) (layers F.Cu F.Mask F.Paste) (roundrect_rratio 0.25))
  (pad 7 smd roundrect (at 1.4 -0.25) (size 0.95 0.25) (layers F.Cu F.Mask F.Paste) (roundrect_rratio 0.25))
  (pad 8 smd roundrect (at 1.4 -0.75) (size 0.95 0.25) (layers F.Cu F.Mask F.Paste) (roundrect_rratio 0.25))
  (pad 9 smd rect (at 0 0) (size 1.45 2.4) (layers F.Cu F.Mask))
  (pad 9 thru_hole circle (at -0.475 -0.95) (size 0.5 0.5) (drill 0.2) (layers *.Cu))
  (pad 9 thru_hole circle (at 0.475 -0.95) (size 0.5 0.5) (drill 0.2) (layers *.Cu))
  (pad 9 thru_hole circle (at -0.475 0) (size 0.5 0.5) (drill 0.2) (layers *.Cu))
  (pad 9 thru_hole circle (at 0.475 0) (size 0.5 0.5) (drill 0.2) (layers *.Cu))
  (pad 9 thru_hole circle (at -0.475 0.95) (size 0.5 0.5) (drill 0.2) (layers *.Cu))
  (pad 9 thru_hole circle (at 0.475 0.95) (size 0.5 0.5) (drill 0.2) (layers *.Cu))
  (pad 9 smd rect (at 0 0) (size 1.45 2.4) (layers B.Cu))
  (pad "" smd roundrect (at 0 -0.6) (size 1.26 1.04) (layers F.Paste) (roundrect_rratio 0.240385))
  (pad "" smd roundrect (at 0 0.6) (size 1.26 1.04) (layers F.Paste) (roundrect_rratio 0.240385))
  (fp_text user %R (at 0 0) (layer F.Fab)
    (effects (font (size 0.75 0.75) (thickness 0.11)))
  )
  (model ${KICAD6_3DMODEL_DIR}/Package_SON.3dshapes/WSON-8-1EP_3x3mm_P0.5mm_EP1.45x2.4mm.wrl
    (at (xyz 0 0 0))
    (scale (xyz 1 1 1))
    (rotate (xyz 0 0 0))
  )
)