(module WSON-8-1EP_6x5mm_P1.27mm_EP3.4x4mm (layer F.Cu) (tedit 5DC5FB10)
  (descr "WSON, 8 Pin (http://ww1.microchip.com/downloads/en/AppNotes/S72030.pdf), generated with kicad-footprint-generator ipc_noLead_generator.py")
  (tags "WSON NoLead")
  (attr smd)
  (fp_text reference REF** (at 0 -3.45) (layer F.SilkS)
    (effects (font (size 1 1) (thickness 0.15)))
  )
  (fp_text value WSON-8-1EP_6x5mm_P1.27mm_EP3.4x4mm (at 0 3.45) (layer F.Fab)
    (effects (font (size 1 1) (thickness 0.15)))
  )
  (fp_line (start 0 -2.61) (end 3 -2.61) (layer F.SilkS) (width 0.12))
  (fp_line (start -3 2.61) (end 3 2.61) (layer F.SilkS) (width 0.12))
  (fp_line (start -2 -2.5) (end 3 -2.5) (layer F.Fab) (width 0.1))
  (fp_line (start 3 -2.5) (end 3 2.5) (layer F.Fab) (width 0.1))
  (fp_line (start 3 2.5) (end -3 2.5) (layer F.Fab) (width 0.1))
  (fp_line (start -3 2.5) (end -3 -1.5) (layer F.Fab) (width 0.1))
  (fp_line (start -3 -1.5) (end -2 -2.5) (layer F.Fab) (width 0.1))
  (fp_line (start -3.3 -2.75) (end -3.3 2.75) (layer F.CrtYd) (width 0.05))
  (fp_line (start -3.3 2.75) (end 3.3 2.75) (layer F.CrtYd) (width 0.05))
  (fp_line (start 3.3 2.75) (end 3.3 -2.75) (layer F.CrtYd) (width 0.05))
  (fp_line (start 3.3 -2.75) (end -3.3 -2.75) (layer F.CrtYd) (width 0.05))
  (pad 1 smd roundrect (at -2.6625 -1.905) (size 0.775 0.5) (layers F.Cu F.Mask F.Paste) (roundrect_rratio 0.25))
  (pad 2 smd roundrect (at -2.6625 -0.635) (size 0.775 0.5) (layers F.Cu F.Mask F.Paste) (roundrect_rratio 0.25))
  (pad 3 smd roundrect (at -2.6625 0.635) (size 0.775 0.5) (layers F.Cu F.Mask F.Paste) (roundrect_rratio 0.25))
  (pad 4 smd roundrect (at -2.6625 1.905) (size 0.775 0.5) (layers F.Cu F.Mask F.Paste) (roundrect_rratio 0.25))
  (pad 5 smd roundrect (at 2.6625 1.905) (size 0.775 0.5) (layers F.Cu F.Mask F.Paste) (roundrect_rratio 0.25))
  (pad 6 smd roundrect (at 2.6625 0.635) (size 0.775 0.5) (layers F.Cu F.Mask F.Paste) (roundrect_rratio 0.25))
  (pad 7 smd roundrect (at 2.6625 -0.635) (size 0.775 0.5) (layers F.Cu F.Mask F.Paste) (roundrect_rratio 0.25))
  (pad 8 smd roundrect (at 2.6625 -1.905) (size 0.775 0.5) (layers F.Cu F.Mask F.Paste) (roundrect_rratio 0.25))
  (pad 9 smd rect (at 0 0) (size 3.4 4) (layers F.Cu F.Mask))
  (pad "" smd roundrect (at -0.85 -1) (size 1.37 1.61) (layers F.Paste) (roundrect_rratio 0.182482))
  (pad "" smd roundrect (at -0.85 1) (size 1.37 1.61) (layers F.Paste) (roundrect_rratio 0.182482))
  (pad "" smd roundrect (at 0.85 -1) (size 1.37 1.61) (layers F.Paste) (roundrect_rratio 0.182482))
  (pad "" smd roundrect (at 0.85 1) (size 1.37 1.61) (layers F.Paste) (roundrect_rratio 0.182482))
  (fp_text user %R (at 0 0) (layer F.Fab)
    (effects (font (size 1 1) (thickness 0.15)))
  )
  (model ${KICAD6_3DMODEL_DIR}/Package_SON.3dshapes/WSON-8-1EP_6x5mm_P1.27mm_EP3.4x4mm.wrl
    (at (xyz 0 0 0))
    (scale (xyz 1 1 1))
    (rotate (xyz 0 0 0))
  )
)