(module SolderJumper-2_P1.3mm_Bridged2Bar_RoundedPad1.0x1.5mm (layer F.Cu) (tedit 5C74525F)
  (descr "SMD Solder Jumper, 1x1.5mm, rounded Pads, 0.3mm gap, bridged with 2 copper strips")
  (tags "net tie solder jumper bridged")
  (attr virtual)
  (fp_text reference REF** (at 0 -1.8) (layer F.SilkS)
    (effects (font (size 1 1) (thickness 0.15)))
  )
  (fp_text value SolderJumper-2_P1.3mm_Bridged2Bar_RoundedPad1.0x1.5mm (at 0 1.9) (layer F.Fab)
    (effects (font (size 1 1) (thickness 0.15)))
  )
  (fp_arc (start 0.7 -0.3) (end 1.4 -0.3) (angle -90) (layer F.SilkS) (width 0.12))
  (fp_arc (start 0.7 0.3) (end 0.7 1) (angle -90) (layer F.SilkS) (width 0.12))
  (fp_arc (start -0.7 0.3) (end -1.4 0.3) (angle -90) (layer F.SilkS) (width 0.12))
  (fp_arc (start -0.7 -0.3) (end -0.7 -1) (angle -90) (layer F.SilkS) (width 0.12))
  (fp_line (start -1.4 0.3) (end -1.4 -0.3) (layer F.SilkS) (width 0.12))
  (fp_line (start 0.7 1) (end -0.7 1) (layer F.SilkS) (width 0.12))
  (fp_line (start 1.4 -0.3) (end 1.4 0.3) (layer F.SilkS) (width 0.12))
  (fp_line (start -0.7 -1) (end 0.7 -1) (layer F.SilkS) (width 0.12))
  (fp_line (start -1.65 -1.25) (end 1.65 -1.25) (layer F.CrtYd) (width 0.05))
  (fp_line (start -1.65 -1.25) (end -1.65 1.25) (layer F.CrtYd) (width 0.05))
  (fp_line (start 1.65 1.25) (end 1.65 -1.25) (layer F.CrtYd) (width 0.05))
  (fp_line (start 1.65 1.25) (end -1.65 1.25) (layer F.CrtYd) (width 0.05))
  (fp_poly (pts (xy -0.25 0.2) (xy 0.25 0.2) (xy 0.25 0.6) (xy -0.25 0.6)) (layer F.Cu) (width 0))
  (fp_poly (pts (xy -0.25 -0.6) (xy 0.25 -0.6) (xy 0.25 -0.2) (xy -0.25 -0.2)) (layer F.Cu) (width 0))
  (pad 2 smd custom (at 0.65 0) (size 1 0.5) (layers F.Cu F.Mask)
    (zone_connect 2)
    (options (clearance outline) (anchor rect))
    (primitives
      (gr_circle (center 0 0.25) (end 0.5 0.25) (width 0))
      (gr_circle (center 0 -0.25) (end 0.5 -0.25) (width 0))
      (gr_poly (pts
         (xy -0.5 0.75) (xy -0.5 -0.75) (xy 0 -0.75) (xy 0 0.75)) (width 0))
    ))
  (pad 1 smd custom (at -0.65 0) (size 1 0.5) (layers F.Cu F.Mask)
    (zone_connect 2)
    (options (clearance outline) (anchor rect))
    (primitives
      (gr_circle (center 0 0.25) (end 0.5 0.25) (width 0))
      (gr_circle (center 0 -0.25) (end 0.5 -0.25) (width 0))
      (gr_poly (pts
         (xy 0.5 0.75) (xy 0.5 -0.75) (xy 0 -0.75) (xy 0 0.75)) (width 0))
    ))
)
