(module USB_Mini-B_Wuerth_65100516121_Horizontal (layer F.Cu) (tedit 5D90ED94)
  (descr "Mini USB 2.0 Type B SMT Horizontal 5 Contacts (https://katalog.we-online.de/em/datasheet/65100516121.pdf)")
  (tags "Mini USB 2.0 Type B")
  (attr smd)
  (fp_text reference REF** (at 0 -5.25) (layer F.SilkS)
    (effects (font (size 1 1) (thickness 0.15)))
  )
  (fp_text value USB_Mini-B_Wuerth_65100516121_Horizontal (at 0 7.35) (layer F.Fab)
    (effects (font (size 1 1) (thickness 0.15)))
  )
  (fp_line (start -3.85 -3.35) (end -1.9 -3.35) (layer F.Fab) (width 0.1))
  (fp_line (start 3.85 -3.35) (end 3.85 5.9) (layer F.Fab) (width 0.1))
  (fp_line (start 3.85 5.9) (end -3.85 5.9) (layer F.Fab) (width 0.1))
  (fp_line (start -3.85 5.9) (end -3.85 -3.35) (layer F.Fab) (width 0.1))
  (fp_line (start -3.96 1.45) (end -3.96 -1.15) (layer F.SilkS) (width 0.12))
  (fp_line (start 3.96 -1.15) (end 3.96 1.45) (layer F.SilkS) (width 0.12))
  (fp_line (start -3.2 -3.46) (end -2.05 -3.46) (layer F.SilkS) (width 0.12))
  (fp_line (start -2.05 -3.46) (end -2.05 -4.05) (layer F.SilkS) (width 0.12))
  (fp_line (start -2.05 -4.05) (end -1.35 -4.05) (layer F.SilkS) (width 0.12))
  (fp_line (start 2.05 -3.46) (end 3.2 -3.46) (layer F.SilkS) (width 0.12))
  (fp_line (start -3.96 4.35) (end -3.96 6.01) (layer F.SilkS) (width 0.12))
  (fp_line (start -3.96 6.01) (end 3.96 6.01) (layer F.SilkS) (width 0.12))
  (fp_line (start 3.96 6.01) (end 3.96 4.35) (layer F.SilkS) (width 0.12))
  (fp_line (start -5.9 -0.85) (end -5.9 -4.35) (layer F.CrtYd) (width 0.05))
  (fp_line (start -5.9 -4.35) (end 5.9 -4.35) (layer F.CrtYd) (width 0.05))
  (fp_line (start 5.9 -4.35) (end 5.9 -0.85) (layer F.CrtYd) (width 0.05))
  (fp_line (start 4.35 6.4) (end -4.35 6.4) (layer F.CrtYd) (width 0.05))
  (fp_text user %R (at 0 0) (layer F.Fab)
    (effects (font (size 1 1) (thickness 0.15)))
  )
  (fp_line (start -1.9 -3.35) (end -1.6 -2.85) (layer F.Fab) (width 0.1))
  (fp_line (start -1.6 -2.85) (end -1.3 -3.35) (layer F.Fab) (width 0.1))
  (fp_line (start -1.3 -3.35) (end 3.85 -3.35) (layer F.Fab) (width 0.1))
  (fp_line (start -4.35 6.4) (end -4.35 4.65) (layer F.CrtYd) (width 0.05))
  (fp_line (start 4.35 4.65) (end 4.35 6.4) (layer F.CrtYd) (width 0.05))
  (fp_line (start -4.35 1.15) (end -4.35 -0.85) (layer F.CrtYd) (width 0.05))
  (fp_line (start 4.35 -0.85) (end 4.35 1.15) (layer F.CrtYd) (width 0.05))
  (fp_line (start 5.9 4.65) (end 4.35 4.65) (layer F.CrtYd) (width 0.05))
  (fp_line (start 4.35 1.15) (end 5.9 1.15) (layer F.CrtYd) (width 0.05))
  (fp_line (start 5.9 -0.85) (end 4.35 -0.85) (layer F.CrtYd) (width 0.05))
  (fp_line (start 5.9 1.15) (end 5.9 4.65) (layer F.CrtYd) (width 0.05))
  (fp_line (start -4.35 4.65) (end -5.89 4.65) (layer F.CrtYd) (width 0.05))
  (fp_line (start -5.9 1.15) (end -4.35 1.15) (layer F.CrtYd) (width 0.05))
  (fp_line (start -4.35 -0.85) (end -5.9 -0.85) (layer F.CrtYd) (width 0.05))
  (fp_line (start -5.89 4.65) (end -5.9 1.15) (layer F.CrtYd) (width 0.05))
  (pad 6 smd rect (at -4.4 2.9) (size 2 2.5) (layers F.Cu F.Paste F.Mask))
  (pad 6 smd rect (at 4.4 2.9) (size 2 2.5) (layers F.Cu F.Paste F.Mask))
  (pad 6 smd rect (at -4.4 -2.6) (size 2 2.5) (layers F.Cu F.Paste F.Mask))
  (pad 6 smd rect (at 4.4 -2.6) (size 2 2.5) (layers F.Cu F.Paste F.Mask))
  (pad 1 smd rect (at -1.6 -2.6) (size 0.5 2.5) (layers F.Cu F.Paste F.Mask))
  (pad 2 smd rect (at -0.8 -2.6) (size 0.5 2.5) (layers F.Cu F.Paste F.Mask))
  (pad 3 smd rect (at 0 -2.6) (size 0.5 2.5) (layers F.Cu F.Paste F.Mask))
  (pad 4 smd rect (at 0.8 -2.6) (size 0.5 2.5) (layers F.Cu F.Paste F.Mask))
  (pad 5 smd rect (at 1.6 -2.6) (size 0.5 2.5) (layers F.Cu F.Paste F.Mask))
  (pad "" np_thru_hole circle (at -2.2 0) (size 0.9 0.9) (drill 0.9) (layers *.Cu *.Mask))
  (pad "" np_thru_hole circle (at 2.2 0) (size 0.9 0.9) (drill 0.9) (layers *.Cu *.Mask))
  (model ${KICAD6_3DMODEL_DIR}/Connector_USB.3dshapes/USB_Mini-B_Wuerth_65100516121_Horizontal.wrl
    (at (xyz 0 0 0))
    (scale (xyz 1 1 1))
    (rotate (xyz 0 0 0))
  )
)
