(module USB_C_Receptacle_Amphenol_12401548E4-2A_CircularHoles (layer F.Cu) (tedit 5A142044)
  (descr "USB TYPE C, RA RCPT PCB, Hybrid, https://www.amphenolcanada.com/StockAvailabilityPrice.aspx?From=&PartNum=12401548E4%7e2A")
  (tags "USB C Type-C Receptacle Hybrid")
  (attr smd)
  (fp_text reference REF** (at 0 -6.36) (layer F.SilkS)
    (effects (font (size 1 1) (thickness 0.15)))
  )
  (fp_text value USB_C_Receptacle_Amphenol_12401548E4-2A_CircularHoles (at 0 6.14) (layer F.Fab)
    (effects (font (size 1 1) (thickness 0.15)))
  )
  (fp_text user %R (at 0 0) (layer F.Fab)
    (effects (font (size 1 1) (thickness 0.1)))
  )
  (fp_line (start -5.69 5.73) (end -5.69 -5.87) (layer F.CrtYd) (width 0.05))
  (fp_line (start 5.69 5.73) (end -5.69 5.73) (layer F.CrtYd) (width 0.05))
  (fp_line (start 5.69 -5.87) (end 5.69 5.73) (layer F.CrtYd) (width 0.05))
  (fp_line (start -5.69 -5.87) (end 5.69 -5.87) (layer F.CrtYd) (width 0.05))
  (fp_line (start 4.6 5.23) (end 4.6 -5.22) (layer F.Fab) (width 0.1))
  (fp_line (start -4.6 5.23) (end 4.6 5.23) (layer F.Fab) (width 0.1))
  (fp_line (start 3.25 -5.37) (end 4.75 -5.37) (layer F.SilkS) (width 0.12))
  (fp_line (start 4.75 -5.37) (end 4.75 -3.85) (layer F.SilkS) (width 0.12))
  (fp_line (start -4.75 -2.35) (end -4.75 1.89) (layer F.SilkS) (width 0.12))
  (fp_line (start -4.75 -5.37) (end -3.25 -5.37) (layer F.SilkS) (width 0.12))
  (fp_line (start -4.6 -5.22) (end 4.6 -5.22) (layer F.Fab) (width 0.1))
  (fp_line (start -4.6 5.23) (end -4.6 -5.22) (layer F.Fab) (width 0.1))
  (fp_line (start 4.75 -2.35) (end 4.75 1.89) (layer F.SilkS) (width 0.12))
  (fp_line (start -4.75 -5.37) (end -4.75 -3.85) (layer F.SilkS) (width 0.12))
  (pad S1 thru_hole circle (at -4.13 -3.11) (size 1.4 1.4) (drill 1.1) (layers *.Cu *.Mask))
  (pad A1 smd rect (at -2.75 -5.02) (size 0.3 0.7) (layers F.Cu F.Paste F.Mask))
  (pad A2 smd rect (at -2.25 -5.02) (size 0.3 0.7) (layers F.Cu F.Paste F.Mask))
  (pad A3 smd rect (at -1.75 -5.02) (size 0.3 0.7) (layers F.Cu F.Paste F.Mask))
  (pad A4 smd rect (at -1.25 -5.02) (size 0.3 0.7) (layers F.Cu F.Paste F.Mask))
  (pad A5 smd rect (at -0.75 -5.02) (size 0.3 0.7) (layers F.Cu F.Paste F.Mask))
  (pad A6 smd rect (at -0.25 -5.02) (size 0.3 0.7) (layers F.Cu F.Paste F.Mask))
  (pad A7 smd rect (at 0.25 -5.02) (size 0.3 0.7) (layers F.Cu F.Paste F.Mask))
  (pad A12 smd rect (at 2.75 -5.02) (size 0.3 0.7) (layers F.Cu F.Paste F.Mask))
  (pad A10 smd rect (at 1.75 -5.02) (size 0.3 0.7) (layers F.Cu F.Paste F.Mask))
  (pad A9 smd rect (at 1.25 -5.02) (size 0.3 0.7) (layers F.Cu F.Paste F.Mask))
  (pad A8 smd rect (at 0.75 -5.02) (size 0.3 0.7) (layers F.Cu F.Paste F.Mask))
  (pad A11 smd rect (at 2.25 -5.02) (size 0.3 0.7) (layers F.Cu F.Paste F.Mask))
  (pad S1 thru_hole circle (at 4.13 -3.11) (size 1.4 1.4) (drill 1.1) (layers *.Cu *.Mask))
  (pad S1 thru_hole circle (at 4.49 2.84) (size 1.4 1.4) (drill 1.1) (layers *.Cu *.Mask))
  (pad S1 thru_hole circle (at -4.49 2.84) (size 1.4 1.4) (drill 1.1) (layers *.Cu *.Mask))
  (pad "" np_thru_hole circle (at 3.6 -4.36) (size 0.95 0.95) (drill 0.95) (layers *.Cu *.Mask))
  (pad "" np_thru_hole circle (at -3.6 -4.36) (size 0.65 0.65) (drill 0.65) (layers *.Cu *.Mask))
  (pad B1 thru_hole circle (at 2.8 -3.71) (size 0.65 0.65) (drill 0.4) (layers *.Cu *.Mask))
  (pad B4 thru_hole circle (at 1.2 -3.71) (size 0.65 0.65) (drill 0.4) (layers *.Cu *.Mask))
  (pad B6 thru_hole circle (at 0.4 -3.71) (size 0.65 0.65) (drill 0.4) (layers *.Cu *.Mask))
  (pad B7 thru_hole circle (at -0.4 -3.71) (size 0.65 0.65) (drill 0.4) (layers *.Cu *.Mask))
  (pad B9 thru_hole circle (at -1.2 -3.71) (size 0.65 0.65) (drill 0.4) (layers *.Cu *.Mask))
  (pad B12 thru_hole circle (at -2.8 -3.71) (size 0.65 0.65) (drill 0.4) (layers *.Cu *.Mask))
  (pad B2 thru_hole circle (at 2.4 -3.01) (size 0.65 0.65) (drill 0.4) (layers *.Cu *.Mask))
  (pad B3 thru_hole circle (at 1.6 -3.01) (size 0.65 0.65) (drill 0.4) (layers *.Cu *.Mask))
  (pad B5 thru_hole circle (at 0.8 -3.01) (size 0.65 0.65) (drill 0.4) (layers *.Cu *.Mask))
  (pad B8 thru_hole circle (at -0.8 -3.01) (size 0.65 0.65) (drill 0.4) (layers *.Cu *.Mask))
  (pad B10 thru_hole circle (at -1.6 -3.01) (size 0.65 0.65) (drill 0.4) (layers *.Cu *.Mask))
  (pad B11 thru_hole circle (at -2.4 -3.01) (size 0.65 0.65) (drill 0.4) (layers *.Cu *.Mask))
  (model ${KICAD6_3DMODEL_DIR}/Connector_USB.3dshapes/USB_C_Receptacle_Amphenol_12401548E4-2A.wrl
    (at (xyz 0 0 0))
    (scale (xyz 1 1 1))
    (rotate (xyz 0 0 0))
  )
)
