(module USB_Micro-B_Amphenol_10104110_Horizontal (layer F.Cu) (tedit 5E5842A1)
  (descr "USB Micro-B, horizontal, https://cdn.amphenol-icc.com/media/wysiwyg/files/drawing/10104110.pdf")
  (tags "USB Micro B horizontal")
  (attr smd)
  (fp_text reference REF** (at 0 -3.55) (layer F.SilkS)
    (effects (font (size 1 1) (thickness 0.15)))
  )
  (fp_text value USB_Micro-B_Amphenol_10104110_Horizontal (at 0 5.35) (layer F.Fab)
    (effects (font (size 1 1) (thickness 0.15)))
  )
  (fp_line (start -3.86 4.16) (end -3.86 2.55) (layer F.SilkS) (width 0.12))
  (fp_line (start 3.86 -1.66) (end 1.8 -1.66) (layer F.SilkS) (width 0.12))
  (fp_line (start 3.86 0.05) (end 3.86 -1.66) (layer F.SilkS) (width 0.12))
  (fp_line (start -3.86 -1.66) (end -1.8 -1.66) (layer F.SilkS) (width 0.12))
  (fp_line (start -3.86 0.05) (end -3.86 -1.66) (layer F.SilkS) (width 0.12))
  (fp_text user %R (at 0 -0.2) (layer F.Fab)
    (effects (font (size 1 1) (thickness 0.15)))
  )
  (fp_line (start -1.3 -1.85) (end -0.9 -2.25) (layer F.Fab) (width 0.1))
  (fp_line (start -0.9 -2.25) (end -1.7 -2.25) (layer F.Fab) (width 0.1))
  (fp_line (start -1.7 -2.25) (end -1.3 -1.85) (layer F.Fab) (width 0.1))
  (fp_line (start -3.75 4.05) (end -3.75 -1.55) (layer F.Fab) (width 0.1))
  (fp_line (start 3.75 4.05) (end -3.75 4.05) (layer F.Fab) (width 0.1))
  (fp_line (start 3.75 -1.55) (end 3.75 4.05) (layer F.Fab) (width 0.1))
  (fp_line (start -3.75 -1.55) (end 3.75 -1.55) (layer F.Fab) (width 0.1))
  (fp_text user "PCB edge" (at 0 2.75) (layer Dwgs.User)
    (effects (font (size 0.5 0.5) (thickness 0.08)))
  )
  (fp_line (start -2.6 2.75) (end 2.6 2.75) (layer F.Fab) (width 0.1))
  (fp_line (start -3.86 4.16) (end 3.86 4.16) (layer F.SilkS) (width 0.12))
  (fp_line (start 3.86 4.16) (end 3.86 2.55) (layer F.SilkS) (width 0.12))
  (fp_line (start -1.8 -1.66) (end -1.8 -2.25) (layer F.SilkS) (width 0.12))
  (fp_line (start -5.4 -2.75) (end -5.4 4.55) (layer F.CrtYd) (width 0.05))
  (fp_line (start -5.4 4.55) (end 5.4 4.55) (layer F.CrtYd) (width 0.05))
  (fp_line (start 5.4 4.55) (end 5.4 -2.75) (layer F.CrtYd) (width 0.05))
  (fp_line (start 5.4 -2.75) (end -5.4 -2.75) (layer F.CrtYd) (width 0.05))
  (pad 6 smd rect (at 1.15 1.3) (size 1.8 1.9) (layers F.Cu F.Paste F.Mask))
  (pad 6 smd rect (at -1.15 1.3) (size 1.8 1.9) (layers F.Cu F.Paste F.Mask))
  (pad 6 smd rect (at 3.75 1.3) (size 2.3 1.9) (layers F.Cu F.Paste F.Mask))
  (pad 6 smd rect (at -3.75 1.3) (size 2.3 1.9) (layers F.Cu F.Paste F.Mask))
  (pad 5 smd rect (at 1.3 -1.55) (size 0.4 1.4) (layers F.Cu F.Paste F.Mask))
  (pad 4 smd rect (at 0.65 -1.55) (size 0.4 1.4) (layers F.Cu F.Paste F.Mask))
  (pad 3 smd rect (at 0 -1.55) (size 0.4 1.4) (layers F.Cu F.Paste F.Mask))
  (pad 2 smd rect (at -0.65 -1.55) (size 0.4 1.4) (layers F.Cu F.Paste F.Mask))
  (pad 1 smd rect (at -1.3 -1.55) (size 0.4 1.4) (layers F.Cu F.Paste F.Mask))
  (model ${KICAD6_3DMODEL_DIR}/Connector_USB.3dshapes/USB_Micro-B_Amphenol_10104110_Horizontal.wrl
    (at (xyz 0 0 0))
    (scale (xyz 1 1 1))
    (rotate (xyz 0 0 0))
  )
)
