(module BGA-25_6.35x6.35mm_Layout5x5_P1.27mm (layer F.Cu) (tedit 5A058D74)
  (descr "BGA-25, http://cds.linear.com/docs/en/datasheet/4624fc.pdf")
  (tags "BGA-25 uModule")
  (attr smd)
  (fp_text reference REF** (at 0 -4.2) (layer F.SilkS)
    (effects (font (size 1 1) (thickness 0.15)))
  )
  (fp_text value BGA-25_6.35x6.35mm_Layout5x5_P1.27mm (at 0 4.17) (layer F.Fab)
    (effects (font (size 1 1) (thickness 0.15)))
  )
  (fp_text user %R (at 0 0) (layer F.Fab)
    (effects (font (size 1 1) (thickness 0.15)))
  )
  (fp_line (start -2.7 -3.5) (end -3.5 -3.5) (layer F.SilkS) (width 0.12))
  (fp_line (start -3.5 -3.5) (end -3.5 -2.7) (layer F.SilkS) (width 0.12))
  (fp_line (start 3.3 -3.3) (end 3.3 3.3) (layer F.SilkS) (width 0.12))
  (fp_line (start 3.3 3.3) (end -3.3 3.3) (layer F.SilkS) (width 0.12))
  (fp_line (start -3.3 3.3) (end -3.3 -3.3) (layer F.SilkS) (width 0.12))
  (fp_line (start -3.3 -3.3) (end 3.3 -3.3) (layer F.SilkS) (width 0.12))
  (fp_line (start 3.12 -3.12) (end 3.12 3.12) (layer F.Fab) (width 0.1))
  (fp_line (start 3.12 3.12) (end -3.12 3.12) (layer F.Fab) (width 0.1))
  (fp_line (start -3.12 3.12) (end -3.1 -2.62) (layer F.Fab) (width 0.1))
  (fp_line (start -3.1 -2.62) (end -2.62 -3.12) (layer F.Fab) (width 0.1))
  (fp_line (start -2.62 -3.12) (end 3.12 -3.12) (layer F.Fab) (width 0.1))
  (fp_line (start -4.12 -4.12) (end 4.12 -4.12) (layer F.CrtYd) (width 0.05))
  (fp_line (start -4.12 -4.12) (end -4.12 4.12) (layer F.CrtYd) (width 0.05))
  (fp_line (start 4.12 4.12) (end 4.12 -4.12) (layer F.CrtYd) (width 0.05))
  (fp_line (start 4.12 4.12) (end -4.12 4.12) (layer F.CrtYd) (width 0.05))
  (pad E5 smd circle (at 2.54 2.54) (size 0.75 0.75) (layers F.Cu F.Paste F.Mask))
  (pad D5 smd circle (at 2.54 1.27) (size 0.75 0.75) (layers F.Cu F.Paste F.Mask))
  (pad C5 smd circle (at 2.54 0) (size 0.75 0.75) (layers F.Cu F.Paste F.Mask))
  (pad B5 smd circle (at 2.54 -1.27) (size 0.75 0.75) (layers F.Cu F.Paste F.Mask))
  (pad A5 smd circle (at 2.54 -2.54) (size 0.75 0.75) (layers F.Cu F.Paste F.Mask))
  (pad E4 smd circle (at 1.27 2.54) (size 0.75 0.75) (layers F.Cu F.Paste F.Mask))
  (pad D4 smd circle (at 1.27 1.27) (size 0.75 0.75) (layers F.Cu F.Paste F.Mask))
  (pad C4 smd circle (at 1.27 0) (size 0.75 0.75) (layers F.Cu F.Paste F.Mask))
  (pad B4 smd circle (at 1.27 -1.27) (size 0.75 0.75) (layers F.Cu F.Paste F.Mask))
  (pad A4 smd circle (at 1.27 -2.54) (size 0.75 0.75) (layers F.Cu F.Paste F.Mask))
  (pad E3 smd circle (at 0 2.54) (size 0.75 0.75) (layers F.Cu F.Paste F.Mask))
  (pad D3 smd circle (at 0 1.27) (size 0.75 0.75) (layers F.Cu F.Paste F.Mask))
  (pad C3 smd circle (at 0 0) (size 0.75 0.75) (layers F.Cu F.Paste F.Mask))
  (pad B3 smd circle (at 0 -1.27) (size 0.75 0.75) (layers F.Cu F.Paste F.Mask))
  (pad A3 smd circle (at 0 -2.54) (size 0.75 0.75) (layers F.Cu F.Paste F.Mask))
  (pad E2 smd circle (at -1.27 2.54) (size 0.75 0.75) (layers F.Cu F.Paste F.Mask))
  (pad D2 smd circle (at -1.27 1.27) (size 0.75 0.75) (layers F.Cu F.Paste F.Mask))
  (pad C2 smd circle (at -1.27 0) (size 0.75 0.75) (layers F.Cu F.Paste F.Mask))
  (pad B2 smd circle (at -1.27 -1.27) (size 0.75 0.75) (layers F.Cu F.Paste F.Mask))
  (pad A2 smd circle (at -1.27 -2.54) (size 0.75 0.75) (layers F.Cu F.Paste F.Mask))
  (pad E1 smd circle (at -2.54 2.54) (size 0.75 0.75) (layers F.Cu F.Paste F.Mask))
  (pad D1 smd circle (at -2.54 1.27) (size 0.75 0.75) (layers F.Cu F.Paste F.Mask))
  (pad C1 smd circle (at -2.54 0) (size 0.75 0.75) (layers F.Cu F.Paste F.Mask))
  (pad B1 smd circle (at -2.54 -1.27) (size 0.75 0.75) (layers F.Cu F.Paste F.Mask))
  (pad A1 smd circle (at -2.54 -2.54) (size 0.75 0.75) (layers F.Cu F.Paste F.Mask))
  (model ${KICAD6_3DMODEL_DIR}/Package_BGA.3dshapes/BGA-25_6.35x6.35mm_Layout5x5_P1.27mm.wrl
    (at (xyz 0 0 0))
    (scale (xyz 1 1 1))
    (rotate (xyz 0 0 0))
  )
)
