(module BGA-100_6.0x6.0mm_Layout11x11_P0.5mm_Ball0.3mm_Pad0.25mm_NSMD (layer F.Cu) (tedit 59EE2D4C)
  (descr "Altera MBGA-100, https://www.altera.com/content/dam/altera-www/global/en_US/pdfs/literature/packaging/04r00345-01.pdf")
  (tags "Altera BGA-100 M100 MBGA")
  (attr smd)
  (fp_text reference REF** (at 0 -4.2) (layer F.SilkS)
    (effects (font (size 1 1) (thickness 0.15)))
  )
  (fp_text value BGA-100_6.0x6.0mm_Layout11x11_P0.5mm_Ball0.3mm_Pad0.25mm_NSMD (at 0 4.2) (layer F.Fab)
    (effects (font (size 1 1) (thickness 0.15)))
  )
  (fp_text user %R (at 0 0) (layer F.Fab)
    (effects (font (size 1 1) (thickness 0.15)))
  )
  (fp_line (start -2.6 -3.1) (end -3.1 -2.6) (layer F.SilkS) (width 0.12))
  (fp_line (start -3.1 -2.6) (end -3.1 3.1) (layer F.SilkS) (width 0.12))
  (fp_line (start -3.1 3.1) (end 3.1 3.1) (layer F.SilkS) (width 0.12))
  (fp_line (start 3.1 3.1) (end 3.1 -3.1) (layer F.SilkS) (width 0.12))
  (fp_line (start 3.1 -3.1) (end -2.6 -3.1) (layer F.SilkS) (width 0.12))
  (fp_line (start -2.5 -3) (end -3 -2.5) (layer F.Fab) (width 0.10))
  (fp_line (start -3 -2.5) (end -3 3) (layer F.Fab) (width 0.10))
  (fp_line (start -3 3) (end 3 3) (layer F.Fab) (width 0.10))
  (fp_line (start 3 3) (end 3 -3) (layer F.Fab) (width 0.10))
  (fp_line (start 3 -3) (end -2.5 -3) (layer F.Fab) (width 0.10))
  (fp_line (start -3.15 -3.15) (end 3.15 -3.15) (layer F.CrtYd) (width 0.05))
  (fp_line (start 3.15 -3.15) (end 3.15 3.15) (layer F.CrtYd) (width 0.05))
  (fp_line (start 3.15 3.15) (end -3.15 3.15) (layer F.CrtYd) (width 0.05))
  (fp_line (start -3.15 3.15) (end -3.15 -3.15) (layer F.CrtYd) (width 0.05))
  (pad A1 smd circle (at -2.5 -2.5) (size 0.25 0.25) (layers F.Cu F.Paste F.Mask))
  (pad B1 smd circle (at -2.5 -2) (size 0.25 0.25) (layers F.Cu F.Paste F.Mask))
  (pad C1 smd circle (at -2.5 -1.5) (size 0.25 0.25) (layers F.Cu F.Paste F.Mask))
  (pad D1 smd circle (at -2.5 -1) (size 0.25 0.25) (layers F.Cu F.Paste F.Mask))
  (pad E1 smd circle (at -2.5 -0.5) (size 0.25 0.25) (layers F.Cu F.Paste F.Mask))
  (pad F1 smd circle (at -2.5 0) (size 0.25 0.25) (layers F.Cu F.Paste F.Mask))
  (pad G1 smd circle (at -2.5 0.5) (size 0.25 0.25) (layers F.Cu F.Paste F.Mask))
  (pad H1 smd circle (at -2.5 1) (size 0.25 0.25) (layers F.Cu F.Paste F.Mask))
  (pad J1 smd circle (at -2.5 1.5) (size 0.25 0.25) (layers F.Cu F.Paste F.Mask))
  (pad K1 smd circle (at -2.5 2) (size 0.25 0.25) (layers F.Cu F.Paste F.Mask))
  (pad L1 smd circle (at -2.5 2.5) (size 0.25 0.25) (layers F.Cu F.Paste F.Mask))
  (pad A2 smd circle (at -2 -2.5) (size 0.25 0.25) (layers F.Cu F.Paste F.Mask))
  (pad B2 smd circle (at -2 -2) (size 0.25 0.25) (layers F.Cu F.Paste F.Mask))
  (pad C2 smd circle (at -2 -1.5) (size 0.25 0.25) (layers F.Cu F.Paste F.Mask))
  (pad D2 smd circle (at -2 -1) (size 0.25 0.25) (layers F.Cu F.Paste F.Mask))
  (pad E2 smd circle (at -2 -0.5) (size 0.25 0.25) (layers F.Cu F.Paste F.Mask))
  (pad F2 smd circle (at -2 0) (size 0.25 0.25) (layers F.Cu F.Paste F.Mask))
  (pad G2 smd circle (at -2 0.5) (size 0.25 0.25) (layers F.Cu F.Paste F.Mask))
  (pad H2 smd circle (at -2 1) (size 0.25 0.25) (layers F.Cu F.Paste F.Mask))
  (pad J2 smd circle (at -2 1.5) (size 0.25 0.25) (layers F.Cu F.Paste F.Mask))
  (pad K2 smd circle (at -2 2) (size 0.25 0.25) (layers F.Cu F.Paste F.Mask))
  (pad L2 smd circle (at -2 2.5) (size 0.25 0.25) (layers F.Cu F.Paste F.Mask))
  (pad A3 smd circle (at -1.5 -2.5) (size 0.25 0.25) (layers F.Cu F.Paste F.Mask))
  (pad B3 smd circle (at -1.5 -2) (size 0.25 0.25) (layers F.Cu F.Paste F.Mask))
  (pad D3 smd circle (at -1.5 -1) (size 0.25 0.25) (layers F.Cu F.Paste F.Mask))
  (pad E3 smd circle (at -1.5 -0.5) (size 0.25 0.25) (layers F.Cu F.Paste F.Mask))
  (pad F3 smd circle (at -1.5 0) (size 0.25 0.25) (layers F.Cu F.Paste F.Mask))
  (pad G3 smd circle (at -1.5 0.5) (size 0.25 0.25) (layers F.Cu F.Paste F.Mask))
  (pad H3 smd circle (at -1.5 1) (size 0.25 0.25) (layers F.Cu F.Paste F.Mask))
  (pad K3 smd circle (at -1.5 2) (size 0.25 0.25) (layers F.Cu F.Paste F.Mask))
  (pad L3 smd circle (at -1.5 2.5) (size 0.25 0.25) (layers F.Cu F.Paste F.Mask))
  (pad A4 smd circle (at -1 -2.5) (size 0.25 0.25) (layers F.Cu F.Paste F.Mask))
  (pad B4 smd circle (at -1 -2) (size 0.25 0.25) (layers F.Cu F.Paste F.Mask))
  (pad C4 smd circle (at -1 -1.5) (size 0.25 0.25) (layers F.Cu F.Paste F.Mask))
  (pad E4 smd circle (at -1 -0.5) (size 0.25 0.25) (layers F.Cu F.Paste F.Mask))
  (pad G4 smd circle (at -1 0.5) (size 0.25 0.25) (layers F.Cu F.Paste F.Mask))
  (pad J4 smd circle (at -1 1.5) (size 0.25 0.25) (layers F.Cu F.Paste F.Mask))
  (pad K4 smd circle (at -1 2) (size 0.25 0.25) (layers F.Cu F.Paste F.Mask))
  (pad L4 smd circle (at -1 2.5) (size 0.25 0.25) (layers F.Cu F.Paste F.Mask))
  (pad A5 smd circle (at -0.5 -2.5) (size 0.25 0.25) (layers F.Cu F.Paste F.Mask))
  (pad B5 smd circle (at -0.5 -2) (size 0.25 0.25) (layers F.Cu F.Paste F.Mask))
  (pad C5 smd circle (at -0.5 -1.5) (size 0.25 0.25) (layers F.Cu F.Paste F.Mask))
  (pad D5 smd circle (at -0.5 -1) (size 0.25 0.25) (layers F.Cu F.Paste F.Mask))
  (pad H5 smd circle (at -0.5 1) (size 0.25 0.25) (layers F.Cu F.Paste F.Mask))
  (pad J5 smd circle (at -0.5 1.5) (size 0.25 0.25) (layers F.Cu F.Paste F.Mask))
  (pad K5 smd circle (at -0.5 2) (size 0.25 0.25) (layers F.Cu F.Paste F.Mask))
  (pad L5 smd circle (at -0.5 2.5) (size 0.25 0.25) (layers F.Cu F.Paste F.Mask))
  (pad A6 smd circle (at 0 -2.5) (size 0.25 0.25) (layers F.Cu F.Paste F.Mask))
  (pad B6 smd circle (at 0 -2) (size 0.25 0.25) (layers F.Cu F.Paste F.Mask))
  (pad C6 smd circle (at 0 -1.5) (size 0.25 0.25) (layers F.Cu F.Paste F.Mask))
  (pad J6 smd circle (at 0 1.5) (size 0.25 0.25) (layers F.Cu F.Paste F.Mask))
  (pad K6 smd circle (at 0 2) (size 0.25 0.25) (layers F.Cu F.Paste F.Mask))
  (pad L6 smd circle (at 0 2.5) (size 0.25 0.25) (layers F.Cu F.Paste F.Mask))
  (pad A7 smd circle (at 0.5 -2.5) (size 0.25 0.25) (layers F.Cu F.Paste F.Mask))
  (pad B7 smd circle (at 0.5 -2) (size 0.25 0.25) (layers F.Cu F.Paste F.Mask))
  (pad C7 smd circle (at 0.5 -1.5) (size 0.25 0.25) (layers F.Cu F.Paste F.Mask))
  (pad D7 smd circle (at 0.5 -1) (size 0.25 0.25) (layers F.Cu F.Paste F.Mask))
  (pad H7 smd circle (at 0.5 1) (size 0.25 0.25) (layers F.Cu F.Paste F.Mask))
  (pad J7 smd circle (at 0.5 1.5) (size 0.25 0.25) (layers F.Cu F.Paste F.Mask))
  (pad K7 smd circle (at 0.5 2) (size 0.25 0.25) (layers F.Cu F.Paste F.Mask))
  (pad L7 smd circle (at 0.5 2.5) (size 0.25 0.25) (layers F.Cu F.Paste F.Mask))
  (pad A8 smd circle (at 1 -2.5) (size 0.25 0.25) (layers F.Cu F.Paste F.Mask))
  (pad B8 smd circle (at 1 -2) (size 0.25 0.25) (layers F.Cu F.Paste F.Mask))
  (pad C8 smd circle (at 1 -1.5) (size 0.25 0.25) (layers F.Cu F.Paste F.Mask))
  (pad E8 smd circle (at 1 -0.5) (size 0.25 0.25) (layers F.Cu F.Paste F.Mask))
  (pad G8 smd circle (at 1 0.5) (size 0.25 0.25) (layers F.Cu F.Paste F.Mask))
  (pad J8 smd circle (at 1 1.5) (size 0.25 0.25) (layers F.Cu F.Paste F.Mask))
  (pad K8 smd circle (at 1 2) (size 0.25 0.25) (layers F.Cu F.Paste F.Mask))
  (pad L8 smd circle (at 1 2.5) (size 0.25 0.25) (layers F.Cu F.Paste F.Mask))
  (pad A9 smd circle (at 1.5 -2.5) (size 0.25 0.25) (layers F.Cu F.Paste F.Mask))
  (pad B9 smd circle (at 1.5 -2) (size 0.25 0.25) (layers F.Cu F.Paste F.Mask))
  (pad D9 smd circle (at 1.5 -1) (size 0.25 0.25) (layers F.Cu F.Paste F.Mask))
  (pad E9 smd circle (at 1.5 -0.5) (size 0.25 0.25) (layers F.Cu F.Paste F.Mask))
  (pad F9 smd circle (at 1.5 0) (size 0.25 0.25) (layers F.Cu F.Paste F.Mask))
  (pad G9 smd circle (at 1.5 0.5) (size 0.25 0.25) (layers F.Cu F.Paste F.Mask))
  (pad H9 smd circle (at 1.5 1) (size 0.25 0.25) (layers F.Cu F.Paste F.Mask))
  (pad K9 smd circle (at 1.5 2) (size 0.25 0.25) (layers F.Cu F.Paste F.Mask))
  (pad L9 smd circle (at 1.5 2.5) (size 0.25 0.25) (layers F.Cu F.Paste F.Mask))
  (pad A10 smd circle (at 2 -2.5) (size 0.25 0.25) (layers F.Cu F.Paste F.Mask))
  (pad B10 smd circle (at 2 -2) (size 0.25 0.25) (layers F.Cu F.Paste F.Mask))
  (pad C10 smd circle (at 2 -1.5) (size 0.25 0.25) (layers F.Cu F.Paste F.Mask))
  (pad D10 smd circle (at 2 -1) (size 0.25 0.25) (layers F.Cu F.Paste F.Mask))
  (pad E10 smd circle (at 2 -0.5) (size 0.25 0.25) (layers F.Cu F.Paste F.Mask))
  (pad F10 smd circle (at 2 0) (size 0.25 0.25) (layers F.Cu F.Paste F.Mask))
  (pad G10 smd circle (at 2 0.5) (size 0.25 0.25) (layers F.Cu F.Paste F.Mask))
  (pad H10 smd circle (at 2 1) (size 0.25 0.25) (layers F.Cu F.Paste F.Mask))
  (pad J10 smd circle (at 2 1.5) (size 0.25 0.25) (layers F.Cu F.Paste F.Mask))
  (pad K10 smd circle (at 2 2) (size 0.25 0.25) (layers F.Cu F.Paste F.Mask))
  (pad L10 smd circle (at 2 2.5) (size 0.25 0.25) (layers F.Cu F.Paste F.Mask))
  (pad A11 smd circle (at 2.5 -2.5) (size 0.25 0.25) (layers F.Cu F.Paste F.Mask))
  (pad B11 smd circle (at 2.5 -2) (size 0.25 0.25) (layers F.Cu F.Paste F.Mask))
  (pad C11 smd circle (at 2.5 -1.5) (size 0.25 0.25) (layers F.Cu F.Paste F.Mask))
  (pad D11 smd circle (at 2.5 -1) (size 0.25 0.25) (layers F.Cu F.Paste F.Mask))
  (pad E11 smd circle (at 2.5 -0.5) (size 0.25 0.25) (layers F.Cu F.Paste F.Mask))
  (pad F11 smd circle (at 2.5 0) (size 0.25 0.25) (layers F.Cu F.Paste F.Mask))
  (pad G11 smd circle (at 2.5 0.5) (size 0.25 0.25) (layers F.Cu F.Paste F.Mask))
  (pad H11 smd circle (at 2.5 1) (size 0.25 0.25) (layers F.Cu F.Paste F.Mask))
  (pad J11 smd circle (at 2.5 1.5) (size 0.25 0.25) (layers F.Cu F.Paste F.Mask))
  (pad K11 smd circle (at 2.5 2) (size 0.25 0.25) (layers F.Cu F.Paste F.Mask))
  (pad L11 smd circle (at 2.5 2.5) (size 0.25 0.25) (layers F.Cu F.Paste F.Mask))
  (model ${KICAD6_3DMODEL_DIR}/Package_BGA.3dshapes/BGA-100_6.0x6.0mm_Layout11x11_P0.5mm_Ball0.3mm_Pad0.25mm_NSMD.wrl
    (at (xyz 0 0 0))
    (scale (xyz 1 1 1))
    (rotate (xyz 0 0 0))
  )
)
