(module BGA-1156_35.0x35.0mm_Layout34x34_P1.0mm (layer F.Cu) (tedit 5A058D74)
  (descr BGA-1156)
  (tags BGA-1156)
  (attr smd)
  (fp_text reference REF** (at 0 -18.7) (layer F.SilkS)
    (effects (font (size 1 1) (thickness 0.15)))
  )
  (fp_text value BGA-1156_35.0x35.0mm_Layout34x34_P1.0mm (at 0 18.5) (layer F.Fab)
    (effects (font (size 1 1) (thickness 0.15)))
  )
  (fp_text user %R (at 0 0) (layer F.Fab)
    (effects (font (size 1 1) (thickness 0.15)))
  )
  (fp_line (start -16.6 -17.8) (end -17.8 -17.8) (layer F.SilkS) (width 0.12))
  (fp_line (start -17.8 -17.8) (end -17.8 -16.6) (layer F.SilkS) (width 0.12))
  (fp_line (start -17.6 -17.6) (end -17.6 17.6) (layer F.SilkS) (width 0.12))
  (fp_line (start -17.6 17.6) (end 17.6 17.6) (layer F.SilkS) (width 0.12))
  (fp_line (start 17.6 17.6) (end 17.6 -17.6) (layer F.SilkS) (width 0.12))
  (fp_line (start 17.6 -17.6) (end -17.6 -17.6) (layer F.SilkS) (width 0.12))
  (fp_line (start -16 -17.5) (end -16.5 -17.5) (layer F.Fab) (width 0.1))
  (fp_line (start -16.5 -17.5) (end -17.5 -16.5) (layer F.Fab) (width 0.1))
  (fp_line (start -17.5 -16.5) (end -17.5 17.5) (layer F.Fab) (width 0.1))
  (fp_line (start 17.5 -17.5) (end -16 -17.5) (layer F.Fab) (width 0.1))
  (fp_line (start -17.5 17.5) (end 17.5 17.5) (layer F.Fab) (width 0.1))
  (fp_line (start 17.5 17.5) (end 17.5 -17.5) (layer F.Fab) (width 0.1))
  (fp_line (start -18.5 -18.5) (end 18.5 -18.5) (layer F.CrtYd) (width 0.05))
  (fp_line (start -18.5 -18.5) (end -18.5 18.5) (layer F.CrtYd) (width 0.05))
  (fp_line (start 18.5 18.5) (end 18.5 -18.5) (layer F.CrtYd) (width 0.05))
  (fp_line (start 18.5 18.5) (end -18.5 18.5) (layer F.CrtYd) (width 0.05))
  (pad A2 smd circle (at -15.5 -16.5) (size 0.5 0.5) (layers F.Cu F.Paste F.Mask))
  (pad A3 smd circle (at -14.5 -16.5) (size 0.5 0.5) (layers F.Cu F.Paste F.Mask))
  (pad A4 smd circle (at -13.5 -16.5) (size 0.5 0.5) (layers F.Cu F.Paste F.Mask))
  (pad A5 smd circle (at -12.5 -16.5) (size 0.5 0.5) (layers F.Cu F.Paste F.Mask))
  (pad A6 smd circle (at -11.5 -16.5) (size 0.5 0.5) (layers F.Cu F.Paste F.Mask))
  (pad A7 smd circle (at -10.5 -16.5) (size 0.5 0.5) (layers F.Cu F.Paste F.Mask))
  (pad A8 smd circle (at -9.5 -16.5) (size 0.5 0.5) (layers F.Cu F.Paste F.Mask))
  (pad A9 smd circle (at -8.5 -16.5) (size 0.5 0.5) (layers F.Cu F.Paste F.Mask))
  (pad A10 smd circle (at -7.5 -16.5) (size 0.5 0.5) (layers F.Cu F.Paste F.Mask))
  (pad A11 smd circle (at -6.5 -16.5) (size 0.5 0.5) (layers F.Cu F.Paste F.Mask))
  (pad A12 smd circle (at -5.5 -16.5) (size 0.5 0.5) (layers F.Cu F.Paste F.Mask))
  (pad A13 smd circle (at -4.5 -16.5) (size 0.5 0.5) (layers F.Cu F.Paste F.Mask))
  (pad A14 smd circle (at -3.5 -16.5) (size 0.5 0.5) (layers F.Cu F.Paste F.Mask))
  (pad A15 smd circle (at -2.5 -16.5) (size 0.5 0.5) (layers F.Cu F.Paste F.Mask))
  (pad A16 smd circle (at -1.5 -16.5) (size 0.5 0.5) (layers F.Cu F.Paste F.Mask))
  (pad B1 smd circle (at -16.5 -15.5) (size 0.5 0.5) (layers F.Cu F.Paste F.Mask))
  (pad C1 smd circle (at -16.5 -14.5) (size 0.5 0.5) (layers F.Cu F.Paste F.Mask))
  (pad D1 smd circle (at -16.5 -13.5) (size 0.5 0.5) (layers F.Cu F.Paste F.Mask))
  (pad E1 smd circle (at -16.5 -12.5) (size 0.5 0.5) (layers F.Cu F.Paste F.Mask))
  (pad F1 smd circle (at -16.5 -11.5) (size 0.5 0.5) (layers F.Cu F.Paste F.Mask))
  (pad G1 smd circle (at -16.5 -10.5) (size 0.5 0.5) (layers F.Cu F.Paste F.Mask))
  (pad H1 smd circle (at -16.5 -9.5) (size 0.5 0.5) (layers F.Cu F.Paste F.Mask))
  (pad J1 smd circle (at -16.5 -8.5) (size 0.5 0.5) (layers F.Cu F.Paste F.Mask))
  (pad B16 smd circle (at -1.5 -15.5) (size 0.5 0.5) (layers F.Cu F.Paste F.Mask))
  (pad B15 smd circle (at -2.5 -15.5) (size 0.5 0.5) (layers F.Cu F.Paste F.Mask))
  (pad B14 smd circle (at -3.5 -15.5) (size 0.5 0.5) (layers F.Cu F.Paste F.Mask))
  (pad B13 smd circle (at -4.5 -15.5) (size 0.5 0.5) (layers F.Cu F.Paste F.Mask))
  (pad B12 smd circle (at -5.5 -15.5) (size 0.5 0.5) (layers F.Cu F.Paste F.Mask))
  (pad B11 smd circle (at -6.5 -15.5) (size 0.5 0.5) (layers F.Cu F.Paste F.Mask))
  (pad B10 smd circle (at -7.5 -15.5) (size 0.5 0.5) (layers F.Cu F.Paste F.Mask))
  (pad B9 smd circle (at -8.5 -15.5) (size 0.5 0.5) (layers F.Cu F.Paste F.Mask))
  (pad B8 smd circle (at -9.5 -15.5) (size 0.5 0.5) (layers F.Cu F.Paste F.Mask))
  (pad B7 smd circle (at -10.5 -15.5) (size 0.5 0.5) (layers F.Cu F.Paste F.Mask))
  (pad B6 smd circle (at -11.5 -15.5) (size 0.5 0.5) (layers F.Cu F.Paste F.Mask))
  (pad B5 smd circle (at -12.5 -15.5) (size 0.5 0.5) (layers F.Cu F.Paste F.Mask))
  (pad B2 smd circle (at -15.5 -15.5) (size 0.5 0.5) (layers F.Cu F.Paste F.Mask))
  (pad B3 smd circle (at -14.5 -15.5) (size 0.5 0.5) (layers F.Cu F.Paste F.Mask))
  (pad B4 smd circle (at -13.5 -15.5) (size 0.5 0.5) (layers F.Cu F.Paste F.Mask))
  (pad C2 smd circle (at -15.5 -14.5) (size 0.5 0.5) (layers F.Cu F.Paste F.Mask))
  (pad C3 smd circle (at -14.5 -14.5) (size 0.5 0.5) (layers F.Cu F.Paste F.Mask))
  (pad C4 smd circle (at -13.5 -14.5) (size 0.5 0.5) (layers F.Cu F.Paste F.Mask))
  (pad C5 smd circle (at -12.5 -14.5) (size 0.5 0.5) (layers F.Cu F.Paste F.Mask))
  (pad C6 smd circle (at -11.5 -14.5) (size 0.5 0.5) (layers F.Cu F.Paste F.Mask))
  (pad C7 smd circle (at -10.5 -14.5) (size 0.5 0.5) (layers F.Cu F.Paste F.Mask))
  (pad C8 smd circle (at -9.5 -14.5) (size 0.5 0.5) (layers F.Cu F.Paste F.Mask))
  (pad C9 smd circle (at -8.5 -14.5) (size 0.5 0.5) (layers F.Cu F.Paste F.Mask))
  (pad D2 smd circle (at -15.5 -13.5) (size 0.5 0.5) (layers F.Cu F.Paste F.Mask))
  (pad D3 smd circle (at -14.5 -13.5) (size 0.5 0.5) (layers F.Cu F.Paste F.Mask))
  (pad D4 smd circle (at -13.5 -13.5) (size 0.5 0.5) (layers F.Cu F.Paste F.Mask))
  (pad D5 smd circle (at -12.5 -13.5) (size 0.5 0.5) (layers F.Cu F.Paste F.Mask))
  (pad D6 smd circle (at -11.5 -13.5) (size 0.5 0.5) (layers F.Cu F.Paste F.Mask))
  (pad D7 smd circle (at -10.5 -13.5) (size 0.5 0.5) (layers F.Cu F.Paste F.Mask))
  (pad D8 smd circle (at -9.5 -13.5) (size 0.5 0.5) (layers F.Cu F.Paste F.Mask))
  (pad D9 smd circle (at -8.5 -13.5) (size 0.5 0.5) (layers F.Cu F.Paste F.Mask))
  (pad E2 smd circle (at -15.5 -12.5) (size 0.5 0.5) (layers F.Cu F.Paste F.Mask))
  (pad E3 smd circle (at -14.5 -12.5) (size 0.5 0.5) (layers F.Cu F.Paste F.Mask))
  (pad E4 smd circle (at -13.5 -12.5) (size 0.5 0.5) (layers F.Cu F.Paste F.Mask))
  (pad C10 smd circle (at -7.5 -14.5) (size 0.5 0.5) (layers F.Cu F.Paste F.Mask))
  (pad D10 smd circle (at -7.5 -13.5) (size 0.5 0.5) (layers F.Cu F.Paste F.Mask))
  (pad C11 smd circle (at -6.5 -14.5) (size 0.5 0.5) (layers F.Cu F.Paste F.Mask))
  (pad D11 smd circle (at -6.5 -13.5) (size 0.5 0.5) (layers F.Cu F.Paste F.Mask))
  (pad D12 smd circle (at -5.5 -13.5) (size 0.5 0.5) (layers F.Cu F.Paste F.Mask))
  (pad C12 smd circle (at -5.5 -14.5) (size 0.5 0.5) (layers F.Cu F.Paste F.Mask))
  (pad C13 smd circle (at -4.5 -14.5) (size 0.5 0.5) (layers F.Cu F.Paste F.Mask))
  (pad C14 smd circle (at -3.5 -14.5) (size 0.5 0.5) (layers F.Cu F.Paste F.Mask))
  (pad D14 smd circle (at -3.5 -13.5) (size 0.5 0.5) (layers F.Cu F.Paste F.Mask))
  (pad D13 smd circle (at -4.5 -13.5) (size 0.5 0.5) (layers F.Cu F.Paste F.Mask))
  (pad C15 smd circle (at -2.5 -14.5) (size 0.5 0.5) (layers F.Cu F.Paste F.Mask))
  (pad D15 smd circle (at -2.5 -13.5) (size 0.5 0.5) (layers F.Cu F.Paste F.Mask))
  (pad D16 smd circle (at -1.5 -13.5) (size 0.5 0.5) (layers F.Cu F.Paste F.Mask))
  (pad C16 smd circle (at -1.5 -14.5) (size 0.5 0.5) (layers F.Cu F.Paste F.Mask))
  (pad E13 smd circle (at -4.5 -12.5) (size 0.5 0.5) (layers F.Cu F.Paste F.Mask))
  (pad F13 smd circle (at -4.5 -11.5) (size 0.5 0.5) (layers F.Cu F.Paste F.Mask))
  (pad F14 smd circle (at -3.5 -11.5) (size 0.5 0.5) (layers F.Cu F.Paste F.Mask))
  (pad E14 smd circle (at -3.5 -12.5) (size 0.5 0.5) (layers F.Cu F.Paste F.Mask))
  (pad E15 smd circle (at -2.5 -12.5) (size 0.5 0.5) (layers F.Cu F.Paste F.Mask))
  (pad F15 smd circle (at -2.5 -11.5) (size 0.5 0.5) (layers F.Cu F.Paste F.Mask))
  (pad G15 smd circle (at -2.5 -10.5) (size 0.5 0.5) (layers F.Cu F.Paste F.Mask))
  (pad G16 smd circle (at -1.5 -10.5) (size 0.5 0.5) (layers F.Cu F.Paste F.Mask))
  (pad F16 smd circle (at -1.5 -11.5) (size 0.5 0.5) (layers F.Cu F.Paste F.Mask))
  (pad E16 smd circle (at -1.5 -12.5) (size 0.5 0.5) (layers F.Cu F.Paste F.Mask))
  (pad F2 smd circle (at -15.5 -11.5) (size 0.5 0.5) (layers F.Cu F.Paste F.Mask))
  (pad F3 smd circle (at -14.5 -11.5) (size 0.5 0.5) (layers F.Cu F.Paste F.Mask))
  (pad F4 smd circle (at -13.5 -11.5) (size 0.5 0.5) (layers F.Cu F.Paste F.Mask))
  (pad G4 smd circle (at -13.5 -10.5) (size 0.5 0.5) (layers F.Cu F.Paste F.Mask))
  (pad G3 smd circle (at -14.5 -10.5) (size 0.5 0.5) (layers F.Cu F.Paste F.Mask))
  (pad G2 smd circle (at -15.5 -10.5) (size 0.5 0.5) (layers F.Cu F.Paste F.Mask))
  (pad H2 smd circle (at -15.5 -9.5) (size 0.5 0.5) (layers F.Cu F.Paste F.Mask))
  (pad H3 smd circle (at -14.5 -9.5) (size 0.5 0.5) (layers F.Cu F.Paste F.Mask))
  (pad H4 smd circle (at -13.5 -9.5) (size 0.5 0.5) (layers F.Cu F.Paste F.Mask))
  (pad J4 smd circle (at -13.5 -8.5) (size 0.5 0.5) (layers F.Cu F.Paste F.Mask))
  (pad J3 smd circle (at -14.5 -8.5) (size 0.5 0.5) (layers F.Cu F.Paste F.Mask))
  (pad J2 smd circle (at -15.5 -8.5) (size 0.5 0.5) (layers F.Cu F.Paste F.Mask))
  (pad K1 smd circle (at -16.5 -7.5) (size 0.5 0.5) (layers F.Cu F.Paste F.Mask))
  (pad K2 smd circle (at -15.5 -7.5) (size 0.5 0.5) (layers F.Cu F.Paste F.Mask))
  (pad K3 smd circle (at -14.5 -7.5) (size 0.5 0.5) (layers F.Cu F.Paste F.Mask))
  (pad K4 smd circle (at -13.5 -7.5) (size 0.5 0.5) (layers F.Cu F.Paste F.Mask))
  (pad L4 smd circle (at -13.5 -6.5) (size 0.5 0.5) (layers F.Cu F.Paste F.Mask))
  (pad L3 smd circle (at -14.5 -6.5) (size 0.5 0.5) (layers F.Cu F.Paste F.Mask))
  (pad L2 smd circle (at -15.5 -6.5) (size 0.5 0.5) (layers F.Cu F.Paste F.Mask))
  (pad L1 smd circle (at -16.5 -6.5) (size 0.5 0.5) (layers F.Cu F.Paste F.Mask))
  (pad M1 smd circle (at -16.5 -5.5) (size 0.5 0.5) (layers F.Cu F.Paste F.Mask))
  (pad M2 smd circle (at -15.5 -5.5) (size 0.5 0.5) (layers F.Cu F.Paste F.Mask))
  (pad M3 smd circle (at -14.5 -5.5) (size 0.5 0.5) (layers F.Cu F.Paste F.Mask))
  (pad M4 smd circle (at -13.5 -5.5) (size 0.5 0.5) (layers F.Cu F.Paste F.Mask))
  (pad N4 smd circle (at -13.5 -4.5) (size 0.5 0.5) (layers F.Cu F.Paste F.Mask))
  (pad P4 smd circle (at -13.5 -3.5) (size 0.5 0.5) (layers F.Cu F.Paste F.Mask))
  (pad R4 smd circle (at -13.5 -2.5) (size 0.5 0.5) (layers F.Cu F.Paste F.Mask))
  (pad R3 smd circle (at -14.5 -2.5) (size 0.5 0.5) (layers F.Cu F.Paste F.Mask))
  (pad P3 smd circle (at -14.5 -3.5) (size 0.5 0.5) (layers F.Cu F.Paste F.Mask))
  (pad N3 smd circle (at -14.5 -4.5) (size 0.5 0.5) (layers F.Cu F.Paste F.Mask))
  (pad N2 smd circle (at -15.5 -4.5) (size 0.5 0.5) (layers F.Cu F.Paste F.Mask))
  (pad P2 smd circle (at -15.5 -3.5) (size 0.5 0.5) (layers F.Cu F.Paste F.Mask))
  (pad R2 smd circle (at -15.5 -2.5) (size 0.5 0.5) (layers F.Cu F.Paste F.Mask))
  (pad N1 smd circle (at -16.5 -4.5) (size 0.5 0.5) (layers F.Cu F.Paste F.Mask))
  (pad P1 smd circle (at -16.5 -3.5) (size 0.5 0.5) (layers F.Cu F.Paste F.Mask))
  (pad R1 smd circle (at -16.5 -2.5) (size 0.5 0.5) (layers F.Cu F.Paste F.Mask))
  (pad T1 smd circle (at -16.5 -1.5) (size 0.5 0.5) (layers F.Cu F.Paste F.Mask))
  (pad T2 smd circle (at -15.5 -1.5) (size 0.5 0.5) (layers F.Cu F.Paste F.Mask))
  (pad T3 smd circle (at -14.5 -1.5) (size 0.5 0.5) (layers F.Cu F.Paste F.Mask))
  (pad T4 smd circle (at -13.5 -1.5) (size 0.5 0.5) (layers F.Cu F.Paste F.Mask))
  (pad E8 smd circle (at -9.5 -12.5) (size 0.5 0.5) (layers F.Cu F.Paste F.Mask))
  (pad E7 smd circle (at -10.5 -12.5) (size 0.5 0.5) (layers F.Cu F.Paste F.Mask))
  (pad E6 smd circle (at -11.5 -12.5) (size 0.5 0.5) (layers F.Cu F.Paste F.Mask))
  (pad E5 smd circle (at -12.5 -12.5) (size 0.5 0.5) (layers F.Cu F.Paste F.Mask))
  (pad F5 smd circle (at -12.5 -11.5) (size 0.5 0.5) (layers F.Cu F.Paste F.Mask))
  (pad F6 smd circle (at -11.5 -11.5) (size 0.5 0.5) (layers F.Cu F.Paste F.Mask))
  (pad F7 smd circle (at -10.5 -11.5) (size 0.5 0.5) (layers F.Cu F.Paste F.Mask))
  (pad F8 smd circle (at -9.5 -11.5) (size 0.5 0.5) (layers F.Cu F.Paste F.Mask))
  (pad G5 smd circle (at -12.5 -10.5) (size 0.5 0.5) (layers F.Cu F.Paste F.Mask))
  (pad G6 smd circle (at -11.5 -10.5) (size 0.5 0.5) (layers F.Cu F.Paste F.Mask))
  (pad G7 smd circle (at -10.5 -10.5) (size 0.5 0.5) (layers F.Cu F.Paste F.Mask))
  (pad H5 smd circle (at -12.5 -9.5) (size 0.5 0.5) (layers F.Cu F.Paste F.Mask))
  (pad H6 smd circle (at -11.5 -9.5) (size 0.5 0.5) (layers F.Cu F.Paste F.Mask))
  (pad J5 smd circle (at -12.5 -8.5) (size 0.5 0.5) (layers F.Cu F.Paste F.Mask))
  (pad J6 smd circle (at -11.5 -8.5) (size 0.5 0.5) (layers F.Cu F.Paste F.Mask))
  (pad K5 smd circle (at -12.5 -7.5) (size 0.5 0.5) (layers F.Cu F.Paste F.Mask))
  (pad K6 smd circle (at -11.5 -7.5) (size 0.5 0.5) (layers F.Cu F.Paste F.Mask))
  (pad L5 smd circle (at -12.5 -6.5) (size 0.5 0.5) (layers F.Cu F.Paste F.Mask))
  (pad L6 smd circle (at -11.5 -6.5) (size 0.5 0.5) (layers F.Cu F.Paste F.Mask))
  (pad M5 smd circle (at -12.5 -5.5) (size 0.5 0.5) (layers F.Cu F.Paste F.Mask))
  (pad M6 smd circle (at -11.5 -5.5) (size 0.5 0.5) (layers F.Cu F.Paste F.Mask))
  (pad P5 smd circle (at -12.5 -3.5) (size 0.5 0.5) (layers F.Cu F.Paste F.Mask))
  (pad P6 smd circle (at -11.5 -3.5) (size 0.5 0.5) (layers F.Cu F.Paste F.Mask))
  (pad R5 smd circle (at -12.5 -2.5) (size 0.5 0.5) (layers F.Cu F.Paste F.Mask))
  (pad R6 smd circle (at -11.5 -2.5) (size 0.5 0.5) (layers F.Cu F.Paste F.Mask))
  (pad T5 smd circle (at -12.5 -1.5) (size 0.5 0.5) (layers F.Cu F.Paste F.Mask))
  (pad T6 smd circle (at -11.5 -1.5) (size 0.5 0.5) (layers F.Cu F.Paste F.Mask))
  (pad N5 smd circle (at -12.5 -4.5) (size 0.5 0.5) (layers F.Cu F.Paste F.Mask))
  (pad N6 smd circle (at -11.5 -4.5) (size 0.5 0.5) (layers F.Cu F.Paste F.Mask))
  (pad R7 smd circle (at -10.5 -2.5) (size 0.5 0.5) (layers F.Cu F.Paste F.Mask))
  (pad R8 smd circle (at -9.5 -2.5) (size 0.5 0.5) (layers F.Cu F.Paste F.Mask))
  (pad R9 smd circle (at -8.5 -2.5) (size 0.5 0.5) (layers F.Cu F.Paste F.Mask))
  (pad R10 smd circle (at -7.5 -2.5) (size 0.5 0.5) (layers F.Cu F.Paste F.Mask))
  (pad R11 smd circle (at -6.5 -2.5) (size 0.5 0.5) (layers F.Cu F.Paste F.Mask))
  (pad T7 smd circle (at -10.5 -1.5) (size 0.5 0.5) (layers F.Cu F.Paste F.Mask))
  (pad T8 smd circle (at -9.5 -1.5) (size 0.5 0.5) (layers F.Cu F.Paste F.Mask))
  (pad T9 smd circle (at -8.5 -1.5) (size 0.5 0.5) (layers F.Cu F.Paste F.Mask))
  (pad T10 smd circle (at -7.5 -1.5) (size 0.5 0.5) (layers F.Cu F.Paste F.Mask))
  (pad T11 smd circle (at -6.5 -1.5) (size 0.5 0.5) (layers F.Cu F.Paste F.Mask))
  (pad E9 smd circle (at -8.5 -12.5) (size 0.5 0.5) (layers F.Cu F.Paste F.Mask))
  (pad E10 smd circle (at -7.5 -12.5) (size 0.5 0.5) (layers F.Cu F.Paste F.Mask))
  (pad E11 smd circle (at -6.5 -12.5) (size 0.5 0.5) (layers F.Cu F.Paste F.Mask))
  (pad E12 smd circle (at -5.5 -12.5) (size 0.5 0.5) (layers F.Cu F.Paste F.Mask))
  (pad F9 smd circle (at -8.5 -11.5) (size 0.5 0.5) (layers F.Cu F.Paste F.Mask))
  (pad F10 smd circle (at -7.5 -11.5) (size 0.5 0.5) (layers F.Cu F.Paste F.Mask))
  (pad F11 smd circle (at -6.5 -11.5) (size 0.5 0.5) (layers F.Cu F.Paste F.Mask))
  (pad F12 smd circle (at -5.5 -11.5) (size 0.5 0.5) (layers F.Cu F.Paste F.Mask))
  (pad R12 smd circle (at -5.5 -2.5) (size 0.5 0.5) (layers F.Cu F.Paste F.Mask))
  (pad T12 smd circle (at -5.5 -1.5) (size 0.5 0.5) (layers F.Cu F.Paste F.Mask))
  (pad R13 smd circle (at -4.5 -2.5) (size 0.5 0.5) (layers F.Cu F.Paste F.Mask))
  (pad T13 smd circle (at -4.5 -1.5) (size 0.5 0.5) (layers F.Cu F.Paste F.Mask))
  (pad T14 smd circle (at -3.5 -1.5) (size 0.5 0.5) (layers F.Cu F.Paste F.Mask))
  (pad R14 smd circle (at -3.5 -2.5) (size 0.5 0.5) (layers F.Cu F.Paste F.Mask))
  (pad H15 smd circle (at -2.5 -9.5) (size 0.5 0.5) (layers F.Cu F.Paste F.Mask))
  (pad J15 smd circle (at -2.5 -8.5) (size 0.5 0.5) (layers F.Cu F.Paste F.Mask))
  (pad K15 smd circle (at -2.5 -7.5) (size 0.5 0.5) (layers F.Cu F.Paste F.Mask))
  (pad L15 smd circle (at -2.5 -6.5) (size 0.5 0.5) (layers F.Cu F.Paste F.Mask))
  (pad M15 smd circle (at -2.5 -5.5) (size 0.5 0.5) (layers F.Cu F.Paste F.Mask))
  (pad N15 smd circle (at -2.5 -4.5) (size 0.5 0.5) (layers F.Cu F.Paste F.Mask))
  (pad P15 smd circle (at -2.5 -3.5) (size 0.5 0.5) (layers F.Cu F.Paste F.Mask))
  (pad R15 smd circle (at -2.5 -2.5) (size 0.5 0.5) (layers F.Cu F.Paste F.Mask))
  (pad T15 smd circle (at -2.5 -1.5) (size 0.5 0.5) (layers F.Cu F.Paste F.Mask))
  (pad T16 smd circle (at -1.5 -1.5) (size 0.5 0.5) (layers F.Cu F.Paste F.Mask))
  (pad R16 smd circle (at -1.5 -2.5) (size 0.5 0.5) (layers F.Cu F.Paste F.Mask))
  (pad P16 smd circle (at -1.5 -3.5) (size 0.5 0.5) (layers F.Cu F.Paste F.Mask))
  (pad N16 smd circle (at -1.5 -4.5) (size 0.5 0.5) (layers F.Cu F.Paste F.Mask))
  (pad M16 smd circle (at -1.5 -5.5) (size 0.5 0.5) (layers F.Cu F.Paste F.Mask))
  (pad L16 smd circle (at -1.5 -6.5) (size 0.5 0.5) (layers F.Cu F.Paste F.Mask))
  (pad K16 smd circle (at -1.5 -7.5) (size 0.5 0.5) (layers F.Cu F.Paste F.Mask))
  (pad J16 smd circle (at -1.5 -8.5) (size 0.5 0.5) (layers F.Cu F.Paste F.Mask))
  (pad H16 smd circle (at -1.5 -9.5) (size 0.5 0.5) (layers F.Cu F.Paste F.Mask))
  (pad A17 smd circle (at -0.5 -16.5) (size 0.5 0.5) (layers F.Cu F.Paste F.Mask))
  (pad A18 smd circle (at 0.5 -16.5) (size 0.5 0.5) (layers F.Cu F.Paste F.Mask))
  (pad A19 smd circle (at 1.5 -16.5) (size 0.5 0.5) (layers F.Cu F.Paste F.Mask))
  (pad A20 smd circle (at 2.5 -16.5) (size 0.5 0.5) (layers F.Cu F.Paste F.Mask))
  (pad B17 smd circle (at -0.5 -15.5) (size 0.5 0.5) (layers F.Cu F.Paste F.Mask))
  (pad B18 smd circle (at 0.5 -15.5) (size 0.5 0.5) (layers F.Cu F.Paste F.Mask))
  (pad B19 smd circle (at 1.5 -15.5) (size 0.5 0.5) (layers F.Cu F.Paste F.Mask))
  (pad B20 smd circle (at 2.5 -15.5) (size 0.5 0.5) (layers F.Cu F.Paste F.Mask))
  (pad C17 smd circle (at -0.5 -14.5) (size 0.5 0.5) (layers F.Cu F.Paste F.Mask))
  (pad C18 smd circle (at 0.5 -14.5) (size 0.5 0.5) (layers F.Cu F.Paste F.Mask))
  (pad C19 smd circle (at 1.5 -14.5) (size 0.5 0.5) (layers F.Cu F.Paste F.Mask))
  (pad C20 smd circle (at 2.5 -14.5) (size 0.5 0.5) (layers F.Cu F.Paste F.Mask))
  (pad D17 smd circle (at -0.5 -13.5) (size 0.5 0.5) (layers F.Cu F.Paste F.Mask))
  (pad D18 smd circle (at 0.5 -13.5) (size 0.5 0.5) (layers F.Cu F.Paste F.Mask))
  (pad D19 smd circle (at 1.5 -13.5) (size 0.5 0.5) (layers F.Cu F.Paste F.Mask))
  (pad D20 smd circle (at 2.5 -13.5) (size 0.5 0.5) (layers F.Cu F.Paste F.Mask))
  (pad E17 smd circle (at -0.5 -12.5) (size 0.5 0.5) (layers F.Cu F.Paste F.Mask))
  (pad E18 smd circle (at 0.5 -12.5) (size 0.5 0.5) (layers F.Cu F.Paste F.Mask))
  (pad E19 smd circle (at 1.5 -12.5) (size 0.5 0.5) (layers F.Cu F.Paste F.Mask))
  (pad E20 smd circle (at 2.5 -12.5) (size 0.5 0.5) (layers F.Cu F.Paste F.Mask))
  (pad F17 smd circle (at -0.5 -11.5) (size 0.5 0.5) (layers F.Cu F.Paste F.Mask))
  (pad F18 smd circle (at 0.5 -11.5) (size 0.5 0.5) (layers F.Cu F.Paste F.Mask))
  (pad F19 smd circle (at 1.5 -11.5) (size 0.5 0.5) (layers F.Cu F.Paste F.Mask))
  (pad F20 smd circle (at 2.5 -11.5) (size 0.5 0.5) (layers F.Cu F.Paste F.Mask))
  (pad G17 smd circle (at -0.5 -10.5) (size 0.5 0.5) (layers F.Cu F.Paste F.Mask))
  (pad G18 smd circle (at 0.5 -10.5) (size 0.5 0.5) (layers F.Cu F.Paste F.Mask))
  (pad G19 smd circle (at 1.5 -10.5) (size 0.5 0.5) (layers F.Cu F.Paste F.Mask))
  (pad G20 smd circle (at 2.5 -10.5) (size 0.5 0.5) (layers F.Cu F.Paste F.Mask))
  (pad H17 smd circle (at -0.5 -9.5) (size 0.5 0.5) (layers F.Cu F.Paste F.Mask))
  (pad H18 smd circle (at 0.5 -9.5) (size 0.5 0.5) (layers F.Cu F.Paste F.Mask))
  (pad H19 smd circle (at 1.5 -9.5) (size 0.5 0.5) (layers F.Cu F.Paste F.Mask))
  (pad H20 smd circle (at 2.5 -9.5) (size 0.5 0.5) (layers F.Cu F.Paste F.Mask))
  (pad J17 smd circle (at -0.5 -8.5) (size 0.5 0.5) (layers F.Cu F.Paste F.Mask))
  (pad J18 smd circle (at 0.5 -8.5) (size 0.5 0.5) (layers F.Cu F.Paste F.Mask))
  (pad J19 smd circle (at 1.5 -8.5) (size 0.5 0.5) (layers F.Cu F.Paste F.Mask))
  (pad J20 smd circle (at 2.5 -8.5) (size 0.5 0.5) (layers F.Cu F.Paste F.Mask))
  (pad K17 smd circle (at -0.5 -7.5) (size 0.5 0.5) (layers F.Cu F.Paste F.Mask))
  (pad K18 smd circle (at 0.5 -7.5) (size 0.5 0.5) (layers F.Cu F.Paste F.Mask))
  (pad K19 smd circle (at 1.5 -7.5) (size 0.5 0.5) (layers F.Cu F.Paste F.Mask))
  (pad K20 smd circle (at 2.5 -7.5) (size 0.5 0.5) (layers F.Cu F.Paste F.Mask))
  (pad L17 smd circle (at -0.5 -6.5) (size 0.5 0.5) (layers F.Cu F.Paste F.Mask))
  (pad L18 smd circle (at 0.5 -6.5) (size 0.5 0.5) (layers F.Cu F.Paste F.Mask))
  (pad L19 smd circle (at 1.5 -6.5) (size 0.5 0.5) (layers F.Cu F.Paste F.Mask))
  (pad L20 smd circle (at 2.5 -6.5) (size 0.5 0.5) (layers F.Cu F.Paste F.Mask))
  (pad M17 smd circle (at -0.5 -5.5) (size 0.5 0.5) (layers F.Cu F.Paste F.Mask))
  (pad M18 smd circle (at 0.5 -5.5) (size 0.5 0.5) (layers F.Cu F.Paste F.Mask))
  (pad M19 smd circle (at 1.5 -5.5) (size 0.5 0.5) (layers F.Cu F.Paste F.Mask))
  (pad M20 smd circle (at 2.5 -5.5) (size 0.5 0.5) (layers F.Cu F.Paste F.Mask))
  (pad N17 smd circle (at -0.5 -4.5) (size 0.5 0.5) (layers F.Cu F.Paste F.Mask))
  (pad N18 smd circle (at 0.5 -4.5) (size 0.5 0.5) (layers F.Cu F.Paste F.Mask))
  (pad N19 smd circle (at 1.5 -4.5) (size 0.5 0.5) (layers F.Cu F.Paste F.Mask))
  (pad N20 smd circle (at 2.5 -4.5) (size 0.5 0.5) (layers F.Cu F.Paste F.Mask))
  (pad P17 smd circle (at -0.5 -3.5) (size 0.5 0.5) (layers F.Cu F.Paste F.Mask))
  (pad P18 smd circle (at 0.5 -3.5) (size 0.5 0.5) (layers F.Cu F.Paste F.Mask))
  (pad P19 smd circle (at 1.5 -3.5) (size 0.5 0.5) (layers F.Cu F.Paste F.Mask))
  (pad P20 smd circle (at 2.5 -3.5) (size 0.5 0.5) (layers F.Cu F.Paste F.Mask))
  (pad R17 smd circle (at -0.5 -2.5) (size 0.5 0.5) (layers F.Cu F.Paste F.Mask))
  (pad R18 smd circle (at 0.5 -2.5) (size 0.5 0.5) (layers F.Cu F.Paste F.Mask))
  (pad R19 smd circle (at 1.5 -2.5) (size 0.5 0.5) (layers F.Cu F.Paste F.Mask))
  (pad R20 smd circle (at 2.5 -2.5) (size 0.5 0.5) (layers F.Cu F.Paste F.Mask))
  (pad T17 smd circle (at -0.5 -1.5) (size 0.5 0.5) (layers F.Cu F.Paste F.Mask))
  (pad T18 smd circle (at 0.5 -1.5) (size 0.5 0.5) (layers F.Cu F.Paste F.Mask))
  (pad T19 smd circle (at 1.5 -1.5) (size 0.5 0.5) (layers F.Cu F.Paste F.Mask))
  (pad T20 smd circle (at 2.5 -1.5) (size 0.5 0.5) (layers F.Cu F.Paste F.Mask))
  (pad U1 smd circle (at -16.5 -0.5) (size 0.5 0.5) (layers F.Cu F.Paste F.Mask))
  (pad V1 smd circle (at -16.5 0.5) (size 0.5 0.5) (layers F.Cu F.Paste F.Mask))
  (pad W1 smd circle (at -16.5 1.5) (size 0.5 0.5) (layers F.Cu F.Paste F.Mask))
  (pad Y1 smd circle (at -16.5 2.5) (size 0.5 0.5) (layers F.Cu F.Paste F.Mask))
  (pad Y2 smd circle (at -15.5 2.5) (size 0.5 0.5) (layers F.Cu F.Paste F.Mask))
  (pad Y3 smd circle (at -14.5 2.5) (size 0.5 0.5) (layers F.Cu F.Paste F.Mask))
  (pad Y4 smd circle (at -13.5 2.5) (size 0.5 0.5) (layers F.Cu F.Paste F.Mask))
  (pad Y5 smd circle (at -12.5 2.5) (size 0.5 0.5) (layers F.Cu F.Paste F.Mask))
  (pad Y6 smd circle (at -11.5 2.5) (size 0.5 0.5) (layers F.Cu F.Paste F.Mask))
  (pad Y7 smd circle (at -10.5 2.5) (size 0.5 0.5) (layers F.Cu F.Paste F.Mask))
  (pad Y8 smd circle (at -9.5 2.5) (size 0.5 0.5) (layers F.Cu F.Paste F.Mask))
  (pad Y9 smd circle (at -8.5 2.5) (size 0.5 0.5) (layers F.Cu F.Paste F.Mask))
  (pad Y10 smd circle (at -7.5 2.5) (size 0.5 0.5) (layers F.Cu F.Paste F.Mask))
  (pad Y11 smd circle (at -6.5 2.5) (size 0.5 0.5) (layers F.Cu F.Paste F.Mask))
  (pad Y12 smd circle (at -5.5 2.5) (size 0.5 0.5) (layers F.Cu F.Paste F.Mask))
  (pad Y13 smd circle (at -4.5 2.5) (size 0.5 0.5) (layers F.Cu F.Paste F.Mask))
  (pad Y14 smd circle (at -3.5 2.5) (size 0.5 0.5) (layers F.Cu F.Paste F.Mask))
  (pad Y15 smd circle (at -2.5 2.5) (size 0.5 0.5) (layers F.Cu F.Paste F.Mask))
  (pad Y16 smd circle (at -1.5 2.5) (size 0.5 0.5) (layers F.Cu F.Paste F.Mask))
  (pad Y17 smd circle (at -0.5 2.5) (size 0.5 0.5) (layers F.Cu F.Paste F.Mask))
  (pad Y18 smd circle (at 0.5 2.5) (size 0.5 0.5) (layers F.Cu F.Paste F.Mask))
  (pad Y19 smd circle (at 1.5 2.5) (size 0.5 0.5) (layers F.Cu F.Paste F.Mask))
  (pad Y20 smd circle (at 2.5 2.5) (size 0.5 0.5) (layers F.Cu F.Paste F.Mask))
  (pad W2 smd circle (at -15.5 1.5) (size 0.5 0.5) (layers F.Cu F.Paste F.Mask))
  (pad W3 smd circle (at -14.5 1.5) (size 0.5 0.5) (layers F.Cu F.Paste F.Mask))
  (pad W4 smd circle (at -13.5 1.5) (size 0.5 0.5) (layers F.Cu F.Paste F.Mask))
  (pad W5 smd circle (at -12.5 1.5) (size 0.5 0.5) (layers F.Cu F.Paste F.Mask))
  (pad W6 smd circle (at -11.5 1.5) (size 0.5 0.5) (layers F.Cu F.Paste F.Mask))
  (pad W7 smd circle (at -10.5 1.5) (size 0.5 0.5) (layers F.Cu F.Paste F.Mask))
  (pad W8 smd circle (at -9.5 1.5) (size 0.5 0.5) (layers F.Cu F.Paste F.Mask))
  (pad W9 smd circle (at -8.5 1.5) (size 0.5 0.5) (layers F.Cu F.Paste F.Mask))
  (pad W10 smd circle (at -7.5 1.5) (size 0.5 0.5) (layers F.Cu F.Paste F.Mask))
  (pad W11 smd circle (at -6.5 1.5) (size 0.5 0.5) (layers F.Cu F.Paste F.Mask))
  (pad W12 smd circle (at -5.5 1.5) (size 0.5 0.5) (layers F.Cu F.Paste F.Mask))
  (pad W13 smd circle (at -4.5 1.5) (size 0.5 0.5) (layers F.Cu F.Paste F.Mask))
  (pad W14 smd circle (at -3.5 1.5) (size 0.5 0.5) (layers F.Cu F.Paste F.Mask))
  (pad W15 smd circle (at -2.5 1.5) (size 0.5 0.5) (layers F.Cu F.Paste F.Mask))
  (pad W16 smd circle (at -1.5 1.5) (size 0.5 0.5) (layers F.Cu F.Paste F.Mask))
  (pad W17 smd circle (at -0.5 1.5) (size 0.5 0.5) (layers F.Cu F.Paste F.Mask))
  (pad W18 smd circle (at 0.5 1.5) (size 0.5 0.5) (layers F.Cu F.Paste F.Mask))
  (pad W19 smd circle (at 1.5 1.5) (size 0.5 0.5) (layers F.Cu F.Paste F.Mask))
  (pad W20 smd circle (at 2.5 1.5) (size 0.5 0.5) (layers F.Cu F.Paste F.Mask))
  (pad V2 smd circle (at -15.5 0.5) (size 0.5 0.5) (layers F.Cu F.Paste F.Mask))
  (pad V3 smd circle (at -14.5 0.5) (size 0.5 0.5) (layers F.Cu F.Paste F.Mask))
  (pad V4 smd circle (at -13.5 0.5) (size 0.5 0.5) (layers F.Cu F.Paste F.Mask))
  (pad V5 smd circle (at -12.5 0.5) (size 0.5 0.5) (layers F.Cu F.Paste F.Mask))
  (pad V6 smd circle (at -11.5 0.5) (size 0.5 0.5) (layers F.Cu F.Paste F.Mask))
  (pad V7 smd circle (at -10.5 0.5) (size 0.5 0.5) (layers F.Cu F.Paste F.Mask))
  (pad V8 smd circle (at -9.5 0.5) (size 0.5 0.5) (layers F.Cu F.Paste F.Mask))
  (pad V9 smd circle (at -8.5 0.5) (size 0.5 0.5) (layers F.Cu F.Paste F.Mask))
  (pad V10 smd circle (at -7.5 0.5) (size 0.5 0.5) (layers F.Cu F.Paste F.Mask))
  (pad V11 smd circle (at -6.5 0.5) (size 0.5 0.5) (layers F.Cu F.Paste F.Mask))
  (pad V12 smd circle (at -5.5 0.5) (size 0.5 0.5) (layers F.Cu F.Paste F.Mask))
  (pad V13 smd circle (at -4.5 0.5) (size 0.5 0.5) (layers F.Cu F.Paste F.Mask))
  (pad V14 smd circle (at -3.5 0.5) (size 0.5 0.5) (layers F.Cu F.Paste F.Mask))
  (pad V15 smd circle (at -2.5 0.5) (size 0.5 0.5) (layers F.Cu F.Paste F.Mask))
  (pad V16 smd circle (at -1.5 0.5) (size 0.5 0.5) (layers F.Cu F.Paste F.Mask))
  (pad V17 smd circle (at -0.5 0.5) (size 0.5 0.5) (layers F.Cu F.Paste F.Mask))
  (pad V18 smd circle (at 0.5 0.5) (size 0.5 0.5) (layers F.Cu F.Paste F.Mask))
  (pad V19 smd circle (at 1.5 0.5) (size 0.5 0.5) (layers F.Cu F.Paste F.Mask))
  (pad V20 smd circle (at 2.5 0.5) (size 0.5 0.5) (layers F.Cu F.Paste F.Mask))
  (pad U2 smd circle (at -15.5 -0.5) (size 0.5 0.5) (layers F.Cu F.Paste F.Mask))
  (pad U3 smd circle (at -14.5 -0.5) (size 0.5 0.5) (layers F.Cu F.Paste F.Mask))
  (pad U4 smd circle (at -13.5 -0.5) (size 0.5 0.5) (layers F.Cu F.Paste F.Mask))
  (pad U5 smd circle (at -12.5 -0.5) (size 0.5 0.5) (layers F.Cu F.Paste F.Mask))
  (pad U6 smd circle (at -11.5 -0.5) (size 0.5 0.5) (layers F.Cu F.Paste F.Mask))
  (pad U7 smd circle (at -10.5 -0.5) (size 0.5 0.5) (layers F.Cu F.Paste F.Mask))
  (pad U8 smd circle (at -9.5 -0.5) (size 0.5 0.5) (layers F.Cu F.Paste F.Mask))
  (pad U9 smd circle (at -8.5 -0.5) (size 0.5 0.5) (layers F.Cu F.Paste F.Mask))
  (pad U10 smd circle (at -7.5 -0.5) (size 0.5 0.5) (layers F.Cu F.Paste F.Mask))
  (pad U11 smd circle (at -6.5 -0.5) (size 0.5 0.5) (layers F.Cu F.Paste F.Mask))
  (pad U12 smd circle (at -5.5 -0.5) (size 0.5 0.5) (layers F.Cu F.Paste F.Mask))
  (pad U13 smd circle (at -4.5 -0.5) (size 0.5 0.5) (layers F.Cu F.Paste F.Mask))
  (pad U14 smd circle (at -3.5 -0.5) (size 0.5 0.5) (layers F.Cu F.Paste F.Mask))
  (pad U15 smd circle (at -2.5 -0.5) (size 0.5 0.5) (layers F.Cu F.Paste F.Mask))
  (pad U16 smd circle (at -1.5 -0.5) (size 0.5 0.5) (layers F.Cu F.Paste F.Mask))
  (pad U17 smd circle (at -0.5 -0.5) (size 0.5 0.5) (layers F.Cu F.Paste F.Mask))
  (pad U18 smd circle (at 0.5 -0.5) (size 0.5 0.5) (layers F.Cu F.Paste F.Mask))
  (pad U19 smd circle (at 1.5 -0.5) (size 0.5 0.5) (layers F.Cu F.Paste F.Mask))
  (pad U20 smd circle (at 2.5 -0.5) (size 0.5 0.5) (layers F.Cu F.Paste F.Mask))
  (pad AA1 smd circle (at -16.5 3.5) (size 0.5 0.5) (layers F.Cu F.Paste F.Mask))
  (pad AA2 smd circle (at -15.5 3.5) (size 0.5 0.5) (layers F.Cu F.Paste F.Mask))
  (pad AA3 smd circle (at -14.5 3.5) (size 0.5 0.5) (layers F.Cu F.Paste F.Mask))
  (pad AA4 smd circle (at -13.5 3.5) (size 0.5 0.5) (layers F.Cu F.Paste F.Mask))
  (pad AA5 smd circle (at -12.5 3.5) (size 0.5 0.5) (layers F.Cu F.Paste F.Mask))
  (pad AA6 smd circle (at -11.5 3.5) (size 0.5 0.5) (layers F.Cu F.Paste F.Mask))
  (pad AA7 smd circle (at -10.5 3.5) (size 0.5 0.5) (layers F.Cu F.Paste F.Mask))
  (pad AA8 smd circle (at -9.5 3.5) (size 0.5 0.5) (layers F.Cu F.Paste F.Mask))
  (pad AA9 smd circle (at -8.5 3.5) (size 0.5 0.5) (layers F.Cu F.Paste F.Mask))
  (pad AA10 smd circle (at -7.5 3.5) (size 0.5 0.5) (layers F.Cu F.Paste F.Mask))
  (pad AA11 smd circle (at -6.5 3.5) (size 0.5 0.5) (layers F.Cu F.Paste F.Mask))
  (pad AA12 smd circle (at -5.5 3.5) (size 0.5 0.5) (layers F.Cu F.Paste F.Mask))
  (pad AA13 smd circle (at -4.5 3.5) (size 0.5 0.5) (layers F.Cu F.Paste F.Mask))
  (pad AA14 smd circle (at -3.5 3.5) (size 0.5 0.5) (layers F.Cu F.Paste F.Mask))
  (pad AA15 smd circle (at -2.5 3.5) (size 0.5 0.5) (layers F.Cu F.Paste F.Mask))
  (pad AA16 smd circle (at -1.5 3.5) (size 0.5 0.5) (layers F.Cu F.Paste F.Mask))
  (pad AA17 smd circle (at -0.5 3.5) (size 0.5 0.5) (layers F.Cu F.Paste F.Mask))
  (pad AA18 smd circle (at 0.5 3.5) (size 0.5 0.5) (layers F.Cu F.Paste F.Mask))
  (pad AA19 smd circle (at 1.5 3.5) (size 0.5 0.5) (layers F.Cu F.Paste F.Mask))
  (pad AA20 smd circle (at 2.5 3.5) (size 0.5 0.5) (layers F.Cu F.Paste F.Mask))
  (pad AA21 smd circle (at 3.5 3.5) (size 0.5 0.5) (layers F.Cu F.Paste F.Mask))
  (pad AA22 smd circle (at 4.5 3.5) (size 0.5 0.5) (layers F.Cu F.Paste F.Mask))
  (pad AB1 smd circle (at -16.5 4.5) (size 0.5 0.5) (layers F.Cu F.Paste F.Mask))
  (pad AB2 smd circle (at -15.5 4.5) (size 0.5 0.5) (layers F.Cu F.Paste F.Mask))
  (pad AB3 smd circle (at -14.5 4.5) (size 0.5 0.5) (layers F.Cu F.Paste F.Mask))
  (pad AB4 smd circle (at -13.5 4.5) (size 0.5 0.5) (layers F.Cu F.Paste F.Mask))
  (pad AB5 smd circle (at -12.5 4.5) (size 0.5 0.5) (layers F.Cu F.Paste F.Mask))
  (pad AB6 smd circle (at -11.5 4.5) (size 0.5 0.5) (layers F.Cu F.Paste F.Mask))
  (pad AB7 smd circle (at -10.5 4.5) (size 0.5 0.5) (layers F.Cu F.Paste F.Mask))
  (pad AB8 smd circle (at -9.5 4.5) (size 0.5 0.5) (layers F.Cu F.Paste F.Mask))
  (pad AB9 smd circle (at -8.5 4.5) (size 0.5 0.5) (layers F.Cu F.Paste F.Mask))
  (pad AB10 smd circle (at -7.5 4.5) (size 0.5 0.5) (layers F.Cu F.Paste F.Mask))
  (pad AB11 smd circle (at -6.5 4.5) (size 0.5 0.5) (layers F.Cu F.Paste F.Mask))
  (pad AB12 smd circle (at -5.5 4.5) (size 0.5 0.5) (layers F.Cu F.Paste F.Mask))
  (pad AB13 smd circle (at -4.5 4.5) (size 0.5 0.5) (layers F.Cu F.Paste F.Mask))
  (pad AB14 smd circle (at -3.5 4.5) (size 0.5 0.5) (layers F.Cu F.Paste F.Mask))
  (pad AB15 smd circle (at -2.5 4.5) (size 0.5 0.5) (layers F.Cu F.Paste F.Mask))
  (pad AB16 smd circle (at -1.5 4.5) (size 0.5 0.5) (layers F.Cu F.Paste F.Mask))
  (pad AB17 smd circle (at -0.5 4.5) (size 0.5 0.5) (layers F.Cu F.Paste F.Mask))
  (pad AB18 smd circle (at 0.5 4.5) (size 0.5 0.5) (layers F.Cu F.Paste F.Mask))
  (pad AB19 smd circle (at 1.5 4.5) (size 0.5 0.5) (layers F.Cu F.Paste F.Mask))
  (pad AB20 smd circle (at 2.5 4.5) (size 0.5 0.5) (layers F.Cu F.Paste F.Mask))
  (pad AB21 smd circle (at 3.5 4.5) (size 0.5 0.5) (layers F.Cu F.Paste F.Mask))
  (pad AB22 smd circle (at 4.5 4.5) (size 0.5 0.5) (layers F.Cu F.Paste F.Mask))
  (pad P7 smd circle (at -10.5 -3.5) (size 0.5 0.5) (layers F.Cu F.Paste F.Mask))
  (pad P8 smd circle (at -9.5 -3.5) (size 0.5 0.5) (layers F.Cu F.Paste F.Mask))
  (pad P9 smd circle (at -8.5 -3.5) (size 0.5 0.5) (layers F.Cu F.Paste F.Mask))
  (pad P10 smd circle (at -7.5 -3.5) (size 0.5 0.5) (layers F.Cu F.Paste F.Mask))
  (pad P11 smd circle (at -6.5 -3.5) (size 0.5 0.5) (layers F.Cu F.Paste F.Mask))
  (pad P12 smd circle (at -5.5 -3.5) (size 0.5 0.5) (layers F.Cu F.Paste F.Mask))
  (pad P13 smd circle (at -4.5 -3.5) (size 0.5 0.5) (layers F.Cu F.Paste F.Mask))
  (pad P14 smd circle (at -3.5 -3.5) (size 0.5 0.5) (layers F.Cu F.Paste F.Mask))
  (pad N7 smd circle (at -10.5 -4.5) (size 0.5 0.5) (layers F.Cu F.Paste F.Mask))
  (pad N8 smd circle (at -9.5 -4.5) (size 0.5 0.5) (layers F.Cu F.Paste F.Mask))
  (pad N9 smd circle (at -8.5 -4.5) (size 0.5 0.5) (layers F.Cu F.Paste F.Mask))
  (pad N10 smd circle (at -7.5 -4.5) (size 0.5 0.5) (layers F.Cu F.Paste F.Mask))
  (pad N11 smd circle (at -6.5 -4.5) (size 0.5 0.5) (layers F.Cu F.Paste F.Mask))
  (pad N12 smd circle (at -5.5 -4.5) (size 0.5 0.5) (layers F.Cu F.Paste F.Mask))
  (pad N13 smd circle (at -4.5 -4.5) (size 0.5 0.5) (layers F.Cu F.Paste F.Mask))
  (pad N14 smd circle (at -3.5 -4.5) (size 0.5 0.5) (layers F.Cu F.Paste F.Mask))
  (pad M7 smd circle (at -10.5 -5.5) (size 0.5 0.5) (layers F.Cu F.Paste F.Mask))
  (pad M8 smd circle (at -9.5 -5.5) (size 0.5 0.5) (layers F.Cu F.Paste F.Mask))
  (pad M9 smd circle (at -8.5 -5.5) (size 0.5 0.5) (layers F.Cu F.Paste F.Mask))
  (pad M10 smd circle (at -7.5 -5.5) (size 0.5 0.5) (layers F.Cu F.Paste F.Mask))
  (pad M11 smd circle (at -6.5 -5.5) (size 0.5 0.5) (layers F.Cu F.Paste F.Mask))
  (pad M12 smd circle (at -5.5 -5.5) (size 0.5 0.5) (layers F.Cu F.Paste F.Mask))
  (pad M13 smd circle (at -4.5 -5.5) (size 0.5 0.5) (layers F.Cu F.Paste F.Mask))
  (pad M14 smd circle (at -3.5 -5.5) (size 0.5 0.5) (layers F.Cu F.Paste F.Mask))
  (pad L7 smd circle (at -10.5 -6.5) (size 0.5 0.5) (layers F.Cu F.Paste F.Mask))
  (pad L8 smd circle (at -9.5 -6.5) (size 0.5 0.5) (layers F.Cu F.Paste F.Mask))
  (pad L9 smd circle (at -8.5 -6.5) (size 0.5 0.5) (layers F.Cu F.Paste F.Mask))
  (pad L10 smd circle (at -7.5 -6.5) (size 0.5 0.5) (layers F.Cu F.Paste F.Mask))
  (pad L11 smd circle (at -6.5 -6.5) (size 0.5 0.5) (layers F.Cu F.Paste F.Mask))
  (pad L12 smd circle (at -5.5 -6.5) (size 0.5 0.5) (layers F.Cu F.Paste F.Mask))
  (pad L13 smd circle (at -4.5 -6.5) (size 0.5 0.5) (layers F.Cu F.Paste F.Mask))
  (pad L14 smd circle (at -3.5 -6.5) (size 0.5 0.5) (layers F.Cu F.Paste F.Mask))
  (pad K7 smd circle (at -10.5 -7.5) (size 0.5 0.5) (layers F.Cu F.Paste F.Mask))
  (pad K8 smd circle (at -9.5 -7.5) (size 0.5 0.5) (layers F.Cu F.Paste F.Mask))
  (pad K9 smd circle (at -8.5 -7.5) (size 0.5 0.5) (layers F.Cu F.Paste F.Mask))
  (pad K10 smd circle (at -7.5 -7.5) (size 0.5 0.5) (layers F.Cu F.Paste F.Mask))
  (pad K11 smd circle (at -6.5 -7.5) (size 0.5 0.5) (layers F.Cu F.Paste F.Mask))
  (pad K12 smd circle (at -5.5 -7.5) (size 0.5 0.5) (layers F.Cu F.Paste F.Mask))
  (pad K13 smd circle (at -4.5 -7.5) (size 0.5 0.5) (layers F.Cu F.Paste F.Mask))
  (pad K14 smd circle (at -3.5 -7.5) (size 0.5 0.5) (layers F.Cu F.Paste F.Mask))
  (pad G8 smd circle (at -9.5 -10.5) (size 0.5 0.5) (layers F.Cu F.Paste F.Mask))
  (pad G9 smd circle (at -8.5 -10.5) (size 0.5 0.5) (layers F.Cu F.Paste F.Mask))
  (pad G10 smd circle (at -7.5 -10.5) (size 0.5 0.5) (layers F.Cu F.Paste F.Mask))
  (pad G11 smd circle (at -6.5 -10.5) (size 0.5 0.5) (layers F.Cu F.Paste F.Mask))
  (pad G12 smd circle (at -5.5 -10.5) (size 0.5 0.5) (layers F.Cu F.Paste F.Mask))
  (pad G13 smd circle (at -4.5 -10.5) (size 0.5 0.5) (layers F.Cu F.Paste F.Mask))
  (pad G14 smd circle (at -3.5 -10.5) (size 0.5 0.5) (layers F.Cu F.Paste F.Mask))
  (pad H7 smd circle (at -10.5 -9.5) (size 0.5 0.5) (layers F.Cu F.Paste F.Mask))
  (pad H8 smd circle (at -9.5 -9.5) (size 0.5 0.5) (layers F.Cu F.Paste F.Mask))
  (pad H9 smd circle (at -8.5 -9.5) (size 0.5 0.5) (layers F.Cu F.Paste F.Mask))
  (pad H10 smd circle (at -7.5 -9.5) (size 0.5 0.5) (layers F.Cu F.Paste F.Mask))
  (pad H11 smd circle (at -6.5 -9.5) (size 0.5 0.5) (layers F.Cu F.Paste F.Mask))
  (pad H12 smd circle (at -5.5 -9.5) (size 0.5 0.5) (layers F.Cu F.Paste F.Mask))
  (pad H13 smd circle (at -4.5 -9.5) (size 0.5 0.5) (layers F.Cu F.Paste F.Mask))
  (pad H14 smd circle (at -3.5 -9.5) (size 0.5 0.5) (layers F.Cu F.Paste F.Mask))
  (pad J7 smd circle (at -10.5 -8.5) (size 0.5 0.5) (layers F.Cu F.Paste F.Mask))
  (pad J8 smd circle (at -9.5 -8.5) (size 0.5 0.5) (layers F.Cu F.Paste F.Mask))
  (pad J9 smd circle (at -8.5 -8.5) (size 0.5 0.5) (layers F.Cu F.Paste F.Mask))
  (pad J10 smd circle (at -7.5 -8.5) (size 0.5 0.5) (layers F.Cu F.Paste F.Mask))
  (pad J11 smd circle (at -6.5 -8.5) (size 0.5 0.5) (layers F.Cu F.Paste F.Mask))
  (pad J12 smd circle (at -5.5 -8.5) (size 0.5 0.5) (layers F.Cu F.Paste F.Mask))
  (pad J13 smd circle (at -4.5 -8.5) (size 0.5 0.5) (layers F.Cu F.Paste F.Mask))
  (pad J14 smd circle (at -3.5 -8.5) (size 0.5 0.5) (layers F.Cu F.Paste F.Mask))
  (pad A21 smd circle (at 3.5 -16.5) (size 0.5 0.5) (layers F.Cu F.Paste F.Mask))
  (pad A22 smd circle (at 4.5 -16.5) (size 0.5 0.5) (layers F.Cu F.Paste F.Mask))
  (pad B21 smd circle (at 3.5 -15.5) (size 0.5 0.5) (layers F.Cu F.Paste F.Mask))
  (pad B22 smd circle (at 4.5 -15.5) (size 0.5 0.5) (layers F.Cu F.Paste F.Mask))
  (pad C21 smd circle (at 3.5 -14.5) (size 0.5 0.5) (layers F.Cu F.Paste F.Mask))
  (pad C22 smd circle (at 4.5 -14.5) (size 0.5 0.5) (layers F.Cu F.Paste F.Mask))
  (pad D21 smd circle (at 3.5 -13.5) (size 0.5 0.5) (layers F.Cu F.Paste F.Mask))
  (pad D22 smd circle (at 4.5 -13.5) (size 0.5 0.5) (layers F.Cu F.Paste F.Mask))
  (pad E21 smd circle (at 3.5 -12.5) (size 0.5 0.5) (layers F.Cu F.Paste F.Mask))
  (pad E22 smd circle (at 4.5 -12.5) (size 0.5 0.5) (layers F.Cu F.Paste F.Mask))
  (pad F21 smd circle (at 3.5 -11.5) (size 0.5 0.5) (layers F.Cu F.Paste F.Mask))
  (pad F22 smd circle (at 4.5 -11.5) (size 0.5 0.5) (layers F.Cu F.Paste F.Mask))
  (pad G21 smd circle (at 3.5 -10.5) (size 0.5 0.5) (layers F.Cu F.Paste F.Mask))
  (pad G22 smd circle (at 4.5 -10.5) (size 0.5 0.5) (layers F.Cu F.Paste F.Mask))
  (pad H21 smd circle (at 3.5 -9.5) (size 0.5 0.5) (layers F.Cu F.Paste F.Mask))
  (pad H22 smd circle (at 4.5 -9.5) (size 0.5 0.5) (layers F.Cu F.Paste F.Mask))
  (pad J21 smd circle (at 3.5 -8.5) (size 0.5 0.5) (layers F.Cu F.Paste F.Mask))
  (pad J22 smd circle (at 4.5 -8.5) (size 0.5 0.5) (layers F.Cu F.Paste F.Mask))
  (pad K21 smd circle (at 3.5 -7.5) (size 0.5 0.5) (layers F.Cu F.Paste F.Mask))
  (pad K22 smd circle (at 4.5 -7.5) (size 0.5 0.5) (layers F.Cu F.Paste F.Mask))
  (pad L21 smd circle (at 3.5 -6.5) (size 0.5 0.5) (layers F.Cu F.Paste F.Mask))
  (pad L22 smd circle (at 4.5 -6.5) (size 0.5 0.5) (layers F.Cu F.Paste F.Mask))
  (pad M21 smd circle (at 3.5 -5.5) (size 0.5 0.5) (layers F.Cu F.Paste F.Mask))
  (pad M22 smd circle (at 4.5 -5.5) (size 0.5 0.5) (layers F.Cu F.Paste F.Mask))
  (pad N21 smd circle (at 3.5 -4.5) (size 0.5 0.5) (layers F.Cu F.Paste F.Mask))
  (pad N22 smd circle (at 4.5 -4.5) (size 0.5 0.5) (layers F.Cu F.Paste F.Mask))
  (pad P21 smd circle (at 3.5 -3.5) (size 0.5 0.5) (layers F.Cu F.Paste F.Mask))
  (pad P22 smd circle (at 4.5 -3.5) (size 0.5 0.5) (layers F.Cu F.Paste F.Mask))
  (pad R21 smd circle (at 3.5 -2.5) (size 0.5 0.5) (layers F.Cu F.Paste F.Mask))
  (pad R22 smd circle (at 4.5 -2.5) (size 0.5 0.5) (layers F.Cu F.Paste F.Mask))
  (pad T21 smd circle (at 3.5 -1.5) (size 0.5 0.5) (layers F.Cu F.Paste F.Mask))
  (pad T22 smd circle (at 4.5 -1.5) (size 0.5 0.5) (layers F.Cu F.Paste F.Mask))
  (pad U21 smd circle (at 3.5 -0.5) (size 0.5 0.5) (layers F.Cu F.Paste F.Mask))
  (pad U22 smd circle (at 4.5 -0.5) (size 0.5 0.5) (layers F.Cu F.Paste F.Mask))
  (pad V21 smd circle (at 3.5 0.5) (size 0.5 0.5) (layers F.Cu F.Paste F.Mask))
  (pad V22 smd circle (at 4.5 0.5) (size 0.5 0.5) (layers F.Cu F.Paste F.Mask))
  (pad W21 smd circle (at 3.5 1.5) (size 0.5 0.5) (layers F.Cu F.Paste F.Mask))
  (pad W22 smd circle (at 4.5 1.5) (size 0.5 0.5) (layers F.Cu F.Paste F.Mask))
  (pad Y21 smd circle (at 3.5 2.5) (size 0.5 0.5) (layers F.Cu F.Paste F.Mask))
  (pad Y22 smd circle (at 4.5 2.5) (size 0.5 0.5) (layers F.Cu F.Paste F.Mask))
  (pad A23 smd circle (at 5.5 -16.5) (size 0.5 0.5) (layers F.Cu F.Paste F.Mask))
  (pad A24 smd circle (at 6.5 -16.5) (size 0.5 0.5) (layers F.Cu F.Paste F.Mask))
  (pad A25 smd circle (at 7.5 -16.5) (size 0.5 0.5) (layers F.Cu F.Paste F.Mask))
  (pad A26 smd circle (at 8.5 -16.5) (size 0.5 0.5) (layers F.Cu F.Paste F.Mask))
  (pad A27 smd circle (at 9.5 -16.5) (size 0.5 0.5) (layers F.Cu F.Paste F.Mask))
  (pad A28 smd circle (at 10.5 -16.5) (size 0.5 0.5) (layers F.Cu F.Paste F.Mask))
  (pad A29 smd circle (at 11.5 -16.5) (size 0.5 0.5) (layers F.Cu F.Paste F.Mask))
  (pad A30 smd circle (at 12.5 -16.5) (size 0.5 0.5) (layers F.Cu F.Paste F.Mask))
  (pad A31 smd circle (at 13.5 -16.5) (size 0.5 0.5) (layers F.Cu F.Paste F.Mask))
  (pad A32 smd circle (at 14.5 -16.5) (size 0.5 0.5) (layers F.Cu F.Paste F.Mask))
  (pad B23 smd circle (at 5.5 -15.5) (size 0.5 0.5) (layers F.Cu F.Paste F.Mask))
  (pad B24 smd circle (at 6.5 -15.5) (size 0.5 0.5) (layers F.Cu F.Paste F.Mask))
  (pad B25 smd circle (at 7.5 -15.5) (size 0.5 0.5) (layers F.Cu F.Paste F.Mask))
  (pad B26 smd circle (at 8.5 -15.5) (size 0.5 0.5) (layers F.Cu F.Paste F.Mask))
  (pad B27 smd circle (at 9.5 -15.5) (size 0.5 0.5) (layers F.Cu F.Paste F.Mask))
  (pad B28 smd circle (at 10.5 -15.5) (size 0.5 0.5) (layers F.Cu F.Paste F.Mask))
  (pad B29 smd circle (at 11.5 -15.5) (size 0.5 0.5) (layers F.Cu F.Paste F.Mask))
  (pad B30 smd circle (at 12.5 -15.5) (size 0.5 0.5) (layers F.Cu F.Paste F.Mask))
  (pad B31 smd circle (at 13.5 -15.5) (size 0.5 0.5) (layers F.Cu F.Paste F.Mask))
  (pad B32 smd circle (at 14.5 -15.5) (size 0.5 0.5) (layers F.Cu F.Paste F.Mask))
  (pad C23 smd circle (at 5.5 -14.5) (size 0.5 0.5) (layers F.Cu F.Paste F.Mask))
  (pad C24 smd circle (at 6.5 -14.5) (size 0.5 0.5) (layers F.Cu F.Paste F.Mask))
  (pad C25 smd circle (at 7.5 -14.5) (size 0.5 0.5) (layers F.Cu F.Paste F.Mask))
  (pad C26 smd circle (at 8.5 -14.5) (size 0.5 0.5) (layers F.Cu F.Paste F.Mask))
  (pad C27 smd circle (at 9.5 -14.5) (size 0.5 0.5) (layers F.Cu F.Paste F.Mask))
  (pad C28 smd circle (at 10.5 -14.5) (size 0.5 0.5) (layers F.Cu F.Paste F.Mask))
  (pad C29 smd circle (at 11.5 -14.5) (size 0.5 0.5) (layers F.Cu F.Paste F.Mask))
  (pad C30 smd circle (at 12.5 -14.5) (size 0.5 0.5) (layers F.Cu F.Paste F.Mask))
  (pad C31 smd circle (at 13.5 -14.5) (size 0.5 0.5) (layers F.Cu F.Paste F.Mask))
  (pad C32 smd circle (at 14.5 -14.5) (size 0.5 0.5) (layers F.Cu F.Paste F.Mask))
  (pad D23 smd circle (at 5.5 -13.5) (size 0.5 0.5) (layers F.Cu F.Paste F.Mask))
  (pad D24 smd circle (at 6.5 -13.5) (size 0.5 0.5) (layers F.Cu F.Paste F.Mask))
  (pad D25 smd circle (at 7.5 -13.5) (size 0.5 0.5) (layers F.Cu F.Paste F.Mask))
  (pad D26 smd circle (at 8.5 -13.5) (size 0.5 0.5) (layers F.Cu F.Paste F.Mask))
  (pad D27 smd circle (at 9.5 -13.5) (size 0.5 0.5) (layers F.Cu F.Paste F.Mask))
  (pad D28 smd circle (at 10.5 -13.5) (size 0.5 0.5) (layers F.Cu F.Paste F.Mask))
  (pad D29 smd circle (at 11.5 -13.5) (size 0.5 0.5) (layers F.Cu F.Paste F.Mask))
  (pad D30 smd circle (at 12.5 -13.5) (size 0.5 0.5) (layers F.Cu F.Paste F.Mask))
  (pad D31 smd circle (at 13.5 -13.5) (size 0.5 0.5) (layers F.Cu F.Paste F.Mask))
  (pad D32 smd circle (at 14.5 -13.5) (size 0.5 0.5) (layers F.Cu F.Paste F.Mask))
  (pad E23 smd circle (at 5.5 -12.5) (size 0.5 0.5) (layers F.Cu F.Paste F.Mask))
  (pad E24 smd circle (at 6.5 -12.5) (size 0.5 0.5) (layers F.Cu F.Paste F.Mask))
  (pad E25 smd circle (at 7.5 -12.5) (size 0.5 0.5) (layers F.Cu F.Paste F.Mask))
  (pad E26 smd circle (at 8.5 -12.5) (size 0.5 0.5) (layers F.Cu F.Paste F.Mask))
  (pad E27 smd circle (at 9.5 -12.5) (size 0.5 0.5) (layers F.Cu F.Paste F.Mask))
  (pad E28 smd circle (at 10.5 -12.5) (size 0.5 0.5) (layers F.Cu F.Paste F.Mask))
  (pad E29 smd circle (at 11.5 -12.5) (size 0.5 0.5) (layers F.Cu F.Paste F.Mask))
  (pad E30 smd circle (at 12.5 -12.5) (size 0.5 0.5) (layers F.Cu F.Paste F.Mask))
  (pad E31 smd circle (at 13.5 -12.5) (size 0.5 0.5) (layers F.Cu F.Paste F.Mask))
  (pad E32 smd circle (at 14.5 -12.5) (size 0.5 0.5) (layers F.Cu F.Paste F.Mask))
  (pad F23 smd circle (at 5.5 -11.5) (size 0.5 0.5) (layers F.Cu F.Paste F.Mask))
  (pad F24 smd circle (at 6.5 -11.5) (size 0.5 0.5) (layers F.Cu F.Paste F.Mask))
  (pad F25 smd circle (at 7.5 -11.5) (size 0.5 0.5) (layers F.Cu F.Paste F.Mask))
  (pad F26 smd circle (at 8.5 -11.5) (size 0.5 0.5) (layers F.Cu F.Paste F.Mask))
  (pad F27 smd circle (at 9.5 -11.5) (size 0.5 0.5) (layers F.Cu F.Paste F.Mask))
  (pad F28 smd circle (at 10.5 -11.5) (size 0.5 0.5) (layers F.Cu F.Paste F.Mask))
  (pad F29 smd circle (at 11.5 -11.5) (size 0.5 0.5) (layers F.Cu F.Paste F.Mask))
  (pad F30 smd circle (at 12.5 -11.5) (size 0.5 0.5) (layers F.Cu F.Paste F.Mask))
  (pad F31 smd circle (at 13.5 -11.5) (size 0.5 0.5) (layers F.Cu F.Paste F.Mask))
  (pad F32 smd circle (at 14.5 -11.5) (size 0.5 0.5) (layers F.Cu F.Paste F.Mask))
  (pad G23 smd circle (at 5.5 -10.5) (size 0.5 0.5) (layers F.Cu F.Paste F.Mask))
  (pad G24 smd circle (at 6.5 -10.5) (size 0.5 0.5) (layers F.Cu F.Paste F.Mask))
  (pad G25 smd circle (at 7.5 -10.5) (size 0.5 0.5) (layers F.Cu F.Paste F.Mask))
  (pad G26 smd circle (at 8.5 -10.5) (size 0.5 0.5) (layers F.Cu F.Paste F.Mask))
  (pad G27 smd circle (at 9.5 -10.5) (size 0.5 0.5) (layers F.Cu F.Paste F.Mask))
  (pad G28 smd circle (at 10.5 -10.5) (size 0.5 0.5) (layers F.Cu F.Paste F.Mask))
  (pad G29 smd circle (at 11.5 -10.5) (size 0.5 0.5) (layers F.Cu F.Paste F.Mask))
  (pad G30 smd circle (at 12.5 -10.5) (size 0.5 0.5) (layers F.Cu F.Paste F.Mask))
  (pad G31 smd circle (at 13.5 -10.5) (size 0.5 0.5) (layers F.Cu F.Paste F.Mask))
  (pad G32 smd circle (at 14.5 -10.5) (size 0.5 0.5) (layers F.Cu F.Paste F.Mask))
  (pad H23 smd circle (at 5.5 -9.5) (size 0.5 0.5) (layers F.Cu F.Paste F.Mask))
  (pad H24 smd circle (at 6.5 -9.5) (size 0.5 0.5) (layers F.Cu F.Paste F.Mask))
  (pad H25 smd circle (at 7.5 -9.5) (size 0.5 0.5) (layers F.Cu F.Paste F.Mask))
  (pad H26 smd circle (at 8.5 -9.5) (size 0.5 0.5) (layers F.Cu F.Paste F.Mask))
  (pad H27 smd circle (at 9.5 -9.5) (size 0.5 0.5) (layers F.Cu F.Paste F.Mask))
  (pad H28 smd circle (at 10.5 -9.5) (size 0.5 0.5) (layers F.Cu F.Paste F.Mask))
  (pad H29 smd circle (at 11.5 -9.5) (size 0.5 0.5) (layers F.Cu F.Paste F.Mask))
  (pad H30 smd circle (at 12.5 -9.5) (size 0.5 0.5) (layers F.Cu F.Paste F.Mask))
  (pad H31 smd circle (at 13.5 -9.5) (size 0.5 0.5) (layers F.Cu F.Paste F.Mask))
  (pad H32 smd circle (at 14.5 -9.5) (size 0.5 0.5) (layers F.Cu F.Paste F.Mask))
  (pad J23 smd circle (at 5.5 -8.5) (size 0.5 0.5) (layers F.Cu F.Paste F.Mask))
  (pad J24 smd circle (at 6.5 -8.5) (size 0.5 0.5) (layers F.Cu F.Paste F.Mask))
  (pad J25 smd circle (at 7.5 -8.5) (size 0.5 0.5) (layers F.Cu F.Paste F.Mask))
  (pad J26 smd circle (at 8.5 -8.5) (size 0.5 0.5) (layers F.Cu F.Paste F.Mask))
  (pad J27 smd circle (at 9.5 -8.5) (size 0.5 0.5) (layers F.Cu F.Paste F.Mask))
  (pad J28 smd circle (at 10.5 -8.5) (size 0.5 0.5) (layers F.Cu F.Paste F.Mask))
  (pad J29 smd circle (at 11.5 -8.5) (size 0.5 0.5) (layers F.Cu F.Paste F.Mask))
  (pad J30 smd circle (at 12.5 -8.5) (size 0.5 0.5) (layers F.Cu F.Paste F.Mask))
  (pad J31 smd circle (at 13.5 -8.5) (size 0.5 0.5) (layers F.Cu F.Paste F.Mask))
  (pad J32 smd circle (at 14.5 -8.5) (size 0.5 0.5) (layers F.Cu F.Paste F.Mask))
  (pad K23 smd circle (at 5.5 -7.5) (size 0.5 0.5) (layers F.Cu F.Paste F.Mask))
  (pad K24 smd circle (at 6.5 -7.5) (size 0.5 0.5) (layers F.Cu F.Paste F.Mask))
  (pad K25 smd circle (at 7.5 -7.5) (size 0.5 0.5) (layers F.Cu F.Paste F.Mask))
  (pad K26 smd circle (at 8.5 -7.5) (size 0.5 0.5) (layers F.Cu F.Paste F.Mask))
  (pad K27 smd circle (at 9.5 -7.5) (size 0.5 0.5) (layers F.Cu F.Paste F.Mask))
  (pad K28 smd circle (at 10.5 -7.5) (size 0.5 0.5) (layers F.Cu F.Paste F.Mask))
  (pad K29 smd circle (at 11.5 -7.5) (size 0.5 0.5) (layers F.Cu F.Paste F.Mask))
  (pad K30 smd circle (at 12.5 -7.5) (size 0.5 0.5) (layers F.Cu F.Paste F.Mask))
  (pad K31 smd circle (at 13.5 -7.5) (size 0.5 0.5) (layers F.Cu F.Paste F.Mask))
  (pad K32 smd circle (at 14.5 -7.5) (size 0.5 0.5) (layers F.Cu F.Paste F.Mask))
  (pad L23 smd circle (at 5.5 -6.5) (size 0.5 0.5) (layers F.Cu F.Paste F.Mask))
  (pad L24 smd circle (at 6.5 -6.5) (size 0.5 0.5) (layers F.Cu F.Paste F.Mask))
  (pad L25 smd circle (at 7.5 -6.5) (size 0.5 0.5) (layers F.Cu F.Paste F.Mask))
  (pad L26 smd circle (at 8.5 -6.5) (size 0.5 0.5) (layers F.Cu F.Paste F.Mask))
  (pad L27 smd circle (at 9.5 -6.5) (size 0.5 0.5) (layers F.Cu F.Paste F.Mask))
  (pad L28 smd circle (at 10.5 -6.5) (size 0.5 0.5) (layers F.Cu F.Paste F.Mask))
  (pad L29 smd circle (at 11.5 -6.5) (size 0.5 0.5) (layers F.Cu F.Paste F.Mask))
  (pad L30 smd circle (at 12.5 -6.5) (size 0.5 0.5) (layers F.Cu F.Paste F.Mask))
  (pad L31 smd circle (at 13.5 -6.5) (size 0.5 0.5) (layers F.Cu F.Paste F.Mask))
  (pad L32 smd circle (at 14.5 -6.5) (size 0.5 0.5) (layers F.Cu F.Paste F.Mask))
  (pad M23 smd circle (at 5.5 -5.5) (size 0.5 0.5) (layers F.Cu F.Paste F.Mask))
  (pad M24 smd circle (at 6.5 -5.5) (size 0.5 0.5) (layers F.Cu F.Paste F.Mask))
  (pad M25 smd circle (at 7.5 -5.5) (size 0.5 0.5) (layers F.Cu F.Paste F.Mask))
  (pad M26 smd circle (at 8.5 -5.5) (size 0.5 0.5) (layers F.Cu F.Paste F.Mask))
  (pad M27 smd circle (at 9.5 -5.5) (size 0.5 0.5) (layers F.Cu F.Paste F.Mask))
  (pad M28 smd circle (at 10.5 -5.5) (size 0.5 0.5) (layers F.Cu F.Paste F.Mask))
  (pad M29 smd circle (at 11.5 -5.5) (size 0.5 0.5) (layers F.Cu F.Paste F.Mask))
  (pad M30 smd circle (at 12.5 -5.5) (size 0.5 0.5) (layers F.Cu F.Paste F.Mask))
  (pad M31 smd circle (at 13.5 -5.5) (size 0.5 0.5) (layers F.Cu F.Paste F.Mask))
  (pad M32 smd circle (at 14.5 -5.5) (size 0.5 0.5) (layers F.Cu F.Paste F.Mask))
  (pad N23 smd circle (at 5.5 -4.5) (size 0.5 0.5) (layers F.Cu F.Paste F.Mask))
  (pad N24 smd circle (at 6.5 -4.5) (size 0.5 0.5) (layers F.Cu F.Paste F.Mask))
  (pad N25 smd circle (at 7.5 -4.5) (size 0.5 0.5) (layers F.Cu F.Paste F.Mask))
  (pad N26 smd circle (at 8.5 -4.5) (size 0.5 0.5) (layers F.Cu F.Paste F.Mask))
  (pad N27 smd circle (at 9.5 -4.5) (size 0.5 0.5) (layers F.Cu F.Paste F.Mask))
  (pad N28 smd circle (at 10.5 -4.5) (size 0.5 0.5) (layers F.Cu F.Paste F.Mask))
  (pad N29 smd circle (at 11.5 -4.5) (size 0.5 0.5) (layers F.Cu F.Paste F.Mask))
  (pad N30 smd circle (at 12.5 -4.5) (size 0.5 0.5) (layers F.Cu F.Paste F.Mask))
  (pad N31 smd circle (at 13.5 -4.5) (size 0.5 0.5) (layers F.Cu F.Paste F.Mask))
  (pad N32 smd circle (at 14.5 -4.5) (size 0.5 0.5) (layers F.Cu F.Paste F.Mask))
  (pad P23 smd circle (at 5.5 -3.5) (size 0.5 0.5) (layers F.Cu F.Paste F.Mask))
  (pad P24 smd circle (at 6.5 -3.5) (size 0.5 0.5) (layers F.Cu F.Paste F.Mask))
  (pad P25 smd circle (at 7.5 -3.5) (size 0.5 0.5) (layers F.Cu F.Paste F.Mask))
  (pad P26 smd circle (at 8.5 -3.5) (size 0.5 0.5) (layers F.Cu F.Paste F.Mask))
  (pad P27 smd circle (at 9.5 -3.5) (size 0.5 0.5) (layers F.Cu F.Paste F.Mask))
  (pad P28 smd circle (at 10.5 -3.5) (size 0.5 0.5) (layers F.Cu F.Paste F.Mask))
  (pad P29 smd circle (at 11.5 -3.5) (size 0.5 0.5) (layers F.Cu F.Paste F.Mask))
  (pad P30 smd circle (at 12.5 -3.5) (size 0.5 0.5) (layers F.Cu F.Paste F.Mask))
  (pad P31 smd circle (at 13.5 -3.5) (size 0.5 0.5) (layers F.Cu F.Paste F.Mask))
  (pad P32 smd circle (at 14.5 -3.5) (size 0.5 0.5) (layers F.Cu F.Paste F.Mask))
  (pad R23 smd circle (at 5.5 -2.5) (size 0.5 0.5) (layers F.Cu F.Paste F.Mask))
  (pad R24 smd circle (at 6.5 -2.5) (size 0.5 0.5) (layers F.Cu F.Paste F.Mask))
  (pad R25 smd circle (at 7.5 -2.5) (size 0.5 0.5) (layers F.Cu F.Paste F.Mask))
  (pad R26 smd circle (at 8.5 -2.5) (size 0.5 0.5) (layers F.Cu F.Paste F.Mask))
  (pad R27 smd circle (at 9.5 -2.5) (size 0.5 0.5) (layers F.Cu F.Paste F.Mask))
  (pad R28 smd circle (at 10.5 -2.5) (size 0.5 0.5) (layers F.Cu F.Paste F.Mask))
  (pad R29 smd circle (at 11.5 -2.5) (size 0.5 0.5) (layers F.Cu F.Paste F.Mask))
  (pad R30 smd circle (at 12.5 -2.5) (size 0.5 0.5) (layers F.Cu F.Paste F.Mask))
  (pad R31 smd circle (at 13.5 -2.5) (size 0.5 0.5) (layers F.Cu F.Paste F.Mask))
  (pad R32 smd circle (at 14.5 -2.5) (size 0.5 0.5) (layers F.Cu F.Paste F.Mask))
  (pad T23 smd circle (at 5.5 -1.5) (size 0.5 0.5) (layers F.Cu F.Paste F.Mask))
  (pad T24 smd circle (at 6.5 -1.5) (size 0.5 0.5) (layers F.Cu F.Paste F.Mask))
  (pad T25 smd circle (at 7.5 -1.5) (size 0.5 0.5) (layers F.Cu F.Paste F.Mask))
  (pad T26 smd circle (at 8.5 -1.5) (size 0.5 0.5) (layers F.Cu F.Paste F.Mask))
  (pad T27 smd circle (at 9.5 -1.5) (size 0.5 0.5) (layers F.Cu F.Paste F.Mask))
  (pad T28 smd circle (at 10.5 -1.5) (size 0.5 0.5) (layers F.Cu F.Paste F.Mask))
  (pad T29 smd circle (at 11.5 -1.5) (size 0.5 0.5) (layers F.Cu F.Paste F.Mask))
  (pad T30 smd circle (at 12.5 -1.5) (size 0.5 0.5) (layers F.Cu F.Paste F.Mask))
  (pad T31 smd circle (at 13.5 -1.5) (size 0.5 0.5) (layers F.Cu F.Paste F.Mask))
  (pad T32 smd circle (at 14.5 -1.5) (size 0.5 0.5) (layers F.Cu F.Paste F.Mask))
  (pad U23 smd circle (at 5.5 -0.5) (size 0.5 0.5) (layers F.Cu F.Paste F.Mask))
  (pad U24 smd circle (at 6.5 -0.5) (size 0.5 0.5) (layers F.Cu F.Paste F.Mask))
  (pad U25 smd circle (at 7.5 -0.5) (size 0.5 0.5) (layers F.Cu F.Paste F.Mask))
  (pad U26 smd circle (at 8.5 -0.5) (size 0.5 0.5) (layers F.Cu F.Paste F.Mask))
  (pad U27 smd circle (at 9.5 -0.5) (size 0.5 0.5) (layers F.Cu F.Paste F.Mask))
  (pad U28 smd circle (at 10.5 -0.5) (size 0.5 0.5) (layers F.Cu F.Paste F.Mask))
  (pad U29 smd circle (at 11.5 -0.5) (size 0.5 0.5) (layers F.Cu F.Paste F.Mask))
  (pad U30 smd circle (at 12.5 -0.5) (size 0.5 0.5) (layers F.Cu F.Paste F.Mask))
  (pad U31 smd circle (at 13.5 -0.5) (size 0.5 0.5) (layers F.Cu F.Paste F.Mask))
  (pad U32 smd circle (at 14.5 -0.5) (size 0.5 0.5) (layers F.Cu F.Paste F.Mask))
  (pad V23 smd circle (at 5.5 0.5) (size 0.5 0.5) (layers F.Cu F.Paste F.Mask))
  (pad V24 smd circle (at 6.5 0.5) (size 0.5 0.5) (layers F.Cu F.Paste F.Mask))
  (pad V25 smd circle (at 7.5 0.5) (size 0.5 0.5) (layers F.Cu F.Paste F.Mask))
  (pad V26 smd circle (at 8.5 0.5) (size 0.5 0.5) (layers F.Cu F.Paste F.Mask))
  (pad V27 smd circle (at 9.5 0.5) (size 0.5 0.5) (layers F.Cu F.Paste F.Mask))
  (pad V28 smd circle (at 10.5 0.5) (size 0.5 0.5) (layers F.Cu F.Paste F.Mask))
  (pad V29 smd circle (at 11.5 0.5) (size 0.5 0.5) (layers F.Cu F.Paste F.Mask))
  (pad V30 smd circle (at 12.5 0.5) (size 0.5 0.5) (layers F.Cu F.Paste F.Mask))
  (pad V31 smd circle (at 13.5 0.5) (size 0.5 0.5) (layers F.Cu F.Paste F.Mask))
  (pad V32 smd circle (at 14.5 0.5) (size 0.5 0.5) (layers F.Cu F.Paste F.Mask))
  (pad W23 smd circle (at 5.5 1.5) (size 0.5 0.5) (layers F.Cu F.Paste F.Mask))
  (pad W24 smd circle (at 6.5 1.5) (size 0.5 0.5) (layers F.Cu F.Paste F.Mask))
  (pad W25 smd circle (at 7.5 1.5) (size 0.5 0.5) (layers F.Cu F.Paste F.Mask))
  (pad W26 smd circle (at 8.5 1.5) (size 0.5 0.5) (layers F.Cu F.Paste F.Mask))
  (pad W27 smd circle (at 9.5 1.5) (size 0.5 0.5) (layers F.Cu F.Paste F.Mask))
  (pad W28 smd circle (at 10.5 1.5) (size 0.5 0.5) (layers F.Cu F.Paste F.Mask))
  (pad W29 smd circle (at 11.5 1.5) (size 0.5 0.5) (layers F.Cu F.Paste F.Mask))
  (pad W30 smd circle (at 12.5 1.5) (size 0.5 0.5) (layers F.Cu F.Paste F.Mask))
  (pad W31 smd circle (at 13.5 1.5) (size 0.5 0.5) (layers F.Cu F.Paste F.Mask))
  (pad W32 smd circle (at 14.5 1.5) (size 0.5 0.5) (layers F.Cu F.Paste F.Mask))
  (pad Y23 smd circle (at 5.5 2.5) (size 0.5 0.5) (layers F.Cu F.Paste F.Mask))
  (pad Y24 smd circle (at 6.5 2.5) (size 0.5 0.5) (layers F.Cu F.Paste F.Mask))
  (pad Y25 smd circle (at 7.5 2.5) (size 0.5 0.5) (layers F.Cu F.Paste F.Mask))
  (pad Y26 smd circle (at 8.5 2.5) (size 0.5 0.5) (layers F.Cu F.Paste F.Mask))
  (pad Y27 smd circle (at 9.5 2.5) (size 0.5 0.5) (layers F.Cu F.Paste F.Mask))
  (pad Y28 smd circle (at 10.5 2.5) (size 0.5 0.5) (layers F.Cu F.Paste F.Mask))
  (pad Y29 smd circle (at 11.5 2.5) (size 0.5 0.5) (layers F.Cu F.Paste F.Mask))
  (pad Y30 smd circle (at 12.5 2.5) (size 0.5 0.5) (layers F.Cu F.Paste F.Mask))
  (pad Y31 smd circle (at 13.5 2.5) (size 0.5 0.5) (layers F.Cu F.Paste F.Mask))
  (pad Y32 smd circle (at 14.5 2.5) (size 0.5 0.5) (layers F.Cu F.Paste F.Mask))
  (pad AA23 smd circle (at 5.5 3.5) (size 0.5 0.5) (layers F.Cu F.Paste F.Mask))
  (pad AA24 smd circle (at 6.5 3.5) (size 0.5 0.5) (layers F.Cu F.Paste F.Mask))
  (pad AA25 smd circle (at 7.5 3.5) (size 0.5 0.5) (layers F.Cu F.Paste F.Mask))
  (pad AA26 smd circle (at 8.5 3.5) (size 0.5 0.5) (layers F.Cu F.Paste F.Mask))
  (pad AA27 smd circle (at 9.5 3.5) (size 0.5 0.5) (layers F.Cu F.Paste F.Mask))
  (pad AA28 smd circle (at 10.5 3.5) (size 0.5 0.5) (layers F.Cu F.Paste F.Mask))
  (pad AA29 smd circle (at 11.5 3.5) (size 0.5 0.5) (layers F.Cu F.Paste F.Mask))
  (pad AA30 smd circle (at 12.5 3.5) (size 0.5 0.5) (layers F.Cu F.Paste F.Mask))
  (pad AA31 smd circle (at 13.5 3.5) (size 0.5 0.5) (layers F.Cu F.Paste F.Mask))
  (pad AA32 smd circle (at 14.5 3.5) (size 0.5 0.5) (layers F.Cu F.Paste F.Mask))
  (pad AB23 smd circle (at 5.5 4.5) (size 0.5 0.5) (layers F.Cu F.Paste F.Mask))
  (pad AB24 smd circle (at 6.5 4.5) (size 0.5 0.5) (layers F.Cu F.Paste F.Mask))
  (pad AB25 smd circle (at 7.5 4.5) (size 0.5 0.5) (layers F.Cu F.Paste F.Mask))
  (pad AB26 smd circle (at 8.5 4.5) (size 0.5 0.5) (layers F.Cu F.Paste F.Mask))
  (pad AB27 smd circle (at 9.5 4.5) (size 0.5 0.5) (layers F.Cu F.Paste F.Mask))
  (pad AB28 smd circle (at 10.5 4.5) (size 0.5 0.5) (layers F.Cu F.Paste F.Mask))
  (pad AB29 smd circle (at 11.5 4.5) (size 0.5 0.5) (layers F.Cu F.Paste F.Mask))
  (pad AB30 smd circle (at 12.5 4.5) (size 0.5 0.5) (layers F.Cu F.Paste F.Mask))
  (pad AB31 smd circle (at 13.5 4.5) (size 0.5 0.5) (layers F.Cu F.Paste F.Mask))
  (pad AB32 smd circle (at 14.5 4.5) (size 0.5 0.5) (layers F.Cu F.Paste F.Mask))
  (pad AC1 smd circle (at -16.5 5.5) (size 0.5 0.5) (layers F.Cu F.Paste F.Mask))
  (pad AC2 smd circle (at -15.5 5.5) (size 0.5 0.5) (layers F.Cu F.Paste F.Mask))
  (pad AC3 smd circle (at -14.5 5.5) (size 0.5 0.5) (layers F.Cu F.Paste F.Mask))
  (pad AC4 smd circle (at -13.5 5.5) (size 0.5 0.5) (layers F.Cu F.Paste F.Mask))
  (pad AC5 smd circle (at -12.5 5.5) (size 0.5 0.5) (layers F.Cu F.Paste F.Mask))
  (pad AC6 smd circle (at -11.5 5.5) (size 0.5 0.5) (layers F.Cu F.Paste F.Mask))
  (pad AC7 smd circle (at -10.5 5.5) (size 0.5 0.5) (layers F.Cu F.Paste F.Mask))
  (pad AC8 smd circle (at -9.5 5.5) (size 0.5 0.5) (layers F.Cu F.Paste F.Mask))
  (pad AC9 smd circle (at -8.5 5.5) (size 0.5 0.5) (layers F.Cu F.Paste F.Mask))
  (pad AC10 smd circle (at -7.5 5.5) (size 0.5 0.5) (layers F.Cu F.Paste F.Mask))
  (pad AC11 smd circle (at -6.5 5.5) (size 0.5 0.5) (layers F.Cu F.Paste F.Mask))
  (pad AC12 smd circle (at -5.5 5.5) (size 0.5 0.5) (layers F.Cu F.Paste F.Mask))
  (pad AC13 smd circle (at -4.5 5.5) (size 0.5 0.5) (layers F.Cu F.Paste F.Mask))
  (pad AC14 smd circle (at -3.5 5.5) (size 0.5 0.5) (layers F.Cu F.Paste F.Mask))
  (pad AC15 smd circle (at -2.5 5.5) (size 0.5 0.5) (layers F.Cu F.Paste F.Mask))
  (pad AC16 smd circle (at -1.5 5.5) (size 0.5 0.5) (layers F.Cu F.Paste F.Mask))
  (pad AC17 smd circle (at -0.5 5.5) (size 0.5 0.5) (layers F.Cu F.Paste F.Mask))
  (pad AC18 smd circle (at 0.5 5.5) (size 0.5 0.5) (layers F.Cu F.Paste F.Mask))
  (pad AC19 smd circle (at 1.5 5.5) (size 0.5 0.5) (layers F.Cu F.Paste F.Mask))
  (pad AC20 smd circle (at 2.5 5.5) (size 0.5 0.5) (layers F.Cu F.Paste F.Mask))
  (pad AC21 smd circle (at 3.5 5.5) (size 0.5 0.5) (layers F.Cu F.Paste F.Mask))
  (pad AC22 smd circle (at 4.5 5.5) (size 0.5 0.5) (layers F.Cu F.Paste F.Mask))
  (pad AC23 smd circle (at 5.5 5.5) (size 0.5 0.5) (layers F.Cu F.Paste F.Mask))
  (pad AC24 smd circle (at 6.5 5.5) (size 0.5 0.5) (layers F.Cu F.Paste F.Mask))
  (pad AC25 smd circle (at 7.5 5.5) (size 0.5 0.5) (layers F.Cu F.Paste F.Mask))
  (pad AC26 smd circle (at 8.5 5.5) (size 0.5 0.5) (layers F.Cu F.Paste F.Mask))
  (pad AC27 smd circle (at 9.5 5.5) (size 0.5 0.5) (layers F.Cu F.Paste F.Mask))
  (pad AC28 smd circle (at 10.5 5.5) (size 0.5 0.5) (layers F.Cu F.Paste F.Mask))
  (pad AC29 smd circle (at 11.5 5.5) (size 0.5 0.5) (layers F.Cu F.Paste F.Mask))
  (pad AC30 smd circle (at 12.5 5.5) (size 0.5 0.5) (layers F.Cu F.Paste F.Mask))
  (pad AC31 smd circle (at 13.5 5.5) (size 0.5 0.5) (layers F.Cu F.Paste F.Mask))
  (pad AC32 smd circle (at 14.5 5.5) (size 0.5 0.5) (layers F.Cu F.Paste F.Mask))
  (pad AD1 smd circle (at -16.5 6.5) (size 0.5 0.5) (layers F.Cu F.Paste F.Mask))
  (pad AD2 smd circle (at -15.5 6.5) (size 0.5 0.5) (layers F.Cu F.Paste F.Mask))
  (pad AD3 smd circle (at -14.5 6.5) (size 0.5 0.5) (layers F.Cu F.Paste F.Mask))
  (pad AD4 smd circle (at -13.5 6.5) (size 0.5 0.5) (layers F.Cu F.Paste F.Mask))
  (pad AD5 smd circle (at -12.5 6.5) (size 0.5 0.5) (layers F.Cu F.Paste F.Mask))
  (pad AD6 smd circle (at -11.5 6.5) (size 0.5 0.5) (layers F.Cu F.Paste F.Mask))
  (pad AD7 smd circle (at -10.5 6.5) (size 0.5 0.5) (layers F.Cu F.Paste F.Mask))
  (pad AD8 smd circle (at -9.5 6.5) (size 0.5 0.5) (layers F.Cu F.Paste F.Mask))
  (pad AD9 smd circle (at -8.5 6.5) (size 0.5 0.5) (layers F.Cu F.Paste F.Mask))
  (pad AD10 smd circle (at -7.5 6.5) (size 0.5 0.5) (layers F.Cu F.Paste F.Mask))
  (pad AD11 smd circle (at -6.5 6.5) (size 0.5 0.5) (layers F.Cu F.Paste F.Mask))
  (pad AD12 smd circle (at -5.5 6.5) (size 0.5 0.5) (layers F.Cu F.Paste F.Mask))
  (pad AD13 smd circle (at -4.5 6.5) (size 0.5 0.5) (layers F.Cu F.Paste F.Mask))
  (pad AD14 smd circle (at -3.5 6.5) (size 0.5 0.5) (layers F.Cu F.Paste F.Mask))
  (pad AD15 smd circle (at -2.5 6.5) (size 0.5 0.5) (layers F.Cu F.Paste F.Mask))
  (pad AD16 smd circle (at -1.5 6.5) (size 0.5 0.5) (layers F.Cu F.Paste F.Mask))
  (pad AD17 smd circle (at -0.5 6.5) (size 0.5 0.5) (layers F.Cu F.Paste F.Mask))
  (pad AD18 smd circle (at 0.5 6.5) (size 0.5 0.5) (layers F.Cu F.Paste F.Mask))
  (pad AD19 smd circle (at 1.5 6.5) (size 0.5 0.5) (layers F.Cu F.Paste F.Mask))
  (pad AD20 smd circle (at 2.5 6.5) (size 0.5 0.5) (layers F.Cu F.Paste F.Mask))
  (pad AD21 smd circle (at 3.5 6.5) (size 0.5 0.5) (layers F.Cu F.Paste F.Mask))
  (pad AD22 smd circle (at 4.5 6.5) (size 0.5 0.5) (layers F.Cu F.Paste F.Mask))
  (pad AD23 smd circle (at 5.5 6.5) (size 0.5 0.5) (layers F.Cu F.Paste F.Mask))
  (pad AD24 smd circle (at 6.5 6.5) (size 0.5 0.5) (layers F.Cu F.Paste F.Mask))
  (pad AD25 smd circle (at 7.5 6.5) (size 0.5 0.5) (layers F.Cu F.Paste F.Mask))
  (pad AD26 smd circle (at 8.5 6.5) (size 0.5 0.5) (layers F.Cu F.Paste F.Mask))
  (pad AD27 smd circle (at 9.5 6.5) (size 0.5 0.5) (layers F.Cu F.Paste F.Mask))
  (pad AD28 smd circle (at 10.5 6.5) (size 0.5 0.5) (layers F.Cu F.Paste F.Mask))
  (pad AD29 smd circle (at 11.5 6.5) (size 0.5 0.5) (layers F.Cu F.Paste F.Mask))
  (pad AD30 smd circle (at 12.5 6.5) (size 0.5 0.5) (layers F.Cu F.Paste F.Mask))
  (pad AD31 smd circle (at 13.5 6.5) (size 0.5 0.5) (layers F.Cu F.Paste F.Mask))
  (pad AD32 smd circle (at 14.5 6.5) (size 0.5 0.5) (layers F.Cu F.Paste F.Mask))
  (pad AE1 smd circle (at -16.5 7.5) (size 0.5 0.5) (layers F.Cu F.Paste F.Mask))
  (pad AE2 smd circle (at -15.5 7.5) (size 0.5 0.5) (layers F.Cu F.Paste F.Mask))
  (pad AE3 smd circle (at -14.5 7.5) (size 0.5 0.5) (layers F.Cu F.Paste F.Mask))
  (pad AE4 smd circle (at -13.5 7.5) (size 0.5 0.5) (layers F.Cu F.Paste F.Mask))
  (pad AE5 smd circle (at -12.5 7.5) (size 0.5 0.5) (layers F.Cu F.Paste F.Mask))
  (pad AE6 smd circle (at -11.5 7.5) (size 0.5 0.5) (layers F.Cu F.Paste F.Mask))
  (pad AE7 smd circle (at -10.5 7.5) (size 0.5 0.5) (layers F.Cu F.Paste F.Mask))
  (pad AE8 smd circle (at -9.5 7.5) (size 0.5 0.5) (layers F.Cu F.Paste F.Mask))
  (pad AE9 smd circle (at -8.5 7.5) (size 0.5 0.5) (layers F.Cu F.Paste F.Mask))
  (pad AE10 smd circle (at -7.5 7.5) (size 0.5 0.5) (layers F.Cu F.Paste F.Mask))
  (pad AE11 smd circle (at -6.5 7.5) (size 0.5 0.5) (layers F.Cu F.Paste F.Mask))
  (pad AE12 smd circle (at -5.5 7.5) (size 0.5 0.5) (layers F.Cu F.Paste F.Mask))
  (pad AE13 smd circle (at -4.5 7.5) (size 0.5 0.5) (layers F.Cu F.Paste F.Mask))
  (pad AE14 smd circle (at -3.5 7.5) (size 0.5 0.5) (layers F.Cu F.Paste F.Mask))
  (pad AE15 smd circle (at -2.5 7.5) (size 0.5 0.5) (layers F.Cu F.Paste F.Mask))
  (pad AE16 smd circle (at -1.5 7.5) (size 0.5 0.5) (layers F.Cu F.Paste F.Mask))
  (pad AE17 smd circle (at -0.5 7.5) (size 0.5 0.5) (layers F.Cu F.Paste F.Mask))
  (pad AE18 smd circle (at 0.5 7.5) (size 0.5 0.5) (layers F.Cu F.Paste F.Mask))
  (pad AE19 smd circle (at 1.5 7.5) (size 0.5 0.5) (layers F.Cu F.Paste F.Mask))
  (pad AE20 smd circle (at 2.5 7.5) (size 0.5 0.5) (layers F.Cu F.Paste F.Mask))
  (pad AE21 smd circle (at 3.5 7.5) (size 0.5 0.5) (layers F.Cu F.Paste F.Mask))
  (pad AE22 smd circle (at 4.5 7.5) (size 0.5 0.5) (layers F.Cu F.Paste F.Mask))
  (pad AE23 smd circle (at 5.5 7.5) (size 0.5 0.5) (layers F.Cu F.Paste F.Mask))
  (pad AE24 smd circle (at 6.5 7.5) (size 0.5 0.5) (layers F.Cu F.Paste F.Mask))
  (pad AE25 smd circle (at 7.5 7.5) (size 0.5 0.5) (layers F.Cu F.Paste F.Mask))
  (pad AE26 smd circle (at 8.5 7.5) (size 0.5 0.5) (layers F.Cu F.Paste F.Mask))
  (pad AE27 smd circle (at 9.5 7.5) (size 0.5 0.5) (layers F.Cu F.Paste F.Mask))
  (pad AE28 smd circle (at 10.5 7.5) (size 0.5 0.5) (layers F.Cu F.Paste F.Mask))
  (pad AE29 smd circle (at 11.5 7.5) (size 0.5 0.5) (layers F.Cu F.Paste F.Mask))
  (pad AE30 smd circle (at 12.5 7.5) (size 0.5 0.5) (layers F.Cu F.Paste F.Mask))
  (pad AE31 smd circle (at 13.5 7.5) (size 0.5 0.5) (layers F.Cu F.Paste F.Mask))
  (pad AE32 smd circle (at 14.5 7.5) (size 0.5 0.5) (layers F.Cu F.Paste F.Mask))
  (pad AF1 smd circle (at -16.5 8.5) (size 0.5 0.5) (layers F.Cu F.Paste F.Mask))
  (pad AF2 smd circle (at -15.5 8.5) (size 0.5 0.5) (layers F.Cu F.Paste F.Mask))
  (pad AF3 smd circle (at -14.5 8.5) (size 0.5 0.5) (layers F.Cu F.Paste F.Mask))
  (pad AF4 smd circle (at -13.5 8.5) (size 0.5 0.5) (layers F.Cu F.Paste F.Mask))
  (pad AF5 smd circle (at -12.5 8.5) (size 0.5 0.5) (layers F.Cu F.Paste F.Mask))
  (pad AF6 smd circle (at -11.5 8.5) (size 0.5 0.5) (layers F.Cu F.Paste F.Mask))
  (pad AF7 smd circle (at -10.5 8.5) (size 0.5 0.5) (layers F.Cu F.Paste F.Mask))
  (pad AF8 smd circle (at -9.5 8.5) (size 0.5 0.5) (layers F.Cu F.Paste F.Mask))
  (pad AF9 smd circle (at -8.5 8.5) (size 0.5 0.5) (layers F.Cu F.Paste F.Mask))
  (pad AF10 smd circle (at -7.5 8.5) (size 0.5 0.5) (layers F.Cu F.Paste F.Mask))
  (pad AF11 smd circle (at -6.5 8.5) (size 0.5 0.5) (layers F.Cu F.Paste F.Mask))
  (pad AF12 smd circle (at -5.5 8.5) (size 0.5 0.5) (layers F.Cu F.Paste F.Mask))
  (pad AF13 smd circle (at -4.5 8.5) (size 0.5 0.5) (layers F.Cu F.Paste F.Mask))
  (pad AF14 smd circle (at -3.5 8.5) (size 0.5 0.5) (layers F.Cu F.Paste F.Mask))
  (pad AF15 smd circle (at -2.5 8.5) (size 0.5 0.5) (layers F.Cu F.Paste F.Mask))
  (pad AF16 smd circle (at -1.5 8.5) (size 0.5 0.5) (layers F.Cu F.Paste F.Mask))
  (pad AF17 smd circle (at -0.5 8.5) (size 0.5 0.5) (layers F.Cu F.Paste F.Mask))
  (pad AF18 smd circle (at 0.5 8.5) (size 0.5 0.5) (layers F.Cu F.Paste F.Mask))
  (pad AF19 smd circle (at 1.5 8.5) (size 0.5 0.5) (layers F.Cu F.Paste F.Mask))
  (pad AF20 smd circle (at 2.5 8.5) (size 0.5 0.5) (layers F.Cu F.Paste F.Mask))
  (pad AF21 smd circle (at 3.5 8.5) (size 0.5 0.5) (layers F.Cu F.Paste F.Mask))
  (pad AF22 smd circle (at 4.5 8.5) (size 0.5 0.5) (layers F.Cu F.Paste F.Mask))
  (pad AF23 smd circle (at 5.5 8.5) (size 0.5 0.5) (layers F.Cu F.Paste F.Mask))
  (pad AF24 smd circle (at 6.5 8.5) (size 0.5 0.5) (layers F.Cu F.Paste F.Mask))
  (pad AF25 smd circle (at 7.5 8.5) (size 0.5 0.5) (layers F.Cu F.Paste F.Mask))
  (pad AF26 smd circle (at 8.5 8.5) (size 0.5 0.5) (layers F.Cu F.Paste F.Mask))
  (pad AF27 smd circle (at 9.5 8.5) (size 0.5 0.5) (layers F.Cu F.Paste F.Mask))
  (pad AF28 smd circle (at 10.5 8.5) (size 0.5 0.5) (layers F.Cu F.Paste F.Mask))
  (pad AF29 smd circle (at 11.5 8.5) (size 0.5 0.5) (layers F.Cu F.Paste F.Mask))
  (pad AF30 smd circle (at 12.5 8.5) (size 0.5 0.5) (layers F.Cu F.Paste F.Mask))
  (pad AF31 smd circle (at 13.5 8.5) (size 0.5 0.5) (layers F.Cu F.Paste F.Mask))
  (pad AF32 smd circle (at 14.5 8.5) (size 0.5 0.5) (layers F.Cu F.Paste F.Mask))
  (pad AG1 smd circle (at -16.5 9.5) (size 0.5 0.5) (layers F.Cu F.Paste F.Mask))
  (pad AG2 smd circle (at -15.5 9.5) (size 0.5 0.5) (layers F.Cu F.Paste F.Mask))
  (pad AG3 smd circle (at -14.5 9.5) (size 0.5 0.5) (layers F.Cu F.Paste F.Mask))
  (pad AG4 smd circle (at -13.5 9.5) (size 0.5 0.5) (layers F.Cu F.Paste F.Mask))
  (pad AG5 smd circle (at -12.5 9.5) (size 0.5 0.5) (layers F.Cu F.Paste F.Mask))
  (pad AG6 smd circle (at -11.5 9.5) (size 0.5 0.5) (layers F.Cu F.Paste F.Mask))
  (pad AG7 smd circle (at -10.5 9.5) (size 0.5 0.5) (layers F.Cu F.Paste F.Mask))
  (pad AG8 smd circle (at -9.5 9.5) (size 0.5 0.5) (layers F.Cu F.Paste F.Mask))
  (pad AG9 smd circle (at -8.5 9.5) (size 0.5 0.5) (layers F.Cu F.Paste F.Mask))
  (pad AG10 smd circle (at -7.5 9.5) (size 0.5 0.5) (layers F.Cu F.Paste F.Mask))
  (pad AG11 smd circle (at -6.5 9.5) (size 0.5 0.5) (layers F.Cu F.Paste F.Mask))
  (pad AG12 smd circle (at -5.5 9.5) (size 0.5 0.5) (layers F.Cu F.Paste F.Mask))
  (pad AG13 smd circle (at -4.5 9.5) (size 0.5 0.5) (layers F.Cu F.Paste F.Mask))
  (pad AG14 smd circle (at -3.5 9.5) (size 0.5 0.5) (layers F.Cu F.Paste F.Mask))
  (pad AG15 smd circle (at -2.5 9.5) (size 0.5 0.5) (layers F.Cu F.Paste F.Mask))
  (pad AG16 smd circle (at -1.5 9.5) (size 0.5 0.5) (layers F.Cu F.Paste F.Mask))
  (pad AG17 smd circle (at -0.5 9.5) (size 0.5 0.5) (layers F.Cu F.Paste F.Mask))
  (pad AG18 smd circle (at 0.5 9.5) (size 0.5 0.5) (layers F.Cu F.Paste F.Mask))
  (pad AG19 smd circle (at 1.5 9.5) (size 0.5 0.5) (layers F.Cu F.Paste F.Mask))
  (pad AG20 smd circle (at 2.5 9.5) (size 0.5 0.5) (layers F.Cu F.Paste F.Mask))
  (pad AG21 smd circle (at 3.5 9.5) (size 0.5 0.5) (layers F.Cu F.Paste F.Mask))
  (pad AG22 smd circle (at 4.5 9.5) (size 0.5 0.5) (layers F.Cu F.Paste F.Mask))
  (pad AG23 smd circle (at 5.5 9.5) (size 0.5 0.5) (layers F.Cu F.Paste F.Mask))
  (pad AG24 smd circle (at 6.5 9.5) (size 0.5 0.5) (layers F.Cu F.Paste F.Mask))
  (pad AG25 smd circle (at 7.5 9.5) (size 0.5 0.5) (layers F.Cu F.Paste F.Mask))
  (pad AG26 smd circle (at 8.5 9.5) (size 0.5 0.5) (layers F.Cu F.Paste F.Mask))
  (pad AG27 smd circle (at 9.5 9.5) (size 0.5 0.5) (layers F.Cu F.Paste F.Mask))
  (pad AG28 smd circle (at 10.5 9.5) (size 0.5 0.5) (layers F.Cu F.Paste F.Mask))
  (pad AG29 smd circle (at 11.5 9.5) (size 0.5 0.5) (layers F.Cu F.Paste F.Mask))
  (pad AG30 smd circle (at 12.5 9.5) (size 0.5 0.5) (layers F.Cu F.Paste F.Mask))
  (pad AG31 smd circle (at 13.5 9.5) (size 0.5 0.5) (layers F.Cu F.Paste F.Mask))
  (pad AG32 smd circle (at 14.5 9.5) (size 0.5 0.5) (layers F.Cu F.Paste F.Mask))
  (pad AH1 smd circle (at -16.5 10.5) (size 0.5 0.5) (layers F.Cu F.Paste F.Mask))
  (pad AH2 smd circle (at -15.5 10.5) (size 0.5 0.5) (layers F.Cu F.Paste F.Mask))
  (pad AH3 smd circle (at -14.5 10.5) (size 0.5 0.5) (layers F.Cu F.Paste F.Mask))
  (pad AH4 smd circle (at -13.5 10.5) (size 0.5 0.5) (layers F.Cu F.Paste F.Mask))
  (pad AH5 smd circle (at -12.5 10.5) (size 0.5 0.5) (layers F.Cu F.Paste F.Mask))
  (pad AH6 smd circle (at -11.5 10.5) (size 0.5 0.5) (layers F.Cu F.Paste F.Mask))
  (pad AH7 smd circle (at -10.5 10.5) (size 0.5 0.5) (layers F.Cu F.Paste F.Mask))
  (pad AH8 smd circle (at -9.5 10.5) (size 0.5 0.5) (layers F.Cu F.Paste F.Mask))
  (pad AH9 smd circle (at -8.5 10.5) (size 0.5 0.5) (layers F.Cu F.Paste F.Mask))
  (pad AH10 smd circle (at -7.5 10.5) (size 0.5 0.5) (layers F.Cu F.Paste F.Mask))
  (pad AH11 smd circle (at -6.5 10.5) (size 0.5 0.5) (layers F.Cu F.Paste F.Mask))
  (pad AH12 smd circle (at -5.5 10.5) (size 0.5 0.5) (layers F.Cu F.Paste F.Mask))
  (pad AH13 smd circle (at -4.5 10.5) (size 0.5 0.5) (layers F.Cu F.Paste F.Mask))
  (pad AH14 smd circle (at -3.5 10.5) (size 0.5 0.5) (layers F.Cu F.Paste F.Mask))
  (pad AH15 smd circle (at -2.5 10.5) (size 0.5 0.5) (layers F.Cu F.Paste F.Mask))
  (pad AH16 smd circle (at -1.5 10.5) (size 0.5 0.5) (layers F.Cu F.Paste F.Mask))
  (pad AH17 smd circle (at -0.5 10.5) (size 0.5 0.5) (layers F.Cu F.Paste F.Mask))
  (pad AH18 smd circle (at 0.5 10.5) (size 0.5 0.5) (layers F.Cu F.Paste F.Mask))
  (pad AH19 smd circle (at 1.5 10.5) (size 0.5 0.5) (layers F.Cu F.Paste F.Mask))
  (pad AH20 smd circle (at 2.5 10.5) (size 0.5 0.5) (layers F.Cu F.Paste F.Mask))
  (pad AH21 smd circle (at 3.5 10.5) (size 0.5 0.5) (layers F.Cu F.Paste F.Mask))
  (pad AH22 smd circle (at 4.5 10.5) (size 0.5 0.5) (layers F.Cu F.Paste F.Mask))
  (pad AH23 smd circle (at 5.5 10.5) (size 0.5 0.5) (layers F.Cu F.Paste F.Mask))
  (pad AH24 smd circle (at 6.5 10.5) (size 0.5 0.5) (layers F.Cu F.Paste F.Mask))
  (pad AH25 smd circle (at 7.5 10.5) (size 0.5 0.5) (layers F.Cu F.Paste F.Mask))
  (pad AH26 smd circle (at 8.5 10.5) (size 0.5 0.5) (layers F.Cu F.Paste F.Mask))
  (pad AH27 smd circle (at 9.5 10.5) (size 0.5 0.5) (layers F.Cu F.Paste F.Mask))
  (pad AH28 smd circle (at 10.5 10.5) (size 0.5 0.5) (layers F.Cu F.Paste F.Mask))
  (pad AH29 smd circle (at 11.5 10.5) (size 0.5 0.5) (layers F.Cu F.Paste F.Mask))
  (pad AH30 smd circle (at 12.5 10.5) (size 0.5 0.5) (layers F.Cu F.Paste F.Mask))
  (pad AH31 smd circle (at 13.5 10.5) (size 0.5 0.5) (layers F.Cu F.Paste F.Mask))
  (pad AH32 smd circle (at 14.5 10.5) (size 0.5 0.5) (layers F.Cu F.Paste F.Mask))
  (pad AJ1 smd circle (at -16.5 11.5) (size 0.5 0.5) (layers F.Cu F.Paste F.Mask))
  (pad AJ2 smd circle (at -15.5 11.5) (size 0.5 0.5) (layers F.Cu F.Paste F.Mask))
  (pad AJ3 smd circle (at -14.5 11.5) (size 0.5 0.5) (layers F.Cu F.Paste F.Mask))
  (pad AJ4 smd circle (at -13.5 11.5) (size 0.5 0.5) (layers F.Cu F.Paste F.Mask))
  (pad AJ5 smd circle (at -12.5 11.5) (size 0.5 0.5) (layers F.Cu F.Paste F.Mask))
  (pad AJ6 smd circle (at -11.5 11.5) (size 0.5 0.5) (layers F.Cu F.Paste F.Mask))
  (pad AJ7 smd circle (at -10.5 11.5) (size 0.5 0.5) (layers F.Cu F.Paste F.Mask))
  (pad AJ8 smd circle (at -9.5 11.5) (size 0.5 0.5) (layers F.Cu F.Paste F.Mask))
  (pad AJ9 smd circle (at -8.5 11.5) (size 0.5 0.5) (layers F.Cu F.Paste F.Mask))
  (pad AJ10 smd circle (at -7.5 11.5) (size 0.5 0.5) (layers F.Cu F.Paste F.Mask))
  (pad AJ11 smd circle (at -6.5 11.5) (size 0.5 0.5) (layers F.Cu F.Paste F.Mask))
  (pad AJ12 smd circle (at -5.5 11.5) (size 0.5 0.5) (layers F.Cu F.Paste F.Mask))
  (pad AJ13 smd circle (at -4.5 11.5) (size 0.5 0.5) (layers F.Cu F.Paste F.Mask))
  (pad AJ14 smd circle (at -3.5 11.5) (size 0.5 0.5) (layers F.Cu F.Paste F.Mask))
  (pad AJ15 smd circle (at -2.5 11.5) (size 0.5 0.5) (layers F.Cu F.Paste F.Mask))
  (pad AJ16 smd circle (at -1.5 11.5) (size 0.5 0.5) (layers F.Cu F.Paste F.Mask))
  (pad AJ17 smd circle (at -0.5 11.5) (size 0.5 0.5) (layers F.Cu F.Paste F.Mask))
  (pad AJ18 smd circle (at 0.5 11.5) (size 0.5 0.5) (layers F.Cu F.Paste F.Mask))
  (pad AJ19 smd circle (at 1.5 11.5) (size 0.5 0.5) (layers F.Cu F.Paste F.Mask))
  (pad AJ20 smd circle (at 2.5 11.5) (size 0.5 0.5) (layers F.Cu F.Paste F.Mask))
  (pad AJ21 smd circle (at 3.5 11.5) (size 0.5 0.5) (layers F.Cu F.Paste F.Mask))
  (pad AJ22 smd circle (at 4.5 11.5) (size 0.5 0.5) (layers F.Cu F.Paste F.Mask))
  (pad AJ23 smd circle (at 5.5 11.5) (size 0.5 0.5) (layers F.Cu F.Paste F.Mask))
  (pad AJ24 smd circle (at 6.5 11.5) (size 0.5 0.5) (layers F.Cu F.Paste F.Mask))
  (pad AJ25 smd circle (at 7.5 11.5) (size 0.5 0.5) (layers F.Cu F.Paste F.Mask))
  (pad AJ26 smd circle (at 8.5 11.5) (size 0.5 0.5) (layers F.Cu F.Paste F.Mask))
  (pad AJ27 smd circle (at 9.5 11.5) (size 0.5 0.5) (layers F.Cu F.Paste F.Mask))
  (pad AJ28 smd circle (at 10.5 11.5) (size 0.5 0.5) (layers F.Cu F.Paste F.Mask))
  (pad AJ29 smd circle (at 11.5 11.5) (size 0.5 0.5) (layers F.Cu F.Paste F.Mask))
  (pad AJ30 smd circle (at 12.5 11.5) (size 0.5 0.5) (layers F.Cu F.Paste F.Mask))
  (pad AJ31 smd circle (at 13.5 11.5) (size 0.5 0.5) (layers F.Cu F.Paste F.Mask))
  (pad AJ32 smd circle (at 14.5 11.5) (size 0.5 0.5) (layers F.Cu F.Paste F.Mask))
  (pad AK1 smd circle (at -16.5 12.5) (size 0.5 0.5) (layers F.Cu F.Paste F.Mask))
  (pad AK2 smd circle (at -15.5 12.5) (size 0.5 0.5) (layers F.Cu F.Paste F.Mask))
  (pad AK3 smd circle (at -14.5 12.5) (size 0.5 0.5) (layers F.Cu F.Paste F.Mask))
  (pad AK4 smd circle (at -13.5 12.5) (size 0.5 0.5) (layers F.Cu F.Paste F.Mask))
  (pad AK5 smd circle (at -12.5 12.5) (size 0.5 0.5) (layers F.Cu F.Paste F.Mask))
  (pad AK6 smd circle (at -11.5 12.5) (size 0.5 0.5) (layers F.Cu F.Paste F.Mask))
  (pad AK7 smd circle (at -10.5 12.5) (size 0.5 0.5) (layers F.Cu F.Paste F.Mask))
  (pad AK8 smd circle (at -9.5 12.5) (size 0.5 0.5) (layers F.Cu F.Paste F.Mask))
  (pad AK9 smd circle (at -8.5 12.5) (size 0.5 0.5) (layers F.Cu F.Paste F.Mask))
  (pad AK10 smd circle (at -7.5 12.5) (size 0.5 0.5) (layers F.Cu F.Paste F.Mask))
  (pad AK11 smd circle (at -6.5 12.5) (size 0.5 0.5) (layers F.Cu F.Paste F.Mask))
  (pad AK12 smd circle (at -5.5 12.5) (size 0.5 0.5) (layers F.Cu F.Paste F.Mask))
  (pad AK13 smd circle (at -4.5 12.5) (size 0.5 0.5) (layers F.Cu F.Paste F.Mask))
  (pad AK14 smd circle (at -3.5 12.5) (size 0.5 0.5) (layers F.Cu F.Paste F.Mask))
  (pad AK15 smd circle (at -2.5 12.5) (size 0.5 0.5) (layers F.Cu F.Paste F.Mask))
  (pad AK16 smd circle (at -1.5 12.5) (size 0.5 0.5) (layers F.Cu F.Paste F.Mask))
  (pad AK17 smd circle (at -0.5 12.5) (size 0.5 0.5) (layers F.Cu F.Paste F.Mask))
  (pad AK18 smd circle (at 0.5 12.5) (size 0.5 0.5) (layers F.Cu F.Paste F.Mask))
  (pad AK19 smd circle (at 1.5 12.5) (size 0.5 0.5) (layers F.Cu F.Paste F.Mask))
  (pad AK20 smd circle (at 2.5 12.5) (size 0.5 0.5) (layers F.Cu F.Paste F.Mask))
  (pad AK21 smd circle (at 3.5 12.5) (size 0.5 0.5) (layers F.Cu F.Paste F.Mask))
  (pad AK22 smd circle (at 4.5 12.5) (size 0.5 0.5) (layers F.Cu F.Paste F.Mask))
  (pad AK23 smd circle (at 5.5 12.5) (size 0.5 0.5) (layers F.Cu F.Paste F.Mask))
  (pad AK24 smd circle (at 6.5 12.5) (size 0.5 0.5) (layers F.Cu F.Paste F.Mask))
  (pad AK25 smd circle (at 7.5 12.5) (size 0.5 0.5) (layers F.Cu F.Paste F.Mask))
  (pad AK26 smd circle (at 8.5 12.5) (size 0.5 0.5) (layers F.Cu F.Paste F.Mask))
  (pad AK27 smd circle (at 9.5 12.5) (size 0.5 0.5) (layers F.Cu F.Paste F.Mask))
  (pad AK28 smd circle (at 10.5 12.5) (size 0.5 0.5) (layers F.Cu F.Paste F.Mask))
  (pad AK29 smd circle (at 11.5 12.5) (size 0.5 0.5) (layers F.Cu F.Paste F.Mask))
  (pad AK30 smd circle (at 12.5 12.5) (size 0.5 0.5) (layers F.Cu F.Paste F.Mask))
  (pad AK31 smd circle (at 13.5 12.5) (size 0.5 0.5) (layers F.Cu F.Paste F.Mask))
  (pad AK32 smd circle (at 14.5 12.5) (size 0.5 0.5) (layers F.Cu F.Paste F.Mask))
  (pad AL1 smd circle (at -16.5 13.5) (size 0.5 0.5) (layers F.Cu F.Paste F.Mask))
  (pad AL2 smd circle (at -15.5 13.5) (size 0.5 0.5) (layers F.Cu F.Paste F.Mask))
  (pad AL3 smd circle (at -14.5 13.5) (size 0.5 0.5) (layers F.Cu F.Paste F.Mask))
  (pad AL4 smd circle (at -13.5 13.5) (size 0.5 0.5) (layers F.Cu F.Paste F.Mask))
  (pad AL5 smd circle (at -12.5 13.5) (size 0.5 0.5) (layers F.Cu F.Paste F.Mask))
  (pad AL6 smd circle (at -11.5 13.5) (size 0.5 0.5) (layers F.Cu F.Paste F.Mask))
  (pad AL7 smd circle (at -10.5 13.5) (size 0.5 0.5) (layers F.Cu F.Paste F.Mask))
  (pad AL8 smd circle (at -9.5 13.5) (size 0.5 0.5) (layers F.Cu F.Paste F.Mask))
  (pad AL9 smd circle (at -8.5 13.5) (size 0.5 0.5) (layers F.Cu F.Paste F.Mask))
  (pad AL10 smd circle (at -7.5 13.5) (size 0.5 0.5) (layers F.Cu F.Paste F.Mask))
  (pad AL11 smd circle (at -6.5 13.5) (size 0.5 0.5) (layers F.Cu F.Paste F.Mask))
  (pad AL12 smd circle (at -5.5 13.5) (size 0.5 0.5) (layers F.Cu F.Paste F.Mask))
  (pad AL13 smd circle (at -4.5 13.5) (size 0.5 0.5) (layers F.Cu F.Paste F.Mask))
  (pad AL14 smd circle (at -3.5 13.5) (size 0.5 0.5) (layers F.Cu F.Paste F.Mask))
  (pad AL15 smd circle (at -2.5 13.5) (size 0.5 0.5) (layers F.Cu F.Paste F.Mask))
  (pad AL16 smd circle (at -1.5 13.5) (size 0.5 0.5) (layers F.Cu F.Paste F.Mask))
  (pad AL17 smd circle (at -0.5 13.5) (size 0.5 0.5) (layers F.Cu F.Paste F.Mask))
  (pad AL18 smd circle (at 0.5 13.5) (size 0.5 0.5) (layers F.Cu F.Paste F.Mask))
  (pad AL19 smd circle (at 1.5 13.5) (size 0.5 0.5) (layers F.Cu F.Paste F.Mask))
  (pad AL20 smd circle (at 2.5 13.5) (size 0.5 0.5) (layers F.Cu F.Paste F.Mask))
  (pad AL21 smd circle (at 3.5 13.5) (size 0.5 0.5) (layers F.Cu F.Paste F.Mask))
  (pad AL22 smd circle (at 4.5 13.5) (size 0.5 0.5) (layers F.Cu F.Paste F.Mask))
  (pad AL23 smd circle (at 5.5 13.5) (size 0.5 0.5) (layers F.Cu F.Paste F.Mask))
  (pad AL24 smd circle (at 6.5 13.5) (size 0.5 0.5) (layers F.Cu F.Paste F.Mask))
  (pad AL25 smd circle (at 7.5 13.5) (size 0.5 0.5) (layers F.Cu F.Paste F.Mask))
  (pad AL26 smd circle (at 8.5 13.5) (size 0.5 0.5) (layers F.Cu F.Paste F.Mask))
  (pad AL27 smd circle (at 9.5 13.5) (size 0.5 0.5) (layers F.Cu F.Paste F.Mask))
  (pad AL28 smd circle (at 10.5 13.5) (size 0.5 0.5) (layers F.Cu F.Paste F.Mask))
  (pad AL29 smd circle (at 11.5 13.5) (size 0.5 0.5) (layers F.Cu F.Paste F.Mask))
  (pad AL30 smd circle (at 12.5 13.5) (size 0.5 0.5) (layers F.Cu F.Paste F.Mask))
  (pad AL31 smd circle (at 13.5 13.5) (size 0.5 0.5) (layers F.Cu F.Paste F.Mask))
  (pad AL32 smd circle (at 14.5 13.5) (size 0.5 0.5) (layers F.Cu F.Paste F.Mask))
  (pad AM1 smd circle (at -16.5 14.5) (size 0.5 0.5) (layers F.Cu F.Paste F.Mask))
  (pad AM2 smd circle (at -15.5 14.5) (size 0.5 0.5) (layers F.Cu F.Paste F.Mask))
  (pad AM3 smd circle (at -14.5 14.5) (size 0.5 0.5) (layers F.Cu F.Paste F.Mask))
  (pad AM4 smd circle (at -13.5 14.5) (size 0.5 0.5) (layers F.Cu F.Paste F.Mask))
  (pad AM5 smd circle (at -12.5 14.5) (size 0.5 0.5) (layers F.Cu F.Paste F.Mask))
  (pad AM6 smd circle (at -11.5 14.5) (size 0.5 0.5) (layers F.Cu F.Paste F.Mask))
  (pad AM7 smd circle (at -10.5 14.5) (size 0.5 0.5) (layers F.Cu F.Paste F.Mask))
  (pad AM8 smd circle (at -9.5 14.5) (size 0.5 0.5) (layers F.Cu F.Paste F.Mask))
  (pad AM9 smd circle (at -8.5 14.5) (size 0.5 0.5) (layers F.Cu F.Paste F.Mask))
  (pad AM10 smd circle (at -7.5 14.5) (size 0.5 0.5) (layers F.Cu F.Paste F.Mask))
  (pad AM11 smd circle (at -6.5 14.5) (size 0.5 0.5) (layers F.Cu F.Paste F.Mask))
  (pad AM12 smd circle (at -5.5 14.5) (size 0.5 0.5) (layers F.Cu F.Paste F.Mask))
  (pad AM13 smd circle (at -4.5 14.5) (size 0.5 0.5) (layers F.Cu F.Paste F.Mask))
  (pad AM14 smd circle (at -3.5 14.5) (size 0.5 0.5) (layers F.Cu F.Paste F.Mask))
  (pad AM15 smd circle (at -2.5 14.5) (size 0.5 0.5) (layers F.Cu F.Paste F.Mask))
  (pad AM16 smd circle (at -1.5 14.5) (size 0.5 0.5) (layers F.Cu F.Paste F.Mask))
  (pad AM17 smd circle (at -0.5 14.5) (size 0.5 0.5) (layers F.Cu F.Paste F.Mask))
  (pad AM18 smd circle (at 0.5 14.5) (size 0.5 0.5) (layers F.Cu F.Paste F.Mask))
  (pad AM19 smd circle (at 1.5 14.5) (size 0.5 0.5) (layers F.Cu F.Paste F.Mask))
  (pad AM20 smd circle (at 2.5 14.5) (size 0.5 0.5) (layers F.Cu F.Paste F.Mask))
  (pad AM21 smd circle (at 3.5 14.5) (size 0.5 0.5) (layers F.Cu F.Paste F.Mask))
  (pad AM22 smd circle (at 4.5 14.5) (size 0.5 0.5) (layers F.Cu F.Paste F.Mask))
  (pad AM23 smd circle (at 5.5 14.5) (size 0.5 0.5) (layers F.Cu F.Paste F.Mask))
  (pad AM24 smd circle (at 6.5 14.5) (size 0.5 0.5) (layers F.Cu F.Paste F.Mask))
  (pad AM25 smd circle (at 7.5 14.5) (size 0.5 0.5) (layers F.Cu F.Paste F.Mask))
  (pad AM26 smd circle (at 8.5 14.5) (size 0.5 0.5) (layers F.Cu F.Paste F.Mask))
  (pad AM27 smd circle (at 9.5 14.5) (size 0.5 0.5) (layers F.Cu F.Paste F.Mask))
  (pad AM28 smd circle (at 10.5 14.5) (size 0.5 0.5) (layers F.Cu F.Paste F.Mask))
  (pad AM29 smd circle (at 11.5 14.5) (size 0.5 0.5) (layers F.Cu F.Paste F.Mask))
  (pad AM30 smd circle (at 12.5 14.5) (size 0.5 0.5) (layers F.Cu F.Paste F.Mask))
  (pad AM31 smd circle (at 13.5 14.5) (size 0.5 0.5) (layers F.Cu F.Paste F.Mask))
  (pad AM32 smd circle (at 14.5 14.5) (size 0.5 0.5) (layers F.Cu F.Paste F.Mask))
  (pad A33 smd circle (at 15.5 -16.5) (size 0.5 0.5) (layers F.Cu F.Paste F.Mask))
  (pad A34 smd circle (at 16.5 -16.5) (size 0.5 0.5) (layers F.Cu F.Paste F.Mask))
  (pad B33 smd circle (at 15.5 -15.5) (size 0.5 0.5) (layers F.Cu F.Paste F.Mask))
  (pad B34 smd circle (at 16.5 -15.5) (size 0.5 0.5) (layers F.Cu F.Paste F.Mask))
  (pad C33 smd circle (at 15.5 -14.5) (size 0.5 0.5) (layers F.Cu F.Paste F.Mask))
  (pad C34 smd circle (at 16.5 -14.5) (size 0.5 0.5) (layers F.Cu F.Paste F.Mask))
  (pad D33 smd circle (at 15.5 -13.5) (size 0.5 0.5) (layers F.Cu F.Paste F.Mask))
  (pad D34 smd circle (at 16.5 -13.5) (size 0.5 0.5) (layers F.Cu F.Paste F.Mask))
  (pad E33 smd circle (at 15.5 -12.5) (size 0.5 0.5) (layers F.Cu F.Paste F.Mask))
  (pad E34 smd circle (at 16.5 -12.5) (size 0.5 0.5) (layers F.Cu F.Paste F.Mask))
  (pad F33 smd circle (at 15.5 -11.5) (size 0.5 0.5) (layers F.Cu F.Paste F.Mask))
  (pad F34 smd circle (at 16.5 -11.5) (size 0.5 0.5) (layers F.Cu F.Paste F.Mask))
  (pad G33 smd circle (at 15.5 -10.5) (size 0.5 0.5) (layers F.Cu F.Paste F.Mask))
  (pad G34 smd circle (at 16.5 -10.5) (size 0.5 0.5) (layers F.Cu F.Paste F.Mask))
  (pad H33 smd circle (at 15.5 -9.5) (size 0.5 0.5) (layers F.Cu F.Paste F.Mask))
  (pad H34 smd circle (at 16.5 -9.5) (size 0.5 0.5) (layers F.Cu F.Paste F.Mask))
  (pad J33 smd circle (at 15.5 -8.5) (size 0.5 0.5) (layers F.Cu F.Paste F.Mask))
  (pad J34 smd circle (at 16.5 -8.5) (size 0.5 0.5) (layers F.Cu F.Paste F.Mask))
  (pad K33 smd circle (at 15.5 -7.5) (size 0.5 0.5) (layers F.Cu F.Paste F.Mask))
  (pad K34 smd circle (at 16.5 -7.5) (size 0.5 0.5) (layers F.Cu F.Paste F.Mask))
  (pad L33 smd circle (at 15.5 -6.5) (size 0.5 0.5) (layers F.Cu F.Paste F.Mask))
  (pad L34 smd circle (at 16.5 -6.5) (size 0.5 0.5) (layers F.Cu F.Paste F.Mask))
  (pad M33 smd circle (at 15.5 -5.5) (size 0.5 0.5) (layers F.Cu F.Paste F.Mask))
  (pad M34 smd circle (at 16.5 -5.5) (size 0.5 0.5) (layers F.Cu F.Paste F.Mask))
  (pad N33 smd circle (at 15.5 -4.5) (size 0.5 0.5) (layers F.Cu F.Paste F.Mask))
  (pad N34 smd circle (at 16.5 -4.5) (size 0.5 0.5) (layers F.Cu F.Paste F.Mask))
  (pad P33 smd circle (at 15.5 -3.5) (size 0.5 0.5) (layers F.Cu F.Paste F.Mask))
  (pad P34 smd circle (at 16.5 -3.5) (size 0.5 0.5) (layers F.Cu F.Paste F.Mask))
  (pad R33 smd circle (at 15.5 -2.5) (size 0.5 0.5) (layers F.Cu F.Paste F.Mask))
  (pad R34 smd circle (at 16.5 -2.5) (size 0.5 0.5) (layers F.Cu F.Paste F.Mask))
  (pad T33 smd circle (at 15.5 -1.5) (size 0.5 0.5) (layers F.Cu F.Paste F.Mask))
  (pad T34 smd circle (at 16.5 -1.5) (size 0.5 0.5) (layers F.Cu F.Paste F.Mask))
  (pad U33 smd circle (at 15.5 -0.5) (size 0.5 0.5) (layers F.Cu F.Paste F.Mask))
  (pad U34 smd circle (at 16.5 -0.5) (size 0.5 0.5) (layers F.Cu F.Paste F.Mask))
  (pad V33 smd circle (at 15.5 0.5) (size 0.5 0.5) (layers F.Cu F.Paste F.Mask))
  (pad V34 smd circle (at 16.5 0.5) (size 0.5 0.5) (layers F.Cu F.Paste F.Mask))
  (pad W33 smd circle (at 15.5 1.5) (size 0.5 0.5) (layers F.Cu F.Paste F.Mask))
  (pad W34 smd circle (at 16.5 1.5) (size 0.5 0.5) (layers F.Cu F.Paste F.Mask))
  (pad Y33 smd circle (at 15.5 2.5) (size 0.5 0.5) (layers F.Cu F.Paste F.Mask))
  (pad Y34 smd circle (at 16.5 2.5) (size 0.5 0.5) (layers F.Cu F.Paste F.Mask))
  (pad AA33 smd circle (at 15.5 3.5) (size 0.5 0.5) (layers F.Cu F.Paste F.Mask))
  (pad AA34 smd circle (at 16.5 3.5) (size 0.5 0.5) (layers F.Cu F.Paste F.Mask))
  (pad AB33 smd circle (at 15.5 4.5) (size 0.5 0.5) (layers F.Cu F.Paste F.Mask))
  (pad AB34 smd circle (at 16.5 4.5) (size 0.5 0.5) (layers F.Cu F.Paste F.Mask))
  (pad AC33 smd circle (at 15.5 5.5) (size 0.5 0.5) (layers F.Cu F.Paste F.Mask))
  (pad AC34 smd circle (at 16.5 5.5) (size 0.5 0.5) (layers F.Cu F.Paste F.Mask))
  (pad AD33 smd circle (at 15.5 6.5) (size 0.5 0.5) (layers F.Cu F.Paste F.Mask))
  (pad AD34 smd circle (at 16.5 6.5) (size 0.5 0.5) (layers F.Cu F.Paste F.Mask))
  (pad AE33 smd circle (at 15.5 7.5) (size 0.5 0.5) (layers F.Cu F.Paste F.Mask))
  (pad AE34 smd circle (at 16.5 7.5) (size 0.5 0.5) (layers F.Cu F.Paste F.Mask))
  (pad AF33 smd circle (at 15.5 8.5) (size 0.5 0.5) (layers F.Cu F.Paste F.Mask))
  (pad AF34 smd circle (at 16.5 8.5) (size 0.5 0.5) (layers F.Cu F.Paste F.Mask))
  (pad AG33 smd circle (at 15.5 9.5) (size 0.5 0.5) (layers F.Cu F.Paste F.Mask))
  (pad AG34 smd circle (at 16.5 9.5) (size 0.5 0.5) (layers F.Cu F.Paste F.Mask))
  (pad AH33 smd circle (at 15.5 10.5) (size 0.5 0.5) (layers F.Cu F.Paste F.Mask))
  (pad AH34 smd circle (at 16.5 10.5) (size 0.5 0.5) (layers F.Cu F.Paste F.Mask))
  (pad AJ33 smd circle (at 15.5 11.5) (size 0.5 0.5) (layers F.Cu F.Paste F.Mask))
  (pad AJ34 smd circle (at 16.5 11.5) (size 0.5 0.5) (layers F.Cu F.Paste F.Mask))
  (pad AK33 smd circle (at 15.5 12.5) (size 0.5 0.5) (layers F.Cu F.Paste F.Mask))
  (pad AK34 smd circle (at 16.5 12.5) (size 0.5 0.5) (layers F.Cu F.Paste F.Mask))
  (pad AL33 smd circle (at 15.5 13.5) (size 0.5 0.5) (layers F.Cu F.Paste F.Mask))
  (pad AL34 smd circle (at 16.5 13.5) (size 0.5 0.5) (layers F.Cu F.Paste F.Mask))
  (pad AM33 smd circle (at 15.5 14.5) (size 0.5 0.5) (layers F.Cu F.Paste F.Mask))
  (pad AM34 smd circle (at 16.5 14.5) (size 0.5 0.5) (layers F.Cu F.Paste F.Mask))
  (pad AN1 smd circle (at -16.5 15.5) (size 0.5 0.5) (layers F.Cu F.Paste F.Mask))
  (pad AN2 smd circle (at -15.5 15.5) (size 0.5 0.5) (layers F.Cu F.Paste F.Mask))
  (pad AN3 smd circle (at -14.5 15.5) (size 0.5 0.5) (layers F.Cu F.Paste F.Mask))
  (pad AN4 smd circle (at -13.5 15.5) (size 0.5 0.5) (layers F.Cu F.Paste F.Mask))
  (pad AN5 smd circle (at -12.5 15.5) (size 0.5 0.5) (layers F.Cu F.Paste F.Mask))
  (pad AN6 smd circle (at -11.5 15.5) (size 0.5 0.5) (layers F.Cu F.Paste F.Mask))
  (pad AN7 smd circle (at -10.5 15.5) (size 0.5 0.5) (layers F.Cu F.Paste F.Mask))
  (pad AN8 smd circle (at -9.5 15.5) (size 0.5 0.5) (layers F.Cu F.Paste F.Mask))
  (pad AN9 smd circle (at -8.5 15.5) (size 0.5 0.5) (layers F.Cu F.Paste F.Mask))
  (pad AN10 smd circle (at -7.5 15.5) (size 0.5 0.5) (layers F.Cu F.Paste F.Mask))
  (pad AN11 smd circle (at -6.5 15.5) (size 0.5 0.5) (layers F.Cu F.Paste F.Mask))
  (pad AN12 smd circle (at -5.5 15.5) (size 0.5 0.5) (layers F.Cu F.Paste F.Mask))
  (pad AN13 smd circle (at -4.5 15.5) (size 0.5 0.5) (layers F.Cu F.Paste F.Mask))
  (pad AN14 smd circle (at -3.5 15.5) (size 0.5 0.5) (layers F.Cu F.Paste F.Mask))
  (pad AN15 smd circle (at -2.5 15.5) (size 0.5 0.5) (layers F.Cu F.Paste F.Mask))
  (pad AN16 smd circle (at -1.5 15.5) (size 0.5 0.5) (layers F.Cu F.Paste F.Mask))
  (pad AN17 smd circle (at -0.5 15.5) (size 0.5 0.5) (layers F.Cu F.Paste F.Mask))
  (pad AN18 smd circle (at 0.5 15.5) (size 0.5 0.5) (layers F.Cu F.Paste F.Mask))
  (pad AN19 smd circle (at 1.5 15.5) (size 0.5 0.5) (layers F.Cu F.Paste F.Mask))
  (pad AN20 smd circle (at 2.5 15.5) (size 0.5 0.5) (layers F.Cu F.Paste F.Mask))
  (pad AN21 smd circle (at 3.5 15.5) (size 0.5 0.5) (layers F.Cu F.Paste F.Mask))
  (pad AN22 smd circle (at 4.5 15.5) (size 0.5 0.5) (layers F.Cu F.Paste F.Mask))
  (pad AN23 smd circle (at 5.5 15.5) (size 0.5 0.5) (layers F.Cu F.Paste F.Mask))
  (pad AN24 smd circle (at 6.5 15.5) (size 0.5 0.5) (layers F.Cu F.Paste F.Mask))
  (pad AN25 smd circle (at 7.5 15.5) (size 0.5 0.5) (layers F.Cu F.Paste F.Mask))
  (pad AN26 smd circle (at 8.5 15.5) (size 0.5 0.5) (layers F.Cu F.Paste F.Mask))
  (pad AN27 smd circle (at 9.5 15.5) (size 0.5 0.5) (layers F.Cu F.Paste F.Mask))
  (pad AN28 smd circle (at 10.5 15.5) (size 0.5 0.5) (layers F.Cu F.Paste F.Mask))
  (pad AN29 smd circle (at 11.5 15.5) (size 0.5 0.5) (layers F.Cu F.Paste F.Mask))
  (pad AN30 smd circle (at 12.5 15.5) (size 0.5 0.5) (layers F.Cu F.Paste F.Mask))
  (pad AN31 smd circle (at 13.5 15.5) (size 0.5 0.5) (layers F.Cu F.Paste F.Mask))
  (pad AN32 smd circle (at 14.5 15.5) (size 0.5 0.5) (layers F.Cu F.Paste F.Mask))
  (pad AN33 smd circle (at 15.5 15.5) (size 0.5 0.5) (layers F.Cu F.Paste F.Mask))
  (pad AN34 smd circle (at 16.5 15.5) (size 0.5 0.5) (layers F.Cu F.Paste F.Mask))
  (pad AP1 smd circle (at -16.5 16.5) (size 0.5 0.5) (layers F.Cu F.Paste F.Mask))
  (pad AP2 smd circle (at -15.5 16.5) (size 0.5 0.5) (layers F.Cu F.Paste F.Mask))
  (pad AP3 smd circle (at -14.5 16.5) (size 0.5 0.5) (layers F.Cu F.Paste F.Mask))
  (pad AP4 smd circle (at -13.5 16.5) (size 0.5 0.5) (layers F.Cu F.Paste F.Mask))
  (pad AP5 smd circle (at -12.5 16.5) (size 0.5 0.5) (layers F.Cu F.Paste F.Mask))
  (pad AP6 smd circle (at -11.5 16.5) (size 0.5 0.5) (layers F.Cu F.Paste F.Mask))
  (pad AP7 smd circle (at -10.5 16.5) (size 0.5 0.5) (layers F.Cu F.Paste F.Mask))
  (pad AP8 smd circle (at -9.5 16.5) (size 0.5 0.5) (layers F.Cu F.Paste F.Mask))
  (pad AP9 smd circle (at -8.5 16.5) (size 0.5 0.5) (layers F.Cu F.Paste F.Mask))
  (pad AP10 smd circle (at -7.5 16.5) (size 0.5 0.5) (layers F.Cu F.Paste F.Mask))
  (pad AP11 smd circle (at -6.5 16.5) (size 0.5 0.5) (layers F.Cu F.Paste F.Mask))
  (pad AP12 smd circle (at -5.5 16.5) (size 0.5 0.5) (layers F.Cu F.Paste F.Mask))
  (pad AP13 smd circle (at -4.5 16.5) (size 0.5 0.5) (layers F.Cu F.Paste F.Mask))
  (pad AP14 smd circle (at -3.5 16.5) (size 0.5 0.5) (layers F.Cu F.Paste F.Mask))
  (pad AP15 smd circle (at -2.5 16.5) (size 0.5 0.5) (layers F.Cu F.Paste F.Mask))
  (pad AP16 smd circle (at -1.5 16.5) (size 0.5 0.5) (layers F.Cu F.Paste F.Mask))
  (pad AP17 smd circle (at -0.5 16.5) (size 0.5 0.5) (layers F.Cu F.Paste F.Mask))
  (pad AP18 smd circle (at 0.5 16.5) (size 0.5 0.5) (layers F.Cu F.Paste F.Mask))
  (pad AP19 smd circle (at 1.5 16.5) (size 0.5 0.5) (layers F.Cu F.Paste F.Mask))
  (pad AP20 smd circle (at 2.5 16.5) (size 0.5 0.5) (layers F.Cu F.Paste F.Mask))
  (pad AP21 smd circle (at 3.5 16.5) (size 0.5 0.5) (layers F.Cu F.Paste F.Mask))
  (pad AP22 smd circle (at 4.5 16.5) (size 0.5 0.5) (layers F.Cu F.Paste F.Mask))
  (pad AP23 smd circle (at 5.5 16.5) (size 0.5 0.5) (layers F.Cu F.Paste F.Mask))
  (pad AP24 smd circle (at 6.5 16.5) (size 0.5 0.5) (layers F.Cu F.Paste F.Mask))
  (pad AP25 smd circle (at 7.5 16.5) (size 0.5 0.5) (layers F.Cu F.Paste F.Mask))
  (pad AP26 smd circle (at 8.5 16.5) (size 0.5 0.5) (layers F.Cu F.Paste F.Mask))
  (pad AP27 smd circle (at 9.5 16.5) (size 0.5 0.5) (layers F.Cu F.Paste F.Mask))
  (pad AP28 smd circle (at 10.5 16.5) (size 0.5 0.5) (layers F.Cu F.Paste F.Mask))
  (pad AP29 smd circle (at 11.5 16.5) (size 0.5 0.5) (layers F.Cu F.Paste F.Mask))
  (pad AP30 smd circle (at 12.5 16.5) (size 0.5 0.5) (layers F.Cu F.Paste F.Mask))
  (pad AP31 smd circle (at 13.5 16.5) (size 0.5 0.5) (layers F.Cu F.Paste F.Mask))
  (pad AP32 smd circle (at 14.5 16.5) (size 0.5 0.5) (layers F.Cu F.Paste F.Mask))
  (pad AP33 smd circle (at 15.5 16.5) (size 0.5 0.5) (layers F.Cu F.Paste F.Mask))
  (pad AP34 smd circle (at 16.5 16.5) (size 0.5 0.5) (layers F.Cu F.Paste F.Mask))
  (pad A1 smd circle (at -16.5 -16.5) (size 0.5 0.5) (layers F.Cu F.Paste F.Mask))
  (model ${KICAD6_3DMODEL_DIR}/Package_BGA.3dshapes/BGA-1156_35.0x35.0mm_Layout34x34_P1.0mm.wrl
    (at (xyz 0 0 0))
    (scale (xyz 1 1 1))
    (rotate (xyz 0 0 0))
  )
)
