(module Infineon_LFBGA-292_17x17mm_Layout20x20_P0.8mm_Ball0.5mm_Pad0.35 (layer F.Cu) (tedit 5F740F0C)
  (descr "Infineon LFBGA-292, 0.35mm pad, 17.0x17.0mm, 292 Ball, 20x20 Layout, 0.8mm Pitch, https://www.infineon.com/cms/en/product/packages/PG-LFBGA/PG-LFBGA-292-11/")
  (tags "BGA 292 0.8")
  (attr smd)
  (fp_text reference REF** (at 0 -9.5) (layer F.SilkS)
    (effects (font (size 1 1) (thickness 0.15)))
  )
  (fp_text value Infineon_LFBGA-292_17x17mm_Layout20x20_P0.8mm_Ball0.5mm_Pad0.35 (at 0 9.5) (layer F.Fab)
    (effects (font (size 1 1) (thickness 0.15)))
  )
  (fp_line (start 8.5 8.5) (end -8.5 8.5) (layer F.Fab) (width 0.1))
  (fp_line (start -8.5 8.5) (end -8.5 -7.5) (layer F.Fab) (width 0.1))
  (fp_line (start -8.5 -7.5) (end -7.5 -8.5) (layer F.Fab) (width 0.1))
  (fp_line (start -7.5 -8.5) (end 8.5 -8.5) (layer F.Fab) (width 0.1))
  (fp_line (start 8.5 -8.5) (end 8.5 8.5) (layer F.Fab) (width 0.1))
  (fp_line (start -9.5 -9.5) (end -9.5 9.5) (layer F.CrtYd) (width 0.05))
  (fp_line (start -9.5 9.5) (end 9.5 9.5) (layer F.CrtYd) (width 0.05))
  (fp_line (start 9.5 9.5) (end 9.5 -9.5) (layer F.CrtYd) (width 0.05))
  (fp_line (start 9.5 -9.5) (end -9.5 -9.5) (layer F.CrtYd) (width 0.05))
  (fp_line (start -7.61 -8.61) (end 8.61 -8.61) (layer F.SilkS) (width 0.12))
  (fp_line (start 8.61 -8.61) (end 8.61 8.61) (layer F.SilkS) (width 0.12))
  (fp_line (start 8.61 8.61) (end -8.61 8.61) (layer F.SilkS) (width 0.12))
  (fp_line (start -8.61 8.61) (end -8.61 -7.61) (layer F.SilkS) (width 0.12))
  (pad A1 smd circle (at -7.6 -7.6) (size 0.35 0.35) (layers F.Cu F.Mask F.Paste))
  (pad A2 smd circle (at -6.8 -7.6) (size 0.35 0.35) (layers F.Cu F.Mask F.Paste))
  (pad A3 smd circle (at -6 -7.6) (size 0.35 0.35) (layers F.Cu F.Mask F.Paste))
  (pad A4 smd circle (at -5.2 -7.6) (size 0.35 0.35) (layers F.Cu F.Mask F.Paste))
  (pad A5 smd circle (at -4.4 -7.6) (size 0.35 0.35) (layers F.Cu F.Mask F.Paste))
  (pad A6 smd circle (at -3.6 -7.6) (size 0.35 0.35) (layers F.Cu F.Mask F.Paste))
  (pad A7 smd circle (at -2.8 -7.6) (size 0.35 0.35) (layers F.Cu F.Mask F.Paste))
  (pad A8 smd circle (at -2 -7.6) (size 0.35 0.35) (layers F.Cu F.Mask F.Paste))
  (pad A9 smd circle (at -1.2 -7.6) (size 0.35 0.35) (layers F.Cu F.Mask F.Paste))
  (pad A10 smd circle (at -0.4 -7.6) (size 0.35 0.35) (layers F.Cu F.Mask F.Paste))
  (pad A11 smd circle (at 0.4 -7.6) (size 0.35 0.35) (layers F.Cu F.Mask F.Paste))
  (pad A12 smd circle (at 1.2 -7.6) (size 0.35 0.35) (layers F.Cu F.Mask F.Paste))
  (pad A13 smd circle (at 2 -7.6) (size 0.35 0.35) (layers F.Cu F.Mask F.Paste))
  (pad A14 smd circle (at 2.8 -7.6) (size 0.35 0.35) (layers F.Cu F.Mask F.Paste))
  (pad A15 smd circle (at 3.6 -7.6) (size 0.35 0.35) (layers F.Cu F.Mask F.Paste))
  (pad A16 smd circle (at 4.4 -7.6) (size 0.35 0.35) (layers F.Cu F.Mask F.Paste))
  (pad A17 smd circle (at 5.2 -7.6) (size 0.35 0.35) (layers F.Cu F.Mask F.Paste))
  (pad A18 smd circle (at 6 -7.6) (size 0.35 0.35) (layers F.Cu F.Mask F.Paste))
  (pad A19 smd circle (at 6.8 -7.6) (size 0.35 0.35) (layers F.Cu F.Mask F.Paste))
  (pad A20 smd circle (at 7.6 -7.6) (size 0.35 0.35) (layers F.Cu F.Mask F.Paste))
  (pad B1 smd circle (at -7.6 -6.8) (size 0.35 0.35) (layers F.Cu F.Mask F.Paste))
  (pad B2 smd circle (at -6.8 -6.8) (size 0.35 0.35) (layers F.Cu F.Mask F.Paste))
  (pad B3 smd circle (at -6 -6.8) (size 0.35 0.35) (layers F.Cu F.Mask F.Paste))
  (pad B4 smd circle (at -5.2 -6.8) (size 0.35 0.35) (layers F.Cu F.Mask F.Paste))
  (pad B5 smd circle (at -4.4 -6.8) (size 0.35 0.35) (layers F.Cu F.Mask F.Paste))
  (pad B6 smd circle (at -3.6 -6.8) (size 0.35 0.35) (layers F.Cu F.Mask F.Paste))
  (pad B7 smd circle (at -2.8 -6.8) (size 0.35 0.35) (layers F.Cu F.Mask F.Paste))
  (pad B8 smd circle (at -2 -6.8) (size 0.35 0.35) (layers F.Cu F.Mask F.Paste))
  (pad B9 smd circle (at -1.2 -6.8) (size 0.35 0.35) (layers F.Cu F.Mask F.Paste))
  (pad B10 smd circle (at -0.4 -6.8) (size 0.35 0.35) (layers F.Cu F.Mask F.Paste))
  (pad B11 smd circle (at 0.4 -6.8) (size 0.35 0.35) (layers F.Cu F.Mask F.Paste))
  (pad B12 smd circle (at 1.2 -6.8) (size 0.35 0.35) (layers F.Cu F.Mask F.Paste))
  (pad B13 smd circle (at 2 -6.8) (size 0.35 0.35) (layers F.Cu F.Mask F.Paste))
  (pad B14 smd circle (at 2.8 -6.8) (size 0.35 0.35) (layers F.Cu F.Mask F.Paste))
  (pad B15 smd circle (at 3.6 -6.8) (size 0.35 0.35) (layers F.Cu F.Mask F.Paste))
  (pad B16 smd circle (at 4.4 -6.8) (size 0.35 0.35) (layers F.Cu F.Mask F.Paste))
  (pad B17 smd circle (at 5.2 -6.8) (size 0.35 0.35) (layers F.Cu F.Mask F.Paste))
  (pad B18 smd circle (at 6 -6.8) (size 0.35 0.35) (layers F.Cu F.Mask F.Paste))
  (pad B19 smd circle (at 6.8 -6.8) (size 0.35 0.35) (layers F.Cu F.Mask F.Paste))
  (pad B20 smd circle (at 7.6 -6.8) (size 0.35 0.35) (layers F.Cu F.Mask F.Paste))
  (pad C1 smd circle (at -7.6 -6) (size 0.35 0.35) (layers F.Cu F.Mask F.Paste))
  (pad C2 smd circle (at -6.8 -6) (size 0.35 0.35) (layers F.Cu F.Mask F.Paste))
  (pad C19 smd circle (at 6.8 -6) (size 0.35 0.35) (layers F.Cu F.Mask F.Paste))
  (pad C20 smd circle (at 7.6 -6) (size 0.35 0.35) (layers F.Cu F.Mask F.Paste))
  (pad D1 smd circle (at -7.6 -5.2) (size 0.35 0.35) (layers F.Cu F.Mask F.Paste))
  (pad D2 smd circle (at -6.8 -5.2) (size 0.35 0.35) (layers F.Cu F.Mask F.Paste))
  (pad D4 smd circle (at -5.2 -5.2) (size 0.35 0.35) (layers F.Cu F.Mask F.Paste))
  (pad D5 smd circle (at -4.4 -5.2) (size 0.35 0.35) (layers F.Cu F.Mask F.Paste))
  (pad D6 smd circle (at -3.6 -5.2) (size 0.35 0.35) (layers F.Cu F.Mask F.Paste))
  (pad D7 smd circle (at -2.8 -5.2) (size 0.35 0.35) (layers F.Cu F.Mask F.Paste))
  (pad D8 smd circle (at -2 -5.2) (size 0.35 0.35) (layers F.Cu F.Mask F.Paste))
  (pad D9 smd circle (at -1.2 -5.2) (size 0.35 0.35) (layers F.Cu F.Mask F.Paste))
  (pad D10 smd circle (at -0.4 -5.2) (size 0.35 0.35) (layers F.Cu F.Mask F.Paste))
  (pad D11 smd circle (at 0.4 -5.2) (size 0.35 0.35) (layers F.Cu F.Mask F.Paste))
  (pad D12 smd circle (at 1.2 -5.2) (size 0.35 0.35) (layers F.Cu F.Mask F.Paste))
  (pad D13 smd circle (at 2 -5.2) (size 0.35 0.35) (layers F.Cu F.Mask F.Paste))
  (pad D14 smd circle (at 2.8 -5.2) (size 0.35 0.35) (layers F.Cu F.Mask F.Paste))
  (pad D15 smd circle (at 3.6 -5.2) (size 0.35 0.35) (layers F.Cu F.Mask F.Paste))
  (pad D16 smd circle (at 4.4 -5.2) (size 0.35 0.35) (layers F.Cu F.Mask F.Paste))
  (pad D17 smd circle (at 5.2 -5.2) (size 0.35 0.35) (layers F.Cu F.Mask F.Paste))
  (pad D19 smd circle (at 6.8 -5.2) (size 0.35 0.35) (layers F.Cu F.Mask F.Paste))
  (pad D20 smd circle (at 7.6 -5.2) (size 0.35 0.35) (layers F.Cu F.Mask F.Paste))
  (pad E1 smd circle (at -7.6 -4.4) (size 0.35 0.35) (layers F.Cu F.Mask F.Paste))
  (pad E2 smd circle (at -6.8 -4.4) (size 0.35 0.35) (layers F.Cu F.Mask F.Paste))
  (pad E4 smd circle (at -5.2 -4.4) (size 0.35 0.35) (layers F.Cu F.Mask F.Paste))
  (pad E5 smd circle (at -4.4 -4.4) (size 0.35 0.35) (layers F.Cu F.Mask F.Paste))
  (pad E6 smd circle (at -3.6 -4.4) (size 0.35 0.35) (layers F.Cu F.Mask F.Paste))
  (pad E7 smd circle (at -2.8 -4.4) (size 0.35 0.35) (layers F.Cu F.Mask F.Paste))
  (pad E8 smd circle (at -2 -4.4) (size 0.35 0.35) (layers F.Cu F.Mask F.Paste))
  (pad E9 smd circle (at -1.2 -4.4) (size 0.35 0.35) (layers F.Cu F.Mask F.Paste))
  (pad E10 smd circle (at -0.4 -4.4) (size 0.35 0.35) (layers F.Cu F.Mask F.Paste))
  (pad E11 smd circle (at 0.4 -4.4) (size 0.35 0.35) (layers F.Cu F.Mask F.Paste))
  (pad E12 smd circle (at 1.2 -4.4) (size 0.35 0.35) (layers F.Cu F.Mask F.Paste))
  (pad E13 smd circle (at 2 -4.4) (size 0.35 0.35) (layers F.Cu F.Mask F.Paste))
  (pad E14 smd circle (at 2.8 -4.4) (size 0.35 0.35) (layers F.Cu F.Mask F.Paste))
  (pad E15 smd circle (at 3.6 -4.4) (size 0.35 0.35) (layers F.Cu F.Mask F.Paste))
  (pad E16 smd circle (at 4.4 -4.4) (size 0.35 0.35) (layers F.Cu F.Mask F.Paste))
  (pad E17 smd circle (at 5.2 -4.4) (size 0.35 0.35) (layers F.Cu F.Mask F.Paste))
  (pad E19 smd circle (at 6.8 -4.4) (size 0.35 0.35) (layers F.Cu F.Mask F.Paste))
  (pad E20 smd circle (at 7.6 -4.4) (size 0.35 0.35) (layers F.Cu F.Mask F.Paste))
  (pad F1 smd circle (at -7.6 -3.6) (size 0.35 0.35) (layers F.Cu F.Mask F.Paste))
  (pad F2 smd circle (at -6.8 -3.6) (size 0.35 0.35) (layers F.Cu F.Mask F.Paste))
  (pad F4 smd circle (at -5.2 -3.6) (size 0.35 0.35) (layers F.Cu F.Mask F.Paste))
  (pad F5 smd circle (at -4.4 -3.6) (size 0.35 0.35) (layers F.Cu F.Mask F.Paste))
  (pad F16 smd circle (at 4.4 -3.6) (size 0.35 0.35) (layers F.Cu F.Mask F.Paste))
  (pad F17 smd circle (at 5.2 -3.6) (size 0.35 0.35) (layers F.Cu F.Mask F.Paste))
  (pad F19 smd circle (at 6.8 -3.6) (size 0.35 0.35) (layers F.Cu F.Mask F.Paste))
  (pad F20 smd circle (at 7.6 -3.6) (size 0.35 0.35) (layers F.Cu F.Mask F.Paste))
  (pad G1 smd circle (at -7.6 -2.8) (size 0.35 0.35) (layers F.Cu F.Mask F.Paste))
  (pad G2 smd circle (at -6.8 -2.8) (size 0.35 0.35) (layers F.Cu F.Mask F.Paste))
  (pad G4 smd circle (at -5.2 -2.8) (size 0.35 0.35) (layers F.Cu F.Mask F.Paste))
  (pad G5 smd circle (at -4.4 -2.8) (size 0.35 0.35) (layers F.Cu F.Mask F.Paste))
  (pad G8 smd circle (at -2 -2.8) (size 0.35 0.35) (layers F.Cu F.Mask F.Paste))
  (pad G9 smd circle (at -1.2 -2.8) (size 0.35 0.35) (layers F.Cu F.Mask F.Paste))
  (pad G10 smd circle (at -0.4 -2.8) (size 0.35 0.35) (layers F.Cu F.Mask F.Paste))
  (pad G11 smd circle (at 0.4 -2.8) (size 0.35 0.35) (layers F.Cu F.Mask F.Paste))
  (pad G12 smd circle (at 1.2 -2.8) (size 0.35 0.35) (layers F.Cu F.Mask F.Paste))
  (pad G13 smd circle (at 2 -2.8) (size 0.35 0.35) (layers F.Cu F.Mask F.Paste))
  (pad G16 smd circle (at 4.4 -2.8) (size 0.35 0.35) (layers F.Cu F.Mask F.Paste))
  (pad G17 smd circle (at 5.2 -2.8) (size 0.35 0.35) (layers F.Cu F.Mask F.Paste))
  (pad G19 smd circle (at 6.8 -2.8) (size 0.35 0.35) (layers F.Cu F.Mask F.Paste))
  (pad G20 smd circle (at 7.6 -2.8) (size 0.35 0.35) (layers F.Cu F.Mask F.Paste))
  (pad H1 smd circle (at -7.6 -2) (size 0.35 0.35) (layers F.Cu F.Mask F.Paste))
  (pad H2 smd circle (at -6.8 -2) (size 0.35 0.35) (layers F.Cu F.Mask F.Paste))
  (pad H4 smd circle (at -5.2 -2) (size 0.35 0.35) (layers F.Cu F.Mask F.Paste))
  (pad H5 smd circle (at -4.4 -2) (size 0.35 0.35) (layers F.Cu F.Mask F.Paste))
  (pad H7 smd circle (at -2.8 -2) (size 0.35 0.35) (layers F.Cu F.Mask F.Paste))
  (pad H9 smd circle (at -1.2 -2) (size 0.35 0.35) (layers F.Cu F.Mask F.Paste))
  (pad H10 smd circle (at -0.4 -2) (size 0.35 0.35) (layers F.Cu F.Mask F.Paste))
  (pad H11 smd circle (at 0.4 -2) (size 0.35 0.35) (layers F.Cu F.Mask F.Paste))
  (pad H12 smd circle (at 1.2 -2) (size 0.35 0.35) (layers F.Cu F.Mask F.Paste))
  (pad H14 smd circle (at 2.8 -2) (size 0.35 0.35) (layers F.Cu F.Mask F.Paste))
  (pad H16 smd circle (at 4.4 -2) (size 0.35 0.35) (layers F.Cu F.Mask F.Paste))
  (pad H17 smd circle (at 5.2 -2) (size 0.35 0.35) (layers F.Cu F.Mask F.Paste))
  (pad H19 smd circle (at 6.8 -2) (size 0.35 0.35) (layers F.Cu F.Mask F.Paste))
  (pad H20 smd circle (at 7.6 -2) (size 0.35 0.35) (layers F.Cu F.Mask F.Paste))
  (pad J1 smd circle (at -7.6 -1.2) (size 0.35 0.35) (layers F.Cu F.Mask F.Paste))
  (pad J2 smd circle (at -6.8 -1.2) (size 0.35 0.35) (layers F.Cu F.Mask F.Paste))
  (pad J4 smd circle (at -5.2 -1.2) (size 0.35 0.35) (layers F.Cu F.Mask F.Paste))
  (pad J5 smd circle (at -4.4 -1.2) (size 0.35 0.35) (layers F.Cu F.Mask F.Paste))
  (pad J7 smd circle (at -2.8 -1.2) (size 0.35 0.35) (layers F.Cu F.Mask F.Paste))
  (pad J8 smd circle (at -2 -1.2) (size 0.35 0.35) (layers F.Cu F.Mask F.Paste))
  (pad J10 smd circle (at -0.4 -1.2) (size 0.35 0.35) (layers F.Cu F.Mask F.Paste))
  (pad J11 smd circle (at 0.4 -1.2) (size 0.35 0.35) (layers F.Cu F.Mask F.Paste))
  (pad J13 smd circle (at 2 -1.2) (size 0.35 0.35) (layers F.Cu F.Mask F.Paste))
  (pad J14 smd circle (at 2.8 -1.2) (size 0.35 0.35) (layers F.Cu F.Mask F.Paste))
  (pad J16 smd circle (at 4.4 -1.2) (size 0.35 0.35) (layers F.Cu F.Mask F.Paste))
  (pad J17 smd circle (at 5.2 -1.2) (size 0.35 0.35) (layers F.Cu F.Mask F.Paste))
  (pad J19 smd circle (at 6.8 -1.2) (size 0.35 0.35) (layers F.Cu F.Mask F.Paste))
  (pad J20 smd circle (at 7.6 -1.2) (size 0.35 0.35) (layers F.Cu F.Mask F.Paste))
  (pad K1 smd circle (at -7.6 -0.4) (size 0.35 0.35) (layers F.Cu F.Mask F.Paste))
  (pad K2 smd circle (at -6.8 -0.4) (size 0.35 0.35) (layers F.Cu F.Mask F.Paste))
  (pad K4 smd circle (at -5.2 -0.4) (size 0.35 0.35) (layers F.Cu F.Mask F.Paste))
  (pad K5 smd circle (at -4.4 -0.4) (size 0.35 0.35) (layers F.Cu F.Mask F.Paste))
  (pad K7 smd circle (at -2.8 -0.4) (size 0.35 0.35) (layers F.Cu F.Mask F.Paste))
  (pad K8 smd circle (at -2 -0.4) (size 0.35 0.35) (layers F.Cu F.Mask F.Paste))
  (pad K9 smd circle (at -1.2 -0.4) (size 0.35 0.35) (layers F.Cu F.Mask F.Paste))
  (pad K10 smd circle (at -0.4 -0.4) (size 0.35 0.35) (layers F.Cu F.Mask F.Paste))
  (pad K11 smd circle (at 0.4 -0.4) (size 0.35 0.35) (layers F.Cu F.Mask F.Paste))
  (pad K12 smd circle (at 1.2 -0.4) (size 0.35 0.35) (layers F.Cu F.Mask F.Paste))
  (pad K13 smd circle (at 2 -0.4) (size 0.35 0.35) (layers F.Cu F.Mask F.Paste))
  (pad K14 smd circle (at 2.8 -0.4) (size 0.35 0.35) (layers F.Cu F.Mask F.Paste))
  (pad K16 smd circle (at 4.4 -0.4) (size 0.35 0.35) (layers F.Cu F.Mask F.Paste))
  (pad K17 smd circle (at 5.2 -0.4) (size 0.35 0.35) (layers F.Cu F.Mask F.Paste))
  (pad K19 smd circle (at 6.8 -0.4) (size 0.35 0.35) (layers F.Cu F.Mask F.Paste))
  (pad K20 smd circle (at 7.6 -0.4) (size 0.35 0.35) (layers F.Cu F.Mask F.Paste))
  (pad L1 smd circle (at -7.6 0.4) (size 0.35 0.35) (layers F.Cu F.Mask F.Paste))
  (pad L2 smd circle (at -6.8 0.4) (size 0.35 0.35) (layers F.Cu F.Mask F.Paste))
  (pad L4 smd circle (at -5.2 0.4) (size 0.35 0.35) (layers F.Cu F.Mask F.Paste))
  (pad L5 smd circle (at -4.4 0.4) (size 0.35 0.35) (layers F.Cu F.Mask F.Paste))
  (pad L7 smd circle (at -2.8 0.4) (size 0.35 0.35) (layers F.Cu F.Mask F.Paste))
  (pad L8 smd circle (at -2 0.4) (size 0.35 0.35) (layers F.Cu F.Mask F.Paste))
  (pad L9 smd circle (at -1.2 0.4) (size 0.35 0.35) (layers F.Cu F.Mask F.Paste))
  (pad L10 smd circle (at -0.4 0.4) (size 0.35 0.35) (layers F.Cu F.Mask F.Paste))
  (pad L11 smd circle (at 0.4 0.4) (size 0.35 0.35) (layers F.Cu F.Mask F.Paste))
  (pad L12 smd circle (at 1.2 0.4) (size 0.35 0.35) (layers F.Cu F.Mask F.Paste))
  (pad L13 smd circle (at 2 0.4) (size 0.35 0.35) (layers F.Cu F.Mask F.Paste))
  (pad L14 smd circle (at 2.8 0.4) (size 0.35 0.35) (layers F.Cu F.Mask F.Paste))
  (pad L16 smd circle (at 4.4 0.4) (size 0.35 0.35) (layers F.Cu F.Mask F.Paste))
  (pad L17 smd circle (at 5.2 0.4) (size 0.35 0.35) (layers F.Cu F.Mask F.Paste))
  (pad L19 smd circle (at 6.8 0.4) (size 0.35 0.35) (layers F.Cu F.Mask F.Paste))
  (pad L20 smd circle (at 7.6 0.4) (size 0.35 0.35) (layers F.Cu F.Mask F.Paste))
  (pad M1 smd circle (at -7.6 1.2) (size 0.35 0.35) (layers F.Cu F.Mask F.Paste))
  (pad M2 smd circle (at -6.8 1.2) (size 0.35 0.35) (layers F.Cu F.Mask F.Paste))
  (pad M4 smd circle (at -5.2 1.2) (size 0.35 0.35) (layers F.Cu F.Mask F.Paste))
  (pad M5 smd circle (at -4.4 1.2) (size 0.35 0.35) (layers F.Cu F.Mask F.Paste))
  (pad M7 smd circle (at -2.8 1.2) (size 0.35 0.35) (layers F.Cu F.Mask F.Paste))
  (pad M8 smd circle (at -2 1.2) (size 0.35 0.35) (layers F.Cu F.Mask F.Paste))
  (pad M10 smd circle (at -0.4 1.2) (size 0.35 0.35) (layers F.Cu F.Mask F.Paste))
  (pad M11 smd circle (at 0.4 1.2) (size 0.35 0.35) (layers F.Cu F.Mask F.Paste))
  (pad M13 smd circle (at 2 1.2) (size 0.35 0.35) (layers F.Cu F.Mask F.Paste))
  (pad M14 smd circle (at 2.8 1.2) (size 0.35 0.35) (layers F.Cu F.Mask F.Paste))
  (pad M16 smd circle (at 4.4 1.2) (size 0.35 0.35) (layers F.Cu F.Mask F.Paste))
  (pad M17 smd circle (at 5.2 1.2) (size 0.35 0.35) (layers F.Cu F.Mask F.Paste))
  (pad M19 smd circle (at 6.8 1.2) (size 0.35 0.35) (layers F.Cu F.Mask F.Paste))
  (pad M20 smd circle (at 7.6 1.2) (size 0.35 0.35) (layers F.Cu F.Mask F.Paste))
  (pad N1 smd circle (at -7.6 2) (size 0.35 0.35) (layers F.Cu F.Mask F.Paste))
  (pad N2 smd circle (at -6.8 2) (size 0.35 0.35) (layers F.Cu F.Mask F.Paste))
  (pad N4 smd circle (at -5.2 2) (size 0.35 0.35) (layers F.Cu F.Mask F.Paste))
  (pad N5 smd circle (at -4.4 2) (size 0.35 0.35) (layers F.Cu F.Mask F.Paste))
  (pad N7 smd circle (at -2.8 2) (size 0.35 0.35) (layers F.Cu F.Mask F.Paste))
  (pad N9 smd circle (at -1.2 2) (size 0.35 0.35) (layers F.Cu F.Mask F.Paste))
  (pad N10 smd circle (at -0.4 2) (size 0.35 0.35) (layers F.Cu F.Mask F.Paste))
  (pad N11 smd circle (at 0.4 2) (size 0.35 0.35) (layers F.Cu F.Mask F.Paste))
  (pad N12 smd circle (at 1.2 2) (size 0.35 0.35) (layers F.Cu F.Mask F.Paste))
  (pad N14 smd circle (at 2.8 2) (size 0.35 0.35) (layers F.Cu F.Mask F.Paste))
  (pad N16 smd circle (at 4.4 2) (size 0.35 0.35) (layers F.Cu F.Mask F.Paste))
  (pad N17 smd circle (at 5.2 2) (size 0.35 0.35) (layers F.Cu F.Mask F.Paste))
  (pad N19 smd circle (at 6.8 2) (size 0.35 0.35) (layers F.Cu F.Mask F.Paste))
  (pad N20 smd circle (at 7.6 2) (size 0.35 0.35) (layers F.Cu F.Mask F.Paste))
  (pad P1 smd circle (at -7.6 2.8) (size 0.35 0.35) (layers F.Cu F.Mask F.Paste))
  (pad P2 smd circle (at -6.8 2.8) (size 0.35 0.35) (layers F.Cu F.Mask F.Paste))
  (pad P4 smd circle (at -5.2 2.8) (size 0.35 0.35) (layers F.Cu F.Mask F.Paste))
  (pad P5 smd circle (at -4.4 2.8) (size 0.35 0.35) (layers F.Cu F.Mask F.Paste))
  (pad P8 smd circle (at -2 2.8) (size 0.35 0.35) (layers F.Cu F.Mask F.Paste))
  (pad P9 smd circle (at -1.2 2.8) (size 0.35 0.35) (layers F.Cu F.Mask F.Paste))
  (pad P10 smd circle (at -0.4 2.8) (size 0.35 0.35) (layers F.Cu F.Mask F.Paste))
  (pad P11 smd circle (at 0.4 2.8) (size 0.35 0.35) (layers F.Cu F.Mask F.Paste))
  (pad P12 smd circle (at 1.2 2.8) (size 0.35 0.35) (layers F.Cu F.Mask F.Paste))
  (pad P13 smd circle (at 2 2.8) (size 0.35 0.35) (layers F.Cu F.Mask F.Paste))
  (pad P16 smd circle (at 4.4 2.8) (size 0.35 0.35) (layers F.Cu F.Mask F.Paste))
  (pad P17 smd circle (at 5.2 2.8) (size 0.35 0.35) (layers F.Cu F.Mask F.Paste))
  (pad P19 smd circle (at 6.8 2.8) (size 0.35 0.35) (layers F.Cu F.Mask F.Paste))
  (pad P20 smd circle (at 7.6 2.8) (size 0.35 0.35) (layers F.Cu F.Mask F.Paste))
  (pad R1 smd circle (at -7.6 3.6) (size 0.35 0.35) (layers F.Cu F.Mask F.Paste))
  (pad R2 smd circle (at -6.8 3.6) (size 0.35 0.35) (layers F.Cu F.Mask F.Paste))
  (pad R4 smd circle (at -5.2 3.6) (size 0.35 0.35) (layers F.Cu F.Mask F.Paste))
  (pad R5 smd circle (at -4.4 3.6) (size 0.35 0.35) (layers F.Cu F.Mask F.Paste))
  (pad R16 smd circle (at 4.4 3.6) (size 0.35 0.35) (layers F.Cu F.Mask F.Paste))
  (pad R17 smd circle (at 5.2 3.6) (size 0.35 0.35) (layers F.Cu F.Mask F.Paste))
  (pad R19 smd circle (at 6.8 3.6) (size 0.35 0.35) (layers F.Cu F.Mask F.Paste))
  (pad R20 smd circle (at 7.6 3.6) (size 0.35 0.35) (layers F.Cu F.Mask F.Paste))
  (pad T1 smd circle (at -7.6 4.4) (size 0.35 0.35) (layers F.Cu F.Mask F.Paste))
  (pad T2 smd circle (at -6.8 4.4) (size 0.35 0.35) (layers F.Cu F.Mask F.Paste))
  (pad T4 smd circle (at -5.2 4.4) (size 0.35 0.35) (layers F.Cu F.Mask F.Paste))
  (pad T5 smd circle (at -4.4 4.4) (size 0.35 0.35) (layers F.Cu F.Mask F.Paste))
  (pad T6 smd circle (at -3.6 4.4) (size 0.35 0.35) (layers F.Cu F.Mask F.Paste))
  (pad T7 smd circle (at -2.8 4.4) (size 0.35 0.35) (layers F.Cu F.Mask F.Paste))
  (pad T8 smd circle (at -2 4.4) (size 0.35 0.35) (layers F.Cu F.Mask F.Paste))
  (pad T9 smd circle (at -1.2 4.4) (size 0.35 0.35) (layers F.Cu F.Mask F.Paste))
  (pad T10 smd circle (at -0.4 4.4) (size 0.35 0.35) (layers F.Cu F.Mask F.Paste))
  (pad T11 smd circle (at 0.4 4.4) (size 0.35 0.35) (layers F.Cu F.Mask F.Paste))
  (pad T12 smd circle (at 1.2 4.4) (size 0.35 0.35) (layers F.Cu F.Mask F.Paste))
  (pad T13 smd circle (at 2 4.4) (size 0.35 0.35) (layers F.Cu F.Mask F.Paste))
  (pad T14 smd circle (at 2.8 4.4) (size 0.35 0.35) (layers F.Cu F.Mask F.Paste))
  (pad T15 smd circle (at 3.6 4.4) (size 0.35 0.35) (layers F.Cu F.Mask F.Paste))
  (pad T16 smd circle (at 4.4 4.4) (size 0.35 0.35) (layers F.Cu F.Mask F.Paste))
  (pad T17 smd circle (at 5.2 4.4) (size 0.35 0.35) (layers F.Cu F.Mask F.Paste))
  (pad T19 smd circle (at 6.8 4.4) (size 0.35 0.35) (layers F.Cu F.Mask F.Paste))
  (pad T20 smd circle (at 7.6 4.4) (size 0.35 0.35) (layers F.Cu F.Mask F.Paste))
  (pad U1 smd circle (at -7.6 5.2) (size 0.35 0.35) (layers F.Cu F.Mask F.Paste))
  (pad U2 smd circle (at -6.8 5.2) (size 0.35 0.35) (layers F.Cu F.Mask F.Paste))
  (pad U4 smd circle (at -5.2 5.2) (size 0.35 0.35) (layers F.Cu F.Mask F.Paste))
  (pad U5 smd circle (at -4.4 5.2) (size 0.35 0.35) (layers F.Cu F.Mask F.Paste))
  (pad U6 smd circle (at -3.6 5.2) (size 0.35 0.35) (layers F.Cu F.Mask F.Paste))
  (pad U7 smd circle (at -2.8 5.2) (size 0.35 0.35) (layers F.Cu F.Mask F.Paste))
  (pad U8 smd circle (at -2 5.2) (size 0.35 0.35) (layers F.Cu F.Mask F.Paste))
  (pad U9 smd circle (at -1.2 5.2) (size 0.35 0.35) (layers F.Cu F.Mask F.Paste))
  (pad U10 smd circle (at -0.4 5.2) (size 0.35 0.35) (layers F.Cu F.Mask F.Paste))
  (pad U11 smd circle (at 0.4 5.2) (size 0.35 0.35) (layers F.Cu F.Mask F.Paste))
  (pad U12 smd circle (at 1.2 5.2) (size 0.35 0.35) (layers F.Cu F.Mask F.Paste))
  (pad U13 smd circle (at 2 5.2) (size 0.35 0.35) (layers F.Cu F.Mask F.Paste))
  (pad U14 smd circle (at 2.8 5.2) (size 0.35 0.35) (layers F.Cu F.Mask F.Paste))
  (pad U15 smd circle (at 3.6 5.2) (size 0.35 0.35) (layers F.Cu F.Mask F.Paste))
  (pad U16 smd circle (at 4.4 5.2) (size 0.35 0.35) (layers F.Cu F.Mask F.Paste))
  (pad U17 smd circle (at 5.2 5.2) (size 0.35 0.35) (layers F.Cu F.Mask F.Paste))
  (pad U19 smd circle (at 6.8 5.2) (size 0.35 0.35) (layers F.Cu F.Mask F.Paste))
  (pad U20 smd circle (at 7.6 5.2) (size 0.35 0.35) (layers F.Cu F.Mask F.Paste))
  (pad V1 smd circle (at -7.6 6) (size 0.35 0.35) (layers F.Cu F.Mask F.Paste))
  (pad V2 smd circle (at -6.8 6) (size 0.35 0.35) (layers F.Cu F.Mask F.Paste))
  (pad V19 smd circle (at 6.8 6) (size 0.35 0.35) (layers F.Cu F.Mask F.Paste))
  (pad V20 smd circle (at 7.6 6) (size 0.35 0.35) (layers F.Cu F.Mask F.Paste))
  (pad W1 smd circle (at -7.6 6.8) (size 0.35 0.35) (layers F.Cu F.Mask F.Paste))
  (pad W2 smd circle (at -6.8 6.8) (size 0.35 0.35) (layers F.Cu F.Mask F.Paste))
  (pad W3 smd circle (at -6 6.8) (size 0.35 0.35) (layers F.Cu F.Mask F.Paste))
  (pad W4 smd circle (at -5.2 6.8) (size 0.35 0.35) (layers F.Cu F.Mask F.Paste))
  (pad W5 smd circle (at -4.4 6.8) (size 0.35 0.35) (layers F.Cu F.Mask F.Paste))
  (pad W6 smd circle (at -3.6 6.8) (size 0.35 0.35) (layers F.Cu F.Mask F.Paste))
  (pad W7 smd circle (at -2.8 6.8) (size 0.35 0.35) (layers F.Cu F.Mask F.Paste))
  (pad W8 smd circle (at -2 6.8) (size 0.35 0.35) (layers F.Cu F.Mask F.Paste))
  (pad W9 smd circle (at -1.2 6.8) (size 0.35 0.35) (layers F.Cu F.Mask F.Paste))
  (pad W10 smd circle (at -0.4 6.8) (size 0.35 0.35) (layers F.Cu F.Mask F.Paste))
  (pad W11 smd circle (at 0.4 6.8) (size 0.35 0.35) (layers F.Cu F.Mask F.Paste))
  (pad W12 smd circle (at 1.2 6.8) (size 0.35 0.35) (layers F.Cu F.Mask F.Paste))
  (pad W13 smd circle (at 2 6.8) (size 0.35 0.35) (layers F.Cu F.Mask F.Paste))
  (pad W14 smd circle (at 2.8 6.8) (size 0.35 0.35) (layers F.Cu F.Mask F.Paste))
  (pad W15 smd circle (at 3.6 6.8) (size 0.35 0.35) (layers F.Cu F.Mask F.Paste))
  (pad W16 smd circle (at 4.4 6.8) (size 0.35 0.35) (layers F.Cu F.Mask F.Paste))
  (pad W17 smd circle (at 5.2 6.8) (size 0.35 0.35) (layers F.Cu F.Mask F.Paste))
  (pad W18 smd circle (at 6 6.8) (size 0.35 0.35) (layers F.Cu F.Mask F.Paste))
  (pad W19 smd circle (at 6.8 6.8) (size 0.35 0.35) (layers F.Cu F.Mask F.Paste))
  (pad W20 smd circle (at 7.6 6.8) (size 0.35 0.35) (layers F.Cu F.Mask F.Paste))
  (pad Y1 smd circle (at -7.6 7.6) (size 0.35 0.35) (layers F.Cu F.Mask F.Paste))
  (pad Y2 smd circle (at -6.8 7.6) (size 0.35 0.35) (layers F.Cu F.Mask F.Paste))
  (pad Y3 smd circle (at -6 7.6) (size 0.35 0.35) (layers F.Cu F.Mask F.Paste))
  (pad Y4 smd circle (at -5.2 7.6) (size 0.35 0.35) (layers F.Cu F.Mask F.Paste))
  (pad Y5 smd circle (at -4.4 7.6) (size 0.35 0.35) (layers F.Cu F.Mask F.Paste))
  (pad Y6 smd circle (at -3.6 7.6) (size 0.35 0.35) (layers F.Cu F.Mask F.Paste))
  (pad Y7 smd circle (at -2.8 7.6) (size 0.35 0.35) (layers F.Cu F.Mask F.Paste))
  (pad Y8 smd circle (at -2 7.6) (size 0.35 0.35) (layers F.Cu F.Mask F.Paste))
  (pad Y9 smd circle (at -1.2 7.6) (size 0.35 0.35) (layers F.Cu F.Mask F.Paste))
  (pad Y10 smd circle (at -0.4 7.6) (size 0.35 0.35) (layers F.Cu F.Mask F.Paste))
  (pad Y11 smd circle (at 0.4 7.6) (size 0.35 0.35) (layers F.Cu F.Mask F.Paste))
  (pad Y12 smd circle (at 1.2 7.6) (size 0.35 0.35) (layers F.Cu F.Mask F.Paste))
  (pad Y13 smd circle (at 2 7.6) (size 0.35 0.35) (layers F.Cu F.Mask F.Paste))
  (pad Y14 smd circle (at 2.8 7.6) (size 0.35 0.35) (layers F.Cu F.Mask F.Paste))
  (pad Y15 smd circle (at 3.6 7.6) (size 0.35 0.35) (layers F.Cu F.Mask F.Paste))
  (pad Y16 smd circle (at 4.4 7.6) (size 0.35 0.35) (layers F.Cu F.Mask F.Paste))
  (pad Y17 smd circle (at 5.2 7.6) (size 0.35 0.35) (layers F.Cu F.Mask F.Paste))
  (pad Y18 smd circle (at 6 7.6) (size 0.35 0.35) (layers F.Cu F.Mask F.Paste))
  (pad Y19 smd circle (at 6.8 7.6) (size 0.35 0.35) (layers F.Cu F.Mask F.Paste))
  (pad Y20 smd circle (at 7.6 7.6) (size 0.35 0.35) (layers F.Cu F.Mask F.Paste))
  (fp_text user %R (at 0 0) (layer F.Fab)
    (effects (font (size 1 1) (thickness 0.15)))
  )
  (model ${KICAD6_3DMODEL_DIR}/Package_BGA.3dshapes/Infineon_LFBGA-292_17x17mm_Layout20x20_P0.8mm_Ball0.5mm_Pad0.35.wrl
    (at (xyz 0 0 0))
    (scale (xyz 1 1 1))
    (rotate (xyz 0 0 0))
  )
)