(module Maxim_WLP-9_1.595x1.415_Layout3x3_P0.4mm_Ball0.27mm_Pad0.25mm_NSMD (layer F.Cu) (tedit 5E6E6A7A)
  (descr "Maxim_WLP-9 W91C1+1 https://pdfserv.maximintegrated.com/package_dwgs/21-0459.PDF")
  (tags Maxim_WLP-9)
  (attr smd)
  (fp_text reference REF** (at 0 -2.5) (layer F.SilkS)
    (effects (font (size 1 1) (thickness 0.15)))
  )
  (fp_text value Maxim_WLP-9_1.595x1.415_Layout3x3_P0.4mm_Ball0.27mm_Pad0.25mm_NSMD (at 0.05 2.45) (layer F.Fab)
    (effects (font (size 1 1) (thickness 0.15)))
  )
  (fp_line (start -1.15 -1.05) (end -0.65 -1.05) (layer F.SilkS) (width 0.1))
  (fp_line (start -0.95 -0.85) (end -0.95 0.85) (layer F.SilkS) (width 0.1))
  (fp_line (start -0.95 -0.85) (end 0.95 -0.85) (layer F.SilkS) (width 0.1))
  (fp_line (start 1.8 -1.7) (end 1.8 1.7) (layer F.CrtYd) (width 0.05))
  (fp_line (start -1.8 -1.7) (end 1.8 -1.7) (layer F.CrtYd) (width 0.05))
  (fp_line (start -1.8 1.7) (end -1.8 -1.7) (layer F.CrtYd) (width 0.05))
  (fp_line (start -1.8 1.7) (end 1.8 1.7) (layer F.CrtYd) (width 0.05))
  (fp_text user %R (at 0 1.3) (layer F.Fab)
    (effects (font (size 0.5 0.5) (thickness 0.075)))
  )
  (fp_line (start -0.95 0.85) (end 0.95 0.85) (layer F.SilkS) (width 0.1))
  (fp_line (start 0.95 -0.85) (end 0.95 0.85) (layer F.SilkS) (width 0.1))
  (fp_line (start -1.15 -1.05) (end -1.15 -0.55) (layer F.SilkS) (width 0.1))
  (fp_line (start -0.3975 -0.7075) (end 0.7975 -0.7075) (layer F.Fab) (width 0.1))
  (fp_line (start -0.7975 -0.3075) (end -0.7975 0.7075) (layer F.Fab) (width 0.1))
  (fp_line (start 0.7975 -0.7075) (end 0.7975 0.7075) (layer F.Fab) (width 0.1))
  (fp_line (start -0.7975 0.7075) (end 0.7975 0.7075) (layer F.Fab) (width 0.1))
  (fp_line (start -0.3975 -0.7075) (end -0.7975 -0.3075) (layer F.Fab) (width 0.1))
  (pad C3 smd circle (at 0.4 0.4 90) (size 0.25 0.25) (layers F.Cu F.Paste F.Mask))
  (pad C2 smd circle (at 0 0.4 90) (size 0.25 0.25) (layers F.Cu F.Paste F.Mask))
  (pad C1 smd circle (at -0.4 0.4 90) (size 0.25 0.25) (layers F.Cu F.Paste F.Mask))
  (pad B3 smd circle (at 0.4 0 90) (size 0.25 0.25) (layers F.Cu F.Paste F.Mask))
  (pad B2 smd circle (at 0 0 90) (size 0.25 0.25) (layers F.Cu F.Paste F.Mask))
  (pad B1 smd circle (at -0.4 0 90) (size 0.25 0.25) (layers F.Cu F.Paste F.Mask))
  (pad A3 smd circle (at 0.4 -0.4 90) (size 0.25 0.25) (layers F.Cu F.Paste F.Mask))
  (pad A2 smd circle (at 0 -0.4 90) (size 0.25 0.25) (layers F.Cu F.Paste F.Mask))
  (pad A1 smd circle (at -0.4 -0.4 90) (size 0.25 0.25) (layers F.Cu F.Paste F.Mask))
  (model ${KICAD6_3DMODEL_DIR}/Package_BGA.3dshapes/Maxim_WLP-9_1.595x1.415_Layout3x3_P0.4mm_Ball0.27mm_Pad0.25mm_NSMD.wrl
    (at (xyz 0 0 0))
    (scale (xyz 1 1 1))
    (rotate (xyz 0 0 0))
  )
)
