(module Texas_MicroStar_Junior_BGA-80_5.0x5.0mm_Layout9x9_P0.5mm (layer F.Cu) (tedit 5A058D74)
  (descr "Texas Instruments, BGA Microstar Junior, 5x5mm, 80 ball 9x9 grid, NSMD pad definition (http://www.ti.com/lit/ds/symlink/tlv320aic23b.pdf, http://www.ti.com/lit/wp/ssyz015b/ssyz015b.pdf)")
  (tags Texas_Junior_BGA-80)
  (solder_mask_margin 0.05)
  (attr smd)
  (fp_text reference REF** (at 0 -3.7) (layer F.SilkS)
    (effects (font (size 1 1) (thickness 0.15)))
  )
  (fp_text value Texas_MicroStar_Junior_BGA-80_5.0x5.0mm_Layout9x9_P0.5mm (at 0 3.7) (layer F.Fab)
    (effects (font (size 1 1) (thickness 0.15)))
  )
  (fp_line (start -2 -2.5) (end -2.5 -2) (layer F.Fab) (width 0.1))
  (fp_line (start -2.5 2.5) (end -2.5 -2) (layer F.Fab) (width 0.1))
  (fp_line (start -2 -2.5) (end 2.5 -2.5) (layer F.Fab) (width 0.1))
  (fp_line (start 2.5 -2.5) (end 2.5 2.5) (layer F.Fab) (width 0.1))
  (fp_line (start 2.5 2.5) (end -2.5 2.5) (layer F.Fab) (width 0.1))
  (fp_text user %R (at 0 0) (layer F.Fab)
    (effects (font (size 1 1) (thickness 0.15)))
  )
  (fp_line (start -3 3) (end -3 -3) (layer F.CrtYd) (width 0.05))
  (fp_line (start -3 -3) (end 3 -3) (layer F.CrtYd) (width 0.05))
  (fp_line (start 3 -3) (end 3 3) (layer F.CrtYd) (width 0.05))
  (fp_line (start 3 3) (end -3 3) (layer F.CrtYd) (width 0.05))
  (fp_line (start 2.6 2.6) (end -2.6 2.6) (layer F.SilkS) (width 0.12))
  (fp_line (start -2.6 2.6) (end -2.6 -2.6) (layer F.SilkS) (width 0.12))
  (fp_line (start -2.6 -2.6) (end 2.6 -2.6) (layer F.SilkS) (width 0.12))
  (fp_line (start 2.6 -2.6) (end 2.6 2.6) (layer F.SilkS) (width 0.12))
  (fp_line (start 2.6 2.6) (end 2.6 2.6) (layer F.SilkS) (width 0.12))
  (fp_line (start -2.8 -2.8) (end -1.8 -2.8) (layer F.SilkS) (width 0.12))
  (fp_line (start -2.8 -1.8) (end -2.8 -2.8) (layer F.SilkS) (width 0.12))
  (pad A1 smd circle (at -2 -2) (size 0.25 0.25) (layers F.Cu F.Paste F.Mask))
  (pad B1 smd circle (at -2 -1.5) (size 0.25 0.25) (layers F.Cu F.Paste F.Mask))
  (pad C1 smd circle (at -2 -1) (size 0.25 0.25) (layers F.Cu F.Paste F.Mask))
  (pad D1 smd circle (at -2 -0.5) (size 0.25 0.25) (layers F.Cu F.Paste F.Mask))
  (pad E1 smd circle (at -2 0) (size 0.25 0.25) (layers F.Cu F.Paste F.Mask))
  (pad F1 smd circle (at -2 0.5) (size 0.25 0.25) (layers F.Cu F.Paste F.Mask))
  (pad G1 smd circle (at -2 1) (size 0.25 0.25) (layers F.Cu F.Paste F.Mask))
  (pad H1 smd circle (at -2 1.5) (size 0.25 0.25) (layers F.Cu F.Paste F.Mask))
  (pad J1 smd circle (at -2 2) (size 0.25 0.25) (layers F.Cu F.Paste F.Mask))
  (pad A2 smd circle (at -1.5 -2) (size 0.25 0.25) (layers F.Cu F.Paste F.Mask))
  (pad B2 smd circle (at -1.5 -1.5) (size 0.25 0.25) (layers F.Cu F.Paste F.Mask))
  (pad C2 smd circle (at -1.5 -1) (size 0.25 0.25) (layers F.Cu F.Paste F.Mask))
  (pad D2 smd circle (at -1.5 -0.5) (size 0.25 0.25) (layers F.Cu F.Paste F.Mask))
  (pad E2 smd circle (at -1.5 0) (size 0.25 0.25) (layers F.Cu F.Paste F.Mask))
  (pad F2 smd circle (at -1.5 0.5) (size 0.25 0.25) (layers F.Cu F.Paste F.Mask))
  (pad G2 smd circle (at -1.5 1) (size 0.25 0.25) (layers F.Cu F.Paste F.Mask))
  (pad H2 smd circle (at -1.5 1.5) (size 0.25 0.25) (layers F.Cu F.Paste F.Mask))
  (pad J2 smd circle (at -1.5 2) (size 0.25 0.25) (layers F.Cu F.Paste F.Mask))
  (pad A3 smd circle (at -1 -2) (size 0.25 0.25) (layers F.Cu F.Paste F.Mask))
  (pad B3 smd circle (at -1 -1.5) (size 0.25 0.25) (layers F.Cu F.Paste F.Mask))
  (pad D3 smd circle (at -1 -0.5) (size 0.25 0.25) (layers F.Cu F.Paste F.Mask))
  (pad E3 smd circle (at -1 0) (size 0.25 0.25) (layers F.Cu F.Paste F.Mask))
  (pad F3 smd circle (at -1 0.5) (size 0.25 0.25) (layers F.Cu F.Paste F.Mask))
  (pad G3 smd circle (at -1 1) (size 0.25 0.25) (layers F.Cu F.Paste F.Mask))
  (pad H3 smd circle (at -1 1.5) (size 0.25 0.25) (layers F.Cu F.Paste F.Mask))
  (pad J3 smd circle (at -1 2) (size 0.25 0.25) (layers F.Cu F.Paste F.Mask))
  (pad A4 smd circle (at -0.5 -2) (size 0.25 0.25) (layers F.Cu F.Paste F.Mask))
  (pad B4 smd circle (at -0.5 -1.5) (size 0.25 0.25) (layers F.Cu F.Paste F.Mask))
  (pad C4 smd circle (at -0.5 -1) (size 0.25 0.25) (layers F.Cu F.Paste F.Mask))
  (pad D4 smd circle (at -0.5 -0.5) (size 0.25 0.25) (layers F.Cu F.Paste F.Mask))
  (pad E4 smd circle (at -0.5 0) (size 0.25 0.25) (layers F.Cu F.Paste F.Mask))
  (pad F4 smd circle (at -0.5 0.5) (size 0.25 0.25) (layers F.Cu F.Paste F.Mask))
  (pad G4 smd circle (at -0.5 1) (size 0.25 0.25) (layers F.Cu F.Paste F.Mask))
  (pad H4 smd circle (at -0.5 1.5) (size 0.25 0.25) (layers F.Cu F.Paste F.Mask))
  (pad J4 smd circle (at -0.5 2) (size 0.25 0.25) (layers F.Cu F.Paste F.Mask))
  (pad A5 smd circle (at 0 -2) (size 0.25 0.25) (layers F.Cu F.Paste F.Mask))
  (pad B5 smd circle (at 0 -1.5) (size 0.25 0.25) (layers F.Cu F.Paste F.Mask))
  (pad C5 smd circle (at 0 -1) (size 0.25 0.25) (layers F.Cu F.Paste F.Mask))
  (pad D5 smd circle (at 0 -0.5) (size 0.25 0.25) (layers F.Cu F.Paste F.Mask))
  (pad E5 smd circle (at 0 0) (size 0.25 0.25) (layers F.Cu F.Paste F.Mask))
  (pad F5 smd circle (at 0 0.5) (size 0.25 0.25) (layers F.Cu F.Paste F.Mask))
  (pad G5 smd circle (at 0 1) (size 0.25 0.25) (layers F.Cu F.Paste F.Mask))
  (pad H5 smd circle (at 0 1.5) (size 0.25 0.25) (layers F.Cu F.Paste F.Mask))
  (pad J5 smd circle (at 0 2) (size 0.25 0.25) (layers F.Cu F.Paste F.Mask))
  (pad A6 smd circle (at 0.5 -2) (size 0.25 0.25) (layers F.Cu F.Paste F.Mask))
  (pad B6 smd circle (at 0.5 -1.5) (size 0.25 0.25) (layers F.Cu F.Paste F.Mask))
  (pad C6 smd circle (at 0.5 -1) (size 0.25 0.25) (layers F.Cu F.Paste F.Mask))
  (pad D6 smd circle (at 0.5 -0.5) (size 0.25 0.25) (layers F.Cu F.Paste F.Mask))
  (pad E6 smd circle (at 0.5 0) (size 0.25 0.25) (layers F.Cu F.Paste F.Mask))
  (pad F6 smd circle (at 0.5 0.5) (size 0.25 0.25) (layers F.Cu F.Paste F.Mask))
  (pad G6 smd circle (at 0.5 1) (size 0.25 0.25) (layers F.Cu F.Paste F.Mask))
  (pad H6 smd circle (at 0.5 1.5) (size 0.25 0.25) (layers F.Cu F.Paste F.Mask))
  (pad J6 smd circle (at 0.5 2) (size 0.25 0.25) (layers F.Cu F.Paste F.Mask))
  (pad A7 smd circle (at 1 -2) (size 0.25 0.25) (layers F.Cu F.Paste F.Mask))
  (pad B7 smd circle (at 1 -1.5) (size 0.25 0.25) (layers F.Cu F.Paste F.Mask))
  (pad C7 smd circle (at 1 -1) (size 0.25 0.25) (layers F.Cu F.Paste F.Mask))
  (pad D7 smd circle (at 1 -0.5) (size 0.25 0.25) (layers F.Cu F.Paste F.Mask))
  (pad E7 smd circle (at 1 0) (size 0.25 0.25) (layers F.Cu F.Paste F.Mask))
  (pad F7 smd circle (at 1 0.5) (size 0.25 0.25) (layers F.Cu F.Paste F.Mask))
  (pad G7 smd circle (at 1 1) (size 0.25 0.25) (layers F.Cu F.Paste F.Mask))
  (pad H7 smd circle (at 1 1.5) (size 0.25 0.25) (layers F.Cu F.Paste F.Mask))
  (pad J7 smd circle (at 1 2) (size 0.25 0.25) (layers F.Cu F.Paste F.Mask))
  (pad A8 smd circle (at 1.5 -2) (size 0.25 0.25) (layers F.Cu F.Paste F.Mask))
  (pad B8 smd circle (at 1.5 -1.5) (size 0.25 0.25) (layers F.Cu F.Paste F.Mask))
  (pad C8 smd circle (at 1.5 -1) (size 0.25 0.25) (layers F.Cu F.Paste F.Mask))
  (pad D8 smd circle (at 1.5 -0.5) (size 0.25 0.25) (layers F.Cu F.Paste F.Mask))
  (pad E8 smd circle (at 1.5 0) (size 0.25 0.25) (layers F.Cu F.Paste F.Mask))
  (pad F8 smd circle (at 1.5 0.5) (size 0.25 0.25) (layers F.Cu F.Paste F.Mask))
  (pad G8 smd circle (at 1.5 1) (size 0.25 0.25) (layers F.Cu F.Paste F.Mask))
  (pad H8 smd circle (at 1.5 1.5) (size 0.25 0.25) (layers F.Cu F.Paste F.Mask))
  (pad J8 smd circle (at 1.5 2) (size 0.25 0.25) (layers F.Cu F.Paste F.Mask))
  (pad A9 smd circle (at 2 -2) (size 0.25 0.25) (layers F.Cu F.Paste F.Mask))
  (pad B9 smd circle (at 2 -1.5) (size 0.25 0.25) (layers F.Cu F.Paste F.Mask))
  (pad C9 smd circle (at 2 -1) (size 0.25 0.25) (layers F.Cu F.Paste F.Mask))
  (pad D9 smd circle (at 2 -0.5) (size 0.25 0.25) (layers F.Cu F.Paste F.Mask))
  (pad E9 smd circle (at 2 0) (size 0.25 0.25) (layers F.Cu F.Paste F.Mask))
  (pad F9 smd circle (at 2 0.5) (size 0.25 0.25) (layers F.Cu F.Paste F.Mask))
  (pad G9 smd circle (at 2 1) (size 0.25 0.25) (layers F.Cu F.Paste F.Mask))
  (pad H9 smd circle (at 2 1.5) (size 0.25 0.25) (layers F.Cu F.Paste F.Mask))
  (pad J9 smd circle (at 2 2) (size 0.25 0.25) (layers F.Cu F.Paste F.Mask))
  (model ${KICAD6_3DMODEL_DIR}/Package_BGA.3dshapes/Texas_MicroStar_Junior_BGA-80_5.0x5.0mm_Layout9x9_P0.5mm.wrl
    (at (xyz 0 0 0))
    (scale (xyz 1 1 1))
    (rotate (xyz 0 0 0))
  )
)
