(module Texas_DSBGA-28_1.9x3.0mm_Layout4x7_P0.4mm (layer F.Cu) (tedit 5C1A63F9)
  (descr "Texas Instruments, DSBGA, 3.0x1.9x0.625mm, 28 ball 7x4 area grid, NSMD pad definition (http://www.ti.com/lit/ds/symlink/bq51050b.pdf, http://www.ti.com/lit/an/snva009ag/snva009ag.pdf)")
  (tags "BGA 28 0.4")
  (solder_mask_margin 0.05)
  (attr smd)
  (fp_text reference REF** (at 0 -2.5) (layer F.SilkS)
    (effects (font (size 1 1) (thickness 0.15)))
  )
  (fp_text value Texas_DSBGA-28_1.9x3.0mm_Layout4x7_P0.4mm (at 0 2.5) (layer F.Fab)
    (effects (font (size 1 1) (thickness 0.15)))
  )
  (fp_line (start 0.95 1.5) (end -0.95 1.5) (layer F.Fab) (width 0.1))
  (fp_line (start -0.95 1.5) (end -0.95 -1.025) (layer F.Fab) (width 0.1))
  (fp_line (start -0.95 -1.025) (end -0.475 -1.5) (layer F.Fab) (width 0.1))
  (fp_line (start -0.475 -1.5) (end 0.95 -1.5) (layer F.Fab) (width 0.1))
  (fp_line (start 0.95 -1.5) (end 0.95 1.5) (layer F.Fab) (width 0.1))
  (fp_line (start -1.95 -2.5) (end -1.95 2.5) (layer F.CrtYd) (width 0.05))
  (fp_line (start -1.95 2.5) (end 1.95 2.5) (layer F.CrtYd) (width 0.05))
  (fp_line (start 1.95 2.5) (end 1.95 -2.5) (layer F.CrtYd) (width 0.05))
  (fp_line (start 1.95 -2.5) (end -1.95 -2.5) (layer F.CrtYd) (width 0.05))
  (fp_line (start -0.585 -1.61) (end 1.06 -1.61) (layer F.SilkS) (width 0.12))
  (fp_line (start 1.06 -1.61) (end 1.06 1.61) (layer F.SilkS) (width 0.12))
  (fp_line (start 1.06 1.61) (end -1.06 1.61) (layer F.SilkS) (width 0.12))
  (fp_line (start -1.06 1.61) (end -1.06 -1.135) (layer F.SilkS) (width 0.12))
  (fp_text user %R (at 0 0) (layer F.Fab)
    (effects (font (size 0.44 0.44) (thickness 0.066)))
  )
  (pad A1 smd circle (at -0.6 -1.2) (size 0.225 0.225) (layers F.Cu F.Paste F.Mask))
  (pad A2 smd circle (at -0.2 -1.2) (size 0.225 0.225) (layers F.Cu F.Paste F.Mask))
  (pad A3 smd circle (at 0.2 -1.2) (size 0.225 0.225) (layers F.Cu F.Paste F.Mask))
  (pad A4 smd circle (at 0.6 -1.2) (size 0.225 0.225) (layers F.Cu F.Paste F.Mask))
  (pad B1 smd circle (at -0.6 -0.8) (size 0.225 0.225) (layers F.Cu F.Paste F.Mask))
  (pad B2 smd circle (at -0.2 -0.8) (size 0.225 0.225) (layers F.Cu F.Paste F.Mask))
  (pad B3 smd circle (at 0.2 -0.8) (size 0.225 0.225) (layers F.Cu F.Paste F.Mask))
  (pad B4 smd circle (at 0.6 -0.8) (size 0.225 0.225) (layers F.Cu F.Paste F.Mask))
  (pad C1 smd circle (at -0.6 -0.4) (size 0.225 0.225) (layers F.Cu F.Paste F.Mask))
  (pad C2 smd circle (at -0.2 -0.4) (size 0.225 0.225) (layers F.Cu F.Paste F.Mask))
  (pad C3 smd circle (at 0.2 -0.4) (size 0.225 0.225) (layers F.Cu F.Paste F.Mask))
  (pad C4 smd circle (at 0.6 -0.4) (size 0.225 0.225) (layers F.Cu F.Paste F.Mask))
  (pad D1 smd circle (at -0.6 0) (size 0.225 0.225) (layers F.Cu F.Paste F.Mask))
  (pad D2 smd circle (at -0.2 0) (size 0.225 0.225) (layers F.Cu F.Paste F.Mask))
  (pad D3 smd circle (at 0.2 0) (size 0.225 0.225) (layers F.Cu F.Paste F.Mask))
  (pad D4 smd circle (at 0.6 0) (size 0.225 0.225) (layers F.Cu F.Paste F.Mask))
  (pad E1 smd circle (at -0.6 0.4) (size 0.225 0.225) (layers F.Cu F.Paste F.Mask))
  (pad E2 smd circle (at -0.2 0.4) (size 0.225 0.225) (layers F.Cu F.Paste F.Mask))
  (pad E3 smd circle (at 0.2 0.4) (size 0.225 0.225) (layers F.Cu F.Paste F.Mask))
  (pad E4 smd circle (at 0.6 0.4) (size 0.225 0.225) (layers F.Cu F.Paste F.Mask))
  (pad F1 smd circle (at -0.6 0.8) (size 0.225 0.225) (layers F.Cu F.Paste F.Mask))
  (pad F2 smd circle (at -0.2 0.8) (size 0.225 0.225) (layers F.Cu F.Paste F.Mask))
  (pad F3 smd circle (at 0.2 0.8) (size 0.225 0.225) (layers F.Cu F.Paste F.Mask))
  (pad F4 smd circle (at 0.6 0.8) (size 0.225 0.225) (layers F.Cu F.Paste F.Mask))
  (pad G1 smd circle (at -0.6 1.2) (size 0.225 0.225) (layers F.Cu F.Paste F.Mask))
  (pad G2 smd circle (at -0.2 1.2) (size 0.225 0.225) (layers F.Cu F.Paste F.Mask))
  (pad G3 smd circle (at 0.2 1.2) (size 0.225 0.225) (layers F.Cu F.Paste F.Mask))
  (pad G4 smd circle (at 0.6 1.2) (size 0.225 0.225) (layers F.Cu F.Paste F.Mask))
  (model ${KICAD6_3DMODEL_DIR}/Package_BGA.3dshapes/Texas_DSBGA-28_1.9x3.0mm_Layout4x7_P0.4mm.wrl
    (at (xyz 0 0 0))
    (scale (xyz 1 1 1))
    (rotate (xyz 0 0 0))
  )
)
