(module Texas_DSBGA-8_1.5195x1.5195mm_Layout3x3_P0.5mm (layer F.Cu) (tedit 5C086E25)
  (descr "Texas Instruments, DSBGA, 1.5195x1.5195x0.600mm, 8 ball 3x3 area grid, YZR pad definition (http://www.ti.com/lit/ml/mxbg270/mxbg270.pdf)")
  (tags "BGA 8 0.5")
  (attr smd)
  (solder_mask_margin 0.05)
  (fp_text reference REF** (at 0 -1.75975) (layer F.SilkS)
    (effects (font (size 1 1) (thickness 0.15)))
  )
  (fp_text value Texas_DSBGA-8_1.5195x1.5195mm_Layout3x3_P0.5mm (at 0 1.75975) (layer F.Fab)
    (effects (font (size 1 1) (thickness 0.15)))
  )
  (fp_line (start 0.75975 0.75975) (end -0.75975 0.75975) (layer F.Fab) (width 0.1))
  (fp_line (start -0.75975 0.75975) (end -0.75975 -0.379875) (layer F.Fab) (width 0.1))
  (fp_line (start -0.75975 -0.379875) (end -0.379875 -0.75975) (layer F.Fab) (width 0.1))
  (fp_line (start -0.379875 -0.75975) (end 0.75975 -0.75975) (layer F.Fab) (width 0.1))
  (fp_line (start 0.75975 -0.75975) (end 0.75975 0.75975) (layer F.Fab) (width 0.1))
  (fp_line (start -1.76 -1.76) (end -1.76 1.76) (layer F.CrtYd) (width 0.05))
  (fp_line (start -1.76 1.76) (end 1.76 1.76) (layer F.CrtYd) (width 0.05))
  (fp_line (start 1.76 1.76) (end 1.76 -1.76) (layer F.CrtYd) (width 0.05))
  (fp_line (start 1.76 -1.76) (end -1.76 -1.76) (layer F.CrtYd) (width 0.05))
  (fp_line (start -0.489875 -0.86975) (end 0.86975 -0.86975) (layer F.SilkS) (width 0.12))
  (fp_line (start 0.86975 -0.86975) (end 0.86975 0.86975) (layer F.SilkS) (width 0.12))
  (fp_line (start 0.86975 0.86975) (end -0.86975 0.86975) (layer F.SilkS) (width 0.12))
  (fp_line (start -0.86975 0.86975) (end -0.86975 -0.489875) (layer F.SilkS) (width 0.12))
  (pad A1 smd circle (at -0.5 -0.5) (size 0.2625 0.2625) (layers F.Cu F.Mask F.Paste))
  (pad A2 smd circle (at 0 -0.5) (size 0.2625 0.2625) (layers F.Cu F.Mask F.Paste))
  (pad A3 smd circle (at 0.5 -0.5) (size 0.2625 0.2625) (layers F.Cu F.Mask F.Paste))
  (pad B1 smd circle (at -0.5 0) (size 0.2625 0.2625) (layers F.Cu F.Mask F.Paste))
  (pad B3 smd circle (at 0.5 0) (size 0.2625 0.2625) (layers F.Cu F.Mask F.Paste))
  (pad C1 smd circle (at -0.5 0.5) (size 0.2625 0.2625) (layers F.Cu F.Mask F.Paste))
  (pad C2 smd circle (at 0 0.5) (size 0.2625 0.2625) (layers F.Cu F.Mask F.Paste))
  (pad C3 smd circle (at 0.5 0.5) (size 0.2625 0.2625) (layers F.Cu F.Mask F.Paste))
  (fp_text user %R (at 0 0) (layer F.Fab)
    (effects (font (size 0.35 0.35) (thickness 0.0525)))
  )
  (model ${KICAD6_3DMODEL_DIR}/Package_BGA.3dshapes/Texas_DSBGA-8_1.5195x1.5195mm_Layout3x3_P0.5mm.wrl
    (at (xyz 0 0 0))
    (scale (xyz 1 1 1))
    (rotate (xyz 0 0 0))
  )
)