(module Texas_DSBGA-6_0.9x1.4mm_Layout2x3_P0.5mm (layer F.Cu) (tedit 5A0AA1EB)
  (descr "Texas Instruments, DSBGA, 0.9x1.4mm, 6 bump 2x3 (perimeter) array, NSMD pad definition (http://www.ti.com/lit/ds/symlink/ts5a3159a.pdf)")
  (tags "Texas Instruments DSBGA BGA YZP R-XBGA-N6")
  (solder_mask_margin 0.05)
  (attr smd)
  (fp_text reference REF** (at 0 -1.9) (layer F.SilkS)
    (effects (font (size 1 1) (thickness 0.15)))
  )
  (fp_text value Texas_DSBGA-6_0.9x1.4mm_Layout2x3_P0.5mm (at 0 2) (layer F.Fab)
    (effects (font (size 1 1) (thickness 0.15)))
  )
  (fp_text user %R (at 0 0 90) (layer F.Fab)
    (effects (font (size 0.4 0.4) (thickness 0.05)))
  )
  (fp_line (start -1.47 -1.7) (end 1.47 -1.7) (layer F.CrtYd) (width 0.05))
  (fp_line (start -1.47 -1.7) (end -1.47 1.7) (layer F.CrtYd) (width 0.05))
  (fp_line (start 1.47 1.7) (end 1.47 -1.7) (layer F.CrtYd) (width 0.05))
  (fp_line (start 1.47 1.7) (end -1.47 1.7) (layer F.CrtYd) (width 0.05))
  (fp_line (start -0.47 -0.53) (end -0.3 -0.7) (layer F.Fab) (width 0.1))
  (fp_line (start -0.47 -0.53) (end -0.47 0.7) (layer F.Fab) (width 0.1))
  (fp_line (start 0.47 -0.7) (end -0.3 -0.7) (layer F.Fab) (width 0.1))
  (fp_line (start 0.47 0.7) (end 0.47 -0.7) (layer F.Fab) (width 0.1))
  (fp_line (start -0.47 0.7) (end 0.47 0.7) (layer F.Fab) (width 0.1))
  (fp_line (start -0.55 -0.85) (end -0.55 0.9) (layer F.SilkS) (width 0.12))
  (fp_line (start 0.55 -0.85) (end -0.55 -0.85) (layer F.SilkS) (width 0.12))
  (fp_line (start 0.55 -0.85) (end 0.55 0.9) (layer F.SilkS) (width 0.12))
  (fp_line (start -0.55 0.9) (end 0.55 0.9) (layer F.SilkS) (width 0.12))
  (fp_line (start 0 -1.05) (end -0.75 -1.05) (layer F.SilkS) (width 0.12))
  (fp_line (start -0.75 -1.05) (end -0.75 -0.3) (layer F.SilkS) (width 0.12))
  (pad C1 smd circle (at -0.25 0.5) (size 0.265 0.265) (layers F.Cu F.Mask))
  (pad C2 smd circle (at 0.25 0.5) (size 0.265 0.265) (layers F.Cu F.Mask))
  (pad A2 smd circle (at 0.25 -0.5) (size 0.265 0.265) (layers F.Cu F.Mask))
  (pad A1 smd circle (at -0.25 -0.5) (size 0.265 0.265) (layers F.Cu F.Mask))
  (pad B1 smd circle (at -0.25 0) (size 0.265 0.265) (layers F.Cu F.Mask))
  (pad B2 smd circle (at 0.25 0) (size 0.265 0.265) (layers F.Cu F.Mask))
  (pad "" smd rect (at -0.25 0.5) (size 0.3 0.3) (layers F.Paste))
  (pad "" smd rect (at 0.25 0.5) (size 0.3 0.3) (layers F.Paste))
  (pad "" smd rect (at 0.25 -0.5) (size 0.3 0.3) (layers F.Paste))
  (pad "" smd rect (at -0.25 -0.5) (size 0.3 0.3) (layers F.Paste))
  (pad "" smd rect (at -0.25 0) (size 0.3 0.3) (layers F.Paste))
  (pad "" smd rect (at 0.25 0) (size 0.3 0.3) (layers F.Paste))
  (model ${KICAD6_3DMODEL_DIR}/Package_BGA.3dshapes/Texas_DSBGA-6_0.9x1.4mm_Layout2x3_P0.5mm.wrl
    (at (xyz 0 0 0))
    (scale (xyz 1 1 1))
    (rotate (xyz 0 0 0))
  )
)
