(module TFBGA-100_8x8mm_Layout10x10_P0.8mm (layer F.Cu) (tedit 5ADF9FCE)
  (descr "TFBGA-100, 10x10 raster, 8x8mm package, pitch 0.8mm; see section 6.2 of http://www.st.com/resource/en/datasheet/stm32f746zg.pdf")
  (tags "BGA 100 0.8")
  (attr smd)
  (fp_text reference REF** (at 0 -5) (layer F.SilkS)
    (effects (font (size 1 1) (thickness 0.15)))
  )
  (fp_text value TFBGA-100_8x8mm_Layout10x10_P0.8mm (at 0 5) (layer F.Fab)
    (effects (font (size 1 1) (thickness 0.15)))
  )
  (fp_line (start 4 4) (end -4 4) (layer F.Fab) (width 0.1))
  (fp_line (start -4 4) (end -4 -3) (layer F.Fab) (width 0.1))
  (fp_line (start -4 -3) (end -3 -4) (layer F.Fab) (width 0.1))
  (fp_line (start -3 -4) (end 4 -4) (layer F.Fab) (width 0.1))
  (fp_line (start 4 -4) (end 4 4) (layer F.Fab) (width 0.1))
  (fp_line (start -5 -5) (end -5 5) (layer F.CrtYd) (width 0.05))
  (fp_line (start -5 5) (end 5 5) (layer F.CrtYd) (width 0.05))
  (fp_line (start 5 5) (end 5 -5) (layer F.CrtYd) (width 0.05))
  (fp_line (start 5 -5) (end -5 -5) (layer F.CrtYd) (width 0.05))
  (fp_line (start -3.125 -4.125) (end 4.125 -4.125) (layer F.SilkS) (width 0.12))
  (fp_line (start 4.125 -4.125) (end 4.125 4.125) (layer F.SilkS) (width 0.12))
  (fp_line (start 4.125 4.125) (end -4.125 4.125) (layer F.SilkS) (width 0.12))
  (fp_line (start -4.125 4.125) (end -4.125 -3.125) (layer F.SilkS) (width 0.12))
  (pad A1 smd circle (at -3.6 -3.6) (size 0.4 0.4) (layers F.Cu F.Mask F.Paste))
  (pad A2 smd circle (at -2.8 -3.6) (size 0.4 0.4) (layers F.Cu F.Mask F.Paste))
  (pad A3 smd circle (at -2 -3.6) (size 0.4 0.4) (layers F.Cu F.Mask F.Paste))
  (pad A4 smd circle (at -1.2 -3.6) (size 0.4 0.4) (layers F.Cu F.Mask F.Paste))
  (pad A5 smd circle (at -0.4 -3.6) (size 0.4 0.4) (layers F.Cu F.Mask F.Paste))
  (pad A6 smd circle (at 0.4 -3.6) (size 0.4 0.4) (layers F.Cu F.Mask F.Paste))
  (pad A7 smd circle (at 1.2 -3.6) (size 0.4 0.4) (layers F.Cu F.Mask F.Paste))
  (pad A8 smd circle (at 2 -3.6) (size 0.4 0.4) (layers F.Cu F.Mask F.Paste))
  (pad A9 smd circle (at 2.8 -3.6) (size 0.4 0.4) (layers F.Cu F.Mask F.Paste))
  (pad A10 smd circle (at 3.6 -3.6) (size 0.4 0.4) (layers F.Cu F.Mask F.Paste))
  (pad B1 smd circle (at -3.6 -2.8) (size 0.4 0.4) (layers F.Cu F.Mask F.Paste))
  (pad B2 smd circle (at -2.8 -2.8) (size 0.4 0.4) (layers F.Cu F.Mask F.Paste))
  (pad B3 smd circle (at -2 -2.8) (size 0.4 0.4) (layers F.Cu F.Mask F.Paste))
  (pad B4 smd circle (at -1.2 -2.8) (size 0.4 0.4) (layers F.Cu F.Mask F.Paste))
  (pad B5 smd circle (at -0.4 -2.8) (size 0.4 0.4) (layers F.Cu F.Mask F.Paste))
  (pad B6 smd circle (at 0.4 -2.8) (size 0.4 0.4) (layers F.Cu F.Mask F.Paste))
  (pad B7 smd circle (at 1.2 -2.8) (size 0.4 0.4) (layers F.Cu F.Mask F.Paste))
  (pad B8 smd circle (at 2 -2.8) (size 0.4 0.4) (layers F.Cu F.Mask F.Paste))
  (pad B9 smd circle (at 2.8 -2.8) (size 0.4 0.4) (layers F.Cu F.Mask F.Paste))
  (pad B10 smd circle (at 3.6 -2.8) (size 0.4 0.4) (layers F.Cu F.Mask F.Paste))
  (pad C1 smd circle (at -3.6 -2) (size 0.4 0.4) (layers F.Cu F.Mask F.Paste))
  (pad C2 smd circle (at -2.8 -2) (size 0.4 0.4) (layers F.Cu F.Mask F.Paste))
  (pad C3 smd circle (at -2 -2) (size 0.4 0.4) (layers F.Cu F.Mask F.Paste))
  (pad C4 smd circle (at -1.2 -2) (size 0.4 0.4) (layers F.Cu F.Mask F.Paste))
  (pad C5 smd circle (at -0.4 -2) (size 0.4 0.4) (layers F.Cu F.Mask F.Paste))
  (pad C6 smd circle (at 0.4 -2) (size 0.4 0.4) (layers F.Cu F.Mask F.Paste))
  (pad C7 smd circle (at 1.2 -2) (size 0.4 0.4) (layers F.Cu F.Mask F.Paste))
  (pad C8 smd circle (at 2 -2) (size 0.4 0.4) (layers F.Cu F.Mask F.Paste))
  (pad C9 smd circle (at 2.8 -2) (size 0.4 0.4) (layers F.Cu F.Mask F.Paste))
  (pad C10 smd circle (at 3.6 -2) (size 0.4 0.4) (layers F.Cu F.Mask F.Paste))
  (pad D1 smd circle (at -3.6 -1.2) (size 0.4 0.4) (layers F.Cu F.Mask F.Paste))
  (pad D2 smd circle (at -2.8 -1.2) (size 0.4 0.4) (layers F.Cu F.Mask F.Paste))
  (pad D3 smd circle (at -2 -1.2) (size 0.4 0.4) (layers F.Cu F.Mask F.Paste))
  (pad D4 smd circle (at -1.2 -1.2) (size 0.4 0.4) (layers F.Cu F.Mask F.Paste))
  (pad D5 smd circle (at -0.4 -1.2) (size 0.4 0.4) (layers F.Cu F.Mask F.Paste))
  (pad D6 smd circle (at 0.4 -1.2) (size 0.4 0.4) (layers F.Cu F.Mask F.Paste))
  (pad D7 smd circle (at 1.2 -1.2) (size 0.4 0.4) (layers F.Cu F.Mask F.Paste))
  (pad D8 smd circle (at 2 -1.2) (size 0.4 0.4) (layers F.Cu F.Mask F.Paste))
  (pad D9 smd circle (at 2.8 -1.2) (size 0.4 0.4) (layers F.Cu F.Mask F.Paste))
  (pad D10 smd circle (at 3.6 -1.2) (size 0.4 0.4) (layers F.Cu F.Mask F.Paste))
  (pad E1 smd circle (at -3.6 -0.4) (size 0.4 0.4) (layers F.Cu F.Mask F.Paste))
  (pad E2 smd circle (at -2.8 -0.4) (size 0.4 0.4) (layers F.Cu F.Mask F.Paste))
  (pad E3 smd circle (at -2 -0.4) (size 0.4 0.4) (layers F.Cu F.Mask F.Paste))
  (pad E4 smd circle (at -1.2 -0.4) (size 0.4 0.4) (layers F.Cu F.Mask F.Paste))
  (pad E5 smd circle (at -0.4 -0.4) (size 0.4 0.4) (layers F.Cu F.Mask F.Paste))
  (pad E6 smd circle (at 0.4 -0.4) (size 0.4 0.4) (layers F.Cu F.Mask F.Paste))
  (pad E7 smd circle (at 1.2 -0.4) (size 0.4 0.4) (layers F.Cu F.Mask F.Paste))
  (pad E8 smd circle (at 2 -0.4) (size 0.4 0.4) (layers F.Cu F.Mask F.Paste))
  (pad E9 smd circle (at 2.8 -0.4) (size 0.4 0.4) (layers F.Cu F.Mask F.Paste))
  (pad E10 smd circle (at 3.6 -0.4) (size 0.4 0.4) (layers F.Cu F.Mask F.Paste))
  (pad F1 smd circle (at -3.6 0.4) (size 0.4 0.4) (layers F.Cu F.Mask F.Paste))
  (pad F2 smd circle (at -2.8 0.4) (size 0.4 0.4) (layers F.Cu F.Mask F.Paste))
  (pad F3 smd circle (at -2 0.4) (size 0.4 0.4) (layers F.Cu F.Mask F.Paste))
  (pad F4 smd circle (at -1.2 0.4) (size 0.4 0.4) (layers F.Cu F.Mask F.Paste))
  (pad F5 smd circle (at -0.4 0.4) (size 0.4 0.4) (layers F.Cu F.Mask F.Paste))
  (pad F6 smd circle (at 0.4 0.4) (size 0.4 0.4) (layers F.Cu F.Mask F.Paste))
  (pad F7 smd circle (at 1.2 0.4) (size 0.4 0.4) (layers F.Cu F.Mask F.Paste))
  (pad F8 smd circle (at 2 0.4) (size 0.4 0.4) (layers F.Cu F.Mask F.Paste))
  (pad F9 smd circle (at 2.8 0.4) (size 0.4 0.4) (layers F.Cu F.Mask F.Paste))
  (pad F10 smd circle (at 3.6 0.4) (size 0.4 0.4) (layers F.Cu F.Mask F.Paste))
  (pad G1 smd circle (at -3.6 1.2) (size 0.4 0.4) (layers F.Cu F.Mask F.Paste))
  (pad G2 smd circle (at -2.8 1.2) (size 0.4 0.4) (layers F.Cu F.Mask F.Paste))
  (pad G3 smd circle (at -2 1.2) (size 0.4 0.4) (layers F.Cu F.Mask F.Paste))
  (pad G4 smd circle (at -1.2 1.2) (size 0.4 0.4) (layers F.Cu F.Mask F.Paste))
  (pad G5 smd circle (at -0.4 1.2) (size 0.4 0.4) (layers F.Cu F.Mask F.Paste))
  (pad G6 smd circle (at 0.4 1.2) (size 0.4 0.4) (layers F.Cu F.Mask F.Paste))
  (pad G7 smd circle (at 1.2 1.2) (size 0.4 0.4) (layers F.Cu F.Mask F.Paste))
  (pad G8 smd circle (at 2 1.2) (size 0.4 0.4) (layers F.Cu F.Mask F.Paste))
  (pad G9 smd circle (at 2.8 1.2) (size 0.4 0.4) (layers F.Cu F.Mask F.Paste))
  (pad G10 smd circle (at 3.6 1.2) (size 0.4 0.4) (layers F.Cu F.Mask F.Paste))
  (pad H1 smd circle (at -3.6 2) (size 0.4 0.4) (layers F.Cu F.Mask F.Paste))
  (pad H2 smd circle (at -2.8 2) (size 0.4 0.4) (layers F.Cu F.Mask F.Paste))
  (pad H3 smd circle (at -2 2) (size 0.4 0.4) (layers F.Cu F.Mask F.Paste))
  (pad H4 smd circle (at -1.2 2) (size 0.4 0.4) (layers F.Cu F.Mask F.Paste))
  (pad H5 smd circle (at -0.4 2) (size 0.4 0.4) (layers F.Cu F.Mask F.Paste))
  (pad H6 smd circle (at 0.4 2) (size 0.4 0.4) (layers F.Cu F.Mask F.Paste))
  (pad H7 smd circle (at 1.2 2) (size 0.4 0.4) (layers F.Cu F.Mask F.Paste))
  (pad H8 smd circle (at 2 2) (size 0.4 0.4) (layers F.Cu F.Mask F.Paste))
  (pad H9 smd circle (at 2.8 2) (size 0.4 0.4) (layers F.Cu F.Mask F.Paste))
  (pad H10 smd circle (at 3.6 2) (size 0.4 0.4) (layers F.Cu F.Mask F.Paste))
  (pad J1 smd circle (at -3.6 2.8) (size 0.4 0.4) (layers F.Cu F.Mask F.Paste))
  (pad J2 smd circle (at -2.8 2.8) (size 0.4 0.4) (layers F.Cu F.Mask F.Paste))
  (pad J3 smd circle (at -2 2.8) (size 0.4 0.4) (layers F.Cu F.Mask F.Paste))
  (pad J4 smd circle (at -1.2 2.8) (size 0.4 0.4) (layers F.Cu F.Mask F.Paste))
  (pad J5 smd circle (at -0.4 2.8) (size 0.4 0.4) (layers F.Cu F.Mask F.Paste))
  (pad J6 smd circle (at 0.4 2.8) (size 0.4 0.4) (layers F.Cu F.Mask F.Paste))
  (pad J7 smd circle (at 1.2 2.8) (size 0.4 0.4) (layers F.Cu F.Mask F.Paste))
  (pad J8 smd circle (at 2 2.8) (size 0.4 0.4) (layers F.Cu F.Mask F.Paste))
  (pad J9 smd circle (at 2.8 2.8) (size 0.4 0.4) (layers F.Cu F.Mask F.Paste))
  (pad J10 smd circle (at 3.6 2.8) (size 0.4 0.4) (layers F.Cu F.Mask F.Paste))
  (pad K1 smd circle (at -3.6 3.6) (size 0.4 0.4) (layers F.Cu F.Mask F.Paste))
  (pad K2 smd circle (at -2.8 3.6) (size 0.4 0.4) (layers F.Cu F.Mask F.Paste))
  (pad K3 smd circle (at -2 3.6) (size 0.4 0.4) (layers F.Cu F.Mask F.Paste))
  (pad K4 smd circle (at -1.2 3.6) (size 0.4 0.4) (layers F.Cu F.Mask F.Paste))
  (pad K5 smd circle (at -0.4 3.6) (size 0.4 0.4) (layers F.Cu F.Mask F.Paste))
  (pad K6 smd circle (at 0.4 3.6) (size 0.4 0.4) (layers F.Cu F.Mask F.Paste))
  (pad K7 smd circle (at 1.2 3.6) (size 0.4 0.4) (layers F.Cu F.Mask F.Paste))
  (pad K8 smd circle (at 2 3.6) (size 0.4 0.4) (layers F.Cu F.Mask F.Paste))
  (pad K9 smd circle (at 2.8 3.6) (size 0.4 0.4) (layers F.Cu F.Mask F.Paste))
  (pad K10 smd circle (at 3.6 3.6) (size 0.4 0.4) (layers F.Cu F.Mask F.Paste))
  (fp_text user %R (at 0 0) (layer F.Fab)
    (effects (font (size 1 1) (thickness 0.15)))
  )
  (model ${KICAD6_3DMODEL_DIR}/Package_BGA.3dshapes/TFBGA-100_8x8mm_Layout10x10_P0.8mm.wrl
    (at (xyz 0 0 0))
    (scale (xyz 1 1 1))
    (rotate (xyz 0 0 0))
  )
)