(module Xilinx_FGGA676 (layer F.Cu) (tedit 5CC89574)
  (descr "Spartan-7 BGA, 26x26 grid, 27x27mm package, 1mm pitch; https://www.xilinx.com/support/documentation/user_guides/ug475_7Series_Pkg_Pinout.pdf#page=265, NSMD pad definition Appendix A")
  (tags "BGA 676 1 FGGA676")
  (attr smd)
  (solder_mask_margin 0.05)
  (fp_text reference REF** (at 0 -14.5) (layer F.SilkS)
    (effects (font (size 1 1) (thickness 0.15)))
  )
  (fp_text value Xilinx_FGGA676 (at 0 14.5) (layer F.Fab)
    (effects (font (size 1 1) (thickness 0.15)))
  )
  (fp_line (start 13.5 13.5) (end -13.5 13.5) (layer F.Fab) (width 0.1))
  (fp_line (start -13.5 13.5) (end -13.5 -12.5) (layer F.Fab) (width 0.1))
  (fp_line (start -13.5 -12.5) (end -12.5 -13.5) (layer F.Fab) (width 0.1))
  (fp_line (start -12.5 -13.5) (end 13.5 -13.5) (layer F.Fab) (width 0.1))
  (fp_line (start 13.5 -13.5) (end 13.5 13.5) (layer F.Fab) (width 0.1))
  (fp_line (start -14.5 -14.5) (end -14.5 14.5) (layer F.CrtYd) (width 0.05))
  (fp_line (start -14.5 14.5) (end 14.5 14.5) (layer F.CrtYd) (width 0.05))
  (fp_line (start 14.5 14.5) (end 14.5 -14.5) (layer F.CrtYd) (width 0.05))
  (fp_line (start 14.5 -14.5) (end -14.5 -14.5) (layer F.CrtYd) (width 0.05))
  (fp_line (start -12.61 -13.61) (end 13.61 -13.61) (layer F.SilkS) (width 0.12))
  (fp_line (start 13.61 -13.61) (end 13.61 13.61) (layer F.SilkS) (width 0.12))
  (fp_line (start 13.61 13.61) (end -13.61 13.61) (layer F.SilkS) (width 0.12))
  (fp_line (start -13.61 13.61) (end -13.61 -12.61) (layer F.SilkS) (width 0.12))
  (pad A1 smd circle (at -12.5 -12.5) (size 0.5 0.5) (layers F.Cu F.Mask F.Paste))
  (pad A2 smd circle (at -11.5 -12.5) (size 0.5 0.5) (layers F.Cu F.Mask F.Paste))
  (pad A3 smd circle (at -10.5 -12.5) (size 0.5 0.5) (layers F.Cu F.Mask F.Paste))
  (pad A4 smd circle (at -9.5 -12.5) (size 0.5 0.5) (layers F.Cu F.Mask F.Paste))
  (pad A5 smd circle (at -8.5 -12.5) (size 0.5 0.5) (layers F.Cu F.Mask F.Paste))
  (pad A6 smd circle (at -7.5 -12.5) (size 0.5 0.5) (layers F.Cu F.Mask F.Paste))
  (pad A7 smd circle (at -6.5 -12.5) (size 0.5 0.5) (layers F.Cu F.Mask F.Paste))
  (pad A8 smd circle (at -5.5 -12.5) (size 0.5 0.5) (layers F.Cu F.Mask F.Paste))
  (pad A9 smd circle (at -4.5 -12.5) (size 0.5 0.5) (layers F.Cu F.Mask F.Paste))
  (pad A10 smd circle (at -3.5 -12.5) (size 0.5 0.5) (layers F.Cu F.Mask F.Paste))
  (pad A11 smd circle (at -2.5 -12.5) (size 0.5 0.5) (layers F.Cu F.Mask F.Paste))
  (pad A12 smd circle (at -1.5 -12.5) (size 0.5 0.5) (layers F.Cu F.Mask F.Paste))
  (pad A13 smd circle (at -0.5 -12.5) (size 0.5 0.5) (layers F.Cu F.Mask F.Paste))
  (pad A14 smd circle (at 0.5 -12.5) (size 0.5 0.5) (layers F.Cu F.Mask F.Paste))
  (pad A15 smd circle (at 1.5 -12.5) (size 0.5 0.5) (layers F.Cu F.Mask F.Paste))
  (pad A16 smd circle (at 2.5 -12.5) (size 0.5 0.5) (layers F.Cu F.Mask F.Paste))
  (pad A17 smd circle (at 3.5 -12.5) (size 0.5 0.5) (layers F.Cu F.Mask F.Paste))
  (pad A18 smd circle (at 4.5 -12.5) (size 0.5 0.5) (layers F.Cu F.Mask F.Paste))
  (pad A19 smd circle (at 5.5 -12.5) (size 0.5 0.5) (layers F.Cu F.Mask F.Paste))
  (pad A20 smd circle (at 6.5 -12.5) (size 0.5 0.5) (layers F.Cu F.Mask F.Paste))
  (pad A21 smd circle (at 7.5 -12.5) (size 0.5 0.5) (layers F.Cu F.Mask F.Paste))
  (pad A22 smd circle (at 8.5 -12.5) (size 0.5 0.5) (layers F.Cu F.Mask F.Paste))
  (pad A23 smd circle (at 9.5 -12.5) (size 0.5 0.5) (layers F.Cu F.Mask F.Paste))
  (pad A24 smd circle (at 10.5 -12.5) (size 0.5 0.5) (layers F.Cu F.Mask F.Paste))
  (pad A25 smd circle (at 11.5 -12.5) (size 0.5 0.5) (layers F.Cu F.Mask F.Paste))
  (pad A26 smd circle (at 12.5 -12.5) (size 0.5 0.5) (layers F.Cu F.Mask F.Paste))
  (pad B1 smd circle (at -12.5 -11.5) (size 0.5 0.5) (layers F.Cu F.Mask F.Paste))
  (pad B2 smd circle (at -11.5 -11.5) (size 0.5 0.5) (layers F.Cu F.Mask F.Paste))
  (pad B3 smd circle (at -10.5 -11.5) (size 0.5 0.5) (layers F.Cu F.Mask F.Paste))
  (pad B4 smd circle (at -9.5 -11.5) (size 0.5 0.5) (layers F.Cu F.Mask F.Paste))
  (pad B5 smd circle (at -8.5 -11.5) (size 0.5 0.5) (layers F.Cu F.Mask F.Paste))
  (pad B6 smd circle (at -7.5 -11.5) (size 0.5 0.5) (layers F.Cu F.Mask F.Paste))
  (pad B7 smd circle (at -6.5 -11.5) (size 0.5 0.5) (layers F.Cu F.Mask F.Paste))
  (pad B8 smd circle (at -5.5 -11.5) (size 0.5 0.5) (layers F.Cu F.Mask F.Paste))
  (pad B9 smd circle (at -4.5 -11.5) (size 0.5 0.5) (layers F.Cu F.Mask F.Paste))
  (pad B10 smd circle (at -3.5 -11.5) (size 0.5 0.5) (layers F.Cu F.Mask F.Paste))
  (pad B11 smd circle (at -2.5 -11.5) (size 0.5 0.5) (layers F.Cu F.Mask F.Paste))
  (pad B12 smd circle (at -1.5 -11.5) (size 0.5 0.5) (layers F.Cu F.Mask F.Paste))
  (pad B13 smd circle (at -0.5 -11.5) (size 0.5 0.5) (layers F.Cu F.Mask F.Paste))
  (pad B14 smd circle (at 0.5 -11.5) (size 0.5 0.5) (layers F.Cu F.Mask F.Paste))
  (pad B15 smd circle (at 1.5 -11.5) (size 0.5 0.5) (layers F.Cu F.Mask F.Paste))
  (pad B16 smd circle (at 2.5 -11.5) (size 0.5 0.5) (layers F.Cu F.Mask F.Paste))
  (pad B17 smd circle (at 3.5 -11.5) (size 0.5 0.5) (layers F.Cu F.Mask F.Paste))
  (pad B18 smd circle (at 4.5 -11.5) (size 0.5 0.5) (layers F.Cu F.Mask F.Paste))
  (pad B19 smd circle (at 5.5 -11.5) (size 0.5 0.5) (layers F.Cu F.Mask F.Paste))
  (pad B20 smd circle (at 6.5 -11.5) (size 0.5 0.5) (layers F.Cu F.Mask F.Paste))
  (pad B21 smd circle (at 7.5 -11.5) (size 0.5 0.5) (layers F.Cu F.Mask F.Paste))
  (pad B22 smd circle (at 8.5 -11.5) (size 0.5 0.5) (layers F.Cu F.Mask F.Paste))
  (pad B23 smd circle (at 9.5 -11.5) (size 0.5 0.5) (layers F.Cu F.Mask F.Paste))
  (pad B24 smd circle (at 10.5 -11.5) (size 0.5 0.5) (layers F.Cu F.Mask F.Paste))
  (pad B25 smd circle (at 11.5 -11.5) (size 0.5 0.5) (layers F.Cu F.Mask F.Paste))
  (pad B26 smd circle (at 12.5 -11.5) (size 0.5 0.5) (layers F.Cu F.Mask F.Paste))
  (pad C1 smd circle (at -12.5 -10.5) (size 0.5 0.5) (layers F.Cu F.Mask F.Paste))
  (pad C2 smd circle (at -11.5 -10.5) (size 0.5 0.5) (layers F.Cu F.Mask F.Paste))
  (pad C3 smd circle (at -10.5 -10.5) (size 0.5 0.5) (layers F.Cu F.Mask F.Paste))
  (pad C4 smd circle (at -9.5 -10.5) (size 0.5 0.5) (layers F.Cu F.Mask F.Paste))
  (pad C5 smd circle (at -8.5 -10.5) (size 0.5 0.5) (layers F.Cu F.Mask F.Paste))
  (pad C6 smd circle (at -7.5 -10.5) (size 0.5 0.5) (layers F.Cu F.Mask F.Paste))
  (pad C7 smd circle (at -6.5 -10.5) (size 0.5 0.5) (layers F.Cu F.Mask F.Paste))
  (pad C8 smd circle (at -5.5 -10.5) (size 0.5 0.5) (layers F.Cu F.Mask F.Paste))
  (pad C9 smd circle (at -4.5 -10.5) (size 0.5 0.5) (layers F.Cu F.Mask F.Paste))
  (pad C10 smd circle (at -3.5 -10.5) (size 0.5 0.5) (layers F.Cu F.Mask F.Paste))
  (pad C11 smd circle (at -2.5 -10.5) (size 0.5 0.5) (layers F.Cu F.Mask F.Paste))
  (pad C12 smd circle (at -1.5 -10.5) (size 0.5 0.5) (layers F.Cu F.Mask F.Paste))
  (pad C13 smd circle (at -0.5 -10.5) (size 0.5 0.5) (layers F.Cu F.Mask F.Paste))
  (pad C14 smd circle (at 0.5 -10.5) (size 0.5 0.5) (layers F.Cu F.Mask F.Paste))
  (pad C15 smd circle (at 1.5 -10.5) (size 0.5 0.5) (layers F.Cu F.Mask F.Paste))
  (pad C16 smd circle (at 2.5 -10.5) (size 0.5 0.5) (layers F.Cu F.Mask F.Paste))
  (pad C17 smd circle (at 3.5 -10.5) (size 0.5 0.5) (layers F.Cu F.Mask F.Paste))
  (pad C18 smd circle (at 4.5 -10.5) (size 0.5 0.5) (layers F.Cu F.Mask F.Paste))
  (pad C19 smd circle (at 5.5 -10.5) (size 0.5 0.5) (layers F.Cu F.Mask F.Paste))
  (pad C20 smd circle (at 6.5 -10.5) (size 0.5 0.5) (layers F.Cu F.Mask F.Paste))
  (pad C21 smd circle (at 7.5 -10.5) (size 0.5 0.5) (layers F.Cu F.Mask F.Paste))
  (pad C22 smd circle (at 8.5 -10.5) (size 0.5 0.5) (layers F.Cu F.Mask F.Paste))
  (pad C23 smd circle (at 9.5 -10.5) (size 0.5 0.5) (layers F.Cu F.Mask F.Paste))
  (pad C24 smd circle (at 10.5 -10.5) (size 0.5 0.5) (layers F.Cu F.Mask F.Paste))
  (pad C25 smd circle (at 11.5 -10.5) (size 0.5 0.5) (layers F.Cu F.Mask F.Paste))
  (pad C26 smd circle (at 12.5 -10.5) (size 0.5 0.5) (layers F.Cu F.Mask F.Paste))
  (pad D1 smd circle (at -12.5 -9.5) (size 0.5 0.5) (layers F.Cu F.Mask F.Paste))
  (pad D2 smd circle (at -11.5 -9.5) (size 0.5 0.5) (layers F.Cu F.Mask F.Paste))
  (pad D3 smd circle (at -10.5 -9.5) (size 0.5 0.5) (layers F.Cu F.Mask F.Paste))
  (pad D4 smd circle (at -9.5 -9.5) (size 0.5 0.5) (layers F.Cu F.Mask F.Paste))
  (pad D5 smd circle (at -8.5 -9.5) (size 0.5 0.5) (layers F.Cu F.Mask F.Paste))
  (pad D6 smd circle (at -7.5 -9.5) (size 0.5 0.5) (layers F.Cu F.Mask F.Paste))
  (pad D7 smd circle (at -6.5 -9.5) (size 0.5 0.5) (layers F.Cu F.Mask F.Paste))
  (pad D8 smd circle (at -5.5 -9.5) (size 0.5 0.5) (layers F.Cu F.Mask F.Paste))
  (pad D9 smd circle (at -4.5 -9.5) (size 0.5 0.5) (layers F.Cu F.Mask F.Paste))
  (pad D10 smd circle (at -3.5 -9.5) (size 0.5 0.5) (layers F.Cu F.Mask F.Paste))
  (pad D11 smd circle (at -2.5 -9.5) (size 0.5 0.5) (layers F.Cu F.Mask F.Paste))
  (pad D12 smd circle (at -1.5 -9.5) (size 0.5 0.5) (layers F.Cu F.Mask F.Paste))
  (pad D13 smd circle (at -0.5 -9.5) (size 0.5 0.5) (layers F.Cu F.Mask F.Paste))
  (pad D14 smd circle (at 0.5 -9.5) (size 0.5 0.5) (layers F.Cu F.Mask F.Paste))
  (pad D15 smd circle (at 1.5 -9.5) (size 0.5 0.5) (layers F.Cu F.Mask F.Paste))
  (pad D16 smd circle (at 2.5 -9.5) (size 0.5 0.5) (layers F.Cu F.Mask F.Paste))
  (pad D17 smd circle (at 3.5 -9.5) (size 0.5 0.5) (layers F.Cu F.Mask F.Paste))
  (pad D18 smd circle (at 4.5 -9.5) (size 0.5 0.5) (layers F.Cu F.Mask F.Paste))
  (pad D19 smd circle (at 5.5 -9.5) (size 0.5 0.5) (layers F.Cu F.Mask F.Paste))
  (pad D20 smd circle (at 6.5 -9.5) (size 0.5 0.5) (layers F.Cu F.Mask F.Paste))
  (pad D21 smd circle (at 7.5 -9.5) (size 0.5 0.5) (layers F.Cu F.Mask F.Paste))
  (pad D22 smd circle (at 8.5 -9.5) (size 0.5 0.5) (layers F.Cu F.Mask F.Paste))
  (pad D23 smd circle (at 9.5 -9.5) (size 0.5 0.5) (layers F.Cu F.Mask F.Paste))
  (pad D24 smd circle (at 10.5 -9.5) (size 0.5 0.5) (layers F.Cu F.Mask F.Paste))
  (pad D25 smd circle (at 11.5 -9.5) (size 0.5 0.5) (layers F.Cu F.Mask F.Paste))
  (pad D26 smd circle (at 12.5 -9.5) (size 0.5 0.5) (layers F.Cu F.Mask F.Paste))
  (pad E1 smd circle (at -12.5 -8.5) (size 0.5 0.5) (layers F.Cu F.Mask F.Paste))
  (pad E2 smd circle (at -11.5 -8.5) (size 0.5 0.5) (layers F.Cu F.Mask F.Paste))
  (pad E3 smd circle (at -10.5 -8.5) (size 0.5 0.5) (layers F.Cu F.Mask F.Paste))
  (pad E4 smd circle (at -9.5 -8.5) (size 0.5 0.5) (layers F.Cu F.Mask F.Paste))
  (pad E5 smd circle (at -8.5 -8.5) (size 0.5 0.5) (layers F.Cu F.Mask F.Paste))
  (pad E6 smd circle (at -7.5 -8.5) (size 0.5 0.5) (layers F.Cu F.Mask F.Paste))
  (pad E7 smd circle (at -6.5 -8.5) (size 0.5 0.5) (layers F.Cu F.Mask F.Paste))
  (pad E8 smd circle (at -5.5 -8.5) (size 0.5 0.5) (layers F.Cu F.Mask F.Paste))
  (pad E9 smd circle (at -4.5 -8.5) (size 0.5 0.5) (layers F.Cu F.Mask F.Paste))
  (pad E10 smd circle (at -3.5 -8.5) (size 0.5 0.5) (layers F.Cu F.Mask F.Paste))
  (pad E11 smd circle (at -2.5 -8.5) (size 0.5 0.5) (layers F.Cu F.Mask F.Paste))
  (pad E12 smd circle (at -1.5 -8.5) (size 0.5 0.5) (layers F.Cu F.Mask F.Paste))
  (pad E13 smd circle (at -0.5 -8.5) (size 0.5 0.5) (layers F.Cu F.Mask F.Paste))
  (pad E14 smd circle (at 0.5 -8.5) (size 0.5 0.5) (layers F.Cu F.Mask F.Paste))
  (pad E15 smd circle (at 1.5 -8.5) (size 0.5 0.5) (layers F.Cu F.Mask F.Paste))
  (pad E16 smd circle (at 2.5 -8.5) (size 0.5 0.5) (layers F.Cu F.Mask F.Paste))
  (pad E17 smd circle (at 3.5 -8.5) (size 0.5 0.5) (layers F.Cu F.Mask F.Paste))
  (pad E18 smd circle (at 4.5 -8.5) (size 0.5 0.5) (layers F.Cu F.Mask F.Paste))
  (pad E19 smd circle (at 5.5 -8.5) (size 0.5 0.5) (layers F.Cu F.Mask F.Paste))
  (pad E20 smd circle (at 6.5 -8.5) (size 0.5 0.5) (layers F.Cu F.Mask F.Paste))
  (pad E21 smd circle (at 7.5 -8.5) (size 0.5 0.5) (layers F.Cu F.Mask F.Paste))
  (pad E22 smd circle (at 8.5 -8.5) (size 0.5 0.5) (layers F.Cu F.Mask F.Paste))
  (pad E23 smd circle (at 9.5 -8.5) (size 0.5 0.5) (layers F.Cu F.Mask F.Paste))
  (pad E24 smd circle (at 10.5 -8.5) (size 0.5 0.5) (layers F.Cu F.Mask F.Paste))
  (pad E25 smd circle (at 11.5 -8.5) (size 0.5 0.5) (layers F.Cu F.Mask F.Paste))
  (pad E26 smd circle (at 12.5 -8.5) (size 0.5 0.5) (layers F.Cu F.Mask F.Paste))
  (pad F1 smd circle (at -12.5 -7.5) (size 0.5 0.5) (layers F.Cu F.Mask F.Paste))
  (pad F2 smd circle (at -11.5 -7.5) (size 0.5 0.5) (layers F.Cu F.Mask F.Paste))
  (pad F3 smd circle (at -10.5 -7.5) (size 0.5 0.5) (layers F.Cu F.Mask F.Paste))
  (pad F4 smd circle (at -9.5 -7.5) (size 0.5 0.5) (layers F.Cu F.Mask F.Paste))
  (pad F5 smd circle (at -8.5 -7.5) (size 0.5 0.5) (layers F.Cu F.Mask F.Paste))
  (pad F6 smd circle (at -7.5 -7.5) (size 0.5 0.5) (layers F.Cu F.Mask F.Paste))
  (pad F7 smd circle (at -6.5 -7.5) (size 0.5 0.5) (layers F.Cu F.Mask F.Paste))
  (pad F8 smd circle (at -5.5 -7.5) (size 0.5 0.5) (layers F.Cu F.Mask F.Paste))
  (pad F9 smd circle (at -4.5 -7.5) (size 0.5 0.5) (layers F.Cu F.Mask F.Paste))
  (pad F10 smd circle (at -3.5 -7.5) (size 0.5 0.5) (layers F.Cu F.Mask F.Paste))
  (pad F11 smd circle (at -2.5 -7.5) (size 0.5 0.5) (layers F.Cu F.Mask F.Paste))
  (pad F12 smd circle (at -1.5 -7.5) (size 0.5 0.5) (layers F.Cu F.Mask F.Paste))
  (pad F13 smd circle (at -0.5 -7.5) (size 0.5 0.5) (layers F.Cu F.Mask F.Paste))
  (pad F14 smd circle (at 0.5 -7.5) (size 0.5 0.5) (layers F.Cu F.Mask F.Paste))
  (pad F15 smd circle (at 1.5 -7.5) (size 0.5 0.5) (layers F.Cu F.Mask F.Paste))
  (pad F16 smd circle (at 2.5 -7.5) (size 0.5 0.5) (layers F.Cu F.Mask F.Paste))
  (pad F17 smd circle (at 3.5 -7.5) (size 0.5 0.5) (layers F.Cu F.Mask F.Paste))
  (pad F18 smd circle (at 4.5 -7.5) (size 0.5 0.5) (layers F.Cu F.Mask F.Paste))
  (pad F19 smd circle (at 5.5 -7.5) (size 0.5 0.5) (layers F.Cu F.Mask F.Paste))
  (pad F20 smd circle (at 6.5 -7.5) (size 0.5 0.5) (layers F.Cu F.Mask F.Paste))
  (pad F21 smd circle (at 7.5 -7.5) (size 0.5 0.5) (layers F.Cu F.Mask F.Paste))
  (pad F22 smd circle (at 8.5 -7.5) (size 0.5 0.5) (layers F.Cu F.Mask F.Paste))
  (pad F23 smd circle (at 9.5 -7.5) (size 0.5 0.5) (layers F.Cu F.Mask F.Paste))
  (pad F24 smd circle (at 10.5 -7.5) (size 0.5 0.5) (layers F.Cu F.Mask F.Paste))
  (pad F25 smd circle (at 11.5 -7.5) (size 0.5 0.5) (layers F.Cu F.Mask F.Paste))
  (pad F26 smd circle (at 12.5 -7.5) (size 0.5 0.5) (layers F.Cu F.Mask F.Paste))
  (pad G1 smd circle (at -12.5 -6.5) (size 0.5 0.5) (layers F.Cu F.Mask F.Paste))
  (pad G2 smd circle (at -11.5 -6.5) (size 0.5 0.5) (layers F.Cu F.Mask F.Paste))
  (pad G3 smd circle (at -10.5 -6.5) (size 0.5 0.5) (layers F.Cu F.Mask F.Paste))
  (pad G4 smd circle (at -9.5 -6.5) (size 0.5 0.5) (layers F.Cu F.Mask F.Paste))
  (pad G5 smd circle (at -8.5 -6.5) (size 0.5 0.5) (layers F.Cu F.Mask F.Paste))
  (pad G6 smd circle (at -7.5 -6.5) (size 0.5 0.5) (layers F.Cu F.Mask F.Paste))
  (pad G7 smd circle (at -6.5 -6.5) (size 0.5 0.5) (layers F.Cu F.Mask F.Paste))
  (pad G8 smd circle (at -5.5 -6.5) (size 0.5 0.5) (layers F.Cu F.Mask F.Paste))
  (pad G9 smd circle (at -4.5 -6.5) (size 0.5 0.5) (layers F.Cu F.Mask F.Paste))
  (pad G10 smd circle (at -3.5 -6.5) (size 0.5 0.5) (layers F.Cu F.Mask F.Paste))
  (pad G11 smd circle (at -2.5 -6.5) (size 0.5 0.5) (layers F.Cu F.Mask F.Paste))
  (pad G12 smd circle (at -1.5 -6.5) (size 0.5 0.5) (layers F.Cu F.Mask F.Paste))
  (pad G13 smd circle (at -0.5 -6.5) (size 0.5 0.5) (layers F.Cu F.Mask F.Paste))
  (pad G14 smd circle (at 0.5 -6.5) (size 0.5 0.5) (layers F.Cu F.Mask F.Paste))
  (pad G15 smd circle (at 1.5 -6.5) (size 0.5 0.5) (layers F.Cu F.Mask F.Paste))
  (pad G16 smd circle (at 2.5 -6.5) (size 0.5 0.5) (layers F.Cu F.Mask F.Paste))
  (pad G17 smd circle (at 3.5 -6.5) (size 0.5 0.5) (layers F.Cu F.Mask F.Paste))
  (pad G18 smd circle (at 4.5 -6.5) (size 0.5 0.5) (layers F.Cu F.Mask F.Paste))
  (pad G19 smd circle (at 5.5 -6.5) (size 0.5 0.5) (layers F.Cu F.Mask F.Paste))
  (pad G20 smd circle (at 6.5 -6.5) (size 0.5 0.5) (layers F.Cu F.Mask F.Paste))
  (pad G21 smd circle (at 7.5 -6.5) (size 0.5 0.5) (layers F.Cu F.Mask F.Paste))
  (pad G22 smd circle (at 8.5 -6.5) (size 0.5 0.5) (layers F.Cu F.Mask F.Paste))
  (pad G23 smd circle (at 9.5 -6.5) (size 0.5 0.5) (layers F.Cu F.Mask F.Paste))
  (pad G24 smd circle (at 10.5 -6.5) (size 0.5 0.5) (layers F.Cu F.Mask F.Paste))
  (pad G25 smd circle (at 11.5 -6.5) (size 0.5 0.5) (layers F.Cu F.Mask F.Paste))
  (pad G26 smd circle (at 12.5 -6.5) (size 0.5 0.5) (layers F.Cu F.Mask F.Paste))
  (pad H1 smd circle (at -12.5 -5.5) (size 0.5 0.5) (layers F.Cu F.Mask F.Paste))
  (pad H2 smd circle (at -11.5 -5.5) (size 0.5 0.5) (layers F.Cu F.Mask F.Paste))
  (pad H3 smd circle (at -10.5 -5.5) (size 0.5 0.5) (layers F.Cu F.Mask F.Paste))
  (pad H4 smd circle (at -9.5 -5.5) (size 0.5 0.5) (layers F.Cu F.Mask F.Paste))
  (pad H5 smd circle (at -8.5 -5.5) (size 0.5 0.5) (layers F.Cu F.Mask F.Paste))
  (pad H6 smd circle (at -7.5 -5.5) (size 0.5 0.5) (layers F.Cu F.Mask F.Paste))
  (pad H7 smd circle (at -6.5 -5.5) (size 0.5 0.5) (layers F.Cu F.Mask F.Paste))
  (pad H8 smd circle (at -5.5 -5.5) (size 0.5 0.5) (layers F.Cu F.Mask F.Paste))
  (pad H9 smd circle (at -4.5 -5.5) (size 0.5 0.5) (layers F.Cu F.Mask F.Paste))
  (pad H10 smd circle (at -3.5 -5.5) (size 0.5 0.5) (layers F.Cu F.Mask F.Paste))
  (pad H11 smd circle (at -2.5 -5.5) (size 0.5 0.5) (layers F.Cu F.Mask F.Paste))
  (pad H12 smd circle (at -1.5 -5.5) (size 0.5 0.5) (layers F.Cu F.Mask F.Paste))
  (pad H13 smd circle (at -0.5 -5.5) (size 0.5 0.5) (layers F.Cu F.Mask F.Paste))
  (pad H14 smd circle (at 0.5 -5.5) (size 0.5 0.5) (layers F.Cu F.Mask F.Paste))
  (pad H15 smd circle (at 1.5 -5.5) (size 0.5 0.5) (layers F.Cu F.Mask F.Paste))
  (pad H16 smd circle (at 2.5 -5.5) (size 0.5 0.5) (layers F.Cu F.Mask F.Paste))
  (pad H17 smd circle (at 3.5 -5.5) (size 0.5 0.5) (layers F.Cu F.Mask F.Paste))
  (pad H18 smd circle (at 4.5 -5.5) (size 0.5 0.5) (layers F.Cu F.Mask F.Paste))
  (pad H19 smd circle (at 5.5 -5.5) (size 0.5 0.5) (layers F.Cu F.Mask F.Paste))
  (pad H20 smd circle (at 6.5 -5.5) (size 0.5 0.5) (layers F.Cu F.Mask F.Paste))
  (pad H21 smd circle (at 7.5 -5.5) (size 0.5 0.5) (layers F.Cu F.Mask F.Paste))
  (pad H22 smd circle (at 8.5 -5.5) (size 0.5 0.5) (layers F.Cu F.Mask F.Paste))
  (pad H23 smd circle (at 9.5 -5.5) (size 0.5 0.5) (layers F.Cu F.Mask F.Paste))
  (pad H24 smd circle (at 10.5 -5.5) (size 0.5 0.5) (layers F.Cu F.Mask F.Paste))
  (pad H25 smd circle (at 11.5 -5.5) (size 0.5 0.5) (layers F.Cu F.Mask F.Paste))
  (pad H26 smd circle (at 12.5 -5.5) (size 0.5 0.5) (layers F.Cu F.Mask F.Paste))
  (pad J1 smd circle (at -12.5 -4.5) (size 0.5 0.5) (layers F.Cu F.Mask F.Paste))
  (pad J2 smd circle (at -11.5 -4.5) (size 0.5 0.5) (layers F.Cu F.Mask F.Paste))
  (pad J3 smd circle (at -10.5 -4.5) (size 0.5 0.5) (layers F.Cu F.Mask F.Paste))
  (pad J4 smd circle (at -9.5 -4.5) (size 0.5 0.5) (layers F.Cu F.Mask F.Paste))
  (pad J5 smd circle (at -8.5 -4.5) (size 0.5 0.5) (layers F.Cu F.Mask F.Paste))
  (pad J6 smd circle (at -7.5 -4.5) (size 0.5 0.5) (layers F.Cu F.Mask F.Paste))
  (pad J7 smd circle (at -6.5 -4.5) (size 0.5 0.5) (layers F.Cu F.Mask F.Paste))
  (pad J8 smd circle (at -5.5 -4.5) (size 0.5 0.5) (layers F.Cu F.Mask F.Paste))
  (pad J9 smd circle (at -4.5 -4.5) (size 0.5 0.5) (layers F.Cu F.Mask F.Paste))
  (pad J10 smd circle (at -3.5 -4.5) (size 0.5 0.5) (layers F.Cu F.Mask F.Paste))
  (pad J11 smd circle (at -2.5 -4.5) (size 0.5 0.5) (layers F.Cu F.Mask F.Paste))
  (pad J12 smd circle (at -1.5 -4.5) (size 0.5 0.5) (layers F.Cu F.Mask F.Paste))
  (pad J13 smd circle (at -0.5 -4.5) (size 0.5 0.5) (layers F.Cu F.Mask F.Paste))
  (pad J14 smd circle (at 0.5 -4.5) (size 0.5 0.5) (layers F.Cu F.Mask F.Paste))
  (pad J15 smd circle (at 1.5 -4.5) (size 0.5 0.5) (layers F.Cu F.Mask F.Paste))
  (pad J16 smd circle (at 2.5 -4.5) (size 0.5 0.5) (layers F.Cu F.Mask F.Paste))
  (pad J17 smd circle (at 3.5 -4.5) (size 0.5 0.5) (layers F.Cu F.Mask F.Paste))
  (pad J18 smd circle (at 4.5 -4.5) (size 0.5 0.5) (layers F.Cu F.Mask F.Paste))
  (pad J19 smd circle (at 5.5 -4.5) (size 0.5 0.5) (layers F.Cu F.Mask F.Paste))
  (pad J20 smd circle (at 6.5 -4.5) (size 0.5 0.5) (layers F.Cu F.Mask F.Paste))
  (pad J21 smd circle (at 7.5 -4.5) (size 0.5 0.5) (layers F.Cu F.Mask F.Paste))
  (pad J22 smd circle (at 8.5 -4.5) (size 0.5 0.5) (layers F.Cu F.Mask F.Paste))
  (pad J23 smd circle (at 9.5 -4.5) (size 0.5 0.5) (layers F.Cu F.Mask F.Paste))
  (pad J24 smd circle (at 10.5 -4.5) (size 0.5 0.5) (layers F.Cu F.Mask F.Paste))
  (pad J25 smd circle (at 11.5 -4.5) (size 0.5 0.5) (layers F.Cu F.Mask F.Paste))
  (pad J26 smd circle (at 12.5 -4.5) (size 0.5 0.5) (layers F.Cu F.Mask F.Paste))
  (pad K1 smd circle (at -12.5 -3.5) (size 0.5 0.5) (layers F.Cu F.Mask F.Paste))
  (pad K2 smd circle (at -11.5 -3.5) (size 0.5 0.5) (layers F.Cu F.Mask F.Paste))
  (pad K3 smd circle (at -10.5 -3.5) (size 0.5 0.5) (layers F.Cu F.Mask F.Paste))
  (pad K4 smd circle (at -9.5 -3.5) (size 0.5 0.5) (layers F.Cu F.Mask F.Paste))
  (pad K5 smd circle (at -8.5 -3.5) (size 0.5 0.5) (layers F.Cu F.Mask F.Paste))
  (pad K6 smd circle (at -7.5 -3.5) (size 0.5 0.5) (layers F.Cu F.Mask F.Paste))
  (pad K7 smd circle (at -6.5 -3.5) (size 0.5 0.5) (layers F.Cu F.Mask F.Paste))
  (pad K8 smd circle (at -5.5 -3.5) (size 0.5 0.5) (layers F.Cu F.Mask F.Paste))
  (pad K9 smd circle (at -4.5 -3.5) (size 0.5 0.5) (layers F.Cu F.Mask F.Paste))
  (pad K10 smd circle (at -3.5 -3.5) (size 0.5 0.5) (layers F.Cu F.Mask F.Paste))
  (pad K11 smd circle (at -2.5 -3.5) (size 0.5 0.5) (layers F.Cu F.Mask F.Paste))
  (pad K12 smd circle (at -1.5 -3.5) (size 0.5 0.5) (layers F.Cu F.Mask F.Paste))
  (pad K13 smd circle (at -0.5 -3.5) (size 0.5 0.5) (layers F.Cu F.Mask F.Paste))
  (pad K14 smd circle (at 0.5 -3.5) (size 0.5 0.5) (layers F.Cu F.Mask F.Paste))
  (pad K15 smd circle (at 1.5 -3.5) (size 0.5 0.5) (layers F.Cu F.Mask F.Paste))
  (pad K16 smd circle (at 2.5 -3.5) (size 0.5 0.5) (layers F.Cu F.Mask F.Paste))
  (pad K17 smd circle (at 3.5 -3.5) (size 0.5 0.5) (layers F.Cu F.Mask F.Paste))
  (pad K18 smd circle (at 4.5 -3.5) (size 0.5 0.5) (layers F.Cu F.Mask F.Paste))
  (pad K19 smd circle (at 5.5 -3.5) (size 0.5 0.5) (layers F.Cu F.Mask F.Paste))
  (pad K20 smd circle (at 6.5 -3.5) (size 0.5 0.5) (layers F.Cu F.Mask F.Paste))
  (pad K21 smd circle (at 7.5 -3.5) (size 0.5 0.5) (layers F.Cu F.Mask F.Paste))
  (pad K22 smd circle (at 8.5 -3.5) (size 0.5 0.5) (layers F.Cu F.Mask F.Paste))
  (pad K23 smd circle (at 9.5 -3.5) (size 0.5 0.5) (layers F.Cu F.Mask F.Paste))
  (pad K24 smd circle (at 10.5 -3.5) (size 0.5 0.5) (layers F.Cu F.Mask F.Paste))
  (pad K25 smd circle (at 11.5 -3.5) (size 0.5 0.5) (layers F.Cu F.Mask F.Paste))
  (pad K26 smd circle (at 12.5 -3.5) (size 0.5 0.5) (layers F.Cu F.Mask F.Paste))
  (pad L1 smd circle (at -12.5 -2.5) (size 0.5 0.5) (layers F.Cu F.Mask F.Paste))
  (pad L2 smd circle (at -11.5 -2.5) (size 0.5 0.5) (layers F.Cu F.Mask F.Paste))
  (pad L3 smd circle (at -10.5 -2.5) (size 0.5 0.5) (layers F.Cu F.Mask F.Paste))
  (pad L4 smd circle (at -9.5 -2.5) (size 0.5 0.5) (layers F.Cu F.Mask F.Paste))
  (pad L5 smd circle (at -8.5 -2.5) (size 0.5 0.5) (layers F.Cu F.Mask F.Paste))
  (pad L6 smd circle (at -7.5 -2.5) (size 0.5 0.5) (layers F.Cu F.Mask F.Paste))
  (pad L7 smd circle (at -6.5 -2.5) (size 0.5 0.5) (layers F.Cu F.Mask F.Paste))
  (pad L8 smd circle (at -5.5 -2.5) (size 0.5 0.5) (layers F.Cu F.Mask F.Paste))
  (pad L9 smd circle (at -4.5 -2.5) (size 0.5 0.5) (layers F.Cu F.Mask F.Paste))
  (pad L10 smd circle (at -3.5 -2.5) (size 0.5 0.5) (layers F.Cu F.Mask F.Paste))
  (pad L11 smd circle (at -2.5 -2.5) (size 0.5 0.5) (layers F.Cu F.Mask F.Paste))
  (pad L12 smd circle (at -1.5 -2.5) (size 0.5 0.5) (layers F.Cu F.Mask F.Paste))
  (pad L13 smd circle (at -0.5 -2.5) (size 0.5 0.5) (layers F.Cu F.Mask F.Paste))
  (pad L14 smd circle (at 0.5 -2.5) (size 0.5 0.5) (layers F.Cu F.Mask F.Paste))
  (pad L15 smd circle (at 1.5 -2.5) (size 0.5 0.5) (layers F.Cu F.Mask F.Paste))
  (pad L16 smd circle (at 2.5 -2.5) (size 0.5 0.5) (layers F.Cu F.Mask F.Paste))
  (pad L17 smd circle (at 3.5 -2.5) (size 0.5 0.5) (layers F.Cu F.Mask F.Paste))
  (pad L18 smd circle (at 4.5 -2.5) (size 0.5 0.5) (layers F.Cu F.Mask F.Paste))
  (pad L19 smd circle (at 5.5 -2.5) (size 0.5 0.5) (layers F.Cu F.Mask F.Paste))
  (pad L20 smd circle (at 6.5 -2.5) (size 0.5 0.5) (layers F.Cu F.Mask F.Paste))
  (pad L21 smd circle (at 7.5 -2.5) (size 0.5 0.5) (layers F.Cu F.Mask F.Paste))
  (pad L22 smd circle (at 8.5 -2.5) (size 0.5 0.5) (layers F.Cu F.Mask F.Paste))
  (pad L23 smd circle (at 9.5 -2.5) (size 0.5 0.5) (layers F.Cu F.Mask F.Paste))
  (pad L24 smd circle (at 10.5 -2.5) (size 0.5 0.5) (layers F.Cu F.Mask F.Paste))
  (pad L25 smd circle (at 11.5 -2.5) (size 0.5 0.5) (layers F.Cu F.Mask F.Paste))
  (pad L26 smd circle (at 12.5 -2.5) (size 0.5 0.5) (layers F.Cu F.Mask F.Paste))
  (pad M1 smd circle (at -12.5 -1.5) (size 0.5 0.5) (layers F.Cu F.Mask F.Paste))
  (pad M2 smd circle (at -11.5 -1.5) (size 0.5 0.5) (layers F.Cu F.Mask F.Paste))
  (pad M3 smd circle (at -10.5 -1.5) (size 0.5 0.5) (layers F.Cu F.Mask F.Paste))
  (pad M4 smd circle (at -9.5 -1.5) (size 0.5 0.5) (layers F.Cu F.Mask F.Paste))
  (pad M5 smd circle (at -8.5 -1.5) (size 0.5 0.5) (layers F.Cu F.Mask F.Paste))
  (pad M6 smd circle (at -7.5 -1.5) (size 0.5 0.5) (layers F.Cu F.Mask F.Paste))
  (pad M7 smd circle (at -6.5 -1.5) (size 0.5 0.5) (layers F.Cu F.Mask F.Paste))
  (pad M8 smd circle (at -5.5 -1.5) (size 0.5 0.5) (layers F.Cu F.Mask F.Paste))
  (pad M9 smd circle (at -4.5 -1.5) (size 0.5 0.5) (layers F.Cu F.Mask F.Paste))
  (pad M10 smd circle (at -3.5 -1.5) (size 0.5 0.5) (layers F.Cu F.Mask F.Paste))
  (pad M11 smd circle (at -2.5 -1.5) (size 0.5 0.5) (layers F.Cu F.Mask F.Paste))
  (pad M12 smd circle (at -1.5 -1.5) (size 0.5 0.5) (layers F.Cu F.Mask F.Paste))
  (pad M13 smd circle (at -0.5 -1.5) (size 0.5 0.5) (layers F.Cu F.Mask F.Paste))
  (pad M14 smd circle (at 0.5 -1.5) (size 0.5 0.5) (layers F.Cu F.Mask F.Paste))
  (pad M15 smd circle (at 1.5 -1.5) (size 0.5 0.5) (layers F.Cu F.Mask F.Paste))
  (pad M16 smd circle (at 2.5 -1.5) (size 0.5 0.5) (layers F.Cu F.Mask F.Paste))
  (pad M17 smd circle (at 3.5 -1.5) (size 0.5 0.5) (layers F.Cu F.Mask F.Paste))
  (pad M18 smd circle (at 4.5 -1.5) (size 0.5 0.5) (layers F.Cu F.Mask F.Paste))
  (pad M19 smd circle (at 5.5 -1.5) (size 0.5 0.5) (layers F.Cu F.Mask F.Paste))
  (pad M20 smd circle (at 6.5 -1.5) (size 0.5 0.5) (layers F.Cu F.Mask F.Paste))
  (pad M21 smd circle (at 7.5 -1.5) (size 0.5 0.5) (layers F.Cu F.Mask F.Paste))
  (pad M22 smd circle (at 8.5 -1.5) (size 0.5 0.5) (layers F.Cu F.Mask F.Paste))
  (pad M23 smd circle (at 9.5 -1.5) (size 0.5 0.5) (layers F.Cu F.Mask F.Paste))
  (pad M24 smd circle (at 10.5 -1.5) (size 0.5 0.5) (layers F.Cu F.Mask F.Paste))
  (pad M25 smd circle (at 11.5 -1.5) (size 0.5 0.5) (layers F.Cu F.Mask F.Paste))
  (pad M26 smd circle (at 12.5 -1.5) (size 0.5 0.5) (layers F.Cu F.Mask F.Paste))
  (pad N1 smd circle (at -12.5 -0.5) (size 0.5 0.5) (layers F.Cu F.Mask F.Paste))
  (pad N2 smd circle (at -11.5 -0.5) (size 0.5 0.5) (layers F.Cu F.Mask F.Paste))
  (pad N3 smd circle (at -10.5 -0.5) (size 0.5 0.5) (layers F.Cu F.Mask F.Paste))
  (pad N4 smd circle (at -9.5 -0.5) (size 0.5 0.5) (layers F.Cu F.Mask F.Paste))
  (pad N5 smd circle (at -8.5 -0.5) (size 0.5 0.5) (layers F.Cu F.Mask F.Paste))
  (pad N6 smd circle (at -7.5 -0.5) (size 0.5 0.5) (layers F.Cu F.Mask F.Paste))
  (pad N7 smd circle (at -6.5 -0.5) (size 0.5 0.5) (layers F.Cu F.Mask F.Paste))
  (pad N8 smd circle (at -5.5 -0.5) (size 0.5 0.5) (layers F.Cu F.Mask F.Paste))
  (pad N9 smd circle (at -4.5 -0.5) (size 0.5 0.5) (layers F.Cu F.Mask F.Paste))
  (pad N10 smd circle (at -3.5 -0.5) (size 0.5 0.5) (layers F.Cu F.Mask F.Paste))
  (pad N11 smd circle (at -2.5 -0.5) (size 0.5 0.5) (layers F.Cu F.Mask F.Paste))
  (pad N12 smd circle (at -1.5 -0.5) (size 0.5 0.5) (layers F.Cu F.Mask F.Paste))
  (pad N13 smd circle (at -0.5 -0.5) (size 0.5 0.5) (layers F.Cu F.Mask F.Paste))
  (pad N14 smd circle (at 0.5 -0.5) (size 0.5 0.5) (layers F.Cu F.Mask F.Paste))
  (pad N15 smd circle (at 1.5 -0.5) (size 0.5 0.5) (layers F.Cu F.Mask F.Paste))
  (pad N16 smd circle (at 2.5 -0.5) (size 0.5 0.5) (layers F.Cu F.Mask F.Paste))
  (pad N17 smd circle (at 3.5 -0.5) (size 0.5 0.5) (layers F.Cu F.Mask F.Paste))
  (pad N18 smd circle (at 4.5 -0.5) (size 0.5 0.5) (layers F.Cu F.Mask F.Paste))
  (pad N19 smd circle (at 5.5 -0.5) (size 0.5 0.5) (layers F.Cu F.Mask F.Paste))
  (pad N20 smd circle (at 6.5 -0.5) (size 0.5 0.5) (layers F.Cu F.Mask F.Paste))
  (pad N21 smd circle (at 7.5 -0.5) (size 0.5 0.5) (layers F.Cu F.Mask F.Paste))
  (pad N22 smd circle (at 8.5 -0.5) (size 0.5 0.5) (layers F.Cu F.Mask F.Paste))
  (pad N23 smd circle (at 9.5 -0.5) (size 0.5 0.5) (layers F.Cu F.Mask F.Paste))
  (pad N24 smd circle (at 10.5 -0.5) (size 0.5 0.5) (layers F.Cu F.Mask F.Paste))
  (pad N25 smd circle (at 11.5 -0.5) (size 0.5 0.5) (layers F.Cu F.Mask F.Paste))
  (pad N26 smd circle (at 12.5 -0.5) (size 0.5 0.5) (layers F.Cu F.Mask F.Paste))
  (pad P1 smd circle (at -12.5 0.5) (size 0.5 0.5) (layers F.Cu F.Mask F.Paste))
  (pad P2 smd circle (at -11.5 0.5) (size 0.5 0.5) (layers F.Cu F.Mask F.Paste))
  (pad P3 smd circle (at -10.5 0.5) (size 0.5 0.5) (layers F.Cu F.Mask F.Paste))
  (pad P4 smd circle (at -9.5 0.5) (size 0.5 0.5) (layers F.Cu F.Mask F.Paste))
  (pad P5 smd circle (at -8.5 0.5) (size 0.5 0.5) (layers F.Cu F.Mask F.Paste))
  (pad P6 smd circle (at -7.5 0.5) (size 0.5 0.5) (layers F.Cu F.Mask F.Paste))
  (pad P7 smd circle (at -6.5 0.5) (size 0.5 0.5) (layers F.Cu F.Mask F.Paste))
  (pad P8 smd circle (at -5.5 0.5) (size 0.5 0.5) (layers F.Cu F.Mask F.Paste))
  (pad P9 smd circle (at -4.5 0.5) (size 0.5 0.5) (layers F.Cu F.Mask F.Paste))
  (pad P10 smd circle (at -3.5 0.5) (size 0.5 0.5) (layers F.Cu F.Mask F.Paste))
  (pad P11 smd circle (at -2.5 0.5) (size 0.5 0.5) (layers F.Cu F.Mask F.Paste))
  (pad P12 smd circle (at -1.5 0.5) (size 0.5 0.5) (layers F.Cu F.Mask F.Paste))
  (pad P13 smd circle (at -0.5 0.5) (size 0.5 0.5) (layers F.Cu F.Mask F.Paste))
  (pad P14 smd circle (at 0.5 0.5) (size 0.5 0.5) (layers F.Cu F.Mask F.Paste))
  (pad P15 smd circle (at 1.5 0.5) (size 0.5 0.5) (layers F.Cu F.Mask F.Paste))
  (pad P16 smd circle (at 2.5 0.5) (size 0.5 0.5) (layers F.Cu F.Mask F.Paste))
  (pad P17 smd circle (at 3.5 0.5) (size 0.5 0.5) (layers F.Cu F.Mask F.Paste))
  (pad P18 smd circle (at 4.5 0.5) (size 0.5 0.5) (layers F.Cu F.Mask F.Paste))
  (pad P19 smd circle (at 5.5 0.5) (size 0.5 0.5) (layers F.Cu F.Mask F.Paste))
  (pad P20 smd circle (at 6.5 0.5) (size 0.5 0.5) (layers F.Cu F.Mask F.Paste))
  (pad P21 smd circle (at 7.5 0.5) (size 0.5 0.5) (layers F.Cu F.Mask F.Paste))
  (pad P22 smd circle (at 8.5 0.5) (size 0.5 0.5) (layers F.Cu F.Mask F.Paste))
  (pad P23 smd circle (at 9.5 0.5) (size 0.5 0.5) (layers F.Cu F.Mask F.Paste))
  (pad P24 smd circle (at 10.5 0.5) (size 0.5 0.5) (layers F.Cu F.Mask F.Paste))
  (pad P25 smd circle (at 11.5 0.5) (size 0.5 0.5) (layers F.Cu F.Mask F.Paste))
  (pad P26 smd circle (at 12.5 0.5) (size 0.5 0.5) (layers F.Cu F.Mask F.Paste))
  (pad R1 smd circle (at -12.5 1.5) (size 0.5 0.5) (layers F.Cu F.Mask F.Paste))
  (pad R2 smd circle (at -11.5 1.5) (size 0.5 0.5) (layers F.Cu F.Mask F.Paste))
  (pad R3 smd circle (at -10.5 1.5) (size 0.5 0.5) (layers F.Cu F.Mask F.Paste))
  (pad R4 smd circle (at -9.5 1.5) (size 0.5 0.5) (layers F.Cu F.Mask F.Paste))
  (pad R5 smd circle (at -8.5 1.5) (size 0.5 0.5) (layers F.Cu F.Mask F.Paste))
  (pad R6 smd circle (at -7.5 1.5) (size 0.5 0.5) (layers F.Cu F.Mask F.Paste))
  (pad R7 smd circle (at -6.5 1.5) (size 0.5 0.5) (layers F.Cu F.Mask F.Paste))
  (pad R8 smd circle (at -5.5 1.5) (size 0.5 0.5) (layers F.Cu F.Mask F.Paste))
  (pad R9 smd circle (at -4.5 1.5) (size 0.5 0.5) (layers F.Cu F.Mask F.Paste))
  (pad R10 smd circle (at -3.5 1.5) (size 0.5 0.5) (layers F.Cu F.Mask F.Paste))
  (pad R11 smd circle (at -2.5 1.5) (size 0.5 0.5) (layers F.Cu F.Mask F.Paste))
  (pad R12 smd circle (at -1.5 1.5) (size 0.5 0.5) (layers F.Cu F.Mask F.Paste))
  (pad R13 smd circle (at -0.5 1.5) (size 0.5 0.5) (layers F.Cu F.Mask F.Paste))
  (pad R14 smd circle (at 0.5 1.5) (size 0.5 0.5) (layers F.Cu F.Mask F.Paste))
  (pad R15 smd circle (at 1.5 1.5) (size 0.5 0.5) (layers F.Cu F.Mask F.Paste))
  (pad R16 smd circle (at 2.5 1.5) (size 0.5 0.5) (layers F.Cu F.Mask F.Paste))
  (pad R17 smd circle (at 3.5 1.5) (size 0.5 0.5) (layers F.Cu F.Mask F.Paste))
  (pad R18 smd circle (at 4.5 1.5) (size 0.5 0.5) (layers F.Cu F.Mask F.Paste))
  (pad R19 smd circle (at 5.5 1.5) (size 0.5 0.5) (layers F.Cu F.Mask F.Paste))
  (pad R20 smd circle (at 6.5 1.5) (size 0.5 0.5) (layers F.Cu F.Mask F.Paste))
  (pad R21 smd circle (at 7.5 1.5) (size 0.5 0.5) (layers F.Cu F.Mask F.Paste))
  (pad R22 smd circle (at 8.5 1.5) (size 0.5 0.5) (layers F.Cu F.Mask F.Paste))
  (pad R23 smd circle (at 9.5 1.5) (size 0.5 0.5) (layers F.Cu F.Mask F.Paste))
  (pad R24 smd circle (at 10.5 1.5) (size 0.5 0.5) (layers F.Cu F.Mask F.Paste))
  (pad R25 smd circle (at 11.5 1.5) (size 0.5 0.5) (layers F.Cu F.Mask F.Paste))
  (pad R26 smd circle (at 12.5 1.5) (size 0.5 0.5) (layers F.Cu F.Mask F.Paste))
  (pad T1 smd circle (at -12.5 2.5) (size 0.5 0.5) (layers F.Cu F.Mask F.Paste))
  (pad T2 smd circle (at -11.5 2.5) (size 0.5 0.5) (layers F.Cu F.Mask F.Paste))
  (pad T3 smd circle (at -10.5 2.5) (size 0.5 0.5) (layers F.Cu F.Mask F.Paste))
  (pad T4 smd circle (at -9.5 2.5) (size 0.5 0.5) (layers F.Cu F.Mask F.Paste))
  (pad T5 smd circle (at -8.5 2.5) (size 0.5 0.5) (layers F.Cu F.Mask F.Paste))
  (pad T6 smd circle (at -7.5 2.5) (size 0.5 0.5) (layers F.Cu F.Mask F.Paste))
  (pad T7 smd circle (at -6.5 2.5) (size 0.5 0.5) (layers F.Cu F.Mask F.Paste))
  (pad T8 smd circle (at -5.5 2.5) (size 0.5 0.5) (layers F.Cu F.Mask F.Paste))
  (pad T9 smd circle (at -4.5 2.5) (size 0.5 0.5) (layers F.Cu F.Mask F.Paste))
  (pad T10 smd circle (at -3.5 2.5) (size 0.5 0.5) (layers F.Cu F.Mask F.Paste))
  (pad T11 smd circle (at -2.5 2.5) (size 0.5 0.5) (layers F.Cu F.Mask F.Paste))
  (pad T12 smd circle (at -1.5 2.5) (size 0.5 0.5) (layers F.Cu F.Mask F.Paste))
  (pad T13 smd circle (at -0.5 2.5) (size 0.5 0.5) (layers F.Cu F.Mask F.Paste))
  (pad T14 smd circle (at 0.5 2.5) (size 0.5 0.5) (layers F.Cu F.Mask F.Paste))
  (pad T15 smd circle (at 1.5 2.5) (size 0.5 0.5) (layers F.Cu F.Mask F.Paste))
  (pad T16 smd circle (at 2.5 2.5) (size 0.5 0.5) (layers F.Cu F.Mask F.Paste))
  (pad T17 smd circle (at 3.5 2.5) (size 0.5 0.5) (layers F.Cu F.Mask F.Paste))
  (pad T18 smd circle (at 4.5 2.5) (size 0.5 0.5) (layers F.Cu F.Mask F.Paste))
  (pad T19 smd circle (at 5.5 2.5) (size 0.5 0.5) (layers F.Cu F.Mask F.Paste))
  (pad T20 smd circle (at 6.5 2.5) (size 0.5 0.5) (layers F.Cu F.Mask F.Paste))
  (pad T21 smd circle (at 7.5 2.5) (size 0.5 0.5) (layers F.Cu F.Mask F.Paste))
  (pad T22 smd circle (at 8.5 2.5) (size 0.5 0.5) (layers F.Cu F.Mask F.Paste))
  (pad T23 smd circle (at 9.5 2.5) (size 0.5 0.5) (layers F.Cu F.Mask F.Paste))
  (pad T24 smd circle (at 10.5 2.5) (size 0.5 0.5) (layers F.Cu F.Mask F.Paste))
  (pad T25 smd circle (at 11.5 2.5) (size 0.5 0.5) (layers F.Cu F.Mask F.Paste))
  (pad T26 smd circle (at 12.5 2.5) (size 0.5 0.5) (layers F.Cu F.Mask F.Paste))
  (pad U1 smd circle (at -12.5 3.5) (size 0.5 0.5) (layers F.Cu F.Mask F.Paste))
  (pad U2 smd circle (at -11.5 3.5) (size 0.5 0.5) (layers F.Cu F.Mask F.Paste))
  (pad U3 smd circle (at -10.5 3.5) (size 0.5 0.5) (layers F.Cu F.Mask F.Paste))
  (pad U4 smd circle (at -9.5 3.5) (size 0.5 0.5) (layers F.Cu F.Mask F.Paste))
  (pad U5 smd circle (at -8.5 3.5) (size 0.5 0.5) (layers F.Cu F.Mask F.Paste))
  (pad U6 smd circle (at -7.5 3.5) (size 0.5 0.5) (layers F.Cu F.Mask F.Paste))
  (pad U7 smd circle (at -6.5 3.5) (size 0.5 0.5) (layers F.Cu F.Mask F.Paste))
  (pad U8 smd circle (at -5.5 3.5) (size 0.5 0.5) (layers F.Cu F.Mask F.Paste))
  (pad U9 smd circle (at -4.5 3.5) (size 0.5 0.5) (layers F.Cu F.Mask F.Paste))
  (pad U10 smd circle (at -3.5 3.5) (size 0.5 0.5) (layers F.Cu F.Mask F.Paste))
  (pad U11 smd circle (at -2.5 3.5) (size 0.5 0.5) (layers F.Cu F.Mask F.Paste))
  (pad U12 smd circle (at -1.5 3.5) (size 0.5 0.5) (layers F.Cu F.Mask F.Paste))
  (pad U13 smd circle (at -0.5 3.5) (size 0.5 0.5) (layers F.Cu F.Mask F.Paste))
  (pad U14 smd circle (at 0.5 3.5) (size 0.5 0.5) (layers F.Cu F.Mask F.Paste))
  (pad U15 smd circle (at 1.5 3.5) (size 0.5 0.5) (layers F.Cu F.Mask F.Paste))
  (pad U16 smd circle (at 2.5 3.5) (size 0.5 0.5) (layers F.Cu F.Mask F.Paste))
  (pad U17 smd circle (at 3.5 3.5) (size 0.5 0.5) (layers F.Cu F.Mask F.Paste))
  (pad U18 smd circle (at 4.5 3.5) (size 0.5 0.5) (layers F.Cu F.Mask F.Paste))
  (pad U19 smd circle (at 5.5 3.5) (size 0.5 0.5) (layers F.Cu F.Mask F.Paste))
  (pad U20 smd circle (at 6.5 3.5) (size 0.5 0.5) (layers F.Cu F.Mask F.Paste))
  (pad U21 smd circle (at 7.5 3.5) (size 0.5 0.5) (layers F.Cu F.Mask F.Paste))
  (pad U22 smd circle (at 8.5 3.5) (size 0.5 0.5) (layers F.Cu F.Mask F.Paste))
  (pad U23 smd circle (at 9.5 3.5) (size 0.5 0.5) (layers F.Cu F.Mask F.Paste))
  (pad U24 smd circle (at 10.5 3.5) (size 0.5 0.5) (layers F.Cu F.Mask F.Paste))
  (pad U25 smd circle (at 11.5 3.5) (size 0.5 0.5) (layers F.Cu F.Mask F.Paste))
  (pad U26 smd circle (at 12.5 3.5) (size 0.5 0.5) (layers F.Cu F.Mask F.Paste))
  (pad V1 smd circle (at -12.5 4.5) (size 0.5 0.5) (layers F.Cu F.Mask F.Paste))
  (pad V2 smd circle (at -11.5 4.5) (size 0.5 0.5) (layers F.Cu F.Mask F.Paste))
  (pad V3 smd circle (at -10.5 4.5) (size 0.5 0.5) (layers F.Cu F.Mask F.Paste))
  (pad V4 smd circle (at -9.5 4.5) (size 0.5 0.5) (layers F.Cu F.Mask F.Paste))
  (pad V5 smd circle (at -8.5 4.5) (size 0.5 0.5) (layers F.Cu F.Mask F.Paste))
  (pad V6 smd circle (at -7.5 4.5) (size 0.5 0.5) (layers F.Cu F.Mask F.Paste))
  (pad V7 smd circle (at -6.5 4.5) (size 0.5 0.5) (layers F.Cu F.Mask F.Paste))
  (pad V8 smd circle (at -5.5 4.5) (size 0.5 0.5) (layers F.Cu F.Mask F.Paste))
  (pad V9 smd circle (at -4.5 4.5) (size 0.5 0.5) (layers F.Cu F.Mask F.Paste))
  (pad V10 smd circle (at -3.5 4.5) (size 0.5 0.5) (layers F.Cu F.Mask F.Paste))
  (pad V11 smd circle (at -2.5 4.5) (size 0.5 0.5) (layers F.Cu F.Mask F.Paste))
  (pad V12 smd circle (at -1.5 4.5) (size 0.5 0.5) (layers F.Cu F.Mask F.Paste))
  (pad V13 smd circle (at -0.5 4.5) (size 0.5 0.5) (layers F.Cu F.Mask F.Paste))
  (pad V14 smd circle (at 0.5 4.5) (size 0.5 0.5) (layers F.Cu F.Mask F.Paste))
  (pad V15 smd circle (at 1.5 4.5) (size 0.5 0.5) (layers F.Cu F.Mask F.Paste))
  (pad V16 smd circle (at 2.5 4.5) (size 0.5 0.5) (layers F.Cu F.Mask F.Paste))
  (pad V17 smd circle (at 3.5 4.5) (size 0.5 0.5) (layers F.Cu F.Mask F.Paste))
  (pad V18 smd circle (at 4.5 4.5) (size 0.5 0.5) (layers F.Cu F.Mask F.Paste))
  (pad V19 smd circle (at 5.5 4.5) (size 0.5 0.5) (layers F.Cu F.Mask F.Paste))
  (pad V20 smd circle (at 6.5 4.5) (size 0.5 0.5) (layers F.Cu F.Mask F.Paste))
  (pad V21 smd circle (at 7.5 4.5) (size 0.5 0.5) (layers F.Cu F.Mask F.Paste))
  (pad V22 smd circle (at 8.5 4.5) (size 0.5 0.5) (layers F.Cu F.Mask F.Paste))
  (pad V23 smd circle (at 9.5 4.5) (size 0.5 0.5) (layers F.Cu F.Mask F.Paste))
  (pad V24 smd circle (at 10.5 4.5) (size 0.5 0.5) (layers F.Cu F.Mask F.Paste))
  (pad V25 smd circle (at 11.5 4.5) (size 0.5 0.5) (layers F.Cu F.Mask F.Paste))
  (pad V26 smd circle (at 12.5 4.5) (size 0.5 0.5) (layers F.Cu F.Mask F.Paste))
  (pad W1 smd circle (at -12.5 5.5) (size 0.5 0.5) (layers F.Cu F.Mask F.Paste))
  (pad W2 smd circle (at -11.5 5.5) (size 0.5 0.5) (layers F.Cu F.Mask F.Paste))
  (pad W3 smd circle (at -10.5 5.5) (size 0.5 0.5) (layers F.Cu F.Mask F.Paste))
  (pad W4 smd circle (at -9.5 5.5) (size 0.5 0.5) (layers F.Cu F.Mask F.Paste))
  (pad W5 smd circle (at -8.5 5.5) (size 0.5 0.5) (layers F.Cu F.Mask F.Paste))
  (pad W6 smd circle (at -7.5 5.5) (size 0.5 0.5) (layers F.Cu F.Mask F.Paste))
  (pad W7 smd circle (at -6.5 5.5) (size 0.5 0.5) (layers F.Cu F.Mask F.Paste))
  (pad W8 smd circle (at -5.5 5.5) (size 0.5 0.5) (layers F.Cu F.Mask F.Paste))
  (pad W9 smd circle (at -4.5 5.5) (size 0.5 0.5) (layers F.Cu F.Mask F.Paste))
  (pad W10 smd circle (at -3.5 5.5) (size 0.5 0.5) (layers F.Cu F.Mask F.Paste))
  (pad W11 smd circle (at -2.5 5.5) (size 0.5 0.5) (layers F.Cu F.Mask F.Paste))
  (pad W12 smd circle (at -1.5 5.5) (size 0.5 0.5) (layers F.Cu F.Mask F.Paste))
  (pad W13 smd circle (at -0.5 5.5) (size 0.5 0.5) (layers F.Cu F.Mask F.Paste))
  (pad W14 smd circle (at 0.5 5.5) (size 0.5 0.5) (layers F.Cu F.Mask F.Paste))
  (pad W15 smd circle (at 1.5 5.5) (size 0.5 0.5) (layers F.Cu F.Mask F.Paste))
  (pad W16 smd circle (at 2.5 5.5) (size 0.5 0.5) (layers F.Cu F.Mask F.Paste))
  (pad W17 smd circle (at 3.5 5.5) (size 0.5 0.5) (layers F.Cu F.Mask F.Paste))
  (pad W18 smd circle (at 4.5 5.5) (size 0.5 0.5) (layers F.Cu F.Mask F.Paste))
  (pad W19 smd circle (at 5.5 5.5) (size 0.5 0.5) (layers F.Cu F.Mask F.Paste))
  (pad W20 smd circle (at 6.5 5.5) (size 0.5 0.5) (layers F.Cu F.Mask F.Paste))
  (pad W21 smd circle (at 7.5 5.5) (size 0.5 0.5) (layers F.Cu F.Mask F.Paste))
  (pad W22 smd circle (at 8.5 5.5) (size 0.5 0.5) (layers F.Cu F.Mask F.Paste))
  (pad W23 smd circle (at 9.5 5.5) (size 0.5 0.5) (layers F.Cu F.Mask F.Paste))
  (pad W24 smd circle (at 10.5 5.5) (size 0.5 0.5) (layers F.Cu F.Mask F.Paste))
  (pad W25 smd circle (at 11.5 5.5) (size 0.5 0.5) (layers F.Cu F.Mask F.Paste))
  (pad W26 smd circle (at 12.5 5.5) (size 0.5 0.5) (layers F.Cu F.Mask F.Paste))
  (pad Y1 smd circle (at -12.5 6.5) (size 0.5 0.5) (layers F.Cu F.Mask F.Paste))
  (pad Y2 smd circle (at -11.5 6.5) (size 0.5 0.5) (layers F.Cu F.Mask F.Paste))
  (pad Y3 smd circle (at -10.5 6.5) (size 0.5 0.5) (layers F.Cu F.Mask F.Paste))
  (pad Y4 smd circle (at -9.5 6.5) (size 0.5 0.5) (layers F.Cu F.Mask F.Paste))
  (pad Y5 smd circle (at -8.5 6.5) (size 0.5 0.5) (layers F.Cu F.Mask F.Paste))
  (pad Y6 smd circle (at -7.5 6.5) (size 0.5 0.5) (layers F.Cu F.Mask F.Paste))
  (pad Y7 smd circle (at -6.5 6.5) (size 0.5 0.5) (layers F.Cu F.Mask F.Paste))
  (pad Y8 smd circle (at -5.5 6.5) (size 0.5 0.5) (layers F.Cu F.Mask F.Paste))
  (pad Y9 smd circle (at -4.5 6.5) (size 0.5 0.5) (layers F.Cu F.Mask F.Paste))
  (pad Y10 smd circle (at -3.5 6.5) (size 0.5 0.5) (layers F.Cu F.Mask F.Paste))
  (pad Y11 smd circle (at -2.5 6.5) (size 0.5 0.5) (layers F.Cu F.Mask F.Paste))
  (pad Y12 smd circle (at -1.5 6.5) (size 0.5 0.5) (layers F.Cu F.Mask F.Paste))
  (pad Y13 smd circle (at -0.5 6.5) (size 0.5 0.5) (layers F.Cu F.Mask F.Paste))
  (pad Y14 smd circle (at 0.5 6.5) (size 0.5 0.5) (layers F.Cu F.Mask F.Paste))
  (pad Y15 smd circle (at 1.5 6.5) (size 0.5 0.5) (layers F.Cu F.Mask F.Paste))
  (pad Y16 smd circle (at 2.5 6.5) (size 0.5 0.5) (layers F.Cu F.Mask F.Paste))
  (pad Y17 smd circle (at 3.5 6.5) (size 0.5 0.5) (layers F.Cu F.Mask F.Paste))
  (pad Y18 smd circle (at 4.5 6.5) (size 0.5 0.5) (layers F.Cu F.Mask F.Paste))
  (pad Y19 smd circle (at 5.5 6.5) (size 0.5 0.5) (layers F.Cu F.Mask F.Paste))
  (pad Y20 smd circle (at 6.5 6.5) (size 0.5 0.5) (layers F.Cu F.Mask F.Paste))
  (pad Y21 smd circle (at 7.5 6.5) (size 0.5 0.5) (layers F.Cu F.Mask F.Paste))
  (pad Y22 smd circle (at 8.5 6.5) (size 0.5 0.5) (layers F.Cu F.Mask F.Paste))
  (pad Y23 smd circle (at 9.5 6.5) (size 0.5 0.5) (layers F.Cu F.Mask F.Paste))
  (pad Y24 smd circle (at 10.5 6.5) (size 0.5 0.5) (layers F.Cu F.Mask F.Paste))
  (pad Y25 smd circle (at 11.5 6.5) (size 0.5 0.5) (layers F.Cu F.Mask F.Paste))
  (pad Y26 smd circle (at 12.5 6.5) (size 0.5 0.5) (layers F.Cu F.Mask F.Paste))
  (pad AA1 smd circle (at -12.5 7.5) (size 0.5 0.5) (layers F.Cu F.Mask F.Paste))
  (pad AA2 smd circle (at -11.5 7.5) (size 0.5 0.5) (layers F.Cu F.Mask F.Paste))
  (pad AA3 smd circle (at -10.5 7.5) (size 0.5 0.5) (layers F.Cu F.Mask F.Paste))
  (pad AA4 smd circle (at -9.5 7.5) (size 0.5 0.5) (layers F.Cu F.Mask F.Paste))
  (pad AA5 smd circle (at -8.5 7.5) (size 0.5 0.5) (layers F.Cu F.Mask F.Paste))
  (pad AA6 smd circle (at -7.5 7.5) (size 0.5 0.5) (layers F.Cu F.Mask F.Paste))
  (pad AA7 smd circle (at -6.5 7.5) (size 0.5 0.5) (layers F.Cu F.Mask F.Paste))
  (pad AA8 smd circle (at -5.5 7.5) (size 0.5 0.5) (layers F.Cu F.Mask F.Paste))
  (pad AA9 smd circle (at -4.5 7.5) (size 0.5 0.5) (layers F.Cu F.Mask F.Paste))
  (pad AA10 smd circle (at -3.5 7.5) (size 0.5 0.5) (layers F.Cu F.Mask F.Paste))
  (pad AA11 smd circle (at -2.5 7.5) (size 0.5 0.5) (layers F.Cu F.Mask F.Paste))
  (pad AA12 smd circle (at -1.5 7.5) (size 0.5 0.5) (layers F.Cu F.Mask F.Paste))
  (pad AA13 smd circle (at -0.5 7.5) (size 0.5 0.5) (layers F.Cu F.Mask F.Paste))
  (pad AA14 smd circle (at 0.5 7.5) (size 0.5 0.5) (layers F.Cu F.Mask F.Paste))
  (pad AA15 smd circle (at 1.5 7.5) (size 0.5 0.5) (layers F.Cu F.Mask F.Paste))
  (pad AA16 smd circle (at 2.5 7.5) (size 0.5 0.5) (layers F.Cu F.Mask F.Paste))
  (pad AA17 smd circle (at 3.5 7.5) (size 0.5 0.5) (layers F.Cu F.Mask F.Paste))
  (pad AA18 smd circle (at 4.5 7.5) (size 0.5 0.5) (layers F.Cu F.Mask F.Paste))
  (pad AA19 smd circle (at 5.5 7.5) (size 0.5 0.5) (layers F.Cu F.Mask F.Paste))
  (pad AA20 smd circle (at 6.5 7.5) (size 0.5 0.5) (layers F.Cu F.Mask F.Paste))
  (pad AA21 smd circle (at 7.5 7.5) (size 0.5 0.5) (layers F.Cu F.Mask F.Paste))
  (pad AA22 smd circle (at 8.5 7.5) (size 0.5 0.5) (layers F.Cu F.Mask F.Paste))
  (pad AA23 smd circle (at 9.5 7.5) (size 0.5 0.5) (layers F.Cu F.Mask F.Paste))
  (pad AA24 smd circle (at 10.5 7.5) (size 0.5 0.5) (layers F.Cu F.Mask F.Paste))
  (pad AA25 smd circle (at 11.5 7.5) (size 0.5 0.5) (layers F.Cu F.Mask F.Paste))
  (pad AA26 smd circle (at 12.5 7.5) (size 0.5 0.5) (layers F.Cu F.Mask F.Paste))
  (pad AB1 smd circle (at -12.5 8.5) (size 0.5 0.5) (layers F.Cu F.Mask F.Paste))
  (pad AB2 smd circle (at -11.5 8.5) (size 0.5 0.5) (layers F.Cu F.Mask F.Paste))
  (pad AB3 smd circle (at -10.5 8.5) (size 0.5 0.5) (layers F.Cu F.Mask F.Paste))
  (pad AB4 smd circle (at -9.5 8.5) (size 0.5 0.5) (layers F.Cu F.Mask F.Paste))
  (pad AB5 smd circle (at -8.5 8.5) (size 0.5 0.5) (layers F.Cu F.Mask F.Paste))
  (pad AB6 smd circle (at -7.5 8.5) (size 0.5 0.5) (layers F.Cu F.Mask F.Paste))
  (pad AB7 smd circle (at -6.5 8.5) (size 0.5 0.5) (layers F.Cu F.Mask F.Paste))
  (pad AB8 smd circle (at -5.5 8.5) (size 0.5 0.5) (layers F.Cu F.Mask F.Paste))
  (pad AB9 smd circle (at -4.5 8.5) (size 0.5 0.5) (layers F.Cu F.Mask F.Paste))
  (pad AB10 smd circle (at -3.5 8.5) (size 0.5 0.5) (layers F.Cu F.Mask F.Paste))
  (pad AB11 smd circle (at -2.5 8.5) (size 0.5 0.5) (layers F.Cu F.Mask F.Paste))
  (pad AB12 smd circle (at -1.5 8.5) (size 0.5 0.5) (layers F.Cu F.Mask F.Paste))
  (pad AB13 smd circle (at -0.5 8.5) (size 0.5 0.5) (layers F.Cu F.Mask F.Paste))
  (pad AB14 smd circle (at 0.5 8.5) (size 0.5 0.5) (layers F.Cu F.Mask F.Paste))
  (pad AB15 smd circle (at 1.5 8.5) (size 0.5 0.5) (layers F.Cu F.Mask F.Paste))
  (pad AB16 smd circle (at 2.5 8.5) (size 0.5 0.5) (layers F.Cu F.Mask F.Paste))
  (pad AB17 smd circle (at 3.5 8.5) (size 0.5 0.5) (layers F.Cu F.Mask F.Paste))
  (pad AB18 smd circle (at 4.5 8.5) (size 0.5 0.5) (layers F.Cu F.Mask F.Paste))
  (pad AB19 smd circle (at 5.5 8.5) (size 0.5 0.5) (layers F.Cu F.Mask F.Paste))
  (pad AB20 smd circle (at 6.5 8.5) (size 0.5 0.5) (layers F.Cu F.Mask F.Paste))
  (pad AB21 smd circle (at 7.5 8.5) (size 0.5 0.5) (layers F.Cu F.Mask F.Paste))
  (pad AB22 smd circle (at 8.5 8.5) (size 0.5 0.5) (layers F.Cu F.Mask F.Paste))
  (pad AB23 smd circle (at 9.5 8.5) (size 0.5 0.5) (layers F.Cu F.Mask F.Paste))
  (pad AB24 smd circle (at 10.5 8.5) (size 0.5 0.5) (layers F.Cu F.Mask F.Paste))
  (pad AB25 smd circle (at 11.5 8.5) (size 0.5 0.5) (layers F.Cu F.Mask F.Paste))
  (pad AB26 smd circle (at 12.5 8.5) (size 0.5 0.5) (layers F.Cu F.Mask F.Paste))
  (pad AC1 smd circle (at -12.5 9.5) (size 0.5 0.5) (layers F.Cu F.Mask F.Paste))
  (pad AC2 smd circle (at -11.5 9.5) (size 0.5 0.5) (layers F.Cu F.Mask F.Paste))
  (pad AC3 smd circle (at -10.5 9.5) (size 0.5 0.5) (layers F.Cu F.Mask F.Paste))
  (pad AC4 smd circle (at -9.5 9.5) (size 0.5 0.5) (layers F.Cu F.Mask F.Paste))
  (pad AC5 smd circle (at -8.5 9.5) (size 0.5 0.5) (layers F.Cu F.Mask F.Paste))
  (pad AC6 smd circle (at -7.5 9.5) (size 0.5 0.5) (layers F.Cu F.Mask F.Paste))
  (pad AC7 smd circle (at -6.5 9.5) (size 0.5 0.5) (layers F.Cu F.Mask F.Paste))
  (pad AC8 smd circle (at -5.5 9.5) (size 0.5 0.5) (layers F.Cu F.Mask F.Paste))
  (pad AC9 smd circle (at -4.5 9.5) (size 0.5 0.5) (layers F.Cu F.Mask F.Paste))
  (pad AC10 smd circle (at -3.5 9.5) (size 0.5 0.5) (layers F.Cu F.Mask F.Paste))
  (pad AC11 smd circle (at -2.5 9.5) (size 0.5 0.5) (layers F.Cu F.Mask F.Paste))
  (pad AC12 smd circle (at -1.5 9.5) (size 0.5 0.5) (layers F.Cu F.Mask F.Paste))
  (pad AC13 smd circle (at -0.5 9.5) (size 0.5 0.5) (layers F.Cu F.Mask F.Paste))
  (pad AC14 smd circle (at 0.5 9.5) (size 0.5 0.5) (layers F.Cu F.Mask F.Paste))
  (pad AC15 smd circle (at 1.5 9.5) (size 0.5 0.5) (layers F.Cu F.Mask F.Paste))
  (pad AC16 smd circle (at 2.5 9.5) (size 0.5 0.5) (layers F.Cu F.Mask F.Paste))
  (pad AC17 smd circle (at 3.5 9.5) (size 0.5 0.5) (layers F.Cu F.Mask F.Paste))
  (pad AC18 smd circle (at 4.5 9.5) (size 0.5 0.5) (layers F.Cu F.Mask F.Paste))
  (pad AC19 smd circle (at 5.5 9.5) (size 0.5 0.5) (layers F.Cu F.Mask F.Paste))
  (pad AC20 smd circle (at 6.5 9.5) (size 0.5 0.5) (layers F.Cu F.Mask F.Paste))
  (pad AC21 smd circle (at 7.5 9.5) (size 0.5 0.5) (layers F.Cu F.Mask F.Paste))
  (pad AC22 smd circle (at 8.5 9.5) (size 0.5 0.5) (layers F.Cu F.Mask F.Paste))
  (pad AC23 smd circle (at 9.5 9.5) (size 0.5 0.5) (layers F.Cu F.Mask F.Paste))
  (pad AC24 smd circle (at 10.5 9.5) (size 0.5 0.5) (layers F.Cu F.Mask F.Paste))
  (pad AC25 smd circle (at 11.5 9.5) (size 0.5 0.5) (layers F.Cu F.Mask F.Paste))
  (pad AC26 smd circle (at 12.5 9.5) (size 0.5 0.5) (layers F.Cu F.Mask F.Paste))
  (pad AD1 smd circle (at -12.5 10.5) (size 0.5 0.5) (layers F.Cu F.Mask F.Paste))
  (pad AD2 smd circle (at -11.5 10.5) (size 0.5 0.5) (layers F.Cu F.Mask F.Paste))
  (pad AD3 smd circle (at -10.5 10.5) (size 0.5 0.5) (layers F.Cu F.Mask F.Paste))
  (pad AD4 smd circle (at -9.5 10.5) (size 0.5 0.5) (layers F.Cu F.Mask F.Paste))
  (pad AD5 smd circle (at -8.5 10.5) (size 0.5 0.5) (layers F.Cu F.Mask F.Paste))
  (pad AD6 smd circle (at -7.5 10.5) (size 0.5 0.5) (layers F.Cu F.Mask F.Paste))
  (pad AD7 smd circle (at -6.5 10.5) (size 0.5 0.5) (layers F.Cu F.Mask F.Paste))
  (pad AD8 smd circle (at -5.5 10.5) (size 0.5 0.5) (layers F.Cu F.Mask F.Paste))
  (pad AD9 smd circle (at -4.5 10.5) (size 0.5 0.5) (layers F.Cu F.Mask F.Paste))
  (pad AD10 smd circle (at -3.5 10.5) (size 0.5 0.5) (layers F.Cu F.Mask F.Paste))
  (pad AD11 smd circle (at -2.5 10.5) (size 0.5 0.5) (layers F.Cu F.Mask F.Paste))
  (pad AD12 smd circle (at -1.5 10.5) (size 0.5 0.5) (layers F.Cu F.Mask F.Paste))
  (pad AD13 smd circle (at -0.5 10.5) (size 0.5 0.5) (layers F.Cu F.Mask F.Paste))
  (pad AD14 smd circle (at 0.5 10.5) (size 0.5 0.5) (layers F.Cu F.Mask F.Paste))
  (pad AD15 smd circle (at 1.5 10.5) (size 0.5 0.5) (layers F.Cu F.Mask F.Paste))
  (pad AD16 smd circle (at 2.5 10.5) (size 0.5 0.5) (layers F.Cu F.Mask F.Paste))
  (pad AD17 smd circle (at 3.5 10.5) (size 0.5 0.5) (layers F.Cu F.Mask F.Paste))
  (pad AD18 smd circle (at 4.5 10.5) (size 0.5 0.5) (layers F.Cu F.Mask F.Paste))
  (pad AD19 smd circle (at 5.5 10.5) (size 0.5 0.5) (layers F.Cu F.Mask F.Paste))
  (pad AD20 smd circle (at 6.5 10.5) (size 0.5 0.5) (layers F.Cu F.Mask F.Paste))
  (pad AD21 smd circle (at 7.5 10.5) (size 0.5 0.5) (layers F.Cu F.Mask F.Paste))
  (pad AD22 smd circle (at 8.5 10.5) (size 0.5 0.5) (layers F.Cu F.Mask F.Paste))
  (pad AD23 smd circle (at 9.5 10.5) (size 0.5 0.5) (layers F.Cu F.Mask F.Paste))
  (pad AD24 smd circle (at 10.5 10.5) (size 0.5 0.5) (layers F.Cu F.Mask F.Paste))
  (pad AD25 smd circle (at 11.5 10.5) (size 0.5 0.5) (layers F.Cu F.Mask F.Paste))
  (pad AD26 smd circle (at 12.5 10.5) (size 0.5 0.5) (layers F.Cu F.Mask F.Paste))
  (pad AE1 smd circle (at -12.5 11.5) (size 0.5 0.5) (layers F.Cu F.Mask F.Paste))
  (pad AE2 smd circle (at -11.5 11.5) (size 0.5 0.5) (layers F.Cu F.Mask F.Paste))
  (pad AE3 smd circle (at -10.5 11.5) (size 0.5 0.5) (layers F.Cu F.Mask F.Paste))
  (pad AE4 smd circle (at -9.5 11.5) (size 0.5 0.5) (layers F.Cu F.Mask F.Paste))
  (pad AE5 smd circle (at -8.5 11.5) (size 0.5 0.5) (layers F.Cu F.Mask F.Paste))
  (pad AE6 smd circle (at -7.5 11.5) (size 0.5 0.5) (layers F.Cu F.Mask F.Paste))
  (pad AE7 smd circle (at -6.5 11.5) (size 0.5 0.5) (layers F.Cu F.Mask F.Paste))
  (pad AE8 smd circle (at -5.5 11.5) (size 0.5 0.5) (layers F.Cu F.Mask F.Paste))
  (pad AE9 smd circle (at -4.5 11.5) (size 0.5 0.5) (layers F.Cu F.Mask F.Paste))
  (pad AE10 smd circle (at -3.5 11.5) (size 0.5 0.5) (layers F.Cu F.Mask F.Paste))
  (pad AE11 smd circle (at -2.5 11.5) (size 0.5 0.5) (layers F.Cu F.Mask F.Paste))
  (pad AE12 smd circle (at -1.5 11.5) (size 0.5 0.5) (layers F.Cu F.Mask F.Paste))
  (pad AE13 smd circle (at -0.5 11.5) (size 0.5 0.5) (layers F.Cu F.Mask F.Paste))
  (pad AE14 smd circle (at 0.5 11.5) (size 0.5 0.5) (layers F.Cu F.Mask F.Paste))
  (pad AE15 smd circle (at 1.5 11.5) (size 0.5 0.5) (layers F.Cu F.Mask F.Paste))
  (pad AE16 smd circle (at 2.5 11.5) (size 0.5 0.5) (layers F.Cu F.Mask F.Paste))
  (pad AE17 smd circle (at 3.5 11.5) (size 0.5 0.5) (layers F.Cu F.Mask F.Paste))
  (pad AE18 smd circle (at 4.5 11.5) (size 0.5 0.5) (layers F.Cu F.Mask F.Paste))
  (pad AE19 smd circle (at 5.5 11.5) (size 0.5 0.5) (layers F.Cu F.Mask F.Paste))
  (pad AE20 smd circle (at 6.5 11.5) (size 0.5 0.5) (layers F.Cu F.Mask F.Paste))
  (pad AE21 smd circle (at 7.5 11.5) (size 0.5 0.5) (layers F.Cu F.Mask F.Paste))
  (pad AE22 smd circle (at 8.5 11.5) (size 0.5 0.5) (layers F.Cu F.Mask F.Paste))
  (pad AE23 smd circle (at 9.5 11.5) (size 0.5 0.5) (layers F.Cu F.Mask F.Paste))
  (pad AE24 smd circle (at 10.5 11.5) (size 0.5 0.5) (layers F.Cu F.Mask F.Paste))
  (pad AE25 smd circle (at 11.5 11.5) (size 0.5 0.5) (layers F.Cu F.Mask F.Paste))
  (pad AE26 smd circle (at 12.5 11.5) (size 0.5 0.5) (layers F.Cu F.Mask F.Paste))
  (pad AF1 smd circle (at -12.5 12.5) (size 0.5 0.5) (layers F.Cu F.Mask F.Paste))
  (pad AF2 smd circle (at -11.5 12.5) (size 0.5 0.5) (layers F.Cu F.Mask F.Paste))
  (pad AF3 smd circle (at -10.5 12.5) (size 0.5 0.5) (layers F.Cu F.Mask F.Paste))
  (pad AF4 smd circle (at -9.5 12.5) (size 0.5 0.5) (layers F.Cu F.Mask F.Paste))
  (pad AF5 smd circle (at -8.5 12.5) (size 0.5 0.5) (layers F.Cu F.Mask F.Paste))
  (pad AF6 smd circle (at -7.5 12.5) (size 0.5 0.5) (layers F.Cu F.Mask F.Paste))
  (pad AF7 smd circle (at -6.5 12.5) (size 0.5 0.5) (layers F.Cu F.Mask F.Paste))
  (pad AF8 smd circle (at -5.5 12.5) (size 0.5 0.5) (layers F.Cu F.Mask F.Paste))
  (pad AF9 smd circle (at -4.5 12.5) (size 0.5 0.5) (layers F.Cu F.Mask F.Paste))
  (pad AF10 smd circle (at -3.5 12.5) (size 0.5 0.5) (layers F.Cu F.Mask F.Paste))
  (pad AF11 smd circle (at -2.5 12.5) (size 0.5 0.5) (layers F.Cu F.Mask F.Paste))
  (pad AF12 smd circle (at -1.5 12.5) (size 0.5 0.5) (layers F.Cu F.Mask F.Paste))
  (pad AF13 smd circle (at -0.5 12.5) (size 0.5 0.5) (layers F.Cu F.Mask F.Paste))
  (pad AF14 smd circle (at 0.5 12.5) (size 0.5 0.5) (layers F.Cu F.Mask F.Paste))
  (pad AF15 smd circle (at 1.5 12.5) (size 0.5 0.5) (layers F.Cu F.Mask F.Paste))
  (pad AF16 smd circle (at 2.5 12.5) (size 0.5 0.5) (layers F.Cu F.Mask F.Paste))
  (pad AF17 smd circle (at 3.5 12.5) (size 0.5 0.5) (layers F.Cu F.Mask F.Paste))
  (pad AF18 smd circle (at 4.5 12.5) (size 0.5 0.5) (layers F.Cu F.Mask F.Paste))
  (pad AF19 smd circle (at 5.5 12.5) (size 0.5 0.5) (layers F.Cu F.Mask F.Paste))
  (pad AF20 smd circle (at 6.5 12.5) (size 0.5 0.5) (layers F.Cu F.Mask F.Paste))
  (pad AF21 smd circle (at 7.5 12.5) (size 0.5 0.5) (layers F.Cu F.Mask F.Paste))
  (pad AF22 smd circle (at 8.5 12.5) (size 0.5 0.5) (layers F.Cu F.Mask F.Paste))
  (pad AF23 smd circle (at 9.5 12.5) (size 0.5 0.5) (layers F.Cu F.Mask F.Paste))
  (pad AF24 smd circle (at 10.5 12.5) (size 0.5 0.5) (layers F.Cu F.Mask F.Paste))
  (pad AF25 smd circle (at 11.5 12.5) (size 0.5 0.5) (layers F.Cu F.Mask F.Paste))
  (pad AF26 smd circle (at 12.5 12.5) (size 0.5 0.5) (layers F.Cu F.Mask F.Paste))
  (fp_text user %R (at 0 0) (layer F.Fab)
    (effects (font (size 1 1) (thickness 0.15)))
  )
  (model ${KICAD6_3DMODEL_DIR}/Package_BGA.3dshapes/Xilinx_FGGA676.wrl
    (at (xyz 0 0 0))
    (scale (xyz 1 1 1))
    (rotate (xyz 0 0 0))
  )
)