(module DIP-40_W16.51mm_SMDSocket_LongPads (layer F.Cu) (tedit 5A02E8C5)
  (descr "40-lead though-hole mounted DIP package, row spacing 16.51 mm (650 mils), SMDSocket, LongPads")
  (tags "THT DIP DIL PDIP 2.54mm 16.51mm 650mil SMDSocket LongPads")
  (attr smd)
  (fp_text reference REF** (at 0 -26.46) (layer F.SilkS)
    (effects (font (size 1 1) (thickness 0.15)))
  )
  (fp_text value DIP-40_W16.51mm_SMDSocket_LongPads (at 0 26.46) (layer F.Fab)
    (effects (font (size 1 1) (thickness 0.15)))
  )
  (fp_arc (start 0 -25.46) (end -1 -25.46) (angle -180.000000) (layer F.SilkS) (width 0.12))
  (fp_line (start -6.365 -25.4) (end 7.365 -25.4) (layer F.Fab) (width 0.1))
  (fp_line (start 7.365 -25.4) (end 7.365 25.4) (layer F.Fab) (width 0.1))
  (fp_line (start 7.365 25.4) (end -7.365 25.4) (layer F.Fab) (width 0.1))
  (fp_line (start -7.365 25.4) (end -7.365 -24.4) (layer F.Fab) (width 0.1))
  (fp_line (start -7.365 -24.4) (end -6.365 -25.4) (layer F.Fab) (width 0.1))
  (fp_line (start -8.89 -25.46) (end -8.89 25.46) (layer F.Fab) (width 0.1))
  (fp_line (start -8.89 25.46) (end 8.89 25.46) (layer F.Fab) (width 0.1))
  (fp_line (start 8.89 25.46) (end 8.89 -25.46) (layer F.Fab) (width 0.1))
  (fp_line (start 8.89 -25.46) (end -8.89 -25.46) (layer F.Fab) (width 0.1))
  (fp_line (start -1 -25.46) (end -6.345 -25.46) (layer F.SilkS) (width 0.12))
  (fp_line (start -6.345 -25.46) (end -6.345 25.46) (layer F.SilkS) (width 0.12))
  (fp_line (start -6.345 25.46) (end 6.345 25.46) (layer F.SilkS) (width 0.12))
  (fp_line (start 6.345 25.46) (end 6.345 -25.46) (layer F.SilkS) (width 0.12))
  (fp_line (start 6.345 -25.46) (end 1 -25.46) (layer F.SilkS) (width 0.12))
  (fp_line (start -10.045 -25.52) (end -10.045 25.52) (layer F.SilkS) (width 0.12))
  (fp_line (start -10.045 25.52) (end 10.045 25.52) (layer F.SilkS) (width 0.12))
  (fp_line (start 10.045 25.52) (end 10.045 -25.52) (layer F.SilkS) (width 0.12))
  (fp_line (start 10.045 -25.52) (end -10.045 -25.52) (layer F.SilkS) (width 0.12))
  (fp_line (start -10.1 -25.75) (end -10.1 25.75) (layer F.CrtYd) (width 0.05))
  (fp_line (start -10.1 25.75) (end 10.1 25.75) (layer F.CrtYd) (width 0.05))
  (fp_line (start 10.1 25.75) (end 10.1 -25.75) (layer F.CrtYd) (width 0.05))
  (fp_line (start 10.1 -25.75) (end -10.1 -25.75) (layer F.CrtYd) (width 0.05))
  (pad 1 smd rect (at -8.255 -24.13) (size 3.1 1.6) (layers F.Cu F.Mask F.Paste))
  (pad 21 smd rect (at 8.255 24.13) (size 3.1 1.6) (layers F.Cu F.Mask F.Paste))
  (pad 2 smd rect (at -8.255 -21.59) (size 3.1 1.6) (layers F.Cu F.Mask F.Paste))
  (pad 22 smd rect (at 8.255 21.59) (size 3.1 1.6) (layers F.Cu F.Mask F.Paste))
  (pad 3 smd rect (at -8.255 -19.05) (size 3.1 1.6) (layers F.Cu F.Mask F.Paste))
  (pad 23 smd rect (at 8.255 19.05) (size 3.1 1.6) (layers F.Cu F.Mask F.Paste))
  (pad 4 smd rect (at -8.255 -16.51) (size 3.1 1.6) (layers F.Cu F.Mask F.Paste))
  (pad 24 smd rect (at 8.255 16.51) (size 3.1 1.6) (layers F.Cu F.Mask F.Paste))
  (pad 5 smd rect (at -8.255 -13.97) (size 3.1 1.6) (layers F.Cu F.Mask F.Paste))
  (pad 25 smd rect (at 8.255 13.97) (size 3.1 1.6) (layers F.Cu F.Mask F.Paste))
  (pad 6 smd rect (at -8.255 -11.43) (size 3.1 1.6) (layers F.Cu F.Mask F.Paste))
  (pad 26 smd rect (at 8.255 11.43) (size 3.1 1.6) (layers F.Cu F.Mask F.Paste))
  (pad 7 smd rect (at -8.255 -8.89) (size 3.1 1.6) (layers F.Cu F.Mask F.Paste))
  (pad 27 smd rect (at 8.255 8.89) (size 3.1 1.6) (layers F.Cu F.Mask F.Paste))
  (pad 8 smd rect (at -8.255 -6.35) (size 3.1 1.6) (layers F.Cu F.Mask F.Paste))
  (pad 28 smd rect (at 8.255 6.35) (size 3.1 1.6) (layers F.Cu F.Mask F.Paste))
  (pad 9 smd rect (at -8.255 -3.81) (size 3.1 1.6) (layers F.Cu F.Mask F.Paste))
  (pad 29 smd rect (at 8.255 3.81) (size 3.1 1.6) (layers F.Cu F.Mask F.Paste))
  (pad 10 smd rect (at -8.255 -1.27) (size 3.1 1.6) (layers F.Cu F.Mask F.Paste))
  (pad 30 smd rect (at 8.255 1.27) (size 3.1 1.6) (layers F.Cu F.Mask F.Paste))
  (pad 11 smd rect (at -8.255 1.27) (size 3.1 1.6) (layers F.Cu F.Mask F.Paste))
  (pad 31 smd rect (at 8.255 -1.27) (size 3.1 1.6) (layers F.Cu F.Mask F.Paste))
  (pad 12 smd rect (at -8.255 3.81) (size 3.1 1.6) (layers F.Cu F.Mask F.Paste))
  (pad 32 smd rect (at 8.255 -3.81) (size 3.1 1.6) (layers F.Cu F.Mask F.Paste))
  (pad 13 smd rect (at -8.255 6.35) (size 3.1 1.6) (layers F.Cu F.Mask F.Paste))
  (pad 33 smd rect (at 8.255 -6.35) (size 3.1 1.6) (layers F.Cu F.Mask F.Paste))
  (pad 14 smd rect (at -8.255 8.89) (size 3.1 1.6) (layers F.Cu F.Mask F.Paste))
  (pad 34 smd rect (at 8.255 -8.89) (size 3.1 1.6) (layers F.Cu F.Mask F.Paste))
  (pad 15 smd rect (at -8.255 11.43) (size 3.1 1.6) (layers F.Cu F.Mask F.Paste))
  (pad 35 smd rect (at 8.255 -11.43) (size 3.1 1.6) (layers F.Cu F.Mask F.Paste))
  (pad 16 smd rect (at -8.255 13.97) (size 3.1 1.6) (layers F.Cu F.Mask F.Paste))
  (pad 36 smd rect (at 8.255 -13.97) (size 3.1 1.6) (layers F.Cu F.Mask F.Paste))
  (pad 17 smd rect (at -8.255 16.51) (size 3.1 1.6) (layers F.Cu F.Mask F.Paste))
  (pad 37 smd rect (at 8.255 -16.51) (size 3.1 1.6) (layers F.Cu F.Mask F.Paste))
  (pad 18 smd rect (at -8.255 19.05) (size 3.1 1.6) (layers F.Cu F.Mask F.Paste))
  (pad 38 smd rect (at 8.255 -19.05) (size 3.1 1.6) (layers F.Cu F.Mask F.Paste))
  (pad 19 smd rect (at -8.255 21.59) (size 3.1 1.6) (layers F.Cu F.Mask F.Paste))
  (pad 39 smd rect (at 8.255 -21.59) (size 3.1 1.6) (layers F.Cu F.Mask F.Paste))
  (pad 20 smd rect (at -8.255 24.13) (size 3.1 1.6) (layers F.Cu F.Mask F.Paste))
  (pad 40 smd rect (at 8.255 -24.13) (size 3.1 1.6) (layers F.Cu F.Mask F.Paste))
  (fp_text user %R (at 0 0) (layer F.Fab)
    (effects (font (size 1 1) (thickness 0.15)))
  )
  (model ${KICAD6_3DMODEL_DIR}/Package_DIP.3dshapes/DIP-40_W16.51mm_SMDSocket.wrl
    (at (xyz 0 0 0))
    (scale (xyz 1 1 1))
    (rotate (xyz 0 0 0))
  )
)