(module DIP-64_W22.86mm_SMDSocket_SmallPads (layer F.Cu) (tedit 5A02E8C5)
  (descr "64-lead though-hole mounted DIP package, row spacing 22.86 mm (900 mils), SMDSocket, SmallPads")
  (tags "THT DIP DIL PDIP 2.54mm 22.86mm 900mil SMDSocket SmallPads")
  (attr smd)
  (fp_text reference REF** (at 0 -41.7) (layer F.SilkS)
    (effects (font (size 1 1) (thickness 0.15)))
  )
  (fp_text value DIP-64_W22.86mm_SMDSocket_SmallPads (at 0 41.7) (layer F.Fab)
    (effects (font (size 1 1) (thickness 0.15)))
  )
  (fp_arc (start 0 -40.7) (end -1 -40.7) (angle -180.000000) (layer F.SilkS) (width 0.12))
  (fp_line (start -10.175 -40.64) (end 11.175 -40.64) (layer F.Fab) (width 0.1))
  (fp_line (start 11.175 -40.64) (end 11.175 40.64) (layer F.Fab) (width 0.1))
  (fp_line (start 11.175 40.64) (end -11.175 40.64) (layer F.Fab) (width 0.1))
  (fp_line (start -11.175 40.64) (end -11.175 -39.64) (layer F.Fab) (width 0.1))
  (fp_line (start -11.175 -39.64) (end -10.175 -40.64) (layer F.Fab) (width 0.1))
  (fp_line (start -12.7 -40.7) (end -12.7 40.7) (layer F.Fab) (width 0.1))
  (fp_line (start -12.7 40.7) (end 12.7 40.7) (layer F.Fab) (width 0.1))
  (fp_line (start 12.7 40.7) (end 12.7 -40.7) (layer F.Fab) (width 0.1))
  (fp_line (start 12.7 -40.7) (end -12.7 -40.7) (layer F.Fab) (width 0.1))
  (fp_line (start -1 -40.7) (end -10.27 -40.7) (layer F.SilkS) (width 0.12))
  (fp_line (start -10.27 -40.7) (end -10.27 40.7) (layer F.SilkS) (width 0.12))
  (fp_line (start -10.27 40.7) (end 10.27 40.7) (layer F.SilkS) (width 0.12))
  (fp_line (start 10.27 40.7) (end 10.27 -40.7) (layer F.SilkS) (width 0.12))
  (fp_line (start 10.27 -40.7) (end 1 -40.7) (layer F.SilkS) (width 0.12))
  (fp_line (start -12.76 -40.76) (end -12.76 40.76) (layer F.SilkS) (width 0.12))
  (fp_line (start -12.76 40.76) (end 12.76 40.76) (layer F.SilkS) (width 0.12))
  (fp_line (start 12.76 40.76) (end 12.76 -40.76) (layer F.SilkS) (width 0.12))
  (fp_line (start 12.76 -40.76) (end -12.76 -40.76) (layer F.SilkS) (width 0.12))
  (fp_line (start -12.95 -40.95) (end -12.95 40.95) (layer F.CrtYd) (width 0.05))
  (fp_line (start -12.95 40.95) (end 12.95 40.95) (layer F.CrtYd) (width 0.05))
  (fp_line (start 12.95 40.95) (end 12.95 -40.95) (layer F.CrtYd) (width 0.05))
  (fp_line (start 12.95 -40.95) (end -12.95 -40.95) (layer F.CrtYd) (width 0.05))
  (pad 1 smd rect (at -11.43 -39.37) (size 1.6 1.6) (layers F.Cu F.Mask F.Paste))
  (pad 33 smd rect (at 11.43 39.37) (size 1.6 1.6) (layers F.Cu F.Mask F.Paste))
  (pad 2 smd rect (at -11.43 -36.83) (size 1.6 1.6) (layers F.Cu F.Mask F.Paste))
  (pad 34 smd rect (at 11.43 36.83) (size 1.6 1.6) (layers F.Cu F.Mask F.Paste))
  (pad 3 smd rect (at -11.43 -34.29) (size 1.6 1.6) (layers F.Cu F.Mask F.Paste))
  (pad 35 smd rect (at 11.43 34.29) (size 1.6 1.6) (layers F.Cu F.Mask F.Paste))
  (pad 4 smd rect (at -11.43 -31.75) (size 1.6 1.6) (layers F.Cu F.Mask F.Paste))
  (pad 36 smd rect (at 11.43 31.75) (size 1.6 1.6) (layers F.Cu F.Mask F.Paste))
  (pad 5 smd rect (at -11.43 -29.21) (size 1.6 1.6) (layers F.Cu F.Mask F.Paste))
  (pad 37 smd rect (at 11.43 29.21) (size 1.6 1.6) (layers F.Cu F.Mask F.Paste))
  (pad 6 smd rect (at -11.43 -26.67) (size 1.6 1.6) (layers F.Cu F.Mask F.Paste))
  (pad 38 smd rect (at 11.43 26.67) (size 1.6 1.6) (layers F.Cu F.Mask F.Paste))
  (pad 7 smd rect (at -11.43 -24.13) (size 1.6 1.6) (layers F.Cu F.Mask F.Paste))
  (pad 39 smd rect (at 11.43 24.13) (size 1.6 1.6) (layers F.Cu F.Mask F.Paste))
  (pad 8 smd rect (at -11.43 -21.59) (size 1.6 1.6) (layers F.Cu F.Mask F.Paste))
  (pad 40 smd rect (at 11.43 21.59) (size 1.6 1.6) (layers F.Cu F.Mask F.Paste))
  (pad 9 smd rect (at -11.43 -19.05) (size 1.6 1.6) (layers F.Cu F.Mask F.Paste))
  (pad 41 smd rect (at 11.43 19.05) (size 1.6 1.6) (layers F.Cu F.Mask F.Paste))
  (pad 10 smd rect (at -11.43 -16.51) (size 1.6 1.6) (layers F.Cu F.Mask F.Paste))
  (pad 42 smd rect (at 11.43 16.51) (size 1.6 1.6) (layers F.Cu F.Mask F.Paste))
  (pad 11 smd rect (at -11.43 -13.97) (size 1.6 1.6) (layers F.Cu F.Mask F.Paste))
  (pad 43 smd rect (at 11.43 13.97) (size 1.6 1.6) (layers F.Cu F.Mask F.Paste))
  (pad 12 smd rect (at -11.43 -11.43) (size 1.6 1.6) (layers F.Cu F.Mask F.Paste))
  (pad 44 smd rect (at 11.43 11.43) (size 1.6 1.6) (layers F.Cu F.Mask F.Paste))
  (pad 13 smd rect (at -11.43 -8.89) (size 1.6 1.6) (layers F.Cu F.Mask F.Paste))
  (pad 45 smd rect (at 11.43 8.89) (size 1.6 1.6) (layers F.Cu F.Mask F.Paste))
  (pad 14 smd rect (at -11.43 -6.35) (size 1.6 1.6) (layers F.Cu F.Mask F.Paste))
  (pad 46 smd rect (at 11.43 6.35) (size 1.6 1.6) (layers F.Cu F.Mask F.Paste))
  (pad 15 smd rect (at -11.43 -3.81) (size 1.6 1.6) (layers F.Cu F.Mask F.Paste))
  (pad 47 smd rect (at 11.43 3.81) (size 1.6 1.6) (layers F.Cu F.Mask F.Paste))
  (pad 16 smd rect (at -11.43 -1.27) (size 1.6 1.6) (layers F.Cu F.Mask F.Paste))
  (pad 48 smd rect (at 11.43 1.27) (size 1.6 1.6) (layers F.Cu F.Mask F.Paste))
  (pad 17 smd rect (at -11.43 1.27) (size 1.6 1.6) (layers F.Cu F.Mask F.Paste))
  (pad 49 smd rect (at 11.43 -1.27) (size 1.6 1.6) (layers F.Cu F.Mask F.Paste))
  (pad 18 smd rect (at -11.43 3.81) (size 1.6 1.6) (layers F.Cu F.Mask F.Paste))
  (pad 50 smd rect (at 11.43 -3.81) (size 1.6 1.6) (layers F.Cu F.Mask F.Paste))
  (pad 19 smd rect (at -11.43 6.35) (size 1.6 1.6) (layers F.Cu F.Mask F.Paste))
  (pad 51 smd rect (at 11.43 -6.35) (size 1.6 1.6) (layers F.Cu F.Mask F.Paste))
  (pad 20 smd rect (at -11.43 8.89) (size 1.6 1.6) (layers F.Cu F.Mask F.Paste))
  (pad 52 smd rect (at 11.43 -8.89) (size 1.6 1.6) (layers F.Cu F.Mask F.Paste))
  (pad 21 smd rect (at -11.43 11.43) (size 1.6 1.6) (layers F.Cu F.Mask F.Paste))
  (pad 53 smd rect (at 11.43 -11.43) (size 1.6 1.6) (layers F.Cu F.Mask F.Paste))
  (pad 22 smd rect (at -11.43 13.97) (size 1.6 1.6) (layers F.Cu F.Mask F.Paste))
  (pad 54 smd rect (at 11.43 -13.97) (size 1.6 1.6) (layers F.Cu F.Mask F.Paste))
  (pad 23 smd rect (at -11.43 16.51) (size 1.6 1.6) (layers F.Cu F.Mask F.Paste))
  (pad 55 smd rect (at 11.43 -16.51) (size 1.6 1.6) (layers F.Cu F.Mask F.Paste))
  (pad 24 smd rect (at -11.43 19.05) (size 1.6 1.6) (layers F.Cu F.Mask F.Paste))
  (pad 56 smd rect (at 11.43 -19.05) (size 1.6 1.6) (layers F.Cu F.Mask F.Paste))
  (pad 25 smd rect (at -11.43 21.59) (size 1.6 1.6) (layers F.Cu F.Mask F.Paste))
  (pad 57 smd rect (at 11.43 -21.59) (size 1.6 1.6) (layers F.Cu F.Mask F.Paste))
  (pad 26 smd rect (at -11.43 24.13) (size 1.6 1.6) (layers F.Cu F.Mask F.Paste))
  (pad 58 smd rect (at 11.43 -24.13) (size 1.6 1.6) (layers F.Cu F.Mask F.Paste))
  (pad 27 smd rect (at -11.43 26.67) (size 1.6 1.6) (layers F.Cu F.Mask F.Paste))
  (pad 59 smd rect (at 11.43 -26.67) (size 1.6 1.6) (layers F.Cu F.Mask F.Paste))
  (pad 28 smd rect (at -11.43 29.21) (size 1.6 1.6) (layers F.Cu F.Mask F.Paste))
  (pad 60 smd rect (at 11.43 -29.21) (size 1.6 1.6) (layers F.Cu F.Mask F.Paste))
  (pad 29 smd rect (at -11.43 31.75) (size 1.6 1.6) (layers F.Cu F.Mask F.Paste))
  (pad 61 smd rect (at 11.43 -31.75) (size 1.6 1.6) (layers F.Cu F.Mask F.Paste))
  (pad 30 smd rect (at -11.43 34.29) (size 1.6 1.6) (layers F.Cu F.Mask F.Paste))
  (pad 62 smd rect (at 11.43 -34.29) (size 1.6 1.6) (layers F.Cu F.Mask F.Paste))
  (pad 31 smd rect (at -11.43 36.83) (size 1.6 1.6) (layers F.Cu F.Mask F.Paste))
  (pad 63 smd rect (at 11.43 -36.83) (size 1.6 1.6) (layers F.Cu F.Mask F.Paste))
  (pad 32 smd rect (at -11.43 39.37) (size 1.6 1.6) (layers F.Cu F.Mask F.Paste))
  (pad 64 smd rect (at 11.43 -39.37) (size 1.6 1.6) (layers F.Cu F.Mask F.Paste))
  (fp_text user %R (at 0 -0) (layer F.Fab)
    (effects (font (size 1 1) (thickness 0.15)))
  )
  (model ${KICAD6_3DMODEL_DIR}/Package_DIP.3dshapes/DIP-64_W22.86mm_SMDSocket.wrl
    (at (xyz 0 0 0))
    (scale (xyz 1 1 1))
    (rotate (xyz 0 0 0))
  )
)