(module DIP-28_W7.62mm_SMDSocket_SmallPads (layer F.Cu) (tedit 5A02E8C5)
  (descr "28-lead though-hole mounted DIP package, row spacing 7.62 mm (300 mils), SMDSocket, SmallPads")
  (tags "THT DIP DIL PDIP 2.54mm 7.62mm 300mil SMDSocket SmallPads")
  (attr smd)
  (fp_text reference REF** (at 0 -18.84) (layer F.SilkS)
    (effects (font (size 1 1) (thickness 0.15)))
  )
  (fp_text value DIP-28_W7.62mm_SMDSocket_SmallPads (at 0 18.84) (layer F.Fab)
    (effects (font (size 1 1) (thickness 0.15)))
  )
  (fp_arc (start 0 -17.84) (end -1 -17.84) (angle -180.000000) (layer F.SilkS) (width 0.12))
  (fp_line (start -2.175 -17.78) (end 3.175 -17.78) (layer F.Fab) (width 0.1))
  (fp_line (start 3.175 -17.78) (end 3.175 17.78) (layer F.Fab) (width 0.1))
  (fp_line (start 3.175 17.78) (end -3.175 17.78) (layer F.Fab) (width 0.1))
  (fp_line (start -3.175 17.78) (end -3.175 -16.78) (layer F.Fab) (width 0.1))
  (fp_line (start -3.175 -16.78) (end -2.175 -17.78) (layer F.Fab) (width 0.1))
  (fp_line (start -5.08 -17.84) (end -5.08 17.84) (layer F.Fab) (width 0.1))
  (fp_line (start -5.08 17.84) (end 5.08 17.84) (layer F.Fab) (width 0.1))
  (fp_line (start 5.08 17.84) (end 5.08 -17.84) (layer F.Fab) (width 0.1))
  (fp_line (start 5.08 -17.84) (end -5.08 -17.84) (layer F.Fab) (width 0.1))
  (fp_line (start -1 -17.84) (end -2.65 -17.84) (layer F.SilkS) (width 0.12))
  (fp_line (start -2.65 -17.84) (end -2.65 17.84) (layer F.SilkS) (width 0.12))
  (fp_line (start -2.65 17.84) (end 2.65 17.84) (layer F.SilkS) (width 0.12))
  (fp_line (start 2.65 17.84) (end 2.65 -17.84) (layer F.SilkS) (width 0.12))
  (fp_line (start 2.65 -17.84) (end 1 -17.84) (layer F.SilkS) (width 0.12))
  (fp_line (start -5.14 -17.9) (end -5.14 17.9) (layer F.SilkS) (width 0.12))
  (fp_line (start -5.14 17.9) (end 5.14 17.9) (layer F.SilkS) (width 0.12))
  (fp_line (start 5.14 17.9) (end 5.14 -17.9) (layer F.SilkS) (width 0.12))
  (fp_line (start 5.14 -17.9) (end -5.14 -17.9) (layer F.SilkS) (width 0.12))
  (fp_line (start -5.35 -18.1) (end -5.35 18.1) (layer F.CrtYd) (width 0.05))
  (fp_line (start -5.35 18.1) (end 5.35 18.1) (layer F.CrtYd) (width 0.05))
  (fp_line (start 5.35 18.1) (end 5.35 -18.1) (layer F.CrtYd) (width 0.05))
  (fp_line (start 5.35 -18.1) (end -5.35 -18.1) (layer F.CrtYd) (width 0.05))
  (pad 1 smd rect (at -3.81 -16.51) (size 1.6 1.6) (layers F.Cu F.Mask F.Paste))
  (pad 15 smd rect (at 3.81 16.51) (size 1.6 1.6) (layers F.Cu F.Mask F.Paste))
  (pad 2 smd rect (at -3.81 -13.97) (size 1.6 1.6) (layers F.Cu F.Mask F.Paste))
  (pad 16 smd rect (at 3.81 13.97) (size 1.6 1.6) (layers F.Cu F.Mask F.Paste))
  (pad 3 smd rect (at -3.81 -11.43) (size 1.6 1.6) (layers F.Cu F.Mask F.Paste))
  (pad 17 smd rect (at 3.81 11.43) (size 1.6 1.6) (layers F.Cu F.Mask F.Paste))
  (pad 4 smd rect (at -3.81 -8.89) (size 1.6 1.6) (layers F.Cu F.Mask F.Paste))
  (pad 18 smd rect (at 3.81 8.89) (size 1.6 1.6) (layers F.Cu F.Mask F.Paste))
  (pad 5 smd rect (at -3.81 -6.35) (size 1.6 1.6) (layers F.Cu F.Mask F.Paste))
  (pad 19 smd rect (at 3.81 6.35) (size 1.6 1.6) (layers F.Cu F.Mask F.Paste))
  (pad 6 smd rect (at -3.81 -3.81) (size 1.6 1.6) (layers F.Cu F.Mask F.Paste))
  (pad 20 smd rect (at 3.81 3.81) (size 1.6 1.6) (layers F.Cu F.Mask F.Paste))
  (pad 7 smd rect (at -3.81 -1.27) (size 1.6 1.6) (layers F.Cu F.Mask F.Paste))
  (pad 21 smd rect (at 3.81 1.27) (size 1.6 1.6) (layers F.Cu F.Mask F.Paste))
  (pad 8 smd rect (at -3.81 1.27) (size 1.6 1.6) (layers F.Cu F.Mask F.Paste))
  (pad 22 smd rect (at 3.81 -1.27) (size 1.6 1.6) (layers F.Cu F.Mask F.Paste))
  (pad 9 smd rect (at -3.81 3.81) (size 1.6 1.6) (layers F.Cu F.Mask F.Paste))
  (pad 23 smd rect (at 3.81 -3.81) (size 1.6 1.6) (layers F.Cu F.Mask F.Paste))
  (pad 10 smd rect (at -3.81 6.35) (size 1.6 1.6) (layers F.Cu F.Mask F.Paste))
  (pad 24 smd rect (at 3.81 -6.35) (size 1.6 1.6) (layers F.Cu F.Mask F.Paste))
  (pad 11 smd rect (at -3.81 8.89) (size 1.6 1.6) (layers F.Cu F.Mask F.Paste))
  (pad 25 smd rect (at 3.81 -8.89) (size 1.6 1.6) (layers F.Cu F.Mask F.Paste))
  (pad 12 smd rect (at -3.81 11.43) (size 1.6 1.6) (layers F.Cu F.Mask F.Paste))
  (pad 26 smd rect (at 3.81 -11.43) (size 1.6 1.6) (layers F.Cu F.Mask F.Paste))
  (pad 13 smd rect (at -3.81 13.97) (size 1.6 1.6) (layers F.Cu F.Mask F.Paste))
  (pad 27 smd rect (at 3.81 -13.97) (size 1.6 1.6) (layers F.Cu F.Mask F.Paste))
  (pad 14 smd rect (at -3.81 16.51) (size 1.6 1.6) (layers F.Cu F.Mask F.Paste))
  (pad 28 smd rect (at 3.81 -16.51) (size 1.6 1.6) (layers F.Cu F.Mask F.Paste))
  (fp_text user %R (at 0 0) (layer F.Fab)
    (effects (font (size 1 1) (thickness 0.15)))
  )
  (model ${KICAD6_3DMODEL_DIR}/Package_DIP.3dshapes/DIP-28_W7.62mm_SMDSocket.wrl
    (at (xyz 0 0 0))
    (scale (xyz 1 1 1))
    (rotate (xyz 0 0 0))
  )
)