(module DIP-24_W15.24mm_Socket (layer F.Cu) (tedit 5A02E8C5)
  (descr "24-lead though-hole mounted DIP package, row spacing 15.24 mm (600 mils), Socket")
  (tags "THT DIP DIL PDIP 2.54mm 15.24mm 600mil Socket")
  (fp_text reference REF** (at 7.62 -2.33) (layer F.SilkS)
    (effects (font (size 1 1) (thickness 0.15)))
  )
  (fp_text value DIP-24_W15.24mm_Socket (at 7.62 30.27) (layer F.Fab)
    (effects (font (size 1 1) (thickness 0.15)))
  )
  (fp_arc (start 7.62 -1.33) (end 6.62 -1.33) (angle -180.000000) (layer F.SilkS) (width 0.12))
  (fp_line (start 1.255 -1.27) (end 14.985 -1.27) (layer F.Fab) (width 0.1))
  (fp_line (start 14.985 -1.27) (end 14.985 29.21) (layer F.Fab) (width 0.1))
  (fp_line (start 14.985 29.21) (end 0.255 29.21) (layer F.Fab) (width 0.1))
  (fp_line (start 0.255 29.21) (end 0.255 -0.27) (layer F.Fab) (width 0.1))
  (fp_line (start 0.255 -0.27) (end 1.255 -1.27) (layer F.Fab) (width 0.1))
  (fp_line (start -1.27 -1.33) (end -1.27 29.27) (layer F.Fab) (width 0.1))
  (fp_line (start -1.27 29.27) (end 16.51 29.27) (layer F.Fab) (width 0.1))
  (fp_line (start 16.51 29.27) (end 16.51 -1.33) (layer F.Fab) (width 0.1))
  (fp_line (start 16.51 -1.33) (end -1.27 -1.33) (layer F.Fab) (width 0.1))
  (fp_line (start 6.62 -1.33) (end 1.16 -1.33) (layer F.SilkS) (width 0.12))
  (fp_line (start 1.16 -1.33) (end 1.16 29.27) (layer F.SilkS) (width 0.12))
  (fp_line (start 1.16 29.27) (end 14.08 29.27) (layer F.SilkS) (width 0.12))
  (fp_line (start 14.08 29.27) (end 14.08 -1.33) (layer F.SilkS) (width 0.12))
  (fp_line (start 14.08 -1.33) (end 8.62 -1.33) (layer F.SilkS) (width 0.12))
  (fp_line (start -1.33 -1.39) (end -1.33 29.33) (layer F.SilkS) (width 0.12))
  (fp_line (start -1.33 29.33) (end 16.57 29.33) (layer F.SilkS) (width 0.12))
  (fp_line (start 16.57 29.33) (end 16.57 -1.39) (layer F.SilkS) (width 0.12))
  (fp_line (start 16.57 -1.39) (end -1.33 -1.39) (layer F.SilkS) (width 0.12))
  (fp_line (start -1.55 -1.6) (end -1.55 29.55) (layer F.CrtYd) (width 0.05))
  (fp_line (start -1.55 29.55) (end 16.8 29.55) (layer F.CrtYd) (width 0.05))
  (fp_line (start 16.8 29.55) (end 16.8 -1.6) (layer F.CrtYd) (width 0.05))
  (fp_line (start 16.8 -1.6) (end -1.55 -1.6) (layer F.CrtYd) (width 0.05))
  (pad 1 thru_hole rect (at 0 0) (size 1.6 1.6) (drill 0.8) (layers *.Cu *.Mask))
  (pad 13 thru_hole oval (at 15.24 27.94) (size 1.6 1.6) (drill 0.8) (layers *.Cu *.Mask))
  (pad 2 thru_hole oval (at 0 2.54) (size 1.6 1.6) (drill 0.8) (layers *.Cu *.Mask))
  (pad 14 thru_hole oval (at 15.24 25.4) (size 1.6 1.6) (drill 0.8) (layers *.Cu *.Mask))
  (pad 3 thru_hole oval (at 0 5.08) (size 1.6 1.6) (drill 0.8) (layers *.Cu *.Mask))
  (pad 15 thru_hole oval (at 15.24 22.86) (size 1.6 1.6) (drill 0.8) (layers *.Cu *.Mask))
  (pad 4 thru_hole oval (at 0 7.62) (size 1.6 1.6) (drill 0.8) (layers *.Cu *.Mask))
  (pad 16 thru_hole oval (at 15.24 20.32) (size 1.6 1.6) (drill 0.8) (layers *.Cu *.Mask))
  (pad 5 thru_hole oval (at 0 10.16) (size 1.6 1.6) (drill 0.8) (layers *.Cu *.Mask))
  (pad 17 thru_hole oval (at 15.24 17.78) (size 1.6 1.6) (drill 0.8) (layers *.Cu *.Mask))
  (pad 6 thru_hole oval (at 0 12.7) (size 1.6 1.6) (drill 0.8) (layers *.Cu *.Mask))
  (pad 18 thru_hole oval (at 15.24 15.24) (size 1.6 1.6) (drill 0.8) (layers *.Cu *.Mask))
  (pad 7 thru_hole oval (at 0 15.24) (size 1.6 1.6) (drill 0.8) (layers *.Cu *.Mask))
  (pad 19 thru_hole oval (at 15.24 12.7) (size 1.6 1.6) (drill 0.8) (layers *.Cu *.Mask))
  (pad 8 thru_hole oval (at 0 17.78) (size 1.6 1.6) (drill 0.8) (layers *.Cu *.Mask))
  (pad 20 thru_hole oval (at 15.24 10.16) (size 1.6 1.6) (drill 0.8) (layers *.Cu *.Mask))
  (pad 9 thru_hole oval (at 0 20.32) (size 1.6 1.6) (drill 0.8) (layers *.Cu *.Mask))
  (pad 21 thru_hole oval (at 15.24 7.62) (size 1.6 1.6) (drill 0.8) (layers *.Cu *.Mask))
  (pad 10 thru_hole oval (at 0 22.86) (size 1.6 1.6) (drill 0.8) (layers *.Cu *.Mask))
  (pad 22 thru_hole oval (at 15.24 5.08) (size 1.6 1.6) (drill 0.8) (layers *.Cu *.Mask))
  (pad 11 thru_hole oval (at 0 25.4) (size 1.6 1.6) (drill 0.8) (layers *.Cu *.Mask))
  (pad 23 thru_hole oval (at 15.24 2.54) (size 1.6 1.6) (drill 0.8) (layers *.Cu *.Mask))
  (pad 12 thru_hole oval (at 0 27.94) (size 1.6 1.6) (drill 0.8) (layers *.Cu *.Mask))
  (pad 24 thru_hole oval (at 15.24 0) (size 1.6 1.6) (drill 0.8) (layers *.Cu *.Mask))
  (fp_text user %R (at 7.62 13.97) (layer F.Fab)
    (effects (font (size 1 1) (thickness 0.15)))
  )
  (model ${KICAD6_3DMODEL_DIR}/Package_DIP.3dshapes/DIP-24_W15.24mm_Socket.wrl
    (at (xyz 0 0 0))
    (scale (xyz 1 1 1))
    (rotate (xyz 0 0 0))
  )
)