(module DIP-4_W10.16mm_LongPads (layer F.Cu) (tedit 5A02E8C5)
  (descr "4-lead though-hole mounted DIP package, row spacing 10.16 mm (400 mils), LongPads")
  (tags "THT DIP DIL PDIP 2.54mm 10.16mm 400mil LongPads")
  (fp_text reference REF** (at 5.08 -2.33) (layer F.SilkS)
    (effects (font (size 1 1) (thickness 0.15)))
  )
  (fp_text value DIP-4_W10.16mm_LongPads (at 5.08 4.87) (layer F.Fab)
    (effects (font (size 1 1) (thickness 0.15)))
  )
  (fp_arc (start 5.08 -1.33) (end 4.08 -1.33) (angle -180.000000) (layer F.SilkS) (width 0.12))
  (fp_line (start 2.905 -1.27) (end 8.255 -1.27) (layer F.Fab) (width 0.1))
  (fp_line (start 8.255 -1.27) (end 8.255 3.81) (layer F.Fab) (width 0.1))
  (fp_line (start 8.255 3.81) (end 1.905 3.81) (layer F.Fab) (width 0.1))
  (fp_line (start 1.905 3.81) (end 1.905 -0.27) (layer F.Fab) (width 0.1))
  (fp_line (start 1.905 -0.27) (end 2.905 -1.27) (layer F.Fab) (width 0.1))
  (fp_line (start 4.08 -1.33) (end 1.845 -1.33) (layer F.SilkS) (width 0.12))
  (fp_line (start 1.845 -1.33) (end 1.845 3.87) (layer F.SilkS) (width 0.12))
  (fp_line (start 1.845 3.87) (end 8.315 3.87) (layer F.SilkS) (width 0.12))
  (fp_line (start 8.315 3.87) (end 8.315 -1.33) (layer F.SilkS) (width 0.12))
  (fp_line (start 8.315 -1.33) (end 6.08 -1.33) (layer F.SilkS) (width 0.12))
  (fp_line (start -1.5 -1.55) (end -1.5 4.1) (layer F.CrtYd) (width 0.05))
  (fp_line (start -1.5 4.1) (end 11.65 4.1) (layer F.CrtYd) (width 0.05))
  (fp_line (start 11.65 4.1) (end 11.65 -1.55) (layer F.CrtYd) (width 0.05))
  (fp_line (start 11.65 -1.55) (end -1.5 -1.55) (layer F.CrtYd) (width 0.05))
  (pad 1 thru_hole rect (at 0 0) (size 2.4 1.6) (drill 0.8) (layers *.Cu *.Mask))
  (pad 3 thru_hole oval (at 10.16 2.54) (size 2.4 1.6) (drill 0.8) (layers *.Cu *.Mask))
  (pad 2 thru_hole oval (at 0 2.54) (size 2.4 1.6) (drill 0.8) (layers *.Cu *.Mask))
  (pad 4 thru_hole oval (at 10.16 0) (size 2.4 1.6) (drill 0.8) (layers *.Cu *.Mask))
  (fp_text user %R (at 5.08 1.27) (layer F.Fab)
    (effects (font (size 1 1) (thickness 0.15)))
  )
  (model ${KICAD6_3DMODEL_DIR}/Package_DIP.3dshapes/DIP-4_W10.16mm.wrl
    (at (xyz 0 0 0))
    (scale (xyz 1 1 1))
    (rotate (xyz 0 0 0))
  )
)