(module DIP-10_W7.62mm_LongPads (layer F.Cu) (tedit 5A02E8C5)
  (descr "10-lead though-hole mounted DIP package, row spacing 7.62 mm (300 mils), LongPads")
  (tags "THT DIP DIL PDIP 2.54mm 7.62mm 300mil LongPads")
  (fp_text reference REF** (at 3.81 -2.33) (layer F.SilkS)
    (effects (font (size 1 1) (thickness 0.15)))
  )
  (fp_text value DIP-10_W7.62mm_LongPads (at 3.81 12.49) (layer F.Fab)
    (effects (font (size 1 1) (thickness 0.15)))
  )
  (fp_arc (start 3.81 -1.33) (end 2.81 -1.33) (angle -180.000000) (layer F.SilkS) (width 0.12))
  (fp_line (start 1.635 -1.27) (end 6.985 -1.27) (layer F.Fab) (width 0.1))
  (fp_line (start 6.985 -1.27) (end 6.985 11.43) (layer F.Fab) (width 0.1))
  (fp_line (start 6.985 11.43) (end 0.635 11.43) (layer F.Fab) (width 0.1))
  (fp_line (start 0.635 11.43) (end 0.635 -0.27) (layer F.Fab) (width 0.1))
  (fp_line (start 0.635 -0.27) (end 1.635 -1.27) (layer F.Fab) (width 0.1))
  (fp_line (start 2.81 -1.33) (end 1.56 -1.33) (layer F.SilkS) (width 0.12))
  (fp_line (start 1.56 -1.33) (end 1.56 11.49) (layer F.SilkS) (width 0.12))
  (fp_line (start 1.56 11.49) (end 6.06 11.49) (layer F.SilkS) (width 0.12))
  (fp_line (start 6.06 11.49) (end 6.06 -1.33) (layer F.SilkS) (width 0.12))
  (fp_line (start 6.06 -1.33) (end 4.81 -1.33) (layer F.SilkS) (width 0.12))
  (fp_line (start -1.45 -1.55) (end -1.45 11.7) (layer F.CrtYd) (width 0.05))
  (fp_line (start -1.45 11.7) (end 9.1 11.7) (layer F.CrtYd) (width 0.05))
  (fp_line (start 9.1 11.7) (end 9.1 -1.55) (layer F.CrtYd) (width 0.05))
  (fp_line (start 9.1 -1.55) (end -1.45 -1.55) (layer F.CrtYd) (width 0.05))
  (pad 1 thru_hole rect (at 0 0) (size 2.4 1.6) (drill 0.8) (layers *.Cu *.Mask))
  (pad 6 thru_hole oval (at 7.62 10.16) (size 2.4 1.6) (drill 0.8) (layers *.Cu *.Mask))
  (pad 2 thru_hole oval (at 0 2.54) (size 2.4 1.6) (drill 0.8) (layers *.Cu *.Mask))
  (pad 7 thru_hole oval (at 7.62 7.62) (size 2.4 1.6) (drill 0.8) (layers *.Cu *.Mask))
  (pad 3 thru_hole oval (at 0 5.08) (size 2.4 1.6) (drill 0.8) (layers *.Cu *.Mask))
  (pad 8 thru_hole oval (at 7.62 5.08) (size 2.4 1.6) (drill 0.8) (layers *.Cu *.Mask))
  (pad 4 thru_hole oval (at 0 7.62) (size 2.4 1.6) (drill 0.8) (layers *.Cu *.Mask))
  (pad 9 thru_hole oval (at 7.62 2.54) (size 2.4 1.6) (drill 0.8) (layers *.Cu *.Mask))
  (pad 5 thru_hole oval (at 0 10.16) (size 2.4 1.6) (drill 0.8) (layers *.Cu *.Mask))
  (pad 10 thru_hole oval (at 7.62 0) (size 2.4 1.6) (drill 0.8) (layers *.Cu *.Mask))
  (fp_text user %R (at 3.81 5.08) (layer F.Fab)
    (effects (font (size 1 1) (thickness 0.15)))
  )
  (model ${KICAD6_3DMODEL_DIR}/Package_DIP.3dshapes/DIP-10_W7.62mm.wrl
    (at (xyz 0 0 0))
    (scale (xyz 1 1 1))
    (rotate (xyz 0 0 0))
  )
)