(module DIP-24_W10.16mm_SMDSocket_SmallPads (layer F.Cu) (tedit 5A02E8C5)
  (descr "24-lead though-hole mounted DIP package, row spacing 10.16 mm (400 mils), SMDSocket, SmallPads")
  (tags "THT DIP DIL PDIP 2.54mm 10.16mm 400mil SMDSocket SmallPads")
  (attr smd)
  (fp_text reference REF** (at 0 -16.3) (layer F.SilkS)
    (effects (font (size 1 1) (thickness 0.15)))
  )
  (fp_text value DIP-24_W10.16mm_SMDSocket_SmallPads (at 0 16.3) (layer F.Fab)
    (effects (font (size 1 1) (thickness 0.15)))
  )
  (fp_arc (start 0 -15.3) (end -1 -15.3) (angle -180.000000) (layer F.SilkS) (width 0.12))
  (fp_line (start -3.57 -15.24) (end 4.57 -15.24) (layer F.Fab) (width 0.1))
  (fp_line (start 4.57 -15.24) (end 4.57 15.24) (layer F.Fab) (width 0.1))
  (fp_line (start 4.57 15.24) (end -4.57 15.24) (layer F.Fab) (width 0.1))
  (fp_line (start -4.57 15.24) (end -4.57 -14.24) (layer F.Fab) (width 0.1))
  (fp_line (start -4.57 -14.24) (end -3.57 -15.24) (layer F.Fab) (width 0.1))
  (fp_line (start -6.35 -15.3) (end -6.35 15.3) (layer F.Fab) (width 0.1))
  (fp_line (start -6.35 15.3) (end 6.35 15.3) (layer F.Fab) (width 0.1))
  (fp_line (start 6.35 15.3) (end 6.35 -15.3) (layer F.Fab) (width 0.1))
  (fp_line (start 6.35 -15.3) (end -6.35 -15.3) (layer F.Fab) (width 0.1))
  (fp_line (start -1 -15.3) (end -3.92 -15.3) (layer F.SilkS) (width 0.12))
  (fp_line (start -3.92 -15.3) (end -3.92 15.3) (layer F.SilkS) (width 0.12))
  (fp_line (start -3.92 15.3) (end 3.92 15.3) (layer F.SilkS) (width 0.12))
  (fp_line (start 3.92 15.3) (end 3.92 -15.3) (layer F.SilkS) (width 0.12))
  (fp_line (start 3.92 -15.3) (end 1 -15.3) (layer F.SilkS) (width 0.12))
  (fp_line (start -6.41 -15.36) (end -6.41 15.36) (layer F.SilkS) (width 0.12))
  (fp_line (start -6.41 15.36) (end 6.41 15.36) (layer F.SilkS) (width 0.12))
  (fp_line (start 6.41 15.36) (end 6.41 -15.36) (layer F.SilkS) (width 0.12))
  (fp_line (start 6.41 -15.36) (end -6.41 -15.36) (layer F.SilkS) (width 0.12))
  (fp_line (start -6.6 -15.55) (end -6.6 15.55) (layer F.CrtYd) (width 0.05))
  (fp_line (start -6.6 15.55) (end 6.6 15.55) (layer F.CrtYd) (width 0.05))
  (fp_line (start 6.6 15.55) (end 6.6 -15.55) (layer F.CrtYd) (width 0.05))
  (fp_line (start 6.6 -15.55) (end -6.6 -15.55) (layer F.CrtYd) (width 0.05))
  (pad 1 smd rect (at -5.08 -13.97) (size 1.6 1.6) (layers F.Cu F.Mask F.Paste))
  (pad 13 smd rect (at 5.08 13.97) (size 1.6 1.6) (layers F.Cu F.Mask F.Paste))
  (pad 2 smd rect (at -5.08 -11.43) (size 1.6 1.6) (layers F.Cu F.Mask F.Paste))
  (pad 14 smd rect (at 5.08 11.43) (size 1.6 1.6) (layers F.Cu F.Mask F.Paste))
  (pad 3 smd rect (at -5.08 -8.89) (size 1.6 1.6) (layers F.Cu F.Mask F.Paste))
  (pad 15 smd rect (at 5.08 8.89) (size 1.6 1.6) (layers F.Cu F.Mask F.Paste))
  (pad 4 smd rect (at -5.08 -6.35) (size 1.6 1.6) (layers F.Cu F.Mask F.Paste))
  (pad 16 smd rect (at 5.08 6.35) (size 1.6 1.6) (layers F.Cu F.Mask F.Paste))
  (pad 5 smd rect (at -5.08 -3.81) (size 1.6 1.6) (layers F.Cu F.Mask F.Paste))
  (pad 17 smd rect (at 5.08 3.81) (size 1.6 1.6) (layers F.Cu F.Mask F.Paste))
  (pad 6 smd rect (at -5.08 -1.27) (size 1.6 1.6) (layers F.Cu F.Mask F.Paste))
  (pad 18 smd rect (at 5.08 1.27) (size 1.6 1.6) (layers F.Cu F.Mask F.Paste))
  (pad 7 smd rect (at -5.08 1.27) (size 1.6 1.6) (layers F.Cu F.Mask F.Paste))
  (pad 19 smd rect (at 5.08 -1.27) (size 1.6 1.6) (layers F.Cu F.Mask F.Paste))
  (pad 8 smd rect (at -5.08 3.81) (size 1.6 1.6) (layers F.Cu F.Mask F.Paste))
  (pad 20 smd rect (at 5.08 -3.81) (size 1.6 1.6) (layers F.Cu F.Mask F.Paste))
  (pad 9 smd rect (at -5.08 6.35) (size 1.6 1.6) (layers F.Cu F.Mask F.Paste))
  (pad 21 smd rect (at 5.08 -6.35) (size 1.6 1.6) (layers F.Cu F.Mask F.Paste))
  (pad 10 smd rect (at -5.08 8.89) (size 1.6 1.6) (layers F.Cu F.Mask F.Paste))
  (pad 22 smd rect (at 5.08 -8.89) (size 1.6 1.6) (layers F.Cu F.Mask F.Paste))
  (pad 11 smd rect (at -5.08 11.43) (size 1.6 1.6) (layers F.Cu F.Mask F.Paste))
  (pad 23 smd rect (at 5.08 -11.43) (size 1.6 1.6) (layers F.Cu F.Mask F.Paste))
  (pad 12 smd rect (at -5.08 13.97) (size 1.6 1.6) (layers F.Cu F.Mask F.Paste))
  (pad 24 smd rect (at 5.08 -13.97) (size 1.6 1.6) (layers F.Cu F.Mask F.Paste))
  (fp_text user %R (at 0 0) (layer F.Fab)
    (effects (font (size 1 1) (thickness 0.15)))
  )
  (model ${KICAD6_3DMODEL_DIR}/Package_DIP.3dshapes/DIP-24_W10.16mm_SMDSocket.wrl
    (at (xyz 0 0 0))
    (scale (xyz 1 1 1))
    (rotate (xyz 0 0 0))
  )
)