(module DIP-8_W7.62mm_SMDSocket_SmallPads (layer F.Cu) (tedit 5A02E8C5)
  (descr "8-lead though-hole mounted DIP package, row spacing 7.62 mm (300 mils), SMDSocket, SmallPads")
  (tags "THT DIP DIL PDIP 2.54mm 7.62mm 300mil SMDSocket SmallPads")
  (attr smd)
  (fp_text reference REF** (at 0 -6.14) (layer F.SilkS)
    (effects (font (size 1 1) (thickness 0.15)))
  )
  (fp_text value DIP-8_W7.62mm_SMDSocket_SmallPads (at 0 6.14) (layer F.Fab)
    (effects (font (size 1 1) (thickness 0.15)))
  )
  (fp_arc (start 0 -5.14) (end -1 -5.14) (angle -180.000000) (layer F.SilkS) (width 0.12))
  (fp_line (start -2.175 -5.08) (end 3.175 -5.08) (layer F.Fab) (width 0.1))
  (fp_line (start 3.175 -5.08) (end 3.175 5.08) (layer F.Fab) (width 0.1))
  (fp_line (start 3.175 5.08) (end -3.175 5.08) (layer F.Fab) (width 0.1))
  (fp_line (start -3.175 5.08) (end -3.175 -4.08) (layer F.Fab) (width 0.1))
  (fp_line (start -3.175 -4.08) (end -2.175 -5.08) (layer F.Fab) (width 0.1))
  (fp_line (start -5.08 -5.14) (end -5.08 5.14) (layer F.Fab) (width 0.1))
  (fp_line (start -5.08 5.14) (end 5.08 5.14) (layer F.Fab) (width 0.1))
  (fp_line (start 5.08 5.14) (end 5.08 -5.14) (layer F.Fab) (width 0.1))
  (fp_line (start 5.08 -5.14) (end -5.08 -5.14) (layer F.Fab) (width 0.1))
  (fp_line (start -1 -5.14) (end -2.65 -5.14) (layer F.SilkS) (width 0.12))
  (fp_line (start -2.65 -5.14) (end -2.65 5.14) (layer F.SilkS) (width 0.12))
  (fp_line (start -2.65 5.14) (end 2.65 5.14) (layer F.SilkS) (width 0.12))
  (fp_line (start 2.65 5.14) (end 2.65 -5.14) (layer F.SilkS) (width 0.12))
  (fp_line (start 2.65 -5.14) (end 1 -5.14) (layer F.SilkS) (width 0.12))
  (fp_line (start -5.14 -5.2) (end -5.14 5.2) (layer F.SilkS) (width 0.12))
  (fp_line (start -5.14 5.2) (end 5.14 5.2) (layer F.SilkS) (width 0.12))
  (fp_line (start 5.14 5.2) (end 5.14 -5.2) (layer F.SilkS) (width 0.12))
  (fp_line (start 5.14 -5.2) (end -5.14 -5.2) (layer F.SilkS) (width 0.12))
  (fp_line (start -5.35 -5.4) (end -5.35 5.4) (layer F.CrtYd) (width 0.05))
  (fp_line (start -5.35 5.4) (end 5.35 5.4) (layer F.CrtYd) (width 0.05))
  (fp_line (start 5.35 5.4) (end 5.35 -5.4) (layer F.CrtYd) (width 0.05))
  (fp_line (start 5.35 -5.4) (end -5.35 -5.4) (layer F.CrtYd) (width 0.05))
  (pad 1 smd rect (at -3.81 -3.81) (size 1.6 1.6) (layers F.Cu F.Mask F.Paste))
  (pad 5 smd rect (at 3.81 3.81) (size 1.6 1.6) (layers F.Cu F.Mask F.Paste))
  (pad 2 smd rect (at -3.81 -1.27) (size 1.6 1.6) (layers F.Cu F.Mask F.Paste))
  (pad 6 smd rect (at 3.81 1.27) (size 1.6 1.6) (layers F.Cu F.Mask F.Paste))
  (pad 3 smd rect (at -3.81 1.27) (size 1.6 1.6) (layers F.Cu F.Mask F.Paste))
  (pad 7 smd rect (at 3.81 -1.27) (size 1.6 1.6) (layers F.Cu F.Mask F.Paste))
  (pad 4 smd rect (at -3.81 3.81) (size 1.6 1.6) (layers F.Cu F.Mask F.Paste))
  (pad 8 smd rect (at 3.81 -3.81) (size 1.6 1.6) (layers F.Cu F.Mask F.Paste))
  (fp_text user %R (at 0 0) (layer F.Fab)
    (effects (font (size 1 1) (thickness 0.15)))
  )
  (model ${KICAD6_3DMODEL_DIR}/Package_DIP.3dshapes/DIP-8_W7.62mm_SMDSocket.wrl
    (at (xyz 0 0 0))
    (scale (xyz 1 1 1))
    (rotate (xyz 0 0 0))
  )
)