(module DIP-48_W15.24mm_SMDSocket_SmallPads (layer F.Cu) (tedit 5A02E8C5)
  (descr "48-lead though-hole mounted DIP package, row spacing 15.24 mm (600 mils), SMDSocket, SmallPads")
  (tags "THT DIP DIL PDIP 2.54mm 15.24mm 600mil SMDSocket SmallPads")
  (attr smd)
  (fp_text reference REF** (at 0 -31.54) (layer F.SilkS)
    (effects (font (size 1 1) (thickness 0.15)))
  )
  (fp_text value DIP-48_W15.24mm_SMDSocket_SmallPads (at 0 31.54) (layer F.Fab)
    (effects (font (size 1 1) (thickness 0.15)))
  )
  (fp_arc (start 0 -30.54) (end -1 -30.54) (angle -180.000000) (layer F.SilkS) (width 0.12))
  (fp_line (start -6.365 -30.48) (end 7.365 -30.48) (layer F.Fab) (width 0.1))
  (fp_line (start 7.365 -30.48) (end 7.365 30.48) (layer F.Fab) (width 0.1))
  (fp_line (start 7.365 30.48) (end -7.365 30.48) (layer F.Fab) (width 0.1))
  (fp_line (start -7.365 30.48) (end -7.365 -29.48) (layer F.Fab) (width 0.1))
  (fp_line (start -7.365 -29.48) (end -6.365 -30.48) (layer F.Fab) (width 0.1))
  (fp_line (start -8.89 -30.54) (end -8.89 30.54) (layer F.Fab) (width 0.1))
  (fp_line (start -8.89 30.54) (end 8.89 30.54) (layer F.Fab) (width 0.1))
  (fp_line (start 8.89 30.54) (end 8.89 -30.54) (layer F.Fab) (width 0.1))
  (fp_line (start 8.89 -30.54) (end -8.89 -30.54) (layer F.Fab) (width 0.1))
  (fp_line (start -1 -30.54) (end -6.46 -30.54) (layer F.SilkS) (width 0.12))
  (fp_line (start -6.46 -30.54) (end -6.46 30.54) (layer F.SilkS) (width 0.12))
  (fp_line (start -6.46 30.54) (end 6.46 30.54) (layer F.SilkS) (width 0.12))
  (fp_line (start 6.46 30.54) (end 6.46 -30.54) (layer F.SilkS) (width 0.12))
  (fp_line (start 6.46 -30.54) (end 1 -30.54) (layer F.SilkS) (width 0.12))
  (fp_line (start -8.95 -30.6) (end -8.95 30.6) (layer F.SilkS) (width 0.12))
  (fp_line (start -8.95 30.6) (end 8.95 30.6) (layer F.SilkS) (width 0.12))
  (fp_line (start 8.95 30.6) (end 8.95 -30.6) (layer F.SilkS) (width 0.12))
  (fp_line (start 8.95 -30.6) (end -8.95 -30.6) (layer F.SilkS) (width 0.12))
  (fp_line (start -9.15 -30.8) (end -9.15 30.8) (layer F.CrtYd) (width 0.05))
  (fp_line (start -9.15 30.8) (end 9.15 30.8) (layer F.CrtYd) (width 0.05))
  (fp_line (start 9.15 30.8) (end 9.15 -30.8) (layer F.CrtYd) (width 0.05))
  (fp_line (start 9.15 -30.8) (end -9.15 -30.8) (layer F.CrtYd) (width 0.05))
  (pad 1 smd rect (at -7.62 -29.21) (size 1.6 1.6) (layers F.Cu F.Mask F.Paste))
  (pad 25 smd rect (at 7.62 29.21) (size 1.6 1.6) (layers F.Cu F.Mask F.Paste))
  (pad 2 smd rect (at -7.62 -26.67) (size 1.6 1.6) (layers F.Cu F.Mask F.Paste))
  (pad 26 smd rect (at 7.62 26.67) (size 1.6 1.6) (layers F.Cu F.Mask F.Paste))
  (pad 3 smd rect (at -7.62 -24.13) (size 1.6 1.6) (layers F.Cu F.Mask F.Paste))
  (pad 27 smd rect (at 7.62 24.13) (size 1.6 1.6) (layers F.Cu F.Mask F.Paste))
  (pad 4 smd rect (at -7.62 -21.59) (size 1.6 1.6) (layers F.Cu F.Mask F.Paste))
  (pad 28 smd rect (at 7.62 21.59) (size 1.6 1.6) (layers F.Cu F.Mask F.Paste))
  (pad 5 smd rect (at -7.62 -19.05) (size 1.6 1.6) (layers F.Cu F.Mask F.Paste))
  (pad 29 smd rect (at 7.62 19.05) (size 1.6 1.6) (layers F.Cu F.Mask F.Paste))
  (pad 6 smd rect (at -7.62 -16.51) (size 1.6 1.6) (layers F.Cu F.Mask F.Paste))
  (pad 30 smd rect (at 7.62 16.51) (size 1.6 1.6) (layers F.Cu F.Mask F.Paste))
  (pad 7 smd rect (at -7.62 -13.97) (size 1.6 1.6) (layers F.Cu F.Mask F.Paste))
  (pad 31 smd rect (at 7.62 13.97) (size 1.6 1.6) (layers F.Cu F.Mask F.Paste))
  (pad 8 smd rect (at -7.62 -11.43) (size 1.6 1.6) (layers F.Cu F.Mask F.Paste))
  (pad 32 smd rect (at 7.62 11.43) (size 1.6 1.6) (layers F.Cu F.Mask F.Paste))
  (pad 9 smd rect (at -7.62 -8.89) (size 1.6 1.6) (layers F.Cu F.Mask F.Paste))
  (pad 33 smd rect (at 7.62 8.89) (size 1.6 1.6) (layers F.Cu F.Mask F.Paste))
  (pad 10 smd rect (at -7.62 -6.35) (size 1.6 1.6) (layers F.Cu F.Mask F.Paste))
  (pad 34 smd rect (at 7.62 6.35) (size 1.6 1.6) (layers F.Cu F.Mask F.Paste))
  (pad 11 smd rect (at -7.62 -3.81) (size 1.6 1.6) (layers F.Cu F.Mask F.Paste))
  (pad 35 smd rect (at 7.62 3.81) (size 1.6 1.6) (layers F.Cu F.Mask F.Paste))
  (pad 12 smd rect (at -7.62 -1.27) (size 1.6 1.6) (layers F.Cu F.Mask F.Paste))
  (pad 36 smd rect (at 7.62 1.27) (size 1.6 1.6) (layers F.Cu F.Mask F.Paste))
  (pad 13 smd rect (at -7.62 1.27) (size 1.6 1.6) (layers F.Cu F.Mask F.Paste))
  (pad 37 smd rect (at 7.62 -1.27) (size 1.6 1.6) (layers F.Cu F.Mask F.Paste))
  (pad 14 smd rect (at -7.62 3.81) (size 1.6 1.6) (layers F.Cu F.Mask F.Paste))
  (pad 38 smd rect (at 7.62 -3.81) (size 1.6 1.6) (layers F.Cu F.Mask F.Paste))
  (pad 15 smd rect (at -7.62 6.35) (size 1.6 1.6) (layers F.Cu F.Mask F.Paste))
  (pad 39 smd rect (at 7.62 -6.35) (size 1.6 1.6) (layers F.Cu F.Mask F.Paste))
  (pad 16 smd rect (at -7.62 8.89) (size 1.6 1.6) (layers F.Cu F.Mask F.Paste))
  (pad 40 smd rect (at 7.62 -8.89) (size 1.6 1.6) (layers F.Cu F.Mask F.Paste))
  (pad 17 smd rect (at -7.62 11.43) (size 1.6 1.6) (layers F.Cu F.Mask F.Paste))
  (pad 41 smd rect (at 7.62 -11.43) (size 1.6 1.6) (layers F.Cu F.Mask F.Paste))
  (pad 18 smd rect (at -7.62 13.97) (size 1.6 1.6) (layers F.Cu F.Mask F.Paste))
  (pad 42 smd rect (at 7.62 -13.97) (size 1.6 1.6) (layers F.Cu F.Mask F.Paste))
  (pad 19 smd rect (at -7.62 16.51) (size 1.6 1.6) (layers F.Cu F.Mask F.Paste))
  (pad 43 smd rect (at 7.62 -16.51) (size 1.6 1.6) (layers F.Cu F.Mask F.Paste))
  (pad 20 smd rect (at -7.62 19.05) (size 1.6 1.6) (layers F.Cu F.Mask F.Paste))
  (pad 44 smd rect (at 7.62 -19.05) (size 1.6 1.6) (layers F.Cu F.Mask F.Paste))
  (pad 21 smd rect (at -7.62 21.59) (size 1.6 1.6) (layers F.Cu F.Mask F.Paste))
  (pad 45 smd rect (at 7.62 -21.59) (size 1.6 1.6) (layers F.Cu F.Mask F.Paste))
  (pad 22 smd rect (at -7.62 24.13) (size 1.6 1.6) (layers F.Cu F.Mask F.Paste))
  (pad 46 smd rect (at 7.62 -24.13) (size 1.6 1.6) (layers F.Cu F.Mask F.Paste))
  (pad 23 smd rect (at -7.62 26.67) (size 1.6 1.6) (layers F.Cu F.Mask F.Paste))
  (pad 47 smd rect (at 7.62 -26.67) (size 1.6 1.6) (layers F.Cu F.Mask F.Paste))
  (pad 24 smd rect (at -7.62 29.21) (size 1.6 1.6) (layers F.Cu F.Mask F.Paste))
  (pad 48 smd rect (at 7.62 -29.21) (size 1.6 1.6) (layers F.Cu F.Mask F.Paste))
  (fp_text user %R (at 0 0) (layer F.Fab)
    (effects (font (size 1 1) (thickness 0.15)))
  )
  (model ${KICAD6_3DMODEL_DIR}/Package_DIP.3dshapes/DIP-48_W15.24mm_SMDSocket.wrl
    (at (xyz 0 0 0))
    (scale (xyz 1 1 1))
    (rotate (xyz 0 0 0))
  )
)