(module DIP-40_W25.4mm_LongPads (layer F.Cu) (tedit 5A02E8C5)
  (descr "40-lead though-hole mounted DIP package, row spacing 25.4 mm (1000 mils), LongPads")
  (tags "THT DIP DIL PDIP 2.54mm 25.4mm 1000mil LongPads")
  (fp_text reference REF** (at 12.7 -2.33) (layer F.SilkS)
    (effects (font (size 1 1) (thickness 0.15)))
  )
  (fp_text value DIP-40_W25.4mm_LongPads (at 12.7 50.59) (layer F.Fab)
    (effects (font (size 1 1) (thickness 0.15)))
  )
  (fp_arc (start 12.7 -1.33) (end 11.7 -1.33) (angle -180.000000) (layer F.SilkS) (width 0.12))
  (fp_line (start 1.255 -1.27) (end 25.145 -1.27) (layer F.Fab) (width 0.1))
  (fp_line (start 25.145 -1.27) (end 25.145 49.53) (layer F.Fab) (width 0.1))
  (fp_line (start 25.145 49.53) (end 0.255 49.53) (layer F.Fab) (width 0.1))
  (fp_line (start 0.255 49.53) (end 0.255 -0.27) (layer F.Fab) (width 0.1))
  (fp_line (start 0.255 -0.27) (end 1.255 -1.27) (layer F.Fab) (width 0.1))
  (fp_line (start 11.7 -1.33) (end 1.56 -1.33) (layer F.SilkS) (width 0.12))
  (fp_line (start 1.56 -1.33) (end 1.56 49.59) (layer F.SilkS) (width 0.12))
  (fp_line (start 1.56 49.59) (end 23.84 49.59) (layer F.SilkS) (width 0.12))
  (fp_line (start 23.84 49.59) (end 23.84 -1.33) (layer F.SilkS) (width 0.12))
  (fp_line (start 23.84 -1.33) (end 13.7 -1.33) (layer F.SilkS) (width 0.12))
  (fp_line (start -1.45 -1.55) (end -1.45 49.8) (layer F.CrtYd) (width 0.05))
  (fp_line (start -1.45 49.8) (end 26.85 49.8) (layer F.CrtYd) (width 0.05))
  (fp_line (start 26.85 49.8) (end 26.85 -1.55) (layer F.CrtYd) (width 0.05))
  (fp_line (start 26.85 -1.55) (end -1.45 -1.55) (layer F.CrtYd) (width 0.05))
  (pad 1 thru_hole rect (at 0 0) (size 2.4 1.6) (drill 0.8) (layers *.Cu *.Mask))
  (pad 21 thru_hole oval (at 25.4 48.26) (size 2.4 1.6) (drill 0.8) (layers *.Cu *.Mask))
  (pad 2 thru_hole oval (at 0 2.54) (size 2.4 1.6) (drill 0.8) (layers *.Cu *.Mask))
  (pad 22 thru_hole oval (at 25.4 45.72) (size 2.4 1.6) (drill 0.8) (layers *.Cu *.Mask))
  (pad 3 thru_hole oval (at 0 5.08) (size 2.4 1.6) (drill 0.8) (layers *.Cu *.Mask))
  (pad 23 thru_hole oval (at 25.4 43.18) (size 2.4 1.6) (drill 0.8) (layers *.Cu *.Mask))
  (pad 4 thru_hole oval (at 0 7.62) (size 2.4 1.6) (drill 0.8) (layers *.Cu *.Mask))
  (pad 24 thru_hole oval (at 25.4 40.64) (size 2.4 1.6) (drill 0.8) (layers *.Cu *.Mask))
  (pad 5 thru_hole oval (at 0 10.16) (size 2.4 1.6) (drill 0.8) (layers *.Cu *.Mask))
  (pad 25 thru_hole oval (at 25.4 38.1) (size 2.4 1.6) (drill 0.8) (layers *.Cu *.Mask))
  (pad 6 thru_hole oval (at 0 12.7) (size 2.4 1.6) (drill 0.8) (layers *.Cu *.Mask))
  (pad 26 thru_hole oval (at 25.4 35.56) (size 2.4 1.6) (drill 0.8) (layers *.Cu *.Mask))
  (pad 7 thru_hole oval (at 0 15.24) (size 2.4 1.6) (drill 0.8) (layers *.Cu *.Mask))
  (pad 27 thru_hole oval (at 25.4 33.02) (size 2.4 1.6) (drill 0.8) (layers *.Cu *.Mask))
  (pad 8 thru_hole oval (at 0 17.78) (size 2.4 1.6) (drill 0.8) (layers *.Cu *.Mask))
  (pad 28 thru_hole oval (at 25.4 30.48) (size 2.4 1.6) (drill 0.8) (layers *.Cu *.Mask))
  (pad 9 thru_hole oval (at 0 20.32) (size 2.4 1.6) (drill 0.8) (layers *.Cu *.Mask))
  (pad 29 thru_hole oval (at 25.4 27.94) (size 2.4 1.6) (drill 0.8) (layers *.Cu *.Mask))
  (pad 10 thru_hole oval (at 0 22.86) (size 2.4 1.6) (drill 0.8) (layers *.Cu *.Mask))
  (pad 30 thru_hole oval (at 25.4 25.4) (size 2.4 1.6) (drill 0.8) (layers *.Cu *.Mask))
  (pad 11 thru_hole oval (at 0 25.4) (size 2.4 1.6) (drill 0.8) (layers *.Cu *.Mask))
  (pad 31 thru_hole oval (at 25.4 22.86) (size 2.4 1.6) (drill 0.8) (layers *.Cu *.Mask))
  (pad 12 thru_hole oval (at 0 27.94) (size 2.4 1.6) (drill 0.8) (layers *.Cu *.Mask))
  (pad 32 thru_hole oval (at 25.4 20.32) (size 2.4 1.6) (drill 0.8) (layers *.Cu *.Mask))
  (pad 13 thru_hole oval (at 0 30.48) (size 2.4 1.6) (drill 0.8) (layers *.Cu *.Mask))
  (pad 33 thru_hole oval (at 25.4 17.78) (size 2.4 1.6) (drill 0.8) (layers *.Cu *.Mask))
  (pad 14 thru_hole oval (at 0 33.02) (size 2.4 1.6) (drill 0.8) (layers *.Cu *.Mask))
  (pad 34 thru_hole oval (at 25.4 15.24) (size 2.4 1.6) (drill 0.8) (layers *.Cu *.Mask))
  (pad 15 thru_hole oval (at 0 35.56) (size 2.4 1.6) (drill 0.8) (layers *.Cu *.Mask))
  (pad 35 thru_hole oval (at 25.4 12.7) (size 2.4 1.6) (drill 0.8) (layers *.Cu *.Mask))
  (pad 16 thru_hole oval (at 0 38.1) (size 2.4 1.6) (drill 0.8) (layers *.Cu *.Mask))
  (pad 36 thru_hole oval (at 25.4 10.16) (size 2.4 1.6) (drill 0.8) (layers *.Cu *.Mask))
  (pad 17 thru_hole oval (at 0 40.64) (size 2.4 1.6) (drill 0.8) (layers *.Cu *.Mask))
  (pad 37 thru_hole oval (at 25.4 7.62) (size 2.4 1.6) (drill 0.8) (layers *.Cu *.Mask))
  (pad 18 thru_hole oval (at 0 43.18) (size 2.4 1.6) (drill 0.8) (layers *.Cu *.Mask))
  (pad 38 thru_hole oval (at 25.4 5.08) (size 2.4 1.6) (drill 0.8) (layers *.Cu *.Mask))
  (pad 19 thru_hole oval (at 0 45.72) (size 2.4 1.6) (drill 0.8) (layers *.Cu *.Mask))
  (pad 39 thru_hole oval (at 25.4 2.54) (size 2.4 1.6) (drill 0.8) (layers *.Cu *.Mask))
  (pad 20 thru_hole oval (at 0 48.26) (size 2.4 1.6) (drill 0.8) (layers *.Cu *.Mask))
  (pad 40 thru_hole oval (at 25.4 0) (size 2.4 1.6) (drill 0.8) (layers *.Cu *.Mask))
  (fp_text user %R (at 12.7 24.13) (layer F.Fab)
    (effects (font (size 1 1) (thickness 0.15)))
  )
  (model ${KICAD6_3DMODEL_DIR}/Package_DIP.3dshapes/DIP-40_W25.4mm.wrl
    (at (xyz 0 0 0))
    (scale (xyz 1 1 1))
    (rotate (xyz 0 0 0))
  )
)