(module SMDIP-10_W11.48mm (layer F.Cu) (tedit 5A02E8C5)
  (descr "10-lead surface-mounted (SMD) DIP package, row spacing 11.48 mm (451 mils)")
  (tags "SMD DIP DIL PDIP SMDIP 2.54mm 11.48mm 451mil")
  (attr smd)
  (fp_text reference REF** (at 0 -7.41) (layer F.SilkS)
    (effects (font (size 1 1) (thickness 0.15)))
  )
  (fp_text value SMDIP-10_W11.48mm (at 0 7.41) (layer F.Fab)
    (effects (font (size 1 1) (thickness 0.15)))
  )
  (fp_arc (start 0 -6.41) (end -1 -6.41) (angle -180.000000) (layer F.SilkS) (width 0.12))
  (fp_line (start -2.175 -6.35) (end 3.175 -6.35) (layer F.Fab) (width 0.1))
  (fp_line (start 3.175 -6.35) (end 3.175 6.35) (layer F.Fab) (width 0.1))
  (fp_line (start 3.175 6.35) (end -3.175 6.35) (layer F.Fab) (width 0.1))
  (fp_line (start -3.175 6.35) (end -3.175 -5.35) (layer F.Fab) (width 0.1))
  (fp_line (start -3.175 -5.35) (end -2.175 -6.35) (layer F.Fab) (width 0.1))
  (fp_line (start -1 -6.41) (end -3.235 -6.41) (layer F.SilkS) (width 0.12))
  (fp_line (start -3.235 -6.41) (end -3.235 6.41) (layer F.SilkS) (width 0.12))
  (fp_line (start -3.235 6.41) (end 3.235 6.41) (layer F.SilkS) (width 0.12))
  (fp_line (start 3.235 6.41) (end 3.235 -6.41) (layer F.SilkS) (width 0.12))
  (fp_line (start 3.235 -6.41) (end 1 -6.41) (layer F.SilkS) (width 0.12))
  (fp_line (start -7 -6.6) (end -7 6.6) (layer F.CrtYd) (width 0.05))
  (fp_line (start -7 6.6) (end 7 6.6) (layer F.CrtYd) (width 0.05))
  (fp_line (start 7 6.6) (end 7 -6.6) (layer F.CrtYd) (width 0.05))
  (fp_line (start 7 -6.6) (end -7 -6.6) (layer F.CrtYd) (width 0.05))
  (pad 1 smd rect (at -5.74 -5.08) (size 2 1.78) (layers F.Cu F.Mask F.Paste))
  (pad 6 smd rect (at 5.74 5.08) (size 2 1.78) (layers F.Cu F.Mask F.Paste))
  (pad 2 smd rect (at -5.74 -2.54) (size 2 1.78) (layers F.Cu F.Mask F.Paste))
  (pad 7 smd rect (at 5.74 2.54) (size 2 1.78) (layers F.Cu F.Mask F.Paste))
  (pad 3 smd rect (at -5.74 0) (size 2 1.78) (layers F.Cu F.Mask F.Paste))
  (pad 8 smd rect (at 5.74 0) (size 2 1.78) (layers F.Cu F.Mask F.Paste))
  (pad 4 smd rect (at -5.74 2.54) (size 2 1.78) (layers F.Cu F.Mask F.Paste))
  (pad 9 smd rect (at 5.74 -2.54) (size 2 1.78) (layers F.Cu F.Mask F.Paste))
  (pad 5 smd rect (at -5.74 5.08) (size 2 1.78) (layers F.Cu F.Mask F.Paste))
  (pad 10 smd rect (at 5.74 -5.08) (size 2 1.78) (layers F.Cu F.Mask F.Paste))
  (fp_text user %R (at 0 0) (layer F.Fab)
    (effects (font (size 1 1) (thickness 0.15)))
  )
  (model ${KICAD6_3DMODEL_DIR}/Package_DIP.3dshapes/SMDIP-10_W11.48mm.wrl
    (at (xyz 0 0 0))
    (scale (xyz 1 1 1))
    (rotate (xyz 0 0 0))
  )
)