(module SMDIP-12_W9.53mm (layer F.Cu) (tedit 5A02E8C5)
  (descr "12-lead surface-mounted (SMD) DIP package, row spacing 9.53 mm (375 mils)")
  (tags "SMD DIP DIL PDIP SMDIP 2.54mm 9.53mm 375mil")
  (attr smd)
  (fp_text reference REF** (at 0 -8.68) (layer F.SilkS)
    (effects (font (size 1 1) (thickness 0.15)))
  )
  (fp_text value SMDIP-12_W9.53mm (at 0 8.68) (layer F.Fab)
    (effects (font (size 1 1) (thickness 0.15)))
  )
  (fp_arc (start 0 -7.68) (end -1 -7.68) (angle -180.000000) (layer F.SilkS) (width 0.12))
  (fp_line (start -2.175 -7.62) (end 3.175 -7.62) (layer F.Fab) (width 0.1))
  (fp_line (start 3.175 -7.62) (end 3.175 7.62) (layer F.Fab) (width 0.1))
  (fp_line (start 3.175 7.62) (end -3.175 7.62) (layer F.Fab) (width 0.1))
  (fp_line (start -3.175 7.62) (end -3.175 -6.62) (layer F.Fab) (width 0.1))
  (fp_line (start -3.175 -6.62) (end -2.175 -7.62) (layer F.Fab) (width 0.1))
  (fp_line (start -1 -7.68) (end -3.235 -7.68) (layer F.SilkS) (width 0.12))
  (fp_line (start -3.235 -7.68) (end -3.235 7.68) (layer F.SilkS) (width 0.12))
  (fp_line (start -3.235 7.68) (end 3.235 7.68) (layer F.SilkS) (width 0.12))
  (fp_line (start 3.235 7.68) (end 3.235 -7.68) (layer F.SilkS) (width 0.12))
  (fp_line (start 3.235 -7.68) (end 1 -7.68) (layer F.SilkS) (width 0.12))
  (fp_line (start -6.05 -7.9) (end -6.05 7.9) (layer F.CrtYd) (width 0.05))
  (fp_line (start -6.05 7.9) (end 6.05 7.9) (layer F.CrtYd) (width 0.05))
  (fp_line (start 6.05 7.9) (end 6.05 -7.9) (layer F.CrtYd) (width 0.05))
  (fp_line (start 6.05 -7.9) (end -6.05 -7.9) (layer F.CrtYd) (width 0.05))
  (pad 1 smd rect (at -4.765 -6.35) (size 2 1.78) (layers F.Cu F.Mask F.Paste))
  (pad 7 smd rect (at 4.765 6.35) (size 2 1.78) (layers F.Cu F.Mask F.Paste))
  (pad 2 smd rect (at -4.765 -3.81) (size 2 1.78) (layers F.Cu F.Mask F.Paste))
  (pad 8 smd rect (at 4.765 3.81) (size 2 1.78) (layers F.Cu F.Mask F.Paste))
  (pad 3 smd rect (at -4.765 -1.27) (size 2 1.78) (layers F.Cu F.Mask F.Paste))
  (pad 9 smd rect (at 4.765 1.27) (size 2 1.78) (layers F.Cu F.Mask F.Paste))
  (pad 4 smd rect (at -4.765 1.27) (size 2 1.78) (layers F.Cu F.Mask F.Paste))
  (pad 10 smd rect (at 4.765 -1.27) (size 2 1.78) (layers F.Cu F.Mask F.Paste))
  (pad 5 smd rect (at -4.765 3.81) (size 2 1.78) (layers F.Cu F.Mask F.Paste))
  (pad 11 smd rect (at 4.765 -3.81) (size 2 1.78) (layers F.Cu F.Mask F.Paste))
  (pad 6 smd rect (at -4.765 6.35) (size 2 1.78) (layers F.Cu F.Mask F.Paste))
  (pad 12 smd rect (at 4.765 -6.35) (size 2 1.78) (layers F.Cu F.Mask F.Paste))
  (fp_text user %R (at 0 0) (layer F.Fab)
    (effects (font (size 1 1) (thickness 0.15)))
  )
  (model ${KICAD6_3DMODEL_DIR}/Package_DIP.3dshapes/SMDIP-12_W9.53mm.wrl
    (at (xyz 0 0 0))
    (scale (xyz 1 1 1))
    (rotate (xyz 0 0 0))
  )
)