(module SMDIP-4_W9.53mm_Clearance8mm (layer F.Cu) (tedit 5A02E8C5)
  (descr "4-lead surface-mounted (SMD) DIP package, row spacing 9.53 mm (375 mils), Clearance8mm")
  (tags "SMD DIP DIL PDIP SMDIP 2.54mm 9.53mm 375mil Clearance8mm")
  (attr smd)
  (fp_text reference REF** (at 0 -3.6) (layer F.SilkS)
    (effects (font (size 1 1) (thickness 0.15)))
  )
  (fp_text value SMDIP-4_W9.53mm_Clearance8mm (at 0 3.6) (layer F.Fab)
    (effects (font (size 1 1) (thickness 0.15)))
  )
  (fp_arc (start 0 -2.6) (end -1 -2.6) (angle -180.000000) (layer F.SilkS) (width 0.12))
  (fp_line (start -2.175 -2.54) (end 3.175 -2.54) (layer F.Fab) (width 0.1))
  (fp_line (start 3.175 -2.54) (end 3.175 2.54) (layer F.Fab) (width 0.1))
  (fp_line (start 3.175 2.54) (end -3.175 2.54) (layer F.Fab) (width 0.1))
  (fp_line (start -3.175 2.54) (end -3.175 -1.54) (layer F.Fab) (width 0.1))
  (fp_line (start -3.175 -1.54) (end -2.175 -2.54) (layer F.Fab) (width 0.1))
  (fp_line (start -1 -2.6) (end -3.235 -2.6) (layer F.SilkS) (width 0.12))
  (fp_line (start -3.235 -2.6) (end -3.235 2.6) (layer F.SilkS) (width 0.12))
  (fp_line (start -3.235 2.6) (end 3.235 2.6) (layer F.SilkS) (width 0.12))
  (fp_line (start 3.235 2.6) (end 3.235 -2.6) (layer F.SilkS) (width 0.12))
  (fp_line (start 3.235 -2.6) (end 1 -2.6) (layer F.SilkS) (width 0.12))
  (fp_line (start -5.8 -2.8) (end -5.8 2.8) (layer F.CrtYd) (width 0.05))
  (fp_line (start -5.8 2.8) (end 5.8 2.8) (layer F.CrtYd) (width 0.05))
  (fp_line (start 5.8 2.8) (end 5.8 -2.8) (layer F.CrtYd) (width 0.05))
  (fp_line (start 5.8 -2.8) (end -5.8 -2.8) (layer F.CrtYd) (width 0.05))
  (pad 1 smd rect (at -4.765 -1.27) (size 1.5 1.78) (layers F.Cu F.Mask F.Paste))
  (pad 3 smd rect (at 4.765 1.27) (size 1.5 1.78) (layers F.Cu F.Mask F.Paste))
  (pad 2 smd rect (at -4.765 1.27) (size 1.5 1.78) (layers F.Cu F.Mask F.Paste))
  (pad 4 smd rect (at 4.765 -1.27) (size 1.5 1.78) (layers F.Cu F.Mask F.Paste))
  (fp_text user %R (at 0 0) (layer F.Fab)
    (effects (font (size 1 1) (thickness 0.15)))
  )
  (model ${KICAD6_3DMODEL_DIR}/Package_DIP.3dshapes/SMDIP-4_W9.53mm.wrl
    (at (xyz 0 0 0))
    (scale (xyz 1 1 1))
    (rotate (xyz 0 0 0))
  )
)