(module Altech_AK300_1x03_P5.00mm_45-Degree (layer F.Cu) (tedit 5C27907F)
  (descr "Altech AK300 serie terminal block (Script generated with StandardBox.py) (http://www.altechcorp.com/PDFS/PCBMETRC.PDF)")
  (tags "Altech AK300 serie connector")
  (fp_text reference REF** (at 0 -7.2) (layer F.SilkS)
    (effects (font (size 1 1) (thickness 0.15)))
  )
  (fp_text value Altech_AK300_1x03_P5.00mm_45-Degree (at 5 7.5) (layer F.Fab)
    (effects (font (size 1 1) (thickness 0.15)))
  )
  (fp_line (start -2 -6) (end 12.5 -6) (layer F.Fab) (width 0.1))
  (fp_line (start 12.5 -6) (end 12.5 6.5) (layer F.Fab) (width 0.1))
  (fp_line (start 12.5 6.5) (end -2.5 6.5) (layer F.Fab) (width 0.1))
  (fp_line (start -2.5 6.5) (end -2.5 -5.5) (layer F.Fab) (width 0.1))
  (fp_line (start -2.5 -5.5) (end -2 -6) (layer F.Fab) (width 0.1))
  (fp_line (start -3 -3.5) (end -3 -6.5) (layer F.SilkS) (width 0.12))
  (fp_line (start -3 -6.5) (end 0 -6.5) (layer F.SilkS) (width 0.12))
  (fp_line (start -2.62 -6.12) (end 12.62 -6.12) (layer F.SilkS) (width 0.12))
  (fp_line (start 12.62 -6.12) (end 12.62 6.62) (layer F.SilkS) (width 0.12))
  (fp_line (start -2.62 6.62) (end 12.62 6.62) (layer F.SilkS) (width 0.12))
  (fp_line (start -2.62 -6.12) (end -2.62 6.62) (layer F.SilkS) (width 0.12))
  (fp_line (start -2.62 -6.12) (end 12.62 -6.12) (layer F.SilkS) (width 0.12))
  (fp_line (start 12.62 -6.12) (end 12.62 6.62) (layer F.SilkS) (width 0.12))
  (fp_line (start -2.62 6.62) (end 12.62 6.62) (layer F.SilkS) (width 0.12))
  (fp_line (start -2.62 -6.12) (end -2.62 6.62) (layer F.SilkS) (width 0.12))
  (fp_line (start -2.75 -6.25) (end 12.75 -6.25) (layer F.CrtYd) (width 0.05))
  (fp_line (start 12.75 -6.25) (end 12.75 6.75) (layer F.CrtYd) (width 0.05))
  (fp_line (start -2.75 6.75) (end 12.75 6.75) (layer F.CrtYd) (width 0.05))
  (fp_line (start -2.75 -6.25) (end -2.75 6.75) (layer F.CrtYd) (width 0.05))
  (pad 1 thru_hole rect (at 0 0) (size 3 3) (drill 1.5) (layers *.Cu *.Mask))
  (pad 2 thru_hole circle (at 5 0) (size 3 3) (drill 1.5) (layers *.Cu *.Mask))
  (pad 3 thru_hole circle (at 10 0) (size 3 3) (drill 1.5) (layers *.Cu *.Mask))
  (fp_text user %R (at 5 0.25) (layer F.Fab)
    (effects (font (size 1 1) (thickness 0.15)))
  )
  (model ${KICAD6_3DMODEL_DIR}/TerminalBlock_Altech.3dshapes/Altech_AK300_1x03_P5.00mm_45-Degree.wrl
    (at (xyz 0 0 0))
    (scale (xyz 1 1 1))
    (rotate (xyz 0 0 0))
  )
)