(module Altech_AK300_1x19_P5.00mm_45-Degree (layer F.Cu) (tedit 5C27907F)
  (descr "Altech AK300 serie terminal block (Script generated with StandardBox.py) (http://www.altechcorp.com/PDFS/PCBMETRC.PDF)")
  (tags "Altech AK300 serie connector")
  (fp_text reference REF** (at 0 -7.2) (layer F.SilkS)
    (effects (font (size 1 1) (thickness 0.15)))
  )
  (fp_text value Altech_AK300_1x19_P5.00mm_45-Degree (at 45 7.5) (layer F.Fab)
    (effects (font (size 1 1) (thickness 0.15)))
  )
  (fp_line (start -2 -6) (end 92.5 -6) (layer F.Fab) (width 0.1))
  (fp_line (start 92.5 -6) (end 92.5 6.5) (layer F.Fab) (width 0.1))
  (fp_line (start 92.5 6.5) (end -2.5 6.5) (layer F.Fab) (width 0.1))
  (fp_line (start -2.5 6.5) (end -2.5 -5.5) (layer F.Fab) (width 0.1))
  (fp_line (start -2.5 -5.5) (end -2 -6) (layer F.Fab) (width 0.1))
  (fp_line (start -3 -3.5) (end -3 -6.5) (layer F.SilkS) (width 0.12))
  (fp_line (start -3 -6.5) (end 0 -6.5) (layer F.SilkS) (width 0.12))
  (fp_line (start -2.62 -6.12) (end 92.62 -6.12) (layer F.SilkS) (width 0.12))
  (fp_line (start 92.62 -6.12) (end 92.62 6.62) (layer F.SilkS) (width 0.12))
  (fp_line (start -2.62 6.62) (end 92.62 6.62) (layer F.SilkS) (width 0.12))
  (fp_line (start -2.62 -6.12) (end -2.62 6.62) (layer F.SilkS) (width 0.12))
  (fp_line (start -2.62 -6.12) (end 92.62 -6.12) (layer F.SilkS) (width 0.12))
  (fp_line (start 92.62 -6.12) (end 92.62 6.62) (layer F.SilkS) (width 0.12))
  (fp_line (start -2.62 6.62) (end 92.62 6.62) (layer F.SilkS) (width 0.12))
  (fp_line (start -2.62 -6.12) (end -2.62 6.62) (layer F.SilkS) (width 0.12))
  (fp_line (start -2.75 -6.25) (end 92.75 -6.25) (layer F.CrtYd) (width 0.05))
  (fp_line (start 92.75 -6.25) (end 92.75 6.75) (layer F.CrtYd) (width 0.05))
  (fp_line (start -2.75 6.75) (end 92.75 6.75) (layer F.CrtYd) (width 0.05))
  (fp_line (start -2.75 -6.25) (end -2.75 6.75) (layer F.CrtYd) (width 0.05))
  (pad 1 thru_hole rect (at 0 0) (size 3 3) (drill 1.5) (layers *.Cu *.Mask))
  (pad 2 thru_hole circle (at 5 0) (size 3 3) (drill 1.5) (layers *.Cu *.Mask))
  (pad 3 thru_hole circle (at 10 0) (size 3 3) (drill 1.5) (layers *.Cu *.Mask))
  (pad 4 thru_hole circle (at 15 0) (size 3 3) (drill 1.5) (layers *.Cu *.Mask))
  (pad 5 thru_hole circle (at 20 0) (size 3 3) (drill 1.5) (layers *.Cu *.Mask))
  (pad 6 thru_hole circle (at 25 0) (size 3 3) (drill 1.5) (layers *.Cu *.Mask))
  (pad 7 thru_hole circle (at 30 0) (size 3 3) (drill 1.5) (layers *.Cu *.Mask))
  (pad 8 thru_hole circle (at 35 0) (size 3 3) (drill 1.5) (layers *.Cu *.Mask))
  (pad 9 thru_hole circle (at 40 0) (size 3 3) (drill 1.5) (layers *.Cu *.Mask))
  (pad 10 thru_hole circle (at 45 0) (size 3 3) (drill 1.5) (layers *.Cu *.Mask))
  (pad 11 thru_hole circle (at 50 0) (size 3 3) (drill 1.5) (layers *.Cu *.Mask))
  (pad 12 thru_hole circle (at 55 0) (size 3 3) (drill 1.5) (layers *.Cu *.Mask))
  (pad 13 thru_hole circle (at 60 0) (size 3 3) (drill 1.5) (layers *.Cu *.Mask))
  (pad 14 thru_hole circle (at 65 0) (size 3 3) (drill 1.5) (layers *.Cu *.Mask))
  (pad 15 thru_hole circle (at 70 0) (size 3 3) (drill 1.5) (layers *.Cu *.Mask))
  (pad 16 thru_hole circle (at 75 0) (size 3 3) (drill 1.5) (layers *.Cu *.Mask))
  (pad 17 thru_hole circle (at 80 0) (size 3 3) (drill 1.5) (layers *.Cu *.Mask))
  (pad 18 thru_hole circle (at 85 0) (size 3 3) (drill 1.5) (layers *.Cu *.Mask))
  (pad 19 thru_hole circle (at 90 0) (size 3 3) (drill 1.5) (layers *.Cu *.Mask))
  (fp_text user %R (at 45 0.25) (layer F.Fab)
    (effects (font (size 1 1) (thickness 0.15)))
  )
  (model ${KICAD6_3DMODEL_DIR}/TerminalBlock_Altech.3dshapes/Altech_AK300_1x19_P5.00mm_45-Degree.wrl
    (at (xyz 0 0 0))
    (scale (xyz 1 1 1))
    (rotate (xyz 0 0 0))
  )
)