(module DIN41612_C2_2x16_Male_Horizontal_THT (layer F.Cu) (tedit 5EAFCB7F)
  (descr "DIN41612 connector, type C/2, Horizontal, 3 rows 16 pins wide, https://www.erni-x-press.com/de/downloads/kataloge/englische_kataloge/erni-din41612-iec60603-2-e.pdf")
  (tags "DIN 41612 IEC 60603 C/2")
  (fp_text reference REF** (at -5.08 1) (layer F.SilkS)
    (effects (font (size 1 1) (thickness 0.15)))
  )
  (fp_text value DIN41612_C2_2x16_Male_Horizontal_THT (at 19.05 7.62) (layer F.Fab)
    (effects (font (size 1 1) (thickness 0.15)))
  )
  (fp_line (start -4.45 -12.74) (end -4.45 -6.74) (layer F.Fab) (width 0.1))
  (fp_line (start -4.45 -6.74) (end -7.9 -6.74) (layer F.Fab) (width 0.1))
  (fp_line (start -7.9 -6.74) (end -7.9 0) (layer F.Fab) (width 0.1))
  (fp_line (start -7.9 0) (end -2.9 0) (layer F.Fab) (width 0.1))
  (fp_line (start -2.9 0) (end -2.9 -1) (layer F.Fab) (width 0.1))
  (fp_line (start -2.9 -1) (end 41 -1) (layer F.Fab) (width 0.1))
  (fp_line (start 41 -1) (end 41 0) (layer F.Fab) (width 0.1))
  (fp_line (start 41 0) (end 46 0) (layer F.Fab) (width 0.1))
  (fp_line (start 46 0) (end 46 -6.74) (layer F.Fab) (width 0.1))
  (fp_line (start 46 -6.74) (end 42.55 -6.74) (layer F.Fab) (width 0.1))
  (fp_line (start 42.55 -6.74) (end 42.55 -12.74) (layer F.Fab) (width 0.1))
  (fp_line (start 42.55 -12.74) (end -4.45 -12.74) (layer F.Fab) (width 0.1))
  (fp_line (start -8.16 -5.3) (end -8.16 0.26) (layer F.SilkS) (width 0.12))
  (fp_line (start -8.16 0.26) (end -2.64 0.26) (layer F.SilkS) (width 0.12))
  (fp_line (start -2.64 0.26) (end -2.64 -0.74) (layer F.SilkS) (width 0.12))
  (fp_line (start 46.26 -5.3) (end 46.26 0.26) (layer F.SilkS) (width 0.12))
  (fp_line (start 46.26 0.26) (end 40.74 0.26) (layer F.SilkS) (width 0.12))
  (fp_line (start 40.74 0.26) (end 40.74 -0.74) (layer F.SilkS) (width 0.12))
  (fp_line (start -2.64 -0.74) (end -1.095 -0.74) (layer F.SilkS) (width 0.12))
  (fp_line (start 1.095 -0.74) (end 1.671 -0.74) (layer F.SilkS) (width 0.12))
  (fp_line (start 3.41 -0.74) (end 4.211 -0.74) (layer F.SilkS) (width 0.12))
  (fp_line (start 5.95 -0.74) (end 6.751 -0.74) (layer F.SilkS) (width 0.12))
  (fp_line (start 8.49 -0.74) (end 9.291 -0.74) (layer F.SilkS) (width 0.12))
  (fp_line (start 11.03 -0.74) (end 11.831 -0.74) (layer F.SilkS) (width 0.12))
  (fp_line (start 13.57 -0.74) (end 14.371 -0.74) (layer F.SilkS) (width 0.12))
  (fp_line (start 16.11 -0.74) (end 16.911 -0.74) (layer F.SilkS) (width 0.12))
  (fp_line (start 18.65 -0.74) (end 19.451 -0.74) (layer F.SilkS) (width 0.12))
  (fp_line (start 21.19 -0.74) (end 21.991 -0.74) (layer F.SilkS) (width 0.12))
  (fp_line (start 23.73 -0.74) (end 24.531 -0.74) (layer F.SilkS) (width 0.12))
  (fp_line (start 26.27 -0.74) (end 27.071 -0.74) (layer F.SilkS) (width 0.12))
  (fp_line (start 28.81 -0.74) (end 29.611 -0.74) (layer F.SilkS) (width 0.12))
  (fp_line (start 31.35 -0.74) (end 32.151 -0.74) (layer F.SilkS) (width 0.12))
  (fp_line (start 33.89 -0.74) (end 34.691 -0.74) (layer F.SilkS) (width 0.12))
  (fp_line (start 36.43 -0.74) (end 37.231 -0.74) (layer F.SilkS) (width 0.12))
  (fp_line (start 38.97 -0.74) (end 40.74 -0.74) (layer F.SilkS) (width 0.12))
  (fp_line (start -1.095 0) (end -1.695 -0.3) (layer F.SilkS) (width 0.12))
  (fp_line (start -1.695 -0.3) (end -1.695 0.3) (layer F.SilkS) (width 0.12))
  (fp_line (start -1.695 0.3) (end -1.095 0) (layer F.SilkS) (width 0.12))
  (fp_line (start 0 -1.2) (end -0.5 -1.9) (layer F.Fab) (width 0.1))
  (fp_line (start -0.5 -1.9) (end 0.5 -1.9) (layer F.Fab) (width 0.1))
  (fp_line (start 0.5 -1.9) (end 0 -1.2) (layer F.Fab) (width 0.1))
  (fp_line (start -8.39 -13.23) (end -8.39 0.5) (layer F.CrtYd) (width 0.05))
  (fp_line (start -8.39 0.5) (end -1.27 0.5) (layer F.CrtYd) (width 0.05))
  (fp_line (start -1.27 0.5) (end -1.27 6.36) (layer F.CrtYd) (width 0.05))
  (fp_line (start -1.27 6.36) (end 39.38 6.36) (layer F.CrtYd) (width 0.05))
  (fp_line (start 39.38 6.36) (end 39.38 0.5) (layer F.CrtYd) (width 0.05))
  (fp_line (start 39.38 0.5) (end 46.5 0.5) (layer F.CrtYd) (width 0.05))
  (fp_line (start 46.5 0.5) (end 46.5 -13.23) (layer F.CrtYd) (width 0.05))
  (fp_line (start 46.5 -13.23) (end -8.39 -13.23) (layer F.CrtYd) (width 0.05))
  (fp_line (start -7.9 -5.3) (end 46 -5.3) (layer Dwgs.User) (width 0.08))
  (fp_line (start 18.85 -5.9) (end 19.05 -5.4) (layer Cmts.User) (width 0.1))
  (fp_line (start 19.05 -5.4) (end 19.25 -5.9) (layer Cmts.User) (width 0.1))
  (fp_line (start 19.05 -5.4) (end 19.05 -6.7) (layer Cmts.User) (width 0.1))
  (pad "" np_thru_hole circle (at -5.08 -2.54) (size 2.85 2.85) (drill 2.85) (layers *.Cu *.Mask))
  (pad "" np_thru_hole circle (at 43.18 -2.54) (size 2.85 2.85) (drill 2.85) (layers *.Cu *.Mask))
  (pad a1 thru_hole roundrect (at 0 0) (size 1.55 1.55) (drill 1) (layers *.Cu *.Mask) (roundrect_rratio 0.16129))
  (pad a2 thru_hole circle (at 2.54 0) (size 1.55 1.55) (drill 1) (layers *.Cu *.Mask))
  (pad a3 thru_hole circle (at 5.08 0) (size 1.55 1.55) (drill 1) (layers *.Cu *.Mask))
  (pad a4 thru_hole circle (at 7.62 0) (size 1.55 1.55) (drill 1) (layers *.Cu *.Mask))
  (pad a5 thru_hole circle (at 10.16 0) (size 1.55 1.55) (drill 1) (layers *.Cu *.Mask))
  (pad a6 thru_hole circle (at 12.7 0) (size 1.55 1.55) (drill 1) (layers *.Cu *.Mask))
  (pad a7 thru_hole circle (at 15.24 0) (size 1.55 1.55) (drill 1) (layers *.Cu *.Mask))
  (pad a8 thru_hole circle (at 17.78 0) (size 1.55 1.55) (drill 1) (layers *.Cu *.Mask))
  (pad a9 thru_hole circle (at 20.32 0) (size 1.55 1.55) (drill 1) (layers *.Cu *.Mask))
  (pad a10 thru_hole circle (at 22.86 0) (size 1.55 1.55) (drill 1) (layers *.Cu *.Mask))
  (pad a11 thru_hole circle (at 25.4 0) (size 1.55 1.55) (drill 1) (layers *.Cu *.Mask))
  (pad a12 thru_hole circle (at 27.94 0) (size 1.55 1.55) (drill 1) (layers *.Cu *.Mask))
  (pad a13 thru_hole circle (at 30.48 0) (size 1.55 1.55) (drill 1) (layers *.Cu *.Mask))
  (pad a14 thru_hole circle (at 33.02 0) (size 1.55 1.55) (drill 1) (layers *.Cu *.Mask))
  (pad a15 thru_hole circle (at 35.56 0) (size 1.55 1.55) (drill 1) (layers *.Cu *.Mask))
  (pad a16 thru_hole circle (at 38.1 0) (size 1.55 1.55) (drill 1) (layers *.Cu *.Mask))
  (pad c1 thru_hole circle (at 0 5.08) (size 1.55 1.55) (drill 1) (layers *.Cu *.Mask))
  (pad c2 thru_hole circle (at 2.54 5.08) (size 1.55 1.55) (drill 1) (layers *.Cu *.Mask))
  (pad c3 thru_hole circle (at 5.08 5.08) (size 1.55 1.55) (drill 1) (layers *.Cu *.Mask))
  (pad c4 thru_hole circle (at 7.62 5.08) (size 1.55 1.55) (drill 1) (layers *.Cu *.Mask))
  (pad c5 thru_hole circle (at 10.16 5.08) (size 1.55 1.55) (drill 1) (layers *.Cu *.Mask))
  (pad c6 thru_hole circle (at 12.7 5.08) (size 1.55 1.55) (drill 1) (layers *.Cu *.Mask))
  (pad c7 thru_hole circle (at 15.24 5.08) (size 1.55 1.55) (drill 1) (layers *.Cu *.Mask))
  (pad c8 thru_hole circle (at 17.78 5.08) (size 1.55 1.55) (drill 1) (layers *.Cu *.Mask))
  (pad c9 thru_hole circle (at 20.32 5.08) (size 1.55 1.55) (drill 1) (layers *.Cu *.Mask))
  (pad c10 thru_hole circle (at 22.86 5.08) (size 1.55 1.55) (drill 1) (layers *.Cu *.Mask))
  (pad c11 thru_hole circle (at 25.4 5.08) (size 1.55 1.55) (drill 1) (layers *.Cu *.Mask))
  (pad c12 thru_hole circle (at 27.94 5.08) (size 1.55 1.55) (drill 1) (layers *.Cu *.Mask))
  (pad c13 thru_hole circle (at 30.48 5.08) (size 1.55 1.55) (drill 1) (layers *.Cu *.Mask))
  (pad c14 thru_hole circle (at 33.02 5.08) (size 1.55 1.55) (drill 1) (layers *.Cu *.Mask))
  (pad c15 thru_hole circle (at 35.56 5.08) (size 1.55 1.55) (drill 1) (layers *.Cu *.Mask))
  (pad c16 thru_hole circle (at 38.1 5.08) (size 1.55 1.55) (drill 1) (layers *.Cu *.Mask))
  (fp_text user %R (at 19.05 -2.54) (layer F.Fab)
    (effects (font (size 1 1) (thickness 0.15)))
  )
  (fp_text user "Board edge" (at 19.05 -7.3) (layer Cmts.User)
    (effects (font (size 0.7 0.7) (thickness 0.1)))
  )
  (model ${KICAD6_3DMODEL_DIR}/Connector_DIN.3dshapes/DIN41612_C2_2x16_Male_Horizontal_THT.wrl
    (at (xyz 0 0 0))
    (scale (xyz 1 1 1))
    (rotate (xyz 0 0 0))
  )
)