(module DIN41612_R_3x32_Male_Vertical_THT (layer F.Cu) (tedit 5EAFCB80)
  (descr "DIN41612 connector, type R, Vertical, 3 rows 32 pins wide, https://www.erni-x-press.com/de/downloads/kataloge/englische_kataloge/erni-din41612-iec60603-2-e.pdf")
  (tags "DIN 41612 IEC 60603 R")
  (fp_text reference REF** (at 2.54 -9.13) (layer F.SilkS)
    (effects (font (size 1 1) (thickness 0.15)))
  )
  (fp_text value DIN41612_R_3x32_Male_Vertical_THT (at 2.54 87.87) (layer F.Fab)
    (effects (font (size 1 1) (thickness 0.15)))
  )
  (fp_line (start -1.81 -3.13) (end 4.39 -3.13) (layer F.Fab) (width 0.1))
  (fp_line (start 4.39 -3.13) (end 4.39 -2.13) (layer F.Fab) (width 0.1))
  (fp_line (start 4.39 -2.13) (end 6.89 -2.13) (layer F.Fab) (width 0.1))
  (fp_line (start 6.89 -2.13) (end 6.89 80.87) (layer F.Fab) (width 0.1))
  (fp_line (start 6.89 80.87) (end 4.39 80.87) (layer F.Fab) (width 0.1))
  (fp_line (start 4.39 80.87) (end 4.39 81.87) (layer F.Fab) (width 0.1))
  (fp_line (start 4.39 81.87) (end -1.81 81.87) (layer F.Fab) (width 0.1))
  (fp_line (start -1.81 81.87) (end -1.81 -3.13) (layer F.Fab) (width 0.1))
  (fp_line (start -3.01 83.37) (end -0.76 83.37) (layer F.Fab) (width 0.1))
  (fp_line (start -0.76 83.37) (end -0.76 81.87) (layer F.Fab) (width 0.1))
  (fp_line (start 4.39 81.87) (end 5.24 81.87) (layer F.Fab) (width 0.1))
  (fp_line (start 5.24 81.87) (end 5.24 83.37) (layer F.Fab) (width 0.1))
  (fp_line (start 5.24 83.37) (end 8.09 83.37) (layer F.Fab) (width 0.1))
  (fp_line (start -3.01 -4.63) (end -0.76 -4.63) (layer F.Fab) (width 0.1))
  (fp_line (start -0.76 -4.63) (end -0.76 -3.13) (layer F.Fab) (width 0.1))
  (fp_line (start 4.39 -3.13) (end 5.24 -3.13) (layer F.Fab) (width 0.1))
  (fp_line (start 5.24 -3.13) (end 5.24 -4.63) (layer F.Fab) (width 0.1))
  (fp_line (start 5.24 -4.63) (end 8.09 -4.63) (layer F.Fab) (width 0.1))
  (fp_line (start -3.01 -8.13) (end 8.09 -8.13) (layer F.Fab) (width 0.1))
  (fp_line (start 8.09 -8.13) (end 8.09 86.87) (layer F.Fab) (width 0.1))
  (fp_line (start 8.09 86.87) (end -3.01 86.87) (layer F.Fab) (width 0.1))
  (fp_line (start -3.01 86.87) (end -3.01 -8.13) (layer F.Fab) (width 0.1))
  (fp_line (start -3.12 -8.24) (end 8.2 -8.24) (layer F.SilkS) (width 0.12))
  (fp_line (start 8.2 -8.24) (end 8.2 86.98) (layer F.SilkS) (width 0.12))
  (fp_line (start 8.2 86.98) (end -3.12 86.98) (layer F.SilkS) (width 0.12))
  (fp_line (start -3.12 86.98) (end -3.12 -8.24) (layer F.SilkS) (width 0.12))
  (fp_line (start -3.5 -8.63) (end 8.59 -8.63) (layer F.CrtYd) (width 0.05))
  (fp_line (start 8.59 -8.63) (end 8.59 87.37) (layer F.CrtYd) (width 0.05))
  (fp_line (start 8.59 87.37) (end -3.5 87.37) (layer F.CrtYd) (width 0.05))
  (fp_line (start -3.5 87.37) (end -3.5 -8.63) (layer F.CrtYd) (width 0.05))
  (fp_line (start -3.31 0) (end -3.99 -0.3) (layer F.SilkS) (width 0.12))
  (fp_line (start -3.99 -0.3) (end -3.99 0.3) (layer F.SilkS) (width 0.12))
  (fp_line (start -3.99 0.3) (end -3.31 0) (layer F.SilkS) (width 0.12))
  (fp_line (start -3.01 -0.5) (end -2.31 0) (layer F.Fab) (width 0.1))
  (fp_line (start -2.31 0) (end -3.01 0.5) (layer F.Fab) (width 0.1))
  (fp_line (start -1.81 -3.131) (end 4.39 -3.131) (layer F.SilkS) (width 0.12))
  (fp_line (start 4.39 -3.131) (end 4.39 -2.131) (layer F.SilkS) (width 0.12))
  (fp_line (start 4.39 -2.131) (end 6.89 -2.131) (layer F.SilkS) (width 0.12))
  (fp_line (start 6.89 -2.131) (end 6.89 80.87) (layer F.SilkS) (width 0.12))
  (fp_line (start 6.89 80.87) (end 4.39 80.87) (layer F.SilkS) (width 0.12))
  (fp_line (start 4.39 80.87) (end 4.39 81.87) (layer F.SilkS) (width 0.12))
  (fp_line (start 4.39 81.87) (end -1.81 81.87) (layer F.SilkS) (width 0.12))
  (fp_line (start -1.81 81.87) (end -1.81 -3.131) (layer F.SilkS) (width 0.12))
  (pad a1 thru_hole roundrect (at 0 0) (size 1.55 1.55) (drill 1) (layers *.Cu *.Mask) (roundrect_rratio 0.16129))
  (pad a2 thru_hole circle (at 0 2.54) (size 1.55 1.55) (drill 1) (layers *.Cu *.Mask))
  (pad a3 thru_hole circle (at 0 5.08) (size 1.55 1.55) (drill 1) (layers *.Cu *.Mask))
  (pad a4 thru_hole circle (at 0 7.62) (size 1.55 1.55) (drill 1) (layers *.Cu *.Mask))
  (pad a5 thru_hole circle (at 0 10.16) (size 1.55 1.55) (drill 1) (layers *.Cu *.Mask))
  (pad a6 thru_hole circle (at 0 12.7) (size 1.55 1.55) (drill 1) (layers *.Cu *.Mask))
  (pad a7 thru_hole circle (at 0 15.24) (size 1.55 1.55) (drill 1) (layers *.Cu *.Mask))
  (pad a8 thru_hole circle (at 0 17.78) (size 1.55 1.55) (drill 1) (layers *.Cu *.Mask))
  (pad a9 thru_hole circle (at 0 20.32) (size 1.55 1.55) (drill 1) (layers *.Cu *.Mask))
  (pad a10 thru_hole circle (at 0 22.86) (size 1.55 1.55) (drill 1) (layers *.Cu *.Mask))
  (pad a11 thru_hole circle (at 0 25.4) (size 1.55 1.55) (drill 1) (layers *.Cu *.Mask))
  (pad a12 thru_hole circle (at 0 27.94) (size 1.55 1.55) (drill 1) (layers *.Cu *.Mask))
  (pad a13 thru_hole circle (at 0 30.48) (size 1.55 1.55) (drill 1) (layers *.Cu *.Mask))
  (pad a14 thru_hole circle (at 0 33.02) (size 1.55 1.55) (drill 1) (layers *.Cu *.Mask))
  (pad a15 thru_hole circle (at 0 35.56) (size 1.55 1.55) (drill 1) (layers *.Cu *.Mask))
  (pad a16 thru_hole circle (at 0 38.1) (size 1.55 1.55) (drill 1) (layers *.Cu *.Mask))
  (pad a17 thru_hole circle (at 0 40.64) (size 1.55 1.55) (drill 1) (layers *.Cu *.Mask))
  (pad a18 thru_hole circle (at 0 43.18) (size 1.55 1.55) (drill 1) (layers *.Cu *.Mask))
  (pad a19 thru_hole circle (at 0 45.72) (size 1.55 1.55) (drill 1) (layers *.Cu *.Mask))
  (pad a20 thru_hole circle (at 0 48.26) (size 1.55 1.55) (drill 1) (layers *.Cu *.Mask))
  (pad a21 thru_hole circle (at 0 50.8) (size 1.55 1.55) (drill 1) (layers *.Cu *.Mask))
  (pad a22 thru_hole circle (at 0 53.34) (size 1.55 1.55) (drill 1) (layers *.Cu *.Mask))
  (pad a23 thru_hole circle (at 0 55.88) (size 1.55 1.55) (drill 1) (layers *.Cu *.Mask))
  (pad a24 thru_hole circle (at 0 58.42) (size 1.55 1.55) (drill 1) (layers *.Cu *.Mask))
  (pad a25 thru_hole circle (at 0 60.96) (size 1.55 1.55) (drill 1) (layers *.Cu *.Mask))
  (pad a26 thru_hole circle (at 0 63.5) (size 1.55 1.55) (drill 1) (layers *.Cu *.Mask))
  (pad a27 thru_hole circle (at 0 66.04) (size 1.55 1.55) (drill 1) (layers *.Cu *.Mask))
  (pad a28 thru_hole circle (at 0 68.58) (size 1.55 1.55) (drill 1) (layers *.Cu *.Mask))
  (pad a29 thru_hole circle (at 0 71.12) (size 1.55 1.55) (drill 1) (layers *.Cu *.Mask))
  (pad a30 thru_hole circle (at 0 73.66) (size 1.55 1.55) (drill 1) (layers *.Cu *.Mask))
  (pad a31 thru_hole circle (at 0 76.2) (size 1.55 1.55) (drill 1) (layers *.Cu *.Mask))
  (pad a32 thru_hole circle (at 0 78.74) (size 1.55 1.55) (drill 1) (layers *.Cu *.Mask))
  (pad b1 thru_hole circle (at 2.54 0) (size 1.55 1.55) (drill 1) (layers *.Cu *.Mask))
  (pad b2 thru_hole circle (at 2.54 2.54) (size 1.55 1.55) (drill 1) (layers *.Cu *.Mask))
  (pad b3 thru_hole circle (at 2.54 5.08) (size 1.55 1.55) (drill 1) (layers *.Cu *.Mask))
  (pad b4 thru_hole circle (at 2.54 7.62) (size 1.55 1.55) (drill 1) (layers *.Cu *.Mask))
  (pad b5 thru_hole circle (at 2.54 10.16) (size 1.55 1.55) (drill 1) (layers *.Cu *.Mask))
  (pad b6 thru_hole circle (at 2.54 12.7) (size 1.55 1.55) (drill 1) (layers *.Cu *.Mask))
  (pad b7 thru_hole circle (at 2.54 15.24) (size 1.55 1.55) (drill 1) (layers *.Cu *.Mask))
  (pad b8 thru_hole circle (at 2.54 17.78) (size 1.55 1.55) (drill 1) (layers *.Cu *.Mask))
  (pad b9 thru_hole circle (at 2.54 20.32) (size 1.55 1.55) (drill 1) (layers *.Cu *.Mask))
  (pad b10 thru_hole circle (at 2.54 22.86) (size 1.55 1.55) (drill 1) (layers *.Cu *.Mask))
  (pad b11 thru_hole circle (at 2.54 25.4) (size 1.55 1.55) (drill 1) (layers *.Cu *.Mask))
  (pad b12 thru_hole circle (at 2.54 27.94) (size 1.55 1.55) (drill 1) (layers *.Cu *.Mask))
  (pad b13 thru_hole circle (at 2.54 30.48) (size 1.55 1.55) (drill 1) (layers *.Cu *.Mask))
  (pad b14 thru_hole circle (at 2.54 33.02) (size 1.55 1.55) (drill 1) (layers *.Cu *.Mask))
  (pad b15 thru_hole circle (at 2.54 35.56) (size 1.55 1.55) (drill 1) (layers *.Cu *.Mask))
  (pad b16 thru_hole circle (at 2.54 38.1) (size 1.55 1.55) (drill 1) (layers *.Cu *.Mask))
  (pad b17 thru_hole circle (at 2.54 40.64) (size 1.55 1.55) (drill 1) (layers *.Cu *.Mask))
  (pad b18 thru_hole circle (at 2.54 43.18) (size 1.55 1.55) (drill 1) (layers *.Cu *.Mask))
  (pad b19 thru_hole circle (at 2.54 45.72) (size 1.55 1.55) (drill 1) (layers *.Cu *.Mask))
  (pad b20 thru_hole circle (at 2.54 48.26) (size 1.55 1.55) (drill 1) (layers *.Cu *.Mask))
  (pad b21 thru_hole circle (at 2.54 50.8) (size 1.55 1.55) (drill 1) (layers *.Cu *.Mask))
  (pad b22 thru_hole circle (at 2.54 53.34) (size 1.55 1.55) (drill 1) (layers *.Cu *.Mask))
  (pad b23 thru_hole circle (at 2.54 55.88) (size 1.55 1.55) (drill 1) (layers *.Cu *.Mask))
  (pad b24 thru_hole circle (at 2.54 58.42) (size 1.55 1.55) (drill 1) (layers *.Cu *.Mask))
  (pad b25 thru_hole circle (at 2.54 60.96) (size 1.55 1.55) (drill 1) (layers *.Cu *.Mask))
  (pad b26 thru_hole circle (at 2.54 63.5) (size 1.55 1.55) (drill 1) (layers *.Cu *.Mask))
  (pad b27 thru_hole circle (at 2.54 66.04) (size 1.55 1.55) (drill 1) (layers *.Cu *.Mask))
  (pad b28 thru_hole circle (at 2.54 68.58) (size 1.55 1.55) (drill 1) (layers *.Cu *.Mask))
  (pad b29 thru_hole circle (at 2.54 71.12) (size 1.55 1.55) (drill 1) (layers *.Cu *.Mask))
  (pad b30 thru_hole circle (at 2.54 73.66) (size 1.55 1.55) (drill 1) (layers *.Cu *.Mask))
  (pad b31 thru_hole circle (at 2.54 76.2) (size 1.55 1.55) (drill 1) (layers *.Cu *.Mask))
  (pad b32 thru_hole circle (at 2.54 78.74) (size 1.55 1.55) (drill 1) (layers *.Cu *.Mask))
  (pad c1 thru_hole circle (at 5.08 0) (size 1.55 1.55) (drill 1) (layers *.Cu *.Mask))
  (pad c2 thru_hole circle (at 5.08 2.54) (size 1.55 1.55) (drill 1) (layers *.Cu *.Mask))
  (pad c3 thru_hole circle (at 5.08 5.08) (size 1.55 1.55) (drill 1) (layers *.Cu *.Mask))
  (pad c4 thru_hole circle (at 5.08 7.62) (size 1.55 1.55) (drill 1) (layers *.Cu *.Mask))
  (pad c5 thru_hole circle (at 5.08 10.16) (size 1.55 1.55) (drill 1) (layers *.Cu *.Mask))
  (pad c6 thru_hole circle (at 5.08 12.7) (size 1.55 1.55) (drill 1) (layers *.Cu *.Mask))
  (pad c7 thru_hole circle (at 5.08 15.24) (size 1.55 1.55) (drill 1) (layers *.Cu *.Mask))
  (pad c8 thru_hole circle (at 5.08 17.78) (size 1.55 1.55) (drill 1) (layers *.Cu *.Mask))
  (pad c9 thru_hole circle (at 5.08 20.32) (size 1.55 1.55) (drill 1) (layers *.Cu *.Mask))
  (pad c10 thru_hole circle (at 5.08 22.86) (size 1.55 1.55) (drill 1) (layers *.Cu *.Mask))
  (pad c11 thru_hole circle (at 5.08 25.4) (size 1.55 1.55) (drill 1) (layers *.Cu *.Mask))
  (pad c12 thru_hole circle (at 5.08 27.94) (size 1.55 1.55) (drill 1) (layers *.Cu *.Mask))
  (pad c13 thru_hole circle (at 5.08 30.48) (size 1.55 1.55) (drill 1) (layers *.Cu *.Mask))
  (pad c14 thru_hole circle (at 5.08 33.02) (size 1.55 1.55) (drill 1) (layers *.Cu *.Mask))
  (pad c15 thru_hole circle (at 5.08 35.56) (size 1.55 1.55) (drill 1) (layers *.Cu *.Mask))
  (pad c16 thru_hole circle (at 5.08 38.1) (size 1.55 1.55) (drill 1) (layers *.Cu *.Mask))
  (pad c17 thru_hole circle (at 5.08 40.64) (size 1.55 1.55) (drill 1) (layers *.Cu *.Mask))
  (pad c18 thru_hole circle (at 5.08 43.18) (size 1.55 1.55) (drill 1) (layers *.Cu *.Mask))
  (pad c19 thru_hole circle (at 5.08 45.72) (size 1.55 1.55) (drill 1) (layers *.Cu *.Mask))
  (pad c20 thru_hole circle (at 5.08 48.26) (size 1.55 1.55) (drill 1) (layers *.Cu *.Mask))
  (pad c21 thru_hole circle (at 5.08 50.8) (size 1.55 1.55) (drill 1) (layers *.Cu *.Mask))
  (pad c22 thru_hole circle (at 5.08 53.34) (size 1.55 1.55) (drill 1) (layers *.Cu *.Mask))
  (pad c23 thru_hole circle (at 5.08 55.88) (size 1.55 1.55) (drill 1) (layers *.Cu *.Mask))
  (pad c24 thru_hole circle (at 5.08 58.42) (size 1.55 1.55) (drill 1) (layers *.Cu *.Mask))
  (pad c25 thru_hole circle (at 5.08 60.96) (size 1.55 1.55) (drill 1) (layers *.Cu *.Mask))
  (pad c26 thru_hole circle (at 5.08 63.5) (size 1.55 1.55) (drill 1) (layers *.Cu *.Mask))
  (pad c27 thru_hole circle (at 5.08 66.04) (size 1.55 1.55) (drill 1) (layers *.Cu *.Mask))
  (pad c28 thru_hole circle (at 5.08 68.58) (size 1.55 1.55) (drill 1) (layers *.Cu *.Mask))
  (pad c29 thru_hole circle (at 5.08 71.12) (size 1.55 1.55) (drill 1) (layers *.Cu *.Mask))
  (pad c30 thru_hole circle (at 5.08 73.66) (size 1.55 1.55) (drill 1) (layers *.Cu *.Mask))
  (pad c31 thru_hole circle (at 5.08 76.2) (size 1.55 1.55) (drill 1) (layers *.Cu *.Mask))
  (pad c32 thru_hole circle (at 5.08 78.74) (size 1.55 1.55) (drill 1) (layers *.Cu *.Mask))
  (pad "" np_thru_hole circle (at 2.24 -5.63) (size 2.85 2.85) (drill 2.85) (layers *.Cu *.Mask))
  (pad "" np_thru_hole circle (at 2.24 84.37) (size 2.85 2.85) (drill 2.85) (layers *.Cu *.Mask))
  (fp_text user %R (at 2.54 39.37) (layer F.Fab)
    (effects (font (size 1 1) (thickness 0.15)))
  )
  (model ${KICAD6_3DMODEL_DIR}/Connector_DIN.3dshapes/DIN41612_R_3x32_Male_Vertical_THT.wrl
    (at (xyz 0 0 0))
    (scale (xyz 1 1 1))
    (rotate (xyz 0 0 0))
  )
)