(module DIN41612_Q_2x32_Male_Vertical_THT (layer F.Cu) (tedit 5EAFCB80)
  (descr "DIN41612 connector, type Q, Vertical, 2 rows 32 pins wide, https://www.erni-x-press.com/de/downloads/kataloge/englische_kataloge/erni-din41612-iec60603-2-e.pdf")
  (tags "DIN 41612 IEC 60603 Q")
  (fp_text reference REF** (at 1.27 -9.13) (layer F.SilkS)
    (effects (font (size 1 1) (thickness 0.15)))
  )
  (fp_text value DIN41612_Q_2x32_Male_Vertical_THT (at 1.27 87.87) (layer F.Fab)
    (effects (font (size 1 1) (thickness 0.15)))
  )
  (fp_line (start -1.83 -3.13) (end 1.87 -3.13) (layer F.Fab) (width 0.1))
  (fp_line (start 1.87 -3.13) (end 1.87 -2.13) (layer F.Fab) (width 0.1))
  (fp_line (start 1.87 -2.13) (end 4.37 -2.13) (layer F.Fab) (width 0.1))
  (fp_line (start 4.37 -2.13) (end 4.37 80.87) (layer F.Fab) (width 0.1))
  (fp_line (start 4.37 80.87) (end 1.87 80.87) (layer F.Fab) (width 0.1))
  (fp_line (start 1.87 80.87) (end 1.87 81.87) (layer F.Fab) (width 0.1))
  (fp_line (start 1.87 81.87) (end -1.83 81.87) (layer F.Fab) (width 0.1))
  (fp_line (start -1.83 81.87) (end -1.83 -3.13) (layer F.Fab) (width 0.1))
  (fp_line (start -3.03 83.37) (end -0.76 83.37) (layer F.Fab) (width 0.1))
  (fp_line (start -0.76 83.37) (end -0.76 81.87) (layer F.Fab) (width 0.1))
  (fp_line (start 1.87 81.87) (end 5.24 81.87) (layer F.Fab) (width 0.1))
  (fp_line (start 5.24 81.87) (end 5.24 83.37) (layer F.Fab) (width 0.1))
  (fp_line (start 5.24 83.37) (end 5.57 83.37) (layer F.Fab) (width 0.1))
  (fp_line (start -3.03 -4.63) (end -0.76 -4.63) (layer F.Fab) (width 0.1))
  (fp_line (start -0.76 -4.63) (end -0.76 -3.13) (layer F.Fab) (width 0.1))
  (fp_line (start 1.87 -3.13) (end 5.24 -3.13) (layer F.Fab) (width 0.1))
  (fp_line (start 5.24 -3.13) (end 5.24 -4.63) (layer F.Fab) (width 0.1))
  (fp_line (start 5.24 -4.63) (end 5.57 -4.63) (layer F.Fab) (width 0.1))
  (fp_line (start -3.03 -8.13) (end 5.57 -8.13) (layer F.Fab) (width 0.1))
  (fp_line (start 5.57 -8.13) (end 5.57 86.87) (layer F.Fab) (width 0.1))
  (fp_line (start 5.57 86.87) (end -3.03 86.87) (layer F.Fab) (width 0.1))
  (fp_line (start -3.03 86.87) (end -3.03 -8.13) (layer F.Fab) (width 0.1))
  (fp_line (start -3.14 -8.24) (end 5.68 -8.24) (layer F.SilkS) (width 0.12))
  (fp_line (start 5.68 -8.24) (end 5.68 86.98) (layer F.SilkS) (width 0.12))
  (fp_line (start 5.68 86.98) (end -3.14 86.98) (layer F.SilkS) (width 0.12))
  (fp_line (start -3.14 86.98) (end -3.14 -8.24) (layer F.SilkS) (width 0.12))
  (fp_line (start -3.53 -8.63) (end 6.07 -8.63) (layer F.CrtYd) (width 0.05))
  (fp_line (start 6.07 -8.63) (end 6.07 87.37) (layer F.CrtYd) (width 0.05))
  (fp_line (start 6.07 87.37) (end -3.53 87.37) (layer F.CrtYd) (width 0.05))
  (fp_line (start -3.53 87.37) (end -3.53 -8.63) (layer F.CrtYd) (width 0.05))
  (fp_line (start -3.33 0) (end -4.01 -0.3) (layer F.SilkS) (width 0.12))
  (fp_line (start -4.01 -0.3) (end -4.01 0.3) (layer F.SilkS) (width 0.12))
  (fp_line (start -4.01 0.3) (end -3.33 0) (layer F.SilkS) (width 0.12))
  (fp_line (start -3.03 -0.5) (end -2.33 0) (layer F.Fab) (width 0.1))
  (fp_line (start -2.33 0) (end -3.03 0.5) (layer F.Fab) (width 0.1))
  (fp_line (start -1.83 -3.131) (end 1.87 -3.131) (layer F.SilkS) (width 0.12))
  (fp_line (start 1.87 -3.131) (end 1.87 -2.131) (layer F.SilkS) (width 0.12))
  (fp_line (start 1.87 -2.131) (end 4.37 -2.131) (layer F.SilkS) (width 0.12))
  (fp_line (start 4.37 -2.131) (end 4.37 80.87) (layer F.SilkS) (width 0.12))
  (fp_line (start 4.37 80.87) (end 1.87 80.87) (layer F.SilkS) (width 0.12))
  (fp_line (start 1.87 80.87) (end 1.87 81.87) (layer F.SilkS) (width 0.12))
  (fp_line (start 1.87 81.87) (end -1.83 81.87) (layer F.SilkS) (width 0.12))
  (fp_line (start -1.83 81.87) (end -1.83 -3.131) (layer F.SilkS) (width 0.12))
  (pad a1 thru_hole roundrect (at 0 0) (size 1.55 1.55) (drill 1) (layers *.Cu *.Mask) (roundrect_rratio 0.16129))
  (pad a2 thru_hole circle (at 0 2.54) (size 1.55 1.55) (drill 1) (layers *.Cu *.Mask))
  (pad a3 thru_hole circle (at 0 5.08) (size 1.55 1.55) (drill 1) (layers *.Cu *.Mask))
  (pad a4 thru_hole circle (at 0 7.62) (size 1.55 1.55) (drill 1) (layers *.Cu *.Mask))
  (pad a5 thru_hole circle (at 0 10.16) (size 1.55 1.55) (drill 1) (layers *.Cu *.Mask))
  (pad a6 thru_hole circle (at 0 12.7) (size 1.55 1.55) (drill 1) (layers *.Cu *.Mask))
  (pad a7 thru_hole circle (at 0 15.24) (size 1.55 1.55) (drill 1) (layers *.Cu *.Mask))
  (pad a8 thru_hole circle (at 0 17.78) (size 1.55 1.55) (drill 1) (layers *.Cu *.Mask))
  (pad a9 thru_hole circle (at 0 20.32) (size 1.55 1.55) (drill 1) (layers *.Cu *.Mask))
  (pad a10 thru_hole circle (at 0 22.86) (size 1.55 1.55) (drill 1) (layers *.Cu *.Mask))
  (pad a11 thru_hole circle (at 0 25.4) (size 1.55 1.55) (drill 1) (layers *.Cu *.Mask))
  (pad a12 thru_hole circle (at 0 27.94) (size 1.55 1.55) (drill 1) (layers *.Cu *.Mask))
  (pad a13 thru_hole circle (at 0 30.48) (size 1.55 1.55) (drill 1) (layers *.Cu *.Mask))
  (pad a14 thru_hole circle (at 0 33.02) (size 1.55 1.55) (drill 1) (layers *.Cu *.Mask))
  (pad a15 thru_hole circle (at 0 35.56) (size 1.55 1.55) (drill 1) (layers *.Cu *.Mask))
  (pad a16 thru_hole circle (at 0 38.1) (size 1.55 1.55) (drill 1) (layers *.Cu *.Mask))
  (pad a17 thru_hole circle (at 0 40.64) (size 1.55 1.55) (drill 1) (layers *.Cu *.Mask))
  (pad a18 thru_hole circle (at 0 43.18) (size 1.55 1.55) (drill 1) (layers *.Cu *.Mask))
  (pad a19 thru_hole circle (at 0 45.72) (size 1.55 1.55) (drill 1) (layers *.Cu *.Mask))
  (pad a20 thru_hole circle (at 0 48.26) (size 1.55 1.55) (drill 1) (layers *.Cu *.Mask))
  (pad a21 thru_hole circle (at 0 50.8) (size 1.55 1.55) (drill 1) (layers *.Cu *.Mask))
  (pad a22 thru_hole circle (at 0 53.34) (size 1.55 1.55) (drill 1) (layers *.Cu *.Mask))
  (pad a23 thru_hole circle (at 0 55.88) (size 1.55 1.55) (drill 1) (layers *.Cu *.Mask))
  (pad a24 thru_hole circle (at 0 58.42) (size 1.55 1.55) (drill 1) (layers *.Cu *.Mask))
  (pad a25 thru_hole circle (at 0 60.96) (size 1.55 1.55) (drill 1) (layers *.Cu *.Mask))
  (pad a26 thru_hole circle (at 0 63.5) (size 1.55 1.55) (drill 1) (layers *.Cu *.Mask))
  (pad a27 thru_hole circle (at 0 66.04) (size 1.55 1.55) (drill 1) (layers *.Cu *.Mask))
  (pad a28 thru_hole circle (at 0 68.58) (size 1.55 1.55) (drill 1) (layers *.Cu *.Mask))
  (pad a29 thru_hole circle (at 0 71.12) (size 1.55 1.55) (drill 1) (layers *.Cu *.Mask))
  (pad a30 thru_hole circle (at 0 73.66) (size 1.55 1.55) (drill 1) (layers *.Cu *.Mask))
  (pad a31 thru_hole circle (at 0 76.2) (size 1.55 1.55) (drill 1) (layers *.Cu *.Mask))
  (pad a32 thru_hole circle (at 0 78.74) (size 1.55 1.55) (drill 1) (layers *.Cu *.Mask))
  (pad b1 thru_hole circle (at 2.54 0) (size 1.55 1.55) (drill 1) (layers *.Cu *.Mask))
  (pad b2 thru_hole circle (at 2.54 2.54) (size 1.55 1.55) (drill 1) (layers *.Cu *.Mask))
  (pad b3 thru_hole circle (at 2.54 5.08) (size 1.55 1.55) (drill 1) (layers *.Cu *.Mask))
  (pad b4 thru_hole circle (at 2.54 7.62) (size 1.55 1.55) (drill 1) (layers *.Cu *.Mask))
  (pad b5 thru_hole circle (at 2.54 10.16) (size 1.55 1.55) (drill 1) (layers *.Cu *.Mask))
  (pad b6 thru_hole circle (at 2.54 12.7) (size 1.55 1.55) (drill 1) (layers *.Cu *.Mask))
  (pad b7 thru_hole circle (at 2.54 15.24) (size 1.55 1.55) (drill 1) (layers *.Cu *.Mask))
  (pad b8 thru_hole circle (at 2.54 17.78) (size 1.55 1.55) (drill 1) (layers *.Cu *.Mask))
  (pad b9 thru_hole circle (at 2.54 20.32) (size 1.55 1.55) (drill 1) (layers *.Cu *.Mask))
  (pad b10 thru_hole circle (at 2.54 22.86) (size 1.55 1.55) (drill 1) (layers *.Cu *.Mask))
  (pad b11 thru_hole circle (at 2.54 25.4) (size 1.55 1.55) (drill 1) (layers *.Cu *.Mask))
  (pad b12 thru_hole circle (at 2.54 27.94) (size 1.55 1.55) (drill 1) (layers *.Cu *.Mask))
  (pad b13 thru_hole circle (at 2.54 30.48) (size 1.55 1.55) (drill 1) (layers *.Cu *.Mask))
  (pad b14 thru_hole circle (at 2.54 33.02) (size 1.55 1.55) (drill 1) (layers *.Cu *.Mask))
  (pad b15 thru_hole circle (at 2.54 35.56) (size 1.55 1.55) (drill 1) (layers *.Cu *.Mask))
  (pad b16 thru_hole circle (at 2.54 38.1) (size 1.55 1.55) (drill 1) (layers *.Cu *.Mask))
  (pad b17 thru_hole circle (at 2.54 40.64) (size 1.55 1.55) (drill 1) (layers *.Cu *.Mask))
  (pad b18 thru_hole circle (at 2.54 43.18) (size 1.55 1.55) (drill 1) (layers *.Cu *.Mask))
  (pad b19 thru_hole circle (at 2.54 45.72) (size 1.55 1.55) (drill 1) (layers *.Cu *.Mask))
  (pad b20 thru_hole circle (at 2.54 48.26) (size 1.55 1.55) (drill 1) (layers *.Cu *.Mask))
  (pad b21 thru_hole circle (at 2.54 50.8) (size 1.55 1.55) (drill 1) (layers *.Cu *.Mask))
  (pad b22 thru_hole circle (at 2.54 53.34) (size 1.55 1.55) (drill 1) (layers *.Cu *.Mask))
  (pad b23 thru_hole circle (at 2.54 55.88) (size 1.55 1.55) (drill 1) (layers *.Cu *.Mask))
  (pad b24 thru_hole circle (at 2.54 58.42) (size 1.55 1.55) (drill 1) (layers *.Cu *.Mask))
  (pad b25 thru_hole circle (at 2.54 60.96) (size 1.55 1.55) (drill 1) (layers *.Cu *.Mask))
  (pad b26 thru_hole circle (at 2.54 63.5) (size 1.55 1.55) (drill 1) (layers *.Cu *.Mask))
  (pad b27 thru_hole circle (at 2.54 66.04) (size 1.55 1.55) (drill 1) (layers *.Cu *.Mask))
  (pad b28 thru_hole circle (at 2.54 68.58) (size 1.55 1.55) (drill 1) (layers *.Cu *.Mask))
  (pad b29 thru_hole circle (at 2.54 71.12) (size 1.55 1.55) (drill 1) (layers *.Cu *.Mask))
  (pad b30 thru_hole circle (at 2.54 73.66) (size 1.55 1.55) (drill 1) (layers *.Cu *.Mask))
  (pad b31 thru_hole circle (at 2.54 76.2) (size 1.55 1.55) (drill 1) (layers *.Cu *.Mask))
  (pad b32 thru_hole circle (at 2.54 78.74) (size 1.55 1.55) (drill 1) (layers *.Cu *.Mask))
  (pad "" np_thru_hole circle (at 2.24 -5.63) (size 2.85 2.85) (drill 2.85) (layers *.Cu *.Mask))
  (pad "" np_thru_hole circle (at 2.24 84.37) (size 2.85 2.85) (drill 2.85) (layers *.Cu *.Mask))
  (fp_text user %R (at 1.27 39.37) (layer F.Fab)
    (effects (font (size 1 1) (thickness 0.15)))
  )
  (model ${KICAD6_3DMODEL_DIR}/Connector_DIN.3dshapes/DIN41612_Q_2x32_Male_Vertical_THT.wrl
    (at (xyz 0 0 0))
    (scale (xyz 1 1 1))
    (rotate (xyz 0 0 0))
  )
)