(module DIN41612_R_3x32_Male_Horizontal_THT (layer F.Cu) (tedit 5EAFCB7F)
  (descr "DIN41612 connector, type R, Horizontal, 3 rows 32 pins wide, https://www.erni-x-press.com/de/downloads/kataloge/englische_kataloge/erni-din41612-iec60603-2-e.pdf")
  (tags "DIN 41612 IEC 60603 R")
  (fp_text reference REF** (at -5.08 1) (layer F.SilkS)
    (effects (font (size 1 1) (thickness 0.15)))
  )
  (fp_text value DIN41612_R_3x32_Male_Horizontal_THT (at 39.37 7.62) (layer F.Fab)
    (effects (font (size 1 1) (thickness 0.15)))
  )
  (fp_line (start -4.38 -12.74) (end -4.38 -6.74) (layer F.Fab) (width 0.1))
  (fp_line (start -4.38 -6.74) (end -7.63 -6.74) (layer F.Fab) (width 0.1))
  (fp_line (start -7.63 -6.74) (end -7.63 0) (layer F.Fab) (width 0.1))
  (fp_line (start -7.63 0) (end -2.63 0) (layer F.Fab) (width 0.1))
  (fp_line (start -2.63 0) (end -2.63 -1) (layer F.Fab) (width 0.1))
  (fp_line (start -2.63 -1) (end 81.37 -1) (layer F.Fab) (width 0.1))
  (fp_line (start 81.37 -1) (end 81.37 0) (layer F.Fab) (width 0.1))
  (fp_line (start 81.37 0) (end 86.37 0) (layer F.Fab) (width 0.1))
  (fp_line (start 86.37 0) (end 86.37 -6.74) (layer F.Fab) (width 0.1))
  (fp_line (start 86.37 -6.74) (end 83.12 -6.74) (layer F.Fab) (width 0.1))
  (fp_line (start 83.12 -6.74) (end 83.12 -12.74) (layer F.Fab) (width 0.1))
  (fp_line (start 83.12 -12.74) (end -4.38 -12.74) (layer F.Fab) (width 0.1))
  (fp_line (start -7.89 -5.3) (end -7.89 0.26) (layer F.SilkS) (width 0.12))
  (fp_line (start -7.89 0.26) (end -2.37 0.26) (layer F.SilkS) (width 0.12))
  (fp_line (start -2.37 0.26) (end -2.37 -0.74) (layer F.SilkS) (width 0.12))
  (fp_line (start 86.63 -5.3) (end 86.63 0.26) (layer F.SilkS) (width 0.12))
  (fp_line (start 86.63 0.26) (end 81.11 0.26) (layer F.SilkS) (width 0.12))
  (fp_line (start 81.11 0.26) (end 81.11 -0.74) (layer F.SilkS) (width 0.12))
  (fp_line (start -2.371 -0.74) (end -1.095 -0.74) (layer F.SilkS) (width 0.12))
  (fp_line (start 1.095 -0.74) (end 1.671 -0.74) (layer F.SilkS) (width 0.12))
  (fp_line (start 3.41 -0.74) (end 4.211 -0.74) (layer F.SilkS) (width 0.12))
  (fp_line (start 5.95 -0.74) (end 6.751 -0.74) (layer F.SilkS) (width 0.12))
  (fp_line (start 8.49 -0.74) (end 9.291 -0.74) (layer F.SilkS) (width 0.12))
  (fp_line (start 11.03 -0.74) (end 11.831 -0.74) (layer F.SilkS) (width 0.12))
  (fp_line (start 13.57 -0.74) (end 14.371 -0.74) (layer F.SilkS) (width 0.12))
  (fp_line (start 16.11 -0.74) (end 16.911 -0.74) (layer F.SilkS) (width 0.12))
  (fp_line (start 18.65 -0.74) (end 19.451 -0.74) (layer F.SilkS) (width 0.12))
  (fp_line (start 21.19 -0.74) (end 21.991 -0.74) (layer F.SilkS) (width 0.12))
  (fp_line (start 23.73 -0.74) (end 24.531 -0.74) (layer F.SilkS) (width 0.12))
  (fp_line (start 26.27 -0.74) (end 27.071 -0.74) (layer F.SilkS) (width 0.12))
  (fp_line (start 28.81 -0.74) (end 29.611 -0.74) (layer F.SilkS) (width 0.12))
  (fp_line (start 31.35 -0.74) (end 32.151 -0.74) (layer F.SilkS) (width 0.12))
  (fp_line (start 33.89 -0.74) (end 34.691 -0.74) (layer F.SilkS) (width 0.12))
  (fp_line (start 36.43 -0.74) (end 37.231 -0.74) (layer F.SilkS) (width 0.12))
  (fp_line (start 38.97 -0.74) (end 39.771 -0.74) (layer F.SilkS) (width 0.12))
  (fp_line (start 41.51 -0.74) (end 42.311 -0.74) (layer F.SilkS) (width 0.12))
  (fp_line (start 44.05 -0.74) (end 44.851 -0.74) (layer F.SilkS) (width 0.12))
  (fp_line (start 46.59 -0.74) (end 47.391 -0.74) (layer F.SilkS) (width 0.12))
  (fp_line (start 49.13 -0.74) (end 49.931 -0.74) (layer F.SilkS) (width 0.12))
  (fp_line (start 51.67 -0.74) (end 52.471 -0.74) (layer F.SilkS) (width 0.12))
  (fp_line (start 54.21 -0.74) (end 55.011 -0.74) (layer F.SilkS) (width 0.12))
  (fp_line (start 56.75 -0.74) (end 57.551 -0.74) (layer F.SilkS) (width 0.12))
  (fp_line (start 59.29 -0.74) (end 60.091 -0.74) (layer F.SilkS) (width 0.12))
  (fp_line (start 61.83 -0.74) (end 62.631 -0.74) (layer F.SilkS) (width 0.12))
  (fp_line (start 64.37 -0.74) (end 65.171 -0.74) (layer F.SilkS) (width 0.12))
  (fp_line (start 66.91 -0.74) (end 67.711 -0.74) (layer F.SilkS) (width 0.12))
  (fp_line (start 69.45 -0.74) (end 70.251 -0.74) (layer F.SilkS) (width 0.12))
  (fp_line (start 71.99 -0.74) (end 72.791 -0.74) (layer F.SilkS) (width 0.12))
  (fp_line (start 74.53 -0.74) (end 75.331 -0.74) (layer F.SilkS) (width 0.12))
  (fp_line (start 77.07 -0.74) (end 77.871 -0.74) (layer F.SilkS) (width 0.12))
  (fp_line (start 79.61 -0.74) (end 81.11 -0.74) (layer F.SilkS) (width 0.12))
  (fp_line (start -1.095 0) (end -1.695 -0.3) (layer F.SilkS) (width 0.12))
  (fp_line (start -1.695 -0.3) (end -1.695 0.3) (layer F.SilkS) (width 0.12))
  (fp_line (start -1.695 0.3) (end -1.095 0) (layer F.SilkS) (width 0.12))
  (fp_line (start 0 -1.2) (end -0.5 -1.9) (layer F.Fab) (width 0.1))
  (fp_line (start -0.5 -1.9) (end 0.5 -1.9) (layer F.Fab) (width 0.1))
  (fp_line (start 0.5 -1.9) (end 0 -1.2) (layer F.Fab) (width 0.1))
  (fp_line (start -8.13 -13.23) (end -8.13 0.5) (layer F.CrtYd) (width 0.05))
  (fp_line (start -8.13 0.5) (end -1.27 0.5) (layer F.CrtYd) (width 0.05))
  (fp_line (start -1.27 0.5) (end -1.27 6.36) (layer F.CrtYd) (width 0.05))
  (fp_line (start -1.27 6.36) (end 80.02 6.36) (layer F.CrtYd) (width 0.05))
  (fp_line (start 80.02 6.36) (end 80.02 0.5) (layer F.CrtYd) (width 0.05))
  (fp_line (start 80.02 0.5) (end 86.87 0.5) (layer F.CrtYd) (width 0.05))
  (fp_line (start 86.87 0.5) (end 86.87 -13.23) (layer F.CrtYd) (width 0.05))
  (fp_line (start 86.87 -13.23) (end -8.13 -13.23) (layer F.CrtYd) (width 0.05))
  (fp_line (start -7.63 -5.3) (end 86.37 -5.3) (layer Dwgs.User) (width 0.08))
  (fp_line (start 39.17 -5.9) (end 39.37 -5.4) (layer Cmts.User) (width 0.1))
  (fp_line (start 39.37 -5.4) (end 39.57 -5.9) (layer Cmts.User) (width 0.1))
  (fp_line (start 39.37 -5.4) (end 39.37 -6.7) (layer Cmts.User) (width 0.1))
  (pad "" np_thru_hole circle (at -5.08 -2.54) (size 2.85 2.85) (drill 2.85) (layers *.Cu *.Mask))
  (pad "" np_thru_hole circle (at 83.82 -2.54) (size 2.85 2.85) (drill 2.85) (layers *.Cu *.Mask))
  (pad a1 thru_hole roundrect (at 0 0) (size 1.55 1.55) (drill 1) (layers *.Cu *.Mask) (roundrect_rratio 0.16129))
  (pad a2 thru_hole circle (at 2.54 0) (size 1.55 1.55) (drill 1) (layers *.Cu *.Mask))
  (pad a3 thru_hole circle (at 5.08 0) (size 1.55 1.55) (drill 1) (layers *.Cu *.Mask))
  (pad a4 thru_hole circle (at 7.62 0) (size 1.55 1.55) (drill 1) (layers *.Cu *.Mask))
  (pad a5 thru_hole circle (at 10.16 0) (size 1.55 1.55) (drill 1) (layers *.Cu *.Mask))
  (pad a6 thru_hole circle (at 12.7 0) (size 1.55 1.55) (drill 1) (layers *.Cu *.Mask))
  (pad a7 thru_hole circle (at 15.24 0) (size 1.55 1.55) (drill 1) (layers *.Cu *.Mask))
  (pad a8 thru_hole circle (at 17.78 0) (size 1.55 1.55) (drill 1) (layers *.Cu *.Mask))
  (pad a9 thru_hole circle (at 20.32 0) (size 1.55 1.55) (drill 1) (layers *.Cu *.Mask))
  (pad a10 thru_hole circle (at 22.86 0) (size 1.55 1.55) (drill 1) (layers *.Cu *.Mask))
  (pad a11 thru_hole circle (at 25.4 0) (size 1.55 1.55) (drill 1) (layers *.Cu *.Mask))
  (pad a12 thru_hole circle (at 27.94 0) (size 1.55 1.55) (drill 1) (layers *.Cu *.Mask))
  (pad a13 thru_hole circle (at 30.48 0) (size 1.55 1.55) (drill 1) (layers *.Cu *.Mask))
  (pad a14 thru_hole circle (at 33.02 0) (size 1.55 1.55) (drill 1) (layers *.Cu *.Mask))
  (pad a15 thru_hole circle (at 35.56 0) (size 1.55 1.55) (drill 1) (layers *.Cu *.Mask))
  (pad a16 thru_hole circle (at 38.1 0) (size 1.55 1.55) (drill 1) (layers *.Cu *.Mask))
  (pad a17 thru_hole circle (at 40.64 0) (size 1.55 1.55) (drill 1) (layers *.Cu *.Mask))
  (pad a18 thru_hole circle (at 43.18 0) (size 1.55 1.55) (drill 1) (layers *.Cu *.Mask))
  (pad a19 thru_hole circle (at 45.72 0) (size 1.55 1.55) (drill 1) (layers *.Cu *.Mask))
  (pad a20 thru_hole circle (at 48.26 0) (size 1.55 1.55) (drill 1) (layers *.Cu *.Mask))
  (pad a21 thru_hole circle (at 50.8 0) (size 1.55 1.55) (drill 1) (layers *.Cu *.Mask))
  (pad a22 thru_hole circle (at 53.34 0) (size 1.55 1.55) (drill 1) (layers *.Cu *.Mask))
  (pad a23 thru_hole circle (at 55.88 0) (size 1.55 1.55) (drill 1) (layers *.Cu *.Mask))
  (pad a24 thru_hole circle (at 58.42 0) (size 1.55 1.55) (drill 1) (layers *.Cu *.Mask))
  (pad a25 thru_hole circle (at 60.96 0) (size 1.55 1.55) (drill 1) (layers *.Cu *.Mask))
  (pad a26 thru_hole circle (at 63.5 0) (size 1.55 1.55) (drill 1) (layers *.Cu *.Mask))
  (pad a27 thru_hole circle (at 66.04 0) (size 1.55 1.55) (drill 1) (layers *.Cu *.Mask))
  (pad a28 thru_hole circle (at 68.58 0) (size 1.55 1.55) (drill 1) (layers *.Cu *.Mask))
  (pad a29 thru_hole circle (at 71.12 0) (size 1.55 1.55) (drill 1) (layers *.Cu *.Mask))
  (pad a30 thru_hole circle (at 73.66 0) (size 1.55 1.55) (drill 1) (layers *.Cu *.Mask))
  (pad a31 thru_hole circle (at 76.2 0) (size 1.55 1.55) (drill 1) (layers *.Cu *.Mask))
  (pad a32 thru_hole circle (at 78.74 0) (size 1.55 1.55) (drill 1) (layers *.Cu *.Mask))
  (pad b1 thru_hole circle (at 0 2.54) (size 1.55 1.55) (drill 1) (layers *.Cu *.Mask))
  (pad b2 thru_hole circle (at 2.54 2.54) (size 1.55 1.55) (drill 1) (layers *.Cu *.Mask))
  (pad b3 thru_hole circle (at 5.08 2.54) (size 1.55 1.55) (drill 1) (layers *.Cu *.Mask))
  (pad b4 thru_hole circle (at 7.62 2.54) (size 1.55 1.55) (drill 1) (layers *.Cu *.Mask))
  (pad b5 thru_hole circle (at 10.16 2.54) (size 1.55 1.55) (drill 1) (layers *.Cu *.Mask))
  (pad b6 thru_hole circle (at 12.7 2.54) (size 1.55 1.55) (drill 1) (layers *.Cu *.Mask))
  (pad b7 thru_hole circle (at 15.24 2.54) (size 1.55 1.55) (drill 1) (layers *.Cu *.Mask))
  (pad b8 thru_hole circle (at 17.78 2.54) (size 1.55 1.55) (drill 1) (layers *.Cu *.Mask))
  (pad b9 thru_hole circle (at 20.32 2.54) (size 1.55 1.55) (drill 1) (layers *.Cu *.Mask))
  (pad b10 thru_hole circle (at 22.86 2.54) (size 1.55 1.55) (drill 1) (layers *.Cu *.Mask))
  (pad b11 thru_hole circle (at 25.4 2.54) (size 1.55 1.55) (drill 1) (layers *.Cu *.Mask))
  (pad b12 thru_hole circle (at 27.94 2.54) (size 1.55 1.55) (drill 1) (layers *.Cu *.Mask))
  (pad b13 thru_hole circle (at 30.48 2.54) (size 1.55 1.55) (drill 1) (layers *.Cu *.Mask))
  (pad b14 thru_hole circle (at 33.02 2.54) (size 1.55 1.55) (drill 1) (layers *.Cu *.Mask))
  (pad b15 thru_hole circle (at 35.56 2.54) (size 1.55 1.55) (drill 1) (layers *.Cu *.Mask))
  (pad b16 thru_hole circle (at 38.1 2.54) (size 1.55 1.55) (drill 1) (layers *.Cu *.Mask))
  (pad b17 thru_hole circle (at 40.64 2.54) (size 1.55 1.55) (drill 1) (layers *.Cu *.Mask))
  (pad b18 thru_hole circle (at 43.18 2.54) (size 1.55 1.55) (drill 1) (layers *.Cu *.Mask))
  (pad b19 thru_hole circle (at 45.72 2.54) (size 1.55 1.55) (drill 1) (layers *.Cu *.Mask))
  (pad b20 thru_hole circle (at 48.26 2.54) (size 1.55 1.55) (drill 1) (layers *.Cu *.Mask))
  (pad b21 thru_hole circle (at 50.8 2.54) (size 1.55 1.55) (drill 1) (layers *.Cu *.Mask))
  (pad b22 thru_hole circle (at 53.34 2.54) (size 1.55 1.55) (drill 1) (layers *.Cu *.Mask))
  (pad b23 thru_hole circle (at 55.88 2.54) (size 1.55 1.55) (drill 1) (layers *.Cu *.Mask))
  (pad b24 thru_hole circle (at 58.42 2.54) (size 1.55 1.55) (drill 1) (layers *.Cu *.Mask))
  (pad b25 thru_hole circle (at 60.96 2.54) (size 1.55 1.55) (drill 1) (layers *.Cu *.Mask))
  (pad b26 thru_hole circle (at 63.5 2.54) (size 1.55 1.55) (drill 1) (layers *.Cu *.Mask))
  (pad b27 thru_hole circle (at 66.04 2.54) (size 1.55 1.55) (drill 1) (layers *.Cu *.Mask))
  (pad b28 thru_hole circle (at 68.58 2.54) (size 1.55 1.55) (drill 1) (layers *.Cu *.Mask))
  (pad b29 thru_hole circle (at 71.12 2.54) (size 1.55 1.55) (drill 1) (layers *.Cu *.Mask))
  (pad b30 thru_hole circle (at 73.66 2.54) (size 1.55 1.55) (drill 1) (layers *.Cu *.Mask))
  (pad b31 thru_hole circle (at 76.2 2.54) (size 1.55 1.55) (drill 1) (layers *.Cu *.Mask))
  (pad b32 thru_hole circle (at 78.74 2.54) (size 1.55 1.55) (drill 1) (layers *.Cu *.Mask))
  (pad c1 thru_hole circle (at 0 5.08) (size 1.55 1.55) (drill 1) (layers *.Cu *.Mask))
  (pad c2 thru_hole circle (at 2.54 5.08) (size 1.55 1.55) (drill 1) (layers *.Cu *.Mask))
  (pad c3 thru_hole circle (at 5.08 5.08) (size 1.55 1.55) (drill 1) (layers *.Cu *.Mask))
  (pad c4 thru_hole circle (at 7.62 5.08) (size 1.55 1.55) (drill 1) (layers *.Cu *.Mask))
  (pad c5 thru_hole circle (at 10.16 5.08) (size 1.55 1.55) (drill 1) (layers *.Cu *.Mask))
  (pad c6 thru_hole circle (at 12.7 5.08) (size 1.55 1.55) (drill 1) (layers *.Cu *.Mask))
  (pad c7 thru_hole circle (at 15.24 5.08) (size 1.55 1.55) (drill 1) (layers *.Cu *.Mask))
  (pad c8 thru_hole circle (at 17.78 5.08) (size 1.55 1.55) (drill 1) (layers *.Cu *.Mask))
  (pad c9 thru_hole circle (at 20.32 5.08) (size 1.55 1.55) (drill 1) (layers *.Cu *.Mask))
  (pad c10 thru_hole circle (at 22.86 5.08) (size 1.55 1.55) (drill 1) (layers *.Cu *.Mask))
  (pad c11 thru_hole circle (at 25.4 5.08) (size 1.55 1.55) (drill 1) (layers *.Cu *.Mask))
  (pad c12 thru_hole circle (at 27.94 5.08) (size 1.55 1.55) (drill 1) (layers *.Cu *.Mask))
  (pad c13 thru_hole circle (at 30.48 5.08) (size 1.55 1.55) (drill 1) (layers *.Cu *.Mask))
  (pad c14 thru_hole circle (at 33.02 5.08) (size 1.55 1.55) (drill 1) (layers *.Cu *.Mask))
  (pad c15 thru_hole circle (at 35.56 5.08) (size 1.55 1.55) (drill 1) (layers *.Cu *.Mask))
  (pad c16 thru_hole circle (at 38.1 5.08) (size 1.55 1.55) (drill 1) (layers *.Cu *.Mask))
  (pad c17 thru_hole circle (at 40.64 5.08) (size 1.55 1.55) (drill 1) (layers *.Cu *.Mask))
  (pad c18 thru_hole circle (at 43.18 5.08) (size 1.55 1.55) (drill 1) (layers *.Cu *.Mask))
  (pad c19 thru_hole circle (at 45.72 5.08) (size 1.55 1.55) (drill 1) (layers *.Cu *.Mask))
  (pad c20 thru_hole circle (at 48.26 5.08) (size 1.55 1.55) (drill 1) (layers *.Cu *.Mask))
  (pad c21 thru_hole circle (at 50.8 5.08) (size 1.55 1.55) (drill 1) (layers *.Cu *.Mask))
  (pad c22 thru_hole circle (at 53.34 5.08) (size 1.55 1.55) (drill 1) (layers *.Cu *.Mask))
  (pad c23 thru_hole circle (at 55.88 5.08) (size 1.55 1.55) (drill 1) (layers *.Cu *.Mask))
  (pad c24 thru_hole circle (at 58.42 5.08) (size 1.55 1.55) (drill 1) (layers *.Cu *.Mask))
  (pad c25 thru_hole circle (at 60.96 5.08) (size 1.55 1.55) (drill 1) (layers *.Cu *.Mask))
  (pad c26 thru_hole circle (at 63.5 5.08) (size 1.55 1.55) (drill 1) (layers *.Cu *.Mask))
  (pad c27 thru_hole circle (at 66.04 5.08) (size 1.55 1.55) (drill 1) (layers *.Cu *.Mask))
  (pad c28 thru_hole circle (at 68.58 5.08) (size 1.55 1.55) (drill 1) (layers *.Cu *.Mask))
  (pad c29 thru_hole circle (at 71.12 5.08) (size 1.55 1.55) (drill 1) (layers *.Cu *.Mask))
  (pad c30 thru_hole circle (at 73.66 5.08) (size 1.55 1.55) (drill 1) (layers *.Cu *.Mask))
  (pad c31 thru_hole circle (at 76.2 5.08) (size 1.55 1.55) (drill 1) (layers *.Cu *.Mask))
  (pad c32 thru_hole circle (at 78.74 5.08) (size 1.55 1.55) (drill 1) (layers *.Cu *.Mask))
  (fp_text user %R (at 39.37 -2.54) (layer F.Fab)
    (effects (font (size 1 1) (thickness 0.15)))
  )
  (fp_text user "Board edge" (at 39.37 -7.3) (layer Cmts.User)
    (effects (font (size 0.7 0.7) (thickness 0.1)))
  )
  (model ${KICAD6_3DMODEL_DIR}/Connector_DIN.3dshapes/DIN41612_R_3x32_Male_Horizontal_THT.wrl
    (at (xyz 0 0 0))
    (scale (xyz 1 1 1))
    (rotate (xyz 0 0 0))
  )
)