(module DIN41612_B3_2x10_Male_Horizontal_THT (layer F.Cu) (tedit 5EAFCB7F)
  (descr "DIN41612 connector, type B/3, Horizontal, 2 rows 10 pins wide, https://www.erni-x-press.com/de/downloads/kataloge/englische_kataloge/erni-din41612-iec60603-2-e.pdf")
  (tags "DIN 41612 IEC 60603 B/3")
  (fp_text reference REF** (at -5.08 1) (layer F.SilkS)
    (effects (font (size 1 1) (thickness 0.15)))
  )
  (fp_text value DIN41612_B3_2x10_Male_Horizontal_THT (at 11.43 5.08) (layer F.Fab)
    (effects (font (size 1 1) (thickness 0.15)))
  )
  (fp_line (start -4.42 -12.74) (end -4.42 -6.74) (layer F.Fab) (width 0.1))
  (fp_line (start -4.42 -6.74) (end -7.62 -6.74) (layer F.Fab) (width 0.1))
  (fp_line (start -7.62 -6.74) (end -7.62 0) (layer F.Fab) (width 0.1))
  (fp_line (start -7.62 0) (end -2.62 0) (layer F.Fab) (width 0.1))
  (fp_line (start -2.62 0) (end -2.62 -1) (layer F.Fab) (width 0.1))
  (fp_line (start -2.62 -1) (end 25.48 -1) (layer F.Fab) (width 0.1))
  (fp_line (start 25.48 -1) (end 25.48 0) (layer F.Fab) (width 0.1))
  (fp_line (start 25.48 0) (end 30.48 0) (layer F.Fab) (width 0.1))
  (fp_line (start 30.48 0) (end 30.48 -6.74) (layer F.Fab) (width 0.1))
  (fp_line (start 30.48 -6.74) (end 27.28 -6.74) (layer F.Fab) (width 0.1))
  (fp_line (start 27.28 -6.74) (end 27.28 -12.74) (layer F.Fab) (width 0.1))
  (fp_line (start 27.28 -12.74) (end -4.42 -12.74) (layer F.Fab) (width 0.1))
  (fp_line (start -7.88 -5.3) (end -7.88 0.26) (layer F.SilkS) (width 0.12))
  (fp_line (start -7.88 0.26) (end -2.36 0.26) (layer F.SilkS) (width 0.12))
  (fp_line (start -2.36 0.26) (end -2.36 -0.74) (layer F.SilkS) (width 0.12))
  (fp_line (start 30.74 -5.3) (end 30.74 0.26) (layer F.SilkS) (width 0.12))
  (fp_line (start 30.74 0.26) (end 25.22 0.26) (layer F.SilkS) (width 0.12))
  (fp_line (start 25.22 0.26) (end 25.22 -0.74) (layer F.SilkS) (width 0.12))
  (fp_line (start -2.361 -0.74) (end -1.095 -0.74) (layer F.SilkS) (width 0.12))
  (fp_line (start 1.095 -0.74) (end 1.671 -0.74) (layer F.SilkS) (width 0.12))
  (fp_line (start 3.41 -0.74) (end 4.211 -0.74) (layer F.SilkS) (width 0.12))
  (fp_line (start 5.95 -0.74) (end 6.751 -0.74) (layer F.SilkS) (width 0.12))
  (fp_line (start 8.49 -0.74) (end 9.291 -0.74) (layer F.SilkS) (width 0.12))
  (fp_line (start 11.03 -0.74) (end 11.831 -0.74) (layer F.SilkS) (width 0.12))
  (fp_line (start 13.57 -0.74) (end 14.371 -0.74) (layer F.SilkS) (width 0.12))
  (fp_line (start 16.11 -0.74) (end 16.911 -0.74) (layer F.SilkS) (width 0.12))
  (fp_line (start 18.65 -0.74) (end 19.451 -0.74) (layer F.SilkS) (width 0.12))
  (fp_line (start 21.19 -0.74) (end 21.991 -0.74) (layer F.SilkS) (width 0.12))
  (fp_line (start 23.73 -0.74) (end 25.22 -0.74) (layer F.SilkS) (width 0.12))
  (fp_line (start -1.095 0) (end -1.695 -0.3) (layer F.SilkS) (width 0.12))
  (fp_line (start -1.695 -0.3) (end -1.695 0.3) (layer F.SilkS) (width 0.12))
  (fp_line (start -1.695 0.3) (end -1.095 0) (layer F.SilkS) (width 0.12))
  (fp_line (start 0 -1.2) (end -0.5 -1.9) (layer F.Fab) (width 0.1))
  (fp_line (start -0.5 -1.9) (end 0.5 -1.9) (layer F.Fab) (width 0.1))
  (fp_line (start 0.5 -1.9) (end 0 -1.2) (layer F.Fab) (width 0.1))
  (fp_line (start -8.12 -13.23) (end -8.12 0.5) (layer F.CrtYd) (width 0.05))
  (fp_line (start -8.12 0.5) (end -1.27 0.5) (layer F.CrtYd) (width 0.05))
  (fp_line (start -1.27 0.5) (end -1.27 3.82) (layer F.CrtYd) (width 0.05))
  (fp_line (start -1.27 3.82) (end 24.14 3.82) (layer F.CrtYd) (width 0.05))
  (fp_line (start 24.14 3.82) (end 24.14 0.5) (layer F.CrtYd) (width 0.05))
  (fp_line (start 24.14 0.5) (end 30.98 0.5) (layer F.CrtYd) (width 0.05))
  (fp_line (start 30.98 0.5) (end 30.98 -13.23) (layer F.CrtYd) (width 0.05))
  (fp_line (start 30.98 -13.23) (end -8.12 -13.23) (layer F.CrtYd) (width 0.05))
  (fp_line (start -7.62 -5.3) (end 30.48 -5.3) (layer Dwgs.User) (width 0.08))
  (fp_line (start 11.23 -5.9) (end 11.43 -5.4) (layer Cmts.User) (width 0.1))
  (fp_line (start 11.43 -5.4) (end 11.63 -5.9) (layer Cmts.User) (width 0.1))
  (fp_line (start 11.43 -5.4) (end 11.43 -6.7) (layer Cmts.User) (width 0.1))
  (pad "" np_thru_hole circle (at -5.08 -2.54) (size 2.85 2.85) (drill 2.85) (layers *.Cu *.Mask))
  (pad "" np_thru_hole circle (at 27.94 -2.54) (size 2.85 2.85) (drill 2.85) (layers *.Cu *.Mask))
  (pad a1 thru_hole roundrect (at 0 0) (size 1.55 1.55) (drill 1) (layers *.Cu *.Mask) (roundrect_rratio 0.16129))
  (pad a2 thru_hole circle (at 2.54 0) (size 1.55 1.55) (drill 1) (layers *.Cu *.Mask))
  (pad a3 thru_hole circle (at 5.08 0) (size 1.55 1.55) (drill 1) (layers *.Cu *.Mask))
  (pad a4 thru_hole circle (at 7.62 0) (size 1.55 1.55) (drill 1) (layers *.Cu *.Mask))
  (pad a5 thru_hole circle (at 10.16 0) (size 1.55 1.55) (drill 1) (layers *.Cu *.Mask))
  (pad a6 thru_hole circle (at 12.7 0) (size 1.55 1.55) (drill 1) (layers *.Cu *.Mask))
  (pad a7 thru_hole circle (at 15.24 0) (size 1.55 1.55) (drill 1) (layers *.Cu *.Mask))
  (pad a8 thru_hole circle (at 17.78 0) (size 1.55 1.55) (drill 1) (layers *.Cu *.Mask))
  (pad a9 thru_hole circle (at 20.32 0) (size 1.55 1.55) (drill 1) (layers *.Cu *.Mask))
  (pad a10 thru_hole circle (at 22.86 0) (size 1.55 1.55) (drill 1) (layers *.Cu *.Mask))
  (pad b1 thru_hole circle (at 0 2.54) (size 1.55 1.55) (drill 1) (layers *.Cu *.Mask))
  (pad b2 thru_hole circle (at 2.54 2.54) (size 1.55 1.55) (drill 1) (layers *.Cu *.Mask))
  (pad b3 thru_hole circle (at 5.08 2.54) (size 1.55 1.55) (drill 1) (layers *.Cu *.Mask))
  (pad b4 thru_hole circle (at 7.62 2.54) (size 1.55 1.55) (drill 1) (layers *.Cu *.Mask))
  (pad b5 thru_hole circle (at 10.16 2.54) (size 1.55 1.55) (drill 1) (layers *.Cu *.Mask))
  (pad b6 thru_hole circle (at 12.7 2.54) (size 1.55 1.55) (drill 1) (layers *.Cu *.Mask))
  (pad b7 thru_hole circle (at 15.24 2.54) (size 1.55 1.55) (drill 1) (layers *.Cu *.Mask))
  (pad b8 thru_hole circle (at 17.78 2.54) (size 1.55 1.55) (drill 1) (layers *.Cu *.Mask))
  (pad b9 thru_hole circle (at 20.32 2.54) (size 1.55 1.55) (drill 1) (layers *.Cu *.Mask))
  (pad b10 thru_hole circle (at 22.86 2.54) (size 1.55 1.55) (drill 1) (layers *.Cu *.Mask))
  (fp_text user %R (at 11.43 -2.54) (layer F.Fab)
    (effects (font (size 1 1) (thickness 0.15)))
  )
  (fp_text user "Board edge" (at 11.43 -7.3) (layer Cmts.User)
    (effects (font (size 0.7 0.7) (thickness 0.1)))
  )
  (model ${KICAD6_3DMODEL_DIR}/Connector_DIN.3dshapes/DIN41612_B3_2x10_Male_Horizontal_THT.wrl
    (at (xyz 0 0 0))
    (scale (xyz 1 1 1))
    (rotate (xyz 0 0 0))
  )
)