(module DIN41612_Q3_2x10_Male_Vertical_THT (layer F.Cu) (tedit 5EAFCB80)
  (descr "DIN41612 connector, type Q/3, Vertical, 2 rows 10 pins wide, https://www.erni-x-press.com/de/downloads/kataloge/englische_kataloge/erni-din41612-iec60603-2-e.pdf")
  (tags "DIN 41612 IEC 60603 Q/3")
  (fp_text reference REF** (at 1.27 -9.45) (layer F.SilkS)
    (effects (font (size 1 1) (thickness 0.15)))
  )
  (fp_text value DIN41612_Q3_2x10_Male_Vertical_THT (at 1.27 32.31) (layer F.Fab)
    (effects (font (size 1 1) (thickness 0.15)))
  )
  (fp_line (start -1.83 -3.17) (end 1.87 -3.17) (layer F.Fab) (width 0.1))
  (fp_line (start 1.87 -3.17) (end 1.87 -2.17) (layer F.Fab) (width 0.1))
  (fp_line (start 1.87 -2.17) (end 4.37 -2.17) (layer F.Fab) (width 0.1))
  (fp_line (start 4.37 -2.17) (end 4.37 25.03) (layer F.Fab) (width 0.1))
  (fp_line (start 4.37 25.03) (end 1.87 25.03) (layer F.Fab) (width 0.1))
  (fp_line (start 1.87 25.03) (end 1.87 26.03) (layer F.Fab) (width 0.1))
  (fp_line (start 1.87 26.03) (end -1.83 26.03) (layer F.Fab) (width 0.1))
  (fp_line (start -1.83 26.03) (end -1.83 -3.17) (layer F.Fab) (width 0.1))
  (fp_line (start -3.03 27.48) (end -0.76 27.48) (layer F.Fab) (width 0.1))
  (fp_line (start -0.76 27.48) (end -0.76 26.03) (layer F.Fab) (width 0.1))
  (fp_line (start 1.87 26.03) (end 5.24 26.03) (layer F.Fab) (width 0.1))
  (fp_line (start 5.24 26.03) (end 5.24 27.48) (layer F.Fab) (width 0.1))
  (fp_line (start 5.24 27.48) (end 5.57 27.48) (layer F.Fab) (width 0.1))
  (fp_line (start -3.03 -4.62) (end -0.76 -4.62) (layer F.Fab) (width 0.1))
  (fp_line (start -0.76 -4.62) (end -0.76 -3.17) (layer F.Fab) (width 0.1))
  (fp_line (start 1.87 -3.17) (end 5.24 -3.17) (layer F.Fab) (width 0.1))
  (fp_line (start 5.24 -3.17) (end 5.24 -4.62) (layer F.Fab) (width 0.1))
  (fp_line (start 5.24 -4.62) (end 5.57 -4.62) (layer F.Fab) (width 0.1))
  (fp_line (start -3.03 -8.45) (end 5.57 -8.45) (layer F.Fab) (width 0.1))
  (fp_line (start 5.57 -8.45) (end 5.57 31.31) (layer F.Fab) (width 0.1))
  (fp_line (start 5.57 31.31) (end -3.03 31.31) (layer F.Fab) (width 0.1))
  (fp_line (start -3.03 31.31) (end -3.03 -8.45) (layer F.Fab) (width 0.1))
  (fp_line (start -3.14 -8.56) (end 5.68 -8.56) (layer F.SilkS) (width 0.12))
  (fp_line (start 5.68 -8.56) (end 5.68 31.42) (layer F.SilkS) (width 0.12))
  (fp_line (start 5.68 31.42) (end -3.14 31.42) (layer F.SilkS) (width 0.12))
  (fp_line (start -3.14 31.42) (end -3.14 -8.56) (layer F.SilkS) (width 0.12))
  (fp_line (start -3.53 -8.94) (end 6.07 -8.94) (layer F.CrtYd) (width 0.05))
  (fp_line (start 6.07 -8.94) (end 6.07 31.81) (layer F.CrtYd) (width 0.05))
  (fp_line (start 6.07 31.81) (end -3.53 31.81) (layer F.CrtYd) (width 0.05))
  (fp_line (start -3.53 31.81) (end -3.53 -8.94) (layer F.CrtYd) (width 0.05))
  (fp_line (start -3.33 0) (end -4.01 -0.3) (layer F.SilkS) (width 0.12))
  (fp_line (start -4.01 -0.3) (end -4.01 0.3) (layer F.SilkS) (width 0.12))
  (fp_line (start -4.01 0.3) (end -3.33 0) (layer F.SilkS) (width 0.12))
  (fp_line (start -3.03 -0.5) (end -2.33 0) (layer F.Fab) (width 0.1))
  (fp_line (start -2.33 0) (end -3.03 0.5) (layer F.Fab) (width 0.1))
  (fp_line (start -1.83 -3.17) (end 1.87 -3.17) (layer F.SilkS) (width 0.12))
  (fp_line (start 1.87 -3.17) (end 1.87 -2.17) (layer F.SilkS) (width 0.12))
  (fp_line (start 1.87 -2.17) (end 4.37 -2.17) (layer F.SilkS) (width 0.12))
  (fp_line (start 4.37 -2.17) (end 4.37 25.03) (layer F.SilkS) (width 0.12))
  (fp_line (start 4.37 25.03) (end 1.87 25.03) (layer F.SilkS) (width 0.12))
  (fp_line (start 1.87 25.03) (end 1.87 26.03) (layer F.SilkS) (width 0.12))
  (fp_line (start 1.87 26.03) (end -1.83 26.03) (layer F.SilkS) (width 0.12))
  (fp_line (start -1.83 26.03) (end -1.83 -3.17) (layer F.SilkS) (width 0.12))
  (pad a1 thru_hole roundrect (at 0 0) (size 1.55 1.55) (drill 1) (layers *.Cu *.Mask) (roundrect_rratio 0.16129))
  (pad a2 thru_hole circle (at 0 2.54) (size 1.55 1.55) (drill 1) (layers *.Cu *.Mask))
  (pad a3 thru_hole circle (at 0 5.08) (size 1.55 1.55) (drill 1) (layers *.Cu *.Mask))
  (pad a4 thru_hole circle (at 0 7.62) (size 1.55 1.55) (drill 1) (layers *.Cu *.Mask))
  (pad a5 thru_hole circle (at 0 10.16) (size 1.55 1.55) (drill 1) (layers *.Cu *.Mask))
  (pad a6 thru_hole circle (at 0 12.7) (size 1.55 1.55) (drill 1) (layers *.Cu *.Mask))
  (pad a7 thru_hole circle (at 0 15.24) (size 1.55 1.55) (drill 1) (layers *.Cu *.Mask))
  (pad a8 thru_hole circle (at 0 17.78) (size 1.55 1.55) (drill 1) (layers *.Cu *.Mask))
  (pad a9 thru_hole circle (at 0 20.32) (size 1.55 1.55) (drill 1) (layers *.Cu *.Mask))
  (pad a10 thru_hole circle (at 0 22.86) (size 1.55 1.55) (drill 1) (layers *.Cu *.Mask))
  (pad b1 thru_hole circle (at 2.54 0) (size 1.55 1.55) (drill 1) (layers *.Cu *.Mask))
  (pad b2 thru_hole circle (at 2.54 2.54) (size 1.55 1.55) (drill 1) (layers *.Cu *.Mask))
  (pad b3 thru_hole circle (at 2.54 5.08) (size 1.55 1.55) (drill 1) (layers *.Cu *.Mask))
  (pad b4 thru_hole circle (at 2.54 7.62) (size 1.55 1.55) (drill 1) (layers *.Cu *.Mask))
  (pad b5 thru_hole circle (at 2.54 10.16) (size 1.55 1.55) (drill 1) (layers *.Cu *.Mask))
  (pad b6 thru_hole circle (at 2.54 12.7) (size 1.55 1.55) (drill 1) (layers *.Cu *.Mask))
  (pad b7 thru_hole circle (at 2.54 15.24) (size 1.55 1.55) (drill 1) (layers *.Cu *.Mask))
  (pad b8 thru_hole circle (at 2.54 17.78) (size 1.55 1.55) (drill 1) (layers *.Cu *.Mask))
  (pad b9 thru_hole circle (at 2.54 20.32) (size 1.55 1.55) (drill 1) (layers *.Cu *.Mask))
  (pad b10 thru_hole circle (at 2.54 22.86) (size 1.55 1.55) (drill 1) (layers *.Cu *.Mask))
  (pad "" np_thru_hole circle (at 2.24 -5.95) (size 2.85 2.85) (drill 2.85) (layers *.Cu *.Mask))
  (pad "" np_thru_hole circle (at 2.24 28.81) (size 2.85 2.85) (drill 2.85) (layers *.Cu *.Mask))
  (fp_text user %R (at 1.27 11.43) (layer F.Fab)
    (effects (font (size 1 1) (thickness 0.15)))
  )
  (model ${KICAD6_3DMODEL_DIR}/Connector_DIN.3dshapes/DIN41612_Q3_2x10_Male_Vertical_THT.wrl
    (at (xyz 0 0 0))
    (scale (xyz 1 1 1))
    (rotate (xyz 0 0 0))
  )
)