(module DIN41612_C_1x32_Female_Vertical_THT (layer F.Cu) (tedit 5EAFCB7F)
  (descr "DIN41612 connector, type C, Vertical, 3 rows 32 pins wide, https://www.erni-x-press.com/de/downloads/kataloge/englische_kataloge/erni-din41612-iec60603-2-e.pdf")
  (tags "DIN 41612 IEC 60603 C")
  (fp_text reference REF** (at 2.54 -9.13) (layer F.SilkS)
    (effects (font (size 1 1) (thickness 0.15)))
  )
  (fp_text value DIN41612_C_1x32_Female_Vertical_THT (at 2.54 87.87) (layer F.Fab)
    (effects (font (size 1 1) (thickness 0.15)))
  )
  (fp_line (start -1.71 -3.13) (end 3.79 -3.13) (layer F.Fab) (width 0.1))
  (fp_line (start 3.79 -3.13) (end 3.79 -2.13) (layer F.Fab) (width 0.1))
  (fp_line (start 3.79 -2.13) (end 6.79 -2.13) (layer F.Fab) (width 0.1))
  (fp_line (start 6.79 -2.13) (end 6.79 80.87) (layer F.Fab) (width 0.1))
  (fp_line (start 6.79 80.87) (end 3.79 80.87) (layer F.Fab) (width 0.1))
  (fp_line (start 3.79 80.87) (end 3.79 81.87) (layer F.Fab) (width 0.1))
  (fp_line (start 3.79 81.87) (end -1.71 81.87) (layer F.Fab) (width 0.1))
  (fp_line (start -1.71 81.87) (end -1.71 -3.13) (layer F.Fab) (width 0.1))
  (fp_line (start -2.76 -8.13) (end 7.84 -8.13) (layer F.Fab) (width 0.1))
  (fp_line (start 7.84 -8.13) (end 7.84 86.87) (layer F.Fab) (width 0.1))
  (fp_line (start 7.84 86.87) (end -2.76 86.87) (layer F.Fab) (width 0.1))
  (fp_line (start -2.76 86.87) (end -2.76 -8.13) (layer F.Fab) (width 0.1))
  (fp_line (start -2.87 -8.24) (end 7.95 -8.24) (layer F.SilkS) (width 0.12))
  (fp_line (start 7.95 -8.24) (end 7.95 86.98) (layer F.SilkS) (width 0.12))
  (fp_line (start 7.95 86.98) (end -2.87 86.98) (layer F.SilkS) (width 0.12))
  (fp_line (start -2.87 86.98) (end -2.87 -8.24) (layer F.SilkS) (width 0.12))
  (fp_line (start -3.26 -8.63) (end 8.34 -8.63) (layer F.CrtYd) (width 0.05))
  (fp_line (start 8.34 -8.63) (end 8.34 87.37) (layer F.CrtYd) (width 0.05))
  (fp_line (start 8.34 87.37) (end -3.26 87.37) (layer F.CrtYd) (width 0.05))
  (fp_line (start -3.26 87.37) (end -3.26 -8.63) (layer F.CrtYd) (width 0.05))
  (fp_line (start -3.06 0) (end -3.74 -0.3) (layer F.SilkS) (width 0.12))
  (fp_line (start -3.74 -0.3) (end -3.74 0.3) (layer F.SilkS) (width 0.12))
  (fp_line (start -3.74 0.3) (end -3.06 0) (layer F.SilkS) (width 0.12))
  (fp_line (start -2.76 -0.5) (end -2.06 0) (layer F.Fab) (width 0.1))
  (fp_line (start -2.06 0) (end -2.76 0.5) (layer F.Fab) (width 0.1))
  (fp_line (start -1.71 -3.131) (end 3.79 -3.131) (layer F.SilkS) (width 0.12))
  (fp_line (start 3.79 -3.131) (end 3.79 -2.131) (layer F.SilkS) (width 0.12))
  (fp_line (start 3.79 -2.131) (end 6.79 -2.131) (layer F.SilkS) (width 0.12))
  (fp_line (start 6.79 -2.131) (end 6.79 80.87) (layer F.SilkS) (width 0.12))
  (fp_line (start 6.79 80.87) (end 3.79 80.87) (layer F.SilkS) (width 0.12))
  (fp_line (start 3.79 80.87) (end 3.79 81.87) (layer F.SilkS) (width 0.12))
  (fp_line (start 3.79 81.87) (end -1.71 81.87) (layer F.SilkS) (width 0.12))
  (fp_line (start -1.71 81.87) (end -1.71 -3.131) (layer F.SilkS) (width 0.12))
  (pad a1 thru_hole roundrect (at 0 0) (size 1.55 1.55) (drill 1) (layers *.Cu *.Mask) (roundrect_rratio 0.16129))
  (pad a2 thru_hole circle (at 0 2.54) (size 1.55 1.55) (drill 1) (layers *.Cu *.Mask))
  (pad a3 thru_hole circle (at 0 5.08) (size 1.55 1.55) (drill 1) (layers *.Cu *.Mask))
  (pad a4 thru_hole circle (at 0 7.62) (size 1.55 1.55) (drill 1) (layers *.Cu *.Mask))
  (pad a5 thru_hole circle (at 0 10.16) (size 1.55 1.55) (drill 1) (layers *.Cu *.Mask))
  (pad a6 thru_hole circle (at 0 12.7) (size 1.55 1.55) (drill 1) (layers *.Cu *.Mask))
  (pad a7 thru_hole circle (at 0 15.24) (size 1.55 1.55) (drill 1) (layers *.Cu *.Mask))
  (pad a8 thru_hole circle (at 0 17.78) (size 1.55 1.55) (drill 1) (layers *.Cu *.Mask))
  (pad a9 thru_hole circle (at 0 20.32) (size 1.55 1.55) (drill 1) (layers *.Cu *.Mask))
  (pad a10 thru_hole circle (at 0 22.86) (size 1.55 1.55) (drill 1) (layers *.Cu *.Mask))
  (pad a11 thru_hole circle (at 0 25.4) (size 1.55 1.55) (drill 1) (layers *.Cu *.Mask))
  (pad a12 thru_hole circle (at 0 27.94) (size 1.55 1.55) (drill 1) (layers *.Cu *.Mask))
  (pad a13 thru_hole circle (at 0 30.48) (size 1.55 1.55) (drill 1) (layers *.Cu *.Mask))
  (pad a14 thru_hole circle (at 0 33.02) (size 1.55 1.55) (drill 1) (layers *.Cu *.Mask))
  (pad a15 thru_hole circle (at 0 35.56) (size 1.55 1.55) (drill 1) (layers *.Cu *.Mask))
  (pad a16 thru_hole circle (at 0 38.1) (size 1.55 1.55) (drill 1) (layers *.Cu *.Mask))
  (pad a17 thru_hole circle (at 0 40.64) (size 1.55 1.55) (drill 1) (layers *.Cu *.Mask))
  (pad a18 thru_hole circle (at 0 43.18) (size 1.55 1.55) (drill 1) (layers *.Cu *.Mask))
  (pad a19 thru_hole circle (at 0 45.72) (size 1.55 1.55) (drill 1) (layers *.Cu *.Mask))
  (pad a20 thru_hole circle (at 0 48.26) (size 1.55 1.55) (drill 1) (layers *.Cu *.Mask))
  (pad a21 thru_hole circle (at 0 50.8) (size 1.55 1.55) (drill 1) (layers *.Cu *.Mask))
  (pad a22 thru_hole circle (at 0 53.34) (size 1.55 1.55) (drill 1) (layers *.Cu *.Mask))
  (pad a23 thru_hole circle (at 0 55.88) (size 1.55 1.55) (drill 1) (layers *.Cu *.Mask))
  (pad a24 thru_hole circle (at 0 58.42) (size 1.55 1.55) (drill 1) (layers *.Cu *.Mask))
  (pad a25 thru_hole circle (at 0 60.96) (size 1.55 1.55) (drill 1) (layers *.Cu *.Mask))
  (pad a26 thru_hole circle (at 0 63.5) (size 1.55 1.55) (drill 1) (layers *.Cu *.Mask))
  (pad a27 thru_hole circle (at 0 66.04) (size 1.55 1.55) (drill 1) (layers *.Cu *.Mask))
  (pad a28 thru_hole circle (at 0 68.58) (size 1.55 1.55) (drill 1) (layers *.Cu *.Mask))
  (pad a29 thru_hole circle (at 0 71.12) (size 1.55 1.55) (drill 1) (layers *.Cu *.Mask))
  (pad a30 thru_hole circle (at 0 73.66) (size 1.55 1.55) (drill 1) (layers *.Cu *.Mask))
  (pad a31 thru_hole circle (at 0 76.2) (size 1.55 1.55) (drill 1) (layers *.Cu *.Mask))
  (pad a32 thru_hole circle (at 0 78.74) (size 1.55 1.55) (drill 1) (layers *.Cu *.Mask))
  (pad "" np_thru_hole circle (at 2.24 -5.63) (size 2.85 2.85) (drill 2.85) (layers *.Cu *.Mask))
  (pad "" np_thru_hole circle (at 2.24 84.37) (size 2.85 2.85) (drill 2.85) (layers *.Cu *.Mask))
  (fp_text user %R (at 2.54 39.37) (layer F.Fab)
    (effects (font (size 1 1) (thickness 0.15)))
  )
  (model ${KICAD6_3DMODEL_DIR}/Connector_DIN.3dshapes/DIN41612_C_1x32_Female_Vertical_THT.wrl
    (at (xyz 0 0 0))
    (scale (xyz 1 1 1))
    (rotate (xyz 0 0 0))
  )
)