(module DIN41612_E_2x16_Female_Vertical_THT (layer F.Cu) (tedit 5EAFCB80)
  (descr "DIN41612 connector, type E, Vertical, 5 rows 32 pins wide, https://www.erni-x-press.com/de/downloads/kataloge/englische_kataloge/erni-din41612-iec60603-2-e.pdf")
  (tags "DIN 41612 IEC 60603 E")
  (fp_text reference REF** (at 5.08 -9.13) (layer F.SilkS)
    (effects (font (size 1 1) (thickness 0.15)))
  )
  (fp_text value DIN41612_E_2x16_Female_Vertical_THT (at 5.08 87.87) (layer F.Fab)
    (effects (font (size 1 1) (thickness 0.15)))
  )
  (fp_line (start -1.72 -3.13) (end 8.88 -3.13) (layer F.Fab) (width 0.1))
  (fp_line (start 8.88 -3.13) (end 8.88 -2.13) (layer F.Fab) (width 0.1))
  (fp_line (start 8.88 -2.13) (end 11.88 -2.13) (layer F.Fab) (width 0.1))
  (fp_line (start 11.88 -2.13) (end 11.88 80.87) (layer F.Fab) (width 0.1))
  (fp_line (start 11.88 80.87) (end 8.88 80.87) (layer F.Fab) (width 0.1))
  (fp_line (start 8.88 80.87) (end 8.88 81.87) (layer F.Fab) (width 0.1))
  (fp_line (start 8.88 81.87) (end -1.72 81.87) (layer F.Fab) (width 0.1))
  (fp_line (start -1.72 81.87) (end -1.72 -3.13) (layer F.Fab) (width 0.1))
  (fp_line (start -2.77 -8.13) (end 12.93 -8.13) (layer F.Fab) (width 0.1))
  (fp_line (start 12.93 -8.13) (end 12.93 86.87) (layer F.Fab) (width 0.1))
  (fp_line (start 12.93 86.87) (end -2.77 86.87) (layer F.Fab) (width 0.1))
  (fp_line (start -2.77 86.87) (end -2.77 -8.13) (layer F.Fab) (width 0.1))
  (fp_line (start -2.88 -8.24) (end 13.04 -8.24) (layer F.SilkS) (width 0.12))
  (fp_line (start 13.04 -8.24) (end 13.04 86.98) (layer F.SilkS) (width 0.12))
  (fp_line (start 13.04 86.98) (end -2.88 86.98) (layer F.SilkS) (width 0.12))
  (fp_line (start -2.88 86.98) (end -2.88 -8.24) (layer F.SilkS) (width 0.12))
  (fp_line (start -3.26 -8.63) (end 13.43 -8.63) (layer F.CrtYd) (width 0.05))
  (fp_line (start 13.43 -8.63) (end 13.43 87.37) (layer F.CrtYd) (width 0.05))
  (fp_line (start 13.43 87.37) (end -3.26 87.37) (layer F.CrtYd) (width 0.05))
  (fp_line (start -3.26 87.37) (end -3.26 -8.63) (layer F.CrtYd) (width 0.05))
  (fp_line (start -3.07 2.54) (end -3.75 2.24) (layer F.SilkS) (width 0.12))
  (fp_line (start -3.75 2.24) (end -3.75 2.84) (layer F.SilkS) (width 0.12))
  (fp_line (start -3.75 2.84) (end -3.07 2.54) (layer F.SilkS) (width 0.12))
  (fp_line (start -2.77 2.04) (end -2.07 2.54) (layer F.Fab) (width 0.1))
  (fp_line (start -2.07 2.54) (end -2.77 3.04) (layer F.Fab) (width 0.1))
  (fp_line (start -1.72 -3.131) (end 8.88 -3.131) (layer F.SilkS) (width 0.12))
  (fp_line (start 8.88 -3.131) (end 8.88 -2.131) (layer F.SilkS) (width 0.12))
  (fp_line (start 8.88 -2.131) (end 11.88 -2.131) (layer F.SilkS) (width 0.12))
  (fp_line (start 11.88 -2.131) (end 11.88 80.87) (layer F.SilkS) (width 0.12))
  (fp_line (start 11.88 80.87) (end 8.88 80.87) (layer F.SilkS) (width 0.12))
  (fp_line (start 8.88 80.87) (end 8.88 81.87) (layer F.SilkS) (width 0.12))
  (fp_line (start 8.88 81.87) (end -1.72 81.87) (layer F.SilkS) (width 0.12))
  (fp_line (start -1.72 81.87) (end -1.72 -3.131) (layer F.SilkS) (width 0.12))
  (pad a2 thru_hole roundrect (at 0 2.54) (size 2.6 2.6) (drill 1.6) (layers *.Cu *.Mask) (roundrect_rratio 0.096154))
  (pad a4 thru_hole circle (at 0 7.62) (size 2.6 2.6) (drill 1.6) (layers *.Cu *.Mask))
  (pad a6 thru_hole circle (at 0 12.7) (size 2.6 2.6) (drill 1.6) (layers *.Cu *.Mask))
  (pad a8 thru_hole circle (at 0 17.78) (size 2.6 2.6) (drill 1.6) (layers *.Cu *.Mask))
  (pad a10 thru_hole circle (at 0 22.86) (size 2.6 2.6) (drill 1.6) (layers *.Cu *.Mask))
  (pad a12 thru_hole circle (at 0 27.94) (size 2.6 2.6) (drill 1.6) (layers *.Cu *.Mask))
  (pad a14 thru_hole circle (at 0 33.02) (size 2.6 2.6) (drill 1.6) (layers *.Cu *.Mask))
  (pad a16 thru_hole circle (at 0 38.1) (size 2.6 2.6) (drill 1.6) (layers *.Cu *.Mask))
  (pad a18 thru_hole circle (at 0 43.18) (size 2.6 2.6) (drill 1.6) (layers *.Cu *.Mask))
  (pad a20 thru_hole circle (at 0 48.26) (size 2.6 2.6) (drill 1.6) (layers *.Cu *.Mask))
  (pad a22 thru_hole circle (at 0 53.34) (size 2.6 2.6) (drill 1.6) (layers *.Cu *.Mask))
  (pad a24 thru_hole circle (at 0 58.42) (size 2.6 2.6) (drill 1.6) (layers *.Cu *.Mask))
  (pad a26 thru_hole circle (at 0 63.5) (size 2.6 2.6) (drill 1.6) (layers *.Cu *.Mask))
  (pad a28 thru_hole circle (at 0 68.58) (size 2.6 2.6) (drill 1.6) (layers *.Cu *.Mask))
  (pad a30 thru_hole circle (at 0 73.66) (size 2.6 2.6) (drill 1.6) (layers *.Cu *.Mask))
  (pad a32 thru_hole circle (at 0 78.74) (size 2.6 2.6) (drill 1.6) (layers *.Cu *.Mask))
  (pad e2 thru_hole circle (at 10.16 2.54) (size 2.6 2.6) (drill 1.6) (layers *.Cu *.Mask))
  (pad e4 thru_hole circle (at 10.16 7.62) (size 2.6 2.6) (drill 1.6) (layers *.Cu *.Mask))
  (pad e6 thru_hole circle (at 10.16 12.7) (size 2.6 2.6) (drill 1.6) (layers *.Cu *.Mask))
  (pad e8 thru_hole circle (at 10.16 17.78) (size 2.6 2.6) (drill 1.6) (layers *.Cu *.Mask))
  (pad e10 thru_hole circle (at 10.16 22.86) (size 2.6 2.6) (drill 1.6) (layers *.Cu *.Mask))
  (pad e12 thru_hole circle (at 10.16 27.94) (size 2.6 2.6) (drill 1.6) (layers *.Cu *.Mask))
  (pad e14 thru_hole circle (at 10.16 33.02) (size 2.6 2.6) (drill 1.6) (layers *.Cu *.Mask))
  (pad e16 thru_hole circle (at 10.16 38.1) (size 2.6 2.6) (drill 1.6) (layers *.Cu *.Mask))
  (pad e18 thru_hole circle (at 10.16 43.18) (size 2.6 2.6) (drill 1.6) (layers *.Cu *.Mask))
  (pad e20 thru_hole circle (at 10.16 48.26) (size 2.6 2.6) (drill 1.6) (layers *.Cu *.Mask))
  (pad e22 thru_hole circle (at 10.16 53.34) (size 2.6 2.6) (drill 1.6) (layers *.Cu *.Mask))
  (pad e24 thru_hole circle (at 10.16 58.42) (size 2.6 2.6) (drill 1.6) (layers *.Cu *.Mask))
  (pad e26 thru_hole circle (at 10.16 63.5) (size 2.6 2.6) (drill 1.6) (layers *.Cu *.Mask))
  (pad e28 thru_hole circle (at 10.16 68.58) (size 2.6 2.6) (drill 1.6) (layers *.Cu *.Mask))
  (pad e30 thru_hole circle (at 10.16 73.66) (size 2.6 2.6) (drill 1.6) (layers *.Cu *.Mask))
  (pad e32 thru_hole circle (at 10.16 78.74) (size 2.6 2.6) (drill 1.6) (layers *.Cu *.Mask))
  (pad "" np_thru_hole circle (at 2.24 -5.63) (size 2.85 2.85) (drill 2.85) (layers *.Cu *.Mask))
  (pad "" np_thru_hole circle (at 2.24 84.37) (size 2.85 2.85) (drill 2.85) (layers *.Cu *.Mask))
  (fp_text user %R (at 5.08 39.37) (layer F.Fab)
    (effects (font (size 1 1) (thickness 0.15)))
  )
  (model ${KICAD6_3DMODEL_DIR}/Connector_DIN.3dshapes/DIN41612_E_2x16_Female_Vertical_THT.wrl
    (at (xyz 0 0 0))
    (scale (xyz 1 1 1))
    (rotate (xyz 0 0 0))
  )
)