(module DIN41612_Q2_2x16_Male_Vertical_THT (layer F.Cu) (tedit 5EAFCB80)
  (descr "DIN41612 connector, type Q/2, Vertical, 2 rows 16 pins wide, https://www.erni-x-press.com/de/downloads/kataloge/englische_kataloge/erni-din41612-iec60603-2-e.pdf")
  (tags "DIN 41612 IEC 60603 Q/2")
  (fp_text reference REF** (at 1.27 -9.45) (layer F.SilkS)
    (effects (font (size 1 1) (thickness 0.15)))
  )
  (fp_text value DIN41612_Q2_2x16_Male_Vertical_THT (at 1.27 47.55) (layer F.Fab)
    (effects (font (size 1 1) (thickness 0.15)))
  )
  (fp_line (start -1.83 -3.15) (end 1.87 -3.15) (layer F.Fab) (width 0.1))
  (fp_line (start 1.87 -3.15) (end 1.87 -2.15) (layer F.Fab) (width 0.1))
  (fp_line (start 1.87 -2.15) (end 4.37 -2.15) (layer F.Fab) (width 0.1))
  (fp_line (start 4.37 -2.15) (end 4.37 40.25) (layer F.Fab) (width 0.1))
  (fp_line (start 4.37 40.25) (end 1.87 40.25) (layer F.Fab) (width 0.1))
  (fp_line (start 1.87 40.25) (end 1.87 41.25) (layer F.Fab) (width 0.1))
  (fp_line (start 1.87 41.25) (end -1.83 41.25) (layer F.Fab) (width 0.1))
  (fp_line (start -1.83 41.25) (end -1.83 -3.15) (layer F.Fab) (width 0.1))
  (fp_line (start -3.03 42.75) (end -0.76 42.75) (layer F.Fab) (width 0.1))
  (fp_line (start -0.76 42.75) (end -0.76 41.25) (layer F.Fab) (width 0.1))
  (fp_line (start 1.87 41.25) (end 5.24 41.25) (layer F.Fab) (width 0.1))
  (fp_line (start 5.24 41.25) (end 5.24 42.75) (layer F.Fab) (width 0.1))
  (fp_line (start 5.24 42.75) (end 5.57 42.75) (layer F.Fab) (width 0.1))
  (fp_line (start -3.03 -4.65) (end -0.76 -4.65) (layer F.Fab) (width 0.1))
  (fp_line (start -0.76 -4.65) (end -0.76 -3.15) (layer F.Fab) (width 0.1))
  (fp_line (start 1.87 -3.15) (end 5.24 -3.15) (layer F.Fab) (width 0.1))
  (fp_line (start 5.24 -3.15) (end 5.24 -4.65) (layer F.Fab) (width 0.1))
  (fp_line (start 5.24 -4.65) (end 5.57 -4.65) (layer F.Fab) (width 0.1))
  (fp_line (start -3.03 -8.45) (end 5.57 -8.45) (layer F.Fab) (width 0.1))
  (fp_line (start 5.57 -8.45) (end 5.57 46.55) (layer F.Fab) (width 0.1))
  (fp_line (start 5.57 46.55) (end -3.03 46.55) (layer F.Fab) (width 0.1))
  (fp_line (start -3.03 46.55) (end -3.03 -8.45) (layer F.Fab) (width 0.1))
  (fp_line (start -3.14 -8.56) (end 5.68 -8.56) (layer F.SilkS) (width 0.12))
  (fp_line (start 5.68 -8.56) (end 5.68 46.66) (layer F.SilkS) (width 0.12))
  (fp_line (start 5.68 46.66) (end -3.14 46.66) (layer F.SilkS) (width 0.12))
  (fp_line (start -3.14 46.66) (end -3.14 -8.56) (layer F.SilkS) (width 0.12))
  (fp_line (start -3.53 -8.94) (end 6.07 -8.94) (layer F.CrtYd) (width 0.05))
  (fp_line (start 6.07 -8.94) (end 6.07 47.05) (layer F.CrtYd) (width 0.05))
  (fp_line (start 6.07 47.05) (end -3.53 47.05) (layer F.CrtYd) (width 0.05))
  (fp_line (start -3.53 47.05) (end -3.53 -8.94) (layer F.CrtYd) (width 0.05))
  (fp_line (start -3.33 0) (end -4.01 -0.3) (layer F.SilkS) (width 0.12))
  (fp_line (start -4.01 -0.3) (end -4.01 0.3) (layer F.SilkS) (width 0.12))
  (fp_line (start -4.01 0.3) (end -3.33 0) (layer F.SilkS) (width 0.12))
  (fp_line (start -3.03 -0.5) (end -2.33 0) (layer F.Fab) (width 0.1))
  (fp_line (start -2.33 0) (end -3.03 0.5) (layer F.Fab) (width 0.1))
  (fp_line (start -1.83 -3.15) (end 1.87 -3.15) (layer F.SilkS) (width 0.12))
  (fp_line (start 1.87 -3.15) (end 1.87 -2.15) (layer F.SilkS) (width 0.12))
  (fp_line (start 1.87 -2.15) (end 4.37 -2.15) (layer F.SilkS) (width 0.12))
  (fp_line (start 4.37 -2.15) (end 4.37 40.25) (layer F.SilkS) (width 0.12))
  (fp_line (start 4.37 40.25) (end 1.87 40.25) (layer F.SilkS) (width 0.12))
  (fp_line (start 1.87 40.25) (end 1.87 41.25) (layer F.SilkS) (width 0.12))
  (fp_line (start 1.87 41.25) (end -1.83 41.25) (layer F.SilkS) (width 0.12))
  (fp_line (start -1.83 41.25) (end -1.83 -3.15) (layer F.SilkS) (width 0.12))
  (pad a1 thru_hole roundrect (at 0 0) (size 1.55 1.55) (drill 1) (layers *.Cu *.Mask) (roundrect_rratio 0.16129))
  (pad a2 thru_hole circle (at 0 2.54) (size 1.55 1.55) (drill 1) (layers *.Cu *.Mask))
  (pad a3 thru_hole circle (at 0 5.08) (size 1.55 1.55) (drill 1) (layers *.Cu *.Mask))
  (pad a4 thru_hole circle (at 0 7.62) (size 1.55 1.55) (drill 1) (layers *.Cu *.Mask))
  (pad a5 thru_hole circle (at 0 10.16) (size 1.55 1.55) (drill 1) (layers *.Cu *.Mask))
  (pad a6 thru_hole circle (at 0 12.7) (size 1.55 1.55) (drill 1) (layers *.Cu *.Mask))
  (pad a7 thru_hole circle (at 0 15.24) (size 1.55 1.55) (drill 1) (layers *.Cu *.Mask))
  (pad a8 thru_hole circle (at 0 17.78) (size 1.55 1.55) (drill 1) (layers *.Cu *.Mask))
  (pad a9 thru_hole circle (at 0 20.32) (size 1.55 1.55) (drill 1) (layers *.Cu *.Mask))
  (pad a10 thru_hole circle (at 0 22.86) (size 1.55 1.55) (drill 1) (layers *.Cu *.Mask))
  (pad a11 thru_hole circle (at 0 25.4) (size 1.55 1.55) (drill 1) (layers *.Cu *.Mask))
  (pad a12 thru_hole circle (at 0 27.94) (size 1.55 1.55) (drill 1) (layers *.Cu *.Mask))
  (pad a13 thru_hole circle (at 0 30.48) (size 1.55 1.55) (drill 1) (layers *.Cu *.Mask))
  (pad a14 thru_hole circle (at 0 33.02) (size 1.55 1.55) (drill 1) (layers *.Cu *.Mask))
  (pad a15 thru_hole circle (at 0 35.56) (size 1.55 1.55) (drill 1) (layers *.Cu *.Mask))
  (pad a16 thru_hole circle (at 0 38.1) (size 1.55 1.55) (drill 1) (layers *.Cu *.Mask))
  (pad b1 thru_hole circle (at 2.54 0) (size 1.55 1.55) (drill 1) (layers *.Cu *.Mask))
  (pad b2 thru_hole circle (at 2.54 2.54) (size 1.55 1.55) (drill 1) (layers *.Cu *.Mask))
  (pad b3 thru_hole circle (at 2.54 5.08) (size 1.55 1.55) (drill 1) (layers *.Cu *.Mask))
  (pad b4 thru_hole circle (at 2.54 7.62) (size 1.55 1.55) (drill 1) (layers *.Cu *.Mask))
  (pad b5 thru_hole circle (at 2.54 10.16) (size 1.55 1.55) (drill 1) (layers *.Cu *.Mask))
  (pad b6 thru_hole circle (at 2.54 12.7) (size 1.55 1.55) (drill 1) (layers *.Cu *.Mask))
  (pad b7 thru_hole circle (at 2.54 15.24) (size 1.55 1.55) (drill 1) (layers *.Cu *.Mask))
  (pad b8 thru_hole circle (at 2.54 17.78) (size 1.55 1.55) (drill 1) (layers *.Cu *.Mask))
  (pad b9 thru_hole circle (at 2.54 20.32) (size 1.55 1.55) (drill 1) (layers *.Cu *.Mask))
  (pad b10 thru_hole circle (at 2.54 22.86) (size 1.55 1.55) (drill 1) (layers *.Cu *.Mask))
  (pad b11 thru_hole circle (at 2.54 25.4) (size 1.55 1.55) (drill 1) (layers *.Cu *.Mask))
  (pad b12 thru_hole circle (at 2.54 27.94) (size 1.55 1.55) (drill 1) (layers *.Cu *.Mask))
  (pad b13 thru_hole circle (at 2.54 30.48) (size 1.55 1.55) (drill 1) (layers *.Cu *.Mask))
  (pad b14 thru_hole circle (at 2.54 33.02) (size 1.55 1.55) (drill 1) (layers *.Cu *.Mask))
  (pad b15 thru_hole circle (at 2.54 35.56) (size 1.55 1.55) (drill 1) (layers *.Cu *.Mask))
  (pad b16 thru_hole circle (at 2.54 38.1) (size 1.55 1.55) (drill 1) (layers *.Cu *.Mask))
  (pad "" np_thru_hole circle (at 2.24 -5.95) (size 2.85 2.85) (drill 2.85) (layers *.Cu *.Mask))
  (pad "" np_thru_hole circle (at 2.24 44.05) (size 2.85 2.85) (drill 2.85) (layers *.Cu *.Mask))
  (fp_text user %R (at 1.27 19.05) (layer F.Fab)
    (effects (font (size 1 1) (thickness 0.15)))
  )
  (model ${KICAD6_3DMODEL_DIR}/Connector_DIN.3dshapes/DIN41612_Q2_2x16_Male_Vertical_THT.wrl
    (at (xyz 0 0 0))
    (scale (xyz 1 1 1))
    (rotate (xyz 0 0 0))
  )
)