(module PhoenixContact_MC_1,5_4-GF-3.81_1x04_P3.81mm_Horizontal_ThreadedFlange_MountHole (layer F.Cu) (tedit 5B784ED1)
  (descr "Generic Phoenix Contact connector footprint for: MC_1,5/4-GF-3.81; number of pins: 04; pin pitch: 3.81mm; Angled; threaded flange; footprint includes mount hole for mounting screw: ISO 1481-ST 2.2x4.5 C or ISO 7049-ST 2.2x4.5 C (http://www.fasteners.eu/standards/ISO/7049/) || order number: 1827884 8A 160V")
  (tags "phoenix_contact connector MC_01x04_GF_3.81mm_MH")
  (fp_text reference REF** (at 5.72 -3) (layer F.SilkS)
    (effects (font (size 1 1) (thickness 0.15)))
  )
  (fp_text value PhoenixContact_MC_1,5_4-GF-3.81_1x04_P3.81mm_Horizontal_ThreadedFlange_MountHole (at 5.72 9.2) (layer F.Fab)
    (effects (font (size 1 1) (thickness 0.15)))
  )
  (fp_circle (center -4.5 0.9) (end -2.29 0.9) (layer B.SilkS) (width 0.12))
  (fp_circle (center 15.93 0.9) (end 18.14 0.9) (layer B.SilkS) (width 0.12))
  (fp_circle (center 15.93 0.9) (end 18.03 0.9) (layer B.Fab) (width 0.1))
  (fp_circle (center -4.5 0.9) (end -2.4 0.9) (layer B.Fab) (width 0.1))
  (fp_circle (center 15.93 0.9) (end 18.53 0.9) (layer B.CrtYd) (width 0.05))
  (fp_circle (center -4.5 0.9) (end -1.9 0.9) (layer B.CrtYd) (width 0.05))
  (fp_line (start -7.21 -1.31) (end -7.21 8.11) (layer F.SilkS) (width 0.12))
  (fp_line (start -7.21 8.11) (end 18.64 8.11) (layer F.SilkS) (width 0.12))
  (fp_line (start 18.64 8.11) (end 18.64 -1.31) (layer F.SilkS) (width 0.12))
  (fp_line (start -7.21 -1.31) (end -1.05 -1.31) (layer F.SilkS) (width 0.12))
  (fp_line (start 18.64 -1.31) (end 12.48 -1.31) (layer F.SilkS) (width 0.12))
  (fp_line (start 1.05 -1.31) (end 2.76 -1.31) (layer F.SilkS) (width 0.12))
  (fp_line (start 4.86 -1.31) (end 6.57 -1.31) (layer F.SilkS) (width 0.12))
  (fp_line (start 8.67 -1.31) (end 10.38 -1.31) (layer F.SilkS) (width 0.12))
  (fp_line (start -7.1 -1.2) (end -7.1 8) (layer F.Fab) (width 0.1))
  (fp_line (start -7.1 8) (end 18.53 8) (layer F.Fab) (width 0.1))
  (fp_line (start 18.53 8) (end 18.53 -1.2) (layer F.Fab) (width 0.1))
  (fp_line (start 18.53 -1.2) (end -7.1 -1.2) (layer F.Fab) (width 0.1))
  (fp_line (start -2.41 4.8) (end 13.84 4.8) (layer F.SilkS) (width 0.12))
  (fp_line (start -2.41 -1.31) (end -2.41 8.11) (layer F.SilkS) (width 0.12))
  (fp_line (start 13.84 -1.31) (end 13.84 8.11) (layer F.SilkS) (width 0.12))
  (fp_line (start -7.71 -2.3) (end -7.71 8.5) (layer F.CrtYd) (width 0.05))
  (fp_line (start -7.71 8.5) (end 19.03 8.5) (layer F.CrtYd) (width 0.05))
  (fp_line (start 19.03 8.5) (end 19.03 -2.3) (layer F.CrtYd) (width 0.05))
  (fp_line (start 19.03 -2.3) (end -7.71 -2.3) (layer F.CrtYd) (width 0.05))
  (fp_line (start 0.3 -2.6) (end 0 -2) (layer F.SilkS) (width 0.12))
  (fp_line (start 0 -2) (end -0.3 -2.6) (layer F.SilkS) (width 0.12))
  (fp_line (start -0.3 -2.6) (end 0.3 -2.6) (layer F.SilkS) (width 0.12))
  (fp_line (start 0.8 -1.2) (end 0 0) (layer F.Fab) (width 0.1))
  (fp_line (start 0 0) (end -0.8 -1.2) (layer F.Fab) (width 0.1))
  (pad 1 thru_hole roundrect (at 0 0) (size 1.8 3.6) (drill 1.2) (layers *.Cu *.Mask) (roundrect_rratio 0.138889))
  (pad 2 thru_hole oval (at 3.81 0) (size 1.8 3.6) (drill 1.2) (layers *.Cu *.Mask))
  (pad 3 thru_hole oval (at 7.62 0) (size 1.8 3.6) (drill 1.2) (layers *.Cu *.Mask))
  (pad 4 thru_hole oval (at 11.43 0) (size 1.8 3.6) (drill 1.2) (layers *.Cu *.Mask))
  (pad "" np_thru_hole circle (at -4.5 0.9) (size 2.4 2.4) (drill 2.4) (layers *.Cu *.Mask))
  (pad "" np_thru_hole circle (at 15.93 0.9) (size 2.4 2.4) (drill 2.4) (layers *.Cu *.Mask))
  (fp_text user %R (at 5.72 -0.5) (layer F.Fab)
    (effects (font (size 1 1) (thickness 0.15)))
  )
  (model ${KICAD6_3DMODEL_DIR}/Connector_Phoenix_MC.3dshapes/PhoenixContact_MC_1,5_4-GF-3.81_1x04_P3.81mm_Horizontal_ThreadedFlange_MountHole.wrl
    (at (xyz 0 0 0))
    (scale (xyz 1 1 1))
    (rotate (xyz 0 0 0))
  )
)