(module PhoenixContact_MC_1,5_9-G-3.5_1x09_P3.50mm_Horizontal (layer F.Cu) (tedit 5B784ED0)
  (descr "Generic Phoenix Contact connector footprint for: MC_1,5/9-G-3.5; number of pins: 09; pin pitch: 3.50mm; Angled || order number: 1844281 8A 160V")
  (tags "phoenix_contact connector MC_01x09_G_3.5mm")
  (fp_text reference REF** (at 14 -3) (layer F.SilkS)
    (effects (font (size 1 1) (thickness 0.15)))
  )
  (fp_text value PhoenixContact_MC_1,5_9-G-3.5_1x09_P3.50mm_Horizontal (at 14 9.2) (layer F.Fab)
    (effects (font (size 1 1) (thickness 0.15)))
  )
  (fp_line (start -2.56 -1.31) (end -2.56 8.11) (layer F.SilkS) (width 0.12))
  (fp_line (start -2.56 8.11) (end 30.56 8.11) (layer F.SilkS) (width 0.12))
  (fp_line (start 30.56 8.11) (end 30.56 -1.31) (layer F.SilkS) (width 0.12))
  (fp_line (start -2.56 -1.31) (end -1.05 -1.31) (layer F.SilkS) (width 0.12))
  (fp_line (start 30.56 -1.31) (end 29.05 -1.31) (layer F.SilkS) (width 0.12))
  (fp_line (start 1.05 -1.31) (end 2.45 -1.31) (layer F.SilkS) (width 0.12))
  (fp_line (start 4.55 -1.31) (end 5.95 -1.31) (layer F.SilkS) (width 0.12))
  (fp_line (start 8.05 -1.31) (end 9.45 -1.31) (layer F.SilkS) (width 0.12))
  (fp_line (start 11.55 -1.31) (end 12.95 -1.31) (layer F.SilkS) (width 0.12))
  (fp_line (start 15.05 -1.31) (end 16.45 -1.31) (layer F.SilkS) (width 0.12))
  (fp_line (start 18.55 -1.31) (end 19.95 -1.31) (layer F.SilkS) (width 0.12))
  (fp_line (start 22.05 -1.31) (end 23.45 -1.31) (layer F.SilkS) (width 0.12))
  (fp_line (start 25.55 -1.31) (end 26.95 -1.31) (layer F.SilkS) (width 0.12))
  (fp_line (start -2.45 -1.2) (end -2.45 8) (layer F.Fab) (width 0.1))
  (fp_line (start -2.45 8) (end 30.45 8) (layer F.Fab) (width 0.1))
  (fp_line (start 30.45 8) (end 30.45 -1.2) (layer F.Fab) (width 0.1))
  (fp_line (start 30.45 -1.2) (end -2.45 -1.2) (layer F.Fab) (width 0.1))
  (fp_line (start -2.56 4.8) (end 30.56 4.8) (layer F.SilkS) (width 0.12))
  (fp_line (start -3.06 -2.3) (end -3.06 8.5) (layer F.CrtYd) (width 0.05))
  (fp_line (start -3.06 8.5) (end 30.95 8.5) (layer F.CrtYd) (width 0.05))
  (fp_line (start 30.95 8.5) (end 30.95 -2.3) (layer F.CrtYd) (width 0.05))
  (fp_line (start 30.95 -2.3) (end -3.06 -2.3) (layer F.CrtYd) (width 0.05))
  (fp_line (start 0.3 -2.6) (end 0 -2) (layer F.SilkS) (width 0.12))
  (fp_line (start 0 -2) (end -0.3 -2.6) (layer F.SilkS) (width 0.12))
  (fp_line (start -0.3 -2.6) (end 0.3 -2.6) (layer F.SilkS) (width 0.12))
  (fp_line (start 0.8 -1.2) (end 0 0) (layer F.Fab) (width 0.1))
  (fp_line (start 0 0) (end -0.8 -1.2) (layer F.Fab) (width 0.1))
  (pad 1 thru_hole roundrect (at 0 0) (size 1.8 3.6) (drill 1.2) (layers *.Cu *.Mask) (roundrect_rratio 0.138889))
  (pad 2 thru_hole oval (at 3.5 0) (size 1.8 3.6) (drill 1.2) (layers *.Cu *.Mask))
  (pad 3 thru_hole oval (at 7 0) (size 1.8 3.6) (drill 1.2) (layers *.Cu *.Mask))
  (pad 4 thru_hole oval (at 10.5 0) (size 1.8 3.6) (drill 1.2) (layers *.Cu *.Mask))
  (pad 5 thru_hole oval (at 14 0) (size 1.8 3.6) (drill 1.2) (layers *.Cu *.Mask))
  (pad 6 thru_hole oval (at 17.5 0) (size 1.8 3.6) (drill 1.2) (layers *.Cu *.Mask))
  (pad 7 thru_hole oval (at 21 0) (size 1.8 3.6) (drill 1.2) (layers *.Cu *.Mask))
  (pad 8 thru_hole oval (at 24.5 0) (size 1.8 3.6) (drill 1.2) (layers *.Cu *.Mask))
  (pad 9 thru_hole oval (at 28 0) (size 1.8 3.6) (drill 1.2) (layers *.Cu *.Mask))
  (fp_text user %R (at 14 -0.5) (layer F.Fab)
    (effects (font (size 1 1) (thickness 0.15)))
  )
  (model ${KICAD6_3DMODEL_DIR}/Connector_Phoenix_MC.3dshapes/PhoenixContact_MC_1,5_9-G-3.5_1x09_P3.50mm_Horizontal.wrl
    (at (xyz 0 0 0))
    (scale (xyz 1 1 1))
    (rotate (xyz 0 0 0))
  )
)