(module PhoenixContact_MC_1,5_15-GF-3.5_1x15_P3.50mm_Horizontal_ThreadedFlange_MountHole (layer F.Cu) (tedit 5B784ED0)
  (descr "Generic Phoenix Contact connector footprint for: MC_1,5/15-GF-3.5; number of pins: 15; pin pitch: 3.50mm; Angled; threaded flange; footprint includes mount hole for mounting screw: ISO 1481-ST 2.2x4.5 C or ISO 7049-ST 2.2x4.5 C (http://www.fasteners.eu/standards/ISO/7049/) || order number: 1843923 8A 160V")
  (tags "phoenix_contact connector MC_01x15_GF_3.5mm_MH")
  (fp_text reference REF** (at 24.5 -3) (layer F.SilkS)
    (effects (font (size 1 1) (thickness 0.15)))
  )
  (fp_text value PhoenixContact_MC_1,5_15-GF-3.5_1x15_P3.50mm_Horizontal_ThreadedFlange_MountHole (at 24.5 9.2) (layer F.Fab)
    (effects (font (size 1 1) (thickness 0.15)))
  )
  (fp_circle (center -4.3 0.9) (end -2.09 0.9) (layer B.SilkS) (width 0.12))
  (fp_circle (center 53.3 0.9) (end 55.51 0.9) (layer B.SilkS) (width 0.12))
  (fp_circle (center 53.3 0.9) (end 55.4 0.9) (layer B.Fab) (width 0.1))
  (fp_circle (center -4.3 0.9) (end -2.2 0.9) (layer B.Fab) (width 0.1))
  (fp_circle (center 53.3 0.9) (end 55.9 0.9) (layer B.CrtYd) (width 0.05))
  (fp_circle (center -4.3 0.9) (end -1.7 0.9) (layer B.CrtYd) (width 0.05))
  (fp_line (start -7.01 -1.31) (end -7.01 8.11) (layer F.SilkS) (width 0.12))
  (fp_line (start -7.01 8.11) (end 56.01 8.11) (layer F.SilkS) (width 0.12))
  (fp_line (start 56.01 8.11) (end 56.01 -1.31) (layer F.SilkS) (width 0.12))
  (fp_line (start -7.01 -1.31) (end -1.05 -1.31) (layer F.SilkS) (width 0.12))
  (fp_line (start 56.01 -1.31) (end 50.05 -1.31) (layer F.SilkS) (width 0.12))
  (fp_line (start 1.05 -1.31) (end 2.45 -1.31) (layer F.SilkS) (width 0.12))
  (fp_line (start 4.55 -1.31) (end 5.95 -1.31) (layer F.SilkS) (width 0.12))
  (fp_line (start 8.05 -1.31) (end 9.45 -1.31) (layer F.SilkS) (width 0.12))
  (fp_line (start 11.55 -1.31) (end 12.95 -1.31) (layer F.SilkS) (width 0.12))
  (fp_line (start 15.05 -1.31) (end 16.45 -1.31) (layer F.SilkS) (width 0.12))
  (fp_line (start 18.55 -1.31) (end 19.95 -1.31) (layer F.SilkS) (width 0.12))
  (fp_line (start 22.05 -1.31) (end 23.45 -1.31) (layer F.SilkS) (width 0.12))
  (fp_line (start 25.55 -1.31) (end 26.95 -1.31) (layer F.SilkS) (width 0.12))
  (fp_line (start 29.05 -1.31) (end 30.45 -1.31) (layer F.SilkS) (width 0.12))
  (fp_line (start 32.55 -1.31) (end 33.95 -1.31) (layer F.SilkS) (width 0.12))
  (fp_line (start 36.05 -1.31) (end 37.45 -1.31) (layer F.SilkS) (width 0.12))
  (fp_line (start 39.55 -1.31) (end 40.95 -1.31) (layer F.SilkS) (width 0.12))
  (fp_line (start 43.05 -1.31) (end 44.45 -1.31) (layer F.SilkS) (width 0.12))
  (fp_line (start 46.55 -1.31) (end 47.95 -1.31) (layer F.SilkS) (width 0.12))
  (fp_line (start -6.9 -1.2) (end -6.9 8) (layer F.Fab) (width 0.1))
  (fp_line (start -6.9 8) (end 55.9 8) (layer F.Fab) (width 0.1))
  (fp_line (start 55.9 8) (end 55.9 -1.2) (layer F.Fab) (width 0.1))
  (fp_line (start 55.9 -1.2) (end -6.9 -1.2) (layer F.Fab) (width 0.1))
  (fp_line (start -2.21 4.8) (end 51.21 4.8) (layer F.SilkS) (width 0.12))
  (fp_line (start -2.21 -1.31) (end -2.21 8.11) (layer F.SilkS) (width 0.12))
  (fp_line (start 51.21 -1.31) (end 51.21 8.11) (layer F.SilkS) (width 0.12))
  (fp_line (start -7.51 -2.3) (end -7.51 8.5) (layer F.CrtYd) (width 0.05))
  (fp_line (start -7.51 8.5) (end 56.4 8.5) (layer F.CrtYd) (width 0.05))
  (fp_line (start 56.4 8.5) (end 56.4 -2.3) (layer F.CrtYd) (width 0.05))
  (fp_line (start 56.4 -2.3) (end -7.51 -2.3) (layer F.CrtYd) (width 0.05))
  (fp_line (start 0.3 -2.6) (end 0 -2) (layer F.SilkS) (width 0.12))
  (fp_line (start 0 -2) (end -0.3 -2.6) (layer F.SilkS) (width 0.12))
  (fp_line (start -0.3 -2.6) (end 0.3 -2.6) (layer F.SilkS) (width 0.12))
  (fp_line (start 0.8 -1.2) (end 0 0) (layer F.Fab) (width 0.1))
  (fp_line (start 0 0) (end -0.8 -1.2) (layer F.Fab) (width 0.1))
  (pad 1 thru_hole roundrect (at 0 0) (size 1.8 3.6) (drill 1.2) (layers *.Cu *.Mask) (roundrect_rratio 0.138889))
  (pad 2 thru_hole oval (at 3.5 0) (size 1.8 3.6) (drill 1.2) (layers *.Cu *.Mask))
  (pad 3 thru_hole oval (at 7 0) (size 1.8 3.6) (drill 1.2) (layers *.Cu *.Mask))
  (pad 4 thru_hole oval (at 10.5 0) (size 1.8 3.6) (drill 1.2) (layers *.Cu *.Mask))
  (pad 5 thru_hole oval (at 14 0) (size 1.8 3.6) (drill 1.2) (layers *.Cu *.Mask))
  (pad 6 thru_hole oval (at 17.5 0) (size 1.8 3.6) (drill 1.2) (layers *.Cu *.Mask))
  (pad 7 thru_hole oval (at 21 0) (size 1.8 3.6) (drill 1.2) (layers *.Cu *.Mask))
  (pad 8 thru_hole oval (at 24.5 0) (size 1.8 3.6) (drill 1.2) (layers *.Cu *.Mask))
  (pad 9 thru_hole oval (at 28 0) (size 1.8 3.6) (drill 1.2) (layers *.Cu *.Mask))
  (pad 10 thru_hole oval (at 31.5 0) (size 1.8 3.6) (drill 1.2) (layers *.Cu *.Mask))
  (pad 11 thru_hole oval (at 35 0) (size 1.8 3.6) (drill 1.2) (layers *.Cu *.Mask))
  (pad 12 thru_hole oval (at 38.5 0) (size 1.8 3.6) (drill 1.2) (layers *.Cu *.Mask))
  (pad 13 thru_hole oval (at 42 0) (size 1.8 3.6) (drill 1.2) (layers *.Cu *.Mask))
  (pad 14 thru_hole oval (at 45.5 0) (size 1.8 3.6) (drill 1.2) (layers *.Cu *.Mask))
  (pad 15 thru_hole oval (at 49 0) (size 1.8 3.6) (drill 1.2) (layers *.Cu *.Mask))
  (pad "" np_thru_hole circle (at -4.3 0.9) (size 2.4 2.4) (drill 2.4) (layers *.Cu *.Mask))
  (pad "" np_thru_hole circle (at 53.3 0.9) (size 2.4 2.4) (drill 2.4) (layers *.Cu *.Mask))
  (fp_text user %R (at 24.5 -0.5) (layer F.Fab)
    (effects (font (size 1 1) (thickness 0.15)))
  )
  (model ${KICAD6_3DMODEL_DIR}/Connector_Phoenix_MC.3dshapes/PhoenixContact_MC_1,5_15-GF-3.5_1x15_P3.50mm_Horizontal_ThreadedFlange_MountHole.wrl
    (at (xyz 0 0 0))
    (scale (xyz 1 1 1))
    (rotate (xyz 0 0 0))
  )
)