(module PhoenixContact_MC_1,5_2-GF-3.5_1x02_P3.50mm_Horizontal_ThreadedFlange (layer F.Cu) (tedit 5B784ED0)
  (descr "Generic Phoenix Contact connector footprint for: MC_1,5/2-GF-3.5; number of pins: 02; pin pitch: 3.50mm; Angled; threaded flange || order number: 1843790 8A 160V")
  (tags "phoenix_contact connector MC_01x02_GF_3.5mm")
  (fp_text reference REF** (at 1.75 -3) (layer F.SilkS)
    (effects (font (size 1 1) (thickness 0.15)))
  )
  (fp_text value PhoenixContact_MC_1,5_2-GF-3.5_1x02_P3.50mm_Horizontal_ThreadedFlange (at 1.75 9.2) (layer F.Fab)
    (effects (font (size 1 1) (thickness 0.15)))
  )
  (fp_line (start -7.01 -1.31) (end -7.01 8.11) (layer F.SilkS) (width 0.12))
  (fp_line (start -7.01 8.11) (end 10.51 8.11) (layer F.SilkS) (width 0.12))
  (fp_line (start 10.51 8.11) (end 10.51 -1.31) (layer F.SilkS) (width 0.12))
  (fp_line (start -7.01 -1.31) (end -1.05 -1.31) (layer F.SilkS) (width 0.12))
  (fp_line (start 10.51 -1.31) (end 4.55 -1.31) (layer F.SilkS) (width 0.12))
  (fp_line (start 1.05 -1.31) (end 2.45 -1.31) (layer F.SilkS) (width 0.12))
  (fp_line (start -6.9 -1.2) (end -6.9 8) (layer F.Fab) (width 0.1))
  (fp_line (start -6.9 8) (end 10.4 8) (layer F.Fab) (width 0.1))
  (fp_line (start 10.4 8) (end 10.4 -1.2) (layer F.Fab) (width 0.1))
  (fp_line (start 10.4 -1.2) (end -6.9 -1.2) (layer F.Fab) (width 0.1))
  (fp_line (start -2.21 4.8) (end 5.71 4.8) (layer F.SilkS) (width 0.12))
  (fp_line (start -2.21 -1.31) (end -2.21 8.11) (layer F.SilkS) (width 0.12))
  (fp_line (start 5.71 -1.31) (end 5.71 8.11) (layer F.SilkS) (width 0.12))
  (fp_line (start -7.51 -2.3) (end -7.51 8.5) (layer F.CrtYd) (width 0.05))
  (fp_line (start -7.51 8.5) (end 10.9 8.5) (layer F.CrtYd) (width 0.05))
  (fp_line (start 10.9 8.5) (end 10.9 -2.3) (layer F.CrtYd) (width 0.05))
  (fp_line (start 10.9 -2.3) (end -7.51 -2.3) (layer F.CrtYd) (width 0.05))
  (fp_line (start 0.3 -2.6) (end 0 -2) (layer F.SilkS) (width 0.12))
  (fp_line (start 0 -2) (end -0.3 -2.6) (layer F.SilkS) (width 0.12))
  (fp_line (start -0.3 -2.6) (end 0.3 -2.6) (layer F.SilkS) (width 0.12))
  (fp_line (start 0.8 -1.2) (end 0 0) (layer F.Fab) (width 0.1))
  (fp_line (start 0 0) (end -0.8 -1.2) (layer F.Fab) (width 0.1))
  (pad 1 thru_hole roundrect (at 0 0) (size 1.8 3.6) (drill 1.2) (layers *.Cu *.Mask) (roundrect_rratio 0.138889))
  (pad 2 thru_hole oval (at 3.5 0) (size 1.8 3.6) (drill 1.2) (layers *.Cu *.Mask))
  (fp_text user %R (at 1.75 -0.5) (layer F.Fab)
    (effects (font (size 1 1) (thickness 0.15)))
  )
  (model ${KICAD6_3DMODEL_DIR}/Connector_Phoenix_MC.3dshapes/PhoenixContact_MC_1,5_2-GF-3.5_1x02_P3.50mm_Horizontal_ThreadedFlange.wrl
    (at (xyz 0 0 0))
    (scale (xyz 1 1 1))
    (rotate (xyz 0 0 0))
  )
)