(module PhoenixContact_MCV_1,5_4-GF-3.5_1x04_P3.50mm_Vertical_ThreadedFlange_MountHole (layer F.Cu) (tedit 5B784ED1)
  (descr "Generic Phoenix Contact connector footprint for: MCV_1,5/4-GF-3.5; number of pins: 04; pin pitch: 3.50mm; Vertical; threaded flange; footprint includes mount hole for mounting screw: ISO 1481-ST 2.2x4.5 C or ISO 7049-ST 2.2x4.5 C (http://www.fasteners.eu/standards/ISO/7049/) || order number: 1843240 8A 160V")
  (tags "phoenix_contact connector MCV_01x04_GF_3.5mm_MH")
  (fp_text reference REF** (at 5.25 -5.45) (layer F.SilkS)
    (effects (font (size 1 1) (thickness 0.15)))
  )
  (fp_text value PhoenixContact_MCV_1,5_4-GF-3.5_1x04_P3.50mm_Vertical_ThreadedFlange_MountHole (at 5.25 4.2) (layer F.Fab)
    (effects (font (size 1 1) (thickness 0.15)))
  )
  (fp_arc (start 0 3.95) (end -0.75 2.25) (angle 47.6) (layer F.SilkS) (width 0.12))
  (fp_arc (start 3.5 3.95) (end 2.75 2.25) (angle 47.6) (layer F.SilkS) (width 0.12))
  (fp_arc (start 7 3.95) (end 6.25 2.25) (angle 47.6) (layer F.SilkS) (width 0.12))
  (fp_arc (start 10.5 3.95) (end 9.75 2.25) (angle 47.6) (layer F.SilkS) (width 0.12))
  (fp_circle (center -4.3 0) (end -2.4 0) (layer F.SilkS) (width 0.12))
  (fp_circle (center 14.8 0) (end 16.7 0) (layer F.SilkS) (width 0.12))
  (fp_circle (center -4.3 0) (end -2.09 0) (layer B.SilkS) (width 0.12))
  (fp_circle (center 14.8 0) (end 17.01 0) (layer B.SilkS) (width 0.12))
  (fp_circle (center 14.8 0) (end 16.9 0) (layer B.Fab) (width 0.1))
  (fp_circle (center -4.3 0) (end -2.2 0) (layer B.Fab) (width 0.1))
  (fp_circle (center 14.8 0) (end 17.4 0) (layer B.CrtYd) (width 0.05))
  (fp_circle (center -4.3 0) (end -1.7 0) (layer B.CrtYd) (width 0.05))
  (fp_line (start -7.01 3.11) (end 17.51 3.11) (layer F.SilkS) (width 0.12))
  (fp_line (start 17.51 3.11) (end 17.51 -3.11) (layer F.SilkS) (width 0.12))
  (fp_line (start 17.51 -3.11) (end 12.71 -3.11) (layer F.SilkS) (width 0.12))
  (fp_line (start 12.71 -3.11) (end 12.71 -4.36) (layer F.SilkS) (width 0.12))
  (fp_line (start 12.71 -4.36) (end -2.21 -4.36) (layer F.SilkS) (width 0.12))
  (fp_line (start -2.21 -4.36) (end -2.21 -3.11) (layer F.SilkS) (width 0.12))
  (fp_line (start -2.21 -3.11) (end -7.01 -3.11) (layer F.SilkS) (width 0.12))
  (fp_line (start -7.01 -3.11) (end -7.01 3.11) (layer F.SilkS) (width 0.12))
  (fp_line (start -6.9 3) (end 17.4 3) (layer F.Fab) (width 0.1))
  (fp_line (start 17.4 3) (end 17.4 -3) (layer F.Fab) (width 0.1))
  (fp_line (start 17.4 -3) (end 12.6 -3) (layer F.Fab) (width 0.1))
  (fp_line (start 12.6 -3) (end 12.6 -4.25) (layer F.Fab) (width 0.1))
  (fp_line (start 12.6 -4.25) (end -2.1 -4.25) (layer F.Fab) (width 0.1))
  (fp_line (start -2.1 -4.25) (end -2.1 -3) (layer F.Fab) (width 0.1))
  (fp_line (start -2.1 -3) (end -6.9 -3) (layer F.Fab) (width 0.1))
  (fp_line (start -6.9 -3) (end -6.9 3) (layer F.Fab) (width 0.1))
  (fp_line (start -0.75 2.25) (end -1.5 2.25) (layer F.SilkS) (width 0.12))
  (fp_line (start -1.5 2.25) (end -1.5 -2.05) (layer F.SilkS) (width 0.12))
  (fp_line (start -1.5 -2.05) (end -0.75 -2.05) (layer F.SilkS) (width 0.12))
  (fp_line (start -0.75 -2.05) (end -0.75 -2.4) (layer F.SilkS) (width 0.12))
  (fp_line (start -0.75 -2.4) (end -1.25 -2.4) (layer F.SilkS) (width 0.12))
  (fp_line (start -1.25 -2.4) (end -1.5 -3.4) (layer F.SilkS) (width 0.12))
  (fp_line (start -1.5 -3.4) (end 1.5 -3.4) (layer F.SilkS) (width 0.12))
  (fp_line (start 1.5 -3.4) (end 1.25 -2.4) (layer F.SilkS) (width 0.12))
  (fp_line (start 1.25 -2.4) (end 0.75 -2.4) (layer F.SilkS) (width 0.12))
  (fp_line (start 0.75 -2.4) (end 0.75 -2.05) (layer F.SilkS) (width 0.12))
  (fp_line (start 0.75 -2.05) (end 1.5 -2.05) (layer F.SilkS) (width 0.12))
  (fp_line (start 1.5 -2.05) (end 1.5 2.25) (layer F.SilkS) (width 0.12))
  (fp_line (start 1.5 2.25) (end 0.75 2.25) (layer F.SilkS) (width 0.12))
  (fp_line (start 2.75 2.25) (end 2 2.25) (layer F.SilkS) (width 0.12))
  (fp_line (start 2 2.25) (end 2 -2.05) (layer F.SilkS) (width 0.12))
  (fp_line (start 2 -2.05) (end 2.75 -2.05) (layer F.SilkS) (width 0.12))
  (fp_line (start 2.75 -2.05) (end 2.75 -2.4) (layer F.SilkS) (width 0.12))
  (fp_line (start 2.75 -2.4) (end 2.25 -2.4) (layer F.SilkS) (width 0.12))
  (fp_line (start 2.25 -2.4) (end 2 -3.4) (layer F.SilkS) (width 0.12))
  (fp_line (start 2 -3.4) (end 5 -3.4) (layer F.SilkS) (width 0.12))
  (fp_line (start 5 -3.4) (end 4.75 -2.4) (layer F.SilkS) (width 0.12))
  (fp_line (start 4.75 -2.4) (end 4.25 -2.4) (layer F.SilkS) (width 0.12))
  (fp_line (start 4.25 -2.4) (end 4.25 -2.05) (layer F.SilkS) (width 0.12))
  (fp_line (start 4.25 -2.05) (end 5 -2.05) (layer F.SilkS) (width 0.12))
  (fp_line (start 5 -2.05) (end 5 2.25) (layer F.SilkS) (width 0.12))
  (fp_line (start 5 2.25) (end 4.25 2.25) (layer F.SilkS) (width 0.12))
  (fp_line (start 6.25 2.25) (end 5.5 2.25) (layer F.SilkS) (width 0.12))
  (fp_line (start 5.5 2.25) (end 5.5 -2.05) (layer F.SilkS) (width 0.12))
  (fp_line (start 5.5 -2.05) (end 6.25 -2.05) (layer F.SilkS) (width 0.12))
  (fp_line (start 6.25 -2.05) (end 6.25 -2.4) (layer F.SilkS) (width 0.12))
  (fp_line (start 6.25 -2.4) (end 5.75 -2.4) (layer F.SilkS) (width 0.12))
  (fp_line (start 5.75 -2.4) (end 5.5 -3.4) (layer F.SilkS) (width 0.12))
  (fp_line (start 5.5 -3.4) (end 8.5 -3.4) (layer F.SilkS) (width 0.12))
  (fp_line (start 8.5 -3.4) (end 8.25 -2.4) (layer F.SilkS) (width 0.12))
  (fp_line (start 8.25 -2.4) (end 7.75 -2.4) (layer F.SilkS) (width 0.12))
  (fp_line (start 7.75 -2.4) (end 7.75 -2.05) (layer F.SilkS) (width 0.12))
  (fp_line (start 7.75 -2.05) (end 8.5 -2.05) (layer F.SilkS) (width 0.12))
  (fp_line (start 8.5 -2.05) (end 8.5 2.25) (layer F.SilkS) (width 0.12))
  (fp_line (start 8.5 2.25) (end 7.75 2.25) (layer F.SilkS) (width 0.12))
  (fp_line (start 9.75 2.25) (end 9 2.25) (layer F.SilkS) (width 0.12))
  (fp_line (start 9 2.25) (end 9 -2.05) (layer F.SilkS) (width 0.12))
  (fp_line (start 9 -2.05) (end 9.75 -2.05) (layer F.SilkS) (width 0.12))
  (fp_line (start 9.75 -2.05) (end 9.75 -2.4) (layer F.SilkS) (width 0.12))
  (fp_line (start 9.75 -2.4) (end 9.25 -2.4) (layer F.SilkS) (width 0.12))
  (fp_line (start 9.25 -2.4) (end 9 -3.4) (layer F.SilkS) (width 0.12))
  (fp_line (start 9 -3.4) (end 12 -3.4) (layer F.SilkS) (width 0.12))
  (fp_line (start 12 -3.4) (end 11.75 -2.4) (layer F.SilkS) (width 0.12))
  (fp_line (start 11.75 -2.4) (end 11.25 -2.4) (layer F.SilkS) (width 0.12))
  (fp_line (start 11.25 -2.4) (end 11.25 -2.05) (layer F.SilkS) (width 0.12))
  (fp_line (start 11.25 -2.05) (end 12 -2.05) (layer F.SilkS) (width 0.12))
  (fp_line (start 12 -2.05) (end 12 2.25) (layer F.SilkS) (width 0.12))
  (fp_line (start 12 2.25) (end 11.25 2.25) (layer F.SilkS) (width 0.12))
  (fp_line (start -7.4 -4.75) (end -7.4 3.5) (layer F.CrtYd) (width 0.05))
  (fp_line (start -7.4 3.5) (end 17.9 3.5) (layer F.CrtYd) (width 0.05))
  (fp_line (start 17.9 3.5) (end 17.9 -4.75) (layer F.CrtYd) (width 0.05))
  (fp_line (start 17.9 -4.75) (end -7.4 -4.75) (layer F.CrtYd) (width 0.05))
  (fp_line (start -2.6 -3.5) (end -2.6 -4.75) (layer F.SilkS) (width 0.12))
  (fp_line (start -2.6 -4.75) (end -0.6 -4.75) (layer F.SilkS) (width 0.12))
  (fp_line (start -2.6 -3.5) (end -2.6 -4.75) (layer F.Fab) (width 0.1))
  (fp_line (start -2.6 -4.75) (end -0.6 -4.75) (layer F.Fab) (width 0.1))
  (pad 1 thru_hole roundrect (at 0 0) (size 1.8 3.6) (drill 1.2) (layers *.Cu *.Mask) (roundrect_rratio 0.138889))
  (pad 2 thru_hole oval (at 3.5 0) (size 1.8 3.6) (drill 1.2) (layers *.Cu *.Mask))
  (pad 3 thru_hole oval (at 7 0) (size 1.8 3.6) (drill 1.2) (layers *.Cu *.Mask))
  (pad 4 thru_hole oval (at 10.5 0) (size 1.8 3.6) (drill 1.2) (layers *.Cu *.Mask))
  (pad "" np_thru_hole circle (at -4.3 0) (size 2.4 2.4) (drill 2.4) (layers *.Cu *.Mask))
  (pad "" np_thru_hole circle (at 14.8 0) (size 2.4 2.4) (drill 2.4) (layers *.Cu *.Mask))
  (fp_text user %R (at 5.25 -3.55) (layer F.Fab)
    (effects (font (size 1 1) (thickness 0.15)))
  )
  (model ${KICAD6_3DMODEL_DIR}/Connector_Phoenix_MC.3dshapes/PhoenixContact_MCV_1,5_4-GF-3.5_1x04_P3.50mm_Vertical_ThreadedFlange_MountHole.wrl
    (at (xyz 0 0 0))
    (scale (xyz 1 1 1))
    (rotate (xyz 0 0 0))
  )
)