(module PhoenixContact_MC_1,5_3-G-3.81_1x03_P3.81mm_Horizontal (layer F.Cu) (tedit 5B784ED1)
  (descr "Generic Phoenix Contact connector footprint for: MC_1,5/3-G-3.81; number of pins: 03; pin pitch: 3.81mm; Angled || order number: 1803280 8A 160V")
  (tags "phoenix_contact connector MC_01x03_G_3.81mm")
  (fp_text reference REF** (at 3.81 -3) (layer F.SilkS)
    (effects (font (size 1 1) (thickness 0.15)))
  )
  (fp_text value PhoenixContact_MC_1,5_3-G-3.81_1x03_P3.81mm_Horizontal (at 3.81 9.2) (layer F.Fab)
    (effects (font (size 1 1) (thickness 0.15)))
  )
  (fp_line (start -2.71 -1.31) (end -2.71 8.11) (layer F.SilkS) (width 0.12))
  (fp_line (start -2.71 8.11) (end 10.33 8.11) (layer F.SilkS) (width 0.12))
  (fp_line (start 10.33 8.11) (end 10.33 -1.31) (layer F.SilkS) (width 0.12))
  (fp_line (start -2.71 -1.31) (end -1.05 -1.31) (layer F.SilkS) (width 0.12))
  (fp_line (start 10.33 -1.31) (end 8.67 -1.31) (layer F.SilkS) (width 0.12))
  (fp_line (start 1.05 -1.31) (end 2.76 -1.31) (layer F.SilkS) (width 0.12))
  (fp_line (start 4.86 -1.31) (end 6.57 -1.31) (layer F.SilkS) (width 0.12))
  (fp_line (start -2.6 -1.2) (end -2.6 8) (layer F.Fab) (width 0.1))
  (fp_line (start -2.6 8) (end 10.22 8) (layer F.Fab) (width 0.1))
  (fp_line (start 10.22 8) (end 10.22 -1.2) (layer F.Fab) (width 0.1))
  (fp_line (start 10.22 -1.2) (end -2.6 -1.2) (layer F.Fab) (width 0.1))
  (fp_line (start -2.71 4.8) (end 10.33 4.8) (layer F.SilkS) (width 0.12))
  (fp_line (start -3.21 -2.3) (end -3.21 8.5) (layer F.CrtYd) (width 0.05))
  (fp_line (start -3.21 8.5) (end 10.72 8.5) (layer F.CrtYd) (width 0.05))
  (fp_line (start 10.72 8.5) (end 10.72 -2.3) (layer F.CrtYd) (width 0.05))
  (fp_line (start 10.72 -2.3) (end -3.21 -2.3) (layer F.CrtYd) (width 0.05))
  (fp_line (start 0.3 -2.6) (end 0 -2) (layer F.SilkS) (width 0.12))
  (fp_line (start 0 -2) (end -0.3 -2.6) (layer F.SilkS) (width 0.12))
  (fp_line (start -0.3 -2.6) (end 0.3 -2.6) (layer F.SilkS) (width 0.12))
  (fp_line (start 0.8 -1.2) (end 0 0) (layer F.Fab) (width 0.1))
  (fp_line (start 0 0) (end -0.8 -1.2) (layer F.Fab) (width 0.1))
  (pad 1 thru_hole roundrect (at 0 0) (size 1.8 3.6) (drill 1.2) (layers *.Cu *.Mask) (roundrect_rratio 0.138889))
  (pad 2 thru_hole oval (at 3.81 0) (size 1.8 3.6) (drill 1.2) (layers *.Cu *.Mask))
  (pad 3 thru_hole oval (at 7.62 0) (size 1.8 3.6) (drill 1.2) (layers *.Cu *.Mask))
  (fp_text user %R (at 3.81 -0.5) (layer F.Fab)
    (effects (font (size 1 1) (thickness 0.15)))
  )
  (model ${KICAD6_3DMODEL_DIR}/Connector_Phoenix_MC.3dshapes/PhoenixContact_MC_1,5_3-G-3.81_1x03_P3.81mm_Horizontal.wrl
    (at (xyz 0 0 0))
    (scale (xyz 1 1 1))
    (rotate (xyz 0 0 0))
  )
)