(module PhoenixContact_MC_1,5_14-G-3.81_1x14_P3.81mm_Horizontal (layer F.Cu) (tedit 5B784ED1)
  (descr "Generic Phoenix Contact connector footprint for: MC_1,5/14-G-3.81; number of pins: 14; pin pitch: 3.81mm; Angled || order number: 1803390 8A 160V")
  (tags "phoenix_contact connector MC_01x14_G_3.81mm")
  (fp_text reference REF** (at 24.76 -3) (layer F.SilkS)
    (effects (font (size 1 1) (thickness 0.15)))
  )
  (fp_text value PhoenixContact_MC_1,5_14-G-3.81_1x14_P3.81mm_Horizontal (at 24.76 9.2) (layer F.Fab)
    (effects (font (size 1 1) (thickness 0.15)))
  )
  (fp_line (start -2.71 -1.31) (end -2.71 8.11) (layer F.SilkS) (width 0.12))
  (fp_line (start -2.71 8.11) (end 52.24 8.11) (layer F.SilkS) (width 0.12))
  (fp_line (start 52.24 8.11) (end 52.24 -1.31) (layer F.SilkS) (width 0.12))
  (fp_line (start -2.71 -1.31) (end -1.05 -1.31) (layer F.SilkS) (width 0.12))
  (fp_line (start 52.24 -1.31) (end 50.58 -1.31) (layer F.SilkS) (width 0.12))
  (fp_line (start 1.05 -1.31) (end 2.76 -1.31) (layer F.SilkS) (width 0.12))
  (fp_line (start 4.86 -1.31) (end 6.57 -1.31) (layer F.SilkS) (width 0.12))
  (fp_line (start 8.67 -1.31) (end 10.38 -1.31) (layer F.SilkS) (width 0.12))
  (fp_line (start 12.48 -1.31) (end 14.19 -1.31) (layer F.SilkS) (width 0.12))
  (fp_line (start 16.29 -1.31) (end 18 -1.31) (layer F.SilkS) (width 0.12))
  (fp_line (start 20.1 -1.31) (end 21.81 -1.31) (layer F.SilkS) (width 0.12))
  (fp_line (start 23.91 -1.31) (end 25.62 -1.31) (layer F.SilkS) (width 0.12))
  (fp_line (start 27.72 -1.31) (end 29.43 -1.31) (layer F.SilkS) (width 0.12))
  (fp_line (start 31.53 -1.31) (end 33.24 -1.31) (layer F.SilkS) (width 0.12))
  (fp_line (start 35.34 -1.31) (end 37.05 -1.31) (layer F.SilkS) (width 0.12))
  (fp_line (start 39.15 -1.31) (end 40.86 -1.31) (layer F.SilkS) (width 0.12))
  (fp_line (start 42.96 -1.31) (end 44.67 -1.31) (layer F.SilkS) (width 0.12))
  (fp_line (start 46.77 -1.31) (end 48.48 -1.31) (layer F.SilkS) (width 0.12))
  (fp_line (start -2.6 -1.2) (end -2.6 8) (layer F.Fab) (width 0.1))
  (fp_line (start -2.6 8) (end 52.13 8) (layer F.Fab) (width 0.1))
  (fp_line (start 52.13 8) (end 52.13 -1.2) (layer F.Fab) (width 0.1))
  (fp_line (start 52.13 -1.2) (end -2.6 -1.2) (layer F.Fab) (width 0.1))
  (fp_line (start -2.71 4.8) (end 52.24 4.8) (layer F.SilkS) (width 0.12))
  (fp_line (start -3.21 -2.3) (end -3.21 8.5) (layer F.CrtYd) (width 0.05))
  (fp_line (start -3.21 8.5) (end 52.63 8.5) (layer F.CrtYd) (width 0.05))
  (fp_line (start 52.63 8.5) (end 52.63 -2.3) (layer F.CrtYd) (width 0.05))
  (fp_line (start 52.63 -2.3) (end -3.21 -2.3) (layer F.CrtYd) (width 0.05))
  (fp_line (start 0.3 -2.6) (end 0 -2) (layer F.SilkS) (width 0.12))
  (fp_line (start 0 -2) (end -0.3 -2.6) (layer F.SilkS) (width 0.12))
  (fp_line (start -0.3 -2.6) (end 0.3 -2.6) (layer F.SilkS) (width 0.12))
  (fp_line (start 0.8 -1.2) (end 0 0) (layer F.Fab) (width 0.1))
  (fp_line (start 0 0) (end -0.8 -1.2) (layer F.Fab) (width 0.1))
  (pad 1 thru_hole roundrect (at 0 0) (size 1.8 3.6) (drill 1.2) (layers *.Cu *.Mask) (roundrect_rratio 0.138889))
  (pad 2 thru_hole oval (at 3.81 0) (size 1.8 3.6) (drill 1.2) (layers *.Cu *.Mask))
  (pad 3 thru_hole oval (at 7.62 0) (size 1.8 3.6) (drill 1.2) (layers *.Cu *.Mask))
  (pad 4 thru_hole oval (at 11.43 0) (size 1.8 3.6) (drill 1.2) (layers *.Cu *.Mask))
  (pad 5 thru_hole oval (at 15.24 0) (size 1.8 3.6) (drill 1.2) (layers *.Cu *.Mask))
  (pad 6 thru_hole oval (at 19.05 0) (size 1.8 3.6) (drill 1.2) (layers *.Cu *.Mask))
  (pad 7 thru_hole oval (at 22.86 0) (size 1.8 3.6) (drill 1.2) (layers *.Cu *.Mask))
  (pad 8 thru_hole oval (at 26.67 0) (size 1.8 3.6) (drill 1.2) (layers *.Cu *.Mask))
  (pad 9 thru_hole oval (at 30.48 0) (size 1.8 3.6) (drill 1.2) (layers *.Cu *.Mask))
  (pad 10 thru_hole oval (at 34.29 0) (size 1.8 3.6) (drill 1.2) (layers *.Cu *.Mask))
  (pad 11 thru_hole oval (at 38.1 0) (size 1.8 3.6) (drill 1.2) (layers *.Cu *.Mask))
  (pad 12 thru_hole oval (at 41.91 0) (size 1.8 3.6) (drill 1.2) (layers *.Cu *.Mask))
  (pad 13 thru_hole oval (at 45.72 0) (size 1.8 3.6) (drill 1.2) (layers *.Cu *.Mask))
  (pad 14 thru_hole oval (at 49.53 0) (size 1.8 3.6) (drill 1.2) (layers *.Cu *.Mask))
  (fp_text user %R (at 24.76 -0.5) (layer F.Fab)
    (effects (font (size 1 1) (thickness 0.15)))
  )
  (model ${KICAD6_3DMODEL_DIR}/Connector_Phoenix_MC.3dshapes/PhoenixContact_MC_1,5_14-G-3.81_1x14_P3.81mm_Horizontal.wrl
    (at (xyz 0 0 0))
    (scale (xyz 1 1 1))
    (rotate (xyz 0 0 0))
  )
)