(module PhoenixContact_MC_1,5_7-GF-3.81_1x07_P3.81mm_Horizontal_ThreadedFlange (layer F.Cu) (tedit 5B784ED1)
  (descr "Generic Phoenix Contact connector footprint for: MC_1,5/7-GF-3.81; number of pins: 07; pin pitch: 3.81mm; Angled; threaded flange || order number: 1827910 8A 160V")
  (tags "phoenix_contact connector MC_01x07_GF_3.81mm")
  (fp_text reference REF** (at 11.43 -3) (layer F.SilkS)
    (effects (font (size 1 1) (thickness 0.15)))
  )
  (fp_text value PhoenixContact_MC_1,5_7-GF-3.81_1x07_P3.81mm_Horizontal_ThreadedFlange (at 11.43 9.2) (layer F.Fab)
    (effects (font (size 1 1) (thickness 0.15)))
  )
  (fp_line (start -7.21 -1.31) (end -7.21 8.11) (layer F.SilkS) (width 0.12))
  (fp_line (start -7.21 8.11) (end 30.07 8.11) (layer F.SilkS) (width 0.12))
  (fp_line (start 30.07 8.11) (end 30.07 -1.31) (layer F.SilkS) (width 0.12))
  (fp_line (start -7.21 -1.31) (end -1.05 -1.31) (layer F.SilkS) (width 0.12))
  (fp_line (start 30.07 -1.31) (end 23.91 -1.31) (layer F.SilkS) (width 0.12))
  (fp_line (start 1.05 -1.31) (end 2.76 -1.31) (layer F.SilkS) (width 0.12))
  (fp_line (start 4.86 -1.31) (end 6.57 -1.31) (layer F.SilkS) (width 0.12))
  (fp_line (start 8.67 -1.31) (end 10.38 -1.31) (layer F.SilkS) (width 0.12))
  (fp_line (start 12.48 -1.31) (end 14.19 -1.31) (layer F.SilkS) (width 0.12))
  (fp_line (start 16.29 -1.31) (end 18 -1.31) (layer F.SilkS) (width 0.12))
  (fp_line (start 20.1 -1.31) (end 21.81 -1.31) (layer F.SilkS) (width 0.12))
  (fp_line (start -7.1 -1.2) (end -7.1 8) (layer F.Fab) (width 0.1))
  (fp_line (start -7.1 8) (end 29.96 8) (layer F.Fab) (width 0.1))
  (fp_line (start 29.96 8) (end 29.96 -1.2) (layer F.Fab) (width 0.1))
  (fp_line (start 29.96 -1.2) (end -7.1 -1.2) (layer F.Fab) (width 0.1))
  (fp_line (start -2.41 4.8) (end 25.27 4.8) (layer F.SilkS) (width 0.12))
  (fp_line (start -2.41 -1.31) (end -2.41 8.11) (layer F.SilkS) (width 0.12))
  (fp_line (start 25.27 -1.31) (end 25.27 8.11) (layer F.SilkS) (width 0.12))
  (fp_line (start -7.71 -2.3) (end -7.71 8.5) (layer F.CrtYd) (width 0.05))
  (fp_line (start -7.71 8.5) (end 30.46 8.5) (layer F.CrtYd) (width 0.05))
  (fp_line (start 30.46 8.5) (end 30.46 -2.3) (layer F.CrtYd) (width 0.05))
  (fp_line (start 30.46 -2.3) (end -7.71 -2.3) (layer F.CrtYd) (width 0.05))
  (fp_line (start 0.3 -2.6) (end 0 -2) (layer F.SilkS) (width 0.12))
  (fp_line (start 0 -2) (end -0.3 -2.6) (layer F.SilkS) (width 0.12))
  (fp_line (start -0.3 -2.6) (end 0.3 -2.6) (layer F.SilkS) (width 0.12))
  (fp_line (start 0.8 -1.2) (end 0 0) (layer F.Fab) (width 0.1))
  (fp_line (start 0 0) (end -0.8 -1.2) (layer F.Fab) (width 0.1))
  (pad 1 thru_hole roundrect (at 0 0) (size 1.8 3.6) (drill 1.2) (layers *.Cu *.Mask) (roundrect_rratio 0.138889))
  (pad 2 thru_hole oval (at 3.81 0) (size 1.8 3.6) (drill 1.2) (layers *.Cu *.Mask))
  (pad 3 thru_hole oval (at 7.62 0) (size 1.8 3.6) (drill 1.2) (layers *.Cu *.Mask))
  (pad 4 thru_hole oval (at 11.43 0) (size 1.8 3.6) (drill 1.2) (layers *.Cu *.Mask))
  (pad 5 thru_hole oval (at 15.24 0) (size 1.8 3.6) (drill 1.2) (layers *.Cu *.Mask))
  (pad 6 thru_hole oval (at 19.05 0) (size 1.8 3.6) (drill 1.2) (layers *.Cu *.Mask))
  (pad 7 thru_hole oval (at 22.86 0) (size 1.8 3.6) (drill 1.2) (layers *.Cu *.Mask))
  (fp_text user %R (at 11.43 -0.5) (layer F.Fab)
    (effects (font (size 1 1) (thickness 0.15)))
  )
  (model ${KICAD6_3DMODEL_DIR}/Connector_Phoenix_MC.3dshapes/PhoenixContact_MC_1,5_7-GF-3.81_1x07_P3.81mm_Horizontal_ThreadedFlange.wrl
    (at (xyz 0 0 0))
    (scale (xyz 1 1 1))
    (rotate (xyz 0 0 0))
  )
)