(module PhoenixContact_MCV_1,5_8-G-3.81_1x08_P3.81mm_Vertical (layer F.Cu) (tedit 5B784ED2)
  (descr "Generic Phoenix Contact connector footprint for: MCV_1,5/8-G-3.81; number of pins: 08; pin pitch: 3.81mm; Vertical || order number: 1803484 8A 160V")
  (tags "phoenix_contact connector MCV_01x08_G_3.81mm")
  (fp_text reference REF** (at 13.33 -5.45) (layer F.SilkS)
    (effects (font (size 1 1) (thickness 0.15)))
  )
  (fp_text value PhoenixContact_MCV_1,5_8-G-3.81_1x08_P3.81mm_Vertical (at 13.33 4.2) (layer F.Fab)
    (effects (font (size 1 1) (thickness 0.15)))
  )
  (fp_arc (start 0 3.95) (end -0.75 2.25) (angle 47.6) (layer F.SilkS) (width 0.12))
  (fp_arc (start 3.81 3.95) (end 3.06 2.25) (angle 47.6) (layer F.SilkS) (width 0.12))
  (fp_arc (start 7.62 3.95) (end 6.87 2.25) (angle 47.6) (layer F.SilkS) (width 0.12))
  (fp_arc (start 11.43 3.95) (end 10.68 2.25) (angle 47.6) (layer F.SilkS) (width 0.12))
  (fp_arc (start 15.24 3.95) (end 14.49 2.25) (angle 47.6) (layer F.SilkS) (width 0.12))
  (fp_arc (start 19.05 3.95) (end 18.3 2.25) (angle 47.6) (layer F.SilkS) (width 0.12))
  (fp_arc (start 22.86 3.95) (end 22.11 2.25) (angle 47.6) (layer F.SilkS) (width 0.12))
  (fp_arc (start 26.67 3.95) (end 25.92 2.25) (angle 47.6) (layer F.SilkS) (width 0.12))
  (fp_line (start -2.71 -4.36) (end -2.71 3.11) (layer F.SilkS) (width 0.12))
  (fp_line (start -2.71 3.11) (end 29.38 3.11) (layer F.SilkS) (width 0.12))
  (fp_line (start 29.38 3.11) (end 29.38 -4.36) (layer F.SilkS) (width 0.12))
  (fp_line (start 29.38 -4.36) (end -2.71 -4.36) (layer F.SilkS) (width 0.12))
  (fp_line (start -2.6 -4.25) (end -2.6 3) (layer F.Fab) (width 0.1))
  (fp_line (start -2.6 3) (end 29.27 3) (layer F.Fab) (width 0.1))
  (fp_line (start 29.27 3) (end 29.27 -4.25) (layer F.Fab) (width 0.1))
  (fp_line (start 29.27 -4.25) (end -2.6 -4.25) (layer F.Fab) (width 0.1))
  (fp_line (start -0.75 2.25) (end -1.5 2.25) (layer F.SilkS) (width 0.12))
  (fp_line (start -1.5 2.25) (end -1.5 -2.05) (layer F.SilkS) (width 0.12))
  (fp_line (start -1.5 -2.05) (end -0.75 -2.05) (layer F.SilkS) (width 0.12))
  (fp_line (start -0.75 -2.05) (end -0.75 -2.4) (layer F.SilkS) (width 0.12))
  (fp_line (start -0.75 -2.4) (end -1.25 -2.4) (layer F.SilkS) (width 0.12))
  (fp_line (start -1.25 -2.4) (end -1.5 -3.4) (layer F.SilkS) (width 0.12))
  (fp_line (start -1.5 -3.4) (end 1.5 -3.4) (layer F.SilkS) (width 0.12))
  (fp_line (start 1.5 -3.4) (end 1.25 -2.4) (layer F.SilkS) (width 0.12))
  (fp_line (start 1.25 -2.4) (end 0.75 -2.4) (layer F.SilkS) (width 0.12))
  (fp_line (start 0.75 -2.4) (end 0.75 -2.05) (layer F.SilkS) (width 0.12))
  (fp_line (start 0.75 -2.05) (end 1.5 -2.05) (layer F.SilkS) (width 0.12))
  (fp_line (start 1.5 -2.05) (end 1.5 2.25) (layer F.SilkS) (width 0.12))
  (fp_line (start 1.5 2.25) (end 0.75 2.25) (layer F.SilkS) (width 0.12))
  (fp_line (start 3.06 2.25) (end 2.31 2.25) (layer F.SilkS) (width 0.12))
  (fp_line (start 2.31 2.25) (end 2.31 -2.05) (layer F.SilkS) (width 0.12))
  (fp_line (start 2.31 -2.05) (end 3.06 -2.05) (layer F.SilkS) (width 0.12))
  (fp_line (start 3.06 -2.05) (end 3.06 -2.4) (layer F.SilkS) (width 0.12))
  (fp_line (start 3.06 -2.4) (end 2.56 -2.4) (layer F.SilkS) (width 0.12))
  (fp_line (start 2.56 -2.4) (end 2.31 -3.4) (layer F.SilkS) (width 0.12))
  (fp_line (start 2.31 -3.4) (end 5.31 -3.4) (layer F.SilkS) (width 0.12))
  (fp_line (start 5.31 -3.4) (end 5.06 -2.4) (layer F.SilkS) (width 0.12))
  (fp_line (start 5.06 -2.4) (end 4.56 -2.4) (layer F.SilkS) (width 0.12))
  (fp_line (start 4.56 -2.4) (end 4.56 -2.05) (layer F.SilkS) (width 0.12))
  (fp_line (start 4.56 -2.05) (end 5.31 -2.05) (layer F.SilkS) (width 0.12))
  (fp_line (start 5.31 -2.05) (end 5.31 2.25) (layer F.SilkS) (width 0.12))
  (fp_line (start 5.31 2.25) (end 4.56 2.25) (layer F.SilkS) (width 0.12))
  (fp_line (start 6.87 2.25) (end 6.12 2.25) (layer F.SilkS) (width 0.12))
  (fp_line (start 6.12 2.25) (end 6.12 -2.05) (layer F.SilkS) (width 0.12))
  (fp_line (start 6.12 -2.05) (end 6.87 -2.05) (layer F.SilkS) (width 0.12))
  (fp_line (start 6.87 -2.05) (end 6.87 -2.4) (layer F.SilkS) (width 0.12))
  (fp_line (start 6.87 -2.4) (end 6.37 -2.4) (layer F.SilkS) (width 0.12))
  (fp_line (start 6.37 -2.4) (end 6.12 -3.4) (layer F.SilkS) (width 0.12))
  (fp_line (start 6.12 -3.4) (end 9.12 -3.4) (layer F.SilkS) (width 0.12))
  (fp_line (start 9.12 -3.4) (end 8.87 -2.4) (layer F.SilkS) (width 0.12))
  (fp_line (start 8.87 -2.4) (end 8.37 -2.4) (layer F.SilkS) (width 0.12))
  (fp_line (start 8.37 -2.4) (end 8.37 -2.05) (layer F.SilkS) (width 0.12))
  (fp_line (start 8.37 -2.05) (end 9.12 -2.05) (layer F.SilkS) (width 0.12))
  (fp_line (start 9.12 -2.05) (end 9.12 2.25) (layer F.SilkS) (width 0.12))
  (fp_line (start 9.12 2.25) (end 8.37 2.25) (layer F.SilkS) (width 0.12))
  (fp_line (start 10.68 2.25) (end 9.93 2.25) (layer F.SilkS) (width 0.12))
  (fp_line (start 9.93 2.25) (end 9.93 -2.05) (layer F.SilkS) (width 0.12))
  (fp_line (start 9.93 -2.05) (end 10.68 -2.05) (layer F.SilkS) (width 0.12))
  (fp_line (start 10.68 -2.05) (end 10.68 -2.4) (layer F.SilkS) (width 0.12))
  (fp_line (start 10.68 -2.4) (end 10.18 -2.4) (layer F.SilkS) (width 0.12))
  (fp_line (start 10.18 -2.4) (end 9.93 -3.4) (layer F.SilkS) (width 0.12))
  (fp_line (start 9.93 -3.4) (end 12.93 -3.4) (layer F.SilkS) (width 0.12))
  (fp_line (start 12.93 -3.4) (end 12.68 -2.4) (layer F.SilkS) (width 0.12))
  (fp_line (start 12.68 -2.4) (end 12.18 -2.4) (layer F.SilkS) (width 0.12))
  (fp_line (start 12.18 -2.4) (end 12.18 -2.05) (layer F.SilkS) (width 0.12))
  (fp_line (start 12.18 -2.05) (end 12.93 -2.05) (layer F.SilkS) (width 0.12))
  (fp_line (start 12.93 -2.05) (end 12.93 2.25) (layer F.SilkS) (width 0.12))
  (fp_line (start 12.93 2.25) (end 12.18 2.25) (layer F.SilkS) (width 0.12))
  (fp_line (start 14.49 2.25) (end 13.74 2.25) (layer F.SilkS) (width 0.12))
  (fp_line (start 13.74 2.25) (end 13.74 -2.05) (layer F.SilkS) (width 0.12))
  (fp_line (start 13.74 -2.05) (end 14.49 -2.05) (layer F.SilkS) (width 0.12))
  (fp_line (start 14.49 -2.05) (end 14.49 -2.4) (layer F.SilkS) (width 0.12))
  (fp_line (start 14.49 -2.4) (end 13.99 -2.4) (layer F.SilkS) (width 0.12))
  (fp_line (start 13.99 -2.4) (end 13.74 -3.4) (layer F.SilkS) (width 0.12))
  (fp_line (start 13.74 -3.4) (end 16.74 -3.4) (layer F.SilkS) (width 0.12))
  (fp_line (start 16.74 -3.4) (end 16.49 -2.4) (layer F.SilkS) (width 0.12))
  (fp_line (start 16.49 -2.4) (end 15.99 -2.4) (layer F.SilkS) (width 0.12))
  (fp_line (start 15.99 -2.4) (end 15.99 -2.05) (layer F.SilkS) (width 0.12))
  (fp_line (start 15.99 -2.05) (end 16.74 -2.05) (layer F.SilkS) (width 0.12))
  (fp_line (start 16.74 -2.05) (end 16.74 2.25) (layer F.SilkS) (width 0.12))
  (fp_line (start 16.74 2.25) (end 15.99 2.25) (layer F.SilkS) (width 0.12))
  (fp_line (start 18.3 2.25) (end 17.55 2.25) (layer F.SilkS) (width 0.12))
  (fp_line (start 17.55 2.25) (end 17.55 -2.05) (layer F.SilkS) (width 0.12))
  (fp_line (start 17.55 -2.05) (end 18.3 -2.05) (layer F.SilkS) (width 0.12))
  (fp_line (start 18.3 -2.05) (end 18.3 -2.4) (layer F.SilkS) (width 0.12))
  (fp_line (start 18.3 -2.4) (end 17.8 -2.4) (layer F.SilkS) (width 0.12))
  (fp_line (start 17.8 -2.4) (end 17.55 -3.4) (layer F.SilkS) (width 0.12))
  (fp_line (start 17.55 -3.4) (end 20.55 -3.4) (layer F.SilkS) (width 0.12))
  (fp_line (start 20.55 -3.4) (end 20.3 -2.4) (layer F.SilkS) (width 0.12))
  (fp_line (start 20.3 -2.4) (end 19.8 -2.4) (layer F.SilkS) (width 0.12))
  (fp_line (start 19.8 -2.4) (end 19.8 -2.05) (layer F.SilkS) (width 0.12))
  (fp_line (start 19.8 -2.05) (end 20.55 -2.05) (layer F.SilkS) (width 0.12))
  (fp_line (start 20.55 -2.05) (end 20.55 2.25) (layer F.SilkS) (width 0.12))
  (fp_line (start 20.55 2.25) (end 19.8 2.25) (layer F.SilkS) (width 0.12))
  (fp_line (start 22.11 2.25) (end 21.36 2.25) (layer F.SilkS) (width 0.12))
  (fp_line (start 21.36 2.25) (end 21.36 -2.05) (layer F.SilkS) (width 0.12))
  (fp_line (start 21.36 -2.05) (end 22.11 -2.05) (layer F.SilkS) (width 0.12))
  (fp_line (start 22.11 -2.05) (end 22.11 -2.4) (layer F.SilkS) (width 0.12))
  (fp_line (start 22.11 -2.4) (end 21.61 -2.4) (layer F.SilkS) (width 0.12))
  (fp_line (start 21.61 -2.4) (end 21.36 -3.4) (layer F.SilkS) (width 0.12))
  (fp_line (start 21.36 -3.4) (end 24.36 -3.4) (layer F.SilkS) (width 0.12))
  (fp_line (start 24.36 -3.4) (end 24.11 -2.4) (layer F.SilkS) (width 0.12))
  (fp_line (start 24.11 -2.4) (end 23.61 -2.4) (layer F.SilkS) (width 0.12))
  (fp_line (start 23.61 -2.4) (end 23.61 -2.05) (layer F.SilkS) (width 0.12))
  (fp_line (start 23.61 -2.05) (end 24.36 -2.05) (layer F.SilkS) (width 0.12))
  (fp_line (start 24.36 -2.05) (end 24.36 2.25) (layer F.SilkS) (width 0.12))
  (fp_line (start 24.36 2.25) (end 23.61 2.25) (layer F.SilkS) (width 0.12))
  (fp_line (start 25.92 2.25) (end 25.17 2.25) (layer F.SilkS) (width 0.12))
  (fp_line (start 25.17 2.25) (end 25.17 -2.05) (layer F.SilkS) (width 0.12))
  (fp_line (start 25.17 -2.05) (end 25.92 -2.05) (layer F.SilkS) (width 0.12))
  (fp_line (start 25.92 -2.05) (end 25.92 -2.4) (layer F.SilkS) (width 0.12))
  (fp_line (start 25.92 -2.4) (end 25.42 -2.4) (layer F.SilkS) (width 0.12))
  (fp_line (start 25.42 -2.4) (end 25.17 -3.4) (layer F.SilkS) (width 0.12))
  (fp_line (start 25.17 -3.4) (end 28.17 -3.4) (layer F.SilkS) (width 0.12))
  (fp_line (start 28.17 -3.4) (end 27.92 -2.4) (layer F.SilkS) (width 0.12))
  (fp_line (start 27.92 -2.4) (end 27.42 -2.4) (layer F.SilkS) (width 0.12))
  (fp_line (start 27.42 -2.4) (end 27.42 -2.05) (layer F.SilkS) (width 0.12))
  (fp_line (start 27.42 -2.05) (end 28.17 -2.05) (layer F.SilkS) (width 0.12))
  (fp_line (start 28.17 -2.05) (end 28.17 2.25) (layer F.SilkS) (width 0.12))
  (fp_line (start 28.17 2.25) (end 27.42 2.25) (layer F.SilkS) (width 0.12))
  (fp_line (start -3.1 -4.75) (end -3.1 3.5) (layer F.CrtYd) (width 0.05))
  (fp_line (start -3.1 3.5) (end 29.77 3.5) (layer F.CrtYd) (width 0.05))
  (fp_line (start 29.77 3.5) (end 29.77 -4.75) (layer F.CrtYd) (width 0.05))
  (fp_line (start 29.77 -4.75) (end -3.1 -4.75) (layer F.CrtYd) (width 0.05))
  (fp_line (start -3.1 -3.5) (end -3.1 -4.75) (layer F.SilkS) (width 0.12))
  (fp_line (start -3.1 -4.75) (end -1.1 -4.75) (layer F.SilkS) (width 0.12))
  (fp_line (start -3.1 -3.5) (end -3.1 -4.75) (layer F.Fab) (width 0.1))
  (fp_line (start -3.1 -4.75) (end -1.1 -4.75) (layer F.Fab) (width 0.1))
  (pad 1 thru_hole roundrect (at 0 0) (size 1.8 3.6) (drill 1.2) (layers *.Cu *.Mask) (roundrect_rratio 0.138889))
  (pad 2 thru_hole oval (at 3.81 0) (size 1.8 3.6) (drill 1.2) (layers *.Cu *.Mask))
  (pad 3 thru_hole oval (at 7.62 0) (size 1.8 3.6) (drill 1.2) (layers *.Cu *.Mask))
  (pad 4 thru_hole oval (at 11.43 0) (size 1.8 3.6) (drill 1.2) (layers *.Cu *.Mask))
  (pad 5 thru_hole oval (at 15.24 0) (size 1.8 3.6) (drill 1.2) (layers *.Cu *.Mask))
  (pad 6 thru_hole oval (at 19.05 0) (size 1.8 3.6) (drill 1.2) (layers *.Cu *.Mask))
  (pad 7 thru_hole oval (at 22.86 0) (size 1.8 3.6) (drill 1.2) (layers *.Cu *.Mask))
  (pad 8 thru_hole oval (at 26.67 0) (size 1.8 3.6) (drill 1.2) (layers *.Cu *.Mask))
  (fp_text user %R (at 13.33 -3.55) (layer F.Fab)
    (effects (font (size 1 1) (thickness 0.15)))
  )
  (model ${KICAD6_3DMODEL_DIR}/Connector_Phoenix_MC.3dshapes/PhoenixContact_MCV_1,5_8-G-3.81_1x08_P3.81mm_Vertical.wrl
    (at (xyz 0 0 0))
    (scale (xyz 1 1 1))
    (rotate (xyz 0 0 0))
  )
)