(module PhoenixContact_MCV_1,5_13-GF-3.5_1x13_P3.50mm_Vertical_ThreadedFlange_MountHole (layer F.Cu) (tedit 5B784ED1)
  (descr "Generic Phoenix Contact connector footprint for: MCV_1,5/13-GF-3.5; number of pins: 13; pin pitch: 3.50mm; Vertical; threaded flange; footprint includes mount hole for mounting screw: ISO 1481-ST 2.2x4.5 C or ISO 7049-ST 2.2x4.5 C (http://www.fasteners.eu/standards/ISO/7049/) || order number: 1843334 8A 160V")
  (tags "phoenix_contact connector MCV_01x13_GF_3.5mm_MH")
  (fp_text reference REF** (at 21 -5.45) (layer F.SilkS)
    (effects (font (size 1 1) (thickness 0.15)))
  )
  (fp_text value PhoenixContact_MCV_1,5_13-GF-3.5_1x13_P3.50mm_Vertical_ThreadedFlange_MountHole (at 21 4.2) (layer F.Fab)
    (effects (font (size 1 1) (thickness 0.15)))
  )
  (fp_arc (start 0 3.95) (end -0.75 2.25) (angle 47.6) (layer F.SilkS) (width 0.12))
  (fp_arc (start 3.5 3.95) (end 2.75 2.25) (angle 47.6) (layer F.SilkS) (width 0.12))
  (fp_arc (start 7 3.95) (end 6.25 2.25) (angle 47.6) (layer F.SilkS) (width 0.12))
  (fp_arc (start 10.5 3.95) (end 9.75 2.25) (angle 47.6) (layer F.SilkS) (width 0.12))
  (fp_arc (start 14 3.95) (end 13.25 2.25) (angle 47.6) (layer F.SilkS) (width 0.12))
  (fp_arc (start 17.5 3.95) (end 16.75 2.25) (angle 47.6) (layer F.SilkS) (width 0.12))
  (fp_arc (start 21 3.95) (end 20.25 2.25) (angle 47.6) (layer F.SilkS) (width 0.12))
  (fp_arc (start 24.5 3.95) (end 23.75 2.25) (angle 47.6) (layer F.SilkS) (width 0.12))
  (fp_arc (start 28 3.95) (end 27.25 2.25) (angle 47.6) (layer F.SilkS) (width 0.12))
  (fp_arc (start 31.5 3.95) (end 30.75 2.25) (angle 47.6) (layer F.SilkS) (width 0.12))
  (fp_arc (start 35 3.95) (end 34.25 2.25) (angle 47.6) (layer F.SilkS) (width 0.12))
  (fp_arc (start 38.5 3.95) (end 37.75 2.25) (angle 47.6) (layer F.SilkS) (width 0.12))
  (fp_arc (start 42 3.95) (end 41.25 2.25) (angle 47.6) (layer F.SilkS) (width 0.12))
  (fp_circle (center -4.3 0) (end -2.4 0) (layer F.SilkS) (width 0.12))
  (fp_circle (center 46.3 0) (end 48.2 0) (layer F.SilkS) (width 0.12))
  (fp_circle (center -4.3 0) (end -2.09 0) (layer B.SilkS) (width 0.12))
  (fp_circle (center 46.3 0) (end 48.51 0) (layer B.SilkS) (width 0.12))
  (fp_circle (center 46.3 0) (end 48.4 0) (layer B.Fab) (width 0.1))
  (fp_circle (center -4.3 0) (end -2.2 0) (layer B.Fab) (width 0.1))
  (fp_circle (center 46.3 0) (end 48.9 0) (layer B.CrtYd) (width 0.05))
  (fp_circle (center -4.3 0) (end -1.7 0) (layer B.CrtYd) (width 0.05))
  (fp_line (start -7.01 3.11) (end 49.01 3.11) (layer F.SilkS) (width 0.12))
  (fp_line (start 49.01 3.11) (end 49.01 -3.11) (layer F.SilkS) (width 0.12))
  (fp_line (start 49.01 -3.11) (end 44.21 -3.11) (layer F.SilkS) (width 0.12))
  (fp_line (start 44.21 -3.11) (end 44.21 -4.36) (layer F.SilkS) (width 0.12))
  (fp_line (start 44.21 -4.36) (end -2.21 -4.36) (layer F.SilkS) (width 0.12))
  (fp_line (start -2.21 -4.36) (end -2.21 -3.11) (layer F.SilkS) (width 0.12))
  (fp_line (start -2.21 -3.11) (end -7.01 -3.11) (layer F.SilkS) (width 0.12))
  (fp_line (start -7.01 -3.11) (end -7.01 3.11) (layer F.SilkS) (width 0.12))
  (fp_line (start -6.9 3) (end 48.9 3) (layer F.Fab) (width 0.1))
  (fp_line (start 48.9 3) (end 48.9 -3) (layer F.Fab) (width 0.1))
  (fp_line (start 48.9 -3) (end 44.1 -3) (layer F.Fab) (width 0.1))
  (fp_line (start 44.1 -3) (end 44.1 -4.25) (layer F.Fab) (width 0.1))
  (fp_line (start 44.1 -4.25) (end -2.1 -4.25) (layer F.Fab) (width 0.1))
  (fp_line (start -2.1 -4.25) (end -2.1 -3) (layer F.Fab) (width 0.1))
  (fp_line (start -2.1 -3) (end -6.9 -3) (layer F.Fab) (width 0.1))
  (fp_line (start -6.9 -3) (end -6.9 3) (layer F.Fab) (width 0.1))
  (fp_line (start -0.75 2.25) (end -1.5 2.25) (layer F.SilkS) (width 0.12))
  (fp_line (start -1.5 2.25) (end -1.5 -2.05) (layer F.SilkS) (width 0.12))
  (fp_line (start -1.5 -2.05) (end -0.75 -2.05) (layer F.SilkS) (width 0.12))
  (fp_line (start -0.75 -2.05) (end -0.75 -2.4) (layer F.SilkS) (width 0.12))
  (fp_line (start -0.75 -2.4) (end -1.25 -2.4) (layer F.SilkS) (width 0.12))
  (fp_line (start -1.25 -2.4) (end -1.5 -3.4) (layer F.SilkS) (width 0.12))
  (fp_line (start -1.5 -3.4) (end 1.5 -3.4) (layer F.SilkS) (width 0.12))
  (fp_line (start 1.5 -3.4) (end 1.25 -2.4) (layer F.SilkS) (width 0.12))
  (fp_line (start 1.25 -2.4) (end 0.75 -2.4) (layer F.SilkS) (width 0.12))
  (fp_line (start 0.75 -2.4) (end 0.75 -2.05) (layer F.SilkS) (width 0.12))
  (fp_line (start 0.75 -2.05) (end 1.5 -2.05) (layer F.SilkS) (width 0.12))
  (fp_line (start 1.5 -2.05) (end 1.5 2.25) (layer F.SilkS) (width 0.12))
  (fp_line (start 1.5 2.25) (end 0.75 2.25) (layer F.SilkS) (width 0.12))
  (fp_line (start 2.75 2.25) (end 2 2.25) (layer F.SilkS) (width 0.12))
  (fp_line (start 2 2.25) (end 2 -2.05) (layer F.SilkS) (width 0.12))
  (fp_line (start 2 -2.05) (end 2.75 -2.05) (layer F.SilkS) (width 0.12))
  (fp_line (start 2.75 -2.05) (end 2.75 -2.4) (layer F.SilkS) (width 0.12))
  (fp_line (start 2.75 -2.4) (end 2.25 -2.4) (layer F.SilkS) (width 0.12))
  (fp_line (start 2.25 -2.4) (end 2 -3.4) (layer F.SilkS) (width 0.12))
  (fp_line (start 2 -3.4) (end 5 -3.4) (layer F.SilkS) (width 0.12))
  (fp_line (start 5 -3.4) (end 4.75 -2.4) (layer F.SilkS) (width 0.12))
  (fp_line (start 4.75 -2.4) (end 4.25 -2.4) (layer F.SilkS) (width 0.12))
  (fp_line (start 4.25 -2.4) (end 4.25 -2.05) (layer F.SilkS) (width 0.12))
  (fp_line (start 4.25 -2.05) (end 5 -2.05) (layer F.SilkS) (width 0.12))
  (fp_line (start 5 -2.05) (end 5 2.25) (layer F.SilkS) (width 0.12))
  (fp_line (start 5 2.25) (end 4.25 2.25) (layer F.SilkS) (width 0.12))
  (fp_line (start 6.25 2.25) (end 5.5 2.25) (layer F.SilkS) (width 0.12))
  (fp_line (start 5.5 2.25) (end 5.5 -2.05) (layer F.SilkS) (width 0.12))
  (fp_line (start 5.5 -2.05) (end 6.25 -2.05) (layer F.SilkS) (width 0.12))
  (fp_line (start 6.25 -2.05) (end 6.25 -2.4) (layer F.SilkS) (width 0.12))
  (fp_line (start 6.25 -2.4) (end 5.75 -2.4) (layer F.SilkS) (width 0.12))
  (fp_line (start 5.75 -2.4) (end 5.5 -3.4) (layer F.SilkS) (width 0.12))
  (fp_line (start 5.5 -3.4) (end 8.5 -3.4) (layer F.SilkS) (width 0.12))
  (fp_line (start 8.5 -3.4) (end 8.25 -2.4) (layer F.SilkS) (width 0.12))
  (fp_line (start 8.25 -2.4) (end 7.75 -2.4) (layer F.SilkS) (width 0.12))
  (fp_line (start 7.75 -2.4) (end 7.75 -2.05) (layer F.SilkS) (width 0.12))
  (fp_line (start 7.75 -2.05) (end 8.5 -2.05) (layer F.SilkS) (width 0.12))
  (fp_line (start 8.5 -2.05) (end 8.5 2.25) (layer F.SilkS) (width 0.12))
  (fp_line (start 8.5 2.25) (end 7.75 2.25) (layer F.SilkS) (width 0.12))
  (fp_line (start 9.75 2.25) (end 9 2.25) (layer F.SilkS) (width 0.12))
  (fp_line (start 9 2.25) (end 9 -2.05) (layer F.SilkS) (width 0.12))
  (fp_line (start 9 -2.05) (end 9.75 -2.05) (layer F.SilkS) (width 0.12))
  (fp_line (start 9.75 -2.05) (end 9.75 -2.4) (layer F.SilkS) (width 0.12))
  (fp_line (start 9.75 -2.4) (end 9.25 -2.4) (layer F.SilkS) (width 0.12))
  (fp_line (start 9.25 -2.4) (end 9 -3.4) (layer F.SilkS) (width 0.12))
  (fp_line (start 9 -3.4) (end 12 -3.4) (layer F.SilkS) (width 0.12))
  (fp_line (start 12 -3.4) (end 11.75 -2.4) (layer F.SilkS) (width 0.12))
  (fp_line (start 11.75 -2.4) (end 11.25 -2.4) (layer F.SilkS) (width 0.12))
  (fp_line (start 11.25 -2.4) (end 11.25 -2.05) (layer F.SilkS) (width 0.12))
  (fp_line (start 11.25 -2.05) (end 12 -2.05) (layer F.SilkS) (width 0.12))
  (fp_line (start 12 -2.05) (end 12 2.25) (layer F.SilkS) (width 0.12))
  (fp_line (start 12 2.25) (end 11.25 2.25) (layer F.SilkS) (width 0.12))
  (fp_line (start 13.25 2.25) (end 12.5 2.25) (layer F.SilkS) (width 0.12))
  (fp_line (start 12.5 2.25) (end 12.5 -2.05) (layer F.SilkS) (width 0.12))
  (fp_line (start 12.5 -2.05) (end 13.25 -2.05) (layer F.SilkS) (width 0.12))
  (fp_line (start 13.25 -2.05) (end 13.25 -2.4) (layer F.SilkS) (width 0.12))
  (fp_line (start 13.25 -2.4) (end 12.75 -2.4) (layer F.SilkS) (width 0.12))
  (fp_line (start 12.75 -2.4) (end 12.5 -3.4) (layer F.SilkS) (width 0.12))
  (fp_line (start 12.5 -3.4) (end 15.5 -3.4) (layer F.SilkS) (width 0.12))
  (fp_line (start 15.5 -3.4) (end 15.25 -2.4) (layer F.SilkS) (width 0.12))
  (fp_line (start 15.25 -2.4) (end 14.75 -2.4) (layer F.SilkS) (width 0.12))
  (fp_line (start 14.75 -2.4) (end 14.75 -2.05) (layer F.SilkS) (width 0.12))
  (fp_line (start 14.75 -2.05) (end 15.5 -2.05) (layer F.SilkS) (width 0.12))
  (fp_line (start 15.5 -2.05) (end 15.5 2.25) (layer F.SilkS) (width 0.12))
  (fp_line (start 15.5 2.25) (end 14.75 2.25) (layer F.SilkS) (width 0.12))
  (fp_line (start 16.75 2.25) (end 16 2.25) (layer F.SilkS) (width 0.12))
  (fp_line (start 16 2.25) (end 16 -2.05) (layer F.SilkS) (width 0.12))
  (fp_line (start 16 -2.05) (end 16.75 -2.05) (layer F.SilkS) (width 0.12))
  (fp_line (start 16.75 -2.05) (end 16.75 -2.4) (layer F.SilkS) (width 0.12))
  (fp_line (start 16.75 -2.4) (end 16.25 -2.4) (layer F.SilkS) (width 0.12))
  (fp_line (start 16.25 -2.4) (end 16 -3.4) (layer F.SilkS) (width 0.12))
  (fp_line (start 16 -3.4) (end 19 -3.4) (layer F.SilkS) (width 0.12))
  (fp_line (start 19 -3.4) (end 18.75 -2.4) (layer F.SilkS) (width 0.12))
  (fp_line (start 18.75 -2.4) (end 18.25 -2.4) (layer F.SilkS) (width 0.12))
  (fp_line (start 18.25 -2.4) (end 18.25 -2.05) (layer F.SilkS) (width 0.12))
  (fp_line (start 18.25 -2.05) (end 19 -2.05) (layer F.SilkS) (width 0.12))
  (fp_line (start 19 -2.05) (end 19 2.25) (layer F.SilkS) (width 0.12))
  (fp_line (start 19 2.25) (end 18.25 2.25) (layer F.SilkS) (width 0.12))
  (fp_line (start 20.25 2.25) (end 19.5 2.25) (layer F.SilkS) (width 0.12))
  (fp_line (start 19.5 2.25) (end 19.5 -2.05) (layer F.SilkS) (width 0.12))
  (fp_line (start 19.5 -2.05) (end 20.25 -2.05) (layer F.SilkS) (width 0.12))
  (fp_line (start 20.25 -2.05) (end 20.25 -2.4) (layer F.SilkS) (width 0.12))
  (fp_line (start 20.25 -2.4) (end 19.75 -2.4) (layer F.SilkS) (width 0.12))
  (fp_line (start 19.75 -2.4) (end 19.5 -3.4) (layer F.SilkS) (width 0.12))
  (fp_line (start 19.5 -3.4) (end 22.5 -3.4) (layer F.SilkS) (width 0.12))
  (fp_line (start 22.5 -3.4) (end 22.25 -2.4) (layer F.SilkS) (width 0.12))
  (fp_line (start 22.25 -2.4) (end 21.75 -2.4) (layer F.SilkS) (width 0.12))
  (fp_line (start 21.75 -2.4) (end 21.75 -2.05) (layer F.SilkS) (width 0.12))
  (fp_line (start 21.75 -2.05) (end 22.5 -2.05) (layer F.SilkS) (width 0.12))
  (fp_line (start 22.5 -2.05) (end 22.5 2.25) (layer F.SilkS) (width 0.12))
  (fp_line (start 22.5 2.25) (end 21.75 2.25) (layer F.SilkS) (width 0.12))
  (fp_line (start 23.75 2.25) (end 23 2.25) (layer F.SilkS) (width 0.12))
  (fp_line (start 23 2.25) (end 23 -2.05) (layer F.SilkS) (width 0.12))
  (fp_line (start 23 -2.05) (end 23.75 -2.05) (layer F.SilkS) (width 0.12))
  (fp_line (start 23.75 -2.05) (end 23.75 -2.4) (layer F.SilkS) (width 0.12))
  (fp_line (start 23.75 -2.4) (end 23.25 -2.4) (layer F.SilkS) (width 0.12))
  (fp_line (start 23.25 -2.4) (end 23 -3.4) (layer F.SilkS) (width 0.12))
  (fp_line (start 23 -3.4) (end 26 -3.4) (layer F.SilkS) (width 0.12))
  (fp_line (start 26 -3.4) (end 25.75 -2.4) (layer F.SilkS) (width 0.12))
  (fp_line (start 25.75 -2.4) (end 25.25 -2.4) (layer F.SilkS) (width 0.12))
  (fp_line (start 25.25 -2.4) (end 25.25 -2.05) (layer F.SilkS) (width 0.12))
  (fp_line (start 25.25 -2.05) (end 26 -2.05) (layer F.SilkS) (width 0.12))
  (fp_line (start 26 -2.05) (end 26 2.25) (layer F.SilkS) (width 0.12))
  (fp_line (start 26 2.25) (end 25.25 2.25) (layer F.SilkS) (width 0.12))
  (fp_line (start 27.25 2.25) (end 26.5 2.25) (layer F.SilkS) (width 0.12))
  (fp_line (start 26.5 2.25) (end 26.5 -2.05) (layer F.SilkS) (width 0.12))
  (fp_line (start 26.5 -2.05) (end 27.25 -2.05) (layer F.SilkS) (width 0.12))
  (fp_line (start 27.25 -2.05) (end 27.25 -2.4) (layer F.SilkS) (width 0.12))
  (fp_line (start 27.25 -2.4) (end 26.75 -2.4) (layer F.SilkS) (width 0.12))
  (fp_line (start 26.75 -2.4) (end 26.5 -3.4) (layer F.SilkS) (width 0.12))
  (fp_line (start 26.5 -3.4) (end 29.5 -3.4) (layer F.SilkS) (width 0.12))
  (fp_line (start 29.5 -3.4) (end 29.25 -2.4) (layer F.SilkS) (width 0.12))
  (fp_line (start 29.25 -2.4) (end 28.75 -2.4) (layer F.SilkS) (width 0.12))
  (fp_line (start 28.75 -2.4) (end 28.75 -2.05) (layer F.SilkS) (width 0.12))
  (fp_line (start 28.75 -2.05) (end 29.5 -2.05) (layer F.SilkS) (width 0.12))
  (fp_line (start 29.5 -2.05) (end 29.5 2.25) (layer F.SilkS) (width 0.12))
  (fp_line (start 29.5 2.25) (end 28.75 2.25) (layer F.SilkS) (width 0.12))
  (fp_line (start 30.75 2.25) (end 30 2.25) (layer F.SilkS) (width 0.12))
  (fp_line (start 30 2.25) (end 30 -2.05) (layer F.SilkS) (width 0.12))
  (fp_line (start 30 -2.05) (end 30.75 -2.05) (layer F.SilkS) (width 0.12))
  (fp_line (start 30.75 -2.05) (end 30.75 -2.4) (layer F.SilkS) (width 0.12))
  (fp_line (start 30.75 -2.4) (end 30.25 -2.4) (layer F.SilkS) (width 0.12))
  (fp_line (start 30.25 -2.4) (end 30 -3.4) (layer F.SilkS) (width 0.12))
  (fp_line (start 30 -3.4) (end 33 -3.4) (layer F.SilkS) (width 0.12))
  (fp_line (start 33 -3.4) (end 32.75 -2.4) (layer F.SilkS) (width 0.12))
  (fp_line (start 32.75 -2.4) (end 32.25 -2.4) (layer F.SilkS) (width 0.12))
  (fp_line (start 32.25 -2.4) (end 32.25 -2.05) (layer F.SilkS) (width 0.12))
  (fp_line (start 32.25 -2.05) (end 33 -2.05) (layer F.SilkS) (width 0.12))
  (fp_line (start 33 -2.05) (end 33 2.25) (layer F.SilkS) (width 0.12))
  (fp_line (start 33 2.25) (end 32.25 2.25) (layer F.SilkS) (width 0.12))
  (fp_line (start 34.25 2.25) (end 33.5 2.25) (layer F.SilkS) (width 0.12))
  (fp_line (start 33.5 2.25) (end 33.5 -2.05) (layer F.SilkS) (width 0.12))
  (fp_line (start 33.5 -2.05) (end 34.25 -2.05) (layer F.SilkS) (width 0.12))
  (fp_line (start 34.25 -2.05) (end 34.25 -2.4) (layer F.SilkS) (width 0.12))
  (fp_line (start 34.25 -2.4) (end 33.75 -2.4) (layer F.SilkS) (width 0.12))
  (fp_line (start 33.75 -2.4) (end 33.5 -3.4) (layer F.SilkS) (width 0.12))
  (fp_line (start 33.5 -3.4) (end 36.5 -3.4) (layer F.SilkS) (width 0.12))
  (fp_line (start 36.5 -3.4) (end 36.25 -2.4) (layer F.SilkS) (width 0.12))
  (fp_line (start 36.25 -2.4) (end 35.75 -2.4) (layer F.SilkS) (width 0.12))
  (fp_line (start 35.75 -2.4) (end 35.75 -2.05) (layer F.SilkS) (width 0.12))
  (fp_line (start 35.75 -2.05) (end 36.5 -2.05) (layer F.SilkS) (width 0.12))
  (fp_line (start 36.5 -2.05) (end 36.5 2.25) (layer F.SilkS) (width 0.12))
  (fp_line (start 36.5 2.25) (end 35.75 2.25) (layer F.SilkS) (width 0.12))
  (fp_line (start 37.75 2.25) (end 37 2.25) (layer F.SilkS) (width 0.12))
  (fp_line (start 37 2.25) (end 37 -2.05) (layer F.SilkS) (width 0.12))
  (fp_line (start 37 -2.05) (end 37.75 -2.05) (layer F.SilkS) (width 0.12))
  (fp_line (start 37.75 -2.05) (end 37.75 -2.4) (layer F.SilkS) (width 0.12))
  (fp_line (start 37.75 -2.4) (end 37.25 -2.4) (layer F.SilkS) (width 0.12))
  (fp_line (start 37.25 -2.4) (end 37 -3.4) (layer F.SilkS) (width 0.12))
  (fp_line (start 37 -3.4) (end 40 -3.4) (layer F.SilkS) (width 0.12))
  (fp_line (start 40 -3.4) (end 39.75 -2.4) (layer F.SilkS) (width 0.12))
  (fp_line (start 39.75 -2.4) (end 39.25 -2.4) (layer F.SilkS) (width 0.12))
  (fp_line (start 39.25 -2.4) (end 39.25 -2.05) (layer F.SilkS) (width 0.12))
  (fp_line (start 39.25 -2.05) (end 40 -2.05) (layer F.SilkS) (width 0.12))
  (fp_line (start 40 -2.05) (end 40 2.25) (layer F.SilkS) (width 0.12))
  (fp_line (start 40 2.25) (end 39.25 2.25) (layer F.SilkS) (width 0.12))
  (fp_line (start 41.25 2.25) (end 40.5 2.25) (layer F.SilkS) (width 0.12))
  (fp_line (start 40.5 2.25) (end 40.5 -2.05) (layer F.SilkS) (width 0.12))
  (fp_line (start 40.5 -2.05) (end 41.25 -2.05) (layer F.SilkS) (width 0.12))
  (fp_line (start 41.25 -2.05) (end 41.25 -2.4) (layer F.SilkS) (width 0.12))
  (fp_line (start 41.25 -2.4) (end 40.75 -2.4) (layer F.SilkS) (width 0.12))
  (fp_line (start 40.75 -2.4) (end 40.5 -3.4) (layer F.SilkS) (width 0.12))
  (fp_line (start 40.5 -3.4) (end 43.5 -3.4) (layer F.SilkS) (width 0.12))
  (fp_line (start 43.5 -3.4) (end 43.25 -2.4) (layer F.SilkS) (width 0.12))
  (fp_line (start 43.25 -2.4) (end 42.75 -2.4) (layer F.SilkS) (width 0.12))
  (fp_line (start 42.75 -2.4) (end 42.75 -2.05) (layer F.SilkS) (width 0.12))
  (fp_line (start 42.75 -2.05) (end 43.5 -2.05) (layer F.SilkS) (width 0.12))
  (fp_line (start 43.5 -2.05) (end 43.5 2.25) (layer F.SilkS) (width 0.12))
  (fp_line (start 43.5 2.25) (end 42.75 2.25) (layer F.SilkS) (width 0.12))
  (fp_line (start -7.4 -4.75) (end -7.4 3.5) (layer F.CrtYd) (width 0.05))
  (fp_line (start -7.4 3.5) (end 49.4 3.5) (layer F.CrtYd) (width 0.05))
  (fp_line (start 49.4 3.5) (end 49.4 -4.75) (layer F.CrtYd) (width 0.05))
  (fp_line (start 49.4 -4.75) (end -7.4 -4.75) (layer F.CrtYd) (width 0.05))
  (fp_line (start -2.6 -3.5) (end -2.6 -4.75) (layer F.SilkS) (width 0.12))
  (fp_line (start -2.6 -4.75) (end -0.6 -4.75) (layer F.SilkS) (width 0.12))
  (fp_line (start -2.6 -3.5) (end -2.6 -4.75) (layer F.Fab) (width 0.1))
  (fp_line (start -2.6 -4.75) (end -0.6 -4.75) (layer F.Fab) (width 0.1))
  (pad 1 thru_hole roundrect (at 0 0) (size 1.8 3.6) (drill 1.2) (layers *.Cu *.Mask) (roundrect_rratio 0.138889))
  (pad 2 thru_hole oval (at 3.5 0) (size 1.8 3.6) (drill 1.2) (layers *.Cu *.Mask))
  (pad 3 thru_hole oval (at 7 0) (size 1.8 3.6) (drill 1.2) (layers *.Cu *.Mask))
  (pad 4 thru_hole oval (at 10.5 0) (size 1.8 3.6) (drill 1.2) (layers *.Cu *.Mask))
  (pad 5 thru_hole oval (at 14 0) (size 1.8 3.6) (drill 1.2) (layers *.Cu *.Mask))
  (pad 6 thru_hole oval (at 17.5 0) (size 1.8 3.6) (drill 1.2) (layers *.Cu *.Mask))
  (pad 7 thru_hole oval (at 21 0) (size 1.8 3.6) (drill 1.2) (layers *.Cu *.Mask))
  (pad 8 thru_hole oval (at 24.5 0) (size 1.8 3.6) (drill 1.2) (layers *.Cu *.Mask))
  (pad 9 thru_hole oval (at 28 0) (size 1.8 3.6) (drill 1.2) (layers *.Cu *.Mask))
  (pad 10 thru_hole oval (at 31.5 0) (size 1.8 3.6) (drill 1.2) (layers *.Cu *.Mask))
  (pad 11 thru_hole oval (at 35 0) (size 1.8 3.6) (drill 1.2) (layers *.Cu *.Mask))
  (pad 12 thru_hole oval (at 38.5 0) (size 1.8 3.6) (drill 1.2) (layers *.Cu *.Mask))
  (pad 13 thru_hole oval (at 42 0) (size 1.8 3.6) (drill 1.2) (layers *.Cu *.Mask))
  (pad "" np_thru_hole circle (at -4.3 0) (size 2.4 2.4) (drill 2.4) (layers *.Cu *.Mask))
  (pad "" np_thru_hole circle (at 46.3 0) (size 2.4 2.4) (drill 2.4) (layers *.Cu *.Mask))
  (fp_text user %R (at 21 -3.55) (layer F.Fab)
    (effects (font (size 1 1) (thickness 0.15)))
  )
  (model ${KICAD6_3DMODEL_DIR}/Connector_Phoenix_MC.3dshapes/PhoenixContact_MCV_1,5_13-GF-3.5_1x13_P3.50mm_Vertical_ThreadedFlange_MountHole.wrl
    (at (xyz 0 0 0))
    (scale (xyz 1 1 1))
    (rotate (xyz 0 0 0))
  )
)