(module D_3220_8050Metric_Pad2.65x5.15mm_HandSolder (layer F.Cu) (tedit 5F68FEF0)
  (descr "Diode SMD 3220 (8050 Metric), square (rectangular) end terminal, IPC_7351 nominal, (Body size from: http://datasheets.avx.com/schottky.pdf), generated with kicad-footprint-generator")
  (tags "diode handsolder")
  (attr smd)
  (fp_text reference REF** (at 0 -3.52) (layer F.SilkS)
    (effects (font (size 1 1) (thickness 0.15)))
  )
  (fp_text value D_3220_8050Metric_Pad2.65x5.15mm_HandSolder (at 0 3.52) (layer F.Fab)
    (effects (font (size 1 1) (thickness 0.15)))
  )
  (fp_line (start 4 -2.5) (end -3 -2.5) (layer F.Fab) (width 0.1))
  (fp_line (start -3 -2.5) (end -4 -1.5) (layer F.Fab) (width 0.1))
  (fp_line (start -4 -1.5) (end -4 2.5) (layer F.Fab) (width 0.1))
  (fp_line (start -4 2.5) (end 4 2.5) (layer F.Fab) (width 0.1))
  (fp_line (start 4 2.5) (end 4 -2.5) (layer F.Fab) (width 0.1))
  (fp_line (start 4 -2.835) (end -4.86 -2.835) (layer F.SilkS) (width 0.12))
  (fp_line (start -4.86 -2.835) (end -4.86 2.835) (layer F.SilkS) (width 0.12))
  (fp_line (start -4.86 2.835) (end 4 2.835) (layer F.SilkS) (width 0.12))
  (fp_line (start -4.85 2.82) (end -4.85 -2.82) (layer F.CrtYd) (width 0.05))
  (fp_line (start -4.85 -2.82) (end 4.85 -2.82) (layer F.CrtYd) (width 0.05))
  (fp_line (start 4.85 -2.82) (end 4.85 2.82) (layer F.CrtYd) (width 0.05))
  (fp_line (start 4.85 2.82) (end -4.85 2.82) (layer F.CrtYd) (width 0.05))
  (pad 1 smd roundrect (at -3.275 0) (size 2.65 5.15) (layers F.Cu F.Mask F.Paste) (roundrect_rratio 0.09434))
  (pad 2 smd roundrect (at 3.275 0) (size 2.65 5.15) (layers F.Cu F.Mask F.Paste) (roundrect_rratio 0.09434))
  (fp_text user %R (at 0 0) (layer F.Fab)
    (effects (font (size 1 1) (thickness 0.15)))
  )
  (model ${KICAD6_3DMODEL_DIR}/Diode_SMD.3dshapes/D_3220_8050Metric.wrl
    (at (xyz 0 0 0))
    (scale (xyz 1 1 1))
    (rotate (xyz 0 0 0))
  )
)