(module D_MELF_Handsoldering (layer F.Cu) (tedit 5905D89D)
  (descr "Diode MELF Handsoldering")
  (tags "Diode MELF Handsoldering")
  (attr smd)
  (fp_text reference REF** (at 0 -2.25) (layer F.SilkS)
    (effects (font (size 1 1) (thickness 0.15)))
  )
  (fp_text value D_MELF_Handsoldering (at 0 2.25) (layer F.Fab)
    (effects (font (size 1 1) (thickness 0.15)))
  )
  (fp_text user %R (at 0 -2.25) (layer F.Fab)
    (effects (font (size 1 1) (thickness 0.15)))
  )
  (fp_line (start 3.4 -1.5) (end -5.3 -1.5) (layer F.SilkS) (width 0.12))
  (fp_line (start -5.3 -1.5) (end -5.3 1.5) (layer F.SilkS) (width 0.12))
  (fp_line (start -5.3 1.5) (end 3.4 1.5) (layer F.SilkS) (width 0.12))
  (fp_line (start 2.6 -1.3) (end -2.6 -1.3) (layer F.Fab) (width 0.1))
  (fp_line (start -2.6 -1.3) (end -2.6 1.3) (layer F.Fab) (width 0.1))
  (fp_line (start -2.6 1.3) (end 2.6 1.3) (layer F.Fab) (width 0.1))
  (fp_line (start 2.6 1.3) (end 2.6 -1.3) (layer F.Fab) (width 0.1))
  (fp_line (start -0.64944 0.00102) (end -1.55114 0.00102) (layer F.Fab) (width 0.1))
  (fp_line (start 0.50118 0.00102) (end 1.4994 0.00102) (layer F.Fab) (width 0.1))
  (fp_line (start -0.64944 -0.79908) (end -0.64944 0.80112) (layer F.Fab) (width 0.1))
  (fp_line (start 0.50118 0.75032) (end 0.50118 -0.79908) (layer F.Fab) (width 0.1))
  (fp_line (start -0.64944 0.00102) (end 0.50118 0.75032) (layer F.Fab) (width 0.1))
  (fp_line (start -0.64944 0.00102) (end 0.50118 -0.79908) (layer F.Fab) (width 0.1))
  (fp_line (start -5.4 -1.6) (end 5.4 -1.6) (layer F.CrtYd) (width 0.05))
  (fp_line (start 5.4 -1.6) (end 5.4 1.6) (layer F.CrtYd) (width 0.05))
  (fp_line (start 5.4 1.6) (end -5.4 1.6) (layer F.CrtYd) (width 0.05))
  (fp_line (start -5.4 1.6) (end -5.4 -1.6) (layer F.CrtYd) (width 0.05))
  (pad 1 smd rect (at -3.4 0) (size 3.5 2.7) (layers F.Cu F.Paste F.Mask))
  (pad 2 smd rect (at 3.4 0) (size 3.5 2.7) (layers F.Cu F.Paste F.Mask))
  (model ${KICAD6_3DMODEL_DIR}/Diode_SMD.3dshapes/D_MELF.wrl
    (at (xyz 0 0 0))
    (scale (xyz 1 1 1))
    (rotate (xyz 0 0 0))
  )
)
