(module D_PowerDI-123 (layer F.Cu) (tedit 588FC24C)
  (descr http://www.diodes.com/_files/datasheets/ds30497.pdf)
  (tags "PowerDI diode vishay")
  (attr smd)
  (fp_text reference REF** (at 0 -2) (layer F.SilkS)
    (effects (font (size 1 1) (thickness 0.15)))
  )
  (fp_text user %R (at 0 -2) (layer F.Fab)
    (effects (font (size 1 1) (thickness 0.15)))
  )
  (fp_text value D_PowerDI-123 (at 0 2.5) (layer F.Fab)
    (effects (font (size 1 1) (thickness 0.15)))
  )
  (fp_line (start 0.3 0) (end 0.7 0) (layer F.Fab) (width 0.1))
  (fp_line (start 0.3 -0.5) (end -0.5 0) (layer F.Fab) (width 0.1))
  (fp_line (start 0.3 0.5) (end 0.3 -0.5) (layer F.Fab) (width 0.1))
  (fp_line (start -0.5 0) (end 0.3 0.5) (layer F.Fab) (width 0.1))
  (fp_line (start -0.5 0) (end -0.5 0.5) (layer F.Fab) (width 0.1))
  (fp_line (start -0.5 0) (end -0.5 -0.5) (layer F.Fab) (width 0.1))
  (fp_line (start -0.8 0) (end -0.5 0) (layer F.Fab) (width 0.1))
  (fp_line (start -1.4 0.9) (end -1.4 -0.9) (layer F.Fab) (width 0.1))
  (fp_line (start 1.4 0.9) (end -1.4 0.9) (layer F.Fab) (width 0.1))
  (fp_line (start 1.4 -0.9) (end 1.4 0.9) (layer F.Fab) (width 0.1))
  (fp_line (start -1.4 -0.9) (end 1.4 -0.9) (layer F.Fab) (width 0.1))
  (fp_line (start 2.5 1.3) (end -2.5 1.3) (layer F.CrtYd) (width 0.05))
  (fp_line (start 2.5 -1.3) (end 2.5 1.3) (layer F.CrtYd) (width 0.05))
  (fp_line (start -2.5 -1.3) (end 2.5 -1.3) (layer F.CrtYd) (width 0.05))
  (fp_line (start -2.5 1.3) (end -2.5 -1.3) (layer F.CrtYd) (width 0.05))
  (fp_line (start 1 -1) (end -2.2 -1) (layer F.SilkS) (width 0.12))
  (fp_line (start -2.2 1) (end 1 1) (layer F.SilkS) (width 0.12))
  (fp_line (start -2.2 1) (end -2.2 -1) (layer F.SilkS) (width 0.12))
  (pad 1 smd rect (at -0.85 0 180) (size 2.4 1.5) (layers F.Cu F.Paste F.Mask))
  (pad 2 smd rect (at 1.525 0 180) (size 1.05 1.5) (layers F.Cu F.Paste F.Mask))
  (model ${KICAD6_3DMODEL_DIR}/Diode_SMD.3dshapes/D_PowerDI-123.wrl
    (at (xyz 0 0 0))
    (scale (xyz 1 1 1))
    (rotate (xyz 0 0 0))
  )
)
