(module D_SMB_Modified (layer F.Cu) (tedit 598CAEE3)
  (descr "Diode SMB (DO-214AA) Modified (http://www.littelfuse.com/~/media/electronics/datasheets/sidactors/littelfuse_sidactor_battrax_positive_negative_modified_do_214_datasheet.pdf.pdf)")
  (tags "Diode SMB (DO-214AA)")
  (attr smd)
  (fp_text reference REF** (at 0 -3) (layer F.SilkS)
    (effects (font (size 1 1) (thickness 0.15)))
  )
  (fp_text value D_SMB_Modified (at 0 3.1) (layer F.Fab)
    (effects (font (size 1 1) (thickness 0.15)))
  )
  (fp_line (start -1.3 -2) (end -2.3 -1) (layer F.Fab) (width 0.1))
  (fp_text user %R (at 0 0) (layer F.Fab)
    (effects (font (size 1 1) (thickness 0.15)))
  )
  (fp_line (start 3.55 -2.15) (end 3.55 2.15) (layer F.SilkS) (width 0.12))
  (fp_line (start 2.3 2) (end -2.3 2) (layer F.Fab) (width 0.1))
  (fp_line (start -2.3 2) (end -2.3 -1) (layer F.Fab) (width 0.1))
  (fp_line (start 2.3 -2) (end 2.3 2) (layer F.Fab) (width 0.1))
  (fp_line (start 2.3 -2) (end -1.3 -2) (layer F.Fab) (width 0.1))
  (fp_line (start -3.65 -2.25) (end 3.65 -2.25) (layer F.CrtYd) (width 0.05))
  (fp_line (start 3.65 -2.25) (end 3.65 2.25) (layer F.CrtYd) (width 0.05))
  (fp_line (start 3.65 2.25) (end -3.65 2.25) (layer F.CrtYd) (width 0.05))
  (fp_line (start -3.65 2.25) (end -3.65 -2.25) (layer F.CrtYd) (width 0.05))
  (fp_line (start 3.55 2.15) (end -2.15 2.15) (layer F.SilkS) (width 0.12))
  (fp_line (start 3.55 -2.15) (end -2.95 -2.15) (layer F.SilkS) (width 0.12))
  (pad 2 smd rect (at 2 0) (size 2 2.8) (layers F.Cu F.Paste F.Mask))
  (pad 3 smd rect (at -2 0.88) (size 2 1) (layers F.Cu F.Paste F.Mask))
  (pad 1 smd rect (at -2 -0.88) (size 2 1) (layers F.Cu F.Paste F.Mask))
  (model ${KICAD6_3DMODEL_DIR}/Diode_SMD.3dshapes/D_SMB_Modified.wrl
    (at (xyz 0 0 0))
    (scale (xyz 1 1 1))
    (rotate (xyz 0 0 0))
  )
)
