(module Diode_Bridge_Diotec_MicroDil_3.0x3.0x1.8mm (layer F.Cu) (tedit 5A4F6FA2)
  (descr "SMD package Diotec Diotec MicroDil, body 3.0x3.0x1.8mm (e.g. diode bridge), see https://diotec.com/tl_files/diotec/files/pdf/datasheets/mys40.pdf")
  (tags "Diotec MicroDil diode bridge")
  (attr smd)
  (fp_text reference REF** (at 0 -2.4) (layer F.SilkS)
    (effects (font (size 1 1) (thickness 0.15)))
  )
  (fp_text value Diode_Bridge_Diotec_MicroDil_3.0x3.0x1.8mm (at 0 2.5) (layer F.Fab)
    (effects (font (size 1 1) (thickness 0.15)))
  )
  (fp_text user %R (at 0 -0.065) (layer F.Fab)
    (effects (font (size 0.5 0.5) (thickness 0.1)))
  )
  (fp_line (start -1.6 -1.4) (end -2.8 -1.4) (layer F.SilkS) (width 0.12))
  (fp_line (start -1.6 -1.6) (end -1.6 -1.4) (layer F.SilkS) (width 0.12))
  (fp_line (start 1.5 -1.6) (end -1.6 -1.6) (layer F.SilkS) (width 0.12))
  (fp_line (start -1.5 1.6) (end 1.5 1.6) (layer F.SilkS) (width 0.12))
  (fp_line (start -1.5 -1) (end -1.5 1.5) (layer F.Fab) (width 0.12))
  (fp_line (start -1 -1.5) (end -1.5 -1) (layer F.Fab) (width 0.12))
  (fp_line (start 1.5 -1.5) (end -1 -1.5) (layer F.Fab) (width 0.12))
  (fp_line (start 1.5 1.5) (end 1.5 -1.5) (layer F.Fab) (width 0.12))
  (fp_line (start -1.5 1.5) (end 1.5 1.5) (layer F.Fab) (width 0.12))
  (fp_line (start -3.05 -1.75) (end 3.05 -1.75) (layer F.CrtYd) (width 0.05))
  (fp_line (start -3.05 -1.75) (end -3.05 1.75) (layer F.CrtYd) (width 0.05))
  (fp_line (start 3.05 1.75) (end 3.05 -1.75) (layer F.CrtYd) (width 0.05))
  (fp_line (start 3.05 1.75) (end -3.05 1.75) (layer F.CrtYd) (width 0.05))
  (pad 1 smd rect (at -2.3 -0.635) (size 1 0.8) (layers F.Cu F.Paste F.Mask))
  (pad 2 smd rect (at -2.3 0.635) (size 1 0.8) (layers F.Cu F.Paste F.Mask))
  (pad 3 smd rect (at 2.3 0.635) (size 1 0.8) (layers F.Cu F.Paste F.Mask))
  (pad 4 smd rect (at 2.3 -0.635) (size 1 0.8) (layers F.Cu F.Paste F.Mask))
  (model ${KICAD6_3DMODEL_DIR}/Diode_SMD.3dshapes/Diode_Bridge_Diotec_MicroDil_3.0x3.0x1.8mm.wrl
    (at (xyz 0 0 0))
    (scale (xyz 1 1 1))
    (rotate (xyz 0 0 0))
  )
)
