(module Nexperia_CFP3_SOD-123W (layer F.Cu) (tedit 5EABE247)
  (descr "Nexperia CFP3 (SOD-123W), https://assets.nexperia.com/documents/outline-drawing/SOD123W.pdf")
  (tags "CFP3 SOD-123W")
  (attr smd)
  (fp_text reference REF** (at 0 -2) (layer F.SilkS)
    (effects (font (size 1 1) (thickness 0.15)))
  )
  (fp_text value Nexperia_CFP3_SOD-123W (at 0 2) (layer F.Fab)
    (effects (font (size 1 1) (thickness 0.15)))
  )
  (fp_line (start -2.26 -0.95) (end 1.4 -0.95) (layer F.SilkS) (width 0.12))
  (fp_line (start -2.26 0.95) (end 1.4 0.95) (layer F.SilkS) (width 0.12))
  (fp_line (start -2.25 -1.1) (end -2.25 1.1) (layer F.CrtYd) (width 0.05))
  (fp_line (start 2.25 1.1) (end -2.25 1.1) (layer F.CrtYd) (width 0.05))
  (fp_line (start 2.25 -1.1) (end 2.25 1.1) (layer F.CrtYd) (width 0.05))
  (fp_line (start -2.25 -1.1) (end 2.25 -1.1) (layer F.CrtYd) (width 0.05))
  (fp_line (start -1.3 -0.85) (end 1.3 -0.85) (layer F.Fab) (width 0.1))
  (fp_line (start 1.3 -0.85) (end 1.3 0.85) (layer F.Fab) (width 0.1))
  (fp_line (start 1.3 0.85) (end -1.3 0.85) (layer F.Fab) (width 0.1))
  (fp_line (start -1.3 0.85) (end -1.3 -0.85) (layer F.Fab) (width 0.1))
  (fp_line (start -2.26 -0.95) (end -2.26 0.95) (layer F.SilkS) (width 0.12))
  (fp_text user %R (at 0 -2) (layer F.Fab)
    (effects (font (size 1 1) (thickness 0.15)))
  )
  (fp_line (start -0.35 0) (end 0.25 -0.4) (layer F.Fab) (width 0.1))
  (fp_line (start 0.25 -0.4) (end 0.25 0.4) (layer F.Fab) (width 0.1))
  (fp_line (start -0.35 0) (end 0.25 0.4) (layer F.Fab) (width 0.1))
  (fp_line (start 0.75 0) (end 0.25 0) (layer F.Fab) (width 0.1))
  (fp_line (start -0.35 -0.55) (end -0.35 0.55) (layer F.Fab) (width 0.1))
  (fp_line (start -0.75 0) (end -0.35 0) (layer F.Fab) (width 0.1))
  (pad 1 smd rect (at -1.4 0) (size 1.2 1.2) (layers F.Cu F.Paste F.Mask))
  (pad 2 smd rect (at 1.4 0) (size 1.2 1.2) (layers F.Cu F.Paste F.Mask))
  (model ${KICAD6_3DMODEL_DIR}/Diode_SMD.3dshapes/Nexperia_CFP3_SOD-123W.wrl
    (at (xyz 0 0 0))
    (scale (xyz 1 1 1))
    (rotate (xyz 0 0 0))
  )
)
