(module C_01005_0402Metric_Pad0.57x0.30mm_HandSolder (layer F.Cu) (tedit 5F6BBCCE)
  (descr "Capacitor SMD 01005 (0402 Metric), square (rectangular) end terminal, IPC_7351 nominal with elongated pad for handsoldering. (Body size source: http://www.vishay.com/docs/20056/crcw01005e3.pdf), generated with kicad-footprint-generator")
  (tags "capacitor handsolder")
  (attr smd)
  (fp_text reference REF** (at 0 -1) (layer F.SilkS)
    (effects (font (size 1 1) (thickness 0.15)))
  )
  (fp_text value C_01005_0402Metric_Pad0.57x0.30mm_HandSolder (at 0 1) (layer F.Fab)
    (effects (font (size 1 1) (thickness 0.15)))
  )
  (fp_line (start -0.2 0.1) (end -0.2 -0.1) (layer F.Fab) (width 0.1))
  (fp_line (start -0.2 -0.1) (end 0.2 -0.1) (layer F.Fab) (width 0.1))
  (fp_line (start 0.2 -0.1) (end 0.2 0.1) (layer F.Fab) (width 0.1))
  (fp_line (start 0.2 0.1) (end -0.2 0.1) (layer F.Fab) (width 0.1))
  (fp_line (start -0.78 0.3) (end -0.78 -0.3) (layer F.CrtYd) (width 0.05))
  (fp_line (start -0.78 -0.3) (end 0.78 -0.3) (layer F.CrtYd) (width 0.05))
  (fp_line (start 0.78 -0.3) (end 0.78 0.3) (layer F.CrtYd) (width 0.05))
  (fp_line (start 0.78 0.3) (end -0.78 0.3) (layer F.CrtYd) (width 0.05))
  (pad "" smd roundrect (at -0.3625 0) (size 0.41 0.27) (layers F.Paste) (roundrect_rratio 0.25))
  (pad "" smd roundrect (at 0.3625 0) (size 0.41 0.27) (layers F.Paste) (roundrect_rratio 0.25))
  (pad 1 smd roundrect (at -0.3375 0) (size 0.575 0.3) (layers F.Cu F.Mask) (roundrect_rratio 0.25))
  (pad 2 smd roundrect (at 0.3375 0) (size 0.575 0.3) (layers F.Cu F.Mask) (roundrect_rratio 0.25))
  (fp_text user %R (at 0 -0.62) (layer F.Fab)
    (effects (font (size 0.25 0.25) (thickness 0.04)))
  )
  (model ${KICAD6_3DMODEL_DIR}/Capacitor_SMD.3dshapes/C_01005_0402Metric.wrl
    (at (xyz 0 0 0))
    (scale (xyz 1 1 1))
    (rotate (xyz 0 0 0))
  )
)