(module C_2220_5650Metric_Pad1.97x5.40mm_HandSolder (layer F.Cu) (tedit 5F68FEEF)
  (descr "Capacitor SMD 2220 (5650 Metric), square (rectangular) end terminal, IPC_7351 nominal with elongated pad for handsoldering. (Body size from: http://datasheets.avx.com/AVX-HV_MLCC.pdf), generated with kicad-footprint-generator")
  (tags "capacitor handsolder")
  (attr smd)
  (fp_text reference REF** (at 0 -3.65) (layer F.SilkS)
    (effects (font (size 1 1) (thickness 0.15)))
  )
  (fp_text value C_2220_5650Metric_Pad1.97x5.40mm_HandSolder (at 0 3.65) (layer F.Fab)
    (effects (font (size 1 1) (thickness 0.15)))
  )
  (fp_line (start -2.85 2.5) (end -2.85 -2.5) (layer F.Fab) (width 0.1))
  (fp_line (start -2.85 -2.5) (end 2.85 -2.5) (layer F.Fab) (width 0.1))
  (fp_line (start 2.85 -2.5) (end 2.85 2.5) (layer F.Fab) (width 0.1))
  (fp_line (start 2.85 2.5) (end -2.85 2.5) (layer F.Fab) (width 0.1))
  (fp_line (start -1.415748 -2.61) (end 1.415748 -2.61) (layer F.SilkS) (width 0.12))
  (fp_line (start -1.415748 2.61) (end 1.415748 2.61) (layer F.SilkS) (width 0.12))
  (fp_line (start -3.88 2.95) (end -3.88 -2.95) (layer F.CrtYd) (width 0.05))
  (fp_line (start -3.88 -2.95) (end 3.88 -2.95) (layer F.CrtYd) (width 0.05))
  (fp_line (start 3.88 -2.95) (end 3.88 2.95) (layer F.CrtYd) (width 0.05))
  (fp_line (start 3.88 2.95) (end -3.88 2.95) (layer F.CrtYd) (width 0.05))
  (pad 1 smd roundrect (at -2.6375 0) (size 1.975 5.4) (layers F.Cu F.Mask F.Paste) (roundrect_rratio 0.126582))
  (pad 2 smd roundrect (at 2.6375 0) (size 1.975 5.4) (layers F.Cu F.Mask F.Paste) (roundrect_rratio 0.126582))
  (fp_text user %R (at 0 0) (layer F.Fab)
    (effects (font (size 1 1) (thickness 0.15)))
  )
  (model ${KICAD6_3DMODEL_DIR}/Capacitor_SMD.3dshapes/C_2220_5650Metric.wrl
    (at (xyz 0 0 0))
    (scale (xyz 1 1 1))
    (rotate (xyz 0 0 0))
  )
)