(module C_2225_5664Metric_Pad1.80x6.60mm_HandSolder (layer F.Cu) (tedit 5F68FEEF)
  (descr "Capacitor SMD 2225 (5664 Metric), square (rectangular) end terminal, IPC_7351 nominal with elongated pad for handsoldering. (Body size from: http://datasheets.avx.com/AVX-HV_MLCC.pdf), generated with kicad-footprint-generator")
  (tags "capacitor handsolder")
  (attr smd)
  (fp_text reference REF** (at 0 -4.25) (layer F.SilkS)
    (effects (font (size 1 1) (thickness 0.15)))
  )
  (fp_text value C_2225_5664Metric_Pad1.80x6.60mm_HandSolder (at 0 4.25) (layer F.Fab)
    (effects (font (size 1 1) (thickness 0.15)))
  )
  (fp_line (start -2.86 3.175) (end -2.86 -3.175) (layer F.Fab) (width 0.1))
  (fp_line (start -2.86 -3.175) (end 2.86 -3.175) (layer F.Fab) (width 0.1))
  (fp_line (start 2.86 -3.175) (end 2.86 3.175) (layer F.Fab) (width 0.1))
  (fp_line (start 2.86 3.175) (end -2.86 3.175) (layer F.Fab) (width 0.1))
  (fp_line (start -1.522369 -3.285) (end 1.522369 -3.285) (layer F.SilkS) (width 0.12))
  (fp_line (start -1.522369 3.285) (end 1.522369 3.285) (layer F.SilkS) (width 0.12))
  (fp_line (start -3.78 3.55) (end -3.78 -3.55) (layer F.CrtYd) (width 0.05))
  (fp_line (start -3.78 -3.55) (end 3.78 -3.55) (layer F.CrtYd) (width 0.05))
  (fp_line (start 3.78 -3.55) (end 3.78 3.55) (layer F.CrtYd) (width 0.05))
  (fp_line (start 3.78 3.55) (end -3.78 3.55) (layer F.CrtYd) (width 0.05))
  (pad 1 smd roundrect (at -2.625 0) (size 1.8 6.6) (layers F.Cu F.Mask F.Paste) (roundrect_rratio 0.138889))
  (pad 2 smd roundrect (at 2.625 0) (size 1.8 6.6) (layers F.Cu F.Mask F.Paste) (roundrect_rratio 0.138889))
  (fp_text user %R (at 0 0) (layer F.Fab)
    (effects (font (size 1 1) (thickness 0.15)))
  )
  (model ${KICAD6_3DMODEL_DIR}/Capacitor_SMD.3dshapes/C_2225_5664Metric.wrl
    (at (xyz 0 0 0))
    (scale (xyz 1 1 1))
    (rotate (xyz 0 0 0))
  )
)