(module C_Elec_5x5.4 (layer F.Cu) (tedit 5BC8D926)
  (descr "SMD capacitor, aluminum electrolytic nonpolar, 5.0x5.4mm")
  (tags "capacitor electrolyic nonpolar")
  (attr smd)
  (fp_text reference REF** (at 0 -3.7) (layer F.SilkS)
    (effects (font (size 1 1) (thickness 0.15)))
  )
  (fp_text value C_Elec_5x5.4 (at 0 3.7) (layer F.Fab)
    (effects (font (size 1 1) (thickness 0.15)))
  )
  (fp_circle (center 0 0) (end 2.5 0) (layer F.Fab) (width 0.1))
  (fp_line (start 2.65 -2.65) (end 2.65 2.65) (layer F.Fab) (width 0.1))
  (fp_line (start -1.65 -2.65) (end 2.65 -2.65) (layer F.Fab) (width 0.1))
  (fp_line (start -1.65 2.65) (end 2.65 2.65) (layer F.Fab) (width 0.1))
  (fp_line (start -2.65 -1.65) (end -2.65 1.65) (layer F.Fab) (width 0.1))
  (fp_line (start -2.65 -1.65) (end -1.65 -2.65) (layer F.Fab) (width 0.1))
  (fp_line (start -2.65 1.65) (end -1.65 2.65) (layer F.Fab) (width 0.1))
  (fp_line (start 2.76 2.76) (end 2.76 1.06) (layer F.SilkS) (width 0.12))
  (fp_line (start 2.76 -2.76) (end 2.76 -1.06) (layer F.SilkS) (width 0.12))
  (fp_line (start -1.695563 -2.76) (end 2.76 -2.76) (layer F.SilkS) (width 0.12))
  (fp_line (start -1.695563 2.76) (end 2.76 2.76) (layer F.SilkS) (width 0.12))
  (fp_line (start -2.76 1.695563) (end -2.76 1.06) (layer F.SilkS) (width 0.12))
  (fp_line (start -2.76 -1.695563) (end -2.76 -1.06) (layer F.SilkS) (width 0.12))
  (fp_line (start -2.76 -1.695563) (end -1.695563 -2.76) (layer F.SilkS) (width 0.12))
  (fp_line (start -2.76 1.695563) (end -1.695563 2.76) (layer F.SilkS) (width 0.12))
  (fp_line (start 2.9 -2.9) (end 2.9 -1.05) (layer F.CrtYd) (width 0.05))
  (fp_line (start 2.9 -1.05) (end 3.7 -1.05) (layer F.CrtYd) (width 0.05))
  (fp_line (start 3.7 -1.05) (end 3.7 1.05) (layer F.CrtYd) (width 0.05))
  (fp_line (start 3.7 1.05) (end 2.9 1.05) (layer F.CrtYd) (width 0.05))
  (fp_line (start 2.9 1.05) (end 2.9 2.9) (layer F.CrtYd) (width 0.05))
  (fp_line (start -1.75 2.9) (end 2.9 2.9) (layer F.CrtYd) (width 0.05))
  (fp_line (start -1.75 -2.9) (end 2.9 -2.9) (layer F.CrtYd) (width 0.05))
  (fp_line (start -2.9 1.75) (end -1.75 2.9) (layer F.CrtYd) (width 0.05))
  (fp_line (start -2.9 -1.75) (end -1.75 -2.9) (layer F.CrtYd) (width 0.05))
  (fp_line (start -2.9 -1.75) (end -2.9 -1.05) (layer F.CrtYd) (width 0.05))
  (fp_line (start -2.9 1.05) (end -2.9 1.75) (layer F.CrtYd) (width 0.05))
  (fp_line (start -2.9 -1.05) (end -3.7 -1.05) (layer F.CrtYd) (width 0.05))
  (fp_line (start -3.7 -1.05) (end -3.7 1.05) (layer F.CrtYd) (width 0.05))
  (fp_line (start -3.7 1.05) (end -2.9 1.05) (layer F.CrtYd) (width 0.05))
  (pad 1 smd roundrect (at -2.0625 0) (size 2.775 1.6) (layers F.Cu F.Mask F.Paste) (roundrect_rratio 0.15625))
  (pad 2 smd roundrect (at 2.0625 0) (size 2.775 1.6) (layers F.Cu F.Mask F.Paste) (roundrect_rratio 0.15625))
  (fp_text user %R (at 0 0) (layer F.Fab)
    (effects (font (size 1 1) (thickness 0.15)))
  )
  (model ${KICAD6_3DMODEL_DIR}/Capacitor_SMD.3dshapes/C_Elec_5x5.4.wrl
    (at (xyz 0 0 0))
    (scale (xyz 1 1 1))
    (rotate (xyz 0 0 0))
  )
)