(module C_Trimmer_Voltronics_JN (layer F.Cu) (tedit 590DA842)
  (descr "trimmer capacitor SMD horizontal, http://www.knowlescapacitors.com/File%20Library/Voltronics/English/GlobalNavigation/Products/Trimmer%20Capacitors/CerChipTrimCap.pdf")
  (tags " Voltronics JN")
  (attr smd)
  (fp_text reference REF** (at 0 -2.05) (layer F.SilkS)
    (effects (font (size 1 1) (thickness 0.15)))
  )
  (fp_text value C_Trimmer_Voltronics_JN (at 0 2.05) (layer F.Fab)
    (effects (font (size 1 1) (thickness 0.15)))
  )
  (fp_circle (center 0 0) (end 0.7 0) (layer F.Fab) (width 0.1))
  (fp_line (start -0.85 -0.7) (end -0.84 -0.7) (layer F.Fab) (width 0.1))
  (fp_line (start -0.84 -0.7) (end 0.84 -0.7) (layer F.Fab) (width 0.1))
  (fp_line (start 0.84 -0.7) (end 0.85 -0.7) (layer F.Fab) (width 0.1))
  (fp_line (start 0.85 -0.7) (end 0.85 -0.69) (layer F.Fab) (width 0.1))
  (fp_line (start 0.85 -0.69) (end 0.85 0.69) (layer F.Fab) (width 0.1))
  (fp_line (start 0.85 0.69) (end 0.85 0.7) (layer F.Fab) (width 0.1))
  (fp_line (start 0.85 0.7) (end 0.84 0.7) (layer F.Fab) (width 0.1))
  (fp_line (start 0.84 0.7) (end -0.84 0.7) (layer F.Fab) (width 0.1))
  (fp_line (start -0.84 0.7) (end -0.85 0.7) (layer F.Fab) (width 0.1))
  (fp_line (start -0.85 0.7) (end -0.85 0.69) (layer F.Fab) (width 0.1))
  (fp_line (start -0.85 0.69) (end -0.85 -0.69) (layer F.Fab) (width 0.1))
  (fp_line (start -0.85 -0.69) (end -0.85 -0.7) (layer F.Fab) (width 0.1))
  (fp_line (start -0.45 -0.7) (end -0.45 -0.8) (layer F.Fab) (width 0.1))
  (fp_line (start -0.45 -0.8) (end 0.45 -0.8) (layer F.Fab) (width 0.1))
  (fp_line (start 0.45 -0.8) (end 0.45 -0.7) (layer F.Fab) (width 0.1))
  (fp_line (start -0.45 0.7) (end -0.45 0.8) (layer F.Fab) (width 0.1))
  (fp_line (start -0.45 0.8) (end 0.45 0.8) (layer F.Fab) (width 0.1))
  (fp_line (start 0.45 0.8) (end 0.45 0.7) (layer F.Fab) (width 0.1))
  (fp_line (start 0.85 -0.3) (end 0.95 -0.3) (layer F.Fab) (width 0.1))
  (fp_line (start 0.95 -0.3) (end 0.95 0.3) (layer F.Fab) (width 0.1))
  (fp_line (start 0.95 0.3) (end 0.85 0.3) (layer F.Fab) (width 0.1))
  (fp_line (start -1.05 -0.9) (end -0.55 -0.9) (layer F.SilkS) (width 0.12))
  (fp_line (start -1.05 -0.9) (end -1.05 -0.4) (layer F.SilkS) (width 0.12))
  (fp_line (start -1.05 0.9) (end -0.55 0.9) (layer F.SilkS) (width 0.12))
  (fp_line (start -1.05 0.9) (end -1.05 0.4) (layer F.SilkS) (width 0.12))
  (fp_line (start 1.05 -0.9) (end 0.55 -0.9) (layer F.SilkS) (width 0.12))
  (fp_line (start 1.05 -0.9) (end 1.05 -0.4) (layer F.SilkS) (width 0.12))
  (fp_line (start 1.05 0.9) (end 0.55 0.9) (layer F.SilkS) (width 0.12))
  (fp_line (start 1.05 0.9) (end 1.05 0.4) (layer F.SilkS) (width 0.12))
  (fp_line (start -1.35 -1.05) (end -1.35 1.05) (layer F.CrtYd) (width 0.05))
  (fp_line (start -1.35 1.05) (end 1.35 1.05) (layer F.CrtYd) (width 0.05))
  (fp_line (start 1.35 1.05) (end 1.35 -1.05) (layer F.CrtYd) (width 0.05))
  (fp_line (start 1.35 -1.05) (end -1.35 -1.05) (layer F.CrtYd) (width 0.05))
  (pad 1 smd rect (at -0.85 0) (size 0.5 0.5) (layers F.Cu F.Mask F.Paste))
  (pad 2 smd rect (at 0.85 0) (size 0.5 0.5) (layers F.Cu F.Mask F.Paste))
  (fp_text user %R (at 0 0) (layer F.Fab)
    (effects (font (size 0.5 0.5) (thickness 0.05)))
  )
  (model ${KICAD6_3DMODEL_DIR}/Capacitor_SMD.3dshapes/C_Trimmer_Voltronics_JN.wrl
    (at (xyz 0 0 0))
    (scale (xyz 1 1 1))
    (rotate (xyz 0 0 0))
  )
)