(module C_Trimmer_Voltronics_JR (layer F.Cu) (tedit 590DA842)
  (descr "trimmer capacitor SMD horizontal, http://www.knowlescapacitors.com/File%20Library/Voltronics/English/GlobalNavigation/Products/Trimmer%20Capacitors/CerChipTrimCap.pdf")
  (tags " Voltronics JR")
  (attr smd)
  (fp_text reference REF** (at 0 -2.8) (layer F.SilkS)
    (effects (font (size 1 1) (thickness 0.15)))
  )
  (fp_text value C_Trimmer_Voltronics_JR (at 0 2.8) (layer F.Fab)
    (effects (font (size 1 1) (thickness 0.15)))
  )
  (fp_circle (center 0 0) (end 1.55 0) (layer F.Fab) (width 0.1))
  (fp_line (start -1.45 -1.25) (end -1.15 -1.55) (layer F.Fab) (width 0.1))
  (fp_line (start -1.15 -1.55) (end 1.74 -1.55) (layer F.Fab) (width 0.1))
  (fp_line (start 1.74 -1.55) (end 1.75 -1.55) (layer F.Fab) (width 0.1))
  (fp_line (start 1.75 -1.55) (end 1.75 -1.54) (layer F.Fab) (width 0.1))
  (fp_line (start 1.75 -1.54) (end 1.75 1.54) (layer F.Fab) (width 0.1))
  (fp_line (start 1.75 1.54) (end 1.75 1.55) (layer F.Fab) (width 0.1))
  (fp_line (start 1.75 1.55) (end 1.74 1.55) (layer F.Fab) (width 0.1))
  (fp_line (start 1.74 1.55) (end -1.15 1.55) (layer F.Fab) (width 0.1))
  (fp_line (start -1.15 1.55) (end -1.45 1.25) (layer F.Fab) (width 0.1))
  (fp_line (start -1.45 1.25) (end -1.75 0.95) (layer F.Fab) (width 0.1))
  (fp_line (start -1.75 0.95) (end -1.75 -0.95) (layer F.Fab) (width 0.1))
  (fp_line (start -1.75 -0.95) (end -1.45 -1.25) (layer F.Fab) (width 0.1))
  (fp_line (start 1.75 -0.8) (end 2.15 -0.8) (layer F.Fab) (width 0.1))
  (fp_line (start 2.15 -0.8) (end 2.15 0.8) (layer F.Fab) (width 0.1))
  (fp_line (start 2.15 0.8) (end 1.75 0.8) (layer F.Fab) (width 0.1))
  (fp_line (start -1.95 -1.25) (end -1.45 -1.75) (layer F.SilkS) (width 0.12))
  (fp_line (start -1.95 1.25) (end -1.45 1.75) (layer F.SilkS) (width 0.12))
  (fp_line (start 1.95 -1.75) (end 1.45 -1.75) (layer F.SilkS) (width 0.12))
  (fp_line (start 1.95 -1.75) (end 1.95 -1.25) (layer F.SilkS) (width 0.12))
  (fp_line (start 1.95 1.75) (end 1.45 1.75) (layer F.SilkS) (width 0.12))
  (fp_line (start 1.95 1.75) (end 1.95 1.25) (layer F.SilkS) (width 0.12))
  (fp_line (start -2.45 -1.8) (end -2.45 1.8) (layer F.CrtYd) (width 0.05))
  (fp_line (start -2.45 1.8) (end 2.45 1.8) (layer F.CrtYd) (width 0.05))
  (fp_line (start 2.45 1.8) (end 2.45 -1.8) (layer F.CrtYd) (width 0.05))
  (fp_line (start 2.45 -1.8) (end -2.45 -1.8) (layer F.CrtYd) (width 0.05))
  (pad 1 smd rect (at -1.7 0) (size 1 1.8) (layers F.Cu F.Mask F.Paste))
  (pad 2 smd rect (at 1.7 0) (size 1 1.8) (layers F.Cu F.Mask F.Paste))
  (fp_text user %R (at 0 0) (layer F.Fab)
    (effects (font (size 0.5 0.5) (thickness 0.05)))
  )
  (model ${KICAD6_3DMODEL_DIR}/Capacitor_SMD.3dshapes/C_Trimmer_Voltronics_JR.wrl
    (at (xyz 0 0 0))
    (scale (xyz 1 1 1))
    (rotate (xyz 0 0 0))
  )
)