(module JAE_LY20-14P-DLT1_2x07_P2.00mm_Horizontal (layer F.Cu) (tedit 5B77F51C)
  (descr "Molex LY 20 series connector, LY20-14P-DLT1, 7 Circuits (http://www.jae.com/z-en/pdf_download_exec.cfm?param=SJ038187.pdf), generated with kicad-footprint-generator")
  (tags "connector JAE  top entry")
  (fp_text reference REF** (at 3.2 -3) (layer F.SilkS)
    (effects (font (size 1 1) (thickness 0.15)))
  )
  (fp_text value JAE_LY20-14P-DLT1_2x07_P2.00mm_Horizontal (at 3.2 15) (layer F.Fab)
    (effects (font (size 1 1) (thickness 0.15)))
  )
  (fp_line (start -0.6 -1.8) (end -0.6 13.8) (layer F.Fab) (width 0.1))
  (fp_line (start -0.6 13.8) (end 7 13.8) (layer F.Fab) (width 0.1))
  (fp_line (start 7 13.8) (end 7 -1.8) (layer F.Fab) (width 0.1))
  (fp_line (start 7 -1.8) (end -0.6 -1.8) (layer F.Fab) (width 0.1))
  (fp_line (start -0.71 13.91) (end 7.11 13.91) (layer F.SilkS) (width 0.12))
  (fp_line (start 7.11 13.91) (end 7.11 9.7) (layer F.SilkS) (width 0.12))
  (fp_line (start 7.11 9.7) (end 4.2 9.7) (layer F.SilkS) (width 0.12))
  (fp_line (start 4.2 9.7) (end 4.2 6) (layer F.SilkS) (width 0.12))
  (fp_line (start -0.71 -1.91) (end 7.11 -1.91) (layer F.SilkS) (width 0.12))
  (fp_line (start 7.11 -1.91) (end 7.11 2.3) (layer F.SilkS) (width 0.12))
  (fp_line (start 7.11 2.3) (end 4.2 2.3) (layer F.SilkS) (width 0.12))
  (fp_line (start 4.2 2.3) (end 4.2 6) (layer F.SilkS) (width 0.12))
  (fp_line (start -0.71 -1.91) (end -0.71 -0.86) (layer F.SilkS) (width 0.12))
  (fp_line (start -0.71 0.86) (end -0.71 1.514717) (layer F.SilkS) (width 0.12))
  (fp_line (start -0.71 12.485283) (end -0.71 13.91) (layer F.SilkS) (width 0.12))
  (fp_line (start -0.71 2.485283) (end -0.71 3.514717) (layer F.SilkS) (width 0.12))
  (fp_line (start -0.71 4.485283) (end -0.71 5.514717) (layer F.SilkS) (width 0.12))
  (fp_line (start -0.71 6.485283) (end -0.71 7.514717) (layer F.SilkS) (width 0.12))
  (fp_line (start -0.71 8.485283) (end -0.71 9.514717) (layer F.SilkS) (width 0.12))
  (fp_line (start -0.71 10.485283) (end -0.71 11.514717) (layer F.SilkS) (width 0.12))
  (fp_line (start 6.2 9.7) (end 6.2 8.25) (layer F.SilkS) (width 0.12))
  (fp_line (start 6.2 2.3) (end 6.2 3.75) (layer F.SilkS) (width 0.12))
  (fp_line (start 4.2 3.75) (end 6.733333 3.75) (layer F.SilkS) (width 0.12))
  (fp_line (start 6.733333 3.75) (end 6.9 4) (layer F.SilkS) (width 0.12))
  (fp_line (start 6.9 4) (end 6.733333 4.25) (layer F.SilkS) (width 0.12))
  (fp_line (start 6.733333 4.25) (end 4.2 4.25) (layer F.SilkS) (width 0.12))
  (fp_line (start 4.2 5.75) (end 6.733333 5.75) (layer F.SilkS) (width 0.12))
  (fp_line (start 6.733333 5.75) (end 6.9 6) (layer F.SilkS) (width 0.12))
  (fp_line (start 6.9 6) (end 6.733333 6.25) (layer F.SilkS) (width 0.12))
  (fp_line (start 6.733333 6.25) (end 4.2 6.25) (layer F.SilkS) (width 0.12))
  (fp_line (start 4.2 7.75) (end 6.733333 7.75) (layer F.SilkS) (width 0.12))
  (fp_line (start 6.733333 7.75) (end 6.9 8) (layer F.SilkS) (width 0.12))
  (fp_line (start 6.9 8) (end 6.733333 8.25) (layer F.SilkS) (width 0.12))
  (fp_line (start 6.733333 8.25) (end 4.2 8.25) (layer F.SilkS) (width 0.12))
  (fp_line (start 1.4 -2.21) (end -1.01 -2.21) (layer F.SilkS) (width 0.12))
  (fp_line (start -1.01 -2.21) (end -1.01 0.2) (layer F.SilkS) (width 0.12))
  (fp_line (start -0.6 0.5) (end 0.107107 0) (layer F.Fab) (width 0.1))
  (fp_line (start 0.107107 0) (end -0.6 -0.5) (layer F.Fab) (width 0.1))
  (fp_line (start -1.1 -2.3) (end -1.1 14.3) (layer F.CrtYd) (width 0.05))
  (fp_line (start -1.1 14.3) (end 7.5 14.3) (layer F.CrtYd) (width 0.05))
  (fp_line (start 7.5 14.3) (end 7.5 -2.3) (layer F.CrtYd) (width 0.05))
  (fp_line (start 7.5 -2.3) (end -1.1 -2.3) (layer F.CrtYd) (width 0.05))
  (pad a1 thru_hole roundrect (at 0 0) (size 1.2 1.2) (drill 0.8) (layers *.Cu *.Mask) (roundrect_rratio 0.208333))
  (pad a2 thru_hole circle (at 0 2) (size 1.2 1.2) (drill 0.8) (layers *.Cu *.Mask))
  (pad a3 thru_hole circle (at 0 4) (size 1.2 1.2) (drill 0.8) (layers *.Cu *.Mask))
  (pad a4 thru_hole circle (at 0 6) (size 1.2 1.2) (drill 0.8) (layers *.Cu *.Mask))
  (pad a5 thru_hole circle (at 0 8) (size 1.2 1.2) (drill 0.8) (layers *.Cu *.Mask))
  (pad a6 thru_hole circle (at 0 10) (size 1.2 1.2) (drill 0.8) (layers *.Cu *.Mask))
  (pad a7 thru_hole circle (at 0 12) (size 1.2 1.2) (drill 0.8) (layers *.Cu *.Mask))
  (pad b1 thru_hole circle (at 2 0) (size 1.2 1.2) (drill 0.8) (layers *.Cu *.Mask))
  (pad b2 thru_hole circle (at 2 2) (size 1.2 1.2) (drill 0.8) (layers *.Cu *.Mask))
  (pad b3 thru_hole circle (at 2 4) (size 1.2 1.2) (drill 0.8) (layers *.Cu *.Mask))
  (pad b4 thru_hole circle (at 2 6) (size 1.2 1.2) (drill 0.8) (layers *.Cu *.Mask))
  (pad b5 thru_hole circle (at 2 8) (size 1.2 1.2) (drill 0.8) (layers *.Cu *.Mask))
  (pad b6 thru_hole circle (at 2 10) (size 1.2 1.2) (drill 0.8) (layers *.Cu *.Mask))
  (pad b7 thru_hole circle (at 2 12) (size 1.2 1.2) (drill 0.8) (layers *.Cu *.Mask))
  (fp_text user %R (at 3.2 13.1) (layer F.Fab)
    (effects (font (size 1 1) (thickness 0.15)))
  )
  (model ${KICAD6_3DMODEL_DIR}/Connector_JAE.3dshapes/JAE_LY20-14P-DLT1_2x07_P2.00mm_Horizontal.wrl
    (at (xyz 0 0 0))
    (scale (xyz 1 1 1))
    (rotate (xyz 0 0 0))
  )
)