(module Harwin_M20-7812045_2x20_P2.54mm_Vertical (layer F.Cu) (tedit 5BFE5FC7)
  (descr "Harwin Female Vertical Surface Mount Double Row 2.54mm (0.1 inch) Pitch PCB Connector, M20-7812045, 20 Pins per row (https://cdn.harwin.com/pdfs/M20-781.pdf), generated with kicad-footprint-generator")
  (tags "connector Harwin M20 side entry")
  (attr smd)
  (fp_text reference REF** (at 0 -26.6) (layer F.SilkS)
    (effects (font (size 1 1) (thickness 0.15)))
  )
  (fp_text value Harwin_M20-7812045_2x20_P2.54mm_Vertical (at 0 26.8) (layer F.Fab)
    (effects (font (size 1 1) (thickness 0.15)))
  )
  (fp_line (start -2.54 -25.4) (end 2.54 -25.4) (layer F.Fab) (width 0.1))
  (fp_line (start 2.54 -25.4) (end 2.54 25.4) (layer F.Fab) (width 0.1))
  (fp_line (start 2.54 25.4) (end -2.54 25.4) (layer F.Fab) (width 0.1))
  (fp_line (start -2.54 25.4) (end -2.54 -25.4) (layer F.Fab) (width 0.1))
  (fp_line (start -2.54 -24.53) (end -1.9 -24.13) (layer F.Fab) (width 0.1))
  (fp_line (start -1.9 -24.13) (end -2.54 -23.73) (layer F.Fab) (width 0.1))
  (fp_line (start -2.65 -24.81) (end -2.65 -25.51) (layer F.SilkS) (width 0.12))
  (fp_line (start -2.65 -25.51) (end 2.65 -25.51) (layer F.SilkS) (width 0.12))
  (fp_line (start 2.65 -25.51) (end 2.65 -24.81) (layer F.SilkS) (width 0.12))
  (fp_line (start -2.65 24.81) (end -2.65 25.51) (layer F.SilkS) (width 0.12))
  (fp_line (start -2.65 25.51) (end 2.65 25.51) (layer F.SilkS) (width 0.12))
  (fp_line (start 2.65 25.51) (end 2.65 24.81) (layer F.SilkS) (width 0.12))
  (fp_line (start -4.3 -25.9) (end 4.3 -25.9) (layer F.CrtYd) (width 0.05))
  (fp_line (start 4.3 -25.9) (end 4.3 25.9) (layer F.CrtYd) (width 0.05))
  (fp_line (start 4.3 25.9) (end -4.3 25.9) (layer F.CrtYd) (width 0.05))
  (fp_line (start -4.3 25.9) (end -4.3 -25.9) (layer F.CrtYd) (width 0.05))
  (pad "" np_thru_hole circle (at 0 -22.86) (size 1.8 1.8) (drill 1.8) (layers *.Cu *.Mask))
  (pad "" np_thru_hole circle (at 0 22.86) (size 1.8 1.8) (drill 1.8) (layers *.Cu *.Mask))
  (pad "" np_thru_hole circle (at -1.27 -24.13) (size 1.02 1.02) (drill 1.02) (layers *.Cu *.Mask))
  (pad "" np_thru_hole circle (at -1.27 -21.59) (size 1.02 1.02) (drill 1.02) (layers *.Cu *.Mask))
  (pad "" np_thru_hole circle (at -1.27 -19.05) (size 1.02 1.02) (drill 1.02) (layers *.Cu *.Mask))
  (pad "" np_thru_hole circle (at -1.27 -16.51) (size 1.02 1.02) (drill 1.02) (layers *.Cu *.Mask))
  (pad "" np_thru_hole circle (at -1.27 -13.97) (size 1.02 1.02) (drill 1.02) (layers *.Cu *.Mask))
  (pad "" np_thru_hole circle (at -1.27 -11.43) (size 1.02 1.02) (drill 1.02) (layers *.Cu *.Mask))
  (pad "" np_thru_hole circle (at -1.27 -8.89) (size 1.02 1.02) (drill 1.02) (layers *.Cu *.Mask))
  (pad "" np_thru_hole circle (at -1.27 -6.35) (size 1.02 1.02) (drill 1.02) (layers *.Cu *.Mask))
  (pad "" np_thru_hole circle (at -1.27 -3.81) (size 1.02 1.02) (drill 1.02) (layers *.Cu *.Mask))
  (pad "" np_thru_hole circle (at -1.27 -1.27) (size 1.02 1.02) (drill 1.02) (layers *.Cu *.Mask))
  (pad "" np_thru_hole circle (at -1.27 1.27) (size 1.02 1.02) (drill 1.02) (layers *.Cu *.Mask))
  (pad "" np_thru_hole circle (at -1.27 3.81) (size 1.02 1.02) (drill 1.02) (layers *.Cu *.Mask))
  (pad "" np_thru_hole circle (at -1.27 6.35) (size 1.02 1.02) (drill 1.02) (layers *.Cu *.Mask))
  (pad "" np_thru_hole circle (at -1.27 8.89) (size 1.02 1.02) (drill 1.02) (layers *.Cu *.Mask))
  (pad "" np_thru_hole circle (at -1.27 11.43) (size 1.02 1.02) (drill 1.02) (layers *.Cu *.Mask))
  (pad "" np_thru_hole circle (at -1.27 13.97) (size 1.02 1.02) (drill 1.02) (layers *.Cu *.Mask))
  (pad "" np_thru_hole circle (at -1.27 16.51) (size 1.02 1.02) (drill 1.02) (layers *.Cu *.Mask))
  (pad "" np_thru_hole circle (at -1.27 19.05) (size 1.02 1.02) (drill 1.02) (layers *.Cu *.Mask))
  (pad "" np_thru_hole circle (at -1.27 21.59) (size 1.02 1.02) (drill 1.02) (layers *.Cu *.Mask))
  (pad "" np_thru_hole circle (at -1.27 24.13) (size 1.02 1.02) (drill 1.02) (layers *.Cu *.Mask))
  (pad "" np_thru_hole circle (at 1.27 -24.13) (size 1.02 1.02) (drill 1.02) (layers *.Cu *.Mask))
  (pad "" np_thru_hole circle (at 1.27 -21.59) (size 1.02 1.02) (drill 1.02) (layers *.Cu *.Mask))
  (pad "" np_thru_hole circle (at 1.27 -19.05) (size 1.02 1.02) (drill 1.02) (layers *.Cu *.Mask))
  (pad "" np_thru_hole circle (at 1.27 -16.51) (size 1.02 1.02) (drill 1.02) (layers *.Cu *.Mask))
  (pad "" np_thru_hole circle (at 1.27 -13.97) (size 1.02 1.02) (drill 1.02) (layers *.Cu *.Mask))
  (pad "" np_thru_hole circle (at 1.27 -11.43) (size 1.02 1.02) (drill 1.02) (layers *.Cu *.Mask))
  (pad "" np_thru_hole circle (at 1.27 -8.89) (size 1.02 1.02) (drill 1.02) (layers *.Cu *.Mask))
  (pad "" np_thru_hole circle (at 1.27 -6.35) (size 1.02 1.02) (drill 1.02) (layers *.Cu *.Mask))
  (pad "" np_thru_hole circle (at 1.27 -3.81) (size 1.02 1.02) (drill 1.02) (layers *.Cu *.Mask))
  (pad "" np_thru_hole circle (at 1.27 -1.27) (size 1.02 1.02) (drill 1.02) (layers *.Cu *.Mask))
  (pad "" np_thru_hole circle (at 1.27 1.27) (size 1.02 1.02) (drill 1.02) (layers *.Cu *.Mask))
  (pad "" np_thru_hole circle (at 1.27 3.81) (size 1.02 1.02) (drill 1.02) (layers *.Cu *.Mask))
  (pad "" np_thru_hole circle (at 1.27 6.35) (size 1.02 1.02) (drill 1.02) (layers *.Cu *.Mask))
  (pad "" np_thru_hole circle (at 1.27 8.89) (size 1.02 1.02) (drill 1.02) (layers *.Cu *.Mask))
  (pad "" np_thru_hole circle (at 1.27 11.43) (size 1.02 1.02) (drill 1.02) (layers *.Cu *.Mask))
  (pad "" np_thru_hole circle (at 1.27 13.97) (size 1.02 1.02) (drill 1.02) (layers *.Cu *.Mask))
  (pad "" np_thru_hole circle (at 1.27 16.51) (size 1.02 1.02) (drill 1.02) (layers *.Cu *.Mask))
  (pad "" np_thru_hole circle (at 1.27 19.05) (size 1.02 1.02) (drill 1.02) (layers *.Cu *.Mask))
  (pad "" np_thru_hole circle (at 1.27 21.59) (size 1.02 1.02) (drill 1.02) (layers *.Cu *.Mask))
  (pad "" np_thru_hole circle (at 1.27 24.13) (size 1.02 1.02) (drill 1.02) (layers *.Cu *.Mask))
  (pad 1 smd rect (at -2.91 -24.13) (size 1.78 1.02) (layers F.Cu F.Mask F.Paste))
  (pad 2 smd rect (at -2.91 -21.59) (size 1.78 1.02) (layers F.Cu F.Mask F.Paste))
  (pad 3 smd rect (at -2.91 -19.05) (size 1.78 1.02) (layers F.Cu F.Mask F.Paste))
  (pad 4 smd rect (at -2.91 -16.51) (size 1.78 1.02) (layers F.Cu F.Mask F.Paste))
  (pad 5 smd rect (at -2.91 -13.97) (size 1.78 1.02) (layers F.Cu F.Mask F.Paste))
  (pad 6 smd rect (at -2.91 -11.43) (size 1.78 1.02) (layers F.Cu F.Mask F.Paste))
  (pad 7 smd rect (at -2.91 -8.89) (size 1.78 1.02) (layers F.Cu F.Mask F.Paste))
  (pad 8 smd rect (at -2.91 -6.35) (size 1.78 1.02) (layers F.Cu F.Mask F.Paste))
  (pad 9 smd rect (at -2.91 -3.81) (size 1.78 1.02) (layers F.Cu F.Mask F.Paste))
  (pad 10 smd rect (at -2.91 -1.27) (size 1.78 1.02) (layers F.Cu F.Mask F.Paste))
  (pad 11 smd rect (at -2.91 1.27) (size 1.78 1.02) (layers F.Cu F.Mask F.Paste))
  (pad 12 smd rect (at -2.91 3.81) (size 1.78 1.02) (layers F.Cu F.Mask F.Paste))
  (pad 13 smd rect (at -2.91 6.35) (size 1.78 1.02) (layers F.Cu F.Mask F.Paste))
  (pad 14 smd rect (at -2.91 8.89) (size 1.78 1.02) (layers F.Cu F.Mask F.Paste))
  (pad 15 smd rect (at -2.91 11.43) (size 1.78 1.02) (layers F.Cu F.Mask F.Paste))
  (pad 16 smd rect (at -2.91 13.97) (size 1.78 1.02) (layers F.Cu F.Mask F.Paste))
  (pad 17 smd rect (at -2.91 16.51) (size 1.78 1.02) (layers F.Cu F.Mask F.Paste))
  (pad 18 smd rect (at -2.91 19.05) (size 1.78 1.02) (layers F.Cu F.Mask F.Paste))
  (pad 19 smd rect (at -2.91 21.59) (size 1.78 1.02) (layers F.Cu F.Mask F.Paste))
  (pad 20 smd rect (at -2.91 24.13) (size 1.78 1.02) (layers F.Cu F.Mask F.Paste))
  (pad 21 smd rect (at 2.91 -24.13) (size 1.78 1.02) (layers F.Cu F.Mask F.Paste))
  (pad 22 smd rect (at 2.91 -21.59) (size 1.78 1.02) (layers F.Cu F.Mask F.Paste))
  (pad 23 smd rect (at 2.91 -19.05) (size 1.78 1.02) (layers F.Cu F.Mask F.Paste))
  (pad 24 smd rect (at 2.91 -16.51) (size 1.78 1.02) (layers F.Cu F.Mask F.Paste))
  (pad 25 smd rect (at 2.91 -13.97) (size 1.78 1.02) (layers F.Cu F.Mask F.Paste))
  (pad 26 smd rect (at 2.91 -11.43) (size 1.78 1.02) (layers F.Cu F.Mask F.Paste))
  (pad 27 smd rect (at 2.91 -8.89) (size 1.78 1.02) (layers F.Cu F.Mask F.Paste))
  (pad 28 smd rect (at 2.91 -6.35) (size 1.78 1.02) (layers F.Cu F.Mask F.Paste))
  (pad 29 smd rect (at 2.91 -3.81) (size 1.78 1.02) (layers F.Cu F.Mask F.Paste))
  (pad 30 smd rect (at 2.91 -1.27) (size 1.78 1.02) (layers F.Cu F.Mask F.Paste))
  (pad 31 smd rect (at 2.91 1.27) (size 1.78 1.02) (layers F.Cu F.Mask F.Paste))
  (pad 32 smd rect (at 2.91 3.81) (size 1.78 1.02) (layers F.Cu F.Mask F.Paste))
  (pad 33 smd rect (at 2.91 6.35) (size 1.78 1.02) (layers F.Cu F.Mask F.Paste))
  (pad 34 smd rect (at 2.91 8.89) (size 1.78 1.02) (layers F.Cu F.Mask F.Paste))
  (pad 35 smd rect (at 2.91 11.43) (size 1.78 1.02) (layers F.Cu F.Mask F.Paste))
  (pad 36 smd rect (at 2.91 13.97) (size 1.78 1.02) (layers F.Cu F.Mask F.Paste))
  (pad 37 smd rect (at 2.91 16.51) (size 1.78 1.02) (layers F.Cu F.Mask F.Paste))
  (pad 38 smd rect (at 2.91 19.05) (size 1.78 1.02) (layers F.Cu F.Mask F.Paste))
  (pad 39 smd rect (at 2.91 21.59) (size 1.78 1.02) (layers F.Cu F.Mask F.Paste))
  (pad 40 smd rect (at 2.91 24.13) (size 1.78 1.02) (layers F.Cu F.Mask F.Paste))
  (fp_text user %R (at 0 -24.7) (layer F.Fab)
    (effects (font (size 1 1) (thickness 0.15)))
  )
  (model ${KICAD6_3DMODEL_DIR}/Connector_Harwin.3dshapes/Harwin_M20-7812045_2x20_P2.54mm_Vertical.wrl
    (at (xyz 0 0 0))
    (scale (xyz 1 1 1))
    (rotate (xyz 0 0 0))
  )
)