(module Harwin_M20-7810245_2x02_P2.54mm_Vertical (layer F.Cu) (tedit 5BFE5FC7)
  (descr "Harwin Female Vertical Surface Mount Double Row 2.54mm (0.1 inch) Pitch PCB Connector, M20-7810245, 2 Pins per row (https://cdn.harwin.com/pdfs/M20-781.pdf), generated with kicad-footprint-generator")
  (tags "connector Harwin M20 side entry")
  (attr smd)
  (fp_text reference REF** (at 0 -3.74) (layer F.SilkS)
    (effects (font (size 1 1) (thickness 0.15)))
  )
  (fp_text value Harwin_M20-7810245_2x02_P2.54mm_Vertical (at 0 3.94) (layer F.Fab)
    (effects (font (size 1 1) (thickness 0.15)))
  )
  (fp_line (start -2.54 -2.54) (end 2.54 -2.54) (layer F.Fab) (width 0.1))
  (fp_line (start 2.54 -2.54) (end 2.54 2.54) (layer F.Fab) (width 0.1))
  (fp_line (start 2.54 2.54) (end -2.54 2.54) (layer F.Fab) (width 0.1))
  (fp_line (start -2.54 2.54) (end -2.54 -2.54) (layer F.Fab) (width 0.1))
  (fp_line (start -2.54 -1.67) (end -1.9 -1.27) (layer F.Fab) (width 0.1))
  (fp_line (start -1.9 -1.27) (end -2.54 -0.87) (layer F.Fab) (width 0.1))
  (fp_line (start -2.65 -1.95) (end -2.65 -2.65) (layer F.SilkS) (width 0.12))
  (fp_line (start -2.65 -2.65) (end 2.65 -2.65) (layer F.SilkS) (width 0.12))
  (fp_line (start 2.65 -2.65) (end 2.65 -1.95) (layer F.SilkS) (width 0.12))
  (fp_line (start -2.65 1.95) (end -2.65 2.65) (layer F.SilkS) (width 0.12))
  (fp_line (start -2.65 2.65) (end 2.65 2.65) (layer F.SilkS) (width 0.12))
  (fp_line (start 2.65 2.65) (end 2.65 1.95) (layer F.SilkS) (width 0.12))
  (fp_line (start -4.3 -3.04) (end 4.3 -3.04) (layer F.CrtYd) (width 0.05))
  (fp_line (start 4.3 -3.04) (end 4.3 3.04) (layer F.CrtYd) (width 0.05))
  (fp_line (start 4.3 3.04) (end -4.3 3.04) (layer F.CrtYd) (width 0.05))
  (fp_line (start -4.3 3.04) (end -4.3 -3.04) (layer F.CrtYd) (width 0.05))
  (pad "" np_thru_hole circle (at 0 0) (size 1.8 1.8) (drill 1.8) (layers *.Cu *.Mask))
  (pad "" np_thru_hole circle (at -1.27 -1.27) (size 1.02 1.02) (drill 1.02) (layers *.Cu *.Mask))
  (pad "" np_thru_hole circle (at -1.27 1.27) (size 1.02 1.02) (drill 1.02) (layers *.Cu *.Mask))
  (pad "" np_thru_hole circle (at 1.27 -1.27) (size 1.02 1.02) (drill 1.02) (layers *.Cu *.Mask))
  (pad "" np_thru_hole circle (at 1.27 1.27) (size 1.02 1.02) (drill 1.02) (layers *.Cu *.Mask))
  (pad 1 smd rect (at -2.91 -1.27) (size 1.78 1.02) (layers F.Cu F.Mask F.Paste))
  (pad 2 smd rect (at -2.91 1.27) (size 1.78 1.02) (layers F.Cu F.Mask F.Paste))
  (pad 3 smd rect (at 2.91 -1.27) (size 1.78 1.02) (layers F.Cu F.Mask F.Paste))
  (pad 4 smd rect (at 2.91 1.27) (size 1.78 1.02) (layers F.Cu F.Mask F.Paste))
  (fp_text user %R (at 0 -1.84) (layer F.Fab)
    (effects (font (size 1 1) (thickness 0.15)))
  )
  (model ${KICAD6_3DMODEL_DIR}/Connector_Harwin.3dshapes/Harwin_M20-7810245_2x02_P2.54mm_Vertical.wrl
    (at (xyz 0 0 0))
    (scale (xyz 1 1 1))
    (rotate (xyz 0 0 0))
  )
)