(module Harwin_LTek-Male_2x22_P2.00mm_Vertical_StrainRelief (layer F.Cu) (tedit 5A16B2BF)
  (descr "Harwin LTek Connector, 44 pins, single row male, vertical entry, strain relief clip")
  (tags "connector harwin ltek M80")
  (fp_text reference REF** (at 21 -5.5) (layer F.SilkS)
    (effects (font (size 1 1) (thickness 0.15)))
  )
  (fp_text value Harwin_LTek-Male_2x22_P2.00mm_Vertical_StrainRelief (at 21 4) (layer F.Fab)
    (effects (font (size 1 1) (thickness 0.15)))
  )
  (fp_line (start -1.05 -4.1) (end 43.05 -4.1) (layer F.SilkS) (width 0.12))
  (fp_line (start -1.05 2.1) (end 43.05 2.1) (layer F.SilkS) (width 0.12))
  (fp_line (start -3.15 -2.5) (end -3.15 0.5) (layer F.SilkS) (width 0.12))
  (fp_line (start 45.15 -2.5) (end 45.15 0.5) (layer F.SilkS) (width 0.12))
  (fp_line (start -3.55 -4.5) (end -3.55 2.5) (layer F.CrtYd) (width 0.05))
  (fp_line (start -3.55 2.5) (end 45.55 2.5) (layer F.CrtYd) (width 0.05))
  (fp_line (start 45.55 2.5) (end 45.55 -4.5) (layer F.CrtYd) (width 0.05))
  (fp_line (start 45.55 -4.5) (end -3.55 -4.5) (layer F.CrtYd) (width 0.05))
  (fp_line (start -3.05 -4) (end -3.05 2) (layer F.Fab) (width 0.1))
  (fp_line (start -3.05 2) (end 45.05 2) (layer F.Fab) (width 0.1))
  (fp_line (start 45.05 2) (end 45.05 -4) (layer F.Fab) (width 0.1))
  (fp_line (start 45.05 -4) (end -3.05 -4) (layer F.Fab) (width 0.1))
  (fp_line (start -1.75 1.5) (end -1.75 -2.75) (layer F.Fab) (width 0.1))
  (fp_line (start -1.75 -2.75) (end -1 -3.5) (layer F.Fab) (width 0.1))
  (fp_line (start -1 -3.5) (end 43 -3.5) (layer F.Fab) (width 0.1))
  (fp_line (start 43 -3.5) (end 43.75 -2.75) (layer F.Fab) (width 0.1))
  (fp_line (start 43.75 -2.75) (end 43.75 1.5) (layer F.Fab) (width 0.1))
  (fp_line (start 43.75 1.5) (end -1.75 1.5) (layer F.Fab) (width 0.1))
  (fp_line (start -1.6 0) (end -1.6 -2.75) (layer F.SilkS) (width 0.12))
  (fp_line (start -1.6 -2.75) (end -1 -3.35) (layer F.SilkS) (width 0.12))
  (fp_line (start -1 -3.35) (end 21 -3.35) (layer F.SilkS) (width 0.12))
  (fp_line (start 43.6 0) (end 43.6 -2.75) (layer F.SilkS) (width 0.12))
  (fp_line (start 43.6 -2.75) (end 43 -3.35) (layer F.SilkS) (width 0.12))
  (fp_line (start 43 -3.35) (end 21 -3.35) (layer F.SilkS) (width 0.12))
  (fp_line (start 0 0.75) (end -0.3 1.35) (layer F.Fab) (width 0.1))
  (fp_line (start -0.3 1.35) (end 0.3 1.35) (layer F.Fab) (width 0.1))
  (fp_line (start 0.3 1.35) (end 0 0.75) (layer F.Fab) (width 0.1))
  (fp_line (start -3.5 1.5) (end -3.5 2.5) (layer F.SilkS) (width 0.12))
  (fp_line (start -3.5 2.5) (end -2.5 2.5) (layer F.SilkS) (width 0.12))
  (pad 1 thru_hole rect (at 0 0) (size 1.35 1.35) (drill 0.8) (layers *.Cu *.Mask))
  (pad 3 thru_hole circle (at 2 0) (size 1.35 1.35) (drill 0.8) (layers *.Cu *.Mask))
  (pad 5 thru_hole circle (at 4 0) (size 1.35 1.35) (drill 0.8) (layers *.Cu *.Mask))
  (pad 7 thru_hole circle (at 6 0) (size 1.35 1.35) (drill 0.8) (layers *.Cu *.Mask))
  (pad 9 thru_hole circle (at 8 0) (size 1.35 1.35) (drill 0.8) (layers *.Cu *.Mask))
  (pad 11 thru_hole circle (at 10 0) (size 1.35 1.35) (drill 0.8) (layers *.Cu *.Mask))
  (pad 13 thru_hole circle (at 12 0) (size 1.35 1.35) (drill 0.8) (layers *.Cu *.Mask))
  (pad 15 thru_hole circle (at 14 0) (size 1.35 1.35) (drill 0.8) (layers *.Cu *.Mask))
  (pad 17 thru_hole circle (at 16 0) (size 1.35 1.35) (drill 0.8) (layers *.Cu *.Mask))
  (pad 19 thru_hole circle (at 18 0) (size 1.35 1.35) (drill 0.8) (layers *.Cu *.Mask))
  (pad 21 thru_hole circle (at 20 0) (size 1.35 1.35) (drill 0.8) (layers *.Cu *.Mask))
  (pad 23 thru_hole circle (at 22 0) (size 1.35 1.35) (drill 0.8) (layers *.Cu *.Mask))
  (pad 25 thru_hole circle (at 24 0) (size 1.35 1.35) (drill 0.8) (layers *.Cu *.Mask))
  (pad 27 thru_hole circle (at 26 0) (size 1.35 1.35) (drill 0.8) (layers *.Cu *.Mask))
  (pad 29 thru_hole circle (at 28 0) (size 1.35 1.35) (drill 0.8) (layers *.Cu *.Mask))
  (pad 31 thru_hole circle (at 30 0) (size 1.35 1.35) (drill 0.8) (layers *.Cu *.Mask))
  (pad 33 thru_hole circle (at 32 0) (size 1.35 1.35) (drill 0.8) (layers *.Cu *.Mask))
  (pad 35 thru_hole circle (at 34 0) (size 1.35 1.35) (drill 0.8) (layers *.Cu *.Mask))
  (pad 37 thru_hole circle (at 36 0) (size 1.35 1.35) (drill 0.8) (layers *.Cu *.Mask))
  (pad 39 thru_hole circle (at 38 0) (size 1.35 1.35) (drill 0.8) (layers *.Cu *.Mask))
  (pad 41 thru_hole circle (at 40 0) (size 1.35 1.35) (drill 0.8) (layers *.Cu *.Mask))
  (pad 43 thru_hole circle (at 42 0) (size 1.35 1.35) (drill 0.8) (layers *.Cu *.Mask))
  (pad 2 thru_hole circle (at 0 -2) (size 1.35 1.35) (drill 0.8) (layers *.Cu *.Mask))
  (pad 4 thru_hole circle (at 2 -2) (size 1.35 1.35) (drill 0.8) (layers *.Cu *.Mask))
  (pad 6 thru_hole circle (at 4 -2) (size 1.35 1.35) (drill 0.8) (layers *.Cu *.Mask))
  (pad 8 thru_hole circle (at 6 -2) (size 1.35 1.35) (drill 0.8) (layers *.Cu *.Mask))
  (pad 10 thru_hole circle (at 8 -2) (size 1.35 1.35) (drill 0.8) (layers *.Cu *.Mask))
  (pad 12 thru_hole circle (at 10 -2) (size 1.35 1.35) (drill 0.8) (layers *.Cu *.Mask))
  (pad 14 thru_hole circle (at 12 -2) (size 1.35 1.35) (drill 0.8) (layers *.Cu *.Mask))
  (pad 16 thru_hole circle (at 14 -2) (size 1.35 1.35) (drill 0.8) (layers *.Cu *.Mask))
  (pad 18 thru_hole circle (at 16 -2) (size 1.35 1.35) (drill 0.8) (layers *.Cu *.Mask))
  (pad 20 thru_hole circle (at 18 -2) (size 1.35 1.35) (drill 0.8) (layers *.Cu *.Mask))
  (pad 22 thru_hole circle (at 20 -2) (size 1.35 1.35) (drill 0.8) (layers *.Cu *.Mask))
  (pad 24 thru_hole circle (at 22 -2) (size 1.35 1.35) (drill 0.8) (layers *.Cu *.Mask))
  (pad 26 thru_hole circle (at 24 -2) (size 1.35 1.35) (drill 0.8) (layers *.Cu *.Mask))
  (pad 28 thru_hole circle (at 26 -2) (size 1.35 1.35) (drill 0.8) (layers *.Cu *.Mask))
  (pad 30 thru_hole circle (at 28 -2) (size 1.35 1.35) (drill 0.8) (layers *.Cu *.Mask))
  (pad 32 thru_hole circle (at 30 -2) (size 1.35 1.35) (drill 0.8) (layers *.Cu *.Mask))
  (pad 34 thru_hole circle (at 32 -2) (size 1.35 1.35) (drill 0.8) (layers *.Cu *.Mask))
  (pad 36 thru_hole circle (at 34 -2) (size 1.35 1.35) (drill 0.8) (layers *.Cu *.Mask))
  (pad 38 thru_hole circle (at 36 -2) (size 1.35 1.35) (drill 0.8) (layers *.Cu *.Mask))
  (pad 40 thru_hole circle (at 38 -2) (size 1.35 1.35) (drill 0.8) (layers *.Cu *.Mask))
  (pad 42 thru_hole circle (at 40 -2) (size 1.35 1.35) (drill 0.8) (layers *.Cu *.Mask))
  (pad 44 thru_hole circle (at 42 -2) (size 1.35 1.35) (drill 0.8) (layers *.Cu *.Mask))
  (pad "" thru_hole circle (at -2.25 -3.375) (size 1.25 1.25) (drill 0.95) (layers *.Cu *.Mask))
  (pad "" thru_hole circle (at -2.25 1.375) (size 1.25 1.25) (drill 0.95) (layers *.Cu *.Mask))
  (pad "" thru_hole circle (at 44.25 -3.375) (size 1.25 1.25) (drill 0.95) (layers *.Cu *.Mask))
  (pad "" thru_hole circle (at 44.25 1.375) (size 1.25 1.25) (drill 0.95) (layers *.Cu *.Mask))
  (fp_text user %R (at 21 0) (layer F.Fab)
    (effects (font (size 1 1) (thickness 0.15)))
  )
  (model ${KICAD6_3DMODEL_DIR}/Connector_Harwin.3dshapes/Harwin_LTek-Male_2x22_P2.00mm_Vertical_StrainRelief.wrl
    (at (xyz 0 0 0))
    (scale (xyz 1 1 1))
    (rotate (xyz 0 0 0))
  )
)