(module Harwin_M20-89018xx_1x18_P2.54mm_Horizontal (layer F.Cu) (tedit 5B154A07)
  (descr "Harwin Male Horizontal Surface Mount Single Row 2.54mm (0.1 inch) Pitch PCB Connector, M20-89018xx, 18 Pins per row (https://cdn.harwin.com/pdfs/M20-890.pdf), generated with kicad-footprint-generator")
  (tags "connector Harwin M20-890 horizontal")
  (attr smd)
  (fp_text reference REF** (at -0.48 -24.06) (layer F.SilkS)
    (effects (font (size 1 1) (thickness 0.15)))
  )
  (fp_text value Harwin_M20-89018xx_1x18_P2.54mm_Horizontal (at -0.48 24.06) (layer F.Fab)
    (effects (font (size 1 1) (thickness 0.15)))
  )
  (fp_line (start -1.725 -21.91) (end -6.425 -21.91) (layer F.Fab) (width 0.1))
  (fp_line (start -6.425 -21.91) (end -6.425 -21.27) (layer F.Fab) (width 0.1))
  (fp_line (start -6.425 -21.27) (end -1.725 -21.27) (layer F.Fab) (width 0.1))
  (fp_line (start 0.775 -21.91) (end 6.775 -21.91) (layer F.Fab) (width 0.1))
  (fp_line (start 6.775 -21.91) (end 6.775 -21.27) (layer F.Fab) (width 0.1))
  (fp_line (start 6.775 -21.27) (end 0.775 -21.27) (layer F.Fab) (width 0.1))
  (fp_line (start -1.725 -19.37) (end -6.425 -19.37) (layer F.Fab) (width 0.1))
  (fp_line (start -6.425 -19.37) (end -6.425 -18.73) (layer F.Fab) (width 0.1))
  (fp_line (start -6.425 -18.73) (end -1.725 -18.73) (layer F.Fab) (width 0.1))
  (fp_line (start 0.775 -19.37) (end 6.775 -19.37) (layer F.Fab) (width 0.1))
  (fp_line (start 6.775 -19.37) (end 6.775 -18.73) (layer F.Fab) (width 0.1))
  (fp_line (start 6.775 -18.73) (end 0.775 -18.73) (layer F.Fab) (width 0.1))
  (fp_line (start -1.725 -16.83) (end -6.425 -16.83) (layer F.Fab) (width 0.1))
  (fp_line (start -6.425 -16.83) (end -6.425 -16.19) (layer F.Fab) (width 0.1))
  (fp_line (start -6.425 -16.19) (end -1.725 -16.19) (layer F.Fab) (width 0.1))
  (fp_line (start 0.775 -16.83) (end 6.775 -16.83) (layer F.Fab) (width 0.1))
  (fp_line (start 6.775 -16.83) (end 6.775 -16.19) (layer F.Fab) (width 0.1))
  (fp_line (start 6.775 -16.19) (end 0.775 -16.19) (layer F.Fab) (width 0.1))
  (fp_line (start -1.725 -14.29) (end -6.425 -14.29) (layer F.Fab) (width 0.1))
  (fp_line (start -6.425 -14.29) (end -6.425 -13.65) (layer F.Fab) (width 0.1))
  (fp_line (start -6.425 -13.65) (end -1.725 -13.65) (layer F.Fab) (width 0.1))
  (fp_line (start 0.775 -14.29) (end 6.775 -14.29) (layer F.Fab) (width 0.1))
  (fp_line (start 6.775 -14.29) (end 6.775 -13.65) (layer F.Fab) (width 0.1))
  (fp_line (start 6.775 -13.65) (end 0.775 -13.65) (layer F.Fab) (width 0.1))
  (fp_line (start -1.725 -11.75) (end -6.425 -11.75) (layer F.Fab) (width 0.1))
  (fp_line (start -6.425 -11.75) (end -6.425 -11.11) (layer F.Fab) (width 0.1))
  (fp_line (start -6.425 -11.11) (end -1.725 -11.11) (layer F.Fab) (width 0.1))
  (fp_line (start 0.775 -11.75) (end 6.775 -11.75) (layer F.Fab) (width 0.1))
  (fp_line (start 6.775 -11.75) (end 6.775 -11.11) (layer F.Fab) (width 0.1))
  (fp_line (start 6.775 -11.11) (end 0.775 -11.11) (layer F.Fab) (width 0.1))
  (fp_line (start -1.725 -9.21) (end -6.425 -9.21) (layer F.Fab) (width 0.1))
  (fp_line (start -6.425 -9.21) (end -6.425 -8.57) (layer F.Fab) (width 0.1))
  (fp_line (start -6.425 -8.57) (end -1.725 -8.57) (layer F.Fab) (width 0.1))
  (fp_line (start 0.775 -9.21) (end 6.775 -9.21) (layer F.Fab) (width 0.1))
  (fp_line (start 6.775 -9.21) (end 6.775 -8.57) (layer F.Fab) (width 0.1))
  (fp_line (start 6.775 -8.57) (end 0.775 -8.57) (layer F.Fab) (width 0.1))
  (fp_line (start -1.725 -6.67) (end -6.425 -6.67) (layer F.Fab) (width 0.1))
  (fp_line (start -6.425 -6.67) (end -6.425 -6.03) (layer F.Fab) (width 0.1))
  (fp_line (start -6.425 -6.03) (end -1.725 -6.03) (layer F.Fab) (width 0.1))
  (fp_line (start 0.775 -6.67) (end 6.775 -6.67) (layer F.Fab) (width 0.1))
  (fp_line (start 6.775 -6.67) (end 6.775 -6.03) (layer F.Fab) (width 0.1))
  (fp_line (start 6.775 -6.03) (end 0.775 -6.03) (layer F.Fab) (width 0.1))
  (fp_line (start -1.725 -4.13) (end -6.425 -4.13) (layer F.Fab) (width 0.1))
  (fp_line (start -6.425 -4.13) (end -6.425 -3.49) (layer F.Fab) (width 0.1))
  (fp_line (start -6.425 -3.49) (end -1.725 -3.49) (layer F.Fab) (width 0.1))
  (fp_line (start 0.775 -4.13) (end 6.775 -4.13) (layer F.Fab) (width 0.1))
  (fp_line (start 6.775 -4.13) (end 6.775 -3.49) (layer F.Fab) (width 0.1))
  (fp_line (start 6.775 -3.49) (end 0.775 -3.49) (layer F.Fab) (width 0.1))
  (fp_line (start -1.725 -1.59) (end -6.425 -1.59) (layer F.Fab) (width 0.1))
  (fp_line (start -6.425 -1.59) (end -6.425 -0.95) (layer F.Fab) (width 0.1))
  (fp_line (start -6.425 -0.95) (end -1.725 -0.95) (layer F.Fab) (width 0.1))
  (fp_line (start 0.775 -1.59) (end 6.775 -1.59) (layer F.Fab) (width 0.1))
  (fp_line (start 6.775 -1.59) (end 6.775 -0.95) (layer F.Fab) (width 0.1))
  (fp_line (start 6.775 -0.95) (end 0.775 -0.95) (layer F.Fab) (width 0.1))
  (fp_line (start -1.725 0.95) (end -6.425 0.95) (layer F.Fab) (width 0.1))
  (fp_line (start -6.425 0.95) (end -6.425 1.59) (layer F.Fab) (width 0.1))
  (fp_line (start -6.425 1.59) (end -1.725 1.59) (layer F.Fab) (width 0.1))
  (fp_line (start 0.775 0.95) (end 6.775 0.95) (layer F.Fab) (width 0.1))
  (fp_line (start 6.775 0.95) (end 6.775 1.59) (layer F.Fab) (width 0.1))
  (fp_line (start 6.775 1.59) (end 0.775 1.59) (layer F.Fab) (width 0.1))
  (fp_line (start -1.725 3.49) (end -6.425 3.49) (layer F.Fab) (width 0.1))
  (fp_line (start -6.425 3.49) (end -6.425 4.13) (layer F.Fab) (width 0.1))
  (fp_line (start -6.425 4.13) (end -1.725 4.13) (layer F.Fab) (width 0.1))
  (fp_line (start 0.775 3.49) (end 6.775 3.49) (layer F.Fab) (width 0.1))
  (fp_line (start 6.775 3.49) (end 6.775 4.13) (layer F.Fab) (width 0.1))
  (fp_line (start 6.775 4.13) (end 0.775 4.13) (layer F.Fab) (width 0.1))
  (fp_line (start -1.725 6.03) (end -6.425 6.03) (layer F.Fab) (width 0.1))
  (fp_line (start -6.425 6.03) (end -6.425 6.67) (layer F.Fab) (width 0.1))
  (fp_line (start -6.425 6.67) (end -1.725 6.67) (layer F.Fab) (width 0.1))
  (fp_line (start 0.775 6.03) (end 6.775 6.03) (layer F.Fab) (width 0.1))
  (fp_line (start 6.775 6.03) (end 6.775 6.67) (layer F.Fab) (width 0.1))
  (fp_line (start 6.775 6.67) (end 0.775 6.67) (layer F.Fab) (width 0.1))
  (fp_line (start -1.725 8.57) (end -6.425 8.57) (layer F.Fab) (width 0.1))
  (fp_line (start -6.425 8.57) (end -6.425 9.21) (layer F.Fab) (width 0.1))
  (fp_line (start -6.425 9.21) (end -1.725 9.21) (layer F.Fab) (width 0.1))
  (fp_line (start 0.775 8.57) (end 6.775 8.57) (layer F.Fab) (width 0.1))
  (fp_line (start 6.775 8.57) (end 6.775 9.21) (layer F.Fab) (width 0.1))
  (fp_line (start 6.775 9.21) (end 0.775 9.21) (layer F.Fab) (width 0.1))
  (fp_line (start -1.725 11.11) (end -6.425 11.11) (layer F.Fab) (width 0.1))
  (fp_line (start -6.425 11.11) (end -6.425 11.75) (layer F.Fab) (width 0.1))
  (fp_line (start -6.425 11.75) (end -1.725 11.75) (layer F.Fab) (width 0.1))
  (fp_line (start 0.775 11.11) (end 6.775 11.11) (layer F.Fab) (width 0.1))
  (fp_line (start 6.775 11.11) (end 6.775 11.75) (layer F.Fab) (width 0.1))
  (fp_line (start 6.775 11.75) (end 0.775 11.75) (layer F.Fab) (width 0.1))
  (fp_line (start -1.725 13.65) (end -6.425 13.65) (layer F.Fab) (width 0.1))
  (fp_line (start -6.425 13.65) (end -6.425 14.29) (layer F.Fab) (width 0.1))
  (fp_line (start -6.425 14.29) (end -1.725 14.29) (layer F.Fab) (width 0.1))
  (fp_line (start 0.775 13.65) (end 6.775 13.65) (layer F.Fab) (width 0.1))
  (fp_line (start 6.775 13.65) (end 6.775 14.29) (layer F.Fab) (width 0.1))
  (fp_line (start 6.775 14.29) (end 0.775 14.29) (layer F.Fab) (width 0.1))
  (fp_line (start -1.725 16.19) (end -6.425 16.19) (layer F.Fab) (width 0.1))
  (fp_line (start -6.425 16.19) (end -6.425 16.83) (layer F.Fab) (width 0.1))
  (fp_line (start -6.425 16.83) (end -1.725 16.83) (layer F.Fab) (width 0.1))
  (fp_line (start 0.775 16.19) (end 6.775 16.19) (layer F.Fab) (width 0.1))
  (fp_line (start 6.775 16.19) (end 6.775 16.83) (layer F.Fab) (width 0.1))
  (fp_line (start 6.775 16.83) (end 0.775 16.83) (layer F.Fab) (width 0.1))
  (fp_line (start -1.725 18.73) (end -6.425 18.73) (layer F.Fab) (width 0.1))
  (fp_line (start -6.425 18.73) (end -6.425 19.37) (layer F.Fab) (width 0.1))
  (fp_line (start -6.425 19.37) (end -1.725 19.37) (layer F.Fab) (width 0.1))
  (fp_line (start 0.775 18.73) (end 6.775 18.73) (layer F.Fab) (width 0.1))
  (fp_line (start 6.775 18.73) (end 6.775 19.37) (layer F.Fab) (width 0.1))
  (fp_line (start 6.775 19.37) (end 0.775 19.37) (layer F.Fab) (width 0.1))
  (fp_line (start -1.725 21.27) (end -6.425 21.27) (layer F.Fab) (width 0.1))
  (fp_line (start -6.425 21.27) (end -6.425 21.91) (layer F.Fab) (width 0.1))
  (fp_line (start -6.425 21.91) (end -1.725 21.91) (layer F.Fab) (width 0.1))
  (fp_line (start 0.775 21.27) (end 6.775 21.27) (layer F.Fab) (width 0.1))
  (fp_line (start 6.775 21.27) (end 6.775 21.91) (layer F.Fab) (width 0.1))
  (fp_line (start 6.775 21.91) (end 0.775 21.91) (layer F.Fab) (width 0.1))
  (fp_line (start -1.725 -22.46) (end -1.325 -22.86) (layer F.Fab) (width 0.1))
  (fp_line (start -1.325 -22.86) (end 0.775 -22.86) (layer F.Fab) (width 0.1))
  (fp_line (start 0.775 -22.86) (end 0.775 22.86) (layer F.Fab) (width 0.1))
  (fp_line (start 0.775 22.86) (end -1.725 22.86) (layer F.Fab) (width 0.1))
  (fp_line (start -1.725 22.86) (end -1.725 -22.46) (layer F.Fab) (width 0.1))
  (fp_line (start -1.845 -22.98) (end 0.895 -22.98) (layer F.SilkS) (width 0.12))
  (fp_line (start 0.895 -22.98) (end 0.895 22.98) (layer F.SilkS) (width 0.12))
  (fp_line (start 0.895 22.98) (end -1.845 22.98) (layer F.SilkS) (width 0.12))
  (fp_line (start -1.845 22.98) (end -1.845 -22.98) (layer F.SilkS) (width 0.12))
  (fp_line (start -3.955 -22.03) (end -1.845 -22.03) (layer F.SilkS) (width 0.12))
  (fp_line (start -3.955 -21.15) (end -1.845 -21.15) (layer F.SilkS) (width 0.12))
  (fp_line (start 0.895 -22.03) (end 6.895 -22.03) (layer F.SilkS) (width 0.12))
  (fp_line (start 6.895 -22.03) (end 6.895 -21.15) (layer F.SilkS) (width 0.12))
  (fp_line (start 6.895 -21.15) (end 0.895 -21.15) (layer F.SilkS) (width 0.12))
  (fp_line (start -3.955 -19.49) (end -1.845 -19.49) (layer F.SilkS) (width 0.12))
  (fp_line (start -3.955 -18.61) (end -1.845 -18.61) (layer F.SilkS) (width 0.12))
  (fp_line (start 0.895 -19.49) (end 6.895 -19.49) (layer F.SilkS) (width 0.12))
  (fp_line (start 6.895 -19.49) (end 6.895 -18.61) (layer F.SilkS) (width 0.12))
  (fp_line (start 6.895 -18.61) (end 0.895 -18.61) (layer F.SilkS) (width 0.12))
  (fp_line (start -3.955 -16.95) (end -1.845 -16.95) (layer F.SilkS) (width 0.12))
  (fp_line (start -3.955 -16.07) (end -1.845 -16.07) (layer F.SilkS) (width 0.12))
  (fp_line (start 0.895 -16.95) (end 6.895 -16.95) (layer F.SilkS) (width 0.12))
  (fp_line (start 6.895 -16.95) (end 6.895 -16.07) (layer F.SilkS) (width 0.12))
  (fp_line (start 6.895 -16.07) (end 0.895 -16.07) (layer F.SilkS) (width 0.12))
  (fp_line (start -3.955 -14.41) (end -1.845 -14.41) (layer F.SilkS) (width 0.12))
  (fp_line (start -3.955 -13.53) (end -1.845 -13.53) (layer F.SilkS) (width 0.12))
  (fp_line (start 0.895 -14.41) (end 6.895 -14.41) (layer F.SilkS) (width 0.12))
  (fp_line (start 6.895 -14.41) (end 6.895 -13.53) (layer F.SilkS) (width 0.12))
  (fp_line (start 6.895 -13.53) (end 0.895 -13.53) (layer F.SilkS) (width 0.12))
  (fp_line (start -3.955 -11.87) (end -1.845 -11.87) (layer F.SilkS) (width 0.12))
  (fp_line (start -3.955 -10.99) (end -1.845 -10.99) (layer F.SilkS) (width 0.12))
  (fp_line (start 0.895 -11.87) (end 6.895 -11.87) (layer F.SilkS) (width 0.12))
  (fp_line (start 6.895 -11.87) (end 6.895 -10.99) (layer F.SilkS) (width 0.12))
  (fp_line (start 6.895 -10.99) (end 0.895 -10.99) (layer F.SilkS) (width 0.12))
  (fp_line (start -3.955 -9.33) (end -1.845 -9.33) (layer F.SilkS) (width 0.12))
  (fp_line (start -3.955 -8.45) (end -1.845 -8.45) (layer F.SilkS) (width 0.12))
  (fp_line (start 0.895 -9.33) (end 6.895 -9.33) (layer F.SilkS) (width 0.12))
  (fp_line (start 6.895 -9.33) (end 6.895 -8.45) (layer F.SilkS) (width 0.12))
  (fp_line (start 6.895 -8.45) (end 0.895 -8.45) (layer F.SilkS) (width 0.12))
  (fp_line (start -3.955 -6.79) (end -1.845 -6.79) (layer F.SilkS) (width 0.12))
  (fp_line (start -3.955 -5.91) (end -1.845 -5.91) (layer F.SilkS) (width 0.12))
  (fp_line (start 0.895 -6.79) (end 6.895 -6.79) (layer F.SilkS) (width 0.12))
  (fp_line (start 6.895 -6.79) (end 6.895 -5.91) (layer F.SilkS) (width 0.12))
  (fp_line (start 6.895 -5.91) (end 0.895 -5.91) (layer F.SilkS) (width 0.12))
  (fp_line (start -3.955 -4.25) (end -1.845 -4.25) (layer F.SilkS) (width 0.12))
  (fp_line (start -3.955 -3.37) (end -1.845 -3.37) (layer F.SilkS) (width 0.12))
  (fp_line (start 0.895 -4.25) (end 6.895 -4.25) (layer F.SilkS) (width 0.12))
  (fp_line (start 6.895 -4.25) (end 6.895 -3.37) (layer F.SilkS) (width 0.12))
  (fp_line (start 6.895 -3.37) (end 0.895 -3.37) (layer F.SilkS) (width 0.12))
  (fp_line (start -3.955 -1.71) (end -1.845 -1.71) (layer F.SilkS) (width 0.12))
  (fp_line (start -3.955 -0.83) (end -1.845 -0.83) (layer F.SilkS) (width 0.12))
  (fp_line (start 0.895 -1.71) (end 6.895 -1.71) (layer F.SilkS) (width 0.12))
  (fp_line (start 6.895 -1.71) (end 6.895 -0.83) (layer F.SilkS) (width 0.12))
  (fp_line (start 6.895 -0.83) (end 0.895 -0.83) (layer F.SilkS) (width 0.12))
  (fp_line (start -3.955 0.83) (end -1.845 0.83) (layer F.SilkS) (width 0.12))
  (fp_line (start -3.955 1.71) (end -1.845 1.71) (layer F.SilkS) (width 0.12))
  (fp_line (start 0.895 0.83) (end 6.895 0.83) (layer F.SilkS) (width 0.12))
  (fp_line (start 6.895 0.83) (end 6.895 1.71) (layer F.SilkS) (width 0.12))
  (fp_line (start 6.895 1.71) (end 0.895 1.71) (layer F.SilkS) (width 0.12))
  (fp_line (start -3.955 3.37) (end -1.845 3.37) (layer F.SilkS) (width 0.12))
  (fp_line (start -3.955 4.25) (end -1.845 4.25) (layer F.SilkS) (width 0.12))
  (fp_line (start 0.895 3.37) (end 6.895 3.37) (layer F.SilkS) (width 0.12))
  (fp_line (start 6.895 3.37) (end 6.895 4.25) (layer F.SilkS) (width 0.12))
  (fp_line (start 6.895 4.25) (end 0.895 4.25) (layer F.SilkS) (width 0.12))
  (fp_line (start -3.955 5.91) (end -1.845 5.91) (layer F.SilkS) (width 0.12))
  (fp_line (start -3.955 6.79) (end -1.845 6.79) (layer F.SilkS) (width 0.12))
  (fp_line (start 0.895 5.91) (end 6.895 5.91) (layer F.SilkS) (width 0.12))
  (fp_line (start 6.895 5.91) (end 6.895 6.79) (layer F.SilkS) (width 0.12))
  (fp_line (start 6.895 6.79) (end 0.895 6.79) (layer F.SilkS) (width 0.12))
  (fp_line (start -3.955 8.45) (end -1.845 8.45) (layer F.SilkS) (width 0.12))
  (fp_line (start -3.955 9.33) (end -1.845 9.33) (layer F.SilkS) (width 0.12))
  (fp_line (start 0.895 8.45) (end 6.895 8.45) (layer F.SilkS) (width 0.12))
  (fp_line (start 6.895 8.45) (end 6.895 9.33) (layer F.SilkS) (width 0.12))
  (fp_line (start 6.895 9.33) (end 0.895 9.33) (layer F.SilkS) (width 0.12))
  (fp_line (start -3.955 10.99) (end -1.845 10.99) (layer F.SilkS) (width 0.12))
  (fp_line (start -3.955 11.87) (end -1.845 11.87) (layer F.SilkS) (width 0.12))
  (fp_line (start 0.895 10.99) (end 6.895 10.99) (layer F.SilkS) (width 0.12))
  (fp_line (start 6.895 10.99) (end 6.895 11.87) (layer F.SilkS) (width 0.12))
  (fp_line (start 6.895 11.87) (end 0.895 11.87) (layer F.SilkS) (width 0.12))
  (fp_line (start -3.955 13.53) (end -1.845 13.53) (layer F.SilkS) (width 0.12))
  (fp_line (start -3.955 14.41) (end -1.845 14.41) (layer F.SilkS) (width 0.12))
  (fp_line (start 0.895 13.53) (end 6.895 13.53) (layer F.SilkS) (width 0.12))
  (fp_line (start 6.895 13.53) (end 6.895 14.41) (layer F.SilkS) (width 0.12))
  (fp_line (start 6.895 14.41) (end 0.895 14.41) (layer F.SilkS) (width 0.12))
  (fp_line (start -3.955 16.07) (end -1.845 16.07) (layer F.SilkS) (width 0.12))
  (fp_line (start -3.955 16.95) (end -1.845 16.95) (layer F.SilkS) (width 0.12))
  (fp_line (start 0.895 16.07) (end 6.895 16.07) (layer F.SilkS) (width 0.12))
  (fp_line (start 6.895 16.07) (end 6.895 16.95) (layer F.SilkS) (width 0.12))
  (fp_line (start 6.895 16.95) (end 0.895 16.95) (layer F.SilkS) (width 0.12))
  (fp_line (start -3.955 18.61) (end -1.845 18.61) (layer F.SilkS) (width 0.12))
  (fp_line (start -3.955 19.49) (end -1.845 19.49) (layer F.SilkS) (width 0.12))
  (fp_line (start 0.895 18.61) (end 6.895 18.61) (layer F.SilkS) (width 0.12))
  (fp_line (start 6.895 18.61) (end 6.895 19.49) (layer F.SilkS) (width 0.12))
  (fp_line (start 6.895 19.49) (end 0.895 19.49) (layer F.SilkS) (width 0.12))
  (fp_line (start -3.955 21.15) (end -1.845 21.15) (layer F.SilkS) (width 0.12))
  (fp_line (start -3.955 22.03) (end -1.845 22.03) (layer F.SilkS) (width 0.12))
  (fp_line (start 0.895 21.15) (end 6.895 21.15) (layer F.SilkS) (width 0.12))
  (fp_line (start 6.895 21.15) (end 6.895 22.03) (layer F.SilkS) (width 0.12))
  (fp_line (start 6.895 22.03) (end 0.895 22.03) (layer F.SilkS) (width 0.12))
  (fp_line (start -7.095 -21.59) (end -7.095 -22.41) (layer F.SilkS) (width 0.12))
  (fp_line (start -7.095 -22.41) (end -5.525 -22.41) (layer F.SilkS) (width 0.12))
  (fp_line (start -7.28 -23.36) (end 7.28 -23.36) (layer F.CrtYd) (width 0.05))
  (fp_line (start 7.28 -23.36) (end 7.28 23.36) (layer F.CrtYd) (width 0.05))
  (fp_line (start 7.28 23.36) (end -7.28 23.36) (layer F.CrtYd) (width 0.05))
  (fp_line (start -7.28 23.36) (end -7.28 -23.36) (layer F.CrtYd) (width 0.05))
  (pad 1 smd rect (at -5.525 -21.59) (size 2.5 1) (layers F.Cu F.Mask F.Paste))
  (pad 2 smd rect (at -5.525 -19.05) (size 2.5 1) (layers F.Cu F.Mask F.Paste))
  (pad 3 smd rect (at -5.525 -16.51) (size 2.5 1) (layers F.Cu F.Mask F.Paste))
  (pad 4 smd rect (at -5.525 -13.97) (size 2.5 1) (layers F.Cu F.Mask F.Paste))
  (pad 5 smd rect (at -5.525 -11.43) (size 2.5 1) (layers F.Cu F.Mask F.Paste))
  (pad 6 smd rect (at -5.525 -8.89) (size 2.5 1) (layers F.Cu F.Mask F.Paste))
  (pad 7 smd rect (at -5.525 -6.35) (size 2.5 1) (layers F.Cu F.Mask F.Paste))
  (pad 8 smd rect (at -5.525 -3.81) (size 2.5 1) (layers F.Cu F.Mask F.Paste))
  (pad 9 smd rect (at -5.525 -1.27) (size 2.5 1) (layers F.Cu F.Mask F.Paste))
  (pad 10 smd rect (at -5.525 1.27) (size 2.5 1) (layers F.Cu F.Mask F.Paste))
  (pad 11 smd rect (at -5.525 3.81) (size 2.5 1) (layers F.Cu F.Mask F.Paste))
  (pad 12 smd rect (at -5.525 6.35) (size 2.5 1) (layers F.Cu F.Mask F.Paste))
  (pad 13 smd rect (at -5.525 8.89) (size 2.5 1) (layers F.Cu F.Mask F.Paste))
  (pad 14 smd rect (at -5.525 11.43) (size 2.5 1) (layers F.Cu F.Mask F.Paste))
  (pad 15 smd rect (at -5.525 13.97) (size 2.5 1) (layers F.Cu F.Mask F.Paste))
  (pad 16 smd rect (at -5.525 16.51) (size 2.5 1) (layers F.Cu F.Mask F.Paste))
  (pad 17 smd rect (at -5.525 19.05) (size 2.5 1) (layers F.Cu F.Mask F.Paste))
  (pad 18 smd rect (at -5.525 21.59) (size 2.5 1) (layers F.Cu F.Mask F.Paste))
  (pad "" smd rect (at 3.895 -21.59) (size 6 0.76) (layers F.SilkS))
  (fp_text user %R (at -0.48 0 90) (layer F.Fab)
    (effects (font (size 1 1) (thickness 0.15)))
  )
  (model ${KICAD6_3DMODEL_DIR}/Connector_Harwin.3dshapes/Harwin_M20-89018xx_1x18_P2.54mm_Horizontal.wrl
    (at (xyz 0 0 0))
    (scale (xyz 1 1 1))
    (rotate (xyz 0 0 0))
  )
)