(module PinHeader_2x08_P1.27mm_Horizontal (layer F.Cu) (tedit 59FED6E3)
  (descr "Through hole angled pin header, 2x08, 1.27mm pitch, 4.0mm pin length, double rows")
  (tags "Through hole angled pin header THT 2x08 1.27mm double row")
  (fp_text reference REF** (at 3.0675 -1.635) (layer F.SilkS)
    (effects (font (size 1 1) (thickness 0.15)))
  )
  (fp_text value PinHeader_2x08_P1.27mm_Horizontal (at 3.0675 10.525) (layer F.Fab)
    (effects (font (size 1 1) (thickness 0.15)))
  )
  (fp_line (start 2.02 -0.635) (end 2.77 -0.635) (layer F.Fab) (width 0.1))
  (fp_line (start 2.77 -0.635) (end 2.77 9.525) (layer F.Fab) (width 0.1))
  (fp_line (start 2.77 9.525) (end 1.77 9.525) (layer F.Fab) (width 0.1))
  (fp_line (start 1.77 9.525) (end 1.77 -0.385) (layer F.Fab) (width 0.1))
  (fp_line (start 1.77 -0.385) (end 2.02 -0.635) (layer F.Fab) (width 0.1))
  (fp_line (start -0.2 -0.2) (end 1.77 -0.2) (layer F.Fab) (width 0.1))
  (fp_line (start -0.2 -0.2) (end -0.2 0.2) (layer F.Fab) (width 0.1))
  (fp_line (start -0.2 0.2) (end 1.77 0.2) (layer F.Fab) (width 0.1))
  (fp_line (start 2.77 -0.2) (end 6.77 -0.2) (layer F.Fab) (width 0.1))
  (fp_line (start 6.77 -0.2) (end 6.77 0.2) (layer F.Fab) (width 0.1))
  (fp_line (start 2.77 0.2) (end 6.77 0.2) (layer F.Fab) (width 0.1))
  (fp_line (start -0.2 1.07) (end 1.77 1.07) (layer F.Fab) (width 0.1))
  (fp_line (start -0.2 1.07) (end -0.2 1.47) (layer F.Fab) (width 0.1))
  (fp_line (start -0.2 1.47) (end 1.77 1.47) (layer F.Fab) (width 0.1))
  (fp_line (start 2.77 1.07) (end 6.77 1.07) (layer F.Fab) (width 0.1))
  (fp_line (start 6.77 1.07) (end 6.77 1.47) (layer F.Fab) (width 0.1))
  (fp_line (start 2.77 1.47) (end 6.77 1.47) (layer F.Fab) (width 0.1))
  (fp_line (start -0.2 2.34) (end 1.77 2.34) (layer F.Fab) (width 0.1))
  (fp_line (start -0.2 2.34) (end -0.2 2.74) (layer F.Fab) (width 0.1))
  (fp_line (start -0.2 2.74) (end 1.77 2.74) (layer F.Fab) (width 0.1))
  (fp_line (start 2.77 2.34) (end 6.77 2.34) (layer F.Fab) (width 0.1))
  (fp_line (start 6.77 2.34) (end 6.77 2.74) (layer F.Fab) (width 0.1))
  (fp_line (start 2.77 2.74) (end 6.77 2.74) (layer F.Fab) (width 0.1))
  (fp_line (start -0.2 3.61) (end 1.77 3.61) (layer F.Fab) (width 0.1))
  (fp_line (start -0.2 3.61) (end -0.2 4.01) (layer F.Fab) (width 0.1))
  (fp_line (start -0.2 4.01) (end 1.77 4.01) (layer F.Fab) (width 0.1))
  (fp_line (start 2.77 3.61) (end 6.77 3.61) (layer F.Fab) (width 0.1))
  (fp_line (start 6.77 3.61) (end 6.77 4.01) (layer F.Fab) (width 0.1))
  (fp_line (start 2.77 4.01) (end 6.77 4.01) (layer F.Fab) (width 0.1))
  (fp_line (start -0.2 4.88) (end 1.77 4.88) (layer F.Fab) (width 0.1))
  (fp_line (start -0.2 4.88) (end -0.2 5.28) (layer F.Fab) (width 0.1))
  (fp_line (start -0.2 5.28) (end 1.77 5.28) (layer F.Fab) (width 0.1))
  (fp_line (start 2.77 4.88) (end 6.77 4.88) (layer F.Fab) (width 0.1))
  (fp_line (start 6.77 4.88) (end 6.77 5.28) (layer F.Fab) (width 0.1))
  (fp_line (start 2.77 5.28) (end 6.77 5.28) (layer F.Fab) (width 0.1))
  (fp_line (start -0.2 6.15) (end 1.77 6.15) (layer F.Fab) (width 0.1))
  (fp_line (start -0.2 6.15) (end -0.2 6.55) (layer F.Fab) (width 0.1))
  (fp_line (start -0.2 6.55) (end 1.77 6.55) (layer F.Fab) (width 0.1))
  (fp_line (start 2.77 6.15) (end 6.77 6.15) (layer F.Fab) (width 0.1))
  (fp_line (start 6.77 6.15) (end 6.77 6.55) (layer F.Fab) (width 0.1))
  (fp_line (start 2.77 6.55) (end 6.77 6.55) (layer F.Fab) (width 0.1))
  (fp_line (start -0.2 7.42) (end 1.77 7.42) (layer F.Fab) (width 0.1))
  (fp_line (start -0.2 7.42) (end -0.2 7.82) (layer F.Fab) (width 0.1))
  (fp_line (start -0.2 7.82) (end 1.77 7.82) (layer F.Fab) (width 0.1))
  (fp_line (start 2.77 7.42) (end 6.77 7.42) (layer F.Fab) (width 0.1))
  (fp_line (start 6.77 7.42) (end 6.77 7.82) (layer F.Fab) (width 0.1))
  (fp_line (start 2.77 7.82) (end 6.77 7.82) (layer F.Fab) (width 0.1))
  (fp_line (start -0.2 8.69) (end 1.77 8.69) (layer F.Fab) (width 0.1))
  (fp_line (start -0.2 8.69) (end -0.2 9.09) (layer F.Fab) (width 0.1))
  (fp_line (start -0.2 9.09) (end 1.77 9.09) (layer F.Fab) (width 0.1))
  (fp_line (start 2.77 8.69) (end 6.77 8.69) (layer F.Fab) (width 0.1))
  (fp_line (start 6.77 8.69) (end 6.77 9.09) (layer F.Fab) (width 0.1))
  (fp_line (start 2.77 9.09) (end 6.77 9.09) (layer F.Fab) (width 0.1))
  (fp_line (start 1.71 -0.619677) (end 1.71 -0.695) (layer F.SilkS) (width 0.12))
  (fp_line (start 1.71 -0.695) (end 2.83 -0.695) (layer F.SilkS) (width 0.12))
  (fp_line (start 2.83 -0.695) (end 2.83 9.585) (layer F.SilkS) (width 0.12))
  (fp_line (start 2.83 9.585) (end 1.71 9.585) (layer F.SilkS) (width 0.12))
  (fp_line (start 1.71 9.585) (end 1.71 9.509677) (layer F.SilkS) (width 0.12))
  (fp_line (start 2.83 -0.26) (end 6.83 -0.26) (layer F.SilkS) (width 0.12))
  (fp_line (start 6.83 -0.26) (end 6.83 0.26) (layer F.SilkS) (width 0.12))
  (fp_line (start 6.83 0.26) (end 2.83 0.26) (layer F.SilkS) (width 0.12))
  (fp_line (start 2.83 -0.2) (end 6.83 -0.2) (layer F.SilkS) (width 0.12))
  (fp_line (start 2.83 -0.08) (end 6.83 -0.08) (layer F.SilkS) (width 0.12))
  (fp_line (start 2.83 0.04) (end 6.83 0.04) (layer F.SilkS) (width 0.12))
  (fp_line (start 2.83 0.16) (end 6.83 0.16) (layer F.SilkS) (width 0.12))
  (fp_line (start 1.71 0.635) (end 2.83 0.635) (layer F.SilkS) (width 0.12))
  (fp_line (start 1.71 0.619677) (end 1.71 0.650323) (layer F.SilkS) (width 0.12))
  (fp_line (start 2.83 1.01) (end 6.83 1.01) (layer F.SilkS) (width 0.12))
  (fp_line (start 6.83 1.01) (end 6.83 1.53) (layer F.SilkS) (width 0.12))
  (fp_line (start 6.83 1.53) (end 2.83 1.53) (layer F.SilkS) (width 0.12))
  (fp_line (start 1.71 1.905) (end 2.83 1.905) (layer F.SilkS) (width 0.12))
  (fp_line (start 1.71 1.889677) (end 1.71 1.920323) (layer F.SilkS) (width 0.12))
  (fp_line (start 2.83 2.28) (end 6.83 2.28) (layer F.SilkS) (width 0.12))
  (fp_line (start 6.83 2.28) (end 6.83 2.8) (layer F.SilkS) (width 0.12))
  (fp_line (start 6.83 2.8) (end 2.83 2.8) (layer F.SilkS) (width 0.12))
  (fp_line (start 1.71 3.175) (end 2.83 3.175) (layer F.SilkS) (width 0.12))
  (fp_line (start 1.71 3.159677) (end 1.71 3.190323) (layer F.SilkS) (width 0.12))
  (fp_line (start 2.83 3.55) (end 6.83 3.55) (layer F.SilkS) (width 0.12))
  (fp_line (start 6.83 3.55) (end 6.83 4.07) (layer F.SilkS) (width 0.12))
  (fp_line (start 6.83 4.07) (end 2.83 4.07) (layer F.SilkS) (width 0.12))
  (fp_line (start 1.71 4.445) (end 2.83 4.445) (layer F.SilkS) (width 0.12))
  (fp_line (start 1.71 4.429677) (end 1.71 4.460323) (layer F.SilkS) (width 0.12))
  (fp_line (start 2.83 4.82) (end 6.83 4.82) (layer F.SilkS) (width 0.12))
  (fp_line (start 6.83 4.82) (end 6.83 5.34) (layer F.SilkS) (width 0.12))
  (fp_line (start 6.83 5.34) (end 2.83 5.34) (layer F.SilkS) (width 0.12))
  (fp_line (start 1.71 5.715) (end 2.83 5.715) (layer F.SilkS) (width 0.12))
  (fp_line (start 1.71 5.699677) (end 1.71 5.730323) (layer F.SilkS) (width 0.12))
  (fp_line (start 2.83 6.09) (end 6.83 6.09) (layer F.SilkS) (width 0.12))
  (fp_line (start 6.83 6.09) (end 6.83 6.61) (layer F.SilkS) (width 0.12))
  (fp_line (start 6.83 6.61) (end 2.83 6.61) (layer F.SilkS) (width 0.12))
  (fp_line (start 1.71 6.985) (end 2.83 6.985) (layer F.SilkS) (width 0.12))
  (fp_line (start 1.71 6.969677) (end 1.71 7.000323) (layer F.SilkS) (width 0.12))
  (fp_line (start 2.83 7.36) (end 6.83 7.36) (layer F.SilkS) (width 0.12))
  (fp_line (start 6.83 7.36) (end 6.83 7.88) (layer F.SilkS) (width 0.12))
  (fp_line (start 6.83 7.88) (end 2.83 7.88) (layer F.SilkS) (width 0.12))
  (fp_line (start 1.71 8.255) (end 2.83 8.255) (layer F.SilkS) (width 0.12))
  (fp_line (start 1.71 8.239677) (end 1.71 8.270323) (layer F.SilkS) (width 0.12))
  (fp_line (start 2.83 8.63) (end 6.83 8.63) (layer F.SilkS) (width 0.12))
  (fp_line (start 6.83 8.63) (end 6.83 9.15) (layer F.SilkS) (width 0.12))
  (fp_line (start 6.83 9.15) (end 2.83 9.15) (layer F.SilkS) (width 0.12))
  (fp_line (start -0.76 0) (end -0.76 -0.76) (layer F.SilkS) (width 0.12))
  (fp_line (start -0.76 -0.76) (end 0 -0.76) (layer F.SilkS) (width 0.12))
  (fp_line (start -1.15 -1.15) (end -1.15 10.05) (layer F.CrtYd) (width 0.05))
  (fp_line (start -1.15 10.05) (end 7.3 10.05) (layer F.CrtYd) (width 0.05))
  (fp_line (start 7.3 10.05) (end 7.3 -1.15) (layer F.CrtYd) (width 0.05))
  (fp_line (start 7.3 -1.15) (end -1.15 -1.15) (layer F.CrtYd) (width 0.05))
  (pad 1 thru_hole rect (at 0 0) (size 1 1) (drill 0.65) (layers *.Cu *.Mask))
  (pad 2 thru_hole oval (at 1.27 0) (size 1 1) (drill 0.65) (layers *.Cu *.Mask))
  (pad 3 thru_hole oval (at 0 1.27) (size 1 1) (drill 0.65) (layers *.Cu *.Mask))
  (pad 4 thru_hole oval (at 1.27 1.27) (size 1 1) (drill 0.65) (layers *.Cu *.Mask))
  (pad 5 thru_hole oval (at 0 2.54) (size 1 1) (drill 0.65) (layers *.Cu *.Mask))
  (pad 6 thru_hole oval (at 1.27 2.54) (size 1 1) (drill 0.65) (layers *.Cu *.Mask))
  (pad 7 thru_hole oval (at 0 3.81) (size 1 1) (drill 0.65) (layers *.Cu *.Mask))
  (pad 8 thru_hole oval (at 1.27 3.81) (size 1 1) (drill 0.65) (layers *.Cu *.Mask))
  (pad 9 thru_hole oval (at 0 5.08) (size 1 1) (drill 0.65) (layers *.Cu *.Mask))
  (pad 10 thru_hole oval (at 1.27 5.08) (size 1 1) (drill 0.65) (layers *.Cu *.Mask))
  (pad 11 thru_hole oval (at 0 6.35) (size 1 1) (drill 0.65) (layers *.Cu *.Mask))
  (pad 12 thru_hole oval (at 1.27 6.35) (size 1 1) (drill 0.65) (layers *.Cu *.Mask))
  (pad 13 thru_hole oval (at 0 7.62) (size 1 1) (drill 0.65) (layers *.Cu *.Mask))
  (pad 14 thru_hole oval (at 1.27 7.62) (size 1 1) (drill 0.65) (layers *.Cu *.Mask))
  (pad 15 thru_hole oval (at 0 8.89) (size 1 1) (drill 0.65) (layers *.Cu *.Mask))
  (pad 16 thru_hole oval (at 1.27 8.89) (size 1 1) (drill 0.65) (layers *.Cu *.Mask))
  (fp_text user %R (at 2.27 4.445 90) (layer F.Fab)
    (effects (font (size 0.6 0.6) (thickness 0.09)))
  )
  (model ${KICAD6_3DMODEL_DIR}/Connector_PinHeader_1.27mm.3dshapes/PinHeader_2x08_P1.27mm_Horizontal.wrl
    (at (xyz 0 0 0))
    (scale (xyz 1 1 1))
    (rotate (xyz 0 0 0))
  )
)