(module PinHeader_2x37_P1.27mm_Vertical (layer F.Cu) (tedit 59FED6E3)
  (descr "Through hole straight pin header, 2x37, 1.27mm pitch, double rows")
  (tags "Through hole pin header THT 2x37 1.27mm double row")
  (fp_text reference REF** (at 0.635 -1.695) (layer F.SilkS)
    (effects (font (size 1 1) (thickness 0.15)))
  )
  (fp_text value PinHeader_2x37_P1.27mm_Vertical (at 0.635 47.415) (layer F.Fab)
    (effects (font (size 1 1) (thickness 0.15)))
  )
  (fp_line (start -0.2175 -0.635) (end 2.34 -0.635) (layer F.Fab) (width 0.1))
  (fp_line (start 2.34 -0.635) (end 2.34 46.355) (layer F.Fab) (width 0.1))
  (fp_line (start 2.34 46.355) (end -1.07 46.355) (layer F.Fab) (width 0.1))
  (fp_line (start -1.07 46.355) (end -1.07 0.2175) (layer F.Fab) (width 0.1))
  (fp_line (start -1.07 0.2175) (end -0.2175 -0.635) (layer F.Fab) (width 0.1))
  (fp_line (start -1.13 46.415) (end -0.30753 46.415) (layer F.SilkS) (width 0.12))
  (fp_line (start 1.57753 46.415) (end 2.4 46.415) (layer F.SilkS) (width 0.12))
  (fp_line (start 0.30753 46.415) (end 0.96247 46.415) (layer F.SilkS) (width 0.12))
  (fp_line (start -1.13 0.76) (end -1.13 46.415) (layer F.SilkS) (width 0.12))
  (fp_line (start 2.4 -0.695) (end 2.4 46.415) (layer F.SilkS) (width 0.12))
  (fp_line (start -1.13 0.76) (end -0.563471 0.76) (layer F.SilkS) (width 0.12))
  (fp_line (start 0.563471 0.76) (end 0.706529 0.76) (layer F.SilkS) (width 0.12))
  (fp_line (start 0.76 0.706529) (end 0.76 0.563471) (layer F.SilkS) (width 0.12))
  (fp_line (start 0.76 -0.563471) (end 0.76 -0.695) (layer F.SilkS) (width 0.12))
  (fp_line (start 0.76 -0.695) (end 0.96247 -0.695) (layer F.SilkS) (width 0.12))
  (fp_line (start 1.57753 -0.695) (end 2.4 -0.695) (layer F.SilkS) (width 0.12))
  (fp_line (start -1.13 0) (end -1.13 -0.76) (layer F.SilkS) (width 0.12))
  (fp_line (start -1.13 -0.76) (end 0 -0.76) (layer F.SilkS) (width 0.12))
  (fp_line (start -1.6 -1.15) (end -1.6 46.9) (layer F.CrtYd) (width 0.05))
  (fp_line (start -1.6 46.9) (end 2.85 46.9) (layer F.CrtYd) (width 0.05))
  (fp_line (start 2.85 46.9) (end 2.85 -1.15) (layer F.CrtYd) (width 0.05))
  (fp_line (start 2.85 -1.15) (end -1.6 -1.15) (layer F.CrtYd) (width 0.05))
  (pad 1 thru_hole rect (at 0 0) (size 1 1) (drill 0.65) (layers *.Cu *.Mask))
  (pad 2 thru_hole oval (at 1.27 0) (size 1 1) (drill 0.65) (layers *.Cu *.Mask))
  (pad 3 thru_hole oval (at 0 1.27) (size 1 1) (drill 0.65) (layers *.Cu *.Mask))
  (pad 4 thru_hole oval (at 1.27 1.27) (size 1 1) (drill 0.65) (layers *.Cu *.Mask))
  (pad 5 thru_hole oval (at 0 2.54) (size 1 1) (drill 0.65) (layers *.Cu *.Mask))
  (pad 6 thru_hole oval (at 1.27 2.54) (size 1 1) (drill 0.65) (layers *.Cu *.Mask))
  (pad 7 thru_hole oval (at 0 3.81) (size 1 1) (drill 0.65) (layers *.Cu *.Mask))
  (pad 8 thru_hole oval (at 1.27 3.81) (size 1 1) (drill 0.65) (layers *.Cu *.Mask))
  (pad 9 thru_hole oval (at 0 5.08) (size 1 1) (drill 0.65) (layers *.Cu *.Mask))
  (pad 10 thru_hole oval (at 1.27 5.08) (size 1 1) (drill 0.65) (layers *.Cu *.Mask))
  (pad 11 thru_hole oval (at 0 6.35) (size 1 1) (drill 0.65) (layers *.Cu *.Mask))
  (pad 12 thru_hole oval (at 1.27 6.35) (size 1 1) (drill 0.65) (layers *.Cu *.Mask))
  (pad 13 thru_hole oval (at 0 7.62) (size 1 1) (drill 0.65) (layers *.Cu *.Mask))
  (pad 14 thru_hole oval (at 1.27 7.62) (size 1 1) (drill 0.65) (layers *.Cu *.Mask))
  (pad 15 thru_hole oval (at 0 8.89) (size 1 1) (drill 0.65) (layers *.Cu *.Mask))
  (pad 16 thru_hole oval (at 1.27 8.89) (size 1 1) (drill 0.65) (layers *.Cu *.Mask))
  (pad 17 thru_hole oval (at 0 10.16) (size 1 1) (drill 0.65) (layers *.Cu *.Mask))
  (pad 18 thru_hole oval (at 1.27 10.16) (size 1 1) (drill 0.65) (layers *.Cu *.Mask))
  (pad 19 thru_hole oval (at 0 11.43) (size 1 1) (drill 0.65) (layers *.Cu *.Mask))
  (pad 20 thru_hole oval (at 1.27 11.43) (size 1 1) (drill 0.65) (layers *.Cu *.Mask))
  (pad 21 thru_hole oval (at 0 12.7) (size 1 1) (drill 0.65) (layers *.Cu *.Mask))
  (pad 22 thru_hole oval (at 1.27 12.7) (size 1 1) (drill 0.65) (layers *.Cu *.Mask))
  (pad 23 thru_hole oval (at 0 13.97) (size 1 1) (drill 0.65) (layers *.Cu *.Mask))
  (pad 24 thru_hole oval (at 1.27 13.97) (size 1 1) (drill 0.65) (layers *.Cu *.Mask))
  (pad 25 thru_hole oval (at 0 15.24) (size 1 1) (drill 0.65) (layers *.Cu *.Mask))
  (pad 26 thru_hole oval (at 1.27 15.24) (size 1 1) (drill 0.65) (layers *.Cu *.Mask))
  (pad 27 thru_hole oval (at 0 16.51) (size 1 1) (drill 0.65) (layers *.Cu *.Mask))
  (pad 28 thru_hole oval (at 1.27 16.51) (size 1 1) (drill 0.65) (layers *.Cu *.Mask))
  (pad 29 thru_hole oval (at 0 17.78) (size 1 1) (drill 0.65) (layers *.Cu *.Mask))
  (pad 30 thru_hole oval (at 1.27 17.78) (size 1 1) (drill 0.65) (layers *.Cu *.Mask))
  (pad 31 thru_hole oval (at 0 19.05) (size 1 1) (drill 0.65) (layers *.Cu *.Mask))
  (pad 32 thru_hole oval (at 1.27 19.05) (size 1 1) (drill 0.65) (layers *.Cu *.Mask))
  (pad 33 thru_hole oval (at 0 20.32) (size 1 1) (drill 0.65) (layers *.Cu *.Mask))
  (pad 34 thru_hole oval (at 1.27 20.32) (size 1 1) (drill 0.65) (layers *.Cu *.Mask))
  (pad 35 thru_hole oval (at 0 21.59) (size 1 1) (drill 0.65) (layers *.Cu *.Mask))
  (pad 36 thru_hole oval (at 1.27 21.59) (size 1 1) (drill 0.65) (layers *.Cu *.Mask))
  (pad 37 thru_hole oval (at 0 22.86) (size 1 1) (drill 0.65) (layers *.Cu *.Mask))
  (pad 38 thru_hole oval (at 1.27 22.86) (size 1 1) (drill 0.65) (layers *.Cu *.Mask))
  (pad 39 thru_hole oval (at 0 24.13) (size 1 1) (drill 0.65) (layers *.Cu *.Mask))
  (pad 40 thru_hole oval (at 1.27 24.13) (size 1 1) (drill 0.65) (layers *.Cu *.Mask))
  (pad 41 thru_hole oval (at 0 25.4) (size 1 1) (drill 0.65) (layers *.Cu *.Mask))
  (pad 42 thru_hole oval (at 1.27 25.4) (size 1 1) (drill 0.65) (layers *.Cu *.Mask))
  (pad 43 thru_hole oval (at 0 26.67) (size 1 1) (drill 0.65) (layers *.Cu *.Mask))
  (pad 44 thru_hole oval (at 1.27 26.67) (size 1 1) (drill 0.65) (layers *.Cu *.Mask))
  (pad 45 thru_hole oval (at 0 27.94) (size 1 1) (drill 0.65) (layers *.Cu *.Mask))
  (pad 46 thru_hole oval (at 1.27 27.94) (size 1 1) (drill 0.65) (layers *.Cu *.Mask))
  (pad 47 thru_hole oval (at 0 29.21) (size 1 1) (drill 0.65) (layers *.Cu *.Mask))
  (pad 48 thru_hole oval (at 1.27 29.21) (size 1 1) (drill 0.65) (layers *.Cu *.Mask))
  (pad 49 thru_hole oval (at 0 30.48) (size 1 1) (drill 0.65) (layers *.Cu *.Mask))
  (pad 50 thru_hole oval (at 1.27 30.48) (size 1 1) (drill 0.65) (layers *.Cu *.Mask))
  (pad 51 thru_hole oval (at 0 31.75) (size 1 1) (drill 0.65) (layers *.Cu *.Mask))
  (pad 52 thru_hole oval (at 1.27 31.75) (size 1 1) (drill 0.65) (layers *.Cu *.Mask))
  (pad 53 thru_hole oval (at 0 33.02) (size 1 1) (drill 0.65) (layers *.Cu *.Mask))
  (pad 54 thru_hole oval (at 1.27 33.02) (size 1 1) (drill 0.65) (layers *.Cu *.Mask))
  (pad 55 thru_hole oval (at 0 34.29) (size 1 1) (drill 0.65) (layers *.Cu *.Mask))
  (pad 56 thru_hole oval (at 1.27 34.29) (size 1 1) (drill 0.65) (layers *.Cu *.Mask))
  (pad 57 thru_hole oval (at 0 35.56) (size 1 1) (drill 0.65) (layers *.Cu *.Mask))
  (pad 58 thru_hole oval (at 1.27 35.56) (size 1 1) (drill 0.65) (layers *.Cu *.Mask))
  (pad 59 thru_hole oval (at 0 36.83) (size 1 1) (drill 0.65) (layers *.Cu *.Mask))
  (pad 60 thru_hole oval (at 1.27 36.83) (size 1 1) (drill 0.65) (layers *.Cu *.Mask))
  (pad 61 thru_hole oval (at 0 38.1) (size 1 1) (drill 0.65) (layers *.Cu *.Mask))
  (pad 62 thru_hole oval (at 1.27 38.1) (size 1 1) (drill 0.65) (layers *.Cu *.Mask))
  (pad 63 thru_hole oval (at 0 39.37) (size 1 1) (drill 0.65) (layers *.Cu *.Mask))
  (pad 64 thru_hole oval (at 1.27 39.37) (size 1 1) (drill 0.65) (layers *.Cu *.Mask))
  (pad 65 thru_hole oval (at 0 40.64) (size 1 1) (drill 0.65) (layers *.Cu *.Mask))
  (pad 66 thru_hole oval (at 1.27 40.64) (size 1 1) (drill 0.65) (layers *.Cu *.Mask))
  (pad 67 thru_hole oval (at 0 41.91) (size 1 1) (drill 0.65) (layers *.Cu *.Mask))
  (pad 68 thru_hole oval (at 1.27 41.91) (size 1 1) (drill 0.65) (layers *.Cu *.Mask))
  (pad 69 thru_hole oval (at 0 43.18) (size 1 1) (drill 0.65) (layers *.Cu *.Mask))
  (pad 70 thru_hole oval (at 1.27 43.18) (size 1 1) (drill 0.65) (layers *.Cu *.Mask))
  (pad 71 thru_hole oval (at 0 44.45) (size 1 1) (drill 0.65) (layers *.Cu *.Mask))
  (pad 72 thru_hole oval (at 1.27 44.45) (size 1 1) (drill 0.65) (layers *.Cu *.Mask))
  (pad 73 thru_hole oval (at 0 45.72) (size 1 1) (drill 0.65) (layers *.Cu *.Mask))
  (pad 74 thru_hole oval (at 1.27 45.72) (size 1 1) (drill 0.65) (layers *.Cu *.Mask))
  (fp_text user %R (at 0.635 22.86 90) (layer F.Fab)
    (effects (font (size 1 1) (thickness 0.15)))
  )
  (model ${KICAD6_3DMODEL_DIR}/Connector_PinHeader_1.27mm.3dshapes/PinHeader_2x37_P1.27mm_Vertical.wrl
    (at (xyz 0 0 0))
    (scale (xyz 1 1 1))
    (rotate (xyz 0 0 0))
  )
)