(module PinHeader_2x28_P1.27mm_Horizontal (layer F.Cu) (tedit 59FED6E3)
  (descr "Through hole angled pin header, 2x28, 1.27mm pitch, 4.0mm pin length, double rows")
  (tags "Through hole angled pin header THT 2x28 1.27mm double row")
  (fp_text reference REF** (at 3.0675 -1.635) (layer F.SilkS)
    (effects (font (size 1 1) (thickness 0.15)))
  )
  (fp_text value PinHeader_2x28_P1.27mm_Horizontal (at 3.0675 35.925) (layer F.Fab)
    (effects (font (size 1 1) (thickness 0.15)))
  )
  (fp_line (start 2.02 -0.635) (end 2.77 -0.635) (layer F.Fab) (width 0.1))
  (fp_line (start 2.77 -0.635) (end 2.77 34.925) (layer F.Fab) (width 0.1))
  (fp_line (start 2.77 34.925) (end 1.77 34.925) (layer F.Fab) (width 0.1))
  (fp_line (start 1.77 34.925) (end 1.77 -0.385) (layer F.Fab) (width 0.1))
  (fp_line (start 1.77 -0.385) (end 2.02 -0.635) (layer F.Fab) (width 0.1))
  (fp_line (start -0.2 -0.2) (end 1.77 -0.2) (layer F.Fab) (width 0.1))
  (fp_line (start -0.2 -0.2) (end -0.2 0.2) (layer F.Fab) (width 0.1))
  (fp_line (start -0.2 0.2) (end 1.77 0.2) (layer F.Fab) (width 0.1))
  (fp_line (start 2.77 -0.2) (end 6.77 -0.2) (layer F.Fab) (width 0.1))
  (fp_line (start 6.77 -0.2) (end 6.77 0.2) (layer F.Fab) (width 0.1))
  (fp_line (start 2.77 0.2) (end 6.77 0.2) (layer F.Fab) (width 0.1))
  (fp_line (start -0.2 1.07) (end 1.77 1.07) (layer F.Fab) (width 0.1))
  (fp_line (start -0.2 1.07) (end -0.2 1.47) (layer F.Fab) (width 0.1))
  (fp_line (start -0.2 1.47) (end 1.77 1.47) (layer F.Fab) (width 0.1))
  (fp_line (start 2.77 1.07) (end 6.77 1.07) (layer F.Fab) (width 0.1))
  (fp_line (start 6.77 1.07) (end 6.77 1.47) (layer F.Fab) (width 0.1))
  (fp_line (start 2.77 1.47) (end 6.77 1.47) (layer F.Fab) (width 0.1))
  (fp_line (start -0.2 2.34) (end 1.77 2.34) (layer F.Fab) (width 0.1))
  (fp_line (start -0.2 2.34) (end -0.2 2.74) (layer F.Fab) (width 0.1))
  (fp_line (start -0.2 2.74) (end 1.77 2.74) (layer F.Fab) (width 0.1))
  (fp_line (start 2.77 2.34) (end 6.77 2.34) (layer F.Fab) (width 0.1))
  (fp_line (start 6.77 2.34) (end 6.77 2.74) (layer F.Fab) (width 0.1))
  (fp_line (start 2.77 2.74) (end 6.77 2.74) (layer F.Fab) (width 0.1))
  (fp_line (start -0.2 3.61) (end 1.77 3.61) (layer F.Fab) (width 0.1))
  (fp_line (start -0.2 3.61) (end -0.2 4.01) (layer F.Fab) (width 0.1))
  (fp_line (start -0.2 4.01) (end 1.77 4.01) (layer F.Fab) (width 0.1))
  (fp_line (start 2.77 3.61) (end 6.77 3.61) (layer F.Fab) (width 0.1))
  (fp_line (start 6.77 3.61) (end 6.77 4.01) (layer F.Fab) (width 0.1))
  (fp_line (start 2.77 4.01) (end 6.77 4.01) (layer F.Fab) (width 0.1))
  (fp_line (start -0.2 4.88) (end 1.77 4.88) (layer F.Fab) (width 0.1))
  (fp_line (start -0.2 4.88) (end -0.2 5.28) (layer F.Fab) (width 0.1))
  (fp_line (start -0.2 5.28) (end 1.77 5.28) (layer F.Fab) (width 0.1))
  (fp_line (start 2.77 4.88) (end 6.77 4.88) (layer F.Fab) (width 0.1))
  (fp_line (start 6.77 4.88) (end 6.77 5.28) (layer F.Fab) (width 0.1))
  (fp_line (start 2.77 5.28) (end 6.77 5.28) (layer F.Fab) (width 0.1))
  (fp_line (start -0.2 6.15) (end 1.77 6.15) (layer F.Fab) (width 0.1))
  (fp_line (start -0.2 6.15) (end -0.2 6.55) (layer F.Fab) (width 0.1))
  (fp_line (start -0.2 6.55) (end 1.77 6.55) (layer F.Fab) (width 0.1))
  (fp_line (start 2.77 6.15) (end 6.77 6.15) (layer F.Fab) (width 0.1))
  (fp_line (start 6.77 6.15) (end 6.77 6.55) (layer F.Fab) (width 0.1))
  (fp_line (start 2.77 6.55) (end 6.77 6.55) (layer F.Fab) (width 0.1))
  (fp_line (start -0.2 7.42) (end 1.77 7.42) (layer F.Fab) (width 0.1))
  (fp_line (start -0.2 7.42) (end -0.2 7.82) (layer F.Fab) (width 0.1))
  (fp_line (start -0.2 7.82) (end 1.77 7.82) (layer F.Fab) (width 0.1))
  (fp_line (start 2.77 7.42) (end 6.77 7.42) (layer F.Fab) (width 0.1))
  (fp_line (start 6.77 7.42) (end 6.77 7.82) (layer F.Fab) (width 0.1))
  (fp_line (start 2.77 7.82) (end 6.77 7.82) (layer F.Fab) (width 0.1))
  (fp_line (start -0.2 8.69) (end 1.77 8.69) (layer F.Fab) (width 0.1))
  (fp_line (start -0.2 8.69) (end -0.2 9.09) (layer F.Fab) (width 0.1))
  (fp_line (start -0.2 9.09) (end 1.77 9.09) (layer F.Fab) (width 0.1))
  (fp_line (start 2.77 8.69) (end 6.77 8.69) (layer F.Fab) (width 0.1))
  (fp_line (start 6.77 8.69) (end 6.77 9.09) (layer F.Fab) (width 0.1))
  (fp_line (start 2.77 9.09) (end 6.77 9.09) (layer F.Fab) (width 0.1))
  (fp_line (start -0.2 9.96) (end 1.77 9.96) (layer F.Fab) (width 0.1))
  (fp_line (start -0.2 9.96) (end -0.2 10.36) (layer F.Fab) (width 0.1))
  (fp_line (start -0.2 10.36) (end 1.77 10.36) (layer F.Fab) (width 0.1))
  (fp_line (start 2.77 9.96) (end 6.77 9.96) (layer F.Fab) (width 0.1))
  (fp_line (start 6.77 9.96) (end 6.77 10.36) (layer F.Fab) (width 0.1))
  (fp_line (start 2.77 10.36) (end 6.77 10.36) (layer F.Fab) (width 0.1))
  (fp_line (start -0.2 11.23) (end 1.77 11.23) (layer F.Fab) (width 0.1))
  (fp_line (start -0.2 11.23) (end -0.2 11.63) (layer F.Fab) (width 0.1))
  (fp_line (start -0.2 11.63) (end 1.77 11.63) (layer F.Fab) (width 0.1))
  (fp_line (start 2.77 11.23) (end 6.77 11.23) (layer F.Fab) (width 0.1))
  (fp_line (start 6.77 11.23) (end 6.77 11.63) (layer F.Fab) (width 0.1))
  (fp_line (start 2.77 11.63) (end 6.77 11.63) (layer F.Fab) (width 0.1))
  (fp_line (start -0.2 12.5) (end 1.77 12.5) (layer F.Fab) (width 0.1))
  (fp_line (start -0.2 12.5) (end -0.2 12.9) (layer F.Fab) (width 0.1))
  (fp_line (start -0.2 12.9) (end 1.77 12.9) (layer F.Fab) (width 0.1))
  (fp_line (start 2.77 12.5) (end 6.77 12.5) (layer F.Fab) (width 0.1))
  (fp_line (start 6.77 12.5) (end 6.77 12.9) (layer F.Fab) (width 0.1))
  (fp_line (start 2.77 12.9) (end 6.77 12.9) (layer F.Fab) (width 0.1))
  (fp_line (start -0.2 13.77) (end 1.77 13.77) (layer F.Fab) (width 0.1))
  (fp_line (start -0.2 13.77) (end -0.2 14.17) (layer F.Fab) (width 0.1))
  (fp_line (start -0.2 14.17) (end 1.77 14.17) (layer F.Fab) (width 0.1))
  (fp_line (start 2.77 13.77) (end 6.77 13.77) (layer F.Fab) (width 0.1))
  (fp_line (start 6.77 13.77) (end 6.77 14.17) (layer F.Fab) (width 0.1))
  (fp_line (start 2.77 14.17) (end 6.77 14.17) (layer F.Fab) (width 0.1))
  (fp_line (start -0.2 15.04) (end 1.77 15.04) (layer F.Fab) (width 0.1))
  (fp_line (start -0.2 15.04) (end -0.2 15.44) (layer F.Fab) (width 0.1))
  (fp_line (start -0.2 15.44) (end 1.77 15.44) (layer F.Fab) (width 0.1))
  (fp_line (start 2.77 15.04) (end 6.77 15.04) (layer F.Fab) (width 0.1))
  (fp_line (start 6.77 15.04) (end 6.77 15.44) (layer F.Fab) (width 0.1))
  (fp_line (start 2.77 15.44) (end 6.77 15.44) (layer F.Fab) (width 0.1))
  (fp_line (start -0.2 16.31) (end 1.77 16.31) (layer F.Fab) (width 0.1))
  (fp_line (start -0.2 16.31) (end -0.2 16.71) (layer F.Fab) (width 0.1))
  (fp_line (start -0.2 16.71) (end 1.77 16.71) (layer F.Fab) (width 0.1))
  (fp_line (start 2.77 16.31) (end 6.77 16.31) (layer F.Fab) (width 0.1))
  (fp_line (start 6.77 16.31) (end 6.77 16.71) (layer F.Fab) (width 0.1))
  (fp_line (start 2.77 16.71) (end 6.77 16.71) (layer F.Fab) (width 0.1))
  (fp_line (start -0.2 17.58) (end 1.77 17.58) (layer F.Fab) (width 0.1))
  (fp_line (start -0.2 17.58) (end -0.2 17.98) (layer F.Fab) (width 0.1))
  (fp_line (start -0.2 17.98) (end 1.77 17.98) (layer F.Fab) (width 0.1))
  (fp_line (start 2.77 17.58) (end 6.77 17.58) (layer F.Fab) (width 0.1))
  (fp_line (start 6.77 17.58) (end 6.77 17.98) (layer F.Fab) (width 0.1))
  (fp_line (start 2.77 17.98) (end 6.77 17.98) (layer F.Fab) (width 0.1))
  (fp_line (start -0.2 18.85) (end 1.77 18.85) (layer F.Fab) (width 0.1))
  (fp_line (start -0.2 18.85) (end -0.2 19.25) (layer F.Fab) (width 0.1))
  (fp_line (start -0.2 19.25) (end 1.77 19.25) (layer F.Fab) (width 0.1))
  (fp_line (start 2.77 18.85) (end 6.77 18.85) (layer F.Fab) (width 0.1))
  (fp_line (start 6.77 18.85) (end 6.77 19.25) (layer F.Fab) (width 0.1))
  (fp_line (start 2.77 19.25) (end 6.77 19.25) (layer F.Fab) (width 0.1))
  (fp_line (start -0.2 20.12) (end 1.77 20.12) (layer F.Fab) (width 0.1))
  (fp_line (start -0.2 20.12) (end -0.2 20.52) (layer F.Fab) (width 0.1))
  (fp_line (start -0.2 20.52) (end 1.77 20.52) (layer F.Fab) (width 0.1))
  (fp_line (start 2.77 20.12) (end 6.77 20.12) (layer F.Fab) (width 0.1))
  (fp_line (start 6.77 20.12) (end 6.77 20.52) (layer F.Fab) (width 0.1))
  (fp_line (start 2.77 20.52) (end 6.77 20.52) (layer F.Fab) (width 0.1))
  (fp_line (start -0.2 21.39) (end 1.77 21.39) (layer F.Fab) (width 0.1))
  (fp_line (start -0.2 21.39) (end -0.2 21.79) (layer F.Fab) (width 0.1))
  (fp_line (start -0.2 21.79) (end 1.77 21.79) (layer F.Fab) (width 0.1))
  (fp_line (start 2.77 21.39) (end 6.77 21.39) (layer F.Fab) (width 0.1))
  (fp_line (start 6.77 21.39) (end 6.77 21.79) (layer F.Fab) (width 0.1))
  (fp_line (start 2.77 21.79) (end 6.77 21.79) (layer F.Fab) (width 0.1))
  (fp_line (start -0.2 22.66) (end 1.77 22.66) (layer F.Fab) (width 0.1))
  (fp_line (start -0.2 22.66) (end -0.2 23.06) (layer F.Fab) (width 0.1))
  (fp_line (start -0.2 23.06) (end 1.77 23.06) (layer F.Fab) (width 0.1))
  (fp_line (start 2.77 22.66) (end 6.77 22.66) (layer F.Fab) (width 0.1))
  (fp_line (start 6.77 22.66) (end 6.77 23.06) (layer F.Fab) (width 0.1))
  (fp_line (start 2.77 23.06) (end 6.77 23.06) (layer F.Fab) (width 0.1))
  (fp_line (start -0.2 23.93) (end 1.77 23.93) (layer F.Fab) (width 0.1))
  (fp_line (start -0.2 23.93) (end -0.2 24.33) (layer F.Fab) (width 0.1))
  (fp_line (start -0.2 24.33) (end 1.77 24.33) (layer F.Fab) (width 0.1))
  (fp_line (start 2.77 23.93) (end 6.77 23.93) (layer F.Fab) (width 0.1))
  (fp_line (start 6.77 23.93) (end 6.77 24.33) (layer F.Fab) (width 0.1))
  (fp_line (start 2.77 24.33) (end 6.77 24.33) (layer F.Fab) (width 0.1))
  (fp_line (start -0.2 25.2) (end 1.77 25.2) (layer F.Fab) (width 0.1))
  (fp_line (start -0.2 25.2) (end -0.2 25.6) (layer F.Fab) (width 0.1))
  (fp_line (start -0.2 25.6) (end 1.77 25.6) (layer F.Fab) (width 0.1))
  (fp_line (start 2.77 25.2) (end 6.77 25.2) (layer F.Fab) (width 0.1))
  (fp_line (start 6.77 25.2) (end 6.77 25.6) (layer F.Fab) (width 0.1))
  (fp_line (start 2.77 25.6) (end 6.77 25.6) (layer F.Fab) (width 0.1))
  (fp_line (start -0.2 26.47) (end 1.77 26.47) (layer F.Fab) (width 0.1))
  (fp_line (start -0.2 26.47) (end -0.2 26.87) (layer F.Fab) (width 0.1))
  (fp_line (start -0.2 26.87) (end 1.77 26.87) (layer F.Fab) (width 0.1))
  (fp_line (start 2.77 26.47) (end 6.77 26.47) (layer F.Fab) (width 0.1))
  (fp_line (start 6.77 26.47) (end 6.77 26.87) (layer F.Fab) (width 0.1))
  (fp_line (start 2.77 26.87) (end 6.77 26.87) (layer F.Fab) (width 0.1))
  (fp_line (start -0.2 27.74) (end 1.77 27.74) (layer F.Fab) (width 0.1))
  (fp_line (start -0.2 27.74) (end -0.2 28.14) (layer F.Fab) (width 0.1))
  (fp_line (start -0.2 28.14) (end 1.77 28.14) (layer F.Fab) (width 0.1))
  (fp_line (start 2.77 27.74) (end 6.77 27.74) (layer F.Fab) (width 0.1))
  (fp_line (start 6.77 27.74) (end 6.77 28.14) (layer F.Fab) (width 0.1))
  (fp_line (start 2.77 28.14) (end 6.77 28.14) (layer F.Fab) (width 0.1))
  (fp_line (start -0.2 29.01) (end 1.77 29.01) (layer F.Fab) (width 0.1))
  (fp_line (start -0.2 29.01) (end -0.2 29.41) (layer F.Fab) (width 0.1))
  (fp_line (start -0.2 29.41) (end 1.77 29.41) (layer F.Fab) (width 0.1))
  (fp_line (start 2.77 29.01) (end 6.77 29.01) (layer F.Fab) (width 0.1))
  (fp_line (start 6.77 29.01) (end 6.77 29.41) (layer F.Fab) (width 0.1))
  (fp_line (start 2.77 29.41) (end 6.77 29.41) (layer F.Fab) (width 0.1))
  (fp_line (start -0.2 30.28) (end 1.77 30.28) (layer F.Fab) (width 0.1))
  (fp_line (start -0.2 30.28) (end -0.2 30.68) (layer F.Fab) (width 0.1))
  (fp_line (start -0.2 30.68) (end 1.77 30.68) (layer F.Fab) (width 0.1))
  (fp_line (start 2.77 30.28) (end 6.77 30.28) (layer F.Fab) (width 0.1))
  (fp_line (start 6.77 30.28) (end 6.77 30.68) (layer F.Fab) (width 0.1))
  (fp_line (start 2.77 30.68) (end 6.77 30.68) (layer F.Fab) (width 0.1))
  (fp_line (start -0.2 31.55) (end 1.77 31.55) (layer F.Fab) (width 0.1))
  (fp_line (start -0.2 31.55) (end -0.2 31.95) (layer F.Fab) (width 0.1))
  (fp_line (start -0.2 31.95) (end 1.77 31.95) (layer F.Fab) (width 0.1))
  (fp_line (start 2.77 31.55) (end 6.77 31.55) (layer F.Fab) (width 0.1))
  (fp_line (start 6.77 31.55) (end 6.77 31.95) (layer F.Fab) (width 0.1))
  (fp_line (start 2.77 31.95) (end 6.77 31.95) (layer F.Fab) (width 0.1))
  (fp_line (start -0.2 32.82) (end 1.77 32.82) (layer F.Fab) (width 0.1))
  (fp_line (start -0.2 32.82) (end -0.2 33.22) (layer F.Fab) (width 0.1))
  (fp_line (start -0.2 33.22) (end 1.77 33.22) (layer F.Fab) (width 0.1))
  (fp_line (start 2.77 32.82) (end 6.77 32.82) (layer F.Fab) (width 0.1))
  (fp_line (start 6.77 32.82) (end 6.77 33.22) (layer F.Fab) (width 0.1))
  (fp_line (start 2.77 33.22) (end 6.77 33.22) (layer F.Fab) (width 0.1))
  (fp_line (start -0.2 34.09) (end 1.77 34.09) (layer F.Fab) (width 0.1))
  (fp_line (start -0.2 34.09) (end -0.2 34.49) (layer F.Fab) (width 0.1))
  (fp_line (start -0.2 34.49) (end 1.77 34.49) (layer F.Fab) (width 0.1))
  (fp_line (start 2.77 34.09) (end 6.77 34.09) (layer F.Fab) (width 0.1))
  (fp_line (start 6.77 34.09) (end 6.77 34.49) (layer F.Fab) (width 0.1))
  (fp_line (start 2.77 34.49) (end 6.77 34.49) (layer F.Fab) (width 0.1))
  (fp_line (start 1.71 -0.619677) (end 1.71 -0.695) (layer F.SilkS) (width 0.12))
  (fp_line (start 1.71 -0.695) (end 2.83 -0.695) (layer F.SilkS) (width 0.12))
  (fp_line (start 2.83 -0.695) (end 2.83 34.985) (layer F.SilkS) (width 0.12))
  (fp_line (start 2.83 34.985) (end 1.71 34.985) (layer F.SilkS) (width 0.12))
  (fp_line (start 1.71 34.985) (end 1.71 34.909677) (layer F.SilkS) (width 0.12))
  (fp_line (start 2.83 -0.26) (end 6.83 -0.26) (layer F.SilkS) (width 0.12))
  (fp_line (start 6.83 -0.26) (end 6.83 0.26) (layer F.SilkS) (width 0.12))
  (fp_line (start 6.83 0.26) (end 2.83 0.26) (layer F.SilkS) (width 0.12))
  (fp_line (start 2.83 -0.2) (end 6.83 -0.2) (layer F.SilkS) (width 0.12))
  (fp_line (start 2.83 -0.08) (end 6.83 -0.08) (layer F.SilkS) (width 0.12))
  (fp_line (start 2.83 0.04) (end 6.83 0.04) (layer F.SilkS) (width 0.12))
  (fp_line (start 2.83 0.16) (end 6.83 0.16) (layer F.SilkS) (width 0.12))
  (fp_line (start 1.71 0.635) (end 2.83 0.635) (layer F.SilkS) (width 0.12))
  (fp_line (start 1.71 0.619677) (end 1.71 0.650323) (layer F.SilkS) (width 0.12))
  (fp_line (start 2.83 1.01) (end 6.83 1.01) (layer F.SilkS) (width 0.12))
  (fp_line (start 6.83 1.01) (end 6.83 1.53) (layer F.SilkS) (width 0.12))
  (fp_line (start 6.83 1.53) (end 2.83 1.53) (layer F.SilkS) (width 0.12))
  (fp_line (start 1.71 1.905) (end 2.83 1.905) (layer F.SilkS) (width 0.12))
  (fp_line (start 1.71 1.889677) (end 1.71 1.920323) (layer F.SilkS) (width 0.12))
  (fp_line (start 2.83 2.28) (end 6.83 2.28) (layer F.SilkS) (width 0.12))
  (fp_line (start 6.83 2.28) (end 6.83 2.8) (layer F.SilkS) (width 0.12))
  (fp_line (start 6.83 2.8) (end 2.83 2.8) (layer F.SilkS) (width 0.12))
  (fp_line (start 1.71 3.175) (end 2.83 3.175) (layer F.SilkS) (width 0.12))
  (fp_line (start 1.71 3.159677) (end 1.71 3.190323) (layer F.SilkS) (width 0.12))
  (fp_line (start 2.83 3.55) (end 6.83 3.55) (layer F.SilkS) (width 0.12))
  (fp_line (start 6.83 3.55) (end 6.83 4.07) (layer F.SilkS) (width 0.12))
  (fp_line (start 6.83 4.07) (end 2.83 4.07) (layer F.SilkS) (width 0.12))
  (fp_line (start 1.71 4.445) (end 2.83 4.445) (layer F.SilkS) (width 0.12))
  (fp_line (start 1.71 4.429677) (end 1.71 4.460323) (layer F.SilkS) (width 0.12))
  (fp_line (start 2.83 4.82) (end 6.83 4.82) (layer F.SilkS) (width 0.12))
  (fp_line (start 6.83 4.82) (end 6.83 5.34) (layer F.SilkS) (width 0.12))
  (fp_line (start 6.83 5.34) (end 2.83 5.34) (layer F.SilkS) (width 0.12))
  (fp_line (start 1.71 5.715) (end 2.83 5.715) (layer F.SilkS) (width 0.12))
  (fp_line (start 1.71 5.699677) (end 1.71 5.730323) (layer F.SilkS) (width 0.12))
  (fp_line (start 2.83 6.09) (end 6.83 6.09) (layer F.SilkS) (width 0.12))
  (fp_line (start 6.83 6.09) (end 6.83 6.61) (layer F.SilkS) (width 0.12))
  (fp_line (start 6.83 6.61) (end 2.83 6.61) (layer F.SilkS) (width 0.12))
  (fp_line (start 1.71 6.985) (end 2.83 6.985) (layer F.SilkS) (width 0.12))
  (fp_line (start 1.71 6.969677) (end 1.71 7.000323) (layer F.SilkS) (width 0.12))
  (fp_line (start 2.83 7.36) (end 6.83 7.36) (layer F.SilkS) (width 0.12))
  (fp_line (start 6.83 7.36) (end 6.83 7.88) (layer F.SilkS) (width 0.12))
  (fp_line (start 6.83 7.88) (end 2.83 7.88) (layer F.SilkS) (width 0.12))
  (fp_line (start 1.71 8.255) (end 2.83 8.255) (layer F.SilkS) (width 0.12))
  (fp_line (start 1.71 8.239677) (end 1.71 8.270323) (layer F.SilkS) (width 0.12))
  (fp_line (start 2.83 8.63) (end 6.83 8.63) (layer F.SilkS) (width 0.12))
  (fp_line (start 6.83 8.63) (end 6.83 9.15) (layer F.SilkS) (width 0.12))
  (fp_line (start 6.83 9.15) (end 2.83 9.15) (layer F.SilkS) (width 0.12))
  (fp_line (start 1.71 9.525) (end 2.83 9.525) (layer F.SilkS) (width 0.12))
  (fp_line (start 1.71 9.509677) (end 1.71 9.540323) (layer F.SilkS) (width 0.12))
  (fp_line (start 2.83 9.9) (end 6.83 9.9) (layer F.SilkS) (width 0.12))
  (fp_line (start 6.83 9.9) (end 6.83 10.42) (layer F.SilkS) (width 0.12))
  (fp_line (start 6.83 10.42) (end 2.83 10.42) (layer F.SilkS) (width 0.12))
  (fp_line (start 1.71 10.795) (end 2.83 10.795) (layer F.SilkS) (width 0.12))
  (fp_line (start 1.71 10.779677) (end 1.71 10.810323) (layer F.SilkS) (width 0.12))
  (fp_line (start 2.83 11.17) (end 6.83 11.17) (layer F.SilkS) (width 0.12))
  (fp_line (start 6.83 11.17) (end 6.83 11.69) (layer F.SilkS) (width 0.12))
  (fp_line (start 6.83 11.69) (end 2.83 11.69) (layer F.SilkS) (width 0.12))
  (fp_line (start 1.71 12.065) (end 2.83 12.065) (layer F.SilkS) (width 0.12))
  (fp_line (start 1.71 12.049677) (end 1.71 12.080323) (layer F.SilkS) (width 0.12))
  (fp_line (start 2.83 12.44) (end 6.83 12.44) (layer F.SilkS) (width 0.12))
  (fp_line (start 6.83 12.44) (end 6.83 12.96) (layer F.SilkS) (width 0.12))
  (fp_line (start 6.83 12.96) (end 2.83 12.96) (layer F.SilkS) (width 0.12))
  (fp_line (start 1.71 13.335) (end 2.83 13.335) (layer F.SilkS) (width 0.12))
  (fp_line (start 1.71 13.319677) (end 1.71 13.350323) (layer F.SilkS) (width 0.12))
  (fp_line (start 2.83 13.71) (end 6.83 13.71) (layer F.SilkS) (width 0.12))
  (fp_line (start 6.83 13.71) (end 6.83 14.23) (layer F.SilkS) (width 0.12))
  (fp_line (start 6.83 14.23) (end 2.83 14.23) (layer F.SilkS) (width 0.12))
  (fp_line (start 1.71 14.605) (end 2.83 14.605) (layer F.SilkS) (width 0.12))
  (fp_line (start 1.71 14.589677) (end 1.71 14.620323) (layer F.SilkS) (width 0.12))
  (fp_line (start 2.83 14.98) (end 6.83 14.98) (layer F.SilkS) (width 0.12))
  (fp_line (start 6.83 14.98) (end 6.83 15.5) (layer F.SilkS) (width 0.12))
  (fp_line (start 6.83 15.5) (end 2.83 15.5) (layer F.SilkS) (width 0.12))
  (fp_line (start 1.71 15.875) (end 2.83 15.875) (layer F.SilkS) (width 0.12))
  (fp_line (start 1.71 15.859677) (end 1.71 15.890323) (layer F.SilkS) (width 0.12))
  (fp_line (start 2.83 16.25) (end 6.83 16.25) (layer F.SilkS) (width 0.12))
  (fp_line (start 6.83 16.25) (end 6.83 16.77) (layer F.SilkS) (width 0.12))
  (fp_line (start 6.83 16.77) (end 2.83 16.77) (layer F.SilkS) (width 0.12))
  (fp_line (start 1.71 17.145) (end 2.83 17.145) (layer F.SilkS) (width 0.12))
  (fp_line (start 1.71 17.129677) (end 1.71 17.160323) (layer F.SilkS) (width 0.12))
  (fp_line (start 2.83 17.52) (end 6.83 17.52) (layer F.SilkS) (width 0.12))
  (fp_line (start 6.83 17.52) (end 6.83 18.04) (layer F.SilkS) (width 0.12))
  (fp_line (start 6.83 18.04) (end 2.83 18.04) (layer F.SilkS) (width 0.12))
  (fp_line (start 1.71 18.415) (end 2.83 18.415) (layer F.SilkS) (width 0.12))
  (fp_line (start 1.71 18.399677) (end 1.71 18.430323) (layer F.SilkS) (width 0.12))
  (fp_line (start 2.83 18.79) (end 6.83 18.79) (layer F.SilkS) (width 0.12))
  (fp_line (start 6.83 18.79) (end 6.83 19.31) (layer F.SilkS) (width 0.12))
  (fp_line (start 6.83 19.31) (end 2.83 19.31) (layer F.SilkS) (width 0.12))
  (fp_line (start 1.71 19.685) (end 2.83 19.685) (layer F.SilkS) (width 0.12))
  (fp_line (start 1.71 19.669677) (end 1.71 19.700323) (layer F.SilkS) (width 0.12))
  (fp_line (start 2.83 20.06) (end 6.83 20.06) (layer F.SilkS) (width 0.12))
  (fp_line (start 6.83 20.06) (end 6.83 20.58) (layer F.SilkS) (width 0.12))
  (fp_line (start 6.83 20.58) (end 2.83 20.58) (layer F.SilkS) (width 0.12))
  (fp_line (start 1.71 20.955) (end 2.83 20.955) (layer F.SilkS) (width 0.12))
  (fp_line (start 1.71 20.939677) (end 1.71 20.970323) (layer F.SilkS) (width 0.12))
  (fp_line (start 2.83 21.33) (end 6.83 21.33) (layer F.SilkS) (width 0.12))
  (fp_line (start 6.83 21.33) (end 6.83 21.85) (layer F.SilkS) (width 0.12))
  (fp_line (start 6.83 21.85) (end 2.83 21.85) (layer F.SilkS) (width 0.12))
  (fp_line (start 1.71 22.225) (end 2.83 22.225) (layer F.SilkS) (width 0.12))
  (fp_line (start 1.71 22.209677) (end 1.71 22.240323) (layer F.SilkS) (width 0.12))
  (fp_line (start 2.83 22.6) (end 6.83 22.6) (layer F.SilkS) (width 0.12))
  (fp_line (start 6.83 22.6) (end 6.83 23.12) (layer F.SilkS) (width 0.12))
  (fp_line (start 6.83 23.12) (end 2.83 23.12) (layer F.SilkS) (width 0.12))
  (fp_line (start 1.71 23.495) (end 2.83 23.495) (layer F.SilkS) (width 0.12))
  (fp_line (start 1.71 23.479677) (end 1.71 23.510323) (layer F.SilkS) (width 0.12))
  (fp_line (start 2.83 23.87) (end 6.83 23.87) (layer F.SilkS) (width 0.12))
  (fp_line (start 6.83 23.87) (end 6.83 24.39) (layer F.SilkS) (width 0.12))
  (fp_line (start 6.83 24.39) (end 2.83 24.39) (layer F.SilkS) (width 0.12))
  (fp_line (start 1.71 24.765) (end 2.83 24.765) (layer F.SilkS) (width 0.12))
  (fp_line (start 1.71 24.749677) (end 1.71 24.780323) (layer F.SilkS) (width 0.12))
  (fp_line (start 2.83 25.14) (end 6.83 25.14) (layer F.SilkS) (width 0.12))
  (fp_line (start 6.83 25.14) (end 6.83 25.66) (layer F.SilkS) (width 0.12))
  (fp_line (start 6.83 25.66) (end 2.83 25.66) (layer F.SilkS) (width 0.12))
  (fp_line (start 1.71 26.035) (end 2.83 26.035) (layer F.SilkS) (width 0.12))
  (fp_line (start 1.71 26.019677) (end 1.71 26.050323) (layer F.SilkS) (width 0.12))
  (fp_line (start 2.83 26.41) (end 6.83 26.41) (layer F.SilkS) (width 0.12))
  (fp_line (start 6.83 26.41) (end 6.83 26.93) (layer F.SilkS) (width 0.12))
  (fp_line (start 6.83 26.93) (end 2.83 26.93) (layer F.SilkS) (width 0.12))
  (fp_line (start 1.71 27.305) (end 2.83 27.305) (layer F.SilkS) (width 0.12))
  (fp_line (start 1.71 27.289677) (end 1.71 27.320323) (layer F.SilkS) (width 0.12))
  (fp_line (start 2.83 27.68) (end 6.83 27.68) (layer F.SilkS) (width 0.12))
  (fp_line (start 6.83 27.68) (end 6.83 28.2) (layer F.SilkS) (width 0.12))
  (fp_line (start 6.83 28.2) (end 2.83 28.2) (layer F.SilkS) (width 0.12))
  (fp_line (start 1.71 28.575) (end 2.83 28.575) (layer F.SilkS) (width 0.12))
  (fp_line (start 1.71 28.559677) (end 1.71 28.590323) (layer F.SilkS) (width 0.12))
  (fp_line (start 2.83 28.95) (end 6.83 28.95) (layer F.SilkS) (width 0.12))
  (fp_line (start 6.83 28.95) (end 6.83 29.47) (layer F.SilkS) (width 0.12))
  (fp_line (start 6.83 29.47) (end 2.83 29.47) (layer F.SilkS) (width 0.12))
  (fp_line (start 1.71 29.845) (end 2.83 29.845) (layer F.SilkS) (width 0.12))
  (fp_line (start 1.71 29.829677) (end 1.71 29.860323) (layer F.SilkS) (width 0.12))
  (fp_line (start 2.83 30.22) (end 6.83 30.22) (layer F.SilkS) (width 0.12))
  (fp_line (start 6.83 30.22) (end 6.83 30.74) (layer F.SilkS) (width 0.12))
  (fp_line (start 6.83 30.74) (end 2.83 30.74) (layer F.SilkS) (width 0.12))
  (fp_line (start 1.71 31.115) (end 2.83 31.115) (layer F.SilkS) (width 0.12))
  (fp_line (start 1.71 31.099677) (end 1.71 31.130323) (layer F.SilkS) (width 0.12))
  (fp_line (start 2.83 31.49) (end 6.83 31.49) (layer F.SilkS) (width 0.12))
  (fp_line (start 6.83 31.49) (end 6.83 32.01) (layer F.SilkS) (width 0.12))
  (fp_line (start 6.83 32.01) (end 2.83 32.01) (layer F.SilkS) (width 0.12))
  (fp_line (start 1.71 32.385) (end 2.83 32.385) (layer F.SilkS) (width 0.12))
  (fp_line (start 1.71 32.369677) (end 1.71 32.400323) (layer F.SilkS) (width 0.12))
  (fp_line (start 2.83 32.76) (end 6.83 32.76) (layer F.SilkS) (width 0.12))
  (fp_line (start 6.83 32.76) (end 6.83 33.28) (layer F.SilkS) (width 0.12))
  (fp_line (start 6.83 33.28) (end 2.83 33.28) (layer F.SilkS) (width 0.12))
  (fp_line (start 1.71 33.655) (end 2.83 33.655) (layer F.SilkS) (width 0.12))
  (fp_line (start 1.71 33.639677) (end 1.71 33.670323) (layer F.SilkS) (width 0.12))
  (fp_line (start 2.83 34.03) (end 6.83 34.03) (layer F.SilkS) (width 0.12))
  (fp_line (start 6.83 34.03) (end 6.83 34.55) (layer F.SilkS) (width 0.12))
  (fp_line (start 6.83 34.55) (end 2.83 34.55) (layer F.SilkS) (width 0.12))
  (fp_line (start -0.76 0) (end -0.76 -0.76) (layer F.SilkS) (width 0.12))
  (fp_line (start -0.76 -0.76) (end 0 -0.76) (layer F.SilkS) (width 0.12))
  (fp_line (start -1.15 -1.15) (end -1.15 35.45) (layer F.CrtYd) (width 0.05))
  (fp_line (start -1.15 35.45) (end 7.3 35.45) (layer F.CrtYd) (width 0.05))
  (fp_line (start 7.3 35.45) (end 7.3 -1.15) (layer F.CrtYd) (width 0.05))
  (fp_line (start 7.3 -1.15) (end -1.15 -1.15) (layer F.CrtYd) (width 0.05))
  (pad 1 thru_hole rect (at 0 0) (size 1 1) (drill 0.65) (layers *.Cu *.Mask))
  (pad 2 thru_hole oval (at 1.27 0) (size 1 1) (drill 0.65) (layers *.Cu *.Mask))
  (pad 3 thru_hole oval (at 0 1.27) (size 1 1) (drill 0.65) (layers *.Cu *.Mask))
  (pad 4 thru_hole oval (at 1.27 1.27) (size 1 1) (drill 0.65) (layers *.Cu *.Mask))
  (pad 5 thru_hole oval (at 0 2.54) (size 1 1) (drill 0.65) (layers *.Cu *.Mask))
  (pad 6 thru_hole oval (at 1.27 2.54) (size 1 1) (drill 0.65) (layers *.Cu *.Mask))
  (pad 7 thru_hole oval (at 0 3.81) (size 1 1) (drill 0.65) (layers *.Cu *.Mask))
  (pad 8 thru_hole oval (at 1.27 3.81) (size 1 1) (drill 0.65) (layers *.Cu *.Mask))
  (pad 9 thru_hole oval (at 0 5.08) (size 1 1) (drill 0.65) (layers *.Cu *.Mask))
  (pad 10 thru_hole oval (at 1.27 5.08) (size 1 1) (drill 0.65) (layers *.Cu *.Mask))
  (pad 11 thru_hole oval (at 0 6.35) (size 1 1) (drill 0.65) (layers *.Cu *.Mask))
  (pad 12 thru_hole oval (at 1.27 6.35) (size 1 1) (drill 0.65) (layers *.Cu *.Mask))
  (pad 13 thru_hole oval (at 0 7.62) (size 1 1) (drill 0.65) (layers *.Cu *.Mask))
  (pad 14 thru_hole oval (at 1.27 7.62) (size 1 1) (drill 0.65) (layers *.Cu *.Mask))
  (pad 15 thru_hole oval (at 0 8.89) (size 1 1) (drill 0.65) (layers *.Cu *.Mask))
  (pad 16 thru_hole oval (at 1.27 8.89) (size 1 1) (drill 0.65) (layers *.Cu *.Mask))
  (pad 17 thru_hole oval (at 0 10.16) (size 1 1) (drill 0.65) (layers *.Cu *.Mask))
  (pad 18 thru_hole oval (at 1.27 10.16) (size 1 1) (drill 0.65) (layers *.Cu *.Mask))
  (pad 19 thru_hole oval (at 0 11.43) (size 1 1) (drill 0.65) (layers *.Cu *.Mask))
  (pad 20 thru_hole oval (at 1.27 11.43) (size 1 1) (drill 0.65) (layers *.Cu *.Mask))
  (pad 21 thru_hole oval (at 0 12.7) (size 1 1) (drill 0.65) (layers *.Cu *.Mask))
  (pad 22 thru_hole oval (at 1.27 12.7) (size 1 1) (drill 0.65) (layers *.Cu *.Mask))
  (pad 23 thru_hole oval (at 0 13.97) (size 1 1) (drill 0.65) (layers *.Cu *.Mask))
  (pad 24 thru_hole oval (at 1.27 13.97) (size 1 1) (drill 0.65) (layers *.Cu *.Mask))
  (pad 25 thru_hole oval (at 0 15.24) (size 1 1) (drill 0.65) (layers *.Cu *.Mask))
  (pad 26 thru_hole oval (at 1.27 15.24) (size 1 1) (drill 0.65) (layers *.Cu *.Mask))
  (pad 27 thru_hole oval (at 0 16.51) (size 1 1) (drill 0.65) (layers *.Cu *.Mask))
  (pad 28 thru_hole oval (at 1.27 16.51) (size 1 1) (drill 0.65) (layers *.Cu *.Mask))
  (pad 29 thru_hole oval (at 0 17.78) (size 1 1) (drill 0.65) (layers *.Cu *.Mask))
  (pad 30 thru_hole oval (at 1.27 17.78) (size 1 1) (drill 0.65) (layers *.Cu *.Mask))
  (pad 31 thru_hole oval (at 0 19.05) (size 1 1) (drill 0.65) (layers *.Cu *.Mask))
  (pad 32 thru_hole oval (at 1.27 19.05) (size 1 1) (drill 0.65) (layers *.Cu *.Mask))
  (pad 33 thru_hole oval (at 0 20.32) (size 1 1) (drill 0.65) (layers *.Cu *.Mask))
  (pad 34 thru_hole oval (at 1.27 20.32) (size 1 1) (drill 0.65) (layers *.Cu *.Mask))
  (pad 35 thru_hole oval (at 0 21.59) (size 1 1) (drill 0.65) (layers *.Cu *.Mask))
  (pad 36 thru_hole oval (at 1.27 21.59) (size 1 1) (drill 0.65) (layers *.Cu *.Mask))
  (pad 37 thru_hole oval (at 0 22.86) (size 1 1) (drill 0.65) (layers *.Cu *.Mask))
  (pad 38 thru_hole oval (at 1.27 22.86) (size 1 1) (drill 0.65) (layers *.Cu *.Mask))
  (pad 39 thru_hole oval (at 0 24.13) (size 1 1) (drill 0.65) (layers *.Cu *.Mask))
  (pad 40 thru_hole oval (at 1.27 24.13) (size 1 1) (drill 0.65) (layers *.Cu *.Mask))
  (pad 41 thru_hole oval (at 0 25.4) (size 1 1) (drill 0.65) (layers *.Cu *.Mask))
  (pad 42 thru_hole oval (at 1.27 25.4) (size 1 1) (drill 0.65) (layers *.Cu *.Mask))
  (pad 43 thru_hole oval (at 0 26.67) (size 1 1) (drill 0.65) (layers *.Cu *.Mask))
  (pad 44 thru_hole oval (at 1.27 26.67) (size 1 1) (drill 0.65) (layers *.Cu *.Mask))
  (pad 45 thru_hole oval (at 0 27.94) (size 1 1) (drill 0.65) (layers *.Cu *.Mask))
  (pad 46 thru_hole oval (at 1.27 27.94) (size 1 1) (drill 0.65) (layers *.Cu *.Mask))
  (pad 47 thru_hole oval (at 0 29.21) (size 1 1) (drill 0.65) (layers *.Cu *.Mask))
  (pad 48 thru_hole oval (at 1.27 29.21) (size 1 1) (drill 0.65) (layers *.Cu *.Mask))
  (pad 49 thru_hole oval (at 0 30.48) (size 1 1) (drill 0.65) (layers *.Cu *.Mask))
  (pad 50 thru_hole oval (at 1.27 30.48) (size 1 1) (drill 0.65) (layers *.Cu *.Mask))
  (pad 51 thru_hole oval (at 0 31.75) (size 1 1) (drill 0.65) (layers *.Cu *.Mask))
  (pad 52 thru_hole oval (at 1.27 31.75) (size 1 1) (drill 0.65) (layers *.Cu *.Mask))
  (pad 53 thru_hole oval (at 0 33.02) (size 1 1) (drill 0.65) (layers *.Cu *.Mask))
  (pad 54 thru_hole oval (at 1.27 33.02) (size 1 1) (drill 0.65) (layers *.Cu *.Mask))
  (pad 55 thru_hole oval (at 0 34.29) (size 1 1) (drill 0.65) (layers *.Cu *.Mask))
  (pad 56 thru_hole oval (at 1.27 34.29) (size 1 1) (drill 0.65) (layers *.Cu *.Mask))
  (fp_text user %R (at 2.27 17.145 90) (layer F.Fab)
    (effects (font (size 0.6 0.6) (thickness 0.09)))
  )
  (model ${KICAD6_3DMODEL_DIR}/Connector_PinHeader_1.27mm.3dshapes/PinHeader_2x28_P1.27mm_Horizontal.wrl
    (at (xyz 0 0 0))
    (scale (xyz 1 1 1))
    (rotate (xyz 0 0 0))
  )
)