(module PinHeader_2x22_P1.27mm_Vertical_SMD (layer F.Cu) (tedit 59FED6E3)
  (descr "surface-mounted straight pin header, 2x22, 1.27mm pitch, double rows")
  (tags "Surface mounted pin header SMD 2x22 1.27mm double row")
  (attr smd)
  (fp_text reference REF** (at 0 -15.03) (layer F.SilkS)
    (effects (font (size 1 1) (thickness 0.15)))
  )
  (fp_text value PinHeader_2x22_P1.27mm_Vertical_SMD (at 0 15.03) (layer F.Fab)
    (effects (font (size 1 1) (thickness 0.15)))
  )
  (fp_line (start 1.705 13.97) (end -1.705 13.97) (layer F.Fab) (width 0.1))
  (fp_line (start -1.27 -13.97) (end 1.705 -13.97) (layer F.Fab) (width 0.1))
  (fp_line (start -1.705 13.97) (end -1.705 -13.535) (layer F.Fab) (width 0.1))
  (fp_line (start -1.705 -13.535) (end -1.27 -13.97) (layer F.Fab) (width 0.1))
  (fp_line (start 1.705 -13.97) (end 1.705 13.97) (layer F.Fab) (width 0.1))
  (fp_line (start -1.705 -13.535) (end -2.75 -13.535) (layer F.Fab) (width 0.1))
  (fp_line (start -2.75 -13.535) (end -2.75 -13.135) (layer F.Fab) (width 0.1))
  (fp_line (start -2.75 -13.135) (end -1.705 -13.135) (layer F.Fab) (width 0.1))
  (fp_line (start 1.705 -13.535) (end 2.75 -13.535) (layer F.Fab) (width 0.1))
  (fp_line (start 2.75 -13.535) (end 2.75 -13.135) (layer F.Fab) (width 0.1))
  (fp_line (start 2.75 -13.135) (end 1.705 -13.135) (layer F.Fab) (width 0.1))
  (fp_line (start -1.705 -12.265) (end -2.75 -12.265) (layer F.Fab) (width 0.1))
  (fp_line (start -2.75 -12.265) (end -2.75 -11.865) (layer F.Fab) (width 0.1))
  (fp_line (start -2.75 -11.865) (end -1.705 -11.865) (layer F.Fab) (width 0.1))
  (fp_line (start 1.705 -12.265) (end 2.75 -12.265) (layer F.Fab) (width 0.1))
  (fp_line (start 2.75 -12.265) (end 2.75 -11.865) (layer F.Fab) (width 0.1))
  (fp_line (start 2.75 -11.865) (end 1.705 -11.865) (layer F.Fab) (width 0.1))
  (fp_line (start -1.705 -10.995) (end -2.75 -10.995) (layer F.Fab) (width 0.1))
  (fp_line (start -2.75 -10.995) (end -2.75 -10.595) (layer F.Fab) (width 0.1))
  (fp_line (start -2.75 -10.595) (end -1.705 -10.595) (layer F.Fab) (width 0.1))
  (fp_line (start 1.705 -10.995) (end 2.75 -10.995) (layer F.Fab) (width 0.1))
  (fp_line (start 2.75 -10.995) (end 2.75 -10.595) (layer F.Fab) (width 0.1))
  (fp_line (start 2.75 -10.595) (end 1.705 -10.595) (layer F.Fab) (width 0.1))
  (fp_line (start -1.705 -9.725) (end -2.75 -9.725) (layer F.Fab) (width 0.1))
  (fp_line (start -2.75 -9.725) (end -2.75 -9.325) (layer F.Fab) (width 0.1))
  (fp_line (start -2.75 -9.325) (end -1.705 -9.325) (layer F.Fab) (width 0.1))
  (fp_line (start 1.705 -9.725) (end 2.75 -9.725) (layer F.Fab) (width 0.1))
  (fp_line (start 2.75 -9.725) (end 2.75 -9.325) (layer F.Fab) (width 0.1))
  (fp_line (start 2.75 -9.325) (end 1.705 -9.325) (layer F.Fab) (width 0.1))
  (fp_line (start -1.705 -8.455) (end -2.75 -8.455) (layer F.Fab) (width 0.1))
  (fp_line (start -2.75 -8.455) (end -2.75 -8.055) (layer F.Fab) (width 0.1))
  (fp_line (start -2.75 -8.055) (end -1.705 -8.055) (layer F.Fab) (width 0.1))
  (fp_line (start 1.705 -8.455) (end 2.75 -8.455) (layer F.Fab) (width 0.1))
  (fp_line (start 2.75 -8.455) (end 2.75 -8.055) (layer F.Fab) (width 0.1))
  (fp_line (start 2.75 -8.055) (end 1.705 -8.055) (layer F.Fab) (width 0.1))
  (fp_line (start -1.705 -7.185) (end -2.75 -7.185) (layer F.Fab) (width 0.1))
  (fp_line (start -2.75 -7.185) (end -2.75 -6.785) (layer F.Fab) (width 0.1))
  (fp_line (start -2.75 -6.785) (end -1.705 -6.785) (layer F.Fab) (width 0.1))
  (fp_line (start 1.705 -7.185) (end 2.75 -7.185) (layer F.Fab) (width 0.1))
  (fp_line (start 2.75 -7.185) (end 2.75 -6.785) (layer F.Fab) (width 0.1))
  (fp_line (start 2.75 -6.785) (end 1.705 -6.785) (layer F.Fab) (width 0.1))
  (fp_line (start -1.705 -5.915) (end -2.75 -5.915) (layer F.Fab) (width 0.1))
  (fp_line (start -2.75 -5.915) (end -2.75 -5.515) (layer F.Fab) (width 0.1))
  (fp_line (start -2.75 -5.515) (end -1.705 -5.515) (layer F.Fab) (width 0.1))
  (fp_line (start 1.705 -5.915) (end 2.75 -5.915) (layer F.Fab) (width 0.1))
  (fp_line (start 2.75 -5.915) (end 2.75 -5.515) (layer F.Fab) (width 0.1))
  (fp_line (start 2.75 -5.515) (end 1.705 -5.515) (layer F.Fab) (width 0.1))
  (fp_line (start -1.705 -4.645) (end -2.75 -4.645) (layer F.Fab) (width 0.1))
  (fp_line (start -2.75 -4.645) (end -2.75 -4.245) (layer F.Fab) (width 0.1))
  (fp_line (start -2.75 -4.245) (end -1.705 -4.245) (layer F.Fab) (width 0.1))
  (fp_line (start 1.705 -4.645) (end 2.75 -4.645) (layer F.Fab) (width 0.1))
  (fp_line (start 2.75 -4.645) (end 2.75 -4.245) (layer F.Fab) (width 0.1))
  (fp_line (start 2.75 -4.245) (end 1.705 -4.245) (layer F.Fab) (width 0.1))
  (fp_line (start -1.705 -3.375) (end -2.75 -3.375) (layer F.Fab) (width 0.1))
  (fp_line (start -2.75 -3.375) (end -2.75 -2.975) (layer F.Fab) (width 0.1))
  (fp_line (start -2.75 -2.975) (end -1.705 -2.975) (layer F.Fab) (width 0.1))
  (fp_line (start 1.705 -3.375) (end 2.75 -3.375) (layer F.Fab) (width 0.1))
  (fp_line (start 2.75 -3.375) (end 2.75 -2.975) (layer F.Fab) (width 0.1))
  (fp_line (start 2.75 -2.975) (end 1.705 -2.975) (layer F.Fab) (width 0.1))
  (fp_line (start -1.705 -2.105) (end -2.75 -2.105) (layer F.Fab) (width 0.1))
  (fp_line (start -2.75 -2.105) (end -2.75 -1.705) (layer F.Fab) (width 0.1))
  (fp_line (start -2.75 -1.705) (end -1.705 -1.705) (layer F.Fab) (width 0.1))
  (fp_line (start 1.705 -2.105) (end 2.75 -2.105) (layer F.Fab) (width 0.1))
  (fp_line (start 2.75 -2.105) (end 2.75 -1.705) (layer F.Fab) (width 0.1))
  (fp_line (start 2.75 -1.705) (end 1.705 -1.705) (layer F.Fab) (width 0.1))
  (fp_line (start -1.705 -0.835) (end -2.75 -0.835) (layer F.Fab) (width 0.1))
  (fp_line (start -2.75 -0.835) (end -2.75 -0.435) (layer F.Fab) (width 0.1))
  (fp_line (start -2.75 -0.435) (end -1.705 -0.435) (layer F.Fab) (width 0.1))
  (fp_line (start 1.705 -0.835) (end 2.75 -0.835) (layer F.Fab) (width 0.1))
  (fp_line (start 2.75 -0.835) (end 2.75 -0.435) (layer F.Fab) (width 0.1))
  (fp_line (start 2.75 -0.435) (end 1.705 -0.435) (layer F.Fab) (width 0.1))
  (fp_line (start -1.705 0.435) (end -2.75 0.435) (layer F.Fab) (width 0.1))
  (fp_line (start -2.75 0.435) (end -2.75 0.835) (layer F.Fab) (width 0.1))
  (fp_line (start -2.75 0.835) (end -1.705 0.835) (layer F.Fab) (width 0.1))
  (fp_line (start 1.705 0.435) (end 2.75 0.435) (layer F.Fab) (width 0.1))
  (fp_line (start 2.75 0.435) (end 2.75 0.835) (layer F.Fab) (width 0.1))
  (fp_line (start 2.75 0.835) (end 1.705 0.835) (layer F.Fab) (width 0.1))
  (fp_line (start -1.705 1.705) (end -2.75 1.705) (layer F.Fab) (width 0.1))
  (fp_line (start -2.75 1.705) (end -2.75 2.105) (layer F.Fab) (width 0.1))
  (fp_line (start -2.75 2.105) (end -1.705 2.105) (layer F.Fab) (width 0.1))
  (fp_line (start 1.705 1.705) (end 2.75 1.705) (layer F.Fab) (width 0.1))
  (fp_line (start 2.75 1.705) (end 2.75 2.105) (layer F.Fab) (width 0.1))
  (fp_line (start 2.75 2.105) (end 1.705 2.105) (layer F.Fab) (width 0.1))
  (fp_line (start -1.705 2.975) (end -2.75 2.975) (layer F.Fab) (width 0.1))
  (fp_line (start -2.75 2.975) (end -2.75 3.375) (layer F.Fab) (width 0.1))
  (fp_line (start -2.75 3.375) (end -1.705 3.375) (layer F.Fab) (width 0.1))
  (fp_line (start 1.705 2.975) (end 2.75 2.975) (layer F.Fab) (width 0.1))
  (fp_line (start 2.75 2.975) (end 2.75 3.375) (layer F.Fab) (width 0.1))
  (fp_line (start 2.75 3.375) (end 1.705 3.375) (layer F.Fab) (width 0.1))
  (fp_line (start -1.705 4.245) (end -2.75 4.245) (layer F.Fab) (width 0.1))
  (fp_line (start -2.75 4.245) (end -2.75 4.645) (layer F.Fab) (width 0.1))
  (fp_line (start -2.75 4.645) (end -1.705 4.645) (layer F.Fab) (width 0.1))
  (fp_line (start 1.705 4.245) (end 2.75 4.245) (layer F.Fab) (width 0.1))
  (fp_line (start 2.75 4.245) (end 2.75 4.645) (layer F.Fab) (width 0.1))
  (fp_line (start 2.75 4.645) (end 1.705 4.645) (layer F.Fab) (width 0.1))
  (fp_line (start -1.705 5.515) (end -2.75 5.515) (layer F.Fab) (width 0.1))
  (fp_line (start -2.75 5.515) (end -2.75 5.915) (layer F.Fab) (width 0.1))
  (fp_line (start -2.75 5.915) (end -1.705 5.915) (layer F.Fab) (width 0.1))
  (fp_line (start 1.705 5.515) (end 2.75 5.515) (layer F.Fab) (width 0.1))
  (fp_line (start 2.75 5.515) (end 2.75 5.915) (layer F.Fab) (width 0.1))
  (fp_line (start 2.75 5.915) (end 1.705 5.915) (layer F.Fab) (width 0.1))
  (fp_line (start -1.705 6.785) (end -2.75 6.785) (layer F.Fab) (width 0.1))
  (fp_line (start -2.75 6.785) (end -2.75 7.185) (layer F.Fab) (width 0.1))
  (fp_line (start -2.75 7.185) (end -1.705 7.185) (layer F.Fab) (width 0.1))
  (fp_line (start 1.705 6.785) (end 2.75 6.785) (layer F.Fab) (width 0.1))
  (fp_line (start 2.75 6.785) (end 2.75 7.185) (layer F.Fab) (width 0.1))
  (fp_line (start 2.75 7.185) (end 1.705 7.185) (layer F.Fab) (width 0.1))
  (fp_line (start -1.705 8.055) (end -2.75 8.055) (layer F.Fab) (width 0.1))
  (fp_line (start -2.75 8.055) (end -2.75 8.455) (layer F.Fab) (width 0.1))
  (fp_line (start -2.75 8.455) (end -1.705 8.455) (layer F.Fab) (width 0.1))
  (fp_line (start 1.705 8.055) (end 2.75 8.055) (layer F.Fab) (width 0.1))
  (fp_line (start 2.75 8.055) (end 2.75 8.455) (layer F.Fab) (width 0.1))
  (fp_line (start 2.75 8.455) (end 1.705 8.455) (layer F.Fab) (width 0.1))
  (fp_line (start -1.705 9.325) (end -2.75 9.325) (layer F.Fab) (width 0.1))
  (fp_line (start -2.75 9.325) (end -2.75 9.725) (layer F.Fab) (width 0.1))
  (fp_line (start -2.75 9.725) (end -1.705 9.725) (layer F.Fab) (width 0.1))
  (fp_line (start 1.705 9.325) (end 2.75 9.325) (layer F.Fab) (width 0.1))
  (fp_line (start 2.75 9.325) (end 2.75 9.725) (layer F.Fab) (width 0.1))
  (fp_line (start 2.75 9.725) (end 1.705 9.725) (layer F.Fab) (width 0.1))
  (fp_line (start -1.705 10.595) (end -2.75 10.595) (layer F.Fab) (width 0.1))
  (fp_line (start -2.75 10.595) (end -2.75 10.995) (layer F.Fab) (width 0.1))
  (fp_line (start -2.75 10.995) (end -1.705 10.995) (layer F.Fab) (width 0.1))
  (fp_line (start 1.705 10.595) (end 2.75 10.595) (layer F.Fab) (width 0.1))
  (fp_line (start 2.75 10.595) (end 2.75 10.995) (layer F.Fab) (width 0.1))
  (fp_line (start 2.75 10.995) (end 1.705 10.995) (layer F.Fab) (width 0.1))
  (fp_line (start -1.705 11.865) (end -2.75 11.865) (layer F.Fab) (width 0.1))
  (fp_line (start -2.75 11.865) (end -2.75 12.265) (layer F.Fab) (width 0.1))
  (fp_line (start -2.75 12.265) (end -1.705 12.265) (layer F.Fab) (width 0.1))
  (fp_line (start 1.705 11.865) (end 2.75 11.865) (layer F.Fab) (width 0.1))
  (fp_line (start 2.75 11.865) (end 2.75 12.265) (layer F.Fab) (width 0.1))
  (fp_line (start 2.75 12.265) (end 1.705 12.265) (layer F.Fab) (width 0.1))
  (fp_line (start -1.705 13.135) (end -2.75 13.135) (layer F.Fab) (width 0.1))
  (fp_line (start -2.75 13.135) (end -2.75 13.535) (layer F.Fab) (width 0.1))
  (fp_line (start -2.75 13.535) (end -1.705 13.535) (layer F.Fab) (width 0.1))
  (fp_line (start 1.705 13.135) (end 2.75 13.135) (layer F.Fab) (width 0.1))
  (fp_line (start 2.75 13.135) (end 2.75 13.535) (layer F.Fab) (width 0.1))
  (fp_line (start 2.75 13.535) (end 1.705 13.535) (layer F.Fab) (width 0.1))
  (fp_line (start -1.765 -14.03) (end 1.765 -14.03) (layer F.SilkS) (width 0.12))
  (fp_line (start -1.765 14.03) (end 1.765 14.03) (layer F.SilkS) (width 0.12))
  (fp_line (start -3.09 -13.965) (end -1.765 -13.965) (layer F.SilkS) (width 0.12))
  (fp_line (start -1.765 -14.03) (end -1.765 -13.965) (layer F.SilkS) (width 0.12))
  (fp_line (start 1.765 -14.03) (end 1.765 -13.965) (layer F.SilkS) (width 0.12))
  (fp_line (start -1.765 13.965) (end -1.765 14.03) (layer F.SilkS) (width 0.12))
  (fp_line (start 1.765 13.965) (end 1.765 14.03) (layer F.SilkS) (width 0.12))
  (fp_line (start -4.3 -14.5) (end -4.3 14.5) (layer F.CrtYd) (width 0.05))
  (fp_line (start -4.3 14.5) (end 4.3 14.5) (layer F.CrtYd) (width 0.05))
  (fp_line (start 4.3 14.5) (end 4.3 -14.5) (layer F.CrtYd) (width 0.05))
  (fp_line (start 4.3 -14.5) (end -4.3 -14.5) (layer F.CrtYd) (width 0.05))
  (pad 1 smd rect (at -1.95 -13.335) (size 2.4 0.74) (layers F.Cu F.Mask F.Paste))
  (pad 2 smd rect (at 1.95 -13.335) (size 2.4 0.74) (layers F.Cu F.Mask F.Paste))
  (pad 3 smd rect (at -1.95 -12.065) (size 2.4 0.74) (layers F.Cu F.Mask F.Paste))
  (pad 4 smd rect (at 1.95 -12.065) (size 2.4 0.74) (layers F.Cu F.Mask F.Paste))
  (pad 5 smd rect (at -1.95 -10.795) (size 2.4 0.74) (layers F.Cu F.Mask F.Paste))
  (pad 6 smd rect (at 1.95 -10.795) (size 2.4 0.74) (layers F.Cu F.Mask F.Paste))
  (pad 7 smd rect (at -1.95 -9.525) (size 2.4 0.74) (layers F.Cu F.Mask F.Paste))
  (pad 8 smd rect (at 1.95 -9.525) (size 2.4 0.74) (layers F.Cu F.Mask F.Paste))
  (pad 9 smd rect (at -1.95 -8.255) (size 2.4 0.74) (layers F.Cu F.Mask F.Paste))
  (pad 10 smd rect (at 1.95 -8.255) (size 2.4 0.74) (layers F.Cu F.Mask F.Paste))
  (pad 11 smd rect (at -1.95 -6.985) (size 2.4 0.74) (layers F.Cu F.Mask F.Paste))
  (pad 12 smd rect (at 1.95 -6.985) (size 2.4 0.74) (layers F.Cu F.Mask F.Paste))
  (pad 13 smd rect (at -1.95 -5.715) (size 2.4 0.74) (layers F.Cu F.Mask F.Paste))
  (pad 14 smd rect (at 1.95 -5.715) (size 2.4 0.74) (layers F.Cu F.Mask F.Paste))
  (pad 15 smd rect (at -1.95 -4.445) (size 2.4 0.74) (layers F.Cu F.Mask F.Paste))
  (pad 16 smd rect (at 1.95 -4.445) (size 2.4 0.74) (layers F.Cu F.Mask F.Paste))
  (pad 17 smd rect (at -1.95 -3.175) (size 2.4 0.74) (layers F.Cu F.Mask F.Paste))
  (pad 18 smd rect (at 1.95 -3.175) (size 2.4 0.74) (layers F.Cu F.Mask F.Paste))
  (pad 19 smd rect (at -1.95 -1.905) (size 2.4 0.74) (layers F.Cu F.Mask F.Paste))
  (pad 20 smd rect (at 1.95 -1.905) (size 2.4 0.74) (layers F.Cu F.Mask F.Paste))
  (pad 21 smd rect (at -1.95 -0.635) (size 2.4 0.74) (layers F.Cu F.Mask F.Paste))
  (pad 22 smd rect (at 1.95 -0.635) (size 2.4 0.74) (layers F.Cu F.Mask F.Paste))
  (pad 23 smd rect (at -1.95 0.635) (size 2.4 0.74) (layers F.Cu F.Mask F.Paste))
  (pad 24 smd rect (at 1.95 0.635) (size 2.4 0.74) (layers F.Cu F.Mask F.Paste))
  (pad 25 smd rect (at -1.95 1.905) (size 2.4 0.74) (layers F.Cu F.Mask F.Paste))
  (pad 26 smd rect (at 1.95 1.905) (size 2.4 0.74) (layers F.Cu F.Mask F.Paste))
  (pad 27 smd rect (at -1.95 3.175) (size 2.4 0.74) (layers F.Cu F.Mask F.Paste))
  (pad 28 smd rect (at 1.95 3.175) (size 2.4 0.74) (layers F.Cu F.Mask F.Paste))
  (pad 29 smd rect (at -1.95 4.445) (size 2.4 0.74) (layers F.Cu F.Mask F.Paste))
  (pad 30 smd rect (at 1.95 4.445) (size 2.4 0.74) (layers F.Cu F.Mask F.Paste))
  (pad 31 smd rect (at -1.95 5.715) (size 2.4 0.74) (layers F.Cu F.Mask F.Paste))
  (pad 32 smd rect (at 1.95 5.715) (size 2.4 0.74) (layers F.Cu F.Mask F.Paste))
  (pad 33 smd rect (at -1.95 6.985) (size 2.4 0.74) (layers F.Cu F.Mask F.Paste))
  (pad 34 smd rect (at 1.95 6.985) (size 2.4 0.74) (layers F.Cu F.Mask F.Paste))
  (pad 35 smd rect (at -1.95 8.255) (size 2.4 0.74) (layers F.Cu F.Mask F.Paste))
  (pad 36 smd rect (at 1.95 8.255) (size 2.4 0.74) (layers F.Cu F.Mask F.Paste))
  (pad 37 smd rect (at -1.95 9.525) (size 2.4 0.74) (layers F.Cu F.Mask F.Paste))
  (pad 38 smd rect (at 1.95 9.525) (size 2.4 0.74) (layers F.Cu F.Mask F.Paste))
  (pad 39 smd rect (at -1.95 10.795) (size 2.4 0.74) (layers F.Cu F.Mask F.Paste))
  (pad 40 smd rect (at 1.95 10.795) (size 2.4 0.74) (layers F.Cu F.Mask F.Paste))
  (pad 41 smd rect (at -1.95 12.065) (size 2.4 0.74) (layers F.Cu F.Mask F.Paste))
  (pad 42 smd rect (at 1.95 12.065) (size 2.4 0.74) (layers F.Cu F.Mask F.Paste))
  (pad 43 smd rect (at -1.95 13.335) (size 2.4 0.74) (layers F.Cu F.Mask F.Paste))
  (pad 44 smd rect (at 1.95 13.335) (size 2.4 0.74) (layers F.Cu F.Mask F.Paste))
  (fp_text user %R (at 0 0 90) (layer F.Fab)
    (effects (font (size 1 1) (thickness 0.15)))
  )
  (model ${KICAD6_3DMODEL_DIR}/Connector_PinHeader_1.27mm.3dshapes/PinHeader_2x22_P1.27mm_Vertical_SMD.wrl
    (at (xyz 0 0 0))
    (scale (xyz 1 1 1))
    (rotate (xyz 0 0 0))
  )
)