(module PinHeader_1x13_P1.27mm_Horizontal (layer F.Cu) (tedit 59FED6E3)
  (descr "Through hole angled pin header, 1x13, 1.27mm pitch, 4.0mm pin length, single row")
  (tags "Through hole angled pin header THT 1x13 1.27mm single row")
  (fp_text reference REF** (at 2.4325 -1.635) (layer F.SilkS)
    (effects (font (size 1 1) (thickness 0.15)))
  )
  (fp_text value PinHeader_1x13_P1.27mm_Horizontal (at 2.4325 16.875) (layer F.Fab)
    (effects (font (size 1 1) (thickness 0.15)))
  )
  (fp_line (start 0.75 -0.635) (end 1.5 -0.635) (layer F.Fab) (width 0.1))
  (fp_line (start 1.5 -0.635) (end 1.5 15.875) (layer F.Fab) (width 0.1))
  (fp_line (start 1.5 15.875) (end 0.5 15.875) (layer F.Fab) (width 0.1))
  (fp_line (start 0.5 15.875) (end 0.5 -0.385) (layer F.Fab) (width 0.1))
  (fp_line (start 0.5 -0.385) (end 0.75 -0.635) (layer F.Fab) (width 0.1))
  (fp_line (start -0.2 -0.2) (end 0.5 -0.2) (layer F.Fab) (width 0.1))
  (fp_line (start -0.2 -0.2) (end -0.2 0.2) (layer F.Fab) (width 0.1))
  (fp_line (start -0.2 0.2) (end 0.5 0.2) (layer F.Fab) (width 0.1))
  (fp_line (start 1.5 -0.2) (end 5.5 -0.2) (layer F.Fab) (width 0.1))
  (fp_line (start 5.5 -0.2) (end 5.5 0.2) (layer F.Fab) (width 0.1))
  (fp_line (start 1.5 0.2) (end 5.5 0.2) (layer F.Fab) (width 0.1))
  (fp_line (start -0.2 1.07) (end 0.5 1.07) (layer F.Fab) (width 0.1))
  (fp_line (start -0.2 1.07) (end -0.2 1.47) (layer F.Fab) (width 0.1))
  (fp_line (start -0.2 1.47) (end 0.5 1.47) (layer F.Fab) (width 0.1))
  (fp_line (start 1.5 1.07) (end 5.5 1.07) (layer F.Fab) (width 0.1))
  (fp_line (start 5.5 1.07) (end 5.5 1.47) (layer F.Fab) (width 0.1))
  (fp_line (start 1.5 1.47) (end 5.5 1.47) (layer F.Fab) (width 0.1))
  (fp_line (start -0.2 2.34) (end 0.5 2.34) (layer F.Fab) (width 0.1))
  (fp_line (start -0.2 2.34) (end -0.2 2.74) (layer F.Fab) (width 0.1))
  (fp_line (start -0.2 2.74) (end 0.5 2.74) (layer F.Fab) (width 0.1))
  (fp_line (start 1.5 2.34) (end 5.5 2.34) (layer F.Fab) (width 0.1))
  (fp_line (start 5.5 2.34) (end 5.5 2.74) (layer F.Fab) (width 0.1))
  (fp_line (start 1.5 2.74) (end 5.5 2.74) (layer F.Fab) (width 0.1))
  (fp_line (start -0.2 3.61) (end 0.5 3.61) (layer F.Fab) (width 0.1))
  (fp_line (start -0.2 3.61) (end -0.2 4.01) (layer F.Fab) (width 0.1))
  (fp_line (start -0.2 4.01) (end 0.5 4.01) (layer F.Fab) (width 0.1))
  (fp_line (start 1.5 3.61) (end 5.5 3.61) (layer F.Fab) (width 0.1))
  (fp_line (start 5.5 3.61) (end 5.5 4.01) (layer F.Fab) (width 0.1))
  (fp_line (start 1.5 4.01) (end 5.5 4.01) (layer F.Fab) (width 0.1))
  (fp_line (start -0.2 4.88) (end 0.5 4.88) (layer F.Fab) (width 0.1))
  (fp_line (start -0.2 4.88) (end -0.2 5.28) (layer F.Fab) (width 0.1))
  (fp_line (start -0.2 5.28) (end 0.5 5.28) (layer F.Fab) (width 0.1))
  (fp_line (start 1.5 4.88) (end 5.5 4.88) (layer F.Fab) (width 0.1))
  (fp_line (start 5.5 4.88) (end 5.5 5.28) (layer F.Fab) (width 0.1))
  (fp_line (start 1.5 5.28) (end 5.5 5.28) (layer F.Fab) (width 0.1))
  (fp_line (start -0.2 6.15) (end 0.5 6.15) (layer F.Fab) (width 0.1))
  (fp_line (start -0.2 6.15) (end -0.2 6.55) (layer F.Fab) (width 0.1))
  (fp_line (start -0.2 6.55) (end 0.5 6.55) (layer F.Fab) (width 0.1))
  (fp_line (start 1.5 6.15) (end 5.5 6.15) (layer F.Fab) (width 0.1))
  (fp_line (start 5.5 6.15) (end 5.5 6.55) (layer F.Fab) (width 0.1))
  (fp_line (start 1.5 6.55) (end 5.5 6.55) (layer F.Fab) (width 0.1))
  (fp_line (start -0.2 7.42) (end 0.5 7.42) (layer F.Fab) (width 0.1))
  (fp_line (start -0.2 7.42) (end -0.2 7.82) (layer F.Fab) (width 0.1))
  (fp_line (start -0.2 7.82) (end 0.5 7.82) (layer F.Fab) (width 0.1))
  (fp_line (start 1.5 7.42) (end 5.5 7.42) (layer F.Fab) (width 0.1))
  (fp_line (start 5.5 7.42) (end 5.5 7.82) (layer F.Fab) (width 0.1))
  (fp_line (start 1.5 7.82) (end 5.5 7.82) (layer F.Fab) (width 0.1))
  (fp_line (start -0.2 8.69) (end 0.5 8.69) (layer F.Fab) (width 0.1))
  (fp_line (start -0.2 8.69) (end -0.2 9.09) (layer F.Fab) (width 0.1))
  (fp_line (start -0.2 9.09) (end 0.5 9.09) (layer F.Fab) (width 0.1))
  (fp_line (start 1.5 8.69) (end 5.5 8.69) (layer F.Fab) (width 0.1))
  (fp_line (start 5.5 8.69) (end 5.5 9.09) (layer F.Fab) (width 0.1))
  (fp_line (start 1.5 9.09) (end 5.5 9.09) (layer F.Fab) (width 0.1))
  (fp_line (start -0.2 9.96) (end 0.5 9.96) (layer F.Fab) (width 0.1))
  (fp_line (start -0.2 9.96) (end -0.2 10.36) (layer F.Fab) (width 0.1))
  (fp_line (start -0.2 10.36) (end 0.5 10.36) (layer F.Fab) (width 0.1))
  (fp_line (start 1.5 9.96) (end 5.5 9.96) (layer F.Fab) (width 0.1))
  (fp_line (start 5.5 9.96) (end 5.5 10.36) (layer F.Fab) (width 0.1))
  (fp_line (start 1.5 10.36) (end 5.5 10.36) (layer F.Fab) (width 0.1))
  (fp_line (start -0.2 11.23) (end 0.5 11.23) (layer F.Fab) (width 0.1))
  (fp_line (start -0.2 11.23) (end -0.2 11.63) (layer F.Fab) (width 0.1))
  (fp_line (start -0.2 11.63) (end 0.5 11.63) (layer F.Fab) (width 0.1))
  (fp_line (start 1.5 11.23) (end 5.5 11.23) (layer F.Fab) (width 0.1))
  (fp_line (start 5.5 11.23) (end 5.5 11.63) (layer F.Fab) (width 0.1))
  (fp_line (start 1.5 11.63) (end 5.5 11.63) (layer F.Fab) (width 0.1))
  (fp_line (start -0.2 12.5) (end 0.5 12.5) (layer F.Fab) (width 0.1))
  (fp_line (start -0.2 12.5) (end -0.2 12.9) (layer F.Fab) (width 0.1))
  (fp_line (start -0.2 12.9) (end 0.5 12.9) (layer F.Fab) (width 0.1))
  (fp_line (start 1.5 12.5) (end 5.5 12.5) (layer F.Fab) (width 0.1))
  (fp_line (start 5.5 12.5) (end 5.5 12.9) (layer F.Fab) (width 0.1))
  (fp_line (start 1.5 12.9) (end 5.5 12.9) (layer F.Fab) (width 0.1))
  (fp_line (start -0.2 13.77) (end 0.5 13.77) (layer F.Fab) (width 0.1))
  (fp_line (start -0.2 13.77) (end -0.2 14.17) (layer F.Fab) (width 0.1))
  (fp_line (start -0.2 14.17) (end 0.5 14.17) (layer F.Fab) (width 0.1))
  (fp_line (start 1.5 13.77) (end 5.5 13.77) (layer F.Fab) (width 0.1))
  (fp_line (start 5.5 13.77) (end 5.5 14.17) (layer F.Fab) (width 0.1))
  (fp_line (start 1.5 14.17) (end 5.5 14.17) (layer F.Fab) (width 0.1))
  (fp_line (start -0.2 15.04) (end 0.5 15.04) (layer F.Fab) (width 0.1))
  (fp_line (start -0.2 15.04) (end -0.2 15.44) (layer F.Fab) (width 0.1))
  (fp_line (start -0.2 15.44) (end 0.5 15.44) (layer F.Fab) (width 0.1))
  (fp_line (start 1.5 15.04) (end 5.5 15.04) (layer F.Fab) (width 0.1))
  (fp_line (start 5.5 15.04) (end 5.5 15.44) (layer F.Fab) (width 0.1))
  (fp_line (start 1.5 15.44) (end 5.5 15.44) (layer F.Fab) (width 0.1))
  (fp_line (start 0.76 -0.695) (end 1.56 -0.695) (layer F.SilkS) (width 0.12))
  (fp_line (start 1.56 -0.695) (end 1.56 15.935) (layer F.SilkS) (width 0.12))
  (fp_line (start 1.56 15.935) (end 0.44 15.935) (layer F.SilkS) (width 0.12))
  (fp_line (start 0.44 15.935) (end 0.44 15.859677) (layer F.SilkS) (width 0.12))
  (fp_line (start 1.56 -0.26) (end 5.56 -0.26) (layer F.SilkS) (width 0.12))
  (fp_line (start 5.56 -0.26) (end 5.56 0.26) (layer F.SilkS) (width 0.12))
  (fp_line (start 5.56 0.26) (end 1.56 0.26) (layer F.SilkS) (width 0.12))
  (fp_line (start 1.56 -0.2) (end 5.56 -0.2) (layer F.SilkS) (width 0.12))
  (fp_line (start 1.56 -0.08) (end 5.56 -0.08) (layer F.SilkS) (width 0.12))
  (fp_line (start 1.56 0.04) (end 5.56 0.04) (layer F.SilkS) (width 0.12))
  (fp_line (start 1.56 0.16) (end 5.56 0.16) (layer F.SilkS) (width 0.12))
  (fp_line (start 0.76 0.635) (end 1.56 0.635) (layer F.SilkS) (width 0.12))
  (fp_line (start 1.56 1.01) (end 5.56 1.01) (layer F.SilkS) (width 0.12))
  (fp_line (start 5.56 1.01) (end 5.56 1.53) (layer F.SilkS) (width 0.12))
  (fp_line (start 5.56 1.53) (end 1.56 1.53) (layer F.SilkS) (width 0.12))
  (fp_line (start 0.44 1.905) (end 1.56 1.905) (layer F.SilkS) (width 0.12))
  (fp_line (start 0.44 1.889677) (end 0.44 1.920323) (layer F.SilkS) (width 0.12))
  (fp_line (start 1.56 2.28) (end 5.56 2.28) (layer F.SilkS) (width 0.12))
  (fp_line (start 5.56 2.28) (end 5.56 2.8) (layer F.SilkS) (width 0.12))
  (fp_line (start 5.56 2.8) (end 1.56 2.8) (layer F.SilkS) (width 0.12))
  (fp_line (start 0.44 3.175) (end 1.56 3.175) (layer F.SilkS) (width 0.12))
  (fp_line (start 0.44 3.159677) (end 0.44 3.190323) (layer F.SilkS) (width 0.12))
  (fp_line (start 1.56 3.55) (end 5.56 3.55) (layer F.SilkS) (width 0.12))
  (fp_line (start 5.56 3.55) (end 5.56 4.07) (layer F.SilkS) (width 0.12))
  (fp_line (start 5.56 4.07) (end 1.56 4.07) (layer F.SilkS) (width 0.12))
  (fp_line (start 0.44 4.445) (end 1.56 4.445) (layer F.SilkS) (width 0.12))
  (fp_line (start 0.44 4.429677) (end 0.44 4.460323) (layer F.SilkS) (width 0.12))
  (fp_line (start 1.56 4.82) (end 5.56 4.82) (layer F.SilkS) (width 0.12))
  (fp_line (start 5.56 4.82) (end 5.56 5.34) (layer F.SilkS) (width 0.12))
  (fp_line (start 5.56 5.34) (end 1.56 5.34) (layer F.SilkS) (width 0.12))
  (fp_line (start 0.44 5.715) (end 1.56 5.715) (layer F.SilkS) (width 0.12))
  (fp_line (start 0.44 5.699677) (end 0.44 5.730323) (layer F.SilkS) (width 0.12))
  (fp_line (start 1.56 6.09) (end 5.56 6.09) (layer F.SilkS) (width 0.12))
  (fp_line (start 5.56 6.09) (end 5.56 6.61) (layer F.SilkS) (width 0.12))
  (fp_line (start 5.56 6.61) (end 1.56 6.61) (layer F.SilkS) (width 0.12))
  (fp_line (start 0.44 6.985) (end 1.56 6.985) (layer F.SilkS) (width 0.12))
  (fp_line (start 0.44 6.969677) (end 0.44 7.000323) (layer F.SilkS) (width 0.12))
  (fp_line (start 1.56 7.36) (end 5.56 7.36) (layer F.SilkS) (width 0.12))
  (fp_line (start 5.56 7.36) (end 5.56 7.88) (layer F.SilkS) (width 0.12))
  (fp_line (start 5.56 7.88) (end 1.56 7.88) (layer F.SilkS) (width 0.12))
  (fp_line (start 0.44 8.255) (end 1.56 8.255) (layer F.SilkS) (width 0.12))
  (fp_line (start 0.44 8.239677) (end 0.44 8.270323) (layer F.SilkS) (width 0.12))
  (fp_line (start 1.56 8.63) (end 5.56 8.63) (layer F.SilkS) (width 0.12))
  (fp_line (start 5.56 8.63) (end 5.56 9.15) (layer F.SilkS) (width 0.12))
  (fp_line (start 5.56 9.15) (end 1.56 9.15) (layer F.SilkS) (width 0.12))
  (fp_line (start 0.44 9.525) (end 1.56 9.525) (layer F.SilkS) (width 0.12))
  (fp_line (start 0.44 9.509677) (end 0.44 9.540323) (layer F.SilkS) (width 0.12))
  (fp_line (start 1.56 9.9) (end 5.56 9.9) (layer F.SilkS) (width 0.12))
  (fp_line (start 5.56 9.9) (end 5.56 10.42) (layer F.SilkS) (width 0.12))
  (fp_line (start 5.56 10.42) (end 1.56 10.42) (layer F.SilkS) (width 0.12))
  (fp_line (start 0.44 10.795) (end 1.56 10.795) (layer F.SilkS) (width 0.12))
  (fp_line (start 0.44 10.779677) (end 0.44 10.810323) (layer F.SilkS) (width 0.12))
  (fp_line (start 1.56 11.17) (end 5.56 11.17) (layer F.SilkS) (width 0.12))
  (fp_line (start 5.56 11.17) (end 5.56 11.69) (layer F.SilkS) (width 0.12))
  (fp_line (start 5.56 11.69) (end 1.56 11.69) (layer F.SilkS) (width 0.12))
  (fp_line (start 0.44 12.065) (end 1.56 12.065) (layer F.SilkS) (width 0.12))
  (fp_line (start 0.44 12.049677) (end 0.44 12.080323) (layer F.SilkS) (width 0.12))
  (fp_line (start 1.56 12.44) (end 5.56 12.44) (layer F.SilkS) (width 0.12))
  (fp_line (start 5.56 12.44) (end 5.56 12.96) (layer F.SilkS) (width 0.12))
  (fp_line (start 5.56 12.96) (end 1.56 12.96) (layer F.SilkS) (width 0.12))
  (fp_line (start 0.44 13.335) (end 1.56 13.335) (layer F.SilkS) (width 0.12))
  (fp_line (start 0.44 13.319677) (end 0.44 13.350323) (layer F.SilkS) (width 0.12))
  (fp_line (start 1.56 13.71) (end 5.56 13.71) (layer F.SilkS) (width 0.12))
  (fp_line (start 5.56 13.71) (end 5.56 14.23) (layer F.SilkS) (width 0.12))
  (fp_line (start 5.56 14.23) (end 1.56 14.23) (layer F.SilkS) (width 0.12))
  (fp_line (start 0.44 14.605) (end 1.56 14.605) (layer F.SilkS) (width 0.12))
  (fp_line (start 0.44 14.589677) (end 0.44 14.620323) (layer F.SilkS) (width 0.12))
  (fp_line (start 1.56 14.98) (end 5.56 14.98) (layer F.SilkS) (width 0.12))
  (fp_line (start 5.56 14.98) (end 5.56 15.5) (layer F.SilkS) (width 0.12))
  (fp_line (start 5.56 15.5) (end 1.56 15.5) (layer F.SilkS) (width 0.12))
  (fp_line (start -0.76 0) (end -0.76 -0.76) (layer F.SilkS) (width 0.12))
  (fp_line (start -0.76 -0.76) (end 0 -0.76) (layer F.SilkS) (width 0.12))
  (fp_line (start -1.15 -1.15) (end -1.15 16.4) (layer F.CrtYd) (width 0.05))
  (fp_line (start -1.15 16.4) (end 6 16.4) (layer F.CrtYd) (width 0.05))
  (fp_line (start 6 16.4) (end 6 -1.15) (layer F.CrtYd) (width 0.05))
  (fp_line (start 6 -1.15) (end -1.15 -1.15) (layer F.CrtYd) (width 0.05))
  (pad 1 thru_hole rect (at 0 0) (size 1 1) (drill 0.65) (layers *.Cu *.Mask))
  (pad 2 thru_hole oval (at 0 1.27) (size 1 1) (drill 0.65) (layers *.Cu *.Mask))
  (pad 3 thru_hole oval (at 0 2.54) (size 1 1) (drill 0.65) (layers *.Cu *.Mask))
  (pad 4 thru_hole oval (at 0 3.81) (size 1 1) (drill 0.65) (layers *.Cu *.Mask))
  (pad 5 thru_hole oval (at 0 5.08) (size 1 1) (drill 0.65) (layers *.Cu *.Mask))
  (pad 6 thru_hole oval (at 0 6.35) (size 1 1) (drill 0.65) (layers *.Cu *.Mask))
  (pad 7 thru_hole oval (at 0 7.62) (size 1 1) (drill 0.65) (layers *.Cu *.Mask))
  (pad 8 thru_hole oval (at 0 8.89) (size 1 1) (drill 0.65) (layers *.Cu *.Mask))
  (pad 9 thru_hole oval (at 0 10.16) (size 1 1) (drill 0.65) (layers *.Cu *.Mask))
  (pad 10 thru_hole oval (at 0 11.43) (size 1 1) (drill 0.65) (layers *.Cu *.Mask))
  (pad 11 thru_hole oval (at 0 12.7) (size 1 1) (drill 0.65) (layers *.Cu *.Mask))
  (pad 12 thru_hole oval (at 0 13.97) (size 1 1) (drill 0.65) (layers *.Cu *.Mask))
  (pad 13 thru_hole oval (at 0 15.24) (size 1 1) (drill 0.65) (layers *.Cu *.Mask))
  (fp_text user %R (at 1 7.62 90) (layer F.Fab)
    (effects (font (size 0.6 0.6) (thickness 0.09)))
  )
  (model ${KICAD6_3DMODEL_DIR}/Connector_PinHeader_1.27mm.3dshapes/PinHeader_1x13_P1.27mm_Horizontal.wrl
    (at (xyz 0 0 0))
    (scale (xyz 1 1 1))
    (rotate (xyz 0 0 0))
  )
)