(module PinHeader_1x02_P1.27mm_Vertical_SMD_Pin1Right (layer F.Cu) (tedit 59FED6E3)
  (descr "surface-mounted straight pin header, 1x02, 1.27mm pitch, single row, style 2 (pin 1 right)")
  (tags "Surface mounted pin header SMD 1x02 1.27mm single row style2 pin1 right")
  (attr smd)
  (fp_text reference REF** (at 0 -2.33) (layer F.SilkS)
    (effects (font (size 1 1) (thickness 0.15)))
  )
  (fp_text value PinHeader_1x02_P1.27mm_Vertical_SMD_Pin1Right (at 0 2.33) (layer F.Fab)
    (effects (font (size 1 1) (thickness 0.15)))
  )
  (fp_line (start 1.05 1.27) (end -1.05 1.27) (layer F.Fab) (width 0.1))
  (fp_line (start -1.05 -1.27) (end 0.615 -1.27) (layer F.Fab) (width 0.1))
  (fp_line (start 1.05 1.27) (end 1.05 -0.835) (layer F.Fab) (width 0.1))
  (fp_line (start 1.05 -0.835) (end 0.615 -1.27) (layer F.Fab) (width 0.1))
  (fp_line (start -1.05 -1.27) (end -1.05 1.27) (layer F.Fab) (width 0.1))
  (fp_line (start -1.05 0.435) (end -2.5 0.435) (layer F.Fab) (width 0.1))
  (fp_line (start -2.5 0.435) (end -2.5 0.835) (layer F.Fab) (width 0.1))
  (fp_line (start -2.5 0.835) (end -1.05 0.835) (layer F.Fab) (width 0.1))
  (fp_line (start 1.05 -0.835) (end 2.5 -0.835) (layer F.Fab) (width 0.1))
  (fp_line (start 2.5 -0.835) (end 2.5 -0.435) (layer F.Fab) (width 0.1))
  (fp_line (start 2.5 -0.435) (end 1.05 -0.435) (layer F.Fab) (width 0.1))
  (fp_line (start -1.11 -1.33) (end 1.11 -1.33) (layer F.SilkS) (width 0.12))
  (fp_line (start -1.11 1.33) (end 1.11 1.33) (layer F.SilkS) (width 0.12))
  (fp_line (start 1.11 -0.05) (end 1.11 1.32) (layer F.SilkS) (width 0.12))
  (fp_line (start -1.11 -1.32) (end -1.11 0.05) (layer F.SilkS) (width 0.12))
  (fp_line (start 1.11 -1.22) (end 2.94 -1.22) (layer F.SilkS) (width 0.12))
  (fp_line (start 1.11 -1.33) (end 1.11 -1.22) (layer F.SilkS) (width 0.12))
  (fp_line (start -1.11 1.22) (end -1.11 1.33) (layer F.SilkS) (width 0.12))
  (fp_line (start -3.5 -1.8) (end -3.5 1.8) (layer F.CrtYd) (width 0.05))
  (fp_line (start -3.5 1.8) (end 3.5 1.8) (layer F.CrtYd) (width 0.05))
  (fp_line (start 3.5 1.8) (end 3.5 -1.8) (layer F.CrtYd) (width 0.05))
  (fp_line (start 3.5 -1.8) (end -3.5 -1.8) (layer F.CrtYd) (width 0.05))
  (pad 2 smd rect (at -1.5 0.635) (size 3 0.65) (layers F.Cu F.Mask F.Paste))
  (pad 1 smd rect (at 1.5 -0.635) (size 3 0.65) (layers F.Cu F.Mask F.Paste))
  (fp_text user %R (at 0 0 90) (layer F.Fab)
    (effects (font (size 1 1) (thickness 0.15)))
  )
  (model ${KICAD6_3DMODEL_DIR}/Connector_PinHeader_1.27mm.3dshapes/PinHeader_1x02_P1.27mm_Vertical_SMD_Pin1Right.wrl
    (at (xyz 0 0 0))
    (scale (xyz 1 1 1))
    (rotate (xyz 0 0 0))
  )
)