(module PinHeader_1x18_P1.27mm_Vertical_SMD_Pin1Right (layer F.Cu) (tedit 59FED6E3)
  (descr "surface-mounted straight pin header, 1x18, 1.27mm pitch, single row, style 2 (pin 1 right)")
  (tags "Surface mounted pin header SMD 1x18 1.27mm single row style2 pin1 right")
  (attr smd)
  (fp_text reference REF** (at 0 -12.49) (layer F.SilkS)
    (effects (font (size 1 1) (thickness 0.15)))
  )
  (fp_text value PinHeader_1x18_P1.27mm_Vertical_SMD_Pin1Right (at 0 12.49) (layer F.Fab)
    (effects (font (size 1 1) (thickness 0.15)))
  )
  (fp_line (start 1.05 11.43) (end -1.05 11.43) (layer F.Fab) (width 0.1))
  (fp_line (start -1.05 -11.43) (end 0.615 -11.43) (layer F.Fab) (width 0.1))
  (fp_line (start 1.05 11.43) (end 1.05 -10.995) (layer F.Fab) (width 0.1))
  (fp_line (start 1.05 -10.995) (end 0.615 -11.43) (layer F.Fab) (width 0.1))
  (fp_line (start -1.05 -11.43) (end -1.05 11.43) (layer F.Fab) (width 0.1))
  (fp_line (start -1.05 -9.725) (end -2.5 -9.725) (layer F.Fab) (width 0.1))
  (fp_line (start -2.5 -9.725) (end -2.5 -9.325) (layer F.Fab) (width 0.1))
  (fp_line (start -2.5 -9.325) (end -1.05 -9.325) (layer F.Fab) (width 0.1))
  (fp_line (start -1.05 -7.185) (end -2.5 -7.185) (layer F.Fab) (width 0.1))
  (fp_line (start -2.5 -7.185) (end -2.5 -6.785) (layer F.Fab) (width 0.1))
  (fp_line (start -2.5 -6.785) (end -1.05 -6.785) (layer F.Fab) (width 0.1))
  (fp_line (start -1.05 -4.645) (end -2.5 -4.645) (layer F.Fab) (width 0.1))
  (fp_line (start -2.5 -4.645) (end -2.5 -4.245) (layer F.Fab) (width 0.1))
  (fp_line (start -2.5 -4.245) (end -1.05 -4.245) (layer F.Fab) (width 0.1))
  (fp_line (start -1.05 -2.105) (end -2.5 -2.105) (layer F.Fab) (width 0.1))
  (fp_line (start -2.5 -2.105) (end -2.5 -1.705) (layer F.Fab) (width 0.1))
  (fp_line (start -2.5 -1.705) (end -1.05 -1.705) (layer F.Fab) (width 0.1))
  (fp_line (start -1.05 0.435) (end -2.5 0.435) (layer F.Fab) (width 0.1))
  (fp_line (start -2.5 0.435) (end -2.5 0.835) (layer F.Fab) (width 0.1))
  (fp_line (start -2.5 0.835) (end -1.05 0.835) (layer F.Fab) (width 0.1))
  (fp_line (start -1.05 2.975) (end -2.5 2.975) (layer F.Fab) (width 0.1))
  (fp_line (start -2.5 2.975) (end -2.5 3.375) (layer F.Fab) (width 0.1))
  (fp_line (start -2.5 3.375) (end -1.05 3.375) (layer F.Fab) (width 0.1))
  (fp_line (start -1.05 5.515) (end -2.5 5.515) (layer F.Fab) (width 0.1))
  (fp_line (start -2.5 5.515) (end -2.5 5.915) (layer F.Fab) (width 0.1))
  (fp_line (start -2.5 5.915) (end -1.05 5.915) (layer F.Fab) (width 0.1))
  (fp_line (start -1.05 8.055) (end -2.5 8.055) (layer F.Fab) (width 0.1))
  (fp_line (start -2.5 8.055) (end -2.5 8.455) (layer F.Fab) (width 0.1))
  (fp_line (start -2.5 8.455) (end -1.05 8.455) (layer F.Fab) (width 0.1))
  (fp_line (start -1.05 10.595) (end -2.5 10.595) (layer F.Fab) (width 0.1))
  (fp_line (start -2.5 10.595) (end -2.5 10.995) (layer F.Fab) (width 0.1))
  (fp_line (start -2.5 10.995) (end -1.05 10.995) (layer F.Fab) (width 0.1))
  (fp_line (start 1.05 -10.995) (end 2.5 -10.995) (layer F.Fab) (width 0.1))
  (fp_line (start 2.5 -10.995) (end 2.5 -10.595) (layer F.Fab) (width 0.1))
  (fp_line (start 2.5 -10.595) (end 1.05 -10.595) (layer F.Fab) (width 0.1))
  (fp_line (start 1.05 -8.455) (end 2.5 -8.455) (layer F.Fab) (width 0.1))
  (fp_line (start 2.5 -8.455) (end 2.5 -8.055) (layer F.Fab) (width 0.1))
  (fp_line (start 2.5 -8.055) (end 1.05 -8.055) (layer F.Fab) (width 0.1))
  (fp_line (start 1.05 -5.915) (end 2.5 -5.915) (layer F.Fab) (width 0.1))
  (fp_line (start 2.5 -5.915) (end 2.5 -5.515) (layer F.Fab) (width 0.1))
  (fp_line (start 2.5 -5.515) (end 1.05 -5.515) (layer F.Fab) (width 0.1))
  (fp_line (start 1.05 -3.375) (end 2.5 -3.375) (layer F.Fab) (width 0.1))
  (fp_line (start 2.5 -3.375) (end 2.5 -2.975) (layer F.Fab) (width 0.1))
  (fp_line (start 2.5 -2.975) (end 1.05 -2.975) (layer F.Fab) (width 0.1))
  (fp_line (start 1.05 -0.835) (end 2.5 -0.835) (layer F.Fab) (width 0.1))
  (fp_line (start 2.5 -0.835) (end 2.5 -0.435) (layer F.Fab) (width 0.1))
  (fp_line (start 2.5 -0.435) (end 1.05 -0.435) (layer F.Fab) (width 0.1))
  (fp_line (start 1.05 1.705) (end 2.5 1.705) (layer F.Fab) (width 0.1))
  (fp_line (start 2.5 1.705) (end 2.5 2.105) (layer F.Fab) (width 0.1))
  (fp_line (start 2.5 2.105) (end 1.05 2.105) (layer F.Fab) (width 0.1))
  (fp_line (start 1.05 4.245) (end 2.5 4.245) (layer F.Fab) (width 0.1))
  (fp_line (start 2.5 4.245) (end 2.5 4.645) (layer F.Fab) (width 0.1))
  (fp_line (start 2.5 4.645) (end 1.05 4.645) (layer F.Fab) (width 0.1))
  (fp_line (start 1.05 6.785) (end 2.5 6.785) (layer F.Fab) (width 0.1))
  (fp_line (start 2.5 6.785) (end 2.5 7.185) (layer F.Fab) (width 0.1))
  (fp_line (start 2.5 7.185) (end 1.05 7.185) (layer F.Fab) (width 0.1))
  (fp_line (start 1.05 9.325) (end 2.5 9.325) (layer F.Fab) (width 0.1))
  (fp_line (start 2.5 9.325) (end 2.5 9.725) (layer F.Fab) (width 0.1))
  (fp_line (start 2.5 9.725) (end 1.05 9.725) (layer F.Fab) (width 0.1))
  (fp_line (start -1.11 -11.49) (end 1.11 -11.49) (layer F.SilkS) (width 0.12))
  (fp_line (start -1.11 11.49) (end 1.11 11.49) (layer F.SilkS) (width 0.12))
  (fp_line (start 1.11 -10.21) (end 1.11 -8.84) (layer F.SilkS) (width 0.12))
  (fp_line (start 1.11 -7.67) (end 1.11 -6.3) (layer F.SilkS) (width 0.12))
  (fp_line (start 1.11 -5.13) (end 1.11 -3.76) (layer F.SilkS) (width 0.12))
  (fp_line (start 1.11 -2.59) (end 1.11 -1.22) (layer F.SilkS) (width 0.12))
  (fp_line (start 1.11 -0.05) (end 1.11 1.32) (layer F.SilkS) (width 0.12))
  (fp_line (start 1.11 2.49) (end 1.11 3.86) (layer F.SilkS) (width 0.12))
  (fp_line (start 1.11 5.03) (end 1.11 6.4) (layer F.SilkS) (width 0.12))
  (fp_line (start 1.11 7.57) (end 1.11 8.94) (layer F.SilkS) (width 0.12))
  (fp_line (start 1.11 10.11) (end 1.11 11.48) (layer F.SilkS) (width 0.12))
  (fp_line (start -1.11 -11.48) (end -1.11 -10.11) (layer F.SilkS) (width 0.12))
  (fp_line (start 1.11 -11.38) (end 2.94 -11.38) (layer F.SilkS) (width 0.12))
  (fp_line (start 1.11 -11.49) (end 1.11 -11.38) (layer F.SilkS) (width 0.12))
  (fp_line (start -1.11 11.38) (end -1.11 11.49) (layer F.SilkS) (width 0.12))
  (fp_line (start -1.11 -8.94) (end -1.11 -7.57) (layer F.SilkS) (width 0.12))
  (fp_line (start -1.11 -6.4) (end -1.11 -5.03) (layer F.SilkS) (width 0.12))
  (fp_line (start -1.11 -3.86) (end -1.11 -2.49) (layer F.SilkS) (width 0.12))
  (fp_line (start -1.11 -1.32) (end -1.11 0.05) (layer F.SilkS) (width 0.12))
  (fp_line (start -1.11 1.22) (end -1.11 2.59) (layer F.SilkS) (width 0.12))
  (fp_line (start -1.11 3.76) (end -1.11 5.13) (layer F.SilkS) (width 0.12))
  (fp_line (start -1.11 6.3) (end -1.11 7.67) (layer F.SilkS) (width 0.12))
  (fp_line (start -1.11 8.84) (end -1.11 10.21) (layer F.SilkS) (width 0.12))
  (fp_line (start -3.5 -11.95) (end -3.5 11.95) (layer F.CrtYd) (width 0.05))
  (fp_line (start -3.5 11.95) (end 3.5 11.95) (layer F.CrtYd) (width 0.05))
  (fp_line (start 3.5 11.95) (end 3.5 -11.95) (layer F.CrtYd) (width 0.05))
  (fp_line (start 3.5 -11.95) (end -3.5 -11.95) (layer F.CrtYd) (width 0.05))
  (pad 2 smd rect (at -1.5 -9.525) (size 3 0.65) (layers F.Cu F.Mask F.Paste))
  (pad 4 smd rect (at -1.5 -6.985) (size 3 0.65) (layers F.Cu F.Mask F.Paste))
  (pad 6 smd rect (at -1.5 -4.445) (size 3 0.65) (layers F.Cu F.Mask F.Paste))
  (pad 8 smd rect (at -1.5 -1.905) (size 3 0.65) (layers F.Cu F.Mask F.Paste))
  (pad 10 smd rect (at -1.5 0.635) (size 3 0.65) (layers F.Cu F.Mask F.Paste))
  (pad 12 smd rect (at -1.5 3.175) (size 3 0.65) (layers F.Cu F.Mask F.Paste))
  (pad 14 smd rect (at -1.5 5.715) (size 3 0.65) (layers F.Cu F.Mask F.Paste))
  (pad 16 smd rect (at -1.5 8.255) (size 3 0.65) (layers F.Cu F.Mask F.Paste))
  (pad 18 smd rect (at -1.5 10.795) (size 3 0.65) (layers F.Cu F.Mask F.Paste))
  (pad 1 smd rect (at 1.5 -10.795) (size 3 0.65) (layers F.Cu F.Mask F.Paste))
  (pad 3 smd rect (at 1.5 -8.255) (size 3 0.65) (layers F.Cu F.Mask F.Paste))
  (pad 5 smd rect (at 1.5 -5.715) (size 3 0.65) (layers F.Cu F.Mask F.Paste))
  (pad 7 smd rect (at 1.5 -3.175) (size 3 0.65) (layers F.Cu F.Mask F.Paste))
  (pad 9 smd rect (at 1.5 -0.635) (size 3 0.65) (layers F.Cu F.Mask F.Paste))
  (pad 11 smd rect (at 1.5 1.905) (size 3 0.65) (layers F.Cu F.Mask F.Paste))
  (pad 13 smd rect (at 1.5 4.445) (size 3 0.65) (layers F.Cu F.Mask F.Paste))
  (pad 15 smd rect (at 1.5 6.985) (size 3 0.65) (layers F.Cu F.Mask F.Paste))
  (pad 17 smd rect (at 1.5 9.525) (size 3 0.65) (layers F.Cu F.Mask F.Paste))
  (fp_text user %R (at 0 0 90) (layer F.Fab)
    (effects (font (size 1 1) (thickness 0.15)))
  )
  (model ${KICAD6_3DMODEL_DIR}/Connector_PinHeader_1.27mm.3dshapes/PinHeader_1x18_P1.27mm_Vertical_SMD_Pin1Right.wrl
    (at (xyz 0 0 0))
    (scale (xyz 1 1 1))
    (rotate (xyz 0 0 0))
  )
)