(module Wuerth_WR-WTB_64800211622_1x02_P1.50mm_Vertical (layer F.Cu) (tedit 5D1DE247)
  (descr "Wuerth WR-WTB series connector, 64800211622 (https://katalog.we-online.com/em/datasheet/6480xx11622.pdf), generated with kicad-footprint-generator")
  (tags "connector Wuerth WR-WTB vertical")
  (fp_text reference REF** (at 0.75 -2.5) (layer F.SilkS)
    (effects (font (size 1 1) (thickness 0.15)))
  )
  (fp_text value Wuerth_WR-WTB_64800211622_1x02_P1.50mm_Vertical (at 0.75 3.4) (layer F.Fab)
    (effects (font (size 1 1) (thickness 0.15)))
  )
  (fp_line (start -1.5 -1.3) (end -1.5 2.2) (layer F.Fab) (width 0.1))
  (fp_line (start -1.5 2.2) (end 3 2.2) (layer F.Fab) (width 0.1))
  (fp_line (start 3 2.2) (end 3 -1.3) (layer F.Fab) (width 0.1))
  (fp_line (start 3 -1.3) (end -1.5 -1.3) (layer F.Fab) (width 0.1))
  (fp_line (start -1 -1.3) (end 0 -0.3) (layer F.Fab) (width 0.1))
  (fp_line (start 0 -0.3) (end 1 -1.3) (layer F.Fab) (width 0.1))
  (fp_line (start -1.61 -1.41) (end -1.61 2.31) (layer F.SilkS) (width 0.12))
  (fp_line (start -1.61 2.31) (end 3.11 2.31) (layer F.SilkS) (width 0.12))
  (fp_line (start 3.11 2.31) (end 3.11 -1.41) (layer F.SilkS) (width 0.12))
  (fp_line (start 3.11 -1.41) (end -1.61 -1.41) (layer F.SilkS) (width 0.12))
  (fp_line (start -1.61 -0.35) (end -1.41 -0.35) (layer F.SilkS) (width 0.12))
  (fp_line (start -1.41 -0.35) (end -1.41 -1.21) (layer F.SilkS) (width 0.12))
  (fp_line (start -1.41 -1.21) (end 2.91 -1.21) (layer F.SilkS) (width 0.12))
  (fp_line (start 2.91 -1.21) (end 2.91 -0.35) (layer F.SilkS) (width 0.12))
  (fp_line (start 2.91 -0.35) (end 3.11 -0.35) (layer F.SilkS) (width 0.12))
  (fp_line (start -1.41 -0.35) (end -1.41 0.35) (layer F.SilkS) (width 0.12))
  (fp_line (start -1.41 0.35) (end -1.61 0.35) (layer F.SilkS) (width 0.12))
  (fp_line (start 2.91 -0.35) (end 2.91 0.35) (layer F.SilkS) (width 0.12))
  (fp_line (start 2.91 0.35) (end 3.11 0.35) (layer F.SilkS) (width 0.12))
  (fp_line (start -1.41 0.35) (end -1.41 2.11) (layer F.SilkS) (width 0.12))
  (fp_line (start -1.41 2.11) (end 2.91 2.11) (layer F.SilkS) (width 0.12))
  (fp_line (start 2.91 2.11) (end 2.91 0.35) (layer F.SilkS) (width 0.12))
  (fp_line (start -0.66 -1.71) (end -1.91 -1.71) (layer F.SilkS) (width 0.12))
  (fp_line (start -1.91 -1.71) (end -1.91 -0.46) (layer F.SilkS) (width 0.12))
  (fp_line (start -2 -1.8) (end -2 2.7) (layer F.CrtYd) (width 0.05))
  (fp_line (start -2 2.7) (end 3.5 2.7) (layer F.CrtYd) (width 0.05))
  (fp_line (start 3.5 2.7) (end 3.5 -1.8) (layer F.CrtYd) (width 0.05))
  (fp_line (start 3.5 -1.8) (end -2 -1.8) (layer F.CrtYd) (width 0.05))
  (pad 1 thru_hole roundrect (at 0 0) (size 1.17 1.87) (drill 0.87) (layers *.Cu *.Mask) (roundrect_rratio 0.213675))
  (pad 2 thru_hole oval (at 1.5 0) (size 1.17 1.87) (drill 0.87) (layers *.Cu *.Mask))
  (fp_text user %R (at 0.75 1.5) (layer F.Fab)
    (effects (font (size 1 1) (thickness 0.15)))
  )
  (model ${KICAD6_3DMODEL_DIR}/Connector_Wuerth.3dshapes/Wuerth_WR-WTB_64800211622_1x02_P1.50mm_Vertical.wrl
    (at (xyz 0 0 0))
    (scale (xyz 1 1 1))
    (rotate (xyz 0 0 0))
  )
)