(module D_5W_P12.70mm_Horizontal (layer F.Cu) (tedit 5AE50CD5)
  (descr "Diode, 5W series, Axial, Horizontal, pin pitch=12.7mm, , length*diameter=8.9*3.7mm^2, , http://www.diodes.com/_files/packages/8686949.gif")
  (tags "Diode 5W series Axial Horizontal pin pitch 12.7mm  length 8.9mm diameter 3.7mm")
  (fp_text reference REF** (at 6.35 -2.97) (layer F.SilkS)
    (effects (font (size 1 1) (thickness 0.15)))
  )
  (fp_text value D_5W_P12.70mm_Horizontal (at 6.35 2.97) (layer F.Fab)
    (effects (font (size 1 1) (thickness 0.15)))
  )
  (fp_line (start 1.9 -1.85) (end 1.9 1.85) (layer F.Fab) (width 0.1))
  (fp_line (start 1.9 1.85) (end 10.8 1.85) (layer F.Fab) (width 0.1))
  (fp_line (start 10.8 1.85) (end 10.8 -1.85) (layer F.Fab) (width 0.1))
  (fp_line (start 10.8 -1.85) (end 1.9 -1.85) (layer F.Fab) (width 0.1))
  (fp_line (start 0 0) (end 1.9 0) (layer F.Fab) (width 0.1))
  (fp_line (start 12.7 0) (end 10.8 0) (layer F.Fab) (width 0.1))
  (fp_line (start 3.235 -1.85) (end 3.235 1.85) (layer F.Fab) (width 0.1))
  (fp_line (start 3.335 -1.85) (end 3.335 1.85) (layer F.Fab) (width 0.1))
  (fp_line (start 3.135 -1.85) (end 3.135 1.85) (layer F.Fab) (width 0.1))
  (fp_line (start 1.78 -1.97) (end 1.78 1.97) (layer F.SilkS) (width 0.12))
  (fp_line (start 1.78 1.97) (end 10.92 1.97) (layer F.SilkS) (width 0.12))
  (fp_line (start 10.92 1.97) (end 10.92 -1.97) (layer F.SilkS) (width 0.12))
  (fp_line (start 10.92 -1.97) (end 1.78 -1.97) (layer F.SilkS) (width 0.12))
  (fp_line (start 1.64 0) (end 1.78 0) (layer F.SilkS) (width 0.12))
  (fp_line (start 11.06 0) (end 10.92 0) (layer F.SilkS) (width 0.12))
  (fp_line (start 3.235 -1.97) (end 3.235 1.97) (layer F.SilkS) (width 0.12))
  (fp_line (start 3.355 -1.97) (end 3.355 1.97) (layer F.SilkS) (width 0.12))
  (fp_line (start 3.115 -1.97) (end 3.115 1.97) (layer F.SilkS) (width 0.12))
  (fp_line (start -1.65 -2.1) (end -1.65 2.1) (layer F.CrtYd) (width 0.05))
  (fp_line (start -1.65 2.1) (end 14.35 2.1) (layer F.CrtYd) (width 0.05))
  (fp_line (start 14.35 2.1) (end 14.35 -2.1) (layer F.CrtYd) (width 0.05))
  (fp_line (start 14.35 -2.1) (end -1.65 -2.1) (layer F.CrtYd) (width 0.05))
  (pad 1 thru_hole rect (at 0 0) (size 2.8 2.8) (drill 1.4) (layers *.Cu *.Mask))
  (pad 2 thru_hole oval (at 12.7 0) (size 2.8 2.8) (drill 1.4) (layers *.Cu *.Mask))
  (fp_text user %R (at 7.0175 0) (layer F.Fab)
    (effects (font (size 1 1) (thickness 0.15)))
  )
  (fp_text user K (at 0 -2.4) (layer F.Fab)
    (effects (font (size 1 1) (thickness 0.15)))
  )
  (fp_text user K (at 0 -2.4) (layer F.SilkS)
    (effects (font (size 1 1) (thickness 0.15)))
  )
  (model ${KICAD6_3DMODEL_DIR}/Diode_THT.3dshapes/D_5W_P12.70mm_Horizontal.wrl
    (at (xyz 0 0 0))
    (scale (xyz 1 1 1))
    (rotate (xyz 0 0 0))
  )
)