(module D_A-405_P5.08mm_Vertical_AnodeUp (layer F.Cu) (tedit 5AE50CD5)
  (descr "Diode, A-405 series, Axial, Vertical, pin pitch=5.08mm, , length*diameter=5.2*2.7mm^2, , http://www.diodes.com/_files/packages/A-405.pdf")
  (tags "Diode A-405 series Axial Vertical pin pitch 5.08mm  length 5.2mm diameter 2.7mm")
  (fp_text reference REF** (at 2.54 -2.47) (layer F.SilkS)
    (effects (font (size 1 1) (thickness 0.15)))
  )
  (fp_text value D_A-405_P5.08mm_Vertical_AnodeUp (at 2.54 2.47) (layer F.Fab)
    (effects (font (size 1 1) (thickness 0.15)))
  )
  (fp_circle (center 0 0) (end 1.35 0) (layer F.Fab) (width 0.1))
  (fp_circle (center 0 0) (end 1.47 0) (layer F.SilkS) (width 0.12))
  (fp_line (start 0 0) (end 5.08 0) (layer F.Fab) (width 0.1))
  (fp_line (start 1.47 0) (end 3.88 0) (layer F.SilkS) (width 0.12))
  (fp_line (start -1.6 -1.6) (end -1.6 1.6) (layer F.CrtYd) (width 0.05))
  (fp_line (start -1.6 1.6) (end 6.23 1.6) (layer F.CrtYd) (width 0.05))
  (fp_line (start 6.23 1.6) (end 6.23 -1.6) (layer F.CrtYd) (width 0.05))
  (fp_line (start 6.23 -1.6) (end -1.6 -1.6) (layer F.CrtYd) (width 0.05))
  (pad 1 thru_hole rect (at 0 0) (size 1.8 1.8) (drill 0.9) (layers *.Cu *.Mask))
  (pad 2 thru_hole oval (at 5.08 0) (size 1.8 1.8) (drill 0.9) (layers *.Cu *.Mask))
  (fp_text user %R (at 2.54 -2.47) (layer F.Fab)
    (effects (font (size 1 1) (thickness 0.15)))
  )
  (fp_text user A (at 3.48 0.9) (layer F.Fab)
    (effects (font (size 1 1) (thickness 0.15)))
  )
  (fp_text user A (at 3.48 0.9) (layer F.SilkS)
    (effects (font (size 1 1) (thickness 0.15)))
  )
  (model ${KICAD6_3DMODEL_DIR}/Diode_THT.3dshapes/D_A-405_P5.08mm_Vertical_AnodeUp.wrl
    (at (xyz 0 0 0))
    (scale (xyz 1 1 1))
    (rotate (xyz 0 0 0))
  )
)