(module D_DO-35_SOD27_P10.16mm_Horizontal (layer F.Cu) (tedit 5AE50CD5)
  (descr "Diode, DO-35_SOD27 series, Axial, Horizontal, pin pitch=10.16mm, , length*diameter=4*2mm^2, , http://www.diodes.com/_files/packages/DO-35.pdf")
  (tags "Diode DO-35_SOD27 series Axial Horizontal pin pitch 10.16mm  length 4mm diameter 2mm")
  (fp_text reference REF** (at 5.08 -2.12) (layer F.SilkS)
    (effects (font (size 1 1) (thickness 0.15)))
  )
  (fp_text value D_DO-35_SOD27_P10.16mm_Horizontal (at 5.08 2.12) (layer F.Fab)
    (effects (font (size 1 1) (thickness 0.15)))
  )
  (fp_line (start 3.08 -1) (end 3.08 1) (layer F.Fab) (width 0.1))
  (fp_line (start 3.08 1) (end 7.08 1) (layer F.Fab) (width 0.1))
  (fp_line (start 7.08 1) (end 7.08 -1) (layer F.Fab) (width 0.1))
  (fp_line (start 7.08 -1) (end 3.08 -1) (layer F.Fab) (width 0.1))
  (fp_line (start 0 0) (end 3.08 0) (layer F.Fab) (width 0.1))
  (fp_line (start 10.16 0) (end 7.08 0) (layer F.Fab) (width 0.1))
  (fp_line (start 3.68 -1) (end 3.68 1) (layer F.Fab) (width 0.1))
  (fp_line (start 3.78 -1) (end 3.78 1) (layer F.Fab) (width 0.1))
  (fp_line (start 3.58 -1) (end 3.58 1) (layer F.Fab) (width 0.1))
  (fp_line (start 2.96 -1.12) (end 2.96 1.12) (layer F.SilkS) (width 0.12))
  (fp_line (start 2.96 1.12) (end 7.2 1.12) (layer F.SilkS) (width 0.12))
  (fp_line (start 7.2 1.12) (end 7.2 -1.12) (layer F.SilkS) (width 0.12))
  (fp_line (start 7.2 -1.12) (end 2.96 -1.12) (layer F.SilkS) (width 0.12))
  (fp_line (start 1.04 0) (end 2.96 0) (layer F.SilkS) (width 0.12))
  (fp_line (start 9.12 0) (end 7.2 0) (layer F.SilkS) (width 0.12))
  (fp_line (start 3.68 -1.12) (end 3.68 1.12) (layer F.SilkS) (width 0.12))
  (fp_line (start 3.8 -1.12) (end 3.8 1.12) (layer F.SilkS) (width 0.12))
  (fp_line (start 3.56 -1.12) (end 3.56 1.12) (layer F.SilkS) (width 0.12))
  (fp_line (start -1.05 -1.25) (end -1.05 1.25) (layer F.CrtYd) (width 0.05))
  (fp_line (start -1.05 1.25) (end 11.21 1.25) (layer F.CrtYd) (width 0.05))
  (fp_line (start 11.21 1.25) (end 11.21 -1.25) (layer F.CrtYd) (width 0.05))
  (fp_line (start 11.21 -1.25) (end -1.05 -1.25) (layer F.CrtYd) (width 0.05))
  (pad 1 thru_hole rect (at 0 0) (size 1.6 1.6) (drill 0.8) (layers *.Cu *.Mask))
  (pad 2 thru_hole oval (at 10.16 0) (size 1.6 1.6) (drill 0.8) (layers *.Cu *.Mask))
  (fp_text user %R (at 5.38 0) (layer F.Fab)
    (effects (font (size 0.8 0.8) (thickness 0.12)))
  )
  (fp_text user K (at 0 -1.8) (layer F.Fab)
    (effects (font (size 1 1) (thickness 0.15)))
  )
  (fp_text user K (at 0 -1.8) (layer F.SilkS)
    (effects (font (size 1 1) (thickness 0.15)))
  )
  (model ${KICAD6_3DMODEL_DIR}/Diode_THT.3dshapes/D_DO-35_SOD27_P10.16mm_Horizontal.wrl
    (at (xyz 0 0 0))
    (scale (xyz 1 1 1))
    (rotate (xyz 0 0 0))
  )
)