(module D_DO-201AD_P3.81mm_Vertical_KathodeUp (layer F.Cu) (tedit 5B526DD5)
  (descr "Diode, DO-201AD series, Axial, Vertical, pin pitch=3.81mm, , length*diameter=9.5*5.2mm^2, , http://www.diodes.com/_files/packages/DO-201AD.pdf")
  (tags "Diode DO-201AD series Axial Vertical pin pitch 3.81mm  length 9.5mm diameter 5.2mm")
  (fp_text reference REF** (at 1.905 -3.72) (layer F.SilkS)
    (effects (font (size 1 1) (thickness 0.15)))
  )
  (fp_text value D_DO-201AD_P3.81mm_Vertical_KathodeUp (at 1.905 5.0535) (layer F.Fab)
    (effects (font (size 1 1) (thickness 0.15)))
  )
  (fp_arc (start 3.81 0) (end 1.655284 -1.6) (angle 284.776236) (layer F.SilkS) (width 0.12))
  (fp_circle (center 3.81 0) (end 6.41 0) (layer F.Fab) (width 0.1))
  (fp_line (start 0 0) (end 3.81 0) (layer F.Fab) (width 0.1))
  (fp_line (start -1.85 -2.85) (end -1.85 2.85) (layer F.CrtYd) (width 0.05))
  (fp_line (start -1.85 2.85) (end 6.66 2.85) (layer F.CrtYd) (width 0.05))
  (fp_line (start 6.66 2.85) (end 6.66 -2.85) (layer F.CrtYd) (width 0.05))
  (fp_line (start 6.66 -2.85) (end -1.85 -2.85) (layer F.CrtYd) (width 0.05))
  (pad 1 thru_hole rect (at 0 0) (size 3.2 3.2) (drill 1.6) (layers *.Cu *.Mask))
  (pad 2 thru_hole oval (at 3.81 0) (size 3.2 3.2) (drill 1.6) (layers *.Cu *.Mask))
  (fp_text user %R (at 1.905 -3.72) (layer F.Fab)
    (effects (font (size 1 1) (thickness 0.15)))
  )
  (fp_text user K (at 0 2.6) (layer F.Fab)
    (effects (font (size 1 1) (thickness 0.15)))
  )
  (fp_text user K (at 0 2.6) (layer F.SilkS)
    (effects (font (size 1 1) (thickness 0.15)))
  )
  (model ${KICAD6_3DMODEL_DIR}/Diode_THT.3dshapes/D_DO-201AD_P3.81mm_Vertical_KathodeUp.wrl
    (at (xyz 0 0 0))
    (scale (xyz 1 1 1))
    (rotate (xyz 0 0 0))
  )
)