(module D_DO-15_P12.70mm_Horizontal (layer F.Cu) (tedit 5AE50CD5)
  (descr "Diode, DO-15 series, Axial, Horizontal, pin pitch=12.7mm, , length*diameter=7.6*3.6mm^2, , http://www.diodes.com/_files/packages/DO-15.pdf")
  (tags "Diode DO-15 series Axial Horizontal pin pitch 12.7mm  length 7.6mm diameter 3.6mm")
  (fp_text reference REF** (at 6.35 -2.92) (layer F.SilkS)
    (effects (font (size 1 1) (thickness 0.15)))
  )
  (fp_text value D_DO-15_P12.70mm_Horizontal (at 6.35 2.92) (layer F.Fab)
    (effects (font (size 1 1) (thickness 0.15)))
  )
  (fp_line (start 2.55 -1.8) (end 2.55 1.8) (layer F.Fab) (width 0.1))
  (fp_line (start 2.55 1.8) (end 10.15 1.8) (layer F.Fab) (width 0.1))
  (fp_line (start 10.15 1.8) (end 10.15 -1.8) (layer F.Fab) (width 0.1))
  (fp_line (start 10.15 -1.8) (end 2.55 -1.8) (layer F.Fab) (width 0.1))
  (fp_line (start 0 0) (end 2.55 0) (layer F.Fab) (width 0.1))
  (fp_line (start 12.7 0) (end 10.15 0) (layer F.Fab) (width 0.1))
  (fp_line (start 3.69 -1.8) (end 3.69 1.8) (layer F.Fab) (width 0.1))
  (fp_line (start 3.79 -1.8) (end 3.79 1.8) (layer F.Fab) (width 0.1))
  (fp_line (start 3.59 -1.8) (end 3.59 1.8) (layer F.Fab) (width 0.1))
  (fp_line (start 2.43 -1.92) (end 2.43 1.92) (layer F.SilkS) (width 0.12))
  (fp_line (start 2.43 1.92) (end 10.27 1.92) (layer F.SilkS) (width 0.12))
  (fp_line (start 10.27 1.92) (end 10.27 -1.92) (layer F.SilkS) (width 0.12))
  (fp_line (start 10.27 -1.92) (end 2.43 -1.92) (layer F.SilkS) (width 0.12))
  (fp_line (start 1.44 0) (end 2.43 0) (layer F.SilkS) (width 0.12))
  (fp_line (start 11.26 0) (end 10.27 0) (layer F.SilkS) (width 0.12))
  (fp_line (start 3.69 -1.92) (end 3.69 1.92) (layer F.SilkS) (width 0.12))
  (fp_line (start 3.81 -1.92) (end 3.81 1.92) (layer F.SilkS) (width 0.12))
  (fp_line (start 3.57 -1.92) (end 3.57 1.92) (layer F.SilkS) (width 0.12))
  (fp_line (start -1.45 -2.05) (end -1.45 2.05) (layer F.CrtYd) (width 0.05))
  (fp_line (start -1.45 2.05) (end 14.15 2.05) (layer F.CrtYd) (width 0.05))
  (fp_line (start 14.15 2.05) (end 14.15 -2.05) (layer F.CrtYd) (width 0.05))
  (fp_line (start 14.15 -2.05) (end -1.45 -2.05) (layer F.CrtYd) (width 0.05))
  (pad 1 thru_hole rect (at 0 0) (size 2.4 2.4) (drill 1.2) (layers *.Cu *.Mask))
  (pad 2 thru_hole oval (at 12.7 0) (size 2.4 2.4) (drill 1.2) (layers *.Cu *.Mask))
  (fp_text user %R (at 6.92 0) (layer F.Fab)
    (effects (font (size 1 1) (thickness 0.15)))
  )
  (fp_text user K (at 0 -2.2) (layer F.Fab)
    (effects (font (size 1 1) (thickness 0.15)))
  )
  (fp_text user K (at 0 -2.2) (layer F.SilkS)
    (effects (font (size 1 1) (thickness 0.15)))
  )
  (model ${KICAD6_3DMODEL_DIR}/Diode_THT.3dshapes/D_DO-15_P12.70mm_Horizontal.wrl
    (at (xyz 0 0 0))
    (scale (xyz 1 1 1))
    (rotate (xyz 0 0 0))
  )
)