(module D_DO-15_P5.08mm_Vertical_AnodeUp (layer F.Cu) (tedit 5AE50CD5)
  (descr "Diode, DO-15 series, Axial, Vertical, pin pitch=5.08mm, , length*diameter=7.6*3.6mm^2, , http://www.diodes.com/_files/packages/DO-15.pdf")
  (tags "Diode DO-15 series Axial Vertical pin pitch 5.08mm  length 7.6mm diameter 3.6mm")
  (fp_text reference REF** (at 2.54 -2.92) (layer F.SilkS)
    (effects (font (size 1 1) (thickness 0.15)))
  )
  (fp_text value D_DO-15_P5.08mm_Vertical_AnodeUp (at 2.54 2.92) (layer F.Fab)
    (effects (font (size 1 1) (thickness 0.15)))
  )
  (fp_circle (center 0 0) (end 1.8 0) (layer F.Fab) (width 0.1))
  (fp_circle (center 0 0) (end 1.92 0) (layer F.SilkS) (width 0.12))
  (fp_line (start 0 0) (end 5.08 0) (layer F.Fab) (width 0.1))
  (fp_line (start 1.92 0) (end 3.58 0) (layer F.SilkS) (width 0.12))
  (fp_line (start -2.05 -2.05) (end -2.05 2.05) (layer F.CrtYd) (width 0.05))
  (fp_line (start -2.05 2.05) (end 6.53 2.05) (layer F.CrtYd) (width 0.05))
  (fp_line (start 6.53 2.05) (end 6.53 -2.05) (layer F.CrtYd) (width 0.05))
  (fp_line (start 6.53 -2.05) (end -2.05 -2.05) (layer F.CrtYd) (width 0.05))
  (pad 1 thru_hole rect (at 0 0) (size 2.4 2.4) (drill 1.2) (layers *.Cu *.Mask))
  (pad 2 thru_hole oval (at 5.08 0) (size 2.4 2.4) (drill 1.2) (layers *.Cu *.Mask))
  (fp_text user %R (at 2.54 -2.92) (layer F.Fab)
    (effects (font (size 1 1) (thickness 0.15)))
  )
  (fp_text user A (at 3.18 1.2) (layer F.Fab)
    (effects (font (size 1 1) (thickness 0.15)))
  )
  (fp_text user A (at 3.18 1.2) (layer F.SilkS)
    (effects (font (size 1 1) (thickness 0.15)))
  )
  (model ${KICAD6_3DMODEL_DIR}/Diode_THT.3dshapes/D_DO-15_P5.08mm_Vertical_AnodeUp.wrl
    (at (xyz 0 0 0))
    (scale (xyz 1 1 1))
    (rotate (xyz 0 0 0))
  )
)