(module D_DO-41_SOD81_P2.54mm_Vertical_AnodeUp (layer F.Cu) (tedit 5AE50CD5)
  (descr "Diode, DO-41_SOD81 series, Axial, Vertical, pin pitch=2.54mm, , length*diameter=5.2*2.7mm^2, , http://www.diodes.com/_files/packages/DO-41%20(Plastic).pdf")
  (tags "Diode DO-41_SOD81 series Axial Vertical pin pitch 2.54mm  length 5.2mm diameter 2.7mm")
  (fp_text reference REF** (at 1.27 -2.750635) (layer F.SilkS)
    (effects (font (size 1 1) (thickness 0.15)))
  )
  (fp_text value D_DO-41_SOD81_P2.54mm_Vertical_AnodeUp (at 1.27 3.639635) (layer F.Fab)
    (effects (font (size 1 1) (thickness 0.15)))
  )
  (fp_arc (start 0 0) (end 1.311153 -1.1) (angle -276.998058) (layer F.SilkS) (width 0.12))
  (fp_circle (center 0 0) (end 1.35 0) (layer F.Fab) (width 0.1))
  (fp_line (start 0 0) (end 2.54 0) (layer F.Fab) (width 0.1))
  (fp_line (start -1.6 -1.6) (end -1.6 1.6) (layer F.CrtYd) (width 0.05))
  (fp_line (start -1.6 1.6) (end 3.89 1.6) (layer F.CrtYd) (width 0.05))
  (fp_line (start 3.89 1.6) (end 3.89 -1.6) (layer F.CrtYd) (width 0.05))
  (fp_line (start 3.89 -1.6) (end -1.6 -1.6) (layer F.CrtYd) (width 0.05))
  (pad 1 thru_hole rect (at 0 0) (size 2.2 2.2) (drill 1.1) (layers *.Cu *.Mask))
  (pad 2 thru_hole oval (at 2.54 0) (size 2.2 2.2) (drill 1.1) (layers *.Cu *.Mask))
  (fp_text user %R (at 1.27 -2.750635) (layer F.Fab)
    (effects (font (size 1 1) (thickness 0.15)))
  )
  (fp_text user A (at 4.64 0) (layer F.Fab)
    (effects (font (size 1 1) (thickness 0.15)))
  )
  (fp_text user A (at 4.64 0) (layer F.SilkS)
    (effects (font (size 1 1) (thickness 0.15)))
  )
  (model ${KICAD6_3DMODEL_DIR}/Diode_THT.3dshapes/D_DO-41_SOD81_P2.54mm_Vertical_AnodeUp.wrl
    (at (xyz 0 0 0))
    (scale (xyz 1 1 1))
    (rotate (xyz 0 0 0))
  )
)