(module D_DO-15_P2.54mm_Vertical_AnodeUp (layer F.Cu) (tedit 5AE50CD5)
  (descr "Diode, DO-15 series, Axial, Vertical, pin pitch=2.54mm, , length*diameter=7.6*3.6mm^2, , http://www.diodes.com/_files/packages/DO-15.pdf")
  (tags "Diode DO-15 series Axial Vertical pin pitch 2.54mm  length 7.6mm diameter 3.6mm")
  (fp_text reference REF** (at 1.27 -2.92) (layer F.SilkS)
    (effects (font (size 1 1) (thickness 0.15)))
  )
  (fp_text value D_DO-15_P2.54mm_Vertical_AnodeUp (at 1.27 3.809) (layer F.Fab)
    (effects (font (size 1 1) (thickness 0.15)))
  )
  (fp_arc (start 0 0) (end 1.514596 -1.12) (angle -284.154462) (layer F.SilkS) (width 0.12))
  (fp_circle (center 0 0) (end 1.8 0) (layer F.Fab) (width 0.1))
  (fp_line (start 0 0) (end 2.54 0) (layer F.Fab) (width 0.1))
  (fp_line (start -2.05 -2.05) (end -2.05 2.05) (layer F.CrtYd) (width 0.05))
  (fp_line (start -2.05 2.05) (end 3.91 2.05) (layer F.CrtYd) (width 0.05))
  (fp_line (start 3.91 2.05) (end 3.91 -2.05) (layer F.CrtYd) (width 0.05))
  (fp_line (start 3.91 -2.05) (end -2.05 -2.05) (layer F.CrtYd) (width 0.05))
  (pad 1 thru_hole rect (at 0 0) (size 2.24 2.24) (drill 1.2) (layers *.Cu *.Mask))
  (pad 2 thru_hole oval (at 2.54 0) (size 2.24 2.24) (drill 1.2) (layers *.Cu *.Mask))
  (fp_text user %R (at 1.27 -2.92) (layer F.Fab)
    (effects (font (size 1 1) (thickness 0.15)))
  )
  (fp_text user A (at 4.66 0) (layer F.Fab)
    (effects (font (size 1 1) (thickness 0.15)))
  )
  (fp_text user A (at 4.66 0) (layer F.SilkS)
    (effects (font (size 1 1) (thickness 0.15)))
  )
  (model ${KICAD6_3DMODEL_DIR}/Diode_THT.3dshapes/D_DO-15_P2.54mm_Vertical_AnodeUp.wrl
    (at (xyz 0 0 0))
    (scale (xyz 1 1 1))
    (rotate (xyz 0 0 0))
  )
)