(module Diode_Bridge_Round_D9.0mm (layer F.Cu) (tedit 5A4E75FD)
  (descr "4-lead round diode bridge package, diameter 9.0mm, pin pitch 5.0mm, see https://diotec.com/tl_files/diotec/files/pdf/datasheets/b40r.pdf")
  (tags "diode bridge 9.0mm 8.85mm WOB pitch 5.0mm")
  (fp_text reference REF** (at 2.54 -2.794) (layer F.SilkS)
    (effects (font (size 1 1) (thickness 0.15)))
  )
  (fp_text value Diode_Bridge_Round_D9.0mm (at 2.794 8.128) (layer F.Fab)
    (effects (font (size 1 1) (thickness 0.15)))
  )
  (fp_circle (center 2.5 2.5) (end -1.3 -1.2) (layer F.CrtYd) (width 0.05))
  (fp_arc (start 2.5 2.5) (end -0.35 -1.85) (angle -25.7) (layer F.SilkS) (width 0.12))
  (fp_arc (start 2.5 2.5) (end -1.25 5.2) (angle 69.7860092) (layer F.SilkS) (width 0.12))
  (fp_text user %R (at 2.5 2.5) (layer F.Fab)
    (effects (font (size 1 1) (thickness 0.15)))
  )
  (fp_arc (start 2.5 2.5) (end 5.25 6.2) (angle 69.33515029) (layer F.SilkS) (width 0.12))
  (fp_arc (start 2.5 2.5) (end 6.35 -0.05) (angle 69.27189832) (layer F.SilkS) (width 0.12))
  (fp_arc (start 2.5 2.5) (end -0.1 -1.3) (angle 71.12781967) (layer F.SilkS) (width 0.12))
  (fp_arc (start 2.5 2.5) (end -2 2.5) (angle 360) (layer F.Fab) (width 0.12))
  (pad 4 thru_hole oval (at 5 0) (size 2 2) (drill 1) (layers *.Cu *.Mask))
  (pad 2 thru_hole oval (at 0 5) (size 2 2) (drill 1) (layers *.Cu *.Mask))
  (pad 3 thru_hole oval (at 5 5) (size 2 2) (drill 1) (layers *.Cu *.Mask))
  (pad 1 thru_hole rect (at 0 0) (size 2 2) (drill 1) (layers *.Cu *.Mask))
  (model ${KICAD6_3DMODEL_DIR}/Diode_THT.3dshapes/Diode_Bridge_Round_D9.0mm.wrl
    (at (xyz 0 0 0))
    (scale (xyz 1 1 1))
    (rotate (xyz 0 0 0))
  )
)
