(module Diode_Bridge_Vishay_GBU (layer F.Cu) (tedit 5A4F789A)
  (descr "Vishay GBU rectifier package, 5.08mm pitch, see http://www.vishay.com/docs/88606/g3sba20.pdf")
  (tags "Vishay GBU rectifier diode bridge")
  (fp_text reference REF** (at 7.7 3.3 180) (layer F.SilkS)
    (effects (font (size 1 1) (thickness 0.15)))
  )
  (fp_text value Diode_Bridge_Vishay_GBU (at 7.1 -2.5 180) (layer F.Fab)
    (effects (font (size 1 1) (thickness 0.15)))
  )
  (fp_text user %R (at 7.65 0.6 180) (layer F.Fab)
    (effects (font (size 1 1) (thickness 0.15)))
  )
  (fp_line (start -0.3 2.4) (end -0.3 1.9) (layer F.SilkS) (width 0.12))
  (fp_line (start -3.5 2.4) (end -3.5 -1.2) (layer F.SilkS) (width 0.12))
  (fp_line (start 18.8 2.4) (end -3.5 2.4) (layer F.SilkS) (width 0.12))
  (fp_line (start 18.8 -1.2) (end 18.8 2.4) (layer F.SilkS) (width 0.12))
  (fp_line (start 16.8 -1.2) (end 18.8 -1.2) (layer F.SilkS) (width 0.12))
  (fp_line (start 11.7 -1.2) (end 13.7 -1.2) (layer F.SilkS) (width 0.12))
  (fp_line (start 6.7 -1.2) (end 8.6 -1.2) (layer F.SilkS) (width 0.12))
  (fp_line (start 2 -1.2) (end 3.5 -1.2) (layer F.SilkS) (width 0.12))
  (fp_line (start -3.5 -1.2) (end -2 -1.2) (layer F.SilkS) (width 0.12))
  (fp_line (start -0.3 2.3) (end -0.3 -1.1) (layer F.Fab) (width 0.1))
  (fp_line (start -3.4 1.3) (end -3.4 -1.1) (layer F.Fab) (width 0.1))
  (fp_line (start -2.5 2.3) (end -3.4 1.3) (layer F.Fab) (width 0.1))
  (fp_line (start 18.7 2.3) (end -2.5 2.3) (layer F.Fab) (width 0.1))
  (fp_line (start 18.7 -1.1) (end 18.7 2.3) (layer F.Fab) (width 0.12))
  (fp_line (start -3.4 -1.1) (end 18.7 -1.1) (layer F.Fab) (width 0.1))
  (fp_line (start -3.65 2.55) (end 18.95 2.55) (layer F.CrtYd) (width 0.05))
  (fp_line (start -3.65 2.55) (end -3.65 -1.85) (layer F.CrtYd) (width 0.05))
  (fp_line (start 18.95 -1.85) (end 18.95 2.55) (layer F.CrtYd) (width 0.05))
  (fp_line (start 18.95 -1.85) (end -3.65 -1.85) (layer F.CrtYd) (width 0.05))
  (pad 4 thru_hole circle (at 15.24 0) (size 3.2 3.2) (drill 1.6) (layers *.Cu *.Mask))
  (pad 3 thru_hole circle (at 10.16 0) (size 3.2 3.2) (drill 1.6) (layers *.Cu *.Mask))
  (pad 2 thru_hole circle (at 5.08 0) (size 3.2 3.2) (drill 1.6) (layers *.Cu *.Mask))
  (pad 1 thru_hole rect (at 0 0) (size 3.2 3.2) (drill 1.6) (layers *.Cu *.Mask))
  (model ${KICAD6_3DMODEL_DIR}/Diode_THT.3dshapes/Diode_Bridge_Vishay_GBU.wrl
    (at (xyz 0 0 0))
    (scale (xyz 1 1 1))
    (rotate (xyz 0 0 0))
  )
)
