(module TE_826576-5_1x05_P3.96mm_Vertical (layer F.Cu) (tedit 5D8E60CA)
  (descr "TE, 826576-5, 5 Pins (https://www.te.com/commerce/DocumentDelivery/DDEController?Action=srchrtrv&DocNm=826576&DocType=Customer+Drawing&DocLang=English), generated with kicad-footprint-generator")
  (tags "connector TE 826576 vertical")
  (fp_text reference REF** (at 7.92 -4.4) (layer F.SilkS)
    (effects (font (size 1 1) (thickness 0.15)))
  )
  (fp_text value TE_826576-5_1x05_P3.96mm_Vertical (at 7.92 4.4) (layer F.Fab)
    (effects (font (size 1 1) (thickness 0.15)))
  )
  (fp_line (start 7.92 -3.2) (end -1.68 -3.2) (layer F.Fab) (width 0.1))
  (fp_line (start -1.68 -3.2) (end -1.68 3.2) (layer F.Fab) (width 0.1))
  (fp_line (start -1.68 3.2) (end 7.92 3.2) (layer F.Fab) (width 0.1))
  (fp_line (start 7.92 -3.2) (end 17.52 -3.2) (layer F.Fab) (width 0.1))
  (fp_line (start 17.52 -3.2) (end 17.52 3.2) (layer F.Fab) (width 0.1))
  (fp_line (start 17.52 3.2) (end 7.92 3.2) (layer F.Fab) (width 0.1))
  (fp_line (start 7.92 -3.31) (end -1.79 -3.31) (layer F.SilkS) (width 0.12))
  (fp_line (start -1.79 -3.31) (end -1.79 3.31) (layer F.SilkS) (width 0.12))
  (fp_line (start -1.79 3.31) (end 7.92 3.31) (layer F.SilkS) (width 0.12))
  (fp_line (start 7.92 -3.31) (end 17.63 -3.31) (layer F.SilkS) (width 0.12))
  (fp_line (start 17.63 -3.31) (end 17.63 3.31) (layer F.SilkS) (width 0.12))
  (fp_line (start 17.63 3.31) (end 7.92 3.31) (layer F.SilkS) (width 0.12))
  (fp_line (start -0.5 3.2) (end 0 2.2) (layer F.Fab) (width 0.1))
  (fp_line (start 0 2.2) (end 0.5 3.2) (layer F.Fab) (width 0.1))
  (fp_line (start -0.5 4.7) (end 0 3.7) (layer F.SilkS) (width 0.12))
  (fp_line (start 0 3.7) (end 0.5 4.7) (layer F.SilkS) (width 0.12))
  (fp_line (start 0.5 4.7) (end -0.5 4.7) (layer F.SilkS) (width 0.12))
  (fp_line (start -2.18 -3.7) (end -2.18 3.7) (layer F.CrtYd) (width 0.05))
  (fp_line (start -2.18 3.7) (end 18.02 3.7) (layer F.CrtYd) (width 0.05))
  (fp_line (start 18.02 3.7) (end 18.02 -3.7) (layer F.CrtYd) (width 0.05))
  (fp_line (start 18.02 -3.7) (end -2.18 -3.7) (layer F.CrtYd) (width 0.05))
  (pad 1 thru_hole roundrect (at 0 0) (size 2.4 2.4) (drill 1.4) (layers *.Cu *.Mask) (roundrect_rratio 0.104167))
  (pad 2 thru_hole circle (at 3.96 0) (size 2.4 2.4) (drill 1.4) (layers *.Cu *.Mask))
  (pad 3 thru_hole circle (at 7.92 0) (size 2.4 2.4) (drill 1.4) (layers *.Cu *.Mask))
  (pad 4 thru_hole circle (at 11.88 0) (size 2.4 2.4) (drill 1.4) (layers *.Cu *.Mask))
  (pad 5 thru_hole circle (at 15.84 0) (size 2.4 2.4) (drill 1.4) (layers *.Cu *.Mask))
  (fp_text user %R (at 7.92 -2.5) (layer F.Fab)
    (effects (font (size 1 1) (thickness 0.15)))
  )
  (model ${KICAD6_3DMODEL_DIR}/Connector_TE-Connectivity.3dshapes/TE_826576-5_1x05_P3.96mm_Vertical.wrl
    (at (xyz 0 0 0))
    (scale (xyz 1 1 1))
    (rotate (xyz 0 0 0))
  )
)