(module TE_826576-7_1x07_P3.96mm_Vertical (layer F.Cu) (tedit 5D8E60CA)
  (descr "TE, 826576-7, 7 Pins (https://www.te.com/commerce/DocumentDelivery/DDEController?Action=srchrtrv&DocNm=826576&DocType=Customer+Drawing&DocLang=English), generated with kicad-footprint-generator")
  (tags "connector TE 826576 vertical")
  (fp_text reference REF** (at 11.88 -4.4) (layer F.SilkS)
    (effects (font (size 1 1) (thickness 0.15)))
  )
  (fp_text value TE_826576-7_1x07_P3.96mm_Vertical (at 11.88 4.4) (layer F.Fab)
    (effects (font (size 1 1) (thickness 0.15)))
  )
  (fp_line (start 11.88 -3.2) (end -1.67 -3.2) (layer F.Fab) (width 0.1))
  (fp_line (start -1.67 -3.2) (end -1.67 3.2) (layer F.Fab) (width 0.1))
  (fp_line (start -1.67 3.2) (end 11.88 3.2) (layer F.Fab) (width 0.1))
  (fp_line (start 11.88 -3.2) (end 25.43 -3.2) (layer F.Fab) (width 0.1))
  (fp_line (start 25.43 -3.2) (end 25.43 3.2) (layer F.Fab) (width 0.1))
  (fp_line (start 25.43 3.2) (end 11.88 3.2) (layer F.Fab) (width 0.1))
  (fp_line (start 11.88 -3.31) (end -1.78 -3.31) (layer F.SilkS) (width 0.12))
  (fp_line (start -1.78 -3.31) (end -1.78 3.31) (layer F.SilkS) (width 0.12))
  (fp_line (start -1.78 3.31) (end 11.88 3.31) (layer F.SilkS) (width 0.12))
  (fp_line (start 11.88 -3.31) (end 25.54 -3.31) (layer F.SilkS) (width 0.12))
  (fp_line (start 25.54 -3.31) (end 25.54 3.31) (layer F.SilkS) (width 0.12))
  (fp_line (start 25.54 3.31) (end 11.88 3.31) (layer F.SilkS) (width 0.12))
  (fp_line (start -0.5 3.2) (end 0 2.2) (layer F.Fab) (width 0.1))
  (fp_line (start 0 2.2) (end 0.5 3.2) (layer F.Fab) (width 0.1))
  (fp_line (start -0.5 4.7) (end 0 3.7) (layer F.SilkS) (width 0.12))
  (fp_line (start 0 3.7) (end 0.5 4.7) (layer F.SilkS) (width 0.12))
  (fp_line (start 0.5 4.7) (end -0.5 4.7) (layer F.SilkS) (width 0.12))
  (fp_line (start -2.17 -3.7) (end -2.17 3.7) (layer F.CrtYd) (width 0.05))
  (fp_line (start -2.17 3.7) (end 25.93 3.7) (layer F.CrtYd) (width 0.05))
  (fp_line (start 25.93 3.7) (end 25.93 -3.7) (layer F.CrtYd) (width 0.05))
  (fp_line (start 25.93 -3.7) (end -2.17 -3.7) (layer F.CrtYd) (width 0.05))
  (pad 1 thru_hole roundrect (at 0 0) (size 2.4 2.4) (drill 1.4) (layers *.Cu *.Mask) (roundrect_rratio 0.104167))
  (pad 2 thru_hole circle (at 3.96 0) (size 2.4 2.4) (drill 1.4) (layers *.Cu *.Mask))
  (pad 3 thru_hole circle (at 7.92 0) (size 2.4 2.4) (drill 1.4) (layers *.Cu *.Mask))
  (pad 4 thru_hole circle (at 11.88 0) (size 2.4 2.4) (drill 1.4) (layers *.Cu *.Mask))
  (pad 5 thru_hole circle (at 15.84 0) (size 2.4 2.4) (drill 1.4) (layers *.Cu *.Mask))
  (pad 6 thru_hole circle (at 19.8 0) (size 2.4 2.4) (drill 1.4) (layers *.Cu *.Mask))
  (pad 7 thru_hole circle (at 23.76 0) (size 2.4 2.4) (drill 1.4) (layers *.Cu *.Mask))
  (fp_text user %R (at 11.88 -2.5) (layer F.Fab)
    (effects (font (size 1 1) (thickness 0.15)))
  )
  (model ${KICAD6_3DMODEL_DIR}/Connector_TE-Connectivity.3dshapes/TE_826576-7_1x07_P3.96mm_Vertical.wrl
    (at (xyz 0 0 0))
    (scale (xyz 1 1 1))
    (rotate (xyz 0 0 0))
  )
)