(module TE_MATE-N-LOK_1-794107-x_2x11_P4.14mm_Horizontal (layer F.Cu) (tedit 5B787D78)
  (descr "Molex Mini-Universal MATE-N-LOK, old mpn/engineering number: 1-794107-x, 11 Pins per row (http://www.te.com/commerce/DocumentDelivery/DDEController?Action=srchrtrv&DocNm=82181_SOFTSHELL_HIGH_DENSITY&DocType=CS&DocLang=EN), generated with kicad-footprint-generator")
  (tags "connector TE MATE-N-LOK top entry")
  (fp_text reference REF** (at 11.99 -4.06) (layer F.SilkS)
    (effects (font (size 1 1) (thickness 0.15)))
  )
  (fp_text value TE_MATE-N-LOK_1-794107-x_2x11_P4.14mm_Horizontal (at 11.99 45.46) (layer F.Fab)
    (effects (font (size 1 1) (thickness 0.15)))
  )
  (fp_line (start 5.64 -2.86) (end 5.64 44.26) (layer F.Fab) (width 0.1))
  (fp_line (start 5.64 44.26) (end 18.34 44.26) (layer F.Fab) (width 0.1))
  (fp_line (start 18.34 44.26) (end 18.34 -2.86) (layer F.Fab) (width 0.1))
  (fp_line (start 18.34 -2.86) (end 5.64 -2.86) (layer F.Fab) (width 0.1))
  (fp_line (start 5.53 -0.751199) (end 5.53 -2.97) (layer F.SilkS) (width 0.12))
  (fp_line (start 5.53 -2.97) (end 18.45 -2.97) (layer F.SilkS) (width 0.12))
  (fp_line (start 18.45 -2.97) (end 18.45 44.37) (layer F.SilkS) (width 0.12))
  (fp_line (start 18.45 44.37) (end 5.53 44.37) (layer F.SilkS) (width 0.12))
  (fp_line (start 5.53 44.37) (end 5.53 42.151199) (layer F.SilkS) (width 0.12))
  (fp_line (start 5.53 0.751199) (end 5.53 3.388801) (layer F.SilkS) (width 0.12))
  (fp_line (start 5.53 4.891199) (end 5.53 7.528801) (layer F.SilkS) (width 0.12))
  (fp_line (start 5.53 9.031199) (end 5.53 11.668801) (layer F.SilkS) (width 0.12))
  (fp_line (start 5.53 13.171199) (end 5.53 15.808801) (layer F.SilkS) (width 0.12))
  (fp_line (start 5.53 17.311199) (end 5.53 19.948801) (layer F.SilkS) (width 0.12))
  (fp_line (start 5.53 21.451199) (end 5.53 24.088801) (layer F.SilkS) (width 0.12))
  (fp_line (start 5.53 25.591199) (end 5.53 28.228801) (layer F.SilkS) (width 0.12))
  (fp_line (start 5.53 29.731199) (end 5.53 32.368801) (layer F.SilkS) (width 0.12))
  (fp_line (start 5.53 33.871199) (end 5.53 36.508801) (layer F.SilkS) (width 0.12))
  (fp_line (start 5.53 38.011199) (end 5.53 40.648801) (layer F.SilkS) (width 0.12))
  (fp_line (start 0 -1.78) (end -1.78 -1.78) (layer F.SilkS) (width 0.12))
  (fp_line (start -1.78 -1.78) (end -1.78 0) (layer F.SilkS) (width 0.12))
  (fp_line (start 0 -1.78) (end -1.78 -1.78) (layer F.Fab) (width 0.1))
  (fp_line (start -1.78 -1.78) (end -1.78 0) (layer F.Fab) (width 0.1))
  (fp_line (start -1.82 -3.36) (end -1.82 44.76) (layer F.CrtYd) (width 0.05))
  (fp_line (start -1.82 44.76) (end 18.84 44.76) (layer F.CrtYd) (width 0.05))
  (fp_line (start 18.84 44.76) (end 18.84 -3.36) (layer F.CrtYd) (width 0.05))
  (fp_line (start 18.84 -3.36) (end -1.82 -3.36) (layer F.CrtYd) (width 0.05))
  (pad 1 thru_hole roundrect (at 0 0) (size 2.64 2.64) (drill 1.4) (layers *.Cu *.Mask) (roundrect_rratio 0.094697))
  (pad 2 thru_hole circle (at 0 4.14) (size 2.64 2.64) (drill 1.4) (layers *.Cu *.Mask))
  (pad 3 thru_hole circle (at 0 8.28) (size 2.64 2.64) (drill 1.4) (layers *.Cu *.Mask))
  (pad 4 thru_hole circle (at 0 12.42) (size 2.64 2.64) (drill 1.4) (layers *.Cu *.Mask))
  (pad 5 thru_hole circle (at 0 16.56) (size 2.64 2.64) (drill 1.4) (layers *.Cu *.Mask))
  (pad 6 thru_hole circle (at 0 20.7) (size 2.64 2.64) (drill 1.4) (layers *.Cu *.Mask))
  (pad 7 thru_hole circle (at 0 24.84) (size 2.64 2.64) (drill 1.4) (layers *.Cu *.Mask))
  (pad 8 thru_hole circle (at 0 28.98) (size 2.64 2.64) (drill 1.4) (layers *.Cu *.Mask))
  (pad 9 thru_hole circle (at 0 33.12) (size 2.64 2.64) (drill 1.4) (layers *.Cu *.Mask))
  (pad 10 thru_hole circle (at 0 37.26) (size 2.64 2.64) (drill 1.4) (layers *.Cu *.Mask))
  (pad 11 thru_hole circle (at 0 41.4) (size 2.64 2.64) (drill 1.4) (layers *.Cu *.Mask))
  (pad 12 thru_hole circle (at 4.14 0) (size 2.64 2.64) (drill 1.4) (layers *.Cu *.Mask))
  (pad 13 thru_hole circle (at 4.14 4.14) (size 2.64 2.64) (drill 1.4) (layers *.Cu *.Mask))
  (pad 14 thru_hole circle (at 4.14 8.28) (size 2.64 2.64) (drill 1.4) (layers *.Cu *.Mask))
  (pad 15 thru_hole circle (at 4.14 12.42) (size 2.64 2.64) (drill 1.4) (layers *.Cu *.Mask))
  (pad 16 thru_hole circle (at 4.14 16.56) (size 2.64 2.64) (drill 1.4) (layers *.Cu *.Mask))
  (pad 17 thru_hole circle (at 4.14 20.7) (size 2.64 2.64) (drill 1.4) (layers *.Cu *.Mask))
  (pad 18 thru_hole circle (at 4.14 24.84) (size 2.64 2.64) (drill 1.4) (layers *.Cu *.Mask))
  (pad 19 thru_hole circle (at 4.14 28.98) (size 2.64 2.64) (drill 1.4) (layers *.Cu *.Mask))
  (pad 20 thru_hole circle (at 4.14 33.12) (size 2.64 2.64) (drill 1.4) (layers *.Cu *.Mask))
  (pad 21 thru_hole circle (at 4.14 37.26) (size 2.64 2.64) (drill 1.4) (layers *.Cu *.Mask))
  (pad 22 thru_hole circle (at 4.14 41.4) (size 2.64 2.64) (drill 1.4) (layers *.Cu *.Mask))
  (pad "" np_thru_hole circle (at 11.48 33.12) (size 3.86 3.86) (drill 3.86) (layers *.Cu *.Mask))
  (pad "" np_thru_hole circle (at 11.48 8.28) (size 3.86 3.86) (drill 3.86) (layers *.Cu *.Mask))
  (fp_text user %R (at 17.64 20.7 90) (layer F.Fab)
    (effects (font (size 1 1) (thickness 0.15)))
  )
  (model ${KICAD6_3DMODEL_DIR}/Connector_TE-Connectivity.3dshapes/TE_MATE-N-LOK_1-794107-x_2x11_P4.14mm_Horizontal.wrl
    (at (xyz 0 0 0))
    (scale (xyz 1 1 1))
    (rotate (xyz 0 0 0))
  )
)