(module TE_MATE-N-LOK_1-770190-x_3x05_P4.14mm_Vertical (layer F.Cu) (tedit 5B787EAA)
  (descr "Molex Mini-Universal MATE-N-LOK, old mpn/engineering number: 1-770190-x, 5 Pins per row (http://www.te.com/commerce/DocumentDelivery/DDEController?Action=srchrtrv&DocNm=82181_SOFTSHELL_HIGH_DENSITY&DocType=CS&DocLang=EN), generated with kicad-footprint-generator")
  (tags "connector TE MATE-N-LOK side entry")
  (fp_text reference REF** (at 4.14 -7.23) (layer F.SilkS)
    (effects (font (size 1 1) (thickness 0.15)))
  )
  (fp_text value TE_MATE-N-LOK_1-770190-x_3x05_P4.14mm_Vertical (at 4.14 23.2) (layer F.Fab)
    (effects (font (size 1 1) (thickness 0.15)))
  )
  (fp_arc (start 0 -4.44) (end 1.733977 -3.505) (angle -58.704676) (layer F.Fab) (width 0.1))
  (fp_arc (start 0 -4.44) (end -1.733977 -3.505) (angle 58.704676) (layer F.Fab) (width 0.1))
  (fp_line (start -2.845 -2.845) (end -2.845 19.405) (layer F.Fab) (width 0.1))
  (fp_line (start -2.845 19.405) (end 11.125 19.405) (layer F.Fab) (width 0.1))
  (fp_line (start 11.125 19.405) (end 11.125 -2.845) (layer F.Fab) (width 0.1))
  (fp_line (start 11.125 -2.845) (end -2.845 -2.845) (layer F.Fab) (width 0.1))
  (fp_line (start -1.103302 -2.955) (end -2.955 -2.955) (layer F.SilkS) (width 0.12))
  (fp_line (start -2.955 -2.955) (end -2.955 19.515) (layer F.SilkS) (width 0.12))
  (fp_line (start -2.955 19.515) (end 0 19.515) (layer F.SilkS) (width 0.12))
  (fp_line (start 1.103302 -2.955) (end 11.235 -2.955) (layer F.SilkS) (width 0.12))
  (fp_line (start 11.235 -2.955) (end 11.235 19.515) (layer F.SilkS) (width 0.12))
  (fp_line (start 11.235 19.515) (end 0 19.515) (layer F.SilkS) (width 0.12))
  (fp_line (start -2.845 6.78) (end -4.145 6.78) (layer F.Fab) (width 0.1))
  (fp_line (start -4.145 6.78) (end -4.145 9.78) (layer F.Fab) (width 0.1))
  (fp_line (start -4.145 9.78) (end -2.845 9.78) (layer F.Fab) (width 0.1))
  (fp_line (start -2.955 6.67) (end -4.255 6.67) (layer F.SilkS) (width 0.12))
  (fp_line (start -4.255 6.67) (end -4.255 9.89) (layer F.SilkS) (width 0.12))
  (fp_line (start -4.255 9.89) (end -2.955 9.89) (layer F.SilkS) (width 0.12))
  (fp_line (start 11.125 -2.845) (end 11.885 -2.845) (layer F.Fab) (width 0.1))
  (fp_line (start 11.885 -2.845) (end 11.885 -1.705) (layer F.Fab) (width 0.1))
  (fp_line (start 11.885 -1.705) (end 11.125 -1.705) (layer F.Fab) (width 0.1))
  (fp_line (start 11.235 -2.955) (end 11.995 -2.955) (layer F.SilkS) (width 0.12))
  (fp_line (start 11.995 -2.955) (end 11.995 -1.595) (layer F.SilkS) (width 0.12))
  (fp_line (start 11.995 -1.595) (end 11.235 -1.595) (layer F.SilkS) (width 0.12))
  (fp_line (start 7.01 19.405) (end 7.01 21.996) (layer F.Fab) (width 0.1))
  (fp_line (start 7.01 21.996) (end 9.55 21.996) (layer F.Fab) (width 0.1))
  (fp_line (start 9.55 21.996) (end 9.55 19.405) (layer F.Fab) (width 0.1))
  (fp_line (start 6.9 19.515) (end 6.9 22.106) (layer F.SilkS) (width 0.12))
  (fp_line (start 6.9 22.106) (end 9.66 22.106) (layer F.SilkS) (width 0.12))
  (fp_line (start 9.66 22.106) (end 9.66 19.515) (layer F.SilkS) (width 0.12))
  (fp_line (start 11.125 1.5) (end 11.885 1.5) (layer F.Fab) (width 0.1))
  (fp_line (start 11.885 1.5) (end 11.885 2.64) (layer F.Fab) (width 0.1))
  (fp_line (start 11.885 2.64) (end 11.125 2.64) (layer F.Fab) (width 0.1))
  (fp_line (start 11.235 1.39) (end 11.995 1.39) (layer F.SilkS) (width 0.12))
  (fp_line (start 11.995 1.39) (end 11.995 2.75) (layer F.SilkS) (width 0.12))
  (fp_line (start 11.995 2.75) (end 11.235 2.75) (layer F.SilkS) (width 0.12))
  (fp_line (start 11.125 5.64) (end 11.885 5.64) (layer F.Fab) (width 0.1))
  (fp_line (start 11.885 5.64) (end 11.885 6.78) (layer F.Fab) (width 0.1))
  (fp_line (start 11.885 6.78) (end 11.125 6.78) (layer F.Fab) (width 0.1))
  (fp_line (start 11.235 5.53) (end 11.995 5.53) (layer F.SilkS) (width 0.12))
  (fp_line (start 11.995 5.53) (end 11.995 6.89) (layer F.SilkS) (width 0.12))
  (fp_line (start 11.995 6.89) (end 11.235 6.89) (layer F.SilkS) (width 0.12))
  (fp_line (start 11.125 9.78) (end 11.885 9.78) (layer F.Fab) (width 0.1))
  (fp_line (start 11.885 9.78) (end 11.885 10.92) (layer F.Fab) (width 0.1))
  (fp_line (start 11.885 10.92) (end 11.125 10.92) (layer F.Fab) (width 0.1))
  (fp_line (start 11.235 9.67) (end 11.995 9.67) (layer F.SilkS) (width 0.12))
  (fp_line (start 11.995 9.67) (end 11.995 11.03) (layer F.SilkS) (width 0.12))
  (fp_line (start 11.995 11.03) (end 11.235 11.03) (layer F.SilkS) (width 0.12))
  (fp_line (start 11.125 13.92) (end 11.885 13.92) (layer F.Fab) (width 0.1))
  (fp_line (start 11.885 13.92) (end 11.885 15.06) (layer F.Fab) (width 0.1))
  (fp_line (start 11.885 15.06) (end 11.125 15.06) (layer F.Fab) (width 0.1))
  (fp_line (start 11.235 13.81) (end 11.995 13.81) (layer F.SilkS) (width 0.12))
  (fp_line (start 11.995 13.81) (end 11.995 15.17) (layer F.SilkS) (width 0.12))
  (fp_line (start 11.995 15.17) (end 11.235 15.17) (layer F.SilkS) (width 0.12))
  (fp_line (start 11.125 18.06) (end 11.885 18.06) (layer F.Fab) (width 0.1))
  (fp_line (start 11.885 18.06) (end 11.885 19.2) (layer F.Fab) (width 0.1))
  (fp_line (start 11.885 19.2) (end 11.125 19.2) (layer F.Fab) (width 0.1))
  (fp_line (start 11.235 17.95) (end 11.995 17.95) (layer F.SilkS) (width 0.12))
  (fp_line (start 11.995 17.95) (end 11.995 19.31) (layer F.SilkS) (width 0.12))
  (fp_line (start 11.995 19.31) (end 11.235 19.31) (layer F.SilkS) (width 0.12))
  (fp_line (start 0.8 -2.845) (end 0.8 -3.505) (layer F.Fab) (width 0.1))
  (fp_line (start -0.8 -2.845) (end -0.8 -3.505) (layer F.Fab) (width 0.1))
  (fp_line (start 1.733977 -3.505) (end -1.733977 -3.505) (layer F.Fab) (width 0.1))
  (fp_line (start 1.699672 -5.436) (end -1.699672 -5.436) (layer F.Fab) (width 0.1))
  (fp_line (start -1.42066 -3.255) (end -3.255 -3.255) (layer F.SilkS) (width 0.12))
  (fp_line (start -3.255 -3.255) (end -3.255 -0.345) (layer F.SilkS) (width 0.12))
  (fp_line (start -2.845 -1) (end -1.430786 0) (layer F.Fab) (width 0.1))
  (fp_line (start -1.430786 0) (end -2.845 1) (layer F.Fab) (width 0.1))
  (fp_line (start -4.65 -6.53) (end -4.65 22.5) (layer F.CrtYd) (width 0.05))
  (fp_line (start -4.65 22.5) (end 12.38 22.5) (layer F.CrtYd) (width 0.05))
  (fp_line (start 12.38 22.5) (end 12.38 -6.53) (layer F.CrtYd) (width 0.05))
  (fp_line (start 12.38 -6.53) (end -4.65 -6.53) (layer F.CrtYd) (width 0.05))
  (pad 1 thru_hole roundrect (at 0 0) (size 2.64 2.64) (drill 1.4) (layers *.Cu *.Mask) (roundrect_rratio 0.094697))
  (pad 2 thru_hole circle (at 0 4.14) (size 2.64 2.64) (drill 1.4) (layers *.Cu *.Mask))
  (pad 3 thru_hole circle (at 0 8.28) (size 2.64 2.64) (drill 1.4) (layers *.Cu *.Mask))
  (pad 4 thru_hole circle (at 0 12.42) (size 2.64 2.64) (drill 1.4) (layers *.Cu *.Mask))
  (pad 5 thru_hole circle (at 0 16.56) (size 2.64 2.64) (drill 1.4) (layers *.Cu *.Mask))
  (pad 6 thru_hole circle (at 4.14 0) (size 2.64 2.64) (drill 1.4) (layers *.Cu *.Mask))
  (pad 7 thru_hole circle (at 4.14 4.14) (size 2.64 2.64) (drill 1.4) (layers *.Cu *.Mask))
  (pad 8 thru_hole circle (at 4.14 8.28) (size 2.64 2.64) (drill 1.4) (layers *.Cu *.Mask))
  (pad 9 thru_hole circle (at 4.14 12.42) (size 2.64 2.64) (drill 1.4) (layers *.Cu *.Mask))
  (pad 10 thru_hole circle (at 4.14 16.56) (size 2.64 2.64) (drill 1.4) (layers *.Cu *.Mask))
  (pad 11 thru_hole circle (at 8.28 0) (size 2.64 2.64) (drill 1.4) (layers *.Cu *.Mask))
  (pad 12 thru_hole circle (at 8.28 4.14) (size 2.64 2.64) (drill 1.4) (layers *.Cu *.Mask))
  (pad 13 thru_hole circle (at 8.28 8.28) (size 2.64 2.64) (drill 1.4) (layers *.Cu *.Mask))
  (pad 14 thru_hole circle (at 8.28 12.42) (size 2.64 2.64) (drill 1.4) (layers *.Cu *.Mask))
  (pad 15 thru_hole circle (at 8.28 16.56) (size 2.64 2.64) (drill 1.4) (layers *.Cu *.Mask))
  (pad "" np_thru_hole circle (at 0 -4.44) (size 3.18 3.18) (drill 3.18) (layers *.Cu *.Mask))
  (fp_text user %R (at 10.42 8.28 90) (layer F.Fab)
    (effects (font (size 1 1) (thickness 0.15)))
  )
  (model ${KICAD6_3DMODEL_DIR}/Connector_TE-Connectivity.3dshapes/TE_MATE-N-LOK_1-770190-x_3x05_P4.14mm_Vertical.wrl
    (at (xyz 0 0 0))
    (scale (xyz 1 1 1))
    (rotate (xyz 0 0 0))
  )
)