(module TE_MATE-N-LOK_350211-1_1x04_P5.08mm_Vertical (layer F.Cu) (tedit 5C696A5E)
  (descr https://www.te.com/commerce/DocumentDelivery/DDEController?Action=showdoc&DocId=Customer+Drawing%7F350211%7FU5%7Fpdf%7FEnglish%7FENG_CD_350211_U5.pdf%7F350211-1)
  (tags "connector TE MATE-N-LOK top entry ATA PATA IDE 5.25 inch floppy drive power")
  (fp_text reference REF** (at 8.89 -6.5) (layer F.SilkS)
    (effects (font (size 1 1) (thickness 0.15)))
  )
  (fp_text value TE_MATE-N-LOK_350211-1_1x04_P5.08mm_Vertical (at 7.62 5.01) (layer F.Fab)
    (effects (font (size 1 1) (thickness 0.15)))
  )
  (fp_line (start -5.33 4.38) (end 20.57 4.38) (layer F.CrtYd) (width 0.05))
  (fp_line (start 20.57 4.38) (end 20.57 -5.77) (layer F.CrtYd) (width 0.05))
  (fp_line (start 20.57 -5.77) (end -5.33 -5.77) (layer F.CrtYd) (width 0.05))
  (fp_line (start -5.33 -5.77) (end -5.33 4.38) (layer F.CrtYd) (width 0.05))
  (fp_line (start -2.95 -3.22) (end 18.19 -3.22) (layer F.SilkS) (width 0.12))
  (fp_line (start 18.19 -3.22) (end 18.19 1.39) (layer F.SilkS) (width 0.12))
  (fp_line (start 18.19 1.39) (end 16.36 3.22) (layer F.SilkS) (width 0.12))
  (fp_line (start 16.36 3.22) (end -1.12 3.22) (layer F.SilkS) (width 0.12))
  (fp_line (start -1.12 3.22) (end -2.95 1.39) (layer F.SilkS) (width 0.12))
  (fp_line (start -2.95 1.39) (end -2.95 -3.22) (layer F.SilkS) (width 0.12))
  (fp_line (start -3.01 4.28) (end 18.25 4.28) (layer F.SilkS) (width 0.12))
  (fp_line (start 19.39 3.14) (end 19.39 -5.67) (layer F.SilkS) (width 0.12))
  (fp_line (start 18.25 -4.28) (end -3.01 -4.28) (layer F.SilkS) (width 0.12))
  (fp_line (start -4.15 -3.14) (end -4.15 3.14) (layer F.SilkS) (width 0.12))
  (fp_line (start 19.39 1.86) (end 20.47 1.86) (layer F.SilkS) (width 0.12))
  (fp_line (start 20.47 1.86) (end 20.47 -1.86) (layer F.SilkS) (width 0.12))
  (fp_line (start 20.47 -1.86) (end 19.39 -1.86) (layer F.SilkS) (width 0.12))
  (fp_line (start -4.15 1.86) (end -5.23 1.86) (layer F.SilkS) (width 0.12))
  (fp_line (start -5.23 1.86) (end -5.23 -1.86) (layer F.SilkS) (width 0.12))
  (fp_line (start -5.23 -1.86) (end -4.15 -1.86) (layer F.SilkS) (width 0.12))
  (fp_line (start 17.7 -4.28) (end 17.7 -5.67) (layer F.SilkS) (width 0.12))
  (fp_line (start 17.7 -5.67) (end 19.39 -5.67) (layer F.SilkS) (width 0.12))
  (fp_line (start -2.47 -5.67) (end -0.78 -5.67) (layer F.SilkS) (width 0.12))
  (fp_line (start -0.78 -5.67) (end -0.78 -4.28) (layer F.SilkS) (width 0.12))
  (fp_line (start -2.47 -4.28) (end -2.47 -5.67) (layer F.SilkS) (width 0.12))
  (fp_line (start 14.29 -5.67) (end 14.29 -4.28) (layer F.SilkS) (width 0.12))
  (fp_line (start 12.6 -4.28) (end 12.6 -5.67) (layer F.SilkS) (width 0.12))
  (fp_line (start 12.6 -5.67) (end 14.29 -5.67) (layer F.SilkS) (width 0.12))
  (fp_line (start 7.5 -5.67) (end 9.19 -5.67) (layer F.SilkS) (width 0.12))
  (fp_line (start 9.19 -5.67) (end 9.19 -4.28) (layer F.SilkS) (width 0.12))
  (fp_line (start 7.5 -4.28) (end 7.5 -5.67) (layer F.SilkS) (width 0.12))
  (fp_line (start 2.42 -4.28) (end 2.42 -5.67) (layer F.SilkS) (width 0.12))
  (fp_line (start 4.11 -5.67) (end 4.11 -4.28) (layer F.SilkS) (width 0.12))
  (fp_line (start 2.42 -5.67) (end 4.11 -5.67) (layer F.SilkS) (width 0.12))
  (fp_arc (start 18.25 -3.14) (end 19.39 -3.14) (angle -90) (layer F.SilkS) (width 0.12))
  (fp_arc (start 18.25 3.14) (end 18.25 4.28) (angle -90) (layer F.SilkS) (width 0.12))
  (fp_arc (start -3.01 -3.14) (end -3.01 -4.28) (angle -90) (layer F.SilkS) (width 0.12))
  (fp_arc (start -3.01 3.14) (end -4.15 3.14) (angle -90) (layer F.SilkS) (width 0.12))
  (fp_line (start -2.95 1.39) (end -2.95 -3.22) (layer F.Fab) (width 0.1))
  (fp_line (start -1.12 3.22) (end -2.95 1.39) (layer F.Fab) (width 0.1))
  (fp_line (start 16.36 3.22) (end -1.12 3.22) (layer F.Fab) (width 0.1))
  (fp_line (start 18.19 1.39) (end 16.36 3.22) (layer F.Fab) (width 0.1))
  (fp_line (start 18.19 -3.22) (end 18.19 1.39) (layer F.Fab) (width 0.1))
  (fp_line (start -2.95 -3.22) (end 18.19 -3.22) (layer F.Fab) (width 0.1))
  (fp_text user %R (at 8 0) (layer F.Fab)
    (effects (font (size 1 1) (thickness 0.15)))
  )
  (fp_line (start 18.1 -4.13) (end -2.86 -4.13) (layer F.Fab) (width 0.1))
  (fp_line (start -2.86 4.13) (end 18.1 4.13) (layer F.Fab) (width 0.1))
  (fp_line (start 19.24 2.99) (end 19.24 -5.52) (layer F.Fab) (width 0.1))
  (fp_line (start -4 -2.99) (end -4 2.99) (layer F.Fab) (width 0.1))
  (fp_arc (start 18.1 -2.99) (end 19.24 -2.99) (angle -90) (layer F.Fab) (width 0.1))
  (fp_arc (start -2.86 -2.99) (end -2.86 -4.13) (angle -90) (layer F.Fab) (width 0.1))
  (fp_arc (start 18.1 2.99) (end 18.1 4.13) (angle -90) (layer F.Fab) (width 0.1))
  (fp_arc (start -2.86 2.99) (end -4 2.99) (angle -90) (layer F.Fab) (width 0.1))
  (fp_line (start 20.32 1.71) (end 20.32 -1.71) (layer F.Fab) (width 0.1))
  (fp_line (start 20.32 -1.71) (end 19.24 -1.71) (layer F.Fab) (width 0.1))
  (fp_line (start 19.24 1.71) (end 20.32 1.71) (layer F.Fab) (width 0.1))
  (fp_line (start -5.08 1.71) (end -5.08 -1.71) (layer F.Fab) (width 0.1))
  (fp_line (start -5.08 -1.71) (end -4 -1.71) (layer F.Fab) (width 0.1))
  (fp_line (start -4 1.71) (end -5.08 1.71) (layer F.Fab) (width 0.1))
  (fp_line (start 17.85 -5.52) (end 19.24 -5.52) (layer F.Fab) (width 0.1))
  (fp_line (start 17.85 -4.13) (end 17.85 -5.52) (layer F.Fab) (width 0.1))
  (fp_line (start 12.75 -5.52) (end 14.14 -5.52) (layer F.Fab) (width 0.1))
  (fp_line (start 7.65 -5.52) (end 9.04 -5.52) (layer F.Fab) (width 0.1))
  (fp_line (start 2.57 -5.52) (end 3.96 -5.52) (layer F.Fab) (width 0.1))
  (fp_line (start -2.32 -5.52) (end -0.93 -5.52) (layer F.Fab) (width 0.1))
  (fp_line (start -2.32 -4.13) (end -2.32 -5.52) (layer F.Fab) (width 0.1))
  (fp_line (start -0.93 -5.52) (end -0.93 -4.13) (layer F.Fab) (width 0.1))
  (fp_line (start 2.57 -4.13) (end 2.57 -5.52) (layer F.Fab) (width 0.1))
  (fp_line (start 3.96 -5.52) (end 3.96 -4.13) (layer F.Fab) (width 0.1))
  (fp_line (start 7.65 -4.13) (end 7.65 -5.52) (layer F.Fab) (width 0.1))
  (fp_line (start 9.04 -5.52) (end 9.04 -4.13) (layer F.Fab) (width 0.1))
  (fp_line (start 12.75 -4.13) (end 12.75 -5.52) (layer F.Fab) (width 0.1))
  (fp_line (start 14.14 -5.52) (end 14.14 -4.13) (layer F.Fab) (width 0.1))
  (pad 1 thru_hole rect (at 0 0) (size 2.78 2.78) (drill 1.78) (layers *.Cu *.Mask))
  (pad 2 thru_hole circle (at 5.08 0) (size 2.78 2.78) (drill 1.78) (layers *.Cu *.Mask))
  (pad 3 thru_hole circle (at 10.16 0) (size 2.78 2.78) (drill 1.78) (layers *.Cu *.Mask))
  (pad 4 thru_hole circle (at 15.24 0) (size 2.78 2.78) (drill 1.78) (layers *.Cu *.Mask))
  (model ${KICAD6_3DMODEL_DIR}/Connector_TE-Connectivity.3dshapes/TE_MATE-N-LOK_350211-1_1x04_P5.08mm_Vertical.wrl
    (at (xyz 0 0 0))
    (scale (xyz 1 1 1))
    (rotate (xyz 0 0 0))
  )
)
