(module R_Axial_DIN0309_L9.0mm_D3.2mm_P20.32mm_Horizontal (layer F.Cu) (tedit 5AE5139B)
  (descr "Resistor, Axial_DIN0309 series, Axial, Horizontal, pin pitch=20.32mm, 0.5W = 1/2W, length*diameter=9*3.2mm^2, http://cdn-reichelt.de/documents/datenblatt/B400/1_4W%23YAG.pdf")
  (tags "Resistor Axial_DIN0309 series Axial Horizontal pin pitch 20.32mm 0.5W = 1/2W length 9mm diameter 3.2mm")
  (fp_text reference REF** (at 10.16 -2.72) (layer F.SilkS)
    (effects (font (size 1 1) (thickness 0.15)))
  )
  (fp_text value R_Axial_DIN0309_L9.0mm_D3.2mm_P20.32mm_Horizontal (at 10.16 2.72) (layer F.Fab)
    (effects (font (size 1 1) (thickness 0.15)))
  )
  (fp_line (start 5.66 -1.6) (end 5.66 1.6) (layer F.Fab) (width 0.1))
  (fp_line (start 5.66 1.6) (end 14.66 1.6) (layer F.Fab) (width 0.1))
  (fp_line (start 14.66 1.6) (end 14.66 -1.6) (layer F.Fab) (width 0.1))
  (fp_line (start 14.66 -1.6) (end 5.66 -1.6) (layer F.Fab) (width 0.1))
  (fp_line (start 0 0) (end 5.66 0) (layer F.Fab) (width 0.1))
  (fp_line (start 20.32 0) (end 14.66 0) (layer F.Fab) (width 0.1))
  (fp_line (start 5.54 -1.72) (end 5.54 1.72) (layer F.SilkS) (width 0.12))
  (fp_line (start 5.54 1.72) (end 14.78 1.72) (layer F.SilkS) (width 0.12))
  (fp_line (start 14.78 1.72) (end 14.78 -1.72) (layer F.SilkS) (width 0.12))
  (fp_line (start 14.78 -1.72) (end 5.54 -1.72) (layer F.SilkS) (width 0.12))
  (fp_line (start 1.04 0) (end 5.54 0) (layer F.SilkS) (width 0.12))
  (fp_line (start 19.28 0) (end 14.78 0) (layer F.SilkS) (width 0.12))
  (fp_line (start -1.05 -1.85) (end -1.05 1.85) (layer F.CrtYd) (width 0.05))
  (fp_line (start -1.05 1.85) (end 21.37 1.85) (layer F.CrtYd) (width 0.05))
  (fp_line (start 21.37 1.85) (end 21.37 -1.85) (layer F.CrtYd) (width 0.05))
  (fp_line (start 21.37 -1.85) (end -1.05 -1.85) (layer F.CrtYd) (width 0.05))
  (pad 1 thru_hole circle (at 0 0) (size 1.6 1.6) (drill 0.8) (layers *.Cu *.Mask))
  (pad 2 thru_hole oval (at 20.32 0) (size 1.6 1.6) (drill 0.8) (layers *.Cu *.Mask))
  (fp_text user %R (at 10.16 0) (layer F.Fab)
    (effects (font (size 1 1) (thickness 0.15)))
  )
  (model ${KICAD6_3DMODEL_DIR}/Resistor_THT.3dshapes/R_Axial_DIN0309_L9.0mm_D3.2mm_P20.32mm_Horizontal.wrl
    (at (xyz 0 0 0))
    (scale (xyz 1 1 1))
    (rotate (xyz 0 0 0))
  )
)