(module R_Axial_Shunt_L22.2mm_W9.5mm_PS14.30mm_P25.40mm (layer F.Cu) (tedit 5AE5139B)
  (descr "Resistor, Axial_Shunt series, Box, pin pitch=25.4mm, 5W, length*width*height=22.2*9.5*9.5mm^3, shunt pin pitch = 14.30mm, http://www.vishay.com/docs/30217/cpsl.pdf")
  (tags "Resistor Axial_Shunt series Box pin pitch 25.4mm 5W length 22.2mm width 9.5mm height 9.5mm shunt pin pitch 14.30mm")
  (fp_text reference REF** (at 12.7 -5.87) (layer F.SilkS)
    (effects (font (size 1 1) (thickness 0.15)))
  )
  (fp_text value R_Axial_Shunt_L22.2mm_W9.5mm_PS14.30mm_P25.40mm (at 12.7 5.87) (layer F.Fab)
    (effects (font (size 1 1) (thickness 0.15)))
  )
  (fp_line (start 1.6 -4.75) (end 1.6 4.75) (layer F.Fab) (width 0.1))
  (fp_line (start 1.6 4.75) (end 23.8 4.75) (layer F.Fab) (width 0.1))
  (fp_line (start 23.8 4.75) (end 23.8 -4.75) (layer F.Fab) (width 0.1))
  (fp_line (start 23.8 -4.75) (end 1.6 -4.75) (layer F.Fab) (width 0.1))
  (fp_line (start 0 0) (end 1.6 0) (layer F.Fab) (width 0.1))
  (fp_line (start 25.4 0) (end 23.8 0) (layer F.Fab) (width 0.1))
  (fp_line (start 1.48 -1.74) (end 1.48 -4.87) (layer F.SilkS) (width 0.12))
  (fp_line (start 1.48 -4.87) (end 23.92 -4.87) (layer F.SilkS) (width 0.12))
  (fp_line (start 23.92 -4.87) (end 23.92 -1.74) (layer F.SilkS) (width 0.12))
  (fp_line (start 1.48 1.74) (end 1.48 4.87) (layer F.SilkS) (width 0.12))
  (fp_line (start 1.48 4.87) (end 23.92 4.87) (layer F.SilkS) (width 0.12))
  (fp_line (start 23.92 4.87) (end 23.92 1.74) (layer F.SilkS) (width 0.12))
  (fp_line (start -1.75 -5) (end -1.75 5) (layer F.CrtYd) (width 0.05))
  (fp_line (start -1.75 5) (end 27.15 5) (layer F.CrtYd) (width 0.05))
  (fp_line (start 27.15 5) (end 27.15 -5) (layer F.CrtYd) (width 0.05))
  (fp_line (start 27.15 -5) (end -1.75 -5) (layer F.CrtYd) (width 0.05))
  (pad 1 thru_hole circle (at 0 0) (size 3 3) (drill 1.5) (layers *.Cu *.Mask))
  (pad 2 thru_hole oval (at 5.55 0) (size 3 3) (drill 1.5) (layers *.Cu *.Mask))
  (pad 3 thru_hole oval (at 19.85 0) (size 3 3) (drill 1.5) (layers *.Cu *.Mask))
  (pad 4 thru_hole oval (at 25.4 0) (size 3 3) (drill 1.5) (layers *.Cu *.Mask))
  (fp_text user %R (at 12.7 0) (layer F.Fab)
    (effects (font (size 1 1) (thickness 0.15)))
  )
  (model ${KICAD6_3DMODEL_DIR}/Resistor_THT.3dshapes/R_Axial_Shunt_L22.2mm_W9.5mm_PS14.30mm_P25.40mm.wrl
    (at (xyz 0 0 0))
    (scale (xyz 1 1 1))
    (rotate (xyz 0 0 0))
  )
)