(module R_Axial_Power_L25.0mm_W9.0mm_P30.48mm (layer F.Cu) (tedit 5AE5139B)
  (descr "Resistor, Axial_Power series, Box, pin pitch=30.48mm, 7W, length*width*height=25*9*9mm^3, http://cdn-reichelt.de/documents/datenblatt/B400/5WAXIAL_9WAXIAL_11WAXIAL_17WAXIAL%23YAG.pdf")
  (tags "Resistor Axial_Power series Box pin pitch 30.48mm 7W length 25mm width 9mm height 9mm")
  (fp_text reference REF** (at 15.24 -5.62) (layer F.SilkS)
    (effects (font (size 1 1) (thickness 0.15)))
  )
  (fp_text value R_Axial_Power_L25.0mm_W9.0mm_P30.48mm (at 15.24 5.62) (layer F.Fab)
    (effects (font (size 1 1) (thickness 0.15)))
  )
  (fp_line (start 2.74 -4.5) (end 2.74 4.5) (layer F.Fab) (width 0.1))
  (fp_line (start 2.74 4.5) (end 27.74 4.5) (layer F.Fab) (width 0.1))
  (fp_line (start 27.74 4.5) (end 27.74 -4.5) (layer F.Fab) (width 0.1))
  (fp_line (start 27.74 -4.5) (end 2.74 -4.5) (layer F.Fab) (width 0.1))
  (fp_line (start 0 0) (end 2.74 0) (layer F.Fab) (width 0.1))
  (fp_line (start 30.48 0) (end 27.74 0) (layer F.Fab) (width 0.1))
  (fp_line (start 2.62 -4.62) (end 2.62 4.62) (layer F.SilkS) (width 0.12))
  (fp_line (start 2.62 4.62) (end 27.86 4.62) (layer F.SilkS) (width 0.12))
  (fp_line (start 27.86 4.62) (end 27.86 -4.62) (layer F.SilkS) (width 0.12))
  (fp_line (start 27.86 -4.62) (end 2.62 -4.62) (layer F.SilkS) (width 0.12))
  (fp_line (start 1.44 0) (end 2.62 0) (layer F.SilkS) (width 0.12))
  (fp_line (start 29.04 0) (end 27.86 0) (layer F.SilkS) (width 0.12))
  (fp_line (start -1.45 -4.75) (end -1.45 4.75) (layer F.CrtYd) (width 0.05))
  (fp_line (start -1.45 4.75) (end 31.94 4.75) (layer F.CrtYd) (width 0.05))
  (fp_line (start 31.94 4.75) (end 31.94 -4.75) (layer F.CrtYd) (width 0.05))
  (fp_line (start 31.94 -4.75) (end -1.45 -4.75) (layer F.CrtYd) (width 0.05))
  (pad 1 thru_hole circle (at 0 0) (size 2.4 2.4) (drill 1.2) (layers *.Cu *.Mask))
  (pad 2 thru_hole oval (at 30.48 0) (size 2.4 2.4) (drill 1.2) (layers *.Cu *.Mask))
  (fp_text user %R (at 15.24 0) (layer F.Fab)
    (effects (font (size 1 1) (thickness 0.15)))
  )
  (model ${KICAD6_3DMODEL_DIR}/Resistor_THT.3dshapes/R_Axial_Power_L25.0mm_W9.0mm_P30.48mm.wrl
    (at (xyz 0 0 0))
    (scale (xyz 1 1 1))
    (rotate (xyz 0 0 0))
  )
)