(module R_Axial_DIN0414_L11.9mm_D4.5mm_P25.40mm_Horizontal (layer F.Cu) (tedit 5AE5139B)
  (descr "Resistor, Axial_DIN0414 series, Axial, Horizontal, pin pitch=25.4mm, 2W, length*diameter=11.9*4.5mm^2, http://www.vishay.com/docs/20128/wkxwrx.pdf")
  (tags "Resistor Axial_DIN0414 series Axial Horizontal pin pitch 25.4mm 2W length 11.9mm diameter 4.5mm")
  (fp_text reference REF** (at 12.7 -3.37) (layer F.SilkS)
    (effects (font (size 1 1) (thickness 0.15)))
  )
  (fp_text value R_Axial_DIN0414_L11.9mm_D4.5mm_P25.40mm_Horizontal (at 12.7 3.37) (layer F.Fab)
    (effects (font (size 1 1) (thickness 0.15)))
  )
  (fp_line (start 6.75 -2.25) (end 6.75 2.25) (layer F.Fab) (width 0.1))
  (fp_line (start 6.75 2.25) (end 18.65 2.25) (layer F.Fab) (width 0.1))
  (fp_line (start 18.65 2.25) (end 18.65 -2.25) (layer F.Fab) (width 0.1))
  (fp_line (start 18.65 -2.25) (end 6.75 -2.25) (layer F.Fab) (width 0.1))
  (fp_line (start 0 0) (end 6.75 0) (layer F.Fab) (width 0.1))
  (fp_line (start 25.4 0) (end 18.65 0) (layer F.Fab) (width 0.1))
  (fp_line (start 6.63 -2.37) (end 6.63 2.37) (layer F.SilkS) (width 0.12))
  (fp_line (start 6.63 2.37) (end 18.77 2.37) (layer F.SilkS) (width 0.12))
  (fp_line (start 18.77 2.37) (end 18.77 -2.37) (layer F.SilkS) (width 0.12))
  (fp_line (start 18.77 -2.37) (end 6.63 -2.37) (layer F.SilkS) (width 0.12))
  (fp_line (start 1.44 0) (end 6.63 0) (layer F.SilkS) (width 0.12))
  (fp_line (start 23.96 0) (end 18.77 0) (layer F.SilkS) (width 0.12))
  (fp_line (start -1.45 -2.5) (end -1.45 2.5) (layer F.CrtYd) (width 0.05))
  (fp_line (start -1.45 2.5) (end 26.85 2.5) (layer F.CrtYd) (width 0.05))
  (fp_line (start 26.85 2.5) (end 26.85 -2.5) (layer F.CrtYd) (width 0.05))
  (fp_line (start 26.85 -2.5) (end -1.45 -2.5) (layer F.CrtYd) (width 0.05))
  (pad 1 thru_hole circle (at 0 0) (size 2.4 2.4) (drill 1.2) (layers *.Cu *.Mask))
  (pad 2 thru_hole oval (at 25.4 0) (size 2.4 2.4) (drill 1.2) (layers *.Cu *.Mask))
  (fp_text user %R (at 12.7 0) (layer F.Fab)
    (effects (font (size 1 1) (thickness 0.15)))
  )
  (model ${KICAD6_3DMODEL_DIR}/Resistor_THT.3dshapes/R_Axial_DIN0414_L11.9mm_D4.5mm_P25.40mm_Horizontal.wrl
    (at (xyz 0 0 0))
    (scale (xyz 1 1 1))
    (rotate (xyz 0 0 0))
  )
)