(module R_Axial_Power_L20.0mm_W6.4mm_P25.40mm (layer F.Cu) (tedit 5AE5139B)
  (descr "Resistor, Axial_Power series, Box, pin pitch=25.4mm, 4W, length*width*height=20*6.4*6.4mm^3, http://cdn-reichelt.de/documents/datenblatt/B400/5WAXIAL_9WAXIAL_11WAXIAL_17WAXIAL%23YAG.pdf")
  (tags "Resistor Axial_Power series Box pin pitch 25.4mm 4W length 20mm width 6.4mm height 6.4mm")
  (fp_text reference REF** (at 12.7 -4.32) (layer F.SilkS)
    (effects (font (size 1 1) (thickness 0.15)))
  )
  (fp_text value R_Axial_Power_L20.0mm_W6.4mm_P25.40mm (at 12.7 4.32) (layer F.Fab)
    (effects (font (size 1 1) (thickness 0.15)))
  )
  (fp_line (start 2.7 -3.2) (end 2.7 3.2) (layer F.Fab) (width 0.1))
  (fp_line (start 2.7 3.2) (end 22.7 3.2) (layer F.Fab) (width 0.1))
  (fp_line (start 22.7 3.2) (end 22.7 -3.2) (layer F.Fab) (width 0.1))
  (fp_line (start 22.7 -3.2) (end 2.7 -3.2) (layer F.Fab) (width 0.1))
  (fp_line (start 0 0) (end 2.7 0) (layer F.Fab) (width 0.1))
  (fp_line (start 25.4 0) (end 22.7 0) (layer F.Fab) (width 0.1))
  (fp_line (start 2.58 -3.32) (end 2.58 3.32) (layer F.SilkS) (width 0.12))
  (fp_line (start 2.58 3.32) (end 22.82 3.32) (layer F.SilkS) (width 0.12))
  (fp_line (start 22.82 3.32) (end 22.82 -3.32) (layer F.SilkS) (width 0.12))
  (fp_line (start 22.82 -3.32) (end 2.58 -3.32) (layer F.SilkS) (width 0.12))
  (fp_line (start 1.44 0) (end 2.58 0) (layer F.SilkS) (width 0.12))
  (fp_line (start 23.96 0) (end 22.82 0) (layer F.SilkS) (width 0.12))
  (fp_line (start -1.45 -3.45) (end -1.45 3.45) (layer F.CrtYd) (width 0.05))
  (fp_line (start -1.45 3.45) (end 26.85 3.45) (layer F.CrtYd) (width 0.05))
  (fp_line (start 26.85 3.45) (end 26.85 -3.45) (layer F.CrtYd) (width 0.05))
  (fp_line (start 26.85 -3.45) (end -1.45 -3.45) (layer F.CrtYd) (width 0.05))
  (pad 1 thru_hole circle (at 0 0) (size 2.4 2.4) (drill 1.2) (layers *.Cu *.Mask))
  (pad 2 thru_hole oval (at 25.4 0) (size 2.4 2.4) (drill 1.2) (layers *.Cu *.Mask))
  (fp_text user %R (at 12.7 0) (layer F.Fab)
    (effects (font (size 1 1) (thickness 0.15)))
  )
  (model ${KICAD6_3DMODEL_DIR}/Resistor_THT.3dshapes/R_Axial_Power_L20.0mm_W6.4mm_P25.40mm.wrl
    (at (xyz 0 0 0))
    (scale (xyz 1 1 1))
    (rotate (xyz 0 0 0))
  )
)