(module R_Axial_DIN0516_L15.5mm_D5.0mm_P7.62mm_Vertical (layer F.Cu) (tedit 5AE5139B)
  (descr "Resistor, Axial_DIN0516 series, Axial, Vertical, pin pitch=7.62mm, 2W, length*diameter=15.5*5mm^2, http://cdn-reichelt.de/documents/datenblatt/B400/1_4W%23YAG.pdf")
  (tags "Resistor Axial_DIN0516 series Axial Vertical pin pitch 7.62mm 2W length 15.5mm diameter 5mm")
  (fp_text reference REF** (at 3.81 -3.62) (layer F.SilkS)
    (effects (font (size 1 1) (thickness 0.15)))
  )
  (fp_text value R_Axial_DIN0516_L15.5mm_D5.0mm_P7.62mm_Vertical (at 3.81 3.62) (layer F.Fab)
    (effects (font (size 1 1) (thickness 0.15)))
  )
  (fp_circle (center 0 0) (end 2.5 0) (layer F.Fab) (width 0.1))
  (fp_circle (center 0 0) (end 2.62 0) (layer F.SilkS) (width 0.12))
  (fp_line (start 0 0) (end 7.62 0) (layer F.Fab) (width 0.1))
  (fp_line (start 2.62 0) (end 6.12 0) (layer F.SilkS) (width 0.12))
  (fp_line (start -2.75 -2.75) (end -2.75 2.75) (layer F.CrtYd) (width 0.05))
  (fp_line (start -2.75 2.75) (end 9.07 2.75) (layer F.CrtYd) (width 0.05))
  (fp_line (start 9.07 2.75) (end 9.07 -2.75) (layer F.CrtYd) (width 0.05))
  (fp_line (start 9.07 -2.75) (end -2.75 -2.75) (layer F.CrtYd) (width 0.05))
  (pad 1 thru_hole circle (at 0 0) (size 2.4 2.4) (drill 1.2) (layers *.Cu *.Mask))
  (pad 2 thru_hole oval (at 7.62 0) (size 2.4 2.4) (drill 1.2) (layers *.Cu *.Mask))
  (fp_text user %R (at 3.81 -3.62) (layer F.Fab)
    (effects (font (size 1 1) (thickness 0.15)))
  )
  (model ${KICAD6_3DMODEL_DIR}/Resistor_THT.3dshapes/R_Axial_DIN0516_L15.5mm_D5.0mm_P7.62mm_Vertical.wrl
    (at (xyz 0 0 0))
    (scale (xyz 1 1 1))
    (rotate (xyz 0 0 0))
  )
)