(module R_Radial_Power_L12.0mm_W8.0mm_P5.00mm (layer F.Cu) (tedit 5AE5139B)
  (descr "Resistor, Radial_Power series, Radial, pin pitch=5.00mm, 3W, length*width=12.0*8.0mm^2, http://www.vishay.com/docs/30218/cpcx.pdf")
  (tags "Resistor Radial_Power series Radial pin pitch 5.00mm 3W length 12.0mm width 8.0mm")
  (fp_text reference REF** (at 2.5 -5.25) (layer F.SilkS)
    (effects (font (size 1 1) (thickness 0.15)))
  )
  (fp_text value R_Radial_Power_L12.0mm_W8.0mm_P5.00mm (at 2.5 5.25) (layer F.Fab)
    (effects (font (size 1 1) (thickness 0.15)))
  )
  (fp_line (start -3.5 -4) (end -3.5 4) (layer F.Fab) (width 0.1))
  (fp_line (start -3.5 4) (end 8.5 4) (layer F.Fab) (width 0.1))
  (fp_line (start 8.5 4) (end 8.5 -4) (layer F.Fab) (width 0.1))
  (fp_line (start 8.5 -4) (end -3.5 -4) (layer F.Fab) (width 0.1))
  (fp_line (start -2.5 -4) (end -2.5 4) (layer F.Fab) (width 0.1))
  (fp_line (start 7.5 -4) (end 7.5 4) (layer F.Fab) (width 0.1))
  (fp_line (start -3.62 -4.12) (end 8.62 -4.12) (layer F.SilkS) (width 0.12))
  (fp_line (start -3.62 4.12) (end 8.62 4.12) (layer F.SilkS) (width 0.12))
  (fp_line (start -3.62 -4.12) (end -3.62 4.12) (layer F.SilkS) (width 0.12))
  (fp_line (start 8.62 -4.12) (end 8.62 4.12) (layer F.SilkS) (width 0.12))
  (fp_line (start -2.5 -4.12) (end -2.5 4.12) (layer F.SilkS) (width 0.12))
  (fp_line (start 7.5 -4.12) (end 7.5 4.12) (layer F.SilkS) (width 0.12))
  (fp_line (start -3.75 -4.25) (end -3.75 4.25) (layer F.CrtYd) (width 0.05))
  (fp_line (start -3.75 4.25) (end 8.75 4.25) (layer F.CrtYd) (width 0.05))
  (fp_line (start 8.75 4.25) (end 8.75 -4.25) (layer F.CrtYd) (width 0.05))
  (fp_line (start 8.75 -4.25) (end -3.75 -4.25) (layer F.CrtYd) (width 0.05))
  (pad 1 thru_hole circle (at 0 0) (size 2.4 2.4) (drill 1.2) (layers *.Cu *.Mask))
  (pad 2 thru_hole circle (at 5 0) (size 2.4 2.4) (drill 1.2) (layers *.Cu *.Mask))
  (fp_text user %R (at 2.5 0) (layer F.Fab)
    (effects (font (size 1 1) (thickness 0.15)))
  )
  (model ${KICAD6_3DMODEL_DIR}/Resistor_THT.3dshapes/R_Radial_Power_L12.0mm_W8.0mm_P5.00mm.wrl
    (at (xyz 0 0 0))
    (scale (xyz 1 1 1))
    (rotate (xyz 0 0 0))
  )
)