(module R_Radial_Power_L16.1mm_W9.0mm_P7.37mm (layer F.Cu) (tedit 5AE5139B)
  (descr "Resistor, Radial_Power series, Radial, pin pitch=7.37mm, 10W, length*width=16.1*9mm^2, http://www.vishay.com/docs/30218/cpcx.pdf")
  (tags "Resistor Radial_Power series Radial pin pitch 7.37mm 10W length 16.1mm width 9mm")
  (fp_text reference REF** (at 3.685 -5.75) (layer F.SilkS)
    (effects (font (size 1 1) (thickness 0.15)))
  )
  (fp_text value R_Radial_Power_L16.1mm_W9.0mm_P7.37mm (at 3.685 5.75) (layer F.Fab)
    (effects (font (size 1 1) (thickness 0.15)))
  )
  (fp_line (start -4.365 -4.5) (end -4.365 4.5) (layer F.Fab) (width 0.1))
  (fp_line (start -4.365 4.5) (end 11.735 4.5) (layer F.Fab) (width 0.1))
  (fp_line (start 11.735 4.5) (end 11.735 -4.5) (layer F.Fab) (width 0.1))
  (fp_line (start 11.735 -4.5) (end -4.365 -4.5) (layer F.Fab) (width 0.1))
  (fp_line (start -2.865 -4.5) (end -2.865 4.5) (layer F.Fab) (width 0.1))
  (fp_line (start 10.235 -4.5) (end 10.235 4.5) (layer F.Fab) (width 0.1))
  (fp_line (start -4.485 -4.62) (end 11.855 -4.62) (layer F.SilkS) (width 0.12))
  (fp_line (start -4.485 4.62) (end 11.855 4.62) (layer F.SilkS) (width 0.12))
  (fp_line (start -4.485 -4.62) (end -4.485 4.62) (layer F.SilkS) (width 0.12))
  (fp_line (start 11.855 -4.62) (end 11.855 4.62) (layer F.SilkS) (width 0.12))
  (fp_line (start -2.866 -4.62) (end -2.866 4.62) (layer F.SilkS) (width 0.12))
  (fp_line (start 10.236 -4.62) (end 10.236 4.62) (layer F.SilkS) (width 0.12))
  (fp_line (start -4.62 -4.75) (end -4.62 4.75) (layer F.CrtYd) (width 0.05))
  (fp_line (start -4.62 4.75) (end 11.99 4.75) (layer F.CrtYd) (width 0.05))
  (fp_line (start 11.99 4.75) (end 11.99 -4.75) (layer F.CrtYd) (width 0.05))
  (fp_line (start 11.99 -4.75) (end -4.62 -4.75) (layer F.CrtYd) (width 0.05))
  (pad 1 thru_hole circle (at 0 0) (size 2.8 2.8) (drill 1.4) (layers *.Cu *.Mask))
  (pad 2 thru_hole circle (at 7.37 0) (size 2.8 2.8) (drill 1.4) (layers *.Cu *.Mask))
  (fp_text user %R (at 3.685 0) (layer F.Fab)
    (effects (font (size 1 1) (thickness 0.15)))
  )
  (model ${KICAD6_3DMODEL_DIR}/Resistor_THT.3dshapes/R_Radial_Power_L16.1mm_W9.0mm_P7.37mm.wrl
    (at (xyz 0 0 0))
    (scale (xyz 1 1 1))
    (rotate (xyz 0 0 0))
  )
)