(module LEM_HX15-NP (layer F.Cu) (tedit 5B0F08AF)
  (descr "LEM HX15-NP hall effect current transducer (https://www.lem.com/sites/default/files/products_datasheets/hx%205_15-np_e%20v10.pdf)")
  (tags "hall current")
  (fp_text reference REF** (at 5.42 -4.61) (layer F.SilkS)
    (effects (font (size 1 1) (thickness 0.15)))
  )
  (fp_text value LEM_HX15-NP (at 5.42 5.2) (layer F.Fab)
    (effects (font (size 1 1) (thickness 0.15)))
  )
  (fp_line (start -3.11 12.01) (end 16.11 12.01) (layer F.SilkS) (width 0.12))
  (fp_line (start 16.11 12.01) (end 16.11 -3.61) (layer F.SilkS) (width 0.12))
  (fp_line (start 16.11 -3.61) (end -3.11 -3.61) (layer F.SilkS) (width 0.12))
  (fp_line (start -3.11 -3.61) (end -3.11 12.01) (layer F.SilkS) (width 0.12))
  (fp_line (start -2 -3.5) (end -3 -2.5) (layer F.Fab) (width 0.1))
  (fp_line (start -3 -2.5) (end -3 11.9) (layer F.Fab) (width 0.1))
  (fp_line (start -3 11.9) (end 16 11.9) (layer F.Fab) (width 0.1))
  (fp_line (start 16 11.9) (end 16 -3.61) (layer F.Fab) (width 0.1))
  (fp_line (start 16 -3.5) (end -2 -3.5) (layer F.Fab) (width 0.1))
  (fp_line (start -3.25 -3.75) (end -3.25 12.15) (layer F.CrtYd) (width 0.05))
  (fp_line (start -3.25 12.15) (end 16.25 12.15) (layer F.CrtYd) (width 0.05))
  (fp_line (start 16.25 12.15) (end 16.25 -3.75) (layer F.CrtYd) (width 0.05))
  (fp_line (start 16.25 -3.75) (end -3.25 -3.75) (layer F.CrtYd) (width 0.05))
  (fp_text user %R (at 5.42 3.2) (layer F.Fab)
    (effects (font (size 1 1) (thickness 0.15)))
  )
  (fp_line (start -1.9 -3.86) (end -3.36 -3.86) (layer F.SilkS) (width 0.12))
  (fp_line (start -3.36 -2.4) (end -3.36 -3.86) (layer F.SilkS) (width 0.12))
  (pad 5 thru_hole circle (at 10.85 1) (size 2.4 2.4) (drill 1.4) (layers *.Cu *.Mask))
  (pad 6 thru_hole circle (at 10.85 7) (size 2.4 2.4) (drill 1.4) (layers *.Cu *.Mask))
  (pad 3 thru_hole circle (at 0 5.08) (size 1.75 1.75) (drill 0.76) (layers *.Cu *.Mask))
  (pad 2 thru_hole circle (at 0 2.54) (size 1.75 1.75) (drill 0.76) (layers *.Cu *.Mask))
  (pad 1 thru_hole rect (at 0 0) (size 1.75 1.75) (drill 0.76) (layers *.Cu *.Mask))
  (pad 4 thru_hole circle (at 0 7.62) (size 1.75 1.75) (drill 0.76) (layers *.Cu *.Mask))
  (pad 7 thru_hole circle (at 14.35 1) (size 2.4 2.4) (drill 1.4) (layers *.Cu *.Mask))
  (pad 8 thru_hole circle (at 14.35 7) (size 2.4 2.4) (drill 1.4) (layers *.Cu *.Mask))
  (model ${KICAD6_3DMODEL_DIR}/Sensor_Current.3dshapes/LEM_HX15-NP.wrl
    (at (xyz 0 0 0))
    (scale (xyz 1 1 1))
    (rotate (xyz 0 0 0))
  )
)
