(module Quectel_L80-R (layer F.Cu) (tedit 5F72C6D4)
  (descr "Quectel L80-R GPS Module, Patch on Top, https://www.quectel.com/UploadImage/Downlad/Quectel_L80-R_Hardware_Design_V1.2.pdf")
  (tags "quectel GPS GNSS")
  (attr smd)
  (fp_text reference REF** (at 0 -9 -180) (layer F.SilkS)
    (effects (font (size 1 1) (thickness 0.15)))
  )
  (fp_text value Quectel_L80-R (at 0 9 -180) (layer F.Fab)
    (effects (font (size 1 1) (thickness 0.15)))
  )
  (fp_circle (center -0.6 -0.63) (end 0.65 -0.63) (layer Dwgs.User) (width 0.12))
  (fp_line (start -8.11 -8.11) (end -8.11 -6.5) (layer F.SilkS) (width 0.12))
  (fp_line (start 8 8.11) (end -8 8.11) (layer F.SilkS) (width 0.12))
  (fp_line (start 8 -8.11) (end -8.11 -8.11) (layer F.SilkS) (width 0.12))
  (fp_line (start 9.25 8.25) (end 9.25 -8.25) (layer F.CrtYd) (width 0.05))
  (fp_line (start -9.25 -8.25) (end -9.25 8.25) (layer F.CrtYd) (width 0.05))
  (fp_line (start -9.25 8.25) (end 9.25 8.25) (layer F.CrtYd) (width 0.05))
  (fp_line (start -9.25 -8.25) (end 9.25 -8.25) (layer F.CrtYd) (width 0.05))
  (fp_line (start -8 8) (end -8 -8) (layer F.Fab) (width 0.1))
  (fp_line (start 8 8) (end 8 -8) (layer F.Fab) (width 0.1))
  (fp_line (start 8 8) (end -8 8) (layer F.Fab) (width 0.1))
  (fp_line (start 8 -8) (end -8 -8) (layer F.Fab) (width 0.1))
  (fp_text user %R (at 0 2.032) (layer F.Fab)
    (effects (font (size 1 1) (thickness 0.15)))
  )
  (fp_text user Keepout (at -0.6 -0.63) (layer Cmts.User)
    (effects (font (size 0.4 0.4) (thickness 0.1)))
  )
  (pad 1 smd rect (at -7.75 -5.85 180) (size 2.5 1) (layers F.Cu F.Paste F.Mask))
  (pad 2 smd rect (at -7.75 -3.31 180) (size 2.5 1) (layers F.Cu F.Paste F.Mask))
  (pad 3 smd rect (at -7.75 -0.77 180) (size 2.5 1) (layers F.Cu F.Paste F.Mask))
  (pad 4 smd rect (at -7.75 1.77 180) (size 2.5 1) (layers F.Cu F.Paste F.Mask))
  (pad 5 smd rect (at -7.75 4.31 180) (size 2.5 1) (layers F.Cu F.Paste F.Mask))
  (pad 6 smd rect (at -7.75 6.85 180) (size 2.5 1) (layers F.Cu F.Paste F.Mask))
  (pad 7 smd rect (at 7.75 6.85 180) (size 2.5 1) (layers F.Cu F.Paste F.Mask))
  (pad 8 smd rect (at 7.75 4.31 180) (size 2.5 1) (layers F.Cu F.Paste F.Mask))
  (pad 9 smd rect (at 7.75 1.77 180) (size 2.5 1) (layers F.Cu F.Paste F.Mask))
  (pad 10 smd rect (at 7.75 -0.77 180) (size 2.5 1) (layers F.Cu F.Paste F.Mask))
  (pad 11 smd rect (at 7.75 -3.31 180) (size 2.5 1) (layers F.Cu F.Paste F.Mask))
  (pad 12 smd rect (at 7.75 -5.85 180) (size 2.5 1) (layers F.Cu F.Paste F.Mask))
  (model ${KICAD6_3DMODEL_DIR}/RF_GPS.3dshapes/Quectel_L80-R.wrl
    (at (xyz 0 0 0))
    (scale (xyz 1 1 1))
    (rotate (xyz 0 0 0))
  )
)
