(module ublox_LEA (layer F.Cu) (tedit 5E9E8E6B)
  (descr "ublox LEA 6/7/8, (https://www.u-blox.com/sites/default/files/LEA-M8S-M8T-FW3_HardwareIntegrationManual_%28UBX-15030060%29.pdf)")
  (tags "GPS ublox LEA 6/7/8")
  (attr smd)
  (fp_text reference REF** (at 0 -12) (layer F.SilkS)
    (effects (font (size 1 1) (thickness 0.15)))
  )
  (fp_text value ublox_LEA (at 0 1.3) (layer F.Fab)
    (effects (font (size 1 1) (thickness 0.15)))
  )
  (fp_text user %R (at 0 -0.7) (layer F.Fab)
    (effects (font (size 1 1) (thickness 0.15)))
  )
  (fp_line (start -7.5 -11.05) (end 8.5 -11.05) (layer F.Fab) (width 0.1))
  (fp_line (start 8.5 -11.05) (end 8.5 11.35) (layer F.Fab) (width 0.1))
  (fp_line (start -8.5 11.35) (end 8.5 11.35) (layer F.Fab) (width 0.1))
  (fp_line (start -8.5 -10.05) (end -8.5 11.34) (layer F.Fab) (width 0.1))
  (fp_line (start 8.61 -11.16) (end 8.61 -9.16) (layer F.SilkS) (width 0.12))
  (fp_line (start -8.61 -11.16) (end 8.61 -11.16) (layer F.SilkS) (width 0.12))
  (fp_line (start 8.61 -0.14) (end 8.61 2.34) (layer F.SilkS) (width 0.12))
  (fp_line (start -8.61 9.16) (end -8.61 11.46) (layer F.SilkS) (width 0.12))
  (fp_line (start -8.61 11.46) (end 8.61 11.46) (layer F.SilkS) (width 0.12))
  (fp_line (start 8.61 9.16) (end 8.61 11.46) (layer F.SilkS) (width 0.12))
  (fp_line (start -8.61 -0.14) (end -8.61 2.34) (layer F.SilkS) (width 0.12))
  (fp_line (start -9.55 -11.3) (end 9.55 -11.3) (layer F.CrtYd) (width 0.05))
  (fp_line (start -9.55 11.6) (end 9.55 11.6) (layer F.CrtYd) (width 0.05))
  (fp_line (start -9.55 -11.3) (end -9.55 11.6) (layer F.CrtYd) (width 0.05))
  (fp_line (start 9.55 -11.3) (end 9.55 11.6) (layer F.CrtYd) (width 0.05))
  (fp_line (start -7.5 -11.05) (end -8.5 -10.05) (layer F.Fab) (width 0.1))
  (fp_line (start -8.61 -11.16) (end -8.61 -9.16) (layer F.SilkS) (width 0.12))
  (fp_line (start -9.3 -9.16) (end -8.61 -9.16) (layer F.SilkS) (width 0.12))
  (pad 1 smd roundrect (at -8.4 -8.5) (size 1.8 0.8) (layers F.Cu F.Paste F.Mask) (roundrect_rratio 0.25))
  (pad 2 smd roundrect (at -8.4 -7.4) (size 1.8 0.8) (layers F.Cu F.Paste F.Mask) (roundrect_rratio 0.25))
  (pad 3 smd roundrect (at -8.4 -6.3) (size 1.8 0.8) (layers F.Cu F.Paste F.Mask) (roundrect_rratio 0.25))
  (pad 4 smd roundrect (at -8.4 -5.2) (size 1.8 0.8) (layers F.Cu F.Paste F.Mask) (roundrect_rratio 0.25))
  (pad 5 smd roundrect (at -8.4 -4.1) (size 1.8 0.8) (layers F.Cu F.Paste F.Mask) (roundrect_rratio 0.25))
  (pad 6 smd roundrect (at -8.4 -3) (size 1.8 0.8) (layers F.Cu F.Paste F.Mask) (roundrect_rratio 0.25))
  (pad 7 smd roundrect (at -8.4 -1.9) (size 1.8 0.8) (layers F.Cu F.Paste F.Mask) (roundrect_rratio 0.25))
  (pad 8 smd roundrect (at -8.4 -0.8) (size 1.8 0.8) (layers F.Cu F.Paste F.Mask) (roundrect_rratio 0.25))
  (pad 9 smd roundrect (at -8.4 3) (size 1.8 0.8) (layers F.Cu F.Paste F.Mask) (roundrect_rratio 0.25))
  (pad 10 smd roundrect (at -8.4 4.1) (size 1.8 0.8) (layers F.Cu F.Paste F.Mask) (roundrect_rratio 0.25))
  (pad 11 smd roundrect (at -8.4 5.2) (size 1.8 0.8) (layers F.Cu F.Paste F.Mask) (roundrect_rratio 0.25))
  (pad 12 smd roundrect (at -8.4 6.3) (size 1.8 0.8) (layers F.Cu F.Paste F.Mask) (roundrect_rratio 0.25))
  (pad 13 smd roundrect (at -8.4 7.4) (size 1.8 0.8) (layers F.Cu F.Paste F.Mask) (roundrect_rratio 0.25))
  (pad 14 smd roundrect (at -8.4 8.5) (size 1.8 0.8) (layers F.Cu F.Paste F.Mask) (roundrect_rratio 0.25))
  (pad 15 smd roundrect (at 8.4 8.5) (size 1.8 0.8) (layers F.Cu F.Paste F.Mask) (roundrect_rratio 0.25))
  (pad 16 smd roundrect (at 8.4 7.4) (size 1.8 0.8) (layers F.Cu F.Paste F.Mask) (roundrect_rratio 0.25))
  (pad 17 smd roundrect (at 8.4 6.3) (size 1.8 0.8) (layers F.Cu F.Paste F.Mask) (roundrect_rratio 0.25))
  (pad 18 smd roundrect (at 8.4 5.2) (size 1.8 0.8) (layers F.Cu F.Paste F.Mask) (roundrect_rratio 0.25))
  (pad 19 smd roundrect (at 8.4 4.1) (size 1.8 0.8) (layers F.Cu F.Paste F.Mask) (roundrect_rratio 0.25))
  (pad 20 smd roundrect (at 8.4 3) (size 1.8 0.8) (layers F.Cu F.Paste F.Mask) (roundrect_rratio 0.25))
  (pad 21 smd roundrect (at 8.4 -0.8) (size 1.8 0.8) (layers F.Cu F.Paste F.Mask) (roundrect_rratio 0.25))
  (pad 22 smd roundrect (at 8.4 -1.9) (size 1.8 0.8) (layers F.Cu F.Paste F.Mask) (roundrect_rratio 0.25))
  (pad 23 smd roundrect (at 8.4 -3) (size 1.8 0.8) (layers F.Cu F.Paste F.Mask) (roundrect_rratio 0.25))
  (pad 24 smd roundrect (at 8.4 -4.1) (size 1.8 0.8) (layers F.Cu F.Paste F.Mask) (roundrect_rratio 0.25))
  (pad 25 smd roundrect (at 8.4 -5.2) (size 1.8 0.8) (layers F.Cu F.Paste F.Mask) (roundrect_rratio 0.25))
  (pad 26 smd roundrect (at 8.4 -6.3) (size 1.8 0.8) (layers F.Cu F.Paste F.Mask) (roundrect_rratio 0.25))
  (pad 27 smd roundrect (at 8.4 -7.4) (size 1.8 0.8) (layers F.Cu F.Paste F.Mask) (roundrect_rratio 0.25))
  (pad 28 smd roundrect (at 8.4 -8.5) (size 1.8 0.8) (layers F.Cu F.Paste F.Mask) (roundrect_rratio 0.25))
  (model ${KICAD6_3DMODEL_DIR}/RF_GPS.3dshapes/ublox_LEA.wrl
    (at (xyz 0 0 0))
    (scale (xyz 1 1 1))
    (rotate (xyz 0 0 0))
  )
)
