(module ublox_SAM-M8Q (layer F.Cu) (tedit 5C292C10)
  (descr "GPS Module, 15.5x15.5x6.3mm, https://www.u-blox.com/sites/default/files/SAM-M8Q_HardwareIntegrationManual_%28UBX-16018358%29.pdf")
  (tags "ublox SAM-M8Q")
  (solder_mask_margin 0.000001)
  (attr smd)
  (fp_text reference REF** (at 0 -8.75) (layer F.SilkS)
    (effects (font (size 1 1) (thickness 0.15)))
  )
  (fp_text value ublox_SAM-M8Q (at 0 8.75) (layer F.Fab)
    (effects (font (size 1 1) (thickness 0.15)))
  )
  (fp_text user %R (at 0 0) (layer F.Fab)
    (effects (font (size 1 1) (thickness 0.15)))
  )
  (fp_line (start -7.86 -2.8) (end -7.86 7.86) (layer F.SilkS) (width 0.12))
  (fp_line (start -7.86 7.86) (end 7.86 7.86) (layer F.SilkS) (width 0.12))
  (fp_line (start 7.86 -7.86) (end 7.86 7.86) (layer F.SilkS) (width 0.12))
  (fp_line (start -7.75 -7.86) (end 7.86 -7.86) (layer F.SilkS) (width 0.12))
  (fp_line (start 8 -8) (end -8 -8) (layer F.CrtYd) (width 0.05))
  (fp_line (start 8 8) (end 8 -8) (layer F.CrtYd) (width 0.05))
  (fp_line (start -8 8) (end 8 8) (layer F.CrtYd) (width 0.05))
  (fp_line (start -8 -8) (end -8 8) (layer F.CrtYd) (width 0.05))
  (fp_line (start 4.5 -5.5) (end -4.5 -5.5) (layer F.Fab) (width 0.1))
  (fp_line (start 5.5 4.5) (end 5.5 -4.5) (layer F.Fab) (width 0.1))
  (fp_line (start -4.5 5.5) (end 4.5 5.5) (layer F.Fab) (width 0.1))
  (fp_line (start -5.5 -4.5) (end -5.5 4.5) (layer F.Fab) (width 0.1))
  (fp_arc (start -4.5 -4.5) (end -5.5 -4.5) (angle 90) (layer F.Fab) (width 0.1))
  (fp_arc (start 4.5 -4.5) (end 4.5 -5.5) (angle 90) (layer F.Fab) (width 0.1))
  (fp_arc (start 4.5 4.5) (end 5.5 4.5) (angle 90) (layer F.Fab) (width 0.1))
  (fp_arc (start -4.5 4.5) (end -4.5 5.5) (angle 90) (layer F.Fab) (width 0.1))
  (fp_line (start -7.75 7.75) (end 7.75 7.75) (layer F.Fab) (width 0.1))
  (fp_line (start -7.75 -7.75) (end -7.75 7.75) (layer F.Fab) (width 0.1))
  (fp_line (start 7.75 -7.75) (end -7.75 -7.75) (layer F.Fab) (width 0.1))
  (fp_line (start 7.75 7.75) (end 7.75 -7.75) (layer F.Fab) (width 0.1))
  (fp_line (start -6 -3.8) (end -7.75 -3.1) (layer F.Fab) (width 0.1))
  (fp_line (start -6 -3.8) (end -7.75 -4.5) (layer F.Fab) (width 0.1))
  (pad "" smd rect (at 7.1 4.225) (size 0.72 0.58) (layers F.Paste))
  (pad "" smd rect (at 6.1 4.225) (size 0.72 0.58) (layers F.Paste))
  (pad "" smd rect (at 7.1 3.375) (size 0.72 0.58) (layers F.Paste))
  (pad "" smd rect (at 6.1 3.375) (size 0.72 0.58) (layers F.Paste))
  (pad "" smd rect (at 7.1 2.325) (size 0.72 0.58) (layers F.Paste))
  (pad "" smd rect (at 6.1 2.325) (size 0.72 0.58) (layers F.Paste))
  (pad "" smd rect (at 7.1 1.475) (size 0.72 0.58) (layers F.Paste))
  (pad "" smd rect (at 6.1 1.475) (size 0.72 0.58) (layers F.Paste))
  (pad "" smd rect (at 7.1 0.425) (size 0.72 0.58) (layers F.Paste))
  (pad "" smd rect (at 6.1 0.425) (size 0.72 0.58) (layers F.Paste))
  (pad "" smd rect (at 7.1 -0.425) (size 0.72 0.58) (layers F.Paste))
  (pad "" smd rect (at 6.1 -0.425) (size 0.72 0.58) (layers F.Paste))
  (pad "" smd rect (at 7.1 -1.475) (size 0.72 0.58) (layers F.Paste))
  (pad "" smd rect (at 6.1 -1.475) (size 0.72 0.58) (layers F.Paste))
  (pad "" smd rect (at 7.1 -2.325) (size 0.72 0.58) (layers F.Paste))
  (pad "" smd rect (at 6.1 -2.325) (size 0.72 0.58) (layers F.Paste))
  (pad "" smd rect (at 7.1 -3.375) (size 0.72 0.58) (layers F.Paste))
  (pad "" smd rect (at 6.1 -3.375) (size 0.72 0.58) (layers F.Paste))
  (pad "" smd rect (at 7.1 -4.225) (size 0.72 0.58) (layers F.Paste))
  (pad "" smd rect (at 6.1 -4.225) (size 0.72 0.58) (layers F.Paste))
  (pad "" smd rect (at -6.1 4.225) (size 0.72 0.58) (layers F.Paste))
  (pad "" smd rect (at -7.1 4.225) (size 0.72 0.58) (layers F.Paste))
  (pad "" smd rect (at -6.1 3.375) (size 0.72 0.58) (layers F.Paste))
  (pad "" smd rect (at -7.1 3.375) (size 0.72 0.58) (layers F.Paste))
  (pad "" smd rect (at -6.1 2.325) (size 0.72 0.58) (layers F.Paste))
  (pad "" smd rect (at -7.1 2.325) (size 0.72 0.58) (layers F.Paste))
  (pad "" smd rect (at -6.1 1.475) (size 0.72 0.58) (layers F.Paste))
  (pad "" smd rect (at -7.1 1.475) (size 0.72 0.58) (layers F.Paste))
  (pad "" smd rect (at -6.1 0.425) (size 0.72 0.58) (layers F.Paste))
  (pad "" smd rect (at -7.1 0.425) (size 0.72 0.58) (layers F.Paste))
  (pad "" smd rect (at -6.1 -0.425) (size 0.72 0.58) (layers F.Paste))
  (pad "" smd rect (at -7.1 -0.425) (size 0.72 0.58) (layers F.Paste))
  (pad "" smd rect (at -6.1 -1.475) (size 0.72 0.58) (layers F.Paste))
  (pad "" smd rect (at -7.1 -1.475) (size 0.72 0.58) (layers F.Paste))
  (pad "" smd rect (at -6.1 -2.325) (size 0.72 0.58) (layers F.Paste))
  (pad "" smd rect (at -7.1 -2.325) (size 0.72 0.58) (layers F.Paste))
  (pad "" smd rect (at -6.1 -3.375) (size 0.72 0.58) (layers F.Paste))
  (pad "" smd rect (at -6.1 -4.225) (size 0.72 0.58) (layers F.Paste))
  (pad "" smd rect (at -7.1 -3.375) (size 0.72 0.58) (layers F.Paste))
  (pad "" smd rect (at -7.1 -4.225) (size 0.72 0.58) (layers F.Paste))
  (pad "" smd rect (at 4.225 -7.1) (size 0.58 0.72) (layers F.Paste))
  (pad "" smd rect (at 3.375 -7.1) (size 0.58 0.72) (layers F.Paste))
  (pad "" smd rect (at 4.225 -6.1) (size 0.58 0.72) (layers F.Paste))
  (pad "" smd rect (at 3.375 -6.1) (size 0.58 0.72) (layers F.Paste))
  (pad "" smd rect (at 2.325 -7.1) (size 0.58 0.72) (layers F.Paste))
  (pad "" smd rect (at 1.475 -7.1) (size 0.58 0.72) (layers F.Paste))
  (pad "" smd rect (at 2.325 -6.1) (size 0.58 0.72) (layers F.Paste))
  (pad "" smd rect (at 1.475 -6.1) (size 0.58 0.72) (layers F.Paste))
  (pad "" smd rect (at 0.425 -7.1) (size 0.58 0.72) (layers F.Paste))
  (pad "" smd rect (at -0.425 -7.1) (size 0.58 0.72) (layers F.Paste))
  (pad "" smd rect (at 0.425 -6.1) (size 0.58 0.72) (layers F.Paste))
  (pad "" smd rect (at -0.425 -6.1) (size 0.58 0.72) (layers F.Paste))
  (pad "" smd rect (at -3.375 -7.1) (size 0.58 0.72) (layers F.Paste))
  (pad "" smd rect (at -2.325 -7.1) (size 0.58 0.72) (layers F.Paste))
  (pad "" smd rect (at -3.375 -6.1) (size 0.58 0.72) (layers F.Paste))
  (pad "" smd rect (at -2.325 -6.1) (size 0.58 0.72) (layers F.Paste))
  (pad "" smd rect (at -1.475 -7.1) (size 0.58 0.72) (layers F.Paste))
  (pad "" smd rect (at -4.225 -7.1) (size 0.58 0.72) (layers F.Paste))
  (pad "" smd rect (at -1.475 -6.1) (size 0.58 0.72) (layers F.Paste))
  (pad "" smd rect (at -4.225 -6.1) (size 0.58 0.72) (layers F.Paste))
  (pad "" smd rect (at 4.225 7.1) (size 0.58 0.72) (layers F.Paste))
  (pad "" smd rect (at 3.375 7.1) (size 0.58 0.72) (layers F.Paste))
  (pad "" smd rect (at 4.225 6.1) (size 0.58 0.72) (layers F.Paste))
  (pad "" smd rect (at 3.375 6.1) (size 0.58 0.72) (layers F.Paste))
  (pad "" smd rect (at 1.475 7.1) (size 0.58 0.72) (layers F.Paste))
  (pad "" smd rect (at 2.325 7.1) (size 0.58 0.72) (layers F.Paste))
  (pad "" smd rect (at 1.475 6.1) (size 0.58 0.72) (layers F.Paste))
  (pad "" smd rect (at 2.325 6.1) (size 0.58 0.72) (layers F.Paste))
  (pad "" smd rect (at 0.425 7.1) (size 0.58 0.72) (layers F.Paste))
  (pad "" smd rect (at -0.425 7.1) (size 0.58 0.72) (layers F.Paste))
  (pad "" smd rect (at 0.425 6.1) (size 0.58 0.72) (layers F.Paste))
  (pad "" smd rect (at -0.425 6.1) (size 0.58 0.72) (layers F.Paste))
  (pad "" smd rect (at -1.475 7.1) (size 0.58 0.72) (layers F.Paste))
  (pad "" smd rect (at -2.325 7.1) (size 0.58 0.72) (layers F.Paste))
  (pad "" smd rect (at -1.475 6.1) (size 0.58 0.72) (layers F.Paste))
  (pad "" smd rect (at -2.325 6.1) (size 0.58 0.72) (layers F.Paste))
  (pad "" smd rect (at -3.375 7.1) (size 0.58 0.72) (layers F.Paste))
  (pad "" smd rect (at -4.225 7.1) (size 0.58 0.72) (layers F.Paste))
  (pad "" smd rect (at -3.375 6.1) (size 0.58 0.72) (layers F.Paste))
  (pad "" smd rect (at -4.225 6.1) (size 0.58 0.72) (layers F.Paste))
  (pad 1 smd rect (at -6.6 -3.8) (size 1.8 1.5) (layers F.Cu F.Mask))
  (pad 2 smd rect (at -6.6 -1.9) (size 1.8 1.5) (layers F.Cu F.Mask))
  (pad 3 smd rect (at -6.6 0) (size 1.8 1.5) (layers F.Cu F.Mask))
  (pad 4 smd rect (at -6.6 1.9) (size 1.8 1.5) (layers F.Cu F.Mask))
  (pad 5 smd rect (at -6.6 3.8) (size 1.8 1.5) (layers F.Cu F.Mask))
  (pad 6 smd rect (at -3.8 6.6) (size 1.5 1.8) (layers F.Cu F.Mask))
  (pad 7 smd rect (at -1.9 6.6) (size 1.5 1.8) (layers F.Cu F.Mask))
  (pad 8 smd rect (at 0 6.6) (size 1.5 1.8) (layers F.Cu F.Mask))
  (pad 9 smd rect (at 1.9 6.6) (size 1.5 1.8) (layers F.Cu F.Mask))
  (pad 10 smd rect (at 3.8 6.6) (size 1.5 1.8) (layers F.Cu F.Mask))
  (pad 11 smd rect (at 6.6 3.8) (size 1.8 1.5) (layers F.Cu F.Mask))
  (pad 12 smd rect (at 6.6 1.9) (size 1.8 1.5) (layers F.Cu F.Mask))
  (pad 13 smd rect (at 6.6 0) (size 1.8 1.5) (layers F.Cu F.Mask))
  (pad 14 smd rect (at 6.6 -1.9) (size 1.8 1.5) (layers F.Cu F.Mask))
  (pad 15 smd rect (at 6.6 -3.8) (size 1.8 1.5) (layers F.Cu F.Mask))
  (pad 16 smd rect (at 3.8 -6.6) (size 1.5 1.8) (layers F.Cu F.Mask))
  (pad 17 smd rect (at 1.9 -6.6) (size 1.5 1.8) (layers F.Cu F.Mask))
  (pad 18 smd rect (at 0 -6.6) (size 1.5 1.8) (layers F.Cu F.Mask))
  (pad 19 smd rect (at -1.9 -6.6) (size 1.5 1.8) (layers F.Cu F.Mask))
  (pad 20 smd rect (at -3.8 -6.6) (size 1.5 1.8) (layers F.Cu F.Mask))
  (model ${KICAD6_3DMODEL_DIR}/RF_GPS.3dshapes/ublox_SAM-M8Q.wrl
    (at (xyz 0 0 0))
    (scale (xyz 1 1 1))
    (rotate (xyz 0 0 0))
  )
)
