(module PLCC-84_SMD-Socket (layer F.Cu) (tedit 5A02ECC8)
  (descr "PLCC, 84 pins, surface mount")
  (tags "plcc smt")
  (attr smd)
  (fp_text reference REF** (at 0 -19) (layer F.SilkS)
    (effects (font (size 1 1) (thickness 0.15)))
  )
  (fp_text value PLCC-84_SMD-Socket (at 0 19) (layer F.Fab)
    (effects (font (size 1 1) (thickness 0.15)))
  )
  (fp_line (start -17 -18) (end -18 -17) (layer F.Fab) (width 0.1))
  (fp_line (start -18 -17) (end -18 18) (layer F.Fab) (width 0.1))
  (fp_line (start -18 18) (end 18 18) (layer F.Fab) (width 0.1))
  (fp_line (start 18 18) (end 18 -18) (layer F.Fab) (width 0.1))
  (fp_line (start 18 -18) (end -17 -18) (layer F.Fab) (width 0.1))
  (fp_line (start -18.5 -18.5) (end -18.5 18.5) (layer F.CrtYd) (width 0.05))
  (fp_line (start -18.5 18.5) (end 18.5 18.5) (layer F.CrtYd) (width 0.05))
  (fp_line (start 18.5 18.5) (end 18.5 -18.5) (layer F.CrtYd) (width 0.05))
  (fp_line (start 18.5 -18.5) (end -18.5 -18.5) (layer F.CrtYd) (width 0.05))
  (fp_line (start -14.175 -15.175) (end -15.175 -14.175) (layer F.Fab) (width 0.1))
  (fp_line (start -15.175 -14.175) (end -15.175 15.175) (layer F.Fab) (width 0.1))
  (fp_line (start -15.175 15.175) (end 15.175 15.175) (layer F.Fab) (width 0.1))
  (fp_line (start 15.175 15.175) (end 15.175 -15.175) (layer F.Fab) (width 0.1))
  (fp_line (start 15.175 -15.175) (end -14.175 -15.175) (layer F.Fab) (width 0.1))
  (fp_line (start -16.73 -16.73) (end -16.73 16.73) (layer F.Fab) (width 0.1))
  (fp_line (start -16.73 16.73) (end 16.73 16.73) (layer F.Fab) (width 0.1))
  (fp_line (start 16.73 16.73) (end 16.73 -16.73) (layer F.Fab) (width 0.1))
  (fp_line (start 16.73 -16.73) (end -16.73 -16.73) (layer F.Fab) (width 0.1))
  (fp_line (start -0.5 -18) (end 0 -17) (layer F.Fab) (width 0.1))
  (fp_line (start 0 -17) (end 0.5 -18) (layer F.Fab) (width 0.1))
  (fp_line (start -1 -18.15) (end -17.15 -18.15) (layer F.SilkS) (width 0.12))
  (fp_line (start -17.15 -18.15) (end -18.15 -17.15) (layer F.SilkS) (width 0.12))
  (fp_line (start -18.15 -17.15) (end -18.15 18.15) (layer F.SilkS) (width 0.12))
  (fp_line (start -18.15 18.15) (end 18.15 18.15) (layer F.SilkS) (width 0.12))
  (fp_line (start 18.15 18.15) (end 18.15 -18.15) (layer F.SilkS) (width 0.12))
  (fp_line (start 18.15 -18.15) (end 1 -18.15) (layer F.SilkS) (width 0.12))
  (fp_line (start -13.675 -15.325) (end -14.175 -15.325) (layer F.SilkS) (width 0.1))
  (fp_line (start -14.175 -15.325) (end -15.325 -14.175) (layer F.SilkS) (width 0.1))
  (fp_line (start -15.325 -14.175) (end -15.325 -13.675) (layer F.SilkS) (width 0.1))
  (fp_line (start 13.675 -15.325) (end 15.325 -15.325) (layer F.SilkS) (width 0.1))
  (fp_line (start 15.325 -15.325) (end 15.325 -13.675) (layer F.SilkS) (width 0.1))
  (fp_line (start -13.675 15.325) (end -15.325 15.325) (layer F.SilkS) (width 0.1))
  (fp_line (start -15.325 15.325) (end -15.325 13.675) (layer F.SilkS) (width 0.1))
  (fp_line (start 13.675 15.325) (end 15.325 15.325) (layer F.SilkS) (width 0.1))
  (fp_line (start 15.325 15.325) (end 15.325 13.675) (layer F.SilkS) (width 0.1))
  (pad 1 smd rect (at 0 -14.2125) (size 0.7 1.925) (layers F.Cu F.Mask F.Paste))
  (pad 2 smd rect (at -1.27 -14.2125) (size 0.7 1.925) (layers F.Cu F.Mask F.Paste))
  (pad 3 smd rect (at -2.54 -14.2125) (size 0.7 1.925) (layers F.Cu F.Mask F.Paste))
  (pad 4 smd rect (at -3.81 -14.2125) (size 0.7 1.925) (layers F.Cu F.Mask F.Paste))
  (pad 5 smd rect (at -5.08 -14.2125) (size 0.7 1.925) (layers F.Cu F.Mask F.Paste))
  (pad 6 smd rect (at -6.35 -14.2125) (size 0.7 1.925) (layers F.Cu F.Mask F.Paste))
  (pad 7 smd rect (at -7.62 -14.2125) (size 0.7 1.925) (layers F.Cu F.Mask F.Paste))
  (pad 8 smd rect (at -8.89 -14.2125) (size 0.7 1.925) (layers F.Cu F.Mask F.Paste))
  (pad 9 smd rect (at -10.16 -14.2125) (size 0.7 1.925) (layers F.Cu F.Mask F.Paste))
  (pad 10 smd rect (at -11.43 -14.2125) (size 0.7 1.925) (layers F.Cu F.Mask F.Paste))
  (pad 11 smd rect (at -12.7 -14.2125) (size 0.7 1.925) (layers F.Cu F.Mask F.Paste))
  (pad 84 smd rect (at 1.27 -14.2125) (size 0.7 1.925) (layers F.Cu F.Mask F.Paste))
  (pad 83 smd rect (at 2.54 -14.2125) (size 0.7 1.925) (layers F.Cu F.Mask F.Paste))
  (pad 82 smd rect (at 3.81 -14.2125) (size 0.7 1.925) (layers F.Cu F.Mask F.Paste))
  (pad 81 smd rect (at 5.08 -14.2125) (size 0.7 1.925) (layers F.Cu F.Mask F.Paste))
  (pad 80 smd rect (at 6.35 -14.2125) (size 0.7 1.925) (layers F.Cu F.Mask F.Paste))
  (pad 79 smd rect (at 7.62 -14.2125) (size 0.7 1.925) (layers F.Cu F.Mask F.Paste))
  (pad 78 smd rect (at 8.89 -14.2125) (size 0.7 1.925) (layers F.Cu F.Mask F.Paste))
  (pad 77 smd rect (at 10.16 -14.2125) (size 0.7 1.925) (layers F.Cu F.Mask F.Paste))
  (pad 76 smd rect (at 11.43 -14.2125) (size 0.7 1.925) (layers F.Cu F.Mask F.Paste))
  (pad 75 smd rect (at 12.7 -14.2125) (size 0.7 1.925) (layers F.Cu F.Mask F.Paste))
  (pad 12 smd rect (at -14.2125 -12.7) (size 1.925 0.7) (layers F.Cu F.Mask F.Paste))
  (pad 13 smd rect (at -14.2125 -11.43) (size 1.925 0.7) (layers F.Cu F.Mask F.Paste))
  (pad 14 smd rect (at -14.2125 -10.16) (size 1.925 0.7) (layers F.Cu F.Mask F.Paste))
  (pad 15 smd rect (at -14.2125 -8.89) (size 1.925 0.7) (layers F.Cu F.Mask F.Paste))
  (pad 16 smd rect (at -14.2125 -7.62) (size 1.925 0.7) (layers F.Cu F.Mask F.Paste))
  (pad 17 smd rect (at -14.2125 -6.35) (size 1.925 0.7) (layers F.Cu F.Mask F.Paste))
  (pad 18 smd rect (at -14.2125 -5.08) (size 1.925 0.7) (layers F.Cu F.Mask F.Paste))
  (pad 19 smd rect (at -14.2125 -3.81) (size 1.925 0.7) (layers F.Cu F.Mask F.Paste))
  (pad 20 smd rect (at -14.2125 -2.54) (size 1.925 0.7) (layers F.Cu F.Mask F.Paste))
  (pad 21 smd rect (at -14.2125 -1.27) (size 1.925 0.7) (layers F.Cu F.Mask F.Paste))
  (pad 22 smd rect (at -14.2125 0) (size 1.925 0.7) (layers F.Cu F.Mask F.Paste))
  (pad 23 smd rect (at -14.2125 1.27) (size 1.925 0.7) (layers F.Cu F.Mask F.Paste))
  (pad 24 smd rect (at -14.2125 2.54) (size 1.925 0.7) (layers F.Cu F.Mask F.Paste))
  (pad 25 smd rect (at -14.2125 3.81) (size 1.925 0.7) (layers F.Cu F.Mask F.Paste))
  (pad 26 smd rect (at -14.2125 5.08) (size 1.925 0.7) (layers F.Cu F.Mask F.Paste))
  (pad 27 smd rect (at -14.2125 6.35) (size 1.925 0.7) (layers F.Cu F.Mask F.Paste))
  (pad 28 smd rect (at -14.2125 7.62) (size 1.925 0.7) (layers F.Cu F.Mask F.Paste))
  (pad 29 smd rect (at -14.2125 8.89) (size 1.925 0.7) (layers F.Cu F.Mask F.Paste))
  (pad 30 smd rect (at -14.2125 10.16) (size 1.925 0.7) (layers F.Cu F.Mask F.Paste))
  (pad 31 smd rect (at -14.2125 11.43) (size 1.925 0.7) (layers F.Cu F.Mask F.Paste))
  (pad 32 smd rect (at -14.2125 12.7) (size 1.925 0.7) (layers F.Cu F.Mask F.Paste))
  (pad 33 smd rect (at -12.7 14.2125) (size 0.7 1.925) (layers F.Cu F.Mask F.Paste))
  (pad 34 smd rect (at -11.43 14.2125) (size 0.7 1.925) (layers F.Cu F.Mask F.Paste))
  (pad 35 smd rect (at -10.16 14.2125) (size 0.7 1.925) (layers F.Cu F.Mask F.Paste))
  (pad 36 smd rect (at -8.89 14.2125) (size 0.7 1.925) (layers F.Cu F.Mask F.Paste))
  (pad 37 smd rect (at -7.62 14.2125) (size 0.7 1.925) (layers F.Cu F.Mask F.Paste))
  (pad 38 smd rect (at -6.35 14.2125) (size 0.7 1.925) (layers F.Cu F.Mask F.Paste))
  (pad 39 smd rect (at -5.08 14.2125) (size 0.7 1.925) (layers F.Cu F.Mask F.Paste))
  (pad 40 smd rect (at -3.81 14.2125) (size 0.7 1.925) (layers F.Cu F.Mask F.Paste))
  (pad 41 smd rect (at -2.54 14.2125) (size 0.7 1.925) (layers F.Cu F.Mask F.Paste))
  (pad 42 smd rect (at -1.27 14.2125) (size 0.7 1.925) (layers F.Cu F.Mask F.Paste))
  (pad 43 smd rect (at 0 14.2125) (size 0.7 1.925) (layers F.Cu F.Mask F.Paste))
  (pad 44 smd rect (at 1.27 14.2125) (size 0.7 1.925) (layers F.Cu F.Mask F.Paste))
  (pad 45 smd rect (at 2.54 14.2125) (size 0.7 1.925) (layers F.Cu F.Mask F.Paste))
  (pad 46 smd rect (at 3.81 14.2125) (size 0.7 1.925) (layers F.Cu F.Mask F.Paste))
  (pad 47 smd rect (at 5.08 14.2125) (size 0.7 1.925) (layers F.Cu F.Mask F.Paste))
  (pad 48 smd rect (at 6.35 14.2125) (size 0.7 1.925) (layers F.Cu F.Mask F.Paste))
  (pad 49 smd rect (at 7.62 14.2125) (size 0.7 1.925) (layers F.Cu F.Mask F.Paste))
  (pad 50 smd rect (at 8.89 14.2125) (size 0.7 1.925) (layers F.Cu F.Mask F.Paste))
  (pad 51 smd rect (at 10.16 14.2125) (size 0.7 1.925) (layers F.Cu F.Mask F.Paste))
  (pad 52 smd rect (at 11.43 14.2125) (size 0.7 1.925) (layers F.Cu F.Mask F.Paste))
  (pad 53 smd rect (at 12.7 14.2125) (size 0.7 1.925) (layers F.Cu F.Mask F.Paste))
  (pad 54 smd rect (at 14.2125 12.7) (size 1.925 0.7) (layers F.Cu F.Mask F.Paste))
  (pad 55 smd rect (at 14.2125 11.43) (size 1.925 0.7) (layers F.Cu F.Mask F.Paste))
  (pad 56 smd rect (at 14.2125 10.16) (size 1.925 0.7) (layers F.Cu F.Mask F.Paste))
  (pad 57 smd rect (at 14.2125 8.89) (size 1.925 0.7) (layers F.Cu F.Mask F.Paste))
  (pad 58 smd rect (at 14.2125 7.62) (size 1.925 0.7) (layers F.Cu F.Mask F.Paste))
  (pad 59 smd rect (at 14.2125 6.35) (size 1.925 0.7) (layers F.Cu F.Mask F.Paste))
  (pad 60 smd rect (at 14.2125 5.08) (size 1.925 0.7) (layers F.Cu F.Mask F.Paste))
  (pad 61 smd rect (at 14.2125 3.81) (size 1.925 0.7) (layers F.Cu F.Mask F.Paste))
  (pad 62 smd rect (at 14.2125 2.54) (size 1.925 0.7) (layers F.Cu F.Mask F.Paste))
  (pad 63 smd rect (at 14.2125 1.27) (size 1.925 0.7) (layers F.Cu F.Mask F.Paste))
  (pad 64 smd rect (at 14.2125 0) (size 1.925 0.7) (layers F.Cu F.Mask F.Paste))
  (pad 65 smd rect (at 14.2125 -1.27) (size 1.925 0.7) (layers F.Cu F.Mask F.Paste))
  (pad 66 smd rect (at 14.2125 -2.54) (size 1.925 0.7) (layers F.Cu F.Mask F.Paste))
  (pad 67 smd rect (at 14.2125 -3.81) (size 1.925 0.7) (layers F.Cu F.Mask F.Paste))
  (pad 68 smd rect (at 14.2125 -5.08) (size 1.925 0.7) (layers F.Cu F.Mask F.Paste))
  (pad 69 smd rect (at 14.2125 -6.35) (size 1.925 0.7) (layers F.Cu F.Mask F.Paste))
  (pad 70 smd rect (at 14.2125 -7.62) (size 1.925 0.7) (layers F.Cu F.Mask F.Paste))
  (pad 71 smd rect (at 14.2125 -8.89) (size 1.925 0.7) (layers F.Cu F.Mask F.Paste))
  (pad 72 smd rect (at 14.2125 -10.16) (size 1.925 0.7) (layers F.Cu F.Mask F.Paste))
  (pad 73 smd rect (at 14.2125 -11.43) (size 1.925 0.7) (layers F.Cu F.Mask F.Paste))
  (pad 74 smd rect (at 14.2125 -12.7) (size 1.925 0.7) (layers F.Cu F.Mask F.Paste))
  (fp_text user %R (at 0 0) (layer F.Fab)
    (effects (font (size 1 1) (thickness 0.15)))
  )
  (model ${KICAD6_3DMODEL_DIR}/Package_LCC.3dshapes/PLCC-84_SMD-Socket.wrl
    (at (xyz 0 0 0))
    (scale (xyz 1 1 1))
    (rotate (xyz 0 0 0))
  )
)