(module PLCC-68_SMD-Socket (layer F.Cu) (tedit 5A02ECC8)
  (descr "PLCC, 68 pins, surface mount")
  (tags "plcc smt")
  (attr smd)
  (fp_text reference REF** (at 0 -16.475) (layer F.SilkS)
    (effects (font (size 1 1) (thickness 0.15)))
  )
  (fp_text value PLCC-68_SMD-Socket (at 0 16.475) (layer F.Fab)
    (effects (font (size 1 1) (thickness 0.15)))
  )
  (fp_line (start -14.475 -15.475) (end -15.475 -14.475) (layer F.Fab) (width 0.1))
  (fp_line (start -15.475 -14.475) (end -15.475 15.475) (layer F.Fab) (width 0.1))
  (fp_line (start -15.475 15.475) (end 15.475 15.475) (layer F.Fab) (width 0.1))
  (fp_line (start 15.475 15.475) (end 15.475 -15.475) (layer F.Fab) (width 0.1))
  (fp_line (start 15.475 -15.475) (end -14.475 -15.475) (layer F.Fab) (width 0.1))
  (fp_line (start -15.95 -15.95) (end -15.95 15.95) (layer F.CrtYd) (width 0.05))
  (fp_line (start -15.95 15.95) (end 15.95 15.95) (layer F.CrtYd) (width 0.05))
  (fp_line (start 15.95 15.95) (end 15.95 -15.95) (layer F.CrtYd) (width 0.05))
  (fp_line (start 15.95 -15.95) (end -15.95 -15.95) (layer F.CrtYd) (width 0.05))
  (fp_line (start -11.635 -12.635) (end -12.635 -11.635) (layer F.Fab) (width 0.1))
  (fp_line (start -12.635 -11.635) (end -12.635 12.635) (layer F.Fab) (width 0.1))
  (fp_line (start -12.635 12.635) (end 12.635 12.635) (layer F.Fab) (width 0.1))
  (fp_line (start 12.635 12.635) (end 12.635 -12.635) (layer F.Fab) (width 0.1))
  (fp_line (start 12.635 -12.635) (end -11.635 -12.635) (layer F.Fab) (width 0.1))
  (fp_line (start -14.205 -14.205) (end -14.205 14.205) (layer F.Fab) (width 0.1))
  (fp_line (start -14.205 14.205) (end 14.205 14.205) (layer F.Fab) (width 0.1))
  (fp_line (start 14.205 14.205) (end 14.205 -14.205) (layer F.Fab) (width 0.1))
  (fp_line (start 14.205 -14.205) (end -14.205 -14.205) (layer F.Fab) (width 0.1))
  (fp_line (start -0.5 -15.475) (end 0 -14.475) (layer F.Fab) (width 0.1))
  (fp_line (start 0 -14.475) (end 0.5 -15.475) (layer F.Fab) (width 0.1))
  (fp_line (start -1 -15.625) (end -14.625 -15.625) (layer F.SilkS) (width 0.12))
  (fp_line (start -14.625 -15.625) (end -15.625 -14.625) (layer F.SilkS) (width 0.12))
  (fp_line (start -15.625 -14.625) (end -15.625 15.625) (layer F.SilkS) (width 0.12))
  (fp_line (start -15.625 15.625) (end 15.625 15.625) (layer F.SilkS) (width 0.12))
  (fp_line (start 15.625 15.625) (end 15.625 -15.625) (layer F.SilkS) (width 0.12))
  (fp_line (start 15.625 -15.625) (end 1 -15.625) (layer F.SilkS) (width 0.12))
  (fp_line (start -11.135 -12.785) (end -11.635 -12.785) (layer F.SilkS) (width 0.1))
  (fp_line (start -11.635 -12.785) (end -12.785 -11.635) (layer F.SilkS) (width 0.1))
  (fp_line (start -12.785 -11.635) (end -12.785 -11.135) (layer F.SilkS) (width 0.1))
  (fp_line (start 11.135 -12.785) (end 12.785 -12.785) (layer F.SilkS) (width 0.1))
  (fp_line (start 12.785 -12.785) (end 12.785 -11.135) (layer F.SilkS) (width 0.1))
  (fp_line (start -11.135 12.785) (end -12.785 12.785) (layer F.SilkS) (width 0.1))
  (fp_line (start -12.785 12.785) (end -12.785 11.135) (layer F.SilkS) (width 0.1))
  (fp_line (start 11.135 12.785) (end 12.785 12.785) (layer F.SilkS) (width 0.1))
  (fp_line (start 12.785 12.785) (end 12.785 11.135) (layer F.SilkS) (width 0.1))
  (pad 1 smd rect (at 0 -11.6725) (size 0.7 1.925) (layers F.Cu F.Mask F.Paste))
  (pad 2 smd rect (at -1.27 -11.6725) (size 0.7 1.925) (layers F.Cu F.Mask F.Paste))
  (pad 3 smd rect (at -2.54 -11.6725) (size 0.7 1.925) (layers F.Cu F.Mask F.Paste))
  (pad 4 smd rect (at -3.81 -11.6725) (size 0.7 1.925) (layers F.Cu F.Mask F.Paste))
  (pad 5 smd rect (at -5.08 -11.6725) (size 0.7 1.925) (layers F.Cu F.Mask F.Paste))
  (pad 6 smd rect (at -6.35 -11.6725) (size 0.7 1.925) (layers F.Cu F.Mask F.Paste))
  (pad 7 smd rect (at -7.62 -11.6725) (size 0.7 1.925) (layers F.Cu F.Mask F.Paste))
  (pad 8 smd rect (at -8.89 -11.6725) (size 0.7 1.925) (layers F.Cu F.Mask F.Paste))
  (pad 9 smd rect (at -10.16 -11.6725) (size 0.7 1.925) (layers F.Cu F.Mask F.Paste))
  (pad 68 smd rect (at 1.27 -11.6725) (size 0.7 1.925) (layers F.Cu F.Mask F.Paste))
  (pad 67 smd rect (at 2.54 -11.6725) (size 0.7 1.925) (layers F.Cu F.Mask F.Paste))
  (pad 66 smd rect (at 3.81 -11.6725) (size 0.7 1.925) (layers F.Cu F.Mask F.Paste))
  (pad 65 smd rect (at 5.08 -11.6725) (size 0.7 1.925) (layers F.Cu F.Mask F.Paste))
  (pad 64 smd rect (at 6.35 -11.6725) (size 0.7 1.925) (layers F.Cu F.Mask F.Paste))
  (pad 63 smd rect (at 7.62 -11.6725) (size 0.7 1.925) (layers F.Cu F.Mask F.Paste))
  (pad 62 smd rect (at 8.89 -11.6725) (size 0.7 1.925) (layers F.Cu F.Mask F.Paste))
  (pad 61 smd rect (at 10.16 -11.6725) (size 0.7 1.925) (layers F.Cu F.Mask F.Paste))
  (pad 10 smd rect (at -11.6725 -10.16) (size 1.925 0.7) (layers F.Cu F.Mask F.Paste))
  (pad 11 smd rect (at -11.6725 -8.89) (size 1.925 0.7) (layers F.Cu F.Mask F.Paste))
  (pad 12 smd rect (at -11.6725 -7.62) (size 1.925 0.7) (layers F.Cu F.Mask F.Paste))
  (pad 13 smd rect (at -11.6725 -6.35) (size 1.925 0.7) (layers F.Cu F.Mask F.Paste))
  (pad 14 smd rect (at -11.6725 -5.08) (size 1.925 0.7) (layers F.Cu F.Mask F.Paste))
  (pad 15 smd rect (at -11.6725 -3.81) (size 1.925 0.7) (layers F.Cu F.Mask F.Paste))
  (pad 16 smd rect (at -11.6725 -2.54) (size 1.925 0.7) (layers F.Cu F.Mask F.Paste))
  (pad 17 smd rect (at -11.6725 -1.27) (size 1.925 0.7) (layers F.Cu F.Mask F.Paste))
  (pad 18 smd rect (at -11.6725 0) (size 1.925 0.7) (layers F.Cu F.Mask F.Paste))
  (pad 19 smd rect (at -11.6725 1.27) (size 1.925 0.7) (layers F.Cu F.Mask F.Paste))
  (pad 20 smd rect (at -11.6725 2.54) (size 1.925 0.7) (layers F.Cu F.Mask F.Paste))
  (pad 21 smd rect (at -11.6725 3.81) (size 1.925 0.7) (layers F.Cu F.Mask F.Paste))
  (pad 22 smd rect (at -11.6725 5.08) (size 1.925 0.7) (layers F.Cu F.Mask F.Paste))
  (pad 23 smd rect (at -11.6725 6.35) (size 1.925 0.7) (layers F.Cu F.Mask F.Paste))
  (pad 24 smd rect (at -11.6725 7.62) (size 1.925 0.7) (layers F.Cu F.Mask F.Paste))
  (pad 25 smd rect (at -11.6725 8.89) (size 1.925 0.7) (layers F.Cu F.Mask F.Paste))
  (pad 26 smd rect (at -11.6725 10.16) (size 1.925 0.7) (layers F.Cu F.Mask F.Paste))
  (pad 27 smd rect (at -10.16 11.6725) (size 0.7 1.925) (layers F.Cu F.Mask F.Paste))
  (pad 28 smd rect (at -8.89 11.6725) (size 0.7 1.925) (layers F.Cu F.Mask F.Paste))
  (pad 29 smd rect (at -7.62 11.6725) (size 0.7 1.925) (layers F.Cu F.Mask F.Paste))
  (pad 30 smd rect (at -6.35 11.6725) (size 0.7 1.925) (layers F.Cu F.Mask F.Paste))
  (pad 31 smd rect (at -5.08 11.6725) (size 0.7 1.925) (layers F.Cu F.Mask F.Paste))
  (pad 32 smd rect (at -3.81 11.6725) (size 0.7 1.925) (layers F.Cu F.Mask F.Paste))
  (pad 33 smd rect (at -2.54 11.6725) (size 0.7 1.925) (layers F.Cu F.Mask F.Paste))
  (pad 34 smd rect (at -1.27 11.6725) (size 0.7 1.925) (layers F.Cu F.Mask F.Paste))
  (pad 35 smd rect (at 0 11.6725) (size 0.7 1.925) (layers F.Cu F.Mask F.Paste))
  (pad 36 smd rect (at 1.27 11.6725) (size 0.7 1.925) (layers F.Cu F.Mask F.Paste))
  (pad 37 smd rect (at 2.54 11.6725) (size 0.7 1.925) (layers F.Cu F.Mask F.Paste))
  (pad 38 smd rect (at 3.81 11.6725) (size 0.7 1.925) (layers F.Cu F.Mask F.Paste))
  (pad 39 smd rect (at 5.08 11.6725) (size 0.7 1.925) (layers F.Cu F.Mask F.Paste))
  (pad 40 smd rect (at 6.35 11.6725) (size 0.7 1.925) (layers F.Cu F.Mask F.Paste))
  (pad 41 smd rect (at 7.62 11.6725) (size 0.7 1.925) (layers F.Cu F.Mask F.Paste))
  (pad 42 smd rect (at 8.89 11.6725) (size 0.7 1.925) (layers F.Cu F.Mask F.Paste))
  (pad 43 smd rect (at 10.16 11.6725) (size 0.7 1.925) (layers F.Cu F.Mask F.Paste))
  (pad 44 smd rect (at 11.6725 10.16) (size 1.925 0.7) (layers F.Cu F.Mask F.Paste))
  (pad 45 smd rect (at 11.6725 8.89) (size 1.925 0.7) (layers F.Cu F.Mask F.Paste))
  (pad 46 smd rect (at 11.6725 7.62) (size 1.925 0.7) (layers F.Cu F.Mask F.Paste))
  (pad 47 smd rect (at 11.6725 6.35) (size 1.925 0.7) (layers F.Cu F.Mask F.Paste))
  (pad 48 smd rect (at 11.6725 5.08) (size 1.925 0.7) (layers F.Cu F.Mask F.Paste))
  (pad 49 smd rect (at 11.6725 3.81) (size 1.925 0.7) (layers F.Cu F.Mask F.Paste))
  (pad 50 smd rect (at 11.6725 2.54) (size 1.925 0.7) (layers F.Cu F.Mask F.Paste))
  (pad 51 smd rect (at 11.6725 1.27) (size 1.925 0.7) (layers F.Cu F.Mask F.Paste))
  (pad 52 smd rect (at 11.6725 0) (size 1.925 0.7) (layers F.Cu F.Mask F.Paste))
  (pad 53 smd rect (at 11.6725 -1.27) (size 1.925 0.7) (layers F.Cu F.Mask F.Paste))
  (pad 54 smd rect (at 11.6725 -2.54) (size 1.925 0.7) (layers F.Cu F.Mask F.Paste))
  (pad 55 smd rect (at 11.6725 -3.81) (size 1.925 0.7) (layers F.Cu F.Mask F.Paste))
  (pad 56 smd rect (at 11.6725 -5.08) (size 1.925 0.7) (layers F.Cu F.Mask F.Paste))
  (pad 57 smd rect (at 11.6725 -6.35) (size 1.925 0.7) (layers F.Cu F.Mask F.Paste))
  (pad 58 smd rect (at 11.6725 -7.62) (size 1.925 0.7) (layers F.Cu F.Mask F.Paste))
  (pad 59 smd rect (at 11.6725 -8.89) (size 1.925 0.7) (layers F.Cu F.Mask F.Paste))
  (pad 60 smd rect (at 11.6725 -10.16) (size 1.925 0.7) (layers F.Cu F.Mask F.Paste))
  (fp_text user %R (at 0 0) (layer F.Fab)
    (effects (font (size 1 1) (thickness 0.15)))
  )
  (model ${KICAD6_3DMODEL_DIR}/Package_LCC.3dshapes/PLCC-68_SMD-Socket.wrl
    (at (xyz 0 0 0))
    (scale (xyz 1 1 1))
    (rotate (xyz 0 0 0))
  )
)