(module PLCC-20_THT-Socket (layer F.Cu) (tedit 5A02ECC8)
  (descr "PLCC, 20 pins, through hole")
  (tags "plcc leaded")
  (fp_text reference REF** (at 0 -3.67) (layer F.SilkS)
    (effects (font (size 1 1) (thickness 0.15)))
  )
  (fp_text value PLCC-20_THT-Socket (at 0 13.83) (layer F.Fab)
    (effects (font (size 1 1) (thickness 0.15)))
  )
  (fp_line (start -6.75 -2.67) (end -7.75 -1.67) (layer F.Fab) (width 0.1))
  (fp_line (start -7.75 -1.67) (end -7.75 12.83) (layer F.Fab) (width 0.1))
  (fp_line (start -7.75 12.83) (end 7.75 12.83) (layer F.Fab) (width 0.1))
  (fp_line (start 7.75 12.83) (end 7.75 -2.67) (layer F.Fab) (width 0.1))
  (fp_line (start 7.75 -2.67) (end -6.75 -2.67) (layer F.Fab) (width 0.1))
  (fp_line (start -8.25 -3.17) (end -8.25 13.33) (layer F.CrtYd) (width 0.05))
  (fp_line (start -8.25 13.33) (end 8.25 13.33) (layer F.CrtYd) (width 0.05))
  (fp_line (start 8.25 13.33) (end 8.25 -3.17) (layer F.CrtYd) (width 0.05))
  (fp_line (start 8.25 -3.17) (end -8.25 -3.17) (layer F.CrtYd) (width 0.05))
  (fp_line (start -5.21 -0.13) (end -5.21 10.29) (layer F.Fab) (width 0.1))
  (fp_line (start -5.21 10.29) (end 5.21 10.29) (layer F.Fab) (width 0.1))
  (fp_line (start 5.21 10.29) (end 5.21 -0.13) (layer F.Fab) (width 0.1))
  (fp_line (start 5.21 -0.13) (end -5.21 -0.13) (layer F.Fab) (width 0.1))
  (fp_line (start -0.5 -2.67) (end 0 -1.67) (layer F.Fab) (width 0.1))
  (fp_line (start 0 -1.67) (end 0.5 -2.67) (layer F.Fab) (width 0.1))
  (fp_line (start -1 -2.77) (end -6.85 -2.77) (layer F.SilkS) (width 0.12))
  (fp_line (start -6.85 -2.77) (end -7.85 -1.77) (layer F.SilkS) (width 0.12))
  (fp_line (start -7.85 -1.77) (end -7.85 12.93) (layer F.SilkS) (width 0.12))
  (fp_line (start -7.85 12.93) (end 7.85 12.93) (layer F.SilkS) (width 0.12))
  (fp_line (start 7.85 12.93) (end 7.85 -2.77) (layer F.SilkS) (width 0.12))
  (fp_line (start 7.85 -2.77) (end 1 -2.77) (layer F.SilkS) (width 0.12))
  (pad 2 thru_hole circle (at 0 2.54) (size 1.4224 1.4224) (drill 0.8) (layers *.Cu *.Mask))
  (pad 20 thru_hole circle (at 2.54 2.54) (size 1.4224 1.4224) (drill 0.8) (layers *.Cu *.Mask))
  (pad 1 thru_hole rect (at 0 0) (size 1.4224 1.4224) (drill 0.8) (layers *.Cu *.Mask))
  (pad 3 thru_hole circle (at -2.54 0) (size 1.4224 1.4224) (drill 0.8) (layers *.Cu *.Mask))
  (pad 5 thru_hole circle (at -2.54 2.54) (size 1.4224 1.4224) (drill 0.8) (layers *.Cu *.Mask))
  (pad 7 thru_hole circle (at -2.54 5.08) (size 1.4224 1.4224) (drill 0.8) (layers *.Cu *.Mask))
  (pad 4 thru_hole circle (at -5.08 2.54) (size 1.4224 1.4224) (drill 0.8) (layers *.Cu *.Mask))
  (pad 6 thru_hole circle (at -5.08 5.08) (size 1.4224 1.4224) (drill 0.8) (layers *.Cu *.Mask))
  (pad 8 thru_hole circle (at -5.08 7.62) (size 1.4224 1.4224) (drill 0.8) (layers *.Cu *.Mask))
  (pad 10 thru_hole circle (at -2.54 7.62) (size 1.4224 1.4224) (drill 0.8) (layers *.Cu *.Mask))
  (pad 12 thru_hole circle (at 0 7.62) (size 1.4224 1.4224) (drill 0.8) (layers *.Cu *.Mask))
  (pad 14 thru_hole circle (at 5.08 7.62) (size 1.4224 1.4224) (drill 0.8) (layers *.Cu *.Mask))
  (pad 9 thru_hole circle (at -2.54 10.16) (size 1.4224 1.4224) (drill 0.8) (layers *.Cu *.Mask))
  (pad 11 thru_hole circle (at 0 10.16) (size 1.4224 1.4224) (drill 0.8) (layers *.Cu *.Mask))
  (pad 13 thru_hole circle (at 2.54 10.16) (size 1.4224 1.4224) (drill 0.8) (layers *.Cu *.Mask))
  (pad 15 thru_hole circle (at 2.54 7.62) (size 1.4224 1.4224) (drill 0.8) (layers *.Cu *.Mask))
  (pad 17 thru_hole circle (at 2.54 5.08) (size 1.4224 1.4224) (drill 0.8) (layers *.Cu *.Mask))
  (pad 19 thru_hole circle (at 2.54 0) (size 1.4224 1.4224) (drill 0.8) (layers *.Cu *.Mask))
  (pad 16 thru_hole circle (at 5.08 5.08) (size 1.4224 1.4224) (drill 0.8) (layers *.Cu *.Mask))
  (pad 18 thru_hole circle (at 5.08 2.54) (size 1.4224 1.4224) (drill 0.8) (layers *.Cu *.Mask))
  (fp_text user %R (at 0 5.08) (layer F.Fab)
    (effects (font (size 1 1) (thickness 0.15)))
  )
  (model ${KICAD6_3DMODEL_DIR}/Package_LCC.3dshapes/PLCC-20_THT-Socket.wrl
    (at (xyz 0 0 0))
    (scale (xyz 1 1 1))
    (rotate (xyz 0 0 0))
  )
)