(module PLCC-20 (layer F.Cu) (tedit 5A02ECC8)
  (descr "PLCC, 20 pins, surface mount")
  (tags "plcc smt")
  (attr smd)
  (fp_text reference REF** (at 0 -6.015) (layer F.SilkS)
    (effects (font (size 1 1) (thickness 0.15)))
  )
  (fp_text value PLCC-20 (at 0 6.015) (layer F.Fab)
    (effects (font (size 1 1) (thickness 0.15)))
  )
  (fp_line (start -4.015 -5.015) (end -5.015 -4.015) (layer F.Fab) (width 0.1))
  (fp_line (start -5.015 -4.015) (end -5.015 5.015) (layer F.Fab) (width 0.1))
  (fp_line (start -5.015 5.015) (end 5.015 5.015) (layer F.Fab) (width 0.1))
  (fp_line (start 5.015 5.015) (end 5.015 -5.015) (layer F.Fab) (width 0.1))
  (fp_line (start 5.015 -5.015) (end -4.015 -5.015) (layer F.Fab) (width 0.1))
  (fp_line (start -5.5 -5.5) (end -5.5 5.5) (layer F.CrtYd) (width 0.05))
  (fp_line (start -5.5 5.5) (end 5.5 5.5) (layer F.CrtYd) (width 0.05))
  (fp_line (start 5.5 5.5) (end 5.5 -5.5) (layer F.CrtYd) (width 0.05))
  (fp_line (start 5.5 -5.5) (end -5.5 -5.5) (layer F.CrtYd) (width 0.05))
  (fp_line (start -0.5 -5.015) (end 0 -4.015) (layer F.Fab) (width 0.1))
  (fp_line (start 0 -4.015) (end 0.5 -5.015) (layer F.Fab) (width 0.1))
  (fp_line (start -3.515 -5.165) (end -4.015 -5.165) (layer F.SilkS) (width 0.1))
  (fp_line (start -4.015 -5.165) (end -5.165 -4.015) (layer F.SilkS) (width 0.1))
  (fp_line (start -5.165 -4.015) (end -5.165 -3.515) (layer F.SilkS) (width 0.1))
  (fp_line (start 3.515 -5.165) (end 5.165 -5.165) (layer F.SilkS) (width 0.1))
  (fp_line (start 5.165 -5.165) (end 5.165 -3.515) (layer F.SilkS) (width 0.1))
  (fp_line (start -3.515 5.165) (end -5.165 5.165) (layer F.SilkS) (width 0.1))
  (fp_line (start -5.165 5.165) (end -5.165 3.515) (layer F.SilkS) (width 0.1))
  (fp_line (start 3.515 5.165) (end 5.165 5.165) (layer F.SilkS) (width 0.1))
  (fp_line (start 5.165 5.165) (end 5.165 3.515) (layer F.SilkS) (width 0.1))
  (pad 1 smd rect (at 0 -4.0525) (size 0.7 1.925) (layers F.Cu F.Mask F.Paste))
  (pad 2 smd rect (at -1.27 -4.0525) (size 0.7 1.925) (layers F.Cu F.Mask F.Paste))
  (pad 3 smd rect (at -2.54 -4.0525) (size 0.7 1.925) (layers F.Cu F.Mask F.Paste))
  (pad 20 smd rect (at 1.27 -4.0525) (size 0.7 1.925) (layers F.Cu F.Mask F.Paste))
  (pad 19 smd rect (at 2.54 -4.0525) (size 0.7 1.925) (layers F.Cu F.Mask F.Paste))
  (pad 4 smd rect (at -4.0525 -2.54) (size 1.925 0.7) (layers F.Cu F.Mask F.Paste))
  (pad 5 smd rect (at -4.0525 -1.27) (size 1.925 0.7) (layers F.Cu F.Mask F.Paste))
  (pad 6 smd rect (at -4.0525 0) (size 1.925 0.7) (layers F.Cu F.Mask F.Paste))
  (pad 7 smd rect (at -4.0525 1.27) (size 1.925 0.7) (layers F.Cu F.Mask F.Paste))
  (pad 8 smd rect (at -4.0525 2.54) (size 1.925 0.7) (layers F.Cu F.Mask F.Paste))
  (pad 9 smd rect (at -2.54 4.0525) (size 0.7 1.925) (layers F.Cu F.Mask F.Paste))
  (pad 10 smd rect (at -1.27 4.0525) (size 0.7 1.925) (layers F.Cu F.Mask F.Paste))
  (pad 11 smd rect (at 0 4.0525) (size 0.7 1.925) (layers F.Cu F.Mask F.Paste))
  (pad 12 smd rect (at 1.27 4.0525) (size 0.7 1.925) (layers F.Cu F.Mask F.Paste))
  (pad 13 smd rect (at 2.54 4.0525) (size 0.7 1.925) (layers F.Cu F.Mask F.Paste))
  (pad 14 smd rect (at 4.0525 2.54) (size 1.925 0.7) (layers F.Cu F.Mask F.Paste))
  (pad 15 smd rect (at 4.0525 1.27) (size 1.925 0.7) (layers F.Cu F.Mask F.Paste))
  (pad 16 smd rect (at 4.0525 0) (size 1.925 0.7) (layers F.Cu F.Mask F.Paste))
  (pad 17 smd rect (at 4.0525 -1.27) (size 1.925 0.7) (layers F.Cu F.Mask F.Paste))
  (pad 18 smd rect (at 4.0525 -2.54) (size 1.925 0.7) (layers F.Cu F.Mask F.Paste))
  (fp_text user %R (at 0 0) (layer F.Fab)
    (effects (font (size 1 1) (thickness 0.15)))
  )
  (model ${KICAD6_3DMODEL_DIR}/Package_LCC.3dshapes/PLCC-20.wrl
    (at (xyz 0 0 0))
    (scale (xyz 1 1 1))
    (rotate (xyz 0 0 0))
  )
)