(module TerminalBlock_MetzConnect_Type059_RT06303HBWC_1x03_P3.50mm_Horizontal (layer F.Cu) (tedit 5B294EA0)
  (descr "terminal block Metz Connect Type059_RT06303HBWC, 3 pins, pitch 3.5mm, size 10.5x6.5mm^2, drill diamater 1.2mm, pad diameter 2.3mm, see http://www.metz-connect.com/de/system/files/productfiles/Datenblatt_310591_RT063xxHBWC_OFF-022684T.pdf, script-generated using https://github.com/pointhi/kicad-footprint-generator/scripts/TerminalBlock_MetzConnect")
  (tags "THT terminal block Metz Connect Type059_RT06303HBWC pitch 3.5mm size 10.5x6.5mm^2 drill 1.2mm pad 2.3mm")
  (fp_text reference REF** (at 3.5 -3.86) (layer F.SilkS)
    (effects (font (size 1 1) (thickness 0.15)))
  )
  (fp_text value TerminalBlock_MetzConnect_Type059_RT06303HBWC_1x03_P3.50mm_Horizontal (at 3.5 4.76) (layer F.Fab)
    (effects (font (size 1 1) (thickness 0.15)))
  )
  (fp_arc (start 0 0) (end 0 1.555) (angle -27) (layer F.SilkS) (width 0.12))
  (fp_arc (start 0 0) (end 1.386 0.707) (angle -54) (layer F.SilkS) (width 0.12))
  (fp_arc (start 0 0) (end 0.707 -1.386) (angle -54) (layer F.SilkS) (width 0.12))
  (fp_arc (start 0 0) (end -1.386 -0.707) (angle -54) (layer F.SilkS) (width 0.12))
  (fp_arc (start 0 0) (end -0.707 1.386) (angle -28) (layer F.SilkS) (width 0.12))
  (fp_circle (center 0 0) (end 1.375 0) (layer F.Fab) (width 0.1))
  (fp_circle (center 3.5 0) (end 4.875 0) (layer F.Fab) (width 0.1))
  (fp_circle (center 3.5 0) (end 5.055 0) (layer F.SilkS) (width 0.12))
  (fp_circle (center 7 0) (end 8.375 0) (layer F.Fab) (width 0.1))
  (fp_circle (center 7 0) (end 8.555 0) (layer F.SilkS) (width 0.12))
  (fp_line (start -1.75 -2.8) (end 8.75 -2.8) (layer F.Fab) (width 0.1))
  (fp_line (start 8.75 -2.8) (end 8.75 3.7) (layer F.Fab) (width 0.1))
  (fp_line (start 8.75 3.7) (end -0.25 3.7) (layer F.Fab) (width 0.1))
  (fp_line (start -0.25 3.7) (end -1.75 2.2) (layer F.Fab) (width 0.1))
  (fp_line (start -1.75 2.2) (end -1.75 -2.8) (layer F.Fab) (width 0.1))
  (fp_line (start -1.75 2.2) (end 8.75 2.2) (layer F.Fab) (width 0.1))
  (fp_line (start -1.81 2.2) (end 8.81 2.2) (layer F.SilkS) (width 0.12))
  (fp_line (start -1.81 -2.86) (end 8.81 -2.86) (layer F.SilkS) (width 0.12))
  (fp_line (start -1.81 3.76) (end 8.81 3.76) (layer F.SilkS) (width 0.12))
  (fp_line (start -1.81 -2.86) (end -1.81 3.76) (layer F.SilkS) (width 0.12))
  (fp_line (start 8.81 -2.86) (end 8.81 3.76) (layer F.SilkS) (width 0.12))
  (fp_line (start 1.043 -0.875) (end -0.876 1.043) (layer F.Fab) (width 0.1))
  (fp_line (start 0.876 -1.043) (end -1.043 0.875) (layer F.Fab) (width 0.1))
  (fp_line (start 4.543 -0.875) (end 2.625 1.043) (layer F.Fab) (width 0.1))
  (fp_line (start 4.376 -1.043) (end 2.458 0.875) (layer F.Fab) (width 0.1))
  (fp_line (start 4.68 -0.99) (end 4.604 -0.914) (layer F.SilkS) (width 0.12))
  (fp_line (start 2.565 1.125) (end 2.511 1.18) (layer F.SilkS) (width 0.12))
  (fp_line (start 4.49 -1.18) (end 4.436 -1.126) (layer F.SilkS) (width 0.12))
  (fp_line (start 2.397 0.914) (end 2.321 0.99) (layer F.SilkS) (width 0.12))
  (fp_line (start 8.043 -0.875) (end 6.125 1.043) (layer F.Fab) (width 0.1))
  (fp_line (start 7.876 -1.043) (end 5.958 0.875) (layer F.Fab) (width 0.1))
  (fp_line (start 8.18 -0.99) (end 8.104 -0.914) (layer F.SilkS) (width 0.12))
  (fp_line (start 6.065 1.125) (end 6.011 1.18) (layer F.SilkS) (width 0.12))
  (fp_line (start 7.99 -1.18) (end 7.936 -1.126) (layer F.SilkS) (width 0.12))
  (fp_line (start 5.897 0.914) (end 5.821 0.99) (layer F.SilkS) (width 0.12))
  (fp_line (start -2.05 2.26) (end -2.05 4) (layer F.SilkS) (width 0.12))
  (fp_line (start -2.05 4) (end -0.55 4) (layer F.SilkS) (width 0.12))
  (fp_line (start -2.25 -3.3) (end -2.25 4.2) (layer F.CrtYd) (width 0.05))
  (fp_line (start -2.25 4.2) (end 9.25 4.2) (layer F.CrtYd) (width 0.05))
  (fp_line (start 9.25 4.2) (end 9.25 -3.3) (layer F.CrtYd) (width 0.05))
  (fp_line (start 9.25 -3.3) (end -2.25 -3.3) (layer F.CrtYd) (width 0.05))
  (pad 1 thru_hole rect (at 0 0) (size 2.3 2.3) (drill 1.2) (layers *.Cu *.Mask))
  (pad 2 thru_hole circle (at 3.5 0) (size 2.3 2.3) (drill 1.2) (layers *.Cu *.Mask))
  (pad 3 thru_hole circle (at 7 0) (size 2.3 2.3) (drill 1.2) (layers *.Cu *.Mask))
  (fp_text user %R (at 3.5 2.95) (layer F.Fab)
    (effects (font (size 1 1) (thickness 0.15)))
  )
  (model ${KICAD6_3DMODEL_DIR}/TerminalBlock_MetzConnect.3dshapes/TerminalBlock_MetzConnect_Type059_RT06303HBWC_1x03_P3.50mm_Horizontal.wrl
    (at (xyz 0 0 0))
    (scale (xyz 1 1 1))
    (rotate (xyz 0 0 0))
  )
)