(module TerminalBlock_MetzConnect_360273_1x01_Horizontal_ScrewM2.6_WireProtection (layer F.Cu) (tedit 5B294E90)
  (descr "single screw terminal block Metz Connect 360273, block size 5x4mm^2, drill diamater 1.5mm, 2 pads, pad diameter 3mm, see http://www.metz-connect.com/de/system/files/METZ_CONNECT_U_Contact_Katalog_Anschlusssysteme_fuer_Leiterplatten_DE_31_07_2017_OFF_024803.pdf?language=en page 131, script-generated using https://github.com/pointhi/kicad-footprint-generator/scripts/TerminalBlock_MetzConnect")
  (tags "THT single screw terminal block Metz Connect 360273 size 5x4mm^2 drill 1.5mm pad 3mm")
  (fp_text reference REF** (at 2 -3.06) (layer F.SilkS)
    (effects (font (size 1 1) (thickness 0.15)))
  )
  (fp_text value TerminalBlock_MetzConnect_360273_1x01_Horizontal_ScrewM2.6_WireProtection (at 2 3.06) (layer F.Fab)
    (effects (font (size 1 1) (thickness 0.15)))
  )
  (fp_arc (start 1.5 0) (end 1.5 1.56) (angle -18) (layer F.SilkS) (width 0.12))
  (fp_arc (start 1.5 0) (end 1.983 -1.484) (angle -36) (layer F.SilkS) (width 0.12))
  (fp_arc (start 1.5 0) (end 1.017 1.484) (angle -19) (layer F.SilkS) (width 0.12))
  (fp_circle (center 1.5 0) (end 3 0) (layer F.Fab) (width 0.1))
  (fp_line (start 2.638 -0.955) (end 0.545 1.138) (layer F.Fab) (width 0.1))
  (fp_line (start 2.455 -1.138) (end 0.362 0.955) (layer F.Fab) (width 0.1))
  (fp_line (start -0.5 -2) (end 4.5 -2) (layer F.Fab) (width 0.1))
  (fp_line (start -0.5 2) (end 4.5 2) (layer F.Fab) (width 0.1))
  (fp_line (start -0.5 -2) (end -0.5 2) (layer F.Fab) (width 0.1))
  (fp_line (start 4.5 -2) (end 4.5 2) (layer F.Fab) (width 0.1))
  (fp_line (start -0.56 -2.06) (end 4.56 -2.06) (layer F.SilkS) (width 0.12))
  (fp_line (start -0.56 2.06) (end 4.56 2.06) (layer F.SilkS) (width 0.12))
  (fp_line (start -0.56 -2.06) (end -0.56 -1.755) (layer F.SilkS) (width 0.12))
  (fp_line (start -0.56 1.755) (end -0.56 2.06) (layer F.SilkS) (width 0.12))
  (fp_line (start 4.56 -2.06) (end 4.56 -0.885) (layer F.SilkS) (width 0.12))
  (fp_line (start 4.56 0.885) (end 4.56 2.06) (layer F.SilkS) (width 0.12))
  (fp_line (start -1 -2.5) (end -1 2.5) (layer F.CrtYd) (width 0.05))
  (fp_line (start -1 2.5) (end 5 2.5) (layer F.CrtYd) (width 0.05))
  (fp_line (start 5 2.5) (end 5 -2.5) (layer F.CrtYd) (width 0.05))
  (fp_line (start 5 -2.5) (end -1 -2.5) (layer F.CrtYd) (width 0.05))
  (pad 1 thru_hole circle (at 3 0) (size 3 3) (drill 1.5) (layers *.Cu *.Mask))
  (pad 1 thru_hole circle (at 0 0) (size 3 3) (drill 1.5) (layers *.Cu *.Mask))
  (fp_text user %R (at 2 -3.06) (layer F.Fab)
    (effects (font (size 1 1) (thickness 0.15)))
  )
  (model ${KICAD6_3DMODEL_DIR}/TerminalBlock_MetzConnect.3dshapes/TerminalBlock_MetzConnect_360273_1x01_Horizontal_ScrewM2.6_WireProtection.wrl
    (at (xyz 0 0 0))
    (scale (xyz 1 1 1))
    (rotate (xyz 0 0 0))
  )
)