(module TerminalBlock_MetzConnect_360271_1x01_Horizontal_ScrewM3.0_Boxed (layer F.Cu) (tedit 5B294E90)
  (descr "single screw terminal block Metz Connect 360271, block size 9x7.3mm^2, drill diamater 1.5mm, 1 pads, pad diameter 3mm, see http://www.metz-connect.com/de/system/files/METZ_CONNECT_U_Contact_Katalog_Anschlusssysteme_fuer_Leiterplatten_DE_31_07_2017_OFF_024803.pdf?language=en page 134, script-generated using https://github.com/pointhi/kicad-footprint-generator/scripts/TerminalBlock_MetzConnect")
  (tags "THT single screw terminal block Metz Connect 360271 size 9x7.3mm^2 drill 1.5mm pad 3mm")
  (fp_text reference REF** (at 0 -4.71) (layer F.SilkS)
    (effects (font (size 1 1) (thickness 0.15)))
  )
  (fp_text value TerminalBlock_MetzConnect_360271_1x01_Horizontal_ScrewM3.0_Boxed (at 0 4.71) (layer F.Fab)
    (effects (font (size 1 1) (thickness 0.15)))
  )
  (fp_circle (center 0 0) (end 2 0) (layer F.Fab) (width 0.1))
  (fp_circle (center 0 0) (end 2.06 0) (layer F.SilkS) (width 0.12))
  (fp_line (start 1.517 -1.273) (end -1.273 1.517) (layer F.Fab) (width 0.1))
  (fp_line (start 1.273 -1.517) (end -1.517 1.273) (layer F.Fab) (width 0.1))
  (fp_line (start 1.563 -1.311) (end 1.376 -1.125) (layer F.SilkS) (width 0.12))
  (fp_line (start -1.168 1.419) (end -1.312 1.563) (layer F.SilkS) (width 0.12))
  (fp_line (start 1.312 -1.563) (end 1.168 -1.419) (layer F.SilkS) (width 0.12))
  (fp_line (start -1.376 1.124) (end -1.563 1.311) (layer F.SilkS) (width 0.12))
  (fp_line (start -4.5 -3.65) (end 4.5 -3.65) (layer F.Fab) (width 0.1))
  (fp_line (start -4.5 3.65) (end 4.5 3.65) (layer F.Fab) (width 0.1))
  (fp_line (start -4.5 -3.65) (end -4.5 3.65) (layer F.Fab) (width 0.1))
  (fp_line (start 4.5 -3.65) (end 4.5 3.65) (layer F.Fab) (width 0.1))
  (fp_line (start -4.56 -3.71) (end 4.56 -3.71) (layer F.SilkS) (width 0.12))
  (fp_line (start -4.56 3.71) (end 4.56 3.71) (layer F.SilkS) (width 0.12))
  (fp_line (start -4.56 -3.71) (end -4.56 3.71) (layer F.SilkS) (width 0.12))
  (fp_line (start 4.56 -3.71) (end 4.56 3.71) (layer F.SilkS) (width 0.12))
  (fp_line (start -5 -4.15) (end -5 4.15) (layer F.CrtYd) (width 0.05))
  (fp_line (start -5 4.15) (end 5 4.15) (layer F.CrtYd) (width 0.05))
  (fp_line (start 5 4.15) (end 5 -4.15) (layer F.CrtYd) (width 0.05))
  (fp_line (start 5 -4.15) (end -5 -4.15) (layer F.CrtYd) (width 0.05))
  (pad 1 thru_hole circle (at 0 0) (size 3 3) (drill 1.5) (layers *.Cu *.Mask))
  (fp_text user %R (at 0 -4.71) (layer F.Fab)
    (effects (font (size 1 1) (thickness 0.15)))
  )
  (model ${KICAD6_3DMODEL_DIR}/TerminalBlock_MetzConnect.3dshapes/TerminalBlock_MetzConnect_360271_1x01_Horizontal_ScrewM3.0_Boxed.wrl
    (at (xyz 0 0 0))
    (scale (xyz 1 1 1))
    (rotate (xyz 0 0 0))
  )
)