(module TerminalBlock_MetzConnect_Type055_RT01502HDWU_1x02_P5.00mm_Horizontal (layer F.Cu) (tedit 5B294EA7)
  (descr "terminal block Metz Connect Type055_RT01502HDWU, 2 pins, pitch 5mm, size 10x8mm^2, drill diamater 1.3mm, pad diameter 2.5mm, see http://www.metz-connect.com/de/system/files/productfiles/Datenblatt_310551_RT015xxHDWU_OFF-022723S.pdf, script-generated using https://github.com/pointhi/kicad-footprint-generator/scripts/TerminalBlock_MetzConnect")
  (tags "THT terminal block Metz Connect Type055_RT01502HDWU pitch 5mm size 10x8mm^2 drill 1.3mm pad 2.5mm")
  (fp_text reference REF** (at 2.5 -5.06) (layer F.SilkS)
    (effects (font (size 1 1) (thickness 0.15)))
  )
  (fp_text value TerminalBlock_MetzConnect_Type055_RT01502HDWU_1x02_P5.00mm_Horizontal (at 2.5 5.06) (layer F.Fab)
    (effects (font (size 1 1) (thickness 0.15)))
  )
  (fp_arc (start 0 0) (end 0 1.68) (angle -28) (layer F.SilkS) (width 0.12))
  (fp_arc (start 0 0) (end 1.484 0.789) (angle -56) (layer F.SilkS) (width 0.12))
  (fp_arc (start 0 0) (end 0.789 -1.484) (angle -56) (layer F.SilkS) (width 0.12))
  (fp_arc (start 0 0) (end -1.484 -0.789) (angle -56) (layer F.SilkS) (width 0.12))
  (fp_arc (start 0 0) (end -0.789 1.484) (angle -29) (layer F.SilkS) (width 0.12))
  (fp_circle (center 0 0) (end 1.5 0) (layer F.Fab) (width 0.1))
  (fp_circle (center 5 0) (end 6.5 0) (layer F.Fab) (width 0.1))
  (fp_circle (center 5 0) (end 6.68 0) (layer F.SilkS) (width 0.12))
  (fp_line (start -2.5 -4) (end 7.5 -4) (layer F.Fab) (width 0.1))
  (fp_line (start 7.5 -4) (end 7.5 4) (layer F.Fab) (width 0.1))
  (fp_line (start 7.5 4) (end -0.5 4) (layer F.Fab) (width 0.1))
  (fp_line (start -0.5 4) (end -2.5 2) (layer F.Fab) (width 0.1))
  (fp_line (start -2.5 2) (end -2.5 -4) (layer F.Fab) (width 0.1))
  (fp_line (start -2.5 2) (end 7.5 2) (layer F.Fab) (width 0.1))
  (fp_line (start -2.56 2) (end 7.56 2) (layer F.SilkS) (width 0.12))
  (fp_line (start -2.5 -2) (end 7.5 -2) (layer F.Fab) (width 0.1))
  (fp_line (start -2.56 -2) (end 7.56 -2) (layer F.SilkS) (width 0.12))
  (fp_line (start -2.56 -4.06) (end 7.56 -4.06) (layer F.SilkS) (width 0.12))
  (fp_line (start -2.56 4.06) (end 7.56 4.06) (layer F.SilkS) (width 0.12))
  (fp_line (start -2.56 -4.06) (end -2.56 4.06) (layer F.SilkS) (width 0.12))
  (fp_line (start 7.56 -4.06) (end 7.56 4.06) (layer F.SilkS) (width 0.12))
  (fp_line (start 1.138 -0.955) (end -0.955 1.138) (layer F.Fab) (width 0.1))
  (fp_line (start 0.955 -1.138) (end -1.138 0.955) (layer F.Fab) (width 0.1))
  (fp_line (start 6.138 -0.955) (end 4.046 1.138) (layer F.Fab) (width 0.1))
  (fp_line (start 5.955 -1.138) (end 3.863 0.955) (layer F.Fab) (width 0.1))
  (fp_line (start 6.275 -1.069) (end 6.181 -0.976) (layer F.SilkS) (width 0.12))
  (fp_line (start 3.99 1.216) (end 3.931 1.274) (layer F.SilkS) (width 0.12))
  (fp_line (start 6.07 -1.275) (end 6.011 -1.216) (layer F.SilkS) (width 0.12))
  (fp_line (start 3.82 0.976) (end 3.726 1.069) (layer F.SilkS) (width 0.12))
  (fp_line (start -2.8 2.06) (end -2.8 4.3) (layer F.SilkS) (width 0.12))
  (fp_line (start -2.8 4.3) (end -0.8 4.3) (layer F.SilkS) (width 0.12))
  (fp_line (start -3 -4.5) (end -3 4.5) (layer F.CrtYd) (width 0.05))
  (fp_line (start -3 4.5) (end 8 4.5) (layer F.CrtYd) (width 0.05))
  (fp_line (start 8 4.5) (end 8 -4.5) (layer F.CrtYd) (width 0.05))
  (fp_line (start 8 -4.5) (end -3 -4.5) (layer F.CrtYd) (width 0.05))
  (pad 1 thru_hole rect (at 0 0) (size 2.5 2.5) (drill 1.3) (layers *.Cu *.Mask))
  (pad 2 thru_hole circle (at 5 0) (size 2.5 2.5) (drill 1.3) (layers *.Cu *.Mask))
  (fp_text user %R (at 2.5 3) (layer F.Fab)
    (effects (font (size 1 1) (thickness 0.15)))
  )
  (model ${KICAD6_3DMODEL_DIR}/TerminalBlock_MetzConnect.3dshapes/TerminalBlock_MetzConnect_Type055_RT01502HDWU_1x02_P5.00mm_Horizontal.wrl
    (at (xyz 0 0 0))
    (scale (xyz 1 1 1))
    (rotate (xyz 0 0 0))
  )
)