(module TerminalBlock_MetzConnect_Type086_RT03403HBLC_1x03_P3.81mm_Horizontal (layer F.Cu) (tedit 5B294E97)
  (descr "terminal block Metz Connect Type086_RT03403HBLC, 3 pins, pitch 3.81mm, size 11.3x7.3mm^2, drill diamater 0.7mm, pad diameter 1.4mm, see http://www.metz-connect.com/de/system/files/productfiles/Datenblatt_310861_RT034xxHBLC_OFF-026114K.pdf, script-generated using https://github.com/pointhi/kicad-footprint-generator/scripts/TerminalBlock_MetzConnect")
  (tags "THT terminal block Metz Connect Type086_RT03403HBLC pitch 3.81mm size 11.3x7.3mm^2 drill 0.7mm pad 1.4mm")
  (fp_text reference REF** (at 3.81 -4.76) (layer F.SilkS)
    (effects (font (size 1 1) (thickness 0.15)))
  )
  (fp_text value TerminalBlock_MetzConnect_Type086_RT03403HBLC_1x03_P3.81mm_Horizontal (at 3.81 4.66) (layer F.Fab)
    (effects (font (size 1 1) (thickness 0.15)))
  )
  (fp_circle (center 0 0) (end 1.25 0) (layer F.Fab) (width 0.1))
  (fp_circle (center 0 0) (end 1.43 0) (layer F.SilkS) (width 0.12))
  (fp_circle (center 3.81 0) (end 5.06 0) (layer F.Fab) (width 0.1))
  (fp_circle (center 3.81 0) (end 5.24 0) (layer F.SilkS) (width 0.12))
  (fp_circle (center 7.62 0) (end 8.87 0) (layer F.Fab) (width 0.1))
  (fp_circle (center 7.62 0) (end 9.05 0) (layer F.SilkS) (width 0.12))
  (fp_line (start -1.85 -3.7) (end 9.47 -3.7) (layer F.Fab) (width 0.1))
  (fp_line (start 9.47 -3.7) (end 9.47 3.6) (layer F.Fab) (width 0.1))
  (fp_line (start 9.47 3.6) (end -1.25 3.6) (layer F.Fab) (width 0.1))
  (fp_line (start -1.25 3.6) (end -1.85 3) (layer F.Fab) (width 0.1))
  (fp_line (start -1.85 3) (end -1.85 -3.7) (layer F.Fab) (width 0.1))
  (fp_line (start -1.85 3) (end 9.47 3) (layer F.Fab) (width 0.1))
  (fp_line (start -1.91 3) (end 9.53 3) (layer F.SilkS) (width 0.12))
  (fp_line (start -1.85 1.7) (end 9.47 1.7) (layer F.Fab) (width 0.1))
  (fp_line (start -1.91 1.701) (end 9.53 1.701) (layer F.SilkS) (width 0.12))
  (fp_line (start -1.85 -1.7) (end 9.47 -1.7) (layer F.Fab) (width 0.1))
  (fp_line (start -1.91 -1.7) (end 9.53 -1.7) (layer F.SilkS) (width 0.12))
  (fp_line (start -1.91 -3.76) (end 9.53 -3.76) (layer F.SilkS) (width 0.12))
  (fp_line (start -1.91 3.66) (end 9.53 3.66) (layer F.SilkS) (width 0.12))
  (fp_line (start -1.91 -3.76) (end -1.91 3.66) (layer F.SilkS) (width 0.12))
  (fp_line (start 9.53 -3.76) (end 9.53 3.66) (layer F.SilkS) (width 0.12))
  (fp_line (start 0.949 -0.796) (end -0.796 0.948) (layer F.Fab) (width 0.1))
  (fp_line (start 0.796 -0.948) (end -0.949 0.796) (layer F.Fab) (width 0.1))
  (fp_line (start 1.085 -0.91) (end 0.945 -0.771) (layer F.SilkS) (width 0.12))
  (fp_line (start -0.771 0.945) (end -0.911 1.085) (layer F.SilkS) (width 0.12))
  (fp_line (start 0.911 -1.085) (end 0.771 -0.945) (layer F.SilkS) (width 0.12))
  (fp_line (start -0.946 0.771) (end -1.085 0.91) (layer F.SilkS) (width 0.12))
  (fp_line (start -1 -3.6) (end -1 -3.1) (layer F.Fab) (width 0.1))
  (fp_line (start -1 -3.1) (end 1 -3.1) (layer F.Fab) (width 0.1))
  (fp_line (start 1 -3.1) (end 1 -3.6) (layer F.Fab) (width 0.1))
  (fp_line (start 1 -3.6) (end -1 -3.6) (layer F.Fab) (width 0.1))
  (fp_line (start -1 -3.6) (end 1 -3.6) (layer F.SilkS) (width 0.12))
  (fp_line (start -1 -3.1) (end 1 -3.1) (layer F.SilkS) (width 0.12))
  (fp_line (start -1 -3.6) (end -1 -3.1) (layer F.SilkS) (width 0.12))
  (fp_line (start 1 -3.6) (end 1 -3.1) (layer F.SilkS) (width 0.12))
  (fp_line (start 4.759 -0.796) (end 3.015 0.948) (layer F.Fab) (width 0.1))
  (fp_line (start 4.606 -0.948) (end 2.862 0.796) (layer F.Fab) (width 0.1))
  (fp_line (start 4.895 -0.91) (end 4.596 -0.611) (layer F.SilkS) (width 0.12))
  (fp_line (start 3.2 0.786) (end 2.9 1.085) (layer F.SilkS) (width 0.12))
  (fp_line (start 4.721 -1.085) (end 4.421 -0.786) (layer F.SilkS) (width 0.12))
  (fp_line (start 3.025 0.611) (end 2.726 0.91) (layer F.SilkS) (width 0.12))
  (fp_line (start 2.81 -3.6) (end 2.81 -3.1) (layer F.Fab) (width 0.1))
  (fp_line (start 2.81 -3.1) (end 4.81 -3.1) (layer F.Fab) (width 0.1))
  (fp_line (start 4.81 -3.1) (end 4.81 -3.6) (layer F.Fab) (width 0.1))
  (fp_line (start 4.81 -3.6) (end 2.81 -3.6) (layer F.Fab) (width 0.1))
  (fp_line (start 2.81 -3.6) (end 4.81 -3.6) (layer F.SilkS) (width 0.12))
  (fp_line (start 2.81 -3.1) (end 4.81 -3.1) (layer F.SilkS) (width 0.12))
  (fp_line (start 2.81 -3.6) (end 2.81 -3.1) (layer F.SilkS) (width 0.12))
  (fp_line (start 4.81 -3.6) (end 4.81 -3.1) (layer F.SilkS) (width 0.12))
  (fp_line (start 8.569 -0.796) (end 6.825 0.948) (layer F.Fab) (width 0.1))
  (fp_line (start 8.416 -0.948) (end 6.672 0.796) (layer F.Fab) (width 0.1))
  (fp_line (start 8.705 -0.91) (end 8.406 -0.611) (layer F.SilkS) (width 0.12))
  (fp_line (start 7.01 0.786) (end 6.71 1.085) (layer F.SilkS) (width 0.12))
  (fp_line (start 8.531 -1.085) (end 8.231 -0.786) (layer F.SilkS) (width 0.12))
  (fp_line (start 6.835 0.611) (end 6.536 0.91) (layer F.SilkS) (width 0.12))
  (fp_line (start 6.62 -3.6) (end 6.62 -3.1) (layer F.Fab) (width 0.1))
  (fp_line (start 6.62 -3.1) (end 8.62 -3.1) (layer F.Fab) (width 0.1))
  (fp_line (start 8.62 -3.1) (end 8.62 -3.6) (layer F.Fab) (width 0.1))
  (fp_line (start 8.62 -3.6) (end 6.62 -3.6) (layer F.Fab) (width 0.1))
  (fp_line (start 6.62 -3.6) (end 8.62 -3.6) (layer F.SilkS) (width 0.12))
  (fp_line (start 6.62 -3.1) (end 8.62 -3.1) (layer F.SilkS) (width 0.12))
  (fp_line (start 6.62 -3.6) (end 6.62 -3.1) (layer F.SilkS) (width 0.12))
  (fp_line (start 8.62 -3.6) (end 8.62 -3.1) (layer F.SilkS) (width 0.12))
  (fp_line (start -2.15 3.06) (end -2.15 3.9) (layer F.SilkS) (width 0.12))
  (fp_line (start -2.15 3.9) (end -1.55 3.9) (layer F.SilkS) (width 0.12))
  (fp_line (start -2.35 -4.2) (end -2.35 4.11) (layer F.CrtYd) (width 0.05))
  (fp_line (start -2.35 4.11) (end 9.97 4.11) (layer F.CrtYd) (width 0.05))
  (fp_line (start 9.97 4.11) (end 9.97 -4.2) (layer F.CrtYd) (width 0.05))
  (fp_line (start 9.97 -4.2) (end -2.35 -4.2) (layer F.CrtYd) (width 0.05))
  (pad 1 thru_hole rect (at 0 0) (size 1.4 1.4) (drill 0.7) (layers *.Cu *.Mask))
  (pad 2 thru_hole circle (at 3.81 0) (size 1.4 1.4) (drill 0.7) (layers *.Cu *.Mask))
  (pad 3 thru_hole circle (at 7.62 0) (size 1.4 1.4) (drill 0.7) (layers *.Cu *.Mask))
  (fp_text user %R (at 3.81 2.4) (layer F.Fab)
    (effects (font (size 1 1) (thickness 0.15)))
  )
  (model ${KICAD6_3DMODEL_DIR}/TerminalBlock_MetzConnect.3dshapes/TerminalBlock_MetzConnect_Type086_RT03403HBLC_1x03_P3.81mm_Horizontal.wrl
    (at (xyz 0 0 0))
    (scale (xyz 1 1 1))
    (rotate (xyz 0 0 0))
  )
)