(module PinSocket_1x12_P1.00mm_Vertical_SMD_Pin1Left (layer F.Cu) (tedit 5A19A432)
  (descr "surface-mounted straight socket strip, 1x12, 1.00mm pitch, single row, style 1 (pin 1 left) (https://gct.co/files/drawings/bc070.pdf), script generated")
  (tags "Surface mounted socket strip SMD 1x12 1.00mm single row style1 pin1 left")
  (attr smd)
  (fp_text reference REF** (at 0 -7.75) (layer F.SilkS)
    (effects (font (size 1 1) (thickness 0.15)))
  )
  (fp_text value PinSocket_1x12_P1.00mm_Vertical_SMD_Pin1Left (at 0 7.75) (layer F.Fab)
    (effects (font (size 1 1) (thickness 0.15)))
  )
  (fp_line (start -0.81 -6.31) (end 0.81 -6.31) (layer F.SilkS) (width 0.12))
  (fp_line (start 0.81 -6.31) (end 0.81 -5.01) (layer F.SilkS) (width 0.12))
  (fp_line (start 0.81 -3.99) (end 0.81 -3.01) (layer F.SilkS) (width 0.12))
  (fp_line (start 0.81 -1.99) (end 0.81 -1.01) (layer F.SilkS) (width 0.12))
  (fp_line (start 0.81 0.01) (end 0.81 0.99) (layer F.SilkS) (width 0.12))
  (fp_line (start 0.81 2.01) (end 0.81 2.99) (layer F.SilkS) (width 0.12))
  (fp_line (start 0.81 4.01) (end 0.81 4.99) (layer F.SilkS) (width 0.12))
  (fp_line (start 0.81 6.01) (end 0.81 6.31) (layer F.SilkS) (width 0.12))
  (fp_line (start -0.81 6.31) (end 0.81 6.31) (layer F.SilkS) (width 0.12))
  (fp_line (start -0.81 -6.31) (end -0.81 -6.01) (layer F.SilkS) (width 0.12))
  (fp_line (start -0.81 -4.99) (end -0.81 -4.01) (layer F.SilkS) (width 0.12))
  (fp_line (start -0.81 -2.99) (end -0.81 -2.01) (layer F.SilkS) (width 0.12))
  (fp_line (start -0.81 -0.99) (end -0.81 -0.01) (layer F.SilkS) (width 0.12))
  (fp_line (start -0.81 1.01) (end -0.81 1.99) (layer F.SilkS) (width 0.12))
  (fp_line (start -0.81 3.01) (end -0.81 3.99) (layer F.SilkS) (width 0.12))
  (fp_line (start -0.81 5.01) (end -0.81 6.31) (layer F.SilkS) (width 0.12))
  (fp_line (start -1.89 -6.01) (end -0.81 -6.01) (layer F.SilkS) (width 0.12))
  (fp_line (start -0.375 -6.25) (end 0.75 -6.25) (layer F.Fab) (width 0.1))
  (fp_line (start 0.75 -6.25) (end 0.75 6.25) (layer F.Fab) (width 0.1))
  (fp_line (start 0.75 6.25) (end -0.75 6.25) (layer F.Fab) (width 0.1))
  (fp_line (start -0.75 6.25) (end -0.75 -5.875) (layer F.Fab) (width 0.1))
  (fp_line (start -0.75 -5.875) (end -0.375 -6.25) (layer F.Fab) (width 0.1))
  (fp_line (start -1.45 -5.65) (end -0.75 -5.65) (layer F.Fab) (width 0.1))
  (fp_line (start -0.75 -5.35) (end -1.45 -5.35) (layer F.Fab) (width 0.1))
  (fp_line (start -1.45 -5.35) (end -1.45 -5.65) (layer F.Fab) (width 0.1))
  (fp_line (start 0.75 -4.65) (end 1.45 -4.65) (layer F.Fab) (width 0.1))
  (fp_line (start 1.45 -4.65) (end 1.45 -4.35) (layer F.Fab) (width 0.1))
  (fp_line (start 1.45 -4.35) (end 0.75 -4.35) (layer F.Fab) (width 0.1))
  (fp_line (start -1.45 -3.65) (end -0.75 -3.65) (layer F.Fab) (width 0.1))
  (fp_line (start -0.75 -3.35) (end -1.45 -3.35) (layer F.Fab) (width 0.1))
  (fp_line (start -1.45 -3.35) (end -1.45 -3.65) (layer F.Fab) (width 0.1))
  (fp_line (start 0.75 -2.65) (end 1.45 -2.65) (layer F.Fab) (width 0.1))
  (fp_line (start 1.45 -2.65) (end 1.45 -2.35) (layer F.Fab) (width 0.1))
  (fp_line (start 1.45 -2.35) (end 0.75 -2.35) (layer F.Fab) (width 0.1))
  (fp_line (start -1.45 -1.65) (end -0.75 -1.65) (layer F.Fab) (width 0.1))
  (fp_line (start -0.75 -1.35) (end -1.45 -1.35) (layer F.Fab) (width 0.1))
  (fp_line (start -1.45 -1.35) (end -1.45 -1.65) (layer F.Fab) (width 0.1))
  (fp_line (start 0.75 -0.65) (end 1.45 -0.65) (layer F.Fab) (width 0.1))
  (fp_line (start 1.45 -0.65) (end 1.45 -0.35) (layer F.Fab) (width 0.1))
  (fp_line (start 1.45 -0.35) (end 0.75 -0.35) (layer F.Fab) (width 0.1))
  (fp_line (start -1.45 0.35) (end -0.75 0.35) (layer F.Fab) (width 0.1))
  (fp_line (start -0.75 0.65) (end -1.45 0.65) (layer F.Fab) (width 0.1))
  (fp_line (start -1.45 0.65) (end -1.45 0.35) (layer F.Fab) (width 0.1))
  (fp_line (start 0.75 1.35) (end 1.45 1.35) (layer F.Fab) (width 0.1))
  (fp_line (start 1.45 1.35) (end 1.45 1.65) (layer F.Fab) (width 0.1))
  (fp_line (start 1.45 1.65) (end 0.75 1.65) (layer F.Fab) (width 0.1))
  (fp_line (start -1.45 2.35) (end -0.75 2.35) (layer F.Fab) (width 0.1))
  (fp_line (start -0.75 2.65) (end -1.45 2.65) (layer F.Fab) (width 0.1))
  (fp_line (start -1.45 2.65) (end -1.45 2.35) (layer F.Fab) (width 0.1))
  (fp_line (start 0.75 3.35) (end 1.45 3.35) (layer F.Fab) (width 0.1))
  (fp_line (start 1.45 3.35) (end 1.45 3.65) (layer F.Fab) (width 0.1))
  (fp_line (start 1.45 3.65) (end 0.75 3.65) (layer F.Fab) (width 0.1))
  (fp_line (start -1.45 4.35) (end -0.75 4.35) (layer F.Fab) (width 0.1))
  (fp_line (start -0.75 4.65) (end -1.45 4.65) (layer F.Fab) (width 0.1))
  (fp_line (start -1.45 4.65) (end -1.45 4.35) (layer F.Fab) (width 0.1))
  (fp_line (start 0.75 5.35) (end 1.45 5.35) (layer F.Fab) (width 0.1))
  (fp_line (start 1.45 5.35) (end 1.45 5.65) (layer F.Fab) (width 0.1))
  (fp_line (start 1.45 5.65) (end 0.75 5.65) (layer F.Fab) (width 0.1))
  (fp_line (start -2.45 -6.75) (end 2.45 -6.75) (layer F.CrtYd) (width 0.05))
  (fp_line (start 2.45 -6.75) (end 2.45 6.75) (layer F.CrtYd) (width 0.05))
  (fp_line (start 2.45 6.75) (end -2.45 6.75) (layer F.CrtYd) (width 0.05))
  (fp_line (start -2.45 6.75) (end -2.45 -6.75) (layer F.CrtYd) (width 0.05))
  (pad 1 smd rect (at -0.975 -5.5) (size 1.95 0.5) (layers F.Cu F.Mask F.Paste))
  (pad 3 smd rect (at -0.975 -3.5) (size 1.95 0.5) (layers F.Cu F.Mask F.Paste))
  (pad 5 smd rect (at -0.975 -1.5) (size 1.95 0.5) (layers F.Cu F.Mask F.Paste))
  (pad 7 smd rect (at -0.975 0.5) (size 1.95 0.5) (layers F.Cu F.Mask F.Paste))
  (pad 9 smd rect (at -0.975 2.5) (size 1.95 0.5) (layers F.Cu F.Mask F.Paste))
  (pad 11 smd rect (at -0.975 4.5) (size 1.95 0.5) (layers F.Cu F.Mask F.Paste))
  (pad 2 smd rect (at 0.975 -4.5) (size 1.95 0.5) (layers F.Cu F.Mask F.Paste))
  (pad 4 smd rect (at 0.975 -2.5) (size 1.95 0.5) (layers F.Cu F.Mask F.Paste))
  (pad 6 smd rect (at 0.975 -0.5) (size 1.95 0.5) (layers F.Cu F.Mask F.Paste))
  (pad 8 smd rect (at 0.975 1.5) (size 1.95 0.5) (layers F.Cu F.Mask F.Paste))
  (pad 10 smd rect (at 0.975 3.5) (size 1.95 0.5) (layers F.Cu F.Mask F.Paste))
  (pad 12 smd rect (at 0.975 5.5) (size 1.95 0.5) (layers F.Cu F.Mask F.Paste))
  (fp_text user %R (at 0 0 90) (layer F.Fab)
    (effects (font (size 0.9 0.9) (thickness 0.14)))
  )
  (model ${KICAD6_3DMODEL_DIR}/Connector_PinSocket_1.00mm.3dshapes/PinSocket_1x12_P1.00mm_Vertical_SMD_Pin1Left.wrl
    (at (xyz 0 0 0))
    (scale (xyz 1 1 1))
    (rotate (xyz 0 0 0))
  )
)