(module PinSocket_1x33_P1.00mm_Vertical (layer F.Cu) (tedit 5A19A42B)
  (descr "Through hole straight socket strip, 1x33, 1.00mm pitch, single row (https://gct.co/files/drawings/bc065.pdf), script generated")
  (tags "Through hole socket strip THT 1x33 1.00mm single row")
  (fp_text reference REF** (at -0.29 -2.25) (layer F.SilkS)
    (effects (font (size 1 1) (thickness 0.15)))
  )
  (fp_text value PinSocket_1x33_P1.00mm_Vertical (at -0.29 34.25) (layer F.Fab)
    (effects (font (size 1 1) (thickness 0.15)))
  )
  (fp_line (start -1.04 -0.75) (end 0.085 -0.75) (layer F.Fab) (width 0.1))
  (fp_line (start 0.085 -0.75) (end 0.46 -0.375) (layer F.Fab) (width 0.1))
  (fp_line (start 0.46 -0.375) (end 0.46 32.75) (layer F.Fab) (width 0.1))
  (fp_line (start 0.46 32.75) (end -1.04 32.75) (layer F.Fab) (width 0.1))
  (fp_line (start -1.04 32.75) (end -1.04 -0.75) (layer F.Fab) (width 0.1))
  (fp_line (start -1.1 0.5) (end -0.685 0.5) (layer F.SilkS) (width 0.12))
  (fp_line (start -1.1 0.5) (end -1.1 32.81) (layer F.SilkS) (width 0.12))
  (fp_line (start -1.1 32.81) (end 0.52 32.81) (layer F.SilkS) (width 0.12))
  (fp_line (start 0.52 1.445898) (end 0.52 1.554102) (layer F.SilkS) (width 0.12))
  (fp_line (start 0.52 2.445898) (end 0.52 2.554102) (layer F.SilkS) (width 0.12))
  (fp_line (start 0.52 3.445898) (end 0.52 3.554102) (layer F.SilkS) (width 0.12))
  (fp_line (start 0.52 4.445898) (end 0.52 4.554102) (layer F.SilkS) (width 0.12))
  (fp_line (start 0.52 5.445898) (end 0.52 5.554102) (layer F.SilkS) (width 0.12))
  (fp_line (start 0.52 6.445898) (end 0.52 6.554102) (layer F.SilkS) (width 0.12))
  (fp_line (start 0.52 7.445898) (end 0.52 7.554102) (layer F.SilkS) (width 0.12))
  (fp_line (start 0.52 8.445898) (end 0.52 8.554102) (layer F.SilkS) (width 0.12))
  (fp_line (start 0.52 9.445898) (end 0.52 9.554102) (layer F.SilkS) (width 0.12))
  (fp_line (start 0.52 10.445898) (end 0.52 10.554102) (layer F.SilkS) (width 0.12))
  (fp_line (start 0.52 11.445898) (end 0.52 11.554102) (layer F.SilkS) (width 0.12))
  (fp_line (start 0.52 12.445898) (end 0.52 12.554102) (layer F.SilkS) (width 0.12))
  (fp_line (start 0.52 13.445898) (end 0.52 13.554102) (layer F.SilkS) (width 0.12))
  (fp_line (start 0.52 14.445898) (end 0.52 14.554102) (layer F.SilkS) (width 0.12))
  (fp_line (start 0.52 15.445898) (end 0.52 15.554102) (layer F.SilkS) (width 0.12))
  (fp_line (start 0.52 16.445898) (end 0.52 16.554102) (layer F.SilkS) (width 0.12))
  (fp_line (start 0.52 17.445898) (end 0.52 17.554102) (layer F.SilkS) (width 0.12))
  (fp_line (start 0.52 18.445898) (end 0.52 18.554102) (layer F.SilkS) (width 0.12))
  (fp_line (start 0.52 19.445898) (end 0.52 19.554102) (layer F.SilkS) (width 0.12))
  (fp_line (start 0.52 20.445898) (end 0.52 20.554102) (layer F.SilkS) (width 0.12))
  (fp_line (start 0.52 21.445898) (end 0.52 21.554102) (layer F.SilkS) (width 0.12))
  (fp_line (start 0.52 22.445898) (end 0.52 22.554102) (layer F.SilkS) (width 0.12))
  (fp_line (start 0.52 23.445898) (end 0.52 23.554102) (layer F.SilkS) (width 0.12))
  (fp_line (start 0.52 24.445898) (end 0.52 24.554102) (layer F.SilkS) (width 0.12))
  (fp_line (start 0.52 25.445898) (end 0.52 25.554102) (layer F.SilkS) (width 0.12))
  (fp_line (start 0.52 26.445898) (end 0.52 26.554102) (layer F.SilkS) (width 0.12))
  (fp_line (start 0.52 27.445898) (end 0.52 27.554102) (layer F.SilkS) (width 0.12))
  (fp_line (start 0.52 28.445898) (end 0.52 28.554102) (layer F.SilkS) (width 0.12))
  (fp_line (start 0.52 29.445898) (end 0.52 29.554102) (layer F.SilkS) (width 0.12))
  (fp_line (start 0.52 30.445898) (end 0.52 30.554102) (layer F.SilkS) (width 0.12))
  (fp_line (start 0.52 31.445898) (end 0.52 31.554102) (layer F.SilkS) (width 0.12))
  (fp_line (start 0.52 32.445898) (end 0.52 32.81) (layer F.SilkS) (width 0.12))
  (fp_line (start 0.685 -0.81) (end 0.685 0) (layer F.SilkS) (width 0.12))
  (fp_line (start 0 -0.81) (end 0.685 -0.81) (layer F.SilkS) (width 0.12))
  (fp_line (start -1.54 -1.25) (end 0.96 -1.25) (layer F.CrtYd) (width 0.05))
  (fp_line (start 0.96 -1.25) (end 0.96 33.25) (layer F.CrtYd) (width 0.05))
  (fp_line (start 0.96 33.25) (end -1.54 33.25) (layer F.CrtYd) (width 0.05))
  (fp_line (start -1.54 33.25) (end -1.54 -1.25) (layer F.CrtYd) (width 0.05))
  (pad 1 thru_hole rect (at 0 0) (size 0.85 0.85) (drill 0.5) (layers *.Cu *.Mask))
  (pad 2 thru_hole oval (at 0 1) (size 0.85 0.85) (drill 0.5) (layers *.Cu *.Mask))
  (pad 3 thru_hole oval (at 0 2) (size 0.85 0.85) (drill 0.5) (layers *.Cu *.Mask))
  (pad 4 thru_hole oval (at 0 3) (size 0.85 0.85) (drill 0.5) (layers *.Cu *.Mask))
  (pad 5 thru_hole oval (at 0 4) (size 0.85 0.85) (drill 0.5) (layers *.Cu *.Mask))
  (pad 6 thru_hole oval (at 0 5) (size 0.85 0.85) (drill 0.5) (layers *.Cu *.Mask))
  (pad 7 thru_hole oval (at 0 6) (size 0.85 0.85) (drill 0.5) (layers *.Cu *.Mask))
  (pad 8 thru_hole oval (at 0 7) (size 0.85 0.85) (drill 0.5) (layers *.Cu *.Mask))
  (pad 9 thru_hole oval (at 0 8) (size 0.85 0.85) (drill 0.5) (layers *.Cu *.Mask))
  (pad 10 thru_hole oval (at 0 9) (size 0.85 0.85) (drill 0.5) (layers *.Cu *.Mask))
  (pad 11 thru_hole oval (at 0 10) (size 0.85 0.85) (drill 0.5) (layers *.Cu *.Mask))
  (pad 12 thru_hole oval (at 0 11) (size 0.85 0.85) (drill 0.5) (layers *.Cu *.Mask))
  (pad 13 thru_hole oval (at 0 12) (size 0.85 0.85) (drill 0.5) (layers *.Cu *.Mask))
  (pad 14 thru_hole oval (at 0 13) (size 0.85 0.85) (drill 0.5) (layers *.Cu *.Mask))
  (pad 15 thru_hole oval (at 0 14) (size 0.85 0.85) (drill 0.5) (layers *.Cu *.Mask))
  (pad 16 thru_hole oval (at 0 15) (size 0.85 0.85) (drill 0.5) (layers *.Cu *.Mask))
  (pad 17 thru_hole oval (at 0 16) (size 0.85 0.85) (drill 0.5) (layers *.Cu *.Mask))
  (pad 18 thru_hole oval (at 0 17) (size 0.85 0.85) (drill 0.5) (layers *.Cu *.Mask))
  (pad 19 thru_hole oval (at 0 18) (size 0.85 0.85) (drill 0.5) (layers *.Cu *.Mask))
  (pad 20 thru_hole oval (at 0 19) (size 0.85 0.85) (drill 0.5) (layers *.Cu *.Mask))
  (pad 21 thru_hole oval (at 0 20) (size 0.85 0.85) (drill 0.5) (layers *.Cu *.Mask))
  (pad 22 thru_hole oval (at 0 21) (size 0.85 0.85) (drill 0.5) (layers *.Cu *.Mask))
  (pad 23 thru_hole oval (at 0 22) (size 0.85 0.85) (drill 0.5) (layers *.Cu *.Mask))
  (pad 24 thru_hole oval (at 0 23) (size 0.85 0.85) (drill 0.5) (layers *.Cu *.Mask))
  (pad 25 thru_hole oval (at 0 24) (size 0.85 0.85) (drill 0.5) (layers *.Cu *.Mask))
  (pad 26 thru_hole oval (at 0 25) (size 0.85 0.85) (drill 0.5) (layers *.Cu *.Mask))
  (pad 27 thru_hole oval (at 0 26) (size 0.85 0.85) (drill 0.5) (layers *.Cu *.Mask))
  (pad 28 thru_hole oval (at 0 27) (size 0.85 0.85) (drill 0.5) (layers *.Cu *.Mask))
  (pad 29 thru_hole oval (at 0 28) (size 0.85 0.85) (drill 0.5) (layers *.Cu *.Mask))
  (pad 30 thru_hole oval (at 0 29) (size 0.85 0.85) (drill 0.5) (layers *.Cu *.Mask))
  (pad 31 thru_hole oval (at 0 30) (size 0.85 0.85) (drill 0.5) (layers *.Cu *.Mask))
  (pad 32 thru_hole oval (at 0 31) (size 0.85 0.85) (drill 0.5) (layers *.Cu *.Mask))
  (pad 33 thru_hole oval (at 0 32) (size 0.85 0.85) (drill 0.5) (layers *.Cu *.Mask))
  (fp_text user %R (at -0.29 16 90) (layer F.Fab)
    (effects (font (size 0.9 0.9) (thickness 0.14)))
  )
  (model ${KICAD6_3DMODEL_DIR}/Connector_PinSocket_1.00mm.3dshapes/PinSocket_1x33_P1.00mm_Vertical.wrl
    (at (xyz 0 0 0))
    (scale (xyz 1 1 1))
    (rotate (xyz 0 0 0))
  )
)