(module PinSocket_1x23_P1.00mm_Vertical_SMD_Pin1Left (layer F.Cu) (tedit 5A19A434)
  (descr "surface-mounted straight socket strip, 1x23, 1.00mm pitch, single row, style 1 (pin 1 left) (https://gct.co/files/drawings/bc070.pdf), script generated")
  (tags "Surface mounted socket strip SMD 1x23 1.00mm single row style1 pin1 left")
  (attr smd)
  (fp_text reference REF** (at 0 -13.25) (layer F.SilkS)
    (effects (font (size 1 1) (thickness 0.15)))
  )
  (fp_text value PinSocket_1x23_P1.00mm_Vertical_SMD_Pin1Left (at 0 13.25) (layer F.Fab)
    (effects (font (size 1 1) (thickness 0.15)))
  )
  (fp_line (start -0.81 -11.81) (end 0.81 -11.81) (layer F.SilkS) (width 0.12))
  (fp_line (start 0.81 -11.81) (end 0.81 -10.51) (layer F.SilkS) (width 0.12))
  (fp_line (start 0.81 -9.49) (end 0.81 -8.51) (layer F.SilkS) (width 0.12))
  (fp_line (start 0.81 -7.49) (end 0.81 -6.51) (layer F.SilkS) (width 0.12))
  (fp_line (start 0.81 -5.49) (end 0.81 -4.51) (layer F.SilkS) (width 0.12))
  (fp_line (start 0.81 -3.49) (end 0.81 -2.51) (layer F.SilkS) (width 0.12))
  (fp_line (start 0.81 -1.49) (end 0.81 -0.51) (layer F.SilkS) (width 0.12))
  (fp_line (start 0.81 0.51) (end 0.81 1.49) (layer F.SilkS) (width 0.12))
  (fp_line (start 0.81 2.51) (end 0.81 3.49) (layer F.SilkS) (width 0.12))
  (fp_line (start 0.81 4.51) (end 0.81 5.49) (layer F.SilkS) (width 0.12))
  (fp_line (start 0.81 6.51) (end 0.81 7.49) (layer F.SilkS) (width 0.12))
  (fp_line (start 0.81 8.51) (end 0.81 9.49) (layer F.SilkS) (width 0.12))
  (fp_line (start 0.81 10.51) (end 0.81 11.81) (layer F.SilkS) (width 0.12))
  (fp_line (start -0.81 11.81) (end 0.81 11.81) (layer F.SilkS) (width 0.12))
  (fp_line (start -0.81 -11.81) (end -0.81 -11.51) (layer F.SilkS) (width 0.12))
  (fp_line (start -0.81 -10.49) (end -0.81 -9.51) (layer F.SilkS) (width 0.12))
  (fp_line (start -0.81 -8.49) (end -0.81 -7.51) (layer F.SilkS) (width 0.12))
  (fp_line (start -0.81 -6.49) (end -0.81 -5.51) (layer F.SilkS) (width 0.12))
  (fp_line (start -0.81 -4.49) (end -0.81 -3.51) (layer F.SilkS) (width 0.12))
  (fp_line (start -0.81 -2.49) (end -0.81 -1.51) (layer F.SilkS) (width 0.12))
  (fp_line (start -0.81 -0.49) (end -0.81 0.49) (layer F.SilkS) (width 0.12))
  (fp_line (start -0.81 1.51) (end -0.81 2.49) (layer F.SilkS) (width 0.12))
  (fp_line (start -0.81 3.51) (end -0.81 4.49) (layer F.SilkS) (width 0.12))
  (fp_line (start -0.81 5.51) (end -0.81 6.49) (layer F.SilkS) (width 0.12))
  (fp_line (start -0.81 7.51) (end -0.81 8.49) (layer F.SilkS) (width 0.12))
  (fp_line (start -0.81 9.51) (end -0.81 10.49) (layer F.SilkS) (width 0.12))
  (fp_line (start -0.81 11.51) (end -0.81 11.81) (layer F.SilkS) (width 0.12))
  (fp_line (start -1.89 -11.51) (end -0.81 -11.51) (layer F.SilkS) (width 0.12))
  (fp_line (start -0.375 -11.75) (end 0.75 -11.75) (layer F.Fab) (width 0.1))
  (fp_line (start 0.75 -11.75) (end 0.75 11.75) (layer F.Fab) (width 0.1))
  (fp_line (start 0.75 11.75) (end -0.75 11.75) (layer F.Fab) (width 0.1))
  (fp_line (start -0.75 11.75) (end -0.75 -11.375) (layer F.Fab) (width 0.1))
  (fp_line (start -0.75 -11.375) (end -0.375 -11.75) (layer F.Fab) (width 0.1))
  (fp_line (start -1.45 -11.15) (end -0.75 -11.15) (layer F.Fab) (width 0.1))
  (fp_line (start -0.75 -10.85) (end -1.45 -10.85) (layer F.Fab) (width 0.1))
  (fp_line (start -1.45 -10.85) (end -1.45 -11.15) (layer F.Fab) (width 0.1))
  (fp_line (start 0.75 -10.15) (end 1.45 -10.15) (layer F.Fab) (width 0.1))
  (fp_line (start 1.45 -10.15) (end 1.45 -9.85) (layer F.Fab) (width 0.1))
  (fp_line (start 1.45 -9.85) (end 0.75 -9.85) (layer F.Fab) (width 0.1))
  (fp_line (start -1.45 -9.15) (end -0.75 -9.15) (layer F.Fab) (width 0.1))
  (fp_line (start -0.75 -8.85) (end -1.45 -8.85) (layer F.Fab) (width 0.1))
  (fp_line (start -1.45 -8.85) (end -1.45 -9.15) (layer F.Fab) (width 0.1))
  (fp_line (start 0.75 -8.15) (end 1.45 -8.15) (layer F.Fab) (width 0.1))
  (fp_line (start 1.45 -8.15) (end 1.45 -7.85) (layer F.Fab) (width 0.1))
  (fp_line (start 1.45 -7.85) (end 0.75 -7.85) (layer F.Fab) (width 0.1))
  (fp_line (start -1.45 -7.15) (end -0.75 -7.15) (layer F.Fab) (width 0.1))
  (fp_line (start -0.75 -6.85) (end -1.45 -6.85) (layer F.Fab) (width 0.1))
  (fp_line (start -1.45 -6.85) (end -1.45 -7.15) (layer F.Fab) (width 0.1))
  (fp_line (start 0.75 -6.15) (end 1.45 -6.15) (layer F.Fab) (width 0.1))
  (fp_line (start 1.45 -6.15) (end 1.45 -5.85) (layer F.Fab) (width 0.1))
  (fp_line (start 1.45 -5.85) (end 0.75 -5.85) (layer F.Fab) (width 0.1))
  (fp_line (start -1.45 -5.15) (end -0.75 -5.15) (layer F.Fab) (width 0.1))
  (fp_line (start -0.75 -4.85) (end -1.45 -4.85) (layer F.Fab) (width 0.1))
  (fp_line (start -1.45 -4.85) (end -1.45 -5.15) (layer F.Fab) (width 0.1))
  (fp_line (start 0.75 -4.15) (end 1.45 -4.15) (layer F.Fab) (width 0.1))
  (fp_line (start 1.45 -4.15) (end 1.45 -3.85) (layer F.Fab) (width 0.1))
  (fp_line (start 1.45 -3.85) (end 0.75 -3.85) (layer F.Fab) (width 0.1))
  (fp_line (start -1.45 -3.15) (end -0.75 -3.15) (layer F.Fab) (width 0.1))
  (fp_line (start -0.75 -2.85) (end -1.45 -2.85) (layer F.Fab) (width 0.1))
  (fp_line (start -1.45 -2.85) (end -1.45 -3.15) (layer F.Fab) (width 0.1))
  (fp_line (start 0.75 -2.15) (end 1.45 -2.15) (layer F.Fab) (width 0.1))
  (fp_line (start 1.45 -2.15) (end 1.45 -1.85) (layer F.Fab) (width 0.1))
  (fp_line (start 1.45 -1.85) (end 0.75 -1.85) (layer F.Fab) (width 0.1))
  (fp_line (start -1.45 -1.15) (end -0.75 -1.15) (layer F.Fab) (width 0.1))
  (fp_line (start -0.75 -0.85) (end -1.45 -0.85) (layer F.Fab) (width 0.1))
  (fp_line (start -1.45 -0.85) (end -1.45 -1.15) (layer F.Fab) (width 0.1))
  (fp_line (start 0.75 -0.15) (end 1.45 -0.15) (layer F.Fab) (width 0.1))
  (fp_line (start 1.45 -0.15) (end 1.45 0.15) (layer F.Fab) (width 0.1))
  (fp_line (start 1.45 0.15) (end 0.75 0.15) (layer F.Fab) (width 0.1))
  (fp_line (start -1.45 0.85) (end -0.75 0.85) (layer F.Fab) (width 0.1))
  (fp_line (start -0.75 1.15) (end -1.45 1.15) (layer F.Fab) (width 0.1))
  (fp_line (start -1.45 1.15) (end -1.45 0.85) (layer F.Fab) (width 0.1))
  (fp_line (start 0.75 1.85) (end 1.45 1.85) (layer F.Fab) (width 0.1))
  (fp_line (start 1.45 1.85) (end 1.45 2.15) (layer F.Fab) (width 0.1))
  (fp_line (start 1.45 2.15) (end 0.75 2.15) (layer F.Fab) (width 0.1))
  (fp_line (start -1.45 2.85) (end -0.75 2.85) (layer F.Fab) (width 0.1))
  (fp_line (start -0.75 3.15) (end -1.45 3.15) (layer F.Fab) (width 0.1))
  (fp_line (start -1.45 3.15) (end -1.45 2.85) (layer F.Fab) (width 0.1))
  (fp_line (start 0.75 3.85) (end 1.45 3.85) (layer F.Fab) (width 0.1))
  (fp_line (start 1.45 3.85) (end 1.45 4.15) (layer F.Fab) (width 0.1))
  (fp_line (start 1.45 4.15) (end 0.75 4.15) (layer F.Fab) (width 0.1))
  (fp_line (start -1.45 4.85) (end -0.75 4.85) (layer F.Fab) (width 0.1))
  (fp_line (start -0.75 5.15) (end -1.45 5.15) (layer F.Fab) (width 0.1))
  (fp_line (start -1.45 5.15) (end -1.45 4.85) (layer F.Fab) (width 0.1))
  (fp_line (start 0.75 5.85) (end 1.45 5.85) (layer F.Fab) (width 0.1))
  (fp_line (start 1.45 5.85) (end 1.45 6.15) (layer F.Fab) (width 0.1))
  (fp_line (start 1.45 6.15) (end 0.75 6.15) (layer F.Fab) (width 0.1))
  (fp_line (start -1.45 6.85) (end -0.75 6.85) (layer F.Fab) (width 0.1))
  (fp_line (start -0.75 7.15) (end -1.45 7.15) (layer F.Fab) (width 0.1))
  (fp_line (start -1.45 7.15) (end -1.45 6.85) (layer F.Fab) (width 0.1))
  (fp_line (start 0.75 7.85) (end 1.45 7.85) (layer F.Fab) (width 0.1))
  (fp_line (start 1.45 7.85) (end 1.45 8.15) (layer F.Fab) (width 0.1))
  (fp_line (start 1.45 8.15) (end 0.75 8.15) (layer F.Fab) (width 0.1))
  (fp_line (start -1.45 8.85) (end -0.75 8.85) (layer F.Fab) (width 0.1))
  (fp_line (start -0.75 9.15) (end -1.45 9.15) (layer F.Fab) (width 0.1))
  (fp_line (start -1.45 9.15) (end -1.45 8.85) (layer F.Fab) (width 0.1))
  (fp_line (start 0.75 9.85) (end 1.45 9.85) (layer F.Fab) (width 0.1))
  (fp_line (start 1.45 9.85) (end 1.45 10.15) (layer F.Fab) (width 0.1))
  (fp_line (start 1.45 10.15) (end 0.75 10.15) (layer F.Fab) (width 0.1))
  (fp_line (start -1.45 10.85) (end -0.75 10.85) (layer F.Fab) (width 0.1))
  (fp_line (start -0.75 11.15) (end -1.45 11.15) (layer F.Fab) (width 0.1))
  (fp_line (start -1.45 11.15) (end -1.45 10.85) (layer F.Fab) (width 0.1))
  (fp_line (start -2.45 -12.25) (end 2.45 -12.25) (layer F.CrtYd) (width 0.05))
  (fp_line (start 2.45 -12.25) (end 2.45 12.25) (layer F.CrtYd) (width 0.05))
  (fp_line (start 2.45 12.25) (end -2.45 12.25) (layer F.CrtYd) (width 0.05))
  (fp_line (start -2.45 12.25) (end -2.45 -12.25) (layer F.CrtYd) (width 0.05))
  (pad 1 smd rect (at -0.975 -11) (size 1.95 0.5) (layers F.Cu F.Mask F.Paste))
  (pad 3 smd rect (at -0.975 -9) (size 1.95 0.5) (layers F.Cu F.Mask F.Paste))
  (pad 5 smd rect (at -0.975 -7) (size 1.95 0.5) (layers F.Cu F.Mask F.Paste))
  (pad 7 smd rect (at -0.975 -5) (size 1.95 0.5) (layers F.Cu F.Mask F.Paste))
  (pad 9 smd rect (at -0.975 -3) (size 1.95 0.5) (layers F.Cu F.Mask F.Paste))
  (pad 11 smd rect (at -0.975 -1) (size 1.95 0.5) (layers F.Cu F.Mask F.Paste))
  (pad 13 smd rect (at -0.975 1) (size 1.95 0.5) (layers F.Cu F.Mask F.Paste))
  (pad 15 smd rect (at -0.975 3) (size 1.95 0.5) (layers F.Cu F.Mask F.Paste))
  (pad 17 smd rect (at -0.975 5) (size 1.95 0.5) (layers F.Cu F.Mask F.Paste))
  (pad 19 smd rect (at -0.975 7) (size 1.95 0.5) (layers F.Cu F.Mask F.Paste))
  (pad 21 smd rect (at -0.975 9) (size 1.95 0.5) (layers F.Cu F.Mask F.Paste))
  (pad 23 smd rect (at -0.975 11) (size 1.95 0.5) (layers F.Cu F.Mask F.Paste))
  (pad 2 smd rect (at 0.975 -10) (size 1.95 0.5) (layers F.Cu F.Mask F.Paste))
  (pad 4 smd rect (at 0.975 -8) (size 1.95 0.5) (layers F.Cu F.Mask F.Paste))
  (pad 6 smd rect (at 0.975 -6) (size 1.95 0.5) (layers F.Cu F.Mask F.Paste))
  (pad 8 smd rect (at 0.975 -4) (size 1.95 0.5) (layers F.Cu F.Mask F.Paste))
  (pad 10 smd rect (at 0.975 -2) (size 1.95 0.5) (layers F.Cu F.Mask F.Paste))
  (pad 12 smd rect (at 0.975 0) (size 1.95 0.5) (layers F.Cu F.Mask F.Paste))
  (pad 14 smd rect (at 0.975 2) (size 1.95 0.5) (layers F.Cu F.Mask F.Paste))
  (pad 16 smd rect (at 0.975 4) (size 1.95 0.5) (layers F.Cu F.Mask F.Paste))
  (pad 18 smd rect (at 0.975 6) (size 1.95 0.5) (layers F.Cu F.Mask F.Paste))
  (pad 20 smd rect (at 0.975 8) (size 1.95 0.5) (layers F.Cu F.Mask F.Paste))
  (pad 22 smd rect (at 0.975 10) (size 1.95 0.5) (layers F.Cu F.Mask F.Paste))
  (fp_text user %R (at 0 0 90) (layer F.Fab)
    (effects (font (size 0.9 0.9) (thickness 0.14)))
  )
  (model ${KICAD6_3DMODEL_DIR}/Connector_PinSocket_1.00mm.3dshapes/PinSocket_1x23_P1.00mm_Vertical_SMD_Pin1Left.wrl
    (at (xyz 0 0 0))
    (scale (xyz 1 1 1))
    (rotate (xyz 0 0 0))
  )
)