(module PinSocket_1x38_P1.00mm_Vertical_SMD_Pin1Right (layer F.Cu) (tedit 5A19A420)
  (descr "surface-mounted straight socket strip, 1x38, 1.00mm pitch, single row, style 2 (pin 1 right) (https://gct.co/files/drawings/bc070.pdf), script generated")
  (tags "Surface mounted socket strip SMD 1x38 1.00mm single row style2 pin1 right")
  (attr smd)
  (fp_text reference REF** (at 0 -20.75) (layer F.SilkS)
    (effects (font (size 1 1) (thickness 0.15)))
  )
  (fp_text value PinSocket_1x38_P1.00mm_Vertical_SMD_Pin1Right (at 0 20.75) (layer F.Fab)
    (effects (font (size 1 1) (thickness 0.15)))
  )
  (fp_line (start -0.81 -19.31) (end 0.81 -19.31) (layer F.SilkS) (width 0.12))
  (fp_line (start 0.81 -19.31) (end 0.81 -19.01) (layer F.SilkS) (width 0.12))
  (fp_line (start 0.81 -17.99) (end 0.81 -17.01) (layer F.SilkS) (width 0.12))
  (fp_line (start 0.81 -15.99) (end 0.81 -15.01) (layer F.SilkS) (width 0.12))
  (fp_line (start 0.81 -13.99) (end 0.81 -13.01) (layer F.SilkS) (width 0.12))
  (fp_line (start 0.81 -11.99) (end 0.81 -11.01) (layer F.SilkS) (width 0.12))
  (fp_line (start 0.81 -9.99) (end 0.81 -9.01) (layer F.SilkS) (width 0.12))
  (fp_line (start 0.81 -7.99) (end 0.81 -7.01) (layer F.SilkS) (width 0.12))
  (fp_line (start 0.81 -5.99) (end 0.81 -5.01) (layer F.SilkS) (width 0.12))
  (fp_line (start 0.81 -3.99) (end 0.81 -3.01) (layer F.SilkS) (width 0.12))
  (fp_line (start 0.81 -1.99) (end 0.81 -1.01) (layer F.SilkS) (width 0.12))
  (fp_line (start 0.81 0.01) (end 0.81 0.99) (layer F.SilkS) (width 0.12))
  (fp_line (start 0.81 2.01) (end 0.81 2.99) (layer F.SilkS) (width 0.12))
  (fp_line (start 0.81 4.01) (end 0.81 4.99) (layer F.SilkS) (width 0.12))
  (fp_line (start 0.81 6.01) (end 0.81 6.99) (layer F.SilkS) (width 0.12))
  (fp_line (start 0.81 8.01) (end 0.81 8.99) (layer F.SilkS) (width 0.12))
  (fp_line (start 0.81 10.01) (end 0.81 10.99) (layer F.SilkS) (width 0.12))
  (fp_line (start 0.81 12.01) (end 0.81 12.99) (layer F.SilkS) (width 0.12))
  (fp_line (start 0.81 14.01) (end 0.81 14.99) (layer F.SilkS) (width 0.12))
  (fp_line (start 0.81 16.01) (end 0.81 16.99) (layer F.SilkS) (width 0.12))
  (fp_line (start 0.81 18.01) (end 0.81 19.31) (layer F.SilkS) (width 0.12))
  (fp_line (start -0.81 19.31) (end 0.81 19.31) (layer F.SilkS) (width 0.12))
  (fp_line (start -0.81 -19.31) (end -0.81 -18.01) (layer F.SilkS) (width 0.12))
  (fp_line (start -0.81 -16.99) (end -0.81 -16.01) (layer F.SilkS) (width 0.12))
  (fp_line (start -0.81 -14.99) (end -0.81 -14.01) (layer F.SilkS) (width 0.12))
  (fp_line (start -0.81 -12.99) (end -0.81 -12.01) (layer F.SilkS) (width 0.12))
  (fp_line (start -0.81 -10.99) (end -0.81 -10.01) (layer F.SilkS) (width 0.12))
  (fp_line (start -0.81 -8.99) (end -0.81 -8.01) (layer F.SilkS) (width 0.12))
  (fp_line (start -0.81 -6.99) (end -0.81 -6.01) (layer F.SilkS) (width 0.12))
  (fp_line (start -0.81 -4.99) (end -0.81 -4.01) (layer F.SilkS) (width 0.12))
  (fp_line (start -0.81 -2.99) (end -0.81 -2.01) (layer F.SilkS) (width 0.12))
  (fp_line (start -0.81 -0.99) (end -0.81 -0.01) (layer F.SilkS) (width 0.12))
  (fp_line (start -0.81 1.01) (end -0.81 1.99) (layer F.SilkS) (width 0.12))
  (fp_line (start -0.81 3.01) (end -0.81 3.99) (layer F.SilkS) (width 0.12))
  (fp_line (start -0.81 5.01) (end -0.81 5.99) (layer F.SilkS) (width 0.12))
  (fp_line (start -0.81 7.01) (end -0.81 7.99) (layer F.SilkS) (width 0.12))
  (fp_line (start -0.81 9.01) (end -0.81 9.99) (layer F.SilkS) (width 0.12))
  (fp_line (start -0.81 11.01) (end -0.81 11.99) (layer F.SilkS) (width 0.12))
  (fp_line (start -0.81 13.01) (end -0.81 13.99) (layer F.SilkS) (width 0.12))
  (fp_line (start -0.81 15.01) (end -0.81 15.99) (layer F.SilkS) (width 0.12))
  (fp_line (start -0.81 17.01) (end -0.81 17.99) (layer F.SilkS) (width 0.12))
  (fp_line (start -0.81 19.01) (end -0.81 19.31) (layer F.SilkS) (width 0.12))
  (fp_line (start 0.81 -19.01) (end 1.89 -19.01) (layer F.SilkS) (width 0.12))
  (fp_line (start -0.75 -19.25) (end 0.375 -19.25) (layer F.Fab) (width 0.1))
  (fp_line (start 0.375 -19.25) (end 0.75 -18.875) (layer F.Fab) (width 0.1))
  (fp_line (start 0.75 -18.875) (end 0.75 19.25) (layer F.Fab) (width 0.1))
  (fp_line (start 0.75 19.25) (end -0.75 19.25) (layer F.Fab) (width 0.1))
  (fp_line (start -0.75 19.25) (end -0.75 -19.25) (layer F.Fab) (width 0.1))
  (fp_line (start 0.75 -18.65) (end 1.45 -18.65) (layer F.Fab) (width 0.1))
  (fp_line (start 1.45 -18.65) (end 1.45 -18.35) (layer F.Fab) (width 0.1))
  (fp_line (start 1.45 -18.35) (end 0.75 -18.35) (layer F.Fab) (width 0.1))
  (fp_line (start -1.45 -17.65) (end -0.75 -17.65) (layer F.Fab) (width 0.1))
  (fp_line (start -0.75 -17.35) (end -1.45 -17.35) (layer F.Fab) (width 0.1))
  (fp_line (start -1.45 -17.35) (end -1.45 -17.65) (layer F.Fab) (width 0.1))
  (fp_line (start 0.75 -16.65) (end 1.45 -16.65) (layer F.Fab) (width 0.1))
  (fp_line (start 1.45 -16.65) (end 1.45 -16.35) (layer F.Fab) (width 0.1))
  (fp_line (start 1.45 -16.35) (end 0.75 -16.35) (layer F.Fab) (width 0.1))
  (fp_line (start -1.45 -15.65) (end -0.75 -15.65) (layer F.Fab) (width 0.1))
  (fp_line (start -0.75 -15.35) (end -1.45 -15.35) (layer F.Fab) (width 0.1))
  (fp_line (start -1.45 -15.35) (end -1.45 -15.65) (layer F.Fab) (width 0.1))
  (fp_line (start 0.75 -14.65) (end 1.45 -14.65) (layer F.Fab) (width 0.1))
  (fp_line (start 1.45 -14.65) (end 1.45 -14.35) (layer F.Fab) (width 0.1))
  (fp_line (start 1.45 -14.35) (end 0.75 -14.35) (layer F.Fab) (width 0.1))
  (fp_line (start -1.45 -13.65) (end -0.75 -13.65) (layer F.Fab) (width 0.1))
  (fp_line (start -0.75 -13.35) (end -1.45 -13.35) (layer F.Fab) (width 0.1))
  (fp_line (start -1.45 -13.35) (end -1.45 -13.65) (layer F.Fab) (width 0.1))
  (fp_line (start 0.75 -12.65) (end 1.45 -12.65) (layer F.Fab) (width 0.1))
  (fp_line (start 1.45 -12.65) (end 1.45 -12.35) (layer F.Fab) (width 0.1))
  (fp_line (start 1.45 -12.35) (end 0.75 -12.35) (layer F.Fab) (width 0.1))
  (fp_line (start -1.45 -11.65) (end -0.75 -11.65) (layer F.Fab) (width 0.1))
  (fp_line (start -0.75 -11.35) (end -1.45 -11.35) (layer F.Fab) (width 0.1))
  (fp_line (start -1.45 -11.35) (end -1.45 -11.65) (layer F.Fab) (width 0.1))
  (fp_line (start 0.75 -10.65) (end 1.45 -10.65) (layer F.Fab) (width 0.1))
  (fp_line (start 1.45 -10.65) (end 1.45 -10.35) (layer F.Fab) (width 0.1))
  (fp_line (start 1.45 -10.35) (end 0.75 -10.35) (layer F.Fab) (width 0.1))
  (fp_line (start -1.45 -9.65) (end -0.75 -9.65) (layer F.Fab) (width 0.1))
  (fp_line (start -0.75 -9.35) (end -1.45 -9.35) (layer F.Fab) (width 0.1))
  (fp_line (start -1.45 -9.35) (end -1.45 -9.65) (layer F.Fab) (width 0.1))
  (fp_line (start 0.75 -8.65) (end 1.45 -8.65) (layer F.Fab) (width 0.1))
  (fp_line (start 1.45 -8.65) (end 1.45 -8.35) (layer F.Fab) (width 0.1))
  (fp_line (start 1.45 -8.35) (end 0.75 -8.35) (layer F.Fab) (width 0.1))
  (fp_line (start -1.45 -7.65) (end -0.75 -7.65) (layer F.Fab) (width 0.1))
  (fp_line (start -0.75 -7.35) (end -1.45 -7.35) (layer F.Fab) (width 0.1))
  (fp_line (start -1.45 -7.35) (end -1.45 -7.65) (layer F.Fab) (width 0.1))
  (fp_line (start 0.75 -6.65) (end 1.45 -6.65) (layer F.Fab) (width 0.1))
  (fp_line (start 1.45 -6.65) (end 1.45 -6.35) (layer F.Fab) (width 0.1))
  (fp_line (start 1.45 -6.35) (end 0.75 -6.35) (layer F.Fab) (width 0.1))
  (fp_line (start -1.45 -5.65) (end -0.75 -5.65) (layer F.Fab) (width 0.1))
  (fp_line (start -0.75 -5.35) (end -1.45 -5.35) (layer F.Fab) (width 0.1))
  (fp_line (start -1.45 -5.35) (end -1.45 -5.65) (layer F.Fab) (width 0.1))
  (fp_line (start 0.75 -4.65) (end 1.45 -4.65) (layer F.Fab) (width 0.1))
  (fp_line (start 1.45 -4.65) (end 1.45 -4.35) (layer F.Fab) (width 0.1))
  (fp_line (start 1.45 -4.35) (end 0.75 -4.35) (layer F.Fab) (width 0.1))
  (fp_line (start -1.45 -3.65) (end -0.75 -3.65) (layer F.Fab) (width 0.1))
  (fp_line (start -0.75 -3.35) (end -1.45 -3.35) (layer F.Fab) (width 0.1))
  (fp_line (start -1.45 -3.35) (end -1.45 -3.65) (layer F.Fab) (width 0.1))
  (fp_line (start 0.75 -2.65) (end 1.45 -2.65) (layer F.Fab) (width 0.1))
  (fp_line (start 1.45 -2.65) (end 1.45 -2.35) (layer F.Fab) (width 0.1))
  (fp_line (start 1.45 -2.35) (end 0.75 -2.35) (layer F.Fab) (width 0.1))
  (fp_line (start -1.45 -1.65) (end -0.75 -1.65) (layer F.Fab) (width 0.1))
  (fp_line (start -0.75 -1.35) (end -1.45 -1.35) (layer F.Fab) (width 0.1))
  (fp_line (start -1.45 -1.35) (end -1.45 -1.65) (layer F.Fab) (width 0.1))
  (fp_line (start 0.75 -0.65) (end 1.45 -0.65) (layer F.Fab) (width 0.1))
  (fp_line (start 1.45 -0.65) (end 1.45 -0.35) (layer F.Fab) (width 0.1))
  (fp_line (start 1.45 -0.35) (end 0.75 -0.35) (layer F.Fab) (width 0.1))
  (fp_line (start -1.45 0.35) (end -0.75 0.35) (layer F.Fab) (width 0.1))
  (fp_line (start -0.75 0.65) (end -1.45 0.65) (layer F.Fab) (width 0.1))
  (fp_line (start -1.45 0.65) (end -1.45 0.35) (layer F.Fab) (width 0.1))
  (fp_line (start 0.75 1.35) (end 1.45 1.35) (layer F.Fab) (width 0.1))
  (fp_line (start 1.45 1.35) (end 1.45 1.65) (layer F.Fab) (width 0.1))
  (fp_line (start 1.45 1.65) (end 0.75 1.65) (layer F.Fab) (width 0.1))
  (fp_line (start -1.45 2.35) (end -0.75 2.35) (layer F.Fab) (width 0.1))
  (fp_line (start -0.75 2.65) (end -1.45 2.65) (layer F.Fab) (width 0.1))
  (fp_line (start -1.45 2.65) (end -1.45 2.35) (layer F.Fab) (width 0.1))
  (fp_line (start 0.75 3.35) (end 1.45 3.35) (layer F.Fab) (width 0.1))
  (fp_line (start 1.45 3.35) (end 1.45 3.65) (layer F.Fab) (width 0.1))
  (fp_line (start 1.45 3.65) (end 0.75 3.65) (layer F.Fab) (width 0.1))
  (fp_line (start -1.45 4.35) (end -0.75 4.35) (layer F.Fab) (width 0.1))
  (fp_line (start -0.75 4.65) (end -1.45 4.65) (layer F.Fab) (width 0.1))
  (fp_line (start -1.45 4.65) (end -1.45 4.35) (layer F.Fab) (width 0.1))
  (fp_line (start 0.75 5.35) (end 1.45 5.35) (layer F.Fab) (width 0.1))
  (fp_line (start 1.45 5.35) (end 1.45 5.65) (layer F.Fab) (width 0.1))
  (fp_line (start 1.45 5.65) (end 0.75 5.65) (layer F.Fab) (width 0.1))
  (fp_line (start -1.45 6.35) (end -0.75 6.35) (layer F.Fab) (width 0.1))
  (fp_line (start -0.75 6.65) (end -1.45 6.65) (layer F.Fab) (width 0.1))
  (fp_line (start -1.45 6.65) (end -1.45 6.35) (layer F.Fab) (width 0.1))
  (fp_line (start 0.75 7.35) (end 1.45 7.35) (layer F.Fab) (width 0.1))
  (fp_line (start 1.45 7.35) (end 1.45 7.65) (layer F.Fab) (width 0.1))
  (fp_line (start 1.45 7.65) (end 0.75 7.65) (layer F.Fab) (width 0.1))
  (fp_line (start -1.45 8.35) (end -0.75 8.35) (layer F.Fab) (width 0.1))
  (fp_line (start -0.75 8.65) (end -1.45 8.65) (layer F.Fab) (width 0.1))
  (fp_line (start -1.45 8.65) (end -1.45 8.35) (layer F.Fab) (width 0.1))
  (fp_line (start 0.75 9.35) (end 1.45 9.35) (layer F.Fab) (width 0.1))
  (fp_line (start 1.45 9.35) (end 1.45 9.65) (layer F.Fab) (width 0.1))
  (fp_line (start 1.45 9.65) (end 0.75 9.65) (layer F.Fab) (width 0.1))
  (fp_line (start -1.45 10.35) (end -0.75 10.35) (layer F.Fab) (width 0.1))
  (fp_line (start -0.75 10.65) (end -1.45 10.65) (layer F.Fab) (width 0.1))
  (fp_line (start -1.45 10.65) (end -1.45 10.35) (layer F.Fab) (width 0.1))
  (fp_line (start 0.75 11.35) (end 1.45 11.35) (layer F.Fab) (width 0.1))
  (fp_line (start 1.45 11.35) (end 1.45 11.65) (layer F.Fab) (width 0.1))
  (fp_line (start 1.45 11.65) (end 0.75 11.65) (layer F.Fab) (width 0.1))
  (fp_line (start -1.45 12.35) (end -0.75 12.35) (layer F.Fab) (width 0.1))
  (fp_line (start -0.75 12.65) (end -1.45 12.65) (layer F.Fab) (width 0.1))
  (fp_line (start -1.45 12.65) (end -1.45 12.35) (layer F.Fab) (width 0.1))
  (fp_line (start 0.75 13.35) (end 1.45 13.35) (layer F.Fab) (width 0.1))
  (fp_line (start 1.45 13.35) (end 1.45 13.65) (layer F.Fab) (width 0.1))
  (fp_line (start 1.45 13.65) (end 0.75 13.65) (layer F.Fab) (width 0.1))
  (fp_line (start -1.45 14.35) (end -0.75 14.35) (layer F.Fab) (width 0.1))
  (fp_line (start -0.75 14.65) (end -1.45 14.65) (layer F.Fab) (width 0.1))
  (fp_line (start -1.45 14.65) (end -1.45 14.35) (layer F.Fab) (width 0.1))
  (fp_line (start 0.75 15.35) (end 1.45 15.35) (layer F.Fab) (width 0.1))
  (fp_line (start 1.45 15.35) (end 1.45 15.65) (layer F.Fab) (width 0.1))
  (fp_line (start 1.45 15.65) (end 0.75 15.65) (layer F.Fab) (width 0.1))
  (fp_line (start -1.45 16.35) (end -0.75 16.35) (layer F.Fab) (width 0.1))
  (fp_line (start -0.75 16.65) (end -1.45 16.65) (layer F.Fab) (width 0.1))
  (fp_line (start -1.45 16.65) (end -1.45 16.35) (layer F.Fab) (width 0.1))
  (fp_line (start 0.75 17.35) (end 1.45 17.35) (layer F.Fab) (width 0.1))
  (fp_line (start 1.45 17.35) (end 1.45 17.65) (layer F.Fab) (width 0.1))
  (fp_line (start 1.45 17.65) (end 0.75 17.65) (layer F.Fab) (width 0.1))
  (fp_line (start -1.45 18.35) (end -0.75 18.35) (layer F.Fab) (width 0.1))
  (fp_line (start -0.75 18.65) (end -1.45 18.65) (layer F.Fab) (width 0.1))
  (fp_line (start -1.45 18.65) (end -1.45 18.35) (layer F.Fab) (width 0.1))
  (fp_line (start -2.45 -19.75) (end 2.45 -19.75) (layer F.CrtYd) (width 0.05))
  (fp_line (start 2.45 -19.75) (end 2.45 19.75) (layer F.CrtYd) (width 0.05))
  (fp_line (start 2.45 19.75) (end -2.45 19.75) (layer F.CrtYd) (width 0.05))
  (fp_line (start -2.45 19.75) (end -2.45 -19.75) (layer F.CrtYd) (width 0.05))
  (pad 2 smd rect (at -0.975 -17.5) (size 1.95 0.5) (layers F.Cu F.Mask F.Paste))
  (pad 4 smd rect (at -0.975 -15.5) (size 1.95 0.5) (layers F.Cu F.Mask F.Paste))
  (pad 6 smd rect (at -0.975 -13.5) (size 1.95 0.5) (layers F.Cu F.Mask F.Paste))
  (pad 8 smd rect (at -0.975 -11.5) (size 1.95 0.5) (layers F.Cu F.Mask F.Paste))
  (pad 10 smd rect (at -0.975 -9.5) (size 1.95 0.5) (layers F.Cu F.Mask F.Paste))
  (pad 12 smd rect (at -0.975 -7.5) (size 1.95 0.5) (layers F.Cu F.Mask F.Paste))
  (pad 14 smd rect (at -0.975 -5.5) (size 1.95 0.5) (layers F.Cu F.Mask F.Paste))
  (pad 16 smd rect (at -0.975 -3.5) (size 1.95 0.5) (layers F.Cu F.Mask F.Paste))
  (pad 18 smd rect (at -0.975 -1.5) (size 1.95 0.5) (layers F.Cu F.Mask F.Paste))
  (pad 20 smd rect (at -0.975 0.5) (size 1.95 0.5) (layers F.Cu F.Mask F.Paste))
  (pad 22 smd rect (at -0.975 2.5) (size 1.95 0.5) (layers F.Cu F.Mask F.Paste))
  (pad 24 smd rect (at -0.975 4.5) (size 1.95 0.5) (layers F.Cu F.Mask F.Paste))
  (pad 26 smd rect (at -0.975 6.5) (size 1.95 0.5) (layers F.Cu F.Mask F.Paste))
  (pad 28 smd rect (at -0.975 8.5) (size 1.95 0.5) (layers F.Cu F.Mask F.Paste))
  (pad 30 smd rect (at -0.975 10.5) (size 1.95 0.5) (layers F.Cu F.Mask F.Paste))
  (pad 32 smd rect (at -0.975 12.5) (size 1.95 0.5) (layers F.Cu F.Mask F.Paste))
  (pad 34 smd rect (at -0.975 14.5) (size 1.95 0.5) (layers F.Cu F.Mask F.Paste))
  (pad 36 smd rect (at -0.975 16.5) (size 1.95 0.5) (layers F.Cu F.Mask F.Paste))
  (pad 38 smd rect (at -0.975 18.5) (size 1.95 0.5) (layers F.Cu F.Mask F.Paste))
  (pad 1 smd rect (at 0.975 -18.5) (size 1.95 0.5) (layers F.Cu F.Mask F.Paste))
  (pad 3 smd rect (at 0.975 -16.5) (size 1.95 0.5) (layers F.Cu F.Mask F.Paste))
  (pad 5 smd rect (at 0.975 -14.5) (size 1.95 0.5) (layers F.Cu F.Mask F.Paste))
  (pad 7 smd rect (at 0.975 -12.5) (size 1.95 0.5) (layers F.Cu F.Mask F.Paste))
  (pad 9 smd rect (at 0.975 -10.5) (size 1.95 0.5) (layers F.Cu F.Mask F.Paste))
  (pad 11 smd rect (at 0.975 -8.5) (size 1.95 0.5) (layers F.Cu F.Mask F.Paste))
  (pad 13 smd rect (at 0.975 -6.5) (size 1.95 0.5) (layers F.Cu F.Mask F.Paste))
  (pad 15 smd rect (at 0.975 -4.5) (size 1.95 0.5) (layers F.Cu F.Mask F.Paste))
  (pad 17 smd rect (at 0.975 -2.5) (size 1.95 0.5) (layers F.Cu F.Mask F.Paste))
  (pad 19 smd rect (at 0.975 -0.5) (size 1.95 0.5) (layers F.Cu F.Mask F.Paste))
  (pad 21 smd rect (at 0.975 1.5) (size 1.95 0.5) (layers F.Cu F.Mask F.Paste))
  (pad 23 smd rect (at 0.975 3.5) (size 1.95 0.5) (layers F.Cu F.Mask F.Paste))
  (pad 25 smd rect (at 0.975 5.5) (size 1.95 0.5) (layers F.Cu F.Mask F.Paste))
  (pad 27 smd rect (at 0.975 7.5) (size 1.95 0.5) (layers F.Cu F.Mask F.Paste))
  (pad 29 smd rect (at 0.975 9.5) (size 1.95 0.5) (layers F.Cu F.Mask F.Paste))
  (pad 31 smd rect (at 0.975 11.5) (size 1.95 0.5) (layers F.Cu F.Mask F.Paste))
  (pad 33 smd rect (at 0.975 13.5) (size 1.95 0.5) (layers F.Cu F.Mask F.Paste))
  (pad 35 smd rect (at 0.975 15.5) (size 1.95 0.5) (layers F.Cu F.Mask F.Paste))
  (pad 37 smd rect (at 0.975 17.5) (size 1.95 0.5) (layers F.Cu F.Mask F.Paste))
  (fp_text user %R (at 0 0 90) (layer F.Fab)
    (effects (font (size 0.9 0.9) (thickness 0.14)))
  )
  (model ${KICAD6_3DMODEL_DIR}/Connector_PinSocket_1.00mm.3dshapes/PinSocket_1x38_P1.00mm_Vertical_SMD_Pin1Right.wrl
    (at (xyz 0 0 0))
    (scale (xyz 1 1 1))
    (rotate (xyz 0 0 0))
  )
)