(module Relay_DPDT_Omron_G6SK-2 (layer F.Cu) (tedit 5A59B931)
  (descr "Relay Omron G6SK-2, see http://omronfs.omron.com/en_US/ecb/products/pdf/en-g6s.pdf")
  (tags "Relay Omron G6SK-2")
  (fp_text reference REF** (at 2.5 -2.2) (layer F.SilkS)
    (effects (font (size 1 1) (thickness 0.15)))
  )
  (fp_text value Relay_DPDT_Omron_G6SK-2 (at 2.5 14.9) (layer F.Fab)
    (effects (font (size 1 1) (thickness 0.15)))
  )
  (fp_text user %R (at 2.54 6.35) (layer F.Fab)
    (effects (font (size 1 1) (thickness 0.15)))
  )
  (fp_line (start -1.6 -1.5) (end 0.6 -1.5) (layer F.SilkS) (width 0.12))
  (fp_line (start -1.6 0.6) (end -1.6 -1.5) (layer F.SilkS) (width 0.12))
  (fp_line (start -1.4 13.9) (end -1.4 -1.3) (layer F.SilkS) (width 0.12))
  (fp_line (start 6.4 13.9) (end -1.4 13.9) (layer F.SilkS) (width 0.12))
  (fp_line (start 6.4 -1.3) (end 6.4 13.9) (layer F.SilkS) (width 0.12))
  (fp_line (start -1.4 -1.3) (end 6.4 -1.3) (layer F.SilkS) (width 0.12))
  (fp_line (start -1.2 -0.1) (end -0.1 -1.1) (layer F.Fab) (width 0.12))
  (fp_line (start -1.2 13.7) (end -1.2 -0.1) (layer F.Fab) (width 0.12))
  (fp_line (start 6.2 13.7) (end -1.2 13.7) (layer F.Fab) (width 0.12))
  (fp_line (start 6.2 -1.1) (end 6.2 13.7) (layer F.Fab) (width 0.12))
  (fp_line (start -0.1 -1.1) (end 6.2 -1.1) (layer F.Fab) (width 0.12))
  (fp_line (start 2.946 1.27) (end 2.311 2.286) (layer F.SilkS) (width 0.12))
  (fp_line (start 0.7 1.5) (end 0.7 1.778) (layer F.SilkS) (width 0.12))
  (fp_line (start 0.7 1.778) (end 1.422 1.778) (layer F.SilkS) (width 0.12))
  (fp_line (start 3.962 1.143) (end 3.962 1.778) (layer F.SilkS) (width 0.12))
  (fp_line (start 3.962 1.778) (end 3.327 1.778) (layer F.SilkS) (width 0.12))
  (fp_line (start 3.327 1.27) (end 1.422 1.27) (layer F.SilkS) (width 0.12))
  (fp_line (start 1.422 1.27) (end 1.422 2.286) (layer F.SilkS) (width 0.12))
  (fp_line (start 1.422 2.286) (end 3.327 2.286) (layer F.SilkS) (width 0.12))
  (fp_line (start 3.327 1.27) (end 3.327 2.286) (layer F.SilkS) (width 0.12))
  (fp_line (start -1.45 -1.35) (end 6.45 -1.35) (layer F.CrtYd) (width 0.05))
  (fp_line (start -1.45 -1.35) (end -1.45 13.95) (layer F.CrtYd) (width 0.05))
  (fp_line (start 6.45 13.95) (end 6.45 -1.35) (layer F.CrtYd) (width 0.05))
  (fp_line (start 6.45 13.95) (end -1.45 13.95) (layer F.CrtYd) (width 0.05))
  (pad 9 thru_hole circle (at 5.08 7.62 270) (size 2 2) (drill 1) (layers *.Cu *.Mask))
  (pad 4 thru_hole circle (at 0 7.62 270) (size 2 2) (drill 1) (layers *.Cu *.Mask))
  (pad 12 thru_hole circle (at 5.08 0) (size 2 2) (drill 1) (layers *.Cu *.Mask))
  (pad 10 thru_hole circle (at 5.08 5.08) (size 2 2) (drill 1) (layers *.Cu *.Mask))
  (pad 1 thru_hole rect (at 0 0) (size 2 2) (drill 1) (layers *.Cu *.Mask))
  (pad 3 thru_hole circle (at 0 5.08) (size 2 2) (drill 1) (layers *.Cu *.Mask))
  (pad 8 thru_hole circle (at 5.08 10.16) (size 2 2) (drill 1) (layers *.Cu *.Mask))
  (pad 5 thru_hole circle (at 0 10.16) (size 2 2) (drill 1) (layers *.Cu *.Mask))
  (pad 6 thru_hole circle (at 0 12.7) (size 2 2) (drill 1) (layers *.Cu *.Mask))
  (pad 7 thru_hole circle (at 5.08 12.7) (size 2 2) (drill 1) (layers *.Cu *.Mask))
  (model ${KICAD6_3DMODEL_DIR}/Relay_THT.3dshapes/Relay_DPDT_Omron_G6SK-2.wrl
    (at (xyz 0 0 0))
    (scale (xyz 1 1 1))
    (rotate (xyz 0 0 0))
  )
)
