(module Relay_DPDT_AXICOM_IMSeries_Pitch5.08mm (layer F.Cu) (tedit 58FA48BE)
  (descr "AXICOM IM-Series Relays, DPDR, Pitch 5.08")
  (tags "AXICOM IM-Series Relay DPDR Pitch 5.08")
  (fp_text reference REF** (at 2.6 -2.3) (layer F.SilkS)
    (effects (font (size 1 1) (thickness 0.15)))
  )
  (fp_text value Relay_DPDT_AXICOM_IMSeries_Pitch5.08mm (at 2.5 9.9) (layer F.Fab)
    (effects (font (size 1 1) (thickness 0.15)))
  )
  (fp_text user %R (at 2.5 4.3) (layer F.Fab)
    (effects (font (size 1 1) (thickness 0.15)))
  )
  (fp_line (start 2.2 0) (end 1.1 0) (layer F.SilkS) (width 0.12))
  (fp_line (start 2.9 0) (end 4 0) (layer F.SilkS) (width 0.12))
  (fp_line (start 2.2 0.2) (end 2.9 -0.2) (layer F.SilkS) (width 0.12))
  (fp_line (start 2.2 -0.6) (end 2.2 0.6) (layer F.SilkS) (width 0.12))
  (fp_line (start 2.2 0.6) (end 2.9 0.6) (layer F.SilkS) (width 0.12))
  (fp_line (start 2.9 0.6) (end 2.9 -0.6) (layer F.SilkS) (width 0.12))
  (fp_line (start 2.9 -0.6) (end 2.2 -0.6) (layer F.SilkS) (width 0.12))
  (fp_line (start -0.7 -0.6) (end -0.7 -1.4) (layer F.SilkS) (width 0.12))
  (fp_line (start -0.7 -1.4) (end 0 -1.4) (layer F.SilkS) (width 0.12))
  (fp_line (start -0.6 -0.6) (end -0.6 -1.3) (layer F.SilkS) (width 0.12))
  (fp_line (start -0.6 2.6) (end -0.6 0.6) (layer F.SilkS) (width 0.12))
  (fp_line (start -0.6 4.8) (end -0.6 3.8) (layer F.SilkS) (width 0.12))
  (fp_line (start -0.6 7) (end -0.6 6) (layer F.SilkS) (width 0.12))
  (fp_line (start -0.6 8.2) (end -0.6 8.9) (layer F.SilkS) (width 0.12))
  (fp_line (start 5.7 8.2) (end 5.7 8.9) (layer F.SilkS) (width 0.12))
  (fp_line (start 5.7 8.9) (end -0.6 8.9) (layer F.SilkS) (width 0.12))
  (fp_line (start 5.7 6) (end 5.7 7) (layer F.SilkS) (width 0.12))
  (fp_line (start 5.7 3.8) (end 5.7 4.8) (layer F.SilkS) (width 0.12))
  (fp_line (start 5.7 0.6) (end 5.7 2.6) (layer F.SilkS) (width 0.12))
  (fp_line (start -0.6 -1.3) (end 5.7 -1.3) (layer F.SilkS) (width 0.12))
  (fp_line (start 5.7 -1.3) (end 5.7 -0.6) (layer F.SilkS) (width 0.12))
  (fp_line (start 1.1 0) (end 4 0) (layer F.Fab) (width 0.12))
  (fp_line (start -0.5 -1.2) (end -0.5 8.8) (layer F.Fab) (width 0.12))
  (fp_line (start -0.5 8.8) (end 5.6 8.8) (layer F.Fab) (width 0.12))
  (fp_line (start 5.6 8.8) (end 5.6 -1.2) (layer F.Fab) (width 0.12))
  (fp_line (start 5.6 -1.2) (end -0.5 -1.2) (layer F.Fab) (width 0.12))
  (fp_line (start -0.95 -1.45) (end 6.03 -1.45) (layer F.CrtYd) (width 0.05))
  (fp_line (start -0.95 -1.45) (end -0.95 9.05) (layer F.CrtYd) (width 0.05))
  (fp_line (start 6.03 9.05) (end 6.03 -1.45) (layer F.CrtYd) (width 0.05))
  (fp_line (start 6.03 9.05) (end -0.95 9.05) (layer F.CrtYd) (width 0.05))
  (pad 1 thru_hole circle (at 0 0) (size 1.4 1.4) (drill 0.7) (layers *.Cu *.Mask))
  (pad 8 thru_hole circle (at 5.08 0) (size 1.4 1.4) (drill 0.7) (layers *.Cu *.Mask))
  (pad 2 thru_hole circle (at 0 3.2) (size 1.4 1.4) (drill 0.7) (layers *.Cu *.Mask))
  (pad 3 thru_hole circle (at 0 5.4) (size 1.4 1.4) (drill 0.7) (layers *.Cu *.Mask))
  (pad 4 thru_hole circle (at 0 7.6) (size 1.4 1.4) (drill 0.7) (layers *.Cu *.Mask))
  (pad 7 thru_hole circle (at 5.08 3.2) (size 1.4 1.4) (drill 0.7) (layers *.Cu *.Mask))
  (pad 6 thru_hole circle (at 5.08 5.4) (size 1.4 1.4) (drill 0.7) (layers *.Cu *.Mask))
  (pad 5 thru_hole circle (at 5.08 7.6) (size 1.4 1.4) (drill 0.7) (layers *.Cu *.Mask))
  (model ${KICAD6_3DMODEL_DIR}/Relay_THT.3dshapes/Relay_DPDT_AXICOM_IMSeries_Pitch5.08mm.wrl
    (at (xyz 0 0 0))
    (scale (xyz 1 1 1))
    (rotate (xyz 0 0 0))
  )
)
