(module Relay_StandexMeder_DIP_LowProfile (layer F.Cu) (tedit 5A54BF5F)
  (descr "package for Standex Meder DIP reed relay series, see https://standexelectronics.com/wp-content/uploads/datasheet_reed_relay_DIP.pdf")
  (tags "DIL DIP PDIP 2.54mm 7.62mm 300mil reed relay")
  (fp_text reference REF** (at 3.81 -3.39) (layer F.SilkS)
    (effects (font (size 1 1) (thickness 0.15)))
  )
  (fp_text value Relay_StandexMeder_DIP_LowProfile (at 3.81 18.63) (layer F.Fab)
    (effects (font (size 1 1) (thickness 0.15)))
  )
  (fp_text user %R (at 3.815 7.62) (layer F.Fab)
    (effects (font (size 1 1) (thickness 0.15)))
  )
  (fp_line (start 1.64 -2.27) (end 6.99 -2.27) (layer F.Fab) (width 0.1))
  (fp_line (start 6.99 -2.27) (end 6.99 17.51) (layer F.Fab) (width 0.1))
  (fp_line (start 6.99 17.51) (end 0.64 17.51) (layer F.Fab) (width 0.1))
  (fp_line (start 0.64 17.51) (end 0.64 -1.27) (layer F.Fab) (width 0.1))
  (fp_line (start 0.64 -1.27) (end 1.64 -2.27) (layer F.Fab) (width 0.1))
  (fp_line (start 2.81 -2.39) (end 1.04 -2.39) (layer F.SilkS) (width 0.12))
  (fp_line (start 1.04 -2.39) (end 1.04 17.63) (layer F.SilkS) (width 0.12))
  (fp_line (start 1.04 17.63) (end 6.58 17.63) (layer F.SilkS) (width 0.12))
  (fp_line (start 6.58 17.63) (end 6.58 -2.39) (layer F.SilkS) (width 0.12))
  (fp_line (start 6.58 -2.39) (end 4.81 -2.39) (layer F.SilkS) (width 0.12))
  (fp_line (start -1.1 -2.6) (end -1.1 17.8) (layer F.CrtYd) (width 0.05))
  (fp_line (start -1.1 17.8) (end 8.7 17.8) (layer F.CrtYd) (width 0.05))
  (fp_line (start 8.7 17.8) (end 8.7 -2.6) (layer F.CrtYd) (width 0.05))
  (fp_line (start 8.7 -2.6) (end -1.1 -2.6) (layer F.CrtYd) (width 0.05))
  (fp_arc (start 3.81 -2.39) (end 2.81 -2.39) (angle -180) (layer F.SilkS) (width 0.12))
  (pad 13 thru_hole circle (at 7.62 2.54) (size 1.4 1.4) (drill 0.7) (layers *.Cu *.Mask))
  (pad 9 thru_hole circle (at 7.62 12.8) (size 1.4 1.4) (drill 0.7) (layers *.Cu *.Mask))
  (pad 6 thru_hole circle (at 0 12.8) (size 1.4 1.4) (drill 0.7) (layers *.Cu *.Mask))
  (pad 2 thru_hole circle (at 0 2.54) (size 1.4 1.4) (drill 0.7) (layers *.Cu *.Mask))
  (pad 1 thru_hole rect (at 0 0) (size 1.4 1.4) (drill 0.7) (layers *.Cu *.Mask))
  (pad 8 thru_hole circle (at 7.62 15.24) (size 1.4 1.4) (drill 0.7) (layers *.Cu *.Mask))
  (pad 7 thru_hole circle (at 0 15.24) (size 1.4 1.4) (drill 0.7) (layers *.Cu *.Mask))
  (pad 14 thru_hole circle (at 7.62 0) (size 1.4 1.4) (drill 0.7) (layers *.Cu *.Mask))
  (model ${KICAD6_3DMODEL_DIR}/Relay_THT.3dshapes/Relay_StandexMeder_DIP_LowProfile.wrl
    (at (xyz 0 0 0))
    (scale (xyz 1 1 1))
    (rotate (xyz 0 0 0))
  )
)
