(module Relay_SPDT_PotterBrumfield_T9AP5D52_12V30A (layer F.Cu) (tedit 58FA3AA7)
  (descr "Relay SPDT Potter&Brumfield T9AP5D52 12V 30A 1xUn Connector Fast ON Only Dummy for Space NO Pads")
  (tags "Relay SPDT Potter&Brumfield T9AP5D52 12V 30A 1xUm Connector Fast ON Flachsteckeranschluss Only Dummy for Space NO Pads")
  (fp_text reference REF** (at 0 -4.25106) (layer F.SilkS)
    (effects (font (size 1 1) (thickness 0.15)))
  )
  (fp_text value Relay_SPDT_PotterBrumfield_T9AP5D52_12V30A (at 0 48.24894 180) (layer F.Fab)
    (effects (font (size 1 1) (thickness 0.15)))
  )
  (fp_line (start -13.7 -2.9) (end 13.6 -2.9) (layer F.Fab) (width 0.12))
  (fp_line (start 13.6 -2.9) (end 13.6 46.9) (layer F.Fab) (width 0.12))
  (fp_line (start 13.6 46.9) (end -13.6 46.9) (layer F.Fab) (width 0.12))
  (fp_line (start -13.6 46.9) (end -13.7 46.9) (layer F.Fab) (width 0.12))
  (fp_line (start -13.7 46.9) (end -13.7 -2.9) (layer F.Fab) (width 0.12))
  (fp_text user A2 (at 3.2512 32.79902) (layer F.SilkS)
    (effects (font (size 1 1) (thickness 0.15)))
  )
  (fp_text user A1 (at -8.57504 32.74822) (layer F.SilkS)
    (effects (font (size 1 1) (thickness 0.15)))
  )
  (fp_text user 11/C (at -10.2743 17.84858) (layer F.SilkS)
    (effects (font (size 1 1) (thickness 0.15)))
  )
  (fp_text user 14/NO (at 6.59892 21.79828) (layer F.SilkS)
    (effects (font (size 1 1) (thickness 0.15)))
  )
  (fp_text user 12/NC (at 6.85038 13.27404) (layer F.SilkS)
    (effects (font (size 1 1) (thickness 0.15)))
  )
  (fp_text user %R (at 0 21.99894) (layer F.Fab)
    (effects (font (size 0.8 0.8) (thickness 0.12)))
  )
  (fp_line (start -14 -3.25) (end -14 47.25) (layer F.CrtYd) (width 0.05))
  (fp_line (start 14 -3.25) (end -14 -3.25) (layer F.CrtYd) (width 0.05))
  (fp_line (start 14 47.25) (end 14 -3.25) (layer F.CrtYd) (width 0.05))
  (fp_line (start -14 47.25) (end 14 47.25) (layer F.CrtYd) (width 0.05))
  (fp_line (start -6.82498 34.72434) (end -10.2743 34.72434) (layer F.SilkS) (width 0.12))
  (fp_line (start 11.27506 10.74928) (end 3.42392 10.77468) (layer F.SilkS) (width 0.12))
  (fp_line (start 11.24966 19.22272) (end 3.35026 19.19986) (layer F.SilkS) (width 0.12))
  (fp_line (start 3.35026 19.19986) (end 3.32486 19.19986) (layer F.SilkS) (width 0.12))
  (fp_line (start -11.00074 19.22272) (end -11.00074 25.89784) (layer F.SilkS) (width 0.12))
  (fp_line (start 1.42494 34.69894) (end 5.00126 34.69894) (layer F.SilkS) (width 0.12))
  (fp_line (start -1.97612 1.09982) (end -1.89992 1.37414) (layer F.SilkS) (width 0.12))
  (fp_line (start -1.89992 1.37414) (end -1.5494 1.72466) (layer F.SilkS) (width 0.12))
  (fp_line (start -1.5494 1.72466) (end -1.12522 2.02438) (layer F.SilkS) (width 0.12))
  (fp_line (start -1.12522 2.02438) (end -0.44958 2.2479) (layer F.SilkS) (width 0.12))
  (fp_line (start -0.44958 2.2479) (end 0.20066 2.2733) (layer F.SilkS) (width 0.12))
  (fp_line (start 0.20066 2.2733) (end 0.8255 2.17424) (layer F.SilkS) (width 0.12))
  (fp_line (start 0.8255 2.17424) (end 1.27508 1.92278) (layer F.SilkS) (width 0.12))
  (fp_line (start 1.27508 1.92278) (end 1.67386 1.524) (layer F.SilkS) (width 0.12))
  (fp_line (start 1.67386 1.524) (end 1.95072 1.12268) (layer F.SilkS) (width 0.12))
  (fp_line (start 1.95072 1.12268) (end 1.99898 0.94996) (layer F.SilkS) (width 0.12))
  (fp_line (start 1.97612 -1.09982) (end 1.97612 -3.00228) (layer F.SilkS) (width 0.12))
  (fp_line (start -1.97612 -1.20142) (end -1.97612 -3.00228) (layer F.SilkS) (width 0.12))
  (fp_line (start 1.97612 42.67454) (end 1.82626 42.47388) (layer F.SilkS) (width 0.12))
  (fp_line (start 1.82626 42.47388) (end 1.45034 42.0497) (layer F.SilkS) (width 0.12))
  (fp_line (start 1.45034 42.0497) (end 0.8001 41.72458) (layer F.SilkS) (width 0.12))
  (fp_line (start 0.8001 41.72458) (end 0.37592 41.60012) (layer F.SilkS) (width 0.12))
  (fp_line (start 0.37592 41.60012) (end 0.0762 41.60012) (layer F.SilkS) (width 0.12))
  (fp_line (start 0.0762 41.60012) (end -0.8509 41.72458) (layer F.SilkS) (width 0.12))
  (fp_line (start -0.8509 41.72458) (end -1.30048 41.9481) (layer F.SilkS) (width 0.12))
  (fp_line (start -1.30048 41.9481) (end -1.75006 42.32402) (layer F.SilkS) (width 0.12))
  (fp_line (start -1.75006 42.32402) (end -1.97612 42.67454) (layer F.SilkS) (width 0.12))
  (fp_line (start -1.97612 45.0977) (end -1.97612 47.00016) (layer F.SilkS) (width 0.12))
  (fp_line (start 1.95072 45.0977) (end 1.97612 46.97476) (layer F.SilkS) (width 0.12))
  (fp_line (start 13.74902 37.74948) (end -13.74902 37.74948) (layer F.SilkS) (width 0.12))
  (fp_line (start -13.74902 6.2484) (end 13.74902 6.2484) (layer F.SilkS) (width 0.12))
  (fp_line (start 13.74902 21.99894) (end 13.74902 -3.00228) (layer F.SilkS) (width 0.12))
  (fp_line (start 13.74902 -3.00228) (end -13.74902 -3.00228) (layer F.SilkS) (width 0.12))
  (fp_line (start -13.74902 -3.00228) (end -13.74902 47.00016) (layer F.SilkS) (width 0.12))
  (fp_line (start -13.74902 47.00016) (end 13.74902 47.00016) (layer F.SilkS) (width 0.12))
  (fp_line (start 13.74902 47.00016) (end 13.74902 21.99894) (layer F.SilkS) (width 0.12))
  (pad "" np_thru_hole circle (at 0 0) (size 3.50012 3.50012) (drill 3.50012) (layers *.Cu *.Mask))
  (pad "" np_thru_hole circle (at 0 43.99788) (size 3.50012 3.50012) (drill 3.50012) (layers *.Cu *.Mask))
  (model ${KICAD6_3DMODEL_DIR}/Relay_THT.3dshapes/Relay_SPDT_PotterBrumfield_T9AP5D52_12V30A.wrl
    (at (xyz 0 0 0))
    (scale (xyz 1 1 1))
    (rotate (xyz 0 0 0))
  )
)
