(module Relay_SPDT_Panasonic_JW1_FormC (layer F.Cu) (tedit 5A6F951D)
  (descr "Panasonic Relay SPDT, http://www3.panasonic.biz/ac/e_download/control/relay/power/catalog/mech_eng_jw.pdf?via=ok")
  (tags "Panasonic Relay SPDT")
  (fp_text reference REF** (at 11.7 -11.55 180) (layer F.SilkS)
    (effects (font (size 1 1) (thickness 0.15)))
  )
  (fp_text value Relay_SPDT_Panasonic_JW1_FormC (at 12 3.9 180) (layer F.Fab)
    (effects (font (size 1 1) (thickness 0.15)))
  )
  (fp_line (start -1 2.6) (end -2.7 1) (layer F.Fab) (width 0.12))
  (fp_line (start 25.9 -10.2) (end -2.7 -10.2) (layer F.Fab) (width 0.1))
  (fp_line (start -2.7 -10.2) (end -2.7 1) (layer F.Fab) (width 0.1))
  (fp_line (start -1 2.6) (end 25.9 2.6) (layer F.Fab) (width 0.1))
  (fp_line (start 25.9 2.6) (end 25.9 -10.2) (layer F.Fab) (width 0.1))
  (fp_line (start -0.3 -1.55) (end -0.3 -6.05) (layer F.Fab) (width 0.1))
  (fp_line (start -0.7 2.94) (end -3.04 2.94) (layer F.Fab) (width 0.1))
  (fp_line (start -3.04 2.94) (end -3.04 0.6) (layer F.Fab) (width 0.1))
  (fp_line (start 26 -10.3) (end -2.8 -10.3) (layer F.SilkS) (width 0.12))
  (fp_line (start -2.8 -10.3) (end -2.8 2.7) (layer F.SilkS) (width 0.12))
  (fp_line (start -2.8 2.7) (end 26 2.7) (layer F.SilkS) (width 0.12))
  (fp_line (start 26 2.7) (end 26 -10.3) (layer F.SilkS) (width 0.12))
  (fp_line (start -0.1 -3.45) (end -0.5 -4.15) (layer F.SilkS) (width 0.12))
  (fp_line (start 0.3 -4.15) (end -0.9 -4.15) (layer F.SilkS) (width 0.12))
  (fp_line (start -0.9 -4.15) (end -0.9 -3.45) (layer F.SilkS) (width 0.12))
  (fp_line (start -0.9 -3.45) (end 0.3 -3.45) (layer F.SilkS) (width 0.12))
  (fp_line (start 0.3 -3.45) (end 0.3 -4.15) (layer F.SilkS) (width 0.12))
  (fp_line (start -0.7 2.94) (end -3.04 2.94) (layer F.SilkS) (width 0.12))
  (fp_line (start -3.04 2.94) (end -3.04 0.6) (layer F.SilkS) (width 0.12))
  (fp_line (start 26.15 -10.45) (end -2.95 -10.45) (layer F.CrtYd) (width 0.05))
  (fp_line (start -2.95 -10.45) (end -2.95 2.85) (layer F.CrtYd) (width 0.05))
  (fp_line (start -2.95 2.85) (end 26.15 2.85) (layer F.CrtYd) (width 0.05))
  (fp_line (start 26.15 2.85) (end 26.15 -10.45) (layer F.CrtYd) (width 0.05))
  (fp_text user %R (at 11.6 -3.8 180) (layer F.Fab)
    (effects (font (size 1 1) (thickness 0.15)))
  )
  (pad 2 thru_hole oval (at 16.5 0 90) (size 2.5 2.5) (drill 1.5) (layers *.Cu *.Mask))
  (pad 1 thru_hole rect (at 0 0 90) (size 2.5 2.5) (drill 1.5) (layers *.Cu *.Mask))
  (pad 4 thru_hole oval (at 23.5 0 90) (size 2.5 2.5) (drill 1.5) (layers *.Cu *.Mask))
  (pad 6 thru_hole oval (at 20 -7.6 90) (size 2.5 2.5) (drill 1.5) (layers *.Cu *.Mask))
  (pad 8 thru_hole oval (at 0 -7.6 90) (size 2.5 2.5) (drill 1.5) (layers *.Cu *.Mask))
  (model ${KICAD6_3DMODEL_DIR}/Relay_THT.3dshapes/Relay_SPDT_Panasonic_JW1_FormC.wrl
    (at (xyz 0 0 0))
    (scale (xyz 1 1 1))
    (rotate (xyz 0 0 0))
  )
)
