(module Relay_SPDT_Finder_34.51_Horizontal (layer F.Cu) (tedit 5A634DE1)
  (descr "Relay SPDT, Finder Type34.51, horizontal form, see https://gfinder.findernet.com/public/attachments/34/EN/S34USAEN.pdf")
  (tags "Relay SPDT Finder")
  (fp_text reference REF** (at 5.55 0.5) (layer F.SilkS)
    (effects (font (size 1 1) (thickness 0.15)))
  )
  (fp_text value Relay_SPDT_Finder_34.51_Horizontal (at 8.75 2.2) (layer F.Fab)
    (effects (font (size 1 1) (thickness 0.15)))
  )
  (fp_text user %R (at 9.85 -7.4) (layer F.Fab)
    (effects (font (size 1 1) (thickness 0.15)))
  )
  (fp_line (start -5.15 1.3) (end -2.65 1.3) (layer F.SilkS) (width 0.12))
  (fp_line (start -5.15 -1.9) (end -5.15 1.3) (layer F.SilkS) (width 0.12))
  (fp_line (start -1.25 -0.5) (end -2.55 -0.5) (layer F.SilkS) (width 0.12))
  (fp_line (start 9.85 -0.5) (end 1.25 -0.5) (layer F.SilkS) (width 0.12))
  (fp_line (start 14.85 -0.5) (end 12.65 -0.5) (layer F.SilkS) (width 0.12))
  (fp_line (start 19.85 -0.5) (end 17.65 -0.5) (layer F.SilkS) (width 0.12))
  (fp_line (start 23.25 -0.5) (end 22.85 -0.5) (layer F.SilkS) (width 0.12))
  (fp_line (start 23.25 -15.7) (end 23.25 -0.5) (layer F.SilkS) (width 0.12))
  (fp_line (start -4.95 -15.7) (end 23.25 -15.7) (layer F.SilkS) (width 0.12))
  (fp_line (start -4.95 -0.5) (end -4.95 -15.7) (layer F.SilkS) (width 0.12))
  (fp_line (start -4.85 -1.6) (end -3.75 -0.6) (layer F.Fab) (width 0.12))
  (fp_line (start -4.85 -15.6) (end -4.85 -1.6) (layer F.Fab) (width 0.12))
  (fp_line (start 23.15 -15.6) (end -4.85 -15.6) (layer F.Fab) (width 0.12))
  (fp_line (start 23.15 -0.6) (end 23.15 -15.6) (layer F.Fab) (width 0.12))
  (fp_line (start -3.75 -0.6) (end 23.15 -0.6) (layer F.Fab) (width 0.12))
  (fp_line (start -5.1 -15.85) (end 23.4 -15.85) (layer F.CrtYd) (width 0.05))
  (fp_line (start -5.1 -15.85) (end -5.1 1.45) (layer F.CrtYd) (width 0.05))
  (fp_line (start 23.4 1.45) (end 23.4 -15.85) (layer F.CrtYd) (width 0.05))
  (fp_line (start 23.4 1.45) (end -5.1 1.45) (layer F.CrtYd) (width 0.05))
  (pad 14 thru_hole circle (at 21.25 0) (size 2.4 2.4) (drill 1.3) (layers *.Cu *.Mask))
  (pad 11 thru_hole circle (at 16.25 0) (size 2.4 2.4) (drill 1.3) (layers *.Cu *.Mask))
  (pad 12 thru_hole circle (at 11.25 0) (size 2.4 2.4) (drill 1.3) (layers *.Cu *.Mask))
  (pad A1 thru_hole rect (at 0 0) (size 2 2) (drill 1) (layers *.Cu *.Mask))
  (pad A2 thru_hole circle (at -3.75 0) (size 2 2) (drill 1) (layers *.Cu *.Mask))
  (model ${KICAD6_3DMODEL_DIR}/Relay_THT.3dshapes/Relay_SPDT_Finder_34.51_Horizontal.wrl
    (at (xyz 0 0 0))
    (scale (xyz 1 1 1))
    (rotate (xyz 0 0 0))
  )
)
