(module Samtec_HLE-126-02-xxx-DV-A_2x26_P2.54mm_Horizontal (layer F.Cu) (tedit 60C8AF57)
  (descr "Samtec HLE .100\" Tiger Beam Cost-effective Single Beam Socket Strip, HLE-126-02-xxx-DV-A, 26 Pins per row (http://suddendocs.samtec.com/prints/hle-1xx-02-xxx-dv-xx-xx-xx-mkt.pdf, http://suddendocs.samtec.com/prints/hle-dv-footprint.pdf), generated with kicad-footprint-generator")
  (tags "connector Samtec HLE horizontal")
  (attr smd)
  (fp_text reference REF** (at 0 -4.87) (layer F.SilkS)
    (effects (font (size 1 1) (thickness 0.15)))
  )
  (fp_text value Samtec_HLE-126-02-xxx-DV-A_2x26_P2.54mm_Horizontal (at 0 4.87) (layer F.Fab)
    (effects (font (size 1 1) (thickness 0.15)))
  )
  (fp_line (start -33.02 -2.54) (end 33.02 -2.54) (layer F.Fab) (width 0.1))
  (fp_line (start 33.02 -2.54) (end 33.02 2.54) (layer F.Fab) (width 0.1))
  (fp_line (start 33.02 2.54) (end -33.02 2.54) (layer F.Fab) (width 0.1))
  (fp_line (start -33.02 2.54) (end -33.02 -2.54) (layer F.Fab) (width 0.1))
  (fp_line (start -32.25 -2.54) (end -31.75 -1.832893) (layer F.Fab) (width 0.1))
  (fp_line (start -31.75 -1.832893) (end -31.25 -2.54) (layer F.Fab) (width 0.1))
  (fp_line (start -32.645 -3.67) (end -32.645 -2.65) (layer F.SilkS) (width 0.12))
  (fp_line (start -32.645 -2.65) (end -33.13 -2.65) (layer F.SilkS) (width 0.12))
  (fp_line (start -33.13 -2.65) (end -33.13 2.65) (layer F.SilkS) (width 0.12))
  (fp_line (start -33.13 2.65) (end -32.645 2.65) (layer F.SilkS) (width 0.12))
  (fp_line (start 32.645 -2.65) (end 33.13 -2.65) (layer F.SilkS) (width 0.12))
  (fp_line (start 33.13 -2.65) (end 33.13 2.65) (layer F.SilkS) (width 0.12))
  (fp_line (start 33.13 2.65) (end 32.645 2.65) (layer F.SilkS) (width 0.12))
  (fp_line (start -30.855 -2.65) (end -30.105 -2.65) (layer F.SilkS) (width 0.12))
  (fp_line (start -30.855 2.65) (end -30.105 2.65) (layer F.SilkS) (width 0.12))
  (fp_line (start -28.315 -2.65) (end -27.565 -2.65) (layer F.SilkS) (width 0.12))
  (fp_line (start -28.315 2.65) (end -27.565 2.65) (layer F.SilkS) (width 0.12))
  (fp_line (start -25.775 -2.65) (end -25.025 -2.65) (layer F.SilkS) (width 0.12))
  (fp_line (start -25.775 2.65) (end -25.025 2.65) (layer F.SilkS) (width 0.12))
  (fp_line (start -23.235 -2.65) (end -22.485 -2.65) (layer F.SilkS) (width 0.12))
  (fp_line (start -23.235 2.65) (end -22.485 2.65) (layer F.SilkS) (width 0.12))
  (fp_line (start -20.695 -2.65) (end -19.945 -2.65) (layer F.SilkS) (width 0.12))
  (fp_line (start -20.695 2.65) (end -19.945 2.65) (layer F.SilkS) (width 0.12))
  (fp_line (start -18.155 -2.65) (end -17.405 -2.65) (layer F.SilkS) (width 0.12))
  (fp_line (start -18.155 2.65) (end -17.405 2.65) (layer F.SilkS) (width 0.12))
  (fp_line (start -15.615 -2.65) (end -14.865 -2.65) (layer F.SilkS) (width 0.12))
  (fp_line (start -15.615 2.65) (end -14.865 2.65) (layer F.SilkS) (width 0.12))
  (fp_line (start -13.075 -2.65) (end -12.325 -2.65) (layer F.SilkS) (width 0.12))
  (fp_line (start -13.075 2.65) (end -12.325 2.65) (layer F.SilkS) (width 0.12))
  (fp_line (start -10.535 -2.65) (end -9.785 -2.65) (layer F.SilkS) (width 0.12))
  (fp_line (start -10.535 2.65) (end -9.785 2.65) (layer F.SilkS) (width 0.12))
  (fp_line (start -7.995 -2.65) (end -7.245 -2.65) (layer F.SilkS) (width 0.12))
  (fp_line (start -7.995 2.65) (end -7.245 2.65) (layer F.SilkS) (width 0.12))
  (fp_line (start -5.455 -2.65) (end -4.705 -2.65) (layer F.SilkS) (width 0.12))
  (fp_line (start -5.455 2.65) (end -4.705 2.65) (layer F.SilkS) (width 0.12))
  (fp_line (start -2.915 -2.65) (end -2.165 -2.65) (layer F.SilkS) (width 0.12))
  (fp_line (start -2.915 2.65) (end -2.165 2.65) (layer F.SilkS) (width 0.12))
  (fp_line (start -0.375 -2.65) (end 0.375 -2.65) (layer F.SilkS) (width 0.12))
  (fp_line (start -0.375 2.65) (end 0.375 2.65) (layer F.SilkS) (width 0.12))
  (fp_line (start 2.165 -2.65) (end 2.915 -2.65) (layer F.SilkS) (width 0.12))
  (fp_line (start 2.165 2.65) (end 2.915 2.65) (layer F.SilkS) (width 0.12))
  (fp_line (start 4.705 -2.65) (end 5.455 -2.65) (layer F.SilkS) (width 0.12))
  (fp_line (start 4.705 2.65) (end 5.455 2.65) (layer F.SilkS) (width 0.12))
  (fp_line (start 7.245 -2.65) (end 7.995 -2.65) (layer F.SilkS) (width 0.12))
  (fp_line (start 7.245 2.65) (end 7.995 2.65) (layer F.SilkS) (width 0.12))
  (fp_line (start 9.785 -2.65) (end 10.535 -2.65) (layer F.SilkS) (width 0.12))
  (fp_line (start 9.785 2.65) (end 10.535 2.65) (layer F.SilkS) (width 0.12))
  (fp_line (start 12.325 -2.65) (end 13.075 -2.65) (layer F.SilkS) (width 0.12))
  (fp_line (start 12.325 2.65) (end 13.075 2.65) (layer F.SilkS) (width 0.12))
  (fp_line (start 14.865 -2.65) (end 15.615 -2.65) (layer F.SilkS) (width 0.12))
  (fp_line (start 14.865 2.65) (end 15.615 2.65) (layer F.SilkS) (width 0.12))
  (fp_line (start 17.405 -2.65) (end 18.155 -2.65) (layer F.SilkS) (width 0.12))
  (fp_line (start 17.405 2.65) (end 18.155 2.65) (layer F.SilkS) (width 0.12))
  (fp_line (start 19.945 -2.65) (end 20.695 -2.65) (layer F.SilkS) (width 0.12))
  (fp_line (start 19.945 2.65) (end 20.695 2.65) (layer F.SilkS) (width 0.12))
  (fp_line (start 22.485 -2.65) (end 23.235 -2.65) (layer F.SilkS) (width 0.12))
  (fp_line (start 22.485 2.65) (end 23.235 2.65) (layer F.SilkS) (width 0.12))
  (fp_line (start 25.025 -2.65) (end 25.775 -2.65) (layer F.SilkS) (width 0.12))
  (fp_line (start 25.025 2.65) (end 25.775 2.65) (layer F.SilkS) (width 0.12))
  (fp_line (start 27.565 -2.65) (end 28.315 -2.65) (layer F.SilkS) (width 0.12))
  (fp_line (start 27.565 2.65) (end 28.315 2.65) (layer F.SilkS) (width 0.12))
  (fp_line (start 30.105 -2.65) (end 30.855 -2.65) (layer F.SilkS) (width 0.12))
  (fp_line (start 30.105 2.65) (end 30.855 2.65) (layer F.SilkS) (width 0.12))
  (fp_line (start -33.52 -4.17) (end 33.52 -4.17) (layer F.CrtYd) (width 0.05))
  (fp_line (start 33.52 -4.17) (end 33.52 4.17) (layer F.CrtYd) (width 0.05))
  (fp_line (start 33.52 4.17) (end -33.52 4.17) (layer F.CrtYd) (width 0.05))
  (fp_line (start -33.52 4.17) (end -33.52 -4.17) (layer F.CrtYd) (width 0.05))
  (pad "" np_thru_hole circle (at -30.48 0) (size 1.78 1.78) (drill 1.78) (layers *.Cu *.Mask))
  (pad "" np_thru_hole circle (at 30.48 0) (size 1.78 1.78) (drill 1.78) (layers *.Cu *.Mask))
  (pad 1 smd rect (at -31.75 -2.525) (size 1.27 2.29) (layers F.Cu F.Mask F.Paste))
  (pad 3 smd rect (at -29.21 -2.525) (size 1.27 2.29) (layers F.Cu F.Mask F.Paste))
  (pad 5 smd rect (at -26.67 -2.525) (size 1.27 2.29) (layers F.Cu F.Mask F.Paste))
  (pad 7 smd rect (at -24.13 -2.525) (size 1.27 2.29) (layers F.Cu F.Mask F.Paste))
  (pad 9 smd rect (at -21.59 -2.525) (size 1.27 2.29) (layers F.Cu F.Mask F.Paste))
  (pad 11 smd rect (at -19.05 -2.525) (size 1.27 2.29) (layers F.Cu F.Mask F.Paste))
  (pad 13 smd rect (at -16.51 -2.525) (size 1.27 2.29) (layers F.Cu F.Mask F.Paste))
  (pad 15 smd rect (at -13.97 -2.525) (size 1.27 2.29) (layers F.Cu F.Mask F.Paste))
  (pad 17 smd rect (at -11.43 -2.525) (size 1.27 2.29) (layers F.Cu F.Mask F.Paste))
  (pad 19 smd rect (at -8.89 -2.525) (size 1.27 2.29) (layers F.Cu F.Mask F.Paste))
  (pad 21 smd rect (at -6.35 -2.525) (size 1.27 2.29) (layers F.Cu F.Mask F.Paste))
  (pad 23 smd rect (at -3.81 -2.525) (size 1.27 2.29) (layers F.Cu F.Mask F.Paste))
  (pad 25 smd rect (at -1.27 -2.525) (size 1.27 2.29) (layers F.Cu F.Mask F.Paste))
  (pad 27 smd rect (at 1.27 -2.525) (size 1.27 2.29) (layers F.Cu F.Mask F.Paste))
  (pad 29 smd rect (at 3.81 -2.525) (size 1.27 2.29) (layers F.Cu F.Mask F.Paste))
  (pad 31 smd rect (at 6.35 -2.525) (size 1.27 2.29) (layers F.Cu F.Mask F.Paste))
  (pad 33 smd rect (at 8.89 -2.525) (size 1.27 2.29) (layers F.Cu F.Mask F.Paste))
  (pad 35 smd rect (at 11.43 -2.525) (size 1.27 2.29) (layers F.Cu F.Mask F.Paste))
  (pad 37 smd rect (at 13.97 -2.525) (size 1.27 2.29) (layers F.Cu F.Mask F.Paste))
  (pad 39 smd rect (at 16.51 -2.525) (size 1.27 2.29) (layers F.Cu F.Mask F.Paste))
  (pad 41 smd rect (at 19.05 -2.525) (size 1.27 2.29) (layers F.Cu F.Mask F.Paste))
  (pad 43 smd rect (at 21.59 -2.525) (size 1.27 2.29) (layers F.Cu F.Mask F.Paste))
  (pad 45 smd rect (at 24.13 -2.525) (size 1.27 2.29) (layers F.Cu F.Mask F.Paste))
  (pad 47 smd rect (at 26.67 -2.525) (size 1.27 2.29) (layers F.Cu F.Mask F.Paste))
  (pad 49 smd rect (at 29.21 -2.525) (size 1.27 2.29) (layers F.Cu F.Mask F.Paste))
  (pad 51 smd rect (at 31.75 -2.525) (size 1.27 2.29) (layers F.Cu F.Mask F.Paste))
  (pad 2 smd rect (at -31.75 2.525) (size 1.27 2.29) (layers F.Cu F.Mask F.Paste))
  (pad 4 smd rect (at -29.21 2.525) (size 1.27 2.29) (layers F.Cu F.Mask F.Paste))
  (pad 6 smd rect (at -26.67 2.525) (size 1.27 2.29) (layers F.Cu F.Mask F.Paste))
  (pad 8 smd rect (at -24.13 2.525) (size 1.27 2.29) (layers F.Cu F.Mask F.Paste))
  (pad 10 smd rect (at -21.59 2.525) (size 1.27 2.29) (layers F.Cu F.Mask F.Paste))
  (pad 12 smd rect (at -19.05 2.525) (size 1.27 2.29) (layers F.Cu F.Mask F.Paste))
  (pad 14 smd rect (at -16.51 2.525) (size 1.27 2.29) (layers F.Cu F.Mask F.Paste))
  (pad 16 smd rect (at -13.97 2.525) (size 1.27 2.29) (layers F.Cu F.Mask F.Paste))
  (pad 18 smd rect (at -11.43 2.525) (size 1.27 2.29) (layers F.Cu F.Mask F.Paste))
  (pad 20 smd rect (at -8.89 2.525) (size 1.27 2.29) (layers F.Cu F.Mask F.Paste))
  (pad 22 smd rect (at -6.35 2.525) (size 1.27 2.29) (layers F.Cu F.Mask F.Paste))
  (pad 24 smd rect (at -3.81 2.525) (size 1.27 2.29) (layers F.Cu F.Mask F.Paste))
  (pad 26 smd rect (at -1.27 2.525) (size 1.27 2.29) (layers F.Cu F.Mask F.Paste))
  (pad 28 smd rect (at 1.27 2.525) (size 1.27 2.29) (layers F.Cu F.Mask F.Paste))
  (pad 30 smd rect (at 3.81 2.525) (size 1.27 2.29) (layers F.Cu F.Mask F.Paste))
  (pad 32 smd rect (at 6.35 2.525) (size 1.27 2.29) (layers F.Cu F.Mask F.Paste))
  (pad 34 smd rect (at 8.89 2.525) (size 1.27 2.29) (layers F.Cu F.Mask F.Paste))
  (pad 36 smd rect (at 11.43 2.525) (size 1.27 2.29) (layers F.Cu F.Mask F.Paste))
  (pad 38 smd rect (at 13.97 2.525) (size 1.27 2.29) (layers F.Cu F.Mask F.Paste))
  (pad 40 smd rect (at 16.51 2.525) (size 1.27 2.29) (layers F.Cu F.Mask F.Paste))
  (pad 42 smd rect (at 19.05 2.525) (size 1.27 2.29) (layers F.Cu F.Mask F.Paste))
  (pad 44 smd rect (at 21.59 2.525) (size 1.27 2.29) (layers F.Cu F.Mask F.Paste))
  (pad 46 smd rect (at 24.13 2.525) (size 1.27 2.29) (layers F.Cu F.Mask F.Paste))
  (pad 48 smd rect (at 26.67 2.525) (size 1.27 2.29) (layers F.Cu F.Mask F.Paste))
  (pad 50 smd rect (at 29.21 2.525) (size 1.27 2.29) (layers F.Cu F.Mask F.Paste))
  (pad 52 smd rect (at 31.75 2.525) (size 1.27 2.29) (layers F.Cu F.Mask F.Paste))
  (fp_text user ${REFERENCE} (at 0 1.84) (layer F.Fab)
    (effects (font (size 1 1) (thickness 0.15)))
  )
  (model ${KICAD6_3DMODEL_DIR}/Connector_Samtec_HLE_SMD.3dshapes/Samtec_HLE-126-02-xxx-DV-A_2x26_P2.54mm_Horizontal.wrl
    (at (xyz 0 0 0))
    (scale (xyz 1 1 1))
    (rotate (xyz 0 0 0))
  )
)
