(module Samtec_HLE-107-02-xxx-DV-A_2x07_P2.54mm_Horizontal (layer F.Cu) (tedit 60C8AF57)
  (descr "Samtec HLE .100\" Tiger Beam Cost-effective Single Beam Socket Strip, HLE-107-02-xxx-DV-A, 7 Pins per row (http://suddendocs.samtec.com/prints/hle-1xx-02-xxx-dv-xx-xx-xx-mkt.pdf, http://suddendocs.samtec.com/prints/hle-dv-footprint.pdf), generated with kicad-footprint-generator")
  (tags "connector Samtec HLE horizontal")
  (attr smd)
  (fp_text reference REF** (at 0 -4.87) (layer F.SilkS)
    (effects (font (size 1 1) (thickness 0.15)))
  )
  (fp_text value Samtec_HLE-107-02-xxx-DV-A_2x07_P2.54mm_Horizontal (at 0 4.87) (layer F.Fab)
    (effects (font (size 1 1) (thickness 0.15)))
  )
  (fp_line (start -8.89 -2.54) (end 8.89 -2.54) (layer F.Fab) (width 0.1))
  (fp_line (start 8.89 -2.54) (end 8.89 2.54) (layer F.Fab) (width 0.1))
  (fp_line (start 8.89 2.54) (end -8.89 2.54) (layer F.Fab) (width 0.1))
  (fp_line (start -8.89 2.54) (end -8.89 -2.54) (layer F.Fab) (width 0.1))
  (fp_line (start -8.12 -2.54) (end -7.62 -1.832893) (layer F.Fab) (width 0.1))
  (fp_line (start -7.62 -1.832893) (end -7.12 -2.54) (layer F.Fab) (width 0.1))
  (fp_line (start -8.515 -3.67) (end -8.515 -2.65) (layer F.SilkS) (width 0.12))
  (fp_line (start -8.515 -2.65) (end -9 -2.65) (layer F.SilkS) (width 0.12))
  (fp_line (start -9 -2.65) (end -9 2.65) (layer F.SilkS) (width 0.12))
  (fp_line (start -9 2.65) (end -8.515 2.65) (layer F.SilkS) (width 0.12))
  (fp_line (start 8.515 -2.65) (end 9 -2.65) (layer F.SilkS) (width 0.12))
  (fp_line (start 9 -2.65) (end 9 2.65) (layer F.SilkS) (width 0.12))
  (fp_line (start 9 2.65) (end 8.515 2.65) (layer F.SilkS) (width 0.12))
  (fp_line (start -6.725 -2.65) (end -5.975 -2.65) (layer F.SilkS) (width 0.12))
  (fp_line (start -6.725 2.65) (end -5.975 2.65) (layer F.SilkS) (width 0.12))
  (fp_line (start -4.185 -2.65) (end -3.435 -2.65) (layer F.SilkS) (width 0.12))
  (fp_line (start -4.185 2.65) (end -3.435 2.65) (layer F.SilkS) (width 0.12))
  (fp_line (start -1.645 -2.65) (end -0.895 -2.65) (layer F.SilkS) (width 0.12))
  (fp_line (start -1.645 2.65) (end -0.895 2.65) (layer F.SilkS) (width 0.12))
  (fp_line (start 0.895 -2.65) (end 1.645 -2.65) (layer F.SilkS) (width 0.12))
  (fp_line (start 0.895 2.65) (end 1.645 2.65) (layer F.SilkS) (width 0.12))
  (fp_line (start 3.435 -2.65) (end 4.185 -2.65) (layer F.SilkS) (width 0.12))
  (fp_line (start 3.435 2.65) (end 4.185 2.65) (layer F.SilkS) (width 0.12))
  (fp_line (start 5.975 -2.65) (end 6.725 -2.65) (layer F.SilkS) (width 0.12))
  (fp_line (start 5.975 2.65) (end 6.725 2.65) (layer F.SilkS) (width 0.12))
  (fp_line (start -9.39 -4.17) (end 9.39 -4.17) (layer F.CrtYd) (width 0.05))
  (fp_line (start 9.39 -4.17) (end 9.39 4.17) (layer F.CrtYd) (width 0.05))
  (fp_line (start 9.39 4.17) (end -9.39 4.17) (layer F.CrtYd) (width 0.05))
  (fp_line (start -9.39 4.17) (end -9.39 -4.17) (layer F.CrtYd) (width 0.05))
  (pad "" np_thru_hole circle (at -6.35 0) (size 1.78 1.78) (drill 1.78) (layers *.Cu *.Mask))
  (pad "" np_thru_hole circle (at 6.35 0) (size 1.78 1.78) (drill 1.78) (layers *.Cu *.Mask))
  (pad 1 smd rect (at -7.62 -2.525) (size 1.27 2.29) (layers F.Cu F.Mask F.Paste))
  (pad 3 smd rect (at -5.08 -2.525) (size 1.27 2.29) (layers F.Cu F.Mask F.Paste))
  (pad 5 smd rect (at -2.54 -2.525) (size 1.27 2.29) (layers F.Cu F.Mask F.Paste))
  (pad 7 smd rect (at 0 -2.525) (size 1.27 2.29) (layers F.Cu F.Mask F.Paste))
  (pad 9 smd rect (at 2.54 -2.525) (size 1.27 2.29) (layers F.Cu F.Mask F.Paste))
  (pad 11 smd rect (at 5.08 -2.525) (size 1.27 2.29) (layers F.Cu F.Mask F.Paste))
  (pad 13 smd rect (at 7.62 -2.525) (size 1.27 2.29) (layers F.Cu F.Mask F.Paste))
  (pad 2 smd rect (at -7.62 2.525) (size 1.27 2.29) (layers F.Cu F.Mask F.Paste))
  (pad 4 smd rect (at -5.08 2.525) (size 1.27 2.29) (layers F.Cu F.Mask F.Paste))
  (pad 6 smd rect (at -2.54 2.525) (size 1.27 2.29) (layers F.Cu F.Mask F.Paste))
  (pad 8 smd rect (at 0 2.525) (size 1.27 2.29) (layers F.Cu F.Mask F.Paste))
  (pad 10 smd rect (at 2.54 2.525) (size 1.27 2.29) (layers F.Cu F.Mask F.Paste))
  (pad 12 smd rect (at 5.08 2.525) (size 1.27 2.29) (layers F.Cu F.Mask F.Paste))
  (pad 14 smd rect (at 7.62 2.525) (size 1.27 2.29) (layers F.Cu F.Mask F.Paste))
  (fp_text user ${REFERENCE} (at 0 1.84) (layer F.Fab)
    (effects (font (size 1 1) (thickness 0.15)))
  )
  (model ${KICAD6_3DMODEL_DIR}/Connector_Samtec_HLE_SMD.3dshapes/Samtec_HLE-107-02-xxx-DV-A_2x07_P2.54mm_Horizontal.wrl
    (at (xyz 0 0 0))
    (scale (xyz 1 1 1))
    (rotate (xyz 0 0 0))
  )
)
