(module Samtec_HLE-113-02-xxx-DV_2x13_P2.54mm_Horizontal (layer F.Cu) (tedit 60C8AF58)
  (descr "Samtec HLE .100\" Tiger Beam Cost-effective Single Beam Socket Strip, HLE-113-02-xxx-DV, 13 Pins per row (http://suddendocs.samtec.com/prints/hle-1xx-02-xxx-dv-xx-xx-xx-mkt.pdf, http://suddendocs.samtec.com/prints/hle-dv-footprint.pdf), generated with kicad-footprint-generator")
  (tags "connector Samtec HLE horizontal")
  (attr smd)
  (fp_text reference REF** (at 0 -4.87) (layer F.SilkS)
    (effects (font (size 1 1) (thickness 0.15)))
  )
  (fp_text value Samtec_HLE-113-02-xxx-DV_2x13_P2.54mm_Horizontal (at 0 4.87) (layer F.Fab)
    (effects (font (size 1 1) (thickness 0.15)))
  )
  (fp_line (start -16.51 -2.54) (end 16.51 -2.54) (layer F.Fab) (width 0.1))
  (fp_line (start 16.51 -2.54) (end 16.51 2.54) (layer F.Fab) (width 0.1))
  (fp_line (start 16.51 2.54) (end -16.51 2.54) (layer F.Fab) (width 0.1))
  (fp_line (start -16.51 2.54) (end -16.51 -2.54) (layer F.Fab) (width 0.1))
  (fp_line (start -15.74 -2.54) (end -15.24 -1.832893) (layer F.Fab) (width 0.1))
  (fp_line (start -15.24 -1.832893) (end -14.74 -2.54) (layer F.Fab) (width 0.1))
  (fp_line (start -16.135 -3.67) (end -16.135 -2.65) (layer F.SilkS) (width 0.12))
  (fp_line (start -16.135 -2.65) (end -16.62 -2.65) (layer F.SilkS) (width 0.12))
  (fp_line (start -16.62 -2.65) (end -16.62 2.65) (layer F.SilkS) (width 0.12))
  (fp_line (start -16.62 2.65) (end -16.135 2.65) (layer F.SilkS) (width 0.12))
  (fp_line (start 16.135 -2.65) (end 16.62 -2.65) (layer F.SilkS) (width 0.12))
  (fp_line (start 16.62 -2.65) (end 16.62 2.65) (layer F.SilkS) (width 0.12))
  (fp_line (start 16.62 2.65) (end 16.135 2.65) (layer F.SilkS) (width 0.12))
  (fp_line (start -14.345 -2.65) (end -13.595 -2.65) (layer F.SilkS) (width 0.12))
  (fp_line (start -14.345 2.65) (end -13.595 2.65) (layer F.SilkS) (width 0.12))
  (fp_line (start -11.805 -2.65) (end -11.055 -2.65) (layer F.SilkS) (width 0.12))
  (fp_line (start -11.805 2.65) (end -11.055 2.65) (layer F.SilkS) (width 0.12))
  (fp_line (start -9.265 -2.65) (end -8.515 -2.65) (layer F.SilkS) (width 0.12))
  (fp_line (start -9.265 2.65) (end -8.515 2.65) (layer F.SilkS) (width 0.12))
  (fp_line (start -6.725 -2.65) (end -5.975 -2.65) (layer F.SilkS) (width 0.12))
  (fp_line (start -6.725 2.65) (end -5.975 2.65) (layer F.SilkS) (width 0.12))
  (fp_line (start -4.185 -2.65) (end -3.435 -2.65) (layer F.SilkS) (width 0.12))
  (fp_line (start -4.185 2.65) (end -3.435 2.65) (layer F.SilkS) (width 0.12))
  (fp_line (start -1.645 -2.65) (end -0.895 -2.65) (layer F.SilkS) (width 0.12))
  (fp_line (start -1.645 2.65) (end -0.895 2.65) (layer F.SilkS) (width 0.12))
  (fp_line (start 0.895 -2.65) (end 1.645 -2.65) (layer F.SilkS) (width 0.12))
  (fp_line (start 0.895 2.65) (end 1.645 2.65) (layer F.SilkS) (width 0.12))
  (fp_line (start 3.435 -2.65) (end 4.185 -2.65) (layer F.SilkS) (width 0.12))
  (fp_line (start 3.435 2.65) (end 4.185 2.65) (layer F.SilkS) (width 0.12))
  (fp_line (start 5.975 -2.65) (end 6.725 -2.65) (layer F.SilkS) (width 0.12))
  (fp_line (start 5.975 2.65) (end 6.725 2.65) (layer F.SilkS) (width 0.12))
  (fp_line (start 8.515 -2.65) (end 9.265 -2.65) (layer F.SilkS) (width 0.12))
  (fp_line (start 8.515 2.65) (end 9.265 2.65) (layer F.SilkS) (width 0.12))
  (fp_line (start 11.055 -2.65) (end 11.805 -2.65) (layer F.SilkS) (width 0.12))
  (fp_line (start 11.055 2.65) (end 11.805 2.65) (layer F.SilkS) (width 0.12))
  (fp_line (start 13.595 -2.65) (end 14.345 -2.65) (layer F.SilkS) (width 0.12))
  (fp_line (start 13.595 2.65) (end 14.345 2.65) (layer F.SilkS) (width 0.12))
  (fp_line (start -17.01 -4.17) (end 17.01 -4.17) (layer F.CrtYd) (width 0.05))
  (fp_line (start 17.01 -4.17) (end 17.01 4.17) (layer F.CrtYd) (width 0.05))
  (fp_line (start 17.01 4.17) (end -17.01 4.17) (layer F.CrtYd) (width 0.05))
  (fp_line (start -17.01 4.17) (end -17.01 -4.17) (layer F.CrtYd) (width 0.05))
  (pad 1 smd rect (at -15.24 -2.525) (size 1.27 2.29) (layers F.Cu F.Mask F.Paste))
  (pad 3 smd rect (at -12.7 -2.525) (size 1.27 2.29) (layers F.Cu F.Mask F.Paste))
  (pad 5 smd rect (at -10.16 -2.525) (size 1.27 2.29) (layers F.Cu F.Mask F.Paste))
  (pad 7 smd rect (at -7.62 -2.525) (size 1.27 2.29) (layers F.Cu F.Mask F.Paste))
  (pad 9 smd rect (at -5.08 -2.525) (size 1.27 2.29) (layers F.Cu F.Mask F.Paste))
  (pad 11 smd rect (at -2.54 -2.525) (size 1.27 2.29) (layers F.Cu F.Mask F.Paste))
  (pad 13 smd rect (at 0 -2.525) (size 1.27 2.29) (layers F.Cu F.Mask F.Paste))
  (pad 15 smd rect (at 2.54 -2.525) (size 1.27 2.29) (layers F.Cu F.Mask F.Paste))
  (pad 17 smd rect (at 5.08 -2.525) (size 1.27 2.29) (layers F.Cu F.Mask F.Paste))
  (pad 19 smd rect (at 7.62 -2.525) (size 1.27 2.29) (layers F.Cu F.Mask F.Paste))
  (pad 21 smd rect (at 10.16 -2.525) (size 1.27 2.29) (layers F.Cu F.Mask F.Paste))
  (pad 23 smd rect (at 12.7 -2.525) (size 1.27 2.29) (layers F.Cu F.Mask F.Paste))
  (pad 25 smd rect (at 15.24 -2.525) (size 1.27 2.29) (layers F.Cu F.Mask F.Paste))
  (pad 2 smd rect (at -15.24 2.525) (size 1.27 2.29) (layers F.Cu F.Mask F.Paste))
  (pad 4 smd rect (at -12.7 2.525) (size 1.27 2.29) (layers F.Cu F.Mask F.Paste))
  (pad 6 smd rect (at -10.16 2.525) (size 1.27 2.29) (layers F.Cu F.Mask F.Paste))
  (pad 8 smd rect (at -7.62 2.525) (size 1.27 2.29) (layers F.Cu F.Mask F.Paste))
  (pad 10 smd rect (at -5.08 2.525) (size 1.27 2.29) (layers F.Cu F.Mask F.Paste))
  (pad 12 smd rect (at -2.54 2.525) (size 1.27 2.29) (layers F.Cu F.Mask F.Paste))
  (pad 14 smd rect (at 0 2.525) (size 1.27 2.29) (layers F.Cu F.Mask F.Paste))
  (pad 16 smd rect (at 2.54 2.525) (size 1.27 2.29) (layers F.Cu F.Mask F.Paste))
  (pad 18 smd rect (at 5.08 2.525) (size 1.27 2.29) (layers F.Cu F.Mask F.Paste))
  (pad 20 smd rect (at 7.62 2.525) (size 1.27 2.29) (layers F.Cu F.Mask F.Paste))
  (pad 22 smd rect (at 10.16 2.525) (size 1.27 2.29) (layers F.Cu F.Mask F.Paste))
  (pad 24 smd rect (at 12.7 2.525) (size 1.27 2.29) (layers F.Cu F.Mask F.Paste))
  (pad 26 smd rect (at 15.24 2.525) (size 1.27 2.29) (layers F.Cu F.Mask F.Paste))
  (fp_text user ${REFERENCE} (at 0 1.84) (layer F.Fab)
    (effects (font (size 1 1) (thickness 0.15)))
  )
  (model ${KICAD6_3DMODEL_DIR}/Connector_Samtec_HLE_SMD.3dshapes/Samtec_HLE-113-02-xxx-DV_2x13_P2.54mm_Horizontal.wrl
    (at (xyz 0 0 0))
    (scale (xyz 1 1 1))
    (rotate (xyz 0 0 0))
  )
)
