(module Hirose_FH12-36S-0.5SH_1x36-1MP_P0.50mm_Horizontal (layer F.Cu) (tedit 5D24667B)
  (descr "Hirose FH12, FFC/FPC connector, FH12-36S-0.5SH, 36 Pins per row (https://www.hirose.com/product/en/products/FH12/FH12-24S-0.5SH(55)/), generated with kicad-footprint-generator")
  (tags "connector Hirose FH12 horizontal")
  (attr smd)
  (fp_text reference REF** (at 0 -3.7) (layer F.SilkS)
    (effects (font (size 1 1) (thickness 0.15)))
  )
  (fp_text value Hirose_FH12-36S-0.5SH_1x36-1MP_P0.50mm_Horizontal (at 0 5.6) (layer F.Fab)
    (effects (font (size 1 1) (thickness 0.15)))
  )
  (fp_line (start 0 -1.2) (end -10.55 -1.2) (layer F.Fab) (width 0.1))
  (fp_line (start -10.55 -1.2) (end -10.55 3.4) (layer F.Fab) (width 0.1))
  (fp_line (start -10.55 3.4) (end -9.95 3.4) (layer F.Fab) (width 0.1))
  (fp_line (start -9.95 3.4) (end -9.95 3.7) (layer F.Fab) (width 0.1))
  (fp_line (start -9.95 3.7) (end -10.45 3.7) (layer F.Fab) (width 0.1))
  (fp_line (start -10.45 3.7) (end -10.45 4.4) (layer F.Fab) (width 0.1))
  (fp_line (start -10.45 4.4) (end 0 4.4) (layer F.Fab) (width 0.1))
  (fp_line (start 0 -1.2) (end 10.55 -1.2) (layer F.Fab) (width 0.1))
  (fp_line (start 10.55 -1.2) (end 10.55 3.4) (layer F.Fab) (width 0.1))
  (fp_line (start 10.55 3.4) (end 9.95 3.4) (layer F.Fab) (width 0.1))
  (fp_line (start 9.95 3.4) (end 9.95 3.7) (layer F.Fab) (width 0.1))
  (fp_line (start 9.95 3.7) (end 10.45 3.7) (layer F.Fab) (width 0.1))
  (fp_line (start 10.45 3.7) (end 10.45 4.4) (layer F.Fab) (width 0.1))
  (fp_line (start 10.45 4.4) (end 0 4.4) (layer F.Fab) (width 0.1))
  (fp_line (start -9.16 -1.3) (end -10.65 -1.3) (layer F.SilkS) (width 0.12))
  (fp_line (start -10.65 -1.3) (end -10.65 0.04) (layer F.SilkS) (width 0.12))
  (fp_line (start 9.16 -1.3) (end 10.65 -1.3) (layer F.SilkS) (width 0.12))
  (fp_line (start 10.65 -1.3) (end 10.65 0.04) (layer F.SilkS) (width 0.12))
  (fp_line (start -10.65 2.76) (end -10.65 4.5) (layer F.SilkS) (width 0.12))
  (fp_line (start -10.65 4.5) (end 10.65 4.5) (layer F.SilkS) (width 0.12))
  (fp_line (start 10.65 4.5) (end 10.65 2.76) (layer F.SilkS) (width 0.12))
  (fp_line (start -9.16 -1.3) (end -9.16 -2.5) (layer F.SilkS) (width 0.12))
  (fp_line (start -9.25 -1.2) (end -8.75 -0.492893) (layer F.Fab) (width 0.1))
  (fp_line (start -8.75 -0.492893) (end -8.25 -1.2) (layer F.Fab) (width 0.1))
  (fp_line (start -12.05 -3) (end -12.05 4.9) (layer F.CrtYd) (width 0.05))
  (fp_line (start -12.05 4.9) (end 12.05 4.9) (layer F.CrtYd) (width 0.05))
  (fp_line (start 12.05 4.9) (end 12.05 -3) (layer F.CrtYd) (width 0.05))
  (fp_line (start 12.05 -3) (end -12.05 -3) (layer F.CrtYd) (width 0.05))
  (pad MP smd rect (at 10.65 1.4) (size 1.8 2.2) (layers F.Cu F.Mask F.Paste))
  (pad MP smd rect (at -10.65 1.4) (size 1.8 2.2) (layers F.Cu F.Mask F.Paste))
  (pad 1 smd rect (at -8.75 -1.85) (size 0.3 1.3) (layers F.Cu F.Mask F.Paste))
  (pad 2 smd rect (at -8.25 -1.85) (size 0.3 1.3) (layers F.Cu F.Mask F.Paste))
  (pad 3 smd rect (at -7.75 -1.85) (size 0.3 1.3) (layers F.Cu F.Mask F.Paste))
  (pad 4 smd rect (at -7.25 -1.85) (size 0.3 1.3) (layers F.Cu F.Mask F.Paste))
  (pad 5 smd rect (at -6.75 -1.85) (size 0.3 1.3) (layers F.Cu F.Mask F.Paste))
  (pad 6 smd rect (at -6.25 -1.85) (size 0.3 1.3) (layers F.Cu F.Mask F.Paste))
  (pad 7 smd rect (at -5.75 -1.85) (size 0.3 1.3) (layers F.Cu F.Mask F.Paste))
  (pad 8 smd rect (at -5.25 -1.85) (size 0.3 1.3) (layers F.Cu F.Mask F.Paste))
  (pad 9 smd rect (at -4.75 -1.85) (size 0.3 1.3) (layers F.Cu F.Mask F.Paste))
  (pad 10 smd rect (at -4.25 -1.85) (size 0.3 1.3) (layers F.Cu F.Mask F.Paste))
  (pad 11 smd rect (at -3.75 -1.85) (size 0.3 1.3) (layers F.Cu F.Mask F.Paste))
  (pad 12 smd rect (at -3.25 -1.85) (size 0.3 1.3) (layers F.Cu F.Mask F.Paste))
  (pad 13 smd rect (at -2.75 -1.85) (size 0.3 1.3) (layers F.Cu F.Mask F.Paste))
  (pad 14 smd rect (at -2.25 -1.85) (size 0.3 1.3) (layers F.Cu F.Mask F.Paste))
  (pad 15 smd rect (at -1.75 -1.85) (size 0.3 1.3) (layers F.Cu F.Mask F.Paste))
  (pad 16 smd rect (at -1.25 -1.85) (size 0.3 1.3) (layers F.Cu F.Mask F.Paste))
  (pad 17 smd rect (at -0.75 -1.85) (size 0.3 1.3) (layers F.Cu F.Mask F.Paste))
  (pad 18 smd rect (at -0.25 -1.85) (size 0.3 1.3) (layers F.Cu F.Mask F.Paste))
  (pad 19 smd rect (at 0.25 -1.85) (size 0.3 1.3) (layers F.Cu F.Mask F.Paste))
  (pad 20 smd rect (at 0.75 -1.85) (size 0.3 1.3) (layers F.Cu F.Mask F.Paste))
  (pad 21 smd rect (at 1.25 -1.85) (size 0.3 1.3) (layers F.Cu F.Mask F.Paste))
  (pad 22 smd rect (at 1.75 -1.85) (size 0.3 1.3) (layers F.Cu F.Mask F.Paste))
  (pad 23 smd rect (at 2.25 -1.85) (size 0.3 1.3) (layers F.Cu F.Mask F.Paste))
  (pad 24 smd rect (at 2.75 -1.85) (size 0.3 1.3) (layers F.Cu F.Mask F.Paste))
  (pad 25 smd rect (at 3.25 -1.85) (size 0.3 1.3) (layers F.Cu F.Mask F.Paste))
  (pad 26 smd rect (at 3.75 -1.85) (size 0.3 1.3) (layers F.Cu F.Mask F.Paste))
  (pad 27 smd rect (at 4.25 -1.85) (size 0.3 1.3) (layers F.Cu F.Mask F.Paste))
  (pad 28 smd rect (at 4.75 -1.85) (size 0.3 1.3) (layers F.Cu F.Mask F.Paste))
  (pad 29 smd rect (at 5.25 -1.85) (size 0.3 1.3) (layers F.Cu F.Mask F.Paste))
  (pad 30 smd rect (at 5.75 -1.85) (size 0.3 1.3) (layers F.Cu F.Mask F.Paste))
  (pad 31 smd rect (at 6.25 -1.85) (size 0.3 1.3) (layers F.Cu F.Mask F.Paste))
  (pad 32 smd rect (at 6.75 -1.85) (size 0.3 1.3) (layers F.Cu F.Mask F.Paste))
  (pad 33 smd rect (at 7.25 -1.85) (size 0.3 1.3) (layers F.Cu F.Mask F.Paste))
  (pad 34 smd rect (at 7.75 -1.85) (size 0.3 1.3) (layers F.Cu F.Mask F.Paste))
  (pad 35 smd rect (at 8.25 -1.85) (size 0.3 1.3) (layers F.Cu F.Mask F.Paste))
  (pad 36 smd rect (at 8.75 -1.85) (size 0.3 1.3) (layers F.Cu F.Mask F.Paste))
  (fp_text user %R (at 0 3.7) (layer F.Fab)
    (effects (font (size 1 1) (thickness 0.15)))
  )
  (model ${KICAD6_3DMODEL_DIR}/Connector_FFC-FPC.3dshapes/Hirose_FH12-36S-0.5SH_1x36-1MP_P0.50mm_Horizontal.wrl
    (at (xyz 0 0 0))
    (scale (xyz 1 1 1))
    (rotate (xyz 0 0 0))
  )
)