(module Hirose_FH12-6S-0.5SH_1x06-1MP_P0.50mm_Horizontal (layer F.Cu) (tedit 5D24667B)
  (descr "Hirose FH12, FFC/FPC connector, FH12-6S-0.5SH, 6 Pins per row (https://www.hirose.com/product/en/products/FH12/FH12-24S-0.5SH(55)/), generated with kicad-footprint-generator")
  (tags "connector Hirose FH12 horizontal")
  (attr smd)
  (fp_text reference REF** (at 0 -3.7) (layer F.SilkS)
    (effects (font (size 1 1) (thickness 0.15)))
  )
  (fp_text value Hirose_FH12-6S-0.5SH_1x06-1MP_P0.50mm_Horizontal (at 0 5.6) (layer F.Fab)
    (effects (font (size 1 1) (thickness 0.15)))
  )
  (fp_line (start 0 -1.2) (end -3.05 -1.2) (layer F.Fab) (width 0.1))
  (fp_line (start -3.05 -1.2) (end -3.05 3.4) (layer F.Fab) (width 0.1))
  (fp_line (start -3.05 3.4) (end -2.45 3.4) (layer F.Fab) (width 0.1))
  (fp_line (start -2.45 3.4) (end -2.45 3.7) (layer F.Fab) (width 0.1))
  (fp_line (start -2.45 3.7) (end -2.95 3.7) (layer F.Fab) (width 0.1))
  (fp_line (start -2.95 3.7) (end -2.95 4.4) (layer F.Fab) (width 0.1))
  (fp_line (start -2.95 4.4) (end 0 4.4) (layer F.Fab) (width 0.1))
  (fp_line (start 0 -1.2) (end 3.05 -1.2) (layer F.Fab) (width 0.1))
  (fp_line (start 3.05 -1.2) (end 3.05 3.4) (layer F.Fab) (width 0.1))
  (fp_line (start 3.05 3.4) (end 2.45 3.4) (layer F.Fab) (width 0.1))
  (fp_line (start 2.45 3.4) (end 2.45 3.7) (layer F.Fab) (width 0.1))
  (fp_line (start 2.45 3.7) (end 2.95 3.7) (layer F.Fab) (width 0.1))
  (fp_line (start 2.95 3.7) (end 2.95 4.4) (layer F.Fab) (width 0.1))
  (fp_line (start 2.95 4.4) (end 0 4.4) (layer F.Fab) (width 0.1))
  (fp_line (start -1.66 -1.3) (end -3.15 -1.3) (layer F.SilkS) (width 0.12))
  (fp_line (start -3.15 -1.3) (end -3.15 0.04) (layer F.SilkS) (width 0.12))
  (fp_line (start 1.66 -1.3) (end 3.15 -1.3) (layer F.SilkS) (width 0.12))
  (fp_line (start 3.15 -1.3) (end 3.15 0.04) (layer F.SilkS) (width 0.12))
  (fp_line (start -3.15 2.76) (end -3.15 4.5) (layer F.SilkS) (width 0.12))
  (fp_line (start -3.15 4.5) (end 3.15 4.5) (layer F.SilkS) (width 0.12))
  (fp_line (start 3.15 4.5) (end 3.15 2.76) (layer F.SilkS) (width 0.12))
  (fp_line (start -1.66 -1.3) (end -1.66 -2.5) (layer F.SilkS) (width 0.12))
  (fp_line (start -1.75 -1.2) (end -1.25 -0.492893) (layer F.Fab) (width 0.1))
  (fp_line (start -1.25 -0.492893) (end -0.75 -1.2) (layer F.Fab) (width 0.1))
  (fp_line (start -4.55 -3) (end -4.55 4.9) (layer F.CrtYd) (width 0.05))
  (fp_line (start -4.55 4.9) (end 4.55 4.9) (layer F.CrtYd) (width 0.05))
  (fp_line (start 4.55 4.9) (end 4.55 -3) (layer F.CrtYd) (width 0.05))
  (fp_line (start 4.55 -3) (end -4.55 -3) (layer F.CrtYd) (width 0.05))
  (pad MP smd rect (at 3.15 1.4) (size 1.8 2.2) (layers F.Cu F.Mask F.Paste))
  (pad MP smd rect (at -3.15 1.4) (size 1.8 2.2) (layers F.Cu F.Mask F.Paste))
  (pad 1 smd rect (at -1.25 -1.85) (size 0.3 1.3) (layers F.Cu F.Mask F.Paste))
  (pad 2 smd rect (at -0.75 -1.85) (size 0.3 1.3) (layers F.Cu F.Mask F.Paste))
  (pad 3 smd rect (at -0.25 -1.85) (size 0.3 1.3) (layers F.Cu F.Mask F.Paste))
  (pad 4 smd rect (at 0.25 -1.85) (size 0.3 1.3) (layers F.Cu F.Mask F.Paste))
  (pad 5 smd rect (at 0.75 -1.85) (size 0.3 1.3) (layers F.Cu F.Mask F.Paste))
  (pad 6 smd rect (at 1.25 -1.85) (size 0.3 1.3) (layers F.Cu F.Mask F.Paste))
  (fp_text user %R (at 0 3.7) (layer F.Fab)
    (effects (font (size 1 1) (thickness 0.15)))
  )
  (model ${KICAD6_3DMODEL_DIR}/Connector_FFC-FPC.3dshapes/Hirose_FH12-6S-0.5SH_1x06-1MP_P0.50mm_Horizontal.wrl
    (at (xyz 0 0 0))
    (scale (xyz 1 1 1))
    (rotate (xyz 0 0 0))
  )
)