(module Molex_200528-0150_1x15-1MP_P1.00mm_Horizontal (layer F.Cu) (tedit 5C60BCA5)
  (descr "Molex Molex 1.00mm Pitch Easy-On BackFlip, Right-Angle, Bottom Contact FFC/FPC, 200528-0150, 15 Circuits (https://www.molex.com/pdm_docs/sd/2005280150_sd.pdf), generated with kicad-footprint-generator")
  (tags "connector Molex  top entry")
  (attr smd)
  (fp_text reference REF** (at 0 -2.61) (layer F.SilkS)
    (effects (font (size 1 1) (thickness 0.15)))
  )
  (fp_text value Molex_200528-0150_1x15-1MP_P1.00mm_Horizontal (at 0 5.39) (layer F.Fab)
    (effects (font (size 1 1) (thickness 0.15)))
  )
  (fp_line (start 9.55 -1.06) (end 9.55 -0.71) (layer F.Fab) (width 0.1))
  (fp_line (start 9.55 -0.71) (end -9.55 -0.71) (layer F.Fab) (width 0.1))
  (fp_line (start -9.55 -0.71) (end -9.55 -1.06) (layer F.Fab) (width 0.1))
  (fp_line (start -9.55 -1.06) (end -10.1 -1.06) (layer F.Fab) (width 0.1))
  (fp_line (start -10.1 -1.06) (end -10.1 2.89) (layer F.Fab) (width 0.1))
  (fp_line (start -10.1 2.89) (end 10.1 2.89) (layer F.Fab) (width 0.1))
  (fp_line (start 10.1 2.89) (end 10.1 -1.06) (layer F.Fab) (width 0.1))
  (fp_line (start 10.1 -1.06) (end 9.55 -1.06) (layer F.Fab) (width 0.1))
  (fp_line (start -7.5 -0.71) (end -7 0.04) (layer F.Fab) (width 0.1))
  (fp_line (start -7 0.04) (end -6.5 -0.71) (layer F.Fab) (width 0.1))
  (fp_line (start 9.3 0.19) (end -9.3 0.19) (layer F.Fab) (width 0.1))
  (fp_line (start -9.3 0.19) (end -9.3 4.19) (layer F.Fab) (width 0.1))
  (fp_line (start -9.3 4.19) (end 9.3 4.19) (layer F.Fab) (width 0.1))
  (fp_line (start 9.3 4.19) (end 9.3 0.19) (layer F.Fab) (width 0.1))
  (fp_line (start -7.46 -1.41) (end -7.46 -0.82) (layer F.SilkS) (width 0.12))
  (fp_line (start -7.46 -0.82) (end -9.44 -0.82) (layer F.SilkS) (width 0.12))
  (fp_line (start -9.44 -0.82) (end -9.44 -1.17) (layer F.SilkS) (width 0.12))
  (fp_line (start -9.44 -1.17) (end -10.21 -1.17) (layer F.SilkS) (width 0.12))
  (fp_line (start -10.21 -1.17) (end -10.21 0.88) (layer F.SilkS) (width 0.12))
  (fp_line (start -10.21 2.7) (end -10.21 3) (layer F.SilkS) (width 0.12))
  (fp_line (start -10.21 3) (end -9.41 3) (layer F.SilkS) (width 0.12))
  (fp_line (start -9.41 3) (end -9.41 4.3) (layer F.SilkS) (width 0.12))
  (fp_line (start -9.41 4.3) (end 9.41 4.3) (layer F.SilkS) (width 0.12))
  (fp_line (start 9.41 4.3) (end 9.41 3) (layer F.SilkS) (width 0.12))
  (fp_line (start 9.41 3) (end 10.21 3) (layer F.SilkS) (width 0.12))
  (fp_line (start 10.21 3) (end 10.21 2.7) (layer F.SilkS) (width 0.12))
  (fp_line (start 10.21 0.88) (end 10.21 -1.17) (layer F.SilkS) (width 0.12))
  (fp_line (start 10.21 -1.17) (end 9.44 -1.17) (layer F.SilkS) (width 0.12))
  (fp_line (start 9.44 -1.17) (end 9.44 -0.82) (layer F.SilkS) (width 0.12))
  (fp_line (start 9.44 -0.82) (end 7.46 -0.82) (layer F.SilkS) (width 0.12))
  (fp_line (start -11.3 -1.91) (end -11.3 4.69) (layer F.CrtYd) (width 0.05))
  (fp_line (start -11.3 4.69) (end 11.3 4.69) (layer F.CrtYd) (width 0.05))
  (fp_line (start 11.3 4.69) (end 11.3 -1.91) (layer F.CrtYd) (width 0.05))
  (fp_line (start 11.3 -1.91) (end -11.3 -1.91) (layer F.CrtYd) (width 0.05))
  (pad MP smd rect (at -9.8 1.79) (size 2 1.3) (layers F.Cu F.Mask F.Paste))
  (pad MP smd rect (at 9.8 1.79) (size 2 1.3) (layers F.Cu F.Mask F.Paste))
  (pad 1 smd rect (at -7 -0.91) (size 0.4 1) (layers F.Cu F.Mask F.Paste))
  (pad 2 smd rect (at -6 -0.91) (size 0.4 1) (layers F.Cu F.Mask F.Paste))
  (pad 3 smd rect (at -5 -0.91) (size 0.4 1) (layers F.Cu F.Mask F.Paste))
  (pad 4 smd rect (at -4 -0.91) (size 0.4 1) (layers F.Cu F.Mask F.Paste))
  (pad 5 smd rect (at -3 -0.91) (size 0.4 1) (layers F.Cu F.Mask F.Paste))
  (pad 6 smd rect (at -2 -0.91) (size 0.4 1) (layers F.Cu F.Mask F.Paste))
  (pad 7 smd rect (at -1 -0.91) (size 0.4 1) (layers F.Cu F.Mask F.Paste))
  (pad 8 smd rect (at 0 -0.91) (size 0.4 1) (layers F.Cu F.Mask F.Paste))
  (pad 9 smd rect (at 1 -0.91) (size 0.4 1) (layers F.Cu F.Mask F.Paste))
  (pad 10 smd rect (at 2 -0.91) (size 0.4 1) (layers F.Cu F.Mask F.Paste))
  (pad 11 smd rect (at 3 -0.91) (size 0.4 1) (layers F.Cu F.Mask F.Paste))
  (pad 12 smd rect (at 4 -0.91) (size 0.4 1) (layers F.Cu F.Mask F.Paste))
  (pad 13 smd rect (at 5 -0.91) (size 0.4 1) (layers F.Cu F.Mask F.Paste))
  (pad 14 smd rect (at 6 -0.91) (size 0.4 1) (layers F.Cu F.Mask F.Paste))
  (pad 15 smd rect (at 7 -0.91) (size 0.4 1) (layers F.Cu F.Mask F.Paste))
  (fp_text user %R (at 0 1.39) (layer F.Fab)
    (effects (font (size 1 1) (thickness 0.15)))
  )
  (model ${KICAD6_3DMODEL_DIR}/Connector_FFC-FPC.3dshapes/Molex_200528-0150_1x15-1MP_P1.00mm_Horizontal.wrl
    (at (xyz 0 0 0))
    (scale (xyz 1 1 1))
    (rotate (xyz 0 0 0))
  )
)