(module Molex_502244-1530_1x15-1MP_P0.5mm_Horizontal (layer F.Cu) (tedit 5A1B5A78)
  (descr "Molex 0.50mm Pitch Easy-On Type FFC/FPC Connector, For LVDS, 2.33mm Height, Right Angle, Surface Mount, ZIF, Bottom Contact Style, 15 Circuits (http://www.molex.com/pdm_docs/sd/5022441530_sd.pdf)")
  (tags "molex FFC/FPC connector Pitch 0.5mm right angle")
  (attr smd)
  (fp_text reference REF** (at 0 -4.7) (layer F.SilkS)
    (effects (font (size 1 1) (thickness 0.15)))
  )
  (fp_text value Molex_502244-1530_1x15-1MP_P0.5mm_Horizontal (at 0 4.7) (layer F.Fab)
    (effects (font (size 1 1) (thickness 0.15)))
  )
  (fp_line (start -3.9 -2.76) (end -3.9 -3.45) (layer F.SilkS) (width 0.12))
  (fp_line (start -3.5 -2.31) (end -3.2 -2.71) (layer F.Fab) (width 0.1))
  (fp_line (start -3.8 -2.71) (end -3.5 -2.31) (layer F.Fab) (width 0.1))
  (fp_line (start -4.13 2.51) (end -1.58 -0.04) (layer Dwgs.User) (width 0.1))
  (fp_text user KEEPOUT (at 0 1.271) (layer Cmts.User)
    (effects (font (size 1 1) (thickness 0.1)))
  )
  (fp_text user %R (at 0 -1) (layer F.Fab)
    (effects (font (size 1 1) (thickness 0.15)))
  )
  (fp_line (start -0.5 2.45) (end 0.5 2.45) (layer F.SilkS) (width 0.12))
  (fp_line (start -4.09 -2.76) (end -4.09 -2.96) (layer F.SilkS) (width 0.12))
  (fp_line (start 4.09 -2.76) (end 3.9 -2.76) (layer F.SilkS) (width 0.12))
  (fp_line (start 4.09 -2.96) (end 4.09 -2.76) (layer F.SilkS) (width 0.12))
  (fp_line (start -4.09 -2.76) (end -3.9 -2.76) (layer F.SilkS) (width 0.12))
  (fp_line (start 5.11 -2.96) (end 5.11 0.7) (layer F.SilkS) (width 0.12))
  (fp_line (start 4.1 -2.96) (end 5.11 -2.96) (layer F.SilkS) (width 0.12))
  (fp_line (start -5.11 -2.96) (end -4.1 -2.96) (layer F.SilkS) (width 0.12))
  (fp_line (start -5.11 0.7) (end -5.11 -2.96) (layer F.SilkS) (width 0.12))
  (fp_line (start -3.8 2.45) (end -1.9 2.45) (layer F.SilkS) (width 0.12))
  (fp_line (start 1.9 2.45) (end 3.8 2.45) (layer F.SilkS) (width 0.12))
  (fp_line (start -5.9 4) (end -5.9 -4) (layer F.CrtYd) (width 0.05))
  (fp_line (start 5.9 4) (end -5.9 4) (layer F.CrtYd) (width 0.05))
  (fp_line (start 5.9 -4) (end 5.9 4) (layer F.CrtYd) (width 0.05))
  (fp_line (start -5.9 -4) (end 5.9 -4) (layer F.CrtYd) (width 0.05))
  (fp_line (start -4.13 2.51) (end -4.13 -0.04) (layer Dwgs.User) (width 0.1))
  (fp_line (start 4.13 2.51) (end -4.13 2.51) (layer Dwgs.User) (width 0.1))
  (fp_line (start 4.13 -0.04) (end 4.13 2.51) (layer Dwgs.User) (width 0.1))
  (fp_line (start -4.13 -0.04) (end 4.13 -0.04) (layer Dwgs.User) (width 0.1))
  (fp_line (start -4.15 -2.91) (end -5.05 -2.91) (layer F.Fab) (width 0.1))
  (fp_line (start -4.15 -2.71) (end -4.15 -2.91) (layer F.Fab) (width 0.1))
  (fp_line (start 4.15 -2.91) (end 4.15 -2.71) (layer F.Fab) (width 0.1))
  (fp_line (start 5.05 -2.91) (end 4.15 -2.91) (layer F.Fab) (width 0.1))
  (fp_line (start 5.05 -2.91) (end 5.05 2.39) (layer F.Fab) (width 0.1))
  (fp_line (start -5.05 -2.91) (end -5.05 2.39) (layer F.Fab) (width 0.1))
  (fp_line (start -5.05 2.39) (end 5.05 2.39) (layer F.Fab) (width 0.1))
  (fp_line (start 4.15 -2.71) (end -4.15 -2.71) (layer F.Fab) (width 0.1))
  (fp_line (start -3.13 2.51) (end -0.58 -0.04) (layer Dwgs.User) (width 0.1))
  (fp_line (start -2.13 2.51) (end 0.42 -0.04) (layer Dwgs.User) (width 0.1))
  (fp_line (start -1.13 2.51) (end 1.42 -0.04) (layer Dwgs.User) (width 0.1))
  (fp_line (start -0.13 2.51) (end 2.42 -0.04) (layer Dwgs.User) (width 0.1))
  (fp_line (start 0.87 2.51) (end 3.42 -0.04) (layer Dwgs.User) (width 0.1))
  (fp_line (start 1.87 2.51) (end 4.13 0.25) (layer Dwgs.User) (width 0.1))
  (fp_line (start -4.13 1.51) (end -2.58 -0.04) (layer Dwgs.User) (width 0.1))
  (fp_line (start -4.13 0.51) (end -3.58 -0.04) (layer Dwgs.User) (width 0.1))
  (fp_line (start 2.87 2.51) (end 4.13 1.25) (layer Dwgs.User) (width 0.1))
  (fp_line (start 3.87 2.51) (end 4.13 2.25) (layer Dwgs.User) (width 0.1))
  (pad 1 smd rect (at -3.5 -3.08) (size 0.3 0.8) (layers F.Cu F.Paste F.Mask))
  (pad 2 smd rect (at -3 -3.08) (size 0.3 0.8) (layers F.Cu F.Paste F.Mask))
  (pad 3 smd rect (at -2.5 -3.08) (size 0.3 0.8) (layers F.Cu F.Paste F.Mask))
  (pad 4 smd rect (at -2 -3.08) (size 0.3 0.8) (layers F.Cu F.Paste F.Mask))
  (pad 5 smd rect (at -1.5 -3.08) (size 0.3 0.8) (layers F.Cu F.Paste F.Mask))
  (pad 6 smd rect (at -1 -3.08) (size 0.3 0.8) (layers F.Cu F.Paste F.Mask))
  (pad 7 smd rect (at -0.5 -3.08) (size 0.3 0.8) (layers F.Cu F.Paste F.Mask))
  (pad 8 smd rect (at 0 -3.08) (size 0.3 0.8) (layers F.Cu F.Paste F.Mask))
  (pad 9 smd rect (at 0.5 -3.08) (size 0.3 0.8) (layers F.Cu F.Paste F.Mask))
  (pad 10 smd rect (at 1 -3.08) (size 0.3 0.8) (layers F.Cu F.Paste F.Mask))
  (pad 11 smd rect (at 1.5 -3.08) (size 0.3 0.8) (layers F.Cu F.Paste F.Mask))
  (pad 12 smd rect (at 2 -3.08) (size 0.3 0.8) (layers F.Cu F.Paste F.Mask))
  (pad 13 smd rect (at 2.5 -3.08) (size 0.3 0.8) (layers F.Cu F.Paste F.Mask))
  (pad 14 smd rect (at 3 -3.08) (size 0.3 0.8) (layers F.Cu F.Paste F.Mask))
  (pad 15 smd rect (at 3.5 -3.08) (size 0.3 0.8) (layers F.Cu F.Paste F.Mask))
  (pad MP smd rect (at -4.74 1.77) (size 1.22 1.4) (layers F.Cu F.Paste F.Mask))
  (pad MP smd rect (at -1.175 2.78) (size 0.85 1.4) (layers F.Cu F.Paste F.Mask))
  (pad MP smd rect (at 1.175 2.78) (size 0.85 1.4) (layers F.Cu F.Paste F.Mask))
  (pad MP smd rect (at 4.74 1.77) (size 1.22 1.4) (layers F.Cu F.Paste F.Mask))
  (model ${KICAD6_3DMODEL_DIR}/Connector_FFC-FPC.3dshapes/Molex_502244-1530_1x15-1MP_P0.5mm_Horizontal.wrl
    (at (xyz 0 0 0))
    (scale (xyz 1 1 1))
    (rotate (xyz 0 0 0))
  )
)
