(module Molex_200528-0050_1x05-1MP_P1.00mm_Horizontal (layer F.Cu) (tedit 5C60BCA5)
  (descr "Molex Molex 1.00mm Pitch Easy-On BackFlip, Right-Angle, Bottom Contact FFC/FPC, 200528-0050, 5 Circuits (https://www.molex.com/pdm_docs/sd/2005280050_sd.pdf), generated with kicad-footprint-generator")
  (tags "connector Molex  top entry")
  (attr smd)
  (fp_text reference REF** (at 0 -2.61) (layer F.SilkS)
    (effects (font (size 1 1) (thickness 0.15)))
  )
  (fp_text value Molex_200528-0050_1x05-1MP_P1.00mm_Horizontal (at 0 5.39) (layer F.Fab)
    (effects (font (size 1 1) (thickness 0.15)))
  )
  (fp_line (start 4.55 -1.06) (end 4.55 -0.71) (layer F.Fab) (width 0.1))
  (fp_line (start 4.55 -0.71) (end -4.55 -0.71) (layer F.Fab) (width 0.1))
  (fp_line (start -4.55 -0.71) (end -4.55 -1.06) (layer F.Fab) (width 0.1))
  (fp_line (start -4.55 -1.06) (end -5.1 -1.06) (layer F.Fab) (width 0.1))
  (fp_line (start -5.1 -1.06) (end -5.1 2.89) (layer F.Fab) (width 0.1))
  (fp_line (start -5.1 2.89) (end 5.1 2.89) (layer F.Fab) (width 0.1))
  (fp_line (start 5.1 2.89) (end 5.1 -1.06) (layer F.Fab) (width 0.1))
  (fp_line (start 5.1 -1.06) (end 4.55 -1.06) (layer F.Fab) (width 0.1))
  (fp_line (start -2.5 -0.71) (end -2 0.04) (layer F.Fab) (width 0.1))
  (fp_line (start -2 0.04) (end -1.5 -0.71) (layer F.Fab) (width 0.1))
  (fp_line (start 4.3 0.19) (end -4.3 0.19) (layer F.Fab) (width 0.1))
  (fp_line (start -4.3 0.19) (end -4.3 4.19) (layer F.Fab) (width 0.1))
  (fp_line (start -4.3 4.19) (end 4.3 4.19) (layer F.Fab) (width 0.1))
  (fp_line (start 4.3 4.19) (end 4.3 0.19) (layer F.Fab) (width 0.1))
  (fp_line (start -2.46 -1.41) (end -2.46 -0.82) (layer F.SilkS) (width 0.12))
  (fp_line (start -2.46 -0.82) (end -4.44 -0.82) (layer F.SilkS) (width 0.12))
  (fp_line (start -4.44 -0.82) (end -4.44 -1.17) (layer F.SilkS) (width 0.12))
  (fp_line (start -4.44 -1.17) (end -5.21 -1.17) (layer F.SilkS) (width 0.12))
  (fp_line (start -5.21 -1.17) (end -5.21 0.88) (layer F.SilkS) (width 0.12))
  (fp_line (start -5.21 2.7) (end -5.21 3) (layer F.SilkS) (width 0.12))
  (fp_line (start -5.21 3) (end -4.41 3) (layer F.SilkS) (width 0.12))
  (fp_line (start -4.41 3) (end -4.41 4.3) (layer F.SilkS) (width 0.12))
  (fp_line (start -4.41 4.3) (end 4.41 4.3) (layer F.SilkS) (width 0.12))
  (fp_line (start 4.41 4.3) (end 4.41 3) (layer F.SilkS) (width 0.12))
  (fp_line (start 4.41 3) (end 5.21 3) (layer F.SilkS) (width 0.12))
  (fp_line (start 5.21 3) (end 5.21 2.7) (layer F.SilkS) (width 0.12))
  (fp_line (start 5.21 0.88) (end 5.21 -1.17) (layer F.SilkS) (width 0.12))
  (fp_line (start 5.21 -1.17) (end 4.44 -1.17) (layer F.SilkS) (width 0.12))
  (fp_line (start 4.44 -1.17) (end 4.44 -0.82) (layer F.SilkS) (width 0.12))
  (fp_line (start 4.44 -0.82) (end 2.46 -0.82) (layer F.SilkS) (width 0.12))
  (fp_line (start -6.3 -1.91) (end -6.3 4.69) (layer F.CrtYd) (width 0.05))
  (fp_line (start -6.3 4.69) (end 6.3 4.69) (layer F.CrtYd) (width 0.05))
  (fp_line (start 6.3 4.69) (end 6.3 -1.91) (layer F.CrtYd) (width 0.05))
  (fp_line (start 6.3 -1.91) (end -6.3 -1.91) (layer F.CrtYd) (width 0.05))
  (pad MP smd rect (at -4.8 1.79) (size 2 1.3) (layers F.Cu F.Mask F.Paste))
  (pad MP smd rect (at 4.8 1.79) (size 2 1.3) (layers F.Cu F.Mask F.Paste))
  (pad 1 smd rect (at -2 -0.91) (size 0.4 1) (layers F.Cu F.Mask F.Paste))
  (pad 2 smd rect (at -1 -0.91) (size 0.4 1) (layers F.Cu F.Mask F.Paste))
  (pad 3 smd rect (at 0 -0.91) (size 0.4 1) (layers F.Cu F.Mask F.Paste))
  (pad 4 smd rect (at 1 -0.91) (size 0.4 1) (layers F.Cu F.Mask F.Paste))
  (pad 5 smd rect (at 2 -0.91) (size 0.4 1) (layers F.Cu F.Mask F.Paste))
  (fp_text user %R (at 0 1.39) (layer F.Fab)
    (effects (font (size 1 1) (thickness 0.15)))
  )
  (model ${KICAD6_3DMODEL_DIR}/Connector_FFC-FPC.3dshapes/Molex_200528-0050_1x05-1MP_P1.00mm_Horizontal.wrl
    (at (xyz 0 0 0))
    (scale (xyz 1 1 1))
    (rotate (xyz 0 0 0))
  )
)