(module Molex_502231-2400_1x24-1SH_P0.5mm_Vertical (layer F.Cu) (tedit 5D0C010B)
  (descr "Molex 0.50mm Pitch Easy-On Type FFC/FPC Connector, For LVDS, 6.05mm Height, Vertical, Surface Mount, ZIF, 24 Circuits (https://www.molex.com/pdm_docs/sd/5022312400_sd.pdf)")
  (tags "molex FFC/FPC connector Pitch 0.5mm vertical")
  (attr smd)
  (fp_text reference REF** (at 0 -3.27) (layer F.SilkS)
    (effects (font (size 1 1) (thickness 0.15)))
  )
  (fp_text value Molex_502231-2400_1x24-1SH_P0.5mm_Vertical (at 0 5.43) (layer F.Fab)
    (effects (font (size 1 1) (thickness 0.15)))
  )
  (fp_line (start -5.75 -1.02) (end -5.45 -1.42) (layer F.Fab) (width 0.1))
  (fp_line (start -6.05 -1.42) (end -5.75 -1.02) (layer F.Fab) (width 0.1))
  (fp_text user %R (at 0 0.73) (layer F.Fab)
    (effects (font (size 1 1) (thickness 0.15)))
  )
  (fp_line (start -7.65 -1.42) (end -7.65 2.88) (layer F.Fab) (width 0.1))
  (fp_line (start 7.65 -1.42) (end 7.65 2.88) (layer F.Fab) (width 0.1))
  (fp_line (start -7.65 2.88) (end 7.65 2.88) (layer F.Fab) (width 0.1))
  (fp_line (start -7.65 -1.42) (end 7.65 -1.42) (layer F.Fab) (width 0.1))
  (fp_line (start 3.71 2.99) (end 7.76 2.99) (layer F.SilkS) (width 0.12))
  (fp_line (start 7.76 2.99) (end 7.76 -1.53) (layer F.SilkS) (width 0.12))
  (fp_line (start 6.16 -1.53) (end 7.76 -1.53) (layer F.SilkS) (width 0.12))
  (fp_line (start -7.76 2.99) (end -7.76 -1.53) (layer F.SilkS) (width 0.12))
  (fp_line (start -3.71 2.99) (end -7.76 2.99) (layer F.SilkS) (width 0.12))
  (fp_line (start -6.16 -1.53) (end -7.76 -1.53) (layer F.SilkS) (width 0.12))
  (fp_line (start -1.29 2.99) (end 1.29 2.99) (layer F.SilkS) (width 0.12))
  (fp_line (start -6.16 -1.53) (end -6.16 -1.7) (layer F.SilkS) (width 0.12))
  (fp_line (start 1.05 3.38) (end 1.05 4.4) (layer F.CrtYd) (width 0.05))
  (fp_line (start 1.05 4.4) (end 3.95 4.4) (layer F.CrtYd) (width 0.05))
  (fp_line (start 3.95 3.38) (end 3.95 4.4) (layer F.CrtYd) (width 0.05))
  (fp_line (start 3.95 3.38) (end 8.15 3.38) (layer F.CrtYd) (width 0.05))
  (fp_line (start 8.15 3.38) (end 8.15 -1.92) (layer F.CrtYd) (width 0.05))
  (fp_line (start 8.15 -1.92) (end 6.4 -1.92) (layer F.CrtYd) (width 0.05))
  (fp_line (start 6.4 -1.92) (end 6.4 -2.23) (layer F.CrtYd) (width 0.05))
  (fp_line (start 6.4 -2.23) (end -6.4 -2.23) (layer F.CrtYd) (width 0.05))
  (fp_line (start -6.4 -1.92) (end -6.4 -2.23) (layer F.CrtYd) (width 0.05))
  (fp_line (start -8.15 -1.92) (end -6.4 -1.92) (layer F.CrtYd) (width 0.05))
  (fp_line (start -8.15 3.38) (end -8.15 -1.92) (layer F.CrtYd) (width 0.05))
  (fp_line (start -3.95 3.38) (end -8.15 3.38) (layer F.CrtYd) (width 0.05))
  (fp_line (start -3.95 3.38) (end -3.95 4.4) (layer F.CrtYd) (width 0.05))
  (fp_line (start -1.05 4.4) (end -3.95 4.4) (layer F.CrtYd) (width 0.05))
  (fp_line (start 1.05 3.38) (end -1.05 3.38) (layer F.CrtYd) (width 0.05))
  (fp_line (start -1.05 3.38) (end -1.05 4.4) (layer F.CrtYd) (width 0.05))
  (fp_line (start 5 -2.75) (end 7.65 -2.75) (layer Cmts.User) (width 0.1))
  (fp_text user "Lock at height 2.4mm" (at 0 -2.27) (layer Cmts.User)
    (effects (font (size 0.5 0.5) (thickness 0.06)))
  )
  (fp_line (start -5 -3.15) (end -5 -2.75) (layer Cmts.User) (width 0.1))
  (fp_line (start -5 -2.75) (end -7.65 -2.75) (layer Cmts.User) (width 0.1))
  (fp_line (start -5 -3.15) (end 5 -3.15) (layer Cmts.User) (width 0.1))
  (fp_line (start -7.65 -2.75) (end -7.65 -1.42) (layer Cmts.User) (width 0.1))
  (fp_line (start 7.65 -2.75) (end 7.65 -1.42) (layer Cmts.User) (width 0.1))
  (fp_line (start 5 -3.15) (end 5 -2.75) (layer Cmts.User) (width 0.1))
  (pad 1 smd roundrect (at -5.75 -1.045) (size 0.3 1.37) (layers F.Cu F.Paste F.Mask) (roundrect_rratio 0.25))
  (pad 2 smd roundrect (at -5.25 -1.045) (size 0.3 1.37) (layers F.Cu F.Paste F.Mask) (roundrect_rratio 0.25))
  (pad 3 smd roundrect (at -4.75 -1.045) (size 0.3 1.37) (layers F.Cu F.Paste F.Mask) (roundrect_rratio 0.25))
  (pad 4 smd roundrect (at -4.25 -1.045) (size 0.3 1.37) (layers F.Cu F.Paste F.Mask) (roundrect_rratio 0.25))
  (pad 5 smd roundrect (at -3.75 -1.045) (size 0.3 1.37) (layers F.Cu F.Paste F.Mask) (roundrect_rratio 0.25))
  (pad 6 smd roundrect (at -3.25 -1.045) (size 0.3 1.37) (layers F.Cu F.Paste F.Mask) (roundrect_rratio 0.25))
  (pad 7 smd roundrect (at -2.75 -1.045) (size 0.3 1.37) (layers F.Cu F.Paste F.Mask) (roundrect_rratio 0.25))
  (pad 8 smd roundrect (at -2.25 -1.045) (size 0.3 1.37) (layers F.Cu F.Paste F.Mask) (roundrect_rratio 0.25))
  (pad 9 smd roundrect (at -1.75 -1.045) (size 0.3 1.37) (layers F.Cu F.Paste F.Mask) (roundrect_rratio 0.25))
  (pad 10 smd roundrect (at -1.25 -1.045) (size 0.3 1.37) (layers F.Cu F.Paste F.Mask) (roundrect_rratio 0.25))
  (pad 11 smd roundrect (at -0.75 -1.045) (size 0.3 1.37) (layers F.Cu F.Paste F.Mask) (roundrect_rratio 0.25))
  (pad 12 smd roundrect (at -0.25 -1.045) (size 0.3 1.37) (layers F.Cu F.Paste F.Mask) (roundrect_rratio 0.25))
  (pad 13 smd roundrect (at 0.25 -1.045) (size 0.3 1.37) (layers F.Cu F.Paste F.Mask) (roundrect_rratio 0.25))
  (pad 14 smd roundrect (at 0.75 -1.045) (size 0.3 1.37) (layers F.Cu F.Paste F.Mask) (roundrect_rratio 0.25))
  (pad 15 smd roundrect (at 1.25 -1.045) (size 0.3 1.37) (layers F.Cu F.Paste F.Mask) (roundrect_rratio 0.25))
  (pad SH smd roundrect (at -2.5 3.025) (size 1.9 1.75) (layers F.Cu F.Paste F.Mask) (roundrect_rratio 0.143))
  (pad SH smd roundrect (at 2.5 3.025) (size 1.9 1.75) (layers F.Cu F.Paste F.Mask) (roundrect_rratio 0.143))
  (pad 16 smd roundrect (at 1.75 -1.045) (size 0.3 1.37) (layers F.Cu F.Paste F.Mask) (roundrect_rratio 0.25))
  (pad 17 smd roundrect (at 2.25 -1.045) (size 0.3 1.37) (layers F.Cu F.Paste F.Mask) (roundrect_rratio 0.25))
  (pad 18 smd roundrect (at 2.75 -1.045) (size 0.3 1.37) (layers F.Cu F.Paste F.Mask) (roundrect_rratio 0.25))
  (pad 19 smd roundrect (at 3.25 -1.045) (size 0.3 1.37) (layers F.Cu F.Paste F.Mask) (roundrect_rratio 0.25))
  (pad 20 smd roundrect (at 3.75 -1.045) (size 0.3 1.37) (layers F.Cu F.Paste F.Mask) (roundrect_rratio 0.25))
  (pad 21 smd roundrect (at 4.25 -1.045) (size 0.3 1.37) (layers F.Cu F.Paste F.Mask) (roundrect_rratio 0.25))
  (pad 22 smd roundrect (at 4.75 -1.045) (size 0.3 1.37) (layers F.Cu F.Paste F.Mask) (roundrect_rratio 0.25))
  (pad 23 smd roundrect (at 5.25 -1.045) (size 0.3 1.37) (layers F.Cu F.Paste F.Mask) (roundrect_rratio 0.25))
  (pad 24 smd roundrect (at 5.75 -1.045) (size 0.3 1.37) (layers F.Cu F.Paste F.Mask) (roundrect_rratio 0.25))
  (model ${KICAD6_3DMODEL_DIR}/Connector_FFC-FPC.3dshapes/Molex_502231-2400_1x24-1SH_P0.5mm_Vertical.wrl
    (at (xyz 0 0 0))
    (scale (xyz 1 1 1))
    (rotate (xyz 0 0 0))
  )
)
