(module Molex_502250-2791_2Rows-27Pins-1MP_P0.60mm_Horizontal (layer F.Cu) (tedit 5AEE11BF)
  (descr "Molex Molex 0.30mm Pitch Easy-On BackFlip Type FFC/FPC, 502250-2791, 27 Circuits (http://www.molex.com/pdm_docs/sd/5022502791_sd.pdf), generated with kicad-footprint-generator")
  (tags "connector Molex  top entry")
  (attr smd)
  (fp_text reference REF** (at -0.07 -6.22) (layer F.SilkS)
    (effects (font (size 1 1) (thickness 0.15)))
  )
  (fp_text value Molex_502250-2791_2Rows-27Pins-1MP_P0.60mm_Horizontal (at -0.07 6.22) (layer F.Fab)
    (effects (font (size 1 1) (thickness 0.15)))
  )
  (fp_line (start -1.71 0) (end -1.71 4.95) (layer F.Fab) (width 0.1))
  (fp_line (start -1.71 4.95) (end -1.275 4.95) (layer F.Fab) (width 0.1))
  (fp_line (start -1.275 4.95) (end -1.275 4.65) (layer F.Fab) (width 0.1))
  (fp_line (start -1.275 4.65) (end -0.875 4.65) (layer F.Fab) (width 0.1))
  (fp_line (start -0.875 4.65) (end -0.875 4.95) (layer F.Fab) (width 0.1))
  (fp_line (start -0.875 4.95) (end 1.82 4.95) (layer F.Fab) (width 0.1))
  (fp_line (start 1.82 4.95) (end 1.82 4.65) (layer F.Fab) (width 0.1))
  (fp_line (start 1.82 4.65) (end 1.57 4.65) (layer F.Fab) (width 0.1))
  (fp_line (start 1.57 4.65) (end 1.57 0) (layer F.Fab) (width 0.1))
  (fp_line (start -1.71 0) (end -1.71 -4.95) (layer F.Fab) (width 0.1))
  (fp_line (start -1.71 -4.95) (end -1.275 -4.95) (layer F.Fab) (width 0.1))
  (fp_line (start -1.275 -4.95) (end -1.275 -4.65) (layer F.Fab) (width 0.1))
  (fp_line (start -1.275 -4.65) (end -0.875 -4.65) (layer F.Fab) (width 0.1))
  (fp_line (start -0.875 -4.65) (end -0.875 -4.95) (layer F.Fab) (width 0.1))
  (fp_line (start -0.875 -4.95) (end 1.82 -4.95) (layer F.Fab) (width 0.1))
  (fp_line (start 1.82 -4.95) (end 1.82 -4.65) (layer F.Fab) (width 0.1))
  (fp_line (start 1.82 -4.65) (end 1.57 -4.65) (layer F.Fab) (width 0.1))
  (fp_line (start 1.57 -4.65) (end 1.57 0) (layer F.Fab) (width 0.1))
  (fp_line (start 1.57 -4.14) (end 2.48 -4.14) (layer F.Fab) (width 0.1))
  (fp_line (start 2.48 -4.14) (end 2.48 4.14) (layer F.Fab) (width 0.1))
  (fp_line (start 2.48 4.14) (end 1.57 4.14) (layer F.Fab) (width 0.1))
  (fp_line (start -1.82 4.56) (end -1.82 5.06) (layer F.SilkS) (width 0.12))
  (fp_line (start -1.82 5.06) (end 1.93 5.06) (layer F.SilkS) (width 0.12))
  (fp_line (start 1.93 5.06) (end 1.93 4.54) (layer F.SilkS) (width 0.12))
  (fp_line (start 1.93 4.54) (end 1.68 4.54) (layer F.SilkS) (width 0.12))
  (fp_line (start 1.68 4.54) (end 1.68 4.25) (layer F.SilkS) (width 0.12))
  (fp_line (start 1.68 4.25) (end 2.59 4.25) (layer F.SilkS) (width 0.12))
  (fp_line (start 2.59 4.25) (end 2.59 0) (layer F.SilkS) (width 0.12))
  (fp_line (start -1.82 -4.56) (end -1.82 -5.06) (layer F.SilkS) (width 0.12))
  (fp_line (start -1.82 -5.06) (end 1.93 -5.06) (layer F.SilkS) (width 0.12))
  (fp_line (start 1.93 -5.06) (end 1.93 -4.54) (layer F.SilkS) (width 0.12))
  (fp_line (start 1.93 -4.54) (end 1.68 -4.54) (layer F.SilkS) (width 0.12))
  (fp_line (start 1.68 -4.54) (end 1.68 -4.25) (layer F.SilkS) (width 0.12))
  (fp_line (start 1.68 -4.25) (end 2.59 -4.25) (layer F.SilkS) (width 0.12))
  (fp_line (start 2.59 -4.25) (end 2.59 0) (layer F.SilkS) (width 0.12))
  (fp_line (start -2.272132 -4.05) (end -2.06 -3.9) (layer F.SilkS) (width 0.12))
  (fp_line (start -2.06 -3.9) (end -2.272132 -3.75) (layer F.SilkS) (width 0.12))
  (fp_line (start -2.272132 -3.75) (end -2.272132 -4.05) (layer F.SilkS) (width 0.12))
  (fp_line (start -1.71 -4.2) (end -1.285736 -3.9) (layer F.Fab) (width 0.1))
  (fp_line (start -1.285736 -3.9) (end -1.71 -3.6) (layer F.Fab) (width 0.1))
  (fp_line (start -2.3 -5.52) (end -2.3 5.52) (layer F.CrtYd) (width 0.05))
  (fp_line (start -2.3 5.52) (end 2.98 5.52) (layer F.CrtYd) (width 0.05))
  (fp_line (start 2.98 5.52) (end 2.98 -5.52) (layer F.CrtYd) (width 0.05))
  (fp_line (start 2.98 -5.52) (end -2.3 -5.52) (layer F.CrtYd) (width 0.05))
  (pad 1 smd rect (at -1.4 -3.9) (size 0.8 0.26) (layers F.Cu F.Mask F.Paste))
  (pad 3 smd rect (at -1.4 -3.3) (size 0.8 0.26) (layers F.Cu F.Mask F.Paste))
  (pad 5 smd rect (at -1.4 -2.7) (size 0.8 0.26) (layers F.Cu F.Mask F.Paste))
  (pad 7 smd rect (at -1.4 -2.1) (size 0.8 0.26) (layers F.Cu F.Mask F.Paste))
  (pad 9 smd rect (at -1.4 -1.5) (size 0.8 0.26) (layers F.Cu F.Mask F.Paste))
  (pad 11 smd rect (at -1.4 -0.9) (size 0.8 0.26) (layers F.Cu F.Mask F.Paste))
  (pad 13 smd rect (at -1.4 -0.3) (size 0.8 0.26) (layers F.Cu F.Mask F.Paste))
  (pad 15 smd rect (at -1.4 0.3) (size 0.8 0.26) (layers F.Cu F.Mask F.Paste))
  (pad 17 smd rect (at -1.4 0.9) (size 0.8 0.26) (layers F.Cu F.Mask F.Paste))
  (pad 19 smd rect (at -1.4 1.5) (size 0.8 0.26) (layers F.Cu F.Mask F.Paste))
  (pad 21 smd rect (at -1.4 2.1) (size 0.8 0.26) (layers F.Cu F.Mask F.Paste))
  (pad 23 smd rect (at -1.4 2.7) (size 0.8 0.26) (layers F.Cu F.Mask F.Paste))
  (pad 25 smd rect (at -1.4 3.3) (size 0.8 0.26) (layers F.Cu F.Mask F.Paste))
  (pad 27 smd rect (at -1.4 3.9) (size 0.8 0.26) (layers F.Cu F.Mask F.Paste))
  (pad 2 smd rect (at 1.475 -3.6) (size 0.65 0.3) (layers F.Cu F.Mask F.Paste))
  (pad 4 smd rect (at 1.475 -3) (size 0.65 0.3) (layers F.Cu F.Mask F.Paste))
  (pad 6 smd rect (at 1.475 -2.4) (size 0.65 0.3) (layers F.Cu F.Mask F.Paste))
  (pad 8 smd rect (at 1.475 -1.8) (size 0.65 0.3) (layers F.Cu F.Mask F.Paste))
  (pad 10 smd rect (at 1.475 -1.2) (size 0.65 0.3) (layers F.Cu F.Mask F.Paste))
  (pad 12 smd rect (at 1.475 -0.6) (size 0.65 0.3) (layers F.Cu F.Mask F.Paste))
  (pad 14 smd rect (at 1.475 0) (size 0.65 0.3) (layers F.Cu F.Mask F.Paste))
  (pad 16 smd rect (at 1.475 0.6) (size 0.65 0.3) (layers F.Cu F.Mask F.Paste))
  (pad 18 smd rect (at 1.475 1.2) (size 0.65 0.3) (layers F.Cu F.Mask F.Paste))
  (pad 20 smd rect (at 1.475 1.8) (size 0.65 0.3) (layers F.Cu F.Mask F.Paste))
  (pad 22 smd rect (at 1.475 2.4) (size 0.65 0.3) (layers F.Cu F.Mask F.Paste))
  (pad 24 smd rect (at 1.475 3) (size 0.65 0.3) (layers F.Cu F.Mask F.Paste))
  (pad 26 smd rect (at 1.475 3.6) (size 0.65 0.3) (layers F.Cu F.Mask F.Paste))
  (pad MP smd rect (at -1.075 -4.6) (size 0.85 0.4) (layers F.Cu F.Mask F.Paste))
  (pad MP smd rect (at -1.075 4.6) (size 0.85 0.4) (layers F.Cu F.Mask F.Paste))
  (fp_text user %R (at 0.96 0 90) (layer F.Fab)
    (effects (font (size 0.82 0.82) (thickness 0.12)))
  )
  (model ${KICAD6_3DMODEL_DIR}/Connector_FFC-FPC.3dshapes/Molex_502250-2791_2Rows-27Pins-1MP_P0.60mm_Horizontal.wrl
    (at (xyz 0 0 0))
    (scale (xyz 1 1 1))
    (rotate (xyz 0 0 0))
  )
)