(module Molex_502244-2430_1x24-1MP_P0.5mm_Horizontal (layer F.Cu) (tedit 5A1B5AEB)
  (descr "Molex 0.50mm Pitch Easy-On Type FFC/FPC Connector, For LVDS, 2.33mm Height, Right Angle, Surface Mount, ZIF, Bottom Contact Style, 24 Circuits (http://www.molex.com/pdm_docs/sd/5022441530_sd.pdf)")
  (tags "molex FFC/FPC connector Pitch 0.5mm right angle")
  (attr smd)
  (fp_text reference REF** (at 0 -4.7) (layer F.SilkS)
    (effects (font (size 1 1) (thickness 0.15)))
  )
  (fp_text value Molex_502244-2430_1x24-1MP_P0.5mm_Horizontal (at 0 4.7) (layer F.Fab)
    (effects (font (size 1 1) (thickness 0.15)))
  )
  (fp_line (start -5.75 -2.31) (end -5.45 -2.71) (layer F.Fab) (width 0.1))
  (fp_line (start -6.05 -2.71) (end -5.75 -2.31) (layer F.Fab) (width 0.1))
  (fp_line (start -6.15 -2.76) (end -6.15 -3.45) (layer F.SilkS) (width 0.12))
  (fp_text user KEEPOUT (at 0 1.271) (layer Cmts.User)
    (effects (font (size 1 1) (thickness 0.1)))
  )
  (fp_text user %R (at 0 -1) (layer F.Fab)
    (effects (font (size 1 1) (thickness 0.15)))
  )
  (fp_line (start -0.5 2.45) (end 0.5 2.45) (layer F.SilkS) (width 0.12))
  (fp_line (start -6.34 -2.76) (end -6.34 -2.96) (layer F.SilkS) (width 0.12))
  (fp_line (start 6.34 -2.76) (end 6.15 -2.76) (layer F.SilkS) (width 0.12))
  (fp_line (start 6.34 -2.96) (end 6.34 -2.76) (layer F.SilkS) (width 0.12))
  (fp_line (start -6.34 -2.76) (end -6.15 -2.76) (layer F.SilkS) (width 0.12))
  (fp_line (start 7.36 -2.96) (end 7.36 0.7) (layer F.SilkS) (width 0.12))
  (fp_line (start 6.35 -2.96) (end 7.36 -2.96) (layer F.SilkS) (width 0.12))
  (fp_line (start -7.36 -2.96) (end -6.35 -2.96) (layer F.SilkS) (width 0.12))
  (fp_line (start -7.36 0.7) (end -7.36 -2.96) (layer F.SilkS) (width 0.12))
  (fp_line (start -6.05 2.45) (end -1.9 2.45) (layer F.SilkS) (width 0.12))
  (fp_line (start 1.9 2.45) (end 6.05 2.45) (layer F.SilkS) (width 0.12))
  (fp_line (start -8.1 4) (end -8.1 -4) (layer F.CrtYd) (width 0.05))
  (fp_line (start 8.1 4) (end -8.1 4) (layer F.CrtYd) (width 0.05))
  (fp_line (start 8.1 -4) (end 8.1 4) (layer F.CrtYd) (width 0.05))
  (fp_line (start -8.1 -4) (end 8.1 -4) (layer F.CrtYd) (width 0.05))
  (fp_line (start -6.38 2.51) (end -6.38 -0.04) (layer Dwgs.User) (width 0.1))
  (fp_line (start 6.38 2.51) (end -6.38 2.51) (layer Dwgs.User) (width 0.1))
  (fp_line (start 6.38 -0.04) (end 6.38 2.51) (layer Dwgs.User) (width 0.1))
  (fp_line (start -6.38 -0.04) (end 6.38 -0.04) (layer Dwgs.User) (width 0.1))
  (fp_line (start -2.13 2.51) (end 0.42 -0.04) (layer Dwgs.User) (width 0.1))
  (fp_line (start -1.13 2.51) (end 1.42 -0.04) (layer Dwgs.User) (width 0.1))
  (fp_line (start -0.13 2.51) (end 2.42 -0.04) (layer Dwgs.User) (width 0.1))
  (fp_line (start 0.87 2.51) (end 3.42 -0.04) (layer Dwgs.User) (width 0.1))
  (fp_line (start -6.4 -2.91) (end -7.3 -2.91) (layer F.Fab) (width 0.1))
  (fp_line (start -6.4 -2.71) (end -6.4 -2.91) (layer F.Fab) (width 0.1))
  (fp_line (start 6.4 -2.91) (end 6.4 -2.71) (layer F.Fab) (width 0.1))
  (fp_line (start 7.3 -2.91) (end 6.4 -2.91) (layer F.Fab) (width 0.1))
  (fp_line (start 7.3 -2.91) (end 7.3 2.39) (layer F.Fab) (width 0.1))
  (fp_line (start -7.3 -2.91) (end -7.3 2.39) (layer F.Fab) (width 0.1))
  (fp_line (start -7.3 2.39) (end 7.3 2.39) (layer F.Fab) (width 0.1))
  (fp_line (start 6.4 -2.71) (end -6.4 -2.71) (layer F.Fab) (width 0.1))
  (fp_line (start -4.13 2.51) (end -1.58 -0.04) (layer Dwgs.User) (width 0.1))
  (fp_line (start -5.13 2.51) (end -2.58 -0.04) (layer Dwgs.User) (width 0.1))
  (fp_line (start -6.13 2.51) (end -3.58 -0.04) (layer Dwgs.User) (width 0.1))
  (fp_line (start -3.13 2.51) (end -0.58 -0.04) (layer Dwgs.User) (width 0.1))
  (fp_line (start 1.87 2.51) (end 4.42 -0.04) (layer Dwgs.User) (width 0.1))
  (fp_line (start 2.87 2.51) (end 5.42 -0.04) (layer Dwgs.User) (width 0.1))
  (fp_line (start 3.87 2.51) (end 6.38 0) (layer Dwgs.User) (width 0.1))
  (fp_line (start 4.87 2.51) (end 6.38 1) (layer Dwgs.User) (width 0.1))
  (fp_line (start 5.87 2.51) (end 6.38 2) (layer Dwgs.User) (width 0.1))
  (fp_line (start -6.38 1.76) (end -4.58 -0.04) (layer Dwgs.User) (width 0.1))
  (fp_line (start -6.38 0.76) (end -5.58 -0.04) (layer Dwgs.User) (width 0.1))
  (pad 1 smd rect (at -5.75 -3.08) (size 0.3 0.8) (layers F.Cu F.Paste F.Mask))
  (pad 2 smd rect (at -5.25 -3.08) (size 0.3 0.8) (layers F.Cu F.Paste F.Mask))
  (pad 3 smd rect (at -4.75 -3.08) (size 0.3 0.8) (layers F.Cu F.Paste F.Mask))
  (pad 4 smd rect (at -4.25 -3.08) (size 0.3 0.8) (layers F.Cu F.Paste F.Mask))
  (pad 5 smd rect (at -3.75 -3.08) (size 0.3 0.8) (layers F.Cu F.Paste F.Mask))
  (pad 6 smd rect (at -3.25 -3.08) (size 0.3 0.8) (layers F.Cu F.Paste F.Mask))
  (pad 7 smd rect (at -2.75 -3.08) (size 0.3 0.8) (layers F.Cu F.Paste F.Mask))
  (pad 8 smd rect (at -2.25 -3.08) (size 0.3 0.8) (layers F.Cu F.Paste F.Mask))
  (pad 9 smd rect (at -1.75 -3.08) (size 0.3 0.8) (layers F.Cu F.Paste F.Mask))
  (pad 10 smd rect (at -1.25 -3.08) (size 0.3 0.8) (layers F.Cu F.Paste F.Mask))
  (pad 11 smd rect (at -0.75 -3.08) (size 0.3 0.8) (layers F.Cu F.Paste F.Mask))
  (pad 12 smd rect (at -0.25 -3.08) (size 0.3 0.8) (layers F.Cu F.Paste F.Mask))
  (pad 13 smd rect (at 0.25 -3.08) (size 0.3 0.8) (layers F.Cu F.Paste F.Mask))
  (pad 14 smd rect (at 0.75 -3.08) (size 0.3 0.8) (layers F.Cu F.Paste F.Mask))
  (pad 15 smd rect (at 1.25 -3.08) (size 0.3 0.8) (layers F.Cu F.Paste F.Mask))
  (pad MP smd rect (at -6.99 1.77) (size 1.22 1.4) (layers F.Cu F.Paste F.Mask))
  (pad MP smd rect (at -1.175 2.78) (size 0.85 1.4) (layers F.Cu F.Paste F.Mask))
  (pad MP smd rect (at 1.175 2.78) (size 0.85 1.4) (layers F.Cu F.Paste F.Mask))
  (pad MP smd rect (at 6.99 1.77) (size 1.22 1.4) (layers F.Cu F.Paste F.Mask))
  (pad 17 smd rect (at 2.25 -3.08) (size 0.3 0.8) (layers F.Cu F.Paste F.Mask))
  (pad 18 smd rect (at 2.75 -3.08) (size 0.3 0.8) (layers F.Cu F.Paste F.Mask))
  (pad 19 smd rect (at 3.25 -3.08) (size 0.3 0.8) (layers F.Cu F.Paste F.Mask))
  (pad 20 smd rect (at 3.75 -3.08) (size 0.3 0.8) (layers F.Cu F.Paste F.Mask))
  (pad 21 smd rect (at 4.25 -3.08) (size 0.3 0.8) (layers F.Cu F.Paste F.Mask))
  (pad 22 smd rect (at 4.75 -3.08) (size 0.3 0.8) (layers F.Cu F.Paste F.Mask))
  (pad 23 smd rect (at 5.25 -3.08) (size 0.3 0.8) (layers F.Cu F.Paste F.Mask))
  (pad 24 smd rect (at 5.75 -3.08) (size 0.3 0.8) (layers F.Cu F.Paste F.Mask))
  (pad 16 smd rect (at 1.75 -3.08) (size 0.3 0.8) (layers F.Cu F.Paste F.Mask))
  (model ${KICAD6_3DMODEL_DIR}/Connector_FFC-FPC.3dshapes/Molex_502244-2430_1x24-1MP_P0.5mm_Horizontal.wrl
    (at (xyz 0 0 0))
    (scale (xyz 1 1 1))
    (rotate (xyz 0 0 0))
  )
)
