(module Molex_502250-2191_2Rows-21Pins-1MP_P0.60mm_Horizontal (layer F.Cu) (tedit 5AEE11BF)
  (descr "Molex Molex 0.30mm Pitch Easy-On BackFlip Type FFC/FPC, 502250-2191, 21 Circuits (http://www.molex.com/pdm_docs/sd/5022502191_sd.pdf), generated with kicad-footprint-generator")
  (tags "connector Molex  top entry")
  (attr smd)
  (fp_text reference REF** (at -0.07 -5.32) (layer F.SilkS)
    (effects (font (size 1 1) (thickness 0.15)))
  )
  (fp_text value Molex_502250-2191_2Rows-21Pins-1MP_P0.60mm_Horizontal (at -0.07 5.32) (layer F.Fab)
    (effects (font (size 1 1) (thickness 0.15)))
  )
  (fp_line (start -1.71 0) (end -1.71 4.05) (layer F.Fab) (width 0.1))
  (fp_line (start -1.71 4.05) (end -1.275 4.05) (layer F.Fab) (width 0.1))
  (fp_line (start -1.275 4.05) (end -1.275 3.75) (layer F.Fab) (width 0.1))
  (fp_line (start -1.275 3.75) (end -0.875 3.75) (layer F.Fab) (width 0.1))
  (fp_line (start -0.875 3.75) (end -0.875 4.05) (layer F.Fab) (width 0.1))
  (fp_line (start -0.875 4.05) (end 1.82 4.05) (layer F.Fab) (width 0.1))
  (fp_line (start 1.82 4.05) (end 1.82 3.75) (layer F.Fab) (width 0.1))
  (fp_line (start 1.82 3.75) (end 1.57 3.75) (layer F.Fab) (width 0.1))
  (fp_line (start 1.57 3.75) (end 1.57 0) (layer F.Fab) (width 0.1))
  (fp_line (start -1.71 0) (end -1.71 -4.05) (layer F.Fab) (width 0.1))
  (fp_line (start -1.71 -4.05) (end -1.275 -4.05) (layer F.Fab) (width 0.1))
  (fp_line (start -1.275 -4.05) (end -1.275 -3.75) (layer F.Fab) (width 0.1))
  (fp_line (start -1.275 -3.75) (end -0.875 -3.75) (layer F.Fab) (width 0.1))
  (fp_line (start -0.875 -3.75) (end -0.875 -4.05) (layer F.Fab) (width 0.1))
  (fp_line (start -0.875 -4.05) (end 1.82 -4.05) (layer F.Fab) (width 0.1))
  (fp_line (start 1.82 -4.05) (end 1.82 -3.75) (layer F.Fab) (width 0.1))
  (fp_line (start 1.82 -3.75) (end 1.57 -3.75) (layer F.Fab) (width 0.1))
  (fp_line (start 1.57 -3.75) (end 1.57 0) (layer F.Fab) (width 0.1))
  (fp_line (start 1.57 -3.24) (end 2.48 -3.24) (layer F.Fab) (width 0.1))
  (fp_line (start 2.48 -3.24) (end 2.48 3.24) (layer F.Fab) (width 0.1))
  (fp_line (start 2.48 3.24) (end 1.57 3.24) (layer F.Fab) (width 0.1))
  (fp_line (start -1.82 3.66) (end -1.82 4.16) (layer F.SilkS) (width 0.12))
  (fp_line (start -1.82 4.16) (end 1.93 4.16) (layer F.SilkS) (width 0.12))
  (fp_line (start 1.93 4.16) (end 1.93 3.64) (layer F.SilkS) (width 0.12))
  (fp_line (start 1.93 3.64) (end 1.68 3.64) (layer F.SilkS) (width 0.12))
  (fp_line (start 1.68 3.64) (end 1.68 3.35) (layer F.SilkS) (width 0.12))
  (fp_line (start 1.68 3.35) (end 2.59 3.35) (layer F.SilkS) (width 0.12))
  (fp_line (start 2.59 3.35) (end 2.59 0) (layer F.SilkS) (width 0.12))
  (fp_line (start -1.82 -3.66) (end -1.82 -4.16) (layer F.SilkS) (width 0.12))
  (fp_line (start -1.82 -4.16) (end 1.93 -4.16) (layer F.SilkS) (width 0.12))
  (fp_line (start 1.93 -4.16) (end 1.93 -3.64) (layer F.SilkS) (width 0.12))
  (fp_line (start 1.93 -3.64) (end 1.68 -3.64) (layer F.SilkS) (width 0.12))
  (fp_line (start 1.68 -3.64) (end 1.68 -3.35) (layer F.SilkS) (width 0.12))
  (fp_line (start 1.68 -3.35) (end 2.59 -3.35) (layer F.SilkS) (width 0.12))
  (fp_line (start 2.59 -3.35) (end 2.59 0) (layer F.SilkS) (width 0.12))
  (fp_line (start -2.272132 -3.15) (end -2.06 -3) (layer F.SilkS) (width 0.12))
  (fp_line (start -2.06 -3) (end -2.272132 -2.85) (layer F.SilkS) (width 0.12))
  (fp_line (start -2.272132 -2.85) (end -2.272132 -3.15) (layer F.SilkS) (width 0.12))
  (fp_line (start -1.71 -3.3) (end -1.285736 -3) (layer F.Fab) (width 0.1))
  (fp_line (start -1.285736 -3) (end -1.71 -2.7) (layer F.Fab) (width 0.1))
  (fp_line (start -2.3 -4.62) (end -2.3 4.62) (layer F.CrtYd) (width 0.05))
  (fp_line (start -2.3 4.62) (end 2.98 4.62) (layer F.CrtYd) (width 0.05))
  (fp_line (start 2.98 4.62) (end 2.98 -4.62) (layer F.CrtYd) (width 0.05))
  (fp_line (start 2.98 -4.62) (end -2.3 -4.62) (layer F.CrtYd) (width 0.05))
  (pad 1 smd rect (at -1.4 -3) (size 0.8 0.26) (layers F.Cu F.Mask F.Paste))
  (pad 3 smd rect (at -1.4 -2.4) (size 0.8 0.26) (layers F.Cu F.Mask F.Paste))
  (pad 5 smd rect (at -1.4 -1.8) (size 0.8 0.26) (layers F.Cu F.Mask F.Paste))
  (pad 7 smd rect (at -1.4 -1.2) (size 0.8 0.26) (layers F.Cu F.Mask F.Paste))
  (pad 9 smd rect (at -1.4 -0.6) (size 0.8 0.26) (layers F.Cu F.Mask F.Paste))
  (pad 11 smd rect (at -1.4 0) (size 0.8 0.26) (layers F.Cu F.Mask F.Paste))
  (pad 13 smd rect (at -1.4 0.6) (size 0.8 0.26) (layers F.Cu F.Mask F.Paste))
  (pad 15 smd rect (at -1.4 1.2) (size 0.8 0.26) (layers F.Cu F.Mask F.Paste))
  (pad 17 smd rect (at -1.4 1.8) (size 0.8 0.26) (layers F.Cu F.Mask F.Paste))
  (pad 19 smd rect (at -1.4 2.4) (size 0.8 0.26) (layers F.Cu F.Mask F.Paste))
  (pad 21 smd rect (at -1.4 3) (size 0.8 0.26) (layers F.Cu F.Mask F.Paste))
  (pad 2 smd rect (at 1.475 -2.7) (size 0.65 0.3) (layers F.Cu F.Mask F.Paste))
  (pad 4 smd rect (at 1.475 -2.1) (size 0.65 0.3) (layers F.Cu F.Mask F.Paste))
  (pad 6 smd rect (at 1.475 -1.5) (size 0.65 0.3) (layers F.Cu F.Mask F.Paste))
  (pad 8 smd rect (at 1.475 -0.9) (size 0.65 0.3) (layers F.Cu F.Mask F.Paste))
  (pad 10 smd rect (at 1.475 -0.3) (size 0.65 0.3) (layers F.Cu F.Mask F.Paste))
  (pad 12 smd rect (at 1.475 0.3) (size 0.65 0.3) (layers F.Cu F.Mask F.Paste))
  (pad 14 smd rect (at 1.475 0.9) (size 0.65 0.3) (layers F.Cu F.Mask F.Paste))
  (pad 16 smd rect (at 1.475 1.5) (size 0.65 0.3) (layers F.Cu F.Mask F.Paste))
  (pad 18 smd rect (at 1.475 2.1) (size 0.65 0.3) (layers F.Cu F.Mask F.Paste))
  (pad 20 smd rect (at 1.475 2.7) (size 0.65 0.3) (layers F.Cu F.Mask F.Paste))
  (pad MP smd rect (at -1.075 -3.7) (size 0.85 0.4) (layers F.Cu F.Mask F.Paste))
  (pad MP smd rect (at -1.075 3.7) (size 0.85 0.4) (layers F.Cu F.Mask F.Paste))
  (fp_text user %R (at 0.96 0 90) (layer F.Fab)
    (effects (font (size 0.82 0.82) (thickness 0.12)))
  )
  (model ${KICAD6_3DMODEL_DIR}/Connector_FFC-FPC.3dshapes/Molex_502250-2191_2Rows-21Pins-1MP_P0.60mm_Horizontal.wrl
    (at (xyz 0 0 0))
    (scale (xyz 1 1 1))
    (rotate (xyz 0 0 0))
  )
)