(module TE_0-1734839-8_1x08-1MP_P0.5mm_Horizontal (layer F.Cu) (tedit 5DB5C65C)
  (descr "TE FPC connector, 08 top-side contacts, 0.5mm pitch, SMT, https://www.te.com/commerce/DocumentDelivery/DDEController?Action=showdoc&DocId=Customer+Drawing%7F1734839%7FC%7Fpdf%7FEnglish%7FENG_CD_1734839_C_C_1734839.pdf%7F4-1734839-0")
  (tags "te fpc 1734839")
  (attr smd)
  (fp_text reference REF** (at 0 -3.1) (layer F.SilkS)
    (effects (font (size 1 1) (thickness 0.15)))
  )
  (fp_text value TE_0-1734839-8_1x08-1MP_P0.5mm_Horizontal (at 0 4.95) (layer F.Fab)
    (effects (font (size 1 1) (thickness 0.15)))
  )
  (fp_text value "PCB Edge" (at 0 3.25) (layer Dwgs.User)
    (effects (font (size 0.5 0.5) (thickness 0.08)))
  )
  (fp_line (start -4.06 -0.65) (end 4.06 -0.65) (layer F.Fab) (width 0.1))
  (fp_line (start 4.06 -0.65) (end 4.06 2.15) (layer F.Fab) (width 0.1))
  (fp_line (start 4.06 2.15) (end 4.715 2.15) (layer F.Fab) (width 0.1))
  (fp_line (start 4.715 2.15) (end 4.715 3.75) (layer F.Fab) (width 0.1))
  (fp_line (start 4.715 3.75) (end -4.715 3.75) (layer F.Fab) (width 0.1))
  (fp_line (start -4.715 3.75) (end -4.715 2.15) (layer F.Fab) (width 0.1))
  (fp_line (start -4.715 2.15) (end -4.06 2.15) (layer F.Fab) (width 0.1))
  (fp_line (start -4.06 2.15) (end -4.06 -0.65) (layer F.Fab) (width 0.1))
  (fp_line (start -2.15 -0.65) (end -1.75 0.15) (layer F.Fab) (width 0.1))
  (fp_line (start -1.75 0.15) (end -1.35 -0.65) (layer F.Fab) (width 0.1))
  (fp_line (start -4.715 2.04) (end -4.825 2.04) (layer F.SilkS) (width 0.12))
  (fp_line (start -4.825 2.04) (end -4.825 2.64) (layer F.SilkS) (width 0.12))
  (fp_line (start 4.715 2.04) (end 4.825 2.04) (layer F.SilkS) (width 0.12))
  (fp_line (start 4.825 2.04) (end 4.825 2.64) (layer F.SilkS) (width 0.12))
  (fp_line (start -1.95 -0.55) (end -1.75 -0.15) (layer F.SilkS) (width 0.12))
  (fp_line (start -1.75 -0.15) (end -1.55 -0.55) (layer F.SilkS) (width 0.12))
  (fp_line (start -1.55 -0.55) (end -1.95 -0.55) (layer F.SilkS) (width 0.12))
  (fp_line (start 4.605 2.75) (end -4.605 2.75) (layer Dwgs.User) (width 0.1))
  (fp_line (start -5.22 -2.4) (end -5.22 4.25) (layer F.CrtYd) (width 0.05))
  (fp_line (start -5.22 4.25) (end 5.22 4.25) (layer F.CrtYd) (width 0.05))
  (fp_line (start 5.22 4.25) (end 5.22 -2.4) (layer F.CrtYd) (width 0.05))
  (fp_line (start 5.22 -2.4) (end -5.22 -2.4) (layer F.CrtYd) (width 0.05))
  (pad 1 smd rect (at -1.75 -1.35) (size 0.3 1.1) (layers F.Cu F.Mask F.Paste))
  (pad 2 smd rect (at -1.25 -1.35) (size 0.3 1.1) (layers F.Cu F.Mask F.Paste))
  (pad 3 smd rect (at -0.75 -1.35) (size 0.3 1.1) (layers F.Cu F.Mask F.Paste))
  (pad 4 smd rect (at -0.25 -1.35) (size 0.3 1.1) (layers F.Cu F.Mask F.Paste))
  (pad 5 smd rect (at 0.25 -1.35) (size 0.3 1.1) (layers F.Cu F.Mask F.Paste))
  (pad 6 smd rect (at 0.75 -1.35) (size 0.3 1.1) (layers F.Cu F.Mask F.Paste))
  (pad 7 smd rect (at 1.25 -1.35) (size 0.3 1.1) (layers F.Cu F.Mask F.Paste))
  (pad 8 smd rect (at 1.75 -1.35) (size 0.3 1.1) (layers F.Cu F.Mask F.Paste))
  (pad MP smd rect (at -3.42 0.35) (size 2.3 3.1) (layers F.Cu F.Mask F.Paste))
  (pad MP smd rect (at 3.42 0.35) (size 2.3 3.1) (layers F.Cu F.Mask F.Paste))
  (fp_text user %R (at 0 1.55) (layer F.Fab)
    (effects (font (size 1 1) (thickness 0.15)))
  )
  (model ${KICAD6_3DMODEL_DIR}/Connector_FFC-FPC.3dshapes/TE_0-1734839-8_1x08-1MP_P0.5mm_Horizontal.wrl
    (at (xyz 0 0 0))
    (scale (xyz 1 1 1))
    (rotate (xyz 0 0 0))
  )
)