(module TE_1-84953-7_1x17-1MP_P1.0mm_Horizontal (layer F.Cu) (tedit 5AEE14E3)
  (descr "TE FPC connector, 17 top-side contacts, 1.0mm pitch, 1.0mm height, SMT, http://www.te.com/commerce/DocumentDelivery/DDEController?Action=srchrtrv&DocNm=84953&DocType=Customer+Drawing&DocLang=English&DocFormat=pdf&PartCntxt=84953-4")
  (tags "te fpc 84953")
  (attr smd)
  (fp_text reference REF** (at 0 -4) (layer F.SilkS)
    (effects (font (size 1 1) (thickness 0.15)))
  )
  (fp_text value TE_1-84953-7_1x17-1MP_P1.0mm_Horizontal (at 0 7.7) (layer F.Fab)
    (effects (font (size 1 1) (thickness 0.15)))
  )
  (fp_line (start -11.435 -0.8) (end 11.435 -0.8) (layer F.Fab) (width 0.1))
  (fp_line (start 11.435 -0.8) (end 11.435 3.71) (layer F.Fab) (width 0.1))
  (fp_line (start 11.435 3.71) (end 12.46 3.71) (layer F.Fab) (width 0.1))
  (fp_line (start 12.46 3.71) (end 12.46 4.6) (layer F.Fab) (width 0.1))
  (fp_line (start 12.46 4.6) (end -12.46 4.6) (layer F.Fab) (width 0.1))
  (fp_line (start -12.46 4.6) (end -12.46 3.71) (layer F.Fab) (width 0.1))
  (fp_line (start -12.46 3.71) (end -11.435 3.71) (layer F.Fab) (width 0.1))
  (fp_line (start -11.435 3.71) (end -11.435 -0.8) (layer F.Fab) (width 0.1))
  (fp_line (start -8.5 -0.8) (end -8 0.2) (layer F.Fab) (width 0.1))
  (fp_line (start -8 0.2) (end -7.5 -0.8) (layer F.Fab) (width 0.1))
  (fp_line (start 11.435 4.6) (end 11.435 5.61) (layer F.Fab) (width 0.1))
  (fp_line (start 11.435 5.61) (end 12.46 5.61) (layer F.Fab) (width 0.1))
  (fp_line (start 12.46 5.61) (end 12.46 6.5) (layer F.Fab) (width 0.1))
  (fp_line (start 12.46 6.5) (end -12.46 6.5) (layer F.Fab) (width 0.1))
  (fp_line (start -12.46 6.5) (end -12.46 5.61) (layer F.Fab) (width 0.1))
  (fp_line (start -12.46 5.61) (end -11.435 5.61) (layer F.Fab) (width 0.1))
  (fp_line (start -11.435 5.61) (end -11.435 4.6) (layer F.Fab) (width 0.1))
  (fp_line (start 11.545 3.06) (end 11.545 3.6) (layer F.SilkS) (width 0.12))
  (fp_line (start 11.545 3.6) (end 12.57 3.6) (layer F.SilkS) (width 0.12))
  (fp_line (start 12.57 3.6) (end 12.57 4.71) (layer F.SilkS) (width 0.12))
  (fp_line (start 12.57 4.71) (end -12.57 4.71) (layer F.SilkS) (width 0.12))
  (fp_line (start -12.57 4.71) (end -12.57 3.6) (layer F.SilkS) (width 0.12))
  (fp_line (start -12.57 3.6) (end -11.545 3.6) (layer F.SilkS) (width 0.12))
  (fp_line (start -11.545 3.6) (end -11.545 3.06) (layer F.SilkS) (width 0.12))
  (fp_line (start -9.39 -0.91) (end -8.565 -0.91) (layer F.SilkS) (width 0.12))
  (fp_line (start -8.565 -0.91) (end -8.565 -2.71) (layer F.SilkS) (width 0.12))
  (fp_line (start 8.565 -0.91) (end 9.39 -0.91) (layer F.SilkS) (width 0.12))
  (fp_line (start -12.96 -3.3) (end -12.96 7) (layer F.CrtYd) (width 0.05))
  (fp_line (start -12.96 7) (end 12.96 7) (layer F.CrtYd) (width 0.05))
  (fp_line (start 12.96 7) (end 12.96 -3.3) (layer F.CrtYd) (width 0.05))
  (fp_line (start 12.96 -3.3) (end -12.96 -3.3) (layer F.CrtYd) (width 0.05))
  (pad 1 smd rect (at -8 -1.8) (size 0.61 2) (layers F.Cu F.Mask F.Paste))
  (pad 2 smd rect (at -7 -1.8) (size 0.61 2) (layers F.Cu F.Mask F.Paste))
  (pad 3 smd rect (at -6 -1.8) (size 0.61 2) (layers F.Cu F.Mask F.Paste))
  (pad 4 smd rect (at -5 -1.8) (size 0.61 2) (layers F.Cu F.Mask F.Paste))
  (pad 5 smd rect (at -4 -1.8) (size 0.61 2) (layers F.Cu F.Mask F.Paste))
  (pad 6 smd rect (at -3 -1.8) (size 0.61 2) (layers F.Cu F.Mask F.Paste))
  (pad 7 smd rect (at -2 -1.8) (size 0.61 2) (layers F.Cu F.Mask F.Paste))
  (pad 8 smd rect (at -1 -1.8) (size 0.61 2) (layers F.Cu F.Mask F.Paste))
  (pad 9 smd rect (at 0 -1.8) (size 0.61 2) (layers F.Cu F.Mask F.Paste))
  (pad 10 smd rect (at 1 -1.8) (size 0.61 2) (layers F.Cu F.Mask F.Paste))
  (pad 11 smd rect (at 2 -1.8) (size 0.61 2) (layers F.Cu F.Mask F.Paste))
  (pad 12 smd rect (at 3 -1.8) (size 0.61 2) (layers F.Cu F.Mask F.Paste))
  (pad 13 smd rect (at 4 -1.8) (size 0.61 2) (layers F.Cu F.Mask F.Paste))
  (pad 14 smd rect (at 5 -1.8) (size 0.61 2) (layers F.Cu F.Mask F.Paste))
  (pad 15 smd rect (at 6 -1.8) (size 0.61 2) (layers F.Cu F.Mask F.Paste))
  (pad 16 smd rect (at 7 -1.8) (size 0.61 2) (layers F.Cu F.Mask F.Paste))
  (pad 17 smd rect (at 8 -1.8) (size 0.61 2) (layers F.Cu F.Mask F.Paste))
  (pad MP smd rect (at -10.99 1) (size 2.68 3.6) (layers F.Cu F.Mask F.Paste))
  (pad MP smd rect (at 10.99 1) (size 2.68 3.6) (layers F.Cu F.Mask F.Paste))
  (fp_text user %R (at 0 1.9) (layer F.Fab)
    (effects (font (size 1 1) (thickness 0.15)))
  )
  (model ${KICAD6_3DMODEL_DIR}/Connector_FFC-FPC.3dshapes/TE_1-84953-7_1x17-1MP_P1.0mm_Horizontal.wrl
    (at (xyz 0 0 0))
    (scale (xyz 1 1 1))
    (rotate (xyz 0 0 0))
  )
)