(module TE_3-1734839-1_1x31-1MP_P0.5mm_Horizontal (layer F.Cu) (tedit 5DB5C65C)
  (descr "TE FPC connector, 31 top-side contacts, 0.5mm pitch, SMT, https://www.te.com/commerce/DocumentDelivery/DDEController?Action=showdoc&DocId=Customer+Drawing%7F1734839%7FC%7Fpdf%7FEnglish%7FENG_CD_1734839_C_C_1734839.pdf%7F4-1734839-0")
  (tags "te fpc 1734839")
  (attr smd)
  (fp_text reference REF** (at 0 -3.1) (layer F.SilkS)
    (effects (font (size 1 1) (thickness 0.15)))
  )
  (fp_text value TE_3-1734839-1_1x31-1MP_P0.5mm_Horizontal (at 0 4.95) (layer F.Fab)
    (effects (font (size 1 1) (thickness 0.15)))
  )
  (fp_text value "PCB Edge" (at 0 3.25) (layer Dwgs.User)
    (effects (font (size 0.5 0.5) (thickness 0.08)))
  )
  (fp_line (start -9.81 -0.65) (end 9.81 -0.65) (layer F.Fab) (width 0.1))
  (fp_line (start 9.81 -0.65) (end 9.81 2.15) (layer F.Fab) (width 0.1))
  (fp_line (start 9.81 2.15) (end 10.465 2.15) (layer F.Fab) (width 0.1))
  (fp_line (start 10.465 2.15) (end 10.465 3.75) (layer F.Fab) (width 0.1))
  (fp_line (start 10.465 3.75) (end -10.465 3.75) (layer F.Fab) (width 0.1))
  (fp_line (start -10.465 3.75) (end -10.465 2.15) (layer F.Fab) (width 0.1))
  (fp_line (start -10.465 2.15) (end -9.81 2.15) (layer F.Fab) (width 0.1))
  (fp_line (start -9.81 2.15) (end -9.81 -0.65) (layer F.Fab) (width 0.1))
  (fp_line (start -7.9 -0.65) (end -7.5 0.15) (layer F.Fab) (width 0.1))
  (fp_line (start -7.5 0.15) (end -7.1 -0.65) (layer F.Fab) (width 0.1))
  (fp_line (start -10.465 2.04) (end -10.575 2.04) (layer F.SilkS) (width 0.12))
  (fp_line (start -10.575 2.04) (end -10.575 2.64) (layer F.SilkS) (width 0.12))
  (fp_line (start 10.465 2.04) (end 10.575 2.04) (layer F.SilkS) (width 0.12))
  (fp_line (start 10.575 2.04) (end 10.575 2.64) (layer F.SilkS) (width 0.12))
  (fp_line (start -7.7 -0.55) (end -7.5 -0.15) (layer F.SilkS) (width 0.12))
  (fp_line (start -7.5 -0.15) (end -7.3 -0.55) (layer F.SilkS) (width 0.12))
  (fp_line (start -7.3 -0.55) (end -7.7 -0.55) (layer F.SilkS) (width 0.12))
  (fp_line (start 10.355 2.75) (end -10.355 2.75) (layer Dwgs.User) (width 0.1))
  (fp_line (start -10.96 -2.4) (end -10.96 4.25) (layer F.CrtYd) (width 0.05))
  (fp_line (start -10.96 4.25) (end 10.96 4.25) (layer F.CrtYd) (width 0.05))
  (fp_line (start 10.96 4.25) (end 10.96 -2.4) (layer F.CrtYd) (width 0.05))
  (fp_line (start 10.96 -2.4) (end -10.96 -2.4) (layer F.CrtYd) (width 0.05))
  (pad 1 smd rect (at -7.5 -1.35) (size 0.3 1.1) (layers F.Cu F.Mask F.Paste))
  (pad 2 smd rect (at -7 -1.35) (size 0.3 1.1) (layers F.Cu F.Mask F.Paste))
  (pad 3 smd rect (at -6.5 -1.35) (size 0.3 1.1) (layers F.Cu F.Mask F.Paste))
  (pad 4 smd rect (at -6 -1.35) (size 0.3 1.1) (layers F.Cu F.Mask F.Paste))
  (pad 5 smd rect (at -5.5 -1.35) (size 0.3 1.1) (layers F.Cu F.Mask F.Paste))
  (pad 6 smd rect (at -5 -1.35) (size 0.3 1.1) (layers F.Cu F.Mask F.Paste))
  (pad 7 smd rect (at -4.5 -1.35) (size 0.3 1.1) (layers F.Cu F.Mask F.Paste))
  (pad 8 smd rect (at -4 -1.35) (size 0.3 1.1) (layers F.Cu F.Mask F.Paste))
  (pad 9 smd rect (at -3.5 -1.35) (size 0.3 1.1) (layers F.Cu F.Mask F.Paste))
  (pad 10 smd rect (at -3 -1.35) (size 0.3 1.1) (layers F.Cu F.Mask F.Paste))
  (pad 11 smd rect (at -2.5 -1.35) (size 0.3 1.1) (layers F.Cu F.Mask F.Paste))
  (pad 12 smd rect (at -2 -1.35) (size 0.3 1.1) (layers F.Cu F.Mask F.Paste))
  (pad 13 smd rect (at -1.5 -1.35) (size 0.3 1.1) (layers F.Cu F.Mask F.Paste))
  (pad 14 smd rect (at -1 -1.35) (size 0.3 1.1) (layers F.Cu F.Mask F.Paste))
  (pad 15 smd rect (at -0.5 -1.35) (size 0.3 1.1) (layers F.Cu F.Mask F.Paste))
  (pad 16 smd rect (at 0 -1.35) (size 0.3 1.1) (layers F.Cu F.Mask F.Paste))
  (pad 17 smd rect (at 0.5 -1.35) (size 0.3 1.1) (layers F.Cu F.Mask F.Paste))
  (pad 18 smd rect (at 1 -1.35) (size 0.3 1.1) (layers F.Cu F.Mask F.Paste))
  (pad 19 smd rect (at 1.5 -1.35) (size 0.3 1.1) (layers F.Cu F.Mask F.Paste))
  (pad 20 smd rect (at 2 -1.35) (size 0.3 1.1) (layers F.Cu F.Mask F.Paste))
  (pad 21 smd rect (at 2.5 -1.35) (size 0.3 1.1) (layers F.Cu F.Mask F.Paste))
  (pad 22 smd rect (at 3 -1.35) (size 0.3 1.1) (layers F.Cu F.Mask F.Paste))
  (pad 23 smd rect (at 3.5 -1.35) (size 0.3 1.1) (layers F.Cu F.Mask F.Paste))
  (pad 24 smd rect (at 4 -1.35) (size 0.3 1.1) (layers F.Cu F.Mask F.Paste))
  (pad 25 smd rect (at 4.5 -1.35) (size 0.3 1.1) (layers F.Cu F.Mask F.Paste))
  (pad 26 smd rect (at 5 -1.35) (size 0.3 1.1) (layers F.Cu F.Mask F.Paste))
  (pad 27 smd rect (at 5.5 -1.35) (size 0.3 1.1) (layers F.Cu F.Mask F.Paste))
  (pad 28 smd rect (at 6 -1.35) (size 0.3 1.1) (layers F.Cu F.Mask F.Paste))
  (pad 29 smd rect (at 6.5 -1.35) (size 0.3 1.1) (layers F.Cu F.Mask F.Paste))
  (pad 30 smd rect (at 7 -1.35) (size 0.3 1.1) (layers F.Cu F.Mask F.Paste))
  (pad 31 smd rect (at 7.5 -1.35) (size 0.3 1.1) (layers F.Cu F.Mask F.Paste))
  (pad MP smd rect (at -9.17 0.35) (size 2.3 3.1) (layers F.Cu F.Mask F.Paste))
  (pad MP smd rect (at 9.17 0.35) (size 2.3 3.1) (layers F.Cu F.Mask F.Paste))
  (fp_text user %R (at 0 1.55) (layer F.Fab)
    (effects (font (size 1 1) (thickness 0.15)))
  )
  (model ${KICAD6_3DMODEL_DIR}/Connector_FFC-FPC.3dshapes/TE_3-1734839-1_1x31-1MP_P0.5mm_Horizontal.wrl
    (at (xyz 0 0 0))
    (scale (xyz 1 1 1))
    (rotate (xyz 0 0 0))
  )
)