(module TE_4-1734839-2_1x42-1MP_P0.5mm_Horizontal (layer F.Cu) (tedit 5DB5C65C)
  (descr "TE FPC connector, 42 top-side contacts, 0.5mm pitch, SMT, https://www.te.com/commerce/DocumentDelivery/DDEController?Action=showdoc&DocId=Customer+Drawing%7F1734839%7FC%7Fpdf%7FEnglish%7FENG_CD_1734839_C_C_1734839.pdf%7F4-1734839-0")
  (tags "te fpc 1734839")
  (attr smd)
  (fp_text reference REF** (at 0 -3.1) (layer F.SilkS)
    (effects (font (size 1 1) (thickness 0.15)))
  )
  (fp_text value TE_4-1734839-2_1x42-1MP_P0.5mm_Horizontal (at 0 4.95) (layer F.Fab)
    (effects (font (size 1 1) (thickness 0.15)))
  )
  (fp_text value "PCB Edge" (at 0 3.25) (layer Dwgs.User)
    (effects (font (size 0.5 0.5) (thickness 0.08)))
  )
  (fp_line (start -12.56 -0.65) (end 12.56 -0.65) (layer F.Fab) (width 0.1))
  (fp_line (start 12.56 -0.65) (end 12.56 2.15) (layer F.Fab) (width 0.1))
  (fp_line (start 12.56 2.15) (end 13.215 2.15) (layer F.Fab) (width 0.1))
  (fp_line (start 13.215 2.15) (end 13.215 3.75) (layer F.Fab) (width 0.1))
  (fp_line (start 13.215 3.75) (end -13.215 3.75) (layer F.Fab) (width 0.1))
  (fp_line (start -13.215 3.75) (end -13.215 2.15) (layer F.Fab) (width 0.1))
  (fp_line (start -13.215 2.15) (end -12.56 2.15) (layer F.Fab) (width 0.1))
  (fp_line (start -12.56 2.15) (end -12.56 -0.65) (layer F.Fab) (width 0.1))
  (fp_line (start -10.65 -0.65) (end -10.25 0.15) (layer F.Fab) (width 0.1))
  (fp_line (start -10.25 0.15) (end -9.85 -0.65) (layer F.Fab) (width 0.1))
  (fp_line (start -13.215 2.04) (end -13.325 2.04) (layer F.SilkS) (width 0.12))
  (fp_line (start -13.325 2.04) (end -13.325 2.64) (layer F.SilkS) (width 0.12))
  (fp_line (start 13.215 2.04) (end 13.325 2.04) (layer F.SilkS) (width 0.12))
  (fp_line (start 13.325 2.04) (end 13.325 2.64) (layer F.SilkS) (width 0.12))
  (fp_line (start -10.45 -0.55) (end -10.25 -0.15) (layer F.SilkS) (width 0.12))
  (fp_line (start -10.25 -0.15) (end -10.05 -0.55) (layer F.SilkS) (width 0.12))
  (fp_line (start -10.05 -0.55) (end -10.45 -0.55) (layer F.SilkS) (width 0.12))
  (fp_line (start 13.105 2.75) (end -13.105 2.75) (layer Dwgs.User) (width 0.1))
  (fp_line (start -13.72 -2.4) (end -13.72 4.25) (layer F.CrtYd) (width 0.05))
  (fp_line (start -13.72 4.25) (end 13.72 4.25) (layer F.CrtYd) (width 0.05))
  (fp_line (start 13.72 4.25) (end 13.72 -2.4) (layer F.CrtYd) (width 0.05))
  (fp_line (start 13.72 -2.4) (end -13.72 -2.4) (layer F.CrtYd) (width 0.05))
  (pad 1 smd rect (at -10.25 -1.35) (size 0.3 1.1) (layers F.Cu F.Mask F.Paste))
  (pad 2 smd rect (at -9.75 -1.35) (size 0.3 1.1) (layers F.Cu F.Mask F.Paste))
  (pad 3 smd rect (at -9.25 -1.35) (size 0.3 1.1) (layers F.Cu F.Mask F.Paste))
  (pad 4 smd rect (at -8.75 -1.35) (size 0.3 1.1) (layers F.Cu F.Mask F.Paste))
  (pad 5 smd rect (at -8.25 -1.35) (size 0.3 1.1) (layers F.Cu F.Mask F.Paste))
  (pad 6 smd rect (at -7.75 -1.35) (size 0.3 1.1) (layers F.Cu F.Mask F.Paste))
  (pad 7 smd rect (at -7.25 -1.35) (size 0.3 1.1) (layers F.Cu F.Mask F.Paste))
  (pad 8 smd rect (at -6.75 -1.35) (size 0.3 1.1) (layers F.Cu F.Mask F.Paste))
  (pad 9 smd rect (at -6.25 -1.35) (size 0.3 1.1) (layers F.Cu F.Mask F.Paste))
  (pad 10 smd rect (at -5.75 -1.35) (size 0.3 1.1) (layers F.Cu F.Mask F.Paste))
  (pad 11 smd rect (at -5.25 -1.35) (size 0.3 1.1) (layers F.Cu F.Mask F.Paste))
  (pad 12 smd rect (at -4.75 -1.35) (size 0.3 1.1) (layers F.Cu F.Mask F.Paste))
  (pad 13 smd rect (at -4.25 -1.35) (size 0.3 1.1) (layers F.Cu F.Mask F.Paste))
  (pad 14 smd rect (at -3.75 -1.35) (size 0.3 1.1) (layers F.Cu F.Mask F.Paste))
  (pad 15 smd rect (at -3.25 -1.35) (size 0.3 1.1) (layers F.Cu F.Mask F.Paste))
  (pad 16 smd rect (at -2.75 -1.35) (size 0.3 1.1) (layers F.Cu F.Mask F.Paste))
  (pad 17 smd rect (at -2.25 -1.35) (size 0.3 1.1) (layers F.Cu F.Mask F.Paste))
  (pad 18 smd rect (at -1.75 -1.35) (size 0.3 1.1) (layers F.Cu F.Mask F.Paste))
  (pad 19 smd rect (at -1.25 -1.35) (size 0.3 1.1) (layers F.Cu F.Mask F.Paste))
  (pad 20 smd rect (at -0.75 -1.35) (size 0.3 1.1) (layers F.Cu F.Mask F.Paste))
  (pad 21 smd rect (at -0.25 -1.35) (size 0.3 1.1) (layers F.Cu F.Mask F.Paste))
  (pad 22 smd rect (at 0.25 -1.35) (size 0.3 1.1) (layers F.Cu F.Mask F.Paste))
  (pad 23 smd rect (at 0.75 -1.35) (size 0.3 1.1) (layers F.Cu F.Mask F.Paste))
  (pad 24 smd rect (at 1.25 -1.35) (size 0.3 1.1) (layers F.Cu F.Mask F.Paste))
  (pad 25 smd rect (at 1.75 -1.35) (size 0.3 1.1) (layers F.Cu F.Mask F.Paste))
  (pad 26 smd rect (at 2.25 -1.35) (size 0.3 1.1) (layers F.Cu F.Mask F.Paste))
  (pad 27 smd rect (at 2.75 -1.35) (size 0.3 1.1) (layers F.Cu F.Mask F.Paste))
  (pad 28 smd rect (at 3.25 -1.35) (size 0.3 1.1) (layers F.Cu F.Mask F.Paste))
  (pad 29 smd rect (at 3.75 -1.35) (size 0.3 1.1) (layers F.Cu F.Mask F.Paste))
  (pad 30 smd rect (at 4.25 -1.35) (size 0.3 1.1) (layers F.Cu F.Mask F.Paste))
  (pad 31 smd rect (at 4.75 -1.35) (size 0.3 1.1) (layers F.Cu F.Mask F.Paste))
  (pad 32 smd rect (at 5.25 -1.35) (size 0.3 1.1) (layers F.Cu F.Mask F.Paste))
  (pad 33 smd rect (at 5.75 -1.35) (size 0.3 1.1) (layers F.Cu F.Mask F.Paste))
  (pad 34 smd rect (at 6.25 -1.35) (size 0.3 1.1) (layers F.Cu F.Mask F.Paste))
  (pad 35 smd rect (at 6.75 -1.35) (size 0.3 1.1) (layers F.Cu F.Mask F.Paste))
  (pad 36 smd rect (at 7.25 -1.35) (size 0.3 1.1) (layers F.Cu F.Mask F.Paste))
  (pad 37 smd rect (at 7.75 -1.35) (size 0.3 1.1) (layers F.Cu F.Mask F.Paste))
  (pad 38 smd rect (at 8.25 -1.35) (size 0.3 1.1) (layers F.Cu F.Mask F.Paste))
  (pad 39 smd rect (at 8.75 -1.35) (size 0.3 1.1) (layers F.Cu F.Mask F.Paste))
  (pad 40 smd rect (at 9.25 -1.35) (size 0.3 1.1) (layers F.Cu F.Mask F.Paste))
  (pad 41 smd rect (at 9.75 -1.35) (size 0.3 1.1) (layers F.Cu F.Mask F.Paste))
  (pad 42 smd rect (at 10.25 -1.35) (size 0.3 1.1) (layers F.Cu F.Mask F.Paste))
  (pad MP smd rect (at -11.92 0.35) (size 2.3 3.1) (layers F.Cu F.Mask F.Paste))
  (pad MP smd rect (at 11.92 0.35) (size 2.3 3.1) (layers F.Cu F.Mask F.Paste))
  (fp_text user %R (at 0 1.55) (layer F.Fab)
    (effects (font (size 1 1) (thickness 0.15)))
  )
  (model ${KICAD6_3DMODEL_DIR}/Connector_FFC-FPC.3dshapes/TE_4-1734839-2_1x42-1MP_P0.5mm_Horizontal.wrl
    (at (xyz 0 0 0))
    (scale (xyz 1 1 1))
    (rotate (xyz 0 0 0))
  )
)