(module TE_84952-5_1x05-1MP_P1.0mm_Horizontal (layer F.Cu) (tedit 5AEE14E3)
  (descr "TE FPC connector, 05 bottom-side contacts, 1.0mm pitch, 1.0mm height, SMT, http://www.te.com/commerce/DocumentDelivery/DDEController?Action=srchrtrv&DocNm=84952&DocType=Customer+Drawing&DocLang=English&DocFormat=pdf&PartCntxt=84952-4")
  (tags "te fpc 84952")
  (attr smd)
  (fp_text reference REF** (at 0 -4) (layer F.SilkS)
    (effects (font (size 1 1) (thickness 0.15)))
  )
  (fp_text value TE_84952-5_1x05-1MP_P1.0mm_Horizontal (at 0 7.7) (layer F.Fab)
    (effects (font (size 1 1) (thickness 0.15)))
  )
  (fp_line (start -5.435 -0.8) (end 5.435 -0.8) (layer F.Fab) (width 0.1))
  (fp_line (start 5.435 -0.8) (end 5.435 3.71) (layer F.Fab) (width 0.1))
  (fp_line (start 5.435 3.71) (end 6.46 3.71) (layer F.Fab) (width 0.1))
  (fp_line (start 6.46 3.71) (end 6.46 4.6) (layer F.Fab) (width 0.1))
  (fp_line (start 6.46 4.6) (end -6.46 4.6) (layer F.Fab) (width 0.1))
  (fp_line (start -6.46 4.6) (end -6.46 3.71) (layer F.Fab) (width 0.1))
  (fp_line (start -6.46 3.71) (end -5.435 3.71) (layer F.Fab) (width 0.1))
  (fp_line (start -5.435 3.71) (end -5.435 -0.8) (layer F.Fab) (width 0.1))
  (fp_line (start -2.5 -0.8) (end -2 0.2) (layer F.Fab) (width 0.1))
  (fp_line (start -2 0.2) (end -1.5 -0.8) (layer F.Fab) (width 0.1))
  (fp_line (start 5.435 4.6) (end 5.435 5.61) (layer F.Fab) (width 0.1))
  (fp_line (start 5.435 5.61) (end 6.46 5.61) (layer F.Fab) (width 0.1))
  (fp_line (start 6.46 5.61) (end 6.46 6.5) (layer F.Fab) (width 0.1))
  (fp_line (start 6.46 6.5) (end -6.46 6.5) (layer F.Fab) (width 0.1))
  (fp_line (start -6.46 6.5) (end -6.46 5.61) (layer F.Fab) (width 0.1))
  (fp_line (start -6.46 5.61) (end -5.435 5.61) (layer F.Fab) (width 0.1))
  (fp_line (start -5.435 5.61) (end -5.435 4.6) (layer F.Fab) (width 0.1))
  (fp_line (start 5.545 3.06) (end 5.545 3.6) (layer F.SilkS) (width 0.12))
  (fp_line (start 5.545 3.6) (end 6.57 3.6) (layer F.SilkS) (width 0.12))
  (fp_line (start 6.57 3.6) (end 6.57 4.71) (layer F.SilkS) (width 0.12))
  (fp_line (start 6.57 4.71) (end -6.57 4.71) (layer F.SilkS) (width 0.12))
  (fp_line (start -6.57 4.71) (end -6.57 3.6) (layer F.SilkS) (width 0.12))
  (fp_line (start -6.57 3.6) (end -5.545 3.6) (layer F.SilkS) (width 0.12))
  (fp_line (start -5.545 3.6) (end -5.545 3.06) (layer F.SilkS) (width 0.12))
  (fp_line (start -3.39 -0.91) (end -2.565 -0.91) (layer F.SilkS) (width 0.12))
  (fp_line (start -2.565 -0.91) (end -2.565 -2.71) (layer F.SilkS) (width 0.12))
  (fp_line (start 2.565 -0.91) (end 3.39 -0.91) (layer F.SilkS) (width 0.12))
  (fp_line (start -6.96 -3.3) (end -6.96 7) (layer F.CrtYd) (width 0.05))
  (fp_line (start -6.96 7) (end 6.96 7) (layer F.CrtYd) (width 0.05))
  (fp_line (start 6.96 7) (end 6.96 -3.3) (layer F.CrtYd) (width 0.05))
  (fp_line (start 6.96 -3.3) (end -6.96 -3.3) (layer F.CrtYd) (width 0.05))
  (pad 1 smd rect (at -2 -1.8) (size 0.61 2) (layers F.Cu F.Mask F.Paste))
  (pad 2 smd rect (at -1 -1.8) (size 0.61 2) (layers F.Cu F.Mask F.Paste))
  (pad 3 smd rect (at 0 -1.8) (size 0.61 2) (layers F.Cu F.Mask F.Paste))
  (pad 4 smd rect (at 1 -1.8) (size 0.61 2) (layers F.Cu F.Mask F.Paste))
  (pad 5 smd rect (at 2 -1.8) (size 0.61 2) (layers F.Cu F.Mask F.Paste))
  (pad MP smd rect (at -4.99 1) (size 2.68 3.6) (layers F.Cu F.Mask F.Paste))
  (pad MP smd rect (at 4.99 1) (size 2.68 3.6) (layers F.Cu F.Mask F.Paste))
  (fp_text user %R (at 0 1.9) (layer F.Fab)
    (effects (font (size 1 1) (thickness 0.15)))
  )
  (model ${KICAD6_3DMODEL_DIR}/Connector_FFC-FPC.3dshapes/TE_84952-5_1x05-1MP_P1.0mm_Horizontal.wrl
    (at (xyz 0 0 0))
    (scale (xyz 1 1 1))
    (rotate (xyz 0 0 0))
  )
)