(module EA-eDIP128B-XXX (layer F.Cu) (tedit 5A02FE80)
  (descr "LCD-graphical display with LED backlight 128x64 RS-232 I2C or SPI http://www.lcd-module.com/fileadmin/eng/pdf/grafik/edip128-6e.pdf")
  (tags "LCD-graphical display with LED backlight 128x64 RS-232 I2C or SPI")
  (fp_text reference REF** (at -3.75 -6.5) (layer F.SilkS)
    (effects (font (size 1 1) (thickness 0.15)))
  )
  (fp_text value EA-eDIP128B-XXX (at 1.25 67.5) (layer F.Fab)
    (effects (font (size 1 1) (thickness 0.15)))
  )
  (fp_line (start 35.52 2) (end 35.52 58) (layer F.SilkS) (width 0.12))
  (fp_line (start 2.58 58) (end 2.58 2) (layer F.SilkS) (width 0.12))
  (fp_line (start -1 -5.72) (end 8 -5.72) (layer F.SilkS) (width 0.12))
  (fp_line (start -6.2 -5.47) (end 48.9 -5.47) (layer F.CrtYd) (width 0.05))
  (fp_line (start 48.9 -5.47) (end 48.9 66.43) (layer F.CrtYd) (width 0.05))
  (fp_line (start 48.9 66.43) (end -6.2 66.43) (layer F.CrtYd) (width 0.05))
  (fp_line (start -6.2 66.43) (end -6.2 -5.47) (layer F.CrtYd) (width 0.05))
  (fp_line (start 0 -4.22) (end 1 -5.22) (layer F.Fab) (width 0.1))
  (fp_line (start -1 -5.22) (end 0 -4.22) (layer F.Fab) (width 0.1))
  (fp_line (start -5.95 -5.22) (end -1 -5.22) (layer F.Fab) (width 0.1))
  (fp_line (start -6.07 -5.34) (end 48.77 -5.34) (layer F.SilkS) (width 0.12))
  (fp_line (start 48.77 -5.34) (end 48.77 66.3) (layer F.SilkS) (width 0.12))
  (fp_line (start 48.77 66.3) (end -6.07 66.3) (layer F.SilkS) (width 0.12))
  (fp_line (start -6.07 66.3) (end -6.07 -5.34) (layer F.SilkS) (width 0.12))
  (fp_line (start 1 -5.22) (end 48.65 -5.22) (layer F.Fab) (width 0.1))
  (fp_line (start 48.65 -5.22) (end 48.65 66.18) (layer F.Fab) (width 0.1))
  (fp_line (start 48.65 66.18) (end -5.95 66.18) (layer F.Fab) (width 0.1))
  (fp_line (start -5.95 66.18) (end -5.95 -5.22) (layer F.Fab) (width 0.1))
  (fp_text user %R (at 20.25 29.25) (layer F.Fab)
    (effects (font (size 1 1) (thickness 0.15)))
  )
  (pad 1 thru_hole rect (at 0 0) (size 1.5 1.5) (drill 1) (layers *.Cu *.Mask))
  (pad 2 thru_hole circle (at 2.54 0) (size 1.5 1.5) (drill 1) (layers *.Cu *.Mask))
  (pad 3 thru_hole circle (at 5.08 0) (size 1.5 1.5) (drill 1) (layers *.Cu *.Mask))
  (pad 4 thru_hole circle (at 7.62 0) (size 1.5 1.5) (drill 1) (layers *.Cu *.Mask))
  (pad 5 thru_hole circle (at 10.16 0) (size 1.5 1.5) (drill 1) (layers *.Cu *.Mask))
  (pad 6 thru_hole circle (at 12.7 0) (size 1.5 1.5) (drill 1) (layers *.Cu *.Mask))
  (pad 7 thru_hole circle (at 15.24 0) (size 1.5 1.5) (drill 1) (layers *.Cu *.Mask))
  (pad 8 thru_hole circle (at 17.78 0) (size 1.5 1.5) (drill 1) (layers *.Cu *.Mask))
  (pad 9 thru_hole circle (at 20.32 0) (size 1.5 1.5) (drill 1) (layers *.Cu *.Mask))
  (pad 10 thru_hole circle (at 22.86 0) (size 1.5 1.5) (drill 1) (layers *.Cu *.Mask))
  (pad 11 thru_hole circle (at 25.4 0) (size 1.5 1.5) (drill 1) (layers *.Cu *.Mask))
  (pad 12 thru_hole circle (at 27.94 0) (size 1.5 1.5) (drill 1) (layers *.Cu *.Mask))
  (pad 13 thru_hole circle (at 30.48 0) (size 1.5 1.5) (drill 1) (layers *.Cu *.Mask))
  (pad 14 thru_hole circle (at 33.02 0) (size 1.5 1.5) (drill 1) (layers *.Cu *.Mask))
  (pad 15 thru_hole circle (at 35.56 0) (size 1.5 1.5) (drill 1) (layers *.Cu *.Mask))
  (pad 16 thru_hole circle (at 38.1 0) (size 1.5 1.5) (drill 1) (layers *.Cu *.Mask))
  (pad 17 thru_hole circle (at 38.1 60.96) (size 1.5 1.5) (drill 1) (layers *.Cu *.Mask))
  (pad 18 thru_hole circle (at 35.56 60.96) (size 1.5 1.5) (drill 1) (layers *.Cu *.Mask))
  (pad 19 thru_hole circle (at 33.02 60.96) (size 1.5 1.5) (drill 1) (layers *.Cu *.Mask))
  (pad 20 thru_hole circle (at 30.48 60.96) (size 1.5 1.5) (drill 1) (layers *.Cu *.Mask))
  (pad 21 thru_hole circle (at 27.94 60.96) (size 1.5 1.5) (drill 1) (layers *.Cu *.Mask))
  (pad 22 thru_hole circle (at 25.4 60.96) (size 1.5 1.5) (drill 1) (layers *.Cu *.Mask))
  (pad 23 thru_hole circle (at 22.86 60.96) (size 1.5 1.5) (drill 1) (layers *.Cu *.Mask))
  (pad 24 thru_hole circle (at 20.32 60.96) (size 1.5 1.5) (drill 1) (layers *.Cu *.Mask))
  (pad 25 thru_hole circle (at 17.78 60.96) (size 1.5 1.5) (drill 1) (layers *.Cu *.Mask))
  (pad 26 thru_hole circle (at 15.24 60.96) (size 1.5 1.5) (drill 1) (layers *.Cu *.Mask))
  (pad 27 thru_hole circle (at 12.7 60.96) (size 1.5 1.5) (drill 1) (layers *.Cu *.Mask))
  (pad 28 thru_hole circle (at 10.16 60.96) (size 1.5 1.5) (drill 1) (layers *.Cu *.Mask))
  (pad 29 thru_hole circle (at 7.62 60.96) (size 1.5 1.5) (drill 1) (layers *.Cu *.Mask))
  (pad 30 thru_hole circle (at 5.08 60.96) (size 1.5 1.5) (drill 1) (layers *.Cu *.Mask))
  (pad 31 thru_hole circle (at 2.54 60.96) (size 1.5 1.5) (drill 1) (layers *.Cu *.Mask))
  (pad 32 thru_hole circle (at 0 60.96) (size 1.5 1.5) (drill 1) (layers *.Cu *.Mask))
  (model ${KICAD6_3DMODEL_DIR}/Display.3dshapes/EA-eDIP128B-XXX.wrl
    (at (xyz 0 0 0))
    (scale (xyz 1 1 1))
    (rotate (xyz 0 0 0))
  )
)
