(module EA_DOGS104X-A (layer F.Cu) (tedit 5A02FE80)
  (descr "LCD 4x10 character 3.3V VDD I2C or SPI http://www.lcd-module.com/fileadmin/eng/pdf/doma/dogs104e.pdf")
  (tags "LCD 4x10 character 3.3V VDD I2C or SPI")
  (fp_text reference REF** (at 2.22 -7.73) (layer F.SilkS)
    (effects (font (size 1 1) (thickness 0.15)))
  )
  (fp_text value EA_DOGS104X-A (at 6.6 30.8) (layer F.Fab)
    (effects (font (size 1 1) (thickness 0.15)))
  )
  (fp_line (start 3 -4) (end 3 25.78) (layer F.SilkS) (width 0.12))
  (fp_line (start 3 25.78) (end 13.39 25.78) (layer F.SilkS) (width 0.12))
  (fp_line (start 13.39 25.78) (end 13.39 -4) (layer F.SilkS) (width 0.12))
  (fp_line (start 13.39 -4) (end 3 -4) (layer F.SilkS) (width 0.12))
  (fp_text user %R (at 13.61 11.51) (layer F.Fab)
    (effects (font (size 1 1) (thickness 0.15)))
  )
  (fp_line (start -1 -6.82) (end 26.4 -6.82) (layer F.CrtYd) (width 0.05))
  (fp_line (start 26.4 -6.82) (end 26.4 29.68) (layer F.CrtYd) (width 0.05))
  (fp_line (start 26.4 29.68) (end -1 29.68) (layer F.CrtYd) (width 0.05))
  (fp_line (start -1 29.68) (end -1 -6.82) (layer F.CrtYd) (width 0.05))
  (fp_line (start -1.25 -1.25) (end 0 -1.25) (layer F.SilkS) (width 0.12))
  (fp_line (start -1.25 -1.25) (end -1.25 1) (layer F.SilkS) (width 0.12))
  (fp_line (start 25.4 24.5) (end 25.4 29.55) (layer F.SilkS) (width 0.12))
  (fp_line (start 0 24.5) (end 0 29.55) (layer F.SilkS) (width 0.12))
  (fp_line (start 0 4) (end 0 19) (layer F.SilkS) (width 0.12))
  (fp_line (start 0 -6.69) (end 25.4 -6.69) (layer F.SilkS) (width 0.12))
  (fp_line (start 25.4 -6.69) (end 25.4 -2) (layer F.SilkS) (width 0.12))
  (fp_line (start 25.4 29.55) (end 0 29.55) (layer F.SilkS) (width 0.12))
  (fp_line (start 0 -2) (end 0 -6.69) (layer F.SilkS) (width 0.12))
  (fp_line (start 0.15 -1) (end 1.15 0) (layer F.Fab) (width 0.1))
  (fp_line (start 1.15 0) (end 0.15 1) (layer F.Fab) (width 0.1))
  (fp_line (start 0.15 1) (end 0.15 29.43) (layer F.Fab) (width 0.1))
  (fp_line (start 0.15 -6.57) (end 25.25 -6.57) (layer F.Fab) (width 0.1))
  (fp_line (start 25.25 -6.57) (end 25.25 29.43) (layer F.Fab) (width 0.1))
  (fp_line (start 25.25 29.43) (end 0.15 29.43) (layer F.Fab) (width 0.1))
  (fp_line (start 0.15 -1) (end 0.15 -6.57) (layer F.Fab) (width 0.1))
  (pad 2 thru_hole circle (at 0 2.54) (size 1.5 1.5) (drill 1) (layers *.Cu *.Mask))
  (pad 9 thru_hole circle (at 0 20.32) (size 1.5 1.5) (drill 1) (layers *.Cu *.Mask))
  (pad 10 thru_hole circle (at 0 22.86) (size 1.5 1.5) (drill 1) (layers *.Cu *.Mask))
  (pad 11 thru_hole circle (at 25.4 22.86) (size 1.5 1.5) (drill 1) (layers *.Cu *.Mask))
  (pad 12 thru_hole circle (at 25.4 20.32) (size 1.5 1.5) (drill 1) (layers *.Cu *.Mask))
  (pad 13 thru_hole circle (at 25.4 17.78) (size 1.5 1.5) (drill 1) (layers *.Cu *.Mask))
  (pad 14 thru_hole circle (at 25.4 15.24) (size 1.5 1.5) (drill 1) (layers *.Cu *.Mask))
  (pad 15 thru_hole circle (at 25.4 12.7) (size 1.5 1.5) (drill 1) (layers *.Cu *.Mask))
  (pad 16 thru_hole circle (at 25.4 10.16) (size 1.5 1.5) (drill 1) (layers *.Cu *.Mask))
  (pad 17 thru_hole circle (at 25.4 7.62) (size 1.5 1.5) (drill 1) (layers *.Cu *.Mask))
  (pad 18 thru_hole circle (at 25.4 5.08) (size 1.5 1.5) (drill 1) (layers *.Cu *.Mask))
  (pad 19 thru_hole circle (at 25.4 2.54) (size 1.5 1.5) (drill 1) (layers *.Cu *.Mask))
  (pad 20 thru_hole circle (at 25.4 0) (size 1.5 1.5) (drill 1) (layers *.Cu *.Mask))
  (pad 1 thru_hole rect (at 0 0) (size 1.5 1.5) (drill 1) (layers *.Cu *.Mask))
  (model ${KICAD6_3DMODEL_DIR}/Display.3dshapes/EA_DOGS104X-A.wrl
    (at (xyz 0 0 0))
    (scale (xyz 1 1 1))
    (rotate (xyz 0 0 0))
  )
)
