(module EA_DOGL128-6 (layer F.Cu) (tedit 5F6CF765)
  (descr "Graphical,Display,LCD,128x64 https://www.lcd-module.com/eng/pdf/grafik/dogl128-6e.pdf")
  (tags "EA DOGL128")
  (fp_text reference REF** (at -2.025 -7.97 -90) (layer F.SilkS)
    (effects (font (size 1 1) (thickness 0.15)))
  )
  (fp_text value EA_DOGL128-6 (at 4.415 59.44) (layer F.Fab)
    (effects (font (size 1 1) (thickness 0.15)))
  )
  (fp_line (start 39.71 -7.87) (end 4.21 -7.87) (layer F.SilkS) (width 0.12))
  (fp_line (start 39.71 56.13) (end 39.71 -7.87) (layer F.SilkS) (width 0.12))
  (fp_line (start 4.21 56.13) (end 39.71 56.13) (layer F.SilkS) (width 0.12))
  (fp_line (start 4.21 -7.87) (end 4.21 56.13) (layer F.SilkS) (width 0.12))
  (fp_line (start -1.025 -0.77) (end -1.025 0.73) (layer F.SilkS) (width 0.12))
  (fp_line (start 0.15 58.03) (end 0.15 1) (layer F.Fab) (width 0.1))
  (fp_line (start 0.15 -9.77) (end 0.15 -1) (layer F.Fab) (width 0.1))
  (fp_line (start 1.15 0) (end 0.15 1) (layer F.Fab) (width 0.1))
  (fp_line (start 0.15 -1) (end 1.15 0) (layer F.Fab) (width 0.1))
  (fp_line (start 48.11 -9.77) (end 0.15 -9.77) (layer F.Fab) (width 0.1))
  (fp_line (start 48.11 58.03) (end 48.11 -9.77) (layer F.Fab) (width 0.1))
  (fp_line (start 49.28 -10.02) (end 49.28 58.28) (layer F.CrtYd) (width 0.05))
  (fp_line (start -1.02 -10.02) (end -1.02 58.28) (layer F.CrtYd) (width 0.05))
  (fp_line (start -1.02 -10.02) (end 49.28 -10.02) (layer F.CrtYd) (width 0.05))
  (fp_line (start 0.04 -9.88) (end 48.22 -9.88) (layer F.SilkS) (width 0.12))
  (fp_line (start 48.22 -9.88) (end 48.22 -0.97) (layer F.SilkS) (width 0.12))
  (fp_line (start 48.22 49.23) (end 48.22 58.14) (layer F.SilkS) (width 0.12))
  (fp_line (start 0.04 58.14) (end 0.04 49.23) (layer F.SilkS) (width 0.12))
  (fp_line (start 0.04 42.23) (end 0.04 6.03) (layer F.SilkS) (width 0.12))
  (fp_line (start 0.04 -9.88) (end 0.04 -1) (layer F.SilkS) (width 0.12))
  (fp_text user %R (at 24.55 24.13 -90) (layer F.Fab)
    (effects (font (size 1 1) (thickness 0.15)))
  )
  (fp_line (start 19.46 58.03) (end 19.46 58.83) (layer F.Fab) (width 0.1))
  (fp_line (start 19.46 58.83) (end 24.46 58.83) (layer F.Fab) (width 0.1))
  (fp_line (start 48.11 58.03) (end 24.46 58.03) (layer F.Fab) (width 0.1))
  (fp_line (start 24.46 58.83) (end 24.46 58.03) (layer F.Fab) (width 0.1))
  (fp_line (start 19.46 58.03) (end 0.15 58.03) (layer F.Fab) (width 0.1))
  (fp_line (start 48.22 58.14) (end 24.57 58.14) (layer F.SilkS) (width 0.12))
  (fp_line (start 24.57 58.14) (end 24.57 58.94) (layer F.SilkS) (width 0.12))
  (fp_line (start 24.57 58.94) (end 19.35 58.94) (layer F.SilkS) (width 0.12))
  (fp_line (start 19.35 58.94) (end 19.35 58.14) (layer F.SilkS) (width 0.12))
  (fp_line (start 19.35 58.14) (end 0.04 58.14) (layer F.SilkS) (width 0.12))
  (fp_line (start 49.28 58.28) (end 24.71 58.28) (layer F.CrtYd) (width 0.05))
  (fp_line (start 24.71 58.28) (end 24.71 59.08) (layer F.CrtYd) (width 0.05))
  (fp_line (start 24.71 59.08) (end 19.21 59.08) (layer F.CrtYd) (width 0.05))
  (fp_line (start 19.21 59.08) (end 19.21 58.28) (layer F.CrtYd) (width 0.05))
  (fp_line (start 19.21 58.28) (end -1.02 58.28) (layer F.CrtYd) (width 0.05))
  (pad 1 thru_hole rect (at 0 0 270) (size 1.524 1.524) (drill 0.762) (layers *.Cu *.Mask))
  (pad 2 thru_hole circle (at 0 2.54 270) (size 1.524 1.524) (drill 0.762) (layers *.Cu *.Mask))
  (pad 3 thru_hole circle (at 0 5.08 270) (size 1.524 1.524) (drill 0.762) (layers *.Cu *.Mask))
  (pad 18 thru_hole circle (at 0 43.18 270) (size 1.524 1.524) (drill 0.762) (layers *.Cu *.Mask))
  (pad 19 thru_hole circle (at 0 45.72 270) (size 1.524 1.524) (drill 0.762) (layers *.Cu *.Mask))
  (pad 20 thru_hole circle (at 0 48.26 270) (size 1.524 1.524) (drill 0.762) (layers *.Cu *.Mask))
  (pad 21 thru_hole circle (at 48.26 48.26 270) (size 1.524 1.524) (drill 0.762) (layers *.Cu *.Mask))
  (pad 22 thru_hole circle (at 48.26 45.72 270) (size 1.524 1.524) (drill 0.762) (layers *.Cu *.Mask))
  (pad 23 thru_hole circle (at 48.26 43.18 270) (size 1.524 1.524) (drill 0.762) (layers *.Cu *.Mask))
  (pad 24 thru_hole circle (at 48.26 40.64 270) (size 1.524 1.524) (drill 0.762) (layers *.Cu *.Mask))
  (pad 25 thru_hole circle (at 48.26 38.1 270) (size 1.524 1.524) (drill 0.762) (layers *.Cu *.Mask))
  (pad 26 thru_hole circle (at 48.26 35.56 270) (size 1.524 1.524) (drill 0.762) (layers *.Cu *.Mask))
  (pad 27 thru_hole circle (at 48.26 33.02 270) (size 1.524 1.524) (drill 0.762) (layers *.Cu *.Mask))
  (pad 28 thru_hole circle (at 48.26 30.48 270) (size 1.524 1.524) (drill 0.762) (layers *.Cu *.Mask))
  (pad 29 thru_hole circle (at 48.26 27.94 270) (size 1.524 1.524) (drill 0.762) (layers *.Cu *.Mask))
  (pad 30 thru_hole circle (at 48.26 25.4 270) (size 1.524 1.524) (drill 0.762) (layers *.Cu *.Mask))
  (pad 31 thru_hole circle (at 48.26 22.86 270) (size 1.524 1.524) (drill 0.762) (layers *.Cu *.Mask))
  (pad 32 thru_hole circle (at 48.26 20.32 270) (size 1.524 1.524) (drill 0.762) (layers *.Cu *.Mask))
  (pad 33 thru_hole circle (at 48.26 17.78 270) (size 1.524 1.524) (drill 0.762) (layers *.Cu *.Mask))
  (pad 34 thru_hole circle (at 48.26 15.24 270) (size 1.524 1.524) (drill 0.762) (layers *.Cu *.Mask))
  (pad 35 thru_hole circle (at 48.26 12.7 270) (size 1.524 1.524) (drill 0.762) (layers *.Cu *.Mask))
  (pad 36 thru_hole circle (at 48.26 10.16 270) (size 1.524 1.524) (drill 0.762) (layers *.Cu *.Mask))
  (pad 37 thru_hole circle (at 48.26 7.62 270) (size 1.524 1.524) (drill 0.762) (layers *.Cu *.Mask))
  (pad 38 thru_hole circle (at 48.26 5.08 270) (size 1.524 1.524) (drill 0.762) (layers *.Cu *.Mask))
  (pad 39 thru_hole circle (at 48.26 2.54 270) (size 1.524 1.524) (drill 0.762) (layers *.Cu *.Mask))
  (pad 40 thru_hole circle (at 48.26 0 270) (size 1.524 1.524) (drill 0.762) (layers *.Cu *.Mask))
  (model ${KICAD6_3DMODEL_DIR}/Display.3dshapes/EA_DOGL128-6.wrl
    (at (xyz 0 0 0))
    (scale (xyz 1 1 1))
    (rotate (xyz 0 0 0))
  )
)
