(module EA_eDIP160-XXX (layer F.Cu) (tedit 5A02FE80)
  (descr "LCD-graphical display with LED backlight 160x104 RS-232 I2C or SPI http://www.lcd-module.com/fileadmin/eng/pdf/grafik/edip160-7e.pdf")
  (tags "LCD-graphical display with LED backlight 160x104 RS-232 I2C or SPI")
  (fp_text reference REF** (at -3.8 -11.6) (layer F.SilkS)
    (effects (font (size 1 1) (thickness 0.15)))
  )
  (fp_text value EA_eDIP160-XXX (at 0.2 72.4) (layer F.Fab)
    (effects (font (size 1 1) (thickness 0.15)))
  )
  (fp_line (start 2.73 63) (end 2.73 65.13) (layer F.SilkS) (width 0.12))
  (fp_line (start 2.73 2) (end 2.73 58) (layer F.SilkS) (width 0.12))
  (fp_line (start 2.73 -4.17) (end 2.73 -2) (layer F.SilkS) (width 0.12))
  (fp_line (start 45.53 -4.175) (end 45.53 -2) (layer F.SilkS) (width 0.12))
  (fp_line (start 45.53 2) (end 45.53 58) (layer F.SilkS) (width 0.12))
  (fp_line (start 2.73 -4.17) (end 45.53 -4.17) (layer F.SilkS) (width 0.12))
  (fp_line (start 45.53 63) (end 45.53 65.13) (layer F.SilkS) (width 0.12))
  (fp_line (start 45.53 65.13) (end 2.73 65.13) (layer F.SilkS) (width 0.12))
  (fp_text user %R (at 25.4 30) (layer F.Fab)
    (effects (font (size 1 1) (thickness 0.15)))
  )
  (fp_line (start -1 -10.77) (end 10 -10.77) (layer F.SilkS) (width 0.12))
  (fp_line (start -6.47 -10.52) (end 61.53 -10.52) (layer F.CrtYd) (width 0.05))
  (fp_line (start 61.53 -10.52) (end 61.53 71.48) (layer F.CrtYd) (width 0.05))
  (fp_line (start 61.53 71.48) (end -6.47 71.48) (layer F.CrtYd) (width 0.05))
  (fp_line (start -6.47 71.48) (end -6.47 -10.52) (layer F.CrtYd) (width 0.05))
  (fp_line (start 0 -9.27) (end 1 -10.27) (layer F.Fab) (width 0.1))
  (fp_line (start -1 -10.27) (end 0 -9.27) (layer F.Fab) (width 0.1))
  (fp_line (start -1 -10.27) (end -6.22 -10.27) (layer F.Fab) (width 0.1))
  (fp_line (start -6.34 -10.39) (end 61.4 -10.39) (layer F.SilkS) (width 0.12))
  (fp_line (start 61.4 -10.39) (end 61.4 71.35) (layer F.SilkS) (width 0.12))
  (fp_line (start 61.4 71.35) (end -6.34 71.35) (layer F.SilkS) (width 0.12))
  (fp_line (start -6.34 71.35) (end -6.34 -10.39) (layer F.SilkS) (width 0.12))
  (fp_line (start 1 -10.27) (end 61.28 -10.27) (layer F.Fab) (width 0.1))
  (fp_line (start 61.28 -10.27) (end 61.28 71.23) (layer F.Fab) (width 0.1))
  (fp_line (start 61.28 71.23) (end -6.22 71.23) (layer F.Fab) (width 0.1))
  (fp_line (start -6.22 71.23) (end -6.22 -10.27) (layer F.Fab) (width 0.1))
  (pad 1 thru_hole rect (at 0 0) (size 1.5 1.5) (drill 1) (layers *.Cu *.Mask))
  (pad 2 thru_hole circle (at 2.54 0) (size 1.5 1.5) (drill 1) (layers *.Cu *.Mask))
  (pad 3 thru_hole circle (at 5.08 0) (size 1.5 1.5) (drill 1) (layers *.Cu *.Mask))
  (pad 4 thru_hole circle (at 7.62 0) (size 1.5 1.5) (drill 1) (layers *.Cu *.Mask))
  (pad 5 thru_hole circle (at 10.16 0) (size 1.5 1.5) (drill 1) (layers *.Cu *.Mask))
  (pad 6 thru_hole circle (at 12.7 0) (size 1.5 1.5) (drill 1) (layers *.Cu *.Mask))
  (pad 7 thru_hole circle (at 15.24 0) (size 1.5 1.5) (drill 1) (layers *.Cu *.Mask))
  (pad 8 thru_hole circle (at 17.78 0) (size 1.5 1.5) (drill 1) (layers *.Cu *.Mask))
  (pad 9 thru_hole circle (at 20.32 0) (size 1.5 1.5) (drill 1) (layers *.Cu *.Mask))
  (pad 10 thru_hole circle (at 22.86 0) (size 1.5 1.5) (drill 1) (layers *.Cu *.Mask))
  (pad 11 thru_hole circle (at 25.4 0) (size 1.5 1.5) (drill 1) (layers *.Cu *.Mask))
  (pad 12 thru_hole circle (at 27.94 0) (size 1.5 1.5) (drill 1) (layers *.Cu *.Mask))
  (pad 13 thru_hole circle (at 30.48 0) (size 1.5 1.5) (drill 1) (layers *.Cu *.Mask))
  (pad 14 thru_hole circle (at 33.02 0) (size 1.5 1.5) (drill 1) (layers *.Cu *.Mask))
  (pad 15 thru_hole circle (at 35.56 0) (size 1.5 1.5) (drill 1) (layers *.Cu *.Mask))
  (pad 16 thru_hole circle (at 38.1 0) (size 1.5 1.5) (drill 1) (layers *.Cu *.Mask))
  (pad 17 thru_hole circle (at 40.64 0) (size 1.5 1.5) (drill 1) (layers *.Cu *.Mask))
  (pad 18 thru_hole circle (at 43.18 0) (size 1.5 1.5) (drill 1) (layers *.Cu *.Mask))
  (pad 19 thru_hole circle (at 45.72 0) (size 1.5 1.5) (drill 1) (layers *.Cu *.Mask))
  (pad 20 thru_hole circle (at 48.26 0) (size 1.5 1.5) (drill 1) (layers *.Cu *.Mask))
  (pad 21 thru_hole circle (at 48.26 60.96) (size 1.5 1.5) (drill 1) (layers *.Cu *.Mask))
  (pad 22 thru_hole circle (at 45.72 60.96) (size 1.5 1.5) (drill 1) (layers *.Cu *.Mask))
  (pad 23 thru_hole circle (at 43.18 60.96) (size 1.5 1.5) (drill 1) (layers *.Cu *.Mask))
  (pad 24 thru_hole circle (at 40.64 60.96) (size 1.5 1.5) (drill 1) (layers *.Cu *.Mask))
  (pad 25 thru_hole circle (at 38.1 60.96) (size 1.5 1.5) (drill 1) (layers *.Cu *.Mask))
  (pad 26 thru_hole circle (at 35.56 60.96) (size 1.5 1.5) (drill 1) (layers *.Cu *.Mask))
  (pad 27 thru_hole circle (at 33.02 60.96) (size 1.5 1.5) (drill 1) (layers *.Cu *.Mask))
  (pad 28 thru_hole circle (at 30.48 60.96) (size 1.5 1.5) (drill 1) (layers *.Cu *.Mask))
  (pad 29 thru_hole circle (at 27.94 60.96) (size 1.5 1.5) (drill 1) (layers *.Cu *.Mask))
  (pad 30 thru_hole circle (at 25.4 60.96) (size 1.5 1.5) (drill 1) (layers *.Cu *.Mask))
  (pad 31 thru_hole circle (at 22.86 60.96) (size 1.5 1.5) (drill 1) (layers *.Cu *.Mask))
  (pad 32 thru_hole circle (at 20.32 60.96) (size 1.5 1.5) (drill 1) (layers *.Cu *.Mask))
  (pad 33 thru_hole circle (at 17.78 60.96) (size 1.5 1.5) (drill 1) (layers *.Cu *.Mask))
  (pad 34 thru_hole circle (at 15.24 60.96) (size 1.5 1.5) (drill 1) (layers *.Cu *.Mask))
  (pad 35 thru_hole circle (at 12.7 60.96) (size 1.5 1.5) (drill 1) (layers *.Cu *.Mask))
  (pad 36 thru_hole circle (at 10.16 60.96) (size 1.5 1.5) (drill 1) (layers *.Cu *.Mask))
  (pad 37 thru_hole circle (at 7.62 60.96) (size 1.5 1.5) (drill 1) (layers *.Cu *.Mask))
  (pad 38 thru_hole circle (at 5.08 60.96) (size 1.5 1.5) (drill 1) (layers *.Cu *.Mask))
  (pad 39 thru_hole circle (at 2.54 60.96) (size 1.5 1.5) (drill 1) (layers *.Cu *.Mask))
  (pad 40 thru_hole circle (at 0 60.96) (size 1.5 1.5) (drill 1) (layers *.Cu *.Mask))
  (model ${KICAD6_3DMODEL_DIR}/Display.3dshapes/EA_eDIP160-XXX.wrl
    (at (xyz 0 0 0))
    (scale (xyz 1 1 1))
    (rotate (xyz 0 0 0))
  )
)
