(module SW_Cherry_MX_ISOEnter_PCB (layer F.Cu) (tedit 5A02FE24)
  (descr "Cherry MX keyswitch, ISO Enter, PCB mount, http://cherryamericas.com/wp-content/uploads/2014/12/mx_cat.pdf")
  (tags "Cherry MX keyswitch ISO enter PCB")
  (fp_text reference REF** (at -2.54 -2.794) (layer F.SilkS)
    (effects (font (size 1 1) (thickness 0.15)))
  )
  (fp_text value SW_Cherry_MX_ISOEnter_PCB (at -2.286 13.208) (layer F.Fab)
    (effects (font (size 1 1) (thickness 0.15)))
  )
  (fp_text user %R (at -2.54 -2.794) (layer F.Fab)
    (effects (font (size 1 1) (thickness 0.15)))
  )
  (fp_line (start -8.89 -1.27) (end 3.81 -1.27) (layer F.Fab) (width 0.1))
  (fp_line (start 3.81 -1.27) (end 3.81 11.43) (layer F.Fab) (width 0.1))
  (fp_line (start 3.81 11.43) (end -8.89 11.43) (layer F.Fab) (width 0.1))
  (fp_line (start -8.89 11.43) (end -8.89 -1.27) (layer F.Fab) (width 0.1))
  (fp_line (start -9.14 11.68) (end -9.14 -1.52) (layer F.CrtYd) (width 0.05))
  (fp_line (start 4.06 11.68) (end -9.14 11.68) (layer F.CrtYd) (width 0.05))
  (fp_line (start 4.06 -1.52) (end 4.06 11.68) (layer F.CrtYd) (width 0.05))
  (fp_line (start -9.14 -1.52) (end 4.06 -1.52) (layer F.CrtYd) (width 0.05))
  (fp_line (start -14.44625 24.13) (end -14.44625 5.08) (layer Dwgs.User) (width 0.15))
  (fp_line (start -19.20875 -13.97) (end 9.36625 -13.97) (layer Dwgs.User) (width 0.15))
  (fp_line (start 9.36625 -13.97) (end 9.36625 24.13) (layer Dwgs.User) (width 0.15))
  (fp_line (start 9.36625 24.13) (end -14.44625 24.13) (layer Dwgs.User) (width 0.15))
  (fp_line (start -19.20875 5.08) (end -19.20875 -13.97) (layer Dwgs.User) (width 0.15))
  (fp_line (start -14.44625 5.08) (end -19.20875 5.08) (layer Dwgs.User) (width 0.15))
  (fp_line (start -9.525 -1.905) (end 4.445 -1.905) (layer F.SilkS) (width 0.12))
  (fp_line (start 4.445 -1.905) (end 4.445 12.065) (layer F.SilkS) (width 0.12))
  (fp_line (start 4.445 12.065) (end -9.525 12.065) (layer F.SilkS) (width 0.12))
  (fp_line (start -9.525 12.065) (end -9.525 -1.905) (layer F.SilkS) (width 0.12))
  (pad 1 thru_hole circle (at 0 0) (size 2.2 2.2) (drill 1.5) (layers *.Cu *.Mask))
  (pad 2 thru_hole circle (at -6.35 2.54) (size 2.2 2.2) (drill 1.5) (layers *.Cu *.Mask))
  (pad "" np_thru_hole circle (at -2.54 5.08) (size 4 4) (drill 4) (layers *.Cu *.Mask))
  (pad "" np_thru_hole circle (at -7.62 5.08) (size 1.7 1.7) (drill 1.7) (layers *.Cu *.Mask))
  (pad "" np_thru_hole circle (at 2.54 5.08) (size 1.7 1.7) (drill 1.7) (layers *.Cu *.Mask))
  (pad "" np_thru_hole circle (at 5.7 -6.82) (size 4 4) (drill 4) (layers *.Cu *.Mask))
  (pad "" np_thru_hole circle (at 5.7 16.98) (size 4 4) (drill 4) (layers *.Cu *.Mask))
  (pad "" np_thru_hole circle (at -9.54 16.98) (size 3.05 3.05) (drill 3.05) (layers *.Cu *.Mask))
  (pad "" np_thru_hole circle (at -9.54 -6.82) (size 3.05 3.05) (drill 3.05) (layers *.Cu *.Mask))
  (model ${KICAD6_3DMODEL_DIR}/Button_Switch_Keyboard.3dshapes/SW_Cherry_MX_ISOEnter_PCB.wrl
    (at (xyz 0 0 0))
    (scale (xyz 1 1 1))
    (rotate (xyz 0 0 0))
  )
)
