(module SW_Matias_2.00u (layer F.Cu) (tedit 5A097635)
  (descr "Matias/ALPS keyswitch, 2.00u, http://matias.ca/switches/")
  (tags "Matias ALPS keyswitch 2.00u")
  (fp_text reference REF** (at -2.5 -3.75) (layer F.SilkS)
    (effects (font (size 1 1) (thickness 0.15)))
  )
  (fp_text value SW_Matias_2.00u (at -2.5 12.75) (layer F.Fab)
    (effects (font (size 1 1) (thickness 0.15)))
  )
  (fp_text user %R (at -2.5 4.5) (layer F.Fab)
    (effects (font (size 1 1) (thickness 0.15)))
  )
  (fp_line (start 6.1 -2.5) (end 6.1 11.5) (layer F.Fab) (width 0.1))
  (fp_line (start 6.1 11.5) (end -11.1 11.5) (layer F.Fab) (width 0.1))
  (fp_line (start -11.1 11.5) (end -11.1 -2.5) (layer F.Fab) (width 0.1))
  (fp_line (start -11.1 -2.5) (end 6.1 -2.5) (layer F.Fab) (width 0.1))
  (fp_line (start -11.35 11.75) (end 6.35 11.75) (layer F.CrtYd) (width 0.05))
  (fp_line (start -11.35 -2.75) (end -11.35 11.75) (layer F.CrtYd) (width 0.05))
  (fp_line (start 6.35 11.75) (end 6.35 -2.75) (layer F.CrtYd) (width 0.05))
  (fp_line (start -11.35 -2.75) (end 6.35 -2.75) (layer F.CrtYd) (width 0.05))
  (fp_line (start -21.55 -5.025) (end 16.55 -5.025) (layer Dwgs.User) (width 0.15))
  (fp_line (start 16.55 -5.025) (end 16.55 14.025) (layer Dwgs.User) (width 0.15))
  (fp_line (start 16.55 14.025) (end -21.55 14.025) (layer Dwgs.User) (width 0.15))
  (fp_line (start -21.55 14.025) (end -21.55 -5.025) (layer Dwgs.User) (width 0.15))
  (fp_line (start -11.35 -2.75) (end 6.35 -2.75) (layer F.SilkS) (width 0.12))
  (fp_line (start -11.35 11.75) (end -11.35 -2.75) (layer F.SilkS) (width 0.12))
  (fp_line (start 6.35 11.75) (end -11.35 11.75) (layer F.SilkS) (width 0.12))
  (fp_line (start 6.35 -2.75) (end 6.35 11.75) (layer F.SilkS) (width 0.12))
  (pad 1 thru_hole circle (at 0 0) (size 2.2 2.2) (drill 1.5) (layers *.Cu *.Mask))
  (pad 2 thru_hole circle (at -5 0.5) (size 2.2 2.2) (drill 1.5) (layers *.Cu *.Mask))
  (model ${KICAD6_3DMODEL_DIR}/Button_Switch_Keyboard.3dshapes/SW_Matias_2.00u.wrl
    (at (xyz 0 0 0))
    (scale (xyz 1 1 1))
    (rotate (xyz 0 0 0))
  )
)
