(footprint "Fuseholder_Littelfuse_445_030_series_5x30mm" (version 20210722) (generator pcbnew) (layer "F.Cu")
  (tedit 61101565)
  (descr "Littelfuse clips, https://www.littelfuse.com/~/media/electronics/datasheets/fuse_clips/littelfuse_fuse_clip_100_445_030_520_datasheet.pdf.pdf")
  (tags "Fuseholder clips")
  (attr through_hole)
  (fp_text reference "REF**" (at 15.5 -3.95 unlocked) (layer "F.SilkS")
    (effects (font (size 1 1) (thickness 0.15)))
    (tstamp 39c6136e-0a8f-4336-a360-7ead8674fccd)
  )
  (fp_text value "Fuseholder_Littelfuse_445_030_series_5x30mm" (at 15.5 3.95 unlocked) (layer "F.Fab")
    (effects (font (size 1 1) (thickness 0.15)))
    (tstamp 59a9c8cd-6ac9-4239-b543-c389c677d275)
  )
  (fp_text user "${REFERENCE}" (at 15.5 0 unlocked) (layer "F.Fab")
    (effects (font (size 1 1) (thickness 0.15)))
    (tstamp ca5a56ff-6673-4280-b756-d104a088623c)
  )
  (fp_line (start 32.75 2.7) (end -1.75 2.7) (layer "F.SilkS") (width 0.12) (tstamp 27cc420a-8ca3-411a-89a4-3d068b5a8b54))
  (fp_line (start 32.75 -2.7) (end 32.75 2.7) (layer "F.SilkS") (width 0.12) (tstamp 376435b8-fce0-49d0-b970-7c561286ef74))
  (fp_line (start -1.75 -2.7) (end 32.75 -2.7) (layer "F.SilkS") (width 0.12) (tstamp 5b58dea5-4da7-49b2-9e26-d05876238dbe))
  (fp_line (start -1.75 2.7) (end -1.75 -2.7) (layer "F.SilkS") (width 0.12) (tstamp 67c7497f-dfc7-462c-b738-a9147d635139))
  (fp_line (start -1.9 2.85) (end -1.9 -2.85) (layer "F.CrtYd") (width 0.05) (tstamp 010630fa-1353-4622-bde1-3c244e3a7645))
  (fp_line (start 32.9 -2.85) (end 32.9 2.85) (layer "F.CrtYd") (width 0.05) (tstamp 02ac7295-0c6a-441d-a19e-9298f401ffc7))
  (fp_line (start -1.9 -2.85) (end 32.9 -2.85) (layer "F.CrtYd") (width 0.05) (tstamp 35ca2fd0-b35f-4572-8436-a695c5ca7b34))
  (fp_line (start 32.9 2.85) (end -1.9 2.85) (layer "F.CrtYd") (width 0.05) (tstamp a80a8464-f729-4337-a17f-afc7d8239f36))
  (fp_line (start 32.65 -2.6) (end 32.65 2.6) (layer "F.Fab") (width 0.1) (tstamp 3b8219e0-b1ff-453e-a561-2be3415677fd))
  (fp_line (start -1.65 -2.6) (end 32.65 -2.6) (layer "F.Fab") (width 0.1) (tstamp a21be958-55a8-4229-adfc-c9e71cc714ef))
  (fp_line (start 32.65 2.6) (end -1.65 2.6) (layer "F.Fab") (width 0.1) (tstamp c46d9e3d-26c0-4b75-a4a3-580a8e8b2ea4))
  (fp_line (start -1.65 2.6) (end -1.65 -2.6) (layer "F.Fab") (width 0.1) (tstamp faa26da9-f0d9-4eae-be84-40c6531afefb))
  (pad "1" thru_hole circle (at 0 0) (size 2.3 2.3) (drill 1.3) (layers *.Cu *.Mask) (tstamp ac8da3e4-776d-43fa-83ac-3a03c9c311a5))
  (pad "1" thru_hole circle (at 5.2 0) (size 2.3 2.3) (drill 1.3) (layers *.Cu *.Mask) (tstamp cf29ddc0-0dca-4a8b-b755-08eca97c4fe6))
  (pad "2" thru_hole circle (at 25.8 0) (size 2.3 2.3) (drill 1.3) (layers *.Cu *.Mask) (tstamp 908030ef-b43c-4846-8d7e-1b61d36a8608))
  (pad "2" thru_hole circle (at 31 0) (size 2.3 2.3) (drill 1.3) (layers *.Cu *.Mask) (tstamp ea392b46-5484-4674-bc33-566de616cd91))
  (model "${KICAD6_3DMODEL_DIR}/Fuse.3dshapes/Fuseholder_Littelfuse_445_030_series_5x30mm.wrl"
    (offset (xyz 0 0 0))
    (scale (xyz 1 1 1))
    (rotate (xyz 0 0 0))
  )
)
