(module Fuseholder_Cylinder-5x20mm_Wuerth_696103101002-SMD_Horizontal_Open (layer F.Cu) (tedit 60B895D8)
  (descr "Fuseholder horizontal open 5x20mm 250V 10A Würth 696103101002")
  (tags "Fuseholder horizontal open 5x20mm 250V 10A")
  (attr smd)
  (fp_text reference REF** (at 0 -6.25) (layer F.SilkS)
    (effects (font (size 1 1) (thickness 0.15)))
  )
  (fp_text value Fuseholder_Cylinder-5x20mm_Wuerth_696103101002-SMD_Horizontal_Open (at 0 -0.5) (layer F.Fab)
    (effects (font (size 1 1) (thickness 0.15)))
  )
  (fp_line (start 12.4 4.8) (end -12.4 4.8) (layer F.Fab) (width 0.1))
  (fp_line (start -12.4 -4.8) (end 12.4 -4.8) (layer F.Fab) (width 0.1))
  (fp_line (start 12.4 -4.8) (end 12.4 4.8) (layer F.Fab) (width 0.1))
  (fp_line (start -12.4 -4.8) (end -12.4 4.8) (layer F.Fab) (width 0.1))
  (fp_line (start -12.5 -4.9) (end 12.5 -4.9) (layer F.SilkS) (width 0.12))
  (fp_line (start 12.5 -4.9) (end 12.5 4.9) (layer F.SilkS) (width 0.12))
  (fp_line (start 12.5 4.9) (end -12.5 4.9) (layer F.SilkS) (width 0.12))
  (fp_line (start -12.5 4.9) (end -12.5 -4.9) (layer F.SilkS) (width 0.12))
  (fp_line (start -12.65 -5.05) (end 12.65 -5.05) (layer F.CrtYd) (width 0.05))
  (fp_line (start 12.65 -5.05) (end 12.65 5.05) (layer F.CrtYd) (width 0.05))
  (fp_line (start 12.65 5.05) (end -12.65 5.05) (layer F.CrtYd) (width 0.05))
  (fp_line (start -12.65 5.05) (end -12.65 -5.05) (layer F.CrtYd) (width 0.05))
  (pad 1 smd rect (at -8.5 0) (size 6 6) (layers F.Cu F.Paste F.Mask))
  (pad 2 smd rect (at 8.5 0) (size 6 6) (layers F.Cu F.Paste F.Mask))
  (fp_text user %R (at 0 -6.25) (layer F.Fab)
    (effects (font (size 1 1) (thickness 0.15)))
  )
  (fp_text user ${REFERENCE} (at 0 -6.25) (layer F.Fab)
    (effects (font (size 1 1) (thickness 0.15)))
  )
  (model ${KICAD6_3DMODEL_DIR}/Fuse.3dshapes/Fuseholder_Cylinder-5x20mm_Wuerth_696103101002-SMD_Horizontal_Open.wrl
    (at (xyz 0 0 0))
    (scale (xyz 1 1 1))
    (rotate (xyz 0 0 0))
  )
)
