(module Analog_LFCSP-8-1EP_3x3mm_P0.5mm_EP1.53x1.85mm (layer F.Cu) (tedit 5AA6C336)
  (descr "LFCSP, exposed pad, Analog Devices (http://www.analog.com/media/en/technical-documentation/data-sheets/ADL5542.pdf)")
  (tags "LFCSP 8 0.5")
  (attr smd)
  (fp_text reference REF** (at 0 -2.5) (layer F.SilkS)
    (effects (font (size 1 1) (thickness 0.15)))
  )
  (fp_text value Analog_LFCSP-8-1EP_3x3mm_P0.5mm_EP1.53x1.85mm (at 0 2.5) (layer F.Fab)
    (effects (font (size 1 1) (thickness 0.15)))
  )
  (fp_text user %R (at 0 0 180) (layer F.Fab)
    (effects (font (size 0.7 0.7) (thickness 0.15)))
  )
  (fp_line (start -1 -1.5) (end -1.5 -1) (layer F.Fab) (width 0.1))
  (fp_line (start -1.98 1.75) (end -1.98 -1.75) (layer F.CrtYd) (width 0.05))
  (fp_line (start 1.98 1.75) (end -1.98 1.75) (layer F.CrtYd) (width 0.05))
  (fp_line (start 1.98 -1.75) (end 1.98 1.75) (layer F.CrtYd) (width 0.05))
  (fp_line (start -1.98 -1.75) (end 1.98 -1.75) (layer F.CrtYd) (width 0.05))
  (fp_line (start 1.5 1.5) (end 1.5 -1.5) (layer F.Fab) (width 0.1))
  (fp_line (start 1.5 1.5) (end -1.5 1.5) (layer F.Fab) (width 0.1))
  (fp_line (start -1.5 -1) (end -1.5 1.5) (layer F.Fab) (width 0.1))
  (fp_line (start -1 -1.5) (end 1.5 -1.5) (layer F.Fab) (width 0.1))
  (fp_line (start 1.62 -1.62) (end -1.62 -1.62) (layer F.SilkS) (width 0.12))
  (fp_line (start 1.62 -1.62) (end 1.62 -1.15) (layer F.SilkS) (width 0.12))
  (fp_line (start 1.62 1.15) (end 1.62 1.62) (layer F.SilkS) (width 0.12))
  (fp_line (start 1.62 1.62) (end -1.62 1.62) (layer F.SilkS) (width 0.12))
  (fp_line (start -1.62 1.62) (end -1.62 1.15) (layer F.SilkS) (width 0.12))
  (pad 1 smd rect (at -1.37 -0.75) (size 0.71 0.28) (layers F.Cu F.Paste F.Mask))
  (pad "" smd rect (at -1.37 -0.25) (size 0.71 0.28) (layers F.Paste F.Mask))
  (pad "" smd rect (at 1.37 -0.25) (size 0.71 0.28) (layers F.Paste F.Mask))
  (pad "" smd rect (at -1.37 0.25) (size 0.71 0.28) (layers F.Paste F.Mask))
  (pad "" smd rect (at 1.37 0.25) (size 0.71 0.28) (layers F.Paste F.Mask))
  (pad 2 smd rect (at 0 -0.25) (size 3.45 0.28) (layers F.Cu))
  (pad 4 smd rect (at -1.37 0.75) (size 0.71 0.28) (layers F.Cu F.Paste F.Mask))
  (pad 5 smd rect (at 1.37 0.75) (size 0.71 0.28) (layers F.Cu F.Paste F.Mask))
  (pad 8 smd rect (at 1.37 -0.75) (size 0.71 0.28) (layers F.Cu F.Paste F.Mask))
  (pad 2 smd rect (at 0 0) (size 1.53 1.85) (layers F.Cu F.Mask))
  (pad "" smd rect (at 0 0) (size 1.2 1.55) (layers F.Paste))
  (pad 2 smd rect (at 0 0.25) (size 3.45 0.28) (layers F.Cu))
  (model ${KICAD6_3DMODEL_DIR}/Package_CSP.3dshapes/LFCSP-8-1EP_3x3mm_P0.5mm_EP1.53x1.85mm.wrl
    (at (xyz 0 0 0))
    (scale (xyz 1 1 1))
    (rotate (xyz 0 0 0))
  )
)
