(module LFCSP-16-1EP_4x4mm_P0.65mm_EP2.4x2.4mm_ThermalVias (layer F.Cu) (tedit 5DC5F696)
  (descr "LFCSP, 16 Pin (https://www.analog.com/media/en/package-pcb-resources/package/pkg_pdf/lfcspcp/cp-16/cp-16-40.pdf), generated with kicad-footprint-generator ipc_noLead_generator.py")
  (tags "LFCSP NoLead")
  (attr smd)
  (fp_text reference REF** (at 0 -3.32) (layer F.SilkS)
    (effects (font (size 1 1) (thickness 0.15)))
  )
  (fp_text value LFCSP-16-1EP_4x4mm_P0.65mm_EP2.4x2.4mm_ThermalVias (at 0 3.32) (layer F.Fab)
    (effects (font (size 1 1) (thickness 0.15)))
  )
  (fp_line (start 1.41 -2.11) (end 2.11 -2.11) (layer F.SilkS) (width 0.12))
  (fp_line (start 2.11 -2.11) (end 2.11 -1.41) (layer F.SilkS) (width 0.12))
  (fp_line (start -1.41 2.11) (end -2.11 2.11) (layer F.SilkS) (width 0.12))
  (fp_line (start -2.11 2.11) (end -2.11 1.41) (layer F.SilkS) (width 0.12))
  (fp_line (start 1.41 2.11) (end 2.11 2.11) (layer F.SilkS) (width 0.12))
  (fp_line (start 2.11 2.11) (end 2.11 1.41) (layer F.SilkS) (width 0.12))
  (fp_line (start -1.41 -2.11) (end -2.11 -2.11) (layer F.SilkS) (width 0.12))
  (fp_line (start -1 -2) (end 2 -2) (layer F.Fab) (width 0.1))
  (fp_line (start 2 -2) (end 2 2) (layer F.Fab) (width 0.1))
  (fp_line (start 2 2) (end -2 2) (layer F.Fab) (width 0.1))
  (fp_line (start -2 2) (end -2 -1) (layer F.Fab) (width 0.1))
  (fp_line (start -2 -1) (end -1 -2) (layer F.Fab) (width 0.1))
  (fp_line (start -2.62 -2.62) (end -2.62 2.62) (layer F.CrtYd) (width 0.05))
  (fp_line (start -2.62 2.62) (end 2.62 2.62) (layer F.CrtYd) (width 0.05))
  (fp_line (start 2.62 2.62) (end 2.62 -2.62) (layer F.CrtYd) (width 0.05))
  (fp_line (start 2.62 -2.62) (end -2.62 -2.62) (layer F.CrtYd) (width 0.05))
  (pad 1 smd roundrect (at -1.8875 -0.975) (size 0.975 0.35) (layers F.Cu F.Mask F.Paste) (roundrect_rratio 0.25))
  (pad 2 smd roundrect (at -1.8875 -0.325) (size 0.975 0.35) (layers F.Cu F.Mask F.Paste) (roundrect_rratio 0.25))
  (pad 3 smd roundrect (at -1.8875 0.325) (size 0.975 0.35) (layers F.Cu F.Mask F.Paste) (roundrect_rratio 0.25))
  (pad 4 smd roundrect (at -1.8875 0.975) (size 0.975 0.35) (layers F.Cu F.Mask F.Paste) (roundrect_rratio 0.25))
  (pad 5 smd roundrect (at -0.975 1.8875) (size 0.35 0.975) (layers F.Cu F.Mask F.Paste) (roundrect_rratio 0.25))
  (pad 6 smd roundrect (at -0.325 1.8875) (size 0.35 0.975) (layers F.Cu F.Mask F.Paste) (roundrect_rratio 0.25))
  (pad 7 smd roundrect (at 0.325 1.8875) (size 0.35 0.975) (layers F.Cu F.Mask F.Paste) (roundrect_rratio 0.25))
  (pad 8 smd roundrect (at 0.975 1.8875) (size 0.35 0.975) (layers F.Cu F.Mask F.Paste) (roundrect_rratio 0.25))
  (pad 9 smd roundrect (at 1.8875 0.975) (size 0.975 0.35) (layers F.Cu F.Mask F.Paste) (roundrect_rratio 0.25))
  (pad 10 smd roundrect (at 1.8875 0.325) (size 0.975 0.35) (layers F.Cu F.Mask F.Paste) (roundrect_rratio 0.25))
  (pad 11 smd roundrect (at 1.8875 -0.325) (size 0.975 0.35) (layers F.Cu F.Mask F.Paste) (roundrect_rratio 0.25))
  (pad 12 smd roundrect (at 1.8875 -0.975) (size 0.975 0.35) (layers F.Cu F.Mask F.Paste) (roundrect_rratio 0.25))
  (pad 13 smd roundrect (at 0.975 -1.8875) (size 0.35 0.975) (layers F.Cu F.Mask F.Paste) (roundrect_rratio 0.25))
  (pad 14 smd roundrect (at 0.325 -1.8875) (size 0.35 0.975) (layers F.Cu F.Mask F.Paste) (roundrect_rratio 0.25))
  (pad 15 smd roundrect (at -0.325 -1.8875) (size 0.35 0.975) (layers F.Cu F.Mask F.Paste) (roundrect_rratio 0.25))
  (pad 16 smd roundrect (at -0.975 -1.8875) (size 0.35 0.975) (layers F.Cu F.Mask F.Paste) (roundrect_rratio 0.25))
  (pad 17 smd rect (at 0 0) (size 2.4 2.4) (layers F.Cu F.Mask))
  (pad 17 thru_hole circle (at -0.9 -0.9) (size 0.6 0.6) (drill 0.3) (layers *.Cu))
  (pad 17 thru_hole circle (at 0 -0.9) (size 0.6 0.6) (drill 0.3) (layers *.Cu))
  (pad 17 thru_hole circle (at 0.9 -0.9) (size 0.6 0.6) (drill 0.3) (layers *.Cu))
  (pad 17 thru_hole circle (at -0.9 0) (size 0.6 0.6) (drill 0.3) (layers *.Cu))
  (pad 17 thru_hole circle (at 0 0) (size 0.6 0.6) (drill 0.3) (layers *.Cu))
  (pad 17 thru_hole circle (at 0.9 0) (size 0.6 0.6) (drill 0.3) (layers *.Cu))
  (pad 17 thru_hole circle (at -0.9 0.9) (size 0.6 0.6) (drill 0.3) (layers *.Cu))
  (pad 17 thru_hole circle (at 0 0.9) (size 0.6 0.6) (drill 0.3) (layers *.Cu))
  (pad 17 thru_hole circle (at 0.9 0.9) (size 0.6 0.6) (drill 0.3) (layers *.Cu))
  (pad 17 smd rect (at 0 0) (size 2.4 2.4) (layers B.Cu))
  (pad "" smd roundrect (at -0.6 -0.6) (size 1.04 1.04) (layers F.Paste) (roundrect_rratio 0.240385))
  (pad "" smd roundrect (at -0.6 0.6) (size 1.04 1.04) (layers F.Paste) (roundrect_rratio 0.240385))
  (pad "" smd roundrect (at 0.6 -0.6) (size 1.04 1.04) (layers F.Paste) (roundrect_rratio 0.240385))
  (pad "" smd roundrect (at 0.6 0.6) (size 1.04 1.04) (layers F.Paste) (roundrect_rratio 0.240385))
  (fp_text user %R (at 0 0) (layer F.Fab)
    (effects (font (size 1 1) (thickness 0.15)))
  )
  (model ${KICAD6_3DMODEL_DIR}/Package_CSP.3dshapes/LFCSP-16-1EP_4x4mm_P0.65mm_EP2.4x2.4mm.wrl
    (at (xyz 0 0 0))
    (scale (xyz 1 1 1))
    (rotate (xyz 0 0 0))
  )
)