(module LFCSP-8-1EP_3x3mm_P0.5mm_EP1.45x1.74mm (layer F.Cu) (tedit 5E3087BE)
  (descr "LFCSP, 8 Pin (https://www.analog.com/media/en/package-pcb-resources/package/pkg_pdf/lfcspcp/cp-8/CP_8_13.pdf), generated with kicad-footprint-generator ipc_noLead_generator.py")
  (tags "LFCSP NoLead")
  (attr smd)
  (fp_text reference REF** (at 0 -2.45) (layer F.SilkS)
    (effects (font (size 1 1) (thickness 0.15)))
  )
  (fp_text value LFCSP-8-1EP_3x3mm_P0.5mm_EP1.45x1.74mm (at 0 2.45) (layer F.Fab)
    (effects (font (size 1 1) (thickness 0.15)))
  )
  (fp_line (start 0 -1.61) (end 1.5 -1.61) (layer F.SilkS) (width 0.12))
  (fp_line (start -1.5 1.61) (end 1.5 1.61) (layer F.SilkS) (width 0.12))
  (fp_line (start -0.75 -1.5) (end 1.5 -1.5) (layer F.Fab) (width 0.1))
  (fp_line (start 1.5 -1.5) (end 1.5 1.5) (layer F.Fab) (width 0.1))
  (fp_line (start 1.5 1.5) (end -1.5 1.5) (layer F.Fab) (width 0.1))
  (fp_line (start -1.5 1.5) (end -1.5 -0.75) (layer F.Fab) (width 0.1))
  (fp_line (start -1.5 -0.75) (end -0.75 -1.5) (layer F.Fab) (width 0.1))
  (fp_line (start -1.82 -1.75) (end -1.82 1.75) (layer F.CrtYd) (width 0.05))
  (fp_line (start -1.82 1.75) (end 1.82 1.75) (layer F.CrtYd) (width 0.05))
  (fp_line (start 1.82 1.75) (end 1.82 -1.75) (layer F.CrtYd) (width 0.05))
  (fp_line (start 1.82 -1.75) (end -1.82 -1.75) (layer F.CrtYd) (width 0.05))
  (pad 1 smd roundrect (at -1.2875 -0.75) (size 0.575 0.35) (layers F.Cu F.Mask F.Paste) (roundrect_rratio 0.25))
  (pad 2 smd roundrect (at -1.2875 -0.25) (size 0.575 0.35) (layers F.Cu F.Mask F.Paste) (roundrect_rratio 0.25))
  (pad 3 smd roundrect (at -1.2875 0.25) (size 0.575 0.35) (layers F.Cu F.Mask F.Paste) (roundrect_rratio 0.25))
  (pad 4 smd roundrect (at -1.2875 0.75) (size 0.575 0.35) (layers F.Cu F.Mask F.Paste) (roundrect_rratio 0.25))
  (pad 5 smd roundrect (at 1.2875 0.75) (size 0.575 0.35) (layers F.Cu F.Mask F.Paste) (roundrect_rratio 0.25))
  (pad 6 smd roundrect (at 1.2875 0.25) (size 0.575 0.35) (layers F.Cu F.Mask F.Paste) (roundrect_rratio 0.25))
  (pad 7 smd roundrect (at 1.2875 -0.25) (size 0.575 0.35) (layers F.Cu F.Mask F.Paste) (roundrect_rratio 0.25))
  (pad 8 smd roundrect (at 1.2875 -0.75) (size 0.575 0.35) (layers F.Cu F.Mask F.Paste) (roundrect_rratio 0.25))
  (pad 9 smd rect (at 0 0) (size 1.45 1.74) (layers F.Cu F.Mask))
  (pad "" smd roundrect (at -0.365 -0.435) (size 0.58 0.7) (layers F.Paste) (roundrect_rratio 0.25))
  (pad "" smd roundrect (at -0.365 0.435) (size 0.58 0.7) (layers F.Paste) (roundrect_rratio 0.25))
  (pad "" smd roundrect (at 0.365 -0.435) (size 0.58 0.7) (layers F.Paste) (roundrect_rratio 0.25))
  (pad "" smd roundrect (at 0.365 0.435) (size 0.58 0.7) (layers F.Paste) (roundrect_rratio 0.25))
  (fp_text user %R (at 0 0) (layer F.Fab)
    (effects (font (size 0.75 0.75) (thickness 0.11)))
  )
  (model ${KICAD6_3DMODEL_DIR}/Package_CSP.3dshapes/LFCSP-8-1EP_3x3mm_P0.5mm_EP1.45x1.74mm.wrl
    (at (xyz 0 0 0))
    (scale (xyz 1 1 1))
    (rotate (xyz 0 0 0))
  )
)