(module LFCSP-20-1EP_4x4mm_P0.5mm_EP2.1x2.1mm (layer F.Cu) (tedit 5A0AA2C0)
  (descr "20-Lead Frame Chip Scale Package - 4x4x0.9 mm Body [LFCSP], (see http://www.analog.com/media/en/package-pcb-resources/package/pkg_pdf/lfcspcp/cp_20_6.pdf)")
  (tags "LFCSP 0.5")
  (attr smd)
  (fp_text reference REF** (at 0 -3.33) (layer F.SilkS)
    (effects (font (size 1 1) (thickness 0.15)))
  )
  (fp_text value LFCSP-20-1EP_4x4mm_P0.5mm_EP2.1x2.1mm (at 0 3.33) (layer F.Fab)
    (effects (font (size 1 1) (thickness 0.15)))
  )
  (fp_text user %R (at 0 0) (layer F.Fab)
    (effects (font (size 1 1) (thickness 0.15)))
  )
  (fp_line (start -1 -2) (end 2 -2) (layer F.Fab) (width 0.15))
  (fp_line (start 2 -2) (end 2 2) (layer F.Fab) (width 0.15))
  (fp_line (start 2 2) (end -2 2) (layer F.Fab) (width 0.15))
  (fp_line (start -2 2) (end -2 -1) (layer F.Fab) (width 0.15))
  (fp_line (start -2 -1) (end -1 -2) (layer F.Fab) (width 0.15))
  (fp_line (start -2.55 -2.55) (end -2.55 2.55) (layer F.CrtYd) (width 0.05))
  (fp_line (start 2.55 -2.55) (end 2.55 2.55) (layer F.CrtYd) (width 0.05))
  (fp_line (start -2.55 -2.55) (end 2.55 -2.55) (layer F.CrtYd) (width 0.05))
  (fp_line (start -2.55 2.55) (end 2.55 2.55) (layer F.CrtYd) (width 0.05))
  (fp_line (start 2.15 -2.15) (end 2.15 -1.375) (layer F.SilkS) (width 0.15))
  (fp_line (start -2.15 2.15) (end -2.15 1.375) (layer F.SilkS) (width 0.15))
  (fp_line (start 2.15 2.15) (end 2.15 1.375) (layer F.SilkS) (width 0.15))
  (fp_line (start -2.15 -2.15) (end -1.375 -2.15) (layer F.SilkS) (width 0.15))
  (fp_line (start -2.15 2.15) (end -1.375 2.15) (layer F.SilkS) (width 0.15))
  (fp_line (start 2.15 2.15) (end 1.375 2.15) (layer F.SilkS) (width 0.15))
  (fp_line (start 2.15 -2.15) (end 1.375 -2.15) (layer F.SilkS) (width 0.15))
  (pad 1 smd rect (at -1.83 -1) (size 0.95 0.3) (layers F.Cu F.Paste F.Mask))
  (pad 2 smd rect (at -1.83 -0.5) (size 0.95 0.3) (layers F.Cu F.Paste F.Mask))
  (pad 3 smd rect (at -1.83 0) (size 0.95 0.3) (layers F.Cu F.Paste F.Mask))
  (pad 4 smd rect (at -1.83 0.5) (size 0.95 0.3) (layers F.Cu F.Paste F.Mask))
  (pad 5 smd rect (at -1.83 1) (size 0.95 0.3) (layers F.Cu F.Paste F.Mask))
  (pad 6 smd rect (at -1 1.83 90) (size 0.95 0.3) (layers F.Cu F.Paste F.Mask))
  (pad 7 smd rect (at -0.5 1.83 90) (size 0.95 0.3) (layers F.Cu F.Paste F.Mask))
  (pad 8 smd rect (at 0 1.83 90) (size 0.95 0.3) (layers F.Cu F.Paste F.Mask))
  (pad 9 smd rect (at 0.5 1.83 90) (size 0.95 0.3) (layers F.Cu F.Paste F.Mask))
  (pad 10 smd rect (at 1 1.83 90) (size 0.95 0.3) (layers F.Cu F.Paste F.Mask))
  (pad 11 smd rect (at 1.83 1) (size 0.95 0.3) (layers F.Cu F.Paste F.Mask))
  (pad 12 smd rect (at 1.83 0.5) (size 0.95 0.3) (layers F.Cu F.Paste F.Mask))
  (pad 13 smd rect (at 1.83 0) (size 0.95 0.3) (layers F.Cu F.Paste F.Mask))
  (pad 14 smd rect (at 1.83 -0.5) (size 0.95 0.3) (layers F.Cu F.Paste F.Mask))
  (pad 15 smd rect (at 1.83 -1) (size 0.95 0.3) (layers F.Cu F.Paste F.Mask))
  (pad 16 smd rect (at 1 -1.83 90) (size 0.95 0.3) (layers F.Cu F.Paste F.Mask))
  (pad 17 smd rect (at 0.5 -1.83 90) (size 0.95 0.3) (layers F.Cu F.Paste F.Mask))
  (pad 18 smd rect (at 0 -1.83 90) (size 0.95 0.3) (layers F.Cu F.Paste F.Mask))
  (pad 19 smd rect (at -0.5 -1.83 90) (size 0.95 0.3) (layers F.Cu F.Paste F.Mask))
  (pad 20 smd rect (at -1 -1.83 90) (size 0.95 0.3) (layers F.Cu F.Paste F.Mask))
  (pad 21 smd rect (at 0 0) (size 2.1 2.1) (layers F.Cu F.Mask))
  (pad "" smd rect (at 0.525 0.525) (size 0.86 0.86) (layers F.Paste))
  (pad "" smd rect (at -0.525 -0.525) (size 0.86 0.86) (layers F.Paste))
  (pad "" smd rect (at 0.525 -0.525) (size 0.86 0.86) (layers F.Paste))
  (pad "" smd rect (at -0.525 0.5254) (size 0.86 0.86) (layers F.Paste))
  
  (model ${KICAD6_3DMODEL_DIR}/Package_CSP.3dshapes/LFCSP-20-1EP_4x4mm_P0.5mm.wrl
    (at (xyz 0 0 0))
    (scale (xyz 1 1 1))
    (rotate (xyz 0 0 0))
  )
)
