(module LFCSP-8-1EP_3x2mm_P0.5mm_EP1.6x1.65mm (layer F.Cu) (tedit 5AAEC2B5)
  (descr "LFCSP 8pin Pitch 0.5mm, http://www.analog.com/media/en/package-pcb-resources/package/57080735642908cp_8_4.pdf")
  (tags "LFCSP 8pin thermal pad 3x2mm Pitch 0.5mm")
  (attr smd)
  (fp_text reference REF** (at 0 -2) (layer F.SilkS)
    (effects (font (size 1 1) (thickness 0.15)))
  )
  (fp_text value LFCSP-8-1EP_3x2mm_P0.5mm_EP1.6x1.65mm (at 0 2) (layer F.Fab)
    (effects (font (size 1 1) (thickness 0.15)))
  )
  (fp_text user %R (at 0 0 180) (layer F.Fab)
    (effects (font (size 0.65 0.65) (thickness 0.0975)))
  )
  (fp_line (start -1 -1) (end -1.5 -0.5) (layer F.Fab) (width 0.1))
  (fp_line (start -1.9 1.3) (end -1.9 -1.3) (layer F.CrtYd) (width 0.05))
  (fp_line (start 1.9 1.3) (end -1.9 1.3) (layer F.CrtYd) (width 0.05))
  (fp_line (start 1.9 -1.3) (end 1.9 1.3) (layer F.CrtYd) (width 0.05))
  (fp_line (start -1.9 -1.3) (end 1.9 -1.3) (layer F.CrtYd) (width 0.05))
  (fp_line (start 1.5 1.16) (end -1.5 1.16) (layer F.SilkS) (width 0.12))
  (fp_line (start -1 -1.16) (end 1.5 -1.16) (layer F.SilkS) (width 0.12))
  (fp_line (start 1.5 1) (end 1.5 -1) (layer F.Fab) (width 0.1))
  (fp_line (start 1.5 1) (end -1.5 1) (layer F.Fab) (width 0.1))
  (fp_line (start -1.5 -0.5) (end -1.5 1) (layer F.Fab) (width 0.1))
  (fp_line (start -1 -1) (end 1.5 -1) (layer F.Fab) (width 0.1))
  (pad 1 smd rect (at -1.325 -0.75) (size 0.55 0.28) (layers F.Cu F.Paste F.Mask))
  (pad 2 smd rect (at -1.325 -0.25) (size 0.55 0.28) (layers F.Cu F.Paste F.Mask))
  (pad 3 smd rect (at -1.325 0.25) (size 0.55 0.28) (layers F.Cu F.Paste F.Mask))
  (pad 4 smd rect (at -1.325 0.75) (size 0.55 0.28) (layers F.Cu F.Paste F.Mask))
  (pad 5 smd rect (at 1.325 0.75) (size 0.55 0.28) (layers F.Cu F.Paste F.Mask))
  (pad 6 smd rect (at 1.325 0.25) (size 0.55 0.28) (layers F.Cu F.Paste F.Mask))
  (pad 7 smd rect (at 1.325 -0.25) (size 0.55 0.28) (layers F.Cu F.Paste F.Mask))
  (pad 8 smd rect (at 1.325 -0.75) (size 0.55 0.28) (layers F.Cu F.Paste F.Mask))
  (pad 9 smd rect (at 0 0) (size 1.6 1.65) (layers F.Cu F.Paste F.Mask))
  (model ${KICAD6_3DMODEL_DIR}/Package_CSP.3dshapes/LFCSP-8-1EP_3x2mm_P0.5mm_EP1.6x1.65mm.wrl
    (at (xyz 0 0 0))
    (scale (xyz 1 1 1))
    (rotate (xyz 0 0 0))
  )
)
