(module LFCSP-VQ-24-1EP_4x4mm_P0.5mm_EP2.642x2.642mm (layer F.Cu) (tedit 5A7A2B9D)
  (descr "LFCSP VQ, 24 pin, exposed pad, 4x4mm body, pitch 0.5mm (http://www.analog.com/media/en/package-pcb-resources/package/56702234806764cp_24_3.pdf, http://www.analog.com/media/en/technical-documentation/data-sheets/ADL5801.pdf)")
  (tags "LFCSP 0.5")
  (attr smd)
  (fp_text reference REF** (at 0 -3.33) (layer F.SilkS)
    (effects (font (size 1 1) (thickness 0.15)))
  )
  (fp_text value LFCSP-VQ-24-1EP_4x4mm_P0.5mm_EP2.642x2.642mm (at 0 3.33) (layer F.Fab)
    (effects (font (size 1 1) (thickness 0.15)))
  )
  (fp_text user %R (at 0 0) (layer F.Fab)
    (effects (font (size 1 1) (thickness 0.15)))
  )
  (fp_line (start -1.4 -2) (end 1.4 -2) (layer F.Fab) (width 0.1))
  (fp_line (start 2 -1.4) (end 2 1.4) (layer F.Fab) (width 0.1))
  (fp_line (start 1.4 2) (end -1.4 2) (layer F.Fab) (width 0.1))
  (fp_line (start -2 1.4) (end -2 -1.4) (layer F.Fab) (width 0.1))
  (fp_line (start -2.55 -2.55) (end -2.55 2.55) (layer F.CrtYd) (width 0.05))
  (fp_line (start 2.55 -2.55) (end 2.55 2.55) (layer F.CrtYd) (width 0.05))
  (fp_line (start -2.55 -2.55) (end 2.55 -2.55) (layer F.CrtYd) (width 0.05))
  (fp_line (start -2.55 2.55) (end 2.55 2.55) (layer F.CrtYd) (width 0.05))
  (fp_line (start -2 1.4) (end -1.4 2) (layer F.Fab) (width 0.1))
  (fp_line (start 1.4 2) (end 2 1.4) (layer F.Fab) (width 0.1))
  (fp_line (start 1.4 -2) (end 2 -1.4) (layer F.Fab) (width 0.1))
  (fp_line (start -2 -1.4) (end -1.4 -2) (layer F.Fab) (width 0.1))
  (fp_line (start -1.675 1.875) (end -1.875 1.675) (layer F.SilkS) (width 0.12))
  (fp_line (start -1.2 -2) (end -2 -1.2) (layer F.Fab) (width 0.1))
  (fp_circle (center -2 -2) (end -2.05 -2) (layer F.SilkS) (width 0.12))
  (fp_line (start 1.675 1.875) (end 1.875 1.675) (layer F.SilkS) (width 0.12))
  (fp_line (start 1.875 -1.675) (end 1.675 -1.875) (layer F.SilkS) (width 0.12))
  (fp_line (start -1.675 -1.875) (end -1.875 -1.675) (layer F.SilkS) (width 0.12))
  (pad 25 smd rect (at 0 0) (size 2.642 2.642) (layers F.Cu F.Mask))
  (pad 2 smd rect (at -1.8925 -0.75) (size 0.813 0.305) (layers F.Cu F.Paste F.Mask))
  (pad 1 smd rect (at -1.8925 -1.25) (size 0.813 0.305) (layers F.Cu F.Paste F.Mask))
  (pad 3 smd rect (at -1.8925 -0.25) (size 0.813 0.305) (layers F.Cu F.Paste F.Mask))
  (pad 4 smd rect (at -1.8925 0.25) (size 0.813 0.305) (layers F.Cu F.Paste F.Mask))
  (pad 5 smd rect (at -1.8925 0.75) (size 0.813 0.305) (layers F.Cu F.Paste F.Mask))
  (pad 6 smd rect (at -1.8925 1.25) (size 0.813 0.305) (layers F.Cu F.Paste F.Mask))
  (pad 7 smd rect (at -1.25 1.8925 90) (size 0.813 0.305) (layers F.Cu F.Paste F.Mask))
  (pad 8 smd rect (at -0.75 1.8925 90) (size 0.813 0.305) (layers F.Cu F.Paste F.Mask))
  (pad 9 smd rect (at -0.25 1.8925 90) (size 0.813 0.305) (layers F.Cu F.Paste F.Mask))
  (pad 10 smd rect (at 0.25 1.8925 90) (size 0.813 0.305) (layers F.Cu F.Paste F.Mask))
  (pad 11 smd rect (at 0.75 1.8925 90) (size 0.813 0.305) (layers F.Cu F.Paste F.Mask))
  (pad 12 smd rect (at 1.25 1.8925 90) (size 0.813 0.305) (layers F.Cu F.Paste F.Mask))
  (pad 13 smd rect (at 1.8925 1.25) (size 0.813 0.305) (layers F.Cu F.Paste F.Mask))
  (pad 14 smd rect (at 1.8925 0.75) (size 0.813 0.305) (layers F.Cu F.Paste F.Mask))
  (pad 15 smd rect (at 1.8925 0.25) (size 0.813 0.305) (layers F.Cu F.Paste F.Mask))
  (pad 16 smd rect (at 1.8925 -0.25) (size 0.813 0.305) (layers F.Cu F.Paste F.Mask))
  (pad 17 smd rect (at 1.8925 -0.75) (size 0.813 0.305) (layers F.Cu F.Paste F.Mask))
  (pad 18 smd rect (at 1.8925 -1.25) (size 0.813 0.305) (layers F.Cu F.Paste F.Mask))
  (pad 19 smd rect (at 1.25 -1.8925 90) (size 0.813 0.305) (layers F.Cu F.Paste F.Mask))
  (pad 20 smd rect (at 0.75 -1.8925 90) (size 0.813 0.305) (layers F.Cu F.Paste F.Mask))
  (pad 21 smd rect (at 0.25 -1.8925 90) (size 0.813 0.305) (layers F.Cu F.Paste F.Mask))
  (pad 22 smd rect (at -0.25 -1.8925 90) (size 0.813 0.305) (layers F.Cu F.Paste F.Mask))
  (pad 23 smd rect (at -0.75 -1.8925 90) (size 0.813 0.305) (layers F.Cu F.Paste F.Mask))
  (pad 24 smd rect (at -1.25 -1.8925 90) (size 0.813 0.305) (layers F.Cu F.Paste F.Mask))
  (pad "" smd rect (at -0.65 -0.65) (size 1.05 1.05) (layers F.Paste))
  (pad "" smd rect (at 0.65 -0.65) (size 1.05 1.05) (layers F.Paste))
  (pad "" smd rect (at -0.65 0.65) (size 1.05 1.05) (layers F.Paste))
  (pad "" smd rect (at 0.65 0.65) (size 1.05 1.05) (layers F.Paste))
  (model ${KICAD6_3DMODEL_DIR}/Package_CSP.3dshapes/LFCSP-VQ-24-1EP_4x4mm_P0.5mm_EP2.642x2.642mm.wrl
    (at (xyz 0 0 0))
    (scale (xyz 1 1 1))
    (rotate (xyz 0 0 0))
  )
)
