(module ST_WLCSP-36_Die417 (layer F.Cu) (tedit 5AE11EAD)
  (descr "WLCSP-36, 6x6 raster, 2.61x2.88mm package, pitch 0.4mm; see section 7.4 of http://www.st.com/resource/en/datasheet/stm32l052t8.pdf")
  (tags "BGA 36 0.4")
  (attr smd)
  (fp_text reference REF** (at 0 -2.44) (layer F.SilkS)
    (effects (font (size 1 1) (thickness 0.15)))
  )
  (fp_text value ST_WLCSP-36_Die417 (at 0 2.44) (layer F.Fab)
    (effects (font (size 1 1) (thickness 0.15)))
  )
  (fp_line (start 1.305 1.44) (end -1.305 1.44) (layer F.Fab) (width 0.1))
  (fp_line (start -1.305 1.44) (end -1.305 -0.7875) (layer F.Fab) (width 0.1))
  (fp_line (start -1.305 -0.7875) (end -0.6525 -1.44) (layer F.Fab) (width 0.1))
  (fp_line (start -0.6525 -1.44) (end 1.305 -1.44) (layer F.Fab) (width 0.1))
  (fp_line (start 1.305 -1.44) (end 1.305 1.44) (layer F.Fab) (width 0.1))
  (fp_line (start -2.31 -2.44) (end -2.31 2.44) (layer F.CrtYd) (width 0.05))
  (fp_line (start -2.31 2.44) (end 2.31 2.44) (layer F.CrtYd) (width 0.05))
  (fp_line (start 2.31 2.44) (end 2.31 -2.44) (layer F.CrtYd) (width 0.05))
  (fp_line (start 2.31 -2.44) (end -2.31 -2.44) (layer F.CrtYd) (width 0.05))
  (fp_line (start -0.7775 -1.565) (end 1.43 -1.565) (layer F.SilkS) (width 0.12))
  (fp_line (start 1.43 -1.565) (end 1.43 1.565) (layer F.SilkS) (width 0.12))
  (fp_line (start 1.43 1.565) (end -1.43 1.565) (layer F.SilkS) (width 0.12))
  (fp_line (start -1.43 1.565) (end -1.43 -0.9125) (layer F.SilkS) (width 0.12))
  (pad A1 smd circle (at -1 -1) (size 0.22 0.22) (layers F.Cu F.Mask F.Paste))
  (pad A2 smd circle (at -0.6 -1) (size 0.22 0.22) (layers F.Cu F.Mask F.Paste))
  (pad A3 smd circle (at -0.2 -1) (size 0.22 0.22) (layers F.Cu F.Mask F.Paste))
  (pad A4 smd circle (at 0.2 -1) (size 0.22 0.22) (layers F.Cu F.Mask F.Paste))
  (pad A5 smd circle (at 0.6 -1) (size 0.22 0.22) (layers F.Cu F.Mask F.Paste))
  (pad A6 smd circle (at 1 -1) (size 0.22 0.22) (layers F.Cu F.Mask F.Paste))
  (pad B1 smd circle (at -1 -0.6) (size 0.22 0.22) (layers F.Cu F.Mask F.Paste))
  (pad B2 smd circle (at -0.6 -0.6) (size 0.22 0.22) (layers F.Cu F.Mask F.Paste))
  (pad B3 smd circle (at -0.2 -0.6) (size 0.22 0.22) (layers F.Cu F.Mask F.Paste))
  (pad B4 smd circle (at 0.2 -0.6) (size 0.22 0.22) (layers F.Cu F.Mask F.Paste))
  (pad B5 smd circle (at 0.6 -0.6) (size 0.22 0.22) (layers F.Cu F.Mask F.Paste))
  (pad B6 smd circle (at 1 -0.6) (size 0.22 0.22) (layers F.Cu F.Mask F.Paste))
  (pad C1 smd circle (at -1 -0.2) (size 0.22 0.22) (layers F.Cu F.Mask F.Paste))
  (pad C2 smd circle (at -0.6 -0.2) (size 0.22 0.22) (layers F.Cu F.Mask F.Paste))
  (pad C3 smd circle (at -0.2 -0.2) (size 0.22 0.22) (layers F.Cu F.Mask F.Paste))
  (pad C4 smd circle (at 0.2 -0.2) (size 0.22 0.22) (layers F.Cu F.Mask F.Paste))
  (pad C5 smd circle (at 0.6 -0.2) (size 0.22 0.22) (layers F.Cu F.Mask F.Paste))
  (pad C6 smd circle (at 1 -0.2) (size 0.22 0.22) (layers F.Cu F.Mask F.Paste))
  (pad D1 smd circle (at -1 0.2) (size 0.22 0.22) (layers F.Cu F.Mask F.Paste))
  (pad D2 smd circle (at -0.6 0.2) (size 0.22 0.22) (layers F.Cu F.Mask F.Paste))
  (pad D3 smd circle (at -0.2 0.2) (size 0.22 0.22) (layers F.Cu F.Mask F.Paste))
  (pad D4 smd circle (at 0.2 0.2) (size 0.22 0.22) (layers F.Cu F.Mask F.Paste))
  (pad D5 smd circle (at 0.6 0.2) (size 0.22 0.22) (layers F.Cu F.Mask F.Paste))
  (pad D6 smd circle (at 1 0.2) (size 0.22 0.22) (layers F.Cu F.Mask F.Paste))
  (pad E1 smd circle (at -1 0.6) (size 0.22 0.22) (layers F.Cu F.Mask F.Paste))
  (pad E2 smd circle (at -0.6 0.6) (size 0.22 0.22) (layers F.Cu F.Mask F.Paste))
  (pad E3 smd circle (at -0.2 0.6) (size 0.22 0.22) (layers F.Cu F.Mask F.Paste))
  (pad E4 smd circle (at 0.2 0.6) (size 0.22 0.22) (layers F.Cu F.Mask F.Paste))
  (pad E5 smd circle (at 0.6 0.6) (size 0.22 0.22) (layers F.Cu F.Mask F.Paste))
  (pad E6 smd circle (at 1 0.6) (size 0.22 0.22) (layers F.Cu F.Mask F.Paste))
  (pad F1 smd circle (at -1 1) (size 0.22 0.22) (layers F.Cu F.Mask F.Paste))
  (pad F2 smd circle (at -0.6 1) (size 0.22 0.22) (layers F.Cu F.Mask F.Paste))
  (pad F3 smd circle (at -0.2 1) (size 0.22 0.22) (layers F.Cu F.Mask F.Paste))
  (pad F4 smd circle (at 0.2 1) (size 0.22 0.22) (layers F.Cu F.Mask F.Paste))
  (pad F5 smd circle (at 0.6 1) (size 0.22 0.22) (layers F.Cu F.Mask F.Paste))
  (pad F6 smd circle (at 1 1) (size 0.22 0.22) (layers F.Cu F.Mask F.Paste))
  (fp_text user %R (at 0 0) (layer F.Fab)
    (effects (font (size 0.61 0.61) (thickness 0.0915)))
  )
  (model ${KICAD6_3DMODEL_DIR}/Package_CSP.3dshapes/ST_WLCSP-36_Die417.wrl
    (at (xyz 0 0 0))
    (scale (xyz 1 1 1))
    (rotate (xyz 0 0 0))
  )
)