(module ST_WLCSP-63_Die427 (layer F.Cu) (tedit 5AE11EAD)
  (descr "WLCSP-63, 7x9 raster, 3.228x4.164mm package, pitch 0.4mm; see section 7.6 of http://www.st.com/resource/en/datasheet/stm32l151cc.pdf")
  (tags "BGA 63 0.4")
  (attr smd)
  (fp_text reference REF** (at 0 -3.082) (layer F.SilkS)
    (effects (font (size 1 1) (thickness 0.15)))
  )
  (fp_text value ST_WLCSP-63_Die427 (at 0 3.082) (layer F.Fab)
    (effects (font (size 1 1) (thickness 0.15)))
  )
  (fp_line (start 1.614 2.082) (end -1.614 2.082) (layer F.Fab) (width 0.1))
  (fp_line (start -1.614 2.082) (end -1.614 -1.275) (layer F.Fab) (width 0.1))
  (fp_line (start -1.614 -1.275) (end -0.807 -2.082) (layer F.Fab) (width 0.1))
  (fp_line (start -0.807 -2.082) (end 1.614 -2.082) (layer F.Fab) (width 0.1))
  (fp_line (start 1.614 -2.082) (end 1.614 2.082) (layer F.Fab) (width 0.1))
  (fp_line (start -2.62 -3.09) (end -2.62 3.09) (layer F.CrtYd) (width 0.05))
  (fp_line (start -2.62 3.09) (end 2.62 3.09) (layer F.CrtYd) (width 0.05))
  (fp_line (start 2.62 3.09) (end 2.62 -3.09) (layer F.CrtYd) (width 0.05))
  (fp_line (start 2.62 -3.09) (end -2.62 -3.09) (layer F.CrtYd) (width 0.05))
  (fp_line (start -0.932 -2.207) (end 1.739 -2.207) (layer F.SilkS) (width 0.12))
  (fp_line (start 1.739 -2.207) (end 1.739 2.207) (layer F.SilkS) (width 0.12))
  (fp_line (start 1.739 2.207) (end -1.739 2.207) (layer F.SilkS) (width 0.12))
  (fp_line (start -1.739 2.207) (end -1.739 -1.4) (layer F.SilkS) (width 0.12))
  (pad A1 smd circle (at -1.2 -1.6) (size 0.24 0.24) (layers F.Cu F.Mask F.Paste))
  (pad A2 smd circle (at -0.8 -1.6) (size 0.24 0.24) (layers F.Cu F.Mask F.Paste))
  (pad A3 smd circle (at -0.4 -1.6) (size 0.24 0.24) (layers F.Cu F.Mask F.Paste))
  (pad A4 smd circle (at 0 -1.6) (size 0.24 0.24) (layers F.Cu F.Mask F.Paste))
  (pad A5 smd circle (at 0.4 -1.6) (size 0.24 0.24) (layers F.Cu F.Mask F.Paste))
  (pad A6 smd circle (at 0.8 -1.6) (size 0.24 0.24) (layers F.Cu F.Mask F.Paste))
  (pad A7 smd circle (at 1.2 -1.6) (size 0.24 0.24) (layers F.Cu F.Mask F.Paste))
  (pad B1 smd circle (at -1.2 -1.2) (size 0.24 0.24) (layers F.Cu F.Mask F.Paste))
  (pad B2 smd circle (at -0.8 -1.2) (size 0.24 0.24) (layers F.Cu F.Mask F.Paste))
  (pad B3 smd circle (at -0.4 -1.2) (size 0.24 0.24) (layers F.Cu F.Mask F.Paste))
  (pad B4 smd circle (at 0 -1.2) (size 0.24 0.24) (layers F.Cu F.Mask F.Paste))
  (pad B5 smd circle (at 0.4 -1.2) (size 0.24 0.24) (layers F.Cu F.Mask F.Paste))
  (pad B6 smd circle (at 0.8 -1.2) (size 0.24 0.24) (layers F.Cu F.Mask F.Paste))
  (pad B7 smd circle (at 1.2 -1.2) (size 0.24 0.24) (layers F.Cu F.Mask F.Paste))
  (pad C1 smd circle (at -1.2 -0.8) (size 0.24 0.24) (layers F.Cu F.Mask F.Paste))
  (pad C2 smd circle (at -0.8 -0.8) (size 0.24 0.24) (layers F.Cu F.Mask F.Paste))
  (pad C3 smd circle (at -0.4 -0.8) (size 0.24 0.24) (layers F.Cu F.Mask F.Paste))
  (pad C4 smd circle (at 0 -0.8) (size 0.24 0.24) (layers F.Cu F.Mask F.Paste))
  (pad C5 smd circle (at 0.4 -0.8) (size 0.24 0.24) (layers F.Cu F.Mask F.Paste))
  (pad C6 smd circle (at 0.8 -0.8) (size 0.24 0.24) (layers F.Cu F.Mask F.Paste))
  (pad C7 smd circle (at 1.2 -0.8) (size 0.24 0.24) (layers F.Cu F.Mask F.Paste))
  (pad D1 smd circle (at -1.2 -0.4) (size 0.24 0.24) (layers F.Cu F.Mask F.Paste))
  (pad D2 smd circle (at -0.8 -0.4) (size 0.24 0.24) (layers F.Cu F.Mask F.Paste))
  (pad D3 smd circle (at -0.4 -0.4) (size 0.24 0.24) (layers F.Cu F.Mask F.Paste))
  (pad D4 smd circle (at 0 -0.4) (size 0.24 0.24) (layers F.Cu F.Mask F.Paste))
  (pad D5 smd circle (at 0.4 -0.4) (size 0.24 0.24) (layers F.Cu F.Mask F.Paste))
  (pad D6 smd circle (at 0.8 -0.4) (size 0.24 0.24) (layers F.Cu F.Mask F.Paste))
  (pad D7 smd circle (at 1.2 -0.4) (size 0.24 0.24) (layers F.Cu F.Mask F.Paste))
  (pad E1 smd circle (at -1.2 0) (size 0.24 0.24) (layers F.Cu F.Mask F.Paste))
  (pad E2 smd circle (at -0.8 0) (size 0.24 0.24) (layers F.Cu F.Mask F.Paste))
  (pad E3 smd circle (at -0.4 0) (size 0.24 0.24) (layers F.Cu F.Mask F.Paste))
  (pad E4 smd circle (at 0 0) (size 0.24 0.24) (layers F.Cu F.Mask F.Paste))
  (pad E5 smd circle (at 0.4 0) (size 0.24 0.24) (layers F.Cu F.Mask F.Paste))
  (pad E6 smd circle (at 0.8 0) (size 0.24 0.24) (layers F.Cu F.Mask F.Paste))
  (pad E7 smd circle (at 1.2 0) (size 0.24 0.24) (layers F.Cu F.Mask F.Paste))
  (pad F1 smd circle (at -1.2 0.4) (size 0.24 0.24) (layers F.Cu F.Mask F.Paste))
  (pad F2 smd circle (at -0.8 0.4) (size 0.24 0.24) (layers F.Cu F.Mask F.Paste))
  (pad F3 smd circle (at -0.4 0.4) (size 0.24 0.24) (layers F.Cu F.Mask F.Paste))
  (pad F4 smd circle (at 0 0.4) (size 0.24 0.24) (layers F.Cu F.Mask F.Paste))
  (pad F5 smd circle (at 0.4 0.4) (size 0.24 0.24) (layers F.Cu F.Mask F.Paste))
  (pad F6 smd circle (at 0.8 0.4) (size 0.24 0.24) (layers F.Cu F.Mask F.Paste))
  (pad F7 smd circle (at 1.2 0.4) (size 0.24 0.24) (layers F.Cu F.Mask F.Paste))
  (pad G1 smd circle (at -1.2 0.8) (size 0.24 0.24) (layers F.Cu F.Mask F.Paste))
  (pad G2 smd circle (at -0.8 0.8) (size 0.24 0.24) (layers F.Cu F.Mask F.Paste))
  (pad G3 smd circle (at -0.4 0.8) (size 0.24 0.24) (layers F.Cu F.Mask F.Paste))
  (pad G4 smd circle (at 0 0.8) (size 0.24 0.24) (layers F.Cu F.Mask F.Paste))
  (pad G5 smd circle (at 0.4 0.8) (size 0.24 0.24) (layers F.Cu F.Mask F.Paste))
  (pad G6 smd circle (at 0.8 0.8) (size 0.24 0.24) (layers F.Cu F.Mask F.Paste))
  (pad G7 smd circle (at 1.2 0.8) (size 0.24 0.24) (layers F.Cu F.Mask F.Paste))
  (pad H1 smd circle (at -1.2 1.2) (size 0.24 0.24) (layers F.Cu F.Mask F.Paste))
  (pad H2 smd circle (at -0.8 1.2) (size 0.24 0.24) (layers F.Cu F.Mask F.Paste))
  (pad H3 smd circle (at -0.4 1.2) (size 0.24 0.24) (layers F.Cu F.Mask F.Paste))
  (pad H4 smd circle (at 0 1.2) (size 0.24 0.24) (layers F.Cu F.Mask F.Paste))
  (pad H5 smd circle (at 0.4 1.2) (size 0.24 0.24) (layers F.Cu F.Mask F.Paste))
  (pad H6 smd circle (at 0.8 1.2) (size 0.24 0.24) (layers F.Cu F.Mask F.Paste))
  (pad H7 smd circle (at 1.2 1.2) (size 0.24 0.24) (layers F.Cu F.Mask F.Paste))
  (pad J1 smd circle (at -1.2 1.6) (size 0.24 0.24) (layers F.Cu F.Mask F.Paste))
  (pad J2 smd circle (at -0.8 1.6) (size 0.24 0.24) (layers F.Cu F.Mask F.Paste))
  (pad J3 smd circle (at -0.4 1.6) (size 0.24 0.24) (layers F.Cu F.Mask F.Paste))
  (pad J4 smd circle (at 0 1.6) (size 0.24 0.24) (layers F.Cu F.Mask F.Paste))
  (pad J5 smd circle (at 0.4 1.6) (size 0.24 0.24) (layers F.Cu F.Mask F.Paste))
  (pad J6 smd circle (at 0.8 1.6) (size 0.24 0.24) (layers F.Cu F.Mask F.Paste))
  (pad J7 smd circle (at 1.2 1.6) (size 0.24 0.24) (layers F.Cu F.Mask F.Paste))
  (fp_text user %R (at 0 0) (layer F.Fab)
    (effects (font (size 0.75 0.75) (thickness 0.1125)))
  )
  (model ${KICAD6_3DMODEL_DIR}/Package_CSP.3dshapes/ST_WLCSP-63_Die427.wrl
    (at (xyz 0 0 0))
    (scale (xyz 1 1 1))
    (rotate (xyz 0 0 0))
  )
)