(module ST_WLCSP-64_Die442 (layer F.Cu) (tedit 5AE11EAD)
  (descr "WLCSP-64, 8x8 raster, 3.347x3.585mm package, pitch 0.4mm; see section 7.4 of http://www.st.com/resource/en/datasheet/stm32f091vb.pdf")
  (tags "BGA 64 0.4")
  (attr smd)
  (fp_text reference REF** (at 0 -2.7925) (layer F.SilkS)
    (effects (font (size 1 1) (thickness 0.15)))
  )
  (fp_text value ST_WLCSP-64_Die442 (at 0 2.7925) (layer F.Fab)
    (effects (font (size 1 1) (thickness 0.15)))
  )
  (fp_line (start 1.6735 1.7925) (end -1.6735 1.7925) (layer F.Fab) (width 0.1))
  (fp_line (start -1.6735 1.7925) (end -1.6735 -0.95575) (layer F.Fab) (width 0.1))
  (fp_line (start -1.6735 -0.95575) (end -0.83675 -1.7925) (layer F.Fab) (width 0.1))
  (fp_line (start -0.83675 -1.7925) (end 1.6735 -1.7925) (layer F.Fab) (width 0.1))
  (fp_line (start 1.6735 -1.7925) (end 1.6735 1.7925) (layer F.Fab) (width 0.1))
  (fp_line (start -2.68 -2.8) (end -2.68 2.8) (layer F.CrtYd) (width 0.05))
  (fp_line (start -2.68 2.8) (end 2.68 2.8) (layer F.CrtYd) (width 0.05))
  (fp_line (start 2.68 2.8) (end 2.68 -2.8) (layer F.CrtYd) (width 0.05))
  (fp_line (start 2.68 -2.8) (end -2.68 -2.8) (layer F.CrtYd) (width 0.05))
  (fp_line (start -0.96175 -1.9175) (end 1.7985 -1.9175) (layer F.SilkS) (width 0.12))
  (fp_line (start 1.7985 -1.9175) (end 1.7985 1.9175) (layer F.SilkS) (width 0.12))
  (fp_line (start 1.7985 1.9175) (end -1.7985 1.9175) (layer F.SilkS) (width 0.12))
  (fp_line (start -1.7985 1.9175) (end -1.7985 -1.08075) (layer F.SilkS) (width 0.12))
  (pad A1 smd circle (at -1.4 -1.4) (size 0.22 0.22) (layers F.Cu F.Mask F.Paste))
  (pad A2 smd circle (at -1 -1.4) (size 0.22 0.22) (layers F.Cu F.Mask F.Paste))
  (pad A3 smd circle (at -0.6 -1.4) (size 0.22 0.22) (layers F.Cu F.Mask F.Paste))
  (pad A4 smd circle (at -0.2 -1.4) (size 0.22 0.22) (layers F.Cu F.Mask F.Paste))
  (pad A5 smd circle (at 0.2 -1.4) (size 0.22 0.22) (layers F.Cu F.Mask F.Paste))
  (pad A6 smd circle (at 0.6 -1.4) (size 0.22 0.22) (layers F.Cu F.Mask F.Paste))
  (pad A7 smd circle (at 1 -1.4) (size 0.22 0.22) (layers F.Cu F.Mask F.Paste))
  (pad A8 smd circle (at 1.4 -1.4) (size 0.22 0.22) (layers F.Cu F.Mask F.Paste))
  (pad B1 smd circle (at -1.4 -1) (size 0.22 0.22) (layers F.Cu F.Mask F.Paste))
  (pad B2 smd circle (at -1 -1) (size 0.22 0.22) (layers F.Cu F.Mask F.Paste))
  (pad B3 smd circle (at -0.6 -1) (size 0.22 0.22) (layers F.Cu F.Mask F.Paste))
  (pad B4 smd circle (at -0.2 -1) (size 0.22 0.22) (layers F.Cu F.Mask F.Paste))
  (pad B5 smd circle (at 0.2 -1) (size 0.22 0.22) (layers F.Cu F.Mask F.Paste))
  (pad B6 smd circle (at 0.6 -1) (size 0.22 0.22) (layers F.Cu F.Mask F.Paste))
  (pad B7 smd circle (at 1 -1) (size 0.22 0.22) (layers F.Cu F.Mask F.Paste))
  (pad B8 smd circle (at 1.4 -1) (size 0.22 0.22) (layers F.Cu F.Mask F.Paste))
  (pad C1 smd circle (at -1.4 -0.6) (size 0.22 0.22) (layers F.Cu F.Mask F.Paste))
  (pad C2 smd circle (at -1 -0.6) (size 0.22 0.22) (layers F.Cu F.Mask F.Paste))
  (pad C3 smd circle (at -0.6 -0.6) (size 0.22 0.22) (layers F.Cu F.Mask F.Paste))
  (pad C4 smd circle (at -0.2 -0.6) (size 0.22 0.22) (layers F.Cu F.Mask F.Paste))
  (pad C5 smd circle (at 0.2 -0.6) (size 0.22 0.22) (layers F.Cu F.Mask F.Paste))
  (pad C6 smd circle (at 0.6 -0.6) (size 0.22 0.22) (layers F.Cu F.Mask F.Paste))
  (pad C7 smd circle (at 1 -0.6) (size 0.22 0.22) (layers F.Cu F.Mask F.Paste))
  (pad C8 smd circle (at 1.4 -0.6) (size 0.22 0.22) (layers F.Cu F.Mask F.Paste))
  (pad D1 smd circle (at -1.4 -0.2) (size 0.22 0.22) (layers F.Cu F.Mask F.Paste))
  (pad D2 smd circle (at -1 -0.2) (size 0.22 0.22) (layers F.Cu F.Mask F.Paste))
  (pad D3 smd circle (at -0.6 -0.2) (size 0.22 0.22) (layers F.Cu F.Mask F.Paste))
  (pad D4 smd circle (at -0.2 -0.2) (size 0.22 0.22) (layers F.Cu F.Mask F.Paste))
  (pad D5 smd circle (at 0.2 -0.2) (size 0.22 0.22) (layers F.Cu F.Mask F.Paste))
  (pad D6 smd circle (at 0.6 -0.2) (size 0.22 0.22) (layers F.Cu F.Mask F.Paste))
  (pad D7 smd circle (at 1 -0.2) (size 0.22 0.22) (layers F.Cu F.Mask F.Paste))
  (pad D8 smd circle (at 1.4 -0.2) (size 0.22 0.22) (layers F.Cu F.Mask F.Paste))
  (pad E1 smd circle (at -1.4 0.2) (size 0.22 0.22) (layers F.Cu F.Mask F.Paste))
  (pad E2 smd circle (at -1 0.2) (size 0.22 0.22) (layers F.Cu F.Mask F.Paste))
  (pad E3 smd circle (at -0.6 0.2) (size 0.22 0.22) (layers F.Cu F.Mask F.Paste))
  (pad E4 smd circle (at -0.2 0.2) (size 0.22 0.22) (layers F.Cu F.Mask F.Paste))
  (pad E5 smd circle (at 0.2 0.2) (size 0.22 0.22) (layers F.Cu F.Mask F.Paste))
  (pad E6 smd circle (at 0.6 0.2) (size 0.22 0.22) (layers F.Cu F.Mask F.Paste))
  (pad E7 smd circle (at 1 0.2) (size 0.22 0.22) (layers F.Cu F.Mask F.Paste))
  (pad E8 smd circle (at 1.4 0.2) (size 0.22 0.22) (layers F.Cu F.Mask F.Paste))
  (pad F1 smd circle (at -1.4 0.6) (size 0.22 0.22) (layers F.Cu F.Mask F.Paste))
  (pad F2 smd circle (at -1 0.6) (size 0.22 0.22) (layers F.Cu F.Mask F.Paste))
  (pad F3 smd circle (at -0.6 0.6) (size 0.22 0.22) (layers F.Cu F.Mask F.Paste))
  (pad F4 smd circle (at -0.2 0.6) (size 0.22 0.22) (layers F.Cu F.Mask F.Paste))
  (pad F5 smd circle (at 0.2 0.6) (size 0.22 0.22) (layers F.Cu F.Mask F.Paste))
  (pad F6 smd circle (at 0.6 0.6) (size 0.22 0.22) (layers F.Cu F.Mask F.Paste))
  (pad F7 smd circle (at 1 0.6) (size 0.22 0.22) (layers F.Cu F.Mask F.Paste))
  (pad F8 smd circle (at 1.4 0.6) (size 0.22 0.22) (layers F.Cu F.Mask F.Paste))
  (pad G1 smd circle (at -1.4 1) (size 0.22 0.22) (layers F.Cu F.Mask F.Paste))
  (pad G2 smd circle (at -1 1) (size 0.22 0.22) (layers F.Cu F.Mask F.Paste))
  (pad G3 smd circle (at -0.6 1) (size 0.22 0.22) (layers F.Cu F.Mask F.Paste))
  (pad G4 smd circle (at -0.2 1) (size 0.22 0.22) (layers F.Cu F.Mask F.Paste))
  (pad G5 smd circle (at 0.2 1) (size 0.22 0.22) (layers F.Cu F.Mask F.Paste))
  (pad G6 smd circle (at 0.6 1) (size 0.22 0.22) (layers F.Cu F.Mask F.Paste))
  (pad G7 smd circle (at 1 1) (size 0.22 0.22) (layers F.Cu F.Mask F.Paste))
  (pad G8 smd circle (at 1.4 1) (size 0.22 0.22) (layers F.Cu F.Mask F.Paste))
  (pad H1 smd circle (at -1.4 1.4) (size 0.22 0.22) (layers F.Cu F.Mask F.Paste))
  (pad H2 smd circle (at -1 1.4) (size 0.22 0.22) (layers F.Cu F.Mask F.Paste))
  (pad H3 smd circle (at -0.6 1.4) (size 0.22 0.22) (layers F.Cu F.Mask F.Paste))
  (pad H4 smd circle (at -0.2 1.4) (size 0.22 0.22) (layers F.Cu F.Mask F.Paste))
  (pad H5 smd circle (at 0.2 1.4) (size 0.22 0.22) (layers F.Cu F.Mask F.Paste))
  (pad H6 smd circle (at 0.6 1.4) (size 0.22 0.22) (layers F.Cu F.Mask F.Paste))
  (pad H7 smd circle (at 1 1.4) (size 0.22 0.22) (layers F.Cu F.Mask F.Paste))
  (pad H8 smd circle (at 1.4 1.4) (size 0.22 0.22) (layers F.Cu F.Mask F.Paste))
  (fp_text user %R (at 0 0) (layer F.Fab)
    (effects (font (size 0.78 0.78) (thickness 0.117)))
  )
  (model ${KICAD6_3DMODEL_DIR}/Package_CSP.3dshapes/ST_WLCSP-64_Die442.wrl
    (at (xyz 0 0 0))
    (scale (xyz 1 1 1))
    (rotate (xyz 0 0 0))
  )
)