(module WLCSP-36_2.374x2.459mm_Layout6x6_P0.35mm (layer F.Cu) (tedit 5A4F642F)
  (descr "WLCSP-36, https://www.nxp.com/docs/en/package-information/98ASA00604D.pdf")
  (tags WLCSP-36)
  (attr smd)
  (fp_text reference REF** (at 0 -3.34) (layer F.SilkS)
    (effects (font (size 1 1) (thickness 0.15)))
  )
  (fp_text value WLCSP-36_2.374x2.459mm_Layout6x6_P0.35mm (at 0 3.43) (layer F.Fab)
    (effects (font (size 1 1) (thickness 0.15)))
  )
  (fp_text user %R (at 0 0) (layer F.Fab)
    (effects (font (size 0.5 0.5) (thickness 0.125)))
  )
  (fp_line (start -0.88 -1.485) (end -1.485 -1.485) (layer F.SilkS) (width 0.1))
  (fp_line (start -1.485 -1.48) (end -1.485 -0.88) (layer F.SilkS) (width 0.1))
  (fp_line (start -2.28 2.28) (end 2.28 2.28) (layer F.CrtYd) (width 0.05))
  (fp_line (start -2.28 -2.28) (end 2.28 -2.28) (layer F.CrtYd) (width 0.05))
  (fp_line (start -2.28 2.28) (end -2.28 -2.28) (layer F.CrtYd) (width 0.05))
  (fp_line (start 2.28 2.28) (end 2.28 -2.28) (layer F.CrtYd) (width 0.05))
  (fp_line (start -1.187 -0.88) (end -0.88 -1.187) (layer F.Fab) (width 0.1))
  (fp_line (start -0.88 -1.187) (end 1.187 -1.187) (layer F.Fab) (width 0.1))
  (fp_line (start -1.287 -1.287) (end 1.287 -1.287) (layer F.SilkS) (width 0.1))
  (fp_line (start -1.287 1.287) (end 1.287 1.287) (layer F.SilkS) (width 0.1))
  (fp_line (start -1.287 1.287) (end -1.287 -1.287) (layer F.SilkS) (width 0.1))
  (fp_line (start 1.287 1.287) (end 1.287 -1.287) (layer F.SilkS) (width 0.1))
  (fp_line (start -1.187 1.187) (end 1.187 1.187) (layer F.Fab) (width 0.1))
  (fp_line (start -1.187 1.187) (end -1.187 -0.88) (layer F.Fab) (width 0.1))
  (fp_line (start 1.187 1.187) (end 1.187 -1.187) (layer F.Fab) (width 0.1))
  (pad A1 smd circle (at -0.875 -0.875) (size 0.274 0.274) (layers F.Cu F.Paste F.Mask))
  (pad B1 smd circle (at -0.875 -0.525) (size 0.274 0.274) (layers F.Cu F.Paste F.Mask))
  (pad C1 smd circle (at -0.875 -0.175) (size 0.274 0.274) (layers F.Cu F.Paste F.Mask))
  (pad D1 smd circle (at -0.875 0.175) (size 0.274 0.274) (layers F.Cu F.Paste F.Mask))
  (pad E1 smd circle (at -0.875 0.525) (size 0.274 0.274) (layers F.Cu F.Paste F.Mask))
  (pad F1 smd circle (at -0.875 0.875) (size 0.274 0.274) (layers F.Cu F.Paste F.Mask))
  (pad A2 smd circle (at -0.525 -0.875) (size 0.274 0.274) (layers F.Cu F.Paste F.Mask))
  (pad B2 smd circle (at -0.525 -0.525) (size 0.274 0.274) (layers F.Cu F.Paste F.Mask))
  (pad C2 smd circle (at -0.525 -0.175) (size 0.274 0.274) (layers F.Cu F.Paste F.Mask))
  (pad D2 smd circle (at -0.525 0.175) (size 0.274 0.274) (layers F.Cu F.Paste F.Mask))
  (pad E2 smd circle (at -0.525 0.525) (size 0.274 0.274) (layers F.Cu F.Paste F.Mask))
  (pad F2 smd circle (at -0.525 0.875) (size 0.274 0.274) (layers F.Cu F.Paste F.Mask))
  (pad A3 smd circle (at -0.175 -0.875) (size 0.274 0.274) (layers F.Cu F.Paste F.Mask))
  (pad B3 smd circle (at -0.175 -0.525) (size 0.274 0.274) (layers F.Cu F.Paste F.Mask))
  (pad C3 smd circle (at -0.175 -0.175) (size 0.274 0.274) (layers F.Cu F.Paste F.Mask))
  (pad D3 smd circle (at -0.175 0.175) (size 0.274 0.274) (layers F.Cu F.Paste F.Mask))
  (pad E3 smd circle (at -0.175 0.525) (size 0.274 0.274) (layers F.Cu F.Paste F.Mask))
  (pad F3 smd circle (at -0.175 0.875) (size 0.274 0.274) (layers F.Cu F.Paste F.Mask))
  (pad A4 smd circle (at 0.175 -0.875) (size 0.274 0.274) (layers F.Cu F.Paste F.Mask))
  (pad B4 smd circle (at 0.175 -0.525) (size 0.274 0.274) (layers F.Cu F.Paste F.Mask))
  (pad C4 smd circle (at 0.175 -0.175) (size 0.274 0.274) (layers F.Cu F.Paste F.Mask))
  (pad D4 smd circle (at 0.175 0.175) (size 0.274 0.274) (layers F.Cu F.Paste F.Mask))
  (pad E4 smd circle (at 0.175 0.525) (size 0.274 0.274) (layers F.Cu F.Paste F.Mask))
  (pad F4 smd circle (at 0.175 0.875) (size 0.274 0.274) (layers F.Cu F.Paste F.Mask))
  (pad A5 smd circle (at 0.525 -0.875) (size 0.274 0.274) (layers F.Cu F.Paste F.Mask))
  (pad B5 smd circle (at 0.525 -0.525) (size 0.274 0.274) (layers F.Cu F.Paste F.Mask))
  (pad C5 smd circle (at 0.525 -0.175) (size 0.274 0.274) (layers F.Cu F.Paste F.Mask))
  (pad D5 smd circle (at 0.525 0.175) (size 0.274 0.274) (layers F.Cu F.Paste F.Mask))
  (pad E5 smd circle (at 0.525 0.525) (size 0.274 0.274) (layers F.Cu F.Paste F.Mask))
  (pad F5 smd circle (at 0.525 0.875) (size 0.274 0.274) (layers F.Cu F.Paste F.Mask))
  (pad A6 smd circle (at 0.875 -0.875) (size 0.274 0.274) (layers F.Cu F.Paste F.Mask))
  (pad B6 smd circle (at 0.875 -0.525) (size 0.274 0.274) (layers F.Cu F.Paste F.Mask))
  (pad C6 smd circle (at 0.875 -0.175) (size 0.274 0.274) (layers F.Cu F.Paste F.Mask))
  (pad D6 smd circle (at 0.875 0.175) (size 0.274 0.274) (layers F.Cu F.Paste F.Mask))
  (pad E6 smd circle (at 0.875 0.525) (size 0.274 0.274) (layers F.Cu F.Paste F.Mask))
  (pad F6 smd circle (at 0.875 0.875) (size 0.274 0.274) (layers F.Cu F.Paste F.Mask))
  (model ${KICAD6_3DMODEL_DIR}/Package_CSP.3dshapes/WLCSP-36_2.374x2.459mm_Layout6x6_P0.35mm.wrl
    (at (xyz 0 0 0))
    (scale (xyz 1 1 1))
    (rotate (xyz 0 0 0))
  )
)
