(module PinHeader_2x07_P1.00mm_Vertical_SMD (layer F.Cu) (tedit 59FED738)
  (descr "surface-mounted straight pin header, 2x07, 1.00mm pitch, double rows")
  (tags "Surface mounted pin header SMD 2x07 1.00mm double row")
  (attr smd)
  (fp_text reference REF** (at 0 -4.56) (layer F.SilkS)
    (effects (font (size 1 1) (thickness 0.15)))
  )
  (fp_text value PinHeader_2x07_P1.00mm_Vertical_SMD (at 0 4.56) (layer F.Fab)
    (effects (font (size 1 1) (thickness 0.15)))
  )
  (fp_line (start 1.15 3.5) (end -1.15 3.5) (layer F.Fab) (width 0.1))
  (fp_line (start -0.8 -3.5) (end 1.15 -3.5) (layer F.Fab) (width 0.1))
  (fp_line (start -1.15 3.5) (end -1.15 -3.15) (layer F.Fab) (width 0.1))
  (fp_line (start -1.15 -3.15) (end -0.8 -3.5) (layer F.Fab) (width 0.1))
  (fp_line (start 1.15 -3.5) (end 1.15 3.5) (layer F.Fab) (width 0.1))
  (fp_line (start -1.15 -3.15) (end -2.4 -3.15) (layer F.Fab) (width 0.1))
  (fp_line (start -2.4 -3.15) (end -2.4 -2.85) (layer F.Fab) (width 0.1))
  (fp_line (start -2.4 -2.85) (end -1.15 -2.85) (layer F.Fab) (width 0.1))
  (fp_line (start 1.15 -3.15) (end 2.4 -3.15) (layer F.Fab) (width 0.1))
  (fp_line (start 2.4 -3.15) (end 2.4 -2.85) (layer F.Fab) (width 0.1))
  (fp_line (start 2.4 -2.85) (end 1.15 -2.85) (layer F.Fab) (width 0.1))
  (fp_line (start -1.15 -2.15) (end -2.4 -2.15) (layer F.Fab) (width 0.1))
  (fp_line (start -2.4 -2.15) (end -2.4 -1.85) (layer F.Fab) (width 0.1))
  (fp_line (start -2.4 -1.85) (end -1.15 -1.85) (layer F.Fab) (width 0.1))
  (fp_line (start 1.15 -2.15) (end 2.4 -2.15) (layer F.Fab) (width 0.1))
  (fp_line (start 2.4 -2.15) (end 2.4 -1.85) (layer F.Fab) (width 0.1))
  (fp_line (start 2.4 -1.85) (end 1.15 -1.85) (layer F.Fab) (width 0.1))
  (fp_line (start -1.15 -1.15) (end -2.4 -1.15) (layer F.Fab) (width 0.1))
  (fp_line (start -2.4 -1.15) (end -2.4 -0.85) (layer F.Fab) (width 0.1))
  (fp_line (start -2.4 -0.85) (end -1.15 -0.85) (layer F.Fab) (width 0.1))
  (fp_line (start 1.15 -1.15) (end 2.4 -1.15) (layer F.Fab) (width 0.1))
  (fp_line (start 2.4 -1.15) (end 2.4 -0.85) (layer F.Fab) (width 0.1))
  (fp_line (start 2.4 -0.85) (end 1.15 -0.85) (layer F.Fab) (width 0.1))
  (fp_line (start -1.15 -0.15) (end -2.4 -0.15) (layer F.Fab) (width 0.1))
  (fp_line (start -2.4 -0.15) (end -2.4 0.15) (layer F.Fab) (width 0.1))
  (fp_line (start -2.4 0.15) (end -1.15 0.15) (layer F.Fab) (width 0.1))
  (fp_line (start 1.15 -0.15) (end 2.4 -0.15) (layer F.Fab) (width 0.1))
  (fp_line (start 2.4 -0.15) (end 2.4 0.15) (layer F.Fab) (width 0.1))
  (fp_line (start 2.4 0.15) (end 1.15 0.15) (layer F.Fab) (width 0.1))
  (fp_line (start -1.15 0.85) (end -2.4 0.85) (layer F.Fab) (width 0.1))
  (fp_line (start -2.4 0.85) (end -2.4 1.15) (layer F.Fab) (width 0.1))
  (fp_line (start -2.4 1.15) (end -1.15 1.15) (layer F.Fab) (width 0.1))
  (fp_line (start 1.15 0.85) (end 2.4 0.85) (layer F.Fab) (width 0.1))
  (fp_line (start 2.4 0.85) (end 2.4 1.15) (layer F.Fab) (width 0.1))
  (fp_line (start 2.4 1.15) (end 1.15 1.15) (layer F.Fab) (width 0.1))
  (fp_line (start -1.15 1.85) (end -2.4 1.85) (layer F.Fab) (width 0.1))
  (fp_line (start -2.4 1.85) (end -2.4 2.15) (layer F.Fab) (width 0.1))
  (fp_line (start -2.4 2.15) (end -1.15 2.15) (layer F.Fab) (width 0.1))
  (fp_line (start 1.15 1.85) (end 2.4 1.85) (layer F.Fab) (width 0.1))
  (fp_line (start 2.4 1.85) (end 2.4 2.15) (layer F.Fab) (width 0.1))
  (fp_line (start 2.4 2.15) (end 1.15 2.15) (layer F.Fab) (width 0.1))
  (fp_line (start -1.15 2.85) (end -2.4 2.85) (layer F.Fab) (width 0.1))
  (fp_line (start -2.4 2.85) (end -2.4 3.15) (layer F.Fab) (width 0.1))
  (fp_line (start -2.4 3.15) (end -1.15 3.15) (layer F.Fab) (width 0.1))
  (fp_line (start 1.15 2.85) (end 2.4 2.85) (layer F.Fab) (width 0.1))
  (fp_line (start 2.4 2.85) (end 2.4 3.15) (layer F.Fab) (width 0.1))
  (fp_line (start 2.4 3.15) (end 1.15 3.15) (layer F.Fab) (width 0.1))
  (fp_line (start -1.21 -3.56) (end 1.21 -3.56) (layer F.SilkS) (width 0.12))
  (fp_line (start -1.21 3.56) (end 1.21 3.56) (layer F.SilkS) (width 0.12))
  (fp_line (start -2.59 -3.51) (end -1.21 -3.51) (layer F.SilkS) (width 0.12))
  (fp_line (start -1.21 -3.56) (end -1.21 -3.51) (layer F.SilkS) (width 0.12))
  (fp_line (start 1.21 -3.56) (end 1.21 -3.51) (layer F.SilkS) (width 0.12))
  (fp_line (start -1.21 3.51) (end -1.21 3.56) (layer F.SilkS) (width 0.12))
  (fp_line (start 1.21 3.51) (end 1.21 3.56) (layer F.SilkS) (width 0.12))
  (fp_line (start -3.65 -4) (end -3.65 4) (layer F.CrtYd) (width 0.05))
  (fp_line (start -3.65 4) (end 3.65 4) (layer F.CrtYd) (width 0.05))
  (fp_line (start 3.65 4) (end 3.65 -4) (layer F.CrtYd) (width 0.05))
  (fp_line (start 3.65 -4) (end -3.65 -4) (layer F.CrtYd) (width 0.05))
  (pad 1 smd rect (at -1.65 -3) (size 2 0.5) (layers F.Cu F.Mask F.Paste))
  (pad 2 smd rect (at 1.65 -3) (size 2 0.5) (layers F.Cu F.Mask F.Paste))
  (pad 3 smd rect (at -1.65 -2) (size 2 0.5) (layers F.Cu F.Mask F.Paste))
  (pad 4 smd rect (at 1.65 -2) (size 2 0.5) (layers F.Cu F.Mask F.Paste))
  (pad 5 smd rect (at -1.65 -1) (size 2 0.5) (layers F.Cu F.Mask F.Paste))
  (pad 6 smd rect (at 1.65 -1) (size 2 0.5) (layers F.Cu F.Mask F.Paste))
  (pad 7 smd rect (at -1.65 0) (size 2 0.5) (layers F.Cu F.Mask F.Paste))
  (pad 8 smd rect (at 1.65 0) (size 2 0.5) (layers F.Cu F.Mask F.Paste))
  (pad 9 smd rect (at -1.65 1) (size 2 0.5) (layers F.Cu F.Mask F.Paste))
  (pad 10 smd rect (at 1.65 1) (size 2 0.5) (layers F.Cu F.Mask F.Paste))
  (pad 11 smd rect (at -1.65 2) (size 2 0.5) (layers F.Cu F.Mask F.Paste))
  (pad 12 smd rect (at 1.65 2) (size 2 0.5) (layers F.Cu F.Mask F.Paste))
  (pad 13 smd rect (at -1.65 3) (size 2 0.5) (layers F.Cu F.Mask F.Paste))
  (pad 14 smd rect (at 1.65 3) (size 2 0.5) (layers F.Cu F.Mask F.Paste))
  (fp_text user %R (at 0 0 90) (layer F.Fab)
    (effects (font (size 1 1) (thickness 0.15)))
  )
  (model ${KICAD6_3DMODEL_DIR}/Connector_PinHeader_1.00mm.3dshapes/PinHeader_2x07_P1.00mm_Vertical_SMD.wrl
    (at (xyz 0 0 0))
    (scale (xyz 1 1 1))
    (rotate (xyz 0 0 0))
  )
)