(module PinHeader_2x18_P1.00mm_Horizontal (layer F.Cu) (tedit 59FED738)
  (descr "Through hole angled pin header, 2x18, 1.00mm pitch, 2.0mm pin length, double rows")
  (tags "Through hole angled pin header THT 2x18 1.00mm double row")
  (fp_text reference REF** (at 2.3 -1.5) (layer F.SilkS)
    (effects (font (size 1 1) (thickness 0.15)))
  )
  (fp_text value PinHeader_2x18_P1.00mm_Horizontal (at 2.3 18.5) (layer F.Fab)
    (effects (font (size 1 1) (thickness 0.15)))
  )
  (fp_line (start 2.2 -0.5) (end 3.1 -0.5) (layer F.Fab) (width 0.1))
  (fp_line (start 3.1 -0.5) (end 3.1 17.5) (layer F.Fab) (width 0.1))
  (fp_line (start 3.1 17.5) (end 1.9 17.5) (layer F.Fab) (width 0.1))
  (fp_line (start 1.9 17.5) (end 1.9 -0.2) (layer F.Fab) (width 0.1))
  (fp_line (start 1.9 -0.2) (end 2.2 -0.5) (layer F.Fab) (width 0.1))
  (fp_line (start -0.15 -0.15) (end 1.9 -0.15) (layer F.Fab) (width 0.1))
  (fp_line (start -0.15 -0.15) (end -0.15 0.15) (layer F.Fab) (width 0.1))
  (fp_line (start -0.15 0.15) (end 1.9 0.15) (layer F.Fab) (width 0.1))
  (fp_line (start 3.1 -0.15) (end 5.1 -0.15) (layer F.Fab) (width 0.1))
  (fp_line (start 5.1 -0.15) (end 5.1 0.15) (layer F.Fab) (width 0.1))
  (fp_line (start 3.1 0.15) (end 5.1 0.15) (layer F.Fab) (width 0.1))
  (fp_line (start -0.15 0.85) (end 1.9 0.85) (layer F.Fab) (width 0.1))
  (fp_line (start -0.15 0.85) (end -0.15 1.15) (layer F.Fab) (width 0.1))
  (fp_line (start -0.15 1.15) (end 1.9 1.15) (layer F.Fab) (width 0.1))
  (fp_line (start 3.1 0.85) (end 5.1 0.85) (layer F.Fab) (width 0.1))
  (fp_line (start 5.1 0.85) (end 5.1 1.15) (layer F.Fab) (width 0.1))
  (fp_line (start 3.1 1.15) (end 5.1 1.15) (layer F.Fab) (width 0.1))
  (fp_line (start -0.15 1.85) (end 1.9 1.85) (layer F.Fab) (width 0.1))
  (fp_line (start -0.15 1.85) (end -0.15 2.15) (layer F.Fab) (width 0.1))
  (fp_line (start -0.15 2.15) (end 1.9 2.15) (layer F.Fab) (width 0.1))
  (fp_line (start 3.1 1.85) (end 5.1 1.85) (layer F.Fab) (width 0.1))
  (fp_line (start 5.1 1.85) (end 5.1 2.15) (layer F.Fab) (width 0.1))
  (fp_line (start 3.1 2.15) (end 5.1 2.15) (layer F.Fab) (width 0.1))
  (fp_line (start -0.15 2.85) (end 1.9 2.85) (layer F.Fab) (width 0.1))
  (fp_line (start -0.15 2.85) (end -0.15 3.15) (layer F.Fab) (width 0.1))
  (fp_line (start -0.15 3.15) (end 1.9 3.15) (layer F.Fab) (width 0.1))
  (fp_line (start 3.1 2.85) (end 5.1 2.85) (layer F.Fab) (width 0.1))
  (fp_line (start 5.1 2.85) (end 5.1 3.15) (layer F.Fab) (width 0.1))
  (fp_line (start 3.1 3.15) (end 5.1 3.15) (layer F.Fab) (width 0.1))
  (fp_line (start -0.15 3.85) (end 1.9 3.85) (layer F.Fab) (width 0.1))
  (fp_line (start -0.15 3.85) (end -0.15 4.15) (layer F.Fab) (width 0.1))
  (fp_line (start -0.15 4.15) (end 1.9 4.15) (layer F.Fab) (width 0.1))
  (fp_line (start 3.1 3.85) (end 5.1 3.85) (layer F.Fab) (width 0.1))
  (fp_line (start 5.1 3.85) (end 5.1 4.15) (layer F.Fab) (width 0.1))
  (fp_line (start 3.1 4.15) (end 5.1 4.15) (layer F.Fab) (width 0.1))
  (fp_line (start -0.15 4.85) (end 1.9 4.85) (layer F.Fab) (width 0.1))
  (fp_line (start -0.15 4.85) (end -0.15 5.15) (layer F.Fab) (width 0.1))
  (fp_line (start -0.15 5.15) (end 1.9 5.15) (layer F.Fab) (width 0.1))
  (fp_line (start 3.1 4.85) (end 5.1 4.85) (layer F.Fab) (width 0.1))
  (fp_line (start 5.1 4.85) (end 5.1 5.15) (layer F.Fab) (width 0.1))
  (fp_line (start 3.1 5.15) (end 5.1 5.15) (layer F.Fab) (width 0.1))
  (fp_line (start -0.15 5.85) (end 1.9 5.85) (layer F.Fab) (width 0.1))
  (fp_line (start -0.15 5.85) (end -0.15 6.15) (layer F.Fab) (width 0.1))
  (fp_line (start -0.15 6.15) (end 1.9 6.15) (layer F.Fab) (width 0.1))
  (fp_line (start 3.1 5.85) (end 5.1 5.85) (layer F.Fab) (width 0.1))
  (fp_line (start 5.1 5.85) (end 5.1 6.15) (layer F.Fab) (width 0.1))
  (fp_line (start 3.1 6.15) (end 5.1 6.15) (layer F.Fab) (width 0.1))
  (fp_line (start -0.15 6.85) (end 1.9 6.85) (layer F.Fab) (width 0.1))
  (fp_line (start -0.15 6.85) (end -0.15 7.15) (layer F.Fab) (width 0.1))
  (fp_line (start -0.15 7.15) (end 1.9 7.15) (layer F.Fab) (width 0.1))
  (fp_line (start 3.1 6.85) (end 5.1 6.85) (layer F.Fab) (width 0.1))
  (fp_line (start 5.1 6.85) (end 5.1 7.15) (layer F.Fab) (width 0.1))
  (fp_line (start 3.1 7.15) (end 5.1 7.15) (layer F.Fab) (width 0.1))
  (fp_line (start -0.15 7.85) (end 1.9 7.85) (layer F.Fab) (width 0.1))
  (fp_line (start -0.15 7.85) (end -0.15 8.15) (layer F.Fab) (width 0.1))
  (fp_line (start -0.15 8.15) (end 1.9 8.15) (layer F.Fab) (width 0.1))
  (fp_line (start 3.1 7.85) (end 5.1 7.85) (layer F.Fab) (width 0.1))
  (fp_line (start 5.1 7.85) (end 5.1 8.15) (layer F.Fab) (width 0.1))
  (fp_line (start 3.1 8.15) (end 5.1 8.15) (layer F.Fab) (width 0.1))
  (fp_line (start -0.15 8.85) (end 1.9 8.85) (layer F.Fab) (width 0.1))
  (fp_line (start -0.15 8.85) (end -0.15 9.15) (layer F.Fab) (width 0.1))
  (fp_line (start -0.15 9.15) (end 1.9 9.15) (layer F.Fab) (width 0.1))
  (fp_line (start 3.1 8.85) (end 5.1 8.85) (layer F.Fab) (width 0.1))
  (fp_line (start 5.1 8.85) (end 5.1 9.15) (layer F.Fab) (width 0.1))
  (fp_line (start 3.1 9.15) (end 5.1 9.15) (layer F.Fab) (width 0.1))
  (fp_line (start -0.15 9.85) (end 1.9 9.85) (layer F.Fab) (width 0.1))
  (fp_line (start -0.15 9.85) (end -0.15 10.15) (layer F.Fab) (width 0.1))
  (fp_line (start -0.15 10.15) (end 1.9 10.15) (layer F.Fab) (width 0.1))
  (fp_line (start 3.1 9.85) (end 5.1 9.85) (layer F.Fab) (width 0.1))
  (fp_line (start 5.1 9.85) (end 5.1 10.15) (layer F.Fab) (width 0.1))
  (fp_line (start 3.1 10.15) (end 5.1 10.15) (layer F.Fab) (width 0.1))
  (fp_line (start -0.15 10.85) (end 1.9 10.85) (layer F.Fab) (width 0.1))
  (fp_line (start -0.15 10.85) (end -0.15 11.15) (layer F.Fab) (width 0.1))
  (fp_line (start -0.15 11.15) (end 1.9 11.15) (layer F.Fab) (width 0.1))
  (fp_line (start 3.1 10.85) (end 5.1 10.85) (layer F.Fab) (width 0.1))
  (fp_line (start 5.1 10.85) (end 5.1 11.15) (layer F.Fab) (width 0.1))
  (fp_line (start 3.1 11.15) (end 5.1 11.15) (layer F.Fab) (width 0.1))
  (fp_line (start -0.15 11.85) (end 1.9 11.85) (layer F.Fab) (width 0.1))
  (fp_line (start -0.15 11.85) (end -0.15 12.15) (layer F.Fab) (width 0.1))
  (fp_line (start -0.15 12.15) (end 1.9 12.15) (layer F.Fab) (width 0.1))
  (fp_line (start 3.1 11.85) (end 5.1 11.85) (layer F.Fab) (width 0.1))
  (fp_line (start 5.1 11.85) (end 5.1 12.15) (layer F.Fab) (width 0.1))
  (fp_line (start 3.1 12.15) (end 5.1 12.15) (layer F.Fab) (width 0.1))
  (fp_line (start -0.15 12.85) (end 1.9 12.85) (layer F.Fab) (width 0.1))
  (fp_line (start -0.15 12.85) (end -0.15 13.15) (layer F.Fab) (width 0.1))
  (fp_line (start -0.15 13.15) (end 1.9 13.15) (layer F.Fab) (width 0.1))
  (fp_line (start 3.1 12.85) (end 5.1 12.85) (layer F.Fab) (width 0.1))
  (fp_line (start 5.1 12.85) (end 5.1 13.15) (layer F.Fab) (width 0.1))
  (fp_line (start 3.1 13.15) (end 5.1 13.15) (layer F.Fab) (width 0.1))
  (fp_line (start -0.15 13.85) (end 1.9 13.85) (layer F.Fab) (width 0.1))
  (fp_line (start -0.15 13.85) (end -0.15 14.15) (layer F.Fab) (width 0.1))
  (fp_line (start -0.15 14.15) (end 1.9 14.15) (layer F.Fab) (width 0.1))
  (fp_line (start 3.1 13.85) (end 5.1 13.85) (layer F.Fab) (width 0.1))
  (fp_line (start 5.1 13.85) (end 5.1 14.15) (layer F.Fab) (width 0.1))
  (fp_line (start 3.1 14.15) (end 5.1 14.15) (layer F.Fab) (width 0.1))
  (fp_line (start -0.15 14.85) (end 1.9 14.85) (layer F.Fab) (width 0.1))
  (fp_line (start -0.15 14.85) (end -0.15 15.15) (layer F.Fab) (width 0.1))
  (fp_line (start -0.15 15.15) (end 1.9 15.15) (layer F.Fab) (width 0.1))
  (fp_line (start 3.1 14.85) (end 5.1 14.85) (layer F.Fab) (width 0.1))
  (fp_line (start 5.1 14.85) (end 5.1 15.15) (layer F.Fab) (width 0.1))
  (fp_line (start 3.1 15.15) (end 5.1 15.15) (layer F.Fab) (width 0.1))
  (fp_line (start -0.15 15.85) (end 1.9 15.85) (layer F.Fab) (width 0.1))
  (fp_line (start -0.15 15.85) (end -0.15 16.15) (layer F.Fab) (width 0.1))
  (fp_line (start -0.15 16.15) (end 1.9 16.15) (layer F.Fab) (width 0.1))
  (fp_line (start 3.1 15.85) (end 5.1 15.85) (layer F.Fab) (width 0.1))
  (fp_line (start 5.1 15.85) (end 5.1 16.15) (layer F.Fab) (width 0.1))
  (fp_line (start 3.1 16.15) (end 5.1 16.15) (layer F.Fab) (width 0.1))
  (fp_line (start -0.15 16.85) (end 1.9 16.85) (layer F.Fab) (width 0.1))
  (fp_line (start -0.15 16.85) (end -0.15 17.15) (layer F.Fab) (width 0.1))
  (fp_line (start -0.15 17.15) (end 1.9 17.15) (layer F.Fab) (width 0.1))
  (fp_line (start 3.1 16.85) (end 5.1 16.85) (layer F.Fab) (width 0.1))
  (fp_line (start 5.1 16.85) (end 5.1 17.15) (layer F.Fab) (width 0.1))
  (fp_line (start 3.1 17.15) (end 5.1 17.15) (layer F.Fab) (width 0.1))
  (fp_line (start 1.84 -0.56) (end 1.84 17.56) (layer F.SilkS) (width 0.12))
  (fp_line (start 1.84 17.56) (end 3.16 17.56) (layer F.SilkS) (width 0.12))
  (fp_line (start 3.16 17.56) (end 3.16 -0.56) (layer F.SilkS) (width 0.12))
  (fp_line (start 3.16 -0.56) (end 1.84 -0.56) (layer F.SilkS) (width 0.12))
  (fp_line (start 3.16 -0.21) (end 5.16 -0.21) (layer F.SilkS) (width 0.12))
  (fp_line (start 5.16 -0.21) (end 5.16 0.21) (layer F.SilkS) (width 0.12))
  (fp_line (start 5.16 0.21) (end 3.16 0.21) (layer F.SilkS) (width 0.12))
  (fp_line (start 3.16 -0.15) (end 5.16 -0.15) (layer F.SilkS) (width 0.12))
  (fp_line (start 3.16 -0.03) (end 5.16 -0.03) (layer F.SilkS) (width 0.12))
  (fp_line (start 3.16 0.09) (end 5.16 0.09) (layer F.SilkS) (width 0.12))
  (fp_line (start 1.652016 -0.21) (end 1.84 -0.21) (layer F.SilkS) (width 0.12))
  (fp_line (start 1.652016 0.21) (end 1.84 0.21) (layer F.SilkS) (width 0.12))
  (fp_line (start 1.84 0.5) (end 3.16 0.5) (layer F.SilkS) (width 0.12))
  (fp_line (start 3.16 0.79) (end 5.16 0.79) (layer F.SilkS) (width 0.12))
  (fp_line (start 5.16 0.79) (end 5.16 1.21) (layer F.SilkS) (width 0.12))
  (fp_line (start 5.16 1.21) (end 3.16 1.21) (layer F.SilkS) (width 0.12))
  (fp_line (start 1.652016 0.79) (end 1.84 0.79) (layer F.SilkS) (width 0.12))
  (fp_line (start 1.652016 1.21) (end 1.84 1.21) (layer F.SilkS) (width 0.12))
  (fp_line (start 1.84 1.5) (end 3.16 1.5) (layer F.SilkS) (width 0.12))
  (fp_line (start 3.16 1.79) (end 5.16 1.79) (layer F.SilkS) (width 0.12))
  (fp_line (start 5.16 1.79) (end 5.16 2.21) (layer F.SilkS) (width 0.12))
  (fp_line (start 5.16 2.21) (end 3.16 2.21) (layer F.SilkS) (width 0.12))
  (fp_line (start 1.652016 1.79) (end 1.84 1.79) (layer F.SilkS) (width 0.12))
  (fp_line (start 1.652016 2.21) (end 1.84 2.21) (layer F.SilkS) (width 0.12))
  (fp_line (start 1.84 2.5) (end 3.16 2.5) (layer F.SilkS) (width 0.12))
  (fp_line (start 3.16 2.79) (end 5.16 2.79) (layer F.SilkS) (width 0.12))
  (fp_line (start 5.16 2.79) (end 5.16 3.21) (layer F.SilkS) (width 0.12))
  (fp_line (start 5.16 3.21) (end 3.16 3.21) (layer F.SilkS) (width 0.12))
  (fp_line (start 1.652016 2.79) (end 1.84 2.79) (layer F.SilkS) (width 0.12))
  (fp_line (start 1.652016 3.21) (end 1.84 3.21) (layer F.SilkS) (width 0.12))
  (fp_line (start 1.84 3.5) (end 3.16 3.5) (layer F.SilkS) (width 0.12))
  (fp_line (start 3.16 3.79) (end 5.16 3.79) (layer F.SilkS) (width 0.12))
  (fp_line (start 5.16 3.79) (end 5.16 4.21) (layer F.SilkS) (width 0.12))
  (fp_line (start 5.16 4.21) (end 3.16 4.21) (layer F.SilkS) (width 0.12))
  (fp_line (start 1.652016 3.79) (end 1.84 3.79) (layer F.SilkS) (width 0.12))
  (fp_line (start 1.652016 4.21) (end 1.84 4.21) (layer F.SilkS) (width 0.12))
  (fp_line (start 1.84 4.5) (end 3.16 4.5) (layer F.SilkS) (width 0.12))
  (fp_line (start 3.16 4.79) (end 5.16 4.79) (layer F.SilkS) (width 0.12))
  (fp_line (start 5.16 4.79) (end 5.16 5.21) (layer F.SilkS) (width 0.12))
  (fp_line (start 5.16 5.21) (end 3.16 5.21) (layer F.SilkS) (width 0.12))
  (fp_line (start 1.652016 4.79) (end 1.84 4.79) (layer F.SilkS) (width 0.12))
  (fp_line (start 1.652016 5.21) (end 1.84 5.21) (layer F.SilkS) (width 0.12))
  (fp_line (start 1.84 5.5) (end 3.16 5.5) (layer F.SilkS) (width 0.12))
  (fp_line (start 3.16 5.79) (end 5.16 5.79) (layer F.SilkS) (width 0.12))
  (fp_line (start 5.16 5.79) (end 5.16 6.21) (layer F.SilkS) (width 0.12))
  (fp_line (start 5.16 6.21) (end 3.16 6.21) (layer F.SilkS) (width 0.12))
  (fp_line (start 1.652016 5.79) (end 1.84 5.79) (layer F.SilkS) (width 0.12))
  (fp_line (start 1.652016 6.21) (end 1.84 6.21) (layer F.SilkS) (width 0.12))
  (fp_line (start 1.84 6.5) (end 3.16 6.5) (layer F.SilkS) (width 0.12))
  (fp_line (start 3.16 6.79) (end 5.16 6.79) (layer F.SilkS) (width 0.12))
  (fp_line (start 5.16 6.79) (end 5.16 7.21) (layer F.SilkS) (width 0.12))
  (fp_line (start 5.16 7.21) (end 3.16 7.21) (layer F.SilkS) (width 0.12))
  (fp_line (start 1.652016 6.79) (end 1.84 6.79) (layer F.SilkS) (width 0.12))
  (fp_line (start 1.652016 7.21) (end 1.84 7.21) (layer F.SilkS) (width 0.12))
  (fp_line (start 1.84 7.5) (end 3.16 7.5) (layer F.SilkS) (width 0.12))
  (fp_line (start 3.16 7.79) (end 5.16 7.79) (layer F.SilkS) (width 0.12))
  (fp_line (start 5.16 7.79) (end 5.16 8.21) (layer F.SilkS) (width 0.12))
  (fp_line (start 5.16 8.21) (end 3.16 8.21) (layer F.SilkS) (width 0.12))
  (fp_line (start 1.652016 7.79) (end 1.84 7.79) (layer F.SilkS) (width 0.12))
  (fp_line (start 1.652016 8.21) (end 1.84 8.21) (layer F.SilkS) (width 0.12))
  (fp_line (start 1.84 8.5) (end 3.16 8.5) (layer F.SilkS) (width 0.12))
  (fp_line (start 3.16 8.79) (end 5.16 8.79) (layer F.SilkS) (width 0.12))
  (fp_line (start 5.16 8.79) (end 5.16 9.21) (layer F.SilkS) (width 0.12))
  (fp_line (start 5.16 9.21) (end 3.16 9.21) (layer F.SilkS) (width 0.12))
  (fp_line (start 1.652016 8.79) (end 1.84 8.79) (layer F.SilkS) (width 0.12))
  (fp_line (start 1.652016 9.21) (end 1.84 9.21) (layer F.SilkS) (width 0.12))
  (fp_line (start 1.84 9.5) (end 3.16 9.5) (layer F.SilkS) (width 0.12))
  (fp_line (start 3.16 9.79) (end 5.16 9.79) (layer F.SilkS) (width 0.12))
  (fp_line (start 5.16 9.79) (end 5.16 10.21) (layer F.SilkS) (width 0.12))
  (fp_line (start 5.16 10.21) (end 3.16 10.21) (layer F.SilkS) (width 0.12))
  (fp_line (start 1.652016 9.79) (end 1.84 9.79) (layer F.SilkS) (width 0.12))
  (fp_line (start 1.652016 10.21) (end 1.84 10.21) (layer F.SilkS) (width 0.12))
  (fp_line (start 1.84 10.5) (end 3.16 10.5) (layer F.SilkS) (width 0.12))
  (fp_line (start 3.16 10.79) (end 5.16 10.79) (layer F.SilkS) (width 0.12))
  (fp_line (start 5.16 10.79) (end 5.16 11.21) (layer F.SilkS) (width 0.12))
  (fp_line (start 5.16 11.21) (end 3.16 11.21) (layer F.SilkS) (width 0.12))
  (fp_line (start 1.652016 10.79) (end 1.84 10.79) (layer F.SilkS) (width 0.12))
  (fp_line (start 1.652016 11.21) (end 1.84 11.21) (layer F.SilkS) (width 0.12))
  (fp_line (start 1.84 11.5) (end 3.16 11.5) (layer F.SilkS) (width 0.12))
  (fp_line (start 3.16 11.79) (end 5.16 11.79) (layer F.SilkS) (width 0.12))
  (fp_line (start 5.16 11.79) (end 5.16 12.21) (layer F.SilkS) (width 0.12))
  (fp_line (start 5.16 12.21) (end 3.16 12.21) (layer F.SilkS) (width 0.12))
  (fp_line (start 1.652016 11.79) (end 1.84 11.79) (layer F.SilkS) (width 0.12))
  (fp_line (start 1.652016 12.21) (end 1.84 12.21) (layer F.SilkS) (width 0.12))
  (fp_line (start 1.84 12.5) (end 3.16 12.5) (layer F.SilkS) (width 0.12))
  (fp_line (start 3.16 12.79) (end 5.16 12.79) (layer F.SilkS) (width 0.12))
  (fp_line (start 5.16 12.79) (end 5.16 13.21) (layer F.SilkS) (width 0.12))
  (fp_line (start 5.16 13.21) (end 3.16 13.21) (layer F.SilkS) (width 0.12))
  (fp_line (start 1.652016 12.79) (end 1.84 12.79) (layer F.SilkS) (width 0.12))
  (fp_line (start 1.652016 13.21) (end 1.84 13.21) (layer F.SilkS) (width 0.12))
  (fp_line (start 1.84 13.5) (end 3.16 13.5) (layer F.SilkS) (width 0.12))
  (fp_line (start 3.16 13.79) (end 5.16 13.79) (layer F.SilkS) (width 0.12))
  (fp_line (start 5.16 13.79) (end 5.16 14.21) (layer F.SilkS) (width 0.12))
  (fp_line (start 5.16 14.21) (end 3.16 14.21) (layer F.SilkS) (width 0.12))
  (fp_line (start 1.652016 13.79) (end 1.84 13.79) (layer F.SilkS) (width 0.12))
  (fp_line (start 1.652016 14.21) (end 1.84 14.21) (layer F.SilkS) (width 0.12))
  (fp_line (start 1.84 14.5) (end 3.16 14.5) (layer F.SilkS) (width 0.12))
  (fp_line (start 3.16 14.79) (end 5.16 14.79) (layer F.SilkS) (width 0.12))
  (fp_line (start 5.16 14.79) (end 5.16 15.21) (layer F.SilkS) (width 0.12))
  (fp_line (start 5.16 15.21) (end 3.16 15.21) (layer F.SilkS) (width 0.12))
  (fp_line (start 1.652016 14.79) (end 1.84 14.79) (layer F.SilkS) (width 0.12))
  (fp_line (start 1.652016 15.21) (end 1.84 15.21) (layer F.SilkS) (width 0.12))
  (fp_line (start 1.84 15.5) (end 3.16 15.5) (layer F.SilkS) (width 0.12))
  (fp_line (start 3.16 15.79) (end 5.16 15.79) (layer F.SilkS) (width 0.12))
  (fp_line (start 5.16 15.79) (end 5.16 16.21) (layer F.SilkS) (width 0.12))
  (fp_line (start 5.16 16.21) (end 3.16 16.21) (layer F.SilkS) (width 0.12))
  (fp_line (start 1.652016 15.79) (end 1.84 15.79) (layer F.SilkS) (width 0.12))
  (fp_line (start 1.652016 16.21) (end 1.84 16.21) (layer F.SilkS) (width 0.12))
  (fp_line (start 1.84 16.5) (end 3.16 16.5) (layer F.SilkS) (width 0.12))
  (fp_line (start 3.16 16.79) (end 5.16 16.79) (layer F.SilkS) (width 0.12))
  (fp_line (start 5.16 16.79) (end 5.16 17.21) (layer F.SilkS) (width 0.12))
  (fp_line (start 5.16 17.21) (end 3.16 17.21) (layer F.SilkS) (width 0.12))
  (fp_line (start 1.652016 16.79) (end 1.84 16.79) (layer F.SilkS) (width 0.12))
  (fp_line (start 1.652016 17.21) (end 1.84 17.21) (layer F.SilkS) (width 0.12))
  (fp_line (start -0.685 0) (end -0.685 -0.685) (layer F.SilkS) (width 0.12))
  (fp_line (start -0.685 -0.685) (end 0 -0.685) (layer F.SilkS) (width 0.12))
  (fp_line (start -1 -1) (end -1 18) (layer F.CrtYd) (width 0.05))
  (fp_line (start -1 18) (end 5.6 18) (layer F.CrtYd) (width 0.05))
  (fp_line (start 5.6 18) (end 5.6 -1) (layer F.CrtYd) (width 0.05))
  (fp_line (start 5.6 -1) (end -1 -1) (layer F.CrtYd) (width 0.05))
  (pad 1 thru_hole rect (at 0 0) (size 0.85 0.85) (drill 0.5) (layers *.Cu *.Mask))
  (pad 2 thru_hole oval (at 1 0) (size 0.85 0.85) (drill 0.5) (layers *.Cu *.Mask))
  (pad 3 thru_hole oval (at 0 1) (size 0.85 0.85) (drill 0.5) (layers *.Cu *.Mask))
  (pad 4 thru_hole oval (at 1 1) (size 0.85 0.85) (drill 0.5) (layers *.Cu *.Mask))
  (pad 5 thru_hole oval (at 0 2) (size 0.85 0.85) (drill 0.5) (layers *.Cu *.Mask))
  (pad 6 thru_hole oval (at 1 2) (size 0.85 0.85) (drill 0.5) (layers *.Cu *.Mask))
  (pad 7 thru_hole oval (at 0 3) (size 0.85 0.85) (drill 0.5) (layers *.Cu *.Mask))
  (pad 8 thru_hole oval (at 1 3) (size 0.85 0.85) (drill 0.5) (layers *.Cu *.Mask))
  (pad 9 thru_hole oval (at 0 4) (size 0.85 0.85) (drill 0.5) (layers *.Cu *.Mask))
  (pad 10 thru_hole oval (at 1 4) (size 0.85 0.85) (drill 0.5) (layers *.Cu *.Mask))
  (pad 11 thru_hole oval (at 0 5) (size 0.85 0.85) (drill 0.5) (layers *.Cu *.Mask))
  (pad 12 thru_hole oval (at 1 5) (size 0.85 0.85) (drill 0.5) (layers *.Cu *.Mask))
  (pad 13 thru_hole oval (at 0 6) (size 0.85 0.85) (drill 0.5) (layers *.Cu *.Mask))
  (pad 14 thru_hole oval (at 1 6) (size 0.85 0.85) (drill 0.5) (layers *.Cu *.Mask))
  (pad 15 thru_hole oval (at 0 7) (size 0.85 0.85) (drill 0.5) (layers *.Cu *.Mask))
  (pad 16 thru_hole oval (at 1 7) (size 0.85 0.85) (drill 0.5) (layers *.Cu *.Mask))
  (pad 17 thru_hole oval (at 0 8) (size 0.85 0.85) (drill 0.5) (layers *.Cu *.Mask))
  (pad 18 thru_hole oval (at 1 8) (size 0.85 0.85) (drill 0.5) (layers *.Cu *.Mask))
  (pad 19 thru_hole oval (at 0 9) (size 0.85 0.85) (drill 0.5) (layers *.Cu *.Mask))
  (pad 20 thru_hole oval (at 1 9) (size 0.85 0.85) (drill 0.5) (layers *.Cu *.Mask))
  (pad 21 thru_hole oval (at 0 10) (size 0.85 0.85) (drill 0.5) (layers *.Cu *.Mask))
  (pad 22 thru_hole oval (at 1 10) (size 0.85 0.85) (drill 0.5) (layers *.Cu *.Mask))
  (pad 23 thru_hole oval (at 0 11) (size 0.85 0.85) (drill 0.5) (layers *.Cu *.Mask))
  (pad 24 thru_hole oval (at 1 11) (size 0.85 0.85) (drill 0.5) (layers *.Cu *.Mask))
  (pad 25 thru_hole oval (at 0 12) (size 0.85 0.85) (drill 0.5) (layers *.Cu *.Mask))
  (pad 26 thru_hole oval (at 1 12) (size 0.85 0.85) (drill 0.5) (layers *.Cu *.Mask))
  (pad 27 thru_hole oval (at 0 13) (size 0.85 0.85) (drill 0.5) (layers *.Cu *.Mask))
  (pad 28 thru_hole oval (at 1 13) (size 0.85 0.85) (drill 0.5) (layers *.Cu *.Mask))
  (pad 29 thru_hole oval (at 0 14) (size 0.85 0.85) (drill 0.5) (layers *.Cu *.Mask))
  (pad 30 thru_hole oval (at 1 14) (size 0.85 0.85) (drill 0.5) (layers *.Cu *.Mask))
  (pad 31 thru_hole oval (at 0 15) (size 0.85 0.85) (drill 0.5) (layers *.Cu *.Mask))
  (pad 32 thru_hole oval (at 1 15) (size 0.85 0.85) (drill 0.5) (layers *.Cu *.Mask))
  (pad 33 thru_hole oval (at 0 16) (size 0.85 0.85) (drill 0.5) (layers *.Cu *.Mask))
  (pad 34 thru_hole oval (at 1 16) (size 0.85 0.85) (drill 0.5) (layers *.Cu *.Mask))
  (pad 35 thru_hole oval (at 0 17) (size 0.85 0.85) (drill 0.5) (layers *.Cu *.Mask))
  (pad 36 thru_hole oval (at 1 17) (size 0.85 0.85) (drill 0.5) (layers *.Cu *.Mask))
  (fp_text user %R (at 2.5 8.5 90) (layer F.Fab)
    (effects (font (size 0.72 0.72) (thickness 0.108)))
  )
  (model ${KICAD6_3DMODEL_DIR}/Connector_PinHeader_1.00mm.3dshapes/PinHeader_2x18_P1.00mm_Horizontal.wrl
    (at (xyz 0 0 0))
    (scale (xyz 1 1 1))
    (rotate (xyz 0 0 0))
  )
)