(module PinHeader_1x02_P1.00mm_Vertical_SMD_Pin1Left (layer F.Cu) (tedit 59FED738)
  (descr "surface-mounted straight pin header, 1x02, 1.00mm pitch, single row, style 1 (pin 1 left)")
  (tags "Surface mounted pin header SMD 1x02 1.00mm single row style1 pin1 left")
  (attr smd)
  (fp_text reference REF** (at 0 -2.06) (layer F.SilkS)
    (effects (font (size 1 1) (thickness 0.15)))
  )
  (fp_text value PinHeader_1x02_P1.00mm_Vertical_SMD_Pin1Left (at 0 2.06) (layer F.Fab)
    (effects (font (size 1 1) (thickness 0.15)))
  )
  (fp_line (start 0.635 1) (end -0.635 1) (layer F.Fab) (width 0.1))
  (fp_line (start -0.285 -1) (end 0.635 -1) (layer F.Fab) (width 0.1))
  (fp_line (start -0.635 1) (end -0.635 -0.65) (layer F.Fab) (width 0.1))
  (fp_line (start -0.635 -0.65) (end -0.285 -1) (layer F.Fab) (width 0.1))
  (fp_line (start 0.635 -1) (end 0.635 1) (layer F.Fab) (width 0.1))
  (fp_line (start -0.635 -0.65) (end -1.25 -0.65) (layer F.Fab) (width 0.1))
  (fp_line (start -1.25 -0.65) (end -1.25 -0.35) (layer F.Fab) (width 0.1))
  (fp_line (start -1.25 -0.35) (end -0.635 -0.35) (layer F.Fab) (width 0.1))
  (fp_line (start 0.635 0.35) (end 1.25 0.35) (layer F.Fab) (width 0.1))
  (fp_line (start 1.25 0.35) (end 1.25 0.65) (layer F.Fab) (width 0.1))
  (fp_line (start 1.25 0.65) (end 0.635 0.65) (layer F.Fab) (width 0.1))
  (fp_line (start -0.695 -1.06) (end 0.695 -1.06) (layer F.SilkS) (width 0.12))
  (fp_line (start -0.695 1.06) (end 0.695 1.06) (layer F.SilkS) (width 0.12))
  (fp_line (start -0.695 -1.06) (end -1.69 -1.06) (layer F.SilkS) (width 0.12))
  (fp_line (start -0.695 -1.06) (end -0.695 -1.06) (layer F.SilkS) (width 0.12))
  (fp_line (start 0.695 1.06) (end 0.695 1.06) (layer F.SilkS) (width 0.12))
  (fp_line (start 0.695 -1.06) (end 0.695 -0.06) (layer F.SilkS) (width 0.12))
  (fp_line (start -0.695 0.06) (end -0.695 1.06) (layer F.SilkS) (width 0.12))
  (fp_line (start -2.25 -1.5) (end -2.25 1.5) (layer F.CrtYd) (width 0.05))
  (fp_line (start -2.25 1.5) (end 2.25 1.5) (layer F.CrtYd) (width 0.05))
  (fp_line (start 2.25 1.5) (end 2.25 -1.5) (layer F.CrtYd) (width 0.05))
  (fp_line (start 2.25 -1.5) (end -2.25 -1.5) (layer F.CrtYd) (width 0.05))
  (pad 1 smd rect (at -0.875 -0.5) (size 1.75 0.6) (layers F.Cu F.Mask F.Paste))
  (pad 2 smd rect (at 0.875 0.5) (size 1.75 0.6) (layers F.Cu F.Mask F.Paste))
  (fp_text user %R (at 0 0 90) (layer F.Fab)
    (effects (font (size 1 1) (thickness 0.15)))
  )
  (model ${KICAD6_3DMODEL_DIR}/Connector_PinHeader_1.00mm.3dshapes/PinHeader_1x02_P1.00mm_Vertical_SMD_Pin1Left.wrl
    (at (xyz 0 0 0))
    (scale (xyz 1 1 1))
    (rotate (xyz 0 0 0))
  )
)