(module PinHeader_1x07_P1.00mm_Vertical (layer F.Cu) (tedit 59FED738)
  (descr "Through hole straight pin header, 1x07, 1.00mm pitch, single row")
  (tags "Through hole pin header THT 1x07 1.00mm single row")
  (fp_text reference REF** (at 0 -1.56) (layer F.SilkS)
    (effects (font (size 1 1) (thickness 0.15)))
  )
  (fp_text value PinHeader_1x07_P1.00mm_Vertical (at 0 7.56) (layer F.Fab)
    (effects (font (size 1 1) (thickness 0.15)))
  )
  (fp_line (start -0.3175 -0.5) (end 0.635 -0.5) (layer F.Fab) (width 0.1))
  (fp_line (start 0.635 -0.5) (end 0.635 6.5) (layer F.Fab) (width 0.1))
  (fp_line (start 0.635 6.5) (end -0.635 6.5) (layer F.Fab) (width 0.1))
  (fp_line (start -0.635 6.5) (end -0.635 -0.1825) (layer F.Fab) (width 0.1))
  (fp_line (start -0.635 -0.1825) (end -0.3175 -0.5) (layer F.Fab) (width 0.1))
  (fp_line (start -0.695 6.56) (end -0.394493 6.56) (layer F.SilkS) (width 0.12))
  (fp_line (start 0.394493 6.56) (end 0.695 6.56) (layer F.SilkS) (width 0.12))
  (fp_line (start -0.695 0.685) (end -0.695 6.56) (layer F.SilkS) (width 0.12))
  (fp_line (start 0.695 0.685) (end 0.695 6.56) (layer F.SilkS) (width 0.12))
  (fp_line (start -0.695 0.685) (end -0.608276 0.685) (layer F.SilkS) (width 0.12))
  (fp_line (start 0.608276 0.685) (end 0.695 0.685) (layer F.SilkS) (width 0.12))
  (fp_line (start -0.695 0) (end -0.695 -0.685) (layer F.SilkS) (width 0.12))
  (fp_line (start -0.695 -0.685) (end 0 -0.685) (layer F.SilkS) (width 0.12))
  (fp_line (start -1.15 -1) (end -1.15 7) (layer F.CrtYd) (width 0.05))
  (fp_line (start -1.15 7) (end 1.15 7) (layer F.CrtYd) (width 0.05))
  (fp_line (start 1.15 7) (end 1.15 -1) (layer F.CrtYd) (width 0.05))
  (fp_line (start 1.15 -1) (end -1.15 -1) (layer F.CrtYd) (width 0.05))
  (pad 1 thru_hole rect (at 0 0) (size 0.85 0.85) (drill 0.5) (layers *.Cu *.Mask))
  (pad 2 thru_hole oval (at 0 1) (size 0.85 0.85) (drill 0.5) (layers *.Cu *.Mask))
  (pad 3 thru_hole oval (at 0 2) (size 0.85 0.85) (drill 0.5) (layers *.Cu *.Mask))
  (pad 4 thru_hole oval (at 0 3) (size 0.85 0.85) (drill 0.5) (layers *.Cu *.Mask))
  (pad 5 thru_hole oval (at 0 4) (size 0.85 0.85) (drill 0.5) (layers *.Cu *.Mask))
  (pad 6 thru_hole oval (at 0 5) (size 0.85 0.85) (drill 0.5) (layers *.Cu *.Mask))
  (pad 7 thru_hole oval (at 0 6) (size 0.85 0.85) (drill 0.5) (layers *.Cu *.Mask))
  (fp_text user %R (at 0 3 90) (layer F.Fab)
    (effects (font (size 0.76 0.76) (thickness 0.11399999999999999)))
  )
  (model ${KICAD6_3DMODEL_DIR}/Connector_PinHeader_1.00mm.3dshapes/PinHeader_1x07_P1.00mm_Vertical.wrl
    (at (xyz 0 0 0))
    (scale (xyz 1 1 1))
    (rotate (xyz 0 0 0))
  )
)