(module PinHeader_2x01_P1.00mm_Vertical_SMD (layer F.Cu) (tedit 59FED738)
  (descr "surface-mounted straight pin header, 2x01, 1.00mm pitch, double rows")
  (tags "Surface mounted pin header SMD 2x01 1.00mm double row")
  (attr smd)
  (fp_text reference REF** (at 0 -1.56) (layer F.SilkS)
    (effects (font (size 1 1) (thickness 0.15)))
  )
  (fp_text value PinHeader_2x01_P1.00mm_Vertical_SMD (at 0 1.56) (layer F.Fab)
    (effects (font (size 1 1) (thickness 0.15)))
  )
  (fp_line (start 1.15 0.5) (end -1.15 0.5) (layer F.Fab) (width 0.1))
  (fp_line (start -0.8 -0.5) (end 1.15 -0.5) (layer F.Fab) (width 0.1))
  (fp_line (start -1.15 0.5) (end -1.15 -0.15) (layer F.Fab) (width 0.1))
  (fp_line (start -1.15 -0.15) (end -0.8 -0.5) (layer F.Fab) (width 0.1))
  (fp_line (start 1.15 -0.5) (end 1.15 0.5) (layer F.Fab) (width 0.1))
  (fp_line (start -1.15 -0.15) (end -2.4 -0.15) (layer F.Fab) (width 0.1))
  (fp_line (start -2.4 -0.15) (end -2.4 0.15) (layer F.Fab) (width 0.1))
  (fp_line (start -2.4 0.15) (end -1.15 0.15) (layer F.Fab) (width 0.1))
  (fp_line (start 1.15 -0.15) (end 2.4 -0.15) (layer F.Fab) (width 0.1))
  (fp_line (start 2.4 -0.15) (end 2.4 0.15) (layer F.Fab) (width 0.1))
  (fp_line (start 2.4 0.15) (end 1.15 0.15) (layer F.Fab) (width 0.1))
  (fp_line (start -1.21 -0.56) (end 1.21 -0.56) (layer F.SilkS) (width 0.12))
  (fp_line (start -1.21 0.56) (end 1.21 0.56) (layer F.SilkS) (width 0.12))
  (fp_line (start -2.59 -0.51) (end -1.21 -0.51) (layer F.SilkS) (width 0.12))
  (fp_line (start -1.21 -0.56) (end -1.21 -0.51) (layer F.SilkS) (width 0.12))
  (fp_line (start 1.21 -0.56) (end 1.21 -0.51) (layer F.SilkS) (width 0.12))
  (fp_line (start -1.21 0.51) (end -1.21 0.56) (layer F.SilkS) (width 0.12))
  (fp_line (start 1.21 0.51) (end 1.21 0.56) (layer F.SilkS) (width 0.12))
  (fp_line (start -3.65 -1) (end -3.65 1) (layer F.CrtYd) (width 0.05))
  (fp_line (start -3.65 1) (end 3.65 1) (layer F.CrtYd) (width 0.05))
  (fp_line (start 3.65 1) (end 3.65 -1) (layer F.CrtYd) (width 0.05))
  (fp_line (start 3.65 -1) (end -3.65 -1) (layer F.CrtYd) (width 0.05))
  (pad 1 smd rect (at -1.65 0) (size 2 0.5) (layers F.Cu F.Mask F.Paste))
  (pad 2 smd rect (at 1.65 0) (size 2 0.5) (layers F.Cu F.Mask F.Paste))
  (fp_text user %R (at 0 0 90) (layer F.Fab)
    (effects (font (size 1 1) (thickness 0.15)))
  )
  (model ${KICAD6_3DMODEL_DIR}/Connector_PinHeader_1.00mm.3dshapes/PinHeader_2x01_P1.00mm_Vertical_SMD.wrl
    (at (xyz 0 0 0))
    (scale (xyz 1 1 1))
    (rotate (xyz 0 0 0))
  )
)