(module PinHeader_2x29_P1.00mm_Vertical_SMD (layer F.Cu) (tedit 59FED738)
  (descr "surface-mounted straight pin header, 2x29, 1.00mm pitch, double rows")
  (tags "Surface mounted pin header SMD 2x29 1.00mm double row")
  (attr smd)
  (fp_text reference REF** (at 0 -15.56) (layer F.SilkS)
    (effects (font (size 1 1) (thickness 0.15)))
  )
  (fp_text value PinHeader_2x29_P1.00mm_Vertical_SMD (at 0 15.56) (layer F.Fab)
    (effects (font (size 1 1) (thickness 0.15)))
  )
  (fp_line (start 1.15 14.5) (end -1.15 14.5) (layer F.Fab) (width 0.1))
  (fp_line (start -0.8 -14.5) (end 1.15 -14.5) (layer F.Fab) (width 0.1))
  (fp_line (start -1.15 14.5) (end -1.15 -14.15) (layer F.Fab) (width 0.1))
  (fp_line (start -1.15 -14.15) (end -0.8 -14.5) (layer F.Fab) (width 0.1))
  (fp_line (start 1.15 -14.5) (end 1.15 14.5) (layer F.Fab) (width 0.1))
  (fp_line (start -1.15 -14.15) (end -2.4 -14.15) (layer F.Fab) (width 0.1))
  (fp_line (start -2.4 -14.15) (end -2.4 -13.85) (layer F.Fab) (width 0.1))
  (fp_line (start -2.4 -13.85) (end -1.15 -13.85) (layer F.Fab) (width 0.1))
  (fp_line (start 1.15 -14.15) (end 2.4 -14.15) (layer F.Fab) (width 0.1))
  (fp_line (start 2.4 -14.15) (end 2.4 -13.85) (layer F.Fab) (width 0.1))
  (fp_line (start 2.4 -13.85) (end 1.15 -13.85) (layer F.Fab) (width 0.1))
  (fp_line (start -1.15 -13.15) (end -2.4 -13.15) (layer F.Fab) (width 0.1))
  (fp_line (start -2.4 -13.15) (end -2.4 -12.85) (layer F.Fab) (width 0.1))
  (fp_line (start -2.4 -12.85) (end -1.15 -12.85) (layer F.Fab) (width 0.1))
  (fp_line (start 1.15 -13.15) (end 2.4 -13.15) (layer F.Fab) (width 0.1))
  (fp_line (start 2.4 -13.15) (end 2.4 -12.85) (layer F.Fab) (width 0.1))
  (fp_line (start 2.4 -12.85) (end 1.15 -12.85) (layer F.Fab) (width 0.1))
  (fp_line (start -1.15 -12.15) (end -2.4 -12.15) (layer F.Fab) (width 0.1))
  (fp_line (start -2.4 -12.15) (end -2.4 -11.85) (layer F.Fab) (width 0.1))
  (fp_line (start -2.4 -11.85) (end -1.15 -11.85) (layer F.Fab) (width 0.1))
  (fp_line (start 1.15 -12.15) (end 2.4 -12.15) (layer F.Fab) (width 0.1))
  (fp_line (start 2.4 -12.15) (end 2.4 -11.85) (layer F.Fab) (width 0.1))
  (fp_line (start 2.4 -11.85) (end 1.15 -11.85) (layer F.Fab) (width 0.1))
  (fp_line (start -1.15 -11.15) (end -2.4 -11.15) (layer F.Fab) (width 0.1))
  (fp_line (start -2.4 -11.15) (end -2.4 -10.85) (layer F.Fab) (width 0.1))
  (fp_line (start -2.4 -10.85) (end -1.15 -10.85) (layer F.Fab) (width 0.1))
  (fp_line (start 1.15 -11.15) (end 2.4 -11.15) (layer F.Fab) (width 0.1))
  (fp_line (start 2.4 -11.15) (end 2.4 -10.85) (layer F.Fab) (width 0.1))
  (fp_line (start 2.4 -10.85) (end 1.15 -10.85) (layer F.Fab) (width 0.1))
  (fp_line (start -1.15 -10.15) (end -2.4 -10.15) (layer F.Fab) (width 0.1))
  (fp_line (start -2.4 -10.15) (end -2.4 -9.85) (layer F.Fab) (width 0.1))
  (fp_line (start -2.4 -9.85) (end -1.15 -9.85) (layer F.Fab) (width 0.1))
  (fp_line (start 1.15 -10.15) (end 2.4 -10.15) (layer F.Fab) (width 0.1))
  (fp_line (start 2.4 -10.15) (end 2.4 -9.85) (layer F.Fab) (width 0.1))
  (fp_line (start 2.4 -9.85) (end 1.15 -9.85) (layer F.Fab) (width 0.1))
  (fp_line (start -1.15 -9.15) (end -2.4 -9.15) (layer F.Fab) (width 0.1))
  (fp_line (start -2.4 -9.15) (end -2.4 -8.85) (layer F.Fab) (width 0.1))
  (fp_line (start -2.4 -8.85) (end -1.15 -8.85) (layer F.Fab) (width 0.1))
  (fp_line (start 1.15 -9.15) (end 2.4 -9.15) (layer F.Fab) (width 0.1))
  (fp_line (start 2.4 -9.15) (end 2.4 -8.85) (layer F.Fab) (width 0.1))
  (fp_line (start 2.4 -8.85) (end 1.15 -8.85) (layer F.Fab) (width 0.1))
  (fp_line (start -1.15 -8.15) (end -2.4 -8.15) (layer F.Fab) (width 0.1))
  (fp_line (start -2.4 -8.15) (end -2.4 -7.85) (layer F.Fab) (width 0.1))
  (fp_line (start -2.4 -7.85) (end -1.15 -7.85) (layer F.Fab) (width 0.1))
  (fp_line (start 1.15 -8.15) (end 2.4 -8.15) (layer F.Fab) (width 0.1))
  (fp_line (start 2.4 -8.15) (end 2.4 -7.85) (layer F.Fab) (width 0.1))
  (fp_line (start 2.4 -7.85) (end 1.15 -7.85) (layer F.Fab) (width 0.1))
  (fp_line (start -1.15 -7.15) (end -2.4 -7.15) (layer F.Fab) (width 0.1))
  (fp_line (start -2.4 -7.15) (end -2.4 -6.85) (layer F.Fab) (width 0.1))
  (fp_line (start -2.4 -6.85) (end -1.15 -6.85) (layer F.Fab) (width 0.1))
  (fp_line (start 1.15 -7.15) (end 2.4 -7.15) (layer F.Fab) (width 0.1))
  (fp_line (start 2.4 -7.15) (end 2.4 -6.85) (layer F.Fab) (width 0.1))
  (fp_line (start 2.4 -6.85) (end 1.15 -6.85) (layer F.Fab) (width 0.1))
  (fp_line (start -1.15 -6.15) (end -2.4 -6.15) (layer F.Fab) (width 0.1))
  (fp_line (start -2.4 -6.15) (end -2.4 -5.85) (layer F.Fab) (width 0.1))
  (fp_line (start -2.4 -5.85) (end -1.15 -5.85) (layer F.Fab) (width 0.1))
  (fp_line (start 1.15 -6.15) (end 2.4 -6.15) (layer F.Fab) (width 0.1))
  (fp_line (start 2.4 -6.15) (end 2.4 -5.85) (layer F.Fab) (width 0.1))
  (fp_line (start 2.4 -5.85) (end 1.15 -5.85) (layer F.Fab) (width 0.1))
  (fp_line (start -1.15 -5.15) (end -2.4 -5.15) (layer F.Fab) (width 0.1))
  (fp_line (start -2.4 -5.15) (end -2.4 -4.85) (layer F.Fab) (width 0.1))
  (fp_line (start -2.4 -4.85) (end -1.15 -4.85) (layer F.Fab) (width 0.1))
  (fp_line (start 1.15 -5.15) (end 2.4 -5.15) (layer F.Fab) (width 0.1))
  (fp_line (start 2.4 -5.15) (end 2.4 -4.85) (layer F.Fab) (width 0.1))
  (fp_line (start 2.4 -4.85) (end 1.15 -4.85) (layer F.Fab) (width 0.1))
  (fp_line (start -1.15 -4.15) (end -2.4 -4.15) (layer F.Fab) (width 0.1))
  (fp_line (start -2.4 -4.15) (end -2.4 -3.85) (layer F.Fab) (width 0.1))
  (fp_line (start -2.4 -3.85) (end -1.15 -3.85) (layer F.Fab) (width 0.1))
  (fp_line (start 1.15 -4.15) (end 2.4 -4.15) (layer F.Fab) (width 0.1))
  (fp_line (start 2.4 -4.15) (end 2.4 -3.85) (layer F.Fab) (width 0.1))
  (fp_line (start 2.4 -3.85) (end 1.15 -3.85) (layer F.Fab) (width 0.1))
  (fp_line (start -1.15 -3.15) (end -2.4 -3.15) (layer F.Fab) (width 0.1))
  (fp_line (start -2.4 -3.15) (end -2.4 -2.85) (layer F.Fab) (width 0.1))
  (fp_line (start -2.4 -2.85) (end -1.15 -2.85) (layer F.Fab) (width 0.1))
  (fp_line (start 1.15 -3.15) (end 2.4 -3.15) (layer F.Fab) (width 0.1))
  (fp_line (start 2.4 -3.15) (end 2.4 -2.85) (layer F.Fab) (width 0.1))
  (fp_line (start 2.4 -2.85) (end 1.15 -2.85) (layer F.Fab) (width 0.1))
  (fp_line (start -1.15 -2.15) (end -2.4 -2.15) (layer F.Fab) (width 0.1))
  (fp_line (start -2.4 -2.15) (end -2.4 -1.85) (layer F.Fab) (width 0.1))
  (fp_line (start -2.4 -1.85) (end -1.15 -1.85) (layer F.Fab) (width 0.1))
  (fp_line (start 1.15 -2.15) (end 2.4 -2.15) (layer F.Fab) (width 0.1))
  (fp_line (start 2.4 -2.15) (end 2.4 -1.85) (layer F.Fab) (width 0.1))
  (fp_line (start 2.4 -1.85) (end 1.15 -1.85) (layer F.Fab) (width 0.1))
  (fp_line (start -1.15 -1.15) (end -2.4 -1.15) (layer F.Fab) (width 0.1))
  (fp_line (start -2.4 -1.15) (end -2.4 -0.85) (layer F.Fab) (width 0.1))
  (fp_line (start -2.4 -0.85) (end -1.15 -0.85) (layer F.Fab) (width 0.1))
  (fp_line (start 1.15 -1.15) (end 2.4 -1.15) (layer F.Fab) (width 0.1))
  (fp_line (start 2.4 -1.15) (end 2.4 -0.85) (layer F.Fab) (width 0.1))
  (fp_line (start 2.4 -0.85) (end 1.15 -0.85) (layer F.Fab) (width 0.1))
  (fp_line (start -1.15 -0.15) (end -2.4 -0.15) (layer F.Fab) (width 0.1))
  (fp_line (start -2.4 -0.15) (end -2.4 0.15) (layer F.Fab) (width 0.1))
  (fp_line (start -2.4 0.15) (end -1.15 0.15) (layer F.Fab) (width 0.1))
  (fp_line (start 1.15 -0.15) (end 2.4 -0.15) (layer F.Fab) (width 0.1))
  (fp_line (start 2.4 -0.15) (end 2.4 0.15) (layer F.Fab) (width 0.1))
  (fp_line (start 2.4 0.15) (end 1.15 0.15) (layer F.Fab) (width 0.1))
  (fp_line (start -1.15 0.85) (end -2.4 0.85) (layer F.Fab) (width 0.1))
  (fp_line (start -2.4 0.85) (end -2.4 1.15) (layer F.Fab) (width 0.1))
  (fp_line (start -2.4 1.15) (end -1.15 1.15) (layer F.Fab) (width 0.1))
  (fp_line (start 1.15 0.85) (end 2.4 0.85) (layer F.Fab) (width 0.1))
  (fp_line (start 2.4 0.85) (end 2.4 1.15) (layer F.Fab) (width 0.1))
  (fp_line (start 2.4 1.15) (end 1.15 1.15) (layer F.Fab) (width 0.1))
  (fp_line (start -1.15 1.85) (end -2.4 1.85) (layer F.Fab) (width 0.1))
  (fp_line (start -2.4 1.85) (end -2.4 2.15) (layer F.Fab) (width 0.1))
  (fp_line (start -2.4 2.15) (end -1.15 2.15) (layer F.Fab) (width 0.1))
  (fp_line (start 1.15 1.85) (end 2.4 1.85) (layer F.Fab) (width 0.1))
  (fp_line (start 2.4 1.85) (end 2.4 2.15) (layer F.Fab) (width 0.1))
  (fp_line (start 2.4 2.15) (end 1.15 2.15) (layer F.Fab) (width 0.1))
  (fp_line (start -1.15 2.85) (end -2.4 2.85) (layer F.Fab) (width 0.1))
  (fp_line (start -2.4 2.85) (end -2.4 3.15) (layer F.Fab) (width 0.1))
  (fp_line (start -2.4 3.15) (end -1.15 3.15) (layer F.Fab) (width 0.1))
  (fp_line (start 1.15 2.85) (end 2.4 2.85) (layer F.Fab) (width 0.1))
  (fp_line (start 2.4 2.85) (end 2.4 3.15) (layer F.Fab) (width 0.1))
  (fp_line (start 2.4 3.15) (end 1.15 3.15) (layer F.Fab) (width 0.1))
  (fp_line (start -1.15 3.85) (end -2.4 3.85) (layer F.Fab) (width 0.1))
  (fp_line (start -2.4 3.85) (end -2.4 4.15) (layer F.Fab) (width 0.1))
  (fp_line (start -2.4 4.15) (end -1.15 4.15) (layer F.Fab) (width 0.1))
  (fp_line (start 1.15 3.85) (end 2.4 3.85) (layer F.Fab) (width 0.1))
  (fp_line (start 2.4 3.85) (end 2.4 4.15) (layer F.Fab) (width 0.1))
  (fp_line (start 2.4 4.15) (end 1.15 4.15) (layer F.Fab) (width 0.1))
  (fp_line (start -1.15 4.85) (end -2.4 4.85) (layer F.Fab) (width 0.1))
  (fp_line (start -2.4 4.85) (end -2.4 5.15) (layer F.Fab) (width 0.1))
  (fp_line (start -2.4 5.15) (end -1.15 5.15) (layer F.Fab) (width 0.1))
  (fp_line (start 1.15 4.85) (end 2.4 4.85) (layer F.Fab) (width 0.1))
  (fp_line (start 2.4 4.85) (end 2.4 5.15) (layer F.Fab) (width 0.1))
  (fp_line (start 2.4 5.15) (end 1.15 5.15) (layer F.Fab) (width 0.1))
  (fp_line (start -1.15 5.85) (end -2.4 5.85) (layer F.Fab) (width 0.1))
  (fp_line (start -2.4 5.85) (end -2.4 6.15) (layer F.Fab) (width 0.1))
  (fp_line (start -2.4 6.15) (end -1.15 6.15) (layer F.Fab) (width 0.1))
  (fp_line (start 1.15 5.85) (end 2.4 5.85) (layer F.Fab) (width 0.1))
  (fp_line (start 2.4 5.85) (end 2.4 6.15) (layer F.Fab) (width 0.1))
  (fp_line (start 2.4 6.15) (end 1.15 6.15) (layer F.Fab) (width 0.1))
  (fp_line (start -1.15 6.85) (end -2.4 6.85) (layer F.Fab) (width 0.1))
  (fp_line (start -2.4 6.85) (end -2.4 7.15) (layer F.Fab) (width 0.1))
  (fp_line (start -2.4 7.15) (end -1.15 7.15) (layer F.Fab) (width 0.1))
  (fp_line (start 1.15 6.85) (end 2.4 6.85) (layer F.Fab) (width 0.1))
  (fp_line (start 2.4 6.85) (end 2.4 7.15) (layer F.Fab) (width 0.1))
  (fp_line (start 2.4 7.15) (end 1.15 7.15) (layer F.Fab) (width 0.1))
  (fp_line (start -1.15 7.85) (end -2.4 7.85) (layer F.Fab) (width 0.1))
  (fp_line (start -2.4 7.85) (end -2.4 8.15) (layer F.Fab) (width 0.1))
  (fp_line (start -2.4 8.15) (end -1.15 8.15) (layer F.Fab) (width 0.1))
  (fp_line (start 1.15 7.85) (end 2.4 7.85) (layer F.Fab) (width 0.1))
  (fp_line (start 2.4 7.85) (end 2.4 8.15) (layer F.Fab) (width 0.1))
  (fp_line (start 2.4 8.15) (end 1.15 8.15) (layer F.Fab) (width 0.1))
  (fp_line (start -1.15 8.85) (end -2.4 8.85) (layer F.Fab) (width 0.1))
  (fp_line (start -2.4 8.85) (end -2.4 9.15) (layer F.Fab) (width 0.1))
  (fp_line (start -2.4 9.15) (end -1.15 9.15) (layer F.Fab) (width 0.1))
  (fp_line (start 1.15 8.85) (end 2.4 8.85) (layer F.Fab) (width 0.1))
  (fp_line (start 2.4 8.85) (end 2.4 9.15) (layer F.Fab) (width 0.1))
  (fp_line (start 2.4 9.15) (end 1.15 9.15) (layer F.Fab) (width 0.1))
  (fp_line (start -1.15 9.85) (end -2.4 9.85) (layer F.Fab) (width 0.1))
  (fp_line (start -2.4 9.85) (end -2.4 10.15) (layer F.Fab) (width 0.1))
  (fp_line (start -2.4 10.15) (end -1.15 10.15) (layer F.Fab) (width 0.1))
  (fp_line (start 1.15 9.85) (end 2.4 9.85) (layer F.Fab) (width 0.1))
  (fp_line (start 2.4 9.85) (end 2.4 10.15) (layer F.Fab) (width 0.1))
  (fp_line (start 2.4 10.15) (end 1.15 10.15) (layer F.Fab) (width 0.1))
  (fp_line (start -1.15 10.85) (end -2.4 10.85) (layer F.Fab) (width 0.1))
  (fp_line (start -2.4 10.85) (end -2.4 11.15) (layer F.Fab) (width 0.1))
  (fp_line (start -2.4 11.15) (end -1.15 11.15) (layer F.Fab) (width 0.1))
  (fp_line (start 1.15 10.85) (end 2.4 10.85) (layer F.Fab) (width 0.1))
  (fp_line (start 2.4 10.85) (end 2.4 11.15) (layer F.Fab) (width 0.1))
  (fp_line (start 2.4 11.15) (end 1.15 11.15) (layer F.Fab) (width 0.1))
  (fp_line (start -1.15 11.85) (end -2.4 11.85) (layer F.Fab) (width 0.1))
  (fp_line (start -2.4 11.85) (end -2.4 12.15) (layer F.Fab) (width 0.1))
  (fp_line (start -2.4 12.15) (end -1.15 12.15) (layer F.Fab) (width 0.1))
  (fp_line (start 1.15 11.85) (end 2.4 11.85) (layer F.Fab) (width 0.1))
  (fp_line (start 2.4 11.85) (end 2.4 12.15) (layer F.Fab) (width 0.1))
  (fp_line (start 2.4 12.15) (end 1.15 12.15) (layer F.Fab) (width 0.1))
  (fp_line (start -1.15 12.85) (end -2.4 12.85) (layer F.Fab) (width 0.1))
  (fp_line (start -2.4 12.85) (end -2.4 13.15) (layer F.Fab) (width 0.1))
  (fp_line (start -2.4 13.15) (end -1.15 13.15) (layer F.Fab) (width 0.1))
  (fp_line (start 1.15 12.85) (end 2.4 12.85) (layer F.Fab) (width 0.1))
  (fp_line (start 2.4 12.85) (end 2.4 13.15) (layer F.Fab) (width 0.1))
  (fp_line (start 2.4 13.15) (end 1.15 13.15) (layer F.Fab) (width 0.1))
  (fp_line (start -1.15 13.85) (end -2.4 13.85) (layer F.Fab) (width 0.1))
  (fp_line (start -2.4 13.85) (end -2.4 14.15) (layer F.Fab) (width 0.1))
  (fp_line (start -2.4 14.15) (end -1.15 14.15) (layer F.Fab) (width 0.1))
  (fp_line (start 1.15 13.85) (end 2.4 13.85) (layer F.Fab) (width 0.1))
  (fp_line (start 2.4 13.85) (end 2.4 14.15) (layer F.Fab) (width 0.1))
  (fp_line (start 2.4 14.15) (end 1.15 14.15) (layer F.Fab) (width 0.1))
  (fp_line (start -1.21 -14.56) (end 1.21 -14.56) (layer F.SilkS) (width 0.12))
  (fp_line (start -1.21 14.56) (end 1.21 14.56) (layer F.SilkS) (width 0.12))
  (fp_line (start -2.59 -14.51) (end -1.21 -14.51) (layer F.SilkS) (width 0.12))
  (fp_line (start -1.21 -14.56) (end -1.21 -14.51) (layer F.SilkS) (width 0.12))
  (fp_line (start 1.21 -14.56) (end 1.21 -14.51) (layer F.SilkS) (width 0.12))
  (fp_line (start -1.21 14.51) (end -1.21 14.56) (layer F.SilkS) (width 0.12))
  (fp_line (start 1.21 14.51) (end 1.21 14.56) (layer F.SilkS) (width 0.12))
  (fp_line (start -3.65 -15) (end -3.65 15) (layer F.CrtYd) (width 0.05))
  (fp_line (start -3.65 15) (end 3.65 15) (layer F.CrtYd) (width 0.05))
  (fp_line (start 3.65 15) (end 3.65 -15) (layer F.CrtYd) (width 0.05))
  (fp_line (start 3.65 -15) (end -3.65 -15) (layer F.CrtYd) (width 0.05))
  (pad 1 smd rect (at -1.65 -14) (size 2 0.5) (layers F.Cu F.Mask F.Paste))
  (pad 2 smd rect (at 1.65 -14) (size 2 0.5) (layers F.Cu F.Mask F.Paste))
  (pad 3 smd rect (at -1.65 -13) (size 2 0.5) (layers F.Cu F.Mask F.Paste))
  (pad 4 smd rect (at 1.65 -13) (size 2 0.5) (layers F.Cu F.Mask F.Paste))
  (pad 5 smd rect (at -1.65 -12) (size 2 0.5) (layers F.Cu F.Mask F.Paste))
  (pad 6 smd rect (at 1.65 -12) (size 2 0.5) (layers F.Cu F.Mask F.Paste))
  (pad 7 smd rect (at -1.65 -11) (size 2 0.5) (layers F.Cu F.Mask F.Paste))
  (pad 8 smd rect (at 1.65 -11) (size 2 0.5) (layers F.Cu F.Mask F.Paste))
  (pad 9 smd rect (at -1.65 -10) (size 2 0.5) (layers F.Cu F.Mask F.Paste))
  (pad 10 smd rect (at 1.65 -10) (size 2 0.5) (layers F.Cu F.Mask F.Paste))
  (pad 11 smd rect (at -1.65 -9) (size 2 0.5) (layers F.Cu F.Mask F.Paste))
  (pad 12 smd rect (at 1.65 -9) (size 2 0.5) (layers F.Cu F.Mask F.Paste))
  (pad 13 smd rect (at -1.65 -8) (size 2 0.5) (layers F.Cu F.Mask F.Paste))
  (pad 14 smd rect (at 1.65 -8) (size 2 0.5) (layers F.Cu F.Mask F.Paste))
  (pad 15 smd rect (at -1.65 -7) (size 2 0.5) (layers F.Cu F.Mask F.Paste))
  (pad 16 smd rect (at 1.65 -7) (size 2 0.5) (layers F.Cu F.Mask F.Paste))
  (pad 17 smd rect (at -1.65 -6) (size 2 0.5) (layers F.Cu F.Mask F.Paste))
  (pad 18 smd rect (at 1.65 -6) (size 2 0.5) (layers F.Cu F.Mask F.Paste))
  (pad 19 smd rect (at -1.65 -5) (size 2 0.5) (layers F.Cu F.Mask F.Paste))
  (pad 20 smd rect (at 1.65 -5) (size 2 0.5) (layers F.Cu F.Mask F.Paste))
  (pad 21 smd rect (at -1.65 -4) (size 2 0.5) (layers F.Cu F.Mask F.Paste))
  (pad 22 smd rect (at 1.65 -4) (size 2 0.5) (layers F.Cu F.Mask F.Paste))
  (pad 23 smd rect (at -1.65 -3) (size 2 0.5) (layers F.Cu F.Mask F.Paste))
  (pad 24 smd rect (at 1.65 -3) (size 2 0.5) (layers F.Cu F.Mask F.Paste))
  (pad 25 smd rect (at -1.65 -2) (size 2 0.5) (layers F.Cu F.Mask F.Paste))
  (pad 26 smd rect (at 1.65 -2) (size 2 0.5) (layers F.Cu F.Mask F.Paste))
  (pad 27 smd rect (at -1.65 -1) (size 2 0.5) (layers F.Cu F.Mask F.Paste))
  (pad 28 smd rect (at 1.65 -1) (size 2 0.5) (layers F.Cu F.Mask F.Paste))
  (pad 29 smd rect (at -1.65 0) (size 2 0.5) (layers F.Cu F.Mask F.Paste))
  (pad 30 smd rect (at 1.65 0) (size 2 0.5) (layers F.Cu F.Mask F.Paste))
  (pad 31 smd rect (at -1.65 1) (size 2 0.5) (layers F.Cu F.Mask F.Paste))
  (pad 32 smd rect (at 1.65 1) (size 2 0.5) (layers F.Cu F.Mask F.Paste))
  (pad 33 smd rect (at -1.65 2) (size 2 0.5) (layers F.Cu F.Mask F.Paste))
  (pad 34 smd rect (at 1.65 2) (size 2 0.5) (layers F.Cu F.Mask F.Paste))
  (pad 35 smd rect (at -1.65 3) (size 2 0.5) (layers F.Cu F.Mask F.Paste))
  (pad 36 smd rect (at 1.65 3) (size 2 0.5) (layers F.Cu F.Mask F.Paste))
  (pad 37 smd rect (at -1.65 4) (size 2 0.5) (layers F.Cu F.Mask F.Paste))
  (pad 38 smd rect (at 1.65 4) (size 2 0.5) (layers F.Cu F.Mask F.Paste))
  (pad 39 smd rect (at -1.65 5) (size 2 0.5) (layers F.Cu F.Mask F.Paste))
  (pad 40 smd rect (at 1.65 5) (size 2 0.5) (layers F.Cu F.Mask F.Paste))
  (pad 41 smd rect (at -1.65 6) (size 2 0.5) (layers F.Cu F.Mask F.Paste))
  (pad 42 smd rect (at 1.65 6) (size 2 0.5) (layers F.Cu F.Mask F.Paste))
  (pad 43 smd rect (at -1.65 7) (size 2 0.5) (layers F.Cu F.Mask F.Paste))
  (pad 44 smd rect (at 1.65 7) (size 2 0.5) (layers F.Cu F.Mask F.Paste))
  (pad 45 smd rect (at -1.65 8) (size 2 0.5) (layers F.Cu F.Mask F.Paste))
  (pad 46 smd rect (at 1.65 8) (size 2 0.5) (layers F.Cu F.Mask F.Paste))
  (pad 47 smd rect (at -1.65 9) (size 2 0.5) (layers F.Cu F.Mask F.Paste))
  (pad 48 smd rect (at 1.65 9) (size 2 0.5) (layers F.Cu F.Mask F.Paste))
  (pad 49 smd rect (at -1.65 10) (size 2 0.5) (layers F.Cu F.Mask F.Paste))
  (pad 50 smd rect (at 1.65 10) (size 2 0.5) (layers F.Cu F.Mask F.Paste))
  (pad 51 smd rect (at -1.65 11) (size 2 0.5) (layers F.Cu F.Mask F.Paste))
  (pad 52 smd rect (at 1.65 11) (size 2 0.5) (layers F.Cu F.Mask F.Paste))
  (pad 53 smd rect (at -1.65 12) (size 2 0.5) (layers F.Cu F.Mask F.Paste))
  (pad 54 smd rect (at 1.65 12) (size 2 0.5) (layers F.Cu F.Mask F.Paste))
  (pad 55 smd rect (at -1.65 13) (size 2 0.5) (layers F.Cu F.Mask F.Paste))
  (pad 56 smd rect (at 1.65 13) (size 2 0.5) (layers F.Cu F.Mask F.Paste))
  (pad 57 smd rect (at -1.65 14) (size 2 0.5) (layers F.Cu F.Mask F.Paste))
  (pad 58 smd rect (at 1.65 14) (size 2 0.5) (layers F.Cu F.Mask F.Paste))
  (fp_text user %R (at 0 0 90) (layer F.Fab)
    (effects (font (size 1 1) (thickness 0.15)))
  )
  (model ${KICAD6_3DMODEL_DIR}/Connector_PinHeader_1.00mm.3dshapes/PinHeader_2x29_P1.00mm_Vertical_SMD.wrl
    (at (xyz 0 0 0))
    (scale (xyz 1 1 1))
    (rotate (xyz 0 0 0))
  )
)