(module PinHeader_2x08_P1.00mm_Vertical (layer F.Cu) (tedit 59FED738)
  (descr "Through hole straight pin header, 2x08, 1.00mm pitch, double rows")
  (tags "Through hole pin header THT 2x08 1.00mm double row")
  (fp_text reference REF** (at 0.5 -1.56) (layer F.SilkS)
    (effects (font (size 1 1) (thickness 0.15)))
  )
  (fp_text value PinHeader_2x08_P1.00mm_Vertical (at 0.5 8.56) (layer F.Fab)
    (effects (font (size 1 1) (thickness 0.15)))
  )
  (fp_line (start -0.075 -0.5) (end 1.65 -0.5) (layer F.Fab) (width 0.1))
  (fp_line (start 1.65 -0.5) (end 1.65 7.5) (layer F.Fab) (width 0.1))
  (fp_line (start 1.65 7.5) (end -0.65 7.5) (layer F.Fab) (width 0.1))
  (fp_line (start -0.65 7.5) (end -0.65 0.075) (layer F.Fab) (width 0.1))
  (fp_line (start -0.65 0.075) (end -0.075 -0.5) (layer F.Fab) (width 0.1))
  (fp_line (start -0.71 7.56) (end -0.394493 7.56) (layer F.SilkS) (width 0.12))
  (fp_line (start 1.394493 7.56) (end 1.71 7.56) (layer F.SilkS) (width 0.12))
  (fp_line (start 0.394493 7.56) (end 0.605507 7.56) (layer F.SilkS) (width 0.12))
  (fp_line (start -0.71 0.685) (end -0.71 7.56) (layer F.SilkS) (width 0.12))
  (fp_line (start 1.71 -0.56) (end 1.71 7.56) (layer F.SilkS) (width 0.12))
  (fp_line (start -0.71 0.685) (end -0.608276 0.685) (layer F.SilkS) (width 0.12))
  (fp_line (start 1.394493 -0.56) (end 1.71 -0.56) (layer F.SilkS) (width 0.12))
  (fp_line (start -0.71 0) (end -0.71 -0.685) (layer F.SilkS) (width 0.12))
  (fp_line (start -0.71 -0.685) (end 0 -0.685) (layer F.SilkS) (width 0.12))
  (fp_line (start -1.15 -1) (end -1.15 8) (layer F.CrtYd) (width 0.05))
  (fp_line (start -1.15 8) (end 2.15 8) (layer F.CrtYd) (width 0.05))
  (fp_line (start 2.15 8) (end 2.15 -1) (layer F.CrtYd) (width 0.05))
  (fp_line (start 2.15 -1) (end -1.15 -1) (layer F.CrtYd) (width 0.05))
  (pad 1 thru_hole rect (at 0 0) (size 0.85 0.85) (drill 0.5) (layers *.Cu *.Mask))
  (pad 2 thru_hole oval (at 1 0) (size 0.85 0.85) (drill 0.5) (layers *.Cu *.Mask))
  (pad 3 thru_hole oval (at 0 1) (size 0.85 0.85) (drill 0.5) (layers *.Cu *.Mask))
  (pad 4 thru_hole oval (at 1 1) (size 0.85 0.85) (drill 0.5) (layers *.Cu *.Mask))
  (pad 5 thru_hole oval (at 0 2) (size 0.85 0.85) (drill 0.5) (layers *.Cu *.Mask))
  (pad 6 thru_hole oval (at 1 2) (size 0.85 0.85) (drill 0.5) (layers *.Cu *.Mask))
  (pad 7 thru_hole oval (at 0 3) (size 0.85 0.85) (drill 0.5) (layers *.Cu *.Mask))
  (pad 8 thru_hole oval (at 1 3) (size 0.85 0.85) (drill 0.5) (layers *.Cu *.Mask))
  (pad 9 thru_hole oval (at 0 4) (size 0.85 0.85) (drill 0.5) (layers *.Cu *.Mask))
  (pad 10 thru_hole oval (at 1 4) (size 0.85 0.85) (drill 0.5) (layers *.Cu *.Mask))
  (pad 11 thru_hole oval (at 0 5) (size 0.85 0.85) (drill 0.5) (layers *.Cu *.Mask))
  (pad 12 thru_hole oval (at 1 5) (size 0.85 0.85) (drill 0.5) (layers *.Cu *.Mask))
  (pad 13 thru_hole oval (at 0 6) (size 0.85 0.85) (drill 0.5) (layers *.Cu *.Mask))
  (pad 14 thru_hole oval (at 1 6) (size 0.85 0.85) (drill 0.5) (layers *.Cu *.Mask))
  (pad 15 thru_hole oval (at 0 7) (size 0.85 0.85) (drill 0.5) (layers *.Cu *.Mask))
  (pad 16 thru_hole oval (at 1 7) (size 0.85 0.85) (drill 0.5) (layers *.Cu *.Mask))
  (fp_text user %R (at 0.5 3.5 90) (layer F.Fab)
    (effects (font (size 1 1) (thickness 0.15)))
  )
  (model ${KICAD6_3DMODEL_DIR}/Connector_PinHeader_1.00mm.3dshapes/PinHeader_2x08_P1.00mm_Vertical.wrl
    (at (xyz 0 0 0))
    (scale (xyz 1 1 1))
    (rotate (xyz 0 0 0))
  )
)