(module PinHeader_1x12_P1.00mm_Vertical_SMD_Pin1Right (layer F.Cu) (tedit 59FED738)
  (descr "surface-mounted straight pin header, 1x12, 1.00mm pitch, single row, style 2 (pin 1 right)")
  (tags "Surface mounted pin header SMD 1x12 1.00mm single row style2 pin1 right")
  (attr smd)
  (fp_text reference REF** (at 0 -7.06) (layer F.SilkS)
    (effects (font (size 1 1) (thickness 0.15)))
  )
  (fp_text value PinHeader_1x12_P1.00mm_Vertical_SMD_Pin1Right (at 0 7.06) (layer F.Fab)
    (effects (font (size 1 1) (thickness 0.15)))
  )
  (fp_line (start 0.635 6) (end -0.635 6) (layer F.Fab) (width 0.1))
  (fp_line (start -0.635 -6) (end 0.285 -6) (layer F.Fab) (width 0.1))
  (fp_line (start 0.635 6) (end 0.635 -5.65) (layer F.Fab) (width 0.1))
  (fp_line (start 0.635 -5.65) (end 0.285 -6) (layer F.Fab) (width 0.1))
  (fp_line (start -0.635 -6) (end -0.635 6) (layer F.Fab) (width 0.1))
  (fp_line (start -0.635 -4.65) (end -1.25 -4.65) (layer F.Fab) (width 0.1))
  (fp_line (start -1.25 -4.65) (end -1.25 -4.35) (layer F.Fab) (width 0.1))
  (fp_line (start -1.25 -4.35) (end -0.635 -4.35) (layer F.Fab) (width 0.1))
  (fp_line (start -0.635 -2.65) (end -1.25 -2.65) (layer F.Fab) (width 0.1))
  (fp_line (start -1.25 -2.65) (end -1.25 -2.35) (layer F.Fab) (width 0.1))
  (fp_line (start -1.25 -2.35) (end -0.635 -2.35) (layer F.Fab) (width 0.1))
  (fp_line (start -0.635 -0.65) (end -1.25 -0.65) (layer F.Fab) (width 0.1))
  (fp_line (start -1.25 -0.65) (end -1.25 -0.35) (layer F.Fab) (width 0.1))
  (fp_line (start -1.25 -0.35) (end -0.635 -0.35) (layer F.Fab) (width 0.1))
  (fp_line (start -0.635 1.35) (end -1.25 1.35) (layer F.Fab) (width 0.1))
  (fp_line (start -1.25 1.35) (end -1.25 1.65) (layer F.Fab) (width 0.1))
  (fp_line (start -1.25 1.65) (end -0.635 1.65) (layer F.Fab) (width 0.1))
  (fp_line (start -0.635 3.35) (end -1.25 3.35) (layer F.Fab) (width 0.1))
  (fp_line (start -1.25 3.35) (end -1.25 3.65) (layer F.Fab) (width 0.1))
  (fp_line (start -1.25 3.65) (end -0.635 3.65) (layer F.Fab) (width 0.1))
  (fp_line (start -0.635 5.35) (end -1.25 5.35) (layer F.Fab) (width 0.1))
  (fp_line (start -1.25 5.35) (end -1.25 5.65) (layer F.Fab) (width 0.1))
  (fp_line (start -1.25 5.65) (end -0.635 5.65) (layer F.Fab) (width 0.1))
  (fp_line (start 0.635 -5.65) (end 1.25 -5.65) (layer F.Fab) (width 0.1))
  (fp_line (start 1.25 -5.65) (end 1.25 -5.35) (layer F.Fab) (width 0.1))
  (fp_line (start 1.25 -5.35) (end 0.635 -5.35) (layer F.Fab) (width 0.1))
  (fp_line (start 0.635 -3.65) (end 1.25 -3.65) (layer F.Fab) (width 0.1))
  (fp_line (start 1.25 -3.65) (end 1.25 -3.35) (layer F.Fab) (width 0.1))
  (fp_line (start 1.25 -3.35) (end 0.635 -3.35) (layer F.Fab) (width 0.1))
  (fp_line (start 0.635 -1.65) (end 1.25 -1.65) (layer F.Fab) (width 0.1))
  (fp_line (start 1.25 -1.65) (end 1.25 -1.35) (layer F.Fab) (width 0.1))
  (fp_line (start 1.25 -1.35) (end 0.635 -1.35) (layer F.Fab) (width 0.1))
  (fp_line (start 0.635 0.35) (end 1.25 0.35) (layer F.Fab) (width 0.1))
  (fp_line (start 1.25 0.35) (end 1.25 0.65) (layer F.Fab) (width 0.1))
  (fp_line (start 1.25 0.65) (end 0.635 0.65) (layer F.Fab) (width 0.1))
  (fp_line (start 0.635 2.35) (end 1.25 2.35) (layer F.Fab) (width 0.1))
  (fp_line (start 1.25 2.35) (end 1.25 2.65) (layer F.Fab) (width 0.1))
  (fp_line (start 1.25 2.65) (end 0.635 2.65) (layer F.Fab) (width 0.1))
  (fp_line (start 0.635 4.35) (end 1.25 4.35) (layer F.Fab) (width 0.1))
  (fp_line (start 1.25 4.35) (end 1.25 4.65) (layer F.Fab) (width 0.1))
  (fp_line (start 1.25 4.65) (end 0.635 4.65) (layer F.Fab) (width 0.1))
  (fp_line (start -0.695 -6.06) (end 0.695 -6.06) (layer F.SilkS) (width 0.12))
  (fp_line (start -0.695 6.06) (end 0.695 6.06) (layer F.SilkS) (width 0.12))
  (fp_line (start 0.695 -4.94) (end 0.695 -4.06) (layer F.SilkS) (width 0.12))
  (fp_line (start 0.695 -2.94) (end 0.695 -2.06) (layer F.SilkS) (width 0.12))
  (fp_line (start 0.695 -0.94) (end 0.695 -0.06) (layer F.SilkS) (width 0.12))
  (fp_line (start 0.695 1.06) (end 0.695 1.94) (layer F.SilkS) (width 0.12))
  (fp_line (start 0.695 3.06) (end 0.695 3.94) (layer F.SilkS) (width 0.12))
  (fp_line (start 0.695 5.06) (end 0.695 6.06) (layer F.SilkS) (width 0.12))
  (fp_line (start 0.695 -6.06) (end 1.69 -6.06) (layer F.SilkS) (width 0.12))
  (fp_line (start 0.695 -6.06) (end 0.695 -6.06) (layer F.SilkS) (width 0.12))
  (fp_line (start -0.695 6.06) (end -0.695 6.06) (layer F.SilkS) (width 0.12))
  (fp_line (start -0.695 -6.06) (end -0.695 -5.06) (layer F.SilkS) (width 0.12))
  (fp_line (start -0.695 -5.94) (end -0.695 -5.06) (layer F.SilkS) (width 0.12))
  (fp_line (start -0.695 -3.94) (end -0.695 -3.06) (layer F.SilkS) (width 0.12))
  (fp_line (start -0.695 -1.94) (end -0.695 -1.06) (layer F.SilkS) (width 0.12))
  (fp_line (start -0.695 0.06) (end -0.695 0.94) (layer F.SilkS) (width 0.12))
  (fp_line (start -0.695 2.06) (end -0.695 2.94) (layer F.SilkS) (width 0.12))
  (fp_line (start -0.695 4.06) (end -0.695 4.94) (layer F.SilkS) (width 0.12))
  (fp_line (start -2.25 -6.5) (end -2.25 6.5) (layer F.CrtYd) (width 0.05))
  (fp_line (start -2.25 6.5) (end 2.25 6.5) (layer F.CrtYd) (width 0.05))
  (fp_line (start 2.25 6.5) (end 2.25 -6.5) (layer F.CrtYd) (width 0.05))
  (fp_line (start 2.25 -6.5) (end -2.25 -6.5) (layer F.CrtYd) (width 0.05))
  (pad 2 smd rect (at -0.875 -4.5) (size 1.75 0.6) (layers F.Cu F.Mask F.Paste))
  (pad 4 smd rect (at -0.875 -2.5) (size 1.75 0.6) (layers F.Cu F.Mask F.Paste))
  (pad 6 smd rect (at -0.875 -0.5) (size 1.75 0.6) (layers F.Cu F.Mask F.Paste))
  (pad 8 smd rect (at -0.875 1.5) (size 1.75 0.6) (layers F.Cu F.Mask F.Paste))
  (pad 10 smd rect (at -0.875 3.5) (size 1.75 0.6) (layers F.Cu F.Mask F.Paste))
  (pad 12 smd rect (at -0.875 5.5) (size 1.75 0.6) (layers F.Cu F.Mask F.Paste))
  (pad 1 smd rect (at 0.875 -5.5) (size 1.75 0.6) (layers F.Cu F.Mask F.Paste))
  (pad 3 smd rect (at 0.875 -3.5) (size 1.75 0.6) (layers F.Cu F.Mask F.Paste))
  (pad 5 smd rect (at 0.875 -1.5) (size 1.75 0.6) (layers F.Cu F.Mask F.Paste))
  (pad 7 smd rect (at 0.875 0.5) (size 1.75 0.6) (layers F.Cu F.Mask F.Paste))
  (pad 9 smd rect (at 0.875 2.5) (size 1.75 0.6) (layers F.Cu F.Mask F.Paste))
  (pad 11 smd rect (at 0.875 4.5) (size 1.75 0.6) (layers F.Cu F.Mask F.Paste))
  (fp_text user %R (at 0 0 90) (layer F.Fab)
    (effects (font (size 1 1) (thickness 0.15)))
  )
  (model ${KICAD6_3DMODEL_DIR}/Connector_PinHeader_1.00mm.3dshapes/PinHeader_1x12_P1.00mm_Vertical_SMD_Pin1Right.wrl
    (at (xyz 0 0 0))
    (scale (xyz 1 1 1))
    (rotate (xyz 0 0 0))
  )
)