(module Choke_Schaffner_RN122-04-28.0x27.0mm (layer F.Cu) (tedit 5E561414)
  (descr "Current-compensated Chokes, Schaffner, RN122-04, 28.0mmx27.0mm https://www.schaffner.com/products/download/product/datasheet/rn-series-common-mode-chokes-new/")
  (tags "chokes schaffner tht")
  (fp_text reference REF** (at 1 -5) (layer F.SilkS)
    (effects (font (size 1 1) (thickness 0.15)))
  )
  (fp_text value Choke_Schaffner_RN122-04-28.0x27.0mm (at 12.5 22.5) (layer F.Fab)
    (effects (font (size 1 1) (thickness 0.15)))
  )
  (fp_arc (start 12.5 0) (end 9.5 -5.2) (angle 60) (layer F.Fab) (width 0.1))
  (fp_arc (start 12.5 15) (end 15.5 20.2) (angle 60) (layer F.Fab) (width 0.1))
  (fp_arc (start 12.5 -0.12) (end 9.5 -5.34) (angle 60) (layer F.SilkS) (width 0.12))
  (fp_arc (start 12.5 15.12) (end 15.5 20.34) (angle 60) (layer F.SilkS) (width 0.12))
  (fp_arc (start 12.5 -0.25) (end 9.5 -5.47) (angle 60) (layer F.CrtYd) (width 0.05))
  (fp_arc (start 12.5 15.25) (end 15.5 20.47) (angle 60) (layer F.CrtYd) (width 0.05))
  (fp_line (start -1.5 -1) (end 9.5 -5.2) (layer F.Fab) (width 0.1))
  (fp_line (start 15.5 -5.2) (end 26.5 -1) (layer F.Fab) (width 0.1))
  (fp_line (start 26.5 -1) (end 26.5 16) (layer F.Fab) (width 0.1))
  (fp_line (start 26.5 16) (end 15.5 20.2) (layer F.Fab) (width 0.1))
  (fp_line (start 9.5 20.2) (end -1.5 16) (layer F.Fab) (width 0.1))
  (fp_line (start -1.5 16) (end -1.5 0.5) (layer F.Fab) (width 0.1))
  (fp_line (start -1.5 0.5) (end -1 0) (layer F.Fab) (width 0.1))
  (fp_line (start -1 0) (end -1.5 -0.5) (layer F.Fab) (width 0.1))
  (fp_line (start -1.5 -0.5) (end -1.5 -1) (layer F.Fab) (width 0.1))
  (fp_line (start -1.62 -1.09) (end 9.5 -5.34) (layer F.SilkS) (width 0.12))
  (fp_line (start 15.5 -5.34) (end 26.62 -1.09) (layer F.SilkS) (width 0.12))
  (fp_line (start 26.62 -1.09) (end 26.62 16.09) (layer F.SilkS) (width 0.12))
  (fp_line (start 26.62 16.09) (end 15.5 20.34) (layer F.SilkS) (width 0.12))
  (fp_line (start 9.5 20.34) (end -1.62 16.09) (layer F.SilkS) (width 0.12))
  (fp_line (start -1.62 16.09) (end -1.62 -1.09) (layer F.SilkS) (width 0.12))
  (fp_line (start -1.75 -1.17) (end 9.5 -5.47) (layer F.CrtYd) (width 0.05))
  (fp_line (start 15.5 -5.47) (end 26.75 -1.17) (layer F.CrtYd) (width 0.05))
  (fp_line (start 26.75 -1.17) (end 26.75 16.17) (layer F.CrtYd) (width 0.05))
  (fp_line (start 26.75 16.17) (end 15.5 20.47) (layer F.CrtYd) (width 0.05))
  (fp_line (start 9.5 20.47) (end -1.75 16.17) (layer F.CrtYd) (width 0.05))
  (fp_line (start -1.75 16.17) (end -1.75 -1.17) (layer F.CrtYd) (width 0.05))
  (fp_line (start -2 -1.42) (end -1.75 -1.42) (layer F.SilkS) (width 0.12))
  (fp_line (start -2 -1.42) (end -2 1.58) (layer F.SilkS) (width 0.12))
  (pad 1 thru_hole rect (at 0 0) (size 2 2) (drill 0.9) (layers *.Cu *.Mask))
  (pad 2 thru_hole circle (at 25 0) (size 2 2) (drill 0.9) (layers *.Cu *.Mask))
  (pad 3 thru_hole circle (at 0 15) (size 2 2) (drill 0.9) (layers *.Cu *.Mask))
  (pad 4 thru_hole circle (at 25 15) (size 2 2) (drill 0.9) (layers *.Cu *.Mask))
  (fp_text user %R (at 12.5 7.5) (layer F.Fab)
    (effects (font (size 1 1) (thickness 0.15)))
  )
  (model ${KICAD6_3DMODEL_DIR}/Inductor_THT.3dshapes/Choke_Schaffner_RN122-04-28.0x27.0mm.wrl
    (at (xyz 0 0 0))
    (scale (xyz 1 1 1))
    (rotate (xyz 0 0 0))
  )
)