(module Choke_Schaffner_RN214-04-15.5x23.0mm (layer F.Cu) (tedit 5E561414)
  (descr "Current-compensated Chokes, Schaffner, RN214-04, 15.5mmx23.0mm https://www.schaffner.com/products/download/product/datasheet/rn-series-common-mode-chokes-new/")
  (tags "chokes schaffner tht")
  (fp_text reference REF** (at 0 -8.5) (layer F.SilkS)
    (effects (font (size 1 1) (thickness 0.15)))
  )
  (fp_text value Choke_Schaffner_RN214-04-15.5x23.0mm (at 6.25 18) (layer F.Fab)
    (effects (font (size 1 1) (thickness 0.15)))
  )
  (fp_line (start -1.5 -6.5) (end 14 -6.5) (layer F.Fab) (width 0.1))
  (fp_line (start 14 -6.5) (end 14 16.5) (layer F.Fab) (width 0.1))
  (fp_line (start 14 16.5) (end -1.5 16.5) (layer F.Fab) (width 0.1))
  (fp_line (start -1.5 16.5) (end -1.5 1) (layer F.Fab) (width 0.1))
  (fp_line (start -1.5 1) (end -0.5 0) (layer F.Fab) (width 0.1))
  (fp_line (start -0.5 0) (end -1.5 -1) (layer F.Fab) (width 0.1))
  (fp_line (start -1.5 -1) (end -1.5 -6.5) (layer F.Fab) (width 0.1))
  (fp_line (start -1.62 -6.62) (end 14.12 -6.62) (layer F.SilkS) (width 0.12))
  (fp_line (start 14.12 -6.62) (end 14.12 16.62) (layer F.SilkS) (width 0.12))
  (fp_line (start 14.12 16.62) (end -1.62 16.62) (layer F.SilkS) (width 0.12))
  (fp_line (start -1.62 16.62) (end -1.62 -6.62) (layer F.SilkS) (width 0.12))
  (fp_line (start -1.75 -6.75) (end -1.75 16.75) (layer F.CrtYd) (width 0.05))
  (fp_line (start -1.75 16.75) (end 14.25 16.75) (layer F.CrtYd) (width 0.05))
  (fp_line (start 14.25 16.75) (end 14.25 -6.75) (layer F.CrtYd) (width 0.05))
  (fp_line (start 14.25 -6.75) (end -1.75 -6.75) (layer F.CrtYd) (width 0.05))
  (fp_line (start -2 -7) (end -1 -7) (layer F.SilkS) (width 0.12))
  (fp_line (start -2 -7) (end -2 -4) (layer F.SilkS) (width 0.12))
  (pad 1 thru_hole rect (at 0 0) (size 2 2) (drill 0.9) (layers *.Cu *.Mask))
  (pad 2 thru_hole circle (at 12.5 0) (size 2 2) (drill 0.9) (layers *.Cu *.Mask))
  (pad 3 thru_hole circle (at 0 10) (size 2 2) (drill 0.9) (layers *.Cu *.Mask))
  (pad 4 thru_hole circle (at 12.5 10) (size 2 2) (drill 0.9) (layers *.Cu *.Mask))
  (fp_text user %R (at 6.25 5) (layer F.Fab)
    (effects (font (size 1 1) (thickness 0.15)))
  )
  (model ${KICAD6_3DMODEL_DIR}/Inductor_THT.3dshapes/Choke_Schaffner_RN214-04-15.5x23.0mm.wrl
    (at (xyz 0 0 0))
    (scale (xyz 1 1 1))
    (rotate (xyz 0 0 0))
  )
)