(module Choke_Schaffner_RN116-04-22.5x21.5mm (layer F.Cu) (tedit 5E561414)
  (descr "Current-compensated Chokes, Schaffner, RN116-04, 22.5mmx21.5mm https://www.schaffner.com/products/download/product/datasheet/rn-series-common-mode-chokes-new/")
  (tags "chokes schaffner tht")
  (fp_text reference REF** (at 1 -5) (layer F.SilkS)
    (effects (font (size 1 1) (thickness 0.15)))
  )
  (fp_text value Choke_Schaffner_RN116-04-22.5x21.5mm (at 10.05 18.5) (layer F.Fab)
    (effects (font (size 1 1) (thickness 0.15)))
  )
  (fp_arc (start 10.05 0) (end 7.8 -3.9) (angle 60) (layer F.Fab) (width 0.1))
  (fp_arc (start 10.05 12.5) (end 12.3 16.4) (angle 60) (layer F.Fab) (width 0.1))
  (fp_arc (start 10.05 -0.12) (end 7.8 -4.04) (angle 60) (layer F.SilkS) (width 0.12))
  (fp_arc (start 10.05 12.62) (end 12.3 16.54) (angle 60) (layer F.SilkS) (width 0.12))
  (fp_arc (start 10.05 -0.25) (end 7.8 -4.17) (angle 60) (layer F.CrtYd) (width 0.05))
  (fp_arc (start 10.05 12.75) (end 12.3 16.67) (angle 60) (layer F.CrtYd) (width 0.05))
  (fp_line (start -1.2 -1) (end 7.8 -3.9) (layer F.Fab) (width 0.1))
  (fp_line (start 12.3 -3.9) (end 21.3 -1) (layer F.Fab) (width 0.1))
  (fp_line (start 21.3 -1) (end 21.3 13.5) (layer F.Fab) (width 0.1))
  (fp_line (start 21.3 13.5) (end 12.3 16.4) (layer F.Fab) (width 0.1))
  (fp_line (start 7.8 16.4) (end -1.2 13.5) (layer F.Fab) (width 0.1))
  (fp_line (start -1.2 13.5) (end -1.2 0.5) (layer F.Fab) (width 0.1))
  (fp_line (start -1.2 0.5) (end -0.7 0) (layer F.Fab) (width 0.1))
  (fp_line (start -0.7 0) (end -1.2 -0.5) (layer F.Fab) (width 0.1))
  (fp_line (start -1.2 -0.5) (end -1.2 -1) (layer F.Fab) (width 0.1))
  (fp_line (start -1.32 -1.1) (end 7.8 -4.04) (layer F.SilkS) (width 0.12))
  (fp_line (start 12.3 -4.04) (end 21.42 -1.1) (layer F.SilkS) (width 0.12))
  (fp_line (start 21.42 -1.1) (end 21.42 13.6) (layer F.SilkS) (width 0.12))
  (fp_line (start 21.42 13.6) (end 12.3 16.54) (layer F.SilkS) (width 0.12))
  (fp_line (start 7.8 16.54) (end -1.32 13.6) (layer F.SilkS) (width 0.12))
  (fp_line (start -1.32 13.6) (end -1.32 -1.1) (layer F.SilkS) (width 0.12))
  (fp_line (start -1.45 -1.19) (end 7.8 -4.17) (layer F.CrtYd) (width 0.05))
  (fp_line (start 12.3 -4.17) (end 21.55 -1.19) (layer F.CrtYd) (width 0.05))
  (fp_line (start 21.55 -1.19) (end 21.55 13.69) (layer F.CrtYd) (width 0.05))
  (fp_line (start 21.55 13.69) (end 12.3 16.67) (layer F.CrtYd) (width 0.05))
  (fp_line (start 7.8 16.67) (end -1.45 13.69) (layer F.CrtYd) (width 0.05))
  (fp_line (start -1.45 13.69) (end -1.45 -1.19) (layer F.CrtYd) (width 0.05))
  (fp_line (start -1.7 -1.44) (end -1.45 -1.44) (layer F.SilkS) (width 0.12))
  (fp_line (start -1.7 -1.44) (end -1.7 1.56) (layer F.SilkS) (width 0.12))
  (pad 1 thru_hole rect (at 0 0) (size 2 2) (drill 0.9) (layers *.Cu *.Mask))
  (pad 2 thru_hole circle (at 20.1 0) (size 2 2) (drill 0.9) (layers *.Cu *.Mask))
  (pad 3 thru_hole circle (at 0 12.5) (size 2 2) (drill 0.9) (layers *.Cu *.Mask))
  (pad 4 thru_hole circle (at 20.1 12.5) (size 2 2) (drill 0.9) (layers *.Cu *.Mask))
  (fp_text user %R (at 10.05 6.25) (layer F.Fab)
    (effects (font (size 1 1) (thickness 0.15)))
  )
  (model ${KICAD6_3DMODEL_DIR}/Inductor_THT.3dshapes/Choke_Schaffner_RN116-04-22.5x21.5mm.wrl
    (at (xyz 0 0 0))
    (scale (xyz 1 1 1))
    (rotate (xyz 0 0 0))
  )
)