(module L_Axial_L20.3mm_D12.1mm_P28.50mm_Horizontal_Vishay_IHA-101 (layer F.Cu) (tedit 5AE59B05)
  (descr "Inductor, Axial series, Axial, Horizontal, pin pitch=28.5mm, , length*diameter=20.32*12.07mm^2, Vishay, IHA-101, http://www.vishay.com/docs/34014/iha.pdf")
  (tags "Inductor Axial series Axial Horizontal pin pitch 28.5mm  length 20.32mm diameter 12.07mm Vishay IHA-101")
  (fp_text reference REF** (at 14.25 -7.155) (layer F.SilkS)
    (effects (font (size 1 1) (thickness 0.15)))
  )
  (fp_text value L_Axial_L20.3mm_D12.1mm_P28.50mm_Horizontal_Vishay_IHA-101 (at 14.25 7.155) (layer F.Fab)
    (effects (font (size 1 1) (thickness 0.15)))
  )
  (fp_line (start 4.09 -6.035) (end 4.09 6.035) (layer F.Fab) (width 0.1))
  (fp_line (start 4.09 6.035) (end 24.41 6.035) (layer F.Fab) (width 0.1))
  (fp_line (start 24.41 6.035) (end 24.41 -6.035) (layer F.Fab) (width 0.1))
  (fp_line (start 24.41 -6.035) (end 4.09 -6.035) (layer F.Fab) (width 0.1))
  (fp_line (start 0 0) (end 4.09 0) (layer F.Fab) (width 0.1))
  (fp_line (start 28.5 0) (end 24.41 0) (layer F.Fab) (width 0.1))
  (fp_line (start 3.97 -6.155) (end 3.97 6.155) (layer F.SilkS) (width 0.12))
  (fp_line (start 3.97 6.155) (end 24.53 6.155) (layer F.SilkS) (width 0.12))
  (fp_line (start 24.53 6.155) (end 24.53 -6.155) (layer F.SilkS) (width 0.12))
  (fp_line (start 24.53 -6.155) (end 3.97 -6.155) (layer F.SilkS) (width 0.12))
  (fp_line (start 1.44 0) (end 3.97 0) (layer F.SilkS) (width 0.12))
  (fp_line (start 27.06 0) (end 24.53 0) (layer F.SilkS) (width 0.12))
  (fp_line (start -1.45 -6.29) (end -1.45 6.29) (layer F.CrtYd) (width 0.05))
  (fp_line (start -1.45 6.29) (end 29.95 6.29) (layer F.CrtYd) (width 0.05))
  (fp_line (start 29.95 6.29) (end 29.95 -6.29) (layer F.CrtYd) (width 0.05))
  (fp_line (start 29.95 -6.29) (end -1.45 -6.29) (layer F.CrtYd) (width 0.05))
  (pad 1 thru_hole circle (at 0 0) (size 2.4 2.4) (drill 1.2) (layers *.Cu *.Mask))
  (pad 2 thru_hole oval (at 28.5 0) (size 2.4 2.4) (drill 1.2) (layers *.Cu *.Mask))
  (fp_text user %R (at 14.25 0) (layer F.Fab)
    (effects (font (size 1 1) (thickness 0.15)))
  )
  (model ${KICAD6_3DMODEL_DIR}/Inductor_THT.3dshapes/L_Axial_L20.3mm_D12.1mm_P28.50mm_Horizontal_Vishay_IHA-101.wrl
    (at (xyz 0 0 0))
    (scale (xyz 1 1 1))
    (rotate (xyz 0 0 0))
  )
)