(module L_Axial_L26.0mm_D11.0mm_P30.48mm_Horizontal_Fastron_77A (layer F.Cu) (tedit 5AE59B05)
  (descr "Inductor, Axial series, Axial, Horizontal, pin pitch=30.48mm, , length*diameter=26*11mm^2, Fastron, 77A, http://cdn-reichelt.de/documents/datenblatt/B400/DS_77A.pdf")
  (tags "Inductor Axial series Axial Horizontal pin pitch 30.48mm  length 26mm diameter 11mm Fastron 77A")
  (fp_text reference REF** (at 15.24 -6.62) (layer F.SilkS)
    (effects (font (size 1 1) (thickness 0.15)))
  )
  (fp_text value L_Axial_L26.0mm_D11.0mm_P30.48mm_Horizontal_Fastron_77A (at 15.24 6.62) (layer F.Fab)
    (effects (font (size 1 1) (thickness 0.15)))
  )
  (fp_line (start 2.24 -5.5) (end 2.24 5.5) (layer F.Fab) (width 0.1))
  (fp_line (start 2.24 5.5) (end 28.24 5.5) (layer F.Fab) (width 0.1))
  (fp_line (start 28.24 5.5) (end 28.24 -5.5) (layer F.Fab) (width 0.1))
  (fp_line (start 28.24 -5.5) (end 2.24 -5.5) (layer F.Fab) (width 0.1))
  (fp_line (start 0 0) (end 2.24 0) (layer F.Fab) (width 0.1))
  (fp_line (start 30.48 0) (end 28.24 0) (layer F.Fab) (width 0.1))
  (fp_line (start 2.12 -5.62) (end 2.12 5.62) (layer F.SilkS) (width 0.12))
  (fp_line (start 2.12 5.62) (end 28.36 5.62) (layer F.SilkS) (width 0.12))
  (fp_line (start 28.36 5.62) (end 28.36 -5.62) (layer F.SilkS) (width 0.12))
  (fp_line (start 28.36 -5.62) (end 2.12 -5.62) (layer F.SilkS) (width 0.12))
  (fp_line (start 1.44 0) (end 2.12 0) (layer F.SilkS) (width 0.12))
  (fp_line (start 29.04 0) (end 28.36 0) (layer F.SilkS) (width 0.12))
  (fp_line (start -1.45 -5.75) (end -1.45 5.75) (layer F.CrtYd) (width 0.05))
  (fp_line (start -1.45 5.75) (end 31.94 5.75) (layer F.CrtYd) (width 0.05))
  (fp_line (start 31.94 5.75) (end 31.94 -5.75) (layer F.CrtYd) (width 0.05))
  (fp_line (start 31.94 -5.75) (end -1.45 -5.75) (layer F.CrtYd) (width 0.05))
  (pad 1 thru_hole circle (at 0 0) (size 2.4 2.4) (drill 1.2) (layers *.Cu *.Mask))
  (pad 2 thru_hole oval (at 30.48 0) (size 2.4 2.4) (drill 1.2) (layers *.Cu *.Mask))
  (fp_text user %R (at 15.24 0) (layer F.Fab)
    (effects (font (size 1 1) (thickness 0.15)))
  )
  (model ${KICAD6_3DMODEL_DIR}/Inductor_THT.3dshapes/L_Axial_L26.0mm_D11.0mm_P30.48mm_Horizontal_Fastron_77A.wrl
    (at (xyz 0 0 0))
    (scale (xyz 1 1 1))
    (rotate (xyz 0 0 0))
  )
)