(module L_Axial_L14.5mm_D5.8mm_P25.40mm_Horizontal_Fastron_HBCC (layer F.Cu) (tedit 5AE59B05)
  (descr "Inductor, Axial series, Axial, Horizontal, pin pitch=25.4mm, , length*diameter=14.5*5.8mm^2, Fastron, HBCC, http://www.fastrongroup.com/image-show/18/HBCC.pdf?type=Complete-DataSheet&productType=series")
  (tags "Inductor Axial series Axial Horizontal pin pitch 25.4mm  length 14.5mm diameter 5.8mm Fastron HBCC")
  (fp_text reference REF** (at 12.7 -4.02) (layer F.SilkS)
    (effects (font (size 1 1) (thickness 0.15)))
  )
  (fp_text value L_Axial_L14.5mm_D5.8mm_P25.40mm_Horizontal_Fastron_HBCC (at 12.7 4.02) (layer F.Fab)
    (effects (font (size 1 1) (thickness 0.15)))
  )
  (fp_line (start 5.45 -2.9) (end 5.45 2.9) (layer F.Fab) (width 0.1))
  (fp_line (start 5.45 2.9) (end 19.95 2.9) (layer F.Fab) (width 0.1))
  (fp_line (start 19.95 2.9) (end 19.95 -2.9) (layer F.Fab) (width 0.1))
  (fp_line (start 19.95 -2.9) (end 5.45 -2.9) (layer F.Fab) (width 0.1))
  (fp_line (start 0 0) (end 5.45 0) (layer F.Fab) (width 0.1))
  (fp_line (start 25.4 0) (end 19.95 0) (layer F.Fab) (width 0.1))
  (fp_line (start 5.33 -3.02) (end 5.33 3.02) (layer F.SilkS) (width 0.12))
  (fp_line (start 5.33 3.02) (end 20.07 3.02) (layer F.SilkS) (width 0.12))
  (fp_line (start 20.07 3.02) (end 20.07 -3.02) (layer F.SilkS) (width 0.12))
  (fp_line (start 20.07 -3.02) (end 5.33 -3.02) (layer F.SilkS) (width 0.12))
  (fp_line (start 1.34 0) (end 5.33 0) (layer F.SilkS) (width 0.12))
  (fp_line (start 24.06 0) (end 20.07 0) (layer F.SilkS) (width 0.12))
  (fp_line (start -1.35 -3.15) (end -1.35 3.15) (layer F.CrtYd) (width 0.05))
  (fp_line (start -1.35 3.15) (end 26.75 3.15) (layer F.CrtYd) (width 0.05))
  (fp_line (start 26.75 3.15) (end 26.75 -3.15) (layer F.CrtYd) (width 0.05))
  (fp_line (start 26.75 -3.15) (end -1.35 -3.15) (layer F.CrtYd) (width 0.05))
  (pad 1 thru_hole circle (at 0 0) (size 2.2 2.2) (drill 1.1) (layers *.Cu *.Mask))
  (pad 2 thru_hole oval (at 25.4 0) (size 2.2 2.2) (drill 1.1) (layers *.Cu *.Mask))
  (fp_text user %R (at 12.7 0) (layer F.Fab)
    (effects (font (size 1 1) (thickness 0.15)))
  )
  (model ${KICAD6_3DMODEL_DIR}/Inductor_THT.3dshapes/L_Axial_L14.5mm_D5.8mm_P25.40mm_Horizontal_Fastron_HBCC.wrl
    (at (xyz 0 0 0))
    (scale (xyz 1 1 1))
    (rotate (xyz 0 0 0))
  )
)