(module L_Axial_L24.0mm_D7.1mm_P30.48mm_Horizontal_Vishay_IM-10-28 (layer F.Cu) (tedit 5AE59B05)
  (descr "Inductor, Axial series, Axial, Horizontal, pin pitch=30.48mm, , length*diameter=24*7.1mm^2, Vishay, IM-10-28, http://www.vishay.com/docs/34035/im10.pdf")
  (tags "Inductor Axial series Axial Horizontal pin pitch 30.48mm  length 24mm diameter 7.1mm Vishay IM-10-28")
  (fp_text reference REF** (at 15.24 -4.67) (layer F.SilkS)
    (effects (font (size 1 1) (thickness 0.15)))
  )
  (fp_text value L_Axial_L24.0mm_D7.1mm_P30.48mm_Horizontal_Vishay_IM-10-28 (at 15.24 4.67) (layer F.Fab)
    (effects (font (size 1 1) (thickness 0.15)))
  )
  (fp_line (start 3.24 -3.55) (end 3.24 3.55) (layer F.Fab) (width 0.1))
  (fp_line (start 3.24 3.55) (end 27.24 3.55) (layer F.Fab) (width 0.1))
  (fp_line (start 27.24 3.55) (end 27.24 -3.55) (layer F.Fab) (width 0.1))
  (fp_line (start 27.24 -3.55) (end 3.24 -3.55) (layer F.Fab) (width 0.1))
  (fp_line (start 0 0) (end 3.24 0) (layer F.Fab) (width 0.1))
  (fp_line (start 30.48 0) (end 27.24 0) (layer F.Fab) (width 0.1))
  (fp_line (start 3.12 -3.67) (end 3.12 3.67) (layer F.SilkS) (width 0.12))
  (fp_line (start 3.12 3.67) (end 27.36 3.67) (layer F.SilkS) (width 0.12))
  (fp_line (start 27.36 3.67) (end 27.36 -3.67) (layer F.SilkS) (width 0.12))
  (fp_line (start 27.36 -3.67) (end 3.12 -3.67) (layer F.SilkS) (width 0.12))
  (fp_line (start 1.24 0) (end 3.12 0) (layer F.SilkS) (width 0.12))
  (fp_line (start 29.24 0) (end 27.36 0) (layer F.SilkS) (width 0.12))
  (fp_line (start -1.25 -3.8) (end -1.25 3.8) (layer F.CrtYd) (width 0.05))
  (fp_line (start -1.25 3.8) (end 31.74 3.8) (layer F.CrtYd) (width 0.05))
  (fp_line (start 31.74 3.8) (end 31.74 -3.8) (layer F.CrtYd) (width 0.05))
  (fp_line (start 31.74 -3.8) (end -1.25 -3.8) (layer F.CrtYd) (width 0.05))
  (pad 1 thru_hole circle (at 0 0) (size 2 2) (drill 1) (layers *.Cu *.Mask))
  (pad 2 thru_hole oval (at 30.48 0) (size 2 2) (drill 1) (layers *.Cu *.Mask))
  (fp_text user %R (at 15.24 0) (layer F.Fab)
    (effects (font (size 1 1) (thickness 0.15)))
  )
  (model ${KICAD6_3DMODEL_DIR}/Inductor_THT.3dshapes/L_Axial_L24.0mm_D7.1mm_P30.48mm_Horizontal_Vishay_IM-10-28.wrl
    (at (xyz 0 0 0))
    (scale (xyz 1 1 1))
    (rotate (xyz 0 0 0))
  )
)