(module L_Axial_L20.0mm_D8.0mm_P7.62mm_Vertical (layer F.Cu) (tedit 5AE59B05)
  (descr "Inductor, Axial series, Axial, Vertical, pin pitch=7.62mm, , length*diameter=20*8mm^2")
  (tags "Inductor Axial series Axial Vertical pin pitch 7.62mm  length 20mm diameter 8mm")
  (fp_text reference REF** (at 3.81 -5.12) (layer F.SilkS)
    (effects (font (size 1 1) (thickness 0.15)))
  )
  (fp_text value L_Axial_L20.0mm_D8.0mm_P7.62mm_Vertical (at 3.81 5.12) (layer F.Fab)
    (effects (font (size 1 1) (thickness 0.15)))
  )
  (fp_circle (center 0 0) (end 4 0) (layer F.Fab) (width 0.1))
  (fp_circle (center 0 0) (end 4.12 0) (layer F.SilkS) (width 0.12))
  (fp_line (start 0 0) (end 7.62 0) (layer F.Fab) (width 0.1))
  (fp_line (start 4.12 0) (end 6.12 0) (layer F.SilkS) (width 0.12))
  (fp_line (start -4.25 -4.25) (end -4.25 4.25) (layer F.CrtYd) (width 0.05))
  (fp_line (start -4.25 4.25) (end 9.07 4.25) (layer F.CrtYd) (width 0.05))
  (fp_line (start 9.07 4.25) (end 9.07 -4.25) (layer F.CrtYd) (width 0.05))
  (fp_line (start 9.07 -4.25) (end -4.25 -4.25) (layer F.CrtYd) (width 0.05))
  (pad 1 thru_hole circle (at 0 0) (size 2.4 2.4) (drill 1.2) (layers *.Cu *.Mask))
  (pad 2 thru_hole oval (at 7.62 0) (size 2.4 2.4) (drill 1.2) (layers *.Cu *.Mask))
  (fp_text user %R (at 0 -1.7) (layer F.Fab)
    (effects (font (size 1 1) (thickness 0.15)))
  )
  (model ${KICAD6_3DMODEL_DIR}/Inductor_THT.3dshapes/L_Axial_L20.0mm_D8.0mm_P7.62mm_Vertical.wrl
    (at (xyz 0 0 0))
    (scale (xyz 1 1 1))
    (rotate (xyz 0 0 0))
  )
)