(module L_Axial_L16.0mm_D7.5mm_P25.40mm_Horizontal_Fastron_XHBCC (layer F.Cu) (tedit 5AE59B05)
  (descr "Inductor, Axial series, Axial, Horizontal, pin pitch=25.4mm, , length*diameter=16*7.5mm^2, Fastron, XHBCC, http://www.fastrongroup.com/image-show/26/XHBCC.pdf?type=Complete-DataSheet&productType=series")
  (tags "Inductor Axial series Axial Horizontal pin pitch 25.4mm  length 16mm diameter 7.5mm Fastron XHBCC")
  (fp_text reference REF** (at 12.7 -4.87) (layer F.SilkS)
    (effects (font (size 1 1) (thickness 0.15)))
  )
  (fp_text value L_Axial_L16.0mm_D7.5mm_P25.40mm_Horizontal_Fastron_XHBCC (at 12.7 4.87) (layer F.Fab)
    (effects (font (size 1 1) (thickness 0.15)))
  )
  (fp_line (start 4.7 -3.75) (end 4.7 3.75) (layer F.Fab) (width 0.1))
  (fp_line (start 4.7 3.75) (end 20.7 3.75) (layer F.Fab) (width 0.1))
  (fp_line (start 20.7 3.75) (end 20.7 -3.75) (layer F.Fab) (width 0.1))
  (fp_line (start 20.7 -3.75) (end 4.7 -3.75) (layer F.Fab) (width 0.1))
  (fp_line (start 0 0) (end 4.7 0) (layer F.Fab) (width 0.1))
  (fp_line (start 25.4 0) (end 20.7 0) (layer F.Fab) (width 0.1))
  (fp_line (start 4.58 -3.87) (end 4.58 3.87) (layer F.SilkS) (width 0.12))
  (fp_line (start 4.58 3.87) (end 20.82 3.87) (layer F.SilkS) (width 0.12))
  (fp_line (start 20.82 3.87) (end 20.82 -3.87) (layer F.SilkS) (width 0.12))
  (fp_line (start 20.82 -3.87) (end 4.58 -3.87) (layer F.SilkS) (width 0.12))
  (fp_line (start 1.34 0) (end 4.58 0) (layer F.SilkS) (width 0.12))
  (fp_line (start 24.06 0) (end 20.82 0) (layer F.SilkS) (width 0.12))
  (fp_line (start -1.35 -4) (end -1.35 4) (layer F.CrtYd) (width 0.05))
  (fp_line (start -1.35 4) (end 26.75 4) (layer F.CrtYd) (width 0.05))
  (fp_line (start 26.75 4) (end 26.75 -4) (layer F.CrtYd) (width 0.05))
  (fp_line (start 26.75 -4) (end -1.35 -4) (layer F.CrtYd) (width 0.05))
  (pad 1 thru_hole circle (at 0 0) (size 2.2 2.2) (drill 1.1) (layers *.Cu *.Mask))
  (pad 2 thru_hole oval (at 25.4 0) (size 2.2 2.2) (drill 1.1) (layers *.Cu *.Mask))
  (fp_text user %R (at 12.7 0) (layer F.Fab)
    (effects (font (size 1 1) (thickness 0.15)))
  )
  (model ${KICAD6_3DMODEL_DIR}/Inductor_THT.3dshapes/L_Axial_L16.0mm_D7.5mm_P25.40mm_Horizontal_Fastron_XHBCC.wrl
    (at (xyz 0 0 0))
    (scale (xyz 1 1 1))
    (rotate (xyz 0 0 0))
  )
)