(module L_Axial_L6.6mm_D2.7mm_P10.16mm_Horizontal_Vishay_IM-2 (layer F.Cu) (tedit 5AE59B05)
  (descr "Inductor, Axial series, Axial, Horizontal, pin pitch=10.16mm, , length*diameter=6.6*2.7mm^2, Vishay, IM-2, http://www.vishay.com/docs/34030/im.pdf")
  (tags "Inductor Axial series Axial Horizontal pin pitch 10.16mm  length 6.6mm diameter 2.7mm Vishay IM-2")
  (fp_text reference REF** (at 5.08 -2.47) (layer F.SilkS)
    (effects (font (size 1 1) (thickness 0.15)))
  )
  (fp_text value L_Axial_L6.6mm_D2.7mm_P10.16mm_Horizontal_Vishay_IM-2 (at 5.08 2.47) (layer F.Fab)
    (effects (font (size 1 1) (thickness 0.15)))
  )
  (fp_line (start 1.78 -1.35) (end 1.78 1.35) (layer F.Fab) (width 0.1))
  (fp_line (start 1.78 1.35) (end 8.38 1.35) (layer F.Fab) (width 0.1))
  (fp_line (start 8.38 1.35) (end 8.38 -1.35) (layer F.Fab) (width 0.1))
  (fp_line (start 8.38 -1.35) (end 1.78 -1.35) (layer F.Fab) (width 0.1))
  (fp_line (start 0 0) (end 1.78 0) (layer F.Fab) (width 0.1))
  (fp_line (start 10.16 0) (end 8.38 0) (layer F.Fab) (width 0.1))
  (fp_line (start 1.66 -1.47) (end 1.66 1.47) (layer F.SilkS) (width 0.12))
  (fp_line (start 1.66 1.47) (end 8.5 1.47) (layer F.SilkS) (width 0.12))
  (fp_line (start 8.5 1.47) (end 8.5 -1.47) (layer F.SilkS) (width 0.12))
  (fp_line (start 8.5 -1.47) (end 1.66 -1.47) (layer F.SilkS) (width 0.12))
  (fp_line (start 1.04 0) (end 1.66 0) (layer F.SilkS) (width 0.12))
  (fp_line (start 9.12 0) (end 8.5 0) (layer F.SilkS) (width 0.12))
  (fp_line (start -1.05 -1.6) (end -1.05 1.6) (layer F.CrtYd) (width 0.05))
  (fp_line (start -1.05 1.6) (end 11.21 1.6) (layer F.CrtYd) (width 0.05))
  (fp_line (start 11.21 1.6) (end 11.21 -1.6) (layer F.CrtYd) (width 0.05))
  (fp_line (start 11.21 -1.6) (end -1.05 -1.6) (layer F.CrtYd) (width 0.05))
  (pad 1 thru_hole circle (at 0 0) (size 1.6 1.6) (drill 0.8) (layers *.Cu *.Mask))
  (pad 2 thru_hole oval (at 10.16 0) (size 1.6 1.6) (drill 0.8) (layers *.Cu *.Mask))
  (fp_text user %R (at 5.08 0) (layer F.Fab)
    (effects (font (size 1 1) (thickness 0.15)))
  )
  (model ${KICAD6_3DMODEL_DIR}/Inductor_THT.3dshapes/L_Axial_L6.6mm_D2.7mm_P10.16mm_Horizontal_Vishay_IM-2.wrl
    (at (xyz 0 0 0))
    (scale (xyz 1 1 1))
    (rotate (xyz 0 0 0))
  )
)