(module L_Axial_L7.0mm_D3.3mm_P10.16mm_Horizontal_Fastron_MICC (layer F.Cu) (tedit 5AE59B05)
  (descr "Inductor, Axial series, Axial, Horizontal, pin pitch=10.16mm, , length*diameter=7*3.3mm^2, Fastron, MICC, http://www.fastrongroup.com/image-show/70/MICC.pdf?type=Complete-DataSheet&productType=series")
  (tags "Inductor Axial series Axial Horizontal pin pitch 10.16mm  length 7mm diameter 3.3mm Fastron MICC")
  (fp_text reference REF** (at 5.08 -2.77) (layer F.SilkS)
    (effects (font (size 1 1) (thickness 0.15)))
  )
  (fp_text value L_Axial_L7.0mm_D3.3mm_P10.16mm_Horizontal_Fastron_MICC (at 5.08 2.77) (layer F.Fab)
    (effects (font (size 1 1) (thickness 0.15)))
  )
  (fp_line (start 1.58 -1.65) (end 1.58 1.65) (layer F.Fab) (width 0.1))
  (fp_line (start 1.58 1.65) (end 8.58 1.65) (layer F.Fab) (width 0.1))
  (fp_line (start 8.58 1.65) (end 8.58 -1.65) (layer F.Fab) (width 0.1))
  (fp_line (start 8.58 -1.65) (end 1.58 -1.65) (layer F.Fab) (width 0.1))
  (fp_line (start 0 0) (end 1.58 0) (layer F.Fab) (width 0.1))
  (fp_line (start 10.16 0) (end 8.58 0) (layer F.Fab) (width 0.1))
  (fp_line (start 1.46 -1.77) (end 1.46 1.77) (layer F.SilkS) (width 0.12))
  (fp_line (start 1.46 1.77) (end 8.7 1.77) (layer F.SilkS) (width 0.12))
  (fp_line (start 8.7 1.77) (end 8.7 -1.77) (layer F.SilkS) (width 0.12))
  (fp_line (start 8.7 -1.77) (end 1.46 -1.77) (layer F.SilkS) (width 0.12))
  (fp_line (start 1.04 0) (end 1.46 0) (layer F.SilkS) (width 0.12))
  (fp_line (start 9.12 0) (end 8.7 0) (layer F.SilkS) (width 0.12))
  (fp_line (start -1.05 -1.9) (end -1.05 1.9) (layer F.CrtYd) (width 0.05))
  (fp_line (start -1.05 1.9) (end 11.21 1.9) (layer F.CrtYd) (width 0.05))
  (fp_line (start 11.21 1.9) (end 11.21 -1.9) (layer F.CrtYd) (width 0.05))
  (fp_line (start 11.21 -1.9) (end -1.05 -1.9) (layer F.CrtYd) (width 0.05))
  (pad 1 thru_hole circle (at 0 0) (size 1.6 1.6) (drill 0.8) (layers *.Cu *.Mask))
  (pad 2 thru_hole oval (at 10.16 0) (size 1.6 1.6) (drill 0.8) (layers *.Cu *.Mask))
  (fp_text user %R (at 5.08 0) (layer F.Fab)
    (effects (font (size 1 1) (thickness 0.15)))
  )
  (model ${KICAD6_3DMODEL_DIR}/Inductor_THT.3dshapes/L_Axial_L7.0mm_D3.3mm_P10.16mm_Horizontal_Fastron_MICC.wrl
    (at (xyz 0 0 0))
    (scale (xyz 1 1 1))
    (rotate (xyz 0 0 0))
  )
)