(module L_Axial_L26.0mm_D10.0mm_P5.08mm_Vertical_Fastron_77A (layer F.Cu) (tedit 5B85CCE0)
  (descr "Inductor, Axial series, Axial, Vertical, pin pitch=5.08mm, , length*diameter=26*10mm^2, Fastron, 77A, http://cdn-reichelt.de/documents/datenblatt/B400/DS_77A.pdf")
  (tags "Inductor Axial series Axial Vertical pin pitch 5.08mm  length 26mm diameter 10mm Fastron 77A")
  (fp_text reference REF** (at 2.54 -6.12) (layer F.SilkS)
    (effects (font (size 1 1) (thickness 0.15)))
  )
  (fp_text value L_Axial_L26.0mm_D10.0mm_P5.08mm_Vertical_Fastron_77A (at 2.54 6.12) (layer F.Fab)
    (effects (font (size 1 1) (thickness 0.15)))
  )
  (fp_arc (start 0 0) (end 4.946918 -1.32) (angle -330.119394) (layer F.SilkS) (width 0.12))
  (fp_circle (center 0 0) (end 5 0) (layer F.Fab) (width 0.1))
  (fp_line (start 0 0) (end 5.08 0) (layer F.Fab) (width 0.1))
  (fp_line (start -5.25 -5.25) (end -5.25 5.25) (layer F.CrtYd) (width 0.05))
  (fp_line (start -5.25 5.25) (end 6.53 5.25) (layer F.CrtYd) (width 0.05))
  (fp_line (start 6.53 5.25) (end 6.53 -5.25) (layer F.CrtYd) (width 0.05))
  (fp_line (start 6.53 -5.25) (end -5.25 -5.25) (layer F.CrtYd) (width 0.05))
  (pad 1 thru_hole circle (at 0 0) (size 2.4 2.4) (drill 1.2) (layers *.Cu *.Mask))
  (pad 2 thru_hole oval (at 5.08 0) (size 2.4 2.4) (drill 1.2) (layers *.Cu *.Mask))
  (fp_text user %R (at 0 -1.7) (layer F.Fab)
    (effects (font (size 1 1) (thickness 0.15)))
  )
  (model ${KICAD6_3DMODEL_DIR}/Inductor_THT.3dshapes/L_Axial_L26.0mm_D10.0mm_P5.08mm_Vertical_Fastron_77A.wrl
    (at (xyz 0 0 0))
    (scale (xyz 1 1 1))
    (rotate (xyz 0 0 0))
  )
)