(module L_Axial_L24.0mm_D7.5mm_P27.94mm_Horizontal_Fastron_MESC (layer F.Cu) (tedit 5AE59B05)
  (descr "Inductor, Axial series, Axial, Horizontal, pin pitch=27.94mm, , length*diameter=24*7.5mm^2, Fastron, MESC, http://cdn-reichelt.de/documents/datenblatt/B400/DS_MESC.pdf")
  (tags "Inductor Axial series Axial Horizontal pin pitch 27.94mm  length 24mm diameter 7.5mm Fastron MESC")
  (fp_text reference REF** (at 13.97 -4.87) (layer F.SilkS)
    (effects (font (size 1 1) (thickness 0.15)))
  )
  (fp_text value L_Axial_L24.0mm_D7.5mm_P27.94mm_Horizontal_Fastron_MESC (at 13.97 4.87) (layer F.Fab)
    (effects (font (size 1 1) (thickness 0.15)))
  )
  (fp_line (start 1.97 -3.75) (end 1.97 3.75) (layer F.Fab) (width 0.1))
  (fp_line (start 1.97 3.75) (end 25.97 3.75) (layer F.Fab) (width 0.1))
  (fp_line (start 25.97 3.75) (end 25.97 -3.75) (layer F.Fab) (width 0.1))
  (fp_line (start 25.97 -3.75) (end 1.97 -3.75) (layer F.Fab) (width 0.1))
  (fp_line (start 0 0) (end 1.97 0) (layer F.Fab) (width 0.1))
  (fp_line (start 27.94 0) (end 25.97 0) (layer F.Fab) (width 0.1))
  (fp_line (start 1.85 -3.87) (end 1.85 3.87) (layer F.SilkS) (width 0.12))
  (fp_line (start 1.85 3.87) (end 26.09 3.87) (layer F.SilkS) (width 0.12))
  (fp_line (start 26.09 3.87) (end 26.09 -3.87) (layer F.SilkS) (width 0.12))
  (fp_line (start 26.09 -3.87) (end 1.85 -3.87) (layer F.SilkS) (width 0.12))
  (fp_line (start 1.44 0) (end 1.85 0) (layer F.SilkS) (width 0.12))
  (fp_line (start 26.5 0) (end 26.09 0) (layer F.SilkS) (width 0.12))
  (fp_line (start -1.45 -4) (end -1.45 4) (layer F.CrtYd) (width 0.05))
  (fp_line (start -1.45 4) (end 29.39 4) (layer F.CrtYd) (width 0.05))
  (fp_line (start 29.39 4) (end 29.39 -4) (layer F.CrtYd) (width 0.05))
  (fp_line (start 29.39 -4) (end -1.45 -4) (layer F.CrtYd) (width 0.05))
  (pad 1 thru_hole circle (at 0 0) (size 2.4 2.4) (drill 1.2) (layers *.Cu *.Mask))
  (pad 2 thru_hole oval (at 27.94 0) (size 2.4 2.4) (drill 1.2) (layers *.Cu *.Mask))
  (fp_text user %R (at 13.97 0) (layer F.Fab)
    (effects (font (size 1 1) (thickness 0.15)))
  )
  (model ${KICAD6_3DMODEL_DIR}/Inductor_THT.3dshapes/L_Axial_L24.0mm_D7.5mm_P27.94mm_Horizontal_Fastron_MESC.wrl
    (at (xyz 0 0 0))
    (scale (xyz 1 1 1))
    (rotate (xyz 0 0 0))
  )
)