(module L_Mount_Lodestone_VTM254 (layer F.Cu) (tedit 5BC765B8)
  (descr "Lodestone Pacific, 64.51mm diameter vertical toroid mount, 16AWG/1.27mm holes, http://www.lodestonepacific.com/CatKpdf/VTM_Series.pdf")
  (tags "vertical inductor toroid mount")
  (fp_text reference REF** (at 15.24 -21.19) (layer F.SilkS)
    (effects (font (size 1 1) (thickness 0.15)))
  )
  (fp_text value L_Mount_Lodestone_VTM254 (at 15.24 3.41) (layer F.Fab)
    (effects (font (size 1 1) (thickness 0.15)))
  )
  (fp_line (start 0 -20.32) (end 30.48 -20.32) (layer F.Fab) (width 0.1))
  (fp_arc (start 0 -17.78) (end 0 -15.24) (angle 180) (layer F.Fab) (width 0.1))
  (fp_arc (start 0 0) (end 0 2.54) (angle 180) (layer F.Fab) (width 0.1))
  (fp_arc (start 30.48 0) (end 30.48 -2.54) (angle 180) (layer F.Fab) (width 0.1))
  (fp_arc (start 30.48 -17.78) (end 30.48 -20.32) (angle 180) (layer F.Fab) (width 0.1))
  (fp_line (start 0 2.54) (end 30.48 2.54) (layer F.Fab) (width 0.1))
  (fp_line (start 0 -2.54) (end 0 -15.24) (layer F.Fab) (width 0.1))
  (fp_line (start 30.48 -2.54) (end 30.48 -15.24) (layer F.Fab) (width 0.1))
  (fp_arc (start 30.48 -17.78) (end 30.48 -17.145) (angle 180) (layer F.Fab) (width 0.1))
  (fp_line (start 30.48 -18.415) (end 35.32 -18.415) (layer F.Fab) (width 0.1))
  (fp_line (start 35.32 -18.415) (end 35.32 -17.145) (layer F.Fab) (width 0.1))
  (fp_line (start 35.32 -17.145) (end 30.48 -17.145) (layer F.Fab) (width 0.1))
  (fp_line (start 30.48 -0.635) (end 35.32 -0.635) (layer F.Fab) (width 0.1))
  (fp_line (start 35.32 -0.635) (end 35.32 0.635) (layer F.Fab) (width 0.1))
  (fp_line (start 35.32 0.635) (end 30.48 0.635) (layer F.Fab) (width 0.1))
  (fp_arc (start 30.48 0) (end 30.48 0.635) (angle 180) (layer F.Fab) (width 0.1))
  (fp_line (start -4.84 0.635) (end -4.84 -0.635) (layer F.Fab) (width 0.1))
  (fp_line (start -4.84 -0.635) (end 0 -0.635) (layer F.Fab) (width 0.1))
  (fp_arc (start 0 0) (end 0 -0.635) (angle 180) (layer F.Fab) (width 0.1))
  (fp_line (start 0 0.635) (end -4.84 0.635) (layer F.Fab) (width 0.1))
  (fp_line (start -4.84 -17.145) (end -4.84 -18.415) (layer F.Fab) (width 0.1))
  (fp_line (start -4.84 -18.415) (end 0 -18.415) (layer F.Fab) (width 0.1))
  (fp_arc (start 0 -17.78) (end 0 -18.415) (angle 180) (layer F.Fab) (width 0.1))
  (fp_line (start 0 -17.145) (end -4.84 -17.145) (layer F.Fab) (width 0.1))
  (fp_line (start 30.59 -2.65) (end 30.59 -15.13) (layer F.SilkS) (width 0.12))
  (fp_line (start -0.11 -2.65) (end -0.11 -15.13) (layer F.SilkS) (width 0.12))
  (fp_line (start 0 2.65) (end 30.48 2.65) (layer F.SilkS) (width 0.12))
  (fp_line (start 0 -20.43) (end 30.48 -20.43) (layer F.SilkS) (width 0.12))
  (fp_arc (start 0 0) (end 0 2.65) (angle 177.6) (layer F.SilkS) (width 0.12))
  (fp_arc (start 30.48 0) (end 30.48 2.65) (angle -177.6) (layer F.SilkS) (width 0.12))
  (fp_arc (start 30.48 -17.78) (end 30.48 -20.43) (angle 177.6) (layer F.SilkS) (width 0.12))
  (fp_arc (start 0 -17.78) (end 0 -20.43) (angle -177.6) (layer F.SilkS) (width 0.12))
  (fp_line (start -2.79 -20.57) (end 33.27 -20.57) (layer F.CrtYd) (width 0.05))
  (fp_line (start -2.79 2.79) (end -2.79 -20.57) (layer F.CrtYd) (width 0.05))
  (fp_line (start 33.27 2.79) (end 33.27 -20.57) (layer F.CrtYd) (width 0.05))
  (fp_line (start -2.79 2.79) (end 33.27 2.79) (layer F.CrtYd) (width 0.05))
  (fp_text user %R (at 15.24 -8.89) (layer F.Fab)
    (effects (font (size 1 1) (thickness 0.15)))
  )
  (fp_line (start 4.57 1.395) (end 25.91 1.395) (layer F.Fab) (width 0.1))
  (fp_line (start 4.57 1.395) (end 4.57 2.54) (layer F.Fab) (width 0.1))
  (fp_line (start 25.91 1.395) (end 25.91 2.54) (layer F.Fab) (width 0.1))
  (pad 3 thru_hole circle (at 0 -17.78) (size 2.4 2.4) (drill 1.4) (layers *.Cu *.Mask))
  (pad 4 thru_hole circle (at 30.48 0) (size 2.4 2.4) (drill 1.4) (layers *.Cu *.Mask))
  (pad 2 thru_hole circle (at 30.48 -17.78) (size 2.4 2.4) (drill 1.4) (layers *.Cu *.Mask))
  (pad 1 thru_hole circle (at 0 0) (size 2.4 2.4) (drill 1.4) (layers *.Cu *.Mask))
  (model ${KICAD6_3DMODEL_DIR}/Inductor_THT.3dshapes/L_Mount_Lodestone_VTM254.wrl
    (at (xyz 0 0 0))
    (scale (xyz 1 1 1))
    (rotate (xyz 0 0 0))
  )
)
