(module L_Radial_D12.0mm_P5.00mm_Neosid_SD12_style2 (layer F.Cu) (tedit 5AE59B06)
  (descr "Inductor, Radial series, Radial, pin pitch=5.00mm, , diameter=12.0mm, Neosid, SD12, style2, http://www.neosid.de/produktblaetter/neosid_Festinduktivitaet_Sd12.pdf")
  (tags "Inductor Radial series Radial pin pitch 5.00mm  diameter 12.0mm Neosid SD12 style2")
  (fp_text reference REF** (at 2.5 -7.25) (layer F.SilkS)
    (effects (font (size 1 1) (thickness 0.15)))
  )
  (fp_text value L_Radial_D12.0mm_P5.00mm_Neosid_SD12_style2 (at 2.5 7.25) (layer F.Fab)
    (effects (font (size 1 1) (thickness 0.15)))
  )
  (fp_circle (center 2.5 0) (end 8.5 0) (layer F.Fab) (width 0.1))
  (fp_circle (center 2.5 0) (end 8.62 0) (layer F.SilkS) (width 0.12))
  (fp_circle (center 2.5 0) (end 8.75 0) (layer F.CrtYd) (width 0.05))
  (pad 1 thru_hole circle (at 0 0) (size 2.4 2.4) (drill 1.2) (layers *.Cu *.Mask))
  (pad 2 thru_hole circle (at 5 0) (size 2.4 2.4) (drill 1.2) (layers *.Cu *.Mask))
  (fp_text user %R (at 2.5 0) (layer F.Fab)
    (effects (font (size 1 1) (thickness 0.15)))
  )
  (model ${KICAD6_3DMODEL_DIR}/Inductor_THT.3dshapes/L_Radial_D12.0mm_P5.00mm_Neosid_SD12_style2.wrl
    (at (xyz 0 0 0))
    (scale (xyz 1 1 1))
    (rotate (xyz 0 0 0))
  )
)