(module L_Radial_L11.5mm_W11.5mm_Px6.00mm_Py6.00mm_Neosid_NE-CPB-11EN_Drill1.8mm (layer F.Cu) (tedit 5AE59B06)
  (descr "Inductor, Radial series, Radial, pin pitch=6.00*6.00mm^2, , length*width=11.5*11.5mm^2, Neosid, NE-CPB-11EN, Drill1.8mm, http://www.neosid.de/produktblaetter/neosid_Festinduktivitaet_NE_CPB11EN.pdf")
  (tags "Inductor Radial series Radial pin pitch 6.00*6.00mm^2  length 11.5mm width 11.5mm Neosid NE-CPB-11EN Drill1.8mm")
  (fp_text reference REF** (at 3 -10) (layer F.SilkS)
    (effects (font (size 1 1) (thickness 0.15)))
  )
  (fp_text value L_Radial_L11.5mm_W11.5mm_Px6.00mm_Py6.00mm_Neosid_NE-CPB-11EN_Drill1.8mm (at 3 4) (layer F.Fab)
    (effects (font (size 1 1) (thickness 0.15)))
  )
  (fp_line (start -2.75 -8.75) (end -2.75 2.75) (layer F.Fab) (width 0.1))
  (fp_line (start -2.75 2.75) (end 8.75 2.75) (layer F.Fab) (width 0.1))
  (fp_line (start 8.75 2.75) (end 8.75 -8.75) (layer F.Fab) (width 0.1))
  (fp_line (start 8.75 -8.75) (end -2.75 -8.75) (layer F.Fab) (width 0.1))
  (fp_line (start -2.87 -8.87) (end 8.87 -8.87) (layer F.SilkS) (width 0.12))
  (fp_line (start -2.87 2.87) (end 8.87 2.87) (layer F.SilkS) (width 0.12))
  (fp_line (start -2.87 -8.87) (end -2.87 2.87) (layer F.SilkS) (width 0.12))
  (fp_line (start 8.87 -8.87) (end 8.87 2.87) (layer F.SilkS) (width 0.12))
  (fp_line (start -3 -9) (end -3 3) (layer F.CrtYd) (width 0.05))
  (fp_line (start -3 3) (end 9 3) (layer F.CrtYd) (width 0.05))
  (fp_line (start 9 3) (end 9 -9) (layer F.CrtYd) (width 0.05))
  (fp_line (start 9 -9) (end -3 -9) (layer F.CrtYd) (width 0.05))
  (pad 1 thru_hole circle (at 0 0) (size 3.6 3.6) (drill 1.8) (layers *.Cu *.Mask))
  (pad 2 thru_hole circle (at 6 -6) (size 3.6 3.6) (drill 1.8) (layers *.Cu *.Mask))
  (fp_text user %R (at 3 0) (layer F.Fab)
    (effects (font (size 1 1) (thickness 0.15)))
  )
  (model ${KICAD6_3DMODEL_DIR}/Inductor_THT.3dshapes/L_Radial_L11.5mm_W11.5mm_Px6.00mm_Py6.00mm_Neosid_NE-CPB-11EN_Drill1.8mm.wrl
    (at (xyz 0 0 0))
    (scale (xyz 1 1 1))
    (rotate (xyz 0 0 0))
  )
)