(module L_Radial_L7.5mm_W4.6mm_P5.00mm_Neosid_SD75 (layer F.Cu) (tedit 5AE59B06)
  (descr "Inductor, Radial series, Radial, pin pitch=5.00mm, , length*width=7.5*4.6mm^2, Neosid, SD75, http://www.neosid.de/produktblaetter/neosid_Festinduktivitaet_Sd75.pdf")
  (tags "Inductor Radial series Radial pin pitch 5.00mm  length 7.5mm width 4.6mm Neosid SD75")
  (fp_text reference REF** (at 2.5 -3.55) (layer F.SilkS)
    (effects (font (size 1 1) (thickness 0.15)))
  )
  (fp_text value L_Radial_L7.5mm_W4.6mm_P5.00mm_Neosid_SD75 (at 2.5 3.55) (layer F.Fab)
    (effects (font (size 1 1) (thickness 0.15)))
  )
  (fp_line (start -1.25 -2.3) (end -1.25 2.3) (layer F.Fab) (width 0.1))
  (fp_line (start -1.25 2.3) (end 6.25 2.3) (layer F.Fab) (width 0.1))
  (fp_line (start 6.25 2.3) (end 6.25 -2.3) (layer F.Fab) (width 0.1))
  (fp_line (start 6.25 -2.3) (end -1.25 -2.3) (layer F.Fab) (width 0.1))
  (fp_line (start -1.37 -2.42) (end 6.37 -2.42) (layer F.SilkS) (width 0.12))
  (fp_line (start -1.37 2.42) (end 6.37 2.42) (layer F.SilkS) (width 0.12))
  (fp_line (start -1.37 -2.42) (end -1.37 2.42) (layer F.SilkS) (width 0.12))
  (fp_line (start 6.37 -2.42) (end 6.37 2.42) (layer F.SilkS) (width 0.12))
  (fp_line (start -1.5 -2.55) (end -1.5 2.55) (layer F.CrtYd) (width 0.05))
  (fp_line (start -1.5 2.55) (end 6.5 2.55) (layer F.CrtYd) (width 0.05))
  (fp_line (start 6.5 2.55) (end 6.5 -2.55) (layer F.CrtYd) (width 0.05))
  (fp_line (start 6.5 -2.55) (end -1.5 -2.55) (layer F.CrtYd) (width 0.05))
  (pad 1 thru_hole circle (at 0 0) (size 1.6 1.6) (drill 0.8) (layers *.Cu *.Mask))
  (pad 2 thru_hole circle (at 5 0) (size 1.6 1.6) (drill 0.8) (layers *.Cu *.Mask))
  (fp_text user %R (at 2.5 0) (layer F.Fab)
    (effects (font (size 1 1) (thickness 0.15)))
  )
  (model ${KICAD6_3DMODEL_DIR}/Inductor_THT.3dshapes/L_Radial_L7.5mm_W4.6mm_P5.00mm_Neosid_SD75.wrl
    (at (xyz 0 0 0))
    (scale (xyz 1 1 1))
    (rotate (xyz 0 0 0))
  )
)