(module L_Radial_D21.0mm_P15.24mm_Vishay_IHB-2 (layer F.Cu) (tedit 5AE59B06)
  (descr "Inductor, Radial series, Radial, pin pitch=15.24mm, , diameter=21mm, Vishay, IHB-2, http://www.vishay.com/docs/34015/ihb.pdf")
  (tags "Inductor Radial series Radial pin pitch 15.24mm  diameter 21mm Vishay IHB-2")
  (fp_text reference REF** (at 7.62 -11.75) (layer F.SilkS)
    (effects (font (size 1 1) (thickness 0.15)))
  )
  (fp_text value L_Radial_D21.0mm_P15.24mm_Vishay_IHB-2 (at 7.62 11.75) (layer F.Fab)
    (effects (font (size 1 1) (thickness 0.15)))
  )
  (fp_circle (center 7.62 0) (end 18.12 0) (layer F.Fab) (width 0.1))
  (fp_circle (center 7.62 0) (end 9.08 0) (layer F.Fab) (width 0.1))
  (fp_circle (center 7.62 0) (end 18.24 0) (layer F.SilkS) (width 0.12))
  (fp_circle (center 7.62 0) (end 8.96 0) (layer F.SilkS) (width 0.12))
  (fp_line (start -3.13 -10.75) (end -3.13 10.75) (layer F.CrtYd) (width 0.05))
  (fp_line (start -3.13 10.75) (end 18.37 10.75) (layer F.CrtYd) (width 0.05))
  (fp_line (start 18.37 10.75) (end 18.37 -10.75) (layer F.CrtYd) (width 0.05))
  (fp_line (start 18.37 -10.75) (end -3.13 -10.75) (layer F.CrtYd) (width 0.05))
  (pad 1 thru_hole circle (at 0 0) (size 2.4 2.4) (drill 1.2) (layers *.Cu *.Mask))
  (pad 2 thru_hole circle (at 15.24 0) (size 2.4 2.4) (drill 1.2) (layers *.Cu *.Mask))
  (fp_text user %R (at 7.62 0) (layer F.Fab)
    (effects (font (size 1 1) (thickness 0.15)))
  )
  (model ${KICAD6_3DMODEL_DIR}/Inductor_THT.3dshapes/L_Radial_D21.0mm_P15.24mm_Vishay_IHB-2.wrl
    (at (xyz 0 0 0))
    (scale (xyz 1 1 1))
    (rotate (xyz 0 0 0))
  )
)