(module L_Radial_D40.6mm_P27.94mm_Vishay_IHB-5 (layer F.Cu) (tedit 5AE59B06)
  (descr "Inductor, Radial series, Radial, pin pitch=27.94mm, , diameter=40.64mm, Vishay, IHB-5, http://www.vishay.com/docs/34015/ihb.pdf")
  (tags "Inductor Radial series Radial pin pitch 27.94mm  diameter 40.64mm Vishay IHB-5")
  (fp_text reference REF** (at 13.97 -21.57) (layer F.SilkS)
    (effects (font (size 1 1) (thickness 0.15)))
  )
  (fp_text value L_Radial_D40.6mm_P27.94mm_Vishay_IHB-5 (at 13.97 21.57) (layer F.Fab)
    (effects (font (size 1 1) (thickness 0.15)))
  )
  (fp_circle (center 13.97 0) (end 34.29 0) (layer F.Fab) (width 0.1))
  (fp_circle (center 13.97 0) (end 16.195 0) (layer F.Fab) (width 0.1))
  (fp_circle (center 13.97 0) (end 34.41 0) (layer F.SilkS) (width 0.12))
  (fp_circle (center 13.97 0) (end 16.075 0) (layer F.SilkS) (width 0.12))
  (fp_line (start -6.6 -20.57) (end -6.6 20.57) (layer F.CrtYd) (width 0.05))
  (fp_line (start -6.6 20.57) (end 34.54 20.57) (layer F.CrtYd) (width 0.05))
  (fp_line (start 34.54 20.57) (end 34.54 -20.57) (layer F.CrtYd) (width 0.05))
  (fp_line (start 34.54 -20.57) (end -6.6 -20.57) (layer F.CrtYd) (width 0.05))
  (pad 1 thru_hole circle (at 0 0) (size 4.4 4.4) (drill 2.2) (layers *.Cu *.Mask))
  (pad 2 thru_hole circle (at 27.94 0) (size 4.4 4.4) (drill 2.2) (layers *.Cu *.Mask))
  (fp_text user %R (at 13.97 0) (layer F.Fab)
    (effects (font (size 1 1) (thickness 0.15)))
  )
  (model ${KICAD6_3DMODEL_DIR}/Inductor_THT.3dshapes/L_Radial_D40.6mm_P27.94mm_Vishay_IHB-5.wrl
    (at (xyz 0 0 0))
    (scale (xyz 1 1 1))
    (rotate (xyz 0 0 0))
  )
)