(module L_Radial_D18.0mm_P10.00mm (layer F.Cu) (tedit 5AE59B06)
  (descr "Inductor, Radial series, Radial, pin pitch=10.00mm, , diameter=18mm, http://www.abracon.com/Magnetics/radial/AIUR-15.pdf")
  (tags "Inductor Radial series Radial pin pitch 10.00mm  diameter 18mm")
  (fp_text reference REF** (at 5 -10.25) (layer F.SilkS)
    (effects (font (size 1 1) (thickness 0.15)))
  )
  (fp_text value L_Radial_D18.0mm_P10.00mm (at 5 10.25) (layer F.Fab)
    (effects (font (size 1 1) (thickness 0.15)))
  )
  (fp_circle (center 5 0) (end 14 0) (layer F.Fab) (width 0.1))
  (fp_circle (center 5 0) (end 14.12 0) (layer F.SilkS) (width 0.12))
  (fp_circle (center 5 0) (end 14.25 0) (layer F.CrtYd) (width 0.05))
  (pad 1 thru_hole circle (at 0 0) (size 2 2) (drill 1) (layers *.Cu *.Mask))
  (pad 2 thru_hole circle (at 10 0) (size 2 2) (drill 1) (layers *.Cu *.Mask))
  (fp_text user %R (at 5 0) (layer F.Fab)
    (effects (font (size 1 1) (thickness 0.15)))
  )
  (model ${KICAD6_3DMODEL_DIR}/Inductor_THT.3dshapes/L_Radial_D18.0mm_P10.00mm.wrl
    (at (xyz 0 0 0))
    (scale (xyz 1 1 1))
    (rotate (xyz 0 0 0))
  )
)