(module L_Radial_L8.0mm_W8.0mm_P5.00mm_Neosid_SD8 (layer F.Cu) (tedit 5AE59B06)
  (descr "Inductor, Radial series, Radial, pin pitch=5.00mm, , length*width=8*8mm^2, Neosid, SD8, http://www.neosid.de/produktblaetter/neosid_Festinduktivitaet_Sd8.pdf")
  (tags "Inductor Radial series Radial pin pitch 5.00mm  length 8mm width 8mm Neosid SD8")
  (fp_text reference REF** (at 2.5 -5.25) (layer F.SilkS)
    (effects (font (size 1 1) (thickness 0.15)))
  )
  (fp_text value L_Radial_L8.0mm_W8.0mm_P5.00mm_Neosid_SD8 (at 2.5 5.25) (layer F.Fab)
    (effects (font (size 1 1) (thickness 0.15)))
  )
  (fp_line (start -1.5 -4) (end -1.5 4) (layer F.Fab) (width 0.1))
  (fp_line (start -1.5 4) (end 6.5 4) (layer F.Fab) (width 0.1))
  (fp_line (start 6.5 4) (end 6.5 -4) (layer F.Fab) (width 0.1))
  (fp_line (start 6.5 -4) (end -1.5 -4) (layer F.Fab) (width 0.1))
  (fp_line (start -1.62 -4.12) (end 6.62 -4.12) (layer F.SilkS) (width 0.12))
  (fp_line (start -1.62 4.12) (end 6.62 4.12) (layer F.SilkS) (width 0.12))
  (fp_line (start -1.62 -4.12) (end -1.62 4.12) (layer F.SilkS) (width 0.12))
  (fp_line (start 6.62 -4.12) (end 6.62 4.12) (layer F.SilkS) (width 0.12))
  (fp_line (start -1.75 -4.25) (end -1.75 4.25) (layer F.CrtYd) (width 0.05))
  (fp_line (start -1.75 4.25) (end 6.75 4.25) (layer F.CrtYd) (width 0.05))
  (fp_line (start 6.75 4.25) (end 6.75 -4.25) (layer F.CrtYd) (width 0.05))
  (fp_line (start 6.75 -4.25) (end -1.75 -4.25) (layer F.CrtYd) (width 0.05))
  (pad 1 thru_hole circle (at 0 0) (size 1.6 1.6) (drill 0.8) (layers *.Cu *.Mask))
  (pad 2 thru_hole circle (at 5 0) (size 1.6 1.6) (drill 0.8) (layers *.Cu *.Mask))
  (fp_text user %R (at 2.5 0) (layer F.Fab)
    (effects (font (size 1 1) (thickness 0.15)))
  )
  (model ${KICAD6_3DMODEL_DIR}/Inductor_THT.3dshapes/L_Radial_L8.0mm_W8.0mm_P5.00mm_Neosid_SD8.wrl
    (at (xyz 0 0 0))
    (scale (xyz 1 1 1))
    (rotate (xyz 0 0 0))
  )
)