(module L_Radial_D7.0mm_P3.00mm (layer F.Cu) (tedit 5AE59B06)
  (descr "Inductor, Radial series, Radial, pin pitch=3.00mm, , diameter=7mm, http://www.abracon.com/Magnetics/radial/AIUR-16.pdf")
  (tags "Inductor Radial series Radial pin pitch 3.00mm  diameter 7mm")
  (fp_text reference REF** (at 1.5 -4.75) (layer F.SilkS)
    (effects (font (size 1 1) (thickness 0.15)))
  )
  (fp_text value L_Radial_D7.0mm_P3.00mm (at 1.5 4.75) (layer F.Fab)
    (effects (font (size 1 1) (thickness 0.15)))
  )
  (fp_circle (center 1.5 0) (end 5 0) (layer F.Fab) (width 0.1))
  (fp_circle (center 1.5 0) (end 5.12 0) (layer F.SilkS) (width 0.12))
  (fp_circle (center 1.5 0) (end 5.25 0) (layer F.CrtYd) (width 0.05))
  (pad 1 thru_hole circle (at 0 0) (size 2.6 2.6) (drill 1.3) (layers *.Cu *.Mask))
  (pad 2 thru_hole circle (at 3 0) (size 2.6 2.6) (drill 1.3) (layers *.Cu *.Mask))
  (fp_text user %R (at 1.5 0) (layer F.Fab)
    (effects (font (size 1 1) (thickness 0.15)))
  )
  (model ${KICAD6_3DMODEL_DIR}/Inductor_THT.3dshapes/L_Radial_D7.0mm_P3.00mm.wrl
    (at (xyz 0 0 0))
    (scale (xyz 1 1 1))
    (rotate (xyz 0 0 0))
  )
)