(module L_Radial_D29.8mm_P28.30mm_Murata_1400series (layer F.Cu) (tedit 5D250875)
  (descr "Inductor, Radial series, Radial, pin pitch=28.30mm, , diameter=29.8mm, muRATA, 1400series, http://www.murata-ps.com/data/magnetics/kmp_1400.pdf")
  (tags "Inductor Radial series Radial pin pitch 28.30mm  diameter 29.8mm muRATA 1400series")
  (fp_text reference REF** (at 14.15 -16.15) (layer F.SilkS)
    (effects (font (size 1 1) (thickness 0.15)))
  )
  (fp_text value L_Radial_D29.8mm_P28.30mm_Murata_1400series (at 14.15 16.15) (layer F.Fab)
    (effects (font (size 1 1) (thickness 0.15)))
  )
  (fp_arc (start 14.15 0) (end -0.83255 -1.06) (angle 171.906251) (layer F.SilkS) (width 0.12))
  (fp_arc (start 14.15 0) (end -0.83255 1.06) (angle -171.906251) (layer F.SilkS) (width 0.12))
  (fp_circle (center 14.15 0) (end 29.05 0) (layer F.Fab) (width 0.1))
  (fp_circle (center 14.15 0) (end 16.7 0) (layer F.Fab) (width 0.1))
  (fp_circle (center 14.15 0) (end 16.58 0) (layer F.SilkS) (width 0.12))
  (fp_line (start -1.06 -15.15) (end -1.06 15.15) (layer F.CrtYd) (width 0.05))
  (fp_line (start -1.06 15.15) (end 29.35 15.15) (layer F.CrtYd) (width 0.05))
  (fp_line (start 29.35 15.15) (end 29.35 -15.15) (layer F.CrtYd) (width 0.05))
  (fp_line (start 29.35 -15.15) (end -1.06 -15.15) (layer F.CrtYd) (width 0.05))
  (fp_text user %R (at 14.15 0) (layer F.Fab)
    (effects (font (size 1 1) (thickness 0.15)))
  )
  (pad 1 thru_hole circle (at 0 0) (size 1.6 1.6) (drill 0.8) (layers *.Cu *.Mask))
  (pad 2 thru_hole circle (at 28.3 0) (size 1.6 1.6) (drill 0.8) (layers *.Cu *.Mask))
  (model ${KICAD6_3DMODEL_DIR}/Inductor_THT.3dshapes/L_Radial_D29.8mm_P28.30mm_Murata_1400series.wrl
    (at (xyz 0 0 0))
    (scale (xyz 1 1 1))
    (rotate (xyz 0 0 0))
  )
)
