(module L_Radial_D7.8mm_P5.00mm_Fastron_07HCP (layer F.Cu) (tedit 5AE59B06)
  (descr "Inductor, Radial series, Radial, pin pitch=5.00mm, , diameter=7.8mm, Fastron, 07HCP, http://www.abracon.com/Magnetics/radial/AISR875.pdf")
  (tags "Inductor Radial series Radial pin pitch 5.00mm  diameter 7.8mm Fastron 07HCP")
  (fp_text reference REF** (at 2.5 -5.15) (layer F.SilkS)
    (effects (font (size 1 1) (thickness 0.15)))
  )
  (fp_text value L_Radial_D7.8mm_P5.00mm_Fastron_07HCP (at 2.5 5.15) (layer F.Fab)
    (effects (font (size 1 1) (thickness 0.15)))
  )
  (fp_arc (start 2.5 0) (end -1.20497 -1.56) (angle 134.332356) (layer F.SilkS) (width 0.12))
  (fp_arc (start 2.5 0) (end -1.20497 1.56) (angle -134.332356) (layer F.SilkS) (width 0.12))
  (fp_circle (center 2.5 0) (end 6.4 0) (layer F.Fab) (width 0.1))
  (fp_circle (center 2.5 0) (end 6.85 0) (layer F.CrtYd) (width 0.05))
  (pad 1 thru_hole circle (at 0 0) (size 2.6 2.6) (drill 1.3) (layers *.Cu *.Mask))
  (pad 2 thru_hole circle (at 5 0) (size 2.6 2.6) (drill 1.3) (layers *.Cu *.Mask))
  (fp_text user %R (at 2.5 0) (layer F.Fab)
    (effects (font (size 1 1) (thickness 0.15)))
  )
  (model ${KICAD6_3DMODEL_DIR}/Inductor_THT.3dshapes/L_Radial_D7.8mm_P5.00mm_Fastron_07HCP.wrl
    (at (xyz 0 0 0))
    (scale (xyz 1 1 1))
    (rotate (xyz 0 0 0))
  )
)