(module L_Toroid_Vertical_L10.0mm_W5.0mm_P5.08mm (layer F.Cu) (tedit 5AE59B06)
  (descr "L_Toroid, Vertical series, Radial, pin pitch=5.08mm, , length*width=10*5mm^2")
  (tags "L_Toroid Vertical series Radial pin pitch 5.08mm  length 10mm width 5mm")
  (fp_text reference REF** (at 0 -2.25) (layer F.SilkS)
    (effects (font (size 1 1) (thickness 0.15)))
  )
  (fp_text value L_Toroid_Vertical_L10.0mm_W5.0mm_P5.08mm (at 0 7.33) (layer F.Fab)
    (effects (font (size 1 1) (thickness 0.15)))
  )
  (fp_line (start -5 0.04) (end -5 5.04) (layer F.Fab) (width 0.1))
  (fp_line (start -5 5.04) (end 5 5.04) (layer F.Fab) (width 0.1))
  (fp_line (start 5 5.04) (end 5 0.04) (layer F.Fab) (width 0.1))
  (fp_line (start 5 0.04) (end -5 0.04) (layer F.Fab) (width 0.1))
  (fp_line (start -4 0) (end -4 5.08) (layer F.Fab) (width 0.1))
  (fp_line (start -4 5.08) (end 4 5.08) (layer F.Fab) (width 0.1))
  (fp_line (start 4 5.08) (end 4 0) (layer F.Fab) (width 0.1))
  (fp_line (start 4 0) (end -4 0) (layer F.Fab) (width 0.1))
  (fp_line (start -4 0) (end -3.6 5.08) (layer F.Fab) (width 0.1))
  (fp_line (start -3.2 0) (end -2.8 5.08) (layer F.Fab) (width 0.1))
  (fp_line (start -2.4 0) (end -2 5.08) (layer F.Fab) (width 0.1))
  (fp_line (start -1.6 0) (end -1.2 5.08) (layer F.Fab) (width 0.1))
  (fp_line (start -0.8 0) (end -0.4 5.08) (layer F.Fab) (width 0.1))
  (fp_line (start -0 0) (end 0.4 5.08) (layer F.Fab) (width 0.1))
  (fp_line (start 0.8 0) (end 1.2 5.08) (layer F.Fab) (width 0.1))
  (fp_line (start 1.6 0) (end 2 5.08) (layer F.Fab) (width 0.1))
  (fp_line (start 2.4 0) (end 2.8 5.08) (layer F.Fab) (width 0.1))
  (fp_line (start 3.2 0) (end 3.6 5.08) (layer F.Fab) (width 0.1))
  (fp_line (start -5.12 -0.08) (end -1.255 -0.08) (layer F.SilkS) (width 0.12))
  (fp_line (start 1.255 -0.08) (end 5.12 -0.08) (layer F.SilkS) (width 0.12))
  (fp_line (start -5.12 5.16) (end -1.255 5.16) (layer F.SilkS) (width 0.12))
  (fp_line (start 1.255 5.16) (end 5.12 5.16) (layer F.SilkS) (width 0.12))
  (fp_line (start -5.12 -0.08) (end -5.12 5.16) (layer F.SilkS) (width 0.12))
  (fp_line (start 5.12 -0.08) (end 5.12 5.16) (layer F.SilkS) (width 0.12))
  (fp_line (start -5.25 -1.25) (end -5.25 6.33) (layer F.CrtYd) (width 0.05))
  (fp_line (start -5.25 6.33) (end 5.25 6.33) (layer F.CrtYd) (width 0.05))
  (fp_line (start 5.25 6.33) (end 5.25 -1.25) (layer F.CrtYd) (width 0.05))
  (fp_line (start 5.25 -1.25) (end -5.25 -1.25) (layer F.CrtYd) (width 0.05))
  (pad 1 thru_hole circle (at 0 0) (size 2 2) (drill 1) (layers *.Cu *.Mask))
  (pad 2 thru_hole circle (at 0 5.08) (size 2 2) (drill 1) (layers *.Cu *.Mask))
  (fp_text user %R (at 2.54 0) (layer F.Fab)
    (effects (font (size 1 1) (thickness 0.15)))
  )
  (model ${KICAD6_3DMODEL_DIR}/Inductor_THT.3dshapes/L_Toroid_Vertical_L10.0mm_W5.0mm_P5.08mm.wrl
    (at (xyz 0 0 0))
    (scale (xyz 1 1 1))
    (rotate (xyz 0 0 0))
  )
)