(module L_Toroid_Vertical_L26.7mm_W14.0mm_P10.16mm_Pulse_D (layer F.Cu) (tedit 5AE59B06)
  (descr "L_Toroid, Vertical series, Radial, pin pitch=10.16mm, , length*width=26.67*13.97mm^2, Pulse, D, http://datasheet.octopart.com/PE-92112KNL-Pulse-datasheet-17853305.pdf")
  (tags "L_Toroid Vertical series Radial pin pitch 10.16mm  length 26.67mm width 13.97mm Pulse D")
  (fp_text reference REF** (at 0 -3.155) (layer F.SilkS)
    (effects (font (size 1 1) (thickness 0.15)))
  )
  (fp_text value L_Toroid_Vertical_L26.7mm_W14.0mm_P10.16mm_Pulse_D (at 0 13.315) (layer F.Fab)
    (effects (font (size 1 1) (thickness 0.15)))
  )
  (fp_line (start -13.335 -1.905) (end -13.335 12.065) (layer F.Fab) (width 0.1))
  (fp_line (start -13.335 12.065) (end 13.335 12.065) (layer F.Fab) (width 0.1))
  (fp_line (start 13.335 12.065) (end 13.335 -1.905) (layer F.Fab) (width 0.1))
  (fp_line (start 13.335 -1.905) (end -13.335 -1.905) (layer F.Fab) (width 0.1))
  (fp_line (start -13.335 -1.905) (end -12.0015 12.065) (layer F.Fab) (width 0.1))
  (fp_line (start -10.668 -1.905) (end -9.3345 12.065) (layer F.Fab) (width 0.1))
  (fp_line (start -8.001 -1.905) (end -6.6675 12.065) (layer F.Fab) (width 0.1))
  (fp_line (start -5.334 -1.905) (end -4.0005 12.065) (layer F.Fab) (width 0.1))
  (fp_line (start -2.667 -1.905) (end -1.3335 12.065) (layer F.Fab) (width 0.1))
  (fp_line (start -0 -1.905) (end 1.3335 12.065) (layer F.Fab) (width 0.1))
  (fp_line (start 2.667 -1.905) (end 4.0005 12.065) (layer F.Fab) (width 0.1))
  (fp_line (start 5.334 -1.905) (end 6.6675 12.065) (layer F.Fab) (width 0.1))
  (fp_line (start 8.001 -1.905) (end 9.3345 12.065) (layer F.Fab) (width 0.1))
  (fp_line (start 10.668 -1.905) (end 12.0015 12.065) (layer F.Fab) (width 0.1))
  (fp_line (start -13.455 -2.025) (end -0.725 -2.025) (layer F.SilkS) (width 0.12))
  (fp_line (start 0.725 -2.025) (end 13.455 -2.025) (layer F.SilkS) (width 0.12))
  (fp_line (start -13.455 12.185) (end -0.725 12.185) (layer F.SilkS) (width 0.12))
  (fp_line (start 0.725 12.185) (end 13.455 12.185) (layer F.SilkS) (width 0.12))
  (fp_line (start -13.455 -2.025) (end -13.455 12.185) (layer F.SilkS) (width 0.12))
  (fp_line (start 13.455 -2.025) (end 13.455 12.185) (layer F.SilkS) (width 0.12))
  (fp_line (start -13.59 -2.16) (end -13.59 12.32) (layer F.CrtYd) (width 0.05))
  (fp_line (start -13.59 12.32) (end 13.59 12.32) (layer F.CrtYd) (width 0.05))
  (fp_line (start 13.59 12.32) (end 13.59 -2.16) (layer F.CrtYd) (width 0.05))
  (fp_line (start 13.59 -2.16) (end -13.59 -2.16) (layer F.CrtYd) (width 0.05))
  (pad 1 thru_hole circle (at 0 0) (size 3.6 3.6) (drill 1.8) (layers *.Cu *.Mask))
  (pad 2 thru_hole circle (at 0 10.16) (size 3.6 3.6) (drill 1.8) (layers *.Cu *.Mask))
  (fp_text user %R (at 5.08 0) (layer F.Fab)
    (effects (font (size 1 1) (thickness 0.15)))
  )
  (model ${KICAD6_3DMODEL_DIR}/Inductor_THT.3dshapes/L_Toroid_Vertical_L26.7mm_W14.0mm_P10.16mm_Pulse_D.wrl
    (at (xyz 0 0 0))
    (scale (xyz 1 1 1))
    (rotate (xyz 0 0 0))
  )
)