(module L_Toroid_Horizontal_D28.0mm_P26.67mm_Bourns_2200 (layer F.Cu) (tedit 5AE59B06)
  (descr "L_Toroid, Horizontal series, Radial, pin pitch=26.67mm, , diameter=28mm, Bourns, 2200, http://www.bourns.com/docs/Product-Datasheets/2100_series.pdf?sfvrsn=3")
  (tags "L_Toroid Horizontal series Radial pin pitch 26.67mm  diameter 28mm Bourns 2200")
  (fp_text reference REF** (at 13.335 -15.25) (layer F.SilkS)
    (effects (font (size 1 1) (thickness 0.15)))
  )
  (fp_text value L_Toroid_Horizontal_D28.0mm_P26.67mm_Bourns_2200 (at 13.335 15.25) (layer F.Fab)
    (effects (font (size 1 1) (thickness 0.15)))
  )
  (fp_arc (start 13.335 0) (end -0.674882 -1.76) (angle 165.679386) (layer F.SilkS) (width 0.12))
  (fp_arc (start 13.335 0) (end -0.674882 1.76) (angle -165.679386) (layer F.SilkS) (width 0.12))
  (fp_circle (center 13.335 0) (end 27.335 0) (layer F.Fab) (width 0.1))
  (fp_circle (center 13.335 0) (end 18.001667 0) (layer F.Fab) (width 0.1))
  (fp_circle (center 13.335 0) (end 17.881667 0) (layer F.SilkS) (width 0.12))
  (fp_line (start 27.1726 0) (end 17.814587 1.200265) (layer F.Fab) (width 0.1))
  (fp_line (start 25.31882 6.918615) (end 16.614354 3.279202) (layer F.Fab) (width 0.1))
  (fp_line (start 20.25417 11.983499) (end 14.535472 4.479531) (layer F.Fab) (width 0.1))
  (fp_line (start 13.335641 13.8376) (end 12.134943 4.479642) (layer F.Fab) (width 0.1))
  (fp_line (start 6.41694 11.98414) (end 10.055949 3.279506) (layer F.Fab) (width 0.1))
  (fp_line (start 1.351821 6.919725) (end 8.855524 1.20068) (layer F.Fab) (width 0.1))
  (fp_line (start -0.5026 0.001282) (end 8.855302 -1.19985) (layer F.Fab) (width 0.1))
  (fp_line (start 1.350539 -6.917505) (end 10.055342 -3.278899) (layer F.Fab) (width 0.1))
  (fp_line (start 6.41472 -11.982858) (end 12.134113 -4.47942) (layer F.Fab) (width 0.1))
  (fp_line (start 13.333077 -13.8376) (end 14.534642 -4.479754) (layer F.Fab) (width 0.1))
  (fp_line (start 20.251949 -11.984781) (end 16.613747 -3.27981) (layer F.Fab) (width 0.1))
  (fp_line (start 25.317538 -6.920836) (end 17.814364 -1.201095) (layer F.Fab) (width 0.1))
  (fp_line (start 27.1726 -0.002564) (end 17.814809 1.199434) (layer F.Fab) (width 0.1))
  (fp_line (start -1.75 -14.25) (end -1.75 14.25) (layer F.CrtYd) (width 0.05))
  (fp_line (start -1.75 14.25) (end 28.42 14.25) (layer F.CrtYd) (width 0.05))
  (fp_line (start 28.42 14.25) (end 28.42 -14.25) (layer F.CrtYd) (width 0.05))
  (fp_line (start 28.42 -14.25) (end -1.75 -14.25) (layer F.CrtYd) (width 0.05))
  (pad 1 thru_hole circle (at 0 0) (size 3 3) (drill 1.5) (layers *.Cu *.Mask))
  (pad 2 thru_hole circle (at 26.67 0) (size 3 3) (drill 1.5) (layers *.Cu *.Mask))
  (fp_text user %R (at 13.335 0) (layer F.Fab)
    (effects (font (size 1 1) (thickness 0.15)))
  )
  (model ${KICAD6_3DMODEL_DIR}/Inductor_THT.3dshapes/L_Toroid_Horizontal_D28.0mm_P26.67mm_Bourns_2200.wrl
    (at (xyz 0 0 0))
    (scale (xyz 1 1 1))
    (rotate (xyz 0 0 0))
  )
)