(module L_Toroid_Vertical_L21.6mm_W9.5mm_P7.11mm_Pulse_C (layer F.Cu) (tedit 5AE59B06)
  (descr "L_Toroid, Vertical series, Radial, pin pitch=7.11mm, , length*width=21.59*9.53mm^2, Pulse, C, http://datasheet.octopart.com/PE-92112KNL-Pulse-datasheet-17853305.pdf")
  (tags "L_Toroid Vertical series Radial pin pitch 7.11mm  length 21.59mm width 9.53mm Pulse C")
  (fp_text reference REF** (at 0 -3.05) (layer F.SilkS)
    (effects (font (size 1 1) (thickness 0.15)))
  )
  (fp_text value L_Toroid_Vertical_L21.6mm_W9.5mm_P7.11mm_Pulse_C (at 0 10.16) (layer F.Fab)
    (effects (font (size 1 1) (thickness 0.15)))
  )
  (fp_line (start -10.795 -1.21) (end -10.795 8.32) (layer F.Fab) (width 0.1))
  (fp_line (start -10.795 8.32) (end 10.795 8.32) (layer F.Fab) (width 0.1))
  (fp_line (start 10.795 8.32) (end 10.795 -1.21) (layer F.Fab) (width 0.1))
  (fp_line (start 10.795 -1.21) (end -10.795 -1.21) (layer F.Fab) (width 0.1))
  (fp_line (start -10.795 -1.21) (end -9.7155 8.32) (layer F.Fab) (width 0.1))
  (fp_line (start -8.636 -1.21) (end -7.5565 8.32) (layer F.Fab) (width 0.1))
  (fp_line (start -6.477 -1.21) (end -5.3975 8.32) (layer F.Fab) (width 0.1))
  (fp_line (start -4.318 -1.21) (end -3.2385 8.32) (layer F.Fab) (width 0.1))
  (fp_line (start -2.159 -1.21) (end -1.0795 8.32) (layer F.Fab) (width 0.1))
  (fp_line (start 0 -1.21) (end 1.0795 8.32) (layer F.Fab) (width 0.1))
  (fp_line (start 2.159 -1.21) (end 3.2385 8.32) (layer F.Fab) (width 0.1))
  (fp_line (start 4.318 -1.21) (end 5.3975 8.32) (layer F.Fab) (width 0.1))
  (fp_line (start 6.477 -1.21) (end 7.5565 8.32) (layer F.Fab) (width 0.1))
  (fp_line (start 8.636 -1.21) (end 9.7155 8.32) (layer F.Fab) (width 0.1))
  (fp_line (start -10.915 -1.33) (end -1.608 -1.33) (layer F.SilkS) (width 0.12))
  (fp_line (start 1.608 -1.33) (end 10.915 -1.33) (layer F.SilkS) (width 0.12))
  (fp_line (start -10.915 8.44) (end -1.608 8.44) (layer F.SilkS) (width 0.12))
  (fp_line (start 1.608 8.44) (end 10.915 8.44) (layer F.SilkS) (width 0.12))
  (fp_line (start -10.915 -1.33) (end -10.915 8.44) (layer F.SilkS) (width 0.12))
  (fp_line (start 10.915 -1.33) (end 10.915 8.44) (layer F.SilkS) (width 0.12))
  (fp_line (start -11.05 -2.06) (end -11.05 9.16) (layer F.CrtYd) (width 0.05))
  (fp_line (start -11.05 9.16) (end 11.05 9.16) (layer F.CrtYd) (width 0.05))
  (fp_line (start 11.05 9.16) (end 11.05 -2.06) (layer F.CrtYd) (width 0.05))
  (fp_line (start 11.05 -2.06) (end -11.05 -2.06) (layer F.CrtYd) (width 0.05))
  (pad 1 thru_hole circle (at 0 0) (size 3.6 3.6) (drill 1.8) (layers *.Cu *.Mask))
  (pad 2 thru_hole circle (at 0 7.11) (size 3.6 3.6) (drill 1.8) (layers *.Cu *.Mask))
  (fp_text user %R (at 3.555 0) (layer F.Fab)
    (effects (font (size 1 1) (thickness 0.15)))
  )
  (model ${KICAD6_3DMODEL_DIR}/Inductor_THT.3dshapes/L_Toroid_Vertical_L21.6mm_W9.5mm_P7.11mm_Pulse_C.wrl
    (at (xyz 0 0 0))
    (scale (xyz 1 1 1))
    (rotate (xyz 0 0 0))
  )
)