(module L_Toroid_Horizontal_D32.5mm_P30.00mm_Bourns_2300 (layer F.Cu) (tedit 5AE59B06)
  (descr "L_Toroid, Horizontal series, Radial, pin pitch=30.00mm, , diameter=32.5mm, Bourns, 2300, http://www.bourns.com/docs/Product-Datasheets/2300_series.pdf?sfvrsn=3")
  (tags "L_Toroid Horizontal series Radial pin pitch 30.00mm  diameter 32.5mm Bourns 2300")
  (fp_text reference REF** (at 15 -17.5) (layer F.SilkS)
    (effects (font (size 1 1) (thickness 0.15)))
  )
  (fp_text value L_Toroid_Horizontal_D32.5mm_P30.00mm_Bourns_2300 (at 15 17.5) (layer F.Fab)
    (effects (font (size 1 1) (thickness 0.15)))
  )
  (fp_arc (start 15 0) (end -1.213245 -2.26) (angle 164.129094) (layer F.SilkS) (width 0.12))
  (fp_arc (start 15 0) (end -1.213245 2.26) (angle -164.129094) (layer F.SilkS) (width 0.12))
  (fp_circle (center 15 0) (end 31.25 0) (layer F.Fab) (width 0.1))
  (fp_circle (center 15 0) (end 20.416667 0) (layer F.Fab) (width 0.1))
  (fp_circle (center 15 0) (end 20.296667 0) (layer F.SilkS) (width 0.12))
  (fp_line (start 31.0426 0) (end 20.218522 1.398255) (layer F.Fab) (width 0.1))
  (fp_line (start 28.893423 8.021085) (end 18.820304 3.820127) (layer F.Fab) (width 0.1))
  (fp_line (start 23.021729 13.893051) (end 16.398497 5.218457) (layer F.Fab) (width 0.1))
  (fp_line (start 15.000743 16.0426) (end 13.601986 5.218586) (layer F.Fab) (width 0.1))
  (fp_line (start 6.979558 13.893795) (end 11.18005 3.820481) (layer F.Fab) (width 0.1))
  (fp_line (start 1.10732 8.022373) (end 9.781608 1.398739) (layer F.Fab) (width 0.1))
  (fp_line (start -1.0426 0.001486) (end 9.781349 -1.397772) (layer F.Fab) (width 0.1))
  (fp_line (start 1.105834 -8.019798) (end 11.179342 -3.819773) (layer F.Fab) (width 0.1))
  (fp_line (start 6.976984 -13.892308) (end 13.601019 -5.218327) (layer F.Fab) (width 0.1))
  (fp_line (start 14.99777 -16.0426) (end 16.39753 -5.218716) (layer F.Fab) (width 0.1))
  (fp_line (start 23.019154 -13.894538) (end 18.819596 -3.820834) (layer F.Fab) (width 0.1))
  (fp_line (start 28.891936 -8.02366) (end 20.218262 -1.399222) (layer F.Fab) (width 0.1))
  (fp_line (start 31.0426 -0.002973) (end 20.218781 1.397288) (layer F.Fab) (width 0.1))
  (fp_line (start -2.25 -16.5) (end -2.25 16.5) (layer F.CrtYd) (width 0.05))
  (fp_line (start -2.25 16.5) (end 32.25 16.5) (layer F.CrtYd) (width 0.05))
  (fp_line (start 32.25 16.5) (end 32.25 -16.5) (layer F.CrtYd) (width 0.05))
  (fp_line (start 32.25 -16.5) (end -2.25 -16.5) (layer F.CrtYd) (width 0.05))
  (pad 1 thru_hole circle (at 0 0) (size 4 4) (drill 2) (layers *.Cu *.Mask))
  (pad 2 thru_hole circle (at 30 0) (size 4 4) (drill 2) (layers *.Cu *.Mask))
  (fp_text user %R (at 15 0) (layer F.Fab)
    (effects (font (size 1 1) (thickness 0.15)))
  )
  (model ${KICAD6_3DMODEL_DIR}/Inductor_THT.3dshapes/L_Toroid_Horizontal_D32.5mm_P30.00mm_Bourns_2300.wrl
    (at (xyz 0 0 0))
    (scale (xyz 1 1 1))
    (rotate (xyz 0 0 0))
  )
)