(module L_Toroid_Vertical_L16.4mm_W7.6mm_P6.60mm_Vishay_TJ3 (layer F.Cu) (tedit 5AE59B06)
  (descr "L_Toroid, Vertical series, Radial, pin pitch=6.60mm, , length*width=16.4*7.6mm^2, Vishay, TJ3, http://www.vishay.com/docs/34079/tj.pdf")
  (tags "L_Toroid Vertical series Radial pin pitch 6.60mm  length 16.4mm width 7.6mm Vishay TJ3")
  (fp_text reference REF** (at 0 -2.45) (layer F.SilkS)
    (effects (font (size 1 1) (thickness 0.15)))
  )
  (fp_text value L_Toroid_Vertical_L16.4mm_W7.6mm_P6.60mm_Vishay_TJ3 (at 0 9.05) (layer F.Fab)
    (effects (font (size 1 1) (thickness 0.15)))
  )
  (fp_line (start -8.2 -0.5) (end -8.2 7.1) (layer F.Fab) (width 0.1))
  (fp_line (start -8.2 7.1) (end 8.2 7.1) (layer F.Fab) (width 0.1))
  (fp_line (start 8.2 7.1) (end 8.2 -0.5) (layer F.Fab) (width 0.1))
  (fp_line (start 8.2 -0.5) (end -8.2 -0.5) (layer F.Fab) (width 0.1))
  (fp_line (start -8.2 -0.5) (end -7.38 7.1) (layer F.Fab) (width 0.1))
  (fp_line (start -6.56 -0.5) (end -5.74 7.1) (layer F.Fab) (width 0.1))
  (fp_line (start -4.92 -0.5) (end -4.1 7.1) (layer F.Fab) (width 0.1))
  (fp_line (start -3.28 -0.5) (end -2.46 7.1) (layer F.Fab) (width 0.1))
  (fp_line (start -1.64 -0.5) (end -0.82 7.1) (layer F.Fab) (width 0.1))
  (fp_line (start -0 -0.5) (end 0.82 7.1) (layer F.Fab) (width 0.1))
  (fp_line (start 1.64 -0.5) (end 2.46 7.1) (layer F.Fab) (width 0.1))
  (fp_line (start 3.28 -0.5) (end 4.1 7.1) (layer F.Fab) (width 0.1))
  (fp_line (start 4.92 -0.5) (end 5.74 7.1) (layer F.Fab) (width 0.1))
  (fp_line (start 6.56 -0.5) (end 7.38 7.1) (layer F.Fab) (width 0.1))
  (fp_line (start -8.32 -0.62) (end -1.35 -0.62) (layer F.SilkS) (width 0.12))
  (fp_line (start 1.35 -0.62) (end 8.32 -0.62) (layer F.SilkS) (width 0.12))
  (fp_line (start -8.32 7.22) (end -1.35 7.22) (layer F.SilkS) (width 0.12))
  (fp_line (start 1.35 7.22) (end 8.32 7.22) (layer F.SilkS) (width 0.12))
  (fp_line (start -8.32 -0.62) (end -8.32 7.22) (layer F.SilkS) (width 0.12))
  (fp_line (start 8.32 -0.62) (end 8.32 7.22) (layer F.SilkS) (width 0.12))
  (fp_line (start -8.45 -1.46) (end -8.45 8.05) (layer F.CrtYd) (width 0.05))
  (fp_line (start -8.45 8.05) (end 8.45 8.05) (layer F.CrtYd) (width 0.05))
  (fp_line (start 8.45 8.05) (end 8.45 -1.46) (layer F.CrtYd) (width 0.05))
  (fp_line (start 8.45 -1.46) (end -8.45 -1.46) (layer F.CrtYd) (width 0.05))
  (pad 1 thru_hole circle (at 0 0) (size 2.4 2.4) (drill 1.2) (layers *.Cu *.Mask))
  (pad 2 thru_hole circle (at 0 6.6) (size 2.4 2.4) (drill 1.2) (layers *.Cu *.Mask))
  (fp_text user %R (at 3.3 0) (layer F.Fab)
    (effects (font (size 1 1) (thickness 0.15)))
  )
  (model ${KICAD6_3DMODEL_DIR}/Inductor_THT.3dshapes/L_Toroid_Vertical_L16.4mm_W7.6mm_P6.60mm_Vishay_TJ3.wrl
    (at (xyz 0 0 0))
    (scale (xyz 1 1 1))
    (rotate (xyz 0 0 0))
  )
)