(module L_Toroid_Vertical_L17.8mm_W9.7mm_P7.11mm_Pulse_B (layer F.Cu) (tedit 5AE59B06)
  (descr "L_Toroid, Vertical series, Radial, pin pitch=7.11mm, , length*width=17.78*9.65mm^2, Pulse, B, http://datasheet.octopart.com/PE-92112KNL-Pulse-datasheet-17853305.pdf")
  (tags "L_Toroid Vertical series Radial pin pitch 7.11mm  length 17.78mm width 9.65mm Pulse B")
  (fp_text reference REF** (at 0 -2.75) (layer F.SilkS)
    (effects (font (size 1 1) (thickness 0.15)))
  )
  (fp_text value L_Toroid_Vertical_L17.8mm_W9.7mm_P7.11mm_Pulse_B (at 0 9.86) (layer F.Fab)
    (effects (font (size 1 1) (thickness 0.15)))
  )
  (fp_line (start -8.89 -1.27) (end -8.89 8.38) (layer F.Fab) (width 0.1))
  (fp_line (start -8.89 8.38) (end 8.89 8.38) (layer F.Fab) (width 0.1))
  (fp_line (start 8.89 8.38) (end 8.89 -1.27) (layer F.Fab) (width 0.1))
  (fp_line (start 8.89 -1.27) (end -8.89 -1.27) (layer F.Fab) (width 0.1))
  (fp_line (start -8.89 -1.27) (end -8.001 8.38) (layer F.Fab) (width 0.1))
  (fp_line (start -7.112 -1.27) (end -6.223 8.38) (layer F.Fab) (width 0.1))
  (fp_line (start -5.334 -1.27) (end -4.445 8.38) (layer F.Fab) (width 0.1))
  (fp_line (start -3.556 -1.27) (end -2.667 8.38) (layer F.Fab) (width 0.1))
  (fp_line (start -1.778 -1.27) (end -0.889 8.38) (layer F.Fab) (width 0.1))
  (fp_line (start 0 -1.27) (end 0.889 8.38) (layer F.Fab) (width 0.1))
  (fp_line (start 1.778 -1.27) (end 2.667 8.38) (layer F.Fab) (width 0.1))
  (fp_line (start 3.556 -1.27) (end 4.445 8.38) (layer F.Fab) (width 0.1))
  (fp_line (start 5.334 -1.27) (end 6.223 8.38) (layer F.Fab) (width 0.1))
  (fp_line (start 7.112 -1.27) (end 8.001 8.38) (layer F.Fab) (width 0.1))
  (fp_line (start -9.01 -1.39) (end -1.166 -1.39) (layer F.SilkS) (width 0.12))
  (fp_line (start 1.166 -1.39) (end 9.01 -1.39) (layer F.SilkS) (width 0.12))
  (fp_line (start -9.01 8.5) (end -1.166 8.5) (layer F.SilkS) (width 0.12))
  (fp_line (start 1.166 8.5) (end 9.01 8.5) (layer F.SilkS) (width 0.12))
  (fp_line (start -9.01 -1.39) (end -9.01 8.5) (layer F.SilkS) (width 0.12))
  (fp_line (start 9.01 -1.39) (end 9.01 8.5) (layer F.SilkS) (width 0.12))
  (fp_line (start -9.14 -1.75) (end -9.14 8.86) (layer F.CrtYd) (width 0.05))
  (fp_line (start -9.14 8.86) (end 9.14 8.86) (layer F.CrtYd) (width 0.05))
  (fp_line (start 9.14 8.86) (end 9.14 -1.75) (layer F.CrtYd) (width 0.05))
  (fp_line (start 9.14 -1.75) (end -9.14 -1.75) (layer F.CrtYd) (width 0.05))
  (pad 1 thru_hole circle (at 0 0) (size 3 3) (drill 1.5) (layers *.Cu *.Mask))
  (pad 2 thru_hole circle (at 0 7.11) (size 3 3) (drill 1.5) (layers *.Cu *.Mask))
  (fp_text user %R (at 3.555 0) (layer F.Fab)
    (effects (font (size 1 1) (thickness 0.15)))
  )
  (model ${KICAD6_3DMODEL_DIR}/Inductor_THT.3dshapes/L_Toroid_Vertical_L17.8mm_W9.7mm_P7.11mm_Pulse_B.wrl
    (at (xyz 0 0 0))
    (scale (xyz 1 1 1))
    (rotate (xyz 0 0 0))
  )
)