(module L_Toroid_Vertical_L28.6mm_W14.3mm_P11.43mm_Bourns_5700 (layer F.Cu) (tedit 5AE59B06)
  (descr "L_Toroid, Vertical series, Radial, pin pitch=11.43mm, , length*width=28.6*14.3mm^2, Bourns, 5700, http://www.bourns.com/docs/Product-Datasheets/5700_series.pdf")
  (tags "L_Toroid Vertical series Radial pin pitch 11.43mm  length 28.6mm width 14.3mm Bourns 5700")
  (fp_text reference REF** (at 0 -3.05) (layer F.SilkS)
    (effects (font (size 1 1) (thickness 0.15)))
  )
  (fp_text value L_Toroid_Vertical_L28.6mm_W14.3mm_P11.43mm_Bourns_5700 (at 0 14.48) (layer F.Fab)
    (effects (font (size 1 1) (thickness 0.15)))
  )
  (fp_line (start -14.3 -1.435) (end -14.3 12.865) (layer F.Fab) (width 0.1))
  (fp_line (start -14.3 12.865) (end 14.3 12.865) (layer F.Fab) (width 0.1))
  (fp_line (start 14.3 12.865) (end 14.3 -1.435) (layer F.Fab) (width 0.1))
  (fp_line (start 14.3 -1.435) (end -14.3 -1.435) (layer F.Fab) (width 0.1))
  (fp_line (start -14.3 -1.435) (end -12.87 12.865) (layer F.Fab) (width 0.1))
  (fp_line (start -11.44 -1.435) (end -10.01 12.865) (layer F.Fab) (width 0.1))
  (fp_line (start -8.58 -1.435) (end -7.15 12.865) (layer F.Fab) (width 0.1))
  (fp_line (start -5.72 -1.435) (end -4.29 12.865) (layer F.Fab) (width 0.1))
  (fp_line (start -2.86 -1.435) (end -1.43 12.865) (layer F.Fab) (width 0.1))
  (fp_line (start -0 -1.435) (end 1.43 12.865) (layer F.Fab) (width 0.1))
  (fp_line (start 2.86 -1.435) (end 4.29 12.865) (layer F.Fab) (width 0.1))
  (fp_line (start 5.72 -1.435) (end 7.15 12.865) (layer F.Fab) (width 0.1))
  (fp_line (start 8.58 -1.435) (end 10.01 12.865) (layer F.Fab) (width 0.1))
  (fp_line (start 11.44 -1.435) (end 12.87 12.865) (layer F.Fab) (width 0.1))
  (fp_line (start -14.42 -1.555) (end -1.365 -1.555) (layer F.SilkS) (width 0.12))
  (fp_line (start 1.365 -1.555) (end 14.42 -1.555) (layer F.SilkS) (width 0.12))
  (fp_line (start -14.42 12.985) (end -1.365 12.985) (layer F.SilkS) (width 0.12))
  (fp_line (start 1.365 12.985) (end 14.42 12.985) (layer F.SilkS) (width 0.12))
  (fp_line (start -14.42 -1.555) (end -14.42 12.985) (layer F.SilkS) (width 0.12))
  (fp_line (start 14.42 -1.555) (end 14.42 12.985) (layer F.SilkS) (width 0.12))
  (fp_line (start -14.55 -2.05) (end -14.55 13.48) (layer F.CrtYd) (width 0.05))
  (fp_line (start -14.55 13.48) (end 14.55 13.48) (layer F.CrtYd) (width 0.05))
  (fp_line (start 14.55 13.48) (end 14.55 -2.05) (layer F.CrtYd) (width 0.05))
  (fp_line (start 14.55 -2.05) (end -14.55 -2.05) (layer F.CrtYd) (width 0.05))
  (pad 1 thru_hole circle (at 0 0) (size 3.6 3.6) (drill 1.8) (layers *.Cu *.Mask))
  (pad 2 thru_hole circle (at 0 11.43) (size 3.6 3.6) (drill 1.8) (layers *.Cu *.Mask))
  (fp_text user %R (at 5.715 0) (layer F.Fab)
    (effects (font (size 1 1) (thickness 0.15)))
  )
  (model ${KICAD6_3DMODEL_DIR}/Inductor_THT.3dshapes/L_Toroid_Vertical_L28.6mm_W14.3mm_P11.43mm_Bourns_5700.wrl
    (at (xyz 0 0 0))
    (scale (xyz 1 1 1))
    (rotate (xyz 0 0 0))
  )
)