(module L_Toroid_Vertical_L35.1mm_W21.1mm_P18.50mm_Vishay_TJ6 (layer F.Cu) (tedit 5AE59B06)
  (descr "L_Toroid, Vertical series, Radial, pin pitch=18.50mm, , length*width=35.1*21.1mm^2, Vishay, TJ6, http://www.vishay.com/docs/34079/tj.pdf")
  (tags "L_Toroid Vertical series Radial pin pitch 18.50mm  length 35.1mm width 21.1mm Vishay TJ6")
  (fp_text reference REF** (at 0 -2.75) (layer F.SilkS)
    (effects (font (size 1 1) (thickness 0.15)))
  )
  (fp_text value L_Toroid_Vertical_L35.1mm_W21.1mm_P18.50mm_Vishay_TJ6 (at 0 21.25) (layer F.Fab)
    (effects (font (size 1 1) (thickness 0.15)))
  )
  (fp_line (start -17.55 -1.3) (end -17.55 19.8) (layer F.Fab) (width 0.1))
  (fp_line (start -17.55 19.8) (end 17.55 19.8) (layer F.Fab) (width 0.1))
  (fp_line (start 17.55 19.8) (end 17.55 -1.3) (layer F.Fab) (width 0.1))
  (fp_line (start 17.55 -1.3) (end -17.55 -1.3) (layer F.Fab) (width 0.1))
  (fp_line (start -17.55 -1.3) (end -15.795 19.8) (layer F.Fab) (width 0.1))
  (fp_line (start -14.04 -1.3) (end -12.285 19.8) (layer F.Fab) (width 0.1))
  (fp_line (start -10.53 -1.3) (end -8.775 19.8) (layer F.Fab) (width 0.1))
  (fp_line (start -7.02 -1.3) (end -5.265 19.8) (layer F.Fab) (width 0.1))
  (fp_line (start -3.51 -1.3) (end -1.755 19.8) (layer F.Fab) (width 0.1))
  (fp_line (start -0 -1.3) (end 1.755 19.8) (layer F.Fab) (width 0.1))
  (fp_line (start 3.51 -1.3) (end 5.265 19.8) (layer F.Fab) (width 0.1))
  (fp_line (start 7.02 -1.3) (end 8.775 19.8) (layer F.Fab) (width 0.1))
  (fp_line (start 10.53 -1.3) (end 12.285 19.8) (layer F.Fab) (width 0.1))
  (fp_line (start 14.04 -1.3) (end 15.795 19.8) (layer F.Fab) (width 0.1))
  (fp_line (start -17.67 -1.42) (end -1.166 -1.42) (layer F.SilkS) (width 0.12))
  (fp_line (start 1.166 -1.42) (end 17.67 -1.42) (layer F.SilkS) (width 0.12))
  (fp_line (start -17.67 19.92) (end -1.166 19.92) (layer F.SilkS) (width 0.12))
  (fp_line (start 1.166 19.92) (end 17.67 19.92) (layer F.SilkS) (width 0.12))
  (fp_line (start -17.67 -1.42) (end -17.67 19.92) (layer F.SilkS) (width 0.12))
  (fp_line (start 17.67 -1.42) (end 17.67 19.92) (layer F.SilkS) (width 0.12))
  (fp_line (start -17.8 -1.75) (end -17.8 20.25) (layer F.CrtYd) (width 0.05))
  (fp_line (start -17.8 20.25) (end 17.8 20.25) (layer F.CrtYd) (width 0.05))
  (fp_line (start 17.8 20.25) (end 17.8 -1.75) (layer F.CrtYd) (width 0.05))
  (fp_line (start 17.8 -1.75) (end -17.8 -1.75) (layer F.CrtYd) (width 0.05))
  (pad 1 thru_hole circle (at 0 0) (size 3 3) (drill 1.5) (layers *.Cu *.Mask))
  (pad 2 thru_hole circle (at 0 18.5) (size 3 3) (drill 1.5) (layers *.Cu *.Mask))
  (fp_text user %R (at 9.25 0) (layer F.Fab)
    (effects (font (size 1 1) (thickness 0.15)))
  )
  (model ${KICAD6_3DMODEL_DIR}/Inductor_THT.3dshapes/L_Toroid_Vertical_L35.1mm_W21.1mm_P18.50mm_Vishay_TJ6.wrl
    (at (xyz 0 0 0))
    (scale (xyz 1 1 1))
    (rotate (xyz 0 0 0))
  )
)