(module L_Toroid_Vertical_L16.5mm_W11.4mm_P7.62mm_Pulse_KM-2 (layer F.Cu) (tedit 5AE59B06)
  (descr "L_Toroid, Vertical series, Radial, pin pitch=7.62mm, , length*width=16.51*11.43mm^2, Pulse, KM-2, http://datasheet.octopart.com/PE-92112KNL-Pulse-datasheet-17853305.pdf")
  (tags "L_Toroid Vertical series Radial pin pitch 7.62mm  length 16.51mm width 11.43mm Pulse KM-2")
  (fp_text reference REF** (at 0 -3.155) (layer F.SilkS)
    (effects (font (size 1 1) (thickness 0.15)))
  )
  (fp_text value L_Toroid_Vertical_L16.5mm_W11.4mm_P7.62mm_Pulse_KM-2 (at 0 10.775) (layer F.Fab)
    (effects (font (size 1 1) (thickness 0.15)))
  )
  (fp_line (start -8.255 -1.905) (end -8.255 9.525) (layer F.Fab) (width 0.1))
  (fp_line (start -8.255 9.525) (end 8.255 9.525) (layer F.Fab) (width 0.1))
  (fp_line (start 8.255 9.525) (end 8.255 -1.905) (layer F.Fab) (width 0.1))
  (fp_line (start 8.255 -1.905) (end -8.255 -1.905) (layer F.Fab) (width 0.1))
  (fp_line (start -6.604 0) (end -6.604 7.62) (layer F.Fab) (width 0.1))
  (fp_line (start -6.604 7.62) (end 6.604 7.62) (layer F.Fab) (width 0.1))
  (fp_line (start 6.604 7.62) (end 6.604 0) (layer F.Fab) (width 0.1))
  (fp_line (start 6.604 0) (end -6.604 0) (layer F.Fab) (width 0.1))
  (fp_line (start -6.604 0) (end -5.9436 7.62) (layer F.Fab) (width 0.1))
  (fp_line (start -5.2832 0) (end -4.6228 7.62) (layer F.Fab) (width 0.1))
  (fp_line (start -3.9624 0) (end -3.302 7.62) (layer F.Fab) (width 0.1))
  (fp_line (start -2.6416 0) (end -1.9812 7.62) (layer F.Fab) (width 0.1))
  (fp_line (start -1.3208 0) (end -0.6604 7.62) (layer F.Fab) (width 0.1))
  (fp_line (start 0 0) (end 0.6604 7.62) (layer F.Fab) (width 0.1))
  (fp_line (start 1.3208 0) (end 1.9812 7.62) (layer F.Fab) (width 0.1))
  (fp_line (start 2.6416 0) (end 3.302 7.62) (layer F.Fab) (width 0.1))
  (fp_line (start 3.9624 0) (end 4.6228 7.62) (layer F.Fab) (width 0.1))
  (fp_line (start 5.2832 0) (end 5.9436 7.62) (layer F.Fab) (width 0.1))
  (fp_line (start -8.375 -2.025) (end -0.725 -2.025) (layer F.SilkS) (width 0.12))
  (fp_line (start 0.725 -2.025) (end 8.375 -2.025) (layer F.SilkS) (width 0.12))
  (fp_line (start -8.375 9.645) (end -0.725 9.645) (layer F.SilkS) (width 0.12))
  (fp_line (start 0.725 9.645) (end 8.375 9.645) (layer F.SilkS) (width 0.12))
  (fp_line (start -8.375 -2.025) (end -8.375 9.645) (layer F.SilkS) (width 0.12))
  (fp_line (start 8.375 -2.025) (end 8.375 9.645) (layer F.SilkS) (width 0.12))
  (fp_line (start -8.51 -2.16) (end -8.51 9.78) (layer F.CrtYd) (width 0.05))
  (fp_line (start -8.51 9.78) (end 8.51 9.78) (layer F.CrtYd) (width 0.05))
  (fp_line (start 8.51 9.78) (end 8.51 -2.16) (layer F.CrtYd) (width 0.05))
  (fp_line (start 8.51 -2.16) (end -8.51 -2.16) (layer F.CrtYd) (width 0.05))
  (pad 1 thru_hole circle (at 0 0) (size 3.6 3.6) (drill 1.8) (layers *.Cu *.Mask))
  (pad 2 thru_hole circle (at 0 7.62) (size 3.6 3.6) (drill 1.8) (layers *.Cu *.Mask))
  (fp_text user %R (at 3.81 0) (layer F.Fab)
    (effects (font (size 1 1) (thickness 0.15)))
  )
  (model ${KICAD6_3DMODEL_DIR}/Inductor_THT.3dshapes/L_Toroid_Vertical_L16.5mm_W11.4mm_P7.62mm_Pulse_KM-2.wrl
    (at (xyz 0 0 0))
    (scale (xyz 1 1 1))
    (rotate (xyz 0 0 0))
  )
)