(module L_Toroid_Vertical_L46.0mm_W19.1mm_P21.80mm_Bourns_5700 (layer F.Cu) (tedit 5AE59B06)
  (descr "L_Toroid, Vertical series, Radial, pin pitch=21.80mm, , length*width=46*19.1mm^2, Bourns, 5700, http://www.bourns.com/docs/Product-Datasheets/5700_series.pdf")
  (tags "L_Toroid Vertical series Radial pin pitch 21.80mm  length 46mm width 19.1mm Bourns 5700")
  (fp_text reference REF** (at 0 -3.15) (layer F.SilkS)
    (effects (font (size 1 1) (thickness 0.15)))
  )
  (fp_text value L_Toroid_Vertical_L46.0mm_W19.1mm_P21.80mm_Bourns_5700 (at 0 24.95) (layer F.Fab)
    (effects (font (size 1 1) (thickness 0.15)))
  )
  (fp_line (start -23 1.35) (end -23 20.45) (layer F.Fab) (width 0.1))
  (fp_line (start -23 20.45) (end 23 20.45) (layer F.Fab) (width 0.1))
  (fp_line (start 23 20.45) (end 23 1.35) (layer F.Fab) (width 0.1))
  (fp_line (start 23 1.35) (end -23 1.35) (layer F.Fab) (width 0.1))
  (fp_line (start -23 1.35) (end -20.7 20.45) (layer F.Fab) (width 0.1))
  (fp_line (start -18.4 1.35) (end -16.1 20.45) (layer F.Fab) (width 0.1))
  (fp_line (start -13.8 1.35) (end -11.5 20.45) (layer F.Fab) (width 0.1))
  (fp_line (start -9.2 1.35) (end -6.9 20.45) (layer F.Fab) (width 0.1))
  (fp_line (start -4.6 1.35) (end -2.3 20.45) (layer F.Fab) (width 0.1))
  (fp_line (start 0 1.35) (end 2.3 20.45) (layer F.Fab) (width 0.1))
  (fp_line (start 4.6 1.35) (end 6.9 20.45) (layer F.Fab) (width 0.1))
  (fp_line (start 9.2 1.35) (end 11.5 20.45) (layer F.Fab) (width 0.1))
  (fp_line (start 13.8 1.35) (end 16.1 20.45) (layer F.Fab) (width 0.1))
  (fp_line (start 18.4 1.35) (end 20.7 20.45) (layer F.Fab) (width 0.1))
  (fp_line (start -23.12 1.23) (end -1.785 1.23) (layer F.SilkS) (width 0.12))
  (fp_line (start 1.785 1.23) (end 23.12 1.23) (layer F.SilkS) (width 0.12))
  (fp_line (start -23.12 20.57) (end -1.785 20.57) (layer F.SilkS) (width 0.12))
  (fp_line (start 1.785 20.57) (end 23.12 20.57) (layer F.SilkS) (width 0.12))
  (fp_line (start -23.12 1.23) (end -23.12 20.57) (layer F.SilkS) (width 0.12))
  (fp_line (start 23.12 1.23) (end 23.12 20.57) (layer F.SilkS) (width 0.12))
  (fp_line (start -23.25 -2.16) (end -23.25 23.96) (layer F.CrtYd) (width 0.05))
  (fp_line (start -23.25 23.96) (end 23.25 23.96) (layer F.CrtYd) (width 0.05))
  (fp_line (start 23.25 23.96) (end 23.25 -2.16) (layer F.CrtYd) (width 0.05))
  (fp_line (start 23.25 -2.16) (end -23.25 -2.16) (layer F.CrtYd) (width 0.05))
  (pad 1 thru_hole circle (at 0 0) (size 3.8 3.8) (drill 1.9) (layers *.Cu *.Mask))
  (pad 2 thru_hole circle (at 0 21.8) (size 3.8 3.8) (drill 1.9) (layers *.Cu *.Mask))
  (fp_text user %R (at 10.9 0) (layer F.Fab)
    (effects (font (size 1 1) (thickness 0.15)))
  )
  (model ${KICAD6_3DMODEL_DIR}/Inductor_THT.3dshapes/L_Toroid_Vertical_L46.0mm_W19.1mm_P21.80mm_Bourns_5700.wrl
    (at (xyz 0 0 0))
    (scale (xyz 1 1 1))
    (rotate (xyz 0 0 0))
  )
)