(module L_Toroid_Horizontal_D24.1mm_P23.10mm_Bourns_2200 (layer F.Cu) (tedit 5AE59B06)
  (descr "L_Toroid, Horizontal series, Radial, pin pitch=23.10mm, , diameter=24.1mm, Bourns, 2200, http://www.bourns.com/docs/Product-Datasheets/2100_series.pdf?sfvrsn=3")
  (tags "L_Toroid Horizontal series Radial pin pitch 23.10mm  diameter 24.1mm Bourns 2200")
  (fp_text reference REF** (at 11.55 -13.3) (layer F.SilkS)
    (effects (font (size 1 1) (thickness 0.15)))
  )
  (fp_text value L_Toroid_Horizontal_D24.1mm_P23.10mm_Bourns_2200 (at 11.55 13.3) (layer F.Fab)
    (effects (font (size 1 1) (thickness 0.15)))
  )
  (fp_arc (start 11.55 0) (end -0.444386 -2.06) (angle 160.509396) (layer F.SilkS) (width 0.12))
  (fp_arc (start 11.55 0) (end -0.444386 2.06) (angle -160.509396) (layer F.SilkS) (width 0.12))
  (fp_circle (center 11.55 0) (end 23.6 0) (layer F.Fab) (width 0.1))
  (fp_circle (center 11.55 0) (end 15.566667 0) (layer F.Fab) (width 0.1))
  (fp_circle (center 11.55 0) (end 15.446667 0) (layer F.SilkS) (width 0.12))
  (fp_line (start 23.4766 0) (end 15.389177 1.028673) (layer F.Fab) (width 0.1))
  (fp_line (start 21.878831 5.963141) (end 14.360532 2.810402) (layer F.Fab) (width 0.1))
  (fp_line (start 17.513619 10.328554) (end 12.57885 3.839129) (layer F.Fab) (width 0.1))
  (fp_line (start 11.550553 11.9266) (end 10.521505 3.839224) (layer F.Fab) (width 0.1))
  (fp_line (start 5.587338 10.329107) (end 8.739729 2.810662) (layer F.Fab) (width 0.1))
  (fp_line (start 1.221722 5.964097) (end 7.710919 1.029028) (layer F.Fab) (width 0.1))
  (fp_line (start -0.3766 0.001105) (end 7.710728 -1.028317) (layer F.Fab) (width 0.1))
  (fp_line (start 1.220617 -5.962183) (end 8.739208 -2.810141) (layer F.Fab) (width 0.1))
  (fp_line (start 5.585424 -10.328002) (end 10.520794 -3.839034) (layer F.Fab) (width 0.1))
  (fp_line (start 11.548342 -11.9266) (end 12.578139 -3.83932) (layer F.Fab) (width 0.1))
  (fp_line (start 17.511705 -10.329659) (end 14.360011 -2.810922) (layer F.Fab) (width 0.1))
  (fp_line (start 21.877725 -5.965054) (end 15.388986 -1.029384) (layer F.Fab) (width 0.1))
  (fp_line (start 23.4766 -0.00221) (end 15.389367 1.027961) (layer F.Fab) (width 0.1))
  (fp_line (start -2.06 -12.3) (end -2.06 12.3) (layer F.CrtYd) (width 0.05))
  (fp_line (start -2.06 12.3) (end 25.15 12.3) (layer F.CrtYd) (width 0.05))
  (fp_line (start 25.15 12.3) (end 25.15 -12.3) (layer F.CrtYd) (width 0.05))
  (fp_line (start 25.15 -12.3) (end -2.06 -12.3) (layer F.CrtYd) (width 0.05))
  (pad 1 thru_hole circle (at 0 0) (size 3.6 3.6) (drill 1.8) (layers *.Cu *.Mask))
  (pad 2 thru_hole circle (at 23.1 0) (size 3.6 3.6) (drill 1.8) (layers *.Cu *.Mask))
  (fp_text user %R (at 11.55 0) (layer F.Fab)
    (effects (font (size 1 1) (thickness 0.15)))
  )
  (model ${KICAD6_3DMODEL_DIR}/Inductor_THT.3dshapes/L_Toroid_Horizontal_D24.1mm_P23.10mm_Bourns_2200.wrl
    (at (xyz 0 0 0))
    (scale (xyz 1 1 1))
    (rotate (xyz 0 0 0))
  )
)