(module L_Toroid_Horizontal_D6.5mm_P10.00mm_Diameter7-5mm_Amidon-T25 (layer F.Cu) (tedit 5AE59B06)
  (descr "L_Toroid, Horizontal series, Radial, pin pitch=10.00mm, , diameter=6.476999999999999mm, Diameter7-5mm, Amidon-T25")
  (tags "L_Toroid Horizontal series Radial pin pitch 10.00mm  diameter 6.476999999999999mm Diameter7-5mm Amidon-T25")
  (fp_text reference REF** (at 5 -4.4885) (layer F.SilkS)
    (effects (font (size 1 1) (thickness 0.15)))
  )
  (fp_text value L_Toroid_Horizontal_D6.5mm_P10.00mm_Diameter7-5mm_Amidon-T25 (at 5 4.4885) (layer F.Fab)
    (effects (font (size 1 1) (thickness 0.15)))
  )
  (fp_arc (start 5 0) (end 1.886815 -1.26) (angle 135.93067) (layer F.SilkS) (width 0.12))
  (fp_arc (start 5 0) (end 1.886815 1.26) (angle -135.93067) (layer F.SilkS) (width 0.12))
  (fp_circle (center 5 0) (end 8.2385 0) (layer F.Fab) (width 0.1))
  (fp_circle (center 5 0) (end 6.524 0) (layer F.Fab) (width 0.1))
  (fp_circle (center 5 0) (end 6.404 0) (layer F.SilkS) (width 0.12))
  (fp_line (start 8.29133 0) (end 6.383286 0.370639) (layer F.Fab) (width 0.1))
  (fp_line (start 7.850401 1.645621) (end 6.012657 1.01261) (layer F.Fab) (width 0.1))
  (fp_line (start 6.645753 2.850325) (end 5.370703 1.383269) (layer F.Fab) (width 0.1))
  (fp_line (start 5.000152 3.29133) (end 4.629425 1.383303) (layer F.Fab) (width 0.1))
  (fp_line (start 3.354511 2.850477) (end 3.987437 1.012704) (layer F.Fab) (width 0.1))
  (fp_line (start 2.149752 1.645885) (end 3.616748 0.370767) (layer F.Fab) (width 0.1))
  (fp_line (start 1.70867 0.000305) (end 3.61668 -0.370511) (layer F.Fab) (width 0.1))
  (fp_line (start 2.149447 -1.645357) (end 3.987249 -1.012516) (layer F.Fab) (width 0.1))
  (fp_line (start 3.353983 -2.850172) (end 4.629169 -1.383234) (layer F.Fab) (width 0.1))
  (fp_line (start 4.999543 -3.29133) (end 5.370447 -1.383337) (layer F.Fab) (width 0.1))
  (fp_line (start 6.645225 -2.850629) (end 6.012469 -1.012798) (layer F.Fab) (width 0.1))
  (fp_line (start 7.850096 -1.646149) (end 6.383217 -0.370895) (layer F.Fab) (width 0.1))
  (fp_line (start 8.29133 -0.00061) (end 6.383355 0.370383) (layer F.Fab) (width 0.1))
  (fp_line (start -1.25 -3.49) (end -1.25 3.49) (layer F.CrtYd) (width 0.05))
  (fp_line (start -1.25 3.49) (end 11.25 3.49) (layer F.CrtYd) (width 0.05))
  (fp_line (start 11.25 3.49) (end 11.25 -3.49) (layer F.CrtYd) (width 0.05))
  (fp_line (start 11.25 -3.49) (end -1.25 -3.49) (layer F.CrtYd) (width 0.05))
  (pad 1 thru_hole circle (at 0 0) (size 2 2) (drill 1) (layers *.Cu *.Mask))
  (pad 2 thru_hole circle (at 10 0) (size 2 2) (drill 1) (layers *.Cu *.Mask))
  (fp_text user %R (at 5 0) (layer F.Fab)
    (effects (font (size 1 1) (thickness 0.15)))
  )
  (model ${KICAD6_3DMODEL_DIR}/Inductor_THT.3dshapes/L_Toroid_Horizontal_D6.5mm_P10.00mm_Diameter7-5mm_Amidon-T25.wrl
    (at (xyz 0 0 0))
    (scale (xyz 1 1 1))
    (rotate (xyz 0 0 0))
  )
)