(module RJ45_Wuerth_7499151120_Horizontal (layer F.Cu) (tedit 5ADA3BDE)
  (descr "Wuerth 7499151120, LAN-Transformer WE-RJ45LAN 10/100/1000 BaseT, Dual Ethernet Jack (http://katalog.we-online.de/pbs/datasheet/7499151120.pdf)")
  (tags "ethernet lan connector")
  (fp_text reference REF** (at -3.3 -13.93) (layer F.SilkS)
    (effects (font (size 1 1) (thickness 0.15)))
  )
  (fp_text value RJ45_Wuerth_7499151120_Horizontal (at -3.3 2.47) (layer F.Fab)
    (effects (font (size 1 1) (thickness 0.15)))
  )
  (fp_line (start 7.21 -8.73) (end 7.21 -4.73) (layer F.CrtYd) (width 0.05))
  (fp_line (start -12.35 -13.33) (end 5.75 -13.33) (layer F.CrtYd) (width 0.05))
  (fp_line (start 5.245 -12.83) (end 5.245 15.47) (layer F.Fab) (width 0.1))
  (fp_line (start -11.845 -12.83) (end 5.245 -12.83) (layer F.Fab) (width 0.1))
  (fp_line (start -11.845 15.47) (end -11.845 -12.83) (layer F.Fab) (width 0.1))
  (fp_line (start 5.245 15.47) (end -11.845 15.47) (layer F.Fab) (width 0.1))
  (fp_text user %R (at -3.3 0.47) (layer F.Fab)
    (effects (font (size 1 1) (thickness 0.15)))
  )
  (fp_line (start -11.965 -12.95) (end 5.365 -12.95) (layer F.SilkS) (width 0.12))
  (fp_line (start 5.365 7.47) (end 5.365 -4.93) (layer F.SilkS) (width 0.12))
  (fp_line (start 5.245 15.47) (end -11.845 15.47) (layer Dwgs.User) (width 0.1))
  (fp_line (start 5.365 15.59) (end -11.965 15.59) (layer F.SilkS) (width 0.12))
  (fp_line (start -11.965 -8.93) (end -11.965 7.47) (layer F.SilkS) (width 0.12))
  (fp_line (start 5.365 15.59) (end 5.365 11.07) (layer F.SilkS) (width 0.12))
  (fp_line (start -11.965 15.59) (end -11.965 11.07) (layer F.SilkS) (width 0.12))
  (fp_line (start 5.365 -12.95) (end 5.365 -8.53) (layer F.SilkS) (width 0.12))
  (fp_line (start -11.965 -12.95) (end -11.965 -12.63) (layer F.SilkS) (width 0.12))
  (fp_line (start -13.81 -12.79) (end -13.81 -8.79) (layer F.CrtYd) (width 0.05))
  (fp_line (start -12.35 15.97) (end 5.75 15.97) (layer F.CrtYd) (width 0.05))
  (fp_line (start -12.35 -8.79) (end -12.35 7.27) (layer F.CrtYd) (width 0.05))
  (fp_line (start 5.75 -4.73) (end 5.75 7.27) (layer F.CrtYd) (width 0.05))
  (fp_line (start -13.81 7.27) (end -13.81 11.27) (layer F.CrtYd) (width 0.05))
  (fp_line (start -12.35 11.27) (end -13.81 11.27) (layer F.CrtYd) (width 0.05))
  (fp_line (start -12.35 7.27) (end -13.81 7.27) (layer F.CrtYd) (width 0.05))
  (fp_line (start 5.75 11.27) (end 7.21 11.27) (layer F.CrtYd) (width 0.05))
  (fp_line (start 5.75 7.27) (end 7.21 7.27) (layer F.CrtYd) (width 0.05))
  (fp_line (start 7.21 7.27) (end 7.21 11.27) (layer F.CrtYd) (width 0.05))
  (fp_line (start 5.75 -4.73) (end 7.21 -4.73) (layer F.CrtYd) (width 0.05))
  (fp_line (start 5.75 -8.73) (end 7.21 -8.73) (layer F.CrtYd) (width 0.05))
  (fp_line (start 5.75 11.27) (end 5.75 15.97) (layer F.CrtYd) (width 0.05))
  (fp_line (start 5.75 -13.33) (end 5.75 -8.73) (layer F.CrtYd) (width 0.05))
  (fp_line (start -12.35 11.27) (end -12.35 15.97) (layer F.CrtYd) (width 0.05))
  (fp_line (start -12.35 -13.33) (end -12.35 -12.79) (layer F.CrtYd) (width 0.05))
  (fp_line (start -13.81 -12.79) (end -12.35 -12.79) (layer F.CrtYd) (width 0.05))
  (fp_line (start -13.81 -8.79) (end -12.35 -8.79) (layer F.CrtYd) (width 0.05))
  (pad "" np_thru_hole circle (at 2.415 4.7) (size 3.25 3.25) (drill 3.25) (layers *.Cu *.Mask))
  (pad "" np_thru_hole circle (at -9.015 4.7) (size 3.25 3.25) (drill 3.25) (layers *.Cu *.Mask))
  (pad SH thru_hole circle (at 5.205 9.27) (size 3 3) (drill 1.6) (layers *.Cu *.Mask))
  (pad SH thru_hole circle (at -11.805 9.27) (size 3 3) (drill 1.6) (layers *.Cu *.Mask))
  (pad SH thru_hole circle (at 5.205 -6.73) (size 3 3) (drill 1.6) (layers *.Cu *.Mask))
  (pad SH thru_hole circle (at -11.805 -10.79) (size 3 3) (drill 1.6) (layers *.Cu *.Mask))
  (pad 1U thru_hole circle (at 0 0) (size 1.5 1.5) (drill 0.9) (layers *.Cu *.Mask))
  (pad 2U thru_hole circle (at -1.27 -1.27) (size 1.5 1.5) (drill 0.9) (layers *.Cu *.Mask))
  (pad 3U thru_hole circle (at 0 -2.54) (size 1.5 1.5) (drill 0.9) (layers *.Cu *.Mask))
  (pad 4U thru_hole circle (at -1.27 -3.81) (size 1.5 1.5) (drill 0.9) (layers *.Cu *.Mask))
  (pad 5U thru_hole circle (at 0 -5.08) (size 1.5 1.5) (drill 0.9) (layers *.Cu *.Mask))
  (pad 6U thru_hole circle (at -1.27 -6.35) (size 1.5 1.5) (drill 0.9) (layers *.Cu *.Mask))
  (pad 7U thru_hole circle (at 0 -7.62) (size 1.5 1.5) (drill 0.9) (layers *.Cu *.Mask))
  (pad 8U thru_hole circle (at -1.27 -8.89) (size 1.5 1.5) (drill 0.9) (layers *.Cu *.Mask))
  (pad 9U thru_hole circle (at 0 -10.16) (size 1.5 1.5) (drill 0.9) (layers *.Cu *.Mask))
  (pad 10U thru_hole circle (at -1.27 -11.43) (size 1.5 1.5) (drill 0.9) (layers *.Cu *.Mask))
  (pad 2D thru_hole circle (at -5.33 -1.27) (size 1.5 1.5) (drill 0.9) (layers *.Cu *.Mask))
  (pad 8D thru_hole circle (at -5.33 -8.89) (size 1.5 1.5) (drill 0.9) (layers *.Cu *.Mask))
  (pad 10D thru_hole circle (at -5.33 -11.43) (size 1.5 1.5) (drill 0.9) (layers *.Cu *.Mask))
  (pad 4D thru_hole circle (at -5.33 -3.81) (size 1.5 1.5) (drill 0.9) (layers *.Cu *.Mask))
  (pad 6D thru_hole circle (at -5.33 -6.35) (size 1.5 1.5) (drill 0.9) (layers *.Cu *.Mask))
  (pad 1D thru_hole circle (at -6.6 0) (size 1.5 1.5) (drill 0.9) (layers *.Cu *.Mask))
  (pad 3D thru_hole circle (at -6.6 -2.54) (size 1.5 1.5) (drill 0.9) (layers *.Cu *.Mask))
  (pad 5D thru_hole circle (at -6.6 -5.08) (size 1.5 1.5) (drill 0.9) (layers *.Cu *.Mask))
  (pad 7D thru_hole circle (at -6.6 -7.62) (size 1.5 1.5) (drill 0.9) (layers *.Cu *.Mask))
  (pad 9D thru_hole circle (at -6.6 -10.16) (size 1.5 1.5) (drill 0.9) (layers *.Cu *.Mask))
  (pad 11U thru_hole circle (at -0.255 1.89) (size 1.5 1.5) (drill 0.9) (layers *.Cu *.Mask))
  (pad 14U thru_hole circle (at -6.345 1.89) (size 1.5 1.5) (drill 0.9) (layers *.Cu *.Mask))
  (pad 12U thru_hole circle (at -2.285 1.89) (size 1.5 1.5) (drill 0.9) (layers *.Cu *.Mask))
  (pad 13U thru_hole circle (at -4.315 1.89) (size 1.5 1.5) (drill 0.9) (layers *.Cu *.Mask))
  (pad 11D thru_hole circle (at -0.255 3.69) (size 1.5 1.5) (drill 0.9) (layers *.Cu *.Mask))
  (pad 14D thru_hole circle (at -6.345 3.69) (size 1.5 1.5) (drill 0.9) (layers *.Cu *.Mask))
  (pad 12D thru_hole circle (at -2.285 3.69) (size 1.5 1.5) (drill 0.9) (layers *.Cu *.Mask))
  (pad 13D thru_hole circle (at -4.315 3.69) (size 1.5 1.5) (drill 0.9) (layers *.Cu *.Mask))
  (model ${KICAD6_3DMODEL_DIR}/Connector_RJ.3dshapes/RJ45_Wuerth_7499151120_Horizontal.wrl
    (at (xyz 0 0 0))
    (scale (xyz 1 1 1))
    (rotate (xyz 0 0 0))
  )
)
