(module RJ45_Amphenol_RJHSE5380 (layer F.Cu) (tedit 5DC08C43)
  (descr "Shielded, https://www.amphenolcanada.com/ProductSearch/drawings/AC/RJHSE538X.pdf")
  (tags "RJ45 8p8c ethernet cat5")
  (fp_text reference REF** (at 3.56 -9.5) (layer F.SilkS)
    (effects (font (size 1 1) (thickness 0.15)))
  )
  (fp_text value RJ45_Amphenol_RJHSE5380 (at 3.56 9.5) (layer F.Fab)
    (effects (font (size 1 1) (thickness 0.15)))
  )
  (fp_line (start -4.695 -7) (end -4.695 7.75) (layer F.Fab) (width 0.1))
  (fp_line (start -4.695 7.75) (end 11.815 7.75) (layer F.Fab) (width 0.1))
  (fp_line (start -3.695 -8) (end 11.815 -8) (layer F.Fab) (width 0.1))
  (fp_line (start 11.815 -8) (end 11.815 7.75) (layer F.Fab) (width 0.1))
  (fp_line (start -4.76 -8.11) (end 11.88 -8.11) (layer F.SilkS) (width 0.12))
  (fp_line (start -4.805 -8.11) (end -4.805 -0.5) (layer F.SilkS) (width 0.12))
  (fp_line (start 11.925 -8.11) (end 11.925 -0.5) (layer F.SilkS) (width 0.12))
  (fp_line (start -4.76 7.86) (end 11.925 7.86) (layer F.SilkS) (width 0.12))
  (fp_line (start -4.805 7.86) (end -4.805 2.3) (layer F.SilkS) (width 0.12))
  (fp_line (start 11.925 7.86) (end 11.925 2.3) (layer F.SilkS) (width 0.12))
  (fp_line (start -4.695 -7) (end -3.695 -8) (layer F.Fab) (width 0.1))
  (fp_line (start -6.22 -8.5) (end 13.34 -8.5) (layer F.CrtYd) (width 0.05))
  (fp_line (start -6.22 -8.5) (end -6.22 8.25) (layer F.CrtYd) (width 0.05))
  (fp_line (start -6.22 8.25) (end 13.34 8.25) (layer F.CrtYd) (width 0.05))
  (fp_line (start 13.34 -8.5) (end 13.34 8.25) (layer F.CrtYd) (width 0.05))
  (fp_text user %R (at 3.56 -6) (layer F.Fab)
    (effects (font (size 1 1) (thickness 0.15)))
  )
  (fp_line (start -5 -0.7) (end -5.5 -0.2) (layer F.SilkS) (width 0.12))
  (fp_line (start -5.5 -0.2) (end -5.5 -1.2) (layer F.SilkS) (width 0.12))
  (fp_line (start -5.5 -1.2) (end -5 -0.7) (layer F.SilkS) (width 0.12))
  (pad 1 thru_hole rect (at 0 0) (size 1.5 1.5) (drill 0.89) (layers *.Cu *.Mask))
  (pad 3 thru_hole circle (at 2.032 0) (size 1.5 1.5) (drill 0.89) (layers *.Cu *.Mask))
  (pad 5 thru_hole circle (at 4.064 0) (size 1.5 1.5) (drill 0.89) (layers *.Cu *.Mask))
  (pad 7 thru_hole circle (at 6.096 0) (size 1.5 1.5) (drill 0.89) (layers *.Cu *.Mask))
  (pad 2 thru_hole circle (at 1.016 1.78) (size 1.5 1.5) (drill 0.89) (layers *.Cu *.Mask))
  (pad 4 thru_hole circle (at 3.048 1.78) (size 1.5 1.5) (drill 0.89) (layers *.Cu *.Mask))
  (pad 6 thru_hole circle (at 5.08 1.78) (size 1.5 1.5) (drill 0.89) (layers *.Cu *.Mask))
  (pad 8 thru_hole circle (at 7.112 1.78) (size 1.5 1.5) (drill 0.89) (layers *.Cu *.Mask))
  (pad "" np_thru_hole circle (at -2.79 -2.54) (size 3.25 3.25) (drill 3.25) (layers *.Cu *.Mask))
  (pad "" np_thru_hole circle (at 9.91 -2.54) (size 3.25 3.25) (drill 3.25) (layers *.Cu *.Mask))
  (pad SH thru_hole circle (at 11.69 0.89) (size 2.3 2.3) (drill 1.57) (layers *.Cu *.Mask))
  (pad SH thru_hole circle (at -4.57 0.89) (size 2.3 2.3) (drill 1.57) (layers *.Cu *.Mask))
  (model ${KICAD6_3DMODEL_DIR}/Connector_RJ.3dshapes/RJ45_Amphenol_RJHSE5380.wrl
    (at (xyz 0 0 0))
    (scale (xyz 1 1 1))
    (rotate (xyz 0 0 0))
  )
)
