(module CP_EIA-7360-38_Kemet-E_Pad2.25x4.25mm_HandSolder (layer F.Cu) (tedit 5EBA9318)
  (descr "Tantalum Capacitor SMD Kemet-E (7360-38 Metric), IPC_7351 nominal, (Body size from: http://www.kemet.com/Lists/ProductCatalog/Attachments/253/KEM_TC101_STD.pdf), generated with kicad-footprint-generator")
  (tags "capacitor tantalum")
  (attr smd)
  (fp_text reference REF** (at 0 -3.95) (layer F.SilkS)
    (effects (font (size 1 1) (thickness 0.15)))
  )
  (fp_text value CP_EIA-7360-38_Kemet-E_Pad2.25x4.25mm_HandSolder (at 0 3.95) (layer F.Fab)
    (effects (font (size 1 1) (thickness 0.15)))
  )
  (fp_line (start 3.65 -3) (end -2.65 -3) (layer F.Fab) (width 0.1))
  (fp_line (start -2.65 -3) (end -3.65 -2) (layer F.Fab) (width 0.1))
  (fp_line (start -3.65 -2) (end -3.65 3) (layer F.Fab) (width 0.1))
  (fp_line (start -3.65 3) (end 3.65 3) (layer F.Fab) (width 0.1))
  (fp_line (start 3.65 3) (end 3.65 -3) (layer F.Fab) (width 0.1))
  (fp_line (start 3.65 -3.11) (end -4.585 -3.11) (layer F.SilkS) (width 0.12))
  (fp_line (start -4.585 -3.11) (end -4.585 3.11) (layer F.SilkS) (width 0.12))
  (fp_line (start -4.585 3.11) (end 3.65 3.11) (layer F.SilkS) (width 0.12))
  (fp_line (start -4.58 3.25) (end -4.58 -3.25) (layer F.CrtYd) (width 0.05))
  (fp_line (start -4.58 -3.25) (end 4.58 -3.25) (layer F.CrtYd) (width 0.05))
  (fp_line (start 4.58 -3.25) (end 4.58 3.25) (layer F.CrtYd) (width 0.05))
  (fp_line (start 4.58 3.25) (end -4.58 3.25) (layer F.CrtYd) (width 0.05))
  (pad 1 smd roundrect (at -3.2 0) (size 2.25 4.25) (layers F.Cu F.Mask F.Paste) (roundrect_rratio 0.111111))
  (pad 2 smd roundrect (at 3.2 0) (size 2.25 4.25) (layers F.Cu F.Mask F.Paste) (roundrect_rratio 0.111111))
  (fp_text user %R (at 0 0) (layer F.Fab)
    (effects (font (size 1 1) (thickness 0.15)))
  )
  (model ${KICAD6_3DMODEL_DIR}/Capacitor_Tantalum_SMD.3dshapes/CP_EIA-7360-38_Kemet-E.wrl
    (at (xyz 0 0 0))
    (scale (xyz 1 1 1))
    (rotate (xyz 0 0 0))
  )
)