(module AFF_2x7SEG-DIGIT_10mm (layer F.Cu) (tedit 5A0AD289)
  (descr "Afficheur 7 segments 10mm DIGIT")
  (tags AFFICHEUR)
  (fp_text reference REF** (at 7.5 -3.25) (layer F.SilkS)
    (effects (font (size 1 1) (thickness 0.15)))
  )
  (fp_text value AFF_2x7SEG-DIGIT_10mm (at 4.5 9.25 270) (layer F.Fab)
    (effects (font (size 1 1) (thickness 0.15)))
  )
  (fp_text user %R (at 7.25 8.25 270) (layer F.Fab)
    (effects (font (size 1 1) (thickness 0.15)))
  )
  (fp_line (start 13.335 2.54) (end 13.335 6.985) (layer F.SilkS) (width 0.15))
  (fp_line (start 8.255 6.35) (end 13.335 7.62) (layer F.SilkS) (width 0.15))
  (fp_line (start 8.255 0.635) (end 13.335 1.905) (layer F.SilkS) (width 0.15))
  (fp_line (start 1.905 0) (end 1.905 4.445) (layer F.SilkS) (width 0.15))
  (fp_line (start 6.985 0.635) (end 1.905 -0.635) (layer F.SilkS) (width 0.15))
  (fp_line (start 6.985 6.35) (end 1.905 5.08) (layer F.SilkS) (width 0.15))
  (fp_line (start 13.335 12.7) (end 13.335 17.145) (layer F.SilkS) (width 0.15))
  (fp_line (start 1.905 10.16) (end 1.905 14.605) (layer F.SilkS) (width 0.15))
  (fp_line (start 6.985 16.51) (end 1.905 15.24) (layer F.SilkS) (width 0.15))
  (fp_line (start 1.905 9.525) (end 6.985 10.795) (layer F.SilkS) (width 0.15))
  (fp_line (start 8.255 16.51) (end 13.335 17.78) (layer F.SilkS) (width 0.15))
  (fp_line (start 8.255 10.795) (end 13.335 12.065) (layer F.SilkS) (width 0.15))
  (fp_line (start 7.62 11.43) (end 7.62 15.875) (layer F.SilkS) (width 0.15))
  (fp_line (start 17.145 10.16) (end 17.145 20.32) (layer F.SilkS) (width 0.15))
  (fp_line (start 17.145 20.32) (end -1.905 20.32) (layer F.SilkS) (width 0.15))
  (fp_line (start -1.905 20.32) (end -1.905 10.16) (layer F.SilkS) (width 0.15))
  (fp_line (start 7.62 1.524) (end 7.62 5.588) (layer F.SilkS) (width 0.15))
  (fp_line (start 17.145 -1.27) (end 17.145 -2.54) (layer F.SilkS) (width 0.15))
  (fp_line (start 0 -2.54) (end -1.905 -2.54) (layer F.SilkS) (width 0.15))
  (fp_line (start -1.905 -2.54) (end -1.905 -1.27) (layer F.SilkS) (width 0.15))
  (fp_line (start -1.905 8.89) (end -1.905 10.16) (layer F.SilkS) (width 0.15))
  (fp_line (start 17.145 10.16) (end 17.145 8.89) (layer F.SilkS) (width 0.15))
  (fp_line (start -1.905 -1.27) (end -1.905 8.89) (layer F.SilkS) (width 0.15))
  (fp_line (start 17.145 8.89) (end 17.145 -1.27) (layer F.SilkS) (width 0.15))
  (fp_line (start 7.62 1.397) (end 7.62 5.715) (layer F.SilkS) (width 0.15))
  (fp_circle (center 2.54 17.78) (end 2.54 18.415) (layer F.SilkS) (width 0.15))
  (fp_circle (center 2.54 7.62) (end 2.54 8.255) (layer F.SilkS) (width 0.15))
  (fp_line (start 17 20.25) (end 17 -2.5) (layer F.Fab) (width 0.1))
  (fp_line (start 17 -2.5) (end -0.75 -2.5) (layer F.Fab) (width 0.1))
  (fp_line (start -0.75 -2.5) (end -1.75 -1.5) (layer F.Fab) (width 0.1))
  (fp_line (start -1.75 -1.5) (end -1.75 20.25) (layer F.Fab) (width 0.1))
  (fp_line (start -1.75 20.25) (end 17 20.25) (layer F.Fab) (width 0.1))
  (fp_line (start 17.4 -2.8) (end 17.4 20.6) (layer F.CrtYd) (width 0.05))
  (fp_line (start 17.4 20.6) (end -2.2 20.6) (layer F.CrtYd) (width 0.05))
  (fp_line (start -2.2 20.6) (end -2.2 -2.8) (layer F.CrtYd) (width 0.05))
  (fp_line (start -2.2 -2.8) (end 17.4 -2.8) (layer F.CrtYd) (width 0.05))
  (pad 1 thru_hole rect (at 0 0 270) (size 2.032 2.032) (drill 0.9144) (layers *.Cu *.Mask))
  (pad 2 thru_hole circle (at 0 2.54 270) (size 2.032 2.032) (drill 0.9144) (layers *.Cu *.Mask))
  (pad 3 thru_hole circle (at 0 5.08 270) (size 2.032 2.032) (drill 0.9144) (layers *.Cu *.Mask))
  (pad 4 thru_hole circle (at 0 7.62 270) (size 2.032 2.032) (drill 0.9144) (layers *.Cu *.Mask))
  (pad 13 thru_hole circle (at 15.24 7.62 270) (size 2.032 2.032) (drill 0.9144) (layers *.Cu *.Mask))
  (pad 14 thru_hole circle (at 15.24 5.08 270) (size 2.032 2.032) (drill 0.9144) (layers *.Cu *.Mask))
  (pad 15 thru_hole circle (at 15.24 2.54 270) (size 2.032 2.032) (drill 0.9144) (layers *.Cu *.Mask))
  (pad 16 thru_hole circle (at 15.24 0 270) (size 2.032 2.032) (drill 0.9144) (layers *.Cu *.Mask))
  (pad 5 thru_hole circle (at 0 10.16 270) (size 2.032 2.032) (drill 0.9144) (layers *.Cu *.Mask))
  (pad 6 thru_hole circle (at 0 12.7 270) (size 2.032 2.032) (drill 0.9144) (layers *.Cu *.Mask))
  (pad 7 thru_hole circle (at 0 15.24 270) (size 2.032 2.032) (drill 0.9144) (layers *.Cu *.Mask))
  (pad 8 thru_hole circle (at 0 17.78 270) (size 2.032 2.032) (drill 0.9144) (layers *.Cu *.Mask))
  (pad 12 thru_hole circle (at 15.24 10.16 270) (size 2.032 2.032) (drill 0.9144) (layers *.Cu *.Mask))
  (pad 11 thru_hole circle (at 15.24 12.7 270) (size 2.032 2.032) (drill 0.9144) (layers *.Cu *.Mask))
  (pad 10 thru_hole circle (at 15.24 15.24 270) (size 2.032 2.032) (drill 0.9144) (layers *.Cu *.Mask))
  (pad 9 thru_hole circle (at 15.24 17.78 270) (size 2.032 2.032) (drill 0.9144) (layers *.Cu *.Mask))
)
