(module DA04-11SURKWA (layer F.Cu) (tedit 5A02FE84)
  (descr "http://www.kingbright.com/attachments/file/psearch/000/00/00/DA04-11SURKWA(Ver.10A).pdf")
  (tags "Dubble digit hyper red 7 segment LED display")
  (fp_text reference REF** (at 0.5 -2.21) (layer F.SilkS)
    (effects (font (size 1 1) (thickness 0.15)))
  )
  (fp_text value DA04-11SURKWA (at 4.59 20.17) (layer F.Fab)
    (effects (font (size 1 1) (thickness 0.15)))
  )
  (fp_line (start -2 -1.56) (end 0 -1.56) (layer F.SilkS) (width 0.12))
  (fp_line (start -2 -1.56) (end -2 0) (layer F.SilkS) (width 0.12))
  (fp_line (start -1.9 -1.46) (end 14.6 -1.46) (layer F.CrtYd) (width 0.05))
  (fp_line (start 14.6 -1.46) (end 14.6 19.24) (layer F.CrtYd) (width 0.05))
  (fp_line (start 14.6 19.24) (end -1.9 19.24) (layer F.CrtYd) (width 0.05))
  (fp_line (start -1.9 19.24) (end -1.9 -1.46) (layer F.CrtYd) (width 0.05))
  (fp_line (start -1.65 -0.21) (end -0.65 -1.21) (layer F.Fab) (width 0.1))
  (fp_line (start -1.77 -1.33) (end 14.47 -1.33) (layer F.SilkS) (width 0.12))
  (fp_line (start 14.47 -1.33) (end 14.47 19.11) (layer F.SilkS) (width 0.12))
  (fp_line (start 14.47 19.11) (end -1.77 19.11) (layer F.SilkS) (width 0.12))
  (fp_line (start -1.77 19.11) (end -1.77 -1.33) (layer F.SilkS) (width 0.12))
  (fp_line (start -0.65 -1.21) (end 14.35 -1.21) (layer F.Fab) (width 0.1))
  (fp_line (start 14.35 -1.21) (end 14.35 18.99) (layer F.Fab) (width 0.1))
  (fp_line (start 14.35 18.99) (end -1.65 18.99) (layer F.Fab) (width 0.1))
  (fp_line (start -1.65 18.99) (end -1.65 -0.21) (layer F.Fab) (width 0.1))
  (fp_text user %R (at 7 9) (layer F.Fab)
    (effects (font (size 1 1) (thickness 0.15)))
  )
  (pad 1 thru_hole rect (at 0 0) (size 1.7 1.7) (drill 1) (layers *.Cu *.Mask))
  (pad 2 thru_hole circle (at 0 2.54) (size 1.7 1.7) (drill 1) (layers *.Cu *.Mask))
  (pad 3 thru_hole circle (at 0 5.08) (size 1.7 1.7) (drill 1) (layers *.Cu *.Mask))
  (pad 4 thru_hole circle (at 0 7.62) (size 1.7 1.7) (drill 1) (layers *.Cu *.Mask))
  (pad 5 thru_hole circle (at 0 10.16) (size 1.7 1.7) (drill 1) (layers *.Cu *.Mask))
  (pad 6 thru_hole circle (at 0 12.7) (size 1.7 1.7) (drill 1) (layers *.Cu *.Mask))
  (pad 7 thru_hole circle (at 0 15.24) (size 1.7 1.7) (drill 1) (layers *.Cu *.Mask))
  (pad 8 thru_hole circle (at 0 17.78) (size 1.7 1.7) (drill 1) (layers *.Cu *.Mask))
  (pad 9 thru_hole circle (at 12.7 17.78) (size 1.7 1.7) (drill 1) (layers *.Cu *.Mask))
  (pad 10 thru_hole circle (at 12.7 15.24) (size 1.7 1.7) (drill 1) (layers *.Cu *.Mask))
  (pad 11 thru_hole circle (at 12.7 12.7) (size 1.7 1.7) (drill 1) (layers *.Cu *.Mask))
  (pad 12 thru_hole circle (at 12.7 10.16) (size 1.7 1.7) (drill 1) (layers *.Cu *.Mask))
  (pad 13 thru_hole circle (at 12.7 7.62) (size 1.7 1.7) (drill 1) (layers *.Cu *.Mask))
  (pad 14 thru_hole circle (at 12.7 5.08) (size 1.7 1.7) (drill 1) (layers *.Cu *.Mask))
  (pad 15 thru_hole circle (at 12.7 2.54) (size 1.7 1.7) (drill 1) (layers *.Cu *.Mask))
  (pad 16 thru_hole circle (at 12.7 0) (size 1.7 1.7) (drill 1) (layers *.Cu *.Mask))
  (model ${KICAD6_3DMODEL_DIR}/Display_7Segment.3dshapes/DA04-11SURKWA.wrl
    (at (xyz 0 0 0))
    (scale (xyz 1 1 1))
    (rotate (xyz 0 0 0))
  )
)
