(module DE170-XX-XX (layer F.Cu) (tedit 5A02FE84)
  (descr http://www.display-elektronik.de/filter/DE170-RS-20_75.pdf)
  (tags "3 1/5 digit reflective arrow bat + 7 segment LCD ")
  (fp_text reference REF** (at 1.31 -2.77) (layer F.SilkS)
    (effects (font (size 1 1) (thickness 0.15)))
  )
  (fp_text value DE170-XX-XX (at 4.42 51.16) (layer F.Fab)
    (effects (font (size 1 1) (thickness 0.15)))
  )
  (fp_line (start -1.3 -1.3) (end 0.8 -1.3) (layer F.SilkS) (width 0.12))
  (fp_text user %R (at 16.27 24.25) (layer F.Fab)
    (effects (font (size 1 1) (thickness 0.15)))
  )
  (fp_line (start -1.3 -1.3) (end -1.3 2) (layer F.SilkS) (width 0.12))
  (fp_line (start -1 -1.52) (end 34.02 -1.52) (layer F.CrtYd) (width 0.05))
  (fp_line (start 34.02 -1.52) (end 34.02 49.78) (layer F.CrtYd) (width 0.05))
  (fp_line (start 34.02 49.78) (end -1 49.78) (layer F.CrtYd) (width 0.05))
  (fp_line (start -1 49.78) (end -1 -1.52) (layer F.CrtYd) (width 0.05))
  (fp_line (start 1.15 -1.39) (end 31.87 -1.39) (layer F.SilkS) (width 0.12))
  (fp_line (start 31.87 -1.39) (end 31.87 49.65) (layer F.SilkS) (width 0.12))
  (fp_line (start 31.87 49.65) (end 1.15 49.65) (layer F.SilkS) (width 0.12))
  (fp_line (start 1.15 49.65) (end 1.15 -1.39) (layer F.SilkS) (width 0.12))
  (fp_line (start 1.27 1) (end 3.54 -1.27) (layer F.Fab) (width 0.1))
  (fp_line (start 3.54 -1.27) (end 31.75 -1.27) (layer F.Fab) (width 0.1))
  (fp_line (start 31.75 -1.27) (end 31.75 49.53) (layer F.Fab) (width 0.1))
  (fp_line (start 31.75 49.53) (end 1.27 49.53) (layer F.Fab) (width 0.1))
  (fp_line (start 1.27 49.53) (end 1.27 1) (layer F.Fab) (width 0.1))
  (pad 1 thru_hole rect (at 0 0) (size 1.5 1.524) (drill 1) (layers *.Cu *.Mask))
  (pad 2 thru_hole circle (at 0 2.54) (size 1.5 1.5) (drill 1) (layers *.Cu *.Mask))
  (pad 3 thru_hole circle (at 0 5.08) (size 1.5 1.5) (drill 1) (layers *.Cu *.Mask))
  (pad 4 thru_hole circle (at 0 7.62) (size 1.5 1.5) (drill 1) (layers *.Cu *.Mask))
  (pad 5 thru_hole circle (at 0 10.16) (size 1.5 1.5) (drill 1) (layers *.Cu *.Mask))
  (pad 6 thru_hole circle (at 0 12.7) (size 1.5 1.5) (drill 1) (layers *.Cu *.Mask))
  (pad 7 thru_hole circle (at 0 15.24) (size 1.5 1.5) (drill 1) (layers *.Cu *.Mask))
  (pad 8 thru_hole circle (at 0 17.78) (size 1.5 1.5) (drill 1) (layers *.Cu *.Mask))
  (pad 9 thru_hole circle (at 0 20.32) (size 1.5 1.5) (drill 1) (layers *.Cu *.Mask))
  (pad 10 thru_hole circle (at 0 22.86) (size 1.5 1.5) (drill 1) (layers *.Cu *.Mask))
  (pad 11 thru_hole circle (at 0 25.4) (size 1.5 1.5) (drill 1) (layers *.Cu *.Mask))
  (pad 12 thru_hole circle (at 0 27.94) (size 1.5 1.5) (drill 1) (layers *.Cu *.Mask))
  (pad 13 thru_hole circle (at 0 30.48) (size 1.5 1.5) (drill 1) (layers *.Cu *.Mask))
  (pad 14 thru_hole circle (at 0 33.02) (size 1.5 1.5) (drill 1) (layers *.Cu *.Mask))
  (pad 15 thru_hole circle (at 0 35.56) (size 1.5 1.5) (drill 1) (layers *.Cu *.Mask))
  (pad 16 thru_hole circle (at 0 38.1) (size 1.5 1.5) (drill 1) (layers *.Cu *.Mask))
  (pad 17 thru_hole circle (at 0 40.64) (size 1.5 1.5) (drill 1) (layers *.Cu *.Mask))
  (pad 18 thru_hole circle (at 0 43.18) (size 1.5 1.5) (drill 1) (layers *.Cu *.Mask))
  (pad 19 thru_hole circle (at 0 45.72) (size 1.5 1.5) (drill 1) (layers *.Cu *.Mask))
  (pad 20 thru_hole circle (at 0 48.26) (size 1.5 1.5) (drill 1) (layers *.Cu *.Mask))
  (pad 21 thru_hole circle (at 33.02 48.26) (size 1.5 1.5) (drill 1) (layers *.Cu *.Mask))
  (pad 22 thru_hole circle (at 33.02 45.72) (size 1.5 1.5) (drill 1) (layers *.Cu *.Mask))
  (pad 23 thru_hole circle (at 33.02 43.18) (size 1.5 1.5) (drill 1) (layers *.Cu *.Mask))
  (pad 24 thru_hole circle (at 33.02 40.64) (size 1.5 1.5) (drill 1) (layers *.Cu *.Mask))
  (pad 25 thru_hole circle (at 33.02 38.1) (size 1.5 1.5) (drill 1) (layers *.Cu *.Mask))
  (pad 26 thru_hole circle (at 33.02 35.56) (size 1.5 1.5) (drill 1) (layers *.Cu *.Mask))
  (pad 27 thru_hole circle (at 33.02 33.02) (size 1.5 1.5) (drill 1) (layers *.Cu *.Mask))
  (pad 28 thru_hole circle (at 33.02 30.48) (size 1.5 1.5) (drill 1) (layers *.Cu *.Mask))
  (pad 29 thru_hole circle (at 33.02 27.94) (size 1.5 1.5) (drill 1) (layers *.Cu *.Mask))
  (pad 30 thru_hole circle (at 33.02 25.4) (size 1.5 1.5) (drill 1) (layers *.Cu *.Mask))
  (pad 31 thru_hole circle (at 33.02 22.86) (size 1.5 1.5) (drill 1) (layers *.Cu *.Mask))
  (pad 32 thru_hole circle (at 33.02 20.32) (size 1.5 1.5) (drill 1) (layers *.Cu *.Mask))
  (pad 33 thru_hole circle (at 33.02 17.78) (size 1.5 1.5) (drill 1) (layers *.Cu *.Mask))
  (pad 34 thru_hole circle (at 33.02 15.24) (size 1.5 1.5) (drill 1) (layers *.Cu *.Mask))
  (pad 35 thru_hole circle (at 33.02 12.7) (size 1.5 1.5) (drill 1) (layers *.Cu *.Mask))
  (pad 36 thru_hole circle (at 33.02 10.16) (size 1.5 1.5) (drill 1) (layers *.Cu *.Mask))
  (pad 37 thru_hole circle (at 33.02 7.62) (size 1.5 1.5) (drill 1) (layers *.Cu *.Mask))
  (pad 38 thru_hole circle (at 33.02 5.08) (size 1.5 1.5) (drill 1) (layers *.Cu *.Mask))
  (pad 39 thru_hole circle (at 33.02 2.54) (size 1.5 1.5) (drill 1) (layers *.Cu *.Mask))
  (pad 40 thru_hole circle (at 33.02 0) (size 1.5 1.5) (drill 1) (layers *.Cu *.Mask))
  (model ${KICAD6_3DMODEL_DIR}/Display_7Segment.3dshapes/DE170-XX-XX.wrl
    (at (xyz 0 0 0))
    (scale (xyz 1 1 1))
    (rotate (xyz 0 0 0))
  )
)
