(module HDSP-A401 (layer F.Cu) (tedit 5A9EC7B4)
  (descr "One digit 7 segment orange, common anode, https://docs.broadcom.com/docs/AV02-2553EN")
  (tags "One digit 7 segment orange common anode")
  (fp_text reference REF** (at 2.54 -2.159) (layer F.SilkS)
    (effects (font (size 1 1) (thickness 0.15)))
  )
  (fp_text value HDSP-A401 (at 2.54 12.7) (layer F.Fab)
    (effects (font (size 1 1) (thickness 0.15)))
  )
  (fp_text user %R (at 2.573 5.08) (layer F.Fab)
    (effects (font (size 1 1) (thickness 0.15)))
  )
  (fp_line (start 6.35 -1.27) (end -1.27 -1.27) (layer F.SilkS) (width 0.15))
  (fp_line (start -1.27 -1.27) (end -1.27 11.43) (layer F.SilkS) (width 0.15))
  (fp_line (start -1.27 11.43) (end 6.35 11.43) (layer F.SilkS) (width 0.15))
  (fp_line (start 6.35 11.43) (end 6.35 -1.27) (layer F.SilkS) (width 0.15))
  (fp_line (start 6.2 -1.1) (end 6.2 11.3) (layer F.Fab) (width 0.1))
  (fp_line (start 6.2 11.3) (end -1.1 11.3) (layer F.Fab) (width 0.1))
  (fp_line (start -1.1 11.3) (end -1.1 -0.1) (layer F.Fab) (width 0.1))
  (fp_line (start -1.1 -0.1) (end -0.1 -1.1) (layer F.Fab) (width 0.1))
  (fp_line (start -0.1 -1.1) (end 6.2 -1.1) (layer F.Fab) (width 0.1))
  (fp_line (start 6.6 -1.5) (end 6.6 11.7) (layer F.CrtYd) (width 0.05))
  (fp_line (start 6.6 11.7) (end -1.5 11.7) (layer F.CrtYd) (width 0.05))
  (fp_line (start -1.5 11.7) (end -1.5 -1.5) (layer F.CrtYd) (width 0.05))
  (fp_line (start -1.5 -1.5) (end 6.6 -1.5) (layer F.CrtYd) (width 0.05))
  (fp_line (start -1.63 0) (end -1.63 -1.63) (layer F.SilkS) (width 0.12))
  (fp_line (start -1.63 -1.63) (end 0 -1.63) (layer F.SilkS) (width 0.12))
  (pad 1 thru_hole rect (at 0 0) (size 1.6 1.6) (drill 0.8) (layers *.Cu *.Mask))
  (pad 2 thru_hole circle (at 0 2.54) (size 1.6 1.6) (drill 0.8) (layers *.Cu *.Mask))
  (pad 3 thru_hole circle (at 0 5.08) (size 1.6 1.6) (drill 0.8) (layers *.Cu *.Mask))
  (pad 4 thru_hole circle (at 0 7.62) (size 1.6 1.6) (drill 0.8) (layers *.Cu *.Mask))
  (pad 5 thru_hole circle (at 0 10.16) (size 1.6 1.6) (drill 0.8) (layers *.Cu *.Mask))
  (pad 6 thru_hole circle (at 5.08 10.16) (size 1.6 1.6) (drill 0.8) (layers *.Cu *.Mask))
  (pad 7 thru_hole circle (at 5.08 7.62) (size 1.6 1.6) (drill 0.8) (layers *.Cu *.Mask))
  (pad 8 thru_hole circle (at 5.08 5.08) (size 1.6 1.6) (drill 0.8) (layers *.Cu *.Mask))
  (pad 9 thru_hole circle (at 5.08 2.54) (size 1.6 1.6) (drill 0.8) (layers *.Cu *.Mask))
  (pad 10 thru_hole circle (at 5.08 0) (size 1.6 1.6) (drill 0.8) (layers *.Cu *.Mask))
  (model ${KICAD6_3DMODEL_DIR}/Display_7Segment.3dshapes/HDSP-A401.wrl
    (at (xyz 0 0 0))
    (scale (xyz 1 1 1))
    (rotate (xyz 0 0 0))
  )
)
