(module MAN3630A (layer F.Cu) (tedit 5A02FE84)
  (descr https://www.digchip.com/datasheets/parts/datasheet/161/MAN3640A-pdf.php)
  (tags "Overflow +- 1 orange LED")
  (fp_text reference REF** (at 0.4 -3.2) (layer F.SilkS)
    (effects (font (size 1 1) (thickness 0.15)))
  )
  (fp_text value MAN3630A (at 2.2 18.4) (layer F.Fab)
    (effects (font (size 1 1) (thickness 0.15)))
  )
  (fp_text user %R (at 3.8 7.8) (layer F.Fab)
    (effects (font (size 1 1) (thickness 0.15)))
  )
  (fp_line (start -1.59 -1.5) (end -1.59 2) (layer F.SilkS) (width 0.12))
  (fp_line (start -1.34 -2.01) (end 8.96 -2.01) (layer F.CrtYd) (width 0.05))
  (fp_line (start 8.96 -2.01) (end 8.96 17.25) (layer F.CrtYd) (width 0.05))
  (fp_line (start 8.96 17.25) (end -1.34 17.25) (layer F.CrtYd) (width 0.05))
  (fp_line (start -1.34 17.25) (end -1.34 -2.01) (layer F.CrtYd) (width 0.05))
  (fp_line (start -1.09 1) (end -0.09 0) (layer F.Fab) (width 0.1))
  (fp_line (start -0.09 0) (end -1.09 -1) (layer F.Fab) (width 0.1))
  (fp_line (start -1.09 -1) (end -1.09 -1.755) (layer F.Fab) (width 0.1))
  (fp_line (start -1.21 -1.875) (end 8.83 -1.875) (layer F.SilkS) (width 0.12))
  (fp_line (start 8.83 -1.875) (end 8.83 17.115) (layer F.SilkS) (width 0.12))
  (fp_line (start 8.83 17.115) (end -1.21 17.115) (layer F.SilkS) (width 0.12))
  (fp_line (start -1.21 17.115) (end -1.21 -1.875) (layer F.SilkS) (width 0.12))
  (fp_line (start -1.09 -1.755) (end 8.71 -1.755) (layer F.Fab) (width 0.1))
  (fp_line (start 8.71 -1.755) (end 8.71 16.995) (layer F.Fab) (width 0.1))
  (fp_line (start 8.71 16.995) (end -1.09 16.995) (layer F.Fab) (width 0.1))
  (fp_line (start -1.09 16.995) (end -1.09 1) (layer F.Fab) (width 0.1))
  (pad 1 thru_hole rect (at 0 0) (size 1.5 1.5) (drill 0.7) (layers *.Cu *.Mask))
  (pad 2 thru_hole circle (at 0 2.54) (size 1.5 1.5) (drill 0.7) (layers *.Cu *.Mask))
  (pad 3 thru_hole circle (at 0 5.08) (size 1.5 1.5) (drill 0.7) (layers *.Cu *.Mask))
  (pad 4 thru_hole circle (at 0 7.62) (size 1.5 1.5) (drill 0.7) (layers *.Cu *.Mask))
  (pad 5 thru_hole circle (at 0 10.16) (size 1.5 1.5) (drill 0.7) (layers *.Cu *.Mask))
  (pad 6 thru_hole circle (at 0 12.7) (size 1.5 1.5) (drill 0.7) (layers *.Cu *.Mask))
  (pad 7 thru_hole circle (at 0 15.24) (size 1.5 1.5) (drill 0.7) (layers *.Cu *.Mask))
  (pad 8 thru_hole circle (at 7.62 15.24) (size 1.5 1.5) (drill 0.7) (layers *.Cu *.Mask))
  (pad 9 thru_hole circle (at 7.62 12.7) (size 1.5 1.5) (drill 0.7) (layers *.Cu *.Mask))
  (pad 10 thru_hole circle (at 7.62 10.16) (size 1.5 1.5) (drill 0.7) (layers *.Cu *.Mask))
  (pad 11 thru_hole circle (at 7.62 7.62) (size 1.5 1.5) (drill 0.7) (layers *.Cu *.Mask))
  (pad 12 thru_hole circle (at 7.62 5.08) (size 1.5 1.5) (drill 0.7) (layers *.Cu *.Mask))
  (pad 13 thru_hole circle (at 7.62 2.54) (size 1.5 1.5) (drill 0.7) (layers *.Cu *.Mask))
  (pad 14 thru_hole circle (at 7.62 0) (size 1.5 1.5) (drill 0.7) (layers *.Cu *.Mask))
  (model ${KICAD6_3DMODEL_DIR}/Display_7Segment.3dshapes/MAN3630A.wrl
    (at (xyz 0 0 0))
    (scale (xyz 1 1 1))
    (rotate (xyz 0 0 0))
  )
)
