(module SBC18-11SURKCGKWA (layer F.Cu) (tedit 5A02FE84)
  (descr "http://www.kingbright.com/attachments/file/psearch/000/00/00/SBC18-11SURKCGKWA(Ver.6A).pdf")
  (tags "single digit 7 segemnt red/green LED")
  (fp_text reference REF** (at -2 -15) (layer F.SilkS)
    (effects (font (size 1 1) (thickness 0.15)))
  )
  (fp_text value SBC18-11SURKCGKWA (at 4.4 25.4) (layer F.Fab)
    (effects (font (size 1 1) (thickness 0.15)))
  )
  (fp_line (start -4.12 -14.17) (end 52.38 -14.17) (layer F.CrtYd) (width 0.05))
  (fp_line (start 52.38 -14.17) (end 52.38 24.33) (layer F.CrtYd) (width 0.05))
  (fp_line (start 52.38 24.33) (end -4.12 24.33) (layer F.CrtYd) (width 0.05))
  (fp_line (start -4.12 24.33) (end -4.12 -14.17) (layer F.CrtYd) (width 0.05))
  (fp_line (start -4.37 -3) (end -4.37 3) (layer F.SilkS) (width 0.12))
  (fp_line (start -3.99 -14.04) (end 52.25 -14.04) (layer F.SilkS) (width 0.12))
  (fp_line (start 52.25 -14.04) (end 52.25 24.2) (layer F.SilkS) (width 0.12))
  (fp_line (start 52.25 24.2) (end -3.99 24.2) (layer F.SilkS) (width 0.12))
  (fp_line (start -3.99 24.2) (end -3.99 -14.04) (layer F.SilkS) (width 0.12))
  (fp_text user %R (at 24.45 5.3) (layer F.Fab)
    (effects (font (size 1 1) (thickness 0.15)))
  )
  (fp_line (start -3.87 1) (end -2.87 0) (layer F.Fab) (width 0.1))
  (fp_line (start -2.87 0) (end -3.87 -1) (layer F.Fab) (width 0.1))
  (fp_line (start -3.87 -1) (end -3.87 -13.92) (layer F.Fab) (width 0.1))
  (fp_line (start -3.87 -13.92) (end 52.13 -13.92) (layer F.Fab) (width 0.1))
  (fp_line (start 52.13 -13.92) (end 52.13 24.08) (layer F.Fab) (width 0.1))
  (fp_line (start 52.13 24.08) (end -3.87 24.08) (layer F.Fab) (width 0.1))
  (fp_line (start -3.87 24.08) (end -3.87 1) (layer F.Fab) (width 0.1))
  (pad 1 thru_hole rect (at 0 0) (size 1.7 1.7) (drill 1) (layers *.Cu *.Mask))
  (pad 2 thru_hole circle (at 0 2.54) (size 1.7 1.7) (drill 1) (layers *.Cu *.Mask))
  (pad 3 thru_hole circle (at 0 5.08) (size 1.7 1.7) (drill 1) (layers *.Cu *.Mask))
  (pad 4 thru_hole circle (at 0 7.62) (size 1.7 1.7) (drill 1) (layers *.Cu *.Mask))
  (pad 5 thru_hole circle (at 0 10.16) (size 1.7 1.7) (drill 1) (layers *.Cu *.Mask))
  (pad 6 thru_hole circle (at 48.26 10.16) (size 1.7 1.7) (drill 1) (layers *.Cu *.Mask))
  (pad 7 thru_hole circle (at 48.26 7.62) (size 1.7 1.7) (drill 1) (layers *.Cu *.Mask))
  (pad 8 thru_hole circle (at 48.26 5.08) (size 1.7 1.7) (drill 1) (layers *.Cu *.Mask))
  (pad 9 thru_hole circle (at 48.26 2.54) (size 1.7 1.7) (drill 1) (layers *.Cu *.Mask))
  (pad 10 thru_hole circle (at 48.26 0) (size 1.7 1.7) (drill 1) (layers *.Cu *.Mask))
  (model ${KICAD6_3DMODEL_DIR}/Display_7Segment.3dshapes/SBC18-11SURKCGKWA.wrl
    (at (xyz 0 0 0))
    (scale (xyz 1 1 1))
    (rotate (xyz 0 0 0))
  )
)
