(module IDC-Header_2x06_P2.54mm_Latch9.5mm_Vertical (layer F.Cu) (tedit 5EAC9A05)
  (descr "Through hole IDC header, 2x06, 2.54mm pitch, DIN 41651 / IEC 60603-13, double rows, 9.5mm latches, https://docs.google.com/spreadsheets/d/16SsEcesNF15N3Lb4niX7dcUr-NY5_MFPQhobNuNppn4/edit#gid=0")
  (tags "Through hole vertical IDC header THT 2x06 2.54mm double row")
  (fp_text reference REF** (at 1.27 -21.47) (layer F.SilkS)
    (effects (font (size 1 1) (thickness 0.15)))
  )
  (fp_text value IDC-Header_2x06_P2.54mm_Latch9.5mm_Vertical (at 1.27 34.17) (layer F.Fab)
    (effects (font (size 1 1) (thickness 0.15)))
  )
  (fp_line (start -3.13 -9.97) (end -2.13 -10.97) (layer F.Fab) (width 0.1))
  (fp_line (start -2.13 -10.97) (end 5.67 -10.97) (layer F.Fab) (width 0.1))
  (fp_line (start 5.67 -10.97) (end 5.67 23.67) (layer F.Fab) (width 0.1))
  (fp_line (start 5.67 23.67) (end -3.13 23.67) (layer F.Fab) (width 0.1))
  (fp_line (start -3.13 23.67) (end -3.13 -9.97) (layer F.Fab) (width 0.1))
  (fp_line (start -3.13 4.3) (end -1.93 4.3) (layer F.Fab) (width 0.1))
  (fp_line (start -1.93 4.3) (end -1.93 -3.92) (layer F.Fab) (width 0.1))
  (fp_line (start -1.93 -3.92) (end 4.47 -3.92) (layer F.Fab) (width 0.1))
  (fp_line (start 4.47 -3.92) (end 4.47 16.62) (layer F.Fab) (width 0.1))
  (fp_line (start 4.47 16.62) (end -1.93 16.62) (layer F.Fab) (width 0.1))
  (fp_line (start -1.93 16.62) (end -1.93 8.4) (layer F.Fab) (width 0.1))
  (fp_line (start -1.93 8.4) (end -1.93 8.4) (layer F.Fab) (width 0.1))
  (fp_line (start -1.93 8.4) (end -3.13 8.4) (layer F.Fab) (width 0.1))
  (fp_line (start -0.93 -10.97) (end -0.93 -20.47) (layer F.Fab) (width 0.1))
  (fp_line (start -0.93 -20.47) (end 3.47 -20.47) (layer F.Fab) (width 0.1))
  (fp_line (start 3.47 -20.47) (end 3.47 -10.97) (layer F.Fab) (width 0.1))
  (fp_line (start -0.93 23.67) (end -0.93 33.17) (layer F.Fab) (width 0.1))
  (fp_line (start -0.93 33.17) (end 3.47 33.17) (layer F.Fab) (width 0.1))
  (fp_line (start 3.47 33.17) (end 3.47 23.67) (layer F.Fab) (width 0.1))
  (fp_line (start -3.24 -11.08) (end 5.78 -11.08) (layer F.SilkS) (width 0.12))
  (fp_line (start 5.78 -11.08) (end 5.78 23.78) (layer F.SilkS) (width 0.12))
  (fp_line (start 5.78 23.78) (end -3.24 23.78) (layer F.SilkS) (width 0.12))
  (fp_line (start -3.24 23.78) (end -3.24 -11.08) (layer F.SilkS) (width 0.12))
  (fp_line (start -3.24 4.3) (end -1.93 4.3) (layer F.SilkS) (width 0.12))
  (fp_line (start -1.93 4.3) (end -1.93 -3.92) (layer F.SilkS) (width 0.12))
  (fp_line (start -1.93 -3.92) (end 4.47 -3.92) (layer F.SilkS) (width 0.12))
  (fp_line (start 4.47 -3.92) (end 4.47 16.62) (layer F.SilkS) (width 0.12))
  (fp_line (start 4.47 16.62) (end -1.93 16.62) (layer F.SilkS) (width 0.12))
  (fp_line (start -1.93 16.62) (end -1.93 8.4) (layer F.SilkS) (width 0.12))
  (fp_line (start -1.93 8.4) (end -1.93 8.4) (layer F.SilkS) (width 0.12))
  (fp_line (start -1.93 8.4) (end -3.24 8.4) (layer F.SilkS) (width 0.12))
  (fp_line (start -1.04 -11.08) (end -1.04 -20.58) (layer F.SilkS) (width 0.12))
  (fp_line (start -1.04 -20.58) (end 3.58 -20.58) (layer F.SilkS) (width 0.12))
  (fp_line (start 3.58 -20.58) (end 3.58 -11.08) (layer F.SilkS) (width 0.12))
  (fp_line (start -1.04 23.78) (end -1.04 33.28) (layer F.SilkS) (width 0.12))
  (fp_line (start -1.04 33.28) (end 3.58 33.28) (layer F.SilkS) (width 0.12))
  (fp_line (start 3.58 33.28) (end 3.58 23.78) (layer F.SilkS) (width 0.12))
  (fp_line (start -3.63 0) (end -4.63 -0.5) (layer F.SilkS) (width 0.12))
  (fp_line (start -4.63 -0.5) (end -4.63 0.5) (layer F.SilkS) (width 0.12))
  (fp_line (start -4.63 0.5) (end -3.63 0) (layer F.SilkS) (width 0.12))
  (fp_line (start -3.63 -20.97) (end -3.63 33.67) (layer F.CrtYd) (width 0.05))
  (fp_line (start -3.63 33.67) (end 6.17 33.67) (layer F.CrtYd) (width 0.05))
  (fp_line (start 6.17 33.67) (end 6.17 -20.97) (layer F.CrtYd) (width 0.05))
  (fp_line (start 6.17 -20.97) (end -3.63 -20.97) (layer F.CrtYd) (width 0.05))
  (pad 1 thru_hole roundrect (at 0 0) (size 1.7 1.7) (drill 1) (layers *.Cu *.Mask) (roundrect_rratio 0.147059))
  (pad 3 thru_hole circle (at 0 2.54) (size 1.7 1.7) (drill 1) (layers *.Cu *.Mask))
  (pad 5 thru_hole circle (at 0 5.08) (size 1.7 1.7) (drill 1) (layers *.Cu *.Mask))
  (pad 7 thru_hole circle (at 0 7.62) (size 1.7 1.7) (drill 1) (layers *.Cu *.Mask))
  (pad 9 thru_hole circle (at 0 10.16) (size 1.7 1.7) (drill 1) (layers *.Cu *.Mask))
  (pad 11 thru_hole circle (at 0 12.7) (size 1.7 1.7) (drill 1) (layers *.Cu *.Mask))
  (pad 2 thru_hole circle (at 2.54 0) (size 1.7 1.7) (drill 1) (layers *.Cu *.Mask))
  (pad 4 thru_hole circle (at 2.54 2.54) (size 1.7 1.7) (drill 1) (layers *.Cu *.Mask))
  (pad 6 thru_hole circle (at 2.54 5.08) (size 1.7 1.7) (drill 1) (layers *.Cu *.Mask))
  (pad 8 thru_hole circle (at 2.54 7.62) (size 1.7 1.7) (drill 1) (layers *.Cu *.Mask))
  (pad 10 thru_hole circle (at 2.54 10.16) (size 1.7 1.7) (drill 1) (layers *.Cu *.Mask))
  (pad 12 thru_hole circle (at 2.54 12.7) (size 1.7 1.7) (drill 1) (layers *.Cu *.Mask))
  (fp_text user %R (at 1.27 6.35 90) (layer F.Fab)
    (effects (font (size 1 1) (thickness 0.15)))
  )
  (model ${KICAD6_3DMODEL_DIR}/Connector_IDC.3dshapes/IDC-Header_2x06_P2.54mm_Latch9.5mm_Vertical.wrl
    (at (xyz 0 0 0))
    (scale (xyz 1 1 1))
    (rotate (xyz 0 0 0))
  )
)