(module IDC-Header_2x32_P2.54mm_Latch6.5mm_Vertical (layer F.Cu) (tedit 5EAC9A07)
  (descr "Through hole IDC header, 2x32, 2.54mm pitch, DIN 41651 / IEC 60603-13, double rows, 6.5mm latches, https://docs.google.com/spreadsheets/d/16SsEcesNF15N3Lb4niX7dcUr-NY5_MFPQhobNuNppn4/edit#gid=0")
  (tags "Through hole vertical IDC header THT 2x32 2.54mm double row")
  (fp_text reference REF** (at 1.27 -18.47) (layer F.SilkS)
    (effects (font (size 1 1) (thickness 0.15)))
  )
  (fp_text value IDC-Header_2x32_P2.54mm_Latch6.5mm_Vertical (at 1.27 97.21) (layer F.Fab)
    (effects (font (size 1 1) (thickness 0.15)))
  )
  (fp_line (start -3.13 -9.97) (end -2.13 -10.97) (layer F.Fab) (width 0.1))
  (fp_line (start -2.13 -10.97) (end 5.67 -10.97) (layer F.Fab) (width 0.1))
  (fp_line (start 5.67 -10.97) (end 5.67 89.71) (layer F.Fab) (width 0.1))
  (fp_line (start 5.67 89.71) (end -3.13 89.71) (layer F.Fab) (width 0.1))
  (fp_line (start -3.13 89.71) (end -3.13 -9.97) (layer F.Fab) (width 0.1))
  (fp_line (start -3.13 37.32) (end -1.93 37.32) (layer F.Fab) (width 0.1))
  (fp_line (start -1.93 37.32) (end -1.93 -3.92) (layer F.Fab) (width 0.1))
  (fp_line (start -1.93 -3.92) (end 4.47 -3.92) (layer F.Fab) (width 0.1))
  (fp_line (start 4.47 -3.92) (end 4.47 82.66) (layer F.Fab) (width 0.1))
  (fp_line (start 4.47 82.66) (end -1.93 82.66) (layer F.Fab) (width 0.1))
  (fp_line (start -1.93 82.66) (end -1.93 41.42) (layer F.Fab) (width 0.1))
  (fp_line (start -1.93 41.42) (end -1.93 41.42) (layer F.Fab) (width 0.1))
  (fp_line (start -1.93 41.42) (end -3.13 41.42) (layer F.Fab) (width 0.1))
  (fp_line (start -0.93 -10.97) (end -0.93 -17.47) (layer F.Fab) (width 0.1))
  (fp_line (start -0.93 -17.47) (end 3.47 -17.47) (layer F.Fab) (width 0.1))
  (fp_line (start 3.47 -17.47) (end 3.47 -10.97) (layer F.Fab) (width 0.1))
  (fp_line (start -0.93 89.71) (end -0.93 96.21) (layer F.Fab) (width 0.1))
  (fp_line (start -0.93 96.21) (end 3.47 96.21) (layer F.Fab) (width 0.1))
  (fp_line (start 3.47 96.21) (end 3.47 89.71) (layer F.Fab) (width 0.1))
  (fp_line (start -3.24 -11.08) (end 5.78 -11.08) (layer F.SilkS) (width 0.12))
  (fp_line (start 5.78 -11.08) (end 5.78 89.82) (layer F.SilkS) (width 0.12))
  (fp_line (start 5.78 89.82) (end -3.24 89.82) (layer F.SilkS) (width 0.12))
  (fp_line (start -3.24 89.82) (end -3.24 -11.08) (layer F.SilkS) (width 0.12))
  (fp_line (start -3.24 37.32) (end -1.93 37.32) (layer F.SilkS) (width 0.12))
  (fp_line (start -1.93 37.32) (end -1.93 -3.92) (layer F.SilkS) (width 0.12))
  (fp_line (start -1.93 -3.92) (end 4.47 -3.92) (layer F.SilkS) (width 0.12))
  (fp_line (start 4.47 -3.92) (end 4.47 82.66) (layer F.SilkS) (width 0.12))
  (fp_line (start 4.47 82.66) (end -1.93 82.66) (layer F.SilkS) (width 0.12))
  (fp_line (start -1.93 82.66) (end -1.93 41.42) (layer F.SilkS) (width 0.12))
  (fp_line (start -1.93 41.42) (end -1.93 41.42) (layer F.SilkS) (width 0.12))
  (fp_line (start -1.93 41.42) (end -3.24 41.42) (layer F.SilkS) (width 0.12))
  (fp_line (start -1.04 -11.08) (end -1.04 -17.58) (layer F.SilkS) (width 0.12))
  (fp_line (start -1.04 -17.58) (end 3.58 -17.58) (layer F.SilkS) (width 0.12))
  (fp_line (start 3.58 -17.58) (end 3.58 -11.08) (layer F.SilkS) (width 0.12))
  (fp_line (start -1.04 89.82) (end -1.04 96.32) (layer F.SilkS) (width 0.12))
  (fp_line (start -1.04 96.32) (end 3.58 96.32) (layer F.SilkS) (width 0.12))
  (fp_line (start 3.58 96.32) (end 3.58 89.82) (layer F.SilkS) (width 0.12))
  (fp_line (start -3.63 0) (end -4.63 -0.5) (layer F.SilkS) (width 0.12))
  (fp_line (start -4.63 -0.5) (end -4.63 0.5) (layer F.SilkS) (width 0.12))
  (fp_line (start -4.63 0.5) (end -3.63 0) (layer F.SilkS) (width 0.12))
  (fp_line (start -3.63 -17.97) (end -3.63 96.71) (layer F.CrtYd) (width 0.05))
  (fp_line (start -3.63 96.71) (end 6.17 96.71) (layer F.CrtYd) (width 0.05))
  (fp_line (start 6.17 96.71) (end 6.17 -17.97) (layer F.CrtYd) (width 0.05))
  (fp_line (start 6.17 -17.97) (end -3.63 -17.97) (layer F.CrtYd) (width 0.05))
  (pad 1 thru_hole roundrect (at 0 0) (size 1.7 1.7) (drill 1) (layers *.Cu *.Mask) (roundrect_rratio 0.147059))
  (pad 3 thru_hole circle (at 0 2.54) (size 1.7 1.7) (drill 1) (layers *.Cu *.Mask))
  (pad 5 thru_hole circle (at 0 5.08) (size 1.7 1.7) (drill 1) (layers *.Cu *.Mask))
  (pad 7 thru_hole circle (at 0 7.62) (size 1.7 1.7) (drill 1) (layers *.Cu *.Mask))
  (pad 9 thru_hole circle (at 0 10.16) (size 1.7 1.7) (drill 1) (layers *.Cu *.Mask))
  (pad 11 thru_hole circle (at 0 12.7) (size 1.7 1.7) (drill 1) (layers *.Cu *.Mask))
  (pad 13 thru_hole circle (at 0 15.24) (size 1.7 1.7) (drill 1) (layers *.Cu *.Mask))
  (pad 15 thru_hole circle (at 0 17.78) (size 1.7 1.7) (drill 1) (layers *.Cu *.Mask))
  (pad 17 thru_hole circle (at 0 20.32) (size 1.7 1.7) (drill 1) (layers *.Cu *.Mask))
  (pad 19 thru_hole circle (at 0 22.86) (size 1.7 1.7) (drill 1) (layers *.Cu *.Mask))
  (pad 21 thru_hole circle (at 0 25.4) (size 1.7 1.7) (drill 1) (layers *.Cu *.Mask))
  (pad 23 thru_hole circle (at 0 27.94) (size 1.7 1.7) (drill 1) (layers *.Cu *.Mask))
  (pad 25 thru_hole circle (at 0 30.48) (size 1.7 1.7) (drill 1) (layers *.Cu *.Mask))
  (pad 27 thru_hole circle (at 0 33.02) (size 1.7 1.7) (drill 1) (layers *.Cu *.Mask))
  (pad 29 thru_hole circle (at 0 35.56) (size 1.7 1.7) (drill 1) (layers *.Cu *.Mask))
  (pad 31 thru_hole circle (at 0 38.1) (size 1.7 1.7) (drill 1) (layers *.Cu *.Mask))
  (pad 33 thru_hole circle (at 0 40.64) (size 1.7 1.7) (drill 1) (layers *.Cu *.Mask))
  (pad 35 thru_hole circle (at 0 43.18) (size 1.7 1.7) (drill 1) (layers *.Cu *.Mask))
  (pad 37 thru_hole circle (at 0 45.72) (size 1.7 1.7) (drill 1) (layers *.Cu *.Mask))
  (pad 39 thru_hole circle (at 0 48.26) (size 1.7 1.7) (drill 1) (layers *.Cu *.Mask))
  (pad 41 thru_hole circle (at 0 50.8) (size 1.7 1.7) (drill 1) (layers *.Cu *.Mask))
  (pad 43 thru_hole circle (at 0 53.34) (size 1.7 1.7) (drill 1) (layers *.Cu *.Mask))
  (pad 45 thru_hole circle (at 0 55.88) (size 1.7 1.7) (drill 1) (layers *.Cu *.Mask))
  (pad 47 thru_hole circle (at 0 58.42) (size 1.7 1.7) (drill 1) (layers *.Cu *.Mask))
  (pad 49 thru_hole circle (at 0 60.96) (size 1.7 1.7) (drill 1) (layers *.Cu *.Mask))
  (pad 51 thru_hole circle (at 0 63.5) (size 1.7 1.7) (drill 1) (layers *.Cu *.Mask))
  (pad 53 thru_hole circle (at 0 66.04) (size 1.7 1.7) (drill 1) (layers *.Cu *.Mask))
  (pad 55 thru_hole circle (at 0 68.58) (size 1.7 1.7) (drill 1) (layers *.Cu *.Mask))
  (pad 57 thru_hole circle (at 0 71.12) (size 1.7 1.7) (drill 1) (layers *.Cu *.Mask))
  (pad 59 thru_hole circle (at 0 73.66) (size 1.7 1.7) (drill 1) (layers *.Cu *.Mask))
  (pad 61 thru_hole circle (at 0 76.2) (size 1.7 1.7) (drill 1) (layers *.Cu *.Mask))
  (pad 63 thru_hole circle (at 0 78.74) (size 1.7 1.7) (drill 1) (layers *.Cu *.Mask))
  (pad 2 thru_hole circle (at 2.54 0) (size 1.7 1.7) (drill 1) (layers *.Cu *.Mask))
  (pad 4 thru_hole circle (at 2.54 2.54) (size 1.7 1.7) (drill 1) (layers *.Cu *.Mask))
  (pad 6 thru_hole circle (at 2.54 5.08) (size 1.7 1.7) (drill 1) (layers *.Cu *.Mask))
  (pad 8 thru_hole circle (at 2.54 7.62) (size 1.7 1.7) (drill 1) (layers *.Cu *.Mask))
  (pad 10 thru_hole circle (at 2.54 10.16) (size 1.7 1.7) (drill 1) (layers *.Cu *.Mask))
  (pad 12 thru_hole circle (at 2.54 12.7) (size 1.7 1.7) (drill 1) (layers *.Cu *.Mask))
  (pad 14 thru_hole circle (at 2.54 15.24) (size 1.7 1.7) (drill 1) (layers *.Cu *.Mask))
  (pad 16 thru_hole circle (at 2.54 17.78) (size 1.7 1.7) (drill 1) (layers *.Cu *.Mask))
  (pad 18 thru_hole circle (at 2.54 20.32) (size 1.7 1.7) (drill 1) (layers *.Cu *.Mask))
  (pad 20 thru_hole circle (at 2.54 22.86) (size 1.7 1.7) (drill 1) (layers *.Cu *.Mask))
  (pad 22 thru_hole circle (at 2.54 25.4) (size 1.7 1.7) (drill 1) (layers *.Cu *.Mask))
  (pad 24 thru_hole circle (at 2.54 27.94) (size 1.7 1.7) (drill 1) (layers *.Cu *.Mask))
  (pad 26 thru_hole circle (at 2.54 30.48) (size 1.7 1.7) (drill 1) (layers *.Cu *.Mask))
  (pad 28 thru_hole circle (at 2.54 33.02) (size 1.7 1.7) (drill 1) (layers *.Cu *.Mask))
  (pad 30 thru_hole circle (at 2.54 35.56) (size 1.7 1.7) (drill 1) (layers *.Cu *.Mask))
  (pad 32 thru_hole circle (at 2.54 38.1) (size 1.7 1.7) (drill 1) (layers *.Cu *.Mask))
  (pad 34 thru_hole circle (at 2.54 40.64) (size 1.7 1.7) (drill 1) (layers *.Cu *.Mask))
  (pad 36 thru_hole circle (at 2.54 43.18) (size 1.7 1.7) (drill 1) (layers *.Cu *.Mask))
  (pad 38 thru_hole circle (at 2.54 45.72) (size 1.7 1.7) (drill 1) (layers *.Cu *.Mask))
  (pad 40 thru_hole circle (at 2.54 48.26) (size 1.7 1.7) (drill 1) (layers *.Cu *.Mask))
  (pad 42 thru_hole circle (at 2.54 50.8) (size 1.7 1.7) (drill 1) (layers *.Cu *.Mask))
  (pad 44 thru_hole circle (at 2.54 53.34) (size 1.7 1.7) (drill 1) (layers *.Cu *.Mask))
  (pad 46 thru_hole circle (at 2.54 55.88) (size 1.7 1.7) (drill 1) (layers *.Cu *.Mask))
  (pad 48 thru_hole circle (at 2.54 58.42) (size 1.7 1.7) (drill 1) (layers *.Cu *.Mask))
  (pad 50 thru_hole circle (at 2.54 60.96) (size 1.7 1.7) (drill 1) (layers *.Cu *.Mask))
  (pad 52 thru_hole circle (at 2.54 63.5) (size 1.7 1.7) (drill 1) (layers *.Cu *.Mask))
  (pad 54 thru_hole circle (at 2.54 66.04) (size 1.7 1.7) (drill 1) (layers *.Cu *.Mask))
  (pad 56 thru_hole circle (at 2.54 68.58) (size 1.7 1.7) (drill 1) (layers *.Cu *.Mask))
  (pad 58 thru_hole circle (at 2.54 71.12) (size 1.7 1.7) (drill 1) (layers *.Cu *.Mask))
  (pad 60 thru_hole circle (at 2.54 73.66) (size 1.7 1.7) (drill 1) (layers *.Cu *.Mask))
  (pad 62 thru_hole circle (at 2.54 76.2) (size 1.7 1.7) (drill 1) (layers *.Cu *.Mask))
  (pad 64 thru_hole circle (at 2.54 78.74) (size 1.7 1.7) (drill 1) (layers *.Cu *.Mask))
  (fp_text user %R (at 1.27 39.37 90) (layer F.Fab)
    (effects (font (size 1 1) (thickness 0.15)))
  )
  (model ${KICAD6_3DMODEL_DIR}/Connector_IDC.3dshapes/IDC-Header_2x32_P2.54mm_Latch6.5mm_Vertical.wrl
    (at (xyz 0 0 0))
    (scale (xyz 1 1 1))
    (rotate (xyz 0 0 0))
  )
)