(module IDC-Header_2x06_P2.54mm_Horizontal (layer F.Cu) (tedit 5EAC9A08)
  (descr "Through hole IDC box header, 2x06, 2.54mm pitch, DIN 41651 / IEC 60603-13, double rows, https://docs.google.com/spreadsheets/d/16SsEcesNF15N3Lb4niX7dcUr-NY5_MFPQhobNuNppn4/edit#gid=0")
  (tags "Through hole horizontal IDC box header THT 2x06 2.54mm double row")
  (fp_text reference REF** (at 6.215 -6.1) (layer F.SilkS)
    (effects (font (size 1 1) (thickness 0.15)))
  )
  (fp_text value IDC-Header_2x06_P2.54mm_Horizontal (at 6.215 18.8) (layer F.Fab)
    (effects (font (size 1 1) (thickness 0.15)))
  )
  (fp_line (start 4.38 -4.1) (end 5.38 -5.1) (layer F.Fab) (width 0.1))
  (fp_line (start 4.38 4.3) (end 13.28 4.3) (layer F.Fab) (width 0.1))
  (fp_line (start 4.38 8.4) (end 13.28 8.4) (layer F.Fab) (width 0.1))
  (fp_line (start 4.27 4.3) (end 13.39 4.3) (layer F.SilkS) (width 0.12))
  (fp_line (start 4.27 8.4) (end 13.39 8.4) (layer F.SilkS) (width 0.12))
  (fp_line (start 4.38 -0.32) (end -0.32 -0.32) (layer F.Fab) (width 0.1))
  (fp_line (start -0.32 -0.32) (end -0.32 0.32) (layer F.Fab) (width 0.1))
  (fp_line (start -0.32 0.32) (end 4.38 0.32) (layer F.Fab) (width 0.1))
  (fp_line (start 4.38 2.22) (end -0.32 2.22) (layer F.Fab) (width 0.1))
  (fp_line (start -0.32 2.22) (end -0.32 2.86) (layer F.Fab) (width 0.1))
  (fp_line (start -0.32 2.86) (end 4.38 2.86) (layer F.Fab) (width 0.1))
  (fp_line (start 4.38 4.76) (end -0.32 4.76) (layer F.Fab) (width 0.1))
  (fp_line (start -0.32 4.76) (end -0.32 5.4) (layer F.Fab) (width 0.1))
  (fp_line (start -0.32 5.4) (end 4.38 5.4) (layer F.Fab) (width 0.1))
  (fp_line (start 4.38 7.3) (end -0.32 7.3) (layer F.Fab) (width 0.1))
  (fp_line (start -0.32 7.3) (end -0.32 7.94) (layer F.Fab) (width 0.1))
  (fp_line (start -0.32 7.94) (end 4.38 7.94) (layer F.Fab) (width 0.1))
  (fp_line (start 4.38 9.84) (end -0.32 9.84) (layer F.Fab) (width 0.1))
  (fp_line (start -0.32 9.84) (end -0.32 10.48) (layer F.Fab) (width 0.1))
  (fp_line (start -0.32 10.48) (end 4.38 10.48) (layer F.Fab) (width 0.1))
  (fp_line (start 4.38 12.38) (end -0.32 12.38) (layer F.Fab) (width 0.1))
  (fp_line (start -0.32 12.38) (end -0.32 13.02) (layer F.Fab) (width 0.1))
  (fp_line (start -0.32 13.02) (end 4.38 13.02) (layer F.Fab) (width 0.1))
  (fp_line (start 5.38 -5.1) (end 13.28 -5.1) (layer F.Fab) (width 0.1))
  (fp_line (start 13.28 -5.1) (end 13.28 17.8) (layer F.Fab) (width 0.1))
  (fp_line (start 13.28 17.8) (end 4.38 17.8) (layer F.Fab) (width 0.1))
  (fp_line (start 4.38 17.8) (end 4.38 -4.1) (layer F.Fab) (width 0.1))
  (fp_line (start 4.27 -5.21) (end 13.39 -5.21) (layer F.SilkS) (width 0.12))
  (fp_line (start 13.39 -5.21) (end 13.39 17.91) (layer F.SilkS) (width 0.12))
  (fp_line (start 13.39 17.91) (end 4.27 17.91) (layer F.SilkS) (width 0.12))
  (fp_line (start 4.27 17.91) (end 4.27 -5.21) (layer F.SilkS) (width 0.12))
  (fp_line (start -1.35 0) (end -2.35 -0.5) (layer F.SilkS) (width 0.12))
  (fp_line (start -2.35 -0.5) (end -2.35 0.5) (layer F.SilkS) (width 0.12))
  (fp_line (start -2.35 0.5) (end -1.35 0) (layer F.SilkS) (width 0.12))
  (fp_line (start -1.35 -5.6) (end -1.35 18.3) (layer F.CrtYd) (width 0.05))
  (fp_line (start -1.35 18.3) (end 13.78 18.3) (layer F.CrtYd) (width 0.05))
  (fp_line (start 13.78 18.3) (end 13.78 -5.6) (layer F.CrtYd) (width 0.05))
  (fp_line (start 13.78 -5.6) (end -1.35 -5.6) (layer F.CrtYd) (width 0.05))
  (pad 1 thru_hole roundrect (at 0 0) (size 1.7 1.7) (drill 1) (layers *.Cu *.Mask) (roundrect_rratio 0.147059))
  (pad 3 thru_hole circle (at 0 2.54) (size 1.7 1.7) (drill 1) (layers *.Cu *.Mask))
  (pad 5 thru_hole circle (at 0 5.08) (size 1.7 1.7) (drill 1) (layers *.Cu *.Mask))
  (pad 7 thru_hole circle (at 0 7.62) (size 1.7 1.7) (drill 1) (layers *.Cu *.Mask))
  (pad 9 thru_hole circle (at 0 10.16) (size 1.7 1.7) (drill 1) (layers *.Cu *.Mask))
  (pad 11 thru_hole circle (at 0 12.7) (size 1.7 1.7) (drill 1) (layers *.Cu *.Mask))
  (pad 2 thru_hole circle (at 2.54 0) (size 1.7 1.7) (drill 1) (layers *.Cu *.Mask))
  (pad 4 thru_hole circle (at 2.54 2.54) (size 1.7 1.7) (drill 1) (layers *.Cu *.Mask))
  (pad 6 thru_hole circle (at 2.54 5.08) (size 1.7 1.7) (drill 1) (layers *.Cu *.Mask))
  (pad 8 thru_hole circle (at 2.54 7.62) (size 1.7 1.7) (drill 1) (layers *.Cu *.Mask))
  (pad 10 thru_hole circle (at 2.54 10.16) (size 1.7 1.7) (drill 1) (layers *.Cu *.Mask))
  (pad 12 thru_hole circle (at 2.54 12.7) (size 1.7 1.7) (drill 1) (layers *.Cu *.Mask))
  (fp_text user %R (at 8.83 6.35 90) (layer F.Fab)
    (effects (font (size 1 1) (thickness 0.15)))
  )
  (model ${KICAD6_3DMODEL_DIR}/Connector_IDC.3dshapes/IDC-Header_2x06_P2.54mm_Horizontal.wrl
    (at (xyz 0 0 0))
    (scale (xyz 1 1 1))
    (rotate (xyz 0 0 0))
  )
)