(module IDC-Header_2x20_P2.54mm_Latch9.5mm_Vertical (layer F.Cu) (tedit 5EAC9A06)
  (descr "Through hole IDC header, 2x20, 2.54mm pitch, DIN 41651 / IEC 60603-13, double rows, 9.5mm latches, https://docs.google.com/spreadsheets/d/16SsEcesNF15N3Lb4niX7dcUr-NY5_MFPQhobNuNppn4/edit#gid=0")
  (tags "Through hole vertical IDC header THT 2x20 2.54mm double row")
  (fp_text reference REF** (at 1.27 -21.47) (layer F.SilkS)
    (effects (font (size 1 1) (thickness 0.15)))
  )
  (fp_text value IDC-Header_2x20_P2.54mm_Latch9.5mm_Vertical (at 1.27 69.73) (layer F.Fab)
    (effects (font (size 1 1) (thickness 0.15)))
  )
  (fp_line (start -3.13 -9.97) (end -2.13 -10.97) (layer F.Fab) (width 0.1))
  (fp_line (start -2.13 -10.97) (end 5.67 -10.97) (layer F.Fab) (width 0.1))
  (fp_line (start 5.67 -10.97) (end 5.67 59.23) (layer F.Fab) (width 0.1))
  (fp_line (start 5.67 59.23) (end -3.13 59.23) (layer F.Fab) (width 0.1))
  (fp_line (start -3.13 59.23) (end -3.13 -9.97) (layer F.Fab) (width 0.1))
  (fp_line (start -3.13 22.08) (end -1.93 22.08) (layer F.Fab) (width 0.1))
  (fp_line (start -1.93 22.08) (end -1.93 -3.92) (layer F.Fab) (width 0.1))
  (fp_line (start -1.93 -3.92) (end 4.47 -3.92) (layer F.Fab) (width 0.1))
  (fp_line (start 4.47 -3.92) (end 4.47 52.18) (layer F.Fab) (width 0.1))
  (fp_line (start 4.47 52.18) (end -1.93 52.18) (layer F.Fab) (width 0.1))
  (fp_line (start -1.93 52.18) (end -1.93 26.18) (layer F.Fab) (width 0.1))
  (fp_line (start -1.93 26.18) (end -1.93 26.18) (layer F.Fab) (width 0.1))
  (fp_line (start -1.93 26.18) (end -3.13 26.18) (layer F.Fab) (width 0.1))
  (fp_line (start -0.93 -10.97) (end -0.93 -20.47) (layer F.Fab) (width 0.1))
  (fp_line (start -0.93 -20.47) (end 3.47 -20.47) (layer F.Fab) (width 0.1))
  (fp_line (start 3.47 -20.47) (end 3.47 -10.97) (layer F.Fab) (width 0.1))
  (fp_line (start -0.93 59.23) (end -0.93 68.73) (layer F.Fab) (width 0.1))
  (fp_line (start -0.93 68.73) (end 3.47 68.73) (layer F.Fab) (width 0.1))
  (fp_line (start 3.47 68.73) (end 3.47 59.23) (layer F.Fab) (width 0.1))
  (fp_line (start -3.24 -11.08) (end 5.78 -11.08) (layer F.SilkS) (width 0.12))
  (fp_line (start 5.78 -11.08) (end 5.78 59.34) (layer F.SilkS) (width 0.12))
  (fp_line (start 5.78 59.34) (end -3.24 59.34) (layer F.SilkS) (width 0.12))
  (fp_line (start -3.24 59.34) (end -3.24 -11.08) (layer F.SilkS) (width 0.12))
  (fp_line (start -3.24 22.08) (end -1.93 22.08) (layer F.SilkS) (width 0.12))
  (fp_line (start -1.93 22.08) (end -1.93 -3.92) (layer F.SilkS) (width 0.12))
  (fp_line (start -1.93 -3.92) (end 4.47 -3.92) (layer F.SilkS) (width 0.12))
  (fp_line (start 4.47 -3.92) (end 4.47 52.18) (layer F.SilkS) (width 0.12))
  (fp_line (start 4.47 52.18) (end -1.93 52.18) (layer F.SilkS) (width 0.12))
  (fp_line (start -1.93 52.18) (end -1.93 26.18) (layer F.SilkS) (width 0.12))
  (fp_line (start -1.93 26.18) (end -1.93 26.18) (layer F.SilkS) (width 0.12))
  (fp_line (start -1.93 26.18) (end -3.24 26.18) (layer F.SilkS) (width 0.12))
  (fp_line (start -1.04 -11.08) (end -1.04 -20.58) (layer F.SilkS) (width 0.12))
  (fp_line (start -1.04 -20.58) (end 3.58 -20.58) (layer F.SilkS) (width 0.12))
  (fp_line (start 3.58 -20.58) (end 3.58 -11.08) (layer F.SilkS) (width 0.12))
  (fp_line (start -1.04 59.34) (end -1.04 68.84) (layer F.SilkS) (width 0.12))
  (fp_line (start -1.04 68.84) (end 3.58 68.84) (layer F.SilkS) (width 0.12))
  (fp_line (start 3.58 68.84) (end 3.58 59.34) (layer F.SilkS) (width 0.12))
  (fp_line (start -3.63 0) (end -4.63 -0.5) (layer F.SilkS) (width 0.12))
  (fp_line (start -4.63 -0.5) (end -4.63 0.5) (layer F.SilkS) (width 0.12))
  (fp_line (start -4.63 0.5) (end -3.63 0) (layer F.SilkS) (width 0.12))
  (fp_line (start -3.63 -20.97) (end -3.63 69.23) (layer F.CrtYd) (width 0.05))
  (fp_line (start -3.63 69.23) (end 6.17 69.23) (layer F.CrtYd) (width 0.05))
  (fp_line (start 6.17 69.23) (end 6.17 -20.97) (layer F.CrtYd) (width 0.05))
  (fp_line (start 6.17 -20.97) (end -3.63 -20.97) (layer F.CrtYd) (width 0.05))
  (pad 1 thru_hole roundrect (at 0 0) (size 1.7 1.7) (drill 1) (layers *.Cu *.Mask) (roundrect_rratio 0.147059))
  (pad 3 thru_hole circle (at 0 2.54) (size 1.7 1.7) (drill 1) (layers *.Cu *.Mask))
  (pad 5 thru_hole circle (at 0 5.08) (size 1.7 1.7) (drill 1) (layers *.Cu *.Mask))
  (pad 7 thru_hole circle (at 0 7.62) (size 1.7 1.7) (drill 1) (layers *.Cu *.Mask))
  (pad 9 thru_hole circle (at 0 10.16) (size 1.7 1.7) (drill 1) (layers *.Cu *.Mask))
  (pad 11 thru_hole circle (at 0 12.7) (size 1.7 1.7) (drill 1) (layers *.Cu *.Mask))
  (pad 13 thru_hole circle (at 0 15.24) (size 1.7 1.7) (drill 1) (layers *.Cu *.Mask))
  (pad 15 thru_hole circle (at 0 17.78) (size 1.7 1.7) (drill 1) (layers *.Cu *.Mask))
  (pad 17 thru_hole circle (at 0 20.32) (size 1.7 1.7) (drill 1) (layers *.Cu *.Mask))
  (pad 19 thru_hole circle (at 0 22.86) (size 1.7 1.7) (drill 1) (layers *.Cu *.Mask))
  (pad 21 thru_hole circle (at 0 25.4) (size 1.7 1.7) (drill 1) (layers *.Cu *.Mask))
  (pad 23 thru_hole circle (at 0 27.94) (size 1.7 1.7) (drill 1) (layers *.Cu *.Mask))
  (pad 25 thru_hole circle (at 0 30.48) (size 1.7 1.7) (drill 1) (layers *.Cu *.Mask))
  (pad 27 thru_hole circle (at 0 33.02) (size 1.7 1.7) (drill 1) (layers *.Cu *.Mask))
  (pad 29 thru_hole circle (at 0 35.56) (size 1.7 1.7) (drill 1) (layers *.Cu *.Mask))
  (pad 31 thru_hole circle (at 0 38.1) (size 1.7 1.7) (drill 1) (layers *.Cu *.Mask))
  (pad 33 thru_hole circle (at 0 40.64) (size 1.7 1.7) (drill 1) (layers *.Cu *.Mask))
  (pad 35 thru_hole circle (at 0 43.18) (size 1.7 1.7) (drill 1) (layers *.Cu *.Mask))
  (pad 37 thru_hole circle (at 0 45.72) (size 1.7 1.7) (drill 1) (layers *.Cu *.Mask))
  (pad 39 thru_hole circle (at 0 48.26) (size 1.7 1.7) (drill 1) (layers *.Cu *.Mask))
  (pad 2 thru_hole circle (at 2.54 0) (size 1.7 1.7) (drill 1) (layers *.Cu *.Mask))
  (pad 4 thru_hole circle (at 2.54 2.54) (size 1.7 1.7) (drill 1) (layers *.Cu *.Mask))
  (pad 6 thru_hole circle (at 2.54 5.08) (size 1.7 1.7) (drill 1) (layers *.Cu *.Mask))
  (pad 8 thru_hole circle (at 2.54 7.62) (size 1.7 1.7) (drill 1) (layers *.Cu *.Mask))
  (pad 10 thru_hole circle (at 2.54 10.16) (size 1.7 1.7) (drill 1) (layers *.Cu *.Mask))
  (pad 12 thru_hole circle (at 2.54 12.7) (size 1.7 1.7) (drill 1) (layers *.Cu *.Mask))
  (pad 14 thru_hole circle (at 2.54 15.24) (size 1.7 1.7) (drill 1) (layers *.Cu *.Mask))
  (pad 16 thru_hole circle (at 2.54 17.78) (size 1.7 1.7) (drill 1) (layers *.Cu *.Mask))
  (pad 18 thru_hole circle (at 2.54 20.32) (size 1.7 1.7) (drill 1) (layers *.Cu *.Mask))
  (pad 20 thru_hole circle (at 2.54 22.86) (size 1.7 1.7) (drill 1) (layers *.Cu *.Mask))
  (pad 22 thru_hole circle (at 2.54 25.4) (size 1.7 1.7) (drill 1) (layers *.Cu *.Mask))
  (pad 24 thru_hole circle (at 2.54 27.94) (size 1.7 1.7) (drill 1) (layers *.Cu *.Mask))
  (pad 26 thru_hole circle (at 2.54 30.48) (size 1.7 1.7) (drill 1) (layers *.Cu *.Mask))
  (pad 28 thru_hole circle (at 2.54 33.02) (size 1.7 1.7) (drill 1) (layers *.Cu *.Mask))
  (pad 30 thru_hole circle (at 2.54 35.56) (size 1.7 1.7) (drill 1) (layers *.Cu *.Mask))
  (pad 32 thru_hole circle (at 2.54 38.1) (size 1.7 1.7) (drill 1) (layers *.Cu *.Mask))
  (pad 34 thru_hole circle (at 2.54 40.64) (size 1.7 1.7) (drill 1) (layers *.Cu *.Mask))
  (pad 36 thru_hole circle (at 2.54 43.18) (size 1.7 1.7) (drill 1) (layers *.Cu *.Mask))
  (pad 38 thru_hole circle (at 2.54 45.72) (size 1.7 1.7) (drill 1) (layers *.Cu *.Mask))
  (pad 40 thru_hole circle (at 2.54 48.26) (size 1.7 1.7) (drill 1) (layers *.Cu *.Mask))
  (fp_text user %R (at 1.27 24.13 90) (layer F.Fab)
    (effects (font (size 1 1) (thickness 0.15)))
  )
  (model ${KICAD6_3DMODEL_DIR}/Connector_IDC.3dshapes/IDC-Header_2x20_P2.54mm_Latch9.5mm_Vertical.wrl
    (at (xyz 0 0 0))
    (scale (xyz 1 1 1))
    (rotate (xyz 0 0 0))
  )
)