(module IDC-Header_2x08_P2.54mm_Latch_Horizontal (layer F.Cu) (tedit 5EAC9A07)
  (descr "Through hole IDC header, 2x08, 2.54mm pitch, DIN 41651 / IEC 60603-13, double rows latches, https://docs.google.com/spreadsheets/d/16SsEcesNF15N3Lb4niX7dcUr-NY5_MFPQhobNuNppn4/edit#gid=0")
  (tags "Through hole horizontal IDC header THT 2x08 2.54mm double row")
  (fp_text reference REF** (at 7.145 -11.97) (layer F.SilkS)
    (effects (font (size 1 1) (thickness 0.15)))
  )
  (fp_text value IDC-Header_2x08_P2.54mm_Latch_Horizontal (at 7.145 29.75) (layer F.Fab)
    (effects (font (size 1 1) (thickness 0.15)))
  )
  (fp_line (start -1.24 -10.97) (end 5.87 -10.97) (layer F.Fab) (width 0.1))
  (fp_line (start 5.87 -10.97) (end 15.53 -7.5) (layer F.Fab) (width 0.1))
  (fp_line (start 15.53 -7.5) (end 15.53 -3.53) (layer F.Fab) (width 0.1))
  (fp_line (start 15.53 -3.53) (end 11.97 -2.9) (layer F.Fab) (width 0.1))
  (fp_line (start 11.97 -2.9) (end 11.97 20.68) (layer F.Fab) (width 0.1))
  (fp_line (start 11.97 20.68) (end 15.53 21.31) (layer F.Fab) (width 0.1))
  (fp_line (start 15.53 21.31) (end 15.53 25.28) (layer F.Fab) (width 0.1))
  (fp_line (start 15.53 25.28) (end 5.87 28.75) (layer F.Fab) (width 0.1))
  (fp_line (start 5.87 28.75) (end -1.24 28.75) (layer F.Fab) (width 0.1))
  (fp_line (start -1.24 28.75) (end -1.24 -10.97) (layer F.Fab) (width 0.1))
  (fp_line (start -1.35 -11.08) (end 5.98 -11.08) (layer F.SilkS) (width 0.12))
  (fp_line (start 5.98 -11.08) (end 15.64 -7.61) (layer F.SilkS) (width 0.12))
  (fp_line (start 15.64 -7.61) (end 15.64 -3.42) (layer F.SilkS) (width 0.12))
  (fp_line (start 15.64 -3.42) (end 12.08 -2.79) (layer F.SilkS) (width 0.12))
  (fp_line (start 12.08 -2.79) (end 12.08 20.57) (layer F.SilkS) (width 0.12))
  (fp_line (start 12.08 20.57) (end 15.64 21.2) (layer F.SilkS) (width 0.12))
  (fp_line (start 15.64 21.2) (end 15.64 25.39) (layer F.SilkS) (width 0.12))
  (fp_line (start 15.64 25.39) (end 5.98 28.86) (layer F.SilkS) (width 0.12))
  (fp_line (start 5.98 28.86) (end -1.35 28.86) (layer F.SilkS) (width 0.12))
  (fp_line (start -1.35 28.86) (end -1.35 -11.08) (layer F.SilkS) (width 0.12))
  (fp_line (start -1.74 0) (end -2.74 -0.5) (layer F.SilkS) (width 0.12))
  (fp_line (start -2.74 -0.5) (end -2.74 0.5) (layer F.SilkS) (width 0.12))
  (fp_line (start -2.74 0.5) (end -1.74 0) (layer F.SilkS) (width 0.12))
  (fp_line (start -1.74 -11.47) (end -1.74 29.25) (layer F.CrtYd) (width 0.05))
  (fp_line (start -1.74 29.25) (end 16.03 29.25) (layer F.CrtYd) (width 0.05))
  (fp_line (start 16.03 29.25) (end 16.03 -11.47) (layer F.CrtYd) (width 0.05))
  (fp_line (start 16.03 -11.47) (end -1.74 -11.47) (layer F.CrtYd) (width 0.05))
  (pad 1 thru_hole roundrect (at 0 0) (size 1.7 1.7) (drill 1) (layers *.Cu *.Mask) (roundrect_rratio 0.147059))
  (pad 3 thru_hole circle (at 0 2.54) (size 1.7 1.7) (drill 1) (layers *.Cu *.Mask))
  (pad 5 thru_hole circle (at 0 5.08) (size 1.7 1.7) (drill 1) (layers *.Cu *.Mask))
  (pad 7 thru_hole circle (at 0 7.62) (size 1.7 1.7) (drill 1) (layers *.Cu *.Mask))
  (pad 9 thru_hole circle (at 0 10.16) (size 1.7 1.7) (drill 1) (layers *.Cu *.Mask))
  (pad 11 thru_hole circle (at 0 12.7) (size 1.7 1.7) (drill 1) (layers *.Cu *.Mask))
  (pad 13 thru_hole circle (at 0 15.24) (size 1.7 1.7) (drill 1) (layers *.Cu *.Mask))
  (pad 15 thru_hole circle (at 0 17.78) (size 1.7 1.7) (drill 1) (layers *.Cu *.Mask))
  (pad 2 thru_hole circle (at 2.54 0) (size 1.7 1.7) (drill 1) (layers *.Cu *.Mask))
  (pad 4 thru_hole circle (at 2.54 2.54) (size 1.7 1.7) (drill 1) (layers *.Cu *.Mask))
  (pad 6 thru_hole circle (at 2.54 5.08) (size 1.7 1.7) (drill 1) (layers *.Cu *.Mask))
  (pad 8 thru_hole circle (at 2.54 7.62) (size 1.7 1.7) (drill 1) (layers *.Cu *.Mask))
  (pad 10 thru_hole circle (at 2.54 10.16) (size 1.7 1.7) (drill 1) (layers *.Cu *.Mask))
  (pad 12 thru_hole circle (at 2.54 12.7) (size 1.7 1.7) (drill 1) (layers *.Cu *.Mask))
  (pad 14 thru_hole circle (at 2.54 15.24) (size 1.7 1.7) (drill 1) (layers *.Cu *.Mask))
  (pad 16 thru_hole circle (at 2.54 17.78) (size 1.7 1.7) (drill 1) (layers *.Cu *.Mask))
  (fp_text user %R (at 7.145 8.89 90) (layer F.Fab)
    (effects (font (size 1 1) (thickness 0.15)))
  )
  (model ${KICAD6_3DMODEL_DIR}/Connector_IDC.3dshapes/IDC-Header_2x08_P2.54mm_Latch_Horizontal.wrl
    (at (xyz 0 0 0))
    (scale (xyz 1 1 1))
    (rotate (xyz 0 0 0))
  )
)