(module IDC-Header_2x13_P2.54mm_Latch_Vertical (layer F.Cu) (tedit 5EAC9A05)
  (descr "Through hole IDC header, 2x13, 2.54mm pitch, DIN 41651 / IEC 60603-13, double rows latches, https://docs.google.com/spreadsheets/d/16SsEcesNF15N3Lb4niX7dcUr-NY5_MFPQhobNuNppn4/edit#gid=0")
  (tags "Through hole vertical IDC header THT 2x13 2.54mm double row")
  (fp_text reference REF** (at 1.27 -11.97) (layer F.SilkS)
    (effects (font (size 1 1) (thickness 0.15)))
  )
  (fp_text value IDC-Header_2x13_P2.54mm_Latch_Vertical (at 1.27 42.45) (layer F.Fab)
    (effects (font (size 1 1) (thickness 0.15)))
  )
  (fp_line (start -3.13 -9.97) (end -2.13 -10.97) (layer F.Fab) (width 0.1))
  (fp_line (start -2.13 -10.97) (end 5.67 -10.97) (layer F.Fab) (width 0.1))
  (fp_line (start 5.67 -10.97) (end 5.67 41.45) (layer F.Fab) (width 0.1))
  (fp_line (start 5.67 41.45) (end -3.13 41.45) (layer F.Fab) (width 0.1))
  (fp_line (start -3.13 41.45) (end -3.13 -9.97) (layer F.Fab) (width 0.1))
  (fp_line (start -3.13 13.19) (end -1.93 13.19) (layer F.Fab) (width 0.1))
  (fp_line (start -1.93 13.19) (end -1.93 -3.92) (layer F.Fab) (width 0.1))
  (fp_line (start -1.93 -3.92) (end 4.47 -3.92) (layer F.Fab) (width 0.1))
  (fp_line (start 4.47 -3.92) (end 4.47 34.4) (layer F.Fab) (width 0.1))
  (fp_line (start 4.47 34.4) (end -1.93 34.4) (layer F.Fab) (width 0.1))
  (fp_line (start -1.93 34.4) (end -1.93 17.29) (layer F.Fab) (width 0.1))
  (fp_line (start -1.93 17.29) (end -1.93 17.29) (layer F.Fab) (width 0.1))
  (fp_line (start -1.93 17.29) (end -3.13 17.29) (layer F.Fab) (width 0.1))
  (fp_line (start -3.24 -11.08) (end 5.78 -11.08) (layer F.SilkS) (width 0.12))
  (fp_line (start 5.78 -11.08) (end 5.78 41.56) (layer F.SilkS) (width 0.12))
  (fp_line (start 5.78 41.56) (end -3.24 41.56) (layer F.SilkS) (width 0.12))
  (fp_line (start -3.24 41.56) (end -3.24 -11.08) (layer F.SilkS) (width 0.12))
  (fp_line (start -3.24 13.19) (end -1.93 13.19) (layer F.SilkS) (width 0.12))
  (fp_line (start -1.93 13.19) (end -1.93 -3.92) (layer F.SilkS) (width 0.12))
  (fp_line (start -1.93 -3.92) (end 4.47 -3.92) (layer F.SilkS) (width 0.12))
  (fp_line (start 4.47 -3.92) (end 4.47 34.4) (layer F.SilkS) (width 0.12))
  (fp_line (start 4.47 34.4) (end -1.93 34.4) (layer F.SilkS) (width 0.12))
  (fp_line (start -1.93 34.4) (end -1.93 17.29) (layer F.SilkS) (width 0.12))
  (fp_line (start -1.93 17.29) (end -1.93 17.29) (layer F.SilkS) (width 0.12))
  (fp_line (start -1.93 17.29) (end -3.24 17.29) (layer F.SilkS) (width 0.12))
  (fp_line (start -3.63 0) (end -4.63 -0.5) (layer F.SilkS) (width 0.12))
  (fp_line (start -4.63 -0.5) (end -4.63 0.5) (layer F.SilkS) (width 0.12))
  (fp_line (start -4.63 0.5) (end -3.63 0) (layer F.SilkS) (width 0.12))
  (fp_line (start -3.63 -11.47) (end -3.63 41.95) (layer F.CrtYd) (width 0.05))
  (fp_line (start -3.63 41.95) (end 6.17 41.95) (layer F.CrtYd) (width 0.05))
  (fp_line (start 6.17 41.95) (end 6.17 -11.47) (layer F.CrtYd) (width 0.05))
  (fp_line (start 6.17 -11.47) (end -3.63 -11.47) (layer F.CrtYd) (width 0.05))
  (pad 1 thru_hole roundrect (at 0 0) (size 1.7 1.7) (drill 1) (layers *.Cu *.Mask) (roundrect_rratio 0.147059))
  (pad 3 thru_hole circle (at 0 2.54) (size 1.7 1.7) (drill 1) (layers *.Cu *.Mask))
  (pad 5 thru_hole circle (at 0 5.08) (size 1.7 1.7) (drill 1) (layers *.Cu *.Mask))
  (pad 7 thru_hole circle (at 0 7.62) (size 1.7 1.7) (drill 1) (layers *.Cu *.Mask))
  (pad 9 thru_hole circle (at 0 10.16) (size 1.7 1.7) (drill 1) (layers *.Cu *.Mask))
  (pad 11 thru_hole circle (at 0 12.7) (size 1.7 1.7) (drill 1) (layers *.Cu *.Mask))
  (pad 13 thru_hole circle (at 0 15.24) (size 1.7 1.7) (drill 1) (layers *.Cu *.Mask))
  (pad 15 thru_hole circle (at 0 17.78) (size 1.7 1.7) (drill 1) (layers *.Cu *.Mask))
  (pad 17 thru_hole circle (at 0 20.32) (size 1.7 1.7) (drill 1) (layers *.Cu *.Mask))
  (pad 19 thru_hole circle (at 0 22.86) (size 1.7 1.7) (drill 1) (layers *.Cu *.Mask))
  (pad 21 thru_hole circle (at 0 25.4) (size 1.7 1.7) (drill 1) (layers *.Cu *.Mask))
  (pad 23 thru_hole circle (at 0 27.94) (size 1.7 1.7) (drill 1) (layers *.Cu *.Mask))
  (pad 25 thru_hole circle (at 0 30.48) (size 1.7 1.7) (drill 1) (layers *.Cu *.Mask))
  (pad 2 thru_hole circle (at 2.54 0) (size 1.7 1.7) (drill 1) (layers *.Cu *.Mask))
  (pad 4 thru_hole circle (at 2.54 2.54) (size 1.7 1.7) (drill 1) (layers *.Cu *.Mask))
  (pad 6 thru_hole circle (at 2.54 5.08) (size 1.7 1.7) (drill 1) (layers *.Cu *.Mask))
  (pad 8 thru_hole circle (at 2.54 7.62) (size 1.7 1.7) (drill 1) (layers *.Cu *.Mask))
  (pad 10 thru_hole circle (at 2.54 10.16) (size 1.7 1.7) (drill 1) (layers *.Cu *.Mask))
  (pad 12 thru_hole circle (at 2.54 12.7) (size 1.7 1.7) (drill 1) (layers *.Cu *.Mask))
  (pad 14 thru_hole circle (at 2.54 15.24) (size 1.7 1.7) (drill 1) (layers *.Cu *.Mask))
  (pad 16 thru_hole circle (at 2.54 17.78) (size 1.7 1.7) (drill 1) (layers *.Cu *.Mask))
  (pad 18 thru_hole circle (at 2.54 20.32) (size 1.7 1.7) (drill 1) (layers *.Cu *.Mask))
  (pad 20 thru_hole circle (at 2.54 22.86) (size 1.7 1.7) (drill 1) (layers *.Cu *.Mask))
  (pad 22 thru_hole circle (at 2.54 25.4) (size 1.7 1.7) (drill 1) (layers *.Cu *.Mask))
  (pad 24 thru_hole circle (at 2.54 27.94) (size 1.7 1.7) (drill 1) (layers *.Cu *.Mask))
  (pad 26 thru_hole circle (at 2.54 30.48) (size 1.7 1.7) (drill 1) (layers *.Cu *.Mask))
  (fp_text user %R (at 1.27 15.24 90) (layer F.Fab)
    (effects (font (size 1 1) (thickness 0.15)))
  )
  (model ${KICAD6_3DMODEL_DIR}/Connector_IDC.3dshapes/IDC-Header_2x13_P2.54mm_Latch_Vertical.wrl
    (at (xyz 0 0 0))
    (scale (xyz 1 1 1))
    (rotate (xyz 0 0 0))
  )
)