(module TerminalBlock_RND_205-00237_1x07_P5.08mm_Horizontal (layer F.Cu) (tedit 5B294F43)
  (descr "terminal block RND 205-00237, 7 pins, pitch 5.08mm, size 35.6x8.45mm^2, drill diamater 1.1mm, pad diameter 2.1mm, see http://cdn-reichelt.de/documents/datenblatt/C151/RND_205-00232_DB_EN.pdf, script-generated using https://github.com/pointhi/kicad-footprint-generator/scripts/TerminalBlock_RND")
  (tags "THT terminal block RND 205-00237 pitch 5.08mm size 35.6x8.45mm^2 drill 1.1mm pad 2.1mm")
  (fp_text reference REF** (at 15.24 -5.46) (layer F.SilkS)
    (effects (font (size 1 1) (thickness 0.15)))
  )
  (fp_text value TerminalBlock_RND_205-00237_1x07_P5.08mm_Horizontal (at 15.24 5.11) (layer F.Fab)
    (effects (font (size 1 1) (thickness 0.15)))
  )
  (fp_arc (start 0 0) (end 0 1.43) (angle -26) (layer F.SilkS) (width 0.12))
  (fp_arc (start 0 0) (end 1.286 0.627) (angle -52) (layer F.SilkS) (width 0.12))
  (fp_arc (start 0 0) (end 0.627 -1.286) (angle -52) (layer F.SilkS) (width 0.12))
  (fp_arc (start 0 0) (end -1.286 -0.628) (angle -52) (layer F.SilkS) (width 0.12))
  (fp_arc (start 0 0) (end -0.628 1.286) (angle -27) (layer F.SilkS) (width 0.12))
  (fp_circle (center 0 0) (end 1.25 0) (layer F.Fab) (width 0.1))
  (fp_circle (center 5.08 0) (end 6.33 0) (layer F.Fab) (width 0.1))
  (fp_circle (center 5.08 0) (end 6.51 0) (layer F.SilkS) (width 0.12))
  (fp_circle (center 10.16 0) (end 11.41 0) (layer F.Fab) (width 0.1))
  (fp_circle (center 10.16 0) (end 11.59 0) (layer F.SilkS) (width 0.12))
  (fp_circle (center 15.24 0) (end 16.49 0) (layer F.Fab) (width 0.1))
  (fp_circle (center 15.24 0) (end 16.67 0) (layer F.SilkS) (width 0.12))
  (fp_circle (center 20.32 0) (end 21.57 0) (layer F.Fab) (width 0.1))
  (fp_circle (center 20.32 0) (end 21.75 0) (layer F.SilkS) (width 0.12))
  (fp_circle (center 25.4 0) (end 26.65 0) (layer F.Fab) (width 0.1))
  (fp_circle (center 25.4 0) (end 26.83 0) (layer F.SilkS) (width 0.12))
  (fp_circle (center 30.48 0) (end 31.73 0) (layer F.Fab) (width 0.1))
  (fp_circle (center 30.48 0) (end 31.91 0) (layer F.SilkS) (width 0.12))
  (fp_line (start -2.54 -4.4) (end 33.02 -4.4) (layer F.Fab) (width 0.1))
  (fp_line (start 33.02 -4.4) (end 33.02 4.05) (layer F.Fab) (width 0.1))
  (fp_line (start 33.02 4.05) (end -2.04 4.05) (layer F.Fab) (width 0.1))
  (fp_line (start -2.04 4.05) (end -2.54 3.55) (layer F.Fab) (width 0.1))
  (fp_line (start -2.54 3.55) (end -2.54 -4.4) (layer F.Fab) (width 0.1))
  (fp_line (start -2.54 3.55) (end 33.02 3.55) (layer F.Fab) (width 0.1))
  (fp_line (start -2.6 3.55) (end 33.08 3.55) (layer F.SilkS) (width 0.12))
  (fp_line (start -2.54 2.45) (end 33.02 2.45) (layer F.Fab) (width 0.1))
  (fp_line (start -2.6 2.45) (end 33.08 2.45) (layer F.SilkS) (width 0.12))
  (fp_line (start -2.54 -2.55) (end 33.02 -2.55) (layer F.Fab) (width 0.1))
  (fp_line (start -2.6 -2.55) (end 33.08 -2.55) (layer F.SilkS) (width 0.12))
  (fp_line (start -2.6 -4.46) (end 33.08 -4.46) (layer F.SilkS) (width 0.12))
  (fp_line (start -2.6 4.11) (end 33.08 4.11) (layer F.SilkS) (width 0.12))
  (fp_line (start -2.6 -4.46) (end -2.6 4.11) (layer F.SilkS) (width 0.12))
  (fp_line (start 33.08 -4.46) (end 33.08 4.11) (layer F.SilkS) (width 0.12))
  (fp_line (start 0.949 -0.796) (end -0.796 0.948) (layer F.Fab) (width 0.1))
  (fp_line (start 0.796 -0.948) (end -0.949 0.796) (layer F.Fab) (width 0.1))
  (fp_line (start -1.25 -4.4) (end -1.25 -3.4) (layer F.Fab) (width 0.1))
  (fp_line (start -1.25 -3.4) (end 1.25 -3.4) (layer F.Fab) (width 0.1))
  (fp_line (start 1.25 -3.4) (end 1.25 -4.4) (layer F.Fab) (width 0.1))
  (fp_line (start 1.25 -4.4) (end -1.25 -4.4) (layer F.Fab) (width 0.1))
  (fp_line (start -1.25 -4.4) (end 1.25 -4.4) (layer F.SilkS) (width 0.12))
  (fp_line (start -1.25 -3.4) (end 1.25 -3.4) (layer F.SilkS) (width 0.12))
  (fp_line (start -1.25 -4.4) (end -1.25 -3.4) (layer F.SilkS) (width 0.12))
  (fp_line (start 1.25 -4.4) (end 1.25 -3.4) (layer F.SilkS) (width 0.12))
  (fp_line (start 6.029 -0.796) (end 4.285 0.948) (layer F.Fab) (width 0.1))
  (fp_line (start 5.876 -0.948) (end 4.132 0.796) (layer F.Fab) (width 0.1))
  (fp_line (start 6.165 -0.91) (end 6.105 -0.851) (layer F.SilkS) (width 0.12))
  (fp_line (start 4.21 1.045) (end 4.17 1.085) (layer F.SilkS) (width 0.12))
  (fp_line (start 5.991 -1.085) (end 5.951 -1.045) (layer F.SilkS) (width 0.12))
  (fp_line (start 4.056 0.85) (end 3.996 0.91) (layer F.SilkS) (width 0.12))
  (fp_line (start 3.83 -4.4) (end 3.83 -3.4) (layer F.Fab) (width 0.1))
  (fp_line (start 3.83 -3.4) (end 6.33 -3.4) (layer F.Fab) (width 0.1))
  (fp_line (start 6.33 -3.4) (end 6.33 -4.4) (layer F.Fab) (width 0.1))
  (fp_line (start 6.33 -4.4) (end 3.83 -4.4) (layer F.Fab) (width 0.1))
  (fp_line (start 3.83 -4.4) (end 6.33 -4.4) (layer F.SilkS) (width 0.12))
  (fp_line (start 3.83 -3.4) (end 6.33 -3.4) (layer F.SilkS) (width 0.12))
  (fp_line (start 3.83 -4.4) (end 3.83 -3.4) (layer F.SilkS) (width 0.12))
  (fp_line (start 6.33 -4.4) (end 6.33 -3.4) (layer F.SilkS) (width 0.12))
  (fp_line (start 11.109 -0.796) (end 9.365 0.948) (layer F.Fab) (width 0.1))
  (fp_line (start 10.956 -0.948) (end 9.212 0.796) (layer F.Fab) (width 0.1))
  (fp_line (start 11.245 -0.91) (end 11.185 -0.851) (layer F.SilkS) (width 0.12))
  (fp_line (start 9.29 1.045) (end 9.25 1.085) (layer F.SilkS) (width 0.12))
  (fp_line (start 11.071 -1.085) (end 11.031 -1.045) (layer F.SilkS) (width 0.12))
  (fp_line (start 9.136 0.85) (end 9.076 0.91) (layer F.SilkS) (width 0.12))
  (fp_line (start 8.91 -4.4) (end 8.91 -3.4) (layer F.Fab) (width 0.1))
  (fp_line (start 8.91 -3.4) (end 11.41 -3.4) (layer F.Fab) (width 0.1))
  (fp_line (start 11.41 -3.4) (end 11.41 -4.4) (layer F.Fab) (width 0.1))
  (fp_line (start 11.41 -4.4) (end 8.91 -4.4) (layer F.Fab) (width 0.1))
  (fp_line (start 8.91 -4.4) (end 11.41 -4.4) (layer F.SilkS) (width 0.12))
  (fp_line (start 8.91 -3.4) (end 11.41 -3.4) (layer F.SilkS) (width 0.12))
  (fp_line (start 8.91 -4.4) (end 8.91 -3.4) (layer F.SilkS) (width 0.12))
  (fp_line (start 11.41 -4.4) (end 11.41 -3.4) (layer F.SilkS) (width 0.12))
  (fp_line (start 16.189 -0.796) (end 14.445 0.948) (layer F.Fab) (width 0.1))
  (fp_line (start 16.036 -0.948) (end 14.292 0.796) (layer F.Fab) (width 0.1))
  (fp_line (start 16.325 -0.91) (end 16.265 -0.851) (layer F.SilkS) (width 0.12))
  (fp_line (start 14.37 1.045) (end 14.33 1.085) (layer F.SilkS) (width 0.12))
  (fp_line (start 16.151 -1.085) (end 16.111 -1.045) (layer F.SilkS) (width 0.12))
  (fp_line (start 14.216 0.85) (end 14.156 0.91) (layer F.SilkS) (width 0.12))
  (fp_line (start 13.99 -4.4) (end 13.99 -3.4) (layer F.Fab) (width 0.1))
  (fp_line (start 13.99 -3.4) (end 16.49 -3.4) (layer F.Fab) (width 0.1))
  (fp_line (start 16.49 -3.4) (end 16.49 -4.4) (layer F.Fab) (width 0.1))
  (fp_line (start 16.49 -4.4) (end 13.99 -4.4) (layer F.Fab) (width 0.1))
  (fp_line (start 13.99 -4.4) (end 16.49 -4.4) (layer F.SilkS) (width 0.12))
  (fp_line (start 13.99 -3.4) (end 16.49 -3.4) (layer F.SilkS) (width 0.12))
  (fp_line (start 13.99 -4.4) (end 13.99 -3.4) (layer F.SilkS) (width 0.12))
  (fp_line (start 16.49 -4.4) (end 16.49 -3.4) (layer F.SilkS) (width 0.12))
  (fp_line (start 21.269 -0.796) (end 19.525 0.948) (layer F.Fab) (width 0.1))
  (fp_line (start 21.116 -0.948) (end 19.372 0.796) (layer F.Fab) (width 0.1))
  (fp_line (start 21.405 -0.91) (end 21.345 -0.851) (layer F.SilkS) (width 0.12))
  (fp_line (start 19.45 1.045) (end 19.41 1.085) (layer F.SilkS) (width 0.12))
  (fp_line (start 21.231 -1.085) (end 21.191 -1.045) (layer F.SilkS) (width 0.12))
  (fp_line (start 19.296 0.85) (end 19.236 0.91) (layer F.SilkS) (width 0.12))
  (fp_line (start 19.07 -4.4) (end 19.07 -3.4) (layer F.Fab) (width 0.1))
  (fp_line (start 19.07 -3.4) (end 21.57 -3.4) (layer F.Fab) (width 0.1))
  (fp_line (start 21.57 -3.4) (end 21.57 -4.4) (layer F.Fab) (width 0.1))
  (fp_line (start 21.57 -4.4) (end 19.07 -4.4) (layer F.Fab) (width 0.1))
  (fp_line (start 19.07 -4.4) (end 21.57 -4.4) (layer F.SilkS) (width 0.12))
  (fp_line (start 19.07 -3.4) (end 21.57 -3.4) (layer F.SilkS) (width 0.12))
  (fp_line (start 19.07 -4.4) (end 19.07 -3.4) (layer F.SilkS) (width 0.12))
  (fp_line (start 21.57 -4.4) (end 21.57 -3.4) (layer F.SilkS) (width 0.12))
  (fp_line (start 26.349 -0.796) (end 24.605 0.948) (layer F.Fab) (width 0.1))
  (fp_line (start 26.196 -0.948) (end 24.452 0.796) (layer F.Fab) (width 0.1))
  (fp_line (start 26.485 -0.91) (end 26.425 -0.851) (layer F.SilkS) (width 0.12))
  (fp_line (start 24.53 1.045) (end 24.49 1.085) (layer F.SilkS) (width 0.12))
  (fp_line (start 26.311 -1.085) (end 26.271 -1.045) (layer F.SilkS) (width 0.12))
  (fp_line (start 24.376 0.85) (end 24.316 0.91) (layer F.SilkS) (width 0.12))
  (fp_line (start 24.15 -4.4) (end 24.15 -3.4) (layer F.Fab) (width 0.1))
  (fp_line (start 24.15 -3.4) (end 26.65 -3.4) (layer F.Fab) (width 0.1))
  (fp_line (start 26.65 -3.4) (end 26.65 -4.4) (layer F.Fab) (width 0.1))
  (fp_line (start 26.65 -4.4) (end 24.15 -4.4) (layer F.Fab) (width 0.1))
  (fp_line (start 24.15 -4.4) (end 26.65 -4.4) (layer F.SilkS) (width 0.12))
  (fp_line (start 24.15 -3.4) (end 26.65 -3.4) (layer F.SilkS) (width 0.12))
  (fp_line (start 24.15 -4.4) (end 24.15 -3.4) (layer F.SilkS) (width 0.12))
  (fp_line (start 26.65 -4.4) (end 26.65 -3.4) (layer F.SilkS) (width 0.12))
  (fp_line (start 31.429 -0.796) (end 29.685 0.948) (layer F.Fab) (width 0.1))
  (fp_line (start 31.276 -0.948) (end 29.532 0.796) (layer F.Fab) (width 0.1))
  (fp_line (start 31.565 -0.91) (end 31.505 -0.851) (layer F.SilkS) (width 0.12))
  (fp_line (start 29.61 1.045) (end 29.57 1.085) (layer F.SilkS) (width 0.12))
  (fp_line (start 31.391 -1.085) (end 31.351 -1.045) (layer F.SilkS) (width 0.12))
  (fp_line (start 29.456 0.85) (end 29.396 0.91) (layer F.SilkS) (width 0.12))
  (fp_line (start 29.23 -4.4) (end 29.23 -3.4) (layer F.Fab) (width 0.1))
  (fp_line (start 29.23 -3.4) (end 31.73 -3.4) (layer F.Fab) (width 0.1))
  (fp_line (start 31.73 -3.4) (end 31.73 -4.4) (layer F.Fab) (width 0.1))
  (fp_line (start 31.73 -4.4) (end 29.23 -4.4) (layer F.Fab) (width 0.1))
  (fp_line (start 29.23 -4.4) (end 31.73 -4.4) (layer F.SilkS) (width 0.12))
  (fp_line (start 29.23 -3.4) (end 31.73 -3.4) (layer F.SilkS) (width 0.12))
  (fp_line (start 29.23 -4.4) (end 29.23 -3.4) (layer F.SilkS) (width 0.12))
  (fp_line (start 31.73 -4.4) (end 31.73 -3.4) (layer F.SilkS) (width 0.12))
  (fp_line (start -2.84 3.61) (end -2.84 4.35) (layer F.SilkS) (width 0.12))
  (fp_line (start -2.84 4.35) (end -2.34 4.35) (layer F.SilkS) (width 0.12))
  (fp_line (start -3.04 -4.9) (end -3.04 4.55) (layer F.CrtYd) (width 0.05))
  (fp_line (start -3.04 4.55) (end 33.53 4.55) (layer F.CrtYd) (width 0.05))
  (fp_line (start 33.53 4.55) (end 33.53 -4.9) (layer F.CrtYd) (width 0.05))
  (fp_line (start 33.53 -4.9) (end -3.04 -4.9) (layer F.CrtYd) (width 0.05))
  (pad 1 thru_hole rect (at 0 0) (size 2.1 2.1) (drill 1.1) (layers *.Cu *.Mask))
  (pad 2 thru_hole circle (at 5.08 0) (size 2.1 2.1) (drill 1.1) (layers *.Cu *.Mask))
  (pad 3 thru_hole circle (at 10.16 0) (size 2.1 2.1) (drill 1.1) (layers *.Cu *.Mask))
  (pad 4 thru_hole circle (at 15.24 0) (size 2.1 2.1) (drill 1.1) (layers *.Cu *.Mask))
  (pad 5 thru_hole circle (at 20.32 0) (size 2.1 2.1) (drill 1.1) (layers *.Cu *.Mask))
  (pad 6 thru_hole circle (at 25.4 0) (size 2.1 2.1) (drill 1.1) (layers *.Cu *.Mask))
  (pad 7 thru_hole circle (at 30.48 0) (size 2.1 2.1) (drill 1.1) (layers *.Cu *.Mask))
  (fp_text user %R (at 15.24 -5.46) (layer F.Fab)
    (effects (font (size 1 1) (thickness 0.15)))
  )
  (model ${KICAD6_3DMODEL_DIR}/TerminalBlock_RND.3dshapes/TerminalBlock_RND_205-00237_1x07_P5.08mm_Horizontal.wrl
    (at (xyz 0 0 0))
    (scale (xyz 1 1 1))
    (rotate (xyz 0 0 0))
  )
)