(module TerminalBlock_RND_205-00283_1x09_P5.00mm_Vertical (layer F.Cu) (tedit 5B294ECF)
  (descr "terminal block RND 205-00085, vertical (cable from top), 9 pins, pitch 5mm, size 45x10mm^2, drill diamater 1.3mm, pad diameter 2.5mm, see http://cdn-reichelt.de/documents/datenblatt/C151/RND_205-00276_DB_EN.pdf, script-generated with , script-generated using https://github.com/pointhi/kicad-footprint-generator/scripts/TerminalBlock_RND")
  (tags "THT terminal block RND 205-00085 vertical pitch 5mm size 45x10mm^2 drill 1.3mm pad 2.5mm")
  (fp_text reference REF** (at 20 -3.36) (layer F.SilkS)
    (effects (font (size 1 1) (thickness 0.15)))
  )
  (fp_text value TerminalBlock_RND_205-00283_1x09_P5.00mm_Vertical (at 20 8.76) (layer F.Fab)
    (effects (font (size 1 1) (thickness 0.15)))
  )
  (fp_line (start -2.5 -2.3) (end 42.5 -2.3) (layer F.Fab) (width 0.1))
  (fp_line (start 42.5 -2.3) (end 42.5 7.7) (layer F.Fab) (width 0.1))
  (fp_line (start 42.5 7.7) (end -0.5 7.7) (layer F.Fab) (width 0.1))
  (fp_line (start -0.5 7.7) (end -2.5 5.7) (layer F.Fab) (width 0.1))
  (fp_line (start -2.5 5.7) (end -2.5 -2.3) (layer F.Fab) (width 0.1))
  (fp_line (start -2.5 4.2) (end 42.5 4.2) (layer F.Fab) (width 0.1))
  (fp_line (start -2.56 4.2) (end 42.56 4.2) (layer F.SilkS) (width 0.12))
  (fp_line (start -2.56 -2.36) (end 42.56 -2.36) (layer F.SilkS) (width 0.12))
  (fp_line (start -2.56 7.76) (end 42.56 7.76) (layer F.SilkS) (width 0.12))
  (fp_line (start -2.56 -2.36) (end -2.56 7.76) (layer F.SilkS) (width 0.12))
  (fp_line (start 42.56 -2.36) (end 42.56 7.76) (layer F.SilkS) (width 0.12))
  (fp_line (start -2.05 -1.3) (end -1.49 -1.3) (layer F.SilkS) (width 0.12))
  (fp_line (start 1.49 -1.3) (end 2.05 -1.3) (layer F.SilkS) (width 0.12))
  (fp_line (start -2.05 4.1) (end 2.05 4.1) (layer F.SilkS) (width 0.12))
  (fp_line (start -2.05 -1.3) (end -2.05 4.1) (layer F.SilkS) (width 0.12))
  (fp_line (start 2.05 -1.3) (end 2.05 4.1) (layer F.SilkS) (width 0.12))
  (fp_line (start -2.05 -1.3) (end -2.05 4.1) (layer F.Fab) (width 0.1))
  (fp_line (start -2.05 4.1) (end 2.05 4.1) (layer F.Fab) (width 0.1))
  (fp_line (start 2.05 4.1) (end 2.05 -1.3) (layer F.Fab) (width 0.1))
  (fp_line (start 2.05 -1.3) (end -2.05 -1.3) (layer F.Fab) (width 0.1))
  (fp_line (start 2.95 -1.3) (end 4.117 -1.3) (layer F.SilkS) (width 0.12))
  (fp_line (start 5.884 -1.3) (end 7.05 -1.3) (layer F.SilkS) (width 0.12))
  (fp_line (start 2.95 4.1) (end 7.05 4.1) (layer F.SilkS) (width 0.12))
  (fp_line (start 2.95 -1.3) (end 2.95 4.1) (layer F.SilkS) (width 0.12))
  (fp_line (start 7.05 -1.3) (end 7.05 4.1) (layer F.SilkS) (width 0.12))
  (fp_line (start 2.95 -1.3) (end 2.95 4.1) (layer F.Fab) (width 0.1))
  (fp_line (start 2.95 4.1) (end 7.05 4.1) (layer F.Fab) (width 0.1))
  (fp_line (start 7.05 4.1) (end 7.05 -1.3) (layer F.Fab) (width 0.1))
  (fp_line (start 7.05 -1.3) (end 2.95 -1.3) (layer F.Fab) (width 0.1))
  (fp_line (start 7.95 -1.3) (end 9.117 -1.3) (layer F.SilkS) (width 0.12))
  (fp_line (start 10.884 -1.3) (end 12.05 -1.3) (layer F.SilkS) (width 0.12))
  (fp_line (start 7.95 4.1) (end 12.05 4.1) (layer F.SilkS) (width 0.12))
  (fp_line (start 7.95 -1.3) (end 7.95 4.1) (layer F.SilkS) (width 0.12))
  (fp_line (start 12.05 -1.3) (end 12.05 4.1) (layer F.SilkS) (width 0.12))
  (fp_line (start 7.95 -1.3) (end 7.95 4.1) (layer F.Fab) (width 0.1))
  (fp_line (start 7.95 4.1) (end 12.05 4.1) (layer F.Fab) (width 0.1))
  (fp_line (start 12.05 4.1) (end 12.05 -1.3) (layer F.Fab) (width 0.1))
  (fp_line (start 12.05 -1.3) (end 7.95 -1.3) (layer F.Fab) (width 0.1))
  (fp_line (start 12.95 -1.3) (end 14.117 -1.3) (layer F.SilkS) (width 0.12))
  (fp_line (start 15.884 -1.3) (end 17.05 -1.3) (layer F.SilkS) (width 0.12))
  (fp_line (start 12.95 4.1) (end 17.05 4.1) (layer F.SilkS) (width 0.12))
  (fp_line (start 12.95 -1.3) (end 12.95 4.1) (layer F.SilkS) (width 0.12))
  (fp_line (start 17.05 -1.3) (end 17.05 4.1) (layer F.SilkS) (width 0.12))
  (fp_line (start 12.95 -1.3) (end 12.95 4.1) (layer F.Fab) (width 0.1))
  (fp_line (start 12.95 4.1) (end 17.05 4.1) (layer F.Fab) (width 0.1))
  (fp_line (start 17.05 4.1) (end 17.05 -1.3) (layer F.Fab) (width 0.1))
  (fp_line (start 17.05 -1.3) (end 12.95 -1.3) (layer F.Fab) (width 0.1))
  (fp_line (start 17.95 -1.3) (end 19.117 -1.3) (layer F.SilkS) (width 0.12))
  (fp_line (start 20.884 -1.3) (end 22.05 -1.3) (layer F.SilkS) (width 0.12))
  (fp_line (start 17.95 4.1) (end 22.05 4.1) (layer F.SilkS) (width 0.12))
  (fp_line (start 17.95 -1.3) (end 17.95 4.1) (layer F.SilkS) (width 0.12))
  (fp_line (start 22.05 -1.3) (end 22.05 4.1) (layer F.SilkS) (width 0.12))
  (fp_line (start 17.95 -1.3) (end 17.95 4.1) (layer F.Fab) (width 0.1))
  (fp_line (start 17.95 4.1) (end 22.05 4.1) (layer F.Fab) (width 0.1))
  (fp_line (start 22.05 4.1) (end 22.05 -1.3) (layer F.Fab) (width 0.1))
  (fp_line (start 22.05 -1.3) (end 17.95 -1.3) (layer F.Fab) (width 0.1))
  (fp_line (start 22.95 -1.3) (end 24.117 -1.3) (layer F.SilkS) (width 0.12))
  (fp_line (start 25.884 -1.3) (end 27.05 -1.3) (layer F.SilkS) (width 0.12))
  (fp_line (start 22.95 4.1) (end 27.05 4.1) (layer F.SilkS) (width 0.12))
  (fp_line (start 22.95 -1.3) (end 22.95 4.1) (layer F.SilkS) (width 0.12))
  (fp_line (start 27.05 -1.3) (end 27.05 4.1) (layer F.SilkS) (width 0.12))
  (fp_line (start 22.95 -1.3) (end 22.95 4.1) (layer F.Fab) (width 0.1))
  (fp_line (start 22.95 4.1) (end 27.05 4.1) (layer F.Fab) (width 0.1))
  (fp_line (start 27.05 4.1) (end 27.05 -1.3) (layer F.Fab) (width 0.1))
  (fp_line (start 27.05 -1.3) (end 22.95 -1.3) (layer F.Fab) (width 0.1))
  (fp_line (start 27.95 -1.3) (end 29.117 -1.3) (layer F.SilkS) (width 0.12))
  (fp_line (start 30.884 -1.3) (end 32.05 -1.3) (layer F.SilkS) (width 0.12))
  (fp_line (start 27.95 4.1) (end 32.05 4.1) (layer F.SilkS) (width 0.12))
  (fp_line (start 27.95 -1.3) (end 27.95 4.1) (layer F.SilkS) (width 0.12))
  (fp_line (start 32.05 -1.3) (end 32.05 4.1) (layer F.SilkS) (width 0.12))
  (fp_line (start 27.95 -1.3) (end 27.95 4.1) (layer F.Fab) (width 0.1))
  (fp_line (start 27.95 4.1) (end 32.05 4.1) (layer F.Fab) (width 0.1))
  (fp_line (start 32.05 4.1) (end 32.05 -1.3) (layer F.Fab) (width 0.1))
  (fp_line (start 32.05 -1.3) (end 27.95 -1.3) (layer F.Fab) (width 0.1))
  (fp_line (start 32.95 -1.3) (end 34.117 -1.3) (layer F.SilkS) (width 0.12))
  (fp_line (start 35.884 -1.3) (end 37.05 -1.3) (layer F.SilkS) (width 0.12))
  (fp_line (start 32.95 4.1) (end 37.05 4.1) (layer F.SilkS) (width 0.12))
  (fp_line (start 32.95 -1.3) (end 32.95 4.1) (layer F.SilkS) (width 0.12))
  (fp_line (start 37.05 -1.3) (end 37.05 4.1) (layer F.SilkS) (width 0.12))
  (fp_line (start 32.95 -1.3) (end 32.95 4.1) (layer F.Fab) (width 0.1))
  (fp_line (start 32.95 4.1) (end 37.05 4.1) (layer F.Fab) (width 0.1))
  (fp_line (start 37.05 4.1) (end 37.05 -1.3) (layer F.Fab) (width 0.1))
  (fp_line (start 37.05 -1.3) (end 32.95 -1.3) (layer F.Fab) (width 0.1))
  (fp_line (start 37.95 -1.3) (end 39.117 -1.3) (layer F.SilkS) (width 0.12))
  (fp_line (start 40.884 -1.3) (end 42.05 -1.3) (layer F.SilkS) (width 0.12))
  (fp_line (start 37.95 4.1) (end 42.05 4.1) (layer F.SilkS) (width 0.12))
  (fp_line (start 37.95 -1.3) (end 37.95 4.1) (layer F.SilkS) (width 0.12))
  (fp_line (start 42.05 -1.3) (end 42.05 4.1) (layer F.SilkS) (width 0.12))
  (fp_line (start 37.95 -1.3) (end 37.95 4.1) (layer F.Fab) (width 0.1))
  (fp_line (start 37.95 4.1) (end 42.05 4.1) (layer F.Fab) (width 0.1))
  (fp_line (start 42.05 4.1) (end 42.05 -1.3) (layer F.Fab) (width 0.1))
  (fp_line (start 42.05 -1.3) (end 37.95 -1.3) (layer F.Fab) (width 0.1))
  (fp_line (start -2.8 5.76) (end -2.8 8) (layer F.SilkS) (width 0.12))
  (fp_line (start -2.8 8) (end -0.8 8) (layer F.SilkS) (width 0.12))
  (fp_line (start -3 -2.8) (end -3 8.2) (layer F.CrtYd) (width 0.05))
  (fp_line (start -3 8.2) (end 43 8.2) (layer F.CrtYd) (width 0.05))
  (fp_line (start 43 8.2) (end 43 -2.8) (layer F.CrtYd) (width 0.05))
  (fp_line (start 43 -2.8) (end -3 -2.8) (layer F.CrtYd) (width 0.05))
  (pad 1 thru_hole rect (at 0 0) (size 2.5 2.5) (drill 1.3) (layers *.Cu *.Mask))
  (pad 2 thru_hole circle (at 5 0) (size 2.5 2.5) (drill 1.3) (layers *.Cu *.Mask))
  (pad 3 thru_hole circle (at 10 0) (size 2.5 2.5) (drill 1.3) (layers *.Cu *.Mask))
  (pad 4 thru_hole circle (at 15 0) (size 2.5 2.5) (drill 1.3) (layers *.Cu *.Mask))
  (pad 5 thru_hole circle (at 20 0) (size 2.5 2.5) (drill 1.3) (layers *.Cu *.Mask))
  (pad 6 thru_hole circle (at 25 0) (size 2.5 2.5) (drill 1.3) (layers *.Cu *.Mask))
  (pad 7 thru_hole circle (at 30 0) (size 2.5 2.5) (drill 1.3) (layers *.Cu *.Mask))
  (pad 8 thru_hole circle (at 35 0) (size 2.5 2.5) (drill 1.3) (layers *.Cu *.Mask))
  (pad 9 thru_hole circle (at 40 0) (size 2.5 2.5) (drill 1.3) (layers *.Cu *.Mask))
  (fp_text user %R (at 20 5.7) (layer F.Fab)
    (effects (font (size 1 1) (thickness 0.15)))
  )
  (model ${KICAD6_3DMODEL_DIR}/TerminalBlock_RND.3dshapes/TerminalBlock_RND_205-00283_1x09_P5.00mm_Vertical.wrl
    (at (xyz 0 0 0))
    (scale (xyz 1 1 1))
    (rotate (xyz 0 0 0))
  )
)