(module TerminalBlock_RND_205-00276_1x02_P5.00mm_Vertical (layer F.Cu) (tedit 5B294ECF)
  (descr "terminal block RND 205-00078, vertical (cable from top), 2 pins, pitch 5mm, size 10x10mm^2, drill diamater 1.3mm, pad diameter 2.5mm, see http://cdn-reichelt.de/documents/datenblatt/C151/RND_205-00276_DB_EN.pdf, script-generated with , script-generated using https://github.com/pointhi/kicad-footprint-generator/scripts/TerminalBlock_RND")
  (tags "THT terminal block RND 205-00078 vertical pitch 5mm size 10x10mm^2 drill 1.3mm pad 2.5mm")
  (fp_text reference REF** (at 2.5 -3.36) (layer F.SilkS)
    (effects (font (size 1 1) (thickness 0.15)))
  )
  (fp_text value TerminalBlock_RND_205-00276_1x02_P5.00mm_Vertical (at 2.5 8.76) (layer F.Fab)
    (effects (font (size 1 1) (thickness 0.15)))
  )
  (fp_line (start -2.5 -2.3) (end 7.5 -2.3) (layer F.Fab) (width 0.1))
  (fp_line (start 7.5 -2.3) (end 7.5 7.7) (layer F.Fab) (width 0.1))
  (fp_line (start 7.5 7.7) (end -0.5 7.7) (layer F.Fab) (width 0.1))
  (fp_line (start -0.5 7.7) (end -2.5 5.7) (layer F.Fab) (width 0.1))
  (fp_line (start -2.5 5.7) (end -2.5 -2.3) (layer F.Fab) (width 0.1))
  (fp_line (start -2.5 4.2) (end 7.5 4.2) (layer F.Fab) (width 0.1))
  (fp_line (start -2.56 4.2) (end 7.56 4.2) (layer F.SilkS) (width 0.12))
  (fp_line (start -2.56 -2.36) (end 7.56 -2.36) (layer F.SilkS) (width 0.12))
  (fp_line (start -2.56 7.76) (end 7.56 7.76) (layer F.SilkS) (width 0.12))
  (fp_line (start -2.56 -2.36) (end -2.56 7.76) (layer F.SilkS) (width 0.12))
  (fp_line (start 7.56 -2.36) (end 7.56 7.76) (layer F.SilkS) (width 0.12))
  (fp_line (start -2.05 -1.3) (end -1.49 -1.3) (layer F.SilkS) (width 0.12))
  (fp_line (start 1.49 -1.3) (end 2.05 -1.3) (layer F.SilkS) (width 0.12))
  (fp_line (start -2.05 4.1) (end 2.05 4.1) (layer F.SilkS) (width 0.12))
  (fp_line (start -2.05 -1.3) (end -2.05 4.1) (layer F.SilkS) (width 0.12))
  (fp_line (start 2.05 -1.3) (end 2.05 4.1) (layer F.SilkS) (width 0.12))
  (fp_line (start -2.05 -1.3) (end -2.05 4.1) (layer F.Fab) (width 0.1))
  (fp_line (start -2.05 4.1) (end 2.05 4.1) (layer F.Fab) (width 0.1))
  (fp_line (start 2.05 4.1) (end 2.05 -1.3) (layer F.Fab) (width 0.1))
  (fp_line (start 2.05 -1.3) (end -2.05 -1.3) (layer F.Fab) (width 0.1))
  (fp_line (start 2.95 -1.3) (end 4.117 -1.3) (layer F.SilkS) (width 0.12))
  (fp_line (start 5.884 -1.3) (end 7.05 -1.3) (layer F.SilkS) (width 0.12))
  (fp_line (start 2.95 4.1) (end 7.05 4.1) (layer F.SilkS) (width 0.12))
  (fp_line (start 2.95 -1.3) (end 2.95 4.1) (layer F.SilkS) (width 0.12))
  (fp_line (start 7.05 -1.3) (end 7.05 4.1) (layer F.SilkS) (width 0.12))
  (fp_line (start 2.95 -1.3) (end 2.95 4.1) (layer F.Fab) (width 0.1))
  (fp_line (start 2.95 4.1) (end 7.05 4.1) (layer F.Fab) (width 0.1))
  (fp_line (start 7.05 4.1) (end 7.05 -1.3) (layer F.Fab) (width 0.1))
  (fp_line (start 7.05 -1.3) (end 2.95 -1.3) (layer F.Fab) (width 0.1))
  (fp_line (start -2.8 5.76) (end -2.8 8) (layer F.SilkS) (width 0.12))
  (fp_line (start -2.8 8) (end -0.8 8) (layer F.SilkS) (width 0.12))
  (fp_line (start -3 -2.8) (end -3 8.2) (layer F.CrtYd) (width 0.05))
  (fp_line (start -3 8.2) (end 8 8.2) (layer F.CrtYd) (width 0.05))
  (fp_line (start 8 8.2) (end 8 -2.8) (layer F.CrtYd) (width 0.05))
  (fp_line (start 8 -2.8) (end -3 -2.8) (layer F.CrtYd) (width 0.05))
  (pad 1 thru_hole rect (at 0 0) (size 2.5 2.5) (drill 1.3) (layers *.Cu *.Mask))
  (pad 2 thru_hole circle (at 5 0) (size 2.5 2.5) (drill 1.3) (layers *.Cu *.Mask))
  (fp_text user %R (at 2.5 5.7) (layer F.Fab)
    (effects (font (size 1 1) (thickness 0.15)))
  )
  (model ${KICAD6_3DMODEL_DIR}/TerminalBlock_RND.3dshapes/TerminalBlock_RND_205-00276_1x02_P5.00mm_Vertical.wrl
    (at (xyz 0 0 0))
    (scale (xyz 1 1 1))
    (rotate (xyz 0 0 0))
  )
)