(module TerminalBlock_RND_205-00017_1x07_P5.00mm_Horizontal (layer F.Cu) (tedit 5B294F57)
  (descr "terminal block RND 205-00017, 7 pins, pitch 5mm, size 35x7.6mm^2, drill diamater 1.3mm, pad diameter 2.5mm, see http://cdn-reichelt.de/documents/datenblatt/C151/RND_205-00012_DB_EN.pdf, script-generated using https://github.com/pointhi/kicad-footprint-generator/scripts/TerminalBlock_RND")
  (tags "THT terminal block RND 205-00017 pitch 5mm size 35x7.6mm^2 drill 1.3mm pad 2.5mm")
  (fp_text reference REF** (at 15 -5.16) (layer F.SilkS)
    (effects (font (size 1 1) (thickness 0.15)))
  )
  (fp_text value TerminalBlock_RND_205-00017_1x07_P5.00mm_Horizontal (at 15 4.56) (layer F.Fab)
    (effects (font (size 1 1) (thickness 0.15)))
  )
  (fp_arc (start 0 0) (end 0 1.68) (angle -28) (layer F.SilkS) (width 0.12))
  (fp_arc (start 0 0) (end 1.484 0.789) (angle -56) (layer F.SilkS) (width 0.12))
  (fp_arc (start 0 0) (end 0.789 -1.484) (angle -56) (layer F.SilkS) (width 0.12))
  (fp_arc (start 0 0) (end -1.484 -0.789) (angle -56) (layer F.SilkS) (width 0.12))
  (fp_arc (start 0 0) (end -0.789 1.484) (angle -29) (layer F.SilkS) (width 0.12))
  (fp_circle (center 0 0) (end 1.5 0) (layer F.Fab) (width 0.1))
  (fp_circle (center 0 -3) (end 0.55 -3) (layer F.Fab) (width 0.1))
  (fp_circle (center 0 -3) (end 0.55 -3) (layer F.SilkS) (width 0.12))
  (fp_circle (center 5 0) (end 6.5 0) (layer F.Fab) (width 0.1))
  (fp_circle (center 5 0) (end 6.68 0) (layer F.SilkS) (width 0.12))
  (fp_circle (center 5 -3) (end 5.55 -3) (layer F.Fab) (width 0.1))
  (fp_circle (center 5 -3) (end 5.55 -3) (layer F.SilkS) (width 0.12))
  (fp_circle (center 10 0) (end 11.5 0) (layer F.Fab) (width 0.1))
  (fp_circle (center 10 0) (end 11.68 0) (layer F.SilkS) (width 0.12))
  (fp_circle (center 10 -3) (end 10.55 -3) (layer F.Fab) (width 0.1))
  (fp_circle (center 10 -3) (end 10.55 -3) (layer F.SilkS) (width 0.12))
  (fp_circle (center 15 0) (end 16.5 0) (layer F.Fab) (width 0.1))
  (fp_circle (center 15 0) (end 16.68 0) (layer F.SilkS) (width 0.12))
  (fp_circle (center 15 -3) (end 15.55 -3) (layer F.Fab) (width 0.1))
  (fp_circle (center 15 -3) (end 15.55 -3) (layer F.SilkS) (width 0.12))
  (fp_circle (center 20 0) (end 21.5 0) (layer F.Fab) (width 0.1))
  (fp_circle (center 20 0) (end 21.68 0) (layer F.SilkS) (width 0.12))
  (fp_circle (center 20 -3) (end 20.55 -3) (layer F.Fab) (width 0.1))
  (fp_circle (center 20 -3) (end 20.55 -3) (layer F.SilkS) (width 0.12))
  (fp_circle (center 25 0) (end 26.5 0) (layer F.Fab) (width 0.1))
  (fp_circle (center 25 0) (end 26.68 0) (layer F.SilkS) (width 0.12))
  (fp_circle (center 25 -3) (end 25.55 -3) (layer F.Fab) (width 0.1))
  (fp_circle (center 25 -3) (end 25.55 -3) (layer F.SilkS) (width 0.12))
  (fp_circle (center 30 0) (end 31.5 0) (layer F.Fab) (width 0.1))
  (fp_circle (center 30 0) (end 31.68 0) (layer F.SilkS) (width 0.12))
  (fp_circle (center 30 -3) (end 30.55 -3) (layer F.Fab) (width 0.1))
  (fp_circle (center 30 -3) (end 30.55 -3) (layer F.SilkS) (width 0.12))
  (fp_line (start -2.5 -4.1) (end 32.5 -4.1) (layer F.Fab) (width 0.1))
  (fp_line (start 32.5 -4.1) (end 32.5 3.5) (layer F.Fab) (width 0.1))
  (fp_line (start 32.5 3.5) (end -1.9 3.5) (layer F.Fab) (width 0.1))
  (fp_line (start -1.9 3.5) (end -2.5 2.9) (layer F.Fab) (width 0.1))
  (fp_line (start -2.5 2.9) (end -2.5 -4.1) (layer F.Fab) (width 0.1))
  (fp_line (start -2.5 2.9) (end 32.5 2.9) (layer F.Fab) (width 0.1))
  (fp_line (start -2.56 2.9) (end 32.56 2.9) (layer F.SilkS) (width 0.12))
  (fp_line (start -2.5 2.3) (end 32.5 2.3) (layer F.Fab) (width 0.1))
  (fp_line (start -2.56 2.3) (end 32.56 2.3) (layer F.SilkS) (width 0.12))
  (fp_line (start -2.5 -2.4) (end 32.5 -2.4) (layer F.Fab) (width 0.1))
  (fp_line (start -2.56 -2.4) (end 32.56 -2.4) (layer F.SilkS) (width 0.12))
  (fp_line (start -2.56 -4.16) (end 32.56 -4.16) (layer F.SilkS) (width 0.12))
  (fp_line (start -2.56 3.561) (end 32.56 3.561) (layer F.SilkS) (width 0.12))
  (fp_line (start -2.56 -4.16) (end -2.56 3.561) (layer F.SilkS) (width 0.12))
  (fp_line (start 32.56 -4.16) (end 32.56 3.561) (layer F.SilkS) (width 0.12))
  (fp_line (start 1.138 -0.955) (end -0.955 1.138) (layer F.Fab) (width 0.1))
  (fp_line (start 0.955 -1.138) (end -1.138 0.955) (layer F.Fab) (width 0.1))
  (fp_line (start 6.138 -0.955) (end 4.046 1.138) (layer F.Fab) (width 0.1))
  (fp_line (start 5.955 -1.138) (end 3.863 0.955) (layer F.Fab) (width 0.1))
  (fp_line (start 6.275 -1.069) (end 6.181 -0.976) (layer F.SilkS) (width 0.12))
  (fp_line (start 3.99 1.216) (end 3.931 1.274) (layer F.SilkS) (width 0.12))
  (fp_line (start 6.07 -1.275) (end 6.011 -1.216) (layer F.SilkS) (width 0.12))
  (fp_line (start 3.82 0.976) (end 3.726 1.069) (layer F.SilkS) (width 0.12))
  (fp_line (start 11.138 -0.955) (end 9.046 1.138) (layer F.Fab) (width 0.1))
  (fp_line (start 10.955 -1.138) (end 8.863 0.955) (layer F.Fab) (width 0.1))
  (fp_line (start 11.275 -1.069) (end 11.181 -0.976) (layer F.SilkS) (width 0.12))
  (fp_line (start 8.99 1.216) (end 8.931 1.274) (layer F.SilkS) (width 0.12))
  (fp_line (start 11.07 -1.275) (end 11.011 -1.216) (layer F.SilkS) (width 0.12))
  (fp_line (start 8.82 0.976) (end 8.726 1.069) (layer F.SilkS) (width 0.12))
  (fp_line (start 16.138 -0.955) (end 14.046 1.138) (layer F.Fab) (width 0.1))
  (fp_line (start 15.955 -1.138) (end 13.863 0.955) (layer F.Fab) (width 0.1))
  (fp_line (start 16.275 -1.069) (end 16.181 -0.976) (layer F.SilkS) (width 0.12))
  (fp_line (start 13.99 1.216) (end 13.931 1.274) (layer F.SilkS) (width 0.12))
  (fp_line (start 16.07 -1.275) (end 16.011 -1.216) (layer F.SilkS) (width 0.12))
  (fp_line (start 13.82 0.976) (end 13.726 1.069) (layer F.SilkS) (width 0.12))
  (fp_line (start 21.138 -0.955) (end 19.046 1.138) (layer F.Fab) (width 0.1))
  (fp_line (start 20.955 -1.138) (end 18.863 0.955) (layer F.Fab) (width 0.1))
  (fp_line (start 21.275 -1.069) (end 21.181 -0.976) (layer F.SilkS) (width 0.12))
  (fp_line (start 18.99 1.216) (end 18.931 1.274) (layer F.SilkS) (width 0.12))
  (fp_line (start 21.07 -1.275) (end 21.011 -1.216) (layer F.SilkS) (width 0.12))
  (fp_line (start 18.82 0.976) (end 18.726 1.069) (layer F.SilkS) (width 0.12))
  (fp_line (start 26.138 -0.955) (end 24.046 1.138) (layer F.Fab) (width 0.1))
  (fp_line (start 25.955 -1.138) (end 23.863 0.955) (layer F.Fab) (width 0.1))
  (fp_line (start 26.275 -1.069) (end 26.181 -0.976) (layer F.SilkS) (width 0.12))
  (fp_line (start 23.99 1.216) (end 23.931 1.274) (layer F.SilkS) (width 0.12))
  (fp_line (start 26.07 -1.275) (end 26.011 -1.216) (layer F.SilkS) (width 0.12))
  (fp_line (start 23.82 0.976) (end 23.726 1.069) (layer F.SilkS) (width 0.12))
  (fp_line (start 31.138 -0.955) (end 29.046 1.138) (layer F.Fab) (width 0.1))
  (fp_line (start 30.955 -1.138) (end 28.863 0.955) (layer F.Fab) (width 0.1))
  (fp_line (start 31.275 -1.069) (end 31.181 -0.976) (layer F.SilkS) (width 0.12))
  (fp_line (start 28.99 1.216) (end 28.931 1.274) (layer F.SilkS) (width 0.12))
  (fp_line (start 31.07 -1.275) (end 31.011 -1.216) (layer F.SilkS) (width 0.12))
  (fp_line (start 28.82 0.976) (end 28.726 1.069) (layer F.SilkS) (width 0.12))
  (fp_line (start -2.8 2.96) (end -2.8 3.8) (layer F.SilkS) (width 0.12))
  (fp_line (start -2.8 3.8) (end -2.2 3.8) (layer F.SilkS) (width 0.12))
  (fp_line (start -3 -4.6) (end -3 4) (layer F.CrtYd) (width 0.05))
  (fp_line (start -3 4) (end 33 4) (layer F.CrtYd) (width 0.05))
  (fp_line (start 33 4) (end 33 -4.6) (layer F.CrtYd) (width 0.05))
  (fp_line (start 33 -4.6) (end -3 -4.6) (layer F.CrtYd) (width 0.05))
  (pad 1 thru_hole rect (at 0 0) (size 2.5 2.5) (drill 1.3) (layers *.Cu *.Mask))
  (pad 2 thru_hole circle (at 5 0) (size 2.5 2.5) (drill 1.3) (layers *.Cu *.Mask))
  (pad 3 thru_hole circle (at 10 0) (size 2.5 2.5) (drill 1.3) (layers *.Cu *.Mask))
  (pad 4 thru_hole circle (at 15 0) (size 2.5 2.5) (drill 1.3) (layers *.Cu *.Mask))
  (pad 5 thru_hole circle (at 20 0) (size 2.5 2.5) (drill 1.3) (layers *.Cu *.Mask))
  (pad 6 thru_hole circle (at 25 0) (size 2.5 2.5) (drill 1.3) (layers *.Cu *.Mask))
  (pad 7 thru_hole circle (at 30 0) (size 2.5 2.5) (drill 1.3) (layers *.Cu *.Mask))
  (fp_text user %R (at 15 -5.16) (layer F.Fab)
    (effects (font (size 1 1) (thickness 0.15)))
  )
  (model ${KICAD6_3DMODEL_DIR}/TerminalBlock_RND.3dshapes/TerminalBlock_RND_205-00017_1x07_P5.00mm_Horizontal.wrl
    (at (xyz 0 0 0))
    (scale (xyz 1 1 1))
    (rotate (xyz 0 0 0))
  )
)