(module TerminalBlock_RND_205-00062_1x08_P5.00mm_45Degree (layer F.Cu) (tedit 5B294EF8)
  (descr "terminal block RND 205-00062, 45Degree (cable under 45degree), 8 pins, pitch 5mm, size 40x12.6mm^2, drill diamater 1.3mm, pad diameter 2.5mm, see http://cdn-reichelt.de/documents/datenblatt/C151/RND_205-00056_DB_EN.pdf, script-generated with , script-generated using https://github.com/pointhi/kicad-footprint-generator/scripts/TerminalBlock_RND")
  (tags "THT terminal block RND 205-00062 45Degree pitch 5mm size 40x12.6mm^2 drill 1.3mm pad 2.5mm")
  (fp_text reference REF** (at 17.5 -7.16) (layer F.SilkS)
    (effects (font (size 1 1) (thickness 0.15)))
  )
  (fp_text value TerminalBlock_RND_205-00062_1x08_P5.00mm_45Degree (at 17.5 7.56) (layer F.Fab)
    (effects (font (size 1 1) (thickness 0.15)))
  )
  (fp_arc (start 0 -4.301) (end 1.601 -4.7) (angle -151.999413) (layer F.Fab) (width 0.1))
  (fp_arc (start 0 -5.099) (end 1.6 -4.7) (angle 151.999413) (layer F.Fab) (width 0.1))
  (fp_arc (start 0 -4.301) (end 1.601 -4.7) (angle -151.999413) (layer F.SilkS) (width 0.12))
  (fp_arc (start 0 -5.099) (end 1.6 -4.7) (angle 151.999413) (layer F.SilkS) (width 0.12))
  (fp_arc (start 5 -4.301) (end 6.601 -4.7) (angle -151.999413) (layer F.Fab) (width 0.1))
  (fp_arc (start 5 -5.099) (end 6.6 -4.7) (angle 151.999413) (layer F.Fab) (width 0.1))
  (fp_arc (start 5 -4.301) (end 6.601 -4.7) (angle -151.999413) (layer F.SilkS) (width 0.12))
  (fp_arc (start 5 -5.099) (end 6.6 -4.7) (angle 151.999413) (layer F.SilkS) (width 0.12))
  (fp_arc (start 10 -4.301) (end 11.601 -4.7) (angle -151.999413) (layer F.Fab) (width 0.1))
  (fp_arc (start 10 -5.099) (end 11.6 -4.7) (angle 151.999413) (layer F.Fab) (width 0.1))
  (fp_arc (start 10 -4.301) (end 11.601 -4.7) (angle -151.999413) (layer F.SilkS) (width 0.12))
  (fp_arc (start 10 -5.099) (end 11.6 -4.7) (angle 151.999413) (layer F.SilkS) (width 0.12))
  (fp_arc (start 15 -4.301) (end 16.601 -4.7) (angle -151.999413) (layer F.Fab) (width 0.1))
  (fp_arc (start 15 -5.099) (end 16.6 -4.7) (angle 151.999413) (layer F.Fab) (width 0.1))
  (fp_arc (start 15 -4.301) (end 16.601 -4.7) (angle -151.999413) (layer F.SilkS) (width 0.12))
  (fp_arc (start 15 -5.099) (end 16.6 -4.7) (angle 151.999413) (layer F.SilkS) (width 0.12))
  (fp_arc (start 20 -4.301) (end 21.601 -4.7) (angle -151.999413) (layer F.Fab) (width 0.1))
  (fp_arc (start 20 -5.099) (end 21.6 -4.7) (angle 151.999413) (layer F.Fab) (width 0.1))
  (fp_arc (start 20 -4.301) (end 21.601 -4.7) (angle -151.999413) (layer F.SilkS) (width 0.12))
  (fp_arc (start 20 -5.099) (end 21.6 -4.7) (angle 151.999413) (layer F.SilkS) (width 0.12))
  (fp_arc (start 25 -4.301) (end 26.601 -4.7) (angle -151.999413) (layer F.Fab) (width 0.1))
  (fp_arc (start 25 -5.099) (end 26.6 -4.7) (angle 151.999413) (layer F.Fab) (width 0.1))
  (fp_arc (start 25 -4.301) (end 26.601 -4.7) (angle -151.999413) (layer F.SilkS) (width 0.12))
  (fp_arc (start 25 -5.099) (end 26.6 -4.7) (angle 151.999413) (layer F.SilkS) (width 0.12))
  (fp_arc (start 30 -4.301) (end 31.601 -4.7) (angle -151.999413) (layer F.Fab) (width 0.1))
  (fp_arc (start 30 -5.099) (end 31.6 -4.7) (angle 151.999413) (layer F.Fab) (width 0.1))
  (fp_arc (start 30 -4.301) (end 31.601 -4.7) (angle -151.999413) (layer F.SilkS) (width 0.12))
  (fp_arc (start 30 -5.099) (end 31.6 -4.7) (angle 151.999413) (layer F.SilkS) (width 0.12))
  (fp_arc (start 35 -4.301) (end 36.601 -4.7) (angle -151.999413) (layer F.Fab) (width 0.1))
  (fp_arc (start 35 -5.099) (end 36.6 -4.7) (angle 151.999413) (layer F.Fab) (width 0.1))
  (fp_arc (start 35 -4.301) (end 36.601 -4.7) (angle -151.999413) (layer F.SilkS) (width 0.12))
  (fp_arc (start 35 -5.099) (end 36.6 -4.7) (angle 151.999413) (layer F.SilkS) (width 0.12))
  (fp_line (start -2.5 -6.1) (end 37.5 -6.1) (layer F.Fab) (width 0.1))
  (fp_line (start 37.5 -6.1) (end 37.5 6.5) (layer F.Fab) (width 0.1))
  (fp_line (start 37.5 6.5) (end -0.5 6.5) (layer F.Fab) (width 0.1))
  (fp_line (start -0.5 6.5) (end -2.5 4.5) (layer F.Fab) (width 0.1))
  (fp_line (start -2.5 4.5) (end -2.5 -6.1) (layer F.Fab) (width 0.1))
  (fp_line (start -2.5 -1.2) (end 37.5 -1.2) (layer F.Fab) (width 0.1))
  (fp_line (start -2.56 -1.201) (end -1.49 -1.201) (layer F.SilkS) (width 0.12))
  (fp_line (start 1.49 -1.201) (end 4 -1.201) (layer F.SilkS) (width 0.12))
  (fp_line (start 6.001 -1.201) (end 9 -1.201) (layer F.SilkS) (width 0.12))
  (fp_line (start 11.001 -1.201) (end 14 -1.201) (layer F.SilkS) (width 0.12))
  (fp_line (start 16.001 -1.201) (end 19 -1.201) (layer F.SilkS) (width 0.12))
  (fp_line (start 21.001 -1.201) (end 24 -1.201) (layer F.SilkS) (width 0.12))
  (fp_line (start 26.001 -1.201) (end 29 -1.201) (layer F.SilkS) (width 0.12))
  (fp_line (start 31.001 -1.201) (end 34 -1.201) (layer F.SilkS) (width 0.12))
  (fp_line (start 36.001 -1.201) (end 37.56 -1.201) (layer F.SilkS) (width 0.12))
  (fp_line (start -2.5 -3.3) (end 37.5 -3.3) (layer F.Fab) (width 0.1))
  (fp_line (start -2.56 -3.301) (end 37.56 -3.301) (layer F.SilkS) (width 0.12))
  (fp_line (start -2.56 -6.16) (end 37.56 -6.16) (layer F.SilkS) (width 0.12))
  (fp_line (start -2.56 6.56) (end 37.56 6.56) (layer F.SilkS) (width 0.12))
  (fp_line (start -2.56 -6.16) (end -2.56 6.56) (layer F.SilkS) (width 0.12))
  (fp_line (start 37.56 -6.16) (end 37.56 6.56) (layer F.SilkS) (width 0.12))
  (fp_line (start -1.5 -0.5) (end -1.49 -0.5) (layer F.SilkS) (width 0.12))
  (fp_line (start 1.49 -0.5) (end 1.5 -0.5) (layer F.SilkS) (width 0.12))
  (fp_line (start -1.5 4.5) (end 1.5 4.5) (layer F.SilkS) (width 0.12))
  (fp_line (start -1.5 -0.5) (end -1.5 4.5) (layer F.SilkS) (width 0.12))
  (fp_line (start 1.5 -0.5) (end 1.5 4.5) (layer F.SilkS) (width 0.12))
  (fp_line (start -1.5 -0.5) (end -1.5 4.5) (layer F.Fab) (width 0.1))
  (fp_line (start -1.5 4.5) (end 1.5 4.5) (layer F.Fab) (width 0.1))
  (fp_line (start 1.5 4.5) (end 1.5 -0.5) (layer F.Fab) (width 0.1))
  (fp_line (start 1.5 -0.5) (end -1.5 -0.5) (layer F.Fab) (width 0.1))
  (fp_line (start 3.5 -0.5) (end 3.57 -0.5) (layer F.SilkS) (width 0.12))
  (fp_line (start 6.431 -0.5) (end 6.5 -0.5) (layer F.SilkS) (width 0.12))
  (fp_line (start 3.5 4.5) (end 6.5 4.5) (layer F.SilkS) (width 0.12))
  (fp_line (start 3.5 -0.5) (end 3.5 -0.202) (layer F.SilkS) (width 0.12))
  (fp_line (start 3.5 0.202) (end 3.5 4.5) (layer F.SilkS) (width 0.12))
  (fp_line (start 6.5 -0.5) (end 6.5 -0.202) (layer F.SilkS) (width 0.12))
  (fp_line (start 6.5 0.202) (end 6.5 4.5) (layer F.SilkS) (width 0.12))
  (fp_line (start 3.5 -0.5) (end 3.5 4.5) (layer F.Fab) (width 0.1))
  (fp_line (start 3.5 4.5) (end 6.5 4.5) (layer F.Fab) (width 0.1))
  (fp_line (start 6.5 4.5) (end 6.5 -0.5) (layer F.Fab) (width 0.1))
  (fp_line (start 6.5 -0.5) (end 3.5 -0.5) (layer F.Fab) (width 0.1))
  (fp_line (start 8.5 -0.5) (end 8.57 -0.5) (layer F.SilkS) (width 0.12))
  (fp_line (start 11.431 -0.5) (end 11.5 -0.5) (layer F.SilkS) (width 0.12))
  (fp_line (start 8.5 4.5) (end 11.5 4.5) (layer F.SilkS) (width 0.12))
  (fp_line (start 8.5 -0.5) (end 8.5 -0.202) (layer F.SilkS) (width 0.12))
  (fp_line (start 8.5 0.202) (end 8.5 4.5) (layer F.SilkS) (width 0.12))
  (fp_line (start 11.5 -0.5) (end 11.5 -0.202) (layer F.SilkS) (width 0.12))
  (fp_line (start 11.5 0.202) (end 11.5 4.5) (layer F.SilkS) (width 0.12))
  (fp_line (start 8.5 -0.5) (end 8.5 4.5) (layer F.Fab) (width 0.1))
  (fp_line (start 8.5 4.5) (end 11.5 4.5) (layer F.Fab) (width 0.1))
  (fp_line (start 11.5 4.5) (end 11.5 -0.5) (layer F.Fab) (width 0.1))
  (fp_line (start 11.5 -0.5) (end 8.5 -0.5) (layer F.Fab) (width 0.1))
  (fp_line (start 13.5 -0.5) (end 13.57 -0.5) (layer F.SilkS) (width 0.12))
  (fp_line (start 16.431 -0.5) (end 16.5 -0.5) (layer F.SilkS) (width 0.12))
  (fp_line (start 13.5 4.5) (end 16.5 4.5) (layer F.SilkS) (width 0.12))
  (fp_line (start 13.5 -0.5) (end 13.5 -0.202) (layer F.SilkS) (width 0.12))
  (fp_line (start 13.5 0.202) (end 13.5 4.5) (layer F.SilkS) (width 0.12))
  (fp_line (start 16.5 -0.5) (end 16.5 -0.202) (layer F.SilkS) (width 0.12))
  (fp_line (start 16.5 0.202) (end 16.5 4.5) (layer F.SilkS) (width 0.12))
  (fp_line (start 13.5 -0.5) (end 13.5 4.5) (layer F.Fab) (width 0.1))
  (fp_line (start 13.5 4.5) (end 16.5 4.5) (layer F.Fab) (width 0.1))
  (fp_line (start 16.5 4.5) (end 16.5 -0.5) (layer F.Fab) (width 0.1))
  (fp_line (start 16.5 -0.5) (end 13.5 -0.5) (layer F.Fab) (width 0.1))
  (fp_line (start 18.5 -0.5) (end 18.57 -0.5) (layer F.SilkS) (width 0.12))
  (fp_line (start 21.431 -0.5) (end 21.5 -0.5) (layer F.SilkS) (width 0.12))
  (fp_line (start 18.5 4.5) (end 21.5 4.5) (layer F.SilkS) (width 0.12))
  (fp_line (start 18.5 -0.5) (end 18.5 -0.202) (layer F.SilkS) (width 0.12))
  (fp_line (start 18.5 0.202) (end 18.5 4.5) (layer F.SilkS) (width 0.12))
  (fp_line (start 21.5 -0.5) (end 21.5 -0.202) (layer F.SilkS) (width 0.12))
  (fp_line (start 21.5 0.202) (end 21.5 4.5) (layer F.SilkS) (width 0.12))
  (fp_line (start 18.5 -0.5) (end 18.5 4.5) (layer F.Fab) (width 0.1))
  (fp_line (start 18.5 4.5) (end 21.5 4.5) (layer F.Fab) (width 0.1))
  (fp_line (start 21.5 4.5) (end 21.5 -0.5) (layer F.Fab) (width 0.1))
  (fp_line (start 21.5 -0.5) (end 18.5 -0.5) (layer F.Fab) (width 0.1))
  (fp_line (start 23.5 -0.5) (end 23.57 -0.5) (layer F.SilkS) (width 0.12))
  (fp_line (start 26.431 -0.5) (end 26.5 -0.5) (layer F.SilkS) (width 0.12))
  (fp_line (start 23.5 4.5) (end 26.5 4.5) (layer F.SilkS) (width 0.12))
  (fp_line (start 23.5 -0.5) (end 23.5 -0.202) (layer F.SilkS) (width 0.12))
  (fp_line (start 23.5 0.202) (end 23.5 4.5) (layer F.SilkS) (width 0.12))
  (fp_line (start 26.5 -0.5) (end 26.5 -0.202) (layer F.SilkS) (width 0.12))
  (fp_line (start 26.5 0.202) (end 26.5 4.5) (layer F.SilkS) (width 0.12))
  (fp_line (start 23.5 -0.5) (end 23.5 4.5) (layer F.Fab) (width 0.1))
  (fp_line (start 23.5 4.5) (end 26.5 4.5) (layer F.Fab) (width 0.1))
  (fp_line (start 26.5 4.5) (end 26.5 -0.5) (layer F.Fab) (width 0.1))
  (fp_line (start 26.5 -0.5) (end 23.5 -0.5) (layer F.Fab) (width 0.1))
  (fp_line (start 28.5 -0.5) (end 28.57 -0.5) (layer F.SilkS) (width 0.12))
  (fp_line (start 31.431 -0.5) (end 31.5 -0.5) (layer F.SilkS) (width 0.12))
  (fp_line (start 28.5 4.5) (end 31.5 4.5) (layer F.SilkS) (width 0.12))
  (fp_line (start 28.5 -0.5) (end 28.5 -0.202) (layer F.SilkS) (width 0.12))
  (fp_line (start 28.5 0.202) (end 28.5 4.5) (layer F.SilkS) (width 0.12))
  (fp_line (start 31.5 -0.5) (end 31.5 -0.202) (layer F.SilkS) (width 0.12))
  (fp_line (start 31.5 0.202) (end 31.5 4.5) (layer F.SilkS) (width 0.12))
  (fp_line (start 28.5 -0.5) (end 28.5 4.5) (layer F.Fab) (width 0.1))
  (fp_line (start 28.5 4.5) (end 31.5 4.5) (layer F.Fab) (width 0.1))
  (fp_line (start 31.5 4.5) (end 31.5 -0.5) (layer F.Fab) (width 0.1))
  (fp_line (start 31.5 -0.5) (end 28.5 -0.5) (layer F.Fab) (width 0.1))
  (fp_line (start 33.5 -0.5) (end 33.57 -0.5) (layer F.SilkS) (width 0.12))
  (fp_line (start 36.431 -0.5) (end 36.5 -0.5) (layer F.SilkS) (width 0.12))
  (fp_line (start 33.5 4.5) (end 36.5 4.5) (layer F.SilkS) (width 0.12))
  (fp_line (start 33.5 -0.5) (end 33.5 -0.202) (layer F.SilkS) (width 0.12))
  (fp_line (start 33.5 0.202) (end 33.5 4.5) (layer F.SilkS) (width 0.12))
  (fp_line (start 36.5 -0.5) (end 36.5 -0.202) (layer F.SilkS) (width 0.12))
  (fp_line (start 36.5 0.202) (end 36.5 4.5) (layer F.SilkS) (width 0.12))
  (fp_line (start 33.5 -0.5) (end 33.5 4.5) (layer F.Fab) (width 0.1))
  (fp_line (start 33.5 4.5) (end 36.5 4.5) (layer F.Fab) (width 0.1))
  (fp_line (start 36.5 4.5) (end 36.5 -0.5) (layer F.Fab) (width 0.1))
  (fp_line (start 36.5 -0.5) (end 33.5 -0.5) (layer F.Fab) (width 0.1))
  (fp_line (start -2.8 4.56) (end -2.8 6.8) (layer F.SilkS) (width 0.12))
  (fp_line (start -2.8 6.8) (end -0.8 6.8) (layer F.SilkS) (width 0.12))
  (fp_line (start -3 -6.6) (end -3 7) (layer F.CrtYd) (width 0.05))
  (fp_line (start -3 7) (end 38 7) (layer F.CrtYd) (width 0.05))
  (fp_line (start 38 7) (end 38 -6.6) (layer F.CrtYd) (width 0.05))
  (fp_line (start 38 -6.6) (end -3 -6.6) (layer F.CrtYd) (width 0.05))
  (pad 1 thru_hole rect (at 0 0) (size 2.5 2.5) (drill 1.3) (layers *.Cu *.Mask))
  (pad 2 thru_hole circle (at 5 0) (size 2.5 2.5) (drill 1.3) (layers *.Cu *.Mask))
  (pad 3 thru_hole circle (at 10 0) (size 2.5 2.5) (drill 1.3) (layers *.Cu *.Mask))
  (pad 4 thru_hole circle (at 15 0) (size 2.5 2.5) (drill 1.3) (layers *.Cu *.Mask))
  (pad 5 thru_hole circle (at 20 0) (size 2.5 2.5) (drill 1.3) (layers *.Cu *.Mask))
  (pad 6 thru_hole circle (at 25 0) (size 2.5 2.5) (drill 1.3) (layers *.Cu *.Mask))
  (pad 7 thru_hole circle (at 30 0) (size 2.5 2.5) (drill 1.3) (layers *.Cu *.Mask))
  (pad 8 thru_hole circle (at 35 0) (size 2.5 2.5) (drill 1.3) (layers *.Cu *.Mask))
  (fp_text user %R (at 17.5 -0.8) (layer F.Fab)
    (effects (font (size 1 1) (thickness 0.15)))
  )
  (model ${KICAD6_3DMODEL_DIR}/TerminalBlock_RND.3dshapes/TerminalBlock_RND_205-00062_1x08_P5.00mm_45Degree.wrl
    (at (xyz 0 0 0))
    (scale (xyz 1 1 1))
    (rotate (xyz 0 0 0))
  )
)