(module TerminalBlock_RND_205-00305_1x09_P10.00mm_Horizontal (layer F.Cu) (tedit 5B294F2F)
  (descr "terminal block RND 205-00305, 9 pins, pitch 10mm, size 85x8.1mm^2, drill diamater 1.3mm, pad diameter 2.5mm, see http://cdn-reichelt.de/documents/datenblatt/C151/RND_205-00298_DB_EN.pdf, script-generated using https://github.com/pointhi/kicad-footprint-generator/scripts/TerminalBlock_RND")
  (tags "THT terminal block RND 205-00305 pitch 10mm size 85x8.1mm^2 drill 1.3mm pad 2.5mm")
  (fp_text reference REF** (at 40 -5.11) (layer F.SilkS)
    (effects (font (size 1 1) (thickness 0.15)))
  )
  (fp_text value TerminalBlock_RND_205-00305_1x09_P10.00mm_Horizontal (at 40 5.11) (layer F.Fab)
    (effects (font (size 1 1) (thickness 0.15)))
  )
  (fp_arc (start 0 0) (end 0 1.68) (angle -28) (layer F.SilkS) (width 0.12))
  (fp_arc (start 0 0) (end 1.484 0.789) (angle -56) (layer F.SilkS) (width 0.12))
  (fp_arc (start 0 0) (end 0.789 -1.484) (angle -56) (layer F.SilkS) (width 0.12))
  (fp_arc (start 0 0) (end -1.484 -0.789) (angle -56) (layer F.SilkS) (width 0.12))
  (fp_arc (start 0 0) (end -0.789 1.484) (angle -29) (layer F.SilkS) (width 0.12))
  (fp_circle (center 0 0) (end 1.5 0) (layer F.Fab) (width 0.1))
  (fp_circle (center 5 0) (end 6.5 0) (layer F.Fab) (width 0.1))
  (fp_circle (center 5 0) (end 6.5 0) (layer F.SilkS) (width 0.12))
  (fp_circle (center 10 0) (end 11.5 0) (layer F.Fab) (width 0.1))
  (fp_circle (center 10 0) (end 11.68 0) (layer F.SilkS) (width 0.12))
  (fp_circle (center 15 0) (end 16.5 0) (layer F.Fab) (width 0.1))
  (fp_circle (center 15 0) (end 16.5 0) (layer F.SilkS) (width 0.12))
  (fp_circle (center 20 0) (end 21.5 0) (layer F.Fab) (width 0.1))
  (fp_circle (center 20 0) (end 21.68 0) (layer F.SilkS) (width 0.12))
  (fp_circle (center 25 0) (end 26.5 0) (layer F.Fab) (width 0.1))
  (fp_circle (center 25 0) (end 26.5 0) (layer F.SilkS) (width 0.12))
  (fp_circle (center 30 0) (end 31.5 0) (layer F.Fab) (width 0.1))
  (fp_circle (center 30 0) (end 31.68 0) (layer F.SilkS) (width 0.12))
  (fp_circle (center 35 0) (end 36.5 0) (layer F.Fab) (width 0.1))
  (fp_circle (center 35 0) (end 36.5 0) (layer F.SilkS) (width 0.12))
  (fp_circle (center 40 0) (end 41.5 0) (layer F.Fab) (width 0.1))
  (fp_circle (center 40 0) (end 41.68 0) (layer F.SilkS) (width 0.12))
  (fp_circle (center 45 0) (end 46.5 0) (layer F.Fab) (width 0.1))
  (fp_circle (center 45 0) (end 46.5 0) (layer F.SilkS) (width 0.12))
  (fp_circle (center 50 0) (end 51.5 0) (layer F.Fab) (width 0.1))
  (fp_circle (center 50 0) (end 51.68 0) (layer F.SilkS) (width 0.12))
  (fp_circle (center 55 0) (end 56.5 0) (layer F.Fab) (width 0.1))
  (fp_circle (center 55 0) (end 56.5 0) (layer F.SilkS) (width 0.12))
  (fp_circle (center 60 0) (end 61.5 0) (layer F.Fab) (width 0.1))
  (fp_circle (center 60 0) (end 61.68 0) (layer F.SilkS) (width 0.12))
  (fp_circle (center 65 0) (end 66.5 0) (layer F.Fab) (width 0.1))
  (fp_circle (center 65 0) (end 66.5 0) (layer F.SilkS) (width 0.12))
  (fp_circle (center 70 0) (end 71.5 0) (layer F.Fab) (width 0.1))
  (fp_circle (center 70 0) (end 71.68 0) (layer F.SilkS) (width 0.12))
  (fp_circle (center 75 0) (end 76.5 0) (layer F.Fab) (width 0.1))
  (fp_circle (center 75 0) (end 76.5 0) (layer F.SilkS) (width 0.12))
  (fp_circle (center 80 0) (end 81.5 0) (layer F.Fab) (width 0.1))
  (fp_circle (center 80 0) (end 81.68 0) (layer F.SilkS) (width 0.12))
  (fp_line (start -2.5 -4.05) (end 82.5 -4.05) (layer F.Fab) (width 0.1))
  (fp_line (start 82.5 -4.05) (end 82.5 4.05) (layer F.Fab) (width 0.1))
  (fp_line (start 82.5 4.05) (end -1.9 4.05) (layer F.Fab) (width 0.1))
  (fp_line (start -1.9 4.05) (end -2.5 3.45) (layer F.Fab) (width 0.1))
  (fp_line (start -2.5 3.45) (end -2.5 -4.05) (layer F.Fab) (width 0.1))
  (fp_line (start -2.5 3.45) (end 82.5 3.45) (layer F.Fab) (width 0.1))
  (fp_line (start -2.56 3.45) (end 82.56 3.45) (layer F.SilkS) (width 0.12))
  (fp_line (start -2.5 2.85) (end 82.5 2.85) (layer F.Fab) (width 0.1))
  (fp_line (start -2.56 2.85) (end 82.56 2.85) (layer F.SilkS) (width 0.12))
  (fp_line (start -2.5 -2.05) (end 82.5 -2.05) (layer F.Fab) (width 0.1))
  (fp_line (start -2.56 -2.05) (end 82.56 -2.05) (layer F.SilkS) (width 0.12))
  (fp_line (start -2.56 -4.11) (end 82.56 -4.11) (layer F.SilkS) (width 0.12))
  (fp_line (start -2.56 4.11) (end 82.56 4.11) (layer F.SilkS) (width 0.12))
  (fp_line (start -2.56 -4.11) (end -2.56 4.11) (layer F.SilkS) (width 0.12))
  (fp_line (start 82.56 -4.11) (end 82.56 4.11) (layer F.SilkS) (width 0.12))
  (fp_line (start 1.138 -0.955) (end -0.955 1.138) (layer F.Fab) (width 0.1))
  (fp_line (start 0.955 -1.138) (end -1.138 0.955) (layer F.Fab) (width 0.1))
  (fp_line (start -1.25 -4.05) (end -1.25 -3.05) (layer F.Fab) (width 0.1))
  (fp_line (start -1.25 -3.05) (end 1.25 -3.05) (layer F.Fab) (width 0.1))
  (fp_line (start 1.25 -3.05) (end 1.25 -4.05) (layer F.Fab) (width 0.1))
  (fp_line (start 1.25 -4.05) (end -1.25 -4.05) (layer F.Fab) (width 0.1))
  (fp_line (start -1.25 -4.05) (end 1.25 -4.05) (layer F.SilkS) (width 0.12))
  (fp_line (start -1.25 -3.05) (end 1.25 -3.05) (layer F.SilkS) (width 0.12))
  (fp_line (start -1.25 -4.05) (end -1.25 -3.05) (layer F.SilkS) (width 0.12))
  (fp_line (start 1.25 -4.05) (end 1.25 -3.05) (layer F.SilkS) (width 0.12))
  (fp_line (start 3.75 -4.05) (end 3.75 -3.05) (layer F.Fab) (width 0.1))
  (fp_line (start 3.75 -3.05) (end 6.25 -3.05) (layer F.Fab) (width 0.1))
  (fp_line (start 6.25 -3.05) (end 6.25 -4.05) (layer F.Fab) (width 0.1))
  (fp_line (start 6.25 -4.05) (end 3.75 -4.05) (layer F.Fab) (width 0.1))
  (fp_line (start 3.75 -4.05) (end 6.25 -4.05) (layer F.SilkS) (width 0.12))
  (fp_line (start 3.75 -3.05) (end 6.25 -3.05) (layer F.SilkS) (width 0.12))
  (fp_line (start 3.75 -4.05) (end 3.75 -3.05) (layer F.SilkS) (width 0.12))
  (fp_line (start 6.25 -4.05) (end 6.25 -3.05) (layer F.SilkS) (width 0.12))
  (fp_line (start 11.138 -0.955) (end 9.046 1.138) (layer F.Fab) (width 0.1))
  (fp_line (start 10.955 -1.138) (end 8.863 0.955) (layer F.Fab) (width 0.1))
  (fp_line (start 11.275 -1.069) (end 11.181 -0.976) (layer F.SilkS) (width 0.12))
  (fp_line (start 8.99 1.216) (end 8.931 1.274) (layer F.SilkS) (width 0.12))
  (fp_line (start 11.07 -1.275) (end 11.011 -1.216) (layer F.SilkS) (width 0.12))
  (fp_line (start 8.82 0.976) (end 8.726 1.069) (layer F.SilkS) (width 0.12))
  (fp_line (start 8.75 -4.05) (end 8.75 -3.05) (layer F.Fab) (width 0.1))
  (fp_line (start 8.75 -3.05) (end 11.25 -3.05) (layer F.Fab) (width 0.1))
  (fp_line (start 11.25 -3.05) (end 11.25 -4.05) (layer F.Fab) (width 0.1))
  (fp_line (start 11.25 -4.05) (end 8.75 -4.05) (layer F.Fab) (width 0.1))
  (fp_line (start 8.75 -4.05) (end 11.25 -4.05) (layer F.SilkS) (width 0.12))
  (fp_line (start 8.75 -3.05) (end 11.25 -3.05) (layer F.SilkS) (width 0.12))
  (fp_line (start 8.75 -4.05) (end 8.75 -3.05) (layer F.SilkS) (width 0.12))
  (fp_line (start 11.25 -4.05) (end 11.25 -3.05) (layer F.SilkS) (width 0.12))
  (fp_line (start 13.75 -4.05) (end 13.75 -3.05) (layer F.Fab) (width 0.1))
  (fp_line (start 13.75 -3.05) (end 16.25 -3.05) (layer F.Fab) (width 0.1))
  (fp_line (start 16.25 -3.05) (end 16.25 -4.05) (layer F.Fab) (width 0.1))
  (fp_line (start 16.25 -4.05) (end 13.75 -4.05) (layer F.Fab) (width 0.1))
  (fp_line (start 13.75 -4.05) (end 16.25 -4.05) (layer F.SilkS) (width 0.12))
  (fp_line (start 13.75 -3.05) (end 16.25 -3.05) (layer F.SilkS) (width 0.12))
  (fp_line (start 13.75 -4.05) (end 13.75 -3.05) (layer F.SilkS) (width 0.12))
  (fp_line (start 16.25 -4.05) (end 16.25 -3.05) (layer F.SilkS) (width 0.12))
  (fp_line (start 21.138 -0.955) (end 19.046 1.138) (layer F.Fab) (width 0.1))
  (fp_line (start 20.955 -1.138) (end 18.863 0.955) (layer F.Fab) (width 0.1))
  (fp_line (start 21.275 -1.069) (end 21.181 -0.976) (layer F.SilkS) (width 0.12))
  (fp_line (start 18.99 1.216) (end 18.931 1.274) (layer F.SilkS) (width 0.12))
  (fp_line (start 21.07 -1.275) (end 21.011 -1.216) (layer F.SilkS) (width 0.12))
  (fp_line (start 18.82 0.976) (end 18.726 1.069) (layer F.SilkS) (width 0.12))
  (fp_line (start 18.75 -4.05) (end 18.75 -3.05) (layer F.Fab) (width 0.1))
  (fp_line (start 18.75 -3.05) (end 21.25 -3.05) (layer F.Fab) (width 0.1))
  (fp_line (start 21.25 -3.05) (end 21.25 -4.05) (layer F.Fab) (width 0.1))
  (fp_line (start 21.25 -4.05) (end 18.75 -4.05) (layer F.Fab) (width 0.1))
  (fp_line (start 18.75 -4.05) (end 21.25 -4.05) (layer F.SilkS) (width 0.12))
  (fp_line (start 18.75 -3.05) (end 21.25 -3.05) (layer F.SilkS) (width 0.12))
  (fp_line (start 18.75 -4.05) (end 18.75 -3.05) (layer F.SilkS) (width 0.12))
  (fp_line (start 21.25 -4.05) (end 21.25 -3.05) (layer F.SilkS) (width 0.12))
  (fp_line (start 23.75 -4.05) (end 23.75 -3.05) (layer F.Fab) (width 0.1))
  (fp_line (start 23.75 -3.05) (end 26.25 -3.05) (layer F.Fab) (width 0.1))
  (fp_line (start 26.25 -3.05) (end 26.25 -4.05) (layer F.Fab) (width 0.1))
  (fp_line (start 26.25 -4.05) (end 23.75 -4.05) (layer F.Fab) (width 0.1))
  (fp_line (start 23.75 -4.05) (end 26.25 -4.05) (layer F.SilkS) (width 0.12))
  (fp_line (start 23.75 -3.05) (end 26.25 -3.05) (layer F.SilkS) (width 0.12))
  (fp_line (start 23.75 -4.05) (end 23.75 -3.05) (layer F.SilkS) (width 0.12))
  (fp_line (start 26.25 -4.05) (end 26.25 -3.05) (layer F.SilkS) (width 0.12))
  (fp_line (start 31.138 -0.955) (end 29.046 1.138) (layer F.Fab) (width 0.1))
  (fp_line (start 30.955 -1.138) (end 28.863 0.955) (layer F.Fab) (width 0.1))
  (fp_line (start 31.275 -1.069) (end 31.181 -0.976) (layer F.SilkS) (width 0.12))
  (fp_line (start 28.99 1.216) (end 28.931 1.274) (layer F.SilkS) (width 0.12))
  (fp_line (start 31.07 -1.275) (end 31.011 -1.216) (layer F.SilkS) (width 0.12))
  (fp_line (start 28.82 0.976) (end 28.726 1.069) (layer F.SilkS) (width 0.12))
  (fp_line (start 28.75 -4.05) (end 28.75 -3.05) (layer F.Fab) (width 0.1))
  (fp_line (start 28.75 -3.05) (end 31.25 -3.05) (layer F.Fab) (width 0.1))
  (fp_line (start 31.25 -3.05) (end 31.25 -4.05) (layer F.Fab) (width 0.1))
  (fp_line (start 31.25 -4.05) (end 28.75 -4.05) (layer F.Fab) (width 0.1))
  (fp_line (start 28.75 -4.05) (end 31.25 -4.05) (layer F.SilkS) (width 0.12))
  (fp_line (start 28.75 -3.05) (end 31.25 -3.05) (layer F.SilkS) (width 0.12))
  (fp_line (start 28.75 -4.05) (end 28.75 -3.05) (layer F.SilkS) (width 0.12))
  (fp_line (start 31.25 -4.05) (end 31.25 -3.05) (layer F.SilkS) (width 0.12))
  (fp_line (start 33.75 -4.05) (end 33.75 -3.05) (layer F.Fab) (width 0.1))
  (fp_line (start 33.75 -3.05) (end 36.25 -3.05) (layer F.Fab) (width 0.1))
  (fp_line (start 36.25 -3.05) (end 36.25 -4.05) (layer F.Fab) (width 0.1))
  (fp_line (start 36.25 -4.05) (end 33.75 -4.05) (layer F.Fab) (width 0.1))
  (fp_line (start 33.75 -4.05) (end 36.25 -4.05) (layer F.SilkS) (width 0.12))
  (fp_line (start 33.75 -3.05) (end 36.25 -3.05) (layer F.SilkS) (width 0.12))
  (fp_line (start 33.75 -4.05) (end 33.75 -3.05) (layer F.SilkS) (width 0.12))
  (fp_line (start 36.25 -4.05) (end 36.25 -3.05) (layer F.SilkS) (width 0.12))
  (fp_line (start 41.138 -0.955) (end 39.046 1.138) (layer F.Fab) (width 0.1))
  (fp_line (start 40.955 -1.138) (end 38.863 0.955) (layer F.Fab) (width 0.1))
  (fp_line (start 41.275 -1.069) (end 41.181 -0.976) (layer F.SilkS) (width 0.12))
  (fp_line (start 38.99 1.216) (end 38.931 1.274) (layer F.SilkS) (width 0.12))
  (fp_line (start 41.07 -1.275) (end 41.011 -1.216) (layer F.SilkS) (width 0.12))
  (fp_line (start 38.82 0.976) (end 38.726 1.069) (layer F.SilkS) (width 0.12))
  (fp_line (start 38.75 -4.05) (end 38.75 -3.05) (layer F.Fab) (width 0.1))
  (fp_line (start 38.75 -3.05) (end 41.25 -3.05) (layer F.Fab) (width 0.1))
  (fp_line (start 41.25 -3.05) (end 41.25 -4.05) (layer F.Fab) (width 0.1))
  (fp_line (start 41.25 -4.05) (end 38.75 -4.05) (layer F.Fab) (width 0.1))
  (fp_line (start 38.75 -4.05) (end 41.25 -4.05) (layer F.SilkS) (width 0.12))
  (fp_line (start 38.75 -3.05) (end 41.25 -3.05) (layer F.SilkS) (width 0.12))
  (fp_line (start 38.75 -4.05) (end 38.75 -3.05) (layer F.SilkS) (width 0.12))
  (fp_line (start 41.25 -4.05) (end 41.25 -3.05) (layer F.SilkS) (width 0.12))
  (fp_line (start 43.75 -4.05) (end 43.75 -3.05) (layer F.Fab) (width 0.1))
  (fp_line (start 43.75 -3.05) (end 46.25 -3.05) (layer F.Fab) (width 0.1))
  (fp_line (start 46.25 -3.05) (end 46.25 -4.05) (layer F.Fab) (width 0.1))
  (fp_line (start 46.25 -4.05) (end 43.75 -4.05) (layer F.Fab) (width 0.1))
  (fp_line (start 43.75 -4.05) (end 46.25 -4.05) (layer F.SilkS) (width 0.12))
  (fp_line (start 43.75 -3.05) (end 46.25 -3.05) (layer F.SilkS) (width 0.12))
  (fp_line (start 43.75 -4.05) (end 43.75 -3.05) (layer F.SilkS) (width 0.12))
  (fp_line (start 46.25 -4.05) (end 46.25 -3.05) (layer F.SilkS) (width 0.12))
  (fp_line (start 51.138 -0.955) (end 49.046 1.138) (layer F.Fab) (width 0.1))
  (fp_line (start 50.955 -1.138) (end 48.863 0.955) (layer F.Fab) (width 0.1))
  (fp_line (start 51.275 -1.069) (end 51.181 -0.976) (layer F.SilkS) (width 0.12))
  (fp_line (start 48.99 1.216) (end 48.931 1.274) (layer F.SilkS) (width 0.12))
  (fp_line (start 51.07 -1.275) (end 51.011 -1.216) (layer F.SilkS) (width 0.12))
  (fp_line (start 48.82 0.976) (end 48.726 1.069) (layer F.SilkS) (width 0.12))
  (fp_line (start 48.75 -4.05) (end 48.75 -3.05) (layer F.Fab) (width 0.1))
  (fp_line (start 48.75 -3.05) (end 51.25 -3.05) (layer F.Fab) (width 0.1))
  (fp_line (start 51.25 -3.05) (end 51.25 -4.05) (layer F.Fab) (width 0.1))
  (fp_line (start 51.25 -4.05) (end 48.75 -4.05) (layer F.Fab) (width 0.1))
  (fp_line (start 48.75 -4.05) (end 51.25 -4.05) (layer F.SilkS) (width 0.12))
  (fp_line (start 48.75 -3.05) (end 51.25 -3.05) (layer F.SilkS) (width 0.12))
  (fp_line (start 48.75 -4.05) (end 48.75 -3.05) (layer F.SilkS) (width 0.12))
  (fp_line (start 51.25 -4.05) (end 51.25 -3.05) (layer F.SilkS) (width 0.12))
  (fp_line (start 53.75 -4.05) (end 53.75 -3.05) (layer F.Fab) (width 0.1))
  (fp_line (start 53.75 -3.05) (end 56.25 -3.05) (layer F.Fab) (width 0.1))
  (fp_line (start 56.25 -3.05) (end 56.25 -4.05) (layer F.Fab) (width 0.1))
  (fp_line (start 56.25 -4.05) (end 53.75 -4.05) (layer F.Fab) (width 0.1))
  (fp_line (start 53.75 -4.05) (end 56.25 -4.05) (layer F.SilkS) (width 0.12))
  (fp_line (start 53.75 -3.05) (end 56.25 -3.05) (layer F.SilkS) (width 0.12))
  (fp_line (start 53.75 -4.05) (end 53.75 -3.05) (layer F.SilkS) (width 0.12))
  (fp_line (start 56.25 -4.05) (end 56.25 -3.05) (layer F.SilkS) (width 0.12))
  (fp_line (start 61.138 -0.955) (end 59.046 1.138) (layer F.Fab) (width 0.1))
  (fp_line (start 60.955 -1.138) (end 58.863 0.955) (layer F.Fab) (width 0.1))
  (fp_line (start 61.275 -1.069) (end 61.181 -0.976) (layer F.SilkS) (width 0.12))
  (fp_line (start 58.99 1.216) (end 58.931 1.274) (layer F.SilkS) (width 0.12))
  (fp_line (start 61.07 -1.275) (end 61.011 -1.216) (layer F.SilkS) (width 0.12))
  (fp_line (start 58.82 0.976) (end 58.726 1.069) (layer F.SilkS) (width 0.12))
  (fp_line (start 58.75 -4.05) (end 58.75 -3.05) (layer F.Fab) (width 0.1))
  (fp_line (start 58.75 -3.05) (end 61.25 -3.05) (layer F.Fab) (width 0.1))
  (fp_line (start 61.25 -3.05) (end 61.25 -4.05) (layer F.Fab) (width 0.1))
  (fp_line (start 61.25 -4.05) (end 58.75 -4.05) (layer F.Fab) (width 0.1))
  (fp_line (start 58.75 -4.05) (end 61.25 -4.05) (layer F.SilkS) (width 0.12))
  (fp_line (start 58.75 -3.05) (end 61.25 -3.05) (layer F.SilkS) (width 0.12))
  (fp_line (start 58.75 -4.05) (end 58.75 -3.05) (layer F.SilkS) (width 0.12))
  (fp_line (start 61.25 -4.05) (end 61.25 -3.05) (layer F.SilkS) (width 0.12))
  (fp_line (start 63.75 -4.05) (end 63.75 -3.05) (layer F.Fab) (width 0.1))
  (fp_line (start 63.75 -3.05) (end 66.25 -3.05) (layer F.Fab) (width 0.1))
  (fp_line (start 66.25 -3.05) (end 66.25 -4.05) (layer F.Fab) (width 0.1))
  (fp_line (start 66.25 -4.05) (end 63.75 -4.05) (layer F.Fab) (width 0.1))
  (fp_line (start 63.75 -4.05) (end 66.25 -4.05) (layer F.SilkS) (width 0.12))
  (fp_line (start 63.75 -3.05) (end 66.25 -3.05) (layer F.SilkS) (width 0.12))
  (fp_line (start 63.75 -4.05) (end 63.75 -3.05) (layer F.SilkS) (width 0.12))
  (fp_line (start 66.25 -4.05) (end 66.25 -3.05) (layer F.SilkS) (width 0.12))
  (fp_line (start 71.138 -0.955) (end 69.046 1.138) (layer F.Fab) (width 0.1))
  (fp_line (start 70.955 -1.138) (end 68.863 0.955) (layer F.Fab) (width 0.1))
  (fp_line (start 71.275 -1.069) (end 71.181 -0.976) (layer F.SilkS) (width 0.12))
  (fp_line (start 68.99 1.216) (end 68.931 1.274) (layer F.SilkS) (width 0.12))
  (fp_line (start 71.07 -1.275) (end 71.011 -1.216) (layer F.SilkS) (width 0.12))
  (fp_line (start 68.82 0.976) (end 68.726 1.069) (layer F.SilkS) (width 0.12))
  (fp_line (start 68.75 -4.05) (end 68.75 -3.05) (layer F.Fab) (width 0.1))
  (fp_line (start 68.75 -3.05) (end 71.25 -3.05) (layer F.Fab) (width 0.1))
  (fp_line (start 71.25 -3.05) (end 71.25 -4.05) (layer F.Fab) (width 0.1))
  (fp_line (start 71.25 -4.05) (end 68.75 -4.05) (layer F.Fab) (width 0.1))
  (fp_line (start 68.75 -4.05) (end 71.25 -4.05) (layer F.SilkS) (width 0.12))
  (fp_line (start 68.75 -3.05) (end 71.25 -3.05) (layer F.SilkS) (width 0.12))
  (fp_line (start 68.75 -4.05) (end 68.75 -3.05) (layer F.SilkS) (width 0.12))
  (fp_line (start 71.25 -4.05) (end 71.25 -3.05) (layer F.SilkS) (width 0.12))
  (fp_line (start 73.75 -4.05) (end 73.75 -3.05) (layer F.Fab) (width 0.1))
  (fp_line (start 73.75 -3.05) (end 76.25 -3.05) (layer F.Fab) (width 0.1))
  (fp_line (start 76.25 -3.05) (end 76.25 -4.05) (layer F.Fab) (width 0.1))
  (fp_line (start 76.25 -4.05) (end 73.75 -4.05) (layer F.Fab) (width 0.1))
  (fp_line (start 73.75 -4.05) (end 76.25 -4.05) (layer F.SilkS) (width 0.12))
  (fp_line (start 73.75 -3.05) (end 76.25 -3.05) (layer F.SilkS) (width 0.12))
  (fp_line (start 73.75 -4.05) (end 73.75 -3.05) (layer F.SilkS) (width 0.12))
  (fp_line (start 76.25 -4.05) (end 76.25 -3.05) (layer F.SilkS) (width 0.12))
  (fp_line (start 81.138 -0.955) (end 79.046 1.138) (layer F.Fab) (width 0.1))
  (fp_line (start 80.955 -1.138) (end 78.863 0.955) (layer F.Fab) (width 0.1))
  (fp_line (start 81.275 -1.069) (end 81.181 -0.976) (layer F.SilkS) (width 0.12))
  (fp_line (start 78.99 1.216) (end 78.931 1.274) (layer F.SilkS) (width 0.12))
  (fp_line (start 81.07 -1.275) (end 81.011 -1.216) (layer F.SilkS) (width 0.12))
  (fp_line (start 78.82 0.976) (end 78.726 1.069) (layer F.SilkS) (width 0.12))
  (fp_line (start 78.75 -4.05) (end 78.75 -3.05) (layer F.Fab) (width 0.1))
  (fp_line (start 78.75 -3.05) (end 81.25 -3.05) (layer F.Fab) (width 0.1))
  (fp_line (start 81.25 -3.05) (end 81.25 -4.05) (layer F.Fab) (width 0.1))
  (fp_line (start 81.25 -4.05) (end 78.75 -4.05) (layer F.Fab) (width 0.1))
  (fp_line (start 78.75 -4.05) (end 81.25 -4.05) (layer F.SilkS) (width 0.12))
  (fp_line (start 78.75 -3.05) (end 81.25 -3.05) (layer F.SilkS) (width 0.12))
  (fp_line (start 78.75 -4.05) (end 78.75 -3.05) (layer F.SilkS) (width 0.12))
  (fp_line (start 81.25 -4.05) (end 81.25 -3.05) (layer F.SilkS) (width 0.12))
  (fp_line (start -2.8 3.51) (end -2.8 4.35) (layer F.SilkS) (width 0.12))
  (fp_line (start -2.8 4.35) (end -2.2 4.35) (layer F.SilkS) (width 0.12))
  (fp_line (start -3 -4.55) (end -3 4.55) (layer F.CrtYd) (width 0.05))
  (fp_line (start -3 4.55) (end 83 4.55) (layer F.CrtYd) (width 0.05))
  (fp_line (start 83 4.55) (end 83 -4.55) (layer F.CrtYd) (width 0.05))
  (fp_line (start 83 -4.55) (end -3 -4.55) (layer F.CrtYd) (width 0.05))
  (pad 1 thru_hole rect (at 0 0) (size 2.5 2.5) (drill 1.3) (layers *.Cu *.Mask))
  (pad 2 thru_hole circle (at 10 0) (size 2.5 2.5) (drill 1.3) (layers *.Cu *.Mask))
  (pad 3 thru_hole circle (at 20 0) (size 2.5 2.5) (drill 1.3) (layers *.Cu *.Mask))
  (pad 4 thru_hole circle (at 30 0) (size 2.5 2.5) (drill 1.3) (layers *.Cu *.Mask))
  (pad 5 thru_hole circle (at 40 0) (size 2.5 2.5) (drill 1.3) (layers *.Cu *.Mask))
  (pad 6 thru_hole circle (at 50 0) (size 2.5 2.5) (drill 1.3) (layers *.Cu *.Mask))
  (pad 7 thru_hole circle (at 60 0) (size 2.5 2.5) (drill 1.3) (layers *.Cu *.Mask))
  (pad 8 thru_hole circle (at 70 0) (size 2.5 2.5) (drill 1.3) (layers *.Cu *.Mask))
  (pad 9 thru_hole circle (at 80 0) (size 2.5 2.5) (drill 1.3) (layers *.Cu *.Mask))
  (fp_text user %R (at 40 -5.11) (layer F.Fab)
    (effects (font (size 1 1) (thickness 0.15)))
  )
  (model ${KICAD6_3DMODEL_DIR}/TerminalBlock_RND.3dshapes/TerminalBlock_RND_205-00305_1x09_P10.00mm_Horizontal.wrl
    (at (xyz 0 0 0))
    (scale (xyz 1 1 1))
    (rotate (xyz 0 0 0))
  )
)