(module TerminalBlock_RND_205-00023_1x02_P10.00mm_Horizontal (layer F.Cu) (tedit 5B294FAA)
  (descr "terminal block RND 205-00023, 2 pins, pitch 10mm, size 15x9mm^2, drill diamater 1.3mm, pad diameter 2.5mm, see http://cdn-reichelt.de/documents/datenblatt/C151/RND_205-00023_DB_EN.pdf, script-generated using https://github.com/pointhi/kicad-footprint-generator/scripts/TerminalBlock_RND")
  (tags "THT terminal block RND 205-00023 pitch 10mm size 15x9mm^2 drill 1.3mm pad 2.5mm")
  (fp_text reference REF** (at 5 -6.06) (layer F.SilkS)
    (effects (font (size 1 1) (thickness 0.15)))
  )
  (fp_text value TerminalBlock_RND_205-00023_1x02_P10.00mm_Horizontal (at 5 5.06) (layer F.Fab)
    (effects (font (size 1 1) (thickness 0.15)))
  )
  (fp_arc (start 0 0) (end 0 1.68) (angle -28) (layer F.SilkS) (width 0.12))
  (fp_arc (start 0 0) (end 1.484 0.789) (angle -56) (layer F.SilkS) (width 0.12))
  (fp_arc (start 0 0) (end 0.789 -1.484) (angle -56) (layer F.SilkS) (width 0.12))
  (fp_arc (start 0 0) (end -1.484 -0.789) (angle -56) (layer F.SilkS) (width 0.12))
  (fp_arc (start 0 0) (end -0.789 1.484) (angle -29) (layer F.SilkS) (width 0.12))
  (fp_circle (center 0 0) (end 1.5 0) (layer F.Fab) (width 0.1))
  (fp_circle (center 0 -3) (end 0.9 -3) (layer F.Fab) (width 0.1))
  (fp_circle (center 0 -3) (end 0.9 -3) (layer F.SilkS) (width 0.12))
  (fp_circle (center 5 0) (end 6.5 0) (layer F.Fab) (width 0.1))
  (fp_circle (center 5 0) (end 6.5 0) (layer F.SilkS) (width 0.12))
  (fp_circle (center 5 -3) (end 5.9 -3) (layer F.Fab) (width 0.1))
  (fp_circle (center 5 -3) (end 5.9 -3) (layer F.SilkS) (width 0.12))
  (fp_circle (center 10 0) (end 11.5 0) (layer F.Fab) (width 0.1))
  (fp_circle (center 10 0) (end 11.68 0) (layer F.SilkS) (width 0.12))
  (fp_circle (center 10 -3) (end 10.9 -3) (layer F.Fab) (width 0.1))
  (fp_circle (center 10 -3) (end 10.9 -3) (layer F.SilkS) (width 0.12))
  (fp_line (start -2.5 -5) (end 12.5 -5) (layer F.Fab) (width 0.1))
  (fp_line (start 12.5 -5) (end 12.5 4) (layer F.Fab) (width 0.1))
  (fp_line (start 12.5 4) (end -1 4) (layer F.Fab) (width 0.1))
  (fp_line (start -1 4) (end -2.5 2.5) (layer F.Fab) (width 0.1))
  (fp_line (start -2.5 2.5) (end -2.5 -5) (layer F.Fab) (width 0.1))
  (fp_line (start -2.5 2.5) (end 12.5 2.5) (layer F.Fab) (width 0.1))
  (fp_line (start -2.56 2.5) (end 12.56 2.5) (layer F.SilkS) (width 0.12))
  (fp_line (start -2.56 -5.06) (end 12.56 -5.06) (layer F.SilkS) (width 0.12))
  (fp_line (start -2.56 4.06) (end 12.56 4.06) (layer F.SilkS) (width 0.12))
  (fp_line (start -2.56 -5.06) (end -2.56 4.06) (layer F.SilkS) (width 0.12))
  (fp_line (start 12.56 -5.06) (end 12.56 4.06) (layer F.SilkS) (width 0.12))
  (fp_line (start 1.138 -0.955) (end -0.955 1.138) (layer F.Fab) (width 0.1))
  (fp_line (start 0.955 -1.138) (end -1.138 0.955) (layer F.Fab) (width 0.1))
  (fp_line (start 11.138 -0.955) (end 9.046 1.138) (layer F.Fab) (width 0.1))
  (fp_line (start 10.955 -1.138) (end 8.863 0.955) (layer F.Fab) (width 0.1))
  (fp_line (start 11.275 -1.069) (end 11.181 -0.976) (layer F.SilkS) (width 0.12))
  (fp_line (start 8.99 1.216) (end 8.931 1.274) (layer F.SilkS) (width 0.12))
  (fp_line (start 11.07 -1.275) (end 11.011 -1.216) (layer F.SilkS) (width 0.12))
  (fp_line (start 8.82 0.976) (end 8.726 1.069) (layer F.SilkS) (width 0.12))
  (fp_line (start -2.8 2.56) (end -2.8 4.3) (layer F.SilkS) (width 0.12))
  (fp_line (start -2.8 4.3) (end -1.3 4.3) (layer F.SilkS) (width 0.12))
  (fp_line (start -3 -5.5) (end -3 4.5) (layer F.CrtYd) (width 0.05))
  (fp_line (start -3 4.5) (end 13 4.5) (layer F.CrtYd) (width 0.05))
  (fp_line (start 13 4.5) (end 13 -5.5) (layer F.CrtYd) (width 0.05))
  (fp_line (start 13 -5.5) (end -3 -5.5) (layer F.CrtYd) (width 0.05))
  (pad 1 thru_hole rect (at 0 0) (size 2.5 2.5) (drill 1.3) (layers *.Cu *.Mask))
  (pad 2 thru_hole circle (at 10 0) (size 2.5 2.5) (drill 1.3) (layers *.Cu *.Mask))
  (fp_text user %R (at 5 3.3) (layer F.Fab)
    (effects (font (size 1 1) (thickness 0.15)))
  )
  (model ${KICAD6_3DMODEL_DIR}/TerminalBlock_RND.3dshapes/TerminalBlock_RND_205-00023_1x02_P10.00mm_Horizontal.wrl
    (at (xyz 0 0 0))
    (scale (xyz 1 1 1))
    (rotate (xyz 0 0 0))
  )
)