(module TerminalBlock_RND_205-00069_1x04_P7.50mm_Horizontal (layer F.Cu) (tedit 5B294F18)
  (descr "terminal block RND 205-00069, 4 pins, pitch 7.5mm, size 30x10.3mm^2, drill diamater 1.3mm, pad diameter 2.5mm, see http://cdn-reichelt.de/documents/datenblatt/C151/RND_205-00067_DB_EN.pdf, script-generated using https://github.com/pointhi/kicad-footprint-generator/scripts/TerminalBlock_RND")
  (tags "THT terminal block RND 205-00069 pitch 7.5mm size 30x10.3mm^2 drill 1.3mm pad 2.5mm")
  (fp_text reference REF** (at 11.25 -6.36) (layer F.SilkS)
    (effects (font (size 1 1) (thickness 0.15)))
  )
  (fp_text value TerminalBlock_RND_205-00069_1x04_P7.50mm_Horizontal (at 11.25 6.06) (layer F.Fab)
    (effects (font (size 1 1) (thickness 0.15)))
  )
  (fp_arc (start 0 0) (end 0 1.68) (angle -28) (layer F.SilkS) (width 0.12))
  (fp_arc (start 0 0) (end 1.484 0.789) (angle -56) (layer F.SilkS) (width 0.12))
  (fp_arc (start 0 0) (end 0.789 -1.484) (angle -56) (layer F.SilkS) (width 0.12))
  (fp_arc (start 0 0) (end -1.484 -0.789) (angle -56) (layer F.SilkS) (width 0.12))
  (fp_arc (start 0 0) (end -0.789 1.484) (angle -29) (layer F.SilkS) (width 0.12))
  (fp_circle (center 0 0) (end 1.5 0) (layer F.Fab) (width 0.1))
  (fp_circle (center 7.5 0) (end 9 0) (layer F.Fab) (width 0.1))
  (fp_circle (center 7.5 0) (end 9.18 0) (layer F.SilkS) (width 0.12))
  (fp_circle (center 15 0) (end 16.5 0) (layer F.Fab) (width 0.1))
  (fp_circle (center 15 0) (end 16.68 0) (layer F.SilkS) (width 0.12))
  (fp_circle (center 22.5 0) (end 24 0) (layer F.Fab) (width 0.1))
  (fp_circle (center 22.5 0) (end 24.18 0) (layer F.SilkS) (width 0.12))
  (fp_line (start -3.75 -5.3) (end 26.25 -5.3) (layer F.Fab) (width 0.1))
  (fp_line (start 26.25 -5.3) (end 26.25 5) (layer F.Fab) (width 0.1))
  (fp_line (start 26.25 5) (end -3.15 5) (layer F.Fab) (width 0.1))
  (fp_line (start -3.15 5) (end -3.75 4.4) (layer F.Fab) (width 0.1))
  (fp_line (start -3.75 4.4) (end -3.75 -5.3) (layer F.Fab) (width 0.1))
  (fp_line (start -3.75 4.4) (end 26.25 4.4) (layer F.Fab) (width 0.1))
  (fp_line (start -3.81 4.4) (end 26.31 4.4) (layer F.SilkS) (width 0.12))
  (fp_line (start -3.75 3.8) (end 26.25 3.8) (layer F.Fab) (width 0.1))
  (fp_line (start -3.81 3.8) (end 26.31 3.8) (layer F.SilkS) (width 0.12))
  (fp_line (start -3.75 -3.3) (end 26.25 -3.3) (layer F.Fab) (width 0.1))
  (fp_line (start -3.81 -3.301) (end 26.31 -3.301) (layer F.SilkS) (width 0.12))
  (fp_line (start -3.81 -5.36) (end 26.31 -5.36) (layer F.SilkS) (width 0.12))
  (fp_line (start -3.81 5.06) (end 26.31 5.06) (layer F.SilkS) (width 0.12))
  (fp_line (start -3.81 -5.36) (end -3.81 5.06) (layer F.SilkS) (width 0.12))
  (fp_line (start 26.31 -5.36) (end 26.31 5.06) (layer F.SilkS) (width 0.12))
  (fp_line (start -1.201 -0.076) (end -0.076 -0.076) (layer F.Fab) (width 0.1))
  (fp_line (start -0.076 -0.076) (end -0.076 -1.201) (layer F.Fab) (width 0.1))
  (fp_line (start -0.076 -1.201) (end 0.076 -1.201) (layer F.Fab) (width 0.1))
  (fp_line (start 0.076 -1.201) (end 0.076 -0.076) (layer F.Fab) (width 0.1))
  (fp_line (start 0.076 -0.076) (end 1.201 -0.076) (layer F.Fab) (width 0.1))
  (fp_line (start 1.201 -0.076) (end 1.201 0.076) (layer F.Fab) (width 0.1))
  (fp_line (start 1.201 0.076) (end 0.076 0.076) (layer F.Fab) (width 0.1))
  (fp_line (start 0.076 0.076) (end 0.076 1.201) (layer F.Fab) (width 0.1))
  (fp_line (start 0.076 1.201) (end -0.076 1.201) (layer F.Fab) (width 0.1))
  (fp_line (start -0.076 1.201) (end -0.076 0.076) (layer F.Fab) (width 0.1))
  (fp_line (start -0.076 0.076) (end -1.201 0.076) (layer F.Fab) (width 0.1))
  (fp_line (start -1.201 0.076) (end -1.201 -0.076) (layer F.Fab) (width 0.1))
  (fp_line (start -1.25 -5.3) (end -1.25 -4.3) (layer F.Fab) (width 0.1))
  (fp_line (start -1.25 -4.3) (end 1.25 -4.3) (layer F.Fab) (width 0.1))
  (fp_line (start 1.25 -4.3) (end 1.25 -5.3) (layer F.Fab) (width 0.1))
  (fp_line (start 1.25 -5.3) (end -1.25 -5.3) (layer F.Fab) (width 0.1))
  (fp_line (start -1.25 -5.301) (end 1.25 -5.301) (layer F.SilkS) (width 0.12))
  (fp_line (start -1.25 -4.301) (end 1.25 -4.301) (layer F.SilkS) (width 0.12))
  (fp_line (start -1.25 -5.301) (end -1.25 -4.301) (layer F.SilkS) (width 0.12))
  (fp_line (start 1.25 -5.301) (end 1.25 -4.301) (layer F.SilkS) (width 0.12))
  (fp_line (start 6.299 -0.076) (end 7.424 -0.076) (layer F.Fab) (width 0.1))
  (fp_line (start 7.424 -0.076) (end 7.424 -1.201) (layer F.Fab) (width 0.1))
  (fp_line (start 7.424 -1.201) (end 7.576 -1.201) (layer F.Fab) (width 0.1))
  (fp_line (start 7.576 -1.201) (end 7.576 -0.076) (layer F.Fab) (width 0.1))
  (fp_line (start 7.576 -0.076) (end 8.701 -0.076) (layer F.Fab) (width 0.1))
  (fp_line (start 8.701 -0.076) (end 8.701 0.076) (layer F.Fab) (width 0.1))
  (fp_line (start 8.701 0.076) (end 7.576 0.076) (layer F.Fab) (width 0.1))
  (fp_line (start 7.576 0.076) (end 7.576 1.201) (layer F.Fab) (width 0.1))
  (fp_line (start 7.576 1.201) (end 7.424 1.201) (layer F.Fab) (width 0.1))
  (fp_line (start 7.424 1.201) (end 7.424 0.076) (layer F.Fab) (width 0.1))
  (fp_line (start 7.424 0.076) (end 6.299 0.076) (layer F.Fab) (width 0.1))
  (fp_line (start 6.299 0.076) (end 6.299 -0.076) (layer F.Fab) (width 0.1))
  (fp_line (start 6.25 -5.3) (end 6.25 -4.3) (layer F.Fab) (width 0.1))
  (fp_line (start 6.25 -4.3) (end 8.75 -4.3) (layer F.Fab) (width 0.1))
  (fp_line (start 8.75 -4.3) (end 8.75 -5.3) (layer F.Fab) (width 0.1))
  (fp_line (start 8.75 -5.3) (end 6.25 -5.3) (layer F.Fab) (width 0.1))
  (fp_line (start 6.25 -5.301) (end 8.75 -5.301) (layer F.SilkS) (width 0.12))
  (fp_line (start 6.25 -4.301) (end 8.75 -4.301) (layer F.SilkS) (width 0.12))
  (fp_line (start 6.25 -5.301) (end 6.25 -4.301) (layer F.SilkS) (width 0.12))
  (fp_line (start 8.75 -5.301) (end 8.75 -4.301) (layer F.SilkS) (width 0.12))
  (fp_line (start 13.799 -0.076) (end 14.924 -0.076) (layer F.Fab) (width 0.1))
  (fp_line (start 14.924 -0.076) (end 14.924 -1.201) (layer F.Fab) (width 0.1))
  (fp_line (start 14.924 -1.201) (end 15.076 -1.201) (layer F.Fab) (width 0.1))
  (fp_line (start 15.076 -1.201) (end 15.076 -0.076) (layer F.Fab) (width 0.1))
  (fp_line (start 15.076 -0.076) (end 16.201 -0.076) (layer F.Fab) (width 0.1))
  (fp_line (start 16.201 -0.076) (end 16.201 0.076) (layer F.Fab) (width 0.1))
  (fp_line (start 16.201 0.076) (end 15.076 0.076) (layer F.Fab) (width 0.1))
  (fp_line (start 15.076 0.076) (end 15.076 1.201) (layer F.Fab) (width 0.1))
  (fp_line (start 15.076 1.201) (end 14.924 1.201) (layer F.Fab) (width 0.1))
  (fp_line (start 14.924 1.201) (end 14.924 0.076) (layer F.Fab) (width 0.1))
  (fp_line (start 14.924 0.076) (end 13.799 0.076) (layer F.Fab) (width 0.1))
  (fp_line (start 13.799 0.076) (end 13.799 -0.076) (layer F.Fab) (width 0.1))
  (fp_line (start 13.75 -5.3) (end 13.75 -4.3) (layer F.Fab) (width 0.1))
  (fp_line (start 13.75 -4.3) (end 16.25 -4.3) (layer F.Fab) (width 0.1))
  (fp_line (start 16.25 -4.3) (end 16.25 -5.3) (layer F.Fab) (width 0.1))
  (fp_line (start 16.25 -5.3) (end 13.75 -5.3) (layer F.Fab) (width 0.1))
  (fp_line (start 13.75 -5.301) (end 16.25 -5.301) (layer F.SilkS) (width 0.12))
  (fp_line (start 13.75 -4.301) (end 16.25 -4.301) (layer F.SilkS) (width 0.12))
  (fp_line (start 13.75 -5.301) (end 13.75 -4.301) (layer F.SilkS) (width 0.12))
  (fp_line (start 16.25 -5.301) (end 16.25 -4.301) (layer F.SilkS) (width 0.12))
  (fp_line (start 21.299 -0.076) (end 22.424 -0.076) (layer F.Fab) (width 0.1))
  (fp_line (start 22.424 -0.076) (end 22.424 -1.201) (layer F.Fab) (width 0.1))
  (fp_line (start 22.424 -1.201) (end 22.576 -1.201) (layer F.Fab) (width 0.1))
  (fp_line (start 22.576 -1.201) (end 22.576 -0.076) (layer F.Fab) (width 0.1))
  (fp_line (start 22.576 -0.076) (end 23.701 -0.076) (layer F.Fab) (width 0.1))
  (fp_line (start 23.701 -0.076) (end 23.701 0.076) (layer F.Fab) (width 0.1))
  (fp_line (start 23.701 0.076) (end 22.576 0.076) (layer F.Fab) (width 0.1))
  (fp_line (start 22.576 0.076) (end 22.576 1.201) (layer F.Fab) (width 0.1))
  (fp_line (start 22.576 1.201) (end 22.424 1.201) (layer F.Fab) (width 0.1))
  (fp_line (start 22.424 1.201) (end 22.424 0.076) (layer F.Fab) (width 0.1))
  (fp_line (start 22.424 0.076) (end 21.299 0.076) (layer F.Fab) (width 0.1))
  (fp_line (start 21.299 0.076) (end 21.299 -0.076) (layer F.Fab) (width 0.1))
  (fp_line (start 21.25 -5.3) (end 21.25 -4.3) (layer F.Fab) (width 0.1))
  (fp_line (start 21.25 -4.3) (end 23.75 -4.3) (layer F.Fab) (width 0.1))
  (fp_line (start 23.75 -4.3) (end 23.75 -5.3) (layer F.Fab) (width 0.1))
  (fp_line (start 23.75 -5.3) (end 21.25 -5.3) (layer F.Fab) (width 0.1))
  (fp_line (start 21.25 -5.301) (end 23.75 -5.301) (layer F.SilkS) (width 0.12))
  (fp_line (start 21.25 -4.301) (end 23.75 -4.301) (layer F.SilkS) (width 0.12))
  (fp_line (start 21.25 -5.301) (end 21.25 -4.301) (layer F.SilkS) (width 0.12))
  (fp_line (start 23.75 -5.301) (end 23.75 -4.301) (layer F.SilkS) (width 0.12))
  (fp_line (start -4.05 4.46) (end -4.05 5.3) (layer F.SilkS) (width 0.12))
  (fp_line (start -4.05 5.3) (end -3.45 5.3) (layer F.SilkS) (width 0.12))
  (fp_line (start -4.25 -5.81) (end -4.25 5.5) (layer F.CrtYd) (width 0.05))
  (fp_line (start -4.25 5.5) (end 26.75 5.5) (layer F.CrtYd) (width 0.05))
  (fp_line (start 26.75 5.5) (end 26.75 -5.81) (layer F.CrtYd) (width 0.05))
  (fp_line (start 26.75 -5.81) (end -4.25 -5.81) (layer F.CrtYd) (width 0.05))
  (pad 1 thru_hole rect (at 0 0) (size 2.5 2.5) (drill 1.3) (layers *.Cu *.Mask))
  (pad 2 thru_hole circle (at 7.5 0) (size 2.5 2.5) (drill 1.3) (layers *.Cu *.Mask))
  (pad 3 thru_hole circle (at 15 0) (size 2.5 2.5) (drill 1.3) (layers *.Cu *.Mask))
  (pad 4 thru_hole circle (at 22.5 0) (size 2.5 2.5) (drill 1.3) (layers *.Cu *.Mask))
  (fp_text user %R (at 11.25 2.85) (layer F.Fab)
    (effects (font (size 1 1) (thickness 0.15)))
  )
  (model ${KICAD6_3DMODEL_DIR}/TerminalBlock_RND.3dshapes/TerminalBlock_RND_205-00069_1x04_P7.50mm_Horizontal.wrl
    (at (xyz 0 0 0))
    (scale (xyz 1 1 1))
    (rotate (xyz 0 0 0))
  )
)