(module TerminalBlock_RND_205-00081_1x05_P10.00mm_Horizontal (layer F.Cu) (tedit 5B294F02)
  (descr "terminal block RND 205-00081, 5 pins, pitch 10mm, size 45x10.3mm^2, drill diamater 1.3mm, pad diameter 2.5mm, see http://cdn-reichelt.de/documents/datenblatt/C151/RND_205-00078_DB_EN.pdf, script-generated using https://github.com/pointhi/kicad-footprint-generator/scripts/TerminalBlock_RND")
  (tags "THT terminal block RND 205-00081 pitch 10mm size 45x10.3mm^2 drill 1.3mm pad 2.5mm")
  (fp_text reference REF** (at 20 -6.36) (layer F.SilkS)
    (effects (font (size 1 1) (thickness 0.15)))
  )
  (fp_text value TerminalBlock_RND_205-00081_1x05_P10.00mm_Horizontal (at 20 6.06) (layer F.Fab)
    (effects (font (size 1 1) (thickness 0.15)))
  )
  (fp_arc (start 0 0) (end 0 1.68) (angle -28) (layer F.SilkS) (width 0.12))
  (fp_arc (start 0 0) (end 1.484 0.789) (angle -56) (layer F.SilkS) (width 0.12))
  (fp_arc (start 0 0) (end 0.789 -1.484) (angle -56) (layer F.SilkS) (width 0.12))
  (fp_arc (start 0 0) (end -1.484 -0.789) (angle -56) (layer F.SilkS) (width 0.12))
  (fp_arc (start 0 0) (end -0.789 1.484) (angle -29) (layer F.SilkS) (width 0.12))
  (fp_circle (center 0 0) (end 1.5 0) (layer F.Fab) (width 0.1))
  (fp_circle (center 5 0) (end 6.5 0) (layer F.Fab) (width 0.1))
  (fp_circle (center 5 0) (end 6.5 0) (layer F.SilkS) (width 0.12))
  (fp_circle (center 10 0) (end 11.5 0) (layer F.Fab) (width 0.1))
  (fp_circle (center 10 0) (end 11.68 0) (layer F.SilkS) (width 0.12))
  (fp_circle (center 15 0) (end 16.5 0) (layer F.Fab) (width 0.1))
  (fp_circle (center 15 0) (end 16.5 0) (layer F.SilkS) (width 0.12))
  (fp_circle (center 20 0) (end 21.5 0) (layer F.Fab) (width 0.1))
  (fp_circle (center 20 0) (end 21.68 0) (layer F.SilkS) (width 0.12))
  (fp_circle (center 25 0) (end 26.5 0) (layer F.Fab) (width 0.1))
  (fp_circle (center 25 0) (end 26.5 0) (layer F.SilkS) (width 0.12))
  (fp_circle (center 30 0) (end 31.5 0) (layer F.Fab) (width 0.1))
  (fp_circle (center 30 0) (end 31.68 0) (layer F.SilkS) (width 0.12))
  (fp_circle (center 35 0) (end 36.5 0) (layer F.Fab) (width 0.1))
  (fp_circle (center 35 0) (end 36.5 0) (layer F.SilkS) (width 0.12))
  (fp_circle (center 40 0) (end 41.5 0) (layer F.Fab) (width 0.1))
  (fp_circle (center 40 0) (end 41.68 0) (layer F.SilkS) (width 0.12))
  (fp_line (start -2.5 -5.3) (end 42.5 -5.3) (layer F.Fab) (width 0.1))
  (fp_line (start 42.5 -5.3) (end 42.5 5) (layer F.Fab) (width 0.1))
  (fp_line (start 42.5 5) (end -1.9 5) (layer F.Fab) (width 0.1))
  (fp_line (start -1.9 5) (end -2.5 4.4) (layer F.Fab) (width 0.1))
  (fp_line (start -2.5 4.4) (end -2.5 -5.3) (layer F.Fab) (width 0.1))
  (fp_line (start -2.5 4.4) (end 42.5 4.4) (layer F.Fab) (width 0.1))
  (fp_line (start -2.56 4.4) (end 42.56 4.4) (layer F.SilkS) (width 0.12))
  (fp_line (start -2.5 3.8) (end 42.5 3.8) (layer F.Fab) (width 0.1))
  (fp_line (start -2.56 3.8) (end 42.56 3.8) (layer F.SilkS) (width 0.12))
  (fp_line (start -2.5 -3.3) (end 42.5 -3.3) (layer F.Fab) (width 0.1))
  (fp_line (start -2.56 -3.301) (end 42.56 -3.301) (layer F.SilkS) (width 0.12))
  (fp_line (start -2.56 -5.36) (end 42.56 -5.36) (layer F.SilkS) (width 0.12))
  (fp_line (start -2.56 5.06) (end 42.56 5.06) (layer F.SilkS) (width 0.12))
  (fp_line (start -2.56 -5.36) (end -2.56 5.06) (layer F.SilkS) (width 0.12))
  (fp_line (start 42.56 -5.36) (end 42.56 5.06) (layer F.SilkS) (width 0.12))
  (fp_line (start -1.201 -0.076) (end -0.076 -0.076) (layer F.Fab) (width 0.1))
  (fp_line (start -0.076 -0.076) (end -0.076 -1.201) (layer F.Fab) (width 0.1))
  (fp_line (start -0.076 -1.201) (end 0.076 -1.201) (layer F.Fab) (width 0.1))
  (fp_line (start 0.076 -1.201) (end 0.076 -0.076) (layer F.Fab) (width 0.1))
  (fp_line (start 0.076 -0.076) (end 1.201 -0.076) (layer F.Fab) (width 0.1))
  (fp_line (start 1.201 -0.076) (end 1.201 0.076) (layer F.Fab) (width 0.1))
  (fp_line (start 1.201 0.076) (end 0.076 0.076) (layer F.Fab) (width 0.1))
  (fp_line (start 0.076 0.076) (end 0.076 1.201) (layer F.Fab) (width 0.1))
  (fp_line (start 0.076 1.201) (end -0.076 1.201) (layer F.Fab) (width 0.1))
  (fp_line (start -0.076 1.201) (end -0.076 0.076) (layer F.Fab) (width 0.1))
  (fp_line (start -0.076 0.076) (end -1.201 0.076) (layer F.Fab) (width 0.1))
  (fp_line (start -1.201 0.076) (end -1.201 -0.076) (layer F.Fab) (width 0.1))
  (fp_line (start -1.25 -5.3) (end -1.25 -4.3) (layer F.Fab) (width 0.1))
  (fp_line (start -1.25 -4.3) (end 1.25 -4.3) (layer F.Fab) (width 0.1))
  (fp_line (start 1.25 -4.3) (end 1.25 -5.3) (layer F.Fab) (width 0.1))
  (fp_line (start 1.25 -5.3) (end -1.25 -5.3) (layer F.Fab) (width 0.1))
  (fp_line (start -1.25 -5.301) (end 1.25 -5.301) (layer F.SilkS) (width 0.12))
  (fp_line (start -1.25 -4.301) (end 1.25 -4.301) (layer F.SilkS) (width 0.12))
  (fp_line (start -1.25 -5.301) (end -1.25 -4.301) (layer F.SilkS) (width 0.12))
  (fp_line (start 1.25 -5.301) (end 1.25 -4.301) (layer F.SilkS) (width 0.12))
  (fp_line (start 3.75 -5.3) (end 3.75 -4.3) (layer F.Fab) (width 0.1))
  (fp_line (start 3.75 -4.3) (end 6.25 -4.3) (layer F.Fab) (width 0.1))
  (fp_line (start 6.25 -4.3) (end 6.25 -5.3) (layer F.Fab) (width 0.1))
  (fp_line (start 6.25 -5.3) (end 3.75 -5.3) (layer F.Fab) (width 0.1))
  (fp_line (start 3.75 -5.301) (end 6.25 -5.301) (layer F.SilkS) (width 0.12))
  (fp_line (start 3.75 -4.301) (end 6.25 -4.301) (layer F.SilkS) (width 0.12))
  (fp_line (start 3.75 -5.301) (end 3.75 -4.301) (layer F.SilkS) (width 0.12))
  (fp_line (start 6.25 -5.301) (end 6.25 -4.301) (layer F.SilkS) (width 0.12))
  (fp_line (start 8.799 -0.076) (end 9.924 -0.076) (layer F.Fab) (width 0.1))
  (fp_line (start 9.924 -0.076) (end 9.924 -1.201) (layer F.Fab) (width 0.1))
  (fp_line (start 9.924 -1.201) (end 10.076 -1.201) (layer F.Fab) (width 0.1))
  (fp_line (start 10.076 -1.201) (end 10.076 -0.076) (layer F.Fab) (width 0.1))
  (fp_line (start 10.076 -0.076) (end 11.201 -0.076) (layer F.Fab) (width 0.1))
  (fp_line (start 11.201 -0.076) (end 11.201 0.076) (layer F.Fab) (width 0.1))
  (fp_line (start 11.201 0.076) (end 10.076 0.076) (layer F.Fab) (width 0.1))
  (fp_line (start 10.076 0.076) (end 10.076 1.201) (layer F.Fab) (width 0.1))
  (fp_line (start 10.076 1.201) (end 9.924 1.201) (layer F.Fab) (width 0.1))
  (fp_line (start 9.924 1.201) (end 9.924 0.076) (layer F.Fab) (width 0.1))
  (fp_line (start 9.924 0.076) (end 8.799 0.076) (layer F.Fab) (width 0.1))
  (fp_line (start 8.799 0.076) (end 8.799 -0.076) (layer F.Fab) (width 0.1))
  (fp_line (start 8.75 -5.3) (end 8.75 -4.3) (layer F.Fab) (width 0.1))
  (fp_line (start 8.75 -4.3) (end 11.25 -4.3) (layer F.Fab) (width 0.1))
  (fp_line (start 11.25 -4.3) (end 11.25 -5.3) (layer F.Fab) (width 0.1))
  (fp_line (start 11.25 -5.3) (end 8.75 -5.3) (layer F.Fab) (width 0.1))
  (fp_line (start 8.75 -5.301) (end 11.25 -5.301) (layer F.SilkS) (width 0.12))
  (fp_line (start 8.75 -4.301) (end 11.25 -4.301) (layer F.SilkS) (width 0.12))
  (fp_line (start 8.75 -5.301) (end 8.75 -4.301) (layer F.SilkS) (width 0.12))
  (fp_line (start 11.25 -5.301) (end 11.25 -4.301) (layer F.SilkS) (width 0.12))
  (fp_line (start 13.75 -5.3) (end 13.75 -4.3) (layer F.Fab) (width 0.1))
  (fp_line (start 13.75 -4.3) (end 16.25 -4.3) (layer F.Fab) (width 0.1))
  (fp_line (start 16.25 -4.3) (end 16.25 -5.3) (layer F.Fab) (width 0.1))
  (fp_line (start 16.25 -5.3) (end 13.75 -5.3) (layer F.Fab) (width 0.1))
  (fp_line (start 13.75 -5.301) (end 16.25 -5.301) (layer F.SilkS) (width 0.12))
  (fp_line (start 13.75 -4.301) (end 16.25 -4.301) (layer F.SilkS) (width 0.12))
  (fp_line (start 13.75 -5.301) (end 13.75 -4.301) (layer F.SilkS) (width 0.12))
  (fp_line (start 16.25 -5.301) (end 16.25 -4.301) (layer F.SilkS) (width 0.12))
  (fp_line (start 18.799 -0.076) (end 19.924 -0.076) (layer F.Fab) (width 0.1))
  (fp_line (start 19.924 -0.076) (end 19.924 -1.201) (layer F.Fab) (width 0.1))
  (fp_line (start 19.924 -1.201) (end 20.076 -1.201) (layer F.Fab) (width 0.1))
  (fp_line (start 20.076 -1.201) (end 20.076 -0.076) (layer F.Fab) (width 0.1))
  (fp_line (start 20.076 -0.076) (end 21.201 -0.076) (layer F.Fab) (width 0.1))
  (fp_line (start 21.201 -0.076) (end 21.201 0.076) (layer F.Fab) (width 0.1))
  (fp_line (start 21.201 0.076) (end 20.076 0.076) (layer F.Fab) (width 0.1))
  (fp_line (start 20.076 0.076) (end 20.076 1.201) (layer F.Fab) (width 0.1))
  (fp_line (start 20.076 1.201) (end 19.924 1.201) (layer F.Fab) (width 0.1))
  (fp_line (start 19.924 1.201) (end 19.924 0.076) (layer F.Fab) (width 0.1))
  (fp_line (start 19.924 0.076) (end 18.799 0.076) (layer F.Fab) (width 0.1))
  (fp_line (start 18.799 0.076) (end 18.799 -0.076) (layer F.Fab) (width 0.1))
  (fp_line (start 18.75 -5.3) (end 18.75 -4.3) (layer F.Fab) (width 0.1))
  (fp_line (start 18.75 -4.3) (end 21.25 -4.3) (layer F.Fab) (width 0.1))
  (fp_line (start 21.25 -4.3) (end 21.25 -5.3) (layer F.Fab) (width 0.1))
  (fp_line (start 21.25 -5.3) (end 18.75 -5.3) (layer F.Fab) (width 0.1))
  (fp_line (start 18.75 -5.301) (end 21.25 -5.301) (layer F.SilkS) (width 0.12))
  (fp_line (start 18.75 -4.301) (end 21.25 -4.301) (layer F.SilkS) (width 0.12))
  (fp_line (start 18.75 -5.301) (end 18.75 -4.301) (layer F.SilkS) (width 0.12))
  (fp_line (start 21.25 -5.301) (end 21.25 -4.301) (layer F.SilkS) (width 0.12))
  (fp_line (start 23.75 -5.3) (end 23.75 -4.3) (layer F.Fab) (width 0.1))
  (fp_line (start 23.75 -4.3) (end 26.25 -4.3) (layer F.Fab) (width 0.1))
  (fp_line (start 26.25 -4.3) (end 26.25 -5.3) (layer F.Fab) (width 0.1))
  (fp_line (start 26.25 -5.3) (end 23.75 -5.3) (layer F.Fab) (width 0.1))
  (fp_line (start 23.75 -5.301) (end 26.25 -5.301) (layer F.SilkS) (width 0.12))
  (fp_line (start 23.75 -4.301) (end 26.25 -4.301) (layer F.SilkS) (width 0.12))
  (fp_line (start 23.75 -5.301) (end 23.75 -4.301) (layer F.SilkS) (width 0.12))
  (fp_line (start 26.25 -5.301) (end 26.25 -4.301) (layer F.SilkS) (width 0.12))
  (fp_line (start 28.799 -0.076) (end 29.924 -0.076) (layer F.Fab) (width 0.1))
  (fp_line (start 29.924 -0.076) (end 29.924 -1.201) (layer F.Fab) (width 0.1))
  (fp_line (start 29.924 -1.201) (end 30.076 -1.201) (layer F.Fab) (width 0.1))
  (fp_line (start 30.076 -1.201) (end 30.076 -0.076) (layer F.Fab) (width 0.1))
  (fp_line (start 30.076 -0.076) (end 31.201 -0.076) (layer F.Fab) (width 0.1))
  (fp_line (start 31.201 -0.076) (end 31.201 0.076) (layer F.Fab) (width 0.1))
  (fp_line (start 31.201 0.076) (end 30.076 0.076) (layer F.Fab) (width 0.1))
  (fp_line (start 30.076 0.076) (end 30.076 1.201) (layer F.Fab) (width 0.1))
  (fp_line (start 30.076 1.201) (end 29.924 1.201) (layer F.Fab) (width 0.1))
  (fp_line (start 29.924 1.201) (end 29.924 0.076) (layer F.Fab) (width 0.1))
  (fp_line (start 29.924 0.076) (end 28.799 0.076) (layer F.Fab) (width 0.1))
  (fp_line (start 28.799 0.076) (end 28.799 -0.076) (layer F.Fab) (width 0.1))
  (fp_line (start 28.75 -5.3) (end 28.75 -4.3) (layer F.Fab) (width 0.1))
  (fp_line (start 28.75 -4.3) (end 31.25 -4.3) (layer F.Fab) (width 0.1))
  (fp_line (start 31.25 -4.3) (end 31.25 -5.3) (layer F.Fab) (width 0.1))
  (fp_line (start 31.25 -5.3) (end 28.75 -5.3) (layer F.Fab) (width 0.1))
  (fp_line (start 28.75 -5.301) (end 31.25 -5.301) (layer F.SilkS) (width 0.12))
  (fp_line (start 28.75 -4.301) (end 31.25 -4.301) (layer F.SilkS) (width 0.12))
  (fp_line (start 28.75 -5.301) (end 28.75 -4.301) (layer F.SilkS) (width 0.12))
  (fp_line (start 31.25 -5.301) (end 31.25 -4.301) (layer F.SilkS) (width 0.12))
  (fp_line (start 33.75 -5.3) (end 33.75 -4.3) (layer F.Fab) (width 0.1))
  (fp_line (start 33.75 -4.3) (end 36.25 -4.3) (layer F.Fab) (width 0.1))
  (fp_line (start 36.25 -4.3) (end 36.25 -5.3) (layer F.Fab) (width 0.1))
  (fp_line (start 36.25 -5.3) (end 33.75 -5.3) (layer F.Fab) (width 0.1))
  (fp_line (start 33.75 -5.301) (end 36.25 -5.301) (layer F.SilkS) (width 0.12))
  (fp_line (start 33.75 -4.301) (end 36.25 -4.301) (layer F.SilkS) (width 0.12))
  (fp_line (start 33.75 -5.301) (end 33.75 -4.301) (layer F.SilkS) (width 0.12))
  (fp_line (start 36.25 -5.301) (end 36.25 -4.301) (layer F.SilkS) (width 0.12))
  (fp_line (start 38.799 -0.076) (end 39.924 -0.076) (layer F.Fab) (width 0.1))
  (fp_line (start 39.924 -0.076) (end 39.924 -1.201) (layer F.Fab) (width 0.1))
  (fp_line (start 39.924 -1.201) (end 40.076 -1.201) (layer F.Fab) (width 0.1))
  (fp_line (start 40.076 -1.201) (end 40.076 -0.076) (layer F.Fab) (width 0.1))
  (fp_line (start 40.076 -0.076) (end 41.201 -0.076) (layer F.Fab) (width 0.1))
  (fp_line (start 41.201 -0.076) (end 41.201 0.076) (layer F.Fab) (width 0.1))
  (fp_line (start 41.201 0.076) (end 40.076 0.076) (layer F.Fab) (width 0.1))
  (fp_line (start 40.076 0.076) (end 40.076 1.201) (layer F.Fab) (width 0.1))
  (fp_line (start 40.076 1.201) (end 39.924 1.201) (layer F.Fab) (width 0.1))
  (fp_line (start 39.924 1.201) (end 39.924 0.076) (layer F.Fab) (width 0.1))
  (fp_line (start 39.924 0.076) (end 38.799 0.076) (layer F.Fab) (width 0.1))
  (fp_line (start 38.799 0.076) (end 38.799 -0.076) (layer F.Fab) (width 0.1))
  (fp_line (start 38.75 -5.3) (end 38.75 -4.3) (layer F.Fab) (width 0.1))
  (fp_line (start 38.75 -4.3) (end 41.25 -4.3) (layer F.Fab) (width 0.1))
  (fp_line (start 41.25 -4.3) (end 41.25 -5.3) (layer F.Fab) (width 0.1))
  (fp_line (start 41.25 -5.3) (end 38.75 -5.3) (layer F.Fab) (width 0.1))
  (fp_line (start 38.75 -5.301) (end 41.25 -5.301) (layer F.SilkS) (width 0.12))
  (fp_line (start 38.75 -4.301) (end 41.25 -4.301) (layer F.SilkS) (width 0.12))
  (fp_line (start 38.75 -5.301) (end 38.75 -4.301) (layer F.SilkS) (width 0.12))
  (fp_line (start 41.25 -5.301) (end 41.25 -4.301) (layer F.SilkS) (width 0.12))
  (fp_line (start -2.8 4.46) (end -2.8 5.3) (layer F.SilkS) (width 0.12))
  (fp_line (start -2.8 5.3) (end -2.2 5.3) (layer F.SilkS) (width 0.12))
  (fp_line (start -3 -5.81) (end -3 5.5) (layer F.CrtYd) (width 0.05))
  (fp_line (start -3 5.5) (end 43 5.5) (layer F.CrtYd) (width 0.05))
  (fp_line (start 43 5.5) (end 43 -5.81) (layer F.CrtYd) (width 0.05))
  (fp_line (start 43 -5.81) (end -3 -5.81) (layer F.CrtYd) (width 0.05))
  (pad 1 thru_hole rect (at 0 0) (size 2.5 2.5) (drill 1.3) (layers *.Cu *.Mask))
  (pad 2 thru_hole circle (at 10 0) (size 2.5 2.5) (drill 1.3) (layers *.Cu *.Mask))
  (pad 3 thru_hole circle (at 20 0) (size 2.5 2.5) (drill 1.3) (layers *.Cu *.Mask))
  (pad 4 thru_hole circle (at 30 0) (size 2.5 2.5) (drill 1.3) (layers *.Cu *.Mask))
  (pad 5 thru_hole circle (at 40 0) (size 2.5 2.5) (drill 1.3) (layers *.Cu *.Mask))
  (fp_text user %R (at 20 2.85) (layer F.Fab)
    (effects (font (size 1 1) (thickness 0.15)))
  )
  (model ${KICAD6_3DMODEL_DIR}/TerminalBlock_RND.3dshapes/TerminalBlock_RND_205-00081_1x05_P10.00mm_Horizontal.wrl
    (at (xyz 0 0 0))
    (scale (xyz 1 1 1))
    (rotate (xyz 0 0 0))
  )
)