(module TerminalBlock_RND_205-00077_1x12_P7.50mm_Horizontal (layer F.Cu) (tedit 5B294F24)
  (descr "terminal block RND 205-00077, 12 pins, pitch 7.5mm, size 90x10.3mm^2, drill diamater 1.3mm, pad diameter 2.5mm, see http://cdn-reichelt.de/documents/datenblatt/C151/RND_205-00067_DB_EN.pdf, script-generated using https://github.com/pointhi/kicad-footprint-generator/scripts/TerminalBlock_RND")
  (tags "THT terminal block RND 205-00077 pitch 7.5mm size 90x10.3mm^2 drill 1.3mm pad 2.5mm")
  (fp_text reference REF** (at 41.25 -6.36) (layer F.SilkS)
    (effects (font (size 1 1) (thickness 0.15)))
  )
  (fp_text value TerminalBlock_RND_205-00077_1x12_P7.50mm_Horizontal (at 41.25 6.06) (layer F.Fab)
    (effects (font (size 1 1) (thickness 0.15)))
  )
  (fp_arc (start 0 0) (end 0 1.68) (angle -28) (layer F.SilkS) (width 0.12))
  (fp_arc (start 0 0) (end 1.484 0.789) (angle -56) (layer F.SilkS) (width 0.12))
  (fp_arc (start 0 0) (end 0.789 -1.484) (angle -56) (layer F.SilkS) (width 0.12))
  (fp_arc (start 0 0) (end -1.484 -0.789) (angle -56) (layer F.SilkS) (width 0.12))
  (fp_arc (start 0 0) (end -0.789 1.484) (angle -29) (layer F.SilkS) (width 0.12))
  (fp_circle (center 0 0) (end 1.5 0) (layer F.Fab) (width 0.1))
  (fp_circle (center 7.5 0) (end 9 0) (layer F.Fab) (width 0.1))
  (fp_circle (center 7.5 0) (end 9.18 0) (layer F.SilkS) (width 0.12))
  (fp_circle (center 15 0) (end 16.5 0) (layer F.Fab) (width 0.1))
  (fp_circle (center 15 0) (end 16.68 0) (layer F.SilkS) (width 0.12))
  (fp_circle (center 22.5 0) (end 24 0) (layer F.Fab) (width 0.1))
  (fp_circle (center 22.5 0) (end 24.18 0) (layer F.SilkS) (width 0.12))
  (fp_circle (center 30 0) (end 31.5 0) (layer F.Fab) (width 0.1))
  (fp_circle (center 30 0) (end 31.68 0) (layer F.SilkS) (width 0.12))
  (fp_circle (center 37.5 0) (end 39 0) (layer F.Fab) (width 0.1))
  (fp_circle (center 37.5 0) (end 39.18 0) (layer F.SilkS) (width 0.12))
  (fp_circle (center 45 0) (end 46.5 0) (layer F.Fab) (width 0.1))
  (fp_circle (center 45 0) (end 46.68 0) (layer F.SilkS) (width 0.12))
  (fp_circle (center 52.5 0) (end 54 0) (layer F.Fab) (width 0.1))
  (fp_circle (center 52.5 0) (end 54.18 0) (layer F.SilkS) (width 0.12))
  (fp_circle (center 60 0) (end 61.5 0) (layer F.Fab) (width 0.1))
  (fp_circle (center 60 0) (end 61.68 0) (layer F.SilkS) (width 0.12))
  (fp_circle (center 67.5 0) (end 69 0) (layer F.Fab) (width 0.1))
  (fp_circle (center 67.5 0) (end 69.18 0) (layer F.SilkS) (width 0.12))
  (fp_circle (center 75 0) (end 76.5 0) (layer F.Fab) (width 0.1))
  (fp_circle (center 75 0) (end 76.68 0) (layer F.SilkS) (width 0.12))
  (fp_circle (center 82.5 0) (end 84 0) (layer F.Fab) (width 0.1))
  (fp_circle (center 82.5 0) (end 84.18 0) (layer F.SilkS) (width 0.12))
  (fp_line (start -3.75 -5.3) (end 86.25 -5.3) (layer F.Fab) (width 0.1))
  (fp_line (start 86.25 -5.3) (end 86.25 5) (layer F.Fab) (width 0.1))
  (fp_line (start 86.25 5) (end -3.15 5) (layer F.Fab) (width 0.1))
  (fp_line (start -3.15 5) (end -3.75 4.4) (layer F.Fab) (width 0.1))
  (fp_line (start -3.75 4.4) (end -3.75 -5.3) (layer F.Fab) (width 0.1))
  (fp_line (start -3.75 4.4) (end 86.25 4.4) (layer F.Fab) (width 0.1))
  (fp_line (start -3.81 4.4) (end 86.31 4.4) (layer F.SilkS) (width 0.12))
  (fp_line (start -3.75 3.8) (end 86.25 3.8) (layer F.Fab) (width 0.1))
  (fp_line (start -3.81 3.8) (end 86.31 3.8) (layer F.SilkS) (width 0.12))
  (fp_line (start -3.75 -3.3) (end 86.25 -3.3) (layer F.Fab) (width 0.1))
  (fp_line (start -3.81 -3.301) (end 86.31 -3.301) (layer F.SilkS) (width 0.12))
  (fp_line (start -3.81 -5.36) (end 86.31 -5.36) (layer F.SilkS) (width 0.12))
  (fp_line (start -3.81 5.06) (end 86.31 5.06) (layer F.SilkS) (width 0.12))
  (fp_line (start -3.81 -5.36) (end -3.81 5.06) (layer F.SilkS) (width 0.12))
  (fp_line (start 86.31 -5.36) (end 86.31 5.06) (layer F.SilkS) (width 0.12))
  (fp_line (start -1.201 -0.076) (end -0.076 -0.076) (layer F.Fab) (width 0.1))
  (fp_line (start -0.076 -0.076) (end -0.076 -1.201) (layer F.Fab) (width 0.1))
  (fp_line (start -0.076 -1.201) (end 0.076 -1.201) (layer F.Fab) (width 0.1))
  (fp_line (start 0.076 -1.201) (end 0.076 -0.076) (layer F.Fab) (width 0.1))
  (fp_line (start 0.076 -0.076) (end 1.201 -0.076) (layer F.Fab) (width 0.1))
  (fp_line (start 1.201 -0.076) (end 1.201 0.076) (layer F.Fab) (width 0.1))
  (fp_line (start 1.201 0.076) (end 0.076 0.076) (layer F.Fab) (width 0.1))
  (fp_line (start 0.076 0.076) (end 0.076 1.201) (layer F.Fab) (width 0.1))
  (fp_line (start 0.076 1.201) (end -0.076 1.201) (layer F.Fab) (width 0.1))
  (fp_line (start -0.076 1.201) (end -0.076 0.076) (layer F.Fab) (width 0.1))
  (fp_line (start -0.076 0.076) (end -1.201 0.076) (layer F.Fab) (width 0.1))
  (fp_line (start -1.201 0.076) (end -1.201 -0.076) (layer F.Fab) (width 0.1))
  (fp_line (start -1.25 -5.3) (end -1.25 -4.3) (layer F.Fab) (width 0.1))
  (fp_line (start -1.25 -4.3) (end 1.25 -4.3) (layer F.Fab) (width 0.1))
  (fp_line (start 1.25 -4.3) (end 1.25 -5.3) (layer F.Fab) (width 0.1))
  (fp_line (start 1.25 -5.3) (end -1.25 -5.3) (layer F.Fab) (width 0.1))
  (fp_line (start -1.25 -5.301) (end 1.25 -5.301) (layer F.SilkS) (width 0.12))
  (fp_line (start -1.25 -4.301) (end 1.25 -4.301) (layer F.SilkS) (width 0.12))
  (fp_line (start -1.25 -5.301) (end -1.25 -4.301) (layer F.SilkS) (width 0.12))
  (fp_line (start 1.25 -5.301) (end 1.25 -4.301) (layer F.SilkS) (width 0.12))
  (fp_line (start 6.299 -0.076) (end 7.424 -0.076) (layer F.Fab) (width 0.1))
  (fp_line (start 7.424 -0.076) (end 7.424 -1.201) (layer F.Fab) (width 0.1))
  (fp_line (start 7.424 -1.201) (end 7.576 -1.201) (layer F.Fab) (width 0.1))
  (fp_line (start 7.576 -1.201) (end 7.576 -0.076) (layer F.Fab) (width 0.1))
  (fp_line (start 7.576 -0.076) (end 8.701 -0.076) (layer F.Fab) (width 0.1))
  (fp_line (start 8.701 -0.076) (end 8.701 0.076) (layer F.Fab) (width 0.1))
  (fp_line (start 8.701 0.076) (end 7.576 0.076) (layer F.Fab) (width 0.1))
  (fp_line (start 7.576 0.076) (end 7.576 1.201) (layer F.Fab) (width 0.1))
  (fp_line (start 7.576 1.201) (end 7.424 1.201) (layer F.Fab) (width 0.1))
  (fp_line (start 7.424 1.201) (end 7.424 0.076) (layer F.Fab) (width 0.1))
  (fp_line (start 7.424 0.076) (end 6.299 0.076) (layer F.Fab) (width 0.1))
  (fp_line (start 6.299 0.076) (end 6.299 -0.076) (layer F.Fab) (width 0.1))
  (fp_line (start 6.25 -5.3) (end 6.25 -4.3) (layer F.Fab) (width 0.1))
  (fp_line (start 6.25 -4.3) (end 8.75 -4.3) (layer F.Fab) (width 0.1))
  (fp_line (start 8.75 -4.3) (end 8.75 -5.3) (layer F.Fab) (width 0.1))
  (fp_line (start 8.75 -5.3) (end 6.25 -5.3) (layer F.Fab) (width 0.1))
  (fp_line (start 6.25 -5.301) (end 8.75 -5.301) (layer F.SilkS) (width 0.12))
  (fp_line (start 6.25 -4.301) (end 8.75 -4.301) (layer F.SilkS) (width 0.12))
  (fp_line (start 6.25 -5.301) (end 6.25 -4.301) (layer F.SilkS) (width 0.12))
  (fp_line (start 8.75 -5.301) (end 8.75 -4.301) (layer F.SilkS) (width 0.12))
  (fp_line (start 13.799 -0.076) (end 14.924 -0.076) (layer F.Fab) (width 0.1))
  (fp_line (start 14.924 -0.076) (end 14.924 -1.201) (layer F.Fab) (width 0.1))
  (fp_line (start 14.924 -1.201) (end 15.076 -1.201) (layer F.Fab) (width 0.1))
  (fp_line (start 15.076 -1.201) (end 15.076 -0.076) (layer F.Fab) (width 0.1))
  (fp_line (start 15.076 -0.076) (end 16.201 -0.076) (layer F.Fab) (width 0.1))
  (fp_line (start 16.201 -0.076) (end 16.201 0.076) (layer F.Fab) (width 0.1))
  (fp_line (start 16.201 0.076) (end 15.076 0.076) (layer F.Fab) (width 0.1))
  (fp_line (start 15.076 0.076) (end 15.076 1.201) (layer F.Fab) (width 0.1))
  (fp_line (start 15.076 1.201) (end 14.924 1.201) (layer F.Fab) (width 0.1))
  (fp_line (start 14.924 1.201) (end 14.924 0.076) (layer F.Fab) (width 0.1))
  (fp_line (start 14.924 0.076) (end 13.799 0.076) (layer F.Fab) (width 0.1))
  (fp_line (start 13.799 0.076) (end 13.799 -0.076) (layer F.Fab) (width 0.1))
  (fp_line (start 13.75 -5.3) (end 13.75 -4.3) (layer F.Fab) (width 0.1))
  (fp_line (start 13.75 -4.3) (end 16.25 -4.3) (layer F.Fab) (width 0.1))
  (fp_line (start 16.25 -4.3) (end 16.25 -5.3) (layer F.Fab) (width 0.1))
  (fp_line (start 16.25 -5.3) (end 13.75 -5.3) (layer F.Fab) (width 0.1))
  (fp_line (start 13.75 -5.301) (end 16.25 -5.301) (layer F.SilkS) (width 0.12))
  (fp_line (start 13.75 -4.301) (end 16.25 -4.301) (layer F.SilkS) (width 0.12))
  (fp_line (start 13.75 -5.301) (end 13.75 -4.301) (layer F.SilkS) (width 0.12))
  (fp_line (start 16.25 -5.301) (end 16.25 -4.301) (layer F.SilkS) (width 0.12))
  (fp_line (start 21.299 -0.076) (end 22.424 -0.076) (layer F.Fab) (width 0.1))
  (fp_line (start 22.424 -0.076) (end 22.424 -1.201) (layer F.Fab) (width 0.1))
  (fp_line (start 22.424 -1.201) (end 22.576 -1.201) (layer F.Fab) (width 0.1))
  (fp_line (start 22.576 -1.201) (end 22.576 -0.076) (layer F.Fab) (width 0.1))
  (fp_line (start 22.576 -0.076) (end 23.701 -0.076) (layer F.Fab) (width 0.1))
  (fp_line (start 23.701 -0.076) (end 23.701 0.076) (layer F.Fab) (width 0.1))
  (fp_line (start 23.701 0.076) (end 22.576 0.076) (layer F.Fab) (width 0.1))
  (fp_line (start 22.576 0.076) (end 22.576 1.201) (layer F.Fab) (width 0.1))
  (fp_line (start 22.576 1.201) (end 22.424 1.201) (layer F.Fab) (width 0.1))
  (fp_line (start 22.424 1.201) (end 22.424 0.076) (layer F.Fab) (width 0.1))
  (fp_line (start 22.424 0.076) (end 21.299 0.076) (layer F.Fab) (width 0.1))
  (fp_line (start 21.299 0.076) (end 21.299 -0.076) (layer F.Fab) (width 0.1))
  (fp_line (start 21.25 -5.3) (end 21.25 -4.3) (layer F.Fab) (width 0.1))
  (fp_line (start 21.25 -4.3) (end 23.75 -4.3) (layer F.Fab) (width 0.1))
  (fp_line (start 23.75 -4.3) (end 23.75 -5.3) (layer F.Fab) (width 0.1))
  (fp_line (start 23.75 -5.3) (end 21.25 -5.3) (layer F.Fab) (width 0.1))
  (fp_line (start 21.25 -5.301) (end 23.75 -5.301) (layer F.SilkS) (width 0.12))
  (fp_line (start 21.25 -4.301) (end 23.75 -4.301) (layer F.SilkS) (width 0.12))
  (fp_line (start 21.25 -5.301) (end 21.25 -4.301) (layer F.SilkS) (width 0.12))
  (fp_line (start 23.75 -5.301) (end 23.75 -4.301) (layer F.SilkS) (width 0.12))
  (fp_line (start 28.799 -0.076) (end 29.924 -0.076) (layer F.Fab) (width 0.1))
  (fp_line (start 29.924 -0.076) (end 29.924 -1.201) (layer F.Fab) (width 0.1))
  (fp_line (start 29.924 -1.201) (end 30.076 -1.201) (layer F.Fab) (width 0.1))
  (fp_line (start 30.076 -1.201) (end 30.076 -0.076) (layer F.Fab) (width 0.1))
  (fp_line (start 30.076 -0.076) (end 31.201 -0.076) (layer F.Fab) (width 0.1))
  (fp_line (start 31.201 -0.076) (end 31.201 0.076) (layer F.Fab) (width 0.1))
  (fp_line (start 31.201 0.076) (end 30.076 0.076) (layer F.Fab) (width 0.1))
  (fp_line (start 30.076 0.076) (end 30.076 1.201) (layer F.Fab) (width 0.1))
  (fp_line (start 30.076 1.201) (end 29.924 1.201) (layer F.Fab) (width 0.1))
  (fp_line (start 29.924 1.201) (end 29.924 0.076) (layer F.Fab) (width 0.1))
  (fp_line (start 29.924 0.076) (end 28.799 0.076) (layer F.Fab) (width 0.1))
  (fp_line (start 28.799 0.076) (end 28.799 -0.076) (layer F.Fab) (width 0.1))
  (fp_line (start 28.75 -5.3) (end 28.75 -4.3) (layer F.Fab) (width 0.1))
  (fp_line (start 28.75 -4.3) (end 31.25 -4.3) (layer F.Fab) (width 0.1))
  (fp_line (start 31.25 -4.3) (end 31.25 -5.3) (layer F.Fab) (width 0.1))
  (fp_line (start 31.25 -5.3) (end 28.75 -5.3) (layer F.Fab) (width 0.1))
  (fp_line (start 28.75 -5.301) (end 31.25 -5.301) (layer F.SilkS) (width 0.12))
  (fp_line (start 28.75 -4.301) (end 31.25 -4.301) (layer F.SilkS) (width 0.12))
  (fp_line (start 28.75 -5.301) (end 28.75 -4.301) (layer F.SilkS) (width 0.12))
  (fp_line (start 31.25 -5.301) (end 31.25 -4.301) (layer F.SilkS) (width 0.12))
  (fp_line (start 36.299 -0.076) (end 37.424 -0.076) (layer F.Fab) (width 0.1))
  (fp_line (start 37.424 -0.076) (end 37.424 -1.201) (layer F.Fab) (width 0.1))
  (fp_line (start 37.424 -1.201) (end 37.576 -1.201) (layer F.Fab) (width 0.1))
  (fp_line (start 37.576 -1.201) (end 37.576 -0.076) (layer F.Fab) (width 0.1))
  (fp_line (start 37.576 -0.076) (end 38.701 -0.076) (layer F.Fab) (width 0.1))
  (fp_line (start 38.701 -0.076) (end 38.701 0.076) (layer F.Fab) (width 0.1))
  (fp_line (start 38.701 0.076) (end 37.576 0.076) (layer F.Fab) (width 0.1))
  (fp_line (start 37.576 0.076) (end 37.576 1.201) (layer F.Fab) (width 0.1))
  (fp_line (start 37.576 1.201) (end 37.424 1.201) (layer F.Fab) (width 0.1))
  (fp_line (start 37.424 1.201) (end 37.424 0.076) (layer F.Fab) (width 0.1))
  (fp_line (start 37.424 0.076) (end 36.299 0.076) (layer F.Fab) (width 0.1))
  (fp_line (start 36.299 0.076) (end 36.299 -0.076) (layer F.Fab) (width 0.1))
  (fp_line (start 36.25 -5.3) (end 36.25 -4.3) (layer F.Fab) (width 0.1))
  (fp_line (start 36.25 -4.3) (end 38.75 -4.3) (layer F.Fab) (width 0.1))
  (fp_line (start 38.75 -4.3) (end 38.75 -5.3) (layer F.Fab) (width 0.1))
  (fp_line (start 38.75 -5.3) (end 36.25 -5.3) (layer F.Fab) (width 0.1))
  (fp_line (start 36.25 -5.301) (end 38.75 -5.301) (layer F.SilkS) (width 0.12))
  (fp_line (start 36.25 -4.301) (end 38.75 -4.301) (layer F.SilkS) (width 0.12))
  (fp_line (start 36.25 -5.301) (end 36.25 -4.301) (layer F.SilkS) (width 0.12))
  (fp_line (start 38.75 -5.301) (end 38.75 -4.301) (layer F.SilkS) (width 0.12))
  (fp_line (start 43.799 -0.076) (end 44.924 -0.076) (layer F.Fab) (width 0.1))
  (fp_line (start 44.924 -0.076) (end 44.924 -1.201) (layer F.Fab) (width 0.1))
  (fp_line (start 44.924 -1.201) (end 45.076 -1.201) (layer F.Fab) (width 0.1))
  (fp_line (start 45.076 -1.201) (end 45.076 -0.076) (layer F.Fab) (width 0.1))
  (fp_line (start 45.076 -0.076) (end 46.201 -0.076) (layer F.Fab) (width 0.1))
  (fp_line (start 46.201 -0.076) (end 46.201 0.076) (layer F.Fab) (width 0.1))
  (fp_line (start 46.201 0.076) (end 45.076 0.076) (layer F.Fab) (width 0.1))
  (fp_line (start 45.076 0.076) (end 45.076 1.201) (layer F.Fab) (width 0.1))
  (fp_line (start 45.076 1.201) (end 44.924 1.201) (layer F.Fab) (width 0.1))
  (fp_line (start 44.924 1.201) (end 44.924 0.076) (layer F.Fab) (width 0.1))
  (fp_line (start 44.924 0.076) (end 43.799 0.076) (layer F.Fab) (width 0.1))
  (fp_line (start 43.799 0.076) (end 43.799 -0.076) (layer F.Fab) (width 0.1))
  (fp_line (start 43.75 -5.3) (end 43.75 -4.3) (layer F.Fab) (width 0.1))
  (fp_line (start 43.75 -4.3) (end 46.25 -4.3) (layer F.Fab) (width 0.1))
  (fp_line (start 46.25 -4.3) (end 46.25 -5.3) (layer F.Fab) (width 0.1))
  (fp_line (start 46.25 -5.3) (end 43.75 -5.3) (layer F.Fab) (width 0.1))
  (fp_line (start 43.75 -5.301) (end 46.25 -5.301) (layer F.SilkS) (width 0.12))
  (fp_line (start 43.75 -4.301) (end 46.25 -4.301) (layer F.SilkS) (width 0.12))
  (fp_line (start 43.75 -5.301) (end 43.75 -4.301) (layer F.SilkS) (width 0.12))
  (fp_line (start 46.25 -5.301) (end 46.25 -4.301) (layer F.SilkS) (width 0.12))
  (fp_line (start 51.299 -0.076) (end 52.424 -0.076) (layer F.Fab) (width 0.1))
  (fp_line (start 52.424 -0.076) (end 52.424 -1.201) (layer F.Fab) (width 0.1))
  (fp_line (start 52.424 -1.201) (end 52.576 -1.201) (layer F.Fab) (width 0.1))
  (fp_line (start 52.576 -1.201) (end 52.576 -0.076) (layer F.Fab) (width 0.1))
  (fp_line (start 52.576 -0.076) (end 53.701 -0.076) (layer F.Fab) (width 0.1))
  (fp_line (start 53.701 -0.076) (end 53.701 0.076) (layer F.Fab) (width 0.1))
  (fp_line (start 53.701 0.076) (end 52.576 0.076) (layer F.Fab) (width 0.1))
  (fp_line (start 52.576 0.076) (end 52.576 1.201) (layer F.Fab) (width 0.1))
  (fp_line (start 52.576 1.201) (end 52.424 1.201) (layer F.Fab) (width 0.1))
  (fp_line (start 52.424 1.201) (end 52.424 0.076) (layer F.Fab) (width 0.1))
  (fp_line (start 52.424 0.076) (end 51.299 0.076) (layer F.Fab) (width 0.1))
  (fp_line (start 51.299 0.076) (end 51.299 -0.076) (layer F.Fab) (width 0.1))
  (fp_line (start 51.25 -5.3) (end 51.25 -4.3) (layer F.Fab) (width 0.1))
  (fp_line (start 51.25 -4.3) (end 53.75 -4.3) (layer F.Fab) (width 0.1))
  (fp_line (start 53.75 -4.3) (end 53.75 -5.3) (layer F.Fab) (width 0.1))
  (fp_line (start 53.75 -5.3) (end 51.25 -5.3) (layer F.Fab) (width 0.1))
  (fp_line (start 51.25 -5.301) (end 53.75 -5.301) (layer F.SilkS) (width 0.12))
  (fp_line (start 51.25 -4.301) (end 53.75 -4.301) (layer F.SilkS) (width 0.12))
  (fp_line (start 51.25 -5.301) (end 51.25 -4.301) (layer F.SilkS) (width 0.12))
  (fp_line (start 53.75 -5.301) (end 53.75 -4.301) (layer F.SilkS) (width 0.12))
  (fp_line (start 58.799 -0.076) (end 59.924 -0.076) (layer F.Fab) (width 0.1))
  (fp_line (start 59.924 -0.076) (end 59.924 -1.201) (layer F.Fab) (width 0.1))
  (fp_line (start 59.924 -1.201) (end 60.076 -1.201) (layer F.Fab) (width 0.1))
  (fp_line (start 60.076 -1.201) (end 60.076 -0.076) (layer F.Fab) (width 0.1))
  (fp_line (start 60.076 -0.076) (end 61.201 -0.076) (layer F.Fab) (width 0.1))
  (fp_line (start 61.201 -0.076) (end 61.201 0.076) (layer F.Fab) (width 0.1))
  (fp_line (start 61.201 0.076) (end 60.076 0.076) (layer F.Fab) (width 0.1))
  (fp_line (start 60.076 0.076) (end 60.076 1.201) (layer F.Fab) (width 0.1))
  (fp_line (start 60.076 1.201) (end 59.924 1.201) (layer F.Fab) (width 0.1))
  (fp_line (start 59.924 1.201) (end 59.924 0.076) (layer F.Fab) (width 0.1))
  (fp_line (start 59.924 0.076) (end 58.799 0.076) (layer F.Fab) (width 0.1))
  (fp_line (start 58.799 0.076) (end 58.799 -0.076) (layer F.Fab) (width 0.1))
  (fp_line (start 58.75 -5.3) (end 58.75 -4.3) (layer F.Fab) (width 0.1))
  (fp_line (start 58.75 -4.3) (end 61.25 -4.3) (layer F.Fab) (width 0.1))
  (fp_line (start 61.25 -4.3) (end 61.25 -5.3) (layer F.Fab) (width 0.1))
  (fp_line (start 61.25 -5.3) (end 58.75 -5.3) (layer F.Fab) (width 0.1))
  (fp_line (start 58.75 -5.301) (end 61.25 -5.301) (layer F.SilkS) (width 0.12))
  (fp_line (start 58.75 -4.301) (end 61.25 -4.301) (layer F.SilkS) (width 0.12))
  (fp_line (start 58.75 -5.301) (end 58.75 -4.301) (layer F.SilkS) (width 0.12))
  (fp_line (start 61.25 -5.301) (end 61.25 -4.301) (layer F.SilkS) (width 0.12))
  (fp_line (start 66.299 -0.076) (end 67.424 -0.076) (layer F.Fab) (width 0.1))
  (fp_line (start 67.424 -0.076) (end 67.424 -1.201) (layer F.Fab) (width 0.1))
  (fp_line (start 67.424 -1.201) (end 67.576 -1.201) (layer F.Fab) (width 0.1))
  (fp_line (start 67.576 -1.201) (end 67.576 -0.076) (layer F.Fab) (width 0.1))
  (fp_line (start 67.576 -0.076) (end 68.701 -0.076) (layer F.Fab) (width 0.1))
  (fp_line (start 68.701 -0.076) (end 68.701 0.076) (layer F.Fab) (width 0.1))
  (fp_line (start 68.701 0.076) (end 67.576 0.076) (layer F.Fab) (width 0.1))
  (fp_line (start 67.576 0.076) (end 67.576 1.201) (layer F.Fab) (width 0.1))
  (fp_line (start 67.576 1.201) (end 67.424 1.201) (layer F.Fab) (width 0.1))
  (fp_line (start 67.424 1.201) (end 67.424 0.076) (layer F.Fab) (width 0.1))
  (fp_line (start 67.424 0.076) (end 66.299 0.076) (layer F.Fab) (width 0.1))
  (fp_line (start 66.299 0.076) (end 66.299 -0.076) (layer F.Fab) (width 0.1))
  (fp_line (start 66.25 -5.3) (end 66.25 -4.3) (layer F.Fab) (width 0.1))
  (fp_line (start 66.25 -4.3) (end 68.75 -4.3) (layer F.Fab) (width 0.1))
  (fp_line (start 68.75 -4.3) (end 68.75 -5.3) (layer F.Fab) (width 0.1))
  (fp_line (start 68.75 -5.3) (end 66.25 -5.3) (layer F.Fab) (width 0.1))
  (fp_line (start 66.25 -5.301) (end 68.75 -5.301) (layer F.SilkS) (width 0.12))
  (fp_line (start 66.25 -4.301) (end 68.75 -4.301) (layer F.SilkS) (width 0.12))
  (fp_line (start 66.25 -5.301) (end 66.25 -4.301) (layer F.SilkS) (width 0.12))
  (fp_line (start 68.75 -5.301) (end 68.75 -4.301) (layer F.SilkS) (width 0.12))
  (fp_line (start 73.799 -0.076) (end 74.924 -0.076) (layer F.Fab) (width 0.1))
  (fp_line (start 74.924 -0.076) (end 74.924 -1.201) (layer F.Fab) (width 0.1))
  (fp_line (start 74.924 -1.201) (end 75.076 -1.201) (layer F.Fab) (width 0.1))
  (fp_line (start 75.076 -1.201) (end 75.076 -0.076) (layer F.Fab) (width 0.1))
  (fp_line (start 75.076 -0.076) (end 76.201 -0.076) (layer F.Fab) (width 0.1))
  (fp_line (start 76.201 -0.076) (end 76.201 0.076) (layer F.Fab) (width 0.1))
  (fp_line (start 76.201 0.076) (end 75.076 0.076) (layer F.Fab) (width 0.1))
  (fp_line (start 75.076 0.076) (end 75.076 1.201) (layer F.Fab) (width 0.1))
  (fp_line (start 75.076 1.201) (end 74.924 1.201) (layer F.Fab) (width 0.1))
  (fp_line (start 74.924 1.201) (end 74.924 0.076) (layer F.Fab) (width 0.1))
  (fp_line (start 74.924 0.076) (end 73.799 0.076) (layer F.Fab) (width 0.1))
  (fp_line (start 73.799 0.076) (end 73.799 -0.076) (layer F.Fab) (width 0.1))
  (fp_line (start 73.75 -5.3) (end 73.75 -4.3) (layer F.Fab) (width 0.1))
  (fp_line (start 73.75 -4.3) (end 76.25 -4.3) (layer F.Fab) (width 0.1))
  (fp_line (start 76.25 -4.3) (end 76.25 -5.3) (layer F.Fab) (width 0.1))
  (fp_line (start 76.25 -5.3) (end 73.75 -5.3) (layer F.Fab) (width 0.1))
  (fp_line (start 73.75 -5.301) (end 76.25 -5.301) (layer F.SilkS) (width 0.12))
  (fp_line (start 73.75 -4.301) (end 76.25 -4.301) (layer F.SilkS) (width 0.12))
  (fp_line (start 73.75 -5.301) (end 73.75 -4.301) (layer F.SilkS) (width 0.12))
  (fp_line (start 76.25 -5.301) (end 76.25 -4.301) (layer F.SilkS) (width 0.12))
  (fp_line (start 81.299 -0.076) (end 82.424 -0.076) (layer F.Fab) (width 0.1))
  (fp_line (start 82.424 -0.076) (end 82.424 -1.201) (layer F.Fab) (width 0.1))
  (fp_line (start 82.424 -1.201) (end 82.576 -1.201) (layer F.Fab) (width 0.1))
  (fp_line (start 82.576 -1.201) (end 82.576 -0.076) (layer F.Fab) (width 0.1))
  (fp_line (start 82.576 -0.076) (end 83.701 -0.076) (layer F.Fab) (width 0.1))
  (fp_line (start 83.701 -0.076) (end 83.701 0.076) (layer F.Fab) (width 0.1))
  (fp_line (start 83.701 0.076) (end 82.576 0.076) (layer F.Fab) (width 0.1))
  (fp_line (start 82.576 0.076) (end 82.576 1.201) (layer F.Fab) (width 0.1))
  (fp_line (start 82.576 1.201) (end 82.424 1.201) (layer F.Fab) (width 0.1))
  (fp_line (start 82.424 1.201) (end 82.424 0.076) (layer F.Fab) (width 0.1))
  (fp_line (start 82.424 0.076) (end 81.299 0.076) (layer F.Fab) (width 0.1))
  (fp_line (start 81.299 0.076) (end 81.299 -0.076) (layer F.Fab) (width 0.1))
  (fp_line (start 81.25 -5.3) (end 81.25 -4.3) (layer F.Fab) (width 0.1))
  (fp_line (start 81.25 -4.3) (end 83.75 -4.3) (layer F.Fab) (width 0.1))
  (fp_line (start 83.75 -4.3) (end 83.75 -5.3) (layer F.Fab) (width 0.1))
  (fp_line (start 83.75 -5.3) (end 81.25 -5.3) (layer F.Fab) (width 0.1))
  (fp_line (start 81.25 -5.301) (end 83.75 -5.301) (layer F.SilkS) (width 0.12))
  (fp_line (start 81.25 -4.301) (end 83.75 -4.301) (layer F.SilkS) (width 0.12))
  (fp_line (start 81.25 -5.301) (end 81.25 -4.301) (layer F.SilkS) (width 0.12))
  (fp_line (start 83.75 -5.301) (end 83.75 -4.301) (layer F.SilkS) (width 0.12))
  (fp_line (start -4.05 4.46) (end -4.05 5.3) (layer F.SilkS) (width 0.12))
  (fp_line (start -4.05 5.3) (end -3.45 5.3) (layer F.SilkS) (width 0.12))
  (fp_line (start -4.25 -5.81) (end -4.25 5.5) (layer F.CrtYd) (width 0.05))
  (fp_line (start -4.25 5.5) (end 86.75 5.5) (layer F.CrtYd) (width 0.05))
  (fp_line (start 86.75 5.5) (end 86.75 -5.81) (layer F.CrtYd) (width 0.05))
  (fp_line (start 86.75 -5.81) (end -4.25 -5.81) (layer F.CrtYd) (width 0.05))
  (pad 1 thru_hole rect (at 0 0) (size 2.5 2.5) (drill 1.3) (layers *.Cu *.Mask))
  (pad 2 thru_hole circle (at 7.5 0) (size 2.5 2.5) (drill 1.3) (layers *.Cu *.Mask))
  (pad 3 thru_hole circle (at 15 0) (size 2.5 2.5) (drill 1.3) (layers *.Cu *.Mask))
  (pad 4 thru_hole circle (at 22.5 0) (size 2.5 2.5) (drill 1.3) (layers *.Cu *.Mask))
  (pad 5 thru_hole circle (at 30 0) (size 2.5 2.5) (drill 1.3) (layers *.Cu *.Mask))
  (pad 6 thru_hole circle (at 37.5 0) (size 2.5 2.5) (drill 1.3) (layers *.Cu *.Mask))
  (pad 7 thru_hole circle (at 45 0) (size 2.5 2.5) (drill 1.3) (layers *.Cu *.Mask))
  (pad 8 thru_hole circle (at 52.5 0) (size 2.5 2.5) (drill 1.3) (layers *.Cu *.Mask))
  (pad 9 thru_hole circle (at 60 0) (size 2.5 2.5) (drill 1.3) (layers *.Cu *.Mask))
  (pad 10 thru_hole circle (at 67.5 0) (size 2.5 2.5) (drill 1.3) (layers *.Cu *.Mask))
  (pad 11 thru_hole circle (at 75 0) (size 2.5 2.5) (drill 1.3) (layers *.Cu *.Mask))
  (pad 12 thru_hole circle (at 82.5 0) (size 2.5 2.5) (drill 1.3) (layers *.Cu *.Mask))
  (fp_text user %R (at 41.25 2.85) (layer F.Fab)
    (effects (font (size 1 1) (thickness 0.15)))
  )
  (model ${KICAD6_3DMODEL_DIR}/TerminalBlock_RND.3dshapes/TerminalBlock_RND_205-00077_1x12_P7.50mm_Horizontal.wrl
    (at (xyz 0 0 0))
    (scale (xyz 1 1 1))
    (rotate (xyz 0 0 0))
  )
)