(module TerminalBlock_RND_205-00056_1x02_P5.00mm_45Degree (layer F.Cu) (tedit 5B294EF4)
  (descr "terminal block RND 205-00056, 45Degree (cable under 45degree), 2 pins, pitch 5mm, size 10x12.6mm^2, drill diamater 1.3mm, pad diameter 2.5mm, see http://cdn-reichelt.de/documents/datenblatt/C151/RND_205-00056_DB_EN.pdf, script-generated with , script-generated using https://github.com/pointhi/kicad-footprint-generator/scripts/TerminalBlock_RND")
  (tags "THT terminal block RND 205-00056 45Degree pitch 5mm size 10x12.6mm^2 drill 1.3mm pad 2.5mm")
  (fp_text reference REF** (at 2.5 -7.16) (layer F.SilkS)
    (effects (font (size 1 1) (thickness 0.15)))
  )
  (fp_text value TerminalBlock_RND_205-00056_1x02_P5.00mm_45Degree (at 2.5 7.56) (layer F.Fab)
    (effects (font (size 1 1) (thickness 0.15)))
  )
  (fp_arc (start 0 -4.301) (end 1.601 -4.7) (angle -151.999413) (layer F.Fab) (width 0.1))
  (fp_arc (start 0 -5.099) (end 1.6 -4.7) (angle 151.999413) (layer F.Fab) (width 0.1))
  (fp_arc (start 0 -4.301) (end 1.601 -4.7) (angle -151.999413) (layer F.SilkS) (width 0.12))
  (fp_arc (start 0 -5.099) (end 1.6 -4.7) (angle 151.999413) (layer F.SilkS) (width 0.12))
  (fp_arc (start 5 -4.301) (end 6.601 -4.7) (angle -151.999413) (layer F.Fab) (width 0.1))
  (fp_arc (start 5 -5.099) (end 6.6 -4.7) (angle 151.999413) (layer F.Fab) (width 0.1))
  (fp_arc (start 5 -4.301) (end 6.601 -4.7) (angle -151.999413) (layer F.SilkS) (width 0.12))
  (fp_arc (start 5 -5.099) (end 6.6 -4.7) (angle 151.999413) (layer F.SilkS) (width 0.12))
  (fp_line (start -2.5 -6.1) (end 7.5 -6.1) (layer F.Fab) (width 0.1))
  (fp_line (start 7.5 -6.1) (end 7.5 6.5) (layer F.Fab) (width 0.1))
  (fp_line (start 7.5 6.5) (end -0.5 6.5) (layer F.Fab) (width 0.1))
  (fp_line (start -0.5 6.5) (end -2.5 4.5) (layer F.Fab) (width 0.1))
  (fp_line (start -2.5 4.5) (end -2.5 -6.1) (layer F.Fab) (width 0.1))
  (fp_line (start -2.5 -1.2) (end 7.5 -1.2) (layer F.Fab) (width 0.1))
  (fp_line (start -2.56 -1.201) (end -1.49 -1.201) (layer F.SilkS) (width 0.12))
  (fp_line (start 1.49 -1.201) (end 4 -1.201) (layer F.SilkS) (width 0.12))
  (fp_line (start 6.001 -1.201) (end 7.56 -1.201) (layer F.SilkS) (width 0.12))
  (fp_line (start -2.5 -3.3) (end 7.5 -3.3) (layer F.Fab) (width 0.1))
  (fp_line (start -2.56 -3.301) (end 7.56 -3.301) (layer F.SilkS) (width 0.12))
  (fp_line (start -2.56 -6.16) (end 7.56 -6.16) (layer F.SilkS) (width 0.12))
  (fp_line (start -2.56 6.56) (end 7.56 6.56) (layer F.SilkS) (width 0.12))
  (fp_line (start -2.56 -6.16) (end -2.56 6.56) (layer F.SilkS) (width 0.12))
  (fp_line (start 7.56 -6.16) (end 7.56 6.56) (layer F.SilkS) (width 0.12))
  (fp_line (start -1.5 -0.5) (end -1.49 -0.5) (layer F.SilkS) (width 0.12))
  (fp_line (start 1.49 -0.5) (end 1.5 -0.5) (layer F.SilkS) (width 0.12))
  (fp_line (start -1.5 4.5) (end 1.5 4.5) (layer F.SilkS) (width 0.12))
  (fp_line (start -1.5 -0.5) (end -1.5 4.5) (layer F.SilkS) (width 0.12))
  (fp_line (start 1.5 -0.5) (end 1.5 4.5) (layer F.SilkS) (width 0.12))
  (fp_line (start -1.5 -0.5) (end -1.5 4.5) (layer F.Fab) (width 0.1))
  (fp_line (start -1.5 4.5) (end 1.5 4.5) (layer F.Fab) (width 0.1))
  (fp_line (start 1.5 4.5) (end 1.5 -0.5) (layer F.Fab) (width 0.1))
  (fp_line (start 1.5 -0.5) (end -1.5 -0.5) (layer F.Fab) (width 0.1))
  (fp_line (start 3.5 -0.5) (end 3.57 -0.5) (layer F.SilkS) (width 0.12))
  (fp_line (start 6.431 -0.5) (end 6.5 -0.5) (layer F.SilkS) (width 0.12))
  (fp_line (start 3.5 4.5) (end 6.5 4.5) (layer F.SilkS) (width 0.12))
  (fp_line (start 3.5 -0.5) (end 3.5 -0.202) (layer F.SilkS) (width 0.12))
  (fp_line (start 3.5 0.202) (end 3.5 4.5) (layer F.SilkS) (width 0.12))
  (fp_line (start 6.5 -0.5) (end 6.5 -0.202) (layer F.SilkS) (width 0.12))
  (fp_line (start 6.5 0.202) (end 6.5 4.5) (layer F.SilkS) (width 0.12))
  (fp_line (start 3.5 -0.5) (end 3.5 4.5) (layer F.Fab) (width 0.1))
  (fp_line (start 3.5 4.5) (end 6.5 4.5) (layer F.Fab) (width 0.1))
  (fp_line (start 6.5 4.5) (end 6.5 -0.5) (layer F.Fab) (width 0.1))
  (fp_line (start 6.5 -0.5) (end 3.5 -0.5) (layer F.Fab) (width 0.1))
  (fp_line (start -2.8 4.56) (end -2.8 6.8) (layer F.SilkS) (width 0.12))
  (fp_line (start -2.8 6.8) (end -0.8 6.8) (layer F.SilkS) (width 0.12))
  (fp_line (start -3 -6.6) (end -3 7) (layer F.CrtYd) (width 0.05))
  (fp_line (start -3 7) (end 8 7) (layer F.CrtYd) (width 0.05))
  (fp_line (start 8 7) (end 8 -6.6) (layer F.CrtYd) (width 0.05))
  (fp_line (start 8 -6.6) (end -3 -6.6) (layer F.CrtYd) (width 0.05))
  (pad 1 thru_hole rect (at 0 0) (size 2.5 2.5) (drill 1.3) (layers *.Cu *.Mask))
  (pad 2 thru_hole circle (at 5 0) (size 2.5 2.5) (drill 1.3) (layers *.Cu *.Mask))
  (fp_text user %R (at 2.5 -0.8) (layer F.Fab)
    (effects (font (size 1 1) (thickness 0.15)))
  )
  (model ${KICAD6_3DMODEL_DIR}/TerminalBlock_RND.3dshapes/TerminalBlock_RND_205-00056_1x02_P5.00mm_45Degree.wrl
    (at (xyz 0 0 0))
    (scale (xyz 1 1 1))
    (rotate (xyz 0 0 0))
  )
)