(module PhoenixContact_MSTBV_2,5_3-GF-5,08_1x03_P5.08mm_Vertical_ThreadedFlange (layer F.Cu) (tedit 5B785047)
  (descr "Generic Phoenix Contact connector footprint for: MSTBV_2,5/3-GF-5,08; number of pins: 03; pin pitch: 5.08mm; Vertical; threaded flange || order number: 1777086 12A || order number: 1924538 16A (HC)")
  (tags "phoenix_contact connector MSTBV_01x03_GF_5.08mm")
  (fp_text reference REF** (at 5.08 -6) (layer F.SilkS)
    (effects (font (size 1 1) (thickness 0.15)))
  )
  (fp_text value PhoenixContact_MSTBV_2,5_3-GF-5,08_1x03_P5.08mm_Vertical_ThreadedFlange (at 5.08 5) (layer F.Fab)
    (effects (font (size 1 1) (thickness 0.15)))
  )
  (fp_arc (start 0 0.55) (end -2 2.2) (angle -100.5) (layer F.SilkS) (width 0.12))
  (fp_arc (start 5.08 0.55) (end 3.08 2.2) (angle -100.5) (layer F.SilkS) (width 0.12))
  (fp_arc (start 10.16 0.55) (end 8.16 2.2) (angle -100.5) (layer F.SilkS) (width 0.12))
  (fp_circle (center -5.08 0) (end -3.18 0) (layer F.SilkS) (width 0.12))
  (fp_circle (center 15.24 0) (end 17.14 0) (layer F.SilkS) (width 0.12))
  (fp_circle (center -5.08 0) (end -4.08 0) (layer F.SilkS) (width 0.12))
  (fp_circle (center 15.24 0) (end 16.24 0) (layer F.SilkS) (width 0.12))
  (fp_line (start -7.73 -4.91) (end -7.73 3.91) (layer F.SilkS) (width 0.12))
  (fp_line (start -7.73 3.91) (end 17.89 3.91) (layer F.SilkS) (width 0.12))
  (fp_line (start 17.89 3.91) (end 17.89 -4.91) (layer F.SilkS) (width 0.12))
  (fp_line (start 17.89 -4.91) (end -7.73 -4.91) (layer F.SilkS) (width 0.12))
  (fp_line (start -7.62 -4.8) (end -7.62 3.8) (layer F.Fab) (width 0.1))
  (fp_line (start -7.62 3.8) (end 17.78 3.8) (layer F.Fab) (width 0.1))
  (fp_line (start 17.78 3.8) (end 17.78 -4.8) (layer F.Fab) (width 0.1))
  (fp_line (start 17.78 -4.8) (end -7.62 -4.8) (layer F.Fab) (width 0.1))
  (fp_line (start -7.73 -4.1) (end -6.19 -4.1) (layer F.SilkS) (width 0.12))
  (fp_line (start 17.89 -4.1) (end 16.35 -4.1) (layer F.SilkS) (width 0.12))
  (fp_line (start 1 -4.1) (end 4.08 -4.1) (layer F.SilkS) (width 0.12))
  (fp_line (start 6.08 -4.1) (end 9.16 -4.1) (layer F.SilkS) (width 0.12))
  (fp_line (start -6.08 -3.1) (end -6.08 -4.91) (layer F.SilkS) (width 0.12))
  (fp_line (start -6.08 -4.91) (end -4.08 -4.91) (layer F.SilkS) (width 0.12))
  (fp_line (start -4.08 -4.91) (end -4.08 -3.1) (layer F.SilkS) (width 0.12))
  (fp_line (start -4.08 -3.1) (end -6.08 -3.1) (layer F.SilkS) (width 0.12))
  (fp_line (start 14.24 -3.1) (end 14.24 -4.91) (layer F.SilkS) (width 0.12))
  (fp_line (start 14.24 -4.91) (end 16.24 -4.91) (layer F.SilkS) (width 0.12))
  (fp_line (start 16.24 -4.91) (end 16.24 -3.1) (layer F.SilkS) (width 0.12))
  (fp_line (start 16.24 -3.1) (end 14.24 -3.1) (layer F.SilkS) (width 0.12))
  (fp_line (start -4.08 -4.1) (end -1 -4.1) (layer F.SilkS) (width 0.12))
  (fp_line (start 11.16 -4.1) (end 14.24 -4.1) (layer F.SilkS) (width 0.12))
  (fp_line (start -1 -3.1) (end -1 -4.91) (layer F.SilkS) (width 0.12))
  (fp_line (start -1 -4.91) (end 1 -4.91) (layer F.SilkS) (width 0.12))
  (fp_line (start 1 -4.91) (end 1 -3.1) (layer F.SilkS) (width 0.12))
  (fp_line (start 1 -3.1) (end -1 -3.1) (layer F.SilkS) (width 0.12))
  (fp_line (start 4.08 -3.1) (end 4.08 -4.91) (layer F.SilkS) (width 0.12))
  (fp_line (start 4.08 -4.91) (end 6.08 -4.91) (layer F.SilkS) (width 0.12))
  (fp_line (start 6.08 -4.91) (end 6.08 -3.1) (layer F.SilkS) (width 0.12))
  (fp_line (start 6.08 -3.1) (end 4.08 -3.1) (layer F.SilkS) (width 0.12))
  (fp_line (start 9.16 -3.1) (end 9.16 -4.91) (layer F.SilkS) (width 0.12))
  (fp_line (start 9.16 -4.91) (end 11.16 -4.91) (layer F.SilkS) (width 0.12))
  (fp_line (start 11.16 -4.91) (end 11.16 -3.1) (layer F.SilkS) (width 0.12))
  (fp_line (start 11.16 -3.1) (end 9.16 -3.1) (layer F.SilkS) (width 0.12))
  (fp_line (start 2 2.2) (end 3.08 2.2) (layer F.SilkS) (width 0.12))
  (fp_line (start 7.08 2.2) (end 8.16 2.2) (layer F.SilkS) (width 0.12))
  (fp_line (start -2 2.2) (end -2.74 2.2) (layer F.SilkS) (width 0.12))
  (fp_line (start -2.74 2.2) (end -2.74 -3.1) (layer F.SilkS) (width 0.12))
  (fp_line (start -2.74 -3.1) (end 12.9 -3.1) (layer F.SilkS) (width 0.12))
  (fp_line (start 12.9 -3.1) (end 12.9 2.2) (layer F.SilkS) (width 0.12))
  (fp_line (start 12.9 2.2) (end 12.16 2.2) (layer F.SilkS) (width 0.12))
  (fp_line (start -8.12 -5.3) (end -8.12 4.3) (layer F.CrtYd) (width 0.05))
  (fp_line (start -8.12 4.3) (end 18.28 4.3) (layer F.CrtYd) (width 0.05))
  (fp_line (start 18.28 4.3) (end 18.28 -5.3) (layer F.CrtYd) (width 0.05))
  (fp_line (start 18.28 -5.3) (end -8.12 -5.3) (layer F.CrtYd) (width 0.05))
  (fp_line (start 0.3 -5.71) (end 0 -5.11) (layer F.SilkS) (width 0.12))
  (fp_line (start 0 -5.11) (end -0.3 -5.71) (layer F.SilkS) (width 0.12))
  (fp_line (start -0.3 -5.71) (end 0.3 -5.71) (layer F.SilkS) (width 0.12))
  (fp_line (start 0.5 -3.55) (end 0 -2.55) (layer F.Fab) (width 0.1))
  (fp_line (start 0 -2.55) (end -0.5 -3.55) (layer F.Fab) (width 0.1))
  (fp_line (start -0.5 -3.55) (end 0.5 -3.55) (layer F.Fab) (width 0.1))
  (pad 1 thru_hole roundrect (at 0 0) (size 2.08 3.6) (drill 1.4) (layers *.Cu *.Mask) (roundrect_rratio 0.120192))
  (pad 2 thru_hole oval (at 5.08 0) (size 2.08 3.6) (drill 1.4) (layers *.Cu *.Mask))
  (pad 3 thru_hole oval (at 10.16 0) (size 2.08 3.6) (drill 1.4) (layers *.Cu *.Mask))
  (fp_text user %R (at 5.08 -4.1) (layer F.Fab)
    (effects (font (size 1 1) (thickness 0.15)))
  )
  (model ${KICAD6_3DMODEL_DIR}/Connector_Phoenix_MSTB.3dshapes/PhoenixContact_MSTBV_2,5_3-GF-5,08_1x03_P5.08mm_Vertical_ThreadedFlange.wrl
    (at (xyz 0 0 0))
    (scale (xyz 1 1 1))
    (rotate (xyz 0 0 0))
  )
)