(module PhoenixContact_MSTBA_2,5_14-G-5,08_1x14_P5.08mm_Horizontal (layer F.Cu) (tedit 5B785047)
  (descr "Generic Phoenix Contact connector footprint for: MSTBA_2,5/14-G-5,08; number of pins: 14; pin pitch: 5.08mm; Angled || order number: 1757365 12A")
  (tags "phoenix_contact connector MSTBA_01x14_G_5.08mm")
  (fp_text reference REF** (at 33.02 -3.2) (layer F.SilkS)
    (effects (font (size 1 1) (thickness 0.15)))
  )
  (fp_text value PhoenixContact_MSTBA_2,5_14-G-5,08_1x14_P5.08mm_Horizontal (at 33.02 11.2) (layer F.Fab)
    (effects (font (size 1 1) (thickness 0.15)))
  )
  (fp_line (start -3.65 -2.11) (end -3.65 10.11) (layer F.SilkS) (width 0.12))
  (fp_line (start -3.65 10.11) (end 69.69 10.11) (layer F.SilkS) (width 0.12))
  (fp_line (start 69.69 10.11) (end 69.69 -2.11) (layer F.SilkS) (width 0.12))
  (fp_line (start 69.69 -2.11) (end -3.65 -2.11) (layer F.SilkS) (width 0.12))
  (fp_line (start -3.54 -2) (end -3.54 10) (layer F.Fab) (width 0.1))
  (fp_line (start -3.54 10) (end 69.58 10) (layer F.Fab) (width 0.1))
  (fp_line (start 69.58 10) (end 69.58 -2) (layer F.Fab) (width 0.1))
  (fp_line (start 69.58 -2) (end -3.54 -2) (layer F.Fab) (width 0.1))
  (fp_line (start -3.65 8.61) (end -3.65 6.81) (layer F.SilkS) (width 0.12))
  (fp_line (start -3.65 6.81) (end 69.69 6.81) (layer F.SilkS) (width 0.12))
  (fp_line (start 69.69 6.81) (end 69.69 8.61) (layer F.SilkS) (width 0.12))
  (fp_line (start 69.69 8.61) (end -3.65 8.61) (layer F.SilkS) (width 0.12))
  (fp_line (start -1 10.11) (end 1 10.11) (layer F.SilkS) (width 0.12))
  (fp_line (start 1 10.11) (end 0.75 8.61) (layer F.SilkS) (width 0.12))
  (fp_line (start 0.75 8.61) (end -0.75 8.61) (layer F.SilkS) (width 0.12))
  (fp_line (start -0.75 8.61) (end -1 10.11) (layer F.SilkS) (width 0.12))
  (fp_line (start 4.08 10.11) (end 6.08 10.11) (layer F.SilkS) (width 0.12))
  (fp_line (start 6.08 10.11) (end 5.83 8.61) (layer F.SilkS) (width 0.12))
  (fp_line (start 5.83 8.61) (end 4.33 8.61) (layer F.SilkS) (width 0.12))
  (fp_line (start 4.33 8.61) (end 4.08 10.11) (layer F.SilkS) (width 0.12))
  (fp_line (start 9.16 10.11) (end 11.16 10.11) (layer F.SilkS) (width 0.12))
  (fp_line (start 11.16 10.11) (end 10.91 8.61) (layer F.SilkS) (width 0.12))
  (fp_line (start 10.91 8.61) (end 9.41 8.61) (layer F.SilkS) (width 0.12))
  (fp_line (start 9.41 8.61) (end 9.16 10.11) (layer F.SilkS) (width 0.12))
  (fp_line (start 14.24 10.11) (end 16.24 10.11) (layer F.SilkS) (width 0.12))
  (fp_line (start 16.24 10.11) (end 15.99 8.61) (layer F.SilkS) (width 0.12))
  (fp_line (start 15.99 8.61) (end 14.49 8.61) (layer F.SilkS) (width 0.12))
  (fp_line (start 14.49 8.61) (end 14.24 10.11) (layer F.SilkS) (width 0.12))
  (fp_line (start 19.32 10.11) (end 21.32 10.11) (layer F.SilkS) (width 0.12))
  (fp_line (start 21.32 10.11) (end 21.07 8.61) (layer F.SilkS) (width 0.12))
  (fp_line (start 21.07 8.61) (end 19.57 8.61) (layer F.SilkS) (width 0.12))
  (fp_line (start 19.57 8.61) (end 19.32 10.11) (layer F.SilkS) (width 0.12))
  (fp_line (start 24.4 10.11) (end 26.4 10.11) (layer F.SilkS) (width 0.12))
  (fp_line (start 26.4 10.11) (end 26.15 8.61) (layer F.SilkS) (width 0.12))
  (fp_line (start 26.15 8.61) (end 24.65 8.61) (layer F.SilkS) (width 0.12))
  (fp_line (start 24.65 8.61) (end 24.4 10.11) (layer F.SilkS) (width 0.12))
  (fp_line (start 29.48 10.11) (end 31.48 10.11) (layer F.SilkS) (width 0.12))
  (fp_line (start 31.48 10.11) (end 31.23 8.61) (layer F.SilkS) (width 0.12))
  (fp_line (start 31.23 8.61) (end 29.73 8.61) (layer F.SilkS) (width 0.12))
  (fp_line (start 29.73 8.61) (end 29.48 10.11) (layer F.SilkS) (width 0.12))
  (fp_line (start 34.56 10.11) (end 36.56 10.11) (layer F.SilkS) (width 0.12))
  (fp_line (start 36.56 10.11) (end 36.31 8.61) (layer F.SilkS) (width 0.12))
  (fp_line (start 36.31 8.61) (end 34.81 8.61) (layer F.SilkS) (width 0.12))
  (fp_line (start 34.81 8.61) (end 34.56 10.11) (layer F.SilkS) (width 0.12))
  (fp_line (start 39.64 10.11) (end 41.64 10.11) (layer F.SilkS) (width 0.12))
  (fp_line (start 41.64 10.11) (end 41.39 8.61) (layer F.SilkS) (width 0.12))
  (fp_line (start 41.39 8.61) (end 39.89 8.61) (layer F.SilkS) (width 0.12))
  (fp_line (start 39.89 8.61) (end 39.64 10.11) (layer F.SilkS) (width 0.12))
  (fp_line (start 44.72 10.11) (end 46.72 10.11) (layer F.SilkS) (width 0.12))
  (fp_line (start 46.72 10.11) (end 46.47 8.61) (layer F.SilkS) (width 0.12))
  (fp_line (start 46.47 8.61) (end 44.97 8.61) (layer F.SilkS) (width 0.12))
  (fp_line (start 44.97 8.61) (end 44.72 10.11) (layer F.SilkS) (width 0.12))
  (fp_line (start 49.8 10.11) (end 51.8 10.11) (layer F.SilkS) (width 0.12))
  (fp_line (start 51.8 10.11) (end 51.55 8.61) (layer F.SilkS) (width 0.12))
  (fp_line (start 51.55 8.61) (end 50.05 8.61) (layer F.SilkS) (width 0.12))
  (fp_line (start 50.05 8.61) (end 49.8 10.11) (layer F.SilkS) (width 0.12))
  (fp_line (start 54.88 10.11) (end 56.88 10.11) (layer F.SilkS) (width 0.12))
  (fp_line (start 56.88 10.11) (end 56.63 8.61) (layer F.SilkS) (width 0.12))
  (fp_line (start 56.63 8.61) (end 55.13 8.61) (layer F.SilkS) (width 0.12))
  (fp_line (start 55.13 8.61) (end 54.88 10.11) (layer F.SilkS) (width 0.12))
  (fp_line (start 59.96 10.11) (end 61.96 10.11) (layer F.SilkS) (width 0.12))
  (fp_line (start 61.96 10.11) (end 61.71 8.61) (layer F.SilkS) (width 0.12))
  (fp_line (start 61.71 8.61) (end 60.21 8.61) (layer F.SilkS) (width 0.12))
  (fp_line (start 60.21 8.61) (end 59.96 10.11) (layer F.SilkS) (width 0.12))
  (fp_line (start 65.04 10.11) (end 67.04 10.11) (layer F.SilkS) (width 0.12))
  (fp_line (start 67.04 10.11) (end 66.79 8.61) (layer F.SilkS) (width 0.12))
  (fp_line (start 66.79 8.61) (end 65.29 8.61) (layer F.SilkS) (width 0.12))
  (fp_line (start 65.29 8.61) (end 65.04 10.11) (layer F.SilkS) (width 0.12))
  (fp_line (start -4.04 -2.5) (end -4.04 10.5) (layer F.CrtYd) (width 0.05))
  (fp_line (start -4.04 10.5) (end 70.08 10.5) (layer F.CrtYd) (width 0.05))
  (fp_line (start 70.08 10.5) (end 70.08 -2.5) (layer F.CrtYd) (width 0.05))
  (fp_line (start 70.08 -2.5) (end -4.04 -2.5) (layer F.CrtYd) (width 0.05))
  (fp_line (start 0.3 -2.91) (end 0 -2.31) (layer F.SilkS) (width 0.12))
  (fp_line (start 0 -2.31) (end -0.3 -2.91) (layer F.SilkS) (width 0.12))
  (fp_line (start -0.3 -2.91) (end 0.3 -2.91) (layer F.SilkS) (width 0.12))
  (fp_line (start 0.95 -2) (end 0 -0.5) (layer F.Fab) (width 0.1))
  (fp_line (start 0 -0.5) (end -0.95 -2) (layer F.Fab) (width 0.1))
  (pad 1 thru_hole roundrect (at 0 0) (size 2.08 3.6) (drill 1.4) (layers *.Cu *.Mask) (roundrect_rratio 0.120192))
  (pad 2 thru_hole oval (at 5.08 0) (size 2.08 3.6) (drill 1.4) (layers *.Cu *.Mask))
  (pad 3 thru_hole oval (at 10.16 0) (size 2.08 3.6) (drill 1.4) (layers *.Cu *.Mask))
  (pad 4 thru_hole oval (at 15.24 0) (size 2.08 3.6) (drill 1.4) (layers *.Cu *.Mask))
  (pad 5 thru_hole oval (at 20.32 0) (size 2.08 3.6) (drill 1.4) (layers *.Cu *.Mask))
  (pad 6 thru_hole oval (at 25.4 0) (size 2.08 3.6) (drill 1.4) (layers *.Cu *.Mask))
  (pad 7 thru_hole oval (at 30.48 0) (size 2.08 3.6) (drill 1.4) (layers *.Cu *.Mask))
  (pad 8 thru_hole oval (at 35.56 0) (size 2.08 3.6) (drill 1.4) (layers *.Cu *.Mask))
  (pad 9 thru_hole oval (at 40.64 0) (size 2.08 3.6) (drill 1.4) (layers *.Cu *.Mask))
  (pad 10 thru_hole oval (at 45.72 0) (size 2.08 3.6) (drill 1.4) (layers *.Cu *.Mask))
  (pad 11 thru_hole oval (at 50.8 0) (size 2.08 3.6) (drill 1.4) (layers *.Cu *.Mask))
  (pad 12 thru_hole oval (at 55.88 0) (size 2.08 3.6) (drill 1.4) (layers *.Cu *.Mask))
  (pad 13 thru_hole oval (at 60.96 0) (size 2.08 3.6) (drill 1.4) (layers *.Cu *.Mask))
  (pad 14 thru_hole oval (at 66.04 0) (size 2.08 3.6) (drill 1.4) (layers *.Cu *.Mask))
  (fp_text user %R (at 33.02 -1.3) (layer F.Fab)
    (effects (font (size 1 1) (thickness 0.15)))
  )
  (model ${KICAD6_3DMODEL_DIR}/Connector_Phoenix_MSTB.3dshapes/PhoenixContact_MSTBA_2,5_14-G-5,08_1x14_P5.08mm_Horizontal.wrl
    (at (xyz 0 0 0))
    (scale (xyz 1 1 1))
    (rotate (xyz 0 0 0))
  )
)