(module PhoenixContact_MSTBV_2,5_2-GF_1x02_P5.00mm_Vertical_ThreadedFlange_MountHole (layer F.Cu) (tedit 5B785046)
  (descr "Generic Phoenix Contact connector footprint for: MSTBV_2,5/2-GF; number of pins: 02; pin pitch: 5.00mm; Vertical; threaded flange; footprint includes mount hole for mounting screw: ISO 1481-ST 2.2x6.5 C or ISO 7049-ST 2.2x6.5 C (http://www.fasteners.eu/standards/ISO/7049/) || order number: 1776883 12A || order number: 1924415 16A (HC)")
  (tags "phoenix_contact connector MSTBV_01x02_GF_5.00mm_MH")
  (fp_text reference REF** (at 2.5 -6) (layer F.SilkS)
    (effects (font (size 1 1) (thickness 0.15)))
  )
  (fp_text value PhoenixContact_MSTBV_2,5_2-GF_1x02_P5.00mm_Vertical_ThreadedFlange_MountHole (at 2.5 5) (layer F.Fab)
    (effects (font (size 1 1) (thickness 0.15)))
  )
  (fp_arc (start 0 0.55) (end -2 2.2) (angle -100.5) (layer F.SilkS) (width 0.12))
  (fp_arc (start 5 0.55) (end 3 2.2) (angle -100.5) (layer F.SilkS) (width 0.12))
  (fp_circle (center -5 0) (end -3.1 0) (layer F.SilkS) (width 0.12))
  (fp_circle (center 10 0) (end 11.9 0) (layer F.SilkS) (width 0.12))
  (fp_circle (center -5 0) (end -2.79 0) (layer B.SilkS) (width 0.12))
  (fp_circle (center 10 0) (end 12.21 0) (layer B.SilkS) (width 0.12))
  (fp_circle (center 10 0) (end 12.1 0) (layer B.Fab) (width 0.1))
  (fp_circle (center -5 0) (end -2.9 0) (layer B.Fab) (width 0.1))
  (fp_circle (center 10 0) (end 12.6 0) (layer B.CrtYd) (width 0.05))
  (fp_circle (center -5 0) (end -2.4 0) (layer B.CrtYd) (width 0.05))
  (fp_line (start -7.61 -4.91) (end -7.61 3.91) (layer F.SilkS) (width 0.12))
  (fp_line (start -7.61 3.91) (end 12.61 3.91) (layer F.SilkS) (width 0.12))
  (fp_line (start 12.61 3.91) (end 12.61 -4.91) (layer F.SilkS) (width 0.12))
  (fp_line (start 12.61 -4.91) (end -7.61 -4.91) (layer F.SilkS) (width 0.12))
  (fp_line (start -7.5 -4.8) (end -7.5 3.8) (layer F.Fab) (width 0.1))
  (fp_line (start -7.5 3.8) (end 12.5 3.8) (layer F.Fab) (width 0.1))
  (fp_line (start 12.5 3.8) (end 12.5 -4.8) (layer F.Fab) (width 0.1))
  (fp_line (start 12.5 -4.8) (end -7.5 -4.8) (layer F.Fab) (width 0.1))
  (fp_line (start -7.61 -4.1) (end -6.11 -4.1) (layer F.SilkS) (width 0.12))
  (fp_line (start 12.61 -4.1) (end 11.11 -4.1) (layer F.SilkS) (width 0.12))
  (fp_line (start 1 -4.1) (end 4 -4.1) (layer F.SilkS) (width 0.12))
  (fp_line (start -6 -3.1) (end -6 -4.91) (layer F.SilkS) (width 0.12))
  (fp_line (start -6 -4.91) (end -4 -4.91) (layer F.SilkS) (width 0.12))
  (fp_line (start -4 -4.91) (end -4 -3.1) (layer F.SilkS) (width 0.12))
  (fp_line (start -4 -3.1) (end -6 -3.1) (layer F.SilkS) (width 0.12))
  (fp_line (start 9 -3.1) (end 9 -4.91) (layer F.SilkS) (width 0.12))
  (fp_line (start 9 -4.91) (end 11 -4.91) (layer F.SilkS) (width 0.12))
  (fp_line (start 11 -4.91) (end 11 -3.1) (layer F.SilkS) (width 0.12))
  (fp_line (start 11 -3.1) (end 9 -3.1) (layer F.SilkS) (width 0.12))
  (fp_line (start -4 -4.1) (end -1 -4.1) (layer F.SilkS) (width 0.12))
  (fp_line (start 6 -4.1) (end 9 -4.1) (layer F.SilkS) (width 0.12))
  (fp_line (start -1 -3.1) (end -1 -4.91) (layer F.SilkS) (width 0.12))
  (fp_line (start -1 -4.91) (end 1 -4.91) (layer F.SilkS) (width 0.12))
  (fp_line (start 1 -4.91) (end 1 -3.1) (layer F.SilkS) (width 0.12))
  (fp_line (start 1 -3.1) (end -1 -3.1) (layer F.SilkS) (width 0.12))
  (fp_line (start 4 -3.1) (end 4 -4.91) (layer F.SilkS) (width 0.12))
  (fp_line (start 4 -4.91) (end 6 -4.91) (layer F.SilkS) (width 0.12))
  (fp_line (start 6 -4.91) (end 6 -3.1) (layer F.SilkS) (width 0.12))
  (fp_line (start 6 -3.1) (end 4 -3.1) (layer F.SilkS) (width 0.12))
  (fp_line (start 2 2.2) (end 3 2.2) (layer F.SilkS) (width 0.12))
  (fp_line (start -2 2.2) (end -2.7 2.2) (layer F.SilkS) (width 0.12))
  (fp_line (start -2.7 2.2) (end -2.7 -3.1) (layer F.SilkS) (width 0.12))
  (fp_line (start -2.7 -3.1) (end 7.7 -3.1) (layer F.SilkS) (width 0.12))
  (fp_line (start 7.7 -3.1) (end 7.7 2.2) (layer F.SilkS) (width 0.12))
  (fp_line (start 7.7 2.2) (end 7 2.2) (layer F.SilkS) (width 0.12))
  (fp_line (start -8 -5.3) (end -8 4.3) (layer F.CrtYd) (width 0.05))
  (fp_line (start -8 4.3) (end 13 4.3) (layer F.CrtYd) (width 0.05))
  (fp_line (start 13 4.3) (end 13 -5.3) (layer F.CrtYd) (width 0.05))
  (fp_line (start 13 -5.3) (end -8 -5.3) (layer F.CrtYd) (width 0.05))
  (fp_line (start 0.3 -5.71) (end 0 -5.11) (layer F.SilkS) (width 0.12))
  (fp_line (start 0 -5.11) (end -0.3 -5.71) (layer F.SilkS) (width 0.12))
  (fp_line (start -0.3 -5.71) (end 0.3 -5.71) (layer F.SilkS) (width 0.12))
  (fp_line (start 0.5 -3.55) (end 0 -2.55) (layer F.Fab) (width 0.1))
  (fp_line (start 0 -2.55) (end -0.5 -3.55) (layer F.Fab) (width 0.1))
  (fp_line (start -0.5 -3.55) (end 0.5 -3.55) (layer F.Fab) (width 0.1))
  (pad 1 thru_hole roundrect (at 0 0) (size 2 3.6) (drill 1.4) (layers *.Cu *.Mask) (roundrect_rratio 0.125))
  (pad 2 thru_hole oval (at 5 0) (size 2 3.6) (drill 1.4) (layers *.Cu *.Mask))
  (pad "" np_thru_hole circle (at -5 0) (size 2.4 2.4) (drill 2.4) (layers *.Cu *.Mask))
  (pad "" np_thru_hole circle (at 10 0) (size 2.4 2.4) (drill 2.4) (layers *.Cu *.Mask))
  (fp_text user %R (at 2.5 -4.1) (layer F.Fab)
    (effects (font (size 1 1) (thickness 0.15)))
  )
  (model ${KICAD6_3DMODEL_DIR}/Connector_Phoenix_MSTB.3dshapes/PhoenixContact_MSTBV_2,5_2-GF_1x02_P5.00mm_Vertical_ThreadedFlange_MountHole.wrl
    (at (xyz 0 0 0))
    (scale (xyz 1 1 1))
    (rotate (xyz 0 0 0))
  )
)