(module PhoenixContact_MSTB_2,5_6-GF-5,08_1x06_P5.08mm_Horizontal_ThreadedFlange (layer F.Cu) (tedit 5B785047)
  (descr "Generic Phoenix Contact connector footprint for: MSTB_2,5/6-GF-5,08; number of pins: 06; pin pitch: 5.08mm; Angled; threaded flange || order number: 1776540 12A || order number: 1924127 16A (HC)")
  (tags "phoenix_contact connector MSTB_01x06_GF_5.08mm")
  (fp_text reference REF** (at 12.7 -3.2) (layer F.SilkS)
    (effects (font (size 1 1) (thickness 0.15)))
  )
  (fp_text value PhoenixContact_MSTB_2,5_6-GF-5,08_1x06_P5.08mm_Horizontal_ThreadedFlange (at 12.7 11.2) (layer F.Fab)
    (effects (font (size 1 1) (thickness 0.15)))
  )
  (fp_line (start -7.73 -2.11) (end -7.73 10.11) (layer F.SilkS) (width 0.12))
  (fp_line (start -7.73 10.11) (end 33.13 10.11) (layer F.SilkS) (width 0.12))
  (fp_line (start 33.13 10.11) (end 33.13 -2.11) (layer F.SilkS) (width 0.12))
  (fp_line (start 33.13 -2.11) (end -7.73 -2.11) (layer F.SilkS) (width 0.12))
  (fp_line (start -7.62 -2) (end -7.62 10) (layer F.Fab) (width 0.1))
  (fp_line (start -7.62 10) (end 33.02 10) (layer F.Fab) (width 0.1))
  (fp_line (start 33.02 10) (end 33.02 -2) (layer F.Fab) (width 0.1))
  (fp_line (start 33.02 -2) (end -7.62 -2) (layer F.Fab) (width 0.1))
  (fp_line (start -7.73 8.61) (end -7.73 6.81) (layer F.SilkS) (width 0.12))
  (fp_line (start -7.73 6.81) (end 33.13 6.81) (layer F.SilkS) (width 0.12))
  (fp_line (start 33.13 6.81) (end 33.13 8.61) (layer F.SilkS) (width 0.12))
  (fp_line (start 33.13 8.61) (end -7.73 8.61) (layer F.SilkS) (width 0.12))
  (fp_line (start -6.08 10.11) (end -4.08 10.11) (layer F.SilkS) (width 0.12))
  (fp_line (start -4.08 10.11) (end -4.33 8.61) (layer F.SilkS) (width 0.12))
  (fp_line (start -4.33 8.61) (end -5.83 8.61) (layer F.SilkS) (width 0.12))
  (fp_line (start -5.83 8.61) (end -6.08 10.11) (layer F.SilkS) (width 0.12))
  (fp_line (start 29.48 10.11) (end 31.48 10.11) (layer F.SilkS) (width 0.12))
  (fp_line (start 31.48 10.11) (end 31.23 8.61) (layer F.SilkS) (width 0.12))
  (fp_line (start 31.23 8.61) (end 29.73 8.61) (layer F.SilkS) (width 0.12))
  (fp_line (start 29.73 8.61) (end 29.48 10.11) (layer F.SilkS) (width 0.12))
  (fp_line (start -1 10.11) (end 1 10.11) (layer F.SilkS) (width 0.12))
  (fp_line (start 1 10.11) (end 0.75 8.61) (layer F.SilkS) (width 0.12))
  (fp_line (start 0.75 8.61) (end -0.75 8.61) (layer F.SilkS) (width 0.12))
  (fp_line (start -0.75 8.61) (end -1 10.11) (layer F.SilkS) (width 0.12))
  (fp_line (start 4.08 10.11) (end 6.08 10.11) (layer F.SilkS) (width 0.12))
  (fp_line (start 6.08 10.11) (end 5.83 8.61) (layer F.SilkS) (width 0.12))
  (fp_line (start 5.83 8.61) (end 4.33 8.61) (layer F.SilkS) (width 0.12))
  (fp_line (start 4.33 8.61) (end 4.08 10.11) (layer F.SilkS) (width 0.12))
  (fp_line (start 9.16 10.11) (end 11.16 10.11) (layer F.SilkS) (width 0.12))
  (fp_line (start 11.16 10.11) (end 10.91 8.61) (layer F.SilkS) (width 0.12))
  (fp_line (start 10.91 8.61) (end 9.41 8.61) (layer F.SilkS) (width 0.12))
  (fp_line (start 9.41 8.61) (end 9.16 10.11) (layer F.SilkS) (width 0.12))
  (fp_line (start 14.24 10.11) (end 16.24 10.11) (layer F.SilkS) (width 0.12))
  (fp_line (start 16.24 10.11) (end 15.99 8.61) (layer F.SilkS) (width 0.12))
  (fp_line (start 15.99 8.61) (end 14.49 8.61) (layer F.SilkS) (width 0.12))
  (fp_line (start 14.49 8.61) (end 14.24 10.11) (layer F.SilkS) (width 0.12))
  (fp_line (start 19.32 10.11) (end 21.32 10.11) (layer F.SilkS) (width 0.12))
  (fp_line (start 21.32 10.11) (end 21.07 8.61) (layer F.SilkS) (width 0.12))
  (fp_line (start 21.07 8.61) (end 19.57 8.61) (layer F.SilkS) (width 0.12))
  (fp_line (start 19.57 8.61) (end 19.32 10.11) (layer F.SilkS) (width 0.12))
  (fp_line (start 24.4 10.11) (end 26.4 10.11) (layer F.SilkS) (width 0.12))
  (fp_line (start 26.4 10.11) (end 26.15 8.61) (layer F.SilkS) (width 0.12))
  (fp_line (start 26.15 8.61) (end 24.65 8.61) (layer F.SilkS) (width 0.12))
  (fp_line (start 24.65 8.61) (end 24.4 10.11) (layer F.SilkS) (width 0.12))
  (fp_line (start -8.12 -2.5) (end -8.12 10.5) (layer F.CrtYd) (width 0.05))
  (fp_line (start -8.12 10.5) (end 33.52 10.5) (layer F.CrtYd) (width 0.05))
  (fp_line (start 33.52 10.5) (end 33.52 -2.5) (layer F.CrtYd) (width 0.05))
  (fp_line (start 33.52 -2.5) (end -8.12 -2.5) (layer F.CrtYd) (width 0.05))
  (fp_line (start 0.3 -2.91) (end 0 -2.31) (layer F.SilkS) (width 0.12))
  (fp_line (start 0 -2.31) (end -0.3 -2.91) (layer F.SilkS) (width 0.12))
  (fp_line (start -0.3 -2.91) (end 0.3 -2.91) (layer F.SilkS) (width 0.12))
  (fp_line (start 0.95 -2) (end 0 -0.5) (layer F.Fab) (width 0.1))
  (fp_line (start 0 -0.5) (end -0.95 -2) (layer F.Fab) (width 0.1))
  (pad 1 thru_hole roundrect (at 0 0) (size 2.08 3.6) (drill 1.4) (layers *.Cu *.Mask) (roundrect_rratio 0.120192))
  (pad 2 thru_hole oval (at 5.08 0) (size 2.08 3.6) (drill 1.4) (layers *.Cu *.Mask))
  (pad 3 thru_hole oval (at 10.16 0) (size 2.08 3.6) (drill 1.4) (layers *.Cu *.Mask))
  (pad 4 thru_hole oval (at 15.24 0) (size 2.08 3.6) (drill 1.4) (layers *.Cu *.Mask))
  (pad 5 thru_hole oval (at 20.32 0) (size 2.08 3.6) (drill 1.4) (layers *.Cu *.Mask))
  (pad 6 thru_hole oval (at 25.4 0) (size 2.08 3.6) (drill 1.4) (layers *.Cu *.Mask))
  (fp_text user %R (at 12.7 -1.3) (layer F.Fab)
    (effects (font (size 1 1) (thickness 0.15)))
  )
  (model ${KICAD6_3DMODEL_DIR}/Connector_Phoenix_MSTB.3dshapes/PhoenixContact_MSTB_2,5_6-GF-5,08_1x06_P5.08mm_Horizontal_ThreadedFlange.wrl
    (at (xyz 0 0 0))
    (scale (xyz 1 1 1))
    (rotate (xyz 0 0 0))
  )
)