(module PhoenixContact_MSTBA_2,5_3-G-5,08_1x03_P5.08mm_Horizontal (layer F.Cu) (tedit 5B785047)
  (descr "Generic Phoenix Contact connector footprint for: MSTBA_2,5/3-G-5,08; number of pins: 03; pin pitch: 5.08mm; Angled || order number: 1757255 12A || order number: 1923872 16A (HC)")
  (tags "phoenix_contact connector MSTBA_01x03_G_5.08mm")
  (fp_text reference REF** (at 5.08 -3.2) (layer F.SilkS)
    (effects (font (size 1 1) (thickness 0.15)))
  )
  (fp_text value PhoenixContact_MSTBA_2,5_3-G-5,08_1x03_P5.08mm_Horizontal (at 5.08 11.2) (layer F.Fab)
    (effects (font (size 1 1) (thickness 0.15)))
  )
  (fp_line (start -3.65 -2.11) (end -3.65 10.11) (layer F.SilkS) (width 0.12))
  (fp_line (start -3.65 10.11) (end 13.81 10.11) (layer F.SilkS) (width 0.12))
  (fp_line (start 13.81 10.11) (end 13.81 -2.11) (layer F.SilkS) (width 0.12))
  (fp_line (start 13.81 -2.11) (end -3.65 -2.11) (layer F.SilkS) (width 0.12))
  (fp_line (start -3.54 -2) (end -3.54 10) (layer F.Fab) (width 0.1))
  (fp_line (start -3.54 10) (end 13.7 10) (layer F.Fab) (width 0.1))
  (fp_line (start 13.7 10) (end 13.7 -2) (layer F.Fab) (width 0.1))
  (fp_line (start 13.7 -2) (end -3.54 -2) (layer F.Fab) (width 0.1))
  (fp_line (start -3.65 8.61) (end -3.65 6.81) (layer F.SilkS) (width 0.12))
  (fp_line (start -3.65 6.81) (end 13.81 6.81) (layer F.SilkS) (width 0.12))
  (fp_line (start 13.81 6.81) (end 13.81 8.61) (layer F.SilkS) (width 0.12))
  (fp_line (start 13.81 8.61) (end -3.65 8.61) (layer F.SilkS) (width 0.12))
  (fp_line (start -1 10.11) (end 1 10.11) (layer F.SilkS) (width 0.12))
  (fp_line (start 1 10.11) (end 0.75 8.61) (layer F.SilkS) (width 0.12))
  (fp_line (start 0.75 8.61) (end -0.75 8.61) (layer F.SilkS) (width 0.12))
  (fp_line (start -0.75 8.61) (end -1 10.11) (layer F.SilkS) (width 0.12))
  (fp_line (start 4.08 10.11) (end 6.08 10.11) (layer F.SilkS) (width 0.12))
  (fp_line (start 6.08 10.11) (end 5.83 8.61) (layer F.SilkS) (width 0.12))
  (fp_line (start 5.83 8.61) (end 4.33 8.61) (layer F.SilkS) (width 0.12))
  (fp_line (start 4.33 8.61) (end 4.08 10.11) (layer F.SilkS) (width 0.12))
  (fp_line (start 9.16 10.11) (end 11.16 10.11) (layer F.SilkS) (width 0.12))
  (fp_line (start 11.16 10.11) (end 10.91 8.61) (layer F.SilkS) (width 0.12))
  (fp_line (start 10.91 8.61) (end 9.41 8.61) (layer F.SilkS) (width 0.12))
  (fp_line (start 9.41 8.61) (end 9.16 10.11) (layer F.SilkS) (width 0.12))
  (fp_line (start -4.04 -2.5) (end -4.04 10.5) (layer F.CrtYd) (width 0.05))
  (fp_line (start -4.04 10.5) (end 14.2 10.5) (layer F.CrtYd) (width 0.05))
  (fp_line (start 14.2 10.5) (end 14.2 -2.5) (layer F.CrtYd) (width 0.05))
  (fp_line (start 14.2 -2.5) (end -4.04 -2.5) (layer F.CrtYd) (width 0.05))
  (fp_line (start 0.3 -2.91) (end 0 -2.31) (layer F.SilkS) (width 0.12))
  (fp_line (start 0 -2.31) (end -0.3 -2.91) (layer F.SilkS) (width 0.12))
  (fp_line (start -0.3 -2.91) (end 0.3 -2.91) (layer F.SilkS) (width 0.12))
  (fp_line (start 0.95 -2) (end 0 -0.5) (layer F.Fab) (width 0.1))
  (fp_line (start 0 -0.5) (end -0.95 -2) (layer F.Fab) (width 0.1))
  (pad 1 thru_hole roundrect (at 0 0) (size 2.08 3.6) (drill 1.4) (layers *.Cu *.Mask) (roundrect_rratio 0.120192))
  (pad 2 thru_hole oval (at 5.08 0) (size 2.08 3.6) (drill 1.4) (layers *.Cu *.Mask))
  (pad 3 thru_hole oval (at 10.16 0) (size 2.08 3.6) (drill 1.4) (layers *.Cu *.Mask))
  (fp_text user %R (at 5.08 -1.3) (layer F.Fab)
    (effects (font (size 1 1) (thickness 0.15)))
  )
  (model ${KICAD6_3DMODEL_DIR}/Connector_Phoenix_MSTB.3dshapes/PhoenixContact_MSTBA_2,5_3-G-5,08_1x03_P5.08mm_Horizontal.wrl
    (at (xyz 0 0 0))
    (scale (xyz 1 1 1))
    (rotate (xyz 0 0 0))
  )
)