(module PhoenixContact_MSTBV_2,5_12-GF_1x12_P5.00mm_Vertical_ThreadedFlange (layer F.Cu) (tedit 5B785046)
  (descr "Generic Phoenix Contact connector footprint for: MSTBV_2,5/12-GF; number of pins: 12; pin pitch: 5.00mm; Vertical; threaded flange || order number: 1776980 12A || order number: 1924512 16A (HC)")
  (tags "phoenix_contact connector MSTBV_01x12_GF_5.00mm")
  (fp_text reference REF** (at 27.5 -6) (layer F.SilkS)
    (effects (font (size 1 1) (thickness 0.15)))
  )
  (fp_text value PhoenixContact_MSTBV_2,5_12-GF_1x12_P5.00mm_Vertical_ThreadedFlange (at 27.5 5) (layer F.Fab)
    (effects (font (size 1 1) (thickness 0.15)))
  )
  (fp_arc (start 0 0.55) (end -2 2.2) (angle -100.5) (layer F.SilkS) (width 0.12))
  (fp_arc (start 5 0.55) (end 3 2.2) (angle -100.5) (layer F.SilkS) (width 0.12))
  (fp_arc (start 10 0.55) (end 8 2.2) (angle -100.5) (layer F.SilkS) (width 0.12))
  (fp_arc (start 15 0.55) (end 13 2.2) (angle -100.5) (layer F.SilkS) (width 0.12))
  (fp_arc (start 20 0.55) (end 18 2.2) (angle -100.5) (layer F.SilkS) (width 0.12))
  (fp_arc (start 25 0.55) (end 23 2.2) (angle -100.5) (layer F.SilkS) (width 0.12))
  (fp_arc (start 30 0.55) (end 28 2.2) (angle -100.5) (layer F.SilkS) (width 0.12))
  (fp_arc (start 35 0.55) (end 33 2.2) (angle -100.5) (layer F.SilkS) (width 0.12))
  (fp_arc (start 40 0.55) (end 38 2.2) (angle -100.5) (layer F.SilkS) (width 0.12))
  (fp_arc (start 45 0.55) (end 43 2.2) (angle -100.5) (layer F.SilkS) (width 0.12))
  (fp_arc (start 50 0.55) (end 48 2.2) (angle -100.5) (layer F.SilkS) (width 0.12))
  (fp_arc (start 55 0.55) (end 53 2.2) (angle -100.5) (layer F.SilkS) (width 0.12))
  (fp_circle (center -5 0) (end -3.1 0) (layer F.SilkS) (width 0.12))
  (fp_circle (center 60 0) (end 61.9 0) (layer F.SilkS) (width 0.12))
  (fp_circle (center -5 0) (end -4 0) (layer F.SilkS) (width 0.12))
  (fp_circle (center 60 0) (end 61 0) (layer F.SilkS) (width 0.12))
  (fp_line (start -7.61 -4.91) (end -7.61 3.91) (layer F.SilkS) (width 0.12))
  (fp_line (start -7.61 3.91) (end 62.61 3.91) (layer F.SilkS) (width 0.12))
  (fp_line (start 62.61 3.91) (end 62.61 -4.91) (layer F.SilkS) (width 0.12))
  (fp_line (start 62.61 -4.91) (end -7.61 -4.91) (layer F.SilkS) (width 0.12))
  (fp_line (start -7.5 -4.8) (end -7.5 3.8) (layer F.Fab) (width 0.1))
  (fp_line (start -7.5 3.8) (end 62.5 3.8) (layer F.Fab) (width 0.1))
  (fp_line (start 62.5 3.8) (end 62.5 -4.8) (layer F.Fab) (width 0.1))
  (fp_line (start 62.5 -4.8) (end -7.5 -4.8) (layer F.Fab) (width 0.1))
  (fp_line (start -7.61 -4.1) (end -6.11 -4.1) (layer F.SilkS) (width 0.12))
  (fp_line (start 62.61 -4.1) (end 61.11 -4.1) (layer F.SilkS) (width 0.12))
  (fp_line (start 1 -4.1) (end 4 -4.1) (layer F.SilkS) (width 0.12))
  (fp_line (start 6 -4.1) (end 9 -4.1) (layer F.SilkS) (width 0.12))
  (fp_line (start 11 -4.1) (end 14 -4.1) (layer F.SilkS) (width 0.12))
  (fp_line (start 16 -4.1) (end 19 -4.1) (layer F.SilkS) (width 0.12))
  (fp_line (start 21 -4.1) (end 24 -4.1) (layer F.SilkS) (width 0.12))
  (fp_line (start 26 -4.1) (end 29 -4.1) (layer F.SilkS) (width 0.12))
  (fp_line (start 31 -4.1) (end 34 -4.1) (layer F.SilkS) (width 0.12))
  (fp_line (start 36 -4.1) (end 39 -4.1) (layer F.SilkS) (width 0.12))
  (fp_line (start 41 -4.1) (end 44 -4.1) (layer F.SilkS) (width 0.12))
  (fp_line (start 46 -4.1) (end 49 -4.1) (layer F.SilkS) (width 0.12))
  (fp_line (start 51 -4.1) (end 54 -4.1) (layer F.SilkS) (width 0.12))
  (fp_line (start -6 -3.1) (end -6 -4.91) (layer F.SilkS) (width 0.12))
  (fp_line (start -6 -4.91) (end -4 -4.91) (layer F.SilkS) (width 0.12))
  (fp_line (start -4 -4.91) (end -4 -3.1) (layer F.SilkS) (width 0.12))
  (fp_line (start -4 -3.1) (end -6 -3.1) (layer F.SilkS) (width 0.12))
  (fp_line (start 59 -3.1) (end 59 -4.91) (layer F.SilkS) (width 0.12))
  (fp_line (start 59 -4.91) (end 61 -4.91) (layer F.SilkS) (width 0.12))
  (fp_line (start 61 -4.91) (end 61 -3.1) (layer F.SilkS) (width 0.12))
  (fp_line (start 61 -3.1) (end 59 -3.1) (layer F.SilkS) (width 0.12))
  (fp_line (start -4 -4.1) (end -1 -4.1) (layer F.SilkS) (width 0.12))
  (fp_line (start 56 -4.1) (end 59 -4.1) (layer F.SilkS) (width 0.12))
  (fp_line (start -1 -3.1) (end -1 -4.91) (layer F.SilkS) (width 0.12))
  (fp_line (start -1 -4.91) (end 1 -4.91) (layer F.SilkS) (width 0.12))
  (fp_line (start 1 -4.91) (end 1 -3.1) (layer F.SilkS) (width 0.12))
  (fp_line (start 1 -3.1) (end -1 -3.1) (layer F.SilkS) (width 0.12))
  (fp_line (start 4 -3.1) (end 4 -4.91) (layer F.SilkS) (width 0.12))
  (fp_line (start 4 -4.91) (end 6 -4.91) (layer F.SilkS) (width 0.12))
  (fp_line (start 6 -4.91) (end 6 -3.1) (layer F.SilkS) (width 0.12))
  (fp_line (start 6 -3.1) (end 4 -3.1) (layer F.SilkS) (width 0.12))
  (fp_line (start 9 -3.1) (end 9 -4.91) (layer F.SilkS) (width 0.12))
  (fp_line (start 9 -4.91) (end 11 -4.91) (layer F.SilkS) (width 0.12))
  (fp_line (start 11 -4.91) (end 11 -3.1) (layer F.SilkS) (width 0.12))
  (fp_line (start 11 -3.1) (end 9 -3.1) (layer F.SilkS) (width 0.12))
  (fp_line (start 14 -3.1) (end 14 -4.91) (layer F.SilkS) (width 0.12))
  (fp_line (start 14 -4.91) (end 16 -4.91) (layer F.SilkS) (width 0.12))
  (fp_line (start 16 -4.91) (end 16 -3.1) (layer F.SilkS) (width 0.12))
  (fp_line (start 16 -3.1) (end 14 -3.1) (layer F.SilkS) (width 0.12))
  (fp_line (start 19 -3.1) (end 19 -4.91) (layer F.SilkS) (width 0.12))
  (fp_line (start 19 -4.91) (end 21 -4.91) (layer F.SilkS) (width 0.12))
  (fp_line (start 21 -4.91) (end 21 -3.1) (layer F.SilkS) (width 0.12))
  (fp_line (start 21 -3.1) (end 19 -3.1) (layer F.SilkS) (width 0.12))
  (fp_line (start 24 -3.1) (end 24 -4.91) (layer F.SilkS) (width 0.12))
  (fp_line (start 24 -4.91) (end 26 -4.91) (layer F.SilkS) (width 0.12))
  (fp_line (start 26 -4.91) (end 26 -3.1) (layer F.SilkS) (width 0.12))
  (fp_line (start 26 -3.1) (end 24 -3.1) (layer F.SilkS) (width 0.12))
  (fp_line (start 29 -3.1) (end 29 -4.91) (layer F.SilkS) (width 0.12))
  (fp_line (start 29 -4.91) (end 31 -4.91) (layer F.SilkS) (width 0.12))
  (fp_line (start 31 -4.91) (end 31 -3.1) (layer F.SilkS) (width 0.12))
  (fp_line (start 31 -3.1) (end 29 -3.1) (layer F.SilkS) (width 0.12))
  (fp_line (start 34 -3.1) (end 34 -4.91) (layer F.SilkS) (width 0.12))
  (fp_line (start 34 -4.91) (end 36 -4.91) (layer F.SilkS) (width 0.12))
  (fp_line (start 36 -4.91) (end 36 -3.1) (layer F.SilkS) (width 0.12))
  (fp_line (start 36 -3.1) (end 34 -3.1) (layer F.SilkS) (width 0.12))
  (fp_line (start 39 -3.1) (end 39 -4.91) (layer F.SilkS) (width 0.12))
  (fp_line (start 39 -4.91) (end 41 -4.91) (layer F.SilkS) (width 0.12))
  (fp_line (start 41 -4.91) (end 41 -3.1) (layer F.SilkS) (width 0.12))
  (fp_line (start 41 -3.1) (end 39 -3.1) (layer F.SilkS) (width 0.12))
  (fp_line (start 44 -3.1) (end 44 -4.91) (layer F.SilkS) (width 0.12))
  (fp_line (start 44 -4.91) (end 46 -4.91) (layer F.SilkS) (width 0.12))
  (fp_line (start 46 -4.91) (end 46 -3.1) (layer F.SilkS) (width 0.12))
  (fp_line (start 46 -3.1) (end 44 -3.1) (layer F.SilkS) (width 0.12))
  (fp_line (start 49 -3.1) (end 49 -4.91) (layer F.SilkS) (width 0.12))
  (fp_line (start 49 -4.91) (end 51 -4.91) (layer F.SilkS) (width 0.12))
  (fp_line (start 51 -4.91) (end 51 -3.1) (layer F.SilkS) (width 0.12))
  (fp_line (start 51 -3.1) (end 49 -3.1) (layer F.SilkS) (width 0.12))
  (fp_line (start 54 -3.1) (end 54 -4.91) (layer F.SilkS) (width 0.12))
  (fp_line (start 54 -4.91) (end 56 -4.91) (layer F.SilkS) (width 0.12))
  (fp_line (start 56 -4.91) (end 56 -3.1) (layer F.SilkS) (width 0.12))
  (fp_line (start 56 -3.1) (end 54 -3.1) (layer F.SilkS) (width 0.12))
  (fp_line (start 2 2.2) (end 3 2.2) (layer F.SilkS) (width 0.12))
  (fp_line (start 7 2.2) (end 8 2.2) (layer F.SilkS) (width 0.12))
  (fp_line (start 12 2.2) (end 13 2.2) (layer F.SilkS) (width 0.12))
  (fp_line (start 17 2.2) (end 18 2.2) (layer F.SilkS) (width 0.12))
  (fp_line (start 22 2.2) (end 23 2.2) (layer F.SilkS) (width 0.12))
  (fp_line (start 27 2.2) (end 28 2.2) (layer F.SilkS) (width 0.12))
  (fp_line (start 32 2.2) (end 33 2.2) (layer F.SilkS) (width 0.12))
  (fp_line (start 37 2.2) (end 38 2.2) (layer F.SilkS) (width 0.12))
  (fp_line (start 42 2.2) (end 43 2.2) (layer F.SilkS) (width 0.12))
  (fp_line (start 47 2.2) (end 48 2.2) (layer F.SilkS) (width 0.12))
  (fp_line (start 52 2.2) (end 53 2.2) (layer F.SilkS) (width 0.12))
  (fp_line (start -2 2.2) (end -2.7 2.2) (layer F.SilkS) (width 0.12))
  (fp_line (start -2.7 2.2) (end -2.7 -3.1) (layer F.SilkS) (width 0.12))
  (fp_line (start -2.7 -3.1) (end 57.7 -3.1) (layer F.SilkS) (width 0.12))
  (fp_line (start 57.7 -3.1) (end 57.7 2.2) (layer F.SilkS) (width 0.12))
  (fp_line (start 57.7 2.2) (end 57 2.2) (layer F.SilkS) (width 0.12))
  (fp_line (start -8 -5.3) (end -8 4.3) (layer F.CrtYd) (width 0.05))
  (fp_line (start -8 4.3) (end 63 4.3) (layer F.CrtYd) (width 0.05))
  (fp_line (start 63 4.3) (end 63 -5.3) (layer F.CrtYd) (width 0.05))
  (fp_line (start 63 -5.3) (end -8 -5.3) (layer F.CrtYd) (width 0.05))
  (fp_line (start 0.3 -5.71) (end 0 -5.11) (layer F.SilkS) (width 0.12))
  (fp_line (start 0 -5.11) (end -0.3 -5.71) (layer F.SilkS) (width 0.12))
  (fp_line (start -0.3 -5.71) (end 0.3 -5.71) (layer F.SilkS) (width 0.12))
  (fp_line (start 0.5 -3.55) (end 0 -2.55) (layer F.Fab) (width 0.1))
  (fp_line (start 0 -2.55) (end -0.5 -3.55) (layer F.Fab) (width 0.1))
  (fp_line (start -0.5 -3.55) (end 0.5 -3.55) (layer F.Fab) (width 0.1))
  (pad 1 thru_hole roundrect (at 0 0) (size 2 3.6) (drill 1.4) (layers *.Cu *.Mask) (roundrect_rratio 0.125))
  (pad 2 thru_hole oval (at 5 0) (size 2 3.6) (drill 1.4) (layers *.Cu *.Mask))
  (pad 3 thru_hole oval (at 10 0) (size 2 3.6) (drill 1.4) (layers *.Cu *.Mask))
  (pad 4 thru_hole oval (at 15 0) (size 2 3.6) (drill 1.4) (layers *.Cu *.Mask))
  (pad 5 thru_hole oval (at 20 0) (size 2 3.6) (drill 1.4) (layers *.Cu *.Mask))
  (pad 6 thru_hole oval (at 25 0) (size 2 3.6) (drill 1.4) (layers *.Cu *.Mask))
  (pad 7 thru_hole oval (at 30 0) (size 2 3.6) (drill 1.4) (layers *.Cu *.Mask))
  (pad 8 thru_hole oval (at 35 0) (size 2 3.6) (drill 1.4) (layers *.Cu *.Mask))
  (pad 9 thru_hole oval (at 40 0) (size 2 3.6) (drill 1.4) (layers *.Cu *.Mask))
  (pad 10 thru_hole oval (at 45 0) (size 2 3.6) (drill 1.4) (layers *.Cu *.Mask))
  (pad 11 thru_hole oval (at 50 0) (size 2 3.6) (drill 1.4) (layers *.Cu *.Mask))
  (pad 12 thru_hole oval (at 55 0) (size 2 3.6) (drill 1.4) (layers *.Cu *.Mask))
  (fp_text user %R (at 27.5 -4.1) (layer F.Fab)
    (effects (font (size 1 1) (thickness 0.15)))
  )
  (model ${KICAD6_3DMODEL_DIR}/Connector_Phoenix_MSTB.3dshapes/PhoenixContact_MSTBV_2,5_12-GF_1x12_P5.00mm_Vertical_ThreadedFlange.wrl
    (at (xyz 0 0 0))
    (scale (xyz 1 1 1))
    (rotate (xyz 0 0 0))
  )
)