(module PhoenixContact_MSTB_2,5_4-GF_1x04_P5.00mm_Horizontal_ThreadedFlange (layer F.Cu) (tedit 5B785046)
  (descr "Generic Phoenix Contact connector footprint for: MSTB_2,5/4-GF; number of pins: 04; pin pitch: 5.00mm; Angled; threaded flange || order number: 1776715 12A || order number: 1923995 16A (HC)")
  (tags "phoenix_contact connector MSTB_01x04_GF_5.00mm")
  (fp_text reference REF** (at 7.5 -3.2) (layer F.SilkS)
    (effects (font (size 1 1) (thickness 0.15)))
  )
  (fp_text value PhoenixContact_MSTB_2,5_4-GF_1x04_P5.00mm_Horizontal_ThreadedFlange (at 7.5 11.2) (layer F.Fab)
    (effects (font (size 1 1) (thickness 0.15)))
  )
  (fp_line (start -7.61 -2.11) (end -7.61 10.11) (layer F.SilkS) (width 0.12))
  (fp_line (start -7.61 10.11) (end 22.61 10.11) (layer F.SilkS) (width 0.12))
  (fp_line (start 22.61 10.11) (end 22.61 -2.11) (layer F.SilkS) (width 0.12))
  (fp_line (start 22.61 -2.11) (end -7.61 -2.11) (layer F.SilkS) (width 0.12))
  (fp_line (start -7.5 -2) (end -7.5 10) (layer F.Fab) (width 0.1))
  (fp_line (start -7.5 10) (end 22.5 10) (layer F.Fab) (width 0.1))
  (fp_line (start 22.5 10) (end 22.5 -2) (layer F.Fab) (width 0.1))
  (fp_line (start 22.5 -2) (end -7.5 -2) (layer F.Fab) (width 0.1))
  (fp_line (start -7.61 8.61) (end -7.61 6.81) (layer F.SilkS) (width 0.12))
  (fp_line (start -7.61 6.81) (end 22.61 6.81) (layer F.SilkS) (width 0.12))
  (fp_line (start 22.61 6.81) (end 22.61 8.61) (layer F.SilkS) (width 0.12))
  (fp_line (start 22.61 8.61) (end -7.61 8.61) (layer F.SilkS) (width 0.12))
  (fp_line (start -6 10.11) (end -4 10.11) (layer F.SilkS) (width 0.12))
  (fp_line (start -4 10.11) (end -4.25 8.61) (layer F.SilkS) (width 0.12))
  (fp_line (start -4.25 8.61) (end -5.75 8.61) (layer F.SilkS) (width 0.12))
  (fp_line (start -5.75 8.61) (end -6 10.11) (layer F.SilkS) (width 0.12))
  (fp_line (start 19 10.11) (end 21 10.11) (layer F.SilkS) (width 0.12))
  (fp_line (start 21 10.11) (end 20.75 8.61) (layer F.SilkS) (width 0.12))
  (fp_line (start 20.75 8.61) (end 19.25 8.61) (layer F.SilkS) (width 0.12))
  (fp_line (start 19.25 8.61) (end 19 10.11) (layer F.SilkS) (width 0.12))
  (fp_line (start -1 10.11) (end 1 10.11) (layer F.SilkS) (width 0.12))
  (fp_line (start 1 10.11) (end 0.75 8.61) (layer F.SilkS) (width 0.12))
  (fp_line (start 0.75 8.61) (end -0.75 8.61) (layer F.SilkS) (width 0.12))
  (fp_line (start -0.75 8.61) (end -1 10.11) (layer F.SilkS) (width 0.12))
  (fp_line (start 4 10.11) (end 6 10.11) (layer F.SilkS) (width 0.12))
  (fp_line (start 6 10.11) (end 5.75 8.61) (layer F.SilkS) (width 0.12))
  (fp_line (start 5.75 8.61) (end 4.25 8.61) (layer F.SilkS) (width 0.12))
  (fp_line (start 4.25 8.61) (end 4 10.11) (layer F.SilkS) (width 0.12))
  (fp_line (start 9 10.11) (end 11 10.11) (layer F.SilkS) (width 0.12))
  (fp_line (start 11 10.11) (end 10.75 8.61) (layer F.SilkS) (width 0.12))
  (fp_line (start 10.75 8.61) (end 9.25 8.61) (layer F.SilkS) (width 0.12))
  (fp_line (start 9.25 8.61) (end 9 10.11) (layer F.SilkS) (width 0.12))
  (fp_line (start 14 10.11) (end 16 10.11) (layer F.SilkS) (width 0.12))
  (fp_line (start 16 10.11) (end 15.75 8.61) (layer F.SilkS) (width 0.12))
  (fp_line (start 15.75 8.61) (end 14.25 8.61) (layer F.SilkS) (width 0.12))
  (fp_line (start 14.25 8.61) (end 14 10.11) (layer F.SilkS) (width 0.12))
  (fp_line (start -8 -2.5) (end -8 10.5) (layer F.CrtYd) (width 0.05))
  (fp_line (start -8 10.5) (end 23 10.5) (layer F.CrtYd) (width 0.05))
  (fp_line (start 23 10.5) (end 23 -2.5) (layer F.CrtYd) (width 0.05))
  (fp_line (start 23 -2.5) (end -8 -2.5) (layer F.CrtYd) (width 0.05))
  (fp_line (start 0.3 -2.91) (end 0 -2.31) (layer F.SilkS) (width 0.12))
  (fp_line (start 0 -2.31) (end -0.3 -2.91) (layer F.SilkS) (width 0.12))
  (fp_line (start -0.3 -2.91) (end 0.3 -2.91) (layer F.SilkS) (width 0.12))
  (fp_line (start 0.95 -2) (end 0 -0.5) (layer F.Fab) (width 0.1))
  (fp_line (start 0 -0.5) (end -0.95 -2) (layer F.Fab) (width 0.1))
  (pad 1 thru_hole roundrect (at 0 0) (size 2 3.6) (drill 1.4) (layers *.Cu *.Mask) (roundrect_rratio 0.125))
  (pad 2 thru_hole oval (at 5 0) (size 2 3.6) (drill 1.4) (layers *.Cu *.Mask))
  (pad 3 thru_hole oval (at 10 0) (size 2 3.6) (drill 1.4) (layers *.Cu *.Mask))
  (pad 4 thru_hole oval (at 15 0) (size 2 3.6) (drill 1.4) (layers *.Cu *.Mask))
  (fp_text user %R (at 7.5 -1.3) (layer F.Fab)
    (effects (font (size 1 1) (thickness 0.15)))
  )
  (model ${KICAD6_3DMODEL_DIR}/Connector_Phoenix_MSTB.3dshapes/PhoenixContact_MSTB_2,5_4-GF_1x04_P5.00mm_Horizontal_ThreadedFlange.wrl
    (at (xyz 0 0 0))
    (scale (xyz 1 1 1))
    (rotate (xyz 0 0 0))
  )
)