(module PhoenixContact_MSTBVA_2,5_6-G-5,08_1x06_P5.08mm_Vertical (layer F.Cu) (tedit 5B785047)
  (descr "Generic Phoenix Contact connector footprint for: MSTBVA_2,5/6-G-5,08; number of pins: 06; pin pitch: 5.08mm; Vertical || order number: 1755778 12A || order number: 1924347 16A (HC)")
  (tags "phoenix_contact connector MSTBVA_01x06_G_5.08mm")
  (fp_text reference REF** (at 12.7 -6) (layer F.SilkS)
    (effects (font (size 1 1) (thickness 0.15)))
  )
  (fp_text value PhoenixContact_MSTBVA_2,5_6-G-5,08_1x06_P5.08mm_Vertical (at 12.7 5) (layer F.Fab)
    (effects (font (size 1 1) (thickness 0.15)))
  )
  (fp_arc (start 0 0.55) (end -2 2.2) (angle -100.5) (layer F.SilkS) (width 0.12))
  (fp_arc (start 5.08 0.55) (end 3.08 2.2) (angle -100.5) (layer F.SilkS) (width 0.12))
  (fp_arc (start 10.16 0.55) (end 8.16 2.2) (angle -100.5) (layer F.SilkS) (width 0.12))
  (fp_arc (start 15.24 0.55) (end 13.24 2.2) (angle -100.5) (layer F.SilkS) (width 0.12))
  (fp_arc (start 20.32 0.55) (end 18.32 2.2) (angle -100.5) (layer F.SilkS) (width 0.12))
  (fp_arc (start 25.4 0.55) (end 23.4 2.2) (angle -100.5) (layer F.SilkS) (width 0.12))
  (fp_line (start -3.65 -4.91) (end -3.65 3.91) (layer F.SilkS) (width 0.12))
  (fp_line (start -3.65 3.91) (end 29.05 3.91) (layer F.SilkS) (width 0.12))
  (fp_line (start 29.05 3.91) (end 29.05 -4.91) (layer F.SilkS) (width 0.12))
  (fp_line (start 29.05 -4.91) (end -3.65 -4.91) (layer F.SilkS) (width 0.12))
  (fp_line (start -3.54 -4.8) (end -3.54 3.8) (layer F.Fab) (width 0.1))
  (fp_line (start -3.54 3.8) (end 28.94 3.8) (layer F.Fab) (width 0.1))
  (fp_line (start 28.94 3.8) (end 28.94 -4.8) (layer F.Fab) (width 0.1))
  (fp_line (start 28.94 -4.8) (end -3.54 -4.8) (layer F.Fab) (width 0.1))
  (fp_line (start -3.65 -4.1) (end -1.11 -4.1) (layer F.SilkS) (width 0.12))
  (fp_line (start 29.05 -4.1) (end 26.51 -4.1) (layer F.SilkS) (width 0.12))
  (fp_line (start 1 -4.1) (end 4.08 -4.1) (layer F.SilkS) (width 0.12))
  (fp_line (start 6.08 -4.1) (end 9.16 -4.1) (layer F.SilkS) (width 0.12))
  (fp_line (start 11.16 -4.1) (end 14.24 -4.1) (layer F.SilkS) (width 0.12))
  (fp_line (start 16.24 -4.1) (end 19.32 -4.1) (layer F.SilkS) (width 0.12))
  (fp_line (start 21.32 -4.1) (end 24.4 -4.1) (layer F.SilkS) (width 0.12))
  (fp_line (start -1 -3.1) (end -1 -4.91) (layer F.SilkS) (width 0.12))
  (fp_line (start -1 -4.91) (end 1 -4.91) (layer F.SilkS) (width 0.12))
  (fp_line (start 1 -4.91) (end 1 -3.1) (layer F.SilkS) (width 0.12))
  (fp_line (start 1 -3.1) (end -1 -3.1) (layer F.SilkS) (width 0.12))
  (fp_line (start 4.08 -3.1) (end 4.08 -4.91) (layer F.SilkS) (width 0.12))
  (fp_line (start 4.08 -4.91) (end 6.08 -4.91) (layer F.SilkS) (width 0.12))
  (fp_line (start 6.08 -4.91) (end 6.08 -3.1) (layer F.SilkS) (width 0.12))
  (fp_line (start 6.08 -3.1) (end 4.08 -3.1) (layer F.SilkS) (width 0.12))
  (fp_line (start 9.16 -3.1) (end 9.16 -4.91) (layer F.SilkS) (width 0.12))
  (fp_line (start 9.16 -4.91) (end 11.16 -4.91) (layer F.SilkS) (width 0.12))
  (fp_line (start 11.16 -4.91) (end 11.16 -3.1) (layer F.SilkS) (width 0.12))
  (fp_line (start 11.16 -3.1) (end 9.16 -3.1) (layer F.SilkS) (width 0.12))
  (fp_line (start 14.24 -3.1) (end 14.24 -4.91) (layer F.SilkS) (width 0.12))
  (fp_line (start 14.24 -4.91) (end 16.24 -4.91) (layer F.SilkS) (width 0.12))
  (fp_line (start 16.24 -4.91) (end 16.24 -3.1) (layer F.SilkS) (width 0.12))
  (fp_line (start 16.24 -3.1) (end 14.24 -3.1) (layer F.SilkS) (width 0.12))
  (fp_line (start 19.32 -3.1) (end 19.32 -4.91) (layer F.SilkS) (width 0.12))
  (fp_line (start 19.32 -4.91) (end 21.32 -4.91) (layer F.SilkS) (width 0.12))
  (fp_line (start 21.32 -4.91) (end 21.32 -3.1) (layer F.SilkS) (width 0.12))
  (fp_line (start 21.32 -3.1) (end 19.32 -3.1) (layer F.SilkS) (width 0.12))
  (fp_line (start 24.4 -3.1) (end 24.4 -4.91) (layer F.SilkS) (width 0.12))
  (fp_line (start 24.4 -4.91) (end 26.4 -4.91) (layer F.SilkS) (width 0.12))
  (fp_line (start 26.4 -4.91) (end 26.4 -3.1) (layer F.SilkS) (width 0.12))
  (fp_line (start 26.4 -3.1) (end 24.4 -3.1) (layer F.SilkS) (width 0.12))
  (fp_line (start 2 2.2) (end 3.08 2.2) (layer F.SilkS) (width 0.12))
  (fp_line (start 7.08 2.2) (end 8.16 2.2) (layer F.SilkS) (width 0.12))
  (fp_line (start 12.16 2.2) (end 13.24 2.2) (layer F.SilkS) (width 0.12))
  (fp_line (start 17.24 2.2) (end 18.32 2.2) (layer F.SilkS) (width 0.12))
  (fp_line (start 22.32 2.2) (end 23.4 2.2) (layer F.SilkS) (width 0.12))
  (fp_line (start -2 2.2) (end -2.74 2.2) (layer F.SilkS) (width 0.12))
  (fp_line (start -2.74 2.2) (end -2.74 -3.1) (layer F.SilkS) (width 0.12))
  (fp_line (start -2.74 -3.1) (end 28.14 -3.1) (layer F.SilkS) (width 0.12))
  (fp_line (start 28.14 -3.1) (end 28.14 2.2) (layer F.SilkS) (width 0.12))
  (fp_line (start 28.14 2.2) (end 27.4 2.2) (layer F.SilkS) (width 0.12))
  (fp_line (start -4.04 -5.3) (end -4.04 4.3) (layer F.CrtYd) (width 0.05))
  (fp_line (start -4.04 4.3) (end 29.44 4.3) (layer F.CrtYd) (width 0.05))
  (fp_line (start 29.44 4.3) (end 29.44 -5.3) (layer F.CrtYd) (width 0.05))
  (fp_line (start 29.44 -5.3) (end -4.04 -5.3) (layer F.CrtYd) (width 0.05))
  (fp_line (start 0.3 -5.71) (end 0 -5.11) (layer F.SilkS) (width 0.12))
  (fp_line (start 0 -5.11) (end -0.3 -5.71) (layer F.SilkS) (width 0.12))
  (fp_line (start -0.3 -5.71) (end 0.3 -5.71) (layer F.SilkS) (width 0.12))
  (fp_line (start 0.5 -3.55) (end 0 -2.55) (layer F.Fab) (width 0.1))
  (fp_line (start 0 -2.55) (end -0.5 -3.55) (layer F.Fab) (width 0.1))
  (fp_line (start -0.5 -3.55) (end 0.5 -3.55) (layer F.Fab) (width 0.1))
  (pad 1 thru_hole roundrect (at 0 0) (size 2.08 3.6) (drill 1.4) (layers *.Cu *.Mask) (roundrect_rratio 0.120192))
  (pad 2 thru_hole oval (at 5.08 0) (size 2.08 3.6) (drill 1.4) (layers *.Cu *.Mask))
  (pad 3 thru_hole oval (at 10.16 0) (size 2.08 3.6) (drill 1.4) (layers *.Cu *.Mask))
  (pad 4 thru_hole oval (at 15.24 0) (size 2.08 3.6) (drill 1.4) (layers *.Cu *.Mask))
  (pad 5 thru_hole oval (at 20.32 0) (size 2.08 3.6) (drill 1.4) (layers *.Cu *.Mask))
  (pad 6 thru_hole oval (at 25.4 0) (size 2.08 3.6) (drill 1.4) (layers *.Cu *.Mask))
  (fp_text user %R (at 12.7 -4.1) (layer F.Fab)
    (effects (font (size 1 1) (thickness 0.15)))
  )
  (model ${KICAD6_3DMODEL_DIR}/Connector_Phoenix_MSTB.3dshapes/PhoenixContact_MSTBVA_2,5_6-G-5,08_1x06_P5.08mm_Vertical.wrl
    (at (xyz 0 0 0))
    (scale (xyz 1 1 1))
    (rotate (xyz 0 0 0))
  )
)