(module PhoenixContact_MSTBV_2,5_14-GF-5,08_1x14_P5.08mm_Vertical_ThreadedFlange_MountHole (layer F.Cu) (tedit 5B785048)
  (descr "Generic Phoenix Contact connector footprint for: MSTBV_2,5/14-GF-5,08; number of pins: 14; pin pitch: 5.08mm; Vertical; threaded flange; footprint includes mount hole for mounting screw: ISO 1481-ST 2.2x6.5 C or ISO 7049-ST 2.2x6.5 C (http://www.fasteners.eu/standards/ISO/7049/) || order number: 1777196 12A")
  (tags "phoenix_contact connector MSTBV_01x14_GF_5.08mm_MH")
  (fp_text reference REF** (at 33.02 -6) (layer F.SilkS)
    (effects (font (size 1 1) (thickness 0.15)))
  )
  (fp_text value PhoenixContact_MSTBV_2,5_14-GF-5,08_1x14_P5.08mm_Vertical_ThreadedFlange_MountHole (at 33.02 5) (layer F.Fab)
    (effects (font (size 1 1) (thickness 0.15)))
  )
  (fp_arc (start 0 0.55) (end -2 2.2) (angle -100.5) (layer F.SilkS) (width 0.12))
  (fp_arc (start 5.08 0.55) (end 3.08 2.2) (angle -100.5) (layer F.SilkS) (width 0.12))
  (fp_arc (start 10.16 0.55) (end 8.16 2.2) (angle -100.5) (layer F.SilkS) (width 0.12))
  (fp_arc (start 15.24 0.55) (end 13.24 2.2) (angle -100.5) (layer F.SilkS) (width 0.12))
  (fp_arc (start 20.32 0.55) (end 18.32 2.2) (angle -100.5) (layer F.SilkS) (width 0.12))
  (fp_arc (start 25.4 0.55) (end 23.4 2.2) (angle -100.5) (layer F.SilkS) (width 0.12))
  (fp_arc (start 30.48 0.55) (end 28.48 2.2) (angle -100.5) (layer F.SilkS) (width 0.12))
  (fp_arc (start 35.56 0.55) (end 33.56 2.2) (angle -100.5) (layer F.SilkS) (width 0.12))
  (fp_arc (start 40.64 0.55) (end 38.64 2.2) (angle -100.5) (layer F.SilkS) (width 0.12))
  (fp_arc (start 45.72 0.55) (end 43.72 2.2) (angle -100.5) (layer F.SilkS) (width 0.12))
  (fp_arc (start 50.8 0.55) (end 48.8 2.2) (angle -100.5) (layer F.SilkS) (width 0.12))
  (fp_arc (start 55.88 0.55) (end 53.88 2.2) (angle -100.5) (layer F.SilkS) (width 0.12))
  (fp_arc (start 60.96 0.55) (end 58.96 2.2) (angle -100.5) (layer F.SilkS) (width 0.12))
  (fp_arc (start 66.04 0.55) (end 64.04 2.2) (angle -100.5) (layer F.SilkS) (width 0.12))
  (fp_circle (center -5.08 0) (end -3.18 0) (layer F.SilkS) (width 0.12))
  (fp_circle (center 71.12 0) (end 73.02 0) (layer F.SilkS) (width 0.12))
  (fp_circle (center -5.08 0) (end -2.87 0) (layer B.SilkS) (width 0.12))
  (fp_circle (center 71.12 0) (end 73.33 0) (layer B.SilkS) (width 0.12))
  (fp_circle (center 71.12 0) (end 73.22 0) (layer B.Fab) (width 0.1))
  (fp_circle (center -5.08 0) (end -2.98 0) (layer B.Fab) (width 0.1))
  (fp_circle (center 71.12 0) (end 73.72 0) (layer B.CrtYd) (width 0.05))
  (fp_circle (center -5.08 0) (end -2.48 0) (layer B.CrtYd) (width 0.05))
  (fp_line (start -7.73 -4.91) (end -7.73 3.91) (layer F.SilkS) (width 0.12))
  (fp_line (start -7.73 3.91) (end 73.77 3.91) (layer F.SilkS) (width 0.12))
  (fp_line (start 73.77 3.91) (end 73.77 -4.91) (layer F.SilkS) (width 0.12))
  (fp_line (start 73.77 -4.91) (end -7.73 -4.91) (layer F.SilkS) (width 0.12))
  (fp_line (start -7.62 -4.8) (end -7.62 3.8) (layer F.Fab) (width 0.1))
  (fp_line (start -7.62 3.8) (end 73.66 3.8) (layer F.Fab) (width 0.1))
  (fp_line (start 73.66 3.8) (end 73.66 -4.8) (layer F.Fab) (width 0.1))
  (fp_line (start 73.66 -4.8) (end -7.62 -4.8) (layer F.Fab) (width 0.1))
  (fp_line (start -7.73 -4.1) (end -6.19 -4.1) (layer F.SilkS) (width 0.12))
  (fp_line (start 73.77 -4.1) (end 72.23 -4.1) (layer F.SilkS) (width 0.12))
  (fp_line (start 1 -4.1) (end 4.08 -4.1) (layer F.SilkS) (width 0.12))
  (fp_line (start 6.08 -4.1) (end 9.16 -4.1) (layer F.SilkS) (width 0.12))
  (fp_line (start 11.16 -4.1) (end 14.24 -4.1) (layer F.SilkS) (width 0.12))
  (fp_line (start 16.24 -4.1) (end 19.32 -4.1) (layer F.SilkS) (width 0.12))
  (fp_line (start 21.32 -4.1) (end 24.4 -4.1) (layer F.SilkS) (width 0.12))
  (fp_line (start 26.4 -4.1) (end 29.48 -4.1) (layer F.SilkS) (width 0.12))
  (fp_line (start 31.48 -4.1) (end 34.56 -4.1) (layer F.SilkS) (width 0.12))
  (fp_line (start 36.56 -4.1) (end 39.64 -4.1) (layer F.SilkS) (width 0.12))
  (fp_line (start 41.64 -4.1) (end 44.72 -4.1) (layer F.SilkS) (width 0.12))
  (fp_line (start 46.72 -4.1) (end 49.8 -4.1) (layer F.SilkS) (width 0.12))
  (fp_line (start 51.8 -4.1) (end 54.88 -4.1) (layer F.SilkS) (width 0.12))
  (fp_line (start 56.88 -4.1) (end 59.96 -4.1) (layer F.SilkS) (width 0.12))
  (fp_line (start 61.96 -4.1) (end 65.04 -4.1) (layer F.SilkS) (width 0.12))
  (fp_line (start -6.08 -3.1) (end -6.08 -4.91) (layer F.SilkS) (width 0.12))
  (fp_line (start -6.08 -4.91) (end -4.08 -4.91) (layer F.SilkS) (width 0.12))
  (fp_line (start -4.08 -4.91) (end -4.08 -3.1) (layer F.SilkS) (width 0.12))
  (fp_line (start -4.08 -3.1) (end -6.08 -3.1) (layer F.SilkS) (width 0.12))
  (fp_line (start 70.12 -3.1) (end 70.12 -4.91) (layer F.SilkS) (width 0.12))
  (fp_line (start 70.12 -4.91) (end 72.12 -4.91) (layer F.SilkS) (width 0.12))
  (fp_line (start 72.12 -4.91) (end 72.12 -3.1) (layer F.SilkS) (width 0.12))
  (fp_line (start 72.12 -3.1) (end 70.12 -3.1) (layer F.SilkS) (width 0.12))
  (fp_line (start -4.08 -4.1) (end -1 -4.1) (layer F.SilkS) (width 0.12))
  (fp_line (start 67.04 -4.1) (end 70.12 -4.1) (layer F.SilkS) (width 0.12))
  (fp_line (start -1 -3.1) (end -1 -4.91) (layer F.SilkS) (width 0.12))
  (fp_line (start -1 -4.91) (end 1 -4.91) (layer F.SilkS) (width 0.12))
  (fp_line (start 1 -4.91) (end 1 -3.1) (layer F.SilkS) (width 0.12))
  (fp_line (start 1 -3.1) (end -1 -3.1) (layer F.SilkS) (width 0.12))
  (fp_line (start 4.08 -3.1) (end 4.08 -4.91) (layer F.SilkS) (width 0.12))
  (fp_line (start 4.08 -4.91) (end 6.08 -4.91) (layer F.SilkS) (width 0.12))
  (fp_line (start 6.08 -4.91) (end 6.08 -3.1) (layer F.SilkS) (width 0.12))
  (fp_line (start 6.08 -3.1) (end 4.08 -3.1) (layer F.SilkS) (width 0.12))
  (fp_line (start 9.16 -3.1) (end 9.16 -4.91) (layer F.SilkS) (width 0.12))
  (fp_line (start 9.16 -4.91) (end 11.16 -4.91) (layer F.SilkS) (width 0.12))
  (fp_line (start 11.16 -4.91) (end 11.16 -3.1) (layer F.SilkS) (width 0.12))
  (fp_line (start 11.16 -3.1) (end 9.16 -3.1) (layer F.SilkS) (width 0.12))
  (fp_line (start 14.24 -3.1) (end 14.24 -4.91) (layer F.SilkS) (width 0.12))
  (fp_line (start 14.24 -4.91) (end 16.24 -4.91) (layer F.SilkS) (width 0.12))
  (fp_line (start 16.24 -4.91) (end 16.24 -3.1) (layer F.SilkS) (width 0.12))
  (fp_line (start 16.24 -3.1) (end 14.24 -3.1) (layer F.SilkS) (width 0.12))
  (fp_line (start 19.32 -3.1) (end 19.32 -4.91) (layer F.SilkS) (width 0.12))
  (fp_line (start 19.32 -4.91) (end 21.32 -4.91) (layer F.SilkS) (width 0.12))
  (fp_line (start 21.32 -4.91) (end 21.32 -3.1) (layer F.SilkS) (width 0.12))
  (fp_line (start 21.32 -3.1) (end 19.32 -3.1) (layer F.SilkS) (width 0.12))
  (fp_line (start 24.4 -3.1) (end 24.4 -4.91) (layer F.SilkS) (width 0.12))
  (fp_line (start 24.4 -4.91) (end 26.4 -4.91) (layer F.SilkS) (width 0.12))
  (fp_line (start 26.4 -4.91) (end 26.4 -3.1) (layer F.SilkS) (width 0.12))
  (fp_line (start 26.4 -3.1) (end 24.4 -3.1) (layer F.SilkS) (width 0.12))
  (fp_line (start 29.48 -3.1) (end 29.48 -4.91) (layer F.SilkS) (width 0.12))
  (fp_line (start 29.48 -4.91) (end 31.48 -4.91) (layer F.SilkS) (width 0.12))
  (fp_line (start 31.48 -4.91) (end 31.48 -3.1) (layer F.SilkS) (width 0.12))
  (fp_line (start 31.48 -3.1) (end 29.48 -3.1) (layer F.SilkS) (width 0.12))
  (fp_line (start 34.56 -3.1) (end 34.56 -4.91) (layer F.SilkS) (width 0.12))
  (fp_line (start 34.56 -4.91) (end 36.56 -4.91) (layer F.SilkS) (width 0.12))
  (fp_line (start 36.56 -4.91) (end 36.56 -3.1) (layer F.SilkS) (width 0.12))
  (fp_line (start 36.56 -3.1) (end 34.56 -3.1) (layer F.SilkS) (width 0.12))
  (fp_line (start 39.64 -3.1) (end 39.64 -4.91) (layer F.SilkS) (width 0.12))
  (fp_line (start 39.64 -4.91) (end 41.64 -4.91) (layer F.SilkS) (width 0.12))
  (fp_line (start 41.64 -4.91) (end 41.64 -3.1) (layer F.SilkS) (width 0.12))
  (fp_line (start 41.64 -3.1) (end 39.64 -3.1) (layer F.SilkS) (width 0.12))
  (fp_line (start 44.72 -3.1) (end 44.72 -4.91) (layer F.SilkS) (width 0.12))
  (fp_line (start 44.72 -4.91) (end 46.72 -4.91) (layer F.SilkS) (width 0.12))
  (fp_line (start 46.72 -4.91) (end 46.72 -3.1) (layer F.SilkS) (width 0.12))
  (fp_line (start 46.72 -3.1) (end 44.72 -3.1) (layer F.SilkS) (width 0.12))
  (fp_line (start 49.8 -3.1) (end 49.8 -4.91) (layer F.SilkS) (width 0.12))
  (fp_line (start 49.8 -4.91) (end 51.8 -4.91) (layer F.SilkS) (width 0.12))
  (fp_line (start 51.8 -4.91) (end 51.8 -3.1) (layer F.SilkS) (width 0.12))
  (fp_line (start 51.8 -3.1) (end 49.8 -3.1) (layer F.SilkS) (width 0.12))
  (fp_line (start 54.88 -3.1) (end 54.88 -4.91) (layer F.SilkS) (width 0.12))
  (fp_line (start 54.88 -4.91) (end 56.88 -4.91) (layer F.SilkS) (width 0.12))
  (fp_line (start 56.88 -4.91) (end 56.88 -3.1) (layer F.SilkS) (width 0.12))
  (fp_line (start 56.88 -3.1) (end 54.88 -3.1) (layer F.SilkS) (width 0.12))
  (fp_line (start 59.96 -3.1) (end 59.96 -4.91) (layer F.SilkS) (width 0.12))
  (fp_line (start 59.96 -4.91) (end 61.96 -4.91) (layer F.SilkS) (width 0.12))
  (fp_line (start 61.96 -4.91) (end 61.96 -3.1) (layer F.SilkS) (width 0.12))
  (fp_line (start 61.96 -3.1) (end 59.96 -3.1) (layer F.SilkS) (width 0.12))
  (fp_line (start 65.04 -3.1) (end 65.04 -4.91) (layer F.SilkS) (width 0.12))
  (fp_line (start 65.04 -4.91) (end 67.04 -4.91) (layer F.SilkS) (width 0.12))
  (fp_line (start 67.04 -4.91) (end 67.04 -3.1) (layer F.SilkS) (width 0.12))
  (fp_line (start 67.04 -3.1) (end 65.04 -3.1) (layer F.SilkS) (width 0.12))
  (fp_line (start 2 2.2) (end 3.08 2.2) (layer F.SilkS) (width 0.12))
  (fp_line (start 7.08 2.2) (end 8.16 2.2) (layer F.SilkS) (width 0.12))
  (fp_line (start 12.16 2.2) (end 13.24 2.2) (layer F.SilkS) (width 0.12))
  (fp_line (start 17.24 2.2) (end 18.32 2.2) (layer F.SilkS) (width 0.12))
  (fp_line (start 22.32 2.2) (end 23.4 2.2) (layer F.SilkS) (width 0.12))
  (fp_line (start 27.4 2.2) (end 28.48 2.2) (layer F.SilkS) (width 0.12))
  (fp_line (start 32.48 2.2) (end 33.56 2.2) (layer F.SilkS) (width 0.12))
  (fp_line (start 37.56 2.2) (end 38.64 2.2) (layer F.SilkS) (width 0.12))
  (fp_line (start 42.64 2.2) (end 43.72 2.2) (layer F.SilkS) (width 0.12))
  (fp_line (start 47.72 2.2) (end 48.8 2.2) (layer F.SilkS) (width 0.12))
  (fp_line (start 52.8 2.2) (end 53.88 2.2) (layer F.SilkS) (width 0.12))
  (fp_line (start 57.88 2.2) (end 58.96 2.2) (layer F.SilkS) (width 0.12))
  (fp_line (start 62.96 2.2) (end 64.04 2.2) (layer F.SilkS) (width 0.12))
  (fp_line (start -2 2.2) (end -2.74 2.2) (layer F.SilkS) (width 0.12))
  (fp_line (start -2.74 2.2) (end -2.74 -3.1) (layer F.SilkS) (width 0.12))
  (fp_line (start -2.74 -3.1) (end 68.78 -3.1) (layer F.SilkS) (width 0.12))
  (fp_line (start 68.78 -3.1) (end 68.78 2.2) (layer F.SilkS) (width 0.12))
  (fp_line (start 68.78 2.2) (end 68.04 2.2) (layer F.SilkS) (width 0.12))
  (fp_line (start -8.12 -5.3) (end -8.12 4.3) (layer F.CrtYd) (width 0.05))
  (fp_line (start -8.12 4.3) (end 74.16 4.3) (layer F.CrtYd) (width 0.05))
  (fp_line (start 74.16 4.3) (end 74.16 -5.3) (layer F.CrtYd) (width 0.05))
  (fp_line (start 74.16 -5.3) (end -8.12 -5.3) (layer F.CrtYd) (width 0.05))
  (fp_line (start 0.3 -5.71) (end 0 -5.11) (layer F.SilkS) (width 0.12))
  (fp_line (start 0 -5.11) (end -0.3 -5.71) (layer F.SilkS) (width 0.12))
  (fp_line (start -0.3 -5.71) (end 0.3 -5.71) (layer F.SilkS) (width 0.12))
  (fp_line (start 0.5 -3.55) (end 0 -2.55) (layer F.Fab) (width 0.1))
  (fp_line (start 0 -2.55) (end -0.5 -3.55) (layer F.Fab) (width 0.1))
  (fp_line (start -0.5 -3.55) (end 0.5 -3.55) (layer F.Fab) (width 0.1))
  (pad 1 thru_hole roundrect (at 0 0) (size 2.08 3.6) (drill 1.4) (layers *.Cu *.Mask) (roundrect_rratio 0.120192))
  (pad 2 thru_hole oval (at 5.08 0) (size 2.08 3.6) (drill 1.4) (layers *.Cu *.Mask))
  (pad 3 thru_hole oval (at 10.16 0) (size 2.08 3.6) (drill 1.4) (layers *.Cu *.Mask))
  (pad 4 thru_hole oval (at 15.24 0) (size 2.08 3.6) (drill 1.4) (layers *.Cu *.Mask))
  (pad 5 thru_hole oval (at 20.32 0) (size 2.08 3.6) (drill 1.4) (layers *.Cu *.Mask))
  (pad 6 thru_hole oval (at 25.4 0) (size 2.08 3.6) (drill 1.4) (layers *.Cu *.Mask))
  (pad 7 thru_hole oval (at 30.48 0) (size 2.08 3.6) (drill 1.4) (layers *.Cu *.Mask))
  (pad 8 thru_hole oval (at 35.56 0) (size 2.08 3.6) (drill 1.4) (layers *.Cu *.Mask))
  (pad 9 thru_hole oval (at 40.64 0) (size 2.08 3.6) (drill 1.4) (layers *.Cu *.Mask))
  (pad 10 thru_hole oval (at 45.72 0) (size 2.08 3.6) (drill 1.4) (layers *.Cu *.Mask))
  (pad 11 thru_hole oval (at 50.8 0) (size 2.08 3.6) (drill 1.4) (layers *.Cu *.Mask))
  (pad 12 thru_hole oval (at 55.88 0) (size 2.08 3.6) (drill 1.4) (layers *.Cu *.Mask))
  (pad 13 thru_hole oval (at 60.96 0) (size 2.08 3.6) (drill 1.4) (layers *.Cu *.Mask))
  (pad 14 thru_hole oval (at 66.04 0) (size 2.08 3.6) (drill 1.4) (layers *.Cu *.Mask))
  (pad "" np_thru_hole circle (at -5.08 0) (size 2.4 2.4) (drill 2.4) (layers *.Cu *.Mask))
  (pad "" np_thru_hole circle (at 71.12 0) (size 2.4 2.4) (drill 2.4) (layers *.Cu *.Mask))
  (fp_text user %R (at 33.02 -4.1) (layer F.Fab)
    (effects (font (size 1 1) (thickness 0.15)))
  )
  (model ${KICAD6_3DMODEL_DIR}/Connector_Phoenix_MSTB.3dshapes/PhoenixContact_MSTBV_2,5_14-GF-5,08_1x14_P5.08mm_Vertical_ThreadedFlange_MountHole.wrl
    (at (xyz 0 0 0))
    (scale (xyz 1 1 1))
    (rotate (xyz 0 0 0))
  )
)