(module PhoenixContact_MSTB_2,5_15-GF_1x15_P5.00mm_Horizontal_ThreadedFlange_MountHole (layer F.Cu) (tedit 5B785046)
  (descr "Generic Phoenix Contact connector footprint for: MSTB_2,5/15-GF; number of pins: 15; pin pitch: 5.00mm; Angled; threaded flange; footprint includes mount hole for mounting screw: ISO 1481-ST 2.2x6.5 C or ISO 7049-ST 2.2x6.5 C (http://www.fasteners.eu/standards/ISO/7049/) || order number: 1776825 12A")
  (tags "phoenix_contact connector MSTB_01x15_GF_5.00mm_MH")
  (fp_text reference REF** (at 35 -3.2) (layer F.SilkS)
    (effects (font (size 1 1) (thickness 0.15)))
  )
  (fp_text value PhoenixContact_MSTB_2,5_15-GF_1x15_P5.00mm_Horizontal_ThreadedFlange_MountHole (at 35 11.2) (layer F.Fab)
    (effects (font (size 1 1) (thickness 0.15)))
  )
  (fp_circle (center -5 2.5) (end -2.79 2.5) (layer B.SilkS) (width 0.12))
  (fp_circle (center 75 2.5) (end 77.21 2.5) (layer B.SilkS) (width 0.12))
  (fp_circle (center 75 2.5) (end 77.1 2.5) (layer B.Fab) (width 0.1))
  (fp_circle (center -5 2.5) (end -2.9 2.5) (layer B.Fab) (width 0.1))
  (fp_circle (center 75 2.5) (end 77.6 2.5) (layer B.CrtYd) (width 0.05))
  (fp_circle (center -5 2.5) (end -2.4 2.5) (layer B.CrtYd) (width 0.05))
  (fp_line (start -7.61 -2.11) (end -7.61 10.11) (layer F.SilkS) (width 0.12))
  (fp_line (start -7.61 10.11) (end 77.61 10.11) (layer F.SilkS) (width 0.12))
  (fp_line (start 77.61 10.11) (end 77.61 -2.11) (layer F.SilkS) (width 0.12))
  (fp_line (start 77.61 -2.11) (end -7.61 -2.11) (layer F.SilkS) (width 0.12))
  (fp_line (start -7.5 -2) (end -7.5 10) (layer F.Fab) (width 0.1))
  (fp_line (start -7.5 10) (end 77.5 10) (layer F.Fab) (width 0.1))
  (fp_line (start 77.5 10) (end 77.5 -2) (layer F.Fab) (width 0.1))
  (fp_line (start 77.5 -2) (end -7.5 -2) (layer F.Fab) (width 0.1))
  (fp_line (start -7.61 8.61) (end -7.61 6.81) (layer F.SilkS) (width 0.12))
  (fp_line (start -7.61 6.81) (end 77.61 6.81) (layer F.SilkS) (width 0.12))
  (fp_line (start 77.61 6.81) (end 77.61 8.61) (layer F.SilkS) (width 0.12))
  (fp_line (start 77.61 8.61) (end -7.61 8.61) (layer F.SilkS) (width 0.12))
  (fp_line (start -6 10.11) (end -4 10.11) (layer F.SilkS) (width 0.12))
  (fp_line (start -4 10.11) (end -4.25 8.61) (layer F.SilkS) (width 0.12))
  (fp_line (start -4.25 8.61) (end -5.75 8.61) (layer F.SilkS) (width 0.12))
  (fp_line (start -5.75 8.61) (end -6 10.11) (layer F.SilkS) (width 0.12))
  (fp_line (start 74 10.11) (end 76 10.11) (layer F.SilkS) (width 0.12))
  (fp_line (start 76 10.11) (end 75.75 8.61) (layer F.SilkS) (width 0.12))
  (fp_line (start 75.75 8.61) (end 74.25 8.61) (layer F.SilkS) (width 0.12))
  (fp_line (start 74.25 8.61) (end 74 10.11) (layer F.SilkS) (width 0.12))
  (fp_line (start -1 10.11) (end 1 10.11) (layer F.SilkS) (width 0.12))
  (fp_line (start 1 10.11) (end 0.75 8.61) (layer F.SilkS) (width 0.12))
  (fp_line (start 0.75 8.61) (end -0.75 8.61) (layer F.SilkS) (width 0.12))
  (fp_line (start -0.75 8.61) (end -1 10.11) (layer F.SilkS) (width 0.12))
  (fp_line (start 4 10.11) (end 6 10.11) (layer F.SilkS) (width 0.12))
  (fp_line (start 6 10.11) (end 5.75 8.61) (layer F.SilkS) (width 0.12))
  (fp_line (start 5.75 8.61) (end 4.25 8.61) (layer F.SilkS) (width 0.12))
  (fp_line (start 4.25 8.61) (end 4 10.11) (layer F.SilkS) (width 0.12))
  (fp_line (start 9 10.11) (end 11 10.11) (layer F.SilkS) (width 0.12))
  (fp_line (start 11 10.11) (end 10.75 8.61) (layer F.SilkS) (width 0.12))
  (fp_line (start 10.75 8.61) (end 9.25 8.61) (layer F.SilkS) (width 0.12))
  (fp_line (start 9.25 8.61) (end 9 10.11) (layer F.SilkS) (width 0.12))
  (fp_line (start 14 10.11) (end 16 10.11) (layer F.SilkS) (width 0.12))
  (fp_line (start 16 10.11) (end 15.75 8.61) (layer F.SilkS) (width 0.12))
  (fp_line (start 15.75 8.61) (end 14.25 8.61) (layer F.SilkS) (width 0.12))
  (fp_line (start 14.25 8.61) (end 14 10.11) (layer F.SilkS) (width 0.12))
  (fp_line (start 19 10.11) (end 21 10.11) (layer F.SilkS) (width 0.12))
  (fp_line (start 21 10.11) (end 20.75 8.61) (layer F.SilkS) (width 0.12))
  (fp_line (start 20.75 8.61) (end 19.25 8.61) (layer F.SilkS) (width 0.12))
  (fp_line (start 19.25 8.61) (end 19 10.11) (layer F.SilkS) (width 0.12))
  (fp_line (start 24 10.11) (end 26 10.11) (layer F.SilkS) (width 0.12))
  (fp_line (start 26 10.11) (end 25.75 8.61) (layer F.SilkS) (width 0.12))
  (fp_line (start 25.75 8.61) (end 24.25 8.61) (layer F.SilkS) (width 0.12))
  (fp_line (start 24.25 8.61) (end 24 10.11) (layer F.SilkS) (width 0.12))
  (fp_line (start 29 10.11) (end 31 10.11) (layer F.SilkS) (width 0.12))
  (fp_line (start 31 10.11) (end 30.75 8.61) (layer F.SilkS) (width 0.12))
  (fp_line (start 30.75 8.61) (end 29.25 8.61) (layer F.SilkS) (width 0.12))
  (fp_line (start 29.25 8.61) (end 29 10.11) (layer F.SilkS) (width 0.12))
  (fp_line (start 34 10.11) (end 36 10.11) (layer F.SilkS) (width 0.12))
  (fp_line (start 36 10.11) (end 35.75 8.61) (layer F.SilkS) (width 0.12))
  (fp_line (start 35.75 8.61) (end 34.25 8.61) (layer F.SilkS) (width 0.12))
  (fp_line (start 34.25 8.61) (end 34 10.11) (layer F.SilkS) (width 0.12))
  (fp_line (start 39 10.11) (end 41 10.11) (layer F.SilkS) (width 0.12))
  (fp_line (start 41 10.11) (end 40.75 8.61) (layer F.SilkS) (width 0.12))
  (fp_line (start 40.75 8.61) (end 39.25 8.61) (layer F.SilkS) (width 0.12))
  (fp_line (start 39.25 8.61) (end 39 10.11) (layer F.SilkS) (width 0.12))
  (fp_line (start 44 10.11) (end 46 10.11) (layer F.SilkS) (width 0.12))
  (fp_line (start 46 10.11) (end 45.75 8.61) (layer F.SilkS) (width 0.12))
  (fp_line (start 45.75 8.61) (end 44.25 8.61) (layer F.SilkS) (width 0.12))
  (fp_line (start 44.25 8.61) (end 44 10.11) (layer F.SilkS) (width 0.12))
  (fp_line (start 49 10.11) (end 51 10.11) (layer F.SilkS) (width 0.12))
  (fp_line (start 51 10.11) (end 50.75 8.61) (layer F.SilkS) (width 0.12))
  (fp_line (start 50.75 8.61) (end 49.25 8.61) (layer F.SilkS) (width 0.12))
  (fp_line (start 49.25 8.61) (end 49 10.11) (layer F.SilkS) (width 0.12))
  (fp_line (start 54 10.11) (end 56 10.11) (layer F.SilkS) (width 0.12))
  (fp_line (start 56 10.11) (end 55.75 8.61) (layer F.SilkS) (width 0.12))
  (fp_line (start 55.75 8.61) (end 54.25 8.61) (layer F.SilkS) (width 0.12))
  (fp_line (start 54.25 8.61) (end 54 10.11) (layer F.SilkS) (width 0.12))
  (fp_line (start 59 10.11) (end 61 10.11) (layer F.SilkS) (width 0.12))
  (fp_line (start 61 10.11) (end 60.75 8.61) (layer F.SilkS) (width 0.12))
  (fp_line (start 60.75 8.61) (end 59.25 8.61) (layer F.SilkS) (width 0.12))
  (fp_line (start 59.25 8.61) (end 59 10.11) (layer F.SilkS) (width 0.12))
  (fp_line (start 64 10.11) (end 66 10.11) (layer F.SilkS) (width 0.12))
  (fp_line (start 66 10.11) (end 65.75 8.61) (layer F.SilkS) (width 0.12))
  (fp_line (start 65.75 8.61) (end 64.25 8.61) (layer F.SilkS) (width 0.12))
  (fp_line (start 64.25 8.61) (end 64 10.11) (layer F.SilkS) (width 0.12))
  (fp_line (start 69 10.11) (end 71 10.11) (layer F.SilkS) (width 0.12))
  (fp_line (start 71 10.11) (end 70.75 8.61) (layer F.SilkS) (width 0.12))
  (fp_line (start 70.75 8.61) (end 69.25 8.61) (layer F.SilkS) (width 0.12))
  (fp_line (start 69.25 8.61) (end 69 10.11) (layer F.SilkS) (width 0.12))
  (fp_line (start -8 -2.5) (end -8 10.5) (layer F.CrtYd) (width 0.05))
  (fp_line (start -8 10.5) (end 78 10.5) (layer F.CrtYd) (width 0.05))
  (fp_line (start 78 10.5) (end 78 -2.5) (layer F.CrtYd) (width 0.05))
  (fp_line (start 78 -2.5) (end -8 -2.5) (layer F.CrtYd) (width 0.05))
  (fp_line (start 0.3 -2.91) (end 0 -2.31) (layer F.SilkS) (width 0.12))
  (fp_line (start 0 -2.31) (end -0.3 -2.91) (layer F.SilkS) (width 0.12))
  (fp_line (start -0.3 -2.91) (end 0.3 -2.91) (layer F.SilkS) (width 0.12))
  (fp_line (start 0.95 -2) (end 0 -0.5) (layer F.Fab) (width 0.1))
  (fp_line (start 0 -0.5) (end -0.95 -2) (layer F.Fab) (width 0.1))
  (pad 1 thru_hole roundrect (at 0 0) (size 2 3.6) (drill 1.4) (layers *.Cu *.Mask) (roundrect_rratio 0.125))
  (pad 2 thru_hole oval (at 5 0) (size 2 3.6) (drill 1.4) (layers *.Cu *.Mask))
  (pad 3 thru_hole oval (at 10 0) (size 2 3.6) (drill 1.4) (layers *.Cu *.Mask))
  (pad 4 thru_hole oval (at 15 0) (size 2 3.6) (drill 1.4) (layers *.Cu *.Mask))
  (pad 5 thru_hole oval (at 20 0) (size 2 3.6) (drill 1.4) (layers *.Cu *.Mask))
  (pad 6 thru_hole oval (at 25 0) (size 2 3.6) (drill 1.4) (layers *.Cu *.Mask))
  (pad 7 thru_hole oval (at 30 0) (size 2 3.6) (drill 1.4) (layers *.Cu *.Mask))
  (pad 8 thru_hole oval (at 35 0) (size 2 3.6) (drill 1.4) (layers *.Cu *.Mask))
  (pad 9 thru_hole oval (at 40 0) (size 2 3.6) (drill 1.4) (layers *.Cu *.Mask))
  (pad 10 thru_hole oval (at 45 0) (size 2 3.6) (drill 1.4) (layers *.Cu *.Mask))
  (pad 11 thru_hole oval (at 50 0) (size 2 3.6) (drill 1.4) (layers *.Cu *.Mask))
  (pad 12 thru_hole oval (at 55 0) (size 2 3.6) (drill 1.4) (layers *.Cu *.Mask))
  (pad 13 thru_hole oval (at 60 0) (size 2 3.6) (drill 1.4) (layers *.Cu *.Mask))
  (pad 14 thru_hole oval (at 65 0) (size 2 3.6) (drill 1.4) (layers *.Cu *.Mask))
  (pad 15 thru_hole oval (at 70 0) (size 2 3.6) (drill 1.4) (layers *.Cu *.Mask))
  (pad "" np_thru_hole circle (at -5 2.5) (size 2.4 2.4) (drill 2.4) (layers *.Cu *.Mask))
  (pad "" np_thru_hole circle (at 75 2.5) (size 2.4 2.4) (drill 2.4) (layers *.Cu *.Mask))
  (fp_text user %R (at 35 -1.3) (layer F.Fab)
    (effects (font (size 1 1) (thickness 0.15)))
  )
  (model ${KICAD6_3DMODEL_DIR}/Connector_Phoenix_MSTB.3dshapes/PhoenixContact_MSTB_2,5_15-GF_1x15_P5.00mm_Horizontal_ThreadedFlange_MountHole.wrl
    (at (xyz 0 0 0))
    (scale (xyz 1 1 1))
    (rotate (xyz 0 0 0))
  )
)