(module NetTie-3_SMD_Pad2.0mm (layer F.Cu) (tedit 5A1CFEB4)
  (descr "Net tie, 3 pin, 2.0mm square SMD pads")
  (tags "net tie")
  (attr virtual)
  (fp_text reference REF** (at 0 -2) (layer F.SilkS)
    (effects (font (size 1 1) (thickness 0.15)))
  )
  (fp_text value NetTie-3_SMD_Pad2.0mm (at 0 2) (layer F.Fab)
    (effects (font (size 1 1) (thickness 0.15)))
  )
  (fp_poly (pts (xy -4 -1) (xy 4 -1) (xy 4 1) (xy -4 1)) (layer F.Cu) (width 0))
  (fp_line (start -5.25 1.25) (end -5.25 -1.25) (layer F.CrtYd) (width 0.05))
  (fp_line (start 5.25 1.25) (end -5.25 1.25) (layer F.CrtYd) (width 0.05))
  (fp_line (start 5.25 -1.25) (end 5.25 1.25) (layer F.CrtYd) (width 0.05))
  (fp_line (start -5.25 -1.25) (end 5.25 -1.25) (layer F.CrtYd) (width 0.05))
  (pad 1 smd circle (at -4 0) (size 2 2) (layers F.Cu))
  (pad 2 smd circle (at 0 0) (size 2 2) (layers F.Cu))
  (pad 3 smd circle (at 4 0) (size 2 2) (layers F.Cu))
)
