(module NetTie-4_THT_Pad1.0mm (layer F.Cu) (tedit 5A1D8882)
  (descr "Net tie, 4 pin, 1.0mm round THT pads")
  (tags "net tie")
  (attr virtual)
  (fp_text reference REF** (at 1.3 -1.6) (layer F.SilkS)
    (effects (font (size 1 1) (thickness 0.15)))
  )
  (fp_text value NetTie-4_THT_Pad1.0mm (at 1.3 4.2) (layer F.Fab)
    (effects (font (size 1 1) (thickness 0.15)))
  )
  (fp_poly (pts (xy -0.65 -0.65) (xy 3.25 -0.65) (xy 3.25 3.25) (xy -0.65 3.25)) (layer F.Cu) (width 0))
  (fp_poly (pts (xy -0.65 -0.65) (xy 3.25 -0.65) (xy 3.25 3.25) (xy -0.65 3.25)) (layer B.Cu) (width 0))
  (fp_line (start -0.9 3.5) (end -0.9 -0.9) (layer F.CrtYd) (width 0.05))
  (fp_line (start 3.5 3.5) (end -0.9 3.5) (layer F.CrtYd) (width 0.05))
  (fp_line (start 3.5 -0.9) (end 3.5 3.5) (layer F.CrtYd) (width 0.05))
  (fp_line (start -0.9 -0.9) (end 3.5 -0.9) (layer F.CrtYd) (width 0.05))
  (pad 1 thru_hole circle (at 0 0) (size 1.3 1.3) (drill 1) (layers *.Cu))
  (pad 2 thru_hole circle (at 2.6 0) (size 1.3 1.3) (drill 1) (layers *.Cu))
  (pad 3 thru_hole circle (at 0 2.6) (size 1.3 1.3) (drill 1) (layers *.Cu))
  (pad 4 thru_hole circle (at 2.6 2.6) (size 1.3 1.3) (drill 1) (layers *.Cu))
)
