(module PinSocket_2x01_P2.00mm_Horizontal (layer F.Cu) (tedit 5A19A42F)
  (descr "Through hole angled socket strip, 2x01, 2.00mm pitch, 6.35mm socket length, double cols (from Kicad 4.0.7), script generated")
  (tags "Through hole angled socket strip THT 2x01 2.00mm double row")
  (fp_text reference REF** (at -4.31 -2.5) (layer F.SilkS)
    (effects (font (size 1 1) (thickness 0.15)))
  )
  (fp_text value PinSocket_2x01_P2.00mm_Horizontal (at -4.31 2.5) (layer F.Fab)
    (effects (font (size 1 1) (thickness 0.15)))
  )
  (fp_line (start -9.62 -1) (end -3.77 -1) (layer F.Fab) (width 0.1))
  (fp_line (start -3.77 -1) (end -3.27 -0.5) (layer F.Fab) (width 0.1))
  (fp_line (start -3.27 -0.5) (end -3.27 1) (layer F.Fab) (width 0.1))
  (fp_line (start -3.27 1) (end -9.62 1) (layer F.Fab) (width 0.1))
  (fp_line (start -9.62 1) (end -9.62 -1) (layer F.Fab) (width 0.1))
  (fp_line (start 0 -0.3) (end -3.27 -0.3) (layer F.Fab) (width 0.1))
  (fp_line (start -3.27 0.3) (end 0 0.3) (layer F.Fab) (width 0.1))
  (fp_line (start 0 0.3) (end 0 -0.3) (layer F.Fab) (width 0.1))
  (fp_line (start -9.68 -0.94) (end -3.21 -0.94) (layer F.SilkS) (width 0.12))
  (fp_line (start -9.68 -0.822353) (end -3.21 -0.822353) (layer F.SilkS) (width 0.12))
  (fp_line (start -9.68 -0.704706) (end -3.21 -0.704706) (layer F.SilkS) (width 0.12))
  (fp_line (start -9.68 -0.587059) (end -3.21 -0.587059) (layer F.SilkS) (width 0.12))
  (fp_line (start -9.68 -0.469412) (end -3.21 -0.469412) (layer F.SilkS) (width 0.12))
  (fp_line (start -9.68 -0.351765) (end -3.21 -0.351765) (layer F.SilkS) (width 0.12))
  (fp_line (start -9.68 -0.234118) (end -3.21 -0.234118) (layer F.SilkS) (width 0.12))
  (fp_line (start -9.68 -0.116471) (end -3.21 -0.116471) (layer F.SilkS) (width 0.12))
  (fp_line (start -9.68 0.001176) (end -3.21 0.001176) (layer F.SilkS) (width 0.12))
  (fp_line (start -9.68 0.118823) (end -3.21 0.118823) (layer F.SilkS) (width 0.12))
  (fp_line (start -9.68 0.23647) (end -3.21 0.23647) (layer F.SilkS) (width 0.12))
  (fp_line (start -9.68 0.354117) (end -3.21 0.354117) (layer F.SilkS) (width 0.12))
  (fp_line (start -9.68 0.471764) (end -3.21 0.471764) (layer F.SilkS) (width 0.12))
  (fp_line (start -9.68 0.589411) (end -3.21 0.589411) (layer F.SilkS) (width 0.12))
  (fp_line (start -9.68 0.707058) (end -3.21 0.707058) (layer F.SilkS) (width 0.12))
  (fp_line (start -9.68 0.824705) (end -3.21 0.824705) (layer F.SilkS) (width 0.12))
  (fp_line (start -9.68 0.942352) (end -3.21 0.942352) (layer F.SilkS) (width 0.12))
  (fp_line (start -3.21 -0.36) (end -2.862917 -0.36) (layer F.SilkS) (width 0.12))
  (fp_line (start -1.137083 -0.36) (end -0.935 -0.36) (layer F.SilkS) (width 0.12))
  (fp_line (start -3.21 0.36) (end -2.862917 0.36) (layer F.SilkS) (width 0.12))
  (fp_line (start -1.137083 0.36) (end -0.935 0.36) (layer F.SilkS) (width 0.12))
  (fp_line (start -9.68 -1.06) (end -3.21 -1.06) (layer F.SilkS) (width 0.12))
  (fp_line (start -3.21 -1.06) (end -3.21 1.06) (layer F.SilkS) (width 0.12))
  (fp_line (start -9.68 1.06) (end -3.21 1.06) (layer F.SilkS) (width 0.12))
  (fp_line (start -9.68 -1.06) (end -9.68 1.06) (layer F.SilkS) (width 0.12))
  (fp_line (start 0.935 -1.06) (end 0.935 0) (layer F.SilkS) (width 0.12))
  (fp_line (start 0 -1.06) (end 0.935 -1.06) (layer F.SilkS) (width 0.12))
  (fp_line (start 1.5 -1.5) (end -10.15 -1.5) (layer F.CrtYd) (width 0.05))
  (fp_line (start -10.15 -1.5) (end -10.15 1.5) (layer F.CrtYd) (width 0.05))
  (fp_line (start -10.15 1.5) (end 1.5 1.5) (layer F.CrtYd) (width 0.05))
  (fp_line (start 1.5 1.5) (end 1.5 -1.5) (layer F.CrtYd) (width 0.05))
  (pad 1 thru_hole rect (at 0 0) (size 1.35 1.35) (drill 0.8) (layers *.Cu *.Mask))
  (pad 2 thru_hole oval (at -2 0) (size 1.35 1.35) (drill 0.8) (layers *.Cu *.Mask))
  (fp_text user %R (at -6.445 0) (layer F.Fab)
    (effects (font (size 1 1) (thickness 0.15)))
  )
  (model ${KICAD6_3DMODEL_DIR}/Connector_PinSocket_2.00mm.3dshapes/PinSocket_2x01_P2.00mm_Horizontal.wrl
    (at (xyz 0 0 0))
    (scale (xyz 1 1 1))
    (rotate (xyz 0 0 0))
  )
)