(module PinSocket_2x37_P2.00mm_Vertical_SMD (layer F.Cu) (tedit 5A19A42C)
  (descr "surface-mounted straight socket strip, 2x37, 2.00mm pitch, double cols (from Kicad 4.0.7), script generated")
  (tags "Surface mounted socket strip SMD 2x37 2.00mm double row")
  (attr smd)
  (fp_text reference REF** (at 0 -38.5) (layer F.SilkS)
    (effects (font (size 1 1) (thickness 0.15)))
  )
  (fp_text value PinSocket_2x37_P2.00mm_Vertical_SMD (at 0 38.5) (layer F.Fab)
    (effects (font (size 1 1) (thickness 0.15)))
  )
  (fp_line (start -2.06 -37.06) (end 2.06 -37.06) (layer F.SilkS) (width 0.12))
  (fp_line (start 2.06 -37.06) (end 2.06 -36.76) (layer F.SilkS) (width 0.12))
  (fp_line (start 2.06 -35.24) (end 2.06 -34.76) (layer F.SilkS) (width 0.12))
  (fp_line (start 2.06 -33.24) (end 2.06 -32.76) (layer F.SilkS) (width 0.12))
  (fp_line (start 2.06 -31.24) (end 2.06 -30.76) (layer F.SilkS) (width 0.12))
  (fp_line (start 2.06 -29.24) (end 2.06 -28.76) (layer F.SilkS) (width 0.12))
  (fp_line (start 2.06 -27.24) (end 2.06 -26.76) (layer F.SilkS) (width 0.12))
  (fp_line (start 2.06 -25.24) (end 2.06 -24.76) (layer F.SilkS) (width 0.12))
  (fp_line (start 2.06 -23.24) (end 2.06 -22.76) (layer F.SilkS) (width 0.12))
  (fp_line (start 2.06 -21.24) (end 2.06 -20.76) (layer F.SilkS) (width 0.12))
  (fp_line (start 2.06 -19.24) (end 2.06 -18.76) (layer F.SilkS) (width 0.12))
  (fp_line (start 2.06 -17.24) (end 2.06 -16.76) (layer F.SilkS) (width 0.12))
  (fp_line (start 2.06 -15.24) (end 2.06 -14.76) (layer F.SilkS) (width 0.12))
  (fp_line (start 2.06 -13.24) (end 2.06 -12.76) (layer F.SilkS) (width 0.12))
  (fp_line (start 2.06 -11.24) (end 2.06 -10.76) (layer F.SilkS) (width 0.12))
  (fp_line (start 2.06 -9.24) (end 2.06 -8.76) (layer F.SilkS) (width 0.12))
  (fp_line (start 2.06 -7.24) (end 2.06 -6.76) (layer F.SilkS) (width 0.12))
  (fp_line (start 2.06 -5.24) (end 2.06 -4.76) (layer F.SilkS) (width 0.12))
  (fp_line (start 2.06 -3.24) (end 2.06 -2.76) (layer F.SilkS) (width 0.12))
  (fp_line (start 2.06 -1.24) (end 2.06 -0.76) (layer F.SilkS) (width 0.12))
  (fp_line (start 2.06 0.76) (end 2.06 1.24) (layer F.SilkS) (width 0.12))
  (fp_line (start 2.06 2.76) (end 2.06 3.24) (layer F.SilkS) (width 0.12))
  (fp_line (start 2.06 4.76) (end 2.06 5.24) (layer F.SilkS) (width 0.12))
  (fp_line (start 2.06 6.76) (end 2.06 7.24) (layer F.SilkS) (width 0.12))
  (fp_line (start 2.06 8.76) (end 2.06 9.24) (layer F.SilkS) (width 0.12))
  (fp_line (start 2.06 10.76) (end 2.06 11.24) (layer F.SilkS) (width 0.12))
  (fp_line (start 2.06 12.76) (end 2.06 13.24) (layer F.SilkS) (width 0.12))
  (fp_line (start 2.06 14.76) (end 2.06 15.24) (layer F.SilkS) (width 0.12))
  (fp_line (start 2.06 16.76) (end 2.06 17.24) (layer F.SilkS) (width 0.12))
  (fp_line (start 2.06 18.76) (end 2.06 19.24) (layer F.SilkS) (width 0.12))
  (fp_line (start 2.06 20.76) (end 2.06 21.24) (layer F.SilkS) (width 0.12))
  (fp_line (start 2.06 22.76) (end 2.06 23.24) (layer F.SilkS) (width 0.12))
  (fp_line (start 2.06 24.76) (end 2.06 25.24) (layer F.SilkS) (width 0.12))
  (fp_line (start 2.06 26.76) (end 2.06 27.24) (layer F.SilkS) (width 0.12))
  (fp_line (start 2.06 28.76) (end 2.06 29.24) (layer F.SilkS) (width 0.12))
  (fp_line (start 2.06 30.76) (end 2.06 31.24) (layer F.SilkS) (width 0.12))
  (fp_line (start 2.06 32.76) (end 2.06 33.24) (layer F.SilkS) (width 0.12))
  (fp_line (start 2.06 34.76) (end 2.06 35.24) (layer F.SilkS) (width 0.12))
  (fp_line (start 2.06 36.76) (end 2.06 37.06) (layer F.SilkS) (width 0.12))
  (fp_line (start -2.06 37.06) (end 2.06 37.06) (layer F.SilkS) (width 0.12))
  (fp_line (start -2.06 -37.06) (end -2.06 -36.76) (layer F.SilkS) (width 0.12))
  (fp_line (start -2.06 -35.24) (end -2.06 -34.76) (layer F.SilkS) (width 0.12))
  (fp_line (start -2.06 -33.24) (end -2.06 -32.76) (layer F.SilkS) (width 0.12))
  (fp_line (start -2.06 -31.24) (end -2.06 -30.76) (layer F.SilkS) (width 0.12))
  (fp_line (start -2.06 -29.24) (end -2.06 -28.76) (layer F.SilkS) (width 0.12))
  (fp_line (start -2.06 -27.24) (end -2.06 -26.76) (layer F.SilkS) (width 0.12))
  (fp_line (start -2.06 -25.24) (end -2.06 -24.76) (layer F.SilkS) (width 0.12))
  (fp_line (start -2.06 -23.24) (end -2.06 -22.76) (layer F.SilkS) (width 0.12))
  (fp_line (start -2.06 -21.24) (end -2.06 -20.76) (layer F.SilkS) (width 0.12))
  (fp_line (start -2.06 -19.24) (end -2.06 -18.76) (layer F.SilkS) (width 0.12))
  (fp_line (start -2.06 -17.24) (end -2.06 -16.76) (layer F.SilkS) (width 0.12))
  (fp_line (start -2.06 -15.24) (end -2.06 -14.76) (layer F.SilkS) (width 0.12))
  (fp_line (start -2.06 -13.24) (end -2.06 -12.76) (layer F.SilkS) (width 0.12))
  (fp_line (start -2.06 -11.24) (end -2.06 -10.76) (layer F.SilkS) (width 0.12))
  (fp_line (start -2.06 -9.24) (end -2.06 -8.76) (layer F.SilkS) (width 0.12))
  (fp_line (start -2.06 -7.24) (end -2.06 -6.76) (layer F.SilkS) (width 0.12))
  (fp_line (start -2.06 -5.24) (end -2.06 -4.76) (layer F.SilkS) (width 0.12))
  (fp_line (start -2.06 -3.24) (end -2.06 -2.76) (layer F.SilkS) (width 0.12))
  (fp_line (start -2.06 -1.24) (end -2.06 -0.76) (layer F.SilkS) (width 0.12))
  (fp_line (start -2.06 0.76) (end -2.06 1.24) (layer F.SilkS) (width 0.12))
  (fp_line (start -2.06 2.76) (end -2.06 3.24) (layer F.SilkS) (width 0.12))
  (fp_line (start -2.06 4.76) (end -2.06 5.24) (layer F.SilkS) (width 0.12))
  (fp_line (start -2.06 6.76) (end -2.06 7.24) (layer F.SilkS) (width 0.12))
  (fp_line (start -2.06 8.76) (end -2.06 9.24) (layer F.SilkS) (width 0.12))
  (fp_line (start -2.06 10.76) (end -2.06 11.24) (layer F.SilkS) (width 0.12))
  (fp_line (start -2.06 12.76) (end -2.06 13.24) (layer F.SilkS) (width 0.12))
  (fp_line (start -2.06 14.76) (end -2.06 15.24) (layer F.SilkS) (width 0.12))
  (fp_line (start -2.06 16.76) (end -2.06 17.24) (layer F.SilkS) (width 0.12))
  (fp_line (start -2.06 18.76) (end -2.06 19.24) (layer F.SilkS) (width 0.12))
  (fp_line (start -2.06 20.76) (end -2.06 21.24) (layer F.SilkS) (width 0.12))
  (fp_line (start -2.06 22.76) (end -2.06 23.24) (layer F.SilkS) (width 0.12))
  (fp_line (start -2.06 24.76) (end -2.06 25.24) (layer F.SilkS) (width 0.12))
  (fp_line (start -2.06 26.76) (end -2.06 27.24) (layer F.SilkS) (width 0.12))
  (fp_line (start -2.06 28.76) (end -2.06 29.24) (layer F.SilkS) (width 0.12))
  (fp_line (start -2.06 30.76) (end -2.06 31.24) (layer F.SilkS) (width 0.12))
  (fp_line (start -2.06 32.76) (end -2.06 33.24) (layer F.SilkS) (width 0.12))
  (fp_line (start -2.06 34.76) (end -2.06 35.24) (layer F.SilkS) (width 0.12))
  (fp_line (start -2.06 36.76) (end -2.06 37.06) (layer F.SilkS) (width 0.12))
  (fp_line (start 2.06 -36.76) (end 4.44 -36.76) (layer F.SilkS) (width 0.12))
  (fp_line (start -2 -37) (end 1 -37) (layer F.Fab) (width 0.1))
  (fp_line (start 1 -37) (end 2 -36) (layer F.Fab) (width 0.1))
  (fp_line (start 2 -36) (end 2 37) (layer F.Fab) (width 0.1))
  (fp_line (start 2 37) (end -2 37) (layer F.Fab) (width 0.1))
  (fp_line (start -2 37) (end -2 -37) (layer F.Fab) (width 0.1))
  (fp_line (start -3 -36.25) (end -2 -36.25) (layer F.Fab) (width 0.1))
  (fp_line (start -2 -35.75) (end -3 -35.75) (layer F.Fab) (width 0.1))
  (fp_line (start -3 -35.75) (end -3 -36.25) (layer F.Fab) (width 0.1))
  (fp_line (start 2 -36.25) (end 3 -36.25) (layer F.Fab) (width 0.1))
  (fp_line (start 3 -36.25) (end 3 -35.75) (layer F.Fab) (width 0.1))
  (fp_line (start 3 -35.75) (end 2 -35.75) (layer F.Fab) (width 0.1))
  (fp_line (start -3 -34.25) (end -2 -34.25) (layer F.Fab) (width 0.1))
  (fp_line (start -2 -33.75) (end -3 -33.75) (layer F.Fab) (width 0.1))
  (fp_line (start -3 -33.75) (end -3 -34.25) (layer F.Fab) (width 0.1))
  (fp_line (start 2 -34.25) (end 3 -34.25) (layer F.Fab) (width 0.1))
  (fp_line (start 3 -34.25) (end 3 -33.75) (layer F.Fab) (width 0.1))
  (fp_line (start 3 -33.75) (end 2 -33.75) (layer F.Fab) (width 0.1))
  (fp_line (start -3 -32.25) (end -2 -32.25) (layer F.Fab) (width 0.1))
  (fp_line (start -2 -31.75) (end -3 -31.75) (layer F.Fab) (width 0.1))
  (fp_line (start -3 -31.75) (end -3 -32.25) (layer F.Fab) (width 0.1))
  (fp_line (start 2 -32.25) (end 3 -32.25) (layer F.Fab) (width 0.1))
  (fp_line (start 3 -32.25) (end 3 -31.75) (layer F.Fab) (width 0.1))
  (fp_line (start 3 -31.75) (end 2 -31.75) (layer F.Fab) (width 0.1))
  (fp_line (start -3 -30.25) (end -2 -30.25) (layer F.Fab) (width 0.1))
  (fp_line (start -2 -29.75) (end -3 -29.75) (layer F.Fab) (width 0.1))
  (fp_line (start -3 -29.75) (end -3 -30.25) (layer F.Fab) (width 0.1))
  (fp_line (start 2 -30.25) (end 3 -30.25) (layer F.Fab) (width 0.1))
  (fp_line (start 3 -30.25) (end 3 -29.75) (layer F.Fab) (width 0.1))
  (fp_line (start 3 -29.75) (end 2 -29.75) (layer F.Fab) (width 0.1))
  (fp_line (start -3 -28.25) (end -2 -28.25) (layer F.Fab) (width 0.1))
  (fp_line (start -2 -27.75) (end -3 -27.75) (layer F.Fab) (width 0.1))
  (fp_line (start -3 -27.75) (end -3 -28.25) (layer F.Fab) (width 0.1))
  (fp_line (start 2 -28.25) (end 3 -28.25) (layer F.Fab) (width 0.1))
  (fp_line (start 3 -28.25) (end 3 -27.75) (layer F.Fab) (width 0.1))
  (fp_line (start 3 -27.75) (end 2 -27.75) (layer F.Fab) (width 0.1))
  (fp_line (start -3 -26.25) (end -2 -26.25) (layer F.Fab) (width 0.1))
  (fp_line (start -2 -25.75) (end -3 -25.75) (layer F.Fab) (width 0.1))
  (fp_line (start -3 -25.75) (end -3 -26.25) (layer F.Fab) (width 0.1))
  (fp_line (start 2 -26.25) (end 3 -26.25) (layer F.Fab) (width 0.1))
  (fp_line (start 3 -26.25) (end 3 -25.75) (layer F.Fab) (width 0.1))
  (fp_line (start 3 -25.75) (end 2 -25.75) (layer F.Fab) (width 0.1))
  (fp_line (start -3 -24.25) (end -2 -24.25) (layer F.Fab) (width 0.1))
  (fp_line (start -2 -23.75) (end -3 -23.75) (layer F.Fab) (width 0.1))
  (fp_line (start -3 -23.75) (end -3 -24.25) (layer F.Fab) (width 0.1))
  (fp_line (start 2 -24.25) (end 3 -24.25) (layer F.Fab) (width 0.1))
  (fp_line (start 3 -24.25) (end 3 -23.75) (layer F.Fab) (width 0.1))
  (fp_line (start 3 -23.75) (end 2 -23.75) (layer F.Fab) (width 0.1))
  (fp_line (start -3 -22.25) (end -2 -22.25) (layer F.Fab) (width 0.1))
  (fp_line (start -2 -21.75) (end -3 -21.75) (layer F.Fab) (width 0.1))
  (fp_line (start -3 -21.75) (end -3 -22.25) (layer F.Fab) (width 0.1))
  (fp_line (start 2 -22.25) (end 3 -22.25) (layer F.Fab) (width 0.1))
  (fp_line (start 3 -22.25) (end 3 -21.75) (layer F.Fab) (width 0.1))
  (fp_line (start 3 -21.75) (end 2 -21.75) (layer F.Fab) (width 0.1))
  (fp_line (start -3 -20.25) (end -2 -20.25) (layer F.Fab) (width 0.1))
  (fp_line (start -2 -19.75) (end -3 -19.75) (layer F.Fab) (width 0.1))
  (fp_line (start -3 -19.75) (end -3 -20.25) (layer F.Fab) (width 0.1))
  (fp_line (start 2 -20.25) (end 3 -20.25) (layer F.Fab) (width 0.1))
  (fp_line (start 3 -20.25) (end 3 -19.75) (layer F.Fab) (width 0.1))
  (fp_line (start 3 -19.75) (end 2 -19.75) (layer F.Fab) (width 0.1))
  (fp_line (start -3 -18.25) (end -2 -18.25) (layer F.Fab) (width 0.1))
  (fp_line (start -2 -17.75) (end -3 -17.75) (layer F.Fab) (width 0.1))
  (fp_line (start -3 -17.75) (end -3 -18.25) (layer F.Fab) (width 0.1))
  (fp_line (start 2 -18.25) (end 3 -18.25) (layer F.Fab) (width 0.1))
  (fp_line (start 3 -18.25) (end 3 -17.75) (layer F.Fab) (width 0.1))
  (fp_line (start 3 -17.75) (end 2 -17.75) (layer F.Fab) (width 0.1))
  (fp_line (start -3 -16.25) (end -2 -16.25) (layer F.Fab) (width 0.1))
  (fp_line (start -2 -15.75) (end -3 -15.75) (layer F.Fab) (width 0.1))
  (fp_line (start -3 -15.75) (end -3 -16.25) (layer F.Fab) (width 0.1))
  (fp_line (start 2 -16.25) (end 3 -16.25) (layer F.Fab) (width 0.1))
  (fp_line (start 3 -16.25) (end 3 -15.75) (layer F.Fab) (width 0.1))
  (fp_line (start 3 -15.75) (end 2 -15.75) (layer F.Fab) (width 0.1))
  (fp_line (start -3 -14.25) (end -2 -14.25) (layer F.Fab) (width 0.1))
  (fp_line (start -2 -13.75) (end -3 -13.75) (layer F.Fab) (width 0.1))
  (fp_line (start -3 -13.75) (end -3 -14.25) (layer F.Fab) (width 0.1))
  (fp_line (start 2 -14.25) (end 3 -14.25) (layer F.Fab) (width 0.1))
  (fp_line (start 3 -14.25) (end 3 -13.75) (layer F.Fab) (width 0.1))
  (fp_line (start 3 -13.75) (end 2 -13.75) (layer F.Fab) (width 0.1))
  (fp_line (start -3 -12.25) (end -2 -12.25) (layer F.Fab) (width 0.1))
  (fp_line (start -2 -11.75) (end -3 -11.75) (layer F.Fab) (width 0.1))
  (fp_line (start -3 -11.75) (end -3 -12.25) (layer F.Fab) (width 0.1))
  (fp_line (start 2 -12.25) (end 3 -12.25) (layer F.Fab) (width 0.1))
  (fp_line (start 3 -12.25) (end 3 -11.75) (layer F.Fab) (width 0.1))
  (fp_line (start 3 -11.75) (end 2 -11.75) (layer F.Fab) (width 0.1))
  (fp_line (start -3 -10.25) (end -2 -10.25) (layer F.Fab) (width 0.1))
  (fp_line (start -2 -9.75) (end -3 -9.75) (layer F.Fab) (width 0.1))
  (fp_line (start -3 -9.75) (end -3 -10.25) (layer F.Fab) (width 0.1))
  (fp_line (start 2 -10.25) (end 3 -10.25) (layer F.Fab) (width 0.1))
  (fp_line (start 3 -10.25) (end 3 -9.75) (layer F.Fab) (width 0.1))
  (fp_line (start 3 -9.75) (end 2 -9.75) (layer F.Fab) (width 0.1))
  (fp_line (start -3 -8.25) (end -2 -8.25) (layer F.Fab) (width 0.1))
  (fp_line (start -2 -7.75) (end -3 -7.75) (layer F.Fab) (width 0.1))
  (fp_line (start -3 -7.75) (end -3 -8.25) (layer F.Fab) (width 0.1))
  (fp_line (start 2 -8.25) (end 3 -8.25) (layer F.Fab) (width 0.1))
  (fp_line (start 3 -8.25) (end 3 -7.75) (layer F.Fab) (width 0.1))
  (fp_line (start 3 -7.75) (end 2 -7.75) (layer F.Fab) (width 0.1))
  (fp_line (start -3 -6.25) (end -2 -6.25) (layer F.Fab) (width 0.1))
  (fp_line (start -2 -5.75) (end -3 -5.75) (layer F.Fab) (width 0.1))
  (fp_line (start -3 -5.75) (end -3 -6.25) (layer F.Fab) (width 0.1))
  (fp_line (start 2 -6.25) (end 3 -6.25) (layer F.Fab) (width 0.1))
  (fp_line (start 3 -6.25) (end 3 -5.75) (layer F.Fab) (width 0.1))
  (fp_line (start 3 -5.75) (end 2 -5.75) (layer F.Fab) (width 0.1))
  (fp_line (start -3 -4.25) (end -2 -4.25) (layer F.Fab) (width 0.1))
  (fp_line (start -2 -3.75) (end -3 -3.75) (layer F.Fab) (width 0.1))
  (fp_line (start -3 -3.75) (end -3 -4.25) (layer F.Fab) (width 0.1))
  (fp_line (start 2 -4.25) (end 3 -4.25) (layer F.Fab) (width 0.1))
  (fp_line (start 3 -4.25) (end 3 -3.75) (layer F.Fab) (width 0.1))
  (fp_line (start 3 -3.75) (end 2 -3.75) (layer F.Fab) (width 0.1))
  (fp_line (start -3 -2.25) (end -2 -2.25) (layer F.Fab) (width 0.1))
  (fp_line (start -2 -1.75) (end -3 -1.75) (layer F.Fab) (width 0.1))
  (fp_line (start -3 -1.75) (end -3 -2.25) (layer F.Fab) (width 0.1))
  (fp_line (start 2 -2.25) (end 3 -2.25) (layer F.Fab) (width 0.1))
  (fp_line (start 3 -2.25) (end 3 -1.75) (layer F.Fab) (width 0.1))
  (fp_line (start 3 -1.75) (end 2 -1.75) (layer F.Fab) (width 0.1))
  (fp_line (start -3 -0.25) (end -2 -0.25) (layer F.Fab) (width 0.1))
  (fp_line (start -2 0.25) (end -3 0.25) (layer F.Fab) (width 0.1))
  (fp_line (start -3 0.25) (end -3 -0.25) (layer F.Fab) (width 0.1))
  (fp_line (start 2 -0.25) (end 3 -0.25) (layer F.Fab) (width 0.1))
  (fp_line (start 3 -0.25) (end 3 0.25) (layer F.Fab) (width 0.1))
  (fp_line (start 3 0.25) (end 2 0.25) (layer F.Fab) (width 0.1))
  (fp_line (start -3 1.75) (end -2 1.75) (layer F.Fab) (width 0.1))
  (fp_line (start -2 2.25) (end -3 2.25) (layer F.Fab) (width 0.1))
  (fp_line (start -3 2.25) (end -3 1.75) (layer F.Fab) (width 0.1))
  (fp_line (start 2 1.75) (end 3 1.75) (layer F.Fab) (width 0.1))
  (fp_line (start 3 1.75) (end 3 2.25) (layer F.Fab) (width 0.1))
  (fp_line (start 3 2.25) (end 2 2.25) (layer F.Fab) (width 0.1))
  (fp_line (start -3 3.75) (end -2 3.75) (layer F.Fab) (width 0.1))
  (fp_line (start -2 4.25) (end -3 4.25) (layer F.Fab) (width 0.1))
  (fp_line (start -3 4.25) (end -3 3.75) (layer F.Fab) (width 0.1))
  (fp_line (start 2 3.75) (end 3 3.75) (layer F.Fab) (width 0.1))
  (fp_line (start 3 3.75) (end 3 4.25) (layer F.Fab) (width 0.1))
  (fp_line (start 3 4.25) (end 2 4.25) (layer F.Fab) (width 0.1))
  (fp_line (start -3 5.75) (end -2 5.75) (layer F.Fab) (width 0.1))
  (fp_line (start -2 6.25) (end -3 6.25) (layer F.Fab) (width 0.1))
  (fp_line (start -3 6.25) (end -3 5.75) (layer F.Fab) (width 0.1))
  (fp_line (start 2 5.75) (end 3 5.75) (layer F.Fab) (width 0.1))
  (fp_line (start 3 5.75) (end 3 6.25) (layer F.Fab) (width 0.1))
  (fp_line (start 3 6.25) (end 2 6.25) (layer F.Fab) (width 0.1))
  (fp_line (start -3 7.75) (end -2 7.75) (layer F.Fab) (width 0.1))
  (fp_line (start -2 8.25) (end -3 8.25) (layer F.Fab) (width 0.1))
  (fp_line (start -3 8.25) (end -3 7.75) (layer F.Fab) (width 0.1))
  (fp_line (start 2 7.75) (end 3 7.75) (layer F.Fab) (width 0.1))
  (fp_line (start 3 7.75) (end 3 8.25) (layer F.Fab) (width 0.1))
  (fp_line (start 3 8.25) (end 2 8.25) (layer F.Fab) (width 0.1))
  (fp_line (start -3 9.75) (end -2 9.75) (layer F.Fab) (width 0.1))
  (fp_line (start -2 10.25) (end -3 10.25) (layer F.Fab) (width 0.1))
  (fp_line (start -3 10.25) (end -3 9.75) (layer F.Fab) (width 0.1))
  (fp_line (start 2 9.75) (end 3 9.75) (layer F.Fab) (width 0.1))
  (fp_line (start 3 9.75) (end 3 10.25) (layer F.Fab) (width 0.1))
  (fp_line (start 3 10.25) (end 2 10.25) (layer F.Fab) (width 0.1))
  (fp_line (start -3 11.75) (end -2 11.75) (layer F.Fab) (width 0.1))
  (fp_line (start -2 12.25) (end -3 12.25) (layer F.Fab) (width 0.1))
  (fp_line (start -3 12.25) (end -3 11.75) (layer F.Fab) (width 0.1))
  (fp_line (start 2 11.75) (end 3 11.75) (layer F.Fab) (width 0.1))
  (fp_line (start 3 11.75) (end 3 12.25) (layer F.Fab) (width 0.1))
  (fp_line (start 3 12.25) (end 2 12.25) (layer F.Fab) (width 0.1))
  (fp_line (start -3 13.75) (end -2 13.75) (layer F.Fab) (width 0.1))
  (fp_line (start -2 14.25) (end -3 14.25) (layer F.Fab) (width 0.1))
  (fp_line (start -3 14.25) (end -3 13.75) (layer F.Fab) (width 0.1))
  (fp_line (start 2 13.75) (end 3 13.75) (layer F.Fab) (width 0.1))
  (fp_line (start 3 13.75) (end 3 14.25) (layer F.Fab) (width 0.1))
  (fp_line (start 3 14.25) (end 2 14.25) (layer F.Fab) (width 0.1))
  (fp_line (start -3 15.75) (end -2 15.75) (layer F.Fab) (width 0.1))
  (fp_line (start -2 16.25) (end -3 16.25) (layer F.Fab) (width 0.1))
  (fp_line (start -3 16.25) (end -3 15.75) (layer F.Fab) (width 0.1))
  (fp_line (start 2 15.75) (end 3 15.75) (layer F.Fab) (width 0.1))
  (fp_line (start 3 15.75) (end 3 16.25) (layer F.Fab) (width 0.1))
  (fp_line (start 3 16.25) (end 2 16.25) (layer F.Fab) (width 0.1))
  (fp_line (start -3 17.75) (end -2 17.75) (layer F.Fab) (width 0.1))
  (fp_line (start -2 18.25) (end -3 18.25) (layer F.Fab) (width 0.1))
  (fp_line (start -3 18.25) (end -3 17.75) (layer F.Fab) (width 0.1))
  (fp_line (start 2 17.75) (end 3 17.75) (layer F.Fab) (width 0.1))
  (fp_line (start 3 17.75) (end 3 18.25) (layer F.Fab) (width 0.1))
  (fp_line (start 3 18.25) (end 2 18.25) (layer F.Fab) (width 0.1))
  (fp_line (start -3 19.75) (end -2 19.75) (layer F.Fab) (width 0.1))
  (fp_line (start -2 20.25) (end -3 20.25) (layer F.Fab) (width 0.1))
  (fp_line (start -3 20.25) (end -3 19.75) (layer F.Fab) (width 0.1))
  (fp_line (start 2 19.75) (end 3 19.75) (layer F.Fab) (width 0.1))
  (fp_line (start 3 19.75) (end 3 20.25) (layer F.Fab) (width 0.1))
  (fp_line (start 3 20.25) (end 2 20.25) (layer F.Fab) (width 0.1))
  (fp_line (start -3 21.75) (end -2 21.75) (layer F.Fab) (width 0.1))
  (fp_line (start -2 22.25) (end -3 22.25) (layer F.Fab) (width 0.1))
  (fp_line (start -3 22.25) (end -3 21.75) (layer F.Fab) (width 0.1))
  (fp_line (start 2 21.75) (end 3 21.75) (layer F.Fab) (width 0.1))
  (fp_line (start 3 21.75) (end 3 22.25) (layer F.Fab) (width 0.1))
  (fp_line (start 3 22.25) (end 2 22.25) (layer F.Fab) (width 0.1))
  (fp_line (start -3 23.75) (end -2 23.75) (layer F.Fab) (width 0.1))
  (fp_line (start -2 24.25) (end -3 24.25) (layer F.Fab) (width 0.1))
  (fp_line (start -3 24.25) (end -3 23.75) (layer F.Fab) (width 0.1))
  (fp_line (start 2 23.75) (end 3 23.75) (layer F.Fab) (width 0.1))
  (fp_line (start 3 23.75) (end 3 24.25) (layer F.Fab) (width 0.1))
  (fp_line (start 3 24.25) (end 2 24.25) (layer F.Fab) (width 0.1))
  (fp_line (start -3 25.75) (end -2 25.75) (layer F.Fab) (width 0.1))
  (fp_line (start -2 26.25) (end -3 26.25) (layer F.Fab) (width 0.1))
  (fp_line (start -3 26.25) (end -3 25.75) (layer F.Fab) (width 0.1))
  (fp_line (start 2 25.75) (end 3 25.75) (layer F.Fab) (width 0.1))
  (fp_line (start 3 25.75) (end 3 26.25) (layer F.Fab) (width 0.1))
  (fp_line (start 3 26.25) (end 2 26.25) (layer F.Fab) (width 0.1))
  (fp_line (start -3 27.75) (end -2 27.75) (layer F.Fab) (width 0.1))
  (fp_line (start -2 28.25) (end -3 28.25) (layer F.Fab) (width 0.1))
  (fp_line (start -3 28.25) (end -3 27.75) (layer F.Fab) (width 0.1))
  (fp_line (start 2 27.75) (end 3 27.75) (layer F.Fab) (width 0.1))
  (fp_line (start 3 27.75) (end 3 28.25) (layer F.Fab) (width 0.1))
  (fp_line (start 3 28.25) (end 2 28.25) (layer F.Fab) (width 0.1))
  (fp_line (start -3 29.75) (end -2 29.75) (layer F.Fab) (width 0.1))
  (fp_line (start -2 30.25) (end -3 30.25) (layer F.Fab) (width 0.1))
  (fp_line (start -3 30.25) (end -3 29.75) (layer F.Fab) (width 0.1))
  (fp_line (start 2 29.75) (end 3 29.75) (layer F.Fab) (width 0.1))
  (fp_line (start 3 29.75) (end 3 30.25) (layer F.Fab) (width 0.1))
  (fp_line (start 3 30.25) (end 2 30.25) (layer F.Fab) (width 0.1))
  (fp_line (start -3 31.75) (end -2 31.75) (layer F.Fab) (width 0.1))
  (fp_line (start -2 32.25) (end -3 32.25) (layer F.Fab) (width 0.1))
  (fp_line (start -3 32.25) (end -3 31.75) (layer F.Fab) (width 0.1))
  (fp_line (start 2 31.75) (end 3 31.75) (layer F.Fab) (width 0.1))
  (fp_line (start 3 31.75) (end 3 32.25) (layer F.Fab) (width 0.1))
  (fp_line (start 3 32.25) (end 2 32.25) (layer F.Fab) (width 0.1))
  (fp_line (start -3 33.75) (end -2 33.75) (layer F.Fab) (width 0.1))
  (fp_line (start -2 34.25) (end -3 34.25) (layer F.Fab) (width 0.1))
  (fp_line (start -3 34.25) (end -3 33.75) (layer F.Fab) (width 0.1))
  (fp_line (start 2 33.75) (end 3 33.75) (layer F.Fab) (width 0.1))
  (fp_line (start 3 33.75) (end 3 34.25) (layer F.Fab) (width 0.1))
  (fp_line (start 3 34.25) (end 2 34.25) (layer F.Fab) (width 0.1))
  (fp_line (start -3 35.75) (end -2 35.75) (layer F.Fab) (width 0.1))
  (fp_line (start -2 36.25) (end -3 36.25) (layer F.Fab) (width 0.1))
  (fp_line (start -3 36.25) (end -3 35.75) (layer F.Fab) (width 0.1))
  (fp_line (start 2 35.75) (end 3 35.75) (layer F.Fab) (width 0.1))
  (fp_line (start 3 35.75) (end 3 36.25) (layer F.Fab) (width 0.1))
  (fp_line (start 3 36.25) (end 2 36.25) (layer F.Fab) (width 0.1))
  (fp_line (start -5 -37.5) (end 5 -37.5) (layer F.CrtYd) (width 0.05))
  (fp_line (start 5 -37.5) (end 5 37.5) (layer F.CrtYd) (width 0.05))
  (fp_line (start 5 37.5) (end -5 37.5) (layer F.CrtYd) (width 0.05))
  (fp_line (start -5 37.5) (end -5 -37.5) (layer F.CrtYd) (width 0.05))
  (pad 1 smd rect (at 3.125 -36) (size 2.75 1) (layers F.Cu F.Mask F.Paste))
  (pad 2 smd rect (at -3.125 -36) (size 2.75 1) (layers F.Cu F.Mask F.Paste))
  (pad 3 smd rect (at 3.125 -34) (size 2.75 1) (layers F.Cu F.Mask F.Paste))
  (pad 4 smd rect (at -3.125 -34) (size 2.75 1) (layers F.Cu F.Mask F.Paste))
  (pad 5 smd rect (at 3.125 -32) (size 2.75 1) (layers F.Cu F.Mask F.Paste))
  (pad 6 smd rect (at -3.125 -32) (size 2.75 1) (layers F.Cu F.Mask F.Paste))
  (pad 7 smd rect (at 3.125 -30) (size 2.75 1) (layers F.Cu F.Mask F.Paste))
  (pad 8 smd rect (at -3.125 -30) (size 2.75 1) (layers F.Cu F.Mask F.Paste))
  (pad 9 smd rect (at 3.125 -28) (size 2.75 1) (layers F.Cu F.Mask F.Paste))
  (pad 10 smd rect (at -3.125 -28) (size 2.75 1) (layers F.Cu F.Mask F.Paste))
  (pad 11 smd rect (at 3.125 -26) (size 2.75 1) (layers F.Cu F.Mask F.Paste))
  (pad 12 smd rect (at -3.125 -26) (size 2.75 1) (layers F.Cu F.Mask F.Paste))
  (pad 13 smd rect (at 3.125 -24) (size 2.75 1) (layers F.Cu F.Mask F.Paste))
  (pad 14 smd rect (at -3.125 -24) (size 2.75 1) (layers F.Cu F.Mask F.Paste))
  (pad 15 smd rect (at 3.125 -22) (size 2.75 1) (layers F.Cu F.Mask F.Paste))
  (pad 16 smd rect (at -3.125 -22) (size 2.75 1) (layers F.Cu F.Mask F.Paste))
  (pad 17 smd rect (at 3.125 -20) (size 2.75 1) (layers F.Cu F.Mask F.Paste))
  (pad 18 smd rect (at -3.125 -20) (size 2.75 1) (layers F.Cu F.Mask F.Paste))
  (pad 19 smd rect (at 3.125 -18) (size 2.75 1) (layers F.Cu F.Mask F.Paste))
  (pad 20 smd rect (at -3.125 -18) (size 2.75 1) (layers F.Cu F.Mask F.Paste))
  (pad 21 smd rect (at 3.125 -16) (size 2.75 1) (layers F.Cu F.Mask F.Paste))
  (pad 22 smd rect (at -3.125 -16) (size 2.75 1) (layers F.Cu F.Mask F.Paste))
  (pad 23 smd rect (at 3.125 -14) (size 2.75 1) (layers F.Cu F.Mask F.Paste))
  (pad 24 smd rect (at -3.125 -14) (size 2.75 1) (layers F.Cu F.Mask F.Paste))
  (pad 25 smd rect (at 3.125 -12) (size 2.75 1) (layers F.Cu F.Mask F.Paste))
  (pad 26 smd rect (at -3.125 -12) (size 2.75 1) (layers F.Cu F.Mask F.Paste))
  (pad 27 smd rect (at 3.125 -10) (size 2.75 1) (layers F.Cu F.Mask F.Paste))
  (pad 28 smd rect (at -3.125 -10) (size 2.75 1) (layers F.Cu F.Mask F.Paste))
  (pad 29 smd rect (at 3.125 -8) (size 2.75 1) (layers F.Cu F.Mask F.Paste))
  (pad 30 smd rect (at -3.125 -8) (size 2.75 1) (layers F.Cu F.Mask F.Paste))
  (pad 31 smd rect (at 3.125 -6) (size 2.75 1) (layers F.Cu F.Mask F.Paste))
  (pad 32 smd rect (at -3.125 -6) (size 2.75 1) (layers F.Cu F.Mask F.Paste))
  (pad 33 smd rect (at 3.125 -4) (size 2.75 1) (layers F.Cu F.Mask F.Paste))
  (pad 34 smd rect (at -3.125 -4) (size 2.75 1) (layers F.Cu F.Mask F.Paste))
  (pad 35 smd rect (at 3.125 -2) (size 2.75 1) (layers F.Cu F.Mask F.Paste))
  (pad 36 smd rect (at -3.125 -2) (size 2.75 1) (layers F.Cu F.Mask F.Paste))
  (pad 37 smd rect (at 3.125 0) (size 2.75 1) (layers F.Cu F.Mask F.Paste))
  (pad 38 smd rect (at -3.125 0) (size 2.75 1) (layers F.Cu F.Mask F.Paste))
  (pad 39 smd rect (at 3.125 2) (size 2.75 1) (layers F.Cu F.Mask F.Paste))
  (pad 40 smd rect (at -3.125 2) (size 2.75 1) (layers F.Cu F.Mask F.Paste))
  (pad 41 smd rect (at 3.125 4) (size 2.75 1) (layers F.Cu F.Mask F.Paste))
  (pad 42 smd rect (at -3.125 4) (size 2.75 1) (layers F.Cu F.Mask F.Paste))
  (pad 43 smd rect (at 3.125 6) (size 2.75 1) (layers F.Cu F.Mask F.Paste))
  (pad 44 smd rect (at -3.125 6) (size 2.75 1) (layers F.Cu F.Mask F.Paste))
  (pad 45 smd rect (at 3.125 8) (size 2.75 1) (layers F.Cu F.Mask F.Paste))
  (pad 46 smd rect (at -3.125 8) (size 2.75 1) (layers F.Cu F.Mask F.Paste))
  (pad 47 smd rect (at 3.125 10) (size 2.75 1) (layers F.Cu F.Mask F.Paste))
  (pad 48 smd rect (at -3.125 10) (size 2.75 1) (layers F.Cu F.Mask F.Paste))
  (pad 49 smd rect (at 3.125 12) (size 2.75 1) (layers F.Cu F.Mask F.Paste))
  (pad 50 smd rect (at -3.125 12) (size 2.75 1) (layers F.Cu F.Mask F.Paste))
  (pad 51 smd rect (at 3.125 14) (size 2.75 1) (layers F.Cu F.Mask F.Paste))
  (pad 52 smd rect (at -3.125 14) (size 2.75 1) (layers F.Cu F.Mask F.Paste))
  (pad 53 smd rect (at 3.125 16) (size 2.75 1) (layers F.Cu F.Mask F.Paste))
  (pad 54 smd rect (at -3.125 16) (size 2.75 1) (layers F.Cu F.Mask F.Paste))
  (pad 55 smd rect (at 3.125 18) (size 2.75 1) (layers F.Cu F.Mask F.Paste))
  (pad 56 smd rect (at -3.125 18) (size 2.75 1) (layers F.Cu F.Mask F.Paste))
  (pad 57 smd rect (at 3.125 20) (size 2.75 1) (layers F.Cu F.Mask F.Paste))
  (pad 58 smd rect (at -3.125 20) (size 2.75 1) (layers F.Cu F.Mask F.Paste))
  (pad 59 smd rect (at 3.125 22) (size 2.75 1) (layers F.Cu F.Mask F.Paste))
  (pad 60 smd rect (at -3.125 22) (size 2.75 1) (layers F.Cu F.Mask F.Paste))
  (pad 61 smd rect (at 3.125 24) (size 2.75 1) (layers F.Cu F.Mask F.Paste))
  (pad 62 smd rect (at -3.125 24) (size 2.75 1) (layers F.Cu F.Mask F.Paste))
  (pad 63 smd rect (at 3.125 26) (size 2.75 1) (layers F.Cu F.Mask F.Paste))
  (pad 64 smd rect (at -3.125 26) (size 2.75 1) (layers F.Cu F.Mask F.Paste))
  (pad 65 smd rect (at 3.125 28) (size 2.75 1) (layers F.Cu F.Mask F.Paste))
  (pad 66 smd rect (at -3.125 28) (size 2.75 1) (layers F.Cu F.Mask F.Paste))
  (pad 67 smd rect (at 3.125 30) (size 2.75 1) (layers F.Cu F.Mask F.Paste))
  (pad 68 smd rect (at -3.125 30) (size 2.75 1) (layers F.Cu F.Mask F.Paste))
  (pad 69 smd rect (at 3.125 32) (size 2.75 1) (layers F.Cu F.Mask F.Paste))
  (pad 70 smd rect (at -3.125 32) (size 2.75 1) (layers F.Cu F.Mask F.Paste))
  (pad 71 smd rect (at 3.125 34) (size 2.75 1) (layers F.Cu F.Mask F.Paste))
  (pad 72 smd rect (at -3.125 34) (size 2.75 1) (layers F.Cu F.Mask F.Paste))
  (pad 73 smd rect (at 3.125 36) (size 2.75 1) (layers F.Cu F.Mask F.Paste))
  (pad 74 smd rect (at -3.125 36) (size 2.75 1) (layers F.Cu F.Mask F.Paste))
  (fp_text user %R (at 0 0 90) (layer F.Fab)
    (effects (font (size 1 1) (thickness 0.15)))
  )
  (model ${KICAD6_3DMODEL_DIR}/Connector_PinSocket_2.00mm.3dshapes/PinSocket_2x37_P2.00mm_Vertical_SMD.wrl
    (at (xyz 0 0 0))
    (scale (xyz 1 1 1))
    (rotate (xyz 0 0 0))
  )
)