(module PinSocket_1x40_P2.00mm_Vertical_SMD_Pin1Right (layer F.Cu) (tedit 5A19A420)
  (descr "surface-mounted straight socket strip, 1x40, 2.00mm pitch, single row, style 2 (pin 1 right) (https://www.jayconsystems.com/fileuploader/download/download/?d=1&file=custom%2Fupload%2FFile-1375728122.pdf), script generated")
  (tags "Surface mounted socket strip SMD 1x40 2.00mm single row style2 pin1 right")
  (attr smd)
  (fp_text reference REF** (at 0 -41.8) (layer F.SilkS)
    (effects (font (size 1 1) (thickness 0.15)))
  )
  (fp_text value PinSocket_1x40_P2.00mm_Vertical_SMD_Pin1Right (at 0 41.8) (layer F.Fab)
    (effects (font (size 1 1) (thickness 0.15)))
  )
  (fp_line (start -1.31 -40.36) (end 1.31 -40.36) (layer F.SilkS) (width 0.12))
  (fp_line (start 1.31 -40.36) (end 1.31 -39.71) (layer F.SilkS) (width 0.12))
  (fp_line (start 1.31 -38.29) (end 1.31 -35.71) (layer F.SilkS) (width 0.12))
  (fp_line (start 1.31 -34.29) (end 1.31 -31.71) (layer F.SilkS) (width 0.12))
  (fp_line (start 1.31 -30.29) (end 1.31 -27.71) (layer F.SilkS) (width 0.12))
  (fp_line (start 1.31 -26.29) (end 1.31 -23.71) (layer F.SilkS) (width 0.12))
  (fp_line (start 1.31 -22.29) (end 1.31 -19.71) (layer F.SilkS) (width 0.12))
  (fp_line (start 1.31 -18.29) (end 1.31 -15.71) (layer F.SilkS) (width 0.12))
  (fp_line (start 1.31 -14.29) (end 1.31 -11.71) (layer F.SilkS) (width 0.12))
  (fp_line (start 1.31 -10.29) (end 1.31 -7.71) (layer F.SilkS) (width 0.12))
  (fp_line (start 1.31 -6.29) (end 1.31 -3.71) (layer F.SilkS) (width 0.12))
  (fp_line (start 1.31 -2.29) (end 1.31 0.29) (layer F.SilkS) (width 0.12))
  (fp_line (start 1.31 1.71) (end 1.31 4.29) (layer F.SilkS) (width 0.12))
  (fp_line (start 1.31 5.71) (end 1.31 8.29) (layer F.SilkS) (width 0.12))
  (fp_line (start 1.31 9.71) (end 1.31 12.29) (layer F.SilkS) (width 0.12))
  (fp_line (start 1.31 13.71) (end 1.31 16.29) (layer F.SilkS) (width 0.12))
  (fp_line (start 1.31 17.71) (end 1.31 20.29) (layer F.SilkS) (width 0.12))
  (fp_line (start 1.31 21.71) (end 1.31 24.29) (layer F.SilkS) (width 0.12))
  (fp_line (start 1.31 25.71) (end 1.31 28.29) (layer F.SilkS) (width 0.12))
  (fp_line (start 1.31 29.71) (end 1.31 32.29) (layer F.SilkS) (width 0.12))
  (fp_line (start 1.31 33.71) (end 1.31 36.29) (layer F.SilkS) (width 0.12))
  (fp_line (start 1.31 37.71) (end 1.31 40.36) (layer F.SilkS) (width 0.12))
  (fp_line (start -1.31 40.36) (end 1.31 40.36) (layer F.SilkS) (width 0.12))
  (fp_line (start -1.31 -40.36) (end -1.31 -37.71) (layer F.SilkS) (width 0.12))
  (fp_line (start -1.31 -36.29) (end -1.31 -33.71) (layer F.SilkS) (width 0.12))
  (fp_line (start -1.31 -32.29) (end -1.31 -29.71) (layer F.SilkS) (width 0.12))
  (fp_line (start -1.31 -28.29) (end -1.31 -25.71) (layer F.SilkS) (width 0.12))
  (fp_line (start -1.31 -24.29) (end -1.31 -21.71) (layer F.SilkS) (width 0.12))
  (fp_line (start -1.31 -20.29) (end -1.31 -17.71) (layer F.SilkS) (width 0.12))
  (fp_line (start -1.31 -16.29) (end -1.31 -13.71) (layer F.SilkS) (width 0.12))
  (fp_line (start -1.31 -12.29) (end -1.31 -9.71) (layer F.SilkS) (width 0.12))
  (fp_line (start -1.31 -8.29) (end -1.31 -5.71) (layer F.SilkS) (width 0.12))
  (fp_line (start -1.31 -4.29) (end -1.31 -1.71) (layer F.SilkS) (width 0.12))
  (fp_line (start -1.31 -0.29) (end -1.31 2.29) (layer F.SilkS) (width 0.12))
  (fp_line (start -1.31 3.71) (end -1.31 6.29) (layer F.SilkS) (width 0.12))
  (fp_line (start -1.31 7.71) (end -1.31 10.29) (layer F.SilkS) (width 0.12))
  (fp_line (start -1.31 11.71) (end -1.31 14.29) (layer F.SilkS) (width 0.12))
  (fp_line (start -1.31 15.71) (end -1.31 18.29) (layer F.SilkS) (width 0.12))
  (fp_line (start -1.31 19.71) (end -1.31 22.29) (layer F.SilkS) (width 0.12))
  (fp_line (start -1.31 23.71) (end -1.31 26.29) (layer F.SilkS) (width 0.12))
  (fp_line (start -1.31 27.71) (end -1.31 30.29) (layer F.SilkS) (width 0.12))
  (fp_line (start -1.31 31.71) (end -1.31 34.29) (layer F.SilkS) (width 0.12))
  (fp_line (start -1.31 35.71) (end -1.31 38.29) (layer F.SilkS) (width 0.12))
  (fp_line (start -1.31 39.71) (end -1.31 40.36) (layer F.SilkS) (width 0.12))
  (fp_line (start 1.31 -39.71) (end 2.54 -39.71) (layer F.SilkS) (width 0.12))
  (fp_line (start -1.25 -40.3) (end 0.625 -40.3) (layer F.Fab) (width 0.1))
  (fp_line (start 0.625 -40.3) (end 1.25 -39.675) (layer F.Fab) (width 0.1))
  (fp_line (start 1.25 -39.675) (end 1.25 40.3) (layer F.Fab) (width 0.1))
  (fp_line (start 1.25 40.3) (end -1.25 40.3) (layer F.Fab) (width 0.1))
  (fp_line (start -1.25 40.3) (end -1.25 -40.3) (layer F.Fab) (width 0.1))
  (fp_line (start 1.25 -39.25) (end 2.1 -39.25) (layer F.Fab) (width 0.1))
  (fp_line (start 2.1 -39.25) (end 2.1 -38.75) (layer F.Fab) (width 0.1))
  (fp_line (start 2.1 -38.75) (end 1.25 -38.75) (layer F.Fab) (width 0.1))
  (fp_line (start -2.1 -37.25) (end -1.25 -37.25) (layer F.Fab) (width 0.1))
  (fp_line (start -1.25 -36.75) (end -2.1 -36.75) (layer F.Fab) (width 0.1))
  (fp_line (start -2.1 -36.75) (end -2.1 -37.25) (layer F.Fab) (width 0.1))
  (fp_line (start 1.25 -35.25) (end 2.1 -35.25) (layer F.Fab) (width 0.1))
  (fp_line (start 2.1 -35.25) (end 2.1 -34.75) (layer F.Fab) (width 0.1))
  (fp_line (start 2.1 -34.75) (end 1.25 -34.75) (layer F.Fab) (width 0.1))
  (fp_line (start -2.1 -33.25) (end -1.25 -33.25) (layer F.Fab) (width 0.1))
  (fp_line (start -1.25 -32.75) (end -2.1 -32.75) (layer F.Fab) (width 0.1))
  (fp_line (start -2.1 -32.75) (end -2.1 -33.25) (layer F.Fab) (width 0.1))
  (fp_line (start 1.25 -31.25) (end 2.1 -31.25) (layer F.Fab) (width 0.1))
  (fp_line (start 2.1 -31.25) (end 2.1 -30.75) (layer F.Fab) (width 0.1))
  (fp_line (start 2.1 -30.75) (end 1.25 -30.75) (layer F.Fab) (width 0.1))
  (fp_line (start -2.1 -29.25) (end -1.25 -29.25) (layer F.Fab) (width 0.1))
  (fp_line (start -1.25 -28.75) (end -2.1 -28.75) (layer F.Fab) (width 0.1))
  (fp_line (start -2.1 -28.75) (end -2.1 -29.25) (layer F.Fab) (width 0.1))
  (fp_line (start 1.25 -27.25) (end 2.1 -27.25) (layer F.Fab) (width 0.1))
  (fp_line (start 2.1 -27.25) (end 2.1 -26.75) (layer F.Fab) (width 0.1))
  (fp_line (start 2.1 -26.75) (end 1.25 -26.75) (layer F.Fab) (width 0.1))
  (fp_line (start -2.1 -25.25) (end -1.25 -25.25) (layer F.Fab) (width 0.1))
  (fp_line (start -1.25 -24.75) (end -2.1 -24.75) (layer F.Fab) (width 0.1))
  (fp_line (start -2.1 -24.75) (end -2.1 -25.25) (layer F.Fab) (width 0.1))
  (fp_line (start 1.25 -23.25) (end 2.1 -23.25) (layer F.Fab) (width 0.1))
  (fp_line (start 2.1 -23.25) (end 2.1 -22.75) (layer F.Fab) (width 0.1))
  (fp_line (start 2.1 -22.75) (end 1.25 -22.75) (layer F.Fab) (width 0.1))
  (fp_line (start -2.1 -21.25) (end -1.25 -21.25) (layer F.Fab) (width 0.1))
  (fp_line (start -1.25 -20.75) (end -2.1 -20.75) (layer F.Fab) (width 0.1))
  (fp_line (start -2.1 -20.75) (end -2.1 -21.25) (layer F.Fab) (width 0.1))
  (fp_line (start 1.25 -19.25) (end 2.1 -19.25) (layer F.Fab) (width 0.1))
  (fp_line (start 2.1 -19.25) (end 2.1 -18.75) (layer F.Fab) (width 0.1))
  (fp_line (start 2.1 -18.75) (end 1.25 -18.75) (layer F.Fab) (width 0.1))
  (fp_line (start -2.1 -17.25) (end -1.25 -17.25) (layer F.Fab) (width 0.1))
  (fp_line (start -1.25 -16.75) (end -2.1 -16.75) (layer F.Fab) (width 0.1))
  (fp_line (start -2.1 -16.75) (end -2.1 -17.25) (layer F.Fab) (width 0.1))
  (fp_line (start 1.25 -15.25) (end 2.1 -15.25) (layer F.Fab) (width 0.1))
  (fp_line (start 2.1 -15.25) (end 2.1 -14.75) (layer F.Fab) (width 0.1))
  (fp_line (start 2.1 -14.75) (end 1.25 -14.75) (layer F.Fab) (width 0.1))
  (fp_line (start -2.1 -13.25) (end -1.25 -13.25) (layer F.Fab) (width 0.1))
  (fp_line (start -1.25 -12.75) (end -2.1 -12.75) (layer F.Fab) (width 0.1))
  (fp_line (start -2.1 -12.75) (end -2.1 -13.25) (layer F.Fab) (width 0.1))
  (fp_line (start 1.25 -11.25) (end 2.1 -11.25) (layer F.Fab) (width 0.1))
  (fp_line (start 2.1 -11.25) (end 2.1 -10.75) (layer F.Fab) (width 0.1))
  (fp_line (start 2.1 -10.75) (end 1.25 -10.75) (layer F.Fab) (width 0.1))
  (fp_line (start -2.1 -9.25) (end -1.25 -9.25) (layer F.Fab) (width 0.1))
  (fp_line (start -1.25 -8.75) (end -2.1 -8.75) (layer F.Fab) (width 0.1))
  (fp_line (start -2.1 -8.75) (end -2.1 -9.25) (layer F.Fab) (width 0.1))
  (fp_line (start 1.25 -7.25) (end 2.1 -7.25) (layer F.Fab) (width 0.1))
  (fp_line (start 2.1 -7.25) (end 2.1 -6.75) (layer F.Fab) (width 0.1))
  (fp_line (start 2.1 -6.75) (end 1.25 -6.75) (layer F.Fab) (width 0.1))
  (fp_line (start -2.1 -5.25) (end -1.25 -5.25) (layer F.Fab) (width 0.1))
  (fp_line (start -1.25 -4.75) (end -2.1 -4.75) (layer F.Fab) (width 0.1))
  (fp_line (start -2.1 -4.75) (end -2.1 -5.25) (layer F.Fab) (width 0.1))
  (fp_line (start 1.25 -3.25) (end 2.1 -3.25) (layer F.Fab) (width 0.1))
  (fp_line (start 2.1 -3.25) (end 2.1 -2.75) (layer F.Fab) (width 0.1))
  (fp_line (start 2.1 -2.75) (end 1.25 -2.75) (layer F.Fab) (width 0.1))
  (fp_line (start -2.1 -1.25) (end -1.25 -1.25) (layer F.Fab) (width 0.1))
  (fp_line (start -1.25 -0.75) (end -2.1 -0.75) (layer F.Fab) (width 0.1))
  (fp_line (start -2.1 -0.75) (end -2.1 -1.25) (layer F.Fab) (width 0.1))
  (fp_line (start 1.25 0.75) (end 2.1 0.75) (layer F.Fab) (width 0.1))
  (fp_line (start 2.1 0.75) (end 2.1 1.25) (layer F.Fab) (width 0.1))
  (fp_line (start 2.1 1.25) (end 1.25 1.25) (layer F.Fab) (width 0.1))
  (fp_line (start -2.1 2.75) (end -1.25 2.75) (layer F.Fab) (width 0.1))
  (fp_line (start -1.25 3.25) (end -2.1 3.25) (layer F.Fab) (width 0.1))
  (fp_line (start -2.1 3.25) (end -2.1 2.75) (layer F.Fab) (width 0.1))
  (fp_line (start 1.25 4.75) (end 2.1 4.75) (layer F.Fab) (width 0.1))
  (fp_line (start 2.1 4.75) (end 2.1 5.25) (layer F.Fab) (width 0.1))
  (fp_line (start 2.1 5.25) (end 1.25 5.25) (layer F.Fab) (width 0.1))
  (fp_line (start -2.1 6.75) (end -1.25 6.75) (layer F.Fab) (width 0.1))
  (fp_line (start -1.25 7.25) (end -2.1 7.25) (layer F.Fab) (width 0.1))
  (fp_line (start -2.1 7.25) (end -2.1 6.75) (layer F.Fab) (width 0.1))
  (fp_line (start 1.25 8.75) (end 2.1 8.75) (layer F.Fab) (width 0.1))
  (fp_line (start 2.1 8.75) (end 2.1 9.25) (layer F.Fab) (width 0.1))
  (fp_line (start 2.1 9.25) (end 1.25 9.25) (layer F.Fab) (width 0.1))
  (fp_line (start -2.1 10.75) (end -1.25 10.75) (layer F.Fab) (width 0.1))
  (fp_line (start -1.25 11.25) (end -2.1 11.25) (layer F.Fab) (width 0.1))
  (fp_line (start -2.1 11.25) (end -2.1 10.75) (layer F.Fab) (width 0.1))
  (fp_line (start 1.25 12.75) (end 2.1 12.75) (layer F.Fab) (width 0.1))
  (fp_line (start 2.1 12.75) (end 2.1 13.25) (layer F.Fab) (width 0.1))
  (fp_line (start 2.1 13.25) (end 1.25 13.25) (layer F.Fab) (width 0.1))
  (fp_line (start -2.1 14.75) (end -1.25 14.75) (layer F.Fab) (width 0.1))
  (fp_line (start -1.25 15.25) (end -2.1 15.25) (layer F.Fab) (width 0.1))
  (fp_line (start -2.1 15.25) (end -2.1 14.75) (layer F.Fab) (width 0.1))
  (fp_line (start 1.25 16.75) (end 2.1 16.75) (layer F.Fab) (width 0.1))
  (fp_line (start 2.1 16.75) (end 2.1 17.25) (layer F.Fab) (width 0.1))
  (fp_line (start 2.1 17.25) (end 1.25 17.25) (layer F.Fab) (width 0.1))
  (fp_line (start -2.1 18.75) (end -1.25 18.75) (layer F.Fab) (width 0.1))
  (fp_line (start -1.25 19.25) (end -2.1 19.25) (layer F.Fab) (width 0.1))
  (fp_line (start -2.1 19.25) (end -2.1 18.75) (layer F.Fab) (width 0.1))
  (fp_line (start 1.25 20.75) (end 2.1 20.75) (layer F.Fab) (width 0.1))
  (fp_line (start 2.1 20.75) (end 2.1 21.25) (layer F.Fab) (width 0.1))
  (fp_line (start 2.1 21.25) (end 1.25 21.25) (layer F.Fab) (width 0.1))
  (fp_line (start -2.1 22.75) (end -1.25 22.75) (layer F.Fab) (width 0.1))
  (fp_line (start -1.25 23.25) (end -2.1 23.25) (layer F.Fab) (width 0.1))
  (fp_line (start -2.1 23.25) (end -2.1 22.75) (layer F.Fab) (width 0.1))
  (fp_line (start 1.25 24.75) (end 2.1 24.75) (layer F.Fab) (width 0.1))
  (fp_line (start 2.1 24.75) (end 2.1 25.25) (layer F.Fab) (width 0.1))
  (fp_line (start 2.1 25.25) (end 1.25 25.25) (layer F.Fab) (width 0.1))
  (fp_line (start -2.1 26.75) (end -1.25 26.75) (layer F.Fab) (width 0.1))
  (fp_line (start -1.25 27.25) (end -2.1 27.25) (layer F.Fab) (width 0.1))
  (fp_line (start -2.1 27.25) (end -2.1 26.75) (layer F.Fab) (width 0.1))
  (fp_line (start 1.25 28.75) (end 2.1 28.75) (layer F.Fab) (width 0.1))
  (fp_line (start 2.1 28.75) (end 2.1 29.25) (layer F.Fab) (width 0.1))
  (fp_line (start 2.1 29.25) (end 1.25 29.25) (layer F.Fab) (width 0.1))
  (fp_line (start -2.1 30.75) (end -1.25 30.75) (layer F.Fab) (width 0.1))
  (fp_line (start -1.25 31.25) (end -2.1 31.25) (layer F.Fab) (width 0.1))
  (fp_line (start -2.1 31.25) (end -2.1 30.75) (layer F.Fab) (width 0.1))
  (fp_line (start 1.25 32.75) (end 2.1 32.75) (layer F.Fab) (width 0.1))
  (fp_line (start 2.1 32.75) (end 2.1 33.25) (layer F.Fab) (width 0.1))
  (fp_line (start 2.1 33.25) (end 1.25 33.25) (layer F.Fab) (width 0.1))
  (fp_line (start -2.1 34.75) (end -1.25 34.75) (layer F.Fab) (width 0.1))
  (fp_line (start -1.25 35.25) (end -2.1 35.25) (layer F.Fab) (width 0.1))
  (fp_line (start -2.1 35.25) (end -2.1 34.75) (layer F.Fab) (width 0.1))
  (fp_line (start 1.25 36.75) (end 2.1 36.75) (layer F.Fab) (width 0.1))
  (fp_line (start 2.1 36.75) (end 2.1 37.25) (layer F.Fab) (width 0.1))
  (fp_line (start 2.1 37.25) (end 1.25 37.25) (layer F.Fab) (width 0.1))
  (fp_line (start -2.1 38.75) (end -1.25 38.75) (layer F.Fab) (width 0.1))
  (fp_line (start -1.25 39.25) (end -2.1 39.25) (layer F.Fab) (width 0.1))
  (fp_line (start -2.1 39.25) (end -2.1 38.75) (layer F.Fab) (width 0.1))
  (fp_line (start -3.1 -40.8) (end 3.1 -40.8) (layer F.CrtYd) (width 0.05))
  (fp_line (start 3.1 -40.8) (end 3.1 40.8) (layer F.CrtYd) (width 0.05))
  (fp_line (start 3.1 40.8) (end -3.1 40.8) (layer F.CrtYd) (width 0.05))
  (fp_line (start -3.1 40.8) (end -3.1 -40.8) (layer F.CrtYd) (width 0.05))
  (pad 2 smd rect (at -1.6 -37) (size 2 0.9) (layers F.Cu F.Mask F.Paste))
  (pad 4 smd rect (at -1.6 -33) (size 2 0.9) (layers F.Cu F.Mask F.Paste))
  (pad 6 smd rect (at -1.6 -29) (size 2 0.9) (layers F.Cu F.Mask F.Paste))
  (pad 8 smd rect (at -1.6 -25) (size 2 0.9) (layers F.Cu F.Mask F.Paste))
  (pad 10 smd rect (at -1.6 -21) (size 2 0.9) (layers F.Cu F.Mask F.Paste))
  (pad 12 smd rect (at -1.6 -17) (size 2 0.9) (layers F.Cu F.Mask F.Paste))
  (pad 14 smd rect (at -1.6 -13) (size 2 0.9) (layers F.Cu F.Mask F.Paste))
  (pad 16 smd rect (at -1.6 -9) (size 2 0.9) (layers F.Cu F.Mask F.Paste))
  (pad 18 smd rect (at -1.6 -5) (size 2 0.9) (layers F.Cu F.Mask F.Paste))
  (pad 20 smd rect (at -1.6 -1) (size 2 0.9) (layers F.Cu F.Mask F.Paste))
  (pad 22 smd rect (at -1.6 3) (size 2 0.9) (layers F.Cu F.Mask F.Paste))
  (pad 24 smd rect (at -1.6 7) (size 2 0.9) (layers F.Cu F.Mask F.Paste))
  (pad 26 smd rect (at -1.6 11) (size 2 0.9) (layers F.Cu F.Mask F.Paste))
  (pad 28 smd rect (at -1.6 15) (size 2 0.9) (layers F.Cu F.Mask F.Paste))
  (pad 30 smd rect (at -1.6 19) (size 2 0.9) (layers F.Cu F.Mask F.Paste))
  (pad 32 smd rect (at -1.6 23) (size 2 0.9) (layers F.Cu F.Mask F.Paste))
  (pad 34 smd rect (at -1.6 27) (size 2 0.9) (layers F.Cu F.Mask F.Paste))
  (pad 36 smd rect (at -1.6 31) (size 2 0.9) (layers F.Cu F.Mask F.Paste))
  (pad 38 smd rect (at -1.6 35) (size 2 0.9) (layers F.Cu F.Mask F.Paste))
  (pad 40 smd rect (at -1.6 39) (size 2 0.9) (layers F.Cu F.Mask F.Paste))
  (pad 1 smd rect (at 1.6 -39) (size 2 0.9) (layers F.Cu F.Mask F.Paste))
  (pad 3 smd rect (at 1.6 -35) (size 2 0.9) (layers F.Cu F.Mask F.Paste))
  (pad 5 smd rect (at 1.6 -31) (size 2 0.9) (layers F.Cu F.Mask F.Paste))
  (pad 7 smd rect (at 1.6 -27) (size 2 0.9) (layers F.Cu F.Mask F.Paste))
  (pad 9 smd rect (at 1.6 -23) (size 2 0.9) (layers F.Cu F.Mask F.Paste))
  (pad 11 smd rect (at 1.6 -19) (size 2 0.9) (layers F.Cu F.Mask F.Paste))
  (pad 13 smd rect (at 1.6 -15) (size 2 0.9) (layers F.Cu F.Mask F.Paste))
  (pad 15 smd rect (at 1.6 -11) (size 2 0.9) (layers F.Cu F.Mask F.Paste))
  (pad 17 smd rect (at 1.6 -7) (size 2 0.9) (layers F.Cu F.Mask F.Paste))
  (pad 19 smd rect (at 1.6 -3) (size 2 0.9) (layers F.Cu F.Mask F.Paste))
  (pad 21 smd rect (at 1.6 1) (size 2 0.9) (layers F.Cu F.Mask F.Paste))
  (pad 23 smd rect (at 1.6 5) (size 2 0.9) (layers F.Cu F.Mask F.Paste))
  (pad 25 smd rect (at 1.6 9) (size 2 0.9) (layers F.Cu F.Mask F.Paste))
  (pad 27 smd rect (at 1.6 13) (size 2 0.9) (layers F.Cu F.Mask F.Paste))
  (pad 29 smd rect (at 1.6 17) (size 2 0.9) (layers F.Cu F.Mask F.Paste))
  (pad 31 smd rect (at 1.6 21) (size 2 0.9) (layers F.Cu F.Mask F.Paste))
  (pad 33 smd rect (at 1.6 25) (size 2 0.9) (layers F.Cu F.Mask F.Paste))
  (pad 35 smd rect (at 1.6 29) (size 2 0.9) (layers F.Cu F.Mask F.Paste))
  (pad 37 smd rect (at 1.6 33) (size 2 0.9) (layers F.Cu F.Mask F.Paste))
  (pad 39 smd rect (at 1.6 37) (size 2 0.9) (layers F.Cu F.Mask F.Paste))
  (fp_text user %R (at 0 0 90) (layer F.Fab)
    (effects (font (size 1 1) (thickness 0.15)))
  )
  (model ${KICAD6_3DMODEL_DIR}/Connector_PinSocket_2.00mm.3dshapes/PinSocket_1x40_P2.00mm_Vertical_SMD_Pin1Right.wrl
    (at (xyz 0 0 0))
    (scale (xyz 1 1 1))
    (rotate (xyz 0 0 0))
  )
)