(module PinSocket_1x18_P2.00mm_Vertical_SMD_Pin1Right (layer F.Cu) (tedit 5A19A430)
  (descr "surface-mounted straight socket strip, 1x18, 2.00mm pitch, single row, style 2 (pin 1 right) (https://www.jayconsystems.com/fileuploader/download/download/?d=1&file=custom%2Fupload%2FFile-1375728122.pdf), script generated")
  (tags "Surface mounted socket strip SMD 1x18 2.00mm single row style2 pin1 right")
  (attr smd)
  (fp_text reference REF** (at 0 -19.8) (layer F.SilkS)
    (effects (font (size 1 1) (thickness 0.15)))
  )
  (fp_text value PinSocket_1x18_P2.00mm_Vertical_SMD_Pin1Right (at 0 19.8) (layer F.Fab)
    (effects (font (size 1 1) (thickness 0.15)))
  )
  (fp_line (start -1.31 -18.36) (end 1.31 -18.36) (layer F.SilkS) (width 0.12))
  (fp_line (start 1.31 -18.36) (end 1.31 -17.71) (layer F.SilkS) (width 0.12))
  (fp_line (start 1.31 -16.29) (end 1.31 -13.71) (layer F.SilkS) (width 0.12))
  (fp_line (start 1.31 -12.29) (end 1.31 -9.71) (layer F.SilkS) (width 0.12))
  (fp_line (start 1.31 -8.29) (end 1.31 -5.71) (layer F.SilkS) (width 0.12))
  (fp_line (start 1.31 -4.29) (end 1.31 -1.71) (layer F.SilkS) (width 0.12))
  (fp_line (start 1.31 -0.29) (end 1.31 2.29) (layer F.SilkS) (width 0.12))
  (fp_line (start 1.31 3.71) (end 1.31 6.29) (layer F.SilkS) (width 0.12))
  (fp_line (start 1.31 7.71) (end 1.31 10.29) (layer F.SilkS) (width 0.12))
  (fp_line (start 1.31 11.71) (end 1.31 14.29) (layer F.SilkS) (width 0.12))
  (fp_line (start 1.31 15.71) (end 1.31 18.36) (layer F.SilkS) (width 0.12))
  (fp_line (start -1.31 18.36) (end 1.31 18.36) (layer F.SilkS) (width 0.12))
  (fp_line (start -1.31 -18.36) (end -1.31 -15.71) (layer F.SilkS) (width 0.12))
  (fp_line (start -1.31 -14.29) (end -1.31 -11.71) (layer F.SilkS) (width 0.12))
  (fp_line (start -1.31 -10.29) (end -1.31 -7.71) (layer F.SilkS) (width 0.12))
  (fp_line (start -1.31 -6.29) (end -1.31 -3.71) (layer F.SilkS) (width 0.12))
  (fp_line (start -1.31 -2.29) (end -1.31 0.29) (layer F.SilkS) (width 0.12))
  (fp_line (start -1.31 1.71) (end -1.31 4.29) (layer F.SilkS) (width 0.12))
  (fp_line (start -1.31 5.71) (end -1.31 8.29) (layer F.SilkS) (width 0.12))
  (fp_line (start -1.31 9.71) (end -1.31 12.29) (layer F.SilkS) (width 0.12))
  (fp_line (start -1.31 13.71) (end -1.31 16.29) (layer F.SilkS) (width 0.12))
  (fp_line (start -1.31 17.71) (end -1.31 18.36) (layer F.SilkS) (width 0.12))
  (fp_line (start 1.31 -17.71) (end 2.54 -17.71) (layer F.SilkS) (width 0.12))
  (fp_line (start -1.25 -18.3) (end 0.625 -18.3) (layer F.Fab) (width 0.1))
  (fp_line (start 0.625 -18.3) (end 1.25 -17.675) (layer F.Fab) (width 0.1))
  (fp_line (start 1.25 -17.675) (end 1.25 18.3) (layer F.Fab) (width 0.1))
  (fp_line (start 1.25 18.3) (end -1.25 18.3) (layer F.Fab) (width 0.1))
  (fp_line (start -1.25 18.3) (end -1.25 -18.3) (layer F.Fab) (width 0.1))
  (fp_line (start 1.25 -17.25) (end 2.1 -17.25) (layer F.Fab) (width 0.1))
  (fp_line (start 2.1 -17.25) (end 2.1 -16.75) (layer F.Fab) (width 0.1))
  (fp_line (start 2.1 -16.75) (end 1.25 -16.75) (layer F.Fab) (width 0.1))
  (fp_line (start -2.1 -15.25) (end -1.25 -15.25) (layer F.Fab) (width 0.1))
  (fp_line (start -1.25 -14.75) (end -2.1 -14.75) (layer F.Fab) (width 0.1))
  (fp_line (start -2.1 -14.75) (end -2.1 -15.25) (layer F.Fab) (width 0.1))
  (fp_line (start 1.25 -13.25) (end 2.1 -13.25) (layer F.Fab) (width 0.1))
  (fp_line (start 2.1 -13.25) (end 2.1 -12.75) (layer F.Fab) (width 0.1))
  (fp_line (start 2.1 -12.75) (end 1.25 -12.75) (layer F.Fab) (width 0.1))
  (fp_line (start -2.1 -11.25) (end -1.25 -11.25) (layer F.Fab) (width 0.1))
  (fp_line (start -1.25 -10.75) (end -2.1 -10.75) (layer F.Fab) (width 0.1))
  (fp_line (start -2.1 -10.75) (end -2.1 -11.25) (layer F.Fab) (width 0.1))
  (fp_line (start 1.25 -9.25) (end 2.1 -9.25) (layer F.Fab) (width 0.1))
  (fp_line (start 2.1 -9.25) (end 2.1 -8.75) (layer F.Fab) (width 0.1))
  (fp_line (start 2.1 -8.75) (end 1.25 -8.75) (layer F.Fab) (width 0.1))
  (fp_line (start -2.1 -7.25) (end -1.25 -7.25) (layer F.Fab) (width 0.1))
  (fp_line (start -1.25 -6.75) (end -2.1 -6.75) (layer F.Fab) (width 0.1))
  (fp_line (start -2.1 -6.75) (end -2.1 -7.25) (layer F.Fab) (width 0.1))
  (fp_line (start 1.25 -5.25) (end 2.1 -5.25) (layer F.Fab) (width 0.1))
  (fp_line (start 2.1 -5.25) (end 2.1 -4.75) (layer F.Fab) (width 0.1))
  (fp_line (start 2.1 -4.75) (end 1.25 -4.75) (layer F.Fab) (width 0.1))
  (fp_line (start -2.1 -3.25) (end -1.25 -3.25) (layer F.Fab) (width 0.1))
  (fp_line (start -1.25 -2.75) (end -2.1 -2.75) (layer F.Fab) (width 0.1))
  (fp_line (start -2.1 -2.75) (end -2.1 -3.25) (layer F.Fab) (width 0.1))
  (fp_line (start 1.25 -1.25) (end 2.1 -1.25) (layer F.Fab) (width 0.1))
  (fp_line (start 2.1 -1.25) (end 2.1 -0.75) (layer F.Fab) (width 0.1))
  (fp_line (start 2.1 -0.75) (end 1.25 -0.75) (layer F.Fab) (width 0.1))
  (fp_line (start -2.1 0.75) (end -1.25 0.75) (layer F.Fab) (width 0.1))
  (fp_line (start -1.25 1.25) (end -2.1 1.25) (layer F.Fab) (width 0.1))
  (fp_line (start -2.1 1.25) (end -2.1 0.75) (layer F.Fab) (width 0.1))
  (fp_line (start 1.25 2.75) (end 2.1 2.75) (layer F.Fab) (width 0.1))
  (fp_line (start 2.1 2.75) (end 2.1 3.25) (layer F.Fab) (width 0.1))
  (fp_line (start 2.1 3.25) (end 1.25 3.25) (layer F.Fab) (width 0.1))
  (fp_line (start -2.1 4.75) (end -1.25 4.75) (layer F.Fab) (width 0.1))
  (fp_line (start -1.25 5.25) (end -2.1 5.25) (layer F.Fab) (width 0.1))
  (fp_line (start -2.1 5.25) (end -2.1 4.75) (layer F.Fab) (width 0.1))
  (fp_line (start 1.25 6.75) (end 2.1 6.75) (layer F.Fab) (width 0.1))
  (fp_line (start 2.1 6.75) (end 2.1 7.25) (layer F.Fab) (width 0.1))
  (fp_line (start 2.1 7.25) (end 1.25 7.25) (layer F.Fab) (width 0.1))
  (fp_line (start -2.1 8.75) (end -1.25 8.75) (layer F.Fab) (width 0.1))
  (fp_line (start -1.25 9.25) (end -2.1 9.25) (layer F.Fab) (width 0.1))
  (fp_line (start -2.1 9.25) (end -2.1 8.75) (layer F.Fab) (width 0.1))
  (fp_line (start 1.25 10.75) (end 2.1 10.75) (layer F.Fab) (width 0.1))
  (fp_line (start 2.1 10.75) (end 2.1 11.25) (layer F.Fab) (width 0.1))
  (fp_line (start 2.1 11.25) (end 1.25 11.25) (layer F.Fab) (width 0.1))
  (fp_line (start -2.1 12.75) (end -1.25 12.75) (layer F.Fab) (width 0.1))
  (fp_line (start -1.25 13.25) (end -2.1 13.25) (layer F.Fab) (width 0.1))
  (fp_line (start -2.1 13.25) (end -2.1 12.75) (layer F.Fab) (width 0.1))
  (fp_line (start 1.25 14.75) (end 2.1 14.75) (layer F.Fab) (width 0.1))
  (fp_line (start 2.1 14.75) (end 2.1 15.25) (layer F.Fab) (width 0.1))
  (fp_line (start 2.1 15.25) (end 1.25 15.25) (layer F.Fab) (width 0.1))
  (fp_line (start -2.1 16.75) (end -1.25 16.75) (layer F.Fab) (width 0.1))
  (fp_line (start -1.25 17.25) (end -2.1 17.25) (layer F.Fab) (width 0.1))
  (fp_line (start -2.1 17.25) (end -2.1 16.75) (layer F.Fab) (width 0.1))
  (fp_line (start -3.1 -18.8) (end 3.1 -18.8) (layer F.CrtYd) (width 0.05))
  (fp_line (start 3.1 -18.8) (end 3.1 18.8) (layer F.CrtYd) (width 0.05))
  (fp_line (start 3.1 18.8) (end -3.1 18.8) (layer F.CrtYd) (width 0.05))
  (fp_line (start -3.1 18.8) (end -3.1 -18.8) (layer F.CrtYd) (width 0.05))
  (pad 2 smd rect (at -1.6 -15) (size 2 0.9) (layers F.Cu F.Mask F.Paste))
  (pad 4 smd rect (at -1.6 -11) (size 2 0.9) (layers F.Cu F.Mask F.Paste))
  (pad 6 smd rect (at -1.6 -7) (size 2 0.9) (layers F.Cu F.Mask F.Paste))
  (pad 8 smd rect (at -1.6 -3) (size 2 0.9) (layers F.Cu F.Mask F.Paste))
  (pad 10 smd rect (at -1.6 1) (size 2 0.9) (layers F.Cu F.Mask F.Paste))
  (pad 12 smd rect (at -1.6 5) (size 2 0.9) (layers F.Cu F.Mask F.Paste))
  (pad 14 smd rect (at -1.6 9) (size 2 0.9) (layers F.Cu F.Mask F.Paste))
  (pad 16 smd rect (at -1.6 13) (size 2 0.9) (layers F.Cu F.Mask F.Paste))
  (pad 18 smd rect (at -1.6 17) (size 2 0.9) (layers F.Cu F.Mask F.Paste))
  (pad 1 smd rect (at 1.6 -17) (size 2 0.9) (layers F.Cu F.Mask F.Paste))
  (pad 3 smd rect (at 1.6 -13) (size 2 0.9) (layers F.Cu F.Mask F.Paste))
  (pad 5 smd rect (at 1.6 -9) (size 2 0.9) (layers F.Cu F.Mask F.Paste))
  (pad 7 smd rect (at 1.6 -5) (size 2 0.9) (layers F.Cu F.Mask F.Paste))
  (pad 9 smd rect (at 1.6 -1) (size 2 0.9) (layers F.Cu F.Mask F.Paste))
  (pad 11 smd rect (at 1.6 3) (size 2 0.9) (layers F.Cu F.Mask F.Paste))
  (pad 13 smd rect (at 1.6 7) (size 2 0.9) (layers F.Cu F.Mask F.Paste))
  (pad 15 smd rect (at 1.6 11) (size 2 0.9) (layers F.Cu F.Mask F.Paste))
  (pad 17 smd rect (at 1.6 15) (size 2 0.9) (layers F.Cu F.Mask F.Paste))
  (fp_text user %R (at 0 0 90) (layer F.Fab)
    (effects (font (size 1 1) (thickness 0.15)))
  )
  (model ${KICAD6_3DMODEL_DIR}/Connector_PinSocket_2.00mm.3dshapes/PinSocket_1x18_P2.00mm_Vertical_SMD_Pin1Right.wrl
    (at (xyz 0 0 0))
    (scale (xyz 1 1 1))
    (rotate (xyz 0 0 0))
  )
)