(module PinSocket_1x08_P2.00mm_Vertical_SMD_Pin1Left (layer F.Cu) (tedit 5A19A423)
  (descr "surface-mounted straight socket strip, 1x08, 2.00mm pitch, single row, style 1 (pin 1 left) (https://www.jayconsystems.com/fileuploader/download/download/?d=1&file=custom%2Fupload%2FFile-1375728122.pdf), script generated")
  (tags "Surface mounted socket strip SMD 1x08 2.00mm single row style1 pin1 left")
  (attr smd)
  (fp_text reference REF** (at 0 -9.8) (layer F.SilkS)
    (effects (font (size 1 1) (thickness 0.15)))
  )
  (fp_text value PinSocket_1x08_P2.00mm_Vertical_SMD_Pin1Left (at 0 9.8) (layer F.Fab)
    (effects (font (size 1 1) (thickness 0.15)))
  )
  (fp_line (start -1.31 -8.36) (end 1.31 -8.36) (layer F.SilkS) (width 0.12))
  (fp_line (start 1.31 -8.36) (end 1.31 -5.71) (layer F.SilkS) (width 0.12))
  (fp_line (start 1.31 -4.29) (end 1.31 -1.71) (layer F.SilkS) (width 0.12))
  (fp_line (start 1.31 -0.29) (end 1.31 2.29) (layer F.SilkS) (width 0.12))
  (fp_line (start 1.31 3.71) (end 1.31 6.29) (layer F.SilkS) (width 0.12))
  (fp_line (start 1.31 7.71) (end 1.31 8.36) (layer F.SilkS) (width 0.12))
  (fp_line (start -1.31 8.36) (end 1.31 8.36) (layer F.SilkS) (width 0.12))
  (fp_line (start -1.31 -8.36) (end -1.31 -7.71) (layer F.SilkS) (width 0.12))
  (fp_line (start -1.31 -6.29) (end -1.31 -3.71) (layer F.SilkS) (width 0.12))
  (fp_line (start -1.31 -2.29) (end -1.31 0.29) (layer F.SilkS) (width 0.12))
  (fp_line (start -1.31 1.71) (end -1.31 4.29) (layer F.SilkS) (width 0.12))
  (fp_line (start -1.31 5.71) (end -1.31 8.36) (layer F.SilkS) (width 0.12))
  (fp_line (start -2.54 -7.71) (end -1.31 -7.71) (layer F.SilkS) (width 0.12))
  (fp_line (start -0.625 -8.3) (end 1.25 -8.3) (layer F.Fab) (width 0.1))
  (fp_line (start 1.25 -8.3) (end 1.25 8.3) (layer F.Fab) (width 0.1))
  (fp_line (start 1.25 8.3) (end -1.25 8.3) (layer F.Fab) (width 0.1))
  (fp_line (start -1.25 8.3) (end -1.25 -7.675) (layer F.Fab) (width 0.1))
  (fp_line (start -1.25 -7.675) (end -0.625 -8.3) (layer F.Fab) (width 0.1))
  (fp_line (start -2.1 -7.25) (end -1.25 -7.25) (layer F.Fab) (width 0.1))
  (fp_line (start -1.25 -6.75) (end -2.1 -6.75) (layer F.Fab) (width 0.1))
  (fp_line (start -2.1 -6.75) (end -2.1 -7.25) (layer F.Fab) (width 0.1))
  (fp_line (start 1.25 -5.25) (end 2.1 -5.25) (layer F.Fab) (width 0.1))
  (fp_line (start 2.1 -5.25) (end 2.1 -4.75) (layer F.Fab) (width 0.1))
  (fp_line (start 2.1 -4.75) (end 1.25 -4.75) (layer F.Fab) (width 0.1))
  (fp_line (start -2.1 -3.25) (end -1.25 -3.25) (layer F.Fab) (width 0.1))
  (fp_line (start -1.25 -2.75) (end -2.1 -2.75) (layer F.Fab) (width 0.1))
  (fp_line (start -2.1 -2.75) (end -2.1 -3.25) (layer F.Fab) (width 0.1))
  (fp_line (start 1.25 -1.25) (end 2.1 -1.25) (layer F.Fab) (width 0.1))
  (fp_line (start 2.1 -1.25) (end 2.1 -0.75) (layer F.Fab) (width 0.1))
  (fp_line (start 2.1 -0.75) (end 1.25 -0.75) (layer F.Fab) (width 0.1))
  (fp_line (start -2.1 0.75) (end -1.25 0.75) (layer F.Fab) (width 0.1))
  (fp_line (start -1.25 1.25) (end -2.1 1.25) (layer F.Fab) (width 0.1))
  (fp_line (start -2.1 1.25) (end -2.1 0.75) (layer F.Fab) (width 0.1))
  (fp_line (start 1.25 2.75) (end 2.1 2.75) (layer F.Fab) (width 0.1))
  (fp_line (start 2.1 2.75) (end 2.1 3.25) (layer F.Fab) (width 0.1))
  (fp_line (start 2.1 3.25) (end 1.25 3.25) (layer F.Fab) (width 0.1))
  (fp_line (start -2.1 4.75) (end -1.25 4.75) (layer F.Fab) (width 0.1))
  (fp_line (start -1.25 5.25) (end -2.1 5.25) (layer F.Fab) (width 0.1))
  (fp_line (start -2.1 5.25) (end -2.1 4.75) (layer F.Fab) (width 0.1))
  (fp_line (start 1.25 6.75) (end 2.1 6.75) (layer F.Fab) (width 0.1))
  (fp_line (start 2.1 6.75) (end 2.1 7.25) (layer F.Fab) (width 0.1))
  (fp_line (start 2.1 7.25) (end 1.25 7.25) (layer F.Fab) (width 0.1))
  (fp_line (start -3.1 -8.8) (end 3.1 -8.8) (layer F.CrtYd) (width 0.05))
  (fp_line (start 3.1 -8.8) (end 3.1 8.8) (layer F.CrtYd) (width 0.05))
  (fp_line (start 3.1 8.8) (end -3.1 8.8) (layer F.CrtYd) (width 0.05))
  (fp_line (start -3.1 8.8) (end -3.1 -8.8) (layer F.CrtYd) (width 0.05))
  (pad 1 smd rect (at -1.6 -7) (size 2 0.9) (layers F.Cu F.Mask F.Paste))
  (pad 3 smd rect (at -1.6 -3) (size 2 0.9) (layers F.Cu F.Mask F.Paste))
  (pad 5 smd rect (at -1.6 1) (size 2 0.9) (layers F.Cu F.Mask F.Paste))
  (pad 7 smd rect (at -1.6 5) (size 2 0.9) (layers F.Cu F.Mask F.Paste))
  (pad 2 smd rect (at 1.6 -5) (size 2 0.9) (layers F.Cu F.Mask F.Paste))
  (pad 4 smd rect (at 1.6 -1) (size 2 0.9) (layers F.Cu F.Mask F.Paste))
  (pad 6 smd rect (at 1.6 3) (size 2 0.9) (layers F.Cu F.Mask F.Paste))
  (pad 8 smd rect (at 1.6 7) (size 2 0.9) (layers F.Cu F.Mask F.Paste))
  (fp_text user %R (at 0 0 90) (layer F.Fab)
    (effects (font (size 1 1) (thickness 0.15)))
  )
  (model ${KICAD6_3DMODEL_DIR}/Connector_PinSocket_2.00mm.3dshapes/PinSocket_1x08_P2.00mm_Vertical_SMD_Pin1Left.wrl
    (at (xyz 0 0 0))
    (scale (xyz 1 1 1))
    (rotate (xyz 0 0 0))
  )
)