(module PinSocket_1x25_P2.00mm_Vertical_SMD_Pin1Left (layer F.Cu) (tedit 5A19A422)
  (descr "surface-mounted straight socket strip, 1x25, 2.00mm pitch, single row, style 1 (pin 1 left) (https://www.jayconsystems.com/fileuploader/download/download/?d=1&file=custom%2Fupload%2FFile-1375728122.pdf), script generated")
  (tags "Surface mounted socket strip SMD 1x25 2.00mm single row style1 pin1 left")
  (attr smd)
  (fp_text reference REF** (at 0 -26.8) (layer F.SilkS)
    (effects (font (size 1 1) (thickness 0.15)))
  )
  (fp_text value PinSocket_1x25_P2.00mm_Vertical_SMD_Pin1Left (at 0 26.8) (layer F.Fab)
    (effects (font (size 1 1) (thickness 0.15)))
  )
  (fp_line (start -1.31 -25.36) (end 1.31 -25.36) (layer F.SilkS) (width 0.12))
  (fp_line (start 1.31 -25.36) (end 1.31 -22.71) (layer F.SilkS) (width 0.12))
  (fp_line (start 1.31 -21.29) (end 1.31 -18.71) (layer F.SilkS) (width 0.12))
  (fp_line (start 1.31 -17.29) (end 1.31 -14.71) (layer F.SilkS) (width 0.12))
  (fp_line (start 1.31 -13.29) (end 1.31 -10.71) (layer F.SilkS) (width 0.12))
  (fp_line (start 1.31 -9.29) (end 1.31 -6.71) (layer F.SilkS) (width 0.12))
  (fp_line (start 1.31 -5.29) (end 1.31 -2.71) (layer F.SilkS) (width 0.12))
  (fp_line (start 1.31 -1.29) (end 1.31 1.29) (layer F.SilkS) (width 0.12))
  (fp_line (start 1.31 2.71) (end 1.31 5.29) (layer F.SilkS) (width 0.12))
  (fp_line (start 1.31 6.71) (end 1.31 9.29) (layer F.SilkS) (width 0.12))
  (fp_line (start 1.31 10.71) (end 1.31 13.29) (layer F.SilkS) (width 0.12))
  (fp_line (start 1.31 14.71) (end 1.31 17.29) (layer F.SilkS) (width 0.12))
  (fp_line (start 1.31 18.71) (end 1.31 21.29) (layer F.SilkS) (width 0.12))
  (fp_line (start 1.31 22.71) (end 1.31 25.36) (layer F.SilkS) (width 0.12))
  (fp_line (start -1.31 25.36) (end 1.31 25.36) (layer F.SilkS) (width 0.12))
  (fp_line (start -1.31 -25.36) (end -1.31 -24.71) (layer F.SilkS) (width 0.12))
  (fp_line (start -1.31 -23.29) (end -1.31 -20.71) (layer F.SilkS) (width 0.12))
  (fp_line (start -1.31 -19.29) (end -1.31 -16.71) (layer F.SilkS) (width 0.12))
  (fp_line (start -1.31 -15.29) (end -1.31 -12.71) (layer F.SilkS) (width 0.12))
  (fp_line (start -1.31 -11.29) (end -1.31 -8.71) (layer F.SilkS) (width 0.12))
  (fp_line (start -1.31 -7.29) (end -1.31 -4.71) (layer F.SilkS) (width 0.12))
  (fp_line (start -1.31 -3.29) (end -1.31 -0.71) (layer F.SilkS) (width 0.12))
  (fp_line (start -1.31 0.71) (end -1.31 3.29) (layer F.SilkS) (width 0.12))
  (fp_line (start -1.31 4.71) (end -1.31 7.29) (layer F.SilkS) (width 0.12))
  (fp_line (start -1.31 8.71) (end -1.31 11.29) (layer F.SilkS) (width 0.12))
  (fp_line (start -1.31 12.71) (end -1.31 15.29) (layer F.SilkS) (width 0.12))
  (fp_line (start -1.31 16.71) (end -1.31 19.29) (layer F.SilkS) (width 0.12))
  (fp_line (start -1.31 20.71) (end -1.31 23.29) (layer F.SilkS) (width 0.12))
  (fp_line (start -1.31 24.71) (end -1.31 25.36) (layer F.SilkS) (width 0.12))
  (fp_line (start -2.54 -24.71) (end -1.31 -24.71) (layer F.SilkS) (width 0.12))
  (fp_line (start -0.625 -25.3) (end 1.25 -25.3) (layer F.Fab) (width 0.1))
  (fp_line (start 1.25 -25.3) (end 1.25 25.3) (layer F.Fab) (width 0.1))
  (fp_line (start 1.25 25.3) (end -1.25 25.3) (layer F.Fab) (width 0.1))
  (fp_line (start -1.25 25.3) (end -1.25 -24.675) (layer F.Fab) (width 0.1))
  (fp_line (start -1.25 -24.675) (end -0.625 -25.3) (layer F.Fab) (width 0.1))
  (fp_line (start -2.1 -24.25) (end -1.25 -24.25) (layer F.Fab) (width 0.1))
  (fp_line (start -1.25 -23.75) (end -2.1 -23.75) (layer F.Fab) (width 0.1))
  (fp_line (start -2.1 -23.75) (end -2.1 -24.25) (layer F.Fab) (width 0.1))
  (fp_line (start 1.25 -22.25) (end 2.1 -22.25) (layer F.Fab) (width 0.1))
  (fp_line (start 2.1 -22.25) (end 2.1 -21.75) (layer F.Fab) (width 0.1))
  (fp_line (start 2.1 -21.75) (end 1.25 -21.75) (layer F.Fab) (width 0.1))
  (fp_line (start -2.1 -20.25) (end -1.25 -20.25) (layer F.Fab) (width 0.1))
  (fp_line (start -1.25 -19.75) (end -2.1 -19.75) (layer F.Fab) (width 0.1))
  (fp_line (start -2.1 -19.75) (end -2.1 -20.25) (layer F.Fab) (width 0.1))
  (fp_line (start 1.25 -18.25) (end 2.1 -18.25) (layer F.Fab) (width 0.1))
  (fp_line (start 2.1 -18.25) (end 2.1 -17.75) (layer F.Fab) (width 0.1))
  (fp_line (start 2.1 -17.75) (end 1.25 -17.75) (layer F.Fab) (width 0.1))
  (fp_line (start -2.1 -16.25) (end -1.25 -16.25) (layer F.Fab) (width 0.1))
  (fp_line (start -1.25 -15.75) (end -2.1 -15.75) (layer F.Fab) (width 0.1))
  (fp_line (start -2.1 -15.75) (end -2.1 -16.25) (layer F.Fab) (width 0.1))
  (fp_line (start 1.25 -14.25) (end 2.1 -14.25) (layer F.Fab) (width 0.1))
  (fp_line (start 2.1 -14.25) (end 2.1 -13.75) (layer F.Fab) (width 0.1))
  (fp_line (start 2.1 -13.75) (end 1.25 -13.75) (layer F.Fab) (width 0.1))
  (fp_line (start -2.1 -12.25) (end -1.25 -12.25) (layer F.Fab) (width 0.1))
  (fp_line (start -1.25 -11.75) (end -2.1 -11.75) (layer F.Fab) (width 0.1))
  (fp_line (start -2.1 -11.75) (end -2.1 -12.25) (layer F.Fab) (width 0.1))
  (fp_line (start 1.25 -10.25) (end 2.1 -10.25) (layer F.Fab) (width 0.1))
  (fp_line (start 2.1 -10.25) (end 2.1 -9.75) (layer F.Fab) (width 0.1))
  (fp_line (start 2.1 -9.75) (end 1.25 -9.75) (layer F.Fab) (width 0.1))
  (fp_line (start -2.1 -8.25) (end -1.25 -8.25) (layer F.Fab) (width 0.1))
  (fp_line (start -1.25 -7.75) (end -2.1 -7.75) (layer F.Fab) (width 0.1))
  (fp_line (start -2.1 -7.75) (end -2.1 -8.25) (layer F.Fab) (width 0.1))
  (fp_line (start 1.25 -6.25) (end 2.1 -6.25) (layer F.Fab) (width 0.1))
  (fp_line (start 2.1 -6.25) (end 2.1 -5.75) (layer F.Fab) (width 0.1))
  (fp_line (start 2.1 -5.75) (end 1.25 -5.75) (layer F.Fab) (width 0.1))
  (fp_line (start -2.1 -4.25) (end -1.25 -4.25) (layer F.Fab) (width 0.1))
  (fp_line (start -1.25 -3.75) (end -2.1 -3.75) (layer F.Fab) (width 0.1))
  (fp_line (start -2.1 -3.75) (end -2.1 -4.25) (layer F.Fab) (width 0.1))
  (fp_line (start 1.25 -2.25) (end 2.1 -2.25) (layer F.Fab) (width 0.1))
  (fp_line (start 2.1 -2.25) (end 2.1 -1.75) (layer F.Fab) (width 0.1))
  (fp_line (start 2.1 -1.75) (end 1.25 -1.75) (layer F.Fab) (width 0.1))
  (fp_line (start -2.1 -0.25) (end -1.25 -0.25) (layer F.Fab) (width 0.1))
  (fp_line (start -1.25 0.25) (end -2.1 0.25) (layer F.Fab) (width 0.1))
  (fp_line (start -2.1 0.25) (end -2.1 -0.25) (layer F.Fab) (width 0.1))
  (fp_line (start 1.25 1.75) (end 2.1 1.75) (layer F.Fab) (width 0.1))
  (fp_line (start 2.1 1.75) (end 2.1 2.25) (layer F.Fab) (width 0.1))
  (fp_line (start 2.1 2.25) (end 1.25 2.25) (layer F.Fab) (width 0.1))
  (fp_line (start -2.1 3.75) (end -1.25 3.75) (layer F.Fab) (width 0.1))
  (fp_line (start -1.25 4.25) (end -2.1 4.25) (layer F.Fab) (width 0.1))
  (fp_line (start -2.1 4.25) (end -2.1 3.75) (layer F.Fab) (width 0.1))
  (fp_line (start 1.25 5.75) (end 2.1 5.75) (layer F.Fab) (width 0.1))
  (fp_line (start 2.1 5.75) (end 2.1 6.25) (layer F.Fab) (width 0.1))
  (fp_line (start 2.1 6.25) (end 1.25 6.25) (layer F.Fab) (width 0.1))
  (fp_line (start -2.1 7.75) (end -1.25 7.75) (layer F.Fab) (width 0.1))
  (fp_line (start -1.25 8.25) (end -2.1 8.25) (layer F.Fab) (width 0.1))
  (fp_line (start -2.1 8.25) (end -2.1 7.75) (layer F.Fab) (width 0.1))
  (fp_line (start 1.25 9.75) (end 2.1 9.75) (layer F.Fab) (width 0.1))
  (fp_line (start 2.1 9.75) (end 2.1 10.25) (layer F.Fab) (width 0.1))
  (fp_line (start 2.1 10.25) (end 1.25 10.25) (layer F.Fab) (width 0.1))
  (fp_line (start -2.1 11.75) (end -1.25 11.75) (layer F.Fab) (width 0.1))
  (fp_line (start -1.25 12.25) (end -2.1 12.25) (layer F.Fab) (width 0.1))
  (fp_line (start -2.1 12.25) (end -2.1 11.75) (layer F.Fab) (width 0.1))
  (fp_line (start 1.25 13.75) (end 2.1 13.75) (layer F.Fab) (width 0.1))
  (fp_line (start 2.1 13.75) (end 2.1 14.25) (layer F.Fab) (width 0.1))
  (fp_line (start 2.1 14.25) (end 1.25 14.25) (layer F.Fab) (width 0.1))
  (fp_line (start -2.1 15.75) (end -1.25 15.75) (layer F.Fab) (width 0.1))
  (fp_line (start -1.25 16.25) (end -2.1 16.25) (layer F.Fab) (width 0.1))
  (fp_line (start -2.1 16.25) (end -2.1 15.75) (layer F.Fab) (width 0.1))
  (fp_line (start 1.25 17.75) (end 2.1 17.75) (layer F.Fab) (width 0.1))
  (fp_line (start 2.1 17.75) (end 2.1 18.25) (layer F.Fab) (width 0.1))
  (fp_line (start 2.1 18.25) (end 1.25 18.25) (layer F.Fab) (width 0.1))
  (fp_line (start -2.1 19.75) (end -1.25 19.75) (layer F.Fab) (width 0.1))
  (fp_line (start -1.25 20.25) (end -2.1 20.25) (layer F.Fab) (width 0.1))
  (fp_line (start -2.1 20.25) (end -2.1 19.75) (layer F.Fab) (width 0.1))
  (fp_line (start 1.25 21.75) (end 2.1 21.75) (layer F.Fab) (width 0.1))
  (fp_line (start 2.1 21.75) (end 2.1 22.25) (layer F.Fab) (width 0.1))
  (fp_line (start 2.1 22.25) (end 1.25 22.25) (layer F.Fab) (width 0.1))
  (fp_line (start -2.1 23.75) (end -1.25 23.75) (layer F.Fab) (width 0.1))
  (fp_line (start -1.25 24.25) (end -2.1 24.25) (layer F.Fab) (width 0.1))
  (fp_line (start -2.1 24.25) (end -2.1 23.75) (layer F.Fab) (width 0.1))
  (fp_line (start -3.1 -25.8) (end 3.1 -25.8) (layer F.CrtYd) (width 0.05))
  (fp_line (start 3.1 -25.8) (end 3.1 25.8) (layer F.CrtYd) (width 0.05))
  (fp_line (start 3.1 25.8) (end -3.1 25.8) (layer F.CrtYd) (width 0.05))
  (fp_line (start -3.1 25.8) (end -3.1 -25.8) (layer F.CrtYd) (width 0.05))
  (pad 1 smd rect (at -1.6 -24) (size 2 0.9) (layers F.Cu F.Mask F.Paste))
  (pad 3 smd rect (at -1.6 -20) (size 2 0.9) (layers F.Cu F.Mask F.Paste))
  (pad 5 smd rect (at -1.6 -16) (size 2 0.9) (layers F.Cu F.Mask F.Paste))
  (pad 7 smd rect (at -1.6 -12) (size 2 0.9) (layers F.Cu F.Mask F.Paste))
  (pad 9 smd rect (at -1.6 -8) (size 2 0.9) (layers F.Cu F.Mask F.Paste))
  (pad 11 smd rect (at -1.6 -4) (size 2 0.9) (layers F.Cu F.Mask F.Paste))
  (pad 13 smd rect (at -1.6 0) (size 2 0.9) (layers F.Cu F.Mask F.Paste))
  (pad 15 smd rect (at -1.6 4) (size 2 0.9) (layers F.Cu F.Mask F.Paste))
  (pad 17 smd rect (at -1.6 8) (size 2 0.9) (layers F.Cu F.Mask F.Paste))
  (pad 19 smd rect (at -1.6 12) (size 2 0.9) (layers F.Cu F.Mask F.Paste))
  (pad 21 smd rect (at -1.6 16) (size 2 0.9) (layers F.Cu F.Mask F.Paste))
  (pad 23 smd rect (at -1.6 20) (size 2 0.9) (layers F.Cu F.Mask F.Paste))
  (pad 25 smd rect (at -1.6 24) (size 2 0.9) (layers F.Cu F.Mask F.Paste))
  (pad 2 smd rect (at 1.6 -22) (size 2 0.9) (layers F.Cu F.Mask F.Paste))
  (pad 4 smd rect (at 1.6 -18) (size 2 0.9) (layers F.Cu F.Mask F.Paste))
  (pad 6 smd rect (at 1.6 -14) (size 2 0.9) (layers F.Cu F.Mask F.Paste))
  (pad 8 smd rect (at 1.6 -10) (size 2 0.9) (layers F.Cu F.Mask F.Paste))
  (pad 10 smd rect (at 1.6 -6) (size 2 0.9) (layers F.Cu F.Mask F.Paste))
  (pad 12 smd rect (at 1.6 -2) (size 2 0.9) (layers F.Cu F.Mask F.Paste))
  (pad 14 smd rect (at 1.6 2) (size 2 0.9) (layers F.Cu F.Mask F.Paste))
  (pad 16 smd rect (at 1.6 6) (size 2 0.9) (layers F.Cu F.Mask F.Paste))
  (pad 18 smd rect (at 1.6 10) (size 2 0.9) (layers F.Cu F.Mask F.Paste))
  (pad 20 smd rect (at 1.6 14) (size 2 0.9) (layers F.Cu F.Mask F.Paste))
  (pad 22 smd rect (at 1.6 18) (size 2 0.9) (layers F.Cu F.Mask F.Paste))
  (pad 24 smd rect (at 1.6 22) (size 2 0.9) (layers F.Cu F.Mask F.Paste))
  (fp_text user %R (at 0 0 90) (layer F.Fab)
    (effects (font (size 1 1) (thickness 0.15)))
  )
  (model ${KICAD6_3DMODEL_DIR}/Connector_PinSocket_2.00mm.3dshapes/PinSocket_1x25_P2.00mm_Vertical_SMD_Pin1Left.wrl
    (at (xyz 0 0 0))
    (scale (xyz 1 1 1))
    (rotate (xyz 0 0 0))
  )
)